{ "blocks":
    [ { "hash": "BLcA2bp5aNyMSzXVLHgKK3U2nxMnKxSBFarnBZAvoUdQJHgtwH2",
        "delegate": "tz1irJKkXS2DBWkU1NnmFQx1c1L7pbGg4yhk",
        "reception_time": "2022-01-15T01:53:15.182-00:00",
        "timestamp": "2022-01-15T01:53:10Z" } ],
  "endorsements":
    [ { "delegate": "tz1Vyuu4EJ5Nym4JcrfRLnp3hpaq1DSEp1Ke" },
      { "delegate": "tz1STeamwbp68THcny9zk3LsbG3H36DMvbRK",
        "reception_time": "2022-01-15T01:53:15.183-00:00",
        "errors":
          [ { "kind": "temporary",
              "id": "proto.011-PtHangz2.prefilter.outdated_endorsement" } ],
        "included_in_blocks":
          [ "BKmkww9Jxk4meifPvKFrLVfmHLBCamuDZQGGzSCe4jQtB2MTmV3" ] },
      { "delegate": "tz1MXFrtZoaXckE41bjUCSjAjAap3AFDSr3N",
        "reception_time": "2022-01-15T01:53:15.165-00:00",
        "errors":
          [ { "kind": "temporary",
              "id": "proto.011-PtHangz2.prefilter.outdated_endorsement" } ],
        "included_in_blocks":
          [ "BKmkww9Jxk4meifPvKFrLVfmHLBCamuDZQGGzSCe4jQtB2MTmV3" ] },
      { "delegate": "tz1irJKkXS2DBWkU1NnmFQx1c1L7pbGg4yhk",
        "reception_time": "2022-01-15T01:53:15.150-00:00",
        "errors":
          [ { "kind": "temporary",
              "id": "proto.011-PtHangz2.prefilter.outdated_endorsement" } ],
        "included_in_blocks":
          [ "BKmkww9Jxk4meifPvKFrLVfmHLBCamuDZQGGzSCe4jQtB2MTmV3" ] },
      { "delegate": "tz1Lhf4J9Qxoe3DZ2nfe8FGDnvVj7oKjnMY6",
        "reception_time": "2022-01-15T01:53:15.057-00:00",
        "errors":
          [ { "kind": "temporary",
              "id": "proto.011-PtHangz2.prefilter.outdated_endorsement" } ],
        "included_in_blocks":
          [ "BKmkww9Jxk4meifPvKFrLVfmHLBCamuDZQGGzSCe4jQtB2MTmV3" ] },
      { "delegate": "tz1beersuEDv8Z7ngQ825xfbaJNS2EhXnyHR",
        "reception_time": "2022-01-15T01:53:15.052-00:00",
        "errors":
          [ { "kind": "temporary",
              "id": "proto.011-PtHangz2.prefilter.outdated_endorsement" } ],
        "included_in_blocks":
          [ "BKmkww9Jxk4meifPvKFrLVfmHLBCamuDZQGGzSCe4jQtB2MTmV3" ] },
      { "delegate": "tz1S8e9GgdZG78XJRB3NqabfWeM37GnhZMWQ",
        "reception_time": "2022-01-15T01:53:14.819-00:00",
        "errors":
          [ { "kind": "temporary",
              "id": "proto.011-PtHangz2.prefilter.outdated_endorsement" } ],
        "included_in_blocks":
          [ "BKmkww9Jxk4meifPvKFrLVfmHLBCamuDZQGGzSCe4jQtB2MTmV3" ] },
      { "delegate": "tz1NpWrAyDL9k2Lmnyxcgr9xuJakbBxdq7FB",
        "reception_time": "2022-01-15T01:53:22.773-00:00",
        "included_in_blocks":
          [ "BKmkww9Jxk4meifPvKFrLVfmHLBCamuDZQGGzSCe4jQtB2MTmV3" ] },
      { "delegate": "tz1go7f6mEQfT2xX2LuHAqgnRGN6c2zHPf5c",
        "reception_time": "2022-01-15T01:53:21.300-00:00",
        "included_in_blocks":
          [ "BKmkww9Jxk4meifPvKFrLVfmHLBCamuDZQGGzSCe4jQtB2MTmV3" ] },
      { "delegate": "tz1dfg9PkvRLf7hKMmGdGRhXWCbd8QgbwBF7",
        "reception_time": "2022-01-15T01:53:20.600-00:00",
        "included_in_blocks":
          [ "BKmkww9Jxk4meifPvKFrLVfmHLBCamuDZQGGzSCe4jQtB2MTmV3" ] },
      { "delegate": "tz1dwPPhzb6uJcmrE8CwMadw8vxGRjNEDURc",
        "reception_time": "2022-01-15T01:53:20.518-00:00",
        "included_in_blocks":
          [ "BKmkww9Jxk4meifPvKFrLVfmHLBCamuDZQGGzSCe4jQtB2MTmV3" ] },
      { "delegate": "tz1W5VkdB5s7ENMESVBtwyt9kyvLqPcUczRT",
        "reception_time": "2022-01-15T01:53:20.369-00:00",
        "included_in_blocks":
          [ "BKmkww9Jxk4meifPvKFrLVfmHLBCamuDZQGGzSCe4jQtB2MTmV3" ] },
      { "delegate": "tz1TcH4Nb3aHNDJ7CGZhU7jgAK1BkSP4Lxds",
        "reception_time": "2022-01-15T01:53:19.557-00:00",
        "included_in_blocks":
          [ "BKmkww9Jxk4meifPvKFrLVfmHLBCamuDZQGGzSCe4jQtB2MTmV3" ] },
      { "delegate": "tz1dRKU4FQ9QRRQPdaH4zCR6gmCmXfcvcgtB",
        "reception_time": "2022-01-15T01:53:18.758-00:00",
        "included_in_blocks":
          [ "BKmkww9Jxk4meifPvKFrLVfmHLBCamuDZQGGzSCe4jQtB2MTmV3" ] },
      { "delegate": "tz3NExpXn9aPNZPorRE4SdjJ2RGrfbJgMAaV",
        "reception_time": "2022-01-15T01:53:18.612-00:00",
        "included_in_blocks":
          [ "BKmkww9Jxk4meifPvKFrLVfmHLBCamuDZQGGzSCe4jQtB2MTmV3" ] },
      { "delegate": "tz1P2Po7YM526ughEsRbY4oR9zaUPDZjxFrb",
        "reception_time": "2022-01-15T01:53:18.459-00:00",
        "included_in_blocks":
          [ "BKmkww9Jxk4meifPvKFrLVfmHLBCamuDZQGGzSCe4jQtB2MTmV3" ] },
      { "delegate": "tz1fJHFn6sWEd3NnBPngACuw2dggTv6nQZ7g",
        "reception_time": "2022-01-15T01:53:18.358-00:00",
        "included_in_blocks":
          [ "BKmkww9Jxk4meifPvKFrLVfmHLBCamuDZQGGzSCe4jQtB2MTmV3" ] },
      { "delegate": "tz1f3Re8iw6Pt3KMHAvyccHxDU3NuqL95axD",
        "reception_time": "2022-01-15T01:53:18.231-00:00",
        "included_in_blocks":
          [ "BKmkww9Jxk4meifPvKFrLVfmHLBCamuDZQGGzSCe4jQtB2MTmV3" ] },
      { "delegate": "tz1T7duV5gZWSTq4YpBGbXNLTfznCLDrFxvs",
        "reception_time": "2022-01-15T01:53:18.266-00:00",
        "included_in_blocks":
          [ "BKmkww9Jxk4meifPvKFrLVfmHLBCamuDZQGGzSCe4jQtB2MTmV3" ] },
      { "delegate": "tz1NEKxGEHsFufk87CVZcrqWu8o22qh46GK6",
        "reception_time": "2022-01-15T01:53:18.075-00:00",
        "included_in_blocks":
          [ "BKmkww9Jxk4meifPvKFrLVfmHLBCamuDZQGGzSCe4jQtB2MTmV3" ] },
      { "delegate": "tz1cYufsxHXJcvANhvS55h3aY32a9BAFB494",
        "reception_time": "2022-01-15T01:53:18.037-00:00",
        "included_in_blocks":
          [ "BKmkww9Jxk4meifPvKFrLVfmHLBCamuDZQGGzSCe4jQtB2MTmV3" ] },
      { "delegate": "tz1dNVDWPf3Q59SdJqnjdnu277iyvReiRS9M",
        "reception_time": "2022-01-15T01:53:18.183-00:00",
        "included_in_blocks":
          [ "BKmkww9Jxk4meifPvKFrLVfmHLBCamuDZQGGzSCe4jQtB2MTmV3" ] },
      { "delegate": "tz1aRoaRhSpRYvFdyvgWLL6TGyRoGF51wDjM",
        "reception_time": "2022-01-15T01:53:17.924-00:00",
        "included_in_blocks":
          [ "BKmkww9Jxk4meifPvKFrLVfmHLBCamuDZQGGzSCe4jQtB2MTmV3" ] },
      { "delegate": "tz1R6Ej25VSerE3MkSoEEeBjKHCDTFbpKuSX",
        "reception_time": "2022-01-15T01:53:17.722-00:00",
        "included_in_blocks":
          [ "BKmkww9Jxk4meifPvKFrLVfmHLBCamuDZQGGzSCe4jQtB2MTmV3" ] },
      { "delegate": "tz1Nf6tsK4G6bBqgSQERy4nUtkHNKUVdh7q1",
        "reception_time": "2022-01-15T01:53:17.725-00:00",
        "included_in_blocks":
          [ "BKmkww9Jxk4meifPvKFrLVfmHLBCamuDZQGGzSCe4jQtB2MTmV3" ] },
      { "delegate": "tz3VEZ4k6a4Wx42iyev6i2aVAptTRLEAivNN",
        "reception_time": "2022-01-15T01:53:17.746-00:00",
        "included_in_blocks":
          [ "BKmkww9Jxk4meifPvKFrLVfmHLBCamuDZQGGzSCe4jQtB2MTmV3" ] },
      { "delegate": "tz1awXW7wuXy21c66vBudMXQVAPgRnqqwgTH",
        "reception_time": "2022-01-15T01:53:17.722-00:00",
        "included_in_blocks":
          [ "BKmkww9Jxk4meifPvKFrLVfmHLBCamuDZQGGzSCe4jQtB2MTmV3" ] },
      { "delegate": "tz3WMqdzXqRWXwyvj5Hp2H7QEepaUuS7vd9K",
        "reception_time": "2022-01-15T01:53:17.559-00:00",
        "included_in_blocks":
          [ "BKmkww9Jxk4meifPvKFrLVfmHLBCamuDZQGGzSCe4jQtB2MTmV3" ] },
      { "delegate": "tz1SYq214SCBy9naR6cvycQsYcUGpBqQAE8d",
        "reception_time": "2022-01-15T01:53:17.505-00:00",
        "included_in_blocks":
          [ "BKmkww9Jxk4meifPvKFrLVfmHLBCamuDZQGGzSCe4jQtB2MTmV3" ] },
      { "delegate": "tz3UoffC7FG7zfpmvmjUmUeAaHvzdcUvAj6r",
        "reception_time": "2022-01-15T01:53:17.411-00:00",
        "included_in_blocks":
          [ "BKmkww9Jxk4meifPvKFrLVfmHLBCamuDZQGGzSCe4jQtB2MTmV3" ] },
      { "delegate": "tz3RDC3Jdn4j15J7bBHZd29EUee9gVB1CxD9",
        "reception_time": "2022-01-15T01:53:17.518-00:00",
        "included_in_blocks":
          [ "BKmkww9Jxk4meifPvKFrLVfmHLBCamuDZQGGzSCe4jQtB2MTmV3" ] },
      { "delegate": "tz2FCNBrERXtaTtNX6iimR1UJ5JSDxvdHM93",
        "reception_time": "2022-01-15T01:53:17.136-00:00",
        "included_in_blocks":
          [ "BKmkww9Jxk4meifPvKFrLVfmHLBCamuDZQGGzSCe4jQtB2MTmV3" ] },
      { "delegate": "tz1KfEsrtDaA1sX7vdM4qmEPWuSytuqCDp5j",
        "reception_time": "2022-01-15T01:53:17.286-00:00",
        "included_in_blocks":
          [ "BKmkww9Jxk4meifPvKFrLVfmHLBCamuDZQGGzSCe4jQtB2MTmV3" ] },
      { "delegate": "tz1RjoHc98dBoqaH2jawF62XNKh7YsHwbkEv",
        "reception_time": "2022-01-15T01:53:17.111-00:00",
        "included_in_blocks":
          [ "BKmkww9Jxk4meifPvKFrLVfmHLBCamuDZQGGzSCe4jQtB2MTmV3" ] },
      { "delegate": "tz1ei4WtWEMEJekSv8qDnu9PExG6Q8HgRGr3",
        "reception_time": "2022-01-15T01:53:17.112-00:00",
        "included_in_blocks":
          [ "BKmkww9Jxk4meifPvKFrLVfmHLBCamuDZQGGzSCe4jQtB2MTmV3" ] },
      { "delegate": "tz1TEc75UKXv4W5cwi14Na3NtqFD51yKQi7h",
        "reception_time": "2022-01-15T01:53:17.021-00:00",
        "included_in_blocks":
          [ "BKmkww9Jxk4meifPvKFrLVfmHLBCamuDZQGGzSCe4jQtB2MTmV3" ] },
      { "delegate": "tz1TRqbYbUf2GyrjErf3hBzgBJPzW8y36qEs",
        "reception_time": "2022-01-15T01:53:17.132-00:00",
        "included_in_blocks":
          [ "BKmkww9Jxk4meifPvKFrLVfmHLBCamuDZQGGzSCe4jQtB2MTmV3" ] },
      { "delegate": "tz3gLTu4Yxj8tPAcriQVUdxv6BY9QyvzU1az",
        "reception_time": "2022-01-15T01:53:17.143-00:00",
        "included_in_blocks":
          [ "BKmkww9Jxk4meifPvKFrLVfmHLBCamuDZQGGzSCe4jQtB2MTmV3" ] },
      { "delegate": "tz1V4qCyvPKZ5UeqdH14HN42rxvNPQfc9UZg",
        "reception_time": "2022-01-15T01:53:16.856-00:00",
        "included_in_blocks":
          [ "BKmkww9Jxk4meifPvKFrLVfmHLBCamuDZQGGzSCe4jQtB2MTmV3" ] },
      { "delegate": "tz1iZvYctCtV2oGvEeXCCgUseb4qtdKh3mrV",
        "reception_time": "2022-01-15T01:53:17.018-00:00",
        "included_in_blocks":
          [ "BKmkww9Jxk4meifPvKFrLVfmHLBCamuDZQGGzSCe4jQtB2MTmV3" ] },
      { "delegate": "tz1LmaFsWRkjr7QMCx5PtV6xTUz3AmEpKQiF",
        "reception_time": "2022-01-15T01:53:17.104-00:00",
        "included_in_blocks":
          [ "BKmkww9Jxk4meifPvKFrLVfmHLBCamuDZQGGzSCe4jQtB2MTmV3" ] },
      { "delegate": "tz1NSDFKuRyzHxpfG1AMkyCwEiZ52cbR2mRW",
        "reception_time": "2022-01-15T01:53:17.032-00:00",
        "included_in_blocks":
          [ "BKmkww9Jxk4meifPvKFrLVfmHLBCamuDZQGGzSCe4jQtB2MTmV3" ] },
      { "delegate": "tz1MGTFJXpQmtxLi8QJ7AuVRgM2L2Qfn9w9i",
        "reception_time": "2022-01-15T01:53:16.743-00:00",
        "included_in_blocks":
          [ "BKmkww9Jxk4meifPvKFrLVfmHLBCamuDZQGGzSCe4jQtB2MTmV3" ] },
      { "delegate": "tz3bTdwZinP8U1JmSweNzVKhmwafqWmFWRfk",
        "reception_time": "2022-01-15T01:53:16.750-00:00",
        "included_in_blocks":
          [ "BKmkww9Jxk4meifPvKFrLVfmHLBCamuDZQGGzSCe4jQtB2MTmV3" ] },
      { "delegate": "tz1RCFbB9GpALpsZtu6J58sb74dm8qe6XBzv",
        "reception_time": "2022-01-15T01:53:16.761-00:00",
        "included_in_blocks":
          [ "BKmkww9Jxk4meifPvKFrLVfmHLBCamuDZQGGzSCe4jQtB2MTmV3" ] },
      { "delegate": "tz1PWCDnz783NNGGQjEFFsHtrcK5yBW4E2rm",
        "reception_time": "2022-01-15T01:53:16.770-00:00",
        "included_in_blocks":
          [ "BKmkww9Jxk4meifPvKFrLVfmHLBCamuDZQGGzSCe4jQtB2MTmV3" ] },
      { "delegate": "tz3bvNMQ95vfAYtG8193ymshqjSvmxiCUuR5",
        "reception_time": "2022-01-15T01:53:16.625-00:00",
        "included_in_blocks":
          [ "BKmkww9Jxk4meifPvKFrLVfmHLBCamuDZQGGzSCe4jQtB2MTmV3" ] },
      { "delegate": "tz1gfArv665EUkSg2ojMBzcbfwuPxAvqPvjo",
        "reception_time": "2022-01-15T01:53:16.617-00:00",
        "included_in_blocks":
          [ "BKmkww9Jxk4meifPvKFrLVfmHLBCamuDZQGGzSCe4jQtB2MTmV3" ] },
      { "delegate": "tz3RB4aoyjov4KEVRbuhvQ1CKJgBJMWhaeB8",
        "reception_time": "2022-01-15T01:53:16.571-00:00",
        "included_in_blocks":
          [ "BKmkww9Jxk4meifPvKFrLVfmHLBCamuDZQGGzSCe4jQtB2MTmV3" ] },
      { "delegate": "tz1S8MNvuFEUsWgjHvi3AxibRBf388NhT1q2",
        "reception_time": "2022-01-15T01:53:16.694-00:00",
        "included_in_blocks":
          [ "BKmkww9Jxk4meifPvKFrLVfmHLBCamuDZQGGzSCe4jQtB2MTmV3" ] },
      { "delegate": "tz1WCd2jm4uSt4vntk4vSuUWoZQGhLcDuR9q",
        "reception_time": "2022-01-15T01:53:16.331-00:00",
        "included_in_blocks":
          [ "BKmkww9Jxk4meifPvKFrLVfmHLBCamuDZQGGzSCe4jQtB2MTmV3" ] },
      { "delegate": "tz1XX67xSF2ou3aQZ6LhXaaxZWDR3YZ6hCMs",
        "reception_time": "2022-01-15T01:53:16.148-00:00",
        "included_in_blocks":
          [ "BKmkww9Jxk4meifPvKFrLVfmHLBCamuDZQGGzSCe4jQtB2MTmV3" ] },
      { "delegate": "tz3QT9dHYKDqh563chVa6za8526ys1UKfRfL",
        "reception_time": "2022-01-15T01:53:16.238-00:00",
        "included_in_blocks":
          [ "BKmkww9Jxk4meifPvKFrLVfmHLBCamuDZQGGzSCe4jQtB2MTmV3" ] },
      { "delegate": "tz3Zhs2dygr55yHyQyKjntAtY9bgfhLZ4Xj1",
        "reception_time": "2022-01-15T01:53:16.212-00:00",
        "included_in_blocks":
          [ "BKmkww9Jxk4meifPvKFrLVfmHLBCamuDZQGGzSCe4jQtB2MTmV3" ] },
      { "delegate": "tz1TzaNn7wSQSP5gYPXCnNzBCpyMiidCq1PX",
        "reception_time": "2022-01-15T01:53:16.217-00:00",
        "included_in_blocks":
          [ "BKmkww9Jxk4meifPvKFrLVfmHLBCamuDZQGGzSCe4jQtB2MTmV3" ] },
      { "delegate": "tz1VmiY38m3y95HqQLjMwqnMS7sdMfGomzKi",
        "reception_time": "2022-01-15T01:53:16.231-00:00",
        "included_in_blocks":
          [ "BKmkww9Jxk4meifPvKFrLVfmHLBCamuDZQGGzSCe4jQtB2MTmV3" ] },
      { "delegate": "tz3iJu5vrKZcsqRPs8yJ61UDoeEXZmtro4qh",
        "reception_time": "2022-01-15T01:53:16.328-00:00",
        "included_in_blocks":
          [ "BKmkww9Jxk4meifPvKFrLVfmHLBCamuDZQGGzSCe4jQtB2MTmV3" ] },
      { "delegate": "tz3hw2kqXhLUvY65ca1eety2oQTpAvd34R9Q",
        "reception_time": "2022-01-15T01:53:16.075-00:00",
        "included_in_blocks":
          [ "BKmkww9Jxk4meifPvKFrLVfmHLBCamuDZQGGzSCe4jQtB2MTmV3" ] },
      { "delegate": "tz1eDDuQBEgwvc6tbnnCVrnr12tvrd6gBTpx",
        "reception_time": "2022-01-15T01:53:15.975-00:00",
        "included_in_blocks":
          [ "BKmkww9Jxk4meifPvKFrLVfmHLBCamuDZQGGzSCe4jQtB2MTmV3" ] },
      { "delegate": "tz3gtoUxdudfBRcNY7iVdKPHCYYX6xdPpoRS",
        "reception_time": "2022-01-15T01:53:16.061-00:00",
        "included_in_blocks":
          [ "BKmkww9Jxk4meifPvKFrLVfmHLBCamuDZQGGzSCe4jQtB2MTmV3" ] },
      { "delegate": "tz1VQnqCCqX4K5sP3FNkVSNKTdCAMJDd3E1n",
        "reception_time": "2022-01-15T01:53:16.316-00:00",
        "included_in_blocks":
          [ "BKmkww9Jxk4meifPvKFrLVfmHLBCamuDZQGGzSCe4jQtB2MTmV3" ] },
      { "delegate": "tz1gUNyn3hmnEWqkusWPzxRaon1cs7ndWh7h",
        "reception_time": "2022-01-15T01:53:16.261-00:00",
        "included_in_blocks":
          [ "BKmkww9Jxk4meifPvKFrLVfmHLBCamuDZQGGzSCe4jQtB2MTmV3" ] },
      { "delegate": "tz3QSGPoRp3Kn7n3vY24eYeu3Peuqo45LQ4D",
        "reception_time": "2022-01-15T01:53:15.991-00:00",
        "included_in_blocks":
          [ "BKmkww9Jxk4meifPvKFrLVfmHLBCamuDZQGGzSCe4jQtB2MTmV3" ] },
      { "delegate": "tz1Kt4P8BCaP93AEV4eA7gmpRryWt5hznjCP",
        "reception_time": "2022-01-15T01:53:16.009-00:00",
        "included_in_blocks":
          [ "BKmkww9Jxk4meifPvKFrLVfmHLBCamuDZQGGzSCe4jQtB2MTmV3" ] },
      { "delegate": "tz1Ldzz6k1BHdhuKvAtMRX7h5kJSMHESMHLC",
        "reception_time": "2022-01-15T01:53:15.948-00:00",
        "included_in_blocks":
          [ "BKmkww9Jxk4meifPvKFrLVfmHLBCamuDZQGGzSCe4jQtB2MTmV3" ] },
      { "delegate": "tz3NxTnke1acr8o3h5y9ytf5awQBGNJUKzVU",
        "reception_time": "2022-01-15T01:53:15.915-00:00",
        "included_in_blocks":
          [ "BKmkww9Jxk4meifPvKFrLVfmHLBCamuDZQGGzSCe4jQtB2MTmV3" ] },
      { "delegate": "tz3ZbP2pM3nwvXztbuMJwJnDvV5xdpU8UkkD",
        "reception_time": "2022-01-15T01:53:15.929-00:00",
        "included_in_blocks":
          [ "BKmkww9Jxk4meifPvKFrLVfmHLBCamuDZQGGzSCe4jQtB2MTmV3" ] },
      { "delegate": "tz1fUyqYH7H4pRHN1roWY17giXhy1RvxjgUV",
        "reception_time": "2022-01-15T01:53:15.918-00:00",
        "included_in_blocks":
          [ "BKmkww9Jxk4meifPvKFrLVfmHLBCamuDZQGGzSCe4jQtB2MTmV3" ] },
      { "delegate": "tz1Kf25fX1VdmYGSEzwFy1wNmkbSEZ2V83sY",
        "reception_time": "2022-01-15T01:53:15.923-00:00",
        "included_in_blocks":
          [ "BKmkww9Jxk4meifPvKFrLVfmHLBCamuDZQGGzSCe4jQtB2MTmV3" ] },
      { "delegate": "tz1eEnQhbwf6trb8Q8mPb2RaPkNk2rN7BKi8",
        "reception_time": "2022-01-15T01:53:15.903-00:00",
        "included_in_blocks":
          [ "BKmkww9Jxk4meifPvKFrLVfmHLBCamuDZQGGzSCe4jQtB2MTmV3" ] },
      { "delegate": "tz1TXzyaKUA8wsWefdSnyaYFnV2M3vCV7er9",
        "reception_time": "2022-01-15T01:53:15.894-00:00",
        "included_in_blocks":
          [ "BKmkww9Jxk4meifPvKFrLVfmHLBCamuDZQGGzSCe4jQtB2MTmV3" ] } ] }