{ "blocks":
    [ { "hash": "BMCCnxPwvqSU6DfhShfvMbMTcKdSu7xLRRVnQ5p4qzn1mLXvnZH",
        "delegate": "tz3ZbP2pM3nwvXztbuMJwJnDvV5xdpU8UkkD",
        "reception_time": "2022-01-15T01:52:50.066-00:00",
        "timestamp": "2022-01-15T01:52:40Z" } ],
  "endorsements":
    [ { "delegate": "tz1dbfppLAAxXZNtf2SDps7rch3qfUznKSoK" },
      { "delegate": "tz1TRspM5SeZpaQUhzByXbEvqKF1vnCM2YTK" },
      { "delegate": "tz1MJx9vhaNRSimcuXPK2rW4fLccQnDAnVKJ" },
      { "delegate": "tz1Kt4P8BCaP93AEV4eA7gmpRryWt5hznjCP",
        "reception_time": "2022-01-15T01:52:49.985-00:00",
        "errors":
          [ { "kind": "temporary",
              "id": "proto.011-PtHangz2.prefilter.outdated_endorsement" } ],
        "included_in_blocks":
          [ "BLcA2bp5aNyMSzXVLHgKK3U2nxMnKxSBFarnBZAvoUdQJHgtwH2" ] },
      { "delegate": "tz3ZbP2pM3nwvXztbuMJwJnDvV5xdpU8UkkD",
        "reception_time": "2022-01-15T01:52:49.922-00:00",
        "errors":
          [ { "kind": "temporary",
              "id": "proto.011-PtHangz2.prefilter.outdated_endorsement" } ],
        "included_in_blocks":
          [ "BLcA2bp5aNyMSzXVLHgKK3U2nxMnKxSBFarnBZAvoUdQJHgtwH2" ] },
      { "delegate": "tz3NxTnke1acr8o3h5y9ytf5awQBGNJUKzVU",
        "reception_time": "2022-01-15T01:52:49.892-00:00",
        "errors":
          [ { "kind": "temporary",
              "id": "proto.011-PtHangz2.prefilter.outdated_endorsement" } ],
        "included_in_blocks":
          [ "BLcA2bp5aNyMSzXVLHgKK3U2nxMnKxSBFarnBZAvoUdQJHgtwH2" ] },
      { "delegate": "tz1irJKkXS2DBWkU1NnmFQx1c1L7pbGg4yhk",
        "reception_time": "2022-01-15T01:52:49.536-00:00",
        "errors":
          [ { "kind": "temporary",
              "id": "proto.011-PtHangz2.prefilter.outdated_endorsement" } ],
        "included_in_blocks":
          [ "BLcA2bp5aNyMSzXVLHgKK3U2nxMnKxSBFarnBZAvoUdQJHgtwH2" ] },
      { "delegate": "tz1Scdr2HsZiQjc7bHMeBbmDRXYVvdhjJbBh",
        "reception_time": "2022-01-15T01:52:49.391-00:00",
        "errors":
          [ { "kind": "temporary",
              "id": "proto.011-PtHangz2.prefilter.outdated_endorsement" } ],
        "included_in_blocks":
          [ "BLcA2bp5aNyMSzXVLHgKK3U2nxMnKxSBFarnBZAvoUdQJHgtwH2" ] },
      { "delegate": "tz1eEnQhbwf6trb8Q8mPb2RaPkNk2rN7BKi8",
        "reception_time": "2022-01-15T01:52:49.248-00:00",
        "errors":
          [ { "kind": "temporary",
              "id": "proto.011-PtHangz2.prefilter.outdated_endorsement" } ],
        "included_in_blocks":
          [ "BLcA2bp5aNyMSzXVLHgKK3U2nxMnKxSBFarnBZAvoUdQJHgtwH2" ] },
      { "delegate": "tz1P2Po7YM526ughEsRbY4oR9zaUPDZjxFrb",
        "reception_time": "2022-01-15T01:52:49.161-00:00",
        "errors":
          [ { "kind": "temporary",
              "id": "proto.011-PtHangz2.prefilter.outdated_endorsement" } ],
        "included_in_blocks":
          [ "BLcA2bp5aNyMSzXVLHgKK3U2nxMnKxSBFarnBZAvoUdQJHgtwH2" ] },
      { "delegate": "tz1Lhf4J9Qxoe3DZ2nfe8FGDnvVj7oKjnMY6",
        "reception_time": "2022-01-15T01:52:49.023-00:00",
        "errors":
          [ { "kind": "temporary",
              "id": "proto.011-PtHangz2.prefilter.outdated_endorsement" } ],
        "included_in_blocks":
          [ "BLcA2bp5aNyMSzXVLHgKK3U2nxMnKxSBFarnBZAvoUdQJHgtwH2" ] },
      { "delegate": "tz1S8e9GgdZG78XJRB3NqabfWeM37GnhZMWQ",
        "reception_time": "2022-01-15T01:52:48.679-00:00",
        "errors":
          [ { "kind": "temporary",
              "id": "proto.011-PtHangz2.prefilter.outdated_endorsement" } ],
        "included_in_blocks":
          [ "BLcA2bp5aNyMSzXVLHgKK3U2nxMnKxSBFarnBZAvoUdQJHgtwH2" ] },
      { "delegate": "tz1NpWrAyDL9k2Lmnyxcgr9xuJakbBxdq7FB",
        "reception_time": "2022-01-15T01:53:04.051-00:00",
        "included_in_blocks":
          [ "BLcA2bp5aNyMSzXVLHgKK3U2nxMnKxSBFarnBZAvoUdQJHgtwH2" ] },
      { "delegate": "tz3e7LbZvUtoXhpUD1yb6wuFodZpfYRb9nWJ",
        "reception_time": "2022-01-15T01:52:59.872-00:00",
        "included_in_blocks":
          [ "BLcA2bp5aNyMSzXVLHgKK3U2nxMnKxSBFarnBZAvoUdQJHgtwH2" ] },
      { "delegate": "tz1NRGxXV9h6SdNaZLcgmjuLx3hyy2f8YoGN",
        "reception_time": "2022-01-15T01:52:59.773-00:00",
        "included_in_blocks":
          [ "BLcA2bp5aNyMSzXVLHgKK3U2nxMnKxSBFarnBZAvoUdQJHgtwH2" ] },
      { "delegate": "tz1g8vkmcde6sWKaG2NN9WKzCkDM6Rziq194",
        "reception_time": "2022-01-15T01:52:56.473-00:00",
        "included_in_blocks":
          [ "BLcA2bp5aNyMSzXVLHgKK3U2nxMnKxSBFarnBZAvoUdQJHgtwH2" ] },
      { "delegate": "tz2BzJTyoQp8fNbfhWD4YQgH9JJHDgSGzpdG",
        "reception_time": "2022-01-15T01:52:56.378-00:00",
        "included_in_blocks":
          [ "BLcA2bp5aNyMSzXVLHgKK3U2nxMnKxSBFarnBZAvoUdQJHgtwH2" ] },
      { "delegate": "tz1awXW7wuXy21c66vBudMXQVAPgRnqqwgTH",
        "reception_time": "2022-01-15T01:52:54.853-00:00",
        "included_in_blocks":
          [ "BLcA2bp5aNyMSzXVLHgKK3U2nxMnKxSBFarnBZAvoUdQJHgtwH2" ] },
      { "delegate": "tz1cYufsxHXJcvANhvS55h3aY32a9BAFB494",
        "reception_time": "2022-01-15T01:52:54.204-00:00",
        "included_in_blocks":
          [ "BLcA2bp5aNyMSzXVLHgKK3U2nxMnKxSBFarnBZAvoUdQJHgtwH2" ] },
      { "delegate": "tz1TRqbYbUf2GyrjErf3hBzgBJPzW8y36qEs",
        "reception_time": "2022-01-15T01:52:54.251-00:00",
        "included_in_blocks":
          [ "BLcA2bp5aNyMSzXVLHgKK3U2nxMnKxSBFarnBZAvoUdQJHgtwH2" ] },
      { "delegate": "tz1ZcTRk5uxD86EFEn1vvNffWWqJy7q5eVhc",
        "reception_time": "2022-01-15T01:52:53.623-00:00",
        "included_in_blocks":
          [ "BLcA2bp5aNyMSzXVLHgKK3U2nxMnKxSBFarnBZAvoUdQJHgtwH2" ] },
      { "delegate": "tz1YhNsiRRU8aHNGg7NK3uuP6UDAyacJernB",
        "reception_time": "2022-01-15T01:52:53.645-00:00",
        "included_in_blocks":
          [ "BLcA2bp5aNyMSzXVLHgKK3U2nxMnKxSBFarnBZAvoUdQJHgtwH2" ] },
      { "delegate": "tz2FCNBrERXtaTtNX6iimR1UJ5JSDxvdHM93",
        "reception_time": "2022-01-15T01:52:53.299-00:00",
        "included_in_blocks":
          [ "BLcA2bp5aNyMSzXVLHgKK3U2nxMnKxSBFarnBZAvoUdQJHgtwH2" ] },
      { "delegate": "tz3NExpXn9aPNZPorRE4SdjJ2RGrfbJgMAaV",
        "reception_time": "2022-01-15T01:52:52.957-00:00",
        "included_in_blocks":
          [ "BLcA2bp5aNyMSzXVLHgKK3U2nxMnKxSBFarnBZAvoUdQJHgtwH2" ] },
      { "delegate": "tz3UoffC7FG7zfpmvmjUmUeAaHvzdcUvAj6r",
        "reception_time": "2022-01-15T01:52:52.817-00:00",
        "included_in_blocks":
          [ "BLcA2bp5aNyMSzXVLHgKK3U2nxMnKxSBFarnBZAvoUdQJHgtwH2" ] },
      { "delegate": "tz1QLXqnfN51dkjeghXvKHkJfhvGiM5gK4tc",
        "reception_time": "2022-01-15T01:52:52.699-00:00",
        "included_in_blocks":
          [ "BLcA2bp5aNyMSzXVLHgKK3U2nxMnKxSBFarnBZAvoUdQJHgtwH2" ] },
      { "delegate": "tz1NoYvKjXTzTk54VpLxBfouJ33J8jwKPPvw",
        "reception_time": "2022-01-15T01:52:52.527-00:00",
        "included_in_blocks":
          [ "BLcA2bp5aNyMSzXVLHgKK3U2nxMnKxSBFarnBZAvoUdQJHgtwH2" ] },
      { "delegate": "tz1NEKxGEHsFufk87CVZcrqWu8o22qh46GK6",
        "reception_time": "2022-01-15T01:52:52.331-00:00",
        "included_in_blocks":
          [ "BLcA2bp5aNyMSzXVLHgKK3U2nxMnKxSBFarnBZAvoUdQJHgtwH2" ] },
      { "delegate": "tz1NMNQYrYrfNpmUqQrMhJypf6ovnaDZhJHM",
        "reception_time": "2022-01-15T01:52:52.367-00:00",
        "included_in_blocks":
          [ "BLcA2bp5aNyMSzXVLHgKK3U2nxMnKxSBFarnBZAvoUdQJHgtwH2" ] },
      { "delegate": "tz1RjoHc98dBoqaH2jawF62XNKh7YsHwbkEv",
        "reception_time": "2022-01-15T01:52:52.221-00:00",
        "included_in_blocks":
          [ "BLcA2bp5aNyMSzXVLHgKK3U2nxMnKxSBFarnBZAvoUdQJHgtwH2" ] },
      { "delegate": "tz1MH387oMRFco3kzz8t3wuqdbpAyTcKZtsg",
        "reception_time": "2022-01-15T01:52:52.202-00:00",
        "included_in_blocks":
          [ "BLcA2bp5aNyMSzXVLHgKK3U2nxMnKxSBFarnBZAvoUdQJHgtwH2" ] },
      { "delegate": "tz1PeZx7FXy7QRuMREGXGxeipb24RsMMzUNe",
        "reception_time": "2022-01-15T01:52:52.076-00:00",
        "included_in_blocks":
          [ "BLcA2bp5aNyMSzXVLHgKK3U2nxMnKxSBFarnBZAvoUdQJHgtwH2" ] },
      { "delegate": "tz1dNVDWPf3Q59SdJqnjdnu277iyvReiRS9M",
        "reception_time": "2022-01-15T01:52:52.182-00:00",
        "included_in_blocks":
          [ "BLcA2bp5aNyMSzXVLHgKK3U2nxMnKxSBFarnBZAvoUdQJHgtwH2" ] },
      { "delegate": "tz3RDC3Jdn4j15J7bBHZd29EUee9gVB1CxD9",
        "reception_time": "2022-01-15T01:52:52.066-00:00",
        "included_in_blocks":
          [ "BLcA2bp5aNyMSzXVLHgKK3U2nxMnKxSBFarnBZAvoUdQJHgtwH2" ] },
      { "delegate": "tz3bvNMQ95vfAYtG8193ymshqjSvmxiCUuR5",
        "reception_time": "2022-01-15T01:52:52.074-00:00",
        "included_in_blocks":
          [ "BLcA2bp5aNyMSzXVLHgKK3U2nxMnKxSBFarnBZAvoUdQJHgtwH2" ] },
      { "delegate": "tz1Q8QkSBS63ZQnH3fBTiAMPes9R666Rn6Sc",
        "reception_time": "2022-01-15T01:52:51.980-00:00",
        "included_in_blocks":
          [ "BLcA2bp5aNyMSzXVLHgKK3U2nxMnKxSBFarnBZAvoUdQJHgtwH2" ] },
      { "delegate": "tz3adcvQaKXTCg12zbninqo3q8ptKKtDFTLv",
        "reception_time": "2022-01-15T01:52:51.962-00:00",
        "included_in_blocks":
          [ "BLcA2bp5aNyMSzXVLHgKK3U2nxMnKxSBFarnBZAvoUdQJHgtwH2" ] },
      { "delegate": "tz1RQhNh7iB9CZA7i3ifTWNwiGYVffponfbB",
        "reception_time": "2022-01-15T01:52:51.907-00:00",
        "included_in_blocks":
          [ "BLcA2bp5aNyMSzXVLHgKK3U2nxMnKxSBFarnBZAvoUdQJHgtwH2" ] },
      { "delegate": "tz1aRoaRhSpRYvFdyvgWLL6TGyRoGF51wDjM",
        "reception_time": "2022-01-15T01:52:51.969-00:00",
        "included_in_blocks":
          [ "BLcA2bp5aNyMSzXVLHgKK3U2nxMnKxSBFarnBZAvoUdQJHgtwH2" ] },
      { "delegate": "tz3VEZ4k6a4Wx42iyev6i2aVAptTRLEAivNN",
        "reception_time": "2022-01-15T01:52:51.953-00:00",
        "included_in_blocks":
          [ "BLcA2bp5aNyMSzXVLHgKK3U2nxMnKxSBFarnBZAvoUdQJHgtwH2" ] },
      { "delegate": "tz1fwnfJNgiDACshK9avfRfFbMaXrs3ghoJa",
        "reception_time": "2022-01-15T01:52:51.992-00:00",
        "included_in_blocks":
          [ "BLcA2bp5aNyMSzXVLHgKK3U2nxMnKxSBFarnBZAvoUdQJHgtwH2" ] },
      { "delegate": "tz3WMqdzXqRWXwyvj5Hp2H7QEepaUuS7vd9K",
        "reception_time": "2022-01-15T01:52:51.930-00:00",
        "included_in_blocks":
          [ "BLcA2bp5aNyMSzXVLHgKK3U2nxMnKxSBFarnBZAvoUdQJHgtwH2" ] },
      { "delegate": "tz1RCFbB9GpALpsZtu6J58sb74dm8qe6XBzv",
        "reception_time": "2022-01-15T01:52:51.912-00:00",
        "included_in_blocks":
          [ "BLcA2bp5aNyMSzXVLHgKK3U2nxMnKxSBFarnBZAvoUdQJHgtwH2" ] },
      { "delegate": "tz1TEc75UKXv4W5cwi14Na3NtqFD51yKQi7h",
        "reception_time": "2022-01-15T01:52:51.851-00:00",
        "included_in_blocks":
          [ "BLcA2bp5aNyMSzXVLHgKK3U2nxMnKxSBFarnBZAvoUdQJHgtwH2" ] },
      { "delegate": "tz3RB4aoyjov4KEVRbuhvQ1CKJgBJMWhaeB8",
        "reception_time": "2022-01-15T01:52:51.901-00:00",
        "included_in_blocks":
          [ "BLcA2bp5aNyMSzXVLHgKK3U2nxMnKxSBFarnBZAvoUdQJHgtwH2" ] },
      { "delegate": "tz1Nf6tsK4G6bBqgSQERy4nUtkHNKUVdh7q1",
        "reception_time": "2022-01-15T01:52:51.829-00:00",
        "included_in_blocks":
          [ "BLcA2bp5aNyMSzXVLHgKK3U2nxMnKxSBFarnBZAvoUdQJHgtwH2" ] },
      { "delegate": "tz1Tnjaxk6tbAeC2TmMApPh8UsrEVQvhHvx5",
        "reception_time": "2022-01-15T01:52:51.826-00:00",
        "included_in_blocks":
          [ "BLcA2bp5aNyMSzXVLHgKK3U2nxMnKxSBFarnBZAvoUdQJHgtwH2" ] },
      { "delegate": "tz1WBfwbT66FC6BTLexc2BoyCCBM9LG7pnVW",
        "reception_time": "2022-01-15T01:52:51.833-00:00",
        "included_in_blocks":
          [ "BLcA2bp5aNyMSzXVLHgKK3U2nxMnKxSBFarnBZAvoUdQJHgtwH2" ] },
      { "delegate": "tz3gLTu4Yxj8tPAcriQVUdxv6BY9QyvzU1az",
        "reception_time": "2022-01-15T01:52:51.822-00:00",
        "included_in_blocks":
          [ "BLcA2bp5aNyMSzXVLHgKK3U2nxMnKxSBFarnBZAvoUdQJHgtwH2" ] },
      { "delegate": "tz3NDpRj6WBrJPikcPVHRBEjWKxFw3c6eQPS",
        "reception_time": "2022-01-15T01:52:51.806-00:00",
        "included_in_blocks":
          [ "BLcA2bp5aNyMSzXVLHgKK3U2nxMnKxSBFarnBZAvoUdQJHgtwH2" ] },
      { "delegate": "tz1S8MNvuFEUsWgjHvi3AxibRBf388NhT1q2",
        "reception_time": "2022-01-15T01:52:51.842-00:00",
        "included_in_blocks":
          [ "BLcA2bp5aNyMSzXVLHgKK3U2nxMnKxSBFarnBZAvoUdQJHgtwH2" ] },
      { "delegate": "tz1V4qCyvPKZ5UeqdH14HN42rxvNPQfc9UZg",
        "reception_time": "2022-01-15T01:52:51.816-00:00",
        "included_in_blocks":
          [ "BLcA2bp5aNyMSzXVLHgKK3U2nxMnKxSBFarnBZAvoUdQJHgtwH2" ] },
      { "delegate": "tz1gfArv665EUkSg2ojMBzcbfwuPxAvqPvjo",
        "reception_time": "2022-01-15T01:52:51.790-00:00",
        "included_in_blocks":
          [ "BLcA2bp5aNyMSzXVLHgKK3U2nxMnKxSBFarnBZAvoUdQJHgtwH2" ] },
      { "delegate": "tz1ei4WtWEMEJekSv8qDnu9PExG6Q8HgRGr3",
        "reception_time": "2022-01-15T01:52:51.771-00:00",
        "included_in_blocks":
          [ "BLcA2bp5aNyMSzXVLHgKK3U2nxMnKxSBFarnBZAvoUdQJHgtwH2" ] },
      { "delegate": "tz1dwu9aYb7CRNq4Y2zAjipdjFuSVKhHS8vA",
        "reception_time": "2022-01-15T01:52:51.729-00:00",
        "included_in_blocks":
          [ "BLcA2bp5aNyMSzXVLHgKK3U2nxMnKxSBFarnBZAvoUdQJHgtwH2" ] },
      { "delegate": "tz1PWCDnz783NNGGQjEFFsHtrcK5yBW4E2rm",
        "reception_time": "2022-01-15T01:52:51.712-00:00",
        "included_in_blocks":
          [ "BLcA2bp5aNyMSzXVLHgKK3U2nxMnKxSBFarnBZAvoUdQJHgtwH2" ] },
      { "delegate": "tz3S6BBeKgJGXxvLyZ1xzXzMPn11nnFtq5L9",
        "reception_time": "2022-01-15T01:52:51.683-00:00",
        "included_in_blocks":
          [ "BLcA2bp5aNyMSzXVLHgKK3U2nxMnKxSBFarnBZAvoUdQJHgtwH2" ] },
      { "delegate": "tz1fPKAtsYydh4f1wfWNfeNxWYu72TmM48fu",
        "reception_time": "2022-01-15T01:52:51.846-00:00",
        "included_in_blocks":
          [ "BLcA2bp5aNyMSzXVLHgKK3U2nxMnKxSBFarnBZAvoUdQJHgtwH2" ] },
      { "delegate": "tz3QT9dHYKDqh563chVa6za8526ys1UKfRfL",
        "reception_time": "2022-01-15T01:52:51.692-00:00",
        "included_in_blocks":
          [ "BLcA2bp5aNyMSzXVLHgKK3U2nxMnKxSBFarnBZAvoUdQJHgtwH2" ] },
      { "delegate": "tz3iJu5vrKZcsqRPs8yJ61UDoeEXZmtro4qh",
        "reception_time": "2022-01-15T01:52:51.725-00:00",
        "included_in_blocks":
          [ "BLcA2bp5aNyMSzXVLHgKK3U2nxMnKxSBFarnBZAvoUdQJHgtwH2" ] },
      { "delegate": "tz3bTdwZinP8U1JmSweNzVKhmwafqWmFWRfk",
        "reception_time": "2022-01-15T01:52:51.669-00:00",
        "included_in_blocks":
          [ "BLcA2bp5aNyMSzXVLHgKK3U2nxMnKxSBFarnBZAvoUdQJHgtwH2" ] },
      { "delegate": "tz1d6Fx42mYgVFnHUW8T8A7WBfJ6nD9pVok8",
        "reception_time": "2022-01-15T01:52:51.714-00:00",
        "included_in_blocks":
          [ "BLcA2bp5aNyMSzXVLHgKK3U2nxMnKxSBFarnBZAvoUdQJHgtwH2" ] },
      { "delegate": "tz3RKYFsLuQzKBtmYuLNas7uMu3AsYd4QdsA",
        "reception_time": "2022-01-15T01:52:51.700-00:00",
        "included_in_blocks":
          [ "BLcA2bp5aNyMSzXVLHgKK3U2nxMnKxSBFarnBZAvoUdQJHgtwH2" ] },
      { "delegate": "tz3hw2kqXhLUvY65ca1eety2oQTpAvd34R9Q",
        "reception_time": "2022-01-15T01:52:51.709-00:00",
        "included_in_blocks":
          [ "BLcA2bp5aNyMSzXVLHgKK3U2nxMnKxSBFarnBZAvoUdQJHgtwH2" ] },
      { "delegate": "tz1UJvHTgpVzcKWhTazGxVcn5wsHru5Gietg",
        "reception_time": "2022-01-15T01:52:51.669-00:00",
        "included_in_blocks":
          [ "BLcA2bp5aNyMSzXVLHgKK3U2nxMnKxSBFarnBZAvoUdQJHgtwH2" ] },
      { "delegate": "tz1gUNyn3hmnEWqkusWPzxRaon1cs7ndWh7h",
        "reception_time": "2022-01-15T01:52:51.660-00:00",
        "included_in_blocks":
          [ "BLcA2bp5aNyMSzXVLHgKK3U2nxMnKxSBFarnBZAvoUdQJHgtwH2" ] },
      { "delegate": "tz1VQnqCCqX4K5sP3FNkVSNKTdCAMJDd3E1n",
        "reception_time": "2022-01-15T01:52:51.641-00:00",
        "included_in_blocks":
          [ "BLcA2bp5aNyMSzXVLHgKK3U2nxMnKxSBFarnBZAvoUdQJHgtwH2" ] },
      { "delegate": "tz1WCd2jm4uSt4vntk4vSuUWoZQGhLcDuR9q",
        "reception_time": "2022-01-15T01:52:51.644-00:00",
        "included_in_blocks":
          [ "BLcA2bp5aNyMSzXVLHgKK3U2nxMnKxSBFarnBZAvoUdQJHgtwH2" ] },
      { "delegate": "tz3QSGPoRp3Kn7n3vY24eYeu3Peuqo45LQ4D",
        "reception_time": "2022-01-15T01:52:51.653-00:00",
        "included_in_blocks":
          [ "BLcA2bp5aNyMSzXVLHgKK3U2nxMnKxSBFarnBZAvoUdQJHgtwH2" ] },
      { "delegate": "tz3gtoUxdudfBRcNY7iVdKPHCYYX6xdPpoRS",
        "reception_time": "2022-01-15T01:52:51.683-00:00",
        "included_in_blocks":
          [ "BLcA2bp5aNyMSzXVLHgKK3U2nxMnKxSBFarnBZAvoUdQJHgtwH2" ] },
      { "delegate": "tz1Ldzz6k1BHdhuKvAtMRX7h5kJSMHESMHLC",
        "reception_time": "2022-01-15T01:52:51.660-00:00",
        "included_in_blocks":
          [ "BLcA2bp5aNyMSzXVLHgKK3U2nxMnKxSBFarnBZAvoUdQJHgtwH2" ] },
      { "delegate": "tz1VmiY38m3y95HqQLjMwqnMS7sdMfGomzKi",
        "reception_time": "2022-01-15T01:52:51.427-00:00",
        "included_in_blocks":
          [ "BLcA2bp5aNyMSzXVLHgKK3U2nxMnKxSBFarnBZAvoUdQJHgtwH2" ] } ] }