{ "blocks":
    [ { "hash": "BL4sL9kYMm4vC5FQg68jReKefjVEU4AHCVRHbyqqgxWp499yRLd",
        "delegate": "tz3gLTu4Yxj8tPAcriQVUdxv6BY9QyvzU1az",
        "reception_time": "2022-01-15T02:08:19.995-00:00",
        "timestamp": "2022-01-15T02:08:10Z" } ],
  "endorsements":
    [ { "delegate": "tz1NdhRv643wLW6zCcRP3VfT24dvDnh7nuh9" },
      { "delegate": "tz1Scdr2HsZiQjc7bHMeBbmDRXYVvdhjJbBh",
        "reception_time": "2022-01-15T02:08:19.954-00:00",
        "errors":
          [ { "kind": "temporary",
              "id": "proto.011-PtHangz2.prefilter.outdated_endorsement" } ],
        "included_in_blocks":
          [ "BMFDdGgXCLTfvDXmpPj4gJJrKXokE1gJZaaVNDQKXXZz7SNoT7X" ] },
      { "delegate": "tz1Lhf4J9Qxoe3DZ2nfe8FGDnvVj7oKjnMY6",
        "reception_time": "2022-01-15T02:08:19.913-00:00",
        "errors":
          [ { "kind": "temporary",
              "id": "proto.011-PtHangz2.prefilter.outdated_endorsement" } ],
        "included_in_blocks":
          [ "BMFDdGgXCLTfvDXmpPj4gJJrKXokE1gJZaaVNDQKXXZz7SNoT7X" ] },
      { "delegate": "tz1S8e9GgdZG78XJRB3NqabfWeM37GnhZMWQ",
        "reception_time": "2022-01-15T02:08:19.473-00:00",
        "errors":
          [ { "kind": "temporary",
              "id": "proto.011-PtHangz2.prefilter.outdated_endorsement" } ],
        "included_in_blocks":
          [ "BMFDdGgXCLTfvDXmpPj4gJJrKXokE1gJZaaVNDQKXXZz7SNoT7X" ] },
      { "delegate": "tz1NpWrAyDL9k2Lmnyxcgr9xuJakbBxdq7FB",
        "reception_time": "2022-01-15T02:08:32.044-00:00",
        "included_in_blocks":
          [ "BMFDdGgXCLTfvDXmpPj4gJJrKXokE1gJZaaVNDQKXXZz7SNoT7X" ] },
      { "delegate": "tz1Z9M4biBHSiH38k5ciRMjR5bgk89yEgLTz",
        "reception_time": "2022-01-15T02:08:24.947-00:00",
        "included_in_blocks":
          [ "BMFDdGgXCLTfvDXmpPj4gJJrKXokE1gJZaaVNDQKXXZz7SNoT7X" ] },
      { "delegate": "tz1acZQd7TdfoiUnD2czHnTHB2TaJQP6gdqo",
        "reception_time": "2022-01-15T02:08:24.652-00:00",
        "included_in_blocks":
          [ "BMFDdGgXCLTfvDXmpPj4gJJrKXokE1gJZaaVNDQKXXZz7SNoT7X" ] },
      { "delegate": "tz1ZcTRk5uxD86EFEn1vvNffWWqJy7q5eVhc",
        "reception_time": "2022-01-15T02:08:24.059-00:00",
        "included_in_blocks":
          [ "BMFDdGgXCLTfvDXmpPj4gJJrKXokE1gJZaaVNDQKXXZz7SNoT7X" ] },
      { "delegate": "tz1T7duV5gZWSTq4YpBGbXNLTfznCLDrFxvs",
        "reception_time": "2022-01-15T02:08:23.780-00:00",
        "included_in_blocks":
          [ "BMFDdGgXCLTfvDXmpPj4gJJrKXokE1gJZaaVNDQKXXZz7SNoT7X" ] },
      { "delegate": "tz1cYufsxHXJcvANhvS55h3aY32a9BAFB494",
        "reception_time": "2022-01-15T02:08:23.358-00:00",
        "included_in_blocks":
          [ "BMFDdGgXCLTfvDXmpPj4gJJrKXokE1gJZaaVNDQKXXZz7SNoT7X" ] },
      { "delegate": "tz1dRKU4FQ9QRRQPdaH4zCR6gmCmXfcvcgtB",
        "reception_time": "2022-01-15T02:08:23.473-00:00",
        "included_in_blocks":
          [ "BMFDdGgXCLTfvDXmpPj4gJJrKXokE1gJZaaVNDQKXXZz7SNoT7X" ] },
      { "delegate": "tz1Zdk8q7wNasmv7VFeQ6QFwcw5fP2c7StoF",
        "reception_time": "2022-01-15T02:08:23.273-00:00",
        "included_in_blocks":
          [ "BMFDdGgXCLTfvDXmpPj4gJJrKXokE1gJZaaVNDQKXXZz7SNoT7X" ] },
      { "delegate": "tz1aRoaRhSpRYvFdyvgWLL6TGyRoGF51wDjM",
        "reception_time": "2022-01-15T02:08:23.054-00:00",
        "included_in_blocks":
          [ "BMFDdGgXCLTfvDXmpPj4gJJrKXokE1gJZaaVNDQKXXZz7SNoT7X" ] },
      { "delegate": "tz1awXW7wuXy21c66vBudMXQVAPgRnqqwgTH",
        "reception_time": "2022-01-15T02:08:23.262-00:00",
        "included_in_blocks":
          [ "BMFDdGgXCLTfvDXmpPj4gJJrKXokE1gJZaaVNDQKXXZz7SNoT7X" ] },
      { "delegate": "tz3WMqdzXqRWXwyvj5Hp2H7QEepaUuS7vd9K",
        "reception_time": "2022-01-15T02:08:23.797-00:00",
        "included_in_blocks":
          [ "BMFDdGgXCLTfvDXmpPj4gJJrKXokE1gJZaaVNDQKXXZz7SNoT7X" ] },
      { "delegate": "tz3RDC3Jdn4j15J7bBHZd29EUee9gVB1CxD9",
        "reception_time": "2022-01-15T02:08:23.046-00:00",
        "included_in_blocks":
          [ "BMFDdGgXCLTfvDXmpPj4gJJrKXokE1gJZaaVNDQKXXZz7SNoT7X" ] },
      { "delegate": "tz1WctSwL49BZtdWAQ75NY6vr4xsAx6oKdah",
        "reception_time": "2022-01-15T02:08:22.855-00:00",
        "included_in_blocks":
          [ "BMFDdGgXCLTfvDXmpPj4gJJrKXokE1gJZaaVNDQKXXZz7SNoT7X" ] },
      { "delegate": "tz3NExpXn9aPNZPorRE4SdjJ2RGrfbJgMAaV",
        "reception_time": "2022-01-15T02:08:23.712-00:00",
        "included_in_blocks":
          [ "BMFDdGgXCLTfvDXmpPj4gJJrKXokE1gJZaaVNDQKXXZz7SNoT7X" ] },
      { "delegate": "tz1TRqbYbUf2GyrjErf3hBzgBJPzW8y36qEs",
        "reception_time": "2022-01-15T02:08:22.754-00:00",
        "included_in_blocks":
          [ "BMFDdGgXCLTfvDXmpPj4gJJrKXokE1gJZaaVNDQKXXZz7SNoT7X" ] },
      { "delegate": "tz3UoffC7FG7zfpmvmjUmUeAaHvzdcUvAj6r",
        "reception_time": "2022-01-15T02:08:23.652-00:00",
        "included_in_blocks":
          [ "BMFDdGgXCLTfvDXmpPj4gJJrKXokE1gJZaaVNDQKXXZz7SNoT7X" ] },
      { "delegate": "tz2FCNBrERXtaTtNX6iimR1UJ5JSDxvdHM93",
        "reception_time": "2022-01-15T02:08:22.695-00:00",
        "included_in_blocks":
          [ "BMFDdGgXCLTfvDXmpPj4gJJrKXokE1gJZaaVNDQKXXZz7SNoT7X" ] },
      { "delegate": "tz3RB4aoyjov4KEVRbuhvQ1CKJgBJMWhaeB8",
        "reception_time": "2022-01-15T02:08:22.748-00:00",
        "included_in_blocks":
          [ "BMFDdGgXCLTfvDXmpPj4gJJrKXokE1gJZaaVNDQKXXZz7SNoT7X" ] },
      { "delegate": "tz3bvNMQ95vfAYtG8193ymshqjSvmxiCUuR5",
        "reception_time": "2022-01-15T02:08:22.728-00:00",
        "included_in_blocks":
          [ "BMFDdGgXCLTfvDXmpPj4gJJrKXokE1gJZaaVNDQKXXZz7SNoT7X" ] },
      { "delegate": "tz1RjoHc98dBoqaH2jawF62XNKh7YsHwbkEv",
        "reception_time": "2022-01-15T02:08:23.177-00:00",
        "included_in_blocks":
          [ "BMFDdGgXCLTfvDXmpPj4gJJrKXokE1gJZaaVNDQKXXZz7SNoT7X" ] },
      { "delegate": "tz1PeZx7FXy7QRuMREGXGxeipb24RsMMzUNe",
        "reception_time": "2022-01-15T02:08:22.548-00:00",
        "included_in_blocks":
          [ "BMFDdGgXCLTfvDXmpPj4gJJrKXokE1gJZaaVNDQKXXZz7SNoT7X" ] },
      { "delegate": "tz1UMCB2AHSTwG7YcGNr31CqYCtGN873royv",
        "reception_time": "2022-01-15T02:08:22.559-00:00",
        "included_in_blocks":
          [ "BMFDdGgXCLTfvDXmpPj4gJJrKXokE1gJZaaVNDQKXXZz7SNoT7X" ] },
      { "delegate": "tz1NEKxGEHsFufk87CVZcrqWu8o22qh46GK6",
        "reception_time": "2022-01-15T02:08:22.615-00:00",
        "included_in_blocks":
          [ "BMFDdGgXCLTfvDXmpPj4gJJrKXokE1gJZaaVNDQKXXZz7SNoT7X" ] },
      { "delegate": "tz1TEc75UKXv4W5cwi14Na3NtqFD51yKQi7h",
        "reception_time": "2022-01-15T02:08:22.022-00:00",
        "included_in_blocks":
          [ "BMFDdGgXCLTfvDXmpPj4gJJrKXokE1gJZaaVNDQKXXZz7SNoT7X" ] },
      { "delegate": "tz1Nf6tsK4G6bBqgSQERy4nUtkHNKUVdh7q1",
        "reception_time": "2022-01-15T02:08:22.222-00:00",
        "included_in_blocks":
          [ "BMFDdGgXCLTfvDXmpPj4gJJrKXokE1gJZaaVNDQKXXZz7SNoT7X" ] },
      { "delegate": "tz1fwnfJNgiDACshK9avfRfFbMaXrs3ghoJa",
        "reception_time": "2022-01-15T02:08:22.187-00:00",
        "included_in_blocks":
          [ "BMFDdGgXCLTfvDXmpPj4gJJrKXokE1gJZaaVNDQKXXZz7SNoT7X" ] },
      { "delegate": "tz1V4qCyvPKZ5UeqdH14HN42rxvNPQfc9UZg",
        "reception_time": "2022-01-15T02:08:22.397-00:00",
        "included_in_blocks":
          [ "BMFDdGgXCLTfvDXmpPj4gJJrKXokE1gJZaaVNDQKXXZz7SNoT7X" ] },
      { "delegate": "tz1ei4WtWEMEJekSv8qDnu9PExG6Q8HgRGr3",
        "reception_time": "2022-01-15T02:08:22.032-00:00",
        "included_in_blocks":
          [ "BMFDdGgXCLTfvDXmpPj4gJJrKXokE1gJZaaVNDQKXXZz7SNoT7X" ] },
      { "delegate": "tz1RCFbB9GpALpsZtu6J58sb74dm8qe6XBzv",
        "reception_time": "2022-01-15T02:08:22.069-00:00",
        "included_in_blocks":
          [ "BMFDdGgXCLTfvDXmpPj4gJJrKXokE1gJZaaVNDQKXXZz7SNoT7X" ] },
      { "delegate": "tz1Tnjaxk6tbAeC2TmMApPh8UsrEVQvhHvx5",
        "reception_time": "2022-01-15T02:08:22.026-00:00",
        "included_in_blocks":
          [ "BMFDdGgXCLTfvDXmpPj4gJJrKXokE1gJZaaVNDQKXXZz7SNoT7X" ] },
      { "delegate": "tz1LmaFsWRkjr7QMCx5PtV6xTUz3AmEpKQiF",
        "reception_time": "2022-01-15T02:08:22.520-00:00",
        "included_in_blocks":
          [ "BMFDdGgXCLTfvDXmpPj4gJJrKXokE1gJZaaVNDQKXXZz7SNoT7X" ] },
      { "delegate": "tz1MWhSr4oT8W67CKdxduqp4bkVyF32qsERK",
        "reception_time": "2022-01-15T02:08:21.573-00:00",
        "included_in_blocks":
          [ "BMFDdGgXCLTfvDXmpPj4gJJrKXokE1gJZaaVNDQKXXZz7SNoT7X" ] },
      { "delegate": "tz3gLTu4Yxj8tPAcriQVUdxv6BY9QyvzU1az",
        "reception_time": "2022-01-15T02:08:21.567-00:00",
        "included_in_blocks":
          [ "BMFDdGgXCLTfvDXmpPj4gJJrKXokE1gJZaaVNDQKXXZz7SNoT7X" ] },
      { "delegate": "tz3NDpRj6WBrJPikcPVHRBEjWKxFw3c6eQPS",
        "reception_time": "2022-01-15T02:08:21.618-00:00",
        "included_in_blocks":
          [ "BMFDdGgXCLTfvDXmpPj4gJJrKXokE1gJZaaVNDQKXXZz7SNoT7X" ] },
      { "delegate": "tz1KfEsrtDaA1sX7vdM4qmEPWuSytuqCDp5j",
        "reception_time": "2022-01-15T02:08:22.226-00:00",
        "included_in_blocks":
          [ "BMFDdGgXCLTfvDXmpPj4gJJrKXokE1gJZaaVNDQKXXZz7SNoT7X" ] },
      { "delegate": "tz1MQJPGNMijnXnVoBENFz9rUhaPt3S7rWoz",
        "reception_time": "2022-01-15T02:08:22.058-00:00",
        "included_in_blocks":
          [ "BMFDdGgXCLTfvDXmpPj4gJJrKXokE1gJZaaVNDQKXXZz7SNoT7X" ] },
      { "delegate": "tz3VEZ4k6a4Wx42iyev6i2aVAptTRLEAivNN",
        "reception_time": "2022-01-15T02:08:22.888-00:00",
        "included_in_blocks":
          [ "BMFDdGgXCLTfvDXmpPj4gJJrKXokE1gJZaaVNDQKXXZz7SNoT7X" ] },
      { "delegate": "tz1gfArv665EUkSg2ojMBzcbfwuPxAvqPvjo",
        "reception_time": "2022-01-15T02:08:21.513-00:00",
        "included_in_blocks":
          [ "BMFDdGgXCLTfvDXmpPj4gJJrKXokE1gJZaaVNDQKXXZz7SNoT7X" ] },
      { "delegate": "tz1S8MNvuFEUsWgjHvi3AxibRBf388NhT1q2",
        "reception_time": "2022-01-15T02:08:22.055-00:00",
        "included_in_blocks":
          [ "BMFDdGgXCLTfvDXmpPj4gJJrKXokE1gJZaaVNDQKXXZz7SNoT7X" ] },
      { "delegate": "tz1VQnqCCqX4K5sP3FNkVSNKTdCAMJDd3E1n",
        "reception_time": "2022-01-15T02:08:21.378-00:00",
        "included_in_blocks":
          [ "BMFDdGgXCLTfvDXmpPj4gJJrKXokE1gJZaaVNDQKXXZz7SNoT7X" ] },
      { "delegate": "tz3Zhs2dygr55yHyQyKjntAtY9bgfhLZ4Xj1",
        "reception_time": "2022-01-15T02:08:21.254-00:00",
        "included_in_blocks":
          [ "BMFDdGgXCLTfvDXmpPj4gJJrKXokE1gJZaaVNDQKXXZz7SNoT7X" ] },
      { "delegate": "tz1gUNyn3hmnEWqkusWPzxRaon1cs7ndWh7h",
        "reception_time": "2022-01-15T02:08:21.329-00:00",
        "included_in_blocks":
          [ "BMFDdGgXCLTfvDXmpPj4gJJrKXokE1gJZaaVNDQKXXZz7SNoT7X" ] },
      { "delegate": "tz3S6BBeKgJGXxvLyZ1xzXzMPn11nnFtq5L9",
        "reception_time": "2022-01-15T02:08:21.215-00:00",
        "included_in_blocks":
          [ "BMFDdGgXCLTfvDXmpPj4gJJrKXokE1gJZaaVNDQKXXZz7SNoT7X" ] },
      { "delegate": "tz1PWCDnz783NNGGQjEFFsHtrcK5yBW4E2rm",
        "reception_time": "2022-01-15T02:08:21.206-00:00",
        "included_in_blocks":
          [ "BMFDdGgXCLTfvDXmpPj4gJJrKXokE1gJZaaVNDQKXXZz7SNoT7X" ] },
      { "delegate": "tz3iJu5vrKZcsqRPs8yJ61UDoeEXZmtro4qh",
        "reception_time": "2022-01-15T02:08:21.290-00:00",
        "included_in_blocks":
          [ "BMFDdGgXCLTfvDXmpPj4gJJrKXokE1gJZaaVNDQKXXZz7SNoT7X" ] },
      { "delegate": "tz3QT9dHYKDqh563chVa6za8526ys1UKfRfL",
        "reception_time": "2022-01-15T02:08:21.264-00:00",
        "included_in_blocks":
          [ "BMFDdGgXCLTfvDXmpPj4gJJrKXokE1gJZaaVNDQKXXZz7SNoT7X" ] },
      { "delegate": "tz3RKYFsLuQzKBtmYuLNas7uMu3AsYd4QdsA",
        "reception_time": "2022-01-15T02:08:21.202-00:00",
        "included_in_blocks":
          [ "BMFDdGgXCLTfvDXmpPj4gJJrKXokE1gJZaaVNDQKXXZz7SNoT7X" ] },
      { "delegate": "tz3hw2kqXhLUvY65ca1eety2oQTpAvd34R9Q",
        "reception_time": "2022-01-15T02:08:21.162-00:00",
        "included_in_blocks":
          [ "BMFDdGgXCLTfvDXmpPj4gJJrKXokE1gJZaaVNDQKXXZz7SNoT7X" ] },
      { "delegate": "tz3QSGPoRp3Kn7n3vY24eYeu3Peuqo45LQ4D",
        "reception_time": "2022-01-15T02:08:21.056-00:00",
        "included_in_blocks":
          [ "BMFDdGgXCLTfvDXmpPj4gJJrKXokE1gJZaaVNDQKXXZz7SNoT7X" ] },
      { "delegate": "tz3ZbP2pM3nwvXztbuMJwJnDvV5xdpU8UkkD",
        "reception_time": "2022-01-15T02:08:21.130-00:00",
        "included_in_blocks":
          [ "BMFDdGgXCLTfvDXmpPj4gJJrKXokE1gJZaaVNDQKXXZz7SNoT7X" ] },
      { "delegate": "tz1Ldzz6k1BHdhuKvAtMRX7h5kJSMHESMHLC",
        "reception_time": "2022-01-15T02:08:21.035-00:00",
        "included_in_blocks":
          [ "BMFDdGgXCLTfvDXmpPj4gJJrKXokE1gJZaaVNDQKXXZz7SNoT7X" ] },
      { "delegate": "tz1TzaNn7wSQSP5gYPXCnNzBCpyMiidCq1PX",
        "reception_time": "2022-01-15T02:08:21.039-00:00",
        "included_in_blocks":
          [ "BMFDdGgXCLTfvDXmpPj4gJJrKXokE1gJZaaVNDQKXXZz7SNoT7X" ] },
      { "delegate": "tz3NxTnke1acr8o3h5y9ytf5awQBGNJUKzVU",
        "reception_time": "2022-01-15T02:08:21.095-00:00",
        "included_in_blocks":
          [ "BMFDdGgXCLTfvDXmpPj4gJJrKXokE1gJZaaVNDQKXXZz7SNoT7X" ] },
      { "delegate": "tz3gtoUxdudfBRcNY7iVdKPHCYYX6xdPpoRS",
        "reception_time": "2022-01-15T02:08:21.049-00:00",
        "included_in_blocks":
          [ "BMFDdGgXCLTfvDXmpPj4gJJrKXokE1gJZaaVNDQKXXZz7SNoT7X" ] },
      { "delegate": "tz1fPKAtsYydh4f1wfWNfeNxWYu72TmM48fu",
        "reception_time": "2022-01-15T02:08:21.478-00:00",
        "included_in_blocks":
          [ "BMFDdGgXCLTfvDXmpPj4gJJrKXokE1gJZaaVNDQKXXZz7SNoT7X" ] },
      { "delegate": "tz1P2Po7YM526ughEsRbY4oR9zaUPDZjxFrb",
        "reception_time": "2022-01-15T02:08:21.017-00:00",
        "included_in_blocks":
          [ "BMFDdGgXCLTfvDXmpPj4gJJrKXokE1gJZaaVNDQKXXZz7SNoT7X" ] },
      { "delegate": "tz1RV1MBbZMR68tacosb7Mwj6LkbPSUS1er1",
        "reception_time": "2022-01-15T02:08:21.019-00:00",
        "included_in_blocks":
          [ "BMFDdGgXCLTfvDXmpPj4gJJrKXokE1gJZaaVNDQKXXZz7SNoT7X" ] },
      { "delegate": "tz1STeamwbp68THcny9zk3LsbG3H36DMvbRK",
        "reception_time": "2022-01-15T02:08:21.008-00:00",
        "included_in_blocks":
          [ "BMFDdGgXCLTfvDXmpPj4gJJrKXokE1gJZaaVNDQKXXZz7SNoT7X" ] },
      { "delegate": "tz1beersuEDv8Z7ngQ825xfbaJNS2EhXnyHR",
        "reception_time": "2022-01-15T02:08:21.020-00:00",
        "included_in_blocks":
          [ "BMFDdGgXCLTfvDXmpPj4gJJrKXokE1gJZaaVNDQKXXZz7SNoT7X" ] },
      { "delegate": "tz1eEnQhbwf6trb8Q8mPb2RaPkNk2rN7BKi8",
        "reception_time": "2022-01-15T02:08:21.023-00:00",
        "included_in_blocks":
          [ "BMFDdGgXCLTfvDXmpPj4gJJrKXokE1gJZaaVNDQKXXZz7SNoT7X" ] },
      { "delegate": "tz1TXzyaKUA8wsWefdSnyaYFnV2M3vCV7er9",
        "reception_time": "2022-01-15T02:08:21.014-00:00",
        "included_in_blocks":
          [ "BMFDdGgXCLTfvDXmpPj4gJJrKXokE1gJZaaVNDQKXXZz7SNoT7X" ] },
      { "delegate": "tz1irJKkXS2DBWkU1NnmFQx1c1L7pbGg4yhk",
        "reception_time": "2022-01-15T02:08:21.012-00:00",
        "included_in_blocks":
          [ "BMFDdGgXCLTfvDXmpPj4gJJrKXokE1gJZaaVNDQKXXZz7SNoT7X" ] } ] }