{ "blocks":
    [ { "hash": "BLphUB2E2Le82zWfzUkf2uzbTmBBkztdB97dDEo5PiaiDLrMNH8",
        "delegate": "tz3iJu5vrKZcsqRPs8yJ61UDoeEXZmtro4qh",
        "reception_time": "2022-01-15T02:57:46.522-00:00",
        "timestamp": "2022-01-15T02:57:40Z" } ],
  "endorsements":
    [ { "delegate": "tz1TRspM5SeZpaQUhzByXbEvqKF1vnCM2YTK" },
      { "delegate": "tz1MJx9vhaNRSimcuXPK2rW4fLccQnDAnVKJ" },
      { "delegate": "tz1eEnQhbwf6trb8Q8mPb2RaPkNk2rN7BKi8",
        "reception_time": "2022-01-15T02:57:46.427-00:00",
        "errors":
          [ { "kind": "temporary",
              "id": "proto.011-PtHangz2.prefilter.outdated_endorsement" } ],
        "included_in_blocks":
          [ "BKwb48B61tMhsKzF2jq2LAXSr9kWhh54HsWpRQZsieRJeRAtU8C" ] },
      { "delegate": "tz1Scdr2HsZiQjc7bHMeBbmDRXYVvdhjJbBh",
        "reception_time": "2022-01-15T02:57:46.137-00:00",
        "errors":
          [ { "kind": "temporary",
              "id": "proto.011-PtHangz2.prefilter.outdated_endorsement" } ],
        "included_in_blocks":
          [ "BKwb48B61tMhsKzF2jq2LAXSr9kWhh54HsWpRQZsieRJeRAtU8C" ] },
      { "delegate": "tz1S8e9GgdZG78XJRB3NqabfWeM37GnhZMWQ",
        "reception_time": "2022-01-15T02:57:46.054-00:00",
        "errors":
          [ { "kind": "temporary",
              "id": "proto.011-PtHangz2.prefilter.outdated_endorsement" } ],
        "included_in_blocks":
          [ "BKwb48B61tMhsKzF2jq2LAXSr9kWhh54HsWpRQZsieRJeRAtU8C" ] },
      { "delegate": "tz1SYq214SCBy9naR6cvycQsYcUGpBqQAE8d",
        "reception_time": "2022-01-15T02:58:07.240-00:00",
        "included_in_blocks":
          [ "BKwb48B61tMhsKzF2jq2LAXSr9kWhh54HsWpRQZsieRJeRAtU8C" ] },
      { "delegate": "tz1g8vkmcde6sWKaG2NN9WKzCkDM6Rziq194",
        "reception_time": "2022-01-15T02:57:56.957-00:00",
        "included_in_blocks":
          [ "BKwb48B61tMhsKzF2jq2LAXSr9kWhh54HsWpRQZsieRJeRAtU8C" ] },
      { "delegate": "tz1WnyXakHZKotpQHxevTnLmomz5rTwdiccy",
        "reception_time": "2022-01-15T02:57:54.004-00:00",
        "included_in_blocks":
          [ "BKwb48B61tMhsKzF2jq2LAXSr9kWhh54HsWpRQZsieRJeRAtU8C" ] },
      { "delegate": "tz1ZdSQibskQwRdiaFUh7RUVm1Z6xudMedoj",
        "reception_time": "2022-01-15T02:57:52.043-00:00",
        "included_in_blocks":
          [ "BKwb48B61tMhsKzF2jq2LAXSr9kWhh54HsWpRQZsieRJeRAtU8C" ] },
      { "delegate": "tz3UoffC7FG7zfpmvmjUmUeAaHvzdcUvAj6r",
        "reception_time": "2022-01-15T02:57:50.217-00:00",
        "included_in_blocks":
          [ "BKwb48B61tMhsKzF2jq2LAXSr9kWhh54HsWpRQZsieRJeRAtU8C" ] },
      { "delegate": "tz1Xsrfv6hn86fp88YfRs6xcKwt2nTqxVZYM",
        "reception_time": "2022-01-15T02:57:50.066-00:00",
        "included_in_blocks":
          [ "BKwb48B61tMhsKzF2jq2LAXSr9kWhh54HsWpRQZsieRJeRAtU8C" ] },
      { "delegate": "tz3NExpXn9aPNZPorRE4SdjJ2RGrfbJgMAaV",
        "reception_time": "2022-01-15T02:57:50.182-00:00",
        "included_in_blocks":
          [ "BKwb48B61tMhsKzF2jq2LAXSr9kWhh54HsWpRQZsieRJeRAtU8C" ] },
      { "delegate": "tz3bvNMQ95vfAYtG8193ymshqjSvmxiCUuR5",
        "reception_time": "2022-01-15T02:57:50.153-00:00",
        "included_in_blocks":
          [ "BKwb48B61tMhsKzF2jq2LAXSr9kWhh54HsWpRQZsieRJeRAtU8C" ] },
      { "delegate": "tz1dRKU4FQ9QRRQPdaH4zCR6gmCmXfcvcgtB",
        "reception_time": "2022-01-15T02:57:49.625-00:00",
        "included_in_blocks":
          [ "BKwb48B61tMhsKzF2jq2LAXSr9kWhh54HsWpRQZsieRJeRAtU8C" ] },
      { "delegate": "tz1T7duV5gZWSTq4YpBGbXNLTfznCLDrFxvs",
        "reception_time": "2022-01-15T02:57:49.671-00:00",
        "included_in_blocks":
          [ "BKwb48B61tMhsKzF2jq2LAXSr9kWhh54HsWpRQZsieRJeRAtU8C" ] },
      { "delegate": "tz1WctSwL49BZtdWAQ75NY6vr4xsAx6oKdah",
        "reception_time": "2022-01-15T02:57:49.630-00:00",
        "included_in_blocks":
          [ "BKwb48B61tMhsKzF2jq2LAXSr9kWhh54HsWpRQZsieRJeRAtU8C" ] },
      { "delegate": "tz1eLbDXYceRsPZoPmaJXZgQ6pzgnTQvZtpo",
        "reception_time": "2022-01-15T02:57:49.618-00:00",
        "included_in_blocks":
          [ "BKwb48B61tMhsKzF2jq2LAXSr9kWhh54HsWpRQZsieRJeRAtU8C" ] },
      { "delegate": "tz1UvkANVPWppVgMkLnvN7BwYZsCP7vm6NVd",
        "reception_time": "2022-01-15T02:57:49.555-00:00",
        "included_in_blocks":
          [ "BKwb48B61tMhsKzF2jq2LAXSr9kWhh54HsWpRQZsieRJeRAtU8C" ] },
      { "delegate": "tz1Z2jXfEXL7dXhs6bsLmyLFLfmAkXBzA9WE",
        "reception_time": "2022-01-15T02:57:49.462-00:00",
        "included_in_blocks":
          [ "BKwb48B61tMhsKzF2jq2LAXSr9kWhh54HsWpRQZsieRJeRAtU8C" ] },
      { "delegate": "tz1awXW7wuXy21c66vBudMXQVAPgRnqqwgTH",
        "reception_time": "2022-01-15T02:57:49.270-00:00",
        "included_in_blocks":
          [ "BKwb48B61tMhsKzF2jq2LAXSr9kWhh54HsWpRQZsieRJeRAtU8C" ] },
      { "delegate": "tz1cYufsxHXJcvANhvS55h3aY32a9BAFB494",
        "reception_time": "2022-01-15T02:57:49.364-00:00",
        "included_in_blocks":
          [ "BKwb48B61tMhsKzF2jq2LAXSr9kWhh54HsWpRQZsieRJeRAtU8C" ] },
      { "delegate": "tz1aRoaRhSpRYvFdyvgWLL6TGyRoGF51wDjM",
        "reception_time": "2022-01-15T02:57:49.227-00:00",
        "included_in_blocks":
          [ "BKwb48B61tMhsKzF2jq2LAXSr9kWhh54HsWpRQZsieRJeRAtU8C" ] },
      { "delegate": "tz1KfEsrtDaA1sX7vdM4qmEPWuSytuqCDp5j",
        "reception_time": "2022-01-15T02:57:49.207-00:00",
        "included_in_blocks":
          [ "BKwb48B61tMhsKzF2jq2LAXSr9kWhh54HsWpRQZsieRJeRAtU8C" ] },
      { "delegate": "tz1a1J3AGjJTAyBqWWSqFuUazUDV2TtD6hMy",
        "reception_time": "2022-01-15T02:57:49.187-00:00",
        "included_in_blocks":
          [ "BKwb48B61tMhsKzF2jq2LAXSr9kWhh54HsWpRQZsieRJeRAtU8C" ] },
      { "delegate": "tz3WMqdzXqRWXwyvj5Hp2H7QEepaUuS7vd9K",
        "reception_time": "2022-01-15T02:57:49.146-00:00",
        "included_in_blocks":
          [ "BKwb48B61tMhsKzF2jq2LAXSr9kWhh54HsWpRQZsieRJeRAtU8C" ] },
      { "delegate": "tz1dNVDWPf3Q59SdJqnjdnu277iyvReiRS9M",
        "reception_time": "2022-01-15T02:57:49.191-00:00",
        "included_in_blocks":
          [ "BKwb48B61tMhsKzF2jq2LAXSr9kWhh54HsWpRQZsieRJeRAtU8C" ] },
      { "delegate": "tz3VEZ4k6a4Wx42iyev6i2aVAptTRLEAivNN",
        "reception_time": "2022-01-15T02:57:49.042-00:00",
        "included_in_blocks":
          [ "BKwb48B61tMhsKzF2jq2LAXSr9kWhh54HsWpRQZsieRJeRAtU8C" ] },
      { "delegate": "tz1NEKxGEHsFufk87CVZcrqWu8o22qh46GK6",
        "reception_time": "2022-01-15T02:57:49.110-00:00",
        "included_in_blocks":
          [ "BKwb48B61tMhsKzF2jq2LAXSr9kWhh54HsWpRQZsieRJeRAtU8C" ] },
      { "delegate": "tz1NoYvKjXTzTk54VpLxBfouJ33J8jwKPPvw",
        "reception_time": "2022-01-15T02:57:48.650-00:00",
        "included_in_blocks":
          [ "BKwb48B61tMhsKzF2jq2LAXSr9kWhh54HsWpRQZsieRJeRAtU8C" ] },
      { "delegate": "tz1WBfwbT66FC6BTLexc2BoyCCBM9LG7pnVW",
        "reception_time": "2022-01-15T02:57:48.594-00:00",
        "included_in_blocks":
          [ "BKwb48B61tMhsKzF2jq2LAXSr9kWhh54HsWpRQZsieRJeRAtU8C" ] },
      { "delegate": "tz1Tnjaxk6tbAeC2TmMApPh8UsrEVQvhHvx5",
        "reception_time": "2022-01-15T02:57:48.581-00:00",
        "included_in_blocks":
          [ "BKwb48B61tMhsKzF2jq2LAXSr9kWhh54HsWpRQZsieRJeRAtU8C" ] },
      { "delegate": "tz1TRqbYbUf2GyrjErf3hBzgBJPzW8y36qEs",
        "reception_time": "2022-01-15T02:57:48.452-00:00",
        "included_in_blocks":
          [ "BKwb48B61tMhsKzF2jq2LAXSr9kWhh54HsWpRQZsieRJeRAtU8C" ] },
      { "delegate": "tz1fwnfJNgiDACshK9avfRfFbMaXrs3ghoJa",
        "reception_time": "2022-01-15T02:57:48.425-00:00",
        "included_in_blocks":
          [ "BKwb48B61tMhsKzF2jq2LAXSr9kWhh54HsWpRQZsieRJeRAtU8C" ] },
      { "delegate": "tz2FCNBrERXtaTtNX6iimR1UJ5JSDxvdHM93",
        "reception_time": "2022-01-15T02:57:48.302-00:00",
        "included_in_blocks":
          [ "BKwb48B61tMhsKzF2jq2LAXSr9kWhh54HsWpRQZsieRJeRAtU8C" ] },
      { "delegate": "tz1RCFbB9GpALpsZtu6J58sb74dm8qe6XBzv",
        "reception_time": "2022-01-15T02:57:48.323-00:00",
        "included_in_blocks":
          [ "BKwb48B61tMhsKzF2jq2LAXSr9kWhh54HsWpRQZsieRJeRAtU8C" ] },
      { "delegate": "tz1PWCDnz783NNGGQjEFFsHtrcK5yBW4E2rm",
        "reception_time": "2022-01-15T02:57:48.300-00:00",
        "included_in_blocks":
          [ "BKwb48B61tMhsKzF2jq2LAXSr9kWhh54HsWpRQZsieRJeRAtU8C" ] },
      { "delegate": "tz1ei4WtWEMEJekSv8qDnu9PExG6Q8HgRGr3",
        "reception_time": "2022-01-15T02:57:48.248-00:00",
        "included_in_blocks":
          [ "BKwb48B61tMhsKzF2jq2LAXSr9kWhh54HsWpRQZsieRJeRAtU8C" ] },
      { "delegate": "tz3NDpRj6WBrJPikcPVHRBEjWKxFw3c6eQPS",
        "reception_time": "2022-01-15T02:57:48.255-00:00",
        "included_in_blocks":
          [ "BKwb48B61tMhsKzF2jq2LAXSr9kWhh54HsWpRQZsieRJeRAtU8C" ] },
      { "delegate": "tz1gfArv665EUkSg2ojMBzcbfwuPxAvqPvjo",
        "reception_time": "2022-01-15T02:57:48.119-00:00",
        "included_in_blocks":
          [ "BKwb48B61tMhsKzF2jq2LAXSr9kWhh54HsWpRQZsieRJeRAtU8C" ] },
      { "delegate": "tz3RB4aoyjov4KEVRbuhvQ1CKJgBJMWhaeB8",
        "reception_time": "2022-01-15T02:57:48.092-00:00",
        "included_in_blocks":
          [ "BKwb48B61tMhsKzF2jq2LAXSr9kWhh54HsWpRQZsieRJeRAtU8C" ] },
      { "delegate": "tz1Nf6tsK4G6bBqgSQERy4nUtkHNKUVdh7q1",
        "reception_time": "2022-01-15T02:57:48.211-00:00",
        "included_in_blocks":
          [ "BKwb48B61tMhsKzF2jq2LAXSr9kWhh54HsWpRQZsieRJeRAtU8C" ] },
      { "delegate": "tz1bZ8vsMAXmaWEV7FRnyhcuUs2fYMaQ6Hkk",
        "reception_time": "2022-01-15T02:57:48.011-00:00",
        "included_in_blocks":
          [ "BKwb48B61tMhsKzF2jq2LAXSr9kWhh54HsWpRQZsieRJeRAtU8C" ] },
      { "delegate": "tz1fb7c66UwePkkfDXz4ajFaBP9hVNLdS7JJ",
        "reception_time": "2022-01-15T02:57:47.961-00:00",
        "included_in_blocks":
          [ "BKwb48B61tMhsKzF2jq2LAXSr9kWhh54HsWpRQZsieRJeRAtU8C" ] },
      { "delegate": "tz1dwu9aYb7CRNq4Y2zAjipdjFuSVKhHS8vA",
        "reception_time": "2022-01-15T02:57:47.933-00:00",
        "included_in_blocks":
          [ "BKwb48B61tMhsKzF2jq2LAXSr9kWhh54HsWpRQZsieRJeRAtU8C" ] },
      { "delegate": "tz3adcvQaKXTCg12zbninqo3q8ptKKtDFTLv",
        "reception_time": "2022-01-15T02:57:47.928-00:00",
        "included_in_blocks":
          [ "BKwb48B61tMhsKzF2jq2LAXSr9kWhh54HsWpRQZsieRJeRAtU8C" ] },
      { "delegate": "tz3RDC3Jdn4j15J7bBHZd29EUee9gVB1CxD9",
        "reception_time": "2022-01-15T02:57:47.959-00:00",
        "included_in_blocks":
          [ "BKwb48B61tMhsKzF2jq2LAXSr9kWhh54HsWpRQZsieRJeRAtU8C" ] },
      { "delegate": "tz1S8MNvuFEUsWgjHvi3AxibRBf388NhT1q2",
        "reception_time": "2022-01-15T02:57:47.883-00:00",
        "included_in_blocks":
          [ "BKwb48B61tMhsKzF2jq2LAXSr9kWhh54HsWpRQZsieRJeRAtU8C" ] },
      { "delegate": "tz3bTdwZinP8U1JmSweNzVKhmwafqWmFWRfk",
        "reception_time": "2022-01-15T02:57:47.852-00:00",
        "included_in_blocks":
          [ "BKwb48B61tMhsKzF2jq2LAXSr9kWhh54HsWpRQZsieRJeRAtU8C" ] },
      { "delegate": "tz1d6Fx42mYgVFnHUW8T8A7WBfJ6nD9pVok8",
        "reception_time": "2022-01-15T02:57:47.805-00:00",
        "included_in_blocks":
          [ "BKwb48B61tMhsKzF2jq2LAXSr9kWhh54HsWpRQZsieRJeRAtU8C" ] },
      { "delegate": "tz1NSDFKuRyzHxpfG1AMkyCwEiZ52cbR2mRW",
        "reception_time": "2022-01-15T02:57:47.732-00:00",
        "included_in_blocks":
          [ "BKwb48B61tMhsKzF2jq2LAXSr9kWhh54HsWpRQZsieRJeRAtU8C" ] },
      { "delegate": "tz1MQMiZHV8q4tTwUMWmS5Y3kaP6J2136iXr",
        "reception_time": "2022-01-15T02:57:47.594-00:00",
        "included_in_blocks":
          [ "BKwb48B61tMhsKzF2jq2LAXSr9kWhh54HsWpRQZsieRJeRAtU8C" ] },
      { "delegate": "tz1ajgycuHmd2z2JbTSJxKv7x6cok2KuNSk1",
        "reception_time": "2022-01-15T02:57:47.700-00:00",
        "included_in_blocks":
          [ "BKwb48B61tMhsKzF2jq2LAXSr9kWhh54HsWpRQZsieRJeRAtU8C" ] },
      { "delegate": "tz1TzaNn7wSQSP5gYPXCnNzBCpyMiidCq1PX",
        "reception_time": "2022-01-15T02:57:47.553-00:00",
        "included_in_blocks":
          [ "BKwb48B61tMhsKzF2jq2LAXSr9kWhh54HsWpRQZsieRJeRAtU8C" ] },
      { "delegate": "tz1VmiY38m3y95HqQLjMwqnMS7sdMfGomzKi",
        "reception_time": "2022-01-15T02:57:47.687-00:00",
        "included_in_blocks":
          [ "BKwb48B61tMhsKzF2jq2LAXSr9kWhh54HsWpRQZsieRJeRAtU8C" ] },
      { "delegate": "tz1gUNyn3hmnEWqkusWPzxRaon1cs7ndWh7h",
        "reception_time": "2022-01-15T02:57:47.440-00:00",
        "included_in_blocks":
          [ "BKwb48B61tMhsKzF2jq2LAXSr9kWhh54HsWpRQZsieRJeRAtU8C" ] },
      { "delegate": "tz1iZEKy4LaAjnTmn2RuGDf2iqdAQKnRi8kY",
        "reception_time": "2022-01-15T02:57:47.341-00:00",
        "included_in_blocks":
          [ "BKwb48B61tMhsKzF2jq2LAXSr9kWhh54HsWpRQZsieRJeRAtU8C" ] },
      { "delegate": "tz1VQnqCCqX4K5sP3FNkVSNKTdCAMJDd3E1n",
        "reception_time": "2022-01-15T02:57:47.396-00:00",
        "included_in_blocks":
          [ "BKwb48B61tMhsKzF2jq2LAXSr9kWhh54HsWpRQZsieRJeRAtU8C" ] },
      { "delegate": "tz3QT9dHYKDqh563chVa6za8526ys1UKfRfL",
        "reception_time": "2022-01-15T02:57:47.349-00:00",
        "included_in_blocks":
          [ "BKwb48B61tMhsKzF2jq2LAXSr9kWhh54HsWpRQZsieRJeRAtU8C" ] },
      { "delegate": "tz3hw2kqXhLUvY65ca1eety2oQTpAvd34R9Q",
        "reception_time": "2022-01-15T02:57:47.309-00:00",
        "included_in_blocks":
          [ "BKwb48B61tMhsKzF2jq2LAXSr9kWhh54HsWpRQZsieRJeRAtU8C" ] },
      { "delegate": "tz3RKYFsLuQzKBtmYuLNas7uMu3AsYd4QdsA",
        "reception_time": "2022-01-15T02:57:47.322-00:00",
        "included_in_blocks":
          [ "BKwb48B61tMhsKzF2jq2LAXSr9kWhh54HsWpRQZsieRJeRAtU8C" ] },
      { "delegate": "tz1Ldzz6k1BHdhuKvAtMRX7h5kJSMHESMHLC",
        "reception_time": "2022-01-15T02:57:47.335-00:00",
        "included_in_blocks":
          [ "BKwb48B61tMhsKzF2jq2LAXSr9kWhh54HsWpRQZsieRJeRAtU8C" ] },
      { "delegate": "tz3NxTnke1acr8o3h5y9ytf5awQBGNJUKzVU",
        "reception_time": "2022-01-15T02:57:47.302-00:00",
        "included_in_blocks":
          [ "BKwb48B61tMhsKzF2jq2LAXSr9kWhh54HsWpRQZsieRJeRAtU8C" ] },
      { "delegate": "tz3gtoUxdudfBRcNY7iVdKPHCYYX6xdPpoRS",
        "reception_time": "2022-01-15T02:57:47.322-00:00",
        "included_in_blocks":
          [ "BKwb48B61tMhsKzF2jq2LAXSr9kWhh54HsWpRQZsieRJeRAtU8C" ] },
      { "delegate": "tz1PMWrbSda1RvsRi8Xq7GRd3P7739jtyaM8",
        "reception_time": "2022-01-15T02:57:47.325-00:00",
        "included_in_blocks":
          [ "BKwb48B61tMhsKzF2jq2LAXSr9kWhh54HsWpRQZsieRJeRAtU8C" ] },
      { "delegate": "tz3QSGPoRp3Kn7n3vY24eYeu3Peuqo45LQ4D",
        "reception_time": "2022-01-15T02:57:47.302-00:00",
        "included_in_blocks":
          [ "BKwb48B61tMhsKzF2jq2LAXSr9kWhh54HsWpRQZsieRJeRAtU8C" ] },
      { "delegate": "tz3ZbP2pM3nwvXztbuMJwJnDvV5xdpU8UkkD",
        "reception_time": "2022-01-15T02:57:47.331-00:00",
        "included_in_blocks":
          [ "BKwb48B61tMhsKzF2jq2LAXSr9kWhh54HsWpRQZsieRJeRAtU8C" ] },
      { "delegate": "tz1RV1MBbZMR68tacosb7Mwj6LkbPSUS1er1",
        "reception_time": "2022-01-15T02:57:47.335-00:00",
        "included_in_blocks":
          [ "BKwb48B61tMhsKzF2jq2LAXSr9kWhh54HsWpRQZsieRJeRAtU8C" ] },
      { "delegate": "tz1irJKkXS2DBWkU1NnmFQx1c1L7pbGg4yhk",
        "reception_time": "2022-01-15T02:57:47.289-00:00",
        "included_in_blocks":
          [ "BKwb48B61tMhsKzF2jq2LAXSr9kWhh54HsWpRQZsieRJeRAtU8C" ] },
      { "delegate": "tz1P2Po7YM526ughEsRbY4oR9zaUPDZjxFrb",
        "reception_time": "2022-01-15T02:57:47.279-00:00",
        "included_in_blocks":
          [ "BKwb48B61tMhsKzF2jq2LAXSr9kWhh54HsWpRQZsieRJeRAtU8C" ] },
      { "delegate": "tz1TXzyaKUA8wsWefdSnyaYFnV2M3vCV7er9",
        "reception_time": "2022-01-15T02:57:47.277-00:00",
        "included_in_blocks":
          [ "BKwb48B61tMhsKzF2jq2LAXSr9kWhh54HsWpRQZsieRJeRAtU8C" ] },
      { "delegate": "tz1ZPh7XfUaJXUDvkrBxmS1BjEM1i62hiPpM",
        "reception_time": "2022-01-15T02:57:47.262-00:00",
        "included_in_blocks":
          [ "BKwb48B61tMhsKzF2jq2LAXSr9kWhh54HsWpRQZsieRJeRAtU8C" ] },
      { "delegate": "tz3Zhs2dygr55yHyQyKjntAtY9bgfhLZ4Xj1",
        "reception_time": "2022-01-15T02:57:47.270-00:00",
        "included_in_blocks":
          [ "BKwb48B61tMhsKzF2jq2LAXSr9kWhh54HsWpRQZsieRJeRAtU8C" ] },
      { "delegate": "tz3iJu5vrKZcsqRPs8yJ61UDoeEXZmtro4qh",
        "reception_time": "2022-01-15T02:57:47.286-00:00",
        "included_in_blocks":
          [ "BKwb48B61tMhsKzF2jq2LAXSr9kWhh54HsWpRQZsieRJeRAtU8C" ] } ] }