{ "blocks":
    [ { "hash": "BM6TFYTeh26hTnRt4nzoN9ynXbDLCDUo3o5zF12ERh5oHxNSHbb",
        "delegate": "tz1irJKkXS2DBWkU1NnmFQx1c1L7pbGg4yhk",
        "reception_time": "2022-01-15T02:29:45.512-00:00",
        "timestamp": "2022-01-15T02:29:40Z" } ],
  "endorsements":
    [ { "delegate": "tz1TRspM5SeZpaQUhzByXbEvqKF1vnCM2YTK" },
      { "delegate": "tz1NdhRv643wLW6zCcRP3VfT24dvDnh7nuh9" },
      { "delegate": "tz1MJx9vhaNRSimcuXPK2rW4fLccQnDAnVKJ" },
      { "delegate": "tz1TXzyaKUA8wsWefdSnyaYFnV2M3vCV7er9",
        "reception_time": "2022-01-15T02:29:45.471-00:00",
        "errors":
          [ { "kind": "temporary",
              "id": "proto.011-PtHangz2.prefilter.outdated_endorsement" } ],
        "included_in_blocks":
          [ "BLdo9xfFSPqjLmBL9BarPMk4sewPc474zvgFrLWCqvpgmJhJaQN" ] },
      { "delegate": "tz1P2Po7YM526ughEsRbY4oR9zaUPDZjxFrb",
        "reception_time": "2022-01-15T02:29:45.436-00:00",
        "errors":
          [ { "kind": "temporary",
              "id": "proto.011-PtHangz2.prefilter.outdated_endorsement" } ],
        "included_in_blocks":
          [ "BLdo9xfFSPqjLmBL9BarPMk4sewPc474zvgFrLWCqvpgmJhJaQN" ] },
      { "delegate": "tz1irJKkXS2DBWkU1NnmFQx1c1L7pbGg4yhk",
        "reception_time": "2022-01-15T02:29:45.315-00:00",
        "errors":
          [ { "kind": "temporary",
              "id": "proto.011-PtHangz2.prefilter.outdated_endorsement" } ],
        "included_in_blocks":
          [ "BLdo9xfFSPqjLmBL9BarPMk4sewPc474zvgFrLWCqvpgmJhJaQN" ] },
      { "delegate": "tz1THsLcunLo8CmDm9f2y1xHuXttXZCpyFnq",
        "reception_time": "2022-01-15T02:29:45.132-00:00",
        "errors":
          [ { "kind": "temporary",
              "id": "proto.011-PtHangz2.prefilter.outdated_endorsement" } ],
        "included_in_blocks":
          [ "BLdo9xfFSPqjLmBL9BarPMk4sewPc474zvgFrLWCqvpgmJhJaQN" ] },
      { "delegate": "tz1S8e9GgdZG78XJRB3NqabfWeM37GnhZMWQ",
        "reception_time": "2022-01-15T02:29:45.072-00:00",
        "errors":
          [ { "kind": "temporary",
              "id": "proto.011-PtHangz2.prefilter.outdated_endorsement" } ],
        "included_in_blocks":
          [ "BLdo9xfFSPqjLmBL9BarPMk4sewPc474zvgFrLWCqvpgmJhJaQN" ] },
      { "delegate": "tz3e7LbZvUtoXhpUD1yb6wuFodZpfYRb9nWJ",
        "reception_time": "2022-01-15T02:29:53.982-00:00",
        "included_in_blocks":
          [ "BLdo9xfFSPqjLmBL9BarPMk4sewPc474zvgFrLWCqvpgmJhJaQN" ] },
      { "delegate": "tz1g8vkmcde6sWKaG2NN9WKzCkDM6Rziq194",
        "reception_time": "2022-01-15T02:29:53.889-00:00",
        "included_in_blocks":
          [ "BLdo9xfFSPqjLmBL9BarPMk4sewPc474zvgFrLWCqvpgmJhJaQN" ] },
      { "delegate": "tz1dfg9PkvRLf7hKMmGdGRhXWCbd8QgbwBF7",
        "reception_time": "2022-01-15T02:29:52.635-00:00",
        "included_in_blocks":
          [ "BLdo9xfFSPqjLmBL9BarPMk4sewPc474zvgFrLWCqvpgmJhJaQN" ] },
      { "delegate": "tz1go7f6mEQfT2xX2LuHAqgnRGN6c2zHPf5c",
        "reception_time": "2022-01-15T02:29:51.957-00:00",
        "included_in_blocks":
          [ "BLdo9xfFSPqjLmBL9BarPMk4sewPc474zvgFrLWCqvpgmJhJaQN" ] },
      { "delegate": "tz1QdCydwfoU3Pvv2jq5TCsLTNm9Cgk7ptyk",
        "reception_time": "2022-01-15T02:29:50.093-00:00",
        "included_in_blocks":
          [ "BLdo9xfFSPqjLmBL9BarPMk4sewPc474zvgFrLWCqvpgmJhJaQN" ] },
      { "delegate": "tz1QccGQsmt7WMnbVX9inJQgEuQGeMXddfjp",
        "reception_time": "2022-01-15T02:29:49.989-00:00",
        "included_in_blocks":
          [ "BLdo9xfFSPqjLmBL9BarPMk4sewPc474zvgFrLWCqvpgmJhJaQN" ] },
      { "delegate": "tz3NExpXn9aPNZPorRE4SdjJ2RGrfbJgMAaV",
        "reception_time": "2022-01-15T02:29:48.929-00:00",
        "included_in_blocks":
          [ "BLdo9xfFSPqjLmBL9BarPMk4sewPc474zvgFrLWCqvpgmJhJaQN" ] },
      { "delegate": "tz3UoffC7FG7zfpmvmjUmUeAaHvzdcUvAj6r",
        "reception_time": "2022-01-15T02:29:49.238-00:00",
        "included_in_blocks":
          [ "BLdo9xfFSPqjLmBL9BarPMk4sewPc474zvgFrLWCqvpgmJhJaQN" ] },
      { "delegate": "tz1T7duV5gZWSTq4YpBGbXNLTfznCLDrFxvs",
        "reception_time": "2022-01-15T02:29:49.015-00:00",
        "included_in_blocks":
          [ "BLdo9xfFSPqjLmBL9BarPMk4sewPc474zvgFrLWCqvpgmJhJaQN" ] },
      { "delegate": "tz1UvkANVPWppVgMkLnvN7BwYZsCP7vm6NVd",
        "reception_time": "2022-01-15T02:29:48.322-00:00",
        "included_in_blocks":
          [ "BLdo9xfFSPqjLmBL9BarPMk4sewPc474zvgFrLWCqvpgmJhJaQN" ] },
      { "delegate": "tz1f3Re8iw6Pt3KMHAvyccHxDU3NuqL95axD",
        "reception_time": "2022-01-15T02:29:49.256-00:00",
        "included_in_blocks":
          [ "BLdo9xfFSPqjLmBL9BarPMk4sewPc474zvgFrLWCqvpgmJhJaQN" ] },
      { "delegate": "tz1aRoaRhSpRYvFdyvgWLL6TGyRoGF51wDjM",
        "reception_time": "2022-01-15T02:29:48.618-00:00",
        "included_in_blocks":
          [ "BLdo9xfFSPqjLmBL9BarPMk4sewPc474zvgFrLWCqvpgmJhJaQN" ] },
      { "delegate": "tz3bvNMQ95vfAYtG8193ymshqjSvmxiCUuR5",
        "reception_time": "2022-01-15T02:29:48.615-00:00",
        "included_in_blocks":
          [ "BLdo9xfFSPqjLmBL9BarPMk4sewPc474zvgFrLWCqvpgmJhJaQN" ] },
      { "delegate": "tz1RjoHc98dBoqaH2jawF62XNKh7YsHwbkEv",
        "reception_time": "2022-01-15T02:29:48.338-00:00",
        "included_in_blocks":
          [ "BLdo9xfFSPqjLmBL9BarPMk4sewPc474zvgFrLWCqvpgmJhJaQN" ] },
      { "delegate": "tz1cYufsxHXJcvANhvS55h3aY32a9BAFB494",
        "reception_time": "2022-01-15T02:29:48.980-00:00",
        "included_in_blocks":
          [ "BLdo9xfFSPqjLmBL9BarPMk4sewPc474zvgFrLWCqvpgmJhJaQN" ] },
      { "delegate": "tz3VEZ4k6a4Wx42iyev6i2aVAptTRLEAivNN",
        "reception_time": "2022-01-15T02:29:48.388-00:00",
        "included_in_blocks":
          [ "BLdo9xfFSPqjLmBL9BarPMk4sewPc474zvgFrLWCqvpgmJhJaQN" ] },
      { "delegate": "tz1KfEsrtDaA1sX7vdM4qmEPWuSytuqCDp5j",
        "reception_time": "2022-01-15T02:29:48.171-00:00",
        "included_in_blocks":
          [ "BLdo9xfFSPqjLmBL9BarPMk4sewPc474zvgFrLWCqvpgmJhJaQN" ] },
      { "delegate": "tz1M1gA1hgmmLf8VvtAwupbWCkaciQZMFbvi",
        "reception_time": "2022-01-15T02:29:48.470-00:00",
        "included_in_blocks":
          [ "BLdo9xfFSPqjLmBL9BarPMk4sewPc474zvgFrLWCqvpgmJhJaQN" ] },
      { "delegate": "tz3WMqdzXqRWXwyvj5Hp2H7QEepaUuS7vd9K",
        "reception_time": "2022-01-15T02:29:48.270-00:00",
        "included_in_blocks":
          [ "BLdo9xfFSPqjLmBL9BarPMk4sewPc474zvgFrLWCqvpgmJhJaQN" ] },
      { "delegate": "tz1PeZx7FXy7QRuMREGXGxeipb24RsMMzUNe",
        "reception_time": "2022-01-15T02:29:48.040-00:00",
        "included_in_blocks":
          [ "BLdo9xfFSPqjLmBL9BarPMk4sewPc474zvgFrLWCqvpgmJhJaQN" ] },
      { "delegate": "tz1Nf6tsK4G6bBqgSQERy4nUtkHNKUVdh7q1",
        "reception_time": "2022-01-15T02:29:48.083-00:00",
        "included_in_blocks":
          [ "BLdo9xfFSPqjLmBL9BarPMk4sewPc474zvgFrLWCqvpgmJhJaQN" ] },
      { "delegate": "tz1NEKxGEHsFufk87CVZcrqWu8o22qh46GK6",
        "reception_time": "2022-01-15T02:29:47.932-00:00",
        "included_in_blocks":
          [ "BLdo9xfFSPqjLmBL9BarPMk4sewPc474zvgFrLWCqvpgmJhJaQN" ] },
      { "delegate": "tz2FCNBrERXtaTtNX6iimR1UJ5JSDxvdHM93",
        "reception_time": "2022-01-15T02:29:47.920-00:00",
        "included_in_blocks":
          [ "BLdo9xfFSPqjLmBL9BarPMk4sewPc474zvgFrLWCqvpgmJhJaQN" ] },
      { "delegate": "tz1Q8QkSBS63ZQnH3fBTiAMPes9R666Rn6Sc",
        "reception_time": "2022-01-15T02:29:47.817-00:00",
        "included_in_blocks":
          [ "BLdo9xfFSPqjLmBL9BarPMk4sewPc474zvgFrLWCqvpgmJhJaQN" ] },
      { "delegate": "tz1M91Ji7k4YkTtfEfEUzvnJrLmfQLXmLQ34",
        "reception_time": "2022-01-15T02:29:47.775-00:00",
        "included_in_blocks":
          [ "BLdo9xfFSPqjLmBL9BarPMk4sewPc474zvgFrLWCqvpgmJhJaQN" ] },
      { "delegate": "tz1YhNsiRRU8aHNGg7NK3uuP6UDAyacJernB",
        "reception_time": "2022-01-15T02:29:47.778-00:00",
        "included_in_blocks":
          [ "BLdo9xfFSPqjLmBL9BarPMk4sewPc474zvgFrLWCqvpgmJhJaQN" ] },
      { "delegate": "tz1SYq214SCBy9naR6cvycQsYcUGpBqQAE8d",
        "reception_time": "2022-01-15T02:29:47.642-00:00",
        "included_in_blocks":
          [ "BLdo9xfFSPqjLmBL9BarPMk4sewPc474zvgFrLWCqvpgmJhJaQN" ] },
      { "delegate": "tz1V4qCyvPKZ5UeqdH14HN42rxvNPQfc9UZg",
        "reception_time": "2022-01-15T02:29:47.605-00:00",
        "included_in_blocks":
          [ "BLdo9xfFSPqjLmBL9BarPMk4sewPc474zvgFrLWCqvpgmJhJaQN" ] },
      { "delegate": "tz3NDpRj6WBrJPikcPVHRBEjWKxFw3c6eQPS",
        "reception_time": "2022-01-15T02:29:47.432-00:00",
        "included_in_blocks":
          [ "BLdo9xfFSPqjLmBL9BarPMk4sewPc474zvgFrLWCqvpgmJhJaQN" ] },
      { "delegate": "tz1abmz7jiCV2GH2u81LRrGgAFFgvQgiDiaf",
        "reception_time": "2022-01-15T02:29:47.424-00:00",
        "included_in_blocks":
          [ "BLdo9xfFSPqjLmBL9BarPMk4sewPc474zvgFrLWCqvpgmJhJaQN" ] },
      { "delegate": "tz1WBfwbT66FC6BTLexc2BoyCCBM9LG7pnVW",
        "reception_time": "2022-01-15T02:29:47.540-00:00",
        "included_in_blocks":
          [ "BLdo9xfFSPqjLmBL9BarPMk4sewPc474zvgFrLWCqvpgmJhJaQN" ] },
      { "delegate": "tz1R4PuhxUxBBZhfLJDx2nNjbr7WorAPX1oC",
        "reception_time": "2022-01-15T02:29:47.506-00:00",
        "included_in_blocks":
          [ "BLdo9xfFSPqjLmBL9BarPMk4sewPc474zvgFrLWCqvpgmJhJaQN" ] },
      { "delegate": "tz1TEc75UKXv4W5cwi14Na3NtqFD51yKQi7h",
        "reception_time": "2022-01-15T02:29:47.521-00:00",
        "included_in_blocks":
          [ "BLdo9xfFSPqjLmBL9BarPMk4sewPc474zvgFrLWCqvpgmJhJaQN" ] },
      { "delegate": "tz1cZfFQpcYhwDp7y1njZXDsZqCrn2NqmVof",
        "reception_time": "2022-01-15T02:29:47.603-00:00",
        "included_in_blocks":
          [ "BLdo9xfFSPqjLmBL9BarPMk4sewPc474zvgFrLWCqvpgmJhJaQN" ] },
      { "delegate": "tz1ei4WtWEMEJekSv8qDnu9PExG6Q8HgRGr3",
        "reception_time": "2022-01-15T02:29:47.518-00:00",
        "included_in_blocks":
          [ "BLdo9xfFSPqjLmBL9BarPMk4sewPc474zvgFrLWCqvpgmJhJaQN" ] },
      { "delegate": "tz1RCFbB9GpALpsZtu6J58sb74dm8qe6XBzv",
        "reception_time": "2022-01-15T02:29:47.096-00:00",
        "included_in_blocks":
          [ "BLdo9xfFSPqjLmBL9BarPMk4sewPc474zvgFrLWCqvpgmJhJaQN" ] },
      { "delegate": "tz3Zhs2dygr55yHyQyKjntAtY9bgfhLZ4Xj1",
        "reception_time": "2022-01-15T02:29:46.648-00:00",
        "included_in_blocks":
          [ "BLdo9xfFSPqjLmBL9BarPMk4sewPc474zvgFrLWCqvpgmJhJaQN" ] },
      { "delegate": "tz1WCd2jm4uSt4vntk4vSuUWoZQGhLcDuR9q",
        "reception_time": "2022-01-15T02:29:46.558-00:00",
        "included_in_blocks":
          [ "BLdo9xfFSPqjLmBL9BarPMk4sewPc474zvgFrLWCqvpgmJhJaQN" ] },
      { "delegate": "tz1XfAjZyaLdceHnZxbMYop7g7kWKPut4PR7",
        "reception_time": "2022-01-15T02:29:46.284-00:00",
        "included_in_blocks":
          [ "BLdo9xfFSPqjLmBL9BarPMk4sewPc474zvgFrLWCqvpgmJhJaQN" ] },
      { "delegate": "tz3adcvQaKXTCg12zbninqo3q8ptKKtDFTLv",
        "reception_time": "2022-01-15T02:29:47.092-00:00",
        "included_in_blocks":
          [ "BLdo9xfFSPqjLmBL9BarPMk4sewPc474zvgFrLWCqvpgmJhJaQN" ] },
      { "delegate": "tz3iJu5vrKZcsqRPs8yJ61UDoeEXZmtro4qh",
        "reception_time": "2022-01-15T02:29:46.622-00:00",
        "included_in_blocks":
          [ "BLdo9xfFSPqjLmBL9BarPMk4sewPc474zvgFrLWCqvpgmJhJaQN" ] },
      { "delegate": "tz1S8MNvuFEUsWgjHvi3AxibRBf388NhT1q2",
        "reception_time": "2022-01-15T02:29:46.950-00:00",
        "included_in_blocks":
          [ "BLdo9xfFSPqjLmBL9BarPMk4sewPc474zvgFrLWCqvpgmJhJaQN" ] },
      { "delegate": "tz1Ldzz6k1BHdhuKvAtMRX7h5kJSMHESMHLC",
        "reception_time": "2022-01-15T02:29:46.302-00:00",
        "included_in_blocks":
          [ "BLdo9xfFSPqjLmBL9BarPMk4sewPc474zvgFrLWCqvpgmJhJaQN" ] },
      { "delegate": "tz3QSGPoRp3Kn7n3vY24eYeu3Peuqo45LQ4D",
        "reception_time": "2022-01-15T02:29:46.427-00:00",
        "included_in_blocks":
          [ "BLdo9xfFSPqjLmBL9BarPMk4sewPc474zvgFrLWCqvpgmJhJaQN" ] },
      { "delegate": "tz3S6BBeKgJGXxvLyZ1xzXzMPn11nnFtq5L9",
        "reception_time": "2022-01-15T02:29:46.446-00:00",
        "included_in_blocks":
          [ "BLdo9xfFSPqjLmBL9BarPMk4sewPc474zvgFrLWCqvpgmJhJaQN" ] },
      { "delegate": "tz1gfArv665EUkSg2ojMBzcbfwuPxAvqPvjo",
        "reception_time": "2022-01-15T02:29:47.130-00:00",
        "included_in_blocks":
          [ "BLdo9xfFSPqjLmBL9BarPMk4sewPc474zvgFrLWCqvpgmJhJaQN" ] },
      { "delegate": "tz3ZbP2pM3nwvXztbuMJwJnDvV5xdpU8UkkD",
        "reception_time": "2022-01-15T02:29:46.312-00:00",
        "included_in_blocks":
          [ "BLdo9xfFSPqjLmBL9BarPMk4sewPc474zvgFrLWCqvpgmJhJaQN" ] },
      { "delegate": "tz1iPHM2Xx2hwmzcr1EG1zzrV6oKafVoA91m",
        "reception_time": "2022-01-15T02:29:46.934-00:00",
        "included_in_blocks":
          [ "BLdo9xfFSPqjLmBL9BarPMk4sewPc474zvgFrLWCqvpgmJhJaQN" ] },
      { "delegate": "tz1VQnqCCqX4K5sP3FNkVSNKTdCAMJDd3E1n",
        "reception_time": "2022-01-15T02:29:46.388-00:00",
        "included_in_blocks":
          [ "BLdo9xfFSPqjLmBL9BarPMk4sewPc474zvgFrLWCqvpgmJhJaQN" ] },
      { "delegate": "tz3hw2kqXhLUvY65ca1eety2oQTpAvd34R9Q",
        "reception_time": "2022-01-15T02:29:46.550-00:00",
        "included_in_blocks":
          [ "BLdo9xfFSPqjLmBL9BarPMk4sewPc474zvgFrLWCqvpgmJhJaQN" ] },
      { "delegate": "tz1beersuEDv8Z7ngQ825xfbaJNS2EhXnyHR",
        "reception_time": "2022-01-15T02:29:46.269-00:00",
        "included_in_blocks":
          [ "BLdo9xfFSPqjLmBL9BarPMk4sewPc474zvgFrLWCqvpgmJhJaQN" ] },
      { "delegate": "tz1U638Z3xWRiXDDKx2S125MCCaAeGDdA896",
        "reception_time": "2022-01-15T02:29:46.280-00:00",
        "included_in_blocks":
          [ "BLdo9xfFSPqjLmBL9BarPMk4sewPc474zvgFrLWCqvpgmJhJaQN" ] },
      { "delegate": "tz3gtoUxdudfBRcNY7iVdKPHCYYX6xdPpoRS",
        "reception_time": "2022-01-15T02:29:46.349-00:00",
        "included_in_blocks":
          [ "BLdo9xfFSPqjLmBL9BarPMk4sewPc474zvgFrLWCqvpgmJhJaQN" ] },
      { "delegate": "tz1PWCDnz783NNGGQjEFFsHtrcK5yBW4E2rm",
        "reception_time": "2022-01-15T02:29:46.863-00:00",
        "included_in_blocks":
          [ "BLdo9xfFSPqjLmBL9BarPMk4sewPc474zvgFrLWCqvpgmJhJaQN" ] },
      { "delegate": "tz1gUNyn3hmnEWqkusWPzxRaon1cs7ndWh7h",
        "reception_time": "2022-01-15T02:29:46.323-00:00",
        "included_in_blocks":
          [ "BLdo9xfFSPqjLmBL9BarPMk4sewPc474zvgFrLWCqvpgmJhJaQN" ] },
      { "delegate": "tz3RDC3Jdn4j15J7bBHZd29EUee9gVB1CxD9",
        "reception_time": "2022-01-15T02:29:47.034-00:00",
        "included_in_blocks":
          [ "BLdo9xfFSPqjLmBL9BarPMk4sewPc474zvgFrLWCqvpgmJhJaQN" ] },
      { "delegate": "tz3NxTnke1acr8o3h5y9ytf5awQBGNJUKzVU",
        "reception_time": "2022-01-15T02:29:46.332-00:00",
        "included_in_blocks":
          [ "BLdo9xfFSPqjLmBL9BarPMk4sewPc474zvgFrLWCqvpgmJhJaQN" ] },
      { "delegate": "tz1MQMiZHV8q4tTwUMWmS5Y3kaP6J2136iXr",
        "reception_time": "2022-01-15T02:29:46.825-00:00",
        "included_in_blocks":
          [ "BLdo9xfFSPqjLmBL9BarPMk4sewPc474zvgFrLWCqvpgmJhJaQN" ] },
      { "delegate": "tz1VmiY38m3y95HqQLjMwqnMS7sdMfGomzKi",
        "reception_time": "2022-01-15T02:29:46.678-00:00",
        "included_in_blocks":
          [ "BLdo9xfFSPqjLmBL9BarPMk4sewPc474zvgFrLWCqvpgmJhJaQN" ] },
      { "delegate": "tz3RB4aoyjov4KEVRbuhvQ1CKJgBJMWhaeB8",
        "reception_time": "2022-01-15T02:29:47.086-00:00",
        "included_in_blocks":
          [ "BLdo9xfFSPqjLmBL9BarPMk4sewPc474zvgFrLWCqvpgmJhJaQN" ] },
      { "delegate": "tz1cSj7fTex3JPd1p1LN1fwek6AV1kH93Wwc",
        "reception_time": "2022-01-15T02:29:46.763-00:00",
        "included_in_blocks":
          [ "BLdo9xfFSPqjLmBL9BarPMk4sewPc474zvgFrLWCqvpgmJhJaQN" ] },
      { "delegate": "tz3QT9dHYKDqh563chVa6za8526ys1UKfRfL",
        "reception_time": "2022-01-15T02:29:46.459-00:00",
        "included_in_blocks":
          [ "BLdo9xfFSPqjLmBL9BarPMk4sewPc474zvgFrLWCqvpgmJhJaQN" ] },
      { "delegate": "tz1iZEKy4LaAjnTmn2RuGDf2iqdAQKnRi8kY",
        "reception_time": "2022-01-15T02:29:46.287-00:00",
        "included_in_blocks":
          [ "BLdo9xfFSPqjLmBL9BarPMk4sewPc474zvgFrLWCqvpgmJhJaQN" ] },
      { "delegate": "tz3RKYFsLuQzKBtmYuLNas7uMu3AsYd4QdsA",
        "reception_time": "2022-01-15T02:29:46.567-00:00",
        "included_in_blocks":
          [ "BLdo9xfFSPqjLmBL9BarPMk4sewPc474zvgFrLWCqvpgmJhJaQN" ] },
      { "delegate": "tz3bTdwZinP8U1JmSweNzVKhmwafqWmFWRfk",
        "reception_time": "2022-01-15T02:29:47.025-00:00",
        "included_in_blocks":
          [ "BLdo9xfFSPqjLmBL9BarPMk4sewPc474zvgFrLWCqvpgmJhJaQN" ] },
      { "delegate": "tz1Scdr2HsZiQjc7bHMeBbmDRXYVvdhjJbBh",
        "reception_time": "2022-01-15T02:29:46.273-00:00",
        "included_in_blocks":
          [ "BLdo9xfFSPqjLmBL9BarPMk4sewPc474zvgFrLWCqvpgmJhJaQN" ] },
      { "delegate": "tz1eEnQhbwf6trb8Q8mPb2RaPkNk2rN7BKi8",
        "reception_time": "2022-01-15T02:29:46.273-00:00",
        "included_in_blocks":
          [ "BLdo9xfFSPqjLmBL9BarPMk4sewPc474zvgFrLWCqvpgmJhJaQN" ] },
      { "delegate": "tz1dwu9aYb7CRNq4Y2zAjipdjFuSVKhHS8vA",
        "reception_time": "2022-01-15T02:29:46.959-00:00",
        "included_in_blocks":
          [ "BLdo9xfFSPqjLmBL9BarPMk4sewPc474zvgFrLWCqvpgmJhJaQN" ] } ] }