{ "blocks":
    [ { "hash": "BKuAwF2k9dD5qexXqq5wUSfpaRuqCgY29NogWTCegq4gREjvy3Z",
        "delegate": "tz1S8MNvuFEUsWgjHvi3AxibRBf388NhT1q2",
        "reception_time": "2022-01-15T03:42:55.672-00:00",
        "timestamp": "2022-01-15T03:42:50Z" } ],
  "endorsements":
    [ { "delegate": "tz1TRspM5SeZpaQUhzByXbEvqKF1vnCM2YTK" },
      { "delegate": "tz1S8e9GgdZG78XJRB3NqabfWeM37GnhZMWQ",
        "reception_time": "2022-01-15T03:42:55.602-00:00",
        "errors":
          [ { "kind": "temporary",
              "id": "proto.011-PtHangz2.prefilter.outdated_endorsement" } ],
        "included_in_blocks":
          [ "BKuRdEC6wAyoqgENtA1tJGfB3acbrfkaRP458meLFs1Zzo8AsBu" ] },
      { "delegate": "tz3e7LbZvUtoXhpUD1yb6wuFodZpfYRb9nWJ",
        "reception_time": "2022-01-15T03:43:02.147-00:00",
        "included_in_blocks":
          [ "BKuRdEC6wAyoqgENtA1tJGfB3acbrfkaRP458meLFs1Zzo8AsBu" ] },
      { "delegate": "tz2BzJTyoQp8fNbfhWD4YQgH9JJHDgSGzpdG",
        "reception_time": "2022-01-15T03:43:01.698-00:00",
        "included_in_blocks":
          [ "BKuRdEC6wAyoqgENtA1tJGfB3acbrfkaRP458meLFs1Zzo8AsBu" ] },
      { "delegate": "tz1NpWrAyDL9k2Lmnyxcgr9xuJakbBxdq7FB",
        "reception_time": "2022-01-15T03:42:59.701-00:00",
        "included_in_blocks":
          [ "BKuRdEC6wAyoqgENtA1tJGfB3acbrfkaRP458meLFs1Zzo8AsBu" ] },
      { "delegate": "tz3NExpXn9aPNZPorRE4SdjJ2RGrfbJgMAaV",
        "reception_time": "2022-01-15T03:42:59.214-00:00",
        "included_in_blocks":
          [ "BKuRdEC6wAyoqgENtA1tJGfB3acbrfkaRP458meLFs1Zzo8AsBu" ] },
      { "delegate": "tz1dRKU4FQ9QRRQPdaH4zCR6gmCmXfcvcgtB",
        "reception_time": "2022-01-15T03:42:58.835-00:00",
        "included_in_blocks":
          [ "BKuRdEC6wAyoqgENtA1tJGfB3acbrfkaRP458meLFs1Zzo8AsBu" ] },
      { "delegate": "tz1aRoaRhSpRYvFdyvgWLL6TGyRoGF51wDjM",
        "reception_time": "2022-01-15T03:42:58.588-00:00",
        "included_in_blocks":
          [ "BKuRdEC6wAyoqgENtA1tJGfB3acbrfkaRP458meLFs1Zzo8AsBu" ] },
      { "delegate": "tz3RDC3Jdn4j15J7bBHZd29EUee9gVB1CxD9",
        "reception_time": "2022-01-15T03:42:58.546-00:00",
        "included_in_blocks":
          [ "BKuRdEC6wAyoqgENtA1tJGfB3acbrfkaRP458meLFs1Zzo8AsBu" ] },
      { "delegate": "tz3bvNMQ95vfAYtG8193ymshqjSvmxiCUuR5",
        "reception_time": "2022-01-15T03:42:58.466-00:00",
        "included_in_blocks":
          [ "BKuRdEC6wAyoqgENtA1tJGfB3acbrfkaRP458meLFs1Zzo8AsBu" ] },
      { "delegate": "tz1aJS7Pk9uWR3wWyFf1i3RwhYxN84G7stom",
        "reception_time": "2022-01-15T03:42:58.471-00:00",
        "included_in_blocks":
          [ "BKuRdEC6wAyoqgENtA1tJGfB3acbrfkaRP458meLFs1Zzo8AsBu" ] },
      { "delegate": "tz1PeZx7FXy7QRuMREGXGxeipb24RsMMzUNe",
        "reception_time": "2022-01-15T03:42:58.024-00:00",
        "included_in_blocks":
          [ "BKuRdEC6wAyoqgENtA1tJGfB3acbrfkaRP458meLFs1Zzo8AsBu" ] },
      { "delegate": "tz1RpeqCseogMpCPXpyGjhmLH9i9DhqJ8cUR",
        "reception_time": "2022-01-15T03:42:57.908-00:00",
        "included_in_blocks":
          [ "BKuRdEC6wAyoqgENtA1tJGfB3acbrfkaRP458meLFs1Zzo8AsBu" ] },
      { "delegate": "tz1VceyYUpq1gk5dtp6jXQRtCtY8hm5DKt72",
        "reception_time": "2022-01-15T03:42:57.852-00:00",
        "included_in_blocks":
          [ "BKuRdEC6wAyoqgENtA1tJGfB3acbrfkaRP458meLFs1Zzo8AsBu" ] },
      { "delegate": "tz1WnfXMPaNTBmH7DBPwqCWs9cPDJdkGBTZ8",
        "reception_time": "2022-01-15T03:42:57.823-00:00",
        "included_in_blocks":
          [ "BKuRdEC6wAyoqgENtA1tJGfB3acbrfkaRP458meLFs1Zzo8AsBu" ] },
      { "delegate": "tz1Nf6tsK4G6bBqgSQERy4nUtkHNKUVdh7q1",
        "reception_time": "2022-01-15T03:42:57.800-00:00",
        "included_in_blocks":
          [ "BKuRdEC6wAyoqgENtA1tJGfB3acbrfkaRP458meLFs1Zzo8AsBu" ] },
      { "delegate": "tz1NoYvKjXTzTk54VpLxBfouJ33J8jwKPPvw",
        "reception_time": "2022-01-15T03:42:57.781-00:00",
        "included_in_blocks":
          [ "BKuRdEC6wAyoqgENtA1tJGfB3acbrfkaRP458meLFs1Zzo8AsBu" ] },
      { "delegate": "tz3gLTu4Yxj8tPAcriQVUdxv6BY9QyvzU1az",
        "reception_time": "2022-01-15T03:42:57.719-00:00",
        "included_in_blocks":
          [ "BKuRdEC6wAyoqgENtA1tJGfB3acbrfkaRP458meLFs1Zzo8AsBu" ] },
      { "delegate": "tz3NDpRj6WBrJPikcPVHRBEjWKxFw3c6eQPS",
        "reception_time": "2022-01-15T03:42:57.733-00:00",
        "included_in_blocks":
          [ "BKuRdEC6wAyoqgENtA1tJGfB3acbrfkaRP458meLFs1Zzo8AsBu" ] },
      { "delegate": "tz1fUyqYH7H4pRHN1roWY17giXhy1RvxjgUV",
        "reception_time": "2022-01-15T03:42:57.540-00:00",
        "included_in_blocks":
          [ "BKuRdEC6wAyoqgENtA1tJGfB3acbrfkaRP458meLFs1Zzo8AsBu" ] },
      { "delegate": "tz1awXW7wuXy21c66vBudMXQVAPgRnqqwgTH",
        "reception_time": "2022-01-15T03:42:57.702-00:00",
        "included_in_blocks":
          [ "BKuRdEC6wAyoqgENtA1tJGfB3acbrfkaRP458meLFs1Zzo8AsBu" ] },
      { "delegate": "tz3VEZ4k6a4Wx42iyev6i2aVAptTRLEAivNN",
        "reception_time": "2022-01-15T03:42:57.631-00:00",
        "included_in_blocks":
          [ "BKuRdEC6wAyoqgENtA1tJGfB3acbrfkaRP458meLFs1Zzo8AsBu" ] },
      { "delegate": "tz1RQhNh7iB9CZA7i3ifTWNwiGYVffponfbB",
        "reception_time": "2022-01-15T03:42:57.521-00:00",
        "included_in_blocks":
          [ "BKuRdEC6wAyoqgENtA1tJGfB3acbrfkaRP458meLFs1Zzo8AsBu" ] },
      { "delegate": "tz1WBfwbT66FC6BTLexc2BoyCCBM9LG7pnVW",
        "reception_time": "2022-01-15T03:42:57.726-00:00",
        "included_in_blocks":
          [ "BKuRdEC6wAyoqgENtA1tJGfB3acbrfkaRP458meLFs1Zzo8AsBu" ] },
      { "delegate": "tz1SohptP53wDPZhzTWzDUFAUcWF6DMBpaJV",
        "reception_time": "2022-01-15T03:42:57.618-00:00",
        "included_in_blocks":
          [ "BKuRdEC6wAyoqgENtA1tJGfB3acbrfkaRP458meLFs1Zzo8AsBu" ] },
      { "delegate": "tz1cZfFQpcYhwDp7y1njZXDsZqCrn2NqmVof",
        "reception_time": "2022-01-15T03:42:57.719-00:00",
        "included_in_blocks":
          [ "BKuRdEC6wAyoqgENtA1tJGfB3acbrfkaRP458meLFs1Zzo8AsBu" ] },
      { "delegate": "tz1fb7c66UwePkkfDXz4ajFaBP9hVNLdS7JJ",
        "reception_time": "2022-01-15T03:42:57.468-00:00",
        "included_in_blocks":
          [ "BKuRdEC6wAyoqgENtA1tJGfB3acbrfkaRP458meLFs1Zzo8AsBu" ] },
      { "delegate": "tz1TEc75UKXv4W5cwi14Na3NtqFD51yKQi7h",
        "reception_time": "2022-01-15T03:42:57.479-00:00",
        "included_in_blocks":
          [ "BKuRdEC6wAyoqgENtA1tJGfB3acbrfkaRP458meLFs1Zzo8AsBu" ] },
      { "delegate": "tz1fwnfJNgiDACshK9avfRfFbMaXrs3ghoJa",
        "reception_time": "2022-01-15T03:42:57.414-00:00",
        "included_in_blocks":
          [ "BKuRdEC6wAyoqgENtA1tJGfB3acbrfkaRP458meLFs1Zzo8AsBu" ] },
      { "delegate": "tz2FCNBrERXtaTtNX6iimR1UJ5JSDxvdHM93",
        "reception_time": "2022-01-15T03:42:57.425-00:00",
        "included_in_blocks":
          [ "BKuRdEC6wAyoqgENtA1tJGfB3acbrfkaRP458meLFs1Zzo8AsBu" ] },
      { "delegate": "tz3WMqdzXqRWXwyvj5Hp2H7QEepaUuS7vd9K",
        "reception_time": "2022-01-15T03:42:57.377-00:00",
        "included_in_blocks":
          [ "BKuRdEC6wAyoqgENtA1tJGfB3acbrfkaRP458meLFs1Zzo8AsBu" ] },
      { "delegate": "tz1VQnqCCqX4K5sP3FNkVSNKTdCAMJDd3E1n",
        "reception_time": "2022-01-15T03:42:57.355-00:00",
        "included_in_blocks":
          [ "BKuRdEC6wAyoqgENtA1tJGfB3acbrfkaRP458meLFs1Zzo8AsBu" ] },
      { "delegate": "tz1gUNyn3hmnEWqkusWPzxRaon1cs7ndWh7h",
        "reception_time": "2022-01-15T03:42:57.392-00:00",
        "included_in_blocks":
          [ "BKuRdEC6wAyoqgENtA1tJGfB3acbrfkaRP458meLFs1Zzo8AsBu" ] },
      { "delegate": "tz3UoffC7FG7zfpmvmjUmUeAaHvzdcUvAj6r",
        "reception_time": "2022-01-15T03:42:57.292-00:00",
        "included_in_blocks":
          [ "BKuRdEC6wAyoqgENtA1tJGfB3acbrfkaRP458meLFs1Zzo8AsBu" ] },
      { "delegate": "tz1Tnjaxk6tbAeC2TmMApPh8UsrEVQvhHvx5",
        "reception_time": "2022-01-15T03:42:57.166-00:00",
        "included_in_blocks":
          [ "BKuRdEC6wAyoqgENtA1tJGfB3acbrfkaRP458meLFs1Zzo8AsBu" ] },
      { "delegate": "tz1KfEsrtDaA1sX7vdM4qmEPWuSytuqCDp5j",
        "reception_time": "2022-01-15T03:42:57.163-00:00",
        "included_in_blocks":
          [ "BKuRdEC6wAyoqgENtA1tJGfB3acbrfkaRP458meLFs1Zzo8AsBu" ] },
      { "delegate": "tz1TRqbYbUf2GyrjErf3hBzgBJPzW8y36qEs",
        "reception_time": "2022-01-15T03:42:57.061-00:00",
        "included_in_blocks":
          [ "BKuRdEC6wAyoqgENtA1tJGfB3acbrfkaRP458meLFs1Zzo8AsBu" ] },
      { "delegate": "tz3RB4aoyjov4KEVRbuhvQ1CKJgBJMWhaeB8",
        "reception_time": "2022-01-15T03:42:57.094-00:00",
        "included_in_blocks":
          [ "BKuRdEC6wAyoqgENtA1tJGfB3acbrfkaRP458meLFs1Zzo8AsBu" ] },
      { "delegate": "tz1aqcYgG6NuViML5vdWhohHJBYxcDVLNUsE",
        "reception_time": "2022-01-15T03:42:57.014-00:00",
        "included_in_blocks":
          [ "BKuRdEC6wAyoqgENtA1tJGfB3acbrfkaRP458meLFs1Zzo8AsBu" ] },
      { "delegate": "tz1YhNsiRRU8aHNGg7NK3uuP6UDAyacJernB",
        "reception_time": "2022-01-15T03:42:57.231-00:00",
        "included_in_blocks":
          [ "BKuRdEC6wAyoqgENtA1tJGfB3acbrfkaRP458meLFs1Zzo8AsBu" ] },
      { "delegate": "tz3bTdwZinP8U1JmSweNzVKhmwafqWmFWRfk",
        "reception_time": "2022-01-15T03:42:57.083-00:00",
        "included_in_blocks":
          [ "BKuRdEC6wAyoqgENtA1tJGfB3acbrfkaRP458meLFs1Zzo8AsBu" ] },
      { "delegate": "tz1ei4WtWEMEJekSv8qDnu9PExG6Q8HgRGr3",
        "reception_time": "2022-01-15T03:42:57.026-00:00",
        "included_in_blocks":
          [ "BKuRdEC6wAyoqgENtA1tJGfB3acbrfkaRP458meLFs1Zzo8AsBu" ] },
      { "delegate": "tz1RjoHc98dBoqaH2jawF62XNKh7YsHwbkEv",
        "reception_time": "2022-01-15T03:42:57.065-00:00",
        "included_in_blocks":
          [ "BKuRdEC6wAyoqgENtA1tJGfB3acbrfkaRP458meLFs1Zzo8AsBu" ] },
      { "delegate": "tz1TzaNn7wSQSP5gYPXCnNzBCpyMiidCq1PX",
        "reception_time": "2022-01-15T03:42:57.016-00:00",
        "included_in_blocks":
          [ "BKuRdEC6wAyoqgENtA1tJGfB3acbrfkaRP458meLFs1Zzo8AsBu" ] },
      { "delegate": "tz1LmaFsWRkjr7QMCx5PtV6xTUz3AmEpKQiF",
        "reception_time": "2022-01-15T03:42:56.755-00:00",
        "included_in_blocks":
          [ "BKuRdEC6wAyoqgENtA1tJGfB3acbrfkaRP458meLFs1Zzo8AsBu" ] },
      { "delegate": "tz1WCd2jm4uSt4vntk4vSuUWoZQGhLcDuR9q",
        "reception_time": "2022-01-15T03:42:56.805-00:00",
        "included_in_blocks":
          [ "BKuRdEC6wAyoqgENtA1tJGfB3acbrfkaRP458meLFs1Zzo8AsBu" ] },
      { "delegate": "tz1abmz7jiCV2GH2u81LRrGgAFFgvQgiDiaf",
        "reception_time": "2022-01-15T03:42:56.808-00:00",
        "included_in_blocks":
          [ "BKuRdEC6wAyoqgENtA1tJGfB3acbrfkaRP458meLFs1Zzo8AsBu" ] },
      { "delegate": "tz1Ldzz6k1BHdhuKvAtMRX7h5kJSMHESMHLC",
        "reception_time": "2022-01-15T03:42:56.677-00:00",
        "included_in_blocks":
          [ "BKuRdEC6wAyoqgENtA1tJGfB3acbrfkaRP458meLFs1Zzo8AsBu" ] },
      { "delegate": "tz1iPHM2Xx2hwmzcr1EG1zzrV6oKafVoA91m",
        "reception_time": "2022-01-15T03:42:56.609-00:00",
        "included_in_blocks":
          [ "BKuRdEC6wAyoqgENtA1tJGfB3acbrfkaRP458meLFs1Zzo8AsBu" ] },
      { "delegate": "tz1RCFbB9GpALpsZtu6J58sb74dm8qe6XBzv",
        "reception_time": "2022-01-15T03:42:56.667-00:00",
        "included_in_blocks":
          [ "BKuRdEC6wAyoqgENtA1tJGfB3acbrfkaRP458meLFs1Zzo8AsBu" ] },
      { "delegate": "tz3S6BBeKgJGXxvLyZ1xzXzMPn11nnFtq5L9",
        "reception_time": "2022-01-15T03:42:56.643-00:00",
        "included_in_blocks":
          [ "BKuRdEC6wAyoqgENtA1tJGfB3acbrfkaRP458meLFs1Zzo8AsBu" ] },
      { "delegate": "tz3QT9dHYKDqh563chVa6za8526ys1UKfRfL",
        "reception_time": "2022-01-15T03:42:56.621-00:00",
        "included_in_blocks":
          [ "BKuRdEC6wAyoqgENtA1tJGfB3acbrfkaRP458meLFs1Zzo8AsBu" ] },
      { "delegate": "tz1gfArv665EUkSg2ojMBzcbfwuPxAvqPvjo",
        "reception_time": "2022-01-15T03:42:56.530-00:00",
        "included_in_blocks":
          [ "BKuRdEC6wAyoqgENtA1tJGfB3acbrfkaRP458meLFs1Zzo8AsBu" ] },
      { "delegate": "tz1VmiY38m3y95HqQLjMwqnMS7sdMfGomzKi",
        "reception_time": "2022-01-15T03:42:56.532-00:00",
        "included_in_blocks":
          [ "BKuRdEC6wAyoqgENtA1tJGfB3acbrfkaRP458meLFs1Zzo8AsBu" ] },
      { "delegate": "tz3RKYFsLuQzKBtmYuLNas7uMu3AsYd4QdsA",
        "reception_time": "2022-01-15T03:42:56.509-00:00",
        "included_in_blocks":
          [ "BKuRdEC6wAyoqgENtA1tJGfB3acbrfkaRP458meLFs1Zzo8AsBu" ] },
      { "delegate": "tz3QSGPoRp3Kn7n3vY24eYeu3Peuqo45LQ4D",
        "reception_time": "2022-01-15T03:42:56.377-00:00",
        "included_in_blocks":
          [ "BKuRdEC6wAyoqgENtA1tJGfB3acbrfkaRP458meLFs1Zzo8AsBu" ] },
      { "delegate": "tz3hw2kqXhLUvY65ca1eety2oQTpAvd34R9Q",
        "reception_time": "2022-01-15T03:42:56.524-00:00",
        "included_in_blocks":
          [ "BKuRdEC6wAyoqgENtA1tJGfB3acbrfkaRP458meLFs1Zzo8AsBu" ] },
      { "delegate": "tz3gtoUxdudfBRcNY7iVdKPHCYYX6xdPpoRS",
        "reception_time": "2022-01-15T03:42:56.383-00:00",
        "included_in_blocks":
          [ "BKuRdEC6wAyoqgENtA1tJGfB3acbrfkaRP458meLFs1Zzo8AsBu" ] },
      { "delegate": "tz1MQJPGNMijnXnVoBENFz9rUhaPt3S7rWoz",
        "reception_time": "2022-01-15T03:42:56.368-00:00",
        "included_in_blocks":
          [ "BKuRdEC6wAyoqgENtA1tJGfB3acbrfkaRP458meLFs1Zzo8AsBu" ] },
      { "delegate": "tz3iJu5vrKZcsqRPs8yJ61UDoeEXZmtro4qh",
        "reception_time": "2022-01-15T03:42:56.463-00:00",
        "included_in_blocks":
          [ "BKuRdEC6wAyoqgENtA1tJGfB3acbrfkaRP458meLFs1Zzo8AsBu" ] },
      { "delegate": "tz1aXD7Jigrt3PBYSpHSg5Rr33SexMmmM5Ys",
        "reception_time": "2022-01-15T03:42:56.350-00:00",
        "included_in_blocks":
          [ "BKuRdEC6wAyoqgENtA1tJGfB3acbrfkaRP458meLFs1Zzo8AsBu" ] },
      { "delegate": "tz3Zhs2dygr55yHyQyKjntAtY9bgfhLZ4Xj1",
        "reception_time": "2022-01-15T03:42:56.438-00:00",
        "included_in_blocks":
          [ "BKuRdEC6wAyoqgENtA1tJGfB3acbrfkaRP458meLFs1Zzo8AsBu" ] },
      { "delegate": "tz3ZbP2pM3nwvXztbuMJwJnDvV5xdpU8UkkD",
        "reception_time": "2022-01-15T03:42:56.363-00:00",
        "included_in_blocks":
          [ "BKuRdEC6wAyoqgENtA1tJGfB3acbrfkaRP458meLFs1Zzo8AsBu" ] },
      { "delegate": "tz1irJKkXS2DBWkU1NnmFQx1c1L7pbGg4yhk",
        "reception_time": "2022-01-15T03:42:56.368-00:00",
        "included_in_blocks":
          [ "BKuRdEC6wAyoqgENtA1tJGfB3acbrfkaRP458meLFs1Zzo8AsBu" ] },
      { "delegate": "tz3NxTnke1acr8o3h5y9ytf5awQBGNJUKzVU",
        "reception_time": "2022-01-15T03:42:56.358-00:00",
        "included_in_blocks":
          [ "BKuRdEC6wAyoqgENtA1tJGfB3acbrfkaRP458meLFs1Zzo8AsBu" ] },
      { "delegate": "tz1P2Po7YM526ughEsRbY4oR9zaUPDZjxFrb",
        "reception_time": "2022-01-15T03:42:56.348-00:00",
        "included_in_blocks":
          [ "BKuRdEC6wAyoqgENtA1tJGfB3acbrfkaRP458meLFs1Zzo8AsBu" ] },
      { "delegate": "tz1Kf25fX1VdmYGSEzwFy1wNmkbSEZ2V83sY",
        "reception_time": "2022-01-15T03:42:56.338-00:00",
        "included_in_blocks":
          [ "BKuRdEC6wAyoqgENtA1tJGfB3acbrfkaRP458meLFs1Zzo8AsBu" ] },
      { "delegate": "tz1Kt4P8BCaP93AEV4eA7gmpRryWt5hznjCP",
        "reception_time": "2022-01-15T03:42:56.341-00:00",
        "included_in_blocks":
          [ "BKuRdEC6wAyoqgENtA1tJGfB3acbrfkaRP458meLFs1Zzo8AsBu" ] },
      { "delegate": "tz1eEnQhbwf6trb8Q8mPb2RaPkNk2rN7BKi8",
        "reception_time": "2022-01-15T03:42:56.348-00:00",
        "included_in_blocks":
          [ "BKuRdEC6wAyoqgENtA1tJGfB3acbrfkaRP458meLFs1Zzo8AsBu" ] },
      { "delegate": "tz1S8MNvuFEUsWgjHvi3AxibRBf388NhT1q2",
        "reception_time": "2022-01-15T03:42:56.343-00:00",
        "included_in_blocks":
          [ "BKuRdEC6wAyoqgENtA1tJGfB3acbrfkaRP458meLFs1Zzo8AsBu" ] } ] }