{ "blocks":
    [ { "hash": "BMMSNKySFRUprVXjSqeH6cnBNz9T3psYDp5qZJYq1fdfBn56a8X",
        "delegate": "tz1ZPh7XfUaJXUDvkrBxmS1BjEM1i62hiPpM",
        "reception_time": "2022-01-15T00:58:06.500-00:00",
        "timestamp": "2022-01-15T00:55:40Z" } ],
  "endorsements":
    [ { "delegate": "tz2FCNBrERXtaTtNX6iimR1UJ5JSDxvdHM93",
        "reception_time": "2022-01-15T00:58:26.677-00:00" },
      { "delegate": "tz3iJu5vrKZcsqRPs8yJ61UDoeEXZmtro4qh",
        "reception_time": "2022-01-15T00:58:26.677-00:00" },
      { "delegate": "tz3QSGPoRp3Kn7n3vY24eYeu3Peuqo45LQ4D",
        "reception_time": "2022-01-15T00:58:26.677-00:00" },
      { "delegate": "tz1RCFbB9GpALpsZtu6J58sb74dm8qe6XBzv",
        "reception_time": "2022-01-15T00:58:26.677-00:00",
        "included_in_blocks":
          [ "BLqCJGK4n33XFBD4xbaJQLQTiytJVGvAuCqbMSEPyc6cW9EfVyu" ] },
      { "delegate": "tz1TXzyaKUA8wsWefdSnyaYFnV2M3vCV7er9",
        "reception_time": "2022-01-15T00:58:26.677-00:00",
        "included_in_blocks":
          [ "BLqCJGK4n33XFBD4xbaJQLQTiytJVGvAuCqbMSEPyc6cW9EfVyu" ] },
      { "delegate": "tz3NxTnke1acr8o3h5y9ytf5awQBGNJUKzVU",
        "reception_time": "2022-01-15T00:58:26.677-00:00" },
      { "delegate": "tz3UoffC7FG7zfpmvmjUmUeAaHvzdcUvAj6r",
        "reception_time": "2022-01-15T00:58:26.677-00:00",
        "included_in_blocks":
          [ "BLqCJGK4n33XFBD4xbaJQLQTiytJVGvAuCqbMSEPyc6cW9EfVyu" ] },
      { "delegate": "tz1VceyYUpq1gk5dtp6jXQRtCtY8hm5DKt72",
        "reception_time": "2022-01-15T00:58:26.677-00:00",
        "included_in_blocks":
          [ "BLqCJGK4n33XFBD4xbaJQLQTiytJVGvAuCqbMSEPyc6cW9EfVyu" ] },
      { "delegate": "tz3S6BBeKgJGXxvLyZ1xzXzMPn11nnFtq5L9",
        "reception_time": "2022-01-15T00:58:26.677-00:00" },
      { "delegate": "tz1aRoaRhSpRYvFdyvgWLL6TGyRoGF51wDjM",
        "reception_time": "2022-01-15T00:58:26.677-00:00",
        "included_in_blocks":
          [ "BLqCJGK4n33XFBD4xbaJQLQTiytJVGvAuCqbMSEPyc6cW9EfVyu" ] },
      { "delegate": "tz1NEKxGEHsFufk87CVZcrqWu8o22qh46GK6",
        "reception_time": "2022-01-15T00:58:26.677-00:00",
        "included_in_blocks":
          [ "BLqCJGK4n33XFBD4xbaJQLQTiytJVGvAuCqbMSEPyc6cW9EfVyu" ] },
      { "delegate": "tz3NExpXn9aPNZPorRE4SdjJ2RGrfbJgMAaV",
        "reception_time": "2022-01-15T00:58:26.677-00:00",
        "included_in_blocks":
          [ "BLqCJGK4n33XFBD4xbaJQLQTiytJVGvAuCqbMSEPyc6cW9EfVyu" ] },
      { "delegate": "tz1T7duV5gZWSTq4YpBGbXNLTfznCLDrFxvs",
        "reception_time": "2022-01-15T00:58:26.677-00:00",
        "included_in_blocks":
          [ "BLqCJGK4n33XFBD4xbaJQLQTiytJVGvAuCqbMSEPyc6cW9EfVyu" ] },
      { "delegate": "tz1aXD7Jigrt3PBYSpHSg5Rr33SexMmmM5Ys",
        "reception_time": "2022-01-15T00:58:26.677-00:00",
        "included_in_blocks":
          [ "BLqCJGK4n33XFBD4xbaJQLQTiytJVGvAuCqbMSEPyc6cW9EfVyu" ] },
      { "delegate": "tz3bvNMQ95vfAYtG8193ymshqjSvmxiCUuR5",
        "reception_time": "2022-01-15T00:58:26.677-00:00",
        "included_in_blocks":
          [ "BLqCJGK4n33XFBD4xbaJQLQTiytJVGvAuCqbMSEPyc6cW9EfVyu" ] },
      { "delegate": "tz1W5VkdB5s7ENMESVBtwyt9kyvLqPcUczRT",
        "reception_time": "2022-01-15T00:58:26.677-00:00" },
      { "delegate": "tz3Zhs2dygr55yHyQyKjntAtY9bgfhLZ4Xj1",
        "reception_time": "2022-01-15T00:58:26.677-00:00" },
      { "delegate": "tz1UVFkBnZzy2WGzs7415DNwsbvuyvz4ZznB",
        "reception_time": "2022-01-15T00:58:26.677-00:00",
        "included_in_blocks":
          [ "BLqCJGK4n33XFBD4xbaJQLQTiytJVGvAuCqbMSEPyc6cW9EfVyu" ] },
      { "delegate": "tz1KfEsrtDaA1sX7vdM4qmEPWuSytuqCDp5j",
        "reception_time": "2022-01-15T00:58:26.677-00:00",
        "included_in_blocks":
          [ "BLqCJGK4n33XFBD4xbaJQLQTiytJVGvAuCqbMSEPyc6cW9EfVyu" ] },
      { "delegate": "tz1dNVDWPf3Q59SdJqnjdnu277iyvReiRS9M",
        "reception_time": "2022-01-15T00:58:26.677-00:00",
        "included_in_blocks":
          [ "BLqCJGK4n33XFBD4xbaJQLQTiytJVGvAuCqbMSEPyc6cW9EfVyu" ] },
      { "delegate": "tz1eEnQhbwf6trb8Q8mPb2RaPkNk2rN7BKi8",
        "reception_time": "2022-01-15T00:58:26.677-00:00",
        "included_in_blocks":
          [ "BLqCJGK4n33XFBD4xbaJQLQTiytJVGvAuCqbMSEPyc6cW9EfVyu" ] },
      { "delegate": "tz1irJKkXS2DBWkU1NnmFQx1c1L7pbGg4yhk",
        "reception_time": "2022-01-15T00:58:26.677-00:00",
        "included_in_blocks":
          [ "BLqCJGK4n33XFBD4xbaJQLQTiytJVGvAuCqbMSEPyc6cW9EfVyu" ] },
      { "delegate": "tz3RB4aoyjov4KEVRbuhvQ1CKJgBJMWhaeB8",
        "reception_time": "2022-01-15T00:58:26.677-00:00",
        "included_in_blocks":
          [ "BLqCJGK4n33XFBD4xbaJQLQTiytJVGvAuCqbMSEPyc6cW9EfVyu" ] },
      { "delegate": "tz3hw2kqXhLUvY65ca1eety2oQTpAvd34R9Q",
        "reception_time": "2022-01-15T00:58:26.677-00:00" },
      { "delegate": "tz3QT9dHYKDqh563chVa6za8526ys1UKfRfL",
        "reception_time": "2022-01-15T00:58:26.677-00:00" },
      { "delegate": "tz3gtoUxdudfBRcNY7iVdKPHCYYX6xdPpoRS",
        "reception_time": "2022-01-15T00:58:26.677-00:00" },
      { "delegate": "tz1VmiY38m3y95HqQLjMwqnMS7sdMfGomzKi",
        "reception_time": "2022-01-15T00:58:26.677-00:00",
        "included_in_blocks":
          [ "BLqCJGK4n33XFBD4xbaJQLQTiytJVGvAuCqbMSEPyc6cW9EfVyu" ] },
      { "delegate": "tz3WMqdzXqRWXwyvj5Hp2H7QEepaUuS7vd9K",
        "reception_time": "2022-01-15T00:58:26.677-00:00",
        "included_in_blocks":
          [ "BLqCJGK4n33XFBD4xbaJQLQTiytJVGvAuCqbMSEPyc6cW9EfVyu" ] },
      { "delegate": "tz3ZbP2pM3nwvXztbuMJwJnDvV5xdpU8UkkD",
        "reception_time": "2022-01-15T00:58:26.677-00:00" },
      { "delegate": "tz1R4PuhxUxBBZhfLJDx2nNjbr7WorAPX1oC",
        "reception_time": "2022-01-15T00:58:26.677-00:00",
        "included_in_blocks":
          [ "BLqCJGK4n33XFBD4xbaJQLQTiytJVGvAuCqbMSEPyc6cW9EfVyu" ] },
      { "delegate": "tz1Scdr2HsZiQjc7bHMeBbmDRXYVvdhjJbBh",
        "reception_time": "2022-01-15T00:58:26.677-00:00",
        "included_in_blocks":
          [ "BLqCJGK4n33XFBD4xbaJQLQTiytJVGvAuCqbMSEPyc6cW9EfVyu" ] },
      { "delegate": "tz1fPKAtsYydh4f1wfWNfeNxWYu72TmM48fu",
        "reception_time": "2022-01-15T00:58:26.677-00:00",
        "included_in_blocks":
          [ "BLqCJGK4n33XFBD4xbaJQLQTiytJVGvAuCqbMSEPyc6cW9EfVyu" ] },
      { "delegate": "tz1LmaFsWRkjr7QMCx5PtV6xTUz3AmEpKQiF",
        "reception_time": "2022-01-15T00:58:26.677-00:00" },
      { "delegate": "tz1WCd2jm4uSt4vntk4vSuUWoZQGhLcDuR9q",
        "reception_time": "2022-01-15T00:58:26.677-00:00",
        "included_in_blocks":
          [ "BLqCJGK4n33XFBD4xbaJQLQTiytJVGvAuCqbMSEPyc6cW9EfVyu" ] },
      { "delegate": "tz1cSj7fTex3JPd1p1LN1fwek6AV1kH93Wwc",
        "reception_time": "2022-01-15T00:58:26.677-00:00",
        "included_in_blocks":
          [ "BLqCJGK4n33XFBD4xbaJQLQTiytJVGvAuCqbMSEPyc6cW9EfVyu" ] },
      { "delegate": "tz3adcvQaKXTCg12zbninqo3q8ptKKtDFTLv",
        "reception_time": "2022-01-15T00:58:26.677-00:00",
        "included_in_blocks":
          [ "BLqCJGK4n33XFBD4xbaJQLQTiytJVGvAuCqbMSEPyc6cW9EfVyu" ] },
      { "delegate": "tz1Ldzz6k1BHdhuKvAtMRX7h5kJSMHESMHLC",
        "reception_time": "2022-01-15T00:58:26.677-00:00",
        "included_in_blocks":
          [ "BLqCJGK4n33XFBD4xbaJQLQTiytJVGvAuCqbMSEPyc6cW9EfVyu" ] },
      { "delegate": "tz1eVaNx3gCmG1EsLjijkmgAxdLYVf6Bf5Sq",
        "reception_time": "2022-01-15T00:58:26.677-00:00",
        "included_in_blocks":
          [ "BLqCJGK4n33XFBD4xbaJQLQTiytJVGvAuCqbMSEPyc6cW9EfVyu" ] },
      { "delegate": "tz1PWCDnz783NNGGQjEFFsHtrcK5yBW4E2rm",
        "reception_time": "2022-01-15T00:58:26.677-00:00",
        "included_in_blocks":
          [ "BLqCJGK4n33XFBD4xbaJQLQTiytJVGvAuCqbMSEPyc6cW9EfVyu" ] },
      { "delegate": "tz1Kf25fX1VdmYGSEzwFy1wNmkbSEZ2V83sY",
        "reception_time": "2022-01-15T00:58:26.677-00:00",
        "included_in_blocks":
          [ "BLqCJGK4n33XFBD4xbaJQLQTiytJVGvAuCqbMSEPyc6cW9EfVyu" ] },
      { "delegate": "tz1gfArv665EUkSg2ojMBzcbfwuPxAvqPvjo",
        "reception_time": "2022-01-15T00:58:26.677-00:00",
        "included_in_blocks":
          [ "BLqCJGK4n33XFBD4xbaJQLQTiytJVGvAuCqbMSEPyc6cW9EfVyu" ] },
      { "delegate": "tz1S6H83gugqK4dR5Had9jWR9M1ZdAAVgU5e",
        "reception_time": "2022-01-15T00:58:26.677-00:00" },
      { "delegate": "tz1P2Po7YM526ughEsRbY4oR9zaUPDZjxFrb",
        "reception_time": "2022-01-15T00:58:26.677-00:00",
        "included_in_blocks":
          [ "BLqCJGK4n33XFBD4xbaJQLQTiytJVGvAuCqbMSEPyc6cW9EfVyu" ] },
      { "delegate": "tz1Lhf4J9Qxoe3DZ2nfe8FGDnvVj7oKjnMY6",
        "reception_time": "2022-01-15T00:58:26.677-00:00",
        "included_in_blocks":
          [ "BLqCJGK4n33XFBD4xbaJQLQTiytJVGvAuCqbMSEPyc6cW9EfVyu" ] },
      { "delegate": "tz1bsdrs36X5BTH83RHUBdUouKLJZK8d2oBa",
        "reception_time": "2022-01-15T00:58:26.677-00:00",
        "included_in_blocks":
          [ "BLqCJGK4n33XFBD4xbaJQLQTiytJVGvAuCqbMSEPyc6cW9EfVyu" ] },
      { "delegate": "tz1Tnjaxk6tbAeC2TmMApPh8UsrEVQvhHvx5",
        "reception_time": "2022-01-15T00:58:26.677-00:00",
        "included_in_blocks":
          [ "BLqCJGK4n33XFBD4xbaJQLQTiytJVGvAuCqbMSEPyc6cW9EfVyu" ] },
      { "delegate": "tz1Vd1rXpV8hTHbFXCXN3c3qzCsgcU5BZw1e",
        "reception_time": "2022-01-15T00:58:26.677-00:00" },
      { "delegate": "tz1VQnqCCqX4K5sP3FNkVSNKTdCAMJDd3E1n",
        "reception_time": "2022-01-15T00:58:26.677-00:00",
        "included_in_blocks":
          [ "BLqCJGK4n33XFBD4xbaJQLQTiytJVGvAuCqbMSEPyc6cW9EfVyu" ] },
      { "delegate": "tz3QCNyySViKHmeSr45kzDxzchys7NiXCWoa",
        "reception_time": "2022-01-15T00:58:26.677-00:00",
        "included_in_blocks":
          [ "BLqCJGK4n33XFBD4xbaJQLQTiytJVGvAuCqbMSEPyc6cW9EfVyu" ] },
      { "delegate": "tz1eCzNtidHvVgeRzQ38C81FPcYnxMsCEL6Z",
        "reception_time": "2022-01-15T00:58:26.677-00:00",
        "included_in_blocks":
          [ "BLqCJGK4n33XFBD4xbaJQLQTiytJVGvAuCqbMSEPyc6cW9EfVyu" ] },
      { "delegate": "tz1cYufsxHXJcvANhvS55h3aY32a9BAFB494",
        "reception_time": "2022-01-15T00:58:26.677-00:00" },
      { "delegate": "tz3NDpRj6WBrJPikcPVHRBEjWKxFw3c6eQPS",
        "reception_time": "2022-01-15T00:58:26.677-00:00",
        "included_in_blocks":
          [ "BLqCJGK4n33XFBD4xbaJQLQTiytJVGvAuCqbMSEPyc6cW9EfVyu" ] },
      { "delegate": "tz1MH387oMRFco3kzz8t3wuqdbpAyTcKZtsg",
        "reception_time": "2022-01-15T00:58:26.677-00:00",
        "included_in_blocks":
          [ "BLqCJGK4n33XFBD4xbaJQLQTiytJVGvAuCqbMSEPyc6cW9EfVyu" ] },
      { "delegate": "tz1ei4WtWEMEJekSv8qDnu9PExG6Q8HgRGr3",
        "reception_time": "2022-01-15T00:58:26.677-00:00",
        "included_in_blocks":
          [ "BLqCJGK4n33XFBD4xbaJQLQTiytJVGvAuCqbMSEPyc6cW9EfVyu" ] },
      { "delegate": "tz3RKYFsLuQzKBtmYuLNas7uMu3AsYd4QdsA",
        "reception_time": "2022-01-15T00:58:26.677-00:00" },
      { "delegate": "tz1Nf6tsK4G6bBqgSQERy4nUtkHNKUVdh7q1",
        "reception_time": "2022-01-15T00:58:26.677-00:00",
        "included_in_blocks":
          [ "BLqCJGK4n33XFBD4xbaJQLQTiytJVGvAuCqbMSEPyc6cW9EfVyu" ] },
      { "delegate": "tz3RDC3Jdn4j15J7bBHZd29EUee9gVB1CxD9",
        "reception_time": "2022-01-15T00:58:26.677-00:00",
        "included_in_blocks":
          [ "BLqCJGK4n33XFBD4xbaJQLQTiytJVGvAuCqbMSEPyc6cW9EfVyu" ] },
      { "delegate": "tz1RjoHc98dBoqaH2jawF62XNKh7YsHwbkEv",
        "reception_time": "2022-01-15T00:58:26.677-00:00" },
      { "delegate": "tz1dRKU4FQ9QRRQPdaH4zCR6gmCmXfcvcgtB",
        "reception_time": "2022-01-15T00:58:26.677-00:00",
        "included_in_blocks":
          [ "BLqCJGK4n33XFBD4xbaJQLQTiytJVGvAuCqbMSEPyc6cW9EfVyu" ] },
      { "delegate": "tz1MQJPGNMijnXnVoBENFz9rUhaPt3S7rWoz",
        "reception_time": "2022-01-15T00:58:26.677-00:00",
        "included_in_blocks":
          [ "BLqCJGK4n33XFBD4xbaJQLQTiytJVGvAuCqbMSEPyc6cW9EfVyu" ] },
      { "delegate": "tz3bTdwZinP8U1JmSweNzVKhmwafqWmFWRfk",
        "reception_time": "2022-01-15T00:58:26.677-00:00",
        "included_in_blocks":
          [ "BLqCJGK4n33XFBD4xbaJQLQTiytJVGvAuCqbMSEPyc6cW9EfVyu" ] },
      { "delegate": "tz1ajgycuHmd2z2JbTSJxKv7x6cok2KuNSk1",
        "reception_time": "2022-01-15T00:58:26.677-00:00",
        "included_in_blocks":
          [ "BLqCJGK4n33XFBD4xbaJQLQTiytJVGvAuCqbMSEPyc6cW9EfVyu" ] },
      { "delegate": "tz1TzaNn7wSQSP5gYPXCnNzBCpyMiidCq1PX",
        "reception_time": "2022-01-15T00:58:26.677-00:00",
        "included_in_blocks":
          [ "BLqCJGK4n33XFBD4xbaJQLQTiytJVGvAuCqbMSEPyc6cW9EfVyu" ] },
      { "delegate": "tz3VEZ4k6a4Wx42iyev6i2aVAptTRLEAivNN",
        "reception_time": "2022-01-15T00:58:26.677-00:00",
        "included_in_blocks":
          [ "BLqCJGK4n33XFBD4xbaJQLQTiytJVGvAuCqbMSEPyc6cW9EfVyu" ] },
      { "delegate": "tz1hAYfexyzPGG6RhZZMpDvAHifubsbb6kgn" },
      { "delegate": "tz1fUyqYH7H4pRHN1roWY17giXhy1RvxjgUV" },
      { "delegate": "tz1dbfppLAAxXZNtf2SDps7rch3qfUznKSoK" },
      { "delegate": "tz1bTpviNnyx2PXsNmGpCQTMQsGoYordkUoA" },
      { "delegate": "tz1WctSwL49BZtdWAQ75NY6vr4xsAx6oKdah" },
      { "delegate": "tz1TcH4Nb3aHNDJ7CGZhU7jgAK1BkSP4Lxds" },
      { "delegate": "tz1SYq214SCBy9naR6cvycQsYcUGpBqQAE8d" },
      { "delegate": "tz1S8MNvuFEUsWgjHvi3AxibRBf388NhT1q2" },
      { "delegate": "tz1NpWrAyDL9k2Lmnyxcgr9xuJakbBxdq7FB" },
      { "delegate": "tz1MJx9vhaNRSimcuXPK2rW4fLccQnDAnVKJ" } ] }