{ "blocks":
    [ { "hash": "BMFc6QZrQaB1CYjPZG1hYAuD754QLETSwbiPZoLyTKcmxvhgQe5",
        "delegate": "tz1S8MNvuFEUsWgjHvi3AxibRBf388NhT1q2",
        "reception_time": "2022-01-15T03:10:16.422-00:00",
        "timestamp": "2022-01-15T03:10:10Z" } ],
  "endorsements":
    [ { "delegate": "tz1TRspM5SeZpaQUhzByXbEvqKF1vnCM2YTK" },
      { "delegate": "tz1VQnqCCqX4K5sP3FNkVSNKTdCAMJDd3E1n",
        "reception_time": "2022-01-15T03:10:16.237-00:00",
        "errors":
          [ { "kind": "temporary",
              "id": "proto.011-PtHangz2.prefilter.outdated_endorsement" } ],
        "included_in_blocks":
          [ "BMZmCJQGxfhaY44rL3fYvdYghAqnVoPo7swJPDDcjdm3rU2ehu1" ] },
      { "delegate": "tz1beersuEDv8Z7ngQ825xfbaJNS2EhXnyHR",
        "reception_time": "2022-01-15T03:10:16.204-00:00",
        "errors":
          [ { "kind": "temporary",
              "id": "proto.011-PtHangz2.prefilter.outdated_endorsement" } ],
        "included_in_blocks":
          [ "BMZmCJQGxfhaY44rL3fYvdYghAqnVoPo7swJPDDcjdm3rU2ehu1" ] },
      { "delegate": "tz1STeamwbp68THcny9zk3LsbG3H36DMvbRK",
        "reception_time": "2022-01-15T03:10:16.186-00:00",
        "errors":
          [ { "kind": "temporary",
              "id": "proto.011-PtHangz2.prefilter.outdated_endorsement" } ],
        "included_in_blocks":
          [ "BMZmCJQGxfhaY44rL3fYvdYghAqnVoPo7swJPDDcjdm3rU2ehu1" ] },
      { "delegate": "tz1Scdr2HsZiQjc7bHMeBbmDRXYVvdhjJbBh",
        "reception_time": "2022-01-15T03:10:15.987-00:00",
        "errors":
          [ { "kind": "temporary",
              "id": "proto.011-PtHangz2.prefilter.outdated_endorsement" } ],
        "included_in_blocks":
          [ "BMZmCJQGxfhaY44rL3fYvdYghAqnVoPo7swJPDDcjdm3rU2ehu1" ] },
      { "delegate": "tz1Lhf4J9Qxoe3DZ2nfe8FGDnvVj7oKjnMY6",
        "reception_time": "2022-01-15T03:10:15.847-00:00",
        "errors":
          [ { "kind": "temporary",
              "id": "proto.011-PtHangz2.prefilter.outdated_endorsement" } ],
        "included_in_blocks":
          [ "BMZmCJQGxfhaY44rL3fYvdYghAqnVoPo7swJPDDcjdm3rU2ehu1" ] },
      { "delegate": "tz1P2Po7YM526ughEsRbY4oR9zaUPDZjxFrb",
        "reception_time": "2022-01-15T03:10:15.833-00:00",
        "errors":
          [ { "kind": "temporary",
              "id": "proto.011-PtHangz2.prefilter.outdated_endorsement" } ],
        "included_in_blocks":
          [ "BMZmCJQGxfhaY44rL3fYvdYghAqnVoPo7swJPDDcjdm3rU2ehu1" ] },
      { "delegate": "tz1XfAjZyaLdceHnZxbMYop7g7kWKPut4PR7",
        "reception_time": "2022-01-15T03:10:15.735-00:00",
        "errors":
          [ { "kind": "temporary",
              "id": "proto.011-PtHangz2.prefilter.outdated_endorsement" } ],
        "included_in_blocks":
          [ "BMZmCJQGxfhaY44rL3fYvdYghAqnVoPo7swJPDDcjdm3rU2ehu1" ] },
      { "delegate": "tz1TRqbYbUf2GyrjErf3hBzgBJPzW8y36qEs",
        "reception_time": "2022-01-15T03:10:30.988-00:00",
        "included_in_blocks":
          [ "BMZmCJQGxfhaY44rL3fYvdYghAqnVoPo7swJPDDcjdm3rU2ehu1" ] },
      { "delegate": "tz1TcH4Nb3aHNDJ7CGZhU7jgAK1BkSP4Lxds",
        "reception_time": "2022-01-15T03:10:25.976-00:00",
        "included_in_blocks":
          [ "BMZmCJQGxfhaY44rL3fYvdYghAqnVoPo7swJPDDcjdm3rU2ehu1" ] },
      { "delegate": "tz1SYq214SCBy9naR6cvycQsYcUGpBqQAE8d",
        "reception_time": "2022-01-15T03:10:24.731-00:00",
        "included_in_blocks":
          [ "BMZmCJQGxfhaY44rL3fYvdYghAqnVoPo7swJPDDcjdm3rU2ehu1" ] },
      { "delegate": "tz1hA2m6dTgvtgZPXmP6MEauqiYWpD3KXaRy",
        "reception_time": "2022-01-15T03:10:20.609-00:00",
        "included_in_blocks":
          [ "BMZmCJQGxfhaY44rL3fYvdYghAqnVoPo7swJPDDcjdm3rU2ehu1" ] },
      { "delegate": "tz1eVaNx3gCmG1EsLjijkmgAxdLYVf6Bf5Sq",
        "reception_time": "2022-01-15T03:10:20.769-00:00",
        "included_in_blocks":
          [ "BMZmCJQGxfhaY44rL3fYvdYghAqnVoPo7swJPDDcjdm3rU2ehu1" ] },
      { "delegate": "tz1cYufsxHXJcvANhvS55h3aY32a9BAFB494",
        "reception_time": "2022-01-15T03:10:20.509-00:00",
        "included_in_blocks":
          [ "BMZmCJQGxfhaY44rL3fYvdYghAqnVoPo7swJPDDcjdm3rU2ehu1" ] },
      { "delegate": "tz1awXW7wuXy21c66vBudMXQVAPgRnqqwgTH",
        "reception_time": "2022-01-15T03:10:19.777-00:00",
        "included_in_blocks":
          [ "BMZmCJQGxfhaY44rL3fYvdYghAqnVoPo7swJPDDcjdm3rU2ehu1" ] },
      { "delegate": "tz1dRKU4FQ9QRRQPdaH4zCR6gmCmXfcvcgtB",
        "reception_time": "2022-01-15T03:10:19.285-00:00",
        "included_in_blocks":
          [ "BMZmCJQGxfhaY44rL3fYvdYghAqnVoPo7swJPDDcjdm3rU2ehu1" ] },
      { "delegate": "tz1dNVDWPf3Q59SdJqnjdnu277iyvReiRS9M",
        "reception_time": "2022-01-15T03:10:19.130-00:00",
        "included_in_blocks":
          [ "BMZmCJQGxfhaY44rL3fYvdYghAqnVoPo7swJPDDcjdm3rU2ehu1" ] },
      { "delegate": "tz3bvNMQ95vfAYtG8193ymshqjSvmxiCUuR5",
        "reception_time": "2022-01-15T03:10:18.756-00:00",
        "included_in_blocks":
          [ "BMZmCJQGxfhaY44rL3fYvdYghAqnVoPo7swJPDDcjdm3rU2ehu1" ] },
      { "delegate": "tz1PeZx7FXy7QRuMREGXGxeipb24RsMMzUNe",
        "reception_time": "2022-01-15T03:10:18.731-00:00",
        "included_in_blocks":
          [ "BMZmCJQGxfhaY44rL3fYvdYghAqnVoPo7swJPDDcjdm3rU2ehu1" ] },
      { "delegate": "tz1aRoaRhSpRYvFdyvgWLL6TGyRoGF51wDjM",
        "reception_time": "2022-01-15T03:10:18.709-00:00",
        "included_in_blocks":
          [ "BMZmCJQGxfhaY44rL3fYvdYghAqnVoPo7swJPDDcjdm3rU2ehu1" ] },
      { "delegate": "tz1Nf6tsK4G6bBqgSQERy4nUtkHNKUVdh7q1",
        "reception_time": "2022-01-15T03:10:18.493-00:00",
        "included_in_blocks":
          [ "BMZmCJQGxfhaY44rL3fYvdYghAqnVoPo7swJPDDcjdm3rU2ehu1" ] },
      { "delegate": "tz2FCNBrERXtaTtNX6iimR1UJ5JSDxvdHM93",
        "reception_time": "2022-01-15T03:10:18.578-00:00",
        "included_in_blocks":
          [ "BMZmCJQGxfhaY44rL3fYvdYghAqnVoPo7swJPDDcjdm3rU2ehu1" ] },
      { "delegate": "tz1MQMiZHV8q4tTwUMWmS5Y3kaP6J2136iXr",
        "reception_time": "2022-01-15T03:10:18.838-00:00",
        "included_in_blocks":
          [ "BMZmCJQGxfhaY44rL3fYvdYghAqnVoPo7swJPDDcjdm3rU2ehu1" ] },
      { "delegate": "tz1RjoHc98dBoqaH2jawF62XNKh7YsHwbkEv",
        "reception_time": "2022-01-15T03:10:18.719-00:00",
        "included_in_blocks":
          [ "BMZmCJQGxfhaY44rL3fYvdYghAqnVoPo7swJPDDcjdm3rU2ehu1" ] },
      { "delegate": "tz3NDpRj6WBrJPikcPVHRBEjWKxFw3c6eQPS",
        "reception_time": "2022-01-15T03:10:18.447-00:00",
        "included_in_blocks":
          [ "BMZmCJQGxfhaY44rL3fYvdYghAqnVoPo7swJPDDcjdm3rU2ehu1" ] },
      { "delegate": "tz1SohptP53wDPZhzTWzDUFAUcWF6DMBpaJV",
        "reception_time": "2022-01-15T03:10:18.864-00:00",
        "included_in_blocks":
          [ "BMZmCJQGxfhaY44rL3fYvdYghAqnVoPo7swJPDDcjdm3rU2ehu1" ] },
      { "delegate": "tz1T7duV5gZWSTq4YpBGbXNLTfznCLDrFxvs",
        "reception_time": "2022-01-15T03:10:18.799-00:00",
        "included_in_blocks":
          [ "BMZmCJQGxfhaY44rL3fYvdYghAqnVoPo7swJPDDcjdm3rU2ehu1" ] },
      { "delegate": "tz3NExpXn9aPNZPorRE4SdjJ2RGrfbJgMAaV",
        "reception_time": "2022-01-15T03:10:18.560-00:00",
        "included_in_blocks":
          [ "BMZmCJQGxfhaY44rL3fYvdYghAqnVoPo7swJPDDcjdm3rU2ehu1" ] },
      { "delegate": "tz1NEKxGEHsFufk87CVZcrqWu8o22qh46GK6",
        "reception_time": "2022-01-15T03:10:18.090-00:00",
        "included_in_blocks":
          [ "BMZmCJQGxfhaY44rL3fYvdYghAqnVoPo7swJPDDcjdm3rU2ehu1" ] },
      { "delegate": "tz3VEZ4k6a4Wx42iyev6i2aVAptTRLEAivNN",
        "reception_time": "2022-01-15T03:10:17.944-00:00",
        "included_in_blocks":
          [ "BMZmCJQGxfhaY44rL3fYvdYghAqnVoPo7swJPDDcjdm3rU2ehu1" ] },
      { "delegate": "tz1RQhNh7iB9CZA7i3ifTWNwiGYVffponfbB",
        "reception_time": "2022-01-15T03:10:17.976-00:00",
        "included_in_blocks":
          [ "BMZmCJQGxfhaY44rL3fYvdYghAqnVoPo7swJPDDcjdm3rU2ehu1" ] },
      { "delegate": "tz3WMqdzXqRWXwyvj5Hp2H7QEepaUuS7vd9K",
        "reception_time": "2022-01-15T03:10:18.075-00:00",
        "included_in_blocks":
          [ "BMZmCJQGxfhaY44rL3fYvdYghAqnVoPo7swJPDDcjdm3rU2ehu1" ] },
      { "delegate": "tz3QCNyySViKHmeSr45kzDxzchys7NiXCWoa",
        "reception_time": "2022-01-15T03:10:17.892-00:00",
        "included_in_blocks":
          [ "BMZmCJQGxfhaY44rL3fYvdYghAqnVoPo7swJPDDcjdm3rU2ehu1" ] },
      { "delegate": "tz3RDC3Jdn4j15J7bBHZd29EUee9gVB1CxD9",
        "reception_time": "2022-01-15T03:10:17.960-00:00",
        "included_in_blocks":
          [ "BMZmCJQGxfhaY44rL3fYvdYghAqnVoPo7swJPDDcjdm3rU2ehu1" ] },
      { "delegate": "tz1dwu9aYb7CRNq4Y2zAjipdjFuSVKhHS8vA",
        "reception_time": "2022-01-15T03:10:17.603-00:00",
        "included_in_blocks":
          [ "BMZmCJQGxfhaY44rL3fYvdYghAqnVoPo7swJPDDcjdm3rU2ehu1" ] },
      { "delegate": "tz3bTdwZinP8U1JmSweNzVKhmwafqWmFWRfk",
        "reception_time": "2022-01-15T03:10:17.735-00:00",
        "included_in_blocks":
          [ "BMZmCJQGxfhaY44rL3fYvdYghAqnVoPo7swJPDDcjdm3rU2ehu1" ] },
      { "delegate": "tz1WBfwbT66FC6BTLexc2BoyCCBM9LG7pnVW",
        "reception_time": "2022-01-15T03:10:18.134-00:00",
        "included_in_blocks":
          [ "BMZmCJQGxfhaY44rL3fYvdYghAqnVoPo7swJPDDcjdm3rU2ehu1" ] },
      { "delegate": "tz1abmz7jiCV2GH2u81LRrGgAFFgvQgiDiaf",
        "reception_time": "2022-01-15T03:10:17.752-00:00",
        "included_in_blocks":
          [ "BMZmCJQGxfhaY44rL3fYvdYghAqnVoPo7swJPDDcjdm3rU2ehu1" ] },
      { "delegate": "tz1eEnQhbwf6trb8Q8mPb2RaPkNk2rN7BKi8",
        "reception_time": "2022-01-15T03:10:17.323-00:00",
        "included_in_blocks":
          [ "BMZmCJQGxfhaY44rL3fYvdYghAqnVoPo7swJPDDcjdm3rU2ehu1" ] },
      { "delegate": "tz1fb7c66UwePkkfDXz4ajFaBP9hVNLdS7JJ",
        "reception_time": "2022-01-15T03:10:17.410-00:00",
        "included_in_blocks":
          [ "BMZmCJQGxfhaY44rL3fYvdYghAqnVoPo7swJPDDcjdm3rU2ehu1" ] },
      { "delegate": "tz3RB4aoyjov4KEVRbuhvQ1CKJgBJMWhaeB8",
        "reception_time": "2022-01-15T03:10:17.376-00:00",
        "included_in_blocks":
          [ "BMZmCJQGxfhaY44rL3fYvdYghAqnVoPo7swJPDDcjdm3rU2ehu1" ] },
      { "delegate": "tz1PWCDnz783NNGGQjEFFsHtrcK5yBW4E2rm",
        "reception_time": "2022-01-15T03:10:17.522-00:00",
        "included_in_blocks":
          [ "BMZmCJQGxfhaY44rL3fYvdYghAqnVoPo7swJPDDcjdm3rU2ehu1" ] },
      { "delegate": "tz1d6Fx42mYgVFnHUW8T8A7WBfJ6nD9pVok8",
        "reception_time": "2022-01-15T03:10:17.299-00:00",
        "included_in_blocks":
          [ "BMZmCJQGxfhaY44rL3fYvdYghAqnVoPo7swJPDDcjdm3rU2ehu1" ] },
      { "delegate": "tz1KzSC1J9aBxKp7u8TUnpN8L7S65PBRkgdF",
        "reception_time": "2022-01-15T03:10:17.296-00:00",
        "included_in_blocks":
          [ "BMZmCJQGxfhaY44rL3fYvdYghAqnVoPo7swJPDDcjdm3rU2ehu1" ] },
      { "delegate": "tz1TzaNn7wSQSP5gYPXCnNzBCpyMiidCq1PX",
        "reception_time": "2022-01-15T03:10:17.298-00:00",
        "included_in_blocks":
          [ "BMZmCJQGxfhaY44rL3fYvdYghAqnVoPo7swJPDDcjdm3rU2ehu1" ] },
      { "delegate": "tz1ei4WtWEMEJekSv8qDnu9PExG6Q8HgRGr3",
        "reception_time": "2022-01-15T03:10:17.348-00:00",
        "included_in_blocks":
          [ "BMZmCJQGxfhaY44rL3fYvdYghAqnVoPo7swJPDDcjdm3rU2ehu1" ] },
      { "delegate": "tz1LmaFsWRkjr7QMCx5PtV6xTUz3AmEpKQiF",
        "reception_time": "2022-01-15T03:10:17.386-00:00",
        "included_in_blocks":
          [ "BMZmCJQGxfhaY44rL3fYvdYghAqnVoPo7swJPDDcjdm3rU2ehu1" ] },
      { "delegate": "tz1WCd2jm4uSt4vntk4vSuUWoZQGhLcDuR9q",
        "reception_time": "2022-01-15T03:10:17.229-00:00",
        "included_in_blocks":
          [ "BMZmCJQGxfhaY44rL3fYvdYghAqnVoPo7swJPDDcjdm3rU2ehu1" ] },
      { "delegate": "tz3iJu5vrKZcsqRPs8yJ61UDoeEXZmtro4qh",
        "reception_time": "2022-01-15T03:10:17.237-00:00",
        "included_in_blocks":
          [ "BMZmCJQGxfhaY44rL3fYvdYghAqnVoPo7swJPDDcjdm3rU2ehu1" ] },
      { "delegate": "tz3QSGPoRp3Kn7n3vY24eYeu3Peuqo45LQ4D",
        "reception_time": "2022-01-15T03:10:17.245-00:00",
        "included_in_blocks":
          [ "BMZmCJQGxfhaY44rL3fYvdYghAqnVoPo7swJPDDcjdm3rU2ehu1" ] },
      { "delegate": "tz1V4qCyvPKZ5UeqdH14HN42rxvNPQfc9UZg",
        "reception_time": "2022-01-15T03:10:17.683-00:00",
        "included_in_blocks":
          [ "BMZmCJQGxfhaY44rL3fYvdYghAqnVoPo7swJPDDcjdm3rU2ehu1" ] },
      { "delegate": "tz1RCFbB9GpALpsZtu6J58sb74dm8qe6XBzv",
        "reception_time": "2022-01-15T03:10:17.354-00:00",
        "included_in_blocks":
          [ "BMZmCJQGxfhaY44rL3fYvdYghAqnVoPo7swJPDDcjdm3rU2ehu1" ] },
      { "delegate": "tz3gtoUxdudfBRcNY7iVdKPHCYYX6xdPpoRS",
        "reception_time": "2022-01-15T03:10:17.209-00:00",
        "included_in_blocks":
          [ "BMZmCJQGxfhaY44rL3fYvdYghAqnVoPo7swJPDDcjdm3rU2ehu1" ] },
      { "delegate": "tz3Zhs2dygr55yHyQyKjntAtY9bgfhLZ4Xj1",
        "reception_time": "2022-01-15T03:10:17.270-00:00",
        "included_in_blocks":
          [ "BMZmCJQGxfhaY44rL3fYvdYghAqnVoPo7swJPDDcjdm3rU2ehu1" ] },
      { "delegate": "tz3ZbP2pM3nwvXztbuMJwJnDvV5xdpU8UkkD",
        "reception_time": "2022-01-15T03:10:17.282-00:00",
        "included_in_blocks":
          [ "BMZmCJQGxfhaY44rL3fYvdYghAqnVoPo7swJPDDcjdm3rU2ehu1" ] },
      { "delegate": "tz3S6BBeKgJGXxvLyZ1xzXzMPn11nnFtq5L9",
        "reception_time": "2022-01-15T03:10:17.257-00:00",
        "included_in_blocks":
          [ "BMZmCJQGxfhaY44rL3fYvdYghAqnVoPo7swJPDDcjdm3rU2ehu1" ] },
      { "delegate": "tz3NxTnke1acr8o3h5y9ytf5awQBGNJUKzVU",
        "reception_time": "2022-01-15T03:10:17.263-00:00",
        "included_in_blocks":
          [ "BMZmCJQGxfhaY44rL3fYvdYghAqnVoPo7swJPDDcjdm3rU2ehu1" ] },
      { "delegate": "tz3QT9dHYKDqh563chVa6za8526ys1UKfRfL",
        "reception_time": "2022-01-15T03:10:17.257-00:00",
        "included_in_blocks":
          [ "BMZmCJQGxfhaY44rL3fYvdYghAqnVoPo7swJPDDcjdm3rU2ehu1" ] },
      { "delegate": "tz3hw2kqXhLUvY65ca1eety2oQTpAvd34R9Q",
        "reception_time": "2022-01-15T03:10:17.215-00:00",
        "included_in_blocks":
          [ "BMZmCJQGxfhaY44rL3fYvdYghAqnVoPo7swJPDDcjdm3rU2ehu1" ] },
      { "delegate": "tz3RKYFsLuQzKBtmYuLNas7uMu3AsYd4QdsA",
        "reception_time": "2022-01-15T03:10:17.282-00:00",
        "included_in_blocks":
          [ "BMZmCJQGxfhaY44rL3fYvdYghAqnVoPo7swJPDDcjdm3rU2ehu1" ] },
      { "delegate": "tz1Ldzz6k1BHdhuKvAtMRX7h5kJSMHESMHLC",
        "reception_time": "2022-01-15T03:10:17.245-00:00",
        "included_in_blocks":
          [ "BMZmCJQGxfhaY44rL3fYvdYghAqnVoPo7swJPDDcjdm3rU2ehu1" ] },
      { "delegate": "tz1VmiY38m3y95HqQLjMwqnMS7sdMfGomzKi",
        "reception_time": "2022-01-15T03:10:17.229-00:00",
        "included_in_blocks":
          [ "BMZmCJQGxfhaY44rL3fYvdYghAqnVoPo7swJPDDcjdm3rU2ehu1" ] },
      { "delegate": "tz1iMAHAVpkCVegF9FLGWUpQQeiAHh4ffdLQ",
        "reception_time": "2022-01-15T03:10:17.114-00:00",
        "included_in_blocks":
          [ "BMZmCJQGxfhaY44rL3fYvdYghAqnVoPo7swJPDDcjdm3rU2ehu1" ] },
      { "delegate": "tz1gfArv665EUkSg2ojMBzcbfwuPxAvqPvjo",
        "reception_time": "2022-01-15T03:10:17.203-00:00",
        "included_in_blocks":
          [ "BMZmCJQGxfhaY44rL3fYvdYghAqnVoPo7swJPDDcjdm3rU2ehu1" ] },
      { "delegate": "tz1bsdrs36X5BTH83RHUBdUouKLJZK8d2oBa",
        "reception_time": "2022-01-15T03:10:17.237-00:00",
        "included_in_blocks":
          [ "BMZmCJQGxfhaY44rL3fYvdYghAqnVoPo7swJPDDcjdm3rU2ehu1" ] },
      { "delegate": "tz1irJKkXS2DBWkU1NnmFQx1c1L7pbGg4yhk",
        "reception_time": "2022-01-15T03:10:17.118-00:00",
        "included_in_blocks":
          [ "BMZmCJQGxfhaY44rL3fYvdYghAqnVoPo7swJPDDcjdm3rU2ehu1" ] },
      { "delegate": "tz1S8MNvuFEUsWgjHvi3AxibRBf388NhT1q2",
        "reception_time": "2022-01-15T03:10:17.121-00:00",
        "included_in_blocks":
          [ "BMZmCJQGxfhaY44rL3fYvdYghAqnVoPo7swJPDDcjdm3rU2ehu1" ] },
      { "delegate": "tz1Kt4P8BCaP93AEV4eA7gmpRryWt5hznjCP",
        "reception_time": "2022-01-15T03:10:16.853-00:00",
        "included_in_blocks":
          [ "BMZmCJQGxfhaY44rL3fYvdYghAqnVoPo7swJPDDcjdm3rU2ehu1" ] } ] }