{ "blocks":
    [ { "hash": "BLJkoGELW1kGGhr37LC6oKNAxi9MCCTxymUwq7ovupDx62jk7N9",
        "delegate": "tz1aRoaRhSpRYvFdyvgWLL6TGyRoGF51wDjM",
        "reception_time": "2022-01-15T02:34:23.385-00:00",
        "timestamp": "2022-01-15T02:34:10Z" } ],
  "endorsements":
    [ { "delegate": "tz1S8e9GgdZG78XJRB3NqabfWeM37GnhZMWQ",
        "reception_time": "2022-01-15T02:34:23.120-00:00",
        "errors":
          [ { "kind": "temporary",
              "id": "proto.011-PtHangz2.prefilter.outdated_endorsement" } ],
        "included_in_blocks":
          [ "BLjgP2GCKoQfk3MNM4DAVzmLhEu5TGGrkfqQk2ty5cGs3So4mwq" ] },
      { "delegate": "tz1MJx9vhaNRSimcuXPK2rW4fLccQnDAnVKJ" },
      { "delegate": "tz1eEnQhbwf6trb8Q8mPb2RaPkNk2rN7BKi8",
        "reception_time": "2022-01-15T02:34:24.361-00:00",
        "included_in_blocks":
          [ "BLjgP2GCKoQfk3MNM4DAVzmLhEu5TGGrkfqQk2ty5cGs3So4mwq" ] },
      { "delegate": "tz1P2Po7YM526ughEsRbY4oR9zaUPDZjxFrb",
        "reception_time": "2022-01-15T02:34:24.376-00:00",
        "included_in_blocks":
          [ "BLjgP2GCKoQfk3MNM4DAVzmLhEu5TGGrkfqQk2ty5cGs3So4mwq" ] },
      { "delegate": "tz1Scdr2HsZiQjc7bHMeBbmDRXYVvdhjJbBh",
        "reception_time": "2022-01-15T02:34:24.379-00:00",
        "included_in_blocks":
          [ "BLjgP2GCKoQfk3MNM4DAVzmLhEu5TGGrkfqQk2ty5cGs3So4mwq" ] },
      { "delegate": "tz1Lhf4J9Qxoe3DZ2nfe8FGDnvVj7oKjnMY6",
        "reception_time": "2022-01-15T02:34:24.381-00:00",
        "included_in_blocks":
          [ "BLjgP2GCKoQfk3MNM4DAVzmLhEu5TGGrkfqQk2ty5cGs3So4mwq" ] },
      { "delegate": "tz1XfAjZyaLdceHnZxbMYop7g7kWKPut4PR7",
        "reception_time": "2022-01-15T02:34:24.385-00:00",
        "included_in_blocks":
          [ "BLjgP2GCKoQfk3MNM4DAVzmLhEu5TGGrkfqQk2ty5cGs3So4mwq" ] },
      { "delegate": "tz3ZbP2pM3nwvXztbuMJwJnDvV5xdpU8UkkD",
        "reception_time": "2022-01-15T02:34:24.391-00:00",
        "included_in_blocks":
          [ "BLjgP2GCKoQfk3MNM4DAVzmLhEu5TGGrkfqQk2ty5cGs3So4mwq" ] },
      { "delegate": "tz1VQnqCCqX4K5sP3FNkVSNKTdCAMJDd3E1n",
        "reception_time": "2022-01-15T02:34:24.395-00:00",
        "included_in_blocks":
          [ "BLjgP2GCKoQfk3MNM4DAVzmLhEu5TGGrkfqQk2ty5cGs3So4mwq" ] },
      { "delegate": "tz1Ldzz6k1BHdhuKvAtMRX7h5kJSMHESMHLC",
        "reception_time": "2022-01-15T02:34:24.395-00:00",
        "included_in_blocks":
          [ "BLjgP2GCKoQfk3MNM4DAVzmLhEu5TGGrkfqQk2ty5cGs3So4mwq" ] },
      { "delegate": "tz1irJKkXS2DBWkU1NnmFQx1c1L7pbGg4yhk",
        "reception_time": "2022-01-15T02:34:24.403-00:00",
        "included_in_blocks":
          [ "BLjgP2GCKoQfk3MNM4DAVzmLhEu5TGGrkfqQk2ty5cGs3So4mwq" ] },
      { "delegate": "tz3NxTnke1acr8o3h5y9ytf5awQBGNJUKzVU",
        "reception_time": "2022-01-15T02:34:24.403-00:00",
        "included_in_blocks":
          [ "BLjgP2GCKoQfk3MNM4DAVzmLhEu5TGGrkfqQk2ty5cGs3So4mwq" ] },
      { "delegate": "tz1gUNyn3hmnEWqkusWPzxRaon1cs7ndWh7h",
        "reception_time": "2022-01-15T02:34:24.406-00:00",
        "included_in_blocks":
          [ "BLjgP2GCKoQfk3MNM4DAVzmLhEu5TGGrkfqQk2ty5cGs3So4mwq" ] },
      { "delegate": "tz1aXD7Jigrt3PBYSpHSg5Rr33SexMmmM5Ys",
        "reception_time": "2022-01-15T02:34:24.409-00:00",
        "included_in_blocks":
          [ "BLjgP2GCKoQfk3MNM4DAVzmLhEu5TGGrkfqQk2ty5cGs3So4mwq" ] },
      { "delegate": "tz1VmiY38m3y95HqQLjMwqnMS7sdMfGomzKi",
        "reception_time": "2022-01-15T02:34:24.414-00:00",
        "included_in_blocks":
          [ "BLjgP2GCKoQfk3MNM4DAVzmLhEu5TGGrkfqQk2ty5cGs3So4mwq" ] },
      { "delegate": "tz1iPHM2Xx2hwmzcr1EG1zzrV6oKafVoA91m",
        "reception_time": "2022-01-15T02:34:24.503-00:00",
        "included_in_blocks":
          [ "BLjgP2GCKoQfk3MNM4DAVzmLhEu5TGGrkfqQk2ty5cGs3So4mwq" ] },
      { "delegate": "tz3adcvQaKXTCg12zbninqo3q8ptKKtDFTLv",
        "reception_time": "2022-01-15T02:34:24.530-00:00",
        "included_in_blocks":
          [ "BLjgP2GCKoQfk3MNM4DAVzmLhEu5TGGrkfqQk2ty5cGs3So4mwq" ] },
      { "delegate": "tz1d6Fx42mYgVFnHUW8T8A7WBfJ6nD9pVok8",
        "reception_time": "2022-01-15T02:34:24.547-00:00",
        "included_in_blocks":
          [ "BLjgP2GCKoQfk3MNM4DAVzmLhEu5TGGrkfqQk2ty5cGs3So4mwq" ] },
      { "delegate": "tz1WCd2jm4uSt4vntk4vSuUWoZQGhLcDuR9q",
        "reception_time": "2022-01-15T02:34:24.551-00:00",
        "included_in_blocks":
          [ "BLjgP2GCKoQfk3MNM4DAVzmLhEu5TGGrkfqQk2ty5cGs3So4mwq" ] },
      { "delegate": "tz3gtoUxdudfBRcNY7iVdKPHCYYX6xdPpoRS",
        "reception_time": "2022-01-15T02:34:24.570-00:00",
        "included_in_blocks":
          [ "BLjgP2GCKoQfk3MNM4DAVzmLhEu5TGGrkfqQk2ty5cGs3So4mwq" ] },
      { "delegate": "tz1TzaNn7wSQSP5gYPXCnNzBCpyMiidCq1PX",
        "reception_time": "2022-01-15T02:34:24.574-00:00",
        "included_in_blocks":
          [ "BLjgP2GCKoQfk3MNM4DAVzmLhEu5TGGrkfqQk2ty5cGs3So4mwq" ] },
      { "delegate": "tz3hw2kqXhLUvY65ca1eety2oQTpAvd34R9Q",
        "reception_time": "2022-01-15T02:34:24.633-00:00",
        "included_in_blocks":
          [ "BLjgP2GCKoQfk3MNM4DAVzmLhEu5TGGrkfqQk2ty5cGs3So4mwq" ] },
      { "delegate": "tz1MQMiZHV8q4tTwUMWmS5Y3kaP6J2136iXr",
        "reception_time": "2022-01-15T02:34:24.638-00:00",
        "included_in_blocks":
          [ "BLjgP2GCKoQfk3MNM4DAVzmLhEu5TGGrkfqQk2ty5cGs3So4mwq" ] },
      { "delegate": "tz3RKYFsLuQzKBtmYuLNas7uMu3AsYd4QdsA",
        "reception_time": "2022-01-15T02:34:24.665-00:00",
        "included_in_blocks":
          [ "BLjgP2GCKoQfk3MNM4DAVzmLhEu5TGGrkfqQk2ty5cGs3So4mwq" ] },
      { "delegate": "tz3QSGPoRp3Kn7n3vY24eYeu3Peuqo45LQ4D",
        "reception_time": "2022-01-15T02:34:24.683-00:00",
        "included_in_blocks":
          [ "BLjgP2GCKoQfk3MNM4DAVzmLhEu5TGGrkfqQk2ty5cGs3So4mwq" ] },
      { "delegate": "tz3Zhs2dygr55yHyQyKjntAtY9bgfhLZ4Xj1",
        "reception_time": "2022-01-15T02:34:24.694-00:00",
        "included_in_blocks":
          [ "BLjgP2GCKoQfk3MNM4DAVzmLhEu5TGGrkfqQk2ty5cGs3So4mwq" ] },
      { "delegate": "tz1S8MNvuFEUsWgjHvi3AxibRBf388NhT1q2",
        "reception_time": "2022-01-15T02:34:24.716-00:00",
        "included_in_blocks":
          [ "BLjgP2GCKoQfk3MNM4DAVzmLhEu5TGGrkfqQk2ty5cGs3So4mwq" ] },
      { "delegate": "tz3iJu5vrKZcsqRPs8yJ61UDoeEXZmtro4qh",
        "reception_time": "2022-01-15T02:34:24.739-00:00",
        "included_in_blocks":
          [ "BLjgP2GCKoQfk3MNM4DAVzmLhEu5TGGrkfqQk2ty5cGs3So4mwq" ] },
      { "delegate": "tz1cSj7fTex3JPd1p1LN1fwek6AV1kH93Wwc",
        "reception_time": "2022-01-15T02:34:24.967-00:00",
        "included_in_blocks":
          [ "BLjgP2GCKoQfk3MNM4DAVzmLhEu5TGGrkfqQk2ty5cGs3So4mwq" ] },
      { "delegate": "tz3bTdwZinP8U1JmSweNzVKhmwafqWmFWRfk",
        "reception_time": "2022-01-15T02:34:25.058-00:00",
        "included_in_blocks":
          [ "BLjgP2GCKoQfk3MNM4DAVzmLhEu5TGGrkfqQk2ty5cGs3So4mwq" ] },
      { "delegate": "tz1RCFbB9GpALpsZtu6J58sb74dm8qe6XBzv",
        "reception_time": "2022-01-15T02:34:25.072-00:00",
        "included_in_blocks":
          [ "BLjgP2GCKoQfk3MNM4DAVzmLhEu5TGGrkfqQk2ty5cGs3So4mwq" ] },
      { "delegate": "tz1UbFpJY5Hext38GisuaXQBkbzhaKJkxpEs",
        "reception_time": "2022-01-15T02:34:25.076-00:00",
        "included_in_blocks":
          [ "BLjgP2GCKoQfk3MNM4DAVzmLhEu5TGGrkfqQk2ty5cGs3So4mwq" ] },
      { "delegate": "tz3S6BBeKgJGXxvLyZ1xzXzMPn11nnFtq5L9",
        "reception_time": "2022-01-15T02:34:25.112-00:00",
        "included_in_blocks":
          [ "BLjgP2GCKoQfk3MNM4DAVzmLhEu5TGGrkfqQk2ty5cGs3So4mwq" ] },
      { "delegate": "tz3QT9dHYKDqh563chVa6za8526ys1UKfRfL",
        "reception_time": "2022-01-15T02:34:25.124-00:00",
        "included_in_blocks":
          [ "BLjgP2GCKoQfk3MNM4DAVzmLhEu5TGGrkfqQk2ty5cGs3So4mwq" ] },
      { "delegate": "tz1ei4WtWEMEJekSv8qDnu9PExG6Q8HgRGr3",
        "reception_time": "2022-01-15T02:34:25.403-00:00",
        "included_in_blocks":
          [ "BLjgP2GCKoQfk3MNM4DAVzmLhEu5TGGrkfqQk2ty5cGs3So4mwq" ] },
      { "delegate": "tz1RQhNh7iB9CZA7i3ifTWNwiGYVffponfbB",
        "reception_time": "2022-01-15T02:34:25.410-00:00",
        "included_in_blocks":
          [ "BLjgP2GCKoQfk3MNM4DAVzmLhEu5TGGrkfqQk2ty5cGs3So4mwq" ] },
      { "delegate": "tz3bvNMQ95vfAYtG8193ymshqjSvmxiCUuR5",
        "reception_time": "2022-01-15T02:34:25.523-00:00",
        "included_in_blocks":
          [ "BLjgP2GCKoQfk3MNM4DAVzmLhEu5TGGrkfqQk2ty5cGs3So4mwq" ] },
      { "delegate": "tz1V4qCyvPKZ5UeqdH14HN42rxvNPQfc9UZg",
        "reception_time": "2022-01-15T02:34:25.554-00:00",
        "included_in_blocks":
          [ "BLjgP2GCKoQfk3MNM4DAVzmLhEu5TGGrkfqQk2ty5cGs3So4mwq" ] },
      { "delegate": "tz1aRoaRhSpRYvFdyvgWLL6TGyRoGF51wDjM",
        "reception_time": "2022-01-15T02:34:25.593-00:00",
        "included_in_blocks":
          [ "BLjgP2GCKoQfk3MNM4DAVzmLhEu5TGGrkfqQk2ty5cGs3So4mwq" ] },
      { "delegate": "tz3gLTu4Yxj8tPAcriQVUdxv6BY9QyvzU1az",
        "reception_time": "2022-01-15T02:34:25.635-00:00",
        "included_in_blocks":
          [ "BLjgP2GCKoQfk3MNM4DAVzmLhEu5TGGrkfqQk2ty5cGs3So4mwq" ] },
      { "delegate": "tz3RB4aoyjov4KEVRbuhvQ1CKJgBJMWhaeB8",
        "reception_time": "2022-01-15T02:34:25.649-00:00",
        "included_in_blocks":
          [ "BLjgP2GCKoQfk3MNM4DAVzmLhEu5TGGrkfqQk2ty5cGs3So4mwq" ] },
      { "delegate": "tz1abmz7jiCV2GH2u81LRrGgAFFgvQgiDiaf",
        "reception_time": "2022-01-15T02:34:25.651-00:00",
        "included_in_blocks":
          [ "BLjgP2GCKoQfk3MNM4DAVzmLhEu5TGGrkfqQk2ty5cGs3So4mwq" ] },
      { "delegate": "tz1SYq214SCBy9naR6cvycQsYcUGpBqQAE8d",
        "reception_time": "2022-01-15T02:34:25.672-00:00",
        "included_in_blocks":
          [ "BLjgP2GCKoQfk3MNM4DAVzmLhEu5TGGrkfqQk2ty5cGs3So4mwq" ] },
      { "delegate": "tz1NortRftucvAkD1J58L32EhSVrQEWJCEnB",
        "reception_time": "2022-01-15T02:34:25.720-00:00",
        "included_in_blocks":
          [ "BLjgP2GCKoQfk3MNM4DAVzmLhEu5TGGrkfqQk2ty5cGs3So4mwq" ] },
      { "delegate": "tz1WBfwbT66FC6BTLexc2BoyCCBM9LG7pnVW",
        "reception_time": "2022-01-15T02:34:25.754-00:00",
        "included_in_blocks":
          [ "BLjgP2GCKoQfk3MNM4DAVzmLhEu5TGGrkfqQk2ty5cGs3So4mwq" ] },
      { "delegate": "tz1Tnjaxk6tbAeC2TmMApPh8UsrEVQvhHvx5",
        "reception_time": "2022-01-15T02:34:25.757-00:00",
        "included_in_blocks":
          [ "BLjgP2GCKoQfk3MNM4DAVzmLhEu5TGGrkfqQk2ty5cGs3So4mwq" ] },
      { "delegate": "tz3UoffC7FG7zfpmvmjUmUeAaHvzdcUvAj6r",
        "reception_time": "2022-01-15T02:34:26.084-00:00",
        "included_in_blocks":
          [ "BLjgP2GCKoQfk3MNM4DAVzmLhEu5TGGrkfqQk2ty5cGs3So4mwq" ] },
      { "delegate": "tz1Nf6tsK4G6bBqgSQERy4nUtkHNKUVdh7q1",
        "reception_time": "2022-01-15T02:34:26.138-00:00",
        "included_in_blocks":
          [ "BLjgP2GCKoQfk3MNM4DAVzmLhEu5TGGrkfqQk2ty5cGs3So4mwq" ] },
      { "delegate": "tz2FCNBrERXtaTtNX6iimR1UJ5JSDxvdHM93",
        "reception_time": "2022-01-15T02:34:26.163-00:00",
        "included_in_blocks":
          [ "BLjgP2GCKoQfk3MNM4DAVzmLhEu5TGGrkfqQk2ty5cGs3So4mwq" ] },
      { "delegate": "tz1KfEsrtDaA1sX7vdM4qmEPWuSytuqCDp5j",
        "reception_time": "2022-01-15T02:34:26.167-00:00",
        "included_in_blocks":
          [ "BLjgP2GCKoQfk3MNM4DAVzmLhEu5TGGrkfqQk2ty5cGs3So4mwq" ] },
      { "delegate": "tz1gfArv665EUkSg2ojMBzcbfwuPxAvqPvjo",
        "reception_time": "2022-01-15T02:34:26.212-00:00",
        "included_in_blocks":
          [ "BLjgP2GCKoQfk3MNM4DAVzmLhEu5TGGrkfqQk2ty5cGs3So4mwq" ] },
      { "delegate": "tz1Xsrfv6hn86fp88YfRs6xcKwt2nTqxVZYM",
        "reception_time": "2022-01-15T02:34:26.247-00:00",
        "included_in_blocks":
          [ "BLjgP2GCKoQfk3MNM4DAVzmLhEu5TGGrkfqQk2ty5cGs3So4mwq" ] },
      { "delegate": "tz3RDC3Jdn4j15J7bBHZd29EUee9gVB1CxD9",
        "reception_time": "2022-01-15T02:34:26.292-00:00",
        "included_in_blocks":
          [ "BLjgP2GCKoQfk3MNM4DAVzmLhEu5TGGrkfqQk2ty5cGs3So4mwq" ] },
      { "delegate": "tz3WMqdzXqRWXwyvj5Hp2H7QEepaUuS7vd9K",
        "reception_time": "2022-01-15T02:34:26.316-00:00",
        "included_in_blocks":
          [ "BLjgP2GCKoQfk3MNM4DAVzmLhEu5TGGrkfqQk2ty5cGs3So4mwq" ] },
      { "delegate": "tz1TRqbYbUf2GyrjErf3hBzgBJPzW8y36qEs",
        "reception_time": "2022-01-15T02:34:26.382-00:00",
        "included_in_blocks":
          [ "BLjgP2GCKoQfk3MNM4DAVzmLhEu5TGGrkfqQk2ty5cGs3So4mwq" ] },
      { "delegate": "tz3VEZ4k6a4Wx42iyev6i2aVAptTRLEAivNN",
        "reception_time": "2022-01-15T02:34:26.416-00:00",
        "included_in_blocks":
          [ "BLjgP2GCKoQfk3MNM4DAVzmLhEu5TGGrkfqQk2ty5cGs3So4mwq" ] },
      { "delegate": "tz1NEKxGEHsFufk87CVZcrqWu8o22qh46GK6",
        "reception_time": "2022-01-15T02:34:26.519-00:00",
        "included_in_blocks":
          [ "BLjgP2GCKoQfk3MNM4DAVzmLhEu5TGGrkfqQk2ty5cGs3So4mwq" ] },
      { "delegate": "tz1cYufsxHXJcvANhvS55h3aY32a9BAFB494",
        "reception_time": "2022-01-15T02:34:26.888-00:00",
        "included_in_blocks":
          [ "BLjgP2GCKoQfk3MNM4DAVzmLhEu5TGGrkfqQk2ty5cGs3So4mwq" ] },
      { "delegate": "tz1T7duV5gZWSTq4YpBGbXNLTfznCLDrFxvs",
        "reception_time": "2022-01-15T02:34:26.917-00:00",
        "included_in_blocks":
          [ "BLjgP2GCKoQfk3MNM4DAVzmLhEu5TGGrkfqQk2ty5cGs3So4mwq" ] },
      { "delegate": "tz3NExpXn9aPNZPorRE4SdjJ2RGrfbJgMAaV",
        "reception_time": "2022-01-15T02:34:27.110-00:00",
        "included_in_blocks":
          [ "BLjgP2GCKoQfk3MNM4DAVzmLhEu5TGGrkfqQk2ty5cGs3So4mwq" ] },
      { "delegate": "tz1dNVDWPf3Q59SdJqnjdnu277iyvReiRS9M",
        "reception_time": "2022-01-15T02:34:27.195-00:00",
        "included_in_blocks":
          [ "BLjgP2GCKoQfk3MNM4DAVzmLhEu5TGGrkfqQk2ty5cGs3So4mwq" ] },
      { "delegate": "tz1ZcTRk5uxD86EFEn1vvNffWWqJy7q5eVhc",
        "reception_time": "2022-01-15T02:34:27.564-00:00",
        "included_in_blocks":
          [ "BLjgP2GCKoQfk3MNM4DAVzmLhEu5TGGrkfqQk2ty5cGs3So4mwq" ] },
      { "delegate": "tz1b9MYGrbN1NAxphLEsPPNT9JC7aNFc5nA4",
        "reception_time": "2022-01-15T02:34:27.749-00:00",
        "included_in_blocks":
          [ "BLjgP2GCKoQfk3MNM4DAVzmLhEu5TGGrkfqQk2ty5cGs3So4mwq" ] },
      { "delegate": "tz1awXW7wuXy21c66vBudMXQVAPgRnqqwgTH",
        "reception_time": "2022-01-15T02:34:27.892-00:00",
        "included_in_blocks":
          [ "BLjgP2GCKoQfk3MNM4DAVzmLhEu5TGGrkfqQk2ty5cGs3So4mwq" ] },
      { "delegate": "tz1W5VkdB5s7ENMESVBtwyt9kyvLqPcUczRT",
        "reception_time": "2022-01-15T02:34:28.701-00:00",
        "included_in_blocks":
          [ "BLjgP2GCKoQfk3MNM4DAVzmLhEu5TGGrkfqQk2ty5cGs3So4mwq" ] },
      { "delegate": "tz1Z9M4biBHSiH38k5ciRMjR5bgk89yEgLTz",
        "reception_time": "2022-01-15T02:34:30.129-00:00",
        "included_in_blocks":
          [ "BLjgP2GCKoQfk3MNM4DAVzmLhEu5TGGrkfqQk2ty5cGs3So4mwq" ] },
      { "delegate": "tz1g8vkmcde6sWKaG2NN9WKzCkDM6Rziq194",
        "reception_time": "2022-01-15T02:34:30.254-00:00",
        "included_in_blocks":
          [ "BLjgP2GCKoQfk3MNM4DAVzmLhEu5TGGrkfqQk2ty5cGs3So4mwq" ] },
      { "delegate": "tz1NpWrAyDL9k2Lmnyxcgr9xuJakbBxdq7FB",
        "reception_time": "2022-01-15T02:34:32.478-00:00",
        "included_in_blocks":
          [ "BLjgP2GCKoQfk3MNM4DAVzmLhEu5TGGrkfqQk2ty5cGs3So4mwq" ] },
      { "delegate": "tz3e7LbZvUtoXhpUD1yb6wuFodZpfYRb9nWJ",
        "reception_time": "2022-01-15T02:34:32.545-00:00",
        "included_in_blocks":
          [ "BLjgP2GCKoQfk3MNM4DAVzmLhEu5TGGrkfqQk2ty5cGs3So4mwq" ] } ] }