{ "blocks":
    [ { "hash": "BL2GD3s5o5yuEFzNnqqtx1viyvNkg846LBp75kn9PLL2dGbf3RF",
        "delegate": "tz1irJKkXS2DBWkU1NnmFQx1c1L7pbGg4yhk",
        "reception_time": "2022-01-15T01:00:22.224-00:00",
        "timestamp": "2022-01-15T01:00:10Z" } ],
  "endorsements":
    [ { "delegate": "tz1awXW7wuXy21c66vBudMXQVAPgRnqqwgTH",
        "reception_time": "2022-01-15T01:00:40.939-00:00" },
      { "delegate": "tz2FCNBrERXtaTtNX6iimR1UJ5JSDxvdHM93",
        "reception_time": "2022-01-15T01:00:31.001-00:00",
        "included_in_blocks":
          [ "BLx5p1PWDG68oPsaJ2wZhbU3VSpKkLLr7tCyAByF3T9ujQ6VQgy" ] },
      { "delegate": "tz1TRqbYbUf2GyrjErf3hBzgBJPzW8y36qEs",
        "reception_time": "2022-01-15T01:00:30.854-00:00",
        "included_in_blocks":
          [ "BLx5p1PWDG68oPsaJ2wZhbU3VSpKkLLr7tCyAByF3T9ujQ6VQgy" ] },
      { "delegate": "tz1W5VkdB5s7ENMESVBtwyt9kyvLqPcUczRT",
        "reception_time": "2022-01-15T01:00:29.685-00:00",
        "included_in_blocks":
          [ "BLx5p1PWDG68oPsaJ2wZhbU3VSpKkLLr7tCyAByF3T9ujQ6VQgy" ] },
      { "delegate": "tz1aRoaRhSpRYvFdyvgWLL6TGyRoGF51wDjM",
        "reception_time": "2022-01-15T01:00:29.584-00:00",
        "included_in_blocks":
          [ "BLx5p1PWDG68oPsaJ2wZhbU3VSpKkLLr7tCyAByF3T9ujQ6VQgy" ] },
      { "delegate": "tz1YhNsiRRU8aHNGg7NK3uuP6UDAyacJernB",
        "reception_time": "2022-01-15T01:00:28.340-00:00",
        "included_in_blocks":
          [ "BLx5p1PWDG68oPsaJ2wZhbU3VSpKkLLr7tCyAByF3T9ujQ6VQgy" ] },
      { "delegate": "tz1eVaNx3gCmG1EsLjijkmgAxdLYVf6Bf5Sq",
        "reception_time": "2022-01-15T01:00:27.581-00:00",
        "included_in_blocks":
          [ "BLx5p1PWDG68oPsaJ2wZhbU3VSpKkLLr7tCyAByF3T9ujQ6VQgy" ] },
      { "delegate": "tz1LmaFsWRkjr7QMCx5PtV6xTUz3AmEpKQiF",
        "reception_time": "2022-01-15T01:00:26.110-00:00",
        "included_in_blocks":
          [ "BLx5p1PWDG68oPsaJ2wZhbU3VSpKkLLr7tCyAByF3T9ujQ6VQgy" ] },
      { "delegate": "tz1T7duV5gZWSTq4YpBGbXNLTfznCLDrFxvs",
        "reception_time": "2022-01-15T01:00:26.066-00:00",
        "included_in_blocks":
          [ "BLx5p1PWDG68oPsaJ2wZhbU3VSpKkLLr7tCyAByF3T9ujQ6VQgy" ] },
      { "delegate": "tz1S8MNvuFEUsWgjHvi3AxibRBf388NhT1q2",
        "reception_time": "2022-01-15T01:00:25.944-00:00",
        "included_in_blocks":
          [ "BLx5p1PWDG68oPsaJ2wZhbU3VSpKkLLr7tCyAByF3T9ujQ6VQgy" ] },
      { "delegate": "tz1ZcTRk5uxD86EFEn1vvNffWWqJy7q5eVhc",
        "reception_time": "2022-01-15T01:00:25.718-00:00",
        "included_in_blocks":
          [ "BLx5p1PWDG68oPsaJ2wZhbU3VSpKkLLr7tCyAByF3T9ujQ6VQgy" ] },
      { "delegate": "tz3S6BBeKgJGXxvLyZ1xzXzMPn11nnFtq5L9",
        "reception_time": "2022-01-15T01:00:24.332-00:00",
        "included_in_blocks":
          [ "BLx5p1PWDG68oPsaJ2wZhbU3VSpKkLLr7tCyAByF3T9ujQ6VQgy" ] },
      { "delegate": "tz1WnfXMPaNTBmH7DBPwqCWs9cPDJdkGBTZ8",
        "reception_time": "2022-01-15T01:00:24.272-00:00",
        "included_in_blocks":
          [ "BLx5p1PWDG68oPsaJ2wZhbU3VSpKkLLr7tCyAByF3T9ujQ6VQgy" ] },
      { "delegate": "tz3gtoUxdudfBRcNY7iVdKPHCYYX6xdPpoRS",
        "reception_time": "2022-01-15T01:00:24.218-00:00",
        "included_in_blocks":
          [ "BLx5p1PWDG68oPsaJ2wZhbU3VSpKkLLr7tCyAByF3T9ujQ6VQgy" ] },
      { "delegate": "tz3QSGPoRp3Kn7n3vY24eYeu3Peuqo45LQ4D",
        "reception_time": "2022-01-15T01:00:24.212-00:00",
        "included_in_blocks":
          [ "BLx5p1PWDG68oPsaJ2wZhbU3VSpKkLLr7tCyAByF3T9ujQ6VQgy" ] },
      { "delegate": "tz3QT9dHYKDqh563chVa6za8526ys1UKfRfL",
        "reception_time": "2022-01-15T01:00:24.201-00:00",
        "included_in_blocks":
          [ "BLx5p1PWDG68oPsaJ2wZhbU3VSpKkLLr7tCyAByF3T9ujQ6VQgy" ] },
      { "delegate": "tz1RCFbB9GpALpsZtu6J58sb74dm8qe6XBzv",
        "reception_time": "2022-01-15T01:00:24.181-00:00",
        "included_in_blocks":
          [ "BLx5p1PWDG68oPsaJ2wZhbU3VSpKkLLr7tCyAByF3T9ujQ6VQgy" ] },
      { "delegate": "tz3iJu5vrKZcsqRPs8yJ61UDoeEXZmtro4qh",
        "reception_time": "2022-01-15T01:00:24.129-00:00",
        "included_in_blocks":
          [ "BLx5p1PWDG68oPsaJ2wZhbU3VSpKkLLr7tCyAByF3T9ujQ6VQgy" ] },
      { "delegate": "tz3Zhs2dygr55yHyQyKjntAtY9bgfhLZ4Xj1",
        "reception_time": "2022-01-15T01:00:24.117-00:00",
        "included_in_blocks":
          [ "BLx5p1PWDG68oPsaJ2wZhbU3VSpKkLLr7tCyAByF3T9ujQ6VQgy" ] },
      { "delegate": "tz3ZbP2pM3nwvXztbuMJwJnDvV5xdpU8UkkD",
        "reception_time": "2022-01-15T01:00:24.046-00:00",
        "included_in_blocks":
          [ "BLx5p1PWDG68oPsaJ2wZhbU3VSpKkLLr7tCyAByF3T9ujQ6VQgy" ] },
      { "delegate": "tz3NxTnke1acr8o3h5y9ytf5awQBGNJUKzVU",
        "reception_time": "2022-01-15T01:00:24.046-00:00",
        "included_in_blocks":
          [ "BLx5p1PWDG68oPsaJ2wZhbU3VSpKkLLr7tCyAByF3T9ujQ6VQgy" ] },
      { "delegate": "tz3RKYFsLuQzKBtmYuLNas7uMu3AsYd4QdsA",
        "reception_time": "2022-01-15T01:00:24.014-00:00",
        "included_in_blocks":
          [ "BLx5p1PWDG68oPsaJ2wZhbU3VSpKkLLr7tCyAByF3T9ujQ6VQgy" ] },
      { "delegate": "tz1RjoHc98dBoqaH2jawF62XNKh7YsHwbkEv",
        "reception_time": "2022-01-15T01:00:23.994-00:00",
        "included_in_blocks":
          [ "BLx5p1PWDG68oPsaJ2wZhbU3VSpKkLLr7tCyAByF3T9ujQ6VQgy" ] },
      { "delegate": "tz1Z2jXfEXL7dXhs6bsLmyLFLfmAkXBzA9WE",
        "reception_time": "2022-01-15T01:00:23.991-00:00",
        "included_in_blocks":
          [ "BLx5p1PWDG68oPsaJ2wZhbU3VSpKkLLr7tCyAByF3T9ujQ6VQgy" ] },
      { "delegate": "tz1KfEsrtDaA1sX7vdM4qmEPWuSytuqCDp5j",
        "reception_time": "2022-01-15T01:00:23.985-00:00",
        "included_in_blocks":
          [ "BLx5p1PWDG68oPsaJ2wZhbU3VSpKkLLr7tCyAByF3T9ujQ6VQgy" ] },
      { "delegate": "tz3NExpXn9aPNZPorRE4SdjJ2RGrfbJgMAaV",
        "reception_time": "2022-01-15T01:00:23.875-00:00",
        "included_in_blocks":
          [ "BLx5p1PWDG68oPsaJ2wZhbU3VSpKkLLr7tCyAByF3T9ujQ6VQgy" ] },
      { "delegate": "tz3WMqdzXqRWXwyvj5Hp2H7QEepaUuS7vd9K",
        "reception_time": "2022-01-15T01:00:23.864-00:00",
        "included_in_blocks":
          [ "BLx5p1PWDG68oPsaJ2wZhbU3VSpKkLLr7tCyAByF3T9ujQ6VQgy" ] },
      { "delegate": "tz3VEZ4k6a4Wx42iyev6i2aVAptTRLEAivNN",
        "reception_time": "2022-01-15T01:00:23.856-00:00",
        "included_in_blocks":
          [ "BLx5p1PWDG68oPsaJ2wZhbU3VSpKkLLr7tCyAByF3T9ujQ6VQgy" ] },
      { "delegate": "tz3hw2kqXhLUvY65ca1eety2oQTpAvd34R9Q",
        "reception_time": "2022-01-15T01:00:23.847-00:00",
        "included_in_blocks":
          [ "BLx5p1PWDG68oPsaJ2wZhbU3VSpKkLLr7tCyAByF3T9ujQ6VQgy" ] },
      { "delegate": "tz1NL14EZjUmY9eEdk1ejyACEaTuwVGVKEeU",
        "reception_time": "2022-01-15T01:00:23.840-00:00",
        "included_in_blocks":
          [ "BLx5p1PWDG68oPsaJ2wZhbU3VSpKkLLr7tCyAByF3T9ujQ6VQgy" ] },
      { "delegate": "tz1TEc75UKXv4W5cwi14Na3NtqFD51yKQi7h",
        "reception_time": "2022-01-15T01:00:23.838-00:00",
        "included_in_blocks":
          [ "BLx5p1PWDG68oPsaJ2wZhbU3VSpKkLLr7tCyAByF3T9ujQ6VQgy" ] },
      { "delegate": "tz1Nf6tsK4G6bBqgSQERy4nUtkHNKUVdh7q1",
        "reception_time": "2022-01-15T01:00:23.832-00:00",
        "included_in_blocks":
          [ "BLx5p1PWDG68oPsaJ2wZhbU3VSpKkLLr7tCyAByF3T9ujQ6VQgy" ] },
      { "delegate": "tz1dRKU4FQ9QRRQPdaH4zCR6gmCmXfcvcgtB",
        "reception_time": "2022-01-15T01:00:23.829-00:00",
        "included_in_blocks":
          [ "BLx5p1PWDG68oPsaJ2wZhbU3VSpKkLLr7tCyAByF3T9ujQ6VQgy" ] },
      { "delegate": "tz1ei4WtWEMEJekSv8qDnu9PExG6Q8HgRGr3",
        "reception_time": "2022-01-15T01:00:23.621-00:00",
        "included_in_blocks":
          [ "BLx5p1PWDG68oPsaJ2wZhbU3VSpKkLLr7tCyAByF3T9ujQ6VQgy" ] },
      { "delegate": "tz1gUNyn3hmnEWqkusWPzxRaon1cs7ndWh7h",
        "reception_time": "2022-01-15T01:00:23.610-00:00",
        "included_in_blocks":
          [ "BLx5p1PWDG68oPsaJ2wZhbU3VSpKkLLr7tCyAByF3T9ujQ6VQgy" ] },
      { "delegate": "tz1LYW7Yepo9qsQx2kjpek2RYVMCeGwBvDCQ",
        "reception_time": "2022-01-15T01:00:23.607-00:00",
        "included_in_blocks":
          [ "BLx5p1PWDG68oPsaJ2wZhbU3VSpKkLLr7tCyAByF3T9ujQ6VQgy" ] },
      { "delegate": "tz3UoffC7FG7zfpmvmjUmUeAaHvzdcUvAj6r",
        "reception_time": "2022-01-15T01:00:23.599-00:00",
        "included_in_blocks":
          [ "BLx5p1PWDG68oPsaJ2wZhbU3VSpKkLLr7tCyAByF3T9ujQ6VQgy" ] },
      { "delegate": "tz1WBfwbT66FC6BTLexc2BoyCCBM9LG7pnVW",
        "reception_time": "2022-01-15T01:00:23.588-00:00",
        "included_in_blocks":
          [ "BLx5p1PWDG68oPsaJ2wZhbU3VSpKkLLr7tCyAByF3T9ujQ6VQgy" ] },
      { "delegate": "tz1RQhNh7iB9CZA7i3ifTWNwiGYVffponfbB",
        "reception_time": "2022-01-15T01:00:23.588-00:00",
        "included_in_blocks":
          [ "BLx5p1PWDG68oPsaJ2wZhbU3VSpKkLLr7tCyAByF3T9ujQ6VQgy" ] },
      { "delegate": "tz1NortRftucvAkD1J58L32EhSVrQEWJCEnB",
        "reception_time": "2022-01-15T01:00:23.577-00:00",
        "included_in_blocks":
          [ "BLx5p1PWDG68oPsaJ2wZhbU3VSpKkLLr7tCyAByF3T9ujQ6VQgy" ] },
      { "delegate": "tz1VQnqCCqX4K5sP3FNkVSNKTdCAMJDd3E1n",
        "reception_time": "2022-01-15T01:00:23.553-00:00",
        "included_in_blocks":
          [ "BLx5p1PWDG68oPsaJ2wZhbU3VSpKkLLr7tCyAByF3T9ujQ6VQgy" ] },
      { "delegate": "tz1ibcPVGK4Y8pcW4BYUsojiHoBKnZbyDGrX" },
      { "delegate": "tz1g8vkmcde6sWKaG2NN9WKzCkDM6Rziq194" },
      { "delegate": "tz1dbfppLAAxXZNtf2SDps7rch3qfUznKSoK" },
      { "delegate": "tz1bTpviNnyx2PXsNmGpCQTMQsGoYordkUoA" },
      { "delegate": "tz1SYq214SCBy9naR6cvycQsYcUGpBqQAE8d" },
      { "delegate": "tz1NpWrAyDL9k2Lmnyxcgr9xuJakbBxdq7FB" },
      { "delegate": "tz1NEKxGEHsFufk87CVZcrqWu8o22qh46GK6" },
      { "delegate": "tz1S8e9GgdZG78XJRB3NqabfWeM37GnhZMWQ",
        "reception_time": "2022-01-15T01:00:18.457-00:00",
        "errors":
          [ { "kind": "temporary",
              "id": "proto.011-PtHangz2.prefilter.outdated_endorsement" } ],
        "included_in_blocks":
          [ "BLx5p1PWDG68oPsaJ2wZhbU3VSpKkLLr7tCyAByF3T9ujQ6VQgy" ] },
      { "delegate": "tz1irJKkXS2DBWkU1NnmFQx1c1L7pbGg4yhk",
        "reception_time": "2022-01-15T01:00:18.481-00:00",
        "errors":
          [ { "kind": "temporary",
              "id": "proto.011-PtHangz2.prefilter.outdated_endorsement" } ],
        "included_in_blocks":
          [ "BLx5p1PWDG68oPsaJ2wZhbU3VSpKkLLr7tCyAByF3T9ujQ6VQgy" ] },
      { "delegate": "tz1MXFrtZoaXckE41bjUCSjAjAap3AFDSr3N",
        "reception_time": "2022-01-15T01:00:18.842-00:00",
        "errors":
          [ { "kind": "temporary",
              "id": "proto.011-PtHangz2.prefilter.outdated_endorsement" } ],
        "included_in_blocks":
          [ "BLx5p1PWDG68oPsaJ2wZhbU3VSpKkLLr7tCyAByF3T9ujQ6VQgy" ] },
      { "delegate": "tz1STeamwbp68THcny9zk3LsbG3H36DMvbRK",
        "reception_time": "2022-01-15T01:00:19.399-00:00",
        "errors":
          [ { "kind": "temporary",
              "id": "proto.011-PtHangz2.prefilter.outdated_endorsement" } ],
        "included_in_blocks":
          [ "BLx5p1PWDG68oPsaJ2wZhbU3VSpKkLLr7tCyAByF3T9ujQ6VQgy" ] },
      { "delegate": "tz1P2Po7YM526ughEsRbY4oR9zaUPDZjxFrb",
        "reception_time": "2022-01-15T01:00:19.564-00:00",
        "errors":
          [ { "kind": "temporary",
              "id": "proto.011-PtHangz2.prefilter.outdated_endorsement" } ],
        "included_in_blocks":
          [ "BLx5p1PWDG68oPsaJ2wZhbU3VSpKkLLr7tCyAByF3T9ujQ6VQgy" ] },
      { "delegate": "tz1Ldzz6k1BHdhuKvAtMRX7h5kJSMHESMHLC",
        "reception_time": "2022-01-15T01:00:19.656-00:00",
        "errors":
          [ { "kind": "temporary",
              "id": "proto.011-PtHangz2.prefilter.outdated_endorsement" } ],
        "included_in_blocks":
          [ "BLx5p1PWDG68oPsaJ2wZhbU3VSpKkLLr7tCyAByF3T9ujQ6VQgy" ] },
      { "delegate": "tz1VmiY38m3y95HqQLjMwqnMS7sdMfGomzKi",
        "reception_time": "2022-01-15T01:00:19.659-00:00",
        "errors":
          [ { "kind": "temporary",
              "id": "proto.011-PtHangz2.prefilter.outdated_endorsement" } ],
        "included_in_blocks":
          [ "BLx5p1PWDG68oPsaJ2wZhbU3VSpKkLLr7tCyAByF3T9ujQ6VQgy" ] },
      { "delegate": "tz1eEnQhbwf6trb8Q8mPb2RaPkNk2rN7BKi8",
        "reception_time": "2022-01-15T01:00:19.782-00:00",
        "errors":
          [ { "kind": "temporary",
              "id": "proto.011-PtHangz2.prefilter.outdated_endorsement" } ],
        "included_in_blocks":
          [ "BLx5p1PWDG68oPsaJ2wZhbU3VSpKkLLr7tCyAByF3T9ujQ6VQgy" ] },
      { "delegate": "tz1Scdr2HsZiQjc7bHMeBbmDRXYVvdhjJbBh",
        "reception_time": "2022-01-15T01:00:19.835-00:00",
        "errors":
          [ { "kind": "temporary",
              "id": "proto.011-PtHangz2.prefilter.outdated_endorsement" } ],
        "included_in_blocks":
          [ "BLx5p1PWDG68oPsaJ2wZhbU3VSpKkLLr7tCyAByF3T9ujQ6VQgy" ] },
      { "delegate": "tz1Kf25fX1VdmYGSEzwFy1wNmkbSEZ2V83sY",
        "reception_time": "2022-01-15T01:00:19.978-00:00",
        "errors":
          [ { "kind": "temporary",
              "id": "proto.011-PtHangz2.prefilter.outdated_endorsement" } ],
        "included_in_blocks":
          [ "BLx5p1PWDG68oPsaJ2wZhbU3VSpKkLLr7tCyAByF3T9ujQ6VQgy" ] },
      { "delegate": "tz1TzaNn7wSQSP5gYPXCnNzBCpyMiidCq1PX",
        "reception_time": "2022-01-15T01:00:20.357-00:00",
        "errors":
          [ { "kind": "temporary",
              "id": "proto.011-PtHangz2.prefilter.outdated_endorsement" } ],
        "included_in_blocks":
          [ "BLx5p1PWDG68oPsaJ2wZhbU3VSpKkLLr7tCyAByF3T9ujQ6VQgy" ] },
      { "delegate": "tz1RV1MBbZMR68tacosb7Mwj6LkbPSUS1er1",
        "reception_time": "2022-01-15T01:00:20.358-00:00",
        "errors":
          [ { "kind": "temporary",
              "id": "proto.011-PtHangz2.prefilter.outdated_endorsement" } ],
        "included_in_blocks":
          [ "BLx5p1PWDG68oPsaJ2wZhbU3VSpKkLLr7tCyAByF3T9ujQ6VQgy" ] },
      { "delegate": "tz1WCd2jm4uSt4vntk4vSuUWoZQGhLcDuR9q",
        "reception_time": "2022-01-15T01:00:20.369-00:00",
        "errors":
          [ { "kind": "temporary",
              "id": "proto.011-PtHangz2.prefilter.outdated_endorsement" } ],
        "included_in_blocks":
          [ "BLx5p1PWDG68oPsaJ2wZhbU3VSpKkLLr7tCyAByF3T9ujQ6VQgy" ] },
      { "delegate": "tz3RB4aoyjov4KEVRbuhvQ1CKJgBJMWhaeB8",
        "reception_time": "2022-01-15T01:00:20.468-00:00",
        "errors":
          [ { "kind": "temporary",
              "id": "proto.011-PtHangz2.prefilter.outdated_endorsement" } ],
        "included_in_blocks":
          [ "BLx5p1PWDG68oPsaJ2wZhbU3VSpKkLLr7tCyAByF3T9ujQ6VQgy" ] },
      { "delegate": "tz3bTdwZinP8U1JmSweNzVKhmwafqWmFWRfk",
        "reception_time": "2022-01-15T01:00:20.709-00:00",
        "errors":
          [ { "kind": "temporary",
              "id": "proto.011-PtHangz2.prefilter.outdated_endorsement" } ],
        "included_in_blocks":
          [ "BLx5p1PWDG68oPsaJ2wZhbU3VSpKkLLr7tCyAByF3T9ujQ6VQgy" ] },
      { "delegate": "tz3bvNMQ95vfAYtG8193ymshqjSvmxiCUuR5",
        "reception_time": "2022-01-15T01:00:20.718-00:00",
        "errors":
          [ { "kind": "temporary",
              "id": "proto.011-PtHangz2.prefilter.outdated_endorsement" } ],
        "included_in_blocks":
          [ "BLx5p1PWDG68oPsaJ2wZhbU3VSpKkLLr7tCyAByF3T9ujQ6VQgy" ] },
      { "delegate": "tz1cSj7fTex3JPd1p1LN1fwek6AV1kH93Wwc",
        "reception_time": "2022-01-15T01:00:20.748-00:00",
        "errors":
          [ { "kind": "temporary",
              "id": "proto.011-PtHangz2.prefilter.outdated_endorsement" } ],
        "included_in_blocks":
          [ "BLx5p1PWDG68oPsaJ2wZhbU3VSpKkLLr7tCyAByF3T9ujQ6VQgy" ] },
      { "delegate": "tz3RDC3Jdn4j15J7bBHZd29EUee9gVB1CxD9",
        "reception_time": "2022-01-15T01:00:20.835-00:00",
        "errors":
          [ { "kind": "temporary",
              "id": "proto.011-PtHangz2.prefilter.outdated_endorsement" } ],
        "included_in_blocks":
          [ "BLx5p1PWDG68oPsaJ2wZhbU3VSpKkLLr7tCyAByF3T9ujQ6VQgy" ] },
      { "delegate": "tz1gfArv665EUkSg2ojMBzcbfwuPxAvqPvjo",
        "reception_time": "2022-01-15T01:00:20.848-00:00",
        "errors":
          [ { "kind": "temporary",
              "id": "proto.011-PtHangz2.prefilter.outdated_endorsement" } ],
        "included_in_blocks":
          [ "BLx5p1PWDG68oPsaJ2wZhbU3VSpKkLLr7tCyAByF3T9ujQ6VQgy" ] },
      { "delegate": "tz3NDpRj6WBrJPikcPVHRBEjWKxFw3c6eQPS",
        "reception_time": "2022-01-15T01:00:21.053-00:00",
        "errors":
          [ { "kind": "temporary",
              "id": "proto.011-PtHangz2.prefilter.outdated_endorsement" } ],
        "included_in_blocks":
          [ "BLx5p1PWDG68oPsaJ2wZhbU3VSpKkLLr7tCyAByF3T9ujQ6VQgy" ] },
      { "delegate": "tz1PWCDnz783NNGGQjEFFsHtrcK5yBW4E2rm",
        "reception_time": "2022-01-15T01:00:21.174-00:00",
        "errors":
          [ { "kind": "temporary",
              "id": "proto.011-PtHangz2.prefilter.outdated_endorsement" } ],
        "included_in_blocks":
          [ "BLx5p1PWDG68oPsaJ2wZhbU3VSpKkLLr7tCyAByF3T9ujQ6VQgy" ] } ] }