{ "blocks":
    [ { "hash": "BLzEgtFpDeFiNyc8L9gwaUKe2PAdPkMfg9qWS62wFh4sBFUWsei",
        "delegate": "tz1gUNyn3hmnEWqkusWPzxRaon1cs7ndWh7h",
        "reception_time": "2022-01-15T11:19:15.754-00:00",
        "timestamp": "2022-01-15T11:19:10Z" } ],
  "endorsements":
    [ { "delegate": "tz1WCd2jm4uSt4vntk4vSuUWoZQGhLcDuR9q",
        "reception_time": "2022-01-15T11:19:15.676-00:00",
        "errors":
          [ { "kind": "temporary",
              "id": "proto.011-PtHangz2.prefilter.outdated_endorsement" } ],
        "included_in_blocks":
          [ "BMN1wadDHcooPqXt1YGtBE1eMQRRvmAskkB5m25BubZ6sNxcwUA" ] },
      { "delegate": "tz3ZbP2pM3nwvXztbuMJwJnDvV5xdpU8UkkD",
        "reception_time": "2022-01-15T11:19:15.597-00:00",
        "errors":
          [ { "kind": "temporary",
              "id": "proto.011-PtHangz2.prefilter.outdated_endorsement" } ],
        "included_in_blocks":
          [ "BMN1wadDHcooPqXt1YGtBE1eMQRRvmAskkB5m25BubZ6sNxcwUA" ] },
      { "delegate": "tz3RKYFsLuQzKBtmYuLNas7uMu3AsYd4QdsA",
        "reception_time": "2022-01-15T11:19:15.542-00:00",
        "errors":
          [ { "kind": "temporary",
              "id": "proto.011-PtHangz2.prefilter.outdated_endorsement" } ],
        "included_in_blocks":
          [ "BMN1wadDHcooPqXt1YGtBE1eMQRRvmAskkB5m25BubZ6sNxcwUA" ] },
      { "delegate": "tz3S6BBeKgJGXxvLyZ1xzXzMPn11nnFtq5L9",
        "reception_time": "2022-01-15T11:19:15.508-00:00",
        "errors":
          [ { "kind": "temporary",
              "id": "proto.011-PtHangz2.prefilter.outdated_endorsement" } ],
        "included_in_blocks":
          [ "BMN1wadDHcooPqXt1YGtBE1eMQRRvmAskkB5m25BubZ6sNxcwUA" ] },
      { "delegate": "tz3QSGPoRp3Kn7n3vY24eYeu3Peuqo45LQ4D",
        "reception_time": "2022-01-15T11:19:15.487-00:00",
        "errors":
          [ { "kind": "temporary",
              "id": "proto.011-PtHangz2.prefilter.outdated_endorsement" } ],
        "included_in_blocks":
          [ "BMN1wadDHcooPqXt1YGtBE1eMQRRvmAskkB5m25BubZ6sNxcwUA" ] },
      { "delegate": "tz3hw2kqXhLUvY65ca1eety2oQTpAvd34R9Q",
        "reception_time": "2022-01-15T11:19:15.486-00:00",
        "errors":
          [ { "kind": "temporary",
              "id": "proto.011-PtHangz2.prefilter.outdated_endorsement" } ],
        "included_in_blocks":
          [ "BMN1wadDHcooPqXt1YGtBE1eMQRRvmAskkB5m25BubZ6sNxcwUA" ] },
      { "delegate": "tz1VmiY38m3y95HqQLjMwqnMS7sdMfGomzKi",
        "reception_time": "2022-01-15T11:19:15.479-00:00",
        "errors":
          [ { "kind": "temporary",
              "id": "proto.011-PtHangz2.prefilter.outdated_endorsement" } ],
        "included_in_blocks":
          [ "BMN1wadDHcooPqXt1YGtBE1eMQRRvmAskkB5m25BubZ6sNxcwUA" ] },
      { "delegate": "tz3QT9dHYKDqh563chVa6za8526ys1UKfRfL",
        "reception_time": "2022-01-15T11:19:15.475-00:00",
        "errors":
          [ { "kind": "temporary",
              "id": "proto.011-PtHangz2.prefilter.outdated_endorsement" } ],
        "included_in_blocks":
          [ "BMN1wadDHcooPqXt1YGtBE1eMQRRvmAskkB5m25BubZ6sNxcwUA" ] },
      { "delegate": "tz3iJu5vrKZcsqRPs8yJ61UDoeEXZmtro4qh",
        "reception_time": "2022-01-15T11:19:15.445-00:00",
        "errors":
          [ { "kind": "temporary",
              "id": "proto.011-PtHangz2.prefilter.outdated_endorsement" } ],
        "included_in_blocks":
          [ "BMN1wadDHcooPqXt1YGtBE1eMQRRvmAskkB5m25BubZ6sNxcwUA" ] },
      { "delegate": "tz3gtoUxdudfBRcNY7iVdKPHCYYX6xdPpoRS",
        "reception_time": "2022-01-15T11:19:15.429-00:00",
        "errors":
          [ { "kind": "temporary",
              "id": "proto.011-PtHangz2.prefilter.outdated_endorsement" } ],
        "included_in_blocks":
          [ "BMN1wadDHcooPqXt1YGtBE1eMQRRvmAskkB5m25BubZ6sNxcwUA" ] },
      { "delegate": "tz1TzaNn7wSQSP5gYPXCnNzBCpyMiidCq1PX",
        "reception_time": "2022-01-15T11:19:15.388-00:00",
        "errors":
          [ { "kind": "temporary",
              "id": "proto.011-PtHangz2.prefilter.outdated_endorsement" } ],
        "included_in_blocks":
          [ "BMN1wadDHcooPqXt1YGtBE1eMQRRvmAskkB5m25BubZ6sNxcwUA" ] },
      { "delegate": "tz1Ldzz6k1BHdhuKvAtMRX7h5kJSMHESMHLC",
        "reception_time": "2022-01-15T11:19:15.361-00:00",
        "errors":
          [ { "kind": "temporary",
              "id": "proto.011-PtHangz2.prefilter.outdated_endorsement" } ],
        "included_in_blocks":
          [ "BMN1wadDHcooPqXt1YGtBE1eMQRRvmAskkB5m25BubZ6sNxcwUA" ] },
      { "delegate": "tz1d9ek6HrScY6QRZ71NJdB85MNz8gKGBjrv",
        "reception_time": "2022-01-15T11:19:15.245-00:00",
        "errors":
          [ { "kind": "temporary",
              "id": "proto.011-PtHangz2.prefilter.outdated_endorsement" } ],
        "included_in_blocks":
          [ "BMN1wadDHcooPqXt1YGtBE1eMQRRvmAskkB5m25BubZ6sNxcwUA" ] },
      { "delegate": "tz1Kf25fX1VdmYGSEzwFy1wNmkbSEZ2V83sY",
        "reception_time": "2022-01-15T11:19:15.232-00:00",
        "errors":
          [ { "kind": "temporary",
              "id": "proto.011-PtHangz2.prefilter.outdated_endorsement" } ],
        "included_in_blocks":
          [ "BMN1wadDHcooPqXt1YGtBE1eMQRRvmAskkB5m25BubZ6sNxcwUA" ] },
      { "delegate": "tz1aXD7Jigrt3PBYSpHSg5Rr33SexMmmM5Ys",
        "reception_time": "2022-01-15T11:19:15.126-00:00",
        "errors":
          [ { "kind": "temporary",
              "id": "proto.011-PtHangz2.prefilter.outdated_endorsement" } ],
        "included_in_blocks":
          [ "BMN1wadDHcooPqXt1YGtBE1eMQRRvmAskkB5m25BubZ6sNxcwUA" ] },
      { "delegate": "tz1eEnQhbwf6trb8Q8mPb2RaPkNk2rN7BKi8",
        "reception_time": "2022-01-15T11:19:14.788-00:00",
        "errors":
          [ { "kind": "temporary",
              "id": "proto.011-PtHangz2.prefilter.outdated_endorsement" } ],
        "included_in_blocks":
          [ "BMN1wadDHcooPqXt1YGtBE1eMQRRvmAskkB5m25BubZ6sNxcwUA" ] },
      { "delegate": "tz1irJKkXS2DBWkU1NnmFQx1c1L7pbGg4yhk",
        "reception_time": "2022-01-15T11:19:14.774-00:00",
        "errors":
          [ { "kind": "temporary",
              "id": "proto.011-PtHangz2.prefilter.outdated_endorsement" } ],
        "included_in_blocks":
          [ "BMN1wadDHcooPqXt1YGtBE1eMQRRvmAskkB5m25BubZ6sNxcwUA" ] },
      { "delegate": "tz1STeamwbp68THcny9zk3LsbG3H36DMvbRK",
        "reception_time": "2022-01-15T11:19:14.765-00:00",
        "errors":
          [ { "kind": "temporary",
              "id": "proto.011-PtHangz2.prefilter.outdated_endorsement" } ],
        "included_in_blocks":
          [ "BMN1wadDHcooPqXt1YGtBE1eMQRRvmAskkB5m25BubZ6sNxcwUA" ] },
      { "delegate": "tz1P2Po7YM526ughEsRbY4oR9zaUPDZjxFrb",
        "reception_time": "2022-01-15T11:19:14.750-00:00",
        "errors":
          [ { "kind": "temporary",
              "id": "proto.011-PtHangz2.prefilter.outdated_endorsement" } ],
        "included_in_blocks":
          [ "BMN1wadDHcooPqXt1YGtBE1eMQRRvmAskkB5m25BubZ6sNxcwUA" ] },
      { "delegate": "tz1Scdr2HsZiQjc7bHMeBbmDRXYVvdhjJbBh",
        "reception_time": "2022-01-15T11:19:14.739-00:00",
        "errors":
          [ { "kind": "temporary",
              "id": "proto.011-PtHangz2.prefilter.outdated_endorsement" } ],
        "included_in_blocks":
          [ "BMN1wadDHcooPqXt1YGtBE1eMQRRvmAskkB5m25BubZ6sNxcwUA" ] },
      { "delegate": "tz1MXFrtZoaXckE41bjUCSjAjAap3AFDSr3N",
        "reception_time": "2022-01-15T11:19:14.434-00:00",
        "errors":
          [ { "kind": "temporary",
              "id": "proto.011-PtHangz2.prefilter.outdated_endorsement" } ],
        "included_in_blocks":
          [ "BMN1wadDHcooPqXt1YGtBE1eMQRRvmAskkB5m25BubZ6sNxcwUA" ] },
      { "delegate": "tz1VQnqCCqX4K5sP3FNkVSNKTdCAMJDd3E1n",
        "reception_time": "2022-01-15T11:19:14.209-00:00",
        "errors":
          [ { "kind": "temporary",
              "id": "proto.011-PtHangz2.prefilter.outdated_endorsement" } ],
        "included_in_blocks":
          [ "BMN1wadDHcooPqXt1YGtBE1eMQRRvmAskkB5m25BubZ6sNxcwUA" ] },
      { "delegate": "tz1gUNyn3hmnEWqkusWPzxRaon1cs7ndWh7h",
        "reception_time": "2022-01-15T11:19:14.202-00:00",
        "errors":
          [ { "kind": "temporary",
              "id": "proto.011-PtHangz2.prefilter.outdated_endorsement" } ],
        "included_in_blocks":
          [ "BMN1wadDHcooPqXt1YGtBE1eMQRRvmAskkB5m25BubZ6sNxcwUA" ] },
      { "delegate": "tz1S8e9GgdZG78XJRB3NqabfWeM37GnhZMWQ",
        "reception_time": "2022-01-15T11:19:14.110-00:00",
        "errors":
          [ { "kind": "temporary",
              "id": "proto.011-PtHangz2.prefilter.outdated_endorsement" } ],
        "included_in_blocks":
          [ "BMN1wadDHcooPqXt1YGtBE1eMQRRvmAskkB5m25BubZ6sNxcwUA" ] },
      { "delegate": "tz1MQMiZHV8q4tTwUMWmS5Y3kaP6J2136iXr",
        "reception_time": "2022-01-15T11:19:16.796-00:00",
        "included_in_blocks":
          [ "BMN1wadDHcooPqXt1YGtBE1eMQRRvmAskkB5m25BubZ6sNxcwUA" ] },
      { "delegate": "tz1d6Fx42mYgVFnHUW8T8A7WBfJ6nD9pVok8",
        "reception_time": "2022-01-15T11:19:17.097-00:00",
        "included_in_blocks":
          [ "BMN1wadDHcooPqXt1YGtBE1eMQRRvmAskkB5m25BubZ6sNxcwUA" ] },
      { "delegate": "tz1W1f1JrE7VsqgpUpj1iiDobqP5TixgZhDk",
        "reception_time": "2022-01-15T11:19:17.097-00:00",
        "included_in_blocks":
          [ "BMN1wadDHcooPqXt1YGtBE1eMQRRvmAskkB5m25BubZ6sNxcwUA" ] },
      { "delegate": "tz1PWCDnz783NNGGQjEFFsHtrcK5yBW4E2rm",
        "reception_time": "2022-01-15T11:19:17.102-00:00",
        "included_in_blocks":
          [ "BMN1wadDHcooPqXt1YGtBE1eMQRRvmAskkB5m25BubZ6sNxcwUA" ] },
      { "delegate": "tz1LnWa4AiFCjMezTgSNa65QFoo7DQGEWgEU",
        "reception_time": "2022-01-15T11:19:17.106-00:00",
        "included_in_blocks":
          [ "BMN1wadDHcooPqXt1YGtBE1eMQRRvmAskkB5m25BubZ6sNxcwUA" ] },
      { "delegate": "tz1fb7c66UwePkkfDXz4ajFaBP9hVNLdS7JJ",
        "reception_time": "2022-01-15T11:19:17.110-00:00",
        "included_in_blocks":
          [ "BMN1wadDHcooPqXt1YGtBE1eMQRRvmAskkB5m25BubZ6sNxcwUA" ] },
      { "delegate": "tz3bTdwZinP8U1JmSweNzVKhmwafqWmFWRfk",
        "reception_time": "2022-01-15T11:19:17.120-00:00",
        "included_in_blocks":
          [ "BMN1wadDHcooPqXt1YGtBE1eMQRRvmAskkB5m25BubZ6sNxcwUA" ] },
      { "delegate": "tz1MJx9vhaNRSimcuXPK2rW4fLccQnDAnVKJ",
        "reception_time": "2022-01-15T11:19:17.124-00:00",
        "included_in_blocks":
          [ "BMN1wadDHcooPqXt1YGtBE1eMQRRvmAskkB5m25BubZ6sNxcwUA" ] },
      { "delegate": "tz1bZ8vsMAXmaWEV7FRnyhcuUs2fYMaQ6Hkk",
        "reception_time": "2022-01-15T11:19:17.132-00:00",
        "included_in_blocks":
          [ "BMN1wadDHcooPqXt1YGtBE1eMQRRvmAskkB5m25BubZ6sNxcwUA" ] },
      { "delegate": "tz1WBfwbT66FC6BTLexc2BoyCCBM9LG7pnVW",
        "reception_time": "2022-01-15T11:19:17.135-00:00",
        "included_in_blocks":
          [ "BMN1wadDHcooPqXt1YGtBE1eMQRRvmAskkB5m25BubZ6sNxcwUA" ] },
      { "delegate": "tz3NDpRj6WBrJPikcPVHRBEjWKxFw3c6eQPS",
        "reception_time": "2022-01-15T11:19:17.142-00:00",
        "included_in_blocks":
          [ "BMN1wadDHcooPqXt1YGtBE1eMQRRvmAskkB5m25BubZ6sNxcwUA" ] },
      { "delegate": "tz1fUyqYH7H4pRHN1roWY17giXhy1RvxjgUV",
        "reception_time": "2022-01-15T11:19:17.145-00:00",
        "included_in_blocks":
          [ "BMN1wadDHcooPqXt1YGtBE1eMQRRvmAskkB5m25BubZ6sNxcwUA" ] },
      { "delegate": "tz1ei4WtWEMEJekSv8qDnu9PExG6Q8HgRGr3",
        "reception_time": "2022-01-15T11:19:17.148-00:00",
        "included_in_blocks":
          [ "BMN1wadDHcooPqXt1YGtBE1eMQRRvmAskkB5m25BubZ6sNxcwUA" ] },
      { "delegate": "tz1UJvHTgpVzcKWhTazGxVcn5wsHru5Gietg",
        "reception_time": "2022-01-15T11:19:17.151-00:00",
        "included_in_blocks":
          [ "BMN1wadDHcooPqXt1YGtBE1eMQRRvmAskkB5m25BubZ6sNxcwUA" ] },
      { "delegate": "tz3bvNMQ95vfAYtG8193ymshqjSvmxiCUuR5",
        "reception_time": "2022-01-15T11:19:17.159-00:00",
        "included_in_blocks":
          [ "BMN1wadDHcooPqXt1YGtBE1eMQRRvmAskkB5m25BubZ6sNxcwUA" ] },
      { "delegate": "tz1gfArv665EUkSg2ojMBzcbfwuPxAvqPvjo",
        "reception_time": "2022-01-15T11:19:17.162-00:00",
        "included_in_blocks":
          [ "BMN1wadDHcooPqXt1YGtBE1eMQRRvmAskkB5m25BubZ6sNxcwUA" ] },
      { "delegate": "tz1S8MNvuFEUsWgjHvi3AxibRBf388NhT1q2",
        "reception_time": "2022-01-15T11:19:17.167-00:00",
        "included_in_blocks":
          [ "BMN1wadDHcooPqXt1YGtBE1eMQRRvmAskkB5m25BubZ6sNxcwUA" ] },
      { "delegate": "tz3UoffC7FG7zfpmvmjUmUeAaHvzdcUvAj6r",
        "reception_time": "2022-01-15T11:19:17.174-00:00",
        "included_in_blocks":
          [ "BMN1wadDHcooPqXt1YGtBE1eMQRRvmAskkB5m25BubZ6sNxcwUA" ] },
      { "delegate": "tz1aDiEJf9ztRrAJEXZfcG3CKimoKsGhwVAi",
        "reception_time": "2022-01-15T11:19:17.245-00:00",
        "included_in_blocks":
          [ "BMN1wadDHcooPqXt1YGtBE1eMQRRvmAskkB5m25BubZ6sNxcwUA" ] },
      { "delegate": "tz1Nf6tsK4G6bBqgSQERy4nUtkHNKUVdh7q1",
        "reception_time": "2022-01-15T11:19:17.290-00:00",
        "included_in_blocks":
          [ "BMN1wadDHcooPqXt1YGtBE1eMQRRvmAskkB5m25BubZ6sNxcwUA" ] },
      { "delegate": "tz1LmaFsWRkjr7QMCx5PtV6xTUz3AmEpKQiF",
        "reception_time": "2022-01-15T11:19:17.325-00:00",
        "included_in_blocks":
          [ "BMN1wadDHcooPqXt1YGtBE1eMQRRvmAskkB5m25BubZ6sNxcwUA" ] },
      { "delegate": "tz3VEZ4k6a4Wx42iyev6i2aVAptTRLEAivNN",
        "reception_time": "2022-01-15T11:19:17.337-00:00",
        "included_in_blocks":
          [ "BMN1wadDHcooPqXt1YGtBE1eMQRRvmAskkB5m25BubZ6sNxcwUA" ] },
      { "delegate": "tz1TEc75UKXv4W5cwi14Na3NtqFD51yKQi7h",
        "reception_time": "2022-01-15T11:19:17.407-00:00",
        "included_in_blocks":
          [ "BMN1wadDHcooPqXt1YGtBE1eMQRRvmAskkB5m25BubZ6sNxcwUA" ] },
      { "delegate": "tz3RDC3Jdn4j15J7bBHZd29EUee9gVB1CxD9",
        "reception_time": "2022-01-15T11:19:17.456-00:00",
        "included_in_blocks":
          [ "BMN1wadDHcooPqXt1YGtBE1eMQRRvmAskkB5m25BubZ6sNxcwUA" ] },
      { "delegate": "tz1RpeqCseogMpCPXpyGjhmLH9i9DhqJ8cUR",
        "reception_time": "2022-01-15T11:19:17.471-00:00",
        "included_in_blocks":
          [ "BMN1wadDHcooPqXt1YGtBE1eMQRRvmAskkB5m25BubZ6sNxcwUA" ] },
      { "delegate": "tz3RB4aoyjov4KEVRbuhvQ1CKJgBJMWhaeB8",
        "reception_time": "2022-01-15T11:19:17.557-00:00",
        "included_in_blocks":
          [ "BMN1wadDHcooPqXt1YGtBE1eMQRRvmAskkB5m25BubZ6sNxcwUA" ] },
      { "delegate": "tz1aRoaRhSpRYvFdyvgWLL6TGyRoGF51wDjM",
        "reception_time": "2022-01-15T11:19:17.578-00:00",
        "included_in_blocks":
          [ "BMN1wadDHcooPqXt1YGtBE1eMQRRvmAskkB5m25BubZ6sNxcwUA" ] },
      { "delegate": "tz3WMqdzXqRWXwyvj5Hp2H7QEepaUuS7vd9K",
        "reception_time": "2022-01-15T11:19:17.593-00:00",
        "included_in_blocks":
          [ "BMN1wadDHcooPqXt1YGtBE1eMQRRvmAskkB5m25BubZ6sNxcwUA" ] },
      { "delegate": "tz3NExpXn9aPNZPorRE4SdjJ2RGrfbJgMAaV",
        "reception_time": "2022-01-15T11:19:17.746-00:00",
        "included_in_blocks":
          [ "BMN1wadDHcooPqXt1YGtBE1eMQRRvmAskkB5m25BubZ6sNxcwUA" ] },
      { "delegate": "tz1dRKU4FQ9QRRQPdaH4zCR6gmCmXfcvcgtB",
        "reception_time": "2022-01-15T11:19:17.751-00:00",
        "included_in_blocks":
          [ "BMN1wadDHcooPqXt1YGtBE1eMQRRvmAskkB5m25BubZ6sNxcwUA" ] },
      { "delegate": "tz3adcvQaKXTCg12zbninqo3q8ptKKtDFTLv",
        "reception_time": "2022-01-15T11:19:17.906-00:00",
        "included_in_blocks":
          [ "BMN1wadDHcooPqXt1YGtBE1eMQRRvmAskkB5m25BubZ6sNxcwUA" ] },
      { "delegate": "tz1RCFbB9GpALpsZtu6J58sb74dm8qe6XBzv",
        "reception_time": "2022-01-15T11:19:18.234-00:00",
        "included_in_blocks":
          [ "BMN1wadDHcooPqXt1YGtBE1eMQRRvmAskkB5m25BubZ6sNxcwUA" ] },
      { "delegate": "tz1PeZx7FXy7QRuMREGXGxeipb24RsMMzUNe",
        "reception_time": "2022-01-15T11:19:18.668-00:00",
        "included_in_blocks":
          [ "BMN1wadDHcooPqXt1YGtBE1eMQRRvmAskkB5m25BubZ6sNxcwUA" ] },
      { "delegate": "tz1RjoHc98dBoqaH2jawF62XNKh7YsHwbkEv",
        "reception_time": "2022-01-15T11:19:18.687-00:00",
        "included_in_blocks":
          [ "BMN1wadDHcooPqXt1YGtBE1eMQRRvmAskkB5m25BubZ6sNxcwUA" ] },
      { "delegate": "tz1T7duV5gZWSTq4YpBGbXNLTfznCLDrFxvs",
        "reception_time": "2022-01-15T11:19:18.831-00:00",
        "included_in_blocks":
          [ "BMN1wadDHcooPqXt1YGtBE1eMQRRvmAskkB5m25BubZ6sNxcwUA" ] },
      { "delegate": "tz2FCNBrERXtaTtNX6iimR1UJ5JSDxvdHM93",
        "reception_time": "2022-01-15T11:19:19.238-00:00",
        "included_in_blocks":
          [ "BMN1wadDHcooPqXt1YGtBE1eMQRRvmAskkB5m25BubZ6sNxcwUA" ] },
      { "delegate": "tz1Xsrfv6hn86fp88YfRs6xcKwt2nTqxVZYM",
        "reception_time": "2022-01-15T11:19:19.320-00:00",
        "included_in_blocks":
          [ "BMN1wadDHcooPqXt1YGtBE1eMQRRvmAskkB5m25BubZ6sNxcwUA" ] },
      { "delegate": "tz1ZcTRk5uxD86EFEn1vvNffWWqJy7q5eVhc",
        "reception_time": "2022-01-15T11:19:19.416-00:00",
        "included_in_blocks":
          [ "BMN1wadDHcooPqXt1YGtBE1eMQRRvmAskkB5m25BubZ6sNxcwUA" ] },
      { "delegate": "tz1TcH4Nb3aHNDJ7CGZhU7jgAK1BkSP4Lxds",
        "reception_time": "2022-01-15T11:19:19.699-00:00",
        "included_in_blocks":
          [ "BMN1wadDHcooPqXt1YGtBE1eMQRRvmAskkB5m25BubZ6sNxcwUA" ] },
      { "delegate": "tz1SYq214SCBy9naR6cvycQsYcUGpBqQAE8d",
        "reception_time": "2022-01-15T11:19:20.544-00:00",
        "included_in_blocks":
          [ "BMN1wadDHcooPqXt1YGtBE1eMQRRvmAskkB5m25BubZ6sNxcwUA" ] },
      { "delegate": "tz1g8vkmcde6sWKaG2NN9WKzCkDM6Rziq194",
        "reception_time": "2022-01-15T11:19:21.300-00:00",
        "included_in_blocks":
          [ "BMN1wadDHcooPqXt1YGtBE1eMQRRvmAskkB5m25BubZ6sNxcwUA" ] },
      { "delegate": "tz1hAYfexyzPGG6RhZZMpDvAHifubsbb6kgn",
        "reception_time": "2022-01-15T11:19:21.727-00:00",
        "included_in_blocks":
          [ "BMN1wadDHcooPqXt1YGtBE1eMQRRvmAskkB5m25BubZ6sNxcwUA" ] },
      { "delegate": "tz1cYufsxHXJcvANhvS55h3aY32a9BAFB494",
        "reception_time": "2022-01-15T11:19:21.787-00:00",
        "included_in_blocks":
          [ "BMN1wadDHcooPqXt1YGtBE1eMQRRvmAskkB5m25BubZ6sNxcwUA" ] },
      { "delegate": "tz1TRqbYbUf2GyrjErf3hBzgBJPzW8y36qEs",
        "reception_time": "2022-01-15T11:19:22.259-00:00",
        "included_in_blocks":
          [ "BMN1wadDHcooPqXt1YGtBE1eMQRRvmAskkB5m25BubZ6sNxcwUA" ] },
      { "delegate": "tz1hA2m6dTgvtgZPXmP6MEauqiYWpD3KXaRy",
        "reception_time": "2022-01-15T11:19:22.658-00:00",
        "included_in_blocks":
          [ "BMN1wadDHcooPqXt1YGtBE1eMQRRvmAskkB5m25BubZ6sNxcwUA" ] },
      { "delegate": "tz1awXW7wuXy21c66vBudMXQVAPgRnqqwgTH",
        "reception_time": "2022-01-15T11:19:23.393-00:00",
        "included_in_blocks":
          [ "BMN1wadDHcooPqXt1YGtBE1eMQRRvmAskkB5m25BubZ6sNxcwUA" ] },
      { "delegate": "tz1WnyXakHZKotpQHxevTnLmomz5rTwdiccy",
        "reception_time": "2022-01-15T11:19:25.687-00:00",
        "included_in_blocks":
          [ "BMN1wadDHcooPqXt1YGtBE1eMQRRvmAskkB5m25BubZ6sNxcwUA" ] },
      { "delegate": "tz1NpWrAyDL9k2Lmnyxcgr9xuJakbBxdq7FB",
        "reception_time": "2022-01-15T11:19:32.101-00:00",
        "included_in_blocks":
          [ "BMN1wadDHcooPqXt1YGtBE1eMQRRvmAskkB5m25BubZ6sNxcwUA" ] } ] }