{ "blocks":
    [ { "hash": "BMVDxL9SynvhXXifh3QYxJNoWiircuUrMfpHnCRtRaM8YkDXKsw",
        "delegate": "tz3Zhs2dygr55yHyQyKjntAtY9bgfhLZ4Xj1",
        "reception_time": "2022-01-15T10:04:51.079-00:00",
        "timestamp": "2022-01-15T10:04:40Z" } ],
  "endorsements":
    [ { "delegate": "tz1NpWrAyDL9k2Lmnyxcgr9xuJakbBxdq7FB",
        "reception_time": "2022-01-15T10:05:11.197-00:00" },
      { "delegate": "tz1go7f6mEQfT2xX2LuHAqgnRGN6c2zHPf5c",
        "reception_time": "2022-01-15T10:05:02.346-00:00",
        "included_in_blocks":
          [ "BMV38J93eik6QMa2Ttrnv6gMkL2JsayLu35MLrpny8z9WpXuP7Q" ] },
      { "delegate": "tz3e7LbZvUtoXhpUD1yb6wuFodZpfYRb9nWJ",
        "reception_time": "2022-01-15T10:04:59.178-00:00",
        "included_in_blocks":
          [ "BMV38J93eik6QMa2Ttrnv6gMkL2JsayLu35MLrpny8z9WpXuP7Q" ] },
      { "delegate": "tz1awXW7wuXy21c66vBudMXQVAPgRnqqwgTH",
        "reception_time": "2022-01-15T10:04:59.159-00:00",
        "included_in_blocks":
          [ "BMV38J93eik6QMa2Ttrnv6gMkL2JsayLu35MLrpny8z9WpXuP7Q" ] },
      { "delegate": "tz1TRqbYbUf2GyrjErf3hBzgBJPzW8y36qEs",
        "reception_time": "2022-01-15T10:04:57.638-00:00",
        "included_in_blocks":
          [ "BMV38J93eik6QMa2Ttrnv6gMkL2JsayLu35MLrpny8z9WpXuP7Q" ] },
      { "delegate": "tz2BzJTyoQp8fNbfhWD4YQgH9JJHDgSGzpdG",
        "reception_time": "2022-01-15T10:04:57.442-00:00",
        "included_in_blocks":
          [ "BMV38J93eik6QMa2Ttrnv6gMkL2JsayLu35MLrpny8z9WpXuP7Q" ] },
      { "delegate": "tz1RCFbB9GpALpsZtu6J58sb74dm8qe6XBzv",
        "reception_time": "2022-01-15T10:04:56.472-00:00",
        "included_in_blocks":
          [ "BMV38J93eik6QMa2Ttrnv6gMkL2JsayLu35MLrpny8z9WpXuP7Q" ] },
      { "delegate": "tz1cYufsxHXJcvANhvS55h3aY32a9BAFB494",
        "reception_time": "2022-01-15T10:04:56.377-00:00",
        "included_in_blocks":
          [ "BMV38J93eik6QMa2Ttrnv6gMkL2JsayLu35MLrpny8z9WpXuP7Q" ] },
      { "delegate": "tz1chefX9Lf2XcZ4BzPtHjV4Qed6BY2ci9GE",
        "reception_time": "2022-01-15T10:04:56.217-00:00",
        "included_in_blocks":
          [ "BMV38J93eik6QMa2Ttrnv6gMkL2JsayLu35MLrpny8z9WpXuP7Q" ] },
      { "delegate": "tz1eVaNx3gCmG1EsLjijkmgAxdLYVf6Bf5Sq",
        "reception_time": "2022-01-15T10:04:55.501-00:00",
        "included_in_blocks":
          [ "BMV38J93eik6QMa2Ttrnv6gMkL2JsayLu35MLrpny8z9WpXuP7Q" ] },
      { "delegate": "tz1RjoHc98dBoqaH2jawF62XNKh7YsHwbkEv",
        "reception_time": "2022-01-15T10:04:55.043-00:00",
        "included_in_blocks":
          [ "BMV38J93eik6QMa2Ttrnv6gMkL2JsayLu35MLrpny8z9WpXuP7Q" ] },
      { "delegate": "tz1ZcTRk5uxD86EFEn1vvNffWWqJy7q5eVhc",
        "reception_time": "2022-01-15T10:04:55.030-00:00",
        "included_in_blocks":
          [ "BMV38J93eik6QMa2Ttrnv6gMkL2JsayLu35MLrpny8z9WpXuP7Q" ] },
      { "delegate": "tz2FCNBrERXtaTtNX6iimR1UJ5JSDxvdHM93",
        "reception_time": "2022-01-15T10:04:54.661-00:00",
        "included_in_blocks":
          [ "BMV38J93eik6QMa2Ttrnv6gMkL2JsayLu35MLrpny8z9WpXuP7Q" ] },
      { "delegate": "tz1T7duV5gZWSTq4YpBGbXNLTfznCLDrFxvs",
        "reception_time": "2022-01-15T10:04:53.520-00:00",
        "included_in_blocks":
          [ "BMV38J93eik6QMa2Ttrnv6gMkL2JsayLu35MLrpny8z9WpXuP7Q" ] },
      { "delegate": "tz1fwnfJNgiDACshK9avfRfFbMaXrs3ghoJa",
        "reception_time": "2022-01-15T10:04:53.379-00:00",
        "included_in_blocks":
          [ "BMV38J93eik6QMa2Ttrnv6gMkL2JsayLu35MLrpny8z9WpXuP7Q" ] },
      { "delegate": "tz3NExpXn9aPNZPorRE4SdjJ2RGrfbJgMAaV",
        "reception_time": "2022-01-15T10:04:53.037-00:00",
        "included_in_blocks":
          [ "BMV38J93eik6QMa2Ttrnv6gMkL2JsayLu35MLrpny8z9WpXuP7Q" ] },
      { "delegate": "tz1NEKxGEHsFufk87CVZcrqWu8o22qh46GK6",
        "reception_time": "2022-01-15T10:04:53.018-00:00",
        "included_in_blocks":
          [ "BMV38J93eik6QMa2Ttrnv6gMkL2JsayLu35MLrpny8z9WpXuP7Q" ] },
      { "delegate": "tz3adcvQaKXTCg12zbninqo3q8ptKKtDFTLv",
        "reception_time": "2022-01-15T10:04:52.993-00:00",
        "included_in_blocks":
          [ "BMV38J93eik6QMa2Ttrnv6gMkL2JsayLu35MLrpny8z9WpXuP7Q" ] },
      { "delegate": "tz1TEc75UKXv4W5cwi14Na3NtqFD51yKQi7h",
        "reception_time": "2022-01-15T10:04:52.764-00:00",
        "included_in_blocks":
          [ "BMV38J93eik6QMa2Ttrnv6gMkL2JsayLu35MLrpny8z9WpXuP7Q" ] },
      { "delegate": "tz3UoffC7FG7zfpmvmjUmUeAaHvzdcUvAj6r",
        "reception_time": "2022-01-15T10:04:52.621-00:00",
        "included_in_blocks":
          [ "BMV38J93eik6QMa2Ttrnv6gMkL2JsayLu35MLrpny8z9WpXuP7Q" ] },
      { "delegate": "tz3RDC3Jdn4j15J7bBHZd29EUee9gVB1CxD9",
        "reception_time": "2022-01-15T10:04:52.462-00:00",
        "included_in_blocks":
          [ "BMV38J93eik6QMa2Ttrnv6gMkL2JsayLu35MLrpny8z9WpXuP7Q" ] },
      { "delegate": "tz1dRKU4FQ9QRRQPdaH4zCR6gmCmXfcvcgtB",
        "reception_time": "2022-01-15T10:04:52.458-00:00",
        "included_in_blocks":
          [ "BMV38J93eik6QMa2Ttrnv6gMkL2JsayLu35MLrpny8z9WpXuP7Q" ] },
      { "delegate": "tz1aRoaRhSpRYvFdyvgWLL6TGyRoGF51wDjM",
        "reception_time": "2022-01-15T10:04:52.458-00:00",
        "included_in_blocks":
          [ "BMV38J93eik6QMa2Ttrnv6gMkL2JsayLu35MLrpny8z9WpXuP7Q" ] },
      { "delegate": "tz3VEZ4k6a4Wx42iyev6i2aVAptTRLEAivNN",
        "reception_time": "2022-01-15T10:04:52.458-00:00",
        "included_in_blocks":
          [ "BMV38J93eik6QMa2Ttrnv6gMkL2JsayLu35MLrpny8z9WpXuP7Q" ] },
      { "delegate": "tz1S8MNvuFEUsWgjHvi3AxibRBf388NhT1q2",
        "reception_time": "2022-01-15T10:04:52.360-00:00",
        "included_in_blocks":
          [ "BMV38J93eik6QMa2Ttrnv6gMkL2JsayLu35MLrpny8z9WpXuP7Q" ] },
      { "delegate": "tz1KfEsrtDaA1sX7vdM4qmEPWuSytuqCDp5j",
        "reception_time": "2022-01-15T10:04:52.360-00:00",
        "included_in_blocks":
          [ "BMV38J93eik6QMa2Ttrnv6gMkL2JsayLu35MLrpny8z9WpXuP7Q" ] },
      { "delegate": "tz3WMqdzXqRWXwyvj5Hp2H7QEepaUuS7vd9K",
        "reception_time": "2022-01-15T10:04:52.360-00:00",
        "included_in_blocks":
          [ "BMV38J93eik6QMa2Ttrnv6gMkL2JsayLu35MLrpny8z9WpXuP7Q" ] },
      { "delegate": "tz1fZ767VDbqx4DeKiFswPSHh513f51mKEUZ",
        "reception_time": "2022-01-15T10:04:52.360-00:00",
        "included_in_blocks":
          [ "BMV38J93eik6QMa2Ttrnv6gMkL2JsayLu35MLrpny8z9WpXuP7Q" ] },
      { "delegate": "tz1Nf6tsK4G6bBqgSQERy4nUtkHNKUVdh7q1",
        "reception_time": "2022-01-15T10:04:52.360-00:00",
        "included_in_blocks":
          [ "BMV38J93eik6QMa2Ttrnv6gMkL2JsayLu35MLrpny8z9WpXuP7Q" ] },
      { "delegate": "tz1SUgyRB8T5jXgXAwS33pgRHAKrafyg87Yc",
        "reception_time": "2022-01-15T10:04:52.360-00:00",
        "included_in_blocks":
          [ "BMV38J93eik6QMa2Ttrnv6gMkL2JsayLu35MLrpny8z9WpXuP7Q" ] },
      { "delegate": "tz1SohptP53wDPZhzTWzDUFAUcWF6DMBpaJV",
        "reception_time": "2022-01-15T10:04:52.294-00:00",
        "included_in_blocks":
          [ "BMV38J93eik6QMa2Ttrnv6gMkL2JsayLu35MLrpny8z9WpXuP7Q" ] },
      { "delegate": "tz3bvNMQ95vfAYtG8193ymshqjSvmxiCUuR5",
        "reception_time": "2022-01-15T10:04:52.294-00:00",
        "included_in_blocks":
          [ "BMV38J93eik6QMa2Ttrnv6gMkL2JsayLu35MLrpny8z9WpXuP7Q" ] },
      { "delegate": "tz1MQJPGNMijnXnVoBENFz9rUhaPt3S7rWoz",
        "reception_time": "2022-01-15T10:04:52.294-00:00",
        "included_in_blocks":
          [ "BMV38J93eik6QMa2Ttrnv6gMkL2JsayLu35MLrpny8z9WpXuP7Q" ] },
      { "delegate": "tz1V4qCyvPKZ5UeqdH14HN42rxvNPQfc9UZg",
        "reception_time": "2022-01-15T10:04:52.294-00:00",
        "included_in_blocks":
          [ "BMV38J93eik6QMa2Ttrnv6gMkL2JsayLu35MLrpny8z9WpXuP7Q" ] },
      { "delegate": "tz3NDpRj6WBrJPikcPVHRBEjWKxFw3c6eQPS",
        "reception_time": "2022-01-15T10:04:52.294-00:00",
        "included_in_blocks":
          [ "BMV38J93eik6QMa2Ttrnv6gMkL2JsayLu35MLrpny8z9WpXuP7Q" ] },
      { "delegate": "tz1ei4WtWEMEJekSv8qDnu9PExG6Q8HgRGr3",
        "reception_time": "2022-01-15T10:04:52.294-00:00",
        "included_in_blocks":
          [ "BMV38J93eik6QMa2Ttrnv6gMkL2JsayLu35MLrpny8z9WpXuP7Q" ] },
      { "delegate": "tz1WBfwbT66FC6BTLexc2BoyCCBM9LG7pnVW",
        "reception_time": "2022-01-15T10:04:52.235-00:00",
        "included_in_blocks":
          [ "BMV38J93eik6QMa2Ttrnv6gMkL2JsayLu35MLrpny8z9WpXuP7Q" ] },
      { "delegate": "tz1dbfppLAAxXZNtf2SDps7rch3qfUznKSoK" },
      { "delegate": "tz1TRspM5SeZpaQUhzByXbEvqKF1vnCM2YTK" },
      { "delegate": "tz1Lhf4J9Qxoe3DZ2nfe8FGDnvVj7oKjnMY6",
        "reception_time": "2022-01-15T10:04:49.436-00:00",
        "errors":
          [ { "kind": "temporary",
              "id": "proto.011-PtHangz2.prefilter.outdated_endorsement" } ],
        "included_in_blocks":
          [ "BMV38J93eik6QMa2Ttrnv6gMkL2JsayLu35MLrpny8z9WpXuP7Q" ] },
      { "delegate": "tz1irJKkXS2DBWkU1NnmFQx1c1L7pbGg4yhk",
        "reception_time": "2022-01-15T10:04:49.543-00:00",
        "errors":
          [ { "kind": "temporary",
              "id": "proto.011-PtHangz2.prefilter.outdated_endorsement" } ],
        "included_in_blocks":
          [ "BMV38J93eik6QMa2Ttrnv6gMkL2JsayLu35MLrpny8z9WpXuP7Q" ] },
      { "delegate": "tz3iJu5vrKZcsqRPs8yJ61UDoeEXZmtro4qh",
        "reception_time": "2022-01-15T10:04:49.579-00:00",
        "errors":
          [ { "kind": "temporary",
              "id": "proto.011-PtHangz2.prefilter.outdated_endorsement" } ],
        "included_in_blocks":
          [ "BMV38J93eik6QMa2Ttrnv6gMkL2JsayLu35MLrpny8z9WpXuP7Q" ] },
      { "delegate": "tz3Zhs2dygr55yHyQyKjntAtY9bgfhLZ4Xj1",
        "reception_time": "2022-01-15T10:04:49.670-00:00",
        "errors":
          [ { "kind": "temporary",
              "id": "proto.011-PtHangz2.prefilter.outdated_endorsement" } ],
        "included_in_blocks":
          [ "BMV38J93eik6QMa2Ttrnv6gMkL2JsayLu35MLrpny8z9WpXuP7Q" ] },
      { "delegate": "tz3ZbP2pM3nwvXztbuMJwJnDvV5xdpU8UkkD",
        "reception_time": "2022-01-15T10:04:49.672-00:00",
        "errors":
          [ { "kind": "temporary",
              "id": "proto.011-PtHangz2.prefilter.outdated_endorsement" } ],
        "included_in_blocks":
          [ "BMV38J93eik6QMa2Ttrnv6gMkL2JsayLu35MLrpny8z9WpXuP7Q" ] },
      { "delegate": "tz1eEnQhbwf6trb8Q8mPb2RaPkNk2rN7BKi8",
        "reception_time": "2022-01-15T10:04:49.718-00:00",
        "errors":
          [ { "kind": "temporary",
              "id": "proto.011-PtHangz2.prefilter.outdated_endorsement" } ],
        "included_in_blocks":
          [ "BMV38J93eik6QMa2Ttrnv6gMkL2JsayLu35MLrpny8z9WpXuP7Q" ] },
      { "delegate": "tz1P2Po7YM526ughEsRbY4oR9zaUPDZjxFrb",
        "reception_time": "2022-01-15T10:04:49.842-00:00",
        "errors":
          [ { "kind": "temporary",
              "id": "proto.011-PtHangz2.prefilter.outdated_endorsement" } ],
        "included_in_blocks":
          [ "BMV38J93eik6QMa2Ttrnv6gMkL2JsayLu35MLrpny8z9WpXuP7Q" ] },
      { "delegate": "tz3gtoUxdudfBRcNY7iVdKPHCYYX6xdPpoRS",
        "reception_time": "2022-01-15T10:04:49.881-00:00",
        "errors":
          [ { "kind": "temporary",
              "id": "proto.011-PtHangz2.prefilter.outdated_endorsement" } ],
        "included_in_blocks":
          [ "BMV38J93eik6QMa2Ttrnv6gMkL2JsayLu35MLrpny8z9WpXuP7Q" ] },
      { "delegate": "tz3QSGPoRp3Kn7n3vY24eYeu3Peuqo45LQ4D",
        "reception_time": "2022-01-15T10:04:49.882-00:00",
        "errors":
          [ { "kind": "temporary",
              "id": "proto.011-PtHangz2.prefilter.outdated_endorsement" } ],
        "included_in_blocks":
          [ "BMV38J93eik6QMa2Ttrnv6gMkL2JsayLu35MLrpny8z9WpXuP7Q" ] },
      { "delegate": "tz1STeamwbp68THcny9zk3LsbG3H36DMvbRK",
        "reception_time": "2022-01-15T10:04:49.954-00:00",
        "errors":
          [ { "kind": "temporary",
              "id": "proto.011-PtHangz2.prefilter.outdated_endorsement" } ],
        "included_in_blocks":
          [ "BMV38J93eik6QMa2Ttrnv6gMkL2JsayLu35MLrpny8z9WpXuP7Q" ] },
      { "delegate": "tz1Ldzz6k1BHdhuKvAtMRX7h5kJSMHESMHLC",
        "reception_time": "2022-01-15T10:04:50.009-00:00",
        "errors":
          [ { "kind": "temporary",
              "id": "proto.011-PtHangz2.prefilter.outdated_endorsement" } ],
        "included_in_blocks":
          [ "BMV38J93eik6QMa2Ttrnv6gMkL2JsayLu35MLrpny8z9WpXuP7Q" ] },
      { "delegate": "tz1Scdr2HsZiQjc7bHMeBbmDRXYVvdhjJbBh",
        "reception_time": "2022-01-15T10:04:50.073-00:00",
        "errors":
          [ { "kind": "temporary",
              "id": "proto.011-PtHangz2.prefilter.outdated_endorsement" } ],
        "included_in_blocks":
          [ "BMV38J93eik6QMa2Ttrnv6gMkL2JsayLu35MLrpny8z9WpXuP7Q" ] },
      { "delegate": "tz3QCNyySViKHmeSr45kzDxzchys7NiXCWoa",
        "reception_time": "2022-01-15T10:04:50.106-00:00",
        "errors":
          [ { "kind": "temporary",
              "id": "proto.011-PtHangz2.prefilter.outdated_endorsement" } ],
        "included_in_blocks":
          [ "BMV38J93eik6QMa2Ttrnv6gMkL2JsayLu35MLrpny8z9WpXuP7Q" ] },
      { "delegate": "tz3hw2kqXhLUvY65ca1eety2oQTpAvd34R9Q",
        "reception_time": "2022-01-15T10:04:50.144-00:00",
        "errors":
          [ { "kind": "temporary",
              "id": "proto.011-PtHangz2.prefilter.outdated_endorsement" } ],
        "included_in_blocks":
          [ "BMV38J93eik6QMa2Ttrnv6gMkL2JsayLu35MLrpny8z9WpXuP7Q" ] },
      { "delegate": "tz3RKYFsLuQzKBtmYuLNas7uMu3AsYd4QdsA",
        "reception_time": "2022-01-15T10:04:50.199-00:00",
        "errors":
          [ { "kind": "temporary",
              "id": "proto.011-PtHangz2.prefilter.outdated_endorsement" } ],
        "included_in_blocks":
          [ "BMV38J93eik6QMa2Ttrnv6gMkL2JsayLu35MLrpny8z9WpXuP7Q" ] },
      { "delegate": "tz3S6BBeKgJGXxvLyZ1xzXzMPn11nnFtq5L9",
        "reception_time": "2022-01-15T10:04:50.231-00:00",
        "errors":
          [ { "kind": "temporary",
              "id": "proto.011-PtHangz2.prefilter.outdated_endorsement" } ],
        "included_in_blocks":
          [ "BMV38J93eik6QMa2Ttrnv6gMkL2JsayLu35MLrpny8z9WpXuP7Q" ] },
      { "delegate": "tz1gUNyn3hmnEWqkusWPzxRaon1cs7ndWh7h",
        "reception_time": "2022-01-15T10:04:50.309-00:00",
        "errors":
          [ { "kind": "temporary",
              "id": "proto.011-PtHangz2.prefilter.outdated_endorsement" } ],
        "included_in_blocks":
          [ "BMV38J93eik6QMa2Ttrnv6gMkL2JsayLu35MLrpny8z9WpXuP7Q" ] },
      { "delegate": "tz1VQnqCCqX4K5sP3FNkVSNKTdCAMJDd3E1n",
        "reception_time": "2022-01-15T10:04:50.316-00:00",
        "errors":
          [ { "kind": "temporary",
              "id": "proto.011-PtHangz2.prefilter.outdated_endorsement" } ],
        "included_in_blocks":
          [ "BMV38J93eik6QMa2Ttrnv6gMkL2JsayLu35MLrpny8z9WpXuP7Q" ] },
      { "delegate": "tz1VmiY38m3y95HqQLjMwqnMS7sdMfGomzKi",
        "reception_time": "2022-01-15T10:04:50.447-00:00",
        "errors":
          [ { "kind": "temporary",
              "id": "proto.011-PtHangz2.prefilter.outdated_endorsement" } ],
        "included_in_blocks":
          [ "BMV38J93eik6QMa2Ttrnv6gMkL2JsayLu35MLrpny8z9WpXuP7Q" ] },
      { "delegate": "tz3QT9dHYKDqh563chVa6za8526ys1UKfRfL",
        "reception_time": "2022-01-15T10:04:50.453-00:00",
        "errors":
          [ { "kind": "temporary",
              "id": "proto.011-PtHangz2.prefilter.outdated_endorsement" } ],
        "included_in_blocks":
          [ "BMV38J93eik6QMa2Ttrnv6gMkL2JsayLu35MLrpny8z9WpXuP7Q" ] },
      { "delegate": "tz1MJx9vhaNRSimcuXPK2rW4fLccQnDAnVKJ",
        "reception_time": "2022-01-15T10:04:50.644-00:00",
        "errors":
          [ { "kind": "temporary",
              "id": "proto.011-PtHangz2.prefilter.outdated_endorsement" } ],
        "included_in_blocks":
          [ "BMV38J93eik6QMa2Ttrnv6gMkL2JsayLu35MLrpny8z9WpXuP7Q" ] },
      { "delegate": "tz3RB4aoyjov4KEVRbuhvQ1CKJgBJMWhaeB8",
        "reception_time": "2022-01-15T10:04:50.703-00:00",
        "errors":
          [ { "kind": "temporary",
              "id": "proto.011-PtHangz2.prefilter.outdated_endorsement" } ],
        "included_in_blocks":
          [ "BMV38J93eik6QMa2Ttrnv6gMkL2JsayLu35MLrpny8z9WpXuP7Q" ] },
      { "delegate": "tz3bTdwZinP8U1JmSweNzVKhmwafqWmFWRfk",
        "reception_time": "2022-01-15T10:04:50.712-00:00",
        "errors":
          [ { "kind": "temporary",
              "id": "proto.011-PtHangz2.prefilter.outdated_endorsement" } ],
        "included_in_blocks":
          [ "BMV38J93eik6QMa2Ttrnv6gMkL2JsayLu35MLrpny8z9WpXuP7Q" ] },
      { "delegate": "tz1d6Fx42mYgVFnHUW8T8A7WBfJ6nD9pVok8",
        "reception_time": "2022-01-15T10:04:50.726-00:00",
        "errors":
          [ { "kind": "temporary",
              "id": "proto.011-PtHangz2.prefilter.outdated_endorsement" } ],
        "included_in_blocks":
          [ "BMV38J93eik6QMa2Ttrnv6gMkL2JsayLu35MLrpny8z9WpXuP7Q" ] },
      { "delegate": "tz1gfArv665EUkSg2ojMBzcbfwuPxAvqPvjo",
        "reception_time": "2022-01-15T10:04:50.755-00:00",
        "errors":
          [ { "kind": "temporary",
              "id": "proto.011-PtHangz2.prefilter.outdated_endorsement" } ],
        "included_in_blocks":
          [ "BMV38J93eik6QMa2Ttrnv6gMkL2JsayLu35MLrpny8z9WpXuP7Q" ] },
      { "delegate": "tz1WL4xAAYsQ2GM9MCQGePYcbwwu6kvfqMWN",
        "reception_time": "2022-01-15T10:04:50.821-00:00",
        "errors":
          [ { "kind": "temporary",
              "id": "proto.011-PtHangz2.prefilter.outdated_endorsement" } ],
        "included_in_blocks":
          [ "BMV38J93eik6QMa2Ttrnv6gMkL2JsayLu35MLrpny8z9WpXuP7Q" ] },
      { "delegate": "tz1UbFpJY5Hext38GisuaXQBkbzhaKJkxpEs",
        "reception_time": "2022-01-15T10:04:50.940-00:00",
        "errors":
          [ { "kind": "temporary",
              "id": "proto.011-PtHangz2.prefilter.outdated_endorsement" } ],
        "included_in_blocks":
          [ "BMV38J93eik6QMa2Ttrnv6gMkL2JsayLu35MLrpny8z9WpXuP7Q" ] } ] }