{ "blocks":
    [ { "hash": "BLQhn9T5uFJF48X4fd3VWmCCTq5PkYjToK9PA8iGqra7uwaiGCs",
        "delegate": "tz1NpWrAyDL9k2Lmnyxcgr9xuJakbBxdq7FB",
        "reception_time": "2022-01-15T05:43:51.030-00:00",
        "timestamp": "2022-01-15T05:43:30Z" } ],
  "endorsements":
    [ { "delegate": "tz1TRspM5SeZpaQUhzByXbEvqKF1vnCM2YTK" },
      { "delegate": "tz1NdhRv643wLW6zCcRP3VfT24dvDnh7nuh9" },
      { "delegate": "tz1MJx9vhaNRSimcuXPK2rW4fLccQnDAnVKJ" },
      { "delegate": "tz1Scdr2HsZiQjc7bHMeBbmDRXYVvdhjJbBh",
        "reception_time": "2022-01-15T05:43:50.999-00:00",
        "errors":
          [ { "kind": "temporary",
              "id": "proto.011-PtHangz2.prefilter.outdated_endorsement" } ],
        "included_in_blocks":
          [ "BKymqkVLn48u4BVorjVGno76FEoQfVTXQqsm73BsMcFNR5Htfz9" ] },
      { "delegate": "tz1eEnQhbwf6trb8Q8mPb2RaPkNk2rN7BKi8",
        "reception_time": "2022-01-15T05:43:50.872-00:00",
        "errors":
          [ { "kind": "temporary",
              "id": "proto.011-PtHangz2.prefilter.outdated_endorsement" } ],
        "included_in_blocks":
          [ "BKymqkVLn48u4BVorjVGno76FEoQfVTXQqsm73BsMcFNR5Htfz9" ] },
      { "delegate": "tz1irJKkXS2DBWkU1NnmFQx1c1L7pbGg4yhk",
        "reception_time": "2022-01-15T05:43:50.681-00:00",
        "errors":
          [ { "kind": "temporary",
              "id": "proto.011-PtHangz2.prefilter.outdated_endorsement" } ],
        "included_in_blocks":
          [ "BKymqkVLn48u4BVorjVGno76FEoQfVTXQqsm73BsMcFNR5Htfz9" ] },
      { "delegate": "tz1S8e9GgdZG78XJRB3NqabfWeM37GnhZMWQ",
        "reception_time": "2022-01-15T05:43:50.510-00:00",
        "errors":
          [ { "kind": "temporary",
              "id": "proto.011-PtHangz2.prefilter.outdated_endorsement" } ],
        "included_in_blocks":
          [ "BKymqkVLn48u4BVorjVGno76FEoQfVTXQqsm73BsMcFNR5Htfz9" ] },
      { "delegate": "tz1Kt4P8BCaP93AEV4eA7gmpRryWt5hznjCP",
        "reception_time": "2022-01-15T05:43:50.504-00:00",
        "errors":
          [ { "kind": "temporary",
              "id": "proto.011-PtHangz2.prefilter.outdated_endorsement" } ],
        "included_in_blocks":
          [ "BKymqkVLn48u4BVorjVGno76FEoQfVTXQqsm73BsMcFNR5Htfz9" ] },
      { "delegate": "tz1g8vkmcde6sWKaG2NN9WKzCkDM6Rziq194",
        "reception_time": "2022-01-15T05:43:59.442-00:00",
        "included_in_blocks":
          [ "BKymqkVLn48u4BVorjVGno76FEoQfVTXQqsm73BsMcFNR5Htfz9" ] },
      { "delegate": "tz1NpWrAyDL9k2Lmnyxcgr9xuJakbBxdq7FB",
        "reception_time": "2022-01-15T05:43:56.407-00:00",
        "included_in_blocks":
          [ "BKymqkVLn48u4BVorjVGno76FEoQfVTXQqsm73BsMcFNR5Htfz9" ] },
      { "delegate": "tz1aRoaRhSpRYvFdyvgWLL6TGyRoGF51wDjM",
        "reception_time": "2022-01-15T05:43:54.080-00:00",
        "included_in_blocks":
          [ "BKymqkVLn48u4BVorjVGno76FEoQfVTXQqsm73BsMcFNR5Htfz9" ] },
      { "delegate": "tz1ZcTRk5uxD86EFEn1vvNffWWqJy7q5eVhc",
        "reception_time": "2022-01-15T05:43:54.521-00:00",
        "included_in_blocks":
          [ "BKymqkVLn48u4BVorjVGno76FEoQfVTXQqsm73BsMcFNR5Htfz9" ] },
      { "delegate": "tz1dRKU4FQ9QRRQPdaH4zCR6gmCmXfcvcgtB",
        "reception_time": "2022-01-15T05:43:54.158-00:00",
        "included_in_blocks":
          [ "BKymqkVLn48u4BVorjVGno76FEoQfVTXQqsm73BsMcFNR5Htfz9" ] },
      { "delegate": "tz3bvNMQ95vfAYtG8193ymshqjSvmxiCUuR5",
        "reception_time": "2022-01-15T05:43:53.767-00:00",
        "included_in_blocks":
          [ "BKymqkVLn48u4BVorjVGno76FEoQfVTXQqsm73BsMcFNR5Htfz9" ] },
      { "delegate": "tz1NMNQYrYrfNpmUqQrMhJypf6ovnaDZhJHM",
        "reception_time": "2022-01-15T05:43:53.770-00:00",
        "included_in_blocks":
          [ "BKymqkVLn48u4BVorjVGno76FEoQfVTXQqsm73BsMcFNR5Htfz9" ] },
      { "delegate": "tz1T7duV5gZWSTq4YpBGbXNLTfznCLDrFxvs",
        "reception_time": "2022-01-15T05:43:53.899-00:00",
        "included_in_blocks":
          [ "BKymqkVLn48u4BVorjVGno76FEoQfVTXQqsm73BsMcFNR5Htfz9" ] },
      { "delegate": "tz3RDC3Jdn4j15J7bBHZd29EUee9gVB1CxD9",
        "reception_time": "2022-01-15T05:43:53.731-00:00",
        "included_in_blocks":
          [ "BKymqkVLn48u4BVorjVGno76FEoQfVTXQqsm73BsMcFNR5Htfz9" ] },
      { "delegate": "tz1TRqbYbUf2GyrjErf3hBzgBJPzW8y36qEs",
        "reception_time": "2022-01-15T05:43:53.909-00:00",
        "included_in_blocks":
          [ "BKymqkVLn48u4BVorjVGno76FEoQfVTXQqsm73BsMcFNR5Htfz9" ] },
      { "delegate": "tz1b9MYGrbN1NAxphLEsPPNT9JC7aNFc5nA4",
        "reception_time": "2022-01-15T05:43:53.977-00:00",
        "included_in_blocks":
          [ "BKymqkVLn48u4BVorjVGno76FEoQfVTXQqsm73BsMcFNR5Htfz9" ] },
      { "delegate": "tz1U7uKs3epS4JTxDV21QtsHHPuBZm7hc9mz",
        "reception_time": "2022-01-15T05:43:53.909-00:00",
        "included_in_blocks":
          [ "BKymqkVLn48u4BVorjVGno76FEoQfVTXQqsm73BsMcFNR5Htfz9" ] },
      { "delegate": "tz3UoffC7FG7zfpmvmjUmUeAaHvzdcUvAj6r",
        "reception_time": "2022-01-15T05:43:53.561-00:00",
        "included_in_blocks":
          [ "BKymqkVLn48u4BVorjVGno76FEoQfVTXQqsm73BsMcFNR5Htfz9" ] },
      { "delegate": "tz1Nf6tsK4G6bBqgSQERy4nUtkHNKUVdh7q1",
        "reception_time": "2022-01-15T05:43:53.321-00:00",
        "included_in_blocks":
          [ "BKymqkVLn48u4BVorjVGno76FEoQfVTXQqsm73BsMcFNR5Htfz9" ] },
      { "delegate": "tz1SYq214SCBy9naR6cvycQsYcUGpBqQAE8d",
        "reception_time": "2022-01-15T05:43:53.251-00:00",
        "included_in_blocks":
          [ "BKymqkVLn48u4BVorjVGno76FEoQfVTXQqsm73BsMcFNR5Htfz9" ] },
      { "delegate": "tz1RjoHc98dBoqaH2jawF62XNKh7YsHwbkEv",
        "reception_time": "2022-01-15T05:43:53.680-00:00",
        "included_in_blocks":
          [ "BKymqkVLn48u4BVorjVGno76FEoQfVTXQqsm73BsMcFNR5Htfz9" ] },
      { "delegate": "tz1awXW7wuXy21c66vBudMXQVAPgRnqqwgTH",
        "reception_time": "2022-01-15T05:43:53.411-00:00",
        "included_in_blocks":
          [ "BKymqkVLn48u4BVorjVGno76FEoQfVTXQqsm73BsMcFNR5Htfz9" ] },
      { "delegate": "tz1VceyYUpq1gk5dtp6jXQRtCtY8hm5DKt72",
        "reception_time": "2022-01-15T05:43:52.923-00:00",
        "included_in_blocks":
          [ "BKymqkVLn48u4BVorjVGno76FEoQfVTXQqsm73BsMcFNR5Htfz9" ] },
      { "delegate": "tz2FCNBrERXtaTtNX6iimR1UJ5JSDxvdHM93",
        "reception_time": "2022-01-15T05:43:53.095-00:00",
        "included_in_blocks":
          [ "BKymqkVLn48u4BVorjVGno76FEoQfVTXQqsm73BsMcFNR5Htfz9" ] },
      { "delegate": "tz3NExpXn9aPNZPorRE4SdjJ2RGrfbJgMAaV",
        "reception_time": "2022-01-15T05:43:53.237-00:00",
        "included_in_blocks":
          [ "BKymqkVLn48u4BVorjVGno76FEoQfVTXQqsm73BsMcFNR5Htfz9" ] },
      { "delegate": "tz3NDpRj6WBrJPikcPVHRBEjWKxFw3c6eQPS",
        "reception_time": "2022-01-15T05:43:52.944-00:00",
        "included_in_blocks":
          [ "BKymqkVLn48u4BVorjVGno76FEoQfVTXQqsm73BsMcFNR5Htfz9" ] },
      { "delegate": "tz1dNVDWPf3Q59SdJqnjdnu277iyvReiRS9M",
        "reception_time": "2022-01-15T05:43:53.201-00:00",
        "included_in_blocks":
          [ "BKymqkVLn48u4BVorjVGno76FEoQfVTXQqsm73BsMcFNR5Htfz9" ] },
      { "delegate": "tz1NEKxGEHsFufk87CVZcrqWu8o22qh46GK6",
        "reception_time": "2022-01-15T05:43:53.044-00:00",
        "included_in_blocks":
          [ "BKymqkVLn48u4BVorjVGno76FEoQfVTXQqsm73BsMcFNR5Htfz9" ] },
      { "delegate": "tz3RB4aoyjov4KEVRbuhvQ1CKJgBJMWhaeB8",
        "reception_time": "2022-01-15T05:43:52.574-00:00",
        "included_in_blocks":
          [ "BKymqkVLn48u4BVorjVGno76FEoQfVTXQqsm73BsMcFNR5Htfz9" ] },
      { "delegate": "tz1WBfwbT66FC6BTLexc2BoyCCBM9LG7pnVW",
        "reception_time": "2022-01-15T05:43:52.929-00:00",
        "included_in_blocks":
          [ "BKymqkVLn48u4BVorjVGno76FEoQfVTXQqsm73BsMcFNR5Htfz9" ] },
      { "delegate": "tz1SohptP53wDPZhzTWzDUFAUcWF6DMBpaJV",
        "reception_time": "2022-01-15T05:43:52.813-00:00",
        "included_in_blocks":
          [ "BKymqkVLn48u4BVorjVGno76FEoQfVTXQqsm73BsMcFNR5Htfz9" ] },
      { "delegate": "tz1PWCDnz783NNGGQjEFFsHtrcK5yBW4E2rm",
        "reception_time": "2022-01-15T05:43:52.719-00:00",
        "included_in_blocks":
          [ "BKymqkVLn48u4BVorjVGno76FEoQfVTXQqsm73BsMcFNR5Htfz9" ] },
      { "delegate": "tz3bTdwZinP8U1JmSweNzVKhmwafqWmFWRfk",
        "reception_time": "2022-01-15T05:43:52.293-00:00",
        "included_in_blocks":
          [ "BKymqkVLn48u4BVorjVGno76FEoQfVTXQqsm73BsMcFNR5Htfz9" ] },
      { "delegate": "tz3gtoUxdudfBRcNY7iVdKPHCYYX6xdPpoRS",
        "reception_time": "2022-01-15T05:43:52.403-00:00",
        "included_in_blocks":
          [ "BKymqkVLn48u4BVorjVGno76FEoQfVTXQqsm73BsMcFNR5Htfz9" ] },
      { "delegate": "tz1abmz7jiCV2GH2u81LRrGgAFFgvQgiDiaf",
        "reception_time": "2022-01-15T05:43:52.667-00:00",
        "included_in_blocks":
          [ "BKymqkVLn48u4BVorjVGno76FEoQfVTXQqsm73BsMcFNR5Htfz9" ] },
      { "delegate": "tz1fb7c66UwePkkfDXz4ajFaBP9hVNLdS7JJ",
        "reception_time": "2022-01-15T05:43:52.338-00:00",
        "included_in_blocks":
          [ "BKymqkVLn48u4BVorjVGno76FEoQfVTXQqsm73BsMcFNR5Htfz9" ] },
      { "delegate": "tz3QSGPoRp3Kn7n3vY24eYeu3Peuqo45LQ4D",
        "reception_time": "2022-01-15T05:43:52.244-00:00",
        "included_in_blocks":
          [ "BKymqkVLn48u4BVorjVGno76FEoQfVTXQqsm73BsMcFNR5Htfz9" ] },
      { "delegate": "tz1d6Fx42mYgVFnHUW8T8A7WBfJ6nD9pVok8",
        "reception_time": "2022-01-15T05:43:52.299-00:00",
        "included_in_blocks":
          [ "BKymqkVLn48u4BVorjVGno76FEoQfVTXQqsm73BsMcFNR5Htfz9" ] },
      { "delegate": "tz3WMqdzXqRWXwyvj5Hp2H7QEepaUuS7vd9K",
        "reception_time": "2022-01-15T05:43:52.380-00:00",
        "included_in_blocks":
          [ "BKymqkVLn48u4BVorjVGno76FEoQfVTXQqsm73BsMcFNR5Htfz9" ] },
      { "delegate": "tz3VEZ4k6a4Wx42iyev6i2aVAptTRLEAivNN",
        "reception_time": "2022-01-15T05:43:52.191-00:00",
        "included_in_blocks":
          [ "BKymqkVLn48u4BVorjVGno76FEoQfVTXQqsm73BsMcFNR5Htfz9" ] },
      { "delegate": "tz1TEc75UKXv4W5cwi14Na3NtqFD51yKQi7h",
        "reception_time": "2022-01-15T05:43:52.606-00:00",
        "included_in_blocks":
          [ "BKymqkVLn48u4BVorjVGno76FEoQfVTXQqsm73BsMcFNR5Htfz9" ] },
      { "delegate": "tz1LnWa4AiFCjMezTgSNa65QFoo7DQGEWgEU",
        "reception_time": "2022-01-15T05:43:51.971-00:00",
        "included_in_blocks":
          [ "BKymqkVLn48u4BVorjVGno76FEoQfVTXQqsm73BsMcFNR5Htfz9" ] },
      { "delegate": "tz1WCd2jm4uSt4vntk4vSuUWoZQGhLcDuR9q",
        "reception_time": "2022-01-15T05:43:51.959-00:00",
        "included_in_blocks":
          [ "BKymqkVLn48u4BVorjVGno76FEoQfVTXQqsm73BsMcFNR5Htfz9" ] },
      { "delegate": "tz3S6BBeKgJGXxvLyZ1xzXzMPn11nnFtq5L9",
        "reception_time": "2022-01-15T05:43:51.944-00:00",
        "included_in_blocks":
          [ "BKymqkVLn48u4BVorjVGno76FEoQfVTXQqsm73BsMcFNR5Htfz9" ] },
      { "delegate": "tz1QLXqnfN51dkjeghXvKHkJfhvGiM5gK4tc",
        "reception_time": "2022-01-15T05:43:52.580-00:00",
        "included_in_blocks":
          [ "BKymqkVLn48u4BVorjVGno76FEoQfVTXQqsm73BsMcFNR5Htfz9" ] },
      { "delegate": "tz3QT9dHYKDqh563chVa6za8526ys1UKfRfL",
        "reception_time": "2022-01-15T05:43:51.918-00:00",
        "included_in_blocks":
          [ "BKymqkVLn48u4BVorjVGno76FEoQfVTXQqsm73BsMcFNR5Htfz9" ] },
      { "delegate": "tz3Zhs2dygr55yHyQyKjntAtY9bgfhLZ4Xj1",
        "reception_time": "2022-01-15T05:43:51.898-00:00",
        "included_in_blocks":
          [ "BKymqkVLn48u4BVorjVGno76FEoQfVTXQqsm73BsMcFNR5Htfz9" ] },
      { "delegate": "tz3iJu5vrKZcsqRPs8yJ61UDoeEXZmtro4qh",
        "reception_time": "2022-01-15T05:43:51.892-00:00",
        "included_in_blocks":
          [ "BKymqkVLn48u4BVorjVGno76FEoQfVTXQqsm73BsMcFNR5Htfz9" ] },
      { "delegate": "tz1LmaFsWRkjr7QMCx5PtV6xTUz3AmEpKQiF",
        "reception_time": "2022-01-15T05:43:51.988-00:00",
        "included_in_blocks":
          [ "BKymqkVLn48u4BVorjVGno76FEoQfVTXQqsm73BsMcFNR5Htfz9" ] },
      { "delegate": "tz1UtayNgAX8QEJ3NoLptPzoPr9JiH3Cskzz",
        "reception_time": "2022-01-15T05:43:52.227-00:00",
        "included_in_blocks":
          [ "BKymqkVLn48u4BVorjVGno76FEoQfVTXQqsm73BsMcFNR5Htfz9" ] },
      { "delegate": "tz1MQJPGNMijnXnVoBENFz9rUhaPt3S7rWoz",
        "reception_time": "2022-01-15T05:43:52.254-00:00",
        "included_in_blocks":
          [ "BKymqkVLn48u4BVorjVGno76FEoQfVTXQqsm73BsMcFNR5Htfz9" ] },
      { "delegate": "tz1Ldzz6k1BHdhuKvAtMRX7h5kJSMHESMHLC",
        "reception_time": "2022-01-15T05:43:51.865-00:00",
        "included_in_blocks":
          [ "BKymqkVLn48u4BVorjVGno76FEoQfVTXQqsm73BsMcFNR5Htfz9" ] },
      { "delegate": "tz3hw2kqXhLUvY65ca1eety2oQTpAvd34R9Q",
        "reception_time": "2022-01-15T05:43:51.844-00:00",
        "included_in_blocks":
          [ "BKymqkVLn48u4BVorjVGno76FEoQfVTXQqsm73BsMcFNR5Htfz9" ] },
      { "delegate": "tz1ZPh7XfUaJXUDvkrBxmS1BjEM1i62hiPpM",
        "reception_time": "2022-01-15T05:43:51.861-00:00",
        "included_in_blocks":
          [ "BKymqkVLn48u4BVorjVGno76FEoQfVTXQqsm73BsMcFNR5Htfz9" ] },
      { "delegate": "tz1ei4WtWEMEJekSv8qDnu9PExG6Q8HgRGr3",
        "reception_time": "2022-01-15T05:43:52.079-00:00",
        "included_in_blocks":
          [ "BKymqkVLn48u4BVorjVGno76FEoQfVTXQqsm73BsMcFNR5Htfz9" ] },
      { "delegate": "tz3RKYFsLuQzKBtmYuLNas7uMu3AsYd4QdsA",
        "reception_time": "2022-01-15T05:43:51.873-00:00",
        "included_in_blocks":
          [ "BKymqkVLn48u4BVorjVGno76FEoQfVTXQqsm73BsMcFNR5Htfz9" ] },
      { "delegate": "tz1RCFbB9GpALpsZtu6J58sb74dm8qe6XBzv",
        "reception_time": "2022-01-15T05:43:51.995-00:00",
        "included_in_blocks":
          [ "BKymqkVLn48u4BVorjVGno76FEoQfVTXQqsm73BsMcFNR5Htfz9" ] },
      { "delegate": "tz1fqRos6byDAwP4aUWXy3vHnqGEGbWFRXb7",
        "reception_time": "2022-01-15T05:43:51.911-00:00",
        "included_in_blocks":
          [ "BKymqkVLn48u4BVorjVGno76FEoQfVTXQqsm73BsMcFNR5Htfz9" ] },
      { "delegate": "tz1UJvHTgpVzcKWhTazGxVcn5wsHru5Gietg",
        "reception_time": "2022-01-15T05:43:52.009-00:00",
        "included_in_blocks":
          [ "BKymqkVLn48u4BVorjVGno76FEoQfVTXQqsm73BsMcFNR5Htfz9" ] },
      { "delegate": "tz1gUNyn3hmnEWqkusWPzxRaon1cs7ndWh7h",
        "reception_time": "2022-01-15T05:43:51.844-00:00",
        "included_in_blocks":
          [ "BKymqkVLn48u4BVorjVGno76FEoQfVTXQqsm73BsMcFNR5Htfz9" ] },
      { "delegate": "tz1VQnqCCqX4K5sP3FNkVSNKTdCAMJDd3E1n",
        "reception_time": "2022-01-15T05:43:51.833-00:00",
        "included_in_blocks":
          [ "BKymqkVLn48u4BVorjVGno76FEoQfVTXQqsm73BsMcFNR5Htfz9" ] },
      { "delegate": "tz1S8MNvuFEUsWgjHvi3AxibRBf388NhT1q2",
        "reception_time": "2022-01-15T05:43:51.908-00:00",
        "included_in_blocks":
          [ "BKymqkVLn48u4BVorjVGno76FEoQfVTXQqsm73BsMcFNR5Htfz9" ] },
      { "delegate": "tz3ZbP2pM3nwvXztbuMJwJnDvV5xdpU8UkkD",
        "reception_time": "2022-01-15T05:43:51.855-00:00",
        "included_in_blocks":
          [ "BKymqkVLn48u4BVorjVGno76FEoQfVTXQqsm73BsMcFNR5Htfz9" ] },
      { "delegate": "tz3NxTnke1acr8o3h5y9ytf5awQBGNJUKzVU",
        "reception_time": "2022-01-15T05:43:51.833-00:00",
        "included_in_blocks":
          [ "BKymqkVLn48u4BVorjVGno76FEoQfVTXQqsm73BsMcFNR5Htfz9" ] },
      { "delegate": "tz1MQMiZHV8q4tTwUMWmS5Y3kaP6J2136iXr",
        "reception_time": "2022-01-15T05:43:51.903-00:00",
        "included_in_blocks":
          [ "BKymqkVLn48u4BVorjVGno76FEoQfVTXQqsm73BsMcFNR5Htfz9" ] },
      { "delegate": "tz1gfArv665EUkSg2ojMBzcbfwuPxAvqPvjo",
        "reception_time": "2022-01-15T05:43:52.223-00:00",
        "included_in_blocks":
          [ "BKymqkVLn48u4BVorjVGno76FEoQfVTXQqsm73BsMcFNR5Htfz9" ] },
      { "delegate": "tz1beersuEDv8Z7ngQ825xfbaJNS2EhXnyHR",
        "reception_time": "2022-01-15T05:43:51.825-00:00",
        "included_in_blocks":
          [ "BKymqkVLn48u4BVorjVGno76FEoQfVTXQqsm73BsMcFNR5Htfz9" ] },
      { "delegate": "tz1P2Po7YM526ughEsRbY4oR9zaUPDZjxFrb",
        "reception_time": "2022-01-15T05:43:51.818-00:00",
        "included_in_blocks":
          [ "BKymqkVLn48u4BVorjVGno76FEoQfVTXQqsm73BsMcFNR5Htfz9" ] },
      { "delegate": "tz1fPKAtsYydh4f1wfWNfeNxWYu72TmM48fu",
        "reception_time": "2022-01-15T05:43:51.901-00:00",
        "included_in_blocks":
          [ "BKymqkVLn48u4BVorjVGno76FEoQfVTXQqsm73BsMcFNR5Htfz9" ] },
      { "delegate": "tz1WL4xAAYsQ2GM9MCQGePYcbwwu6kvfqMWN",
        "reception_time": "2022-01-15T05:43:51.815-00:00",
        "included_in_blocks":
          [ "BKymqkVLn48u4BVorjVGno76FEoQfVTXQqsm73BsMcFNR5Htfz9" ] } ] }