{ "blocks":
    [ { "hash": "BMHodFK1E3Ppo1npQjrjd5ztonADayrY8veBgQgKZBSDWZhgq7N",
        "delegate": "tz3RB4aoyjov4KEVRbuhvQ1CKJgBJMWhaeB8",
        "reception_time": "2022-01-15T07:18:58.246-00:00",
        "timestamp": "2022-01-15T07:18:50Z" } ],
  "endorsements":
    [ { "delegate": "tz1irJKkXS2DBWkU1NnmFQx1c1L7pbGg4yhk",
        "reception_time": "2022-01-15T07:18:58.168-00:00",
        "errors":
          [ { "kind": "temporary",
              "id": "proto.011-PtHangz2.prefilter.outdated_endorsement" } ],
        "included_in_blocks":
          [ "BMdqjhcq1DBYNyHme9yVwSPtjPNZUYzRPqXcTaoDfD2wrM7UV3Q" ] },
      { "delegate": "tz1STeamwbp68THcny9zk3LsbG3H36DMvbRK",
        "reception_time": "2022-01-15T07:18:58.105-00:00",
        "errors":
          [ { "kind": "temporary",
              "id": "proto.011-PtHangz2.prefilter.outdated_endorsement" } ],
        "included_in_blocks":
          [ "BMdqjhcq1DBYNyHme9yVwSPtjPNZUYzRPqXcTaoDfD2wrM7UV3Q" ] },
      { "delegate": "tz1eEnQhbwf6trb8Q8mPb2RaPkNk2rN7BKi8",
        "reception_time": "2022-01-15T07:18:58.017-00:00",
        "errors":
          [ { "kind": "temporary",
              "id": "proto.011-PtHangz2.prefilter.outdated_endorsement" } ],
        "included_in_blocks":
          [ "BMdqjhcq1DBYNyHme9yVwSPtjPNZUYzRPqXcTaoDfD2wrM7UV3Q" ] },
      { "delegate": "tz1TXzyaKUA8wsWefdSnyaYFnV2M3vCV7er9",
        "reception_time": "2022-01-15T07:18:57.969-00:00",
        "errors":
          [ { "kind": "temporary",
              "id": "proto.011-PtHangz2.prefilter.outdated_endorsement" } ],
        "included_in_blocks":
          [ "BMdqjhcq1DBYNyHme9yVwSPtjPNZUYzRPqXcTaoDfD2wrM7UV3Q" ] },
      { "delegate": "tz1P2Po7YM526ughEsRbY4oR9zaUPDZjxFrb",
        "reception_time": "2022-01-15T07:18:57.877-00:00",
        "errors":
          [ { "kind": "temporary",
              "id": "proto.011-PtHangz2.prefilter.outdated_endorsement" } ],
        "included_in_blocks":
          [ "BMdqjhcq1DBYNyHme9yVwSPtjPNZUYzRPqXcTaoDfD2wrM7UV3Q" ] },
      { "delegate": "tz3RB4aoyjov4KEVRbuhvQ1CKJgBJMWhaeB8",
        "reception_time": "2022-01-15T07:18:57.861-00:00",
        "errors":
          [ { "kind": "temporary",
              "id": "proto.011-PtHangz2.prefilter.outdated_endorsement" } ],
        "included_in_blocks":
          [ "BMdqjhcq1DBYNyHme9yVwSPtjPNZUYzRPqXcTaoDfD2wrM7UV3Q" ] },
      { "delegate": "tz1KmdpuJTaKV2J56hpDM6gP3VajfHmsv1pL" },
      { "delegate": "tz1NdhRv643wLW6zCcRP3VfT24dvDnh7nuh9" },
      { "delegate": "tz1TRspM5SeZpaQUhzByXbEvqKF1vnCM2YTK" },
      { "delegate": "tz1dbfppLAAxXZNtf2SDps7rch3qfUznKSoK" },
      { "delegate": "tz1cX93Q3KsiTADpCC4f12TBvAmS5tw7CW19",
        "reception_time": "2022-01-15T07:18:59.078-00:00",
        "included_in_blocks":
          [ "BMdqjhcq1DBYNyHme9yVwSPtjPNZUYzRPqXcTaoDfD2wrM7UV3Q" ] },
      { "delegate": "tz1VQnqCCqX4K5sP3FNkVSNKTdCAMJDd3E1n",
        "reception_time": "2022-01-15T07:18:59.221-00:00",
        "included_in_blocks":
          [ "BMdqjhcq1DBYNyHme9yVwSPtjPNZUYzRPqXcTaoDfD2wrM7UV3Q" ] },
      { "delegate": "tz1TzaNn7wSQSP5gYPXCnNzBCpyMiidCq1PX",
        "reception_time": "2022-01-15T07:18:59.223-00:00",
        "included_in_blocks":
          [ "BMdqjhcq1DBYNyHme9yVwSPtjPNZUYzRPqXcTaoDfD2wrM7UV3Q" ] },
      { "delegate": "tz1Ldzz6k1BHdhuKvAtMRX7h5kJSMHESMHLC",
        "reception_time": "2022-01-15T07:18:59.226-00:00",
        "included_in_blocks":
          [ "BMdqjhcq1DBYNyHme9yVwSPtjPNZUYzRPqXcTaoDfD2wrM7UV3Q" ] },
      { "delegate": "tz1MJx9vhaNRSimcuXPK2rW4fLccQnDAnVKJ",
        "reception_time": "2022-01-15T07:18:59.231-00:00",
        "included_in_blocks":
          [ "BMdqjhcq1DBYNyHme9yVwSPtjPNZUYzRPqXcTaoDfD2wrM7UV3Q" ] },
      { "delegate": "tz1MQJPGNMijnXnVoBENFz9rUhaPt3S7rWoz",
        "reception_time": "2022-01-15T07:18:59.231-00:00",
        "included_in_blocks":
          [ "BMdqjhcq1DBYNyHme9yVwSPtjPNZUYzRPqXcTaoDfD2wrM7UV3Q" ] },
      { "delegate": "tz3Zhs2dygr55yHyQyKjntAtY9bgfhLZ4Xj1",
        "reception_time": "2022-01-15T07:18:59.238-00:00",
        "included_in_blocks":
          [ "BMdqjhcq1DBYNyHme9yVwSPtjPNZUYzRPqXcTaoDfD2wrM7UV3Q" ] },
      { "delegate": "tz1ZPh7XfUaJXUDvkrBxmS1BjEM1i62hiPpM",
        "reception_time": "2022-01-15T07:18:59.248-00:00",
        "included_in_blocks":
          [ "BMdqjhcq1DBYNyHme9yVwSPtjPNZUYzRPqXcTaoDfD2wrM7UV3Q" ] },
      { "delegate": "tz3ZbP2pM3nwvXztbuMJwJnDvV5xdpU8UkkD",
        "reception_time": "2022-01-15T07:18:59.248-00:00",
        "included_in_blocks":
          [ "BMdqjhcq1DBYNyHme9yVwSPtjPNZUYzRPqXcTaoDfD2wrM7UV3Q" ] },
      { "delegate": "tz1iZEKy4LaAjnTmn2RuGDf2iqdAQKnRi8kY",
        "reception_time": "2022-01-15T07:18:59.257-00:00",
        "included_in_blocks":
          [ "BMdqjhcq1DBYNyHme9yVwSPtjPNZUYzRPqXcTaoDfD2wrM7UV3Q" ] },
      { "delegate": "tz3hw2kqXhLUvY65ca1eety2oQTpAvd34R9Q",
        "reception_time": "2022-01-15T07:18:59.257-00:00",
        "included_in_blocks":
          [ "BMdqjhcq1DBYNyHme9yVwSPtjPNZUYzRPqXcTaoDfD2wrM7UV3Q" ] },
      { "delegate": "tz1gUNyn3hmnEWqkusWPzxRaon1cs7ndWh7h",
        "reception_time": "2022-01-15T07:18:59.269-00:00",
        "included_in_blocks":
          [ "BMdqjhcq1DBYNyHme9yVwSPtjPNZUYzRPqXcTaoDfD2wrM7UV3Q" ] },
      { "delegate": "tz3adcvQaKXTCg12zbninqo3q8ptKKtDFTLv",
        "reception_time": "2022-01-15T07:18:59.269-00:00",
        "included_in_blocks":
          [ "BMdqjhcq1DBYNyHme9yVwSPtjPNZUYzRPqXcTaoDfD2wrM7UV3Q" ] },
      { "delegate": "tz1SUgyRB8T5jXgXAwS33pgRHAKrafyg87Yc",
        "reception_time": "2022-01-15T07:18:59.278-00:00",
        "included_in_blocks":
          [ "BMdqjhcq1DBYNyHme9yVwSPtjPNZUYzRPqXcTaoDfD2wrM7UV3Q" ] },
      { "delegate": "tz3QSGPoRp3Kn7n3vY24eYeu3Peuqo45LQ4D",
        "reception_time": "2022-01-15T07:18:59.287-00:00",
        "included_in_blocks":
          [ "BMdqjhcq1DBYNyHme9yVwSPtjPNZUYzRPqXcTaoDfD2wrM7UV3Q" ] },
      { "delegate": "tz3bvNMQ95vfAYtG8193ymshqjSvmxiCUuR5",
        "reception_time": "2022-01-15T07:18:59.302-00:00",
        "included_in_blocks":
          [ "BMdqjhcq1DBYNyHme9yVwSPtjPNZUYzRPqXcTaoDfD2wrM7UV3Q" ] },
      { "delegate": "tz3gtoUxdudfBRcNY7iVdKPHCYYX6xdPpoRS",
        "reception_time": "2022-01-15T07:18:59.302-00:00",
        "included_in_blocks":
          [ "BMdqjhcq1DBYNyHme9yVwSPtjPNZUYzRPqXcTaoDfD2wrM7UV3Q" ] },
      { "delegate": "tz1fPKAtsYydh4f1wfWNfeNxWYu72TmM48fu",
        "reception_time": "2022-01-15T07:18:59.313-00:00",
        "included_in_blocks":
          [ "BMdqjhcq1DBYNyHme9yVwSPtjPNZUYzRPqXcTaoDfD2wrM7UV3Q" ] },
      { "delegate": "tz3S6BBeKgJGXxvLyZ1xzXzMPn11nnFtq5L9",
        "reception_time": "2022-01-15T07:18:59.313-00:00",
        "included_in_blocks":
          [ "BMdqjhcq1DBYNyHme9yVwSPtjPNZUYzRPqXcTaoDfD2wrM7UV3Q" ] },
      { "delegate": "tz3NxTnke1acr8o3h5y9ytf5awQBGNJUKzVU",
        "reception_time": "2022-01-15T07:18:59.320-00:00",
        "included_in_blocks":
          [ "BMdqjhcq1DBYNyHme9yVwSPtjPNZUYzRPqXcTaoDfD2wrM7UV3Q" ] },
      { "delegate": "tz1WCd2jm4uSt4vntk4vSuUWoZQGhLcDuR9q",
        "reception_time": "2022-01-15T07:18:59.352-00:00",
        "included_in_blocks":
          [ "BMdqjhcq1DBYNyHme9yVwSPtjPNZUYzRPqXcTaoDfD2wrM7UV3Q" ] },
      { "delegate": "tz3iJu5vrKZcsqRPs8yJ61UDoeEXZmtro4qh",
        "reception_time": "2022-01-15T07:18:59.352-00:00",
        "included_in_blocks":
          [ "BMdqjhcq1DBYNyHme9yVwSPtjPNZUYzRPqXcTaoDfD2wrM7UV3Q" ] },
      { "delegate": "tz3QT9dHYKDqh563chVa6za8526ys1UKfRfL",
        "reception_time": "2022-01-15T07:18:59.364-00:00",
        "included_in_blocks":
          [ "BMdqjhcq1DBYNyHme9yVwSPtjPNZUYzRPqXcTaoDfD2wrM7UV3Q" ] },
      { "delegate": "tz1YhNsiRRU8aHNGg7NK3uuP6UDAyacJernB",
        "reception_time": "2022-01-15T07:18:59.364-00:00",
        "included_in_blocks":
          [ "BMdqjhcq1DBYNyHme9yVwSPtjPNZUYzRPqXcTaoDfD2wrM7UV3Q" ] },
      { "delegate": "tz3RKYFsLuQzKBtmYuLNas7uMu3AsYd4QdsA",
        "reception_time": "2022-01-15T07:18:59.372-00:00",
        "included_in_blocks":
          [ "BMdqjhcq1DBYNyHme9yVwSPtjPNZUYzRPqXcTaoDfD2wrM7UV3Q" ] },
      { "delegate": "tz1RCFbB9GpALpsZtu6J58sb74dm8qe6XBzv",
        "reception_time": "2022-01-15T07:18:59.386-00:00",
        "included_in_blocks":
          [ "BMdqjhcq1DBYNyHme9yVwSPtjPNZUYzRPqXcTaoDfD2wrM7UV3Q" ] },
      { "delegate": "tz1gfArv665EUkSg2ojMBzcbfwuPxAvqPvjo",
        "reception_time": "2022-01-15T07:18:59.405-00:00",
        "included_in_blocks":
          [ "BMdqjhcq1DBYNyHme9yVwSPtjPNZUYzRPqXcTaoDfD2wrM7UV3Q" ] },
      { "delegate": "tz1S8MNvuFEUsWgjHvi3AxibRBf388NhT1q2",
        "reception_time": "2022-01-15T07:18:59.460-00:00",
        "included_in_blocks":
          [ "BMdqjhcq1DBYNyHme9yVwSPtjPNZUYzRPqXcTaoDfD2wrM7UV3Q" ] },
      { "delegate": "tz1abmz7jiCV2GH2u81LRrGgAFFgvQgiDiaf",
        "reception_time": "2022-01-15T07:18:59.463-00:00",
        "included_in_blocks":
          [ "BMdqjhcq1DBYNyHme9yVwSPtjPNZUYzRPqXcTaoDfD2wrM7UV3Q" ] },
      { "delegate": "tz1V4qCyvPKZ5UeqdH14HN42rxvNPQfc9UZg",
        "reception_time": "2022-01-15T07:18:59.510-00:00",
        "included_in_blocks":
          [ "BMdqjhcq1DBYNyHme9yVwSPtjPNZUYzRPqXcTaoDfD2wrM7UV3Q" ] },
      { "delegate": "tz3UoffC7FG7zfpmvmjUmUeAaHvzdcUvAj6r",
        "reception_time": "2022-01-15T07:18:59.579-00:00",
        "included_in_blocks":
          [ "BMdqjhcq1DBYNyHme9yVwSPtjPNZUYzRPqXcTaoDfD2wrM7UV3Q" ] },
      { "delegate": "tz1ei4WtWEMEJekSv8qDnu9PExG6Q8HgRGr3",
        "reception_time": "2022-01-15T07:18:59.591-00:00",
        "included_in_blocks":
          [ "BMdqjhcq1DBYNyHme9yVwSPtjPNZUYzRPqXcTaoDfD2wrM7UV3Q" ] },
      { "delegate": "tz1WBfwbT66FC6BTLexc2BoyCCBM9LG7pnVW",
        "reception_time": "2022-01-15T07:18:59.595-00:00",
        "included_in_blocks":
          [ "BMdqjhcq1DBYNyHme9yVwSPtjPNZUYzRPqXcTaoDfD2wrM7UV3Q" ] },
      { "delegate": "tz3bTdwZinP8U1JmSweNzVKhmwafqWmFWRfk",
        "reception_time": "2022-01-15T07:18:59.674-00:00",
        "included_in_blocks":
          [ "BMdqjhcq1DBYNyHme9yVwSPtjPNZUYzRPqXcTaoDfD2wrM7UV3Q" ] },
      { "delegate": "tz3WMqdzXqRWXwyvj5Hp2H7QEepaUuS7vd9K",
        "reception_time": "2022-01-15T07:18:59.734-00:00",
        "included_in_blocks":
          [ "BMdqjhcq1DBYNyHme9yVwSPtjPNZUYzRPqXcTaoDfD2wrM7UV3Q" ] },
      { "delegate": "tz1PWCDnz783NNGGQjEFFsHtrcK5yBW4E2rm",
        "reception_time": "2022-01-15T07:18:59.746-00:00",
        "included_in_blocks":
          [ "BMdqjhcq1DBYNyHme9yVwSPtjPNZUYzRPqXcTaoDfD2wrM7UV3Q" ] },
      { "delegate": "tz1TEc75UKXv4W5cwi14Na3NtqFD51yKQi7h",
        "reception_time": "2022-01-15T07:18:59.788-00:00",
        "included_in_blocks":
          [ "BMdqjhcq1DBYNyHme9yVwSPtjPNZUYzRPqXcTaoDfD2wrM7UV3Q" ] },
      { "delegate": "tz3gLTu4Yxj8tPAcriQVUdxv6BY9QyvzU1az",
        "reception_time": "2022-01-15T07:18:59.889-00:00",
        "included_in_blocks":
          [ "BMdqjhcq1DBYNyHme9yVwSPtjPNZUYzRPqXcTaoDfD2wrM7UV3Q" ] },
      { "delegate": "tz3NDpRj6WBrJPikcPVHRBEjWKxFw3c6eQPS",
        "reception_time": "2022-01-15T07:18:59.903-00:00",
        "included_in_blocks":
          [ "BMdqjhcq1DBYNyHme9yVwSPtjPNZUYzRPqXcTaoDfD2wrM7UV3Q" ] },
      { "delegate": "tz1Nf6tsK4G6bBqgSQERy4nUtkHNKUVdh7q1",
        "reception_time": "2022-01-15T07:18:59.955-00:00",
        "included_in_blocks":
          [ "BMdqjhcq1DBYNyHme9yVwSPtjPNZUYzRPqXcTaoDfD2wrM7UV3Q" ] },
      { "delegate": "tz1fwnfJNgiDACshK9avfRfFbMaXrs3ghoJa",
        "reception_time": "2022-01-15T07:19:00.047-00:00",
        "included_in_blocks":
          [ "BMdqjhcq1DBYNyHme9yVwSPtjPNZUYzRPqXcTaoDfD2wrM7UV3Q" ] },
      { "delegate": "tz1R4PuhxUxBBZhfLJDx2nNjbr7WorAPX1oC",
        "reception_time": "2022-01-15T07:19:00.061-00:00",
        "included_in_blocks":
          [ "BMdqjhcq1DBYNyHme9yVwSPtjPNZUYzRPqXcTaoDfD2wrM7UV3Q" ] },
      { "delegate": "tz2FCNBrERXtaTtNX6iimR1UJ5JSDxvdHM93",
        "reception_time": "2022-01-15T07:19:00.125-00:00",
        "included_in_blocks":
          [ "BMdqjhcq1DBYNyHme9yVwSPtjPNZUYzRPqXcTaoDfD2wrM7UV3Q" ] },
      { "delegate": "tz1PeZx7FXy7QRuMREGXGxeipb24RsMMzUNe",
        "reception_time": "2022-01-15T07:19:00.138-00:00",
        "included_in_blocks":
          [ "BMdqjhcq1DBYNyHme9yVwSPtjPNZUYzRPqXcTaoDfD2wrM7UV3Q" ] },
      { "delegate": "tz3RDC3Jdn4j15J7bBHZd29EUee9gVB1CxD9",
        "reception_time": "2022-01-15T07:19:00.174-00:00",
        "included_in_blocks":
          [ "BMdqjhcq1DBYNyHme9yVwSPtjPNZUYzRPqXcTaoDfD2wrM7UV3Q" ] },
      { "delegate": "tz3VEZ4k6a4Wx42iyev6i2aVAptTRLEAivNN",
        "reception_time": "2022-01-15T07:19:00.501-00:00",
        "included_in_blocks":
          [ "BMdqjhcq1DBYNyHme9yVwSPtjPNZUYzRPqXcTaoDfD2wrM7UV3Q" ] },
      { "delegate": "tz1XX67xSF2ou3aQZ6LhXaaxZWDR3YZ6hCMs",
        "reception_time": "2022-01-15T07:19:00.826-00:00",
        "included_in_blocks":
          [ "BMdqjhcq1DBYNyHme9yVwSPtjPNZUYzRPqXcTaoDfD2wrM7UV3Q" ] },
      { "delegate": "tz1TRqbYbUf2GyrjErf3hBzgBJPzW8y36qEs",
        "reception_time": "2022-01-15T07:19:00.839-00:00",
        "included_in_blocks":
          [ "BMdqjhcq1DBYNyHme9yVwSPtjPNZUYzRPqXcTaoDfD2wrM7UV3Q" ] },
      { "delegate": "tz1T7duV5gZWSTq4YpBGbXNLTfznCLDrFxvs",
        "reception_time": "2022-01-15T07:19:00.962-00:00",
        "included_in_blocks":
          [ "BMdqjhcq1DBYNyHme9yVwSPtjPNZUYzRPqXcTaoDfD2wrM7UV3Q" ] },
      { "delegate": "tz3NExpXn9aPNZPorRE4SdjJ2RGrfbJgMAaV",
        "reception_time": "2022-01-15T07:19:01.011-00:00",
        "included_in_blocks":
          [ "BMdqjhcq1DBYNyHme9yVwSPtjPNZUYzRPqXcTaoDfD2wrM7UV3Q" ] },
      { "delegate": "tz1dRKU4FQ9QRRQPdaH4zCR6gmCmXfcvcgtB",
        "reception_time": "2022-01-15T07:19:01.018-00:00",
        "included_in_blocks":
          [ "BMdqjhcq1DBYNyHme9yVwSPtjPNZUYzRPqXcTaoDfD2wrM7UV3Q" ] },
      { "delegate": "tz1SYq214SCBy9naR6cvycQsYcUGpBqQAE8d",
        "reception_time": "2022-01-15T07:19:01.112-00:00",
        "included_in_blocks":
          [ "BMdqjhcq1DBYNyHme9yVwSPtjPNZUYzRPqXcTaoDfD2wrM7UV3Q" ] },
      { "delegate": "tz1aRoaRhSpRYvFdyvgWLL6TGyRoGF51wDjM",
        "reception_time": "2022-01-15T07:19:01.135-00:00",
        "included_in_blocks":
          [ "BMdqjhcq1DBYNyHme9yVwSPtjPNZUYzRPqXcTaoDfD2wrM7UV3Q" ] },
      { "delegate": "tz1TcH4Nb3aHNDJ7CGZhU7jgAK1BkSP4Lxds",
        "reception_time": "2022-01-15T07:19:01.451-00:00",
        "included_in_blocks":
          [ "BMdqjhcq1DBYNyHme9yVwSPtjPNZUYzRPqXcTaoDfD2wrM7UV3Q" ] },
      { "delegate": "tz1ZcTRk5uxD86EFEn1vvNffWWqJy7q5eVhc",
        "reception_time": "2022-01-15T07:19:01.963-00:00",
        "included_in_blocks":
          [ "BMdqjhcq1DBYNyHme9yVwSPtjPNZUYzRPqXcTaoDfD2wrM7UV3Q" ] },
      { "delegate": "tz1cYufsxHXJcvANhvS55h3aY32a9BAFB494",
        "reception_time": "2022-01-15T07:19:02.264-00:00",
        "included_in_blocks":
          [ "BMdqjhcq1DBYNyHme9yVwSPtjPNZUYzRPqXcTaoDfD2wrM7UV3Q" ] },
      { "delegate": "tz1acZQd7TdfoiUnD2czHnTHB2TaJQP6gdqo",
        "reception_time": "2022-01-15T07:19:02.397-00:00",
        "included_in_blocks":
          [ "BMdqjhcq1DBYNyHme9yVwSPtjPNZUYzRPqXcTaoDfD2wrM7UV3Q" ] },
      { "delegate": "tz1eVaNx3gCmG1EsLjijkmgAxdLYVf6Bf5Sq",
        "reception_time": "2022-01-15T07:19:02.801-00:00",
        "included_in_blocks":
          [ "BMdqjhcq1DBYNyHme9yVwSPtjPNZUYzRPqXcTaoDfD2wrM7UV3Q" ] },
      { "delegate": "tz1dfg9PkvRLf7hKMmGdGRhXWCbd8QgbwBF7",
        "reception_time": "2022-01-15T07:19:03.306-00:00",
        "included_in_blocks":
          [ "BMdqjhcq1DBYNyHme9yVwSPtjPNZUYzRPqXcTaoDfD2wrM7UV3Q" ] },
      { "delegate": "tz2BzJTyoQp8fNbfhWD4YQgH9JJHDgSGzpdG",
        "reception_time": "2022-01-15T07:19:04.600-00:00",
        "included_in_blocks":
          [ "BMdqjhcq1DBYNyHme9yVwSPtjPNZUYzRPqXcTaoDfD2wrM7UV3Q" ] },
      { "delegate": "tz1NpWrAyDL9k2Lmnyxcgr9xuJakbBxdq7FB",
        "reception_time": "2022-01-15T07:19:09.630-00:00",
        "included_in_blocks":
          [ "BMdqjhcq1DBYNyHme9yVwSPtjPNZUYzRPqXcTaoDfD2wrM7UV3Q" ] } ] }