{ "blocks":
    [ { "hash": "BLYwheoSFLqgStctv8tmxRvGaa4MavSTdVxPjBWyyHdiefCi2a3",
        "delegate": "tz3gtoUxdudfBRcNY7iVdKPHCYYX6xdPpoRS",
        "reception_time": "2022-01-15T05:47:15.091-00:00",
        "timestamp": "2022-01-15T05:47:10Z" } ],
  "endorsements":
    [ { "delegate": "tz1TRspM5SeZpaQUhzByXbEvqKF1vnCM2YTK" },
      { "delegate": "tz3bEQoFCZEEfZMskefZ8q8e4eiHH1pssRax",
        "reception_time": "2022-01-15T05:47:22.642-00:00",
        "included_in_blocks":
          [ "BKkmEpFjfApGQC8nyBH7Nn4VRKkBRycDa8QFCx9hmbPYAqVAmdj" ] },
      { "delegate": "tz1eVaNx3gCmG1EsLjijkmgAxdLYVf6Bf5Sq",
        "reception_time": "2022-01-15T05:47:20.283-00:00",
        "included_in_blocks":
          [ "BKkmEpFjfApGQC8nyBH7Nn4VRKkBRycDa8QFCx9hmbPYAqVAmdj" ] },
      { "delegate": "tz1aRoaRhSpRYvFdyvgWLL6TGyRoGF51wDjM",
        "reception_time": "2022-01-15T05:47:19.690-00:00",
        "included_in_blocks":
          [ "BKkmEpFjfApGQC8nyBH7Nn4VRKkBRycDa8QFCx9hmbPYAqVAmdj" ] },
      { "delegate": "tz1QccGQsmt7WMnbVX9inJQgEuQGeMXddfjp",
        "reception_time": "2022-01-15T05:47:19.272-00:00",
        "included_in_blocks":
          [ "BKkmEpFjfApGQC8nyBH7Nn4VRKkBRycDa8QFCx9hmbPYAqVAmdj" ] },
      { "delegate": "tz1ZcTRk5uxD86EFEn1vvNffWWqJy7q5eVhc",
        "reception_time": "2022-01-15T05:47:18.916-00:00",
        "included_in_blocks":
          [ "BKkmEpFjfApGQC8nyBH7Nn4VRKkBRycDa8QFCx9hmbPYAqVAmdj" ] },
      { "delegate": "tz1awXW7wuXy21c66vBudMXQVAPgRnqqwgTH",
        "reception_time": "2022-01-15T05:47:18.900-00:00",
        "included_in_blocks":
          [ "BKkmEpFjfApGQC8nyBH7Nn4VRKkBRycDa8QFCx9hmbPYAqVAmdj" ] },
      { "delegate": "tz1dRKU4FQ9QRRQPdaH4zCR6gmCmXfcvcgtB",
        "reception_time": "2022-01-15T05:47:18.636-00:00",
        "included_in_blocks":
          [ "BKkmEpFjfApGQC8nyBH7Nn4VRKkBRycDa8QFCx9hmbPYAqVAmdj" ] },
      { "delegate": "tz1RzwaogUQ8zPntqrSn4yn5f3VquXfEH5Jo",
        "reception_time": "2022-01-15T05:47:18.327-00:00",
        "included_in_blocks":
          [ "BKkmEpFjfApGQC8nyBH7Nn4VRKkBRycDa8QFCx9hmbPYAqVAmdj" ] },
      { "delegate": "tz3VEZ4k6a4Wx42iyev6i2aVAptTRLEAivNN",
        "reception_time": "2022-01-15T05:47:18.302-00:00",
        "included_in_blocks":
          [ "BKkmEpFjfApGQC8nyBH7Nn4VRKkBRycDa8QFCx9hmbPYAqVAmdj" ] },
      { "delegate": "tz3NExpXn9aPNZPorRE4SdjJ2RGrfbJgMAaV",
        "reception_time": "2022-01-15T05:47:18.492-00:00",
        "included_in_blocks":
          [ "BKkmEpFjfApGQC8nyBH7Nn4VRKkBRycDa8QFCx9hmbPYAqVAmdj" ] },
      { "delegate": "tz1YiuvpfeVAHbnU8akcWErNfQGFHNQ7F45z",
        "reception_time": "2022-01-15T05:47:18.157-00:00",
        "included_in_blocks":
          [ "BKkmEpFjfApGQC8nyBH7Nn4VRKkBRycDa8QFCx9hmbPYAqVAmdj" ] },
      { "delegate": "tz1T7duV5gZWSTq4YpBGbXNLTfznCLDrFxvs",
        "reception_time": "2022-01-15T05:47:18.203-00:00",
        "included_in_blocks":
          [ "BKkmEpFjfApGQC8nyBH7Nn4VRKkBRycDa8QFCx9hmbPYAqVAmdj" ] },
      { "delegate": "tz1cYufsxHXJcvANhvS55h3aY32a9BAFB494",
        "reception_time": "2022-01-15T05:47:18.132-00:00",
        "included_in_blocks":
          [ "BKkmEpFjfApGQC8nyBH7Nn4VRKkBRycDa8QFCx9hmbPYAqVAmdj" ] },
      { "delegate": "tz1dNVDWPf3Q59SdJqnjdnu277iyvReiRS9M",
        "reception_time": "2022-01-15T05:47:18.172-00:00",
        "included_in_blocks":
          [ "BKkmEpFjfApGQC8nyBH7Nn4VRKkBRycDa8QFCx9hmbPYAqVAmdj" ] },
      { "delegate": "tz1RjoHc98dBoqaH2jawF62XNKh7YsHwbkEv",
        "reception_time": "2022-01-15T05:47:18.345-00:00",
        "included_in_blocks":
          [ "BKkmEpFjfApGQC8nyBH7Nn4VRKkBRycDa8QFCx9hmbPYAqVAmdj" ] },
      { "delegate": "tz1NEKxGEHsFufk87CVZcrqWu8o22qh46GK6",
        "reception_time": "2022-01-15T05:47:17.994-00:00",
        "included_in_blocks":
          [ "BKkmEpFjfApGQC8nyBH7Nn4VRKkBRycDa8QFCx9hmbPYAqVAmdj" ] },
      { "delegate": "tz3WMqdzXqRWXwyvj5Hp2H7QEepaUuS7vd9K",
        "reception_time": "2022-01-15T05:47:17.877-00:00",
        "included_in_blocks":
          [ "BKkmEpFjfApGQC8nyBH7Nn4VRKkBRycDa8QFCx9hmbPYAqVAmdj" ] },
      { "delegate": "tz1TRqbYbUf2GyrjErf3hBzgBJPzW8y36qEs",
        "reception_time": "2022-01-15T05:47:17.850-00:00",
        "included_in_blocks":
          [ "BKkmEpFjfApGQC8nyBH7Nn4VRKkBRycDa8QFCx9hmbPYAqVAmdj" ] },
      { "delegate": "tz1WctSwL49BZtdWAQ75NY6vr4xsAx6oKdah",
        "reception_time": "2022-01-15T05:47:17.692-00:00",
        "included_in_blocks":
          [ "BKkmEpFjfApGQC8nyBH7Nn4VRKkBRycDa8QFCx9hmbPYAqVAmdj" ] },
      { "delegate": "tz1PeZx7FXy7QRuMREGXGxeipb24RsMMzUNe",
        "reception_time": "2022-01-15T05:47:17.747-00:00",
        "included_in_blocks":
          [ "BKkmEpFjfApGQC8nyBH7Nn4VRKkBRycDa8QFCx9hmbPYAqVAmdj" ] },
      { "delegate": "tz3RDC3Jdn4j15J7bBHZd29EUee9gVB1CxD9",
        "reception_time": "2022-01-15T05:47:17.568-00:00",
        "included_in_blocks":
          [ "BKkmEpFjfApGQC8nyBH7Nn4VRKkBRycDa8QFCx9hmbPYAqVAmdj" ] },
      { "delegate": "tz1Nf6tsK4G6bBqgSQERy4nUtkHNKUVdh7q1",
        "reception_time": "2022-01-15T05:47:17.570-00:00",
        "included_in_blocks":
          [ "BKkmEpFjfApGQC8nyBH7Nn4VRKkBRycDa8QFCx9hmbPYAqVAmdj" ] },
      { "delegate": "tz3UoffC7FG7zfpmvmjUmUeAaHvzdcUvAj6r",
        "reception_time": "2022-01-15T05:47:17.529-00:00",
        "included_in_blocks":
          [ "BKkmEpFjfApGQC8nyBH7Nn4VRKkBRycDa8QFCx9hmbPYAqVAmdj" ] },
      { "delegate": "tz1SYq214SCBy9naR6cvycQsYcUGpBqQAE8d",
        "reception_time": "2022-01-15T05:47:17.659-00:00",
        "included_in_blocks":
          [ "BKkmEpFjfApGQC8nyBH7Nn4VRKkBRycDa8QFCx9hmbPYAqVAmdj" ] },
      { "delegate": "tz1MGTFJXpQmtxLi8QJ7AuVRgM2L2Qfn9w9i",
        "reception_time": "2022-01-15T05:47:17.371-00:00",
        "included_in_blocks":
          [ "BKkmEpFjfApGQC8nyBH7Nn4VRKkBRycDa8QFCx9hmbPYAqVAmdj" ] },
      { "delegate": "tz1TEc75UKXv4W5cwi14Na3NtqFD51yKQi7h",
        "reception_time": "2022-01-15T05:47:17.393-00:00",
        "included_in_blocks":
          [ "BKkmEpFjfApGQC8nyBH7Nn4VRKkBRycDa8QFCx9hmbPYAqVAmdj" ] },
      { "delegate": "tz1SohptP53wDPZhzTWzDUFAUcWF6DMBpaJV",
        "reception_time": "2022-01-15T05:47:17.206-00:00",
        "included_in_blocks":
          [ "BKkmEpFjfApGQC8nyBH7Nn4VRKkBRycDa8QFCx9hmbPYAqVAmdj" ] },
      { "delegate": "tz1RNoDLWUjbqqs6uCHtJKgSLAegutbD8cNe",
        "reception_time": "2022-01-15T05:47:17.340-00:00",
        "included_in_blocks":
          [ "BKkmEpFjfApGQC8nyBH7Nn4VRKkBRycDa8QFCx9hmbPYAqVAmdj" ] },
      { "delegate": "tz1abmz7jiCV2GH2u81LRrGgAFFgvQgiDiaf",
        "reception_time": "2022-01-15T05:47:17.255-00:00",
        "included_in_blocks":
          [ "BKkmEpFjfApGQC8nyBH7Nn4VRKkBRycDa8QFCx9hmbPYAqVAmdj" ] },
      { "delegate": "tz1MH387oMRFco3kzz8t3wuqdbpAyTcKZtsg",
        "reception_time": "2022-01-15T05:47:17.286-00:00",
        "included_in_blocks":
          [ "BKkmEpFjfApGQC8nyBH7Nn4VRKkBRycDa8QFCx9hmbPYAqVAmdj" ] },
      { "delegate": "tz2FCNBrERXtaTtNX6iimR1UJ5JSDxvdHM93",
        "reception_time": "2022-01-15T05:47:17.277-00:00",
        "included_in_blocks":
          [ "BKkmEpFjfApGQC8nyBH7Nn4VRKkBRycDa8QFCx9hmbPYAqVAmdj" ] },
      { "delegate": "tz1KfEsrtDaA1sX7vdM4qmEPWuSytuqCDp5j",
        "reception_time": "2022-01-15T05:47:17.304-00:00",
        "included_in_blocks":
          [ "BKkmEpFjfApGQC8nyBH7Nn4VRKkBRycDa8QFCx9hmbPYAqVAmdj" ] },
      { "delegate": "tz1MQMiZHV8q4tTwUMWmS5Y3kaP6J2136iXr",
        "reception_time": "2022-01-15T05:47:17.164-00:00",
        "included_in_blocks":
          [ "BKkmEpFjfApGQC8nyBH7Nn4VRKkBRycDa8QFCx9hmbPYAqVAmdj" ] },
      { "delegate": "tz3NDpRj6WBrJPikcPVHRBEjWKxFw3c6eQPS",
        "reception_time": "2022-01-15T05:47:17.337-00:00",
        "included_in_blocks":
          [ "BKkmEpFjfApGQC8nyBH7Nn4VRKkBRycDa8QFCx9hmbPYAqVAmdj" ] },
      { "delegate": "tz1WBfwbT66FC6BTLexc2BoyCCBM9LG7pnVW",
        "reception_time": "2022-01-15T05:47:17.260-00:00",
        "included_in_blocks":
          [ "BKkmEpFjfApGQC8nyBH7Nn4VRKkBRycDa8QFCx9hmbPYAqVAmdj" ] },
      { "delegate": "tz1TwVimQy3BywXoSszdFXjT9bSTQrsZYo2u",
        "reception_time": "2022-01-15T05:47:16.965-00:00",
        "included_in_blocks":
          [ "BKkmEpFjfApGQC8nyBH7Nn4VRKkBRycDa8QFCx9hmbPYAqVAmdj" ] },
      { "delegate": "tz1PWCDnz783NNGGQjEFFsHtrcK5yBW4E2rm",
        "reception_time": "2022-01-15T05:47:16.981-00:00",
        "included_in_blocks":
          [ "BKkmEpFjfApGQC8nyBH7Nn4VRKkBRycDa8QFCx9hmbPYAqVAmdj" ] },
      { "delegate": "tz1LmaFsWRkjr7QMCx5PtV6xTUz3AmEpKQiF",
        "reception_time": "2022-01-15T05:47:16.969-00:00",
        "included_in_blocks":
          [ "BKkmEpFjfApGQC8nyBH7Nn4VRKkBRycDa8QFCx9hmbPYAqVAmdj" ] },
      { "delegate": "tz1V4qCyvPKZ5UeqdH14HN42rxvNPQfc9UZg",
        "reception_time": "2022-01-15T05:47:16.963-00:00",
        "included_in_blocks":
          [ "BKkmEpFjfApGQC8nyBH7Nn4VRKkBRycDa8QFCx9hmbPYAqVAmdj" ] },
      { "delegate": "tz1S8MNvuFEUsWgjHvi3AxibRBf388NhT1q2",
        "reception_time": "2022-01-15T05:47:17.008-00:00",
        "included_in_blocks":
          [ "BKkmEpFjfApGQC8nyBH7Nn4VRKkBRycDa8QFCx9hmbPYAqVAmdj" ] },
      { "delegate": "tz1gfArv665EUkSg2ojMBzcbfwuPxAvqPvjo",
        "reception_time": "2022-01-15T05:47:17.002-00:00",
        "included_in_blocks":
          [ "BKkmEpFjfApGQC8nyBH7Nn4VRKkBRycDa8QFCx9hmbPYAqVAmdj" ] },
      { "delegate": "tz1bHzftcTKZMTZgLLtnrXydCm6UEqf4ivca",
        "reception_time": "2022-01-15T05:47:16.960-00:00",
        "included_in_blocks":
          [ "BKkmEpFjfApGQC8nyBH7Nn4VRKkBRycDa8QFCx9hmbPYAqVAmdj" ] },
      { "delegate": "tz1d8SMQTY56YRsCEa5UZNnKgWe2yP7obxKs",
        "reception_time": "2022-01-15T05:47:16.973-00:00",
        "included_in_blocks":
          [ "BKkmEpFjfApGQC8nyBH7Nn4VRKkBRycDa8QFCx9hmbPYAqVAmdj" ] },
      { "delegate": "tz1RCFbB9GpALpsZtu6J58sb74dm8qe6XBzv",
        "reception_time": "2022-01-15T05:47:16.837-00:00",
        "included_in_blocks":
          [ "BKkmEpFjfApGQC8nyBH7Nn4VRKkBRycDa8QFCx9hmbPYAqVAmdj" ] },
      { "delegate": "tz3RB4aoyjov4KEVRbuhvQ1CKJgBJMWhaeB8",
        "reception_time": "2022-01-15T05:47:16.878-00:00",
        "included_in_blocks":
          [ "BKkmEpFjfApGQC8nyBH7Nn4VRKkBRycDa8QFCx9hmbPYAqVAmdj" ] },
      { "delegate": "tz1gUNyn3hmnEWqkusWPzxRaon1cs7ndWh7h",
        "reception_time": "2022-01-15T05:47:16.806-00:00",
        "included_in_blocks":
          [ "BKkmEpFjfApGQC8nyBH7Nn4VRKkBRycDa8QFCx9hmbPYAqVAmdj" ] },
      { "delegate": "tz1VQnqCCqX4K5sP3FNkVSNKTdCAMJDd3E1n",
        "reception_time": "2022-01-15T05:47:16.828-00:00",
        "included_in_blocks":
          [ "BKkmEpFjfApGQC8nyBH7Nn4VRKkBRycDa8QFCx9hmbPYAqVAmdj" ] },
      { "delegate": "tz3bTdwZinP8U1JmSweNzVKhmwafqWmFWRfk",
        "reception_time": "2022-01-15T05:47:16.954-00:00",
        "included_in_blocks":
          [ "BKkmEpFjfApGQC8nyBH7Nn4VRKkBRycDa8QFCx9hmbPYAqVAmdj" ] },
      { "delegate": "tz3adcvQaKXTCg12zbninqo3q8ptKKtDFTLv",
        "reception_time": "2022-01-15T05:47:16.932-00:00",
        "included_in_blocks":
          [ "BKkmEpFjfApGQC8nyBH7Nn4VRKkBRycDa8QFCx9hmbPYAqVAmdj" ] },
      { "delegate": "tz3bvNMQ95vfAYtG8193ymshqjSvmxiCUuR5",
        "reception_time": "2022-01-15T05:47:16.852-00:00",
        "included_in_blocks":
          [ "BKkmEpFjfApGQC8nyBH7Nn4VRKkBRycDa8QFCx9hmbPYAqVAmdj" ] },
      { "delegate": "tz1UJvHTgpVzcKWhTazGxVcn5wsHru5Gietg",
        "reception_time": "2022-01-15T05:47:16.708-00:00",
        "included_in_blocks":
          [ "BKkmEpFjfApGQC8nyBH7Nn4VRKkBRycDa8QFCx9hmbPYAqVAmdj" ] },
      { "delegate": "tz1aXD7Jigrt3PBYSpHSg5Rr33SexMmmM5Ys",
        "reception_time": "2022-01-15T05:47:16.726-00:00",
        "included_in_blocks":
          [ "BKkmEpFjfApGQC8nyBH7Nn4VRKkBRycDa8QFCx9hmbPYAqVAmdj" ] },
      { "delegate": "tz1Kt4P8BCaP93AEV4eA7gmpRryWt5hznjCP",
        "reception_time": "2022-01-15T05:47:16.687-00:00",
        "included_in_blocks":
          [ "BKkmEpFjfApGQC8nyBH7Nn4VRKkBRycDa8QFCx9hmbPYAqVAmdj" ] },
      { "delegate": "tz1VmiY38m3y95HqQLjMwqnMS7sdMfGomzKi",
        "reception_time": "2022-01-15T05:47:16.808-00:00",
        "included_in_blocks":
          [ "BKkmEpFjfApGQC8nyBH7Nn4VRKkBRycDa8QFCx9hmbPYAqVAmdj" ] },
      { "delegate": "tz1WCd2jm4uSt4vntk4vSuUWoZQGhLcDuR9q",
        "reception_time": "2022-01-15T05:47:16.799-00:00",
        "included_in_blocks":
          [ "BKkmEpFjfApGQC8nyBH7Nn4VRKkBRycDa8QFCx9hmbPYAqVAmdj" ] },
      { "delegate": "tz1TzaNn7wSQSP5gYPXCnNzBCpyMiidCq1PX",
        "reception_time": "2022-01-15T05:47:16.571-00:00",
        "included_in_blocks":
          [ "BKkmEpFjfApGQC8nyBH7Nn4VRKkBRycDa8QFCx9hmbPYAqVAmdj" ] },
      { "delegate": "tz3Zhs2dygr55yHyQyKjntAtY9bgfhLZ4Xj1",
        "reception_time": "2022-01-15T05:47:16.794-00:00",
        "included_in_blocks":
          [ "BKkmEpFjfApGQC8nyBH7Nn4VRKkBRycDa8QFCx9hmbPYAqVAmdj" ] },
      { "delegate": "tz3QT9dHYKDqh563chVa6za8526ys1UKfRfL",
        "reception_time": "2022-01-15T05:47:16.676-00:00",
        "included_in_blocks":
          [ "BKkmEpFjfApGQC8nyBH7Nn4VRKkBRycDa8QFCx9hmbPYAqVAmdj" ] },
      { "delegate": "tz1Ldzz6k1BHdhuKvAtMRX7h5kJSMHESMHLC",
        "reception_time": "2022-01-15T05:47:16.536-00:00",
        "included_in_blocks":
          [ "BKkmEpFjfApGQC8nyBH7Nn4VRKkBRycDa8QFCx9hmbPYAqVAmdj" ] },
      { "delegate": "tz3iJu5vrKZcsqRPs8yJ61UDoeEXZmtro4qh",
        "reception_time": "2022-01-15T05:47:16.616-00:00",
        "included_in_blocks":
          [ "BKkmEpFjfApGQC8nyBH7Nn4VRKkBRycDa8QFCx9hmbPYAqVAmdj" ] },
      { "delegate": "tz3S6BBeKgJGXxvLyZ1xzXzMPn11nnFtq5L9",
        "reception_time": "2022-01-15T05:47:16.646-00:00",
        "included_in_blocks":
          [ "BKkmEpFjfApGQC8nyBH7Nn4VRKkBRycDa8QFCx9hmbPYAqVAmdj" ] },
      { "delegate": "tz3RKYFsLuQzKBtmYuLNas7uMu3AsYd4QdsA",
        "reception_time": "2022-01-15T05:47:16.616-00:00",
        "included_in_blocks":
          [ "BKkmEpFjfApGQC8nyBH7Nn4VRKkBRycDa8QFCx9hmbPYAqVAmdj" ] },
      { "delegate": "tz3hw2kqXhLUvY65ca1eety2oQTpAvd34R9Q",
        "reception_time": "2022-01-15T05:47:16.654-00:00",
        "included_in_blocks":
          [ "BKkmEpFjfApGQC8nyBH7Nn4VRKkBRycDa8QFCx9hmbPYAqVAmdj" ] },
      { "delegate": "tz3ZbP2pM3nwvXztbuMJwJnDvV5xdpU8UkkD",
        "reception_time": "2022-01-15T05:47:16.552-00:00",
        "included_in_blocks":
          [ "BKkmEpFjfApGQC8nyBH7Nn4VRKkBRycDa8QFCx9hmbPYAqVAmdj" ] },
      { "delegate": "tz1irJKkXS2DBWkU1NnmFQx1c1L7pbGg4yhk",
        "reception_time": "2022-01-15T05:47:16.598-00:00",
        "included_in_blocks":
          [ "BKkmEpFjfApGQC8nyBH7Nn4VRKkBRycDa8QFCx9hmbPYAqVAmdj" ] },
      { "delegate": "tz1P2Po7YM526ughEsRbY4oR9zaUPDZjxFrb",
        "reception_time": "2022-01-15T05:47:16.552-00:00",
        "included_in_blocks":
          [ "BKkmEpFjfApGQC8nyBH7Nn4VRKkBRycDa8QFCx9hmbPYAqVAmdj" ] },
      { "delegate": "tz3gtoUxdudfBRcNY7iVdKPHCYYX6xdPpoRS",
        "reception_time": "2022-01-15T05:47:16.528-00:00",
        "included_in_blocks":
          [ "BKkmEpFjfApGQC8nyBH7Nn4VRKkBRycDa8QFCx9hmbPYAqVAmdj" ] },
      { "delegate": "tz1RV1MBbZMR68tacosb7Mwj6LkbPSUS1er1",
        "reception_time": "2022-01-15T05:47:16.587-00:00",
        "included_in_blocks":
          [ "BKkmEpFjfApGQC8nyBH7Nn4VRKkBRycDa8QFCx9hmbPYAqVAmdj" ] },
      { "delegate": "tz3NxTnke1acr8o3h5y9ytf5awQBGNJUKzVU",
        "reception_time": "2022-01-15T05:47:16.584-00:00",
        "included_in_blocks":
          [ "BKkmEpFjfApGQC8nyBH7Nn4VRKkBRycDa8QFCx9hmbPYAqVAmdj" ] },
      { "delegate": "tz3QSGPoRp3Kn7n3vY24eYeu3Peuqo45LQ4D",
        "reception_time": "2022-01-15T05:47:16.528-00:00",
        "included_in_blocks":
          [ "BKkmEpFjfApGQC8nyBH7Nn4VRKkBRycDa8QFCx9hmbPYAqVAmdj" ] },
      { "delegate": "tz1Scdr2HsZiQjc7bHMeBbmDRXYVvdhjJbBh",
        "reception_time": "2022-01-15T05:47:16.538-00:00",
        "included_in_blocks":
          [ "BKkmEpFjfApGQC8nyBH7Nn4VRKkBRycDa8QFCx9hmbPYAqVAmdj" ] },
      { "delegate": "tz1MXFrtZoaXckE41bjUCSjAjAap3AFDSr3N",
        "reception_time": "2022-01-15T05:47:16.563-00:00",
        "included_in_blocks":
          [ "BKkmEpFjfApGQC8nyBH7Nn4VRKkBRycDa8QFCx9hmbPYAqVAmdj" ] },
      { "delegate": "tz1eEnQhbwf6trb8Q8mPb2RaPkNk2rN7BKi8",
        "reception_time": "2022-01-15T05:47:16.563-00:00",
        "included_in_blocks":
          [ "BKkmEpFjfApGQC8nyBH7Nn4VRKkBRycDa8QFCx9hmbPYAqVAmdj" ] },
      { "delegate": "tz1S8e9GgdZG78XJRB3NqabfWeM37GnhZMWQ",
        "reception_time": "2022-01-15T05:47:16.225-00:00",
        "included_in_blocks":
          [ "BKkmEpFjfApGQC8nyBH7Nn4VRKkBRycDa8QFCx9hmbPYAqVAmdj" ] } ] }