{ "blocks":
    [ { "hash": "BMY5beLdar7Y5NcG49ENVjVxPkF2F2FmyjjehK1atEDyF51SD1f",
        "delegate": "tz3NExpXn9aPNZPorRE4SdjJ2RGrfbJgMAaV",
        "reception_time": "2022-01-15T10:29:21.528-00:00",
        "timestamp": "2022-01-15T10:29:10Z" } ],
  "endorsements":
    [ { "delegate": "tz1NdhRv643wLW6zCcRP3VfT24dvDnh7nuh9" },
      { "delegate": "tz3QCNyySViKHmeSr45kzDxzchys7NiXCWoa",
        "reception_time": "2022-01-15T10:29:21.506-00:00",
        "errors":
          [ { "kind": "temporary",
              "id": "proto.011-PtHangz2.prefilter.outdated_endorsement" } ],
        "included_in_blocks":
          [ "BLmWWV6bHyK5zvjDwopbujkd98KmSNsgQyKydnv84TLRjXssVQK" ] },
      { "delegate": "tz1iPHM2Xx2hwmzcr1EG1zzrV6oKafVoA91m",
        "reception_time": "2022-01-15T10:29:21.224-00:00",
        "errors":
          [ { "kind": "temporary",
              "id": "proto.011-PtHangz2.prefilter.outdated_endorsement" } ],
        "included_in_blocks":
          [ "BLmWWV6bHyK5zvjDwopbujkd98KmSNsgQyKydnv84TLRjXssVQK" ] },
      { "delegate": "tz1KfEsrtDaA1sX7vdM4qmEPWuSytuqCDp5j",
        "reception_time": "2022-01-15T10:29:21.115-00:00",
        "errors":
          [ { "kind": "temporary",
              "id": "proto.011-PtHangz2.prefilter.outdated_endorsement" } ],
        "included_in_blocks":
          [ "BLmWWV6bHyK5zvjDwopbujkd98KmSNsgQyKydnv84TLRjXssVQK" ] },
      { "delegate": "tz1MJx9vhaNRSimcuXPK2rW4fLccQnDAnVKJ",
        "reception_time": "2022-01-15T10:29:21.082-00:00",
        "errors":
          [ { "kind": "temporary",
              "id": "proto.011-PtHangz2.prefilter.outdated_endorsement" } ],
        "included_in_blocks":
          [ "BLmWWV6bHyK5zvjDwopbujkd98KmSNsgQyKydnv84TLRjXssVQK" ] },
      { "delegate": "tz1S8MNvuFEUsWgjHvi3AxibRBf388NhT1q2",
        "reception_time": "2022-01-15T10:29:21.018-00:00",
        "errors":
          [ { "kind": "temporary",
              "id": "proto.011-PtHangz2.prefilter.outdated_endorsement" } ],
        "included_in_blocks":
          [ "BLmWWV6bHyK5zvjDwopbujkd98KmSNsgQyKydnv84TLRjXssVQK" ] },
      { "delegate": "tz3NExpXn9aPNZPorRE4SdjJ2RGrfbJgMAaV",
        "reception_time": "2022-01-15T10:29:20.986-00:00",
        "errors":
          [ { "kind": "temporary",
              "id": "proto.011-PtHangz2.prefilter.outdated_endorsement" } ],
        "included_in_blocks":
          [ "BLmWWV6bHyK5zvjDwopbujkd98KmSNsgQyKydnv84TLRjXssVQK" ] },
      { "delegate": "tz1fb7c66UwePkkfDXz4ajFaBP9hVNLdS7JJ",
        "reception_time": "2022-01-15T10:29:20.982-00:00",
        "errors":
          [ { "kind": "temporary",
              "id": "proto.011-PtHangz2.prefilter.outdated_endorsement" } ],
        "included_in_blocks":
          [ "BLmWWV6bHyK5zvjDwopbujkd98KmSNsgQyKydnv84TLRjXssVQK" ] },
      { "delegate": "tz1ei4WtWEMEJekSv8qDnu9PExG6Q8HgRGr3",
        "reception_time": "2022-01-15T10:29:20.930-00:00",
        "errors":
          [ { "kind": "temporary",
              "id": "proto.011-PtHangz2.prefilter.outdated_endorsement" } ],
        "included_in_blocks":
          [ "BLmWWV6bHyK5zvjDwopbujkd98KmSNsgQyKydnv84TLRjXssVQK" ] },
      { "delegate": "tz3bvNMQ95vfAYtG8193ymshqjSvmxiCUuR5",
        "reception_time": "2022-01-15T10:29:20.917-00:00",
        "errors":
          [ { "kind": "temporary",
              "id": "proto.011-PtHangz2.prefilter.outdated_endorsement" } ],
        "included_in_blocks":
          [ "BLmWWV6bHyK5zvjDwopbujkd98KmSNsgQyKydnv84TLRjXssVQK" ] },
      { "delegate": "tz1LnWa4AiFCjMezTgSNa65QFoo7DQGEWgEU",
        "reception_time": "2022-01-15T10:29:20.827-00:00",
        "errors":
          [ { "kind": "temporary",
              "id": "proto.011-PtHangz2.prefilter.outdated_endorsement" } ],
        "included_in_blocks":
          [ "BLmWWV6bHyK5zvjDwopbujkd98KmSNsgQyKydnv84TLRjXssVQK" ] },
      { "delegate": "tz1V4qCyvPKZ5UeqdH14HN42rxvNPQfc9UZg",
        "reception_time": "2022-01-15T10:29:20.824-00:00",
        "errors":
          [ { "kind": "temporary",
              "id": "proto.011-PtHangz2.prefilter.outdated_endorsement" } ],
        "included_in_blocks":
          [ "BLmWWV6bHyK5zvjDwopbujkd98KmSNsgQyKydnv84TLRjXssVQK" ] },
      { "delegate": "tz1bHzftcTKZMTZgLLtnrXydCm6UEqf4ivca",
        "reception_time": "2022-01-15T10:29:20.816-00:00",
        "errors":
          [ { "kind": "temporary",
              "id": "proto.011-PtHangz2.prefilter.outdated_endorsement" } ],
        "included_in_blocks":
          [ "BLmWWV6bHyK5zvjDwopbujkd98KmSNsgQyKydnv84TLRjXssVQK" ] },
      { "delegate": "tz1RNoDLWUjbqqs6uCHtJKgSLAegutbD8cNe",
        "reception_time": "2022-01-15T10:29:20.805-00:00",
        "errors":
          [ { "kind": "temporary",
              "id": "proto.011-PtHangz2.prefilter.outdated_endorsement" } ],
        "included_in_blocks":
          [ "BLmWWV6bHyK5zvjDwopbujkd98KmSNsgQyKydnv84TLRjXssVQK" ] },
      { "delegate": "tz3QT9dHYKDqh563chVa6za8526ys1UKfRfL",
        "reception_time": "2022-01-15T10:29:20.768-00:00",
        "errors":
          [ { "kind": "temporary",
              "id": "proto.011-PtHangz2.prefilter.outdated_endorsement" } ],
        "included_in_blocks":
          [ "BLmWWV6bHyK5zvjDwopbujkd98KmSNsgQyKydnv84TLRjXssVQK" ] },
      { "delegate": "tz1fPKAtsYydh4f1wfWNfeNxWYu72TmM48fu",
        "reception_time": "2022-01-15T10:29:20.737-00:00",
        "errors":
          [ { "kind": "temporary",
              "id": "proto.011-PtHangz2.prefilter.outdated_endorsement" } ],
        "included_in_blocks":
          [ "BLmWWV6bHyK5zvjDwopbujkd98KmSNsgQyKydnv84TLRjXssVQK" ] },
      { "delegate": "tz3VEZ4k6a4Wx42iyev6i2aVAptTRLEAivNN",
        "reception_time": "2022-01-15T10:29:20.722-00:00",
        "errors":
          [ { "kind": "temporary",
              "id": "proto.011-PtHangz2.prefilter.outdated_endorsement" } ],
        "included_in_blocks":
          [ "BLmWWV6bHyK5zvjDwopbujkd98KmSNsgQyKydnv84TLRjXssVQK" ] },
      { "delegate": "tz3bTdwZinP8U1JmSweNzVKhmwafqWmFWRfk",
        "reception_time": "2022-01-15T10:29:20.664-00:00",
        "errors":
          [ { "kind": "temporary",
              "id": "proto.011-PtHangz2.prefilter.outdated_endorsement" } ],
        "included_in_blocks":
          [ "BLmWWV6bHyK5zvjDwopbujkd98KmSNsgQyKydnv84TLRjXssVQK" ] },
      { "delegate": "tz3S6BBeKgJGXxvLyZ1xzXzMPn11nnFtq5L9",
        "reception_time": "2022-01-15T10:29:20.659-00:00",
        "errors":
          [ { "kind": "temporary",
              "id": "proto.011-PtHangz2.prefilter.outdated_endorsement" } ],
        "included_in_blocks":
          [ "BLmWWV6bHyK5zvjDwopbujkd98KmSNsgQyKydnv84TLRjXssVQK" ] },
      { "delegate": "tz1PWCDnz783NNGGQjEFFsHtrcK5yBW4E2rm",
        "reception_time": "2022-01-15T10:29:20.627-00:00",
        "errors":
          [ { "kind": "temporary",
              "id": "proto.011-PtHangz2.prefilter.outdated_endorsement" } ],
        "included_in_blocks":
          [ "BLmWWV6bHyK5zvjDwopbujkd98KmSNsgQyKydnv84TLRjXssVQK" ] },
      { "delegate": "tz1MQMiZHV8q4tTwUMWmS5Y3kaP6J2136iXr",
        "reception_time": "2022-01-15T10:29:20.600-00:00",
        "errors":
          [ { "kind": "temporary",
              "id": "proto.011-PtHangz2.prefilter.outdated_endorsement" } ],
        "included_in_blocks":
          [ "BLmWWV6bHyK5zvjDwopbujkd98KmSNsgQyKydnv84TLRjXssVQK" ] },
      { "delegate": "tz3gtoUxdudfBRcNY7iVdKPHCYYX6xdPpoRS",
        "reception_time": "2022-01-15T10:29:20.574-00:00",
        "errors":
          [ { "kind": "temporary",
              "id": "proto.011-PtHangz2.prefilter.outdated_endorsement" } ],
        "included_in_blocks":
          [ "BLmWWV6bHyK5zvjDwopbujkd98KmSNsgQyKydnv84TLRjXssVQK" ] },
      { "delegate": "tz1ZPh7XfUaJXUDvkrBxmS1BjEM1i62hiPpM",
        "reception_time": "2022-01-15T10:29:20.569-00:00",
        "errors":
          [ { "kind": "temporary",
              "id": "proto.011-PtHangz2.prefilter.outdated_endorsement" } ],
        "included_in_blocks":
          [ "BLmWWV6bHyK5zvjDwopbujkd98KmSNsgQyKydnv84TLRjXssVQK" ] },
      { "delegate": "tz3iJu5vrKZcsqRPs8yJ61UDoeEXZmtro4qh",
        "reception_time": "2022-01-15T10:29:20.567-00:00",
        "errors":
          [ { "kind": "temporary",
              "id": "proto.011-PtHangz2.prefilter.outdated_endorsement" } ],
        "included_in_blocks":
          [ "BLmWWV6bHyK5zvjDwopbujkd98KmSNsgQyKydnv84TLRjXssVQK" ] },
      { "delegate": "tz1LLNkQK4UQV6QcFShiXJ2vT2ELw449MzAA",
        "reception_time": "2022-01-15T10:29:20.567-00:00",
        "errors":
          [ { "kind": "temporary",
              "id": "proto.011-PtHangz2.prefilter.outdated_endorsement" } ],
        "included_in_blocks":
          [ "BLmWWV6bHyK5zvjDwopbujkd98KmSNsgQyKydnv84TLRjXssVQK" ] },
      { "delegate": "tz3QSGPoRp3Kn7n3vY24eYeu3Peuqo45LQ4D",
        "reception_time": "2022-01-15T10:29:20.519-00:00",
        "errors":
          [ { "kind": "temporary",
              "id": "proto.011-PtHangz2.prefilter.outdated_endorsement" } ],
        "included_in_blocks":
          [ "BLmWWV6bHyK5zvjDwopbujkd98KmSNsgQyKydnv84TLRjXssVQK" ] },
      { "delegate": "tz3hw2kqXhLUvY65ca1eety2oQTpAvd34R9Q",
        "reception_time": "2022-01-15T10:29:20.459-00:00",
        "errors":
          [ { "kind": "temporary",
              "id": "proto.011-PtHangz2.prefilter.outdated_endorsement" } ],
        "included_in_blocks":
          [ "BLmWWV6bHyK5zvjDwopbujkd98KmSNsgQyKydnv84TLRjXssVQK" ] },
      { "delegate": "tz3Zhs2dygr55yHyQyKjntAtY9bgfhLZ4Xj1",
        "reception_time": "2022-01-15T10:29:20.450-00:00",
        "errors":
          [ { "kind": "temporary",
              "id": "proto.011-PtHangz2.prefilter.outdated_endorsement" } ],
        "included_in_blocks":
          [ "BLmWWV6bHyK5zvjDwopbujkd98KmSNsgQyKydnv84TLRjXssVQK" ] },
      { "delegate": "tz1gUNyn3hmnEWqkusWPzxRaon1cs7ndWh7h",
        "reception_time": "2022-01-15T10:29:20.391-00:00",
        "errors":
          [ { "kind": "temporary",
              "id": "proto.011-PtHangz2.prefilter.outdated_endorsement" } ],
        "included_in_blocks":
          [ "BLmWWV6bHyK5zvjDwopbujkd98KmSNsgQyKydnv84TLRjXssVQK" ] },
      { "delegate": "tz1VQnqCCqX4K5sP3FNkVSNKTdCAMJDd3E1n",
        "reception_time": "2022-01-15T10:29:20.390-00:00",
        "errors":
          [ { "kind": "temporary",
              "id": "proto.011-PtHangz2.prefilter.outdated_endorsement" } ],
        "included_in_blocks":
          [ "BLmWWV6bHyK5zvjDwopbujkd98KmSNsgQyKydnv84TLRjXssVQK" ] },
      { "delegate": "tz3RKYFsLuQzKBtmYuLNas7uMu3AsYd4QdsA",
        "reception_time": "2022-01-15T10:29:20.386-00:00",
        "errors":
          [ { "kind": "temporary",
              "id": "proto.011-PtHangz2.prefilter.outdated_endorsement" } ],
        "included_in_blocks":
          [ "BLmWWV6bHyK5zvjDwopbujkd98KmSNsgQyKydnv84TLRjXssVQK" ] },
      { "delegate": "tz1Scdr2HsZiQjc7bHMeBbmDRXYVvdhjJbBh",
        "reception_time": "2022-01-15T10:29:20.381-00:00",
        "errors":
          [ { "kind": "temporary",
              "id": "proto.011-PtHangz2.prefilter.outdated_endorsement" } ],
        "included_in_blocks":
          [ "BLmWWV6bHyK5zvjDwopbujkd98KmSNsgQyKydnv84TLRjXssVQK" ] },
      { "delegate": "tz1gfArv665EUkSg2ojMBzcbfwuPxAvqPvjo",
        "reception_time": "2022-01-15T10:29:20.360-00:00",
        "errors":
          [ { "kind": "temporary",
              "id": "proto.011-PtHangz2.prefilter.outdated_endorsement" } ],
        "included_in_blocks":
          [ "BLmWWV6bHyK5zvjDwopbujkd98KmSNsgQyKydnv84TLRjXssVQK" ] },
      { "delegate": "tz3UoffC7FG7zfpmvmjUmUeAaHvzdcUvAj6r",
        "reception_time": "2022-01-15T10:29:20.232-00:00",
        "errors":
          [ { "kind": "temporary",
              "id": "proto.011-PtHangz2.prefilter.outdated_endorsement" } ],
        "included_in_blocks":
          [ "BLmWWV6bHyK5zvjDwopbujkd98KmSNsgQyKydnv84TLRjXssVQK" ] },
      { "delegate": "tz1Ldzz6k1BHdhuKvAtMRX7h5kJSMHESMHLC",
        "reception_time": "2022-01-15T10:29:20.216-00:00",
        "errors":
          [ { "kind": "temporary",
              "id": "proto.011-PtHangz2.prefilter.outdated_endorsement" } ],
        "included_in_blocks":
          [ "BLmWWV6bHyK5zvjDwopbujkd98KmSNsgQyKydnv84TLRjXssVQK" ] },
      { "delegate": "tz1VmiY38m3y95HqQLjMwqnMS7sdMfGomzKi",
        "reception_time": "2022-01-15T10:29:20.142-00:00",
        "errors":
          [ { "kind": "temporary",
              "id": "proto.011-PtHangz2.prefilter.outdated_endorsement" } ],
        "included_in_blocks":
          [ "BLmWWV6bHyK5zvjDwopbujkd98KmSNsgQyKydnv84TLRjXssVQK" ] },
      { "delegate": "tz1irJKkXS2DBWkU1NnmFQx1c1L7pbGg4yhk",
        "reception_time": "2022-01-15T10:29:20.096-00:00",
        "errors":
          [ { "kind": "temporary",
              "id": "proto.011-PtHangz2.prefilter.outdated_endorsement" } ],
        "included_in_blocks":
          [ "BLmWWV6bHyK5zvjDwopbujkd98KmSNsgQyKydnv84TLRjXssVQK" ] },
      { "delegate": "tz3ZbP2pM3nwvXztbuMJwJnDvV5xdpU8UkkD",
        "reception_time": "2022-01-15T10:29:20.040-00:00",
        "errors":
          [ { "kind": "temporary",
              "id": "proto.011-PtHangz2.prefilter.outdated_endorsement" } ],
        "included_in_blocks":
          [ "BLmWWV6bHyK5zvjDwopbujkd98KmSNsgQyKydnv84TLRjXssVQK" ] },
      { "delegate": "tz1beersuEDv8Z7ngQ825xfbaJNS2EhXnyHR",
        "reception_time": "2022-01-15T10:29:19.931-00:00",
        "errors":
          [ { "kind": "temporary",
              "id": "proto.011-PtHangz2.prefilter.outdated_endorsement" } ],
        "included_in_blocks":
          [ "BLmWWV6bHyK5zvjDwopbujkd98KmSNsgQyKydnv84TLRjXssVQK" ] },
      { "delegate": "tz1eEnQhbwf6trb8Q8mPb2RaPkNk2rN7BKi8",
        "reception_time": "2022-01-15T10:29:19.918-00:00",
        "errors":
          [ { "kind": "temporary",
              "id": "proto.011-PtHangz2.prefilter.outdated_endorsement" } ],
        "included_in_blocks":
          [ "BLmWWV6bHyK5zvjDwopbujkd98KmSNsgQyKydnv84TLRjXssVQK" ] },
      { "delegate": "tz1Kf25fX1VdmYGSEzwFy1wNmkbSEZ2V83sY",
        "reception_time": "2022-01-15T10:29:19.902-00:00",
        "errors":
          [ { "kind": "temporary",
              "id": "proto.011-PtHangz2.prefilter.outdated_endorsement" } ],
        "included_in_blocks":
          [ "BLmWWV6bHyK5zvjDwopbujkd98KmSNsgQyKydnv84TLRjXssVQK" ] },
      { "delegate": "tz3NxTnke1acr8o3h5y9ytf5awQBGNJUKzVU",
        "reception_time": "2022-01-15T10:29:19.893-00:00",
        "errors":
          [ { "kind": "temporary",
              "id": "proto.011-PtHangz2.prefilter.outdated_endorsement" } ],
        "included_in_blocks":
          [ "BLmWWV6bHyK5zvjDwopbujkd98KmSNsgQyKydnv84TLRjXssVQK" ] },
      { "delegate": "tz1P2Po7YM526ughEsRbY4oR9zaUPDZjxFrb",
        "reception_time": "2022-01-15T10:29:19.764-00:00",
        "errors":
          [ { "kind": "temporary",
              "id": "proto.011-PtHangz2.prefilter.outdated_endorsement" } ],
        "included_in_blocks":
          [ "BLmWWV6bHyK5zvjDwopbujkd98KmSNsgQyKydnv84TLRjXssVQK" ] },
      { "delegate": "tz1TXzyaKUA8wsWefdSnyaYFnV2M3vCV7er9",
        "reception_time": "2022-01-15T10:29:19.581-00:00",
        "errors":
          [ { "kind": "temporary",
              "id": "proto.011-PtHangz2.prefilter.outdated_endorsement" } ],
        "included_in_blocks":
          [ "BLmWWV6bHyK5zvjDwopbujkd98KmSNsgQyKydnv84TLRjXssVQK" ] },
      { "delegate": "tz1MXFrtZoaXckE41bjUCSjAjAap3AFDSr3N",
        "reception_time": "2022-01-15T10:29:19.434-00:00",
        "errors":
          [ { "kind": "temporary",
              "id": "proto.011-PtHangz2.prefilter.outdated_endorsement" } ],
        "included_in_blocks":
          [ "BLmWWV6bHyK5zvjDwopbujkd98KmSNsgQyKydnv84TLRjXssVQK" ] },
      { "delegate": "tz1Kt4P8BCaP93AEV4eA7gmpRryWt5hznjCP",
        "reception_time": "2022-01-15T10:29:19.096-00:00",
        "errors":
          [ { "kind": "temporary",
              "id": "proto.011-PtHangz2.prefilter.outdated_endorsement" } ],
        "included_in_blocks":
          [ "BLmWWV6bHyK5zvjDwopbujkd98KmSNsgQyKydnv84TLRjXssVQK" ] },
      { "delegate": "tz1S8e9GgdZG78XJRB3NqabfWeM37GnhZMWQ",
        "reception_time": "2022-01-15T10:29:19.063-00:00",
        "errors":
          [ { "kind": "temporary",
              "id": "proto.011-PtHangz2.prefilter.outdated_endorsement" } ],
        "included_in_blocks":
          [ "BLmWWV6bHyK5zvjDwopbujkd98KmSNsgQyKydnv84TLRjXssVQK" ] },
      { "delegate": "tz1Uoy4PdQDDiHRRec77pJEQJ21tSyksarur",
        "reception_time": "2022-01-15T10:29:34.510-00:00",
        "included_in_blocks":
          [ "BLmWWV6bHyK5zvjDwopbujkd98KmSNsgQyKydnv84TLRjXssVQK" ] },
      { "delegate": "tz1awXW7wuXy21c66vBudMXQVAPgRnqqwgTH",
        "reception_time": "2022-01-15T10:29:33.862-00:00",
        "included_in_blocks":
          [ "BLmWWV6bHyK5zvjDwopbujkd98KmSNsgQyKydnv84TLRjXssVQK" ] },
      { "delegate": "tz1YiuvpfeVAHbnU8akcWErNfQGFHNQ7F45z",
        "reception_time": "2022-01-15T10:29:30.191-00:00",
        "included_in_blocks":
          [ "BLmWWV6bHyK5zvjDwopbujkd98KmSNsgQyKydnv84TLRjXssVQK" ] },
      { "delegate": "tz1TRqbYbUf2GyrjErf3hBzgBJPzW8y36qEs",
        "reception_time": "2022-01-15T10:29:29.169-00:00",
        "included_in_blocks":
          [ "BLmWWV6bHyK5zvjDwopbujkd98KmSNsgQyKydnv84TLRjXssVQK" ] },
      { "delegate": "tz1V3yg82mcrPJbegqVCPn6bC8w1CSTRp3f8",
        "reception_time": "2022-01-15T10:29:26.163-00:00",
        "included_in_blocks":
          [ "BLmWWV6bHyK5zvjDwopbujkd98KmSNsgQyKydnv84TLRjXssVQK" ] },
      { "delegate": "tz1SYq214SCBy9naR6cvycQsYcUGpBqQAE8d",
        "reception_time": "2022-01-15T10:29:25.758-00:00",
        "included_in_blocks":
          [ "BLmWWV6bHyK5zvjDwopbujkd98KmSNsgQyKydnv84TLRjXssVQK" ] },
      { "delegate": "tz2FCNBrERXtaTtNX6iimR1UJ5JSDxvdHM93",
        "reception_time": "2022-01-15T10:29:25.303-00:00",
        "included_in_blocks":
          [ "BLmWWV6bHyK5zvjDwopbujkd98KmSNsgQyKydnv84TLRjXssVQK" ] },
      { "delegate": "tz1aJS7Pk9uWR3wWyFf1i3RwhYxN84G7stom",
        "reception_time": "2022-01-15T10:29:25.676-00:00",
        "included_in_blocks":
          [ "BLmWWV6bHyK5zvjDwopbujkd98KmSNsgQyKydnv84TLRjXssVQK" ] },
      { "delegate": "tz1RCFbB9GpALpsZtu6J58sb74dm8qe6XBzv",
        "reception_time": "2022-01-15T10:29:25.294-00:00",
        "included_in_blocks":
          [ "BLmWWV6bHyK5zvjDwopbujkd98KmSNsgQyKydnv84TLRjXssVQK" ] },
      { "delegate": "tz1QJU1PuKUP5ZQxUr4pHZjCHGRvJSpcXv7G",
        "reception_time": "2022-01-15T10:29:25.132-00:00",
        "included_in_blocks":
          [ "BLmWWV6bHyK5zvjDwopbujkd98KmSNsgQyKydnv84TLRjXssVQK" ] },
      { "delegate": "tz1ULYFhUY7Syao5NWr9jZ1pp3aw81QPiqjs",
        "reception_time": "2022-01-15T10:29:24.390-00:00",
        "included_in_blocks":
          [ "BLmWWV6bHyK5zvjDwopbujkd98KmSNsgQyKydnv84TLRjXssVQK" ] },
      { "delegate": "tz1T7duV5gZWSTq4YpBGbXNLTfznCLDrFxvs",
        "reception_time": "2022-01-15T10:29:24.354-00:00",
        "included_in_blocks":
          [ "BLmWWV6bHyK5zvjDwopbujkd98KmSNsgQyKydnv84TLRjXssVQK" ] },
      { "delegate": "tz1ZcTRk5uxD86EFEn1vvNffWWqJy7q5eVhc",
        "reception_time": "2022-01-15T10:29:24.302-00:00",
        "included_in_blocks":
          [ "BLmWWV6bHyK5zvjDwopbujkd98KmSNsgQyKydnv84TLRjXssVQK" ] },
      { "delegate": "tz1aRoaRhSpRYvFdyvgWLL6TGyRoGF51wDjM",
        "reception_time": "2022-01-15T10:29:24.059-00:00",
        "included_in_blocks":
          [ "BLmWWV6bHyK5zvjDwopbujkd98KmSNsgQyKydnv84TLRjXssVQK" ] },
      { "delegate": "tz1UvkANVPWppVgMkLnvN7BwYZsCP7vm6NVd",
        "reception_time": "2022-01-15T10:29:24.076-00:00",
        "included_in_blocks":
          [ "BLmWWV6bHyK5zvjDwopbujkd98KmSNsgQyKydnv84TLRjXssVQK" ] },
      { "delegate": "tz1cM8Xc7ZP1TrjkTeKq4PeRhtbnwXSBR6Sw",
        "reception_time": "2022-01-15T10:29:24.083-00:00",
        "included_in_blocks":
          [ "BLmWWV6bHyK5zvjDwopbujkd98KmSNsgQyKydnv84TLRjXssVQK" ] },
      { "delegate": "tz1RjoHc98dBoqaH2jawF62XNKh7YsHwbkEv",
        "reception_time": "2022-01-15T10:29:24.071-00:00",
        "included_in_blocks":
          [ "BLmWWV6bHyK5zvjDwopbujkd98KmSNsgQyKydnv84TLRjXssVQK" ] },
      { "delegate": "tz1QXrzaHrGACVn15UiCg33aLCJ6npWdQb3J",
        "reception_time": "2022-01-15T10:29:24.094-00:00",
        "included_in_blocks":
          [ "BLmWWV6bHyK5zvjDwopbujkd98KmSNsgQyKydnv84TLRjXssVQK" ] },
      { "delegate": "tz1RQhNh7iB9CZA7i3ifTWNwiGYVffponfbB",
        "reception_time": "2022-01-15T10:29:24.052-00:00",
        "included_in_blocks":
          [ "BLmWWV6bHyK5zvjDwopbujkd98KmSNsgQyKydnv84TLRjXssVQK" ] },
      { "delegate": "tz1dRKU4FQ9QRRQPdaH4zCR6gmCmXfcvcgtB",
        "reception_time": "2022-01-15T10:29:24.047-00:00",
        "included_in_blocks":
          [ "BLmWWV6bHyK5zvjDwopbujkd98KmSNsgQyKydnv84TLRjXssVQK" ] },
      { "delegate": "tz1Nf6tsK4G6bBqgSQERy4nUtkHNKUVdh7q1",
        "reception_time": "2022-01-15T10:29:24.079-00:00",
        "included_in_blocks":
          [ "BLmWWV6bHyK5zvjDwopbujkd98KmSNsgQyKydnv84TLRjXssVQK" ] },
      { "delegate": "tz1TcH4Nb3aHNDJ7CGZhU7jgAK1BkSP4Lxds",
        "reception_time": "2022-01-15T10:29:23.997-00:00",
        "included_in_blocks":
          [ "BLmWWV6bHyK5zvjDwopbujkd98KmSNsgQyKydnv84TLRjXssVQK" ] },
      { "delegate": "tz3RDC3Jdn4j15J7bBHZd29EUee9gVB1CxD9",
        "reception_time": "2022-01-15T10:29:24.030-00:00",
        "included_in_blocks":
          [ "BLmWWV6bHyK5zvjDwopbujkd98KmSNsgQyKydnv84TLRjXssVQK" ] },
      { "delegate": "tz1WctSwL49BZtdWAQ75NY6vr4xsAx6oKdah",
        "reception_time": "2022-01-15T10:29:24.021-00:00",
        "included_in_blocks":
          [ "BLmWWV6bHyK5zvjDwopbujkd98KmSNsgQyKydnv84TLRjXssVQK" ] },
      { "delegate": "tz3WMqdzXqRWXwyvj5Hp2H7QEepaUuS7vd9K",
        "reception_time": "2022-01-15T10:29:23.922-00:00",
        "included_in_blocks":
          [ "BLmWWV6bHyK5zvjDwopbujkd98KmSNsgQyKydnv84TLRjXssVQK" ] },
      { "delegate": "tz1UbFpJY5Hext38GisuaXQBkbzhaKJkxpEs",
        "reception_time": "2022-01-15T10:29:23.901-00:00",
        "included_in_blocks":
          [ "BLmWWV6bHyK5zvjDwopbujkd98KmSNsgQyKydnv84TLRjXssVQK" ] },
      { "delegate": "tz3RB4aoyjov4KEVRbuhvQ1CKJgBJMWhaeB8",
        "reception_time": "2022-01-15T10:29:24.039-00:00",
        "included_in_blocks":
          [ "BLmWWV6bHyK5zvjDwopbujkd98KmSNsgQyKydnv84TLRjXssVQK" ] },
      { "delegate": "tz1iZEKy4LaAjnTmn2RuGDf2iqdAQKnRi8kY",
        "reception_time": "2022-01-15T10:29:23.988-00:00",
        "included_in_blocks":
          [ "BLmWWV6bHyK5zvjDwopbujkd98KmSNsgQyKydnv84TLRjXssVQK" ] },
      { "delegate": "tz1abmz7jiCV2GH2u81LRrGgAFFgvQgiDiaf",
        "reception_time": "2022-01-15T10:29:23.913-00:00",
        "included_in_blocks":
          [ "BLmWWV6bHyK5zvjDwopbujkd98KmSNsgQyKydnv84TLRjXssVQK" ] },
      { "delegate": "tz1dNVDWPf3Q59SdJqnjdnu277iyvReiRS9M",
        "reception_time": "2022-01-15T10:29:24.057-00:00",
        "included_in_blocks":
          [ "BLmWWV6bHyK5zvjDwopbujkd98KmSNsgQyKydnv84TLRjXssVQK" ] },
      { "delegate": "tz3NDpRj6WBrJPikcPVHRBEjWKxFw3c6eQPS",
        "reception_time": "2022-01-15T10:29:23.988-00:00",
        "included_in_blocks":
          [ "BLmWWV6bHyK5zvjDwopbujkd98KmSNsgQyKydnv84TLRjXssVQK" ] },
      { "delegate": "tz1NEKxGEHsFufk87CVZcrqWu8o22qh46GK6",
        "reception_time": "2022-01-15T10:29:23.913-00:00",
        "included_in_blocks":
          [ "BLmWWV6bHyK5zvjDwopbujkd98KmSNsgQyKydnv84TLRjXssVQK" ] },
      { "delegate": "tz1axcnVN9tZnCe4sQQhC6f3tfSEXdjPaXPY",
        "reception_time": "2022-01-15T10:29:23.991-00:00",
        "included_in_blocks":
          [ "BLmWWV6bHyK5zvjDwopbujkd98KmSNsgQyKydnv84TLRjXssVQK" ] },
      { "delegate": "tz1UMCB2AHSTwG7YcGNr31CqYCtGN873royv",
        "reception_time": "2022-01-15T10:29:24.001-00:00",
        "included_in_blocks":
          [ "BLmWWV6bHyK5zvjDwopbujkd98KmSNsgQyKydnv84TLRjXssVQK" ] },
      { "delegate": "tz1MGTFJXpQmtxLi8QJ7AuVRgM2L2Qfn9w9i",
        "reception_time": "2022-01-15T10:29:23.904-00:00",
        "included_in_blocks":
          [ "BLmWWV6bHyK5zvjDwopbujkd98KmSNsgQyKydnv84TLRjXssVQK" ] },
      { "delegate": "tz1Tnjaxk6tbAeC2TmMApPh8UsrEVQvhHvx5",
        "reception_time": "2022-01-15T10:29:23.922-00:00",
        "included_in_blocks":
          [ "BLmWWV6bHyK5zvjDwopbujkd98KmSNsgQyKydnv84TLRjXssVQK" ] } ] }