{ "blocks":
    [ { "hash": "BLeM3DreN8EoUFcPUw7LwRxf6TUK8rbCp2vCBXt8gRtQcT1xR5P",
        "delegate": "tz3UoffC7FG7zfpmvmjUmUeAaHvzdcUvAj6r",
        "reception_time": "2022-01-15T05:21:01.164-00:00",
        "timestamp": "2022-01-15T05:20:50Z" } ],
  "endorsements":
    [ { "delegate": "tz1g8vkmcde6sWKaG2NN9WKzCkDM6Rziq194",
        "reception_time": "2022-01-15T05:21:08.572-00:00",
        "included_in_blocks":
          [ "BMSGNtibKjVHAf7kA5T53JaNGu8uNpYKSN642dBAmRhBvwMxTRL",
            "BMeVJpzV7M37imbwUgjd7UXVC38NHvgywXVtwbXhSzSgYfZUeLR" ] },
      { "delegate": "tz1aJS7Pk9uWR3wWyFf1i3RwhYxN84G7stom",
        "reception_time": "2022-01-15T05:21:06.068-00:00",
        "included_in_blocks":
          [ "BMSGNtibKjVHAf7kA5T53JaNGu8uNpYKSN642dBAmRhBvwMxTRL",
            "BMeVJpzV7M37imbwUgjd7UXVC38NHvgywXVtwbXhSzSgYfZUeLR" ] },
      { "delegate": "tz1dRKU4FQ9QRRQPdaH4zCR6gmCmXfcvcgtB",
        "reception_time": "2022-01-15T05:21:04.618-00:00",
        "included_in_blocks":
          [ "BMSGNtibKjVHAf7kA5T53JaNGu8uNpYKSN642dBAmRhBvwMxTRL",
            "BMeVJpzV7M37imbwUgjd7UXVC38NHvgywXVtwbXhSzSgYfZUeLR" ] },
      { "delegate": "tz1T7duV5gZWSTq4YpBGbXNLTfznCLDrFxvs",
        "reception_time": "2022-01-15T05:21:04.366-00:00",
        "included_in_blocks":
          [ "BMSGNtibKjVHAf7kA5T53JaNGu8uNpYKSN642dBAmRhBvwMxTRL",
            "BMeVJpzV7M37imbwUgjd7UXVC38NHvgywXVtwbXhSzSgYfZUeLR" ] },
      { "delegate": "tz1SYq214SCBy9naR6cvycQsYcUGpBqQAE8d",
        "reception_time": "2022-01-15T05:21:04.130-00:00",
        "included_in_blocks":
          [ "BMSGNtibKjVHAf7kA5T53JaNGu8uNpYKSN642dBAmRhBvwMxTRL",
            "BMeVJpzV7M37imbwUgjd7UXVC38NHvgywXVtwbXhSzSgYfZUeLR" ] },
      { "delegate": "tz1aRoaRhSpRYvFdyvgWLL6TGyRoGF51wDjM",
        "reception_time": "2022-01-15T05:21:03.986-00:00",
        "included_in_blocks":
          [ "BMSGNtibKjVHAf7kA5T53JaNGu8uNpYKSN642dBAmRhBvwMxTRL",
            "BMeVJpzV7M37imbwUgjd7UXVC38NHvgywXVtwbXhSzSgYfZUeLR" ] },
      { "delegate": "tz1awXW7wuXy21c66vBudMXQVAPgRnqqwgTH",
        "reception_time": "2022-01-15T05:21:03.800-00:00",
        "included_in_blocks":
          [ "BMSGNtibKjVHAf7kA5T53JaNGu8uNpYKSN642dBAmRhBvwMxTRL",
            "BMeVJpzV7M37imbwUgjd7UXVC38NHvgywXVtwbXhSzSgYfZUeLR" ] },
      { "delegate": "tz1NRGxXV9h6SdNaZLcgmjuLx3hyy2f8YoGN",
        "reception_time": "2022-01-15T05:21:03.786-00:00",
        "included_in_blocks":
          [ "BMSGNtibKjVHAf7kA5T53JaNGu8uNpYKSN642dBAmRhBvwMxTRL",
            "BMeVJpzV7M37imbwUgjd7UXVC38NHvgywXVtwbXhSzSgYfZUeLR" ] },
      { "delegate": "tz3NExpXn9aPNZPorRE4SdjJ2RGrfbJgMAaV",
        "reception_time": "2022-01-15T05:21:03.765-00:00",
        "included_in_blocks":
          [ "BMSGNtibKjVHAf7kA5T53JaNGu8uNpYKSN642dBAmRhBvwMxTRL",
            "BMeVJpzV7M37imbwUgjd7UXVC38NHvgywXVtwbXhSzSgYfZUeLR" ] },
      { "delegate": "tz3RDC3Jdn4j15J7bBHZd29EUee9gVB1CxD9",
        "reception_time": "2022-01-15T05:21:03.725-00:00",
        "included_in_blocks":
          [ "BMSGNtibKjVHAf7kA5T53JaNGu8uNpYKSN642dBAmRhBvwMxTRL",
            "BMeVJpzV7M37imbwUgjd7UXVC38NHvgywXVtwbXhSzSgYfZUeLR" ] },
      { "delegate": "tz1Z2jXfEXL7dXhs6bsLmyLFLfmAkXBzA9WE",
        "reception_time": "2022-01-15T05:21:03.630-00:00",
        "included_in_blocks":
          [ "BMSGNtibKjVHAf7kA5T53JaNGu8uNpYKSN642dBAmRhBvwMxTRL",
            "BMeVJpzV7M37imbwUgjd7UXVC38NHvgywXVtwbXhSzSgYfZUeLR" ] },
      { "delegate": "tz1axcnVN9tZnCe4sQQhC6f3tfSEXdjPaXPY",
        "reception_time": "2022-01-15T05:21:03.575-00:00",
        "included_in_blocks":
          [ "BMSGNtibKjVHAf7kA5T53JaNGu8uNpYKSN642dBAmRhBvwMxTRL",
            "BMeVJpzV7M37imbwUgjd7UXVC38NHvgywXVtwbXhSzSgYfZUeLR" ] },
      { "delegate": "tz1Nf6tsK4G6bBqgSQERy4nUtkHNKUVdh7q1",
        "reception_time": "2022-01-15T05:21:03.561-00:00",
        "included_in_blocks":
          [ "BMSGNtibKjVHAf7kA5T53JaNGu8uNpYKSN642dBAmRhBvwMxTRL",
            "BMeVJpzV7M37imbwUgjd7UXVC38NHvgywXVtwbXhSzSgYfZUeLR" ] },
      { "delegate": "tz2FCNBrERXtaTtNX6iimR1UJ5JSDxvdHM93",
        "reception_time": "2022-01-15T05:21:03.530-00:00",
        "included_in_blocks":
          [ "BMSGNtibKjVHAf7kA5T53JaNGu8uNpYKSN642dBAmRhBvwMxTRL",
            "BMeVJpzV7M37imbwUgjd7UXVC38NHvgywXVtwbXhSzSgYfZUeLR" ] },
      { "delegate": "tz1fwnfJNgiDACshK9avfRfFbMaXrs3ghoJa",
        "reception_time": "2022-01-15T05:21:03.528-00:00",
        "included_in_blocks":
          [ "BMSGNtibKjVHAf7kA5T53JaNGu8uNpYKSN642dBAmRhBvwMxTRL",
            "BMeVJpzV7M37imbwUgjd7UXVC38NHvgywXVtwbXhSzSgYfZUeLR" ] },
      { "delegate": "tz3UoffC7FG7zfpmvmjUmUeAaHvzdcUvAj6r",
        "reception_time": "2022-01-15T05:21:03.497-00:00",
        "included_in_blocks":
          [ "BMSGNtibKjVHAf7kA5T53JaNGu8uNpYKSN642dBAmRhBvwMxTRL",
            "BMeVJpzV7M37imbwUgjd7UXVC38NHvgywXVtwbXhSzSgYfZUeLR" ] },
      { "delegate": "tz1MH387oMRFco3kzz8t3wuqdbpAyTcKZtsg",
        "reception_time": "2022-01-15T05:21:03.480-00:00",
        "included_in_blocks":
          [ "BMSGNtibKjVHAf7kA5T53JaNGu8uNpYKSN642dBAmRhBvwMxTRL",
            "BMeVJpzV7M37imbwUgjd7UXVC38NHvgywXVtwbXhSzSgYfZUeLR" ] },
      { "delegate": "tz3gLTu4Yxj8tPAcriQVUdxv6BY9QyvzU1az",
        "reception_time": "2022-01-15T05:21:03.473-00:00",
        "included_in_blocks":
          [ "BMSGNtibKjVHAf7kA5T53JaNGu8uNpYKSN642dBAmRhBvwMxTRL",
            "BMeVJpzV7M37imbwUgjd7UXVC38NHvgywXVtwbXhSzSgYfZUeLR" ] },
      { "delegate": "tz1RjoHc98dBoqaH2jawF62XNKh7YsHwbkEv",
        "reception_time": "2022-01-15T05:21:03.436-00:00",
        "included_in_blocks":
          [ "BMSGNtibKjVHAf7kA5T53JaNGu8uNpYKSN642dBAmRhBvwMxTRL",
            "BMeVJpzV7M37imbwUgjd7UXVC38NHvgywXVtwbXhSzSgYfZUeLR" ] },
      { "delegate": "tz1TEc75UKXv4W5cwi14Na3NtqFD51yKQi7h",
        "reception_time": "2022-01-15T05:21:03.430-00:00",
        "included_in_blocks":
          [ "BMSGNtibKjVHAf7kA5T53JaNGu8uNpYKSN642dBAmRhBvwMxTRL",
            "BMeVJpzV7M37imbwUgjd7UXVC38NHvgywXVtwbXhSzSgYfZUeLR" ] },
      { "delegate": "tz1abmz7jiCV2GH2u81LRrGgAFFgvQgiDiaf",
        "reception_time": "2022-01-15T05:21:03.297-00:00",
        "included_in_blocks":
          [ "BMSGNtibKjVHAf7kA5T53JaNGu8uNpYKSN642dBAmRhBvwMxTRL",
            "BMeVJpzV7M37imbwUgjd7UXVC38NHvgywXVtwbXhSzSgYfZUeLR" ] },
      { "delegate": "tz1Tnjaxk6tbAeC2TmMApPh8UsrEVQvhHvx5",
        "reception_time": "2022-01-15T05:21:03.295-00:00",
        "included_in_blocks":
          [ "BMSGNtibKjVHAf7kA5T53JaNGu8uNpYKSN642dBAmRhBvwMxTRL",
            "BMeVJpzV7M37imbwUgjd7UXVC38NHvgywXVtwbXhSzSgYfZUeLR" ] },
      { "delegate": "tz1ei4WtWEMEJekSv8qDnu9PExG6Q8HgRGr3",
        "reception_time": "2022-01-15T05:21:03.284-00:00",
        "included_in_blocks":
          [ "BMSGNtibKjVHAf7kA5T53JaNGu8uNpYKSN642dBAmRhBvwMxTRL",
            "BMeVJpzV7M37imbwUgjd7UXVC38NHvgywXVtwbXhSzSgYfZUeLR" ] },
      { "delegate": "tz1PWCDnz783NNGGQjEFFsHtrcK5yBW4E2rm",
        "reception_time": "2022-01-15T05:21:03.264-00:00",
        "included_in_blocks":
          [ "BMSGNtibKjVHAf7kA5T53JaNGu8uNpYKSN642dBAmRhBvwMxTRL",
            "BMeVJpzV7M37imbwUgjd7UXVC38NHvgywXVtwbXhSzSgYfZUeLR" ] },
      { "delegate": "tz1gfArv665EUkSg2ojMBzcbfwuPxAvqPvjo",
        "reception_time": "2022-01-15T05:21:03.200-00:00",
        "included_in_blocks":
          [ "BMSGNtibKjVHAf7kA5T53JaNGu8uNpYKSN642dBAmRhBvwMxTRL",
            "BMeVJpzV7M37imbwUgjd7UXVC38NHvgywXVtwbXhSzSgYfZUeLR" ] },
      { "delegate": "tz3bTdwZinP8U1JmSweNzVKhmwafqWmFWRfk",
        "reception_time": "2022-01-15T05:21:03.196-00:00",
        "included_in_blocks":
          [ "BMSGNtibKjVHAf7kA5T53JaNGu8uNpYKSN642dBAmRhBvwMxTRL",
            "BMeVJpzV7M37imbwUgjd7UXVC38NHvgywXVtwbXhSzSgYfZUeLR" ] },
      { "delegate": "tz1RNoDLWUjbqqs6uCHtJKgSLAegutbD8cNe",
        "reception_time": "2022-01-15T05:21:03.185-00:00",
        "included_in_blocks":
          [ "BMSGNtibKjVHAf7kA5T53JaNGu8uNpYKSN642dBAmRhBvwMxTRL",
            "BMeVJpzV7M37imbwUgjd7UXVC38NHvgywXVtwbXhSzSgYfZUeLR" ] },
      { "delegate": "tz1fb7c66UwePkkfDXz4ajFaBP9hVNLdS7JJ",
        "reception_time": "2022-01-15T05:21:03.182-00:00",
        "included_in_blocks":
          [ "BMSGNtibKjVHAf7kA5T53JaNGu8uNpYKSN642dBAmRhBvwMxTRL",
            "BMeVJpzV7M37imbwUgjd7UXVC38NHvgywXVtwbXhSzSgYfZUeLR" ] },
      { "delegate": "tz1cSj7fTex3JPd1p1LN1fwek6AV1kH93Wwc",
        "reception_time": "2022-01-15T05:21:03.174-00:00",
        "included_in_blocks":
          [ "BMSGNtibKjVHAf7kA5T53JaNGu8uNpYKSN642dBAmRhBvwMxTRL",
            "BMeVJpzV7M37imbwUgjd7UXVC38NHvgywXVtwbXhSzSgYfZUeLR" ] },
      { "delegate": "tz3VEZ4k6a4Wx42iyev6i2aVAptTRLEAivNN",
        "reception_time": "2022-01-15T05:21:03.170-00:00",
        "included_in_blocks":
          [ "BMSGNtibKjVHAf7kA5T53JaNGu8uNpYKSN642dBAmRhBvwMxTRL",
            "BMeVJpzV7M37imbwUgjd7UXVC38NHvgywXVtwbXhSzSgYfZUeLR" ] },
      { "delegate": "tz3bvNMQ95vfAYtG8193ymshqjSvmxiCUuR5",
        "reception_time": "2022-01-15T05:21:03.146-00:00",
        "included_in_blocks":
          [ "BMSGNtibKjVHAf7kA5T53JaNGu8uNpYKSN642dBAmRhBvwMxTRL",
            "BMeVJpzV7M37imbwUgjd7UXVC38NHvgywXVtwbXhSzSgYfZUeLR" ] },
      { "delegate": "tz3RB4aoyjov4KEVRbuhvQ1CKJgBJMWhaeB8",
        "reception_time": "2022-01-15T05:21:03.116-00:00",
        "included_in_blocks":
          [ "BMSGNtibKjVHAf7kA5T53JaNGu8uNpYKSN642dBAmRhBvwMxTRL",
            "BMeVJpzV7M37imbwUgjd7UXVC38NHvgywXVtwbXhSzSgYfZUeLR" ] },
      { "delegate": "tz1TzaNn7wSQSP5gYPXCnNzBCpyMiidCq1PX",
        "reception_time": "2022-01-15T05:21:03.104-00:00",
        "included_in_blocks":
          [ "BMSGNtibKjVHAf7kA5T53JaNGu8uNpYKSN642dBAmRhBvwMxTRL",
            "BMeVJpzV7M37imbwUgjd7UXVC38NHvgywXVtwbXhSzSgYfZUeLR" ] },
      { "delegate": "tz1NEKxGEHsFufk87CVZcrqWu8o22qh46GK6",
        "reception_time": "2022-01-15T05:21:03.049-00:00",
        "included_in_blocks":
          [ "BMSGNtibKjVHAf7kA5T53JaNGu8uNpYKSN642dBAmRhBvwMxTRL",
            "BMeVJpzV7M37imbwUgjd7UXVC38NHvgywXVtwbXhSzSgYfZUeLR" ] },
      { "delegate": "tz1MQMiZHV8q4tTwUMWmS5Y3kaP6J2136iXr",
        "reception_time": "2022-01-15T05:21:03.022-00:00",
        "included_in_blocks":
          [ "BMSGNtibKjVHAf7kA5T53JaNGu8uNpYKSN642dBAmRhBvwMxTRL",
            "BMeVJpzV7M37imbwUgjd7UXVC38NHvgywXVtwbXhSzSgYfZUeLR" ] },
      { "delegate": "tz1VQnqCCqX4K5sP3FNkVSNKTdCAMJDd3E1n",
        "reception_time": "2022-01-15T05:21:02.982-00:00",
        "included_in_blocks":
          [ "BMSGNtibKjVHAf7kA5T53JaNGu8uNpYKSN642dBAmRhBvwMxTRL",
            "BMeVJpzV7M37imbwUgjd7UXVC38NHvgywXVtwbXhSzSgYfZUeLR" ] },
      { "delegate": "tz1V4qCyvPKZ5UeqdH14HN42rxvNPQfc9UZg",
        "reception_time": "2022-01-15T05:21:02.953-00:00",
        "included_in_blocks":
          [ "BMSGNtibKjVHAf7kA5T53JaNGu8uNpYKSN642dBAmRhBvwMxTRL",
            "BMeVJpzV7M37imbwUgjd7UXVC38NHvgywXVtwbXhSzSgYfZUeLR" ] },
      { "delegate": "tz3WMqdzXqRWXwyvj5Hp2H7QEepaUuS7vd9K",
        "reception_time": "2022-01-15T05:21:02.934-00:00",
        "included_in_blocks":
          [ "BMSGNtibKjVHAf7kA5T53JaNGu8uNpYKSN642dBAmRhBvwMxTRL",
            "BMeVJpzV7M37imbwUgjd7UXVC38NHvgywXVtwbXhSzSgYfZUeLR" ] },
      { "delegate": "tz1VmiY38m3y95HqQLjMwqnMS7sdMfGomzKi",
        "reception_time": "2022-01-15T05:21:02.884-00:00",
        "included_in_blocks":
          [ "BMSGNtibKjVHAf7kA5T53JaNGu8uNpYKSN642dBAmRhBvwMxTRL",
            "BMeVJpzV7M37imbwUgjd7UXVC38NHvgywXVtwbXhSzSgYfZUeLR" ] },
      { "delegate": "tz1SUgyRB8T5jXgXAwS33pgRHAKrafyg87Yc",
        "reception_time": "2022-01-15T05:21:02.879-00:00",
        "included_in_blocks":
          [ "BMSGNtibKjVHAf7kA5T53JaNGu8uNpYKSN642dBAmRhBvwMxTRL",
            "BMeVJpzV7M37imbwUgjd7UXVC38NHvgywXVtwbXhSzSgYfZUeLR" ] },
      { "delegate": "tz3S6BBeKgJGXxvLyZ1xzXzMPn11nnFtq5L9",
        "reception_time": "2022-01-15T05:21:02.821-00:00",
        "included_in_blocks":
          [ "BMSGNtibKjVHAf7kA5T53JaNGu8uNpYKSN642dBAmRhBvwMxTRL",
            "BMeVJpzV7M37imbwUgjd7UXVC38NHvgywXVtwbXhSzSgYfZUeLR" ] },
      { "delegate": "tz1irJKkXS2DBWkU1NnmFQx1c1L7pbGg4yhk",
        "reception_time": "2022-01-15T05:21:02.814-00:00",
        "included_in_blocks":
          [ "BMSGNtibKjVHAf7kA5T53JaNGu8uNpYKSN642dBAmRhBvwMxTRL",
            "BMeVJpzV7M37imbwUgjd7UXVC38NHvgywXVtwbXhSzSgYfZUeLR" ] },
      { "delegate": "tz1Ldzz6k1BHdhuKvAtMRX7h5kJSMHESMHLC",
        "reception_time": "2022-01-15T05:21:02.794-00:00",
        "included_in_blocks":
          [ "BMSGNtibKjVHAf7kA5T53JaNGu8uNpYKSN642dBAmRhBvwMxTRL",
            "BMeVJpzV7M37imbwUgjd7UXVC38NHvgywXVtwbXhSzSgYfZUeLR" ] },
      { "delegate": "tz3RKYFsLuQzKBtmYuLNas7uMu3AsYd4QdsA",
        "reception_time": "2022-01-15T05:21:02.787-00:00",
        "included_in_blocks":
          [ "BMSGNtibKjVHAf7kA5T53JaNGu8uNpYKSN642dBAmRhBvwMxTRL",
            "BMeVJpzV7M37imbwUgjd7UXVC38NHvgywXVtwbXhSzSgYfZUeLR" ] },
      { "delegate": "tz3QT9dHYKDqh563chVa6za8526ys1UKfRfL",
        "reception_time": "2022-01-15T05:21:02.781-00:00",
        "included_in_blocks":
          [ "BMSGNtibKjVHAf7kA5T53JaNGu8uNpYKSN642dBAmRhBvwMxTRL",
            "BMeVJpzV7M37imbwUgjd7UXVC38NHvgywXVtwbXhSzSgYfZUeLR" ] },
      { "delegate": "tz1Kf25fX1VdmYGSEzwFy1wNmkbSEZ2V83sY",
        "reception_time": "2022-01-15T05:21:02.771-00:00",
        "included_in_blocks":
          [ "BMSGNtibKjVHAf7kA5T53JaNGu8uNpYKSN642dBAmRhBvwMxTRL",
            "BMeVJpzV7M37imbwUgjd7UXVC38NHvgywXVtwbXhSzSgYfZUeLR" ] },
      { "delegate": "tz3hw2kqXhLUvY65ca1eety2oQTpAvd34R9Q",
        "reception_time": "2022-01-15T05:21:02.759-00:00",
        "included_in_blocks":
          [ "BMSGNtibKjVHAf7kA5T53JaNGu8uNpYKSN642dBAmRhBvwMxTRL",
            "BMeVJpzV7M37imbwUgjd7UXVC38NHvgywXVtwbXhSzSgYfZUeLR" ] },
      { "delegate": "tz3adcvQaKXTCg12zbninqo3q8ptKKtDFTLv",
        "reception_time": "2022-01-15T05:21:02.716-00:00",
        "included_in_blocks":
          [ "BMSGNtibKjVHAf7kA5T53JaNGu8uNpYKSN642dBAmRhBvwMxTRL",
            "BMeVJpzV7M37imbwUgjd7UXVC38NHvgywXVtwbXhSzSgYfZUeLR" ] },
      { "delegate": "tz3Zhs2dygr55yHyQyKjntAtY9bgfhLZ4Xj1",
        "reception_time": "2022-01-15T05:21:02.704-00:00",
        "included_in_blocks":
          [ "BMSGNtibKjVHAf7kA5T53JaNGu8uNpYKSN642dBAmRhBvwMxTRL",
            "BMeVJpzV7M37imbwUgjd7UXVC38NHvgywXVtwbXhSzSgYfZUeLR" ] },
      { "delegate": "tz1LmaFsWRkjr7QMCx5PtV6xTUz3AmEpKQiF",
        "reception_time": "2022-01-15T05:21:02.697-00:00",
        "included_in_blocks":
          [ "BMSGNtibKjVHAf7kA5T53JaNGu8uNpYKSN642dBAmRhBvwMxTRL",
            "BMeVJpzV7M37imbwUgjd7UXVC38NHvgywXVtwbXhSzSgYfZUeLR" ] },
      { "delegate": "tz3iJu5vrKZcsqRPs8yJ61UDoeEXZmtro4qh",
        "reception_time": "2022-01-15T05:21:02.690-00:00",
        "included_in_blocks":
          [ "BMSGNtibKjVHAf7kA5T53JaNGu8uNpYKSN642dBAmRhBvwMxTRL",
            "BMeVJpzV7M37imbwUgjd7UXVC38NHvgywXVtwbXhSzSgYfZUeLR" ] },
      { "delegate": "tz1h4GUAMweP7SNWzDgvMk3yRCAZyaP1MxZq",
        "reception_time": "2022-01-15T05:21:02.682-00:00",
        "included_in_blocks":
          [ "BMSGNtibKjVHAf7kA5T53JaNGu8uNpYKSN642dBAmRhBvwMxTRL",
            "BMeVJpzV7M37imbwUgjd7UXVC38NHvgywXVtwbXhSzSgYfZUeLR" ] },
      { "delegate": "tz3QSGPoRp3Kn7n3vY24eYeu3Peuqo45LQ4D",
        "reception_time": "2022-01-15T05:21:02.674-00:00",
        "included_in_blocks":
          [ "BMSGNtibKjVHAf7kA5T53JaNGu8uNpYKSN642dBAmRhBvwMxTRL",
            "BMeVJpzV7M37imbwUgjd7UXVC38NHvgywXVtwbXhSzSgYfZUeLR" ] },
      { "delegate": "tz1YhNsiRRU8aHNGg7NK3uuP6UDAyacJernB",
        "reception_time": "2022-01-15T05:21:02.639-00:00",
        "included_in_blocks":
          [ "BMSGNtibKjVHAf7kA5T53JaNGu8uNpYKSN642dBAmRhBvwMxTRL",
            "BMeVJpzV7M37imbwUgjd7UXVC38NHvgywXVtwbXhSzSgYfZUeLR" ] },
      { "delegate": "tz1RCFbB9GpALpsZtu6J58sb74dm8qe6XBzv",
        "reception_time": "2022-01-15T05:21:02.617-00:00",
        "included_in_blocks":
          [ "BMSGNtibKjVHAf7kA5T53JaNGu8uNpYKSN642dBAmRhBvwMxTRL",
            "BMeVJpzV7M37imbwUgjd7UXVC38NHvgywXVtwbXhSzSgYfZUeLR" ] },
      { "delegate": "tz3gtoUxdudfBRcNY7iVdKPHCYYX6xdPpoRS",
        "reception_time": "2022-01-15T05:21:02.508-00:00",
        "included_in_blocks":
          [ "BMSGNtibKjVHAf7kA5T53JaNGu8uNpYKSN642dBAmRhBvwMxTRL",
            "BMeVJpzV7M37imbwUgjd7UXVC38NHvgywXVtwbXhSzSgYfZUeLR" ] },
      { "delegate": "tz3QCNyySViKHmeSr45kzDxzchys7NiXCWoa",
        "reception_time": "2022-01-15T05:21:02.485-00:00",
        "included_in_blocks":
          [ "BMSGNtibKjVHAf7kA5T53JaNGu8uNpYKSN642dBAmRhBvwMxTRL",
            "BMeVJpzV7M37imbwUgjd7UXVC38NHvgywXVtwbXhSzSgYfZUeLR" ] },
      { "delegate": "tz3ZbP2pM3nwvXztbuMJwJnDvV5xdpU8UkkD",
        "reception_time": "2022-01-15T05:21:02.477-00:00",
        "included_in_blocks":
          [ "BMSGNtibKjVHAf7kA5T53JaNGu8uNpYKSN642dBAmRhBvwMxTRL",
            "BMeVJpzV7M37imbwUgjd7UXVC38NHvgywXVtwbXhSzSgYfZUeLR" ] },
      { "delegate": "tz3NxTnke1acr8o3h5y9ytf5awQBGNJUKzVU",
        "reception_time": "2022-01-15T05:21:02.463-00:00",
        "included_in_blocks":
          [ "BMSGNtibKjVHAf7kA5T53JaNGu8uNpYKSN642dBAmRhBvwMxTRL",
            "BMeVJpzV7M37imbwUgjd7UXVC38NHvgywXVtwbXhSzSgYfZUeLR" ] },
      { "delegate": "tz1ajgycuHmd2z2JbTSJxKv7x6cok2KuNSk1",
        "reception_time": "2022-01-15T05:21:02.439-00:00",
        "included_in_blocks":
          [ "BMSGNtibKjVHAf7kA5T53JaNGu8uNpYKSN642dBAmRhBvwMxTRL",
            "BMeVJpzV7M37imbwUgjd7UXVC38NHvgywXVtwbXhSzSgYfZUeLR" ] },
      { "delegate": "tz1S8MNvuFEUsWgjHvi3AxibRBf388NhT1q2",
        "reception_time": "2022-01-15T05:21:02.417-00:00",
        "included_in_blocks":
          [ "BMSGNtibKjVHAf7kA5T53JaNGu8uNpYKSN642dBAmRhBvwMxTRL",
            "BMeVJpzV7M37imbwUgjd7UXVC38NHvgywXVtwbXhSzSgYfZUeLR" ] },
      { "delegate": "tz1beersuEDv8Z7ngQ825xfbaJNS2EhXnyHR",
        "reception_time": "2022-01-15T05:21:02.370-00:00",
        "included_in_blocks":
          [ "BMSGNtibKjVHAf7kA5T53JaNGu8uNpYKSN642dBAmRhBvwMxTRL",
            "BMeVJpzV7M37imbwUgjd7UXVC38NHvgywXVtwbXhSzSgYfZUeLR" ] },
      { "delegate": "tz1eEnQhbwf6trb8Q8mPb2RaPkNk2rN7BKi8",
        "reception_time": "2022-01-15T05:21:02.351-00:00",
        "included_in_blocks":
          [ "BMSGNtibKjVHAf7kA5T53JaNGu8uNpYKSN642dBAmRhBvwMxTRL",
            "BMeVJpzV7M37imbwUgjd7UXVC38NHvgywXVtwbXhSzSgYfZUeLR" ] },
      { "delegate": "tz1MQJPGNMijnXnVoBENFz9rUhaPt3S7rWoz",
        "reception_time": "2022-01-15T05:21:02.324-00:00",
        "included_in_blocks":
          [ "BMSGNtibKjVHAf7kA5T53JaNGu8uNpYKSN642dBAmRhBvwMxTRL",
            "BMeVJpzV7M37imbwUgjd7UXVC38NHvgywXVtwbXhSzSgYfZUeLR" ] },
      { "delegate": "tz1P2Po7YM526ughEsRbY4oR9zaUPDZjxFrb",
        "reception_time": "2022-01-15T05:21:02.300-00:00",
        "included_in_blocks":
          [ "BMSGNtibKjVHAf7kA5T53JaNGu8uNpYKSN642dBAmRhBvwMxTRL",
            "BMeVJpzV7M37imbwUgjd7UXVC38NHvgywXVtwbXhSzSgYfZUeLR" ] },
      { "delegate": "tz1Scdr2HsZiQjc7bHMeBbmDRXYVvdhjJbBh",
        "reception_time": "2022-01-15T05:21:02.091-00:00",
        "included_in_blocks":
          [ "BMSGNtibKjVHAf7kA5T53JaNGu8uNpYKSN642dBAmRhBvwMxTRL",
            "BMeVJpzV7M37imbwUgjd7UXVC38NHvgywXVtwbXhSzSgYfZUeLR" ] },
      { "delegate": "tz1XfAjZyaLdceHnZxbMYop7g7kWKPut4PR7",
        "reception_time": "2022-01-15T05:21:02.073-00:00",
        "included_in_blocks":
          [ "BMSGNtibKjVHAf7kA5T53JaNGu8uNpYKSN642dBAmRhBvwMxTRL",
            "BMeVJpzV7M37imbwUgjd7UXVC38NHvgywXVtwbXhSzSgYfZUeLR" ] },
      { "delegate": "tz1ibcPVGK4Y8pcW4BYUsojiHoBKnZbyDGrX" },
      { "delegate": "tz1WvL7MKyCuUHfC3FxPFyiXcy8hHTBT3vjE" },
      { "delegate": "tz1TRspM5SeZpaQUhzByXbEvqKF1vnCM2YTK" },
      { "delegate": "tz1S8e9GgdZG78XJRB3NqabfWeM37GnhZMWQ",
        "reception_time": "2022-01-15T05:21:00.893-00:00",
        "errors":
          [ { "kind": "temporary",
              "id": "proto.011-PtHangz2.prefilter.outdated_endorsement" } ],
        "included_in_blocks":
          [ "BMSGNtibKjVHAf7kA5T53JaNGu8uNpYKSN642dBAmRhBvwMxTRL",
            "BMeVJpzV7M37imbwUgjd7UXVC38NHvgywXVtwbXhSzSgYfZUeLR" ] } ] }