{ "blocks":
    [ { "hash": "BLka5tXMX5gcCuGXj5zzGtmJbWdHMTvuLi5pFgmDx6zeWipJncS",
        "delegate": "tz1PWCDnz783NNGGQjEFFsHtrcK5yBW4E2rm",
        "reception_time": "2022-01-15T06:26:27.011-00:00",
        "timestamp": "2022-01-15T06:26:20Z" } ],
  "endorsements":
    [ { "delegate": "tz1TRspM5SeZpaQUhzByXbEvqKF1vnCM2YTK" },
      { "delegate": "tz1NdhRv643wLW6zCcRP3VfT24dvDnh7nuh9" },
      { "delegate": "tz1MJx9vhaNRSimcuXPK2rW4fLccQnDAnVKJ" },
      { "delegate": "tz1Lhf4J9Qxoe3DZ2nfe8FGDnvVj7oKjnMY6",
        "reception_time": "2022-01-15T06:26:26.956-00:00",
        "errors":
          [ { "kind": "temporary",
              "id": "proto.011-PtHangz2.prefilter.outdated_endorsement" } ],
        "included_in_blocks":
          [ "BL83fyWrrsvLuwLCneqfra62bGmFdtaNnfCEcNxotrhZcxQP4N3" ] },
      { "delegate": "tz1TXzyaKUA8wsWefdSnyaYFnV2M3vCV7er9",
        "reception_time": "2022-01-15T06:26:26.940-00:00",
        "errors":
          [ { "kind": "temporary",
              "id": "proto.011-PtHangz2.prefilter.outdated_endorsement" } ],
        "included_in_blocks":
          [ "BL83fyWrrsvLuwLCneqfra62bGmFdtaNnfCEcNxotrhZcxQP4N3" ] },
      { "delegate": "tz1eEnQhbwf6trb8Q8mPb2RaPkNk2rN7BKi8",
        "reception_time": "2022-01-15T06:26:26.919-00:00",
        "errors":
          [ { "kind": "temporary",
              "id": "proto.011-PtHangz2.prefilter.outdated_endorsement" } ],
        "included_in_blocks":
          [ "BL83fyWrrsvLuwLCneqfra62bGmFdtaNnfCEcNxotrhZcxQP4N3" ] },
      { "delegate": "tz1P2Po7YM526ughEsRbY4oR9zaUPDZjxFrb",
        "reception_time": "2022-01-15T06:26:26.778-00:00",
        "errors":
          [ { "kind": "temporary",
              "id": "proto.011-PtHangz2.prefilter.outdated_endorsement" } ],
        "included_in_blocks":
          [ "BL83fyWrrsvLuwLCneqfra62bGmFdtaNnfCEcNxotrhZcxQP4N3" ] },
      { "delegate": "tz1go7f6mEQfT2xX2LuHAqgnRGN6c2zHPf5c",
        "reception_time": "2022-01-15T06:26:33.053-00:00",
        "included_in_blocks":
          [ "BL83fyWrrsvLuwLCneqfra62bGmFdtaNnfCEcNxotrhZcxQP4N3" ] },
      { "delegate": "tz1PFeoTuFen8jAMRHajBySNyCwLmY5RqF9M",
        "reception_time": "2022-01-15T06:26:31.286-00:00",
        "included_in_blocks":
          [ "BL83fyWrrsvLuwLCneqfra62bGmFdtaNnfCEcNxotrhZcxQP4N3" ] },
      { "delegate": "tz1ZcTRk5uxD86EFEn1vvNffWWqJy7q5eVhc",
        "reception_time": "2022-01-15T06:26:31.241-00:00",
        "included_in_blocks":
          [ "BL83fyWrrsvLuwLCneqfra62bGmFdtaNnfCEcNxotrhZcxQP4N3" ] },
      { "delegate": "tz3NExpXn9aPNZPorRE4SdjJ2RGrfbJgMAaV",
        "reception_time": "2022-01-15T06:26:30.951-00:00",
        "included_in_blocks":
          [ "BL83fyWrrsvLuwLCneqfra62bGmFdtaNnfCEcNxotrhZcxQP4N3" ] },
      { "delegate": "tz3UoffC7FG7zfpmvmjUmUeAaHvzdcUvAj6r",
        "reception_time": "2022-01-15T06:26:30.971-00:00",
        "included_in_blocks":
          [ "BL83fyWrrsvLuwLCneqfra62bGmFdtaNnfCEcNxotrhZcxQP4N3" ] },
      { "delegate": "tz1aRoaRhSpRYvFdyvgWLL6TGyRoGF51wDjM",
        "reception_time": "2022-01-15T06:26:31.025-00:00",
        "included_in_blocks":
          [ "BL83fyWrrsvLuwLCneqfra62bGmFdtaNnfCEcNxotrhZcxQP4N3" ] },
      { "delegate": "tz1SYq214SCBy9naR6cvycQsYcUGpBqQAE8d",
        "reception_time": "2022-01-15T06:26:31.029-00:00",
        "included_in_blocks":
          [ "BL83fyWrrsvLuwLCneqfra62bGmFdtaNnfCEcNxotrhZcxQP4N3" ] },
      { "delegate": "tz1NuUu12WHdW3jHqvkujGHsiTi46Wvw1ci1",
        "reception_time": "2022-01-15T06:26:30.987-00:00",
        "included_in_blocks":
          [ "BL83fyWrrsvLuwLCneqfra62bGmFdtaNnfCEcNxotrhZcxQP4N3" ] },
      { "delegate": "tz1awXW7wuXy21c66vBudMXQVAPgRnqqwgTH",
        "reception_time": "2022-01-15T06:26:31.039-00:00",
        "included_in_blocks":
          [ "BL83fyWrrsvLuwLCneqfra62bGmFdtaNnfCEcNxotrhZcxQP4N3" ] },
      { "delegate": "tz1cYufsxHXJcvANhvS55h3aY32a9BAFB494",
        "reception_time": "2022-01-15T06:26:31.015-00:00",
        "included_in_blocks":
          [ "BL83fyWrrsvLuwLCneqfra62bGmFdtaNnfCEcNxotrhZcxQP4N3" ] },
      { "delegate": "tz1TRqbYbUf2GyrjErf3hBzgBJPzW8y36qEs",
        "reception_time": "2022-01-15T06:26:30.962-00:00",
        "included_in_blocks":
          [ "BL83fyWrrsvLuwLCneqfra62bGmFdtaNnfCEcNxotrhZcxQP4N3" ] },
      { "delegate": "tz3RDC3Jdn4j15J7bBHZd29EUee9gVB1CxD9",
        "reception_time": "2022-01-15T06:26:31.004-00:00",
        "included_in_blocks":
          [ "BL83fyWrrsvLuwLCneqfra62bGmFdtaNnfCEcNxotrhZcxQP4N3" ] },
      { "delegate": "tz3WMqdzXqRWXwyvj5Hp2H7QEepaUuS7vd9K",
        "reception_time": "2022-01-15T06:26:30.987-00:00",
        "included_in_blocks":
          [ "BL83fyWrrsvLuwLCneqfra62bGmFdtaNnfCEcNxotrhZcxQP4N3" ] },
      { "delegate": "tz1SohptP53wDPZhzTWzDUFAUcWF6DMBpaJV",
        "reception_time": "2022-01-15T06:26:30.916-00:00",
        "included_in_blocks":
          [ "BL83fyWrrsvLuwLCneqfra62bGmFdtaNnfCEcNxotrhZcxQP4N3" ] },
      { "delegate": "tz1dNVDWPf3Q59SdJqnjdnu277iyvReiRS9M",
        "reception_time": "2022-01-15T06:26:30.921-00:00",
        "included_in_blocks":
          [ "BL83fyWrrsvLuwLCneqfra62bGmFdtaNnfCEcNxotrhZcxQP4N3" ] },
      { "delegate": "tz3VEZ4k6a4Wx42iyev6i2aVAptTRLEAivNN",
        "reception_time": "2022-01-15T06:26:31.004-00:00",
        "included_in_blocks":
          [ "BL83fyWrrsvLuwLCneqfra62bGmFdtaNnfCEcNxotrhZcxQP4N3" ] },
      { "delegate": "tz1NoYvKjXTzTk54VpLxBfouJ33J8jwKPPvw",
        "reception_time": "2022-01-15T06:26:30.899-00:00",
        "included_in_blocks":
          [ "BL83fyWrrsvLuwLCneqfra62bGmFdtaNnfCEcNxotrhZcxQP4N3" ] },
      { "delegate": "tz3NDpRj6WBrJPikcPVHRBEjWKxFw3c6eQPS",
        "reception_time": "2022-01-15T06:26:30.962-00:00",
        "included_in_blocks":
          [ "BL83fyWrrsvLuwLCneqfra62bGmFdtaNnfCEcNxotrhZcxQP4N3" ] },
      { "delegate": "tz2FCNBrERXtaTtNX6iimR1UJ5JSDxvdHM93",
        "reception_time": "2022-01-15T06:26:30.943-00:00",
        "included_in_blocks":
          [ "BL83fyWrrsvLuwLCneqfra62bGmFdtaNnfCEcNxotrhZcxQP4N3" ] },
      { "delegate": "tz1RjoHc98dBoqaH2jawF62XNKh7YsHwbkEv",
        "reception_time": "2022-01-15T06:26:31.101-00:00",
        "included_in_blocks":
          [ "BL83fyWrrsvLuwLCneqfra62bGmFdtaNnfCEcNxotrhZcxQP4N3" ] },
      { "delegate": "tz1TEc75UKXv4W5cwi14Na3NtqFD51yKQi7h",
        "reception_time": "2022-01-15T06:26:31.247-00:00",
        "included_in_blocks":
          [ "BL83fyWrrsvLuwLCneqfra62bGmFdtaNnfCEcNxotrhZcxQP4N3" ] },
      { "delegate": "tz1cb8xcmJWcdVU7cNAd93MfEReorvP52P8x",
        "reception_time": "2022-01-15T06:26:30.912-00:00",
        "included_in_blocks":
          [ "BL83fyWrrsvLuwLCneqfra62bGmFdtaNnfCEcNxotrhZcxQP4N3" ] },
      { "delegate": "tz1WBfwbT66FC6BTLexc2BoyCCBM9LG7pnVW",
        "reception_time": "2022-01-15T06:26:31.034-00:00",
        "included_in_blocks":
          [ "BL83fyWrrsvLuwLCneqfra62bGmFdtaNnfCEcNxotrhZcxQP4N3" ] },
      { "delegate": "tz1UMCB2AHSTwG7YcGNr31CqYCtGN873royv",
        "reception_time": "2022-01-15T06:26:31.071-00:00",
        "included_in_blocks":
          [ "BL83fyWrrsvLuwLCneqfra62bGmFdtaNnfCEcNxotrhZcxQP4N3" ] },
      { "delegate": "tz1Nf6tsK4G6bBqgSQERy4nUtkHNKUVdh7q1",
        "reception_time": "2022-01-15T06:26:31.089-00:00",
        "included_in_blocks":
          [ "BL83fyWrrsvLuwLCneqfra62bGmFdtaNnfCEcNxotrhZcxQP4N3" ] },
      { "delegate": "tz3QCNyySViKHmeSr45kzDxzchys7NiXCWoa",
        "reception_time": "2022-01-15T06:26:31.167-00:00",
        "included_in_blocks":
          [ "BL83fyWrrsvLuwLCneqfra62bGmFdtaNnfCEcNxotrhZcxQP4N3" ] },
      { "delegate": "tz1NortRftucvAkD1J58L32EhSVrQEWJCEnB",
        "reception_time": "2022-01-15T06:26:31.123-00:00",
        "included_in_blocks":
          [ "BL83fyWrrsvLuwLCneqfra62bGmFdtaNnfCEcNxotrhZcxQP4N3" ] },
      { "delegate": "tz1ei4WtWEMEJekSv8qDnu9PExG6Q8HgRGr3",
        "reception_time": "2022-01-15T06:26:31.079-00:00",
        "included_in_blocks":
          [ "BL83fyWrrsvLuwLCneqfra62bGmFdtaNnfCEcNxotrhZcxQP4N3" ] },
      { "delegate": "tz1LmaFsWRkjr7QMCx5PtV6xTUz3AmEpKQiF",
        "reception_time": "2022-01-15T06:26:30.701-00:00",
        "included_in_blocks":
          [ "BL83fyWrrsvLuwLCneqfra62bGmFdtaNnfCEcNxotrhZcxQP4N3" ] },
      { "delegate": "tz3bvNMQ95vfAYtG8193ymshqjSvmxiCUuR5",
        "reception_time": "2022-01-15T06:26:31.015-00:00",
        "included_in_blocks":
          [ "BL83fyWrrsvLuwLCneqfra62bGmFdtaNnfCEcNxotrhZcxQP4N3" ] },
      { "delegate": "tz1cSj7fTex3JPd1p1LN1fwek6AV1kH93Wwc",
        "reception_time": "2022-01-15T06:26:31.025-00:00",
        "included_in_blocks":
          [ "BL83fyWrrsvLuwLCneqfra62bGmFdtaNnfCEcNxotrhZcxQP4N3" ] },
      { "delegate": "tz1Tnjaxk6tbAeC2TmMApPh8UsrEVQvhHvx5",
        "reception_time": "2022-01-15T06:26:30.358-00:00",
        "included_in_blocks":
          [ "BL83fyWrrsvLuwLCneqfra62bGmFdtaNnfCEcNxotrhZcxQP4N3" ] },
      { "delegate": "tz3RB4aoyjov4KEVRbuhvQ1CKJgBJMWhaeB8",
        "reception_time": "2022-01-15T06:26:30.779-00:00",
        "included_in_blocks":
          [ "BL83fyWrrsvLuwLCneqfra62bGmFdtaNnfCEcNxotrhZcxQP4N3" ] },
      { "delegate": "tz3bTdwZinP8U1JmSweNzVKhmwafqWmFWRfk",
        "reception_time": "2022-01-15T06:26:30.823-00:00",
        "included_in_blocks":
          [ "BL83fyWrrsvLuwLCneqfra62bGmFdtaNnfCEcNxotrhZcxQP4N3" ] },
      { "delegate": "tz1fPKAtsYydh4f1wfWNfeNxWYu72TmM48fu",
        "reception_time": "2022-01-15T06:26:30.517-00:00",
        "included_in_blocks":
          [ "BL83fyWrrsvLuwLCneqfra62bGmFdtaNnfCEcNxotrhZcxQP4N3" ] },
      { "delegate": "tz1gfArv665EUkSg2ojMBzcbfwuPxAvqPvjo",
        "reception_time": "2022-01-15T06:26:30.871-00:00",
        "included_in_blocks":
          [ "BL83fyWrrsvLuwLCneqfra62bGmFdtaNnfCEcNxotrhZcxQP4N3" ] },
      { "delegate": "tz3adcvQaKXTCg12zbninqo3q8ptKKtDFTLv",
        "reception_time": "2022-01-15T06:26:30.436-00:00",
        "included_in_blocks":
          [ "BL83fyWrrsvLuwLCneqfra62bGmFdtaNnfCEcNxotrhZcxQP4N3" ] },
      { "delegate": "tz1abmz7jiCV2GH2u81LRrGgAFFgvQgiDiaf",
        "reception_time": "2022-01-15T06:26:29.397-00:00",
        "included_in_blocks":
          [ "BL83fyWrrsvLuwLCneqfra62bGmFdtaNnfCEcNxotrhZcxQP4N3" ] },
      { "delegate": "tz1d6Fx42mYgVFnHUW8T8A7WBfJ6nD9pVok8",
        "reception_time": "2022-01-15T06:26:30.866-00:00",
        "included_in_blocks":
          [ "BL83fyWrrsvLuwLCneqfra62bGmFdtaNnfCEcNxotrhZcxQP4N3" ] },
      { "delegate": "tz1VmiY38m3y95HqQLjMwqnMS7sdMfGomzKi",
        "reception_time": "2022-01-15T06:26:30.843-00:00",
        "included_in_blocks":
          [ "BL83fyWrrsvLuwLCneqfra62bGmFdtaNnfCEcNxotrhZcxQP4N3" ] },
      { "delegate": "tz1RCFbB9GpALpsZtu6J58sb74dm8qe6XBzv",
        "reception_time": "2022-01-15T06:26:30.445-00:00",
        "included_in_blocks":
          [ "BL83fyWrrsvLuwLCneqfra62bGmFdtaNnfCEcNxotrhZcxQP4N3" ] },
      { "delegate": "tz1UJvHTgpVzcKWhTazGxVcn5wsHru5Gietg",
        "reception_time": "2022-01-15T06:26:30.779-00:00",
        "included_in_blocks":
          [ "BL83fyWrrsvLuwLCneqfra62bGmFdtaNnfCEcNxotrhZcxQP4N3" ] },
      { "delegate": "tz1S8MNvuFEUsWgjHvi3AxibRBf388NhT1q2",
        "reception_time": "2022-01-15T06:26:30.535-00:00",
        "included_in_blocks":
          [ "BL83fyWrrsvLuwLCneqfra62bGmFdtaNnfCEcNxotrhZcxQP4N3" ] },
      { "delegate": "tz1bHzftcTKZMTZgLLtnrXydCm6UEqf4ivca",
        "reception_time": "2022-01-15T06:26:28.666-00:00",
        "included_in_blocks":
          [ "BL83fyWrrsvLuwLCneqfra62bGmFdtaNnfCEcNxotrhZcxQP4N3" ] },
      { "delegate": "tz3S6BBeKgJGXxvLyZ1xzXzMPn11nnFtq5L9",
        "reception_time": "2022-01-15T06:26:30.760-00:00",
        "included_in_blocks":
          [ "BL83fyWrrsvLuwLCneqfra62bGmFdtaNnfCEcNxotrhZcxQP4N3" ] },
      { "delegate": "tz1WCd2jm4uSt4vntk4vSuUWoZQGhLcDuR9q",
        "reception_time": "2022-01-15T06:26:30.506-00:00",
        "included_in_blocks":
          [ "BL83fyWrrsvLuwLCneqfra62bGmFdtaNnfCEcNxotrhZcxQP4N3" ] },
      { "delegate": "tz3QT9dHYKDqh563chVa6za8526ys1UKfRfL",
        "reception_time": "2022-01-15T06:26:29.164-00:00",
        "included_in_blocks":
          [ "BL83fyWrrsvLuwLCneqfra62bGmFdtaNnfCEcNxotrhZcxQP4N3" ] },
      { "delegate": "tz1Ldzz6k1BHdhuKvAtMRX7h5kJSMHESMHLC",
        "reception_time": "2022-01-15T06:26:30.472-00:00",
        "included_in_blocks":
          [ "BL83fyWrrsvLuwLCneqfra62bGmFdtaNnfCEcNxotrhZcxQP4N3" ] },
      { "delegate": "tz3Zhs2dygr55yHyQyKjntAtY9bgfhLZ4Xj1",
        "reception_time": "2022-01-15T06:26:28.798-00:00",
        "included_in_blocks":
          [ "BL83fyWrrsvLuwLCneqfra62bGmFdtaNnfCEcNxotrhZcxQP4N3" ] },
      { "delegate": "tz3iJu5vrKZcsqRPs8yJ61UDoeEXZmtro4qh",
        "reception_time": "2022-01-15T06:26:30.494-00:00",
        "included_in_blocks":
          [ "BL83fyWrrsvLuwLCneqfra62bGmFdtaNnfCEcNxotrhZcxQP4N3" ] },
      { "delegate": "tz3hw2kqXhLUvY65ca1eety2oQTpAvd34R9Q",
        "reception_time": "2022-01-15T06:26:30.458-00:00",
        "included_in_blocks":
          [ "BL83fyWrrsvLuwLCneqfra62bGmFdtaNnfCEcNxotrhZcxQP4N3" ] },
      { "delegate": "tz3RKYFsLuQzKBtmYuLNas7uMu3AsYd4QdsA",
        "reception_time": "2022-01-15T06:26:29.052-00:00",
        "included_in_blocks":
          [ "BL83fyWrrsvLuwLCneqfra62bGmFdtaNnfCEcNxotrhZcxQP4N3" ] },
      { "delegate": "tz3QSGPoRp3Kn7n3vY24eYeu3Peuqo45LQ4D",
        "reception_time": "2022-01-15T06:26:28.729-00:00",
        "included_in_blocks":
          [ "BL83fyWrrsvLuwLCneqfra62bGmFdtaNnfCEcNxotrhZcxQP4N3" ] },
      { "delegate": "tz3gtoUxdudfBRcNY7iVdKPHCYYX6xdPpoRS",
        "reception_time": "2022-01-15T06:26:29.107-00:00",
        "included_in_blocks":
          [ "BL83fyWrrsvLuwLCneqfra62bGmFdtaNnfCEcNxotrhZcxQP4N3" ] },
      { "delegate": "tz1gUNyn3hmnEWqkusWPzxRaon1cs7ndWh7h",
        "reception_time": "2022-01-15T06:26:29.129-00:00",
        "included_in_blocks":
          [ "BL83fyWrrsvLuwLCneqfra62bGmFdtaNnfCEcNxotrhZcxQP4N3" ] },
      { "delegate": "tz1VQnqCCqX4K5sP3FNkVSNKTdCAMJDd3E1n",
        "reception_time": "2022-01-15T06:26:28.674-00:00",
        "included_in_blocks":
          [ "BL83fyWrrsvLuwLCneqfra62bGmFdtaNnfCEcNxotrhZcxQP4N3" ] },
      { "delegate": "tz1beersuEDv8Z7ngQ825xfbaJNS2EhXnyHR",
        "reception_time": "2022-01-15T06:26:29.077-00:00",
        "included_in_blocks":
          [ "BL83fyWrrsvLuwLCneqfra62bGmFdtaNnfCEcNxotrhZcxQP4N3" ] },
      { "delegate": "tz3NxTnke1acr8o3h5y9ytf5awQBGNJUKzVU",
        "reception_time": "2022-01-15T06:26:29.052-00:00",
        "included_in_blocks":
          [ "BL83fyWrrsvLuwLCneqfra62bGmFdtaNnfCEcNxotrhZcxQP4N3" ] },
      { "delegate": "tz1PWCDnz783NNGGQjEFFsHtrcK5yBW4E2rm",
        "reception_time": "2022-01-15T06:26:28.798-00:00",
        "included_in_blocks":
          [ "BL83fyWrrsvLuwLCneqfra62bGmFdtaNnfCEcNxotrhZcxQP4N3" ] },
      { "delegate": "tz3ZbP2pM3nwvXztbuMJwJnDvV5xdpU8UkkD",
        "reception_time": "2022-01-15T06:26:28.666-00:00",
        "included_in_blocks":
          [ "BL83fyWrrsvLuwLCneqfra62bGmFdtaNnfCEcNxotrhZcxQP4N3" ] },
      { "delegate": "tz1Kt4P8BCaP93AEV4eA7gmpRryWt5hznjCP",
        "reception_time": "2022-01-15T06:26:28.708-00:00",
        "included_in_blocks":
          [ "BL83fyWrrsvLuwLCneqfra62bGmFdtaNnfCEcNxotrhZcxQP4N3" ] },
      { "delegate": "tz1aXD7Jigrt3PBYSpHSg5Rr33SexMmmM5Ys",
        "reception_time": "2022-01-15T06:26:29.006-00:00",
        "included_in_blocks":
          [ "BL83fyWrrsvLuwLCneqfra62bGmFdtaNnfCEcNxotrhZcxQP4N3" ] },
      { "delegate": "tz1irJKkXS2DBWkU1NnmFQx1c1L7pbGg4yhk",
        "reception_time": "2022-01-15T06:26:28.708-00:00",
        "included_in_blocks":
          [ "BL83fyWrrsvLuwLCneqfra62bGmFdtaNnfCEcNxotrhZcxQP4N3" ] },
      { "delegate": "tz1RV1MBbZMR68tacosb7Mwj6LkbPSUS1er1",
        "reception_time": "2022-01-15T06:26:28.753-00:00",
        "included_in_blocks":
          [ "BL83fyWrrsvLuwLCneqfra62bGmFdtaNnfCEcNxotrhZcxQP4N3" ] } ] }