{ "blocks":
    [ { "hash": "BLqtrpaz5Ao8HrX7mms6cRenR2fnpeFHTFHeFQ9LF9bfjJimJ36",
        "delegate": "tz1S8e9GgdZG78XJRB3NqabfWeM37GnhZMWQ",
        "reception_time": "2022-01-15T06:28:23.781-00:00",
        "timestamp": "2022-01-15T06:28:20Z" } ],
  "endorsements":
    [ { "delegate": "tz1TXzyaKUA8wsWefdSnyaYFnV2M3vCV7er9",
        "reception_time": "2022-01-15T06:28:23.782-00:00",
        "errors":
          [ { "kind": "temporary",
              "id": "proto.011-PtHangz2.prefilter.outdated_endorsement" } ],
        "included_in_blocks":
          [ "BL15SYfPt6TEJnrG836tPcFephfi5qBJPe4smAPdxjWpbBZjimP" ] },
      { "delegate": "tz1Zhv3RkfU2pHrmaiDyxp7kFZpZrUCu1CiF",
        "reception_time": "2022-01-15T06:28:23.686-00:00",
        "errors":
          [ { "kind": "temporary",
              "id": "proto.011-PtHangz2.prefilter.outdated_endorsement" } ],
        "included_in_blocks":
          [ "BL15SYfPt6TEJnrG836tPcFephfi5qBJPe4smAPdxjWpbBZjimP" ] },
      { "delegate": "tz1STeamwbp68THcny9zk3LsbG3H36DMvbRK",
        "reception_time": "2022-01-15T06:28:23.642-00:00",
        "errors":
          [ { "kind": "temporary",
              "id": "proto.011-PtHangz2.prefilter.outdated_endorsement" } ],
        "included_in_blocks":
          [ "BL15SYfPt6TEJnrG836tPcFephfi5qBJPe4smAPdxjWpbBZjimP" ] },
      { "delegate": "tz1Lhf4J9Qxoe3DZ2nfe8FGDnvVj7oKjnMY6",
        "reception_time": "2022-01-15T06:28:23.628-00:00",
        "errors":
          [ { "kind": "temporary",
              "id": "proto.011-PtHangz2.prefilter.outdated_endorsement" } ],
        "included_in_blocks":
          [ "BL15SYfPt6TEJnrG836tPcFephfi5qBJPe4smAPdxjWpbBZjimP" ] },
      { "delegate": "tz1MXFrtZoaXckE41bjUCSjAjAap3AFDSr3N",
        "reception_time": "2022-01-15T06:28:23.612-00:00",
        "errors":
          [ { "kind": "temporary",
              "id": "proto.011-PtHangz2.prefilter.outdated_endorsement" } ],
        "included_in_blocks":
          [ "BL15SYfPt6TEJnrG836tPcFephfi5qBJPe4smAPdxjWpbBZjimP" ] },
      { "delegate": "tz1Scdr2HsZiQjc7bHMeBbmDRXYVvdhjJbBh",
        "reception_time": "2022-01-15T06:28:23.589-00:00",
        "errors":
          [ { "kind": "temporary",
              "id": "proto.011-PtHangz2.prefilter.outdated_endorsement" } ],
        "included_in_blocks":
          [ "BL15SYfPt6TEJnrG836tPcFephfi5qBJPe4smAPdxjWpbBZjimP" ] },
      { "delegate": "tz1eEnQhbwf6trb8Q8mPb2RaPkNk2rN7BKi8",
        "reception_time": "2022-01-15T06:28:23.573-00:00",
        "errors":
          [ { "kind": "temporary",
              "id": "proto.011-PtHangz2.prefilter.outdated_endorsement" } ],
        "included_in_blocks":
          [ "BL15SYfPt6TEJnrG836tPcFephfi5qBJPe4smAPdxjWpbBZjimP" ] },
      { "delegate": "tz1TRspM5SeZpaQUhzByXbEvqKF1vnCM2YTK" },
      { "delegate": "tz1hQR8t76HwYLUahpnNoe5azcePC6bkrMnn" },
      { "delegate": "tz1P2Po7YM526ughEsRbY4oR9zaUPDZjxFrb",
        "reception_time": "2022-01-15T06:28:24.615-00:00",
        "included_in_blocks":
          [ "BL15SYfPt6TEJnrG836tPcFephfi5qBJPe4smAPdxjWpbBZjimP" ] },
      { "delegate": "tz1irJKkXS2DBWkU1NnmFQx1c1L7pbGg4yhk",
        "reception_time": "2022-01-15T06:28:24.654-00:00",
        "included_in_blocks":
          [ "BL15SYfPt6TEJnrG836tPcFephfi5qBJPe4smAPdxjWpbBZjimP" ] },
      { "delegate": "tz3ZbP2pM3nwvXztbuMJwJnDvV5xdpU8UkkD",
        "reception_time": "2022-01-15T06:28:24.662-00:00",
        "included_in_blocks":
          [ "BL15SYfPt6TEJnrG836tPcFephfi5qBJPe4smAPdxjWpbBZjimP" ] },
      { "delegate": "tz1W1f1JrE7VsqgpUpj1iiDobqP5TixgZhDk",
        "reception_time": "2022-01-15T06:28:24.672-00:00",
        "included_in_blocks":
          [ "BL15SYfPt6TEJnrG836tPcFephfi5qBJPe4smAPdxjWpbBZjimP" ] },
      { "delegate": "tz3hw2kqXhLUvY65ca1eety2oQTpAvd34R9Q",
        "reception_time": "2022-01-15T06:28:24.686-00:00",
        "included_in_blocks":
          [ "BL15SYfPt6TEJnrG836tPcFephfi5qBJPe4smAPdxjWpbBZjimP" ] },
      { "delegate": "tz3NxTnke1acr8o3h5y9ytf5awQBGNJUKzVU",
        "reception_time": "2022-01-15T06:28:24.686-00:00",
        "included_in_blocks":
          [ "BL15SYfPt6TEJnrG836tPcFephfi5qBJPe4smAPdxjWpbBZjimP" ] },
      { "delegate": "tz3RKYFsLuQzKBtmYuLNas7uMu3AsYd4QdsA",
        "reception_time": "2022-01-15T06:28:24.696-00:00",
        "included_in_blocks":
          [ "BL15SYfPt6TEJnrG836tPcFephfi5qBJPe4smAPdxjWpbBZjimP" ] },
      { "delegate": "tz1VQnqCCqX4K5sP3FNkVSNKTdCAMJDd3E1n",
        "reception_time": "2022-01-15T06:28:24.696-00:00",
        "included_in_blocks":
          [ "BL15SYfPt6TEJnrG836tPcFephfi5qBJPe4smAPdxjWpbBZjimP" ] },
      { "delegate": "tz1gUNyn3hmnEWqkusWPzxRaon1cs7ndWh7h",
        "reception_time": "2022-01-15T06:28:24.699-00:00",
        "included_in_blocks":
          [ "BL15SYfPt6TEJnrG836tPcFephfi5qBJPe4smAPdxjWpbBZjimP" ] },
      { "delegate": "tz1Ldzz6k1BHdhuKvAtMRX7h5kJSMHESMHLC",
        "reception_time": "2022-01-15T06:28:24.702-00:00",
        "included_in_blocks":
          [ "BL15SYfPt6TEJnrG836tPcFephfi5qBJPe4smAPdxjWpbBZjimP" ] },
      { "delegate": "tz3S6BBeKgJGXxvLyZ1xzXzMPn11nnFtq5L9",
        "reception_time": "2022-01-15T06:28:24.710-00:00",
        "included_in_blocks":
          [ "BL15SYfPt6TEJnrG836tPcFephfi5qBJPe4smAPdxjWpbBZjimP" ] },
      { "delegate": "tz3Zhs2dygr55yHyQyKjntAtY9bgfhLZ4Xj1",
        "reception_time": "2022-01-15T06:28:24.739-00:00",
        "included_in_blocks":
          [ "BL15SYfPt6TEJnrG836tPcFephfi5qBJPe4smAPdxjWpbBZjimP" ] },
      { "delegate": "tz3gtoUxdudfBRcNY7iVdKPHCYYX6xdPpoRS",
        "reception_time": "2022-01-15T06:28:24.739-00:00",
        "included_in_blocks":
          [ "BL15SYfPt6TEJnrG836tPcFephfi5qBJPe4smAPdxjWpbBZjimP" ] },
      { "delegate": "tz3iJu5vrKZcsqRPs8yJ61UDoeEXZmtro4qh",
        "reception_time": "2022-01-15T06:28:24.748-00:00",
        "included_in_blocks":
          [ "BL15SYfPt6TEJnrG836tPcFephfi5qBJPe4smAPdxjWpbBZjimP" ] },
      { "delegate": "tz3QSGPoRp3Kn7n3vY24eYeu3Peuqo45LQ4D",
        "reception_time": "2022-01-15T06:28:24.754-00:00",
        "included_in_blocks":
          [ "BL15SYfPt6TEJnrG836tPcFephfi5qBJPe4smAPdxjWpbBZjimP" ] },
      { "delegate": "tz1TzaNn7wSQSP5gYPXCnNzBCpyMiidCq1PX",
        "reception_time": "2022-01-15T06:28:24.816-00:00",
        "included_in_blocks":
          [ "BL15SYfPt6TEJnrG836tPcFephfi5qBJPe4smAPdxjWpbBZjimP" ] },
      { "delegate": "tz1WCd2jm4uSt4vntk4vSuUWoZQGhLcDuR9q",
        "reception_time": "2022-01-15T06:28:24.834-00:00",
        "included_in_blocks":
          [ "BL15SYfPt6TEJnrG836tPcFephfi5qBJPe4smAPdxjWpbBZjimP" ] },
      { "delegate": "tz1aXD7Jigrt3PBYSpHSg5Rr33SexMmmM5Ys",
        "reception_time": "2022-01-15T06:28:24.858-00:00",
        "included_in_blocks":
          [ "BL15SYfPt6TEJnrG836tPcFephfi5qBJPe4smAPdxjWpbBZjimP" ] },
      { "delegate": "tz1UJvHTgpVzcKWhTazGxVcn5wsHru5Gietg",
        "reception_time": "2022-01-15T06:28:24.867-00:00",
        "included_in_blocks":
          [ "BL15SYfPt6TEJnrG836tPcFephfi5qBJPe4smAPdxjWpbBZjimP" ] },
      { "delegate": "tz1YhNsiRRU8aHNGg7NK3uuP6UDAyacJernB",
        "reception_time": "2022-01-15T06:28:24.894-00:00",
        "included_in_blocks":
          [ "BL15SYfPt6TEJnrG836tPcFephfi5qBJPe4smAPdxjWpbBZjimP" ] },
      { "delegate": "tz1VmiY38m3y95HqQLjMwqnMS7sdMfGomzKi",
        "reception_time": "2022-01-15T06:28:24.969-00:00",
        "included_in_blocks":
          [ "BL15SYfPt6TEJnrG836tPcFephfi5qBJPe4smAPdxjWpbBZjimP" ] },
      { "delegate": "tz3bTdwZinP8U1JmSweNzVKhmwafqWmFWRfk",
        "reception_time": "2022-01-15T06:28:24.977-00:00",
        "included_in_blocks":
          [ "BL15SYfPt6TEJnrG836tPcFephfi5qBJPe4smAPdxjWpbBZjimP" ] },
      { "delegate": "tz3RDC3Jdn4j15J7bBHZd29EUee9gVB1CxD9",
        "reception_time": "2022-01-15T06:28:25.088-00:00",
        "included_in_blocks":
          [ "BL15SYfPt6TEJnrG836tPcFephfi5qBJPe4smAPdxjWpbBZjimP" ] },
      { "delegate": "tz1MivraUX9U6nmGAQkm7XkrNVmsPExEUT1W",
        "reception_time": "2022-01-15T06:28:25.156-00:00",
        "included_in_blocks":
          [ "BL15SYfPt6TEJnrG836tPcFephfi5qBJPe4smAPdxjWpbBZjimP" ] },
      { "delegate": "tz1RCFbB9GpALpsZtu6J58sb74dm8qe6XBzv",
        "reception_time": "2022-01-15T06:28:25.164-00:00",
        "included_in_blocks":
          [ "BL15SYfPt6TEJnrG836tPcFephfi5qBJPe4smAPdxjWpbBZjimP" ] },
      { "delegate": "tz1fb7c66UwePkkfDXz4ajFaBP9hVNLdS7JJ",
        "reception_time": "2022-01-15T06:28:25.230-00:00",
        "included_in_blocks":
          [ "BL15SYfPt6TEJnrG836tPcFephfi5qBJPe4smAPdxjWpbBZjimP" ] },
      { "delegate": "tz1gfArv665EUkSg2ojMBzcbfwuPxAvqPvjo",
        "reception_time": "2022-01-15T06:28:25.433-00:00",
        "included_in_blocks":
          [ "BL15SYfPt6TEJnrG836tPcFephfi5qBJPe4smAPdxjWpbBZjimP" ] },
      { "delegate": "tz3NDpRj6WBrJPikcPVHRBEjWKxFw3c6eQPS",
        "reception_time": "2022-01-15T06:28:25.467-00:00",
        "included_in_blocks":
          [ "BL15SYfPt6TEJnrG836tPcFephfi5qBJPe4smAPdxjWpbBZjimP" ] },
      { "delegate": "tz1ei4WtWEMEJekSv8qDnu9PExG6Q8HgRGr3",
        "reception_time": "2022-01-15T06:28:25.499-00:00",
        "included_in_blocks":
          [ "BL15SYfPt6TEJnrG836tPcFephfi5qBJPe4smAPdxjWpbBZjimP" ] },
      { "delegate": "tz1WBfwbT66FC6BTLexc2BoyCCBM9LG7pnVW",
        "reception_time": "2022-01-15T06:28:25.502-00:00",
        "included_in_blocks":
          [ "BL15SYfPt6TEJnrG836tPcFephfi5qBJPe4smAPdxjWpbBZjimP" ] },
      { "delegate": "tz3gLTu4Yxj8tPAcriQVUdxv6BY9QyvzU1az",
        "reception_time": "2022-01-15T06:28:25.535-00:00",
        "included_in_blocks":
          [ "BL15SYfPt6TEJnrG836tPcFephfi5qBJPe4smAPdxjWpbBZjimP" ] },
      { "delegate": "tz1S8MNvuFEUsWgjHvi3AxibRBf388NhT1q2",
        "reception_time": "2022-01-15T06:28:25.550-00:00",
        "included_in_blocks":
          [ "BL15SYfPt6TEJnrG836tPcFephfi5qBJPe4smAPdxjWpbBZjimP" ] },
      { "delegate": "tz1dwu9aYb7CRNq4Y2zAjipdjFuSVKhHS8vA",
        "reception_time": "2022-01-15T06:28:25.604-00:00",
        "included_in_blocks":
          [ "BL15SYfPt6TEJnrG836tPcFephfi5qBJPe4smAPdxjWpbBZjimP" ] },
      { "delegate": "tz1LmaFsWRkjr7QMCx5PtV6xTUz3AmEpKQiF",
        "reception_time": "2022-01-15T06:28:25.613-00:00",
        "included_in_blocks":
          [ "BL15SYfPt6TEJnrG836tPcFephfi5qBJPe4smAPdxjWpbBZjimP" ] },
      { "delegate": "tz1dKRZVcmJBVNvaAueUmqX42vVEaLb2MbA6",
        "reception_time": "2022-01-15T06:28:25.625-00:00",
        "included_in_blocks":
          [ "BL15SYfPt6TEJnrG836tPcFephfi5qBJPe4smAPdxjWpbBZjimP" ] },
      { "delegate": "tz1SYq214SCBy9naR6cvycQsYcUGpBqQAE8d",
        "reception_time": "2022-01-15T06:28:25.764-00:00",
        "included_in_blocks":
          [ "BL15SYfPt6TEJnrG836tPcFephfi5qBJPe4smAPdxjWpbBZjimP" ] },
      { "delegate": "tz1Tnjaxk6tbAeC2TmMApPh8UsrEVQvhHvx5",
        "reception_time": "2022-01-15T06:28:25.794-00:00",
        "included_in_blocks":
          [ "BL15SYfPt6TEJnrG836tPcFephfi5qBJPe4smAPdxjWpbBZjimP" ] },
      { "delegate": "tz1MQMiZHV8q4tTwUMWmS5Y3kaP6J2136iXr",
        "reception_time": "2022-01-15T06:28:25.875-00:00",
        "included_in_blocks":
          [ "BL15SYfPt6TEJnrG836tPcFephfi5qBJPe4smAPdxjWpbBZjimP" ] },
      { "delegate": "tz3WMqdzXqRWXwyvj5Hp2H7QEepaUuS7vd9K",
        "reception_time": "2022-01-15T06:28:26.018-00:00",
        "included_in_blocks":
          [ "BL15SYfPt6TEJnrG836tPcFephfi5qBJPe4smAPdxjWpbBZjimP" ] },
      { "delegate": "tz2FCNBrERXtaTtNX6iimR1UJ5JSDxvdHM93",
        "reception_time": "2022-01-15T06:28:26.027-00:00",
        "included_in_blocks":
          [ "BL15SYfPt6TEJnrG836tPcFephfi5qBJPe4smAPdxjWpbBZjimP" ] },
      { "delegate": "tz3UoffC7FG7zfpmvmjUmUeAaHvzdcUvAj6r",
        "reception_time": "2022-01-15T06:28:26.063-00:00",
        "included_in_blocks":
          [ "BL15SYfPt6TEJnrG836tPcFephfi5qBJPe4smAPdxjWpbBZjimP" ] },
      { "delegate": "tz1Nf6tsK4G6bBqgSQERy4nUtkHNKUVdh7q1",
        "reception_time": "2022-01-15T06:28:26.067-00:00",
        "included_in_blocks":
          [ "BL15SYfPt6TEJnrG836tPcFephfi5qBJPe4smAPdxjWpbBZjimP" ] },
      { "delegate": "tz1T7duV5gZWSTq4YpBGbXNLTfznCLDrFxvs",
        "reception_time": "2022-01-15T06:28:26.073-00:00",
        "included_in_blocks":
          [ "BL15SYfPt6TEJnrG836tPcFephfi5qBJPe4smAPdxjWpbBZjimP" ] },
      { "delegate": "tz1TRqbYbUf2GyrjErf3hBzgBJPzW8y36qEs",
        "reception_time": "2022-01-15T06:28:26.132-00:00",
        "included_in_blocks":
          [ "BL15SYfPt6TEJnrG836tPcFephfi5qBJPe4smAPdxjWpbBZjimP" ] },
      { "delegate": "tz1KfEsrtDaA1sX7vdM4qmEPWuSytuqCDp5j",
        "reception_time": "2022-01-15T06:28:26.146-00:00",
        "included_in_blocks":
          [ "BL15SYfPt6TEJnrG836tPcFephfi5qBJPe4smAPdxjWpbBZjimP" ] },
      { "delegate": "tz3bvNMQ95vfAYtG8193ymshqjSvmxiCUuR5",
        "reception_time": "2022-01-15T06:28:26.158-00:00",
        "included_in_blocks":
          [ "BL15SYfPt6TEJnrG836tPcFephfi5qBJPe4smAPdxjWpbBZjimP" ] },
      { "delegate": "tz1i3mhawFAgcB8JHaHwoUF6hdncwTAkLEn2",
        "reception_time": "2022-01-15T06:28:26.216-00:00",
        "included_in_blocks":
          [ "BL15SYfPt6TEJnrG836tPcFephfi5qBJPe4smAPdxjWpbBZjimP" ] },
      { "delegate": "tz3RB4aoyjov4KEVRbuhvQ1CKJgBJMWhaeB8",
        "reception_time": "2022-01-15T06:28:26.237-00:00",
        "included_in_blocks":
          [ "BL15SYfPt6TEJnrG836tPcFephfi5qBJPe4smAPdxjWpbBZjimP" ] },
      { "delegate": "tz1LAJKyGRCheNiLAQQmJ8dXnoKbKgLzxNFp",
        "reception_time": "2022-01-15T06:28:26.258-00:00",
        "included_in_blocks":
          [ "BL15SYfPt6TEJnrG836tPcFephfi5qBJPe4smAPdxjWpbBZjimP" ] },
      { "delegate": "tz1NL14EZjUmY9eEdk1ejyACEaTuwVGVKEeU",
        "reception_time": "2022-01-15T06:28:26.310-00:00",
        "included_in_blocks":
          [ "BL15SYfPt6TEJnrG836tPcFephfi5qBJPe4smAPdxjWpbBZjimP" ] },
      { "delegate": "tz1NEKxGEHsFufk87CVZcrqWu8o22qh46GK6",
        "reception_time": "2022-01-15T06:28:26.313-00:00",
        "included_in_blocks":
          [ "BL15SYfPt6TEJnrG836tPcFephfi5qBJPe4smAPdxjWpbBZjimP" ] },
      { "delegate": "tz1cYufsxHXJcvANhvS55h3aY32a9BAFB494",
        "reception_time": "2022-01-15T06:28:26.415-00:00",
        "included_in_blocks":
          [ "BL15SYfPt6TEJnrG836tPcFephfi5qBJPe4smAPdxjWpbBZjimP" ] },
      { "delegate": "tz3VEZ4k6a4Wx42iyev6i2aVAptTRLEAivNN",
        "reception_time": "2022-01-15T06:28:26.480-00:00",
        "included_in_blocks":
          [ "BL15SYfPt6TEJnrG836tPcFephfi5qBJPe4smAPdxjWpbBZjimP" ] },
      { "delegate": "tz1aRoaRhSpRYvFdyvgWLL6TGyRoGF51wDjM",
        "reception_time": "2022-01-15T06:28:26.585-00:00",
        "included_in_blocks":
          [ "BL15SYfPt6TEJnrG836tPcFephfi5qBJPe4smAPdxjWpbBZjimP" ] },
      { "delegate": "tz1dRKU4FQ9QRRQPdaH4zCR6gmCmXfcvcgtB",
        "reception_time": "2022-01-15T06:28:27.049-00:00",
        "included_in_blocks":
          [ "BL15SYfPt6TEJnrG836tPcFephfi5qBJPe4smAPdxjWpbBZjimP" ] },
      { "delegate": "tz3NExpXn9aPNZPorRE4SdjJ2RGrfbJgMAaV",
        "reception_time": "2022-01-15T06:28:27.075-00:00",
        "included_in_blocks":
          [ "BL15SYfPt6TEJnrG836tPcFephfi5qBJPe4smAPdxjWpbBZjimP" ] },
      { "delegate": "tz1dNVDWPf3Q59SdJqnjdnu277iyvReiRS9M",
        "reception_time": "2022-01-15T06:28:27.206-00:00",
        "included_in_blocks":
          [ "BL15SYfPt6TEJnrG836tPcFephfi5qBJPe4smAPdxjWpbBZjimP" ] },
      { "delegate": "tz1RjoHc98dBoqaH2jawF62XNKh7YsHwbkEv",
        "reception_time": "2022-01-15T06:28:27.226-00:00",
        "included_in_blocks":
          [ "BL15SYfPt6TEJnrG836tPcFephfi5qBJPe4smAPdxjWpbBZjimP" ] },
      { "delegate": "tz3QCNyySViKHmeSr45kzDxzchys7NiXCWoa",
        "reception_time": "2022-01-15T06:28:28.970-00:00",
        "included_in_blocks":
          [ "BL15SYfPt6TEJnrG836tPcFephfi5qBJPe4smAPdxjWpbBZjimP" ] },
      { "delegate": "tz3adcvQaKXTCg12zbninqo3q8ptKKtDFTLv",
        "reception_time": "2022-01-15T06:28:29.070-00:00",
        "included_in_blocks":
          [ "BL15SYfPt6TEJnrG836tPcFephfi5qBJPe4smAPdxjWpbBZjimP" ] },
      { "delegate": "tz3bEQoFCZEEfZMskefZ8q8e4eiHH1pssRax",
        "reception_time": "2022-01-15T06:28:31.402-00:00",
        "included_in_blocks":
          [ "BL15SYfPt6TEJnrG836tPcFephfi5qBJPe4smAPdxjWpbBZjimP" ] } ] }