{ "blocks":
    [ { "hash": "BMFtQaTzrcSBGGCobN4YjAtWiaX4ef7RByCNYUqwJmj4tLmh7wa",
        "delegate": "tz3e7LbZvUtoXhpUD1yb6wuFodZpfYRb9nWJ",
        "reception_time": "2022-01-15T05:08:43.822-00:00",
        "timestamp": "2022-01-15T05:07:50Z" } ],
  "endorsements":
    [ { "delegate": "tz3e7LbZvUtoXhpUD1yb6wuFodZpfYRb9nWJ",
        "reception_time": "2022-01-15T05:08:55.077-00:00" },
      { "delegate": "tz1NpWrAyDL9k2Lmnyxcgr9xuJakbBxdq7FB",
        "reception_time": "2022-01-15T05:08:54.524-00:00" },
      { "delegate": "tz1S3ZahYq7fqZQ5bq4qCLsTWgPUzQhfAswy",
        "reception_time": "2022-01-15T05:08:52.976-00:00" },
      { "delegate": "tz1g8vkmcde6sWKaG2NN9WKzCkDM6Rziq194",
        "reception_time": "2022-01-15T05:08:52.726-00:00" },
      { "delegate": "tz1aRoaRhSpRYvFdyvgWLL6TGyRoGF51wDjM",
        "reception_time": "2022-01-15T05:08:48.569-00:00" },
      { "delegate": "tz1dNVDWPf3Q59SdJqnjdnu277iyvReiRS9M",
        "reception_time": "2022-01-15T05:08:48.070-00:00" },
      { "delegate": "tz1SYq214SCBy9naR6cvycQsYcUGpBqQAE8d",
        "reception_time": "2022-01-15T05:08:48.034-00:00" },
      { "delegate": "tz1ZcTRk5uxD86EFEn1vvNffWWqJy7q5eVhc",
        "reception_time": "2022-01-15T05:08:47.995-00:00" },
      { "delegate": "tz3NExpXn9aPNZPorRE4SdjJ2RGrfbJgMAaV",
        "reception_time": "2022-01-15T05:08:47.986-00:00" },
      { "delegate": "tz1UNkf4sWzC5vsKP7FnejSeJsXdc6z8Kzk4",
        "reception_time": "2022-01-15T05:08:47.942-00:00" },
      { "delegate": "tz1awXW7wuXy21c66vBudMXQVAPgRnqqwgTH",
        "reception_time": "2022-01-15T05:08:47.657-00:00" },
      { "delegate": "tz1T7duV5gZWSTq4YpBGbXNLTfznCLDrFxvs",
        "reception_time": "2022-01-15T05:08:47.604-00:00" },
      { "delegate": "tz1SohptP53wDPZhzTWzDUFAUcWF6DMBpaJV",
        "reception_time": "2022-01-15T05:08:47.507-00:00" },
      { "delegate": "tz3WMqdzXqRWXwyvj5Hp2H7QEepaUuS7vd9K",
        "reception_time": "2022-01-15T05:08:47.420-00:00" },
      { "delegate": "tz3RDC3Jdn4j15J7bBHZd29EUee9gVB1CxD9",
        "reception_time": "2022-01-15T05:08:47.289-00:00" },
      { "delegate": "tz3VEZ4k6a4Wx42iyev6i2aVAptTRLEAivNN",
        "reception_time": "2022-01-15T05:08:47.243-00:00" },
      { "delegate": "tz1LmaFsWRkjr7QMCx5PtV6xTUz3AmEpKQiF",
        "reception_time": "2022-01-15T05:08:47.080-00:00" },
      { "delegate": "tz1NEKxGEHsFufk87CVZcrqWu8o22qh46GK6",
        "reception_time": "2022-01-15T05:08:47.073-00:00" },
      { "delegate": "tz1abmz7jiCV2GH2u81LRrGgAFFgvQgiDiaf",
        "reception_time": "2022-01-15T05:08:46.886-00:00" },
      { "delegate": "tz3UoffC7FG7zfpmvmjUmUeAaHvzdcUvAj6r",
        "reception_time": "2022-01-15T05:08:46.698-00:00" },
      { "delegate": "tz1RNoDLWUjbqqs6uCHtJKgSLAegutbD8cNe",
        "reception_time": "2022-01-15T05:08:46.680-00:00" },
      { "delegate": "tz2FCNBrERXtaTtNX6iimR1UJ5JSDxvdHM93",
        "reception_time": "2022-01-15T05:08:46.642-00:00" },
      { "delegate": "tz1TRqbYbUf2GyrjErf3hBzgBJPzW8y36qEs",
        "reception_time": "2022-01-15T05:08:46.576-00:00" },
      { "delegate": "tz1WBfwbT66FC6BTLexc2BoyCCBM9LG7pnVW",
        "reception_time": "2022-01-15T05:08:46.567-00:00" },
      { "delegate": "tz1gfArv665EUkSg2ojMBzcbfwuPxAvqPvjo",
        "reception_time": "2022-01-15T05:08:46.564-00:00",
        "included_in_blocks":
          [ "BM29s5GBBJLaxASev3UY7K7473QerTtbYo5qbhj9um1FMxfd1P4" ] },
      { "delegate": "tz1KfEsrtDaA1sX7vdM4qmEPWuSytuqCDp5j",
        "reception_time": "2022-01-15T05:08:46.535-00:00" },
      { "delegate": "tz1ei4WtWEMEJekSv8qDnu9PExG6Q8HgRGr3",
        "reception_time": "2022-01-15T05:08:46.535-00:00" },
      { "delegate": "tz1NortRftucvAkD1J58L32EhSVrQEWJCEnB",
        "reception_time": "2022-01-15T05:08:46.530-00:00" },
      { "delegate": "tz1Nf6tsK4G6bBqgSQERy4nUtkHNKUVdh7q1",
        "reception_time": "2022-01-15T05:08:46.526-00:00" },
      { "delegate": "tz1TEc75UKXv4W5cwi14Na3NtqFD51yKQi7h",
        "reception_time": "2022-01-15T05:08:46.512-00:00" },
      { "delegate": "tz3NDpRj6WBrJPikcPVHRBEjWKxFw3c6eQPS",
        "reception_time": "2022-01-15T05:08:46.492-00:00" },
      { "delegate": "tz1PWCDnz783NNGGQjEFFsHtrcK5yBW4E2rm",
        "reception_time": "2022-01-15T05:08:46.423-00:00",
        "included_in_blocks":
          [ "BM29s5GBBJLaxASev3UY7K7473QerTtbYo5qbhj9um1FMxfd1P4" ] },
      { "delegate": "tz1S8MNvuFEUsWgjHvi3AxibRBf388NhT1q2",
        "reception_time": "2022-01-15T05:08:46.416-00:00",
        "included_in_blocks":
          [ "BM29s5GBBJLaxASev3UY7K7473QerTtbYo5qbhj9um1FMxfd1P4" ] },
      { "delegate": "tz1MQMiZHV8q4tTwUMWmS5Y3kaP6J2136iXr",
        "reception_time": "2022-01-15T05:08:46.411-00:00",
        "included_in_blocks":
          [ "BM29s5GBBJLaxASev3UY7K7473QerTtbYo5qbhj9um1FMxfd1P4" ] },
      { "delegate": "tz3QT9dHYKDqh563chVa6za8526ys1UKfRfL",
        "reception_time": "2022-01-15T05:08:46.411-00:00",
        "included_in_blocks":
          [ "BM29s5GBBJLaxASev3UY7K7473QerTtbYo5qbhj9um1FMxfd1P4" ] },
      { "delegate": "tz3bTdwZinP8U1JmSweNzVKhmwafqWmFWRfk",
        "reception_time": "2022-01-15T05:08:46.383-00:00" },
      { "delegate": "tz1RCFbB9GpALpsZtu6J58sb74dm8qe6XBzv",
        "reception_time": "2022-01-15T05:08:46.383-00:00",
        "included_in_blocks":
          [ "BM29s5GBBJLaxASev3UY7K7473QerTtbYo5qbhj9um1FMxfd1P4" ] },
      { "delegate": "tz3RB4aoyjov4KEVRbuhvQ1CKJgBJMWhaeB8",
        "reception_time": "2022-01-15T05:08:46.374-00:00" },
      { "delegate": "tz1cSj7fTex3JPd1p1LN1fwek6AV1kH93Wwc",
        "reception_time": "2022-01-15T05:08:46.374-00:00" },
      { "delegate": "tz3S6BBeKgJGXxvLyZ1xzXzMPn11nnFtq5L9",
        "reception_time": "2022-01-15T05:08:46.365-00:00",
        "included_in_blocks":
          [ "BM29s5GBBJLaxASev3UY7K7473QerTtbYo5qbhj9um1FMxfd1P4" ] },
      { "delegate": "tz3bvNMQ95vfAYtG8193ymshqjSvmxiCUuR5",
        "reception_time": "2022-01-15T05:08:46.357-00:00" },
      { "delegate": "tz1UJvHTgpVzcKWhTazGxVcn5wsHru5Gietg",
        "reception_time": "2022-01-15T05:08:46.357-00:00",
        "included_in_blocks":
          [ "BM29s5GBBJLaxASev3UY7K7473QerTtbYo5qbhj9um1FMxfd1P4" ] },
      { "delegate": "tz3QCNyySViKHmeSr45kzDxzchys7NiXCWoa",
        "reception_time": "2022-01-15T05:08:46.349-00:00" },
      { "delegate": "tz1YhNsiRRU8aHNGg7NK3uuP6UDAyacJernB",
        "reception_time": "2022-01-15T05:08:46.341-00:00",
        "included_in_blocks":
          [ "BM29s5GBBJLaxASev3UY7K7473QerTtbYo5qbhj9um1FMxfd1P4" ] },
      { "delegate": "tz1bHzftcTKZMTZgLLtnrXydCm6UEqf4ivca",
        "reception_time": "2022-01-15T05:08:46.319-00:00" },
      { "delegate": "tz1gUNyn3hmnEWqkusWPzxRaon1cs7ndWh7h",
        "reception_time": "2022-01-15T05:08:46.316-00:00",
        "included_in_blocks":
          [ "BM29s5GBBJLaxASev3UY7K7473QerTtbYo5qbhj9um1FMxfd1P4" ] },
      { "delegate": "tz1VmiY38m3y95HqQLjMwqnMS7sdMfGomzKi",
        "reception_time": "2022-01-15T05:08:46.301-00:00",
        "included_in_blocks":
          [ "BM29s5GBBJLaxASev3UY7K7473QerTtbYo5qbhj9um1FMxfd1P4" ] },
      { "delegate": "tz3iJu5vrKZcsqRPs8yJ61UDoeEXZmtro4qh",
        "reception_time": "2022-01-15T05:08:46.298-00:00",
        "included_in_blocks":
          [ "BM29s5GBBJLaxASev3UY7K7473QerTtbYo5qbhj9um1FMxfd1P4" ] },
      { "delegate": "tz1irJKkXS2DBWkU1NnmFQx1c1L7pbGg4yhk",
        "reception_time": "2022-01-15T05:08:46.290-00:00",
        "included_in_blocks":
          [ "BM29s5GBBJLaxASev3UY7K7473QerTtbYo5qbhj9um1FMxfd1P4" ] },
      { "delegate": "tz3ZbP2pM3nwvXztbuMJwJnDvV5xdpU8UkkD",
        "reception_time": "2022-01-15T05:08:46.275-00:00",
        "included_in_blocks":
          [ "BM29s5GBBJLaxASev3UY7K7473QerTtbYo5qbhj9um1FMxfd1P4" ] },
      { "delegate": "tz1TzaNn7wSQSP5gYPXCnNzBCpyMiidCq1PX",
        "reception_time": "2022-01-15T05:08:46.242-00:00",
        "included_in_blocks":
          [ "BM29s5GBBJLaxASev3UY7K7473QerTtbYo5qbhj9um1FMxfd1P4" ] },
      { "delegate": "tz1WCd2jm4uSt4vntk4vSuUWoZQGhLcDuR9q",
        "reception_time": "2022-01-15T05:08:46.232-00:00",
        "included_in_blocks":
          [ "BM29s5GBBJLaxASev3UY7K7473QerTtbYo5qbhj9um1FMxfd1P4" ] },
      { "delegate": "tz3hw2kqXhLUvY65ca1eety2oQTpAvd34R9Q",
        "reception_time": "2022-01-15T05:08:46.226-00:00",
        "included_in_blocks":
          [ "BM29s5GBBJLaxASev3UY7K7473QerTtbYo5qbhj9um1FMxfd1P4" ] },
      { "delegate": "tz3RKYFsLuQzKBtmYuLNas7uMu3AsYd4QdsA",
        "reception_time": "2022-01-15T05:08:46.219-00:00",
        "included_in_blocks":
          [ "BM29s5GBBJLaxASev3UY7K7473QerTtbYo5qbhj9um1FMxfd1P4" ] },
      { "delegate": "tz1VQnqCCqX4K5sP3FNkVSNKTdCAMJDd3E1n",
        "reception_time": "2022-01-15T05:08:46.211-00:00",
        "included_in_blocks":
          [ "BM29s5GBBJLaxASev3UY7K7473QerTtbYo5qbhj9um1FMxfd1P4" ] },
      { "delegate": "tz3NxTnke1acr8o3h5y9ytf5awQBGNJUKzVU",
        "reception_time": "2022-01-15T05:08:46.206-00:00",
        "included_in_blocks":
          [ "BM29s5GBBJLaxASev3UY7K7473QerTtbYo5qbhj9um1FMxfd1P4" ] },
      { "delegate": "tz1beersuEDv8Z7ngQ825xfbaJNS2EhXnyHR",
        "reception_time": "2022-01-15T05:08:46.200-00:00",
        "included_in_blocks":
          [ "BM29s5GBBJLaxASev3UY7K7473QerTtbYo5qbhj9um1FMxfd1P4" ] },
      { "delegate": "tz3gtoUxdudfBRcNY7iVdKPHCYYX6xdPpoRS",
        "reception_time": "2022-01-15T05:08:46.197-00:00",
        "included_in_blocks":
          [ "BM29s5GBBJLaxASev3UY7K7473QerTtbYo5qbhj9um1FMxfd1P4" ] },
      { "delegate": "tz1RV1MBbZMR68tacosb7Mwj6LkbPSUS1er1",
        "reception_time": "2022-01-15T05:08:46.189-00:00",
        "included_in_blocks":
          [ "BM29s5GBBJLaxASev3UY7K7473QerTtbYo5qbhj9um1FMxfd1P4" ] },
      { "delegate": "tz1TXzyaKUA8wsWefdSnyaYFnV2M3vCV7er9",
        "reception_time": "2022-01-15T05:08:46.185-00:00",
        "included_in_blocks":
          [ "BM29s5GBBJLaxASev3UY7K7473QerTtbYo5qbhj9um1FMxfd1P4" ] },
      { "delegate": "tz1S8e9GgdZG78XJRB3NqabfWeM37GnhZMWQ",
        "reception_time": "2022-01-15T05:08:46.182-00:00",
        "included_in_blocks":
          [ "BM29s5GBBJLaxASev3UY7K7473QerTtbYo5qbhj9um1FMxfd1P4" ] },
      { "delegate": "tz1Ldzz6k1BHdhuKvAtMRX7h5kJSMHESMHLC",
        "reception_time": "2022-01-15T05:08:46.182-00:00",
        "included_in_blocks":
          [ "BM29s5GBBJLaxASev3UY7K7473QerTtbYo5qbhj9um1FMxfd1P4" ] },
      { "delegate": "tz1P2Po7YM526ughEsRbY4oR9zaUPDZjxFrb",
        "reception_time": "2022-01-15T05:08:46.177-00:00",
        "included_in_blocks":
          [ "BM29s5GBBJLaxASev3UY7K7473QerTtbYo5qbhj9um1FMxfd1P4" ] },
      { "delegate": "tz1ZPh7XfUaJXUDvkrBxmS1BjEM1i62hiPpM",
        "reception_time": "2022-01-15T05:08:46.174-00:00",
        "included_in_blocks":
          [ "BM29s5GBBJLaxASev3UY7K7473QerTtbYo5qbhj9um1FMxfd1P4" ] },
      { "delegate": "tz1MXFrtZoaXckE41bjUCSjAjAap3AFDSr3N",
        "reception_time": "2022-01-15T05:08:46.168-00:00",
        "included_in_blocks":
          [ "BM29s5GBBJLaxASev3UY7K7473QerTtbYo5qbhj9um1FMxfd1P4" ] },
      { "delegate": "tz1eEnQhbwf6trb8Q8mPb2RaPkNk2rN7BKi8",
        "reception_time": "2022-01-15T05:08:46.168-00:00",
        "included_in_blocks":
          [ "BM29s5GBBJLaxASev3UY7K7473QerTtbYo5qbhj9um1FMxfd1P4" ] },
      { "delegate": "tz1aXD7Jigrt3PBYSpHSg5Rr33SexMmmM5Ys",
        "reception_time": "2022-01-15T05:08:46.153-00:00",
        "included_in_blocks":
          [ "BM29s5GBBJLaxASev3UY7K7473QerTtbYo5qbhj9um1FMxfd1P4" ] },
      { "delegate": "tz1Vyuu4EJ5Nym4JcrfRLnp3hpaq1DSEp1Ke" },
      { "delegate": "tz1TRspM5SeZpaQUhzByXbEvqKF1vnCM2YTK" },
      { "delegate": "tz1MJx9vhaNRSimcuXPK2rW4fLccQnDAnVKJ" } ] }