{ "blocks":
    [ { "hash": "BL1w7Fdw1W3WuVt19Hdhhisn6GzmFwyBVrV4f1phpFNDX3GoDmU",
        "delegate": "tz1S8MNvuFEUsWgjHvi3AxibRBf388NhT1q2",
        "reception_time": "2022-01-15T10:49:48.520-00:00",
        "timestamp": "2022-01-15T10:49:40Z" } ],
  "endorsements":
    [ { "delegate": "tz1Vyuu4EJ5Nym4JcrfRLnp3hpaq1DSEp1Ke" },
      { "delegate": "tz1TRspM5SeZpaQUhzByXbEvqKF1vnCM2YTK" },
      { "delegate": "tz3QCNyySViKHmeSr45kzDxzchys7NiXCWoa",
        "reception_time": "2022-01-15T10:49:49.090-00:00",
        "errors":
          [ { "kind": "temporary",
              "id": "proto.011-PtHangz2.prefilter.outdated_endorsement" } ],
        "included_in_blocks":
          [ "BL7GPqWZBty9i74utAKfzuthz1EqL2Q85Cx27MLsxDkX3e1Xj8U" ] },
      { "delegate": "tz1VQnqCCqX4K5sP3FNkVSNKTdCAMJDd3E1n",
        "reception_time": "2022-01-15T10:49:48.523-00:00",
        "errors":
          [ { "kind": "temporary",
              "id": "proto.011-PtHangz2.prefilter.outdated_endorsement" } ],
        "included_in_blocks":
          [ "BL7GPqWZBty9i74utAKfzuthz1EqL2Q85Cx27MLsxDkX3e1Xj8U" ] },
      { "delegate": "tz3QSGPoRp3Kn7n3vY24eYeu3Peuqo45LQ4D",
        "reception_time": "2022-01-15T10:49:48.499-00:00",
        "errors":
          [ { "kind": "temporary",
              "id": "proto.011-PtHangz2.prefilter.outdated_endorsement" } ],
        "included_in_blocks":
          [ "BL7GPqWZBty9i74utAKfzuthz1EqL2Q85Cx27MLsxDkX3e1Xj8U" ] },
      { "delegate": "tz3gtoUxdudfBRcNY7iVdKPHCYYX6xdPpoRS",
        "reception_time": "2022-01-15T10:49:48.461-00:00",
        "errors":
          [ { "kind": "temporary",
              "id": "proto.011-PtHangz2.prefilter.outdated_endorsement" } ],
        "included_in_blocks":
          [ "BL7GPqWZBty9i74utAKfzuthz1EqL2Q85Cx27MLsxDkX3e1Xj8U" ] },
      { "delegate": "tz3RKYFsLuQzKBtmYuLNas7uMu3AsYd4QdsA",
        "reception_time": "2022-01-15T10:49:47.334-00:00",
        "errors":
          [ { "kind": "temporary",
              "id": "proto.011-PtHangz2.prefilter.outdated_endorsement" } ],
        "included_in_blocks":
          [ "BL7GPqWZBty9i74utAKfzuthz1EqL2Q85Cx27MLsxDkX3e1Xj8U" ] },
      { "delegate": "tz1gUNyn3hmnEWqkusWPzxRaon1cs7ndWh7h",
        "reception_time": "2022-01-15T10:49:47.327-00:00",
        "errors":
          [ { "kind": "temporary",
              "id": "proto.011-PtHangz2.prefilter.outdated_endorsement" } ],
        "included_in_blocks":
          [ "BL7GPqWZBty9i74utAKfzuthz1EqL2Q85Cx27MLsxDkX3e1Xj8U" ] },
      { "delegate": "tz3hw2kqXhLUvY65ca1eety2oQTpAvd34R9Q",
        "reception_time": "2022-01-15T10:49:47.292-00:00",
        "errors":
          [ { "kind": "temporary",
              "id": "proto.011-PtHangz2.prefilter.outdated_endorsement" } ],
        "included_in_blocks":
          [ "BL7GPqWZBty9i74utAKfzuthz1EqL2Q85Cx27MLsxDkX3e1Xj8U" ] },
      { "delegate": "tz1Scdr2HsZiQjc7bHMeBbmDRXYVvdhjJbBh",
        "reception_time": "2022-01-15T10:49:47.258-00:00",
        "errors":
          [ { "kind": "temporary",
              "id": "proto.011-PtHangz2.prefilter.outdated_endorsement" } ],
        "included_in_blocks":
          [ "BL7GPqWZBty9i74utAKfzuthz1EqL2Q85Cx27MLsxDkX3e1Xj8U" ] },
      { "delegate": "tz1Kf25fX1VdmYGSEzwFy1wNmkbSEZ2V83sY",
        "reception_time": "2022-01-15T10:49:47.069-00:00",
        "errors":
          [ { "kind": "temporary",
              "id": "proto.011-PtHangz2.prefilter.outdated_endorsement" } ],
        "included_in_blocks":
          [ "BL7GPqWZBty9i74utAKfzuthz1EqL2Q85Cx27MLsxDkX3e1Xj8U" ] },
      { "delegate": "tz1beersuEDv8Z7ngQ825xfbaJNS2EhXnyHR",
        "reception_time": "2022-01-15T10:49:47.032-00:00",
        "errors":
          [ { "kind": "temporary",
              "id": "proto.011-PtHangz2.prefilter.outdated_endorsement" } ],
        "included_in_blocks":
          [ "BL7GPqWZBty9i74utAKfzuthz1EqL2Q85Cx27MLsxDkX3e1Xj8U" ] },
      { "delegate": "tz3NxTnke1acr8o3h5y9ytf5awQBGNJUKzVU",
        "reception_time": "2022-01-15T10:49:47.031-00:00",
        "errors":
          [ { "kind": "temporary",
              "id": "proto.011-PtHangz2.prefilter.outdated_endorsement" } ],
        "included_in_blocks":
          [ "BL7GPqWZBty9i74utAKfzuthz1EqL2Q85Cx27MLsxDkX3e1Xj8U" ] },
      { "delegate": "tz1Ldzz6k1BHdhuKvAtMRX7h5kJSMHESMHLC",
        "reception_time": "2022-01-15T10:49:47.021-00:00",
        "errors":
          [ { "kind": "temporary",
              "id": "proto.011-PtHangz2.prefilter.outdated_endorsement" } ],
        "included_in_blocks":
          [ "BL7GPqWZBty9i74utAKfzuthz1EqL2Q85Cx27MLsxDkX3e1Xj8U" ] },
      { "delegate": "tz3ZbP2pM3nwvXztbuMJwJnDvV5xdpU8UkkD",
        "reception_time": "2022-01-15T10:49:47.017-00:00",
        "errors":
          [ { "kind": "temporary",
              "id": "proto.011-PtHangz2.prefilter.outdated_endorsement" } ],
        "included_in_blocks":
          [ "BL7GPqWZBty9i74utAKfzuthz1EqL2Q85Cx27MLsxDkX3e1Xj8U" ] },
      { "delegate": "tz1dUpfvjmAX3HLYvYhAwb94qe7nJodJr51c",
        "reception_time": "2022-01-15T10:49:46.846-00:00",
        "errors":
          [ { "kind": "temporary",
              "id": "proto.011-PtHangz2.prefilter.outdated_endorsement" } ],
        "included_in_blocks":
          [ "BL7GPqWZBty9i74utAKfzuthz1EqL2Q85Cx27MLsxDkX3e1Xj8U" ] },
      { "delegate": "tz1irJKkXS2DBWkU1NnmFQx1c1L7pbGg4yhk",
        "reception_time": "2022-01-15T10:49:46.695-00:00",
        "errors":
          [ { "kind": "temporary",
              "id": "proto.011-PtHangz2.prefilter.outdated_endorsement" } ],
        "included_in_blocks":
          [ "BL7GPqWZBty9i74utAKfzuthz1EqL2Q85Cx27MLsxDkX3e1Xj8U" ] },
      { "delegate": "tz1S8MNvuFEUsWgjHvi3AxibRBf388NhT1q2",
        "reception_time": "2022-01-15T10:49:46.695-00:00",
        "errors":
          [ { "kind": "temporary",
              "id": "proto.011-PtHangz2.prefilter.outdated_endorsement" } ],
        "included_in_blocks":
          [ "BL7GPqWZBty9i74utAKfzuthz1EqL2Q85Cx27MLsxDkX3e1Xj8U" ] },
      { "delegate": "tz1eEnQhbwf6trb8Q8mPb2RaPkNk2rN7BKi8",
        "reception_time": "2022-01-15T10:49:46.694-00:00",
        "errors":
          [ { "kind": "temporary",
              "id": "proto.011-PtHangz2.prefilter.outdated_endorsement" } ],
        "included_in_blocks":
          [ "BL7GPqWZBty9i74utAKfzuthz1EqL2Q85Cx27MLsxDkX3e1Xj8U" ] },
      { "delegate": "tz1TXzyaKUA8wsWefdSnyaYFnV2M3vCV7er9",
        "reception_time": "2022-01-15T10:49:46.648-00:00",
        "errors":
          [ { "kind": "temporary",
              "id": "proto.011-PtHangz2.prefilter.outdated_endorsement" } ],
        "included_in_blocks":
          [ "BL7GPqWZBty9i74utAKfzuthz1EqL2Q85Cx27MLsxDkX3e1Xj8U" ] },
      { "delegate": "tz1P2Po7YM526ughEsRbY4oR9zaUPDZjxFrb",
        "reception_time": "2022-01-15T10:49:46.372-00:00",
        "errors":
          [ { "kind": "temporary",
              "id": "proto.011-PtHangz2.prefilter.outdated_endorsement" } ],
        "included_in_blocks":
          [ "BL7GPqWZBty9i74utAKfzuthz1EqL2Q85Cx27MLsxDkX3e1Xj8U" ] },
      { "delegate": "tz1Kt4P8BCaP93AEV4eA7gmpRryWt5hznjCP",
        "reception_time": "2022-01-15T10:49:45.910-00:00",
        "errors":
          [ { "kind": "temporary",
              "id": "proto.011-PtHangz2.prefilter.outdated_endorsement" } ],
        "included_in_blocks":
          [ "BL7GPqWZBty9i74utAKfzuthz1EqL2Q85Cx27MLsxDkX3e1Xj8U" ] },
      { "delegate": "tz1NpWrAyDL9k2Lmnyxcgr9xuJakbBxdq7FB",
        "reception_time": "2022-01-15T10:50:06.509-00:00",
        "included_in_blocks":
          [ "BL7GPqWZBty9i74utAKfzuthz1EqL2Q85Cx27MLsxDkX3e1Xj8U" ] },
      { "delegate": "tz1bTpviNnyx2PXsNmGpCQTMQsGoYordkUoA",
        "reception_time": "2022-01-15T10:49:57.615-00:00",
        "included_in_blocks":
          [ "BL7GPqWZBty9i74utAKfzuthz1EqL2Q85Cx27MLsxDkX3e1Xj8U" ] },
      { "delegate": "tz1Z9M4biBHSiH38k5ciRMjR5bgk89yEgLTz",
        "reception_time": "2022-01-15T10:49:56.683-00:00",
        "included_in_blocks":
          [ "BL7GPqWZBty9i74utAKfzuthz1EqL2Q85Cx27MLsxDkX3e1Xj8U" ] },
      { "delegate": "tz1KwafrdmM8RwxUMxdbbtWyZuKLWSPVxe9u",
        "reception_time": "2022-01-15T10:49:56.261-00:00",
        "included_in_blocks":
          [ "BL7GPqWZBty9i74utAKfzuthz1EqL2Q85Cx27MLsxDkX3e1Xj8U" ] },
      { "delegate": "tz1TRqbYbUf2GyrjErf3hBzgBJPzW8y36qEs",
        "reception_time": "2022-01-15T10:49:56.000-00:00",
        "included_in_blocks":
          [ "BL7GPqWZBty9i74utAKfzuthz1EqL2Q85Cx27MLsxDkX3e1Xj8U" ] },
      { "delegate": "tz1awXW7wuXy21c66vBudMXQVAPgRnqqwgTH",
        "reception_time": "2022-01-15T10:49:55.872-00:00",
        "included_in_blocks":
          [ "BL7GPqWZBty9i74utAKfzuthz1EqL2Q85Cx27MLsxDkX3e1Xj8U" ] },
      { "delegate": "tz1g8vkmcde6sWKaG2NN9WKzCkDM6Rziq194",
        "reception_time": "2022-01-15T10:49:55.882-00:00",
        "included_in_blocks":
          [ "BL7GPqWZBty9i74utAKfzuthz1EqL2Q85Cx27MLsxDkX3e1Xj8U" ] },
      { "delegate": "tz1QHEAXGd4DFPBc5yq5gxQw99fTvNEmpKLE",
        "reception_time": "2022-01-15T10:49:55.020-00:00",
        "included_in_blocks":
          [ "BL7GPqWZBty9i74utAKfzuthz1EqL2Q85Cx27MLsxDkX3e1Xj8U" ] },
      { "delegate": "tz1SYq214SCBy9naR6cvycQsYcUGpBqQAE8d",
        "reception_time": "2022-01-15T10:49:54.122-00:00",
        "included_in_blocks":
          [ "BL7GPqWZBty9i74utAKfzuthz1EqL2Q85Cx27MLsxDkX3e1Xj8U" ] },
      { "delegate": "tz1NMNQYrYrfNpmUqQrMhJypf6ovnaDZhJHM",
        "reception_time": "2022-01-15T10:49:53.147-00:00",
        "included_in_blocks":
          [ "BL7GPqWZBty9i74utAKfzuthz1EqL2Q85Cx27MLsxDkX3e1Xj8U" ] },
      { "delegate": "tz2FCNBrERXtaTtNX6iimR1UJ5JSDxvdHM93",
        "reception_time": "2022-01-15T10:49:52.145-00:00",
        "included_in_blocks":
          [ "BL7GPqWZBty9i74utAKfzuthz1EqL2Q85Cx27MLsxDkX3e1Xj8U" ] },
      { "delegate": "tz1fWJaG5uj6bQZ19bCSLjELJz6g2J6inUL1",
        "reception_time": "2022-01-15T10:49:51.941-00:00",
        "included_in_blocks":
          [ "BL7GPqWZBty9i74utAKfzuthz1EqL2Q85Cx27MLsxDkX3e1Xj8U" ] },
      { "delegate": "tz1RCFbB9GpALpsZtu6J58sb74dm8qe6XBzv",
        "reception_time": "2022-01-15T10:49:51.359-00:00",
        "included_in_blocks":
          [ "BL7GPqWZBty9i74utAKfzuthz1EqL2Q85Cx27MLsxDkX3e1Xj8U" ] },
      { "delegate": "tz1ZcTRk5uxD86EFEn1vvNffWWqJy7q5eVhc",
        "reception_time": "2022-01-15T10:49:51.374-00:00",
        "included_in_blocks":
          [ "BL7GPqWZBty9i74utAKfzuthz1EqL2Q85Cx27MLsxDkX3e1Xj8U" ] },
      { "delegate": "tz1PFeoTuFen8jAMRHajBySNyCwLmY5RqF9M",
        "reception_time": "2022-01-15T10:49:51.039-00:00",
        "included_in_blocks":
          [ "BL7GPqWZBty9i74utAKfzuthz1EqL2Q85Cx27MLsxDkX3e1Xj8U" ] },
      { "delegate": "tz1acZQd7TdfoiUnD2czHnTHB2TaJQP6gdqo",
        "reception_time": "2022-01-15T10:49:51.029-00:00",
        "included_in_blocks":
          [ "BL7GPqWZBty9i74utAKfzuthz1EqL2Q85Cx27MLsxDkX3e1Xj8U" ] },
      { "delegate": "tz1aRoaRhSpRYvFdyvgWLL6TGyRoGF51wDjM",
        "reception_time": "2022-01-15T10:49:50.477-00:00",
        "included_in_blocks":
          [ "BL7GPqWZBty9i74utAKfzuthz1EqL2Q85Cx27MLsxDkX3e1Xj8U" ] },
      { "delegate": "tz1RQhNh7iB9CZA7i3ifTWNwiGYVffponfbB",
        "reception_time": "2022-01-15T10:49:50.440-00:00",
        "included_in_blocks":
          [ "BL7GPqWZBty9i74utAKfzuthz1EqL2Q85Cx27MLsxDkX3e1Xj8U" ] },
      { "delegate": "tz3bvNMQ95vfAYtG8193ymshqjSvmxiCUuR5",
        "reception_time": "2022-01-15T10:49:50.500-00:00",
        "included_in_blocks":
          [ "BL7GPqWZBty9i74utAKfzuthz1EqL2Q85Cx27MLsxDkX3e1Xj8U" ] },
      { "delegate": "tz3RDC3Jdn4j15J7bBHZd29EUee9gVB1CxD9",
        "reception_time": "2022-01-15T10:49:50.512-00:00",
        "included_in_blocks":
          [ "BL7GPqWZBty9i74utAKfzuthz1EqL2Q85Cx27MLsxDkX3e1Xj8U" ] },
      { "delegate": "tz1dRKU4FQ9QRRQPdaH4zCR6gmCmXfcvcgtB",
        "reception_time": "2022-01-15T10:49:50.445-00:00",
        "included_in_blocks":
          [ "BL7GPqWZBty9i74utAKfzuthz1EqL2Q85Cx27MLsxDkX3e1Xj8U" ] },
      { "delegate": "tz3WMqdzXqRWXwyvj5Hp2H7QEepaUuS7vd9K",
        "reception_time": "2022-01-15T10:49:50.440-00:00",
        "included_in_blocks":
          [ "BL7GPqWZBty9i74utAKfzuthz1EqL2Q85Cx27MLsxDkX3e1Xj8U" ] },
      { "delegate": "tz3NExpXn9aPNZPorRE4SdjJ2RGrfbJgMAaV",
        "reception_time": "2022-01-15T10:49:50.543-00:00",
        "included_in_blocks":
          [ "BL7GPqWZBty9i74utAKfzuthz1EqL2Q85Cx27MLsxDkX3e1Xj8U" ] },
      { "delegate": "tz1Nf6tsK4G6bBqgSQERy4nUtkHNKUVdh7q1",
        "reception_time": "2022-01-15T10:49:50.549-00:00",
        "included_in_blocks":
          [ "BL7GPqWZBty9i74utAKfzuthz1EqL2Q85Cx27MLsxDkX3e1Xj8U" ] },
      { "delegate": "tz3NDpRj6WBrJPikcPVHRBEjWKxFw3c6eQPS",
        "reception_time": "2022-01-15T10:49:50.574-00:00",
        "included_in_blocks":
          [ "BL7GPqWZBty9i74utAKfzuthz1EqL2Q85Cx27MLsxDkX3e1Xj8U" ] },
      { "delegate": "tz3gLTu4Yxj8tPAcriQVUdxv6BY9QyvzU1az",
        "reception_time": "2022-01-15T10:49:50.533-00:00",
        "included_in_blocks":
          [ "BL7GPqWZBty9i74utAKfzuthz1EqL2Q85Cx27MLsxDkX3e1Xj8U" ] },
      { "delegate": "tz3UoffC7FG7zfpmvmjUmUeAaHvzdcUvAj6r",
        "reception_time": "2022-01-15T10:49:50.566-00:00",
        "included_in_blocks":
          [ "BL7GPqWZBty9i74utAKfzuthz1EqL2Q85Cx27MLsxDkX3e1Xj8U" ] },
      { "delegate": "tz1axcnVN9tZnCe4sQQhC6f3tfSEXdjPaXPY",
        "reception_time": "2022-01-15T10:49:50.383-00:00",
        "included_in_blocks":
          [ "BL7GPqWZBty9i74utAKfzuthz1EqL2Q85Cx27MLsxDkX3e1Xj8U" ] },
      { "delegate": "tz1NortRftucvAkD1J58L32EhSVrQEWJCEnB",
        "reception_time": "2022-01-15T10:49:50.492-00:00",
        "included_in_blocks":
          [ "BL7GPqWZBty9i74utAKfzuthz1EqL2Q85Cx27MLsxDkX3e1Xj8U" ] },
      { "delegate": "tz1LmaFsWRkjr7QMCx5PtV6xTUz3AmEpKQiF",
        "reception_time": "2022-01-15T10:49:50.597-00:00",
        "included_in_blocks":
          [ "BL7GPqWZBty9i74utAKfzuthz1EqL2Q85Cx27MLsxDkX3e1Xj8U" ] },
      { "delegate": "tz1WBfwbT66FC6BTLexc2BoyCCBM9LG7pnVW",
        "reception_time": "2022-01-15T10:49:50.555-00:00",
        "included_in_blocks":
          [ "BL7GPqWZBty9i74utAKfzuthz1EqL2Q85Cx27MLsxDkX3e1Xj8U" ] },
      { "delegate": "tz3RB4aoyjov4KEVRbuhvQ1CKJgBJMWhaeB8",
        "reception_time": "2022-01-15T10:49:50.361-00:00",
        "included_in_blocks":
          [ "BL7GPqWZBty9i74utAKfzuthz1EqL2Q85Cx27MLsxDkX3e1Xj8U" ] },
      { "delegate": "tz1MGTFJXpQmtxLi8QJ7AuVRgM2L2Qfn9w9i",
        "reception_time": "2022-01-15T10:49:50.566-00:00",
        "included_in_blocks":
          [ "BL7GPqWZBty9i74utAKfzuthz1EqL2Q85Cx27MLsxDkX3e1Xj8U" ] },
      { "delegate": "tz3VEZ4k6a4Wx42iyev6i2aVAptTRLEAivNN",
        "reception_time": "2022-01-15T10:49:50.485-00:00",
        "included_in_blocks":
          [ "BL7GPqWZBty9i74utAKfzuthz1EqL2Q85Cx27MLsxDkX3e1Xj8U" ] },
      { "delegate": "tz1Tnjaxk6tbAeC2TmMApPh8UsrEVQvhHvx5",
        "reception_time": "2022-01-15T10:49:50.389-00:00",
        "included_in_blocks":
          [ "BL7GPqWZBty9i74utAKfzuthz1EqL2Q85Cx27MLsxDkX3e1Xj8U" ] },
      { "delegate": "tz1iZEKy4LaAjnTmn2RuGDf2iqdAQKnRi8kY",
        "reception_time": "2022-01-15T10:49:50.428-00:00",
        "included_in_blocks":
          [ "BL7GPqWZBty9i74utAKfzuthz1EqL2Q85Cx27MLsxDkX3e1Xj8U" ] },
      { "delegate": "tz1abmz7jiCV2GH2u81LRrGgAFFgvQgiDiaf",
        "reception_time": "2022-01-15T10:49:50.364-00:00",
        "included_in_blocks":
          [ "BL7GPqWZBty9i74utAKfzuthz1EqL2Q85Cx27MLsxDkX3e1Xj8U" ] },
      { "delegate": "tz1YhNsiRRU8aHNGg7NK3uuP6UDAyacJernB",
        "reception_time": "2022-01-15T10:49:50.370-00:00",
        "included_in_blocks":
          [ "BL7GPqWZBty9i74utAKfzuthz1EqL2Q85Cx27MLsxDkX3e1Xj8U" ] },
      { "delegate": "tz3QT9dHYKDqh563chVa6za8526ys1UKfRfL",
        "reception_time": "2022-01-15T10:49:50.290-00:00",
        "included_in_blocks":
          [ "BL7GPqWZBty9i74utAKfzuthz1EqL2Q85Cx27MLsxDkX3e1Xj8U" ] },
      { "delegate": "tz3S6BBeKgJGXxvLyZ1xzXzMPn11nnFtq5L9",
        "reception_time": "2022-01-15T10:49:50.262-00:00",
        "included_in_blocks":
          [ "BL7GPqWZBty9i74utAKfzuthz1EqL2Q85Cx27MLsxDkX3e1Xj8U" ] },
      { "delegate": "tz1WCd2jm4uSt4vntk4vSuUWoZQGhLcDuR9q",
        "reception_time": "2022-01-15T10:49:50.239-00:00",
        "included_in_blocks":
          [ "BL7GPqWZBty9i74utAKfzuthz1EqL2Q85Cx27MLsxDkX3e1Xj8U" ] },
      { "delegate": "tz1SFtJ3XwU1d6rWTRfJmwVDFpywcp4J743S",
        "reception_time": "2022-01-15T10:49:50.272-00:00",
        "included_in_blocks":
          [ "BL7GPqWZBty9i74utAKfzuthz1EqL2Q85Cx27MLsxDkX3e1Xj8U" ] },
      { "delegate": "tz1QLXqnfN51dkjeghXvKHkJfhvGiM5gK4tc",
        "reception_time": "2022-01-15T10:49:50.307-00:00",
        "included_in_blocks":
          [ "BL7GPqWZBty9i74utAKfzuthz1EqL2Q85Cx27MLsxDkX3e1Xj8U" ] },
      { "delegate": "tz1gfArv665EUkSg2ojMBzcbfwuPxAvqPvjo",
        "reception_time": "2022-01-15T10:49:50.451-00:00",
        "included_in_blocks":
          [ "BL7GPqWZBty9i74utAKfzuthz1EqL2Q85Cx27MLsxDkX3e1Xj8U" ] },
      { "delegate": "tz3Zhs2dygr55yHyQyKjntAtY9bgfhLZ4Xj1",
        "reception_time": "2022-01-15T10:49:49.860-00:00",
        "included_in_blocks":
          [ "BL7GPqWZBty9i74utAKfzuthz1EqL2Q85Cx27MLsxDkX3e1Xj8U" ] },
      { "delegate": "tz3iJu5vrKZcsqRPs8yJ61UDoeEXZmtro4qh",
        "reception_time": "2022-01-15T10:49:49.964-00:00",
        "included_in_blocks":
          [ "BL7GPqWZBty9i74utAKfzuthz1EqL2Q85Cx27MLsxDkX3e1Xj8U" ] },
      { "delegate": "tz1KfEsrtDaA1sX7vdM4qmEPWuSytuqCDp5j",
        "reception_time": "2022-01-15T10:49:50.354-00:00",
        "included_in_blocks":
          [ "BL7GPqWZBty9i74utAKfzuthz1EqL2Q85Cx27MLsxDkX3e1Xj8U" ] },
      { "delegate": "tz1PWCDnz783NNGGQjEFFsHtrcK5yBW4E2rm",
        "reception_time": "2022-01-15T10:49:50.290-00:00",
        "included_in_blocks":
          [ "BL7GPqWZBty9i74utAKfzuthz1EqL2Q85Cx27MLsxDkX3e1Xj8U" ] },
      { "delegate": "tz1ei4WtWEMEJekSv8qDnu9PExG6Q8HgRGr3",
        "reception_time": "2022-01-15T10:49:49.907-00:00",
        "included_in_blocks":
          [ "BL7GPqWZBty9i74utAKfzuthz1EqL2Q85Cx27MLsxDkX3e1Xj8U" ] } ] }