{ "blocks":
    [ { "hash": "BL8AisYQ1a4oXAwejyPVqGD3rqLxL5rhDUWhTaQvZL7tXsE5oFS",
        "delegate": "tz3RB4aoyjov4KEVRbuhvQ1CKJgBJMWhaeB8",
        "reception_time": "2022-01-15T10:32:50.748-00:00",
        "timestamp": "2022-01-15T10:32:40Z" } ],
  "endorsements":
    [ { "delegate": "tz1ibcPVGK4Y8pcW4BYUsojiHoBKnZbyDGrX" },
      { "delegate": "tz3NDpRj6WBrJPikcPVHRBEjWKxFw3c6eQPS",
        "reception_time": "2022-01-15T10:32:50.601-00:00",
        "errors":
          [ { "kind": "temporary",
              "id": "proto.011-PtHangz2.prefilter.outdated_endorsement" } ],
        "included_in_blocks":
          [ "BMMCKyPj7k7JcxPUV3ohXtkqMR89dYbEKQuQ1XZV1PnP3Hwcfai" ] },
      { "delegate": "tz3bTdwZinP8U1JmSweNzVKhmwafqWmFWRfk",
        "reception_time": "2022-01-15T10:32:50.494-00:00",
        "errors":
          [ { "kind": "temporary",
              "id": "proto.011-PtHangz2.prefilter.outdated_endorsement" } ],
        "included_in_blocks":
          [ "BMMCKyPj7k7JcxPUV3ohXtkqMR89dYbEKQuQ1XZV1PnP3Hwcfai" ] },
      { "delegate": "tz1MQJPGNMijnXnVoBENFz9rUhaPt3S7rWoz",
        "reception_time": "2022-01-15T10:32:50.494-00:00",
        "errors":
          [ { "kind": "temporary",
              "id": "proto.011-PtHangz2.prefilter.outdated_endorsement" } ],
        "included_in_blocks":
          [ "BMMCKyPj7k7JcxPUV3ohXtkqMR89dYbEKQuQ1XZV1PnP3Hwcfai" ] },
      { "delegate": "tz1iPHM2Xx2hwmzcr1EG1zzrV6oKafVoA91m",
        "reception_time": "2022-01-15T10:32:50.425-00:00",
        "errors":
          [ { "kind": "temporary",
              "id": "proto.011-PtHangz2.prefilter.outdated_endorsement" } ],
        "included_in_blocks":
          [ "BMMCKyPj7k7JcxPUV3ohXtkqMR89dYbEKQuQ1XZV1PnP3Hwcfai" ] },
      { "delegate": "tz1V4qCyvPKZ5UeqdH14HN42rxvNPQfc9UZg",
        "reception_time": "2022-01-15T10:32:50.416-00:00",
        "errors":
          [ { "kind": "temporary",
              "id": "proto.011-PtHangz2.prefilter.outdated_endorsement" } ],
        "included_in_blocks":
          [ "BMMCKyPj7k7JcxPUV3ohXtkqMR89dYbEKQuQ1XZV1PnP3Hwcfai" ] },
      { "delegate": "tz1S8MNvuFEUsWgjHvi3AxibRBf388NhT1q2",
        "reception_time": "2022-01-15T10:32:50.221-00:00",
        "errors":
          [ { "kind": "temporary",
              "id": "proto.011-PtHangz2.prefilter.outdated_endorsement" } ],
        "included_in_blocks":
          [ "BMMCKyPj7k7JcxPUV3ohXtkqMR89dYbEKQuQ1XZV1PnP3Hwcfai" ] },
      { "delegate": "tz1gfArv665EUkSg2ojMBzcbfwuPxAvqPvjo",
        "reception_time": "2022-01-15T10:32:50.161-00:00",
        "errors":
          [ { "kind": "temporary",
              "id": "proto.011-PtHangz2.prefilter.outdated_endorsement" } ],
        "included_in_blocks":
          [ "BMMCKyPj7k7JcxPUV3ohXtkqMR89dYbEKQuQ1XZV1PnP3Hwcfai" ] },
      { "delegate": "tz3bvNMQ95vfAYtG8193ymshqjSvmxiCUuR5",
        "reception_time": "2022-01-15T10:32:50.145-00:00",
        "errors":
          [ { "kind": "temporary",
              "id": "proto.011-PtHangz2.prefilter.outdated_endorsement" } ],
        "included_in_blocks":
          [ "BMMCKyPj7k7JcxPUV3ohXtkqMR89dYbEKQuQ1XZV1PnP3Hwcfai" ] },
      { "delegate": "tz1MQMiZHV8q4tTwUMWmS5Y3kaP6J2136iXr",
        "reception_time": "2022-01-15T10:32:50.038-00:00",
        "errors":
          [ { "kind": "temporary",
              "id": "proto.011-PtHangz2.prefilter.outdated_endorsement" } ],
        "included_in_blocks":
          [ "BMMCKyPj7k7JcxPUV3ohXtkqMR89dYbEKQuQ1XZV1PnP3Hwcfai" ] },
      { "delegate": "tz1PWCDnz783NNGGQjEFFsHtrcK5yBW4E2rm",
        "reception_time": "2022-01-15T10:32:49.887-00:00",
        "errors":
          [ { "kind": "temporary",
              "id": "proto.011-PtHangz2.prefilter.outdated_endorsement" } ],
        "included_in_blocks":
          [ "BMMCKyPj7k7JcxPUV3ohXtkqMR89dYbEKQuQ1XZV1PnP3Hwcfai" ] },
      { "delegate": "tz3S6BBeKgJGXxvLyZ1xzXzMPn11nnFtq5L9",
        "reception_time": "2022-01-15T10:32:49.883-00:00",
        "errors":
          [ { "kind": "temporary",
              "id": "proto.011-PtHangz2.prefilter.outdated_endorsement" } ],
        "included_in_blocks":
          [ "BMMCKyPj7k7JcxPUV3ohXtkqMR89dYbEKQuQ1XZV1PnP3Hwcfai" ] },
      { "delegate": "tz3QT9dHYKDqh563chVa6za8526ys1UKfRfL",
        "reception_time": "2022-01-15T10:32:49.866-00:00",
        "errors":
          [ { "kind": "temporary",
              "id": "proto.011-PtHangz2.prefilter.outdated_endorsement" } ],
        "included_in_blocks":
          [ "BMMCKyPj7k7JcxPUV3ohXtkqMR89dYbEKQuQ1XZV1PnP3Hwcfai" ] },
      { "delegate": "tz1fPKAtsYydh4f1wfWNfeNxWYu72TmM48fu",
        "reception_time": "2022-01-15T10:32:49.850-00:00",
        "errors":
          [ { "kind": "temporary",
              "id": "proto.011-PtHangz2.prefilter.outdated_endorsement" } ],
        "included_in_blocks":
          [ "BMMCKyPj7k7JcxPUV3ohXtkqMR89dYbEKQuQ1XZV1PnP3Hwcfai" ] },
      { "delegate": "tz1YhNsiRRU8aHNGg7NK3uuP6UDAyacJernB",
        "reception_time": "2022-01-15T10:32:49.823-00:00",
        "errors":
          [ { "kind": "temporary",
              "id": "proto.011-PtHangz2.prefilter.outdated_endorsement" } ],
        "included_in_blocks":
          [ "BMMCKyPj7k7JcxPUV3ohXtkqMR89dYbEKQuQ1XZV1PnP3Hwcfai" ] },
      { "delegate": "tz3gtoUxdudfBRcNY7iVdKPHCYYX6xdPpoRS",
        "reception_time": "2022-01-15T10:32:49.630-00:00",
        "errors":
          [ { "kind": "temporary",
              "id": "proto.011-PtHangz2.prefilter.outdated_endorsement" } ],
        "included_in_blocks":
          [ "BMMCKyPj7k7JcxPUV3ohXtkqMR89dYbEKQuQ1XZV1PnP3Hwcfai" ] },
      { "delegate": "tz3QSGPoRp3Kn7n3vY24eYeu3Peuqo45LQ4D",
        "reception_time": "2022-01-15T10:32:49.626-00:00",
        "errors":
          [ { "kind": "temporary",
              "id": "proto.011-PtHangz2.prefilter.outdated_endorsement" } ],
        "included_in_blocks":
          [ "BMMCKyPj7k7JcxPUV3ohXtkqMR89dYbEKQuQ1XZV1PnP3Hwcfai" ] },
      { "delegate": "tz1WCd2jm4uSt4vntk4vSuUWoZQGhLcDuR9q",
        "reception_time": "2022-01-15T10:32:49.614-00:00",
        "errors":
          [ { "kind": "temporary",
              "id": "proto.011-PtHangz2.prefilter.outdated_endorsement" } ],
        "included_in_blocks":
          [ "BMMCKyPj7k7JcxPUV3ohXtkqMR89dYbEKQuQ1XZV1PnP3Hwcfai" ] },
      { "delegate": "tz1aXD7Jigrt3PBYSpHSg5Rr33SexMmmM5Ys",
        "reception_time": "2022-01-15T10:32:49.604-00:00",
        "errors":
          [ { "kind": "temporary",
              "id": "proto.011-PtHangz2.prefilter.outdated_endorsement" } ],
        "included_in_blocks":
          [ "BMMCKyPj7k7JcxPUV3ohXtkqMR89dYbEKQuQ1XZV1PnP3Hwcfai" ] },
      { "delegate": "tz1TzaNn7wSQSP5gYPXCnNzBCpyMiidCq1PX",
        "reception_time": "2022-01-15T10:32:49.592-00:00",
        "errors":
          [ { "kind": "temporary",
              "id": "proto.011-PtHangz2.prefilter.outdated_endorsement" } ],
        "included_in_blocks":
          [ "BMMCKyPj7k7JcxPUV3ohXtkqMR89dYbEKQuQ1XZV1PnP3Hwcfai" ] },
      { "delegate": "tz3QCNyySViKHmeSr45kzDxzchys7NiXCWoa",
        "reception_time": "2022-01-15T10:32:49.552-00:00",
        "errors":
          [ { "kind": "temporary",
              "id": "proto.011-PtHangz2.prefilter.outdated_endorsement" } ],
        "included_in_blocks":
          [ "BMMCKyPj7k7JcxPUV3ohXtkqMR89dYbEKQuQ1XZV1PnP3Hwcfai" ] },
      { "delegate": "tz3Zhs2dygr55yHyQyKjntAtY9bgfhLZ4Xj1",
        "reception_time": "2022-01-15T10:32:49.539-00:00",
        "errors":
          [ { "kind": "temporary",
              "id": "proto.011-PtHangz2.prefilter.outdated_endorsement" } ],
        "included_in_blocks":
          [ "BMMCKyPj7k7JcxPUV3ohXtkqMR89dYbEKQuQ1XZV1PnP3Hwcfai" ] },
      { "delegate": "tz3iJu5vrKZcsqRPs8yJ61UDoeEXZmtro4qh",
        "reception_time": "2022-01-15T10:32:49.531-00:00",
        "errors":
          [ { "kind": "temporary",
              "id": "proto.011-PtHangz2.prefilter.outdated_endorsement" } ],
        "included_in_blocks":
          [ "BMMCKyPj7k7JcxPUV3ohXtkqMR89dYbEKQuQ1XZV1PnP3Hwcfai" ] },
      { "delegate": "tz3RKYFsLuQzKBtmYuLNas7uMu3AsYd4QdsA",
        "reception_time": "2022-01-15T10:32:49.441-00:00",
        "errors":
          [ { "kind": "temporary",
              "id": "proto.011-PtHangz2.prefilter.outdated_endorsement" } ],
        "included_in_blocks":
          [ "BMMCKyPj7k7JcxPUV3ohXtkqMR89dYbEKQuQ1XZV1PnP3Hwcfai" ] },
      { "delegate": "tz1VmiY38m3y95HqQLjMwqnMS7sdMfGomzKi",
        "reception_time": "2022-01-15T10:32:49.420-00:00",
        "errors":
          [ { "kind": "temporary",
              "id": "proto.011-PtHangz2.prefilter.outdated_endorsement" } ],
        "included_in_blocks":
          [ "BMMCKyPj7k7JcxPUV3ohXtkqMR89dYbEKQuQ1XZV1PnP3Hwcfai" ] },
      { "delegate": "tz3hw2kqXhLUvY65ca1eety2oQTpAvd34R9Q",
        "reception_time": "2022-01-15T10:32:49.390-00:00",
        "errors":
          [ { "kind": "temporary",
              "id": "proto.011-PtHangz2.prefilter.outdated_endorsement" } ],
        "included_in_blocks":
          [ "BMMCKyPj7k7JcxPUV3ohXtkqMR89dYbEKQuQ1XZV1PnP3Hwcfai" ] },
      { "delegate": "tz1gUNyn3hmnEWqkusWPzxRaon1cs7ndWh7h",
        "reception_time": "2022-01-15T10:32:49.291-00:00",
        "errors":
          [ { "kind": "temporary",
              "id": "proto.011-PtHangz2.prefilter.outdated_endorsement" } ],
        "included_in_blocks":
          [ "BMMCKyPj7k7JcxPUV3ohXtkqMR89dYbEKQuQ1XZV1PnP3Hwcfai" ] },
      { "delegate": "tz1VQnqCCqX4K5sP3FNkVSNKTdCAMJDd3E1n",
        "reception_time": "2022-01-15T10:32:49.287-00:00",
        "errors":
          [ { "kind": "temporary",
              "id": "proto.011-PtHangz2.prefilter.outdated_endorsement" } ],
        "included_in_blocks":
          [ "BMMCKyPj7k7JcxPUV3ohXtkqMR89dYbEKQuQ1XZV1PnP3Hwcfai" ] },
      { "delegate": "tz1Ldzz6k1BHdhuKvAtMRX7h5kJSMHESMHLC",
        "reception_time": "2022-01-15T10:32:49.258-00:00",
        "errors":
          [ { "kind": "temporary",
              "id": "proto.011-PtHangz2.prefilter.outdated_endorsement" } ],
        "included_in_blocks":
          [ "BMMCKyPj7k7JcxPUV3ohXtkqMR89dYbEKQuQ1XZV1PnP3Hwcfai" ] },
      { "delegate": "tz3NxTnke1acr8o3h5y9ytf5awQBGNJUKzVU",
        "reception_time": "2022-01-15T10:32:49.246-00:00",
        "errors":
          [ { "kind": "temporary",
              "id": "proto.011-PtHangz2.prefilter.outdated_endorsement" } ],
        "included_in_blocks":
          [ "BMMCKyPj7k7JcxPUV3ohXtkqMR89dYbEKQuQ1XZV1PnP3Hwcfai" ] },
      { "delegate": "tz3ZbP2pM3nwvXztbuMJwJnDvV5xdpU8UkkD",
        "reception_time": "2022-01-15T10:32:49.217-00:00",
        "errors":
          [ { "kind": "temporary",
              "id": "proto.011-PtHangz2.prefilter.outdated_endorsement" } ],
        "included_in_blocks":
          [ "BMMCKyPj7k7JcxPUV3ohXtkqMR89dYbEKQuQ1XZV1PnP3Hwcfai" ] },
      { "delegate": "tz1P2Po7YM526ughEsRbY4oR9zaUPDZjxFrb",
        "reception_time": "2022-01-15T10:32:49.045-00:00",
        "errors":
          [ { "kind": "temporary",
              "id": "proto.011-PtHangz2.prefilter.outdated_endorsement" } ],
        "included_in_blocks":
          [ "BMMCKyPj7k7JcxPUV3ohXtkqMR89dYbEKQuQ1XZV1PnP3Hwcfai" ] },
      { "delegate": "tz1Scdr2HsZiQjc7bHMeBbmDRXYVvdhjJbBh",
        "reception_time": "2022-01-15T10:32:48.966-00:00",
        "errors":
          [ { "kind": "temporary",
              "id": "proto.011-PtHangz2.prefilter.outdated_endorsement" } ],
        "included_in_blocks":
          [ "BMMCKyPj7k7JcxPUV3ohXtkqMR89dYbEKQuQ1XZV1PnP3Hwcfai" ] },
      { "delegate": "tz1TXzyaKUA8wsWefdSnyaYFnV2M3vCV7er9",
        "reception_time": "2022-01-15T10:32:48.840-00:00",
        "errors":
          [ { "kind": "temporary",
              "id": "proto.011-PtHangz2.prefilter.outdated_endorsement" } ],
        "included_in_blocks":
          [ "BMMCKyPj7k7JcxPUV3ohXtkqMR89dYbEKQuQ1XZV1PnP3Hwcfai" ] },
      { "delegate": "tz1beersuEDv8Z7ngQ825xfbaJNS2EhXnyHR",
        "reception_time": "2022-01-15T10:32:48.697-00:00",
        "errors":
          [ { "kind": "temporary",
              "id": "proto.011-PtHangz2.prefilter.outdated_endorsement" } ],
        "included_in_blocks":
          [ "BMMCKyPj7k7JcxPUV3ohXtkqMR89dYbEKQuQ1XZV1PnP3Hwcfai" ] },
      { "delegate": "tz1eEnQhbwf6trb8Q8mPb2RaPkNk2rN7BKi8",
        "reception_time": "2022-01-15T10:32:48.689-00:00",
        "errors":
          [ { "kind": "temporary",
              "id": "proto.011-PtHangz2.prefilter.outdated_endorsement" } ],
        "included_in_blocks":
          [ "BMMCKyPj7k7JcxPUV3ohXtkqMR89dYbEKQuQ1XZV1PnP3Hwcfai" ] },
      { "delegate": "tz1irJKkXS2DBWkU1NnmFQx1c1L7pbGg4yhk",
        "reception_time": "2022-01-15T10:32:48.639-00:00",
        "errors":
          [ { "kind": "temporary",
              "id": "proto.011-PtHangz2.prefilter.outdated_endorsement" } ],
        "included_in_blocks":
          [ "BMMCKyPj7k7JcxPUV3ohXtkqMR89dYbEKQuQ1XZV1PnP3Hwcfai" ] },
      { "delegate": "tz1aKxnrzx5PXZJe7unufEswVRCMU9yafmfb",
        "reception_time": "2022-01-15T10:32:48.435-00:00",
        "errors":
          [ { "kind": "temporary",
              "id": "proto.011-PtHangz2.prefilter.outdated_endorsement" } ],
        "included_in_blocks":
          [ "BMMCKyPj7k7JcxPUV3ohXtkqMR89dYbEKQuQ1XZV1PnP3Hwcfai" ] },
      { "delegate": "tz3RB4aoyjov4KEVRbuhvQ1CKJgBJMWhaeB8",
        "reception_time": "2022-01-15T10:32:48.302-00:00",
        "errors":
          [ { "kind": "temporary",
              "id": "proto.011-PtHangz2.prefilter.outdated_endorsement" } ],
        "included_in_blocks":
          [ "BMMCKyPj7k7JcxPUV3ohXtkqMR89dYbEKQuQ1XZV1PnP3Hwcfai" ] },
      { "delegate": "tz1g8vkmcde6sWKaG2NN9WKzCkDM6Rziq194",
        "reception_time": "2022-01-15T10:32:58.856-00:00",
        "included_in_blocks":
          [ "BMMCKyPj7k7JcxPUV3ohXtkqMR89dYbEKQuQ1XZV1PnP3Hwcfai" ] },
      { "delegate": "tz1Z1WwoqgRFbLE3YNdYRpCx44NSfiMJzeAG",
        "reception_time": "2022-01-15T10:32:58.204-00:00",
        "included_in_blocks":
          [ "BMMCKyPj7k7JcxPUV3ohXtkqMR89dYbEKQuQ1XZV1PnP3Hwcfai" ] },
      { "delegate": "tz1SYq214SCBy9naR6cvycQsYcUGpBqQAE8d",
        "reception_time": "2022-01-15T10:32:57.427-00:00",
        "included_in_blocks":
          [ "BMMCKyPj7k7JcxPUV3ohXtkqMR89dYbEKQuQ1XZV1PnP3Hwcfai" ] },
      { "delegate": "tz1TRqbYbUf2GyrjErf3hBzgBJPzW8y36qEs",
        "reception_time": "2022-01-15T10:32:55.539-00:00",
        "included_in_blocks":
          [ "BMMCKyPj7k7JcxPUV3ohXtkqMR89dYbEKQuQ1XZV1PnP3Hwcfai" ] },
      { "delegate": "tz1b9MYGrbN1NAxphLEsPPNT9JC7aNFc5nA4",
        "reception_time": "2022-01-15T10:32:54.999-00:00",
        "included_in_blocks":
          [ "BMMCKyPj7k7JcxPUV3ohXtkqMR89dYbEKQuQ1XZV1PnP3Hwcfai" ] },
      { "delegate": "tz1WeKH4iJ4PVxKeVYwCoRUZNW9f9vFq1QXq",
        "reception_time": "2022-01-15T10:32:53.881-00:00",
        "included_in_blocks":
          [ "BMMCKyPj7k7JcxPUV3ohXtkqMR89dYbEKQuQ1XZV1PnP3Hwcfai" ] },
      { "delegate": "tz1RCFbB9GpALpsZtu6J58sb74dm8qe6XBzv",
        "reception_time": "2022-01-15T10:32:53.701-00:00",
        "included_in_blocks":
          [ "BMMCKyPj7k7JcxPUV3ohXtkqMR89dYbEKQuQ1XZV1PnP3Hwcfai" ] },
      { "delegate": "tz2FCNBrERXtaTtNX6iimR1UJ5JSDxvdHM93",
        "reception_time": "2022-01-15T10:32:53.693-00:00",
        "included_in_blocks":
          [ "BMMCKyPj7k7JcxPUV3ohXtkqMR89dYbEKQuQ1XZV1PnP3Hwcfai" ] },
      { "delegate": "tz1ZcTRk5uxD86EFEn1vvNffWWqJy7q5eVhc",
        "reception_time": "2022-01-15T10:32:53.269-00:00",
        "included_in_blocks":
          [ "BMMCKyPj7k7JcxPUV3ohXtkqMR89dYbEKQuQ1XZV1PnP3Hwcfai" ] },
      { "delegate": "tz1QccGQsmt7WMnbVX9inJQgEuQGeMXddfjp",
        "reception_time": "2022-01-15T10:32:53.239-00:00",
        "included_in_blocks":
          [ "BMMCKyPj7k7JcxPUV3ohXtkqMR89dYbEKQuQ1XZV1PnP3Hwcfai" ] },
      { "delegate": "tz1RjoHc98dBoqaH2jawF62XNKh7YsHwbkEv",
        "reception_time": "2022-01-15T10:32:53.175-00:00",
        "included_in_blocks":
          [ "BMMCKyPj7k7JcxPUV3ohXtkqMR89dYbEKQuQ1XZV1PnP3Hwcfai" ] },
      { "delegate": "tz1ULYFhUY7Syao5NWr9jZ1pp3aw81QPiqjs",
        "reception_time": "2022-01-15T10:32:53.163-00:00",
        "included_in_blocks":
          [ "BMMCKyPj7k7JcxPUV3ohXtkqMR89dYbEKQuQ1XZV1PnP3Hwcfai" ] },
      { "delegate": "tz1PeZx7FXy7QRuMREGXGxeipb24RsMMzUNe",
        "reception_time": "2022-01-15T10:32:52.513-00:00",
        "included_in_blocks":
          [ "BMMCKyPj7k7JcxPUV3ohXtkqMR89dYbEKQuQ1XZV1PnP3Hwcfai" ] },
      { "delegate": "tz1Z2jXfEXL7dXhs6bsLmyLFLfmAkXBzA9WE",
        "reception_time": "2022-01-15T10:32:52.463-00:00",
        "included_in_blocks":
          [ "BMMCKyPj7k7JcxPUV3ohXtkqMR89dYbEKQuQ1XZV1PnP3Hwcfai" ] },
      { "delegate": "tz1NEKxGEHsFufk87CVZcrqWu8o22qh46GK6",
        "reception_time": "2022-01-15T10:32:52.145-00:00",
        "included_in_blocks":
          [ "BMMCKyPj7k7JcxPUV3ohXtkqMR89dYbEKQuQ1XZV1PnP3Hwcfai" ] },
      { "delegate": "tz1aRoaRhSpRYvFdyvgWLL6TGyRoGF51wDjM",
        "reception_time": "2022-01-15T10:32:52.142-00:00",
        "included_in_blocks":
          [ "BMMCKyPj7k7JcxPUV3ohXtkqMR89dYbEKQuQ1XZV1PnP3Hwcfai" ] },
      { "delegate": "tz3NExpXn9aPNZPorRE4SdjJ2RGrfbJgMAaV",
        "reception_time": "2022-01-15T10:32:52.133-00:00",
        "included_in_blocks":
          [ "BMMCKyPj7k7JcxPUV3ohXtkqMR89dYbEKQuQ1XZV1PnP3Hwcfai" ] },
      { "delegate": "tz1SohptP53wDPZhzTWzDUFAUcWF6DMBpaJV",
        "reception_time": "2022-01-15T10:32:52.139-00:00",
        "included_in_blocks":
          [ "BMMCKyPj7k7JcxPUV3ohXtkqMR89dYbEKQuQ1XZV1PnP3Hwcfai" ] },
      { "delegate": "tz3UoffC7FG7zfpmvmjUmUeAaHvzdcUvAj6r",
        "reception_time": "2022-01-15T10:32:52.152-00:00",
        "included_in_blocks":
          [ "BMMCKyPj7k7JcxPUV3ohXtkqMR89dYbEKQuQ1XZV1PnP3Hwcfai" ] },
      { "delegate": "tz1KfEsrtDaA1sX7vdM4qmEPWuSytuqCDp5j",
        "reception_time": "2022-01-15T10:32:52.087-00:00",
        "included_in_blocks":
          [ "BMMCKyPj7k7JcxPUV3ohXtkqMR89dYbEKQuQ1XZV1PnP3Hwcfai" ] },
      { "delegate": "tz1Nf6tsK4G6bBqgSQERy4nUtkHNKUVdh7q1",
        "reception_time": "2022-01-15T10:32:52.125-00:00",
        "included_in_blocks":
          [ "BMMCKyPj7k7JcxPUV3ohXtkqMR89dYbEKQuQ1XZV1PnP3Hwcfai" ] },
      { "delegate": "tz1RpeqCseogMpCPXpyGjhmLH9i9DhqJ8cUR",
        "reception_time": "2022-01-15T10:32:52.087-00:00",
        "included_in_blocks":
          [ "BMMCKyPj7k7JcxPUV3ohXtkqMR89dYbEKQuQ1XZV1PnP3Hwcfai" ] },
      { "delegate": "tz1TEc75UKXv4W5cwi14Na3NtqFD51yKQi7h",
        "reception_time": "2022-01-15T10:32:52.108-00:00",
        "included_in_blocks":
          [ "BMMCKyPj7k7JcxPUV3ohXtkqMR89dYbEKQuQ1XZV1PnP3Hwcfai" ] },
      { "delegate": "tz3WMqdzXqRWXwyvj5Hp2H7QEepaUuS7vd9K",
        "reception_time": "2022-01-15T10:32:52.121-00:00",
        "included_in_blocks":
          [ "BMMCKyPj7k7JcxPUV3ohXtkqMR89dYbEKQuQ1XZV1PnP3Hwcfai" ] },
      { "delegate": "tz1abmz7jiCV2GH2u81LRrGgAFFgvQgiDiaf",
        "reception_time": "2022-01-15T10:32:52.121-00:00",
        "included_in_blocks":
          [ "BMMCKyPj7k7JcxPUV3ohXtkqMR89dYbEKQuQ1XZV1PnP3Hwcfai" ] },
      { "delegate": "tz1LmaFsWRkjr7QMCx5PtV6xTUz3AmEpKQiF",
        "reception_time": "2022-01-15T10:32:52.111-00:00",
        "included_in_blocks":
          [ "BMMCKyPj7k7JcxPUV3ohXtkqMR89dYbEKQuQ1XZV1PnP3Hwcfai" ] },
      { "delegate": "tz1Tnjaxk6tbAeC2TmMApPh8UsrEVQvhHvx5",
        "reception_time": "2022-01-15T10:32:52.136-00:00",
        "included_in_blocks":
          [ "BMMCKyPj7k7JcxPUV3ohXtkqMR89dYbEKQuQ1XZV1PnP3Hwcfai" ] },
      { "delegate": "tz3RDC3Jdn4j15J7bBHZd29EUee9gVB1CxD9",
        "reception_time": "2022-01-15T10:32:52.077-00:00",
        "included_in_blocks":
          [ "BMMCKyPj7k7JcxPUV3ohXtkqMR89dYbEKQuQ1XZV1PnP3Hwcfai" ] },
      { "delegate": "tz3VEZ4k6a4Wx42iyev6i2aVAptTRLEAivNN",
        "reception_time": "2022-01-15T10:32:52.069-00:00",
        "included_in_blocks":
          [ "BMMCKyPj7k7JcxPUV3ohXtkqMR89dYbEKQuQ1XZV1PnP3Hwcfai" ] } ] }