{ "blocks":
    [ { "hash": "BLZfugmCGDLm4jgfS2niXvwxnTNyw92XPQBKap8CJdkkoxGm2CV",
        "delegate": "tz3NxTnke1acr8o3h5y9ytf5awQBGNJUKzVU",
        "reception_time": "2022-01-15T11:03:47.621-00:00",
        "timestamp": "2022-01-15T11:03:40Z" } ],
  "endorsements":
    [ { "delegate": "tz1NMdMmWZN8QPB8pY4ddncACDg1cHi1xD2e" },
      { "delegate": "tz3bTdwZinP8U1JmSweNzVKhmwafqWmFWRfk",
        "reception_time": "2022-01-15T11:03:47.535-00:00",
        "errors":
          [ { "kind": "temporary",
              "id": "proto.011-PtHangz2.prefilter.outdated_endorsement" } ],
        "included_in_blocks":
          [ "BL7tu3eCG6f6JNUaKFfmSbAEwQtS8ff2vPJujrhaYWEaWJtUvEC" ] },
      { "delegate": "tz1LnWa4AiFCjMezTgSNa65QFoo7DQGEWgEU",
        "reception_time": "2022-01-15T11:03:47.529-00:00",
        "errors":
          [ { "kind": "temporary",
              "id": "proto.011-PtHangz2.prefilter.outdated_endorsement" } ],
        "included_in_blocks":
          [ "BL7tu3eCG6f6JNUaKFfmSbAEwQtS8ff2vPJujrhaYWEaWJtUvEC" ] },
      { "delegate": "tz1PWCDnz783NNGGQjEFFsHtrcK5yBW4E2rm",
        "reception_time": "2022-01-15T11:03:47.515-00:00",
        "errors":
          [ { "kind": "temporary",
              "id": "proto.011-PtHangz2.prefilter.outdated_endorsement" } ],
        "included_in_blocks":
          [ "BL7tu3eCG6f6JNUaKFfmSbAEwQtS8ff2vPJujrhaYWEaWJtUvEC" ] },
      { "delegate": "tz1d6Fx42mYgVFnHUW8T8A7WBfJ6nD9pVok8",
        "reception_time": "2022-01-15T11:03:47.497-00:00",
        "errors":
          [ { "kind": "temporary",
              "id": "proto.011-PtHangz2.prefilter.outdated_endorsement" } ],
        "included_in_blocks":
          [ "BL7tu3eCG6f6JNUaKFfmSbAEwQtS8ff2vPJujrhaYWEaWJtUvEC" ] },
      { "delegate": "tz1YhNsiRRU8aHNGg7NK3uuP6UDAyacJernB",
        "reception_time": "2022-01-15T11:03:47.487-00:00",
        "errors":
          [ { "kind": "temporary",
              "id": "proto.011-PtHangz2.prefilter.outdated_endorsement" } ],
        "included_in_blocks":
          [ "BL7tu3eCG6f6JNUaKFfmSbAEwQtS8ff2vPJujrhaYWEaWJtUvEC" ] },
      { "delegate": "tz1WCd2jm4uSt4vntk4vSuUWoZQGhLcDuR9q",
        "reception_time": "2022-01-15T11:03:47.464-00:00",
        "errors":
          [ { "kind": "temporary",
              "id": "proto.011-PtHangz2.prefilter.outdated_endorsement" } ],
        "included_in_blocks":
          [ "BL7tu3eCG6f6JNUaKFfmSbAEwQtS8ff2vPJujrhaYWEaWJtUvEC" ] },
      { "delegate": "tz3iJu5vrKZcsqRPs8yJ61UDoeEXZmtro4qh",
        "reception_time": "2022-01-15T11:03:47.364-00:00",
        "errors":
          [ { "kind": "temporary",
              "id": "proto.011-PtHangz2.prefilter.outdated_endorsement" } ],
        "included_in_blocks":
          [ "BL7tu3eCG6f6JNUaKFfmSbAEwQtS8ff2vPJujrhaYWEaWJtUvEC" ] },
      { "delegate": "tz3Zhs2dygr55yHyQyKjntAtY9bgfhLZ4Xj1",
        "reception_time": "2022-01-15T11:03:47.246-00:00",
        "errors":
          [ { "kind": "temporary",
              "id": "proto.011-PtHangz2.prefilter.outdated_endorsement" } ],
        "included_in_blocks":
          [ "BL7tu3eCG6f6JNUaKFfmSbAEwQtS8ff2vPJujrhaYWEaWJtUvEC" ] },
      { "delegate": "tz3S6BBeKgJGXxvLyZ1xzXzMPn11nnFtq5L9",
        "reception_time": "2022-01-15T11:03:47.194-00:00",
        "errors":
          [ { "kind": "temporary",
              "id": "proto.011-PtHangz2.prefilter.outdated_endorsement" } ],
        "included_in_blocks":
          [ "BL7tu3eCG6f6JNUaKFfmSbAEwQtS8ff2vPJujrhaYWEaWJtUvEC" ] },
      { "delegate": "tz1VmiY38m3y95HqQLjMwqnMS7sdMfGomzKi",
        "reception_time": "2022-01-15T11:03:47.150-00:00",
        "errors":
          [ { "kind": "temporary",
              "id": "proto.011-PtHangz2.prefilter.outdated_endorsement" } ],
        "included_in_blocks":
          [ "BL7tu3eCG6f6JNUaKFfmSbAEwQtS8ff2vPJujrhaYWEaWJtUvEC" ] },
      { "delegate": "tz3QT9dHYKDqh563chVa6za8526ys1UKfRfL",
        "reception_time": "2022-01-15T11:03:47.120-00:00",
        "errors":
          [ { "kind": "temporary",
              "id": "proto.011-PtHangz2.prefilter.outdated_endorsement" } ],
        "included_in_blocks":
          [ "BL7tu3eCG6f6JNUaKFfmSbAEwQtS8ff2vPJujrhaYWEaWJtUvEC" ] },
      { "delegate": "tz1aXD7Jigrt3PBYSpHSg5Rr33SexMmmM5Ys",
        "reception_time": "2022-01-15T11:03:47.045-00:00",
        "errors":
          [ { "kind": "temporary",
              "id": "proto.011-PtHangz2.prefilter.outdated_endorsement" } ],
        "included_in_blocks":
          [ "BL7tu3eCG6f6JNUaKFfmSbAEwQtS8ff2vPJujrhaYWEaWJtUvEC" ] },
      { "delegate": "tz1Kt4P8BCaP93AEV4eA7gmpRryWt5hznjCP",
        "reception_time": "2022-01-15T11:03:47.038-00:00",
        "errors":
          [ { "kind": "temporary",
              "id": "proto.011-PtHangz2.prefilter.outdated_endorsement" } ],
        "included_in_blocks":
          [ "BL7tu3eCG6f6JNUaKFfmSbAEwQtS8ff2vPJujrhaYWEaWJtUvEC" ] },
      { "delegate": "tz3gtoUxdudfBRcNY7iVdKPHCYYX6xdPpoRS",
        "reception_time": "2022-01-15T11:03:47.025-00:00",
        "errors":
          [ { "kind": "temporary",
              "id": "proto.011-PtHangz2.prefilter.outdated_endorsement" } ],
        "included_in_blocks":
          [ "BL7tu3eCG6f6JNUaKFfmSbAEwQtS8ff2vPJujrhaYWEaWJtUvEC" ] },
      { "delegate": "tz3QSGPoRp3Kn7n3vY24eYeu3Peuqo45LQ4D",
        "reception_time": "2022-01-15T11:03:47.002-00:00",
        "errors":
          [ { "kind": "temporary",
              "id": "proto.011-PtHangz2.prefilter.outdated_endorsement" } ],
        "included_in_blocks":
          [ "BL7tu3eCG6f6JNUaKFfmSbAEwQtS8ff2vPJujrhaYWEaWJtUvEC" ] },
      { "delegate": "tz1TzaNn7wSQSP5gYPXCnNzBCpyMiidCq1PX",
        "reception_time": "2022-01-15T11:03:46.959-00:00",
        "errors":
          [ { "kind": "temporary",
              "id": "proto.011-PtHangz2.prefilter.outdated_endorsement" } ],
        "included_in_blocks":
          [ "BL7tu3eCG6f6JNUaKFfmSbAEwQtS8ff2vPJujrhaYWEaWJtUvEC" ] },
      { "delegate": "tz1Ldzz6k1BHdhuKvAtMRX7h5kJSMHESMHLC",
        "reception_time": "2022-01-15T11:03:46.872-00:00",
        "errors":
          [ { "kind": "temporary",
              "id": "proto.011-PtHangz2.prefilter.outdated_endorsement" } ],
        "included_in_blocks":
          [ "BL7tu3eCG6f6JNUaKFfmSbAEwQtS8ff2vPJujrhaYWEaWJtUvEC" ] },
      { "delegate": "tz3RKYFsLuQzKBtmYuLNas7uMu3AsYd4QdsA",
        "reception_time": "2022-01-15T11:03:46.780-00:00",
        "errors":
          [ { "kind": "temporary",
              "id": "proto.011-PtHangz2.prefilter.outdated_endorsement" } ],
        "included_in_blocks":
          [ "BL7tu3eCG6f6JNUaKFfmSbAEwQtS8ff2vPJujrhaYWEaWJtUvEC" ] },
      { "delegate": "tz3hw2kqXhLUvY65ca1eety2oQTpAvd34R9Q",
        "reception_time": "2022-01-15T11:03:46.767-00:00",
        "errors":
          [ { "kind": "temporary",
              "id": "proto.011-PtHangz2.prefilter.outdated_endorsement" } ],
        "included_in_blocks":
          [ "BL7tu3eCG6f6JNUaKFfmSbAEwQtS8ff2vPJujrhaYWEaWJtUvEC" ] },
      { "delegate": "tz1STeamwbp68THcny9zk3LsbG3H36DMvbRK",
        "reception_time": "2022-01-15T11:03:46.527-00:00",
        "errors":
          [ { "kind": "temporary",
              "id": "proto.011-PtHangz2.prefilter.outdated_endorsement" } ],
        "included_in_blocks":
          [ "BL7tu3eCG6f6JNUaKFfmSbAEwQtS8ff2vPJujrhaYWEaWJtUvEC" ] },
      { "delegate": "tz1irJKkXS2DBWkU1NnmFQx1c1L7pbGg4yhk",
        "reception_time": "2022-01-15T11:03:46.460-00:00",
        "errors":
          [ { "kind": "temporary",
              "id": "proto.011-PtHangz2.prefilter.outdated_endorsement" } ],
        "included_in_blocks":
          [ "BL7tu3eCG6f6JNUaKFfmSbAEwQtS8ff2vPJujrhaYWEaWJtUvEC" ] },
      { "delegate": "tz1eEnQhbwf6trb8Q8mPb2RaPkNk2rN7BKi8",
        "reception_time": "2022-01-15T11:03:46.434-00:00",
        "errors":
          [ { "kind": "temporary",
              "id": "proto.011-PtHangz2.prefilter.outdated_endorsement" } ],
        "included_in_blocks":
          [ "BL7tu3eCG6f6JNUaKFfmSbAEwQtS8ff2vPJujrhaYWEaWJtUvEC" ] },
      { "delegate": "tz1Scdr2HsZiQjc7bHMeBbmDRXYVvdhjJbBh",
        "reception_time": "2022-01-15T11:03:46.434-00:00",
        "errors":
          [ { "kind": "temporary",
              "id": "proto.011-PtHangz2.prefilter.outdated_endorsement" } ],
        "included_in_blocks":
          [ "BL7tu3eCG6f6JNUaKFfmSbAEwQtS8ff2vPJujrhaYWEaWJtUvEC" ] },
      { "delegate": "tz1aKxnrzx5PXZJe7unufEswVRCMU9yafmfb",
        "reception_time": "2022-01-15T11:03:46.398-00:00",
        "errors":
          [ { "kind": "temporary",
              "id": "proto.011-PtHangz2.prefilter.outdated_endorsement" } ],
        "included_in_blocks":
          [ "BL7tu3eCG6f6JNUaKFfmSbAEwQtS8ff2vPJujrhaYWEaWJtUvEC" ] },
      { "delegate": "tz3NxTnke1acr8o3h5y9ytf5awQBGNJUKzVU",
        "reception_time": "2022-01-15T11:03:46.388-00:00",
        "errors":
          [ { "kind": "temporary",
              "id": "proto.011-PtHangz2.prefilter.outdated_endorsement" } ],
        "included_in_blocks":
          [ "BL7tu3eCG6f6JNUaKFfmSbAEwQtS8ff2vPJujrhaYWEaWJtUvEC" ] },
      { "delegate": "tz3ZbP2pM3nwvXztbuMJwJnDvV5xdpU8UkkD",
        "reception_time": "2022-01-15T11:03:46.369-00:00",
        "errors":
          [ { "kind": "temporary",
              "id": "proto.011-PtHangz2.prefilter.outdated_endorsement" } ],
        "included_in_blocks":
          [ "BL7tu3eCG6f6JNUaKFfmSbAEwQtS8ff2vPJujrhaYWEaWJtUvEC" ] },
      { "delegate": "tz1beersuEDv8Z7ngQ825xfbaJNS2EhXnyHR",
        "reception_time": "2022-01-15T11:03:46.356-00:00",
        "errors":
          [ { "kind": "temporary",
              "id": "proto.011-PtHangz2.prefilter.outdated_endorsement" } ],
        "included_in_blocks":
          [ "BL7tu3eCG6f6JNUaKFfmSbAEwQtS8ff2vPJujrhaYWEaWJtUvEC" ] },
      { "delegate": "tz1gUNyn3hmnEWqkusWPzxRaon1cs7ndWh7h",
        "reception_time": "2022-01-15T11:03:46.351-00:00",
        "errors":
          [ { "kind": "temporary",
              "id": "proto.011-PtHangz2.prefilter.outdated_endorsement" } ],
        "included_in_blocks":
          [ "BL7tu3eCG6f6JNUaKFfmSbAEwQtS8ff2vPJujrhaYWEaWJtUvEC" ] },
      { "delegate": "tz1VQnqCCqX4K5sP3FNkVSNKTdCAMJDd3E1n",
        "reception_time": "2022-01-15T11:03:46.326-00:00",
        "errors":
          [ { "kind": "temporary",
              "id": "proto.011-PtHangz2.prefilter.outdated_endorsement" } ],
        "included_in_blocks":
          [ "BL7tu3eCG6f6JNUaKFfmSbAEwQtS8ff2vPJujrhaYWEaWJtUvEC" ] },
      { "delegate": "tz1P2Po7YM526ughEsRbY4oR9zaUPDZjxFrb",
        "reception_time": "2022-01-15T11:03:46.191-00:00",
        "errors":
          [ { "kind": "temporary",
              "id": "proto.011-PtHangz2.prefilter.outdated_endorsement" } ],
        "included_in_blocks":
          [ "BL7tu3eCG6f6JNUaKFfmSbAEwQtS8ff2vPJujrhaYWEaWJtUvEC" ] },
      { "delegate": "tz1S8e9GgdZG78XJRB3NqabfWeM37GnhZMWQ",
        "reception_time": "2022-01-15T11:03:45.591-00:00",
        "errors":
          [ { "kind": "temporary",
              "id": "proto.011-PtHangz2.prefilter.outdated_endorsement" } ],
        "included_in_blocks":
          [ "BL7tu3eCG6f6JNUaKFfmSbAEwQtS8ff2vPJujrhaYWEaWJtUvEC" ] },
      { "delegate": "tz1cSj7fTex3JPd1p1LN1fwek6AV1kH93Wwc",
        "reception_time": "2022-01-15T11:03:58.051-00:00",
        "included_in_blocks":
          [ "BL7tu3eCG6f6JNUaKFfmSbAEwQtS8ff2vPJujrhaYWEaWJtUvEC" ] },
      { "delegate": "tz1go7f6mEQfT2xX2LuHAqgnRGN6c2zHPf5c",
        "reception_time": "2022-01-15T11:03:57.120-00:00",
        "included_in_blocks":
          [ "BL7tu3eCG6f6JNUaKFfmSbAEwQtS8ff2vPJujrhaYWEaWJtUvEC" ] },
      { "delegate": "tz1gg5bjopPcr9agjamyu9BbXKLibNc2rbAq",
        "reception_time": "2022-01-15T11:03:56.395-00:00",
        "included_in_blocks":
          [ "BL7tu3eCG6f6JNUaKFfmSbAEwQtS8ff2vPJujrhaYWEaWJtUvEC" ] },
      { "delegate": "tz3e7LbZvUtoXhpUD1yb6wuFodZpfYRb9nWJ",
        "reception_time": "2022-01-15T11:03:56.376-00:00",
        "included_in_blocks":
          [ "BL7tu3eCG6f6JNUaKFfmSbAEwQtS8ff2vPJujrhaYWEaWJtUvEC" ] },
      { "delegate": "tz1SYq214SCBy9naR6cvycQsYcUGpBqQAE8d",
        "reception_time": "2022-01-15T11:03:55.205-00:00",
        "included_in_blocks":
          [ "BL7tu3eCG6f6JNUaKFfmSbAEwQtS8ff2vPJujrhaYWEaWJtUvEC" ] },
      { "delegate": "tz1awXW7wuXy21c66vBudMXQVAPgRnqqwgTH",
        "reception_time": "2022-01-15T11:03:54.406-00:00",
        "included_in_blocks":
          [ "BL7tu3eCG6f6JNUaKFfmSbAEwQtS8ff2vPJujrhaYWEaWJtUvEC" ] },
      { "delegate": "tz1W5VkdB5s7ENMESVBtwyt9kyvLqPcUczRT",
        "reception_time": "2022-01-15T11:03:54.276-00:00",
        "included_in_blocks":
          [ "BL7tu3eCG6f6JNUaKFfmSbAEwQtS8ff2vPJujrhaYWEaWJtUvEC" ] },
      { "delegate": "tz1TRqbYbUf2GyrjErf3hBzgBJPzW8y36qEs",
        "reception_time": "2022-01-15T11:03:53.839-00:00",
        "included_in_blocks":
          [ "BL7tu3eCG6f6JNUaKFfmSbAEwQtS8ff2vPJujrhaYWEaWJtUvEC" ] },
      { "delegate": "tz1g8vkmcde6sWKaG2NN9WKzCkDM6Rziq194",
        "reception_time": "2022-01-15T11:03:53.691-00:00",
        "included_in_blocks":
          [ "BL7tu3eCG6f6JNUaKFfmSbAEwQtS8ff2vPJujrhaYWEaWJtUvEC" ] },
      { "delegate": "tz1cYufsxHXJcvANhvS55h3aY32a9BAFB494",
        "reception_time": "2022-01-15T11:03:53.703-00:00",
        "included_in_blocks":
          [ "BL7tu3eCG6f6JNUaKFfmSbAEwQtS8ff2vPJujrhaYWEaWJtUvEC" ] },
      { "delegate": "tz1b9MYGrbN1NAxphLEsPPNT9JC7aNFc5nA4",
        "reception_time": "2022-01-15T11:03:51.874-00:00",
        "included_in_blocks":
          [ "BL7tu3eCG6f6JNUaKFfmSbAEwQtS8ff2vPJujrhaYWEaWJtUvEC" ] },
      { "delegate": "tz2FCNBrERXtaTtNX6iimR1UJ5JSDxvdHM93",
        "reception_time": "2022-01-15T11:03:51.733-00:00",
        "included_in_blocks":
          [ "BL7tu3eCG6f6JNUaKFfmSbAEwQtS8ff2vPJujrhaYWEaWJtUvEC" ] },
      { "delegate": "tz1WeKH4iJ4PVxKeVYwCoRUZNW9f9vFq1QXq",
        "reception_time": "2022-01-15T11:03:51.093-00:00",
        "included_in_blocks":
          [ "BL7tu3eCG6f6JNUaKFfmSbAEwQtS8ff2vPJujrhaYWEaWJtUvEC" ] },
      { "delegate": "tz1ZcTRk5uxD86EFEn1vvNffWWqJy7q5eVhc",
        "reception_time": "2022-01-15T11:03:50.997-00:00",
        "included_in_blocks":
          [ "BL7tu3eCG6f6JNUaKFfmSbAEwQtS8ff2vPJujrhaYWEaWJtUvEC" ] },
      { "delegate": "tz1RCFbB9GpALpsZtu6J58sb74dm8qe6XBzv",
        "reception_time": "2022-01-15T11:03:50.536-00:00",
        "included_in_blocks":
          [ "BL7tu3eCG6f6JNUaKFfmSbAEwQtS8ff2vPJujrhaYWEaWJtUvEC" ] },
      { "delegate": "tz1PeZx7FXy7QRuMREGXGxeipb24RsMMzUNe",
        "reception_time": "2022-01-15T11:03:50.335-00:00",
        "included_in_blocks":
          [ "BL7tu3eCG6f6JNUaKFfmSbAEwQtS8ff2vPJujrhaYWEaWJtUvEC" ] },
      { "delegate": "tz1T7duV5gZWSTq4YpBGbXNLTfznCLDrFxvs",
        "reception_time": "2022-01-15T11:03:50.102-00:00",
        "included_in_blocks":
          [ "BL7tu3eCG6f6JNUaKFfmSbAEwQtS8ff2vPJujrhaYWEaWJtUvEC" ] },
      { "delegate": "tz3VEZ4k6a4Wx42iyev6i2aVAptTRLEAivNN",
        "reception_time": "2022-01-15T11:03:50.049-00:00",
        "included_in_blocks":
          [ "BL7tu3eCG6f6JNUaKFfmSbAEwQtS8ff2vPJujrhaYWEaWJtUvEC" ] },
      { "delegate": "tz3WMqdzXqRWXwyvj5Hp2H7QEepaUuS7vd9K",
        "reception_time": "2022-01-15T11:03:50.020-00:00",
        "included_in_blocks":
          [ "BL7tu3eCG6f6JNUaKFfmSbAEwQtS8ff2vPJujrhaYWEaWJtUvEC" ] },
      { "delegate": "tz1UvkANVPWppVgMkLnvN7BwYZsCP7vm6NVd",
        "reception_time": "2022-01-15T11:03:49.760-00:00",
        "included_in_blocks":
          [ "BL7tu3eCG6f6JNUaKFfmSbAEwQtS8ff2vPJujrhaYWEaWJtUvEC" ] },
      { "delegate": "tz3NExpXn9aPNZPorRE4SdjJ2RGrfbJgMAaV",
        "reception_time": "2022-01-15T11:03:49.811-00:00",
        "included_in_blocks":
          [ "BL7tu3eCG6f6JNUaKFfmSbAEwQtS8ff2vPJujrhaYWEaWJtUvEC" ] },
      { "delegate": "tz1aRoaRhSpRYvFdyvgWLL6TGyRoGF51wDjM",
        "reception_time": "2022-01-15T11:03:49.569-00:00",
        "included_in_blocks":
          [ "BL7tu3eCG6f6JNUaKFfmSbAEwQtS8ff2vPJujrhaYWEaWJtUvEC" ] },
      { "delegate": "tz1abmz7jiCV2GH2u81LRrGgAFFgvQgiDiaf",
        "reception_time": "2022-01-15T11:03:49.505-00:00",
        "included_in_blocks":
          [ "BL7tu3eCG6f6JNUaKFfmSbAEwQtS8ff2vPJujrhaYWEaWJtUvEC" ] },
      { "delegate": "tz1TEc75UKXv4W5cwi14Na3NtqFD51yKQi7h",
        "reception_time": "2022-01-15T11:03:49.438-00:00",
        "included_in_blocks":
          [ "BL7tu3eCG6f6JNUaKFfmSbAEwQtS8ff2vPJujrhaYWEaWJtUvEC" ] },
      { "delegate": "tz1NEKxGEHsFufk87CVZcrqWu8o22qh46GK6",
        "reception_time": "2022-01-15T11:03:49.458-00:00",
        "included_in_blocks":
          [ "BL7tu3eCG6f6JNUaKFfmSbAEwQtS8ff2vPJujrhaYWEaWJtUvEC" ] },
      { "delegate": "tz1dNVDWPf3Q59SdJqnjdnu277iyvReiRS9M",
        "reception_time": "2022-01-15T11:03:49.308-00:00",
        "included_in_blocks":
          [ "BL7tu3eCG6f6JNUaKFfmSbAEwQtS8ff2vPJujrhaYWEaWJtUvEC" ] },
      { "delegate": "tz1dRKU4FQ9QRRQPdaH4zCR6gmCmXfcvcgtB",
        "reception_time": "2022-01-15T11:03:49.253-00:00",
        "included_in_blocks":
          [ "BL7tu3eCG6f6JNUaKFfmSbAEwQtS8ff2vPJujrhaYWEaWJtUvEC" ] },
      { "delegate": "tz3RDC3Jdn4j15J7bBHZd29EUee9gVB1CxD9",
        "reception_time": "2022-01-15T11:03:49.195-00:00",
        "included_in_blocks":
          [ "BL7tu3eCG6f6JNUaKFfmSbAEwQtS8ff2vPJujrhaYWEaWJtUvEC" ] },
      { "delegate": "tz1Tnjaxk6tbAeC2TmMApPh8UsrEVQvhHvx5",
        "reception_time": "2022-01-15T11:03:49.151-00:00",
        "included_in_blocks":
          [ "BL7tu3eCG6f6JNUaKFfmSbAEwQtS8ff2vPJujrhaYWEaWJtUvEC" ] },
      { "delegate": "tz1Zcxkfa5jKrRbBThG765GP29bUCU3C4ok5",
        "reception_time": "2022-01-15T11:03:48.986-00:00",
        "included_in_blocks":
          [ "BL7tu3eCG6f6JNUaKFfmSbAEwQtS8ff2vPJujrhaYWEaWJtUvEC" ] },
      { "delegate": "tz3bvNMQ95vfAYtG8193ymshqjSvmxiCUuR5",
        "reception_time": "2022-01-15T11:03:49.031-00:00",
        "included_in_blocks":
          [ "BL7tu3eCG6f6JNUaKFfmSbAEwQtS8ff2vPJujrhaYWEaWJtUvEC" ] },
      { "delegate": "tz1S8MNvuFEUsWgjHvi3AxibRBf388NhT1q2",
        "reception_time": "2022-01-15T11:03:48.831-00:00",
        "included_in_blocks":
          [ "BL7tu3eCG6f6JNUaKFfmSbAEwQtS8ff2vPJujrhaYWEaWJtUvEC" ] },
      { "delegate": "tz3RB4aoyjov4KEVRbuhvQ1CKJgBJMWhaeB8",
        "reception_time": "2022-01-15T11:03:48.862-00:00",
        "included_in_blocks":
          [ "BL7tu3eCG6f6JNUaKFfmSbAEwQtS8ff2vPJujrhaYWEaWJtUvEC" ] },
      { "delegate": "tz3UoffC7FG7zfpmvmjUmUeAaHvzdcUvAj6r",
        "reception_time": "2022-01-15T11:03:48.854-00:00",
        "included_in_blocks":
          [ "BL7tu3eCG6f6JNUaKFfmSbAEwQtS8ff2vPJujrhaYWEaWJtUvEC" ] },
      { "delegate": "tz3NDpRj6WBrJPikcPVHRBEjWKxFw3c6eQPS",
        "reception_time": "2022-01-15T11:03:48.854-00:00",
        "included_in_blocks":
          [ "BL7tu3eCG6f6JNUaKFfmSbAEwQtS8ff2vPJujrhaYWEaWJtUvEC" ] },
      { "delegate": "tz1Nf6tsK4G6bBqgSQERy4nUtkHNKUVdh7q1",
        "reception_time": "2022-01-15T11:03:48.839-00:00",
        "included_in_blocks":
          [ "BL7tu3eCG6f6JNUaKFfmSbAEwQtS8ff2vPJujrhaYWEaWJtUvEC" ] },
      { "delegate": "tz1UMCB2AHSTwG7YcGNr31CqYCtGN873royv",
        "reception_time": "2022-01-15T11:03:48.834-00:00",
        "included_in_blocks":
          [ "BL7tu3eCG6f6JNUaKFfmSbAEwQtS8ff2vPJujrhaYWEaWJtUvEC" ] },
      { "delegate": "tz1WBfwbT66FC6BTLexc2BoyCCBM9LG7pnVW",
        "reception_time": "2022-01-15T11:03:48.815-00:00",
        "included_in_blocks":
          [ "BL7tu3eCG6f6JNUaKFfmSbAEwQtS8ff2vPJujrhaYWEaWJtUvEC" ] },
      { "delegate": "tz1ei4WtWEMEJekSv8qDnu9PExG6Q8HgRGr3",
        "reception_time": "2022-01-15T11:03:48.797-00:00",
        "included_in_blocks":
          [ "BL7tu3eCG6f6JNUaKFfmSbAEwQtS8ff2vPJujrhaYWEaWJtUvEC" ] },
      { "delegate": "tz1gfArv665EUkSg2ojMBzcbfwuPxAvqPvjo",
        "reception_time": "2022-01-15T11:03:48.787-00:00",
        "included_in_blocks":
          [ "BL7tu3eCG6f6JNUaKFfmSbAEwQtS8ff2vPJujrhaYWEaWJtUvEC" ] },
      { "delegate": "tz1aDiEJf9ztRrAJEXZfcG3CKimoKsGhwVAi",
        "reception_time": "2022-01-15T11:03:48.812-00:00",
        "included_in_blocks":
          [ "BL7tu3eCG6f6JNUaKFfmSbAEwQtS8ff2vPJujrhaYWEaWJtUvEC" ] },
      { "delegate": "tz1dwu9aYb7CRNq4Y2zAjipdjFuSVKhHS8vA",
        "reception_time": "2022-01-15T11:03:48.808-00:00",
        "included_in_blocks":
          [ "BL7tu3eCG6f6JNUaKFfmSbAEwQtS8ff2vPJujrhaYWEaWJtUvEC" ] },
      { "delegate": "tz1MJx9vhaNRSimcuXPK2rW4fLccQnDAnVKJ",
        "reception_time": "2022-01-15T11:03:48.787-00:00",
        "included_in_blocks":
          [ "BL7tu3eCG6f6JNUaKFfmSbAEwQtS8ff2vPJujrhaYWEaWJtUvEC" ] } ] }