{ "blocks":
    [ { "hash": "BL3EqYtnccSJRAFmxP77zjn2nf8Gzcfkv9NM3DC1pdrdEpDRvJG",
        "delegate": "tz1irJKkXS2DBWkU1NnmFQx1c1L7pbGg4yhk",
        "reception_time": "2022-01-15T11:51:15.117-00:00",
        "timestamp": "2022-01-15T11:51:10Z" } ],
  "endorsements":
    [ { "delegate": "tz1TRspM5SeZpaQUhzByXbEvqKF1vnCM2YTK" },
      { "delegate": "tz1NMdMmWZN8QPB8pY4ddncACDg1cHi1xD2e" },
      { "delegate": "tz1Lhf4J9Qxoe3DZ2nfe8FGDnvVj7oKjnMY6",
        "reception_time": "2022-01-15T11:51:15.066-00:00",
        "errors":
          [ { "kind": "temporary",
              "id": "proto.011-PtHangz2.prefilter.outdated_endorsement" } ],
        "included_in_blocks":
          [ "BLmQ8sDEwMLae8Ag8NbXnpU7Ca13z33qn7ZBL6j8B1NQ8F8eCCq" ] },
      { "delegate": "tz1S8e9GgdZG78XJRB3NqabfWeM37GnhZMWQ",
        "reception_time": "2022-01-15T11:51:14.762-00:00",
        "errors":
          [ { "kind": "temporary",
              "id": "proto.011-PtHangz2.prefilter.outdated_endorsement" } ],
        "included_in_blocks":
          [ "BLmQ8sDEwMLae8Ag8NbXnpU7Ca13z33qn7ZBL6j8B1NQ8F8eCCq" ] },
      { "delegate": "tz1g8vkmcde6sWKaG2NN9WKzCkDM6Rziq194",
        "reception_time": "2022-01-15T11:51:24.902-00:00",
        "included_in_blocks":
          [ "BLmQ8sDEwMLae8Ag8NbXnpU7Ca13z33qn7ZBL6j8B1NQ8F8eCCq" ] },
      { "delegate": "tz1NpWrAyDL9k2Lmnyxcgr9xuJakbBxdq7FB",
        "reception_time": "2022-01-15T11:51:24.119-00:00",
        "included_in_blocks":
          [ "BLmQ8sDEwMLae8Ag8NbXnpU7Ca13z33qn7ZBL6j8B1NQ8F8eCCq" ] },
      { "delegate": "tz1UXkfg971HYuvsZG5x66fnMjrGxHKeZWPU",
        "reception_time": "2022-01-15T11:51:23.796-00:00",
        "included_in_blocks":
          [ "BLmQ8sDEwMLae8Ag8NbXnpU7Ca13z33qn7ZBL6j8B1NQ8F8eCCq" ] },
      { "delegate": "tz1W5VkdB5s7ENMESVBtwyt9kyvLqPcUczRT",
        "reception_time": "2022-01-15T11:51:20.251-00:00",
        "included_in_blocks":
          [ "BLmQ8sDEwMLae8Ag8NbXnpU7Ca13z33qn7ZBL6j8B1NQ8F8eCCq" ] },
      { "delegate": "tz1Y7939nK18ogD32jAkun8sCCH8Ab2tQfvv",
        "reception_time": "2022-01-15T11:51:19.482-00:00",
        "included_in_blocks":
          [ "BLmQ8sDEwMLae8Ag8NbXnpU7Ca13z33qn7ZBL6j8B1NQ8F8eCCq" ] },
      { "delegate": "tz1TcH4Nb3aHNDJ7CGZhU7jgAK1BkSP4Lxds",
        "reception_time": "2022-01-15T11:51:19.292-00:00",
        "included_in_blocks":
          [ "BLmQ8sDEwMLae8Ag8NbXnpU7Ca13z33qn7ZBL6j8B1NQ8F8eCCq" ] },
      { "delegate": "tz3RDC3Jdn4j15J7bBHZd29EUee9gVB1CxD9",
        "reception_time": "2022-01-15T11:51:18.703-00:00",
        "included_in_blocks":
          [ "BLmQ8sDEwMLae8Ag8NbXnpU7Ca13z33qn7ZBL6j8B1NQ8F8eCCq" ] },
      { "delegate": "tz1cYufsxHXJcvANhvS55h3aY32a9BAFB494",
        "reception_time": "2022-01-15T11:51:18.577-00:00",
        "included_in_blocks":
          [ "BLmQ8sDEwMLae8Ag8NbXnpU7Ca13z33qn7ZBL6j8B1NQ8F8eCCq" ] },
      { "delegate": "tz1SYq214SCBy9naR6cvycQsYcUGpBqQAE8d",
        "reception_time": "2022-01-15T11:51:18.713-00:00",
        "included_in_blocks":
          [ "BLmQ8sDEwMLae8Ag8NbXnpU7Ca13z33qn7ZBL6j8B1NQ8F8eCCq" ] },
      { "delegate": "tz3NExpXn9aPNZPorRE4SdjJ2RGrfbJgMAaV",
        "reception_time": "2022-01-15T11:51:18.733-00:00",
        "included_in_blocks":
          [ "BLmQ8sDEwMLae8Ag8NbXnpU7Ca13z33qn7ZBL6j8B1NQ8F8eCCq" ] },
      { "delegate": "tz3UoffC7FG7zfpmvmjUmUeAaHvzdcUvAj6r",
        "reception_time": "2022-01-15T11:51:18.654-00:00",
        "included_in_blocks":
          [ "BLmQ8sDEwMLae8Ag8NbXnpU7Ca13z33qn7ZBL6j8B1NQ8F8eCCq" ] },
      { "delegate": "tz1dRKU4FQ9QRRQPdaH4zCR6gmCmXfcvcgtB",
        "reception_time": "2022-01-15T11:51:18.383-00:00",
        "included_in_blocks":
          [ "BLmQ8sDEwMLae8Ag8NbXnpU7Ca13z33qn7ZBL6j8B1NQ8F8eCCq" ] },
      { "delegate": "tz1aRoaRhSpRYvFdyvgWLL6TGyRoGF51wDjM",
        "reception_time": "2022-01-15T11:51:17.955-00:00",
        "included_in_blocks":
          [ "BLmQ8sDEwMLae8Ag8NbXnpU7Ca13z33qn7ZBL6j8B1NQ8F8eCCq" ] },
      { "delegate": "tz1Nf6tsK4G6bBqgSQERy4nUtkHNKUVdh7q1",
        "reception_time": "2022-01-15T11:51:17.948-00:00",
        "included_in_blocks":
          [ "BLmQ8sDEwMLae8Ag8NbXnpU7Ca13z33qn7ZBL6j8B1NQ8F8eCCq" ] },
      { "delegate": "tz1awXW7wuXy21c66vBudMXQVAPgRnqqwgTH",
        "reception_time": "2022-01-15T11:51:18.195-00:00",
        "included_in_blocks":
          [ "BLmQ8sDEwMLae8Ag8NbXnpU7Ca13z33qn7ZBL6j8B1NQ8F8eCCq" ] },
      { "delegate": "tz1Vd1rXpV8hTHbFXCXN3c3qzCsgcU5BZw1e",
        "reception_time": "2022-01-15T11:51:17.857-00:00",
        "included_in_blocks":
          [ "BLmQ8sDEwMLae8Ag8NbXnpU7Ca13z33qn7ZBL6j8B1NQ8F8eCCq" ] },
      { "delegate": "tz1NEKxGEHsFufk87CVZcrqWu8o22qh46GK6",
        "reception_time": "2022-01-15T11:51:17.982-00:00",
        "included_in_blocks":
          [ "BLmQ8sDEwMLae8Ag8NbXnpU7Ca13z33qn7ZBL6j8B1NQ8F8eCCq" ] },
      { "delegate": "tz1WwDDoqA6h1wAnAoT5jiCYJz5CB43f3D78",
        "reception_time": "2022-01-15T11:51:17.943-00:00",
        "included_in_blocks":
          [ "BLmQ8sDEwMLae8Ag8NbXnpU7Ca13z33qn7ZBL6j8B1NQ8F8eCCq" ] },
      { "delegate": "tz3VEZ4k6a4Wx42iyev6i2aVAptTRLEAivNN",
        "reception_time": "2022-01-15T11:51:17.773-00:00",
        "included_in_blocks":
          [ "BLmQ8sDEwMLae8Ag8NbXnpU7Ca13z33qn7ZBL6j8B1NQ8F8eCCq" ] },
      { "delegate": "tz1dNVDWPf3Q59SdJqnjdnu277iyvReiRS9M",
        "reception_time": "2022-01-15T11:51:18.159-00:00",
        "included_in_blocks":
          [ "BLmQ8sDEwMLae8Ag8NbXnpU7Ca13z33qn7ZBL6j8B1NQ8F8eCCq" ] },
      { "delegate": "tz1KfEsrtDaA1sX7vdM4qmEPWuSytuqCDp5j",
        "reception_time": "2022-01-15T11:51:18.164-00:00",
        "included_in_blocks":
          [ "BLmQ8sDEwMLae8Ag8NbXnpU7Ca13z33qn7ZBL6j8B1NQ8F8eCCq" ] },
      { "delegate": "tz3WMqdzXqRWXwyvj5Hp2H7QEepaUuS7vd9K",
        "reception_time": "2022-01-15T11:51:17.897-00:00",
        "included_in_blocks":
          [ "BLmQ8sDEwMLae8Ag8NbXnpU7Ca13z33qn7ZBL6j8B1NQ8F8eCCq" ] },
      { "delegate": "tz1eVaNx3gCmG1EsLjijkmgAxdLYVf6Bf5Sq",
        "reception_time": "2022-01-15T11:51:17.932-00:00",
        "included_in_blocks":
          [ "BLmQ8sDEwMLae8Ag8NbXnpU7Ca13z33qn7ZBL6j8B1NQ8F8eCCq" ] },
      { "delegate": "tz3NDpRj6WBrJPikcPVHRBEjWKxFw3c6eQPS",
        "reception_time": "2022-01-15T11:51:17.481-00:00",
        "included_in_blocks":
          [ "BLmQ8sDEwMLae8Ag8NbXnpU7Ca13z33qn7ZBL6j8B1NQ8F8eCCq" ] },
      { "delegate": "tz3gLTu4Yxj8tPAcriQVUdxv6BY9QyvzU1az",
        "reception_time": "2022-01-15T11:51:17.427-00:00",
        "included_in_blocks":
          [ "BLmQ8sDEwMLae8Ag8NbXnpU7Ca13z33qn7ZBL6j8B1NQ8F8eCCq" ] },
      { "delegate": "tz1RjoHc98dBoqaH2jawF62XNKh7YsHwbkEv",
        "reception_time": "2022-01-15T11:51:17.762-00:00",
        "included_in_blocks":
          [ "BLmQ8sDEwMLae8Ag8NbXnpU7Ca13z33qn7ZBL6j8B1NQ8F8eCCq" ] },
      { "delegate": "tz2FCNBrERXtaTtNX6iimR1UJ5JSDxvdHM93",
        "reception_time": "2022-01-15T11:51:17.267-00:00",
        "included_in_blocks":
          [ "BLmQ8sDEwMLae8Ag8NbXnpU7Ca13z33qn7ZBL6j8B1NQ8F8eCCq" ] },
      { "delegate": "tz1WBfwbT66FC6BTLexc2BoyCCBM9LG7pnVW",
        "reception_time": "2022-01-15T11:51:17.262-00:00",
        "included_in_blocks":
          [ "BLmQ8sDEwMLae8Ag8NbXnpU7Ca13z33qn7ZBL6j8B1NQ8F8eCCq" ] },
      { "delegate": "tz3adcvQaKXTCg12zbninqo3q8ptKKtDFTLv",
        "reception_time": "2022-01-15T11:51:17.378-00:00",
        "included_in_blocks":
          [ "BLmQ8sDEwMLae8Ag8NbXnpU7Ca13z33qn7ZBL6j8B1NQ8F8eCCq" ] },
      { "delegate": "tz1dwu9aYb7CRNq4Y2zAjipdjFuSVKhHS8vA",
        "reception_time": "2022-01-15T11:51:16.841-00:00",
        "included_in_blocks":
          [ "BLmQ8sDEwMLae8Ag8NbXnpU7Ca13z33qn7ZBL6j8B1NQ8F8eCCq" ] },
      { "delegate": "tz3RB4aoyjov4KEVRbuhvQ1CKJgBJMWhaeB8",
        "reception_time": "2022-01-15T11:51:16.733-00:00",
        "included_in_blocks":
          [ "BLmQ8sDEwMLae8Ag8NbXnpU7Ca13z33qn7ZBL6j8B1NQ8F8eCCq" ] },
      { "delegate": "tz1UtayNgAX8QEJ3NoLptPzoPr9JiH3Cskzz",
        "reception_time": "2022-01-15T11:51:16.960-00:00",
        "included_in_blocks":
          [ "BLmQ8sDEwMLae8Ag8NbXnpU7Ca13z33qn7ZBL6j8B1NQ8F8eCCq" ] },
      { "delegate": "tz1ei4WtWEMEJekSv8qDnu9PExG6Q8HgRGr3",
        "reception_time": "2022-01-15T11:51:16.943-00:00",
        "included_in_blocks":
          [ "BLmQ8sDEwMLae8Ag8NbXnpU7Ca13z33qn7ZBL6j8B1NQ8F8eCCq" ] },
      { "delegate": "tz1WCd2jm4uSt4vntk4vSuUWoZQGhLcDuR9q",
        "reception_time": "2022-01-15T11:51:16.534-00:00",
        "included_in_blocks":
          [ "BLmQ8sDEwMLae8Ag8NbXnpU7Ca13z33qn7ZBL6j8B1NQ8F8eCCq" ] },
      { "delegate": "tz1RCFbB9GpALpsZtu6J58sb74dm8qe6XBzv",
        "reception_time": "2022-01-15T11:51:17.100-00:00",
        "included_in_blocks":
          [ "BLmQ8sDEwMLae8Ag8NbXnpU7Ca13z33qn7ZBL6j8B1NQ8F8eCCq" ] },
      { "delegate": "tz3bvNMQ95vfAYtG8193ymshqjSvmxiCUuR5",
        "reception_time": "2022-01-15T11:51:16.532-00:00",
        "included_in_blocks":
          [ "BLmQ8sDEwMLae8Ag8NbXnpU7Ca13z33qn7ZBL6j8B1NQ8F8eCCq" ] },
      { "delegate": "tz3bTdwZinP8U1JmSweNzVKhmwafqWmFWRfk",
        "reception_time": "2022-01-15T11:51:16.549-00:00",
        "included_in_blocks":
          [ "BLmQ8sDEwMLae8Ag8NbXnpU7Ca13z33qn7ZBL6j8B1NQ8F8eCCq" ] },
      { "delegate": "tz1gfArv665EUkSg2ojMBzcbfwuPxAvqPvjo",
        "reception_time": "2022-01-15T11:51:16.652-00:00",
        "included_in_blocks":
          [ "BLmQ8sDEwMLae8Ag8NbXnpU7Ca13z33qn7ZBL6j8B1NQ8F8eCCq" ] },
      { "delegate": "tz1gUNyn3hmnEWqkusWPzxRaon1cs7ndWh7h",
        "reception_time": "2022-01-15T11:51:16.383-00:00",
        "included_in_blocks":
          [ "BLmQ8sDEwMLae8Ag8NbXnpU7Ca13z33qn7ZBL6j8B1NQ8F8eCCq" ] },
      { "delegate": "tz1VQnqCCqX4K5sP3FNkVSNKTdCAMJDd3E1n",
        "reception_time": "2022-01-15T11:51:16.425-00:00",
        "included_in_blocks":
          [ "BLmQ8sDEwMLae8Ag8NbXnpU7Ca13z33qn7ZBL6j8B1NQ8F8eCCq" ] },
      { "delegate": "tz1Tnjaxk6tbAeC2TmMApPh8UsrEVQvhHvx5",
        "reception_time": "2022-01-15T11:51:16.772-00:00",
        "included_in_blocks":
          [ "BLmQ8sDEwMLae8Ag8NbXnpU7Ca13z33qn7ZBL6j8B1NQ8F8eCCq" ] },
      { "delegate": "tz1abmz7jiCV2GH2u81LRrGgAFFgvQgiDiaf",
        "reception_time": "2022-01-15T11:51:16.831-00:00",
        "included_in_blocks":
          [ "BLmQ8sDEwMLae8Ag8NbXnpU7Ca13z33qn7ZBL6j8B1NQ8F8eCCq" ] },
      { "delegate": "tz1S8MNvuFEUsWgjHvi3AxibRBf388NhT1q2",
        "reception_time": "2022-01-15T11:51:16.648-00:00",
        "included_in_blocks":
          [ "BLmQ8sDEwMLae8Ag8NbXnpU7Ca13z33qn7ZBL6j8B1NQ8F8eCCq" ] },
      { "delegate": "tz3hw2kqXhLUvY65ca1eety2oQTpAvd34R9Q",
        "reception_time": "2022-01-15T11:51:16.242-00:00",
        "included_in_blocks":
          [ "BLmQ8sDEwMLae8Ag8NbXnpU7Ca13z33qn7ZBL6j8B1NQ8F8eCCq" ] },
      { "delegate": "tz3RKYFsLuQzKBtmYuLNas7uMu3AsYd4QdsA",
        "reception_time": "2022-01-15T11:51:16.290-00:00",
        "included_in_blocks":
          [ "BLmQ8sDEwMLae8Ag8NbXnpU7Ca13z33qn7ZBL6j8B1NQ8F8eCCq" ] },
      { "delegate": "tz3QT9dHYKDqh563chVa6za8526ys1UKfRfL",
        "reception_time": "2022-01-15T11:51:16.274-00:00",
        "included_in_blocks":
          [ "BLmQ8sDEwMLae8Ag8NbXnpU7Ca13z33qn7ZBL6j8B1NQ8F8eCCq" ] },
      { "delegate": "tz3S6BBeKgJGXxvLyZ1xzXzMPn11nnFtq5L9",
        "reception_time": "2022-01-15T11:51:16.299-00:00",
        "included_in_blocks":
          [ "BLmQ8sDEwMLae8Ag8NbXnpU7Ca13z33qn7ZBL6j8B1NQ8F8eCCq" ] },
      { "delegate": "tz1Ldzz6k1BHdhuKvAtMRX7h5kJSMHESMHLC",
        "reception_time": "2022-01-15T11:51:16.317-00:00",
        "included_in_blocks":
          [ "BLmQ8sDEwMLae8Ag8NbXnpU7Ca13z33qn7ZBL6j8B1NQ8F8eCCq" ] },
      { "delegate": "tz1Kt4P8BCaP93AEV4eA7gmpRryWt5hznjCP",
        "reception_time": "2022-01-15T11:51:16.351-00:00",
        "included_in_blocks":
          [ "BLmQ8sDEwMLae8Ag8NbXnpU7Ca13z33qn7ZBL6j8B1NQ8F8eCCq" ] },
      { "delegate": "tz3gtoUxdudfBRcNY7iVdKPHCYYX6xdPpoRS",
        "reception_time": "2022-01-15T11:51:16.307-00:00",
        "included_in_blocks":
          [ "BLmQ8sDEwMLae8Ag8NbXnpU7Ca13z33qn7ZBL6j8B1NQ8F8eCCq" ] },
      { "delegate": "tz1Kf25fX1VdmYGSEzwFy1wNmkbSEZ2V83sY",
        "reception_time": "2022-01-15T11:51:16.247-00:00",
        "included_in_blocks":
          [ "BLmQ8sDEwMLae8Ag8NbXnpU7Ca13z33qn7ZBL6j8B1NQ8F8eCCq" ] },
      { "delegate": "tz1aKxnrzx5PXZJe7unufEswVRCMU9yafmfb",
        "reception_time": "2022-01-15T11:51:16.242-00:00",
        "included_in_blocks":
          [ "BLmQ8sDEwMLae8Ag8NbXnpU7Ca13z33qn7ZBL6j8B1NQ8F8eCCq" ] },
      { "delegate": "tz3Zhs2dygr55yHyQyKjntAtY9bgfhLZ4Xj1",
        "reception_time": "2022-01-15T11:51:16.267-00:00",
        "included_in_blocks":
          [ "BLmQ8sDEwMLae8Ag8NbXnpU7Ca13z33qn7ZBL6j8B1NQ8F8eCCq" ] },
      { "delegate": "tz1TXzyaKUA8wsWefdSnyaYFnV2M3vCV7er9",
        "reception_time": "2022-01-15T11:51:15.632-00:00",
        "included_in_blocks":
          [ "BLmQ8sDEwMLae8Ag8NbXnpU7Ca13z33qn7ZBL6j8B1NQ8F8eCCq" ] },
      { "delegate": "tz1P2Po7YM526ughEsRbY4oR9zaUPDZjxFrb",
        "reception_time": "2022-01-15T11:51:16.247-00:00",
        "included_in_blocks":
          [ "BLmQ8sDEwMLae8Ag8NbXnpU7Ca13z33qn7ZBL6j8B1NQ8F8eCCq" ] },
      { "delegate": "tz1MJx9vhaNRSimcuXPK2rW4fLccQnDAnVKJ",
        "reception_time": "2022-01-15T11:51:16.254-00:00",
        "included_in_blocks":
          [ "BLmQ8sDEwMLae8Ag8NbXnpU7Ca13z33qn7ZBL6j8B1NQ8F8eCCq" ] },
      { "delegate": "tz3iJu5vrKZcsqRPs8yJ61UDoeEXZmtro4qh",
        "reception_time": "2022-01-15T11:51:16.260-00:00",
        "included_in_blocks":
          [ "BLmQ8sDEwMLae8Ag8NbXnpU7Ca13z33qn7ZBL6j8B1NQ8F8eCCq" ] },
      { "delegate": "tz1irJKkXS2DBWkU1NnmFQx1c1L7pbGg4yhk",
        "reception_time": "2022-01-15T11:51:16.226-00:00",
        "included_in_blocks":
          [ "BLmQ8sDEwMLae8Ag8NbXnpU7Ca13z33qn7ZBL6j8B1NQ8F8eCCq" ] },
      { "delegate": "tz3ZbP2pM3nwvXztbuMJwJnDvV5xdpU8UkkD",
        "reception_time": "2022-01-15T11:51:16.233-00:00",
        "included_in_blocks":
          [ "BLmQ8sDEwMLae8Ag8NbXnpU7Ca13z33qn7ZBL6j8B1NQ8F8eCCq" ] },
      { "delegate": "tz3NxTnke1acr8o3h5y9ytf5awQBGNJUKzVU",
        "reception_time": "2022-01-15T11:51:16.282-00:00",
        "included_in_blocks":
          [ "BLmQ8sDEwMLae8Ag8NbXnpU7Ca13z33qn7ZBL6j8B1NQ8F8eCCq" ] },
      { "delegate": "tz1hMUEDYTUFrsayTT2hTE13A6uJMXMbPQgx",
        "reception_time": "2022-01-15T11:51:16.250-00:00",
        "included_in_blocks":
          [ "BLmQ8sDEwMLae8Ag8NbXnpU7Ca13z33qn7ZBL6j8B1NQ8F8eCCq" ] },
      { "delegate": "tz1VmiY38m3y95HqQLjMwqnMS7sdMfGomzKi",
        "reception_time": "2022-01-15T11:51:16.390-00:00",
        "included_in_blocks":
          [ "BLmQ8sDEwMLae8Ag8NbXnpU7Ca13z33qn7ZBL6j8B1NQ8F8eCCq" ] },
      { "delegate": "tz1eEnQhbwf6trb8Q8mPb2RaPkNk2rN7BKi8",
        "reception_time": "2022-01-15T11:51:15.795-00:00",
        "included_in_blocks":
          [ "BLmQ8sDEwMLae8Ag8NbXnpU7Ca13z33qn7ZBL6j8B1NQ8F8eCCq" ] } ] }