{ "blocks":
    [ { "hash": "BM4bFM8W1nDecHXwkuz5Q96yMasD4TgV8tYoD1btAhDzf2dX4JA",
        "delegate": "tz3RDC3Jdn4j15J7bBHZd29EUee9gVB1CxD9",
        "reception_time": "2022-01-15T10:21:19.538-00:00",
        "timestamp": "2022-01-15T10:21:10Z" } ],
  "endorsements":
    [ { "delegate": "tz1NpWrAyDL9k2Lmnyxcgr9xuJakbBxdq7FB",
        "reception_time": "2022-01-15T10:21:41.809-00:00" },
      { "delegate": "tz3e7LbZvUtoXhpUD1yb6wuFodZpfYRb9nWJ",
        "reception_time": "2022-01-15T10:21:28.651-00:00",
        "included_in_blocks":
          [ "BMNBFDvSLocHuqkJCTzg74TPfwCzPrEAGsr7hDYeufcHzD8zfG9" ] },
      { "delegate": "tz1aPodrKJn2YbrvXgYqnM5o3QFoUt9n4nr5",
        "reception_time": "2022-01-15T10:21:26.679-00:00",
        "included_in_blocks":
          [ "BMNBFDvSLocHuqkJCTzg74TPfwCzPrEAGsr7hDYeufcHzD8zfG9" ] },
      { "delegate": "tz1h4GUAMweP7SNWzDgvMk3yRCAZyaP1MxZq",
        "reception_time": "2022-01-15T10:21:26.491-00:00",
        "included_in_blocks":
          [ "BMNBFDvSLocHuqkJCTzg74TPfwCzPrEAGsr7hDYeufcHzD8zfG9" ] },
      { "delegate": "tz1W5VkdB5s7ENMESVBtwyt9kyvLqPcUczRT",
        "reception_time": "2022-01-15T10:21:25.880-00:00",
        "included_in_blocks":
          [ "BMNBFDvSLocHuqkJCTzg74TPfwCzPrEAGsr7hDYeufcHzD8zfG9" ] },
      { "delegate": "tz1TRqbYbUf2GyrjErf3hBzgBJPzW8y36qEs",
        "reception_time": "2022-01-15T10:21:25.521-00:00",
        "included_in_blocks":
          [ "BMNBFDvSLocHuqkJCTzg74TPfwCzPrEAGsr7hDYeufcHzD8zfG9" ] },
      { "delegate": "tz1hAYfexyzPGG6RhZZMpDvAHifubsbb6kgn",
        "reception_time": "2022-01-15T10:21:24.078-00:00",
        "included_in_blocks":
          [ "BMNBFDvSLocHuqkJCTzg74TPfwCzPrEAGsr7hDYeufcHzD8zfG9" ] },
      { "delegate": "tz1RCFbB9GpALpsZtu6J58sb74dm8qe6XBzv",
        "reception_time": "2022-01-15T10:21:23.796-00:00",
        "included_in_blocks":
          [ "BMNBFDvSLocHuqkJCTzg74TPfwCzPrEAGsr7hDYeufcHzD8zfG9" ] },
      { "delegate": "tz1RjoHc98dBoqaH2jawF62XNKh7YsHwbkEv",
        "reception_time": "2022-01-15T10:21:23.705-00:00",
        "included_in_blocks":
          [ "BMNBFDvSLocHuqkJCTzg74TPfwCzPrEAGsr7hDYeufcHzD8zfG9" ] },
      { "delegate": "tz2FCNBrERXtaTtNX6iimR1UJ5JSDxvdHM93",
        "reception_time": "2022-01-15T10:21:22.807-00:00",
        "included_in_blocks":
          [ "BMNBFDvSLocHuqkJCTzg74TPfwCzPrEAGsr7hDYeufcHzD8zfG9" ] },
      { "delegate": "tz1SYq214SCBy9naR6cvycQsYcUGpBqQAE8d",
        "reception_time": "2022-01-15T10:21:22.557-00:00",
        "included_in_blocks":
          [ "BMNBFDvSLocHuqkJCTzg74TPfwCzPrEAGsr7hDYeufcHzD8zfG9" ] },
      { "delegate": "tz1Vd1rXpV8hTHbFXCXN3c3qzCsgcU5BZw1e",
        "reception_time": "2022-01-15T10:21:22.203-00:00",
        "included_in_blocks":
          [ "BMNBFDvSLocHuqkJCTzg74TPfwCzPrEAGsr7hDYeufcHzD8zfG9" ] },
      { "delegate": "tz1PFeoTuFen8jAMRHajBySNyCwLmY5RqF9M",
        "reception_time": "2022-01-15T10:21:21.747-00:00",
        "included_in_blocks":
          [ "BMNBFDvSLocHuqkJCTzg74TPfwCzPrEAGsr7hDYeufcHzD8zfG9" ] },
      { "delegate": "tz1T7duV5gZWSTq4YpBGbXNLTfznCLDrFxvs",
        "reception_time": "2022-01-15T10:21:21.685-00:00",
        "included_in_blocks":
          [ "BMNBFDvSLocHuqkJCTzg74TPfwCzPrEAGsr7hDYeufcHzD8zfG9" ] },
      { "delegate": "tz1hYj2SDMv9UfagrUiaAhnCrzoF9RqFK7eM",
        "reception_time": "2022-01-15T10:21:21.566-00:00",
        "included_in_blocks":
          [ "BMNBFDvSLocHuqkJCTzg74TPfwCzPrEAGsr7hDYeufcHzD8zfG9" ] },
      { "delegate": "tz1Z2jXfEXL7dXhs6bsLmyLFLfmAkXBzA9WE",
        "reception_time": "2022-01-15T10:21:21.382-00:00",
        "included_in_blocks":
          [ "BMNBFDvSLocHuqkJCTzg74TPfwCzPrEAGsr7hDYeufcHzD8zfG9" ] },
      { "delegate": "tz3UoffC7FG7zfpmvmjUmUeAaHvzdcUvAj6r",
        "reception_time": "2022-01-15T10:21:21.368-00:00",
        "included_in_blocks":
          [ "BMNBFDvSLocHuqkJCTzg74TPfwCzPrEAGsr7hDYeufcHzD8zfG9" ] },
      { "delegate": "tz1TcH4Nb3aHNDJ7CGZhU7jgAK1BkSP4Lxds",
        "reception_time": "2022-01-15T10:21:21.212-00:00",
        "included_in_blocks":
          [ "BMNBFDvSLocHuqkJCTzg74TPfwCzPrEAGsr7hDYeufcHzD8zfG9" ] },
      { "delegate": "tz1WyXEHRKbdkYCQ8hCsrAqnjcTRsRWnLcrX",
        "reception_time": "2022-01-15T10:21:21.180-00:00",
        "included_in_blocks":
          [ "BMNBFDvSLocHuqkJCTzg74TPfwCzPrEAGsr7hDYeufcHzD8zfG9" ] },
      { "delegate": "tz1dNVDWPf3Q59SdJqnjdnu277iyvReiRS9M",
        "reception_time": "2022-01-15T10:21:21.165-00:00",
        "included_in_blocks":
          [ "BMNBFDvSLocHuqkJCTzg74TPfwCzPrEAGsr7hDYeufcHzD8zfG9" ] },
      { "delegate": "tz1fwnfJNgiDACshK9avfRfFbMaXrs3ghoJa",
        "reception_time": "2022-01-15T10:21:21.151-00:00",
        "included_in_blocks":
          [ "BMNBFDvSLocHuqkJCTzg74TPfwCzPrEAGsr7hDYeufcHzD8zfG9" ] },
      { "delegate": "tz1Nf6tsK4G6bBqgSQERy4nUtkHNKUVdh7q1",
        "reception_time": "2022-01-15T10:21:21.119-00:00",
        "included_in_blocks":
          [ "BMNBFDvSLocHuqkJCTzg74TPfwCzPrEAGsr7hDYeufcHzD8zfG9" ] },
      { "delegate": "tz3NExpXn9aPNZPorRE4SdjJ2RGrfbJgMAaV",
        "reception_time": "2022-01-15T10:21:20.834-00:00",
        "included_in_blocks":
          [ "BMNBFDvSLocHuqkJCTzg74TPfwCzPrEAGsr7hDYeufcHzD8zfG9" ] },
      { "delegate": "tz1Tnjaxk6tbAeC2TmMApPh8UsrEVQvhHvx5",
        "reception_time": "2022-01-15T10:21:20.739-00:00",
        "included_in_blocks":
          [ "BMNBFDvSLocHuqkJCTzg74TPfwCzPrEAGsr7hDYeufcHzD8zfG9" ] },
      { "delegate": "tz1TEc75UKXv4W5cwi14Na3NtqFD51yKQi7h",
        "reception_time": "2022-01-15T10:21:20.715-00:00",
        "included_in_blocks":
          [ "BMNBFDvSLocHuqkJCTzg74TPfwCzPrEAGsr7hDYeufcHzD8zfG9" ] },
      { "delegate": "tz1dRKU4FQ9QRRQPdaH4zCR6gmCmXfcvcgtB",
        "reception_time": "2022-01-15T10:21:20.710-00:00",
        "included_in_blocks":
          [ "BMNBFDvSLocHuqkJCTzg74TPfwCzPrEAGsr7hDYeufcHzD8zfG9" ] },
      { "delegate": "tz1KfEsrtDaA1sX7vdM4qmEPWuSytuqCDp5j",
        "reception_time": "2022-01-15T10:21:20.706-00:00",
        "included_in_blocks":
          [ "BMNBFDvSLocHuqkJCTzg74TPfwCzPrEAGsr7hDYeufcHzD8zfG9" ] },
      { "delegate": "tz1aRoaRhSpRYvFdyvgWLL6TGyRoGF51wDjM",
        "reception_time": "2022-01-15T10:21:20.692-00:00",
        "included_in_blocks":
          [ "BMNBFDvSLocHuqkJCTzg74TPfwCzPrEAGsr7hDYeufcHzD8zfG9" ] },
      { "delegate": "tz3WMqdzXqRWXwyvj5Hp2H7QEepaUuS7vd9K",
        "reception_time": "2022-01-15T10:21:20.685-00:00",
        "included_in_blocks":
          [ "BMNBFDvSLocHuqkJCTzg74TPfwCzPrEAGsr7hDYeufcHzD8zfG9" ] },
      { "delegate": "tz1ajgycuHmd2z2JbTSJxKv7x6cok2KuNSk1",
        "reception_time": "2022-01-15T10:21:20.676-00:00",
        "included_in_blocks":
          [ "BMNBFDvSLocHuqkJCTzg74TPfwCzPrEAGsr7hDYeufcHzD8zfG9" ] },
      { "delegate": "tz1S8MNvuFEUsWgjHvi3AxibRBf388NhT1q2",
        "reception_time": "2022-01-15T10:21:20.675-00:00",
        "included_in_blocks":
          [ "BMNBFDvSLocHuqkJCTzg74TPfwCzPrEAGsr7hDYeufcHzD8zfG9" ] },
      { "delegate": "tz3bvNMQ95vfAYtG8193ymshqjSvmxiCUuR5",
        "reception_time": "2022-01-15T10:21:20.669-00:00",
        "included_in_blocks":
          [ "BMNBFDvSLocHuqkJCTzg74TPfwCzPrEAGsr7hDYeufcHzD8zfG9" ] },
      { "delegate": "tz1R4PuhxUxBBZhfLJDx2nNjbr7WorAPX1oC",
        "reception_time": "2022-01-15T10:21:20.661-00:00",
        "included_in_blocks":
          [ "BMNBFDvSLocHuqkJCTzg74TPfwCzPrEAGsr7hDYeufcHzD8zfG9" ] },
      { "delegate": "tz3NDpRj6WBrJPikcPVHRBEjWKxFw3c6eQPS",
        "reception_time": "2022-01-15T10:21:20.619-00:00",
        "included_in_blocks":
          [ "BMNBFDvSLocHuqkJCTzg74TPfwCzPrEAGsr7hDYeufcHzD8zfG9" ] },
      { "delegate": "tz3VEZ4k6a4Wx42iyev6i2aVAptTRLEAivNN",
        "reception_time": "2022-01-15T10:21:20.494-00:00",
        "included_in_blocks":
          [ "BMNBFDvSLocHuqkJCTzg74TPfwCzPrEAGsr7hDYeufcHzD8zfG9" ] },
      { "delegate": "tz1dbfppLAAxXZNtf2SDps7rch3qfUznKSoK" },
      { "delegate": "tz1irJKkXS2DBWkU1NnmFQx1c1L7pbGg4yhk",
        "reception_time": "2022-01-15T10:21:17.193-00:00",
        "errors":
          [ { "kind": "temporary",
              "id": "proto.011-PtHangz2.prefilter.outdated_endorsement" } ],
        "included_in_blocks":
          [ "BMNBFDvSLocHuqkJCTzg74TPfwCzPrEAGsr7hDYeufcHzD8zfG9" ] },
      { "delegate": "tz1S8e9GgdZG78XJRB3NqabfWeM37GnhZMWQ",
        "reception_time": "2022-01-15T10:21:17.211-00:00",
        "errors":
          [ { "kind": "temporary",
              "id": "proto.011-PtHangz2.prefilter.outdated_endorsement" } ],
        "included_in_blocks":
          [ "BMNBFDvSLocHuqkJCTzg74TPfwCzPrEAGsr7hDYeufcHzD8zfG9" ] },
      { "delegate": "tz1Lhf4J9Qxoe3DZ2nfe8FGDnvVj7oKjnMY6",
        "reception_time": "2022-01-15T10:21:17.397-00:00",
        "errors":
          [ { "kind": "temporary",
              "id": "proto.011-PtHangz2.prefilter.outdated_endorsement" } ],
        "included_in_blocks":
          [ "BMNBFDvSLocHuqkJCTzg74TPfwCzPrEAGsr7hDYeufcHzD8zfG9" ] },
      { "delegate": "tz1Zhv3RkfU2pHrmaiDyxp7kFZpZrUCu1CiF",
        "reception_time": "2022-01-15T10:21:17.481-00:00",
        "errors":
          [ { "kind": "temporary",
              "id": "proto.011-PtHangz2.prefilter.outdated_endorsement" } ],
        "included_in_blocks":
          [ "BMNBFDvSLocHuqkJCTzg74TPfwCzPrEAGsr7hDYeufcHzD8zfG9" ] },
      { "delegate": "tz3RDC3Jdn4j15J7bBHZd29EUee9gVB1CxD9",
        "reception_time": "2022-01-15T10:21:17.679-00:00",
        "errors":
          [ { "kind": "temporary",
              "id": "proto.011-PtHangz2.prefilter.outdated_endorsement" } ],
        "included_in_blocks":
          [ "BMNBFDvSLocHuqkJCTzg74TPfwCzPrEAGsr7hDYeufcHzD8zfG9" ] },
      { "delegate": "tz1P2Po7YM526ughEsRbY4oR9zaUPDZjxFrb",
        "reception_time": "2022-01-15T10:21:17.815-00:00",
        "errors":
          [ { "kind": "temporary",
              "id": "proto.011-PtHangz2.prefilter.outdated_endorsement" } ],
        "included_in_blocks":
          [ "BMNBFDvSLocHuqkJCTzg74TPfwCzPrEAGsr7hDYeufcHzD8zfG9" ] },
      { "delegate": "tz1beersuEDv8Z7ngQ825xfbaJNS2EhXnyHR",
        "reception_time": "2022-01-15T10:21:17.886-00:00",
        "errors":
          [ { "kind": "temporary",
              "id": "proto.011-PtHangz2.prefilter.outdated_endorsement" } ],
        "included_in_blocks":
          [ "BMNBFDvSLocHuqkJCTzg74TPfwCzPrEAGsr7hDYeufcHzD8zfG9" ] },
      { "delegate": "tz1eEnQhbwf6trb8Q8mPb2RaPkNk2rN7BKi8",
        "reception_time": "2022-01-15T10:21:17.907-00:00",
        "errors":
          [ { "kind": "temporary",
              "id": "proto.011-PtHangz2.prefilter.outdated_endorsement" } ],
        "included_in_blocks":
          [ "BMNBFDvSLocHuqkJCTzg74TPfwCzPrEAGsr7hDYeufcHzD8zfG9" ] },
      { "delegate": "tz1TXzyaKUA8wsWefdSnyaYFnV2M3vCV7er9",
        "reception_time": "2022-01-15T10:21:17.959-00:00",
        "errors":
          [ { "kind": "temporary",
              "id": "proto.011-PtHangz2.prefilter.outdated_endorsement" } ],
        "included_in_blocks":
          [ "BMNBFDvSLocHuqkJCTzg74TPfwCzPrEAGsr7hDYeufcHzD8zfG9" ] },
      { "delegate": "tz3ZbP2pM3nwvXztbuMJwJnDvV5xdpU8UkkD",
        "reception_time": "2022-01-15T10:21:18.101-00:00",
        "errors":
          [ { "kind": "temporary",
              "id": "proto.011-PtHangz2.prefilter.outdated_endorsement" } ],
        "included_in_blocks":
          [ "BMNBFDvSLocHuqkJCTzg74TPfwCzPrEAGsr7hDYeufcHzD8zfG9" ] },
      { "delegate": "tz3NxTnke1acr8o3h5y9ytf5awQBGNJUKzVU",
        "reception_time": "2022-01-15T10:21:18.169-00:00",
        "errors":
          [ { "kind": "temporary",
              "id": "proto.011-PtHangz2.prefilter.outdated_endorsement" } ],
        "included_in_blocks":
          [ "BMNBFDvSLocHuqkJCTzg74TPfwCzPrEAGsr7hDYeufcHzD8zfG9" ] },
      { "delegate": "tz1gUNyn3hmnEWqkusWPzxRaon1cs7ndWh7h",
        "reception_time": "2022-01-15T10:21:18.271-00:00",
        "errors":
          [ { "kind": "temporary",
              "id": "proto.011-PtHangz2.prefilter.outdated_endorsement" } ],
        "included_in_blocks":
          [ "BMNBFDvSLocHuqkJCTzg74TPfwCzPrEAGsr7hDYeufcHzD8zfG9" ] },
      { "delegate": "tz1Ldzz6k1BHdhuKvAtMRX7h5kJSMHESMHLC",
        "reception_time": "2022-01-15T10:21:18.294-00:00",
        "errors":
          [ { "kind": "temporary",
              "id": "proto.011-PtHangz2.prefilter.outdated_endorsement" } ],
        "included_in_blocks":
          [ "BMNBFDvSLocHuqkJCTzg74TPfwCzPrEAGsr7hDYeufcHzD8zfG9" ] },
      { "delegate": "tz1VQnqCCqX4K5sP3FNkVSNKTdCAMJDd3E1n",
        "reception_time": "2022-01-15T10:21:18.395-00:00",
        "errors":
          [ { "kind": "temporary",
              "id": "proto.011-PtHangz2.prefilter.outdated_endorsement" } ],
        "included_in_blocks":
          [ "BMNBFDvSLocHuqkJCTzg74TPfwCzPrEAGsr7hDYeufcHzD8zfG9" ] },
      { "delegate": "tz3S6BBeKgJGXxvLyZ1xzXzMPn11nnFtq5L9",
        "reception_time": "2022-01-15T10:21:18.498-00:00",
        "errors":
          [ { "kind": "temporary",
              "id": "proto.011-PtHangz2.prefilter.outdated_endorsement" } ],
        "included_in_blocks":
          [ "BMNBFDvSLocHuqkJCTzg74TPfwCzPrEAGsr7hDYeufcHzD8zfG9" ] },
      { "delegate": "tz3RKYFsLuQzKBtmYuLNas7uMu3AsYd4QdsA",
        "reception_time": "2022-01-15T10:21:18.516-00:00",
        "errors":
          [ { "kind": "temporary",
              "id": "proto.011-PtHangz2.prefilter.outdated_endorsement" } ],
        "included_in_blocks":
          [ "BMNBFDvSLocHuqkJCTzg74TPfwCzPrEAGsr7hDYeufcHzD8zfG9" ] },
      { "delegate": "tz1aXD7Jigrt3PBYSpHSg5Rr33SexMmmM5Ys",
        "reception_time": "2022-01-15T10:21:18.517-00:00",
        "errors":
          [ { "kind": "temporary",
              "id": "proto.011-PtHangz2.prefilter.outdated_endorsement" } ],
        "included_in_blocks":
          [ "BMNBFDvSLocHuqkJCTzg74TPfwCzPrEAGsr7hDYeufcHzD8zfG9" ] },
      { "delegate": "tz3QT9dHYKDqh563chVa6za8526ys1UKfRfL",
        "reception_time": "2022-01-15T10:21:18.518-00:00",
        "errors":
          [ { "kind": "temporary",
              "id": "proto.011-PtHangz2.prefilter.outdated_endorsement" } ],
        "included_in_blocks":
          [ "BMNBFDvSLocHuqkJCTzg74TPfwCzPrEAGsr7hDYeufcHzD8zfG9" ] },
      { "delegate": "tz1VmiY38m3y95HqQLjMwqnMS7sdMfGomzKi",
        "reception_time": "2022-01-15T10:21:18.559-00:00",
        "errors":
          [ { "kind": "temporary",
              "id": "proto.011-PtHangz2.prefilter.outdated_endorsement" } ],
        "included_in_blocks":
          [ "BMNBFDvSLocHuqkJCTzg74TPfwCzPrEAGsr7hDYeufcHzD8zfG9" ] },
      { "delegate": "tz3hw2kqXhLUvY65ca1eety2oQTpAvd34R9Q",
        "reception_time": "2022-01-15T10:21:18.628-00:00",
        "errors":
          [ { "kind": "temporary",
              "id": "proto.011-PtHangz2.prefilter.outdated_endorsement" } ],
        "included_in_blocks":
          [ "BMNBFDvSLocHuqkJCTzg74TPfwCzPrEAGsr7hDYeufcHzD8zfG9" ] },
      { "delegate": "tz1TzaNn7wSQSP5gYPXCnNzBCpyMiidCq1PX",
        "reception_time": "2022-01-15T10:21:18.641-00:00",
        "errors":
          [ { "kind": "temporary",
              "id": "proto.011-PtHangz2.prefilter.outdated_endorsement" } ],
        "included_in_blocks":
          [ "BMNBFDvSLocHuqkJCTzg74TPfwCzPrEAGsr7hDYeufcHzD8zfG9" ] },
      { "delegate": "tz3Zhs2dygr55yHyQyKjntAtY9bgfhLZ4Xj1",
        "reception_time": "2022-01-15T10:21:18.649-00:00",
        "errors":
          [ { "kind": "temporary",
              "id": "proto.011-PtHangz2.prefilter.outdated_endorsement" } ],
        "included_in_blocks":
          [ "BMNBFDvSLocHuqkJCTzg74TPfwCzPrEAGsr7hDYeufcHzD8zfG9" ] },
      { "delegate": "tz3iJu5vrKZcsqRPs8yJ61UDoeEXZmtro4qh",
        "reception_time": "2022-01-15T10:21:18.654-00:00",
        "errors":
          [ { "kind": "temporary",
              "id": "proto.011-PtHangz2.prefilter.outdated_endorsement" } ],
        "included_in_blocks":
          [ "BMNBFDvSLocHuqkJCTzg74TPfwCzPrEAGsr7hDYeufcHzD8zfG9" ] },
      { "delegate": "tz3gtoUxdudfBRcNY7iVdKPHCYYX6xdPpoRS",
        "reception_time": "2022-01-15T10:21:18.704-00:00",
        "errors":
          [ { "kind": "temporary",
              "id": "proto.011-PtHangz2.prefilter.outdated_endorsement" } ],
        "included_in_blocks":
          [ "BMNBFDvSLocHuqkJCTzg74TPfwCzPrEAGsr7hDYeufcHzD8zfG9" ] },
      { "delegate": "tz3QSGPoRp3Kn7n3vY24eYeu3Peuqo45LQ4D",
        "reception_time": "2022-01-15T10:21:18.718-00:00",
        "errors":
          [ { "kind": "temporary",
              "id": "proto.011-PtHangz2.prefilter.outdated_endorsement" } ],
        "included_in_blocks":
          [ "BMNBFDvSLocHuqkJCTzg74TPfwCzPrEAGsr7hDYeufcHzD8zfG9" ] },
      { "delegate": "tz3RB4aoyjov4KEVRbuhvQ1CKJgBJMWhaeB8",
        "reception_time": "2022-01-15T10:21:18.770-00:00",
        "errors":
          [ { "kind": "temporary",
              "id": "proto.011-PtHangz2.prefilter.outdated_endorsement" } ],
        "included_in_blocks":
          [ "BMNBFDvSLocHuqkJCTzg74TPfwCzPrEAGsr7hDYeufcHzD8zfG9" ] },
      { "delegate": "tz3bTdwZinP8U1JmSweNzVKhmwafqWmFWRfk",
        "reception_time": "2022-01-15T10:21:18.780-00:00",
        "errors":
          [ { "kind": "temporary",
              "id": "proto.011-PtHangz2.prefilter.outdated_endorsement" } ],
        "included_in_blocks":
          [ "BMNBFDvSLocHuqkJCTzg74TPfwCzPrEAGsr7hDYeufcHzD8zfG9" ] },
      { "delegate": "tz1WCd2jm4uSt4vntk4vSuUWoZQGhLcDuR9q",
        "reception_time": "2022-01-15T10:21:18.799-00:00",
        "errors":
          [ { "kind": "temporary",
              "id": "proto.011-PtHangz2.prefilter.outdated_endorsement" } ],
        "included_in_blocks":
          [ "BMNBFDvSLocHuqkJCTzg74TPfwCzPrEAGsr7hDYeufcHzD8zfG9" ] },
      { "delegate": "tz1PWCDnz783NNGGQjEFFsHtrcK5yBW4E2rm",
        "reception_time": "2022-01-15T10:21:18.986-00:00",
        "errors":
          [ { "kind": "temporary",
              "id": "proto.011-PtHangz2.prefilter.outdated_endorsement" } ],
        "included_in_blocks":
          [ "BMNBFDvSLocHuqkJCTzg74TPfwCzPrEAGsr7hDYeufcHzD8zfG9" ] },
      { "delegate": "tz1MQMiZHV8q4tTwUMWmS5Y3kaP6J2136iXr",
        "reception_time": "2022-01-15T10:21:19.025-00:00",
        "errors":
          [ { "kind": "temporary",
              "id": "proto.011-PtHangz2.prefilter.outdated_endorsement" } ],
        "included_in_blocks":
          [ "BMNBFDvSLocHuqkJCTzg74TPfwCzPrEAGsr7hDYeufcHzD8zfG9" ] },
      { "delegate": "tz1gfArv665EUkSg2ojMBzcbfwuPxAvqPvjo",
        "reception_time": "2022-01-15T10:21:19.213-00:00",
        "errors":
          [ { "kind": "temporary",
              "id": "proto.011-PtHangz2.prefilter.outdated_endorsement" } ],
        "included_in_blocks":
          [ "BMNBFDvSLocHuqkJCTzg74TPfwCzPrEAGsr7hDYeufcHzD8zfG9" ] },
      { "delegate": "tz1fPKAtsYydh4f1wfWNfeNxWYu72TmM48fu",
        "reception_time": "2022-01-15T10:21:19.347-00:00",
        "errors":
          [ { "kind": "temporary",
              "id": "proto.011-PtHangz2.prefilter.outdated_endorsement" } ],
        "included_in_blocks":
          [ "BMNBFDvSLocHuqkJCTzg74TPfwCzPrEAGsr7hDYeufcHzD8zfG9" ] },
      { "delegate": "tz1ei4WtWEMEJekSv8qDnu9PExG6Q8HgRGr3",
        "reception_time": "2022-01-15T10:21:19.536-00:00",
        "errors":
          [ { "kind": "temporary",
              "id": "proto.011-PtHangz2.prefilter.outdated_endorsement" } ],
        "included_in_blocks":
          [ "BMNBFDvSLocHuqkJCTzg74TPfwCzPrEAGsr7hDYeufcHzD8zfG9" ] } ] }