{ "blocks":
    [ { "hash": "BMAFXuDBhLt2Nte1mdEi8pGRqiCyH1j7XXGmu5873jgQZ86KPp2",
        "delegate": "tz1S8MNvuFEUsWgjHvi3AxibRBf388NhT1q2",
        "reception_time": "2022-01-15T10:59:48.090-00:00",
        "timestamp": "2022-01-15T10:59:40Z" } ],
  "endorsements":
    [ { "delegate": "tz1dbfppLAAxXZNtf2SDps7rch3qfUznKSoK" },
      { "delegate": "tz1TRspM5SeZpaQUhzByXbEvqKF1vnCM2YTK" },
      { "delegate": "tz3S6BBeKgJGXxvLyZ1xzXzMPn11nnFtq5L9",
        "reception_time": "2022-01-15T10:59:47.997-00:00",
        "errors":
          [ { "kind": "temporary",
              "id": "proto.011-PtHangz2.prefilter.outdated_endorsement" } ],
        "included_in_blocks":
          [ "BLvb5YzBUJXb5Cr7sMwdoQ1vdoUc9qGqnNwKjTGwDAbUn1vFZRc" ] },
      { "delegate": "tz1LnWa4AiFCjMezTgSNa65QFoo7DQGEWgEU",
        "reception_time": "2022-01-15T10:59:47.997-00:00",
        "errors":
          [ { "kind": "temporary",
              "id": "proto.011-PtHangz2.prefilter.outdated_endorsement" } ],
        "included_in_blocks":
          [ "BLvb5YzBUJXb5Cr7sMwdoQ1vdoUc9qGqnNwKjTGwDAbUn1vFZRc" ] },
      { "delegate": "tz1PWCDnz783NNGGQjEFFsHtrcK5yBW4E2rm",
        "reception_time": "2022-01-15T10:59:47.939-00:00",
        "errors":
          [ { "kind": "temporary",
              "id": "proto.011-PtHangz2.prefilter.outdated_endorsement" } ],
        "included_in_blocks":
          [ "BLvb5YzBUJXb5Cr7sMwdoQ1vdoUc9qGqnNwKjTGwDAbUn1vFZRc" ] },
      { "delegate": "tz3QT9dHYKDqh563chVa6za8526ys1UKfRfL",
        "reception_time": "2022-01-15T10:59:47.931-00:00",
        "errors":
          [ { "kind": "temporary",
              "id": "proto.011-PtHangz2.prefilter.outdated_endorsement" } ],
        "included_in_blocks":
          [ "BLvb5YzBUJXb5Cr7sMwdoQ1vdoUc9qGqnNwKjTGwDAbUn1vFZRc" ] },
      { "delegate": "tz3Zhs2dygr55yHyQyKjntAtY9bgfhLZ4Xj1",
        "reception_time": "2022-01-15T10:59:47.910-00:00",
        "errors":
          [ { "kind": "temporary",
              "id": "proto.011-PtHangz2.prefilter.outdated_endorsement" } ],
        "included_in_blocks":
          [ "BLvb5YzBUJXb5Cr7sMwdoQ1vdoUc9qGqnNwKjTGwDAbUn1vFZRc" ] },
      { "delegate": "tz3iJu5vrKZcsqRPs8yJ61UDoeEXZmtro4qh",
        "reception_time": "2022-01-15T10:59:47.888-00:00",
        "errors":
          [ { "kind": "temporary",
              "id": "proto.011-PtHangz2.prefilter.outdated_endorsement" } ],
        "included_in_blocks":
          [ "BLvb5YzBUJXb5Cr7sMwdoQ1vdoUc9qGqnNwKjTGwDAbUn1vFZRc" ] },
      { "delegate": "tz1ei4WtWEMEJekSv8qDnu9PExG6Q8HgRGr3",
        "reception_time": "2022-01-15T10:59:47.884-00:00",
        "errors":
          [ { "kind": "temporary",
              "id": "proto.011-PtHangz2.prefilter.outdated_endorsement" } ],
        "included_in_blocks":
          [ "BLvb5YzBUJXb5Cr7sMwdoQ1vdoUc9qGqnNwKjTGwDAbUn1vFZRc" ] },
      { "delegate": "tz1TzaNn7wSQSP5gYPXCnNzBCpyMiidCq1PX",
        "reception_time": "2022-01-15T10:59:47.678-00:00",
        "errors":
          [ { "kind": "temporary",
              "id": "proto.011-PtHangz2.prefilter.outdated_endorsement" } ],
        "included_in_blocks":
          [ "BLvb5YzBUJXb5Cr7sMwdoQ1vdoUc9qGqnNwKjTGwDAbUn1vFZRc" ] },
      { "delegate": "tz1VmiY38m3y95HqQLjMwqnMS7sdMfGomzKi",
        "reception_time": "2022-01-15T10:59:47.663-00:00",
        "errors":
          [ { "kind": "temporary",
              "id": "proto.011-PtHangz2.prefilter.outdated_endorsement" } ],
        "included_in_blocks":
          [ "BLvb5YzBUJXb5Cr7sMwdoQ1vdoUc9qGqnNwKjTGwDAbUn1vFZRc" ] },
      { "delegate": "tz1gfArv665EUkSg2ojMBzcbfwuPxAvqPvjo",
        "reception_time": "2022-01-15T10:59:47.655-00:00",
        "errors":
          [ { "kind": "temporary",
              "id": "proto.011-PtHangz2.prefilter.outdated_endorsement" } ],
        "included_in_blocks":
          [ "BLvb5YzBUJXb5Cr7sMwdoQ1vdoUc9qGqnNwKjTGwDAbUn1vFZRc" ] },
      { "delegate": "tz3gtoUxdudfBRcNY7iVdKPHCYYX6xdPpoRS",
        "reception_time": "2022-01-15T10:59:47.624-00:00",
        "errors":
          [ { "kind": "temporary",
              "id": "proto.011-PtHangz2.prefilter.outdated_endorsement" } ],
        "included_in_blocks":
          [ "BLvb5YzBUJXb5Cr7sMwdoQ1vdoUc9qGqnNwKjTGwDAbUn1vFZRc" ] },
      { "delegate": "tz3QSGPoRp3Kn7n3vY24eYeu3Peuqo45LQ4D",
        "reception_time": "2022-01-15T10:59:47.622-00:00",
        "errors":
          [ { "kind": "temporary",
              "id": "proto.011-PtHangz2.prefilter.outdated_endorsement" } ],
        "included_in_blocks":
          [ "BLvb5YzBUJXb5Cr7sMwdoQ1vdoUc9qGqnNwKjTGwDAbUn1vFZRc" ] },
      { "delegate": "tz3RKYFsLuQzKBtmYuLNas7uMu3AsYd4QdsA",
        "reception_time": "2022-01-15T10:59:47.594-00:00",
        "errors":
          [ { "kind": "temporary",
              "id": "proto.011-PtHangz2.prefilter.outdated_endorsement" } ],
        "included_in_blocks":
          [ "BLvb5YzBUJXb5Cr7sMwdoQ1vdoUc9qGqnNwKjTGwDAbUn1vFZRc" ] },
      { "delegate": "tz3NxTnke1acr8o3h5y9ytf5awQBGNJUKzVU",
        "reception_time": "2022-01-15T10:59:47.593-00:00",
        "errors":
          [ { "kind": "temporary",
              "id": "proto.011-PtHangz2.prefilter.outdated_endorsement" } ],
        "included_in_blocks":
          [ "BLvb5YzBUJXb5Cr7sMwdoQ1vdoUc9qGqnNwKjTGwDAbUn1vFZRc" ] },
      { "delegate": "tz3hw2kqXhLUvY65ca1eety2oQTpAvd34R9Q",
        "reception_time": "2022-01-15T10:59:47.589-00:00",
        "errors":
          [ { "kind": "temporary",
              "id": "proto.011-PtHangz2.prefilter.outdated_endorsement" } ],
        "included_in_blocks":
          [ "BLvb5YzBUJXb5Cr7sMwdoQ1vdoUc9qGqnNwKjTGwDAbUn1vFZRc" ] },
      { "delegate": "tz3ZbP2pM3nwvXztbuMJwJnDvV5xdpU8UkkD",
        "reception_time": "2022-01-15T10:59:47.291-00:00",
        "errors":
          [ { "kind": "temporary",
              "id": "proto.011-PtHangz2.prefilter.outdated_endorsement" } ],
        "included_in_blocks":
          [ "BLvb5YzBUJXb5Cr7sMwdoQ1vdoUc9qGqnNwKjTGwDAbUn1vFZRc" ] },
      { "delegate": "tz1gUNyn3hmnEWqkusWPzxRaon1cs7ndWh7h",
        "reception_time": "2022-01-15T10:59:47.217-00:00",
        "errors":
          [ { "kind": "temporary",
              "id": "proto.011-PtHangz2.prefilter.outdated_endorsement" } ],
        "included_in_blocks":
          [ "BLvb5YzBUJXb5Cr7sMwdoQ1vdoUc9qGqnNwKjTGwDAbUn1vFZRc" ] },
      { "delegate": "tz1VQnqCCqX4K5sP3FNkVSNKTdCAMJDd3E1n",
        "reception_time": "2022-01-15T10:59:47.191-00:00",
        "errors":
          [ { "kind": "temporary",
              "id": "proto.011-PtHangz2.prefilter.outdated_endorsement" } ],
        "included_in_blocks":
          [ "BLvb5YzBUJXb5Cr7sMwdoQ1vdoUc9qGqnNwKjTGwDAbUn1vFZRc" ] },
      { "delegate": "tz1eDDuQBEgwvc6tbnnCVrnr12tvrd6gBTpx",
        "reception_time": "2022-01-15T10:59:47.145-00:00",
        "errors":
          [ { "kind": "temporary",
              "id": "proto.011-PtHangz2.prefilter.outdated_endorsement" } ],
        "included_in_blocks":
          [ "BLvb5YzBUJXb5Cr7sMwdoQ1vdoUc9qGqnNwKjTGwDAbUn1vFZRc" ] },
      { "delegate": "tz1Ldzz6k1BHdhuKvAtMRX7h5kJSMHESMHLC",
        "reception_time": "2022-01-15T10:59:47.082-00:00",
        "errors":
          [ { "kind": "temporary",
              "id": "proto.011-PtHangz2.prefilter.outdated_endorsement" } ],
        "included_in_blocks":
          [ "BLvb5YzBUJXb5Cr7sMwdoQ1vdoUc9qGqnNwKjTGwDAbUn1vFZRc" ] },
      { "delegate": "tz1eEnQhbwf6trb8Q8mPb2RaPkNk2rN7BKi8",
        "reception_time": "2022-01-15T10:59:47.007-00:00",
        "errors":
          [ { "kind": "temporary",
              "id": "proto.011-PtHangz2.prefilter.outdated_endorsement" } ],
        "included_in_blocks":
          [ "BLvb5YzBUJXb5Cr7sMwdoQ1vdoUc9qGqnNwKjTGwDAbUn1vFZRc" ] },
      { "delegate": "tz1Kf25fX1VdmYGSEzwFy1wNmkbSEZ2V83sY",
        "reception_time": "2022-01-15T10:59:46.942-00:00",
        "errors":
          [ { "kind": "temporary",
              "id": "proto.011-PtHangz2.prefilter.outdated_endorsement" } ],
        "included_in_blocks":
          [ "BLvb5YzBUJXb5Cr7sMwdoQ1vdoUc9qGqnNwKjTGwDAbUn1vFZRc" ] },
      { "delegate": "tz1S8MNvuFEUsWgjHvi3AxibRBf388NhT1q2",
        "reception_time": "2022-01-15T10:59:46.770-00:00",
        "errors":
          [ { "kind": "temporary",
              "id": "proto.011-PtHangz2.prefilter.outdated_endorsement" } ],
        "included_in_blocks":
          [ "BLvb5YzBUJXb5Cr7sMwdoQ1vdoUc9qGqnNwKjTGwDAbUn1vFZRc" ] },
      { "delegate": "tz1cX93Q3KsiTADpCC4f12TBvAmS5tw7CW19",
        "reception_time": "2022-01-15T10:59:46.734-00:00",
        "errors":
          [ { "kind": "temporary",
              "id": "proto.011-PtHangz2.prefilter.outdated_endorsement" } ],
        "included_in_blocks":
          [ "BLvb5YzBUJXb5Cr7sMwdoQ1vdoUc9qGqnNwKjTGwDAbUn1vFZRc" ] },
      { "delegate": "tz1irJKkXS2DBWkU1NnmFQx1c1L7pbGg4yhk",
        "reception_time": "2022-01-15T10:59:46.719-00:00",
        "errors":
          [ { "kind": "temporary",
              "id": "proto.011-PtHangz2.prefilter.outdated_endorsement" } ],
        "included_in_blocks":
          [ "BLvb5YzBUJXb5Cr7sMwdoQ1vdoUc9qGqnNwKjTGwDAbUn1vFZRc" ] },
      { "delegate": "tz1RV1MBbZMR68tacosb7Mwj6LkbPSUS1er1",
        "reception_time": "2022-01-15T10:59:46.706-00:00",
        "errors":
          [ { "kind": "temporary",
              "id": "proto.011-PtHangz2.prefilter.outdated_endorsement" } ],
        "included_in_blocks":
          [ "BLvb5YzBUJXb5Cr7sMwdoQ1vdoUc9qGqnNwKjTGwDAbUn1vFZRc" ] },
      { "delegate": "tz1P2Po7YM526ughEsRbY4oR9zaUPDZjxFrb",
        "reception_time": "2022-01-15T10:59:46.508-00:00",
        "errors":
          [ { "kind": "temporary",
              "id": "proto.011-PtHangz2.prefilter.outdated_endorsement" } ],
        "included_in_blocks":
          [ "BLvb5YzBUJXb5Cr7sMwdoQ1vdoUc9qGqnNwKjTGwDAbUn1vFZRc" ] },
      { "delegate": "tz1Lhf4J9Qxoe3DZ2nfe8FGDnvVj7oKjnMY6",
        "reception_time": "2022-01-15T10:59:46.419-00:00",
        "errors":
          [ { "kind": "temporary",
              "id": "proto.011-PtHangz2.prefilter.outdated_endorsement" } ],
        "included_in_blocks":
          [ "BLvb5YzBUJXb5Cr7sMwdoQ1vdoUc9qGqnNwKjTGwDAbUn1vFZRc" ] },
      { "delegate": "tz1S8e9GgdZG78XJRB3NqabfWeM37GnhZMWQ",
        "reception_time": "2022-01-15T10:59:46.217-00:00",
        "errors":
          [ { "kind": "temporary",
              "id": "proto.011-PtHangz2.prefilter.outdated_endorsement" } ],
        "included_in_blocks":
          [ "BLvb5YzBUJXb5Cr7sMwdoQ1vdoUc9qGqnNwKjTGwDAbUn1vFZRc" ] },
      { "delegate": "tz1gg5bjopPcr9agjamyu9BbXKLibNc2rbAq",
        "reception_time": "2022-01-15T11:00:03.699-00:00",
        "included_in_blocks":
          [ "BLvb5YzBUJXb5Cr7sMwdoQ1vdoUc9qGqnNwKjTGwDAbUn1vFZRc" ] },
      { "delegate": "tz1go7f6mEQfT2xX2LuHAqgnRGN6c2zHPf5c",
        "reception_time": "2022-01-15T11:00:03.242-00:00",
        "included_in_blocks":
          [ "BLvb5YzBUJXb5Cr7sMwdoQ1vdoUc9qGqnNwKjTGwDAbUn1vFZRc" ] },
      { "delegate": "tz1NpWrAyDL9k2Lmnyxcgr9xuJakbBxdq7FB",
        "reception_time": "2022-01-15T11:00:02.559-00:00",
        "included_in_blocks":
          [ "BLvb5YzBUJXb5Cr7sMwdoQ1vdoUc9qGqnNwKjTGwDAbUn1vFZRc" ] },
      { "delegate": "tz1Z9M4biBHSiH38k5ciRMjR5bgk89yEgLTz",
        "reception_time": "2022-01-15T11:00:01.284-00:00",
        "included_in_blocks":
          [ "BLvb5YzBUJXb5Cr7sMwdoQ1vdoUc9qGqnNwKjTGwDAbUn1vFZRc" ] },
      { "delegate": "tz1SYq214SCBy9naR6cvycQsYcUGpBqQAE8d",
        "reception_time": "2022-01-15T11:00:00.455-00:00",
        "included_in_blocks":
          [ "BLvb5YzBUJXb5Cr7sMwdoQ1vdoUc9qGqnNwKjTGwDAbUn1vFZRc" ] },
      { "delegate": "tz1awXW7wuXy21c66vBudMXQVAPgRnqqwgTH",
        "reception_time": "2022-01-15T10:59:58.896-00:00",
        "included_in_blocks":
          [ "BLvb5YzBUJXb5Cr7sMwdoQ1vdoUc9qGqnNwKjTGwDAbUn1vFZRc" ] },
      { "delegate": "tz1TRqbYbUf2GyrjErf3hBzgBJPzW8y36qEs",
        "reception_time": "2022-01-15T10:59:57.238-00:00",
        "included_in_blocks":
          [ "BLvb5YzBUJXb5Cr7sMwdoQ1vdoUc9qGqnNwKjTGwDAbUn1vFZRc" ] },
      { "delegate": "tz1cYufsxHXJcvANhvS55h3aY32a9BAFB494",
        "reception_time": "2022-01-15T10:59:55.488-00:00",
        "included_in_blocks":
          [ "BLvb5YzBUJXb5Cr7sMwdoQ1vdoUc9qGqnNwKjTGwDAbUn1vFZRc" ] },
      { "delegate": "tz2FCNBrERXtaTtNX6iimR1UJ5JSDxvdHM93",
        "reception_time": "2022-01-15T10:59:55.508-00:00",
        "included_in_blocks":
          [ "BLvb5YzBUJXb5Cr7sMwdoQ1vdoUc9qGqnNwKjTGwDAbUn1vFZRc" ] },
      { "delegate": "tz1aJS7Pk9uWR3wWyFf1i3RwhYxN84G7stom",
        "reception_time": "2022-01-15T10:59:52.467-00:00",
        "included_in_blocks":
          [ "BLvb5YzBUJXb5Cr7sMwdoQ1vdoUc9qGqnNwKjTGwDAbUn1vFZRc" ] },
      { "delegate": "tz1S6H83gugqK4dR5Had9jWR9M1ZdAAVgU5e",
        "reception_time": "2022-01-15T10:59:52.470-00:00",
        "included_in_blocks":
          [ "BLvb5YzBUJXb5Cr7sMwdoQ1vdoUc9qGqnNwKjTGwDAbUn1vFZRc" ] },
      { "delegate": "tz1QccGQsmt7WMnbVX9inJQgEuQGeMXddfjp",
        "reception_time": "2022-01-15T10:59:51.448-00:00",
        "included_in_blocks":
          [ "BLvb5YzBUJXb5Cr7sMwdoQ1vdoUc9qGqnNwKjTGwDAbUn1vFZRc" ] },
      { "delegate": "tz1QLXqnfN51dkjeghXvKHkJfhvGiM5gK4tc",
        "reception_time": "2022-01-15T10:59:50.957-00:00",
        "included_in_blocks":
          [ "BLvb5YzBUJXb5Cr7sMwdoQ1vdoUc9qGqnNwKjTGwDAbUn1vFZRc" ] },
      { "delegate": "tz1RjoHc98dBoqaH2jawF62XNKh7YsHwbkEv",
        "reception_time": "2022-01-15T10:59:50.769-00:00",
        "included_in_blocks":
          [ "BLvb5YzBUJXb5Cr7sMwdoQ1vdoUc9qGqnNwKjTGwDAbUn1vFZRc" ] },
      { "delegate": "tz1T7duV5gZWSTq4YpBGbXNLTfznCLDrFxvs",
        "reception_time": "2022-01-15T10:59:50.642-00:00",
        "included_in_blocks":
          [ "BLvb5YzBUJXb5Cr7sMwdoQ1vdoUc9qGqnNwKjTGwDAbUn1vFZRc" ] },
      { "delegate": "tz1RCFbB9GpALpsZtu6J58sb74dm8qe6XBzv",
        "reception_time": "2022-01-15T10:59:50.502-00:00",
        "included_in_blocks":
          [ "BLvb5YzBUJXb5Cr7sMwdoQ1vdoUc9qGqnNwKjTGwDAbUn1vFZRc" ] },
      { "delegate": "tz1aRoaRhSpRYvFdyvgWLL6TGyRoGF51wDjM",
        "reception_time": "2022-01-15T10:59:50.469-00:00",
        "included_in_blocks":
          [ "BLvb5YzBUJXb5Cr7sMwdoQ1vdoUc9qGqnNwKjTGwDAbUn1vFZRc" ] },
      { "delegate": "tz3UoffC7FG7zfpmvmjUmUeAaHvzdcUvAj6r",
        "reception_time": "2022-01-15T10:59:50.298-00:00",
        "included_in_blocks":
          [ "BLvb5YzBUJXb5Cr7sMwdoQ1vdoUc9qGqnNwKjTGwDAbUn1vFZRc" ] },
      { "delegate": "tz3RDC3Jdn4j15J7bBHZd29EUee9gVB1CxD9",
        "reception_time": "2022-01-15T10:59:50.199-00:00",
        "included_in_blocks":
          [ "BLvb5YzBUJXb5Cr7sMwdoQ1vdoUc9qGqnNwKjTGwDAbUn1vFZRc" ] },
      { "delegate": "tz3NExpXn9aPNZPorRE4SdjJ2RGrfbJgMAaV",
        "reception_time": "2022-01-15T10:59:50.234-00:00",
        "included_in_blocks":
          [ "BLvb5YzBUJXb5Cr7sMwdoQ1vdoUc9qGqnNwKjTGwDAbUn1vFZRc" ] },
      { "delegate": "tz1dRKU4FQ9QRRQPdaH4zCR6gmCmXfcvcgtB",
        "reception_time": "2022-01-15T10:59:50.162-00:00",
        "included_in_blocks":
          [ "BLvb5YzBUJXb5Cr7sMwdoQ1vdoUc9qGqnNwKjTGwDAbUn1vFZRc" ] },
      { "delegate": "tz1fwnfJNgiDACshK9avfRfFbMaXrs3ghoJa",
        "reception_time": "2022-01-15T10:59:49.817-00:00",
        "included_in_blocks":
          [ "BLvb5YzBUJXb5Cr7sMwdoQ1vdoUc9qGqnNwKjTGwDAbUn1vFZRc" ] },
      { "delegate": "tz1NEKxGEHsFufk87CVZcrqWu8o22qh46GK6",
        "reception_time": "2022-01-15T10:59:49.682-00:00",
        "included_in_blocks":
          [ "BLvb5YzBUJXb5Cr7sMwdoQ1vdoUc9qGqnNwKjTGwDAbUn1vFZRc" ] },
      { "delegate": "tz1NSDFKuRyzHxpfG1AMkyCwEiZ52cbR2mRW",
        "reception_time": "2022-01-15T10:59:49.498-00:00",
        "included_in_blocks":
          [ "BLvb5YzBUJXb5Cr7sMwdoQ1vdoUc9qGqnNwKjTGwDAbUn1vFZRc" ] },
      { "delegate": "tz3gLTu4Yxj8tPAcriQVUdxv6BY9QyvzU1az",
        "reception_time": "2022-01-15T10:59:49.377-00:00",
        "included_in_blocks":
          [ "BLvb5YzBUJXb5Cr7sMwdoQ1vdoUc9qGqnNwKjTGwDAbUn1vFZRc" ] },
      { "delegate": "tz3adcvQaKXTCg12zbninqo3q8ptKKtDFTLv",
        "reception_time": "2022-01-15T10:59:49.443-00:00",
        "included_in_blocks":
          [ "BLvb5YzBUJXb5Cr7sMwdoQ1vdoUc9qGqnNwKjTGwDAbUn1vFZRc" ] },
      { "delegate": "tz3NDpRj6WBrJPikcPVHRBEjWKxFw3c6eQPS",
        "reception_time": "2022-01-15T10:59:49.354-00:00",
        "included_in_blocks":
          [ "BLvb5YzBUJXb5Cr7sMwdoQ1vdoUc9qGqnNwKjTGwDAbUn1vFZRc" ] },
      { "delegate": "tz1eCzNtidHvVgeRzQ38C81FPcYnxMsCEL6Z",
        "reception_time": "2022-01-15T10:59:49.222-00:00",
        "included_in_blocks":
          [ "BLvb5YzBUJXb5Cr7sMwdoQ1vdoUc9qGqnNwKjTGwDAbUn1vFZRc" ] },
      { "delegate": "tz3VEZ4k6a4Wx42iyev6i2aVAptTRLEAivNN",
        "reception_time": "2022-01-15T10:59:49.232-00:00",
        "included_in_blocks":
          [ "BLvb5YzBUJXb5Cr7sMwdoQ1vdoUc9qGqnNwKjTGwDAbUn1vFZRc" ] },
      { "delegate": "tz1axcnVN9tZnCe4sQQhC6f3tfSEXdjPaXPY",
        "reception_time": "2022-01-15T10:59:49.232-00:00",
        "included_in_blocks":
          [ "BLvb5YzBUJXb5Cr7sMwdoQ1vdoUc9qGqnNwKjTGwDAbUn1vFZRc" ] },
      { "delegate": "tz1WBfwbT66FC6BTLexc2BoyCCBM9LG7pnVW",
        "reception_time": "2022-01-15T10:59:49.219-00:00",
        "included_in_blocks":
          [ "BLvb5YzBUJXb5Cr7sMwdoQ1vdoUc9qGqnNwKjTGwDAbUn1vFZRc" ] },
      { "delegate": "tz1Nf6tsK4G6bBqgSQERy4nUtkHNKUVdh7q1",
        "reception_time": "2022-01-15T10:59:49.245-00:00",
        "included_in_blocks":
          [ "BLvb5YzBUJXb5Cr7sMwdoQ1vdoUc9qGqnNwKjTGwDAbUn1vFZRc" ] },
      { "delegate": "tz1LmaFsWRkjr7QMCx5PtV6xTUz3AmEpKQiF",
        "reception_time": "2022-01-15T10:59:49.242-00:00",
        "included_in_blocks":
          [ "BLvb5YzBUJXb5Cr7sMwdoQ1vdoUc9qGqnNwKjTGwDAbUn1vFZRc" ] },
      { "delegate": "tz3RB4aoyjov4KEVRbuhvQ1CKJgBJMWhaeB8",
        "reception_time": "2022-01-15T10:59:49.242-00:00",
        "included_in_blocks":
          [ "BLvb5YzBUJXb5Cr7sMwdoQ1vdoUc9qGqnNwKjTGwDAbUn1vFZRc" ] },
      { "delegate": "tz3bTdwZinP8U1JmSweNzVKhmwafqWmFWRfk",
        "reception_time": "2022-01-15T10:59:49.214-00:00",
        "included_in_blocks":
          [ "BLvb5YzBUJXb5Cr7sMwdoQ1vdoUc9qGqnNwKjTGwDAbUn1vFZRc" ] },
      { "delegate": "tz3WMqdzXqRWXwyvj5Hp2H7QEepaUuS7vd9K",
        "reception_time": "2022-01-15T10:59:49.252-00:00",
        "included_in_blocks":
          [ "BLvb5YzBUJXb5Cr7sMwdoQ1vdoUc9qGqnNwKjTGwDAbUn1vFZRc" ] },
      { "delegate": "tz1Tnjaxk6tbAeC2TmMApPh8UsrEVQvhHvx5",
        "reception_time": "2022-01-15T10:59:49.189-00:00",
        "included_in_blocks":
          [ "BLvb5YzBUJXb5Cr7sMwdoQ1vdoUc9qGqnNwKjTGwDAbUn1vFZRc" ] },
      { "delegate": "tz1dwu9aYb7CRNq4Y2zAjipdjFuSVKhHS8vA",
        "reception_time": "2022-01-15T10:59:49.217-00:00",
        "included_in_blocks":
          [ "BLvb5YzBUJXb5Cr7sMwdoQ1vdoUc9qGqnNwKjTGwDAbUn1vFZRc" ] },
      { "delegate": "tz3bvNMQ95vfAYtG8193ymshqjSvmxiCUuR5",
        "reception_time": "2022-01-15T10:59:49.214-00:00",
        "included_in_blocks":
          [ "BLvb5YzBUJXb5Cr7sMwdoQ1vdoUc9qGqnNwKjTGwDAbUn1vFZRc" ] },
      { "delegate": "tz1KfEsrtDaA1sX7vdM4qmEPWuSytuqCDp5j",
        "reception_time": "2022-01-15T10:59:49.201-00:00",
        "included_in_blocks":
          [ "BLvb5YzBUJXb5Cr7sMwdoQ1vdoUc9qGqnNwKjTGwDAbUn1vFZRc" ] },
      { "delegate": "tz3QCNyySViKHmeSr45kzDxzchys7NiXCWoa",
        "reception_time": "2022-01-15T10:59:49.201-00:00",
        "included_in_blocks":
          [ "BLvb5YzBUJXb5Cr7sMwdoQ1vdoUc9qGqnNwKjTGwDAbUn1vFZRc" ] },
      { "delegate": "tz1cSj7fTex3JPd1p1LN1fwek6AV1kH93Wwc",
        "reception_time": "2022-01-15T10:59:48.758-00:00",
        "included_in_blocks":
          [ "BLvb5YzBUJXb5Cr7sMwdoQ1vdoUc9qGqnNwKjTGwDAbUn1vFZRc" ] } ] }