{ "blocks":
    [ { "hash": "BKtf9EfgNfBDhTwhXdnAfMmkoqQuFCQj4SrqkaktsDukgMKMCkY",
        "delegate": "tz1irJKkXS2DBWkU1NnmFQx1c1L7pbGg4yhk",
        "reception_time": "2022-01-15T10:35:18.116-00:00",
        "timestamp": "2022-01-15T10:35:10Z" } ],
  "endorsements":
    [ { "delegate": "tz1gfArv665EUkSg2ojMBzcbfwuPxAvqPvjo",
        "reception_time": "2022-01-15T10:35:17.990-00:00",
        "errors":
          [ { "kind": "temporary",
              "id": "proto.011-PtHangz2.prefilter.outdated_endorsement" } ],
        "included_in_blocks":
          [ "BKogJSLyQHPtBPR86ek9BzrawLcVkti1nuC6RPU1zTDJbqo31dE" ] },
      { "delegate": "tz1cSj7fTex3JPd1p1LN1fwek6AV1kH93Wwc",
        "reception_time": "2022-01-15T10:35:17.925-00:00",
        "errors":
          [ { "kind": "temporary",
              "id": "proto.011-PtHangz2.prefilter.outdated_endorsement" } ],
        "included_in_blocks":
          [ "BKogJSLyQHPtBPR86ek9BzrawLcVkti1nuC6RPU1zTDJbqo31dE" ] },
      { "delegate": "tz1ei4WtWEMEJekSv8qDnu9PExG6Q8HgRGr3",
        "reception_time": "2022-01-15T10:35:17.910-00:00",
        "errors":
          [ { "kind": "temporary",
              "id": "proto.011-PtHangz2.prefilter.outdated_endorsement" } ],
        "included_in_blocks":
          [ "BKogJSLyQHPtBPR86ek9BzrawLcVkti1nuC6RPU1zTDJbqo31dE" ] },
      { "delegate": "tz1MQMiZHV8q4tTwUMWmS5Y3kaP6J2136iXr",
        "reception_time": "2022-01-15T10:35:17.825-00:00",
        "errors":
          [ { "kind": "temporary",
              "id": "proto.011-PtHangz2.prefilter.outdated_endorsement" } ],
        "included_in_blocks":
          [ "BKogJSLyQHPtBPR86ek9BzrawLcVkti1nuC6RPU1zTDJbqo31dE" ] },
      { "delegate": "tz1abmz7jiCV2GH2u81LRrGgAFFgvQgiDiaf",
        "reception_time": "2022-01-15T10:35:17.674-00:00",
        "errors":
          [ { "kind": "temporary",
              "id": "proto.011-PtHangz2.prefilter.outdated_endorsement" } ],
        "included_in_blocks":
          [ "BKogJSLyQHPtBPR86ek9BzrawLcVkti1nuC6RPU1zTDJbqo31dE" ] },
      { "delegate": "tz3bvNMQ95vfAYtG8193ymshqjSvmxiCUuR5",
        "reception_time": "2022-01-15T10:35:17.553-00:00",
        "errors":
          [ { "kind": "temporary",
              "id": "proto.011-PtHangz2.prefilter.outdated_endorsement" } ],
        "included_in_blocks":
          [ "BKogJSLyQHPtBPR86ek9BzrawLcVkti1nuC6RPU1zTDJbqo31dE" ] },
      { "delegate": "tz1gcna2xxZj2eNp1LaMyAhVJ49mEFj4FH26",
        "reception_time": "2022-01-15T10:35:17.547-00:00",
        "errors":
          [ { "kind": "temporary",
              "id": "proto.011-PtHangz2.prefilter.outdated_endorsement" } ],
        "included_in_blocks":
          [ "BKogJSLyQHPtBPR86ek9BzrawLcVkti1nuC6RPU1zTDJbqo31dE" ] },
      { "delegate": "tz3RB4aoyjov4KEVRbuhvQ1CKJgBJMWhaeB8",
        "reception_time": "2022-01-15T10:35:17.541-00:00",
        "errors":
          [ { "kind": "temporary",
              "id": "proto.011-PtHangz2.prefilter.outdated_endorsement" } ],
        "included_in_blocks":
          [ "BKogJSLyQHPtBPR86ek9BzrawLcVkti1nuC6RPU1zTDJbqo31dE" ] },
      { "delegate": "tz3bTdwZinP8U1JmSweNzVKhmwafqWmFWRfk",
        "reception_time": "2022-01-15T10:35:17.512-00:00",
        "errors":
          [ { "kind": "temporary",
              "id": "proto.011-PtHangz2.prefilter.outdated_endorsement" } ],
        "included_in_blocks":
          [ "BKogJSLyQHPtBPR86ek9BzrawLcVkti1nuC6RPU1zTDJbqo31dE" ] },
      { "delegate": "tz1gUNyn3hmnEWqkusWPzxRaon1cs7ndWh7h",
        "reception_time": "2022-01-15T10:35:17.325-00:00",
        "errors":
          [ { "kind": "temporary",
              "id": "proto.011-PtHangz2.prefilter.outdated_endorsement" } ],
        "included_in_blocks":
          [ "BKogJSLyQHPtBPR86ek9BzrawLcVkti1nuC6RPU1zTDJbqo31dE" ] },
      { "delegate": "tz1VQnqCCqX4K5sP3FNkVSNKTdCAMJDd3E1n",
        "reception_time": "2022-01-15T10:35:17.319-00:00",
        "errors":
          [ { "kind": "temporary",
              "id": "proto.011-PtHangz2.prefilter.outdated_endorsement" } ],
        "included_in_blocks":
          [ "BKogJSLyQHPtBPR86ek9BzrawLcVkti1nuC6RPU1zTDJbqo31dE" ] },
      { "delegate": "tz1PWCDnz783NNGGQjEFFsHtrcK5yBW4E2rm",
        "reception_time": "2022-01-15T10:35:17.310-00:00",
        "errors":
          [ { "kind": "temporary",
              "id": "proto.011-PtHangz2.prefilter.outdated_endorsement" } ],
        "included_in_blocks":
          [ "BKogJSLyQHPtBPR86ek9BzrawLcVkti1nuC6RPU1zTDJbqo31dE" ] },
      { "delegate": "tz1WCd2jm4uSt4vntk4vSuUWoZQGhLcDuR9q",
        "reception_time": "2022-01-15T10:35:17.304-00:00",
        "errors":
          [ { "kind": "temporary",
              "id": "proto.011-PtHangz2.prefilter.outdated_endorsement" } ],
        "included_in_blocks":
          [ "BKogJSLyQHPtBPR86ek9BzrawLcVkti1nuC6RPU1zTDJbqo31dE" ] },
      { "delegate": "tz3QT9dHYKDqh563chVa6za8526ys1UKfRfL",
        "reception_time": "2022-01-15T10:35:17.257-00:00",
        "errors":
          [ { "kind": "temporary",
              "id": "proto.011-PtHangz2.prefilter.outdated_endorsement" } ],
        "included_in_blocks":
          [ "BKogJSLyQHPtBPR86ek9BzrawLcVkti1nuC6RPU1zTDJbqo31dE" ] },
      { "delegate": "tz3S6BBeKgJGXxvLyZ1xzXzMPn11nnFtq5L9",
        "reception_time": "2022-01-15T10:35:17.257-00:00",
        "errors":
          [ { "kind": "temporary",
              "id": "proto.011-PtHangz2.prefilter.outdated_endorsement" } ],
        "included_in_blocks":
          [ "BKogJSLyQHPtBPR86ek9BzrawLcVkti1nuC6RPU1zTDJbqo31dE" ] },
      { "delegate": "tz1aXD7Jigrt3PBYSpHSg5Rr33SexMmmM5Ys",
        "reception_time": "2022-01-15T10:35:17.077-00:00",
        "errors":
          [ { "kind": "temporary",
              "id": "proto.011-PtHangz2.prefilter.outdated_endorsement" } ],
        "included_in_blocks":
          [ "BKogJSLyQHPtBPR86ek9BzrawLcVkti1nuC6RPU1zTDJbqo31dE" ] },
      { "delegate": "tz3QSGPoRp3Kn7n3vY24eYeu3Peuqo45LQ4D",
        "reception_time": "2022-01-15T10:35:17.036-00:00",
        "errors":
          [ { "kind": "temporary",
              "id": "proto.011-PtHangz2.prefilter.outdated_endorsement" } ],
        "included_in_blocks":
          [ "BKogJSLyQHPtBPR86ek9BzrawLcVkti1nuC6RPU1zTDJbqo31dE" ] },
      { "delegate": "tz1ZPh7XfUaJXUDvkrBxmS1BjEM1i62hiPpM",
        "reception_time": "2022-01-15T10:35:17.034-00:00",
        "errors":
          [ { "kind": "temporary",
              "id": "proto.011-PtHangz2.prefilter.outdated_endorsement" } ],
        "included_in_blocks":
          [ "BKogJSLyQHPtBPR86ek9BzrawLcVkti1nuC6RPU1zTDJbqo31dE" ] },
      { "delegate": "tz3gtoUxdudfBRcNY7iVdKPHCYYX6xdPpoRS",
        "reception_time": "2022-01-15T10:35:17.024-00:00",
        "errors":
          [ { "kind": "temporary",
              "id": "proto.011-PtHangz2.prefilter.outdated_endorsement" } ],
        "included_in_blocks":
          [ "BKogJSLyQHPtBPR86ek9BzrawLcVkti1nuC6RPU1zTDJbqo31dE" ] },
      { "delegate": "tz1RHgE6W7SnPdwqL1SAtGWEdynA7HeTbpbN",
        "reception_time": "2022-01-15T10:35:17.008-00:00",
        "errors":
          [ { "kind": "temporary",
              "id": "proto.011-PtHangz2.prefilter.outdated_endorsement" } ],
        "included_in_blocks":
          [ "BKogJSLyQHPtBPR86ek9BzrawLcVkti1nuC6RPU1zTDJbqo31dE" ] },
      { "delegate": "tz1TzaNn7wSQSP5gYPXCnNzBCpyMiidCq1PX",
        "reception_time": "2022-01-15T10:35:16.991-00:00",
        "errors":
          [ { "kind": "temporary",
              "id": "proto.011-PtHangz2.prefilter.outdated_endorsement" } ],
        "included_in_blocks":
          [ "BKogJSLyQHPtBPR86ek9BzrawLcVkti1nuC6RPU1zTDJbqo31dE" ] },
      { "delegate": "tz3NxTnke1acr8o3h5y9ytf5awQBGNJUKzVU",
        "reception_time": "2022-01-15T10:35:16.952-00:00",
        "errors":
          [ { "kind": "temporary",
              "id": "proto.011-PtHangz2.prefilter.outdated_endorsement" } ],
        "included_in_blocks":
          [ "BKogJSLyQHPtBPR86ek9BzrawLcVkti1nuC6RPU1zTDJbqo31dE" ] },
      { "delegate": "tz3QCNyySViKHmeSr45kzDxzchys7NiXCWoa",
        "reception_time": "2022-01-15T10:35:16.933-00:00",
        "errors":
          [ { "kind": "temporary",
              "id": "proto.011-PtHangz2.prefilter.outdated_endorsement" } ],
        "included_in_blocks":
          [ "BKogJSLyQHPtBPR86ek9BzrawLcVkti1nuC6RPU1zTDJbqo31dE" ] },
      { "delegate": "tz3ZbP2pM3nwvXztbuMJwJnDvV5xdpU8UkkD",
        "reception_time": "2022-01-15T10:35:16.886-00:00",
        "errors":
          [ { "kind": "temporary",
              "id": "proto.011-PtHangz2.prefilter.outdated_endorsement" } ],
        "included_in_blocks":
          [ "BKogJSLyQHPtBPR86ek9BzrawLcVkti1nuC6RPU1zTDJbqo31dE" ] },
      { "delegate": "tz1Ldzz6k1BHdhuKvAtMRX7h5kJSMHESMHLC",
        "reception_time": "2022-01-15T10:35:16.876-00:00",
        "errors":
          [ { "kind": "temporary",
              "id": "proto.011-PtHangz2.prefilter.outdated_endorsement" } ],
        "included_in_blocks":
          [ "BKogJSLyQHPtBPR86ek9BzrawLcVkti1nuC6RPU1zTDJbqo31dE" ] },
      { "delegate": "tz3iJu5vrKZcsqRPs8yJ61UDoeEXZmtro4qh",
        "reception_time": "2022-01-15T10:35:16.825-00:00",
        "errors":
          [ { "kind": "temporary",
              "id": "proto.011-PtHangz2.prefilter.outdated_endorsement" } ],
        "included_in_blocks":
          [ "BKogJSLyQHPtBPR86ek9BzrawLcVkti1nuC6RPU1zTDJbqo31dE" ] },
      { "delegate": "tz3Zhs2dygr55yHyQyKjntAtY9bgfhLZ4Xj1",
        "reception_time": "2022-01-15T10:35:16.811-00:00",
        "errors":
          [ { "kind": "temporary",
              "id": "proto.011-PtHangz2.prefilter.outdated_endorsement" } ],
        "included_in_blocks":
          [ "BKogJSLyQHPtBPR86ek9BzrawLcVkti1nuC6RPU1zTDJbqo31dE" ] },
      { "delegate": "tz3hw2kqXhLUvY65ca1eety2oQTpAvd34R9Q",
        "reception_time": "2022-01-15T10:35:16.748-00:00",
        "errors":
          [ { "kind": "temporary",
              "id": "proto.011-PtHangz2.prefilter.outdated_endorsement" } ],
        "included_in_blocks":
          [ "BKogJSLyQHPtBPR86ek9BzrawLcVkti1nuC6RPU1zTDJbqo31dE" ] },
      { "delegate": "tz3RKYFsLuQzKBtmYuLNas7uMu3AsYd4QdsA",
        "reception_time": "2022-01-15T10:35:16.724-00:00",
        "errors":
          [ { "kind": "temporary",
              "id": "proto.011-PtHangz2.prefilter.outdated_endorsement" } ],
        "included_in_blocks":
          [ "BKogJSLyQHPtBPR86ek9BzrawLcVkti1nuC6RPU1zTDJbqo31dE" ] },
      { "delegate": "tz1Scdr2HsZiQjc7bHMeBbmDRXYVvdhjJbBh",
        "reception_time": "2022-01-15T10:35:16.659-00:00",
        "errors":
          [ { "kind": "temporary",
              "id": "proto.011-PtHangz2.prefilter.outdated_endorsement" } ],
        "included_in_blocks":
          [ "BKogJSLyQHPtBPR86ek9BzrawLcVkti1nuC6RPU1zTDJbqo31dE" ] },
      { "delegate": "tz1P2Po7YM526ughEsRbY4oR9zaUPDZjxFrb",
        "reception_time": "2022-01-15T10:35:16.651-00:00",
        "errors":
          [ { "kind": "temporary",
              "id": "proto.011-PtHangz2.prefilter.outdated_endorsement" } ],
        "included_in_blocks":
          [ "BKogJSLyQHPtBPR86ek9BzrawLcVkti1nuC6RPU1zTDJbqo31dE" ] },
      { "delegate": "tz1eEnQhbwf6trb8Q8mPb2RaPkNk2rN7BKi8",
        "reception_time": "2022-01-15T10:35:16.588-00:00",
        "errors":
          [ { "kind": "temporary",
              "id": "proto.011-PtHangz2.prefilter.outdated_endorsement" } ],
        "included_in_blocks":
          [ "BKogJSLyQHPtBPR86ek9BzrawLcVkti1nuC6RPU1zTDJbqo31dE" ] },
      { "delegate": "tz1beersuEDv8Z7ngQ825xfbaJNS2EhXnyHR",
        "reception_time": "2022-01-15T10:35:16.401-00:00",
        "errors":
          [ { "kind": "temporary",
              "id": "proto.011-PtHangz2.prefilter.outdated_endorsement" } ],
        "included_in_blocks":
          [ "BKogJSLyQHPtBPR86ek9BzrawLcVkti1nuC6RPU1zTDJbqo31dE" ] },
      { "delegate": "tz1TXzyaKUA8wsWefdSnyaYFnV2M3vCV7er9",
        "reception_time": "2022-01-15T10:35:16.348-00:00",
        "errors":
          [ { "kind": "temporary",
              "id": "proto.011-PtHangz2.prefilter.outdated_endorsement" } ],
        "included_in_blocks":
          [ "BKogJSLyQHPtBPR86ek9BzrawLcVkti1nuC6RPU1zTDJbqo31dE" ] },
      { "delegate": "tz1MXFrtZoaXckE41bjUCSjAjAap3AFDSr3N",
        "reception_time": "2022-01-15T10:35:15.944-00:00",
        "errors":
          [ { "kind": "temporary",
              "id": "proto.011-PtHangz2.prefilter.outdated_endorsement" } ],
        "included_in_blocks":
          [ "BKogJSLyQHPtBPR86ek9BzrawLcVkti1nuC6RPU1zTDJbqo31dE" ] },
      { "delegate": "tz1irJKkXS2DBWkU1NnmFQx1c1L7pbGg4yhk",
        "reception_time": "2022-01-15T10:35:15.627-00:00",
        "errors":
          [ { "kind": "temporary",
              "id": "proto.011-PtHangz2.prefilter.outdated_endorsement" } ],
        "included_in_blocks":
          [ "BKogJSLyQHPtBPR86ek9BzrawLcVkti1nuC6RPU1zTDJbqo31dE" ] },
      { "delegate": "tz1XXayQohB8XRXN7kMoHbf2NFwNiH3oMRQQ",
        "reception_time": "2022-01-15T10:35:15.605-00:00",
        "errors":
          [ { "kind": "temporary",
              "id": "proto.011-PtHangz2.prefilter.outdated_endorsement" } ],
        "included_in_blocks":
          [ "BKogJSLyQHPtBPR86ek9BzrawLcVkti1nuC6RPU1zTDJbqo31dE" ] },
      { "delegate": "tz1NdhRv643wLW6zCcRP3VfT24dvDnh7nuh9" },
      { "delegate": "tz1ibcPVGK4Y8pcW4BYUsojiHoBKnZbyDGrX" },
      { "delegate": "tz1KfEsrtDaA1sX7vdM4qmEPWuSytuqCDp5j",
        "reception_time": "2022-01-15T10:35:18.822-00:00",
        "included_in_blocks":
          [ "BKogJSLyQHPtBPR86ek9BzrawLcVkti1nuC6RPU1zTDJbqo31dE" ] },
      { "delegate": "tz1S8MNvuFEUsWgjHvi3AxibRBf388NhT1q2",
        "reception_time": "2022-01-15T10:35:18.987-00:00",
        "included_in_blocks":
          [ "BKogJSLyQHPtBPR86ek9BzrawLcVkti1nuC6RPU1zTDJbqo31dE" ] },
      { "delegate": "tz3NDpRj6WBrJPikcPVHRBEjWKxFw3c6eQPS",
        "reception_time": "2022-01-15T10:35:19.170-00:00",
        "included_in_blocks":
          [ "BKogJSLyQHPtBPR86ek9BzrawLcVkti1nuC6RPU1zTDJbqo31dE" ] },
      { "delegate": "tz1WnfXMPaNTBmH7DBPwqCWs9cPDJdkGBTZ8",
        "reception_time": "2022-01-15T10:35:19.188-00:00",
        "included_in_blocks":
          [ "BKogJSLyQHPtBPR86ek9BzrawLcVkti1nuC6RPU1zTDJbqo31dE" ] },
      { "delegate": "tz1UMCB2AHSTwG7YcGNr31CqYCtGN873royv",
        "reception_time": "2022-01-15T10:35:19.191-00:00",
        "included_in_blocks":
          [ "BKogJSLyQHPtBPR86ek9BzrawLcVkti1nuC6RPU1zTDJbqo31dE" ] },
      { "delegate": "tz1VceyYUpq1gk5dtp6jXQRtCtY8hm5DKt72",
        "reception_time": "2022-01-15T10:35:19.191-00:00",
        "included_in_blocks":
          [ "BKogJSLyQHPtBPR86ek9BzrawLcVkti1nuC6RPU1zTDJbqo31dE" ] },
      { "delegate": "tz3UoffC7FG7zfpmvmjUmUeAaHvzdcUvAj6r",
        "reception_time": "2022-01-15T10:35:19.199-00:00",
        "included_in_blocks":
          [ "BKogJSLyQHPtBPR86ek9BzrawLcVkti1nuC6RPU1zTDJbqo31dE" ] },
      { "delegate": "tz3RDC3Jdn4j15J7bBHZd29EUee9gVB1CxD9",
        "reception_time": "2022-01-15T10:35:19.209-00:00",
        "included_in_blocks":
          [ "BKogJSLyQHPtBPR86ek9BzrawLcVkti1nuC6RPU1zTDJbqo31dE" ] },
      { "delegate": "tz1Nf6tsK4G6bBqgSQERy4nUtkHNKUVdh7q1",
        "reception_time": "2022-01-15T10:35:19.209-00:00",
        "included_in_blocks":
          [ "BKogJSLyQHPtBPR86ek9BzrawLcVkti1nuC6RPU1zTDJbqo31dE" ] },
      { "delegate": "tz1SohptP53wDPZhzTWzDUFAUcWF6DMBpaJV",
        "reception_time": "2022-01-15T10:35:19.213-00:00",
        "included_in_blocks":
          [ "BKogJSLyQHPtBPR86ek9BzrawLcVkti1nuC6RPU1zTDJbqo31dE" ] },
      { "delegate": "tz1aRoaRhSpRYvFdyvgWLL6TGyRoGF51wDjM",
        "reception_time": "2022-01-15T10:35:19.220-00:00",
        "included_in_blocks":
          [ "BKogJSLyQHPtBPR86ek9BzrawLcVkti1nuC6RPU1zTDJbqo31dE" ] },
      { "delegate": "tz1LmaFsWRkjr7QMCx5PtV6xTUz3AmEpKQiF",
        "reception_time": "2022-01-15T10:35:19.223-00:00",
        "included_in_blocks":
          [ "BKogJSLyQHPtBPR86ek9BzrawLcVkti1nuC6RPU1zTDJbqo31dE" ] },
      { "delegate": "tz3VEZ4k6a4Wx42iyev6i2aVAptTRLEAivNN",
        "reception_time": "2022-01-15T10:35:19.231-00:00",
        "included_in_blocks":
          [ "BKogJSLyQHPtBPR86ek9BzrawLcVkti1nuC6RPU1zTDJbqo31dE" ] },
      { "delegate": "tz3WMqdzXqRWXwyvj5Hp2H7QEepaUuS7vd9K",
        "reception_time": "2022-01-15T10:35:19.241-00:00",
        "included_in_blocks":
          [ "BKogJSLyQHPtBPR86ek9BzrawLcVkti1nuC6RPU1zTDJbqo31dE" ] },
      { "delegate": "tz1TEc75UKXv4W5cwi14Na3NtqFD51yKQi7h",
        "reception_time": "2022-01-15T10:35:19.261-00:00",
        "included_in_blocks":
          [ "BKogJSLyQHPtBPR86ek9BzrawLcVkti1nuC6RPU1zTDJbqo31dE" ] },
      { "delegate": "tz1dRKU4FQ9QRRQPdaH4zCR6gmCmXfcvcgtB",
        "reception_time": "2022-01-15T10:35:19.335-00:00",
        "included_in_blocks":
          [ "BKogJSLyQHPtBPR86ek9BzrawLcVkti1nuC6RPU1zTDJbqo31dE" ] },
      { "delegate": "tz1Z2jXfEXL7dXhs6bsLmyLFLfmAkXBzA9WE",
        "reception_time": "2022-01-15T10:35:19.390-00:00",
        "included_in_blocks":
          [ "BKogJSLyQHPtBPR86ek9BzrawLcVkti1nuC6RPU1zTDJbqo31dE" ] },
      { "delegate": "tz3adcvQaKXTCg12zbninqo3q8ptKKtDFTLv",
        "reception_time": "2022-01-15T10:35:19.789-00:00",
        "included_in_blocks":
          [ "BKogJSLyQHPtBPR86ek9BzrawLcVkti1nuC6RPU1zTDJbqo31dE" ] },
      { "delegate": "tz3NExpXn9aPNZPorRE4SdjJ2RGrfbJgMAaV",
        "reception_time": "2022-01-15T10:35:19.890-00:00",
        "included_in_blocks":
          [ "BKogJSLyQHPtBPR86ek9BzrawLcVkti1nuC6RPU1zTDJbqo31dE" ] },
      { "delegate": "tz1UvkANVPWppVgMkLnvN7BwYZsCP7vm6NVd",
        "reception_time": "2022-01-15T10:35:19.960-00:00",
        "included_in_blocks":
          [ "BKogJSLyQHPtBPR86ek9BzrawLcVkti1nuC6RPU1zTDJbqo31dE" ] },
      { "delegate": "tz1NEKxGEHsFufk87CVZcrqWu8o22qh46GK6",
        "reception_time": "2022-01-15T10:35:20.319-00:00",
        "included_in_blocks":
          [ "BKogJSLyQHPtBPR86ek9BzrawLcVkti1nuC6RPU1zTDJbqo31dE" ] },
      { "delegate": "tz1T7duV5gZWSTq4YpBGbXNLTfznCLDrFxvs",
        "reception_time": "2022-01-15T10:35:20.408-00:00",
        "included_in_blocks":
          [ "BKogJSLyQHPtBPR86ek9BzrawLcVkti1nuC6RPU1zTDJbqo31dE" ] },
      { "delegate": "tz1Vd1rXpV8hTHbFXCXN3c3qzCsgcU5BZw1e",
        "reception_time": "2022-01-15T10:35:20.800-00:00",
        "included_in_blocks":
          [ "BKogJSLyQHPtBPR86ek9BzrawLcVkti1nuC6RPU1zTDJbqo31dE" ] },
      { "delegate": "tz2FCNBrERXtaTtNX6iimR1UJ5JSDxvdHM93",
        "reception_time": "2022-01-15T10:35:21.153-00:00",
        "included_in_blocks":
          [ "BKogJSLyQHPtBPR86ek9BzrawLcVkti1nuC6RPU1zTDJbqo31dE" ] },
      { "delegate": "tz1TcH4Nb3aHNDJ7CGZhU7jgAK1BkSP4Lxds",
        "reception_time": "2022-01-15T10:35:21.184-00:00",
        "included_in_blocks":
          [ "BKogJSLyQHPtBPR86ek9BzrawLcVkti1nuC6RPU1zTDJbqo31dE" ] },
      { "delegate": "tz1RCFbB9GpALpsZtu6J58sb74dm8qe6XBzv",
        "reception_time": "2022-01-15T10:35:21.789-00:00",
        "included_in_blocks":
          [ "BKogJSLyQHPtBPR86ek9BzrawLcVkti1nuC6RPU1zTDJbqo31dE" ] },
      { "delegate": "tz1RjoHc98dBoqaH2jawF62XNKh7YsHwbkEv",
        "reception_time": "2022-01-15T10:35:22.769-00:00",
        "included_in_blocks":
          [ "BKogJSLyQHPtBPR86ek9BzrawLcVkti1nuC6RPU1zTDJbqo31dE" ] },
      { "delegate": "tz1cYufsxHXJcvANhvS55h3aY32a9BAFB494",
        "reception_time": "2022-01-15T10:35:23.319-00:00",
        "included_in_blocks":
          [ "BKogJSLyQHPtBPR86ek9BzrawLcVkti1nuC6RPU1zTDJbqo31dE" ] },
      { "delegate": "tz1TRqbYbUf2GyrjErf3hBzgBJPzW8y36qEs",
        "reception_time": "2022-01-15T10:35:24.945-00:00",
        "included_in_blocks":
          [ "BKogJSLyQHPtBPR86ek9BzrawLcVkti1nuC6RPU1zTDJbqo31dE" ] },
      { "delegate": "tz1eE4ERseiJfLTy3ydsdiitpCMbRRHEGhqM",
        "delegate_alias": "boutiger",
        "reception_time": "2022-01-15T10:35:25.556-00:00",
        "included_in_blocks":
          [ "BKogJSLyQHPtBPR86ek9BzrawLcVkti1nuC6RPU1zTDJbqo31dE" ] },
      { "delegate": "tz1g8vkmcde6sWKaG2NN9WKzCkDM6Rziq194",
        "reception_time": "2022-01-15T10:35:26.154-00:00",
        "included_in_blocks":
          [ "BKogJSLyQHPtBPR86ek9BzrawLcVkti1nuC6RPU1zTDJbqo31dE" ] },
      { "delegate": "tz1NfwaFPNcQi3icf37Ybz7bbqDmVmarFWtP",
        "reception_time": "2022-01-15T10:35:27.358-00:00",
        "included_in_blocks":
          [ "BKogJSLyQHPtBPR86ek9BzrawLcVkti1nuC6RPU1zTDJbqo31dE" ] },
      { "delegate": "tz1NpWrAyDL9k2Lmnyxcgr9xuJakbBxdq7FB",
        "reception_time": "2022-01-15T10:35:34.452-00:00",
        "included_in_blocks":
          [ "BKogJSLyQHPtBPR86ek9BzrawLcVkti1nuC6RPU1zTDJbqo31dE" ] } ] }