{ "blocks":
    [ { "hash": "BMYQD8kmGED8x3HDrTuizDm34fq4eBwR81TF5oAJCwuSmV14VaY",
        "delegate": "tz3NExpXn9aPNZPorRE4SdjJ2RGrfbJgMAaV",
        "reception_time": "2022-01-15T12:05:19.897-00:00",
        "timestamp": "2022-01-15T12:05:10Z" } ],
  "endorsements":
    [ { "delegate": "tz1MXFrtZoaXckE41bjUCSjAjAap3AFDSr3N",
        "reception_time": "2022-01-15T12:05:19.775-00:00",
        "errors":
          [ { "kind": "temporary",
              "id": "proto.011-PtHangz2.prefilter.outdated_endorsement" } ],
        "included_in_blocks":
          [ "BLUHUrgzg2B95MsVsTE8yTkvGNYS4vYqXgnFBR3ftxsqKML49mb" ] },
      { "delegate": "tz1S8e9GgdZG78XJRB3NqabfWeM37GnhZMWQ",
        "reception_time": "2022-01-15T12:05:19.708-00:00",
        "errors":
          [ { "kind": "temporary",
              "id": "proto.011-PtHangz2.prefilter.outdated_endorsement" } ],
        "included_in_blocks":
          [ "BLUHUrgzg2B95MsVsTE8yTkvGNYS4vYqXgnFBR3ftxsqKML49mb" ] },
      { "delegate": "tz1Scdr2HsZiQjc7bHMeBbmDRXYVvdhjJbBh",
        "reception_time": "2022-01-15T12:05:19.638-00:00",
        "errors":
          [ { "kind": "temporary",
              "id": "proto.011-PtHangz2.prefilter.outdated_endorsement" } ],
        "included_in_blocks":
          [ "BLUHUrgzg2B95MsVsTE8yTkvGNYS4vYqXgnFBR3ftxsqKML49mb" ] },
      { "delegate": "tz1Kt4P8BCaP93AEV4eA7gmpRryWt5hznjCP",
        "reception_time": "2022-01-15T12:05:19.621-00:00",
        "errors":
          [ { "kind": "temporary",
              "id": "proto.011-PtHangz2.prefilter.outdated_endorsement" } ],
        "included_in_blocks":
          [ "BLUHUrgzg2B95MsVsTE8yTkvGNYS4vYqXgnFBR3ftxsqKML49mb" ] },
      { "delegate": "tz1TRspM5SeZpaQUhzByXbEvqKF1vnCM2YTK" },
      { "delegate": "tz1P2Po7YM526ughEsRbY4oR9zaUPDZjxFrb",
        "reception_time": "2022-01-15T12:05:20.894-00:00",
        "included_in_blocks":
          [ "BLUHUrgzg2B95MsVsTE8yTkvGNYS4vYqXgnFBR3ftxsqKML49mb" ] },
      { "delegate": "tz1STeamwbp68THcny9zk3LsbG3H36DMvbRK",
        "reception_time": "2022-01-15T12:05:20.908-00:00",
        "included_in_blocks":
          [ "BLUHUrgzg2B95MsVsTE8yTkvGNYS4vYqXgnFBR3ftxsqKML49mb" ] },
      { "delegate": "tz1UtayNgAX8QEJ3NoLptPzoPr9JiH3Cskzz",
        "reception_time": "2022-01-15T12:05:21.107-00:00",
        "included_in_blocks":
          [ "BLUHUrgzg2B95MsVsTE8yTkvGNYS4vYqXgnFBR3ftxsqKML49mb" ] },
      { "delegate": "tz3ZbP2pM3nwvXztbuMJwJnDvV5xdpU8UkkD",
        "reception_time": "2022-01-15T12:05:21.153-00:00",
        "included_in_blocks":
          [ "BLUHUrgzg2B95MsVsTE8yTkvGNYS4vYqXgnFBR3ftxsqKML49mb" ] },
      { "delegate": "tz3NxTnke1acr8o3h5y9ytf5awQBGNJUKzVU",
        "reception_time": "2022-01-15T12:05:21.160-00:00",
        "included_in_blocks":
          [ "BLUHUrgzg2B95MsVsTE8yTkvGNYS4vYqXgnFBR3ftxsqKML49mb" ] },
      { "delegate": "tz1irJKkXS2DBWkU1NnmFQx1c1L7pbGg4yhk",
        "reception_time": "2022-01-15T12:05:21.169-00:00",
        "included_in_blocks":
          [ "BLUHUrgzg2B95MsVsTE8yTkvGNYS4vYqXgnFBR3ftxsqKML49mb" ] },
      { "delegate": "tz1MQMiZHV8q4tTwUMWmS5Y3kaP6J2136iXr",
        "reception_time": "2022-01-15T12:05:21.180-00:00",
        "included_in_blocks":
          [ "BLUHUrgzg2B95MsVsTE8yTkvGNYS4vYqXgnFBR3ftxsqKML49mb" ] },
      { "delegate": "tz1VQnqCCqX4K5sP3FNkVSNKTdCAMJDd3E1n",
        "reception_time": "2022-01-15T12:05:21.204-00:00",
        "included_in_blocks":
          [ "BLUHUrgzg2B95MsVsTE8yTkvGNYS4vYqXgnFBR3ftxsqKML49mb" ] },
      { "delegate": "tz1Ldzz6k1BHdhuKvAtMRX7h5kJSMHESMHLC",
        "reception_time": "2022-01-15T12:05:21.216-00:00",
        "included_in_blocks":
          [ "BLUHUrgzg2B95MsVsTE8yTkvGNYS4vYqXgnFBR3ftxsqKML49mb" ] },
      { "delegate": "tz3iJu5vrKZcsqRPs8yJ61UDoeEXZmtro4qh",
        "reception_time": "2022-01-15T12:05:21.263-00:00",
        "included_in_blocks":
          [ "BLUHUrgzg2B95MsVsTE8yTkvGNYS4vYqXgnFBR3ftxsqKML49mb" ] },
      { "delegate": "tz3Zhs2dygr55yHyQyKjntAtY9bgfhLZ4Xj1",
        "reception_time": "2022-01-15T12:05:21.281-00:00",
        "included_in_blocks":
          [ "BLUHUrgzg2B95MsVsTE8yTkvGNYS4vYqXgnFBR3ftxsqKML49mb" ] },
      { "delegate": "tz3S6BBeKgJGXxvLyZ1xzXzMPn11nnFtq5L9",
        "reception_time": "2022-01-15T12:05:21.281-00:00",
        "included_in_blocks":
          [ "BLUHUrgzg2B95MsVsTE8yTkvGNYS4vYqXgnFBR3ftxsqKML49mb" ] },
      { "delegate": "tz3QSGPoRp3Kn7n3vY24eYeu3Peuqo45LQ4D",
        "reception_time": "2022-01-15T12:05:21.307-00:00",
        "included_in_blocks":
          [ "BLUHUrgzg2B95MsVsTE8yTkvGNYS4vYqXgnFBR3ftxsqKML49mb" ] },
      { "delegate": "tz1eDDuQBEgwvc6tbnnCVrnr12tvrd6gBTpx",
        "reception_time": "2022-01-15T12:05:21.339-00:00",
        "included_in_blocks":
          [ "BLUHUrgzg2B95MsVsTE8yTkvGNYS4vYqXgnFBR3ftxsqKML49mb" ] },
      { "delegate": "tz3QT9dHYKDqh563chVa6za8526ys1UKfRfL",
        "reception_time": "2022-01-15T12:05:21.339-00:00",
        "included_in_blocks":
          [ "BLUHUrgzg2B95MsVsTE8yTkvGNYS4vYqXgnFBR3ftxsqKML49mb" ] },
      { "delegate": "tz1S8MNvuFEUsWgjHvi3AxibRBf388NhT1q2",
        "reception_time": "2022-01-15T12:05:21.343-00:00",
        "included_in_blocks":
          [ "BLUHUrgzg2B95MsVsTE8yTkvGNYS4vYqXgnFBR3ftxsqKML49mb" ] },
      { "delegate": "tz3gtoUxdudfBRcNY7iVdKPHCYYX6xdPpoRS",
        "reception_time": "2022-01-15T12:05:21.354-00:00",
        "included_in_blocks":
          [ "BLUHUrgzg2B95MsVsTE8yTkvGNYS4vYqXgnFBR3ftxsqKML49mb" ] },
      { "delegate": "tz1VmiY38m3y95HqQLjMwqnMS7sdMfGomzKi",
        "reception_time": "2022-01-15T12:05:21.375-00:00",
        "included_in_blocks":
          [ "BLUHUrgzg2B95MsVsTE8yTkvGNYS4vYqXgnFBR3ftxsqKML49mb" ] },
      { "delegate": "tz1aXD7Jigrt3PBYSpHSg5Rr33SexMmmM5Ys",
        "reception_time": "2022-01-15T12:05:21.396-00:00",
        "included_in_blocks":
          [ "BLUHUrgzg2B95MsVsTE8yTkvGNYS4vYqXgnFBR3ftxsqKML49mb" ] },
      { "delegate": "tz1fUyqYH7H4pRHN1roWY17giXhy1RvxjgUV",
        "reception_time": "2022-01-15T12:05:21.451-00:00",
        "included_in_blocks":
          [ "BLUHUrgzg2B95MsVsTE8yTkvGNYS4vYqXgnFBR3ftxsqKML49mb" ] },
      { "delegate": "tz3hw2kqXhLUvY65ca1eety2oQTpAvd34R9Q",
        "reception_time": "2022-01-15T12:05:21.477-00:00",
        "included_in_blocks":
          [ "BLUHUrgzg2B95MsVsTE8yTkvGNYS4vYqXgnFBR3ftxsqKML49mb" ] },
      { "delegate": "tz1RjoHc98dBoqaH2jawF62XNKh7YsHwbkEv",
        "reception_time": "2022-01-15T12:05:21.498-00:00",
        "included_in_blocks":
          [ "BLUHUrgzg2B95MsVsTE8yTkvGNYS4vYqXgnFBR3ftxsqKML49mb" ] },
      { "delegate": "tz3bvNMQ95vfAYtG8193ymshqjSvmxiCUuR5",
        "reception_time": "2022-01-15T12:05:21.570-00:00",
        "included_in_blocks":
          [ "BLUHUrgzg2B95MsVsTE8yTkvGNYS4vYqXgnFBR3ftxsqKML49mb" ] },
      { "delegate": "tz3RKYFsLuQzKBtmYuLNas7uMu3AsYd4QdsA",
        "reception_time": "2022-01-15T12:05:21.619-00:00",
        "included_in_blocks":
          [ "BLUHUrgzg2B95MsVsTE8yTkvGNYS4vYqXgnFBR3ftxsqKML49mb" ] },
      { "delegate": "tz1TzaNn7wSQSP5gYPXCnNzBCpyMiidCq1PX",
        "reception_time": "2022-01-15T12:05:21.629-00:00",
        "included_in_blocks":
          [ "BLUHUrgzg2B95MsVsTE8yTkvGNYS4vYqXgnFBR3ftxsqKML49mb" ] },
      { "delegate": "tz3VEZ4k6a4Wx42iyev6i2aVAptTRLEAivNN",
        "reception_time": "2022-01-15T12:05:21.638-00:00",
        "included_in_blocks":
          [ "BLUHUrgzg2B95MsVsTE8yTkvGNYS4vYqXgnFBR3ftxsqKML49mb" ] },
      { "delegate": "tz3NExpXn9aPNZPorRE4SdjJ2RGrfbJgMAaV",
        "reception_time": "2022-01-15T12:05:21.649-00:00",
        "included_in_blocks":
          [ "BLUHUrgzg2B95MsVsTE8yTkvGNYS4vYqXgnFBR3ftxsqKML49mb" ] },
      { "delegate": "tz1LnWa4AiFCjMezTgSNa65QFoo7DQGEWgEU",
        "reception_time": "2022-01-15T12:05:21.652-00:00",
        "included_in_blocks":
          [ "BLUHUrgzg2B95MsVsTE8yTkvGNYS4vYqXgnFBR3ftxsqKML49mb" ] },
      { "delegate": "tz1WCd2jm4uSt4vntk4vSuUWoZQGhLcDuR9q",
        "reception_time": "2022-01-15T12:05:21.670-00:00",
        "included_in_blocks":
          [ "BLUHUrgzg2B95MsVsTE8yTkvGNYS4vYqXgnFBR3ftxsqKML49mb" ] },
      { "delegate": "tz3WMqdzXqRWXwyvj5Hp2H7QEepaUuS7vd9K",
        "reception_time": "2022-01-15T12:05:21.694-00:00",
        "included_in_blocks":
          [ "BLUHUrgzg2B95MsVsTE8yTkvGNYS4vYqXgnFBR3ftxsqKML49mb" ] },
      { "delegate": "tz1gfArv665EUkSg2ojMBzcbfwuPxAvqPvjo",
        "reception_time": "2022-01-15T12:05:21.703-00:00",
        "included_in_blocks":
          [ "BLUHUrgzg2B95MsVsTE8yTkvGNYS4vYqXgnFBR3ftxsqKML49mb" ] },
      { "delegate": "tz3bTdwZinP8U1JmSweNzVKhmwafqWmFWRfk",
        "reception_time": "2022-01-15T12:05:21.716-00:00",
        "included_in_blocks":
          [ "BLUHUrgzg2B95MsVsTE8yTkvGNYS4vYqXgnFBR3ftxsqKML49mb" ] },
      { "delegate": "tz3adcvQaKXTCg12zbninqo3q8ptKKtDFTLv",
        "reception_time": "2022-01-15T12:05:21.751-00:00",
        "included_in_blocks":
          [ "BLUHUrgzg2B95MsVsTE8yTkvGNYS4vYqXgnFBR3ftxsqKML49mb" ] },
      { "delegate": "tz1RCFbB9GpALpsZtu6J58sb74dm8qe6XBzv",
        "reception_time": "2022-01-15T12:05:21.781-00:00",
        "included_in_blocks":
          [ "BLUHUrgzg2B95MsVsTE8yTkvGNYS4vYqXgnFBR3ftxsqKML49mb" ] },
      { "delegate": "tz1U2ufqFdVkN2RdYormwHtgm3ityYY1uqft",
        "reception_time": "2022-01-15T12:05:21.817-00:00",
        "included_in_blocks":
          [ "BLUHUrgzg2B95MsVsTE8yTkvGNYS4vYqXgnFBR3ftxsqKML49mb" ] },
      { "delegate": "tz1UJvHTgpVzcKWhTazGxVcn5wsHru5Gietg",
        "reception_time": "2022-01-15T12:05:21.850-00:00",
        "included_in_blocks":
          [ "BLUHUrgzg2B95MsVsTE8yTkvGNYS4vYqXgnFBR3ftxsqKML49mb" ] },
      { "delegate": "tz1d6Fx42mYgVFnHUW8T8A7WBfJ6nD9pVok8",
        "reception_time": "2022-01-15T12:05:21.906-00:00",
        "included_in_blocks":
          [ "BLUHUrgzg2B95MsVsTE8yTkvGNYS4vYqXgnFBR3ftxsqKML49mb" ] },
      { "delegate": "tz1SUgyRB8T5jXgXAwS33pgRHAKrafyg87Yc",
        "reception_time": "2022-01-15T12:05:21.942-00:00",
        "included_in_blocks":
          [ "BLUHUrgzg2B95MsVsTE8yTkvGNYS4vYqXgnFBR3ftxsqKML49mb" ] },
      { "delegate": "tz2FCNBrERXtaTtNX6iimR1UJ5JSDxvdHM93",
        "reception_time": "2022-01-15T12:05:21.995-00:00",
        "included_in_blocks":
          [ "BLUHUrgzg2B95MsVsTE8yTkvGNYS4vYqXgnFBR3ftxsqKML49mb" ] },
      { "delegate": "tz1NEKxGEHsFufk87CVZcrqWu8o22qh46GK6",
        "reception_time": "2022-01-15T12:05:22.009-00:00",
        "included_in_blocks":
          [ "BLUHUrgzg2B95MsVsTE8yTkvGNYS4vYqXgnFBR3ftxsqKML49mb" ] },
      { "delegate": "tz1V4qCyvPKZ5UeqdH14HN42rxvNPQfc9UZg",
        "reception_time": "2022-01-15T12:05:22.037-00:00",
        "included_in_blocks":
          [ "BLUHUrgzg2B95MsVsTE8yTkvGNYS4vYqXgnFBR3ftxsqKML49mb" ] },
      { "delegate": "tz1PWCDnz783NNGGQjEFFsHtrcK5yBW4E2rm",
        "reception_time": "2022-01-15T12:05:22.040-00:00",
        "included_in_blocks":
          [ "BLUHUrgzg2B95MsVsTE8yTkvGNYS4vYqXgnFBR3ftxsqKML49mb" ] },
      { "delegate": "tz1fwnfJNgiDACshK9avfRfFbMaXrs3ghoJa",
        "reception_time": "2022-01-15T12:05:22.068-00:00",
        "included_in_blocks":
          [ "BLUHUrgzg2B95MsVsTE8yTkvGNYS4vYqXgnFBR3ftxsqKML49mb" ] },
      { "delegate": "tz1TEc75UKXv4W5cwi14Na3NtqFD51yKQi7h",
        "reception_time": "2022-01-15T12:05:22.081-00:00",
        "included_in_blocks":
          [ "BLUHUrgzg2B95MsVsTE8yTkvGNYS4vYqXgnFBR3ftxsqKML49mb" ] },
      { "delegate": "tz1SohptP53wDPZhzTWzDUFAUcWF6DMBpaJV",
        "reception_time": "2022-01-15T12:05:22.100-00:00",
        "included_in_blocks":
          [ "BLUHUrgzg2B95MsVsTE8yTkvGNYS4vYqXgnFBR3ftxsqKML49mb" ] },
      { "delegate": "tz1eEnQhbwf6trb8Q8mPb2RaPkNk2rN7BKi8",
        "reception_time": "2022-01-15T12:05:22.193-00:00",
        "included_in_blocks":
          [ "BLUHUrgzg2B95MsVsTE8yTkvGNYS4vYqXgnFBR3ftxsqKML49mb" ] },
      { "delegate": "tz1Nf6tsK4G6bBqgSQERy4nUtkHNKUVdh7q1",
        "reception_time": "2022-01-15T12:05:22.240-00:00",
        "included_in_blocks":
          [ "BLUHUrgzg2B95MsVsTE8yTkvGNYS4vYqXgnFBR3ftxsqKML49mb" ] },
      { "delegate": "tz3RB4aoyjov4KEVRbuhvQ1CKJgBJMWhaeB8",
        "reception_time": "2022-01-15T12:05:22.288-00:00",
        "included_in_blocks":
          [ "BLUHUrgzg2B95MsVsTE8yTkvGNYS4vYqXgnFBR3ftxsqKML49mb" ] },
      { "delegate": "tz1TRqbYbUf2GyrjErf3hBzgBJPzW8y36qEs",
        "reception_time": "2022-01-15T12:05:22.315-00:00",
        "included_in_blocks":
          [ "BLUHUrgzg2B95MsVsTE8yTkvGNYS4vYqXgnFBR3ftxsqKML49mb" ] },
      { "delegate": "tz1dNVDWPf3Q59SdJqnjdnu277iyvReiRS9M",
        "reception_time": "2022-01-15T12:05:22.333-00:00",
        "included_in_blocks":
          [ "BLUHUrgzg2B95MsVsTE8yTkvGNYS4vYqXgnFBR3ftxsqKML49mb" ] },
      { "delegate": "tz3RDC3Jdn4j15J7bBHZd29EUee9gVB1CxD9",
        "reception_time": "2022-01-15T12:05:22.333-00:00",
        "included_in_blocks":
          [ "BLUHUrgzg2B95MsVsTE8yTkvGNYS4vYqXgnFBR3ftxsqKML49mb" ] },
      { "delegate": "tz3UoffC7FG7zfpmvmjUmUeAaHvzdcUvAj6r",
        "reception_time": "2022-01-15T12:05:22.376-00:00",
        "included_in_blocks":
          [ "BLUHUrgzg2B95MsVsTE8yTkvGNYS4vYqXgnFBR3ftxsqKML49mb" ] },
      { "delegate": "tz1Z2jXfEXL7dXhs6bsLmyLFLfmAkXBzA9WE",
        "reception_time": "2022-01-15T12:05:22.692-00:00",
        "included_in_blocks":
          [ "BLUHUrgzg2B95MsVsTE8yTkvGNYS4vYqXgnFBR3ftxsqKML49mb" ] },
      { "delegate": "tz1UVFkBnZzy2WGzs7415DNwsbvuyvz4ZznB",
        "reception_time": "2022-01-15T12:05:22.908-00:00",
        "included_in_blocks":
          [ "BLUHUrgzg2B95MsVsTE8yTkvGNYS4vYqXgnFBR3ftxsqKML49mb" ] },
      { "delegate": "tz1aRoaRhSpRYvFdyvgWLL6TGyRoGF51wDjM",
        "reception_time": "2022-01-15T12:05:22.975-00:00",
        "included_in_blocks":
          [ "BLUHUrgzg2B95MsVsTE8yTkvGNYS4vYqXgnFBR3ftxsqKML49mb" ] },
      { "delegate": "tz1NMNQYrYrfNpmUqQrMhJypf6ovnaDZhJHM",
        "reception_time": "2022-01-15T12:05:23.027-00:00",
        "included_in_blocks":
          [ "BLUHUrgzg2B95MsVsTE8yTkvGNYS4vYqXgnFBR3ftxsqKML49mb" ] },
      { "delegate": "tz1T7duV5gZWSTq4YpBGbXNLTfznCLDrFxvs",
        "reception_time": "2022-01-15T12:05:23.127-00:00",
        "included_in_blocks":
          [ "BLUHUrgzg2B95MsVsTE8yTkvGNYS4vYqXgnFBR3ftxsqKML49mb" ] },
      { "delegate": "tz1awXW7wuXy21c66vBudMXQVAPgRnqqwgTH",
        "reception_time": "2022-01-15T12:05:23.141-00:00",
        "included_in_blocks":
          [ "BLUHUrgzg2B95MsVsTE8yTkvGNYS4vYqXgnFBR3ftxsqKML49mb" ] },
      { "delegate": "tz1inhpLat1tg2R6upJMmHNfWfRzu5d6ZxKJ",
        "reception_time": "2022-01-15T12:05:23.283-00:00",
        "included_in_blocks":
          [ "BLUHUrgzg2B95MsVsTE8yTkvGNYS4vYqXgnFBR3ftxsqKML49mb" ] },
      { "delegate": "tz1PFeoTuFen8jAMRHajBySNyCwLmY5RqF9M",
        "reception_time": "2022-01-15T12:05:23.414-00:00",
        "included_in_blocks":
          [ "BLUHUrgzg2B95MsVsTE8yTkvGNYS4vYqXgnFBR3ftxsqKML49mb" ] },
      { "delegate": "tz1fJHFn6sWEd3NnBPngACuw2dggTv6nQZ7g",
        "reception_time": "2022-01-15T12:05:23.558-00:00",
        "included_in_blocks":
          [ "BLUHUrgzg2B95MsVsTE8yTkvGNYS4vYqXgnFBR3ftxsqKML49mb" ] },
      { "delegate": "tz1LcuQHNVQEWP2fZjk1QYZGNrfLDwrT3SyZ",
        "reception_time": "2022-01-15T12:05:23.715-00:00",
        "included_in_blocks":
          [ "BLUHUrgzg2B95MsVsTE8yTkvGNYS4vYqXgnFBR3ftxsqKML49mb" ] },
      { "delegate": "tz1aJS7Pk9uWR3wWyFf1i3RwhYxN84G7stom",
        "reception_time": "2022-01-15T12:05:24.524-00:00",
        "included_in_blocks":
          [ "BLUHUrgzg2B95MsVsTE8yTkvGNYS4vYqXgnFBR3ftxsqKML49mb" ] },
      { "delegate": "tz1W5VkdB5s7ENMESVBtwyt9kyvLqPcUczRT",
        "reception_time": "2022-01-15T12:05:24.732-00:00",
        "included_in_blocks":
          [ "BLUHUrgzg2B95MsVsTE8yTkvGNYS4vYqXgnFBR3ftxsqKML49mb" ] },
      { "delegate": "tz1NpWrAyDL9k2Lmnyxcgr9xuJakbBxdq7FB",
        "reception_time": "2022-01-15T12:05:28.043-00:00",
        "included_in_blocks":
          [ "BLUHUrgzg2B95MsVsTE8yTkvGNYS4vYqXgnFBR3ftxsqKML49mb" ] } ] }