{ "blocks":
    [ { "hash": "BLAonjopvSFDeipbqwjmFYWFuAx9u2kscGmVet5tad6aDkBuwod",
        "delegate": "tz3QSGPoRp3Kn7n3vY24eYeu3Peuqo45LQ4D",
        "reception_time": "2022-01-15T04:52:24.323-00:00",
        "timestamp": "2022-01-15T04:52:20Z" } ],
  "endorsements":
    [ { "delegate": "tz1TRspM5SeZpaQUhzByXbEvqKF1vnCM2YTK" },
      { "delegate": "tz1STeamwbp68THcny9zk3LsbG3H36DMvbRK",
        "reception_time": "2022-01-15T04:52:25.035-00:00",
        "included_in_blocks":
          [ "BLAoxCeV5Y3UX3xvr9J9wJKBu875vA1q6eiMcfmHdNVqjZZCEhq" ] },
      { "delegate": "tz1Scdr2HsZiQjc7bHMeBbmDRXYVvdhjJbBh",
        "reception_time": "2022-01-15T04:52:25.035-00:00",
        "included_in_blocks":
          [ "BLAoxCeV5Y3UX3xvr9J9wJKBu875vA1q6eiMcfmHdNVqjZZCEhq" ] },
      { "delegate": "tz3QSGPoRp3Kn7n3vY24eYeu3Peuqo45LQ4D",
        "reception_time": "2022-01-15T04:52:25.051-00:00",
        "included_in_blocks":
          [ "BLAoxCeV5Y3UX3xvr9J9wJKBu875vA1q6eiMcfmHdNVqjZZCEhq" ] },
      { "delegate": "tz1eEnQhbwf6trb8Q8mPb2RaPkNk2rN7BKi8",
        "reception_time": "2022-01-15T04:52:25.056-00:00",
        "included_in_blocks":
          [ "BLAoxCeV5Y3UX3xvr9J9wJKBu875vA1q6eiMcfmHdNVqjZZCEhq" ] },
      { "delegate": "tz1irJKkXS2DBWkU1NnmFQx1c1L7pbGg4yhk",
        "reception_time": "2022-01-15T04:52:25.059-00:00",
        "included_in_blocks":
          [ "BLAoxCeV5Y3UX3xvr9J9wJKBu875vA1q6eiMcfmHdNVqjZZCEhq" ] },
      { "delegate": "tz3gtoUxdudfBRcNY7iVdKPHCYYX6xdPpoRS",
        "reception_time": "2022-01-15T04:52:25.068-00:00",
        "included_in_blocks":
          [ "BLAoxCeV5Y3UX3xvr9J9wJKBu875vA1q6eiMcfmHdNVqjZZCEhq" ] },
      { "delegate": "tz1P2Po7YM526ughEsRbY4oR9zaUPDZjxFrb",
        "reception_time": "2022-01-15T04:52:25.072-00:00",
        "included_in_blocks":
          [ "BLAoxCeV5Y3UX3xvr9J9wJKBu875vA1q6eiMcfmHdNVqjZZCEhq" ] },
      { "delegate": "tz3ZbP2pM3nwvXztbuMJwJnDvV5xdpU8UkkD",
        "reception_time": "2022-01-15T04:52:25.131-00:00",
        "included_in_blocks":
          [ "BLAoxCeV5Y3UX3xvr9J9wJKBu875vA1q6eiMcfmHdNVqjZZCEhq" ] },
      { "delegate": "tz3NxTnke1acr8o3h5y9ytf5awQBGNJUKzVU",
        "reception_time": "2022-01-15T04:52:25.153-00:00",
        "included_in_blocks":
          [ "BLAoxCeV5Y3UX3xvr9J9wJKBu875vA1q6eiMcfmHdNVqjZZCEhq" ] },
      { "delegate": "tz1VQnqCCqX4K5sP3FNkVSNKTdCAMJDd3E1n",
        "reception_time": "2022-01-15T04:52:25.185-00:00",
        "included_in_blocks":
          [ "BLAoxCeV5Y3UX3xvr9J9wJKBu875vA1q6eiMcfmHdNVqjZZCEhq" ] },
      { "delegate": "tz3hw2kqXhLUvY65ca1eety2oQTpAvd34R9Q",
        "reception_time": "2022-01-15T04:52:25.192-00:00",
        "included_in_blocks":
          [ "BLAoxCeV5Y3UX3xvr9J9wJKBu875vA1q6eiMcfmHdNVqjZZCEhq" ] },
      { "delegate": "tz3iJu5vrKZcsqRPs8yJ61UDoeEXZmtro4qh",
        "reception_time": "2022-01-15T04:52:25.229-00:00",
        "included_in_blocks":
          [ "BLAoxCeV5Y3UX3xvr9J9wJKBu875vA1q6eiMcfmHdNVqjZZCEhq" ] },
      { "delegate": "tz3QT9dHYKDqh563chVa6za8526ys1UKfRfL",
        "reception_time": "2022-01-15T04:52:25.294-00:00",
        "included_in_blocks":
          [ "BLAoxCeV5Y3UX3xvr9J9wJKBu875vA1q6eiMcfmHdNVqjZZCEhq" ] },
      { "delegate": "tz3S6BBeKgJGXxvLyZ1xzXzMPn11nnFtq5L9",
        "reception_time": "2022-01-15T04:52:25.316-00:00",
        "included_in_blocks":
          [ "BLAoxCeV5Y3UX3xvr9J9wJKBu875vA1q6eiMcfmHdNVqjZZCEhq" ] },
      { "delegate": "tz1Ldzz6k1BHdhuKvAtMRX7h5kJSMHESMHLC",
        "reception_time": "2022-01-15T04:52:25.356-00:00",
        "included_in_blocks":
          [ "BLAoxCeV5Y3UX3xvr9J9wJKBu875vA1q6eiMcfmHdNVqjZZCEhq" ] },
      { "delegate": "tz1Kt4P8BCaP93AEV4eA7gmpRryWt5hznjCP",
        "reception_time": "2022-01-15T04:52:25.374-00:00",
        "included_in_blocks":
          [ "BLAoxCeV5Y3UX3xvr9J9wJKBu875vA1q6eiMcfmHdNVqjZZCEhq" ] },
      { "delegate": "tz1TzaNn7wSQSP5gYPXCnNzBCpyMiidCq1PX",
        "reception_time": "2022-01-15T04:52:25.381-00:00",
        "included_in_blocks":
          [ "BLAoxCeV5Y3UX3xvr9J9wJKBu875vA1q6eiMcfmHdNVqjZZCEhq" ] },
      { "delegate": "tz3QCNyySViKHmeSr45kzDxzchys7NiXCWoa",
        "reception_time": "2022-01-15T04:52:25.526-00:00",
        "included_in_blocks":
          [ "BLAoxCeV5Y3UX3xvr9J9wJKBu875vA1q6eiMcfmHdNVqjZZCEhq" ] },
      { "delegate": "tz1d6Fx42mYgVFnHUW8T8A7WBfJ6nD9pVok8",
        "reception_time": "2022-01-15T04:52:25.534-00:00",
        "included_in_blocks":
          [ "BLAoxCeV5Y3UX3xvr9J9wJKBu875vA1q6eiMcfmHdNVqjZZCEhq" ] },
      { "delegate": "tz1WCd2jm4uSt4vntk4vSuUWoZQGhLcDuR9q",
        "reception_time": "2022-01-15T04:52:25.565-00:00",
        "included_in_blocks":
          [ "BLAoxCeV5Y3UX3xvr9J9wJKBu875vA1q6eiMcfmHdNVqjZZCEhq" ] },
      { "delegate": "tz1RCFbB9GpALpsZtu6J58sb74dm8qe6XBzv",
        "reception_time": "2022-01-15T04:52:25.708-00:00",
        "included_in_blocks":
          [ "BLAoxCeV5Y3UX3xvr9J9wJKBu875vA1q6eiMcfmHdNVqjZZCEhq" ] },
      { "delegate": "tz1W3VYi3gSt9Xgfw6WNV1aGZRPH2BsskMEY",
        "reception_time": "2022-01-15T04:52:25.849-00:00",
        "included_in_blocks":
          [ "BLAoxCeV5Y3UX3xvr9J9wJKBu875vA1q6eiMcfmHdNVqjZZCEhq" ] },
      { "delegate": "tz1VmiY38m3y95HqQLjMwqnMS7sdMfGomzKi",
        "reception_time": "2022-01-15T04:52:25.975-00:00",
        "included_in_blocks":
          [ "BLAoxCeV5Y3UX3xvr9J9wJKBu875vA1q6eiMcfmHdNVqjZZCEhq" ] },
      { "delegate": "tz3RB4aoyjov4KEVRbuhvQ1CKJgBJMWhaeB8",
        "reception_time": "2022-01-15T04:52:26.015-00:00",
        "included_in_blocks":
          [ "BLAoxCeV5Y3UX3xvr9J9wJKBu875vA1q6eiMcfmHdNVqjZZCEhq" ] },
      { "delegate": "tz1MQJPGNMijnXnVoBENFz9rUhaPt3S7rWoz",
        "reception_time": "2022-01-15T04:52:26.027-00:00",
        "included_in_blocks":
          [ "BLAoxCeV5Y3UX3xvr9J9wJKBu875vA1q6eiMcfmHdNVqjZZCEhq" ] },
      { "delegate": "tz1PWCDnz783NNGGQjEFFsHtrcK5yBW4E2rm",
        "reception_time": "2022-01-15T04:52:26.107-00:00",
        "included_in_blocks":
          [ "BLAoxCeV5Y3UX3xvr9J9wJKBu875vA1q6eiMcfmHdNVqjZZCEhq" ] },
      { "delegate": "tz1Mc61yajNASzh5KWZFtYs4i7EJbzAxQC4K",
        "reception_time": "2022-01-15T04:52:26.132-00:00",
        "included_in_blocks":
          [ "BLAoxCeV5Y3UX3xvr9J9wJKBu875vA1q6eiMcfmHdNVqjZZCEhq" ] },
      { "delegate": "tz1S8MNvuFEUsWgjHvi3AxibRBf388NhT1q2",
        "reception_time": "2022-01-15T04:52:26.146-00:00",
        "included_in_blocks":
          [ "BLAoxCeV5Y3UX3xvr9J9wJKBu875vA1q6eiMcfmHdNVqjZZCEhq" ] },
      { "delegate": "tz1fPKAtsYydh4f1wfWNfeNxWYu72TmM48fu",
        "reception_time": "2022-01-15T04:52:26.233-00:00",
        "included_in_blocks":
          [ "BLAoxCeV5Y3UX3xvr9J9wJKBu875vA1q6eiMcfmHdNVqjZZCEhq" ] },
      { "delegate": "tz1gfArv665EUkSg2ojMBzcbfwuPxAvqPvjo",
        "reception_time": "2022-01-15T04:52:26.240-00:00",
        "included_in_blocks":
          [ "BLAoxCeV5Y3UX3xvr9J9wJKBu875vA1q6eiMcfmHdNVqjZZCEhq" ] },
      { "delegate": "tz2FCNBrERXtaTtNX6iimR1UJ5JSDxvdHM93",
        "reception_time": "2022-01-15T04:52:26.275-00:00",
        "included_in_blocks":
          [ "BLAoxCeV5Y3UX3xvr9J9wJKBu875vA1q6eiMcfmHdNVqjZZCEhq" ] },
      { "delegate": "tz1LmaFsWRkjr7QMCx5PtV6xTUz3AmEpKQiF",
        "reception_time": "2022-01-15T04:52:26.281-00:00",
        "included_in_blocks":
          [ "BLAoxCeV5Y3UX3xvr9J9wJKBu875vA1q6eiMcfmHdNVqjZZCEhq" ] },
      { "delegate": "tz1TRqbYbUf2GyrjErf3hBzgBJPzW8y36qEs",
        "reception_time": "2022-01-15T04:52:26.285-00:00",
        "included_in_blocks":
          [ "BLAoxCeV5Y3UX3xvr9J9wJKBu875vA1q6eiMcfmHdNVqjZZCEhq" ] },
      { "delegate": "tz1LXpCpLNRhP7G9Yw8dRhWd8ZfH8929uvGo",
        "reception_time": "2022-01-15T04:52:26.364-00:00",
        "included_in_blocks":
          [ "BLAoxCeV5Y3UX3xvr9J9wJKBu875vA1q6eiMcfmHdNVqjZZCEhq" ] },
      { "delegate": "tz1ei4WtWEMEJekSv8qDnu9PExG6Q8HgRGr3",
        "reception_time": "2022-01-15T04:52:26.373-00:00",
        "included_in_blocks":
          [ "BLAoxCeV5Y3UX3xvr9J9wJKBu875vA1q6eiMcfmHdNVqjZZCEhq" ] },
      { "delegate": "tz1Nf6tsK4G6bBqgSQERy4nUtkHNKUVdh7q1",
        "reception_time": "2022-01-15T04:52:26.462-00:00",
        "included_in_blocks":
          [ "BLAoxCeV5Y3UX3xvr9J9wJKBu875vA1q6eiMcfmHdNVqjZZCEhq" ] },
      { "delegate": "tz1YhNsiRRU8aHNGg7NK3uuP6UDAyacJernB",
        "reception_time": "2022-01-15T04:52:26.515-00:00",
        "included_in_blocks":
          [ "BLAoxCeV5Y3UX3xvr9J9wJKBu875vA1q6eiMcfmHdNVqjZZCEhq" ] },
      { "delegate": "tz1WBfwbT66FC6BTLexc2BoyCCBM9LG7pnVW",
        "reception_time": "2022-01-15T04:52:26.519-00:00",
        "included_in_blocks":
          [ "BLAoxCeV5Y3UX3xvr9J9wJKBu875vA1q6eiMcfmHdNVqjZZCEhq" ] },
      { "delegate": "tz1Q8QkSBS63ZQnH3fBTiAMPes9R666Rn6Sc",
        "reception_time": "2022-01-15T04:52:26.596-00:00",
        "included_in_blocks":
          [ "BLAoxCeV5Y3UX3xvr9J9wJKBu875vA1q6eiMcfmHdNVqjZZCEhq" ] },
      { "delegate": "tz1SYq214SCBy9naR6cvycQsYcUGpBqQAE8d",
        "reception_time": "2022-01-15T04:52:26.704-00:00",
        "included_in_blocks":
          [ "BLAoxCeV5Y3UX3xvr9J9wJKBu875vA1q6eiMcfmHdNVqjZZCEhq" ] },
      { "delegate": "tz1fwnfJNgiDACshK9avfRfFbMaXrs3ghoJa",
        "reception_time": "2022-01-15T04:52:26.731-00:00",
        "included_in_blocks":
          [ "BLAoxCeV5Y3UX3xvr9J9wJKBu875vA1q6eiMcfmHdNVqjZZCEhq" ] },
      { "delegate": "tz1UMCB2AHSTwG7YcGNr31CqYCtGN873royv",
        "reception_time": "2022-01-15T04:52:26.791-00:00",
        "included_in_blocks":
          [ "BLAoxCeV5Y3UX3xvr9J9wJKBu875vA1q6eiMcfmHdNVqjZZCEhq" ] },
      { "delegate": "tz1RjoHc98dBoqaH2jawF62XNKh7YsHwbkEv",
        "reception_time": "2022-01-15T04:52:26.827-00:00",
        "included_in_blocks":
          [ "BLAoxCeV5Y3UX3xvr9J9wJKBu875vA1q6eiMcfmHdNVqjZZCEhq" ] },
      { "delegate": "tz1axcnVN9tZnCe4sQQhC6f3tfSEXdjPaXPY",
        "reception_time": "2022-01-15T04:52:26.868-00:00",
        "included_in_blocks":
          [ "BLAoxCeV5Y3UX3xvr9J9wJKBu875vA1q6eiMcfmHdNVqjZZCEhq" ] },
      { "delegate": "tz1awXW7wuXy21c66vBudMXQVAPgRnqqwgTH",
        "reception_time": "2022-01-15T04:52:27.081-00:00",
        "included_in_blocks":
          [ "BLAoxCeV5Y3UX3xvr9J9wJKBu875vA1q6eiMcfmHdNVqjZZCEhq" ] },
      { "delegate": "tz3bvNMQ95vfAYtG8193ymshqjSvmxiCUuR5",
        "reception_time": "2022-01-15T04:52:27.160-00:00",
        "included_in_blocks":
          [ "BLAoxCeV5Y3UX3xvr9J9wJKBu875vA1q6eiMcfmHdNVqjZZCEhq" ] },
      { "delegate": "tz1KfEsrtDaA1sX7vdM4qmEPWuSytuqCDp5j",
        "reception_time": "2022-01-15T04:52:27.168-00:00",
        "included_in_blocks":
          [ "BLAoxCeV5Y3UX3xvr9J9wJKBu875vA1q6eiMcfmHdNVqjZZCEhq" ] },
      { "delegate": "tz3WMqdzXqRWXwyvj5Hp2H7QEepaUuS7vd9K",
        "reception_time": "2022-01-15T04:52:27.186-00:00",
        "included_in_blocks":
          [ "BLAoxCeV5Y3UX3xvr9J9wJKBu875vA1q6eiMcfmHdNVqjZZCEhq" ] },
      { "delegate": "tz3VEZ4k6a4Wx42iyev6i2aVAptTRLEAivNN",
        "reception_time": "2022-01-15T04:52:27.224-00:00",
        "included_in_blocks":
          [ "BLAoxCeV5Y3UX3xvr9J9wJKBu875vA1q6eiMcfmHdNVqjZZCEhq" ] },
      { "delegate": "tz3RDC3Jdn4j15J7bBHZd29EUee9gVB1CxD9",
        "reception_time": "2022-01-15T04:52:27.235-00:00",
        "included_in_blocks":
          [ "BLAoxCeV5Y3UX3xvr9J9wJKBu875vA1q6eiMcfmHdNVqjZZCEhq" ] },
      { "delegate": "tz1cYufsxHXJcvANhvS55h3aY32a9BAFB494",
        "reception_time": "2022-01-15T04:52:27.254-00:00",
        "included_in_blocks":
          [ "BLAoxCeV5Y3UX3xvr9J9wJKBu875vA1q6eiMcfmHdNVqjZZCEhq" ] },
      { "delegate": "tz1T7duV5gZWSTq4YpBGbXNLTfznCLDrFxvs",
        "reception_time": "2022-01-15T04:52:27.359-00:00",
        "included_in_blocks":
          [ "BLAoxCeV5Y3UX3xvr9J9wJKBu875vA1q6eiMcfmHdNVqjZZCEhq" ] },
      { "delegate": "tz1aRoaRhSpRYvFdyvgWLL6TGyRoGF51wDjM",
        "reception_time": "2022-01-15T04:52:27.412-00:00",
        "included_in_blocks":
          [ "BLAoxCeV5Y3UX3xvr9J9wJKBu875vA1q6eiMcfmHdNVqjZZCEhq" ] },
      { "delegate": "tz1NEKxGEHsFufk87CVZcrqWu8o22qh46GK6",
        "reception_time": "2022-01-15T04:52:27.522-00:00",
        "included_in_blocks":
          [ "BLAoxCeV5Y3UX3xvr9J9wJKBu875vA1q6eiMcfmHdNVqjZZCEhq" ] },
      { "delegate": "tz3NExpXn9aPNZPorRE4SdjJ2RGrfbJgMAaV",
        "reception_time": "2022-01-15T04:52:28.110-00:00",
        "included_in_blocks":
          [ "BLAoxCeV5Y3UX3xvr9J9wJKBu875vA1q6eiMcfmHdNVqjZZCEhq" ] },
      { "delegate": "tz3UoffC7FG7zfpmvmjUmUeAaHvzdcUvAj6r",
        "reception_time": "2022-01-15T04:52:28.118-00:00",
        "included_in_blocks":
          [ "BLAoxCeV5Y3UX3xvr9J9wJKBu875vA1q6eiMcfmHdNVqjZZCEhq" ] },
      { "delegate": "tz1ZcTRk5uxD86EFEn1vvNffWWqJy7q5eVhc",
        "reception_time": "2022-01-15T04:52:28.548-00:00",
        "included_in_blocks":
          [ "BLAoxCeV5Y3UX3xvr9J9wJKBu875vA1q6eiMcfmHdNVqjZZCEhq" ] },
      { "delegate": "tz1TcH4Nb3aHNDJ7CGZhU7jgAK1BkSP4Lxds",
        "reception_time": "2022-01-15T04:52:29.439-00:00",
        "included_in_blocks":
          [ "BLAoxCeV5Y3UX3xvr9J9wJKBu875vA1q6eiMcfmHdNVqjZZCEhq" ] } ] }