{ "blocks":
    [ { "hash": "BLRRizLu2TxmMQDHxRcqiCGoqZgQNBFn1aGTtKPeZL6tWptPvdL",
        "delegate": "tz1irJKkXS2DBWkU1NnmFQx1c1L7pbGg4yhk",
        "reception_time": "2022-01-15T12:25:15.900-00:00",
        "timestamp": "2022-01-15T12:25:10Z" } ],
  "endorsements":
    [ { "delegate": "tz1NMdMmWZN8QPB8pY4ddncACDg1cHi1xD2e" },
      { "delegate": "tz1S8e9GgdZG78XJRB3NqabfWeM37GnhZMWQ",
        "reception_time": "2022-01-15T12:25:16.581-00:00",
        "included_in_blocks":
          [ "BL9fuxfmVX8CiQuSMV9FKdJaaoYeTt99G7CCQuuAQbPWzhCDaS9" ] },
      { "delegate": "tz1Lhf4J9Qxoe3DZ2nfe8FGDnvVj7oKjnMY6",
        "reception_time": "2022-01-15T12:25:16.601-00:00",
        "included_in_blocks":
          [ "BL9fuxfmVX8CiQuSMV9FKdJaaoYeTt99G7CCQuuAQbPWzhCDaS9" ] },
      { "delegate": "tz1eEnQhbwf6trb8Q8mPb2RaPkNk2rN7BKi8",
        "reception_time": "2022-01-15T12:25:16.604-00:00",
        "included_in_blocks":
          [ "BL9fuxfmVX8CiQuSMV9FKdJaaoYeTt99G7CCQuuAQbPWzhCDaS9" ] },
      { "delegate": "tz1d9ek6HrScY6QRZ71NJdB85MNz8gKGBjrv",
        "reception_time": "2022-01-15T12:25:16.606-00:00",
        "included_in_blocks":
          [ "BL9fuxfmVX8CiQuSMV9FKdJaaoYeTt99G7CCQuuAQbPWzhCDaS9" ] },
      { "delegate": "tz1STeamwbp68THcny9zk3LsbG3H36DMvbRK",
        "reception_time": "2022-01-15T12:25:16.609-00:00",
        "included_in_blocks":
          [ "BL9fuxfmVX8CiQuSMV9FKdJaaoYeTt99G7CCQuuAQbPWzhCDaS9" ] },
      { "delegate": "tz1beersuEDv8Z7ngQ825xfbaJNS2EhXnyHR",
        "reception_time": "2022-01-15T12:25:16.612-00:00",
        "included_in_blocks":
          [ "BL9fuxfmVX8CiQuSMV9FKdJaaoYeTt99G7CCQuuAQbPWzhCDaS9" ] },
      { "delegate": "tz1irJKkXS2DBWkU1NnmFQx1c1L7pbGg4yhk",
        "reception_time": "2022-01-15T12:25:16.615-00:00",
        "included_in_blocks":
          [ "BL9fuxfmVX8CiQuSMV9FKdJaaoYeTt99G7CCQuuAQbPWzhCDaS9" ] },
      { "delegate": "tz1P2Po7YM526ughEsRbY4oR9zaUPDZjxFrb",
        "reception_time": "2022-01-15T12:25:16.620-00:00",
        "included_in_blocks":
          [ "BL9fuxfmVX8CiQuSMV9FKdJaaoYeTt99G7CCQuuAQbPWzhCDaS9" ] },
      { "delegate": "tz1XfAjZyaLdceHnZxbMYop7g7kWKPut4PR7",
        "reception_time": "2022-01-15T12:25:16.627-00:00",
        "included_in_blocks":
          [ "BL9fuxfmVX8CiQuSMV9FKdJaaoYeTt99G7CCQuuAQbPWzhCDaS9" ] },
      { "delegate": "tz1RV1MBbZMR68tacosb7Mwj6LkbPSUS1er1",
        "reception_time": "2022-01-15T12:25:16.647-00:00",
        "included_in_blocks":
          [ "BL9fuxfmVX8CiQuSMV9FKdJaaoYeTt99G7CCQuuAQbPWzhCDaS9" ] },
      { "delegate": "tz1MJx9vhaNRSimcuXPK2rW4fLccQnDAnVKJ",
        "reception_time": "2022-01-15T12:25:16.654-00:00",
        "included_in_blocks":
          [ "BL9fuxfmVX8CiQuSMV9FKdJaaoYeTt99G7CCQuuAQbPWzhCDaS9" ] },
      { "delegate": "tz3ZbP2pM3nwvXztbuMJwJnDvV5xdpU8UkkD",
        "reception_time": "2022-01-15T12:25:16.831-00:00",
        "included_in_blocks":
          [ "BL9fuxfmVX8CiQuSMV9FKdJaaoYeTt99G7CCQuuAQbPWzhCDaS9" ] },
      { "delegate": "tz3NxTnke1acr8o3h5y9ytf5awQBGNJUKzVU",
        "reception_time": "2022-01-15T12:25:16.921-00:00",
        "included_in_blocks":
          [ "BL9fuxfmVX8CiQuSMV9FKdJaaoYeTt99G7CCQuuAQbPWzhCDaS9" ] },
      { "delegate": "tz3iJu5vrKZcsqRPs8yJ61UDoeEXZmtro4qh",
        "reception_time": "2022-01-15T12:25:16.960-00:00",
        "included_in_blocks":
          [ "BL9fuxfmVX8CiQuSMV9FKdJaaoYeTt99G7CCQuuAQbPWzhCDaS9" ] },
      { "delegate": "tz3hw2kqXhLUvY65ca1eety2oQTpAvd34R9Q",
        "reception_time": "2022-01-15T12:25:16.983-00:00",
        "included_in_blocks":
          [ "BL9fuxfmVX8CiQuSMV9FKdJaaoYeTt99G7CCQuuAQbPWzhCDaS9" ] },
      { "delegate": "tz3RKYFsLuQzKBtmYuLNas7uMu3AsYd4QdsA",
        "reception_time": "2022-01-15T12:25:16.995-00:00",
        "included_in_blocks":
          [ "BL9fuxfmVX8CiQuSMV9FKdJaaoYeTt99G7CCQuuAQbPWzhCDaS9" ] },
      { "delegate": "tz1TzaNn7wSQSP5gYPXCnNzBCpyMiidCq1PX",
        "reception_time": "2022-01-15T12:25:17.022-00:00",
        "included_in_blocks":
          [ "BL9fuxfmVX8CiQuSMV9FKdJaaoYeTt99G7CCQuuAQbPWzhCDaS9" ] },
      { "delegate": "tz3Zhs2dygr55yHyQyKjntAtY9bgfhLZ4Xj1",
        "reception_time": "2022-01-15T12:25:17.033-00:00",
        "included_in_blocks":
          [ "BL9fuxfmVX8CiQuSMV9FKdJaaoYeTt99G7CCQuuAQbPWzhCDaS9" ] },
      { "delegate": "tz1eDDuQBEgwvc6tbnnCVrnr12tvrd6gBTpx",
        "reception_time": "2022-01-15T12:25:17.080-00:00",
        "included_in_blocks":
          [ "BL9fuxfmVX8CiQuSMV9FKdJaaoYeTt99G7CCQuuAQbPWzhCDaS9" ] },
      { "delegate": "tz3gtoUxdudfBRcNY7iVdKPHCYYX6xdPpoRS",
        "reception_time": "2022-01-15T12:25:17.117-00:00",
        "included_in_blocks":
          [ "BL9fuxfmVX8CiQuSMV9FKdJaaoYeTt99G7CCQuuAQbPWzhCDaS9" ] },
      { "delegate": "tz1Ldzz6k1BHdhuKvAtMRX7h5kJSMHESMHLC",
        "reception_time": "2022-01-15T12:25:17.120-00:00",
        "included_in_blocks":
          [ "BL9fuxfmVX8CiQuSMV9FKdJaaoYeTt99G7CCQuuAQbPWzhCDaS9" ] },
      { "delegate": "tz3QSGPoRp3Kn7n3vY24eYeu3Peuqo45LQ4D",
        "reception_time": "2022-01-15T12:25:17.131-00:00",
        "included_in_blocks":
          [ "BL9fuxfmVX8CiQuSMV9FKdJaaoYeTt99G7CCQuuAQbPWzhCDaS9" ] },
      { "delegate": "tz3QT9dHYKDqh563chVa6za8526ys1UKfRfL",
        "reception_time": "2022-01-15T12:25:17.156-00:00",
        "included_in_blocks":
          [ "BL9fuxfmVX8CiQuSMV9FKdJaaoYeTt99G7CCQuuAQbPWzhCDaS9" ] },
      { "delegate": "tz1aXD7Jigrt3PBYSpHSg5Rr33SexMmmM5Ys",
        "reception_time": "2022-01-15T12:25:17.168-00:00",
        "included_in_blocks":
          [ "BL9fuxfmVX8CiQuSMV9FKdJaaoYeTt99G7CCQuuAQbPWzhCDaS9" ] },
      { "delegate": "tz1VmiY38m3y95HqQLjMwqnMS7sdMfGomzKi",
        "reception_time": "2022-01-15T12:25:17.199-00:00",
        "included_in_blocks":
          [ "BL9fuxfmVX8CiQuSMV9FKdJaaoYeTt99G7CCQuuAQbPWzhCDaS9" ] },
      { "delegate": "tz1NSDFKuRyzHxpfG1AMkyCwEiZ52cbR2mRW",
        "reception_time": "2022-01-15T12:25:17.362-00:00",
        "included_in_blocks":
          [ "BL9fuxfmVX8CiQuSMV9FKdJaaoYeTt99G7CCQuuAQbPWzhCDaS9" ] },
      { "delegate": "tz1gUNyn3hmnEWqkusWPzxRaon1cs7ndWh7h",
        "reception_time": "2022-01-15T12:25:17.362-00:00",
        "included_in_blocks":
          [ "BL9fuxfmVX8CiQuSMV9FKdJaaoYeTt99G7CCQuuAQbPWzhCDaS9" ] },
      { "delegate": "tz1WCd2jm4uSt4vntk4vSuUWoZQGhLcDuR9q",
        "reception_time": "2022-01-15T12:25:17.448-00:00",
        "included_in_blocks":
          [ "BL9fuxfmVX8CiQuSMV9FKdJaaoYeTt99G7CCQuuAQbPWzhCDaS9" ] },
      { "delegate": "tz1VQnqCCqX4K5sP3FNkVSNKTdCAMJDd3E1n",
        "reception_time": "2022-01-15T12:25:17.484-00:00",
        "included_in_blocks":
          [ "BL9fuxfmVX8CiQuSMV9FKdJaaoYeTt99G7CCQuuAQbPWzhCDaS9" ] },
      { "delegate": "tz1PWCDnz783NNGGQjEFFsHtrcK5yBW4E2rm",
        "reception_time": "2022-01-15T12:25:17.521-00:00",
        "included_in_blocks":
          [ "BL9fuxfmVX8CiQuSMV9FKdJaaoYeTt99G7CCQuuAQbPWzhCDaS9" ] },
      { "delegate": "tz1S8MNvuFEUsWgjHvi3AxibRBf388NhT1q2",
        "reception_time": "2022-01-15T12:25:17.551-00:00",
        "included_in_blocks":
          [ "BL9fuxfmVX8CiQuSMV9FKdJaaoYeTt99G7CCQuuAQbPWzhCDaS9" ] },
      { "delegate": "tz1RCFbB9GpALpsZtu6J58sb74dm8qe6XBzv",
        "reception_time": "2022-01-15T12:25:17.603-00:00",
        "included_in_blocks":
          [ "BL9fuxfmVX8CiQuSMV9FKdJaaoYeTt99G7CCQuuAQbPWzhCDaS9" ] },
      { "delegate": "tz3bTdwZinP8U1JmSweNzVKhmwafqWmFWRfk",
        "reception_time": "2022-01-15T12:25:17.614-00:00",
        "included_in_blocks":
          [ "BL9fuxfmVX8CiQuSMV9FKdJaaoYeTt99G7CCQuuAQbPWzhCDaS9" ] },
      { "delegate": "tz1hAYfexyzPGG6RhZZMpDvAHifubsbb6kgn",
        "reception_time": "2022-01-15T12:25:17.662-00:00",
        "included_in_blocks":
          [ "BL9fuxfmVX8CiQuSMV9FKdJaaoYeTt99G7CCQuuAQbPWzhCDaS9" ] },
      { "delegate": "tz1fb7c66UwePkkfDXz4ajFaBP9hVNLdS7JJ",
        "reception_time": "2022-01-15T12:25:17.669-00:00",
        "included_in_blocks":
          [ "BL9fuxfmVX8CiQuSMV9FKdJaaoYeTt99G7CCQuuAQbPWzhCDaS9" ] },
      { "delegate": "tz2FCNBrERXtaTtNX6iimR1UJ5JSDxvdHM93",
        "reception_time": "2022-01-15T12:25:17.675-00:00",
        "included_in_blocks":
          [ "BL9fuxfmVX8CiQuSMV9FKdJaaoYeTt99G7CCQuuAQbPWzhCDaS9" ] },
      { "delegate": "tz1aJ8wxNeVRYbbx5YqzurmYzwKzkS96rHP4",
        "reception_time": "2022-01-15T12:25:17.685-00:00",
        "included_in_blocks":
          [ "BL9fuxfmVX8CiQuSMV9FKdJaaoYeTt99G7CCQuuAQbPWzhCDaS9" ] },
      { "delegate": "tz3RB4aoyjov4KEVRbuhvQ1CKJgBJMWhaeB8",
        "reception_time": "2022-01-15T12:25:17.726-00:00",
        "included_in_blocks":
          [ "BL9fuxfmVX8CiQuSMV9FKdJaaoYeTt99G7CCQuuAQbPWzhCDaS9" ] },
      { "delegate": "tz1V4qCyvPKZ5UeqdH14HN42rxvNPQfc9UZg",
        "reception_time": "2022-01-15T12:25:17.761-00:00",
        "included_in_blocks":
          [ "BL9fuxfmVX8CiQuSMV9FKdJaaoYeTt99G7CCQuuAQbPWzhCDaS9" ] },
      { "delegate": "tz1gfArv665EUkSg2ojMBzcbfwuPxAvqPvjo",
        "reception_time": "2022-01-15T12:25:17.766-00:00",
        "included_in_blocks":
          [ "BL9fuxfmVX8CiQuSMV9FKdJaaoYeTt99G7CCQuuAQbPWzhCDaS9" ] },
      { "delegate": "tz1LmaFsWRkjr7QMCx5PtV6xTUz3AmEpKQiF",
        "reception_time": "2022-01-15T12:25:17.807-00:00",
        "included_in_blocks":
          [ "BL9fuxfmVX8CiQuSMV9FKdJaaoYeTt99G7CCQuuAQbPWzhCDaS9" ] },
      { "delegate": "tz1QHd5o2iqqEigkUwK4QGJvuNRfhz2eY1xh",
        "reception_time": "2022-01-15T12:25:17.861-00:00",
        "included_in_blocks":
          [ "BL9fuxfmVX8CiQuSMV9FKdJaaoYeTt99G7CCQuuAQbPWzhCDaS9" ] },
      { "delegate": "tz1KzSC1J9aBxKp7u8TUnpN8L7S65PBRkgdF",
        "reception_time": "2022-01-15T12:25:17.880-00:00",
        "included_in_blocks":
          [ "BL9fuxfmVX8CiQuSMV9FKdJaaoYeTt99G7CCQuuAQbPWzhCDaS9" ] },
      { "delegate": "tz1aDiEJf9ztRrAJEXZfcG3CKimoKsGhwVAi",
        "reception_time": "2022-01-15T12:25:18.012-00:00",
        "included_in_blocks":
          [ "BL9fuxfmVX8CiQuSMV9FKdJaaoYeTt99G7CCQuuAQbPWzhCDaS9" ] },
      { "delegate": "tz1TEc75UKXv4W5cwi14Na3NtqFD51yKQi7h",
        "reception_time": "2022-01-15T12:25:18.036-00:00",
        "included_in_blocks":
          [ "BL9fuxfmVX8CiQuSMV9FKdJaaoYeTt99G7CCQuuAQbPWzhCDaS9" ] },
      { "delegate": "tz1ei4WtWEMEJekSv8qDnu9PExG6Q8HgRGr3",
        "reception_time": "2022-01-15T12:25:18.056-00:00",
        "included_in_blocks":
          [ "BL9fuxfmVX8CiQuSMV9FKdJaaoYeTt99G7CCQuuAQbPWzhCDaS9" ] },
      { "delegate": "tz1WBfwbT66FC6BTLexc2BoyCCBM9LG7pnVW",
        "reception_time": "2022-01-15T12:25:18.082-00:00",
        "included_in_blocks":
          [ "BL9fuxfmVX8CiQuSMV9FKdJaaoYeTt99G7CCQuuAQbPWzhCDaS9" ] },
      { "delegate": "tz1Nf6tsK4G6bBqgSQERy4nUtkHNKUVdh7q1",
        "reception_time": "2022-01-15T12:25:18.149-00:00",
        "included_in_blocks":
          [ "BL9fuxfmVX8CiQuSMV9FKdJaaoYeTt99G7CCQuuAQbPWzhCDaS9" ] },
      { "delegate": "tz1Tnjaxk6tbAeC2TmMApPh8UsrEVQvhHvx5",
        "reception_time": "2022-01-15T12:25:18.157-00:00",
        "included_in_blocks":
          [ "BL9fuxfmVX8CiQuSMV9FKdJaaoYeTt99G7CCQuuAQbPWzhCDaS9" ] },
      { "delegate": "tz1KfEsrtDaA1sX7vdM4qmEPWuSytuqCDp5j",
        "reception_time": "2022-01-15T12:25:18.264-00:00",
        "included_in_blocks":
          [ "BL9fuxfmVX8CiQuSMV9FKdJaaoYeTt99G7CCQuuAQbPWzhCDaS9" ] },
      { "delegate": "tz1TRqbYbUf2GyrjErf3hBzgBJPzW8y36qEs",
        "reception_time": "2022-01-15T12:25:18.283-00:00",
        "included_in_blocks":
          [ "BL9fuxfmVX8CiQuSMV9FKdJaaoYeTt99G7CCQuuAQbPWzhCDaS9" ] },
      { "delegate": "tz1RjoHc98dBoqaH2jawF62XNKh7YsHwbkEv",
        "reception_time": "2022-01-15T12:25:18.400-00:00",
        "included_in_blocks":
          [ "BL9fuxfmVX8CiQuSMV9FKdJaaoYeTt99G7CCQuuAQbPWzhCDaS9" ] },
      { "delegate": "tz1PeZx7FXy7QRuMREGXGxeipb24RsMMzUNe",
        "reception_time": "2022-01-15T12:25:18.469-00:00",
        "included_in_blocks":
          [ "BL9fuxfmVX8CiQuSMV9FKdJaaoYeTt99G7CCQuuAQbPWzhCDaS9" ] },
      { "delegate": "tz3WMqdzXqRWXwyvj5Hp2H7QEepaUuS7vd9K",
        "reception_time": "2022-01-15T12:25:18.561-00:00",
        "included_in_blocks":
          [ "BL9fuxfmVX8CiQuSMV9FKdJaaoYeTt99G7CCQuuAQbPWzhCDaS9" ] },
      { "delegate": "tz1Z2jXfEXL7dXhs6bsLmyLFLfmAkXBzA9WE",
        "reception_time": "2022-01-15T12:25:18.579-00:00",
        "included_in_blocks":
          [ "BL9fuxfmVX8CiQuSMV9FKdJaaoYeTt99G7CCQuuAQbPWzhCDaS9" ] },
      { "delegate": "tz3VEZ4k6a4Wx42iyev6i2aVAptTRLEAivNN",
        "reception_time": "2022-01-15T12:25:18.651-00:00",
        "included_in_blocks":
          [ "BL9fuxfmVX8CiQuSMV9FKdJaaoYeTt99G7CCQuuAQbPWzhCDaS9" ] },
      { "delegate": "tz1awXW7wuXy21c66vBudMXQVAPgRnqqwgTH",
        "reception_time": "2022-01-15T12:25:18.723-00:00",
        "included_in_blocks":
          [ "BL9fuxfmVX8CiQuSMV9FKdJaaoYeTt99G7CCQuuAQbPWzhCDaS9" ] },
      { "delegate": "tz1UvkANVPWppVgMkLnvN7BwYZsCP7vm6NVd",
        "reception_time": "2022-01-15T12:25:18.743-00:00",
        "included_in_blocks":
          [ "BL9fuxfmVX8CiQuSMV9FKdJaaoYeTt99G7CCQuuAQbPWzhCDaS9" ] },
      { "delegate": "tz1NEKxGEHsFufk87CVZcrqWu8o22qh46GK6",
        "reception_time": "2022-01-15T12:25:18.815-00:00",
        "included_in_blocks":
          [ "BL9fuxfmVX8CiQuSMV9FKdJaaoYeTt99G7CCQuuAQbPWzhCDaS9" ] },
      { "delegate": "tz3bvNMQ95vfAYtG8193ymshqjSvmxiCUuR5",
        "reception_time": "2022-01-15T12:25:18.933-00:00",
        "included_in_blocks":
          [ "BL9fuxfmVX8CiQuSMV9FKdJaaoYeTt99G7CCQuuAQbPWzhCDaS9" ] },
      { "delegate": "tz3RDC3Jdn4j15J7bBHZd29EUee9gVB1CxD9",
        "reception_time": "2022-01-15T12:25:18.979-00:00",
        "included_in_blocks":
          [ "BL9fuxfmVX8CiQuSMV9FKdJaaoYeTt99G7CCQuuAQbPWzhCDaS9" ] },
      { "delegate": "tz1T7duV5gZWSTq4YpBGbXNLTfznCLDrFxvs",
        "reception_time": "2022-01-15T12:25:19.054-00:00",
        "included_in_blocks":
          [ "BL9fuxfmVX8CiQuSMV9FKdJaaoYeTt99G7CCQuuAQbPWzhCDaS9" ] },
      { "delegate": "tz1aRoaRhSpRYvFdyvgWLL6TGyRoGF51wDjM",
        "reception_time": "2022-01-15T12:25:19.237-00:00",
        "included_in_blocks":
          [ "BL9fuxfmVX8CiQuSMV9FKdJaaoYeTt99G7CCQuuAQbPWzhCDaS9" ] },
      { "delegate": "tz1NuUu12WHdW3jHqvkujGHsiTi46Wvw1ci1",
        "reception_time": "2022-01-15T12:25:19.466-00:00",
        "included_in_blocks":
          [ "BL9fuxfmVX8CiQuSMV9FKdJaaoYeTt99G7CCQuuAQbPWzhCDaS9" ] },
      { "delegate": "tz1dRKU4FQ9QRRQPdaH4zCR6gmCmXfcvcgtB",
        "reception_time": "2022-01-15T12:25:19.614-00:00",
        "included_in_blocks":
          [ "BL9fuxfmVX8CiQuSMV9FKdJaaoYeTt99G7CCQuuAQbPWzhCDaS9" ] },
      { "delegate": "tz3UoffC7FG7zfpmvmjUmUeAaHvzdcUvAj6r",
        "reception_time": "2022-01-15T12:25:19.673-00:00",
        "included_in_blocks":
          [ "BL9fuxfmVX8CiQuSMV9FKdJaaoYeTt99G7CCQuuAQbPWzhCDaS9" ] },
      { "delegate": "tz3NExpXn9aPNZPorRE4SdjJ2RGrfbJgMAaV",
        "reception_time": "2022-01-15T12:25:19.786-00:00",
        "included_in_blocks":
          [ "BL9fuxfmVX8CiQuSMV9FKdJaaoYeTt99G7CCQuuAQbPWzhCDaS9" ] },
      { "delegate": "tz1TcH4Nb3aHNDJ7CGZhU7jgAK1BkSP4Lxds",
        "reception_time": "2022-01-15T12:25:20.296-00:00",
        "included_in_blocks":
          [ "BL9fuxfmVX8CiQuSMV9FKdJaaoYeTt99G7CCQuuAQbPWzhCDaS9" ] },
      { "delegate": "tz1cM8Xc7ZP1TrjkTeKq4PeRhtbnwXSBR6Sw",
        "reception_time": "2022-01-15T12:25:20.421-00:00",
        "included_in_blocks":
          [ "BL9fuxfmVX8CiQuSMV9FKdJaaoYeTt99G7CCQuuAQbPWzhCDaS9" ] },
      { "delegate": "tz1W5VkdB5s7ENMESVBtwyt9kyvLqPcUczRT",
        "reception_time": "2022-01-15T12:25:20.940-00:00",
        "included_in_blocks":
          [ "BL9fuxfmVX8CiQuSMV9FKdJaaoYeTt99G7CCQuuAQbPWzhCDaS9" ] },
      { "delegate": "tz1go7f6mEQfT2xX2LuHAqgnRGN6c2zHPf5c",
        "reception_time": "2022-01-15T12:25:21.971-00:00",
        "included_in_blocks":
          [ "BL9fuxfmVX8CiQuSMV9FKdJaaoYeTt99G7CCQuuAQbPWzhCDaS9" ] },
      { "delegate": "tz1MduLJ4AAR6g7CDjB77Jci3gvu3Xsvk6bJ",
        "reception_time": "2022-01-15T12:25:22.203-00:00",
        "included_in_blocks":
          [ "BL9fuxfmVX8CiQuSMV9FKdJaaoYeTt99G7CCQuuAQbPWzhCDaS9" ] },
      { "delegate": "tz3e7LbZvUtoXhpUD1yb6wuFodZpfYRb9nWJ",
        "reception_time": "2022-01-15T12:25:22.983-00:00",
        "included_in_blocks":
          [ "BL9fuxfmVX8CiQuSMV9FKdJaaoYeTt99G7CCQuuAQbPWzhCDaS9" ] },
      { "delegate": "tz1NpWrAyDL9k2Lmnyxcgr9xuJakbBxdq7FB",
        "reception_time": "2022-01-15T12:25:23.382-00:00",
        "included_in_blocks":
          [ "BL9fuxfmVX8CiQuSMV9FKdJaaoYeTt99G7CCQuuAQbPWzhCDaS9" ] },
      { "delegate": "tz1g8vkmcde6sWKaG2NN9WKzCkDM6Rziq194",
        "reception_time": "2022-01-15T12:25:25.278-00:00",
        "included_in_blocks":
          [ "BL9fuxfmVX8CiQuSMV9FKdJaaoYeTt99G7CCQuuAQbPWzhCDaS9" ] } ] }