{ "blocks":
    [ { "hash": "BL7b1T76zRkhS6DhxsXwuaGGUQ2x2r7ihiuvjWtCotMDjMAh6qN",
        "delegate": "tz3RB4aoyjov4KEVRbuhvQ1CKJgBJMWhaeB8",
        "reception_time": "2022-01-15T11:02:18.589-00:00",
        "timestamp": "2022-01-15T11:02:10Z" } ],
  "endorsements":
    [ { "delegate": "tz1P2Po7YM526ughEsRbY4oR9zaUPDZjxFrb",
        "reception_time": "2022-01-15T11:02:18.553-00:00",
        "errors":
          [ { "kind": "temporary",
              "id": "proto.011-PtHangz2.prefilter.outdated_endorsement" } ],
        "included_in_blocks":
          [ "BLwtGkDZ1Bdhq5xLXe4sdTgA5zNaBJCX7n6UUdpchDXyYFup4vt" ] },
      { "delegate": "tz1Scdr2HsZiQjc7bHMeBbmDRXYVvdhjJbBh",
        "reception_time": "2022-01-15T11:02:18.514-00:00",
        "errors":
          [ { "kind": "temporary",
              "id": "proto.011-PtHangz2.prefilter.outdated_endorsement" } ],
        "included_in_blocks":
          [ "BLwtGkDZ1Bdhq5xLXe4sdTgA5zNaBJCX7n6UUdpchDXyYFup4vt" ] },
      { "delegate": "tz1eEnQhbwf6trb8Q8mPb2RaPkNk2rN7BKi8",
        "reception_time": "2022-01-15T11:02:18.494-00:00",
        "errors":
          [ { "kind": "temporary",
              "id": "proto.011-PtHangz2.prefilter.outdated_endorsement" } ],
        "included_in_blocks":
          [ "BLwtGkDZ1Bdhq5xLXe4sdTgA5zNaBJCX7n6UUdpchDXyYFup4vt" ] },
      { "delegate": "tz1S8e9GgdZG78XJRB3NqabfWeM37GnhZMWQ",
        "reception_time": "2022-01-15T11:02:18.224-00:00",
        "errors":
          [ { "kind": "temporary",
              "id": "proto.011-PtHangz2.prefilter.outdated_endorsement" } ],
        "included_in_blocks":
          [ "BLwtGkDZ1Bdhq5xLXe4sdTgA5zNaBJCX7n6UUdpchDXyYFup4vt" ] },
      { "delegate": "tz1LDkEDX6kJ41s6TtwCgGMXc6bKsi2PuFgo" },
      { "delegate": "tz1TRspM5SeZpaQUhzByXbEvqKF1vnCM2YTK" },
      { "delegate": "tz1irJKkXS2DBWkU1NnmFQx1c1L7pbGg4yhk",
        "reception_time": "2022-01-15T11:02:19.965-00:00",
        "included_in_blocks":
          [ "BLwtGkDZ1Bdhq5xLXe4sdTgA5zNaBJCX7n6UUdpchDXyYFup4vt" ] },
      { "delegate": "tz3RB4aoyjov4KEVRbuhvQ1CKJgBJMWhaeB8",
        "reception_time": "2022-01-15T11:02:19.974-00:00",
        "included_in_blocks":
          [ "BLwtGkDZ1Bdhq5xLXe4sdTgA5zNaBJCX7n6UUdpchDXyYFup4vt" ] },
      { "delegate": "tz1MJx9vhaNRSimcuXPK2rW4fLccQnDAnVKJ",
        "reception_time": "2022-01-15T11:02:19.979-00:00",
        "included_in_blocks":
          [ "BLwtGkDZ1Bdhq5xLXe4sdTgA5zNaBJCX7n6UUdpchDXyYFup4vt" ] },
      { "delegate": "tz3iJu5vrKZcsqRPs8yJ61UDoeEXZmtro4qh",
        "reception_time": "2022-01-15T11:02:19.993-00:00",
        "included_in_blocks":
          [ "BLwtGkDZ1Bdhq5xLXe4sdTgA5zNaBJCX7n6UUdpchDXyYFup4vt" ] },
      { "delegate": "tz3hw2kqXhLUvY65ca1eety2oQTpAvd34R9Q",
        "reception_time": "2022-01-15T11:02:20.001-00:00",
        "included_in_blocks":
          [ "BLwtGkDZ1Bdhq5xLXe4sdTgA5zNaBJCX7n6UUdpchDXyYFup4vt" ] },
      { "delegate": "tz1Kt4P8BCaP93AEV4eA7gmpRryWt5hznjCP",
        "reception_time": "2022-01-15T11:02:20.005-00:00",
        "included_in_blocks":
          [ "BLwtGkDZ1Bdhq5xLXe4sdTgA5zNaBJCX7n6UUdpchDXyYFup4vt" ] },
      { "delegate": "tz1VQnqCCqX4K5sP3FNkVSNKTdCAMJDd3E1n",
        "reception_time": "2022-01-15T11:02:20.011-00:00",
        "included_in_blocks":
          [ "BLwtGkDZ1Bdhq5xLXe4sdTgA5zNaBJCX7n6UUdpchDXyYFup4vt" ] },
      { "delegate": "tz3ZbP2pM3nwvXztbuMJwJnDvV5xdpU8UkkD",
        "reception_time": "2022-01-15T11:02:20.020-00:00",
        "included_in_blocks":
          [ "BLwtGkDZ1Bdhq5xLXe4sdTgA5zNaBJCX7n6UUdpchDXyYFup4vt" ] },
      { "delegate": "tz1gUNyn3hmnEWqkusWPzxRaon1cs7ndWh7h",
        "reception_time": "2022-01-15T11:02:20.023-00:00",
        "included_in_blocks":
          [ "BLwtGkDZ1Bdhq5xLXe4sdTgA5zNaBJCX7n6UUdpchDXyYFup4vt" ] },
      { "delegate": "tz1Ldzz6k1BHdhuKvAtMRX7h5kJSMHESMHLC",
        "reception_time": "2022-01-15T11:02:20.027-00:00",
        "included_in_blocks":
          [ "BLwtGkDZ1Bdhq5xLXe4sdTgA5zNaBJCX7n6UUdpchDXyYFup4vt" ] },
      { "delegate": "tz3RKYFsLuQzKBtmYuLNas7uMu3AsYd4QdsA",
        "reception_time": "2022-01-15T11:02:20.035-00:00",
        "included_in_blocks":
          [ "BLwtGkDZ1Bdhq5xLXe4sdTgA5zNaBJCX7n6UUdpchDXyYFup4vt" ] },
      { "delegate": "tz3QSGPoRp3Kn7n3vY24eYeu3Peuqo45LQ4D",
        "reception_time": "2022-01-15T11:02:20.042-00:00",
        "included_in_blocks":
          [ "BLwtGkDZ1Bdhq5xLXe4sdTgA5zNaBJCX7n6UUdpchDXyYFup4vt" ] },
      { "delegate": "tz3S6BBeKgJGXxvLyZ1xzXzMPn11nnFtq5L9",
        "reception_time": "2022-01-15T11:02:20.050-00:00",
        "included_in_blocks":
          [ "BLwtGkDZ1Bdhq5xLXe4sdTgA5zNaBJCX7n6UUdpchDXyYFup4vt" ] },
      { "delegate": "tz3QT9dHYKDqh563chVa6za8526ys1UKfRfL",
        "reception_time": "2022-01-15T11:02:20.057-00:00",
        "included_in_blocks":
          [ "BLwtGkDZ1Bdhq5xLXe4sdTgA5zNaBJCX7n6UUdpchDXyYFup4vt" ] },
      { "delegate": "tz1TzaNn7wSQSP5gYPXCnNzBCpyMiidCq1PX",
        "reception_time": "2022-01-15T11:02:20.066-00:00",
        "included_in_blocks":
          [ "BLwtGkDZ1Bdhq5xLXe4sdTgA5zNaBJCX7n6UUdpchDXyYFup4vt" ] },
      { "delegate": "tz3Zhs2dygr55yHyQyKjntAtY9bgfhLZ4Xj1",
        "reception_time": "2022-01-15T11:02:20.066-00:00",
        "included_in_blocks":
          [ "BLwtGkDZ1Bdhq5xLXe4sdTgA5zNaBJCX7n6UUdpchDXyYFup4vt" ] },
      { "delegate": "tz3gtoUxdudfBRcNY7iVdKPHCYYX6xdPpoRS",
        "reception_time": "2022-01-15T11:02:20.097-00:00",
        "included_in_blocks":
          [ "BLwtGkDZ1Bdhq5xLXe4sdTgA5zNaBJCX7n6UUdpchDXyYFup4vt" ] },
      { "delegate": "tz1WnfXMPaNTBmH7DBPwqCWs9cPDJdkGBTZ8",
        "reception_time": "2022-01-15T11:02:20.097-00:00",
        "included_in_blocks":
          [ "BLwtGkDZ1Bdhq5xLXe4sdTgA5zNaBJCX7n6UUdpchDXyYFup4vt" ] },
      { "delegate": "tz1aXD7Jigrt3PBYSpHSg5Rr33SexMmmM5Ys",
        "reception_time": "2022-01-15T11:02:20.113-00:00",
        "included_in_blocks":
          [ "BLwtGkDZ1Bdhq5xLXe4sdTgA5zNaBJCX7n6UUdpchDXyYFup4vt" ] },
      { "delegate": "tz3NxTnke1acr8o3h5y9ytf5awQBGNJUKzVU",
        "reception_time": "2022-01-15T11:02:20.113-00:00",
        "included_in_blocks":
          [ "BLwtGkDZ1Bdhq5xLXe4sdTgA5zNaBJCX7n6UUdpchDXyYFup4vt" ] },
      { "delegate": "tz1bZ8vsMAXmaWEV7FRnyhcuUs2fYMaQ6Hkk",
        "reception_time": "2022-01-15T11:02:20.130-00:00",
        "included_in_blocks":
          [ "BLwtGkDZ1Bdhq5xLXe4sdTgA5zNaBJCX7n6UUdpchDXyYFup4vt" ] },
      { "delegate": "tz1fPKAtsYydh4f1wfWNfeNxWYu72TmM48fu",
        "reception_time": "2022-01-15T11:02:20.140-00:00",
        "included_in_blocks":
          [ "BLwtGkDZ1Bdhq5xLXe4sdTgA5zNaBJCX7n6UUdpchDXyYFup4vt" ] },
      { "delegate": "tz3bTdwZinP8U1JmSweNzVKhmwafqWmFWRfk",
        "reception_time": "2022-01-15T11:02:20.181-00:00",
        "included_in_blocks":
          [ "BLwtGkDZ1Bdhq5xLXe4sdTgA5zNaBJCX7n6UUdpchDXyYFup4vt" ] },
      { "delegate": "tz1S8MNvuFEUsWgjHvi3AxibRBf388NhT1q2",
        "reception_time": "2022-01-15T11:02:20.188-00:00",
        "included_in_blocks":
          [ "BLwtGkDZ1Bdhq5xLXe4sdTgA5zNaBJCX7n6UUdpchDXyYFup4vt" ] },
      { "delegate": "tz1PWCDnz783NNGGQjEFFsHtrcK5yBW4E2rm",
        "reception_time": "2022-01-15T11:02:20.216-00:00",
        "included_in_blocks":
          [ "BLwtGkDZ1Bdhq5xLXe4sdTgA5zNaBJCX7n6UUdpchDXyYFup4vt" ] },
      { "delegate": "tz3adcvQaKXTCg12zbninqo3q8ptKKtDFTLv",
        "reception_time": "2022-01-15T11:02:20.230-00:00",
        "included_in_blocks":
          [ "BLwtGkDZ1Bdhq5xLXe4sdTgA5zNaBJCX7n6UUdpchDXyYFup4vt" ] },
      { "delegate": "tz1LmaFsWRkjr7QMCx5PtV6xTUz3AmEpKQiF",
        "reception_time": "2022-01-15T11:02:20.236-00:00",
        "included_in_blocks":
          [ "BLwtGkDZ1Bdhq5xLXe4sdTgA5zNaBJCX7n6UUdpchDXyYFup4vt" ] },
      { "delegate": "tz1gfArv665EUkSg2ojMBzcbfwuPxAvqPvjo",
        "reception_time": "2022-01-15T11:02:20.247-00:00",
        "included_in_blocks":
          [ "BLwtGkDZ1Bdhq5xLXe4sdTgA5zNaBJCX7n6UUdpchDXyYFup4vt" ] },
      { "delegate": "tz1RCFbB9GpALpsZtu6J58sb74dm8qe6XBzv",
        "reception_time": "2022-01-15T11:02:20.265-00:00",
        "included_in_blocks":
          [ "BLwtGkDZ1Bdhq5xLXe4sdTgA5zNaBJCX7n6UUdpchDXyYFup4vt" ] },
      { "delegate": "tz1S4zxqvZteyYGtN4P1VXjpGW26PipB1zpD",
        "reception_time": "2022-01-15T11:02:20.372-00:00",
        "included_in_blocks":
          [ "BLwtGkDZ1Bdhq5xLXe4sdTgA5zNaBJCX7n6UUdpchDXyYFup4vt" ] },
      { "delegate": "tz1ei4WtWEMEJekSv8qDnu9PExG6Q8HgRGr3",
        "reception_time": "2022-01-15T11:02:20.374-00:00",
        "included_in_blocks":
          [ "BLwtGkDZ1Bdhq5xLXe4sdTgA5zNaBJCX7n6UUdpchDXyYFup4vt" ] },
      { "delegate": "tz1RQhNh7iB9CZA7i3ifTWNwiGYVffponfbB",
        "reception_time": "2022-01-15T11:02:20.425-00:00",
        "included_in_blocks":
          [ "BLwtGkDZ1Bdhq5xLXe4sdTgA5zNaBJCX7n6UUdpchDXyYFup4vt" ] },
      { "delegate": "tz1Nf6tsK4G6bBqgSQERy4nUtkHNKUVdh7q1",
        "reception_time": "2022-01-15T11:02:20.457-00:00",
        "included_in_blocks":
          [ "BLwtGkDZ1Bdhq5xLXe4sdTgA5zNaBJCX7n6UUdpchDXyYFup4vt" ] },
      { "delegate": "tz2FCNBrERXtaTtNX6iimR1UJ5JSDxvdHM93",
        "reception_time": "2022-01-15T11:02:20.459-00:00",
        "included_in_blocks":
          [ "BLwtGkDZ1Bdhq5xLXe4sdTgA5zNaBJCX7n6UUdpchDXyYFup4vt" ] },
      { "delegate": "tz3UoffC7FG7zfpmvmjUmUeAaHvzdcUvAj6r",
        "reception_time": "2022-01-15T11:02:20.490-00:00",
        "included_in_blocks":
          [ "BLwtGkDZ1Bdhq5xLXe4sdTgA5zNaBJCX7n6UUdpchDXyYFup4vt" ] },
      { "delegate": "tz1WBfwbT66FC6BTLexc2BoyCCBM9LG7pnVW",
        "reception_time": "2022-01-15T11:02:20.546-00:00",
        "included_in_blocks":
          [ "BLwtGkDZ1Bdhq5xLXe4sdTgA5zNaBJCX7n6UUdpchDXyYFup4vt" ] },
      { "delegate": "tz1Tnjaxk6tbAeC2TmMApPh8UsrEVQvhHvx5",
        "reception_time": "2022-01-15T11:02:20.655-00:00",
        "included_in_blocks":
          [ "BLwtGkDZ1Bdhq5xLXe4sdTgA5zNaBJCX7n6UUdpchDXyYFup4vt" ] },
      { "delegate": "tz1PeZx7FXy7QRuMREGXGxeipb24RsMMzUNe",
        "reception_time": "2022-01-15T11:02:20.682-00:00",
        "included_in_blocks":
          [ "BLwtGkDZ1Bdhq5xLXe4sdTgA5zNaBJCX7n6UUdpchDXyYFup4vt" ] },
      { "delegate": "tz3NDpRj6WBrJPikcPVHRBEjWKxFw3c6eQPS",
        "reception_time": "2022-01-15T11:02:20.695-00:00",
        "included_in_blocks":
          [ "BLwtGkDZ1Bdhq5xLXe4sdTgA5zNaBJCX7n6UUdpchDXyYFup4vt" ] },
      { "delegate": "tz1Mc61yajNASzh5KWZFtYs4i7EJbzAxQC4K",
        "reception_time": "2022-01-15T11:02:20.751-00:00",
        "included_in_blocks":
          [ "BLwtGkDZ1Bdhq5xLXe4sdTgA5zNaBJCX7n6UUdpchDXyYFup4vt" ] },
      { "delegate": "tz1TEc75UKXv4W5cwi14Na3NtqFD51yKQi7h",
        "reception_time": "2022-01-15T11:02:20.850-00:00",
        "included_in_blocks":
          [ "BLwtGkDZ1Bdhq5xLXe4sdTgA5zNaBJCX7n6UUdpchDXyYFup4vt" ] },
      { "delegate": "tz1irmXkTwtz89pxmUFXvQuitz1vkdJQE9oq",
        "reception_time": "2022-01-15T11:02:20.903-00:00",
        "included_in_blocks":
          [ "BLwtGkDZ1Bdhq5xLXe4sdTgA5zNaBJCX7n6UUdpchDXyYFup4vt" ] },
      { "delegate": "tz3VEZ4k6a4Wx42iyev6i2aVAptTRLEAivNN",
        "reception_time": "2022-01-15T11:02:21.094-00:00",
        "included_in_blocks":
          [ "BLwtGkDZ1Bdhq5xLXe4sdTgA5zNaBJCX7n6UUdpchDXyYFup4vt" ] },
      { "delegate": "tz1TRqbYbUf2GyrjErf3hBzgBJPzW8y36qEs",
        "reception_time": "2022-01-15T11:02:21.100-00:00",
        "included_in_blocks":
          [ "BLwtGkDZ1Bdhq5xLXe4sdTgA5zNaBJCX7n6UUdpchDXyYFup4vt" ] },
      { "delegate": "tz1LAJKyGRCheNiLAQQmJ8dXnoKbKgLzxNFp",
        "reception_time": "2022-01-15T11:02:21.134-00:00",
        "included_in_blocks":
          [ "BLwtGkDZ1Bdhq5xLXe4sdTgA5zNaBJCX7n6UUdpchDXyYFup4vt" ] },
      { "delegate": "tz3WMqdzXqRWXwyvj5Hp2H7QEepaUuS7vd9K",
        "reception_time": "2022-01-15T11:02:21.226-00:00",
        "included_in_blocks":
          [ "BLwtGkDZ1Bdhq5xLXe4sdTgA5zNaBJCX7n6UUdpchDXyYFup4vt" ] },
      { "delegate": "tz3RDC3Jdn4j15J7bBHZd29EUee9gVB1CxD9",
        "reception_time": "2022-01-15T11:02:21.240-00:00",
        "included_in_blocks":
          [ "BLwtGkDZ1Bdhq5xLXe4sdTgA5zNaBJCX7n6UUdpchDXyYFup4vt" ] },
      { "delegate": "tz1SohptP53wDPZhzTWzDUFAUcWF6DMBpaJV",
        "reception_time": "2022-01-15T11:02:21.245-00:00",
        "included_in_blocks":
          [ "BLwtGkDZ1Bdhq5xLXe4sdTgA5zNaBJCX7n6UUdpchDXyYFup4vt" ] },
      { "delegate": "tz1V3yg82mcrPJbegqVCPn6bC8w1CSTRp3f8",
        "reception_time": "2022-01-15T11:02:21.293-00:00",
        "included_in_blocks":
          [ "BLwtGkDZ1Bdhq5xLXe4sdTgA5zNaBJCX7n6UUdpchDXyYFup4vt" ] },
      { "delegate": "tz3bvNMQ95vfAYtG8193ymshqjSvmxiCUuR5",
        "reception_time": "2022-01-15T11:02:21.456-00:00",
        "included_in_blocks":
          [ "BLwtGkDZ1Bdhq5xLXe4sdTgA5zNaBJCX7n6UUdpchDXyYFup4vt" ] },
      { "delegate": "tz1cYufsxHXJcvANhvS55h3aY32a9BAFB494",
        "reception_time": "2022-01-15T11:02:21.461-00:00",
        "included_in_blocks":
          [ "BLwtGkDZ1Bdhq5xLXe4sdTgA5zNaBJCX7n6UUdpchDXyYFup4vt" ] },
      { "delegate": "tz1aRoaRhSpRYvFdyvgWLL6TGyRoGF51wDjM",
        "reception_time": "2022-01-15T11:02:21.470-00:00",
        "included_in_blocks":
          [ "BLwtGkDZ1Bdhq5xLXe4sdTgA5zNaBJCX7n6UUdpchDXyYFup4vt" ] },
      { "delegate": "tz1X4Qb9NJ7JEuitX3jFpZptuAh7DUnCaLs1",
        "reception_time": "2022-01-15T11:02:21.604-00:00",
        "included_in_blocks":
          [ "BLwtGkDZ1Bdhq5xLXe4sdTgA5zNaBJCX7n6UUdpchDXyYFup4vt" ] },
      { "delegate": "tz1NuUu12WHdW3jHqvkujGHsiTi46Wvw1ci1",
        "reception_time": "2022-01-15T11:02:21.641-00:00",
        "included_in_blocks":
          [ "BLwtGkDZ1Bdhq5xLXe4sdTgA5zNaBJCX7n6UUdpchDXyYFup4vt" ] },
      { "delegate": "tz1fJHFn6sWEd3NnBPngACuw2dggTv6nQZ7g",
        "reception_time": "2022-01-15T11:02:21.661-00:00",
        "included_in_blocks":
          [ "BLwtGkDZ1Bdhq5xLXe4sdTgA5zNaBJCX7n6UUdpchDXyYFup4vt" ] },
      { "delegate": "tz3NExpXn9aPNZPorRE4SdjJ2RGrfbJgMAaV",
        "reception_time": "2022-01-15T11:02:21.739-00:00",
        "included_in_blocks":
          [ "BLwtGkDZ1Bdhq5xLXe4sdTgA5zNaBJCX7n6UUdpchDXyYFup4vt" ] },
      { "delegate": "tz1T7duV5gZWSTq4YpBGbXNLTfznCLDrFxvs",
        "reception_time": "2022-01-15T11:02:21.919-00:00",
        "included_in_blocks":
          [ "BLwtGkDZ1Bdhq5xLXe4sdTgA5zNaBJCX7n6UUdpchDXyYFup4vt" ] },
      { "delegate": "tz1dRKU4FQ9QRRQPdaH4zCR6gmCmXfcvcgtB",
        "reception_time": "2022-01-15T11:02:21.952-00:00",
        "included_in_blocks":
          [ "BLwtGkDZ1Bdhq5xLXe4sdTgA5zNaBJCX7n6UUdpchDXyYFup4vt" ] },
      { "delegate": "tz1awXW7wuXy21c66vBudMXQVAPgRnqqwgTH",
        "reception_time": "2022-01-15T11:02:22.105-00:00",
        "included_in_blocks":
          [ "BLwtGkDZ1Bdhq5xLXe4sdTgA5zNaBJCX7n6UUdpchDXyYFup4vt" ] },
      { "delegate": "tz1dNVDWPf3Q59SdJqnjdnu277iyvReiRS9M",
        "reception_time": "2022-01-15T11:02:22.218-00:00",
        "included_in_blocks":
          [ "BLwtGkDZ1Bdhq5xLXe4sdTgA5zNaBJCX7n6UUdpchDXyYFup4vt" ] },
      { "delegate": "tz1Uoy4PdQDDiHRRec77pJEQJ21tSyksarur",
        "reception_time": "2022-01-15T11:02:22.366-00:00",
        "included_in_blocks":
          [ "BLwtGkDZ1Bdhq5xLXe4sdTgA5zNaBJCX7n6UUdpchDXyYFup4vt" ] },
      { "delegate": "tz1TcH4Nb3aHNDJ7CGZhU7jgAK1BkSP4Lxds",
        "reception_time": "2022-01-15T11:02:22.424-00:00",
        "included_in_blocks":
          [ "BLwtGkDZ1Bdhq5xLXe4sdTgA5zNaBJCX7n6UUdpchDXyYFup4vt" ] },
      { "delegate": "tz1eVaNx3gCmG1EsLjijkmgAxdLYVf6Bf5Sq",
        "reception_time": "2022-01-15T11:02:23.256-00:00",
        "included_in_blocks":
          [ "BLwtGkDZ1Bdhq5xLXe4sdTgA5zNaBJCX7n6UUdpchDXyYFup4vt" ] },
      { "delegate": "tz3e7LbZvUtoXhpUD1yb6wuFodZpfYRb9nWJ",
        "reception_time": "2022-01-15T11:02:26.227-00:00",
        "included_in_blocks":
          [ "BLwtGkDZ1Bdhq5xLXe4sdTgA5zNaBJCX7n6UUdpchDXyYFup4vt" ] } ] }