{ "blocks":
    [ { "hash": "BLeE9rahWC5jD7vczx6D6pu1XTD5PPPJc1pDRVJNQjhx7qVxKxt",
        "delegate": "tz1gfArv665EUkSg2ojMBzcbfwuPxAvqPvjo",
        "reception_time": "2022-01-15T11:48:17.133-00:00",
        "timestamp": "2022-01-15T11:48:10Z" } ],
  "endorsements":
    [ { "delegate": "tz1Scdr2HsZiQjc7bHMeBbmDRXYVvdhjJbBh",
        "reception_time": "2022-01-15T11:48:17.048-00:00",
        "errors":
          [ { "kind": "temporary",
              "id": "proto.011-PtHangz2.prefilter.outdated_endorsement" } ],
        "included_in_blocks":
          [ "BL4vx42xZa3du9ZxLyW53n6rpkVDoCqaEY7b8DJucP28CyQNAwv" ] },
      { "delegate": "tz1P2Po7YM526ughEsRbY4oR9zaUPDZjxFrb",
        "reception_time": "2022-01-15T11:48:16.950-00:00",
        "errors":
          [ { "kind": "temporary",
              "id": "proto.011-PtHangz2.prefilter.outdated_endorsement" } ],
        "included_in_blocks":
          [ "BL4vx42xZa3du9ZxLyW53n6rpkVDoCqaEY7b8DJucP28CyQNAwv" ] },
      { "delegate": "tz1Zhv3RkfU2pHrmaiDyxp7kFZpZrUCu1CiF",
        "reception_time": "2022-01-15T11:48:16.839-00:00",
        "errors":
          [ { "kind": "temporary",
              "id": "proto.011-PtHangz2.prefilter.outdated_endorsement" } ],
        "included_in_blocks":
          [ "BL4vx42xZa3du9ZxLyW53n6rpkVDoCqaEY7b8DJucP28CyQNAwv" ] },
      { "delegate": "tz1Lhf4J9Qxoe3DZ2nfe8FGDnvVj7oKjnMY6",
        "reception_time": "2022-01-15T11:48:16.707-00:00",
        "errors":
          [ { "kind": "temporary",
              "id": "proto.011-PtHangz2.prefilter.outdated_endorsement" } ],
        "included_in_blocks":
          [ "BL4vx42xZa3du9ZxLyW53n6rpkVDoCqaEY7b8DJucP28CyQNAwv" ] },
      { "delegate": "tz1gfArv665EUkSg2ojMBzcbfwuPxAvqPvjo",
        "reception_time": "2022-01-15T11:48:16.526-00:00",
        "errors":
          [ { "kind": "temporary",
              "id": "proto.011-PtHangz2.prefilter.outdated_endorsement" } ],
        "included_in_blocks":
          [ "BL4vx42xZa3du9ZxLyW53n6rpkVDoCqaEY7b8DJucP28CyQNAwv" ] },
      { "delegate": "tz1dbfppLAAxXZNtf2SDps7rch3qfUznKSoK" },
      { "delegate": "tz1eEnQhbwf6trb8Q8mPb2RaPkNk2rN7BKi8",
        "reception_time": "2022-01-15T11:48:18.313-00:00",
        "included_in_blocks":
          [ "BL4vx42xZa3du9ZxLyW53n6rpkVDoCqaEY7b8DJucP28CyQNAwv" ] },
      { "delegate": "tz3Zhs2dygr55yHyQyKjntAtY9bgfhLZ4Xj1",
        "reception_time": "2022-01-15T11:48:18.326-00:00",
        "included_in_blocks":
          [ "BL4vx42xZa3du9ZxLyW53n6rpkVDoCqaEY7b8DJucP28CyQNAwv" ] },
      { "delegate": "tz3S6BBeKgJGXxvLyZ1xzXzMPn11nnFtq5L9",
        "reception_time": "2022-01-15T11:48:18.373-00:00",
        "included_in_blocks":
          [ "BL4vx42xZa3du9ZxLyW53n6rpkVDoCqaEY7b8DJucP28CyQNAwv" ] },
      { "delegate": "tz1a51WYsAsoh4fs4A4x5aCN6Za26mpfDfTi",
        "reception_time": "2022-01-15T11:48:18.392-00:00",
        "included_in_blocks":
          [ "BL4vx42xZa3du9ZxLyW53n6rpkVDoCqaEY7b8DJucP28CyQNAwv" ] },
      { "delegate": "tz1irJKkXS2DBWkU1NnmFQx1c1L7pbGg4yhk",
        "reception_time": "2022-01-15T11:48:18.392-00:00",
        "included_in_blocks":
          [ "BL4vx42xZa3du9ZxLyW53n6rpkVDoCqaEY7b8DJucP28CyQNAwv" ] },
      { "delegate": "tz3ZbP2pM3nwvXztbuMJwJnDvV5xdpU8UkkD",
        "reception_time": "2022-01-15T11:48:18.395-00:00",
        "included_in_blocks":
          [ "BL4vx42xZa3du9ZxLyW53n6rpkVDoCqaEY7b8DJucP28CyQNAwv" ] },
      { "delegate": "tz3hw2kqXhLUvY65ca1eety2oQTpAvd34R9Q",
        "reception_time": "2022-01-15T11:48:18.423-00:00",
        "included_in_blocks":
          [ "BL4vx42xZa3du9ZxLyW53n6rpkVDoCqaEY7b8DJucP28CyQNAwv" ] },
      { "delegate": "tz3iJu5vrKZcsqRPs8yJ61UDoeEXZmtro4qh",
        "reception_time": "2022-01-15T11:48:18.423-00:00",
        "included_in_blocks":
          [ "BL4vx42xZa3du9ZxLyW53n6rpkVDoCqaEY7b8DJucP28CyQNAwv" ] },
      { "delegate": "tz1MJx9vhaNRSimcuXPK2rW4fLccQnDAnVKJ",
        "reception_time": "2022-01-15T11:48:18.439-00:00",
        "included_in_blocks":
          [ "BL4vx42xZa3du9ZxLyW53n6rpkVDoCqaEY7b8DJucP28CyQNAwv" ] },
      { "delegate": "tz1aXD7Jigrt3PBYSpHSg5Rr33SexMmmM5Ys",
        "reception_time": "2022-01-15T11:48:18.442-00:00",
        "included_in_blocks":
          [ "BL4vx42xZa3du9ZxLyW53n6rpkVDoCqaEY7b8DJucP28CyQNAwv" ] },
      { "delegate": "tz1MQMiZHV8q4tTwUMWmS5Y3kaP6J2136iXr",
        "reception_time": "2022-01-15T11:48:18.446-00:00",
        "included_in_blocks":
          [ "BL4vx42xZa3du9ZxLyW53n6rpkVDoCqaEY7b8DJucP28CyQNAwv" ] },
      { "delegate": "tz1Ldzz6k1BHdhuKvAtMRX7h5kJSMHESMHLC",
        "reception_time": "2022-01-15T11:48:18.448-00:00",
        "included_in_blocks":
          [ "BL4vx42xZa3du9ZxLyW53n6rpkVDoCqaEY7b8DJucP28CyQNAwv" ] },
      { "delegate": "tz3NxTnke1acr8o3h5y9ytf5awQBGNJUKzVU",
        "reception_time": "2022-01-15T11:48:18.459-00:00",
        "included_in_blocks":
          [ "BL4vx42xZa3du9ZxLyW53n6rpkVDoCqaEY7b8DJucP28CyQNAwv" ] },
      { "delegate": "tz1e1sBDrsy7bsH7sPFgVyXbe6k21rbERsPc",
        "reception_time": "2022-01-15T11:48:18.459-00:00",
        "included_in_blocks":
          [ "BL4vx42xZa3du9ZxLyW53n6rpkVDoCqaEY7b8DJucP28CyQNAwv" ] },
      { "delegate": "tz3gtoUxdudfBRcNY7iVdKPHCYYX6xdPpoRS",
        "reception_time": "2022-01-15T11:48:18.466-00:00",
        "included_in_blocks":
          [ "BL4vx42xZa3du9ZxLyW53n6rpkVDoCqaEY7b8DJucP28CyQNAwv" ] },
      { "delegate": "tz3QSGPoRp3Kn7n3vY24eYeu3Peuqo45LQ4D",
        "reception_time": "2022-01-15T11:48:18.473-00:00",
        "included_in_blocks":
          [ "BL4vx42xZa3du9ZxLyW53n6rpkVDoCqaEY7b8DJucP28CyQNAwv" ] },
      { "delegate": "tz1S8MNvuFEUsWgjHvi3AxibRBf388NhT1q2",
        "reception_time": "2022-01-15T11:48:18.476-00:00",
        "included_in_blocks":
          [ "BL4vx42xZa3du9ZxLyW53n6rpkVDoCqaEY7b8DJucP28CyQNAwv" ] },
      { "delegate": "tz1NSDFKuRyzHxpfG1AMkyCwEiZ52cbR2mRW",
        "reception_time": "2022-01-15T11:48:18.483-00:00",
        "included_in_blocks":
          [ "BL4vx42xZa3du9ZxLyW53n6rpkVDoCqaEY7b8DJucP28CyQNAwv" ] },
      { "delegate": "tz3adcvQaKXTCg12zbninqo3q8ptKKtDFTLv",
        "reception_time": "2022-01-15T11:48:18.495-00:00",
        "included_in_blocks":
          [ "BL4vx42xZa3du9ZxLyW53n6rpkVDoCqaEY7b8DJucP28CyQNAwv" ] },
      { "delegate": "tz1PWCDnz783NNGGQjEFFsHtrcK5yBW4E2rm",
        "reception_time": "2022-01-15T11:48:18.502-00:00",
        "included_in_blocks":
          [ "BL4vx42xZa3du9ZxLyW53n6rpkVDoCqaEY7b8DJucP28CyQNAwv" ] },
      { "delegate": "tz1gUNyn3hmnEWqkusWPzxRaon1cs7ndWh7h",
        "reception_time": "2022-01-15T11:48:18.535-00:00",
        "included_in_blocks":
          [ "BL4vx42xZa3du9ZxLyW53n6rpkVDoCqaEY7b8DJucP28CyQNAwv" ] },
      { "delegate": "tz1VQnqCCqX4K5sP3FNkVSNKTdCAMJDd3E1n",
        "reception_time": "2022-01-15T11:48:18.537-00:00",
        "included_in_blocks":
          [ "BL4vx42xZa3du9ZxLyW53n6rpkVDoCqaEY7b8DJucP28CyQNAwv" ] },
      { "delegate": "tz1WCd2jm4uSt4vntk4vSuUWoZQGhLcDuR9q",
        "reception_time": "2022-01-15T11:48:18.557-00:00",
        "included_in_blocks":
          [ "BL4vx42xZa3du9ZxLyW53n6rpkVDoCqaEY7b8DJucP28CyQNAwv" ] },
      { "delegate": "tz1NortRftucvAkD1J58L32EhSVrQEWJCEnB",
        "reception_time": "2022-01-15T11:48:18.566-00:00",
        "included_in_blocks":
          [ "BL4vx42xZa3du9ZxLyW53n6rpkVDoCqaEY7b8DJucP28CyQNAwv" ] },
      { "delegate": "tz3RDC3Jdn4j15J7bBHZd29EUee9gVB1CxD9",
        "reception_time": "2022-01-15T11:48:18.574-00:00",
        "included_in_blocks":
          [ "BL4vx42xZa3du9ZxLyW53n6rpkVDoCqaEY7b8DJucP28CyQNAwv" ] },
      { "delegate": "tz1KfEsrtDaA1sX7vdM4qmEPWuSytuqCDp5j",
        "reception_time": "2022-01-15T11:48:18.577-00:00",
        "included_in_blocks":
          [ "BL4vx42xZa3du9ZxLyW53n6rpkVDoCqaEY7b8DJucP28CyQNAwv" ] },
      { "delegate": "tz1SUgyRB8T5jXgXAwS33pgRHAKrafyg87Yc",
        "reception_time": "2022-01-15T11:48:18.580-00:00",
        "included_in_blocks":
          [ "BL4vx42xZa3du9ZxLyW53n6rpkVDoCqaEY7b8DJucP28CyQNAwv" ] },
      { "delegate": "tz1dwu9aYb7CRNq4Y2zAjipdjFuSVKhHS8vA",
        "reception_time": "2022-01-15T11:48:18.587-00:00",
        "included_in_blocks":
          [ "BL4vx42xZa3du9ZxLyW53n6rpkVDoCqaEY7b8DJucP28CyQNAwv" ] },
      { "delegate": "tz1LmaFsWRkjr7QMCx5PtV6xTUz3AmEpKQiF",
        "reception_time": "2022-01-15T11:48:18.587-00:00",
        "included_in_blocks":
          [ "BL4vx42xZa3du9ZxLyW53n6rpkVDoCqaEY7b8DJucP28CyQNAwv" ] },
      { "delegate": "tz3bTdwZinP8U1JmSweNzVKhmwafqWmFWRfk",
        "reception_time": "2022-01-15T11:48:18.604-00:00",
        "included_in_blocks":
          [ "BL4vx42xZa3du9ZxLyW53n6rpkVDoCqaEY7b8DJucP28CyQNAwv" ] },
      { "delegate": "tz1MQJPGNMijnXnVoBENFz9rUhaPt3S7rWoz",
        "reception_time": "2022-01-15T11:48:18.604-00:00",
        "included_in_blocks":
          [ "BL4vx42xZa3du9ZxLyW53n6rpkVDoCqaEY7b8DJucP28CyQNAwv" ] },
      { "delegate": "tz1ei4WtWEMEJekSv8qDnu9PExG6Q8HgRGr3",
        "reception_time": "2022-01-15T11:48:18.685-00:00",
        "included_in_blocks":
          [ "BL4vx42xZa3du9ZxLyW53n6rpkVDoCqaEY7b8DJucP28CyQNAwv" ] },
      { "delegate": "tz1hAYfexyzPGG6RhZZMpDvAHifubsbb6kgn",
        "reception_time": "2022-01-15T11:48:18.741-00:00",
        "included_in_blocks":
          [ "BL4vx42xZa3du9ZxLyW53n6rpkVDoCqaEY7b8DJucP28CyQNAwv" ] },
      { "delegate": "tz1RCFbB9GpALpsZtu6J58sb74dm8qe6XBzv",
        "reception_time": "2022-01-15T11:48:18.796-00:00",
        "included_in_blocks":
          [ "BL4vx42xZa3du9ZxLyW53n6rpkVDoCqaEY7b8DJucP28CyQNAwv" ] },
      { "delegate": "tz1UMCB2AHSTwG7YcGNr31CqYCtGN873royv",
        "reception_time": "2022-01-15T11:48:18.826-00:00",
        "included_in_blocks":
          [ "BL4vx42xZa3du9ZxLyW53n6rpkVDoCqaEY7b8DJucP28CyQNAwv" ] },
      { "delegate": "tz1chefX9Lf2XcZ4BzPtHjV4Qed6BY2ci9GE",
        "reception_time": "2022-01-15T11:48:18.886-00:00",
        "included_in_blocks":
          [ "BL4vx42xZa3du9ZxLyW53n6rpkVDoCqaEY7b8DJucP28CyQNAwv" ] },
      { "delegate": "tz3WMqdzXqRWXwyvj5Hp2H7QEepaUuS7vd9K",
        "reception_time": "2022-01-15T11:48:18.919-00:00",
        "included_in_blocks":
          [ "BL4vx42xZa3du9ZxLyW53n6rpkVDoCqaEY7b8DJucP28CyQNAwv" ] },
      { "delegate": "tz1Nf6tsK4G6bBqgSQERy4nUtkHNKUVdh7q1",
        "reception_time": "2022-01-15T11:48:18.971-00:00",
        "included_in_blocks":
          [ "BL4vx42xZa3du9ZxLyW53n6rpkVDoCqaEY7b8DJucP28CyQNAwv" ] },
      { "delegate": "tz1abmz7jiCV2GH2u81LRrGgAFFgvQgiDiaf",
        "reception_time": "2022-01-15T11:48:18.975-00:00",
        "included_in_blocks":
          [ "BL4vx42xZa3du9ZxLyW53n6rpkVDoCqaEY7b8DJucP28CyQNAwv" ] },
      { "delegate": "tz1TEc75UKXv4W5cwi14Na3NtqFD51yKQi7h",
        "reception_time": "2022-01-15T11:48:18.984-00:00",
        "included_in_blocks":
          [ "BL4vx42xZa3du9ZxLyW53n6rpkVDoCqaEY7b8DJucP28CyQNAwv" ] },
      { "delegate": "tz1Tnjaxk6tbAeC2TmMApPh8UsrEVQvhHvx5",
        "reception_time": "2022-01-15T11:48:19.000-00:00",
        "included_in_blocks":
          [ "BL4vx42xZa3du9ZxLyW53n6rpkVDoCqaEY7b8DJucP28CyQNAwv" ] },
      { "delegate": "tz3NDpRj6WBrJPikcPVHRBEjWKxFw3c6eQPS",
        "reception_time": "2022-01-15T11:48:19.022-00:00",
        "included_in_blocks":
          [ "BL4vx42xZa3du9ZxLyW53n6rpkVDoCqaEY7b8DJucP28CyQNAwv" ] },
      { "delegate": "tz1a1J3AGjJTAyBqWWSqFuUazUDV2TtD6hMy",
        "reception_time": "2022-01-15T11:48:19.022-00:00",
        "included_in_blocks":
          [ "BL4vx42xZa3du9ZxLyW53n6rpkVDoCqaEY7b8DJucP28CyQNAwv" ] },
      { "delegate": "tz1TRqbYbUf2GyrjErf3hBzgBJPzW8y36qEs",
        "reception_time": "2022-01-15T11:48:19.036-00:00",
        "included_in_blocks":
          [ "BL4vx42xZa3du9ZxLyW53n6rpkVDoCqaEY7b8DJucP28CyQNAwv" ] },
      { "delegate": "tz3gLTu4Yxj8tPAcriQVUdxv6BY9QyvzU1az",
        "reception_time": "2022-01-15T11:48:19.048-00:00",
        "included_in_blocks":
          [ "BL4vx42xZa3du9ZxLyW53n6rpkVDoCqaEY7b8DJucP28CyQNAwv" ] },
      { "delegate": "tz1RjoHc98dBoqaH2jawF62XNKh7YsHwbkEv",
        "reception_time": "2022-01-15T11:48:19.068-00:00",
        "included_in_blocks":
          [ "BL4vx42xZa3du9ZxLyW53n6rpkVDoCqaEY7b8DJucP28CyQNAwv" ] },
      { "delegate": "tz2FCNBrERXtaTtNX6iimR1UJ5JSDxvdHM93",
        "reception_time": "2022-01-15T11:48:19.079-00:00",
        "included_in_blocks":
          [ "BL4vx42xZa3du9ZxLyW53n6rpkVDoCqaEY7b8DJucP28CyQNAwv" ] },
      { "delegate": "tz1WBfwbT66FC6BTLexc2BoyCCBM9LG7pnVW",
        "reception_time": "2022-01-15T11:48:19.118-00:00",
        "included_in_blocks":
          [ "BL4vx42xZa3du9ZxLyW53n6rpkVDoCqaEY7b8DJucP28CyQNAwv" ] },
      { "delegate": "tz1axcnVN9tZnCe4sQQhC6f3tfSEXdjPaXPY",
        "reception_time": "2022-01-15T11:48:19.188-00:00",
        "included_in_blocks":
          [ "BL4vx42xZa3du9ZxLyW53n6rpkVDoCqaEY7b8DJucP28CyQNAwv" ] },
      { "delegate": "tz1cig1EHyvZd7J2k389moM9PxVgPQvmFkvi",
        "reception_time": "2022-01-15T11:48:19.330-00:00",
        "included_in_blocks":
          [ "BL4vx42xZa3du9ZxLyW53n6rpkVDoCqaEY7b8DJucP28CyQNAwv" ] },
      { "delegate": "tz1S6H83gugqK4dR5Had9jWR9M1ZdAAVgU5e",
        "reception_time": "2022-01-15T11:48:19.515-00:00",
        "included_in_blocks":
          [ "BL4vx42xZa3du9ZxLyW53n6rpkVDoCqaEY7b8DJucP28CyQNAwv" ] },
      { "delegate": "tz1PeZx7FXy7QRuMREGXGxeipb24RsMMzUNe",
        "reception_time": "2022-01-15T11:48:19.669-00:00",
        "included_in_blocks":
          [ "BL4vx42xZa3du9ZxLyW53n6rpkVDoCqaEY7b8DJucP28CyQNAwv" ] },
      { "delegate": "tz1cYufsxHXJcvANhvS55h3aY32a9BAFB494",
        "reception_time": "2022-01-15T11:48:19.690-00:00",
        "included_in_blocks":
          [ "BL4vx42xZa3du9ZxLyW53n6rpkVDoCqaEY7b8DJucP28CyQNAwv" ] },
      { "delegate": "tz3VEZ4k6a4Wx42iyev6i2aVAptTRLEAivNN",
        "reception_time": "2022-01-15T11:48:19.765-00:00",
        "included_in_blocks":
          [ "BL4vx42xZa3du9ZxLyW53n6rpkVDoCqaEY7b8DJucP28CyQNAwv" ] },
      { "delegate": "tz3RB4aoyjov4KEVRbuhvQ1CKJgBJMWhaeB8",
        "reception_time": "2022-01-15T11:48:19.829-00:00",
        "included_in_blocks":
          [ "BL4vx42xZa3du9ZxLyW53n6rpkVDoCqaEY7b8DJucP28CyQNAwv" ] },
      { "delegate": "tz3bvNMQ95vfAYtG8193ymshqjSvmxiCUuR5",
        "reception_time": "2022-01-15T11:48:19.846-00:00",
        "included_in_blocks":
          [ "BL4vx42xZa3du9ZxLyW53n6rpkVDoCqaEY7b8DJucP28CyQNAwv" ] },
      { "delegate": "tz3NExpXn9aPNZPorRE4SdjJ2RGrfbJgMAaV",
        "reception_time": "2022-01-15T11:48:20.211-00:00",
        "included_in_blocks":
          [ "BL4vx42xZa3du9ZxLyW53n6rpkVDoCqaEY7b8DJucP28CyQNAwv" ] },
      { "delegate": "tz3UoffC7FG7zfpmvmjUmUeAaHvzdcUvAj6r",
        "reception_time": "2022-01-15T11:48:20.229-00:00",
        "included_in_blocks":
          [ "BL4vx42xZa3du9ZxLyW53n6rpkVDoCqaEY7b8DJucP28CyQNAwv" ] },
      { "delegate": "tz1aRoaRhSpRYvFdyvgWLL6TGyRoGF51wDjM",
        "reception_time": "2022-01-15T11:48:20.283-00:00",
        "included_in_blocks":
          [ "BL4vx42xZa3du9ZxLyW53n6rpkVDoCqaEY7b8DJucP28CyQNAwv" ] },
      { "delegate": "tz1T7duV5gZWSTq4YpBGbXNLTfznCLDrFxvs",
        "reception_time": "2022-01-15T11:48:20.301-00:00",
        "included_in_blocks":
          [ "BL4vx42xZa3du9ZxLyW53n6rpkVDoCqaEY7b8DJucP28CyQNAwv" ] },
      { "delegate": "tz1dRKU4FQ9QRRQPdaH4zCR6gmCmXfcvcgtB",
        "reception_time": "2022-01-15T11:48:20.346-00:00",
        "included_in_blocks":
          [ "BL4vx42xZa3du9ZxLyW53n6rpkVDoCqaEY7b8DJucP28CyQNAwv" ] },
      { "delegate": "tz1TcH4Nb3aHNDJ7CGZhU7jgAK1BkSP4Lxds",
        "reception_time": "2022-01-15T11:48:20.868-00:00",
        "included_in_blocks":
          [ "BL4vx42xZa3du9ZxLyW53n6rpkVDoCqaEY7b8DJucP28CyQNAwv" ] },
      { "delegate": "tz1acZQd7TdfoiUnD2czHnTHB2TaJQP6gdqo",
        "reception_time": "2022-01-15T11:48:20.939-00:00",
        "included_in_blocks":
          [ "BL4vx42xZa3du9ZxLyW53n6rpkVDoCqaEY7b8DJucP28CyQNAwv" ] },
      { "delegate": "tz1aJS7Pk9uWR3wWyFf1i3RwhYxN84G7stom",
        "reception_time": "2022-01-15T11:48:22.002-00:00",
        "included_in_blocks":
          [ "BL4vx42xZa3du9ZxLyW53n6rpkVDoCqaEY7b8DJucP28CyQNAwv" ] },
      { "delegate": "tz3e7LbZvUtoXhpUD1yb6wuFodZpfYRb9nWJ",
        "reception_time": "2022-01-15T11:48:25.276-00:00",
        "included_in_blocks":
          [ "BL4vx42xZa3du9ZxLyW53n6rpkVDoCqaEY7b8DJucP28CyQNAwv" ] } ] }