{ "blocks":
    [ { "hash": "BMEhXAQQsMBUC5xvKZNfWTTi8nCD9oUmu3ipiGdhuRKKPDWzjDT",
        "delegate": "tz2FCNBrERXtaTtNX6iimR1UJ5JSDxvdHM93",
        "reception_time": "2022-01-15T10:46:17.405-00:00",
        "timestamp": "2022-01-15T10:46:10Z" } ],
  "endorsements":
    [ { "delegate": "tz1P2Po7YM526ughEsRbY4oR9zaUPDZjxFrb",
        "reception_time": "2022-01-15T10:46:17.285-00:00",
        "errors":
          [ { "kind": "temporary",
              "id": "proto.011-PtHangz2.prefilter.outdated_endorsement" } ],
        "included_in_blocks":
          [ "BMWdMBgPXJe4tC4VdbFfW6NgaJDoCfYz3sLfRKQVQSAwbheqW5a" ] },
      { "delegate": "tz1VQnqCCqX4K5sP3FNkVSNKTdCAMJDd3E1n",
        "reception_time": "2022-01-15T10:46:17.265-00:00",
        "errors":
          [ { "kind": "temporary",
              "id": "proto.011-PtHangz2.prefilter.outdated_endorsement" } ],
        "included_in_blocks":
          [ "BMWdMBgPXJe4tC4VdbFfW6NgaJDoCfYz3sLfRKQVQSAwbheqW5a" ] },
      { "delegate": "tz1eEnQhbwf6trb8Q8mPb2RaPkNk2rN7BKi8",
        "reception_time": "2022-01-15T10:46:17.262-00:00",
        "errors":
          [ { "kind": "temporary",
              "id": "proto.011-PtHangz2.prefilter.outdated_endorsement" } ],
        "included_in_blocks":
          [ "BMWdMBgPXJe4tC4VdbFfW6NgaJDoCfYz3sLfRKQVQSAwbheqW5a" ] },
      { "delegate": "tz1beersuEDv8Z7ngQ825xfbaJNS2EhXnyHR",
        "reception_time": "2022-01-15T10:46:17.189-00:00",
        "errors":
          [ { "kind": "temporary",
              "id": "proto.011-PtHangz2.prefilter.outdated_endorsement" } ],
        "included_in_blocks":
          [ "BMWdMBgPXJe4tC4VdbFfW6NgaJDoCfYz3sLfRKQVQSAwbheqW5a" ] },
      { "delegate": "tz1Scdr2HsZiQjc7bHMeBbmDRXYVvdhjJbBh",
        "reception_time": "2022-01-15T10:46:17.171-00:00",
        "errors":
          [ { "kind": "temporary",
              "id": "proto.011-PtHangz2.prefilter.outdated_endorsement" } ],
        "included_in_blocks":
          [ "BMWdMBgPXJe4tC4VdbFfW6NgaJDoCfYz3sLfRKQVQSAwbheqW5a" ] },
      { "delegate": "tz1STeamwbp68THcny9zk3LsbG3H36DMvbRK",
        "reception_time": "2022-01-15T10:46:17.130-00:00",
        "errors":
          [ { "kind": "temporary",
              "id": "proto.011-PtHangz2.prefilter.outdated_endorsement" } ],
        "included_in_blocks":
          [ "BMWdMBgPXJe4tC4VdbFfW6NgaJDoCfYz3sLfRKQVQSAwbheqW5a" ] },
      { "delegate": "tz1irJKkXS2DBWkU1NnmFQx1c1L7pbGg4yhk",
        "reception_time": "2022-01-15T10:46:17.080-00:00",
        "errors":
          [ { "kind": "temporary",
              "id": "proto.011-PtHangz2.prefilter.outdated_endorsement" } ],
        "included_in_blocks":
          [ "BMWdMBgPXJe4tC4VdbFfW6NgaJDoCfYz3sLfRKQVQSAwbheqW5a" ] },
      { "delegate": "tz1Lhf4J9Qxoe3DZ2nfe8FGDnvVj7oKjnMY6",
        "reception_time": "2022-01-15T10:46:16.836-00:00",
        "errors":
          [ { "kind": "temporary",
              "id": "proto.011-PtHangz2.prefilter.outdated_endorsement" } ],
        "included_in_blocks":
          [ "BMWdMBgPXJe4tC4VdbFfW6NgaJDoCfYz3sLfRKQVQSAwbheqW5a" ] },
      { "delegate": "tz1S8e9GgdZG78XJRB3NqabfWeM37GnhZMWQ",
        "reception_time": "2022-01-15T10:46:16.565-00:00",
        "errors":
          [ { "kind": "temporary",
              "id": "proto.011-PtHangz2.prefilter.outdated_endorsement" } ],
        "included_in_blocks":
          [ "BMWdMBgPXJe4tC4VdbFfW6NgaJDoCfYz3sLfRKQVQSAwbheqW5a" ] },
      { "delegate": "tz1NdhRv643wLW6zCcRP3VfT24dvDnh7nuh9" },
      { "delegate": "tz1TRspM5SeZpaQUhzByXbEvqKF1vnCM2YTK" },
      { "delegate": "tz3ZbP2pM3nwvXztbuMJwJnDvV5xdpU8UkkD",
        "reception_time": "2022-01-15T10:46:18.455-00:00",
        "included_in_blocks":
          [ "BMWdMBgPXJe4tC4VdbFfW6NgaJDoCfYz3sLfRKQVQSAwbheqW5a" ] },
      { "delegate": "tz3hw2kqXhLUvY65ca1eety2oQTpAvd34R9Q",
        "reception_time": "2022-01-15T10:46:18.475-00:00",
        "included_in_blocks":
          [ "BMWdMBgPXJe4tC4VdbFfW6NgaJDoCfYz3sLfRKQVQSAwbheqW5a" ] },
      { "delegate": "tz3RKYFsLuQzKBtmYuLNas7uMu3AsYd4QdsA",
        "reception_time": "2022-01-15T10:46:18.490-00:00",
        "included_in_blocks":
          [ "BMWdMBgPXJe4tC4VdbFfW6NgaJDoCfYz3sLfRKQVQSAwbheqW5a" ] },
      { "delegate": "tz3NxTnke1acr8o3h5y9ytf5awQBGNJUKzVU",
        "reception_time": "2022-01-15T10:46:18.493-00:00",
        "included_in_blocks":
          [ "BMWdMBgPXJe4tC4VdbFfW6NgaJDoCfYz3sLfRKQVQSAwbheqW5a" ] },
      { "delegate": "tz1d6Fx42mYgVFnHUW8T8A7WBfJ6nD9pVok8",
        "reception_time": "2022-01-15T10:46:18.508-00:00",
        "included_in_blocks":
          [ "BMWdMBgPXJe4tC4VdbFfW6NgaJDoCfYz3sLfRKQVQSAwbheqW5a" ] },
      { "delegate": "tz1aXD7Jigrt3PBYSpHSg5Rr33SexMmmM5Ys",
        "reception_time": "2022-01-15T10:46:18.512-00:00",
        "included_in_blocks":
          [ "BMWdMBgPXJe4tC4VdbFfW6NgaJDoCfYz3sLfRKQVQSAwbheqW5a" ] },
      { "delegate": "tz3QCNyySViKHmeSr45kzDxzchys7NiXCWoa",
        "reception_time": "2022-01-15T10:46:18.525-00:00",
        "included_in_blocks":
          [ "BMWdMBgPXJe4tC4VdbFfW6NgaJDoCfYz3sLfRKQVQSAwbheqW5a" ] },
      { "delegate": "tz3Zhs2dygr55yHyQyKjntAtY9bgfhLZ4Xj1",
        "reception_time": "2022-01-15T10:46:18.534-00:00",
        "included_in_blocks":
          [ "BMWdMBgPXJe4tC4VdbFfW6NgaJDoCfYz3sLfRKQVQSAwbheqW5a" ] },
      { "delegate": "tz1Ldzz6k1BHdhuKvAtMRX7h5kJSMHESMHLC",
        "reception_time": "2022-01-15T10:46:18.542-00:00",
        "included_in_blocks":
          [ "BMWdMBgPXJe4tC4VdbFfW6NgaJDoCfYz3sLfRKQVQSAwbheqW5a" ] },
      { "delegate": "tz3iJu5vrKZcsqRPs8yJ61UDoeEXZmtro4qh",
        "reception_time": "2022-01-15T10:46:18.550-00:00",
        "included_in_blocks":
          [ "BMWdMBgPXJe4tC4VdbFfW6NgaJDoCfYz3sLfRKQVQSAwbheqW5a" ] },
      { "delegate": "tz1TzaNn7wSQSP5gYPXCnNzBCpyMiidCq1PX",
        "reception_time": "2022-01-15T10:46:18.554-00:00",
        "included_in_blocks":
          [ "BMWdMBgPXJe4tC4VdbFfW6NgaJDoCfYz3sLfRKQVQSAwbheqW5a" ] },
      { "delegate": "tz3QSGPoRp3Kn7n3vY24eYeu3Peuqo45LQ4D",
        "reception_time": "2022-01-15T10:46:18.578-00:00",
        "included_in_blocks":
          [ "BMWdMBgPXJe4tC4VdbFfW6NgaJDoCfYz3sLfRKQVQSAwbheqW5a" ] },
      { "delegate": "tz3gtoUxdudfBRcNY7iVdKPHCYYX6xdPpoRS",
        "reception_time": "2022-01-15T10:46:18.585-00:00",
        "included_in_blocks":
          [ "BMWdMBgPXJe4tC4VdbFfW6NgaJDoCfYz3sLfRKQVQSAwbheqW5a" ] },
      { "delegate": "tz1Kf25fX1VdmYGSEzwFy1wNmkbSEZ2V83sY",
        "reception_time": "2022-01-15T10:46:18.590-00:00",
        "included_in_blocks":
          [ "BMWdMBgPXJe4tC4VdbFfW6NgaJDoCfYz3sLfRKQVQSAwbheqW5a" ] },
      { "delegate": "tz1VmiY38m3y95HqQLjMwqnMS7sdMfGomzKi",
        "reception_time": "2022-01-15T10:46:18.598-00:00",
        "included_in_blocks":
          [ "BMWdMBgPXJe4tC4VdbFfW6NgaJDoCfYz3sLfRKQVQSAwbheqW5a" ] },
      { "delegate": "tz3QT9dHYKDqh563chVa6za8526ys1UKfRfL",
        "reception_time": "2022-01-15T10:46:18.607-00:00",
        "included_in_blocks":
          [ "BMWdMBgPXJe4tC4VdbFfW6NgaJDoCfYz3sLfRKQVQSAwbheqW5a" ] },
      { "delegate": "tz3bTdwZinP8U1JmSweNzVKhmwafqWmFWRfk",
        "reception_time": "2022-01-15T10:46:18.628-00:00",
        "included_in_blocks":
          [ "BMWdMBgPXJe4tC4VdbFfW6NgaJDoCfYz3sLfRKQVQSAwbheqW5a" ] },
      { "delegate": "tz1gUNyn3hmnEWqkusWPzxRaon1cs7ndWh7h",
        "reception_time": "2022-01-15T10:46:18.635-00:00",
        "included_in_blocks":
          [ "BMWdMBgPXJe4tC4VdbFfW6NgaJDoCfYz3sLfRKQVQSAwbheqW5a" ] },
      { "delegate": "tz1MQMiZHV8q4tTwUMWmS5Y3kaP6J2136iXr",
        "reception_time": "2022-01-15T10:46:18.654-00:00",
        "included_in_blocks":
          [ "BMWdMBgPXJe4tC4VdbFfW6NgaJDoCfYz3sLfRKQVQSAwbheqW5a" ] },
      { "delegate": "tz3S6BBeKgJGXxvLyZ1xzXzMPn11nnFtq5L9",
        "reception_time": "2022-01-15T10:46:18.662-00:00",
        "included_in_blocks":
          [ "BMWdMBgPXJe4tC4VdbFfW6NgaJDoCfYz3sLfRKQVQSAwbheqW5a" ] },
      { "delegate": "tz1WCd2jm4uSt4vntk4vSuUWoZQGhLcDuR9q",
        "reception_time": "2022-01-15T10:46:18.665-00:00",
        "included_in_blocks":
          [ "BMWdMBgPXJe4tC4VdbFfW6NgaJDoCfYz3sLfRKQVQSAwbheqW5a" ] },
      { "delegate": "tz1abmz7jiCV2GH2u81LRrGgAFFgvQgiDiaf",
        "reception_time": "2022-01-15T10:46:18.670-00:00",
        "included_in_blocks":
          [ "BMWdMBgPXJe4tC4VdbFfW6NgaJDoCfYz3sLfRKQVQSAwbheqW5a" ] },
      { "delegate": "tz1Lc87p6zRaDwzJs9kHvdpm7XzeWE8QTwVB",
        "reception_time": "2022-01-15T10:46:18.673-00:00",
        "included_in_blocks":
          [ "BMWdMBgPXJe4tC4VdbFfW6NgaJDoCfYz3sLfRKQVQSAwbheqW5a" ] },
      { "delegate": "tz1PWCDnz783NNGGQjEFFsHtrcK5yBW4E2rm",
        "reception_time": "2022-01-15T10:46:18.678-00:00",
        "included_in_blocks":
          [ "BMWdMBgPXJe4tC4VdbFfW6NgaJDoCfYz3sLfRKQVQSAwbheqW5a" ] },
      { "delegate": "tz1S8MNvuFEUsWgjHvi3AxibRBf388NhT1q2",
        "reception_time": "2022-01-15T10:46:18.700-00:00",
        "included_in_blocks":
          [ "BMWdMBgPXJe4tC4VdbFfW6NgaJDoCfYz3sLfRKQVQSAwbheqW5a" ] },
      { "delegate": "tz1fb7c66UwePkkfDXz4ajFaBP9hVNLdS7JJ",
        "reception_time": "2022-01-15T10:46:18.711-00:00",
        "included_in_blocks":
          [ "BMWdMBgPXJe4tC4VdbFfW6NgaJDoCfYz3sLfRKQVQSAwbheqW5a" ] },
      { "delegate": "tz1gfArv665EUkSg2ojMBzcbfwuPxAvqPvjo",
        "reception_time": "2022-01-15T10:46:18.720-00:00",
        "included_in_blocks":
          [ "BMWdMBgPXJe4tC4VdbFfW6NgaJDoCfYz3sLfRKQVQSAwbheqW5a" ] },
      { "delegate": "tz1cZfFQpcYhwDp7y1njZXDsZqCrn2NqmVof",
        "reception_time": "2022-01-15T10:46:18.774-00:00",
        "included_in_blocks":
          [ "BMWdMBgPXJe4tC4VdbFfW6NgaJDoCfYz3sLfRKQVQSAwbheqW5a" ] },
      { "delegate": "tz1MQJPGNMijnXnVoBENFz9rUhaPt3S7rWoz",
        "reception_time": "2022-01-15T10:46:18.847-00:00",
        "included_in_blocks":
          [ "BMWdMBgPXJe4tC4VdbFfW6NgaJDoCfYz3sLfRKQVQSAwbheqW5a" ] },
      { "delegate": "tz1ei4WtWEMEJekSv8qDnu9PExG6Q8HgRGr3",
        "reception_time": "2022-01-15T10:46:18.851-00:00",
        "included_in_blocks":
          [ "BMWdMBgPXJe4tC4VdbFfW6NgaJDoCfYz3sLfRKQVQSAwbheqW5a" ] },
      { "delegate": "tz1KfEsrtDaA1sX7vdM4qmEPWuSytuqCDp5j",
        "reception_time": "2022-01-15T10:46:18.853-00:00",
        "included_in_blocks":
          [ "BMWdMBgPXJe4tC4VdbFfW6NgaJDoCfYz3sLfRKQVQSAwbheqW5a" ] },
      { "delegate": "tz1V4qCyvPKZ5UeqdH14HN42rxvNPQfc9UZg",
        "reception_time": "2022-01-15T10:46:18.865-00:00",
        "included_in_blocks":
          [ "BMWdMBgPXJe4tC4VdbFfW6NgaJDoCfYz3sLfRKQVQSAwbheqW5a" ] },
      { "delegate": "tz1RQhNh7iB9CZA7i3ifTWNwiGYVffponfbB",
        "reception_time": "2022-01-15T10:46:19.036-00:00",
        "included_in_blocks":
          [ "BMWdMBgPXJe4tC4VdbFfW6NgaJDoCfYz3sLfRKQVQSAwbheqW5a" ] },
      { "delegate": "tz3gLTu4Yxj8tPAcriQVUdxv6BY9QyvzU1az",
        "reception_time": "2022-01-15T10:46:19.054-00:00",
        "included_in_blocks":
          [ "BMWdMBgPXJe4tC4VdbFfW6NgaJDoCfYz3sLfRKQVQSAwbheqW5a" ] },
      { "delegate": "tz3NDpRj6WBrJPikcPVHRBEjWKxFw3c6eQPS",
        "reception_time": "2022-01-15T10:46:19.064-00:00",
        "included_in_blocks":
          [ "BMWdMBgPXJe4tC4VdbFfW6NgaJDoCfYz3sLfRKQVQSAwbheqW5a" ] },
      { "delegate": "tz1WBfwbT66FC6BTLexc2BoyCCBM9LG7pnVW",
        "reception_time": "2022-01-15T10:46:19.079-00:00",
        "included_in_blocks":
          [ "BMWdMBgPXJe4tC4VdbFfW6NgaJDoCfYz3sLfRKQVQSAwbheqW5a" ] },
      { "delegate": "tz1LmaFsWRkjr7QMCx5PtV6xTUz3AmEpKQiF",
        "reception_time": "2022-01-15T10:46:19.093-00:00",
        "included_in_blocks":
          [ "BMWdMBgPXJe4tC4VdbFfW6NgaJDoCfYz3sLfRKQVQSAwbheqW5a" ] },
      { "delegate": "tz1XCJBHkDn2D9wjgXEJHMi2jTxg563XUunQ",
        "reception_time": "2022-01-15T10:46:19.130-00:00",
        "included_in_blocks":
          [ "BMWdMBgPXJe4tC4VdbFfW6NgaJDoCfYz3sLfRKQVQSAwbheqW5a" ] },
      { "delegate": "tz3UoffC7FG7zfpmvmjUmUeAaHvzdcUvAj6r",
        "reception_time": "2022-01-15T10:46:19.190-00:00",
        "included_in_blocks":
          [ "BMWdMBgPXJe4tC4VdbFfW6NgaJDoCfYz3sLfRKQVQSAwbheqW5a" ] },
      { "delegate": "tz1Nf6tsK4G6bBqgSQERy4nUtkHNKUVdh7q1",
        "reception_time": "2022-01-15T10:46:19.226-00:00",
        "included_in_blocks":
          [ "BMWdMBgPXJe4tC4VdbFfW6NgaJDoCfYz3sLfRKQVQSAwbheqW5a" ] },
      { "delegate": "tz3bvNMQ95vfAYtG8193ymshqjSvmxiCUuR5",
        "reception_time": "2022-01-15T10:46:19.436-00:00",
        "included_in_blocks":
          [ "BMWdMBgPXJe4tC4VdbFfW6NgaJDoCfYz3sLfRKQVQSAwbheqW5a" ] },
      { "delegate": "tz2FCNBrERXtaTtNX6iimR1UJ5JSDxvdHM93",
        "reception_time": "2022-01-15T10:46:19.460-00:00",
        "included_in_blocks":
          [ "BMWdMBgPXJe4tC4VdbFfW6NgaJDoCfYz3sLfRKQVQSAwbheqW5a" ] },
      { "delegate": "tz3WMqdzXqRWXwyvj5Hp2H7QEepaUuS7vd9K",
        "reception_time": "2022-01-15T10:46:19.466-00:00",
        "included_in_blocks":
          [ "BMWdMBgPXJe4tC4VdbFfW6NgaJDoCfYz3sLfRKQVQSAwbheqW5a" ] },
      { "delegate": "tz3RB4aoyjov4KEVRbuhvQ1CKJgBJMWhaeB8",
        "reception_time": "2022-01-15T10:46:19.485-00:00",
        "included_in_blocks":
          [ "BMWdMBgPXJe4tC4VdbFfW6NgaJDoCfYz3sLfRKQVQSAwbheqW5a" ] },
      { "delegate": "tz1NEKxGEHsFufk87CVZcrqWu8o22qh46GK6",
        "reception_time": "2022-01-15T10:46:19.523-00:00",
        "included_in_blocks":
          [ "BMWdMBgPXJe4tC4VdbFfW6NgaJDoCfYz3sLfRKQVQSAwbheqW5a" ] },
      { "delegate": "tz3VEZ4k6a4Wx42iyev6i2aVAptTRLEAivNN",
        "reception_time": "2022-01-15T10:46:19.588-00:00",
        "included_in_blocks":
          [ "BMWdMBgPXJe4tC4VdbFfW6NgaJDoCfYz3sLfRKQVQSAwbheqW5a" ] },
      { "delegate": "tz3RDC3Jdn4j15J7bBHZd29EUee9gVB1CxD9",
        "reception_time": "2022-01-15T10:46:19.621-00:00",
        "included_in_blocks":
          [ "BMWdMBgPXJe4tC4VdbFfW6NgaJDoCfYz3sLfRKQVQSAwbheqW5a" ] },
      { "delegate": "tz1PeZx7FXy7QRuMREGXGxeipb24RsMMzUNe",
        "reception_time": "2022-01-15T10:46:19.655-00:00",
        "included_in_blocks":
          [ "BMWdMBgPXJe4tC4VdbFfW6NgaJDoCfYz3sLfRKQVQSAwbheqW5a" ] },
      { "delegate": "tz1RjoHc98dBoqaH2jawF62XNKh7YsHwbkEv",
        "reception_time": "2022-01-15T10:46:19.764-00:00",
        "included_in_blocks":
          [ "BMWdMBgPXJe4tC4VdbFfW6NgaJDoCfYz3sLfRKQVQSAwbheqW5a" ] },
      { "delegate": "tz1RCFbB9GpALpsZtu6J58sb74dm8qe6XBzv",
        "reception_time": "2022-01-15T10:46:19.778-00:00",
        "included_in_blocks":
          [ "BMWdMBgPXJe4tC4VdbFfW6NgaJDoCfYz3sLfRKQVQSAwbheqW5a" ] },
      { "delegate": "tz1aRoaRhSpRYvFdyvgWLL6TGyRoGF51wDjM",
        "reception_time": "2022-01-15T10:46:19.939-00:00",
        "included_in_blocks":
          [ "BMWdMBgPXJe4tC4VdbFfW6NgaJDoCfYz3sLfRKQVQSAwbheqW5a" ] },
      { "delegate": "tz1dRKU4FQ9QRRQPdaH4zCR6gmCmXfcvcgtB",
        "reception_time": "2022-01-15T10:46:20.110-00:00",
        "included_in_blocks":
          [ "BMWdMBgPXJe4tC4VdbFfW6NgaJDoCfYz3sLfRKQVQSAwbheqW5a" ] },
      { "delegate": "tz3NExpXn9aPNZPorRE4SdjJ2RGrfbJgMAaV",
        "reception_time": "2022-01-15T10:46:20.366-00:00",
        "included_in_blocks":
          [ "BMWdMBgPXJe4tC4VdbFfW6NgaJDoCfYz3sLfRKQVQSAwbheqW5a" ] },
      { "delegate": "tz1TcH4Nb3aHNDJ7CGZhU7jgAK1BkSP4Lxds",
        "reception_time": "2022-01-15T10:46:20.813-00:00",
        "included_in_blocks":
          [ "BMWdMBgPXJe4tC4VdbFfW6NgaJDoCfYz3sLfRKQVQSAwbheqW5a" ] },
      { "delegate": "tz1TRqbYbUf2GyrjErf3hBzgBJPzW8y36qEs",
        "reception_time": "2022-01-15T10:46:20.865-00:00",
        "included_in_blocks":
          [ "BMWdMBgPXJe4tC4VdbFfW6NgaJDoCfYz3sLfRKQVQSAwbheqW5a" ] },
      { "delegate": "tz1ZcTRk5uxD86EFEn1vvNffWWqJy7q5eVhc",
        "reception_time": "2022-01-15T10:46:20.907-00:00",
        "included_in_blocks":
          [ "BMWdMBgPXJe4tC4VdbFfW6NgaJDoCfYz3sLfRKQVQSAwbheqW5a" ] },
      { "delegate": "tz1cYufsxHXJcvANhvS55h3aY32a9BAFB494",
        "reception_time": "2022-01-15T10:46:20.974-00:00",
        "included_in_blocks":
          [ "BMWdMBgPXJe4tC4VdbFfW6NgaJDoCfYz3sLfRKQVQSAwbheqW5a" ] },
      { "delegate": "tz1i3mhawFAgcB8JHaHwoUF6hdncwTAkLEn2",
        "reception_time": "2022-01-15T10:46:21.036-00:00",
        "included_in_blocks":
          [ "BMWdMBgPXJe4tC4VdbFfW6NgaJDoCfYz3sLfRKQVQSAwbheqW5a" ] },
      { "delegate": "tz1h4GUAMweP7SNWzDgvMk3yRCAZyaP1MxZq",
        "reception_time": "2022-01-15T10:46:23.357-00:00",
        "included_in_blocks":
          [ "BMWdMBgPXJe4tC4VdbFfW6NgaJDoCfYz3sLfRKQVQSAwbheqW5a" ] },
      { "delegate": "tz1g8vkmcde6sWKaG2NN9WKzCkDM6Rziq194",
        "reception_time": "2022-01-15T10:46:26.559-00:00",
        "included_in_blocks":
          [ "BMWdMBgPXJe4tC4VdbFfW6NgaJDoCfYz3sLfRKQVQSAwbheqW5a" ] },
      { "delegate": "tz1RAxW1rBTRumV9QEpFsw51QWPQmAKHGMei",
        "reception_time": "2022-01-15T10:46:27.597-00:00",
        "included_in_blocks":
          [ "BMWdMBgPXJe4tC4VdbFfW6NgaJDoCfYz3sLfRKQVQSAwbheqW5a" ] } ] }