{ "blocks":
    [ { "hash": "BLMax2ANWvwRG6RKkuiu7zKAR67EykgjUbW3JgsgMBo2aj2RqiG",
        "delegate": "tz1Nf6tsK4G6bBqgSQERy4nUtkHNKUVdh7q1",
        "reception_time": "2022-01-15T11:16:19.526-00:00",
        "timestamp": "2022-01-15T11:16:10Z" } ],
  "endorsements":
    [ { "delegate": "tz1MQMiZHV8q4tTwUMWmS5Y3kaP6J2136iXr",
        "reception_time": "2022-01-15T11:16:19.459-00:00",
        "errors":
          [ { "kind": "temporary",
              "id": "proto.011-PtHangz2.prefilter.outdated_endorsement" } ],
        "included_in_blocks":
          [ "BLW89SuWWevEM8HddVgoodkQn1X2qar37FDD6nB6xB5Kf416But" ] },
      { "delegate": "tz1gfArv665EUkSg2ojMBzcbfwuPxAvqPvjo",
        "reception_time": "2022-01-15T11:16:19.409-00:00",
        "errors":
          [ { "kind": "temporary",
              "id": "proto.011-PtHangz2.prefilter.outdated_endorsement" } ],
        "included_in_blocks":
          [ "BLW89SuWWevEM8HddVgoodkQn1X2qar37FDD6nB6xB5Kf416But" ] },
      { "delegate": "tz3QCNyySViKHmeSr45kzDxzchys7NiXCWoa",
        "reception_time": "2022-01-15T11:16:19.389-00:00",
        "errors":
          [ { "kind": "temporary",
              "id": "proto.011-PtHangz2.prefilter.outdated_endorsement" } ],
        "included_in_blocks":
          [ "BLW89SuWWevEM8HddVgoodkQn1X2qar37FDD6nB6xB5Kf416But" ] },
      { "delegate": "tz1ia6jze3LrBGWJkaDmZ7ThJpPsYWh8D398",
        "reception_time": "2022-01-15T11:16:19.386-00:00",
        "errors":
          [ { "kind": "temporary",
              "id": "proto.011-PtHangz2.prefilter.outdated_endorsement" } ],
        "included_in_blocks":
          [ "BLW89SuWWevEM8HddVgoodkQn1X2qar37FDD6nB6xB5Kf416But" ] },
      { "delegate": "tz1VmiY38m3y95HqQLjMwqnMS7sdMfGomzKi",
        "reception_time": "2022-01-15T11:16:19.386-00:00",
        "errors":
          [ { "kind": "temporary",
              "id": "proto.011-PtHangz2.prefilter.outdated_endorsement" } ],
        "included_in_blocks":
          [ "BLW89SuWWevEM8HddVgoodkQn1X2qar37FDD6nB6xB5Kf416But" ] },
      { "delegate": "tz1UJvHTgpVzcKWhTazGxVcn5wsHru5Gietg",
        "reception_time": "2022-01-15T11:16:19.382-00:00",
        "errors":
          [ { "kind": "temporary",
              "id": "proto.011-PtHangz2.prefilter.outdated_endorsement" } ],
        "included_in_blocks":
          [ "BLW89SuWWevEM8HddVgoodkQn1X2qar37FDD6nB6xB5Kf416But" ] },
      { "delegate": "tz1PWCDnz783NNGGQjEFFsHtrcK5yBW4E2rm",
        "reception_time": "2022-01-15T11:16:19.167-00:00",
        "errors":
          [ { "kind": "temporary",
              "id": "proto.011-PtHangz2.prefilter.outdated_endorsement" } ],
        "included_in_blocks":
          [ "BLW89SuWWevEM8HddVgoodkQn1X2qar37FDD6nB6xB5Kf416But" ] },
      { "delegate": "tz3iJu5vrKZcsqRPs8yJ61UDoeEXZmtro4qh",
        "reception_time": "2022-01-15T11:16:19.100-00:00",
        "errors":
          [ { "kind": "temporary",
              "id": "proto.011-PtHangz2.prefilter.outdated_endorsement" } ],
        "included_in_blocks":
          [ "BLW89SuWWevEM8HddVgoodkQn1X2qar37FDD6nB6xB5Kf416But" ] },
      { "delegate": "tz3S6BBeKgJGXxvLyZ1xzXzMPn11nnFtq5L9",
        "reception_time": "2022-01-15T11:16:19.096-00:00",
        "errors":
          [ { "kind": "temporary",
              "id": "proto.011-PtHangz2.prefilter.outdated_endorsement" } ],
        "included_in_blocks":
          [ "BLW89SuWWevEM8HddVgoodkQn1X2qar37FDD6nB6xB5Kf416But" ] },
      { "delegate": "tz3Zhs2dygr55yHyQyKjntAtY9bgfhLZ4Xj1",
        "reception_time": "2022-01-15T11:16:19.032-00:00",
        "errors":
          [ { "kind": "temporary",
              "id": "proto.011-PtHangz2.prefilter.outdated_endorsement" } ],
        "included_in_blocks":
          [ "BLW89SuWWevEM8HddVgoodkQn1X2qar37FDD6nB6xB5Kf416But" ] },
      { "delegate": "tz3hw2kqXhLUvY65ca1eety2oQTpAvd34R9Q",
        "reception_time": "2022-01-15T11:16:18.990-00:00",
        "errors":
          [ { "kind": "temporary",
              "id": "proto.011-PtHangz2.prefilter.outdated_endorsement" } ],
        "included_in_blocks":
          [ "BLW89SuWWevEM8HddVgoodkQn1X2qar37FDD6nB6xB5Kf416But" ] },
      { "delegate": "tz3NxTnke1acr8o3h5y9ytf5awQBGNJUKzVU",
        "reception_time": "2022-01-15T11:16:18.976-00:00",
        "errors":
          [ { "kind": "temporary",
              "id": "proto.011-PtHangz2.prefilter.outdated_endorsement" } ],
        "included_in_blocks":
          [ "BLW89SuWWevEM8HddVgoodkQn1X2qar37FDD6nB6xB5Kf416But" ] },
      { "delegate": "tz3RKYFsLuQzKBtmYuLNas7uMu3AsYd4QdsA",
        "reception_time": "2022-01-15T11:16:18.954-00:00",
        "errors":
          [ { "kind": "temporary",
              "id": "proto.011-PtHangz2.prefilter.outdated_endorsement" } ],
        "included_in_blocks":
          [ "BLW89SuWWevEM8HddVgoodkQn1X2qar37FDD6nB6xB5Kf416But" ] },
      { "delegate": "tz1Ldzz6k1BHdhuKvAtMRX7h5kJSMHESMHLC",
        "reception_time": "2022-01-15T11:16:18.895-00:00",
        "errors":
          [ { "kind": "temporary",
              "id": "proto.011-PtHangz2.prefilter.outdated_endorsement" } ],
        "included_in_blocks":
          [ "BLW89SuWWevEM8HddVgoodkQn1X2qar37FDD6nB6xB5Kf416But" ] },
      { "delegate": "tz1TzaNn7wSQSP5gYPXCnNzBCpyMiidCq1PX",
        "reception_time": "2022-01-15T11:16:18.891-00:00",
        "errors":
          [ { "kind": "temporary",
              "id": "proto.011-PtHangz2.prefilter.outdated_endorsement" } ],
        "included_in_blocks":
          [ "BLW89SuWWevEM8HddVgoodkQn1X2qar37FDD6nB6xB5Kf416But" ] },
      { "delegate": "tz3QSGPoRp3Kn7n3vY24eYeu3Peuqo45LQ4D",
        "reception_time": "2022-01-15T11:16:18.876-00:00",
        "errors":
          [ { "kind": "temporary",
              "id": "proto.011-PtHangz2.prefilter.outdated_endorsement" } ],
        "included_in_blocks":
          [ "BLW89SuWWevEM8HddVgoodkQn1X2qar37FDD6nB6xB5Kf416But" ] },
      { "delegate": "tz3gtoUxdudfBRcNY7iVdKPHCYYX6xdPpoRS",
        "reception_time": "2022-01-15T11:16:18.875-00:00",
        "errors":
          [ { "kind": "temporary",
              "id": "proto.011-PtHangz2.prefilter.outdated_endorsement" } ],
        "included_in_blocks":
          [ "BLW89SuWWevEM8HddVgoodkQn1X2qar37FDD6nB6xB5Kf416But" ] },
      { "delegate": "tz1ZPh7XfUaJXUDvkrBxmS1BjEM1i62hiPpM",
        "reception_time": "2022-01-15T11:16:18.871-00:00",
        "errors":
          [ { "kind": "temporary",
              "id": "proto.011-PtHangz2.prefilter.outdated_endorsement" } ],
        "included_in_blocks":
          [ "BLW89SuWWevEM8HddVgoodkQn1X2qar37FDD6nB6xB5Kf416But" ] },
      { "delegate": "tz1irJKkXS2DBWkU1NnmFQx1c1L7pbGg4yhk",
        "reception_time": "2022-01-15T11:16:18.487-00:00",
        "errors":
          [ { "kind": "temporary",
              "id": "proto.011-PtHangz2.prefilter.outdated_endorsement" } ],
        "included_in_blocks":
          [ "BLW89SuWWevEM8HddVgoodkQn1X2qar37FDD6nB6xB5Kf416But" ] },
      { "delegate": "tz1eEnQhbwf6trb8Q8mPb2RaPkNk2rN7BKi8",
        "reception_time": "2022-01-15T11:16:18.372-00:00",
        "errors":
          [ { "kind": "temporary",
              "id": "proto.011-PtHangz2.prefilter.outdated_endorsement" } ],
        "included_in_blocks":
          [ "BLW89SuWWevEM8HddVgoodkQn1X2qar37FDD6nB6xB5Kf416But" ] },
      { "delegate": "tz1P2Po7YM526ughEsRbY4oR9zaUPDZjxFrb",
        "reception_time": "2022-01-15T11:16:18.327-00:00",
        "errors":
          [ { "kind": "temporary",
              "id": "proto.011-PtHangz2.prefilter.outdated_endorsement" } ],
        "included_in_blocks":
          [ "BLW89SuWWevEM8HddVgoodkQn1X2qar37FDD6nB6xB5Kf416But" ] },
      { "delegate": "tz1VQnqCCqX4K5sP3FNkVSNKTdCAMJDd3E1n",
        "reception_time": "2022-01-15T11:16:18.326-00:00",
        "errors":
          [ { "kind": "temporary",
              "id": "proto.011-PtHangz2.prefilter.outdated_endorsement" } ],
        "included_in_blocks":
          [ "BLW89SuWWevEM8HddVgoodkQn1X2qar37FDD6nB6xB5Kf416But" ] },
      { "delegate": "tz1gUNyn3hmnEWqkusWPzxRaon1cs7ndWh7h",
        "reception_time": "2022-01-15T11:16:18.321-00:00",
        "errors":
          [ { "kind": "temporary",
              "id": "proto.011-PtHangz2.prefilter.outdated_endorsement" } ],
        "included_in_blocks":
          [ "BLW89SuWWevEM8HddVgoodkQn1X2qar37FDD6nB6xB5Kf416But" ] },
      { "delegate": "tz1RV1MBbZMR68tacosb7Mwj6LkbPSUS1er1",
        "reception_time": "2022-01-15T11:16:18.306-00:00",
        "errors":
          [ { "kind": "temporary",
              "id": "proto.011-PtHangz2.prefilter.outdated_endorsement" } ],
        "included_in_blocks":
          [ "BLW89SuWWevEM8HddVgoodkQn1X2qar37FDD6nB6xB5Kf416But" ] },
      { "delegate": "tz1Scdr2HsZiQjc7bHMeBbmDRXYVvdhjJbBh",
        "reception_time": "2022-01-15T11:16:18.305-00:00",
        "errors":
          [ { "kind": "temporary",
              "id": "proto.011-PtHangz2.prefilter.outdated_endorsement" } ],
        "included_in_blocks":
          [ "BLW89SuWWevEM8HddVgoodkQn1X2qar37FDD6nB6xB5Kf416But" ] },
      { "delegate": "tz1S8e9GgdZG78XJRB3NqabfWeM37GnhZMWQ",
        "reception_time": "2022-01-15T11:16:17.774-00:00",
        "errors":
          [ { "kind": "temporary",
              "id": "proto.011-PtHangz2.prefilter.outdated_endorsement" } ],
        "included_in_blocks":
          [ "BLW89SuWWevEM8HddVgoodkQn1X2qar37FDD6nB6xB5Kf416But" ] },
      { "delegate": "tz1TRspM5SeZpaQUhzByXbEvqKF1vnCM2YTK" },
      { "delegate": "tz1ei4WtWEMEJekSv8qDnu9PExG6Q8HgRGr3",
        "reception_time": "2022-01-15T11:16:20.406-00:00",
        "included_in_blocks":
          [ "BLW89SuWWevEM8HddVgoodkQn1X2qar37FDD6nB6xB5Kf416But" ] },
      { "delegate": "tz1Nf6tsK4G6bBqgSQERy4nUtkHNKUVdh7q1",
        "reception_time": "2022-01-15T11:16:20.414-00:00",
        "included_in_blocks":
          [ "BLW89SuWWevEM8HddVgoodkQn1X2qar37FDD6nB6xB5Kf416But" ] },
      { "delegate": "tz3bTdwZinP8U1JmSweNzVKhmwafqWmFWRfk",
        "reception_time": "2022-01-15T11:16:20.421-00:00",
        "included_in_blocks":
          [ "BLW89SuWWevEM8HddVgoodkQn1X2qar37FDD6nB6xB5Kf416But" ] },
      { "delegate": "tz1MQJPGNMijnXnVoBENFz9rUhaPt3S7rWoz",
        "reception_time": "2022-01-15T11:16:20.437-00:00",
        "included_in_blocks":
          [ "BLW89SuWWevEM8HddVgoodkQn1X2qar37FDD6nB6xB5Kf416But" ] },
      { "delegate": "tz1dwu9aYb7CRNq4Y2zAjipdjFuSVKhHS8vA",
        "reception_time": "2022-01-15T11:16:20.441-00:00",
        "included_in_blocks":
          [ "BLW89SuWWevEM8HddVgoodkQn1X2qar37FDD6nB6xB5Kf416But" ] },
      { "delegate": "tz1V4qCyvPKZ5UeqdH14HN42rxvNPQfc9UZg",
        "reception_time": "2022-01-15T11:16:20.446-00:00",
        "included_in_blocks":
          [ "BLW89SuWWevEM8HddVgoodkQn1X2qar37FDD6nB6xB5Kf416But" ] },
      { "delegate": "tz1S8MNvuFEUsWgjHvi3AxibRBf388NhT1q2",
        "reception_time": "2022-01-15T11:16:20.448-00:00",
        "included_in_blocks":
          [ "BLW89SuWWevEM8HddVgoodkQn1X2qar37FDD6nB6xB5Kf416But" ] },
      { "delegate": "tz1KfEsrtDaA1sX7vdM4qmEPWuSytuqCDp5j",
        "reception_time": "2022-01-15T11:16:20.459-00:00",
        "included_in_blocks":
          [ "BLW89SuWWevEM8HddVgoodkQn1X2qar37FDD6nB6xB5Kf416But" ] },
      { "delegate": "tz3RB4aoyjov4KEVRbuhvQ1CKJgBJMWhaeB8",
        "reception_time": "2022-01-15T11:16:20.461-00:00",
        "included_in_blocks":
          [ "BLW89SuWWevEM8HddVgoodkQn1X2qar37FDD6nB6xB5Kf416But" ] },
      { "delegate": "tz3NDpRj6WBrJPikcPVHRBEjWKxFw3c6eQPS",
        "reception_time": "2022-01-15T11:16:20.484-00:00",
        "included_in_blocks":
          [ "BLW89SuWWevEM8HddVgoodkQn1X2qar37FDD6nB6xB5Kf416But" ] },
      { "delegate": "tz1WBfwbT66FC6BTLexc2BoyCCBM9LG7pnVW",
        "reception_time": "2022-01-15T11:16:20.493-00:00",
        "included_in_blocks":
          [ "BLW89SuWWevEM8HddVgoodkQn1X2qar37FDD6nB6xB5Kf416But" ] },
      { "delegate": "tz3gLTu4Yxj8tPAcriQVUdxv6BY9QyvzU1az",
        "reception_time": "2022-01-15T11:16:20.493-00:00",
        "included_in_blocks":
          [ "BLW89SuWWevEM8HddVgoodkQn1X2qar37FDD6nB6xB5Kf416But" ] },
      { "delegate": "tz1iZEKy4LaAjnTmn2RuGDf2iqdAQKnRi8kY",
        "reception_time": "2022-01-15T11:16:20.500-00:00",
        "included_in_blocks":
          [ "BLW89SuWWevEM8HddVgoodkQn1X2qar37FDD6nB6xB5Kf416But" ] },
      { "delegate": "tz1abmz7jiCV2GH2u81LRrGgAFFgvQgiDiaf",
        "reception_time": "2022-01-15T11:16:20.531-00:00",
        "included_in_blocks":
          [ "BLW89SuWWevEM8HddVgoodkQn1X2qar37FDD6nB6xB5Kf416But" ] },
      { "delegate": "tz1axcnVN9tZnCe4sQQhC6f3tfSEXdjPaXPY",
        "reception_time": "2022-01-15T11:16:20.549-00:00",
        "included_in_blocks":
          [ "BLW89SuWWevEM8HddVgoodkQn1X2qar37FDD6nB6xB5Kf416But" ] },
      { "delegate": "tz1h4GUAMweP7SNWzDgvMk3yRCAZyaP1MxZq",
        "reception_time": "2022-01-15T11:16:20.562-00:00",
        "included_in_blocks":
          [ "BLW89SuWWevEM8HddVgoodkQn1X2qar37FDD6nB6xB5Kf416But" ] },
      { "delegate": "tz3UoffC7FG7zfpmvmjUmUeAaHvzdcUvAj6r",
        "reception_time": "2022-01-15T11:16:20.692-00:00",
        "included_in_blocks":
          [ "BLW89SuWWevEM8HddVgoodkQn1X2qar37FDD6nB6xB5Kf416But" ] },
      { "delegate": "tz1LmaFsWRkjr7QMCx5PtV6xTUz3AmEpKQiF",
        "reception_time": "2022-01-15T11:16:20.858-00:00",
        "included_in_blocks":
          [ "BLW89SuWWevEM8HddVgoodkQn1X2qar37FDD6nB6xB5Kf416But" ] },
      { "delegate": "tz1RQhNh7iB9CZA7i3ifTWNwiGYVffponfbB",
        "reception_time": "2022-01-15T11:16:20.895-00:00",
        "included_in_blocks":
          [ "BLW89SuWWevEM8HddVgoodkQn1X2qar37FDD6nB6xB5Kf416But" ] },
      { "delegate": "tz3VEZ4k6a4Wx42iyev6i2aVAptTRLEAivNN",
        "reception_time": "2022-01-15T11:16:20.924-00:00",
        "included_in_blocks":
          [ "BLW89SuWWevEM8HddVgoodkQn1X2qar37FDD6nB6xB5Kf416But" ] },
      { "delegate": "tz3bvNMQ95vfAYtG8193ymshqjSvmxiCUuR5",
        "reception_time": "2022-01-15T11:16:20.958-00:00",
        "included_in_blocks":
          [ "BLW89SuWWevEM8HddVgoodkQn1X2qar37FDD6nB6xB5Kf416But" ] },
      { "delegate": "tz3WMqdzXqRWXwyvj5Hp2H7QEepaUuS7vd9K",
        "reception_time": "2022-01-15T11:16:21.090-00:00",
        "included_in_blocks":
          [ "BLW89SuWWevEM8HddVgoodkQn1X2qar37FDD6nB6xB5Kf416But" ] },
      { "delegate": "tz3RDC3Jdn4j15J7bBHZd29EUee9gVB1CxD9",
        "reception_time": "2022-01-15T11:16:21.119-00:00",
        "included_in_blocks":
          [ "BLW89SuWWevEM8HddVgoodkQn1X2qar37FDD6nB6xB5Kf416But" ] },
      { "delegate": "tz1NEKxGEHsFufk87CVZcrqWu8o22qh46GK6",
        "reception_time": "2022-01-15T11:16:21.130-00:00",
        "included_in_blocks":
          [ "BLW89SuWWevEM8HddVgoodkQn1X2qar37FDD6nB6xB5Kf416But" ] },
      { "delegate": "tz1dNVDWPf3Q59SdJqnjdnu277iyvReiRS9M",
        "reception_time": "2022-01-15T11:16:21.156-00:00",
        "included_in_blocks":
          [ "BLW89SuWWevEM8HddVgoodkQn1X2qar37FDD6nB6xB5Kf416But" ] },
      { "delegate": "tz3adcvQaKXTCg12zbninqo3q8ptKKtDFTLv",
        "reception_time": "2022-01-15T11:16:21.393-00:00",
        "included_in_blocks":
          [ "BLW89SuWWevEM8HddVgoodkQn1X2qar37FDD6nB6xB5Kf416But" ] },
      { "delegate": "tz1QLXqnfN51dkjeghXvKHkJfhvGiM5gK4tc",
        "reception_time": "2022-01-15T11:16:21.408-00:00",
        "included_in_blocks":
          [ "BLW89SuWWevEM8HddVgoodkQn1X2qar37FDD6nB6xB5Kf416But" ] },
      { "delegate": "tz1fwnfJNgiDACshK9avfRfFbMaXrs3ghoJa",
        "reception_time": "2022-01-15T11:16:21.466-00:00",
        "included_in_blocks":
          [ "BLW89SuWWevEM8HddVgoodkQn1X2qar37FDD6nB6xB5Kf416But" ] },
      { "delegate": "tz1dRKU4FQ9QRRQPdaH4zCR6gmCmXfcvcgtB",
        "reception_time": "2022-01-15T11:16:21.506-00:00",
        "included_in_blocks":
          [ "BLW89SuWWevEM8HddVgoodkQn1X2qar37FDD6nB6xB5Kf416But" ] },
      { "delegate": "tz1RCFbB9GpALpsZtu6J58sb74dm8qe6XBzv",
        "reception_time": "2022-01-15T11:16:21.706-00:00",
        "included_in_blocks":
          [ "BLW89SuWWevEM8HddVgoodkQn1X2qar37FDD6nB6xB5Kf416But" ] },
      { "delegate": "tz3NExpXn9aPNZPorRE4SdjJ2RGrfbJgMAaV",
        "reception_time": "2022-01-15T11:16:21.764-00:00",
        "included_in_blocks":
          [ "BLW89SuWWevEM8HddVgoodkQn1X2qar37FDD6nB6xB5Kf416But" ] },
      { "delegate": "tz1PeZx7FXy7QRuMREGXGxeipb24RsMMzUNe",
        "reception_time": "2022-01-15T11:16:22.200-00:00",
        "included_in_blocks":
          [ "BLW89SuWWevEM8HddVgoodkQn1X2qar37FDD6nB6xB5Kf416But" ] },
      { "delegate": "tz1RjoHc98dBoqaH2jawF62XNKh7YsHwbkEv",
        "reception_time": "2022-01-15T11:16:22.524-00:00",
        "included_in_blocks":
          [ "BLW89SuWWevEM8HddVgoodkQn1X2qar37FDD6nB6xB5Kf416But" ] },
      { "delegate": "tz1PFeoTuFen8jAMRHajBySNyCwLmY5RqF9M",
        "reception_time": "2022-01-15T11:16:22.542-00:00",
        "included_in_blocks":
          [ "BLW89SuWWevEM8HddVgoodkQn1X2qar37FDD6nB6xB5Kf416But" ] },
      { "delegate": "tz2FCNBrERXtaTtNX6iimR1UJ5JSDxvdHM93",
        "reception_time": "2022-01-15T11:16:22.556-00:00",
        "included_in_blocks":
          [ "BLW89SuWWevEM8HddVgoodkQn1X2qar37FDD6nB6xB5Kf416But" ] },
      { "delegate": "tz1V3yg82mcrPJbegqVCPn6bC8w1CSTRp3f8",
        "reception_time": "2022-01-15T11:16:22.655-00:00",
        "included_in_blocks":
          [ "BLW89SuWWevEM8HddVgoodkQn1X2qar37FDD6nB6xB5Kf416But" ] },
      { "delegate": "tz1aRoaRhSpRYvFdyvgWLL6TGyRoGF51wDjM",
        "reception_time": "2022-01-15T11:16:22.702-00:00",
        "included_in_blocks":
          [ "BLW89SuWWevEM8HddVgoodkQn1X2qar37FDD6nB6xB5Kf416But" ] },
      { "delegate": "tz1S6H83gugqK4dR5Had9jWR9M1ZdAAVgU5e",
        "reception_time": "2022-01-15T11:16:23.703-00:00",
        "included_in_blocks":
          [ "BLW89SuWWevEM8HddVgoodkQn1X2qar37FDD6nB6xB5Kf416But" ] },
      { "delegate": "tz1g8vkmcde6sWKaG2NN9WKzCkDM6Rziq194",
        "reception_time": "2022-01-15T11:16:24.872-00:00",
        "included_in_blocks":
          [ "BLW89SuWWevEM8HddVgoodkQn1X2qar37FDD6nB6xB5Kf416But" ] },
      { "delegate": "tz1NMNQYrYrfNpmUqQrMhJypf6ovnaDZhJHM",
        "reception_time": "2022-01-15T11:16:24.872-00:00",
        "included_in_blocks":
          [ "BLW89SuWWevEM8HddVgoodkQn1X2qar37FDD6nB6xB5Kf416But" ] },
      { "delegate": "tz1cYufsxHXJcvANhvS55h3aY32a9BAFB494",
        "reception_time": "2022-01-15T11:16:25.948-00:00",
        "included_in_blocks":
          [ "BLW89SuWWevEM8HddVgoodkQn1X2qar37FDD6nB6xB5Kf416But" ] },
      { "delegate": "tz1SYq214SCBy9naR6cvycQsYcUGpBqQAE8d",
        "reception_time": "2022-01-15T11:16:28.076-00:00",
        "included_in_blocks":
          [ "BLW89SuWWevEM8HddVgoodkQn1X2qar37FDD6nB6xB5Kf416But" ] },
      { "delegate": "tz1go7f6mEQfT2xX2LuHAqgnRGN6c2zHPf5c",
        "reception_time": "2022-01-15T11:16:28.803-00:00",
        "included_in_blocks":
          [ "BLW89SuWWevEM8HddVgoodkQn1X2qar37FDD6nB6xB5Kf416But" ] },
      { "delegate": "tz1WnyXakHZKotpQHxevTnLmomz5rTwdiccy",
        "reception_time": "2022-01-15T11:16:29.243-00:00",
        "included_in_blocks":
          [ "BLW89SuWWevEM8HddVgoodkQn1X2qar37FDD6nB6xB5Kf416But" ] } ] }