{ "blocks":
    [ { "hash": "BKr1976BzrkrmvkudUgH1Jsbvkp6KkJqMJtxRtnc2TWeazTL3Yi",
        "delegate": "tz3bvNMQ95vfAYtG8193ymshqjSvmxiCUuR5",
        "reception_time": "2022-01-15T18:28:51.619-00:00",
        "timestamp": "2022-01-15T18:28:40Z" } ],
  "endorsements":
    [ { "delegate": "tz1Kt4P8BCaP93AEV4eA7gmpRryWt5hznjCP",
        "reception_time": "2022-01-15T18:28:51.598-00:00",
        "errors":
          [ { "kind": "temporary",
              "id": "proto.011-PtHangz2.prefilter.outdated_endorsement" } ],
        "included_in_blocks":
          [ "BL2F5ac7iskxYEmwA3uzKgxCyftUtdigkfJCN9xC2tQQDcoVeQ6" ] },
      { "delegate": "tz1P2Po7YM526ughEsRbY4oR9zaUPDZjxFrb",
        "reception_time": "2022-01-15T18:28:51.532-00:00",
        "errors":
          [ { "kind": "temporary",
              "id": "proto.011-PtHangz2.prefilter.outdated_endorsement" } ],
        "included_in_blocks":
          [ "BL2F5ac7iskxYEmwA3uzKgxCyftUtdigkfJCN9xC2tQQDcoVeQ6" ] },
      { "delegate": "tz1TRspM5SeZpaQUhzByXbEvqKF1vnCM2YTK" },
      { "delegate": "tz1dbfppLAAxXZNtf2SDps7rch3qfUznKSoK" },
      { "delegate": "tz1Ldzz6k1BHdhuKvAtMRX7h5kJSMHESMHLC",
        "reception_time": "2022-01-15T18:28:53.726-00:00",
        "included_in_blocks":
          [ "BL2F5ac7iskxYEmwA3uzKgxCyftUtdigkfJCN9xC2tQQDcoVeQ6" ] },
      { "delegate": "tz3NxTnke1acr8o3h5y9ytf5awQBGNJUKzVU",
        "reception_time": "2022-01-15T18:28:53.738-00:00",
        "included_in_blocks":
          [ "BL2F5ac7iskxYEmwA3uzKgxCyftUtdigkfJCN9xC2tQQDcoVeQ6" ] },
      { "delegate": "tz1TzaNn7wSQSP5gYPXCnNzBCpyMiidCq1PX",
        "reception_time": "2022-01-15T18:28:53.747-00:00",
        "included_in_blocks":
          [ "BL2F5ac7iskxYEmwA3uzKgxCyftUtdigkfJCN9xC2tQQDcoVeQ6" ] },
      { "delegate": "tz1irJKkXS2DBWkU1NnmFQx1c1L7pbGg4yhk",
        "reception_time": "2022-01-15T18:28:53.753-00:00",
        "included_in_blocks":
          [ "BL2F5ac7iskxYEmwA3uzKgxCyftUtdigkfJCN9xC2tQQDcoVeQ6" ] },
      { "delegate": "tz1eEnQhbwf6trb8Q8mPb2RaPkNk2rN7BKi8",
        "reception_time": "2022-01-15T18:28:53.755-00:00",
        "included_in_blocks":
          [ "BL2F5ac7iskxYEmwA3uzKgxCyftUtdigkfJCN9xC2tQQDcoVeQ6" ] },
      { "delegate": "tz1aqcYgG6NuViML5vdWhohHJBYxcDVLNUsE",
        "reception_time": "2022-01-15T18:28:53.758-00:00",
        "included_in_blocks":
          [ "BL2F5ac7iskxYEmwA3uzKgxCyftUtdigkfJCN9xC2tQQDcoVeQ6" ] },
      { "delegate": "tz1VmiY38m3y95HqQLjMwqnMS7sdMfGomzKi",
        "reception_time": "2022-01-15T18:28:53.762-00:00",
        "included_in_blocks":
          [ "BL2F5ac7iskxYEmwA3uzKgxCyftUtdigkfJCN9xC2tQQDcoVeQ6" ] },
      { "delegate": "tz3ZbP2pM3nwvXztbuMJwJnDvV5xdpU8UkkD",
        "reception_time": "2022-01-15T18:28:53.770-00:00",
        "included_in_blocks":
          [ "BL2F5ac7iskxYEmwA3uzKgxCyftUtdigkfJCN9xC2tQQDcoVeQ6" ] },
      { "delegate": "tz1gUNyn3hmnEWqkusWPzxRaon1cs7ndWh7h",
        "reception_time": "2022-01-15T18:28:53.774-00:00",
        "included_in_blocks":
          [ "BL2F5ac7iskxYEmwA3uzKgxCyftUtdigkfJCN9xC2tQQDcoVeQ6" ] },
      { "delegate": "tz1Lhf4J9Qxoe3DZ2nfe8FGDnvVj7oKjnMY6",
        "reception_time": "2022-01-15T18:28:53.780-00:00",
        "included_in_blocks":
          [ "BL2F5ac7iskxYEmwA3uzKgxCyftUtdigkfJCN9xC2tQQDcoVeQ6" ] },
      { "delegate": "tz1Kf25fX1VdmYGSEzwFy1wNmkbSEZ2V83sY",
        "reception_time": "2022-01-15T18:28:53.780-00:00",
        "included_in_blocks":
          [ "BL2F5ac7iskxYEmwA3uzKgxCyftUtdigkfJCN9xC2tQQDcoVeQ6" ] },
      { "delegate": "tz1VQnqCCqX4K5sP3FNkVSNKTdCAMJDd3E1n",
        "reception_time": "2022-01-15T18:28:53.787-00:00",
        "included_in_blocks":
          [ "BL2F5ac7iskxYEmwA3uzKgxCyftUtdigkfJCN9xC2tQQDcoVeQ6" ] },
      { "delegate": "tz3hw2kqXhLUvY65ca1eety2oQTpAvd34R9Q",
        "reception_time": "2022-01-15T18:28:53.800-00:00",
        "included_in_blocks":
          [ "BL2F5ac7iskxYEmwA3uzKgxCyftUtdigkfJCN9xC2tQQDcoVeQ6" ] },
      { "delegate": "tz1WCd2jm4uSt4vntk4vSuUWoZQGhLcDuR9q",
        "reception_time": "2022-01-15T18:28:53.800-00:00",
        "included_in_blocks":
          [ "BL2F5ac7iskxYEmwA3uzKgxCyftUtdigkfJCN9xC2tQQDcoVeQ6" ] },
      { "delegate": "tz3gtoUxdudfBRcNY7iVdKPHCYYX6xdPpoRS",
        "reception_time": "2022-01-15T18:28:53.807-00:00",
        "included_in_blocks":
          [ "BL2F5ac7iskxYEmwA3uzKgxCyftUtdigkfJCN9xC2tQQDcoVeQ6" ] },
      { "delegate": "tz3Zhs2dygr55yHyQyKjntAtY9bgfhLZ4Xj1",
        "reception_time": "2022-01-15T18:28:53.816-00:00",
        "included_in_blocks":
          [ "BL2F5ac7iskxYEmwA3uzKgxCyftUtdigkfJCN9xC2tQQDcoVeQ6" ] },
      { "delegate": "tz1h4GUAMweP7SNWzDgvMk3yRCAZyaP1MxZq",
        "reception_time": "2022-01-15T18:28:53.816-00:00",
        "included_in_blocks":
          [ "BL2F5ac7iskxYEmwA3uzKgxCyftUtdigkfJCN9xC2tQQDcoVeQ6" ] },
      { "delegate": "tz1MQJPGNMijnXnVoBENFz9rUhaPt3S7rWoz",
        "reception_time": "2022-01-15T18:28:53.842-00:00",
        "included_in_blocks":
          [ "BL2F5ac7iskxYEmwA3uzKgxCyftUtdigkfJCN9xC2tQQDcoVeQ6" ] },
      { "delegate": "tz3RKYFsLuQzKBtmYuLNas7uMu3AsYd4QdsA",
        "reception_time": "2022-01-15T18:28:53.850-00:00",
        "included_in_blocks":
          [ "BL2F5ac7iskxYEmwA3uzKgxCyftUtdigkfJCN9xC2tQQDcoVeQ6" ] },
      { "delegate": "tz3QSGPoRp3Kn7n3vY24eYeu3Peuqo45LQ4D",
        "reception_time": "2022-01-15T18:28:53.859-00:00",
        "included_in_blocks":
          [ "BL2F5ac7iskxYEmwA3uzKgxCyftUtdigkfJCN9xC2tQQDcoVeQ6" ] },
      { "delegate": "tz3S6BBeKgJGXxvLyZ1xzXzMPn11nnFtq5L9",
        "reception_time": "2022-01-15T18:28:53.868-00:00",
        "included_in_blocks":
          [ "BL2F5ac7iskxYEmwA3uzKgxCyftUtdigkfJCN9xC2tQQDcoVeQ6" ] },
      { "delegate": "tz3iJu5vrKZcsqRPs8yJ61UDoeEXZmtro4qh",
        "reception_time": "2022-01-15T18:28:53.886-00:00",
        "included_in_blocks":
          [ "BL2F5ac7iskxYEmwA3uzKgxCyftUtdigkfJCN9xC2tQQDcoVeQ6" ] },
      { "delegate": "tz1ei4WtWEMEJekSv8qDnu9PExG6Q8HgRGr3",
        "reception_time": "2022-01-15T18:28:53.891-00:00",
        "included_in_blocks":
          [ "BL2F5ac7iskxYEmwA3uzKgxCyftUtdigkfJCN9xC2tQQDcoVeQ6" ] },
      { "delegate": "tz1SYq214SCBy9naR6cvycQsYcUGpBqQAE8d",
        "reception_time": "2022-01-15T18:28:53.894-00:00",
        "included_in_blocks":
          [ "BL2F5ac7iskxYEmwA3uzKgxCyftUtdigkfJCN9xC2tQQDcoVeQ6" ] },
      { "delegate": "tz1gfArv665EUkSg2ojMBzcbfwuPxAvqPvjo",
        "reception_time": "2022-01-15T18:28:53.896-00:00",
        "included_in_blocks":
          [ "BL2F5ac7iskxYEmwA3uzKgxCyftUtdigkfJCN9xC2tQQDcoVeQ6" ] },
      { "delegate": "tz3QT9dHYKDqh563chVa6za8526ys1UKfRfL",
        "reception_time": "2022-01-15T18:28:53.916-00:00",
        "included_in_blocks":
          [ "BL2F5ac7iskxYEmwA3uzKgxCyftUtdigkfJCN9xC2tQQDcoVeQ6" ] },
      { "delegate": "tz1fPKAtsYydh4f1wfWNfeNxWYu72TmM48fu",
        "reception_time": "2022-01-15T18:28:53.928-00:00",
        "included_in_blocks":
          [ "BL2F5ac7iskxYEmwA3uzKgxCyftUtdigkfJCN9xC2tQQDcoVeQ6" ] },
      { "delegate": "tz1KfEsrtDaA1sX7vdM4qmEPWuSytuqCDp5j",
        "reception_time": "2022-01-15T18:28:53.932-00:00",
        "included_in_blocks":
          [ "BL2F5ac7iskxYEmwA3uzKgxCyftUtdigkfJCN9xC2tQQDcoVeQ6" ] },
      { "delegate": "tz3RB4aoyjov4KEVRbuhvQ1CKJgBJMWhaeB8",
        "reception_time": "2022-01-15T18:28:53.939-00:00",
        "included_in_blocks":
          [ "BL2F5ac7iskxYEmwA3uzKgxCyftUtdigkfJCN9xC2tQQDcoVeQ6" ] },
      { "delegate": "tz1PWCDnz783NNGGQjEFFsHtrcK5yBW4E2rm",
        "reception_time": "2022-01-15T18:28:53.959-00:00",
        "included_in_blocks":
          [ "BL2F5ac7iskxYEmwA3uzKgxCyftUtdigkfJCN9xC2tQQDcoVeQ6" ] },
      { "delegate": "tz1RQhNh7iB9CZA7i3ifTWNwiGYVffponfbB",
        "reception_time": "2022-01-15T18:28:53.963-00:00",
        "included_in_blocks":
          [ "BL2F5ac7iskxYEmwA3uzKgxCyftUtdigkfJCN9xC2tQQDcoVeQ6" ] },
      { "delegate": "tz1RCFbB9GpALpsZtu6J58sb74dm8qe6XBzv",
        "reception_time": "2022-01-15T18:28:54.045-00:00",
        "included_in_blocks":
          [ "BL2F5ac7iskxYEmwA3uzKgxCyftUtdigkfJCN9xC2tQQDcoVeQ6" ] },
      { "delegate": "tz3bvNMQ95vfAYtG8193ymshqjSvmxiCUuR5",
        "reception_time": "2022-01-15T18:28:54.089-00:00",
        "included_in_blocks":
          [ "BL2F5ac7iskxYEmwA3uzKgxCyftUtdigkfJCN9xC2tQQDcoVeQ6" ] },
      { "delegate": "tz1NEKxGEHsFufk87CVZcrqWu8o22qh46GK6",
        "reception_time": "2022-01-15T18:28:54.106-00:00",
        "included_in_blocks":
          [ "BL2F5ac7iskxYEmwA3uzKgxCyftUtdigkfJCN9xC2tQQDcoVeQ6" ] },
      { "delegate": "tz1Tnjaxk6tbAeC2TmMApPh8UsrEVQvhHvx5",
        "reception_time": "2022-01-15T18:28:54.111-00:00",
        "included_in_blocks":
          [ "BL2F5ac7iskxYEmwA3uzKgxCyftUtdigkfJCN9xC2tQQDcoVeQ6" ] },
      { "delegate": "tz3bTdwZinP8U1JmSweNzVKhmwafqWmFWRfk",
        "reception_time": "2022-01-15T18:28:54.144-00:00",
        "included_in_blocks":
          [ "BL2F5ac7iskxYEmwA3uzKgxCyftUtdigkfJCN9xC2tQQDcoVeQ6" ] },
      { "delegate": "tz1S8MNvuFEUsWgjHvi3AxibRBf388NhT1q2",
        "reception_time": "2022-01-15T18:28:54.148-00:00",
        "included_in_blocks":
          [ "BL2F5ac7iskxYEmwA3uzKgxCyftUtdigkfJCN9xC2tQQDcoVeQ6" ] },
      { "delegate": "tz1NortRftucvAkD1J58L32EhSVrQEWJCEnB",
        "reception_time": "2022-01-15T18:28:54.153-00:00",
        "included_in_blocks":
          [ "BL2F5ac7iskxYEmwA3uzKgxCyftUtdigkfJCN9xC2tQQDcoVeQ6" ] },
      { "delegate": "tz1MQMiZHV8q4tTwUMWmS5Y3kaP6J2136iXr",
        "reception_time": "2022-01-15T18:28:54.158-00:00",
        "included_in_blocks":
          [ "BL2F5ac7iskxYEmwA3uzKgxCyftUtdigkfJCN9xC2tQQDcoVeQ6" ] },
      { "delegate": "tz2FCNBrERXtaTtNX6iimR1UJ5JSDxvdHM93",
        "reception_time": "2022-01-15T18:28:54.170-00:00",
        "included_in_blocks":
          [ "BL2F5ac7iskxYEmwA3uzKgxCyftUtdigkfJCN9xC2tQQDcoVeQ6" ] },
      { "delegate": "tz1PeZx7FXy7QRuMREGXGxeipb24RsMMzUNe",
        "reception_time": "2022-01-15T18:28:54.170-00:00",
        "included_in_blocks":
          [ "BL2F5ac7iskxYEmwA3uzKgxCyftUtdigkfJCN9xC2tQQDcoVeQ6" ] },
      { "delegate": "tz1Nf6tsK4G6bBqgSQERy4nUtkHNKUVdh7q1",
        "reception_time": "2022-01-15T18:28:54.186-00:00",
        "included_in_blocks":
          [ "BL2F5ac7iskxYEmwA3uzKgxCyftUtdigkfJCN9xC2tQQDcoVeQ6" ] },
      { "delegate": "tz1WBfwbT66FC6BTLexc2BoyCCBM9LG7pnVW",
        "reception_time": "2022-01-15T18:28:54.213-00:00",
        "included_in_blocks":
          [ "BL2F5ac7iskxYEmwA3uzKgxCyftUtdigkfJCN9xC2tQQDcoVeQ6" ] },
      { "delegate": "tz1fwnfJNgiDACshK9avfRfFbMaXrs3ghoJa",
        "reception_time": "2022-01-15T18:28:54.324-00:00",
        "included_in_blocks":
          [ "BL2F5ac7iskxYEmwA3uzKgxCyftUtdigkfJCN9xC2tQQDcoVeQ6" ] },
      { "delegate": "tz1eCzNtidHvVgeRzQ38C81FPcYnxMsCEL6Z",
        "reception_time": "2022-01-15T18:28:54.423-00:00",
        "included_in_blocks":
          [ "BL2F5ac7iskxYEmwA3uzKgxCyftUtdigkfJCN9xC2tQQDcoVeQ6" ] },
      { "delegate": "tz3VEZ4k6a4Wx42iyev6i2aVAptTRLEAivNN",
        "reception_time": "2022-01-15T18:28:54.436-00:00",
        "included_in_blocks":
          [ "BL2F5ac7iskxYEmwA3uzKgxCyftUtdigkfJCN9xC2tQQDcoVeQ6" ] },
      { "delegate": "tz3RDC3Jdn4j15J7bBHZd29EUee9gVB1CxD9",
        "reception_time": "2022-01-15T18:28:54.501-00:00",
        "included_in_blocks":
          [ "BL2F5ac7iskxYEmwA3uzKgxCyftUtdigkfJCN9xC2tQQDcoVeQ6" ] },
      { "delegate": "tz1WctSwL49BZtdWAQ75NY6vr4xsAx6oKdah",
        "reception_time": "2022-01-15T18:28:54.723-00:00",
        "included_in_blocks":
          [ "BL2F5ac7iskxYEmwA3uzKgxCyftUtdigkfJCN9xC2tQQDcoVeQ6" ] },
      { "delegate": "tz1T7duV5gZWSTq4YpBGbXNLTfznCLDrFxvs",
        "reception_time": "2022-01-15T18:28:54.750-00:00",
        "included_in_blocks":
          [ "BL2F5ac7iskxYEmwA3uzKgxCyftUtdigkfJCN9xC2tQQDcoVeQ6" ] },
      { "delegate": "tz1TRqbYbUf2GyrjErf3hBzgBJPzW8y36qEs",
        "reception_time": "2022-01-15T18:28:54.763-00:00",
        "included_in_blocks":
          [ "BL2F5ac7iskxYEmwA3uzKgxCyftUtdigkfJCN9xC2tQQDcoVeQ6" ] },
      { "delegate": "tz1RzwaogUQ8zPntqrSn4yn5f3VquXfEH5Jo",
        "reception_time": "2022-01-15T18:28:54.899-00:00",
        "included_in_blocks":
          [ "BL2F5ac7iskxYEmwA3uzKgxCyftUtdigkfJCN9xC2tQQDcoVeQ6" ] },
      { "delegate": "tz3UoffC7FG7zfpmvmjUmUeAaHvzdcUvAj6r",
        "reception_time": "2022-01-15T18:28:55.029-00:00",
        "included_in_blocks":
          [ "BL2F5ac7iskxYEmwA3uzKgxCyftUtdigkfJCN9xC2tQQDcoVeQ6" ] },
      { "delegate": "tz1cYufsxHXJcvANhvS55h3aY32a9BAFB494",
        "reception_time": "2022-01-15T18:28:55.040-00:00",
        "included_in_blocks":
          [ "BL2F5ac7iskxYEmwA3uzKgxCyftUtdigkfJCN9xC2tQQDcoVeQ6" ] },
      { "delegate": "tz3WMqdzXqRWXwyvj5Hp2H7QEepaUuS7vd9K",
        "reception_time": "2022-01-15T18:28:55.195-00:00",
        "included_in_blocks":
          [ "BL2F5ac7iskxYEmwA3uzKgxCyftUtdigkfJCN9xC2tQQDcoVeQ6" ] },
      { "delegate": "tz1dNVDWPf3Q59SdJqnjdnu277iyvReiRS9M",
        "reception_time": "2022-01-15T18:28:55.246-00:00",
        "included_in_blocks":
          [ "BL2F5ac7iskxYEmwA3uzKgxCyftUtdigkfJCN9xC2tQQDcoVeQ6" ] },
      { "delegate": "tz1awXW7wuXy21c66vBudMXQVAPgRnqqwgTH",
        "reception_time": "2022-01-15T18:28:55.337-00:00",
        "included_in_blocks":
          [ "BL2F5ac7iskxYEmwA3uzKgxCyftUtdigkfJCN9xC2tQQDcoVeQ6" ] },
      { "delegate": "tz1aRoaRhSpRYvFdyvgWLL6TGyRoGF51wDjM",
        "reception_time": "2022-01-15T18:28:56.428-00:00",
        "included_in_blocks":
          [ "BL2F5ac7iskxYEmwA3uzKgxCyftUtdigkfJCN9xC2tQQDcoVeQ6" ] },
      { "delegate": "tz1W5VkdB5s7ENMESVBtwyt9kyvLqPcUczRT",
        "reception_time": "2022-01-15T18:28:57.478-00:00",
        "included_in_blocks":
          [ "BL2F5ac7iskxYEmwA3uzKgxCyftUtdigkfJCN9xC2tQQDcoVeQ6" ] },
      { "delegate": "tz1eLbDXYceRsPZoPmaJXZgQ6pzgnTQvZtpo",
        "reception_time": "2022-01-15T18:28:59.681-00:00",
        "included_in_blocks":
          [ "BL2F5ac7iskxYEmwA3uzKgxCyftUtdigkfJCN9xC2tQQDcoVeQ6" ] },
      { "delegate": "tz1fJHFn6sWEd3NnBPngACuw2dggTv6nQZ7g",
        "reception_time": "2022-01-15T18:28:59.699-00:00",
        "included_in_blocks":
          [ "BL2F5ac7iskxYEmwA3uzKgxCyftUtdigkfJCN9xC2tQQDcoVeQ6" ] },
      { "delegate": "tz1NpWrAyDL9k2Lmnyxcgr9xuJakbBxdq7FB",
        "reception_time": "2022-01-15T18:29:01.516-00:00",
        "included_in_blocks":
          [ "BL2F5ac7iskxYEmwA3uzKgxCyftUtdigkfJCN9xC2tQQDcoVeQ6" ] },
      { "delegate": "tz1g8vkmcde6sWKaG2NN9WKzCkDM6Rziq194",
        "reception_time": "2022-01-15T18:29:02.628-00:00",
        "included_in_blocks":
          [ "BL2F5ac7iskxYEmwA3uzKgxCyftUtdigkfJCN9xC2tQQDcoVeQ6" ] } ] }