{ "blocks":
    [ { "hash": "BLSMTLWAQq8eAuffkVA5cP2VQtb83EvKiTsZ3AKsEtEJC1jzWVF",
        "delegate": "tz2FCNBrERXtaTtNX6iimR1UJ5JSDxvdHM93",
        "reception_time": "2022-01-15T18:46:48.367-00:00",
        "timestamp": "2022-01-15T18:46:40Z" } ],
  "endorsements":
    [ { "delegate": "tz1TRspM5SeZpaQUhzByXbEvqKF1vnCM2YTK" },
      { "delegate": "tz1NdhRv643wLW6zCcRP3VfT24dvDnh7nuh9" },
      { "delegate": "tz1P2Po7YM526ughEsRbY4oR9zaUPDZjxFrb",
        "reception_time": "2022-01-15T18:46:48.254-00:00",
        "errors":
          [ { "kind": "temporary",
              "id": "proto.011-PtHangz2.prefilter.outdated_endorsement" } ],
        "included_in_blocks":
          [ "BLYapjRpPXHUdZk1msEpxaGpkACyQogZJKCU9N9Mocc2Yno4mdC" ] },
      { "delegate": "tz1Zhv3RkfU2pHrmaiDyxp7kFZpZrUCu1CiF",
        "reception_time": "2022-01-15T18:46:48.201-00:00",
        "errors":
          [ { "kind": "temporary",
              "id": "proto.011-PtHangz2.prefilter.outdated_endorsement" } ],
        "included_in_blocks":
          [ "BLYapjRpPXHUdZk1msEpxaGpkACyQogZJKCU9N9Mocc2Yno4mdC" ] },
      { "delegate": "tz1S8e9GgdZG78XJRB3NqabfWeM37GnhZMWQ",
        "reception_time": "2022-01-15T18:46:47.985-00:00",
        "errors":
          [ { "kind": "temporary",
              "id": "proto.011-PtHangz2.prefilter.outdated_endorsement" } ],
        "included_in_blocks":
          [ "BLYapjRpPXHUdZk1msEpxaGpkACyQogZJKCU9N9Mocc2Yno4mdC" ] },
      { "delegate": "tz1g8vkmcde6sWKaG2NN9WKzCkDM6Rziq194",
        "reception_time": "2022-01-15T18:46:59.163-00:00",
        "included_in_blocks":
          [ "BLYapjRpPXHUdZk1msEpxaGpkACyQogZJKCU9N9Mocc2Yno4mdC" ] },
      { "delegate": "tz1gg5bjopPcr9agjamyu9BbXKLibNc2rbAq",
        "reception_time": "2022-01-15T18:46:57.463-00:00",
        "included_in_blocks":
          [ "BLYapjRpPXHUdZk1msEpxaGpkACyQogZJKCU9N9Mocc2Yno4mdC" ] },
      { "delegate": "tz1S5WxdZR5f9NzsPXhr7L9L1vrEb5spZFur",
        "reception_time": "2022-01-15T18:46:57.459-00:00",
        "included_in_blocks":
          [ "BLYapjRpPXHUdZk1msEpxaGpkACyQogZJKCU9N9Mocc2Yno4mdC" ] },
      { "delegate": "tz1Z9M4biBHSiH38k5ciRMjR5bgk89yEgLTz",
        "reception_time": "2022-01-15T18:46:54.953-00:00",
        "included_in_blocks":
          [ "BLYapjRpPXHUdZk1msEpxaGpkACyQogZJKCU9N9Mocc2Yno4mdC" ] },
      { "delegate": "tz1i3mhawFAgcB8JHaHwoUF6hdncwTAkLEn2",
        "reception_time": "2022-01-15T18:46:54.319-00:00",
        "included_in_blocks":
          [ "BLYapjRpPXHUdZk1msEpxaGpkACyQogZJKCU9N9Mocc2Yno4mdC" ] },
      { "delegate": "tz1TcH4Nb3aHNDJ7CGZhU7jgAK1BkSP4Lxds",
        "reception_time": "2022-01-15T18:46:54.277-00:00",
        "included_in_blocks":
          [ "BLYapjRpPXHUdZk1msEpxaGpkACyQogZJKCU9N9Mocc2Yno4mdC" ] },
      { "delegate": "tz1cYufsxHXJcvANhvS55h3aY32a9BAFB494",
        "reception_time": "2022-01-15T18:46:53.168-00:00",
        "included_in_blocks":
          [ "BLYapjRpPXHUdZk1msEpxaGpkACyQogZJKCU9N9Mocc2Yno4mdC" ] },
      { "delegate": "tz1aRoaRhSpRYvFdyvgWLL6TGyRoGF51wDjM",
        "reception_time": "2022-01-15T18:46:53.069-00:00",
        "included_in_blocks":
          [ "BLYapjRpPXHUdZk1msEpxaGpkACyQogZJKCU9N9Mocc2Yno4mdC" ] },
      { "delegate": "tz1ZcTRk5uxD86EFEn1vvNffWWqJy7q5eVhc",
        "reception_time": "2022-01-15T18:46:52.747-00:00",
        "included_in_blocks":
          [ "BLYapjRpPXHUdZk1msEpxaGpkACyQogZJKCU9N9Mocc2Yno4mdC" ] },
      { "delegate": "tz3RDC3Jdn4j15J7bBHZd29EUee9gVB1CxD9",
        "reception_time": "2022-01-15T18:46:52.521-00:00",
        "included_in_blocks":
          [ "BLYapjRpPXHUdZk1msEpxaGpkACyQogZJKCU9N9Mocc2Yno4mdC" ] },
      { "delegate": "tz3UoffC7FG7zfpmvmjUmUeAaHvzdcUvAj6r",
        "reception_time": "2022-01-15T18:46:53.092-00:00",
        "included_in_blocks":
          [ "BLYapjRpPXHUdZk1msEpxaGpkACyQogZJKCU9N9Mocc2Yno4mdC" ] },
      { "delegate": "tz1dRKU4FQ9QRRQPdaH4zCR6gmCmXfcvcgtB",
        "reception_time": "2022-01-15T18:46:52.047-00:00",
        "included_in_blocks":
          [ "BLYapjRpPXHUdZk1msEpxaGpkACyQogZJKCU9N9Mocc2Yno4mdC" ] },
      { "delegate": "tz3NExpXn9aPNZPorRE4SdjJ2RGrfbJgMAaV",
        "reception_time": "2022-01-15T18:46:52.966-00:00",
        "included_in_blocks":
          [ "BLYapjRpPXHUdZk1msEpxaGpkACyQogZJKCU9N9Mocc2Yno4mdC" ] },
      { "delegate": "tz1chefX9Lf2XcZ4BzPtHjV4Qed6BY2ci9GE",
        "reception_time": "2022-01-15T18:46:51.631-00:00",
        "included_in_blocks":
          [ "BLYapjRpPXHUdZk1msEpxaGpkACyQogZJKCU9N9Mocc2Yno4mdC" ] },
      { "delegate": "tz3NDpRj6WBrJPikcPVHRBEjWKxFw3c6eQPS",
        "reception_time": "2022-01-15T18:46:51.514-00:00",
        "included_in_blocks":
          [ "BLYapjRpPXHUdZk1msEpxaGpkACyQogZJKCU9N9Mocc2Yno4mdC" ] },
      { "delegate": "tz1TRqbYbUf2GyrjErf3hBzgBJPzW8y36qEs",
        "reception_time": "2022-01-15T18:46:51.358-00:00",
        "included_in_blocks":
          [ "BLYapjRpPXHUdZk1msEpxaGpkACyQogZJKCU9N9Mocc2Yno4mdC" ] },
      { "delegate": "tz1WBfwbT66FC6BTLexc2BoyCCBM9LG7pnVW",
        "reception_time": "2022-01-15T18:46:51.499-00:00",
        "included_in_blocks":
          [ "BLYapjRpPXHUdZk1msEpxaGpkACyQogZJKCU9N9Mocc2Yno4mdC" ] },
      { "delegate": "tz1fwnfJNgiDACshK9avfRfFbMaXrs3ghoJa",
        "reception_time": "2022-01-15T18:46:51.418-00:00",
        "included_in_blocks":
          [ "BLYapjRpPXHUdZk1msEpxaGpkACyQogZJKCU9N9Mocc2Yno4mdC" ] },
      { "delegate": "tz3bvNMQ95vfAYtG8193ymshqjSvmxiCUuR5",
        "reception_time": "2022-01-15T18:46:51.301-00:00",
        "included_in_blocks":
          [ "BLYapjRpPXHUdZk1msEpxaGpkACyQogZJKCU9N9Mocc2Yno4mdC" ] },
      { "delegate": "tz1Tnjaxk6tbAeC2TmMApPh8UsrEVQvhHvx5",
        "reception_time": "2022-01-15T18:46:51.195-00:00",
        "included_in_blocks":
          [ "BLYapjRpPXHUdZk1msEpxaGpkACyQogZJKCU9N9Mocc2Yno4mdC" ] },
      { "delegate": "tz3VEZ4k6a4Wx42iyev6i2aVAptTRLEAivNN",
        "reception_time": "2022-01-15T18:46:52.549-00:00",
        "included_in_blocks":
          [ "BLYapjRpPXHUdZk1msEpxaGpkACyQogZJKCU9N9Mocc2Yno4mdC" ] },
      { "delegate": "tz3WMqdzXqRWXwyvj5Hp2H7QEepaUuS7vd9K",
        "reception_time": "2022-01-15T18:46:51.992-00:00",
        "included_in_blocks":
          [ "BLYapjRpPXHUdZk1msEpxaGpkACyQogZJKCU9N9Mocc2Yno4mdC" ] },
      { "delegate": "tz1dNVDWPf3Q59SdJqnjdnu277iyvReiRS9M",
        "reception_time": "2022-01-15T18:46:51.187-00:00",
        "included_in_blocks":
          [ "BLYapjRpPXHUdZk1msEpxaGpkACyQogZJKCU9N9Mocc2Yno4mdC" ] },
      { "delegate": "tz3bTdwZinP8U1JmSweNzVKhmwafqWmFWRfk",
        "reception_time": "2022-01-15T18:46:51.205-00:00",
        "included_in_blocks":
          [ "BLYapjRpPXHUdZk1msEpxaGpkACyQogZJKCU9N9Mocc2Yno4mdC" ] },
      { "delegate": "tz3RB4aoyjov4KEVRbuhvQ1CKJgBJMWhaeB8",
        "reception_time": "2022-01-15T18:46:51.180-00:00",
        "included_in_blocks":
          [ "BLYapjRpPXHUdZk1msEpxaGpkACyQogZJKCU9N9Mocc2Yno4mdC" ] },
      { "delegate": "tz1iPHM2Xx2hwmzcr1EG1zzrV6oKafVoA91m",
        "reception_time": "2022-01-15T18:46:51.173-00:00",
        "included_in_blocks":
          [ "BLYapjRpPXHUdZk1msEpxaGpkACyQogZJKCU9N9Mocc2Yno4mdC" ] },
      { "delegate": "tz1UMCB2AHSTwG7YcGNr31CqYCtGN873royv",
        "reception_time": "2022-01-15T18:46:51.198-00:00",
        "included_in_blocks":
          [ "BLYapjRpPXHUdZk1msEpxaGpkACyQogZJKCU9N9Mocc2Yno4mdC" ] },
      { "delegate": "tz1dwu9aYb7CRNq4Y2zAjipdjFuSVKhHS8vA",
        "reception_time": "2022-01-15T18:46:50.509-00:00",
        "included_in_blocks":
          [ "BLYapjRpPXHUdZk1msEpxaGpkACyQogZJKCU9N9Mocc2Yno4mdC" ] },
      { "delegate": "tz1RCFbB9GpALpsZtu6J58sb74dm8qe6XBzv",
        "reception_time": "2022-01-15T18:46:50.854-00:00",
        "included_in_blocks":
          [ "BLYapjRpPXHUdZk1msEpxaGpkACyQogZJKCU9N9Mocc2Yno4mdC" ] },
      { "delegate": "tz1fb7c66UwePkkfDXz4ajFaBP9hVNLdS7JJ",
        "reception_time": "2022-01-15T18:46:50.489-00:00",
        "included_in_blocks":
          [ "BLYapjRpPXHUdZk1msEpxaGpkACyQogZJKCU9N9Mocc2Yno4mdC" ] },
      { "delegate": "tz1S8MNvuFEUsWgjHvi3AxibRBf388NhT1q2",
        "reception_time": "2022-01-15T18:46:51.376-00:00",
        "included_in_blocks":
          [ "BLYapjRpPXHUdZk1msEpxaGpkACyQogZJKCU9N9Mocc2Yno4mdC" ] },
      { "delegate": "tz1RjoHc98dBoqaH2jawF62XNKh7YsHwbkEv",
        "reception_time": "2022-01-15T18:46:51.325-00:00",
        "included_in_blocks":
          [ "BLYapjRpPXHUdZk1msEpxaGpkACyQogZJKCU9N9Mocc2Yno4mdC" ] },
      { "delegate": "tz1LmaFsWRkjr7QMCx5PtV6xTUz3AmEpKQiF",
        "reception_time": "2022-01-15T18:46:51.598-00:00",
        "included_in_blocks":
          [ "BLYapjRpPXHUdZk1msEpxaGpkACyQogZJKCU9N9Mocc2Yno4mdC" ] },
      { "delegate": "tz3adcvQaKXTCg12zbninqo3q8ptKKtDFTLv",
        "reception_time": "2022-01-15T18:46:50.381-00:00",
        "included_in_blocks":
          [ "BLYapjRpPXHUdZk1msEpxaGpkACyQogZJKCU9N9Mocc2Yno4mdC" ] },
      { "delegate": "tz1gfArv665EUkSg2ojMBzcbfwuPxAvqPvjo",
        "reception_time": "2022-01-15T18:46:50.520-00:00",
        "included_in_blocks":
          [ "BLYapjRpPXHUdZk1msEpxaGpkACyQogZJKCU9N9Mocc2Yno4mdC" ] },
      { "delegate": "tz3iJu5vrKZcsqRPs8yJ61UDoeEXZmtro4qh",
        "reception_time": "2022-01-15T18:46:50.327-00:00",
        "included_in_blocks":
          [ "BLYapjRpPXHUdZk1msEpxaGpkACyQogZJKCU9N9Mocc2Yno4mdC" ] },
      { "delegate": "tz1SYq214SCBy9naR6cvycQsYcUGpBqQAE8d",
        "reception_time": "2022-01-15T18:46:50.451-00:00",
        "included_in_blocks":
          [ "BLYapjRpPXHUdZk1msEpxaGpkACyQogZJKCU9N9Mocc2Yno4mdC" ] },
      { "delegate": "tz1KfEsrtDaA1sX7vdM4qmEPWuSytuqCDp5j",
        "reception_time": "2022-01-15T18:46:51.195-00:00",
        "included_in_blocks":
          [ "BLYapjRpPXHUdZk1msEpxaGpkACyQogZJKCU9N9Mocc2Yno4mdC" ] },
      { "delegate": "tz3RKYFsLuQzKBtmYuLNas7uMu3AsYd4QdsA",
        "reception_time": "2022-01-15T18:46:50.290-00:00",
        "included_in_blocks":
          [ "BLYapjRpPXHUdZk1msEpxaGpkACyQogZJKCU9N9Mocc2Yno4mdC" ] },
      { "delegate": "tz3Zhs2dygr55yHyQyKjntAtY9bgfhLZ4Xj1",
        "reception_time": "2022-01-15T18:46:50.319-00:00",
        "included_in_blocks":
          [ "BLYapjRpPXHUdZk1msEpxaGpkACyQogZJKCU9N9Mocc2Yno4mdC" ] },
      { "delegate": "tz3QT9dHYKDqh563chVa6za8526ys1UKfRfL",
        "reception_time": "2022-01-15T18:46:50.241-00:00",
        "included_in_blocks":
          [ "BLYapjRpPXHUdZk1msEpxaGpkACyQogZJKCU9N9Mocc2Yno4mdC" ] },
      { "delegate": "tz1Nf6tsK4G6bBqgSQERy4nUtkHNKUVdh7q1",
        "reception_time": "2022-01-15T18:46:51.173-00:00",
        "included_in_blocks":
          [ "BLYapjRpPXHUdZk1msEpxaGpkACyQogZJKCU9N9Mocc2Yno4mdC" ] },
      { "delegate": "tz1ia6jze3LrBGWJkaDmZ7ThJpPsYWh8D398",
        "reception_time": "2022-01-15T18:46:50.207-00:00",
        "included_in_blocks":
          [ "BLYapjRpPXHUdZk1msEpxaGpkACyQogZJKCU9N9Mocc2Yno4mdC" ] },
      { "delegate": "tz1ei4WtWEMEJekSv8qDnu9PExG6Q8HgRGr3",
        "reception_time": "2022-01-15T18:46:50.436-00:00",
        "included_in_blocks":
          [ "BLYapjRpPXHUdZk1msEpxaGpkACyQogZJKCU9N9Mocc2Yno4mdC" ] },
      { "delegate": "tz3S6BBeKgJGXxvLyZ1xzXzMPn11nnFtq5L9",
        "reception_time": "2022-01-15T18:46:50.254-00:00",
        "included_in_blocks":
          [ "BLYapjRpPXHUdZk1msEpxaGpkACyQogZJKCU9N9Mocc2Yno4mdC" ] },
      { "delegate": "tz3QSGPoRp3Kn7n3vY24eYeu3Peuqo45LQ4D",
        "reception_time": "2022-01-15T18:46:50.303-00:00",
        "included_in_blocks":
          [ "BLYapjRpPXHUdZk1msEpxaGpkACyQogZJKCU9N9Mocc2Yno4mdC" ] },
      { "delegate": "tz2FCNBrERXtaTtNX6iimR1UJ5JSDxvdHM93",
        "reception_time": "2022-01-15T18:46:50.257-00:00",
        "included_in_blocks":
          [ "BLYapjRpPXHUdZk1msEpxaGpkACyQogZJKCU9N9Mocc2Yno4mdC" ] },
      { "delegate": "tz1fPKAtsYydh4f1wfWNfeNxWYu72TmM48fu",
        "reception_time": "2022-01-15T18:46:50.949-00:00",
        "included_in_blocks":
          [ "BLYapjRpPXHUdZk1msEpxaGpkACyQogZJKCU9N9Mocc2Yno4mdC" ] },
      { "delegate": "tz3hw2kqXhLUvY65ca1eety2oQTpAvd34R9Q",
        "reception_time": "2022-01-15T18:46:50.282-00:00",
        "included_in_blocks":
          [ "BLYapjRpPXHUdZk1msEpxaGpkACyQogZJKCU9N9Mocc2Yno4mdC" ] },
      { "delegate": "tz1Ldzz6k1BHdhuKvAtMRX7h5kJSMHESMHLC",
        "reception_time": "2022-01-15T18:46:50.201-00:00",
        "included_in_blocks":
          [ "BLYapjRpPXHUdZk1msEpxaGpkACyQogZJKCU9N9Mocc2Yno4mdC" ] },
      { "delegate": "tz3gtoUxdudfBRcNY7iVdKPHCYYX6xdPpoRS",
        "reception_time": "2022-01-15T18:46:50.232-00:00",
        "included_in_blocks":
          [ "BLYapjRpPXHUdZk1msEpxaGpkACyQogZJKCU9N9Mocc2Yno4mdC" ] },
      { "delegate": "tz1eEnQhbwf6trb8Q8mPb2RaPkNk2rN7BKi8",
        "reception_time": "2022-01-15T18:46:50.204-00:00",
        "included_in_blocks":
          [ "BLYapjRpPXHUdZk1msEpxaGpkACyQogZJKCU9N9Mocc2Yno4mdC" ] },
      { "delegate": "tz3NxTnke1acr8o3h5y9ytf5awQBGNJUKzVU",
        "reception_time": "2022-01-15T18:46:50.215-00:00",
        "included_in_blocks":
          [ "BLYapjRpPXHUdZk1msEpxaGpkACyQogZJKCU9N9Mocc2Yno4mdC" ] },
      { "delegate": "tz1VQnqCCqX4K5sP3FNkVSNKTdCAMJDd3E1n",
        "reception_time": "2022-01-15T18:46:50.182-00:00",
        "included_in_blocks":
          [ "BLYapjRpPXHUdZk1msEpxaGpkACyQogZJKCU9N9Mocc2Yno4mdC" ] },
      { "delegate": "tz1irJKkXS2DBWkU1NnmFQx1c1L7pbGg4yhk",
        "reception_time": "2022-01-15T18:46:50.172-00:00",
        "included_in_blocks":
          [ "BLYapjRpPXHUdZk1msEpxaGpkACyQogZJKCU9N9Mocc2Yno4mdC" ] },
      { "delegate": "tz1TXzyaKUA8wsWefdSnyaYFnV2M3vCV7er9",
        "reception_time": "2022-01-15T18:46:50.178-00:00",
        "included_in_blocks":
          [ "BLYapjRpPXHUdZk1msEpxaGpkACyQogZJKCU9N9Mocc2Yno4mdC" ] },
      { "delegate": "tz1gUNyn3hmnEWqkusWPzxRaon1cs7ndWh7h",
        "reception_time": "2022-01-15T18:46:50.169-00:00",
        "included_in_blocks":
          [ "BLYapjRpPXHUdZk1msEpxaGpkACyQogZJKCU9N9Mocc2Yno4mdC" ] },
      { "delegate": "tz1gcna2xxZj2eNp1LaMyAhVJ49mEFj4FH26",
        "reception_time": "2022-01-15T18:46:50.178-00:00",
        "included_in_blocks":
          [ "BLYapjRpPXHUdZk1msEpxaGpkACyQogZJKCU9N9Mocc2Yno4mdC" ] },
      { "delegate": "tz3ZbP2pM3nwvXztbuMJwJnDvV5xdpU8UkkD",
        "reception_time": "2022-01-15T18:46:50.224-00:00",
        "included_in_blocks":
          [ "BLYapjRpPXHUdZk1msEpxaGpkACyQogZJKCU9N9Mocc2Yno4mdC" ] } ] }