{ "blocks":
    [ { "hash": "BLLWsNvn52D1XEsTMbpTJsoRgzfaxeySrKC8wfUby8U9Sv9L484",
        "delegate": "tz1irJKkXS2DBWkU1NnmFQx1c1L7pbGg4yhk",
        "reception_time": "2022-01-15T20:03:56.511-00:00",
        "timestamp": "2022-01-15T20:03:50Z" } ],
  "endorsements":
    [ { "delegate": "tz3bEQoFCZEEfZMskefZ8q8e4eiHH1pssRax" },
      { "delegate": "tz1TRspM5SeZpaQUhzByXbEvqKF1vnCM2YTK" },
      { "delegate": "tz1NdhRv643wLW6zCcRP3VfT24dvDnh7nuh9" },
      { "delegate": "tz1Kf25fX1VdmYGSEzwFy1wNmkbSEZ2V83sY",
        "reception_time": "2022-01-15T20:03:56.514-00:00",
        "errors":
          [ { "kind": "temporary",
              "id": "proto.011-PtHangz2.prefilter.outdated_endorsement" } ],
        "included_in_blocks":
          [ "BMGSns5NZfQTGa1D8s4BA2z2baggejQfWSWks7sdZNHzgHXc2Ri" ] },
      { "delegate": "tz1VQnqCCqX4K5sP3FNkVSNKTdCAMJDd3E1n",
        "reception_time": "2022-01-15T20:03:56.231-00:00",
        "errors":
          [ { "kind": "temporary",
              "id": "proto.011-PtHangz2.prefilter.outdated_endorsement" } ],
        "included_in_blocks":
          [ "BMGSns5NZfQTGa1D8s4BA2z2baggejQfWSWks7sdZNHzgHXc2Ri" ] },
      { "delegate": "tz1gUNyn3hmnEWqkusWPzxRaon1cs7ndWh7h",
        "reception_time": "2022-01-15T20:03:56.217-00:00",
        "errors":
          [ { "kind": "temporary",
              "id": "proto.011-PtHangz2.prefilter.outdated_endorsement" } ],
        "included_in_blocks":
          [ "BMGSns5NZfQTGa1D8s4BA2z2baggejQfWSWks7sdZNHzgHXc2Ri" ] },
      { "delegate": "tz1Lhf4J9Qxoe3DZ2nfe8FGDnvVj7oKjnMY6",
        "reception_time": "2022-01-15T20:03:56.082-00:00",
        "errors":
          [ { "kind": "temporary",
              "id": "proto.011-PtHangz2.prefilter.outdated_endorsement" } ],
        "included_in_blocks":
          [ "BMGSns5NZfQTGa1D8s4BA2z2baggejQfWSWks7sdZNHzgHXc2Ri" ] },
      { "delegate": "tz1LLNkQK4UQV6QcFShiXJ2vT2ELw449MzAA",
        "reception_time": "2022-01-15T20:03:56.064-00:00",
        "errors":
          [ { "kind": "temporary",
              "id": "proto.011-PtHangz2.prefilter.outdated_endorsement" } ],
        "included_in_blocks":
          [ "BMGSns5NZfQTGa1D8s4BA2z2baggejQfWSWks7sdZNHzgHXc2Ri" ] },
      { "delegate": "tz1eEnQhbwf6trb8Q8mPb2RaPkNk2rN7BKi8",
        "reception_time": "2022-01-15T20:03:55.833-00:00",
        "errors":
          [ { "kind": "temporary",
              "id": "proto.011-PtHangz2.prefilter.outdated_endorsement" } ],
        "included_in_blocks":
          [ "BMGSns5NZfQTGa1D8s4BA2z2baggejQfWSWks7sdZNHzgHXc2Ri" ] },
      { "delegate": "tz1beersuEDv8Z7ngQ825xfbaJNS2EhXnyHR",
        "reception_time": "2022-01-15T20:03:55.694-00:00",
        "errors":
          [ { "kind": "temporary",
              "id": "proto.011-PtHangz2.prefilter.outdated_endorsement" } ],
        "included_in_blocks":
          [ "BMGSns5NZfQTGa1D8s4BA2z2baggejQfWSWks7sdZNHzgHXc2Ri" ] },
      { "delegate": "tz1irJKkXS2DBWkU1NnmFQx1c1L7pbGg4yhk",
        "reception_time": "2022-01-15T20:03:55.667-00:00",
        "errors":
          [ { "kind": "temporary",
              "id": "proto.011-PtHangz2.prefilter.outdated_endorsement" } ],
        "included_in_blocks":
          [ "BMGSns5NZfQTGa1D8s4BA2z2baggejQfWSWks7sdZNHzgHXc2Ri" ] },
      { "delegate": "tz1P2Po7YM526ughEsRbY4oR9zaUPDZjxFrb",
        "reception_time": "2022-01-15T20:03:55.553-00:00",
        "errors":
          [ { "kind": "temporary",
              "id": "proto.011-PtHangz2.prefilter.outdated_endorsement" } ],
        "included_in_blocks":
          [ "BMGSns5NZfQTGa1D8s4BA2z2baggejQfWSWks7sdZNHzgHXc2Ri" ] },
      { "delegate": "tz1Scdr2HsZiQjc7bHMeBbmDRXYVvdhjJbBh",
        "reception_time": "2022-01-15T20:03:55.444-00:00",
        "errors":
          [ { "kind": "temporary",
              "id": "proto.011-PtHangz2.prefilter.outdated_endorsement" } ],
        "included_in_blocks":
          [ "BMGSns5NZfQTGa1D8s4BA2z2baggejQfWSWks7sdZNHzgHXc2Ri" ] },
      { "delegate": "tz1NpWrAyDL9k2Lmnyxcgr9xuJakbBxdq7FB",
        "reception_time": "2022-01-15T20:04:06.178-00:00",
        "included_in_blocks":
          [ "BMGSns5NZfQTGa1D8s4BA2z2baggejQfWSWks7sdZNHzgHXc2Ri" ] },
      { "delegate": "tz1fJHFn6sWEd3NnBPngACuw2dggTv6nQZ7g",
        "reception_time": "2022-01-15T20:04:00.439-00:00",
        "included_in_blocks":
          [ "BMGSns5NZfQTGa1D8s4BA2z2baggejQfWSWks7sdZNHzgHXc2Ri" ] },
      { "delegate": "tz1LcuQHNVQEWP2fZjk1QYZGNrfLDwrT3SyZ",
        "reception_time": "2022-01-15T20:03:59.902-00:00",
        "included_in_blocks":
          [ "BMGSns5NZfQTGa1D8s4BA2z2baggejQfWSWks7sdZNHzgHXc2Ri" ] },
      { "delegate": "tz1aRoaRhSpRYvFdyvgWLL6TGyRoGF51wDjM",
        "reception_time": "2022-01-15T20:03:59.951-00:00",
        "included_in_blocks":
          [ "BMGSns5NZfQTGa1D8s4BA2z2baggejQfWSWks7sdZNHzgHXc2Ri" ] },
      { "delegate": "tz1ZcTRk5uxD86EFEn1vvNffWWqJy7q5eVhc",
        "reception_time": "2022-01-15T20:03:59.733-00:00",
        "included_in_blocks":
          [ "BMGSns5NZfQTGa1D8s4BA2z2baggejQfWSWks7sdZNHzgHXc2Ri" ] },
      { "delegate": "tz1cM8Xc7ZP1TrjkTeKq4PeRhtbnwXSBR6Sw",
        "reception_time": "2022-01-15T20:03:59.966-00:00",
        "included_in_blocks":
          [ "BMGSns5NZfQTGa1D8s4BA2z2baggejQfWSWks7sdZNHzgHXc2Ri" ] },
      { "delegate": "tz1cYufsxHXJcvANhvS55h3aY32a9BAFB494",
        "reception_time": "2022-01-15T20:03:58.917-00:00",
        "included_in_blocks":
          [ "BMGSns5NZfQTGa1D8s4BA2z2baggejQfWSWks7sdZNHzgHXc2Ri" ] },
      { "delegate": "tz1awXW7wuXy21c66vBudMXQVAPgRnqqwgTH",
        "reception_time": "2022-01-15T20:03:58.987-00:00",
        "included_in_blocks":
          [ "BMGSns5NZfQTGa1D8s4BA2z2baggejQfWSWks7sdZNHzgHXc2Ri" ] },
      { "delegate": "tz1Z2jXfEXL7dXhs6bsLmyLFLfmAkXBzA9WE",
        "reception_time": "2022-01-15T20:03:58.650-00:00",
        "included_in_blocks":
          [ "BMGSns5NZfQTGa1D8s4BA2z2baggejQfWSWks7sdZNHzgHXc2Ri" ] },
      { "delegate": "tz3NExpXn9aPNZPorRE4SdjJ2RGrfbJgMAaV",
        "reception_time": "2022-01-15T20:03:59.440-00:00",
        "included_in_blocks":
          [ "BMGSns5NZfQTGa1D8s4BA2z2baggejQfWSWks7sdZNHzgHXc2Ri" ] },
      { "delegate": "tz1NEKxGEHsFufk87CVZcrqWu8o22qh46GK6",
        "reception_time": "2022-01-15T20:03:59.279-00:00",
        "included_in_blocks":
          [ "BMGSns5NZfQTGa1D8s4BA2z2baggejQfWSWks7sdZNHzgHXc2Ri" ] },
      { "delegate": "tz1PeZx7FXy7QRuMREGXGxeipb24RsMMzUNe",
        "reception_time": "2022-01-15T20:03:58.422-00:00",
        "included_in_blocks":
          [ "BMGSns5NZfQTGa1D8s4BA2z2baggejQfWSWks7sdZNHzgHXc2Ri" ] },
      { "delegate": "tz1Nf6tsK4G6bBqgSQERy4nUtkHNKUVdh7q1",
        "reception_time": "2022-01-15T20:03:58.284-00:00",
        "included_in_blocks":
          [ "BMGSns5NZfQTGa1D8s4BA2z2baggejQfWSWks7sdZNHzgHXc2Ri" ] },
      { "delegate": "tz1WctSwL49BZtdWAQ75NY6vr4xsAx6oKdah",
        "reception_time": "2022-01-15T20:03:58.706-00:00",
        "included_in_blocks":
          [ "BMGSns5NZfQTGa1D8s4BA2z2baggejQfWSWks7sdZNHzgHXc2Ri" ] },
      { "delegate": "tz3NDpRj6WBrJPikcPVHRBEjWKxFw3c6eQPS",
        "reception_time": "2022-01-15T20:03:58.168-00:00",
        "included_in_blocks":
          [ "BMGSns5NZfQTGa1D8s4BA2z2baggejQfWSWks7sdZNHzgHXc2Ri" ] },
      { "delegate": "tz3VEZ4k6a4Wx42iyev6i2aVAptTRLEAivNN",
        "reception_time": "2022-01-15T20:03:58.832-00:00",
        "included_in_blocks":
          [ "BMGSns5NZfQTGa1D8s4BA2z2baggejQfWSWks7sdZNHzgHXc2Ri" ] },
      { "delegate": "tz2FCNBrERXtaTtNX6iimR1UJ5JSDxvdHM93",
        "reception_time": "2022-01-15T20:03:58.006-00:00",
        "included_in_blocks":
          [ "BMGSns5NZfQTGa1D8s4BA2z2baggejQfWSWks7sdZNHzgHXc2Ri" ] },
      { "delegate": "tz1UMCB2AHSTwG7YcGNr31CqYCtGN873royv",
        "reception_time": "2022-01-15T20:03:58.431-00:00",
        "included_in_blocks":
          [ "BMGSns5NZfQTGa1D8s4BA2z2baggejQfWSWks7sdZNHzgHXc2Ri" ] },
      { "delegate": "tz3UoffC7FG7zfpmvmjUmUeAaHvzdcUvAj6r",
        "reception_time": "2022-01-15T20:03:58.640-00:00",
        "included_in_blocks":
          [ "BMGSns5NZfQTGa1D8s4BA2z2baggejQfWSWks7sdZNHzgHXc2Ri" ] },
      { "delegate": "tz1WBfwbT66FC6BTLexc2BoyCCBM9LG7pnVW",
        "reception_time": "2022-01-15T20:03:58.205-00:00",
        "included_in_blocks":
          [ "BMGSns5NZfQTGa1D8s4BA2z2baggejQfWSWks7sdZNHzgHXc2Ri" ] },
      { "delegate": "tz1fwnfJNgiDACshK9avfRfFbMaXrs3ghoJa",
        "reception_time": "2022-01-15T20:03:58.173-00:00",
        "included_in_blocks":
          [ "BMGSns5NZfQTGa1D8s4BA2z2baggejQfWSWks7sdZNHzgHXc2Ri" ] },
      { "delegate": "tz3WMqdzXqRWXwyvj5Hp2H7QEepaUuS7vd9K",
        "reception_time": "2022-01-15T20:03:58.685-00:00",
        "included_in_blocks":
          [ "BMGSns5NZfQTGa1D8s4BA2z2baggejQfWSWks7sdZNHzgHXc2Ri" ] },
      { "delegate": "tz1TRqbYbUf2GyrjErf3hBzgBJPzW8y36qEs",
        "reception_time": "2022-01-15T20:03:58.049-00:00",
        "included_in_blocks":
          [ "BMGSns5NZfQTGa1D8s4BA2z2baggejQfWSWks7sdZNHzgHXc2Ri" ] },
      { "delegate": "tz3RB4aoyjov4KEVRbuhvQ1CKJgBJMWhaeB8",
        "reception_time": "2022-01-15T20:03:57.925-00:00",
        "included_in_blocks":
          [ "BMGSns5NZfQTGa1D8s4BA2z2baggejQfWSWks7sdZNHzgHXc2Ri" ] },
      { "delegate": "tz1fUyqYH7H4pRHN1roWY17giXhy1RvxjgUV",
        "reception_time": "2022-01-15T20:03:57.883-00:00",
        "included_in_blocks":
          [ "BMGSns5NZfQTGa1D8s4BA2z2baggejQfWSWks7sdZNHzgHXc2Ri" ] },
      { "delegate": "tz3RDC3Jdn4j15J7bBHZd29EUee9gVB1CxD9",
        "reception_time": "2022-01-15T20:03:57.881-00:00",
        "included_in_blocks":
          [ "BMGSns5NZfQTGa1D8s4BA2z2baggejQfWSWks7sdZNHzgHXc2Ri" ] },
      { "delegate": "tz1c8JTzmA6c7cm6ZmUwR7WES6akdiMa1kwt",
        "reception_time": "2022-01-15T20:03:57.901-00:00",
        "included_in_blocks":
          [ "BMGSns5NZfQTGa1D8s4BA2z2baggejQfWSWks7sdZNHzgHXc2Ri" ] },
      { "delegate": "tz3bTdwZinP8U1JmSweNzVKhmwafqWmFWRfk",
        "reception_time": "2022-01-15T20:03:57.936-00:00",
        "included_in_blocks":
          [ "BMGSns5NZfQTGa1D8s4BA2z2baggejQfWSWks7sdZNHzgHXc2Ri" ] },
      { "delegate": "tz1KfEsrtDaA1sX7vdM4qmEPWuSytuqCDp5j",
        "reception_time": "2022-01-15T20:03:58.042-00:00",
        "included_in_blocks":
          [ "BMGSns5NZfQTGa1D8s4BA2z2baggejQfWSWks7sdZNHzgHXc2Ri" ] },
      { "delegate": "tz1abmz7jiCV2GH2u81LRrGgAFFgvQgiDiaf",
        "reception_time": "2022-01-15T20:03:57.944-00:00",
        "included_in_blocks":
          [ "BMGSns5NZfQTGa1D8s4BA2z2baggejQfWSWks7sdZNHzgHXc2Ri" ] },
      { "delegate": "tz1dwu9aYb7CRNq4Y2zAjipdjFuSVKhHS8vA",
        "reception_time": "2022-01-15T20:03:57.803-00:00",
        "included_in_blocks":
          [ "BMGSns5NZfQTGa1D8s4BA2z2baggejQfWSWks7sdZNHzgHXc2Ri" ] },
      { "delegate": "tz1RjoHc98dBoqaH2jawF62XNKh7YsHwbkEv",
        "reception_time": "2022-01-15T20:03:58.100-00:00",
        "included_in_blocks":
          [ "BMGSns5NZfQTGa1D8s4BA2z2baggejQfWSWks7sdZNHzgHXc2Ri" ] },
      { "delegate": "tz1gfArv665EUkSg2ojMBzcbfwuPxAvqPvjo",
        "reception_time": "2022-01-15T20:03:57.955-00:00",
        "included_in_blocks":
          [ "BMGSns5NZfQTGa1D8s4BA2z2baggejQfWSWks7sdZNHzgHXc2Ri" ] },
      { "delegate": "tz1Tnjaxk6tbAeC2TmMApPh8UsrEVQvhHvx5",
        "reception_time": "2022-01-15T20:03:57.989-00:00",
        "included_in_blocks":
          [ "BMGSns5NZfQTGa1D8s4BA2z2baggejQfWSWks7sdZNHzgHXc2Ri" ] },
      { "delegate": "tz3bvNMQ95vfAYtG8193ymshqjSvmxiCUuR5",
        "reception_time": "2022-01-15T20:03:57.843-00:00",
        "included_in_blocks":
          [ "BMGSns5NZfQTGa1D8s4BA2z2baggejQfWSWks7sdZNHzgHXc2Ri" ] },
      { "delegate": "tz1ajgycuHmd2z2JbTSJxKv7x6cok2KuNSk1",
        "reception_time": "2022-01-15T20:03:57.746-00:00",
        "included_in_blocks":
          [ "BMGSns5NZfQTGa1D8s4BA2z2baggejQfWSWks7sdZNHzgHXc2Ri" ] },
      { "delegate": "tz1ei4WtWEMEJekSv8qDnu9PExG6Q8HgRGr3",
        "reception_time": "2022-01-15T20:03:57.819-00:00",
        "included_in_blocks":
          [ "BMGSns5NZfQTGa1D8s4BA2z2baggejQfWSWks7sdZNHzgHXc2Ri" ] },
      { "delegate": "tz1TEc75UKXv4W5cwi14Na3NtqFD51yKQi7h",
        "reception_time": "2022-01-15T20:03:57.936-00:00",
        "included_in_blocks":
          [ "BMGSns5NZfQTGa1D8s4BA2z2baggejQfWSWks7sdZNHzgHXc2Ri" ] },
      { "delegate": "tz1aqcYgG6NuViML5vdWhohHJBYxcDVLNUsE",
        "reception_time": "2022-01-15T20:03:57.608-00:00",
        "included_in_blocks":
          [ "BMGSns5NZfQTGa1D8s4BA2z2baggejQfWSWks7sdZNHzgHXc2Ri" ] },
      { "delegate": "tz3QT9dHYKDqh563chVa6za8526ys1UKfRfL",
        "reception_time": "2022-01-15T20:03:57.682-00:00",
        "included_in_blocks":
          [ "BMGSns5NZfQTGa1D8s4BA2z2baggejQfWSWks7sdZNHzgHXc2Ri" ] },
      { "delegate": "tz3S6BBeKgJGXxvLyZ1xzXzMPn11nnFtq5L9",
        "reception_time": "2022-01-15T20:03:57.702-00:00",
        "included_in_blocks":
          [ "BMGSns5NZfQTGa1D8s4BA2z2baggejQfWSWks7sdZNHzgHXc2Ri" ] },
      { "delegate": "tz1RCFbB9GpALpsZtu6J58sb74dm8qe6XBzv",
        "reception_time": "2022-01-15T20:03:57.829-00:00",
        "included_in_blocks":
          [ "BMGSns5NZfQTGa1D8s4BA2z2baggejQfWSWks7sdZNHzgHXc2Ri" ] },
      { "delegate": "tz3iJu5vrKZcsqRPs8yJ61UDoeEXZmtro4qh",
        "reception_time": "2022-01-15T20:03:57.608-00:00",
        "included_in_blocks":
          [ "BMGSns5NZfQTGa1D8s4BA2z2baggejQfWSWks7sdZNHzgHXc2Ri" ] },
      { "delegate": "tz3Zhs2dygr55yHyQyKjntAtY9bgfhLZ4Xj1",
        "reception_time": "2022-01-15T20:03:57.608-00:00",
        "included_in_blocks":
          [ "BMGSns5NZfQTGa1D8s4BA2z2baggejQfWSWks7sdZNHzgHXc2Ri" ] },
      { "delegate": "tz1PWCDnz783NNGGQjEFFsHtrcK5yBW4E2rm",
        "reception_time": "2022-01-15T20:03:57.813-00:00",
        "included_in_blocks":
          [ "BMGSns5NZfQTGa1D8s4BA2z2baggejQfWSWks7sdZNHzgHXc2Ri" ] },
      { "delegate": "tz3hw2kqXhLUvY65ca1eety2oQTpAvd34R9Q",
        "reception_time": "2022-01-15T20:03:57.691-00:00",
        "included_in_blocks":
          [ "BMGSns5NZfQTGa1D8s4BA2z2baggejQfWSWks7sdZNHzgHXc2Ri" ] },
      { "delegate": "tz3ZbP2pM3nwvXztbuMJwJnDvV5xdpU8UkkD",
        "reception_time": "2022-01-15T20:03:57.608-00:00",
        "included_in_blocks":
          [ "BMGSns5NZfQTGa1D8s4BA2z2baggejQfWSWks7sdZNHzgHXc2Ri" ] },
      { "delegate": "tz1WCd2jm4uSt4vntk4vSuUWoZQGhLcDuR9q",
        "reception_time": "2022-01-15T20:03:57.608-00:00",
        "included_in_blocks":
          [ "BMGSns5NZfQTGa1D8s4BA2z2baggejQfWSWks7sdZNHzgHXc2Ri" ] },
      { "delegate": "tz3NxTnke1acr8o3h5y9ytf5awQBGNJUKzVU",
        "reception_time": "2022-01-15T20:03:57.608-00:00",
        "included_in_blocks":
          [ "BMGSns5NZfQTGa1D8s4BA2z2baggejQfWSWks7sdZNHzgHXc2Ri" ] },
      { "delegate": "tz3RKYFsLuQzKBtmYuLNas7uMu3AsYd4QdsA",
        "reception_time": "2022-01-15T20:03:57.608-00:00",
        "included_in_blocks":
          [ "BMGSns5NZfQTGa1D8s4BA2z2baggejQfWSWks7sdZNHzgHXc2Ri" ] },
      { "delegate": "tz1Ldzz6k1BHdhuKvAtMRX7h5kJSMHESMHLC",
        "reception_time": "2022-01-15T20:03:57.608-00:00",
        "included_in_blocks":
          [ "BMGSns5NZfQTGa1D8s4BA2z2baggejQfWSWks7sdZNHzgHXc2Ri" ] },
      { "delegate": "tz3gtoUxdudfBRcNY7iVdKPHCYYX6xdPpoRS",
        "reception_time": "2022-01-15T20:03:57.608-00:00",
        "included_in_blocks":
          [ "BMGSns5NZfQTGa1D8s4BA2z2baggejQfWSWks7sdZNHzgHXc2Ri" ] },
      { "delegate": "tz1MQJPGNMijnXnVoBENFz9rUhaPt3S7rWoz",
        "reception_time": "2022-01-15T20:03:57.767-00:00",
        "included_in_blocks":
          [ "BMGSns5NZfQTGa1D8s4BA2z2baggejQfWSWks7sdZNHzgHXc2Ri" ] },
      { "delegate": "tz1TzaNn7wSQSP5gYPXCnNzBCpyMiidCq1PX",
        "reception_time": "2022-01-15T20:03:57.608-00:00",
        "included_in_blocks":
          [ "BMGSns5NZfQTGa1D8s4BA2z2baggejQfWSWks7sdZNHzgHXc2Ri" ] },
      { "delegate": "tz1VmiY38m3y95HqQLjMwqnMS7sdMfGomzKi",
        "reception_time": "2022-01-15T20:03:57.707-00:00",
        "included_in_blocks":
          [ "BMGSns5NZfQTGa1D8s4BA2z2baggejQfWSWks7sdZNHzgHXc2Ri" ] },
      { "delegate": "tz3QSGPoRp3Kn7n3vY24eYeu3Peuqo45LQ4D",
        "reception_time": "2022-01-15T20:03:57.608-00:00",
        "included_in_blocks":
          [ "BMGSns5NZfQTGa1D8s4BA2z2baggejQfWSWks7sdZNHzgHXc2Ri" ] },
      { "delegate": "tz3adcvQaKXTCg12zbninqo3q8ptKKtDFTLv",
        "reception_time": "2022-01-15T20:03:57.608-00:00",
        "included_in_blocks":
          [ "BMGSns5NZfQTGa1D8s4BA2z2baggejQfWSWks7sdZNHzgHXc2Ri" ] },
      { "delegate": "tz1YhNsiRRU8aHNGg7NK3uuP6UDAyacJernB",
        "reception_time": "2022-01-15T20:03:57.608-00:00",
        "included_in_blocks":
          [ "BMGSns5NZfQTGa1D8s4BA2z2baggejQfWSWks7sdZNHzgHXc2Ri" ] },
      { "delegate": "tz1S8MNvuFEUsWgjHvi3AxibRBf388NhT1q2",
        "reception_time": "2022-01-15T20:03:57.764-00:00",
        "included_in_blocks":
          [ "BMGSns5NZfQTGa1D8s4BA2z2baggejQfWSWks7sdZNHzgHXc2Ri" ] } ] }