{ "blocks":
    [ { "hash": "BLP3NGGohm5prnwgFUeGMRL5ZQTCSaMM8mwHCnxS4owTduPhVdE",
        "delegate": "tz1KfEsrtDaA1sX7vdM4qmEPWuSytuqCDp5j",
        "reception_time": "2022-01-15T20:16:26.749-00:00",
        "timestamp": "2022-01-15T20:16:20Z" } ],
  "endorsements":
    [ { "delegate": "tz1Scdr2HsZiQjc7bHMeBbmDRXYVvdhjJbBh",
        "reception_time": "2022-01-15T20:16:26.715-00:00",
        "errors":
          [ { "kind": "temporary",
              "id": "proto.011-PtHangz2.prefilter.outdated_endorsement" } ],
        "included_in_blocks":
          [ "BMZub4ySJTRoudrkNyFrf5XXnKccv67rQ8tUdCy9Dc8ms5X783X" ] },
      { "delegate": "tz1S8e9GgdZG78XJRB3NqabfWeM37GnhZMWQ",
        "reception_time": "2022-01-15T20:16:26.567-00:00",
        "errors":
          [ { "kind": "temporary",
              "id": "proto.011-PtHangz2.prefilter.outdated_endorsement" } ],
        "included_in_blocks":
          [ "BMZub4ySJTRoudrkNyFrf5XXnKccv67rQ8tUdCy9Dc8ms5X783X" ] },
      { "delegate": "tz1TRspM5SeZpaQUhzByXbEvqKF1vnCM2YTK" },
      { "delegate": "tz1Vyuu4EJ5Nym4JcrfRLnp3hpaq1DSEp1Ke" },
      { "delegate": "tz1MXFrtZoaXckE41bjUCSjAjAap3AFDSr3N",
        "reception_time": "2022-01-15T20:16:28.206-00:00",
        "included_in_blocks":
          [ "BMZub4ySJTRoudrkNyFrf5XXnKccv67rQ8tUdCy9Dc8ms5X783X" ] },
      { "delegate": "tz1iZEKy4LaAjnTmn2RuGDf2iqdAQKnRi8kY",
        "reception_time": "2022-01-15T20:16:28.837-00:00",
        "included_in_blocks":
          [ "BMZub4ySJTRoudrkNyFrf5XXnKccv67rQ8tUdCy9Dc8ms5X783X" ] },
      { "delegate": "tz1eEnQhbwf6trb8Q8mPb2RaPkNk2rN7BKi8",
        "reception_time": "2022-01-15T20:16:28.837-00:00",
        "included_in_blocks":
          [ "BMZub4ySJTRoudrkNyFrf5XXnKccv67rQ8tUdCy9Dc8ms5X783X" ] },
      { "delegate": "tz1MJx9vhaNRSimcuXPK2rW4fLccQnDAnVKJ",
        "reception_time": "2022-01-15T20:16:28.849-00:00",
        "included_in_blocks":
          [ "BMZub4ySJTRoudrkNyFrf5XXnKccv67rQ8tUdCy9Dc8ms5X783X" ] },
      { "delegate": "tz1P2Po7YM526ughEsRbY4oR9zaUPDZjxFrb",
        "reception_time": "2022-01-15T20:16:28.852-00:00",
        "included_in_blocks":
          [ "BMZub4ySJTRoudrkNyFrf5XXnKccv67rQ8tUdCy9Dc8ms5X783X" ] },
      { "delegate": "tz3ZbP2pM3nwvXztbuMJwJnDvV5xdpU8UkkD",
        "reception_time": "2022-01-15T20:16:28.860-00:00",
        "included_in_blocks":
          [ "BMZub4ySJTRoudrkNyFrf5XXnKccv67rQ8tUdCy9Dc8ms5X783X" ] },
      { "delegate": "tz1STeamwbp68THcny9zk3LsbG3H36DMvbRK",
        "reception_time": "2022-01-15T20:16:28.865-00:00",
        "included_in_blocks":
          [ "BMZub4ySJTRoudrkNyFrf5XXnKccv67rQ8tUdCy9Dc8ms5X783X" ] },
      { "delegate": "tz3NxTnke1acr8o3h5y9ytf5awQBGNJUKzVU",
        "reception_time": "2022-01-15T20:16:28.880-00:00",
        "included_in_blocks":
          [ "BMZub4ySJTRoudrkNyFrf5XXnKccv67rQ8tUdCy9Dc8ms5X783X" ] },
      { "delegate": "tz1VmiY38m3y95HqQLjMwqnMS7sdMfGomzKi",
        "reception_time": "2022-01-15T20:16:28.884-00:00",
        "included_in_blocks":
          [ "BMZub4ySJTRoudrkNyFrf5XXnKccv67rQ8tUdCy9Dc8ms5X783X" ] },
      { "delegate": "tz3adcvQaKXTCg12zbninqo3q8ptKKtDFTLv",
        "reception_time": "2022-01-15T20:16:28.891-00:00",
        "included_in_blocks":
          [ "BMZub4ySJTRoudrkNyFrf5XXnKccv67rQ8tUdCy9Dc8ms5X783X" ] },
      { "delegate": "tz1S8MNvuFEUsWgjHvi3AxibRBf388NhT1q2",
        "reception_time": "2022-01-15T20:16:28.895-00:00",
        "included_in_blocks":
          [ "BMZub4ySJTRoudrkNyFrf5XXnKccv67rQ8tUdCy9Dc8ms5X783X" ] },
      { "delegate": "tz1bsdrs36X5BTH83RHUBdUouKLJZK8d2oBa",
        "reception_time": "2022-01-15T20:16:28.906-00:00",
        "included_in_blocks":
          [ "BMZub4ySJTRoudrkNyFrf5XXnKccv67rQ8tUdCy9Dc8ms5X783X" ] },
      { "delegate": "tz3hw2kqXhLUvY65ca1eety2oQTpAvd34R9Q",
        "reception_time": "2022-01-15T20:16:28.906-00:00",
        "included_in_blocks":
          [ "BMZub4ySJTRoudrkNyFrf5XXnKccv67rQ8tUdCy9Dc8ms5X783X" ] },
      { "delegate": "tz1RCFbB9GpALpsZtu6J58sb74dm8qe6XBzv",
        "reception_time": "2022-01-15T20:16:28.934-00:00",
        "included_in_blocks":
          [ "BMZub4ySJTRoudrkNyFrf5XXnKccv67rQ8tUdCy9Dc8ms5X783X" ] },
      { "delegate": "tz1irJKkXS2DBWkU1NnmFQx1c1L7pbGg4yhk",
        "reception_time": "2022-01-15T20:16:28.938-00:00",
        "included_in_blocks":
          [ "BMZub4ySJTRoudrkNyFrf5XXnKccv67rQ8tUdCy9Dc8ms5X783X" ] },
      { "delegate": "tz1Ldzz6k1BHdhuKvAtMRX7h5kJSMHESMHLC",
        "reception_time": "2022-01-15T20:16:28.949-00:00",
        "included_in_blocks":
          [ "BMZub4ySJTRoudrkNyFrf5XXnKccv67rQ8tUdCy9Dc8ms5X783X" ] },
      { "delegate": "tz1MQMiZHV8q4tTwUMWmS5Y3kaP6J2136iXr",
        "reception_time": "2022-01-15T20:16:28.958-00:00",
        "included_in_blocks":
          [ "BMZub4ySJTRoudrkNyFrf5XXnKccv67rQ8tUdCy9Dc8ms5X783X" ] },
      { "delegate": "tz1PWCDnz783NNGGQjEFFsHtrcK5yBW4E2rm",
        "reception_time": "2022-01-15T20:16:28.971-00:00",
        "included_in_blocks":
          [ "BMZub4ySJTRoudrkNyFrf5XXnKccv67rQ8tUdCy9Dc8ms5X783X" ] },
      { "delegate": "tz3RKYFsLuQzKBtmYuLNas7uMu3AsYd4QdsA",
        "reception_time": "2022-01-15T20:16:28.983-00:00",
        "included_in_blocks":
          [ "BMZub4ySJTRoudrkNyFrf5XXnKccv67rQ8tUdCy9Dc8ms5X783X" ] },
      { "delegate": "tz1abmz7jiCV2GH2u81LRrGgAFFgvQgiDiaf",
        "reception_time": "2022-01-15T20:16:28.994-00:00",
        "included_in_blocks":
          [ "BMZub4ySJTRoudrkNyFrf5XXnKccv67rQ8tUdCy9Dc8ms5X783X" ] },
      { "delegate": "tz1WCd2jm4uSt4vntk4vSuUWoZQGhLcDuR9q",
        "reception_time": "2022-01-15T20:16:29.000-00:00",
        "included_in_blocks":
          [ "BMZub4ySJTRoudrkNyFrf5XXnKccv67rQ8tUdCy9Dc8ms5X783X" ] },
      { "delegate": "tz3Zhs2dygr55yHyQyKjntAtY9bgfhLZ4Xj1",
        "reception_time": "2022-01-15T20:16:29.006-00:00",
        "included_in_blocks":
          [ "BMZub4ySJTRoudrkNyFrf5XXnKccv67rQ8tUdCy9Dc8ms5X783X" ] },
      { "delegate": "tz3S6BBeKgJGXxvLyZ1xzXzMPn11nnFtq5L9",
        "reception_time": "2022-01-15T20:16:29.014-00:00",
        "included_in_blocks":
          [ "BMZub4ySJTRoudrkNyFrf5XXnKccv67rQ8tUdCy9Dc8ms5X783X" ] },
      { "delegate": "tz3QT9dHYKDqh563chVa6za8526ys1UKfRfL",
        "reception_time": "2022-01-15T20:16:29.047-00:00",
        "included_in_blocks":
          [ "BMZub4ySJTRoudrkNyFrf5XXnKccv67rQ8tUdCy9Dc8ms5X783X" ] },
      { "delegate": "tz3gtoUxdudfBRcNY7iVdKPHCYYX6xdPpoRS",
        "reception_time": "2022-01-15T20:16:29.082-00:00",
        "included_in_blocks":
          [ "BMZub4ySJTRoudrkNyFrf5XXnKccv67rQ8tUdCy9Dc8ms5X783X" ] },
      { "delegate": "tz3iJu5vrKZcsqRPs8yJ61UDoeEXZmtro4qh",
        "reception_time": "2022-01-15T20:16:29.091-00:00",
        "included_in_blocks":
          [ "BMZub4ySJTRoudrkNyFrf5XXnKccv67rQ8tUdCy9Dc8ms5X783X" ] },
      { "delegate": "tz1d6Fx42mYgVFnHUW8T8A7WBfJ6nD9pVok8",
        "reception_time": "2022-01-15T20:16:29.099-00:00",
        "included_in_blocks":
          [ "BMZub4ySJTRoudrkNyFrf5XXnKccv67rQ8tUdCy9Dc8ms5X783X" ] },
      { "delegate": "tz1VQnqCCqX4K5sP3FNkVSNKTdCAMJDd3E1n",
        "reception_time": "2022-01-15T20:16:29.133-00:00",
        "included_in_blocks":
          [ "BMZub4ySJTRoudrkNyFrf5XXnKccv67rQ8tUdCy9Dc8ms5X783X" ] },
      { "delegate": "tz1gUNyn3hmnEWqkusWPzxRaon1cs7ndWh7h",
        "reception_time": "2022-01-15T20:16:29.138-00:00",
        "included_in_blocks":
          [ "BMZub4ySJTRoudrkNyFrf5XXnKccv67rQ8tUdCy9Dc8ms5X783X" ] },
      { "delegate": "tz1KfEsrtDaA1sX7vdM4qmEPWuSytuqCDp5j",
        "reception_time": "2022-01-15T20:16:29.145-00:00",
        "included_in_blocks":
          [ "BMZub4ySJTRoudrkNyFrf5XXnKccv67rQ8tUdCy9Dc8ms5X783X" ] },
      { "delegate": "tz1SpU2P8EBQTAjxkdiTz3JAzZBj32w9Sb2Q",
        "reception_time": "2022-01-15T20:16:29.162-00:00",
        "included_in_blocks":
          [ "BMZub4ySJTRoudrkNyFrf5XXnKccv67rQ8tUdCy9Dc8ms5X783X" ] },
      { "delegate": "tz3UoffC7FG7zfpmvmjUmUeAaHvzdcUvAj6r",
        "reception_time": "2022-01-15T20:16:29.170-00:00",
        "included_in_blocks":
          [ "BMZub4ySJTRoudrkNyFrf5XXnKccv67rQ8tUdCy9Dc8ms5X783X" ] },
      { "delegate": "tz3bTdwZinP8U1JmSweNzVKhmwafqWmFWRfk",
        "reception_time": "2022-01-15T20:16:29.192-00:00",
        "included_in_blocks":
          [ "BMZub4ySJTRoudrkNyFrf5XXnKccv67rQ8tUdCy9Dc8ms5X783X" ] },
      { "delegate": "tz1RjoHc98dBoqaH2jawF62XNKh7YsHwbkEv",
        "reception_time": "2022-01-15T20:16:29.206-00:00",
        "included_in_blocks":
          [ "BMZub4ySJTRoudrkNyFrf5XXnKccv67rQ8tUdCy9Dc8ms5X783X" ] },
      { "delegate": "tz1ei4WtWEMEJekSv8qDnu9PExG6Q8HgRGr3",
        "reception_time": "2022-01-15T20:16:29.214-00:00",
        "included_in_blocks":
          [ "BMZub4ySJTRoudrkNyFrf5XXnKccv67rQ8tUdCy9Dc8ms5X783X" ] },
      { "delegate": "tz1NEKxGEHsFufk87CVZcrqWu8o22qh46GK6",
        "reception_time": "2022-01-15T20:16:29.220-00:00",
        "included_in_blocks":
          [ "BMZub4ySJTRoudrkNyFrf5XXnKccv67rQ8tUdCy9Dc8ms5X783X" ] },
      { "delegate": "tz1fb7c66UwePkkfDXz4ajFaBP9hVNLdS7JJ",
        "reception_time": "2022-01-15T20:16:29.234-00:00",
        "included_in_blocks":
          [ "BMZub4ySJTRoudrkNyFrf5XXnKccv67rQ8tUdCy9Dc8ms5X783X" ] },
      { "delegate": "tz1V4qCyvPKZ5UeqdH14HN42rxvNPQfc9UZg",
        "reception_time": "2022-01-15T20:16:29.234-00:00",
        "included_in_blocks":
          [ "BMZub4ySJTRoudrkNyFrf5XXnKccv67rQ8tUdCy9Dc8ms5X783X" ] },
      { "delegate": "tz3WMqdzXqRWXwyvj5Hp2H7QEepaUuS7vd9K",
        "reception_time": "2022-01-15T20:16:29.242-00:00",
        "included_in_blocks":
          [ "BMZub4ySJTRoudrkNyFrf5XXnKccv67rQ8tUdCy9Dc8ms5X783X" ] },
      { "delegate": "tz1MQJPGNMijnXnVoBENFz9rUhaPt3S7rWoz",
        "reception_time": "2022-01-15T20:16:29.247-00:00",
        "included_in_blocks":
          [ "BMZub4ySJTRoudrkNyFrf5XXnKccv67rQ8tUdCy9Dc8ms5X783X" ] },
      { "delegate": "tz1gfArv665EUkSg2ojMBzcbfwuPxAvqPvjo",
        "reception_time": "2022-01-15T20:16:29.255-00:00",
        "included_in_blocks":
          [ "BMZub4ySJTRoudrkNyFrf5XXnKccv67rQ8tUdCy9Dc8ms5X783X" ] },
      { "delegate": "tz1Tnjaxk6tbAeC2TmMApPh8UsrEVQvhHvx5",
        "reception_time": "2022-01-15T20:16:29.282-00:00",
        "included_in_blocks":
          [ "BMZub4ySJTRoudrkNyFrf5XXnKccv67rQ8tUdCy9Dc8ms5X783X" ] },
      { "delegate": "tz1cZfFQpcYhwDp7y1njZXDsZqCrn2NqmVof",
        "reception_time": "2022-01-15T20:16:29.291-00:00",
        "included_in_blocks":
          [ "BMZub4ySJTRoudrkNyFrf5XXnKccv67rQ8tUdCy9Dc8ms5X783X" ] },
      { "delegate": "tz1WBfwbT66FC6BTLexc2BoyCCBM9LG7pnVW",
        "reception_time": "2022-01-15T20:16:29.309-00:00",
        "included_in_blocks":
          [ "BMZub4ySJTRoudrkNyFrf5XXnKccv67rQ8tUdCy9Dc8ms5X783X" ] },
      { "delegate": "tz1dwu9aYb7CRNq4Y2zAjipdjFuSVKhHS8vA",
        "reception_time": "2022-01-15T20:16:29.314-00:00",
        "included_in_blocks":
          [ "BMZub4ySJTRoudrkNyFrf5XXnKccv67rQ8tUdCy9Dc8ms5X783X" ] },
      { "delegate": "tz3VEZ4k6a4Wx42iyev6i2aVAptTRLEAivNN",
        "reception_time": "2022-01-15T20:16:29.322-00:00",
        "included_in_blocks":
          [ "BMZub4ySJTRoudrkNyFrf5XXnKccv67rQ8tUdCy9Dc8ms5X783X" ] },
      { "delegate": "tz1TRqbYbUf2GyrjErf3hBzgBJPzW8y36qEs",
        "reception_time": "2022-01-15T20:16:29.326-00:00",
        "included_in_blocks":
          [ "BMZub4ySJTRoudrkNyFrf5XXnKccv67rQ8tUdCy9Dc8ms5X783X" ] },
      { "delegate": "tz2FCNBrERXtaTtNX6iimR1UJ5JSDxvdHM93",
        "reception_time": "2022-01-15T20:16:29.351-00:00",
        "included_in_blocks":
          [ "BMZub4ySJTRoudrkNyFrf5XXnKccv67rQ8tUdCy9Dc8ms5X783X" ] },
      { "delegate": "tz3bvNMQ95vfAYtG8193ymshqjSvmxiCUuR5",
        "reception_time": "2022-01-15T20:16:29.369-00:00",
        "included_in_blocks":
          [ "BMZub4ySJTRoudrkNyFrf5XXnKccv67rQ8tUdCy9Dc8ms5X783X" ] },
      { "delegate": "tz1LmaFsWRkjr7QMCx5PtV6xTUz3AmEpKQiF",
        "reception_time": "2022-01-15T20:16:29.391-00:00",
        "included_in_blocks":
          [ "BMZub4ySJTRoudrkNyFrf5XXnKccv67rQ8tUdCy9Dc8ms5X783X" ] },
      { "delegate": "tz1Nf6tsK4G6bBqgSQERy4nUtkHNKUVdh7q1",
        "reception_time": "2022-01-15T20:16:29.423-00:00",
        "included_in_blocks":
          [ "BMZub4ySJTRoudrkNyFrf5XXnKccv67rQ8tUdCy9Dc8ms5X783X" ] },
      { "delegate": "tz1fwnfJNgiDACshK9avfRfFbMaXrs3ghoJa",
        "reception_time": "2022-01-15T20:16:29.437-00:00",
        "included_in_blocks":
          [ "BMZub4ySJTRoudrkNyFrf5XXnKccv67rQ8tUdCy9Dc8ms5X783X" ] },
      { "delegate": "tz3NDpRj6WBrJPikcPVHRBEjWKxFw3c6eQPS",
        "reception_time": "2022-01-15T20:16:29.477-00:00",
        "included_in_blocks":
          [ "BMZub4ySJTRoudrkNyFrf5XXnKccv67rQ8tUdCy9Dc8ms5X783X" ] },
      { "delegate": "tz3NExpXn9aPNZPorRE4SdjJ2RGrfbJgMAaV",
        "reception_time": "2022-01-15T20:16:29.720-00:00",
        "included_in_blocks":
          [ "BMZub4ySJTRoudrkNyFrf5XXnKccv67rQ8tUdCy9Dc8ms5X783X" ] },
      { "delegate": "tz1awXW7wuXy21c66vBudMXQVAPgRnqqwgTH",
        "reception_time": "2022-01-15T20:16:29.854-00:00",
        "included_in_blocks":
          [ "BMZub4ySJTRoudrkNyFrf5XXnKccv67rQ8tUdCy9Dc8ms5X783X" ] },
      { "delegate": "tz1SUgyRB8T5jXgXAwS33pgRHAKrafyg87Yc",
        "reception_time": "2022-01-15T20:16:29.880-00:00",
        "included_in_blocks":
          [ "BMZub4ySJTRoudrkNyFrf5XXnKccv67rQ8tUdCy9Dc8ms5X783X" ] },
      { "delegate": "tz1T7duV5gZWSTq4YpBGbXNLTfznCLDrFxvs",
        "reception_time": "2022-01-15T20:16:29.912-00:00",
        "included_in_blocks":
          [ "BMZub4ySJTRoudrkNyFrf5XXnKccv67rQ8tUdCy9Dc8ms5X783X" ] },
      { "delegate": "tz1NoYvKjXTzTk54VpLxBfouJ33J8jwKPPvw",
        "reception_time": "2022-01-15T20:16:29.973-00:00",
        "included_in_blocks":
          [ "BMZub4ySJTRoudrkNyFrf5XXnKccv67rQ8tUdCy9Dc8ms5X783X" ] },
      { "delegate": "tz3RB4aoyjov4KEVRbuhvQ1CKJgBJMWhaeB8",
        "reception_time": "2022-01-15T20:16:30.097-00:00",
        "included_in_blocks":
          [ "BMZub4ySJTRoudrkNyFrf5XXnKccv67rQ8tUdCy9Dc8ms5X783X" ] },
      { "delegate": "tz3RDC3Jdn4j15J7bBHZd29EUee9gVB1CxD9",
        "reception_time": "2022-01-15T20:16:30.118-00:00",
        "included_in_blocks":
          [ "BMZub4ySJTRoudrkNyFrf5XXnKccv67rQ8tUdCy9Dc8ms5X783X" ] },
      { "delegate": "tz1dNVDWPf3Q59SdJqnjdnu277iyvReiRS9M",
        "reception_time": "2022-01-15T20:16:30.131-00:00",
        "included_in_blocks":
          [ "BMZub4ySJTRoudrkNyFrf5XXnKccv67rQ8tUdCy9Dc8ms5X783X" ] },
      { "delegate": "tz1dRKU4FQ9QRRQPdaH4zCR6gmCmXfcvcgtB",
        "reception_time": "2022-01-15T20:16:30.149-00:00",
        "included_in_blocks":
          [ "BMZub4ySJTRoudrkNyFrf5XXnKccv67rQ8tUdCy9Dc8ms5X783X" ] },
      { "delegate": "tz1aRoaRhSpRYvFdyvgWLL6TGyRoGF51wDjM",
        "reception_time": "2022-01-15T20:16:31.127-00:00",
        "included_in_blocks":
          [ "BMZub4ySJTRoudrkNyFrf5XXnKccv67rQ8tUdCy9Dc8ms5X783X" ] },
      { "delegate": "tz1NpWrAyDL9k2Lmnyxcgr9xuJakbBxdq7FB",
        "reception_time": "2022-01-15T20:16:31.848-00:00",
        "included_in_blocks":
          [ "BMZub4ySJTRoudrkNyFrf5XXnKccv67rQ8tUdCy9Dc8ms5X783X" ] },
      { "delegate": "tz1W5VkdB5s7ENMESVBtwyt9kyvLqPcUczRT",
        "reception_time": "2022-01-15T20:16:32.468-00:00",
        "included_in_blocks":
          [ "BMZub4ySJTRoudrkNyFrf5XXnKccv67rQ8tUdCy9Dc8ms5X783X" ] } ] }