{ "blocks":
    [ { "hash": "BLQXgwr1n45cqqSSG2KNirpAMMWS3fozCeh4Wn7THGGv83vWzFA",
        "delegate": "tz1VQnqCCqX4K5sP3FNkVSNKTdCAMJDd3E1n",
        "reception_time": "2022-01-15T17:42:45.143-00:00",
        "timestamp": "2022-01-15T17:42:40Z" } ],
  "endorsements":
    [ { "delegate": "tz1MXFrtZoaXckE41bjUCSjAjAap3AFDSr3N",
        "reception_time": "2022-01-15T17:42:45.067-00:00",
        "errors":
          [ { "kind": "temporary",
              "id": "proto.011-PtHangz2.prefilter.outdated_endorsement" } ],
        "included_in_blocks":
          [ "BKiSQBKWxXV2TycXEGT2FGxhPVyfRc3FJznHgbJ5Gneq7krBgRJ" ] },
      { "delegate": "tz1STeamwbp68THcny9zk3LsbG3H36DMvbRK",
        "reception_time": "2022-01-15T17:42:45.029-00:00",
        "errors":
          [ { "kind": "temporary",
              "id": "proto.011-PtHangz2.prefilter.outdated_endorsement" } ],
        "included_in_blocks":
          [ "BKiSQBKWxXV2TycXEGT2FGxhPVyfRc3FJznHgbJ5Gneq7krBgRJ" ] },
      { "delegate": "tz1P2Po7YM526ughEsRbY4oR9zaUPDZjxFrb",
        "reception_time": "2022-01-15T17:42:44.918-00:00",
        "errors":
          [ { "kind": "temporary",
              "id": "proto.011-PtHangz2.prefilter.outdated_endorsement" } ],
        "included_in_blocks":
          [ "BKiSQBKWxXV2TycXEGT2FGxhPVyfRc3FJznHgbJ5Gneq7krBgRJ" ] },
      { "delegate": "tz1S8e9GgdZG78XJRB3NqabfWeM37GnhZMWQ",
        "reception_time": "2022-01-15T17:42:44.405-00:00",
        "errors":
          [ { "kind": "temporary",
              "id": "proto.011-PtHangz2.prefilter.outdated_endorsement" } ],
        "included_in_blocks":
          [ "BKiSQBKWxXV2TycXEGT2FGxhPVyfRc3FJznHgbJ5Gneq7krBgRJ" ] },
      { "delegate": "tz1TRspM5SeZpaQUhzByXbEvqKF1vnCM2YTK" },
      { "delegate": "tz1Kt4P8BCaP93AEV4eA7gmpRryWt5hznjCP",
        "reception_time": "2022-01-15T17:42:46.398-00:00",
        "included_in_blocks":
          [ "BKiSQBKWxXV2TycXEGT2FGxhPVyfRc3FJznHgbJ5Gneq7krBgRJ" ] },
      { "delegate": "tz1beersuEDv8Z7ngQ825xfbaJNS2EhXnyHR",
        "reception_time": "2022-01-15T17:42:46.435-00:00",
        "included_in_blocks":
          [ "BKiSQBKWxXV2TycXEGT2FGxhPVyfRc3FJznHgbJ5Gneq7krBgRJ" ] },
      { "delegate": "tz1VQnqCCqX4K5sP3FNkVSNKTdCAMJDd3E1n",
        "reception_time": "2022-01-15T17:42:46.448-00:00",
        "included_in_blocks":
          [ "BKiSQBKWxXV2TycXEGT2FGxhPVyfRc3FJznHgbJ5Gneq7krBgRJ" ] },
      { "delegate": "tz1irJKkXS2DBWkU1NnmFQx1c1L7pbGg4yhk",
        "reception_time": "2022-01-15T17:42:46.451-00:00",
        "included_in_blocks":
          [ "BKiSQBKWxXV2TycXEGT2FGxhPVyfRc3FJznHgbJ5Gneq7krBgRJ" ] },
      { "delegate": "tz1gUNyn3hmnEWqkusWPzxRaon1cs7ndWh7h",
        "reception_time": "2022-01-15T17:42:46.457-00:00",
        "included_in_blocks":
          [ "BKiSQBKWxXV2TycXEGT2FGxhPVyfRc3FJznHgbJ5Gneq7krBgRJ" ] },
      { "delegate": "tz1ZPh7XfUaJXUDvkrBxmS1BjEM1i62hiPpM",
        "reception_time": "2022-01-15T17:42:46.461-00:00",
        "included_in_blocks":
          [ "BKiSQBKWxXV2TycXEGT2FGxhPVyfRc3FJznHgbJ5Gneq7krBgRJ" ] },
      { "delegate": "tz3NxTnke1acr8o3h5y9ytf5awQBGNJUKzVU",
        "reception_time": "2022-01-15T17:42:46.469-00:00",
        "included_in_blocks":
          [ "BKiSQBKWxXV2TycXEGT2FGxhPVyfRc3FJznHgbJ5Gneq7krBgRJ" ] },
      { "delegate": "tz3ZbP2pM3nwvXztbuMJwJnDvV5xdpU8UkkD",
        "reception_time": "2022-01-15T17:42:46.477-00:00",
        "included_in_blocks":
          [ "BKiSQBKWxXV2TycXEGT2FGxhPVyfRc3FJznHgbJ5Gneq7krBgRJ" ] },
      { "delegate": "tz1MJx9vhaNRSimcuXPK2rW4fLccQnDAnVKJ",
        "reception_time": "2022-01-15T17:42:46.484-00:00",
        "included_in_blocks":
          [ "BKiSQBKWxXV2TycXEGT2FGxhPVyfRc3FJznHgbJ5Gneq7krBgRJ" ] },
      { "delegate": "tz1Ldzz6k1BHdhuKvAtMRX7h5kJSMHESMHLC",
        "reception_time": "2022-01-15T17:42:46.484-00:00",
        "included_in_blocks":
          [ "BKiSQBKWxXV2TycXEGT2FGxhPVyfRc3FJznHgbJ5Gneq7krBgRJ" ] },
      { "delegate": "tz3Zhs2dygr55yHyQyKjntAtY9bgfhLZ4Xj1",
        "reception_time": "2022-01-15T17:42:46.496-00:00",
        "included_in_blocks":
          [ "BKiSQBKWxXV2TycXEGT2FGxhPVyfRc3FJznHgbJ5Gneq7krBgRJ" ] },
      { "delegate": "tz3S6BBeKgJGXxvLyZ1xzXzMPn11nnFtq5L9",
        "reception_time": "2022-01-15T17:42:46.504-00:00",
        "included_in_blocks":
          [ "BKiSQBKWxXV2TycXEGT2FGxhPVyfRc3FJznHgbJ5Gneq7krBgRJ" ] },
      { "delegate": "tz3gtoUxdudfBRcNY7iVdKPHCYYX6xdPpoRS",
        "reception_time": "2022-01-15T17:42:46.513-00:00",
        "included_in_blocks":
          [ "BKiSQBKWxXV2TycXEGT2FGxhPVyfRc3FJznHgbJ5Gneq7krBgRJ" ] },
      { "delegate": "tz1WCd2jm4uSt4vntk4vSuUWoZQGhLcDuR9q",
        "reception_time": "2022-01-15T17:42:46.513-00:00",
        "included_in_blocks":
          [ "BKiSQBKWxXV2TycXEGT2FGxhPVyfRc3FJznHgbJ5Gneq7krBgRJ" ] },
      { "delegate": "tz3QSGPoRp3Kn7n3vY24eYeu3Peuqo45LQ4D",
        "reception_time": "2022-01-15T17:42:46.528-00:00",
        "included_in_blocks":
          [ "BKiSQBKWxXV2TycXEGT2FGxhPVyfRc3FJznHgbJ5Gneq7krBgRJ" ] },
      { "delegate": "tz3QT9dHYKDqh563chVa6za8526ys1UKfRfL",
        "reception_time": "2022-01-15T17:42:46.528-00:00",
        "included_in_blocks":
          [ "BKiSQBKWxXV2TycXEGT2FGxhPVyfRc3FJznHgbJ5Gneq7krBgRJ" ] },
      { "delegate": "tz3iJu5vrKZcsqRPs8yJ61UDoeEXZmtro4qh",
        "reception_time": "2022-01-15T17:42:46.538-00:00",
        "included_in_blocks":
          [ "BKiSQBKWxXV2TycXEGT2FGxhPVyfRc3FJznHgbJ5Gneq7krBgRJ" ] },
      { "delegate": "tz1TzaNn7wSQSP5gYPXCnNzBCpyMiidCq1PX",
        "reception_time": "2022-01-15T17:42:46.562-00:00",
        "included_in_blocks":
          [ "BKiSQBKWxXV2TycXEGT2FGxhPVyfRc3FJznHgbJ5Gneq7krBgRJ" ] },
      { "delegate": "tz3RKYFsLuQzKBtmYuLNas7uMu3AsYd4QdsA",
        "reception_time": "2022-01-15T17:42:46.569-00:00",
        "included_in_blocks":
          [ "BKiSQBKWxXV2TycXEGT2FGxhPVyfRc3FJznHgbJ5Gneq7krBgRJ" ] },
      { "delegate": "tz3hw2kqXhLUvY65ca1eety2oQTpAvd34R9Q",
        "reception_time": "2022-01-15T17:42:46.576-00:00",
        "included_in_blocks":
          [ "BKiSQBKWxXV2TycXEGT2FGxhPVyfRc3FJznHgbJ5Gneq7krBgRJ" ] },
      { "delegate": "tz1ei4WtWEMEJekSv8qDnu9PExG6Q8HgRGr3",
        "reception_time": "2022-01-15T17:42:46.593-00:00",
        "included_in_blocks":
          [ "BKiSQBKWxXV2TycXEGT2FGxhPVyfRc3FJznHgbJ5Gneq7krBgRJ" ] },
      { "delegate": "tz1VmiY38m3y95HqQLjMwqnMS7sdMfGomzKi",
        "reception_time": "2022-01-15T17:42:46.596-00:00",
        "included_in_blocks":
          [ "BKiSQBKWxXV2TycXEGT2FGxhPVyfRc3FJznHgbJ5Gneq7krBgRJ" ] },
      { "delegate": "tz1Kf25fX1VdmYGSEzwFy1wNmkbSEZ2V83sY",
        "reception_time": "2022-01-15T17:42:46.626-00:00",
        "included_in_blocks":
          [ "BKiSQBKWxXV2TycXEGT2FGxhPVyfRc3FJznHgbJ5Gneq7krBgRJ" ] },
      { "delegate": "tz1SYq214SCBy9naR6cvycQsYcUGpBqQAE8d",
        "reception_time": "2022-01-15T17:42:46.637-00:00",
        "included_in_blocks":
          [ "BKiSQBKWxXV2TycXEGT2FGxhPVyfRc3FJznHgbJ5Gneq7krBgRJ" ] },
      { "delegate": "tz1e1sBDrsy7bsH7sPFgVyXbe6k21rbERsPc",
        "reception_time": "2022-01-15T17:42:46.657-00:00",
        "included_in_blocks":
          [ "BKiSQBKWxXV2TycXEGT2FGxhPVyfRc3FJznHgbJ5Gneq7krBgRJ" ] },
      { "delegate": "tz1RCFbB9GpALpsZtu6J58sb74dm8qe6XBzv",
        "reception_time": "2022-01-15T17:42:46.696-00:00",
        "included_in_blocks":
          [ "BKiSQBKWxXV2TycXEGT2FGxhPVyfRc3FJznHgbJ5Gneq7krBgRJ" ] },
      { "delegate": "tz1gfArv665EUkSg2ojMBzcbfwuPxAvqPvjo",
        "reception_time": "2022-01-15T17:42:46.699-00:00",
        "included_in_blocks":
          [ "BKiSQBKWxXV2TycXEGT2FGxhPVyfRc3FJznHgbJ5Gneq7krBgRJ" ] },
      { "delegate": "tz1fPKAtsYydh4f1wfWNfeNxWYu72TmM48fu",
        "reception_time": "2022-01-15T17:42:46.741-00:00",
        "included_in_blocks":
          [ "BKiSQBKWxXV2TycXEGT2FGxhPVyfRc3FJznHgbJ5Gneq7krBgRJ" ] },
      { "delegate": "tz1S8MNvuFEUsWgjHvi3AxibRBf388NhT1q2",
        "reception_time": "2022-01-15T17:42:46.781-00:00",
        "included_in_blocks":
          [ "BKiSQBKWxXV2TycXEGT2FGxhPVyfRc3FJznHgbJ5Gneq7krBgRJ" ] },
      { "delegate": "tz1fikAGfa1MTxX2oJ7UCtvDpVKeH4KTp1UY",
        "reception_time": "2022-01-15T17:42:46.787-00:00",
        "included_in_blocks":
          [ "BKiSQBKWxXV2TycXEGT2FGxhPVyfRc3FJznHgbJ5Gneq7krBgRJ" ] },
      { "delegate": "tz3bvNMQ95vfAYtG8193ymshqjSvmxiCUuR5",
        "reception_time": "2022-01-15T17:42:46.847-00:00",
        "included_in_blocks":
          [ "BKiSQBKWxXV2TycXEGT2FGxhPVyfRc3FJznHgbJ5Gneq7krBgRJ" ] },
      { "delegate": "tz1V4qCyvPKZ5UeqdH14HN42rxvNPQfc9UZg",
        "reception_time": "2022-01-15T17:42:46.853-00:00",
        "included_in_blocks":
          [ "BKiSQBKWxXV2TycXEGT2FGxhPVyfRc3FJznHgbJ5Gneq7krBgRJ" ] },
      { "delegate": "tz1PWCDnz783NNGGQjEFFsHtrcK5yBW4E2rm",
        "reception_time": "2022-01-15T17:42:46.859-00:00",
        "included_in_blocks":
          [ "BKiSQBKWxXV2TycXEGT2FGxhPVyfRc3FJznHgbJ5Gneq7krBgRJ" ] },
      { "delegate": "tz3bTdwZinP8U1JmSweNzVKhmwafqWmFWRfk",
        "reception_time": "2022-01-15T17:42:46.891-00:00",
        "included_in_blocks":
          [ "BKiSQBKWxXV2TycXEGT2FGxhPVyfRc3FJznHgbJ5Gneq7krBgRJ" ] },
      { "delegate": "tz1Tnjaxk6tbAeC2TmMApPh8UsrEVQvhHvx5",
        "reception_time": "2022-01-15T17:42:46.903-00:00",
        "included_in_blocks":
          [ "BKiSQBKWxXV2TycXEGT2FGxhPVyfRc3FJznHgbJ5Gneq7krBgRJ" ] },
      { "delegate": "tz1NSDFKuRyzHxpfG1AMkyCwEiZ52cbR2mRW",
        "reception_time": "2022-01-15T17:42:46.911-00:00",
        "included_in_blocks":
          [ "BKiSQBKWxXV2TycXEGT2FGxhPVyfRc3FJznHgbJ5Gneq7krBgRJ" ] },
      { "delegate": "tz1fUyqYH7H4pRHN1roWY17giXhy1RvxjgUV",
        "reception_time": "2022-01-15T17:42:46.965-00:00",
        "included_in_blocks":
          [ "BKiSQBKWxXV2TycXEGT2FGxhPVyfRc3FJznHgbJ5Gneq7krBgRJ" ] },
      { "delegate": "tz1Nf6tsK4G6bBqgSQERy4nUtkHNKUVdh7q1",
        "reception_time": "2022-01-15T17:42:47.051-00:00",
        "included_in_blocks":
          [ "BKiSQBKWxXV2TycXEGT2FGxhPVyfRc3FJznHgbJ5Gneq7krBgRJ" ] },
      { "delegate": "tz1TEc75UKXv4W5cwi14Na3NtqFD51yKQi7h",
        "reception_time": "2022-01-15T17:42:47.112-00:00",
        "included_in_blocks":
          [ "BKiSQBKWxXV2TycXEGT2FGxhPVyfRc3FJznHgbJ5Gneq7krBgRJ" ] },
      { "delegate": "tz3RB4aoyjov4KEVRbuhvQ1CKJgBJMWhaeB8",
        "reception_time": "2022-01-15T17:42:47.119-00:00",
        "included_in_blocks":
          [ "BKiSQBKWxXV2TycXEGT2FGxhPVyfRc3FJznHgbJ5Gneq7krBgRJ" ] },
      { "delegate": "tz1KfEsrtDaA1sX7vdM4qmEPWuSytuqCDp5j",
        "reception_time": "2022-01-15T17:42:47.123-00:00",
        "included_in_blocks":
          [ "BKiSQBKWxXV2TycXEGT2FGxhPVyfRc3FJznHgbJ5Gneq7krBgRJ" ] },
      { "delegate": "tz1WBfwbT66FC6BTLexc2BoyCCBM9LG7pnVW",
        "reception_time": "2022-01-15T17:42:47.259-00:00",
        "included_in_blocks":
          [ "BKiSQBKWxXV2TycXEGT2FGxhPVyfRc3FJznHgbJ5Gneq7krBgRJ" ] },
      { "delegate": "tz1WnfXMPaNTBmH7DBPwqCWs9cPDJdkGBTZ8",
        "reception_time": "2022-01-15T17:42:47.622-00:00",
        "included_in_blocks":
          [ "BKiSQBKWxXV2TycXEGT2FGxhPVyfRc3FJznHgbJ5Gneq7krBgRJ" ] },
      { "delegate": "tz1UVFkBnZzy2WGzs7415DNwsbvuyvz4ZznB",
        "reception_time": "2022-01-15T17:42:47.700-00:00",
        "included_in_blocks":
          [ "BKiSQBKWxXV2TycXEGT2FGxhPVyfRc3FJznHgbJ5Gneq7krBgRJ" ] },
      { "delegate": "tz2FCNBrERXtaTtNX6iimR1UJ5JSDxvdHM93",
        "reception_time": "2022-01-15T17:42:47.703-00:00",
        "included_in_blocks":
          [ "BKiSQBKWxXV2TycXEGT2FGxhPVyfRc3FJznHgbJ5Gneq7krBgRJ" ] },
      { "delegate": "tz3gLTu4Yxj8tPAcriQVUdxv6BY9QyvzU1az",
        "reception_time": "2022-01-15T17:42:47.769-00:00",
        "included_in_blocks":
          [ "BKiSQBKWxXV2TycXEGT2FGxhPVyfRc3FJznHgbJ5Gneq7krBgRJ" ] },
      { "delegate": "tz3NDpRj6WBrJPikcPVHRBEjWKxFw3c6eQPS",
        "reception_time": "2022-01-15T17:42:47.776-00:00",
        "included_in_blocks":
          [ "BKiSQBKWxXV2TycXEGT2FGxhPVyfRc3FJznHgbJ5Gneq7krBgRJ" ] },
      { "delegate": "tz1RjoHc98dBoqaH2jawF62XNKh7YsHwbkEv",
        "reception_time": "2022-01-15T17:42:47.882-00:00",
        "included_in_blocks":
          [ "BKiSQBKWxXV2TycXEGT2FGxhPVyfRc3FJznHgbJ5Gneq7krBgRJ" ] },
      { "delegate": "tz1dNVDWPf3Q59SdJqnjdnu277iyvReiRS9M",
        "reception_time": "2022-01-15T17:42:48.051-00:00",
        "included_in_blocks":
          [ "BKiSQBKWxXV2TycXEGT2FGxhPVyfRc3FJznHgbJ5Gneq7krBgRJ" ] },
      { "delegate": "tz1T7duV5gZWSTq4YpBGbXNLTfznCLDrFxvs",
        "reception_time": "2022-01-15T17:42:48.102-00:00",
        "included_in_blocks":
          [ "BKiSQBKWxXV2TycXEGT2FGxhPVyfRc3FJznHgbJ5Gneq7krBgRJ" ] },
      { "delegate": "tz1dRKU4FQ9QRRQPdaH4zCR6gmCmXfcvcgtB",
        "reception_time": "2022-01-15T17:42:48.185-00:00",
        "included_in_blocks":
          [ "BKiSQBKWxXV2TycXEGT2FGxhPVyfRc3FJznHgbJ5Gneq7krBgRJ" ] },
      { "delegate": "tz3WMqdzXqRWXwyvj5Hp2H7QEepaUuS7vd9K",
        "reception_time": "2022-01-15T17:42:48.227-00:00",
        "included_in_blocks":
          [ "BKiSQBKWxXV2TycXEGT2FGxhPVyfRc3FJznHgbJ5Gneq7krBgRJ" ] },
      { "delegate": "tz1TcH4Nb3aHNDJ7CGZhU7jgAK1BkSP4Lxds",
        "reception_time": "2022-01-15T17:42:48.285-00:00",
        "included_in_blocks":
          [ "BKiSQBKWxXV2TycXEGT2FGxhPVyfRc3FJznHgbJ5Gneq7krBgRJ" ] },
      { "delegate": "tz3VEZ4k6a4Wx42iyev6i2aVAptTRLEAivNN",
        "reception_time": "2022-01-15T17:42:48.451-00:00",
        "included_in_blocks":
          [ "BKiSQBKWxXV2TycXEGT2FGxhPVyfRc3FJznHgbJ5Gneq7krBgRJ" ] },
      { "delegate": "tz1Xsrfv6hn86fp88YfRs6xcKwt2nTqxVZYM",
        "reception_time": "2022-01-15T17:42:48.562-00:00",
        "included_in_blocks":
          [ "BKiSQBKWxXV2TycXEGT2FGxhPVyfRc3FJznHgbJ5Gneq7krBgRJ" ] },
      { "delegate": "tz1TRqbYbUf2GyrjErf3hBzgBJPzW8y36qEs",
        "reception_time": "2022-01-15T17:42:48.597-00:00",
        "included_in_blocks":
          [ "BKiSQBKWxXV2TycXEGT2FGxhPVyfRc3FJznHgbJ5Gneq7krBgRJ" ] },
      { "delegate": "tz1Zcxkfa5jKrRbBThG765GP29bUCU3C4ok5",
        "reception_time": "2022-01-15T17:42:48.639-00:00",
        "included_in_blocks":
          [ "BKiSQBKWxXV2TycXEGT2FGxhPVyfRc3FJznHgbJ5Gneq7krBgRJ" ] },
      { "delegate": "tz1cYufsxHXJcvANhvS55h3aY32a9BAFB494",
        "reception_time": "2022-01-15T17:42:48.849-00:00",
        "included_in_blocks":
          [ "BKiSQBKWxXV2TycXEGT2FGxhPVyfRc3FJznHgbJ5Gneq7krBgRJ" ] },
      { "delegate": "tz3NExpXn9aPNZPorRE4SdjJ2RGrfbJgMAaV",
        "reception_time": "2022-01-15T17:42:49.856-00:00",
        "included_in_blocks":
          [ "BKiSQBKWxXV2TycXEGT2FGxhPVyfRc3FJznHgbJ5Gneq7krBgRJ" ] },
      { "delegate": "tz3UoffC7FG7zfpmvmjUmUeAaHvzdcUvAj6r",
        "reception_time": "2022-01-15T17:42:49.865-00:00",
        "included_in_blocks":
          [ "BKiSQBKWxXV2TycXEGT2FGxhPVyfRc3FJznHgbJ5Gneq7krBgRJ" ] },
      { "delegate": "tz1eVaNx3gCmG1EsLjijkmgAxdLYVf6Bf5Sq",
        "reception_time": "2022-01-15T17:42:49.872-00:00",
        "included_in_blocks":
          [ "BKiSQBKWxXV2TycXEGT2FGxhPVyfRc3FJznHgbJ5Gneq7krBgRJ" ] },
      { "delegate": "tz1aRoaRhSpRYvFdyvgWLL6TGyRoGF51wDjM",
        "reception_time": "2022-01-15T17:42:49.878-00:00",
        "included_in_blocks":
          [ "BKiSQBKWxXV2TycXEGT2FGxhPVyfRc3FJznHgbJ5Gneq7krBgRJ" ] },
      { "delegate": "tz1QccGQsmt7WMnbVX9inJQgEuQGeMXddfjp",
        "reception_time": "2022-01-15T17:42:49.884-00:00",
        "included_in_blocks":
          [ "BKiSQBKWxXV2TycXEGT2FGxhPVyfRc3FJznHgbJ5Gneq7krBgRJ" ] },
      { "delegate": "tz2BzJTyoQp8fNbfhWD4YQgH9JJHDgSGzpdG",
        "reception_time": "2022-01-15T17:42:52.537-00:00",
        "included_in_blocks":
          [ "BKiSQBKWxXV2TycXEGT2FGxhPVyfRc3FJznHgbJ5Gneq7krBgRJ" ] },
      { "delegate": "tz1NpWrAyDL9k2Lmnyxcgr9xuJakbBxdq7FB",
        "reception_time": "2022-01-15T17:42:55.219-00:00",
        "included_in_blocks":
          [ "BKiSQBKWxXV2TycXEGT2FGxhPVyfRc3FJznHgbJ5Gneq7krBgRJ" ] } ] }