{ "blocks":
    [ { "hash": "BLFqPqMyrm5yrqPzuJdbG43wLvzdFBW3ithPoHGRrf1bJyu7XbB",
        "delegate": "tz1T7duV5gZWSTq4YpBGbXNLTfznCLDrFxvs",
        "reception_time": "2022-01-15T16:15:46.044-00:00",
        "timestamp": "2022-01-15T16:15:40Z" } ],
  "endorsements":
    [ { "delegate": "tz1ibcPVGK4Y8pcW4BYUsojiHoBKnZbyDGrX" },
      { "delegate": "tz1fwnfJNgiDACshK9avfRfFbMaXrs3ghoJa" },
      { "delegate": "tz3bEQoFCZEEfZMskefZ8q8e4eiHH1pssRax",
        "reception_time": "2022-01-15T16:15:59.882-00:00",
        "included_in_blocks":
          [ "BKkHM4bjVeiZpBe2EUfPY8MfU68izakYh44UCLPYopRoaby1uDz" ] },
      { "delegate": "tz3e7LbZvUtoXhpUD1yb6wuFodZpfYRb9nWJ",
        "reception_time": "2022-01-15T16:15:56.432-00:00",
        "included_in_blocks":
          [ "BKkHM4bjVeiZpBe2EUfPY8MfU68izakYh44UCLPYopRoaby1uDz" ] },
      { "delegate": "tz1g8vkmcde6sWKaG2NN9WKzCkDM6Rziq194",
        "reception_time": "2022-01-15T16:15:54.640-00:00",
        "included_in_blocks":
          [ "BKkHM4bjVeiZpBe2EUfPY8MfU68izakYh44UCLPYopRoaby1uDz" ] },
      { "delegate": "tz1aRoaRhSpRYvFdyvgWLL6TGyRoGF51wDjM",
        "reception_time": "2022-01-15T16:15:50.794-00:00",
        "included_in_blocks":
          [ "BKkHM4bjVeiZpBe2EUfPY8MfU68izakYh44UCLPYopRoaby1uDz" ] },
      { "delegate": "tz1cYufsxHXJcvANhvS55h3aY32a9BAFB494",
        "reception_time": "2022-01-15T16:15:50.267-00:00",
        "included_in_blocks":
          [ "BKkHM4bjVeiZpBe2EUfPY8MfU68izakYh44UCLPYopRoaby1uDz" ] },
      { "delegate": "tz1UvkANVPWppVgMkLnvN7BwYZsCP7vm6NVd",
        "reception_time": "2022-01-15T16:15:49.655-00:00",
        "included_in_blocks":
          [ "BKkHM4bjVeiZpBe2EUfPY8MfU68izakYh44UCLPYopRoaby1uDz" ] },
      { "delegate": "tz3bvNMQ95vfAYtG8193ymshqjSvmxiCUuR5",
        "reception_time": "2022-01-15T16:15:49.561-00:00",
        "included_in_blocks":
          [ "BKkHM4bjVeiZpBe2EUfPY8MfU68izakYh44UCLPYopRoaby1uDz" ] },
      { "delegate": "tz1ivoFEvbfbUNav5FwLvmxzMGcNXWxY9qTD",
        "reception_time": "2022-01-15T16:15:50.111-00:00",
        "included_in_blocks":
          [ "BKkHM4bjVeiZpBe2EUfPY8MfU68izakYh44UCLPYopRoaby1uDz" ] },
      { "delegate": "tz3UoffC7FG7zfpmvmjUmUeAaHvzdcUvAj6r",
        "reception_time": "2022-01-15T16:15:50.283-00:00",
        "included_in_blocks":
          [ "BKkHM4bjVeiZpBe2EUfPY8MfU68izakYh44UCLPYopRoaby1uDz" ] },
      { "delegate": "tz3NExpXn9aPNZPorRE4SdjJ2RGrfbJgMAaV",
        "reception_time": "2022-01-15T16:15:49.833-00:00",
        "included_in_blocks":
          [ "BKkHM4bjVeiZpBe2EUfPY8MfU68izakYh44UCLPYopRoaby1uDz" ] },
      { "delegate": "tz3NDpRj6WBrJPikcPVHRBEjWKxFw3c6eQPS",
        "reception_time": "2022-01-15T16:15:49.415-00:00",
        "included_in_blocks":
          [ "BKkHM4bjVeiZpBe2EUfPY8MfU68izakYh44UCLPYopRoaby1uDz" ] },
      { "delegate": "tz1NEKxGEHsFufk87CVZcrqWu8o22qh46GK6",
        "reception_time": "2022-01-15T16:15:49.176-00:00",
        "included_in_blocks":
          [ "BKkHM4bjVeiZpBe2EUfPY8MfU68izakYh44UCLPYopRoaby1uDz" ] },
      { "delegate": "tz1PeZx7FXy7QRuMREGXGxeipb24RsMMzUNe",
        "reception_time": "2022-01-15T16:15:49.173-00:00",
        "included_in_blocks":
          [ "BKkHM4bjVeiZpBe2EUfPY8MfU68izakYh44UCLPYopRoaby1uDz" ] },
      { "delegate": "tz1MGTFJXpQmtxLi8QJ7AuVRgM2L2Qfn9w9i",
        "reception_time": "2022-01-15T16:15:48.998-00:00",
        "included_in_blocks":
          [ "BKkHM4bjVeiZpBe2EUfPY8MfU68izakYh44UCLPYopRoaby1uDz" ] },
      { "delegate": "tz3WMqdzXqRWXwyvj5Hp2H7QEepaUuS7vd9K",
        "reception_time": "2022-01-15T16:15:49.415-00:00",
        "included_in_blocks":
          [ "BKkHM4bjVeiZpBe2EUfPY8MfU68izakYh44UCLPYopRoaby1uDz" ] },
      { "delegate": "tz3VEZ4k6a4Wx42iyev6i2aVAptTRLEAivNN",
        "reception_time": "2022-01-15T16:15:49.429-00:00",
        "included_in_blocks":
          [ "BKkHM4bjVeiZpBe2EUfPY8MfU68izakYh44UCLPYopRoaby1uDz" ] },
      { "delegate": "tz1TRqbYbUf2GyrjErf3hBzgBJPzW8y36qEs",
        "reception_time": "2022-01-15T16:15:48.990-00:00",
        "included_in_blocks":
          [ "BKkHM4bjVeiZpBe2EUfPY8MfU68izakYh44UCLPYopRoaby1uDz" ] },
      { "delegate": "tz1fUyqYH7H4pRHN1roWY17giXhy1RvxjgUV",
        "reception_time": "2022-01-15T16:15:49.009-00:00",
        "included_in_blocks":
          [ "BKkHM4bjVeiZpBe2EUfPY8MfU68izakYh44UCLPYopRoaby1uDz" ] },
      { "delegate": "tz2FCNBrERXtaTtNX6iimR1UJ5JSDxvdHM93",
        "reception_time": "2022-01-15T16:15:48.971-00:00",
        "included_in_blocks":
          [ "BKkHM4bjVeiZpBe2EUfPY8MfU68izakYh44UCLPYopRoaby1uDz" ] },
      { "delegate": "tz1UMCB2AHSTwG7YcGNr31CqYCtGN873royv",
        "reception_time": "2022-01-15T16:15:48.896-00:00",
        "included_in_blocks":
          [ "BKkHM4bjVeiZpBe2EUfPY8MfU68izakYh44UCLPYopRoaby1uDz" ] },
      { "delegate": "tz1Tnjaxk6tbAeC2TmMApPh8UsrEVQvhHvx5",
        "reception_time": "2022-01-15T16:15:48.877-00:00",
        "included_in_blocks":
          [ "BKkHM4bjVeiZpBe2EUfPY8MfU68izakYh44UCLPYopRoaby1uDz" ] },
      { "delegate": "tz1WBfwbT66FC6BTLexc2BoyCCBM9LG7pnVW",
        "reception_time": "2022-01-15T16:15:48.892-00:00",
        "included_in_blocks":
          [ "BKkHM4bjVeiZpBe2EUfPY8MfU68izakYh44UCLPYopRoaby1uDz" ] },
      { "delegate": "tz3RDC3Jdn4j15J7bBHZd29EUee9gVB1CxD9",
        "reception_time": "2022-01-15T16:15:48.922-00:00",
        "included_in_blocks":
          [ "BKkHM4bjVeiZpBe2EUfPY8MfU68izakYh44UCLPYopRoaby1uDz" ] },
      { "delegate": "tz1Nf6tsK4G6bBqgSQERy4nUtkHNKUVdh7q1",
        "reception_time": "2022-01-15T16:15:49.155-00:00",
        "included_in_blocks":
          [ "BKkHM4bjVeiZpBe2EUfPY8MfU68izakYh44UCLPYopRoaby1uDz" ] },
      { "delegate": "tz1T7duV5gZWSTq4YpBGbXNLTfznCLDrFxvs",
        "reception_time": "2022-01-15T16:15:48.800-00:00",
        "included_in_blocks":
          [ "BKkHM4bjVeiZpBe2EUfPY8MfU68izakYh44UCLPYopRoaby1uDz" ] },
      { "delegate": "tz1aDiEJf9ztRrAJEXZfcG3CKimoKsGhwVAi",
        "reception_time": "2022-01-15T16:15:48.814-00:00",
        "included_in_blocks":
          [ "BKkHM4bjVeiZpBe2EUfPY8MfU68izakYh44UCLPYopRoaby1uDz" ] },
      { "delegate": "tz1S8MNvuFEUsWgjHvi3AxibRBf388NhT1q2",
        "reception_time": "2022-01-15T16:15:48.870-00:00",
        "included_in_blocks":
          [ "BKkHM4bjVeiZpBe2EUfPY8MfU68izakYh44UCLPYopRoaby1uDz" ] },
      { "delegate": "tz1LmaFsWRkjr7QMCx5PtV6xTUz3AmEpKQiF",
        "reception_time": "2022-01-15T16:15:48.926-00:00",
        "included_in_blocks":
          [ "BKkHM4bjVeiZpBe2EUfPY8MfU68izakYh44UCLPYopRoaby1uDz" ] },
      { "delegate": "tz1ei4WtWEMEJekSv8qDnu9PExG6Q8HgRGr3",
        "reception_time": "2022-01-15T16:15:48.873-00:00",
        "included_in_blocks":
          [ "BKkHM4bjVeiZpBe2EUfPY8MfU68izakYh44UCLPYopRoaby1uDz" ] },
      { "delegate": "tz1fUjvVhJrHLZCbhPNvDRckxApqbkievJHN",
        "reception_time": "2022-01-15T16:15:48.833-00:00",
        "included_in_blocks":
          [ "BKkHM4bjVeiZpBe2EUfPY8MfU68izakYh44UCLPYopRoaby1uDz" ] },
      { "delegate": "tz3bTdwZinP8U1JmSweNzVKhmwafqWmFWRfk",
        "reception_time": "2022-01-15T16:15:48.889-00:00",
        "included_in_blocks":
          [ "BKkHM4bjVeiZpBe2EUfPY8MfU68izakYh44UCLPYopRoaby1uDz" ] },
      { "delegate": "tz1NortRftucvAkD1J58L32EhSVrQEWJCEnB",
        "reception_time": "2022-01-15T16:15:48.818-00:00",
        "included_in_blocks":
          [ "BKkHM4bjVeiZpBe2EUfPY8MfU68izakYh44UCLPYopRoaby1uDz" ] },
      { "delegate": "tz1RCFbB9GpALpsZtu6J58sb74dm8qe6XBzv",
        "reception_time": "2022-01-15T16:15:48.828-00:00",
        "included_in_blocks":
          [ "BKkHM4bjVeiZpBe2EUfPY8MfU68izakYh44UCLPYopRoaby1uDz" ] },
      { "delegate": "tz1SYq214SCBy9naR6cvycQsYcUGpBqQAE8d",
        "reception_time": "2022-01-15T16:15:48.971-00:00",
        "included_in_blocks":
          [ "BKkHM4bjVeiZpBe2EUfPY8MfU68izakYh44UCLPYopRoaby1uDz" ] },
      { "delegate": "tz1YhNsiRRU8aHNGg7NK3uuP6UDAyacJernB",
        "reception_time": "2022-01-15T16:15:48.582-00:00",
        "included_in_blocks":
          [ "BKkHM4bjVeiZpBe2EUfPY8MfU68izakYh44UCLPYopRoaby1uDz" ] },
      { "delegate": "tz1UJvHTgpVzcKWhTazGxVcn5wsHru5Gietg",
        "reception_time": "2022-01-15T16:15:48.582-00:00",
        "included_in_blocks":
          [ "BKkHM4bjVeiZpBe2EUfPY8MfU68izakYh44UCLPYopRoaby1uDz" ] },
      { "delegate": "tz1V4qCyvPKZ5UeqdH14HN42rxvNPQfc9UZg",
        "reception_time": "2022-01-15T16:15:48.707-00:00",
        "included_in_blocks":
          [ "BKkHM4bjVeiZpBe2EUfPY8MfU68izakYh44UCLPYopRoaby1uDz" ] },
      { "delegate": "tz3RB4aoyjov4KEVRbuhvQ1CKJgBJMWhaeB8",
        "reception_time": "2022-01-15T16:15:48.795-00:00",
        "included_in_blocks":
          [ "BKkHM4bjVeiZpBe2EUfPY8MfU68izakYh44UCLPYopRoaby1uDz" ] },
      { "delegate": "tz1P2Po7YM526ughEsRbY4oR9zaUPDZjxFrb",
        "reception_time": "2022-01-15T16:15:48.814-00:00",
        "included_in_blocks":
          [ "BKkHM4bjVeiZpBe2EUfPY8MfU68izakYh44UCLPYopRoaby1uDz" ] },
      { "delegate": "tz1gfArv665EUkSg2ojMBzcbfwuPxAvqPvjo",
        "reception_time": "2022-01-15T16:15:48.239-00:00",
        "included_in_blocks":
          [ "BKkHM4bjVeiZpBe2EUfPY8MfU68izakYh44UCLPYopRoaby1uDz" ] },
      { "delegate": "tz1PWCDnz783NNGGQjEFFsHtrcK5yBW4E2rm",
        "reception_time": "2022-01-15T16:15:48.497-00:00",
        "included_in_blocks":
          [ "BKkHM4bjVeiZpBe2EUfPY8MfU68izakYh44UCLPYopRoaby1uDz" ] },
      { "delegate": "tz1WnfXMPaNTBmH7DBPwqCWs9cPDJdkGBTZ8",
        "reception_time": "2022-01-15T16:15:48.340-00:00",
        "included_in_blocks":
          [ "BKkHM4bjVeiZpBe2EUfPY8MfU68izakYh44UCLPYopRoaby1uDz" ] },
      { "delegate": "tz3Zhs2dygr55yHyQyKjntAtY9bgfhLZ4Xj1",
        "reception_time": "2022-01-15T16:15:48.724-00:00",
        "included_in_blocks":
          [ "BKkHM4bjVeiZpBe2EUfPY8MfU68izakYh44UCLPYopRoaby1uDz" ] },
      { "delegate": "tz1LnWa4AiFCjMezTgSNa65QFoo7DQGEWgEU",
        "reception_time": "2022-01-15T16:15:48.672-00:00",
        "included_in_blocks":
          [ "BKkHM4bjVeiZpBe2EUfPY8MfU68izakYh44UCLPYopRoaby1uDz" ] },
      { "delegate": "tz3iJu5vrKZcsqRPs8yJ61UDoeEXZmtro4qh",
        "reception_time": "2022-01-15T16:15:48.808-00:00",
        "included_in_blocks":
          [ "BKkHM4bjVeiZpBe2EUfPY8MfU68izakYh44UCLPYopRoaby1uDz" ] },
      { "delegate": "tz1VQnqCCqX4K5sP3FNkVSNKTdCAMJDd3E1n",
        "reception_time": "2022-01-15T16:15:48.231-00:00",
        "included_in_blocks":
          [ "BKkHM4bjVeiZpBe2EUfPY8MfU68izakYh44UCLPYopRoaby1uDz" ] },
      { "delegate": "tz1NSDFKuRyzHxpfG1AMkyCwEiZ52cbR2mRW",
        "reception_time": "2022-01-15T16:15:48.235-00:00",
        "included_in_blocks":
          [ "BKkHM4bjVeiZpBe2EUfPY8MfU68izakYh44UCLPYopRoaby1uDz" ] },
      { "delegate": "tz1gUNyn3hmnEWqkusWPzxRaon1cs7ndWh7h",
        "reception_time": "2022-01-15T16:15:48.220-00:00",
        "included_in_blocks":
          [ "BKkHM4bjVeiZpBe2EUfPY8MfU68izakYh44UCLPYopRoaby1uDz" ] },
      { "delegate": "tz3hw2kqXhLUvY65ca1eety2oQTpAvd34R9Q",
        "reception_time": "2022-01-15T16:15:48.216-00:00",
        "included_in_blocks":
          [ "BKkHM4bjVeiZpBe2EUfPY8MfU68izakYh44UCLPYopRoaby1uDz" ] },
      { "delegate": "tz1MJx9vhaNRSimcuXPK2rW4fLccQnDAnVKJ",
        "reception_time": "2022-01-15T16:15:48.029-00:00",
        "included_in_blocks":
          [ "BKkHM4bjVeiZpBe2EUfPY8MfU68izakYh44UCLPYopRoaby1uDz" ] },
      { "delegate": "tz3QT9dHYKDqh563chVa6za8526ys1UKfRfL",
        "reception_time": "2022-01-15T16:15:48.295-00:00",
        "included_in_blocks":
          [ "BKkHM4bjVeiZpBe2EUfPY8MfU68izakYh44UCLPYopRoaby1uDz" ] },
      { "delegate": "tz3RKYFsLuQzKBtmYuLNas7uMu3AsYd4QdsA",
        "reception_time": "2022-01-15T16:15:48.228-00:00",
        "included_in_blocks":
          [ "BKkHM4bjVeiZpBe2EUfPY8MfU68izakYh44UCLPYopRoaby1uDz" ] },
      { "delegate": "tz3S6BBeKgJGXxvLyZ1xzXzMPn11nnFtq5L9",
        "reception_time": "2022-01-15T16:15:48.524-00:00",
        "included_in_blocks":
          [ "BKkHM4bjVeiZpBe2EUfPY8MfU68izakYh44UCLPYopRoaby1uDz" ] },
      { "delegate": "tz3adcvQaKXTCg12zbninqo3q8ptKKtDFTLv",
        "reception_time": "2022-01-15T16:15:48.167-00:00",
        "included_in_blocks":
          [ "BKkHM4bjVeiZpBe2EUfPY8MfU68izakYh44UCLPYopRoaby1uDz" ] },
      { "delegate": "tz3gtoUxdudfBRcNY7iVdKPHCYYX6xdPpoRS",
        "reception_time": "2022-01-15T16:15:48.281-00:00",
        "included_in_blocks":
          [ "BKkHM4bjVeiZpBe2EUfPY8MfU68izakYh44UCLPYopRoaby1uDz" ] },
      { "delegate": "tz1Ldzz6k1BHdhuKvAtMRX7h5kJSMHESMHLC",
        "reception_time": "2022-01-15T16:15:48.269-00:00",
        "included_in_blocks":
          [ "BKkHM4bjVeiZpBe2EUfPY8MfU68izakYh44UCLPYopRoaby1uDz" ] },
      { "delegate": "tz3QSGPoRp3Kn7n3vY24eYeu3Peuqo45LQ4D",
        "reception_time": "2022-01-15T16:15:48.148-00:00",
        "included_in_blocks":
          [ "BKkHM4bjVeiZpBe2EUfPY8MfU68izakYh44UCLPYopRoaby1uDz" ] },
      { "delegate": "tz1XfAjZyaLdceHnZxbMYop7g7kWKPut4PR7",
        "reception_time": "2022-01-15T16:15:48.188-00:00",
        "included_in_blocks":
          [ "BKkHM4bjVeiZpBe2EUfPY8MfU68izakYh44UCLPYopRoaby1uDz" ] },
      { "delegate": "tz1WCd2jm4uSt4vntk4vSuUWoZQGhLcDuR9q",
        "reception_time": "2022-01-15T16:15:48.199-00:00",
        "included_in_blocks":
          [ "BKkHM4bjVeiZpBe2EUfPY8MfU68izakYh44UCLPYopRoaby1uDz" ] },
      { "delegate": "tz1TXzyaKUA8wsWefdSnyaYFnV2M3vCV7er9",
        "reception_time": "2022-01-15T16:15:48.207-00:00",
        "included_in_blocks":
          [ "BKkHM4bjVeiZpBe2EUfPY8MfU68izakYh44UCLPYopRoaby1uDz" ] },
      { "delegate": "tz3NxTnke1acr8o3h5y9ytf5awQBGNJUKzVU",
        "reception_time": "2022-01-15T16:15:48.295-00:00",
        "included_in_blocks":
          [ "BKkHM4bjVeiZpBe2EUfPY8MfU68izakYh44UCLPYopRoaby1uDz" ] },
      { "delegate": "tz1MQMiZHV8q4tTwUMWmS5Y3kaP6J2136iXr",
        "reception_time": "2022-01-15T16:15:48.203-00:00",
        "included_in_blocks":
          [ "BKkHM4bjVeiZpBe2EUfPY8MfU68izakYh44UCLPYopRoaby1uDz" ] },
      { "delegate": "tz1irJKkXS2DBWkU1NnmFQx1c1L7pbGg4yhk",
        "reception_time": "2022-01-15T16:15:48.246-00:00",
        "included_in_blocks":
          [ "BKkHM4bjVeiZpBe2EUfPY8MfU68izakYh44UCLPYopRoaby1uDz" ] },
      { "delegate": "tz3ZbP2pM3nwvXztbuMJwJnDvV5xdpU8UkkD",
        "reception_time": "2022-01-15T16:15:48.316-00:00",
        "included_in_blocks":
          [ "BKkHM4bjVeiZpBe2EUfPY8MfU68izakYh44UCLPYopRoaby1uDz" ] },
      { "delegate": "tz1eEnQhbwf6trb8Q8mPb2RaPkNk2rN7BKi8",
        "reception_time": "2022-01-15T16:15:48.013-00:00",
        "included_in_blocks":
          [ "BKkHM4bjVeiZpBe2EUfPY8MfU68izakYh44UCLPYopRoaby1uDz" ] },
      { "delegate": "tz1VmiY38m3y95HqQLjMwqnMS7sdMfGomzKi",
        "reception_time": "2022-01-15T16:15:48.048-00:00",
        "included_in_blocks":
          [ "BKkHM4bjVeiZpBe2EUfPY8MfU68izakYh44UCLPYopRoaby1uDz" ] },
      { "delegate": "tz1ZPh7XfUaJXUDvkrBxmS1BjEM1i62hiPpM",
        "reception_time": "2022-01-15T16:15:48.051-00:00",
        "included_in_blocks":
          [ "BKkHM4bjVeiZpBe2EUfPY8MfU68izakYh44UCLPYopRoaby1uDz" ] },
      { "delegate": "tz1Kt4P8BCaP93AEV4eA7gmpRryWt5hznjCP",
        "reception_time": "2022-01-15T16:15:48.037-00:00",
        "included_in_blocks":
          [ "BKkHM4bjVeiZpBe2EUfPY8MfU68izakYh44UCLPYopRoaby1uDz" ] },
      { "delegate": "tz1beersuEDv8Z7ngQ825xfbaJNS2EhXnyHR",
        "reception_time": "2022-01-15T16:15:48.170-00:00",
        "included_in_blocks":
          [ "BKkHM4bjVeiZpBe2EUfPY8MfU68izakYh44UCLPYopRoaby1uDz" ] },
      { "delegate": "tz1RV1MBbZMR68tacosb7Mwj6LkbPSUS1er1",
        "reception_time": "2022-01-15T16:15:48.018-00:00",
        "included_in_blocks":
          [ "BKkHM4bjVeiZpBe2EUfPY8MfU68izakYh44UCLPYopRoaby1uDz" ] },
      { "delegate": "tz1Scdr2HsZiQjc7bHMeBbmDRXYVvdhjJbBh",
        "reception_time": "2022-01-15T16:15:47.983-00:00",
        "included_in_blocks":
          [ "BKkHM4bjVeiZpBe2EUfPY8MfU68izakYh44UCLPYopRoaby1uDz" ] } ] }