{ "blocks":
    [ { "hash": "BL26ep3skxqn8uem4CH5cGPoCmBYhouDqLcKwE4LSD1Zhz5FSaX",
        "delegate": "tz3RDC3Jdn4j15J7bBHZd29EUee9gVB1CxD9",
        "reception_time": "2022-01-15T15:45:50.759-00:00",
        "timestamp": "2022-01-15T15:45:40Z" } ],
  "endorsements":
    [ { "delegate": "tz1cX93Q3KsiTADpCC4f12TBvAmS5tw7CW19",
        "reception_time": "2022-01-15T15:45:50.544-00:00",
        "errors":
          [ { "kind": "temporary",
              "id": "proto.011-PtHangz2.prefilter.outdated_endorsement" } ],
        "included_in_blocks":
          [ "BKusJM7PHgtP2v2o6nrgFxxRqucJxm2eFU294K3hR6vaA7sSmKt" ] },
      { "delegate": "tz1eEnQhbwf6trb8Q8mPb2RaPkNk2rN7BKi8",
        "reception_time": "2022-01-15T15:45:50.539-00:00",
        "errors":
          [ { "kind": "temporary",
              "id": "proto.011-PtHangz2.prefilter.outdated_endorsement" } ],
        "included_in_blocks":
          [ "BKusJM7PHgtP2v2o6nrgFxxRqucJxm2eFU294K3hR6vaA7sSmKt" ] },
      { "delegate": "tz1MXFrtZoaXckE41bjUCSjAjAap3AFDSr3N",
        "reception_time": "2022-01-15T15:45:50.266-00:00",
        "errors":
          [ { "kind": "temporary",
              "id": "proto.011-PtHangz2.prefilter.outdated_endorsement" } ],
        "included_in_blocks":
          [ "BKusJM7PHgtP2v2o6nrgFxxRqucJxm2eFU294K3hR6vaA7sSmKt" ] },
      { "delegate": "tz1irJKkXS2DBWkU1NnmFQx1c1L7pbGg4yhk",
        "reception_time": "2022-01-15T15:45:50.142-00:00",
        "errors":
          [ { "kind": "temporary",
              "id": "proto.011-PtHangz2.prefilter.outdated_endorsement" } ],
        "included_in_blocks":
          [ "BKusJM7PHgtP2v2o6nrgFxxRqucJxm2eFU294K3hR6vaA7sSmKt" ] },
      { "delegate": "tz1P2Po7YM526ughEsRbY4oR9zaUPDZjxFrb",
        "reception_time": "2022-01-15T15:45:49.950-00:00",
        "errors":
          [ { "kind": "temporary",
              "id": "proto.011-PtHangz2.prefilter.outdated_endorsement" } ],
        "included_in_blocks":
          [ "BKusJM7PHgtP2v2o6nrgFxxRqucJxm2eFU294K3hR6vaA7sSmKt" ] },
      { "delegate": "tz1TRspM5SeZpaQUhzByXbEvqKF1vnCM2YTK" },
      { "delegate": "tz1ci1ARnm8JoYV16Hbe4FoxX17yFEAQVytg" },
      { "delegate": "tz1dbfppLAAxXZNtf2SDps7rch3qfUznKSoK" },
      { "delegate": "tz1Kt4P8BCaP93AEV4eA7gmpRryWt5hznjCP",
        "reception_time": "2022-01-15T15:45:51.985-00:00",
        "included_in_blocks":
          [ "BKusJM7PHgtP2v2o6nrgFxxRqucJxm2eFU294K3hR6vaA7sSmKt" ] },
      { "delegate": "tz3RDC3Jdn4j15J7bBHZd29EUee9gVB1CxD9",
        "reception_time": "2022-01-15T15:45:51.985-00:00",
        "included_in_blocks":
          [ "BKusJM7PHgtP2v2o6nrgFxxRqucJxm2eFU294K3hR6vaA7sSmKt" ] },
      { "delegate": "tz1Ldzz6k1BHdhuKvAtMRX7h5kJSMHESMHLC",
        "reception_time": "2022-01-15T15:45:51.990-00:00",
        "included_in_blocks":
          [ "BKusJM7PHgtP2v2o6nrgFxxRqucJxm2eFU294K3hR6vaA7sSmKt" ] },
      { "delegate": "tz3gtoUxdudfBRcNY7iVdKPHCYYX6xdPpoRS",
        "reception_time": "2022-01-15T15:45:51.990-00:00",
        "included_in_blocks":
          [ "BKusJM7PHgtP2v2o6nrgFxxRqucJxm2eFU294K3hR6vaA7sSmKt" ] },
      { "delegate": "tz1iZEKy4LaAjnTmn2RuGDf2iqdAQKnRi8kY",
        "reception_time": "2022-01-15T15:45:51.993-00:00",
        "included_in_blocks":
          [ "BKusJM7PHgtP2v2o6nrgFxxRqucJxm2eFU294K3hR6vaA7sSmKt" ] },
      { "delegate": "tz3iJu5vrKZcsqRPs8yJ61UDoeEXZmtro4qh",
        "reception_time": "2022-01-15T15:45:52.005-00:00",
        "included_in_blocks":
          [ "BKusJM7PHgtP2v2o6nrgFxxRqucJxm2eFU294K3hR6vaA7sSmKt" ] },
      { "delegate": "tz3QSGPoRp3Kn7n3vY24eYeu3Peuqo45LQ4D",
        "reception_time": "2022-01-15T15:45:52.017-00:00",
        "included_in_blocks":
          [ "BKusJM7PHgtP2v2o6nrgFxxRqucJxm2eFU294K3hR6vaA7sSmKt" ] },
      { "delegate": "tz1WCd2jm4uSt4vntk4vSuUWoZQGhLcDuR9q",
        "reception_time": "2022-01-15T15:45:52.017-00:00",
        "included_in_blocks":
          [ "BKusJM7PHgtP2v2o6nrgFxxRqucJxm2eFU294K3hR6vaA7sSmKt" ] },
      { "delegate": "tz3Zhs2dygr55yHyQyKjntAtY9bgfhLZ4Xj1",
        "reception_time": "2022-01-15T15:45:52.024-00:00",
        "included_in_blocks":
          [ "BKusJM7PHgtP2v2o6nrgFxxRqucJxm2eFU294K3hR6vaA7sSmKt" ] },
      { "delegate": "tz3RKYFsLuQzKBtmYuLNas7uMu3AsYd4QdsA",
        "reception_time": "2022-01-15T15:45:52.040-00:00",
        "included_in_blocks":
          [ "BKusJM7PHgtP2v2o6nrgFxxRqucJxm2eFU294K3hR6vaA7sSmKt" ] },
      { "delegate": "tz3hw2kqXhLUvY65ca1eety2oQTpAvd34R9Q",
        "reception_time": "2022-01-15T15:45:52.050-00:00",
        "included_in_blocks":
          [ "BKusJM7PHgtP2v2o6nrgFxxRqucJxm2eFU294K3hR6vaA7sSmKt" ] },
      { "delegate": "tz3ZbP2pM3nwvXztbuMJwJnDvV5xdpU8UkkD",
        "reception_time": "2022-01-15T15:45:52.074-00:00",
        "included_in_blocks":
          [ "BKusJM7PHgtP2v2o6nrgFxxRqucJxm2eFU294K3hR6vaA7sSmKt" ] },
      { "delegate": "tz1gUNyn3hmnEWqkusWPzxRaon1cs7ndWh7h",
        "reception_time": "2022-01-15T15:45:52.078-00:00",
        "included_in_blocks":
          [ "BKusJM7PHgtP2v2o6nrgFxxRqucJxm2eFU294K3hR6vaA7sSmKt" ] },
      { "delegate": "tz1ajgycuHmd2z2JbTSJxKv7x6cok2KuNSk1",
        "reception_time": "2022-01-15T15:45:52.094-00:00",
        "included_in_blocks":
          [ "BKusJM7PHgtP2v2o6nrgFxxRqucJxm2eFU294K3hR6vaA7sSmKt" ] },
      { "delegate": "tz1VQnqCCqX4K5sP3FNkVSNKTdCAMJDd3E1n",
        "reception_time": "2022-01-15T15:45:52.101-00:00",
        "included_in_blocks":
          [ "BKusJM7PHgtP2v2o6nrgFxxRqucJxm2eFU294K3hR6vaA7sSmKt" ] },
      { "delegate": "tz1fPKAtsYydh4f1wfWNfeNxWYu72TmM48fu",
        "reception_time": "2022-01-15T15:45:52.132-00:00",
        "included_in_blocks":
          [ "BKusJM7PHgtP2v2o6nrgFxxRqucJxm2eFU294K3hR6vaA7sSmKt" ] },
      { "delegate": "tz1gfArv665EUkSg2ojMBzcbfwuPxAvqPvjo",
        "reception_time": "2022-01-15T15:45:52.136-00:00",
        "included_in_blocks":
          [ "BKusJM7PHgtP2v2o6nrgFxxRqucJxm2eFU294K3hR6vaA7sSmKt" ] },
      { "delegate": "tz1PWCDnz783NNGGQjEFFsHtrcK5yBW4E2rm",
        "reception_time": "2022-01-15T15:45:52.139-00:00",
        "included_in_blocks":
          [ "BKusJM7PHgtP2v2o6nrgFxxRqucJxm2eFU294K3hR6vaA7sSmKt" ] },
      { "delegate": "tz3bTdwZinP8U1JmSweNzVKhmwafqWmFWRfk",
        "reception_time": "2022-01-15T15:45:52.147-00:00",
        "included_in_blocks":
          [ "BKusJM7PHgtP2v2o6nrgFxxRqucJxm2eFU294K3hR6vaA7sSmKt" ] },
      { "delegate": "tz1TEc75UKXv4W5cwi14Na3NtqFD51yKQi7h",
        "reception_time": "2022-01-15T15:45:52.178-00:00",
        "included_in_blocks":
          [ "BKusJM7PHgtP2v2o6nrgFxxRqucJxm2eFU294K3hR6vaA7sSmKt" ] },
      { "delegate": "tz1RCFbB9GpALpsZtu6J58sb74dm8qe6XBzv",
        "reception_time": "2022-01-15T15:45:52.210-00:00",
        "included_in_blocks":
          [ "BKusJM7PHgtP2v2o6nrgFxxRqucJxm2eFU294K3hR6vaA7sSmKt" ] },
      { "delegate": "tz1V4qCyvPKZ5UeqdH14HN42rxvNPQfc9UZg",
        "reception_time": "2022-01-15T15:45:52.244-00:00",
        "included_in_blocks":
          [ "BKusJM7PHgtP2v2o6nrgFxxRqucJxm2eFU294K3hR6vaA7sSmKt" ] },
      { "delegate": "tz1iPHM2Xx2hwmzcr1EG1zzrV6oKafVoA91m",
        "reception_time": "2022-01-15T15:45:52.273-00:00",
        "included_in_blocks":
          [ "BKusJM7PHgtP2v2o6nrgFxxRqucJxm2eFU294K3hR6vaA7sSmKt" ] },
      { "delegate": "tz1S8MNvuFEUsWgjHvi3AxibRBf388NhT1q2",
        "reception_time": "2022-01-15T15:45:52.302-00:00",
        "included_in_blocks":
          [ "BKusJM7PHgtP2v2o6nrgFxxRqucJxm2eFU294K3hR6vaA7sSmKt" ] },
      { "delegate": "tz1aDiEJf9ztRrAJEXZfcG3CKimoKsGhwVAi",
        "reception_time": "2022-01-15T15:45:52.326-00:00",
        "included_in_blocks":
          [ "BKusJM7PHgtP2v2o6nrgFxxRqucJxm2eFU294K3hR6vaA7sSmKt" ] },
      { "delegate": "tz1LmaFsWRkjr7QMCx5PtV6xTUz3AmEpKQiF",
        "reception_time": "2022-01-15T15:45:52.384-00:00",
        "included_in_blocks":
          [ "BKusJM7PHgtP2v2o6nrgFxxRqucJxm2eFU294K3hR6vaA7sSmKt" ] },
      { "delegate": "tz1UMCB2AHSTwG7YcGNr31CqYCtGN873royv",
        "reception_time": "2022-01-15T15:45:52.417-00:00",
        "included_in_blocks":
          [ "BKusJM7PHgtP2v2o6nrgFxxRqucJxm2eFU294K3hR6vaA7sSmKt" ] },
      { "delegate": "tz3NDpRj6WBrJPikcPVHRBEjWKxFw3c6eQPS",
        "reception_time": "2022-01-15T15:45:52.497-00:00",
        "included_in_blocks":
          [ "BKusJM7PHgtP2v2o6nrgFxxRqucJxm2eFU294K3hR6vaA7sSmKt" ] },
      { "delegate": "tz1WBfwbT66FC6BTLexc2BoyCCBM9LG7pnVW",
        "reception_time": "2022-01-15T15:45:52.515-00:00",
        "included_in_blocks":
          [ "BKusJM7PHgtP2v2o6nrgFxxRqucJxm2eFU294K3hR6vaA7sSmKt" ] },
      { "delegate": "tz3S6BBeKgJGXxvLyZ1xzXzMPn11nnFtq5L9",
        "reception_time": "2022-01-15T15:45:52.596-00:00",
        "included_in_blocks":
          [ "BKusJM7PHgtP2v2o6nrgFxxRqucJxm2eFU294K3hR6vaA7sSmKt" ] },
      { "delegate": "tz1a3T5mRR1XWM1JgydvAqxEwpNs7ktVZuXc",
        "reception_time": "2022-01-15T15:45:52.610-00:00",
        "included_in_blocks":
          [ "BKusJM7PHgtP2v2o6nrgFxxRqucJxm2eFU294K3hR6vaA7sSmKt" ] },
      { "delegate": "tz3QT9dHYKDqh563chVa6za8526ys1UKfRfL",
        "reception_time": "2022-01-15T15:45:52.656-00:00",
        "included_in_blocks":
          [ "BKusJM7PHgtP2v2o6nrgFxxRqucJxm2eFU294K3hR6vaA7sSmKt" ] },
      { "delegate": "tz1Nf6tsK4G6bBqgSQERy4nUtkHNKUVdh7q1",
        "reception_time": "2022-01-15T15:45:52.765-00:00",
        "included_in_blocks":
          [ "BKusJM7PHgtP2v2o6nrgFxxRqucJxm2eFU294K3hR6vaA7sSmKt" ] },
      { "delegate": "tz1R4PuhxUxBBZhfLJDx2nNjbr7WorAPX1oC",
        "reception_time": "2022-01-15T15:45:52.826-00:00",
        "included_in_blocks":
          [ "BKusJM7PHgtP2v2o6nrgFxxRqucJxm2eFU294K3hR6vaA7sSmKt" ] },
      { "delegate": "tz3RB4aoyjov4KEVRbuhvQ1CKJgBJMWhaeB8",
        "reception_time": "2022-01-15T15:45:52.838-00:00",
        "included_in_blocks":
          [ "BKusJM7PHgtP2v2o6nrgFxxRqucJxm2eFU294K3hR6vaA7sSmKt" ] },
      { "delegate": "tz3bvNMQ95vfAYtG8193ymshqjSvmxiCUuR5",
        "reception_time": "2022-01-15T15:45:52.845-00:00",
        "included_in_blocks":
          [ "BKusJM7PHgtP2v2o6nrgFxxRqucJxm2eFU294K3hR6vaA7sSmKt" ] },
      { "delegate": "tz1LXpCpLNRhP7G9Yw8dRhWd8ZfH8929uvGo",
        "reception_time": "2022-01-15T15:45:53.011-00:00",
        "included_in_blocks":
          [ "BKusJM7PHgtP2v2o6nrgFxxRqucJxm2eFU294K3hR6vaA7sSmKt" ] },
      { "delegate": "tz1SYq214SCBy9naR6cvycQsYcUGpBqQAE8d",
        "reception_time": "2022-01-15T15:45:53.035-00:00",
        "included_in_blocks":
          [ "BKusJM7PHgtP2v2o6nrgFxxRqucJxm2eFU294K3hR6vaA7sSmKt" ] },
      { "delegate": "tz1Vd1rXpV8hTHbFXCXN3c3qzCsgcU5BZw1e",
        "reception_time": "2022-01-15T15:45:53.045-00:00",
        "included_in_blocks":
          [ "BKusJM7PHgtP2v2o6nrgFxxRqucJxm2eFU294K3hR6vaA7sSmKt" ] },
      { "delegate": "tz1KfEsrtDaA1sX7vdM4qmEPWuSytuqCDp5j",
        "reception_time": "2022-01-15T15:45:53.053-00:00",
        "included_in_blocks":
          [ "BKusJM7PHgtP2v2o6nrgFxxRqucJxm2eFU294K3hR6vaA7sSmKt" ] },
      { "delegate": "tz1NEKxGEHsFufk87CVZcrqWu8o22qh46GK6",
        "reception_time": "2022-01-15T15:45:53.056-00:00",
        "included_in_blocks":
          [ "BKusJM7PHgtP2v2o6nrgFxxRqucJxm2eFU294K3hR6vaA7sSmKt" ] },
      { "delegate": "tz1PeZx7FXy7QRuMREGXGxeipb24RsMMzUNe",
        "reception_time": "2022-01-15T15:45:53.082-00:00",
        "included_in_blocks":
          [ "BKusJM7PHgtP2v2o6nrgFxxRqucJxm2eFU294K3hR6vaA7sSmKt" ] },
      { "delegate": "tz3WMqdzXqRWXwyvj5Hp2H7QEepaUuS7vd9K",
        "reception_time": "2022-01-15T15:45:53.107-00:00",
        "included_in_blocks":
          [ "BKusJM7PHgtP2v2o6nrgFxxRqucJxm2eFU294K3hR6vaA7sSmKt" ] },
      { "delegate": "tz1RjoHc98dBoqaH2jawF62XNKh7YsHwbkEv",
        "reception_time": "2022-01-15T15:45:53.130-00:00",
        "included_in_blocks":
          [ "BKusJM7PHgtP2v2o6nrgFxxRqucJxm2eFU294K3hR6vaA7sSmKt" ] },
      { "delegate": "tz1SohptP53wDPZhzTWzDUFAUcWF6DMBpaJV",
        "reception_time": "2022-01-15T15:45:53.276-00:00",
        "included_in_blocks":
          [ "BKusJM7PHgtP2v2o6nrgFxxRqucJxm2eFU294K3hR6vaA7sSmKt" ] },
      { "delegate": "tz3VEZ4k6a4Wx42iyev6i2aVAptTRLEAivNN",
        "reception_time": "2022-01-15T15:45:53.304-00:00",
        "included_in_blocks":
          [ "BKusJM7PHgtP2v2o6nrgFxxRqucJxm2eFU294K3hR6vaA7sSmKt" ] },
      { "delegate": "tz1dNVDWPf3Q59SdJqnjdnu277iyvReiRS9M",
        "reception_time": "2022-01-15T15:45:53.308-00:00",
        "included_in_blocks":
          [ "BKusJM7PHgtP2v2o6nrgFxxRqucJxm2eFU294K3hR6vaA7sSmKt" ] },
      { "delegate": "tz2FCNBrERXtaTtNX6iimR1UJ5JSDxvdHM93",
        "reception_time": "2022-01-15T15:45:53.360-00:00",
        "included_in_blocks":
          [ "BKusJM7PHgtP2v2o6nrgFxxRqucJxm2eFU294K3hR6vaA7sSmKt" ] },
      { "delegate": "tz1chefX9Lf2XcZ4BzPtHjV4Qed6BY2ci9GE",
        "reception_time": "2022-01-15T15:45:53.427-00:00",
        "included_in_blocks":
          [ "BKusJM7PHgtP2v2o6nrgFxxRqucJxm2eFU294K3hR6vaA7sSmKt" ] },
      { "delegate": "tz1aRoaRhSpRYvFdyvgWLL6TGyRoGF51wDjM",
        "reception_time": "2022-01-15T15:45:53.573-00:00",
        "included_in_blocks":
          [ "BKusJM7PHgtP2v2o6nrgFxxRqucJxm2eFU294K3hR6vaA7sSmKt" ] },
      { "delegate": "tz3UoffC7FG7zfpmvmjUmUeAaHvzdcUvAj6r",
        "reception_time": "2022-01-15T15:45:53.732-00:00",
        "included_in_blocks":
          [ "BKusJM7PHgtP2v2o6nrgFxxRqucJxm2eFU294K3hR6vaA7sSmKt" ] },
      { "delegate": "tz1TRqbYbUf2GyrjErf3hBzgBJPzW8y36qEs",
        "reception_time": "2022-01-15T15:45:54.054-00:00",
        "included_in_blocks":
          [ "BKusJM7PHgtP2v2o6nrgFxxRqucJxm2eFU294K3hR6vaA7sSmKt" ] },
      { "delegate": "tz1RzwaogUQ8zPntqrSn4yn5f3VquXfEH5Jo",
        "reception_time": "2022-01-15T15:45:54.132-00:00",
        "included_in_blocks":
          [ "BKusJM7PHgtP2v2o6nrgFxxRqucJxm2eFU294K3hR6vaA7sSmKt" ] },
      { "delegate": "tz3NExpXn9aPNZPorRE4SdjJ2RGrfbJgMAaV",
        "reception_time": "2022-01-15T15:45:54.160-00:00",
        "included_in_blocks":
          [ "BKusJM7PHgtP2v2o6nrgFxxRqucJxm2eFU294K3hR6vaA7sSmKt" ] },
      { "delegate": "tz1ZcTRk5uxD86EFEn1vvNffWWqJy7q5eVhc",
        "reception_time": "2022-01-15T15:45:54.634-00:00",
        "included_in_blocks":
          [ "BKusJM7PHgtP2v2o6nrgFxxRqucJxm2eFU294K3hR6vaA7sSmKt" ] },
      { "delegate": "tz1g8vkmcde6sWKaG2NN9WKzCkDM6Rziq194",
        "reception_time": "2022-01-15T15:45:57.855-00:00",
        "included_in_blocks":
          [ "BKusJM7PHgtP2v2o6nrgFxxRqucJxm2eFU294K3hR6vaA7sSmKt" ] },
      { "delegate": "tz1go7f6mEQfT2xX2LuHAqgnRGN6c2zHPf5c",
        "reception_time": "2022-01-15T15:45:58.082-00:00",
        "included_in_blocks":
          [ "BKusJM7PHgtP2v2o6nrgFxxRqucJxm2eFU294K3hR6vaA7sSmKt" ] },
      { "delegate": "tz2BzJTyoQp8fNbfhWD4YQgH9JJHDgSGzpdG",
        "reception_time": "2022-01-15T15:45:58.170-00:00",
        "included_in_blocks":
          [ "BKusJM7PHgtP2v2o6nrgFxxRqucJxm2eFU294K3hR6vaA7sSmKt" ] },
      { "delegate": "tz1ZLKMBbvgMFbSUnsddKFtUFav29fEB4mkx",
        "reception_time": "2022-01-15T15:46:01.274-00:00",
        "included_in_blocks":
          [ "BKusJM7PHgtP2v2o6nrgFxxRqucJxm2eFU294K3hR6vaA7sSmKt" ] },
      { "delegate": "tz1NpWrAyDL9k2Lmnyxcgr9xuJakbBxdq7FB",
        "reception_time": "2022-01-15T15:46:02.301-00:00",
        "included_in_blocks":
          [ "BKusJM7PHgtP2v2o6nrgFxxRqucJxm2eFU294K3hR6vaA7sSmKt" ] } ] }