{ "blocks":
    [ { "hash": "BLfCykgUFVD9x8dSyfgxpgu3xgnkPq7UVJwHy9reyxHyonWueG3",
        "delegate": "tz1LmaFsWRkjr7QMCx5PtV6xTUz3AmEpKQiF",
        "reception_time": "2022-01-15T20:55:58.398-00:00",
        "timestamp": "2022-01-15T20:55:50Z" } ],
  "endorsements":
    [ { "delegate": "tz1P2Po7YM526ughEsRbY4oR9zaUPDZjxFrb",
        "reception_time": "2022-01-15T20:55:58.365-00:00",
        "errors":
          [ { "kind": "temporary",
              "id": "proto.011-PtHangz2.prefilter.outdated_endorsement" } ],
        "included_in_blocks":
          [ "BLCZRPPADyd763U7zsZLfZbVEqM7VuaZdpBQREcXFueHpwTQR9b" ] },
      { "delegate": "tz1Scdr2HsZiQjc7bHMeBbmDRXYVvdhjJbBh",
        "reception_time": "2022-01-15T20:56:00.518-00:00",
        "included_in_blocks":
          [ "BLCZRPPADyd763U7zsZLfZbVEqM7VuaZdpBQREcXFueHpwTQR9b" ] },
      { "delegate": "tz1Lhf4J9Qxoe3DZ2nfe8FGDnvVj7oKjnMY6",
        "reception_time": "2022-01-15T20:56:00.518-00:00",
        "included_in_blocks":
          [ "BLCZRPPADyd763U7zsZLfZbVEqM7VuaZdpBQREcXFueHpwTQR9b" ] },
      { "delegate": "tz1Ldzz6k1BHdhuKvAtMRX7h5kJSMHESMHLC",
        "reception_time": "2022-01-15T20:56:00.518-00:00",
        "included_in_blocks":
          [ "BLCZRPPADyd763U7zsZLfZbVEqM7VuaZdpBQREcXFueHpwTQR9b" ] },
      { "delegate": "tz1beersuEDv8Z7ngQ825xfbaJNS2EhXnyHR",
        "reception_time": "2022-01-15T20:56:00.518-00:00",
        "included_in_blocks":
          [ "BLCZRPPADyd763U7zsZLfZbVEqM7VuaZdpBQREcXFueHpwTQR9b" ] },
      { "delegate": "tz1Kf25fX1VdmYGSEzwFy1wNmkbSEZ2V83sY",
        "reception_time": "2022-01-15T20:56:00.518-00:00",
        "included_in_blocks":
          [ "BLCZRPPADyd763U7zsZLfZbVEqM7VuaZdpBQREcXFueHpwTQR9b" ] },
      { "delegate": "tz3QSGPoRp3Kn7n3vY24eYeu3Peuqo45LQ4D",
        "reception_time": "2022-01-15T20:56:00.529-00:00",
        "included_in_blocks":
          [ "BLCZRPPADyd763U7zsZLfZbVEqM7VuaZdpBQREcXFueHpwTQR9b" ] },
      { "delegate": "tz1LmaFsWRkjr7QMCx5PtV6xTUz3AmEpKQiF",
        "reception_time": "2022-01-15T20:56:00.542-00:00",
        "included_in_blocks":
          [ "BLCZRPPADyd763U7zsZLfZbVEqM7VuaZdpBQREcXFueHpwTQR9b" ] },
      { "delegate": "tz1eEnQhbwf6trb8Q8mPb2RaPkNk2rN7BKi8",
        "reception_time": "2022-01-15T20:56:00.546-00:00",
        "included_in_blocks":
          [ "BLCZRPPADyd763U7zsZLfZbVEqM7VuaZdpBQREcXFueHpwTQR9b" ] },
      { "delegate": "tz1Kt4P8BCaP93AEV4eA7gmpRryWt5hznjCP",
        "reception_time": "2022-01-15T20:56:00.556-00:00",
        "included_in_blocks":
          [ "BLCZRPPADyd763U7zsZLfZbVEqM7VuaZdpBQREcXFueHpwTQR9b" ] },
      { "delegate": "tz1irJKkXS2DBWkU1NnmFQx1c1L7pbGg4yhk",
        "reception_time": "2022-01-15T20:56:00.556-00:00",
        "included_in_blocks":
          [ "BLCZRPPADyd763U7zsZLfZbVEqM7VuaZdpBQREcXFueHpwTQR9b" ] },
      { "delegate": "tz3NxTnke1acr8o3h5y9ytf5awQBGNJUKzVU",
        "reception_time": "2022-01-15T20:56:00.567-00:00",
        "included_in_blocks":
          [ "BLCZRPPADyd763U7zsZLfZbVEqM7VuaZdpBQREcXFueHpwTQR9b" ] },
      { "delegate": "tz1VmiY38m3y95HqQLjMwqnMS7sdMfGomzKi",
        "reception_time": "2022-01-15T20:56:00.572-00:00",
        "included_in_blocks":
          [ "BLCZRPPADyd763U7zsZLfZbVEqM7VuaZdpBQREcXFueHpwTQR9b" ] },
      { "delegate": "tz1VQnqCCqX4K5sP3FNkVSNKTdCAMJDd3E1n",
        "reception_time": "2022-01-15T20:56:00.575-00:00",
        "included_in_blocks":
          [ "BLCZRPPADyd763U7zsZLfZbVEqM7VuaZdpBQREcXFueHpwTQR9b" ] },
      { "delegate": "tz3ZbP2pM3nwvXztbuMJwJnDvV5xdpU8UkkD",
        "reception_time": "2022-01-15T20:56:00.583-00:00",
        "included_in_blocks":
          [ "BLCZRPPADyd763U7zsZLfZbVEqM7VuaZdpBQREcXFueHpwTQR9b" ] },
      { "delegate": "tz3gtoUxdudfBRcNY7iVdKPHCYYX6xdPpoRS",
        "reception_time": "2022-01-15T20:56:00.591-00:00",
        "included_in_blocks":
          [ "BLCZRPPADyd763U7zsZLfZbVEqM7VuaZdpBQREcXFueHpwTQR9b" ] },
      { "delegate": "tz3RKYFsLuQzKBtmYuLNas7uMu3AsYd4QdsA",
        "reception_time": "2022-01-15T20:56:00.598-00:00",
        "included_in_blocks":
          [ "BLCZRPPADyd763U7zsZLfZbVEqM7VuaZdpBQREcXFueHpwTQR9b" ] },
      { "delegate": "tz1ei4WtWEMEJekSv8qDnu9PExG6Q8HgRGr3",
        "reception_time": "2022-01-15T20:56:00.605-00:00",
        "included_in_blocks":
          [ "BLCZRPPADyd763U7zsZLfZbVEqM7VuaZdpBQREcXFueHpwTQR9b" ] },
      { "delegate": "tz3Zhs2dygr55yHyQyKjntAtY9bgfhLZ4Xj1",
        "reception_time": "2022-01-15T20:56:00.621-00:00",
        "included_in_blocks":
          [ "BLCZRPPADyd763U7zsZLfZbVEqM7VuaZdpBQREcXFueHpwTQR9b" ] },
      { "delegate": "tz3QT9dHYKDqh563chVa6za8526ys1UKfRfL",
        "reception_time": "2022-01-15T20:56:00.631-00:00",
        "included_in_blocks":
          [ "BLCZRPPADyd763U7zsZLfZbVEqM7VuaZdpBQREcXFueHpwTQR9b" ] },
      { "delegate": "tz1gUNyn3hmnEWqkusWPzxRaon1cs7ndWh7h",
        "reception_time": "2022-01-15T20:56:00.702-00:00",
        "included_in_blocks":
          [ "BLCZRPPADyd763U7zsZLfZbVEqM7VuaZdpBQREcXFueHpwTQR9b" ] },
      { "delegate": "tz3hw2kqXhLUvY65ca1eety2oQTpAvd34R9Q",
        "reception_time": "2022-01-15T20:56:00.702-00:00",
        "included_in_blocks":
          [ "BLCZRPPADyd763U7zsZLfZbVEqM7VuaZdpBQREcXFueHpwTQR9b" ] },
      { "delegate": "tz1WCd2jm4uSt4vntk4vSuUWoZQGhLcDuR9q",
        "reception_time": "2022-01-15T20:56:00.712-00:00",
        "included_in_blocks":
          [ "BLCZRPPADyd763U7zsZLfZbVEqM7VuaZdpBQREcXFueHpwTQR9b" ] },
      { "delegate": "tz3S6BBeKgJGXxvLyZ1xzXzMPn11nnFtq5L9",
        "reception_time": "2022-01-15T20:56:00.712-00:00",
        "included_in_blocks":
          [ "BLCZRPPADyd763U7zsZLfZbVEqM7VuaZdpBQREcXFueHpwTQR9b" ] },
      { "delegate": "tz1RCFbB9GpALpsZtu6J58sb74dm8qe6XBzv",
        "reception_time": "2022-01-15T20:56:00.736-00:00",
        "included_in_blocks":
          [ "BLCZRPPADyd763U7zsZLfZbVEqM7VuaZdpBQREcXFueHpwTQR9b" ] },
      { "delegate": "tz1MQJPGNMijnXnVoBENFz9rUhaPt3S7rWoz",
        "reception_time": "2022-01-15T20:56:00.764-00:00",
        "included_in_blocks":
          [ "BLCZRPPADyd763U7zsZLfZbVEqM7VuaZdpBQREcXFueHpwTQR9b" ] },
      { "delegate": "tz1S8MNvuFEUsWgjHvi3AxibRBf388NhT1q2",
        "reception_time": "2022-01-15T20:56:00.767-00:00",
        "included_in_blocks":
          [ "BLCZRPPADyd763U7zsZLfZbVEqM7VuaZdpBQREcXFueHpwTQR9b" ] },
      { "delegate": "tz1gfArv665EUkSg2ojMBzcbfwuPxAvqPvjo",
        "reception_time": "2022-01-15T20:56:00.770-00:00",
        "included_in_blocks":
          [ "BLCZRPPADyd763U7zsZLfZbVEqM7VuaZdpBQREcXFueHpwTQR9b" ] },
      { "delegate": "tz1RpeqCseogMpCPXpyGjhmLH9i9DhqJ8cUR",
        "reception_time": "2022-01-15T20:56:00.793-00:00",
        "included_in_blocks":
          [ "BLCZRPPADyd763U7zsZLfZbVEqM7VuaZdpBQREcXFueHpwTQR9b" ] },
      { "delegate": "tz1fb7c66UwePkkfDXz4ajFaBP9hVNLdS7JJ",
        "reception_time": "2022-01-15T20:56:00.812-00:00",
        "included_in_blocks":
          [ "BLCZRPPADyd763U7zsZLfZbVEqM7VuaZdpBQREcXFueHpwTQR9b" ] },
      { "delegate": "tz1Tnjaxk6tbAeC2TmMApPh8UsrEVQvhHvx5",
        "reception_time": "2022-01-15T20:56:00.822-00:00",
        "included_in_blocks":
          [ "BLCZRPPADyd763U7zsZLfZbVEqM7VuaZdpBQREcXFueHpwTQR9b" ] },
      { "delegate": "tz1YhNsiRRU8aHNGg7NK3uuP6UDAyacJernB",
        "reception_time": "2022-01-15T20:56:00.827-00:00",
        "included_in_blocks":
          [ "BLCZRPPADyd763U7zsZLfZbVEqM7VuaZdpBQREcXFueHpwTQR9b" ] },
      { "delegate": "tz1Nf6tsK4G6bBqgSQERy4nUtkHNKUVdh7q1",
        "reception_time": "2022-01-15T20:56:00.841-00:00",
        "included_in_blocks":
          [ "BLCZRPPADyd763U7zsZLfZbVEqM7VuaZdpBQREcXFueHpwTQR9b" ] },
      { "delegate": "tz1TEc75UKXv4W5cwi14Na3NtqFD51yKQi7h",
        "reception_time": "2022-01-15T20:56:00.846-00:00",
        "included_in_blocks":
          [ "BLCZRPPADyd763U7zsZLfZbVEqM7VuaZdpBQREcXFueHpwTQR9b" ] },
      { "delegate": "tz2FCNBrERXtaTtNX6iimR1UJ5JSDxvdHM93",
        "reception_time": "2022-01-15T20:56:00.895-00:00",
        "included_in_blocks":
          [ "BLCZRPPADyd763U7zsZLfZbVEqM7VuaZdpBQREcXFueHpwTQR9b" ] },
      { "delegate": "tz3RB4aoyjov4KEVRbuhvQ1CKJgBJMWhaeB8",
        "reception_time": "2022-01-15T20:56:00.932-00:00",
        "included_in_blocks":
          [ "BLCZRPPADyd763U7zsZLfZbVEqM7VuaZdpBQREcXFueHpwTQR9b" ] },
      { "delegate": "tz1NortRftucvAkD1J58L32EhSVrQEWJCEnB",
        "reception_time": "2022-01-15T20:56:00.952-00:00",
        "included_in_blocks":
          [ "BLCZRPPADyd763U7zsZLfZbVEqM7VuaZdpBQREcXFueHpwTQR9b" ] },
      { "delegate": "tz1fwnfJNgiDACshK9avfRfFbMaXrs3ghoJa",
        "reception_time": "2022-01-15T20:56:00.980-00:00",
        "included_in_blocks":
          [ "BLCZRPPADyd763U7zsZLfZbVEqM7VuaZdpBQREcXFueHpwTQR9b" ] },
      { "delegate": "tz3bTdwZinP8U1JmSweNzVKhmwafqWmFWRfk",
        "reception_time": "2022-01-15T20:56:00.988-00:00",
        "included_in_blocks":
          [ "BLCZRPPADyd763U7zsZLfZbVEqM7VuaZdpBQREcXFueHpwTQR9b" ] },
      { "delegate": "tz1VceyYUpq1gk5dtp6jXQRtCtY8hm5DKt72",
        "reception_time": "2022-01-15T20:56:01.095-00:00",
        "included_in_blocks":
          [ "BLCZRPPADyd763U7zsZLfZbVEqM7VuaZdpBQREcXFueHpwTQR9b" ] },
      { "delegate": "tz1SUgyRB8T5jXgXAwS33pgRHAKrafyg87Yc",
        "reception_time": "2022-01-15T20:56:01.105-00:00",
        "included_in_blocks":
          [ "BLCZRPPADyd763U7zsZLfZbVEqM7VuaZdpBQREcXFueHpwTQR9b" ] },
      { "delegate": "tz1KfEsrtDaA1sX7vdM4qmEPWuSytuqCDp5j",
        "reception_time": "2022-01-15T20:56:01.165-00:00",
        "included_in_blocks":
          [ "BLCZRPPADyd763U7zsZLfZbVEqM7VuaZdpBQREcXFueHpwTQR9b" ] },
      { "delegate": "tz1Mc61yajNASzh5KWZFtYs4i7EJbzAxQC4K",
        "reception_time": "2022-01-15T20:56:01.194-00:00",
        "included_in_blocks":
          [ "BLCZRPPADyd763U7zsZLfZbVEqM7VuaZdpBQREcXFueHpwTQR9b" ] },
      { "delegate": "tz1SohptP53wDPZhzTWzDUFAUcWF6DMBpaJV",
        "reception_time": "2022-01-15T20:56:01.253-00:00",
        "included_in_blocks":
          [ "BLCZRPPADyd763U7zsZLfZbVEqM7VuaZdpBQREcXFueHpwTQR9b" ] },
      { "delegate": "tz3NDpRj6WBrJPikcPVHRBEjWKxFw3c6eQPS",
        "reception_time": "2022-01-15T20:56:01.285-00:00",
        "included_in_blocks":
          [ "BLCZRPPADyd763U7zsZLfZbVEqM7VuaZdpBQREcXFueHpwTQR9b" ] },
      { "delegate": "tz1NEKxGEHsFufk87CVZcrqWu8o22qh46GK6",
        "reception_time": "2022-01-15T20:56:01.387-00:00",
        "included_in_blocks":
          [ "BLCZRPPADyd763U7zsZLfZbVEqM7VuaZdpBQREcXFueHpwTQR9b" ] },
      { "delegate": "tz3WMqdzXqRWXwyvj5Hp2H7QEepaUuS7vd9K",
        "reception_time": "2022-01-15T20:56:01.410-00:00",
        "included_in_blocks":
          [ "BLCZRPPADyd763U7zsZLfZbVEqM7VuaZdpBQREcXFueHpwTQR9b" ] },
      { "delegate": "tz1PeZx7FXy7QRuMREGXGxeipb24RsMMzUNe",
        "reception_time": "2022-01-15T20:56:01.460-00:00",
        "included_in_blocks":
          [ "BLCZRPPADyd763U7zsZLfZbVEqM7VuaZdpBQREcXFueHpwTQR9b" ] },
      { "delegate": "tz3VEZ4k6a4Wx42iyev6i2aVAptTRLEAivNN",
        "reception_time": "2022-01-15T20:56:01.677-00:00",
        "included_in_blocks":
          [ "BLCZRPPADyd763U7zsZLfZbVEqM7VuaZdpBQREcXFueHpwTQR9b" ] },
      { "delegate": "tz1dRKU4FQ9QRRQPdaH4zCR6gmCmXfcvcgtB",
        "reception_time": "2022-01-15T20:56:01.721-00:00",
        "included_in_blocks":
          [ "BLCZRPPADyd763U7zsZLfZbVEqM7VuaZdpBQREcXFueHpwTQR9b" ] },
      { "delegate": "tz3bvNMQ95vfAYtG8193ymshqjSvmxiCUuR5",
        "reception_time": "2022-01-15T20:56:01.737-00:00",
        "included_in_blocks":
          [ "BLCZRPPADyd763U7zsZLfZbVEqM7VuaZdpBQREcXFueHpwTQR9b" ] },
      { "delegate": "tz1TRqbYbUf2GyrjErf3hBzgBJPzW8y36qEs",
        "reception_time": "2022-01-15T20:56:01.871-00:00",
        "included_in_blocks":
          [ "BLCZRPPADyd763U7zsZLfZbVEqM7VuaZdpBQREcXFueHpwTQR9b" ] },
      { "delegate": "tz1T7duV5gZWSTq4YpBGbXNLTfznCLDrFxvs",
        "reception_time": "2022-01-15T20:56:01.882-00:00",
        "included_in_blocks":
          [ "BLCZRPPADyd763U7zsZLfZbVEqM7VuaZdpBQREcXFueHpwTQR9b" ] },
      { "delegate": "tz1aRoaRhSpRYvFdyvgWLL6TGyRoGF51wDjM",
        "reception_time": "2022-01-15T20:56:01.967-00:00",
        "included_in_blocks":
          [ "BLCZRPPADyd763U7zsZLfZbVEqM7VuaZdpBQREcXFueHpwTQR9b" ] },
      { "delegate": "tz1cYufsxHXJcvANhvS55h3aY32a9BAFB494",
        "reception_time": "2022-01-15T20:56:02.143-00:00",
        "included_in_blocks":
          [ "BLCZRPPADyd763U7zsZLfZbVEqM7VuaZdpBQREcXFueHpwTQR9b" ] },
      { "delegate": "tz1dNVDWPf3Q59SdJqnjdnu277iyvReiRS9M",
        "reception_time": "2022-01-15T20:56:02.171-00:00",
        "included_in_blocks":
          [ "BLCZRPPADyd763U7zsZLfZbVEqM7VuaZdpBQREcXFueHpwTQR9b" ] },
      { "delegate": "tz1ivoFEvbfbUNav5FwLvmxzMGcNXWxY9qTD",
        "reception_time": "2022-01-15T20:56:02.285-00:00",
        "included_in_blocks":
          [ "BLCZRPPADyd763U7zsZLfZbVEqM7VuaZdpBQREcXFueHpwTQR9b" ] },
      { "delegate": "tz1RjoHc98dBoqaH2jawF62XNKh7YsHwbkEv",
        "reception_time": "2022-01-15T20:56:02.448-00:00",
        "included_in_blocks":
          [ "BLCZRPPADyd763U7zsZLfZbVEqM7VuaZdpBQREcXFueHpwTQR9b" ] },
      { "delegate": "tz3RDC3Jdn4j15J7bBHZd29EUee9gVB1CxD9",
        "reception_time": "2022-01-15T20:56:02.573-00:00",
        "included_in_blocks":
          [ "BLCZRPPADyd763U7zsZLfZbVEqM7VuaZdpBQREcXFueHpwTQR9b" ] },
      { "delegate": "tz3UoffC7FG7zfpmvmjUmUeAaHvzdcUvAj6r",
        "reception_time": "2022-01-15T20:56:02.696-00:00",
        "included_in_blocks":
          [ "BLCZRPPADyd763U7zsZLfZbVEqM7VuaZdpBQREcXFueHpwTQR9b" ] },
      { "delegate": "tz3NExpXn9aPNZPorRE4SdjJ2RGrfbJgMAaV",
        "reception_time": "2022-01-15T20:56:02.977-00:00",
        "included_in_blocks":
          [ "BLCZRPPADyd763U7zsZLfZbVEqM7VuaZdpBQREcXFueHpwTQR9b" ] },
      { "delegate": "tz1awXW7wuXy21c66vBudMXQVAPgRnqqwgTH",
        "reception_time": "2022-01-15T20:56:03.379-00:00",
        "included_in_blocks":
          [ "BLCZRPPADyd763U7zsZLfZbVEqM7VuaZdpBQREcXFueHpwTQR9b" ] },
      { "delegate": "tz1W5VkdB5s7ENMESVBtwyt9kyvLqPcUczRT",
        "reception_time": "2022-01-15T20:56:03.564-00:00",
        "included_in_blocks":
          [ "BLCZRPPADyd763U7zsZLfZbVEqM7VuaZdpBQREcXFueHpwTQR9b" ] },
      { "delegate": "tz1i3mhawFAgcB8JHaHwoUF6hdncwTAkLEn2",
        "reception_time": "2022-01-15T20:56:03.785-00:00",
        "included_in_blocks":
          [ "BLCZRPPADyd763U7zsZLfZbVEqM7VuaZdpBQREcXFueHpwTQR9b" ] },
      { "delegate": "tz1ZcTRk5uxD86EFEn1vvNffWWqJy7q5eVhc",
        "reception_time": "2022-01-15T20:56:04.060-00:00",
        "included_in_blocks":
          [ "BLCZRPPADyd763U7zsZLfZbVEqM7VuaZdpBQREcXFueHpwTQR9b" ] },
      { "delegate": "tz1f3Re8iw6Pt3KMHAvyccHxDU3NuqL95axD",
        "reception_time": "2022-01-15T20:56:04.610-00:00",
        "included_in_blocks":
          [ "BLCZRPPADyd763U7zsZLfZbVEqM7VuaZdpBQREcXFueHpwTQR9b" ] },
      { "delegate": "tz1PFeoTuFen8jAMRHajBySNyCwLmY5RqF9M",
        "reception_time": "2022-01-15T20:56:04.996-00:00",
        "included_in_blocks":
          [ "BLCZRPPADyd763U7zsZLfZbVEqM7VuaZdpBQREcXFueHpwTQR9b" ] },
      { "delegate": "tz1NpWrAyDL9k2Lmnyxcgr9xuJakbBxdq7FB",
        "reception_time": "2022-01-15T20:56:11.146-00:00",
        "included_in_blocks":
          [ "BLCZRPPADyd763U7zsZLfZbVEqM7VuaZdpBQREcXFueHpwTQR9b" ] } ] }