{ "blocks":
    [ { "hash": "BLNnsbMN6TFSPvafxjsmfF5CHxQvw4Jpsnpt1qdaMFPEAYTroPm",
        "delegate": "tz1irJKkXS2DBWkU1NnmFQx1c1L7pbGg4yhk",
        "reception_time": "2022-01-15T16:56:15.678-00:00",
        "timestamp": "2022-01-15T16:56:10Z" } ],
  "endorsements":
    [ { "delegate": "tz1TRspM5SeZpaQUhzByXbEvqKF1vnCM2YTK" },
      { "delegate": "tz1irJKkXS2DBWkU1NnmFQx1c1L7pbGg4yhk",
        "reception_time": "2022-01-15T16:56:15.627-00:00",
        "errors":
          [ { "kind": "temporary",
              "id": "proto.011-PtHangz2.prefilter.outdated_endorsement" } ],
        "included_in_blocks":
          [ "BLUB5Ky22chbbJGF4ZgzjwZDsa5cY9hDtrokPQrowSGEdVZpbHJ" ] },
      { "delegate": "tz1P2Po7YM526ughEsRbY4oR9zaUPDZjxFrb",
        "reception_time": "2022-01-15T16:56:15.234-00:00",
        "errors":
          [ { "kind": "temporary",
              "id": "proto.011-PtHangz2.prefilter.outdated_endorsement" } ],
        "included_in_blocks":
          [ "BLUB5Ky22chbbJGF4ZgzjwZDsa5cY9hDtrokPQrowSGEdVZpbHJ" ] },
      { "delegate": "tz1S8e9GgdZG78XJRB3NqabfWeM37GnhZMWQ",
        "reception_time": "2022-01-15T16:56:15.145-00:00",
        "errors":
          [ { "kind": "temporary",
              "id": "proto.011-PtHangz2.prefilter.outdated_endorsement" } ],
        "included_in_blocks":
          [ "BLUB5Ky22chbbJGF4ZgzjwZDsa5cY9hDtrokPQrowSGEdVZpbHJ" ] },
      { "delegate": "tz3e7LbZvUtoXhpUD1yb6wuFodZpfYRb9nWJ",
        "reception_time": "2022-01-15T16:56:25.997-00:00",
        "included_in_blocks":
          [ "BLUB5Ky22chbbJGF4ZgzjwZDsa5cY9hDtrokPQrowSGEdVZpbHJ" ] },
      { "delegate": "tz1NpWrAyDL9k2Lmnyxcgr9xuJakbBxdq7FB",
        "reception_time": "2022-01-15T16:56:23.711-00:00",
        "included_in_blocks":
          [ "BLUB5Ky22chbbJGF4ZgzjwZDsa5cY9hDtrokPQrowSGEdVZpbHJ" ] },
      { "delegate": "tz1cYufsxHXJcvANhvS55h3aY32a9BAFB494",
        "reception_time": "2022-01-15T16:56:20.450-00:00",
        "included_in_blocks":
          [ "BLUB5Ky22chbbJGF4ZgzjwZDsa5cY9hDtrokPQrowSGEdVZpbHJ" ] },
      { "delegate": "tz1aJS7Pk9uWR3wWyFf1i3RwhYxN84G7stom",
        "reception_time": "2022-01-15T16:56:20.250-00:00",
        "included_in_blocks":
          [ "BLUB5Ky22chbbJGF4ZgzjwZDsa5cY9hDtrokPQrowSGEdVZpbHJ" ] },
      { "delegate": "tz1awXW7wuXy21c66vBudMXQVAPgRnqqwgTH",
        "reception_time": "2022-01-15T16:56:19.825-00:00",
        "included_in_blocks":
          [ "BLUB5Ky22chbbJGF4ZgzjwZDsa5cY9hDtrokPQrowSGEdVZpbHJ" ] },
      { "delegate": "tz1ZcTRk5uxD86EFEn1vvNffWWqJy7q5eVhc",
        "reception_time": "2022-01-15T16:56:19.762-00:00",
        "included_in_blocks":
          [ "BLUB5Ky22chbbJGF4ZgzjwZDsa5cY9hDtrokPQrowSGEdVZpbHJ" ] },
      { "delegate": "tz3NExpXn9aPNZPorRE4SdjJ2RGrfbJgMAaV",
        "reception_time": "2022-01-15T16:56:19.795-00:00",
        "included_in_blocks":
          [ "BLUB5Ky22chbbJGF4ZgzjwZDsa5cY9hDtrokPQrowSGEdVZpbHJ" ] },
      { "delegate": "tz1dRKU4FQ9QRRQPdaH4zCR6gmCmXfcvcgtB",
        "reception_time": "2022-01-15T16:56:18.996-00:00",
        "included_in_blocks":
          [ "BLUB5Ky22chbbJGF4ZgzjwZDsa5cY9hDtrokPQrowSGEdVZpbHJ" ] },
      { "delegate": "tz1aRoaRhSpRYvFdyvgWLL6TGyRoGF51wDjM",
        "reception_time": "2022-01-15T16:56:18.898-00:00",
        "included_in_blocks":
          [ "BLUB5Ky22chbbJGF4ZgzjwZDsa5cY9hDtrokPQrowSGEdVZpbHJ" ] },
      { "delegate": "tz1TRqbYbUf2GyrjErf3hBzgBJPzW8y36qEs",
        "reception_time": "2022-01-15T16:56:18.729-00:00",
        "included_in_blocks":
          [ "BLUB5Ky22chbbJGF4ZgzjwZDsa5cY9hDtrokPQrowSGEdVZpbHJ" ] },
      { "delegate": "tz3VEZ4k6a4Wx42iyev6i2aVAptTRLEAivNN",
        "reception_time": "2022-01-15T16:56:18.628-00:00",
        "included_in_blocks":
          [ "BLUB5Ky22chbbJGF4ZgzjwZDsa5cY9hDtrokPQrowSGEdVZpbHJ" ] },
      { "delegate": "tz3WMqdzXqRWXwyvj5Hp2H7QEepaUuS7vd9K",
        "reception_time": "2022-01-15T16:56:18.570-00:00",
        "included_in_blocks":
          [ "BLUB5Ky22chbbJGF4ZgzjwZDsa5cY9hDtrokPQrowSGEdVZpbHJ" ] },
      { "delegate": "tz1NEKxGEHsFufk87CVZcrqWu8o22qh46GK6",
        "reception_time": "2022-01-15T16:56:18.709-00:00",
        "included_in_blocks":
          [ "BLUB5Ky22chbbJGF4ZgzjwZDsa5cY9hDtrokPQrowSGEdVZpbHJ" ] },
      { "delegate": "tz1Z2jXfEXL7dXhs6bsLmyLFLfmAkXBzA9WE",
        "reception_time": "2022-01-15T16:56:18.606-00:00",
        "included_in_blocks":
          [ "BLUB5Ky22chbbJGF4ZgzjwZDsa5cY9hDtrokPQrowSGEdVZpbHJ" ] },
      { "delegate": "tz1SohptP53wDPZhzTWzDUFAUcWF6DMBpaJV",
        "reception_time": "2022-01-15T16:56:18.341-00:00",
        "included_in_blocks":
          [ "BLUB5Ky22chbbJGF4ZgzjwZDsa5cY9hDtrokPQrowSGEdVZpbHJ" ] },
      { "delegate": "tz3RB4aoyjov4KEVRbuhvQ1CKJgBJMWhaeB8",
        "reception_time": "2022-01-15T16:56:18.387-00:00",
        "included_in_blocks":
          [ "BLUB5Ky22chbbJGF4ZgzjwZDsa5cY9hDtrokPQrowSGEdVZpbHJ" ] },
      { "delegate": "tz1dNVDWPf3Q59SdJqnjdnu277iyvReiRS9M",
        "reception_time": "2022-01-15T16:56:18.340-00:00",
        "included_in_blocks":
          [ "BLUB5Ky22chbbJGF4ZgzjwZDsa5cY9hDtrokPQrowSGEdVZpbHJ" ] },
      { "delegate": "tz3RDC3Jdn4j15J7bBHZd29EUee9gVB1CxD9",
        "reception_time": "2022-01-15T16:56:18.375-00:00",
        "included_in_blocks":
          [ "BLUB5Ky22chbbJGF4ZgzjwZDsa5cY9hDtrokPQrowSGEdVZpbHJ" ] },
      { "delegate": "tz1axcnVN9tZnCe4sQQhC6f3tfSEXdjPaXPY",
        "reception_time": "2022-01-15T16:56:18.361-00:00",
        "included_in_blocks":
          [ "BLUB5Ky22chbbJGF4ZgzjwZDsa5cY9hDtrokPQrowSGEdVZpbHJ" ] },
      { "delegate": "tz2FCNBrERXtaTtNX6iimR1UJ5JSDxvdHM93",
        "reception_time": "2022-01-15T16:56:18.398-00:00",
        "included_in_blocks":
          [ "BLUB5Ky22chbbJGF4ZgzjwZDsa5cY9hDtrokPQrowSGEdVZpbHJ" ] },
      { "delegate": "tz1T7duV5gZWSTq4YpBGbXNLTfznCLDrFxvs",
        "reception_time": "2022-01-15T16:56:18.364-00:00",
        "included_in_blocks":
          [ "BLUB5Ky22chbbJGF4ZgzjwZDsa5cY9hDtrokPQrowSGEdVZpbHJ" ] },
      { "delegate": "tz3NDpRj6WBrJPikcPVHRBEjWKxFw3c6eQPS",
        "reception_time": "2022-01-15T16:56:17.933-00:00",
        "included_in_blocks":
          [ "BLUB5Ky22chbbJGF4ZgzjwZDsa5cY9hDtrokPQrowSGEdVZpbHJ" ] },
      { "delegate": "tz3UoffC7FG7zfpmvmjUmUeAaHvzdcUvAj6r",
        "reception_time": "2022-01-15T16:56:18.131-00:00",
        "included_in_blocks":
          [ "BLUB5Ky22chbbJGF4ZgzjwZDsa5cY9hDtrokPQrowSGEdVZpbHJ" ] },
      { "delegate": "tz1SYq214SCBy9naR6cvycQsYcUGpBqQAE8d",
        "reception_time": "2022-01-15T16:56:18.001-00:00",
        "included_in_blocks":
          [ "BLUB5Ky22chbbJGF4ZgzjwZDsa5cY9hDtrokPQrowSGEdVZpbHJ" ] },
      { "delegate": "tz1fwnfJNgiDACshK9avfRfFbMaXrs3ghoJa",
        "reception_time": "2022-01-15T16:56:17.825-00:00",
        "included_in_blocks":
          [ "BLUB5Ky22chbbJGF4ZgzjwZDsa5cY9hDtrokPQrowSGEdVZpbHJ" ] },
      { "delegate": "tz1WBfwbT66FC6BTLexc2BoyCCBM9LG7pnVW",
        "reception_time": "2022-01-15T16:56:17.633-00:00",
        "included_in_blocks":
          [ "BLUB5Ky22chbbJGF4ZgzjwZDsa5cY9hDtrokPQrowSGEdVZpbHJ" ] },
      { "delegate": "tz1WnfXMPaNTBmH7DBPwqCWs9cPDJdkGBTZ8",
        "reception_time": "2022-01-15T16:56:17.724-00:00",
        "included_in_blocks":
          [ "BLUB5Ky22chbbJGF4ZgzjwZDsa5cY9hDtrokPQrowSGEdVZpbHJ" ] },
      { "delegate": "tz3adcvQaKXTCg12zbninqo3q8ptKKtDFTLv",
        "reception_time": "2022-01-15T16:56:17.757-00:00",
        "included_in_blocks":
          [ "BLUB5Ky22chbbJGF4ZgzjwZDsa5cY9hDtrokPQrowSGEdVZpbHJ" ] },
      { "delegate": "tz1S8MNvuFEUsWgjHvi3AxibRBf388NhT1q2",
        "reception_time": "2022-01-15T16:56:17.692-00:00",
        "included_in_blocks":
          [ "BLUB5Ky22chbbJGF4ZgzjwZDsa5cY9hDtrokPQrowSGEdVZpbHJ" ] },
      { "delegate": "tz1Nf6tsK4G6bBqgSQERy4nUtkHNKUVdh7q1",
        "reception_time": "2022-01-15T16:56:17.588-00:00",
        "included_in_blocks":
          [ "BLUB5Ky22chbbJGF4ZgzjwZDsa5cY9hDtrokPQrowSGEdVZpbHJ" ] },
      { "delegate": "tz1SUgyRB8T5jXgXAwS33pgRHAKrafyg87Yc",
        "reception_time": "2022-01-15T16:56:17.636-00:00",
        "included_in_blocks":
          [ "BLUB5Ky22chbbJGF4ZgzjwZDsa5cY9hDtrokPQrowSGEdVZpbHJ" ] },
      { "delegate": "tz1V4qCyvPKZ5UeqdH14HN42rxvNPQfc9UZg",
        "reception_time": "2022-01-15T16:56:17.517-00:00",
        "included_in_blocks":
          [ "BLUB5Ky22chbbJGF4ZgzjwZDsa5cY9hDtrokPQrowSGEdVZpbHJ" ] },
      { "delegate": "tz1RCFbB9GpALpsZtu6J58sb74dm8qe6XBzv",
        "reception_time": "2022-01-15T16:56:17.660-00:00",
        "included_in_blocks":
          [ "BLUB5Ky22chbbJGF4ZgzjwZDsa5cY9hDtrokPQrowSGEdVZpbHJ" ] },
      { "delegate": "tz1aDiEJf9ztRrAJEXZfcG3CKimoKsGhwVAi",
        "reception_time": "2022-01-15T16:56:17.400-00:00",
        "included_in_blocks":
          [ "BLUB5Ky22chbbJGF4ZgzjwZDsa5cY9hDtrokPQrowSGEdVZpbHJ" ] },
      { "delegate": "tz1NortRftucvAkD1J58L32EhSVrQEWJCEnB",
        "reception_time": "2022-01-15T16:56:17.413-00:00",
        "included_in_blocks":
          [ "BLUB5Ky22chbbJGF4ZgzjwZDsa5cY9hDtrokPQrowSGEdVZpbHJ" ] },
      { "delegate": "tz1UbFpJY5Hext38GisuaXQBkbzhaKJkxpEs",
        "reception_time": "2022-01-15T16:56:17.280-00:00",
        "included_in_blocks":
          [ "BLUB5Ky22chbbJGF4ZgzjwZDsa5cY9hDtrokPQrowSGEdVZpbHJ" ] },
      { "delegate": "tz3bTdwZinP8U1JmSweNzVKhmwafqWmFWRfk",
        "reception_time": "2022-01-15T16:56:17.364-00:00",
        "included_in_blocks":
          [ "BLUB5Ky22chbbJGF4ZgzjwZDsa5cY9hDtrokPQrowSGEdVZpbHJ" ] },
      { "delegate": "tz1NSDFKuRyzHxpfG1AMkyCwEiZ52cbR2mRW",
        "reception_time": "2022-01-15T16:56:17.169-00:00",
        "included_in_blocks":
          [ "BLUB5Ky22chbbJGF4ZgzjwZDsa5cY9hDtrokPQrowSGEdVZpbHJ" ] },
      { "delegate": "tz1gfArv665EUkSg2ojMBzcbfwuPxAvqPvjo",
        "reception_time": "2022-01-15T16:56:17.250-00:00",
        "included_in_blocks":
          [ "BLUB5Ky22chbbJGF4ZgzjwZDsa5cY9hDtrokPQrowSGEdVZpbHJ" ] },
      { "delegate": "tz1iPHM2Xx2hwmzcr1EG1zzrV6oKafVoA91m",
        "reception_time": "2022-01-15T16:56:17.318-00:00",
        "included_in_blocks":
          [ "BLUB5Ky22chbbJGF4ZgzjwZDsa5cY9hDtrokPQrowSGEdVZpbHJ" ] },
      { "delegate": "tz1ei4WtWEMEJekSv8qDnu9PExG6Q8HgRGr3",
        "reception_time": "2022-01-15T16:56:17.313-00:00",
        "included_in_blocks":
          [ "BLUB5Ky22chbbJGF4ZgzjwZDsa5cY9hDtrokPQrowSGEdVZpbHJ" ] },
      { "delegate": "tz3bvNMQ95vfAYtG8193ymshqjSvmxiCUuR5",
        "reception_time": "2022-01-15T16:56:17.067-00:00",
        "included_in_blocks":
          [ "BLUB5Ky22chbbJGF4ZgzjwZDsa5cY9hDtrokPQrowSGEdVZpbHJ" ] },
      { "delegate": "tz1YhNsiRRU8aHNGg7NK3uuP6UDAyacJernB",
        "reception_time": "2022-01-15T16:56:17.039-00:00",
        "included_in_blocks":
          [ "BLUB5Ky22chbbJGF4ZgzjwZDsa5cY9hDtrokPQrowSGEdVZpbHJ" ] },
      { "delegate": "tz1PWCDnz783NNGGQjEFFsHtrcK5yBW4E2rm",
        "reception_time": "2022-01-15T16:56:17.194-00:00",
        "included_in_blocks":
          [ "BLUB5Ky22chbbJGF4ZgzjwZDsa5cY9hDtrokPQrowSGEdVZpbHJ" ] },
      { "delegate": "tz1WCd2jm4uSt4vntk4vSuUWoZQGhLcDuR9q",
        "reception_time": "2022-01-15T16:56:17.017-00:00",
        "included_in_blocks":
          [ "BLUB5Ky22chbbJGF4ZgzjwZDsa5cY9hDtrokPQrowSGEdVZpbHJ" ] },
      { "delegate": "tz1VmiY38m3y95HqQLjMwqnMS7sdMfGomzKi",
        "reception_time": "2022-01-15T16:56:16.984-00:00",
        "included_in_blocks":
          [ "BLUB5Ky22chbbJGF4ZgzjwZDsa5cY9hDtrokPQrowSGEdVZpbHJ" ] },
      { "delegate": "tz3Zhs2dygr55yHyQyKjntAtY9bgfhLZ4Xj1",
        "reception_time": "2022-01-15T16:56:16.958-00:00",
        "included_in_blocks":
          [ "BLUB5Ky22chbbJGF4ZgzjwZDsa5cY9hDtrokPQrowSGEdVZpbHJ" ] },
      { "delegate": "tz3iJu5vrKZcsqRPs8yJ61UDoeEXZmtro4qh",
        "reception_time": "2022-01-15T16:56:16.917-00:00",
        "included_in_blocks":
          [ "BLUB5Ky22chbbJGF4ZgzjwZDsa5cY9hDtrokPQrowSGEdVZpbHJ" ] },
      { "delegate": "tz3QCNyySViKHmeSr45kzDxzchys7NiXCWoa",
        "reception_time": "2022-01-15T16:56:16.888-00:00",
        "included_in_blocks":
          [ "BLUB5Ky22chbbJGF4ZgzjwZDsa5cY9hDtrokPQrowSGEdVZpbHJ" ] },
      { "delegate": "tz3RKYFsLuQzKBtmYuLNas7uMu3AsYd4QdsA",
        "reception_time": "2022-01-15T16:56:16.938-00:00",
        "included_in_blocks":
          [ "BLUB5Ky22chbbJGF4ZgzjwZDsa5cY9hDtrokPQrowSGEdVZpbHJ" ] },
      { "delegate": "tz3hw2kqXhLUvY65ca1eety2oQTpAvd34R9Q",
        "reception_time": "2022-01-15T16:56:16.931-00:00",
        "included_in_blocks":
          [ "BLUB5Ky22chbbJGF4ZgzjwZDsa5cY9hDtrokPQrowSGEdVZpbHJ" ] },
      { "delegate": "tz1TzaNn7wSQSP5gYPXCnNzBCpyMiidCq1PX",
        "reception_time": "2022-01-15T16:56:16.940-00:00",
        "included_in_blocks":
          [ "BLUB5Ky22chbbJGF4ZgzjwZDsa5cY9hDtrokPQrowSGEdVZpbHJ" ] },
      { "delegate": "tz1aXD7Jigrt3PBYSpHSg5Rr33SexMmmM5Ys",
        "reception_time": "2022-01-15T16:56:16.922-00:00",
        "included_in_blocks":
          [ "BLUB5Ky22chbbJGF4ZgzjwZDsa5cY9hDtrokPQrowSGEdVZpbHJ" ] },
      { "delegate": "tz3QT9dHYKDqh563chVa6za8526ys1UKfRfL",
        "reception_time": "2022-01-15T16:56:16.881-00:00",
        "included_in_blocks":
          [ "BLUB5Ky22chbbJGF4ZgzjwZDsa5cY9hDtrokPQrowSGEdVZpbHJ" ] },
      { "delegate": "tz3S6BBeKgJGXxvLyZ1xzXzMPn11nnFtq5L9",
        "reception_time": "2022-01-15T16:56:16.874-00:00",
        "included_in_blocks":
          [ "BLUB5Ky22chbbJGF4ZgzjwZDsa5cY9hDtrokPQrowSGEdVZpbHJ" ] },
      { "delegate": "tz3gtoUxdudfBRcNY7iVdKPHCYYX6xdPpoRS",
        "reception_time": "2022-01-15T16:56:16.949-00:00",
        "included_in_blocks":
          [ "BLUB5Ky22chbbJGF4ZgzjwZDsa5cY9hDtrokPQrowSGEdVZpbHJ" ] },
      { "delegate": "tz3QSGPoRp3Kn7n3vY24eYeu3Peuqo45LQ4D",
        "reception_time": "2022-01-15T16:56:16.966-00:00",
        "included_in_blocks":
          [ "BLUB5Ky22chbbJGF4ZgzjwZDsa5cY9hDtrokPQrowSGEdVZpbHJ" ] },
      { "delegate": "tz3ZbP2pM3nwvXztbuMJwJnDvV5xdpU8UkkD",
        "reception_time": "2022-01-15T16:56:16.868-00:00",
        "included_in_blocks":
          [ "BLUB5Ky22chbbJGF4ZgzjwZDsa5cY9hDtrokPQrowSGEdVZpbHJ" ] },
      { "delegate": "tz3NxTnke1acr8o3h5y9ytf5awQBGNJUKzVU",
        "reception_time": "2022-01-15T16:56:16.846-00:00",
        "included_in_blocks":
          [ "BLUB5Ky22chbbJGF4ZgzjwZDsa5cY9hDtrokPQrowSGEdVZpbHJ" ] },
      { "delegate": "tz1Ldzz6k1BHdhuKvAtMRX7h5kJSMHESMHLC",
        "reception_time": "2022-01-15T16:56:16.833-00:00",
        "included_in_blocks":
          [ "BLUB5Ky22chbbJGF4ZgzjwZDsa5cY9hDtrokPQrowSGEdVZpbHJ" ] },
      { "delegate": "tz1Kf25fX1VdmYGSEzwFy1wNmkbSEZ2V83sY",
        "reception_time": "2022-01-15T16:56:16.856-00:00",
        "included_in_blocks":
          [ "BLUB5Ky22chbbJGF4ZgzjwZDsa5cY9hDtrokPQrowSGEdVZpbHJ" ] },
      { "delegate": "tz1VQnqCCqX4K5sP3FNkVSNKTdCAMJDd3E1n",
        "reception_time": "2022-01-15T16:56:16.890-00:00",
        "included_in_blocks":
          [ "BLUB5Ky22chbbJGF4ZgzjwZDsa5cY9hDtrokPQrowSGEdVZpbHJ" ] },
      { "delegate": "tz1gUNyn3hmnEWqkusWPzxRaon1cs7ndWh7h",
        "reception_time": "2022-01-15T16:56:16.859-00:00",
        "included_in_blocks":
          [ "BLUB5Ky22chbbJGF4ZgzjwZDsa5cY9hDtrokPQrowSGEdVZpbHJ" ] },
      { "delegate": "tz1d9ek6HrScY6QRZ71NJdB85MNz8gKGBjrv",
        "reception_time": "2022-01-15T16:56:16.893-00:00",
        "included_in_blocks":
          [ "BLUB5Ky22chbbJGF4ZgzjwZDsa5cY9hDtrokPQrowSGEdVZpbHJ" ] },
      { "delegate": "tz1eEnQhbwf6trb8Q8mPb2RaPkNk2rN7BKi8",
        "reception_time": "2022-01-15T16:56:16.815-00:00",
        "included_in_blocks":
          [ "BLUB5Ky22chbbJGF4ZgzjwZDsa5cY9hDtrokPQrowSGEdVZpbHJ" ] },
      { "delegate": "tz1TXzyaKUA8wsWefdSnyaYFnV2M3vCV7er9",
        "reception_time": "2022-01-15T16:56:16.820-00:00",
        "included_in_blocks":
          [ "BLUB5Ky22chbbJGF4ZgzjwZDsa5cY9hDtrokPQrowSGEdVZpbHJ" ] },
      { "delegate": "tz1STeamwbp68THcny9zk3LsbG3H36DMvbRK",
        "reception_time": "2022-01-15T16:56:16.815-00:00",
        "included_in_blocks":
          [ "BLUB5Ky22chbbJGF4ZgzjwZDsa5cY9hDtrokPQrowSGEdVZpbHJ" ] } ] }