{ "blocks":
    [ { "hash": "BLhymaYaxRQWccwjnWtJPRe5fdQLgGuowsEShUdqyFi759g8Kad",
        "delegate": "tz1ZcTRk5uxD86EFEn1vvNffWWqJy7q5eVhc",
        "reception_time": "2022-01-15T16:46:21.400-00:00",
        "timestamp": "2022-01-15T16:46:10Z" } ],
  "endorsements":
    [ { "delegate": "tz1XXayQohB8XRXN7kMoHbf2NFwNiH3oMRQQ",
        "reception_time": "2022-01-15T16:46:21.291-00:00",
        "errors":
          [ { "kind": "temporary",
              "id": "proto.011-PtHangz2.prefilter.outdated_endorsement" } ],
        "included_in_blocks":
          [ "BMbPX5fuJETjned6fYAt5uF9ySadcigYc2mPZAQUaFhJYqLJ1nc" ] },
      { "delegate": "tz1P2Po7YM526ughEsRbY4oR9zaUPDZjxFrb",
        "reception_time": "2022-01-15T16:46:21.023-00:00",
        "errors":
          [ { "kind": "temporary",
              "id": "proto.011-PtHangz2.prefilter.outdated_endorsement" } ],
        "included_in_blocks":
          [ "BMbPX5fuJETjned6fYAt5uF9ySadcigYc2mPZAQUaFhJYqLJ1nc" ] },
      { "delegate": "tz1QJU1PuKUP5ZQxUr4pHZjCHGRvJSpcXv7G" },
      { "delegate": "tz1TRspM5SeZpaQUhzByXbEvqKF1vnCM2YTK" },
      { "delegate": "tz1dbfppLAAxXZNtf2SDps7rch3qfUznKSoK" },
      { "delegate": "tz1ibcPVGK4Y8pcW4BYUsojiHoBKnZbyDGrX" },
      { "delegate": "tz1STeamwbp68THcny9zk3LsbG3H36DMvbRK",
        "reception_time": "2022-01-15T16:46:22.591-00:00",
        "included_in_blocks":
          [ "BMbPX5fuJETjned6fYAt5uF9ySadcigYc2mPZAQUaFhJYqLJ1nc" ] },
      { "delegate": "tz1Scdr2HsZiQjc7bHMeBbmDRXYVvdhjJbBh",
        "reception_time": "2022-01-15T16:46:22.591-00:00",
        "included_in_blocks":
          [ "BMbPX5fuJETjned6fYAt5uF9ySadcigYc2mPZAQUaFhJYqLJ1nc" ] },
      { "delegate": "tz1eEnQhbwf6trb8Q8mPb2RaPkNk2rN7BKi8",
        "reception_time": "2022-01-15T16:46:22.591-00:00",
        "included_in_blocks":
          [ "BMbPX5fuJETjned6fYAt5uF9ySadcigYc2mPZAQUaFhJYqLJ1nc" ] },
      { "delegate": "tz1Kf25fX1VdmYGSEzwFy1wNmkbSEZ2V83sY",
        "reception_time": "2022-01-15T16:46:22.591-00:00",
        "included_in_blocks":
          [ "BMbPX5fuJETjned6fYAt5uF9ySadcigYc2mPZAQUaFhJYqLJ1nc" ] },
      { "delegate": "tz1irJKkXS2DBWkU1NnmFQx1c1L7pbGg4yhk",
        "reception_time": "2022-01-15T16:46:22.591-00:00",
        "included_in_blocks":
          [ "BMbPX5fuJETjned6fYAt5uF9ySadcigYc2mPZAQUaFhJYqLJ1nc" ] },
      { "delegate": "tz1beersuEDv8Z7ngQ825xfbaJNS2EhXnyHR",
        "reception_time": "2022-01-15T16:46:22.591-00:00",
        "included_in_blocks":
          [ "BMbPX5fuJETjned6fYAt5uF9ySadcigYc2mPZAQUaFhJYqLJ1nc" ] },
      { "delegate": "tz1VQnqCCqX4K5sP3FNkVSNKTdCAMJDd3E1n",
        "reception_time": "2022-01-15T16:46:22.591-00:00",
        "included_in_blocks":
          [ "BMbPX5fuJETjned6fYAt5uF9ySadcigYc2mPZAQUaFhJYqLJ1nc" ] },
      { "delegate": "tz1eDDuQBEgwvc6tbnnCVrnr12tvrd6gBTpx",
        "reception_time": "2022-01-15T16:46:22.591-00:00",
        "included_in_blocks":
          [ "BMbPX5fuJETjned6fYAt5uF9ySadcigYc2mPZAQUaFhJYqLJ1nc" ] },
      { "delegate": "tz1MQMiZHV8q4tTwUMWmS5Y3kaP6J2136iXr",
        "reception_time": "2022-01-15T16:46:22.591-00:00",
        "included_in_blocks":
          [ "BMbPX5fuJETjned6fYAt5uF9ySadcigYc2mPZAQUaFhJYqLJ1nc" ] },
      { "delegate": "tz1Ldzz6k1BHdhuKvAtMRX7h5kJSMHESMHLC",
        "reception_time": "2022-01-15T16:46:22.591-00:00",
        "included_in_blocks":
          [ "BMbPX5fuJETjned6fYAt5uF9ySadcigYc2mPZAQUaFhJYqLJ1nc" ] },
      { "delegate": "tz3QSGPoRp3Kn7n3vY24eYeu3Peuqo45LQ4D",
        "reception_time": "2022-01-15T16:46:22.591-00:00",
        "included_in_blocks":
          [ "BMbPX5fuJETjned6fYAt5uF9ySadcigYc2mPZAQUaFhJYqLJ1nc" ] },
      { "delegate": "tz3ZbP2pM3nwvXztbuMJwJnDvV5xdpU8UkkD",
        "reception_time": "2022-01-15T16:46:22.591-00:00",
        "included_in_blocks":
          [ "BMbPX5fuJETjned6fYAt5uF9ySadcigYc2mPZAQUaFhJYqLJ1nc" ] },
      { "delegate": "tz3NxTnke1acr8o3h5y9ytf5awQBGNJUKzVU",
        "reception_time": "2022-01-15T16:46:22.591-00:00",
        "included_in_blocks":
          [ "BMbPX5fuJETjned6fYAt5uF9ySadcigYc2mPZAQUaFhJYqLJ1nc" ] },
      { "delegate": "tz3gtoUxdudfBRcNY7iVdKPHCYYX6xdPpoRS",
        "reception_time": "2022-01-15T16:46:22.591-00:00",
        "included_in_blocks":
          [ "BMbPX5fuJETjned6fYAt5uF9ySadcigYc2mPZAQUaFhJYqLJ1nc" ] },
      { "delegate": "tz3S6BBeKgJGXxvLyZ1xzXzMPn11nnFtq5L9",
        "reception_time": "2022-01-15T16:46:22.597-00:00",
        "included_in_blocks":
          [ "BMbPX5fuJETjned6fYAt5uF9ySadcigYc2mPZAQUaFhJYqLJ1nc" ] },
      { "delegate": "tz1gfArv665EUkSg2ojMBzcbfwuPxAvqPvjo",
        "reception_time": "2022-01-15T16:46:22.604-00:00",
        "included_in_blocks":
          [ "BMbPX5fuJETjned6fYAt5uF9ySadcigYc2mPZAQUaFhJYqLJ1nc" ] },
      { "delegate": "tz3iJu5vrKZcsqRPs8yJ61UDoeEXZmtro4qh",
        "reception_time": "2022-01-15T16:46:22.629-00:00",
        "included_in_blocks":
          [ "BMbPX5fuJETjned6fYAt5uF9ySadcigYc2mPZAQUaFhJYqLJ1nc" ] },
      { "delegate": "tz3QT9dHYKDqh563chVa6za8526ys1UKfRfL",
        "reception_time": "2022-01-15T16:46:22.648-00:00",
        "included_in_blocks":
          [ "BMbPX5fuJETjned6fYAt5uF9ySadcigYc2mPZAQUaFhJYqLJ1nc" ] },
      { "delegate": "tz3Zhs2dygr55yHyQyKjntAtY9bgfhLZ4Xj1",
        "reception_time": "2022-01-15T16:46:22.673-00:00",
        "included_in_blocks":
          [ "BMbPX5fuJETjned6fYAt5uF9ySadcigYc2mPZAQUaFhJYqLJ1nc" ] },
      { "delegate": "tz3QCNyySViKHmeSr45kzDxzchys7NiXCWoa",
        "reception_time": "2022-01-15T16:46:22.685-00:00",
        "included_in_blocks":
          [ "BMbPX5fuJETjned6fYAt5uF9ySadcigYc2mPZAQUaFhJYqLJ1nc" ] },
      { "delegate": "tz1S8MNvuFEUsWgjHvi3AxibRBf388NhT1q2",
        "reception_time": "2022-01-15T16:46:22.711-00:00",
        "included_in_blocks":
          [ "BMbPX5fuJETjned6fYAt5uF9ySadcigYc2mPZAQUaFhJYqLJ1nc" ] },
      { "delegate": "tz1WCd2jm4uSt4vntk4vSuUWoZQGhLcDuR9q",
        "reception_time": "2022-01-15T16:46:22.715-00:00",
        "included_in_blocks":
          [ "BMbPX5fuJETjned6fYAt5uF9ySadcigYc2mPZAQUaFhJYqLJ1nc" ] },
      { "delegate": "tz1fUyqYH7H4pRHN1roWY17giXhy1RvxjgUV",
        "reception_time": "2022-01-15T16:46:22.724-00:00",
        "included_in_blocks":
          [ "BMbPX5fuJETjned6fYAt5uF9ySadcigYc2mPZAQUaFhJYqLJ1nc" ] },
      { "delegate": "tz1d6Fx42mYgVFnHUW8T8A7WBfJ6nD9pVok8",
        "reception_time": "2022-01-15T16:46:22.882-00:00",
        "included_in_blocks":
          [ "BMbPX5fuJETjned6fYAt5uF9ySadcigYc2mPZAQUaFhJYqLJ1nc" ] },
      { "delegate": "tz1RCFbB9GpALpsZtu6J58sb74dm8qe6XBzv",
        "reception_time": "2022-01-15T16:46:23.107-00:00",
        "included_in_blocks":
          [ "BMbPX5fuJETjned6fYAt5uF9ySadcigYc2mPZAQUaFhJYqLJ1nc" ] },
      { "delegate": "tz1ei4WtWEMEJekSv8qDnu9PExG6Q8HgRGr3",
        "reception_time": "2022-01-15T16:46:23.110-00:00",
        "included_in_blocks":
          [ "BMbPX5fuJETjned6fYAt5uF9ySadcigYc2mPZAQUaFhJYqLJ1nc" ] },
      { "delegate": "tz1SYq214SCBy9naR6cvycQsYcUGpBqQAE8d",
        "reception_time": "2022-01-15T16:46:23.120-00:00",
        "included_in_blocks":
          [ "BMbPX5fuJETjned6fYAt5uF9ySadcigYc2mPZAQUaFhJYqLJ1nc" ] },
      { "delegate": "tz1KfEsrtDaA1sX7vdM4qmEPWuSytuqCDp5j",
        "reception_time": "2022-01-15T16:46:23.220-00:00",
        "included_in_blocks":
          [ "BMbPX5fuJETjned6fYAt5uF9ySadcigYc2mPZAQUaFhJYqLJ1nc" ] },
      { "delegate": "tz3bTdwZinP8U1JmSweNzVKhmwafqWmFWRfk",
        "reception_time": "2022-01-15T16:46:23.322-00:00",
        "included_in_blocks":
          [ "BMbPX5fuJETjned6fYAt5uF9ySadcigYc2mPZAQUaFhJYqLJ1nc" ] },
      { "delegate": "tz1Nf6tsK4G6bBqgSQERy4nUtkHNKUVdh7q1",
        "reception_time": "2022-01-15T16:46:23.333-00:00",
        "included_in_blocks":
          [ "BMbPX5fuJETjned6fYAt5uF9ySadcigYc2mPZAQUaFhJYqLJ1nc" ] },
      { "delegate": "tz1TEc75UKXv4W5cwi14Na3NtqFD51yKQi7h",
        "reception_time": "2022-01-15T16:46:23.380-00:00",
        "included_in_blocks":
          [ "BMbPX5fuJETjned6fYAt5uF9ySadcigYc2mPZAQUaFhJYqLJ1nc" ] },
      { "delegate": "tz1fwnfJNgiDACshK9avfRfFbMaXrs3ghoJa",
        "reception_time": "2022-01-15T16:46:23.464-00:00",
        "included_in_blocks":
          [ "BMbPX5fuJETjned6fYAt5uF9ySadcigYc2mPZAQUaFhJYqLJ1nc" ] },
      { "delegate": "tz1bxVgPCiveFHSand7zn22S8ZBtvNQbqgqU",
        "reception_time": "2022-01-15T16:46:23.532-00:00",
        "included_in_blocks":
          [ "BMbPX5fuJETjned6fYAt5uF9ySadcigYc2mPZAQUaFhJYqLJ1nc" ] },
      { "delegate": "tz3WMqdzXqRWXwyvj5Hp2H7QEepaUuS7vd9K",
        "reception_time": "2022-01-15T16:46:23.598-00:00",
        "included_in_blocks":
          [ "BMbPX5fuJETjned6fYAt5uF9ySadcigYc2mPZAQUaFhJYqLJ1nc" ] },
      { "delegate": "tz1RjoHc98dBoqaH2jawF62XNKh7YsHwbkEv",
        "reception_time": "2022-01-15T16:46:23.930-00:00",
        "included_in_blocks":
          [ "BMbPX5fuJETjned6fYAt5uF9ySadcigYc2mPZAQUaFhJYqLJ1nc" ] },
      { "delegate": "tz1awXW7wuXy21c66vBudMXQVAPgRnqqwgTH",
        "reception_time": "2022-01-15T16:46:24.055-00:00",
        "included_in_blocks":
          [ "BMbPX5fuJETjned6fYAt5uF9ySadcigYc2mPZAQUaFhJYqLJ1nc" ] },
      { "delegate": "tz1NEKxGEHsFufk87CVZcrqWu8o22qh46GK6",
        "reception_time": "2022-01-15T16:46:24.116-00:00",
        "included_in_blocks":
          [ "BMbPX5fuJETjned6fYAt5uF9ySadcigYc2mPZAQUaFhJYqLJ1nc" ] },
      { "delegate": "tz1TRqbYbUf2GyrjErf3hBzgBJPzW8y36qEs",
        "reception_time": "2022-01-15T16:46:24.124-00:00",
        "included_in_blocks":
          [ "BMbPX5fuJETjned6fYAt5uF9ySadcigYc2mPZAQUaFhJYqLJ1nc" ] },
      { "delegate": "tz1aRoaRhSpRYvFdyvgWLL6TGyRoGF51wDjM",
        "reception_time": "2022-01-15T16:46:24.198-00:00",
        "included_in_blocks":
          [ "BMbPX5fuJETjned6fYAt5uF9ySadcigYc2mPZAQUaFhJYqLJ1nc" ] },
      { "delegate": "tz3RB4aoyjov4KEVRbuhvQ1CKJgBJMWhaeB8",
        "reception_time": "2022-01-15T16:46:24.297-00:00",
        "included_in_blocks":
          [ "BMbPX5fuJETjned6fYAt5uF9ySadcigYc2mPZAQUaFhJYqLJ1nc" ] },
      { "delegate": "tz3bvNMQ95vfAYtG8193ymshqjSvmxiCUuR5",
        "reception_time": "2022-01-15T16:46:24.357-00:00",
        "included_in_blocks":
          [ "BMbPX5fuJETjned6fYAt5uF9ySadcigYc2mPZAQUaFhJYqLJ1nc" ] },
      { "delegate": "tz1T7duV5gZWSTq4YpBGbXNLTfznCLDrFxvs",
        "reception_time": "2022-01-15T16:46:24.477-00:00",
        "included_in_blocks":
          [ "BMbPX5fuJETjned6fYAt5uF9ySadcigYc2mPZAQUaFhJYqLJ1nc" ] },
      { "delegate": "tz3VEZ4k6a4Wx42iyev6i2aVAptTRLEAivNN",
        "reception_time": "2022-01-15T16:46:24.477-00:00",
        "included_in_blocks":
          [ "BMbPX5fuJETjned6fYAt5uF9ySadcigYc2mPZAQUaFhJYqLJ1nc" ] },
      { "delegate": "tz3RDC3Jdn4j15J7bBHZd29EUee9gVB1CxD9",
        "reception_time": "2022-01-15T16:46:24.514-00:00",
        "included_in_blocks":
          [ "BMbPX5fuJETjned6fYAt5uF9ySadcigYc2mPZAQUaFhJYqLJ1nc" ] },
      { "delegate": "tz1dRKU4FQ9QRRQPdaH4zCR6gmCmXfcvcgtB",
        "reception_time": "2022-01-15T16:46:24.562-00:00",
        "included_in_blocks":
          [ "BMbPX5fuJETjned6fYAt5uF9ySadcigYc2mPZAQUaFhJYqLJ1nc" ] },
      { "delegate": "tz2FCNBrERXtaTtNX6iimR1UJ5JSDxvdHM93",
        "reception_time": "2022-01-15T16:46:24.814-00:00",
        "included_in_blocks":
          [ "BMbPX5fuJETjned6fYAt5uF9ySadcigYc2mPZAQUaFhJYqLJ1nc" ] },
      { "delegate": "tz3NExpXn9aPNZPorRE4SdjJ2RGrfbJgMAaV",
        "reception_time": "2022-01-15T16:46:24.855-00:00",
        "included_in_blocks":
          [ "BMbPX5fuJETjned6fYAt5uF9ySadcigYc2mPZAQUaFhJYqLJ1nc" ] },
      { "delegate": "tz3UoffC7FG7zfpmvmjUmUeAaHvzdcUvAj6r",
        "reception_time": "2022-01-15T16:46:24.993-00:00",
        "included_in_blocks":
          [ "BMbPX5fuJETjned6fYAt5uF9ySadcigYc2mPZAQUaFhJYqLJ1nc" ] },
      { "delegate": "tz1PFeoTuFen8jAMRHajBySNyCwLmY5RqF9M",
        "reception_time": "2022-01-15T16:46:25.244-00:00",
        "included_in_blocks":
          [ "BMbPX5fuJETjned6fYAt5uF9ySadcigYc2mPZAQUaFhJYqLJ1nc" ] },
      { "delegate": "tz3hw2kqXhLUvY65ca1eety2oQTpAvd34R9Q",
        "reception_time": "2022-01-15T16:46:25.272-00:00",
        "included_in_blocks":
          [ "BMbPX5fuJETjned6fYAt5uF9ySadcigYc2mPZAQUaFhJYqLJ1nc" ] },
      { "delegate": "tz3RKYFsLuQzKBtmYuLNas7uMu3AsYd4QdsA",
        "reception_time": "2022-01-15T16:46:25.457-00:00",
        "included_in_blocks":
          [ "BMbPX5fuJETjned6fYAt5uF9ySadcigYc2mPZAQUaFhJYqLJ1nc" ] },
      { "delegate": "tz1fJHFn6sWEd3NnBPngACuw2dggTv6nQZ7g",
        "reception_time": "2022-01-15T16:46:25.557-00:00",
        "included_in_blocks":
          [ "BMbPX5fuJETjned6fYAt5uF9ySadcigYc2mPZAQUaFhJYqLJ1nc" ] },
      { "delegate": "tz3NDpRj6WBrJPikcPVHRBEjWKxFw3c6eQPS",
        "reception_time": "2022-01-15T16:46:25.756-00:00",
        "included_in_blocks":
          [ "BMbPX5fuJETjned6fYAt5uF9ySadcigYc2mPZAQUaFhJYqLJ1nc" ] },
      { "delegate": "tz1cYufsxHXJcvANhvS55h3aY32a9BAFB494",
        "reception_time": "2022-01-15T16:46:25.791-00:00",
        "included_in_blocks":
          [ "BMbPX5fuJETjned6fYAt5uF9ySadcigYc2mPZAQUaFhJYqLJ1nc" ] },
      { "delegate": "tz1W5VkdB5s7ENMESVBtwyt9kyvLqPcUczRT",
        "reception_time": "2022-01-15T16:46:26.070-00:00",
        "included_in_blocks":
          [ "BMbPX5fuJETjned6fYAt5uF9ySadcigYc2mPZAQUaFhJYqLJ1nc" ] },
      { "delegate": "tz3gLTu4Yxj8tPAcriQVUdxv6BY9QyvzU1az",
        "reception_time": "2022-01-15T16:46:26.121-00:00",
        "included_in_blocks":
          [ "BMbPX5fuJETjned6fYAt5uF9ySadcigYc2mPZAQUaFhJYqLJ1nc" ] },
      { "delegate": "tz3bEQoFCZEEfZMskefZ8q8e4eiHH1pssRax",
        "reception_time": "2022-01-15T16:46:27.078-00:00",
        "included_in_blocks":
          [ "BMbPX5fuJETjned6fYAt5uF9ySadcigYc2mPZAQUaFhJYqLJ1nc" ] },
      { "delegate": "tz1MbhmEwEAzzfb3naSr7vTp4mDxB8HsknA9",
        "reception_time": "2022-01-15T16:46:28.084-00:00",
        "included_in_blocks":
          [ "BMbPX5fuJETjned6fYAt5uF9ySadcigYc2mPZAQUaFhJYqLJ1nc" ] },
      { "delegate": "tz1NpWrAyDL9k2Lmnyxcgr9xuJakbBxdq7FB",
        "reception_time": "2022-01-15T16:46:30.028-00:00",
        "included_in_blocks":
          [ "BMbPX5fuJETjned6fYAt5uF9ySadcigYc2mPZAQUaFhJYqLJ1nc" ] },
      { "delegate": "tz1QHEAXGd4DFPBc5yq5gxQw99fTvNEmpKLE",
        "reception_time": "2022-01-15T16:46:30.260-00:00",
        "included_in_blocks":
          [ "BMbPX5fuJETjned6fYAt5uF9ySadcigYc2mPZAQUaFhJYqLJ1nc" ] },
      { "delegate": "tz1g8vkmcde6sWKaG2NN9WKzCkDM6Rziq194",
        "reception_time": "2022-01-15T16:46:30.460-00:00",
        "included_in_blocks":
          [ "BMbPX5fuJETjned6fYAt5uF9ySadcigYc2mPZAQUaFhJYqLJ1nc" ] },
      { "delegate": "tz1gg5bjopPcr9agjamyu9BbXKLibNc2rbAq",
        "reception_time": "2022-01-15T16:46:32.447-00:00",
        "included_in_blocks":
          [ "BMbPX5fuJETjned6fYAt5uF9ySadcigYc2mPZAQUaFhJYqLJ1nc" ] },
      { "delegate": "tz1iZEKy4LaAjnTmn2RuGDf2iqdAQKnRi8kY",
        "reception_time": "2022-01-15T16:46:36.097-00:00",
        "included_in_blocks":
          [ "BMbPX5fuJETjned6fYAt5uF9ySadcigYc2mPZAQUaFhJYqLJ1nc" ] } ] }