{ "blocks":
    [ { "hash": "BLhuu7wBiEbvAA6Tt5vESdQAtQ1R7K6NHCykk4jm5Scdu9YCSDD",
        "delegate": "tz1irJKkXS2DBWkU1NnmFQx1c1L7pbGg4yhk",
        "reception_time": "2022-01-15T17:12:16.866-00:00",
        "timestamp": "2022-01-15T17:12:10Z" } ],
  "endorsements":
    [ { "delegate": "tz1irJKkXS2DBWkU1NnmFQx1c1L7pbGg4yhk",
        "reception_time": "2022-01-15T17:12:16.495-00:00",
        "errors":
          [ { "kind": "temporary",
              "id": "proto.011-PtHangz2.prefilter.outdated_endorsement" } ],
        "included_in_blocks":
          [ "BLYcgiFNaSoFSGrHPJVBrwbXnawj4Rh4eqbgWXZ7z7fBN1gGUx7" ] },
      { "delegate": "tz1Zhv3RkfU2pHrmaiDyxp7kFZpZrUCu1CiF",
        "reception_time": "2022-01-15T17:12:16.429-00:00",
        "errors":
          [ { "kind": "temporary",
              "id": "proto.011-PtHangz2.prefilter.outdated_endorsement" } ],
        "included_in_blocks":
          [ "BLYcgiFNaSoFSGrHPJVBrwbXnawj4Rh4eqbgWXZ7z7fBN1gGUx7" ] },
      { "delegate": "tz1STeamwbp68THcny9zk3LsbG3H36DMvbRK",
        "reception_time": "2022-01-15T17:12:16.429-00:00",
        "errors":
          [ { "kind": "temporary",
              "id": "proto.011-PtHangz2.prefilter.outdated_endorsement" } ],
        "included_in_blocks":
          [ "BLYcgiFNaSoFSGrHPJVBrwbXnawj4Rh4eqbgWXZ7z7fBN1gGUx7" ] },
      { "delegate": "tz1P2Po7YM526ughEsRbY4oR9zaUPDZjxFrb",
        "reception_time": "2022-01-15T17:12:16.267-00:00",
        "errors":
          [ { "kind": "temporary",
              "id": "proto.011-PtHangz2.prefilter.outdated_endorsement" } ],
        "included_in_blocks":
          [ "BLYcgiFNaSoFSGrHPJVBrwbXnawj4Rh4eqbgWXZ7z7fBN1gGUx7" ] },
      { "delegate": "tz1TRspM5SeZpaQUhzByXbEvqKF1vnCM2YTK" },
      { "delegate": "tz1RV1MBbZMR68tacosb7Mwj6LkbPSUS1er1",
        "reception_time": "2022-01-15T17:12:18.383-00:00",
        "included_in_blocks":
          [ "BLYcgiFNaSoFSGrHPJVBrwbXnawj4Rh4eqbgWXZ7z7fBN1gGUx7" ] },
      { "delegate": "tz1Ldzz6k1BHdhuKvAtMRX7h5kJSMHESMHLC",
        "reception_time": "2022-01-15T17:12:18.387-00:00",
        "included_in_blocks":
          [ "BLYcgiFNaSoFSGrHPJVBrwbXnawj4Rh4eqbgWXZ7z7fBN1gGUx7" ] },
      { "delegate": "tz1aXD7Jigrt3PBYSpHSg5Rr33SexMmmM5Ys",
        "reception_time": "2022-01-15T17:12:18.441-00:00",
        "included_in_blocks":
          [ "BLYcgiFNaSoFSGrHPJVBrwbXnawj4Rh4eqbgWXZ7z7fBN1gGUx7" ] },
      { "delegate": "tz1eEnQhbwf6trb8Q8mPb2RaPkNk2rN7BKi8",
        "reception_time": "2022-01-15T17:12:18.456-00:00",
        "included_in_blocks":
          [ "BLYcgiFNaSoFSGrHPJVBrwbXnawj4Rh4eqbgWXZ7z7fBN1gGUx7" ] },
      { "delegate": "tz3iJu5vrKZcsqRPs8yJ61UDoeEXZmtro4qh",
        "reception_time": "2022-01-15T17:12:18.544-00:00",
        "included_in_blocks":
          [ "BLYcgiFNaSoFSGrHPJVBrwbXnawj4Rh4eqbgWXZ7z7fBN1gGUx7" ] },
      { "delegate": "tz1gUNyn3hmnEWqkusWPzxRaon1cs7ndWh7h",
        "reception_time": "2022-01-15T17:12:18.571-00:00",
        "included_in_blocks":
          [ "BLYcgiFNaSoFSGrHPJVBrwbXnawj4Rh4eqbgWXZ7z7fBN1gGUx7" ] },
      { "delegate": "tz1VQnqCCqX4K5sP3FNkVSNKTdCAMJDd3E1n",
        "reception_time": "2022-01-15T17:12:18.595-00:00",
        "included_in_blocks":
          [ "BLYcgiFNaSoFSGrHPJVBrwbXnawj4Rh4eqbgWXZ7z7fBN1gGUx7" ] },
      { "delegate": "tz1WCd2jm4uSt4vntk4vSuUWoZQGhLcDuR9q",
        "reception_time": "2022-01-15T17:12:18.595-00:00",
        "included_in_blocks":
          [ "BLYcgiFNaSoFSGrHPJVBrwbXnawj4Rh4eqbgWXZ7z7fBN1gGUx7" ] },
      { "delegate": "tz3NxTnke1acr8o3h5y9ytf5awQBGNJUKzVU",
        "reception_time": "2022-01-15T17:12:18.614-00:00",
        "included_in_blocks":
          [ "BLYcgiFNaSoFSGrHPJVBrwbXnawj4Rh4eqbgWXZ7z7fBN1gGUx7" ] },
      { "delegate": "tz3QSGPoRp3Kn7n3vY24eYeu3Peuqo45LQ4D",
        "reception_time": "2022-01-15T17:12:18.614-00:00",
        "included_in_blocks":
          [ "BLYcgiFNaSoFSGrHPJVBrwbXnawj4Rh4eqbgWXZ7z7fBN1gGUx7" ] },
      { "delegate": "tz3Zhs2dygr55yHyQyKjntAtY9bgfhLZ4Xj1",
        "reception_time": "2022-01-15T17:12:18.621-00:00",
        "included_in_blocks":
          [ "BLYcgiFNaSoFSGrHPJVBrwbXnawj4Rh4eqbgWXZ7z7fBN1gGUx7" ] },
      { "delegate": "tz3hw2kqXhLUvY65ca1eety2oQTpAvd34R9Q",
        "reception_time": "2022-01-15T17:12:18.730-00:00",
        "included_in_blocks":
          [ "BLYcgiFNaSoFSGrHPJVBrwbXnawj4Rh4eqbgWXZ7z7fBN1gGUx7" ] },
      { "delegate": "tz3adcvQaKXTCg12zbninqo3q8ptKKtDFTLv",
        "reception_time": "2022-01-15T17:12:18.757-00:00",
        "included_in_blocks":
          [ "BLYcgiFNaSoFSGrHPJVBrwbXnawj4Rh4eqbgWXZ7z7fBN1gGUx7" ] },
      { "delegate": "tz3RKYFsLuQzKBtmYuLNas7uMu3AsYd4QdsA",
        "reception_time": "2022-01-15T17:12:18.766-00:00",
        "included_in_blocks":
          [ "BLYcgiFNaSoFSGrHPJVBrwbXnawj4Rh4eqbgWXZ7z7fBN1gGUx7" ] },
      { "delegate": "tz1fb7c66UwePkkfDXz4ajFaBP9hVNLdS7JJ",
        "reception_time": "2022-01-15T17:12:18.766-00:00",
        "included_in_blocks":
          [ "BLYcgiFNaSoFSGrHPJVBrwbXnawj4Rh4eqbgWXZ7z7fBN1gGUx7" ] },
      { "delegate": "tz1PWCDnz783NNGGQjEFFsHtrcK5yBW4E2rm",
        "reception_time": "2022-01-15T17:12:18.778-00:00",
        "included_in_blocks":
          [ "BLYcgiFNaSoFSGrHPJVBrwbXnawj4Rh4eqbgWXZ7z7fBN1gGUx7" ] },
      { "delegate": "tz1iPHM2Xx2hwmzcr1EG1zzrV6oKafVoA91m",
        "reception_time": "2022-01-15T17:12:18.787-00:00",
        "included_in_blocks":
          [ "BLYcgiFNaSoFSGrHPJVBrwbXnawj4Rh4eqbgWXZ7z7fBN1gGUx7" ] },
      { "delegate": "tz1VmiY38m3y95HqQLjMwqnMS7sdMfGomzKi",
        "reception_time": "2022-01-15T17:12:18.799-00:00",
        "included_in_blocks":
          [ "BLYcgiFNaSoFSGrHPJVBrwbXnawj4Rh4eqbgWXZ7z7fBN1gGUx7" ] },
      { "delegate": "tz3gtoUxdudfBRcNY7iVdKPHCYYX6xdPpoRS",
        "reception_time": "2022-01-15T17:12:18.823-00:00",
        "included_in_blocks":
          [ "BLYcgiFNaSoFSGrHPJVBrwbXnawj4Rh4eqbgWXZ7z7fBN1gGUx7" ] },
      { "delegate": "tz3ZbP2pM3nwvXztbuMJwJnDvV5xdpU8UkkD",
        "reception_time": "2022-01-15T17:12:18.836-00:00",
        "included_in_blocks":
          [ "BLYcgiFNaSoFSGrHPJVBrwbXnawj4Rh4eqbgWXZ7z7fBN1gGUx7" ] },
      { "delegate": "tz1ei4WtWEMEJekSv8qDnu9PExG6Q8HgRGr3",
        "reception_time": "2022-01-15T17:12:18.840-00:00",
        "included_in_blocks":
          [ "BLYcgiFNaSoFSGrHPJVBrwbXnawj4Rh4eqbgWXZ7z7fBN1gGUx7" ] },
      { "delegate": "tz1gfArv665EUkSg2ojMBzcbfwuPxAvqPvjo",
        "reception_time": "2022-01-15T17:12:18.933-00:00",
        "included_in_blocks":
          [ "BLYcgiFNaSoFSGrHPJVBrwbXnawj4Rh4eqbgWXZ7z7fBN1gGUx7" ] },
      { "delegate": "tz1S8MNvuFEUsWgjHvi3AxibRBf388NhT1q2",
        "reception_time": "2022-01-15T17:12:19.052-00:00",
        "included_in_blocks":
          [ "BLYcgiFNaSoFSGrHPJVBrwbXnawj4Rh4eqbgWXZ7z7fBN1gGUx7" ] },
      { "delegate": "tz1TEc75UKXv4W5cwi14Na3NtqFD51yKQi7h",
        "reception_time": "2022-01-15T17:12:19.168-00:00",
        "included_in_blocks":
          [ "BLYcgiFNaSoFSGrHPJVBrwbXnawj4Rh4eqbgWXZ7z7fBN1gGUx7" ] },
      { "delegate": "tz1WBfwbT66FC6BTLexc2BoyCCBM9LG7pnVW",
        "reception_time": "2022-01-15T17:12:19.243-00:00",
        "included_in_blocks":
          [ "BLYcgiFNaSoFSGrHPJVBrwbXnawj4Rh4eqbgWXZ7z7fBN1gGUx7" ] },
      { "delegate": "tz1fwnfJNgiDACshK9avfRfFbMaXrs3ghoJa",
        "reception_time": "2022-01-15T17:12:19.322-00:00",
        "included_in_blocks":
          [ "BLYcgiFNaSoFSGrHPJVBrwbXnawj4Rh4eqbgWXZ7z7fBN1gGUx7" ] },
      { "delegate": "tz1MQJPGNMijnXnVoBENFz9rUhaPt3S7rWoz",
        "reception_time": "2022-01-15T17:12:19.377-00:00",
        "included_in_blocks":
          [ "BLYcgiFNaSoFSGrHPJVBrwbXnawj4Rh4eqbgWXZ7z7fBN1gGUx7" ] },
      { "delegate": "tz3QT9dHYKDqh563chVa6za8526ys1UKfRfL",
        "reception_time": "2022-01-15T17:12:19.395-00:00",
        "included_in_blocks":
          [ "BLYcgiFNaSoFSGrHPJVBrwbXnawj4Rh4eqbgWXZ7z7fBN1gGUx7" ] },
      { "delegate": "tz3RB4aoyjov4KEVRbuhvQ1CKJgBJMWhaeB8",
        "reception_time": "2022-01-15T17:12:19.424-00:00",
        "included_in_blocks":
          [ "BLYcgiFNaSoFSGrHPJVBrwbXnawj4Rh4eqbgWXZ7z7fBN1gGUx7" ] },
      { "delegate": "tz3S6BBeKgJGXxvLyZ1xzXzMPn11nnFtq5L9",
        "reception_time": "2022-01-15T17:12:19.492-00:00",
        "included_in_blocks":
          [ "BLYcgiFNaSoFSGrHPJVBrwbXnawj4Rh4eqbgWXZ7z7fBN1gGUx7" ] },
      { "delegate": "tz1fPKAtsYydh4f1wfWNfeNxWYu72TmM48fu",
        "reception_time": "2022-01-15T17:12:19.536-00:00",
        "included_in_blocks":
          [ "BLYcgiFNaSoFSGrHPJVBrwbXnawj4Rh4eqbgWXZ7z7fBN1gGUx7" ] },
      { "delegate": "tz3bTdwZinP8U1JmSweNzVKhmwafqWmFWRfk",
        "reception_time": "2022-01-15T17:12:19.545-00:00",
        "included_in_blocks":
          [ "BLYcgiFNaSoFSGrHPJVBrwbXnawj4Rh4eqbgWXZ7z7fBN1gGUx7" ] },
      { "delegate": "tz1RCFbB9GpALpsZtu6J58sb74dm8qe6XBzv",
        "reception_time": "2022-01-15T17:12:19.564-00:00",
        "included_in_blocks":
          [ "BLYcgiFNaSoFSGrHPJVBrwbXnawj4Rh4eqbgWXZ7z7fBN1gGUx7" ] },
      { "delegate": "tz3NDpRj6WBrJPikcPVHRBEjWKxFw3c6eQPS",
        "reception_time": "2022-01-15T17:12:19.571-00:00",
        "included_in_blocks":
          [ "BLYcgiFNaSoFSGrHPJVBrwbXnawj4Rh4eqbgWXZ7z7fBN1gGUx7" ] },
      { "delegate": "tz1Nf6tsK4G6bBqgSQERy4nUtkHNKUVdh7q1",
        "reception_time": "2022-01-15T17:12:19.575-00:00",
        "included_in_blocks":
          [ "BLYcgiFNaSoFSGrHPJVBrwbXnawj4Rh4eqbgWXZ7z7fBN1gGUx7" ] },
      { "delegate": "tz2FCNBrERXtaTtNX6iimR1UJ5JSDxvdHM93",
        "reception_time": "2022-01-15T17:12:19.579-00:00",
        "included_in_blocks":
          [ "BLYcgiFNaSoFSGrHPJVBrwbXnawj4Rh4eqbgWXZ7z7fBN1gGUx7" ] },
      { "delegate": "tz1WctSwL49BZtdWAQ75NY6vr4xsAx6oKdah",
        "reception_time": "2022-01-15T17:12:19.582-00:00",
        "included_in_blocks":
          [ "BLYcgiFNaSoFSGrHPJVBrwbXnawj4Rh4eqbgWXZ7z7fBN1gGUx7" ] },
      { "delegate": "tz1abmz7jiCV2GH2u81LRrGgAFFgvQgiDiaf",
        "reception_time": "2022-01-15T17:12:19.586-00:00",
        "included_in_blocks":
          [ "BLYcgiFNaSoFSGrHPJVBrwbXnawj4Rh4eqbgWXZ7z7fBN1gGUx7" ] },
      { "delegate": "tz1KfEsrtDaA1sX7vdM4qmEPWuSytuqCDp5j",
        "reception_time": "2022-01-15T17:12:19.608-00:00",
        "included_in_blocks":
          [ "BLYcgiFNaSoFSGrHPJVBrwbXnawj4Rh4eqbgWXZ7z7fBN1gGUx7" ] },
      { "delegate": "tz1d4G4MdmfJWUzu8X4SJUTKjx4Ns6TUR9gR",
        "reception_time": "2022-01-15T17:12:19.632-00:00",
        "included_in_blocks":
          [ "BLYcgiFNaSoFSGrHPJVBrwbXnawj4Rh4eqbgWXZ7z7fBN1gGUx7" ] },
      { "delegate": "tz1cig1EHyvZd7J2k389moM9PxVgPQvmFkvi",
        "reception_time": "2022-01-15T17:12:19.638-00:00",
        "included_in_blocks":
          [ "BLYcgiFNaSoFSGrHPJVBrwbXnawj4Rh4eqbgWXZ7z7fBN1gGUx7" ] },
      { "delegate": "tz1XCJBHkDn2D9wjgXEJHMi2jTxg563XUunQ",
        "reception_time": "2022-01-15T17:12:19.653-00:00",
        "included_in_blocks":
          [ "BLYcgiFNaSoFSGrHPJVBrwbXnawj4Rh4eqbgWXZ7z7fBN1gGUx7" ] },
      { "delegate": "tz1NEKxGEHsFufk87CVZcrqWu8o22qh46GK6",
        "reception_time": "2022-01-15T17:12:19.695-00:00",
        "included_in_blocks":
          [ "BLYcgiFNaSoFSGrHPJVBrwbXnawj4Rh4eqbgWXZ7z7fBN1gGUx7" ] },
      { "delegate": "tz1PeZx7FXy7QRuMREGXGxeipb24RsMMzUNe",
        "reception_time": "2022-01-15T17:12:19.702-00:00",
        "included_in_blocks":
          [ "BLYcgiFNaSoFSGrHPJVBrwbXnawj4Rh4eqbgWXZ7z7fBN1gGUx7" ] },
      { "delegate": "tz1T7duV5gZWSTq4YpBGbXNLTfznCLDrFxvs",
        "reception_time": "2022-01-15T17:12:19.705-00:00",
        "included_in_blocks":
          [ "BLYcgiFNaSoFSGrHPJVBrwbXnawj4Rh4eqbgWXZ7z7fBN1gGUx7" ] },
      { "delegate": "tz3bvNMQ95vfAYtG8193ymshqjSvmxiCUuR5",
        "reception_time": "2022-01-15T17:12:19.759-00:00",
        "included_in_blocks":
          [ "BLYcgiFNaSoFSGrHPJVBrwbXnawj4Rh4eqbgWXZ7z7fBN1gGUx7" ] },
      { "delegate": "tz3WMqdzXqRWXwyvj5Hp2H7QEepaUuS7vd9K",
        "reception_time": "2022-01-15T17:12:19.984-00:00",
        "included_in_blocks":
          [ "BLYcgiFNaSoFSGrHPJVBrwbXnawj4Rh4eqbgWXZ7z7fBN1gGUx7" ] },
      { "delegate": "tz3VEZ4k6a4Wx42iyev6i2aVAptTRLEAivNN",
        "reception_time": "2022-01-15T17:12:20.012-00:00",
        "included_in_blocks":
          [ "BLYcgiFNaSoFSGrHPJVBrwbXnawj4Rh4eqbgWXZ7z7fBN1gGUx7" ] },
      { "delegate": "tz1dRKU4FQ9QRRQPdaH4zCR6gmCmXfcvcgtB",
        "reception_time": "2022-01-15T17:12:20.089-00:00",
        "included_in_blocks":
          [ "BLYcgiFNaSoFSGrHPJVBrwbXnawj4Rh4eqbgWXZ7z7fBN1gGUx7" ] },
      { "delegate": "tz1dKRZVcmJBVNvaAueUmqX42vVEaLb2MbA6",
        "reception_time": "2022-01-15T17:12:20.113-00:00",
        "included_in_blocks":
          [ "BLYcgiFNaSoFSGrHPJVBrwbXnawj4Rh4eqbgWXZ7z7fBN1gGUx7" ] },
      { "delegate": "tz1TRqbYbUf2GyrjErf3hBzgBJPzW8y36qEs",
        "reception_time": "2022-01-15T17:12:20.148-00:00",
        "included_in_blocks":
          [ "BLYcgiFNaSoFSGrHPJVBrwbXnawj4Rh4eqbgWXZ7z7fBN1gGUx7" ] },
      { "delegate": "tz3RDC3Jdn4j15J7bBHZd29EUee9gVB1CxD9",
        "reception_time": "2022-01-15T17:12:20.172-00:00",
        "included_in_blocks":
          [ "BLYcgiFNaSoFSGrHPJVBrwbXnawj4Rh4eqbgWXZ7z7fBN1gGUx7" ] },
      { "delegate": "tz1XhnCdVENzgko5x1MMswLHSoQbJ5NPwLZ6",
        "reception_time": "2022-01-15T17:12:20.256-00:00",
        "included_in_blocks":
          [ "BLYcgiFNaSoFSGrHPJVBrwbXnawj4Rh4eqbgWXZ7z7fBN1gGUx7" ] },
      { "delegate": "tz3NExpXn9aPNZPorRE4SdjJ2RGrfbJgMAaV",
        "reception_time": "2022-01-15T17:12:20.776-00:00",
        "included_in_blocks":
          [ "BLYcgiFNaSoFSGrHPJVBrwbXnawj4Rh4eqbgWXZ7z7fBN1gGUx7" ] },
      { "delegate": "tz1b9MYGrbN1NAxphLEsPPNT9JC7aNFc5nA4",
        "reception_time": "2022-01-15T17:12:20.795-00:00",
        "included_in_blocks":
          [ "BLYcgiFNaSoFSGrHPJVBrwbXnawj4Rh4eqbgWXZ7z7fBN1gGUx7" ] },
      { "delegate": "tz3UoffC7FG7zfpmvmjUmUeAaHvzdcUvAj6r",
        "reception_time": "2022-01-15T17:12:20.839-00:00",
        "included_in_blocks":
          [ "BLYcgiFNaSoFSGrHPJVBrwbXnawj4Rh4eqbgWXZ7z7fBN1gGUx7" ] },
      { "delegate": "tz1aRoaRhSpRYvFdyvgWLL6TGyRoGF51wDjM",
        "reception_time": "2022-01-15T17:12:21.001-00:00",
        "included_in_blocks":
          [ "BLYcgiFNaSoFSGrHPJVBrwbXnawj4Rh4eqbgWXZ7z7fBN1gGUx7" ] },
      { "delegate": "tz1g8vkmcde6sWKaG2NN9WKzCkDM6Rziq194",
        "reception_time": "2022-01-15T17:12:27.300-00:00",
        "included_in_blocks":
          [ "BLYcgiFNaSoFSGrHPJVBrwbXnawj4Rh4eqbgWXZ7z7fBN1gGUx7" ] },
      { "delegate": "tz1NpWrAyDL9k2Lmnyxcgr9xuJakbBxdq7FB",
        "reception_time": "2022-01-15T17:12:27.567-00:00",
        "included_in_blocks":
          [ "BLYcgiFNaSoFSGrHPJVBrwbXnawj4Rh4eqbgWXZ7z7fBN1gGUx7" ] },
      { "delegate": "tz3e7LbZvUtoXhpUD1yb6wuFodZpfYRb9nWJ",
        "reception_time": "2022-01-15T17:12:28.479-00:00",
        "included_in_blocks":
          [ "BLYcgiFNaSoFSGrHPJVBrwbXnawj4Rh4eqbgWXZ7z7fBN1gGUx7" ] } ] }