{ "blocks":
    [ { "hash": "BKx7UpNjBnVfL64FaKLNeSVLDQP6DSm4ttTUMKbhKa2FHhju9Rp",
        "delegate": "tz3ZbP2pM3nwvXztbuMJwJnDvV5xdpU8UkkD",
        "reception_time": "2022-01-15T15:50:16.272-00:00",
        "timestamp": "2022-01-15T15:50:10Z" } ],
  "endorsements":
    [ { "delegate": "tz1ibcPVGK4Y8pcW4BYUsojiHoBKnZbyDGrX" },
      { "delegate": "tz1TRspM5SeZpaQUhzByXbEvqKF1vnCM2YTK" },
      { "delegate": "tz1c461F8GirBvq5DpFftPoPyCcPR7HQM6gm",
        "reception_time": "2022-01-15T15:50:16.117-00:00",
        "errors":
          [ { "kind": "temporary",
              "id": "proto.011-PtHangz2.prefilter.outdated_endorsement" } ],
        "included_in_blocks":
          [ "BL4At5jrbh8VS84d5miAKhM4vuk8a6Mxcyeyt2kPVRJFrjcMb2u" ] },
      { "delegate": "tz1Zhv3RkfU2pHrmaiDyxp7kFZpZrUCu1CiF",
        "reception_time": "2022-01-15T15:50:16.109-00:00",
        "errors":
          [ { "kind": "temporary",
              "id": "proto.011-PtHangz2.prefilter.outdated_endorsement" } ],
        "included_in_blocks":
          [ "BL4At5jrbh8VS84d5miAKhM4vuk8a6Mxcyeyt2kPVRJFrjcMb2u" ] },
      { "delegate": "tz1S8e9GgdZG78XJRB3NqabfWeM37GnhZMWQ",
        "reception_time": "2022-01-15T15:50:15.989-00:00",
        "errors":
          [ { "kind": "temporary",
              "id": "proto.011-PtHangz2.prefilter.outdated_endorsement" } ],
        "included_in_blocks":
          [ "BL4At5jrbh8VS84d5miAKhM4vuk8a6Mxcyeyt2kPVRJFrjcMb2u" ] },
      { "delegate": "tz1g8vkmcde6sWKaG2NN9WKzCkDM6Rziq194",
        "reception_time": "2022-01-15T15:50:25.839-00:00",
        "included_in_blocks":
          [ "BL4At5jrbh8VS84d5miAKhM4vuk8a6Mxcyeyt2kPVRJFrjcMb2u" ] },
      { "delegate": "tz3e7LbZvUtoXhpUD1yb6wuFodZpfYRb9nWJ",
        "reception_time": "2022-01-15T15:50:24.146-00:00",
        "included_in_blocks":
          [ "BL4At5jrbh8VS84d5miAKhM4vuk8a6Mxcyeyt2kPVRJFrjcMb2u" ] },
      { "delegate": "tz1NpWrAyDL9k2Lmnyxcgr9xuJakbBxdq7FB",
        "reception_time": "2022-01-15T15:50:23.902-00:00",
        "included_in_blocks":
          [ "BL4At5jrbh8VS84d5miAKhM4vuk8a6Mxcyeyt2kPVRJFrjcMb2u" ] },
      { "delegate": "tz1W5VkdB5s7ENMESVBtwyt9kyvLqPcUczRT",
        "reception_time": "2022-01-15T15:50:22.150-00:00",
        "included_in_blocks":
          [ "BL4At5jrbh8VS84d5miAKhM4vuk8a6Mxcyeyt2kPVRJFrjcMb2u" ] },
      { "delegate": "tz1go7f6mEQfT2xX2LuHAqgnRGN6c2zHPf5c",
        "reception_time": "2022-01-15T15:50:22.141-00:00",
        "included_in_blocks":
          [ "BL4At5jrbh8VS84d5miAKhM4vuk8a6Mxcyeyt2kPVRJFrjcMb2u" ] },
      { "delegate": "tz1ULYFhUY7Syao5NWr9jZ1pp3aw81QPiqjs",
        "reception_time": "2022-01-15T15:50:21.756-00:00",
        "included_in_blocks":
          [ "BL4At5jrbh8VS84d5miAKhM4vuk8a6Mxcyeyt2kPVRJFrjcMb2u" ] },
      { "delegate": "tz1TcH4Nb3aHNDJ7CGZhU7jgAK1BkSP4Lxds",
        "reception_time": "2022-01-15T15:50:20.940-00:00",
        "included_in_blocks":
          [ "BL4At5jrbh8VS84d5miAKhM4vuk8a6Mxcyeyt2kPVRJFrjcMb2u" ] },
      { "delegate": "tz1MbhmEwEAzzfb3naSr7vTp4mDxB8HsknA9",
        "reception_time": "2022-01-15T15:50:20.148-00:00",
        "included_in_blocks":
          [ "BL4At5jrbh8VS84d5miAKhM4vuk8a6Mxcyeyt2kPVRJFrjcMb2u" ] },
      { "delegate": "tz1cYufsxHXJcvANhvS55h3aY32a9BAFB494",
        "reception_time": "2022-01-15T15:50:20.082-00:00",
        "included_in_blocks":
          [ "BL4At5jrbh8VS84d5miAKhM4vuk8a6Mxcyeyt2kPVRJFrjcMb2u" ] },
      { "delegate": "tz3NExpXn9aPNZPorRE4SdjJ2RGrfbJgMAaV",
        "reception_time": "2022-01-15T15:50:19.981-00:00",
        "included_in_blocks":
          [ "BL4At5jrbh8VS84d5miAKhM4vuk8a6Mxcyeyt2kPVRJFrjcMb2u" ] },
      { "delegate": "tz1WvL7MKyCuUHfC3FxPFyiXcy8hHTBT3vjE",
        "reception_time": "2022-01-15T15:50:19.715-00:00",
        "included_in_blocks":
          [ "BL4At5jrbh8VS84d5miAKhM4vuk8a6Mxcyeyt2kPVRJFrjcMb2u" ] },
      { "delegate": "tz3RB4aoyjov4KEVRbuhvQ1CKJgBJMWhaeB8",
        "reception_time": "2022-01-15T15:50:19.675-00:00",
        "included_in_blocks":
          [ "BL4At5jrbh8VS84d5miAKhM4vuk8a6Mxcyeyt2kPVRJFrjcMb2u" ] },
      { "delegate": "tz1dRKU4FQ9QRRQPdaH4zCR6gmCmXfcvcgtB",
        "reception_time": "2022-01-15T15:50:19.661-00:00",
        "included_in_blocks":
          [ "BL4At5jrbh8VS84d5miAKhM4vuk8a6Mxcyeyt2kPVRJFrjcMb2u" ] },
      { "delegate": "tz1YiuvpfeVAHbnU8akcWErNfQGFHNQ7F45z",
        "reception_time": "2022-01-15T15:50:19.531-00:00",
        "included_in_blocks":
          [ "BL4At5jrbh8VS84d5miAKhM4vuk8a6Mxcyeyt2kPVRJFrjcMb2u" ] },
      { "delegate": "tz1RjoHc98dBoqaH2jawF62XNKh7YsHwbkEv",
        "reception_time": "2022-01-15T15:50:19.379-00:00",
        "included_in_blocks":
          [ "BL4At5jrbh8VS84d5miAKhM4vuk8a6Mxcyeyt2kPVRJFrjcMb2u" ] },
      { "delegate": "tz1NEKxGEHsFufk87CVZcrqWu8o22qh46GK6",
        "reception_time": "2022-01-15T15:50:19.318-00:00",
        "included_in_blocks":
          [ "BL4At5jrbh8VS84d5miAKhM4vuk8a6Mxcyeyt2kPVRJFrjcMb2u" ] },
      { "delegate": "tz1KfEsrtDaA1sX7vdM4qmEPWuSytuqCDp5j",
        "reception_time": "2022-01-15T15:50:19.047-00:00",
        "included_in_blocks":
          [ "BL4At5jrbh8VS84d5miAKhM4vuk8a6Mxcyeyt2kPVRJFrjcMb2u" ] },
      { "delegate": "tz1aRoaRhSpRYvFdyvgWLL6TGyRoGF51wDjM",
        "reception_time": "2022-01-15T15:50:18.837-00:00",
        "included_in_blocks":
          [ "BL4At5jrbh8VS84d5miAKhM4vuk8a6Mxcyeyt2kPVRJFrjcMb2u" ] },
      { "delegate": "tz3RDC3Jdn4j15J7bBHZd29EUee9gVB1CxD9",
        "reception_time": "2022-01-15T15:50:18.968-00:00",
        "included_in_blocks":
          [ "BL4At5jrbh8VS84d5miAKhM4vuk8a6Mxcyeyt2kPVRJFrjcMb2u" ] },
      { "delegate": "tz3VEZ4k6a4Wx42iyev6i2aVAptTRLEAivNN",
        "reception_time": "2022-01-15T15:50:18.888-00:00",
        "included_in_blocks":
          [ "BL4At5jrbh8VS84d5miAKhM4vuk8a6Mxcyeyt2kPVRJFrjcMb2u" ] },
      { "delegate": "tz1T7duV5gZWSTq4YpBGbXNLTfznCLDrFxvs",
        "reception_time": "2022-01-15T15:50:18.763-00:00",
        "included_in_blocks":
          [ "BL4At5jrbh8VS84d5miAKhM4vuk8a6Mxcyeyt2kPVRJFrjcMb2u" ] },
      { "delegate": "tz1TRqbYbUf2GyrjErf3hBzgBJPzW8y36qEs",
        "reception_time": "2022-01-15T15:50:18.824-00:00",
        "included_in_blocks":
          [ "BL4At5jrbh8VS84d5miAKhM4vuk8a6Mxcyeyt2kPVRJFrjcMb2u" ] },
      { "delegate": "tz3NDpRj6WBrJPikcPVHRBEjWKxFw3c6eQPS",
        "reception_time": "2022-01-15T15:50:18.877-00:00",
        "included_in_blocks":
          [ "BL4At5jrbh8VS84d5miAKhM4vuk8a6Mxcyeyt2kPVRJFrjcMb2u" ] },
      { "delegate": "tz1SYq214SCBy9naR6cvycQsYcUGpBqQAE8d",
        "reception_time": "2022-01-15T15:50:18.680-00:00",
        "included_in_blocks":
          [ "BL4At5jrbh8VS84d5miAKhM4vuk8a6Mxcyeyt2kPVRJFrjcMb2u" ] },
      { "delegate": "tz1WBfwbT66FC6BTLexc2BoyCCBM9LG7pnVW",
        "reception_time": "2022-01-15T15:50:18.694-00:00",
        "included_in_blocks":
          [ "BL4At5jrbh8VS84d5miAKhM4vuk8a6Mxcyeyt2kPVRJFrjcMb2u" ] },
      { "delegate": "tz3WMqdzXqRWXwyvj5Hp2H7QEepaUuS7vd9K",
        "reception_time": "2022-01-15T15:50:18.690-00:00",
        "included_in_blocks":
          [ "BL4At5jrbh8VS84d5miAKhM4vuk8a6Mxcyeyt2kPVRJFrjcMb2u" ] },
      { "delegate": "tz2FCNBrERXtaTtNX6iimR1UJ5JSDxvdHM93",
        "reception_time": "2022-01-15T15:50:18.512-00:00",
        "included_in_blocks":
          [ "BL4At5jrbh8VS84d5miAKhM4vuk8a6Mxcyeyt2kPVRJFrjcMb2u" ] },
      { "delegate": "tz1fwnfJNgiDACshK9avfRfFbMaXrs3ghoJa",
        "reception_time": "2022-01-15T15:50:18.495-00:00",
        "included_in_blocks":
          [ "BL4At5jrbh8VS84d5miAKhM4vuk8a6Mxcyeyt2kPVRJFrjcMb2u" ] },
      { "delegate": "tz1ei4WtWEMEJekSv8qDnu9PExG6Q8HgRGr3",
        "reception_time": "2022-01-15T15:50:18.393-00:00",
        "included_in_blocks":
          [ "BL4At5jrbh8VS84d5miAKhM4vuk8a6Mxcyeyt2kPVRJFrjcMb2u" ] },
      { "delegate": "tz1gfArv665EUkSg2ojMBzcbfwuPxAvqPvjo",
        "reception_time": "2022-01-15T15:50:18.379-00:00",
        "included_in_blocks":
          [ "BL4At5jrbh8VS84d5miAKhM4vuk8a6Mxcyeyt2kPVRJFrjcMb2u" ] },
      { "delegate": "tz1Nf6tsK4G6bBqgSQERy4nUtkHNKUVdh7q1",
        "reception_time": "2022-01-15T15:50:18.379-00:00",
        "included_in_blocks":
          [ "BL4At5jrbh8VS84d5miAKhM4vuk8a6Mxcyeyt2kPVRJFrjcMb2u" ] },
      { "delegate": "tz3bTdwZinP8U1JmSweNzVKhmwafqWmFWRfk",
        "reception_time": "2022-01-15T15:50:18.364-00:00",
        "included_in_blocks":
          [ "BL4At5jrbh8VS84d5miAKhM4vuk8a6Mxcyeyt2kPVRJFrjcMb2u" ] },
      { "delegate": "tz1QLXqnfN51dkjeghXvKHkJfhvGiM5gK4tc",
        "reception_time": "2022-01-15T15:50:18.127-00:00",
        "included_in_blocks":
          [ "BL4At5jrbh8VS84d5miAKhM4vuk8a6Mxcyeyt2kPVRJFrjcMb2u" ] },
      { "delegate": "tz1RQhNh7iB9CZA7i3ifTWNwiGYVffponfbB",
        "reception_time": "2022-01-15T15:50:18.357-00:00",
        "included_in_blocks":
          [ "BL4At5jrbh8VS84d5miAKhM4vuk8a6Mxcyeyt2kPVRJFrjcMb2u" ] },
      { "delegate": "tz1iPHM2Xx2hwmzcr1EG1zzrV6oKafVoA91m",
        "reception_time": "2022-01-15T15:50:18.295-00:00",
        "included_in_blocks":
          [ "BL4At5jrbh8VS84d5miAKhM4vuk8a6Mxcyeyt2kPVRJFrjcMb2u" ] },
      { "delegate": "tz3bvNMQ95vfAYtG8193ymshqjSvmxiCUuR5",
        "reception_time": "2022-01-15T15:50:18.307-00:00",
        "included_in_blocks":
          [ "BL4At5jrbh8VS84d5miAKhM4vuk8a6Mxcyeyt2kPVRJFrjcMb2u" ] },
      { "delegate": "tz1RCFbB9GpALpsZtu6J58sb74dm8qe6XBzv",
        "reception_time": "2022-01-15T15:50:18.137-00:00",
        "included_in_blocks":
          [ "BL4At5jrbh8VS84d5miAKhM4vuk8a6Mxcyeyt2kPVRJFrjcMb2u" ] },
      { "delegate": "tz1PWCDnz783NNGGQjEFFsHtrcK5yBW4E2rm",
        "reception_time": "2022-01-15T15:50:18.250-00:00",
        "included_in_blocks":
          [ "BL4At5jrbh8VS84d5miAKhM4vuk8a6Mxcyeyt2kPVRJFrjcMb2u" ] },
      { "delegate": "tz3adcvQaKXTCg12zbninqo3q8ptKKtDFTLv",
        "reception_time": "2022-01-15T15:50:18.318-00:00",
        "included_in_blocks":
          [ "BL4At5jrbh8VS84d5miAKhM4vuk8a6Mxcyeyt2kPVRJFrjcMb2u" ] },
      { "delegate": "tz1UJvHTgpVzcKWhTazGxVcn5wsHru5Gietg",
        "reception_time": "2022-01-15T15:50:18.246-00:00",
        "included_in_blocks":
          [ "BL4At5jrbh8VS84d5miAKhM4vuk8a6Mxcyeyt2kPVRJFrjcMb2u" ] },
      { "delegate": "tz1abmz7jiCV2GH2u81LRrGgAFFgvQgiDiaf",
        "reception_time": "2022-01-15T15:50:18.236-00:00",
        "included_in_blocks":
          [ "BL4At5jrbh8VS84d5miAKhM4vuk8a6Mxcyeyt2kPVRJFrjcMb2u" ] },
      { "delegate": "tz1dwu9aYb7CRNq4Y2zAjipdjFuSVKhHS8vA",
        "reception_time": "2022-01-15T15:50:18.194-00:00",
        "included_in_blocks":
          [ "BL4At5jrbh8VS84d5miAKhM4vuk8a6Mxcyeyt2kPVRJFrjcMb2u" ] },
      { "delegate": "tz1S8MNvuFEUsWgjHvi3AxibRBf388NhT1q2",
        "reception_time": "2022-01-15T15:50:18.216-00:00",
        "included_in_blocks":
          [ "BL4At5jrbh8VS84d5miAKhM4vuk8a6Mxcyeyt2kPVRJFrjcMb2u" ] },
      { "delegate": "tz3iJu5vrKZcsqRPs8yJ61UDoeEXZmtro4qh",
        "reception_time": "2022-01-15T15:50:18.165-00:00",
        "included_in_blocks":
          [ "BL4At5jrbh8VS84d5miAKhM4vuk8a6Mxcyeyt2kPVRJFrjcMb2u" ] },
      { "delegate": "tz3Zhs2dygr55yHyQyKjntAtY9bgfhLZ4Xj1",
        "reception_time": "2022-01-15T15:50:18.037-00:00",
        "included_in_blocks":
          [ "BL4At5jrbh8VS84d5miAKhM4vuk8a6Mxcyeyt2kPVRJFrjcMb2u" ] },
      { "delegate": "tz1Kt4P8BCaP93AEV4eA7gmpRryWt5hznjCP",
        "reception_time": "2022-01-15T15:50:17.959-00:00",
        "included_in_blocks":
          [ "BL4At5jrbh8VS84d5miAKhM4vuk8a6Mxcyeyt2kPVRJFrjcMb2u" ] },
      { "delegate": "tz3QT9dHYKDqh563chVa6za8526ys1UKfRfL",
        "reception_time": "2022-01-15T15:50:18.069-00:00",
        "included_in_blocks":
          [ "BL4At5jrbh8VS84d5miAKhM4vuk8a6Mxcyeyt2kPVRJFrjcMb2u" ] },
      { "delegate": "tz3S6BBeKgJGXxvLyZ1xzXzMPn11nnFtq5L9",
        "reception_time": "2022-01-15T15:50:18.202-00:00",
        "included_in_blocks":
          [ "BL4At5jrbh8VS84d5miAKhM4vuk8a6Mxcyeyt2kPVRJFrjcMb2u" ] },
      { "delegate": "tz1gUNyn3hmnEWqkusWPzxRaon1cs7ndWh7h",
        "reception_time": "2022-01-15T15:50:18.052-00:00",
        "included_in_blocks":
          [ "BL4At5jrbh8VS84d5miAKhM4vuk8a6Mxcyeyt2kPVRJFrjcMb2u" ] },
      { "delegate": "tz1VQnqCCqX4K5sP3FNkVSNKTdCAMJDd3E1n",
        "reception_time": "2022-01-15T15:50:18.188-00:00",
        "included_in_blocks":
          [ "BL4At5jrbh8VS84d5miAKhM4vuk8a6Mxcyeyt2kPVRJFrjcMb2u" ] },
      { "delegate": "tz1WCd2jm4uSt4vntk4vSuUWoZQGhLcDuR9q",
        "reception_time": "2022-01-15T15:50:18.090-00:00",
        "included_in_blocks":
          [ "BL4At5jrbh8VS84d5miAKhM4vuk8a6Mxcyeyt2kPVRJFrjcMb2u" ] },
      { "delegate": "tz1TzaNn7wSQSP5gYPXCnNzBCpyMiidCq1PX",
        "reception_time": "2022-01-15T15:50:17.933-00:00",
        "included_in_blocks":
          [ "BL4At5jrbh8VS84d5miAKhM4vuk8a6Mxcyeyt2kPVRJFrjcMb2u" ] },
      { "delegate": "tz1gcna2xxZj2eNp1LaMyAhVJ49mEFj4FH26",
        "reception_time": "2022-01-15T15:50:17.946-00:00",
        "included_in_blocks":
          [ "BL4At5jrbh8VS84d5miAKhM4vuk8a6Mxcyeyt2kPVRJFrjcMb2u" ] },
      { "delegate": "tz1Ldzz6k1BHdhuKvAtMRX7h5kJSMHESMHLC",
        "reception_time": "2022-01-15T15:50:17.954-00:00",
        "included_in_blocks":
          [ "BL4At5jrbh8VS84d5miAKhM4vuk8a6Mxcyeyt2kPVRJFrjcMb2u" ] },
      { "delegate": "tz3QSGPoRp3Kn7n3vY24eYeu3Peuqo45LQ4D",
        "reception_time": "2022-01-15T15:50:17.872-00:00",
        "included_in_blocks":
          [ "BL4At5jrbh8VS84d5miAKhM4vuk8a6Mxcyeyt2kPVRJFrjcMb2u" ] },
      { "delegate": "tz3gtoUxdudfBRcNY7iVdKPHCYYX6xdPpoRS",
        "reception_time": "2022-01-15T15:50:17.921-00:00",
        "included_in_blocks":
          [ "BL4At5jrbh8VS84d5miAKhM4vuk8a6Mxcyeyt2kPVRJFrjcMb2u" ] },
      { "delegate": "tz3hw2kqXhLUvY65ca1eety2oQTpAvd34R9Q",
        "reception_time": "2022-01-15T15:50:17.863-00:00",
        "included_in_blocks":
          [ "BL4At5jrbh8VS84d5miAKhM4vuk8a6Mxcyeyt2kPVRJFrjcMb2u" ] },
      { "delegate": "tz1aXD7Jigrt3PBYSpHSg5Rr33SexMmmM5Ys",
        "reception_time": "2022-01-15T15:50:17.904-00:00",
        "included_in_blocks":
          [ "BL4At5jrbh8VS84d5miAKhM4vuk8a6Mxcyeyt2kPVRJFrjcMb2u" ] },
      { "delegate": "tz1MJx9vhaNRSimcuXPK2rW4fLccQnDAnVKJ",
        "reception_time": "2022-01-15T15:50:17.810-00:00",
        "included_in_blocks":
          [ "BL4At5jrbh8VS84d5miAKhM4vuk8a6Mxcyeyt2kPVRJFrjcMb2u" ] },
      { "delegate": "tz1irJKkXS2DBWkU1NnmFQx1c1L7pbGg4yhk",
        "reception_time": "2022-01-15T15:50:17.876-00:00",
        "included_in_blocks":
          [ "BL4At5jrbh8VS84d5miAKhM4vuk8a6Mxcyeyt2kPVRJFrjcMb2u" ] },
      { "delegate": "tz1fUyqYH7H4pRHN1roWY17giXhy1RvxjgUV",
        "reception_time": "2022-01-15T15:50:17.788-00:00",
        "included_in_blocks":
          [ "BL4At5jrbh8VS84d5miAKhM4vuk8a6Mxcyeyt2kPVRJFrjcMb2u" ] },
      { "delegate": "tz3NxTnke1acr8o3h5y9ytf5awQBGNJUKzVU",
        "reception_time": "2022-01-15T15:50:17.744-00:00",
        "included_in_blocks":
          [ "BL4At5jrbh8VS84d5miAKhM4vuk8a6Mxcyeyt2kPVRJFrjcMb2u" ] },
      { "delegate": "tz1STeamwbp68THcny9zk3LsbG3H36DMvbRK",
        "reception_time": "2022-01-15T15:50:17.778-00:00",
        "included_in_blocks":
          [ "BL4At5jrbh8VS84d5miAKhM4vuk8a6Mxcyeyt2kPVRJFrjcMb2u" ] },
      { "delegate": "tz3ZbP2pM3nwvXztbuMJwJnDvV5xdpU8UkkD",
        "reception_time": "2022-01-15T15:50:17.778-00:00",
        "included_in_blocks":
          [ "BL4At5jrbh8VS84d5miAKhM4vuk8a6Mxcyeyt2kPVRJFrjcMb2u" ] },
      { "delegate": "tz1P2Po7YM526ughEsRbY4oR9zaUPDZjxFrb",
        "reception_time": "2022-01-15T15:50:16.864-00:00",
        "included_in_blocks":
          [ "BL4At5jrbh8VS84d5miAKhM4vuk8a6Mxcyeyt2kPVRJFrjcMb2u" ] },
      { "delegate": "tz1beersuEDv8Z7ngQ825xfbaJNS2EhXnyHR",
        "reception_time": "2022-01-15T15:50:17.768-00:00",
        "included_in_blocks":
          [ "BL4At5jrbh8VS84d5miAKhM4vuk8a6Mxcyeyt2kPVRJFrjcMb2u" ] },
      { "delegate": "tz1eEnQhbwf6trb8Q8mPb2RaPkNk2rN7BKi8",
        "reception_time": "2022-01-15T15:50:17.768-00:00",
        "included_in_blocks":
          [ "BL4At5jrbh8VS84d5miAKhM4vuk8a6Mxcyeyt2kPVRJFrjcMb2u" ] } ] }