{ "blocks":
    [ { "hash": "BLXRXgC5vvLzb3psCTi6jXnkgqxAtmr5j2uiKgfKioqH1sgLUpM",
        "delegate": "tz1cSj7fTex3JPd1p1LN1fwek6AV1kH93Wwc",
        "reception_time": "2022-01-15T19:15:56.342-00:00",
        "timestamp": "2022-01-15T19:15:50Z" } ],
  "endorsements":
    [ { "delegate": "tz1TRspM5SeZpaQUhzByXbEvqKF1vnCM2YTK" },
      { "delegate": "tz1ibcPVGK4Y8pcW4BYUsojiHoBKnZbyDGrX" },
      { "delegate": "tz1Scdr2HsZiQjc7bHMeBbmDRXYVvdhjJbBh",
        "reception_time": "2022-01-15T19:15:58.255-00:00",
        "included_in_blocks":
          [ "BMczMrpGv6aN54YxUa7zzTtEoeSRC4z3MHKSG33kysq5rqNvBhf" ] },
      { "delegate": "tz1eEnQhbwf6trb8Q8mPb2RaPkNk2rN7BKi8",
        "reception_time": "2022-01-15T19:15:58.270-00:00",
        "included_in_blocks":
          [ "BMczMrpGv6aN54YxUa7zzTtEoeSRC4z3MHKSG33kysq5rqNvBhf" ] },
      { "delegate": "tz1Kt4P8BCaP93AEV4eA7gmpRryWt5hznjCP",
        "reception_time": "2022-01-15T19:15:58.275-00:00",
        "included_in_blocks":
          [ "BMczMrpGv6aN54YxUa7zzTtEoeSRC4z3MHKSG33kysq5rqNvBhf" ] },
      { "delegate": "tz1gUNyn3hmnEWqkusWPzxRaon1cs7ndWh7h",
        "reception_time": "2022-01-15T19:15:58.277-00:00",
        "included_in_blocks":
          [ "BMczMrpGv6aN54YxUa7zzTtEoeSRC4z3MHKSG33kysq5rqNvBhf" ] },
      { "delegate": "tz3gtoUxdudfBRcNY7iVdKPHCYYX6xdPpoRS",
        "reception_time": "2022-01-15T19:15:58.290-00:00",
        "included_in_blocks":
          [ "BMczMrpGv6aN54YxUa7zzTtEoeSRC4z3MHKSG33kysq5rqNvBhf" ] },
      { "delegate": "tz3ZbP2pM3nwvXztbuMJwJnDvV5xdpU8UkkD",
        "reception_time": "2022-01-15T19:15:58.290-00:00",
        "included_in_blocks":
          [ "BMczMrpGv6aN54YxUa7zzTtEoeSRC4z3MHKSG33kysq5rqNvBhf" ] },
      { "delegate": "tz1VQnqCCqX4K5sP3FNkVSNKTdCAMJDd3E1n",
        "reception_time": "2022-01-15T19:15:58.292-00:00",
        "included_in_blocks":
          [ "BMczMrpGv6aN54YxUa7zzTtEoeSRC4z3MHKSG33kysq5rqNvBhf" ] },
      { "delegate": "tz1WCd2jm4uSt4vntk4vSuUWoZQGhLcDuR9q",
        "reception_time": "2022-01-15T19:15:58.301-00:00",
        "included_in_blocks":
          [ "BMczMrpGv6aN54YxUa7zzTtEoeSRC4z3MHKSG33kysq5rqNvBhf" ] },
      { "delegate": "tz1irJKkXS2DBWkU1NnmFQx1c1L7pbGg4yhk",
        "reception_time": "2022-01-15T19:15:58.301-00:00",
        "included_in_blocks":
          [ "BMczMrpGv6aN54YxUa7zzTtEoeSRC4z3MHKSG33kysq5rqNvBhf" ] },
      { "delegate": "tz3NxTnke1acr8o3h5y9ytf5awQBGNJUKzVU",
        "reception_time": "2022-01-15T19:15:58.309-00:00",
        "included_in_blocks":
          [ "BMczMrpGv6aN54YxUa7zzTtEoeSRC4z3MHKSG33kysq5rqNvBhf" ] },
      { "delegate": "tz3S6BBeKgJGXxvLyZ1xzXzMPn11nnFtq5L9",
        "reception_time": "2022-01-15T19:15:58.318-00:00",
        "included_in_blocks":
          [ "BMczMrpGv6aN54YxUa7zzTtEoeSRC4z3MHKSG33kysq5rqNvBhf" ] },
      { "delegate": "tz1Ldzz6k1BHdhuKvAtMRX7h5kJSMHESMHLC",
        "reception_time": "2022-01-15T19:15:58.318-00:00",
        "included_in_blocks":
          [ "BMczMrpGv6aN54YxUa7zzTtEoeSRC4z3MHKSG33kysq5rqNvBhf" ] },
      { "delegate": "tz1TzaNn7wSQSP5gYPXCnNzBCpyMiidCq1PX",
        "reception_time": "2022-01-15T19:15:58.322-00:00",
        "included_in_blocks":
          [ "BMczMrpGv6aN54YxUa7zzTtEoeSRC4z3MHKSG33kysq5rqNvBhf" ] },
      { "delegate": "tz3hw2kqXhLUvY65ca1eety2oQTpAvd34R9Q",
        "reception_time": "2022-01-15T19:15:58.329-00:00",
        "included_in_blocks":
          [ "BMczMrpGv6aN54YxUa7zzTtEoeSRC4z3MHKSG33kysq5rqNvBhf" ] },
      { "delegate": "tz3RKYFsLuQzKBtmYuLNas7uMu3AsYd4QdsA",
        "reception_time": "2022-01-15T19:15:58.465-00:00",
        "included_in_blocks":
          [ "BMczMrpGv6aN54YxUa7zzTtEoeSRC4z3MHKSG33kysq5rqNvBhf" ] },
      { "delegate": "tz1VmiY38m3y95HqQLjMwqnMS7sdMfGomzKi",
        "reception_time": "2022-01-15T19:15:58.465-00:00",
        "included_in_blocks":
          [ "BMczMrpGv6aN54YxUa7zzTtEoeSRC4z3MHKSG33kysq5rqNvBhf" ] },
      { "delegate": "tz1bsdrs36X5BTH83RHUBdUouKLJZK8d2oBa",
        "reception_time": "2022-01-15T19:15:58.496-00:00",
        "included_in_blocks":
          [ "BMczMrpGv6aN54YxUa7zzTtEoeSRC4z3MHKSG33kysq5rqNvBhf" ] },
      { "delegate": "tz3QSGPoRp3Kn7n3vY24eYeu3Peuqo45LQ4D",
        "reception_time": "2022-01-15T19:15:58.516-00:00",
        "included_in_blocks":
          [ "BMczMrpGv6aN54YxUa7zzTtEoeSRC4z3MHKSG33kysq5rqNvBhf" ] },
      { "delegate": "tz1aXD7Jigrt3PBYSpHSg5Rr33SexMmmM5Ys",
        "reception_time": "2022-01-15T19:15:58.549-00:00",
        "included_in_blocks":
          [ "BMczMrpGv6aN54YxUa7zzTtEoeSRC4z3MHKSG33kysq5rqNvBhf" ] },
      { "delegate": "tz3QT9dHYKDqh563chVa6za8526ys1UKfRfL",
        "reception_time": "2022-01-15T19:15:58.561-00:00",
        "included_in_blocks":
          [ "BMczMrpGv6aN54YxUa7zzTtEoeSRC4z3MHKSG33kysq5rqNvBhf" ] },
      { "delegate": "tz1PWCDnz783NNGGQjEFFsHtrcK5yBW4E2rm",
        "reception_time": "2022-01-15T19:15:58.588-00:00",
        "included_in_blocks":
          [ "BMczMrpGv6aN54YxUa7zzTtEoeSRC4z3MHKSG33kysq5rqNvBhf" ] },
      { "delegate": "tz1MQJPGNMijnXnVoBENFz9rUhaPt3S7rWoz",
        "reception_time": "2022-01-15T19:15:58.629-00:00",
        "included_in_blocks":
          [ "BMczMrpGv6aN54YxUa7zzTtEoeSRC4z3MHKSG33kysq5rqNvBhf" ] },
      { "delegate": "tz3iJu5vrKZcsqRPs8yJ61UDoeEXZmtro4qh",
        "reception_time": "2022-01-15T19:15:58.706-00:00",
        "included_in_blocks":
          [ "BMczMrpGv6aN54YxUa7zzTtEoeSRC4z3MHKSG33kysq5rqNvBhf" ] },
      { "delegate": "tz1iZvYctCtV2oGvEeXCCgUseb4qtdKh3mrV",
        "reception_time": "2022-01-15T19:15:58.718-00:00",
        "included_in_blocks":
          [ "BMczMrpGv6aN54YxUa7zzTtEoeSRC4z3MHKSG33kysq5rqNvBhf" ] },
      { "delegate": "tz1Nf6tsK4G6bBqgSQERy4nUtkHNKUVdh7q1",
        "reception_time": "2022-01-15T19:15:58.762-00:00",
        "included_in_blocks":
          [ "BMczMrpGv6aN54YxUa7zzTtEoeSRC4z3MHKSG33kysq5rqNvBhf" ] },
      { "delegate": "tz1hAYfexyzPGG6RhZZMpDvAHifubsbb6kgn",
        "reception_time": "2022-01-15T19:15:58.768-00:00",
        "included_in_blocks":
          [ "BMczMrpGv6aN54YxUa7zzTtEoeSRC4z3MHKSG33kysq5rqNvBhf" ] },
      { "delegate": "tz3Zhs2dygr55yHyQyKjntAtY9bgfhLZ4Xj1",
        "reception_time": "2022-01-15T19:15:58.774-00:00",
        "included_in_blocks":
          [ "BMczMrpGv6aN54YxUa7zzTtEoeSRC4z3MHKSG33kysq5rqNvBhf" ] },
      { "delegate": "tz3adcvQaKXTCg12zbninqo3q8ptKKtDFTLv",
        "reception_time": "2022-01-15T19:15:58.782-00:00",
        "included_in_blocks":
          [ "BMczMrpGv6aN54YxUa7zzTtEoeSRC4z3MHKSG33kysq5rqNvBhf" ] },
      { "delegate": "tz1RCFbB9GpALpsZtu6J58sb74dm8qe6XBzv",
        "reception_time": "2022-01-15T19:15:58.786-00:00",
        "included_in_blocks":
          [ "BMczMrpGv6aN54YxUa7zzTtEoeSRC4z3MHKSG33kysq5rqNvBhf" ] },
      { "delegate": "tz1gfArv665EUkSg2ojMBzcbfwuPxAvqPvjo",
        "reception_time": "2022-01-15T19:15:58.796-00:00",
        "included_in_blocks":
          [ "BMczMrpGv6aN54YxUa7zzTtEoeSRC4z3MHKSG33kysq5rqNvBhf" ] },
      { "delegate": "tz1S8MNvuFEUsWgjHvi3AxibRBf388NhT1q2",
        "reception_time": "2022-01-15T19:15:58.803-00:00",
        "included_in_blocks":
          [ "BMczMrpGv6aN54YxUa7zzTtEoeSRC4z3MHKSG33kysq5rqNvBhf" ] },
      { "delegate": "tz1MQMiZHV8q4tTwUMWmS5Y3kaP6J2136iXr",
        "reception_time": "2022-01-15T19:15:58.807-00:00",
        "included_in_blocks":
          [ "BMczMrpGv6aN54YxUa7zzTtEoeSRC4z3MHKSG33kysq5rqNvBhf" ] },
      { "delegate": "tz1ei4WtWEMEJekSv8qDnu9PExG6Q8HgRGr3",
        "reception_time": "2022-01-15T19:15:58.810-00:00",
        "included_in_blocks":
          [ "BMczMrpGv6aN54YxUa7zzTtEoeSRC4z3MHKSG33kysq5rqNvBhf" ] },
      { "delegate": "tz3NDpRj6WBrJPikcPVHRBEjWKxFw3c6eQPS",
        "reception_time": "2022-01-15T19:15:58.821-00:00",
        "included_in_blocks":
          [ "BMczMrpGv6aN54YxUa7zzTtEoeSRC4z3MHKSG33kysq5rqNvBhf" ] },
      { "delegate": "tz2FCNBrERXtaTtNX6iimR1UJ5JSDxvdHM93",
        "reception_time": "2022-01-15T19:15:58.823-00:00",
        "included_in_blocks":
          [ "BMczMrpGv6aN54YxUa7zzTtEoeSRC4z3MHKSG33kysq5rqNvBhf" ] },
      { "delegate": "tz3gLTu4Yxj8tPAcriQVUdxv6BY9QyvzU1az",
        "reception_time": "2022-01-15T19:15:58.830-00:00",
        "included_in_blocks":
          [ "BMczMrpGv6aN54YxUa7zzTtEoeSRC4z3MHKSG33kysq5rqNvBhf" ] },
      { "delegate": "tz3QCNyySViKHmeSr45kzDxzchys7NiXCWoa",
        "reception_time": "2022-01-15T19:15:58.838-00:00",
        "included_in_blocks":
          [ "BMczMrpGv6aN54YxUa7zzTtEoeSRC4z3MHKSG33kysq5rqNvBhf" ] },
      { "delegate": "tz3bTdwZinP8U1JmSweNzVKhmwafqWmFWRfk",
        "reception_time": "2022-01-15T19:15:58.887-00:00",
        "included_in_blocks":
          [ "BMczMrpGv6aN54YxUa7zzTtEoeSRC4z3MHKSG33kysq5rqNvBhf" ] },
      { "delegate": "tz3RB4aoyjov4KEVRbuhvQ1CKJgBJMWhaeB8",
        "reception_time": "2022-01-15T19:15:58.946-00:00",
        "included_in_blocks":
          [ "BMczMrpGv6aN54YxUa7zzTtEoeSRC4z3MHKSG33kysq5rqNvBhf" ] },
      { "delegate": "tz1SohptP53wDPZhzTWzDUFAUcWF6DMBpaJV",
        "reception_time": "2022-01-15T19:15:58.954-00:00",
        "included_in_blocks":
          [ "BMczMrpGv6aN54YxUa7zzTtEoeSRC4z3MHKSG33kysq5rqNvBhf" ] },
      { "delegate": "tz1abmz7jiCV2GH2u81LRrGgAFFgvQgiDiaf",
        "reception_time": "2022-01-15T19:15:58.999-00:00",
        "included_in_blocks":
          [ "BMczMrpGv6aN54YxUa7zzTtEoeSRC4z3MHKSG33kysq5rqNvBhf" ] },
      { "delegate": "tz1Vd1rXpV8hTHbFXCXN3c3qzCsgcU5BZw1e",
        "reception_time": "2022-01-15T19:15:59.121-00:00",
        "included_in_blocks":
          [ "BMczMrpGv6aN54YxUa7zzTtEoeSRC4z3MHKSG33kysq5rqNvBhf" ] },
      { "delegate": "tz1SYq214SCBy9naR6cvycQsYcUGpBqQAE8d",
        "reception_time": "2022-01-15T19:15:59.340-00:00",
        "included_in_blocks":
          [ "BMczMrpGv6aN54YxUa7zzTtEoeSRC4z3MHKSG33kysq5rqNvBhf" ] },
      { "delegate": "tz1WBfwbT66FC6BTLexc2BoyCCBM9LG7pnVW",
        "reception_time": "2022-01-15T19:15:59.366-00:00",
        "included_in_blocks":
          [ "BMczMrpGv6aN54YxUa7zzTtEoeSRC4z3MHKSG33kysq5rqNvBhf" ] },
      { "delegate": "tz1hYj2SDMv9UfagrUiaAhnCrzoF9RqFK7eM",
        "reception_time": "2022-01-15T19:15:59.370-00:00",
        "included_in_blocks":
          [ "BMczMrpGv6aN54YxUa7zzTtEoeSRC4z3MHKSG33kysq5rqNvBhf" ] },
      { "delegate": "tz1Mc61yajNASzh5KWZFtYs4i7EJbzAxQC4K",
        "reception_time": "2022-01-15T19:15:59.377-00:00",
        "included_in_blocks":
          [ "BMczMrpGv6aN54YxUa7zzTtEoeSRC4z3MHKSG33kysq5rqNvBhf" ] },
      { "delegate": "tz1RjoHc98dBoqaH2jawF62XNKh7YsHwbkEv",
        "reception_time": "2022-01-15T19:15:59.505-00:00",
        "included_in_blocks":
          [ "BMczMrpGv6aN54YxUa7zzTtEoeSRC4z3MHKSG33kysq5rqNvBhf" ] },
      { "delegate": "tz1NEKxGEHsFufk87CVZcrqWu8o22qh46GK6",
        "reception_time": "2022-01-15T19:15:59.507-00:00",
        "included_in_blocks":
          [ "BMczMrpGv6aN54YxUa7zzTtEoeSRC4z3MHKSG33kysq5rqNvBhf" ] },
      { "delegate": "tz3UoffC7FG7zfpmvmjUmUeAaHvzdcUvAj6r",
        "reception_time": "2022-01-15T19:15:59.553-00:00",
        "included_in_blocks":
          [ "BMczMrpGv6aN54YxUa7zzTtEoeSRC4z3MHKSG33kysq5rqNvBhf" ] },
      { "delegate": "tz3VEZ4k6a4Wx42iyev6i2aVAptTRLEAivNN",
        "reception_time": "2022-01-15T19:15:59.561-00:00",
        "included_in_blocks":
          [ "BMczMrpGv6aN54YxUa7zzTtEoeSRC4z3MHKSG33kysq5rqNvBhf" ] },
      { "delegate": "tz3RDC3Jdn4j15J7bBHZd29EUee9gVB1CxD9",
        "reception_time": "2022-01-15T19:15:59.609-00:00",
        "included_in_blocks":
          [ "BMczMrpGv6aN54YxUa7zzTtEoeSRC4z3MHKSG33kysq5rqNvBhf" ] },
      { "delegate": "tz1TRqbYbUf2GyrjErf3hBzgBJPzW8y36qEs",
        "reception_time": "2022-01-15T19:15:59.698-00:00",
        "included_in_blocks":
          [ "BMczMrpGv6aN54YxUa7zzTtEoeSRC4z3MHKSG33kysq5rqNvBhf" ] },
      { "delegate": "tz3WMqdzXqRWXwyvj5Hp2H7QEepaUuS7vd9K",
        "reception_time": "2022-01-15T19:15:59.760-00:00",
        "included_in_blocks":
          [ "BMczMrpGv6aN54YxUa7zzTtEoeSRC4z3MHKSG33kysq5rqNvBhf" ] },
      { "delegate": "tz1awXW7wuXy21c66vBudMXQVAPgRnqqwgTH",
        "reception_time": "2022-01-15T19:15:59.779-00:00",
        "included_in_blocks":
          [ "BMczMrpGv6aN54YxUa7zzTtEoeSRC4z3MHKSG33kysq5rqNvBhf" ] },
      { "delegate": "tz1UvkANVPWppVgMkLnvN7BwYZsCP7vm6NVd",
        "reception_time": "2022-01-15T19:15:59.784-00:00",
        "included_in_blocks":
          [ "BMczMrpGv6aN54YxUa7zzTtEoeSRC4z3MHKSG33kysq5rqNvBhf" ] },
      { "delegate": "tz1V3yg82mcrPJbegqVCPn6bC8w1CSTRp3f8",
        "reception_time": "2022-01-15T19:15:59.900-00:00",
        "included_in_blocks":
          [ "BMczMrpGv6aN54YxUa7zzTtEoeSRC4z3MHKSG33kysq5rqNvBhf" ] },
      { "delegate": "tz1Zdk8q7wNasmv7VFeQ6QFwcw5fP2c7StoF",
        "reception_time": "2022-01-15T19:16:00.031-00:00",
        "included_in_blocks":
          [ "BMczMrpGv6aN54YxUa7zzTtEoeSRC4z3MHKSG33kysq5rqNvBhf" ] },
      { "delegate": "tz3bvNMQ95vfAYtG8193ymshqjSvmxiCUuR5",
        "reception_time": "2022-01-15T19:16:00.045-00:00",
        "included_in_blocks":
          [ "BMczMrpGv6aN54YxUa7zzTtEoeSRC4z3MHKSG33kysq5rqNvBhf" ] },
      { "delegate": "tz1dNVDWPf3Q59SdJqnjdnu277iyvReiRS9M",
        "reception_time": "2022-01-15T19:16:00.314-00:00",
        "included_in_blocks":
          [ "BMczMrpGv6aN54YxUa7zzTtEoeSRC4z3MHKSG33kysq5rqNvBhf" ] },
      { "delegate": "tz1T7duV5gZWSTq4YpBGbXNLTfznCLDrFxvs",
        "reception_time": "2022-01-15T19:16:00.329-00:00",
        "included_in_blocks":
          [ "BMczMrpGv6aN54YxUa7zzTtEoeSRC4z3MHKSG33kysq5rqNvBhf" ] },
      { "delegate": "tz3NExpXn9aPNZPorRE4SdjJ2RGrfbJgMAaV",
        "reception_time": "2022-01-15T19:16:00.478-00:00",
        "included_in_blocks":
          [ "BMczMrpGv6aN54YxUa7zzTtEoeSRC4z3MHKSG33kysq5rqNvBhf" ] },
      { "delegate": "tz1aRoaRhSpRYvFdyvgWLL6TGyRoGF51wDjM",
        "reception_time": "2022-01-15T19:16:00.535-00:00",
        "included_in_blocks":
          [ "BMczMrpGv6aN54YxUa7zzTtEoeSRC4z3MHKSG33kysq5rqNvBhf" ] },
      { "delegate": "tz1ZcTRk5uxD86EFEn1vvNffWWqJy7q5eVhc",
        "reception_time": "2022-01-15T19:16:00.596-00:00",
        "included_in_blocks":
          [ "BMczMrpGv6aN54YxUa7zzTtEoeSRC4z3MHKSG33kysq5rqNvBhf" ] },
      { "delegate": "tz1W5VkdB5s7ENMESVBtwyt9kyvLqPcUczRT",
        "reception_time": "2022-01-15T19:16:01.886-00:00",
        "included_in_blocks":
          [ "BMczMrpGv6aN54YxUa7zzTtEoeSRC4z3MHKSG33kysq5rqNvBhf" ] },
      { "delegate": "tz1NpWrAyDL9k2Lmnyxcgr9xuJakbBxdq7FB",
        "reception_time": "2022-01-15T19:16:05.199-00:00",
        "included_in_blocks":
          [ "BMczMrpGv6aN54YxUa7zzTtEoeSRC4z3MHKSG33kysq5rqNvBhf" ] } ] }