{ "blocks":
    [ { "hash": "BLRdHUatFFduUUaZeVjK1FqFM7htMKMow4WiP4VkppZoUX43nwZ",
        "delegate": "tz2FCNBrERXtaTtNX6iimR1UJ5JSDxvdHM93",
        "reception_time": "2022-01-15T12:35:45.957-00:00",
        "timestamp": "2022-01-15T12:35:40Z" } ],
  "endorsements":
    [ { "delegate": "tz1S8e9GgdZG78XJRB3NqabfWeM37GnhZMWQ",
        "reception_time": "2022-01-15T12:35:45.801-00:00",
        "errors":
          [ { "kind": "temporary",
              "id": "proto.011-PtHangz2.prefilter.outdated_endorsement" } ],
        "included_in_blocks":
          [ "BM8ZxKzx8ew86hW8UtqXWg8n4Fvmz4cG6w83TGDcHefRh1iYH42" ] },
      { "delegate": "tz1ibcPVGK4Y8pcW4BYUsojiHoBKnZbyDGrX" },
      { "delegate": "tz1eEnQhbwf6trb8Q8mPb2RaPkNk2rN7BKi8",
        "reception_time": "2022-01-15T12:35:47.785-00:00",
        "included_in_blocks":
          [ "BM8ZxKzx8ew86hW8UtqXWg8n4Fvmz4cG6w83TGDcHefRh1iYH42" ] },
      { "delegate": "tz1Scdr2HsZiQjc7bHMeBbmDRXYVvdhjJbBh",
        "reception_time": "2022-01-15T12:35:47.788-00:00",
        "included_in_blocks":
          [ "BM8ZxKzx8ew86hW8UtqXWg8n4Fvmz4cG6w83TGDcHefRh1iYH42" ] },
      { "delegate": "tz3NxTnke1acr8o3h5y9ytf5awQBGNJUKzVU",
        "reception_time": "2022-01-15T12:35:47.799-00:00",
        "included_in_blocks":
          [ "BM8ZxKzx8ew86hW8UtqXWg8n4Fvmz4cG6w83TGDcHefRh1iYH42" ] },
      { "delegate": "tz1irJKkXS2DBWkU1NnmFQx1c1L7pbGg4yhk",
        "reception_time": "2022-01-15T12:35:47.799-00:00",
        "included_in_blocks":
          [ "BM8ZxKzx8ew86hW8UtqXWg8n4Fvmz4cG6w83TGDcHefRh1iYH42" ] },
      { "delegate": "tz1P2Po7YM526ughEsRbY4oR9zaUPDZjxFrb",
        "reception_time": "2022-01-15T12:35:47.804-00:00",
        "included_in_blocks":
          [ "BM8ZxKzx8ew86hW8UtqXWg8n4Fvmz4cG6w83TGDcHefRh1iYH42" ] },
      { "delegate": "tz1TXzyaKUA8wsWefdSnyaYFnV2M3vCV7er9",
        "reception_time": "2022-01-15T12:35:47.808-00:00",
        "included_in_blocks":
          [ "BM8ZxKzx8ew86hW8UtqXWg8n4Fvmz4cG6w83TGDcHefRh1iYH42" ] },
      { "delegate": "tz1ZPh7XfUaJXUDvkrBxmS1BjEM1i62hiPpM",
        "reception_time": "2022-01-15T12:35:47.811-00:00",
        "included_in_blocks":
          [ "BM8ZxKzx8ew86hW8UtqXWg8n4Fvmz4cG6w83TGDcHefRh1iYH42" ] },
      { "delegate": "tz3ZbP2pM3nwvXztbuMJwJnDvV5xdpU8UkkD",
        "reception_time": "2022-01-15T12:35:47.819-00:00",
        "included_in_blocks":
          [ "BM8ZxKzx8ew86hW8UtqXWg8n4Fvmz4cG6w83TGDcHefRh1iYH42" ] },
      { "delegate": "tz1eDDuQBEgwvc6tbnnCVrnr12tvrd6gBTpx",
        "reception_time": "2022-01-15T12:35:47.825-00:00",
        "included_in_blocks":
          [ "BM8ZxKzx8ew86hW8UtqXWg8n4Fvmz4cG6w83TGDcHefRh1iYH42" ] },
      { "delegate": "tz1Ldzz6k1BHdhuKvAtMRX7h5kJSMHESMHLC",
        "reception_time": "2022-01-15T12:35:47.849-00:00",
        "included_in_blocks":
          [ "BM8ZxKzx8ew86hW8UtqXWg8n4Fvmz4cG6w83TGDcHefRh1iYH42" ] },
      { "delegate": "tz3QT9dHYKDqh563chVa6za8526ys1UKfRfL",
        "reception_time": "2022-01-15T12:35:47.858-00:00",
        "included_in_blocks":
          [ "BM8ZxKzx8ew86hW8UtqXWg8n4Fvmz4cG6w83TGDcHefRh1iYH42" ] },
      { "delegate": "tz3RKYFsLuQzKBtmYuLNas7uMu3AsYd4QdsA",
        "reception_time": "2022-01-15T12:35:47.878-00:00",
        "included_in_blocks":
          [ "BM8ZxKzx8ew86hW8UtqXWg8n4Fvmz4cG6w83TGDcHefRh1iYH42" ] },
      { "delegate": "tz3iJu5vrKZcsqRPs8yJ61UDoeEXZmtro4qh",
        "reception_time": "2022-01-15T12:35:47.878-00:00",
        "included_in_blocks":
          [ "BM8ZxKzx8ew86hW8UtqXWg8n4Fvmz4cG6w83TGDcHefRh1iYH42" ] },
      { "delegate": "tz3hw2kqXhLUvY65ca1eety2oQTpAvd34R9Q",
        "reception_time": "2022-01-15T12:35:47.890-00:00",
        "included_in_blocks":
          [ "BM8ZxKzx8ew86hW8UtqXWg8n4Fvmz4cG6w83TGDcHefRh1iYH42" ] },
      { "delegate": "tz3QSGPoRp3Kn7n3vY24eYeu3Peuqo45LQ4D",
        "reception_time": "2022-01-15T12:35:47.925-00:00",
        "included_in_blocks":
          [ "BM8ZxKzx8ew86hW8UtqXWg8n4Fvmz4cG6w83TGDcHefRh1iYH42" ] },
      { "delegate": "tz1gUNyn3hmnEWqkusWPzxRaon1cs7ndWh7h",
        "reception_time": "2022-01-15T12:35:47.934-00:00",
        "included_in_blocks":
          [ "BM8ZxKzx8ew86hW8UtqXWg8n4Fvmz4cG6w83TGDcHefRh1iYH42" ] },
      { "delegate": "tz1bHzftcTKZMTZgLLtnrXydCm6UEqf4ivca",
        "reception_time": "2022-01-15T12:35:47.938-00:00",
        "included_in_blocks":
          [ "BM8ZxKzx8ew86hW8UtqXWg8n4Fvmz4cG6w83TGDcHefRh1iYH42" ] },
      { "delegate": "tz3gtoUxdudfBRcNY7iVdKPHCYYX6xdPpoRS",
        "reception_time": "2022-01-15T12:35:47.961-00:00",
        "included_in_blocks":
          [ "BM8ZxKzx8ew86hW8UtqXWg8n4Fvmz4cG6w83TGDcHefRh1iYH42" ] },
      { "delegate": "tz1VmiY38m3y95HqQLjMwqnMS7sdMfGomzKi",
        "reception_time": "2022-01-15T12:35:47.968-00:00",
        "included_in_blocks":
          [ "BM8ZxKzx8ew86hW8UtqXWg8n4Fvmz4cG6w83TGDcHefRh1iYH42" ] },
      { "delegate": "tz3S6BBeKgJGXxvLyZ1xzXzMPn11nnFtq5L9",
        "reception_time": "2022-01-15T12:35:47.978-00:00",
        "included_in_blocks":
          [ "BM8ZxKzx8ew86hW8UtqXWg8n4Fvmz4cG6w83TGDcHefRh1iYH42" ] },
      { "delegate": "tz1VQnqCCqX4K5sP3FNkVSNKTdCAMJDd3E1n",
        "reception_time": "2022-01-15T12:35:47.978-00:00",
        "included_in_blocks":
          [ "BM8ZxKzx8ew86hW8UtqXWg8n4Fvmz4cG6w83TGDcHefRh1iYH42" ] },
      { "delegate": "tz1WCd2jm4uSt4vntk4vSuUWoZQGhLcDuR9q",
        "reception_time": "2022-01-15T12:35:47.985-00:00",
        "included_in_blocks":
          [ "BM8ZxKzx8ew86hW8UtqXWg8n4Fvmz4cG6w83TGDcHefRh1iYH42" ] },
      { "delegate": "tz1ajgycuHmd2z2JbTSJxKv7x6cok2KuNSk1",
        "reception_time": "2022-01-15T12:35:47.985-00:00",
        "included_in_blocks":
          [ "BM8ZxKzx8ew86hW8UtqXWg8n4Fvmz4cG6w83TGDcHefRh1iYH42" ] },
      { "delegate": "tz1cSj7fTex3JPd1p1LN1fwek6AV1kH93Wwc",
        "reception_time": "2022-01-15T12:35:47.995-00:00",
        "included_in_blocks":
          [ "BM8ZxKzx8ew86hW8UtqXWg8n4Fvmz4cG6w83TGDcHefRh1iYH42" ] },
      { "delegate": "tz1TzaNn7wSQSP5gYPXCnNzBCpyMiidCq1PX",
        "reception_time": "2022-01-15T12:35:48.006-00:00",
        "included_in_blocks":
          [ "BM8ZxKzx8ew86hW8UtqXWg8n4Fvmz4cG6w83TGDcHefRh1iYH42" ] },
      { "delegate": "tz1fPKAtsYydh4f1wfWNfeNxWYu72TmM48fu",
        "reception_time": "2022-01-15T12:35:48.023-00:00",
        "included_in_blocks":
          [ "BM8ZxKzx8ew86hW8UtqXWg8n4Fvmz4cG6w83TGDcHefRh1iYH42" ] },
      { "delegate": "tz1dwu9aYb7CRNq4Y2zAjipdjFuSVKhHS8vA",
        "reception_time": "2022-01-15T12:35:48.054-00:00",
        "included_in_blocks":
          [ "BM8ZxKzx8ew86hW8UtqXWg8n4Fvmz4cG6w83TGDcHefRh1iYH42" ] },
      { "delegate": "tz1fb7c66UwePkkfDXz4ajFaBP9hVNLdS7JJ",
        "reception_time": "2022-01-15T12:35:48.057-00:00",
        "included_in_blocks":
          [ "BM8ZxKzx8ew86hW8UtqXWg8n4Fvmz4cG6w83TGDcHefRh1iYH42" ] },
      { "delegate": "tz1gfArv665EUkSg2ojMBzcbfwuPxAvqPvjo",
        "reception_time": "2022-01-15T12:35:48.061-00:00",
        "included_in_blocks":
          [ "BM8ZxKzx8ew86hW8UtqXWg8n4Fvmz4cG6w83TGDcHefRh1iYH42" ] },
      { "delegate": "tz3RB4aoyjov4KEVRbuhvQ1CKJgBJMWhaeB8",
        "reception_time": "2022-01-15T12:35:48.100-00:00",
        "included_in_blocks":
          [ "BM8ZxKzx8ew86hW8UtqXWg8n4Fvmz4cG6w83TGDcHefRh1iYH42" ] },
      { "delegate": "tz1S8MNvuFEUsWgjHvi3AxibRBf388NhT1q2",
        "reception_time": "2022-01-15T12:35:48.109-00:00",
        "included_in_blocks":
          [ "BM8ZxKzx8ew86hW8UtqXWg8n4Fvmz4cG6w83TGDcHefRh1iYH42" ] },
      { "delegate": "tz1ci1ARnm8JoYV16Hbe4FoxX17yFEAQVytg",
        "reception_time": "2022-01-15T12:35:48.127-00:00",
        "included_in_blocks":
          [ "BM8ZxKzx8ew86hW8UtqXWg8n4Fvmz4cG6w83TGDcHefRh1iYH42" ] },
      { "delegate": "tz3bTdwZinP8U1JmSweNzVKhmwafqWmFWRfk",
        "reception_time": "2022-01-15T12:35:48.134-00:00",
        "included_in_blocks":
          [ "BM8ZxKzx8ew86hW8UtqXWg8n4Fvmz4cG6w83TGDcHefRh1iYH42" ] },
      { "delegate": "tz1RCFbB9GpALpsZtu6J58sb74dm8qe6XBzv",
        "reception_time": "2022-01-15T12:35:48.138-00:00",
        "included_in_blocks":
          [ "BM8ZxKzx8ew86hW8UtqXWg8n4Fvmz4cG6w83TGDcHefRh1iYH42" ] },
      { "delegate": "tz2FCNBrERXtaTtNX6iimR1UJ5JSDxvdHM93",
        "reception_time": "2022-01-15T12:35:48.147-00:00",
        "included_in_blocks":
          [ "BM8ZxKzx8ew86hW8UtqXWg8n4Fvmz4cG6w83TGDcHefRh1iYH42" ] },
      { "delegate": "tz1V4qCyvPKZ5UeqdH14HN42rxvNPQfc9UZg",
        "reception_time": "2022-01-15T12:35:48.153-00:00",
        "included_in_blocks":
          [ "BM8ZxKzx8ew86hW8UtqXWg8n4Fvmz4cG6w83TGDcHefRh1iYH42" ] },
      { "delegate": "tz1SRqg1KT7dJ5QxF9PWnWdfbXgh6HfKZxbd",
        "reception_time": "2022-01-15T12:35:48.175-00:00",
        "included_in_blocks":
          [ "BM8ZxKzx8ew86hW8UtqXWg8n4Fvmz4cG6w83TGDcHefRh1iYH42" ] },
      { "delegate": "tz1NortRftucvAkD1J58L32EhSVrQEWJCEnB",
        "reception_time": "2022-01-15T12:35:48.182-00:00",
        "included_in_blocks":
          [ "BM8ZxKzx8ew86hW8UtqXWg8n4Fvmz4cG6w83TGDcHefRh1iYH42" ] },
      { "delegate": "tz1ei4WtWEMEJekSv8qDnu9PExG6Q8HgRGr3",
        "reception_time": "2022-01-15T12:35:48.202-00:00",
        "included_in_blocks":
          [ "BM8ZxKzx8ew86hW8UtqXWg8n4Fvmz4cG6w83TGDcHefRh1iYH42" ] },
      { "delegate": "tz3NDpRj6WBrJPikcPVHRBEjWKxFw3c6eQPS",
        "reception_time": "2022-01-15T12:35:48.250-00:00",
        "included_in_blocks":
          [ "BM8ZxKzx8ew86hW8UtqXWg8n4Fvmz4cG6w83TGDcHefRh1iYH42" ] },
      { "delegate": "tz1Tnjaxk6tbAeC2TmMApPh8UsrEVQvhHvx5",
        "reception_time": "2022-01-15T12:35:48.253-00:00",
        "included_in_blocks":
          [ "BM8ZxKzx8ew86hW8UtqXWg8n4Fvmz4cG6w83TGDcHefRh1iYH42" ] },
      { "delegate": "tz1Nf6tsK4G6bBqgSQERy4nUtkHNKUVdh7q1",
        "reception_time": "2022-01-15T12:35:48.258-00:00",
        "included_in_blocks":
          [ "BM8ZxKzx8ew86hW8UtqXWg8n4Fvmz4cG6w83TGDcHefRh1iYH42" ] },
      { "delegate": "tz1WBfwbT66FC6BTLexc2BoyCCBM9LG7pnVW",
        "reception_time": "2022-01-15T12:35:48.266-00:00",
        "included_in_blocks":
          [ "BM8ZxKzx8ew86hW8UtqXWg8n4Fvmz4cG6w83TGDcHefRh1iYH42" ] },
      { "delegate": "tz1TEc75UKXv4W5cwi14Na3NtqFD51yKQi7h",
        "reception_time": "2022-01-15T12:35:48.273-00:00",
        "included_in_blocks":
          [ "BM8ZxKzx8ew86hW8UtqXWg8n4Fvmz4cG6w83TGDcHefRh1iYH42" ] },
      { "delegate": "tz1aDiEJf9ztRrAJEXZfcG3CKimoKsGhwVAi",
        "reception_time": "2022-01-15T12:35:48.295-00:00",
        "included_in_blocks":
          [ "BM8ZxKzx8ew86hW8UtqXWg8n4Fvmz4cG6w83TGDcHefRh1iYH42" ] },
      { "delegate": "tz1MQJPGNMijnXnVoBENFz9rUhaPt3S7rWoz",
        "reception_time": "2022-01-15T12:35:48.322-00:00",
        "included_in_blocks":
          [ "BM8ZxKzx8ew86hW8UtqXWg8n4Fvmz4cG6w83TGDcHefRh1iYH42" ] },
      { "delegate": "tz1KfEsrtDaA1sX7vdM4qmEPWuSytuqCDp5j",
        "reception_time": "2022-01-15T12:35:48.344-00:00",
        "included_in_blocks":
          [ "BM8ZxKzx8ew86hW8UtqXWg8n4Fvmz4cG6w83TGDcHefRh1iYH42" ] },
      { "delegate": "tz1NoYvKjXTzTk54VpLxBfouJ33J8jwKPPvw",
        "reception_time": "2022-01-15T12:35:48.448-00:00",
        "included_in_blocks":
          [ "BM8ZxKzx8ew86hW8UtqXWg8n4Fvmz4cG6w83TGDcHefRh1iYH42" ] },
      { "delegate": "tz1SYq214SCBy9naR6cvycQsYcUGpBqQAE8d",
        "reception_time": "2022-01-15T12:35:48.580-00:00",
        "included_in_blocks":
          [ "BM8ZxKzx8ew86hW8UtqXWg8n4Fvmz4cG6w83TGDcHefRh1iYH42" ] },
      { "delegate": "tz1RjoHc98dBoqaH2jawF62XNKh7YsHwbkEv",
        "reception_time": "2022-01-15T12:35:48.591-00:00",
        "included_in_blocks":
          [ "BM8ZxKzx8ew86hW8UtqXWg8n4Fvmz4cG6w83TGDcHefRh1iYH42" ] },
      { "delegate": "tz1X4Qb9NJ7JEuitX3jFpZptuAh7DUnCaLs1",
        "reception_time": "2022-01-15T12:35:48.656-00:00",
        "included_in_blocks":
          [ "BM8ZxKzx8ew86hW8UtqXWg8n4Fvmz4cG6w83TGDcHefRh1iYH42" ] },
      { "delegate": "tz3WMqdzXqRWXwyvj5Hp2H7QEepaUuS7vd9K",
        "reception_time": "2022-01-15T12:35:48.796-00:00",
        "included_in_blocks":
          [ "BM8ZxKzx8ew86hW8UtqXWg8n4Fvmz4cG6w83TGDcHefRh1iYH42" ] },
      { "delegate": "tz3RDC3Jdn4j15J7bBHZd29EUee9gVB1CxD9",
        "reception_time": "2022-01-15T12:35:48.953-00:00",
        "included_in_blocks":
          [ "BM8ZxKzx8ew86hW8UtqXWg8n4Fvmz4cG6w83TGDcHefRh1iYH42" ] },
      { "delegate": "tz1V3yg82mcrPJbegqVCPn6bC8w1CSTRp3f8",
        "reception_time": "2022-01-15T12:35:49.016-00:00",
        "included_in_blocks":
          [ "BM8ZxKzx8ew86hW8UtqXWg8n4Fvmz4cG6w83TGDcHefRh1iYH42" ] },
      { "delegate": "tz3VEZ4k6a4Wx42iyev6i2aVAptTRLEAivNN",
        "reception_time": "2022-01-15T12:35:49.122-00:00",
        "included_in_blocks":
          [ "BM8ZxKzx8ew86hW8UtqXWg8n4Fvmz4cG6w83TGDcHefRh1iYH42" ] },
      { "delegate": "tz1T7duV5gZWSTq4YpBGbXNLTfznCLDrFxvs",
        "reception_time": "2022-01-15T12:35:49.126-00:00",
        "included_in_blocks":
          [ "BM8ZxKzx8ew86hW8UtqXWg8n4Fvmz4cG6w83TGDcHefRh1iYH42" ] },
      { "delegate": "tz1TRqbYbUf2GyrjErf3hBzgBJPzW8y36qEs",
        "reception_time": "2022-01-15T12:35:49.160-00:00",
        "included_in_blocks":
          [ "BM8ZxKzx8ew86hW8UtqXWg8n4Fvmz4cG6w83TGDcHefRh1iYH42" ] },
      { "delegate": "tz3bvNMQ95vfAYtG8193ymshqjSvmxiCUuR5",
        "reception_time": "2022-01-15T12:35:49.285-00:00",
        "included_in_blocks":
          [ "BM8ZxKzx8ew86hW8UtqXWg8n4Fvmz4cG6w83TGDcHefRh1iYH42" ] },
      { "delegate": "tz1cYufsxHXJcvANhvS55h3aY32a9BAFB494",
        "reception_time": "2022-01-15T12:35:49.419-00:00",
        "included_in_blocks":
          [ "BM8ZxKzx8ew86hW8UtqXWg8n4Fvmz4cG6w83TGDcHefRh1iYH42" ] },
      { "delegate": "tz1dRKU4FQ9QRRQPdaH4zCR6gmCmXfcvcgtB",
        "reception_time": "2022-01-15T12:35:49.434-00:00",
        "included_in_blocks":
          [ "BM8ZxKzx8ew86hW8UtqXWg8n4Fvmz4cG6w83TGDcHefRh1iYH42" ] },
      { "delegate": "tz3NExpXn9aPNZPorRE4SdjJ2RGrfbJgMAaV",
        "reception_time": "2022-01-15T12:35:49.639-00:00",
        "included_in_blocks":
          [ "BM8ZxKzx8ew86hW8UtqXWg8n4Fvmz4cG6w83TGDcHefRh1iYH42" ] },
      { "delegate": "tz1aRoaRhSpRYvFdyvgWLL6TGyRoGF51wDjM",
        "reception_time": "2022-01-15T12:35:49.696-00:00",
        "included_in_blocks":
          [ "BM8ZxKzx8ew86hW8UtqXWg8n4Fvmz4cG6w83TGDcHefRh1iYH42" ] },
      { "delegate": "tz3UoffC7FG7zfpmvmjUmUeAaHvzdcUvAj6r",
        "reception_time": "2022-01-15T12:35:49.836-00:00",
        "included_in_blocks":
          [ "BM8ZxKzx8ew86hW8UtqXWg8n4Fvmz4cG6w83TGDcHefRh1iYH42" ] },
      { "delegate": "tz1cM8Xc7ZP1TrjkTeKq4PeRhtbnwXSBR6Sw",
        "reception_time": "2022-01-15T12:35:50.538-00:00",
        "included_in_blocks":
          [ "BM8ZxKzx8ew86hW8UtqXWg8n4Fvmz4cG6w83TGDcHefRh1iYH42" ] },
      { "delegate": "tz1eVaNx3gCmG1EsLjijkmgAxdLYVf6Bf5Sq",
        "reception_time": "2022-01-15T12:35:50.547-00:00",
        "included_in_blocks":
          [ "BM8ZxKzx8ew86hW8UtqXWg8n4Fvmz4cG6w83TGDcHefRh1iYH42" ] },
      { "delegate": "tz1W5VkdB5s7ENMESVBtwyt9kyvLqPcUczRT",
        "reception_time": "2022-01-15T12:35:50.935-00:00",
        "included_in_blocks":
          [ "BM8ZxKzx8ew86hW8UtqXWg8n4Fvmz4cG6w83TGDcHefRh1iYH42" ] } ] }