{ "blocks":
    [ { "hash": "BLrbJ1VJXKWWqaTiPLA8NVvqfycTact1Bxg38YaCHd671pPigrv",
        "delegate": "tz1VQnqCCqX4K5sP3FNkVSNKTdCAMJDd3E1n",
        "reception_time": "2022-01-15T19:09:56.188-00:00",
        "timestamp": "2022-01-15T19:09:50Z" } ],
  "endorsements":
    [ { "delegate": "tz3gtoUxdudfBRcNY7iVdKPHCYYX6xdPpoRS",
        "reception_time": "2022-01-15T19:09:56.165-00:00",
        "errors":
          [ { "kind": "temporary",
              "id": "proto.011-PtHangz2.prefilter.outdated_endorsement" } ],
        "included_in_blocks":
          [ "BL721G8Y9RSJXUN3oZUgAbgvycmdKP2moAmYUdHrJFQfNB7S9ji" ] },
      { "delegate": "tz3QSGPoRp3Kn7n3vY24eYeu3Peuqo45LQ4D",
        "reception_time": "2022-01-15T19:09:56.143-00:00",
        "errors":
          [ { "kind": "temporary",
              "id": "proto.011-PtHangz2.prefilter.outdated_endorsement" } ],
        "included_in_blocks":
          [ "BL721G8Y9RSJXUN3oZUgAbgvycmdKP2moAmYUdHrJFQfNB7S9ji" ] },
      { "delegate": "tz1irJKkXS2DBWkU1NnmFQx1c1L7pbGg4yhk",
        "reception_time": "2022-01-15T19:09:56.087-00:00",
        "errors":
          [ { "kind": "temporary",
              "id": "proto.011-PtHangz2.prefilter.outdated_endorsement" } ],
        "included_in_blocks":
          [ "BL721G8Y9RSJXUN3oZUgAbgvycmdKP2moAmYUdHrJFQfNB7S9ji" ] },
      { "delegate": "tz3RKYFsLuQzKBtmYuLNas7uMu3AsYd4QdsA",
        "reception_time": "2022-01-15T19:09:56.076-00:00",
        "errors":
          [ { "kind": "temporary",
              "id": "proto.011-PtHangz2.prefilter.outdated_endorsement" } ],
        "included_in_blocks":
          [ "BL721G8Y9RSJXUN3oZUgAbgvycmdKP2moAmYUdHrJFQfNB7S9ji" ] },
      { "delegate": "tz3hw2kqXhLUvY65ca1eety2oQTpAvd34R9Q",
        "reception_time": "2022-01-15T19:09:56.075-00:00",
        "errors":
          [ { "kind": "temporary",
              "id": "proto.011-PtHangz2.prefilter.outdated_endorsement" } ],
        "included_in_blocks":
          [ "BL721G8Y9RSJXUN3oZUgAbgvycmdKP2moAmYUdHrJFQfNB7S9ji" ] },
      { "delegate": "tz3S6BBeKgJGXxvLyZ1xzXzMPn11nnFtq5L9",
        "reception_time": "2022-01-15T19:09:56.069-00:00",
        "errors":
          [ { "kind": "temporary",
              "id": "proto.011-PtHangz2.prefilter.outdated_endorsement" } ],
        "included_in_blocks":
          [ "BL721G8Y9RSJXUN3oZUgAbgvycmdKP2moAmYUdHrJFQfNB7S9ji" ] },
      { "delegate": "tz1WCd2jm4uSt4vntk4vSuUWoZQGhLcDuR9q",
        "reception_time": "2022-01-15T19:09:56.061-00:00",
        "errors":
          [ { "kind": "temporary",
              "id": "proto.011-PtHangz2.prefilter.outdated_endorsement" } ],
        "included_in_blocks":
          [ "BL721G8Y9RSJXUN3oZUgAbgvycmdKP2moAmYUdHrJFQfNB7S9ji" ] },
      { "delegate": "tz1d6Fx42mYgVFnHUW8T8A7WBfJ6nD9pVok8",
        "reception_time": "2022-01-15T19:09:55.970-00:00",
        "errors":
          [ { "kind": "temporary",
              "id": "proto.011-PtHangz2.prefilter.outdated_endorsement" } ],
        "included_in_blocks":
          [ "BL721G8Y9RSJXUN3oZUgAbgvycmdKP2moAmYUdHrJFQfNB7S9ji" ] },
      { "delegate": "tz1TzaNn7wSQSP5gYPXCnNzBCpyMiidCq1PX",
        "reception_time": "2022-01-15T19:09:55.740-00:00",
        "errors":
          [ { "kind": "temporary",
              "id": "proto.011-PtHangz2.prefilter.outdated_endorsement" } ],
        "included_in_blocks":
          [ "BL721G8Y9RSJXUN3oZUgAbgvycmdKP2moAmYUdHrJFQfNB7S9ji" ] },
      { "delegate": "tz1bsdrs36X5BTH83RHUBdUouKLJZK8d2oBa",
        "reception_time": "2022-01-15T19:09:55.733-00:00",
        "errors":
          [ { "kind": "temporary",
              "id": "proto.011-PtHangz2.prefilter.outdated_endorsement" } ],
        "included_in_blocks":
          [ "BL721G8Y9RSJXUN3oZUgAbgvycmdKP2moAmYUdHrJFQfNB7S9ji" ] },
      { "delegate": "tz1Ldzz6k1BHdhuKvAtMRX7h5kJSMHESMHLC",
        "reception_time": "2022-01-15T19:09:55.705-00:00",
        "errors":
          [ { "kind": "temporary",
              "id": "proto.011-PtHangz2.prefilter.outdated_endorsement" } ],
        "included_in_blocks":
          [ "BL721G8Y9RSJXUN3oZUgAbgvycmdKP2moAmYUdHrJFQfNB7S9ji" ] },
      { "delegate": "tz1VmiY38m3y95HqQLjMwqnMS7sdMfGomzKi",
        "reception_time": "2022-01-15T19:09:55.638-00:00",
        "errors":
          [ { "kind": "temporary",
              "id": "proto.011-PtHangz2.prefilter.outdated_endorsement" } ],
        "included_in_blocks":
          [ "BL721G8Y9RSJXUN3oZUgAbgvycmdKP2moAmYUdHrJFQfNB7S9ji" ] },
      { "delegate": "tz3ZbP2pM3nwvXztbuMJwJnDvV5xdpU8UkkD",
        "reception_time": "2022-01-15T19:09:55.632-00:00",
        "errors":
          [ { "kind": "temporary",
              "id": "proto.011-PtHangz2.prefilter.outdated_endorsement" } ],
        "included_in_blocks":
          [ "BL721G8Y9RSJXUN3oZUgAbgvycmdKP2moAmYUdHrJFQfNB7S9ji" ] },
      { "delegate": "tz3NxTnke1acr8o3h5y9ytf5awQBGNJUKzVU",
        "reception_time": "2022-01-15T19:09:55.628-00:00",
        "errors":
          [ { "kind": "temporary",
              "id": "proto.011-PtHangz2.prefilter.outdated_endorsement" } ],
        "included_in_blocks":
          [ "BL721G8Y9RSJXUN3oZUgAbgvycmdKP2moAmYUdHrJFQfNB7S9ji" ] },
      { "delegate": "tz1VQnqCCqX4K5sP3FNkVSNKTdCAMJDd3E1n",
        "reception_time": "2022-01-15T19:09:55.490-00:00",
        "errors":
          [ { "kind": "temporary",
              "id": "proto.011-PtHangz2.prefilter.outdated_endorsement" } ],
        "included_in_blocks":
          [ "BL721G8Y9RSJXUN3oZUgAbgvycmdKP2moAmYUdHrJFQfNB7S9ji" ] },
      { "delegate": "tz1gUNyn3hmnEWqkusWPzxRaon1cs7ndWh7h",
        "reception_time": "2022-01-15T19:09:55.393-00:00",
        "errors":
          [ { "kind": "temporary",
              "id": "proto.011-PtHangz2.prefilter.outdated_endorsement" } ],
        "included_in_blocks":
          [ "BL721G8Y9RSJXUN3oZUgAbgvycmdKP2moAmYUdHrJFQfNB7S9ji" ] },
      { "delegate": "tz1Kt4P8BCaP93AEV4eA7gmpRryWt5hznjCP",
        "reception_time": "2022-01-15T19:09:55.380-00:00",
        "errors":
          [ { "kind": "temporary",
              "id": "proto.011-PtHangz2.prefilter.outdated_endorsement" } ],
        "included_in_blocks":
          [ "BL721G8Y9RSJXUN3oZUgAbgvycmdKP2moAmYUdHrJFQfNB7S9ji" ] },
      { "delegate": "tz1eEnQhbwf6trb8Q8mPb2RaPkNk2rN7BKi8",
        "reception_time": "2022-01-15T19:09:55.379-00:00",
        "errors":
          [ { "kind": "temporary",
              "id": "proto.011-PtHangz2.prefilter.outdated_endorsement" } ],
        "included_in_blocks":
          [ "BL721G8Y9RSJXUN3oZUgAbgvycmdKP2moAmYUdHrJFQfNB7S9ji" ] },
      { "delegate": "tz1Scdr2HsZiQjc7bHMeBbmDRXYVvdhjJbBh",
        "reception_time": "2022-01-15T19:09:55.357-00:00",
        "errors":
          [ { "kind": "temporary",
              "id": "proto.011-PtHangz2.prefilter.outdated_endorsement" } ],
        "included_in_blocks":
          [ "BL721G8Y9RSJXUN3oZUgAbgvycmdKP2moAmYUdHrJFQfNB7S9ji" ] },
      { "delegate": "tz1STeamwbp68THcny9zk3LsbG3H36DMvbRK",
        "reception_time": "2022-01-15T19:09:55.224-00:00",
        "errors":
          [ { "kind": "temporary",
              "id": "proto.011-PtHangz2.prefilter.outdated_endorsement" } ],
        "included_in_blocks":
          [ "BL721G8Y9RSJXUN3oZUgAbgvycmdKP2moAmYUdHrJFQfNB7S9ji" ] },
      { "delegate": "tz1aKxnrzx5PXZJe7unufEswVRCMU9yafmfb",
        "reception_time": "2022-01-15T19:09:54.624-00:00",
        "errors":
          [ { "kind": "temporary",
              "id": "proto.011-PtHangz2.prefilter.outdated_endorsement" } ],
        "included_in_blocks":
          [ "BL721G8Y9RSJXUN3oZUgAbgvycmdKP2moAmYUdHrJFQfNB7S9ji" ] },
      { "delegate": "tz1P2Po7YM526ughEsRbY4oR9zaUPDZjxFrb",
        "reception_time": "2022-01-15T19:09:54.537-00:00",
        "errors":
          [ { "kind": "temporary",
              "id": "proto.011-PtHangz2.prefilter.outdated_endorsement" } ],
        "included_in_blocks":
          [ "BL721G8Y9RSJXUN3oZUgAbgvycmdKP2moAmYUdHrJFQfNB7S9ji" ] },
      { "delegate": "tz1N6LjoaXdGNRsSxYseRCu5RNf1LfuAHBE9" },
      { "delegate": "tz1TRspM5SeZpaQUhzByXbEvqKF1vnCM2YTK" },
      { "delegate": "tz1PWCDnz783NNGGQjEFFsHtrcK5yBW4E2rm",
        "reception_time": "2022-01-15T19:09:58.042-00:00",
        "included_in_blocks":
          [ "BL721G8Y9RSJXUN3oZUgAbgvycmdKP2moAmYUdHrJFQfNB7S9ji" ] },
      { "delegate": "tz3QT9dHYKDqh563chVa6za8526ys1UKfRfL",
        "reception_time": "2022-01-15T19:09:58.042-00:00",
        "included_in_blocks":
          [ "BL721G8Y9RSJXUN3oZUgAbgvycmdKP2moAmYUdHrJFQfNB7S9ji" ] },
      { "delegate": "tz1RCFbB9GpALpsZtu6J58sb74dm8qe6XBzv",
        "reception_time": "2022-01-15T19:09:58.212-00:00",
        "included_in_blocks":
          [ "BL721G8Y9RSJXUN3oZUgAbgvycmdKP2moAmYUdHrJFQfNB7S9ji" ] },
      { "delegate": "tz1gfArv665EUkSg2ojMBzcbfwuPxAvqPvjo",
        "reception_time": "2022-01-15T19:09:58.345-00:00",
        "included_in_blocks":
          [ "BL721G8Y9RSJXUN3oZUgAbgvycmdKP2moAmYUdHrJFQfNB7S9ji" ] },
      { "delegate": "tz1cSj7fTex3JPd1p1LN1fwek6AV1kH93Wwc",
        "reception_time": "2022-01-15T19:09:58.356-00:00",
        "included_in_blocks":
          [ "BL721G8Y9RSJXUN3oZUgAbgvycmdKP2moAmYUdHrJFQfNB7S9ji" ] },
      { "delegate": "tz3Zhs2dygr55yHyQyKjntAtY9bgfhLZ4Xj1",
        "reception_time": "2022-01-15T19:09:58.356-00:00",
        "included_in_blocks":
          [ "BL721G8Y9RSJXUN3oZUgAbgvycmdKP2moAmYUdHrJFQfNB7S9ji" ] },
      { "delegate": "tz1Tnjaxk6tbAeC2TmMApPh8UsrEVQvhHvx5",
        "reception_time": "2022-01-15T19:09:58.371-00:00",
        "included_in_blocks":
          [ "BL721G8Y9RSJXUN3oZUgAbgvycmdKP2moAmYUdHrJFQfNB7S9ji" ] },
      { "delegate": "tz1Lc87p6zRaDwzJs9kHvdpm7XzeWE8QTwVB",
        "reception_time": "2022-01-15T19:09:58.381-00:00",
        "included_in_blocks":
          [ "BL721G8Y9RSJXUN3oZUgAbgvycmdKP2moAmYUdHrJFQfNB7S9ji" ] },
      { "delegate": "tz3iJu5vrKZcsqRPs8yJ61UDoeEXZmtro4qh",
        "reception_time": "2022-01-15T19:09:58.381-00:00",
        "included_in_blocks":
          [ "BL721G8Y9RSJXUN3oZUgAbgvycmdKP2moAmYUdHrJFQfNB7S9ji" ] },
      { "delegate": "tz3bTdwZinP8U1JmSweNzVKhmwafqWmFWRfk",
        "reception_time": "2022-01-15T19:09:58.388-00:00",
        "included_in_blocks":
          [ "BL721G8Y9RSJXUN3oZUgAbgvycmdKP2moAmYUdHrJFQfNB7S9ji" ] },
      { "delegate": "tz3RB4aoyjov4KEVRbuhvQ1CKJgBJMWhaeB8",
        "reception_time": "2022-01-15T19:09:58.399-00:00",
        "included_in_blocks":
          [ "BL721G8Y9RSJXUN3oZUgAbgvycmdKP2moAmYUdHrJFQfNB7S9ji" ] },
      { "delegate": "tz1ei4WtWEMEJekSv8qDnu9PExG6Q8HgRGr3",
        "reception_time": "2022-01-15T19:09:58.402-00:00",
        "included_in_blocks":
          [ "BL721G8Y9RSJXUN3oZUgAbgvycmdKP2moAmYUdHrJFQfNB7S9ji" ] },
      { "delegate": "tz1WBfwbT66FC6BTLexc2BoyCCBM9LG7pnVW",
        "reception_time": "2022-01-15T19:09:58.418-00:00",
        "included_in_blocks":
          [ "BL721G8Y9RSJXUN3oZUgAbgvycmdKP2moAmYUdHrJFQfNB7S9ji" ] },
      { "delegate": "tz1abmz7jiCV2GH2u81LRrGgAFFgvQgiDiaf",
        "reception_time": "2022-01-15T19:09:58.426-00:00",
        "included_in_blocks":
          [ "BL721G8Y9RSJXUN3oZUgAbgvycmdKP2moAmYUdHrJFQfNB7S9ji" ] },
      { "delegate": "tz1RQhNh7iB9CZA7i3ifTWNwiGYVffponfbB",
        "reception_time": "2022-01-15T19:09:58.463-00:00",
        "included_in_blocks":
          [ "BL721G8Y9RSJXUN3oZUgAbgvycmdKP2moAmYUdHrJFQfNB7S9ji" ] },
      { "delegate": "tz1NEKxGEHsFufk87CVZcrqWu8o22qh46GK6",
        "reception_time": "2022-01-15T19:09:58.481-00:00",
        "included_in_blocks":
          [ "BL721G8Y9RSJXUN3oZUgAbgvycmdKP2moAmYUdHrJFQfNB7S9ji" ] },
      { "delegate": "tz1MQMiZHV8q4tTwUMWmS5Y3kaP6J2136iXr",
        "reception_time": "2022-01-15T19:09:58.485-00:00",
        "included_in_blocks":
          [ "BL721G8Y9RSJXUN3oZUgAbgvycmdKP2moAmYUdHrJFQfNB7S9ji" ] },
      { "delegate": "tz3RDC3Jdn4j15J7bBHZd29EUee9gVB1CxD9",
        "reception_time": "2022-01-15T19:09:58.492-00:00",
        "included_in_blocks":
          [ "BL721G8Y9RSJXUN3oZUgAbgvycmdKP2moAmYUdHrJFQfNB7S9ji" ] },
      { "delegate": "tz1NSDFKuRyzHxpfG1AMkyCwEiZ52cbR2mRW",
        "reception_time": "2022-01-15T19:09:58.496-00:00",
        "included_in_blocks":
          [ "BL721G8Y9RSJXUN3oZUgAbgvycmdKP2moAmYUdHrJFQfNB7S9ji" ] },
      { "delegate": "tz1S8MNvuFEUsWgjHvi3AxibRBf388NhT1q2",
        "reception_time": "2022-01-15T19:09:58.504-00:00",
        "included_in_blocks":
          [ "BL721G8Y9RSJXUN3oZUgAbgvycmdKP2moAmYUdHrJFQfNB7S9ji" ] },
      { "delegate": "tz1RjoHc98dBoqaH2jawF62XNKh7YsHwbkEv",
        "reception_time": "2022-01-15T19:09:58.508-00:00",
        "included_in_blocks":
          [ "BL721G8Y9RSJXUN3oZUgAbgvycmdKP2moAmYUdHrJFQfNB7S9ji" ] },
      { "delegate": "tz1TEc75UKXv4W5cwi14Na3NtqFD51yKQi7h",
        "reception_time": "2022-01-15T19:09:58.512-00:00",
        "included_in_blocks":
          [ "BL721G8Y9RSJXUN3oZUgAbgvycmdKP2moAmYUdHrJFQfNB7S9ji" ] },
      { "delegate": "tz1KfEsrtDaA1sX7vdM4qmEPWuSytuqCDp5j",
        "reception_time": "2022-01-15T19:09:58.518-00:00",
        "included_in_blocks":
          [ "BL721G8Y9RSJXUN3oZUgAbgvycmdKP2moAmYUdHrJFQfNB7S9ji" ] },
      { "delegate": "tz2FCNBrERXtaTtNX6iimR1UJ5JSDxvdHM93",
        "reception_time": "2022-01-15T19:09:58.530-00:00",
        "included_in_blocks":
          [ "BL721G8Y9RSJXUN3oZUgAbgvycmdKP2moAmYUdHrJFQfNB7S9ji" ] },
      { "delegate": "tz1axcnVN9tZnCe4sQQhC6f3tfSEXdjPaXPY",
        "reception_time": "2022-01-15T19:09:58.533-00:00",
        "included_in_blocks":
          [ "BL721G8Y9RSJXUN3oZUgAbgvycmdKP2moAmYUdHrJFQfNB7S9ji" ] },
      { "delegate": "tz1RpeqCseogMpCPXpyGjhmLH9i9DhqJ8cUR",
        "reception_time": "2022-01-15T19:09:58.542-00:00",
        "included_in_blocks":
          [ "BL721G8Y9RSJXUN3oZUgAbgvycmdKP2moAmYUdHrJFQfNB7S9ji" ] },
      { "delegate": "tz1Nf6tsK4G6bBqgSQERy4nUtkHNKUVdh7q1",
        "reception_time": "2022-01-15T19:09:58.546-00:00",
        "included_in_blocks":
          [ "BL721G8Y9RSJXUN3oZUgAbgvycmdKP2moAmYUdHrJFQfNB7S9ji" ] },
      { "delegate": "tz3WMqdzXqRWXwyvj5Hp2H7QEepaUuS7vd9K",
        "reception_time": "2022-01-15T19:09:58.559-00:00",
        "included_in_blocks":
          [ "BL721G8Y9RSJXUN3oZUgAbgvycmdKP2moAmYUdHrJFQfNB7S9ji" ] },
      { "delegate": "tz1dNVDWPf3Q59SdJqnjdnu277iyvReiRS9M",
        "reception_time": "2022-01-15T19:09:58.585-00:00",
        "included_in_blocks":
          [ "BL721G8Y9RSJXUN3oZUgAbgvycmdKP2moAmYUdHrJFQfNB7S9ji" ] },
      { "delegate": "tz1dRKU4FQ9QRRQPdaH4zCR6gmCmXfcvcgtB",
        "reception_time": "2022-01-15T19:09:58.589-00:00",
        "included_in_blocks":
          [ "BL721G8Y9RSJXUN3oZUgAbgvycmdKP2moAmYUdHrJFQfNB7S9ji" ] },
      { "delegate": "tz1LmaFsWRkjr7QMCx5PtV6xTUz3AmEpKQiF",
        "reception_time": "2022-01-15T19:09:58.607-00:00",
        "included_in_blocks":
          [ "BL721G8Y9RSJXUN3oZUgAbgvycmdKP2moAmYUdHrJFQfNB7S9ji" ] },
      { "delegate": "tz1Z2jXfEXL7dXhs6bsLmyLFLfmAkXBzA9WE",
        "reception_time": "2022-01-15T19:09:58.649-00:00",
        "included_in_blocks":
          [ "BL721G8Y9RSJXUN3oZUgAbgvycmdKP2moAmYUdHrJFQfNB7S9ji" ] },
      { "delegate": "tz1UvkANVPWppVgMkLnvN7BwYZsCP7vm6NVd",
        "reception_time": "2022-01-15T19:09:58.672-00:00",
        "included_in_blocks":
          [ "BL721G8Y9RSJXUN3oZUgAbgvycmdKP2moAmYUdHrJFQfNB7S9ji" ] },
      { "delegate": "tz3VEZ4k6a4Wx42iyev6i2aVAptTRLEAivNN",
        "reception_time": "2022-01-15T19:09:58.737-00:00",
        "included_in_blocks":
          [ "BL721G8Y9RSJXUN3oZUgAbgvycmdKP2moAmYUdHrJFQfNB7S9ji" ] },
      { "delegate": "tz3UoffC7FG7zfpmvmjUmUeAaHvzdcUvAj6r",
        "reception_time": "2022-01-15T19:09:58.777-00:00",
        "included_in_blocks":
          [ "BL721G8Y9RSJXUN3oZUgAbgvycmdKP2moAmYUdHrJFQfNB7S9ji" ] },
      { "delegate": "tz3bvNMQ95vfAYtG8193ymshqjSvmxiCUuR5",
        "reception_time": "2022-01-15T19:09:58.814-00:00",
        "included_in_blocks":
          [ "BL721G8Y9RSJXUN3oZUgAbgvycmdKP2moAmYUdHrJFQfNB7S9ji" ] },
      { "delegate": "tz1a1J3AGjJTAyBqWWSqFuUazUDV2TtD6hMy",
        "reception_time": "2022-01-15T19:09:58.887-00:00",
        "included_in_blocks":
          [ "BL721G8Y9RSJXUN3oZUgAbgvycmdKP2moAmYUdHrJFQfNB7S9ji" ] },
      { "delegate": "tz1ZcTRk5uxD86EFEn1vvNffWWqJy7q5eVhc",
        "reception_time": "2022-01-15T19:09:58.901-00:00",
        "included_in_blocks":
          [ "BL721G8Y9RSJXUN3oZUgAbgvycmdKP2moAmYUdHrJFQfNB7S9ji" ] },
      { "delegate": "tz3NExpXn9aPNZPorRE4SdjJ2RGrfbJgMAaV",
        "reception_time": "2022-01-15T19:09:58.916-00:00",
        "included_in_blocks":
          [ "BL721G8Y9RSJXUN3oZUgAbgvycmdKP2moAmYUdHrJFQfNB7S9ji" ] },
      { "delegate": "tz1aRoaRhSpRYvFdyvgWLL6TGyRoGF51wDjM",
        "reception_time": "2022-01-15T19:09:58.982-00:00",
        "included_in_blocks":
          [ "BL721G8Y9RSJXUN3oZUgAbgvycmdKP2moAmYUdHrJFQfNB7S9ji" ] },
      { "delegate": "tz1NoYvKjXTzTk54VpLxBfouJ33J8jwKPPvw",
        "reception_time": "2022-01-15T19:09:59.029-00:00",
        "included_in_blocks":
          [ "BL721G8Y9RSJXUN3oZUgAbgvycmdKP2moAmYUdHrJFQfNB7S9ji" ] },
      { "delegate": "tz1TRqbYbUf2GyrjErf3hBzgBJPzW8y36qEs",
        "reception_time": "2022-01-15T19:09:59.424-00:00",
        "included_in_blocks":
          [ "BL721G8Y9RSJXUN3oZUgAbgvycmdKP2moAmYUdHrJFQfNB7S9ji" ] },
      { "delegate": "tz1Q8QkSBS63ZQnH3fBTiAMPes9R666Rn6Sc",
        "reception_time": "2022-01-15T19:09:59.507-00:00",
        "included_in_blocks":
          [ "BL721G8Y9RSJXUN3oZUgAbgvycmdKP2moAmYUdHrJFQfNB7S9ji" ] },
      { "delegate": "tz1awXW7wuXy21c66vBudMXQVAPgRnqqwgTH",
        "reception_time": "2022-01-15T19:10:00.184-00:00",
        "included_in_blocks":
          [ "BL721G8Y9RSJXUN3oZUgAbgvycmdKP2moAmYUdHrJFQfNB7S9ji" ] },
      { "delegate": "tz1W5VkdB5s7ENMESVBtwyt9kyvLqPcUczRT",
        "reception_time": "2022-01-15T19:10:01.095-00:00",
        "included_in_blocks":
          [ "BL721G8Y9RSJXUN3oZUgAbgvycmdKP2moAmYUdHrJFQfNB7S9ji" ] } ] }