{ "blocks":
    [ { "hash": "BMdYxb4XvGqF6wSDtALhRKUvQg6F6DPQgBBV8dyZo6J5PC4Jue5",
        "delegate": "tz1TXzyaKUA8wsWefdSnyaYFnV2M3vCV7er9",
        "reception_time": "2022-01-15T20:20:58.612-00:00",
        "timestamp": "2022-01-15T20:20:50Z" } ],
  "endorsements":
    [ { "delegate": "tz1P2Po7YM526ughEsRbY4oR9zaUPDZjxFrb",
        "reception_time": "2022-01-15T20:20:58.136-00:00",
        "errors":
          [ { "kind": "temporary",
              "id": "proto.011-PtHangz2.prefilter.outdated_endorsement" } ],
        "included_in_blocks":
          [ "BMEqSz94SVZrU8KYoBReNc2rJWqbu1pZB9TcLQNQTkknot186DL" ] },
      { "delegate": "tz1TRspM5SeZpaQUhzByXbEvqKF1vnCM2YTK" },
      { "delegate": "tz1Vyuu4EJ5Nym4JcrfRLnp3hpaq1DSEp1Ke" },
      { "delegate": "tz1irJKkXS2DBWkU1NnmFQx1c1L7pbGg4yhk",
        "reception_time": "2022-01-15T20:20:59.797-00:00",
        "included_in_blocks":
          [ "BMEqSz94SVZrU8KYoBReNc2rJWqbu1pZB9TcLQNQTkknot186DL" ] },
      { "delegate": "tz1aXD7Jigrt3PBYSpHSg5Rr33SexMmmM5Ys",
        "reception_time": "2022-01-15T20:20:59.809-00:00",
        "included_in_blocks":
          [ "BMEqSz94SVZrU8KYoBReNc2rJWqbu1pZB9TcLQNQTkknot186DL" ] },
      { "delegate": "tz1VQnqCCqX4K5sP3FNkVSNKTdCAMJDd3E1n",
        "reception_time": "2022-01-15T20:20:59.813-00:00",
        "included_in_blocks":
          [ "BMEqSz94SVZrU8KYoBReNc2rJWqbu1pZB9TcLQNQTkknot186DL" ] },
      { "delegate": "tz1gUNyn3hmnEWqkusWPzxRaon1cs7ndWh7h",
        "reception_time": "2022-01-15T20:20:59.822-00:00",
        "included_in_blocks":
          [ "BMEqSz94SVZrU8KYoBReNc2rJWqbu1pZB9TcLQNQTkknot186DL" ] },
      { "delegate": "tz1XfAjZyaLdceHnZxbMYop7g7kWKPut4PR7",
        "reception_time": "2022-01-15T20:20:59.826-00:00",
        "included_in_blocks":
          [ "BMEqSz94SVZrU8KYoBReNc2rJWqbu1pZB9TcLQNQTkknot186DL" ] },
      { "delegate": "tz1TzaNn7wSQSP5gYPXCnNzBCpyMiidCq1PX",
        "reception_time": "2022-01-15T20:20:59.829-00:00",
        "included_in_blocks":
          [ "BMEqSz94SVZrU8KYoBReNc2rJWqbu1pZB9TcLQNQTkknot186DL" ] },
      { "delegate": "tz3hw2kqXhLUvY65ca1eety2oQTpAvd34R9Q",
        "reception_time": "2022-01-15T20:20:59.838-00:00",
        "included_in_blocks":
          [ "BMEqSz94SVZrU8KYoBReNc2rJWqbu1pZB9TcLQNQTkknot186DL" ] },
      { "delegate": "tz1Ldzz6k1BHdhuKvAtMRX7h5kJSMHESMHLC",
        "reception_time": "2022-01-15T20:20:59.853-00:00",
        "included_in_blocks":
          [ "BMEqSz94SVZrU8KYoBReNc2rJWqbu1pZB9TcLQNQTkknot186DL" ] },
      { "delegate": "tz1WCd2jm4uSt4vntk4vSuUWoZQGhLcDuR9q",
        "reception_time": "2022-01-15T20:20:59.853-00:00",
        "included_in_blocks":
          [ "BMEqSz94SVZrU8KYoBReNc2rJWqbu1pZB9TcLQNQTkknot186DL" ] },
      { "delegate": "tz1VmiY38m3y95HqQLjMwqnMS7sdMfGomzKi",
        "reception_time": "2022-01-15T20:20:59.853-00:00",
        "included_in_blocks":
          [ "BMEqSz94SVZrU8KYoBReNc2rJWqbu1pZB9TcLQNQTkknot186DL" ] },
      { "delegate": "tz3gtoUxdudfBRcNY7iVdKPHCYYX6xdPpoRS",
        "reception_time": "2022-01-15T20:21:00.084-00:00",
        "included_in_blocks":
          [ "BMEqSz94SVZrU8KYoBReNc2rJWqbu1pZB9TcLQNQTkknot186DL" ] },
      { "delegate": "tz1MJx9vhaNRSimcuXPK2rW4fLccQnDAnVKJ",
        "reception_time": "2022-01-15T20:21:00.086-00:00",
        "included_in_blocks":
          [ "BMEqSz94SVZrU8KYoBReNc2rJWqbu1pZB9TcLQNQTkknot186DL" ] },
      { "delegate": "tz3RKYFsLuQzKBtmYuLNas7uMu3AsYd4QdsA",
        "reception_time": "2022-01-15T20:21:00.100-00:00",
        "included_in_blocks":
          [ "BMEqSz94SVZrU8KYoBReNc2rJWqbu1pZB9TcLQNQTkknot186DL" ] },
      { "delegate": "tz3QSGPoRp3Kn7n3vY24eYeu3Peuqo45LQ4D",
        "reception_time": "2022-01-15T20:21:00.100-00:00",
        "included_in_blocks":
          [ "BMEqSz94SVZrU8KYoBReNc2rJWqbu1pZB9TcLQNQTkknot186DL" ] },
      { "delegate": "tz3ZbP2pM3nwvXztbuMJwJnDvV5xdpU8UkkD",
        "reception_time": "2022-01-15T20:21:00.109-00:00",
        "included_in_blocks":
          [ "BMEqSz94SVZrU8KYoBReNc2rJWqbu1pZB9TcLQNQTkknot186DL" ] },
      { "delegate": "tz1cSj7fTex3JPd1p1LN1fwek6AV1kH93Wwc",
        "reception_time": "2022-01-15T20:21:00.179-00:00",
        "included_in_blocks":
          [ "BMEqSz94SVZrU8KYoBReNc2rJWqbu1pZB9TcLQNQTkknot186DL" ] },
      { "delegate": "tz1d6Fx42mYgVFnHUW8T8A7WBfJ6nD9pVok8",
        "reception_time": "2022-01-15T20:21:00.184-00:00",
        "included_in_blocks":
          [ "BMEqSz94SVZrU8KYoBReNc2rJWqbu1pZB9TcLQNQTkknot186DL" ] },
      { "delegate": "tz1S8MNvuFEUsWgjHvi3AxibRBf388NhT1q2",
        "reception_time": "2022-01-15T20:21:00.200-00:00",
        "included_in_blocks":
          [ "BMEqSz94SVZrU8KYoBReNc2rJWqbu1pZB9TcLQNQTkknot186DL" ] },
      { "delegate": "tz3Zhs2dygr55yHyQyKjntAtY9bgfhLZ4Xj1",
        "reception_time": "2022-01-15T20:21:00.208-00:00",
        "included_in_blocks":
          [ "BMEqSz94SVZrU8KYoBReNc2rJWqbu1pZB9TcLQNQTkknot186DL" ] },
      { "delegate": "tz1LnWa4AiFCjMezTgSNa65QFoo7DQGEWgEU",
        "reception_time": "2022-01-15T20:21:00.219-00:00",
        "included_in_blocks":
          [ "BMEqSz94SVZrU8KYoBReNc2rJWqbu1pZB9TcLQNQTkknot186DL" ] },
      { "delegate": "tz3iJu5vrKZcsqRPs8yJ61UDoeEXZmtro4qh",
        "reception_time": "2022-01-15T20:21:00.219-00:00",
        "included_in_blocks":
          [ "BMEqSz94SVZrU8KYoBReNc2rJWqbu1pZB9TcLQNQTkknot186DL" ] },
      { "delegate": "tz3S6BBeKgJGXxvLyZ1xzXzMPn11nnFtq5L9",
        "reception_time": "2022-01-15T20:21:00.230-00:00",
        "included_in_blocks":
          [ "BMEqSz94SVZrU8KYoBReNc2rJWqbu1pZB9TcLQNQTkknot186DL" ] },
      { "delegate": "tz1fUjvVhJrHLZCbhPNvDRckxApqbkievJHN",
        "reception_time": "2022-01-15T20:21:00.234-00:00",
        "included_in_blocks":
          [ "BMEqSz94SVZrU8KYoBReNc2rJWqbu1pZB9TcLQNQTkknot186DL" ] },
      { "delegate": "tz3QT9dHYKDqh563chVa6za8526ys1UKfRfL",
        "reception_time": "2022-01-15T20:21:00.241-00:00",
        "included_in_blocks":
          [ "BMEqSz94SVZrU8KYoBReNc2rJWqbu1pZB9TcLQNQTkknot186DL" ] },
      { "delegate": "tz3RB4aoyjov4KEVRbuhvQ1CKJgBJMWhaeB8",
        "reception_time": "2022-01-15T20:21:00.281-00:00",
        "included_in_blocks":
          [ "BMEqSz94SVZrU8KYoBReNc2rJWqbu1pZB9TcLQNQTkknot186DL" ] },
      { "delegate": "tz3RDC3Jdn4j15J7bBHZd29EUee9gVB1CxD9",
        "reception_time": "2022-01-15T20:21:00.318-00:00",
        "included_in_blocks":
          [ "BMEqSz94SVZrU8KYoBReNc2rJWqbu1pZB9TcLQNQTkknot186DL" ] },
      { "delegate": "tz1fUyqYH7H4pRHN1roWY17giXhy1RvxjgUV",
        "reception_time": "2022-01-15T20:21:00.328-00:00",
        "included_in_blocks":
          [ "BMEqSz94SVZrU8KYoBReNc2rJWqbu1pZB9TcLQNQTkknot186DL" ] },
      { "delegate": "tz1PWCDnz783NNGGQjEFFsHtrcK5yBW4E2rm",
        "reception_time": "2022-01-15T20:21:00.377-00:00",
        "included_in_blocks":
          [ "BMEqSz94SVZrU8KYoBReNc2rJWqbu1pZB9TcLQNQTkknot186DL" ] },
      { "delegate": "tz1ei4WtWEMEJekSv8qDnu9PExG6Q8HgRGr3",
        "reception_time": "2022-01-15T20:21:00.385-00:00",
        "included_in_blocks":
          [ "BMEqSz94SVZrU8KYoBReNc2rJWqbu1pZB9TcLQNQTkknot186DL" ] },
      { "delegate": "tz1RCFbB9GpALpsZtu6J58sb74dm8qe6XBzv",
        "reception_time": "2022-01-15T20:21:00.390-00:00",
        "included_in_blocks":
          [ "BMEqSz94SVZrU8KYoBReNc2rJWqbu1pZB9TcLQNQTkknot186DL" ] },
      { "delegate": "tz1MQMiZHV8q4tTwUMWmS5Y3kaP6J2136iXr",
        "reception_time": "2022-01-15T20:21:00.406-00:00",
        "included_in_blocks":
          [ "BMEqSz94SVZrU8KYoBReNc2rJWqbu1pZB9TcLQNQTkknot186DL" ] },
      { "delegate": "tz1iPHM2Xx2hwmzcr1EG1zzrV6oKafVoA91m",
        "reception_time": "2022-01-15T20:21:00.466-00:00",
        "included_in_blocks":
          [ "BMEqSz94SVZrU8KYoBReNc2rJWqbu1pZB9TcLQNQTkknot186DL" ] },
      { "delegate": "tz1gfArv665EUkSg2ojMBzcbfwuPxAvqPvjo",
        "reception_time": "2022-01-15T20:21:00.484-00:00",
        "included_in_blocks":
          [ "BMEqSz94SVZrU8KYoBReNc2rJWqbu1pZB9TcLQNQTkknot186DL" ] },
      { "delegate": "tz1LmaFsWRkjr7QMCx5PtV6xTUz3AmEpKQiF",
        "reception_time": "2022-01-15T20:21:00.517-00:00",
        "included_in_blocks":
          [ "BMEqSz94SVZrU8KYoBReNc2rJWqbu1pZB9TcLQNQTkknot186DL" ] },
      { "delegate": "tz3bvNMQ95vfAYtG8193ymshqjSvmxiCUuR5",
        "reception_time": "2022-01-15T20:21:00.543-00:00",
        "included_in_blocks":
          [ "BMEqSz94SVZrU8KYoBReNc2rJWqbu1pZB9TcLQNQTkknot186DL" ] },
      { "delegate": "tz1Nf6tsK4G6bBqgSQERy4nUtkHNKUVdh7q1",
        "reception_time": "2022-01-15T20:21:00.562-00:00",
        "included_in_blocks":
          [ "BMEqSz94SVZrU8KYoBReNc2rJWqbu1pZB9TcLQNQTkknot186DL" ] },
      { "delegate": "tz3bTdwZinP8U1JmSweNzVKhmwafqWmFWRfk",
        "reception_time": "2022-01-15T20:21:00.631-00:00",
        "included_in_blocks":
          [ "BMEqSz94SVZrU8KYoBReNc2rJWqbu1pZB9TcLQNQTkknot186DL" ] },
      { "delegate": "tz1chefX9Lf2XcZ4BzPtHjV4Qed6BY2ci9GE",
        "reception_time": "2022-01-15T20:21:00.643-00:00",
        "included_in_blocks":
          [ "BMEqSz94SVZrU8KYoBReNc2rJWqbu1pZB9TcLQNQTkknot186DL" ] },
      { "delegate": "tz3NDpRj6WBrJPikcPVHRBEjWKxFw3c6eQPS",
        "reception_time": "2022-01-15T20:21:00.657-00:00",
        "included_in_blocks":
          [ "BMEqSz94SVZrU8KYoBReNc2rJWqbu1pZB9TcLQNQTkknot186DL" ] },
      { "delegate": "tz1SYq214SCBy9naR6cvycQsYcUGpBqQAE8d",
        "reception_time": "2022-01-15T20:21:00.684-00:00",
        "included_in_blocks":
          [ "BMEqSz94SVZrU8KYoBReNc2rJWqbu1pZB9TcLQNQTkknot186DL" ] },
      { "delegate": "tz1Tnjaxk6tbAeC2TmMApPh8UsrEVQvhHvx5",
        "reception_time": "2022-01-15T20:21:00.687-00:00",
        "included_in_blocks":
          [ "BMEqSz94SVZrU8KYoBReNc2rJWqbu1pZB9TcLQNQTkknot186DL" ] },
      { "delegate": "tz1TEc75UKXv4W5cwi14Na3NtqFD51yKQi7h",
        "reception_time": "2022-01-15T20:21:00.712-00:00",
        "included_in_blocks":
          [ "BMEqSz94SVZrU8KYoBReNc2rJWqbu1pZB9TcLQNQTkknot186DL" ] },
      { "delegate": "tz2FCNBrERXtaTtNX6iimR1UJ5JSDxvdHM93",
        "reception_time": "2022-01-15T20:21:00.822-00:00",
        "included_in_blocks":
          [ "BMEqSz94SVZrU8KYoBReNc2rJWqbu1pZB9TcLQNQTkknot186DL" ] },
      { "delegate": "tz1abmz7jiCV2GH2u81LRrGgAFFgvQgiDiaf",
        "reception_time": "2022-01-15T20:21:00.902-00:00",
        "included_in_blocks":
          [ "BMEqSz94SVZrU8KYoBReNc2rJWqbu1pZB9TcLQNQTkknot186DL" ] },
      { "delegate": "tz1NEKxGEHsFufk87CVZcrqWu8o22qh46GK6",
        "reception_time": "2022-01-15T20:21:01.021-00:00",
        "included_in_blocks":
          [ "BMEqSz94SVZrU8KYoBReNc2rJWqbu1pZB9TcLQNQTkknot186DL" ] },
      { "delegate": "tz1eCzNtidHvVgeRzQ38C81FPcYnxMsCEL6Z",
        "reception_time": "2022-01-15T20:21:01.065-00:00",
        "included_in_blocks":
          [ "BMEqSz94SVZrU8KYoBReNc2rJWqbu1pZB9TcLQNQTkknot186DL" ] },
      { "delegate": "tz1KfEsrtDaA1sX7vdM4qmEPWuSytuqCDp5j",
        "reception_time": "2022-01-15T20:21:01.100-00:00",
        "included_in_blocks":
          [ "BMEqSz94SVZrU8KYoBReNc2rJWqbu1pZB9TcLQNQTkknot186DL" ] },
      { "delegate": "tz1PeZx7FXy7QRuMREGXGxeipb24RsMMzUNe",
        "reception_time": "2022-01-15T20:21:01.111-00:00",
        "included_in_blocks":
          [ "BMEqSz94SVZrU8KYoBReNc2rJWqbu1pZB9TcLQNQTkknot186DL" ] },
      { "delegate": "tz1TRqbYbUf2GyrjErf3hBzgBJPzW8y36qEs",
        "reception_time": "2022-01-15T20:21:01.152-00:00",
        "included_in_blocks":
          [ "BMEqSz94SVZrU8KYoBReNc2rJWqbu1pZB9TcLQNQTkknot186DL" ] },
      { "delegate": "tz1SohptP53wDPZhzTWzDUFAUcWF6DMBpaJV",
        "reception_time": "2022-01-15T20:21:01.167-00:00",
        "included_in_blocks":
          [ "BMEqSz94SVZrU8KYoBReNc2rJWqbu1pZB9TcLQNQTkknot186DL" ] },
      { "delegate": "tz1RjoHc98dBoqaH2jawF62XNKh7YsHwbkEv",
        "reception_time": "2022-01-15T20:21:01.172-00:00",
        "included_in_blocks":
          [ "BMEqSz94SVZrU8KYoBReNc2rJWqbu1pZB9TcLQNQTkknot186DL" ] },
      { "delegate": "tz1WctSwL49BZtdWAQ75NY6vr4xsAx6oKdah",
        "reception_time": "2022-01-15T20:21:01.286-00:00",
        "included_in_blocks":
          [ "BMEqSz94SVZrU8KYoBReNc2rJWqbu1pZB9TcLQNQTkknot186DL" ] },
      { "delegate": "tz3VEZ4k6a4Wx42iyev6i2aVAptTRLEAivNN",
        "reception_time": "2022-01-15T20:21:01.340-00:00",
        "included_in_blocks":
          [ "BMEqSz94SVZrU8KYoBReNc2rJWqbu1pZB9TcLQNQTkknot186DL" ] },
      { "delegate": "tz3WMqdzXqRWXwyvj5Hp2H7QEepaUuS7vd9K",
        "reception_time": "2022-01-15T20:21:01.383-00:00",
        "included_in_blocks":
          [ "BMEqSz94SVZrU8KYoBReNc2rJWqbu1pZB9TcLQNQTkknot186DL" ] },
      { "delegate": "tz1dRKU4FQ9QRRQPdaH4zCR6gmCmXfcvcgtB",
        "reception_time": "2022-01-15T20:21:01.770-00:00",
        "included_in_blocks":
          [ "BMEqSz94SVZrU8KYoBReNc2rJWqbu1pZB9TcLQNQTkknot186DL" ] },
      { "delegate": "tz1T7duV5gZWSTq4YpBGbXNLTfznCLDrFxvs",
        "reception_time": "2022-01-15T20:21:01.933-00:00",
        "included_in_blocks":
          [ "BMEqSz94SVZrU8KYoBReNc2rJWqbu1pZB9TcLQNQTkknot186DL" ] },
      { "delegate": "tz1UvkANVPWppVgMkLnvN7BwYZsCP7vm6NVd",
        "reception_time": "2022-01-15T20:21:01.974-00:00",
        "included_in_blocks":
          [ "BMEqSz94SVZrU8KYoBReNc2rJWqbu1pZB9TcLQNQTkknot186DL" ] },
      { "delegate": "tz3UoffC7FG7zfpmvmjUmUeAaHvzdcUvAj6r",
        "reception_time": "2022-01-15T20:21:02.071-00:00",
        "included_in_blocks":
          [ "BMEqSz94SVZrU8KYoBReNc2rJWqbu1pZB9TcLQNQTkknot186DL" ] },
      { "delegate": "tz1bTpviNnyx2PXsNmGpCQTMQsGoYordkUoA",
        "reception_time": "2022-01-15T20:21:02.188-00:00",
        "included_in_blocks":
          [ "BMEqSz94SVZrU8KYoBReNc2rJWqbu1pZB9TcLQNQTkknot186DL" ] },
      { "delegate": "tz1awXW7wuXy21c66vBudMXQVAPgRnqqwgTH",
        "reception_time": "2022-01-15T20:21:02.285-00:00",
        "included_in_blocks":
          [ "BMEqSz94SVZrU8KYoBReNc2rJWqbu1pZB9TcLQNQTkknot186DL" ] },
      { "delegate": "tz1ZcTRk5uxD86EFEn1vvNffWWqJy7q5eVhc",
        "reception_time": "2022-01-15T20:21:02.394-00:00",
        "included_in_blocks":
          [ "BMEqSz94SVZrU8KYoBReNc2rJWqbu1pZB9TcLQNQTkknot186DL" ] },
      { "delegate": "tz1aRoaRhSpRYvFdyvgWLL6TGyRoGF51wDjM",
        "reception_time": "2022-01-15T20:21:02.454-00:00",
        "included_in_blocks":
          [ "BMEqSz94SVZrU8KYoBReNc2rJWqbu1pZB9TcLQNQTkknot186DL" ] },
      { "delegate": "tz3NExpXn9aPNZPorRE4SdjJ2RGrfbJgMAaV",
        "reception_time": "2022-01-15T20:21:03.190-00:00",
        "included_in_blocks":
          [ "BMEqSz94SVZrU8KYoBReNc2rJWqbu1pZB9TcLQNQTkknot186DL" ] },
      { "delegate": "tz1NpWrAyDL9k2Lmnyxcgr9xuJakbBxdq7FB",
        "reception_time": "2022-01-15T20:21:05.974-00:00",
        "included_in_blocks":
          [ "BMEqSz94SVZrU8KYoBReNc2rJWqbu1pZB9TcLQNQTkknot186DL" ] },
      { "delegate": "tz1g8vkmcde6sWKaG2NN9WKzCkDM6Rziq194",
        "reception_time": "2022-01-15T20:21:10.068-00:00",
        "included_in_blocks":
          [ "BMEqSz94SVZrU8KYoBReNc2rJWqbu1pZB9TcLQNQTkknot186DL" ] } ] }