{ "blocks":
    [ { "hash": "BLz5EDD2wmrVDj5iNp2zHDhseSU3hqw72dvfuVoaXn6ZJLS3big",
        "delegate": "tz3S6BBeKgJGXxvLyZ1xzXzMPn11nnFtq5L9",
        "reception_time": "2022-01-15T17:41:19.307-00:00",
        "timestamp": "2022-01-15T17:41:10Z" } ],
  "endorsements":
    [ { "delegate": "tz1MXFrtZoaXckE41bjUCSjAjAap3AFDSr3N",
        "reception_time": "2022-01-15T17:41:19.276-00:00",
        "errors":
          [ { "kind": "temporary",
              "id": "proto.011-PtHangz2.prefilter.outdated_endorsement" } ],
        "included_in_blocks":
          [ "BMWposNn8KBwF74EvqYcZwT6iqHxwx52kRp2JQqXBSEkUCxpEme" ] },
      { "delegate": "tz1P2Po7YM526ughEsRbY4oR9zaUPDZjxFrb",
        "reception_time": "2022-01-15T17:41:19.120-00:00",
        "errors":
          [ { "kind": "temporary",
              "id": "proto.011-PtHangz2.prefilter.outdated_endorsement" } ],
        "included_in_blocks":
          [ "BMWposNn8KBwF74EvqYcZwT6iqHxwx52kRp2JQqXBSEkUCxpEme" ] },
      { "delegate": "tz1S8e9GgdZG78XJRB3NqabfWeM37GnhZMWQ",
        "reception_time": "2022-01-15T17:41:19.069-00:00",
        "errors":
          [ { "kind": "temporary",
              "id": "proto.011-PtHangz2.prefilter.outdated_endorsement" } ],
        "included_in_blocks":
          [ "BMWposNn8KBwF74EvqYcZwT6iqHxwx52kRp2JQqXBSEkUCxpEme" ] },
      { "delegate": "tz1NdhRv643wLW6zCcRP3VfT24dvDnh7nuh9" },
      { "delegate": "tz1TRspM5SeZpaQUhzByXbEvqKF1vnCM2YTK" },
      { "delegate": "tz1beersuEDv8Z7ngQ825xfbaJNS2EhXnyHR",
        "reception_time": "2022-01-15T17:41:21.127-00:00",
        "included_in_blocks":
          [ "BMWposNn8KBwF74EvqYcZwT6iqHxwx52kRp2JQqXBSEkUCxpEme" ] },
      { "delegate": "tz1eEnQhbwf6trb8Q8mPb2RaPkNk2rN7BKi8",
        "reception_time": "2022-01-15T17:41:21.132-00:00",
        "included_in_blocks":
          [ "BMWposNn8KBwF74EvqYcZwT6iqHxwx52kRp2JQqXBSEkUCxpEme" ] },
      { "delegate": "tz3ZbP2pM3nwvXztbuMJwJnDvV5xdpU8UkkD",
        "reception_time": "2022-01-15T17:41:21.153-00:00",
        "included_in_blocks":
          [ "BMWposNn8KBwF74EvqYcZwT6iqHxwx52kRp2JQqXBSEkUCxpEme" ] },
      { "delegate": "tz1STeamwbp68THcny9zk3LsbG3H36DMvbRK",
        "reception_time": "2022-01-15T17:41:21.157-00:00",
        "included_in_blocks":
          [ "BMWposNn8KBwF74EvqYcZwT6iqHxwx52kRp2JQqXBSEkUCxpEme" ] },
      { "delegate": "tz1Ldzz6k1BHdhuKvAtMRX7h5kJSMHESMHLC",
        "reception_time": "2022-01-15T17:41:21.245-00:00",
        "included_in_blocks":
          [ "BMWposNn8KBwF74EvqYcZwT6iqHxwx52kRp2JQqXBSEkUCxpEme" ] },
      { "delegate": "tz3NxTnke1acr8o3h5y9ytf5awQBGNJUKzVU",
        "reception_time": "2022-01-15T17:41:21.262-00:00",
        "included_in_blocks":
          [ "BMWposNn8KBwF74EvqYcZwT6iqHxwx52kRp2JQqXBSEkUCxpEme" ] },
      { "delegate": "tz1ei4WtWEMEJekSv8qDnu9PExG6Q8HgRGr3",
        "reception_time": "2022-01-15T17:41:21.275-00:00",
        "included_in_blocks":
          [ "BMWposNn8KBwF74EvqYcZwT6iqHxwx52kRp2JQqXBSEkUCxpEme" ] },
      { "delegate": "tz3S6BBeKgJGXxvLyZ1xzXzMPn11nnFtq5L9",
        "reception_time": "2022-01-15T17:41:21.393-00:00",
        "included_in_blocks":
          [ "BMWposNn8KBwF74EvqYcZwT6iqHxwx52kRp2JQqXBSEkUCxpEme" ] },
      { "delegate": "tz1iZEKy4LaAjnTmn2RuGDf2iqdAQKnRi8kY",
        "reception_time": "2022-01-15T17:41:21.459-00:00",
        "included_in_blocks":
          [ "BMWposNn8KBwF74EvqYcZwT6iqHxwx52kRp2JQqXBSEkUCxpEme" ] },
      { "delegate": "tz3QT9dHYKDqh563chVa6za8526ys1UKfRfL",
        "reception_time": "2022-01-15T17:41:21.485-00:00",
        "included_in_blocks":
          [ "BMWposNn8KBwF74EvqYcZwT6iqHxwx52kRp2JQqXBSEkUCxpEme" ] },
      { "delegate": "tz3QSGPoRp3Kn7n3vY24eYeu3Peuqo45LQ4D",
        "reception_time": "2022-01-15T17:41:21.520-00:00",
        "included_in_blocks":
          [ "BMWposNn8KBwF74EvqYcZwT6iqHxwx52kRp2JQqXBSEkUCxpEme" ] },
      { "delegate": "tz1VQnqCCqX4K5sP3FNkVSNKTdCAMJDd3E1n",
        "reception_time": "2022-01-15T17:41:21.529-00:00",
        "included_in_blocks":
          [ "BMWposNn8KBwF74EvqYcZwT6iqHxwx52kRp2JQqXBSEkUCxpEme" ] },
      { "delegate": "tz1gUNyn3hmnEWqkusWPzxRaon1cs7ndWh7h",
        "reception_time": "2022-01-15T17:41:21.580-00:00",
        "included_in_blocks":
          [ "BMWposNn8KBwF74EvqYcZwT6iqHxwx52kRp2JQqXBSEkUCxpEme" ] },
      { "delegate": "tz3iJu5vrKZcsqRPs8yJ61UDoeEXZmtro4qh",
        "reception_time": "2022-01-15T17:41:21.602-00:00",
        "included_in_blocks":
          [ "BMWposNn8KBwF74EvqYcZwT6iqHxwx52kRp2JQqXBSEkUCxpEme" ] },
      { "delegate": "tz1gfArv665EUkSg2ojMBzcbfwuPxAvqPvjo",
        "reception_time": "2022-01-15T17:41:21.605-00:00",
        "included_in_blocks":
          [ "BMWposNn8KBwF74EvqYcZwT6iqHxwx52kRp2JQqXBSEkUCxpEme" ] },
      { "delegate": "tz1irJKkXS2DBWkU1NnmFQx1c1L7pbGg4yhk",
        "reception_time": "2022-01-15T17:41:21.641-00:00",
        "included_in_blocks":
          [ "BMWposNn8KBwF74EvqYcZwT6iqHxwx52kRp2JQqXBSEkUCxpEme" ] },
      { "delegate": "tz3gtoUxdudfBRcNY7iVdKPHCYYX6xdPpoRS",
        "reception_time": "2022-01-15T17:41:21.696-00:00",
        "included_in_blocks":
          [ "BMWposNn8KBwF74EvqYcZwT6iqHxwx52kRp2JQqXBSEkUCxpEme" ] },
      { "delegate": "tz1WCd2jm4uSt4vntk4vSuUWoZQGhLcDuR9q",
        "reception_time": "2022-01-15T17:41:21.706-00:00",
        "included_in_blocks":
          [ "BMWposNn8KBwF74EvqYcZwT6iqHxwx52kRp2JQqXBSEkUCxpEme" ] },
      { "delegate": "tz1fb7c66UwePkkfDXz4ajFaBP9hVNLdS7JJ",
        "reception_time": "2022-01-15T17:41:21.733-00:00",
        "included_in_blocks":
          [ "BMWposNn8KBwF74EvqYcZwT6iqHxwx52kRp2JQqXBSEkUCxpEme" ] },
      { "delegate": "tz3RKYFsLuQzKBtmYuLNas7uMu3AsYd4QdsA",
        "reception_time": "2022-01-15T17:41:21.764-00:00",
        "included_in_blocks":
          [ "BMWposNn8KBwF74EvqYcZwT6iqHxwx52kRp2JQqXBSEkUCxpEme" ] },
      { "delegate": "tz3Zhs2dygr55yHyQyKjntAtY9bgfhLZ4Xj1",
        "reception_time": "2022-01-15T17:41:21.793-00:00",
        "included_in_blocks":
          [ "BMWposNn8KBwF74EvqYcZwT6iqHxwx52kRp2JQqXBSEkUCxpEme" ] },
      { "delegate": "tz3hw2kqXhLUvY65ca1eety2oQTpAvd34R9Q",
        "reception_time": "2022-01-15T17:41:21.869-00:00",
        "included_in_blocks":
          [ "BMWposNn8KBwF74EvqYcZwT6iqHxwx52kRp2JQqXBSEkUCxpEme" ] },
      { "delegate": "tz3RDC3Jdn4j15J7bBHZd29EUee9gVB1CxD9",
        "reception_time": "2022-01-15T17:41:21.952-00:00",
        "included_in_blocks":
          [ "BMWposNn8KBwF74EvqYcZwT6iqHxwx52kRp2JQqXBSEkUCxpEme" ] },
      { "delegate": "tz1S8MNvuFEUsWgjHvi3AxibRBf388NhT1q2",
        "reception_time": "2022-01-15T17:41:21.952-00:00",
        "included_in_blocks":
          [ "BMWposNn8KBwF74EvqYcZwT6iqHxwx52kRp2JQqXBSEkUCxpEme" ] },
      { "delegate": "tz1RCFbB9GpALpsZtu6J58sb74dm8qe6XBzv",
        "reception_time": "2022-01-15T17:41:22.013-00:00",
        "included_in_blocks":
          [ "BMWposNn8KBwF74EvqYcZwT6iqHxwx52kRp2JQqXBSEkUCxpEme" ] },
      { "delegate": "tz1fUyqYH7H4pRHN1roWY17giXhy1RvxjgUV",
        "reception_time": "2022-01-15T17:41:22.058-00:00",
        "included_in_blocks":
          [ "BMWposNn8KBwF74EvqYcZwT6iqHxwx52kRp2JQqXBSEkUCxpEme" ] },
      { "delegate": "tz3RB4aoyjov4KEVRbuhvQ1CKJgBJMWhaeB8",
        "reception_time": "2022-01-15T17:41:22.091-00:00",
        "included_in_blocks":
          [ "BMWposNn8KBwF74EvqYcZwT6iqHxwx52kRp2JQqXBSEkUCxpEme" ] },
      { "delegate": "tz1MQMiZHV8q4tTwUMWmS5Y3kaP6J2136iXr",
        "reception_time": "2022-01-15T17:41:22.096-00:00",
        "included_in_blocks":
          [ "BMWposNn8KBwF74EvqYcZwT6iqHxwx52kRp2JQqXBSEkUCxpEme" ] },
      { "delegate": "tz1PWCDnz783NNGGQjEFFsHtrcK5yBW4E2rm",
        "reception_time": "2022-01-15T17:41:22.110-00:00",
        "included_in_blocks":
          [ "BMWposNn8KBwF74EvqYcZwT6iqHxwx52kRp2JQqXBSEkUCxpEme" ] },
      { "delegate": "tz1TEc75UKXv4W5cwi14Na3NtqFD51yKQi7h",
        "reception_time": "2022-01-15T17:41:22.126-00:00",
        "included_in_blocks":
          [ "BMWposNn8KBwF74EvqYcZwT6iqHxwx52kRp2JQqXBSEkUCxpEme" ] },
      { "delegate": "tz1UJvHTgpVzcKWhTazGxVcn5wsHru5Gietg",
        "reception_time": "2022-01-15T17:41:22.205-00:00",
        "included_in_blocks":
          [ "BMWposNn8KBwF74EvqYcZwT6iqHxwx52kRp2JQqXBSEkUCxpEme" ] },
      { "delegate": "tz3bTdwZinP8U1JmSweNzVKhmwafqWmFWRfk",
        "reception_time": "2022-01-15T17:41:22.281-00:00",
        "included_in_blocks":
          [ "BMWposNn8KBwF74EvqYcZwT6iqHxwx52kRp2JQqXBSEkUCxpEme" ] },
      { "delegate": "tz1SYq214SCBy9naR6cvycQsYcUGpBqQAE8d",
        "reception_time": "2022-01-15T17:41:22.286-00:00",
        "included_in_blocks":
          [ "BMWposNn8KBwF74EvqYcZwT6iqHxwx52kRp2JQqXBSEkUCxpEme" ] },
      { "delegate": "tz1WBfwbT66FC6BTLexc2BoyCCBM9LG7pnVW",
        "reception_time": "2022-01-15T17:41:22.332-00:00",
        "included_in_blocks":
          [ "BMWposNn8KBwF74EvqYcZwT6iqHxwx52kRp2JQqXBSEkUCxpEme" ] },
      { "delegate": "tz1Nf6tsK4G6bBqgSQERy4nUtkHNKUVdh7q1",
        "reception_time": "2022-01-15T17:41:22.373-00:00",
        "included_in_blocks":
          [ "BMWposNn8KBwF74EvqYcZwT6iqHxwx52kRp2JQqXBSEkUCxpEme" ] },
      { "delegate": "tz1V4qCyvPKZ5UeqdH14HN42rxvNPQfc9UZg",
        "reception_time": "2022-01-15T17:41:22.399-00:00",
        "included_in_blocks":
          [ "BMWposNn8KBwF74EvqYcZwT6iqHxwx52kRp2JQqXBSEkUCxpEme" ] },
      { "delegate": "tz1Mc61yajNASzh5KWZFtYs4i7EJbzAxQC4K",
        "reception_time": "2022-01-15T17:41:22.416-00:00",
        "included_in_blocks":
          [ "BMWposNn8KBwF74EvqYcZwT6iqHxwx52kRp2JQqXBSEkUCxpEme" ] },
      { "delegate": "tz3NDpRj6WBrJPikcPVHRBEjWKxFw3c6eQPS",
        "reception_time": "2022-01-15T17:41:22.416-00:00",
        "included_in_blocks":
          [ "BMWposNn8KBwF74EvqYcZwT6iqHxwx52kRp2JQqXBSEkUCxpEme" ] },
      { "delegate": "tz1KfEsrtDaA1sX7vdM4qmEPWuSytuqCDp5j",
        "reception_time": "2022-01-15T17:41:22.419-00:00",
        "included_in_blocks":
          [ "BMWposNn8KBwF74EvqYcZwT6iqHxwx52kRp2JQqXBSEkUCxpEme" ] },
      { "delegate": "tz3gLTu4Yxj8tPAcriQVUdxv6BY9QyvzU1az",
        "reception_time": "2022-01-15T17:41:22.432-00:00",
        "included_in_blocks":
          [ "BMWposNn8KBwF74EvqYcZwT6iqHxwx52kRp2JQqXBSEkUCxpEme" ] },
      { "delegate": "tz1LmaFsWRkjr7QMCx5PtV6xTUz3AmEpKQiF",
        "reception_time": "2022-01-15T17:41:22.501-00:00",
        "included_in_blocks":
          [ "BMWposNn8KBwF74EvqYcZwT6iqHxwx52kRp2JQqXBSEkUCxpEme" ] },
      { "delegate": "tz1T7duV5gZWSTq4YpBGbXNLTfznCLDrFxvs",
        "reception_time": "2022-01-15T17:41:22.526-00:00",
        "included_in_blocks":
          [ "BMWposNn8KBwF74EvqYcZwT6iqHxwx52kRp2JQqXBSEkUCxpEme" ] },
      { "delegate": "tz2FCNBrERXtaTtNX6iimR1UJ5JSDxvdHM93",
        "reception_time": "2022-01-15T17:41:22.534-00:00",
        "included_in_blocks":
          [ "BMWposNn8KBwF74EvqYcZwT6iqHxwx52kRp2JQqXBSEkUCxpEme" ] },
      { "delegate": "tz3bvNMQ95vfAYtG8193ymshqjSvmxiCUuR5",
        "reception_time": "2022-01-15T17:41:22.548-00:00",
        "included_in_blocks":
          [ "BMWposNn8KBwF74EvqYcZwT6iqHxwx52kRp2JQqXBSEkUCxpEme" ] },
      { "delegate": "tz1dRKU4FQ9QRRQPdaH4zCR6gmCmXfcvcgtB",
        "reception_time": "2022-01-15T17:41:22.862-00:00",
        "included_in_blocks":
          [ "BMWposNn8KBwF74EvqYcZwT6iqHxwx52kRp2JQqXBSEkUCxpEme" ] },
      { "delegate": "tz1cYufsxHXJcvANhvS55h3aY32a9BAFB494",
        "reception_time": "2022-01-15T17:41:22.953-00:00",
        "included_in_blocks":
          [ "BMWposNn8KBwF74EvqYcZwT6iqHxwx52kRp2JQqXBSEkUCxpEme" ] },
      { "delegate": "tz3VEZ4k6a4Wx42iyev6i2aVAptTRLEAivNN",
        "reception_time": "2022-01-15T17:41:23.090-00:00",
        "included_in_blocks":
          [ "BMWposNn8KBwF74EvqYcZwT6iqHxwx52kRp2JQqXBSEkUCxpEme" ] },
      { "delegate": "tz3WMqdzXqRWXwyvj5Hp2H7QEepaUuS7vd9K",
        "reception_time": "2022-01-15T17:41:23.100-00:00",
        "included_in_blocks":
          [ "BMWposNn8KBwF74EvqYcZwT6iqHxwx52kRp2JQqXBSEkUCxpEme" ] },
      { "delegate": "tz1dNVDWPf3Q59SdJqnjdnu277iyvReiRS9M",
        "reception_time": "2022-01-15T17:41:23.130-00:00",
        "included_in_blocks":
          [ "BMWposNn8KBwF74EvqYcZwT6iqHxwx52kRp2JQqXBSEkUCxpEme" ] },
      { "delegate": "tz1dKRZVcmJBVNvaAueUmqX42vVEaLb2MbA6",
        "reception_time": "2022-01-15T17:41:23.168-00:00",
        "included_in_blocks":
          [ "BMWposNn8KBwF74EvqYcZwT6iqHxwx52kRp2JQqXBSEkUCxpEme" ] },
      { "delegate": "tz3NExpXn9aPNZPorRE4SdjJ2RGrfbJgMAaV",
        "reception_time": "2022-01-15T17:41:23.489-00:00",
        "included_in_blocks":
          [ "BMWposNn8KBwF74EvqYcZwT6iqHxwx52kRp2JQqXBSEkUCxpEme" ] },
      { "delegate": "tz1TRqbYbUf2GyrjErf3hBzgBJPzW8y36qEs",
        "reception_time": "2022-01-15T17:41:23.505-00:00",
        "included_in_blocks":
          [ "BMWposNn8KBwF74EvqYcZwT6iqHxwx52kRp2JQqXBSEkUCxpEme" ] },
      { "delegate": "tz1Z2jXfEXL7dXhs6bsLmyLFLfmAkXBzA9WE",
        "reception_time": "2022-01-15T17:41:23.516-00:00",
        "included_in_blocks":
          [ "BMWposNn8KBwF74EvqYcZwT6iqHxwx52kRp2JQqXBSEkUCxpEme" ] },
      { "delegate": "tz1ZcTRk5uxD86EFEn1vvNffWWqJy7q5eVhc",
        "reception_time": "2022-01-15T17:41:23.581-00:00",
        "included_in_blocks":
          [ "BMWposNn8KBwF74EvqYcZwT6iqHxwx52kRp2JQqXBSEkUCxpEme" ] },
      { "delegate": "tz3UoffC7FG7zfpmvmjUmUeAaHvzdcUvAj6r",
        "reception_time": "2022-01-15T17:41:23.658-00:00",
        "included_in_blocks":
          [ "BMWposNn8KBwF74EvqYcZwT6iqHxwx52kRp2JQqXBSEkUCxpEme" ] },
      { "delegate": "tz1TcH4Nb3aHNDJ7CGZhU7jgAK1BkSP4Lxds",
        "reception_time": "2022-01-15T17:41:23.662-00:00",
        "included_in_blocks":
          [ "BMWposNn8KBwF74EvqYcZwT6iqHxwx52kRp2JQqXBSEkUCxpEme" ] },
      { "delegate": "tz1aRoaRhSpRYvFdyvgWLL6TGyRoGF51wDjM",
        "reception_time": "2022-01-15T17:41:23.930-00:00",
        "included_in_blocks":
          [ "BMWposNn8KBwF74EvqYcZwT6iqHxwx52kRp2JQqXBSEkUCxpEme" ] },
      { "delegate": "tz1acZQd7TdfoiUnD2czHnTHB2TaJQP6gdqo",
        "reception_time": "2022-01-15T17:41:24.519-00:00",
        "included_in_blocks":
          [ "BMWposNn8KBwF74EvqYcZwT6iqHxwx52kRp2JQqXBSEkUCxpEme" ] },
      { "delegate": "tz1bTpviNnyx2PXsNmGpCQTMQsGoYordkUoA",
        "reception_time": "2022-01-15T17:41:24.669-00:00",
        "included_in_blocks":
          [ "BMWposNn8KBwF74EvqYcZwT6iqHxwx52kRp2JQqXBSEkUCxpEme" ] },
      { "delegate": "tz1W5VkdB5s7ENMESVBtwyt9kyvLqPcUczRT",
        "reception_time": "2022-01-15T17:41:24.733-00:00",
        "included_in_blocks":
          [ "BMWposNn8KBwF74EvqYcZwT6iqHxwx52kRp2JQqXBSEkUCxpEme" ] },
      { "delegate": "tz1fJHFn6sWEd3NnBPngACuw2dggTv6nQZ7g",
        "reception_time": "2022-01-15T17:41:26.229-00:00",
        "included_in_blocks":
          [ "BMWposNn8KBwF74EvqYcZwT6iqHxwx52kRp2JQqXBSEkUCxpEme" ] },
      { "delegate": "tz1dfg9PkvRLf7hKMmGdGRhXWCbd8QgbwBF7",
        "reception_time": "2022-01-15T17:41:27.218-00:00",
        "included_in_blocks":
          [ "BMWposNn8KBwF74EvqYcZwT6iqHxwx52kRp2JQqXBSEkUCxpEme" ] },
      { "delegate": "tz1NpWrAyDL9k2Lmnyxcgr9xuJakbBxdq7FB",
        "reception_time": "2022-01-15T17:41:30.482-00:00",
        "included_in_blocks":
          [ "BMWposNn8KBwF74EvqYcZwT6iqHxwx52kRp2JQqXBSEkUCxpEme" ] },
      { "delegate": "tz1g8vkmcde6sWKaG2NN9WKzCkDM6Rziq194",
        "reception_time": "2022-01-15T17:41:33.085-00:00",
        "included_in_blocks":
          [ "BMWposNn8KBwF74EvqYcZwT6iqHxwx52kRp2JQqXBSEkUCxpEme" ] } ] }