{ "blocks":
    [ { "hash": "BMU4fcbtMTWs7av9kJqfgULdtrYok2xpzSA1D3JCCjaynsuU8NR",
        "delegate": "tz3ZbP2pM3nwvXztbuMJwJnDvV5xdpU8UkkD",
        "reception_time": "2022-01-15T19:36:55.956-00:00",
        "timestamp": "2022-01-15T19:36:50Z" } ],
  "endorsements":
    [ { "delegate": "tz1eEnQhbwf6trb8Q8mPb2RaPkNk2rN7BKi8",
        "reception_time": "2022-01-15T19:36:55.766-00:00",
        "errors":
          [ { "kind": "temporary",
              "id": "proto.011-PtHangz2.prefilter.outdated_endorsement" } ],
        "included_in_blocks":
          [ "BMSWxC2PpyruRtSG89GXexorUtLz8rJTA3TJG5AEtyZGoKJYXb8" ] },
      { "delegate": "tz1irJKkXS2DBWkU1NnmFQx1c1L7pbGg4yhk",
        "reception_time": "2022-01-15T19:36:55.726-00:00",
        "errors":
          [ { "kind": "temporary",
              "id": "proto.011-PtHangz2.prefilter.outdated_endorsement" } ],
        "included_in_blocks":
          [ "BMSWxC2PpyruRtSG89GXexorUtLz8rJTA3TJG5AEtyZGoKJYXb8" ] },
      { "delegate": "tz3NxTnke1acr8o3h5y9ytf5awQBGNJUKzVU",
        "reception_time": "2022-01-15T19:36:55.467-00:00",
        "errors":
          [ { "kind": "temporary",
              "id": "proto.011-PtHangz2.prefilter.outdated_endorsement" } ],
        "included_in_blocks":
          [ "BMSWxC2PpyruRtSG89GXexorUtLz8rJTA3TJG5AEtyZGoKJYXb8" ] },
      { "delegate": "tz3ZbP2pM3nwvXztbuMJwJnDvV5xdpU8UkkD",
        "reception_time": "2022-01-15T19:36:55.454-00:00",
        "errors":
          [ { "kind": "temporary",
              "id": "proto.011-PtHangz2.prefilter.outdated_endorsement" } ],
        "included_in_blocks":
          [ "BMSWxC2PpyruRtSG89GXexorUtLz8rJTA3TJG5AEtyZGoKJYXb8" ] },
      { "delegate": "tz1Scdr2HsZiQjc7bHMeBbmDRXYVvdhjJbBh",
        "reception_time": "2022-01-15T19:36:55.426-00:00",
        "errors":
          [ { "kind": "temporary",
              "id": "proto.011-PtHangz2.prefilter.outdated_endorsement" } ],
        "included_in_blocks":
          [ "BMSWxC2PpyruRtSG89GXexorUtLz8rJTA3TJG5AEtyZGoKJYXb8" ] },
      { "delegate": "tz1Lhf4J9Qxoe3DZ2nfe8FGDnvVj7oKjnMY6",
        "reception_time": "2022-01-15T19:36:55.323-00:00",
        "errors":
          [ { "kind": "temporary",
              "id": "proto.011-PtHangz2.prefilter.outdated_endorsement" } ],
        "included_in_blocks":
          [ "BMSWxC2PpyruRtSG89GXexorUtLz8rJTA3TJG5AEtyZGoKJYXb8" ] },
      { "delegate": "tz1P2Po7YM526ughEsRbY4oR9zaUPDZjxFrb",
        "reception_time": "2022-01-15T19:36:55.079-00:00",
        "errors":
          [ { "kind": "temporary",
              "id": "proto.011-PtHangz2.prefilter.outdated_endorsement" } ],
        "included_in_blocks":
          [ "BMSWxC2PpyruRtSG89GXexorUtLz8rJTA3TJG5AEtyZGoKJYXb8" ] },
      { "delegate": "tz1S8e9GgdZG78XJRB3NqabfWeM37GnhZMWQ",
        "reception_time": "2022-01-15T19:36:54.681-00:00",
        "errors":
          [ { "kind": "temporary",
              "id": "proto.011-PtHangz2.prefilter.outdated_endorsement" } ],
        "included_in_blocks":
          [ "BMSWxC2PpyruRtSG89GXexorUtLz8rJTA3TJG5AEtyZGoKJYXb8" ] },
      { "delegate": "tz1TRspM5SeZpaQUhzByXbEvqKF1vnCM2YTK" },
      { "delegate": "tz1Vyuu4EJ5Nym4JcrfRLnp3hpaq1DSEp1Ke" },
      { "delegate": "tz3iJu5vrKZcsqRPs8yJ61UDoeEXZmtro4qh",
        "reception_time": "2022-01-15T19:36:57.333-00:00",
        "included_in_blocks":
          [ "BMSWxC2PpyruRtSG89GXexorUtLz8rJTA3TJG5AEtyZGoKJYXb8" ] },
      { "delegate": "tz1Ldzz6k1BHdhuKvAtMRX7h5kJSMHESMHLC",
        "reception_time": "2022-01-15T19:36:57.337-00:00",
        "included_in_blocks":
          [ "BMSWxC2PpyruRtSG89GXexorUtLz8rJTA3TJG5AEtyZGoKJYXb8" ] },
      { "delegate": "tz1TzaNn7wSQSP5gYPXCnNzBCpyMiidCq1PX",
        "reception_time": "2022-01-15T19:36:57.342-00:00",
        "included_in_blocks":
          [ "BMSWxC2PpyruRtSG89GXexorUtLz8rJTA3TJG5AEtyZGoKJYXb8" ] },
      { "delegate": "tz1VmiY38m3y95HqQLjMwqnMS7sdMfGomzKi",
        "reception_time": "2022-01-15T19:36:57.353-00:00",
        "included_in_blocks":
          [ "BMSWxC2PpyruRtSG89GXexorUtLz8rJTA3TJG5AEtyZGoKJYXb8" ] },
      { "delegate": "tz3Zhs2dygr55yHyQyKjntAtY9bgfhLZ4Xj1",
        "reception_time": "2022-01-15T19:36:57.353-00:00",
        "included_in_blocks":
          [ "BMSWxC2PpyruRtSG89GXexorUtLz8rJTA3TJG5AEtyZGoKJYXb8" ] },
      { "delegate": "tz3QSGPoRp3Kn7n3vY24eYeu3Peuqo45LQ4D",
        "reception_time": "2022-01-15T19:36:57.373-00:00",
        "included_in_blocks":
          [ "BMSWxC2PpyruRtSG89GXexorUtLz8rJTA3TJG5AEtyZGoKJYXb8" ] },
      { "delegate": "tz1gUNyn3hmnEWqkusWPzxRaon1cs7ndWh7h",
        "reception_time": "2022-01-15T19:36:57.390-00:00",
        "included_in_blocks":
          [ "BMSWxC2PpyruRtSG89GXexorUtLz8rJTA3TJG5AEtyZGoKJYXb8" ] },
      { "delegate": "tz1aqcYgG6NuViML5vdWhohHJBYxcDVLNUsE",
        "reception_time": "2022-01-15T19:36:57.390-00:00",
        "included_in_blocks":
          [ "BMSWxC2PpyruRtSG89GXexorUtLz8rJTA3TJG5AEtyZGoKJYXb8" ] },
      { "delegate": "tz3RKYFsLuQzKBtmYuLNas7uMu3AsYd4QdsA",
        "reception_time": "2022-01-15T19:36:57.408-00:00",
        "included_in_blocks":
          [ "BMSWxC2PpyruRtSG89GXexorUtLz8rJTA3TJG5AEtyZGoKJYXb8" ] },
      { "delegate": "tz1VQnqCCqX4K5sP3FNkVSNKTdCAMJDd3E1n",
        "reception_time": "2022-01-15T19:36:57.416-00:00",
        "included_in_blocks":
          [ "BMSWxC2PpyruRtSG89GXexorUtLz8rJTA3TJG5AEtyZGoKJYXb8" ] },
      { "delegate": "tz1ei4WtWEMEJekSv8qDnu9PExG6Q8HgRGr3",
        "reception_time": "2022-01-15T19:36:57.448-00:00",
        "included_in_blocks":
          [ "BMSWxC2PpyruRtSG89GXexorUtLz8rJTA3TJG5AEtyZGoKJYXb8" ] },
      { "delegate": "tz3S6BBeKgJGXxvLyZ1xzXzMPn11nnFtq5L9",
        "reception_time": "2022-01-15T19:36:57.462-00:00",
        "included_in_blocks":
          [ "BMSWxC2PpyruRtSG89GXexorUtLz8rJTA3TJG5AEtyZGoKJYXb8" ] },
      { "delegate": "tz3hw2kqXhLUvY65ca1eety2oQTpAvd34R9Q",
        "reception_time": "2022-01-15T19:36:57.475-00:00",
        "included_in_blocks":
          [ "BMSWxC2PpyruRtSG89GXexorUtLz8rJTA3TJG5AEtyZGoKJYXb8" ] },
      { "delegate": "tz1aXD7Jigrt3PBYSpHSg5Rr33SexMmmM5Ys",
        "reception_time": "2022-01-15T19:36:57.478-00:00",
        "included_in_blocks":
          [ "BMSWxC2PpyruRtSG89GXexorUtLz8rJTA3TJG5AEtyZGoKJYXb8" ] },
      { "delegate": "tz3bTdwZinP8U1JmSweNzVKhmwafqWmFWRfk",
        "reception_time": "2022-01-15T19:36:57.489-00:00",
        "included_in_blocks":
          [ "BMSWxC2PpyruRtSG89GXexorUtLz8rJTA3TJG5AEtyZGoKJYXb8" ] },
      { "delegate": "tz1RCFbB9GpALpsZtu6J58sb74dm8qe6XBzv",
        "reception_time": "2022-01-15T19:36:57.493-00:00",
        "included_in_blocks":
          [ "BMSWxC2PpyruRtSG89GXexorUtLz8rJTA3TJG5AEtyZGoKJYXb8" ] },
      { "delegate": "tz3QT9dHYKDqh563chVa6za8526ys1UKfRfL",
        "reception_time": "2022-01-15T19:36:57.507-00:00",
        "included_in_blocks":
          [ "BMSWxC2PpyruRtSG89GXexorUtLz8rJTA3TJG5AEtyZGoKJYXb8" ] },
      { "delegate": "tz1LmaFsWRkjr7QMCx5PtV6xTUz3AmEpKQiF",
        "reception_time": "2022-01-15T19:36:57.518-00:00",
        "included_in_blocks":
          [ "BMSWxC2PpyruRtSG89GXexorUtLz8rJTA3TJG5AEtyZGoKJYXb8" ] },
      { "delegate": "tz1PWCDnz783NNGGQjEFFsHtrcK5yBW4E2rm",
        "reception_time": "2022-01-15T19:36:57.540-00:00",
        "included_in_blocks":
          [ "BMSWxC2PpyruRtSG89GXexorUtLz8rJTA3TJG5AEtyZGoKJYXb8" ] },
      { "delegate": "tz1gfArv665EUkSg2ojMBzcbfwuPxAvqPvjo",
        "reception_time": "2022-01-15T19:36:57.550-00:00",
        "included_in_blocks":
          [ "BMSWxC2PpyruRtSG89GXexorUtLz8rJTA3TJG5AEtyZGoKJYXb8" ] },
      { "delegate": "tz3adcvQaKXTCg12zbninqo3q8ptKKtDFTLv",
        "reception_time": "2022-01-15T19:36:57.581-00:00",
        "included_in_blocks":
          [ "BMSWxC2PpyruRtSG89GXexorUtLz8rJTA3TJG5AEtyZGoKJYXb8" ] },
      { "delegate": "tz1h4GUAMweP7SNWzDgvMk3yRCAZyaP1MxZq",
        "reception_time": "2022-01-15T19:36:57.593-00:00",
        "included_in_blocks":
          [ "BMSWxC2PpyruRtSG89GXexorUtLz8rJTA3TJG5AEtyZGoKJYXb8" ] },
      { "delegate": "tz1SYq214SCBy9naR6cvycQsYcUGpBqQAE8d",
        "reception_time": "2022-01-15T19:36:57.628-00:00",
        "included_in_blocks":
          [ "BMSWxC2PpyruRtSG89GXexorUtLz8rJTA3TJG5AEtyZGoKJYXb8" ] },
      { "delegate": "tz1S8MNvuFEUsWgjHvi3AxibRBf388NhT1q2",
        "reception_time": "2022-01-15T19:36:57.648-00:00",
        "included_in_blocks":
          [ "BMSWxC2PpyruRtSG89GXexorUtLz8rJTA3TJG5AEtyZGoKJYXb8" ] },
      { "delegate": "tz1WBfwbT66FC6BTLexc2BoyCCBM9LG7pnVW",
        "reception_time": "2022-01-15T19:36:57.663-00:00",
        "included_in_blocks":
          [ "BMSWxC2PpyruRtSG89GXexorUtLz8rJTA3TJG5AEtyZGoKJYXb8" ] },
      { "delegate": "tz1Tnjaxk6tbAeC2TmMApPh8UsrEVQvhHvx5",
        "reception_time": "2022-01-15T19:36:57.671-00:00",
        "included_in_blocks":
          [ "BMSWxC2PpyruRtSG89GXexorUtLz8rJTA3TJG5AEtyZGoKJYXb8" ] },
      { "delegate": "tz1RNoDLWUjbqqs6uCHtJKgSLAegutbD8cNe",
        "reception_time": "2022-01-15T19:36:57.682-00:00",
        "included_in_blocks":
          [ "BMSWxC2PpyruRtSG89GXexorUtLz8rJTA3TJG5AEtyZGoKJYXb8" ] },
      { "delegate": "tz2FCNBrERXtaTtNX6iimR1UJ5JSDxvdHM93",
        "reception_time": "2022-01-15T19:36:57.735-00:00",
        "included_in_blocks":
          [ "BMSWxC2PpyruRtSG89GXexorUtLz8rJTA3TJG5AEtyZGoKJYXb8" ] },
      { "delegate": "tz1MQMiZHV8q4tTwUMWmS5Y3kaP6J2136iXr",
        "reception_time": "2022-01-15T19:36:57.737-00:00",
        "included_in_blocks":
          [ "BMSWxC2PpyruRtSG89GXexorUtLz8rJTA3TJG5AEtyZGoKJYXb8" ] },
      { "delegate": "tz1fPKAtsYydh4f1wfWNfeNxWYu72TmM48fu",
        "reception_time": "2022-01-15T19:36:57.743-00:00",
        "included_in_blocks":
          [ "BMSWxC2PpyruRtSG89GXexorUtLz8rJTA3TJG5AEtyZGoKJYXb8" ] },
      { "delegate": "tz1Nf6tsK4G6bBqgSQERy4nUtkHNKUVdh7q1",
        "reception_time": "2022-01-15T19:36:57.755-00:00",
        "included_in_blocks":
          [ "BMSWxC2PpyruRtSG89GXexorUtLz8rJTA3TJG5AEtyZGoKJYXb8" ] },
      { "delegate": "tz1PeZx7FXy7QRuMREGXGxeipb24RsMMzUNe",
        "reception_time": "2022-01-15T19:36:57.810-00:00",
        "included_in_blocks":
          [ "BMSWxC2PpyruRtSG89GXexorUtLz8rJTA3TJG5AEtyZGoKJYXb8" ] },
      { "delegate": "tz3RB4aoyjov4KEVRbuhvQ1CKJgBJMWhaeB8",
        "reception_time": "2022-01-15T19:36:57.817-00:00",
        "included_in_blocks":
          [ "BMSWxC2PpyruRtSG89GXexorUtLz8rJTA3TJG5AEtyZGoKJYXb8" ] },
      { "delegate": "tz1UNkf4sWzC5vsKP7FnejSeJsXdc6z8Kzk4",
        "reception_time": "2022-01-15T19:36:57.829-00:00",
        "included_in_blocks":
          [ "BMSWxC2PpyruRtSG89GXexorUtLz8rJTA3TJG5AEtyZGoKJYXb8" ] },
      { "delegate": "tz1R4PuhxUxBBZhfLJDx2nNjbr7WorAPX1oC",
        "reception_time": "2022-01-15T19:36:57.918-00:00",
        "included_in_blocks":
          [ "BMSWxC2PpyruRtSG89GXexorUtLz8rJTA3TJG5AEtyZGoKJYXb8" ] },
      { "delegate": "tz1LAJKyGRCheNiLAQQmJ8dXnoKbKgLzxNFp",
        "reception_time": "2022-01-15T19:36:57.991-00:00",
        "included_in_blocks":
          [ "BMSWxC2PpyruRtSG89GXexorUtLz8rJTA3TJG5AEtyZGoKJYXb8" ] },
      { "delegate": "tz1NEKxGEHsFufk87CVZcrqWu8o22qh46GK6",
        "reception_time": "2022-01-15T19:36:57.996-00:00",
        "included_in_blocks":
          [ "BMSWxC2PpyruRtSG89GXexorUtLz8rJTA3TJG5AEtyZGoKJYXb8" ] },
      { "delegate": "tz3NDpRj6WBrJPikcPVHRBEjWKxFw3c6eQPS",
        "reception_time": "2022-01-15T19:36:58.003-00:00",
        "included_in_blocks":
          [ "BMSWxC2PpyruRtSG89GXexorUtLz8rJTA3TJG5AEtyZGoKJYXb8" ] },
      { "delegate": "tz3gLTu4Yxj8tPAcriQVUdxv6BY9QyvzU1az",
        "reception_time": "2022-01-15T19:36:58.015-00:00",
        "included_in_blocks":
          [ "BMSWxC2PpyruRtSG89GXexorUtLz8rJTA3TJG5AEtyZGoKJYXb8" ] },
      { "delegate": "tz3VEZ4k6a4Wx42iyev6i2aVAptTRLEAivNN",
        "reception_time": "2022-01-15T19:36:58.111-00:00",
        "included_in_blocks":
          [ "BMSWxC2PpyruRtSG89GXexorUtLz8rJTA3TJG5AEtyZGoKJYXb8" ] },
      { "delegate": "tz1RjoHc98dBoqaH2jawF62XNKh7YsHwbkEv",
        "reception_time": "2022-01-15T19:36:58.177-00:00",
        "included_in_blocks":
          [ "BMSWxC2PpyruRtSG89GXexorUtLz8rJTA3TJG5AEtyZGoKJYXb8" ] },
      { "delegate": "tz3RDC3Jdn4j15J7bBHZd29EUee9gVB1CxD9",
        "reception_time": "2022-01-15T19:36:58.189-00:00",
        "included_in_blocks":
          [ "BMSWxC2PpyruRtSG89GXexorUtLz8rJTA3TJG5AEtyZGoKJYXb8" ] },
      { "delegate": "tz1KfEsrtDaA1sX7vdM4qmEPWuSytuqCDp5j",
        "reception_time": "2022-01-15T19:36:58.273-00:00",
        "included_in_blocks":
          [ "BMSWxC2PpyruRtSG89GXexorUtLz8rJTA3TJG5AEtyZGoKJYXb8" ] },
      { "delegate": "tz3WMqdzXqRWXwyvj5Hp2H7QEepaUuS7vd9K",
        "reception_time": "2022-01-15T19:36:58.338-00:00",
        "included_in_blocks":
          [ "BMSWxC2PpyruRtSG89GXexorUtLz8rJTA3TJG5AEtyZGoKJYXb8" ] },
      { "delegate": "tz1TRqbYbUf2GyrjErf3hBzgBJPzW8y36qEs",
        "reception_time": "2022-01-15T19:36:58.469-00:00",
        "included_in_blocks":
          [ "BMSWxC2PpyruRtSG89GXexorUtLz8rJTA3TJG5AEtyZGoKJYXb8" ] },
      { "delegate": "tz1dRKU4FQ9QRRQPdaH4zCR6gmCmXfcvcgtB",
        "reception_time": "2022-01-15T19:36:58.527-00:00",
        "included_in_blocks":
          [ "BMSWxC2PpyruRtSG89GXexorUtLz8rJTA3TJG5AEtyZGoKJYXb8" ] },
      { "delegate": "tz3bvNMQ95vfAYtG8193ymshqjSvmxiCUuR5",
        "reception_time": "2022-01-15T19:36:58.562-00:00",
        "included_in_blocks":
          [ "BMSWxC2PpyruRtSG89GXexorUtLz8rJTA3TJG5AEtyZGoKJYXb8" ] },
      { "delegate": "tz1T7duV5gZWSTq4YpBGbXNLTfznCLDrFxvs",
        "reception_time": "2022-01-15T19:36:58.908-00:00",
        "included_in_blocks":
          [ "BMSWxC2PpyruRtSG89GXexorUtLz8rJTA3TJG5AEtyZGoKJYXb8" ] },
      { "delegate": "tz1ZcTRk5uxD86EFEn1vvNffWWqJy7q5eVhc",
        "reception_time": "2022-01-15T19:36:59.058-00:00",
        "included_in_blocks":
          [ "BMSWxC2PpyruRtSG89GXexorUtLz8rJTA3TJG5AEtyZGoKJYXb8" ] },
      { "delegate": "tz1aRoaRhSpRYvFdyvgWLL6TGyRoGF51wDjM",
        "reception_time": "2022-01-15T19:36:59.118-00:00",
        "included_in_blocks":
          [ "BMSWxC2PpyruRtSG89GXexorUtLz8rJTA3TJG5AEtyZGoKJYXb8" ] },
      { "delegate": "tz3UoffC7FG7zfpmvmjUmUeAaHvzdcUvAj6r",
        "reception_time": "2022-01-15T19:36:59.138-00:00",
        "included_in_blocks":
          [ "BMSWxC2PpyruRtSG89GXexorUtLz8rJTA3TJG5AEtyZGoKJYXb8" ] },
      { "delegate": "tz3NExpXn9aPNZPorRE4SdjJ2RGrfbJgMAaV",
        "reception_time": "2022-01-15T19:36:59.155-00:00",
        "included_in_blocks":
          [ "BMSWxC2PpyruRtSG89GXexorUtLz8rJTA3TJG5AEtyZGoKJYXb8" ] },
      { "delegate": "tz1awXW7wuXy21c66vBudMXQVAPgRnqqwgTH",
        "reception_time": "2022-01-15T19:36:59.371-00:00",
        "included_in_blocks":
          [ "BMSWxC2PpyruRtSG89GXexorUtLz8rJTA3TJG5AEtyZGoKJYXb8" ] },
      { "delegate": "tz1bTpviNnyx2PXsNmGpCQTMQsGoYordkUoA",
        "reception_time": "2022-01-15T19:36:59.807-00:00",
        "included_in_blocks":
          [ "BMSWxC2PpyruRtSG89GXexorUtLz8rJTA3TJG5AEtyZGoKJYXb8" ] },
      { "delegate": "tz1NpWrAyDL9k2Lmnyxcgr9xuJakbBxdq7FB",
        "reception_time": "2022-01-15T19:37:03.794-00:00",
        "included_in_blocks":
          [ "BMSWxC2PpyruRtSG89GXexorUtLz8rJTA3TJG5AEtyZGoKJYXb8" ] } ] }