{ "blocks":
    [ { "hash": "BLKexxp3Aaosm2UGRaTtnWT23otPTwFaexWiMBpxzfCfPXpHWaB",
        "delegate": "tz1NEKxGEHsFufk87CVZcrqWu8o22qh46GK6",
        "reception_time": "2022-01-15T14:45:07.351-00:00",
        "timestamp": "2022-01-15T14:45:00Z" } ],
  "endorsements":
    [ { "delegate": "tz1P2Po7YM526ughEsRbY4oR9zaUPDZjxFrb",
        "reception_time": "2022-01-15T14:45:07.141-00:00",
        "errors":
          [ { "kind": "temporary",
              "id": "proto.011-PtHangz2.prefilter.outdated_endorsement" } ],
        "included_in_blocks":
          [ "BMATZ2NTN7apFDdG7JjEAnC4arkAsB4micbdaULUmsWamNWQmks" ] },
      { "delegate": "tz1TRspM5SeZpaQUhzByXbEvqKF1vnCM2YTK" },
      { "delegate": "tz1dbfppLAAxXZNtf2SDps7rch3qfUznKSoK" },
      { "delegate": "tz3VEZ4k6a4Wx42iyev6i2aVAptTRLEAivNN" },
      { "delegate": "tz1Scdr2HsZiQjc7bHMeBbmDRXYVvdhjJbBh",
        "reception_time": "2022-01-15T14:45:08.589-00:00",
        "included_in_blocks":
          [ "BMATZ2NTN7apFDdG7JjEAnC4arkAsB4micbdaULUmsWamNWQmks" ] },
      { "delegate": "tz1TXzyaKUA8wsWefdSnyaYFnV2M3vCV7er9",
        "reception_time": "2022-01-15T14:45:08.595-00:00",
        "included_in_blocks":
          [ "BMATZ2NTN7apFDdG7JjEAnC4arkAsB4micbdaULUmsWamNWQmks" ] },
      { "delegate": "tz1eEnQhbwf6trb8Q8mPb2RaPkNk2rN7BKi8",
        "reception_time": "2022-01-15T14:45:08.598-00:00",
        "included_in_blocks":
          [ "BMATZ2NTN7apFDdG7JjEAnC4arkAsB4micbdaULUmsWamNWQmks" ] },
      { "delegate": "tz1Zhv3RkfU2pHrmaiDyxp7kFZpZrUCu1CiF",
        "reception_time": "2022-01-15T14:45:08.607-00:00",
        "included_in_blocks":
          [ "BMATZ2NTN7apFDdG7JjEAnC4arkAsB4micbdaULUmsWamNWQmks" ] },
      { "delegate": "tz1Kf25fX1VdmYGSEzwFy1wNmkbSEZ2V83sY",
        "reception_time": "2022-01-15T14:45:08.607-00:00",
        "included_in_blocks":
          [ "BMATZ2NTN7apFDdG7JjEAnC4arkAsB4micbdaULUmsWamNWQmks" ] },
      { "delegate": "tz1bsdrs36X5BTH83RHUBdUouKLJZK8d2oBa",
        "reception_time": "2022-01-15T14:45:08.612-00:00",
        "included_in_blocks":
          [ "BMATZ2NTN7apFDdG7JjEAnC4arkAsB4micbdaULUmsWamNWQmks" ] },
      { "delegate": "tz1ZPh7XfUaJXUDvkrBxmS1BjEM1i62hiPpM",
        "reception_time": "2022-01-15T14:45:08.616-00:00",
        "included_in_blocks":
          [ "BMATZ2NTN7apFDdG7JjEAnC4arkAsB4micbdaULUmsWamNWQmks" ] },
      { "delegate": "tz1Ldzz6k1BHdhuKvAtMRX7h5kJSMHESMHLC",
        "reception_time": "2022-01-15T14:45:08.629-00:00",
        "included_in_blocks":
          [ "BMATZ2NTN7apFDdG7JjEAnC4arkAsB4micbdaULUmsWamNWQmks" ] },
      { "delegate": "tz3ZbP2pM3nwvXztbuMJwJnDvV5xdpU8UkkD",
        "reception_time": "2022-01-15T14:45:08.629-00:00",
        "included_in_blocks":
          [ "BMATZ2NTN7apFDdG7JjEAnC4arkAsB4micbdaULUmsWamNWQmks" ] },
      { "delegate": "tz1fPKAtsYydh4f1wfWNfeNxWYu72TmM48fu",
        "reception_time": "2022-01-15T14:45:08.637-00:00",
        "included_in_blocks":
          [ "BMATZ2NTN7apFDdG7JjEAnC4arkAsB4micbdaULUmsWamNWQmks" ] },
      { "delegate": "tz1cX93Q3KsiTADpCC4f12TBvAmS5tw7CW19",
        "reception_time": "2022-01-15T14:45:08.658-00:00",
        "included_in_blocks":
          [ "BMATZ2NTN7apFDdG7JjEAnC4arkAsB4micbdaULUmsWamNWQmks" ] },
      { "delegate": "tz3hw2kqXhLUvY65ca1eety2oQTpAvd34R9Q",
        "reception_time": "2022-01-15T14:45:08.670-00:00",
        "included_in_blocks":
          [ "BMATZ2NTN7apFDdG7JjEAnC4arkAsB4micbdaULUmsWamNWQmks" ] },
      { "delegate": "tz1VQnqCCqX4K5sP3FNkVSNKTdCAMJDd3E1n",
        "reception_time": "2022-01-15T14:45:08.673-00:00",
        "included_in_blocks":
          [ "BMATZ2NTN7apFDdG7JjEAnC4arkAsB4micbdaULUmsWamNWQmks" ] },
      { "delegate": "tz1TzaNn7wSQSP5gYPXCnNzBCpyMiidCq1PX",
        "reception_time": "2022-01-15T14:45:08.677-00:00",
        "included_in_blocks":
          [ "BMATZ2NTN7apFDdG7JjEAnC4arkAsB4micbdaULUmsWamNWQmks" ] },
      { "delegate": "tz3Zhs2dygr55yHyQyKjntAtY9bgfhLZ4Xj1",
        "reception_time": "2022-01-15T14:45:08.691-00:00",
        "included_in_blocks":
          [ "BMATZ2NTN7apFDdG7JjEAnC4arkAsB4micbdaULUmsWamNWQmks" ] },
      { "delegate": "tz3RKYFsLuQzKBtmYuLNas7uMu3AsYd4QdsA",
        "reception_time": "2022-01-15T14:45:08.691-00:00",
        "included_in_blocks":
          [ "BMATZ2NTN7apFDdG7JjEAnC4arkAsB4micbdaULUmsWamNWQmks" ] },
      { "delegate": "tz1S8MNvuFEUsWgjHvi3AxibRBf388NhT1q2",
        "reception_time": "2022-01-15T14:45:08.718-00:00",
        "included_in_blocks":
          [ "BMATZ2NTN7apFDdG7JjEAnC4arkAsB4micbdaULUmsWamNWQmks" ] },
      { "delegate": "tz1gUNyn3hmnEWqkusWPzxRaon1cs7ndWh7h",
        "reception_time": "2022-01-15T14:45:08.718-00:00",
        "included_in_blocks":
          [ "BMATZ2NTN7apFDdG7JjEAnC4arkAsB4micbdaULUmsWamNWQmks" ] },
      { "delegate": "tz3NxTnke1acr8o3h5y9ytf5awQBGNJUKzVU",
        "reception_time": "2022-01-15T14:45:08.727-00:00",
        "included_in_blocks":
          [ "BMATZ2NTN7apFDdG7JjEAnC4arkAsB4micbdaULUmsWamNWQmks" ] },
      { "delegate": "tz3QSGPoRp3Kn7n3vY24eYeu3Peuqo45LQ4D",
        "reception_time": "2022-01-15T14:45:08.738-00:00",
        "included_in_blocks":
          [ "BMATZ2NTN7apFDdG7JjEAnC4arkAsB4micbdaULUmsWamNWQmks" ] },
      { "delegate": "tz3gtoUxdudfBRcNY7iVdKPHCYYX6xdPpoRS",
        "reception_time": "2022-01-15T14:45:08.751-00:00",
        "included_in_blocks":
          [ "BMATZ2NTN7apFDdG7JjEAnC4arkAsB4micbdaULUmsWamNWQmks" ] },
      { "delegate": "tz3QT9dHYKDqh563chVa6za8526ys1UKfRfL",
        "reception_time": "2022-01-15T14:45:08.751-00:00",
        "included_in_blocks":
          [ "BMATZ2NTN7apFDdG7JjEAnC4arkAsB4micbdaULUmsWamNWQmks" ] },
      { "delegate": "tz1gfArv665EUkSg2ojMBzcbfwuPxAvqPvjo",
        "reception_time": "2022-01-15T14:45:08.762-00:00",
        "included_in_blocks":
          [ "BMATZ2NTN7apFDdG7JjEAnC4arkAsB4micbdaULUmsWamNWQmks" ] },
      { "delegate": "tz1WCd2jm4uSt4vntk4vSuUWoZQGhLcDuR9q",
        "reception_time": "2022-01-15T14:45:08.762-00:00",
        "included_in_blocks":
          [ "BMATZ2NTN7apFDdG7JjEAnC4arkAsB4micbdaULUmsWamNWQmks" ] },
      { "delegate": "tz3S6BBeKgJGXxvLyZ1xzXzMPn11nnFtq5L9",
        "reception_time": "2022-01-15T14:45:08.777-00:00",
        "included_in_blocks":
          [ "BMATZ2NTN7apFDdG7JjEAnC4arkAsB4micbdaULUmsWamNWQmks" ] },
      { "delegate": "tz1d6Fx42mYgVFnHUW8T8A7WBfJ6nD9pVok8",
        "reception_time": "2022-01-15T14:45:08.851-00:00",
        "included_in_blocks":
          [ "BMATZ2NTN7apFDdG7JjEAnC4arkAsB4micbdaULUmsWamNWQmks" ] },
      { "delegate": "tz1NEKxGEHsFufk87CVZcrqWu8o22qh46GK6",
        "reception_time": "2022-01-15T14:45:08.870-00:00",
        "included_in_blocks":
          [ "BMATZ2NTN7apFDdG7JjEAnC4arkAsB4micbdaULUmsWamNWQmks" ] },
      { "delegate": "tz3RB4aoyjov4KEVRbuhvQ1CKJgBJMWhaeB8",
        "reception_time": "2022-01-15T14:45:08.925-00:00",
        "included_in_blocks":
          [ "BMATZ2NTN7apFDdG7JjEAnC4arkAsB4micbdaULUmsWamNWQmks" ] },
      { "delegate": "tz3RDC3Jdn4j15J7bBHZd29EUee9gVB1CxD9",
        "reception_time": "2022-01-15T14:45:08.936-00:00",
        "included_in_blocks":
          [ "BMATZ2NTN7apFDdG7JjEAnC4arkAsB4micbdaULUmsWamNWQmks" ] },
      { "delegate": "tz1dwu9aYb7CRNq4Y2zAjipdjFuSVKhHS8vA",
        "reception_time": "2022-01-15T14:45:08.938-00:00",
        "included_in_blocks":
          [ "BMATZ2NTN7apFDdG7JjEAnC4arkAsB4micbdaULUmsWamNWQmks" ] },
      { "delegate": "tz1RCFbB9GpALpsZtu6J58sb74dm8qe6XBzv",
        "reception_time": "2022-01-15T14:45:08.997-00:00",
        "included_in_blocks":
          [ "BMATZ2NTN7apFDdG7JjEAnC4arkAsB4micbdaULUmsWamNWQmks" ] },
      { "delegate": "tz1PWCDnz783NNGGQjEFFsHtrcK5yBW4E2rm",
        "reception_time": "2022-01-15T14:45:09.086-00:00",
        "included_in_blocks":
          [ "BMATZ2NTN7apFDdG7JjEAnC4arkAsB4micbdaULUmsWamNWQmks" ] },
      { "delegate": "tz1MUbPBAH6jzhex85AW6MD9uJzXP58N1Dro",
        "reception_time": "2022-01-15T14:45:09.091-00:00",
        "included_in_blocks":
          [ "BMATZ2NTN7apFDdG7JjEAnC4arkAsB4micbdaULUmsWamNWQmks" ] },
      { "delegate": "tz3bTdwZinP8U1JmSweNzVKhmwafqWmFWRfk",
        "reception_time": "2022-01-15T14:45:09.149-00:00",
        "included_in_blocks":
          [ "BMATZ2NTN7apFDdG7JjEAnC4arkAsB4micbdaULUmsWamNWQmks" ] },
      { "delegate": "tz1KfEsrtDaA1sX7vdM4qmEPWuSytuqCDp5j",
        "reception_time": "2022-01-15T14:45:09.192-00:00",
        "included_in_blocks":
          [ "BMATZ2NTN7apFDdG7JjEAnC4arkAsB4micbdaULUmsWamNWQmks" ] },
      { "delegate": "tz1NortRftucvAkD1J58L32EhSVrQEWJCEnB",
        "reception_time": "2022-01-15T14:45:09.222-00:00",
        "included_in_blocks":
          [ "BMATZ2NTN7apFDdG7JjEAnC4arkAsB4micbdaULUmsWamNWQmks" ] },
      { "delegate": "tz1LmaFsWRkjr7QMCx5PtV6xTUz3AmEpKQiF",
        "reception_time": "2022-01-15T14:45:09.304-00:00",
        "included_in_blocks":
          [ "BMATZ2NTN7apFDdG7JjEAnC4arkAsB4micbdaULUmsWamNWQmks" ] },
      { "delegate": "tz1RQhNh7iB9CZA7i3ifTWNwiGYVffponfbB",
        "reception_time": "2022-01-15T14:45:09.312-00:00",
        "included_in_blocks":
          [ "BMATZ2NTN7apFDdG7JjEAnC4arkAsB4micbdaULUmsWamNWQmks" ] },
      { "delegate": "tz1irJKkXS2DBWkU1NnmFQx1c1L7pbGg4yhk",
        "reception_time": "2022-01-15T14:45:09.315-00:00",
        "included_in_blocks":
          [ "BMATZ2NTN7apFDdG7JjEAnC4arkAsB4micbdaULUmsWamNWQmks" ] },
      { "delegate": "tz1abmz7jiCV2GH2u81LRrGgAFFgvQgiDiaf",
        "reception_time": "2022-01-15T14:45:09.362-00:00",
        "included_in_blocks":
          [ "BMATZ2NTN7apFDdG7JjEAnC4arkAsB4micbdaULUmsWamNWQmks" ] },
      { "delegate": "tz1fwnfJNgiDACshK9avfRfFbMaXrs3ghoJa",
        "reception_time": "2022-01-15T14:45:09.367-00:00",
        "included_in_blocks":
          [ "BMATZ2NTN7apFDdG7JjEAnC4arkAsB4micbdaULUmsWamNWQmks" ] },
      { "delegate": "tz1YhNsiRRU8aHNGg7NK3uuP6UDAyacJernB",
        "reception_time": "2022-01-15T14:45:09.447-00:00",
        "included_in_blocks":
          [ "BMATZ2NTN7apFDdG7JjEAnC4arkAsB4micbdaULUmsWamNWQmks" ] },
      { "delegate": "tz1ei4WtWEMEJekSv8qDnu9PExG6Q8HgRGr3",
        "reception_time": "2022-01-15T14:45:09.482-00:00",
        "included_in_blocks":
          [ "BMATZ2NTN7apFDdG7JjEAnC4arkAsB4micbdaULUmsWamNWQmks" ] },
      { "delegate": "tz1TEc75UKXv4W5cwi14Na3NtqFD51yKQi7h",
        "reception_time": "2022-01-15T14:45:09.493-00:00",
        "included_in_blocks":
          [ "BMATZ2NTN7apFDdG7JjEAnC4arkAsB4micbdaULUmsWamNWQmks" ] },
      { "delegate": "tz2FCNBrERXtaTtNX6iimR1UJ5JSDxvdHM93",
        "reception_time": "2022-01-15T14:45:09.504-00:00",
        "included_in_blocks":
          [ "BMATZ2NTN7apFDdG7JjEAnC4arkAsB4micbdaULUmsWamNWQmks" ] },
      { "delegate": "tz1Nf6tsK4G6bBqgSQERy4nUtkHNKUVdh7q1",
        "reception_time": "2022-01-15T14:45:09.509-00:00",
        "included_in_blocks":
          [ "BMATZ2NTN7apFDdG7JjEAnC4arkAsB4micbdaULUmsWamNWQmks" ] },
      { "delegate": "tz1WBfwbT66FC6BTLexc2BoyCCBM9LG7pnVW",
        "reception_time": "2022-01-15T14:45:09.658-00:00",
        "included_in_blocks":
          [ "BMATZ2NTN7apFDdG7JjEAnC4arkAsB4micbdaULUmsWamNWQmks" ] },
      { "delegate": "tz1Mc61yajNASzh5KWZFtYs4i7EJbzAxQC4K",
        "reception_time": "2022-01-15T14:45:09.675-00:00",
        "included_in_blocks":
          [ "BMATZ2NTN7apFDdG7JjEAnC4arkAsB4micbdaULUmsWamNWQmks" ] },
      { "delegate": "tz1Tnjaxk6tbAeC2TmMApPh8UsrEVQvhHvx5",
        "reception_time": "2022-01-15T14:45:09.687-00:00",
        "included_in_blocks":
          [ "BMATZ2NTN7apFDdG7JjEAnC4arkAsB4micbdaULUmsWamNWQmks" ] },
      { "delegate": "tz3WMqdzXqRWXwyvj5Hp2H7QEepaUuS7vd9K",
        "reception_time": "2022-01-15T14:45:09.865-00:00",
        "included_in_blocks":
          [ "BMATZ2NTN7apFDdG7JjEAnC4arkAsB4micbdaULUmsWamNWQmks" ] },
      { "delegate": "tz3gLTu4Yxj8tPAcriQVUdxv6BY9QyvzU1az",
        "reception_time": "2022-01-15T14:45:09.887-00:00",
        "included_in_blocks":
          [ "BMATZ2NTN7apFDdG7JjEAnC4arkAsB4micbdaULUmsWamNWQmks" ] },
      { "delegate": "tz1cig1EHyvZd7J2k389moM9PxVgPQvmFkvi",
        "reception_time": "2022-01-15T14:45:09.915-00:00",
        "included_in_blocks":
          [ "BMATZ2NTN7apFDdG7JjEAnC4arkAsB4micbdaULUmsWamNWQmks" ] },
      { "delegate": "tz1PeZx7FXy7QRuMREGXGxeipb24RsMMzUNe",
        "reception_time": "2022-01-15T14:45:10.009-00:00",
        "included_in_blocks":
          [ "BMATZ2NTN7apFDdG7JjEAnC4arkAsB4micbdaULUmsWamNWQmks" ] },
      { "delegate": "tz1Vd1rXpV8hTHbFXCXN3c3qzCsgcU5BZw1e",
        "reception_time": "2022-01-15T14:45:10.069-00:00",
        "included_in_blocks":
          [ "BMATZ2NTN7apFDdG7JjEAnC4arkAsB4micbdaULUmsWamNWQmks" ] },
      { "delegate": "tz1SohptP53wDPZhzTWzDUFAUcWF6DMBpaJV",
        "reception_time": "2022-01-15T14:45:10.121-00:00",
        "included_in_blocks":
          [ "BMATZ2NTN7apFDdG7JjEAnC4arkAsB4micbdaULUmsWamNWQmks" ] },
      { "delegate": "tz1TRqbYbUf2GyrjErf3hBzgBJPzW8y36qEs",
        "reception_time": "2022-01-15T14:45:10.378-00:00",
        "included_in_blocks":
          [ "BMATZ2NTN7apFDdG7JjEAnC4arkAsB4micbdaULUmsWamNWQmks" ] },
      { "delegate": "tz3bvNMQ95vfAYtG8193ymshqjSvmxiCUuR5",
        "reception_time": "2022-01-15T14:45:10.396-00:00",
        "included_in_blocks":
          [ "BMATZ2NTN7apFDdG7JjEAnC4arkAsB4micbdaULUmsWamNWQmks" ] },
      { "delegate": "tz1eVaNx3gCmG1EsLjijkmgAxdLYVf6Bf5Sq",
        "reception_time": "2022-01-15T14:45:10.563-00:00",
        "included_in_blocks":
          [ "BMATZ2NTN7apFDdG7JjEAnC4arkAsB4micbdaULUmsWamNWQmks" ] },
      { "delegate": "tz1dRKU4FQ9QRRQPdaH4zCR6gmCmXfcvcgtB",
        "reception_time": "2022-01-15T14:45:10.852-00:00",
        "included_in_blocks":
          [ "BMATZ2NTN7apFDdG7JjEAnC4arkAsB4micbdaULUmsWamNWQmks" ] },
      { "delegate": "tz3NExpXn9aPNZPorRE4SdjJ2RGrfbJgMAaV",
        "reception_time": "2022-01-15T14:45:10.905-00:00",
        "included_in_blocks":
          [ "BMATZ2NTN7apFDdG7JjEAnC4arkAsB4micbdaULUmsWamNWQmks" ] },
      { "delegate": "tz3UoffC7FG7zfpmvmjUmUeAaHvzdcUvAj6r",
        "reception_time": "2022-01-15T14:45:10.922-00:00",
        "included_in_blocks":
          [ "BMATZ2NTN7apFDdG7JjEAnC4arkAsB4micbdaULUmsWamNWQmks" ] },
      { "delegate": "tz1aRoaRhSpRYvFdyvgWLL6TGyRoGF51wDjM",
        "reception_time": "2022-01-15T14:45:11.049-00:00",
        "included_in_blocks":
          [ "BMATZ2NTN7apFDdG7JjEAnC4arkAsB4micbdaULUmsWamNWQmks" ] },
      { "delegate": "tz1cYufsxHXJcvANhvS55h3aY32a9BAFB494",
        "reception_time": "2022-01-15T14:45:11.193-00:00",
        "included_in_blocks":
          [ "BMATZ2NTN7apFDdG7JjEAnC4arkAsB4micbdaULUmsWamNWQmks" ] },
      { "delegate": "tz1i3mhawFAgcB8JHaHwoUF6hdncwTAkLEn2",
        "reception_time": "2022-01-15T14:45:11.285-00:00",
        "included_in_blocks":
          [ "BMATZ2NTN7apFDdG7JjEAnC4arkAsB4micbdaULUmsWamNWQmks" ] },
      { "delegate": "tz1ZcTRk5uxD86EFEn1vvNffWWqJy7q5eVhc",
        "reception_time": "2022-01-15T14:45:11.529-00:00",
        "included_in_blocks":
          [ "BMATZ2NTN7apFDdG7JjEAnC4arkAsB4micbdaULUmsWamNWQmks" ] },
      { "delegate": "tz1Xsrfv6hn86fp88YfRs6xcKwt2nTqxVZYM",
        "reception_time": "2022-01-15T14:45:11.718-00:00",
        "included_in_blocks":
          [ "BMATZ2NTN7apFDdG7JjEAnC4arkAsB4micbdaULUmsWamNWQmks" ] },
      { "delegate": "tz1PFeoTuFen8jAMRHajBySNyCwLmY5RqF9M",
        "reception_time": "2022-01-15T14:45:11.914-00:00",
        "included_in_blocks":
          [ "BMATZ2NTN7apFDdG7JjEAnC4arkAsB4micbdaULUmsWamNWQmks" ] },
      { "delegate": "tz1SYq214SCBy9naR6cvycQsYcUGpBqQAE8d",
        "reception_time": "2022-01-15T14:45:12.055-00:00",
        "included_in_blocks":
          [ "BMATZ2NTN7apFDdG7JjEAnC4arkAsB4micbdaULUmsWamNWQmks" ] },
      { "delegate": "tz1NpWrAyDL9k2Lmnyxcgr9xuJakbBxdq7FB",
        "reception_time": "2022-01-15T14:45:14.003-00:00",
        "included_in_blocks":
          [ "BMATZ2NTN7apFDdG7JjEAnC4arkAsB4micbdaULUmsWamNWQmks" ] },
      { "delegate": "tz1Z1WwoqgRFbLE3YNdYRpCx44NSfiMJzeAG",
        "reception_time": "2022-01-15T14:45:15.706-00:00",
        "included_in_blocks":
          [ "BMATZ2NTN7apFDdG7JjEAnC4arkAsB4micbdaULUmsWamNWQmks" ] } ] }