{ "blocks":
    [ { "hash": "BLGc3TRLZ17itP2hhCBgJ5h626WWzNcHoUnRza1v2RV8qEnQd9A",
        "delegate": "tz1Nf6tsK4G6bBqgSQERy4nUtkHNKUVdh7q1",
        "reception_time": "2022-01-15T20:10:58.003-00:00",
        "timestamp": "2022-01-15T20:10:50Z" } ],
  "endorsements":
    [ { "delegate": "tz1TXzyaKUA8wsWefdSnyaYFnV2M3vCV7er9",
        "reception_time": "2022-01-15T20:10:57.883-00:00",
        "errors":
          [ { "kind": "temporary",
              "id": "proto.011-PtHangz2.prefilter.outdated_endorsement" } ],
        "included_in_blocks":
          [ "BLFYTNNHaitsVN88FyVCUpL6KV3f19U8ZV1UYmXVfwR3nP9LiPz" ] },
      { "delegate": "tz1Scdr2HsZiQjc7bHMeBbmDRXYVvdhjJbBh",
        "reception_time": "2022-01-15T20:10:57.767-00:00",
        "errors":
          [ { "kind": "temporary",
              "id": "proto.011-PtHangz2.prefilter.outdated_endorsement" } ],
        "included_in_blocks":
          [ "BLFYTNNHaitsVN88FyVCUpL6KV3f19U8ZV1UYmXVfwR3nP9LiPz" ] },
      { "delegate": "tz1STeamwbp68THcny9zk3LsbG3H36DMvbRK",
        "reception_time": "2022-01-15T20:10:57.714-00:00",
        "errors":
          [ { "kind": "temporary",
              "id": "proto.011-PtHangz2.prefilter.outdated_endorsement" } ],
        "included_in_blocks":
          [ "BLFYTNNHaitsVN88FyVCUpL6KV3f19U8ZV1UYmXVfwR3nP9LiPz" ] },
      { "delegate": "tz1P2Po7YM526ughEsRbY4oR9zaUPDZjxFrb",
        "reception_time": "2022-01-15T20:10:57.493-00:00",
        "errors":
          [ { "kind": "temporary",
              "id": "proto.011-PtHangz2.prefilter.outdated_endorsement" } ],
        "included_in_blocks":
          [ "BLFYTNNHaitsVN88FyVCUpL6KV3f19U8ZV1UYmXVfwR3nP9LiPz" ] },
      { "delegate": "tz1TRspM5SeZpaQUhzByXbEvqKF1vnCM2YTK" },
      { "delegate": "tz1VQnqCCqX4K5sP3FNkVSNKTdCAMJDd3E1n",
        "reception_time": "2022-01-15T20:10:58.966-00:00",
        "included_in_blocks":
          [ "BLFYTNNHaitsVN88FyVCUpL6KV3f19U8ZV1UYmXVfwR3nP9LiPz" ] },
      { "delegate": "tz1eEnQhbwf6trb8Q8mPb2RaPkNk2rN7BKi8",
        "reception_time": "2022-01-15T20:10:58.970-00:00",
        "included_in_blocks":
          [ "BLFYTNNHaitsVN88FyVCUpL6KV3f19U8ZV1UYmXVfwR3nP9LiPz" ] },
      { "delegate": "tz1iZEKy4LaAjnTmn2RuGDf2iqdAQKnRi8kY",
        "reception_time": "2022-01-15T20:10:58.978-00:00",
        "included_in_blocks":
          [ "BLFYTNNHaitsVN88FyVCUpL6KV3f19U8ZV1UYmXVfwR3nP9LiPz" ] },
      { "delegate": "tz1irJKkXS2DBWkU1NnmFQx1c1L7pbGg4yhk",
        "reception_time": "2022-01-15T20:10:58.978-00:00",
        "included_in_blocks":
          [ "BLFYTNNHaitsVN88FyVCUpL6KV3f19U8ZV1UYmXVfwR3nP9LiPz" ] },
      { "delegate": "tz1gUNyn3hmnEWqkusWPzxRaon1cs7ndWh7h",
        "reception_time": "2022-01-15T20:10:58.981-00:00",
        "included_in_blocks":
          [ "BLFYTNNHaitsVN88FyVCUpL6KV3f19U8ZV1UYmXVfwR3nP9LiPz" ] },
      { "delegate": "tz3Zhs2dygr55yHyQyKjntAtY9bgfhLZ4Xj1",
        "reception_time": "2022-01-15T20:10:58.989-00:00",
        "included_in_blocks":
          [ "BLFYTNNHaitsVN88FyVCUpL6KV3f19U8ZV1UYmXVfwR3nP9LiPz" ] },
      { "delegate": "tz3iJu5vrKZcsqRPs8yJ61UDoeEXZmtro4qh",
        "reception_time": "2022-01-15T20:10:58.996-00:00",
        "included_in_blocks":
          [ "BLFYTNNHaitsVN88FyVCUpL6KV3f19U8ZV1UYmXVfwR3nP9LiPz" ] },
      { "delegate": "tz3NxTnke1acr8o3h5y9ytf5awQBGNJUKzVU",
        "reception_time": "2022-01-15T20:10:59.003-00:00",
        "included_in_blocks":
          [ "BLFYTNNHaitsVN88FyVCUpL6KV3f19U8ZV1UYmXVfwR3nP9LiPz" ] },
      { "delegate": "tz1VmiY38m3y95HqQLjMwqnMS7sdMfGomzKi",
        "reception_time": "2022-01-15T20:10:59.006-00:00",
        "included_in_blocks":
          [ "BLFYTNNHaitsVN88FyVCUpL6KV3f19U8ZV1UYmXVfwR3nP9LiPz" ] },
      { "delegate": "tz1Ldzz6k1BHdhuKvAtMRX7h5kJSMHESMHLC",
        "reception_time": "2022-01-15T20:10:59.009-00:00",
        "included_in_blocks":
          [ "BLFYTNNHaitsVN88FyVCUpL6KV3f19U8ZV1UYmXVfwR3nP9LiPz" ] },
      { "delegate": "tz3ZbP2pM3nwvXztbuMJwJnDvV5xdpU8UkkD",
        "reception_time": "2022-01-15T20:10:59.016-00:00",
        "included_in_blocks":
          [ "BLFYTNNHaitsVN88FyVCUpL6KV3f19U8ZV1UYmXVfwR3nP9LiPz" ] },
      { "delegate": "tz1RV1MBbZMR68tacosb7Mwj6LkbPSUS1er1",
        "reception_time": "2022-01-15T20:10:59.019-00:00",
        "included_in_blocks":
          [ "BLFYTNNHaitsVN88FyVCUpL6KV3f19U8ZV1UYmXVfwR3nP9LiPz" ] },
      { "delegate": "tz1Nf6tsK4G6bBqgSQERy4nUtkHNKUVdh7q1",
        "reception_time": "2022-01-15T20:10:59.088-00:00",
        "included_in_blocks":
          [ "BLFYTNNHaitsVN88FyVCUpL6KV3f19U8ZV1UYmXVfwR3nP9LiPz" ] },
      { "delegate": "tz3S6BBeKgJGXxvLyZ1xzXzMPn11nnFtq5L9",
        "reception_time": "2022-01-15T20:10:59.105-00:00",
        "included_in_blocks":
          [ "BLFYTNNHaitsVN88FyVCUpL6KV3f19U8ZV1UYmXVfwR3nP9LiPz" ] },
      { "delegate": "tz3RKYFsLuQzKBtmYuLNas7uMu3AsYd4QdsA",
        "reception_time": "2022-01-15T20:10:59.119-00:00",
        "included_in_blocks":
          [ "BLFYTNNHaitsVN88FyVCUpL6KV3f19U8ZV1UYmXVfwR3nP9LiPz" ] },
      { "delegate": "tz3hw2kqXhLUvY65ca1eety2oQTpAvd34R9Q",
        "reception_time": "2022-01-15T20:10:59.128-00:00",
        "included_in_blocks":
          [ "BLFYTNNHaitsVN88FyVCUpL6KV3f19U8ZV1UYmXVfwR3nP9LiPz" ] },
      { "delegate": "tz3gtoUxdudfBRcNY7iVdKPHCYYX6xdPpoRS",
        "reception_time": "2022-01-15T20:10:59.223-00:00",
        "included_in_blocks":
          [ "BLFYTNNHaitsVN88FyVCUpL6KV3f19U8ZV1UYmXVfwR3nP9LiPz" ] },
      { "delegate": "tz3QSGPoRp3Kn7n3vY24eYeu3Peuqo45LQ4D",
        "reception_time": "2022-01-15T20:10:59.229-00:00",
        "included_in_blocks":
          [ "BLFYTNNHaitsVN88FyVCUpL6KV3f19U8ZV1UYmXVfwR3nP9LiPz" ] },
      { "delegate": "tz1aXD7Jigrt3PBYSpHSg5Rr33SexMmmM5Ys",
        "reception_time": "2022-01-15T20:10:59.246-00:00",
        "included_in_blocks":
          [ "BLFYTNNHaitsVN88FyVCUpL6KV3f19U8ZV1UYmXVfwR3nP9LiPz" ] },
      { "delegate": "tz1iPHM2Xx2hwmzcr1EG1zzrV6oKafVoA91m",
        "reception_time": "2022-01-15T20:10:59.282-00:00",
        "included_in_blocks":
          [ "BLFYTNNHaitsVN88FyVCUpL6KV3f19U8ZV1UYmXVfwR3nP9LiPz" ] },
      { "delegate": "tz3bTdwZinP8U1JmSweNzVKhmwafqWmFWRfk",
        "reception_time": "2022-01-15T20:10:59.397-00:00",
        "included_in_blocks":
          [ "BLFYTNNHaitsVN88FyVCUpL6KV3f19U8ZV1UYmXVfwR3nP9LiPz" ] },
      { "delegate": "tz1YhNsiRRU8aHNGg7NK3uuP6UDAyacJernB",
        "reception_time": "2022-01-15T20:10:59.417-00:00",
        "included_in_blocks":
          [ "BLFYTNNHaitsVN88FyVCUpL6KV3f19U8ZV1UYmXVfwR3nP9LiPz" ] },
      { "delegate": "tz1ei4WtWEMEJekSv8qDnu9PExG6Q8HgRGr3",
        "reception_time": "2022-01-15T20:10:59.538-00:00",
        "included_in_blocks":
          [ "BLFYTNNHaitsVN88FyVCUpL6KV3f19U8ZV1UYmXVfwR3nP9LiPz" ] },
      { "delegate": "tz3adcvQaKXTCg12zbninqo3q8ptKKtDFTLv",
        "reception_time": "2022-01-15T20:10:59.550-00:00",
        "included_in_blocks":
          [ "BLFYTNNHaitsVN88FyVCUpL6KV3f19U8ZV1UYmXVfwR3nP9LiPz" ] },
      { "delegate": "tz1PWCDnz783NNGGQjEFFsHtrcK5yBW4E2rm",
        "reception_time": "2022-01-15T20:10:59.576-00:00",
        "included_in_blocks":
          [ "BLFYTNNHaitsVN88FyVCUpL6KV3f19U8ZV1UYmXVfwR3nP9LiPz" ] },
      { "delegate": "tz1LjZjdF1wFgUtVyNsrr8P1uYaoBJGTTPyr",
        "reception_time": "2022-01-15T20:10:59.651-00:00",
        "included_in_blocks":
          [ "BLFYTNNHaitsVN88FyVCUpL6KV3f19U8ZV1UYmXVfwR3nP9LiPz" ] },
      { "delegate": "tz1gfArv665EUkSg2ojMBzcbfwuPxAvqPvjo",
        "reception_time": "2022-01-15T20:10:59.678-00:00",
        "included_in_blocks":
          [ "BLFYTNNHaitsVN88FyVCUpL6KV3f19U8ZV1UYmXVfwR3nP9LiPz" ] },
      { "delegate": "tz1S8MNvuFEUsWgjHvi3AxibRBf388NhT1q2",
        "reception_time": "2022-01-15T20:10:59.698-00:00",
        "included_in_blocks":
          [ "BLFYTNNHaitsVN88FyVCUpL6KV3f19U8ZV1UYmXVfwR3nP9LiPz" ] },
      { "delegate": "tz1SYq214SCBy9naR6cvycQsYcUGpBqQAE8d",
        "reception_time": "2022-01-15T20:10:59.726-00:00",
        "included_in_blocks":
          [ "BLFYTNNHaitsVN88FyVCUpL6KV3f19U8ZV1UYmXVfwR3nP9LiPz" ] },
      { "delegate": "tz1ci1ARnm8JoYV16Hbe4FoxX17yFEAQVytg",
        "reception_time": "2022-01-15T20:10:59.747-00:00",
        "included_in_blocks":
          [ "BLFYTNNHaitsVN88FyVCUpL6KV3f19U8ZV1UYmXVfwR3nP9LiPz" ] },
      { "delegate": "tz1RCFbB9GpALpsZtu6J58sb74dm8qe6XBzv",
        "reception_time": "2022-01-15T20:10:59.749-00:00",
        "included_in_blocks":
          [ "BLFYTNNHaitsVN88FyVCUpL6KV3f19U8ZV1UYmXVfwR3nP9LiPz" ] },
      { "delegate": "tz1RQhNh7iB9CZA7i3ifTWNwiGYVffponfbB",
        "reception_time": "2022-01-15T20:10:59.795-00:00",
        "included_in_blocks":
          [ "BLFYTNNHaitsVN88FyVCUpL6KV3f19U8ZV1UYmXVfwR3nP9LiPz" ] },
      { "delegate": "tz1LnWa4AiFCjMezTgSNa65QFoo7DQGEWgEU",
        "reception_time": "2022-01-15T20:10:59.813-00:00",
        "included_in_blocks":
          [ "BLFYTNNHaitsVN88FyVCUpL6KV3f19U8ZV1UYmXVfwR3nP9LiPz" ] },
      { "delegate": "tz1cwkVaVm1M59zoNZPm4VnYnmh18Eit8xXn",
        "reception_time": "2022-01-15T20:10:59.948-00:00",
        "included_in_blocks":
          [ "BLFYTNNHaitsVN88FyVCUpL6KV3f19U8ZV1UYmXVfwR3nP9LiPz" ] },
      { "delegate": "tz1QLXqnfN51dkjeghXvKHkJfhvGiM5gK4tc",
        "reception_time": "2022-01-15T20:11:00.138-00:00",
        "included_in_blocks":
          [ "BLFYTNNHaitsVN88FyVCUpL6KV3f19U8ZV1UYmXVfwR3nP9LiPz" ] },
      { "delegate": "tz3QCNyySViKHmeSr45kzDxzchys7NiXCWoa",
        "reception_time": "2022-01-15T20:11:00.155-00:00",
        "included_in_blocks":
          [ "BLFYTNNHaitsVN88FyVCUpL6KV3f19U8ZV1UYmXVfwR3nP9LiPz" ] },
      { "delegate": "tz1Vd1rXpV8hTHbFXCXN3c3qzCsgcU5BZw1e",
        "reception_time": "2022-01-15T20:11:00.172-00:00",
        "included_in_blocks":
          [ "BLFYTNNHaitsVN88FyVCUpL6KV3f19U8ZV1UYmXVfwR3nP9LiPz" ] },
      { "delegate": "tz1TEc75UKXv4W5cwi14Na3NtqFD51yKQi7h",
        "reception_time": "2022-01-15T20:11:00.200-00:00",
        "included_in_blocks":
          [ "BLFYTNNHaitsVN88FyVCUpL6KV3f19U8ZV1UYmXVfwR3nP9LiPz" ] },
      { "delegate": "tz1Tnjaxk6tbAeC2TmMApPh8UsrEVQvhHvx5",
        "reception_time": "2022-01-15T20:11:00.270-00:00",
        "included_in_blocks":
          [ "BLFYTNNHaitsVN88FyVCUpL6KV3f19U8ZV1UYmXVfwR3nP9LiPz" ] },
      { "delegate": "tz3gLTu4Yxj8tPAcriQVUdxv6BY9QyvzU1az",
        "reception_time": "2022-01-15T20:11:00.420-00:00",
        "included_in_blocks":
          [ "BLFYTNNHaitsVN88FyVCUpL6KV3f19U8ZV1UYmXVfwR3nP9LiPz" ] },
      { "delegate": "tz2FCNBrERXtaTtNX6iimR1UJ5JSDxvdHM93",
        "reception_time": "2022-01-15T20:11:00.596-00:00",
        "included_in_blocks":
          [ "BLFYTNNHaitsVN88FyVCUpL6KV3f19U8ZV1UYmXVfwR3nP9LiPz" ] },
      { "delegate": "tz1fPKAtsYydh4f1wfWNfeNxWYu72TmM48fu",
        "reception_time": "2022-01-15T20:11:00.651-00:00",
        "included_in_blocks":
          [ "BLFYTNNHaitsVN88FyVCUpL6KV3f19U8ZV1UYmXVfwR3nP9LiPz" ] },
      { "delegate": "tz1chefX9Lf2XcZ4BzPtHjV4Qed6BY2ci9GE",
        "reception_time": "2022-01-15T20:11:00.667-00:00",
        "included_in_blocks":
          [ "BLFYTNNHaitsVN88FyVCUpL6KV3f19U8ZV1UYmXVfwR3nP9LiPz" ] },
      { "delegate": "tz3RB4aoyjov4KEVRbuhvQ1CKJgBJMWhaeB8",
        "reception_time": "2022-01-15T20:11:00.747-00:00",
        "included_in_blocks":
          [ "BLFYTNNHaitsVN88FyVCUpL6KV3f19U8ZV1UYmXVfwR3nP9LiPz" ] },
      { "delegate": "tz1NEKxGEHsFufk87CVZcrqWu8o22qh46GK6",
        "reception_time": "2022-01-15T20:11:00.771-00:00",
        "included_in_blocks":
          [ "BLFYTNNHaitsVN88FyVCUpL6KV3f19U8ZV1UYmXVfwR3nP9LiPz" ] },
      { "delegate": "tz1eLbDXYceRsPZoPmaJXZgQ6pzgnTQvZtpo",
        "reception_time": "2022-01-15T20:11:00.801-00:00",
        "included_in_blocks":
          [ "BLFYTNNHaitsVN88FyVCUpL6KV3f19U8ZV1UYmXVfwR3nP9LiPz" ] },
      { "delegate": "tz3WMqdzXqRWXwyvj5Hp2H7QEepaUuS7vd9K",
        "reception_time": "2022-01-15T20:11:00.830-00:00",
        "included_in_blocks":
          [ "BLFYTNNHaitsVN88FyVCUpL6KV3f19U8ZV1UYmXVfwR3nP9LiPz" ] },
      { "delegate": "tz3VEZ4k6a4Wx42iyev6i2aVAptTRLEAivNN",
        "reception_time": "2022-01-15T20:11:00.970-00:00",
        "included_in_blocks":
          [ "BLFYTNNHaitsVN88FyVCUpL6KV3f19U8ZV1UYmXVfwR3nP9LiPz" ] },
      { "delegate": "tz1PeZx7FXy7QRuMREGXGxeipb24RsMMzUNe",
        "reception_time": "2022-01-15T20:11:01.089-00:00",
        "included_in_blocks":
          [ "BLFYTNNHaitsVN88FyVCUpL6KV3f19U8ZV1UYmXVfwR3nP9LiPz" ] },
      { "delegate": "tz3RDC3Jdn4j15J7bBHZd29EUee9gVB1CxD9",
        "reception_time": "2022-01-15T20:11:01.114-00:00",
        "included_in_blocks":
          [ "BLFYTNNHaitsVN88FyVCUpL6KV3f19U8ZV1UYmXVfwR3nP9LiPz" ] },
      { "delegate": "tz1dNVDWPf3Q59SdJqnjdnu277iyvReiRS9M",
        "reception_time": "2022-01-15T20:11:01.192-00:00",
        "included_in_blocks":
          [ "BLFYTNNHaitsVN88FyVCUpL6KV3f19U8ZV1UYmXVfwR3nP9LiPz" ] },
      { "delegate": "tz1WvL7MKyCuUHfC3FxPFyiXcy8hHTBT3vjE",
        "reception_time": "2022-01-15T20:11:01.239-00:00",
        "included_in_blocks":
          [ "BLFYTNNHaitsVN88FyVCUpL6KV3f19U8ZV1UYmXVfwR3nP9LiPz" ] },
      { "delegate": "tz1cYufsxHXJcvANhvS55h3aY32a9BAFB494",
        "reception_time": "2022-01-15T20:11:01.336-00:00",
        "included_in_blocks":
          [ "BLFYTNNHaitsVN88FyVCUpL6KV3f19U8ZV1UYmXVfwR3nP9LiPz" ] },
      { "delegate": "tz1RjoHc98dBoqaH2jawF62XNKh7YsHwbkEv",
        "reception_time": "2022-01-15T20:11:01.392-00:00",
        "included_in_blocks":
          [ "BLFYTNNHaitsVN88FyVCUpL6KV3f19U8ZV1UYmXVfwR3nP9LiPz" ] },
      { "delegate": "tz1dRKU4FQ9QRRQPdaH4zCR6gmCmXfcvcgtB",
        "reception_time": "2022-01-15T20:11:01.417-00:00",
        "included_in_blocks":
          [ "BLFYTNNHaitsVN88FyVCUpL6KV3f19U8ZV1UYmXVfwR3nP9LiPz" ] },
      { "delegate": "tz3UoffC7FG7zfpmvmjUmUeAaHvzdcUvAj6r",
        "reception_time": "2022-01-15T20:11:01.816-00:00",
        "included_in_blocks":
          [ "BLFYTNNHaitsVN88FyVCUpL6KV3f19U8ZV1UYmXVfwR3nP9LiPz" ] },
      { "delegate": "tz3NExpXn9aPNZPorRE4SdjJ2RGrfbJgMAaV",
        "reception_time": "2022-01-15T20:11:02.424-00:00",
        "included_in_blocks":
          [ "BLFYTNNHaitsVN88FyVCUpL6KV3f19U8ZV1UYmXVfwR3nP9LiPz" ] },
      { "delegate": "tz3bvNMQ95vfAYtG8193ymshqjSvmxiCUuR5",
        "reception_time": "2022-01-15T20:11:02.472-00:00",
        "included_in_blocks":
          [ "BLFYTNNHaitsVN88FyVCUpL6KV3f19U8ZV1UYmXVfwR3nP9LiPz" ] },
      { "delegate": "tz1T7duV5gZWSTq4YpBGbXNLTfznCLDrFxvs",
        "reception_time": "2022-01-15T20:11:02.472-00:00",
        "included_in_blocks":
          [ "BLFYTNNHaitsVN88FyVCUpL6KV3f19U8ZV1UYmXVfwR3nP9LiPz" ] },
      { "delegate": "tz1aRoaRhSpRYvFdyvgWLL6TGyRoGF51wDjM",
        "reception_time": "2022-01-15T20:11:02.482-00:00",
        "included_in_blocks":
          [ "BLFYTNNHaitsVN88FyVCUpL6KV3f19U8ZV1UYmXVfwR3nP9LiPz" ] },
      { "delegate": "tz1eVaNx3gCmG1EsLjijkmgAxdLYVf6Bf5Sq",
        "reception_time": "2022-01-15T20:11:03.948-00:00",
        "included_in_blocks":
          [ "BLFYTNNHaitsVN88FyVCUpL6KV3f19U8ZV1UYmXVfwR3nP9LiPz" ] },
      { "delegate": "tz1NpWrAyDL9k2Lmnyxcgr9xuJakbBxdq7FB",
        "reception_time": "2022-01-15T20:11:06.337-00:00",
        "included_in_blocks":
          [ "BLFYTNNHaitsVN88FyVCUpL6KV3f19U8ZV1UYmXVfwR3nP9LiPz" ] },
      { "delegate": "tz1WnyXakHZKotpQHxevTnLmomz5rTwdiccy",
        "reception_time": "2022-01-15T20:11:08.420-00:00",
        "included_in_blocks":
          [ "BLFYTNNHaitsVN88FyVCUpL6KV3f19U8ZV1UYmXVfwR3nP9LiPz" ] } ] }