{ "blocks":
    [ { "hash": "BLLeDiUD1mjf5VBey1PeTy8gjZAxMzK4uBLQWqMzm3rBAUiKG9z",
        "delegate": "tz1eEnQhbwf6trb8Q8mPb2RaPkNk2rN7BKi8",
        "reception_time": "2022-01-15T13:59:56.910-00:00",
        "timestamp": "2022-01-15T13:59:50Z" } ],
  "endorsements":
    [ { "delegate": "tz1eEnQhbwf6trb8Q8mPb2RaPkNk2rN7BKi8",
        "reception_time": "2022-01-15T13:59:56.769-00:00",
        "errors":
          [ { "kind": "temporary",
              "id": "proto.011-PtHangz2.prefilter.outdated_endorsement" } ],
        "included_in_blocks":
          [ "BLTJdqq2GnkrUoHwqr49xL3xx6g3ikZs7Bvq1Ztq9gVqTEnGRfK" ] },
      { "delegate": "tz1S8e9GgdZG78XJRB3NqabfWeM37GnhZMWQ",
        "reception_time": "2022-01-15T13:59:56.551-00:00",
        "errors":
          [ { "kind": "temporary",
              "id": "proto.011-PtHangz2.prefilter.outdated_endorsement" } ],
        "included_in_blocks":
          [ "BLTJdqq2GnkrUoHwqr49xL3xx6g3ikZs7Bvq1Ztq9gVqTEnGRfK" ] },
      { "delegate": "tz1LLNkQK4UQV6QcFShiXJ2vT2ELw449MzAA",
        "reception_time": "2022-01-15T13:59:57.908-00:00",
        "included_in_blocks":
          [ "BLTJdqq2GnkrUoHwqr49xL3xx6g3ikZs7Bvq1Ztq9gVqTEnGRfK" ] },
      { "delegate": "tz1P2Po7YM526ughEsRbY4oR9zaUPDZjxFrb",
        "reception_time": "2022-01-15T13:59:57.962-00:00",
        "included_in_blocks":
          [ "BLTJdqq2GnkrUoHwqr49xL3xx6g3ikZs7Bvq1Ztq9gVqTEnGRfK" ] },
      { "delegate": "tz1irJKkXS2DBWkU1NnmFQx1c1L7pbGg4yhk",
        "reception_time": "2022-01-15T13:59:57.985-00:00",
        "included_in_blocks":
          [ "BLTJdqq2GnkrUoHwqr49xL3xx6g3ikZs7Bvq1Ztq9gVqTEnGRfK" ] },
      { "delegate": "tz1beersuEDv8Z7ngQ825xfbaJNS2EhXnyHR",
        "reception_time": "2022-01-15T13:59:57.998-00:00",
        "included_in_blocks":
          [ "BLTJdqq2GnkrUoHwqr49xL3xx6g3ikZs7Bvq1Ztq9gVqTEnGRfK" ] },
      { "delegate": "tz1bsdrs36X5BTH83RHUBdUouKLJZK8d2oBa",
        "reception_time": "2022-01-15T13:59:58.008-00:00",
        "included_in_blocks":
          [ "BLTJdqq2GnkrUoHwqr49xL3xx6g3ikZs7Bvq1Ztq9gVqTEnGRfK" ] },
      { "delegate": "tz1RV1MBbZMR68tacosb7Mwj6LkbPSUS1er1",
        "reception_time": "2022-01-15T13:59:58.055-00:00",
        "included_in_blocks":
          [ "BLTJdqq2GnkrUoHwqr49xL3xx6g3ikZs7Bvq1Ztq9gVqTEnGRfK" ] },
      { "delegate": "tz3Zhs2dygr55yHyQyKjntAtY9bgfhLZ4Xj1",
        "reception_time": "2022-01-15T13:59:58.079-00:00",
        "included_in_blocks":
          [ "BLTJdqq2GnkrUoHwqr49xL3xx6g3ikZs7Bvq1Ztq9gVqTEnGRfK" ] },
      { "delegate": "tz3QSGPoRp3Kn7n3vY24eYeu3Peuqo45LQ4D",
        "reception_time": "2022-01-15T13:59:58.093-00:00",
        "included_in_blocks":
          [ "BLTJdqq2GnkrUoHwqr49xL3xx6g3ikZs7Bvq1Ztq9gVqTEnGRfK" ] },
      { "delegate": "tz3gtoUxdudfBRcNY7iVdKPHCYYX6xdPpoRS",
        "reception_time": "2022-01-15T13:59:58.108-00:00",
        "included_in_blocks":
          [ "BLTJdqq2GnkrUoHwqr49xL3xx6g3ikZs7Bvq1Ztq9gVqTEnGRfK" ] },
      { "delegate": "tz1aXD7Jigrt3PBYSpHSg5Rr33SexMmmM5Ys",
        "reception_time": "2022-01-15T13:59:58.123-00:00",
        "included_in_blocks":
          [ "BLTJdqq2GnkrUoHwqr49xL3xx6g3ikZs7Bvq1Ztq9gVqTEnGRfK" ] },
      { "delegate": "tz3ZbP2pM3nwvXztbuMJwJnDvV5xdpU8UkkD",
        "reception_time": "2022-01-15T13:59:58.138-00:00",
        "included_in_blocks":
          [ "BLTJdqq2GnkrUoHwqr49xL3xx6g3ikZs7Bvq1Ztq9gVqTEnGRfK" ] },
      { "delegate": "tz3iJu5vrKZcsqRPs8yJ61UDoeEXZmtro4qh",
        "reception_time": "2022-01-15T13:59:58.154-00:00",
        "included_in_blocks":
          [ "BLTJdqq2GnkrUoHwqr49xL3xx6g3ikZs7Bvq1Ztq9gVqTEnGRfK" ] },
      { "delegate": "tz1WCd2jm4uSt4vntk4vSuUWoZQGhLcDuR9q",
        "reception_time": "2022-01-15T13:59:58.176-00:00",
        "included_in_blocks":
          [ "BLTJdqq2GnkrUoHwqr49xL3xx6g3ikZs7Bvq1Ztq9gVqTEnGRfK" ] },
      { "delegate": "tz1TzaNn7wSQSP5gYPXCnNzBCpyMiidCq1PX",
        "reception_time": "2022-01-15T13:59:58.200-00:00",
        "included_in_blocks":
          [ "BLTJdqq2GnkrUoHwqr49xL3xx6g3ikZs7Bvq1Ztq9gVqTEnGRfK" ] },
      { "delegate": "tz3hw2kqXhLUvY65ca1eety2oQTpAvd34R9Q",
        "reception_time": "2022-01-15T13:59:58.229-00:00",
        "included_in_blocks":
          [ "BLTJdqq2GnkrUoHwqr49xL3xx6g3ikZs7Bvq1Ztq9gVqTEnGRfK" ] },
      { "delegate": "tz3NxTnke1acr8o3h5y9ytf5awQBGNJUKzVU",
        "reception_time": "2022-01-15T13:59:58.285-00:00",
        "included_in_blocks":
          [ "BLTJdqq2GnkrUoHwqr49xL3xx6g3ikZs7Bvq1Ztq9gVqTEnGRfK" ] },
      { "delegate": "tz3RKYFsLuQzKBtmYuLNas7uMu3AsYd4QdsA",
        "reception_time": "2022-01-15T13:59:58.335-00:00",
        "included_in_blocks":
          [ "BLTJdqq2GnkrUoHwqr49xL3xx6g3ikZs7Bvq1Ztq9gVqTEnGRfK" ] },
      { "delegate": "tz1Kt4P8BCaP93AEV4eA7gmpRryWt5hznjCP",
        "reception_time": "2022-01-15T13:59:58.335-00:00",
        "included_in_blocks":
          [ "BLTJdqq2GnkrUoHwqr49xL3xx6g3ikZs7Bvq1Ztq9gVqTEnGRfK" ] },
      { "delegate": "tz3QT9dHYKDqh563chVa6za8526ys1UKfRfL",
        "reception_time": "2022-01-15T13:59:58.351-00:00",
        "included_in_blocks":
          [ "BLTJdqq2GnkrUoHwqr49xL3xx6g3ikZs7Bvq1Ztq9gVqTEnGRfK" ] },
      { "delegate": "tz1PMWrbSda1RvsRi8Xq7GRd3P7739jtyaM8",
        "reception_time": "2022-01-15T13:59:58.373-00:00",
        "included_in_blocks":
          [ "BLTJdqq2GnkrUoHwqr49xL3xx6g3ikZs7Bvq1Ztq9gVqTEnGRfK" ] },
      { "delegate": "tz3QCNyySViKHmeSr45kzDxzchys7NiXCWoa",
        "reception_time": "2022-01-15T13:59:58.397-00:00",
        "included_in_blocks":
          [ "BLTJdqq2GnkrUoHwqr49xL3xx6g3ikZs7Bvq1Ztq9gVqTEnGRfK" ] },
      { "delegate": "tz1S8MNvuFEUsWgjHvi3AxibRBf388NhT1q2",
        "reception_time": "2022-01-15T13:59:58.423-00:00",
        "included_in_blocks":
          [ "BLTJdqq2GnkrUoHwqr49xL3xx6g3ikZs7Bvq1Ztq9gVqTEnGRfK" ] },
      { "delegate": "tz1ajgycuHmd2z2JbTSJxKv7x6cok2KuNSk1",
        "reception_time": "2022-01-15T13:59:58.434-00:00",
        "included_in_blocks":
          [ "BLTJdqq2GnkrUoHwqr49xL3xx6g3ikZs7Bvq1Ztq9gVqTEnGRfK" ] },
      { "delegate": "tz1abmz7jiCV2GH2u81LRrGgAFFgvQgiDiaf",
        "reception_time": "2022-01-15T13:59:58.475-00:00",
        "included_in_blocks":
          [ "BLTJdqq2GnkrUoHwqr49xL3xx6g3ikZs7Bvq1Ztq9gVqTEnGRfK" ] },
      { "delegate": "tz3bTdwZinP8U1JmSweNzVKhmwafqWmFWRfk",
        "reception_time": "2022-01-15T13:59:58.566-00:00",
        "included_in_blocks":
          [ "BLTJdqq2GnkrUoHwqr49xL3xx6g3ikZs7Bvq1Ztq9gVqTEnGRfK" ] },
      { "delegate": "tz1gUNyn3hmnEWqkusWPzxRaon1cs7ndWh7h",
        "reception_time": "2022-01-15T13:59:58.566-00:00",
        "included_in_blocks":
          [ "BLTJdqq2GnkrUoHwqr49xL3xx6g3ikZs7Bvq1Ztq9gVqTEnGRfK" ] },
      { "delegate": "tz1VQnqCCqX4K5sP3FNkVSNKTdCAMJDd3E1n",
        "reception_time": "2022-01-15T13:59:58.569-00:00",
        "included_in_blocks":
          [ "BLTJdqq2GnkrUoHwqr49xL3xx6g3ikZs7Bvq1Ztq9gVqTEnGRfK" ] },
      { "delegate": "tz3adcvQaKXTCg12zbninqo3q8ptKKtDFTLv",
        "reception_time": "2022-01-15T13:59:58.605-00:00",
        "included_in_blocks":
          [ "BLTJdqq2GnkrUoHwqr49xL3xx6g3ikZs7Bvq1Ztq9gVqTEnGRfK" ] },
      { "delegate": "tz1fb7c66UwePkkfDXz4ajFaBP9hVNLdS7JJ",
        "reception_time": "2022-01-15T13:59:58.652-00:00",
        "included_in_blocks":
          [ "BLTJdqq2GnkrUoHwqr49xL3xx6g3ikZs7Bvq1Ztq9gVqTEnGRfK" ] },
      { "delegate": "tz1UJvHTgpVzcKWhTazGxVcn5wsHru5Gietg",
        "reception_time": "2022-01-15T13:59:58.661-00:00",
        "included_in_blocks":
          [ "BLTJdqq2GnkrUoHwqr49xL3xx6g3ikZs7Bvq1Ztq9gVqTEnGRfK" ] },
      { "delegate": "tz3RB4aoyjov4KEVRbuhvQ1CKJgBJMWhaeB8",
        "reception_time": "2022-01-15T13:59:58.668-00:00",
        "included_in_blocks":
          [ "BLTJdqq2GnkrUoHwqr49xL3xx6g3ikZs7Bvq1Ztq9gVqTEnGRfK" ] },
      { "delegate": "tz1gfArv665EUkSg2ojMBzcbfwuPxAvqPvjo",
        "reception_time": "2022-01-15T13:59:58.732-00:00",
        "included_in_blocks":
          [ "BLTJdqq2GnkrUoHwqr49xL3xx6g3ikZs7Bvq1Ztq9gVqTEnGRfK" ] },
      { "delegate": "tz1d6Fx42mYgVFnHUW8T8A7WBfJ6nD9pVok8",
        "reception_time": "2022-01-15T13:59:58.748-00:00",
        "included_in_blocks":
          [ "BLTJdqq2GnkrUoHwqr49xL3xx6g3ikZs7Bvq1Ztq9gVqTEnGRfK" ] },
      { "delegate": "tz3bvNMQ95vfAYtG8193ymshqjSvmxiCUuR5",
        "reception_time": "2022-01-15T13:59:58.786-00:00",
        "included_in_blocks":
          [ "BLTJdqq2GnkrUoHwqr49xL3xx6g3ikZs7Bvq1Ztq9gVqTEnGRfK" ] },
      { "delegate": "tz1Tnjaxk6tbAeC2TmMApPh8UsrEVQvhHvx5",
        "reception_time": "2022-01-15T13:59:58.856-00:00",
        "included_in_blocks":
          [ "BLTJdqq2GnkrUoHwqr49xL3xx6g3ikZs7Bvq1Ztq9gVqTEnGRfK" ] },
      { "delegate": "tz3UoffC7FG7zfpmvmjUmUeAaHvzdcUvAj6r",
        "reception_time": "2022-01-15T13:59:58.951-00:00",
        "included_in_blocks":
          [ "BLTJdqq2GnkrUoHwqr49xL3xx6g3ikZs7Bvq1Ztq9gVqTEnGRfK" ] },
      { "delegate": "tz1fwnfJNgiDACshK9avfRfFbMaXrs3ghoJa",
        "reception_time": "2022-01-15T13:59:58.997-00:00",
        "included_in_blocks":
          [ "BLTJdqq2GnkrUoHwqr49xL3xx6g3ikZs7Bvq1Ztq9gVqTEnGRfK" ] },
      { "delegate": "tz1RCFbB9GpALpsZtu6J58sb74dm8qe6XBzv",
        "reception_time": "2022-01-15T13:59:59.000-00:00",
        "included_in_blocks":
          [ "BLTJdqq2GnkrUoHwqr49xL3xx6g3ikZs7Bvq1Ztq9gVqTEnGRfK" ] },
      { "delegate": "tz1Nf6tsK4G6bBqgSQERy4nUtkHNKUVdh7q1",
        "reception_time": "2022-01-15T13:59:59.011-00:00",
        "included_in_blocks":
          [ "BLTJdqq2GnkrUoHwqr49xL3xx6g3ikZs7Bvq1Ztq9gVqTEnGRfK" ] },
      { "delegate": "tz1KfEsrtDaA1sX7vdM4qmEPWuSytuqCDp5j",
        "reception_time": "2022-01-15T13:59:59.040-00:00",
        "included_in_blocks":
          [ "BLTJdqq2GnkrUoHwqr49xL3xx6g3ikZs7Bvq1Ztq9gVqTEnGRfK" ] },
      { "delegate": "tz1MQJPGNMijnXnVoBENFz9rUhaPt3S7rWoz",
        "reception_time": "2022-01-15T13:59:59.080-00:00",
        "included_in_blocks":
          [ "BLTJdqq2GnkrUoHwqr49xL3xx6g3ikZs7Bvq1Ztq9gVqTEnGRfK" ] },
      { "delegate": "tz1ei4WtWEMEJekSv8qDnu9PExG6Q8HgRGr3",
        "reception_time": "2022-01-15T13:59:59.143-00:00",
        "included_in_blocks":
          [ "BLTJdqq2GnkrUoHwqr49xL3xx6g3ikZs7Bvq1Ztq9gVqTEnGRfK" ] },
      { "delegate": "tz1TEc75UKXv4W5cwi14Na3NtqFD51yKQi7h",
        "reception_time": "2022-01-15T13:59:59.215-00:00",
        "included_in_blocks":
          [ "BLTJdqq2GnkrUoHwqr49xL3xx6g3ikZs7Bvq1Ztq9gVqTEnGRfK" ] },
      { "delegate": "tz1RpeqCseogMpCPXpyGjhmLH9i9DhqJ8cUR",
        "reception_time": "2022-01-15T13:59:59.233-00:00",
        "included_in_blocks":
          [ "BLTJdqq2GnkrUoHwqr49xL3xx6g3ikZs7Bvq1Ztq9gVqTEnGRfK" ] },
      { "delegate": "tz1LmaFsWRkjr7QMCx5PtV6xTUz3AmEpKQiF",
        "reception_time": "2022-01-15T13:59:59.338-00:00",
        "included_in_blocks":
          [ "BLTJdqq2GnkrUoHwqr49xL3xx6g3ikZs7Bvq1Ztq9gVqTEnGRfK" ] },
      { "delegate": "tz1hAYfexyzPGG6RhZZMpDvAHifubsbb6kgn",
        "reception_time": "2022-01-15T13:59:59.551-00:00",
        "included_in_blocks":
          [ "BLTJdqq2GnkrUoHwqr49xL3xx6g3ikZs7Bvq1Ztq9gVqTEnGRfK" ] },
      { "delegate": "tz1WctSwL49BZtdWAQ75NY6vr4xsAx6oKdah",
        "reception_time": "2022-01-15T13:59:59.641-00:00",
        "included_in_blocks":
          [ "BLTJdqq2GnkrUoHwqr49xL3xx6g3ikZs7Bvq1Ztq9gVqTEnGRfK" ] },
      { "delegate": "tz1PeZx7FXy7QRuMREGXGxeipb24RsMMzUNe",
        "reception_time": "2022-01-15T13:59:59.648-00:00",
        "included_in_blocks":
          [ "BLTJdqq2GnkrUoHwqr49xL3xx6g3ikZs7Bvq1Ztq9gVqTEnGRfK" ] },
      { "delegate": "tz3RDC3Jdn4j15J7bBHZd29EUee9gVB1CxD9",
        "reception_time": "2022-01-15T13:59:59.673-00:00",
        "included_in_blocks":
          [ "BLTJdqq2GnkrUoHwqr49xL3xx6g3ikZs7Bvq1Ztq9gVqTEnGRfK" ] },
      { "delegate": "tz2FCNBrERXtaTtNX6iimR1UJ5JSDxvdHM93",
        "reception_time": "2022-01-15T13:59:59.704-00:00",
        "included_in_blocks":
          [ "BLTJdqq2GnkrUoHwqr49xL3xx6g3ikZs7Bvq1Ztq9gVqTEnGRfK" ] },
      { "delegate": "tz3WMqdzXqRWXwyvj5Hp2H7QEepaUuS7vd9K",
        "reception_time": "2022-01-15T13:59:59.750-00:00",
        "included_in_blocks":
          [ "BLTJdqq2GnkrUoHwqr49xL3xx6g3ikZs7Bvq1Ztq9gVqTEnGRfK" ] },
      { "delegate": "tz1LwEsi8GVhtpCcxBHgQAgM4XrdjsJLmYc8",
        "reception_time": "2022-01-15T13:59:59.875-00:00",
        "included_in_blocks":
          [ "BLTJdqq2GnkrUoHwqr49xL3xx6g3ikZs7Bvq1Ztq9gVqTEnGRfK" ] },
      { "delegate": "tz1TRqbYbUf2GyrjErf3hBzgBJPzW8y36qEs",
        "reception_time": "2022-01-15T13:59:59.896-00:00",
        "included_in_blocks":
          [ "BLTJdqq2GnkrUoHwqr49xL3xx6g3ikZs7Bvq1Ztq9gVqTEnGRfK" ] },
      { "delegate": "tz3VEZ4k6a4Wx42iyev6i2aVAptTRLEAivNN",
        "reception_time": "2022-01-15T13:59:59.932-00:00",
        "included_in_blocks":
          [ "BLTJdqq2GnkrUoHwqr49xL3xx6g3ikZs7Bvq1Ztq9gVqTEnGRfK" ] },
      { "delegate": "tz1T7duV5gZWSTq4YpBGbXNLTfznCLDrFxvs",
        "reception_time": "2022-01-15T13:59:59.956-00:00",
        "included_in_blocks":
          [ "BLTJdqq2GnkrUoHwqr49xL3xx6g3ikZs7Bvq1Ztq9gVqTEnGRfK" ] },
      { "delegate": "tz1aRoaRhSpRYvFdyvgWLL6TGyRoGF51wDjM",
        "reception_time": "2022-01-15T14:00:00.000-00:00",
        "included_in_blocks":
          [ "BLTJdqq2GnkrUoHwqr49xL3xx6g3ikZs7Bvq1Ztq9gVqTEnGRfK" ] },
      { "delegate": "tz1Q8QkSBS63ZQnH3fBTiAMPes9R666Rn6Sc",
        "reception_time": "2022-01-15T14:00:00.247-00:00",
        "included_in_blocks":
          [ "BLTJdqq2GnkrUoHwqr49xL3xx6g3ikZs7Bvq1Ztq9gVqTEnGRfK" ] },
      { "delegate": "tz1awXW7wuXy21c66vBudMXQVAPgRnqqwgTH",
        "reception_time": "2022-01-15T14:00:00.393-00:00",
        "included_in_blocks":
          [ "BLTJdqq2GnkrUoHwqr49xL3xx6g3ikZs7Bvq1Ztq9gVqTEnGRfK" ] },
      { "delegate": "tz1SYq214SCBy9naR6cvycQsYcUGpBqQAE8d",
        "reception_time": "2022-01-15T14:00:00.403-00:00",
        "included_in_blocks":
          [ "BLTJdqq2GnkrUoHwqr49xL3xx6g3ikZs7Bvq1Ztq9gVqTEnGRfK" ] },
      { "delegate": "tz3NExpXn9aPNZPorRE4SdjJ2RGrfbJgMAaV",
        "reception_time": "2022-01-15T14:00:00.653-00:00",
        "included_in_blocks":
          [ "BLTJdqq2GnkrUoHwqr49xL3xx6g3ikZs7Bvq1Ztq9gVqTEnGRfK" ] },
      { "delegate": "tz1RAQJ6mcKiG6odfM3RH7iJYR1aRWRAuf5T",
        "reception_time": "2022-01-15T14:00:00.689-00:00",
        "included_in_blocks":
          [ "BLTJdqq2GnkrUoHwqr49xL3xx6g3ikZs7Bvq1Ztq9gVqTEnGRfK" ] },
      { "delegate": "tz1f3Re8iw6Pt3KMHAvyccHxDU3NuqL95axD",
        "reception_time": "2022-01-15T14:00:01.095-00:00",
        "included_in_blocks":
          [ "BLTJdqq2GnkrUoHwqr49xL3xx6g3ikZs7Bvq1Ztq9gVqTEnGRfK" ] },
      { "delegate": "tz1ZcTRk5uxD86EFEn1vvNffWWqJy7q5eVhc",
        "reception_time": "2022-01-15T14:00:01.161-00:00",
        "included_in_blocks":
          [ "BLTJdqq2GnkrUoHwqr49xL3xx6g3ikZs7Bvq1Ztq9gVqTEnGRfK" ] },
      { "delegate": "tz3cF8X5V6DGBdZCC1hoqLzjtq95BcDvDKqe",
        "reception_time": "2022-01-15T14:00:01.457-00:00",
        "included_in_blocks":
          [ "BLTJdqq2GnkrUoHwqr49xL3xx6g3ikZs7Bvq1Ztq9gVqTEnGRfK" ] },
      { "delegate": "tz1NEKxGEHsFufk87CVZcrqWu8o22qh46GK6",
        "reception_time": "2022-01-15T14:00:01.689-00:00",
        "included_in_blocks":
          [ "BLTJdqq2GnkrUoHwqr49xL3xx6g3ikZs7Bvq1Ztq9gVqTEnGRfK" ] },
      { "delegate": "tz1eVaNx3gCmG1EsLjijkmgAxdLYVf6Bf5Sq",
        "reception_time": "2022-01-15T14:00:02.095-00:00",
        "included_in_blocks":
          [ "BLTJdqq2GnkrUoHwqr49xL3xx6g3ikZs7Bvq1Ztq9gVqTEnGRfK" ] },
      { "delegate": "tz1W5VkdB5s7ENMESVBtwyt9kyvLqPcUczRT",
        "reception_time": "2022-01-15T14:00:02.729-00:00",
        "included_in_blocks":
          [ "BLTJdqq2GnkrUoHwqr49xL3xx6g3ikZs7Bvq1Ztq9gVqTEnGRfK" ] } ] }