{ "blocks":
    [ { "hash": "BKoAU2MjbgWjV1oaAtZhSScxFZddiLQboE2JJJHKowca99wjKvK",
        "delegate": "tz1irJKkXS2DBWkU1NnmFQx1c1L7pbGg4yhk",
        "reception_time": "2022-01-15T15:01:10.929-00:00",
        "timestamp": "2022-01-15T15:01:00Z" } ],
  "endorsements":
    [ { "delegate": "tz1g8vkmcde6sWKaG2NN9WKzCkDM6Rziq194",
        "reception_time": "2022-01-15T15:01:37.868-00:00" },
      { "delegate": "tz1gg5bjopPcr9agjamyu9BbXKLibNc2rbAq",
        "reception_time": "2022-01-15T15:01:24.781-00:00",
        "included_in_blocks":
          [ "BLBSuHfvPU4xzNWvqYZfdY9bCr3oefHjXryrJzFpFG1X2R4efmk" ] },
      { "delegate": "tz1aRoaRhSpRYvFdyvgWLL6TGyRoGF51wDjM",
        "reception_time": "2022-01-15T15:01:20.212-00:00",
        "included_in_blocks":
          [ "BLBSuHfvPU4xzNWvqYZfdY9bCr3oefHjXryrJzFpFG1X2R4efmk" ] },
      { "delegate": "tz1S8MNvuFEUsWgjHvi3AxibRBf388NhT1q2",
        "reception_time": "2022-01-15T15:01:19.599-00:00",
        "included_in_blocks":
          [ "BLBSuHfvPU4xzNWvqYZfdY9bCr3oefHjXryrJzFpFG1X2R4efmk" ] },
      { "delegate": "tz1awXW7wuXy21c66vBudMXQVAPgRnqqwgTH",
        "reception_time": "2022-01-15T15:01:18.051-00:00",
        "included_in_blocks":
          [ "BLBSuHfvPU4xzNWvqYZfdY9bCr3oefHjXryrJzFpFG1X2R4efmk" ] },
      { "delegate": "tz1XX67xSF2ou3aQZ6LhXaaxZWDR3YZ6hCMs",
        "reception_time": "2022-01-15T15:01:17.862-00:00",
        "included_in_blocks":
          [ "BLBSuHfvPU4xzNWvqYZfdY9bCr3oefHjXryrJzFpFG1X2R4efmk" ] },
      { "delegate": "tz1V3yg82mcrPJbegqVCPn6bC8w1CSTRp3f8",
        "reception_time": "2022-01-15T15:01:17.799-00:00",
        "included_in_blocks":
          [ "BLBSuHfvPU4xzNWvqYZfdY9bCr3oefHjXryrJzFpFG1X2R4efmk" ] },
      { "delegate": "tz3QCNyySViKHmeSr45kzDxzchys7NiXCWoa",
        "reception_time": "2022-01-15T15:01:17.542-00:00",
        "included_in_blocks":
          [ "BLBSuHfvPU4xzNWvqYZfdY9bCr3oefHjXryrJzFpFG1X2R4efmk" ] },
      { "delegate": "tz1SYq214SCBy9naR6cvycQsYcUGpBqQAE8d",
        "reception_time": "2022-01-15T15:01:16.509-00:00",
        "included_in_blocks":
          [ "BLBSuHfvPU4xzNWvqYZfdY9bCr3oefHjXryrJzFpFG1X2R4efmk" ] },
      { "delegate": "tz1abmz7jiCV2GH2u81LRrGgAFFgvQgiDiaf",
        "reception_time": "2022-01-15T15:01:16.137-00:00",
        "included_in_blocks":
          [ "BLBSuHfvPU4xzNWvqYZfdY9bCr3oefHjXryrJzFpFG1X2R4efmk" ] },
      { "delegate": "tz1fwnfJNgiDACshK9avfRfFbMaXrs3ghoJa",
        "reception_time": "2022-01-15T15:01:15.705-00:00",
        "included_in_blocks":
          [ "BLBSuHfvPU4xzNWvqYZfdY9bCr3oefHjXryrJzFpFG1X2R4efmk" ] },
      { "delegate": "tz3NDpRj6WBrJPikcPVHRBEjWKxFw3c6eQPS",
        "reception_time": "2022-01-15T15:01:15.625-00:00",
        "included_in_blocks":
          [ "BLBSuHfvPU4xzNWvqYZfdY9bCr3oefHjXryrJzFpFG1X2R4efmk" ] },
      { "delegate": "tz3UoffC7FG7zfpmvmjUmUeAaHvzdcUvAj6r",
        "reception_time": "2022-01-15T15:01:15.603-00:00",
        "included_in_blocks":
          [ "BLBSuHfvPU4xzNWvqYZfdY9bCr3oefHjXryrJzFpFG1X2R4efmk" ] },
      { "delegate": "tz1W5VkdB5s7ENMESVBtwyt9kyvLqPcUczRT",
        "reception_time": "2022-01-15T15:01:15.562-00:00",
        "included_in_blocks":
          [ "BLBSuHfvPU4xzNWvqYZfdY9bCr3oefHjXryrJzFpFG1X2R4efmk" ] },
      { "delegate": "tz3WMqdzXqRWXwyvj5Hp2H7QEepaUuS7vd9K",
        "reception_time": "2022-01-15T15:01:15.433-00:00",
        "included_in_blocks":
          [ "BLBSuHfvPU4xzNWvqYZfdY9bCr3oefHjXryrJzFpFG1X2R4efmk" ] },
      { "delegate": "tz1fPKAtsYydh4f1wfWNfeNxWYu72TmM48fu",
        "reception_time": "2022-01-15T15:01:15.302-00:00",
        "included_in_blocks":
          [ "BLBSuHfvPU4xzNWvqYZfdY9bCr3oefHjXryrJzFpFG1X2R4efmk" ] },
      { "delegate": "tz3VEZ4k6a4Wx42iyev6i2aVAptTRLEAivNN",
        "reception_time": "2022-01-15T15:01:15.265-00:00",
        "included_in_blocks":
          [ "BLBSuHfvPU4xzNWvqYZfdY9bCr3oefHjXryrJzFpFG1X2R4efmk" ] },
      { "delegate": "tz1UvkANVPWppVgMkLnvN7BwYZsCP7vm6NVd",
        "reception_time": "2022-01-15T15:01:15.036-00:00",
        "included_in_blocks":
          [ "BLBSuHfvPU4xzNWvqYZfdY9bCr3oefHjXryrJzFpFG1X2R4efmk" ] },
      { "delegate": "tz1TRqbYbUf2GyrjErf3hBzgBJPzW8y36qEs",
        "reception_time": "2022-01-15T15:01:14.675-00:00",
        "included_in_blocks":
          [ "BLBSuHfvPU4xzNWvqYZfdY9bCr3oefHjXryrJzFpFG1X2R4efmk" ] },
      { "delegate": "tz3QT9dHYKDqh563chVa6za8526ys1UKfRfL",
        "reception_time": "2022-01-15T15:01:14.580-00:00",
        "included_in_blocks":
          [ "BLBSuHfvPU4xzNWvqYZfdY9bCr3oefHjXryrJzFpFG1X2R4efmk" ] },
      { "delegate": "tz3NExpXn9aPNZPorRE4SdjJ2RGrfbJgMAaV",
        "reception_time": "2022-01-15T15:01:14.570-00:00",
        "included_in_blocks":
          [ "BLBSuHfvPU4xzNWvqYZfdY9bCr3oefHjXryrJzFpFG1X2R4efmk" ] },
      { "delegate": "tz3S6BBeKgJGXxvLyZ1xzXzMPn11nnFtq5L9",
        "reception_time": "2022-01-15T15:01:14.528-00:00",
        "included_in_blocks":
          [ "BLBSuHfvPU4xzNWvqYZfdY9bCr3oefHjXryrJzFpFG1X2R4efmk" ] },
      { "delegate": "tz3bTdwZinP8U1JmSweNzVKhmwafqWmFWRfk",
        "reception_time": "2022-01-15T15:01:14.485-00:00",
        "included_in_blocks":
          [ "BLBSuHfvPU4xzNWvqYZfdY9bCr3oefHjXryrJzFpFG1X2R4efmk" ] },
      { "delegate": "tz3RB4aoyjov4KEVRbuhvQ1CKJgBJMWhaeB8",
        "reception_time": "2022-01-15T15:01:14.476-00:00",
        "included_in_blocks":
          [ "BLBSuHfvPU4xzNWvqYZfdY9bCr3oefHjXryrJzFpFG1X2R4efmk" ] },
      { "delegate": "tz1RCFbB9GpALpsZtu6J58sb74dm8qe6XBzv",
        "reception_time": "2022-01-15T15:01:14.444-00:00",
        "included_in_blocks":
          [ "BLBSuHfvPU4xzNWvqYZfdY9bCr3oefHjXryrJzFpFG1X2R4efmk" ] },
      { "delegate": "tz3bvNMQ95vfAYtG8193ymshqjSvmxiCUuR5",
        "reception_time": "2022-01-15T15:01:14.402-00:00",
        "included_in_blocks":
          [ "BLBSuHfvPU4xzNWvqYZfdY9bCr3oefHjXryrJzFpFG1X2R4efmk" ] },
      { "delegate": "tz3RDC3Jdn4j15J7bBHZd29EUee9gVB1CxD9",
        "reception_time": "2022-01-15T15:01:14.392-00:00",
        "included_in_blocks":
          [ "BLBSuHfvPU4xzNWvqYZfdY9bCr3oefHjXryrJzFpFG1X2R4efmk" ] },
      { "delegate": "tz1cYufsxHXJcvANhvS55h3aY32a9BAFB494",
        "reception_time": "2022-01-15T15:01:14.348-00:00",
        "included_in_blocks":
          [ "BLBSuHfvPU4xzNWvqYZfdY9bCr3oefHjXryrJzFpFG1X2R4efmk" ] },
      { "delegate": "tz3Zhs2dygr55yHyQyKjntAtY9bgfhLZ4Xj1",
        "reception_time": "2022-01-15T15:01:14.298-00:00",
        "included_in_blocks":
          [ "BLBSuHfvPU4xzNWvqYZfdY9bCr3oefHjXryrJzFpFG1X2R4efmk" ] },
      { "delegate": "tz3iJu5vrKZcsqRPs8yJ61UDoeEXZmtro4qh",
        "reception_time": "2022-01-15T15:01:14.284-00:00",
        "included_in_blocks":
          [ "BLBSuHfvPU4xzNWvqYZfdY9bCr3oefHjXryrJzFpFG1X2R4efmk" ] },
      { "delegate": "tz1RjoHc98dBoqaH2jawF62XNKh7YsHwbkEv",
        "reception_time": "2022-01-15T15:01:14.257-00:00",
        "included_in_blocks":
          [ "BLBSuHfvPU4xzNWvqYZfdY9bCr3oefHjXryrJzFpFG1X2R4efmk" ] },
      { "delegate": "tz3gtoUxdudfBRcNY7iVdKPHCYYX6xdPpoRS",
        "reception_time": "2022-01-15T15:01:14.229-00:00",
        "included_in_blocks":
          [ "BLBSuHfvPU4xzNWvqYZfdY9bCr3oefHjXryrJzFpFG1X2R4efmk" ] },
      { "delegate": "tz3QSGPoRp3Kn7n3vY24eYeu3Peuqo45LQ4D",
        "reception_time": "2022-01-15T15:01:14.186-00:00",
        "included_in_blocks":
          [ "BLBSuHfvPU4xzNWvqYZfdY9bCr3oefHjXryrJzFpFG1X2R4efmk" ] },
      { "delegate": "tz3RKYFsLuQzKBtmYuLNas7uMu3AsYd4QdsA",
        "reception_time": "2022-01-15T15:01:14.084-00:00",
        "included_in_blocks":
          [ "BLBSuHfvPU4xzNWvqYZfdY9bCr3oefHjXryrJzFpFG1X2R4efmk" ] },
      { "delegate": "tz3hw2kqXhLUvY65ca1eety2oQTpAvd34R9Q",
        "reception_time": "2022-01-15T15:01:14.071-00:00",
        "included_in_blocks":
          [ "BLBSuHfvPU4xzNWvqYZfdY9bCr3oefHjXryrJzFpFG1X2R4efmk" ] },
      { "delegate": "tz1LmaFsWRkjr7QMCx5PtV6xTUz3AmEpKQiF",
        "reception_time": "2022-01-15T15:01:13.890-00:00",
        "included_in_blocks":
          [ "BLBSuHfvPU4xzNWvqYZfdY9bCr3oefHjXryrJzFpFG1X2R4efmk" ] },
      { "delegate": "tz2FCNBrERXtaTtNX6iimR1UJ5JSDxvdHM93",
        "reception_time": "2022-01-15T15:01:13.881-00:00",
        "included_in_blocks":
          [ "BLBSuHfvPU4xzNWvqYZfdY9bCr3oefHjXryrJzFpFG1X2R4efmk" ] },
      { "delegate": "tz1WBfwbT66FC6BTLexc2BoyCCBM9LG7pnVW",
        "reception_time": "2022-01-15T15:01:13.720-00:00",
        "included_in_blocks":
          [ "BLBSuHfvPU4xzNWvqYZfdY9bCr3oefHjXryrJzFpFG1X2R4efmk" ] },
      { "delegate": "tz1ZcTRk5uxD86EFEn1vvNffWWqJy7q5eVhc",
        "reception_time": "2022-01-15T15:01:13.561-00:00",
        "included_in_blocks":
          [ "BLBSuHfvPU4xzNWvqYZfdY9bCr3oefHjXryrJzFpFG1X2R4efmk" ] },
      { "delegate": "tz1Tnjaxk6tbAeC2TmMApPh8UsrEVQvhHvx5",
        "reception_time": "2022-01-15T15:01:13.244-00:00",
        "included_in_blocks":
          [ "BLBSuHfvPU4xzNWvqYZfdY9bCr3oefHjXryrJzFpFG1X2R4efmk" ] },
      { "delegate": "tz1gfArv665EUkSg2ojMBzcbfwuPxAvqPvjo",
        "reception_time": "2022-01-15T15:01:13.224-00:00",
        "included_in_blocks":
          [ "BLBSuHfvPU4xzNWvqYZfdY9bCr3oefHjXryrJzFpFG1X2R4efmk" ] },
      { "delegate": "tz3NxTnke1acr8o3h5y9ytf5awQBGNJUKzVU",
        "reception_time": "2022-01-15T15:01:13.214-00:00",
        "included_in_blocks":
          [ "BLBSuHfvPU4xzNWvqYZfdY9bCr3oefHjXryrJzFpFG1X2R4efmk" ] },
      { "delegate": "tz3ZbP2pM3nwvXztbuMJwJnDvV5xdpU8UkkD",
        "reception_time": "2022-01-15T15:01:13.175-00:00",
        "included_in_blocks":
          [ "BLBSuHfvPU4xzNWvqYZfdY9bCr3oefHjXryrJzFpFG1X2R4efmk" ] },
      { "delegate": "tz1T7duV5gZWSTq4YpBGbXNLTfznCLDrFxvs",
        "reception_time": "2022-01-15T15:01:12.689-00:00",
        "included_in_blocks":
          [ "BLBSuHfvPU4xzNWvqYZfdY9bCr3oefHjXryrJzFpFG1X2R4efmk" ] },
      { "delegate": "tz1dRKU4FQ9QRRQPdaH4zCR6gmCmXfcvcgtB",
        "reception_time": "2022-01-15T15:01:12.416-00:00",
        "included_in_blocks":
          [ "BLBSuHfvPU4xzNWvqYZfdY9bCr3oefHjXryrJzFpFG1X2R4efmk" ] },
      { "delegate": "tz1dNVDWPf3Q59SdJqnjdnu277iyvReiRS9M",
        "reception_time": "2022-01-15T15:01:12.329-00:00",
        "included_in_blocks":
          [ "BLBSuHfvPU4xzNWvqYZfdY9bCr3oefHjXryrJzFpFG1X2R4efmk" ] },
      { "delegate": "tz1NEKxGEHsFufk87CVZcrqWu8o22qh46GK6",
        "reception_time": "2022-01-15T15:01:12.261-00:00",
        "included_in_blocks":
          [ "BLBSuHfvPU4xzNWvqYZfdY9bCr3oefHjXryrJzFpFG1X2R4efmk" ] },
      { "delegate": "tz1V4qCyvPKZ5UeqdH14HN42rxvNPQfc9UZg",
        "reception_time": "2022-01-15T15:01:12.021-00:00",
        "included_in_blocks":
          [ "BLBSuHfvPU4xzNWvqYZfdY9bCr3oefHjXryrJzFpFG1X2R4efmk" ] },
      { "delegate": "tz1TEc75UKXv4W5cwi14Na3NtqFD51yKQi7h",
        "reception_time": "2022-01-15T15:01:12.016-00:00",
        "included_in_blocks":
          [ "BLBSuHfvPU4xzNWvqYZfdY9bCr3oefHjXryrJzFpFG1X2R4efmk" ] },
      { "delegate": "tz1Nf6tsK4G6bBqgSQERy4nUtkHNKUVdh7q1",
        "reception_time": "2022-01-15T15:01:12.000-00:00",
        "included_in_blocks":
          [ "BLBSuHfvPU4xzNWvqYZfdY9bCr3oefHjXryrJzFpFG1X2R4efmk" ] },
      { "delegate": "tz1MJx9vhaNRSimcuXPK2rW4fLccQnDAnVKJ",
        "reception_time": "2022-01-15T15:01:11.978-00:00",
        "included_in_blocks":
          [ "BLBSuHfvPU4xzNWvqYZfdY9bCr3oefHjXryrJzFpFG1X2R4efmk" ] },
      { "delegate": "tz1PWCDnz783NNGGQjEFFsHtrcK5yBW4E2rm",
        "reception_time": "2022-01-15T15:01:11.702-00:00",
        "included_in_blocks":
          [ "BLBSuHfvPU4xzNWvqYZfdY9bCr3oefHjXryrJzFpFG1X2R4efmk" ] },
      { "delegate": "tz1TRspM5SeZpaQUhzByXbEvqKF1vnCM2YTK" },
      { "delegate": "tz1MduLJ4AAR6g7CDjB77Jci3gvu3Xsvk6bJ" },
      { "delegate": "tz1P2Po7YM526ughEsRbY4oR9zaUPDZjxFrb",
        "reception_time": "2022-01-15T15:01:08.529-00:00",
        "errors":
          [ { "kind": "temporary",
              "id": "proto.011-PtHangz2.prefilter.outdated_endorsement" } ],
        "included_in_blocks":
          [ "BLBSuHfvPU4xzNWvqYZfdY9bCr3oefHjXryrJzFpFG1X2R4efmk" ] },
      { "delegate": "tz1irJKkXS2DBWkU1NnmFQx1c1L7pbGg4yhk",
        "reception_time": "2022-01-15T15:01:08.696-00:00",
        "errors":
          [ { "kind": "temporary",
              "id": "proto.011-PtHangz2.prefilter.outdated_endorsement" } ],
        "included_in_blocks":
          [ "BLBSuHfvPU4xzNWvqYZfdY9bCr3oefHjXryrJzFpFG1X2R4efmk" ] },
      { "delegate": "tz1TXzyaKUA8wsWefdSnyaYFnV2M3vCV7er9",
        "reception_time": "2022-01-15T15:01:08.920-00:00",
        "errors":
          [ { "kind": "temporary",
              "id": "proto.011-PtHangz2.prefilter.outdated_endorsement" } ],
        "included_in_blocks":
          [ "BLBSuHfvPU4xzNWvqYZfdY9bCr3oefHjXryrJzFpFG1X2R4efmk" ] },
      { "delegate": "tz1Lhf4J9Qxoe3DZ2nfe8FGDnvVj7oKjnMY6",
        "reception_time": "2022-01-15T15:01:08.982-00:00",
        "errors":
          [ { "kind": "temporary",
              "id": "proto.011-PtHangz2.prefilter.outdated_endorsement" } ],
        "included_in_blocks":
          [ "BLBSuHfvPU4xzNWvqYZfdY9bCr3oefHjXryrJzFpFG1X2R4efmk" ] },
      { "delegate": "tz1S8e9GgdZG78XJRB3NqabfWeM37GnhZMWQ",
        "reception_time": "2022-01-15T15:01:09.033-00:00",
        "errors":
          [ { "kind": "temporary",
              "id": "proto.011-PtHangz2.prefilter.outdated_endorsement" } ],
        "included_in_blocks":
          [ "BLBSuHfvPU4xzNWvqYZfdY9bCr3oefHjXryrJzFpFG1X2R4efmk" ] },
      { "delegate": "tz1Scdr2HsZiQjc7bHMeBbmDRXYVvdhjJbBh",
        "reception_time": "2022-01-15T15:01:09.107-00:00",
        "errors":
          [ { "kind": "temporary",
              "id": "proto.011-PtHangz2.prefilter.outdated_endorsement" } ],
        "included_in_blocks":
          [ "BLBSuHfvPU4xzNWvqYZfdY9bCr3oefHjXryrJzFpFG1X2R4efmk" ] },
      { "delegate": "tz1Kt4P8BCaP93AEV4eA7gmpRryWt5hznjCP",
        "reception_time": "2022-01-15T15:01:09.151-00:00",
        "errors":
          [ { "kind": "temporary",
              "id": "proto.011-PtHangz2.prefilter.outdated_endorsement" } ],
        "included_in_blocks":
          [ "BLBSuHfvPU4xzNWvqYZfdY9bCr3oefHjXryrJzFpFG1X2R4efmk" ] },
      { "delegate": "tz1VQnqCCqX4K5sP3FNkVSNKTdCAMJDd3E1n",
        "reception_time": "2022-01-15T15:01:09.240-00:00",
        "errors":
          [ { "kind": "temporary",
              "id": "proto.011-PtHangz2.prefilter.outdated_endorsement" } ],
        "included_in_blocks":
          [ "BLBSuHfvPU4xzNWvqYZfdY9bCr3oefHjXryrJzFpFG1X2R4efmk" ] },
      { "delegate": "tz1gUNyn3hmnEWqkusWPzxRaon1cs7ndWh7h",
        "reception_time": "2022-01-15T15:01:09.347-00:00",
        "errors":
          [ { "kind": "temporary",
              "id": "proto.011-PtHangz2.prefilter.outdated_endorsement" } ],
        "included_in_blocks":
          [ "BLBSuHfvPU4xzNWvqYZfdY9bCr3oefHjXryrJzFpFG1X2R4efmk" ] },
      { "delegate": "tz1Ldzz6k1BHdhuKvAtMRX7h5kJSMHESMHLC",
        "reception_time": "2022-01-15T15:01:09.439-00:00",
        "errors":
          [ { "kind": "temporary",
              "id": "proto.011-PtHangz2.prefilter.outdated_endorsement" } ],
        "included_in_blocks":
          [ "BLBSuHfvPU4xzNWvqYZfdY9bCr3oefHjXryrJzFpFG1X2R4efmk" ] },
      { "delegate": "tz3adcvQaKXTCg12zbninqo3q8ptKKtDFTLv",
        "reception_time": "2022-01-15T15:01:09.550-00:00",
        "errors":
          [ { "kind": "temporary",
              "id": "proto.011-PtHangz2.prefilter.outdated_endorsement" } ],
        "included_in_blocks":
          [ "BLBSuHfvPU4xzNWvqYZfdY9bCr3oefHjXryrJzFpFG1X2R4efmk" ] },
      { "delegate": "tz1aXD7Jigrt3PBYSpHSg5Rr33SexMmmM5Ys",
        "reception_time": "2022-01-15T15:01:09.556-00:00",
        "errors":
          [ { "kind": "temporary",
              "id": "proto.011-PtHangz2.prefilter.outdated_endorsement" } ],
        "included_in_blocks":
          [ "BLBSuHfvPU4xzNWvqYZfdY9bCr3oefHjXryrJzFpFG1X2R4efmk" ] },
      { "delegate": "tz1eEnQhbwf6trb8Q8mPb2RaPkNk2rN7BKi8",
        "reception_time": "2022-01-15T15:01:09.994-00:00",
        "errors":
          [ { "kind": "temporary",
              "id": "proto.011-PtHangz2.prefilter.outdated_endorsement" } ],
        "included_in_blocks":
          [ "BLBSuHfvPU4xzNWvqYZfdY9bCr3oefHjXryrJzFpFG1X2R4efmk" ] },
      { "delegate": "tz1ei4WtWEMEJekSv8qDnu9PExG6Q8HgRGr3",
        "reception_time": "2022-01-15T15:01:10.395-00:00",
        "errors":
          [ { "kind": "temporary",
              "id": "proto.011-PtHangz2.prefilter.outdated_endorsement" } ],
        "included_in_blocks":
          [ "BLBSuHfvPU4xzNWvqYZfdY9bCr3oefHjXryrJzFpFG1X2R4efmk" ] },
      { "delegate": "tz1beersuEDv8Z7ngQ825xfbaJNS2EhXnyHR",
        "reception_time": "2022-01-15T15:01:10.528-00:00",
        "errors":
          [ { "kind": "temporary",
              "id": "proto.011-PtHangz2.prefilter.outdated_endorsement" } ],
        "included_in_blocks":
          [ "BLBSuHfvPU4xzNWvqYZfdY9bCr3oefHjXryrJzFpFG1X2R4efmk" ] } ] }