{ "blocks":
    [ { "hash": "BMFKxERDn2CjJ9YWhEPAVAqsLdSkfKwiimGLqwbG9fhi6JosXMb",
        "delegate": "tz1Nf6tsK4G6bBqgSQERy4nUtkHNKUVdh7q1",
        "reception_time": "2022-01-15T12:46:16.673-00:00",
        "timestamp": "2022-01-15T12:46:10Z" } ],
  "endorsements":
    [ { "delegate": "tz1TRspM5SeZpaQUhzByXbEvqKF1vnCM2YTK" },
      { "delegate": "tz1S8e9GgdZG78XJRB3NqabfWeM37GnhZMWQ",
        "reception_time": "2022-01-15T12:46:16.424-00:00",
        "errors":
          [ { "kind": "temporary",
              "id": "proto.011-PtHangz2.prefilter.outdated_endorsement" } ],
        "included_in_blocks":
          [ "BMbtQW8fzbMJ46HeeyEJKdsFo8D61fFdPEHuzTTFn9ViCzbKyJj" ] },
      { "delegate": "tz1ZdSQibskQwRdiaFUh7RUVm1Z6xudMedoj",
        "reception_time": "2022-01-15T12:46:22.682-00:00",
        "included_in_blocks":
          [ "BMbtQW8fzbMJ46HeeyEJKdsFo8D61fFdPEHuzTTFn9ViCzbKyJj" ] },
      { "delegate": "tz1gg5bjopPcr9agjamyu9BbXKLibNc2rbAq",
        "reception_time": "2022-01-15T12:46:22.275-00:00",
        "included_in_blocks":
          [ "BMbtQW8fzbMJ46HeeyEJKdsFo8D61fFdPEHuzTTFn9ViCzbKyJj" ] },
      { "delegate": "tz1YiuvpfeVAHbnU8akcWErNfQGFHNQ7F45z",
        "reception_time": "2022-01-15T12:46:21.498-00:00",
        "included_in_blocks":
          [ "BMbtQW8fzbMJ46HeeyEJKdsFo8D61fFdPEHuzTTFn9ViCzbKyJj" ] },
      { "delegate": "tz1eVaNx3gCmG1EsLjijkmgAxdLYVf6Bf5Sq",
        "reception_time": "2022-01-15T12:46:21.719-00:00",
        "included_in_blocks":
          [ "BMbtQW8fzbMJ46HeeyEJKdsFo8D61fFdPEHuzTTFn9ViCzbKyJj" ] },
      { "delegate": "tz1W5VkdB5s7ENMESVBtwyt9kyvLqPcUczRT",
        "reception_time": "2022-01-15T12:46:21.188-00:00",
        "included_in_blocks":
          [ "BMbtQW8fzbMJ46HeeyEJKdsFo8D61fFdPEHuzTTFn9ViCzbKyJj" ] },
      { "delegate": "tz1bTpviNnyx2PXsNmGpCQTMQsGoYordkUoA",
        "reception_time": "2022-01-15T12:46:21.303-00:00",
        "included_in_blocks":
          [ "BMbtQW8fzbMJ46HeeyEJKdsFo8D61fFdPEHuzTTFn9ViCzbKyJj" ] },
      { "delegate": "tz1aRoaRhSpRYvFdyvgWLL6TGyRoGF51wDjM",
        "reception_time": "2022-01-15T12:46:20.895-00:00",
        "included_in_blocks":
          [ "BMbtQW8fzbMJ46HeeyEJKdsFo8D61fFdPEHuzTTFn9ViCzbKyJj" ] },
      { "delegate": "tz1ZcTRk5uxD86EFEn1vvNffWWqJy7q5eVhc",
        "reception_time": "2022-01-15T12:46:20.694-00:00",
        "included_in_blocks":
          [ "BMbtQW8fzbMJ46HeeyEJKdsFo8D61fFdPEHuzTTFn9ViCzbKyJj" ] },
      { "delegate": "tz3UoffC7FG7zfpmvmjUmUeAaHvzdcUvAj6r",
        "reception_time": "2022-01-15T12:46:20.572-00:00",
        "included_in_blocks":
          [ "BMbtQW8fzbMJ46HeeyEJKdsFo8D61fFdPEHuzTTFn9ViCzbKyJj" ] },
      { "delegate": "tz1SYq214SCBy9naR6cvycQsYcUGpBqQAE8d",
        "reception_time": "2022-01-15T12:46:20.526-00:00",
        "included_in_blocks":
          [ "BMbtQW8fzbMJ46HeeyEJKdsFo8D61fFdPEHuzTTFn9ViCzbKyJj" ] },
      { "delegate": "tz3NExpXn9aPNZPorRE4SdjJ2RGrfbJgMAaV",
        "reception_time": "2022-01-15T12:46:20.316-00:00",
        "included_in_blocks":
          [ "BMbtQW8fzbMJ46HeeyEJKdsFo8D61fFdPEHuzTTFn9ViCzbKyJj" ] },
      { "delegate": "tz1RjoHc98dBoqaH2jawF62XNKh7YsHwbkEv",
        "reception_time": "2022-01-15T12:46:20.043-00:00",
        "included_in_blocks":
          [ "BMbtQW8fzbMJ46HeeyEJKdsFo8D61fFdPEHuzTTFn9ViCzbKyJj" ] },
      { "delegate": "tz1dRKU4FQ9QRRQPdaH4zCR6gmCmXfcvcgtB",
        "reception_time": "2022-01-15T12:46:20.192-00:00",
        "included_in_blocks":
          [ "BMbtQW8fzbMJ46HeeyEJKdsFo8D61fFdPEHuzTTFn9ViCzbKyJj" ] },
      { "delegate": "tz1awXW7wuXy21c66vBudMXQVAPgRnqqwgTH",
        "reception_time": "2022-01-15T12:46:20.071-00:00",
        "included_in_blocks":
          [ "BMbtQW8fzbMJ46HeeyEJKdsFo8D61fFdPEHuzTTFn9ViCzbKyJj" ] },
      { "delegate": "tz1cYufsxHXJcvANhvS55h3aY32a9BAFB494",
        "reception_time": "2022-01-15T12:46:19.924-00:00",
        "included_in_blocks":
          [ "BMbtQW8fzbMJ46HeeyEJKdsFo8D61fFdPEHuzTTFn9ViCzbKyJj" ] },
      { "delegate": "tz1RAQJ6mcKiG6odfM3RH7iJYR1aRWRAuf5T",
        "reception_time": "2022-01-15T12:46:19.656-00:00",
        "included_in_blocks":
          [ "BMbtQW8fzbMJ46HeeyEJKdsFo8D61fFdPEHuzTTFn9ViCzbKyJj" ] },
      { "delegate": "tz1T7duV5gZWSTq4YpBGbXNLTfznCLDrFxvs",
        "reception_time": "2022-01-15T12:46:19.775-00:00",
        "included_in_blocks":
          [ "BMbtQW8fzbMJ46HeeyEJKdsFo8D61fFdPEHuzTTFn9ViCzbKyJj" ] },
      { "delegate": "tz1PeZx7FXy7QRuMREGXGxeipb24RsMMzUNe",
        "reception_time": "2022-01-15T12:46:19.633-00:00",
        "included_in_blocks":
          [ "BMbtQW8fzbMJ46HeeyEJKdsFo8D61fFdPEHuzTTFn9ViCzbKyJj" ] },
      { "delegate": "tz1TRqbYbUf2GyrjErf3hBzgBJPzW8y36qEs",
        "reception_time": "2022-01-15T12:46:19.616-00:00",
        "included_in_blocks":
          [ "BMbtQW8fzbMJ46HeeyEJKdsFo8D61fFdPEHuzTTFn9ViCzbKyJj" ] },
      { "delegate": "tz3RDC3Jdn4j15J7bBHZd29EUee9gVB1CxD9",
        "reception_time": "2022-01-15T12:46:19.524-00:00",
        "included_in_blocks":
          [ "BMbtQW8fzbMJ46HeeyEJKdsFo8D61fFdPEHuzTTFn9ViCzbKyJj" ] },
      { "delegate": "tz1X4Qb9NJ7JEuitX3jFpZptuAh7DUnCaLs1",
        "reception_time": "2022-01-15T12:46:19.570-00:00",
        "included_in_blocks":
          [ "BMbtQW8fzbMJ46HeeyEJKdsFo8D61fFdPEHuzTTFn9ViCzbKyJj" ] },
      { "delegate": "tz3RB4aoyjov4KEVRbuhvQ1CKJgBJMWhaeB8",
        "reception_time": "2022-01-15T12:46:19.607-00:00",
        "included_in_blocks":
          [ "BMbtQW8fzbMJ46HeeyEJKdsFo8D61fFdPEHuzTTFn9ViCzbKyJj" ] },
      { "delegate": "tz3WMqdzXqRWXwyvj5Hp2H7QEepaUuS7vd9K",
        "reception_time": "2022-01-15T12:46:19.475-00:00",
        "included_in_blocks":
          [ "BMbtQW8fzbMJ46HeeyEJKdsFo8D61fFdPEHuzTTFn9ViCzbKyJj" ] },
      { "delegate": "tz1Q8QkSBS63ZQnH3fBTiAMPes9R666Rn6Sc",
        "reception_time": "2022-01-15T12:46:19.355-00:00",
        "included_in_blocks":
          [ "BMbtQW8fzbMJ46HeeyEJKdsFo8D61fFdPEHuzTTFn9ViCzbKyJj" ] },
      { "delegate": "tz1NEKxGEHsFufk87CVZcrqWu8o22qh46GK6",
        "reception_time": "2022-01-15T12:46:19.368-00:00",
        "included_in_blocks":
          [ "BMbtQW8fzbMJ46HeeyEJKdsFo8D61fFdPEHuzTTFn9ViCzbKyJj" ] },
      { "delegate": "tz3VEZ4k6a4Wx42iyev6i2aVAptTRLEAivNN",
        "reception_time": "2022-01-15T12:46:19.203-00:00",
        "included_in_blocks":
          [ "BMbtQW8fzbMJ46HeeyEJKdsFo8D61fFdPEHuzTTFn9ViCzbKyJj" ] },
      { "delegate": "tz2FCNBrERXtaTtNX6iimR1UJ5JSDxvdHM93",
        "reception_time": "2022-01-15T12:46:19.020-00:00",
        "included_in_blocks":
          [ "BMbtQW8fzbMJ46HeeyEJKdsFo8D61fFdPEHuzTTFn9ViCzbKyJj" ] },
      { "delegate": "tz1KfEsrtDaA1sX7vdM4qmEPWuSytuqCDp5j",
        "reception_time": "2022-01-15T12:46:19.049-00:00",
        "included_in_blocks":
          [ "BMbtQW8fzbMJ46HeeyEJKdsFo8D61fFdPEHuzTTFn9ViCzbKyJj" ] },
      { "delegate": "tz1cig1EHyvZd7J2k389moM9PxVgPQvmFkvi",
        "reception_time": "2022-01-15T12:46:19.114-00:00",
        "included_in_blocks":
          [ "BMbtQW8fzbMJ46HeeyEJKdsFo8D61fFdPEHuzTTFn9ViCzbKyJj" ] },
      { "delegate": "tz3NDpRj6WBrJPikcPVHRBEjWKxFw3c6eQPS",
        "reception_time": "2022-01-15T12:46:18.882-00:00",
        "included_in_blocks":
          [ "BMbtQW8fzbMJ46HeeyEJKdsFo8D61fFdPEHuzTTFn9ViCzbKyJj" ] },
      { "delegate": "tz3gLTu4Yxj8tPAcriQVUdxv6BY9QyvzU1az",
        "reception_time": "2022-01-15T12:46:18.853-00:00",
        "included_in_blocks":
          [ "BMbtQW8fzbMJ46HeeyEJKdsFo8D61fFdPEHuzTTFn9ViCzbKyJj" ] },
      { "delegate": "tz1WBfwbT66FC6BTLexc2BoyCCBM9LG7pnVW",
        "reception_time": "2022-01-15T12:46:18.863-00:00",
        "included_in_blocks":
          [ "BMbtQW8fzbMJ46HeeyEJKdsFo8D61fFdPEHuzTTFn9ViCzbKyJj" ] },
      { "delegate": "tz1UMCB2AHSTwG7YcGNr31CqYCtGN873royv",
        "reception_time": "2022-01-15T12:46:18.816-00:00",
        "included_in_blocks":
          [ "BMbtQW8fzbMJ46HeeyEJKdsFo8D61fFdPEHuzTTFn9ViCzbKyJj" ] },
      { "delegate": "tz1TEc75UKXv4W5cwi14Na3NtqFD51yKQi7h",
        "reception_time": "2022-01-15T12:46:18.859-00:00",
        "included_in_blocks":
          [ "BMbtQW8fzbMJ46HeeyEJKdsFo8D61fFdPEHuzTTFn9ViCzbKyJj" ] },
      { "delegate": "tz1gfArv665EUkSg2ojMBzcbfwuPxAvqPvjo",
        "reception_time": "2022-01-15T12:46:18.807-00:00",
        "included_in_blocks":
          [ "BMbtQW8fzbMJ46HeeyEJKdsFo8D61fFdPEHuzTTFn9ViCzbKyJj" ] },
      { "delegate": "tz1Tnjaxk6tbAeC2TmMApPh8UsrEVQvhHvx5",
        "reception_time": "2022-01-15T12:46:18.639-00:00",
        "included_in_blocks":
          [ "BMbtQW8fzbMJ46HeeyEJKdsFo8D61fFdPEHuzTTFn9ViCzbKyJj" ] },
      { "delegate": "tz1WnfXMPaNTBmH7DBPwqCWs9cPDJdkGBTZ8",
        "reception_time": "2022-01-15T12:46:18.683-00:00",
        "included_in_blocks":
          [ "BMbtQW8fzbMJ46HeeyEJKdsFo8D61fFdPEHuzTTFn9ViCzbKyJj" ] },
      { "delegate": "tz1LmaFsWRkjr7QMCx5PtV6xTUz3AmEpKQiF",
        "reception_time": "2022-01-15T12:46:18.787-00:00",
        "included_in_blocks":
          [ "BMbtQW8fzbMJ46HeeyEJKdsFo8D61fFdPEHuzTTFn9ViCzbKyJj" ] },
      { "delegate": "tz1RQhNh7iB9CZA7i3ifTWNwiGYVffponfbB",
        "reception_time": "2022-01-15T12:46:18.611-00:00",
        "included_in_blocks":
          [ "BMbtQW8fzbMJ46HeeyEJKdsFo8D61fFdPEHuzTTFn9ViCzbKyJj" ] },
      { "delegate": "tz1S8MNvuFEUsWgjHvi3AxibRBf388NhT1q2",
        "reception_time": "2022-01-15T12:46:18.631-00:00",
        "included_in_blocks":
          [ "BMbtQW8fzbMJ46HeeyEJKdsFo8D61fFdPEHuzTTFn9ViCzbKyJj" ] },
      { "delegate": "tz3bvNMQ95vfAYtG8193ymshqjSvmxiCUuR5",
        "reception_time": "2022-01-15T12:46:18.364-00:00",
        "included_in_blocks":
          [ "BMbtQW8fzbMJ46HeeyEJKdsFo8D61fFdPEHuzTTFn9ViCzbKyJj" ] },
      { "delegate": "tz1RCFbB9GpALpsZtu6J58sb74dm8qe6XBzv",
        "reception_time": "2022-01-15T12:46:18.397-00:00",
        "included_in_blocks":
          [ "BMbtQW8fzbMJ46HeeyEJKdsFo8D61fFdPEHuzTTFn9ViCzbKyJj" ] },
      { "delegate": "tz1UbFpJY5Hext38GisuaXQBkbzhaKJkxpEs",
        "reception_time": "2022-01-15T12:46:18.388-00:00",
        "included_in_blocks":
          [ "BMbtQW8fzbMJ46HeeyEJKdsFo8D61fFdPEHuzTTFn9ViCzbKyJj" ] },
      { "delegate": "tz1ei4WtWEMEJekSv8qDnu9PExG6Q8HgRGr3",
        "reception_time": "2022-01-15T12:46:18.321-00:00",
        "included_in_blocks":
          [ "BMbtQW8fzbMJ46HeeyEJKdsFo8D61fFdPEHuzTTFn9ViCzbKyJj" ] },
      { "delegate": "tz1fPKAtsYydh4f1wfWNfeNxWYu72TmM48fu",
        "reception_time": "2022-01-15T12:46:18.293-00:00",
        "included_in_blocks":
          [ "BMbtQW8fzbMJ46HeeyEJKdsFo8D61fFdPEHuzTTFn9ViCzbKyJj" ] },
      { "delegate": "tz3bTdwZinP8U1JmSweNzVKhmwafqWmFWRfk",
        "reception_time": "2022-01-15T12:46:18.110-00:00",
        "included_in_blocks":
          [ "BMbtQW8fzbMJ46HeeyEJKdsFo8D61fFdPEHuzTTFn9ViCzbKyJj" ] },
      { "delegate": "tz1cSj7fTex3JPd1p1LN1fwek6AV1kH93Wwc",
        "reception_time": "2022-01-15T12:46:18.013-00:00",
        "included_in_blocks":
          [ "BMbtQW8fzbMJ46HeeyEJKdsFo8D61fFdPEHuzTTFn9ViCzbKyJj" ] },
      { "delegate": "tz3QT9dHYKDqh563chVa6za8526ys1UKfRfL",
        "reception_time": "2022-01-15T12:46:17.979-00:00",
        "included_in_blocks":
          [ "BMbtQW8fzbMJ46HeeyEJKdsFo8D61fFdPEHuzTTFn9ViCzbKyJj" ] },
      { "delegate": "tz3S6BBeKgJGXxvLyZ1xzXzMPn11nnFtq5L9",
        "reception_time": "2022-01-15T12:46:17.969-00:00",
        "included_in_blocks":
          [ "BMbtQW8fzbMJ46HeeyEJKdsFo8D61fFdPEHuzTTFn9ViCzbKyJj" ] },
      { "delegate": "tz3iJu5vrKZcsqRPs8yJ61UDoeEXZmtro4qh",
        "reception_time": "2022-01-15T12:46:17.928-00:00",
        "included_in_blocks":
          [ "BMbtQW8fzbMJ46HeeyEJKdsFo8D61fFdPEHuzTTFn9ViCzbKyJj" ] },
      { "delegate": "tz3Zhs2dygr55yHyQyKjntAtY9bgfhLZ4Xj1",
        "reception_time": "2022-01-15T12:46:17.943-00:00",
        "included_in_blocks":
          [ "BMbtQW8fzbMJ46HeeyEJKdsFo8D61fFdPEHuzTTFn9ViCzbKyJj" ] },
      { "delegate": "tz1MQMiZHV8q4tTwUMWmS5Y3kaP6J2136iXr",
        "reception_time": "2022-01-15T12:46:18.257-00:00",
        "included_in_blocks":
          [ "BMbtQW8fzbMJ46HeeyEJKdsFo8D61fFdPEHuzTTFn9ViCzbKyJj" ] },
      { "delegate": "tz1WCd2jm4uSt4vntk4vSuUWoZQGhLcDuR9q",
        "reception_time": "2022-01-15T12:46:17.854-00:00",
        "included_in_blocks":
          [ "BMbtQW8fzbMJ46HeeyEJKdsFo8D61fFdPEHuzTTFn9ViCzbKyJj" ] },
      { "delegate": "tz3RKYFsLuQzKBtmYuLNas7uMu3AsYd4QdsA",
        "reception_time": "2022-01-15T12:46:17.849-00:00",
        "included_in_blocks":
          [ "BMbtQW8fzbMJ46HeeyEJKdsFo8D61fFdPEHuzTTFn9ViCzbKyJj" ] },
      { "delegate": "tz1gcna2xxZj2eNp1LaMyAhVJ49mEFj4FH26",
        "reception_time": "2022-01-15T12:46:17.873-00:00",
        "included_in_blocks":
          [ "BMbtQW8fzbMJ46HeeyEJKdsFo8D61fFdPEHuzTTFn9ViCzbKyJj" ] },
      { "delegate": "tz3hw2kqXhLUvY65ca1eety2oQTpAvd34R9Q",
        "reception_time": "2022-01-15T12:46:17.869-00:00",
        "included_in_blocks":
          [ "BMbtQW8fzbMJ46HeeyEJKdsFo8D61fFdPEHuzTTFn9ViCzbKyJj" ] },
      { "delegate": "tz1Ldzz6k1BHdhuKvAtMRX7h5kJSMHESMHLC",
        "reception_time": "2022-01-15T12:46:17.833-00:00",
        "included_in_blocks":
          [ "BMbtQW8fzbMJ46HeeyEJKdsFo8D61fFdPEHuzTTFn9ViCzbKyJj" ] },
      { "delegate": "tz1MJx9vhaNRSimcuXPK2rW4fLccQnDAnVKJ",
        "reception_time": "2022-01-15T12:46:17.828-00:00",
        "included_in_blocks":
          [ "BMbtQW8fzbMJ46HeeyEJKdsFo8D61fFdPEHuzTTFn9ViCzbKyJj" ] },
      { "delegate": "tz3gtoUxdudfBRcNY7iVdKPHCYYX6xdPpoRS",
        "reception_time": "2022-01-15T12:46:17.828-00:00",
        "included_in_blocks":
          [ "BMbtQW8fzbMJ46HeeyEJKdsFo8D61fFdPEHuzTTFn9ViCzbKyJj" ] },
      { "delegate": "tz3QSGPoRp3Kn7n3vY24eYeu3Peuqo45LQ4D",
        "reception_time": "2022-01-15T12:46:17.819-00:00",
        "included_in_blocks":
          [ "BMbtQW8fzbMJ46HeeyEJKdsFo8D61fFdPEHuzTTFn9ViCzbKyJj" ] },
      { "delegate": "tz1aXD7Jigrt3PBYSpHSg5Rr33SexMmmM5Ys",
        "reception_time": "2022-01-15T12:46:17.841-00:00",
        "included_in_blocks":
          [ "BMbtQW8fzbMJ46HeeyEJKdsFo8D61fFdPEHuzTTFn9ViCzbKyJj" ] },
      { "delegate": "tz3ZbP2pM3nwvXztbuMJwJnDvV5xdpU8UkkD",
        "reception_time": "2022-01-15T12:46:17.796-00:00",
        "included_in_blocks":
          [ "BMbtQW8fzbMJ46HeeyEJKdsFo8D61fFdPEHuzTTFn9ViCzbKyJj" ] },
      { "delegate": "tz3NxTnke1acr8o3h5y9ytf5awQBGNJUKzVU",
        "reception_time": "2022-01-15T12:46:17.771-00:00",
        "included_in_blocks":
          [ "BMbtQW8fzbMJ46HeeyEJKdsFo8D61fFdPEHuzTTFn9ViCzbKyJj" ] },
      { "delegate": "tz1irJKkXS2DBWkU1NnmFQx1c1L7pbGg4yhk",
        "reception_time": "2022-01-15T12:46:17.774-00:00",
        "included_in_blocks":
          [ "BMbtQW8fzbMJ46HeeyEJKdsFo8D61fFdPEHuzTTFn9ViCzbKyJj" ] },
      { "delegate": "tz1iZEKy4LaAjnTmn2RuGDf2iqdAQKnRi8kY",
        "reception_time": "2022-01-15T12:46:17.879-00:00",
        "included_in_blocks":
          [ "BMbtQW8fzbMJ46HeeyEJKdsFo8D61fFdPEHuzTTFn9ViCzbKyJj" ] },
      { "delegate": "tz1VQnqCCqX4K5sP3FNkVSNKTdCAMJDd3E1n",
        "reception_time": "2022-01-15T12:46:17.764-00:00",
        "included_in_blocks":
          [ "BMbtQW8fzbMJ46HeeyEJKdsFo8D61fFdPEHuzTTFn9ViCzbKyJj" ] },
      { "delegate": "tz1gUNyn3hmnEWqkusWPzxRaon1cs7ndWh7h",
        "reception_time": "2022-01-15T12:46:17.841-00:00",
        "included_in_blocks":
          [ "BMbtQW8fzbMJ46HeeyEJKdsFo8D61fFdPEHuzTTFn9ViCzbKyJj" ] },
      { "delegate": "tz1eEnQhbwf6trb8Q8mPb2RaPkNk2rN7BKi8",
        "reception_time": "2022-01-15T12:46:17.755-00:00",
        "included_in_blocks":
          [ "BMbtQW8fzbMJ46HeeyEJKdsFo8D61fFdPEHuzTTFn9ViCzbKyJj" ] },
      { "delegate": "tz1P2Po7YM526ughEsRbY4oR9zaUPDZjxFrb",
        "reception_time": "2022-01-15T12:46:17.759-00:00",
        "included_in_blocks":
          [ "BMbtQW8fzbMJ46HeeyEJKdsFo8D61fFdPEHuzTTFn9ViCzbKyJj" ] },
      { "delegate": "tz1MXFrtZoaXckE41bjUCSjAjAap3AFDSr3N",
        "reception_time": "2022-01-15T12:46:17.736-00:00",
        "included_in_blocks":
          [ "BMbtQW8fzbMJ46HeeyEJKdsFo8D61fFdPEHuzTTFn9ViCzbKyJj" ] },
      { "delegate": "tz1Scdr2HsZiQjc7bHMeBbmDRXYVvdhjJbBh",
        "reception_time": "2022-01-15T12:46:17.732-00:00",
        "included_in_blocks":
          [ "BMbtQW8fzbMJ46HeeyEJKdsFo8D61fFdPEHuzTTFn9ViCzbKyJj" ] },
      { "delegate": "tz1STeamwbp68THcny9zk3LsbG3H36DMvbRK",
        "reception_time": "2022-01-15T12:46:17.704-00:00",
        "included_in_blocks":
          [ "BMbtQW8fzbMJ46HeeyEJKdsFo8D61fFdPEHuzTTFn9ViCzbKyJj" ] },
      { "delegate": "tz1Kt4P8BCaP93AEV4eA7gmpRryWt5hznjCP",
        "reception_time": "2022-01-15T12:46:17.920-00:00",
        "included_in_blocks":
          [ "BMbtQW8fzbMJ46HeeyEJKdsFo8D61fFdPEHuzTTFn9ViCzbKyJj" ] },
      { "delegate": "tz1Nf6tsK4G6bBqgSQERy4nUtkHNKUVdh7q1",
        "reception_time": "2022-01-15T12:46:17.890-00:00",
        "included_in_blocks":
          [ "BMbtQW8fzbMJ46HeeyEJKdsFo8D61fFdPEHuzTTFn9ViCzbKyJj" ] },
      { "delegate": "tz1beersuEDv8Z7ngQ825xfbaJNS2EhXnyHR",
        "reception_time": "2022-01-15T12:46:17.727-00:00",
        "included_in_blocks":
          [ "BMbtQW8fzbMJ46HeeyEJKdsFo8D61fFdPEHuzTTFn9ViCzbKyJj" ] } ] }