{ "blocks":
    [ { "hash": "BLB9CuC4126PcYe5rHeGzWwcrBmnL9XdVGqvVo3GAyCoBcRZKE4",
        "delegate": "tz3iJu5vrKZcsqRPs8yJ61UDoeEXZmtro4qh",
        "reception_time": "2022-01-15T15:31:22.130-00:00",
        "timestamp": "2022-01-15T15:31:10Z" } ],
  "endorsements":
    [ { "delegate": "tz3S6BBeKgJGXxvLyZ1xzXzMPn11nnFtq5L9",
        "reception_time": "2022-01-15T15:31:21.975-00:00",
        "errors":
          [ { "kind": "temporary",
              "id": "proto.011-PtHangz2.prefilter.outdated_endorsement" } ],
        "included_in_blocks":
          [ "BLjCJKaXiEFUQ7ZeRPs6URQBdknH3h7Fa91qbKivbjdPAAHvhrK" ] },
      { "delegate": "tz3QT9dHYKDqh563chVa6za8526ys1UKfRfL",
        "reception_time": "2022-01-15T15:31:21.956-00:00",
        "errors":
          [ { "kind": "temporary",
              "id": "proto.011-PtHangz2.prefilter.outdated_endorsement" } ],
        "included_in_blocks":
          [ "BLjCJKaXiEFUQ7ZeRPs6URQBdknH3h7Fa91qbKivbjdPAAHvhrK" ] },
      { "delegate": "tz3NxTnke1acr8o3h5y9ytf5awQBGNJUKzVU",
        "reception_time": "2022-01-15T15:31:21.837-00:00",
        "errors":
          [ { "kind": "temporary",
              "id": "proto.011-PtHangz2.prefilter.outdated_endorsement" } ],
        "included_in_blocks":
          [ "BLjCJKaXiEFUQ7ZeRPs6URQBdknH3h7Fa91qbKivbjdPAAHvhrK" ] },
      { "delegate": "tz3ZbP2pM3nwvXztbuMJwJnDvV5xdpU8UkkD",
        "reception_time": "2022-01-15T15:31:21.824-00:00",
        "errors":
          [ { "kind": "temporary",
              "id": "proto.011-PtHangz2.prefilter.outdated_endorsement" } ],
        "included_in_blocks":
          [ "BLjCJKaXiEFUQ7ZeRPs6URQBdknH3h7Fa91qbKivbjdPAAHvhrK" ] },
      { "delegate": "tz3hw2kqXhLUvY65ca1eety2oQTpAvd34R9Q",
        "reception_time": "2022-01-15T15:31:21.750-00:00",
        "errors":
          [ { "kind": "temporary",
              "id": "proto.011-PtHangz2.prefilter.outdated_endorsement" } ],
        "included_in_blocks":
          [ "BLjCJKaXiEFUQ7ZeRPs6URQBdknH3h7Fa91qbKivbjdPAAHvhrK" ] },
      { "delegate": "tz3gtoUxdudfBRcNY7iVdKPHCYYX6xdPpoRS",
        "reception_time": "2022-01-15T15:31:21.736-00:00",
        "errors":
          [ { "kind": "temporary",
              "id": "proto.011-PtHangz2.prefilter.outdated_endorsement" } ],
        "included_in_blocks":
          [ "BLjCJKaXiEFUQ7ZeRPs6URQBdknH3h7Fa91qbKivbjdPAAHvhrK" ] },
      { "delegate": "tz3RKYFsLuQzKBtmYuLNas7uMu3AsYd4QdsA",
        "reception_time": "2022-01-15T15:31:21.706-00:00",
        "errors":
          [ { "kind": "temporary",
              "id": "proto.011-PtHangz2.prefilter.outdated_endorsement" } ],
        "included_in_blocks":
          [ "BLjCJKaXiEFUQ7ZeRPs6URQBdknH3h7Fa91qbKivbjdPAAHvhrK" ] },
      { "delegate": "tz1WCd2jm4uSt4vntk4vSuUWoZQGhLcDuR9q",
        "reception_time": "2022-01-15T15:31:21.706-00:00",
        "errors":
          [ { "kind": "temporary",
              "id": "proto.011-PtHangz2.prefilter.outdated_endorsement" } ],
        "included_in_blocks":
          [ "BLjCJKaXiEFUQ7ZeRPs6URQBdknH3h7Fa91qbKivbjdPAAHvhrK" ] },
      { "delegate": "tz3iJu5vrKZcsqRPs8yJ61UDoeEXZmtro4qh",
        "reception_time": "2022-01-15T15:31:21.694-00:00",
        "errors":
          [ { "kind": "temporary",
              "id": "proto.011-PtHangz2.prefilter.outdated_endorsement" } ],
        "included_in_blocks":
          [ "BLjCJKaXiEFUQ7ZeRPs6URQBdknH3h7Fa91qbKivbjdPAAHvhrK" ] },
      { "delegate": "tz3Zhs2dygr55yHyQyKjntAtY9bgfhLZ4Xj1",
        "reception_time": "2022-01-15T15:31:21.481-00:00",
        "errors":
          [ { "kind": "temporary",
              "id": "proto.011-PtHangz2.prefilter.outdated_endorsement" } ],
        "included_in_blocks":
          [ "BLjCJKaXiEFUQ7ZeRPs6URQBdknH3h7Fa91qbKivbjdPAAHvhrK" ] },
      { "delegate": "tz1P2Po7YM526ughEsRbY4oR9zaUPDZjxFrb",
        "reception_time": "2022-01-15T15:31:21.467-00:00",
        "errors":
          [ { "kind": "temporary",
              "id": "proto.011-PtHangz2.prefilter.outdated_endorsement" } ],
        "included_in_blocks":
          [ "BLjCJKaXiEFUQ7ZeRPs6URQBdknH3h7Fa91qbKivbjdPAAHvhrK" ] },
      { "delegate": "tz1gUNyn3hmnEWqkusWPzxRaon1cs7ndWh7h",
        "reception_time": "2022-01-15T15:31:21.381-00:00",
        "errors":
          [ { "kind": "temporary",
              "id": "proto.011-PtHangz2.prefilter.outdated_endorsement" } ],
        "included_in_blocks":
          [ "BLjCJKaXiEFUQ7ZeRPs6URQBdknH3h7Fa91qbKivbjdPAAHvhrK" ] },
      { "delegate": "tz1VQnqCCqX4K5sP3FNkVSNKTdCAMJDd3E1n",
        "reception_time": "2022-01-15T15:31:21.372-00:00",
        "errors":
          [ { "kind": "temporary",
              "id": "proto.011-PtHangz2.prefilter.outdated_endorsement" } ],
        "included_in_blocks":
          [ "BLjCJKaXiEFUQ7ZeRPs6URQBdknH3h7Fa91qbKivbjdPAAHvhrK" ] },
      { "delegate": "tz1eEnQhbwf6trb8Q8mPb2RaPkNk2rN7BKi8",
        "reception_time": "2022-01-15T15:31:21.371-00:00",
        "errors":
          [ { "kind": "temporary",
              "id": "proto.011-PtHangz2.prefilter.outdated_endorsement" } ],
        "included_in_blocks":
          [ "BLjCJKaXiEFUQ7ZeRPs6URQBdknH3h7Fa91qbKivbjdPAAHvhrK" ] },
      { "delegate": "tz1LLNkQK4UQV6QcFShiXJ2vT2ELw449MzAA",
        "reception_time": "2022-01-15T15:31:21.338-00:00",
        "errors":
          [ { "kind": "temporary",
              "id": "proto.011-PtHangz2.prefilter.outdated_endorsement" } ],
        "included_in_blocks":
          [ "BLjCJKaXiEFUQ7ZeRPs6URQBdknH3h7Fa91qbKivbjdPAAHvhrK" ] },
      { "delegate": "tz1Ldzz6k1BHdhuKvAtMRX7h5kJSMHESMHLC",
        "reception_time": "2022-01-15T15:31:21.295-00:00",
        "errors":
          [ { "kind": "temporary",
              "id": "proto.011-PtHangz2.prefilter.outdated_endorsement" } ],
        "included_in_blocks":
          [ "BLjCJKaXiEFUQ7ZeRPs6URQBdknH3h7Fa91qbKivbjdPAAHvhrK" ] },
      { "delegate": "tz1bsdrs36X5BTH83RHUBdUouKLJZK8d2oBa",
        "reception_time": "2022-01-15T15:31:21.218-00:00",
        "errors":
          [ { "kind": "temporary",
              "id": "proto.011-PtHangz2.prefilter.outdated_endorsement" } ],
        "included_in_blocks":
          [ "BLjCJKaXiEFUQ7ZeRPs6URQBdknH3h7Fa91qbKivbjdPAAHvhrK" ] },
      { "delegate": "tz1aXD7Jigrt3PBYSpHSg5Rr33SexMmmM5Ys",
        "reception_time": "2022-01-15T15:31:20.985-00:00",
        "errors":
          [ { "kind": "temporary",
              "id": "proto.011-PtHangz2.prefilter.outdated_endorsement" } ],
        "included_in_blocks":
          [ "BLjCJKaXiEFUQ7ZeRPs6URQBdknH3h7Fa91qbKivbjdPAAHvhrK" ] },
      { "delegate": "tz1irJKkXS2DBWkU1NnmFQx1c1L7pbGg4yhk",
        "reception_time": "2022-01-15T15:31:20.744-00:00",
        "errors":
          [ { "kind": "temporary",
              "id": "proto.011-PtHangz2.prefilter.outdated_endorsement" } ],
        "included_in_blocks":
          [ "BLjCJKaXiEFUQ7ZeRPs6URQBdknH3h7Fa91qbKivbjdPAAHvhrK" ] },
      { "delegate": "tz1S8e9GgdZG78XJRB3NqabfWeM37GnhZMWQ",
        "reception_time": "2022-01-15T15:31:20.480-00:00",
        "errors":
          [ { "kind": "temporary",
              "id": "proto.011-PtHangz2.prefilter.outdated_endorsement" } ],
        "included_in_blocks":
          [ "BLjCJKaXiEFUQ7ZeRPs6URQBdknH3h7Fa91qbKivbjdPAAHvhrK" ] },
      { "delegate": "tz1XXayQohB8XRXN7kMoHbf2NFwNiH3oMRQQ",
        "reception_time": "2022-01-15T15:31:20.469-00:00",
        "errors":
          [ { "kind": "temporary",
              "id": "proto.011-PtHangz2.prefilter.outdated_endorsement" } ],
        "included_in_blocks":
          [ "BLjCJKaXiEFUQ7ZeRPs6URQBdknH3h7Fa91qbKivbjdPAAHvhrK" ] },
      { "delegate": "tz1TRspM5SeZpaQUhzByXbEvqKF1vnCM2YTK" },
      { "delegate": "tz1dbfppLAAxXZNtf2SDps7rch3qfUznKSoK" },
      { "delegate": "tz1MQMiZHV8q4tTwUMWmS5Y3kaP6J2136iXr",
        "reception_time": "2022-01-15T15:31:23.371-00:00",
        "included_in_blocks":
          [ "BLjCJKaXiEFUQ7ZeRPs6URQBdknH3h7Fa91qbKivbjdPAAHvhrK" ] },
      { "delegate": "tz3adcvQaKXTCg12zbninqo3q8ptKKtDFTLv",
        "reception_time": "2022-01-15T15:31:23.522-00:00",
        "included_in_blocks":
          [ "BLjCJKaXiEFUQ7ZeRPs6URQBdknH3h7Fa91qbKivbjdPAAHvhrK" ] },
      { "delegate": "tz1ei4WtWEMEJekSv8qDnu9PExG6Q8HgRGr3",
        "reception_time": "2022-01-15T15:31:23.548-00:00",
        "included_in_blocks":
          [ "BLjCJKaXiEFUQ7ZeRPs6URQBdknH3h7Fa91qbKivbjdPAAHvhrK" ] },
      { "delegate": "tz3bTdwZinP8U1JmSweNzVKhmwafqWmFWRfk",
        "reception_time": "2022-01-15T15:31:23.556-00:00",
        "included_in_blocks":
          [ "BLjCJKaXiEFUQ7ZeRPs6URQBdknH3h7Fa91qbKivbjdPAAHvhrK" ] },
      { "delegate": "tz1RQhNh7iB9CZA7i3ifTWNwiGYVffponfbB",
        "reception_time": "2022-01-15T15:31:23.573-00:00",
        "included_in_blocks":
          [ "BLjCJKaXiEFUQ7ZeRPs6URQBdknH3h7Fa91qbKivbjdPAAHvhrK" ] },
      { "delegate": "tz1KfEsrtDaA1sX7vdM4qmEPWuSytuqCDp5j",
        "reception_time": "2022-01-15T15:31:23.576-00:00",
        "included_in_blocks":
          [ "BLjCJKaXiEFUQ7ZeRPs6URQBdknH3h7Fa91qbKivbjdPAAHvhrK" ] },
      { "delegate": "tz1gfArv665EUkSg2ojMBzcbfwuPxAvqPvjo",
        "reception_time": "2022-01-15T15:31:23.584-00:00",
        "included_in_blocks":
          [ "BLjCJKaXiEFUQ7ZeRPs6URQBdknH3h7Fa91qbKivbjdPAAHvhrK" ] },
      { "delegate": "tz1WBfwbT66FC6BTLexc2BoyCCBM9LG7pnVW",
        "reception_time": "2022-01-15T15:31:23.594-00:00",
        "included_in_blocks":
          [ "BLjCJKaXiEFUQ7ZeRPs6URQBdknH3h7Fa91qbKivbjdPAAHvhrK" ] },
      { "delegate": "tz1cwkVaVm1M59zoNZPm4VnYnmh18Eit8xXn",
        "reception_time": "2022-01-15T15:31:23.597-00:00",
        "included_in_blocks":
          [ "BLjCJKaXiEFUQ7ZeRPs6URQBdknH3h7Fa91qbKivbjdPAAHvhrK" ] },
      { "delegate": "tz1Nf6tsK4G6bBqgSQERy4nUtkHNKUVdh7q1",
        "reception_time": "2022-01-15T15:31:23.606-00:00",
        "included_in_blocks":
          [ "BLjCJKaXiEFUQ7ZeRPs6URQBdknH3h7Fa91qbKivbjdPAAHvhrK" ] },
      { "delegate": "tz1NortRftucvAkD1J58L32EhSVrQEWJCEnB",
        "reception_time": "2022-01-15T15:31:23.611-00:00",
        "included_in_blocks":
          [ "BLjCJKaXiEFUQ7ZeRPs6URQBdknH3h7Fa91qbKivbjdPAAHvhrK" ] },
      { "delegate": "tz1RCFbB9GpALpsZtu6J58sb74dm8qe6XBzv",
        "reception_time": "2022-01-15T15:31:23.618-00:00",
        "included_in_blocks":
          [ "BLjCJKaXiEFUQ7ZeRPs6URQBdknH3h7Fa91qbKivbjdPAAHvhrK" ] },
      { "delegate": "tz1TEc75UKXv4W5cwi14Na3NtqFD51yKQi7h",
        "reception_time": "2022-01-15T15:31:23.622-00:00",
        "included_in_blocks":
          [ "BLjCJKaXiEFUQ7ZeRPs6URQBdknH3h7Fa91qbKivbjdPAAHvhrK" ] },
      { "delegate": "tz1Tnjaxk6tbAeC2TmMApPh8UsrEVQvhHvx5",
        "reception_time": "2022-01-15T15:31:23.658-00:00",
        "included_in_blocks":
          [ "BLjCJKaXiEFUQ7ZeRPs6URQBdknH3h7Fa91qbKivbjdPAAHvhrK" ] },
      { "delegate": "tz3RB4aoyjov4KEVRbuhvQ1CKJgBJMWhaeB8",
        "reception_time": "2022-01-15T15:31:23.675-00:00",
        "included_in_blocks":
          [ "BLjCJKaXiEFUQ7ZeRPs6URQBdknH3h7Fa91qbKivbjdPAAHvhrK" ] },
      { "delegate": "tz1fwnfJNgiDACshK9avfRfFbMaXrs3ghoJa",
        "reception_time": "2022-01-15T15:31:23.732-00:00",
        "included_in_blocks":
          [ "BLjCJKaXiEFUQ7ZeRPs6URQBdknH3h7Fa91qbKivbjdPAAHvhrK" ] },
      { "delegate": "tz3RDC3Jdn4j15J7bBHZd29EUee9gVB1CxD9",
        "reception_time": "2022-01-15T15:31:23.851-00:00",
        "included_in_blocks":
          [ "BLjCJKaXiEFUQ7ZeRPs6URQBdknH3h7Fa91qbKivbjdPAAHvhrK" ] },
      { "delegate": "tz1PeZx7FXy7QRuMREGXGxeipb24RsMMzUNe",
        "reception_time": "2022-01-15T15:31:23.855-00:00",
        "included_in_blocks":
          [ "BLjCJKaXiEFUQ7ZeRPs6URQBdknH3h7Fa91qbKivbjdPAAHvhrK" ] },
      { "delegate": "tz1NEKxGEHsFufk87CVZcrqWu8o22qh46GK6",
        "reception_time": "2022-01-15T15:31:23.864-00:00",
        "included_in_blocks":
          [ "BLjCJKaXiEFUQ7ZeRPs6URQBdknH3h7Fa91qbKivbjdPAAHvhrK" ] },
      { "delegate": "tz3VEZ4k6a4Wx42iyev6i2aVAptTRLEAivNN",
        "reception_time": "2022-01-15T15:31:23.864-00:00",
        "included_in_blocks":
          [ "BLjCJKaXiEFUQ7ZeRPs6URQBdknH3h7Fa91qbKivbjdPAAHvhrK" ] },
      { "delegate": "tz1LmaFsWRkjr7QMCx5PtV6xTUz3AmEpKQiF",
        "reception_time": "2022-01-15T15:31:23.868-00:00",
        "included_in_blocks":
          [ "BLjCJKaXiEFUQ7ZeRPs6URQBdknH3h7Fa91qbKivbjdPAAHvhrK" ] },
      { "delegate": "tz1SYq214SCBy9naR6cvycQsYcUGpBqQAE8d",
        "reception_time": "2022-01-15T15:31:23.946-00:00",
        "included_in_blocks":
          [ "BLjCJKaXiEFUQ7ZeRPs6URQBdknH3h7Fa91qbKivbjdPAAHvhrK" ] },
      { "delegate": "tz3bvNMQ95vfAYtG8193ymshqjSvmxiCUuR5",
        "reception_time": "2022-01-15T15:31:23.952-00:00",
        "included_in_blocks":
          [ "BLjCJKaXiEFUQ7ZeRPs6URQBdknH3h7Fa91qbKivbjdPAAHvhrK" ] },
      { "delegate": "tz1abmz7jiCV2GH2u81LRrGgAFFgvQgiDiaf",
        "reception_time": "2022-01-15T15:31:24.059-00:00",
        "included_in_blocks":
          [ "BLjCJKaXiEFUQ7ZeRPs6URQBdknH3h7Fa91qbKivbjdPAAHvhrK" ] },
      { "delegate": "tz1S8MNvuFEUsWgjHvi3AxibRBf388NhT1q2",
        "reception_time": "2022-01-15T15:31:24.064-00:00",
        "included_in_blocks":
          [ "BLjCJKaXiEFUQ7ZeRPs6URQBdknH3h7Fa91qbKivbjdPAAHvhrK" ] },
      { "delegate": "tz1RjoHc98dBoqaH2jawF62XNKh7YsHwbkEv",
        "reception_time": "2022-01-15T15:31:24.160-00:00",
        "included_in_blocks":
          [ "BLjCJKaXiEFUQ7ZeRPs6URQBdknH3h7Fa91qbKivbjdPAAHvhrK" ] },
      { "delegate": "tz3WMqdzXqRWXwyvj5Hp2H7QEepaUuS7vd9K",
        "reception_time": "2022-01-15T15:31:24.222-00:00",
        "included_in_blocks":
          [ "BLjCJKaXiEFUQ7ZeRPs6URQBdknH3h7Fa91qbKivbjdPAAHvhrK" ] },
      { "delegate": "tz1T7duV5gZWSTq4YpBGbXNLTfznCLDrFxvs",
        "reception_time": "2022-01-15T15:31:24.378-00:00",
        "included_in_blocks":
          [ "BLjCJKaXiEFUQ7ZeRPs6URQBdknH3h7Fa91qbKivbjdPAAHvhrK" ] },
      { "delegate": "tz1NoYvKjXTzTk54VpLxBfouJ33J8jwKPPvw",
        "reception_time": "2022-01-15T15:31:24.813-00:00",
        "included_in_blocks":
          [ "BLjCJKaXiEFUQ7ZeRPs6URQBdknH3h7Fa91qbKivbjdPAAHvhrK" ] },
      { "delegate": "tz3UoffC7FG7zfpmvmjUmUeAaHvzdcUvAj6r",
        "reception_time": "2022-01-15T15:31:24.837-00:00",
        "included_in_blocks":
          [ "BLjCJKaXiEFUQ7ZeRPs6URQBdknH3h7Fa91qbKivbjdPAAHvhrK" ] },
      { "delegate": "tz3NExpXn9aPNZPorRE4SdjJ2RGrfbJgMAaV",
        "reception_time": "2022-01-15T15:31:24.866-00:00",
        "included_in_blocks":
          [ "BLjCJKaXiEFUQ7ZeRPs6URQBdknH3h7Fa91qbKivbjdPAAHvhrK" ] },
      { "delegate": "tz1cYufsxHXJcvANhvS55h3aY32a9BAFB494",
        "reception_time": "2022-01-15T15:31:24.953-00:00",
        "included_in_blocks":
          [ "BLjCJKaXiEFUQ7ZeRPs6URQBdknH3h7Fa91qbKivbjdPAAHvhrK" ] },
      { "delegate": "tz1TcH4Nb3aHNDJ7CGZhU7jgAK1BkSP4Lxds",
        "reception_time": "2022-01-15T15:31:24.992-00:00",
        "included_in_blocks":
          [ "BLjCJKaXiEFUQ7ZeRPs6URQBdknH3h7Fa91qbKivbjdPAAHvhrK" ] },
      { "delegate": "tz1cM8Xc7ZP1TrjkTeKq4PeRhtbnwXSBR6Sw",
        "reception_time": "2022-01-15T15:31:25.095-00:00",
        "included_in_blocks":
          [ "BLjCJKaXiEFUQ7ZeRPs6URQBdknH3h7Fa91qbKivbjdPAAHvhrK" ] },
      { "delegate": "tz1aRoaRhSpRYvFdyvgWLL6TGyRoGF51wDjM",
        "reception_time": "2022-01-15T15:31:25.184-00:00",
        "included_in_blocks":
          [ "BLjCJKaXiEFUQ7ZeRPs6URQBdknH3h7Fa91qbKivbjdPAAHvhrK" ] },
      { "delegate": "tz1TRqbYbUf2GyrjErf3hBzgBJPzW8y36qEs",
        "reception_time": "2022-01-15T15:31:25.753-00:00",
        "included_in_blocks":
          [ "BLjCJKaXiEFUQ7ZeRPs6URQBdknH3h7Fa91qbKivbjdPAAHvhrK" ] },
      { "delegate": "tz1b9MYGrbN1NAxphLEsPPNT9JC7aNFc5nA4",
        "reception_time": "2022-01-15T15:31:25.767-00:00",
        "included_in_blocks":
          [ "BLjCJKaXiEFUQ7ZeRPs6URQBdknH3h7Fa91qbKivbjdPAAHvhrK" ] },
      { "delegate": "tz2FCNBrERXtaTtNX6iimR1UJ5JSDxvdHM93",
        "reception_time": "2022-01-15T15:31:26.298-00:00",
        "included_in_blocks":
          [ "BLjCJKaXiEFUQ7ZeRPs6URQBdknH3h7Fa91qbKivbjdPAAHvhrK" ] },
      { "delegate": "tz1awXW7wuXy21c66vBudMXQVAPgRnqqwgTH",
        "reception_time": "2022-01-15T15:31:26.623-00:00",
        "included_in_blocks":
          [ "BLjCJKaXiEFUQ7ZeRPs6URQBdknH3h7Fa91qbKivbjdPAAHvhrK" ] },
      { "delegate": "tz1go7f6mEQfT2xX2LuHAqgnRGN6c2zHPf5c",
        "reception_time": "2022-01-15T15:31:30.873-00:00",
        "included_in_blocks":
          [ "BLjCJKaXiEFUQ7ZeRPs6URQBdknH3h7Fa91qbKivbjdPAAHvhrK" ] },
      { "delegate": "tz1NpWrAyDL9k2Lmnyxcgr9xuJakbBxdq7FB",
        "reception_time": "2022-01-15T15:31:34.300-00:00",
        "included_in_blocks":
          [ "BLjCJKaXiEFUQ7ZeRPs6URQBdknH3h7Fa91qbKivbjdPAAHvhrK" ] } ] }