{ "blocks":
    [ { "hash": "BLoyvDSLWd3rzrzhzBDsxLixqkVsKuNnXtQJEn2kcGG7udCr9nV",
        "delegate": "tz1gfArv665EUkSg2ojMBzcbfwuPxAvqPvjo",
        "reception_time": "2022-01-15T12:53:49.469-00:00",
        "timestamp": "2022-01-15T12:53:40Z" } ],
  "endorsements":
    [ { "delegate": "tz1TRspM5SeZpaQUhzByXbEvqKF1vnCM2YTK" },
      { "delegate": "tz1gfArv665EUkSg2ojMBzcbfwuPxAvqPvjo",
        "reception_time": "2022-01-15T12:53:49.073-00:00",
        "errors":
          [ { "kind": "temporary",
              "id": "proto.011-PtHangz2.prefilter.outdated_endorsement" } ],
        "included_in_blocks":
          [ "BM5oFK9KpScXDFkufAeoX8oeh6K5V5wGGHNxE6j9CMpAhkEY5aF" ] },
      { "delegate": "tz1NpWrAyDL9k2Lmnyxcgr9xuJakbBxdq7FB",
        "reception_time": "2022-01-15T12:54:01.075-00:00",
        "included_in_blocks":
          [ "BM5oFK9KpScXDFkufAeoX8oeh6K5V5wGGHNxE6j9CMpAhkEY5aF" ] },
      { "delegate": "tz1g8vkmcde6sWKaG2NN9WKzCkDM6Rziq194",
        "reception_time": "2022-01-15T12:53:59.759-00:00",
        "included_in_blocks":
          [ "BM5oFK9KpScXDFkufAeoX8oeh6K5V5wGGHNxE6j9CMpAhkEY5aF" ] },
      { "delegate": "tz1SYq214SCBy9naR6cvycQsYcUGpBqQAE8d",
        "reception_time": "2022-01-15T12:53:57.120-00:00",
        "included_in_blocks":
          [ "BM5oFK9KpScXDFkufAeoX8oeh6K5V5wGGHNxE6j9CMpAhkEY5aF" ] },
      { "delegate": "tz1h4GUAMweP7SNWzDgvMk3yRCAZyaP1MxZq",
        "reception_time": "2022-01-15T12:53:55.333-00:00",
        "included_in_blocks":
          [ "BM5oFK9KpScXDFkufAeoX8oeh6K5V5wGGHNxE6j9CMpAhkEY5aF" ] },
      { "delegate": "tz1S5WxdZR5f9NzsPXhr7L9L1vrEb5spZFur",
        "reception_time": "2022-01-15T12:53:54.325-00:00",
        "included_in_blocks":
          [ "BM5oFK9KpScXDFkufAeoX8oeh6K5V5wGGHNxE6j9CMpAhkEY5aF" ] },
      { "delegate": "tz1TcH4Nb3aHNDJ7CGZhU7jgAK1BkSP4Lxds",
        "reception_time": "2022-01-15T12:53:53.094-00:00",
        "included_in_blocks":
          [ "BM5oFK9KpScXDFkufAeoX8oeh6K5V5wGGHNxE6j9CMpAhkEY5aF" ] },
      { "delegate": "tz1ZcTRk5uxD86EFEn1vvNffWWqJy7q5eVhc",
        "reception_time": "2022-01-15T12:53:53.170-00:00",
        "included_in_blocks":
          [ "BM5oFK9KpScXDFkufAeoX8oeh6K5V5wGGHNxE6j9CMpAhkEY5aF" ] },
      { "delegate": "tz1dRKU4FQ9QRRQPdaH4zCR6gmCmXfcvcgtB",
        "reception_time": "2022-01-15T12:53:52.747-00:00",
        "included_in_blocks":
          [ "BM5oFK9KpScXDFkufAeoX8oeh6K5V5wGGHNxE6j9CMpAhkEY5aF" ] },
      { "delegate": "tz3UoffC7FG7zfpmvmjUmUeAaHvzdcUvAj6r",
        "reception_time": "2022-01-15T12:53:52.517-00:00",
        "included_in_blocks":
          [ "BM5oFK9KpScXDFkufAeoX8oeh6K5V5wGGHNxE6j9CMpAhkEY5aF" ] },
      { "delegate": "tz1eVaNx3gCmG1EsLjijkmgAxdLYVf6Bf5Sq",
        "reception_time": "2022-01-15T12:53:52.583-00:00",
        "included_in_blocks":
          [ "BM5oFK9KpScXDFkufAeoX8oeh6K5V5wGGHNxE6j9CMpAhkEY5aF" ] },
      { "delegate": "tz3NExpXn9aPNZPorRE4SdjJ2RGrfbJgMAaV",
        "reception_time": "2022-01-15T12:53:52.508-00:00",
        "included_in_blocks":
          [ "BM5oFK9KpScXDFkufAeoX8oeh6K5V5wGGHNxE6j9CMpAhkEY5aF" ] },
      { "delegate": "tz3WMqdzXqRWXwyvj5Hp2H7QEepaUuS7vd9K",
        "reception_time": "2022-01-15T12:53:52.268-00:00",
        "included_in_blocks":
          [ "BM5oFK9KpScXDFkufAeoX8oeh6K5V5wGGHNxE6j9CMpAhkEY5aF" ] },
      { "delegate": "tz3bvNMQ95vfAYtG8193ymshqjSvmxiCUuR5",
        "reception_time": "2022-01-15T12:53:52.222-00:00",
        "included_in_blocks":
          [ "BM5oFK9KpScXDFkufAeoX8oeh6K5V5wGGHNxE6j9CMpAhkEY5aF" ] },
      { "delegate": "tz1RAQJ6mcKiG6odfM3RH7iJYR1aRWRAuf5T",
        "reception_time": "2022-01-15T12:53:52.262-00:00",
        "included_in_blocks":
          [ "BM5oFK9KpScXDFkufAeoX8oeh6K5V5wGGHNxE6j9CMpAhkEY5aF" ] },
      { "delegate": "tz1dNVDWPf3Q59SdJqnjdnu277iyvReiRS9M",
        "reception_time": "2022-01-15T12:53:52.255-00:00",
        "included_in_blocks":
          [ "BM5oFK9KpScXDFkufAeoX8oeh6K5V5wGGHNxE6j9CMpAhkEY5aF" ] },
      { "delegate": "tz1NEKxGEHsFufk87CVZcrqWu8o22qh46GK6",
        "reception_time": "2022-01-15T12:53:52.166-00:00",
        "included_in_blocks":
          [ "BM5oFK9KpScXDFkufAeoX8oeh6K5V5wGGHNxE6j9CMpAhkEY5aF" ] },
      { "delegate": "tz3RB4aoyjov4KEVRbuhvQ1CKJgBJMWhaeB8",
        "reception_time": "2022-01-15T12:53:52.057-00:00",
        "included_in_blocks":
          [ "BM5oFK9KpScXDFkufAeoX8oeh6K5V5wGGHNxE6j9CMpAhkEY5aF" ] },
      { "delegate": "tz3RDC3Jdn4j15J7bBHZd29EUee9gVB1CxD9",
        "reception_time": "2022-01-15T12:53:52.049-00:00",
        "included_in_blocks":
          [ "BM5oFK9KpScXDFkufAeoX8oeh6K5V5wGGHNxE6j9CMpAhkEY5aF" ] },
      { "delegate": "tz1Zdk8q7wNasmv7VFeQ6QFwcw5fP2c7StoF",
        "reception_time": "2022-01-15T12:53:52.104-00:00",
        "included_in_blocks":
          [ "BM5oFK9KpScXDFkufAeoX8oeh6K5V5wGGHNxE6j9CMpAhkEY5aF" ] },
      { "delegate": "tz1awXW7wuXy21c66vBudMXQVAPgRnqqwgTH",
        "reception_time": "2022-01-15T12:53:51.961-00:00",
        "included_in_blocks":
          [ "BM5oFK9KpScXDFkufAeoX8oeh6K5V5wGGHNxE6j9CMpAhkEY5aF" ] },
      { "delegate": "tz3VEZ4k6a4Wx42iyev6i2aVAptTRLEAivNN",
        "reception_time": "2022-01-15T12:53:51.968-00:00",
        "included_in_blocks":
          [ "BM5oFK9KpScXDFkufAeoX8oeh6K5V5wGGHNxE6j9CMpAhkEY5aF" ] },
      { "delegate": "tz1aRoaRhSpRYvFdyvgWLL6TGyRoGF51wDjM",
        "reception_time": "2022-01-15T12:53:51.877-00:00",
        "included_in_blocks":
          [ "BM5oFK9KpScXDFkufAeoX8oeh6K5V5wGGHNxE6j9CMpAhkEY5aF" ] },
      { "delegate": "tz1RjoHc98dBoqaH2jawF62XNKh7YsHwbkEv",
        "reception_time": "2022-01-15T12:53:51.850-00:00",
        "included_in_blocks":
          [ "BM5oFK9KpScXDFkufAeoX8oeh6K5V5wGGHNxE6j9CMpAhkEY5aF" ] },
      { "delegate": "tz1TRqbYbUf2GyrjErf3hBzgBJPzW8y36qEs",
        "reception_time": "2022-01-15T12:53:51.488-00:00",
        "included_in_blocks":
          [ "BM5oFK9KpScXDFkufAeoX8oeh6K5V5wGGHNxE6j9CMpAhkEY5aF" ] },
      { "delegate": "tz1TEc75UKXv4W5cwi14Na3NtqFD51yKQi7h",
        "reception_time": "2022-01-15T12:53:51.578-00:00",
        "included_in_blocks":
          [ "BM5oFK9KpScXDFkufAeoX8oeh6K5V5wGGHNxE6j9CMpAhkEY5aF" ] },
      { "delegate": "tz1Nf6tsK4G6bBqgSQERy4nUtkHNKUVdh7q1",
        "reception_time": "2022-01-15T12:53:51.507-00:00",
        "included_in_blocks":
          [ "BM5oFK9KpScXDFkufAeoX8oeh6K5V5wGGHNxE6j9CMpAhkEY5aF" ] },
      { "delegate": "tz2FCNBrERXtaTtNX6iimR1UJ5JSDxvdHM93",
        "reception_time": "2022-01-15T12:53:51.421-00:00",
        "included_in_blocks":
          [ "BM5oFK9KpScXDFkufAeoX8oeh6K5V5wGGHNxE6j9CMpAhkEY5aF" ] },
      { "delegate": "tz1SohptP53wDPZhzTWzDUFAUcWF6DMBpaJV",
        "reception_time": "2022-01-15T12:53:51.424-00:00",
        "included_in_blocks":
          [ "BM5oFK9KpScXDFkufAeoX8oeh6K5V5wGGHNxE6j9CMpAhkEY5aF" ] },
      { "delegate": "tz3NDpRj6WBrJPikcPVHRBEjWKxFw3c6eQPS",
        "reception_time": "2022-01-15T12:53:51.366-00:00",
        "included_in_blocks":
          [ "BM5oFK9KpScXDFkufAeoX8oeh6K5V5wGGHNxE6j9CMpAhkEY5aF" ] },
      { "delegate": "tz3gLTu4Yxj8tPAcriQVUdxv6BY9QyvzU1az",
        "reception_time": "2022-01-15T12:53:51.374-00:00",
        "included_in_blocks":
          [ "BM5oFK9KpScXDFkufAeoX8oeh6K5V5wGGHNxE6j9CMpAhkEY5aF" ] },
      { "delegate": "tz1WBfwbT66FC6BTLexc2BoyCCBM9LG7pnVW",
        "reception_time": "2022-01-15T12:53:51.295-00:00",
        "included_in_blocks":
          [ "BM5oFK9KpScXDFkufAeoX8oeh6K5V5wGGHNxE6j9CMpAhkEY5aF" ] },
      { "delegate": "tz1MQJPGNMijnXnVoBENFz9rUhaPt3S7rWoz",
        "reception_time": "2022-01-15T12:53:51.395-00:00",
        "included_in_blocks":
          [ "BM5oFK9KpScXDFkufAeoX8oeh6K5V5wGGHNxE6j9CMpAhkEY5aF" ] },
      { "delegate": "tz1RCFbB9GpALpsZtu6J58sb74dm8qe6XBzv",
        "reception_time": "2022-01-15T12:53:51.209-00:00",
        "included_in_blocks":
          [ "BM5oFK9KpScXDFkufAeoX8oeh6K5V5wGGHNxE6j9CMpAhkEY5aF" ] },
      { "delegate": "tz1KfEsrtDaA1sX7vdM4qmEPWuSytuqCDp5j",
        "reception_time": "2022-01-15T12:53:51.047-00:00",
        "included_in_blocks":
          [ "BM5oFK9KpScXDFkufAeoX8oeh6K5V5wGGHNxE6j9CMpAhkEY5aF" ] },
      { "delegate": "tz1Tnjaxk6tbAeC2TmMApPh8UsrEVQvhHvx5",
        "reception_time": "2022-01-15T12:53:51.130-00:00",
        "included_in_blocks":
          [ "BM5oFK9KpScXDFkufAeoX8oeh6K5V5wGGHNxE6j9CMpAhkEY5aF" ] },
      { "delegate": "tz1ei4WtWEMEJekSv8qDnu9PExG6Q8HgRGr3",
        "reception_time": "2022-01-15T12:53:51.188-00:00",
        "included_in_blocks":
          [ "BM5oFK9KpScXDFkufAeoX8oeh6K5V5wGGHNxE6j9CMpAhkEY5aF" ] },
      { "delegate": "tz3bTdwZinP8U1JmSweNzVKhmwafqWmFWRfk",
        "reception_time": "2022-01-15T12:53:51.022-00:00",
        "included_in_blocks":
          [ "BM5oFK9KpScXDFkufAeoX8oeh6K5V5wGGHNxE6j9CMpAhkEY5aF" ] },
      { "delegate": "tz1bHzftcTKZMTZgLLtnrXydCm6UEqf4ivca",
        "reception_time": "2022-01-15T12:53:51.078-00:00",
        "included_in_blocks":
          [ "BM5oFK9KpScXDFkufAeoX8oeh6K5V5wGGHNxE6j9CMpAhkEY5aF" ] },
      { "delegate": "tz1abmz7jiCV2GH2u81LRrGgAFFgvQgiDiaf",
        "reception_time": "2022-01-15T12:53:51.080-00:00",
        "included_in_blocks":
          [ "BM5oFK9KpScXDFkufAeoX8oeh6K5V5wGGHNxE6j9CMpAhkEY5aF" ] },
      { "delegate": "tz1iPHM2Xx2hwmzcr1EG1zzrV6oKafVoA91m",
        "reception_time": "2022-01-15T12:53:51.185-00:00",
        "included_in_blocks":
          [ "BM5oFK9KpScXDFkufAeoX8oeh6K5V5wGGHNxE6j9CMpAhkEY5aF" ] },
      { "delegate": "tz1fb7c66UwePkkfDXz4ajFaBP9hVNLdS7JJ",
        "reception_time": "2022-01-15T12:53:50.953-00:00",
        "included_in_blocks":
          [ "BM5oFK9KpScXDFkufAeoX8oeh6K5V5wGGHNxE6j9CMpAhkEY5aF" ] },
      { "delegate": "tz1Lc87p6zRaDwzJs9kHvdpm7XzeWE8QTwVB",
        "reception_time": "2022-01-15T12:53:50.901-00:00",
        "included_in_blocks":
          [ "BM5oFK9KpScXDFkufAeoX8oeh6K5V5wGGHNxE6j9CMpAhkEY5aF" ] },
      { "delegate": "tz1S8MNvuFEUsWgjHvi3AxibRBf388NhT1q2",
        "reception_time": "2022-01-15T12:53:50.929-00:00",
        "included_in_blocks":
          [ "BM5oFK9KpScXDFkufAeoX8oeh6K5V5wGGHNxE6j9CMpAhkEY5aF" ] },
      { "delegate": "tz1cSj7fTex3JPd1p1LN1fwek6AV1kH93Wwc",
        "reception_time": "2022-01-15T12:53:50.980-00:00",
        "included_in_blocks":
          [ "BM5oFK9KpScXDFkufAeoX8oeh6K5V5wGGHNxE6j9CMpAhkEY5aF" ] },
      { "delegate": "tz1fPKAtsYydh4f1wfWNfeNxWYu72TmM48fu",
        "reception_time": "2022-01-15T12:53:50.885-00:00",
        "included_in_blocks":
          [ "BM5oFK9KpScXDFkufAeoX8oeh6K5V5wGGHNxE6j9CMpAhkEY5aF" ] },
      { "delegate": "tz1NSDFKuRyzHxpfG1AMkyCwEiZ52cbR2mRW",
        "reception_time": "2022-01-15T12:53:50.927-00:00",
        "included_in_blocks":
          [ "BM5oFK9KpScXDFkufAeoX8oeh6K5V5wGGHNxE6j9CMpAhkEY5aF" ] },
      { "delegate": "tz3adcvQaKXTCg12zbninqo3q8ptKKtDFTLv",
        "reception_time": "2022-01-15T12:53:50.683-00:00",
        "included_in_blocks":
          [ "BM5oFK9KpScXDFkufAeoX8oeh6K5V5wGGHNxE6j9CMpAhkEY5aF" ] },
      { "delegate": "tz1LmaFsWRkjr7QMCx5PtV6xTUz3AmEpKQiF",
        "reception_time": "2022-01-15T12:53:50.859-00:00",
        "included_in_blocks":
          [ "BM5oFK9KpScXDFkufAeoX8oeh6K5V5wGGHNxE6j9CMpAhkEY5aF" ] },
      { "delegate": "tz1Ldzz6k1BHdhuKvAtMRX7h5kJSMHESMHLC",
        "reception_time": "2022-01-15T12:53:50.533-00:00",
        "included_in_blocks":
          [ "BM5oFK9KpScXDFkufAeoX8oeh6K5V5wGGHNxE6j9CMpAhkEY5aF" ] },
      { "delegate": "tz1fUyqYH7H4pRHN1roWY17giXhy1RvxjgUV",
        "reception_time": "2022-01-15T12:53:50.617-00:00",
        "included_in_blocks":
          [ "BM5oFK9KpScXDFkufAeoX8oeh6K5V5wGGHNxE6j9CMpAhkEY5aF" ] },
      { "delegate": "tz1gUNyn3hmnEWqkusWPzxRaon1cs7ndWh7h",
        "reception_time": "2022-01-15T12:53:50.716-00:00",
        "included_in_blocks":
          [ "BM5oFK9KpScXDFkufAeoX8oeh6K5V5wGGHNxE6j9CMpAhkEY5aF" ] },
      { "delegate": "tz1VQnqCCqX4K5sP3FNkVSNKTdCAMJDd3E1n",
        "reception_time": "2022-01-15T12:53:50.393-00:00",
        "included_in_blocks":
          [ "BM5oFK9KpScXDFkufAeoX8oeh6K5V5wGGHNxE6j9CMpAhkEY5aF" ] },
      { "delegate": "tz1TzaNn7wSQSP5gYPXCnNzBCpyMiidCq1PX",
        "reception_time": "2022-01-15T12:53:50.490-00:00",
        "included_in_blocks":
          [ "BM5oFK9KpScXDFkufAeoX8oeh6K5V5wGGHNxE6j9CMpAhkEY5aF" ] },
      { "delegate": "tz3RKYFsLuQzKBtmYuLNas7uMu3AsYd4QdsA",
        "reception_time": "2022-01-15T12:53:50.468-00:00",
        "included_in_blocks":
          [ "BM5oFK9KpScXDFkufAeoX8oeh6K5V5wGGHNxE6j9CMpAhkEY5aF" ] },
      { "delegate": "tz3iJu5vrKZcsqRPs8yJ61UDoeEXZmtro4qh",
        "reception_time": "2022-01-15T12:53:50.415-00:00",
        "included_in_blocks":
          [ "BM5oFK9KpScXDFkufAeoX8oeh6K5V5wGGHNxE6j9CMpAhkEY5aF" ] },
      { "delegate": "tz3Zhs2dygr55yHyQyKjntAtY9bgfhLZ4Xj1",
        "reception_time": "2022-01-15T12:53:50.406-00:00",
        "included_in_blocks":
          [ "BM5oFK9KpScXDFkufAeoX8oeh6K5V5wGGHNxE6j9CMpAhkEY5aF" ] },
      { "delegate": "tz3gtoUxdudfBRcNY7iVdKPHCYYX6xdPpoRS",
        "reception_time": "2022-01-15T12:53:50.376-00:00",
        "included_in_blocks":
          [ "BM5oFK9KpScXDFkufAeoX8oeh6K5V5wGGHNxE6j9CMpAhkEY5aF" ] },
      { "delegate": "tz3hw2kqXhLUvY65ca1eety2oQTpAvd34R9Q",
        "reception_time": "2022-01-15T12:53:50.498-00:00",
        "included_in_blocks":
          [ "BM5oFK9KpScXDFkufAeoX8oeh6K5V5wGGHNxE6j9CMpAhkEY5aF" ] },
      { "delegate": "tz3QSGPoRp3Kn7n3vY24eYeu3Peuqo45LQ4D",
        "reception_time": "2022-01-15T12:53:50.426-00:00",
        "included_in_blocks":
          [ "BM5oFK9KpScXDFkufAeoX8oeh6K5V5wGGHNxE6j9CMpAhkEY5aF" ] },
      { "delegate": "tz3S6BBeKgJGXxvLyZ1xzXzMPn11nnFtq5L9",
        "reception_time": "2022-01-15T12:53:50.437-00:00",
        "included_in_blocks":
          [ "BM5oFK9KpScXDFkufAeoX8oeh6K5V5wGGHNxE6j9CMpAhkEY5aF" ] },
      { "delegate": "tz1YhNsiRRU8aHNGg7NK3uuP6UDAyacJernB",
        "reception_time": "2022-01-15T12:53:50.480-00:00",
        "included_in_blocks":
          [ "BM5oFK9KpScXDFkufAeoX8oeh6K5V5wGGHNxE6j9CMpAhkEY5aF" ] },
      { "delegate": "tz3NxTnke1acr8o3h5y9ytf5awQBGNJUKzVU",
        "reception_time": "2022-01-15T12:53:50.406-00:00",
        "included_in_blocks":
          [ "BM5oFK9KpScXDFkufAeoX8oeh6K5V5wGGHNxE6j9CMpAhkEY5aF" ] },
      { "delegate": "tz3ZbP2pM3nwvXztbuMJwJnDvV5xdpU8UkkD",
        "reception_time": "2022-01-15T12:53:50.390-00:00",
        "included_in_blocks":
          [ "BM5oFK9KpScXDFkufAeoX8oeh6K5V5wGGHNxE6j9CMpAhkEY5aF" ] },
      { "delegate": "tz1Kf25fX1VdmYGSEzwFy1wNmkbSEZ2V83sY",
        "reception_time": "2022-01-15T12:53:50.380-00:00",
        "included_in_blocks":
          [ "BM5oFK9KpScXDFkufAeoX8oeh6K5V5wGGHNxE6j9CMpAhkEY5aF" ] },
      { "delegate": "tz1eEnQhbwf6trb8Q8mPb2RaPkNk2rN7BKi8",
        "reception_time": "2022-01-15T12:53:50.333-00:00",
        "included_in_blocks":
          [ "BM5oFK9KpScXDFkufAeoX8oeh6K5V5wGGHNxE6j9CMpAhkEY5aF" ] },
      { "delegate": "tz1P2Po7YM526ughEsRbY4oR9zaUPDZjxFrb",
        "reception_time": "2022-01-15T12:53:50.348-00:00",
        "included_in_blocks":
          [ "BM5oFK9KpScXDFkufAeoX8oeh6K5V5wGGHNxE6j9CMpAhkEY5aF" ] },
      { "delegate": "tz1irJKkXS2DBWkU1NnmFQx1c1L7pbGg4yhk",
        "reception_time": "2022-01-15T12:53:50.426-00:00",
        "included_in_blocks":
          [ "BM5oFK9KpScXDFkufAeoX8oeh6K5V5wGGHNxE6j9CMpAhkEY5aF" ] },
      { "delegate": "tz1beersuEDv8Z7ngQ825xfbaJNS2EhXnyHR",
        "reception_time": "2022-01-15T12:53:50.343-00:00",
        "included_in_blocks":
          [ "BM5oFK9KpScXDFkufAeoX8oeh6K5V5wGGHNxE6j9CMpAhkEY5aF" ] },
      { "delegate": "tz1Scdr2HsZiQjc7bHMeBbmDRXYVvdhjJbBh",
        "reception_time": "2022-01-15T12:53:50.361-00:00",
        "included_in_blocks":
          [ "BM5oFK9KpScXDFkufAeoX8oeh6K5V5wGGHNxE6j9CMpAhkEY5aF" ] } ] }