{ "blocks":
    [ { "hash": "BMYRqgNXYcGte9939Kk7ceVH593hg37LpUe1tCcLaZAeNbEhRn6",
        "delegate": "tz1P2Po7YM526ughEsRbY4oR9zaUPDZjxFrb",
        "reception_time": "2022-01-15T15:54:50.021-00:00",
        "timestamp": "2022-01-15T15:54:40Z" } ],
  "endorsements":
    [ { "delegate": "tz1TRspM5SeZpaQUhzByXbEvqKF1vnCM2YTK" },
      { "delegate": "tz1NdhRv643wLW6zCcRP3VfT24dvDnh7nuh9" },
      { "delegate": "tz3QT9dHYKDqh563chVa6za8526ys1UKfRfL",
        "reception_time": "2022-01-15T15:54:49.981-00:00",
        "errors":
          [ { "kind": "temporary",
              "id": "proto.011-PtHangz2.prefilter.outdated_endorsement" } ],
        "included_in_blocks":
          [ "BL64KUm1HKDy1kTQLwUMxL5f6fFwA3Uaz2K4VME5GkRre6VG6f8" ] },
      { "delegate": "tz3gtoUxdudfBRcNY7iVdKPHCYYX6xdPpoRS",
        "reception_time": "2022-01-15T15:54:49.959-00:00",
        "errors":
          [ { "kind": "temporary",
              "id": "proto.011-PtHangz2.prefilter.outdated_endorsement" } ],
        "included_in_blocks":
          [ "BL64KUm1HKDy1kTQLwUMxL5f6fFwA3Uaz2K4VME5GkRre6VG6f8" ] },
      { "delegate": "tz3NxTnke1acr8o3h5y9ytf5awQBGNJUKzVU",
        "reception_time": "2022-01-15T15:54:49.873-00:00",
        "errors":
          [ { "kind": "temporary",
              "id": "proto.011-PtHangz2.prefilter.outdated_endorsement" } ],
        "included_in_blocks":
          [ "BL64KUm1HKDy1kTQLwUMxL5f6fFwA3Uaz2K4VME5GkRre6VG6f8" ] },
      { "delegate": "tz3RKYFsLuQzKBtmYuLNas7uMu3AsYd4QdsA",
        "reception_time": "2022-01-15T15:54:49.872-00:00",
        "errors":
          [ { "kind": "temporary",
              "id": "proto.011-PtHangz2.prefilter.outdated_endorsement" } ],
        "included_in_blocks":
          [ "BL64KUm1HKDy1kTQLwUMxL5f6fFwA3Uaz2K4VME5GkRre6VG6f8" ] },
      { "delegate": "tz1Ldzz6k1BHdhuKvAtMRX7h5kJSMHESMHLC",
        "reception_time": "2022-01-15T15:54:49.872-00:00",
        "errors":
          [ { "kind": "temporary",
              "id": "proto.011-PtHangz2.prefilter.outdated_endorsement" } ],
        "included_in_blocks":
          [ "BL64KUm1HKDy1kTQLwUMxL5f6fFwA3Uaz2K4VME5GkRre6VG6f8" ] },
      { "delegate": "tz3S6BBeKgJGXxvLyZ1xzXzMPn11nnFtq5L9",
        "reception_time": "2022-01-15T15:54:49.872-00:00",
        "errors":
          [ { "kind": "temporary",
              "id": "proto.011-PtHangz2.prefilter.outdated_endorsement" } ],
        "included_in_blocks":
          [ "BL64KUm1HKDy1kTQLwUMxL5f6fFwA3Uaz2K4VME5GkRre6VG6f8" ] },
      { "delegate": "tz3ZbP2pM3nwvXztbuMJwJnDvV5xdpU8UkkD",
        "reception_time": "2022-01-15T15:54:49.854-00:00",
        "errors":
          [ { "kind": "temporary",
              "id": "proto.011-PtHangz2.prefilter.outdated_endorsement" } ],
        "included_in_blocks":
          [ "BL64KUm1HKDy1kTQLwUMxL5f6fFwA3Uaz2K4VME5GkRre6VG6f8" ] },
      { "delegate": "tz1Kt4P8BCaP93AEV4eA7gmpRryWt5hznjCP",
        "reception_time": "2022-01-15T15:54:49.735-00:00",
        "errors":
          [ { "kind": "temporary",
              "id": "proto.011-PtHangz2.prefilter.outdated_endorsement" } ],
        "included_in_blocks":
          [ "BL64KUm1HKDy1kTQLwUMxL5f6fFwA3Uaz2K4VME5GkRre6VG6f8" ] },
      { "delegate": "tz1aXD7Jigrt3PBYSpHSg5Rr33SexMmmM5Ys",
        "reception_time": "2022-01-15T15:54:49.614-00:00",
        "errors":
          [ { "kind": "temporary",
              "id": "proto.011-PtHangz2.prefilter.outdated_endorsement" } ],
        "included_in_blocks":
          [ "BL64KUm1HKDy1kTQLwUMxL5f6fFwA3Uaz2K4VME5GkRre6VG6f8" ] },
      { "delegate": "tz1irJKkXS2DBWkU1NnmFQx1c1L7pbGg4yhk",
        "reception_time": "2022-01-15T15:54:49.455-00:00",
        "errors":
          [ { "kind": "temporary",
              "id": "proto.011-PtHangz2.prefilter.outdated_endorsement" } ],
        "included_in_blocks":
          [ "BL64KUm1HKDy1kTQLwUMxL5f6fFwA3Uaz2K4VME5GkRre6VG6f8" ] },
      { "delegate": "tz1gUNyn3hmnEWqkusWPzxRaon1cs7ndWh7h",
        "reception_time": "2022-01-15T15:54:49.393-00:00",
        "errors":
          [ { "kind": "temporary",
              "id": "proto.011-PtHangz2.prefilter.outdated_endorsement" } ],
        "included_in_blocks":
          [ "BL64KUm1HKDy1kTQLwUMxL5f6fFwA3Uaz2K4VME5GkRre6VG6f8" ] },
      { "delegate": "tz1VQnqCCqX4K5sP3FNkVSNKTdCAMJDd3E1n",
        "reception_time": "2022-01-15T15:54:49.333-00:00",
        "errors":
          [ { "kind": "temporary",
              "id": "proto.011-PtHangz2.prefilter.outdated_endorsement" } ],
        "included_in_blocks":
          [ "BL64KUm1HKDy1kTQLwUMxL5f6fFwA3Uaz2K4VME5GkRre6VG6f8" ] },
      { "delegate": "tz1d9ek6HrScY6QRZ71NJdB85MNz8gKGBjrv",
        "reception_time": "2022-01-15T15:54:49.312-00:00",
        "errors":
          [ { "kind": "temporary",
              "id": "proto.011-PtHangz2.prefilter.outdated_endorsement" } ],
        "included_in_blocks":
          [ "BL64KUm1HKDy1kTQLwUMxL5f6fFwA3Uaz2K4VME5GkRre6VG6f8" ] },
      { "delegate": "tz1Scdr2HsZiQjc7bHMeBbmDRXYVvdhjJbBh",
        "reception_time": "2022-01-15T15:54:49.311-00:00",
        "errors":
          [ { "kind": "temporary",
              "id": "proto.011-PtHangz2.prefilter.outdated_endorsement" } ],
        "included_in_blocks":
          [ "BL64KUm1HKDy1kTQLwUMxL5f6fFwA3Uaz2K4VME5GkRre6VG6f8" ] },
      { "delegate": "tz1eEnQhbwf6trb8Q8mPb2RaPkNk2rN7BKi8",
        "reception_time": "2022-01-15T15:54:49.251-00:00",
        "errors":
          [ { "kind": "temporary",
              "id": "proto.011-PtHangz2.prefilter.outdated_endorsement" } ],
        "included_in_blocks":
          [ "BL64KUm1HKDy1kTQLwUMxL5f6fFwA3Uaz2K4VME5GkRre6VG6f8" ] },
      { "delegate": "tz1MXFrtZoaXckE41bjUCSjAjAap3AFDSr3N",
        "reception_time": "2022-01-15T15:54:49.218-00:00",
        "errors":
          [ { "kind": "temporary",
              "id": "proto.011-PtHangz2.prefilter.outdated_endorsement" } ],
        "included_in_blocks":
          [ "BL64KUm1HKDy1kTQLwUMxL5f6fFwA3Uaz2K4VME5GkRre6VG6f8" ] },
      { "delegate": "tz1P2Po7YM526ughEsRbY4oR9zaUPDZjxFrb",
        "reception_time": "2022-01-15T15:54:49.095-00:00",
        "errors":
          [ { "kind": "temporary",
              "id": "proto.011-PtHangz2.prefilter.outdated_endorsement" } ],
        "included_in_blocks":
          [ "BL64KUm1HKDy1kTQLwUMxL5f6fFwA3Uaz2K4VME5GkRre6VG6f8" ] },
      { "delegate": "tz1STeamwbp68THcny9zk3LsbG3H36DMvbRK",
        "reception_time": "2022-01-15T15:54:48.946-00:00",
        "errors":
          [ { "kind": "temporary",
              "id": "proto.011-PtHangz2.prefilter.outdated_endorsement" } ],
        "included_in_blocks":
          [ "BL64KUm1HKDy1kTQLwUMxL5f6fFwA3Uaz2K4VME5GkRre6VG6f8" ] },
      { "delegate": "tz1Lhf4J9Qxoe3DZ2nfe8FGDnvVj7oKjnMY6",
        "reception_time": "2022-01-15T15:54:48.831-00:00",
        "errors":
          [ { "kind": "temporary",
              "id": "proto.011-PtHangz2.prefilter.outdated_endorsement" } ],
        "included_in_blocks":
          [ "BL64KUm1HKDy1kTQLwUMxL5f6fFwA3Uaz2K4VME5GkRre6VG6f8" ] },
      { "delegate": "tz1S8e9GgdZG78XJRB3NqabfWeM37GnhZMWQ",
        "reception_time": "2022-01-15T15:54:48.794-00:00",
        "errors":
          [ { "kind": "temporary",
              "id": "proto.011-PtHangz2.prefilter.outdated_endorsement" } ],
        "included_in_blocks":
          [ "BL64KUm1HKDy1kTQLwUMxL5f6fFwA3Uaz2K4VME5GkRre6VG6f8" ] },
      { "delegate": "tz1dfg9PkvRLf7hKMmGdGRhXWCbd8QgbwBF7",
        "reception_time": "2022-01-15T15:54:56.305-00:00",
        "included_in_blocks":
          [ "BL64KUm1HKDy1kTQLwUMxL5f6fFwA3Uaz2K4VME5GkRre6VG6f8" ] },
      { "delegate": "tz1awXW7wuXy21c66vBudMXQVAPgRnqqwgTH",
        "reception_time": "2022-01-15T15:54:54.390-00:00",
        "included_in_blocks":
          [ "BL64KUm1HKDy1kTQLwUMxL5f6fFwA3Uaz2K4VME5GkRre6VG6f8" ] },
      { "delegate": "tz1QccGQsmt7WMnbVX9inJQgEuQGeMXddfjp",
        "reception_time": "2022-01-15T15:54:54.057-00:00",
        "included_in_blocks":
          [ "BL64KUm1HKDy1kTQLwUMxL5f6fFwA3Uaz2K4VME5GkRre6VG6f8" ] },
      { "delegate": "tz1aJS7Pk9uWR3wWyFf1i3RwhYxN84G7stom",
        "reception_time": "2022-01-15T15:54:53.483-00:00",
        "included_in_blocks":
          [ "BL64KUm1HKDy1kTQLwUMxL5f6fFwA3Uaz2K4VME5GkRre6VG6f8" ] },
      { "delegate": "tz1cYufsxHXJcvANhvS55h3aY32a9BAFB494",
        "reception_time": "2022-01-15T15:54:53.415-00:00",
        "included_in_blocks":
          [ "BL64KUm1HKDy1kTQLwUMxL5f6fFwA3Uaz2K4VME5GkRre6VG6f8" ] },
      { "delegate": "tz1ZcTRk5uxD86EFEn1vvNffWWqJy7q5eVhc",
        "reception_time": "2022-01-15T15:54:53.015-00:00",
        "included_in_blocks":
          [ "BL64KUm1HKDy1kTQLwUMxL5f6fFwA3Uaz2K4VME5GkRre6VG6f8" ] },
      { "delegate": "tz1RzwaogUQ8zPntqrSn4yn5f3VquXfEH5Jo",
        "reception_time": "2022-01-15T15:54:53.073-00:00",
        "included_in_blocks":
          [ "BL64KUm1HKDy1kTQLwUMxL5f6fFwA3Uaz2K4VME5GkRre6VG6f8" ] },
      { "delegate": "tz1aRoaRhSpRYvFdyvgWLL6TGyRoGF51wDjM",
        "reception_time": "2022-01-15T15:54:52.729-00:00",
        "included_in_blocks":
          [ "BL64KUm1HKDy1kTQLwUMxL5f6fFwA3Uaz2K4VME5GkRre6VG6f8" ] },
      { "delegate": "tz3NExpXn9aPNZPorRE4SdjJ2RGrfbJgMAaV",
        "reception_time": "2022-01-15T15:54:52.655-00:00",
        "included_in_blocks":
          [ "BL64KUm1HKDy1kTQLwUMxL5f6fFwA3Uaz2K4VME5GkRre6VG6f8" ] },
      { "delegate": "tz1RjoHc98dBoqaH2jawF62XNKh7YsHwbkEv",
        "reception_time": "2022-01-15T15:54:52.639-00:00",
        "included_in_blocks":
          [ "BL64KUm1HKDy1kTQLwUMxL5f6fFwA3Uaz2K4VME5GkRre6VG6f8" ] },
      { "delegate": "tz1TRqbYbUf2GyrjErf3hBzgBJPzW8y36qEs",
        "reception_time": "2022-01-15T15:54:52.467-00:00",
        "included_in_blocks":
          [ "BL64KUm1HKDy1kTQLwUMxL5f6fFwA3Uaz2K4VME5GkRre6VG6f8" ] },
      { "delegate": "tz1T7duV5gZWSTq4YpBGbXNLTfznCLDrFxvs",
        "reception_time": "2022-01-15T15:54:52.356-00:00",
        "included_in_blocks":
          [ "BL64KUm1HKDy1kTQLwUMxL5f6fFwA3Uaz2K4VME5GkRre6VG6f8" ] },
      { "delegate": "tz1dRKU4FQ9QRRQPdaH4zCR6gmCmXfcvcgtB",
        "reception_time": "2022-01-15T15:54:52.362-00:00",
        "included_in_blocks":
          [ "BL64KUm1HKDy1kTQLwUMxL5f6fFwA3Uaz2K4VME5GkRre6VG6f8" ] },
      { "delegate": "tz3WMqdzXqRWXwyvj5Hp2H7QEepaUuS7vd9K",
        "reception_time": "2022-01-15T15:54:52.265-00:00",
        "included_in_blocks":
          [ "BL64KUm1HKDy1kTQLwUMxL5f6fFwA3Uaz2K4VME5GkRre6VG6f8" ] },
      { "delegate": "tz2FCNBrERXtaTtNX6iimR1UJ5JSDxvdHM93",
        "reception_time": "2022-01-15T15:54:52.118-00:00",
        "included_in_blocks":
          [ "BL64KUm1HKDy1kTQLwUMxL5f6fFwA3Uaz2K4VME5GkRre6VG6f8" ] },
      { "delegate": "tz1eLbDXYceRsPZoPmaJXZgQ6pzgnTQvZtpo",
        "reception_time": "2022-01-15T15:54:51.979-00:00",
        "included_in_blocks":
          [ "BL64KUm1HKDy1kTQLwUMxL5f6fFwA3Uaz2K4VME5GkRre6VG6f8" ] },
      { "delegate": "tz3RDC3Jdn4j15J7bBHZd29EUee9gVB1CxD9",
        "reception_time": "2022-01-15T15:54:51.949-00:00",
        "included_in_blocks":
          [ "BL64KUm1HKDy1kTQLwUMxL5f6fFwA3Uaz2K4VME5GkRre6VG6f8" ] },
      { "delegate": "tz1NEKxGEHsFufk87CVZcrqWu8o22qh46GK6",
        "reception_time": "2022-01-15T15:54:51.822-00:00",
        "included_in_blocks":
          [ "BL64KUm1HKDy1kTQLwUMxL5f6fFwA3Uaz2K4VME5GkRre6VG6f8" ] },
      { "delegate": "tz1fwnfJNgiDACshK9avfRfFbMaXrs3ghoJa",
        "reception_time": "2022-01-15T15:54:51.753-00:00",
        "included_in_blocks":
          [ "BL64KUm1HKDy1kTQLwUMxL5f6fFwA3Uaz2K4VME5GkRre6VG6f8" ] },
      { "delegate": "tz3VEZ4k6a4Wx42iyev6i2aVAptTRLEAivNN",
        "reception_time": "2022-01-15T15:54:51.689-00:00",
        "included_in_blocks":
          [ "BL64KUm1HKDy1kTQLwUMxL5f6fFwA3Uaz2K4VME5GkRre6VG6f8" ] },
      { "delegate": "tz1Nf6tsK4G6bBqgSQERy4nUtkHNKUVdh7q1",
        "reception_time": "2022-01-15T15:54:51.787-00:00",
        "included_in_blocks":
          [ "BL64KUm1HKDy1kTQLwUMxL5f6fFwA3Uaz2K4VME5GkRre6VG6f8" ] },
      { "delegate": "tz1PeZx7FXy7QRuMREGXGxeipb24RsMMzUNe",
        "reception_time": "2022-01-15T15:54:51.654-00:00",
        "included_in_blocks":
          [ "BL64KUm1HKDy1kTQLwUMxL5f6fFwA3Uaz2K4VME5GkRre6VG6f8" ] },
      { "delegate": "tz1TEc75UKXv4W5cwi14Na3NtqFD51yKQi7h",
        "reception_time": "2022-01-15T15:54:51.635-00:00",
        "included_in_blocks":
          [ "BL64KUm1HKDy1kTQLwUMxL5f6fFwA3Uaz2K4VME5GkRre6VG6f8" ] },
      { "delegate": "tz1SYq214SCBy9naR6cvycQsYcUGpBqQAE8d",
        "reception_time": "2022-01-15T15:54:51.363-00:00",
        "included_in_blocks":
          [ "BL64KUm1HKDy1kTQLwUMxL5f6fFwA3Uaz2K4VME5GkRre6VG6f8" ] },
      { "delegate": "tz3NDpRj6WBrJPikcPVHRBEjWKxFw3c6eQPS",
        "reception_time": "2022-01-15T15:54:51.491-00:00",
        "included_in_blocks":
          [ "BL64KUm1HKDy1kTQLwUMxL5f6fFwA3Uaz2K4VME5GkRre6VG6f8" ] },
      { "delegate": "tz1MQJPGNMijnXnVoBENFz9rUhaPt3S7rWoz",
        "reception_time": "2022-01-15T15:54:51.336-00:00",
        "included_in_blocks":
          [ "BL64KUm1HKDy1kTQLwUMxL5f6fFwA3Uaz2K4VME5GkRre6VG6f8" ] },
      { "delegate": "tz1V4qCyvPKZ5UeqdH14HN42rxvNPQfc9UZg",
        "reception_time": "2022-01-15T15:54:51.333-00:00",
        "included_in_blocks":
          [ "BL64KUm1HKDy1kTQLwUMxL5f6fFwA3Uaz2K4VME5GkRre6VG6f8" ] },
      { "delegate": "tz3UoffC7FG7zfpmvmjUmUeAaHvzdcUvAj6r",
        "reception_time": "2022-01-15T15:54:51.346-00:00",
        "included_in_blocks":
          [ "BL64KUm1HKDy1kTQLwUMxL5f6fFwA3Uaz2K4VME5GkRre6VG6f8" ] },
      { "delegate": "tz1RCFbB9GpALpsZtu6J58sb74dm8qe6XBzv",
        "reception_time": "2022-01-15T15:54:51.297-00:00",
        "included_in_blocks":
          [ "BL64KUm1HKDy1kTQLwUMxL5f6fFwA3Uaz2K4VME5GkRre6VG6f8" ] },
      { "delegate": "tz3QCNyySViKHmeSr45kzDxzchys7NiXCWoa",
        "reception_time": "2022-01-15T15:54:51.283-00:00",
        "included_in_blocks":
          [ "BL64KUm1HKDy1kTQLwUMxL5f6fFwA3Uaz2K4VME5GkRre6VG6f8" ] },
      { "delegate": "tz1gfArv665EUkSg2ojMBzcbfwuPxAvqPvjo",
        "reception_time": "2022-01-15T15:54:51.245-00:00",
        "included_in_blocks":
          [ "BL64KUm1HKDy1kTQLwUMxL5f6fFwA3Uaz2K4VME5GkRre6VG6f8" ] },
      { "delegate": "tz1NortRftucvAkD1J58L32EhSVrQEWJCEnB",
        "reception_time": "2022-01-15T15:54:51.216-00:00",
        "included_in_blocks":
          [ "BL64KUm1HKDy1kTQLwUMxL5f6fFwA3Uaz2K4VME5GkRre6VG6f8" ] },
      { "delegate": "tz1S8MNvuFEUsWgjHvi3AxibRBf388NhT1q2",
        "reception_time": "2022-01-15T15:54:51.266-00:00",
        "included_in_blocks":
          [ "BL64KUm1HKDy1kTQLwUMxL5f6fFwA3Uaz2K4VME5GkRre6VG6f8" ] },
      { "delegate": "tz1ei4WtWEMEJekSv8qDnu9PExG6Q8HgRGr3",
        "reception_time": "2022-01-15T15:54:51.168-00:00",
        "included_in_blocks":
          [ "BL64KUm1HKDy1kTQLwUMxL5f6fFwA3Uaz2K4VME5GkRre6VG6f8" ] },
      { "delegate": "tz1fPKAtsYydh4f1wfWNfeNxWYu72TmM48fu",
        "reception_time": "2022-01-15T15:54:51.157-00:00",
        "included_in_blocks":
          [ "BL64KUm1HKDy1kTQLwUMxL5f6fFwA3Uaz2K4VME5GkRre6VG6f8" ] },
      { "delegate": "tz1dwu9aYb7CRNq4Y2zAjipdjFuSVKhHS8vA",
        "reception_time": "2022-01-15T15:54:51.141-00:00",
        "included_in_blocks":
          [ "BL64KUm1HKDy1kTQLwUMxL5f6fFwA3Uaz2K4VME5GkRre6VG6f8" ] },
      { "delegate": "tz3bvNMQ95vfAYtG8193ymshqjSvmxiCUuR5",
        "reception_time": "2022-01-15T15:54:51.079-00:00",
        "included_in_blocks":
          [ "BL64KUm1HKDy1kTQLwUMxL5f6fFwA3Uaz2K4VME5GkRre6VG6f8" ] },
      { "delegate": "tz1cSj7fTex3JPd1p1LN1fwek6AV1kH93Wwc",
        "reception_time": "2022-01-15T15:54:51.087-00:00",
        "included_in_blocks":
          [ "BL64KUm1HKDy1kTQLwUMxL5f6fFwA3Uaz2K4VME5GkRre6VG6f8" ] },
      { "delegate": "tz3iJu5vrKZcsqRPs8yJ61UDoeEXZmtro4qh",
        "reception_time": "2022-01-15T15:54:51.102-00:00",
        "included_in_blocks":
          [ "BL64KUm1HKDy1kTQLwUMxL5f6fFwA3Uaz2K4VME5GkRre6VG6f8" ] },
      { "delegate": "tz3RB4aoyjov4KEVRbuhvQ1CKJgBJMWhaeB8",
        "reception_time": "2022-01-15T15:54:51.096-00:00",
        "included_in_blocks":
          [ "BL64KUm1HKDy1kTQLwUMxL5f6fFwA3Uaz2K4VME5GkRre6VG6f8" ] },
      { "delegate": "tz1MQMiZHV8q4tTwUMWmS5Y3kaP6J2136iXr",
        "reception_time": "2022-01-15T15:54:51.134-00:00",
        "included_in_blocks":
          [ "BL64KUm1HKDy1kTQLwUMxL5f6fFwA3Uaz2K4VME5GkRre6VG6f8" ] },
      { "delegate": "tz3Zhs2dygr55yHyQyKjntAtY9bgfhLZ4Xj1",
        "reception_time": "2022-01-15T15:54:51.110-00:00",
        "included_in_blocks":
          [ "BL64KUm1HKDy1kTQLwUMxL5f6fFwA3Uaz2K4VME5GkRre6VG6f8" ] },
      { "delegate": "tz1WCd2jm4uSt4vntk4vSuUWoZQGhLcDuR9q",
        "reception_time": "2022-01-15T15:54:51.113-00:00",
        "included_in_blocks":
          [ "BL64KUm1HKDy1kTQLwUMxL5f6fFwA3Uaz2K4VME5GkRre6VG6f8" ] },
      { "delegate": "tz1fUyqYH7H4pRHN1roWY17giXhy1RvxjgUV",
        "reception_time": "2022-01-15T15:54:51.087-00:00",
        "included_in_blocks":
          [ "BL64KUm1HKDy1kTQLwUMxL5f6fFwA3Uaz2K4VME5GkRre6VG6f8" ] },
      { "delegate": "tz3bTdwZinP8U1JmSweNzVKhmwafqWmFWRfk",
        "reception_time": "2022-01-15T15:54:51.150-00:00",
        "included_in_blocks":
          [ "BL64KUm1HKDy1kTQLwUMxL5f6fFwA3Uaz2K4VME5GkRre6VG6f8" ] },
      { "delegate": "tz1d6Fx42mYgVFnHUW8T8A7WBfJ6nD9pVok8",
        "reception_time": "2022-01-15T15:54:51.082-00:00",
        "included_in_blocks":
          [ "BL64KUm1HKDy1kTQLwUMxL5f6fFwA3Uaz2K4VME5GkRre6VG6f8" ] },
      { "delegate": "tz1VmiY38m3y95HqQLjMwqnMS7sdMfGomzKi",
        "reception_time": "2022-01-15T15:54:51.056-00:00",
        "included_in_blocks":
          [ "BL64KUm1HKDy1kTQLwUMxL5f6fFwA3Uaz2K4VME5GkRre6VG6f8" ] },
      { "delegate": "tz3QSGPoRp3Kn7n3vY24eYeu3Peuqo45LQ4D",
        "reception_time": "2022-01-15T15:54:51.056-00:00",
        "included_in_blocks":
          [ "BL64KUm1HKDy1kTQLwUMxL5f6fFwA3Uaz2K4VME5GkRre6VG6f8" ] } ] }