{ "blocks":
    [ { "hash": "BMKZbFcevztYQpv4UFArXQZyqxnuofCQbjXwSBUztt7YYTSTEKG",
        "delegate": "tz1irJKkXS2DBWkU1NnmFQx1c1L7pbGg4yhk",
        "reception_time": "2022-01-15T17:48:48.602-00:00",
        "timestamp": "2022-01-15T17:48:40Z" } ],
  "endorsements":
    [ { "delegate": "tz1irJKkXS2DBWkU1NnmFQx1c1L7pbGg4yhk",
        "reception_time": "2022-01-15T17:48:48.467-00:00",
        "errors":
          [ { "kind": "temporary",
              "id": "proto.011-PtHangz2.prefilter.outdated_endorsement" } ],
        "included_in_blocks":
          [ "BLk4bsRP5JnDLxCA8svVzoc5DvsnDJcWm8CTpESYVy1U4DCywBB" ] },
      { "delegate": "tz1P2Po7YM526ughEsRbY4oR9zaUPDZjxFrb",
        "reception_time": "2022-01-15T17:48:48.456-00:00",
        "errors":
          [ { "kind": "temporary",
              "id": "proto.011-PtHangz2.prefilter.outdated_endorsement" } ],
        "included_in_blocks":
          [ "BLk4bsRP5JnDLxCA8svVzoc5DvsnDJcWm8CTpESYVy1U4DCywBB" ] },
      { "delegate": "tz1Lhf4J9Qxoe3DZ2nfe8FGDnvVj7oKjnMY6",
        "reception_time": "2022-01-15T17:48:48.293-00:00",
        "errors":
          [ { "kind": "temporary",
              "id": "proto.011-PtHangz2.prefilter.outdated_endorsement" } ],
        "included_in_blocks":
          [ "BLk4bsRP5JnDLxCA8svVzoc5DvsnDJcWm8CTpESYVy1U4DCywBB" ] },
      { "delegate": "tz1S8e9GgdZG78XJRB3NqabfWeM37GnhZMWQ",
        "reception_time": "2022-01-15T17:48:48.160-00:00",
        "errors":
          [ { "kind": "temporary",
              "id": "proto.011-PtHangz2.prefilter.outdated_endorsement" } ],
        "included_in_blocks":
          [ "BLk4bsRP5JnDLxCA8svVzoc5DvsnDJcWm8CTpESYVy1U4DCywBB" ] },
      { "delegate": "tz1TRspM5SeZpaQUhzByXbEvqKF1vnCM2YTK" },
      { "delegate": "tz1eEnQhbwf6trb8Q8mPb2RaPkNk2rN7BKi8",
        "reception_time": "2022-01-15T17:48:49.738-00:00",
        "included_in_blocks":
          [ "BLk4bsRP5JnDLxCA8svVzoc5DvsnDJcWm8CTpESYVy1U4DCywBB" ] },
      { "delegate": "tz1VmiY38m3y95HqQLjMwqnMS7sdMfGomzKi",
        "reception_time": "2022-01-15T17:48:49.738-00:00",
        "included_in_blocks":
          [ "BLk4bsRP5JnDLxCA8svVzoc5DvsnDJcWm8CTpESYVy1U4DCywBB" ] },
      { "delegate": "tz1Scdr2HsZiQjc7bHMeBbmDRXYVvdhjJbBh",
        "reception_time": "2022-01-15T17:48:49.738-00:00",
        "included_in_blocks":
          [ "BLk4bsRP5JnDLxCA8svVzoc5DvsnDJcWm8CTpESYVy1U4DCywBB" ] },
      { "delegate": "tz1beersuEDv8Z7ngQ825xfbaJNS2EhXnyHR",
        "reception_time": "2022-01-15T17:48:49.738-00:00",
        "included_in_blocks":
          [ "BLk4bsRP5JnDLxCA8svVzoc5DvsnDJcWm8CTpESYVy1U4DCywBB" ] },
      { "delegate": "tz1VQnqCCqX4K5sP3FNkVSNKTdCAMJDd3E1n",
        "reception_time": "2022-01-15T17:48:49.738-00:00",
        "included_in_blocks":
          [ "BLk4bsRP5JnDLxCA8svVzoc5DvsnDJcWm8CTpESYVy1U4DCywBB" ] },
      { "delegate": "tz1Ldzz6k1BHdhuKvAtMRX7h5kJSMHESMHLC",
        "reception_time": "2022-01-15T17:48:49.738-00:00",
        "included_in_blocks":
          [ "BLk4bsRP5JnDLxCA8svVzoc5DvsnDJcWm8CTpESYVy1U4DCywBB" ] },
      { "delegate": "tz1gUNyn3hmnEWqkusWPzxRaon1cs7ndWh7h",
        "reception_time": "2022-01-15T17:48:49.738-00:00",
        "included_in_blocks":
          [ "BLk4bsRP5JnDLxCA8svVzoc5DvsnDJcWm8CTpESYVy1U4DCywBB" ] },
      { "delegate": "tz3NxTnke1acr8o3h5y9ytf5awQBGNJUKzVU",
        "reception_time": "2022-01-15T17:48:49.738-00:00",
        "included_in_blocks":
          [ "BLk4bsRP5JnDLxCA8svVzoc5DvsnDJcWm8CTpESYVy1U4DCywBB" ] },
      { "delegate": "tz3ZbP2pM3nwvXztbuMJwJnDvV5xdpU8UkkD",
        "reception_time": "2022-01-15T17:48:49.738-00:00",
        "included_in_blocks":
          [ "BLk4bsRP5JnDLxCA8svVzoc5DvsnDJcWm8CTpESYVy1U4DCywBB" ] },
      { "delegate": "tz1WCd2jm4uSt4vntk4vSuUWoZQGhLcDuR9q",
        "reception_time": "2022-01-15T17:48:49.738-00:00",
        "included_in_blocks":
          [ "BLk4bsRP5JnDLxCA8svVzoc5DvsnDJcWm8CTpESYVy1U4DCywBB" ] },
      { "delegate": "tz1TzaNn7wSQSP5gYPXCnNzBCpyMiidCq1PX",
        "reception_time": "2022-01-15T17:48:49.738-00:00",
        "included_in_blocks":
          [ "BLk4bsRP5JnDLxCA8svVzoc5DvsnDJcWm8CTpESYVy1U4DCywBB" ] },
      { "delegate": "tz3Zhs2dygr55yHyQyKjntAtY9bgfhLZ4Xj1",
        "reception_time": "2022-01-15T17:48:49.759-00:00",
        "included_in_blocks":
          [ "BLk4bsRP5JnDLxCA8svVzoc5DvsnDJcWm8CTpESYVy1U4DCywBB" ] },
      { "delegate": "tz3QSGPoRp3Kn7n3vY24eYeu3Peuqo45LQ4D",
        "reception_time": "2022-01-15T17:48:49.766-00:00",
        "included_in_blocks":
          [ "BLk4bsRP5JnDLxCA8svVzoc5DvsnDJcWm8CTpESYVy1U4DCywBB" ] },
      { "delegate": "tz3iJu5vrKZcsqRPs8yJ61UDoeEXZmtro4qh",
        "reception_time": "2022-01-15T17:48:49.827-00:00",
        "included_in_blocks":
          [ "BLk4bsRP5JnDLxCA8svVzoc5DvsnDJcWm8CTpESYVy1U4DCywBB" ] },
      { "delegate": "tz3gtoUxdudfBRcNY7iVdKPHCYYX6xdPpoRS",
        "reception_time": "2022-01-15T17:48:49.854-00:00",
        "included_in_blocks":
          [ "BLk4bsRP5JnDLxCA8svVzoc5DvsnDJcWm8CTpESYVy1U4DCywBB" ] },
      { "delegate": "tz3hw2kqXhLUvY65ca1eety2oQTpAvd34R9Q",
        "reception_time": "2022-01-15T17:48:50.123-00:00",
        "included_in_blocks":
          [ "BLk4bsRP5JnDLxCA8svVzoc5DvsnDJcWm8CTpESYVy1U4DCywBB" ] },
      { "delegate": "tz1S8MNvuFEUsWgjHvi3AxibRBf388NhT1q2",
        "reception_time": "2022-01-15T17:48:50.170-00:00",
        "included_in_blocks":
          [ "BLk4bsRP5JnDLxCA8svVzoc5DvsnDJcWm8CTpESYVy1U4DCywBB" ] },
      { "delegate": "tz3RKYFsLuQzKBtmYuLNas7uMu3AsYd4QdsA",
        "reception_time": "2022-01-15T17:48:50.196-00:00",
        "included_in_blocks":
          [ "BLk4bsRP5JnDLxCA8svVzoc5DvsnDJcWm8CTpESYVy1U4DCywBB" ] },
      { "delegate": "tz1gfArv665EUkSg2ojMBzcbfwuPxAvqPvjo",
        "reception_time": "2022-01-15T17:48:50.258-00:00",
        "included_in_blocks":
          [ "BLk4bsRP5JnDLxCA8svVzoc5DvsnDJcWm8CTpESYVy1U4DCywBB" ] },
      { "delegate": "tz1ei4WtWEMEJekSv8qDnu9PExG6Q8HgRGr3",
        "reception_time": "2022-01-15T17:48:50.268-00:00",
        "included_in_blocks":
          [ "BLk4bsRP5JnDLxCA8svVzoc5DvsnDJcWm8CTpESYVy1U4DCywBB" ] },
      { "delegate": "tz1dwu9aYb7CRNq4Y2zAjipdjFuSVKhHS8vA",
        "reception_time": "2022-01-15T17:48:50.278-00:00",
        "included_in_blocks":
          [ "BLk4bsRP5JnDLxCA8svVzoc5DvsnDJcWm8CTpESYVy1U4DCywBB" ] },
      { "delegate": "tz1d8SMQTY56YRsCEa5UZNnKgWe2yP7obxKs",
        "reception_time": "2022-01-15T17:48:50.345-00:00",
        "included_in_blocks":
          [ "BLk4bsRP5JnDLxCA8svVzoc5DvsnDJcWm8CTpESYVy1U4DCywBB" ] },
      { "delegate": "tz3adcvQaKXTCg12zbninqo3q8ptKKtDFTLv",
        "reception_time": "2022-01-15T17:48:50.389-00:00",
        "included_in_blocks":
          [ "BLk4bsRP5JnDLxCA8svVzoc5DvsnDJcWm8CTpESYVy1U4DCywBB" ] },
      { "delegate": "tz3S6BBeKgJGXxvLyZ1xzXzMPn11nnFtq5L9",
        "reception_time": "2022-01-15T17:48:50.520-00:00",
        "included_in_blocks":
          [ "BLk4bsRP5JnDLxCA8svVzoc5DvsnDJcWm8CTpESYVy1U4DCywBB" ] },
      { "delegate": "tz3QT9dHYKDqh563chVa6za8526ys1UKfRfL",
        "reception_time": "2022-01-15T17:48:50.562-00:00",
        "included_in_blocks":
          [ "BLk4bsRP5JnDLxCA8svVzoc5DvsnDJcWm8CTpESYVy1U4DCywBB" ] },
      { "delegate": "tz1RCFbB9GpALpsZtu6J58sb74dm8qe6XBzv",
        "reception_time": "2022-01-15T17:48:50.749-00:00",
        "included_in_blocks":
          [ "BLk4bsRP5JnDLxCA8svVzoc5DvsnDJcWm8CTpESYVy1U4DCywBB" ] },
      { "delegate": "tz3RDC3Jdn4j15J7bBHZd29EUee9gVB1CxD9",
        "reception_time": "2022-01-15T17:48:50.769-00:00",
        "included_in_blocks":
          [ "BLk4bsRP5JnDLxCA8svVzoc5DvsnDJcWm8CTpESYVy1U4DCywBB" ] },
      { "delegate": "tz1iPHM2Xx2hwmzcr1EG1zzrV6oKafVoA91m",
        "reception_time": "2022-01-15T17:48:50.773-00:00",
        "included_in_blocks":
          [ "BLk4bsRP5JnDLxCA8svVzoc5DvsnDJcWm8CTpESYVy1U4DCywBB" ] },
      { "delegate": "tz1Nf6tsK4G6bBqgSQERy4nUtkHNKUVdh7q1",
        "reception_time": "2022-01-15T17:48:50.780-00:00",
        "included_in_blocks":
          [ "BLk4bsRP5JnDLxCA8svVzoc5DvsnDJcWm8CTpESYVy1U4DCywBB" ] },
      { "delegate": "tz3bTdwZinP8U1JmSweNzVKhmwafqWmFWRfk",
        "reception_time": "2022-01-15T17:48:50.790-00:00",
        "included_in_blocks":
          [ "BLk4bsRP5JnDLxCA8svVzoc5DvsnDJcWm8CTpESYVy1U4DCywBB" ] },
      { "delegate": "tz1V4qCyvPKZ5UeqdH14HN42rxvNPQfc9UZg",
        "reception_time": "2022-01-15T17:48:50.865-00:00",
        "included_in_blocks":
          [ "BLk4bsRP5JnDLxCA8svVzoc5DvsnDJcWm8CTpESYVy1U4DCywBB" ] },
      { "delegate": "tz1TEc75UKXv4W5cwi14Na3NtqFD51yKQi7h",
        "reception_time": "2022-01-15T17:48:50.876-00:00",
        "included_in_blocks":
          [ "BLk4bsRP5JnDLxCA8svVzoc5DvsnDJcWm8CTpESYVy1U4DCywBB" ] },
      { "delegate": "tz3QCNyySViKHmeSr45kzDxzchys7NiXCWoa",
        "reception_time": "2022-01-15T17:48:50.876-00:00",
        "included_in_blocks":
          [ "BLk4bsRP5JnDLxCA8svVzoc5DvsnDJcWm8CTpESYVy1U4DCywBB" ] },
      { "delegate": "tz1Tnjaxk6tbAeC2TmMApPh8UsrEVQvhHvx5",
        "reception_time": "2022-01-15T17:48:50.879-00:00",
        "included_in_blocks":
          [ "BLk4bsRP5JnDLxCA8svVzoc5DvsnDJcWm8CTpESYVy1U4DCywBB" ] },
      { "delegate": "tz3bvNMQ95vfAYtG8193ymshqjSvmxiCUuR5",
        "reception_time": "2022-01-15T17:48:51.047-00:00",
        "included_in_blocks":
          [ "BLk4bsRP5JnDLxCA8svVzoc5DvsnDJcWm8CTpESYVy1U4DCywBB" ] },
      { "delegate": "tz1hAYfexyzPGG6RhZZMpDvAHifubsbb6kgn",
        "reception_time": "2022-01-15T17:48:51.362-00:00",
        "included_in_blocks":
          [ "BLk4bsRP5JnDLxCA8svVzoc5DvsnDJcWm8CTpESYVy1U4DCywBB" ] },
      { "delegate": "tz1WBfwbT66FC6BTLexc2BoyCCBM9LG7pnVW",
        "reception_time": "2022-01-15T17:48:51.371-00:00",
        "included_in_blocks":
          [ "BLk4bsRP5JnDLxCA8svVzoc5DvsnDJcWm8CTpESYVy1U4DCywBB" ] },
      { "delegate": "tz1T7duV5gZWSTq4YpBGbXNLTfznCLDrFxvs",
        "reception_time": "2022-01-15T17:48:51.442-00:00",
        "included_in_blocks":
          [ "BLk4bsRP5JnDLxCA8svVzoc5DvsnDJcWm8CTpESYVy1U4DCywBB" ] },
      { "delegate": "tz3NDpRj6WBrJPikcPVHRBEjWKxFw3c6eQPS",
        "reception_time": "2022-01-15T17:48:51.518-00:00",
        "included_in_blocks":
          [ "BLk4bsRP5JnDLxCA8svVzoc5DvsnDJcWm8CTpESYVy1U4DCywBB" ] },
      { "delegate": "tz3RB4aoyjov4KEVRbuhvQ1CKJgBJMWhaeB8",
        "reception_time": "2022-01-15T17:48:51.562-00:00",
        "included_in_blocks":
          [ "BLk4bsRP5JnDLxCA8svVzoc5DvsnDJcWm8CTpESYVy1U4DCywBB" ] },
      { "delegate": "tz2FCNBrERXtaTtNX6iimR1UJ5JSDxvdHM93",
        "reception_time": "2022-01-15T17:48:51.565-00:00",
        "included_in_blocks":
          [ "BLk4bsRP5JnDLxCA8svVzoc5DvsnDJcWm8CTpESYVy1U4DCywBB" ] },
      { "delegate": "tz1NEKxGEHsFufk87CVZcrqWu8o22qh46GK6",
        "reception_time": "2022-01-15T17:48:51.609-00:00",
        "included_in_blocks":
          [ "BLk4bsRP5JnDLxCA8svVzoc5DvsnDJcWm8CTpESYVy1U4DCywBB" ] },
      { "delegate": "tz1NoYvKjXTzTk54VpLxBfouJ33J8jwKPPvw",
        "reception_time": "2022-01-15T17:48:51.645-00:00",
        "included_in_blocks":
          [ "BLk4bsRP5JnDLxCA8svVzoc5DvsnDJcWm8CTpESYVy1U4DCywBB" ] },
      { "delegate": "tz1KzSC1J9aBxKp7u8TUnpN8L7S65PBRkgdF",
        "reception_time": "2022-01-15T17:48:51.652-00:00",
        "included_in_blocks":
          [ "BLk4bsRP5JnDLxCA8svVzoc5DvsnDJcWm8CTpESYVy1U4DCywBB" ] },
      { "delegate": "tz1Mc61yajNASzh5KWZFtYs4i7EJbzAxQC4K",
        "reception_time": "2022-01-15T17:48:51.660-00:00",
        "included_in_blocks":
          [ "BLk4bsRP5JnDLxCA8svVzoc5DvsnDJcWm8CTpESYVy1U4DCywBB" ] },
      { "delegate": "tz3VEZ4k6a4Wx42iyev6i2aVAptTRLEAivNN",
        "reception_time": "2022-01-15T17:48:51.729-00:00",
        "included_in_blocks":
          [ "BLk4bsRP5JnDLxCA8svVzoc5DvsnDJcWm8CTpESYVy1U4DCywBB" ] },
      { "delegate": "tz3WMqdzXqRWXwyvj5Hp2H7QEepaUuS7vd9K",
        "reception_time": "2022-01-15T17:48:51.780-00:00",
        "included_in_blocks":
          [ "BLk4bsRP5JnDLxCA8svVzoc5DvsnDJcWm8CTpESYVy1U4DCywBB" ] },
      { "delegate": "tz1WctSwL49BZtdWAQ75NY6vr4xsAx6oKdah",
        "reception_time": "2022-01-15T17:48:51.919-00:00",
        "included_in_blocks":
          [ "BLk4bsRP5JnDLxCA8svVzoc5DvsnDJcWm8CTpESYVy1U4DCywBB" ] },
      { "delegate": "tz1ZcTRk5uxD86EFEn1vvNffWWqJy7q5eVhc",
        "reception_time": "2022-01-15T17:48:52.534-00:00",
        "included_in_blocks":
          [ "BLk4bsRP5JnDLxCA8svVzoc5DvsnDJcWm8CTpESYVy1U4DCywBB" ] },
      { "delegate": "tz1eeArNKzpoGLrT8dR3ewRgZ4r3YQkY165n",
        "reception_time": "2022-01-15T17:48:52.583-00:00",
        "included_in_blocks":
          [ "BLk4bsRP5JnDLxCA8svVzoc5DvsnDJcWm8CTpESYVy1U4DCywBB" ] },
      { "delegate": "tz3UoffC7FG7zfpmvmjUmUeAaHvzdcUvAj6r",
        "reception_time": "2022-01-15T17:48:52.666-00:00",
        "included_in_blocks":
          [ "BLk4bsRP5JnDLxCA8svVzoc5DvsnDJcWm8CTpESYVy1U4DCywBB" ] },
      { "delegate": "tz3NExpXn9aPNZPorRE4SdjJ2RGrfbJgMAaV",
        "reception_time": "2022-01-15T17:48:52.682-00:00",
        "included_in_blocks":
          [ "BLk4bsRP5JnDLxCA8svVzoc5DvsnDJcWm8CTpESYVy1U4DCywBB" ] },
      { "delegate": "tz1aRoaRhSpRYvFdyvgWLL6TGyRoGF51wDjM",
        "reception_time": "2022-01-15T17:48:52.849-00:00",
        "included_in_blocks":
          [ "BLk4bsRP5JnDLxCA8svVzoc5DvsnDJcWm8CTpESYVy1U4DCywBB" ] },
      { "delegate": "tz1TRqbYbUf2GyrjErf3hBzgBJPzW8y36qEs",
        "reception_time": "2022-01-15T17:48:53.018-00:00",
        "included_in_blocks":
          [ "BLk4bsRP5JnDLxCA8svVzoc5DvsnDJcWm8CTpESYVy1U4DCywBB" ] },
      { "delegate": "tz1eVaNx3gCmG1EsLjijkmgAxdLYVf6Bf5Sq",
        "reception_time": "2022-01-15T17:48:53.085-00:00",
        "included_in_blocks":
          [ "BLk4bsRP5JnDLxCA8svVzoc5DvsnDJcWm8CTpESYVy1U4DCywBB" ] },
      { "delegate": "tz1TcH4Nb3aHNDJ7CGZhU7jgAK1BkSP4Lxds",
        "reception_time": "2022-01-15T17:48:53.174-00:00",
        "included_in_blocks":
          [ "BLk4bsRP5JnDLxCA8svVzoc5DvsnDJcWm8CTpESYVy1U4DCywBB" ] },
      { "delegate": "tz1g8vkmcde6sWKaG2NN9WKzCkDM6Rziq194",
        "reception_time": "2022-01-15T17:48:57.815-00:00",
        "included_in_blocks":
          [ "BLk4bsRP5JnDLxCA8svVzoc5DvsnDJcWm8CTpESYVy1U4DCywBB" ] } ] }