{ "blocks":
    [ { "hash": "BKn73YvMDn1P8QokM1JhVNqUHRu4NEB4GVQ6J8YAsFbsZqmmZng",
        "delegate": "tz1aRoaRhSpRYvFdyvgWLL6TGyRoGF51wDjM",
        "reception_time": "2022-01-16T01:21:40.190-00:00",
        "timestamp": "2022-01-16T01:21:30Z" } ],
  "endorsements":
    [ { "delegate": "tz1S8e9GgdZG78XJRB3NqabfWeM37GnhZMWQ",
        "reception_time": "2022-01-16T01:21:40.174-00:00",
        "errors":
          [ { "kind": "temporary",
              "id": "proto.011-PtHangz2.prefilter.outdated_endorsement" } ],
        "included_in_blocks":
          [ "BMaMFMpL9MgQSQUvdmbg7zpkL1pbY4uqGraUMsh9MDoVqptYDyP" ] },
      { "delegate": "tz1NMdMmWZN8QPB8pY4ddncACDg1cHi1xD2e" },
      { "delegate": "tz1P2Po7YM526ughEsRbY4oR9zaUPDZjxFrb",
        "reception_time": "2022-01-16T01:21:41.058-00:00",
        "included_in_blocks":
          [ "BMaMFMpL9MgQSQUvdmbg7zpkL1pbY4uqGraUMsh9MDoVqptYDyP" ] },
      { "delegate": "tz1STeamwbp68THcny9zk3LsbG3H36DMvbRK",
        "reception_time": "2022-01-16T01:21:41.058-00:00",
        "included_in_blocks":
          [ "BMaMFMpL9MgQSQUvdmbg7zpkL1pbY4uqGraUMsh9MDoVqptYDyP" ] },
      { "delegate": "tz1TXzyaKUA8wsWefdSnyaYFnV2M3vCV7er9",
        "reception_time": "2022-01-16T01:21:41.058-00:00",
        "included_in_blocks":
          [ "BMaMFMpL9MgQSQUvdmbg7zpkL1pbY4uqGraUMsh9MDoVqptYDyP" ] },
      { "delegate": "tz1MXFrtZoaXckE41bjUCSjAjAap3AFDSr3N",
        "reception_time": "2022-01-16T01:21:41.058-00:00",
        "included_in_blocks":
          [ "BMaMFMpL9MgQSQUvdmbg7zpkL1pbY4uqGraUMsh9MDoVqptYDyP" ] },
      { "delegate": "tz1eEnQhbwf6trb8Q8mPb2RaPkNk2rN7BKi8",
        "reception_time": "2022-01-16T01:21:41.058-00:00",
        "included_in_blocks":
          [ "BMaMFMpL9MgQSQUvdmbg7zpkL1pbY4uqGraUMsh9MDoVqptYDyP" ] },
      { "delegate": "tz1Scdr2HsZiQjc7bHMeBbmDRXYVvdhjJbBh",
        "reception_time": "2022-01-16T01:21:41.058-00:00",
        "included_in_blocks":
          [ "BMaMFMpL9MgQSQUvdmbg7zpkL1pbY4uqGraUMsh9MDoVqptYDyP" ] },
      { "delegate": "tz1irJKkXS2DBWkU1NnmFQx1c1L7pbGg4yhk",
        "reception_time": "2022-01-16T01:21:41.197-00:00",
        "included_in_blocks":
          [ "BMaMFMpL9MgQSQUvdmbg7zpkL1pbY4uqGraUMsh9MDoVqptYDyP" ] },
      { "delegate": "tz1MJx9vhaNRSimcuXPK2rW4fLccQnDAnVKJ",
        "reception_time": "2022-01-16T01:21:41.197-00:00",
        "included_in_blocks":
          [ "BMaMFMpL9MgQSQUvdmbg7zpkL1pbY4uqGraUMsh9MDoVqptYDyP" ] },
      { "delegate": "tz3hw2kqXhLUvY65ca1eety2oQTpAvd34R9Q",
        "reception_time": "2022-01-16T01:21:41.454-00:00",
        "included_in_blocks":
          [ "BMaMFMpL9MgQSQUvdmbg7zpkL1pbY4uqGraUMsh9MDoVqptYDyP" ] },
      { "delegate": "tz1gUNyn3hmnEWqkusWPzxRaon1cs7ndWh7h",
        "reception_time": "2022-01-16T01:21:41.454-00:00",
        "included_in_blocks":
          [ "BMaMFMpL9MgQSQUvdmbg7zpkL1pbY4uqGraUMsh9MDoVqptYDyP" ] },
      { "delegate": "tz1Kf25fX1VdmYGSEzwFy1wNmkbSEZ2V83sY",
        "reception_time": "2022-01-16T01:21:41.454-00:00",
        "included_in_blocks":
          [ "BMaMFMpL9MgQSQUvdmbg7zpkL1pbY4uqGraUMsh9MDoVqptYDyP" ] },
      { "delegate": "tz3RKYFsLuQzKBtmYuLNas7uMu3AsYd4QdsA",
        "reception_time": "2022-01-16T01:21:41.454-00:00",
        "included_in_blocks":
          [ "BMaMFMpL9MgQSQUvdmbg7zpkL1pbY4uqGraUMsh9MDoVqptYDyP" ] },
      { "delegate": "tz3ZbP2pM3nwvXztbuMJwJnDvV5xdpU8UkkD",
        "reception_time": "2022-01-16T01:21:41.454-00:00",
        "included_in_blocks":
          [ "BMaMFMpL9MgQSQUvdmbg7zpkL1pbY4uqGraUMsh9MDoVqptYDyP" ] },
      { "delegate": "tz3QSGPoRp3Kn7n3vY24eYeu3Peuqo45LQ4D",
        "reception_time": "2022-01-16T01:21:41.454-00:00",
        "included_in_blocks":
          [ "BMaMFMpL9MgQSQUvdmbg7zpkL1pbY4uqGraUMsh9MDoVqptYDyP" ] },
      { "delegate": "tz3iJu5vrKZcsqRPs8yJ61UDoeEXZmtro4qh",
        "reception_time": "2022-01-16T01:21:41.454-00:00",
        "included_in_blocks":
          [ "BMaMFMpL9MgQSQUvdmbg7zpkL1pbY4uqGraUMsh9MDoVqptYDyP" ] },
      { "delegate": "tz3gtoUxdudfBRcNY7iVdKPHCYYX6xdPpoRS",
        "reception_time": "2022-01-16T01:21:41.454-00:00",
        "included_in_blocks":
          [ "BMaMFMpL9MgQSQUvdmbg7zpkL1pbY4uqGraUMsh9MDoVqptYDyP" ] },
      { "delegate": "tz3NxTnke1acr8o3h5y9ytf5awQBGNJUKzVU",
        "reception_time": "2022-01-16T01:21:41.454-00:00",
        "included_in_blocks":
          [ "BMaMFMpL9MgQSQUvdmbg7zpkL1pbY4uqGraUMsh9MDoVqptYDyP" ] },
      { "delegate": "tz3QCNyySViKHmeSr45kzDxzchys7NiXCWoa",
        "reception_time": "2022-01-16T01:21:41.454-00:00",
        "included_in_blocks":
          [ "BMaMFMpL9MgQSQUvdmbg7zpkL1pbY4uqGraUMsh9MDoVqptYDyP" ] },
      { "delegate": "tz1VQnqCCqX4K5sP3FNkVSNKTdCAMJDd3E1n",
        "reception_time": "2022-01-16T01:21:41.454-00:00",
        "included_in_blocks":
          [ "BMaMFMpL9MgQSQUvdmbg7zpkL1pbY4uqGraUMsh9MDoVqptYDyP" ] },
      { "delegate": "tz3Zhs2dygr55yHyQyKjntAtY9bgfhLZ4Xj1",
        "reception_time": "2022-01-16T01:21:41.454-00:00",
        "included_in_blocks":
          [ "BMaMFMpL9MgQSQUvdmbg7zpkL1pbY4uqGraUMsh9MDoVqptYDyP" ] },
      { "delegate": "tz1Ldzz6k1BHdhuKvAtMRX7h5kJSMHESMHLC",
        "reception_time": "2022-01-16T01:21:41.454-00:00",
        "included_in_blocks":
          [ "BMaMFMpL9MgQSQUvdmbg7zpkL1pbY4uqGraUMsh9MDoVqptYDyP" ] },
      { "delegate": "tz3S6BBeKgJGXxvLyZ1xzXzMPn11nnFtq5L9",
        "reception_time": "2022-01-16T01:21:41.454-00:00",
        "included_in_blocks":
          [ "BMaMFMpL9MgQSQUvdmbg7zpkL1pbY4uqGraUMsh9MDoVqptYDyP" ] },
      { "delegate": "tz3QT9dHYKDqh563chVa6za8526ys1UKfRfL",
        "reception_time": "2022-01-16T01:21:41.489-00:00",
        "included_in_blocks":
          [ "BMaMFMpL9MgQSQUvdmbg7zpkL1pbY4uqGraUMsh9MDoVqptYDyP" ] },
      { "delegate": "tz1TzaNn7wSQSP5gYPXCnNzBCpyMiidCq1PX",
        "reception_time": "2022-01-16T01:21:41.535-00:00",
        "included_in_blocks":
          [ "BMaMFMpL9MgQSQUvdmbg7zpkL1pbY4uqGraUMsh9MDoVqptYDyP" ] },
      { "delegate": "tz1Kt4P8BCaP93AEV4eA7gmpRryWt5hznjCP",
        "reception_time": "2022-01-16T01:21:41.538-00:00",
        "included_in_blocks":
          [ "BMaMFMpL9MgQSQUvdmbg7zpkL1pbY4uqGraUMsh9MDoVqptYDyP" ] },
      { "delegate": "tz1YhNsiRRU8aHNGg7NK3uuP6UDAyacJernB",
        "reception_time": "2022-01-16T01:21:41.609-00:00",
        "included_in_blocks":
          [ "BMaMFMpL9MgQSQUvdmbg7zpkL1pbY4uqGraUMsh9MDoVqptYDyP" ] },
      { "delegate": "tz1WnfXMPaNTBmH7DBPwqCWs9cPDJdkGBTZ8",
        "reception_time": "2022-01-16T01:21:41.889-00:00",
        "included_in_blocks":
          [ "BMaMFMpL9MgQSQUvdmbg7zpkL1pbY4uqGraUMsh9MDoVqptYDyP" ] },
      { "delegate": "tz1VmiY38m3y95HqQLjMwqnMS7sdMfGomzKi",
        "reception_time": "2022-01-16T01:21:41.894-00:00",
        "included_in_blocks":
          [ "BMaMFMpL9MgQSQUvdmbg7zpkL1pbY4uqGraUMsh9MDoVqptYDyP" ] },
      { "delegate": "tz1fUjvVhJrHLZCbhPNvDRckxApqbkievJHN",
        "reception_time": "2022-01-16T01:21:41.901-00:00",
        "included_in_blocks":
          [ "BMaMFMpL9MgQSQUvdmbg7zpkL1pbY4uqGraUMsh9MDoVqptYDyP" ] },
      { "delegate": "tz3adcvQaKXTCg12zbninqo3q8ptKKtDFTLv",
        "reception_time": "2022-01-16T01:21:42.054-00:00",
        "included_in_blocks":
          [ "BMaMFMpL9MgQSQUvdmbg7zpkL1pbY4uqGraUMsh9MDoVqptYDyP" ] },
      { "delegate": "tz1NSDFKuRyzHxpfG1AMkyCwEiZ52cbR2mRW",
        "reception_time": "2022-01-16T01:21:42.076-00:00",
        "included_in_blocks":
          [ "BMaMFMpL9MgQSQUvdmbg7zpkL1pbY4uqGraUMsh9MDoVqptYDyP" ] },
      { "delegate": "tz1PWCDnz783NNGGQjEFFsHtrcK5yBW4E2rm",
        "reception_time": "2022-01-16T01:21:42.082-00:00",
        "included_in_blocks":
          [ "BMaMFMpL9MgQSQUvdmbg7zpkL1pbY4uqGraUMsh9MDoVqptYDyP" ] },
      { "delegate": "tz1fPKAtsYydh4f1wfWNfeNxWYu72TmM48fu",
        "reception_time": "2022-01-16T01:21:42.093-00:00",
        "included_in_blocks":
          [ "BMaMFMpL9MgQSQUvdmbg7zpkL1pbY4uqGraUMsh9MDoVqptYDyP" ] },
      { "delegate": "tz1d6Fx42mYgVFnHUW8T8A7WBfJ6nD9pVok8",
        "reception_time": "2022-01-16T01:21:42.096-00:00",
        "included_in_blocks":
          [ "BMaMFMpL9MgQSQUvdmbg7zpkL1pbY4uqGraUMsh9MDoVqptYDyP" ] },
      { "delegate": "tz3bTdwZinP8U1JmSweNzVKhmwafqWmFWRfk",
        "reception_time": "2022-01-16T01:21:42.104-00:00",
        "included_in_blocks":
          [ "BMaMFMpL9MgQSQUvdmbg7zpkL1pbY4uqGraUMsh9MDoVqptYDyP" ] },
      { "delegate": "tz1fb7c66UwePkkfDXz4ajFaBP9hVNLdS7JJ",
        "reception_time": "2022-01-16T01:21:42.110-00:00",
        "included_in_blocks":
          [ "BMaMFMpL9MgQSQUvdmbg7zpkL1pbY4uqGraUMsh9MDoVqptYDyP" ] },
      { "delegate": "tz1TRqbYbUf2GyrjErf3hBzgBJPzW8y36qEs",
        "reception_time": "2022-01-16T01:21:42.123-00:00",
        "included_in_blocks":
          [ "BMaMFMpL9MgQSQUvdmbg7zpkL1pbY4uqGraUMsh9MDoVqptYDyP" ] },
      { "delegate": "tz1MQJPGNMijnXnVoBENFz9rUhaPt3S7rWoz",
        "reception_time": "2022-01-16T01:21:42.128-00:00",
        "included_in_blocks":
          [ "BMaMFMpL9MgQSQUvdmbg7zpkL1pbY4uqGraUMsh9MDoVqptYDyP" ] },
      { "delegate": "tz1MQMiZHV8q4tTwUMWmS5Y3kaP6J2136iXr",
        "reception_time": "2022-01-16T01:21:42.224-00:00",
        "included_in_blocks":
          [ "BMaMFMpL9MgQSQUvdmbg7zpkL1pbY4uqGraUMsh9MDoVqptYDyP" ] },
      { "delegate": "tz1abmz7jiCV2GH2u81LRrGgAFFgvQgiDiaf",
        "reception_time": "2022-01-16T01:21:42.284-00:00",
        "included_in_blocks":
          [ "BMaMFMpL9MgQSQUvdmbg7zpkL1pbY4uqGraUMsh9MDoVqptYDyP" ] },
      { "delegate": "tz1Nf6tsK4G6bBqgSQERy4nUtkHNKUVdh7q1",
        "reception_time": "2022-01-16T01:21:42.369-00:00",
        "included_in_blocks":
          [ "BMaMFMpL9MgQSQUvdmbg7zpkL1pbY4uqGraUMsh9MDoVqptYDyP" ] },
      { "delegate": "tz1LmaFsWRkjr7QMCx5PtV6xTUz3AmEpKQiF",
        "reception_time": "2022-01-16T01:21:42.412-00:00",
        "included_in_blocks":
          [ "BMaMFMpL9MgQSQUvdmbg7zpkL1pbY4uqGraUMsh9MDoVqptYDyP" ] },
      { "delegate": "tz1WBfwbT66FC6BTLexc2BoyCCBM9LG7pnVW",
        "reception_time": "2022-01-16T01:21:42.418-00:00",
        "included_in_blocks":
          [ "BMaMFMpL9MgQSQUvdmbg7zpkL1pbY4uqGraUMsh9MDoVqptYDyP" ] },
      { "delegate": "tz2FCNBrERXtaTtNX6iimR1UJ5JSDxvdHM93",
        "reception_time": "2022-01-16T01:21:42.430-00:00",
        "included_in_blocks":
          [ "BMaMFMpL9MgQSQUvdmbg7zpkL1pbY4uqGraUMsh9MDoVqptYDyP" ] },
      { "delegate": "tz1hAYfexyzPGG6RhZZMpDvAHifubsbb6kgn",
        "reception_time": "2022-01-16T01:21:42.436-00:00",
        "included_in_blocks":
          [ "BMaMFMpL9MgQSQUvdmbg7zpkL1pbY4uqGraUMsh9MDoVqptYDyP" ] },
      { "delegate": "tz1SYq214SCBy9naR6cvycQsYcUGpBqQAE8d",
        "reception_time": "2022-01-16T01:21:42.522-00:00",
        "included_in_blocks":
          [ "BMaMFMpL9MgQSQUvdmbg7zpkL1pbY4uqGraUMsh9MDoVqptYDyP" ] },
      { "delegate": "tz1iPHM2Xx2hwmzcr1EG1zzrV6oKafVoA91m",
        "reception_time": "2022-01-16T01:21:42.564-00:00",
        "included_in_blocks":
          [ "BMaMFMpL9MgQSQUvdmbg7zpkL1pbY4uqGraUMsh9MDoVqptYDyP" ] },
      { "delegate": "tz1ei4WtWEMEJekSv8qDnu9PExG6Q8HgRGr3",
        "reception_time": "2022-01-16T01:21:42.564-00:00",
        "included_in_blocks":
          [ "BMaMFMpL9MgQSQUvdmbg7zpkL1pbY4uqGraUMsh9MDoVqptYDyP" ] },
      { "delegate": "tz1RjoHc98dBoqaH2jawF62XNKh7YsHwbkEv",
        "reception_time": "2022-01-16T01:21:42.573-00:00",
        "included_in_blocks":
          [ "BMaMFMpL9MgQSQUvdmbg7zpkL1pbY4uqGraUMsh9MDoVqptYDyP" ] },
      { "delegate": "tz1gfArv665EUkSg2ojMBzcbfwuPxAvqPvjo",
        "reception_time": "2022-01-16T01:21:42.584-00:00",
        "included_in_blocks":
          [ "BMaMFMpL9MgQSQUvdmbg7zpkL1pbY4uqGraUMsh9MDoVqptYDyP" ] },
      { "delegate": "tz1UMCB2AHSTwG7YcGNr31CqYCtGN873royv",
        "reception_time": "2022-01-16T01:21:42.605-00:00",
        "included_in_blocks":
          [ "BMaMFMpL9MgQSQUvdmbg7zpkL1pbY4uqGraUMsh9MDoVqptYDyP" ] },
      { "delegate": "tz1TEc75UKXv4W5cwi14Na3NtqFD51yKQi7h",
        "reception_time": "2022-01-16T01:21:42.676-00:00",
        "included_in_blocks":
          [ "BMaMFMpL9MgQSQUvdmbg7zpkL1pbY4uqGraUMsh9MDoVqptYDyP" ] },
      { "delegate": "tz3UoffC7FG7zfpmvmjUmUeAaHvzdcUvAj6r",
        "reception_time": "2022-01-16T01:21:42.698-00:00",
        "included_in_blocks":
          [ "BMaMFMpL9MgQSQUvdmbg7zpkL1pbY4uqGraUMsh9MDoVqptYDyP" ] },
      { "delegate": "tz1S8MNvuFEUsWgjHvi3AxibRBf388NhT1q2",
        "reception_time": "2022-01-16T01:21:42.705-00:00",
        "included_in_blocks":
          [ "BMaMFMpL9MgQSQUvdmbg7zpkL1pbY4uqGraUMsh9MDoVqptYDyP" ] },
      { "delegate": "tz1awXW7wuXy21c66vBudMXQVAPgRnqqwgTH",
        "reception_time": "2022-01-16T01:21:42.834-00:00",
        "included_in_blocks":
          [ "BMaMFMpL9MgQSQUvdmbg7zpkL1pbY4uqGraUMsh9MDoVqptYDyP" ] },
      { "delegate": "tz1Tnjaxk6tbAeC2TmMApPh8UsrEVQvhHvx5",
        "reception_time": "2022-01-16T01:21:42.852-00:00",
        "included_in_blocks":
          [ "BMaMFMpL9MgQSQUvdmbg7zpkL1pbY4uqGraUMsh9MDoVqptYDyP" ] },
      { "delegate": "tz1PeZx7FXy7QRuMREGXGxeipb24RsMMzUNe",
        "reception_time": "2022-01-16T01:21:42.877-00:00",
        "included_in_blocks":
          [ "BMaMFMpL9MgQSQUvdmbg7zpkL1pbY4uqGraUMsh9MDoVqptYDyP" ] },
      { "delegate": "tz3VEZ4k6a4Wx42iyev6i2aVAptTRLEAivNN",
        "reception_time": "2022-01-16T01:21:42.907-00:00",
        "included_in_blocks":
          [ "BMaMFMpL9MgQSQUvdmbg7zpkL1pbY4uqGraUMsh9MDoVqptYDyP" ] },
      { "delegate": "tz3WMqdzXqRWXwyvj5Hp2H7QEepaUuS7vd9K",
        "reception_time": "2022-01-16T01:21:42.925-00:00",
        "included_in_blocks":
          [ "BMaMFMpL9MgQSQUvdmbg7zpkL1pbY4uqGraUMsh9MDoVqptYDyP" ] },
      { "delegate": "tz1cYufsxHXJcvANhvS55h3aY32a9BAFB494",
        "reception_time": "2022-01-16T01:21:43.000-00:00",
        "included_in_blocks":
          [ "BMaMFMpL9MgQSQUvdmbg7zpkL1pbY4uqGraUMsh9MDoVqptYDyP" ] },
      { "delegate": "tz1KfEsrtDaA1sX7vdM4qmEPWuSytuqCDp5j",
        "reception_time": "2022-01-16T01:21:43.013-00:00",
        "included_in_blocks":
          [ "BMaMFMpL9MgQSQUvdmbg7zpkL1pbY4uqGraUMsh9MDoVqptYDyP" ] },
      { "delegate": "tz3RB4aoyjov4KEVRbuhvQ1CKJgBJMWhaeB8",
        "reception_time": "2022-01-16T01:21:43.068-00:00",
        "included_in_blocks":
          [ "BMaMFMpL9MgQSQUvdmbg7zpkL1pbY4uqGraUMsh9MDoVqptYDyP" ] },
      { "delegate": "tz3RDC3Jdn4j15J7bBHZd29EUee9gVB1CxD9",
        "reception_time": "2022-01-16T01:21:43.202-00:00",
        "included_in_blocks":
          [ "BMaMFMpL9MgQSQUvdmbg7zpkL1pbY4uqGraUMsh9MDoVqptYDyP" ] },
      { "delegate": "tz1NEKxGEHsFufk87CVZcrqWu8o22qh46GK6",
        "reception_time": "2022-01-16T01:21:43.262-00:00",
        "included_in_blocks":
          [ "BMaMFMpL9MgQSQUvdmbg7zpkL1pbY4uqGraUMsh9MDoVqptYDyP" ] },
      { "delegate": "tz3bvNMQ95vfAYtG8193ymshqjSvmxiCUuR5",
        "reception_time": "2022-01-16T01:21:43.277-00:00",
        "included_in_blocks":
          [ "BMaMFMpL9MgQSQUvdmbg7zpkL1pbY4uqGraUMsh9MDoVqptYDyP" ] },
      { "delegate": "tz1aRoaRhSpRYvFdyvgWLL6TGyRoGF51wDjM",
        "reception_time": "2022-01-16T01:21:43.349-00:00",
        "included_in_blocks":
          [ "BMaMFMpL9MgQSQUvdmbg7zpkL1pbY4uqGraUMsh9MDoVqptYDyP" ] },
      { "delegate": "tz1WctSwL49BZtdWAQ75NY6vr4xsAx6oKdah",
        "reception_time": "2022-01-16T01:21:43.355-00:00",
        "included_in_blocks":
          [ "BMaMFMpL9MgQSQUvdmbg7zpkL1pbY4uqGraUMsh9MDoVqptYDyP" ] },
      { "delegate": "tz1T7duV5gZWSTq4YpBGbXNLTfznCLDrFxvs",
        "reception_time": "2022-01-16T01:21:43.540-00:00",
        "included_in_blocks":
          [ "BMaMFMpL9MgQSQUvdmbg7zpkL1pbY4uqGraUMsh9MDoVqptYDyP" ] },
      { "delegate": "tz1dRKU4FQ9QRRQPdaH4zCR6gmCmXfcvcgtB",
        "reception_time": "2022-01-16T01:21:43.957-00:00",
        "included_in_blocks":
          [ "BMaMFMpL9MgQSQUvdmbg7zpkL1pbY4uqGraUMsh9MDoVqptYDyP" ] },
      { "delegate": "tz3NExpXn9aPNZPorRE4SdjJ2RGrfbJgMAaV",
        "reception_time": "2022-01-16T01:21:43.981-00:00",
        "included_in_blocks":
          [ "BMaMFMpL9MgQSQUvdmbg7zpkL1pbY4uqGraUMsh9MDoVqptYDyP" ] },
      { "delegate": "tz1dNVDWPf3Q59SdJqnjdnu277iyvReiRS9M",
        "reception_time": "2022-01-16T01:21:44.193-00:00",
        "included_in_blocks":
          [ "BMaMFMpL9MgQSQUvdmbg7zpkL1pbY4uqGraUMsh9MDoVqptYDyP" ] },
      { "delegate": "tz1g8vkmcde6sWKaG2NN9WKzCkDM6Rziq194",
        "reception_time": "2022-01-16T01:21:45.062-00:00",
        "included_in_blocks":
          [ "BMaMFMpL9MgQSQUvdmbg7zpkL1pbY4uqGraUMsh9MDoVqptYDyP" ] },
      { "delegate": "tz1W5VkdB5s7ENMESVBtwyt9kyvLqPcUczRT",
        "reception_time": "2022-01-16T01:21:45.406-00:00",
        "included_in_blocks":
          [ "BMaMFMpL9MgQSQUvdmbg7zpkL1pbY4uqGraUMsh9MDoVqptYDyP" ] },
      { "delegate": "tz1S5WxdZR5f9NzsPXhr7L9L1vrEb5spZFur",
        "reception_time": "2022-01-16T01:21:45.651-00:00",
        "included_in_blocks":
          [ "BMaMFMpL9MgQSQUvdmbg7zpkL1pbY4uqGraUMsh9MDoVqptYDyP" ] } ] }