{ "blocks":
    [ { "hash": "BM2tto58LerKXPH7fEsBSMsLTWimjqZP4hYYfzYGfkuctxtyg7j",
        "delegate": "tz1gfArv665EUkSg2ojMBzcbfwuPxAvqPvjo",
        "reception_time": "2022-01-16T01:23:07.677-00:00",
        "timestamp": "2022-01-16T01:23:00Z" } ],
  "endorsements":
    [ { "delegate": "tz1TRspM5SeZpaQUhzByXbEvqKF1vnCM2YTK" },
      { "delegate": "tz1eEnQhbwf6trb8Q8mPb2RaPkNk2rN7BKi8",
        "reception_time": "2022-01-16T01:23:07.579-00:00",
        "errors":
          [ { "kind": "temporary",
              "id": "proto.011-PtHangz2.prefilter.outdated_endorsement" } ],
        "included_in_blocks":
          [ "BKpVVRqzNBN3MKaM6YjxaNj2fUF5umborvuvCfYG9uAE1YSdQJc" ] },
      { "delegate": "tz1gfArv665EUkSg2ojMBzcbfwuPxAvqPvjo",
        "reception_time": "2022-01-16T01:23:07.496-00:00",
        "errors":
          [ { "kind": "temporary",
              "id": "proto.011-PtHangz2.prefilter.outdated_endorsement" } ],
        "included_in_blocks":
          [ "BKpVVRqzNBN3MKaM6YjxaNj2fUF5umborvuvCfYG9uAE1YSdQJc" ] },
      { "delegate": "tz1P2Po7YM526ughEsRbY4oR9zaUPDZjxFrb",
        "reception_time": "2022-01-16T01:23:07.430-00:00",
        "errors":
          [ { "kind": "temporary",
              "id": "proto.011-PtHangz2.prefilter.outdated_endorsement" } ],
        "included_in_blocks":
          [ "BKpVVRqzNBN3MKaM6YjxaNj2fUF5umborvuvCfYG9uAE1YSdQJc" ] },
      { "delegate": "tz1S8e9GgdZG78XJRB3NqabfWeM37GnhZMWQ",
        "reception_time": "2022-01-16T01:23:07.335-00:00",
        "errors":
          [ { "kind": "temporary",
              "id": "proto.011-PtHangz2.prefilter.outdated_endorsement" } ],
        "included_in_blocks":
          [ "BKpVVRqzNBN3MKaM6YjxaNj2fUF5umborvuvCfYG9uAE1YSdQJc" ] },
      { "delegate": "tz3e7LbZvUtoXhpUD1yb6wuFodZpfYRb9nWJ",
        "reception_time": "2022-01-16T01:23:16.512-00:00",
        "included_in_blocks":
          [ "BKpVVRqzNBN3MKaM6YjxaNj2fUF5umborvuvCfYG9uAE1YSdQJc" ] },
      { "delegate": "tz1go7f6mEQfT2xX2LuHAqgnRGN6c2zHPf5c",
        "reception_time": "2022-01-16T01:23:14.061-00:00",
        "included_in_blocks":
          [ "BKpVVRqzNBN3MKaM6YjxaNj2fUF5umborvuvCfYG9uAE1YSdQJc" ] },
      { "delegate": "tz1W5VkdB5s7ENMESVBtwyt9kyvLqPcUczRT",
        "reception_time": "2022-01-16T01:23:12.698-00:00",
        "included_in_blocks":
          [ "BKpVVRqzNBN3MKaM6YjxaNj2fUF5umborvuvCfYG9uAE1YSdQJc" ] },
      { "delegate": "tz1i3mhawFAgcB8JHaHwoUF6hdncwTAkLEn2",
        "reception_time": "2022-01-16T01:23:12.556-00:00",
        "included_in_blocks":
          [ "BKpVVRqzNBN3MKaM6YjxaNj2fUF5umborvuvCfYG9uAE1YSdQJc" ] },
      { "delegate": "tz1g8vkmcde6sWKaG2NN9WKzCkDM6Rziq194",
        "reception_time": "2022-01-16T01:23:12.519-00:00",
        "included_in_blocks":
          [ "BKpVVRqzNBN3MKaM6YjxaNj2fUF5umborvuvCfYG9uAE1YSdQJc" ] },
      { "delegate": "tz1aJS7Pk9uWR3wWyFf1i3RwhYxN84G7stom",
        "reception_time": "2022-01-16T01:23:12.350-00:00",
        "included_in_blocks":
          [ "BKpVVRqzNBN3MKaM6YjxaNj2fUF5umborvuvCfYG9uAE1YSdQJc" ] },
      { "delegate": "tz1PFeoTuFen8jAMRHajBySNyCwLmY5RqF9M",
        "reception_time": "2022-01-16T01:23:11.717-00:00",
        "included_in_blocks":
          [ "BKpVVRqzNBN3MKaM6YjxaNj2fUF5umborvuvCfYG9uAE1YSdQJc" ] },
      { "delegate": "tz1QJU1PuKUP5ZQxUr4pHZjCHGRvJSpcXv7G",
        "reception_time": "2022-01-16T01:23:11.300-00:00",
        "included_in_blocks":
          [ "BKpVVRqzNBN3MKaM6YjxaNj2fUF5umborvuvCfYG9uAE1YSdQJc" ] },
      { "delegate": "tz3NExpXn9aPNZPorRE4SdjJ2RGrfbJgMAaV",
        "reception_time": "2022-01-16T01:23:11.534-00:00",
        "included_in_blocks":
          [ "BKpVVRqzNBN3MKaM6YjxaNj2fUF5umborvuvCfYG9uAE1YSdQJc" ] },
      { "delegate": "tz1bf816tUrSLYsWkUrsDFH9kkbpg3oXjriR",
        "reception_time": "2022-01-16T01:23:11.385-00:00",
        "included_in_blocks":
          [ "BKpVVRqzNBN3MKaM6YjxaNj2fUF5umborvuvCfYG9uAE1YSdQJc" ] },
      { "delegate": "tz3UoffC7FG7zfpmvmjUmUeAaHvzdcUvAj6r",
        "reception_time": "2022-01-16T01:23:11.286-00:00",
        "included_in_blocks":
          [ "BKpVVRqzNBN3MKaM6YjxaNj2fUF5umborvuvCfYG9uAE1YSdQJc" ] },
      { "delegate": "tz1aRoaRhSpRYvFdyvgWLL6TGyRoGF51wDjM",
        "reception_time": "2022-01-16T01:23:11.106-00:00",
        "included_in_blocks":
          [ "BKpVVRqzNBN3MKaM6YjxaNj2fUF5umborvuvCfYG9uAE1YSdQJc" ] },
      { "delegate": "tz1T7duV5gZWSTq4YpBGbXNLTfznCLDrFxvs",
        "reception_time": "2022-01-16T01:23:11.034-00:00",
        "included_in_blocks":
          [ "BKpVVRqzNBN3MKaM6YjxaNj2fUF5umborvuvCfYG9uAE1YSdQJc" ] },
      { "delegate": "tz1dRKU4FQ9QRRQPdaH4zCR6gmCmXfcvcgtB",
        "reception_time": "2022-01-16T01:23:10.808-00:00",
        "included_in_blocks":
          [ "BKpVVRqzNBN3MKaM6YjxaNj2fUF5umborvuvCfYG9uAE1YSdQJc" ] },
      { "delegate": "tz3RB4aoyjov4KEVRbuhvQ1CKJgBJMWhaeB8",
        "reception_time": "2022-01-16T01:23:10.769-00:00",
        "included_in_blocks":
          [ "BKpVVRqzNBN3MKaM6YjxaNj2fUF5umborvuvCfYG9uAE1YSdQJc" ] },
      { "delegate": "tz1NEKxGEHsFufk87CVZcrqWu8o22qh46GK6",
        "reception_time": "2022-01-16T01:23:10.489-00:00",
        "included_in_blocks":
          [ "BKpVVRqzNBN3MKaM6YjxaNj2fUF5umborvuvCfYG9uAE1YSdQJc" ] },
      { "delegate": "tz3RDC3Jdn4j15J7bBHZd29EUee9gVB1CxD9",
        "reception_time": "2022-01-16T01:23:10.674-00:00",
        "included_in_blocks":
          [ "BKpVVRqzNBN3MKaM6YjxaNj2fUF5umborvuvCfYG9uAE1YSdQJc" ] },
      { "delegate": "tz1UvkANVPWppVgMkLnvN7BwYZsCP7vm6NVd",
        "reception_time": "2022-01-16T01:23:10.313-00:00",
        "included_in_blocks":
          [ "BKpVVRqzNBN3MKaM6YjxaNj2fUF5umborvuvCfYG9uAE1YSdQJc" ] },
      { "delegate": "tz1awXW7wuXy21c66vBudMXQVAPgRnqqwgTH",
        "reception_time": "2022-01-16T01:23:10.277-00:00",
        "included_in_blocks":
          [ "BKpVVRqzNBN3MKaM6YjxaNj2fUF5umborvuvCfYG9uAE1YSdQJc" ] },
      { "delegate": "tz3VEZ4k6a4Wx42iyev6i2aVAptTRLEAivNN",
        "reception_time": "2022-01-16T01:23:10.286-00:00",
        "included_in_blocks":
          [ "BKpVVRqzNBN3MKaM6YjxaNj2fUF5umborvuvCfYG9uAE1YSdQJc" ] },
      { "delegate": "tz1Vd1rXpV8hTHbFXCXN3c3qzCsgcU5BZw1e",
        "reception_time": "2022-01-16T01:23:10.158-00:00",
        "included_in_blocks":
          [ "BKpVVRqzNBN3MKaM6YjxaNj2fUF5umborvuvCfYG9uAE1YSdQJc" ] },
      { "delegate": "tz1dNVDWPf3Q59SdJqnjdnu277iyvReiRS9M",
        "reception_time": "2022-01-16T01:23:10.244-00:00",
        "included_in_blocks":
          [ "BKpVVRqzNBN3MKaM6YjxaNj2fUF5umborvuvCfYG9uAE1YSdQJc" ] },
      { "delegate": "tz1cig1EHyvZd7J2k389moM9PxVgPQvmFkvi",
        "reception_time": "2022-01-16T01:23:10.190-00:00",
        "included_in_blocks":
          [ "BKpVVRqzNBN3MKaM6YjxaNj2fUF5umborvuvCfYG9uAE1YSdQJc" ] },
      { "delegate": "tz2FCNBrERXtaTtNX6iimR1UJ5JSDxvdHM93",
        "reception_time": "2022-01-16T01:23:10.037-00:00",
        "included_in_blocks":
          [ "BKpVVRqzNBN3MKaM6YjxaNj2fUF5umborvuvCfYG9uAE1YSdQJc" ] },
      { "delegate": "tz1VceyYUpq1gk5dtp6jXQRtCtY8hm5DKt72",
        "reception_time": "2022-01-16T01:23:09.940-00:00",
        "included_in_blocks":
          [ "BKpVVRqzNBN3MKaM6YjxaNj2fUF5umborvuvCfYG9uAE1YSdQJc" ] },
      { "delegate": "tz1axcnVN9tZnCe4sQQhC6f3tfSEXdjPaXPY",
        "reception_time": "2022-01-16T01:23:10.042-00:00",
        "included_in_blocks":
          [ "BKpVVRqzNBN3MKaM6YjxaNj2fUF5umborvuvCfYG9uAE1YSdQJc" ] },
      { "delegate": "tz1TRqbYbUf2GyrjErf3hBzgBJPzW8y36qEs",
        "reception_time": "2022-01-16T01:23:09.804-00:00",
        "included_in_blocks":
          [ "BKpVVRqzNBN3MKaM6YjxaNj2fUF5umborvuvCfYG9uAE1YSdQJc" ] },
      { "delegate": "tz1Nf6tsK4G6bBqgSQERy4nUtkHNKUVdh7q1",
        "reception_time": "2022-01-16T01:23:09.789-00:00",
        "included_in_blocks":
          [ "BKpVVRqzNBN3MKaM6YjxaNj2fUF5umborvuvCfYG9uAE1YSdQJc" ] },
      { "delegate": "tz3WMqdzXqRWXwyvj5Hp2H7QEepaUuS7vd9K",
        "reception_time": "2022-01-16T01:23:09.911-00:00",
        "included_in_blocks":
          [ "BKpVVRqzNBN3MKaM6YjxaNj2fUF5umborvuvCfYG9uAE1YSdQJc" ] },
      { "delegate": "tz3NDpRj6WBrJPikcPVHRBEjWKxFw3c6eQPS",
        "reception_time": "2022-01-16T01:23:09.750-00:00",
        "included_in_blocks":
          [ "BKpVVRqzNBN3MKaM6YjxaNj2fUF5umborvuvCfYG9uAE1YSdQJc" ] },
      { "delegate": "tz1RQhNh7iB9CZA7i3ifTWNwiGYVffponfbB",
        "reception_time": "2022-01-16T01:23:09.669-00:00",
        "included_in_blocks":
          [ "BKpVVRqzNBN3MKaM6YjxaNj2fUF5umborvuvCfYG9uAE1YSdQJc" ] },
      { "delegate": "tz1WBfwbT66FC6BTLexc2BoyCCBM9LG7pnVW",
        "reception_time": "2022-01-16T01:23:09.721-00:00",
        "included_in_blocks":
          [ "BKpVVRqzNBN3MKaM6YjxaNj2fUF5umborvuvCfYG9uAE1YSdQJc" ] },
      { "delegate": "tz1fikAGfa1MTxX2oJ7UCtvDpVKeH4KTp1UY",
        "reception_time": "2022-01-16T01:23:09.600-00:00",
        "included_in_blocks":
          [ "BKpVVRqzNBN3MKaM6YjxaNj2fUF5umborvuvCfYG9uAE1YSdQJc" ] },
      { "delegate": "tz1S8MNvuFEUsWgjHvi3AxibRBf388NhT1q2",
        "reception_time": "2022-01-16T01:23:09.522-00:00",
        "included_in_blocks":
          [ "BKpVVRqzNBN3MKaM6YjxaNj2fUF5umborvuvCfYG9uAE1YSdQJc" ] },
      { "delegate": "tz1cSj7fTex3JPd1p1LN1fwek6AV1kH93Wwc",
        "reception_time": "2022-01-16T01:23:09.383-00:00",
        "included_in_blocks":
          [ "BKpVVRqzNBN3MKaM6YjxaNj2fUF5umborvuvCfYG9uAE1YSdQJc" ] },
      { "delegate": "tz1LmaFsWRkjr7QMCx5PtV6xTUz3AmEpKQiF",
        "reception_time": "2022-01-16T01:23:09.405-00:00",
        "included_in_blocks":
          [ "BKpVVRqzNBN3MKaM6YjxaNj2fUF5umborvuvCfYG9uAE1YSdQJc" ] },
      { "delegate": "tz3bTdwZinP8U1JmSweNzVKhmwafqWmFWRfk",
        "reception_time": "2022-01-16T01:23:09.501-00:00",
        "included_in_blocks":
          [ "BKpVVRqzNBN3MKaM6YjxaNj2fUF5umborvuvCfYG9uAE1YSdQJc" ] },
      { "delegate": "tz1ei4WtWEMEJekSv8qDnu9PExG6Q8HgRGr3",
        "reception_time": "2022-01-16T01:23:09.504-00:00",
        "included_in_blocks":
          [ "BKpVVRqzNBN3MKaM6YjxaNj2fUF5umborvuvCfYG9uAE1YSdQJc" ] },
      { "delegate": "tz1RCFbB9GpALpsZtu6J58sb74dm8qe6XBzv",
        "reception_time": "2022-01-16T01:23:09.478-00:00",
        "included_in_blocks":
          [ "BKpVVRqzNBN3MKaM6YjxaNj2fUF5umborvuvCfYG9uAE1YSdQJc" ] },
      { "delegate": "tz1fUjvVhJrHLZCbhPNvDRckxApqbkievJHN",
        "reception_time": "2022-01-16T01:23:09.464-00:00",
        "included_in_blocks":
          [ "BKpVVRqzNBN3MKaM6YjxaNj2fUF5umborvuvCfYG9uAE1YSdQJc" ] },
      { "delegate": "tz1TEc75UKXv4W5cwi14Na3NtqFD51yKQi7h",
        "reception_time": "2022-01-16T01:23:09.411-00:00",
        "included_in_blocks":
          [ "BKpVVRqzNBN3MKaM6YjxaNj2fUF5umborvuvCfYG9uAE1YSdQJc" ] },
      { "delegate": "tz1aDiEJf9ztRrAJEXZfcG3CKimoKsGhwVAi",
        "reception_time": "2022-01-16T01:23:09.336-00:00",
        "included_in_blocks":
          [ "BKpVVRqzNBN3MKaM6YjxaNj2fUF5umborvuvCfYG9uAE1YSdQJc" ] },
      { "delegate": "tz1SUgyRB8T5jXgXAwS33pgRHAKrafyg87Yc",
        "reception_time": "2022-01-16T01:23:09.327-00:00",
        "included_in_blocks":
          [ "BKpVVRqzNBN3MKaM6YjxaNj2fUF5umborvuvCfYG9uAE1YSdQJc" ] },
      { "delegate": "tz1KfEsrtDaA1sX7vdM4qmEPWuSytuqCDp5j",
        "reception_time": "2022-01-16T01:23:09.195-00:00",
        "included_in_blocks":
          [ "BKpVVRqzNBN3MKaM6YjxaNj2fUF5umborvuvCfYG9uAE1YSdQJc" ] },
      { "delegate": "tz1abmz7jiCV2GH2u81LRrGgAFFgvQgiDiaf",
        "reception_time": "2022-01-16T01:23:09.205-00:00",
        "included_in_blocks":
          [ "BKpVVRqzNBN3MKaM6YjxaNj2fUF5umborvuvCfYG9uAE1YSdQJc" ] },
      { "delegate": "tz1h4GUAMweP7SNWzDgvMk3yRCAZyaP1MxZq",
        "reception_time": "2022-01-16T01:23:09.180-00:00",
        "included_in_blocks":
          [ "BKpVVRqzNBN3MKaM6YjxaNj2fUF5umborvuvCfYG9uAE1YSdQJc" ] },
      { "delegate": "tz1Tnjaxk6tbAeC2TmMApPh8UsrEVQvhHvx5",
        "reception_time": "2022-01-16T01:23:09.144-00:00",
        "included_in_blocks":
          [ "BKpVVRqzNBN3MKaM6YjxaNj2fUF5umborvuvCfYG9uAE1YSdQJc" ] },
      { "delegate": "tz1SYq214SCBy9naR6cvycQsYcUGpBqQAE8d",
        "reception_time": "2022-01-16T01:23:09.114-00:00",
        "included_in_blocks":
          [ "BKpVVRqzNBN3MKaM6YjxaNj2fUF5umborvuvCfYG9uAE1YSdQJc" ] },
      { "delegate": "tz1fPKAtsYydh4f1wfWNfeNxWYu72TmM48fu",
        "reception_time": "2022-01-16T01:23:09.117-00:00",
        "included_in_blocks":
          [ "BKpVVRqzNBN3MKaM6YjxaNj2fUF5umborvuvCfYG9uAE1YSdQJc" ] },
      { "delegate": "tz1V4qCyvPKZ5UeqdH14HN42rxvNPQfc9UZg",
        "reception_time": "2022-01-16T01:23:09.136-00:00",
        "included_in_blocks":
          [ "BKpVVRqzNBN3MKaM6YjxaNj2fUF5umborvuvCfYG9uAE1YSdQJc" ] },
      { "delegate": "tz3QT9dHYKDqh563chVa6za8526ys1UKfRfL",
        "reception_time": "2022-01-16T01:23:09.030-00:00",
        "included_in_blocks":
          [ "BKpVVRqzNBN3MKaM6YjxaNj2fUF5umborvuvCfYG9uAE1YSdQJc" ] },
      { "delegate": "tz1WCd2jm4uSt4vntk4vSuUWoZQGhLcDuR9q",
        "reception_time": "2022-01-16T01:23:09.083-00:00",
        "included_in_blocks":
          [ "BKpVVRqzNBN3MKaM6YjxaNj2fUF5umborvuvCfYG9uAE1YSdQJc" ] },
      { "delegate": "tz3S6BBeKgJGXxvLyZ1xzXzMPn11nnFtq5L9",
        "reception_time": "2022-01-16T01:23:09.073-00:00",
        "included_in_blocks":
          [ "BKpVVRqzNBN3MKaM6YjxaNj2fUF5umborvuvCfYG9uAE1YSdQJc" ] },
      { "delegate": "tz1WnfXMPaNTBmH7DBPwqCWs9cPDJdkGBTZ8",
        "reception_time": "2022-01-16T01:23:09.017-00:00",
        "included_in_blocks":
          [ "BKpVVRqzNBN3MKaM6YjxaNj2fUF5umborvuvCfYG9uAE1YSdQJc" ] },
      { "delegate": "tz3hw2kqXhLUvY65ca1eety2oQTpAvd34R9Q",
        "reception_time": "2022-01-16T01:23:08.976-00:00",
        "included_in_blocks":
          [ "BKpVVRqzNBN3MKaM6YjxaNj2fUF5umborvuvCfYG9uAE1YSdQJc" ] },
      { "delegate": "tz3QCNyySViKHmeSr45kzDxzchys7NiXCWoa",
        "reception_time": "2022-01-16T01:23:08.988-00:00",
        "included_in_blocks":
          [ "BKpVVRqzNBN3MKaM6YjxaNj2fUF5umborvuvCfYG9uAE1YSdQJc" ] },
      { "delegate": "tz3RKYFsLuQzKBtmYuLNas7uMu3AsYd4QdsA",
        "reception_time": "2022-01-16T01:23:09.058-00:00",
        "included_in_blocks":
          [ "BKpVVRqzNBN3MKaM6YjxaNj2fUF5umborvuvCfYG9uAE1YSdQJc" ] },
      { "delegate": "tz1a51WYsAsoh4fs4A4x5aCN6Za26mpfDfTi",
        "reception_time": "2022-01-16T01:23:08.936-00:00",
        "included_in_blocks":
          [ "BKpVVRqzNBN3MKaM6YjxaNj2fUF5umborvuvCfYG9uAE1YSdQJc" ] },
      { "delegate": "tz3gtoUxdudfBRcNY7iVdKPHCYYX6xdPpoRS",
        "reception_time": "2022-01-16T01:23:08.936-00:00",
        "included_in_blocks":
          [ "BKpVVRqzNBN3MKaM6YjxaNj2fUF5umborvuvCfYG9uAE1YSdQJc" ] },
      { "delegate": "tz3NxTnke1acr8o3h5y9ytf5awQBGNJUKzVU",
        "reception_time": "2022-01-16T01:23:08.936-00:00",
        "included_in_blocks":
          [ "BKpVVRqzNBN3MKaM6YjxaNj2fUF5umborvuvCfYG9uAE1YSdQJc" ] },
      { "delegate": "tz1MJx9vhaNRSimcuXPK2rW4fLccQnDAnVKJ",
        "reception_time": "2022-01-16T01:23:08.936-00:00",
        "included_in_blocks":
          [ "BKpVVRqzNBN3MKaM6YjxaNj2fUF5umborvuvCfYG9uAE1YSdQJc" ] },
      { "delegate": "tz3Zhs2dygr55yHyQyKjntAtY9bgfhLZ4Xj1",
        "reception_time": "2022-01-16T01:23:08.936-00:00",
        "included_in_blocks":
          [ "BKpVVRqzNBN3MKaM6YjxaNj2fUF5umborvuvCfYG9uAE1YSdQJc" ] },
      { "delegate": "tz1beersuEDv8Z7ngQ825xfbaJNS2EhXnyHR",
        "reception_time": "2022-01-16T01:23:08.936-00:00",
        "included_in_blocks":
          [ "BKpVVRqzNBN3MKaM6YjxaNj2fUF5umborvuvCfYG9uAE1YSdQJc" ] },
      { "delegate": "tz1gUNyn3hmnEWqkusWPzxRaon1cs7ndWh7h",
        "reception_time": "2022-01-16T01:23:08.936-00:00",
        "included_in_blocks":
          [ "BKpVVRqzNBN3MKaM6YjxaNj2fUF5umborvuvCfYG9uAE1YSdQJc" ] },
      { "delegate": "tz1Ldzz6k1BHdhuKvAtMRX7h5kJSMHESMHLC",
        "reception_time": "2022-01-16T01:23:08.936-00:00",
        "included_in_blocks":
          [ "BKpVVRqzNBN3MKaM6YjxaNj2fUF5umborvuvCfYG9uAE1YSdQJc" ] },
      { "delegate": "tz1RV1MBbZMR68tacosb7Mwj6LkbPSUS1er1",
        "reception_time": "2022-01-16T01:23:08.936-00:00",
        "included_in_blocks":
          [ "BKpVVRqzNBN3MKaM6YjxaNj2fUF5umborvuvCfYG9uAE1YSdQJc" ] },
      { "delegate": "tz1VmiY38m3y95HqQLjMwqnMS7sdMfGomzKi",
        "reception_time": "2022-01-16T01:23:08.936-00:00",
        "included_in_blocks":
          [ "BKpVVRqzNBN3MKaM6YjxaNj2fUF5umborvuvCfYG9uAE1YSdQJc" ] },
      { "delegate": "tz3iJu5vrKZcsqRPs8yJ61UDoeEXZmtro4qh",
        "reception_time": "2022-01-16T01:23:08.936-00:00",
        "included_in_blocks":
          [ "BKpVVRqzNBN3MKaM6YjxaNj2fUF5umborvuvCfYG9uAE1YSdQJc" ] },
      { "delegate": "tz1irJKkXS2DBWkU1NnmFQx1c1L7pbGg4yhk",
        "reception_time": "2022-01-16T01:23:08.936-00:00",
        "included_in_blocks":
          [ "BKpVVRqzNBN3MKaM6YjxaNj2fUF5umborvuvCfYG9uAE1YSdQJc" ] },
      { "delegate": "tz1VQnqCCqX4K5sP3FNkVSNKTdCAMJDd3E1n",
        "reception_time": "2022-01-16T01:23:08.936-00:00",
        "included_in_blocks":
          [ "BKpVVRqzNBN3MKaM6YjxaNj2fUF5umborvuvCfYG9uAE1YSdQJc" ] },
      { "delegate": "tz1MQMiZHV8q4tTwUMWmS5Y3kaP6J2136iXr",
        "reception_time": "2022-01-16T01:23:08.936-00:00",
        "included_in_blocks":
          [ "BKpVVRqzNBN3MKaM6YjxaNj2fUF5umborvuvCfYG9uAE1YSdQJc" ] },
      { "delegate": "tz3QSGPoRp3Kn7n3vY24eYeu3Peuqo45LQ4D",
        "reception_time": "2022-01-16T01:23:08.936-00:00",
        "included_in_blocks":
          [ "BKpVVRqzNBN3MKaM6YjxaNj2fUF5umborvuvCfYG9uAE1YSdQJc" ] },
      { "delegate": "tz1Lhf4J9Qxoe3DZ2nfe8FGDnvVj7oKjnMY6",
        "reception_time": "2022-01-16T01:23:08.936-00:00",
        "included_in_blocks":
          [ "BKpVVRqzNBN3MKaM6YjxaNj2fUF5umborvuvCfYG9uAE1YSdQJc" ] } ] }