{ "blocks":
    [ { "hash": "BMQgSwCRcHD7H57PF4BZxvZbktDYgacpjXFwHQbePvGAdNPZpGi",
        "delegate": "tz3bTdwZinP8U1JmSweNzVKhmwafqWmFWRfk",
        "reception_time": "2022-01-15T23:52:59.113-00:00",
        "timestamp": "2022-01-15T23:52:50Z" } ],
  "endorsements":
    [ { "delegate": "tz3bTdwZinP8U1JmSweNzVKhmwafqWmFWRfk",
        "reception_time": "2022-01-15T23:52:59.115-00:00",
        "errors":
          [ { "kind": "temporary",
              "id": "proto.011-PtHangz2.prefilter.outdated_endorsement" } ],
        "included_in_blocks":
          [ "BM3zDeRgk1K1mfpCXtKepkuzxvVgjReYRbh14EWVsP42FDHpWTV" ] },
      { "delegate": "tz1P2Po7YM526ughEsRbY4oR9zaUPDZjxFrb",
        "reception_time": "2022-01-15T23:52:58.989-00:00",
        "errors":
          [ { "kind": "temporary",
              "id": "proto.011-PtHangz2.prefilter.outdated_endorsement" } ],
        "included_in_blocks":
          [ "BM3zDeRgk1K1mfpCXtKepkuzxvVgjReYRbh14EWVsP42FDHpWTV" ] },
      { "delegate": "tz1S8e9GgdZG78XJRB3NqabfWeM37GnhZMWQ",
        "reception_time": "2022-01-15T23:52:58.433-00:00",
        "errors":
          [ { "kind": "temporary",
              "id": "proto.011-PtHangz2.prefilter.outdated_endorsement" } ],
        "included_in_blocks":
          [ "BM3zDeRgk1K1mfpCXtKepkuzxvVgjReYRbh14EWVsP42FDHpWTV" ] },
      { "delegate": "tz1TRspM5SeZpaQUhzByXbEvqKF1vnCM2YTK" },
      { "delegate": "tz1Lhf4J9Qxoe3DZ2nfe8FGDnvVj7oKjnMY6",
        "reception_time": "2022-01-15T23:52:59.865-00:00",
        "included_in_blocks":
          [ "BM3zDeRgk1K1mfpCXtKepkuzxvVgjReYRbh14EWVsP42FDHpWTV" ] },
      { "delegate": "tz1STeamwbp68THcny9zk3LsbG3H36DMvbRK",
        "reception_time": "2022-01-15T23:52:59.865-00:00",
        "included_in_blocks":
          [ "BM3zDeRgk1K1mfpCXtKepkuzxvVgjReYRbh14EWVsP42FDHpWTV" ] },
      { "delegate": "tz1eEnQhbwf6trb8Q8mPb2RaPkNk2rN7BKi8",
        "reception_time": "2022-01-15T23:52:59.865-00:00",
        "included_in_blocks":
          [ "BM3zDeRgk1K1mfpCXtKepkuzxvVgjReYRbh14EWVsP42FDHpWTV" ] },
      { "delegate": "tz3ZbP2pM3nwvXztbuMJwJnDvV5xdpU8UkkD",
        "reception_time": "2022-01-15T23:52:59.865-00:00",
        "included_in_blocks":
          [ "BM3zDeRgk1K1mfpCXtKepkuzxvVgjReYRbh14EWVsP42FDHpWTV" ] },
      { "delegate": "tz3NxTnke1acr8o3h5y9ytf5awQBGNJUKzVU",
        "reception_time": "2022-01-15T23:53:00.009-00:00",
        "included_in_blocks":
          [ "BM3zDeRgk1K1mfpCXtKepkuzxvVgjReYRbh14EWVsP42FDHpWTV" ] },
      { "delegate": "tz1irJKkXS2DBWkU1NnmFQx1c1L7pbGg4yhk",
        "reception_time": "2022-01-15T23:53:00.009-00:00",
        "included_in_blocks":
          [ "BM3zDeRgk1K1mfpCXtKepkuzxvVgjReYRbh14EWVsP42FDHpWTV" ] },
      { "delegate": "tz1MJx9vhaNRSimcuXPK2rW4fLccQnDAnVKJ",
        "reception_time": "2022-01-15T23:53:00.009-00:00",
        "included_in_blocks":
          [ "BM3zDeRgk1K1mfpCXtKepkuzxvVgjReYRbh14EWVsP42FDHpWTV" ] },
      { "delegate": "tz3gtoUxdudfBRcNY7iVdKPHCYYX6xdPpoRS",
        "reception_time": "2022-01-15T23:53:00.009-00:00",
        "included_in_blocks":
          [ "BM3zDeRgk1K1mfpCXtKepkuzxvVgjReYRbh14EWVsP42FDHpWTV" ] },
      { "delegate": "tz1MQMiZHV8q4tTwUMWmS5Y3kaP6J2136iXr",
        "reception_time": "2022-01-15T23:53:00.009-00:00",
        "included_in_blocks":
          [ "BM3zDeRgk1K1mfpCXtKepkuzxvVgjReYRbh14EWVsP42FDHpWTV" ] },
      { "delegate": "tz1Ldzz6k1BHdhuKvAtMRX7h5kJSMHESMHLC",
        "reception_time": "2022-01-15T23:53:00.009-00:00",
        "included_in_blocks":
          [ "BM3zDeRgk1K1mfpCXtKepkuzxvVgjReYRbh14EWVsP42FDHpWTV" ] },
      { "delegate": "tz1WCd2jm4uSt4vntk4vSuUWoZQGhLcDuR9q",
        "reception_time": "2022-01-15T23:53:00.254-00:00",
        "included_in_blocks":
          [ "BM3zDeRgk1K1mfpCXtKepkuzxvVgjReYRbh14EWVsP42FDHpWTV" ] },
      { "delegate": "tz3QSGPoRp3Kn7n3vY24eYeu3Peuqo45LQ4D",
        "reception_time": "2022-01-15T23:53:00.254-00:00",
        "included_in_blocks":
          [ "BM3zDeRgk1K1mfpCXtKepkuzxvVgjReYRbh14EWVsP42FDHpWTV" ] },
      { "delegate": "tz3RDC3Jdn4j15J7bBHZd29EUee9gVB1CxD9",
        "reception_time": "2022-01-15T23:53:00.254-00:00",
        "included_in_blocks":
          [ "BM3zDeRgk1K1mfpCXtKepkuzxvVgjReYRbh14EWVsP42FDHpWTV" ] },
      { "delegate": "tz3Zhs2dygr55yHyQyKjntAtY9bgfhLZ4Xj1",
        "reception_time": "2022-01-15T23:53:00.254-00:00",
        "included_in_blocks":
          [ "BM3zDeRgk1K1mfpCXtKepkuzxvVgjReYRbh14EWVsP42FDHpWTV" ] },
      { "delegate": "tz3iJu5vrKZcsqRPs8yJ61UDoeEXZmtro4qh",
        "reception_time": "2022-01-15T23:53:00.254-00:00",
        "included_in_blocks":
          [ "BM3zDeRgk1K1mfpCXtKepkuzxvVgjReYRbh14EWVsP42FDHpWTV" ] },
      { "delegate": "tz3RKYFsLuQzKBtmYuLNas7uMu3AsYd4QdsA",
        "reception_time": "2022-01-15T23:53:00.254-00:00",
        "included_in_blocks":
          [ "BM3zDeRgk1K1mfpCXtKepkuzxvVgjReYRbh14EWVsP42FDHpWTV" ] },
      { "delegate": "tz3hw2kqXhLUvY65ca1eety2oQTpAvd34R9Q",
        "reception_time": "2022-01-15T23:53:00.254-00:00",
        "included_in_blocks":
          [ "BM3zDeRgk1K1mfpCXtKepkuzxvVgjReYRbh14EWVsP42FDHpWTV" ] },
      { "delegate": "tz3QT9dHYKDqh563chVa6za8526ys1UKfRfL",
        "reception_time": "2022-01-15T23:53:00.294-00:00",
        "included_in_blocks":
          [ "BM3zDeRgk1K1mfpCXtKepkuzxvVgjReYRbh14EWVsP42FDHpWTV" ] },
      { "delegate": "tz3S6BBeKgJGXxvLyZ1xzXzMPn11nnFtq5L9",
        "reception_time": "2022-01-15T23:53:00.325-00:00",
        "included_in_blocks":
          [ "BM3zDeRgk1K1mfpCXtKepkuzxvVgjReYRbh14EWVsP42FDHpWTV" ] },
      { "delegate": "tz1S8MNvuFEUsWgjHvi3AxibRBf388NhT1q2",
        "reception_time": "2022-01-15T23:53:00.371-00:00",
        "included_in_blocks":
          [ "BM3zDeRgk1K1mfpCXtKepkuzxvVgjReYRbh14EWVsP42FDHpWTV" ] },
      { "delegate": "tz1d6Fx42mYgVFnHUW8T8A7WBfJ6nD9pVok8",
        "reception_time": "2022-01-15T23:53:00.373-00:00",
        "included_in_blocks":
          [ "BM3zDeRgk1K1mfpCXtKepkuzxvVgjReYRbh14EWVsP42FDHpWTV" ] },
      { "delegate": "tz1VmiY38m3y95HqQLjMwqnMS7sdMfGomzKi",
        "reception_time": "2022-01-15T23:53:00.382-00:00",
        "included_in_blocks":
          [ "BM3zDeRgk1K1mfpCXtKepkuzxvVgjReYRbh14EWVsP42FDHpWTV" ] },
      { "delegate": "tz1fPKAtsYydh4f1wfWNfeNxWYu72TmM48fu",
        "reception_time": "2022-01-15T23:53:00.385-00:00",
        "included_in_blocks":
          [ "BM3zDeRgk1K1mfpCXtKepkuzxvVgjReYRbh14EWVsP42FDHpWTV" ] },
      { "delegate": "tz1gUNyn3hmnEWqkusWPzxRaon1cs7ndWh7h",
        "reception_time": "2022-01-15T23:53:00.388-00:00",
        "included_in_blocks":
          [ "BM3zDeRgk1K1mfpCXtKepkuzxvVgjReYRbh14EWVsP42FDHpWTV" ] },
      { "delegate": "tz1PWCDnz783NNGGQjEFFsHtrcK5yBW4E2rm",
        "reception_time": "2022-01-15T23:53:00.394-00:00",
        "included_in_blocks":
          [ "BM3zDeRgk1K1mfpCXtKepkuzxvVgjReYRbh14EWVsP42FDHpWTV" ] },
      { "delegate": "tz1VQnqCCqX4K5sP3FNkVSNKTdCAMJDd3E1n",
        "reception_time": "2022-01-15T23:53:00.407-00:00",
        "included_in_blocks":
          [ "BM3zDeRgk1K1mfpCXtKepkuzxvVgjReYRbh14EWVsP42FDHpWTV" ] },
      { "delegate": "tz3RB4aoyjov4KEVRbuhvQ1CKJgBJMWhaeB8",
        "reception_time": "2022-01-15T23:53:00.416-00:00",
        "included_in_blocks":
          [ "BM3zDeRgk1K1mfpCXtKepkuzxvVgjReYRbh14EWVsP42FDHpWTV" ] },
      { "delegate": "tz1SUgyRB8T5jXgXAwS33pgRHAKrafyg87Yc",
        "reception_time": "2022-01-15T23:53:00.587-00:00",
        "included_in_blocks":
          [ "BM3zDeRgk1K1mfpCXtKepkuzxvVgjReYRbh14EWVsP42FDHpWTV" ] },
      { "delegate": "tz1MGTFJXpQmtxLi8QJ7AuVRgM2L2Qfn9w9i",
        "reception_time": "2022-01-15T23:53:00.777-00:00",
        "included_in_blocks":
          [ "BM3zDeRgk1K1mfpCXtKepkuzxvVgjReYRbh14EWVsP42FDHpWTV" ] },
      { "delegate": "tz1SYq214SCBy9naR6cvycQsYcUGpBqQAE8d",
        "reception_time": "2022-01-15T23:53:00.802-00:00",
        "included_in_blocks":
          [ "BM3zDeRgk1K1mfpCXtKepkuzxvVgjReYRbh14EWVsP42FDHpWTV" ] },
      { "delegate": "tz3adcvQaKXTCg12zbninqo3q8ptKKtDFTLv",
        "reception_time": "2022-01-15T23:53:00.833-00:00",
        "included_in_blocks":
          [ "BM3zDeRgk1K1mfpCXtKepkuzxvVgjReYRbh14EWVsP42FDHpWTV" ] },
      { "delegate": "tz3WMqdzXqRWXwyvj5Hp2H7QEepaUuS7vd9K",
        "reception_time": "2022-01-15T23:53:00.910-00:00",
        "included_in_blocks":
          [ "BM3zDeRgk1K1mfpCXtKepkuzxvVgjReYRbh14EWVsP42FDHpWTV" ] },
      { "delegate": "tz1V4qCyvPKZ5UeqdH14HN42rxvNPQfc9UZg",
        "reception_time": "2022-01-15T23:53:00.979-00:00",
        "included_in_blocks":
          [ "BM3zDeRgk1K1mfpCXtKepkuzxvVgjReYRbh14EWVsP42FDHpWTV" ] },
      { "delegate": "tz1gfArv665EUkSg2ojMBzcbfwuPxAvqPvjo",
        "reception_time": "2022-01-15T23:53:00.984-00:00",
        "included_in_blocks":
          [ "BM3zDeRgk1K1mfpCXtKepkuzxvVgjReYRbh14EWVsP42FDHpWTV" ] },
      { "delegate": "tz1Nf6tsK4G6bBqgSQERy4nUtkHNKUVdh7q1",
        "reception_time": "2022-01-15T23:53:01.001-00:00",
        "included_in_blocks":
          [ "BM3zDeRgk1K1mfpCXtKepkuzxvVgjReYRbh14EWVsP42FDHpWTV" ] },
      { "delegate": "tz1NortRftucvAkD1J58L32EhSVrQEWJCEnB",
        "reception_time": "2022-01-15T23:53:01.073-00:00",
        "included_in_blocks":
          [ "BM3zDeRgk1K1mfpCXtKepkuzxvVgjReYRbh14EWVsP42FDHpWTV" ] },
      { "delegate": "tz1WBfwbT66FC6BTLexc2BoyCCBM9LG7pnVW",
        "reception_time": "2022-01-15T23:53:01.263-00:00",
        "included_in_blocks":
          [ "BM3zDeRgk1K1mfpCXtKepkuzxvVgjReYRbh14EWVsP42FDHpWTV" ] },
      { "delegate": "tz1RQhNh7iB9CZA7i3ifTWNwiGYVffponfbB",
        "reception_time": "2022-01-15T23:53:01.305-00:00",
        "included_in_blocks":
          [ "BM3zDeRgk1K1mfpCXtKepkuzxvVgjReYRbh14EWVsP42FDHpWTV" ] },
      { "delegate": "tz1Tnjaxk6tbAeC2TmMApPh8UsrEVQvhHvx5",
        "reception_time": "2022-01-15T23:53:01.322-00:00",
        "included_in_blocks":
          [ "BM3zDeRgk1K1mfpCXtKepkuzxvVgjReYRbh14EWVsP42FDHpWTV" ] },
      { "delegate": "tz3VEZ4k6a4Wx42iyev6i2aVAptTRLEAivNN",
        "reception_time": "2022-01-15T23:53:01.437-00:00",
        "included_in_blocks":
          [ "BM3zDeRgk1K1mfpCXtKepkuzxvVgjReYRbh14EWVsP42FDHpWTV" ] },
      { "delegate": "tz1LXpCpLNRhP7G9Yw8dRhWd8ZfH8929uvGo",
        "reception_time": "2022-01-15T23:53:01.442-00:00",
        "included_in_blocks":
          [ "BM3zDeRgk1K1mfpCXtKepkuzxvVgjReYRbh14EWVsP42FDHpWTV" ] },
      { "delegate": "tz1ei4WtWEMEJekSv8qDnu9PExG6Q8HgRGr3",
        "reception_time": "2022-01-15T23:53:01.450-00:00",
        "included_in_blocks":
          [ "BM3zDeRgk1K1mfpCXtKepkuzxvVgjReYRbh14EWVsP42FDHpWTV" ] },
      { "delegate": "tz3gLTu4Yxj8tPAcriQVUdxv6BY9QyvzU1az",
        "reception_time": "2022-01-15T23:53:01.465-00:00",
        "included_in_blocks":
          [ "BM3zDeRgk1K1mfpCXtKepkuzxvVgjReYRbh14EWVsP42FDHpWTV" ] },
      { "delegate": "tz3NDpRj6WBrJPikcPVHRBEjWKxFw3c6eQPS",
        "reception_time": "2022-01-15T23:53:01.480-00:00",
        "included_in_blocks":
          [ "BM3zDeRgk1K1mfpCXtKepkuzxvVgjReYRbh14EWVsP42FDHpWTV" ] },
      { "delegate": "tz1fwnfJNgiDACshK9avfRfFbMaXrs3ghoJa",
        "reception_time": "2022-01-15T23:53:01.935-00:00",
        "included_in_blocks":
          [ "BM3zDeRgk1K1mfpCXtKepkuzxvVgjReYRbh14EWVsP42FDHpWTV" ] },
      { "delegate": "tz1LmaFsWRkjr7QMCx5PtV6xTUz3AmEpKQiF",
        "reception_time": "2022-01-15T23:53:01.949-00:00",
        "included_in_blocks":
          [ "BM3zDeRgk1K1mfpCXtKepkuzxvVgjReYRbh14EWVsP42FDHpWTV" ] },
      { "delegate": "tz1RCFbB9GpALpsZtu6J58sb74dm8qe6XBzv",
        "reception_time": "2022-01-15T23:53:01.952-00:00",
        "included_in_blocks":
          [ "BM3zDeRgk1K1mfpCXtKepkuzxvVgjReYRbh14EWVsP42FDHpWTV" ] },
      { "delegate": "tz1VceyYUpq1gk5dtp6jXQRtCtY8hm5DKt72",
        "reception_time": "2022-01-15T23:53:01.963-00:00",
        "included_in_blocks":
          [ "BM3zDeRgk1K1mfpCXtKepkuzxvVgjReYRbh14EWVsP42FDHpWTV" ] },
      { "delegate": "tz3UoffC7FG7zfpmvmjUmUeAaHvzdcUvAj6r",
        "reception_time": "2022-01-15T23:53:01.963-00:00",
        "included_in_blocks":
          [ "BM3zDeRgk1K1mfpCXtKepkuzxvVgjReYRbh14EWVsP42FDHpWTV" ] },
      { "delegate": "tz2FCNBrERXtaTtNX6iimR1UJ5JSDxvdHM93",
        "reception_time": "2022-01-15T23:53:01.968-00:00",
        "included_in_blocks":
          [ "BM3zDeRgk1K1mfpCXtKepkuzxvVgjReYRbh14EWVsP42FDHpWTV" ] },
      { "delegate": "tz1NoYvKjXTzTk54VpLxBfouJ33J8jwKPPvw",
        "reception_time": "2022-01-15T23:53:01.970-00:00",
        "included_in_blocks":
          [ "BM3zDeRgk1K1mfpCXtKepkuzxvVgjReYRbh14EWVsP42FDHpWTV" ] },
      { "delegate": "tz1cig1EHyvZd7J2k389moM9PxVgPQvmFkvi",
        "reception_time": "2022-01-15T23:53:02.108-00:00",
        "included_in_blocks":
          [ "BM3zDeRgk1K1mfpCXtKepkuzxvVgjReYRbh14EWVsP42FDHpWTV" ] },
      { "delegate": "tz3NExpXn9aPNZPorRE4SdjJ2RGrfbJgMAaV",
        "reception_time": "2022-01-15T23:53:02.177-00:00",
        "included_in_blocks":
          [ "BM3zDeRgk1K1mfpCXtKepkuzxvVgjReYRbh14EWVsP42FDHpWTV" ] },
      { "delegate": "tz1SohptP53wDPZhzTWzDUFAUcWF6DMBpaJV",
        "reception_time": "2022-01-15T23:53:02.196-00:00",
        "included_in_blocks":
          [ "BM3zDeRgk1K1mfpCXtKepkuzxvVgjReYRbh14EWVsP42FDHpWTV" ] },
      { "delegate": "tz3bvNMQ95vfAYtG8193ymshqjSvmxiCUuR5",
        "reception_time": "2022-01-15T23:53:02.347-00:00",
        "included_in_blocks":
          [ "BM3zDeRgk1K1mfpCXtKepkuzxvVgjReYRbh14EWVsP42FDHpWTV" ] },
      { "delegate": "tz1cYufsxHXJcvANhvS55h3aY32a9BAFB494",
        "reception_time": "2022-01-15T23:53:02.582-00:00",
        "included_in_blocks":
          [ "BM3zDeRgk1K1mfpCXtKepkuzxvVgjReYRbh14EWVsP42FDHpWTV" ] },
      { "delegate": "tz1aRoaRhSpRYvFdyvgWLL6TGyRoGF51wDjM",
        "reception_time": "2022-01-15T23:53:02.707-00:00",
        "included_in_blocks":
          [ "BM3zDeRgk1K1mfpCXtKepkuzxvVgjReYRbh14EWVsP42FDHpWTV" ] },
      { "delegate": "tz1awXW7wuXy21c66vBudMXQVAPgRnqqwgTH",
        "reception_time": "2022-01-15T23:53:02.864-00:00",
        "included_in_blocks":
          [ "BM3zDeRgk1K1mfpCXtKepkuzxvVgjReYRbh14EWVsP42FDHpWTV" ] },
      { "delegate": "tz1T7duV5gZWSTq4YpBGbXNLTfznCLDrFxvs",
        "reception_time": "2022-01-15T23:53:02.880-00:00",
        "included_in_blocks":
          [ "BM3zDeRgk1K1mfpCXtKepkuzxvVgjReYRbh14EWVsP42FDHpWTV" ] },
      { "delegate": "tz1TRqbYbUf2GyrjErf3hBzgBJPzW8y36qEs",
        "reception_time": "2022-01-15T23:53:02.951-00:00",
        "included_in_blocks":
          [ "BM3zDeRgk1K1mfpCXtKepkuzxvVgjReYRbh14EWVsP42FDHpWTV" ] },
      { "delegate": "tz1TcH4Nb3aHNDJ7CGZhU7jgAK1BkSP4Lxds",
        "reception_time": "2022-01-15T23:53:03.572-00:00",
        "included_in_blocks":
          [ "BM3zDeRgk1K1mfpCXtKepkuzxvVgjReYRbh14EWVsP42FDHpWTV" ] },
      { "delegate": "tz1Xsrfv6hn86fp88YfRs6xcKwt2nTqxVZYM",
        "reception_time": "2022-01-15T23:53:03.757-00:00",
        "included_in_blocks":
          [ "BM3zDeRgk1K1mfpCXtKepkuzxvVgjReYRbh14EWVsP42FDHpWTV" ] },
      { "delegate": "tz1NMNQYrYrfNpmUqQrMhJypf6ovnaDZhJHM",
        "reception_time": "2022-01-15T23:53:04.042-00:00",
        "included_in_blocks":
          [ "BM3zDeRgk1K1mfpCXtKepkuzxvVgjReYRbh14EWVsP42FDHpWTV" ] },
      { "delegate": "tz1Z9M4biBHSiH38k5ciRMjR5bgk89yEgLTz",
        "reception_time": "2022-01-15T23:53:04.734-00:00",
        "included_in_blocks":
          [ "BM3zDeRgk1K1mfpCXtKepkuzxvVgjReYRbh14EWVsP42FDHpWTV" ] },
      { "delegate": "tz1NpWrAyDL9k2Lmnyxcgr9xuJakbBxdq7FB",
        "reception_time": "2022-01-15T23:53:15.758-00:00",
        "included_in_blocks":
          [ "BM3zDeRgk1K1mfpCXtKepkuzxvVgjReYRbh14EWVsP42FDHpWTV" ] } ] }