{ "blocks":
    [ { "hash": "BLDTdxs3gNWce3pHPxFcau9EGSGtgUbYmcavFFYGn4umkmnefcC",
        "delegate": "tz1gfArv665EUkSg2ojMBzcbfwuPxAvqPvjo",
        "reception_time": "2022-01-16T01:13:36.965-00:00",
        "timestamp": "2022-01-16T01:13:30Z" } ],
  "endorsements":
    [ { "delegate": "tz1P2Po7YM526ughEsRbY4oR9zaUPDZjxFrb",
        "reception_time": "2022-01-16T01:13:36.875-00:00",
        "errors":
          [ { "kind": "temporary",
              "id": "proto.011-PtHangz2.prefilter.outdated_endorsement" } ],
        "included_in_blocks":
          [ "BLqqx1rqBwsfWjpeRHMzfjPNNHuNDCxNVfLpWkLwPMDg77UaQp9" ] },
      { "delegate": "tz1gfArv665EUkSg2ojMBzcbfwuPxAvqPvjo",
        "reception_time": "2022-01-16T01:13:36.801-00:00",
        "errors":
          [ { "kind": "temporary",
              "id": "proto.011-PtHangz2.prefilter.outdated_endorsement" } ],
        "included_in_blocks":
          [ "BLqqx1rqBwsfWjpeRHMzfjPNNHuNDCxNVfLpWkLwPMDg77UaQp9" ] },
      { "delegate": "tz1S8e9GgdZG78XJRB3NqabfWeM37GnhZMWQ",
        "reception_time": "2022-01-16T01:13:36.641-00:00",
        "errors":
          [ { "kind": "temporary",
              "id": "proto.011-PtHangz2.prefilter.outdated_endorsement" } ],
        "included_in_blocks":
          [ "BLqqx1rqBwsfWjpeRHMzfjPNNHuNDCxNVfLpWkLwPMDg77UaQp9" ] },
      { "delegate": "tz1TRspM5SeZpaQUhzByXbEvqKF1vnCM2YTK" },
      { "delegate": "tz1eEnQhbwf6trb8Q8mPb2RaPkNk2rN7BKi8",
        "reception_time": "2022-01-16T01:13:38.066-00:00",
        "included_in_blocks":
          [ "BLqqx1rqBwsfWjpeRHMzfjPNNHuNDCxNVfLpWkLwPMDg77UaQp9" ] },
      { "delegate": "tz1TXzyaKUA8wsWefdSnyaYFnV2M3vCV7er9",
        "reception_time": "2022-01-16T01:13:38.071-00:00",
        "included_in_blocks":
          [ "BLqqx1rqBwsfWjpeRHMzfjPNNHuNDCxNVfLpWkLwPMDg77UaQp9" ] },
      { "delegate": "tz1Scdr2HsZiQjc7bHMeBbmDRXYVvdhjJbBh",
        "reception_time": "2022-01-16T01:13:38.078-00:00",
        "included_in_blocks":
          [ "BLqqx1rqBwsfWjpeRHMzfjPNNHuNDCxNVfLpWkLwPMDg77UaQp9" ] },
      { "delegate": "tz1STeamwbp68THcny9zk3LsbG3H36DMvbRK",
        "reception_time": "2022-01-16T01:13:38.085-00:00",
        "included_in_blocks":
          [ "BLqqx1rqBwsfWjpeRHMzfjPNNHuNDCxNVfLpWkLwPMDg77UaQp9" ] },
      { "delegate": "tz1Lhf4J9Qxoe3DZ2nfe8FGDnvVj7oKjnMY6",
        "reception_time": "2022-01-16T01:13:38.085-00:00",
        "included_in_blocks":
          [ "BLqqx1rqBwsfWjpeRHMzfjPNNHuNDCxNVfLpWkLwPMDg77UaQp9" ] },
      { "delegate": "tz1RV1MBbZMR68tacosb7Mwj6LkbPSUS1er1",
        "reception_time": "2022-01-16T01:13:38.118-00:00",
        "included_in_blocks":
          [ "BLqqx1rqBwsfWjpeRHMzfjPNNHuNDCxNVfLpWkLwPMDg77UaQp9" ] },
      { "delegate": "tz3Zhs2dygr55yHyQyKjntAtY9bgfhLZ4Xj1",
        "reception_time": "2022-01-16T01:13:38.142-00:00",
        "included_in_blocks":
          [ "BLqqx1rqBwsfWjpeRHMzfjPNNHuNDCxNVfLpWkLwPMDg77UaQp9" ] },
      { "delegate": "tz3iJu5vrKZcsqRPs8yJ61UDoeEXZmtro4qh",
        "reception_time": "2022-01-16T01:13:38.150-00:00",
        "included_in_blocks":
          [ "BLqqx1rqBwsfWjpeRHMzfjPNNHuNDCxNVfLpWkLwPMDg77UaQp9" ] },
      { "delegate": "tz1irJKkXS2DBWkU1NnmFQx1c1L7pbGg4yhk",
        "reception_time": "2022-01-16T01:13:38.194-00:00",
        "included_in_blocks":
          [ "BLqqx1rqBwsfWjpeRHMzfjPNNHuNDCxNVfLpWkLwPMDg77UaQp9" ] },
      { "delegate": "tz3RKYFsLuQzKBtmYuLNas7uMu3AsYd4QdsA",
        "reception_time": "2022-01-16T01:13:38.213-00:00",
        "included_in_blocks":
          [ "BLqqx1rqBwsfWjpeRHMzfjPNNHuNDCxNVfLpWkLwPMDg77UaQp9" ] },
      { "delegate": "tz3ZbP2pM3nwvXztbuMJwJnDvV5xdpU8UkkD",
        "reception_time": "2022-01-16T01:13:38.235-00:00",
        "included_in_blocks":
          [ "BLqqx1rqBwsfWjpeRHMzfjPNNHuNDCxNVfLpWkLwPMDg77UaQp9" ] },
      { "delegate": "tz1aXD7Jigrt3PBYSpHSg5Rr33SexMmmM5Ys",
        "reception_time": "2022-01-16T01:13:38.248-00:00",
        "included_in_blocks":
          [ "BLqqx1rqBwsfWjpeRHMzfjPNNHuNDCxNVfLpWkLwPMDg77UaQp9" ] },
      { "delegate": "tz3gtoUxdudfBRcNY7iVdKPHCYYX6xdPpoRS",
        "reception_time": "2022-01-16T01:13:38.287-00:00",
        "included_in_blocks":
          [ "BLqqx1rqBwsfWjpeRHMzfjPNNHuNDCxNVfLpWkLwPMDg77UaQp9" ] },
      { "delegate": "tz1Ldzz6k1BHdhuKvAtMRX7h5kJSMHESMHLC",
        "reception_time": "2022-01-16T01:13:38.295-00:00",
        "included_in_blocks":
          [ "BLqqx1rqBwsfWjpeRHMzfjPNNHuNDCxNVfLpWkLwPMDg77UaQp9" ] },
      { "delegate": "tz3hw2kqXhLUvY65ca1eety2oQTpAvd34R9Q",
        "reception_time": "2022-01-16T01:13:38.302-00:00",
        "included_in_blocks":
          [ "BLqqx1rqBwsfWjpeRHMzfjPNNHuNDCxNVfLpWkLwPMDg77UaQp9" ] },
      { "delegate": "tz3QSGPoRp3Kn7n3vY24eYeu3Peuqo45LQ4D",
        "reception_time": "2022-01-16T01:13:38.310-00:00",
        "included_in_blocks":
          [ "BLqqx1rqBwsfWjpeRHMzfjPNNHuNDCxNVfLpWkLwPMDg77UaQp9" ] },
      { "delegate": "tz1VHmaNfUC9BBcm851g2fhgSUq8NxFapuCA",
        "reception_time": "2022-01-16T01:13:38.312-00:00",
        "included_in_blocks":
          [ "BLqqx1rqBwsfWjpeRHMzfjPNNHuNDCxNVfLpWkLwPMDg77UaQp9" ] },
      { "delegate": "tz1VmiY38m3y95HqQLjMwqnMS7sdMfGomzKi",
        "reception_time": "2022-01-16T01:13:38.325-00:00",
        "included_in_blocks":
          [ "BLqqx1rqBwsfWjpeRHMzfjPNNHuNDCxNVfLpWkLwPMDg77UaQp9" ] },
      { "delegate": "tz1WCd2jm4uSt4vntk4vSuUWoZQGhLcDuR9q",
        "reception_time": "2022-01-16T01:13:38.331-00:00",
        "included_in_blocks":
          [ "BLqqx1rqBwsfWjpeRHMzfjPNNHuNDCxNVfLpWkLwPMDg77UaQp9" ] },
      { "delegate": "tz1TzaNn7wSQSP5gYPXCnNzBCpyMiidCq1PX",
        "reception_time": "2022-01-16T01:13:38.334-00:00",
        "included_in_blocks":
          [ "BLqqx1rqBwsfWjpeRHMzfjPNNHuNDCxNVfLpWkLwPMDg77UaQp9" ] },
      { "delegate": "tz1PWCDnz783NNGGQjEFFsHtrcK5yBW4E2rm",
        "reception_time": "2022-01-16T01:13:38.364-00:00",
        "included_in_blocks":
          [ "BLqqx1rqBwsfWjpeRHMzfjPNNHuNDCxNVfLpWkLwPMDg77UaQp9" ] },
      { "delegate": "tz3QT9dHYKDqh563chVa6za8526ys1UKfRfL",
        "reception_time": "2022-01-16T01:13:38.421-00:00",
        "included_in_blocks":
          [ "BLqqx1rqBwsfWjpeRHMzfjPNNHuNDCxNVfLpWkLwPMDg77UaQp9" ] },
      { "delegate": "tz1gUNyn3hmnEWqkusWPzxRaon1cs7ndWh7h",
        "reception_time": "2022-01-16T01:13:38.429-00:00",
        "included_in_blocks":
          [ "BLqqx1rqBwsfWjpeRHMzfjPNNHuNDCxNVfLpWkLwPMDg77UaQp9" ] },
      { "delegate": "tz1abmz7jiCV2GH2u81LRrGgAFFgvQgiDiaf",
        "reception_time": "2022-01-16T01:13:38.435-00:00",
        "included_in_blocks":
          [ "BLqqx1rqBwsfWjpeRHMzfjPNNHuNDCxNVfLpWkLwPMDg77UaQp9" ] },
      { "delegate": "tz3S6BBeKgJGXxvLyZ1xzXzMPn11nnFtq5L9",
        "reception_time": "2022-01-16T01:13:38.442-00:00",
        "included_in_blocks":
          [ "BLqqx1rqBwsfWjpeRHMzfjPNNHuNDCxNVfLpWkLwPMDg77UaQp9" ] },
      { "delegate": "tz1VQnqCCqX4K5sP3FNkVSNKTdCAMJDd3E1n",
        "reception_time": "2022-01-16T01:13:38.444-00:00",
        "included_in_blocks":
          [ "BLqqx1rqBwsfWjpeRHMzfjPNNHuNDCxNVfLpWkLwPMDg77UaQp9" ] },
      { "delegate": "tz3adcvQaKXTCg12zbninqo3q8ptKKtDFTLv",
        "reception_time": "2022-01-16T01:13:38.454-00:00",
        "included_in_blocks":
          [ "BLqqx1rqBwsfWjpeRHMzfjPNNHuNDCxNVfLpWkLwPMDg77UaQp9" ] },
      { "delegate": "tz1SYq214SCBy9naR6cvycQsYcUGpBqQAE8d",
        "reception_time": "2022-01-16T01:13:38.528-00:00",
        "included_in_blocks":
          [ "BLqqx1rqBwsfWjpeRHMzfjPNNHuNDCxNVfLpWkLwPMDg77UaQp9" ] },
      { "delegate": "tz1S8MNvuFEUsWgjHvi3AxibRBf388NhT1q2",
        "reception_time": "2022-01-16T01:13:38.551-00:00",
        "included_in_blocks":
          [ "BLqqx1rqBwsfWjpeRHMzfjPNNHuNDCxNVfLpWkLwPMDg77UaQp9" ] },
      { "delegate": "tz3RB4aoyjov4KEVRbuhvQ1CKJgBJMWhaeB8",
        "reception_time": "2022-01-16T01:13:38.568-00:00",
        "included_in_blocks":
          [ "BLqqx1rqBwsfWjpeRHMzfjPNNHuNDCxNVfLpWkLwPMDg77UaQp9" ] },
      { "delegate": "tz1d6Fx42mYgVFnHUW8T8A7WBfJ6nD9pVok8",
        "reception_time": "2022-01-16T01:13:38.597-00:00",
        "included_in_blocks":
          [ "BLqqx1rqBwsfWjpeRHMzfjPNNHuNDCxNVfLpWkLwPMDg77UaQp9" ] },
      { "delegate": "tz1V4qCyvPKZ5UeqdH14HN42rxvNPQfc9UZg",
        "reception_time": "2022-01-16T01:13:38.658-00:00",
        "included_in_blocks":
          [ "BLqqx1rqBwsfWjpeRHMzfjPNNHuNDCxNVfLpWkLwPMDg77UaQp9" ] },
      { "delegate": "tz3bTdwZinP8U1JmSweNzVKhmwafqWmFWRfk",
        "reception_time": "2022-01-16T01:13:38.676-00:00",
        "included_in_blocks":
          [ "BLqqx1rqBwsfWjpeRHMzfjPNNHuNDCxNVfLpWkLwPMDg77UaQp9" ] },
      { "delegate": "tz1cSj7fTex3JPd1p1LN1fwek6AV1kH93Wwc",
        "reception_time": "2022-01-16T01:13:38.719-00:00",
        "included_in_blocks":
          [ "BLqqx1rqBwsfWjpeRHMzfjPNNHuNDCxNVfLpWkLwPMDg77UaQp9" ] },
      { "delegate": "tz1ei4WtWEMEJekSv8qDnu9PExG6Q8HgRGr3",
        "reception_time": "2022-01-16T01:13:38.721-00:00",
        "included_in_blocks":
          [ "BLqqx1rqBwsfWjpeRHMzfjPNNHuNDCxNVfLpWkLwPMDg77UaQp9" ] },
      { "delegate": "tz1hAYfexyzPGG6RhZZMpDvAHifubsbb6kgn",
        "reception_time": "2022-01-16T01:13:38.803-00:00",
        "included_in_blocks":
          [ "BLqqx1rqBwsfWjpeRHMzfjPNNHuNDCxNVfLpWkLwPMDg77UaQp9" ] },
      { "delegate": "tz1RCFbB9GpALpsZtu6J58sb74dm8qe6XBzv",
        "reception_time": "2022-01-16T01:13:38.868-00:00",
        "included_in_blocks":
          [ "BLqqx1rqBwsfWjpeRHMzfjPNNHuNDCxNVfLpWkLwPMDg77UaQp9" ] },
      { "delegate": "tz1TEc75UKXv4W5cwi14Na3NtqFD51yKQi7h",
        "reception_time": "2022-01-16T01:13:38.997-00:00",
        "included_in_blocks":
          [ "BLqqx1rqBwsfWjpeRHMzfjPNNHuNDCxNVfLpWkLwPMDg77UaQp9" ] },
      { "delegate": "tz1KfEsrtDaA1sX7vdM4qmEPWuSytuqCDp5j",
        "reception_time": "2022-01-16T01:13:39.017-00:00",
        "included_in_blocks":
          [ "BLqqx1rqBwsfWjpeRHMzfjPNNHuNDCxNVfLpWkLwPMDg77UaQp9" ] },
      { "delegate": "tz1SohptP53wDPZhzTWzDUFAUcWF6DMBpaJV",
        "reception_time": "2022-01-16T01:13:39.067-00:00",
        "included_in_blocks":
          [ "BLqqx1rqBwsfWjpeRHMzfjPNNHuNDCxNVfLpWkLwPMDg77UaQp9" ] },
      { "delegate": "tz2FCNBrERXtaTtNX6iimR1UJ5JSDxvdHM93",
        "reception_time": "2022-01-16T01:13:39.092-00:00",
        "included_in_blocks":
          [ "BLqqx1rqBwsfWjpeRHMzfjPNNHuNDCxNVfLpWkLwPMDg77UaQp9" ] },
      { "delegate": "tz1TRqbYbUf2GyrjErf3hBzgBJPzW8y36qEs",
        "reception_time": "2022-01-16T01:13:39.189-00:00",
        "included_in_blocks":
          [ "BLqqx1rqBwsfWjpeRHMzfjPNNHuNDCxNVfLpWkLwPMDg77UaQp9" ] },
      { "delegate": "tz3NDpRj6WBrJPikcPVHRBEjWKxFw3c6eQPS",
        "reception_time": "2022-01-16T01:13:39.222-00:00",
        "included_in_blocks":
          [ "BLqqx1rqBwsfWjpeRHMzfjPNNHuNDCxNVfLpWkLwPMDg77UaQp9" ] },
      { "delegate": "tz1cig1EHyvZd7J2k389moM9PxVgPQvmFkvi",
        "reception_time": "2022-01-16T01:13:39.228-00:00",
        "included_in_blocks":
          [ "BLqqx1rqBwsfWjpeRHMzfjPNNHuNDCxNVfLpWkLwPMDg77UaQp9" ] },
      { "delegate": "tz1RjoHc98dBoqaH2jawF62XNKh7YsHwbkEv",
        "reception_time": "2022-01-16T01:13:39.255-00:00",
        "included_in_blocks":
          [ "BLqqx1rqBwsfWjpeRHMzfjPNNHuNDCxNVfLpWkLwPMDg77UaQp9" ] },
      { "delegate": "tz1eibLoCDot2w2QWyR7kMoVDTto9fYs2mnJ",
        "reception_time": "2022-01-16T01:13:39.269-00:00",
        "included_in_blocks":
          [ "BLqqx1rqBwsfWjpeRHMzfjPNNHuNDCxNVfLpWkLwPMDg77UaQp9" ] },
      { "delegate": "tz3WMqdzXqRWXwyvj5Hp2H7QEepaUuS7vd9K",
        "reception_time": "2022-01-16T01:13:39.375-00:00",
        "included_in_blocks":
          [ "BLqqx1rqBwsfWjpeRHMzfjPNNHuNDCxNVfLpWkLwPMDg77UaQp9" ] },
      { "delegate": "tz1NEKxGEHsFufk87CVZcrqWu8o22qh46GK6",
        "reception_time": "2022-01-16T01:13:39.555-00:00",
        "included_in_blocks":
          [ "BLqqx1rqBwsfWjpeRHMzfjPNNHuNDCxNVfLpWkLwPMDg77UaQp9" ] },
      { "delegate": "tz3VEZ4k6a4Wx42iyev6i2aVAptTRLEAivNN",
        "reception_time": "2022-01-16T01:13:39.668-00:00",
        "included_in_blocks":
          [ "BLqqx1rqBwsfWjpeRHMzfjPNNHuNDCxNVfLpWkLwPMDg77UaQp9" ] },
      { "delegate": "tz1NRGxXV9h6SdNaZLcgmjuLx3hyy2f8YoGN",
        "reception_time": "2022-01-16T01:13:39.696-00:00",
        "included_in_blocks":
          [ "BLqqx1rqBwsfWjpeRHMzfjPNNHuNDCxNVfLpWkLwPMDg77UaQp9" ] },
      { "delegate": "tz1awXW7wuXy21c66vBudMXQVAPgRnqqwgTH",
        "reception_time": "2022-01-16T01:13:39.725-00:00",
        "included_in_blocks":
          [ "BLqqx1rqBwsfWjpeRHMzfjPNNHuNDCxNVfLpWkLwPMDg77UaQp9" ] },
      { "delegate": "tz1Nf6tsK4G6bBqgSQERy4nUtkHNKUVdh7q1",
        "reception_time": "2022-01-16T01:13:39.798-00:00",
        "included_in_blocks":
          [ "BLqqx1rqBwsfWjpeRHMzfjPNNHuNDCxNVfLpWkLwPMDg77UaQp9" ] },
      { "delegate": "tz3bvNMQ95vfAYtG8193ymshqjSvmxiCUuR5",
        "reception_time": "2022-01-16T01:13:39.830-00:00",
        "included_in_blocks":
          [ "BLqqx1rqBwsfWjpeRHMzfjPNNHuNDCxNVfLpWkLwPMDg77UaQp9" ] },
      { "delegate": "tz1cYufsxHXJcvANhvS55h3aY32a9BAFB494",
        "reception_time": "2022-01-16T01:13:39.931-00:00",
        "included_in_blocks":
          [ "BLqqx1rqBwsfWjpeRHMzfjPNNHuNDCxNVfLpWkLwPMDg77UaQp9" ] },
      { "delegate": "tz1dNVDWPf3Q59SdJqnjdnu277iyvReiRS9M",
        "reception_time": "2022-01-16T01:13:40.084-00:00",
        "included_in_blocks":
          [ "BLqqx1rqBwsfWjpeRHMzfjPNNHuNDCxNVfLpWkLwPMDg77UaQp9" ] },
      { "delegate": "tz1XhnCdVENzgko5x1MMswLHSoQbJ5NPwLZ6",
        "reception_time": "2022-01-16T01:13:40.244-00:00",
        "included_in_blocks":
          [ "BLqqx1rqBwsfWjpeRHMzfjPNNHuNDCxNVfLpWkLwPMDg77UaQp9" ] },
      { "delegate": "tz1dDsLch7Ww1s5mfD1tjBtKWwCdrjuHWanV",
        "reception_time": "2022-01-16T01:13:40.247-00:00",
        "included_in_blocks":
          [ "BLqqx1rqBwsfWjpeRHMzfjPNNHuNDCxNVfLpWkLwPMDg77UaQp9" ] },
      { "delegate": "tz1dRKU4FQ9QRRQPdaH4zCR6gmCmXfcvcgtB",
        "reception_time": "2022-01-16T01:13:40.323-00:00",
        "included_in_blocks":
          [ "BLqqx1rqBwsfWjpeRHMzfjPNNHuNDCxNVfLpWkLwPMDg77UaQp9" ] },
      { "delegate": "tz3UoffC7FG7zfpmvmjUmUeAaHvzdcUvAj6r",
        "reception_time": "2022-01-16T01:13:40.437-00:00",
        "included_in_blocks":
          [ "BLqqx1rqBwsfWjpeRHMzfjPNNHuNDCxNVfLpWkLwPMDg77UaQp9" ] },
      { "delegate": "tz3NExpXn9aPNZPorRE4SdjJ2RGrfbJgMAaV",
        "reception_time": "2022-01-16T01:13:40.450-00:00",
        "included_in_blocks":
          [ "BLqqx1rqBwsfWjpeRHMzfjPNNHuNDCxNVfLpWkLwPMDg77UaQp9" ] },
      { "delegate": "tz3RDC3Jdn4j15J7bBHZd29EUee9gVB1CxD9",
        "reception_time": "2022-01-16T01:13:40.506-00:00",
        "included_in_blocks":
          [ "BLqqx1rqBwsfWjpeRHMzfjPNNHuNDCxNVfLpWkLwPMDg77UaQp9" ] },
      { "delegate": "tz1ZcTRk5uxD86EFEn1vvNffWWqJy7q5eVhc",
        "reception_time": "2022-01-16T01:13:40.706-00:00",
        "included_in_blocks":
          [ "BLqqx1rqBwsfWjpeRHMzfjPNNHuNDCxNVfLpWkLwPMDg77UaQp9" ] },
      { "delegate": "tz1PFeoTuFen8jAMRHajBySNyCwLmY5RqF9M",
        "reception_time": "2022-01-16T01:13:40.857-00:00",
        "included_in_blocks":
          [ "BLqqx1rqBwsfWjpeRHMzfjPNNHuNDCxNVfLpWkLwPMDg77UaQp9" ] },
      { "delegate": "tz1aRoaRhSpRYvFdyvgWLL6TGyRoGF51wDjM",
        "reception_time": "2022-01-16T01:13:40.884-00:00",
        "included_in_blocks":
          [ "BLqqx1rqBwsfWjpeRHMzfjPNNHuNDCxNVfLpWkLwPMDg77UaQp9" ] },
      { "delegate": "tz3e7LbZvUtoXhpUD1yb6wuFodZpfYRb9nWJ",
        "reception_time": "2022-01-16T01:13:45.252-00:00",
        "included_in_blocks":
          [ "BLqqx1rqBwsfWjpeRHMzfjPNNHuNDCxNVfLpWkLwPMDg77UaQp9" ] },
      { "delegate": "tz1NpWrAyDL9k2Lmnyxcgr9xuJakbBxdq7FB",
        "reception_time": "2022-01-16T01:13:51.132-00:00",
        "included_in_blocks":
          [ "BLqqx1rqBwsfWjpeRHMzfjPNNHuNDCxNVfLpWkLwPMDg77UaQp9" ] } ] }