{ "blocks":
    [ { "hash": "BLcFg1BN8RC5L6zsAKJMgGV3giW2aq7z6684uGPts71dLQwkHx3",
        "delegate": "tz1VQnqCCqX4K5sP3FNkVSNKTdCAMJDd3E1n",
        "reception_time": "2022-01-16T01:36:03.839-00:00",
        "timestamp": "2022-01-16T01:36:00Z" } ],
  "endorsements":
    [ { "delegate": "tz1TXzyaKUA8wsWefdSnyaYFnV2M3vCV7er9",
        "reception_time": "2022-01-16T01:36:03.544-00:00",
        "errors":
          [ { "kind": "temporary",
              "id": "proto.011-PtHangz2.prefilter.outdated_endorsement" } ],
        "included_in_blocks":
          [ "BLfyGAkK4jaFDnWSpKrLr2ZXxPEDFjbYHikYKWVTQtAcx6V4RRo" ] },
      { "delegate": "tz1S8e9GgdZG78XJRB3NqabfWeM37GnhZMWQ",
        "reception_time": "2022-01-16T01:36:03.454-00:00",
        "errors":
          [ { "kind": "temporary",
              "id": "proto.011-PtHangz2.prefilter.outdated_endorsement" } ],
        "included_in_blocks":
          [ "BLfyGAkK4jaFDnWSpKrLr2ZXxPEDFjbYHikYKWVTQtAcx6V4RRo" ] },
      { "delegate": "tz1NpWrAyDL9k2Lmnyxcgr9xuJakbBxdq7FB",
        "reception_time": "2022-01-16T01:36:11.539-00:00",
        "included_in_blocks":
          [ "BLfyGAkK4jaFDnWSpKrLr2ZXxPEDFjbYHikYKWVTQtAcx6V4RRo" ] },
      { "delegate": "tz2BzJTyoQp8fNbfhWD4YQgH9JJHDgSGzpdG",
        "reception_time": "2022-01-16T01:36:09.471-00:00",
        "included_in_blocks":
          [ "BLfyGAkK4jaFDnWSpKrLr2ZXxPEDFjbYHikYKWVTQtAcx6V4RRo" ] },
      { "delegate": "tz1fJHFn6sWEd3NnBPngACuw2dggTv6nQZ7g",
        "reception_time": "2022-01-16T01:36:08.797-00:00",
        "included_in_blocks":
          [ "BLfyGAkK4jaFDnWSpKrLr2ZXxPEDFjbYHikYKWVTQtAcx6V4RRo" ] },
      { "delegate": "tz1eVaNx3gCmG1EsLjijkmgAxdLYVf6Bf5Sq",
        "reception_time": "2022-01-16T01:36:08.797-00:00",
        "included_in_blocks":
          [ "BLfyGAkK4jaFDnWSpKrLr2ZXxPEDFjbYHikYKWVTQtAcx6V4RRo" ] },
      { "delegate": "tz1T7duV5gZWSTq4YpBGbXNLTfznCLDrFxvs",
        "reception_time": "2022-01-16T01:36:07.425-00:00",
        "included_in_blocks":
          [ "BLfyGAkK4jaFDnWSpKrLr2ZXxPEDFjbYHikYKWVTQtAcx6V4RRo" ] },
      { "delegate": "tz3bvNMQ95vfAYtG8193ymshqjSvmxiCUuR5",
        "reception_time": "2022-01-16T01:36:07.268-00:00",
        "included_in_blocks":
          [ "BLfyGAkK4jaFDnWSpKrLr2ZXxPEDFjbYHikYKWVTQtAcx6V4RRo" ] },
      { "delegate": "tz1aRoaRhSpRYvFdyvgWLL6TGyRoGF51wDjM",
        "reception_time": "2022-01-16T01:36:06.829-00:00",
        "included_in_blocks":
          [ "BLfyGAkK4jaFDnWSpKrLr2ZXxPEDFjbYHikYKWVTQtAcx6V4RRo" ] },
      { "delegate": "tz1cM8Xc7ZP1TrjkTeKq4PeRhtbnwXSBR6Sw",
        "reception_time": "2022-01-16T01:36:07.805-00:00",
        "included_in_blocks":
          [ "BLfyGAkK4jaFDnWSpKrLr2ZXxPEDFjbYHikYKWVTQtAcx6V4RRo" ] },
      { "delegate": "tz1V3yg82mcrPJbegqVCPn6bC8w1CSTRp3f8",
        "reception_time": "2022-01-16T01:36:06.837-00:00",
        "included_in_blocks":
          [ "BLfyGAkK4jaFDnWSpKrLr2ZXxPEDFjbYHikYKWVTQtAcx6V4RRo" ] },
      { "delegate": "tz1NEKxGEHsFufk87CVZcrqWu8o22qh46GK6",
        "reception_time": "2022-01-16T01:36:06.703-00:00",
        "included_in_blocks":
          [ "BLfyGAkK4jaFDnWSpKrLr2ZXxPEDFjbYHikYKWVTQtAcx6V4RRo" ] },
      { "delegate": "tz3UoffC7FG7zfpmvmjUmUeAaHvzdcUvAj6r",
        "reception_time": "2022-01-16T01:36:07.805-00:00",
        "included_in_blocks":
          [ "BLfyGAkK4jaFDnWSpKrLr2ZXxPEDFjbYHikYKWVTQtAcx6V4RRo" ] },
      { "delegate": "tz1awXW7wuXy21c66vBudMXQVAPgRnqqwgTH",
        "reception_time": "2022-01-16T01:36:06.529-00:00",
        "included_in_blocks":
          [ "BLfyGAkK4jaFDnWSpKrLr2ZXxPEDFjbYHikYKWVTQtAcx6V4RRo" ] },
      { "delegate": "tz1cYufsxHXJcvANhvS55h3aY32a9BAFB494",
        "reception_time": "2022-01-16T01:36:06.414-00:00",
        "included_in_blocks":
          [ "BLfyGAkK4jaFDnWSpKrLr2ZXxPEDFjbYHikYKWVTQtAcx6V4RRo" ] },
      { "delegate": "tz3RDC3Jdn4j15J7bBHZd29EUee9gVB1CxD9",
        "reception_time": "2022-01-16T01:36:06.520-00:00",
        "included_in_blocks":
          [ "BLfyGAkK4jaFDnWSpKrLr2ZXxPEDFjbYHikYKWVTQtAcx6V4RRo" ] },
      { "delegate": "tz1axcnVN9tZnCe4sQQhC6f3tfSEXdjPaXPY",
        "reception_time": "2022-01-16T01:36:06.316-00:00",
        "included_in_blocks":
          [ "BLfyGAkK4jaFDnWSpKrLr2ZXxPEDFjbYHikYKWVTQtAcx6V4RRo" ] },
      { "delegate": "tz1WctSwL49BZtdWAQ75NY6vr4xsAx6oKdah",
        "reception_time": "2022-01-16T01:36:06.390-00:00",
        "included_in_blocks":
          [ "BLfyGAkK4jaFDnWSpKrLr2ZXxPEDFjbYHikYKWVTQtAcx6V4RRo" ] },
      { "delegate": "tz3NDpRj6WBrJPikcPVHRBEjWKxFw3c6eQPS",
        "reception_time": "2022-01-16T01:36:06.308-00:00",
        "included_in_blocks":
          [ "BLfyGAkK4jaFDnWSpKrLr2ZXxPEDFjbYHikYKWVTQtAcx6V4RRo" ] },
      { "delegate": "tz1Nf6tsK4G6bBqgSQERy4nUtkHNKUVdh7q1",
        "reception_time": "2022-01-16T01:36:06.228-00:00",
        "included_in_blocks":
          [ "BLfyGAkK4jaFDnWSpKrLr2ZXxPEDFjbYHikYKWVTQtAcx6V4RRo" ] },
      { "delegate": "tz3NExpXn9aPNZPorRE4SdjJ2RGrfbJgMAaV",
        "reception_time": "2022-01-16T01:36:07.423-00:00",
        "included_in_blocks":
          [ "BLfyGAkK4jaFDnWSpKrLr2ZXxPEDFjbYHikYKWVTQtAcx6V4RRo" ] },
      { "delegate": "tz1NoYvKjXTzTk54VpLxBfouJ33J8jwKPPvw",
        "reception_time": "2022-01-16T01:36:05.965-00:00",
        "included_in_blocks":
          [ "BLfyGAkK4jaFDnWSpKrLr2ZXxPEDFjbYHikYKWVTQtAcx6V4RRo" ] },
      { "delegate": "tz1TRqbYbUf2GyrjErf3hBzgBJPzW8y36qEs",
        "reception_time": "2022-01-16T01:36:05.993-00:00",
        "included_in_blocks":
          [ "BLfyGAkK4jaFDnWSpKrLr2ZXxPEDFjbYHikYKWVTQtAcx6V4RRo" ] },
      { "delegate": "tz1a3T5mRR1XWM1JgydvAqxEwpNs7ktVZuXc",
        "reception_time": "2022-01-16T01:36:05.841-00:00",
        "included_in_blocks":
          [ "BLfyGAkK4jaFDnWSpKrLr2ZXxPEDFjbYHikYKWVTQtAcx6V4RRo" ] },
      { "delegate": "tz1fwnfJNgiDACshK9avfRfFbMaXrs3ghoJa",
        "reception_time": "2022-01-16T01:36:05.822-00:00",
        "included_in_blocks":
          [ "BLfyGAkK4jaFDnWSpKrLr2ZXxPEDFjbYHikYKWVTQtAcx6V4RRo" ] },
      { "delegate": "tz1WBfwbT66FC6BTLexc2BoyCCBM9LG7pnVW",
        "reception_time": "2022-01-16T01:36:05.912-00:00",
        "included_in_blocks":
          [ "BLfyGAkK4jaFDnWSpKrLr2ZXxPEDFjbYHikYKWVTQtAcx6V4RRo" ] },
      { "delegate": "tz2FCNBrERXtaTtNX6iimR1UJ5JSDxvdHM93",
        "reception_time": "2022-01-16T01:36:05.718-00:00",
        "included_in_blocks":
          [ "BLfyGAkK4jaFDnWSpKrLr2ZXxPEDFjbYHikYKWVTQtAcx6V4RRo" ] },
      { "delegate": "tz1TEc75UKXv4W5cwi14Na3NtqFD51yKQi7h",
        "reception_time": "2022-01-16T01:36:05.997-00:00",
        "included_in_blocks":
          [ "BLfyGAkK4jaFDnWSpKrLr2ZXxPEDFjbYHikYKWVTQtAcx6V4RRo" ] },
      { "delegate": "tz1gfArv665EUkSg2ojMBzcbfwuPxAvqPvjo",
        "reception_time": "2022-01-16T01:36:05.728-00:00",
        "included_in_blocks":
          [ "BLfyGAkK4jaFDnWSpKrLr2ZXxPEDFjbYHikYKWVTQtAcx6V4RRo" ] },
      { "delegate": "tz1a23ggmEF4ujBDsh2YyDpoRjNomEjmHBrb",
        "reception_time": "2022-01-16T01:36:05.559-00:00",
        "included_in_blocks":
          [ "BLfyGAkK4jaFDnWSpKrLr2ZXxPEDFjbYHikYKWVTQtAcx6V4RRo" ] },
      { "delegate": "tz1ei4WtWEMEJekSv8qDnu9PExG6Q8HgRGr3",
        "reception_time": "2022-01-16T01:36:05.658-00:00",
        "included_in_blocks":
          [ "BLfyGAkK4jaFDnWSpKrLr2ZXxPEDFjbYHikYKWVTQtAcx6V4RRo" ] },
      { "delegate": "tz3WMqdzXqRWXwyvj5Hp2H7QEepaUuS7vd9K",
        "reception_time": "2022-01-16T01:36:06.682-00:00",
        "included_in_blocks":
          [ "BLfyGAkK4jaFDnWSpKrLr2ZXxPEDFjbYHikYKWVTQtAcx6V4RRo" ] },
      { "delegate": "tz3VEZ4k6a4Wx42iyev6i2aVAptTRLEAivNN",
        "reception_time": "2022-01-16T01:36:06.405-00:00",
        "included_in_blocks":
          [ "BLfyGAkK4jaFDnWSpKrLr2ZXxPEDFjbYHikYKWVTQtAcx6V4RRo" ] },
      { "delegate": "tz1RCFbB9GpALpsZtu6J58sb74dm8qe6XBzv",
        "reception_time": "2022-01-16T01:36:05.676-00:00",
        "included_in_blocks":
          [ "BLfyGAkK4jaFDnWSpKrLr2ZXxPEDFjbYHikYKWVTQtAcx6V4RRo" ] },
      { "delegate": "tz1LmaFsWRkjr7QMCx5PtV6xTUz3AmEpKQiF",
        "reception_time": "2022-01-16T01:36:05.819-00:00",
        "included_in_blocks":
          [ "BLfyGAkK4jaFDnWSpKrLr2ZXxPEDFjbYHikYKWVTQtAcx6V4RRo" ] },
      { "delegate": "tz1bHzftcTKZMTZgLLtnrXydCm6UEqf4ivca",
        "reception_time": "2022-01-16T01:36:05.153-00:00",
        "included_in_blocks":
          [ "BLfyGAkK4jaFDnWSpKrLr2ZXxPEDFjbYHikYKWVTQtAcx6V4RRo" ] },
      { "delegate": "tz1KfEsrtDaA1sX7vdM4qmEPWuSytuqCDp5j",
        "reception_time": "2022-01-16T01:36:05.980-00:00",
        "included_in_blocks":
          [ "BLfyGAkK4jaFDnWSpKrLr2ZXxPEDFjbYHikYKWVTQtAcx6V4RRo" ] },
      { "delegate": "tz1SUgyRB8T5jXgXAwS33pgRHAKrafyg87Yc",
        "reception_time": "2022-01-16T01:36:05.210-00:00",
        "included_in_blocks":
          [ "BLfyGAkK4jaFDnWSpKrLr2ZXxPEDFjbYHikYKWVTQtAcx6V4RRo" ] },
      { "delegate": "tz1cSj7fTex3JPd1p1LN1fwek6AV1kH93Wwc",
        "reception_time": "2022-01-16T01:36:05.123-00:00",
        "included_in_blocks":
          [ "BLfyGAkK4jaFDnWSpKrLr2ZXxPEDFjbYHikYKWVTQtAcx6V4RRo" ] },
      { "delegate": "tz3RB4aoyjov4KEVRbuhvQ1CKJgBJMWhaeB8",
        "reception_time": "2022-01-16T01:36:05.120-00:00",
        "included_in_blocks":
          [ "BLfyGAkK4jaFDnWSpKrLr2ZXxPEDFjbYHikYKWVTQtAcx6V4RRo" ] },
      { "delegate": "tz3RKYFsLuQzKBtmYuLNas7uMu3AsYd4QdsA",
        "reception_time": "2022-01-16T01:36:05.052-00:00",
        "included_in_blocks":
          [ "BLfyGAkK4jaFDnWSpKrLr2ZXxPEDFjbYHikYKWVTQtAcx6V4RRo" ] },
      { "delegate": "tz3S6BBeKgJGXxvLyZ1xzXzMPn11nnFtq5L9",
        "reception_time": "2022-01-16T01:36:05.002-00:00",
        "included_in_blocks":
          [ "BLfyGAkK4jaFDnWSpKrLr2ZXxPEDFjbYHikYKWVTQtAcx6V4RRo" ] },
      { "delegate": "tz3Zhs2dygr55yHyQyKjntAtY9bgfhLZ4Xj1",
        "reception_time": "2022-01-16T01:36:04.909-00:00",
        "included_in_blocks":
          [ "BLfyGAkK4jaFDnWSpKrLr2ZXxPEDFjbYHikYKWVTQtAcx6V4RRo" ] },
      { "delegate": "tz3bTdwZinP8U1JmSweNzVKhmwafqWmFWRfk",
        "reception_time": "2022-01-16T01:36:05.102-00:00",
        "included_in_blocks":
          [ "BLfyGAkK4jaFDnWSpKrLr2ZXxPEDFjbYHikYKWVTQtAcx6V4RRo" ] },
      { "delegate": "tz3hw2kqXhLUvY65ca1eety2oQTpAvd34R9Q",
        "reception_time": "2022-01-16T01:36:05.074-00:00",
        "included_in_blocks":
          [ "BLfyGAkK4jaFDnWSpKrLr2ZXxPEDFjbYHikYKWVTQtAcx6V4RRo" ] },
      { "delegate": "tz1a51WYsAsoh4fs4A4x5aCN6Za26mpfDfTi",
        "reception_time": "2022-01-16T01:36:04.987-00:00",
        "included_in_blocks":
          [ "BLfyGAkK4jaFDnWSpKrLr2ZXxPEDFjbYHikYKWVTQtAcx6V4RRo" ] },
      { "delegate": "tz3QT9dHYKDqh563chVa6za8526ys1UKfRfL",
        "reception_time": "2022-01-16T01:36:05.020-00:00",
        "included_in_blocks":
          [ "BLfyGAkK4jaFDnWSpKrLr2ZXxPEDFjbYHikYKWVTQtAcx6V4RRo" ] },
      { "delegate": "tz3iJu5vrKZcsqRPs8yJ61UDoeEXZmtro4qh",
        "reception_time": "2022-01-16T01:36:04.942-00:00",
        "included_in_blocks":
          [ "BLfyGAkK4jaFDnWSpKrLr2ZXxPEDFjbYHikYKWVTQtAcx6V4RRo" ] },
      { "delegate": "tz1PWCDnz783NNGGQjEFFsHtrcK5yBW4E2rm",
        "reception_time": "2022-01-16T01:36:05.009-00:00",
        "included_in_blocks":
          [ "BLfyGAkK4jaFDnWSpKrLr2ZXxPEDFjbYHikYKWVTQtAcx6V4RRo" ] },
      { "delegate": "tz1VmiY38m3y95HqQLjMwqnMS7sdMfGomzKi",
        "reception_time": "2022-01-16T01:36:05.006-00:00",
        "included_in_blocks":
          [ "BLfyGAkK4jaFDnWSpKrLr2ZXxPEDFjbYHikYKWVTQtAcx6V4RRo" ] },
      { "delegate": "tz3gtoUxdudfBRcNY7iVdKPHCYYX6xdPpoRS",
        "reception_time": "2022-01-16T01:36:04.853-00:00",
        "included_in_blocks":
          [ "BLfyGAkK4jaFDnWSpKrLr2ZXxPEDFjbYHikYKWVTQtAcx6V4RRo" ] },
      { "delegate": "tz3QCNyySViKHmeSr45kzDxzchys7NiXCWoa",
        "reception_time": "2022-01-16T01:36:04.960-00:00",
        "included_in_blocks":
          [ "BLfyGAkK4jaFDnWSpKrLr2ZXxPEDFjbYHikYKWVTQtAcx6V4RRo" ] },
      { "delegate": "tz1Ldzz6k1BHdhuKvAtMRX7h5kJSMHESMHLC",
        "reception_time": "2022-01-16T01:36:04.971-00:00",
        "included_in_blocks":
          [ "BLfyGAkK4jaFDnWSpKrLr2ZXxPEDFjbYHikYKWVTQtAcx6V4RRo" ] },
      { "delegate": "tz1S8MNvuFEUsWgjHvi3AxibRBf388NhT1q2",
        "reception_time": "2022-01-16T01:36:05.495-00:00",
        "included_in_blocks":
          [ "BLfyGAkK4jaFDnWSpKrLr2ZXxPEDFjbYHikYKWVTQtAcx6V4RRo" ] },
      { "delegate": "tz3ZbP2pM3nwvXztbuMJwJnDvV5xdpU8UkkD",
        "reception_time": "2022-01-16T01:36:04.876-00:00",
        "included_in_blocks":
          [ "BLfyGAkK4jaFDnWSpKrLr2ZXxPEDFjbYHikYKWVTQtAcx6V4RRo" ] },
      { "delegate": "tz1irJKkXS2DBWkU1NnmFQx1c1L7pbGg4yhk",
        "reception_time": "2022-01-16T01:36:04.837-00:00",
        "included_in_blocks":
          [ "BLfyGAkK4jaFDnWSpKrLr2ZXxPEDFjbYHikYKWVTQtAcx6V4RRo" ] },
      { "delegate": "tz1aXD7Jigrt3PBYSpHSg5Rr33SexMmmM5Ys",
        "reception_time": "2022-01-16T01:36:04.929-00:00",
        "included_in_blocks":
          [ "BLfyGAkK4jaFDnWSpKrLr2ZXxPEDFjbYHikYKWVTQtAcx6V4RRo" ] },
      { "delegate": "tz3NxTnke1acr8o3h5y9ytf5awQBGNJUKzVU",
        "reception_time": "2022-01-16T01:36:04.921-00:00",
        "included_in_blocks":
          [ "BLfyGAkK4jaFDnWSpKrLr2ZXxPEDFjbYHikYKWVTQtAcx6V4RRo" ] },
      { "delegate": "tz3QSGPoRp3Kn7n3vY24eYeu3Peuqo45LQ4D",
        "reception_time": "2022-01-16T01:36:04.951-00:00",
        "included_in_blocks":
          [ "BLfyGAkK4jaFDnWSpKrLr2ZXxPEDFjbYHikYKWVTQtAcx6V4RRo" ] },
      { "delegate": "tz1gUNyn3hmnEWqkusWPzxRaon1cs7ndWh7h",
        "reception_time": "2022-01-16T01:36:04.863-00:00",
        "included_in_blocks":
          [ "BLfyGAkK4jaFDnWSpKrLr2ZXxPEDFjbYHikYKWVTQtAcx6V4RRo" ] },
      { "delegate": "tz1MJx9vhaNRSimcuXPK2rW4fLccQnDAnVKJ",
        "reception_time": "2022-01-16T01:36:04.859-00:00",
        "included_in_blocks":
          [ "BLfyGAkK4jaFDnWSpKrLr2ZXxPEDFjbYHikYKWVTQtAcx6V4RRo" ] },
      { "delegate": "tz1VQnqCCqX4K5sP3FNkVSNKTdCAMJDd3E1n",
        "reception_time": "2022-01-16T01:36:04.853-00:00",
        "included_in_blocks":
          [ "BLfyGAkK4jaFDnWSpKrLr2ZXxPEDFjbYHikYKWVTQtAcx6V4RRo" ] },
      { "delegate": "tz1RV1MBbZMR68tacosb7Mwj6LkbPSUS1er1",
        "reception_time": "2022-01-16T01:36:04.805-00:00",
        "included_in_blocks":
          [ "BLfyGAkK4jaFDnWSpKrLr2ZXxPEDFjbYHikYKWVTQtAcx6V4RRo" ] },
      { "delegate": "tz1ajgycuHmd2z2JbTSJxKv7x6cok2KuNSk1",
        "reception_time": "2022-01-16T01:36:04.881-00:00",
        "included_in_blocks":
          [ "BLfyGAkK4jaFDnWSpKrLr2ZXxPEDFjbYHikYKWVTQtAcx6V4RRo" ] },
      { "delegate": "tz1eEnQhbwf6trb8Q8mPb2RaPkNk2rN7BKi8",
        "reception_time": "2022-01-16T01:36:04.794-00:00",
        "included_in_blocks":
          [ "BLfyGAkK4jaFDnWSpKrLr2ZXxPEDFjbYHikYKWVTQtAcx6V4RRo" ] },
      { "delegate": "tz1MQMiZHV8q4tTwUMWmS5Y3kaP6J2136iXr",
        "reception_time": "2022-01-16T01:36:04.995-00:00",
        "included_in_blocks":
          [ "BLfyGAkK4jaFDnWSpKrLr2ZXxPEDFjbYHikYKWVTQtAcx6V4RRo" ] },
      { "delegate": "tz1P2Po7YM526ughEsRbY4oR9zaUPDZjxFrb",
        "reception_time": "2022-01-16T01:36:04.813-00:00",
        "included_in_blocks":
          [ "BLfyGAkK4jaFDnWSpKrLr2ZXxPEDFjbYHikYKWVTQtAcx6V4RRo" ] } ] }