{ "blocks":
    [ { "hash": "BKxWn8U1LTmTuQjnupBKzYkFbegXhHYW1VWhx4n6JkjmwhJtRL4",
        "delegate": "tz3iJu5vrKZcsqRPs8yJ61UDoeEXZmtro4qh",
        "reception_time": "2022-01-15T23:12:25.862-00:00",
        "timestamp": "2022-01-15T23:12:20Z" } ],
  "endorsements":
    [ { "delegate": "tz1a1J3AGjJTAyBqWWSqFuUazUDV2TtD6hMy",
        "reception_time": "2022-01-15T23:12:37.072-00:00",
        "included_in_blocks":
          [ "BLk25h9Cr9oauDtKRT4CxnjPhoijiq8xzHFwQmAFiLKi7Mo3upT" ] },
      { "delegate": "tz3e7LbZvUtoXhpUD1yb6wuFodZpfYRb9nWJ",
        "reception_time": "2022-01-15T23:12:36.778-00:00",
        "included_in_blocks":
          [ "BLk25h9Cr9oauDtKRT4CxnjPhoijiq8xzHFwQmAFiLKi7Mo3upT" ] },
      { "delegate": "tz1gg5bjopPcr9agjamyu9BbXKLibNc2rbAq",
        "reception_time": "2022-01-15T23:12:31.968-00:00",
        "included_in_blocks":
          [ "BLk25h9Cr9oauDtKRT4CxnjPhoijiq8xzHFwQmAFiLKi7Mo3upT" ] },
      { "delegate": "tz1W5VkdB5s7ENMESVBtwyt9kyvLqPcUczRT",
        "reception_time": "2022-01-15T23:12:30.912-00:00",
        "included_in_blocks":
          [ "BLk25h9Cr9oauDtKRT4CxnjPhoijiq8xzHFwQmAFiLKi7Mo3upT" ] },
      { "delegate": "tz3cF8X5V6DGBdZCC1hoqLzjtq95BcDvDKqe",
        "reception_time": "2022-01-15T23:12:30.496-00:00",
        "included_in_blocks":
          [ "BLk25h9Cr9oauDtKRT4CxnjPhoijiq8xzHFwQmAFiLKi7Mo3upT" ] },
      { "delegate": "tz1TcH4Nb3aHNDJ7CGZhU7jgAK1BkSP4Lxds",
        "reception_time": "2022-01-15T23:12:30.146-00:00",
        "included_in_blocks":
          [ "BLk25h9Cr9oauDtKRT4CxnjPhoijiq8xzHFwQmAFiLKi7Mo3upT" ] },
      { "delegate": "tz1ZcTRk5uxD86EFEn1vvNffWWqJy7q5eVhc",
        "reception_time": "2022-01-15T23:12:30.025-00:00",
        "included_in_blocks":
          [ "BLk25h9Cr9oauDtKRT4CxnjPhoijiq8xzHFwQmAFiLKi7Mo3upT" ] },
      { "delegate": "tz3NExpXn9aPNZPorRE4SdjJ2RGrfbJgMAaV",
        "reception_time": "2022-01-15T23:12:29.920-00:00",
        "included_in_blocks":
          [ "BLk25h9Cr9oauDtKRT4CxnjPhoijiq8xzHFwQmAFiLKi7Mo3upT" ] },
      { "delegate": "tz1bTpviNnyx2PXsNmGpCQTMQsGoYordkUoA",
        "reception_time": "2022-01-15T23:12:29.855-00:00",
        "included_in_blocks":
          [ "BLk25h9Cr9oauDtKRT4CxnjPhoijiq8xzHFwQmAFiLKi7Mo3upT" ] },
      { "delegate": "tz1T7duV5gZWSTq4YpBGbXNLTfznCLDrFxvs",
        "reception_time": "2022-01-15T23:12:29.746-00:00",
        "included_in_blocks":
          [ "BLk25h9Cr9oauDtKRT4CxnjPhoijiq8xzHFwQmAFiLKi7Mo3upT" ] },
      { "delegate": "tz3UoffC7FG7zfpmvmjUmUeAaHvzdcUvAj6r",
        "reception_time": "2022-01-15T23:12:29.601-00:00",
        "included_in_blocks":
          [ "BLk25h9Cr9oauDtKRT4CxnjPhoijiq8xzHFwQmAFiLKi7Mo3upT" ] },
      { "delegate": "tz1Q8QkSBS63ZQnH3fBTiAMPes9R666Rn6Sc",
        "reception_time": "2022-01-15T23:12:29.541-00:00",
        "included_in_blocks":
          [ "BLk25h9Cr9oauDtKRT4CxnjPhoijiq8xzHFwQmAFiLKi7Mo3upT" ] },
      { "delegate": "tz1awXW7wuXy21c66vBudMXQVAPgRnqqwgTH",
        "reception_time": "2022-01-15T23:12:29.450-00:00",
        "included_in_blocks":
          [ "BLk25h9Cr9oauDtKRT4CxnjPhoijiq8xzHFwQmAFiLKi7Mo3upT" ] },
      { "delegate": "tz1dRKU4FQ9QRRQPdaH4zCR6gmCmXfcvcgtB",
        "reception_time": "2022-01-15T23:12:29.383-00:00",
        "included_in_blocks":
          [ "BLk25h9Cr9oauDtKRT4CxnjPhoijiq8xzHFwQmAFiLKi7Mo3upT" ] },
      { "delegate": "tz1NortRftucvAkD1J58L32EhSVrQEWJCEnB",
        "reception_time": "2022-01-15T23:12:29.199-00:00",
        "included_in_blocks":
          [ "BLk25h9Cr9oauDtKRT4CxnjPhoijiq8xzHFwQmAFiLKi7Mo3upT" ] },
      { "delegate": "tz3WMqdzXqRWXwyvj5Hp2H7QEepaUuS7vd9K",
        "reception_time": "2022-01-15T23:12:29.140-00:00",
        "included_in_blocks":
          [ "BLk25h9Cr9oauDtKRT4CxnjPhoijiq8xzHFwQmAFiLKi7Mo3upT" ] },
      { "delegate": "tz3RB4aoyjov4KEVRbuhvQ1CKJgBJMWhaeB8",
        "reception_time": "2022-01-15T23:12:29.159-00:00",
        "included_in_blocks":
          [ "BLk25h9Cr9oauDtKRT4CxnjPhoijiq8xzHFwQmAFiLKi7Mo3upT" ] },
      { "delegate": "tz1cYufsxHXJcvANhvS55h3aY32a9BAFB494",
        "reception_time": "2022-01-15T23:12:29.193-00:00",
        "included_in_blocks":
          [ "BLk25h9Cr9oauDtKRT4CxnjPhoijiq8xzHFwQmAFiLKi7Mo3upT" ] },
      { "delegate": "tz1dNVDWPf3Q59SdJqnjdnu277iyvReiRS9M",
        "reception_time": "2022-01-15T23:12:29.127-00:00",
        "included_in_blocks":
          [ "BLk25h9Cr9oauDtKRT4CxnjPhoijiq8xzHFwQmAFiLKi7Mo3upT" ] },
      { "delegate": "tz1V3yg82mcrPJbegqVCPn6bC8w1CSTRp3f8",
        "reception_time": "2022-01-15T23:12:29.078-00:00",
        "included_in_blocks":
          [ "BLk25h9Cr9oauDtKRT4CxnjPhoijiq8xzHFwQmAFiLKi7Mo3upT" ] },
      { "delegate": "tz3RDC3Jdn4j15J7bBHZd29EUee9gVB1CxD9",
        "reception_time": "2022-01-15T23:12:29.147-00:00",
        "included_in_blocks":
          [ "BLk25h9Cr9oauDtKRT4CxnjPhoijiq8xzHFwQmAFiLKi7Mo3upT" ] },
      { "delegate": "tz1aRoaRhSpRYvFdyvgWLL6TGyRoGF51wDjM",
        "reception_time": "2022-01-15T23:12:28.991-00:00",
        "included_in_blocks":
          [ "BLk25h9Cr9oauDtKRT4CxnjPhoijiq8xzHFwQmAFiLKi7Mo3upT" ] },
      { "delegate": "tz3VEZ4k6a4Wx42iyev6i2aVAptTRLEAivNN",
        "reception_time": "2022-01-15T23:12:28.985-00:00",
        "included_in_blocks":
          [ "BLk25h9Cr9oauDtKRT4CxnjPhoijiq8xzHFwQmAFiLKi7Mo3upT" ] },
      { "delegate": "tz1RjoHc98dBoqaH2jawF62XNKh7YsHwbkEv",
        "reception_time": "2022-01-15T23:12:28.779-00:00",
        "included_in_blocks":
          [ "BLk25h9Cr9oauDtKRT4CxnjPhoijiq8xzHFwQmAFiLKi7Mo3upT" ] },
      { "delegate": "tz1RCFbB9GpALpsZtu6J58sb74dm8qe6XBzv",
        "reception_time": "2022-01-15T23:12:28.963-00:00",
        "included_in_blocks":
          [ "BLk25h9Cr9oauDtKRT4CxnjPhoijiq8xzHFwQmAFiLKi7Mo3upT" ] },
      { "delegate": "tz1abmz7jiCV2GH2u81LRrGgAFFgvQgiDiaf",
        "reception_time": "2022-01-15T23:12:28.713-00:00",
        "included_in_blocks":
          [ "BLk25h9Cr9oauDtKRT4CxnjPhoijiq8xzHFwQmAFiLKi7Mo3upT" ] },
      { "delegate": "tz3NDpRj6WBrJPikcPVHRBEjWKxFw3c6eQPS",
        "reception_time": "2022-01-15T23:12:28.621-00:00",
        "included_in_blocks":
          [ "BLk25h9Cr9oauDtKRT4CxnjPhoijiq8xzHFwQmAFiLKi7Mo3upT" ] },
      { "delegate": "tz3gLTu4Yxj8tPAcriQVUdxv6BY9QyvzU1az",
        "reception_time": "2022-01-15T23:12:28.613-00:00",
        "included_in_blocks":
          [ "BLk25h9Cr9oauDtKRT4CxnjPhoijiq8xzHFwQmAFiLKi7Mo3upT" ] },
      { "delegate": "tz1VceyYUpq1gk5dtp6jXQRtCtY8hm5DKt72",
        "reception_time": "2022-01-15T23:12:28.466-00:00",
        "included_in_blocks":
          [ "BLk25h9Cr9oauDtKRT4CxnjPhoijiq8xzHFwQmAFiLKi7Mo3upT" ] },
      { "delegate": "tz1UMCB2AHSTwG7YcGNr31CqYCtGN873royv",
        "reception_time": "2022-01-15T23:12:28.512-00:00",
        "included_in_blocks":
          [ "BLk25h9Cr9oauDtKRT4CxnjPhoijiq8xzHFwQmAFiLKi7Mo3upT" ] },
      { "delegate": "tz1fwnfJNgiDACshK9avfRfFbMaXrs3ghoJa",
        "reception_time": "2022-01-15T23:12:28.297-00:00",
        "included_in_blocks":
          [ "BLk25h9Cr9oauDtKRT4CxnjPhoijiq8xzHFwQmAFiLKi7Mo3upT" ] },
      { "delegate": "tz2FCNBrERXtaTtNX6iimR1UJ5JSDxvdHM93",
        "reception_time": "2022-01-15T23:12:28.352-00:00",
        "included_in_blocks":
          [ "BLk25h9Cr9oauDtKRT4CxnjPhoijiq8xzHFwQmAFiLKi7Mo3upT" ] },
      { "delegate": "tz1LmaFsWRkjr7QMCx5PtV6xTUz3AmEpKQiF",
        "reception_time": "2022-01-15T23:12:28.240-00:00",
        "included_in_blocks":
          [ "BLk25h9Cr9oauDtKRT4CxnjPhoijiq8xzHFwQmAFiLKi7Mo3upT" ] },
      { "delegate": "tz1Nf6tsK4G6bBqgSQERy4nUtkHNKUVdh7q1",
        "reception_time": "2022-01-15T23:12:28.348-00:00",
        "included_in_blocks":
          [ "BLk25h9Cr9oauDtKRT4CxnjPhoijiq8xzHFwQmAFiLKi7Mo3upT" ] },
      { "delegate": "tz1g8vkmcde6sWKaG2NN9WKzCkDM6Rziq194",
        "reception_time": "2022-01-15T23:12:28.196-00:00",
        "included_in_blocks":
          [ "BLk25h9Cr9oauDtKRT4CxnjPhoijiq8xzHFwQmAFiLKi7Mo3upT" ] },
      { "delegate": "tz3bvNMQ95vfAYtG8193ymshqjSvmxiCUuR5",
        "reception_time": "2022-01-15T23:12:28.215-00:00",
        "included_in_blocks":
          [ "BLk25h9Cr9oauDtKRT4CxnjPhoijiq8xzHFwQmAFiLKi7Mo3upT" ] },
      { "delegate": "tz1fZ767VDbqx4DeKiFswPSHh513f51mKEUZ",
        "reception_time": "2022-01-15T23:12:28.235-00:00",
        "included_in_blocks":
          [ "BLk25h9Cr9oauDtKRT4CxnjPhoijiq8xzHFwQmAFiLKi7Mo3upT" ] },
      { "delegate": "tz1Tnjaxk6tbAeC2TmMApPh8UsrEVQvhHvx5",
        "reception_time": "2022-01-15T23:12:28.043-00:00",
        "included_in_blocks":
          [ "BLk25h9Cr9oauDtKRT4CxnjPhoijiq8xzHFwQmAFiLKi7Mo3upT" ] },
      { "delegate": "tz1KfEsrtDaA1sX7vdM4qmEPWuSytuqCDp5j",
        "reception_time": "2022-01-15T23:12:28.097-00:00",
        "included_in_blocks":
          [ "BLk25h9Cr9oauDtKRT4CxnjPhoijiq8xzHFwQmAFiLKi7Mo3upT" ] },
      { "delegate": "tz1ei4WtWEMEJekSv8qDnu9PExG6Q8HgRGr3",
        "reception_time": "2022-01-15T23:12:28.154-00:00",
        "included_in_blocks":
          [ "BLk25h9Cr9oauDtKRT4CxnjPhoijiq8xzHFwQmAFiLKi7Mo3upT" ] },
      { "delegate": "tz1WnfXMPaNTBmH7DBPwqCWs9cPDJdkGBTZ8",
        "reception_time": "2022-01-15T23:12:27.977-00:00",
        "included_in_blocks":
          [ "BLk25h9Cr9oauDtKRT4CxnjPhoijiq8xzHFwQmAFiLKi7Mo3upT" ] },
      { "delegate": "tz1fR5e22cR7fTSMHm1ZTMRqK38sRwk9U148",
        "reception_time": "2022-01-15T23:12:27.973-00:00",
        "included_in_blocks":
          [ "BLk25h9Cr9oauDtKRT4CxnjPhoijiq8xzHFwQmAFiLKi7Mo3upT" ] },
      { "delegate": "tz1WBfwbT66FC6BTLexc2BoyCCBM9LG7pnVW",
        "reception_time": "2022-01-15T23:12:27.986-00:00",
        "included_in_blocks":
          [ "BLk25h9Cr9oauDtKRT4CxnjPhoijiq8xzHFwQmAFiLKi7Mo3upT" ] },
      { "delegate": "tz1V4qCyvPKZ5UeqdH14HN42rxvNPQfc9UZg",
        "reception_time": "2022-01-15T23:12:27.894-00:00",
        "included_in_blocks":
          [ "BLk25h9Cr9oauDtKRT4CxnjPhoijiq8xzHFwQmAFiLKi7Mo3upT" ] },
      { "delegate": "tz3bTdwZinP8U1JmSweNzVKhmwafqWmFWRfk",
        "reception_time": "2022-01-15T23:12:27.670-00:00",
        "included_in_blocks":
          [ "BLk25h9Cr9oauDtKRT4CxnjPhoijiq8xzHFwQmAFiLKi7Mo3upT" ] },
      { "delegate": "tz1S8MNvuFEUsWgjHvi3AxibRBf388NhT1q2",
        "reception_time": "2022-01-15T23:12:27.627-00:00",
        "included_in_blocks":
          [ "BLk25h9Cr9oauDtKRT4CxnjPhoijiq8xzHFwQmAFiLKi7Mo3upT" ] },
      { "delegate": "tz1PWCDnz783NNGGQjEFFsHtrcK5yBW4E2rm",
        "reception_time": "2022-01-15T23:12:27.543-00:00",
        "included_in_blocks":
          [ "BLk25h9Cr9oauDtKRT4CxnjPhoijiq8xzHFwQmAFiLKi7Mo3upT" ] },
      { "delegate": "tz1gfArv665EUkSg2ojMBzcbfwuPxAvqPvjo",
        "reception_time": "2022-01-15T23:12:27.557-00:00",
        "included_in_blocks":
          [ "BLk25h9Cr9oauDtKRT4CxnjPhoijiq8xzHFwQmAFiLKi7Mo3upT" ] },
      { "delegate": "tz1gUNyn3hmnEWqkusWPzxRaon1cs7ndWh7h",
        "reception_time": "2022-01-15T23:12:27.430-00:00",
        "included_in_blocks":
          [ "BLk25h9Cr9oauDtKRT4CxnjPhoijiq8xzHFwQmAFiLKi7Mo3upT" ] },
      { "delegate": "tz1VQnqCCqX4K5sP3FNkVSNKTdCAMJDd3E1n",
        "reception_time": "2022-01-15T23:12:27.420-00:00",
        "included_in_blocks":
          [ "BLk25h9Cr9oauDtKRT4CxnjPhoijiq8xzHFwQmAFiLKi7Mo3upT" ] },
      { "delegate": "tz1UJvHTgpVzcKWhTazGxVcn5wsHru5Gietg",
        "reception_time": "2022-01-15T23:12:27.460-00:00",
        "included_in_blocks":
          [ "BLk25h9Cr9oauDtKRT4CxnjPhoijiq8xzHFwQmAFiLKi7Mo3upT" ] },
      { "delegate": "tz1fUyqYH7H4pRHN1roWY17giXhy1RvxjgUV",
        "reception_time": "2022-01-15T23:12:27.421-00:00",
        "included_in_blocks":
          [ "BLk25h9Cr9oauDtKRT4CxnjPhoijiq8xzHFwQmAFiLKi7Mo3upT" ] },
      { "delegate": "tz3adcvQaKXTCg12zbninqo3q8ptKKtDFTLv",
        "reception_time": "2022-01-15T23:12:27.378-00:00",
        "included_in_blocks":
          [ "BLk25h9Cr9oauDtKRT4CxnjPhoijiq8xzHFwQmAFiLKi7Mo3upT" ] },
      { "delegate": "tz1VmiY38m3y95HqQLjMwqnMS7sdMfGomzKi",
        "reception_time": "2022-01-15T23:12:27.331-00:00",
        "included_in_blocks":
          [ "BLk25h9Cr9oauDtKRT4CxnjPhoijiq8xzHFwQmAFiLKi7Mo3upT" ] },
      { "delegate": "tz1WCd2jm4uSt4vntk4vSuUWoZQGhLcDuR9q",
        "reception_time": "2022-01-15T23:12:27.385-00:00",
        "included_in_blocks":
          [ "BLk25h9Cr9oauDtKRT4CxnjPhoijiq8xzHFwQmAFiLKi7Mo3upT" ] },
      { "delegate": "tz1Ldzz6k1BHdhuKvAtMRX7h5kJSMHESMHLC",
        "reception_time": "2022-01-15T23:12:27.327-00:00",
        "included_in_blocks":
          [ "BLk25h9Cr9oauDtKRT4CxnjPhoijiq8xzHFwQmAFiLKi7Mo3upT" ] },
      { "delegate": "tz3gtoUxdudfBRcNY7iVdKPHCYYX6xdPpoRS",
        "reception_time": "2022-01-15T23:12:27.306-00:00",
        "included_in_blocks":
          [ "BLk25h9Cr9oauDtKRT4CxnjPhoijiq8xzHFwQmAFiLKi7Mo3upT" ] },
      { "delegate": "tz1beersuEDv8Z7ngQ825xfbaJNS2EhXnyHR",
        "reception_time": "2022-01-15T23:12:27.235-00:00",
        "included_in_blocks":
          [ "BLk25h9Cr9oauDtKRT4CxnjPhoijiq8xzHFwQmAFiLKi7Mo3upT" ] },
      { "delegate": "tz1aXD7Jigrt3PBYSpHSg5Rr33SexMmmM5Ys",
        "reception_time": "2022-01-15T23:12:27.313-00:00",
        "included_in_blocks":
          [ "BLk25h9Cr9oauDtKRT4CxnjPhoijiq8xzHFwQmAFiLKi7Mo3upT" ] },
      { "delegate": "tz3S6BBeKgJGXxvLyZ1xzXzMPn11nnFtq5L9",
        "reception_time": "2022-01-15T23:12:27.399-00:00",
        "included_in_blocks":
          [ "BLk25h9Cr9oauDtKRT4CxnjPhoijiq8xzHFwQmAFiLKi7Mo3upT" ] },
      { "delegate": "tz3QT9dHYKDqh563chVa6za8526ys1UKfRfL",
        "reception_time": "2022-01-15T23:12:27.399-00:00",
        "included_in_blocks":
          [ "BLk25h9Cr9oauDtKRT4CxnjPhoijiq8xzHFwQmAFiLKi7Mo3upT" ] },
      { "delegate": "tz3QSGPoRp3Kn7n3vY24eYeu3Peuqo45LQ4D",
        "reception_time": "2022-01-15T23:12:27.323-00:00",
        "included_in_blocks":
          [ "BLk25h9Cr9oauDtKRT4CxnjPhoijiq8xzHFwQmAFiLKi7Mo3upT" ] },
      { "delegate": "tz3NxTnke1acr8o3h5y9ytf5awQBGNJUKzVU",
        "reception_time": "2022-01-15T23:12:27.268-00:00",
        "included_in_blocks":
          [ "BLk25h9Cr9oauDtKRT4CxnjPhoijiq8xzHFwQmAFiLKi7Mo3upT" ] },
      { "delegate": "tz3ZbP2pM3nwvXztbuMJwJnDvV5xdpU8UkkD",
        "reception_time": "2022-01-15T23:12:27.306-00:00",
        "included_in_blocks":
          [ "BLk25h9Cr9oauDtKRT4CxnjPhoijiq8xzHFwQmAFiLKi7Mo3upT" ] },
      { "delegate": "tz3RKYFsLuQzKBtmYuLNas7uMu3AsYd4QdsA",
        "reception_time": "2022-01-15T23:12:27.164-00:00",
        "included_in_blocks":
          [ "BLk25h9Cr9oauDtKRT4CxnjPhoijiq8xzHFwQmAFiLKi7Mo3upT" ] },
      { "delegate": "tz3hw2kqXhLUvY65ca1eety2oQTpAvd34R9Q",
        "reception_time": "2022-01-15T23:12:27.276-00:00",
        "included_in_blocks":
          [ "BLk25h9Cr9oauDtKRT4CxnjPhoijiq8xzHFwQmAFiLKi7Mo3upT" ] },
      { "delegate": "tz1eEnQhbwf6trb8Q8mPb2RaPkNk2rN7BKi8",
        "reception_time": "2022-01-15T23:12:27.130-00:00",
        "included_in_blocks":
          [ "BLk25h9Cr9oauDtKRT4CxnjPhoijiq8xzHFwQmAFiLKi7Mo3upT" ] },
      { "delegate": "tz1P2Po7YM526ughEsRbY4oR9zaUPDZjxFrb",
        "reception_time": "2022-01-15T23:12:27.118-00:00",
        "included_in_blocks":
          [ "BLk25h9Cr9oauDtKRT4CxnjPhoijiq8xzHFwQmAFiLKi7Mo3upT" ] },
      { "delegate": "tz1irJKkXS2DBWkU1NnmFQx1c1L7pbGg4yhk",
        "reception_time": "2022-01-15T23:12:27.156-00:00",
        "included_in_blocks":
          [ "BLk25h9Cr9oauDtKRT4CxnjPhoijiq8xzHFwQmAFiLKi7Mo3upT" ] },
      { "delegate": "tz1MJx9vhaNRSimcuXPK2rW4fLccQnDAnVKJ",
        "reception_time": "2022-01-15T23:12:27.282-00:00",
        "included_in_blocks":
          [ "BLk25h9Cr9oauDtKRT4CxnjPhoijiq8xzHFwQmAFiLKi7Mo3upT" ] },
      { "delegate": "tz3Zhs2dygr55yHyQyKjntAtY9bgfhLZ4Xj1",
        "reception_time": "2022-01-15T23:12:27.137-00:00",
        "included_in_blocks":
          [ "BLk25h9Cr9oauDtKRT4CxnjPhoijiq8xzHFwQmAFiLKi7Mo3upT" ] },
      { "delegate": "tz3iJu5vrKZcsqRPs8yJ61UDoeEXZmtro4qh",
        "reception_time": "2022-01-15T23:12:27.147-00:00",
        "included_in_blocks":
          [ "BLk25h9Cr9oauDtKRT4CxnjPhoijiq8xzHFwQmAFiLKi7Mo3upT" ] },
      { "delegate": "tz1S8e9GgdZG78XJRB3NqabfWeM37GnhZMWQ",
        "reception_time": "2022-01-15T23:12:27.122-00:00",
        "included_in_blocks":
          [ "BLk25h9Cr9oauDtKRT4CxnjPhoijiq8xzHFwQmAFiLKi7Mo3upT" ] } ] }