{ "blocks":
    [ { "hash": "BL4j8yh9ggRF2g1AM16V5Xd6nHbPmrfZk4J3UaxpjsWCzRo1yM7",
        "delegate": "tz1fb7c66UwePkkfDXz4ajFaBP9hVNLdS7JJ",
        "reception_time": "2022-01-16T02:23:11.005-00:00",
        "timestamp": "2022-01-16T02:23:00Z" } ],
  "endorsements":
    [ { "delegate": "tz3bEQoFCZEEfZMskefZ8q8e4eiHH1pssRax" },
      { "delegate": "tz1dbfppLAAxXZNtf2SDps7rch3qfUznKSoK" },
      { "delegate": "tz1NdhRv643wLW6zCcRP3VfT24dvDnh7nuh9" },
      { "delegate": "tz1P2Po7YM526ughEsRbY4oR9zaUPDZjxFrb",
        "reception_time": "2022-01-16T02:23:10.878-00:00",
        "errors":
          [ { "kind": "temporary",
              "id": "proto.011-PtHangz2.prefilter.outdated_endorsement" } ],
        "included_in_blocks":
          [ "BKnsssyfRshzNypbzNw6CMzjKWEoi1NxxvJ8y4t9yPmHb6bxzJD" ] },
      { "delegate": "tz1WnyXakHZKotpQHxevTnLmomz5rTwdiccy",
        "reception_time": "2022-01-16T02:23:19.721-00:00",
        "included_in_blocks":
          [ "BKnsssyfRshzNypbzNw6CMzjKWEoi1NxxvJ8y4t9yPmHb6bxzJD" ] },
      { "delegate": "tz1QccGQsmt7WMnbVX9inJQgEuQGeMXddfjp",
        "reception_time": "2022-01-16T02:23:17.053-00:00",
        "included_in_blocks":
          [ "BKnsssyfRshzNypbzNw6CMzjKWEoi1NxxvJ8y4t9yPmHb6bxzJD" ] },
      { "delegate": "tz1i3mhawFAgcB8JHaHwoUF6hdncwTAkLEn2",
        "reception_time": "2022-01-16T02:23:16.446-00:00",
        "included_in_blocks":
          [ "BKnsssyfRshzNypbzNw6CMzjKWEoi1NxxvJ8y4t9yPmHb6bxzJD" ] },
      { "delegate": "tz1cM8Xc7ZP1TrjkTeKq4PeRhtbnwXSBR6Sw",
        "reception_time": "2022-01-16T02:23:15.152-00:00",
        "included_in_blocks":
          [ "BKnsssyfRshzNypbzNw6CMzjKWEoi1NxxvJ8y4t9yPmHb6bxzJD" ] },
      { "delegate": "tz1SYq214SCBy9naR6cvycQsYcUGpBqQAE8d",
        "reception_time": "2022-01-16T02:23:15.213-00:00",
        "included_in_blocks":
          [ "BKnsssyfRshzNypbzNw6CMzjKWEoi1NxxvJ8y4t9yPmHb6bxzJD" ] },
      { "delegate": "tz1aRoaRhSpRYvFdyvgWLL6TGyRoGF51wDjM",
        "reception_time": "2022-01-16T02:23:15.146-00:00",
        "included_in_blocks":
          [ "BKnsssyfRshzNypbzNw6CMzjKWEoi1NxxvJ8y4t9yPmHb6bxzJD" ] },
      { "delegate": "tz1ZcTRk5uxD86EFEn1vvNffWWqJy7q5eVhc",
        "reception_time": "2022-01-16T02:23:15.207-00:00",
        "included_in_blocks":
          [ "BKnsssyfRshzNypbzNw6CMzjKWEoi1NxxvJ8y4t9yPmHb6bxzJD" ] },
      { "delegate": "tz1cYufsxHXJcvANhvS55h3aY32a9BAFB494",
        "reception_time": "2022-01-16T02:23:15.003-00:00",
        "included_in_blocks":
          [ "BKnsssyfRshzNypbzNw6CMzjKWEoi1NxxvJ8y4t9yPmHb6bxzJD" ] },
      { "delegate": "tz3UoffC7FG7zfpmvmjUmUeAaHvzdcUvAj6r",
        "reception_time": "2022-01-16T02:23:15.038-00:00",
        "included_in_blocks":
          [ "BKnsssyfRshzNypbzNw6CMzjKWEoi1NxxvJ8y4t9yPmHb6bxzJD" ] },
      { "delegate": "tz1Xsrfv6hn86fp88YfRs6xcKwt2nTqxVZYM",
        "reception_time": "2022-01-16T02:23:14.953-00:00",
        "included_in_blocks":
          [ "BKnsssyfRshzNypbzNw6CMzjKWEoi1NxxvJ8y4t9yPmHb6bxzJD" ] },
      { "delegate": "tz3NExpXn9aPNZPorRE4SdjJ2RGrfbJgMAaV",
        "reception_time": "2022-01-16T02:23:14.484-00:00",
        "included_in_blocks":
          [ "BKnsssyfRshzNypbzNw6CMzjKWEoi1NxxvJ8y4t9yPmHb6bxzJD" ] },
      { "delegate": "tz1T7duV5gZWSTq4YpBGbXNLTfznCLDrFxvs",
        "reception_time": "2022-01-16T02:23:14.510-00:00",
        "included_in_blocks":
          [ "BKnsssyfRshzNypbzNw6CMzjKWEoi1NxxvJ8y4t9yPmHb6bxzJD" ] },
      { "delegate": "tz1dNVDWPf3Q59SdJqnjdnu277iyvReiRS9M",
        "reception_time": "2022-01-16T02:23:14.213-00:00",
        "included_in_blocks":
          [ "BKnsssyfRshzNypbzNw6CMzjKWEoi1NxxvJ8y4t9yPmHb6bxzJD" ] },
      { "delegate": "tz3VEZ4k6a4Wx42iyev6i2aVAptTRLEAivNN",
        "reception_time": "2022-01-16T02:23:14.066-00:00",
        "included_in_blocks":
          [ "BKnsssyfRshzNypbzNw6CMzjKWEoi1NxxvJ8y4t9yPmHb6bxzJD" ] },
      { "delegate": "tz1V3yg82mcrPJbegqVCPn6bC8w1CSTRp3f8",
        "reception_time": "2022-01-16T02:23:14.126-00:00",
        "included_in_blocks":
          [ "BKnsssyfRshzNypbzNw6CMzjKWEoi1NxxvJ8y4t9yPmHb6bxzJD" ] },
      { "delegate": "tz1UvkANVPWppVgMkLnvN7BwYZsCP7vm6NVd",
        "reception_time": "2022-01-16T02:23:14.035-00:00",
        "included_in_blocks":
          [ "BKnsssyfRshzNypbzNw6CMzjKWEoi1NxxvJ8y4t9yPmHb6bxzJD" ] },
      { "delegate": "tz3WMqdzXqRWXwyvj5Hp2H7QEepaUuS7vd9K",
        "reception_time": "2022-01-16T02:23:13.743-00:00",
        "included_in_blocks":
          [ "BKnsssyfRshzNypbzNw6CMzjKWEoi1NxxvJ8y4t9yPmHb6bxzJD" ] },
      { "delegate": "tz3gLTu4Yxj8tPAcriQVUdxv6BY9QyvzU1az",
        "reception_time": "2022-01-16T02:23:13.945-00:00",
        "included_in_blocks":
          [ "BKnsssyfRshzNypbzNw6CMzjKWEoi1NxxvJ8y4t9yPmHb6bxzJD" ] },
      { "delegate": "tz1RjoHc98dBoqaH2jawF62XNKh7YsHwbkEv",
        "reception_time": "2022-01-16T02:23:13.775-00:00",
        "included_in_blocks":
          [ "BKnsssyfRshzNypbzNw6CMzjKWEoi1NxxvJ8y4t9yPmHb6bxzJD" ] },
      { "delegate": "tz3bvNMQ95vfAYtG8193ymshqjSvmxiCUuR5",
        "reception_time": "2022-01-16T02:23:13.761-00:00",
        "included_in_blocks":
          [ "BKnsssyfRshzNypbzNw6CMzjKWEoi1NxxvJ8y4t9yPmHb6bxzJD" ] },
      { "delegate": "tz1abmz7jiCV2GH2u81LRrGgAFFgvQgiDiaf",
        "reception_time": "2022-01-16T02:23:13.662-00:00",
        "included_in_blocks":
          [ "BKnsssyfRshzNypbzNw6CMzjKWEoi1NxxvJ8y4t9yPmHb6bxzJD" ] },
      { "delegate": "tz1awXW7wuXy21c66vBudMXQVAPgRnqqwgTH",
        "reception_time": "2022-01-16T02:23:13.586-00:00",
        "included_in_blocks":
          [ "BKnsssyfRshzNypbzNw6CMzjKWEoi1NxxvJ8y4t9yPmHb6bxzJD" ] },
      { "delegate": "tz1PeZx7FXy7QRuMREGXGxeipb24RsMMzUNe",
        "reception_time": "2022-01-16T02:23:13.474-00:00",
        "included_in_blocks":
          [ "BKnsssyfRshzNypbzNw6CMzjKWEoi1NxxvJ8y4t9yPmHb6bxzJD" ] },
      { "delegate": "tz1fUyqYH7H4pRHN1roWY17giXhy1RvxjgUV",
        "reception_time": "2022-01-16T02:23:13.303-00:00",
        "included_in_blocks":
          [ "BKnsssyfRshzNypbzNw6CMzjKWEoi1NxxvJ8y4t9yPmHb6bxzJD" ] },
      { "delegate": "tz1ei4WtWEMEJekSv8qDnu9PExG6Q8HgRGr3",
        "reception_time": "2022-01-16T02:23:13.198-00:00",
        "included_in_blocks":
          [ "BKnsssyfRshzNypbzNw6CMzjKWEoi1NxxvJ8y4t9yPmHb6bxzJD" ] },
      { "delegate": "tz2FCNBrERXtaTtNX6iimR1UJ5JSDxvdHM93",
        "reception_time": "2022-01-16T02:23:13.139-00:00",
        "included_in_blocks":
          [ "BKnsssyfRshzNypbzNw6CMzjKWEoi1NxxvJ8y4t9yPmHb6bxzJD" ] },
      { "delegate": "tz1TRqbYbUf2GyrjErf3hBzgBJPzW8y36qEs",
        "reception_time": "2022-01-16T02:23:13.331-00:00",
        "included_in_blocks":
          [ "BKnsssyfRshzNypbzNw6CMzjKWEoi1NxxvJ8y4t9yPmHb6bxzJD" ] },
      { "delegate": "tz1WBfwbT66FC6BTLexc2BoyCCBM9LG7pnVW",
        "reception_time": "2022-01-16T02:23:13.042-00:00",
        "included_in_blocks":
          [ "BKnsssyfRshzNypbzNw6CMzjKWEoi1NxxvJ8y4t9yPmHb6bxzJD" ] },
      { "delegate": "tz1UJvHTgpVzcKWhTazGxVcn5wsHru5Gietg",
        "reception_time": "2022-01-16T02:23:13.143-00:00",
        "included_in_blocks":
          [ "BKnsssyfRshzNypbzNw6CMzjKWEoi1NxxvJ8y4t9yPmHb6bxzJD" ] },
      { "delegate": "tz1KfEsrtDaA1sX7vdM4qmEPWuSytuqCDp5j",
        "reception_time": "2022-01-16T02:23:13.146-00:00",
        "included_in_blocks":
          [ "BKnsssyfRshzNypbzNw6CMzjKWEoi1NxxvJ8y4t9yPmHb6bxzJD" ] },
      { "delegate": "tz1Tnjaxk6tbAeC2TmMApPh8UsrEVQvhHvx5",
        "reception_time": "2022-01-16T02:23:13.023-00:00",
        "included_in_blocks":
          [ "BKnsssyfRshzNypbzNw6CMzjKWEoi1NxxvJ8y4t9yPmHb6bxzJD" ] },
      { "delegate": "tz1Nf6tsK4G6bBqgSQERy4nUtkHNKUVdh7q1",
        "reception_time": "2022-01-16T02:23:13.086-00:00",
        "included_in_blocks":
          [ "BKnsssyfRshzNypbzNw6CMzjKWEoi1NxxvJ8y4t9yPmHb6bxzJD" ] },
      { "delegate": "tz3adcvQaKXTCg12zbninqo3q8ptKKtDFTLv",
        "reception_time": "2022-01-16T02:23:12.959-00:00",
        "included_in_blocks":
          [ "BKnsssyfRshzNypbzNw6CMzjKWEoi1NxxvJ8y4t9yPmHb6bxzJD" ] },
      { "delegate": "tz1g8vkmcde6sWKaG2NN9WKzCkDM6Rziq194",
        "reception_time": "2022-01-16T02:23:12.962-00:00",
        "included_in_blocks":
          [ "BKnsssyfRshzNypbzNw6CMzjKWEoi1NxxvJ8y4t9yPmHb6bxzJD" ] },
      { "delegate": "tz3RDC3Jdn4j15J7bBHZd29EUee9gVB1CxD9",
        "reception_time": "2022-01-16T02:23:12.889-00:00",
        "included_in_blocks":
          [ "BKnsssyfRshzNypbzNw6CMzjKWEoi1NxxvJ8y4t9yPmHb6bxzJD" ] },
      { "delegate": "tz1S8MNvuFEUsWgjHvi3AxibRBf388NhT1q2",
        "reception_time": "2022-01-16T02:23:12.787-00:00",
        "included_in_blocks":
          [ "BKnsssyfRshzNypbzNw6CMzjKWEoi1NxxvJ8y4t9yPmHb6bxzJD" ] },
      { "delegate": "tz1RCFbB9GpALpsZtu6J58sb74dm8qe6XBzv",
        "reception_time": "2022-01-16T02:23:12.964-00:00",
        "included_in_blocks":
          [ "BKnsssyfRshzNypbzNw6CMzjKWEoi1NxxvJ8y4t9yPmHb6bxzJD" ] },
      { "delegate": "tz1LmaFsWRkjr7QMCx5PtV6xTUz3AmEpKQiF",
        "reception_time": "2022-01-16T02:23:12.880-00:00",
        "included_in_blocks":
          [ "BKnsssyfRshzNypbzNw6CMzjKWEoi1NxxvJ8y4t9yPmHb6bxzJD" ] },
      { "delegate": "tz3RB4aoyjov4KEVRbuhvQ1CKJgBJMWhaeB8",
        "reception_time": "2022-01-16T02:23:12.777-00:00",
        "included_in_blocks":
          [ "BKnsssyfRshzNypbzNw6CMzjKWEoi1NxxvJ8y4t9yPmHb6bxzJD" ] },
      { "delegate": "tz3bTdwZinP8U1JmSweNzVKhmwafqWmFWRfk",
        "reception_time": "2022-01-16T02:23:12.736-00:00",
        "included_in_blocks":
          [ "BKnsssyfRshzNypbzNw6CMzjKWEoi1NxxvJ8y4t9yPmHb6bxzJD" ] },
      { "delegate": "tz1MQMiZHV8q4tTwUMWmS5Y3kaP6J2136iXr",
        "reception_time": "2022-01-16T02:23:12.622-00:00",
        "included_in_blocks":
          [ "BKnsssyfRshzNypbzNw6CMzjKWEoi1NxxvJ8y4t9yPmHb6bxzJD" ] },
      { "delegate": "tz1iPHM2Xx2hwmzcr1EG1zzrV6oKafVoA91m",
        "reception_time": "2022-01-16T02:23:12.738-00:00",
        "included_in_blocks":
          [ "BKnsssyfRshzNypbzNw6CMzjKWEoi1NxxvJ8y4t9yPmHb6bxzJD" ] },
      { "delegate": "tz1PWCDnz783NNGGQjEFFsHtrcK5yBW4E2rm",
        "reception_time": "2022-01-16T02:23:12.547-00:00",
        "included_in_blocks":
          [ "BKnsssyfRshzNypbzNw6CMzjKWEoi1NxxvJ8y4t9yPmHb6bxzJD" ] },
      { "delegate": "tz1gfArv665EUkSg2ojMBzcbfwuPxAvqPvjo",
        "reception_time": "2022-01-16T02:23:12.446-00:00",
        "included_in_blocks":
          [ "BKnsssyfRshzNypbzNw6CMzjKWEoi1NxxvJ8y4t9yPmHb6bxzJD" ] },
      { "delegate": "tz3Zhs2dygr55yHyQyKjntAtY9bgfhLZ4Xj1",
        "reception_time": "2022-01-16T02:23:12.431-00:00",
        "included_in_blocks":
          [ "BKnsssyfRshzNypbzNw6CMzjKWEoi1NxxvJ8y4t9yPmHb6bxzJD" ] },
      { "delegate": "tz3iJu5vrKZcsqRPs8yJ61UDoeEXZmtro4qh",
        "reception_time": "2022-01-16T02:23:12.376-00:00",
        "included_in_blocks":
          [ "BKnsssyfRshzNypbzNw6CMzjKWEoi1NxxvJ8y4t9yPmHb6bxzJD" ] },
      { "delegate": "tz1VmiY38m3y95HqQLjMwqnMS7sdMfGomzKi",
        "reception_time": "2022-01-16T02:23:12.334-00:00",
        "included_in_blocks":
          [ "BKnsssyfRshzNypbzNw6CMzjKWEoi1NxxvJ8y4t9yPmHb6bxzJD" ] },
      { "delegate": "tz1gUNyn3hmnEWqkusWPzxRaon1cs7ndWh7h",
        "reception_time": "2022-01-16T02:23:12.437-00:00",
        "included_in_blocks":
          [ "BKnsssyfRshzNypbzNw6CMzjKWEoi1NxxvJ8y4t9yPmHb6bxzJD" ] },
      { "delegate": "tz3QT9dHYKDqh563chVa6za8526ys1UKfRfL",
        "reception_time": "2022-01-16T02:23:12.331-00:00",
        "included_in_blocks":
          [ "BKnsssyfRshzNypbzNw6CMzjKWEoi1NxxvJ8y4t9yPmHb6bxzJD" ] },
      { "delegate": "tz3S6BBeKgJGXxvLyZ1xzXzMPn11nnFtq5L9",
        "reception_time": "2022-01-16T02:23:12.276-00:00",
        "included_in_blocks":
          [ "BKnsssyfRshzNypbzNw6CMzjKWEoi1NxxvJ8y4t9yPmHb6bxzJD" ] },
      { "delegate": "tz1VQnqCCqX4K5sP3FNkVSNKTdCAMJDd3E1n",
        "reception_time": "2022-01-16T02:23:12.399-00:00",
        "included_in_blocks":
          [ "BKnsssyfRshzNypbzNw6CMzjKWEoi1NxxvJ8y4t9yPmHb6bxzJD" ] },
      { "delegate": "tz1YhNsiRRU8aHNGg7NK3uuP6UDAyacJernB",
        "reception_time": "2022-01-16T02:23:12.242-00:00",
        "included_in_blocks":
          [ "BKnsssyfRshzNypbzNw6CMzjKWEoi1NxxvJ8y4t9yPmHb6bxzJD" ] },
      { "delegate": "tz3QSGPoRp3Kn7n3vY24eYeu3Peuqo45LQ4D",
        "reception_time": "2022-01-16T02:23:12.266-00:00",
        "included_in_blocks":
          [ "BKnsssyfRshzNypbzNw6CMzjKWEoi1NxxvJ8y4t9yPmHb6bxzJD" ] },
      { "delegate": "tz3gtoUxdudfBRcNY7iVdKPHCYYX6xdPpoRS",
        "reception_time": "2022-01-16T02:23:12.234-00:00",
        "included_in_blocks":
          [ "BKnsssyfRshzNypbzNw6CMzjKWEoi1NxxvJ8y4t9yPmHb6bxzJD" ] },
      { "delegate": "tz1WCd2jm4uSt4vntk4vSuUWoZQGhLcDuR9q",
        "reception_time": "2022-01-16T02:23:12.164-00:00",
        "included_in_blocks":
          [ "BKnsssyfRshzNypbzNw6CMzjKWEoi1NxxvJ8y4t9yPmHb6bxzJD" ] },
      { "delegate": "tz3ZbP2pM3nwvXztbuMJwJnDvV5xdpU8UkkD",
        "reception_time": "2022-01-16T02:23:12.181-00:00",
        "included_in_blocks":
          [ "BKnsssyfRshzNypbzNw6CMzjKWEoi1NxxvJ8y4t9yPmHb6bxzJD" ] },
      { "delegate": "tz1TzaNn7wSQSP5gYPXCnNzBCpyMiidCq1PX",
        "reception_time": "2022-01-16T02:23:12.130-00:00",
        "included_in_blocks":
          [ "BKnsssyfRshzNypbzNw6CMzjKWEoi1NxxvJ8y4t9yPmHb6bxzJD" ] },
      { "delegate": "tz3NxTnke1acr8o3h5y9ytf5awQBGNJUKzVU",
        "reception_time": "2022-01-16T02:23:12.173-00:00",
        "included_in_blocks":
          [ "BKnsssyfRshzNypbzNw6CMzjKWEoi1NxxvJ8y4t9yPmHb6bxzJD" ] },
      { "delegate": "tz1Ldzz6k1BHdhuKvAtMRX7h5kJSMHESMHLC",
        "reception_time": "2022-01-16T02:23:12.122-00:00",
        "included_in_blocks":
          [ "BKnsssyfRshzNypbzNw6CMzjKWEoi1NxxvJ8y4t9yPmHb6bxzJD" ] },
      { "delegate": "tz1irJKkXS2DBWkU1NnmFQx1c1L7pbGg4yhk",
        "reception_time": "2022-01-16T02:23:12.164-00:00",
        "included_in_blocks":
          [ "BKnsssyfRshzNypbzNw6CMzjKWEoi1NxxvJ8y4t9yPmHb6bxzJD" ] },
      { "delegate": "tz1Kf25fX1VdmYGSEzwFy1wNmkbSEZ2V83sY",
        "reception_time": "2022-01-16T02:23:12.146-00:00",
        "included_in_blocks":
          [ "BKnsssyfRshzNypbzNw6CMzjKWEoi1NxxvJ8y4t9yPmHb6bxzJD" ] },
      { "delegate": "tz1XfAjZyaLdceHnZxbMYop7g7kWKPut4PR7",
        "reception_time": "2022-01-16T02:23:12.184-00:00",
        "included_in_blocks":
          [ "BKnsssyfRshzNypbzNw6CMzjKWEoi1NxxvJ8y4t9yPmHb6bxzJD" ] },
      { "delegate": "tz3RKYFsLuQzKBtmYuLNas7uMu3AsYd4QdsA",
        "reception_time": "2022-01-16T02:23:12.119-00:00",
        "included_in_blocks":
          [ "BKnsssyfRshzNypbzNw6CMzjKWEoi1NxxvJ8y4t9yPmHb6bxzJD" ] },
      { "delegate": "tz3hw2kqXhLUvY65ca1eety2oQTpAvd34R9Q",
        "reception_time": "2022-01-16T02:23:12.158-00:00",
        "included_in_blocks":
          [ "BKnsssyfRshzNypbzNw6CMzjKWEoi1NxxvJ8y4t9yPmHb6bxzJD" ] },
      { "delegate": "tz1ZPh7XfUaJXUDvkrBxmS1BjEM1i62hiPpM",
        "reception_time": "2022-01-16T02:23:12.150-00:00",
        "included_in_blocks":
          [ "BKnsssyfRshzNypbzNw6CMzjKWEoi1NxxvJ8y4t9yPmHb6bxzJD" ] },
      { "delegate": "tz1aKxnrzx5PXZJe7unufEswVRCMU9yafmfb",
        "reception_time": "2022-01-16T02:23:12.110-00:00",
        "included_in_blocks":
          [ "BKnsssyfRshzNypbzNw6CMzjKWEoi1NxxvJ8y4t9yPmHb6bxzJD" ] },
      { "delegate": "tz1TXzyaKUA8wsWefdSnyaYFnV2M3vCV7er9",
        "reception_time": "2022-01-16T02:23:12.101-00:00",
        "included_in_blocks":
          [ "BKnsssyfRshzNypbzNw6CMzjKWEoi1NxxvJ8y4t9yPmHb6bxzJD" ] },
      { "delegate": "tz1eEnQhbwf6trb8Q8mPb2RaPkNk2rN7BKi8",
        "reception_time": "2022-01-16T02:23:12.112-00:00",
        "included_in_blocks":
          [ "BKnsssyfRshzNypbzNw6CMzjKWEoi1NxxvJ8y4t9yPmHb6bxzJD" ] } ] }