{ "blocks":
    [ { "hash": "BKuY9vtWCNqUB2i1hp6bbA3WZDobhb27NvFcSwij669DpSBsyBB",
        "delegate": "tz1PWCDnz783NNGGQjEFFsHtrcK5yBW4E2rm",
        "reception_time": "2022-01-16T02:40:05.871-00:00",
        "timestamp": "2022-01-16T02:40:00Z" } ],
  "endorsements":
    [ { "delegate": "tz1ibcPVGK4Y8pcW4BYUsojiHoBKnZbyDGrX" },
      { "delegate": "tz1TRspM5SeZpaQUhzByXbEvqKF1vnCM2YTK" },
      { "delegate": "tz1P2Po7YM526ughEsRbY4oR9zaUPDZjxFrb",
        "reception_time": "2022-01-16T02:40:05.752-00:00",
        "errors":
          [ { "kind": "temporary",
              "id": "proto.011-PtHangz2.prefilter.outdated_endorsement" } ],
        "included_in_blocks":
          [ "BLpGdQaNeGy9fxSFKhdYQ2Mhkd2iWmXdVVRFuwTBB11dwzXF9V5" ] },
      { "delegate": "tz1S8e9GgdZG78XJRB3NqabfWeM37GnhZMWQ",
        "reception_time": "2022-01-16T02:40:05.439-00:00",
        "errors":
          [ { "kind": "temporary",
              "id": "proto.011-PtHangz2.prefilter.outdated_endorsement" } ],
        "included_in_blocks":
          [ "BLpGdQaNeGy9fxSFKhdYQ2Mhkd2iWmXdVVRFuwTBB11dwzXF9V5" ] },
      { "delegate": "tz1NpWrAyDL9k2Lmnyxcgr9xuJakbBxdq7FB",
        "reception_time": "2022-01-16T02:40:21.958-00:00",
        "included_in_blocks":
          [ "BLpGdQaNeGy9fxSFKhdYQ2Mhkd2iWmXdVVRFuwTBB11dwzXF9V5" ] },
      { "delegate": "tz1Z1WwoqgRFbLE3YNdYRpCx44NSfiMJzeAG",
        "reception_time": "2022-01-16T02:40:16.721-00:00",
        "included_in_blocks":
          [ "BLpGdQaNeGy9fxSFKhdYQ2Mhkd2iWmXdVVRFuwTBB11dwzXF9V5" ] },
      { "delegate": "tz1Wp9DASxBnuiZTXHTBACtQ69kp8YL4bzLz",
        "reception_time": "2022-01-16T02:40:11.496-00:00",
        "included_in_blocks":
          [ "BLpGdQaNeGy9fxSFKhdYQ2Mhkd2iWmXdVVRFuwTBB11dwzXF9V5" ] },
      { "delegate": "tz1NMNQYrYrfNpmUqQrMhJypf6ovnaDZhJHM",
        "reception_time": "2022-01-16T02:40:10.679-00:00",
        "included_in_blocks":
          [ "BLpGdQaNeGy9fxSFKhdYQ2Mhkd2iWmXdVVRFuwTBB11dwzXF9V5" ] },
      { "delegate": "tz1ZcTRk5uxD86EFEn1vvNffWWqJy7q5eVhc",
        "reception_time": "2022-01-16T02:40:10.683-00:00",
        "included_in_blocks":
          [ "BLpGdQaNeGy9fxSFKhdYQ2Mhkd2iWmXdVVRFuwTBB11dwzXF9V5" ] },
      { "delegate": "tz1RjoHc98dBoqaH2jawF62XNKh7YsHwbkEv",
        "reception_time": "2022-01-16T02:40:10.624-00:00",
        "included_in_blocks":
          [ "BLpGdQaNeGy9fxSFKhdYQ2Mhkd2iWmXdVVRFuwTBB11dwzXF9V5" ] },
      { "delegate": "tz1aRoaRhSpRYvFdyvgWLL6TGyRoGF51wDjM",
        "reception_time": "2022-01-16T02:40:10.671-00:00",
        "included_in_blocks":
          [ "BLpGdQaNeGy9fxSFKhdYQ2Mhkd2iWmXdVVRFuwTBB11dwzXF9V5" ] },
      { "delegate": "tz3NExpXn9aPNZPorRE4SdjJ2RGrfbJgMAaV",
        "reception_time": "2022-01-16T02:40:10.592-00:00",
        "included_in_blocks":
          [ "BLpGdQaNeGy9fxSFKhdYQ2Mhkd2iWmXdVVRFuwTBB11dwzXF9V5" ] },
      { "delegate": "tz1T7duV5gZWSTq4YpBGbXNLTfznCLDrFxvs",
        "reception_time": "2022-01-16T02:40:10.671-00:00",
        "included_in_blocks":
          [ "BLpGdQaNeGy9fxSFKhdYQ2Mhkd2iWmXdVVRFuwTBB11dwzXF9V5" ] },
      { "delegate": "tz1awXW7wuXy21c66vBudMXQVAPgRnqqwgTH",
        "reception_time": "2022-01-16T02:40:10.578-00:00",
        "included_in_blocks":
          [ "BLpGdQaNeGy9fxSFKhdYQ2Mhkd2iWmXdVVRFuwTBB11dwzXF9V5" ] },
      { "delegate": "tz1eLdXTtJwdQw1b2ebNuZBF31mbxs1Ww4K8",
        "reception_time": "2022-01-16T02:40:10.540-00:00",
        "included_in_blocks":
          [ "BLpGdQaNeGy9fxSFKhdYQ2Mhkd2iWmXdVVRFuwTBB11dwzXF9V5" ] },
      { "delegate": "tz1UvkANVPWppVgMkLnvN7BwYZsCP7vm6NVd",
        "reception_time": "2022-01-16T02:40:10.610-00:00",
        "included_in_blocks":
          [ "BLpGdQaNeGy9fxSFKhdYQ2Mhkd2iWmXdVVRFuwTBB11dwzXF9V5" ] },
      { "delegate": "tz3VEZ4k6a4Wx42iyev6i2aVAptTRLEAivNN",
        "reception_time": "2022-01-16T02:40:10.565-00:00",
        "included_in_blocks":
          [ "BLpGdQaNeGy9fxSFKhdYQ2Mhkd2iWmXdVVRFuwTBB11dwzXF9V5" ] },
      { "delegate": "tz1abmz7jiCV2GH2u81LRrGgAFFgvQgiDiaf",
        "reception_time": "2022-01-16T02:40:10.540-00:00",
        "included_in_blocks":
          [ "BLpGdQaNeGy9fxSFKhdYQ2Mhkd2iWmXdVVRFuwTBB11dwzXF9V5" ] },
      { "delegate": "tz3WMqdzXqRWXwyvj5Hp2H7QEepaUuS7vd9K",
        "reception_time": "2022-01-16T02:40:09.927-00:00",
        "included_in_blocks":
          [ "BLpGdQaNeGy9fxSFKhdYQ2Mhkd2iWmXdVVRFuwTBB11dwzXF9V5" ] },
      { "delegate": "tz1SYq214SCBy9naR6cvycQsYcUGpBqQAE8d",
        "reception_time": "2022-01-16T02:40:10.193-00:00",
        "included_in_blocks":
          [ "BLpGdQaNeGy9fxSFKhdYQ2Mhkd2iWmXdVVRFuwTBB11dwzXF9V5" ] },
      { "delegate": "tz3UoffC7FG7zfpmvmjUmUeAaHvzdcUvAj6r",
        "reception_time": "2022-01-16T02:40:08.788-00:00",
        "included_in_blocks":
          [ "BLpGdQaNeGy9fxSFKhdYQ2Mhkd2iWmXdVVRFuwTBB11dwzXF9V5" ] },
      { "delegate": "tz1NEKxGEHsFufk87CVZcrqWu8o22qh46GK6",
        "reception_time": "2022-01-16T02:40:09.601-00:00",
        "included_in_blocks":
          [ "BLpGdQaNeGy9fxSFKhdYQ2Mhkd2iWmXdVVRFuwTBB11dwzXF9V5" ] },
      { "delegate": "tz1Vd1rXpV8hTHbFXCXN3c3qzCsgcU5BZw1e",
        "reception_time": "2022-01-16T02:40:08.868-00:00",
        "included_in_blocks":
          [ "BLpGdQaNeGy9fxSFKhdYQ2Mhkd2iWmXdVVRFuwTBB11dwzXF9V5" ] },
      { "delegate": "tz1TRqbYbUf2GyrjErf3hBzgBJPzW8y36qEs",
        "reception_time": "2022-01-16T02:40:08.811-00:00",
        "included_in_blocks":
          [ "BLpGdQaNeGy9fxSFKhdYQ2Mhkd2iWmXdVVRFuwTBB11dwzXF9V5" ] },
      { "delegate": "tz1dRKU4FQ9QRRQPdaH4zCR6gmCmXfcvcgtB",
        "reception_time": "2022-01-16T02:40:08.727-00:00",
        "included_in_blocks":
          [ "BLpGdQaNeGy9fxSFKhdYQ2Mhkd2iWmXdVVRFuwTBB11dwzXF9V5" ] },
      { "delegate": "tz3NDpRj6WBrJPikcPVHRBEjWKxFw3c6eQPS",
        "reception_time": "2022-01-16T02:40:08.548-00:00",
        "included_in_blocks":
          [ "BLpGdQaNeGy9fxSFKhdYQ2Mhkd2iWmXdVVRFuwTBB11dwzXF9V5" ] },
      { "delegate": "tz3gLTu4Yxj8tPAcriQVUdxv6BY9QyvzU1az",
        "reception_time": "2022-01-16T02:40:08.666-00:00",
        "included_in_blocks":
          [ "BLpGdQaNeGy9fxSFKhdYQ2Mhkd2iWmXdVVRFuwTBB11dwzXF9V5" ] },
      { "delegate": "tz1Z2jXfEXL7dXhs6bsLmyLFLfmAkXBzA9WE",
        "reception_time": "2022-01-16T02:40:08.671-00:00",
        "included_in_blocks":
          [ "BLpGdQaNeGy9fxSFKhdYQ2Mhkd2iWmXdVVRFuwTBB11dwzXF9V5" ] },
      { "delegate": "tz1TEc75UKXv4W5cwi14Na3NtqFD51yKQi7h",
        "reception_time": "2022-01-16T02:40:08.508-00:00",
        "included_in_blocks":
          [ "BLpGdQaNeGy9fxSFKhdYQ2Mhkd2iWmXdVVRFuwTBB11dwzXF9V5" ] },
      { "delegate": "tz1fZ767VDbqx4DeKiFswPSHh513f51mKEUZ",
        "reception_time": "2022-01-16T02:40:08.386-00:00",
        "included_in_blocks":
          [ "BLpGdQaNeGy9fxSFKhdYQ2Mhkd2iWmXdVVRFuwTBB11dwzXF9V5" ] },
      { "delegate": "tz1KzSC1J9aBxKp7u8TUnpN8L7S65PBRkgdF",
        "reception_time": "2022-01-16T02:40:08.398-00:00",
        "included_in_blocks":
          [ "BLpGdQaNeGy9fxSFKhdYQ2Mhkd2iWmXdVVRFuwTBB11dwzXF9V5" ] },
      { "delegate": "tz1RCFbB9GpALpsZtu6J58sb74dm8qe6XBzv",
        "reception_time": "2022-01-16T02:40:08.360-00:00",
        "included_in_blocks":
          [ "BLpGdQaNeGy9fxSFKhdYQ2Mhkd2iWmXdVVRFuwTBB11dwzXF9V5" ] },
      { "delegate": "tz2FCNBrERXtaTtNX6iimR1UJ5JSDxvdHM93",
        "reception_time": "2022-01-16T02:40:08.185-00:00",
        "included_in_blocks":
          [ "BLpGdQaNeGy9fxSFKhdYQ2Mhkd2iWmXdVVRFuwTBB11dwzXF9V5" ] },
      { "delegate": "tz1dNVDWPf3Q59SdJqnjdnu277iyvReiRS9M",
        "reception_time": "2022-01-16T02:40:08.219-00:00",
        "included_in_blocks":
          [ "BLpGdQaNeGy9fxSFKhdYQ2Mhkd2iWmXdVVRFuwTBB11dwzXF9V5" ] },
      { "delegate": "tz1Nf6tsK4G6bBqgSQERy4nUtkHNKUVdh7q1",
        "reception_time": "2022-01-16T02:40:08.216-00:00",
        "included_in_blocks":
          [ "BLpGdQaNeGy9fxSFKhdYQ2Mhkd2iWmXdVVRFuwTBB11dwzXF9V5" ] },
      { "delegate": "tz1KfEsrtDaA1sX7vdM4qmEPWuSytuqCDp5j",
        "reception_time": "2022-01-16T02:40:08.269-00:00",
        "included_in_blocks":
          [ "BLpGdQaNeGy9fxSFKhdYQ2Mhkd2iWmXdVVRFuwTBB11dwzXF9V5" ] },
      { "delegate": "tz1fUyqYH7H4pRHN1roWY17giXhy1RvxjgUV",
        "reception_time": "2022-01-16T02:40:08.087-00:00",
        "included_in_blocks":
          [ "BLpGdQaNeGy9fxSFKhdYQ2Mhkd2iWmXdVVRFuwTBB11dwzXF9V5" ] },
      { "delegate": "tz3bvNMQ95vfAYtG8193ymshqjSvmxiCUuR5",
        "reception_time": "2022-01-16T02:40:08.065-00:00",
        "included_in_blocks":
          [ "BLpGdQaNeGy9fxSFKhdYQ2Mhkd2iWmXdVVRFuwTBB11dwzXF9V5" ] },
      { "delegate": "tz3bTdwZinP8U1JmSweNzVKhmwafqWmFWRfk",
        "reception_time": "2022-01-16T02:40:08.055-00:00",
        "included_in_blocks":
          [ "BLpGdQaNeGy9fxSFKhdYQ2Mhkd2iWmXdVVRFuwTBB11dwzXF9V5" ] },
      { "delegate": "tz1WBfwbT66FC6BTLexc2BoyCCBM9LG7pnVW",
        "reception_time": "2022-01-16T02:40:08.010-00:00",
        "included_in_blocks":
          [ "BLpGdQaNeGy9fxSFKhdYQ2Mhkd2iWmXdVVRFuwTBB11dwzXF9V5" ] },
      { "delegate": "tz1fwnfJNgiDACshK9avfRfFbMaXrs3ghoJa",
        "reception_time": "2022-01-16T02:40:07.845-00:00",
        "included_in_blocks":
          [ "BLpGdQaNeGy9fxSFKhdYQ2Mhkd2iWmXdVVRFuwTBB11dwzXF9V5" ] },
      { "delegate": "tz1Sm5iH2vfTtyPQdRHt4STaARTVqTHxJ6Ea",
        "reception_time": "2022-01-16T02:40:07.688-00:00",
        "included_in_blocks":
          [ "BLpGdQaNeGy9fxSFKhdYQ2Mhkd2iWmXdVVRFuwTBB11dwzXF9V5" ] },
      { "delegate": "tz1ei4WtWEMEJekSv8qDnu9PExG6Q8HgRGr3",
        "reception_time": "2022-01-16T02:40:07.800-00:00",
        "included_in_blocks":
          [ "BLpGdQaNeGy9fxSFKhdYQ2Mhkd2iWmXdVVRFuwTBB11dwzXF9V5" ] },
      { "delegate": "tz1gfArv665EUkSg2ojMBzcbfwuPxAvqPvjo",
        "reception_time": "2022-01-16T02:40:07.730-00:00",
        "included_in_blocks":
          [ "BLpGdQaNeGy9fxSFKhdYQ2Mhkd2iWmXdVVRFuwTBB11dwzXF9V5" ] },
      { "delegate": "tz3RB4aoyjov4KEVRbuhvQ1CKJgBJMWhaeB8",
        "reception_time": "2022-01-16T02:40:07.568-00:00",
        "included_in_blocks":
          [ "BLpGdQaNeGy9fxSFKhdYQ2Mhkd2iWmXdVVRFuwTBB11dwzXF9V5" ] },
      { "delegate": "tz1S8MNvuFEUsWgjHvi3AxibRBf388NhT1q2",
        "reception_time": "2022-01-16T02:40:07.623-00:00",
        "included_in_blocks":
          [ "BLpGdQaNeGy9fxSFKhdYQ2Mhkd2iWmXdVVRFuwTBB11dwzXF9V5" ] },
      { "delegate": "tz1V4qCyvPKZ5UeqdH14HN42rxvNPQfc9UZg",
        "reception_time": "2022-01-16T02:40:07.688-00:00",
        "included_in_blocks":
          [ "BLpGdQaNeGy9fxSFKhdYQ2Mhkd2iWmXdVVRFuwTBB11dwzXF9V5" ] },
      { "delegate": "tz1fPKAtsYydh4f1wfWNfeNxWYu72TmM48fu",
        "reception_time": "2022-01-16T02:40:07.623-00:00",
        "included_in_blocks":
          [ "BLpGdQaNeGy9fxSFKhdYQ2Mhkd2iWmXdVVRFuwTBB11dwzXF9V5" ] },
      { "delegate": "tz1d6Fx42mYgVFnHUW8T8A7WBfJ6nD9pVok8",
        "reception_time": "2022-01-16T02:40:07.516-00:00",
        "included_in_blocks":
          [ "BLpGdQaNeGy9fxSFKhdYQ2Mhkd2iWmXdVVRFuwTBB11dwzXF9V5" ] },
      { "delegate": "tz1UJvHTgpVzcKWhTazGxVcn5wsHru5Gietg",
        "reception_time": "2022-01-16T02:40:07.576-00:00",
        "included_in_blocks":
          [ "BLpGdQaNeGy9fxSFKhdYQ2Mhkd2iWmXdVVRFuwTBB11dwzXF9V5" ] },
      { "delegate": "tz3RDC3Jdn4j15J7bBHZd29EUee9gVB1CxD9",
        "reception_time": "2022-01-16T02:40:07.477-00:00",
        "included_in_blocks":
          [ "BLpGdQaNeGy9fxSFKhdYQ2Mhkd2iWmXdVVRFuwTBB11dwzXF9V5" ] },
      { "delegate": "tz3QT9dHYKDqh563chVa6za8526ys1UKfRfL",
        "reception_time": "2022-01-16T02:40:07.507-00:00",
        "included_in_blocks":
          [ "BLpGdQaNeGy9fxSFKhdYQ2Mhkd2iWmXdVVRFuwTBB11dwzXF9V5" ] },
      { "delegate": "tz3S6BBeKgJGXxvLyZ1xzXzMPn11nnFtq5L9",
        "reception_time": "2022-01-16T02:40:07.460-00:00",
        "included_in_blocks":
          [ "BLpGdQaNeGy9fxSFKhdYQ2Mhkd2iWmXdVVRFuwTBB11dwzXF9V5" ] },
      { "delegate": "tz3Zhs2dygr55yHyQyKjntAtY9bgfhLZ4Xj1",
        "reception_time": "2022-01-16T02:40:07.422-00:00",
        "included_in_blocks":
          [ "BLpGdQaNeGy9fxSFKhdYQ2Mhkd2iWmXdVVRFuwTBB11dwzXF9V5" ] },
      { "delegate": "tz1bHzftcTKZMTZgLLtnrXydCm6UEqf4ivca",
        "reception_time": "2022-01-16T02:40:07.445-00:00",
        "included_in_blocks":
          [ "BLpGdQaNeGy9fxSFKhdYQ2Mhkd2iWmXdVVRFuwTBB11dwzXF9V5" ] },
      { "delegate": "tz3iJu5vrKZcsqRPs8yJ61UDoeEXZmtro4qh",
        "reception_time": "2022-01-16T02:40:07.422-00:00",
        "included_in_blocks":
          [ "BLpGdQaNeGy9fxSFKhdYQ2Mhkd2iWmXdVVRFuwTBB11dwzXF9V5" ] },
      { "delegate": "tz1VmiY38m3y95HqQLjMwqnMS7sdMfGomzKi",
        "reception_time": "2022-01-16T02:40:07.403-00:00",
        "included_in_blocks":
          [ "BLpGdQaNeGy9fxSFKhdYQ2Mhkd2iWmXdVVRFuwTBB11dwzXF9V5" ] },
      { "delegate": "tz1MQMiZHV8q4tTwUMWmS5Y3kaP6J2136iXr",
        "reception_time": "2022-01-16T02:40:07.403-00:00",
        "included_in_blocks":
          [ "BLpGdQaNeGy9fxSFKhdYQ2Mhkd2iWmXdVVRFuwTBB11dwzXF9V5" ] },
      { "delegate": "tz3RKYFsLuQzKBtmYuLNas7uMu3AsYd4QdsA",
        "reception_time": "2022-01-16T02:40:07.135-00:00",
        "included_in_blocks":
          [ "BLpGdQaNeGy9fxSFKhdYQ2Mhkd2iWmXdVVRFuwTBB11dwzXF9V5" ] },
      { "delegate": "tz3adcvQaKXTCg12zbninqo3q8ptKKtDFTLv",
        "reception_time": "2022-01-16T02:40:07.403-00:00",
        "included_in_blocks":
          [ "BLpGdQaNeGy9fxSFKhdYQ2Mhkd2iWmXdVVRFuwTBB11dwzXF9V5" ] },
      { "delegate": "tz3NxTnke1acr8o3h5y9ytf5awQBGNJUKzVU",
        "reception_time": "2022-01-16T02:40:07.403-00:00",
        "included_in_blocks":
          [ "BLpGdQaNeGy9fxSFKhdYQ2Mhkd2iWmXdVVRFuwTBB11dwzXF9V5" ] },
      { "delegate": "tz3hw2kqXhLUvY65ca1eety2oQTpAvd34R9Q",
        "reception_time": "2022-01-16T02:40:07.135-00:00",
        "included_in_blocks":
          [ "BLpGdQaNeGy9fxSFKhdYQ2Mhkd2iWmXdVVRFuwTBB11dwzXF9V5" ] },
      { "delegate": "tz1Kt4P8BCaP93AEV4eA7gmpRryWt5hznjCP",
        "reception_time": "2022-01-16T02:40:07.403-00:00",
        "included_in_blocks":
          [ "BLpGdQaNeGy9fxSFKhdYQ2Mhkd2iWmXdVVRFuwTBB11dwzXF9V5" ] },
      { "delegate": "tz3ZbP2pM3nwvXztbuMJwJnDvV5xdpU8UkkD",
        "reception_time": "2022-01-16T02:40:07.403-00:00",
        "included_in_blocks":
          [ "BLpGdQaNeGy9fxSFKhdYQ2Mhkd2iWmXdVVRFuwTBB11dwzXF9V5" ] },
      { "delegate": "tz3gtoUxdudfBRcNY7iVdKPHCYYX6xdPpoRS",
        "reception_time": "2022-01-16T02:40:07.135-00:00",
        "included_in_blocks":
          [ "BLpGdQaNeGy9fxSFKhdYQ2Mhkd2iWmXdVVRFuwTBB11dwzXF9V5" ] },
      { "delegate": "tz1MJx9vhaNRSimcuXPK2rW4fLccQnDAnVKJ",
        "reception_time": "2022-01-16T02:40:07.403-00:00",
        "included_in_blocks":
          [ "BLpGdQaNeGy9fxSFKhdYQ2Mhkd2iWmXdVVRFuwTBB11dwzXF9V5" ] },
      { "delegate": "tz3QSGPoRp3Kn7n3vY24eYeu3Peuqo45LQ4D",
        "reception_time": "2022-01-16T02:40:07.403-00:00",
        "included_in_blocks":
          [ "BLpGdQaNeGy9fxSFKhdYQ2Mhkd2iWmXdVVRFuwTBB11dwzXF9V5" ] },
      { "delegate": "tz1Ldzz6k1BHdhuKvAtMRX7h5kJSMHESMHLC",
        "reception_time": "2022-01-16T02:40:07.403-00:00",
        "included_in_blocks":
          [ "BLpGdQaNeGy9fxSFKhdYQ2Mhkd2iWmXdVVRFuwTBB11dwzXF9V5" ] },
      { "delegate": "tz1irJKkXS2DBWkU1NnmFQx1c1L7pbGg4yhk",
        "reception_time": "2022-01-16T02:40:07.403-00:00",
        "included_in_blocks":
          [ "BLpGdQaNeGy9fxSFKhdYQ2Mhkd2iWmXdVVRFuwTBB11dwzXF9V5" ] },
      { "delegate": "tz1gUNyn3hmnEWqkusWPzxRaon1cs7ndWh7h",
        "reception_time": "2022-01-16T02:40:07.135-00:00",
        "included_in_blocks":
          [ "BLpGdQaNeGy9fxSFKhdYQ2Mhkd2iWmXdVVRFuwTBB11dwzXF9V5" ] },
      { "delegate": "tz1VQnqCCqX4K5sP3FNkVSNKTdCAMJDd3E1n",
        "reception_time": "2022-01-16T02:40:07.135-00:00",
        "included_in_blocks":
          [ "BLpGdQaNeGy9fxSFKhdYQ2Mhkd2iWmXdVVRFuwTBB11dwzXF9V5" ] },
      { "delegate": "tz1STeamwbp68THcny9zk3LsbG3H36DMvbRK",
        "reception_time": "2022-01-16T02:40:07.135-00:00",
        "included_in_blocks":
          [ "BLpGdQaNeGy9fxSFKhdYQ2Mhkd2iWmXdVVRFuwTBB11dwzXF9V5" ] },
      { "delegate": "tz1RV1MBbZMR68tacosb7Mwj6LkbPSUS1er1",
        "reception_time": "2022-01-16T02:40:07.135-00:00",
        "included_in_blocks":
          [ "BLpGdQaNeGy9fxSFKhdYQ2Mhkd2iWmXdVVRFuwTBB11dwzXF9V5" ] },
      { "delegate": "tz1Scdr2HsZiQjc7bHMeBbmDRXYVvdhjJbBh",
        "reception_time": "2022-01-16T02:40:07.135-00:00",
        "included_in_blocks":
          [ "BLpGdQaNeGy9fxSFKhdYQ2Mhkd2iWmXdVVRFuwTBB11dwzXF9V5" ] },
      { "delegate": "tz1eEnQhbwf6trb8Q8mPb2RaPkNk2rN7BKi8",
        "reception_time": "2022-01-16T02:40:07.135-00:00",
        "included_in_blocks":
          [ "BLpGdQaNeGy9fxSFKhdYQ2Mhkd2iWmXdVVRFuwTBB11dwzXF9V5" ] } ] }