{ "blocks":
    [ { "hash": "BLR8qDtRzMpESfo91qyLfSLH1jGELrv3P7Hm7uyJfrp9qQi19Ss",
        "delegate": "tz1cYufsxHXJcvANhvS55h3aY32a9BAFB494",
        "reception_time": "2022-01-15T21:38:33.134-00:00",
        "timestamp": "2022-01-15T21:38:20Z" } ],
  "endorsements":
    [ { "delegate": "tz3RKYFsLuQzKBtmYuLNas7uMu3AsYd4QdsA",
        "reception_time": "2022-01-15T21:38:33.010-00:00",
        "errors":
          [ { "kind": "temporary",
              "id": "proto.011-PtHangz2.prefilter.outdated_endorsement" } ],
        "included_in_blocks":
          [ "BLqoQDnBcqVoLErkgz5Vpj5ZvXJSZQCeaPFjeCbfCqnc98mQTVG" ] },
      { "delegate": "tz1Ldzz6k1BHdhuKvAtMRX7h5kJSMHESMHLC",
        "reception_time": "2022-01-15T21:38:33.002-00:00",
        "errors":
          [ { "kind": "temporary",
              "id": "proto.011-PtHangz2.prefilter.outdated_endorsement" } ],
        "included_in_blocks":
          [ "BLqoQDnBcqVoLErkgz5Vpj5ZvXJSZQCeaPFjeCbfCqnc98mQTVG" ] },
      { "delegate": "tz1WCd2jm4uSt4vntk4vSuUWoZQGhLcDuR9q",
        "reception_time": "2022-01-15T21:38:32.931-00:00",
        "errors":
          [ { "kind": "temporary",
              "id": "proto.011-PtHangz2.prefilter.outdated_endorsement" } ],
        "included_in_blocks":
          [ "BLqoQDnBcqVoLErkgz5Vpj5ZvXJSZQCeaPFjeCbfCqnc98mQTVG" ] },
      { "delegate": "tz3NxTnke1acr8o3h5y9ytf5awQBGNJUKzVU",
        "reception_time": "2022-01-15T21:38:32.901-00:00",
        "errors":
          [ { "kind": "temporary",
              "id": "proto.011-PtHangz2.prefilter.outdated_endorsement" } ],
        "included_in_blocks":
          [ "BLqoQDnBcqVoLErkgz5Vpj5ZvXJSZQCeaPFjeCbfCqnc98mQTVG" ] },
      { "delegate": "tz3hw2kqXhLUvY65ca1eety2oQTpAvd34R9Q",
        "reception_time": "2022-01-15T21:38:32.886-00:00",
        "errors":
          [ { "kind": "temporary",
              "id": "proto.011-PtHangz2.prefilter.outdated_endorsement" } ],
        "included_in_blocks":
          [ "BLqoQDnBcqVoLErkgz5Vpj5ZvXJSZQCeaPFjeCbfCqnc98mQTVG" ] },
      { "delegate": "tz1TzaNn7wSQSP5gYPXCnNzBCpyMiidCq1PX",
        "reception_time": "2022-01-15T21:38:32.858-00:00",
        "errors":
          [ { "kind": "temporary",
              "id": "proto.011-PtHangz2.prefilter.outdated_endorsement" } ],
        "included_in_blocks":
          [ "BLqoQDnBcqVoLErkgz5Vpj5ZvXJSZQCeaPFjeCbfCqnc98mQTVG" ] },
      { "delegate": "tz3ZbP2pM3nwvXztbuMJwJnDvV5xdpU8UkkD",
        "reception_time": "2022-01-15T21:38:32.811-00:00",
        "errors":
          [ { "kind": "temporary",
              "id": "proto.011-PtHangz2.prefilter.outdated_endorsement" } ],
        "included_in_blocks":
          [ "BLqoQDnBcqVoLErkgz5Vpj5ZvXJSZQCeaPFjeCbfCqnc98mQTVG" ] },
      { "delegate": "tz1MJx9vhaNRSimcuXPK2rW4fLccQnDAnVKJ",
        "reception_time": "2022-01-15T21:38:32.808-00:00",
        "errors":
          [ { "kind": "temporary",
              "id": "proto.011-PtHangz2.prefilter.outdated_endorsement" } ],
        "included_in_blocks":
          [ "BLqoQDnBcqVoLErkgz5Vpj5ZvXJSZQCeaPFjeCbfCqnc98mQTVG" ] },
      { "delegate": "tz1aXD7Jigrt3PBYSpHSg5Rr33SexMmmM5Ys",
        "reception_time": "2022-01-15T21:38:32.641-00:00",
        "errors":
          [ { "kind": "temporary",
              "id": "proto.011-PtHangz2.prefilter.outdated_endorsement" } ],
        "included_in_blocks":
          [ "BLqoQDnBcqVoLErkgz5Vpj5ZvXJSZQCeaPFjeCbfCqnc98mQTVG" ] },
      { "delegate": "tz1irJKkXS2DBWkU1NnmFQx1c1L7pbGg4yhk",
        "reception_time": "2022-01-15T21:38:32.321-00:00",
        "errors":
          [ { "kind": "temporary",
              "id": "proto.011-PtHangz2.prefilter.outdated_endorsement" } ],
        "included_in_blocks":
          [ "BLqoQDnBcqVoLErkgz5Vpj5ZvXJSZQCeaPFjeCbfCqnc98mQTVG" ] },
      { "delegate": "tz1gUNyn3hmnEWqkusWPzxRaon1cs7ndWh7h",
        "reception_time": "2022-01-15T21:38:32.321-00:00",
        "errors":
          [ { "kind": "temporary",
              "id": "proto.011-PtHangz2.prefilter.outdated_endorsement" } ],
        "included_in_blocks":
          [ "BLqoQDnBcqVoLErkgz5Vpj5ZvXJSZQCeaPFjeCbfCqnc98mQTVG" ] },
      { "delegate": "tz1VQnqCCqX4K5sP3FNkVSNKTdCAMJDd3E1n",
        "reception_time": "2022-01-15T21:38:32.316-00:00",
        "errors":
          [ { "kind": "temporary",
              "id": "proto.011-PtHangz2.prefilter.outdated_endorsement" } ],
        "included_in_blocks":
          [ "BLqoQDnBcqVoLErkgz5Vpj5ZvXJSZQCeaPFjeCbfCqnc98mQTVG" ] },
      { "delegate": "tz1eEnQhbwf6trb8Q8mPb2RaPkNk2rN7BKi8",
        "reception_time": "2022-01-15T21:38:32.312-00:00",
        "errors":
          [ { "kind": "temporary",
              "id": "proto.011-PtHangz2.prefilter.outdated_endorsement" } ],
        "included_in_blocks":
          [ "BLqoQDnBcqVoLErkgz5Vpj5ZvXJSZQCeaPFjeCbfCqnc98mQTVG" ] },
      { "delegate": "tz1STeamwbp68THcny9zk3LsbG3H36DMvbRK",
        "reception_time": "2022-01-15T21:38:32.229-00:00",
        "errors":
          [ { "kind": "temporary",
              "id": "proto.011-PtHangz2.prefilter.outdated_endorsement" } ],
        "included_in_blocks":
          [ "BLqoQDnBcqVoLErkgz5Vpj5ZvXJSZQCeaPFjeCbfCqnc98mQTVG" ] },
      { "delegate": "tz1d9ek6HrScY6QRZ71NJdB85MNz8gKGBjrv",
        "reception_time": "2022-01-15T21:38:32.193-00:00",
        "errors":
          [ { "kind": "temporary",
              "id": "proto.011-PtHangz2.prefilter.outdated_endorsement" } ],
        "included_in_blocks":
          [ "BLqoQDnBcqVoLErkgz5Vpj5ZvXJSZQCeaPFjeCbfCqnc98mQTVG" ] },
      { "delegate": "tz1beersuEDv8Z7ngQ825xfbaJNS2EhXnyHR",
        "reception_time": "2022-01-15T21:38:32.136-00:00",
        "errors":
          [ { "kind": "temporary",
              "id": "proto.011-PtHangz2.prefilter.outdated_endorsement" } ],
        "included_in_blocks":
          [ "BLqoQDnBcqVoLErkgz5Vpj5ZvXJSZQCeaPFjeCbfCqnc98mQTVG" ] },
      { "delegate": "tz1Lhf4J9Qxoe3DZ2nfe8FGDnvVj7oKjnMY6",
        "reception_time": "2022-01-15T21:38:32.100-00:00",
        "errors":
          [ { "kind": "temporary",
              "id": "proto.011-PtHangz2.prefilter.outdated_endorsement" } ],
        "included_in_blocks":
          [ "BLqoQDnBcqVoLErkgz5Vpj5ZvXJSZQCeaPFjeCbfCqnc98mQTVG" ] },
      { "delegate": "tz1Scdr2HsZiQjc7bHMeBbmDRXYVvdhjJbBh",
        "reception_time": "2022-01-15T21:38:31.998-00:00",
        "errors":
          [ { "kind": "temporary",
              "id": "proto.011-PtHangz2.prefilter.outdated_endorsement" } ],
        "included_in_blocks":
          [ "BLqoQDnBcqVoLErkgz5Vpj5ZvXJSZQCeaPFjeCbfCqnc98mQTVG" ] },
      { "delegate": "tz1P2Po7YM526ughEsRbY4oR9zaUPDZjxFrb",
        "reception_time": "2022-01-15T21:38:31.865-00:00",
        "errors":
          [ { "kind": "temporary",
              "id": "proto.011-PtHangz2.prefilter.outdated_endorsement" } ],
        "included_in_blocks":
          [ "BLqoQDnBcqVoLErkgz5Vpj5ZvXJSZQCeaPFjeCbfCqnc98mQTVG" ] },
      { "delegate": "tz1S8e9GgdZG78XJRB3NqabfWeM37GnhZMWQ",
        "reception_time": "2022-01-15T21:38:31.675-00:00",
        "errors":
          [ { "kind": "temporary",
              "id": "proto.011-PtHangz2.prefilter.outdated_endorsement" } ],
        "included_in_blocks":
          [ "BLqoQDnBcqVoLErkgz5Vpj5ZvXJSZQCeaPFjeCbfCqnc98mQTVG" ] },
      { "delegate": "tz1TRspM5SeZpaQUhzByXbEvqKF1vnCM2YTK" },
      { "delegate": "tz1gfArv665EUkSg2ojMBzcbfwuPxAvqPvjo",
        "reception_time": "2022-01-15T21:38:33.875-00:00",
        "included_in_blocks":
          [ "BLqoQDnBcqVoLErkgz5Vpj5ZvXJSZQCeaPFjeCbfCqnc98mQTVG" ] },
      { "delegate": "tz3gtoUxdudfBRcNY7iVdKPHCYYX6xdPpoRS",
        "reception_time": "2022-01-15T21:38:34.682-00:00",
        "included_in_blocks":
          [ "BLqoQDnBcqVoLErkgz5Vpj5ZvXJSZQCeaPFjeCbfCqnc98mQTVG" ] },
      { "delegate": "tz3QT9dHYKDqh563chVa6za8526ys1UKfRfL",
        "reception_time": "2022-01-15T21:38:34.682-00:00",
        "included_in_blocks":
          [ "BLqoQDnBcqVoLErkgz5Vpj5ZvXJSZQCeaPFjeCbfCqnc98mQTVG" ] },
      { "delegate": "tz3Zhs2dygr55yHyQyKjntAtY9bgfhLZ4Xj1",
        "reception_time": "2022-01-15T21:38:34.716-00:00",
        "included_in_blocks":
          [ "BLqoQDnBcqVoLErkgz5Vpj5ZvXJSZQCeaPFjeCbfCqnc98mQTVG" ] },
      { "delegate": "tz1VmiY38m3y95HqQLjMwqnMS7sdMfGomzKi",
        "reception_time": "2022-01-15T21:38:34.721-00:00",
        "included_in_blocks":
          [ "BLqoQDnBcqVoLErkgz5Vpj5ZvXJSZQCeaPFjeCbfCqnc98mQTVG" ] },
      { "delegate": "tz1QLXqnfN51dkjeghXvKHkJfhvGiM5gK4tc",
        "reception_time": "2022-01-15T21:38:34.721-00:00",
        "included_in_blocks":
          [ "BLqoQDnBcqVoLErkgz5Vpj5ZvXJSZQCeaPFjeCbfCqnc98mQTVG" ] },
      { "delegate": "tz3S6BBeKgJGXxvLyZ1xzXzMPn11nnFtq5L9",
        "reception_time": "2022-01-15T21:38:34.730-00:00",
        "included_in_blocks":
          [ "BLqoQDnBcqVoLErkgz5Vpj5ZvXJSZQCeaPFjeCbfCqnc98mQTVG" ] },
      { "delegate": "tz1PWCDnz783NNGGQjEFFsHtrcK5yBW4E2rm",
        "reception_time": "2022-01-15T21:38:34.737-00:00",
        "included_in_blocks":
          [ "BLqoQDnBcqVoLErkgz5Vpj5ZvXJSZQCeaPFjeCbfCqnc98mQTVG" ] },
      { "delegate": "tz3QSGPoRp3Kn7n3vY24eYeu3Peuqo45LQ4D",
        "reception_time": "2022-01-15T21:38:34.748-00:00",
        "included_in_blocks":
          [ "BLqoQDnBcqVoLErkgz5Vpj5ZvXJSZQCeaPFjeCbfCqnc98mQTVG" ] },
      { "delegate": "tz3iJu5vrKZcsqRPs8yJ61UDoeEXZmtro4qh",
        "reception_time": "2022-01-15T21:38:34.748-00:00",
        "included_in_blocks":
          [ "BLqoQDnBcqVoLErkgz5Vpj5ZvXJSZQCeaPFjeCbfCqnc98mQTVG" ] },
      { "delegate": "tz3adcvQaKXTCg12zbninqo3q8ptKKtDFTLv",
        "reception_time": "2022-01-15T21:38:34.772-00:00",
        "included_in_blocks":
          [ "BLqoQDnBcqVoLErkgz5Vpj5ZvXJSZQCeaPFjeCbfCqnc98mQTVG" ] },
      { "delegate": "tz3QCNyySViKHmeSr45kzDxzchys7NiXCWoa",
        "reception_time": "2022-01-15T21:38:34.785-00:00",
        "included_in_blocks":
          [ "BLqoQDnBcqVoLErkgz5Vpj5ZvXJSZQCeaPFjeCbfCqnc98mQTVG" ] },
      { "delegate": "tz1cYufsxHXJcvANhvS55h3aY32a9BAFB494",
        "reception_time": "2022-01-15T21:38:34.785-00:00",
        "included_in_blocks":
          [ "BLqoQDnBcqVoLErkgz5Vpj5ZvXJSZQCeaPFjeCbfCqnc98mQTVG" ] },
      { "delegate": "tz1RCFbB9GpALpsZtu6J58sb74dm8qe6XBzv",
        "reception_time": "2022-01-15T21:38:34.792-00:00",
        "included_in_blocks":
          [ "BLqoQDnBcqVoLErkgz5Vpj5ZvXJSZQCeaPFjeCbfCqnc98mQTVG" ] },
      { "delegate": "tz1dwu9aYb7CRNq4Y2zAjipdjFuSVKhHS8vA",
        "reception_time": "2022-01-15T21:38:34.792-00:00",
        "included_in_blocks":
          [ "BLqoQDnBcqVoLErkgz5Vpj5ZvXJSZQCeaPFjeCbfCqnc98mQTVG" ] },
      { "delegate": "tz1cSj7fTex3JPd1p1LN1fwek6AV1kH93Wwc",
        "reception_time": "2022-01-15T21:38:34.798-00:00",
        "included_in_blocks":
          [ "BLqoQDnBcqVoLErkgz5Vpj5ZvXJSZQCeaPFjeCbfCqnc98mQTVG" ] },
      { "delegate": "tz1abmz7jiCV2GH2u81LRrGgAFFgvQgiDiaf",
        "reception_time": "2022-01-15T21:38:34.798-00:00",
        "included_in_blocks":
          [ "BLqoQDnBcqVoLErkgz5Vpj5ZvXJSZQCeaPFjeCbfCqnc98mQTVG" ] },
      { "delegate": "tz1ei4WtWEMEJekSv8qDnu9PExG6Q8HgRGr3",
        "reception_time": "2022-01-15T21:38:34.809-00:00",
        "included_in_blocks":
          [ "BLqoQDnBcqVoLErkgz5Vpj5ZvXJSZQCeaPFjeCbfCqnc98mQTVG" ] },
      { "delegate": "tz3bTdwZinP8U1JmSweNzVKhmwafqWmFWRfk",
        "reception_time": "2022-01-15T21:38:34.809-00:00",
        "included_in_blocks":
          [ "BLqoQDnBcqVoLErkgz5Vpj5ZvXJSZQCeaPFjeCbfCqnc98mQTVG" ] },
      { "delegate": "tz3RB4aoyjov4KEVRbuhvQ1CKJgBJMWhaeB8",
        "reception_time": "2022-01-15T21:38:34.816-00:00",
        "included_in_blocks":
          [ "BLqoQDnBcqVoLErkgz5Vpj5ZvXJSZQCeaPFjeCbfCqnc98mQTVG" ] },
      { "delegate": "tz1SYq214SCBy9naR6cvycQsYcUGpBqQAE8d",
        "reception_time": "2022-01-15T21:38:34.820-00:00",
        "included_in_blocks":
          [ "BLqoQDnBcqVoLErkgz5Vpj5ZvXJSZQCeaPFjeCbfCqnc98mQTVG" ] },
      { "delegate": "tz1V4qCyvPKZ5UeqdH14HN42rxvNPQfc9UZg",
        "reception_time": "2022-01-15T21:38:34.840-00:00",
        "included_in_blocks":
          [ "BLqoQDnBcqVoLErkgz5Vpj5ZvXJSZQCeaPFjeCbfCqnc98mQTVG" ] },
      { "delegate": "tz1NSDFKuRyzHxpfG1AMkyCwEiZ52cbR2mRW",
        "reception_time": "2022-01-15T21:38:34.849-00:00",
        "included_in_blocks":
          [ "BLqoQDnBcqVoLErkgz5Vpj5ZvXJSZQCeaPFjeCbfCqnc98mQTVG" ] },
      { "delegate": "tz3NDpRj6WBrJPikcPVHRBEjWKxFw3c6eQPS",
        "reception_time": "2022-01-15T21:38:34.878-00:00",
        "included_in_blocks":
          [ "BLqoQDnBcqVoLErkgz5Vpj5ZvXJSZQCeaPFjeCbfCqnc98mQTVG" ] },
      { "delegate": "tz1fwnfJNgiDACshK9avfRfFbMaXrs3ghoJa",
        "reception_time": "2022-01-15T21:38:34.882-00:00",
        "included_in_blocks":
          [ "BLqoQDnBcqVoLErkgz5Vpj5ZvXJSZQCeaPFjeCbfCqnc98mQTVG" ] },
      { "delegate": "tz1axcnVN9tZnCe4sQQhC6f3tfSEXdjPaXPY",
        "reception_time": "2022-01-15T21:38:34.918-00:00",
        "included_in_blocks":
          [ "BLqoQDnBcqVoLErkgz5Vpj5ZvXJSZQCeaPFjeCbfCqnc98mQTVG" ] },
      { "delegate": "tz1WBfwbT66FC6BTLexc2BoyCCBM9LG7pnVW",
        "reception_time": "2022-01-15T21:38:34.922-00:00",
        "included_in_blocks":
          [ "BLqoQDnBcqVoLErkgz5Vpj5ZvXJSZQCeaPFjeCbfCqnc98mQTVG" ] },
      { "delegate": "tz1LmaFsWRkjr7QMCx5PtV6xTUz3AmEpKQiF",
        "reception_time": "2022-01-15T21:38:34.926-00:00",
        "included_in_blocks":
          [ "BLqoQDnBcqVoLErkgz5Vpj5ZvXJSZQCeaPFjeCbfCqnc98mQTVG" ] },
      { "delegate": "tz1Nf6tsK4G6bBqgSQERy4nUtkHNKUVdh7q1",
        "reception_time": "2022-01-15T21:38:34.934-00:00",
        "included_in_blocks":
          [ "BLqoQDnBcqVoLErkgz5Vpj5ZvXJSZQCeaPFjeCbfCqnc98mQTVG" ] },
      { "delegate": "tz1KfEsrtDaA1sX7vdM4qmEPWuSytuqCDp5j",
        "reception_time": "2022-01-15T21:38:34.952-00:00",
        "included_in_blocks":
          [ "BLqoQDnBcqVoLErkgz5Vpj5ZvXJSZQCeaPFjeCbfCqnc98mQTVG" ] },
      { "delegate": "tz2FCNBrERXtaTtNX6iimR1UJ5JSDxvdHM93",
        "reception_time": "2022-01-15T21:38:34.961-00:00",
        "included_in_blocks":
          [ "BLqoQDnBcqVoLErkgz5Vpj5ZvXJSZQCeaPFjeCbfCqnc98mQTVG" ] },
      { "delegate": "tz1S8MNvuFEUsWgjHvi3AxibRBf388NhT1q2",
        "reception_time": "2022-01-15T21:38:34.976-00:00",
        "included_in_blocks":
          [ "BLqoQDnBcqVoLErkgz5Vpj5ZvXJSZQCeaPFjeCbfCqnc98mQTVG" ] },
      { "delegate": "tz1UMCB2AHSTwG7YcGNr31CqYCtGN873royv",
        "reception_time": "2022-01-15T21:38:34.981-00:00",
        "included_in_blocks":
          [ "BLqoQDnBcqVoLErkgz5Vpj5ZvXJSZQCeaPFjeCbfCqnc98mQTVG" ] },
      { "delegate": "tz1RjoHc98dBoqaH2jawF62XNKh7YsHwbkEv",
        "reception_time": "2022-01-15T21:38:34.998-00:00",
        "included_in_blocks":
          [ "BLqoQDnBcqVoLErkgz5Vpj5ZvXJSZQCeaPFjeCbfCqnc98mQTVG" ] },
      { "delegate": "tz1NEKxGEHsFufk87CVZcrqWu8o22qh46GK6",
        "reception_time": "2022-01-15T21:38:35.040-00:00",
        "included_in_blocks":
          [ "BLqoQDnBcqVoLErkgz5Vpj5ZvXJSZQCeaPFjeCbfCqnc98mQTVG" ] },
      { "delegate": "tz3UoffC7FG7zfpmvmjUmUeAaHvzdcUvAj6r",
        "reception_time": "2022-01-15T21:38:35.050-00:00",
        "included_in_blocks":
          [ "BLqoQDnBcqVoLErkgz5Vpj5ZvXJSZQCeaPFjeCbfCqnc98mQTVG" ] },
      { "delegate": "tz1WctSwL49BZtdWAQ75NY6vr4xsAx6oKdah",
        "reception_time": "2022-01-15T21:38:35.114-00:00",
        "included_in_blocks":
          [ "BLqoQDnBcqVoLErkgz5Vpj5ZvXJSZQCeaPFjeCbfCqnc98mQTVG" ] },
      { "delegate": "tz3bvNMQ95vfAYtG8193ymshqjSvmxiCUuR5",
        "reception_time": "2022-01-15T21:38:35.158-00:00",
        "included_in_blocks":
          [ "BLqoQDnBcqVoLErkgz5Vpj5ZvXJSZQCeaPFjeCbfCqnc98mQTVG" ] },
      { "delegate": "tz1eVaNx3gCmG1EsLjijkmgAxdLYVf6Bf5Sq",
        "reception_time": "2022-01-15T21:38:35.225-00:00",
        "included_in_blocks":
          [ "BLqoQDnBcqVoLErkgz5Vpj5ZvXJSZQCeaPFjeCbfCqnc98mQTVG" ] },
      { "delegate": "tz3VEZ4k6a4Wx42iyev6i2aVAptTRLEAivNN",
        "reception_time": "2022-01-15T21:38:35.301-00:00",
        "included_in_blocks":
          [ "BLqoQDnBcqVoLErkgz5Vpj5ZvXJSZQCeaPFjeCbfCqnc98mQTVG" ] },
      { "delegate": "tz1dRKU4FQ9QRRQPdaH4zCR6gmCmXfcvcgtB",
        "reception_time": "2022-01-15T21:38:35.309-00:00",
        "included_in_blocks":
          [ "BLqoQDnBcqVoLErkgz5Vpj5ZvXJSZQCeaPFjeCbfCqnc98mQTVG" ] },
      { "delegate": "tz3RDC3Jdn4j15J7bBHZd29EUee9gVB1CxD9",
        "reception_time": "2022-01-15T21:38:35.400-00:00",
        "included_in_blocks":
          [ "BLqoQDnBcqVoLErkgz5Vpj5ZvXJSZQCeaPFjeCbfCqnc98mQTVG" ] },
      { "delegate": "tz3NExpXn9aPNZPorRE4SdjJ2RGrfbJgMAaV",
        "reception_time": "2022-01-15T21:38:35.825-00:00",
        "included_in_blocks":
          [ "BLqoQDnBcqVoLErkgz5Vpj5ZvXJSZQCeaPFjeCbfCqnc98mQTVG" ] },
      { "delegate": "tz1bTpviNnyx2PXsNmGpCQTMQsGoYordkUoA",
        "reception_time": "2022-01-15T21:38:35.937-00:00",
        "included_in_blocks":
          [ "BLqoQDnBcqVoLErkgz5Vpj5ZvXJSZQCeaPFjeCbfCqnc98mQTVG" ] },
      { "delegate": "tz1awXW7wuXy21c66vBudMXQVAPgRnqqwgTH",
        "reception_time": "2022-01-15T21:38:36.085-00:00",
        "included_in_blocks":
          [ "BLqoQDnBcqVoLErkgz5Vpj5ZvXJSZQCeaPFjeCbfCqnc98mQTVG" ] },
      { "delegate": "tz1cM8Xc7ZP1TrjkTeKq4PeRhtbnwXSBR6Sw",
        "reception_time": "2022-01-15T21:38:36.263-00:00",
        "included_in_blocks":
          [ "BLqoQDnBcqVoLErkgz5Vpj5ZvXJSZQCeaPFjeCbfCqnc98mQTVG" ] },
      { "delegate": "tz1aRoaRhSpRYvFdyvgWLL6TGyRoGF51wDjM",
        "reception_time": "2022-01-15T21:38:36.517-00:00",
        "included_in_blocks":
          [ "BLqoQDnBcqVoLErkgz5Vpj5ZvXJSZQCeaPFjeCbfCqnc98mQTVG" ] },
      { "delegate": "tz1ZcTRk5uxD86EFEn1vvNffWWqJy7q5eVhc",
        "reception_time": "2022-01-15T21:38:36.838-00:00",
        "included_in_blocks":
          [ "BLqoQDnBcqVoLErkgz5Vpj5ZvXJSZQCeaPFjeCbfCqnc98mQTVG" ] },
      { "delegate": "tz1g8vkmcde6sWKaG2NN9WKzCkDM6Rziq194",
        "reception_time": "2022-01-15T21:38:37.116-00:00",
        "included_in_blocks":
          [ "BLqoQDnBcqVoLErkgz5Vpj5ZvXJSZQCeaPFjeCbfCqnc98mQTVG" ] },
      { "delegate": "tz1fJHFn6sWEd3NnBPngACuw2dggTv6nQZ7g",
        "reception_time": "2022-01-15T21:38:37.126-00:00",
        "included_in_blocks":
          [ "BLqoQDnBcqVoLErkgz5Vpj5ZvXJSZQCeaPFjeCbfCqnc98mQTVG" ] },
      { "delegate": "tz1S5WxdZR5f9NzsPXhr7L9L1vrEb5spZFur",
        "reception_time": "2022-01-15T21:38:38.540-00:00",
        "included_in_blocks":
          [ "BLqoQDnBcqVoLErkgz5Vpj5ZvXJSZQCeaPFjeCbfCqnc98mQTVG" ] } ] }