{ "blocks":
    [ { "hash": "BMFntfKEq3Exb75aksVCDh8Uvg1fdsd9g13gnLdrUjvoTa1v777",
        "delegate": "tz1irJKkXS2DBWkU1NnmFQx1c1L7pbGg4yhk",
        "reception_time": "2022-01-16T00:31:35.783-00:00",
        "timestamp": "2022-01-16T00:31:30Z" } ],
  "endorsements":
    [ { "delegate": "tz1irJKkXS2DBWkU1NnmFQx1c1L7pbGg4yhk",
        "reception_time": "2022-01-16T00:31:35.631-00:00",
        "errors":
          [ { "kind": "temporary",
              "id": "proto.011-PtHangz2.prefilter.outdated_endorsement" } ],
        "included_in_blocks":
          [ "BLStmCFDHPSaotQ7ugVL7fi5pUdRBYQQWuzgW5jyAXrQbAihUpm" ] },
      { "delegate": "tz1P2Po7YM526ughEsRbY4oR9zaUPDZjxFrb",
        "reception_time": "2022-01-16T00:31:35.370-00:00",
        "errors":
          [ { "kind": "temporary",
              "id": "proto.011-PtHangz2.prefilter.outdated_endorsement" } ],
        "included_in_blocks":
          [ "BLStmCFDHPSaotQ7ugVL7fi5pUdRBYQQWuzgW5jyAXrQbAihUpm" ] },
      { "delegate": "tz1TRspM5SeZpaQUhzByXbEvqKF1vnCM2YTK" },
      { "delegate": "tz1eEnQhbwf6trb8Q8mPb2RaPkNk2rN7BKi8",
        "reception_time": "2022-01-16T00:31:36.893-00:00",
        "included_in_blocks":
          [ "BLStmCFDHPSaotQ7ugVL7fi5pUdRBYQQWuzgW5jyAXrQbAihUpm" ] },
      { "delegate": "tz1RV1MBbZMR68tacosb7Mwj6LkbPSUS1er1",
        "reception_time": "2022-01-16T00:31:36.897-00:00",
        "included_in_blocks":
          [ "BLStmCFDHPSaotQ7ugVL7fi5pUdRBYQQWuzgW5jyAXrQbAihUpm" ] },
      { "delegate": "tz1XfAjZyaLdceHnZxbMYop7g7kWKPut4PR7",
        "reception_time": "2022-01-16T00:31:36.905-00:00",
        "included_in_blocks":
          [ "BLStmCFDHPSaotQ7ugVL7fi5pUdRBYQQWuzgW5jyAXrQbAihUpm" ] },
      { "delegate": "tz1Ldzz6k1BHdhuKvAtMRX7h5kJSMHESMHLC",
        "reception_time": "2022-01-16T00:31:36.905-00:00",
        "included_in_blocks":
          [ "BLStmCFDHPSaotQ7ugVL7fi5pUdRBYQQWuzgW5jyAXrQbAihUpm" ] },
      { "delegate": "tz3ZbP2pM3nwvXztbuMJwJnDvV5xdpU8UkkD",
        "reception_time": "2022-01-16T00:31:36.913-00:00",
        "included_in_blocks":
          [ "BLStmCFDHPSaotQ7ugVL7fi5pUdRBYQQWuzgW5jyAXrQbAihUpm" ] },
      { "delegate": "tz1Kt4P8BCaP93AEV4eA7gmpRryWt5hznjCP",
        "reception_time": "2022-01-16T00:31:36.916-00:00",
        "included_in_blocks":
          [ "BLStmCFDHPSaotQ7ugVL7fi5pUdRBYQQWuzgW5jyAXrQbAihUpm" ] },
      { "delegate": "tz1VQnqCCqX4K5sP3FNkVSNKTdCAMJDd3E1n",
        "reception_time": "2022-01-16T00:31:36.923-00:00",
        "included_in_blocks":
          [ "BLStmCFDHPSaotQ7ugVL7fi5pUdRBYQQWuzgW5jyAXrQbAihUpm" ] },
      { "delegate": "tz3NxTnke1acr8o3h5y9ytf5awQBGNJUKzVU",
        "reception_time": "2022-01-16T00:31:36.931-00:00",
        "included_in_blocks":
          [ "BLStmCFDHPSaotQ7ugVL7fi5pUdRBYQQWuzgW5jyAXrQbAihUpm" ] },
      { "delegate": "tz1WCd2jm4uSt4vntk4vSuUWoZQGhLcDuR9q",
        "reception_time": "2022-01-16T00:31:36.937-00:00",
        "included_in_blocks":
          [ "BLStmCFDHPSaotQ7ugVL7fi5pUdRBYQQWuzgW5jyAXrQbAihUpm" ] },
      { "delegate": "tz1gUNyn3hmnEWqkusWPzxRaon1cs7ndWh7h",
        "reception_time": "2022-01-16T00:31:36.937-00:00",
        "included_in_blocks":
          [ "BLStmCFDHPSaotQ7ugVL7fi5pUdRBYQQWuzgW5jyAXrQbAihUpm" ] },
      { "delegate": "tz3QSGPoRp3Kn7n3vY24eYeu3Peuqo45LQ4D",
        "reception_time": "2022-01-16T00:31:36.944-00:00",
        "included_in_blocks":
          [ "BLStmCFDHPSaotQ7ugVL7fi5pUdRBYQQWuzgW5jyAXrQbAihUpm" ] },
      { "delegate": "tz1TzaNn7wSQSP5gYPXCnNzBCpyMiidCq1PX",
        "reception_time": "2022-01-16T00:31:36.947-00:00",
        "included_in_blocks":
          [ "BLStmCFDHPSaotQ7ugVL7fi5pUdRBYQQWuzgW5jyAXrQbAihUpm" ] },
      { "delegate": "tz3gtoUxdudfBRcNY7iVdKPHCYYX6xdPpoRS",
        "reception_time": "2022-01-16T00:31:37.013-00:00",
        "included_in_blocks":
          [ "BLStmCFDHPSaotQ7ugVL7fi5pUdRBYQQWuzgW5jyAXrQbAihUpm" ] },
      { "delegate": "tz1aXD7Jigrt3PBYSpHSg5Rr33SexMmmM5Ys",
        "reception_time": "2022-01-16T00:31:37.017-00:00",
        "included_in_blocks":
          [ "BLStmCFDHPSaotQ7ugVL7fi5pUdRBYQQWuzgW5jyAXrQbAihUpm" ] },
      { "delegate": "tz3hw2kqXhLUvY65ca1eety2oQTpAvd34R9Q",
        "reception_time": "2022-01-16T00:31:37.025-00:00",
        "included_in_blocks":
          [ "BLStmCFDHPSaotQ7ugVL7fi5pUdRBYQQWuzgW5jyAXrQbAihUpm" ] },
      { "delegate": "tz3QT9dHYKDqh563chVa6za8526ys1UKfRfL",
        "reception_time": "2022-01-16T00:31:37.033-00:00",
        "included_in_blocks":
          [ "BLStmCFDHPSaotQ7ugVL7fi5pUdRBYQQWuzgW5jyAXrQbAihUpm" ] },
      { "delegate": "tz3Zhs2dygr55yHyQyKjntAtY9bgfhLZ4Xj1",
        "reception_time": "2022-01-16T00:31:37.040-00:00",
        "included_in_blocks":
          [ "BLStmCFDHPSaotQ7ugVL7fi5pUdRBYQQWuzgW5jyAXrQbAihUpm" ] },
      { "delegate": "tz1VmiY38m3y95HqQLjMwqnMS7sdMfGomzKi",
        "reception_time": "2022-01-16T00:31:37.043-00:00",
        "included_in_blocks":
          [ "BLStmCFDHPSaotQ7ugVL7fi5pUdRBYQQWuzgW5jyAXrQbAihUpm" ] },
      { "delegate": "tz3RKYFsLuQzKBtmYuLNas7uMu3AsYd4QdsA",
        "reception_time": "2022-01-16T00:31:37.053-00:00",
        "included_in_blocks":
          [ "BLStmCFDHPSaotQ7ugVL7fi5pUdRBYQQWuzgW5jyAXrQbAihUpm" ] },
      { "delegate": "tz3iJu5vrKZcsqRPs8yJ61UDoeEXZmtro4qh",
        "reception_time": "2022-01-16T00:31:37.103-00:00",
        "included_in_blocks":
          [ "BLStmCFDHPSaotQ7ugVL7fi5pUdRBYQQWuzgW5jyAXrQbAihUpm" ] },
      { "delegate": "tz3S6BBeKgJGXxvLyZ1xzXzMPn11nnFtq5L9",
        "reception_time": "2022-01-16T00:31:37.175-00:00",
        "included_in_blocks":
          [ "BLStmCFDHPSaotQ7ugVL7fi5pUdRBYQQWuzgW5jyAXrQbAihUpm" ] },
      { "delegate": "tz1fPKAtsYydh4f1wfWNfeNxWYu72TmM48fu",
        "reception_time": "2022-01-16T00:31:37.192-00:00",
        "included_in_blocks":
          [ "BLStmCFDHPSaotQ7ugVL7fi5pUdRBYQQWuzgW5jyAXrQbAihUpm" ] },
      { "delegate": "tz1PWCDnz783NNGGQjEFFsHtrcK5yBW4E2rm",
        "reception_time": "2022-01-16T00:31:37.200-00:00",
        "included_in_blocks":
          [ "BLStmCFDHPSaotQ7ugVL7fi5pUdRBYQQWuzgW5jyAXrQbAihUpm" ] },
      { "delegate": "tz3bTdwZinP8U1JmSweNzVKhmwafqWmFWRfk",
        "reception_time": "2022-01-16T00:31:37.225-00:00",
        "included_in_blocks":
          [ "BLStmCFDHPSaotQ7ugVL7fi5pUdRBYQQWuzgW5jyAXrQbAihUpm" ] },
      { "delegate": "tz1WnfXMPaNTBmH7DBPwqCWs9cPDJdkGBTZ8",
        "reception_time": "2022-01-16T00:31:37.233-00:00",
        "included_in_blocks":
          [ "BLStmCFDHPSaotQ7ugVL7fi5pUdRBYQQWuzgW5jyAXrQbAihUpm" ] },
      { "delegate": "tz1gfArv665EUkSg2ojMBzcbfwuPxAvqPvjo",
        "reception_time": "2022-01-16T00:31:37.306-00:00",
        "included_in_blocks":
          [ "BLStmCFDHPSaotQ7ugVL7fi5pUdRBYQQWuzgW5jyAXrQbAihUpm" ] },
      { "delegate": "tz3RB4aoyjov4KEVRbuhvQ1CKJgBJMWhaeB8",
        "reception_time": "2022-01-16T00:31:37.359-00:00",
        "included_in_blocks":
          [ "BLStmCFDHPSaotQ7ugVL7fi5pUdRBYQQWuzgW5jyAXrQbAihUpm" ] },
      { "delegate": "tz1NortRftucvAkD1J58L32EhSVrQEWJCEnB",
        "reception_time": "2022-01-16T00:31:37.363-00:00",
        "included_in_blocks":
          [ "BLStmCFDHPSaotQ7ugVL7fi5pUdRBYQQWuzgW5jyAXrQbAihUpm" ] },
      { "delegate": "tz1V4qCyvPKZ5UeqdH14HN42rxvNPQfc9UZg",
        "reception_time": "2022-01-16T00:31:37.429-00:00",
        "included_in_blocks":
          [ "BLStmCFDHPSaotQ7ugVL7fi5pUdRBYQQWuzgW5jyAXrQbAihUpm" ] },
      { "delegate": "tz1fUyqYH7H4pRHN1roWY17giXhy1RvxjgUV",
        "reception_time": "2022-01-16T00:31:37.461-00:00",
        "included_in_blocks":
          [ "BLStmCFDHPSaotQ7ugVL7fi5pUdRBYQQWuzgW5jyAXrQbAihUpm" ] },
      { "delegate": "tz1S8MNvuFEUsWgjHvi3AxibRBf388NhT1q2",
        "reception_time": "2022-01-16T00:31:37.567-00:00",
        "included_in_blocks":
          [ "BLStmCFDHPSaotQ7ugVL7fi5pUdRBYQQWuzgW5jyAXrQbAihUpm" ] },
      { "delegate": "tz1g8vkmcde6sWKaG2NN9WKzCkDM6Rziq194",
        "reception_time": "2022-01-16T00:31:37.591-00:00",
        "included_in_blocks":
          [ "BLStmCFDHPSaotQ7ugVL7fi5pUdRBYQQWuzgW5jyAXrQbAihUpm" ] },
      { "delegate": "tz1ei4WtWEMEJekSv8qDnu9PExG6Q8HgRGr3",
        "reception_time": "2022-01-16T00:31:37.701-00:00",
        "included_in_blocks":
          [ "BLStmCFDHPSaotQ7ugVL7fi5pUdRBYQQWuzgW5jyAXrQbAihUpm" ] },
      { "delegate": "tz1LmaFsWRkjr7QMCx5PtV6xTUz3AmEpKQiF",
        "reception_time": "2022-01-16T00:31:37.738-00:00",
        "included_in_blocks":
          [ "BLStmCFDHPSaotQ7ugVL7fi5pUdRBYQQWuzgW5jyAXrQbAihUpm" ] },
      { "delegate": "tz1abmz7jiCV2GH2u81LRrGgAFFgvQgiDiaf",
        "reception_time": "2022-01-16T00:31:37.767-00:00",
        "included_in_blocks":
          [ "BLStmCFDHPSaotQ7ugVL7fi5pUdRBYQQWuzgW5jyAXrQbAihUpm" ] },
      { "delegate": "tz2FCNBrERXtaTtNX6iimR1UJ5JSDxvdHM93",
        "reception_time": "2022-01-16T00:31:37.886-00:00",
        "included_in_blocks":
          [ "BLStmCFDHPSaotQ7ugVL7fi5pUdRBYQQWuzgW5jyAXrQbAihUpm" ] },
      { "delegate": "tz1WBfwbT66FC6BTLexc2BoyCCBM9LG7pnVW",
        "reception_time": "2022-01-16T00:31:37.886-00:00",
        "included_in_blocks":
          [ "BLStmCFDHPSaotQ7ugVL7fi5pUdRBYQQWuzgW5jyAXrQbAihUpm" ] },
      { "delegate": "tz1XCJBHkDn2D9wjgXEJHMi2jTxg563XUunQ",
        "reception_time": "2022-01-16T00:31:37.929-00:00",
        "included_in_blocks":
          [ "BLStmCFDHPSaotQ7ugVL7fi5pUdRBYQQWuzgW5jyAXrQbAihUpm" ] },
      { "delegate": "tz3NDpRj6WBrJPikcPVHRBEjWKxFw3c6eQPS",
        "reception_time": "2022-01-16T00:31:37.937-00:00",
        "included_in_blocks":
          [ "BLStmCFDHPSaotQ7ugVL7fi5pUdRBYQQWuzgW5jyAXrQbAihUpm" ] },
      { "delegate": "tz1SYq214SCBy9naR6cvycQsYcUGpBqQAE8d",
        "reception_time": "2022-01-16T00:31:37.962-00:00",
        "included_in_blocks":
          [ "BLStmCFDHPSaotQ7ugVL7fi5pUdRBYQQWuzgW5jyAXrQbAihUpm" ] },
      { "delegate": "tz3WMqdzXqRWXwyvj5Hp2H7QEepaUuS7vd9K",
        "reception_time": "2022-01-16T00:31:38.121-00:00",
        "included_in_blocks":
          [ "BLStmCFDHPSaotQ7ugVL7fi5pUdRBYQQWuzgW5jyAXrQbAihUpm" ] },
      { "delegate": "tz1RCFbB9GpALpsZtu6J58sb74dm8qe6XBzv",
        "reception_time": "2022-01-16T00:31:38.147-00:00",
        "included_in_blocks":
          [ "BLStmCFDHPSaotQ7ugVL7fi5pUdRBYQQWuzgW5jyAXrQbAihUpm" ] },
      { "delegate": "tz1KfEsrtDaA1sX7vdM4qmEPWuSytuqCDp5j",
        "reception_time": "2022-01-16T00:31:38.202-00:00",
        "included_in_blocks":
          [ "BLStmCFDHPSaotQ7ugVL7fi5pUdRBYQQWuzgW5jyAXrQbAihUpm" ] },
      { "delegate": "tz3RDC3Jdn4j15J7bBHZd29EUee9gVB1CxD9",
        "reception_time": "2022-01-16T00:31:38.288-00:00",
        "included_in_blocks":
          [ "BLStmCFDHPSaotQ7ugVL7fi5pUdRBYQQWuzgW5jyAXrQbAihUpm" ] },
      { "delegate": "tz1Nf6tsK4G6bBqgSQERy4nUtkHNKUVdh7q1",
        "reception_time": "2022-01-16T00:31:38.366-00:00",
        "included_in_blocks":
          [ "BLStmCFDHPSaotQ7ugVL7fi5pUdRBYQQWuzgW5jyAXrQbAihUpm" ] },
      { "delegate": "tz1NEKxGEHsFufk87CVZcrqWu8o22qh46GK6",
        "reception_time": "2022-01-16T00:31:38.380-00:00",
        "included_in_blocks":
          [ "BLStmCFDHPSaotQ7ugVL7fi5pUdRBYQQWuzgW5jyAXrQbAihUpm" ] },
      { "delegate": "tz1SohptP53wDPZhzTWzDUFAUcWF6DMBpaJV",
        "reception_time": "2022-01-16T00:31:38.449-00:00",
        "included_in_blocks":
          [ "BLStmCFDHPSaotQ7ugVL7fi5pUdRBYQQWuzgW5jyAXrQbAihUpm" ] },
      { "delegate": "tz3VEZ4k6a4Wx42iyev6i2aVAptTRLEAivNN",
        "reception_time": "2022-01-16T00:31:38.534-00:00",
        "included_in_blocks":
          [ "BLStmCFDHPSaotQ7ugVL7fi5pUdRBYQQWuzgW5jyAXrQbAihUpm" ] },
      { "delegate": "tz1T7duV5gZWSTq4YpBGbXNLTfznCLDrFxvs",
        "reception_time": "2022-01-16T00:31:38.633-00:00",
        "included_in_blocks":
          [ "BLStmCFDHPSaotQ7ugVL7fi5pUdRBYQQWuzgW5jyAXrQbAihUpm" ] },
      { "delegate": "tz3bvNMQ95vfAYtG8193ymshqjSvmxiCUuR5",
        "reception_time": "2022-01-16T00:31:38.715-00:00",
        "included_in_blocks":
          [ "BLStmCFDHPSaotQ7ugVL7fi5pUdRBYQQWuzgW5jyAXrQbAihUpm" ] },
      { "delegate": "tz1WctSwL49BZtdWAQ75NY6vr4xsAx6oKdah",
        "reception_time": "2022-01-16T00:31:38.765-00:00",
        "included_in_blocks":
          [ "BLStmCFDHPSaotQ7ugVL7fi5pUdRBYQQWuzgW5jyAXrQbAihUpm" ] },
      { "delegate": "tz1dRKU4FQ9QRRQPdaH4zCR6gmCmXfcvcgtB",
        "reception_time": "2022-01-16T00:31:39.105-00:00",
        "included_in_blocks":
          [ "BLStmCFDHPSaotQ7ugVL7fi5pUdRBYQQWuzgW5jyAXrQbAihUpm" ] },
      { "delegate": "tz1TRqbYbUf2GyrjErf3hBzgBJPzW8y36qEs",
        "reception_time": "2022-01-16T00:31:39.125-00:00",
        "included_in_blocks":
          [ "BLStmCFDHPSaotQ7ugVL7fi5pUdRBYQQWuzgW5jyAXrQbAihUpm" ] },
      { "delegate": "tz1dNVDWPf3Q59SdJqnjdnu277iyvReiRS9M",
        "reception_time": "2022-01-16T00:31:39.191-00:00",
        "included_in_blocks":
          [ "BLStmCFDHPSaotQ7ugVL7fi5pUdRBYQQWuzgW5jyAXrQbAihUpm" ] },
      { "delegate": "tz1aRoaRhSpRYvFdyvgWLL6TGyRoGF51wDjM",
        "reception_time": "2022-01-16T00:31:39.193-00:00",
        "included_in_blocks":
          [ "BLStmCFDHPSaotQ7ugVL7fi5pUdRBYQQWuzgW5jyAXrQbAihUpm" ] },
      { "delegate": "tz3UoffC7FG7zfpmvmjUmUeAaHvzdcUvAj6r",
        "reception_time": "2022-01-16T00:31:39.210-00:00",
        "included_in_blocks":
          [ "BLStmCFDHPSaotQ7ugVL7fi5pUdRBYQQWuzgW5jyAXrQbAihUpm" ] },
      { "delegate": "tz3NExpXn9aPNZPorRE4SdjJ2RGrfbJgMAaV",
        "reception_time": "2022-01-16T00:31:39.227-00:00",
        "included_in_blocks":
          [ "BLStmCFDHPSaotQ7ugVL7fi5pUdRBYQQWuzgW5jyAXrQbAihUpm" ] },
      { "delegate": "tz1cYufsxHXJcvANhvS55h3aY32a9BAFB494",
        "reception_time": "2022-01-16T00:31:39.232-00:00",
        "included_in_blocks":
          [ "BLStmCFDHPSaotQ7ugVL7fi5pUdRBYQQWuzgW5jyAXrQbAihUpm" ] },
      { "delegate": "tz1NMNQYrYrfNpmUqQrMhJypf6ovnaDZhJHM",
        "reception_time": "2022-01-16T00:31:39.936-00:00",
        "included_in_blocks":
          [ "BLStmCFDHPSaotQ7ugVL7fi5pUdRBYQQWuzgW5jyAXrQbAihUpm" ] },
      { "delegate": "tz1cM8Xc7ZP1TrjkTeKq4PeRhtbnwXSBR6Sw",
        "reception_time": "2022-01-16T00:31:39.992-00:00",
        "included_in_blocks":
          [ "BLStmCFDHPSaotQ7ugVL7fi5pUdRBYQQWuzgW5jyAXrQbAihUpm" ] },
      { "delegate": "tz1fJHFn6sWEd3NnBPngACuw2dggTv6nQZ7g",
        "reception_time": "2022-01-16T00:31:40.549-00:00",
        "included_in_blocks":
          [ "BLStmCFDHPSaotQ7ugVL7fi5pUdRBYQQWuzgW5jyAXrQbAihUpm" ] },
      { "delegate": "tz1SUgyRB8T5jXgXAwS33pgRHAKrafyg87Yc",
        "reception_time": "2022-01-16T00:31:40.832-00:00",
        "included_in_blocks":
          [ "BLStmCFDHPSaotQ7ugVL7fi5pUdRBYQQWuzgW5jyAXrQbAihUpm" ] },
      { "delegate": "tz1W5VkdB5s7ENMESVBtwyt9kyvLqPcUczRT",
        "reception_time": "2022-01-16T00:31:41.431-00:00",
        "included_in_blocks":
          [ "BLStmCFDHPSaotQ7ugVL7fi5pUdRBYQQWuzgW5jyAXrQbAihUpm" ] },
      { "delegate": "tz1ZdSQibskQwRdiaFUh7RUVm1Z6xudMedoj",
        "reception_time": "2022-01-16T00:31:42.036-00:00",
        "included_in_blocks":
          [ "BLStmCFDHPSaotQ7ugVL7fi5pUdRBYQQWuzgW5jyAXrQbAihUpm" ] },
      { "delegate": "tz1WnyXakHZKotpQHxevTnLmomz5rTwdiccy",
        "reception_time": "2022-01-16T00:31:44.896-00:00",
        "included_in_blocks":
          [ "BLStmCFDHPSaotQ7ugVL7fi5pUdRBYQQWuzgW5jyAXrQbAihUpm" ] },
      { "delegate": "tz3e7LbZvUtoXhpUD1yb6wuFodZpfYRb9nWJ",
        "reception_time": "2022-01-16T00:31:46.059-00:00",
        "included_in_blocks":
          [ "BLStmCFDHPSaotQ7ugVL7fi5pUdRBYQQWuzgW5jyAXrQbAihUpm" ] },
      { "delegate": "tz1awXW7wuXy21c66vBudMXQVAPgRnqqwgTH",
        "reception_time": "2022-01-16T00:31:49.680-00:00",
        "included_in_blocks":
          [ "BLStmCFDHPSaotQ7ugVL7fi5pUdRBYQQWuzgW5jyAXrQbAihUpm" ] } ] }