{ "blocks":
    [ { "hash": "BM9DRQeHeR3aGGs32YxXz7Nu56Vq4pbd8vuXScfBCjtKg1aT9V8",
        "delegate": "tz1irJKkXS2DBWkU1NnmFQx1c1L7pbGg4yhk",
        "reception_time": "2022-01-16T02:11:05.457-00:00",
        "timestamp": "2022-01-16T02:11:00Z" } ],
  "endorsements":
    [ { "delegate": "tz1dbfppLAAxXZNtf2SDps7rch3qfUznKSoK" },
      { "delegate": "tz1TRspM5SeZpaQUhzByXbEvqKF1vnCM2YTK" },
      { "delegate": "tz1irJKkXS2DBWkU1NnmFQx1c1L7pbGg4yhk",
        "reception_time": "2022-01-16T02:11:05.314-00:00",
        "errors":
          [ { "kind": "temporary",
              "id": "proto.011-PtHangz2.prefilter.outdated_endorsement" } ],
        "included_in_blocks":
          [ "BLcd8B4UWC9mJQdteB5fsUQPiNaKnJfDy9eenQRAmTYRHczSAAP" ] },
      { "delegate": "tz1P2Po7YM526ughEsRbY4oR9zaUPDZjxFrb",
        "reception_time": "2022-01-16T02:11:05.131-00:00",
        "errors":
          [ { "kind": "temporary",
              "id": "proto.011-PtHangz2.prefilter.outdated_endorsement" } ],
        "included_in_blocks":
          [ "BLcd8B4UWC9mJQdteB5fsUQPiNaKnJfDy9eenQRAmTYRHczSAAP" ] },
      { "delegate": "tz1NpWrAyDL9k2Lmnyxcgr9xuJakbBxdq7FB",
        "reception_time": "2022-01-16T02:11:18.158-00:00",
        "included_in_blocks":
          [ "BLcd8B4UWC9mJQdteB5fsUQPiNaKnJfDy9eenQRAmTYRHczSAAP" ] },
      { "delegate": "tz1f3Re8iw6Pt3KMHAvyccHxDU3NuqL95axD",
        "reception_time": "2022-01-16T02:11:09.395-00:00",
        "included_in_blocks":
          [ "BLcd8B4UWC9mJQdteB5fsUQPiNaKnJfDy9eenQRAmTYRHczSAAP" ] },
      { "delegate": "tz3NExpXn9aPNZPorRE4SdjJ2RGrfbJgMAaV",
        "reception_time": "2022-01-16T02:11:09.185-00:00",
        "included_in_blocks":
          [ "BLcd8B4UWC9mJQdteB5fsUQPiNaKnJfDy9eenQRAmTYRHczSAAP" ] },
      { "delegate": "tz1T7duV5gZWSTq4YpBGbXNLTfznCLDrFxvs",
        "reception_time": "2022-01-16T02:11:09.087-00:00",
        "included_in_blocks":
          [ "BLcd8B4UWC9mJQdteB5fsUQPiNaKnJfDy9eenQRAmTYRHczSAAP" ] },
      { "delegate": "tz1awXW7wuXy21c66vBudMXQVAPgRnqqwgTH",
        "reception_time": "2022-01-16T02:11:08.974-00:00",
        "included_in_blocks":
          [ "BLcd8B4UWC9mJQdteB5fsUQPiNaKnJfDy9eenQRAmTYRHczSAAP" ] },
      { "delegate": "tz1dRKU4FQ9QRRQPdaH4zCR6gmCmXfcvcgtB",
        "reception_time": "2022-01-16T02:11:08.795-00:00",
        "included_in_blocks":
          [ "BLcd8B4UWC9mJQdteB5fsUQPiNaKnJfDy9eenQRAmTYRHczSAAP" ] },
      { "delegate": "tz1M1gA1hgmmLf8VvtAwupbWCkaciQZMFbvi",
        "reception_time": "2022-01-16T02:11:08.822-00:00",
        "included_in_blocks":
          [ "BLcd8B4UWC9mJQdteB5fsUQPiNaKnJfDy9eenQRAmTYRHczSAAP" ] },
      { "delegate": "tz1abmz7jiCV2GH2u81LRrGgAFFgvQgiDiaf",
        "reception_time": "2022-01-16T02:11:08.669-00:00",
        "included_in_blocks":
          [ "BLcd8B4UWC9mJQdteB5fsUQPiNaKnJfDy9eenQRAmTYRHczSAAP" ] },
      { "delegate": "tz3RB4aoyjov4KEVRbuhvQ1CKJgBJMWhaeB8",
        "reception_time": "2022-01-16T02:11:08.466-00:00",
        "included_in_blocks":
          [ "BLcd8B4UWC9mJQdteB5fsUQPiNaKnJfDy9eenQRAmTYRHczSAAP" ] },
      { "delegate": "tz1cYufsxHXJcvANhvS55h3aY32a9BAFB494",
        "reception_time": "2022-01-16T02:11:08.529-00:00",
        "included_in_blocks":
          [ "BLcd8B4UWC9mJQdteB5fsUQPiNaKnJfDy9eenQRAmTYRHczSAAP" ] },
      { "delegate": "tz1NEKxGEHsFufk87CVZcrqWu8o22qh46GK6",
        "reception_time": "2022-01-16T02:11:08.470-00:00",
        "included_in_blocks":
          [ "BLcd8B4UWC9mJQdteB5fsUQPiNaKnJfDy9eenQRAmTYRHczSAAP" ] },
      { "delegate": "tz3bvNMQ95vfAYtG8193ymshqjSvmxiCUuR5",
        "reception_time": "2022-01-16T02:11:08.481-00:00",
        "included_in_blocks":
          [ "BLcd8B4UWC9mJQdteB5fsUQPiNaKnJfDy9eenQRAmTYRHczSAAP" ] },
      { "delegate": "tz3VEZ4k6a4Wx42iyev6i2aVAptTRLEAivNN",
        "reception_time": "2022-01-16T02:11:08.306-00:00",
        "included_in_blocks":
          [ "BLcd8B4UWC9mJQdteB5fsUQPiNaKnJfDy9eenQRAmTYRHczSAAP" ] },
      { "delegate": "tz1aRoaRhSpRYvFdyvgWLL6TGyRoGF51wDjM",
        "reception_time": "2022-01-16T02:11:08.317-00:00",
        "included_in_blocks":
          [ "BLcd8B4UWC9mJQdteB5fsUQPiNaKnJfDy9eenQRAmTYRHczSAAP" ] },
      { "delegate": "tz3NDpRj6WBrJPikcPVHRBEjWKxFw3c6eQPS",
        "reception_time": "2022-01-16T02:11:08.328-00:00",
        "included_in_blocks":
          [ "BLcd8B4UWC9mJQdteB5fsUQPiNaKnJfDy9eenQRAmTYRHczSAAP" ] },
      { "delegate": "tz1V3yg82mcrPJbegqVCPn6bC8w1CSTRp3f8",
        "reception_time": "2022-01-16T02:11:08.276-00:00",
        "included_in_blocks":
          [ "BLcd8B4UWC9mJQdteB5fsUQPiNaKnJfDy9eenQRAmTYRHczSAAP" ] },
      { "delegate": "tz1KfEsrtDaA1sX7vdM4qmEPWuSytuqCDp5j",
        "reception_time": "2022-01-16T02:11:08.231-00:00",
        "included_in_blocks":
          [ "BLcd8B4UWC9mJQdteB5fsUQPiNaKnJfDy9eenQRAmTYRHczSAAP" ] },
      { "delegate": "tz1QXrzaHrGACVn15UiCg33aLCJ6npWdQb3J",
        "reception_time": "2022-01-16T02:11:08.144-00:00",
        "included_in_blocks":
          [ "BLcd8B4UWC9mJQdteB5fsUQPiNaKnJfDy9eenQRAmTYRHczSAAP" ] },
      { "delegate": "tz1Nf6tsK4G6bBqgSQERy4nUtkHNKUVdh7q1",
        "reception_time": "2022-01-16T02:11:08.187-00:00",
        "included_in_blocks":
          [ "BLcd8B4UWC9mJQdteB5fsUQPiNaKnJfDy9eenQRAmTYRHczSAAP" ] },
      { "delegate": "tz3WMqdzXqRWXwyvj5Hp2H7QEepaUuS7vd9K",
        "reception_time": "2022-01-16T02:11:08.079-00:00",
        "included_in_blocks":
          [ "BLcd8B4UWC9mJQdteB5fsUQPiNaKnJfDy9eenQRAmTYRHczSAAP" ] },
      { "delegate": "tz1RCFbB9GpALpsZtu6J58sb74dm8qe6XBzv",
        "reception_time": "2022-01-16T02:11:08.039-00:00",
        "included_in_blocks":
          [ "BLcd8B4UWC9mJQdteB5fsUQPiNaKnJfDy9eenQRAmTYRHczSAAP" ] },
      { "delegate": "tz1cig1EHyvZd7J2k389moM9PxVgPQvmFkvi",
        "reception_time": "2022-01-16T02:11:07.999-00:00",
        "included_in_blocks":
          [ "BLcd8B4UWC9mJQdteB5fsUQPiNaKnJfDy9eenQRAmTYRHczSAAP" ] },
      { "delegate": "tz1TRqbYbUf2GyrjErf3hBzgBJPzW8y36qEs",
        "reception_time": "2022-01-16T02:11:07.912-00:00",
        "included_in_blocks":
          [ "BLcd8B4UWC9mJQdteB5fsUQPiNaKnJfDy9eenQRAmTYRHczSAAP" ] },
      { "delegate": "tz1gfArv665EUkSg2ojMBzcbfwuPxAvqPvjo",
        "reception_time": "2022-01-16T02:11:07.936-00:00",
        "included_in_blocks":
          [ "BLcd8B4UWC9mJQdteB5fsUQPiNaKnJfDy9eenQRAmTYRHczSAAP" ] },
      { "delegate": "tz3UoffC7FG7zfpmvmjUmUeAaHvzdcUvAj6r",
        "reception_time": "2022-01-16T02:11:07.946-00:00",
        "included_in_blocks":
          [ "BLcd8B4UWC9mJQdteB5fsUQPiNaKnJfDy9eenQRAmTYRHczSAAP" ] },
      { "delegate": "tz3RDC3Jdn4j15J7bBHZd29EUee9gVB1CxD9",
        "reception_time": "2022-01-16T02:11:07.877-00:00",
        "included_in_blocks":
          [ "BLcd8B4UWC9mJQdteB5fsUQPiNaKnJfDy9eenQRAmTYRHczSAAP" ] },
      { "delegate": "tz1fwnfJNgiDACshK9avfRfFbMaXrs3ghoJa",
        "reception_time": "2022-01-16T02:11:07.760-00:00",
        "included_in_blocks":
          [ "BLcd8B4UWC9mJQdteB5fsUQPiNaKnJfDy9eenQRAmTYRHczSAAP" ] },
      { "delegate": "tz1LmaFsWRkjr7QMCx5PtV6xTUz3AmEpKQiF",
        "reception_time": "2022-01-16T02:11:07.628-00:00",
        "included_in_blocks":
          [ "BLcd8B4UWC9mJQdteB5fsUQPiNaKnJfDy9eenQRAmTYRHczSAAP" ] },
      { "delegate": "tz1Tnjaxk6tbAeC2TmMApPh8UsrEVQvhHvx5",
        "reception_time": "2022-01-16T02:11:07.439-00:00",
        "included_in_blocks":
          [ "BLcd8B4UWC9mJQdteB5fsUQPiNaKnJfDy9eenQRAmTYRHczSAAP" ] },
      { "delegate": "tz2FCNBrERXtaTtNX6iimR1UJ5JSDxvdHM93",
        "reception_time": "2022-01-16T02:11:07.573-00:00",
        "included_in_blocks":
          [ "BLcd8B4UWC9mJQdteB5fsUQPiNaKnJfDy9eenQRAmTYRHczSAAP" ] },
      { "delegate": "tz1TEc75UKXv4W5cwi14Na3NtqFD51yKQi7h",
        "reception_time": "2022-01-16T02:11:07.472-00:00",
        "included_in_blocks":
          [ "BLcd8B4UWC9mJQdteB5fsUQPiNaKnJfDy9eenQRAmTYRHczSAAP" ] },
      { "delegate": "tz1WBfwbT66FC6BTLexc2BoyCCBM9LG7pnVW",
        "reception_time": "2022-01-16T02:11:07.302-00:00",
        "included_in_blocks":
          [ "BLcd8B4UWC9mJQdteB5fsUQPiNaKnJfDy9eenQRAmTYRHczSAAP" ] },
      { "delegate": "tz1S8MNvuFEUsWgjHvi3AxibRBf388NhT1q2",
        "reception_time": "2022-01-16T02:11:07.361-00:00",
        "included_in_blocks":
          [ "BLcd8B4UWC9mJQdteB5fsUQPiNaKnJfDy9eenQRAmTYRHczSAAP" ] },
      { "delegate": "tz1ei4WtWEMEJekSv8qDnu9PExG6Q8HgRGr3",
        "reception_time": "2022-01-16T02:11:07.389-00:00",
        "included_in_blocks":
          [ "BLcd8B4UWC9mJQdteB5fsUQPiNaKnJfDy9eenQRAmTYRHczSAAP" ] },
      { "delegate": "tz1WnfXMPaNTBmH7DBPwqCWs9cPDJdkGBTZ8",
        "reception_time": "2022-01-16T02:11:07.352-00:00",
        "included_in_blocks":
          [ "BLcd8B4UWC9mJQdteB5fsUQPiNaKnJfDy9eenQRAmTYRHczSAAP" ] },
      { "delegate": "tz3bTdwZinP8U1JmSweNzVKhmwafqWmFWRfk",
        "reception_time": "2022-01-16T02:11:06.794-00:00",
        "included_in_blocks":
          [ "BLcd8B4UWC9mJQdteB5fsUQPiNaKnJfDy9eenQRAmTYRHczSAAP" ] },
      { "delegate": "tz1PWCDnz783NNGGQjEFFsHtrcK5yBW4E2rm",
        "reception_time": "2022-01-16T02:11:06.771-00:00",
        "included_in_blocks":
          [ "BLcd8B4UWC9mJQdteB5fsUQPiNaKnJfDy9eenQRAmTYRHczSAAP" ] },
      { "delegate": "tz3QT9dHYKDqh563chVa6za8526ys1UKfRfL",
        "reception_time": "2022-01-16T02:11:06.752-00:00",
        "included_in_blocks":
          [ "BLcd8B4UWC9mJQdteB5fsUQPiNaKnJfDy9eenQRAmTYRHczSAAP" ] },
      { "delegate": "tz3S6BBeKgJGXxvLyZ1xzXzMPn11nnFtq5L9",
        "reception_time": "2022-01-16T02:11:06.742-00:00",
        "included_in_blocks":
          [ "BLcd8B4UWC9mJQdteB5fsUQPiNaKnJfDy9eenQRAmTYRHczSAAP" ] },
      { "delegate": "tz3Zhs2dygr55yHyQyKjntAtY9bgfhLZ4Xj1",
        "reception_time": "2022-01-16T02:11:06.742-00:00",
        "included_in_blocks":
          [ "BLcd8B4UWC9mJQdteB5fsUQPiNaKnJfDy9eenQRAmTYRHczSAAP" ] },
      { "delegate": "tz1gUNyn3hmnEWqkusWPzxRaon1cs7ndWh7h",
        "reception_time": "2022-01-16T02:11:06.742-00:00",
        "included_in_blocks":
          [ "BLcd8B4UWC9mJQdteB5fsUQPiNaKnJfDy9eenQRAmTYRHczSAAP" ] },
      { "delegate": "tz3iJu5vrKZcsqRPs8yJ61UDoeEXZmtro4qh",
        "reception_time": "2022-01-16T02:11:06.742-00:00",
        "included_in_blocks":
          [ "BLcd8B4UWC9mJQdteB5fsUQPiNaKnJfDy9eenQRAmTYRHczSAAP" ] },
      { "delegate": "tz1VQnqCCqX4K5sP3FNkVSNKTdCAMJDd3E1n",
        "reception_time": "2022-01-16T02:11:06.742-00:00",
        "included_in_blocks":
          [ "BLcd8B4UWC9mJQdteB5fsUQPiNaKnJfDy9eenQRAmTYRHczSAAP" ] },
      { "delegate": "tz3QSGPoRp3Kn7n3vY24eYeu3Peuqo45LQ4D",
        "reception_time": "2022-01-16T02:11:06.742-00:00",
        "included_in_blocks":
          [ "BLcd8B4UWC9mJQdteB5fsUQPiNaKnJfDy9eenQRAmTYRHczSAAP" ] },
      { "delegate": "tz3QCNyySViKHmeSr45kzDxzchys7NiXCWoa",
        "reception_time": "2022-01-16T02:11:06.742-00:00",
        "included_in_blocks":
          [ "BLcd8B4UWC9mJQdteB5fsUQPiNaKnJfDy9eenQRAmTYRHczSAAP" ] },
      { "delegate": "tz1WCd2jm4uSt4vntk4vSuUWoZQGhLcDuR9q",
        "reception_time": "2022-01-16T02:11:06.742-00:00",
        "included_in_blocks":
          [ "BLcd8B4UWC9mJQdteB5fsUQPiNaKnJfDy9eenQRAmTYRHczSAAP" ] },
      { "delegate": "tz3RKYFsLuQzKBtmYuLNas7uMu3AsYd4QdsA",
        "reception_time": "2022-01-16T02:11:06.742-00:00",
        "included_in_blocks":
          [ "BLcd8B4UWC9mJQdteB5fsUQPiNaKnJfDy9eenQRAmTYRHczSAAP" ] },
      { "delegate": "tz1Ldzz6k1BHdhuKvAtMRX7h5kJSMHESMHLC",
        "reception_time": "2022-01-16T02:11:06.742-00:00",
        "included_in_blocks":
          [ "BLcd8B4UWC9mJQdteB5fsUQPiNaKnJfDy9eenQRAmTYRHczSAAP" ] },
      { "delegate": "tz3hw2kqXhLUvY65ca1eety2oQTpAvd34R9Q",
        "reception_time": "2022-01-16T02:11:06.742-00:00",
        "included_in_blocks":
          [ "BLcd8B4UWC9mJQdteB5fsUQPiNaKnJfDy9eenQRAmTYRHczSAAP" ] },
      { "delegate": "tz3NxTnke1acr8o3h5y9ytf5awQBGNJUKzVU",
        "reception_time": "2022-01-16T02:11:06.742-00:00",
        "included_in_blocks":
          [ "BLcd8B4UWC9mJQdteB5fsUQPiNaKnJfDy9eenQRAmTYRHczSAAP" ] },
      { "delegate": "tz3ZbP2pM3nwvXztbuMJwJnDvV5xdpU8UkkD",
        "reception_time": "2022-01-16T02:11:06.742-00:00",
        "included_in_blocks":
          [ "BLcd8B4UWC9mJQdteB5fsUQPiNaKnJfDy9eenQRAmTYRHczSAAP" ] },
      { "delegate": "tz1XfAjZyaLdceHnZxbMYop7g7kWKPut4PR7",
        "reception_time": "2022-01-16T02:11:06.742-00:00",
        "included_in_blocks":
          [ "BLcd8B4UWC9mJQdteB5fsUQPiNaKnJfDy9eenQRAmTYRHczSAAP" ] },
      { "delegate": "tz1RV1MBbZMR68tacosb7Mwj6LkbPSUS1er1",
        "reception_time": "2022-01-16T02:11:06.742-00:00",
        "included_in_blocks":
          [ "BLcd8B4UWC9mJQdteB5fsUQPiNaKnJfDy9eenQRAmTYRHczSAAP" ] },
      { "delegate": "tz1Kf25fX1VdmYGSEzwFy1wNmkbSEZ2V83sY",
        "reception_time": "2022-01-16T02:11:06.742-00:00",
        "included_in_blocks":
          [ "BLcd8B4UWC9mJQdteB5fsUQPiNaKnJfDy9eenQRAmTYRHczSAAP" ] },
      { "delegate": "tz1beersuEDv8Z7ngQ825xfbaJNS2EhXnyHR",
        "reception_time": "2022-01-16T02:11:06.742-00:00",
        "included_in_blocks":
          [ "BLcd8B4UWC9mJQdteB5fsUQPiNaKnJfDy9eenQRAmTYRHczSAAP" ] },
      { "delegate": "tz1eEnQhbwf6trb8Q8mPb2RaPkNk2rN7BKi8",
        "reception_time": "2022-01-16T02:11:06.742-00:00",
        "included_in_blocks":
          [ "BLcd8B4UWC9mJQdteB5fsUQPiNaKnJfDy9eenQRAmTYRHczSAAP" ] },
      { "delegate": "tz1STeamwbp68THcny9zk3LsbG3H36DMvbRK",
        "reception_time": "2022-01-16T02:11:06.742-00:00",
        "included_in_blocks":
          [ "BLcd8B4UWC9mJQdteB5fsUQPiNaKnJfDy9eenQRAmTYRHczSAAP" ] },
      { "delegate": "tz1Lhf4J9Qxoe3DZ2nfe8FGDnvVj7oKjnMY6",
        "reception_time": "2022-01-16T02:11:06.742-00:00",
        "included_in_blocks":
          [ "BLcd8B4UWC9mJQdteB5fsUQPiNaKnJfDy9eenQRAmTYRHczSAAP" ] } ] }