{ "blocks":
    [ { "hash": "BLcd8B4UWC9mJQdteB5fsUQPiNaKnJfDy9eenQRAmTYRHczSAAP",
        "delegate": "tz1WCd2jm4uSt4vntk4vSuUWoZQGhLcDuR9q",
        "reception_time": "2022-01-16T02:11:35.934-00:00",
        "timestamp": "2022-01-16T02:11:30Z" } ],
  "endorsements":
    [ { "delegate": "tz1P2Po7YM526ughEsRbY4oR9zaUPDZjxFrb",
        "reception_time": "2022-01-16T02:11:35.854-00:00",
        "errors":
          [ { "kind": "temporary",
              "id": "proto.011-PtHangz2.prefilter.outdated_endorsement" } ],
        "included_in_blocks":
          [ "BL2K1FtUK9YxPr8PTtSD8zfif5uzWx2TeyfUUSJxD937t5Qd63j" ] },
      { "delegate": "tz1S8e9GgdZG78XJRB3NqabfWeM37GnhZMWQ",
        "reception_time": "2022-01-16T02:11:35.398-00:00",
        "errors":
          [ { "kind": "temporary",
              "id": "proto.011-PtHangz2.prefilter.outdated_endorsement" } ],
        "included_in_blocks":
          [ "BL2K1FtUK9YxPr8PTtSD8zfif5uzWx2TeyfUUSJxD937t5Qd63j" ] },
      { "delegate": "tz3bEQoFCZEEfZMskefZ8q8e4eiHH1pssRax" },
      { "delegate": "tz1Scdr2HsZiQjc7bHMeBbmDRXYVvdhjJbBh",
        "reception_time": "2022-01-16T02:11:36.623-00:00",
        "included_in_blocks":
          [ "BL2K1FtUK9YxPr8PTtSD8zfif5uzWx2TeyfUUSJxD937t5Qd63j" ] },
      { "delegate": "tz1WCd2jm4uSt4vntk4vSuUWoZQGhLcDuR9q",
        "reception_time": "2022-01-16T02:11:36.632-00:00",
        "included_in_blocks":
          [ "BL2K1FtUK9YxPr8PTtSD8zfif5uzWx2TeyfUUSJxD937t5Qd63j" ] },
      { "delegate": "tz1Ldzz6k1BHdhuKvAtMRX7h5kJSMHESMHLC",
        "reception_time": "2022-01-16T02:11:36.635-00:00",
        "included_in_blocks":
          [ "BL2K1FtUK9YxPr8PTtSD8zfif5uzWx2TeyfUUSJxD937t5Qd63j" ] },
      { "delegate": "tz1beersuEDv8Z7ngQ825xfbaJNS2EhXnyHR",
        "reception_time": "2022-01-16T02:11:36.640-00:00",
        "included_in_blocks":
          [ "BL2K1FtUK9YxPr8PTtSD8zfif5uzWx2TeyfUUSJxD937t5Qd63j" ] },
      { "delegate": "tz1eEnQhbwf6trb8Q8mPb2RaPkNk2rN7BKi8",
        "reception_time": "2022-01-16T02:11:36.640-00:00",
        "included_in_blocks":
          [ "BL2K1FtUK9YxPr8PTtSD8zfif5uzWx2TeyfUUSJxD937t5Qd63j" ] },
      { "delegate": "tz1irJKkXS2DBWkU1NnmFQx1c1L7pbGg4yhk",
        "reception_time": "2022-01-16T02:11:36.644-00:00",
        "included_in_blocks":
          [ "BL2K1FtUK9YxPr8PTtSD8zfif5uzWx2TeyfUUSJxD937t5Qd63j" ] },
      { "delegate": "tz1Kt4P8BCaP93AEV4eA7gmpRryWt5hznjCP",
        "reception_time": "2022-01-16T02:11:36.663-00:00",
        "included_in_blocks":
          [ "BL2K1FtUK9YxPr8PTtSD8zfif5uzWx2TeyfUUSJxD937t5Qd63j" ] },
      { "delegate": "tz3ZbP2pM3nwvXztbuMJwJnDvV5xdpU8UkkD",
        "reception_time": "2022-01-16T02:11:36.678-00:00",
        "included_in_blocks":
          [ "BL2K1FtUK9YxPr8PTtSD8zfif5uzWx2TeyfUUSJxD937t5Qd63j" ] },
      { "delegate": "tz3NxTnke1acr8o3h5y9ytf5awQBGNJUKzVU",
        "reception_time": "2022-01-16T02:11:36.690-00:00",
        "included_in_blocks":
          [ "BL2K1FtUK9YxPr8PTtSD8zfif5uzWx2TeyfUUSJxD937t5Qd63j" ] },
      { "delegate": "tz1iMAHAVpkCVegF9FLGWUpQQeiAHh4ffdLQ",
        "reception_time": "2022-01-16T02:11:36.694-00:00",
        "included_in_blocks":
          [ "BL2K1FtUK9YxPr8PTtSD8zfif5uzWx2TeyfUUSJxD937t5Qd63j" ] },
      { "delegate": "tz3QSGPoRp3Kn7n3vY24eYeu3Peuqo45LQ4D",
        "reception_time": "2022-01-16T02:11:36.755-00:00",
        "included_in_blocks":
          [ "BL2K1FtUK9YxPr8PTtSD8zfif5uzWx2TeyfUUSJxD937t5Qd63j" ] },
      { "delegate": "tz3gtoUxdudfBRcNY7iVdKPHCYYX6xdPpoRS",
        "reception_time": "2022-01-16T02:11:36.764-00:00",
        "included_in_blocks":
          [ "BL2K1FtUK9YxPr8PTtSD8zfif5uzWx2TeyfUUSJxD937t5Qd63j" ] },
      { "delegate": "tz3RKYFsLuQzKBtmYuLNas7uMu3AsYd4QdsA",
        "reception_time": "2022-01-16T02:11:36.799-00:00",
        "included_in_blocks":
          [ "BL2K1FtUK9YxPr8PTtSD8zfif5uzWx2TeyfUUSJxD937t5Qd63j" ] },
      { "delegate": "tz1VmiY38m3y95HqQLjMwqnMS7sdMfGomzKi",
        "reception_time": "2022-01-16T02:11:36.827-00:00",
        "included_in_blocks":
          [ "BL2K1FtUK9YxPr8PTtSD8zfif5uzWx2TeyfUUSJxD937t5Qd63j" ] },
      { "delegate": "tz1TzaNn7wSQSP5gYPXCnNzBCpyMiidCq1PX",
        "reception_time": "2022-01-16T02:11:36.891-00:00",
        "included_in_blocks":
          [ "BL2K1FtUK9YxPr8PTtSD8zfif5uzWx2TeyfUUSJxD937t5Qd63j" ] },
      { "delegate": "tz3Zhs2dygr55yHyQyKjntAtY9bgfhLZ4Xj1",
        "reception_time": "2022-01-16T02:11:36.910-00:00",
        "included_in_blocks":
          [ "BL2K1FtUK9YxPr8PTtSD8zfif5uzWx2TeyfUUSJxD937t5Qd63j" ] },
      { "delegate": "tz3iJu5vrKZcsqRPs8yJ61UDoeEXZmtro4qh",
        "reception_time": "2022-01-16T02:11:36.957-00:00",
        "included_in_blocks":
          [ "BL2K1FtUK9YxPr8PTtSD8zfif5uzWx2TeyfUUSJxD937t5Qd63j" ] },
      { "delegate": "tz3S6BBeKgJGXxvLyZ1xzXzMPn11nnFtq5L9",
        "reception_time": "2022-01-16T02:11:36.969-00:00",
        "included_in_blocks":
          [ "BL2K1FtUK9YxPr8PTtSD8zfif5uzWx2TeyfUUSJxD937t5Qd63j" ] },
      { "delegate": "tz3QT9dHYKDqh563chVa6za8526ys1UKfRfL",
        "reception_time": "2022-01-16T02:11:37.007-00:00",
        "included_in_blocks":
          [ "BL2K1FtUK9YxPr8PTtSD8zfif5uzWx2TeyfUUSJxD937t5Qd63j" ] },
      { "delegate": "tz3RB4aoyjov4KEVRbuhvQ1CKJgBJMWhaeB8",
        "reception_time": "2022-01-16T02:11:37.070-00:00",
        "included_in_blocks":
          [ "BL2K1FtUK9YxPr8PTtSD8zfif5uzWx2TeyfUUSJxD937t5Qd63j" ] },
      { "delegate": "tz1MQMiZHV8q4tTwUMWmS5Y3kaP6J2136iXr",
        "reception_time": "2022-01-16T02:11:37.119-00:00",
        "included_in_blocks":
          [ "BL2K1FtUK9YxPr8PTtSD8zfif5uzWx2TeyfUUSJxD937t5Qd63j" ] },
      { "delegate": "tz1gfArv665EUkSg2ojMBzcbfwuPxAvqPvjo",
        "reception_time": "2022-01-16T02:11:37.286-00:00",
        "included_in_blocks":
          [ "BL2K1FtUK9YxPr8PTtSD8zfif5uzWx2TeyfUUSJxD937t5Qd63j" ] },
      { "delegate": "tz1PWCDnz783NNGGQjEFFsHtrcK5yBW4E2rm",
        "reception_time": "2022-01-16T02:11:37.293-00:00",
        "included_in_blocks":
          [ "BL2K1FtUK9YxPr8PTtSD8zfif5uzWx2TeyfUUSJxD937t5Qd63j" ] },
      { "delegate": "tz1VQnqCCqX4K5sP3FNkVSNKTdCAMJDd3E1n",
        "reception_time": "2022-01-16T02:11:37.305-00:00",
        "included_in_blocks":
          [ "BL2K1FtUK9YxPr8PTtSD8zfif5uzWx2TeyfUUSJxD937t5Qd63j" ] },
      { "delegate": "tz1gUNyn3hmnEWqkusWPzxRaon1cs7ndWh7h",
        "reception_time": "2022-01-16T02:11:37.341-00:00",
        "included_in_blocks":
          [ "BL2K1FtUK9YxPr8PTtSD8zfif5uzWx2TeyfUUSJxD937t5Qd63j" ] },
      { "delegate": "tz1YhNsiRRU8aHNGg7NK3uuP6UDAyacJernB",
        "reception_time": "2022-01-16T02:11:37.397-00:00",
        "included_in_blocks":
          [ "BL2K1FtUK9YxPr8PTtSD8zfif5uzWx2TeyfUUSJxD937t5Qd63j" ] },
      { "delegate": "tz1W3VYi3gSt9Xgfw6WNV1aGZRPH2BsskMEY",
        "reception_time": "2022-01-16T02:11:37.427-00:00",
        "included_in_blocks":
          [ "BL2K1FtUK9YxPr8PTtSD8zfif5uzWx2TeyfUUSJxD937t5Qd63j" ] },
      { "delegate": "tz3bTdwZinP8U1JmSweNzVKhmwafqWmFWRfk",
        "reception_time": "2022-01-16T02:11:37.475-00:00",
        "included_in_blocks":
          [ "BL2K1FtUK9YxPr8PTtSD8zfif5uzWx2TeyfUUSJxD937t5Qd63j" ] },
      { "delegate": "tz1fUyqYH7H4pRHN1roWY17giXhy1RvxjgUV",
        "reception_time": "2022-01-16T02:11:37.478-00:00",
        "included_in_blocks":
          [ "BL2K1FtUK9YxPr8PTtSD8zfif5uzWx2TeyfUUSJxD937t5Qd63j" ] },
      { "delegate": "tz1fPKAtsYydh4f1wfWNfeNxWYu72TmM48fu",
        "reception_time": "2022-01-16T02:11:37.508-00:00",
        "included_in_blocks":
          [ "BL2K1FtUK9YxPr8PTtSD8zfif5uzWx2TeyfUUSJxD937t5Qd63j" ] },
      { "delegate": "tz1S8MNvuFEUsWgjHvi3AxibRBf388NhT1q2",
        "reception_time": "2022-01-16T02:11:37.708-00:00",
        "included_in_blocks":
          [ "BL2K1FtUK9YxPr8PTtSD8zfif5uzWx2TeyfUUSJxD937t5Qd63j" ] },
      { "delegate": "tz1Nf6tsK4G6bBqgSQERy4nUtkHNKUVdh7q1",
        "reception_time": "2022-01-16T02:11:37.728-00:00",
        "included_in_blocks":
          [ "BL2K1FtUK9YxPr8PTtSD8zfif5uzWx2TeyfUUSJxD937t5Qd63j" ] },
      { "delegate": "tz1LmaFsWRkjr7QMCx5PtV6xTUz3AmEpKQiF",
        "reception_time": "2022-01-16T02:11:37.730-00:00",
        "included_in_blocks":
          [ "BL2K1FtUK9YxPr8PTtSD8zfif5uzWx2TeyfUUSJxD937t5Qd63j" ] },
      { "delegate": "tz1ei4WtWEMEJekSv8qDnu9PExG6Q8HgRGr3",
        "reception_time": "2022-01-16T02:11:37.860-00:00",
        "included_in_blocks":
          [ "BL2K1FtUK9YxPr8PTtSD8zfif5uzWx2TeyfUUSJxD937t5Qd63j" ] },
      { "delegate": "tz1NortRftucvAkD1J58L32EhSVrQEWJCEnB",
        "reception_time": "2022-01-16T02:11:37.866-00:00",
        "included_in_blocks":
          [ "BL2K1FtUK9YxPr8PTtSD8zfif5uzWx2TeyfUUSJxD937t5Qd63j" ] },
      { "delegate": "tz1KfEsrtDaA1sX7vdM4qmEPWuSytuqCDp5j",
        "reception_time": "2022-01-16T02:11:38.026-00:00",
        "included_in_blocks":
          [ "BL2K1FtUK9YxPr8PTtSD8zfif5uzWx2TeyfUUSJxD937t5Qd63j" ] },
      { "delegate": "tz1VceyYUpq1gk5dtp6jXQRtCtY8hm5DKt72",
        "reception_time": "2022-01-16T02:11:38.066-00:00",
        "included_in_blocks":
          [ "BL2K1FtUK9YxPr8PTtSD8zfif5uzWx2TeyfUUSJxD937t5Qd63j" ] },
      { "delegate": "tz1RCFbB9GpALpsZtu6J58sb74dm8qe6XBzv",
        "reception_time": "2022-01-16T02:11:38.218-00:00",
        "included_in_blocks":
          [ "BL2K1FtUK9YxPr8PTtSD8zfif5uzWx2TeyfUUSJxD937t5Qd63j" ] },
      { "delegate": "tz2FCNBrERXtaTtNX6iimR1UJ5JSDxvdHM93",
        "reception_time": "2022-01-16T02:11:38.221-00:00",
        "included_in_blocks":
          [ "BL2K1FtUK9YxPr8PTtSD8zfif5uzWx2TeyfUUSJxD937t5Qd63j" ] },
      { "delegate": "tz3WMqdzXqRWXwyvj5Hp2H7QEepaUuS7vd9K",
        "reception_time": "2022-01-16T02:11:38.243-00:00",
        "included_in_blocks":
          [ "BL2K1FtUK9YxPr8PTtSD8zfif5uzWx2TeyfUUSJxD937t5Qd63j" ] },
      { "delegate": "tz1axcnVN9tZnCe4sQQhC6f3tfSEXdjPaXPY",
        "reception_time": "2022-01-16T02:11:38.250-00:00",
        "included_in_blocks":
          [ "BL2K1FtUK9YxPr8PTtSD8zfif5uzWx2TeyfUUSJxD937t5Qd63j" ] },
      { "delegate": "tz1PeZx7FXy7QRuMREGXGxeipb24RsMMzUNe",
        "reception_time": "2022-01-16T02:11:38.370-00:00",
        "included_in_blocks":
          [ "BL2K1FtUK9YxPr8PTtSD8zfif5uzWx2TeyfUUSJxD937t5Qd63j" ] },
      { "delegate": "tz3RDC3Jdn4j15J7bBHZd29EUee9gVB1CxD9",
        "reception_time": "2022-01-16T02:11:38.424-00:00",
        "included_in_blocks":
          [ "BL2K1FtUK9YxPr8PTtSD8zfif5uzWx2TeyfUUSJxD937t5Qd63j" ] },
      { "delegate": "tz3VEZ4k6a4Wx42iyev6i2aVAptTRLEAivNN",
        "reception_time": "2022-01-16T02:11:38.558-00:00",
        "included_in_blocks":
          [ "BL2K1FtUK9YxPr8PTtSD8zfif5uzWx2TeyfUUSJxD937t5Qd63j" ] },
      { "delegate": "tz1TRqbYbUf2GyrjErf3hBzgBJPzW8y36qEs",
        "reception_time": "2022-01-16T02:11:38.576-00:00",
        "included_in_blocks":
          [ "BL2K1FtUK9YxPr8PTtSD8zfif5uzWx2TeyfUUSJxD937t5Qd63j" ] },
      { "delegate": "tz1NEKxGEHsFufk87CVZcrqWu8o22qh46GK6",
        "reception_time": "2022-01-16T02:11:38.650-00:00",
        "included_in_blocks":
          [ "BL2K1FtUK9YxPr8PTtSD8zfif5uzWx2TeyfUUSJxD937t5Qd63j" ] },
      { "delegate": "tz1Z2jXfEXL7dXhs6bsLmyLFLfmAkXBzA9WE",
        "reception_time": "2022-01-16T02:11:38.712-00:00",
        "included_in_blocks":
          [ "BL2K1FtUK9YxPr8PTtSD8zfif5uzWx2TeyfUUSJxD937t5Qd63j" ] },
      { "delegate": "tz1SYq214SCBy9naR6cvycQsYcUGpBqQAE8d",
        "reception_time": "2022-01-16T02:11:38.724-00:00",
        "included_in_blocks":
          [ "BL2K1FtUK9YxPr8PTtSD8zfif5uzWx2TeyfUUSJxD937t5Qd63j" ] },
      { "delegate": "tz1RjoHc98dBoqaH2jawF62XNKh7YsHwbkEv",
        "reception_time": "2022-01-16T02:11:38.834-00:00",
        "included_in_blocks":
          [ "BL2K1FtUK9YxPr8PTtSD8zfif5uzWx2TeyfUUSJxD937t5Qd63j" ] },
      { "delegate": "tz3UoffC7FG7zfpmvmjUmUeAaHvzdcUvAj6r",
        "reception_time": "2022-01-16T02:11:38.979-00:00",
        "included_in_blocks":
          [ "BL2K1FtUK9YxPr8PTtSD8zfif5uzWx2TeyfUUSJxD937t5Qd63j" ] },
      { "delegate": "tz3NExpXn9aPNZPorRE4SdjJ2RGrfbJgMAaV",
        "reception_time": "2022-01-16T02:11:39.158-00:00",
        "included_in_blocks":
          [ "BL2K1FtUK9YxPr8PTtSD8zfif5uzWx2TeyfUUSJxD937t5Qd63j" ] },
      { "delegate": "tz1dNVDWPf3Q59SdJqnjdnu277iyvReiRS9M",
        "reception_time": "2022-01-16T02:11:39.242-00:00",
        "included_in_blocks":
          [ "BL2K1FtUK9YxPr8PTtSD8zfif5uzWx2TeyfUUSJxD937t5Qd63j" ] },
      { "delegate": "tz3bvNMQ95vfAYtG8193ymshqjSvmxiCUuR5",
        "reception_time": "2022-01-16T02:11:39.290-00:00",
        "included_in_blocks":
          [ "BL2K1FtUK9YxPr8PTtSD8zfif5uzWx2TeyfUUSJxD937t5Qd63j" ] },
      { "delegate": "tz1dRKU4FQ9QRRQPdaH4zCR6gmCmXfcvcgtB",
        "reception_time": "2022-01-16T02:11:39.301-00:00",
        "included_in_blocks":
          [ "BL2K1FtUK9YxPr8PTtSD8zfif5uzWx2TeyfUUSJxD937t5Qd63j" ] },
      { "delegate": "tz1cYufsxHXJcvANhvS55h3aY32a9BAFB494",
        "reception_time": "2022-01-16T02:11:39.337-00:00",
        "included_in_blocks":
          [ "BL2K1FtUK9YxPr8PTtSD8zfif5uzWx2TeyfUUSJxD937t5Qd63j" ] },
      { "delegate": "tz1abmz7jiCV2GH2u81LRrGgAFFgvQgiDiaf",
        "reception_time": "2022-01-16T02:11:39.383-00:00",
        "included_in_blocks":
          [ "BL2K1FtUK9YxPr8PTtSD8zfif5uzWx2TeyfUUSJxD937t5Qd63j" ] },
      { "delegate": "tz1aRoaRhSpRYvFdyvgWLL6TGyRoGF51wDjM",
        "reception_time": "2022-01-16T02:11:39.545-00:00",
        "included_in_blocks":
          [ "BL2K1FtUK9YxPr8PTtSD8zfif5uzWx2TeyfUUSJxD937t5Qd63j" ] },
      { "delegate": "tz1T7duV5gZWSTq4YpBGbXNLTfznCLDrFxvs",
        "reception_time": "2022-01-16T02:11:39.636-00:00",
        "included_in_blocks":
          [ "BL2K1FtUK9YxPr8PTtSD8zfif5uzWx2TeyfUUSJxD937t5Qd63j" ] },
      { "delegate": "tz1awXW7wuXy21c66vBudMXQVAPgRnqqwgTH",
        "reception_time": "2022-01-16T02:11:39.930-00:00",
        "included_in_blocks":
          [ "BL2K1FtUK9YxPr8PTtSD8zfif5uzWx2TeyfUUSJxD937t5Qd63j" ] },
      { "delegate": "tz1ZcTRk5uxD86EFEn1vvNffWWqJy7q5eVhc",
        "reception_time": "2022-01-16T02:11:40.248-00:00",
        "included_in_blocks":
          [ "BL2K1FtUK9YxPr8PTtSD8zfif5uzWx2TeyfUUSJxD937t5Qd63j" ] },
      { "delegate": "tz1fJHFn6sWEd3NnBPngACuw2dggTv6nQZ7g",
        "reception_time": "2022-01-16T02:11:40.438-00:00",
        "included_in_blocks":
          [ "BL2K1FtUK9YxPr8PTtSD8zfif5uzWx2TeyfUUSJxD937t5Qd63j" ] },
      { "delegate": "tz1QLXqnfN51dkjeghXvKHkJfhvGiM5gK4tc",
        "reception_time": "2022-01-16T02:11:41.942-00:00",
        "included_in_blocks":
          [ "BL2K1FtUK9YxPr8PTtSD8zfif5uzWx2TeyfUUSJxD937t5Qd63j" ] },
      { "delegate": "tz1h4ar7F5wC6Ae2cfkrmrRP6nrPk9gGFaxg",
        "reception_time": "2022-01-16T02:11:42.562-00:00",
        "included_in_blocks":
          [ "BL2K1FtUK9YxPr8PTtSD8zfif5uzWx2TeyfUUSJxD937t5Qd63j" ] },
      { "delegate": "tz3e7LbZvUtoXhpUD1yb6wuFodZpfYRb9nWJ",
        "reception_time": "2022-01-16T02:11:44.510-00:00",
        "included_in_blocks":
          [ "BL2K1FtUK9YxPr8PTtSD8zfif5uzWx2TeyfUUSJxD937t5Qd63j" ] } ] }