{ "blocks":
    [ { "hash": "BMZRDzut3aqtLLWbZ8NLYvdCTUY8AhyiBgKnFzaFeTrPoKztevx",
        "delegate": "tz1fUyqYH7H4pRHN1roWY17giXhy1RvxjgUV",
        "reception_time": "2022-01-16T02:20:39.285-00:00",
        "timestamp": "2022-01-16T02:20:30Z" } ],
  "endorsements":
    [ { "delegate": "tz1dbfppLAAxXZNtf2SDps7rch3qfUznKSoK" },
      { "delegate": "tz1Vyuu4EJ5Nym4JcrfRLnp3hpaq1DSEp1Ke" },
      { "delegate": "tz1TRspM5SeZpaQUhzByXbEvqKF1vnCM2YTK" },
      { "delegate": "tz1NMdMmWZN8QPB8pY4ddncACDg1cHi1xD2e" },
      { "delegate": "tz1eEnQhbwf6trb8Q8mPb2RaPkNk2rN7BKi8",
        "reception_time": "2022-01-16T02:20:39.246-00:00",
        "errors":
          [ { "kind": "temporary",
              "id": "proto.011-PtHangz2.prefilter.outdated_endorsement" } ],
        "included_in_blocks":
          [ "BMRAR11sbFehtyeojG3dgKz76wHxVe3pjVwVr3DBdP9De7K6GHq" ] },
      { "delegate": "tz1TXzyaKUA8wsWefdSnyaYFnV2M3vCV7er9",
        "reception_time": "2022-01-16T02:20:39.201-00:00",
        "errors":
          [ { "kind": "temporary",
              "id": "proto.011-PtHangz2.prefilter.outdated_endorsement" } ],
        "included_in_blocks":
          [ "BMRAR11sbFehtyeojG3dgKz76wHxVe3pjVwVr3DBdP9De7K6GHq" ] },
      { "delegate": "tz1Lhf4J9Qxoe3DZ2nfe8FGDnvVj7oKjnMY6",
        "reception_time": "2022-01-16T02:20:39.056-00:00",
        "errors":
          [ { "kind": "temporary",
              "id": "proto.011-PtHangz2.prefilter.outdated_endorsement" } ],
        "included_in_blocks":
          [ "BMRAR11sbFehtyeojG3dgKz76wHxVe3pjVwVr3DBdP9De7K6GHq" ] },
      { "delegate": "tz1Scdr2HsZiQjc7bHMeBbmDRXYVvdhjJbBh",
        "reception_time": "2022-01-16T02:20:38.972-00:00",
        "errors":
          [ { "kind": "temporary",
              "id": "proto.011-PtHangz2.prefilter.outdated_endorsement" } ],
        "included_in_blocks":
          [ "BMRAR11sbFehtyeojG3dgKz76wHxVe3pjVwVr3DBdP9De7K6GHq" ] },
      { "delegate": "tz1P2Po7YM526ughEsRbY4oR9zaUPDZjxFrb",
        "reception_time": "2022-01-16T02:20:38.850-00:00",
        "errors":
          [ { "kind": "temporary",
              "id": "proto.011-PtHangz2.prefilter.outdated_endorsement" } ],
        "included_in_blocks":
          [ "BMRAR11sbFehtyeojG3dgKz76wHxVe3pjVwVr3DBdP9De7K6GHq" ] },
      { "delegate": "tz1WVjz2DzE5Jekdt2WkmXpLeE6pq1SxnydQ",
        "reception_time": "2022-01-16T02:20:49.170-00:00",
        "included_in_blocks":
          [ "BMRAR11sbFehtyeojG3dgKz76wHxVe3pjVwVr3DBdP9De7K6GHq" ] },
      { "delegate": "tz1NpWrAyDL9k2Lmnyxcgr9xuJakbBxdq7FB",
        "reception_time": "2022-01-16T02:20:47.319-00:00",
        "included_in_blocks":
          [ "BMRAR11sbFehtyeojG3dgKz76wHxVe3pjVwVr3DBdP9De7K6GHq" ] },
      { "delegate": "tz1bTpviNnyx2PXsNmGpCQTMQsGoYordkUoA",
        "reception_time": "2022-01-16T02:20:44.073-00:00",
        "included_in_blocks":
          [ "BMRAR11sbFehtyeojG3dgKz76wHxVe3pjVwVr3DBdP9De7K6GHq" ] },
      { "delegate": "tz1QJU1PuKUP5ZQxUr4pHZjCHGRvJSpcXv7G",
        "reception_time": "2022-01-16T02:20:43.309-00:00",
        "included_in_blocks":
          [ "BMRAR11sbFehtyeojG3dgKz76wHxVe3pjVwVr3DBdP9De7K6GHq" ] },
      { "delegate": "tz1i3mhawFAgcB8JHaHwoUF6hdncwTAkLEn2",
        "reception_time": "2022-01-16T02:20:43.144-00:00",
        "included_in_blocks":
          [ "BMRAR11sbFehtyeojG3dgKz76wHxVe3pjVwVr3DBdP9De7K6GHq" ] },
      { "delegate": "tz1V3yg82mcrPJbegqVCPn6bC8w1CSTRp3f8",
        "reception_time": "2022-01-16T02:20:42.402-00:00",
        "included_in_blocks":
          [ "BMRAR11sbFehtyeojG3dgKz76wHxVe3pjVwVr3DBdP9De7K6GHq" ] },
      { "delegate": "tz1awXW7wuXy21c66vBudMXQVAPgRnqqwgTH",
        "reception_time": "2022-01-16T02:20:42.462-00:00",
        "included_in_blocks":
          [ "BMRAR11sbFehtyeojG3dgKz76wHxVe3pjVwVr3DBdP9De7K6GHq" ] },
      { "delegate": "tz3NExpXn9aPNZPorRE4SdjJ2RGrfbJgMAaV",
        "reception_time": "2022-01-16T02:20:42.621-00:00",
        "included_in_blocks":
          [ "BMRAR11sbFehtyeojG3dgKz76wHxVe3pjVwVr3DBdP9De7K6GHq" ] },
      { "delegate": "tz3RDC3Jdn4j15J7bBHZd29EUee9gVB1CxD9",
        "reception_time": "2022-01-16T02:20:42.047-00:00",
        "included_in_blocks":
          [ "BMRAR11sbFehtyeojG3dgKz76wHxVe3pjVwVr3DBdP9De7K6GHq" ] },
      { "delegate": "tz3VEZ4k6a4Wx42iyev6i2aVAptTRLEAivNN",
        "reception_time": "2022-01-16T02:20:41.962-00:00",
        "included_in_blocks":
          [ "BMRAR11sbFehtyeojG3dgKz76wHxVe3pjVwVr3DBdP9De7K6GHq" ] },
      { "delegate": "tz1UvkANVPWppVgMkLnvN7BwYZsCP7vm6NVd",
        "reception_time": "2022-01-16T02:20:41.932-00:00",
        "included_in_blocks":
          [ "BMRAR11sbFehtyeojG3dgKz76wHxVe3pjVwVr3DBdP9De7K6GHq" ] },
      { "delegate": "tz1TRqbYbUf2GyrjErf3hBzgBJPzW8y36qEs",
        "reception_time": "2022-01-16T02:20:42.161-00:00",
        "included_in_blocks":
          [ "BMRAR11sbFehtyeojG3dgKz76wHxVe3pjVwVr3DBdP9De7K6GHq" ] },
      { "delegate": "tz1LwEsi8GVhtpCcxBHgQAgM4XrdjsJLmYc8",
        "reception_time": "2022-01-16T02:20:41.868-00:00",
        "included_in_blocks":
          [ "BMRAR11sbFehtyeojG3dgKz76wHxVe3pjVwVr3DBdP9De7K6GHq" ] },
      { "delegate": "tz1aRoaRhSpRYvFdyvgWLL6TGyRoGF51wDjM",
        "reception_time": "2022-01-16T02:20:41.818-00:00",
        "included_in_blocks":
          [ "BMRAR11sbFehtyeojG3dgKz76wHxVe3pjVwVr3DBdP9De7K6GHq" ] },
      { "delegate": "tz1dRKU4FQ9QRRQPdaH4zCR6gmCmXfcvcgtB",
        "reception_time": "2022-01-16T02:20:42.229-00:00",
        "included_in_blocks":
          [ "BMRAR11sbFehtyeojG3dgKz76wHxVe3pjVwVr3DBdP9De7K6GHq" ] },
      { "delegate": "tz1dNVDWPf3Q59SdJqnjdnu277iyvReiRS9M",
        "reception_time": "2022-01-16T02:20:42.238-00:00",
        "included_in_blocks":
          [ "BMRAR11sbFehtyeojG3dgKz76wHxVe3pjVwVr3DBdP9De7K6GHq" ] },
      { "delegate": "tz1QXrzaHrGACVn15UiCg33aLCJ6npWdQb3J",
        "reception_time": "2022-01-16T02:20:41.932-00:00",
        "included_in_blocks":
          [ "BMRAR11sbFehtyeojG3dgKz76wHxVe3pjVwVr3DBdP9De7K6GHq" ] },
      { "delegate": "tz1SYq214SCBy9naR6cvycQsYcUGpBqQAE8d",
        "reception_time": "2022-01-16T02:20:41.453-00:00",
        "included_in_blocks":
          [ "BMRAR11sbFehtyeojG3dgKz76wHxVe3pjVwVr3DBdP9De7K6GHq" ] },
      { "delegate": "tz2FCNBrERXtaTtNX6iimR1UJ5JSDxvdHM93",
        "reception_time": "2022-01-16T02:20:41.287-00:00",
        "included_in_blocks":
          [ "BMRAR11sbFehtyeojG3dgKz76wHxVe3pjVwVr3DBdP9De7K6GHq" ] },
      { "delegate": "tz3WMqdzXqRWXwyvj5Hp2H7QEepaUuS7vd9K",
        "reception_time": "2022-01-16T02:20:41.650-00:00",
        "included_in_blocks":
          [ "BMRAR11sbFehtyeojG3dgKz76wHxVe3pjVwVr3DBdP9De7K6GHq" ] },
      { "delegate": "tz1RjoHc98dBoqaH2jawF62XNKh7YsHwbkEv",
        "reception_time": "2022-01-16T02:20:41.841-00:00",
        "included_in_blocks":
          [ "BMRAR11sbFehtyeojG3dgKz76wHxVe3pjVwVr3DBdP9De7K6GHq" ] },
      { "delegate": "tz3UoffC7FG7zfpmvmjUmUeAaHvzdcUvAj6r",
        "reception_time": "2022-01-16T02:20:41.131-00:00",
        "included_in_blocks":
          [ "BMRAR11sbFehtyeojG3dgKz76wHxVe3pjVwVr3DBdP9De7K6GHq" ] },
      { "delegate": "tz3bvNMQ95vfAYtG8193ymshqjSvmxiCUuR5",
        "reception_time": "2022-01-16T02:20:41.122-00:00",
        "included_in_blocks":
          [ "BMRAR11sbFehtyeojG3dgKz76wHxVe3pjVwVr3DBdP9De7K6GHq" ] },
      { "delegate": "tz1abmz7jiCV2GH2u81LRrGgAFFgvQgiDiaf",
        "reception_time": "2022-01-16T02:20:41.482-00:00",
        "included_in_blocks":
          [ "BMRAR11sbFehtyeojG3dgKz76wHxVe3pjVwVr3DBdP9De7K6GHq" ] },
      { "delegate": "tz1Nf6tsK4G6bBqgSQERy4nUtkHNKUVdh7q1",
        "reception_time": "2022-01-16T02:20:40.924-00:00",
        "included_in_blocks":
          [ "BMRAR11sbFehtyeojG3dgKz76wHxVe3pjVwVr3DBdP9De7K6GHq" ] },
      { "delegate": "tz1fPKAtsYydh4f1wfWNfeNxWYu72TmM48fu",
        "reception_time": "2022-01-16T02:20:41.091-00:00",
        "included_in_blocks":
          [ "BMRAR11sbFehtyeojG3dgKz76wHxVe3pjVwVr3DBdP9De7K6GHq" ] },
      { "delegate": "tz1KfEsrtDaA1sX7vdM4qmEPWuSytuqCDp5j",
        "reception_time": "2022-01-16T02:20:41.294-00:00",
        "included_in_blocks":
          [ "BMRAR11sbFehtyeojG3dgKz76wHxVe3pjVwVr3DBdP9De7K6GHq" ] },
      { "delegate": "tz1fwnfJNgiDACshK9avfRfFbMaXrs3ghoJa",
        "reception_time": "2022-01-16T02:20:41.146-00:00",
        "included_in_blocks":
          [ "BMRAR11sbFehtyeojG3dgKz76wHxVe3pjVwVr3DBdP9De7K6GHq" ] },
      { "delegate": "tz1WBfwbT66FC6BTLexc2BoyCCBM9LG7pnVW",
        "reception_time": "2022-01-16T02:20:41.182-00:00",
        "included_in_blocks":
          [ "BMRAR11sbFehtyeojG3dgKz76wHxVe3pjVwVr3DBdP9De7K6GHq" ] },
      { "delegate": "tz1TEc75UKXv4W5cwi14Na3NtqFD51yKQi7h",
        "reception_time": "2022-01-16T02:20:41.234-00:00",
        "included_in_blocks":
          [ "BMRAR11sbFehtyeojG3dgKz76wHxVe3pjVwVr3DBdP9De7K6GHq" ] },
      { "delegate": "tz3bTdwZinP8U1JmSweNzVKhmwafqWmFWRfk",
        "reception_time": "2022-01-16T02:20:40.525-00:00",
        "included_in_blocks":
          [ "BMRAR11sbFehtyeojG3dgKz76wHxVe3pjVwVr3DBdP9De7K6GHq" ] },
      { "delegate": "tz1gfArv665EUkSg2ojMBzcbfwuPxAvqPvjo",
        "reception_time": "2022-01-16T02:20:41.098-00:00",
        "included_in_blocks":
          [ "BMRAR11sbFehtyeojG3dgKz76wHxVe3pjVwVr3DBdP9De7K6GHq" ] },
      { "delegate": "tz1VQnqCCqX4K5sP3FNkVSNKTdCAMJDd3E1n",
        "reception_time": "2022-01-16T02:20:40.383-00:00",
        "included_in_blocks":
          [ "BMRAR11sbFehtyeojG3dgKz76wHxVe3pjVwVr3DBdP9De7K6GHq" ] },
      { "delegate": "tz3RB4aoyjov4KEVRbuhvQ1CKJgBJMWhaeB8",
        "reception_time": "2022-01-16T02:20:40.381-00:00",
        "included_in_blocks":
          [ "BMRAR11sbFehtyeojG3dgKz76wHxVe3pjVwVr3DBdP9De7K6GHq" ] },
      { "delegate": "tz1SUgyRB8T5jXgXAwS33pgRHAKrafyg87Yc",
        "reception_time": "2022-01-16T02:20:40.933-00:00",
        "included_in_blocks":
          [ "BMRAR11sbFehtyeojG3dgKz76wHxVe3pjVwVr3DBdP9De7K6GHq" ] },
      { "delegate": "tz1gUNyn3hmnEWqkusWPzxRaon1cs7ndWh7h",
        "reception_time": "2022-01-16T02:20:40.419-00:00",
        "included_in_blocks":
          [ "BMRAR11sbFehtyeojG3dgKz76wHxVe3pjVwVr3DBdP9De7K6GHq" ] },
      { "delegate": "tz1Tnjaxk6tbAeC2TmMApPh8UsrEVQvhHvx5",
        "reception_time": "2022-01-16T02:20:41.213-00:00",
        "included_in_blocks":
          [ "BMRAR11sbFehtyeojG3dgKz76wHxVe3pjVwVr3DBdP9De7K6GHq" ] },
      { "delegate": "tz1V4qCyvPKZ5UeqdH14HN42rxvNPQfc9UZg",
        "reception_time": "2022-01-16T02:20:40.876-00:00",
        "included_in_blocks":
          [ "BMRAR11sbFehtyeojG3dgKz76wHxVe3pjVwVr3DBdP9De7K6GHq" ] },
      { "delegate": "tz1WCd2jm4uSt4vntk4vSuUWoZQGhLcDuR9q",
        "reception_time": "2022-01-16T02:20:40.407-00:00",
        "included_in_blocks":
          [ "BMRAR11sbFehtyeojG3dgKz76wHxVe3pjVwVr3DBdP9De7K6GHq" ] },
      { "delegate": "tz1WnfXMPaNTBmH7DBPwqCWs9cPDJdkGBTZ8",
        "reception_time": "2022-01-16T02:20:40.735-00:00",
        "included_in_blocks":
          [ "BMRAR11sbFehtyeojG3dgKz76wHxVe3pjVwVr3DBdP9De7K6GHq" ] },
      { "delegate": "tz1ei4WtWEMEJekSv8qDnu9PExG6Q8HgRGr3",
        "reception_time": "2022-01-16T02:20:40.966-00:00",
        "included_in_blocks":
          [ "BMRAR11sbFehtyeojG3dgKz76wHxVe3pjVwVr3DBdP9De7K6GHq" ] },
      { "delegate": "tz3gtoUxdudfBRcNY7iVdKPHCYYX6xdPpoRS",
        "reception_time": "2022-01-16T02:20:40.234-00:00",
        "included_in_blocks":
          [ "BMRAR11sbFehtyeojG3dgKz76wHxVe3pjVwVr3DBdP9De7K6GHq" ] },
      { "delegate": "tz1LmaFsWRkjr7QMCx5PtV6xTUz3AmEpKQiF",
        "reception_time": "2022-01-16T02:20:40.834-00:00",
        "included_in_blocks":
          [ "BMRAR11sbFehtyeojG3dgKz76wHxVe3pjVwVr3DBdP9De7K6GHq" ] },
      { "delegate": "tz3S6BBeKgJGXxvLyZ1xzXzMPn11nnFtq5L9",
        "reception_time": "2022-01-16T02:20:40.227-00:00",
        "included_in_blocks":
          [ "BMRAR11sbFehtyeojG3dgKz76wHxVe3pjVwVr3DBdP9De7K6GHq" ] },
      { "delegate": "tz3QT9dHYKDqh563chVa6za8526ys1UKfRfL",
        "reception_time": "2022-01-16T02:20:40.221-00:00",
        "included_in_blocks":
          [ "BMRAR11sbFehtyeojG3dgKz76wHxVe3pjVwVr3DBdP9De7K6GHq" ] },
      { "delegate": "tz3QSGPoRp3Kn7n3vY24eYeu3Peuqo45LQ4D",
        "reception_time": "2022-01-16T02:20:40.241-00:00",
        "included_in_blocks":
          [ "BMRAR11sbFehtyeojG3dgKz76wHxVe3pjVwVr3DBdP9De7K6GHq" ] },
      { "delegate": "tz1RCFbB9GpALpsZtu6J58sb74dm8qe6XBzv",
        "reception_time": "2022-01-16T02:20:40.873-00:00",
        "included_in_blocks":
          [ "BMRAR11sbFehtyeojG3dgKz76wHxVe3pjVwVr3DBdP9De7K6GHq" ] },
      { "delegate": "tz3adcvQaKXTCg12zbninqo3q8ptKKtDFTLv",
        "reception_time": "2022-01-16T02:20:40.570-00:00",
        "included_in_blocks":
          [ "BMRAR11sbFehtyeojG3dgKz76wHxVe3pjVwVr3DBdP9De7K6GHq" ] },
      { "delegate": "tz3hw2kqXhLUvY65ca1eety2oQTpAvd34R9Q",
        "reception_time": "2022-01-16T02:20:40.106-00:00",
        "included_in_blocks":
          [ "BMRAR11sbFehtyeojG3dgKz76wHxVe3pjVwVr3DBdP9De7K6GHq" ] },
      { "delegate": "tz3RKYFsLuQzKBtmYuLNas7uMu3AsYd4QdsA",
        "reception_time": "2022-01-16T02:20:40.130-00:00",
        "included_in_blocks":
          [ "BMRAR11sbFehtyeojG3dgKz76wHxVe3pjVwVr3DBdP9De7K6GHq" ] },
      { "delegate": "tz1iPHM2Xx2hwmzcr1EG1zzrV6oKafVoA91m",
        "reception_time": "2022-01-16T02:20:40.695-00:00",
        "included_in_blocks":
          [ "BMRAR11sbFehtyeojG3dgKz76wHxVe3pjVwVr3DBdP9De7K6GHq" ] },
      { "delegate": "tz1S8MNvuFEUsWgjHvi3AxibRBf388NhT1q2",
        "reception_time": "2022-01-16T02:20:40.673-00:00",
        "included_in_blocks":
          [ "BMRAR11sbFehtyeojG3dgKz76wHxVe3pjVwVr3DBdP9De7K6GHq" ] },
      { "delegate": "tz1PWCDnz783NNGGQjEFFsHtrcK5yBW4E2rm",
        "reception_time": "2022-01-16T02:20:40.286-00:00",
        "included_in_blocks":
          [ "BMRAR11sbFehtyeojG3dgKz76wHxVe3pjVwVr3DBdP9De7K6GHq" ] },
      { "delegate": "tz1TzaNn7wSQSP5gYPXCnNzBCpyMiidCq1PX",
        "reception_time": "2022-01-16T02:20:40.096-00:00",
        "included_in_blocks":
          [ "BMRAR11sbFehtyeojG3dgKz76wHxVe3pjVwVr3DBdP9De7K6GHq" ] },
      { "delegate": "tz1Ldzz6k1BHdhuKvAtMRX7h5kJSMHESMHLC",
        "reception_time": "2022-01-16T02:20:40.064-00:00",
        "included_in_blocks":
          [ "BMRAR11sbFehtyeojG3dgKz76wHxVe3pjVwVr3DBdP9De7K6GHq" ] },
      { "delegate": "tz3Zhs2dygr55yHyQyKjntAtY9bgfhLZ4Xj1",
        "reception_time": "2022-01-16T02:20:40.091-00:00",
        "included_in_blocks":
          [ "BMRAR11sbFehtyeojG3dgKz76wHxVe3pjVwVr3DBdP9De7K6GHq" ] },
      { "delegate": "tz3NxTnke1acr8o3h5y9ytf5awQBGNJUKzVU",
        "reception_time": "2022-01-16T02:20:40.082-00:00",
        "included_in_blocks":
          [ "BMRAR11sbFehtyeojG3dgKz76wHxVe3pjVwVr3DBdP9De7K6GHq" ] },
      { "delegate": "tz1VmiY38m3y95HqQLjMwqnMS7sdMfGomzKi",
        "reception_time": "2022-01-16T02:20:40.330-00:00",
        "included_in_blocks":
          [ "BMRAR11sbFehtyeojG3dgKz76wHxVe3pjVwVr3DBdP9De7K6GHq" ] },
      { "delegate": "tz1irJKkXS2DBWkU1NnmFQx1c1L7pbGg4yhk",
        "reception_time": "2022-01-16T02:20:40.084-00:00",
        "included_in_blocks":
          [ "BMRAR11sbFehtyeojG3dgKz76wHxVe3pjVwVr3DBdP9De7K6GHq" ] },
      { "delegate": "tz3ZbP2pM3nwvXztbuMJwJnDvV5xdpU8UkkD",
        "reception_time": "2022-01-16T02:20:40.075-00:00",
        "included_in_blocks":
          [ "BMRAR11sbFehtyeojG3dgKz76wHxVe3pjVwVr3DBdP9De7K6GHq" ] },
      { "delegate": "tz1fUyqYH7H4pRHN1roWY17giXhy1RvxjgUV",
        "reception_time": "2022-01-16T02:20:40.075-00:00",
        "included_in_blocks":
          [ "BMRAR11sbFehtyeojG3dgKz76wHxVe3pjVwVr3DBdP9De7K6GHq" ] } ] }