{ "blocks":
    [ { "hash": "BLT2P2A7nmhUzgKxFTprcY3rQ9pMBg3vHe7LV2of4jggrzw9uEY",
        "delegate": "tz1S8MNvuFEUsWgjHvi3AxibRBf388NhT1q2",
        "reception_time": "2022-01-16T02:52:05.036-00:00",
        "timestamp": "2022-01-16T02:52:00Z" } ],
  "endorsements":
    [ { "delegate": "tz1dbfppLAAxXZNtf2SDps7rch3qfUznKSoK" },
      { "delegate": "tz1TRspM5SeZpaQUhzByXbEvqKF1vnCM2YTK" },
      { "delegate": "tz1S8e9GgdZG78XJRB3NqabfWeM37GnhZMWQ",
        "reception_time": "2022-01-16T02:52:04.843-00:00",
        "errors":
          [ { "kind": "temporary",
              "id": "proto.011-PtHangz2.prefilter.outdated_endorsement" } ],
        "included_in_blocks":
          [ "BLTW8SBpcNgstCTv1mYUVJYkAe5J3wX9Cvaww1xaFnuRjYu2jye" ] },
      { "delegate": "tz1Kt4P8BCaP93AEV4eA7gmpRryWt5hznjCP",
        "reception_time": "2022-01-16T02:52:04.722-00:00",
        "errors":
          [ { "kind": "temporary",
              "id": "proto.011-PtHangz2.prefilter.outdated_endorsement" } ],
        "included_in_blocks":
          [ "BLTW8SBpcNgstCTv1mYUVJYkAe5J3wX9Cvaww1xaFnuRjYu2jye" ] },
      { "delegate": "tz3e7LbZvUtoXhpUD1yb6wuFodZpfYRb9nWJ",
        "reception_time": "2022-01-16T02:52:12.885-00:00",
        "included_in_blocks":
          [ "BLTW8SBpcNgstCTv1mYUVJYkAe5J3wX9Cvaww1xaFnuRjYu2jye" ] },
      { "delegate": "tz1W5VkdB5s7ENMESVBtwyt9kyvLqPcUczRT",
        "reception_time": "2022-01-16T02:52:09.993-00:00",
        "included_in_blocks":
          [ "BLTW8SBpcNgstCTv1mYUVJYkAe5J3wX9Cvaww1xaFnuRjYu2jye" ] },
      { "delegate": "tz1ZcTRk5uxD86EFEn1vvNffWWqJy7q5eVhc",
        "reception_time": "2022-01-16T02:52:08.769-00:00",
        "included_in_blocks":
          [ "BLTW8SBpcNgstCTv1mYUVJYkAe5J3wX9Cvaww1xaFnuRjYu2jye" ] },
      { "delegate": "tz1T7duV5gZWSTq4YpBGbXNLTfznCLDrFxvs",
        "reception_time": "2022-01-16T02:52:08.447-00:00",
        "included_in_blocks":
          [ "BLTW8SBpcNgstCTv1mYUVJYkAe5J3wX9Cvaww1xaFnuRjYu2jye" ] },
      { "delegate": "tz1cYufsxHXJcvANhvS55h3aY32a9BAFB494",
        "reception_time": "2022-01-16T02:52:08.182-00:00",
        "included_in_blocks":
          [ "BLTW8SBpcNgstCTv1mYUVJYkAe5J3wX9Cvaww1xaFnuRjYu2jye" ] },
      { "delegate": "tz1aRoaRhSpRYvFdyvgWLL6TGyRoGF51wDjM",
        "reception_time": "2022-01-16T02:52:08.274-00:00",
        "included_in_blocks":
          [ "BLTW8SBpcNgstCTv1mYUVJYkAe5J3wX9Cvaww1xaFnuRjYu2jye" ] },
      { "delegate": "tz1awXW7wuXy21c66vBudMXQVAPgRnqqwgTH",
        "reception_time": "2022-01-16T02:52:08.189-00:00",
        "included_in_blocks":
          [ "BLTW8SBpcNgstCTv1mYUVJYkAe5J3wX9Cvaww1xaFnuRjYu2jye" ] },
      { "delegate": "tz1dRKU4FQ9QRRQPdaH4zCR6gmCmXfcvcgtB",
        "reception_time": "2022-01-16T02:52:08.240-00:00",
        "included_in_blocks":
          [ "BLTW8SBpcNgstCTv1mYUVJYkAe5J3wX9Cvaww1xaFnuRjYu2jye" ] },
      { "delegate": "tz1PeZx7FXy7QRuMREGXGxeipb24RsMMzUNe",
        "reception_time": "2022-01-16T02:52:07.784-00:00",
        "included_in_blocks":
          [ "BLTW8SBpcNgstCTv1mYUVJYkAe5J3wX9Cvaww1xaFnuRjYu2jye" ] },
      { "delegate": "tz3NDpRj6WBrJPikcPVHRBEjWKxFw3c6eQPS",
        "reception_time": "2022-01-16T02:52:07.851-00:00",
        "included_in_blocks":
          [ "BLTW8SBpcNgstCTv1mYUVJYkAe5J3wX9Cvaww1xaFnuRjYu2jye" ] },
      { "delegate": "tz1Nf6tsK4G6bBqgSQERy4nUtkHNKUVdh7q1",
        "reception_time": "2022-01-16T02:52:07.367-00:00",
        "included_in_blocks":
          [ "BLTW8SBpcNgstCTv1mYUVJYkAe5J3wX9Cvaww1xaFnuRjYu2jye" ] },
      { "delegate": "tz1TRqbYbUf2GyrjErf3hBzgBJPzW8y36qEs",
        "reception_time": "2022-01-16T02:52:07.321-00:00",
        "included_in_blocks":
          [ "BLTW8SBpcNgstCTv1mYUVJYkAe5J3wX9Cvaww1xaFnuRjYu2jye" ] },
      { "delegate": "tz3NExpXn9aPNZPorRE4SdjJ2RGrfbJgMAaV",
        "reception_time": "2022-01-16T02:52:08.173-00:00",
        "included_in_blocks":
          [ "BLTW8SBpcNgstCTv1mYUVJYkAe5J3wX9Cvaww1xaFnuRjYu2jye" ] },
      { "delegate": "tz3RDC3Jdn4j15J7bBHZd29EUee9gVB1CxD9",
        "reception_time": "2022-01-16T02:52:07.088-00:00",
        "included_in_blocks":
          [ "BLTW8SBpcNgstCTv1mYUVJYkAe5J3wX9Cvaww1xaFnuRjYu2jye" ] },
      { "delegate": "tz2FCNBrERXtaTtNX6iimR1UJ5JSDxvdHM93",
        "reception_time": "2022-01-16T02:52:07.003-00:00",
        "included_in_blocks":
          [ "BLTW8SBpcNgstCTv1mYUVJYkAe5J3wX9Cvaww1xaFnuRjYu2jye" ] },
      { "delegate": "tz3bTdwZinP8U1JmSweNzVKhmwafqWmFWRfk",
        "reception_time": "2022-01-16T02:52:07.013-00:00",
        "included_in_blocks":
          [ "BLTW8SBpcNgstCTv1mYUVJYkAe5J3wX9Cvaww1xaFnuRjYu2jye" ] },
      { "delegate": "tz1abmz7jiCV2GH2u81LRrGgAFFgvQgiDiaf",
        "reception_time": "2022-01-16T02:52:07.099-00:00",
        "included_in_blocks":
          [ "BLTW8SBpcNgstCTv1mYUVJYkAe5J3wX9Cvaww1xaFnuRjYu2jye" ] },
      { "delegate": "tz1dwu9aYb7CRNq4Y2zAjipdjFuSVKhHS8vA",
        "reception_time": "2022-01-16T02:52:06.921-00:00",
        "included_in_blocks":
          [ "BLTW8SBpcNgstCTv1mYUVJYkAe5J3wX9Cvaww1xaFnuRjYu2jye" ] },
      { "delegate": "tz1RCFbB9GpALpsZtu6J58sb74dm8qe6XBzv",
        "reception_time": "2022-01-16T02:52:07.151-00:00",
        "included_in_blocks":
          [ "BLTW8SBpcNgstCTv1mYUVJYkAe5J3wX9Cvaww1xaFnuRjYu2jye" ] },
      { "delegate": "tz3RB4aoyjov4KEVRbuhvQ1CKJgBJMWhaeB8",
        "reception_time": "2022-01-16T02:52:06.727-00:00",
        "included_in_blocks":
          [ "BLTW8SBpcNgstCTv1mYUVJYkAe5J3wX9Cvaww1xaFnuRjYu2jye" ] },
      { "delegate": "tz3bvNMQ95vfAYtG8193ymshqjSvmxiCUuR5",
        "reception_time": "2022-01-16T02:52:06.774-00:00",
        "included_in_blocks":
          [ "BLTW8SBpcNgstCTv1mYUVJYkAe5J3wX9Cvaww1xaFnuRjYu2jye" ] },
      { "delegate": "tz1TEc75UKXv4W5cwi14Na3NtqFD51yKQi7h",
        "reception_time": "2022-01-16T02:52:06.887-00:00",
        "included_in_blocks":
          [ "BLTW8SBpcNgstCTv1mYUVJYkAe5J3wX9Cvaww1xaFnuRjYu2jye" ] },
      { "delegate": "tz1ei4WtWEMEJekSv8qDnu9PExG6Q8HgRGr3",
        "reception_time": "2022-01-16T02:52:06.806-00:00",
        "included_in_blocks":
          [ "BLTW8SBpcNgstCTv1mYUVJYkAe5J3wX9Cvaww1xaFnuRjYu2jye" ] },
      { "delegate": "tz1SYq214SCBy9naR6cvycQsYcUGpBqQAE8d",
        "reception_time": "2022-01-16T02:52:06.445-00:00",
        "included_in_blocks":
          [ "BLTW8SBpcNgstCTv1mYUVJYkAe5J3wX9Cvaww1xaFnuRjYu2jye" ] },
      { "delegate": "tz1PWCDnz783NNGGQjEFFsHtrcK5yBW4E2rm",
        "reception_time": "2022-01-16T02:52:06.535-00:00",
        "included_in_blocks":
          [ "BLTW8SBpcNgstCTv1mYUVJYkAe5J3wX9Cvaww1xaFnuRjYu2jye" ] },
      { "delegate": "tz1WCd2jm4uSt4vntk4vSuUWoZQGhLcDuR9q",
        "reception_time": "2022-01-16T02:52:06.529-00:00",
        "included_in_blocks":
          [ "BLTW8SBpcNgstCTv1mYUVJYkAe5J3wX9Cvaww1xaFnuRjYu2jye" ] },
      { "delegate": "tz3VEZ4k6a4Wx42iyev6i2aVAptTRLEAivNN",
        "reception_time": "2022-01-16T02:52:07.074-00:00",
        "included_in_blocks":
          [ "BLTW8SBpcNgstCTv1mYUVJYkAe5J3wX9Cvaww1xaFnuRjYu2jye" ] },
      { "delegate": "tz3RKYFsLuQzKBtmYuLNas7uMu3AsYd4QdsA",
        "reception_time": "2022-01-16T02:52:06.250-00:00",
        "included_in_blocks":
          [ "BLTW8SBpcNgstCTv1mYUVJYkAe5J3wX9Cvaww1xaFnuRjYu2jye" ] },
      { "delegate": "tz3S6BBeKgJGXxvLyZ1xzXzMPn11nnFtq5L9",
        "reception_time": "2022-01-16T02:52:06.290-00:00",
        "included_in_blocks":
          [ "BLTW8SBpcNgstCTv1mYUVJYkAe5J3wX9Cvaww1xaFnuRjYu2jye" ] },
      { "delegate": "tz1gUNyn3hmnEWqkusWPzxRaon1cs7ndWh7h",
        "reception_time": "2022-01-16T02:52:06.311-00:00",
        "included_in_blocks":
          [ "BLTW8SBpcNgstCTv1mYUVJYkAe5J3wX9Cvaww1xaFnuRjYu2jye" ] },
      { "delegate": "tz1TzaNn7wSQSP5gYPXCnNzBCpyMiidCq1PX",
        "reception_time": "2022-01-16T02:52:06.307-00:00",
        "included_in_blocks":
          [ "BLTW8SBpcNgstCTv1mYUVJYkAe5J3wX9Cvaww1xaFnuRjYu2jye" ] },
      { "delegate": "tz1VQnqCCqX4K5sP3FNkVSNKTdCAMJDd3E1n",
        "reception_time": "2022-01-16T02:52:06.315-00:00",
        "included_in_blocks":
          [ "BLTW8SBpcNgstCTv1mYUVJYkAe5J3wX9Cvaww1xaFnuRjYu2jye" ] },
      { "delegate": "tz1VmiY38m3y95HqQLjMwqnMS7sdMfGomzKi",
        "reception_time": "2022-01-16T02:52:06.281-00:00",
        "included_in_blocks":
          [ "BLTW8SBpcNgstCTv1mYUVJYkAe5J3wX9Cvaww1xaFnuRjYu2jye" ] },
      { "delegate": "tz3hw2kqXhLUvY65ca1eety2oQTpAvd34R9Q",
        "reception_time": "2022-01-16T02:52:06.242-00:00",
        "included_in_blocks":
          [ "BLTW8SBpcNgstCTv1mYUVJYkAe5J3wX9Cvaww1xaFnuRjYu2jye" ] },
      { "delegate": "tz3QT9dHYKDqh563chVa6za8526ys1UKfRfL",
        "reception_time": "2022-01-16T02:52:06.230-00:00",
        "included_in_blocks":
          [ "BLTW8SBpcNgstCTv1mYUVJYkAe5J3wX9Cvaww1xaFnuRjYu2jye" ] },
      { "delegate": "tz1fUyqYH7H4pRHN1roWY17giXhy1RvxjgUV",
        "reception_time": "2022-01-16T02:52:06.048-00:00",
        "included_in_blocks":
          [ "BLTW8SBpcNgstCTv1mYUVJYkAe5J3wX9Cvaww1xaFnuRjYu2jye" ] },
      { "delegate": "tz3gtoUxdudfBRcNY7iVdKPHCYYX6xdPpoRS",
        "reception_time": "2022-01-16T02:52:06.188-00:00",
        "included_in_blocks":
          [ "BLTW8SBpcNgstCTv1mYUVJYkAe5J3wX9Cvaww1xaFnuRjYu2jye" ] },
      { "delegate": "tz3QSGPoRp3Kn7n3vY24eYeu3Peuqo45LQ4D",
        "reception_time": "2022-01-16T02:52:06.135-00:00",
        "included_in_blocks":
          [ "BLTW8SBpcNgstCTv1mYUVJYkAe5J3wX9Cvaww1xaFnuRjYu2jye" ] },
      { "delegate": "tz1RjoHc98dBoqaH2jawF62XNKh7YsHwbkEv",
        "reception_time": "2022-01-16T02:52:06.956-00:00",
        "included_in_blocks":
          [ "BLTW8SBpcNgstCTv1mYUVJYkAe5J3wX9Cvaww1xaFnuRjYu2jye" ] },
      { "delegate": "tz3iJu5vrKZcsqRPs8yJ61UDoeEXZmtro4qh",
        "reception_time": "2022-01-16T02:52:06.127-00:00",
        "included_in_blocks":
          [ "BLTW8SBpcNgstCTv1mYUVJYkAe5J3wX9Cvaww1xaFnuRjYu2jye" ] },
      { "delegate": "tz3ZbP2pM3nwvXztbuMJwJnDvV5xdpU8UkkD",
        "reception_time": "2022-01-16T02:52:06.143-00:00",
        "included_in_blocks":
          [ "BLTW8SBpcNgstCTv1mYUVJYkAe5J3wX9Cvaww1xaFnuRjYu2jye" ] },
      { "delegate": "tz3QCNyySViKHmeSr45kzDxzchys7NiXCWoa",
        "reception_time": "2022-01-16T02:52:06.150-00:00",
        "included_in_blocks":
          [ "BLTW8SBpcNgstCTv1mYUVJYkAe5J3wX9Cvaww1xaFnuRjYu2jye" ] },
      { "delegate": "tz1aJ8wxNeVRYbbx5YqzurmYzwKzkS96rHP4",
        "reception_time": "2022-01-16T02:52:06.253-00:00",
        "included_in_blocks":
          [ "BLTW8SBpcNgstCTv1mYUVJYkAe5J3wX9Cvaww1xaFnuRjYu2jye" ] },
      { "delegate": "tz3Zhs2dygr55yHyQyKjntAtY9bgfhLZ4Xj1",
        "reception_time": "2022-01-16T02:52:06.120-00:00",
        "included_in_blocks":
          [ "BLTW8SBpcNgstCTv1mYUVJYkAe5J3wX9Cvaww1xaFnuRjYu2jye" ] },
      { "delegate": "tz1Ldzz6k1BHdhuKvAtMRX7h5kJSMHESMHLC",
        "reception_time": "2022-01-16T02:52:06.070-00:00",
        "included_in_blocks":
          [ "BLTW8SBpcNgstCTv1mYUVJYkAe5J3wX9Cvaww1xaFnuRjYu2jye" ] },
      { "delegate": "tz1gfArv665EUkSg2ojMBzcbfwuPxAvqPvjo",
        "reception_time": "2022-01-16T02:52:06.318-00:00",
        "included_in_blocks":
          [ "BLTW8SBpcNgstCTv1mYUVJYkAe5J3wX9Cvaww1xaFnuRjYu2jye" ] },
      { "delegate": "tz1ZPh7XfUaJXUDvkrBxmS1BjEM1i62hiPpM",
        "reception_time": "2022-01-16T02:52:05.930-00:00",
        "included_in_blocks":
          [ "BLTW8SBpcNgstCTv1mYUVJYkAe5J3wX9Cvaww1xaFnuRjYu2jye" ] },
      { "delegate": "tz3WMqdzXqRWXwyvj5Hp2H7QEepaUuS7vd9K",
        "reception_time": "2022-01-16T02:52:06.750-00:00",
        "included_in_blocks":
          [ "BLTW8SBpcNgstCTv1mYUVJYkAe5J3wX9Cvaww1xaFnuRjYu2jye" ] },
      { "delegate": "tz1irJKkXS2DBWkU1NnmFQx1c1L7pbGg4yhk",
        "reception_time": "2022-01-16T02:52:05.928-00:00",
        "included_in_blocks":
          [ "BLTW8SBpcNgstCTv1mYUVJYkAe5J3wX9Cvaww1xaFnuRjYu2jye" ] },
      { "delegate": "tz3UoffC7FG7zfpmvmjUmUeAaHvzdcUvAj6r",
        "reception_time": "2022-01-16T02:52:06.884-00:00",
        "included_in_blocks":
          [ "BLTW8SBpcNgstCTv1mYUVJYkAe5J3wX9Cvaww1xaFnuRjYu2jye" ] },
      { "delegate": "tz1V4qCyvPKZ5UeqdH14HN42rxvNPQfc9UZg",
        "reception_time": "2022-01-16T02:52:06.107-00:00",
        "included_in_blocks":
          [ "BLTW8SBpcNgstCTv1mYUVJYkAe5J3wX9Cvaww1xaFnuRjYu2jye" ] },
      { "delegate": "tz1eEnQhbwf6trb8Q8mPb2RaPkNk2rN7BKi8",
        "reception_time": "2022-01-16T02:52:05.923-00:00",
        "included_in_blocks":
          [ "BLTW8SBpcNgstCTv1mYUVJYkAe5J3wX9Cvaww1xaFnuRjYu2jye" ] },
      { "delegate": "tz1ajgycuHmd2z2JbTSJxKv7x6cok2KuNSk1",
        "reception_time": "2022-01-16T02:52:05.936-00:00",
        "included_in_blocks":
          [ "BLTW8SBpcNgstCTv1mYUVJYkAe5J3wX9Cvaww1xaFnuRjYu2jye" ] },
      { "delegate": "tz1Scdr2HsZiQjc7bHMeBbmDRXYVvdhjJbBh",
        "reception_time": "2022-01-16T02:52:05.903-00:00",
        "included_in_blocks":
          [ "BLTW8SBpcNgstCTv1mYUVJYkAe5J3wX9Cvaww1xaFnuRjYu2jye" ] },
      { "delegate": "tz1Lhf4J9Qxoe3DZ2nfe8FGDnvVj7oKjnMY6",
        "reception_time": "2022-01-16T02:52:05.933-00:00",
        "included_in_blocks":
          [ "BLTW8SBpcNgstCTv1mYUVJYkAe5J3wX9Cvaww1xaFnuRjYu2jye" ] },
      { "delegate": "tz1P2Po7YM526ughEsRbY4oR9zaUPDZjxFrb",
        "reception_time": "2022-01-16T02:52:05.776-00:00",
        "included_in_blocks":
          [ "BLTW8SBpcNgstCTv1mYUVJYkAe5J3wX9Cvaww1xaFnuRjYu2jye" ] },
      { "delegate": "tz1RV1MBbZMR68tacosb7Mwj6LkbPSUS1er1",
        "reception_time": "2022-01-16T02:52:05.894-00:00",
        "included_in_blocks":
          [ "BLTW8SBpcNgstCTv1mYUVJYkAe5J3wX9Cvaww1xaFnuRjYu2jye" ] },
      { "delegate": "tz1fPKAtsYydh4f1wfWNfeNxWYu72TmM48fu",
        "reception_time": "2022-01-16T02:52:05.939-00:00",
        "included_in_blocks":
          [ "BLTW8SBpcNgstCTv1mYUVJYkAe5J3wX9Cvaww1xaFnuRjYu2jye" ] },
      { "delegate": "tz1XfAjZyaLdceHnZxbMYop7g7kWKPut4PR7",
        "reception_time": "2022-01-16T02:52:05.888-00:00",
        "included_in_blocks":
          [ "BLTW8SBpcNgstCTv1mYUVJYkAe5J3wX9Cvaww1xaFnuRjYu2jye" ] },
      { "delegate": "tz1S8MNvuFEUsWgjHvi3AxibRBf388NhT1q2",
        "reception_time": "2022-01-16T02:52:05.926-00:00",
        "included_in_blocks":
          [ "BLTW8SBpcNgstCTv1mYUVJYkAe5J3wX9Cvaww1xaFnuRjYu2jye" ] } ] }