{ "blocks":
    [ { "hash": "BKvSAtTMsocqaeYfWiSRDFvt8SDm6xE5uABePeyMS5wMuNmtTX5",
        "delegate": "tz1TXzyaKUA8wsWefdSnyaYFnV2M3vCV7er9",
        "reception_time": "2022-01-16T02:04:37.251-00:00",
        "timestamp": "2022-01-16T02:04:30Z" } ],
  "endorsements":
    [ { "delegate": "tz1TXzyaKUA8wsWefdSnyaYFnV2M3vCV7er9",
        "reception_time": "2022-01-16T02:04:36.812-00:00",
        "errors":
          [ { "kind": "temporary",
              "id": "proto.011-PtHangz2.prefilter.outdated_endorsement" } ],
        "included_in_blocks":
          [ "BLmXoxJQwpqHYHVUApHsDj44a6QVumhVzxKtWANmYfvuzMxuJ1Q" ] },
      { "delegate": "tz1TRspM5SeZpaQUhzByXbEvqKF1vnCM2YTK" },
      { "delegate": "tz1dbfppLAAxXZNtf2SDps7rch3qfUznKSoK" },
      { "delegate": "tz1P2Po7YM526ughEsRbY4oR9zaUPDZjxFrb",
        "reception_time": "2022-01-16T02:04:38.301-00:00",
        "included_in_blocks":
          [ "BLmXoxJQwpqHYHVUApHsDj44a6QVumhVzxKtWANmYfvuzMxuJ1Q" ] },
      { "delegate": "tz1eEnQhbwf6trb8Q8mPb2RaPkNk2rN7BKi8",
        "reception_time": "2022-01-16T02:04:38.348-00:00",
        "included_in_blocks":
          [ "BLmXoxJQwpqHYHVUApHsDj44a6QVumhVzxKtWANmYfvuzMxuJ1Q" ] },
      { "delegate": "tz1bsdrs36X5BTH83RHUBdUouKLJZK8d2oBa",
        "reception_time": "2022-01-16T02:04:38.374-00:00",
        "included_in_blocks":
          [ "BLmXoxJQwpqHYHVUApHsDj44a6QVumhVzxKtWANmYfvuzMxuJ1Q" ] },
      { "delegate": "tz1LLNkQK4UQV6QcFShiXJ2vT2ELw449MzAA",
        "reception_time": "2022-01-16T02:04:38.374-00:00",
        "included_in_blocks":
          [ "BLmXoxJQwpqHYHVUApHsDj44a6QVumhVzxKtWANmYfvuzMxuJ1Q" ] },
      { "delegate": "tz3ZbP2pM3nwvXztbuMJwJnDvV5xdpU8UkkD",
        "reception_time": "2022-01-16T02:04:38.399-00:00",
        "included_in_blocks":
          [ "BLmXoxJQwpqHYHVUApHsDj44a6QVumhVzxKtWANmYfvuzMxuJ1Q" ] },
      { "delegate": "tz1Kt4P8BCaP93AEV4eA7gmpRryWt5hznjCP",
        "reception_time": "2022-01-16T02:04:38.399-00:00",
        "included_in_blocks":
          [ "BLmXoxJQwpqHYHVUApHsDj44a6QVumhVzxKtWANmYfvuzMxuJ1Q" ] },
      { "delegate": "tz1irJKkXS2DBWkU1NnmFQx1c1L7pbGg4yhk",
        "reception_time": "2022-01-16T02:04:38.405-00:00",
        "included_in_blocks":
          [ "BLmXoxJQwpqHYHVUApHsDj44a6QVumhVzxKtWANmYfvuzMxuJ1Q" ] },
      { "delegate": "tz1Lhf4J9Qxoe3DZ2nfe8FGDnvVj7oKjnMY6",
        "reception_time": "2022-01-16T02:04:38.405-00:00",
        "included_in_blocks":
          [ "BLmXoxJQwpqHYHVUApHsDj44a6QVumhVzxKtWANmYfvuzMxuJ1Q" ] },
      { "delegate": "tz3NxTnke1acr8o3h5y9ytf5awQBGNJUKzVU",
        "reception_time": "2022-01-16T02:04:38.417-00:00",
        "included_in_blocks":
          [ "BLmXoxJQwpqHYHVUApHsDj44a6QVumhVzxKtWANmYfvuzMxuJ1Q" ] },
      { "delegate": "tz1VmiY38m3y95HqQLjMwqnMS7sdMfGomzKi",
        "reception_time": "2022-01-16T02:04:38.423-00:00",
        "included_in_blocks":
          [ "BLmXoxJQwpqHYHVUApHsDj44a6QVumhVzxKtWANmYfvuzMxuJ1Q" ] },
      { "delegate": "tz3QT9dHYKDqh563chVa6za8526ys1UKfRfL",
        "reception_time": "2022-01-16T02:04:38.476-00:00",
        "included_in_blocks":
          [ "BLmXoxJQwpqHYHVUApHsDj44a6QVumhVzxKtWANmYfvuzMxuJ1Q" ] },
      { "delegate": "tz3iJu5vrKZcsqRPs8yJ61UDoeEXZmtro4qh",
        "reception_time": "2022-01-16T02:04:38.547-00:00",
        "included_in_blocks":
          [ "BLmXoxJQwpqHYHVUApHsDj44a6QVumhVzxKtWANmYfvuzMxuJ1Q" ] },
      { "delegate": "tz3hw2kqXhLUvY65ca1eety2oQTpAvd34R9Q",
        "reception_time": "2022-01-16T02:04:38.572-00:00",
        "included_in_blocks":
          [ "BLmXoxJQwpqHYHVUApHsDj44a6QVumhVzxKtWANmYfvuzMxuJ1Q" ] },
      { "delegate": "tz1PWCDnz783NNGGQjEFFsHtrcK5yBW4E2rm",
        "reception_time": "2022-01-16T02:04:38.588-00:00",
        "included_in_blocks":
          [ "BLmXoxJQwpqHYHVUApHsDj44a6QVumhVzxKtWANmYfvuzMxuJ1Q" ] },
      { "delegate": "tz3S6BBeKgJGXxvLyZ1xzXzMPn11nnFtq5L9",
        "reception_time": "2022-01-16T02:04:38.603-00:00",
        "included_in_blocks":
          [ "BLmXoxJQwpqHYHVUApHsDj44a6QVumhVzxKtWANmYfvuzMxuJ1Q" ] },
      { "delegate": "tz3QSGPoRp3Kn7n3vY24eYeu3Peuqo45LQ4D",
        "reception_time": "2022-01-16T02:04:38.614-00:00",
        "included_in_blocks":
          [ "BLmXoxJQwpqHYHVUApHsDj44a6QVumhVzxKtWANmYfvuzMxuJ1Q" ] },
      { "delegate": "tz1MJx9vhaNRSimcuXPK2rW4fLccQnDAnVKJ",
        "reception_time": "2022-01-16T02:04:38.622-00:00",
        "included_in_blocks":
          [ "BLmXoxJQwpqHYHVUApHsDj44a6QVumhVzxKtWANmYfvuzMxuJ1Q" ] },
      { "delegate": "tz3RKYFsLuQzKBtmYuLNas7uMu3AsYd4QdsA",
        "reception_time": "2022-01-16T02:04:38.639-00:00",
        "included_in_blocks":
          [ "BLmXoxJQwpqHYHVUApHsDj44a6QVumhVzxKtWANmYfvuzMxuJ1Q" ] },
      { "delegate": "tz3bTdwZinP8U1JmSweNzVKhmwafqWmFWRfk",
        "reception_time": "2022-01-16T02:04:38.706-00:00",
        "included_in_blocks":
          [ "BLmXoxJQwpqHYHVUApHsDj44a6QVumhVzxKtWANmYfvuzMxuJ1Q" ] },
      { "delegate": "tz3gtoUxdudfBRcNY7iVdKPHCYYX6xdPpoRS",
        "reception_time": "2022-01-16T02:04:38.721-00:00",
        "included_in_blocks":
          [ "BLmXoxJQwpqHYHVUApHsDj44a6QVumhVzxKtWANmYfvuzMxuJ1Q" ] },
      { "delegate": "tz1MQMiZHV8q4tTwUMWmS5Y3kaP6J2136iXr",
        "reception_time": "2022-01-16T02:04:38.725-00:00",
        "included_in_blocks":
          [ "BLmXoxJQwpqHYHVUApHsDj44a6QVumhVzxKtWANmYfvuzMxuJ1Q" ] },
      { "delegate": "tz1TzaNn7wSQSP5gYPXCnNzBCpyMiidCq1PX",
        "reception_time": "2022-01-16T02:04:38.744-00:00",
        "included_in_blocks":
          [ "BLmXoxJQwpqHYHVUApHsDj44a6QVumhVzxKtWANmYfvuzMxuJ1Q" ] },
      { "delegate": "tz1gUNyn3hmnEWqkusWPzxRaon1cs7ndWh7h",
        "reception_time": "2022-01-16T02:04:38.764-00:00",
        "included_in_blocks":
          [ "BLmXoxJQwpqHYHVUApHsDj44a6QVumhVzxKtWANmYfvuzMxuJ1Q" ] },
      { "delegate": "tz1Ldzz6k1BHdhuKvAtMRX7h5kJSMHESMHLC",
        "reception_time": "2022-01-16T02:04:38.769-00:00",
        "included_in_blocks":
          [ "BLmXoxJQwpqHYHVUApHsDj44a6QVumhVzxKtWANmYfvuzMxuJ1Q" ] },
      { "delegate": "tz1iPHM2Xx2hwmzcr1EG1zzrV6oKafVoA91m",
        "reception_time": "2022-01-16T02:04:38.786-00:00",
        "included_in_blocks":
          [ "BLmXoxJQwpqHYHVUApHsDj44a6QVumhVzxKtWANmYfvuzMxuJ1Q" ] },
      { "delegate": "tz1VQnqCCqX4K5sP3FNkVSNKTdCAMJDd3E1n",
        "reception_time": "2022-01-16T02:04:38.825-00:00",
        "included_in_blocks":
          [ "BLmXoxJQwpqHYHVUApHsDj44a6QVumhVzxKtWANmYfvuzMxuJ1Q" ] },
      { "delegate": "tz1S8MNvuFEUsWgjHvi3AxibRBf388NhT1q2",
        "reception_time": "2022-01-16T02:04:38.900-00:00",
        "included_in_blocks":
          [ "BLmXoxJQwpqHYHVUApHsDj44a6QVumhVzxKtWANmYfvuzMxuJ1Q" ] },
      { "delegate": "tz1V4qCyvPKZ5UeqdH14HN42rxvNPQfc9UZg",
        "reception_time": "2022-01-16T02:04:38.912-00:00",
        "included_in_blocks":
          [ "BLmXoxJQwpqHYHVUApHsDj44a6QVumhVzxKtWANmYfvuzMxuJ1Q" ] },
      { "delegate": "tz1d6Fx42mYgVFnHUW8T8A7WBfJ6nD9pVok8",
        "reception_time": "2022-01-16T02:04:38.923-00:00",
        "included_in_blocks":
          [ "BLmXoxJQwpqHYHVUApHsDj44a6QVumhVzxKtWANmYfvuzMxuJ1Q" ] },
      { "delegate": "tz1U2ufqFdVkN2RdYormwHtgm3ityYY1uqft",
        "reception_time": "2022-01-16T02:04:38.969-00:00",
        "included_in_blocks":
          [ "BLmXoxJQwpqHYHVUApHsDj44a6QVumhVzxKtWANmYfvuzMxuJ1Q" ] },
      { "delegate": "tz1WCd2jm4uSt4vntk4vSuUWoZQGhLcDuR9q",
        "reception_time": "2022-01-16T02:04:38.978-00:00",
        "included_in_blocks":
          [ "BLmXoxJQwpqHYHVUApHsDj44a6QVumhVzxKtWANmYfvuzMxuJ1Q" ] },
      { "delegate": "tz1gfArv665EUkSg2ojMBzcbfwuPxAvqPvjo",
        "reception_time": "2022-01-16T02:04:39.007-00:00",
        "included_in_blocks":
          [ "BLmXoxJQwpqHYHVUApHsDj44a6QVumhVzxKtWANmYfvuzMxuJ1Q" ] },
      { "delegate": "tz1Tnjaxk6tbAeC2TmMApPh8UsrEVQvhHvx5",
        "reception_time": "2022-01-16T02:04:39.065-00:00",
        "included_in_blocks":
          [ "BLmXoxJQwpqHYHVUApHsDj44a6QVumhVzxKtWANmYfvuzMxuJ1Q" ] },
      { "delegate": "tz1SYq214SCBy9naR6cvycQsYcUGpBqQAE8d",
        "reception_time": "2022-01-16T02:04:39.140-00:00",
        "included_in_blocks":
          [ "BLmXoxJQwpqHYHVUApHsDj44a6QVumhVzxKtWANmYfvuzMxuJ1Q" ] },
      { "delegate": "tz1KfEsrtDaA1sX7vdM4qmEPWuSytuqCDp5j",
        "reception_time": "2022-01-16T02:04:39.143-00:00",
        "included_in_blocks":
          [ "BLmXoxJQwpqHYHVUApHsDj44a6QVumhVzxKtWANmYfvuzMxuJ1Q" ] },
      { "delegate": "tz1MQJPGNMijnXnVoBENFz9rUhaPt3S7rWoz",
        "reception_time": "2022-01-16T02:04:39.176-00:00",
        "included_in_blocks":
          [ "BLmXoxJQwpqHYHVUApHsDj44a6QVumhVzxKtWANmYfvuzMxuJ1Q" ] },
      { "delegate": "tz1ei4WtWEMEJekSv8qDnu9PExG6Q8HgRGr3",
        "reception_time": "2022-01-16T02:04:39.337-00:00",
        "included_in_blocks":
          [ "BLmXoxJQwpqHYHVUApHsDj44a6QVumhVzxKtWANmYfvuzMxuJ1Q" ] },
      { "delegate": "tz1RjoHc98dBoqaH2jawF62XNKh7YsHwbkEv",
        "reception_time": "2022-01-16T02:04:39.397-00:00",
        "included_in_blocks":
          [ "BLmXoxJQwpqHYHVUApHsDj44a6QVumhVzxKtWANmYfvuzMxuJ1Q" ] },
      { "delegate": "tz1WBfwbT66FC6BTLexc2BoyCCBM9LG7pnVW",
        "reception_time": "2022-01-16T02:04:39.418-00:00",
        "included_in_blocks":
          [ "BLmXoxJQwpqHYHVUApHsDj44a6QVumhVzxKtWANmYfvuzMxuJ1Q" ] },
      { "delegate": "tz1RCFbB9GpALpsZtu6J58sb74dm8qe6XBzv",
        "reception_time": "2022-01-16T02:04:39.422-00:00",
        "included_in_blocks":
          [ "BLmXoxJQwpqHYHVUApHsDj44a6QVumhVzxKtWANmYfvuzMxuJ1Q" ] },
      { "delegate": "tz1chefX9Lf2XcZ4BzPtHjV4Qed6BY2ci9GE",
        "reception_time": "2022-01-16T02:04:39.425-00:00",
        "included_in_blocks":
          [ "BLmXoxJQwpqHYHVUApHsDj44a6QVumhVzxKtWANmYfvuzMxuJ1Q" ] },
      { "delegate": "tz1TRqbYbUf2GyrjErf3hBzgBJPzW8y36qEs",
        "reception_time": "2022-01-16T02:04:39.443-00:00",
        "included_in_blocks":
          [ "BLmXoxJQwpqHYHVUApHsDj44a6QVumhVzxKtWANmYfvuzMxuJ1Q" ] },
      { "delegate": "tz3UoffC7FG7zfpmvmjUmUeAaHvzdcUvAj6r",
        "reception_time": "2022-01-16T02:04:39.484-00:00",
        "included_in_blocks":
          [ "BLmXoxJQwpqHYHVUApHsDj44a6QVumhVzxKtWANmYfvuzMxuJ1Q" ] },
      { "delegate": "tz1MGTFJXpQmtxLi8QJ7AuVRgM2L2Qfn9w9i",
        "reception_time": "2022-01-16T02:04:39.526-00:00",
        "included_in_blocks":
          [ "BLmXoxJQwpqHYHVUApHsDj44a6QVumhVzxKtWANmYfvuzMxuJ1Q" ] },
      { "delegate": "tz2FCNBrERXtaTtNX6iimR1UJ5JSDxvdHM93",
        "reception_time": "2022-01-16T02:04:39.547-00:00",
        "included_in_blocks":
          [ "BLmXoxJQwpqHYHVUApHsDj44a6QVumhVzxKtWANmYfvuzMxuJ1Q" ] },
      { "delegate": "tz1axcnVN9tZnCe4sQQhC6f3tfSEXdjPaXPY",
        "reception_time": "2022-01-16T02:04:39.571-00:00",
        "included_in_blocks":
          [ "BLmXoxJQwpqHYHVUApHsDj44a6QVumhVzxKtWANmYfvuzMxuJ1Q" ] },
      { "delegate": "tz1cig1EHyvZd7J2k389moM9PxVgPQvmFkvi",
        "reception_time": "2022-01-16T02:04:39.591-00:00",
        "included_in_blocks":
          [ "BLmXoxJQwpqHYHVUApHsDj44a6QVumhVzxKtWANmYfvuzMxuJ1Q" ] },
      { "delegate": "tz1g8vkmcde6sWKaG2NN9WKzCkDM6Rziq194",
        "reception_time": "2022-01-16T02:04:39.663-00:00",
        "included_in_blocks":
          [ "BLmXoxJQwpqHYHVUApHsDj44a6QVumhVzxKtWANmYfvuzMxuJ1Q" ] },
      { "delegate": "tz1Nf6tsK4G6bBqgSQERy4nUtkHNKUVdh7q1",
        "reception_time": "2022-01-16T02:04:39.677-00:00",
        "included_in_blocks":
          [ "BLmXoxJQwpqHYHVUApHsDj44a6QVumhVzxKtWANmYfvuzMxuJ1Q" ] },
      { "delegate": "tz1PeZx7FXy7QRuMREGXGxeipb24RsMMzUNe",
        "reception_time": "2022-01-16T02:04:39.682-00:00",
        "included_in_blocks":
          [ "BLmXoxJQwpqHYHVUApHsDj44a6QVumhVzxKtWANmYfvuzMxuJ1Q" ] },
      { "delegate": "tz3RB4aoyjov4KEVRbuhvQ1CKJgBJMWhaeB8",
        "reception_time": "2022-01-16T02:04:39.726-00:00",
        "included_in_blocks":
          [ "BLmXoxJQwpqHYHVUApHsDj44a6QVumhVzxKtWANmYfvuzMxuJ1Q" ] },
      { "delegate": "tz3VEZ4k6a4Wx42iyev6i2aVAptTRLEAivNN",
        "reception_time": "2022-01-16T02:04:39.831-00:00",
        "included_in_blocks":
          [ "BLmXoxJQwpqHYHVUApHsDj44a6QVumhVzxKtWANmYfvuzMxuJ1Q" ] },
      { "delegate": "tz1awXW7wuXy21c66vBudMXQVAPgRnqqwgTH",
        "reception_time": "2022-01-16T02:04:39.857-00:00",
        "included_in_blocks":
          [ "BLmXoxJQwpqHYHVUApHsDj44a6QVumhVzxKtWANmYfvuzMxuJ1Q" ] },
      { "delegate": "tz3gLTu4Yxj8tPAcriQVUdxv6BY9QyvzU1az",
        "reception_time": "2022-01-16T02:04:39.895-00:00",
        "included_in_blocks":
          [ "BLmXoxJQwpqHYHVUApHsDj44a6QVumhVzxKtWANmYfvuzMxuJ1Q" ] },
      { "delegate": "tz3NDpRj6WBrJPikcPVHRBEjWKxFw3c6eQPS",
        "reception_time": "2022-01-16T02:04:39.908-00:00",
        "included_in_blocks":
          [ "BLmXoxJQwpqHYHVUApHsDj44a6QVumhVzxKtWANmYfvuzMxuJ1Q" ] },
      { "delegate": "tz1NMNQYrYrfNpmUqQrMhJypf6ovnaDZhJHM",
        "reception_time": "2022-01-16T02:04:39.930-00:00",
        "included_in_blocks":
          [ "BLmXoxJQwpqHYHVUApHsDj44a6QVumhVzxKtWANmYfvuzMxuJ1Q" ] },
      { "delegate": "tz1NRGxXV9h6SdNaZLcgmjuLx3hyy2f8YoGN",
        "reception_time": "2022-01-16T02:04:40.085-00:00",
        "included_in_blocks":
          [ "BLmXoxJQwpqHYHVUApHsDj44a6QVumhVzxKtWANmYfvuzMxuJ1Q" ] },
      { "delegate": "tz1UvkANVPWppVgMkLnvN7BwYZsCP7vm6NVd",
        "reception_time": "2022-01-16T02:04:40.136-00:00",
        "included_in_blocks":
          [ "BLmXoxJQwpqHYHVUApHsDj44a6QVumhVzxKtWANmYfvuzMxuJ1Q" ] },
      { "delegate": "tz3bvNMQ95vfAYtG8193ymshqjSvmxiCUuR5",
        "reception_time": "2022-01-16T02:04:40.164-00:00",
        "included_in_blocks":
          [ "BLmXoxJQwpqHYHVUApHsDj44a6QVumhVzxKtWANmYfvuzMxuJ1Q" ] },
      { "delegate": "tz1dNVDWPf3Q59SdJqnjdnu277iyvReiRS9M",
        "reception_time": "2022-01-16T02:04:40.177-00:00",
        "included_in_blocks":
          [ "BLmXoxJQwpqHYHVUApHsDj44a6QVumhVzxKtWANmYfvuzMxuJ1Q" ] },
      { "delegate": "tz1T7duV5gZWSTq4YpBGbXNLTfznCLDrFxvs",
        "reception_time": "2022-01-16T02:04:40.333-00:00",
        "included_in_blocks":
          [ "BLmXoxJQwpqHYHVUApHsDj44a6QVumhVzxKtWANmYfvuzMxuJ1Q" ] },
      { "delegate": "tz3RDC3Jdn4j15J7bBHZd29EUee9gVB1CxD9",
        "reception_time": "2022-01-16T02:04:40.401-00:00",
        "included_in_blocks":
          [ "BLmXoxJQwpqHYHVUApHsDj44a6QVumhVzxKtWANmYfvuzMxuJ1Q" ] },
      { "delegate": "tz3WMqdzXqRWXwyvj5Hp2H7QEepaUuS7vd9K",
        "reception_time": "2022-01-16T02:04:40.409-00:00",
        "included_in_blocks":
          [ "BLmXoxJQwpqHYHVUApHsDj44a6QVumhVzxKtWANmYfvuzMxuJ1Q" ] },
      { "delegate": "tz1dRKU4FQ9QRRQPdaH4zCR6gmCmXfcvcgtB",
        "reception_time": "2022-01-16T02:04:40.432-00:00",
        "included_in_blocks":
          [ "BLmXoxJQwpqHYHVUApHsDj44a6QVumhVzxKtWANmYfvuzMxuJ1Q" ] },
      { "delegate": "tz1NEKxGEHsFufk87CVZcrqWu8o22qh46GK6",
        "reception_time": "2022-01-16T02:04:40.452-00:00",
        "included_in_blocks":
          [ "BLmXoxJQwpqHYHVUApHsDj44a6QVumhVzxKtWANmYfvuzMxuJ1Q" ] },
      { "delegate": "tz3NExpXn9aPNZPorRE4SdjJ2RGrfbJgMAaV",
        "reception_time": "2022-01-16T02:04:40.487-00:00",
        "included_in_blocks":
          [ "BLmXoxJQwpqHYHVUApHsDj44a6QVumhVzxKtWANmYfvuzMxuJ1Q" ] },
      { "delegate": "tz1cYufsxHXJcvANhvS55h3aY32a9BAFB494",
        "reception_time": "2022-01-16T02:04:40.704-00:00",
        "included_in_blocks":
          [ "BLmXoxJQwpqHYHVUApHsDj44a6QVumhVzxKtWANmYfvuzMxuJ1Q" ] },
      { "delegate": "tz1aRoaRhSpRYvFdyvgWLL6TGyRoGF51wDjM",
        "reception_time": "2022-01-16T02:04:40.916-00:00",
        "included_in_blocks":
          [ "BLmXoxJQwpqHYHVUApHsDj44a6QVumhVzxKtWANmYfvuzMxuJ1Q" ] },
      { "delegate": "tz1cM8Xc7ZP1TrjkTeKq4PeRhtbnwXSBR6Sw",
        "reception_time": "2022-01-16T02:04:41.602-00:00",
        "included_in_blocks":
          [ "BLmXoxJQwpqHYHVUApHsDj44a6QVumhVzxKtWANmYfvuzMxuJ1Q" ] },
      { "delegate": "tz1W5VkdB5s7ENMESVBtwyt9kyvLqPcUczRT",
        "reception_time": "2022-01-16T02:04:41.714-00:00",
        "included_in_blocks":
          [ "BLmXoxJQwpqHYHVUApHsDj44a6QVumhVzxKtWANmYfvuzMxuJ1Q" ] },
      { "delegate": "tz1Z1WwoqgRFbLE3YNdYRpCx44NSfiMJzeAG",
        "reception_time": "2022-01-16T02:04:45.815-00:00",
        "included_in_blocks":
          [ "BLmXoxJQwpqHYHVUApHsDj44a6QVumhVzxKtWANmYfvuzMxuJ1Q" ] },
      { "delegate": "tz1NpWrAyDL9k2Lmnyxcgr9xuJakbBxdq7FB",
        "reception_time": "2022-01-16T02:04:45.954-00:00",
        "included_in_blocks":
          [ "BLmXoxJQwpqHYHVUApHsDj44a6QVumhVzxKtWANmYfvuzMxuJ1Q" ] },
      { "delegate": "tz3e7LbZvUtoXhpUD1yb6wuFodZpfYRb9nWJ",
        "reception_time": "2022-01-16T02:04:47.458-00:00",
        "included_in_blocks":
          [ "BLmXoxJQwpqHYHVUApHsDj44a6QVumhVzxKtWANmYfvuzMxuJ1Q" ] } ] }