{ "blocks":
    [ { "hash": "BKzQk4AJRDDcsnWLmjLcD8NeeF5esu7qSPqKxgQmbeCqJSXBdKF",
        "delegate": "tz1VQnqCCqX4K5sP3FNkVSNKTdCAMJDd3E1n",
        "reception_time": "2022-01-15T21:56:25.216-00:00",
        "timestamp": "2022-01-15T21:56:20Z" } ],
  "endorsements":
    [ { "delegate": "tz1irJKkXS2DBWkU1NnmFQx1c1L7pbGg4yhk",
        "reception_time": "2022-01-15T21:56:25.093-00:00",
        "errors":
          [ { "kind": "temporary",
              "id": "proto.011-PtHangz2.prefilter.outdated_endorsement" } ],
        "included_in_blocks":
          [ "BL1VZj8JwYVx5obhsRLNc8Lar3UL58UrmjNAxDkxYTjF6MPam69" ] },
      { "delegate": "tz1Scdr2HsZiQjc7bHMeBbmDRXYVvdhjJbBh",
        "reception_time": "2022-01-15T21:56:24.917-00:00",
        "errors":
          [ { "kind": "temporary",
              "id": "proto.011-PtHangz2.prefilter.outdated_endorsement" } ],
        "included_in_blocks":
          [ "BL1VZj8JwYVx5obhsRLNc8Lar3UL58UrmjNAxDkxYTjF6MPam69" ] },
      { "delegate": "tz1Zhv3RkfU2pHrmaiDyxp7kFZpZrUCu1CiF",
        "reception_time": "2022-01-15T21:56:24.754-00:00",
        "errors":
          [ { "kind": "temporary",
              "id": "proto.011-PtHangz2.prefilter.outdated_endorsement" } ],
        "included_in_blocks":
          [ "BL1VZj8JwYVx5obhsRLNc8Lar3UL58UrmjNAxDkxYTjF6MPam69" ] },
      { "delegate": "tz1P2Po7YM526ughEsRbY4oR9zaUPDZjxFrb",
        "reception_time": "2022-01-15T21:56:24.673-00:00",
        "errors":
          [ { "kind": "temporary",
              "id": "proto.011-PtHangz2.prefilter.outdated_endorsement" } ],
        "included_in_blocks":
          [ "BL1VZj8JwYVx5obhsRLNc8Lar3UL58UrmjNAxDkxYTjF6MPam69" ] },
      { "delegate": "tz1S8e9GgdZG78XJRB3NqabfWeM37GnhZMWQ",
        "reception_time": "2022-01-15T21:56:24.629-00:00",
        "errors":
          [ { "kind": "temporary",
              "id": "proto.011-PtHangz2.prefilter.outdated_endorsement" } ],
        "included_in_blocks":
          [ "BL1VZj8JwYVx5obhsRLNc8Lar3UL58UrmjNAxDkxYTjF6MPam69" ] },
      { "delegate": "tz1NMdMmWZN8QPB8pY4ddncACDg1cHi1xD2e" },
      { "delegate": "tz1NdhRv643wLW6zCcRP3VfT24dvDnh7nuh9" },
      { "delegate": "tz1eEnQhbwf6trb8Q8mPb2RaPkNk2rN7BKi8",
        "reception_time": "2022-01-15T21:56:25.844-00:00",
        "included_in_blocks":
          [ "BL1VZj8JwYVx5obhsRLNc8Lar3UL58UrmjNAxDkxYTjF6MPam69" ] },
      { "delegate": "tz1VQnqCCqX4K5sP3FNkVSNKTdCAMJDd3E1n",
        "reception_time": "2022-01-15T21:56:26.795-00:00",
        "included_in_blocks":
          [ "BL1VZj8JwYVx5obhsRLNc8Lar3UL58UrmjNAxDkxYTjF6MPam69" ] },
      { "delegate": "tz1gUNyn3hmnEWqkusWPzxRaon1cs7ndWh7h",
        "reception_time": "2022-01-15T21:56:26.806-00:00",
        "included_in_blocks":
          [ "BL1VZj8JwYVx5obhsRLNc8Lar3UL58UrmjNAxDkxYTjF6MPam69" ] },
      { "delegate": "tz3S6BBeKgJGXxvLyZ1xzXzMPn11nnFtq5L9",
        "reception_time": "2022-01-15T21:56:26.824-00:00",
        "included_in_blocks":
          [ "BL1VZj8JwYVx5obhsRLNc8Lar3UL58UrmjNAxDkxYTjF6MPam69" ] },
      { "delegate": "tz3iJu5vrKZcsqRPs8yJ61UDoeEXZmtro4qh",
        "reception_time": "2022-01-15T21:56:26.824-00:00",
        "included_in_blocks":
          [ "BL1VZj8JwYVx5obhsRLNc8Lar3UL58UrmjNAxDkxYTjF6MPam69" ] },
      { "delegate": "tz1ZPh7XfUaJXUDvkrBxmS1BjEM1i62hiPpM",
        "reception_time": "2022-01-15T21:56:26.835-00:00",
        "included_in_blocks":
          [ "BL1VZj8JwYVx5obhsRLNc8Lar3UL58UrmjNAxDkxYTjF6MPam69" ] },
      { "delegate": "tz3gtoUxdudfBRcNY7iVdKPHCYYX6xdPpoRS",
        "reception_time": "2022-01-15T21:56:26.848-00:00",
        "included_in_blocks":
          [ "BL1VZj8JwYVx5obhsRLNc8Lar3UL58UrmjNAxDkxYTjF6MPam69" ] },
      { "delegate": "tz3QCNyySViKHmeSr45kzDxzchys7NiXCWoa",
        "reception_time": "2022-01-15T21:56:26.861-00:00",
        "included_in_blocks":
          [ "BL1VZj8JwYVx5obhsRLNc8Lar3UL58UrmjNAxDkxYTjF6MPam69" ] },
      { "delegate": "tz3QSGPoRp3Kn7n3vY24eYeu3Peuqo45LQ4D",
        "reception_time": "2022-01-15T21:56:26.868-00:00",
        "included_in_blocks":
          [ "BL1VZj8JwYVx5obhsRLNc8Lar3UL58UrmjNAxDkxYTjF6MPam69" ] },
      { "delegate": "tz1MJx9vhaNRSimcuXPK2rW4fLccQnDAnVKJ",
        "reception_time": "2022-01-15T21:56:26.881-00:00",
        "included_in_blocks":
          [ "BL1VZj8JwYVx5obhsRLNc8Lar3UL58UrmjNAxDkxYTjF6MPam69" ] },
      { "delegate": "tz3Zhs2dygr55yHyQyKjntAtY9bgfhLZ4Xj1",
        "reception_time": "2022-01-15T21:56:26.889-00:00",
        "included_in_blocks":
          [ "BL1VZj8JwYVx5obhsRLNc8Lar3UL58UrmjNAxDkxYTjF6MPam69" ] },
      { "delegate": "tz3NxTnke1acr8o3h5y9ytf5awQBGNJUKzVU",
        "reception_time": "2022-01-15T21:56:26.925-00:00",
        "included_in_blocks":
          [ "BL1VZj8JwYVx5obhsRLNc8Lar3UL58UrmjNAxDkxYTjF6MPam69" ] },
      { "delegate": "tz1gfArv665EUkSg2ojMBzcbfwuPxAvqPvjo",
        "reception_time": "2022-01-15T21:56:26.930-00:00",
        "included_in_blocks":
          [ "BL1VZj8JwYVx5obhsRLNc8Lar3UL58UrmjNAxDkxYTjF6MPam69" ] },
      { "delegate": "tz1VmiY38m3y95HqQLjMwqnMS7sdMfGomzKi",
        "reception_time": "2022-01-15T21:56:26.930-00:00",
        "included_in_blocks":
          [ "BL1VZj8JwYVx5obhsRLNc8Lar3UL58UrmjNAxDkxYTjF6MPam69" ] },
      { "delegate": "tz1Ldzz6k1BHdhuKvAtMRX7h5kJSMHESMHLC",
        "reception_time": "2022-01-15T21:56:26.950-00:00",
        "included_in_blocks":
          [ "BL1VZj8JwYVx5obhsRLNc8Lar3UL58UrmjNAxDkxYTjF6MPam69" ] },
      { "delegate": "tz3QT9dHYKDqh563chVa6za8526ys1UKfRfL",
        "reception_time": "2022-01-15T21:56:26.962-00:00",
        "included_in_blocks":
          [ "BL1VZj8JwYVx5obhsRLNc8Lar3UL58UrmjNAxDkxYTjF6MPam69" ] },
      { "delegate": "tz3RKYFsLuQzKBtmYuLNas7uMu3AsYd4QdsA",
        "reception_time": "2022-01-15T21:56:26.987-00:00",
        "included_in_blocks":
          [ "BL1VZj8JwYVx5obhsRLNc8Lar3UL58UrmjNAxDkxYTjF6MPam69" ] },
      { "delegate": "tz1aXD7Jigrt3PBYSpHSg5Rr33SexMmmM5Ys",
        "reception_time": "2022-01-15T21:56:26.987-00:00",
        "included_in_blocks":
          [ "BL1VZj8JwYVx5obhsRLNc8Lar3UL58UrmjNAxDkxYTjF6MPam69" ] },
      { "delegate": "tz3ZbP2pM3nwvXztbuMJwJnDvV5xdpU8UkkD",
        "reception_time": "2022-01-15T21:56:27.001-00:00",
        "included_in_blocks":
          [ "BL1VZj8JwYVx5obhsRLNc8Lar3UL58UrmjNAxDkxYTjF6MPam69" ] },
      { "delegate": "tz1a51WYsAsoh4fs4A4x5aCN6Za26mpfDfTi",
        "reception_time": "2022-01-15T21:56:27.007-00:00",
        "included_in_blocks":
          [ "BL1VZj8JwYVx5obhsRLNc8Lar3UL58UrmjNAxDkxYTjF6MPam69" ] },
      { "delegate": "tz1PWCDnz783NNGGQjEFFsHtrcK5yBW4E2rm",
        "reception_time": "2022-01-15T21:56:27.014-00:00",
        "included_in_blocks":
          [ "BL1VZj8JwYVx5obhsRLNc8Lar3UL58UrmjNAxDkxYTjF6MPam69" ] },
      { "delegate": "tz1WCd2jm4uSt4vntk4vSuUWoZQGhLcDuR9q",
        "reception_time": "2022-01-15T21:56:27.016-00:00",
        "included_in_blocks":
          [ "BL1VZj8JwYVx5obhsRLNc8Lar3UL58UrmjNAxDkxYTjF6MPam69" ] },
      { "delegate": "tz3hw2kqXhLUvY65ca1eety2oQTpAvd34R9Q",
        "reception_time": "2022-01-15T21:56:27.056-00:00",
        "included_in_blocks":
          [ "BL1VZj8JwYVx5obhsRLNc8Lar3UL58UrmjNAxDkxYTjF6MPam69" ] },
      { "delegate": "tz1aqcYgG6NuViML5vdWhohHJBYxcDVLNUsE",
        "reception_time": "2022-01-15T21:56:27.059-00:00",
        "included_in_blocks":
          [ "BL1VZj8JwYVx5obhsRLNc8Lar3UL58UrmjNAxDkxYTjF6MPam69" ] },
      { "delegate": "tz1MQMiZHV8q4tTwUMWmS5Y3kaP6J2136iXr",
        "reception_time": "2022-01-15T21:56:27.064-00:00",
        "included_in_blocks":
          [ "BL1VZj8JwYVx5obhsRLNc8Lar3UL58UrmjNAxDkxYTjF6MPam69" ] },
      { "delegate": "tz1RCFbB9GpALpsZtu6J58sb74dm8qe6XBzv",
        "reception_time": "2022-01-15T21:56:27.073-00:00",
        "included_in_blocks":
          [ "BL1VZj8JwYVx5obhsRLNc8Lar3UL58UrmjNAxDkxYTjF6MPam69" ] },
      { "delegate": "tz3bvNMQ95vfAYtG8193ymshqjSvmxiCUuR5",
        "reception_time": "2022-01-15T21:56:27.080-00:00",
        "included_in_blocks":
          [ "BL1VZj8JwYVx5obhsRLNc8Lar3UL58UrmjNAxDkxYTjF6MPam69" ] },
      { "delegate": "tz1WBfwbT66FC6BTLexc2BoyCCBM9LG7pnVW",
        "reception_time": "2022-01-15T21:56:27.106-00:00",
        "included_in_blocks":
          [ "BL1VZj8JwYVx5obhsRLNc8Lar3UL58UrmjNAxDkxYTjF6MPam69" ] },
      { "delegate": "tz1cSj7fTex3JPd1p1LN1fwek6AV1kH93Wwc",
        "reception_time": "2022-01-15T21:56:27.109-00:00",
        "included_in_blocks":
          [ "BL1VZj8JwYVx5obhsRLNc8Lar3UL58UrmjNAxDkxYTjF6MPam69" ] },
      { "delegate": "tz3bTdwZinP8U1JmSweNzVKhmwafqWmFWRfk",
        "reception_time": "2022-01-15T21:56:27.117-00:00",
        "included_in_blocks":
          [ "BL1VZj8JwYVx5obhsRLNc8Lar3UL58UrmjNAxDkxYTjF6MPam69" ] },
      { "delegate": "tz1iKBrRDQpmewxXR7t5Gqs1gi6G77MvDhoJ",
        "reception_time": "2022-01-15T21:56:27.119-00:00",
        "included_in_blocks":
          [ "BL1VZj8JwYVx5obhsRLNc8Lar3UL58UrmjNAxDkxYTjF6MPam69" ] },
      { "delegate": "tz1R4PuhxUxBBZhfLJDx2nNjbr7WorAPX1oC",
        "reception_time": "2022-01-15T21:56:27.124-00:00",
        "included_in_blocks":
          [ "BL1VZj8JwYVx5obhsRLNc8Lar3UL58UrmjNAxDkxYTjF6MPam69" ] },
      { "delegate": "tz1RQhNh7iB9CZA7i3ifTWNwiGYVffponfbB",
        "reception_time": "2022-01-15T21:56:27.128-00:00",
        "included_in_blocks":
          [ "BL1VZj8JwYVx5obhsRLNc8Lar3UL58UrmjNAxDkxYTjF6MPam69" ] },
      { "delegate": "tz1fPKAtsYydh4f1wfWNfeNxWYu72TmM48fu",
        "reception_time": "2022-01-15T21:56:27.131-00:00",
        "included_in_blocks":
          [ "BL1VZj8JwYVx5obhsRLNc8Lar3UL58UrmjNAxDkxYTjF6MPam69" ] },
      { "delegate": "tz1dwu9aYb7CRNq4Y2zAjipdjFuSVKhHS8vA",
        "reception_time": "2022-01-15T21:56:27.134-00:00",
        "included_in_blocks":
          [ "BL1VZj8JwYVx5obhsRLNc8Lar3UL58UrmjNAxDkxYTjF6MPam69" ] },
      { "delegate": "tz3RDC3Jdn4j15J7bBHZd29EUee9gVB1CxD9",
        "reception_time": "2022-01-15T21:56:27.145-00:00",
        "included_in_blocks":
          [ "BL1VZj8JwYVx5obhsRLNc8Lar3UL58UrmjNAxDkxYTjF6MPam69" ] },
      { "delegate": "tz1ei4WtWEMEJekSv8qDnu9PExG6Q8HgRGr3",
        "reception_time": "2022-01-15T21:56:27.149-00:00",
        "included_in_blocks":
          [ "BL1VZj8JwYVx5obhsRLNc8Lar3UL58UrmjNAxDkxYTjF6MPam69" ] },
      { "delegate": "tz1SYq214SCBy9naR6cvycQsYcUGpBqQAE8d",
        "reception_time": "2022-01-15T21:56:27.184-00:00",
        "included_in_blocks":
          [ "BL1VZj8JwYVx5obhsRLNc8Lar3UL58UrmjNAxDkxYTjF6MPam69" ] },
      { "delegate": "tz1MQJPGNMijnXnVoBENFz9rUhaPt3S7rWoz",
        "reception_time": "2022-01-15T21:56:27.200-00:00",
        "included_in_blocks":
          [ "BL1VZj8JwYVx5obhsRLNc8Lar3UL58UrmjNAxDkxYTjF6MPam69" ] },
      { "delegate": "tz1S8MNvuFEUsWgjHvi3AxibRBf388NhT1q2",
        "reception_time": "2022-01-15T21:56:27.236-00:00",
        "included_in_blocks":
          [ "BL1VZj8JwYVx5obhsRLNc8Lar3UL58UrmjNAxDkxYTjF6MPam69" ] },
      { "delegate": "tz1Nf6tsK4G6bBqgSQERy4nUtkHNKUVdh7q1",
        "reception_time": "2022-01-15T21:56:27.238-00:00",
        "included_in_blocks":
          [ "BL1VZj8JwYVx5obhsRLNc8Lar3UL58UrmjNAxDkxYTjF6MPam69" ] },
      { "delegate": "tz1KfEsrtDaA1sX7vdM4qmEPWuSytuqCDp5j",
        "reception_time": "2022-01-15T21:56:27.251-00:00",
        "included_in_blocks":
          [ "BL1VZj8JwYVx5obhsRLNc8Lar3UL58UrmjNAxDkxYTjF6MPam69" ] },
      { "delegate": "tz1MivraUX9U6nmGAQkm7XkrNVmsPExEUT1W",
        "reception_time": "2022-01-15T21:56:27.270-00:00",
        "included_in_blocks":
          [ "BL1VZj8JwYVx5obhsRLNc8Lar3UL58UrmjNAxDkxYTjF6MPam69" ] },
      { "delegate": "tz3gLTu4Yxj8tPAcriQVUdxv6BY9QyvzU1az",
        "reception_time": "2022-01-15T21:56:27.464-00:00",
        "included_in_blocks":
          [ "BL1VZj8JwYVx5obhsRLNc8Lar3UL58UrmjNAxDkxYTjF6MPam69" ] },
      { "delegate": "tz3NDpRj6WBrJPikcPVHRBEjWKxFw3c6eQPS",
        "reception_time": "2022-01-15T21:56:27.478-00:00",
        "included_in_blocks":
          [ "BL1VZj8JwYVx5obhsRLNc8Lar3UL58UrmjNAxDkxYTjF6MPam69" ] },
      { "delegate": "tz1NSDFKuRyzHxpfG1AMkyCwEiZ52cbR2mRW",
        "reception_time": "2022-01-15T21:56:27.487-00:00",
        "included_in_blocks":
          [ "BL1VZj8JwYVx5obhsRLNc8Lar3UL58UrmjNAxDkxYTjF6MPam69" ] },
      { "delegate": "tz1iPHM2Xx2hwmzcr1EG1zzrV6oKafVoA91m",
        "reception_time": "2022-01-15T21:56:27.600-00:00",
        "included_in_blocks":
          [ "BL1VZj8JwYVx5obhsRLNc8Lar3UL58UrmjNAxDkxYTjF6MPam69" ] },
      { "delegate": "tz1PeZx7FXy7QRuMREGXGxeipb24RsMMzUNe",
        "reception_time": "2022-01-15T21:56:27.633-00:00",
        "included_in_blocks":
          [ "BL1VZj8JwYVx5obhsRLNc8Lar3UL58UrmjNAxDkxYTjF6MPam69" ] },
      { "delegate": "tz2FCNBrERXtaTtNX6iimR1UJ5JSDxvdHM93",
        "reception_time": "2022-01-15T21:56:27.826-00:00",
        "included_in_blocks":
          [ "BL1VZj8JwYVx5obhsRLNc8Lar3UL58UrmjNAxDkxYTjF6MPam69" ] },
      { "delegate": "tz1NEKxGEHsFufk87CVZcrqWu8o22qh46GK6",
        "reception_time": "2022-01-15T21:56:27.861-00:00",
        "included_in_blocks":
          [ "BL1VZj8JwYVx5obhsRLNc8Lar3UL58UrmjNAxDkxYTjF6MPam69" ] },
      { "delegate": "tz1aRoaRhSpRYvFdyvgWLL6TGyRoGF51wDjM",
        "reception_time": "2022-01-15T21:56:27.992-00:00",
        "included_in_blocks":
          [ "BL1VZj8JwYVx5obhsRLNc8Lar3UL58UrmjNAxDkxYTjF6MPam69" ] },
      { "delegate": "tz3WMqdzXqRWXwyvj5Hp2H7QEepaUuS7vd9K",
        "reception_time": "2022-01-15T21:56:28.021-00:00",
        "included_in_blocks":
          [ "BL1VZj8JwYVx5obhsRLNc8Lar3UL58UrmjNAxDkxYTjF6MPam69" ] },
      { "delegate": "tz1RjoHc98dBoqaH2jawF62XNKh7YsHwbkEv",
        "reception_time": "2022-01-15T21:56:28.033-00:00",
        "included_in_blocks":
          [ "BL1VZj8JwYVx5obhsRLNc8Lar3UL58UrmjNAxDkxYTjF6MPam69" ] },
      { "delegate": "tz3VEZ4k6a4Wx42iyev6i2aVAptTRLEAivNN",
        "reception_time": "2022-01-15T21:56:28.087-00:00",
        "included_in_blocks":
          [ "BL1VZj8JwYVx5obhsRLNc8Lar3UL58UrmjNAxDkxYTjF6MPam69" ] },
      { "delegate": "tz1fikAGfa1MTxX2oJ7UCtvDpVKeH4KTp1UY",
        "reception_time": "2022-01-15T21:56:28.155-00:00",
        "included_in_blocks":
          [ "BL1VZj8JwYVx5obhsRLNc8Lar3UL58UrmjNAxDkxYTjF6MPam69" ] },
      { "delegate": "tz1NL14EZjUmY9eEdk1ejyACEaTuwVGVKEeU",
        "reception_time": "2022-01-15T21:56:28.322-00:00",
        "included_in_blocks":
          [ "BL1VZj8JwYVx5obhsRLNc8Lar3UL58UrmjNAxDkxYTjF6MPam69" ] },
      { "delegate": "tz3NExpXn9aPNZPorRE4SdjJ2RGrfbJgMAaV",
        "reception_time": "2022-01-15T21:56:28.350-00:00",
        "included_in_blocks":
          [ "BL1VZj8JwYVx5obhsRLNc8Lar3UL58UrmjNAxDkxYTjF6MPam69" ] },
      { "delegate": "tz1TRqbYbUf2GyrjErf3hBzgBJPzW8y36qEs",
        "reception_time": "2022-01-15T21:56:28.832-00:00",
        "included_in_blocks":
          [ "BL1VZj8JwYVx5obhsRLNc8Lar3UL58UrmjNAxDkxYTjF6MPam69" ] },
      { "delegate": "tz3UoffC7FG7zfpmvmjUmUeAaHvzdcUvAj6r",
        "reception_time": "2022-01-15T21:56:28.915-00:00",
        "included_in_blocks":
          [ "BL1VZj8JwYVx5obhsRLNc8Lar3UL58UrmjNAxDkxYTjF6MPam69" ] },
      { "delegate": "tz1cYufsxHXJcvANhvS55h3aY32a9BAFB494",
        "reception_time": "2022-01-15T21:56:29.034-00:00",
        "included_in_blocks":
          [ "BL1VZj8JwYVx5obhsRLNc8Lar3UL58UrmjNAxDkxYTjF6MPam69" ] },
      { "delegate": "tz1awXW7wuXy21c66vBudMXQVAPgRnqqwgTH",
        "reception_time": "2022-01-15T21:56:29.925-00:00",
        "included_in_blocks":
          [ "BL1VZj8JwYVx5obhsRLNc8Lar3UL58UrmjNAxDkxYTjF6MPam69" ] },
      { "delegate": "tz1go7f6mEQfT2xX2LuHAqgnRGN6c2zHPf5c",
        "reception_time": "2022-01-15T21:56:34.233-00:00",
        "included_in_blocks":
          [ "BL1VZj8JwYVx5obhsRLNc8Lar3UL58UrmjNAxDkxYTjF6MPam69" ] },
      { "delegate": "tz3e7LbZvUtoXhpUD1yb6wuFodZpfYRb9nWJ",
        "reception_time": "2022-01-15T21:56:34.456-00:00",
        "included_in_blocks":
          [ "BL1VZj8JwYVx5obhsRLNc8Lar3UL58UrmjNAxDkxYTjF6MPam69" ] },
      { "delegate": "tz2BzJTyoQp8fNbfhWD4YQgH9JJHDgSGzpdG",
        "reception_time": "2022-01-15T21:56:36.195-00:00",
        "included_in_blocks":
          [ "BL1VZj8JwYVx5obhsRLNc8Lar3UL58UrmjNAxDkxYTjF6MPam69" ] },
      { "delegate": "tz1NpWrAyDL9k2Lmnyxcgr9xuJakbBxdq7FB",
        "reception_time": "2022-01-15T21:56:37.820-00:00",
        "included_in_blocks":
          [ "BL1VZj8JwYVx5obhsRLNc8Lar3UL58UrmjNAxDkxYTjF6MPam69" ] } ] }