{ "blocks":
    [ { "hash": "BLLFiYmo2tc7MAqhygigpTkafnthBq9JHgsr329qNJrpNfcRp5B",
        "delegate": "tz1irJKkXS2DBWkU1NnmFQx1c1L7pbGg4yhk",
        "reception_time": "2022-01-15T23:10:26.097-00:00",
        "timestamp": "2022-01-15T23:10:20Z" } ],
  "endorsements":
    [ { "delegate": "tz1eEnQhbwf6trb8Q8mPb2RaPkNk2rN7BKi8",
        "reception_time": "2022-01-15T23:10:25.957-00:00",
        "errors":
          [ { "kind": "temporary",
              "id": "proto.011-PtHangz2.prefilter.outdated_endorsement" } ],
        "included_in_blocks":
          [ "BL9h4HmULN1XMHBe8QN7gvTmhvdsjXhP8jMVoU9zWpC5maE2x2W" ] },
      { "delegate": "tz1irJKkXS2DBWkU1NnmFQx1c1L7pbGg4yhk",
        "reception_time": "2022-01-15T23:10:25.955-00:00",
        "errors":
          [ { "kind": "temporary",
              "id": "proto.011-PtHangz2.prefilter.outdated_endorsement" } ],
        "included_in_blocks":
          [ "BL9h4HmULN1XMHBe8QN7gvTmhvdsjXhP8jMVoU9zWpC5maE2x2W" ] },
      { "delegate": "tz1beersuEDv8Z7ngQ825xfbaJNS2EhXnyHR",
        "reception_time": "2022-01-15T23:10:25.887-00:00",
        "errors":
          [ { "kind": "temporary",
              "id": "proto.011-PtHangz2.prefilter.outdated_endorsement" } ],
        "included_in_blocks":
          [ "BL9h4HmULN1XMHBe8QN7gvTmhvdsjXhP8jMVoU9zWpC5maE2x2W" ] },
      { "delegate": "tz1RV1MBbZMR68tacosb7Mwj6LkbPSUS1er1",
        "reception_time": "2022-01-15T23:10:25.804-00:00",
        "errors":
          [ { "kind": "temporary",
              "id": "proto.011-PtHangz2.prefilter.outdated_endorsement" } ],
        "included_in_blocks":
          [ "BL9h4HmULN1XMHBe8QN7gvTmhvdsjXhP8jMVoU9zWpC5maE2x2W" ] },
      { "delegate": "tz1P2Po7YM526ughEsRbY4oR9zaUPDZjxFrb",
        "reception_time": "2022-01-15T23:10:25.713-00:00",
        "errors":
          [ { "kind": "temporary",
              "id": "proto.011-PtHangz2.prefilter.outdated_endorsement" } ],
        "included_in_blocks":
          [ "BL9h4HmULN1XMHBe8QN7gvTmhvdsjXhP8jMVoU9zWpC5maE2x2W" ] },
      { "delegate": "tz1MXFrtZoaXckE41bjUCSjAjAap3AFDSr3N",
        "reception_time": "2022-01-15T23:10:25.683-00:00",
        "errors":
          [ { "kind": "temporary",
              "id": "proto.011-PtHangz2.prefilter.outdated_endorsement" } ],
        "included_in_blocks":
          [ "BL9h4HmULN1XMHBe8QN7gvTmhvdsjXhP8jMVoU9zWpC5maE2x2W" ] },
      { "delegate": "tz1S8e9GgdZG78XJRB3NqabfWeM37GnhZMWQ",
        "reception_time": "2022-01-15T23:10:25.499-00:00",
        "errors":
          [ { "kind": "temporary",
              "id": "proto.011-PtHangz2.prefilter.outdated_endorsement" } ],
        "included_in_blocks":
          [ "BL9h4HmULN1XMHBe8QN7gvTmhvdsjXhP8jMVoU9zWpC5maE2x2W" ] },
      { "delegate": "tz1dbfppLAAxXZNtf2SDps7rch3qfUznKSoK" },
      { "delegate": "tz3ZbP2pM3nwvXztbuMJwJnDvV5xdpU8UkkD",
        "reception_time": "2022-01-15T23:10:27.625-00:00",
        "included_in_blocks":
          [ "BL9h4HmULN1XMHBe8QN7gvTmhvdsjXhP8jMVoU9zWpC5maE2x2W" ] },
      { "delegate": "tz1ZPh7XfUaJXUDvkrBxmS1BjEM1i62hiPpM",
        "reception_time": "2022-01-15T23:10:27.625-00:00",
        "included_in_blocks":
          [ "BL9h4HmULN1XMHBe8QN7gvTmhvdsjXhP8jMVoU9zWpC5maE2x2W" ] },
      { "delegate": "tz1MJx9vhaNRSimcuXPK2rW4fLccQnDAnVKJ",
        "reception_time": "2022-01-15T23:10:27.625-00:00",
        "included_in_blocks":
          [ "BL9h4HmULN1XMHBe8QN7gvTmhvdsjXhP8jMVoU9zWpC5maE2x2W" ] },
      { "delegate": "tz3NxTnke1acr8o3h5y9ytf5awQBGNJUKzVU",
        "reception_time": "2022-01-15T23:10:27.625-00:00",
        "included_in_blocks":
          [ "BL9h4HmULN1XMHBe8QN7gvTmhvdsjXhP8jMVoU9zWpC5maE2x2W" ] },
      { "delegate": "tz1VQnqCCqX4K5sP3FNkVSNKTdCAMJDd3E1n",
        "reception_time": "2022-01-15T23:10:27.625-00:00",
        "included_in_blocks":
          [ "BL9h4HmULN1XMHBe8QN7gvTmhvdsjXhP8jMVoU9zWpC5maE2x2W" ] },
      { "delegate": "tz1Ldzz6k1BHdhuKvAtMRX7h5kJSMHESMHLC",
        "reception_time": "2022-01-15T23:10:27.625-00:00",
        "included_in_blocks":
          [ "BL9h4HmULN1XMHBe8QN7gvTmhvdsjXhP8jMVoU9zWpC5maE2x2W" ] },
      { "delegate": "tz1VmiY38m3y95HqQLjMwqnMS7sdMfGomzKi",
        "reception_time": "2022-01-15T23:10:27.625-00:00",
        "included_in_blocks":
          [ "BL9h4HmULN1XMHBe8QN7gvTmhvdsjXhP8jMVoU9zWpC5maE2x2W" ] },
      { "delegate": "tz1gUNyn3hmnEWqkusWPzxRaon1cs7ndWh7h",
        "reception_time": "2022-01-15T23:10:27.625-00:00",
        "included_in_blocks":
          [ "BL9h4HmULN1XMHBe8QN7gvTmhvdsjXhP8jMVoU9zWpC5maE2x2W" ] },
      { "delegate": "tz3hw2kqXhLUvY65ca1eety2oQTpAvd34R9Q",
        "reception_time": "2022-01-15T23:10:27.625-00:00",
        "included_in_blocks":
          [ "BL9h4HmULN1XMHBe8QN7gvTmhvdsjXhP8jMVoU9zWpC5maE2x2W" ] },
      { "delegate": "tz3QCNyySViKHmeSr45kzDxzchys7NiXCWoa",
        "reception_time": "2022-01-15T23:10:27.625-00:00",
        "included_in_blocks":
          [ "BL9h4HmULN1XMHBe8QN7gvTmhvdsjXhP8jMVoU9zWpC5maE2x2W" ] },
      { "delegate": "tz3RKYFsLuQzKBtmYuLNas7uMu3AsYd4QdsA",
        "reception_time": "2022-01-15T23:10:27.625-00:00",
        "included_in_blocks":
          [ "BL9h4HmULN1XMHBe8QN7gvTmhvdsjXhP8jMVoU9zWpC5maE2x2W" ] },
      { "delegate": "tz1h4GUAMweP7SNWzDgvMk3yRCAZyaP1MxZq",
        "reception_time": "2022-01-15T23:10:27.625-00:00",
        "included_in_blocks":
          [ "BL9h4HmULN1XMHBe8QN7gvTmhvdsjXhP8jMVoU9zWpC5maE2x2W" ] },
      { "delegate": "tz1fUyqYH7H4pRHN1roWY17giXhy1RvxjgUV",
        "reception_time": "2022-01-15T23:10:27.625-00:00",
        "included_in_blocks":
          [ "BL9h4HmULN1XMHBe8QN7gvTmhvdsjXhP8jMVoU9zWpC5maE2x2W" ] },
      { "delegate": "tz1Kf25fX1VdmYGSEzwFy1wNmkbSEZ2V83sY",
        "reception_time": "2022-01-15T23:10:27.625-00:00",
        "included_in_blocks":
          [ "BL9h4HmULN1XMHBe8QN7gvTmhvdsjXhP8jMVoU9zWpC5maE2x2W" ] },
      { "delegate": "tz1d6Fx42mYgVFnHUW8T8A7WBfJ6nD9pVok8",
        "reception_time": "2022-01-15T23:10:27.625-00:00",
        "included_in_blocks":
          [ "BL9h4HmULN1XMHBe8QN7gvTmhvdsjXhP8jMVoU9zWpC5maE2x2W" ] },
      { "delegate": "tz1PWCDnz783NNGGQjEFFsHtrcK5yBW4E2rm",
        "reception_time": "2022-01-15T23:10:27.626-00:00",
        "included_in_blocks":
          [ "BL9h4HmULN1XMHBe8QN7gvTmhvdsjXhP8jMVoU9zWpC5maE2x2W" ] },
      { "delegate": "tz3gtoUxdudfBRcNY7iVdKPHCYYX6xdPpoRS",
        "reception_time": "2022-01-15T23:10:27.638-00:00",
        "included_in_blocks":
          [ "BL9h4HmULN1XMHBe8QN7gvTmhvdsjXhP8jMVoU9zWpC5maE2x2W" ] },
      { "delegate": "tz1TzaNn7wSQSP5gYPXCnNzBCpyMiidCq1PX",
        "reception_time": "2022-01-15T23:10:27.641-00:00",
        "included_in_blocks":
          [ "BL9h4HmULN1XMHBe8QN7gvTmhvdsjXhP8jMVoU9zWpC5maE2x2W" ] },
      { "delegate": "tz3QT9dHYKDqh563chVa6za8526ys1UKfRfL",
        "reception_time": "2022-01-15T23:10:27.649-00:00",
        "included_in_blocks":
          [ "BL9h4HmULN1XMHBe8QN7gvTmhvdsjXhP8jMVoU9zWpC5maE2x2W" ] },
      { "delegate": "tz3iJu5vrKZcsqRPs8yJ61UDoeEXZmtro4qh",
        "reception_time": "2022-01-15T23:10:27.681-00:00",
        "included_in_blocks":
          [ "BL9h4HmULN1XMHBe8QN7gvTmhvdsjXhP8jMVoU9zWpC5maE2x2W" ] },
      { "delegate": "tz3QSGPoRp3Kn7n3vY24eYeu3Peuqo45LQ4D",
        "reception_time": "2022-01-15T23:10:27.689-00:00",
        "included_in_blocks":
          [ "BL9h4HmULN1XMHBe8QN7gvTmhvdsjXhP8jMVoU9zWpC5maE2x2W" ] },
      { "delegate": "tz3Zhs2dygr55yHyQyKjntAtY9bgfhLZ4Xj1",
        "reception_time": "2022-01-15T23:10:27.698-00:00",
        "included_in_blocks":
          [ "BL9h4HmULN1XMHBe8QN7gvTmhvdsjXhP8jMVoU9zWpC5maE2x2W" ] },
      { "delegate": "tz3S6BBeKgJGXxvLyZ1xzXzMPn11nnFtq5L9",
        "reception_time": "2022-01-15T23:10:27.715-00:00",
        "included_in_blocks":
          [ "BL9h4HmULN1XMHBe8QN7gvTmhvdsjXhP8jMVoU9zWpC5maE2x2W" ] },
      { "delegate": "tz1abmz7jiCV2GH2u81LRrGgAFFgvQgiDiaf",
        "reception_time": "2022-01-15T23:10:27.720-00:00",
        "included_in_blocks":
          [ "BL9h4HmULN1XMHBe8QN7gvTmhvdsjXhP8jMVoU9zWpC5maE2x2W" ] },
      { "delegate": "tz1WCd2jm4uSt4vntk4vSuUWoZQGhLcDuR9q",
        "reception_time": "2022-01-15T23:10:27.749-00:00",
        "included_in_blocks":
          [ "BL9h4HmULN1XMHBe8QN7gvTmhvdsjXhP8jMVoU9zWpC5maE2x2W" ] },
      { "delegate": "tz3adcvQaKXTCg12zbninqo3q8ptKKtDFTLv",
        "reception_time": "2022-01-15T23:10:27.758-00:00",
        "included_in_blocks":
          [ "BL9h4HmULN1XMHBe8QN7gvTmhvdsjXhP8jMVoU9zWpC5maE2x2W" ] },
      { "delegate": "tz3bTdwZinP8U1JmSweNzVKhmwafqWmFWRfk",
        "reception_time": "2022-01-15T23:10:27.811-00:00",
        "included_in_blocks":
          [ "BL9h4HmULN1XMHBe8QN7gvTmhvdsjXhP8jMVoU9zWpC5maE2x2W" ] },
      { "delegate": "tz1fwnfJNgiDACshK9avfRfFbMaXrs3ghoJa",
        "reception_time": "2022-01-15T23:10:27.814-00:00",
        "included_in_blocks":
          [ "BL9h4HmULN1XMHBe8QN7gvTmhvdsjXhP8jMVoU9zWpC5maE2x2W" ] },
      { "delegate": "tz1V4qCyvPKZ5UeqdH14HN42rxvNPQfc9UZg",
        "reception_time": "2022-01-15T23:10:27.829-00:00",
        "included_in_blocks":
          [ "BL9h4HmULN1XMHBe8QN7gvTmhvdsjXhP8jMVoU9zWpC5maE2x2W" ] },
      { "delegate": "tz1LmaFsWRkjr7QMCx5PtV6xTUz3AmEpKQiF",
        "reception_time": "2022-01-15T23:10:27.832-00:00",
        "included_in_blocks":
          [ "BL9h4HmULN1XMHBe8QN7gvTmhvdsjXhP8jMVoU9zWpC5maE2x2W" ] },
      { "delegate": "tz1S8MNvuFEUsWgjHvi3AxibRBf388NhT1q2",
        "reception_time": "2022-01-15T23:10:27.838-00:00",
        "included_in_blocks":
          [ "BL9h4HmULN1XMHBe8QN7gvTmhvdsjXhP8jMVoU9zWpC5maE2x2W" ] },
      { "delegate": "tz1gfArv665EUkSg2ojMBzcbfwuPxAvqPvjo",
        "reception_time": "2022-01-15T23:10:27.841-00:00",
        "included_in_blocks":
          [ "BL9h4HmULN1XMHBe8QN7gvTmhvdsjXhP8jMVoU9zWpC5maE2x2W" ] },
      { "delegate": "tz1Tnjaxk6tbAeC2TmMApPh8UsrEVQvhHvx5",
        "reception_time": "2022-01-15T23:10:27.845-00:00",
        "included_in_blocks":
          [ "BL9h4HmULN1XMHBe8QN7gvTmhvdsjXhP8jMVoU9zWpC5maE2x2W" ] },
      { "delegate": "tz1SYq214SCBy9naR6cvycQsYcUGpBqQAE8d",
        "reception_time": "2022-01-15T23:10:27.887-00:00",
        "included_in_blocks":
          [ "BL9h4HmULN1XMHBe8QN7gvTmhvdsjXhP8jMVoU9zWpC5maE2x2W" ] },
      { "delegate": "tz1dwu9aYb7CRNq4Y2zAjipdjFuSVKhHS8vA",
        "reception_time": "2022-01-15T23:10:27.916-00:00",
        "included_in_blocks":
          [ "BL9h4HmULN1XMHBe8QN7gvTmhvdsjXhP8jMVoU9zWpC5maE2x2W" ] },
      { "delegate": "tz2FCNBrERXtaTtNX6iimR1UJ5JSDxvdHM93",
        "reception_time": "2022-01-15T23:10:27.929-00:00",
        "included_in_blocks":
          [ "BL9h4HmULN1XMHBe8QN7gvTmhvdsjXhP8jMVoU9zWpC5maE2x2W" ] },
      { "delegate": "tz1Nf6tsK4G6bBqgSQERy4nUtkHNKUVdh7q1",
        "reception_time": "2022-01-15T23:10:27.938-00:00",
        "included_in_blocks":
          [ "BL9h4HmULN1XMHBe8QN7gvTmhvdsjXhP8jMVoU9zWpC5maE2x2W" ] },
      { "delegate": "tz1iMAHAVpkCVegF9FLGWUpQQeiAHh4ffdLQ",
        "reception_time": "2022-01-15T23:10:27.948-00:00",
        "included_in_blocks":
          [ "BL9h4HmULN1XMHBe8QN7gvTmhvdsjXhP8jMVoU9zWpC5maE2x2W" ] },
      { "delegate": "tz1ei4WtWEMEJekSv8qDnu9PExG6Q8HgRGr3",
        "reception_time": "2022-01-15T23:10:27.964-00:00",
        "included_in_blocks":
          [ "BL9h4HmULN1XMHBe8QN7gvTmhvdsjXhP8jMVoU9zWpC5maE2x2W" ] },
      { "delegate": "tz1KfEsrtDaA1sX7vdM4qmEPWuSytuqCDp5j",
        "reception_time": "2022-01-15T23:10:28.040-00:00",
        "included_in_blocks":
          [ "BL9h4HmULN1XMHBe8QN7gvTmhvdsjXhP8jMVoU9zWpC5maE2x2W" ] },
      { "delegate": "tz1SohptP53wDPZhzTWzDUFAUcWF6DMBpaJV",
        "reception_time": "2022-01-15T23:10:28.070-00:00",
        "included_in_blocks":
          [ "BL9h4HmULN1XMHBe8QN7gvTmhvdsjXhP8jMVoU9zWpC5maE2x2W" ] },
      { "delegate": "tz3NDpRj6WBrJPikcPVHRBEjWKxFw3c6eQPS",
        "reception_time": "2022-01-15T23:10:28.077-00:00",
        "included_in_blocks":
          [ "BL9h4HmULN1XMHBe8QN7gvTmhvdsjXhP8jMVoU9zWpC5maE2x2W" ] },
      { "delegate": "tz1UMCB2AHSTwG7YcGNr31CqYCtGN873royv",
        "reception_time": "2022-01-15T23:10:28.094-00:00",
        "included_in_blocks":
          [ "BL9h4HmULN1XMHBe8QN7gvTmhvdsjXhP8jMVoU9zWpC5maE2x2W" ] },
      { "delegate": "tz1PeZx7FXy7QRuMREGXGxeipb24RsMMzUNe",
        "reception_time": "2022-01-15T23:10:28.203-00:00",
        "included_in_blocks":
          [ "BL9h4HmULN1XMHBe8QN7gvTmhvdsjXhP8jMVoU9zWpC5maE2x2W" ] },
      { "delegate": "tz3WMqdzXqRWXwyvj5Hp2H7QEepaUuS7vd9K",
        "reception_time": "2022-01-15T23:10:28.302-00:00",
        "included_in_blocks":
          [ "BL9h4HmULN1XMHBe8QN7gvTmhvdsjXhP8jMVoU9zWpC5maE2x2W" ] },
      { "delegate": "tz1RCFbB9GpALpsZtu6J58sb74dm8qe6XBzv",
        "reception_time": "2022-01-15T23:10:28.302-00:00",
        "included_in_blocks":
          [ "BL9h4HmULN1XMHBe8QN7gvTmhvdsjXhP8jMVoU9zWpC5maE2x2W" ] },
      { "delegate": "tz3VEZ4k6a4Wx42iyev6i2aVAptTRLEAivNN",
        "reception_time": "2022-01-15T23:10:28.438-00:00",
        "included_in_blocks":
          [ "BL9h4HmULN1XMHBe8QN7gvTmhvdsjXhP8jMVoU9zWpC5maE2x2W" ] },
      { "delegate": "tz1RjoHc98dBoqaH2jawF62XNKh7YsHwbkEv",
        "reception_time": "2022-01-15T23:10:28.602-00:00",
        "included_in_blocks":
          [ "BL9h4HmULN1XMHBe8QN7gvTmhvdsjXhP8jMVoU9zWpC5maE2x2W" ] },
      { "delegate": "tz3RB4aoyjov4KEVRbuhvQ1CKJgBJMWhaeB8",
        "reception_time": "2022-01-15T23:10:28.644-00:00",
        "included_in_blocks":
          [ "BL9h4HmULN1XMHBe8QN7gvTmhvdsjXhP8jMVoU9zWpC5maE2x2W" ] },
      { "delegate": "tz3bvNMQ95vfAYtG8193ymshqjSvmxiCUuR5",
        "reception_time": "2022-01-15T23:10:28.682-00:00",
        "included_in_blocks":
          [ "BL9h4HmULN1XMHBe8QN7gvTmhvdsjXhP8jMVoU9zWpC5maE2x2W" ] },
      { "delegate": "tz1TRqbYbUf2GyrjErf3hBzgBJPzW8y36qEs",
        "reception_time": "2022-01-15T23:10:28.717-00:00",
        "included_in_blocks":
          [ "BL9h4HmULN1XMHBe8QN7gvTmhvdsjXhP8jMVoU9zWpC5maE2x2W" ] },
      { "delegate": "tz1dRKU4FQ9QRRQPdaH4zCR6gmCmXfcvcgtB",
        "reception_time": "2022-01-15T23:10:28.857-00:00",
        "included_in_blocks":
          [ "BL9h4HmULN1XMHBe8QN7gvTmhvdsjXhP8jMVoU9zWpC5maE2x2W" ] },
      { "delegate": "tz1awXW7wuXy21c66vBudMXQVAPgRnqqwgTH",
        "reception_time": "2022-01-15T23:10:29.023-00:00",
        "included_in_blocks":
          [ "BL9h4HmULN1XMHBe8QN7gvTmhvdsjXhP8jMVoU9zWpC5maE2x2W" ] },
      { "delegate": "tz1dNVDWPf3Q59SdJqnjdnu277iyvReiRS9M",
        "reception_time": "2022-01-15T23:10:29.184-00:00",
        "included_in_blocks":
          [ "BL9h4HmULN1XMHBe8QN7gvTmhvdsjXhP8jMVoU9zWpC5maE2x2W" ] },
      { "delegate": "tz3NExpXn9aPNZPorRE4SdjJ2RGrfbJgMAaV",
        "reception_time": "2022-01-15T23:10:29.321-00:00",
        "included_in_blocks":
          [ "BL9h4HmULN1XMHBe8QN7gvTmhvdsjXhP8jMVoU9zWpC5maE2x2W" ] },
      { "delegate": "tz1aRoaRhSpRYvFdyvgWLL6TGyRoGF51wDjM",
        "reception_time": "2022-01-15T23:10:29.340-00:00",
        "included_in_blocks":
          [ "BL9h4HmULN1XMHBe8QN7gvTmhvdsjXhP8jMVoU9zWpC5maE2x2W" ] },
      { "delegate": "tz3UoffC7FG7zfpmvmjUmUeAaHvzdcUvAj6r",
        "reception_time": "2022-01-15T23:10:29.399-00:00",
        "included_in_blocks":
          [ "BL9h4HmULN1XMHBe8QN7gvTmhvdsjXhP8jMVoU9zWpC5maE2x2W" ] },
      { "delegate": "tz1TcH4Nb3aHNDJ7CGZhU7jgAK1BkSP4Lxds",
        "reception_time": "2022-01-15T23:10:29.459-00:00",
        "included_in_blocks":
          [ "BL9h4HmULN1XMHBe8QN7gvTmhvdsjXhP8jMVoU9zWpC5maE2x2W" ] },
      { "delegate": "tz1T7duV5gZWSTq4YpBGbXNLTfznCLDrFxvs",
        "reception_time": "2022-01-15T23:10:29.613-00:00",
        "included_in_blocks":
          [ "BL9h4HmULN1XMHBe8QN7gvTmhvdsjXhP8jMVoU9zWpC5maE2x2W" ] },
      { "delegate": "tz1Xsrfv6hn86fp88YfRs6xcKwt2nTqxVZYM",
        "reception_time": "2022-01-15T23:10:30.066-00:00",
        "included_in_blocks":
          [ "BL9h4HmULN1XMHBe8QN7gvTmhvdsjXhP8jMVoU9zWpC5maE2x2W" ] },
      { "delegate": "tz1W5VkdB5s7ENMESVBtwyt9kyvLqPcUczRT",
        "reception_time": "2022-01-15T23:10:31.159-00:00",
        "included_in_blocks":
          [ "BL9h4HmULN1XMHBe8QN7gvTmhvdsjXhP8jMVoU9zWpC5maE2x2W" ] },
      { "delegate": "tz1NpWrAyDL9k2Lmnyxcgr9xuJakbBxdq7FB",
        "reception_time": "2022-01-15T23:10:33.340-00:00",
        "included_in_blocks":
          [ "BL9h4HmULN1XMHBe8QN7gvTmhvdsjXhP8jMVoU9zWpC5maE2x2W" ] } ] }