{ "blocks":
    [ { "hash": "BLSP8nKPCco5GG3WzvRh39Py5r9V6qHWt8xN1ac42ZL2Yi4K8Rf",
        "delegate": "tz1S8MNvuFEUsWgjHvi3AxibRBf388NhT1q2",
        "reception_time": "2022-01-16T02:41:36.579-00:00",
        "timestamp": "2022-01-16T02:41:30Z" } ],
  "endorsements":
    [ { "delegate": "tz1S8MNvuFEUsWgjHvi3AxibRBf388NhT1q2",
        "reception_time": "2022-01-16T02:41:36.440-00:00",
        "errors":
          [ { "kind": "temporary",
              "id": "proto.011-PtHangz2.prefilter.outdated_endorsement" } ],
        "included_in_blocks":
          [ "BKkJ46dxzXdJtPUQ8x8YxUcEgkj3cUp1Vr18XzvGzt59Rf3rYPu" ] },
      { "delegate": "tz1cX93Q3KsiTADpCC4f12TBvAmS5tw7CW19",
        "reception_time": "2022-01-16T02:41:36.148-00:00",
        "errors":
          [ { "kind": "temporary",
              "id": "proto.011-PtHangz2.prefilter.outdated_endorsement" } ],
        "included_in_blocks":
          [ "BKkJ46dxzXdJtPUQ8x8YxUcEgkj3cUp1Vr18XzvGzt59Rf3rYPu" ] },
      { "delegate": "tz1P2Po7YM526ughEsRbY4oR9zaUPDZjxFrb",
        "reception_time": "2022-01-16T02:41:36.062-00:00",
        "errors":
          [ { "kind": "temporary",
              "id": "proto.011-PtHangz2.prefilter.outdated_endorsement" } ],
        "included_in_blocks":
          [ "BKkJ46dxzXdJtPUQ8x8YxUcEgkj3cUp1Vr18XzvGzt59Rf3rYPu" ] },
      { "delegate": "tz1TRspM5SeZpaQUhzByXbEvqKF1vnCM2YTK" },
      { "delegate": "tz1eEnQhbwf6trb8Q8mPb2RaPkNk2rN7BKi8",
        "reception_time": "2022-01-16T02:41:37.027-00:00",
        "included_in_blocks":
          [ "BKkJ46dxzXdJtPUQ8x8YxUcEgkj3cUp1Vr18XzvGzt59Rf3rYPu" ] },
      { "delegate": "tz1Kf25fX1VdmYGSEzwFy1wNmkbSEZ2V83sY",
        "reception_time": "2022-01-16T02:41:37.683-00:00",
        "included_in_blocks":
          [ "BKkJ46dxzXdJtPUQ8x8YxUcEgkj3cUp1Vr18XzvGzt59Rf3rYPu" ] },
      { "delegate": "tz1YhNsiRRU8aHNGg7NK3uuP6UDAyacJernB",
        "reception_time": "2022-01-16T02:41:37.965-00:00",
        "included_in_blocks":
          [ "BKkJ46dxzXdJtPUQ8x8YxUcEgkj3cUp1Vr18XzvGzt59Rf3rYPu" ] },
      { "delegate": "tz3QSGPoRp3Kn7n3vY24eYeu3Peuqo45LQ4D",
        "reception_time": "2022-01-16T02:41:37.965-00:00",
        "included_in_blocks":
          [ "BKkJ46dxzXdJtPUQ8x8YxUcEgkj3cUp1Vr18XzvGzt59Rf3rYPu" ] },
      { "delegate": "tz1irJKkXS2DBWkU1NnmFQx1c1L7pbGg4yhk",
        "reception_time": "2022-01-16T02:41:37.965-00:00",
        "included_in_blocks":
          [ "BKkJ46dxzXdJtPUQ8x8YxUcEgkj3cUp1Vr18XzvGzt59Rf3rYPu" ] },
      { "delegate": "tz1PWCDnz783NNGGQjEFFsHtrcK5yBW4E2rm",
        "reception_time": "2022-01-16T02:41:37.965-00:00",
        "included_in_blocks":
          [ "BKkJ46dxzXdJtPUQ8x8YxUcEgkj3cUp1Vr18XzvGzt59Rf3rYPu" ] },
      { "delegate": "tz3ZbP2pM3nwvXztbuMJwJnDvV5xdpU8UkkD",
        "reception_time": "2022-01-16T02:41:37.965-00:00",
        "included_in_blocks":
          [ "BKkJ46dxzXdJtPUQ8x8YxUcEgkj3cUp1Vr18XzvGzt59Rf3rYPu" ] },
      { "delegate": "tz1VmiY38m3y95HqQLjMwqnMS7sdMfGomzKi",
        "reception_time": "2022-01-16T02:41:37.965-00:00",
        "included_in_blocks":
          [ "BKkJ46dxzXdJtPUQ8x8YxUcEgkj3cUp1Vr18XzvGzt59Rf3rYPu" ] },
      { "delegate": "tz3RKYFsLuQzKBtmYuLNas7uMu3AsYd4QdsA",
        "reception_time": "2022-01-16T02:41:37.965-00:00",
        "included_in_blocks":
          [ "BKkJ46dxzXdJtPUQ8x8YxUcEgkj3cUp1Vr18XzvGzt59Rf3rYPu" ] },
      { "delegate": "tz3NxTnke1acr8o3h5y9ytf5awQBGNJUKzVU",
        "reception_time": "2022-01-16T02:41:37.965-00:00",
        "included_in_blocks":
          [ "BKkJ46dxzXdJtPUQ8x8YxUcEgkj3cUp1Vr18XzvGzt59Rf3rYPu" ] },
      { "delegate": "tz1LmaFsWRkjr7QMCx5PtV6xTUz3AmEpKQiF",
        "reception_time": "2022-01-16T02:41:37.965-00:00",
        "included_in_blocks":
          [ "BKkJ46dxzXdJtPUQ8x8YxUcEgkj3cUp1Vr18XzvGzt59Rf3rYPu" ] },
      { "delegate": "tz3gtoUxdudfBRcNY7iVdKPHCYYX6xdPpoRS",
        "reception_time": "2022-01-16T02:41:37.965-00:00",
        "included_in_blocks":
          [ "BKkJ46dxzXdJtPUQ8x8YxUcEgkj3cUp1Vr18XzvGzt59Rf3rYPu" ] },
      { "delegate": "tz3QT9dHYKDqh563chVa6za8526ys1UKfRfL",
        "reception_time": "2022-01-16T02:41:37.965-00:00",
        "included_in_blocks":
          [ "BKkJ46dxzXdJtPUQ8x8YxUcEgkj3cUp1Vr18XzvGzt59Rf3rYPu" ] },
      { "delegate": "tz1gUNyn3hmnEWqkusWPzxRaon1cs7ndWh7h",
        "reception_time": "2022-01-16T02:41:37.965-00:00",
        "included_in_blocks":
          [ "BKkJ46dxzXdJtPUQ8x8YxUcEgkj3cUp1Vr18XzvGzt59Rf3rYPu" ] },
      { "delegate": "tz3S6BBeKgJGXxvLyZ1xzXzMPn11nnFtq5L9",
        "reception_time": "2022-01-16T02:41:37.965-00:00",
        "included_in_blocks":
          [ "BKkJ46dxzXdJtPUQ8x8YxUcEgkj3cUp1Vr18XzvGzt59Rf3rYPu" ] },
      { "delegate": "tz1Ldzz6k1BHdhuKvAtMRX7h5kJSMHESMHLC",
        "reception_time": "2022-01-16T02:41:37.965-00:00",
        "included_in_blocks":
          [ "BKkJ46dxzXdJtPUQ8x8YxUcEgkj3cUp1Vr18XzvGzt59Rf3rYPu" ] },
      { "delegate": "tz3hw2kqXhLUvY65ca1eety2oQTpAvd34R9Q",
        "reception_time": "2022-01-16T02:41:37.965-00:00",
        "included_in_blocks":
          [ "BKkJ46dxzXdJtPUQ8x8YxUcEgkj3cUp1Vr18XzvGzt59Rf3rYPu" ] },
      { "delegate": "tz1gfArv665EUkSg2ojMBzcbfwuPxAvqPvjo",
        "reception_time": "2022-01-16T02:41:37.965-00:00",
        "included_in_blocks":
          [ "BKkJ46dxzXdJtPUQ8x8YxUcEgkj3cUp1Vr18XzvGzt59Rf3rYPu" ] },
      { "delegate": "tz3QCNyySViKHmeSr45kzDxzchys7NiXCWoa",
        "reception_time": "2022-01-16T02:41:37.965-00:00",
        "included_in_blocks":
          [ "BKkJ46dxzXdJtPUQ8x8YxUcEgkj3cUp1Vr18XzvGzt59Rf3rYPu" ] },
      { "delegate": "tz3iJu5vrKZcsqRPs8yJ61UDoeEXZmtro4qh",
        "reception_time": "2022-01-16T02:41:37.965-00:00",
        "included_in_blocks":
          [ "BKkJ46dxzXdJtPUQ8x8YxUcEgkj3cUp1Vr18XzvGzt59Rf3rYPu" ] },
      { "delegate": "tz1TzaNn7wSQSP5gYPXCnNzBCpyMiidCq1PX",
        "reception_time": "2022-01-16T02:41:37.965-00:00",
        "included_in_blocks":
          [ "BKkJ46dxzXdJtPUQ8x8YxUcEgkj3cUp1Vr18XzvGzt59Rf3rYPu" ] },
      { "delegate": "tz1gcna2xxZj2eNp1LaMyAhVJ49mEFj4FH26",
        "reception_time": "2022-01-16T02:41:37.965-00:00",
        "included_in_blocks":
          [ "BKkJ46dxzXdJtPUQ8x8YxUcEgkj3cUp1Vr18XzvGzt59Rf3rYPu" ] },
      { "delegate": "tz1VQnqCCqX4K5sP3FNkVSNKTdCAMJDd3E1n",
        "reception_time": "2022-01-16T02:41:37.965-00:00",
        "included_in_blocks":
          [ "BKkJ46dxzXdJtPUQ8x8YxUcEgkj3cUp1Vr18XzvGzt59Rf3rYPu" ] },
      { "delegate": "tz3Zhs2dygr55yHyQyKjntAtY9bgfhLZ4Xj1",
        "reception_time": "2022-01-16T02:41:37.965-00:00",
        "included_in_blocks":
          [ "BKkJ46dxzXdJtPUQ8x8YxUcEgkj3cUp1Vr18XzvGzt59Rf3rYPu" ] },
      { "delegate": "tz1WnfXMPaNTBmH7DBPwqCWs9cPDJdkGBTZ8",
        "reception_time": "2022-01-16T02:41:37.965-00:00",
        "included_in_blocks":
          [ "BKkJ46dxzXdJtPUQ8x8YxUcEgkj3cUp1Vr18XzvGzt59Rf3rYPu" ] },
      { "delegate": "tz1SFtJ3XwU1d6rWTRfJmwVDFpywcp4J743S",
        "reception_time": "2022-01-16T02:41:37.965-00:00",
        "included_in_blocks":
          [ "BKkJ46dxzXdJtPUQ8x8YxUcEgkj3cUp1Vr18XzvGzt59Rf3rYPu" ] },
      { "delegate": "tz1ei4WtWEMEJekSv8qDnu9PExG6Q8HgRGr3",
        "reception_time": "2022-01-16T02:41:37.965-00:00",
        "included_in_blocks":
          [ "BKkJ46dxzXdJtPUQ8x8YxUcEgkj3cUp1Vr18XzvGzt59Rf3rYPu" ] },
      { "delegate": "tz1SYq214SCBy9naR6cvycQsYcUGpBqQAE8d",
        "reception_time": "2022-01-16T02:41:37.965-00:00",
        "included_in_blocks":
          [ "BKkJ46dxzXdJtPUQ8x8YxUcEgkj3cUp1Vr18XzvGzt59Rf3rYPu" ] },
      { "delegate": "tz3bTdwZinP8U1JmSweNzVKhmwafqWmFWRfk",
        "reception_time": "2022-01-16T02:41:37.982-00:00",
        "included_in_blocks":
          [ "BKkJ46dxzXdJtPUQ8x8YxUcEgkj3cUp1Vr18XzvGzt59Rf3rYPu" ] },
      { "delegate": "tz3WMqdzXqRWXwyvj5Hp2H7QEepaUuS7vd9K",
        "reception_time": "2022-01-16T02:41:37.994-00:00",
        "included_in_blocks":
          [ "BKkJ46dxzXdJtPUQ8x8YxUcEgkj3cUp1Vr18XzvGzt59Rf3rYPu" ] },
      { "delegate": "tz1KfEsrtDaA1sX7vdM4qmEPWuSytuqCDp5j",
        "reception_time": "2022-01-16T02:41:38.068-00:00",
        "included_in_blocks":
          [ "BKkJ46dxzXdJtPUQ8x8YxUcEgkj3cUp1Vr18XzvGzt59Rf3rYPu" ] },
      { "delegate": "tz3RB4aoyjov4KEVRbuhvQ1CKJgBJMWhaeB8",
        "reception_time": "2022-01-16T02:41:38.097-00:00",
        "included_in_blocks":
          [ "BKkJ46dxzXdJtPUQ8x8YxUcEgkj3cUp1Vr18XzvGzt59Rf3rYPu" ] },
      { "delegate": "tz1TEc75UKXv4W5cwi14Na3NtqFD51yKQi7h",
        "reception_time": "2022-01-16T02:41:38.257-00:00",
        "included_in_blocks":
          [ "BKkJ46dxzXdJtPUQ8x8YxUcEgkj3cUp1Vr18XzvGzt59Rf3rYPu" ] },
      { "delegate": "tz1WBfwbT66FC6BTLexc2BoyCCBM9LG7pnVW",
        "reception_time": "2022-01-16T02:41:38.287-00:00",
        "included_in_blocks":
          [ "BKkJ46dxzXdJtPUQ8x8YxUcEgkj3cUp1Vr18XzvGzt59Rf3rYPu" ] },
      { "delegate": "tz1Nf6tsK4G6bBqgSQERy4nUtkHNKUVdh7q1",
        "reception_time": "2022-01-16T02:41:38.317-00:00",
        "included_in_blocks":
          [ "BKkJ46dxzXdJtPUQ8x8YxUcEgkj3cUp1Vr18XzvGzt59Rf3rYPu" ] },
      { "delegate": "tz3VEZ4k6a4Wx42iyev6i2aVAptTRLEAivNN",
        "reception_time": "2022-01-16T02:41:38.358-00:00",
        "included_in_blocks":
          [ "BKkJ46dxzXdJtPUQ8x8YxUcEgkj3cUp1Vr18XzvGzt59Rf3rYPu" ] },
      { "delegate": "tz1fwnfJNgiDACshK9avfRfFbMaXrs3ghoJa",
        "reception_time": "2022-01-16T02:41:38.374-00:00",
        "included_in_blocks":
          [ "BKkJ46dxzXdJtPUQ8x8YxUcEgkj3cUp1Vr18XzvGzt59Rf3rYPu" ] },
      { "delegate": "tz1NEKxGEHsFufk87CVZcrqWu8o22qh46GK6",
        "reception_time": "2022-01-16T02:41:38.498-00:00",
        "included_in_blocks":
          [ "BKkJ46dxzXdJtPUQ8x8YxUcEgkj3cUp1Vr18XzvGzt59Rf3rYPu" ] },
      { "delegate": "tz1WctSwL49BZtdWAQ75NY6vr4xsAx6oKdah",
        "reception_time": "2022-01-16T02:41:38.609-00:00",
        "included_in_blocks":
          [ "BKkJ46dxzXdJtPUQ8x8YxUcEgkj3cUp1Vr18XzvGzt59Rf3rYPu" ] },
      { "delegate": "tz1NortRftucvAkD1J58L32EhSVrQEWJCEnB",
        "reception_time": "2022-01-16T02:41:38.634-00:00",
        "included_in_blocks":
          [ "BKkJ46dxzXdJtPUQ8x8YxUcEgkj3cUp1Vr18XzvGzt59Rf3rYPu" ] },
      { "delegate": "tz3e75hU4EhDU3ukyJueh5v6UvEHzGwkg3yC",
        "reception_time": "2022-01-16T02:41:38.660-00:00",
        "included_in_blocks":
          [ "BKkJ46dxzXdJtPUQ8x8YxUcEgkj3cUp1Vr18XzvGzt59Rf3rYPu" ] },
      { "delegate": "tz1Vd1rXpV8hTHbFXCXN3c3qzCsgcU5BZw1e",
        "reception_time": "2022-01-16T02:41:38.676-00:00",
        "included_in_blocks":
          [ "BKkJ46dxzXdJtPUQ8x8YxUcEgkj3cUp1Vr18XzvGzt59Rf3rYPu" ] },
      { "delegate": "tz1RCFbB9GpALpsZtu6J58sb74dm8qe6XBzv",
        "reception_time": "2022-01-16T02:41:38.697-00:00",
        "included_in_blocks":
          [ "BKkJ46dxzXdJtPUQ8x8YxUcEgkj3cUp1Vr18XzvGzt59Rf3rYPu" ] },
      { "delegate": "tz2FCNBrERXtaTtNX6iimR1UJ5JSDxvdHM93",
        "reception_time": "2022-01-16T02:41:38.722-00:00",
        "included_in_blocks":
          [ "BKkJ46dxzXdJtPUQ8x8YxUcEgkj3cUp1Vr18XzvGzt59Rf3rYPu" ] },
      { "delegate": "tz1hAYfexyzPGG6RhZZMpDvAHifubsbb6kgn",
        "reception_time": "2022-01-16T02:41:38.800-00:00",
        "included_in_blocks":
          [ "BKkJ46dxzXdJtPUQ8x8YxUcEgkj3cUp1Vr18XzvGzt59Rf3rYPu" ] },
      { "delegate": "tz1Q8QkSBS63ZQnH3fBTiAMPes9R666Rn6Sc",
        "reception_time": "2022-01-16T02:41:38.834-00:00",
        "included_in_blocks":
          [ "BKkJ46dxzXdJtPUQ8x8YxUcEgkj3cUp1Vr18XzvGzt59Rf3rYPu" ] },
      { "delegate": "tz3NDpRj6WBrJPikcPVHRBEjWKxFw3c6eQPS",
        "reception_time": "2022-01-16T02:41:38.957-00:00",
        "included_in_blocks":
          [ "BKkJ46dxzXdJtPUQ8x8YxUcEgkj3cUp1Vr18XzvGzt59Rf3rYPu" ] },
      { "delegate": "tz1aDiEJf9ztRrAJEXZfcG3CKimoKsGhwVAi",
        "reception_time": "2022-01-16T02:41:39.031-00:00",
        "included_in_blocks":
          [ "BKkJ46dxzXdJtPUQ8x8YxUcEgkj3cUp1Vr18XzvGzt59Rf3rYPu" ] },
      { "delegate": "tz3bvNMQ95vfAYtG8193ymshqjSvmxiCUuR5",
        "reception_time": "2022-01-16T02:41:39.111-00:00",
        "included_in_blocks":
          [ "BKkJ46dxzXdJtPUQ8x8YxUcEgkj3cUp1Vr18XzvGzt59Rf3rYPu" ] },
      { "delegate": "tz1dNVDWPf3Q59SdJqnjdnu277iyvReiRS9M",
        "reception_time": "2022-01-16T02:41:39.189-00:00",
        "included_in_blocks":
          [ "BKkJ46dxzXdJtPUQ8x8YxUcEgkj3cUp1Vr18XzvGzt59Rf3rYPu" ] },
      { "delegate": "tz3NExpXn9aPNZPorRE4SdjJ2RGrfbJgMAaV",
        "reception_time": "2022-01-16T02:41:39.275-00:00",
        "included_in_blocks":
          [ "BKkJ46dxzXdJtPUQ8x8YxUcEgkj3cUp1Vr18XzvGzt59Rf3rYPu" ] },
      { "delegate": "tz1TRqbYbUf2GyrjErf3hBzgBJPzW8y36qEs",
        "reception_time": "2022-01-16T02:41:39.506-00:00",
        "included_in_blocks":
          [ "BKkJ46dxzXdJtPUQ8x8YxUcEgkj3cUp1Vr18XzvGzt59Rf3rYPu" ] },
      { "delegate": "tz3RDC3Jdn4j15J7bBHZd29EUee9gVB1CxD9",
        "reception_time": "2022-01-16T02:41:39.549-00:00",
        "included_in_blocks":
          [ "BKkJ46dxzXdJtPUQ8x8YxUcEgkj3cUp1Vr18XzvGzt59Rf3rYPu" ] },
      { "delegate": "tz3UoffC7FG7zfpmvmjUmUeAaHvzdcUvAj6r",
        "reception_time": "2022-01-16T02:41:39.570-00:00",
        "included_in_blocks":
          [ "BKkJ46dxzXdJtPUQ8x8YxUcEgkj3cUp1Vr18XzvGzt59Rf3rYPu" ] },
      { "delegate": "tz1cYufsxHXJcvANhvS55h3aY32a9BAFB494",
        "reception_time": "2022-01-16T02:41:39.597-00:00",
        "included_in_blocks":
          [ "BKkJ46dxzXdJtPUQ8x8YxUcEgkj3cUp1Vr18XzvGzt59Rf3rYPu" ] },
      { "delegate": "tz1T7duV5gZWSTq4YpBGbXNLTfznCLDrFxvs",
        "reception_time": "2022-01-16T02:41:39.671-00:00",
        "included_in_blocks":
          [ "BKkJ46dxzXdJtPUQ8x8YxUcEgkj3cUp1Vr18XzvGzt59Rf3rYPu" ] },
      { "delegate": "tz1awXW7wuXy21c66vBudMXQVAPgRnqqwgTH",
        "reception_time": "2022-01-16T02:41:39.793-00:00",
        "included_in_blocks":
          [ "BKkJ46dxzXdJtPUQ8x8YxUcEgkj3cUp1Vr18XzvGzt59Rf3rYPu" ] },
      { "delegate": "tz1aRoaRhSpRYvFdyvgWLL6TGyRoGF51wDjM",
        "reception_time": "2022-01-16T02:41:39.897-00:00",
        "included_in_blocks":
          [ "BKkJ46dxzXdJtPUQ8x8YxUcEgkj3cUp1Vr18XzvGzt59Rf3rYPu" ] },
      { "delegate": "tz1Zcxkfa5jKrRbBThG765GP29bUCU3C4ok5",
        "reception_time": "2022-01-16T02:41:40.411-00:00",
        "included_in_blocks":
          [ "BKkJ46dxzXdJtPUQ8x8YxUcEgkj3cUp1Vr18XzvGzt59Rf3rYPu" ] },
      { "delegate": "tz1W5VkdB5s7ENMESVBtwyt9kyvLqPcUczRT",
        "reception_time": "2022-01-16T02:41:41.706-00:00",
        "included_in_blocks":
          [ "BKkJ46dxzXdJtPUQ8x8YxUcEgkj3cUp1Vr18XzvGzt59Rf3rYPu" ] },
      { "delegate": "tz1Wp9DASxBnuiZTXHTBACtQ69kp8YL4bzLz",
        "reception_time": "2022-01-16T02:41:41.878-00:00",
        "included_in_blocks":
          [ "BKkJ46dxzXdJtPUQ8x8YxUcEgkj3cUp1Vr18XzvGzt59Rf3rYPu" ] } ] }