{ "blocks":
    [ { "hash": "BKryrYQd9sgYwSBq6bKrKXdmtK6Vba16Ds9NeoKfZh1wp3SXNEn",
        "delegate": "tz1Nf6tsK4G6bBqgSQERy4nUtkHNKUVdh7q1",
        "reception_time": "2022-01-16T00:31:07.357-00:00",
        "timestamp": "2022-01-16T00:31:00Z" } ],
  "endorsements":
    [ { "delegate": "tz1P2Po7YM526ughEsRbY4oR9zaUPDZjxFrb",
        "reception_time": "2022-01-16T00:31:08.066-00:00",
        "included_in_blocks":
          [ "BMFntfKEq3Exb75aksVCDh8Uvg1fdsd9g13gnLdrUjvoTa1v777" ] },
      { "delegate": "tz1STeamwbp68THcny9zk3LsbG3H36DMvbRK",
        "reception_time": "2022-01-16T00:31:08.064-00:00",
        "included_in_blocks":
          [ "BMFntfKEq3Exb75aksVCDh8Uvg1fdsd9g13gnLdrUjvoTa1v777" ] },
      { "delegate": "tz1eEnQhbwf6trb8Q8mPb2RaPkNk2rN7BKi8",
        "reception_time": "2022-01-16T00:31:08.069-00:00",
        "included_in_blocks":
          [ "BMFntfKEq3Exb75aksVCDh8Uvg1fdsd9g13gnLdrUjvoTa1v777" ] },
      { "delegate": "tz1irJKkXS2DBWkU1NnmFQx1c1L7pbGg4yhk",
        "reception_time": "2022-01-16T00:31:08.078-00:00",
        "included_in_blocks":
          [ "BMFntfKEq3Exb75aksVCDh8Uvg1fdsd9g13gnLdrUjvoTa1v777" ] },
      { "delegate": "tz3NxTnke1acr8o3h5y9ytf5awQBGNJUKzVU",
        "reception_time": "2022-01-16T00:31:08.083-00:00",
        "included_in_blocks":
          [ "BMFntfKEq3Exb75aksVCDh8Uvg1fdsd9g13gnLdrUjvoTa1v777" ] },
      { "delegate": "tz3ZbP2pM3nwvXztbuMJwJnDvV5xdpU8UkkD",
        "reception_time": "2022-01-16T00:31:08.075-00:00",
        "included_in_blocks":
          [ "BMFntfKEq3Exb75aksVCDh8Uvg1fdsd9g13gnLdrUjvoTa1v777" ] },
      { "delegate": "tz1bsdrs36X5BTH83RHUBdUouKLJZK8d2oBa",
        "reception_time": "2022-01-16T00:31:08.109-00:00",
        "included_in_blocks":
          [ "BMFntfKEq3Exb75aksVCDh8Uvg1fdsd9g13gnLdrUjvoTa1v777" ] },
      { "delegate": "tz1Ldzz6k1BHdhuKvAtMRX7h5kJSMHESMHLC",
        "reception_time": "2022-01-16T00:31:08.125-00:00",
        "included_in_blocks":
          [ "BMFntfKEq3Exb75aksVCDh8Uvg1fdsd9g13gnLdrUjvoTa1v777" ] },
      { "delegate": "tz3RKYFsLuQzKBtmYuLNas7uMu3AsYd4QdsA",
        "reception_time": "2022-01-16T00:31:08.224-00:00",
        "included_in_blocks":
          [ "BMFntfKEq3Exb75aksVCDh8Uvg1fdsd9g13gnLdrUjvoTa1v777" ] },
      { "delegate": "tz3hw2kqXhLUvY65ca1eety2oQTpAvd34R9Q",
        "reception_time": "2022-01-16T00:31:08.203-00:00",
        "included_in_blocks":
          [ "BMFntfKEq3Exb75aksVCDh8Uvg1fdsd9g13gnLdrUjvoTa1v777" ] },
      { "delegate": "tz1VQnqCCqX4K5sP3FNkVSNKTdCAMJDd3E1n",
        "reception_time": "2022-01-16T00:31:08.216-00:00",
        "included_in_blocks":
          [ "BMFntfKEq3Exb75aksVCDh8Uvg1fdsd9g13gnLdrUjvoTa1v777" ] },
      { "delegate": "tz1MQMiZHV8q4tTwUMWmS5Y3kaP6J2136iXr",
        "reception_time": "2022-01-16T00:31:08.341-00:00",
        "included_in_blocks":
          [ "BMFntfKEq3Exb75aksVCDh8Uvg1fdsd9g13gnLdrUjvoTa1v777" ] },
      { "delegate": "tz1gUNyn3hmnEWqkusWPzxRaon1cs7ndWh7h",
        "reception_time": "2022-01-16T00:31:08.235-00:00",
        "included_in_blocks":
          [ "BMFntfKEq3Exb75aksVCDh8Uvg1fdsd9g13gnLdrUjvoTa1v777" ] },
      { "delegate": "tz3Zhs2dygr55yHyQyKjntAtY9bgfhLZ4Xj1",
        "reception_time": "2022-01-16T00:31:08.341-00:00",
        "included_in_blocks":
          [ "BMFntfKEq3Exb75aksVCDh8Uvg1fdsd9g13gnLdrUjvoTa1v777" ] },
      { "delegate": "tz1TzaNn7wSQSP5gYPXCnNzBCpyMiidCq1PX",
        "reception_time": "2022-01-16T00:31:08.359-00:00",
        "included_in_blocks":
          [ "BMFntfKEq3Exb75aksVCDh8Uvg1fdsd9g13gnLdrUjvoTa1v777" ] },
      { "delegate": "tz1Nf6tsK4G6bBqgSQERy4nUtkHNKUVdh7q1",
        "reception_time": "2022-01-16T00:31:08.344-00:00",
        "included_in_blocks":
          [ "BMFntfKEq3Exb75aksVCDh8Uvg1fdsd9g13gnLdrUjvoTa1v777" ] },
      { "delegate": "tz3iJu5vrKZcsqRPs8yJ61UDoeEXZmtro4qh",
        "reception_time": "2022-01-16T00:31:08.370-00:00",
        "included_in_blocks":
          [ "BMFntfKEq3Exb75aksVCDh8Uvg1fdsd9g13gnLdrUjvoTa1v777" ] },
      { "delegate": "tz1aXD7Jigrt3PBYSpHSg5Rr33SexMmmM5Ys",
        "reception_time": "2022-01-16T00:31:08.488-00:00",
        "included_in_blocks":
          [ "BMFntfKEq3Exb75aksVCDh8Uvg1fdsd9g13gnLdrUjvoTa1v777" ] },
      { "delegate": "tz1VmiY38m3y95HqQLjMwqnMS7sdMfGomzKi",
        "reception_time": "2022-01-16T00:31:08.413-00:00",
        "included_in_blocks":
          [ "BMFntfKEq3Exb75aksVCDh8Uvg1fdsd9g13gnLdrUjvoTa1v777" ] },
      { "delegate": "tz3QSGPoRp3Kn7n3vY24eYeu3Peuqo45LQ4D",
        "reception_time": "2022-01-16T00:31:08.425-00:00",
        "included_in_blocks":
          [ "BMFntfKEq3Exb75aksVCDh8Uvg1fdsd9g13gnLdrUjvoTa1v777" ] },
      { "delegate": "tz3gtoUxdudfBRcNY7iVdKPHCYYX6xdPpoRS",
        "reception_time": "2022-01-16T00:31:08.439-00:00",
        "included_in_blocks":
          [ "BMFntfKEq3Exb75aksVCDh8Uvg1fdsd9g13gnLdrUjvoTa1v777" ] },
      { "delegate": "tz3QT9dHYKDqh563chVa6za8526ys1UKfRfL",
        "reception_time": "2022-01-16T00:31:08.604-00:00",
        "included_in_blocks":
          [ "BMFntfKEq3Exb75aksVCDh8Uvg1fdsd9g13gnLdrUjvoTa1v777" ] },
      { "delegate": "tz1WCd2jm4uSt4vntk4vSuUWoZQGhLcDuR9q",
        "reception_time": "2022-01-16T00:31:08.542-00:00",
        "included_in_blocks":
          [ "BMFntfKEq3Exb75aksVCDh8Uvg1fdsd9g13gnLdrUjvoTa1v777" ] },
      { "delegate": "tz1ajgycuHmd2z2JbTSJxKv7x6cok2KuNSk1",
        "reception_time": "2022-01-16T00:31:08.564-00:00",
        "included_in_blocks":
          [ "BMFntfKEq3Exb75aksVCDh8Uvg1fdsd9g13gnLdrUjvoTa1v777" ] },
      { "delegate": "tz1PWCDnz783NNGGQjEFFsHtrcK5yBW4E2rm",
        "reception_time": "2022-01-16T00:31:08.753-00:00",
        "included_in_blocks":
          [ "BMFntfKEq3Exb75aksVCDh8Uvg1fdsd9g13gnLdrUjvoTa1v777" ] },
      { "delegate": "tz1gfArv665EUkSg2ojMBzcbfwuPxAvqPvjo",
        "reception_time": "2022-01-16T00:31:09.088-00:00",
        "included_in_blocks":
          [ "BMFntfKEq3Exb75aksVCDh8Uvg1fdsd9g13gnLdrUjvoTa1v777" ] },
      { "delegate": "tz1RV1MBbZMR68tacosb7Mwj6LkbPSUS1er1",
        "reception_time": "2022-01-16T00:31:09.124-00:00",
        "included_in_blocks":
          [ "BMFntfKEq3Exb75aksVCDh8Uvg1fdsd9g13gnLdrUjvoTa1v777" ] },
      { "delegate": "tz1UtayNgAX8QEJ3NoLptPzoPr9JiH3Cskzz",
        "reception_time": "2022-01-16T00:31:09.223-00:00",
        "included_in_blocks":
          [ "BMFntfKEq3Exb75aksVCDh8Uvg1fdsd9g13gnLdrUjvoTa1v777" ] },
      { "delegate": "tz3bTdwZinP8U1JmSweNzVKhmwafqWmFWRfk",
        "reception_time": "2022-01-16T00:31:09.170-00:00",
        "included_in_blocks":
          [ "BMFntfKEq3Exb75aksVCDh8Uvg1fdsd9g13gnLdrUjvoTa1v777" ] },
      { "delegate": "tz3RDC3Jdn4j15J7bBHZd29EUee9gVB1CxD9",
        "reception_time": "2022-01-16T00:31:09.148-00:00",
        "included_in_blocks":
          [ "BMFntfKEq3Exb75aksVCDh8Uvg1fdsd9g13gnLdrUjvoTa1v777" ] },
      { "delegate": "tz3bvNMQ95vfAYtG8193ymshqjSvmxiCUuR5",
        "reception_time": "2022-01-16T00:31:09.205-00:00",
        "included_in_blocks":
          [ "BMFntfKEq3Exb75aksVCDh8Uvg1fdsd9g13gnLdrUjvoTa1v777" ] },
      { "delegate": "tz3RB4aoyjov4KEVRbuhvQ1CKJgBJMWhaeB8",
        "reception_time": "2022-01-16T00:31:09.219-00:00",
        "included_in_blocks":
          [ "BMFntfKEq3Exb75aksVCDh8Uvg1fdsd9g13gnLdrUjvoTa1v777" ] },
      { "delegate": "tz1S8MNvuFEUsWgjHvi3AxibRBf388NhT1q2",
        "reception_time": "2022-01-16T00:31:09.380-00:00",
        "included_in_blocks":
          [ "BMFntfKEq3Exb75aksVCDh8Uvg1fdsd9g13gnLdrUjvoTa1v777" ] },
      { "delegate": "tz1c8JTzmA6c7cm6ZmUwR7WES6akdiMa1kwt",
        "reception_time": "2022-01-16T00:31:09.247-00:00",
        "included_in_blocks":
          [ "BMFntfKEq3Exb75aksVCDh8Uvg1fdsd9g13gnLdrUjvoTa1v777" ] },
      { "delegate": "tz1ei4WtWEMEJekSv8qDnu9PExG6Q8HgRGr3",
        "reception_time": "2022-01-16T00:31:09.259-00:00",
        "included_in_blocks":
          [ "BMFntfKEq3Exb75aksVCDh8Uvg1fdsd9g13gnLdrUjvoTa1v777" ] },
      { "delegate": "tz3adcvQaKXTCg12zbninqo3q8ptKKtDFTLv",
        "reception_time": "2022-01-16T00:31:09.373-00:00",
        "included_in_blocks":
          [ "BMFntfKEq3Exb75aksVCDh8Uvg1fdsd9g13gnLdrUjvoTa1v777" ] },
      { "delegate": "tz3VEZ4k6a4Wx42iyev6i2aVAptTRLEAivNN",
        "reception_time": "2022-01-16T00:31:09.359-00:00",
        "included_in_blocks":
          [ "BMFntfKEq3Exb75aksVCDh8Uvg1fdsd9g13gnLdrUjvoTa1v777" ] },
      { "delegate": "tz1KfEsrtDaA1sX7vdM4qmEPWuSytuqCDp5j",
        "reception_time": "2022-01-16T00:31:09.263-00:00",
        "included_in_blocks":
          [ "BMFntfKEq3Exb75aksVCDh8Uvg1fdsd9g13gnLdrUjvoTa1v777" ] },
      { "delegate": "tz1iPHM2Xx2hwmzcr1EG1zzrV6oKafVoA91m",
        "reception_time": "2022-01-16T00:31:09.362-00:00",
        "included_in_blocks":
          [ "BMFntfKEq3Exb75aksVCDh8Uvg1fdsd9g13gnLdrUjvoTa1v777" ] },
      { "delegate": "tz2FCNBrERXtaTtNX6iimR1UJ5JSDxvdHM93",
        "reception_time": "2022-01-16T00:31:09.791-00:00",
        "included_in_blocks":
          [ "BMFntfKEq3Exb75aksVCDh8Uvg1fdsd9g13gnLdrUjvoTa1v777" ] },
      { "delegate": "tz1SYq214SCBy9naR6cvycQsYcUGpBqQAE8d",
        "reception_time": "2022-01-16T00:31:09.805-00:00",
        "included_in_blocks":
          [ "BMFntfKEq3Exb75aksVCDh8Uvg1fdsd9g13gnLdrUjvoTa1v777" ] },
      { "delegate": "tz1RCFbB9GpALpsZtu6J58sb74dm8qe6XBzv",
        "reception_time": "2022-01-16T00:31:09.862-00:00",
        "included_in_blocks":
          [ "BMFntfKEq3Exb75aksVCDh8Uvg1fdsd9g13gnLdrUjvoTa1v777" ] },
      { "delegate": "tz3NDpRj6WBrJPikcPVHRBEjWKxFw3c6eQPS",
        "reception_time": "2022-01-16T00:31:09.643-00:00",
        "included_in_blocks":
          [ "BMFntfKEq3Exb75aksVCDh8Uvg1fdsd9g13gnLdrUjvoTa1v777" ] },
      { "delegate": "tz3WMqdzXqRWXwyvj5Hp2H7QEepaUuS7vd9K",
        "reception_time": "2022-01-16T00:31:09.611-00:00",
        "included_in_blocks":
          [ "BMFntfKEq3Exb75aksVCDh8Uvg1fdsd9g13gnLdrUjvoTa1v777" ] },
      { "delegate": "tz1TRqbYbUf2GyrjErf3hBzgBJPzW8y36qEs",
        "reception_time": "2022-01-16T00:31:10.011-00:00",
        "included_in_blocks":
          [ "BMFntfKEq3Exb75aksVCDh8Uvg1fdsd9g13gnLdrUjvoTa1v777" ] },
      { "delegate": "tz1WBfwbT66FC6BTLexc2BoyCCBM9LG7pnVW",
        "reception_time": "2022-01-16T00:31:09.802-00:00",
        "included_in_blocks":
          [ "BMFntfKEq3Exb75aksVCDh8Uvg1fdsd9g13gnLdrUjvoTa1v777" ] },
      { "delegate": "tz1axcnVN9tZnCe4sQQhC6f3tfSEXdjPaXPY",
        "reception_time": "2022-01-16T00:31:09.799-00:00",
        "included_in_blocks":
          [ "BMFntfKEq3Exb75aksVCDh8Uvg1fdsd9g13gnLdrUjvoTa1v777" ] },
      { "delegate": "tz1abmz7jiCV2GH2u81LRrGgAFFgvQgiDiaf",
        "reception_time": "2022-01-16T00:31:09.921-00:00",
        "included_in_blocks":
          [ "BMFntfKEq3Exb75aksVCDh8Uvg1fdsd9g13gnLdrUjvoTa1v777" ] },
      { "delegate": "tz1RjoHc98dBoqaH2jawF62XNKh7YsHwbkEv",
        "reception_time": "2022-01-16T00:31:10.119-00:00",
        "included_in_blocks":
          [ "BMFntfKEq3Exb75aksVCDh8Uvg1fdsd9g13gnLdrUjvoTa1v777" ] },
      { "delegate": "tz1NEKxGEHsFufk87CVZcrqWu8o22qh46GK6",
        "reception_time": "2022-01-16T00:31:10.406-00:00",
        "included_in_blocks":
          [ "BMFntfKEq3Exb75aksVCDh8Uvg1fdsd9g13gnLdrUjvoTa1v777" ] },
      { "delegate": "tz1T7duV5gZWSTq4YpBGbXNLTfznCLDrFxvs",
        "reception_time": "2022-01-16T00:31:10.411-00:00",
        "included_in_blocks":
          [ "BMFntfKEq3Exb75aksVCDh8Uvg1fdsd9g13gnLdrUjvoTa1v777" ] },
      { "delegate": "tz1aRoaRhSpRYvFdyvgWLL6TGyRoGF51wDjM",
        "reception_time": "2022-01-16T00:31:10.506-00:00",
        "included_in_blocks":
          [ "BMFntfKEq3Exb75aksVCDh8Uvg1fdsd9g13gnLdrUjvoTa1v777" ] },
      { "delegate": "tz1a1J3AGjJTAyBqWWSqFuUazUDV2TtD6hMy",
        "reception_time": "2022-01-16T00:31:10.538-00:00",
        "included_in_blocks":
          [ "BMFntfKEq3Exb75aksVCDh8Uvg1fdsd9g13gnLdrUjvoTa1v777" ] },
      { "delegate": "tz3NExpXn9aPNZPorRE4SdjJ2RGrfbJgMAaV",
        "reception_time": "2022-01-16T00:31:10.923-00:00",
        "included_in_blocks":
          [ "BMFntfKEq3Exb75aksVCDh8Uvg1fdsd9g13gnLdrUjvoTa1v777" ] },
      { "delegate": "tz1g8vkmcde6sWKaG2NN9WKzCkDM6Rziq194",
        "reception_time": "2022-01-16T00:31:10.956-00:00",
        "included_in_blocks":
          [ "BMFntfKEq3Exb75aksVCDh8Uvg1fdsd9g13gnLdrUjvoTa1v777" ] },
      { "delegate": "tz3UoffC7FG7zfpmvmjUmUeAaHvzdcUvAj6r",
        "reception_time": "2022-01-16T00:31:10.973-00:00",
        "included_in_blocks":
          [ "BMFntfKEq3Exb75aksVCDh8Uvg1fdsd9g13gnLdrUjvoTa1v777" ] },
      { "delegate": "tz1dNVDWPf3Q59SdJqnjdnu277iyvReiRS9M",
        "reception_time": "2022-01-16T00:31:11.049-00:00",
        "included_in_blocks":
          [ "BMFntfKEq3Exb75aksVCDh8Uvg1fdsd9g13gnLdrUjvoTa1v777" ] },
      { "delegate": "tz1Xsrfv6hn86fp88YfRs6xcKwt2nTqxVZYM",
        "reception_time": "2022-01-16T00:31:11.272-00:00",
        "included_in_blocks":
          [ "BMFntfKEq3Exb75aksVCDh8Uvg1fdsd9g13gnLdrUjvoTa1v777" ] },
      { "delegate": "tz1ZcTRk5uxD86EFEn1vvNffWWqJy7q5eVhc",
        "reception_time": "2022-01-16T00:31:11.615-00:00",
        "included_in_blocks":
          [ "BMFntfKEq3Exb75aksVCDh8Uvg1fdsd9g13gnLdrUjvoTa1v777" ] },
      { "delegate": "tz1TcH4Nb3aHNDJ7CGZhU7jgAK1BkSP4Lxds",
        "reception_time": "2022-01-16T00:31:11.894-00:00",
        "included_in_blocks":
          [ "BMFntfKEq3Exb75aksVCDh8Uvg1fdsd9g13gnLdrUjvoTa1v777" ] },
      { "delegate": "tz1W5VkdB5s7ENMESVBtwyt9kyvLqPcUczRT",
        "reception_time": "2022-01-16T00:31:13.344-00:00",
        "included_in_blocks":
          [ "BMFntfKEq3Exb75aksVCDh8Uvg1fdsd9g13gnLdrUjvoTa1v777" ] },
      { "delegate": "tz1ZdSQibskQwRdiaFUh7RUVm1Z6xudMedoj",
        "reception_time": "2022-01-16T00:31:13.584-00:00",
        "included_in_blocks":
          [ "BMFntfKEq3Exb75aksVCDh8Uvg1fdsd9g13gnLdrUjvoTa1v777" ] },
      { "delegate": "tz1go7f6mEQfT2xX2LuHAqgnRGN6c2zHPf5c",
        "reception_time": "2022-01-16T00:31:14.070-00:00",
        "included_in_blocks":
          [ "BMFntfKEq3Exb75aksVCDh8Uvg1fdsd9g13gnLdrUjvoTa1v777" ] },
      { "delegate": "tz1bTpviNnyx2PXsNmGpCQTMQsGoYordkUoA",
        "reception_time": "2022-01-16T00:31:14.124-00:00",
        "included_in_blocks":
          [ "BMFntfKEq3Exb75aksVCDh8Uvg1fdsd9g13gnLdrUjvoTa1v777" ] },
      { "delegate": "tz1awXW7wuXy21c66vBudMXQVAPgRnqqwgTH",
        "reception_time": "2022-01-16T00:31:22.617-00:00",
        "included_in_blocks":
          [ "BMFntfKEq3Exb75aksVCDh8Uvg1fdsd9g13gnLdrUjvoTa1v777" ] },
      { "delegate": "tz1Zhv3RkfU2pHrmaiDyxp7kFZpZrUCu1CiF",
        "reception_time": "2022-01-16T00:31:07.206-00:00",
        "errors":
          [ { "kind": "temporary",
              "id": "proto.011-PtHangz2.prefilter.outdated_endorsement" } ],
        "included_in_blocks":
          [ "BMFntfKEq3Exb75aksVCDh8Uvg1fdsd9g13gnLdrUjvoTa1v777" ] },
      { "delegate": "tz1TXzyaKUA8wsWefdSnyaYFnV2M3vCV7er9",
        "reception_time": "2022-01-16T00:31:07.253-00:00",
        "errors":
          [ { "kind": "temporary",
              "id": "proto.011-PtHangz2.prefilter.outdated_endorsement" } ],
        "included_in_blocks":
          [ "BMFntfKEq3Exb75aksVCDh8Uvg1fdsd9g13gnLdrUjvoTa1v777" ] },
      { "delegate": "tz1NdhRv643wLW6zCcRP3VfT24dvDnh7nuh9" },
      { "delegate": "tz1Vyuu4EJ5Nym4JcrfRLnp3hpaq1DSEp1Ke" },
      { "delegate": "tz3cF8X5V6DGBdZCC1hoqLzjtq95BcDvDKqe",
        "reception_time": "2022-01-16T00:31:40.264-00:00",
        "errors":
          [ { "kind": "temporary",
              "id": "proto.011-PtHangz2.prefilter.outdated_endorsement" } ] } ] }