{ "blocks":
    [ { "hash": "BM4Ng2taMVwFuL6ei8d3HD7qhb2ZfKyAKb6UXh9Y3rLow295j3k",
        "delegate": "tz1irJKkXS2DBWkU1NnmFQx1c1L7pbGg4yhk",
        "reception_time": "2022-01-15T23:44:26.201-00:00",
        "timestamp": "2022-01-15T23:44:20Z" } ],
  "endorsements":
    [ { "delegate": "tz1Scdr2HsZiQjc7bHMeBbmDRXYVvdhjJbBh",
        "reception_time": "2022-01-15T23:44:26.121-00:00",
        "errors":
          [ { "kind": "temporary",
              "id": "proto.011-PtHangz2.prefilter.outdated_endorsement" } ],
        "included_in_blocks":
          [ "BLEzmdSzdUuBbfDG1WbWN9YuVyXFUiSyWqzha3J6GhKtMLPs7pe" ] },
      { "delegate": "tz1irJKkXS2DBWkU1NnmFQx1c1L7pbGg4yhk",
        "reception_time": "2022-01-15T23:44:26.106-00:00",
        "errors":
          [ { "kind": "temporary",
              "id": "proto.011-PtHangz2.prefilter.outdated_endorsement" } ],
        "included_in_blocks":
          [ "BLEzmdSzdUuBbfDG1WbWN9YuVyXFUiSyWqzha3J6GhKtMLPs7pe" ] },
      { "delegate": "tz1P2Po7YM526ughEsRbY4oR9zaUPDZjxFrb",
        "reception_time": "2022-01-15T23:44:25.953-00:00",
        "errors":
          [ { "kind": "temporary",
              "id": "proto.011-PtHangz2.prefilter.outdated_endorsement" } ],
        "included_in_blocks":
          [ "BLEzmdSzdUuBbfDG1WbWN9YuVyXFUiSyWqzha3J6GhKtMLPs7pe" ] },
      { "delegate": "tz1hQR8t76HwYLUahpnNoe5azcePC6bkrMnn" },
      { "delegate": "tz1TXzyaKUA8wsWefdSnyaYFnV2M3vCV7er9",
        "reception_time": "2022-01-15T23:44:26.431-00:00",
        "included_in_blocks":
          [ "BLEzmdSzdUuBbfDG1WbWN9YuVyXFUiSyWqzha3J6GhKtMLPs7pe" ] },
      { "delegate": "tz1gUNyn3hmnEWqkusWPzxRaon1cs7ndWh7h",
        "reception_time": "2022-01-15T23:44:26.815-00:00",
        "included_in_blocks":
          [ "BLEzmdSzdUuBbfDG1WbWN9YuVyXFUiSyWqzha3J6GhKtMLPs7pe" ] },
      { "delegate": "tz1VQnqCCqX4K5sP3FNkVSNKTdCAMJDd3E1n",
        "reception_time": "2022-01-15T23:44:26.817-00:00",
        "included_in_blocks":
          [ "BLEzmdSzdUuBbfDG1WbWN9YuVyXFUiSyWqzha3J6GhKtMLPs7pe" ] },
      { "delegate": "tz1eEnQhbwf6trb8Q8mPb2RaPkNk2rN7BKi8",
        "reception_time": "2022-01-15T23:44:26.838-00:00",
        "included_in_blocks":
          [ "BLEzmdSzdUuBbfDG1WbWN9YuVyXFUiSyWqzha3J6GhKtMLPs7pe" ] },
      { "delegate": "tz1Kt4P8BCaP93AEV4eA7gmpRryWt5hznjCP",
        "reception_time": "2022-01-15T23:44:26.975-00:00",
        "included_in_blocks":
          [ "BLEzmdSzdUuBbfDG1WbWN9YuVyXFUiSyWqzha3J6GhKtMLPs7pe" ] },
      { "delegate": "tz1Ldzz6k1BHdhuKvAtMRX7h5kJSMHESMHLC",
        "reception_time": "2022-01-15T23:44:26.984-00:00",
        "included_in_blocks":
          [ "BLEzmdSzdUuBbfDG1WbWN9YuVyXFUiSyWqzha3J6GhKtMLPs7pe" ] },
      { "delegate": "tz3RKYFsLuQzKBtmYuLNas7uMu3AsYd4QdsA",
        "reception_time": "2022-01-15T23:44:27.004-00:00",
        "included_in_blocks":
          [ "BLEzmdSzdUuBbfDG1WbWN9YuVyXFUiSyWqzha3J6GhKtMLPs7pe" ] },
      { "delegate": "tz1ZPh7XfUaJXUDvkrBxmS1BjEM1i62hiPpM",
        "reception_time": "2022-01-15T23:44:27.024-00:00",
        "included_in_blocks":
          [ "BLEzmdSzdUuBbfDG1WbWN9YuVyXFUiSyWqzha3J6GhKtMLPs7pe" ] },
      { "delegate": "tz3iJu5vrKZcsqRPs8yJ61UDoeEXZmtro4qh",
        "reception_time": "2022-01-15T23:44:27.057-00:00",
        "included_in_blocks":
          [ "BLEzmdSzdUuBbfDG1WbWN9YuVyXFUiSyWqzha3J6GhKtMLPs7pe" ] },
      { "delegate": "tz3Zhs2dygr55yHyQyKjntAtY9bgfhLZ4Xj1",
        "reception_time": "2022-01-15T23:44:27.076-00:00",
        "included_in_blocks":
          [ "BLEzmdSzdUuBbfDG1WbWN9YuVyXFUiSyWqzha3J6GhKtMLPs7pe" ] },
      { "delegate": "tz3NxTnke1acr8o3h5y9ytf5awQBGNJUKzVU",
        "reception_time": "2022-01-15T23:44:27.076-00:00",
        "included_in_blocks":
          [ "BLEzmdSzdUuBbfDG1WbWN9YuVyXFUiSyWqzha3J6GhKtMLPs7pe" ] },
      { "delegate": "tz3ZbP2pM3nwvXztbuMJwJnDvV5xdpU8UkkD",
        "reception_time": "2022-01-15T23:44:27.096-00:00",
        "included_in_blocks":
          [ "BLEzmdSzdUuBbfDG1WbWN9YuVyXFUiSyWqzha3J6GhKtMLPs7pe" ] },
      { "delegate": "tz1MJx9vhaNRSimcuXPK2rW4fLccQnDAnVKJ",
        "reception_time": "2022-01-15T23:44:27.101-00:00",
        "included_in_blocks":
          [ "BLEzmdSzdUuBbfDG1WbWN9YuVyXFUiSyWqzha3J6GhKtMLPs7pe" ] },
      { "delegate": "tz3QSGPoRp3Kn7n3vY24eYeu3Peuqo45LQ4D",
        "reception_time": "2022-01-15T23:44:27.126-00:00",
        "included_in_blocks":
          [ "BLEzmdSzdUuBbfDG1WbWN9YuVyXFUiSyWqzha3J6GhKtMLPs7pe" ] },
      { "delegate": "tz3gtoUxdudfBRcNY7iVdKPHCYYX6xdPpoRS",
        "reception_time": "2022-01-15T23:44:27.138-00:00",
        "included_in_blocks":
          [ "BLEzmdSzdUuBbfDG1WbWN9YuVyXFUiSyWqzha3J6GhKtMLPs7pe" ] },
      { "delegate": "tz1iPHM2Xx2hwmzcr1EG1zzrV6oKafVoA91m",
        "reception_time": "2022-01-15T23:44:27.140-00:00",
        "included_in_blocks":
          [ "BLEzmdSzdUuBbfDG1WbWN9YuVyXFUiSyWqzha3J6GhKtMLPs7pe" ] },
      { "delegate": "tz1TzaNn7wSQSP5gYPXCnNzBCpyMiidCq1PX",
        "reception_time": "2022-01-15T23:44:27.143-00:00",
        "included_in_blocks":
          [ "BLEzmdSzdUuBbfDG1WbWN9YuVyXFUiSyWqzha3J6GhKtMLPs7pe" ] },
      { "delegate": "tz1VmiY38m3y95HqQLjMwqnMS7sdMfGomzKi",
        "reception_time": "2022-01-15T23:44:27.168-00:00",
        "included_in_blocks":
          [ "BLEzmdSzdUuBbfDG1WbWN9YuVyXFUiSyWqzha3J6GhKtMLPs7pe" ] },
      { "delegate": "tz1aXD7Jigrt3PBYSpHSg5Rr33SexMmmM5Ys",
        "reception_time": "2022-01-15T23:44:27.199-00:00",
        "included_in_blocks":
          [ "BLEzmdSzdUuBbfDG1WbWN9YuVyXFUiSyWqzha3J6GhKtMLPs7pe" ] },
      { "delegate": "tz3hw2kqXhLUvY65ca1eety2oQTpAvd34R9Q",
        "reception_time": "2022-01-15T23:44:27.225-00:00",
        "included_in_blocks":
          [ "BLEzmdSzdUuBbfDG1WbWN9YuVyXFUiSyWqzha3J6GhKtMLPs7pe" ] },
      { "delegate": "tz1W1f1JrE7VsqgpUpj1iiDobqP5TixgZhDk",
        "reception_time": "2022-01-15T23:44:27.249-00:00",
        "included_in_blocks":
          [ "BLEzmdSzdUuBbfDG1WbWN9YuVyXFUiSyWqzha3J6GhKtMLPs7pe" ] },
      { "delegate": "tz1WCd2jm4uSt4vntk4vSuUWoZQGhLcDuR9q",
        "reception_time": "2022-01-15T23:44:27.428-00:00",
        "included_in_blocks":
          [ "BLEzmdSzdUuBbfDG1WbWN9YuVyXFUiSyWqzha3J6GhKtMLPs7pe" ] },
      { "delegate": "tz1d6Fx42mYgVFnHUW8T8A7WBfJ6nD9pVok8",
        "reception_time": "2022-01-15T23:44:27.505-00:00",
        "included_in_blocks":
          [ "BLEzmdSzdUuBbfDG1WbWN9YuVyXFUiSyWqzha3J6GhKtMLPs7pe" ] },
      { "delegate": "tz3QT9dHYKDqh563chVa6za8526ys1UKfRfL",
        "reception_time": "2022-01-15T23:44:27.539-00:00",
        "included_in_blocks":
          [ "BLEzmdSzdUuBbfDG1WbWN9YuVyXFUiSyWqzha3J6GhKtMLPs7pe" ] },
      { "delegate": "tz1PWCDnz783NNGGQjEFFsHtrcK5yBW4E2rm",
        "reception_time": "2022-01-15T23:44:27.580-00:00",
        "included_in_blocks":
          [ "BLEzmdSzdUuBbfDG1WbWN9YuVyXFUiSyWqzha3J6GhKtMLPs7pe" ] },
      { "delegate": "tz1gfArv665EUkSg2ojMBzcbfwuPxAvqPvjo",
        "reception_time": "2022-01-15T23:44:27.588-00:00",
        "included_in_blocks":
          [ "BLEzmdSzdUuBbfDG1WbWN9YuVyXFUiSyWqzha3J6GhKtMLPs7pe" ] },
      { "delegate": "tz3S6BBeKgJGXxvLyZ1xzXzMPn11nnFtq5L9",
        "reception_time": "2022-01-15T23:44:27.620-00:00",
        "included_in_blocks":
          [ "BLEzmdSzdUuBbfDG1WbWN9YuVyXFUiSyWqzha3J6GhKtMLPs7pe" ] },
      { "delegate": "tz1fPKAtsYydh4f1wfWNfeNxWYu72TmM48fu",
        "reception_time": "2022-01-15T23:44:27.685-00:00",
        "included_in_blocks":
          [ "BLEzmdSzdUuBbfDG1WbWN9YuVyXFUiSyWqzha3J6GhKtMLPs7pe" ] },
      { "delegate": "tz1S8MNvuFEUsWgjHvi3AxibRBf388NhT1q2",
        "reception_time": "2022-01-15T23:44:27.694-00:00",
        "included_in_blocks":
          [ "BLEzmdSzdUuBbfDG1WbWN9YuVyXFUiSyWqzha3J6GhKtMLPs7pe" ] },
      { "delegate": "tz3RB4aoyjov4KEVRbuhvQ1CKJgBJMWhaeB8",
        "reception_time": "2022-01-15T23:44:27.787-00:00",
        "included_in_blocks":
          [ "BLEzmdSzdUuBbfDG1WbWN9YuVyXFUiSyWqzha3J6GhKtMLPs7pe" ] },
      { "delegate": "tz1SYq214SCBy9naR6cvycQsYcUGpBqQAE8d",
        "reception_time": "2022-01-15T23:44:27.864-00:00",
        "included_in_blocks":
          [ "BLEzmdSzdUuBbfDG1WbWN9YuVyXFUiSyWqzha3J6GhKtMLPs7pe" ] },
      { "delegate": "tz3adcvQaKXTCg12zbninqo3q8ptKKtDFTLv",
        "reception_time": "2022-01-15T23:44:27.906-00:00",
        "included_in_blocks":
          [ "BLEzmdSzdUuBbfDG1WbWN9YuVyXFUiSyWqzha3J6GhKtMLPs7pe" ] },
      { "delegate": "tz1MivraUX9U6nmGAQkm7XkrNVmsPExEUT1W",
        "reception_time": "2022-01-15T23:44:27.918-00:00",
        "included_in_blocks":
          [ "BLEzmdSzdUuBbfDG1WbWN9YuVyXFUiSyWqzha3J6GhKtMLPs7pe" ] },
      { "delegate": "tz1V4qCyvPKZ5UeqdH14HN42rxvNPQfc9UZg",
        "reception_time": "2022-01-15T23:44:27.947-00:00",
        "included_in_blocks":
          [ "BLEzmdSzdUuBbfDG1WbWN9YuVyXFUiSyWqzha3J6GhKtMLPs7pe" ] },
      { "delegate": "tz3RDC3Jdn4j15J7bBHZd29EUee9gVB1CxD9",
        "reception_time": "2022-01-15T23:44:27.988-00:00",
        "included_in_blocks":
          [ "BLEzmdSzdUuBbfDG1WbWN9YuVyXFUiSyWqzha3J6GhKtMLPs7pe" ] },
      { "delegate": "tz1g8vkmcde6sWKaG2NN9WKzCkDM6Rziq194",
        "reception_time": "2022-01-15T23:44:28.080-00:00",
        "included_in_blocks":
          [ "BLEzmdSzdUuBbfDG1WbWN9YuVyXFUiSyWqzha3J6GhKtMLPs7pe" ] },
      { "delegate": "tz3bTdwZinP8U1JmSweNzVKhmwafqWmFWRfk",
        "reception_time": "2022-01-15T23:44:28.093-00:00",
        "included_in_blocks":
          [ "BLEzmdSzdUuBbfDG1WbWN9YuVyXFUiSyWqzha3J6GhKtMLPs7pe" ] },
      { "delegate": "tz1MQJPGNMijnXnVoBENFz9rUhaPt3S7rWoz",
        "reception_time": "2022-01-15T23:44:28.175-00:00",
        "included_in_blocks":
          [ "BLEzmdSzdUuBbfDG1WbWN9YuVyXFUiSyWqzha3J6GhKtMLPs7pe" ] },
      { "delegate": "tz1fwnfJNgiDACshK9avfRfFbMaXrs3ghoJa",
        "reception_time": "2022-01-15T23:44:28.269-00:00",
        "included_in_blocks":
          [ "BLEzmdSzdUuBbfDG1WbWN9YuVyXFUiSyWqzha3J6GhKtMLPs7pe" ] },
      { "delegate": "tz1TEc75UKXv4W5cwi14Na3NtqFD51yKQi7h",
        "reception_time": "2022-01-15T23:44:28.271-00:00",
        "included_in_blocks":
          [ "BLEzmdSzdUuBbfDG1WbWN9YuVyXFUiSyWqzha3J6GhKtMLPs7pe" ] },
      { "delegate": "tz1KfEsrtDaA1sX7vdM4qmEPWuSytuqCDp5j",
        "reception_time": "2022-01-15T23:44:28.291-00:00",
        "included_in_blocks":
          [ "BLEzmdSzdUuBbfDG1WbWN9YuVyXFUiSyWqzha3J6GhKtMLPs7pe" ] },
      { "delegate": "tz2FCNBrERXtaTtNX6iimR1UJ5JSDxvdHM93",
        "reception_time": "2022-01-15T23:44:28.366-00:00",
        "included_in_blocks":
          [ "BLEzmdSzdUuBbfDG1WbWN9YuVyXFUiSyWqzha3J6GhKtMLPs7pe" ] },
      { "delegate": "tz3NDpRj6WBrJPikcPVHRBEjWKxFw3c6eQPS",
        "reception_time": "2022-01-15T23:44:28.474-00:00",
        "included_in_blocks":
          [ "BLEzmdSzdUuBbfDG1WbWN9YuVyXFUiSyWqzha3J6GhKtMLPs7pe" ] },
      { "delegate": "tz1RCFbB9GpALpsZtu6J58sb74dm8qe6XBzv",
        "reception_time": "2022-01-15T23:44:28.492-00:00",
        "included_in_blocks":
          [ "BLEzmdSzdUuBbfDG1WbWN9YuVyXFUiSyWqzha3J6GhKtMLPs7pe" ] },
      { "delegate": "tz3gLTu4Yxj8tPAcriQVUdxv6BY9QyvzU1az",
        "reception_time": "2022-01-15T23:44:28.564-00:00",
        "included_in_blocks":
          [ "BLEzmdSzdUuBbfDG1WbWN9YuVyXFUiSyWqzha3J6GhKtMLPs7pe" ] },
      { "delegate": "tz1WwDDoqA6h1wAnAoT5jiCYJz5CB43f3D78",
        "reception_time": "2022-01-15T23:44:28.588-00:00",
        "included_in_blocks":
          [ "BLEzmdSzdUuBbfDG1WbWN9YuVyXFUiSyWqzha3J6GhKtMLPs7pe" ] },
      { "delegate": "tz1WBfwbT66FC6BTLexc2BoyCCBM9LG7pnVW",
        "reception_time": "2022-01-15T23:44:28.646-00:00",
        "included_in_blocks":
          [ "BLEzmdSzdUuBbfDG1WbWN9YuVyXFUiSyWqzha3J6GhKtMLPs7pe" ] },
      { "delegate": "tz1Nf6tsK4G6bBqgSQERy4nUtkHNKUVdh7q1",
        "reception_time": "2022-01-15T23:44:28.664-00:00",
        "included_in_blocks":
          [ "BLEzmdSzdUuBbfDG1WbWN9YuVyXFUiSyWqzha3J6GhKtMLPs7pe" ] },
      { "delegate": "tz1cig1EHyvZd7J2k389moM9PxVgPQvmFkvi",
        "reception_time": "2022-01-15T23:44:28.707-00:00",
        "included_in_blocks":
          [ "BLEzmdSzdUuBbfDG1WbWN9YuVyXFUiSyWqzha3J6GhKtMLPs7pe" ] },
      { "delegate": "tz1SohptP53wDPZhzTWzDUFAUcWF6DMBpaJV",
        "reception_time": "2022-01-15T23:44:28.786-00:00",
        "included_in_blocks":
          [ "BLEzmdSzdUuBbfDG1WbWN9YuVyXFUiSyWqzha3J6GhKtMLPs7pe" ] },
      { "delegate": "tz1Vd1rXpV8hTHbFXCXN3c3qzCsgcU5BZw1e",
        "reception_time": "2022-01-15T23:44:28.796-00:00",
        "included_in_blocks":
          [ "BLEzmdSzdUuBbfDG1WbWN9YuVyXFUiSyWqzha3J6GhKtMLPs7pe" ] },
      { "delegate": "tz3VEZ4k6a4Wx42iyev6i2aVAptTRLEAivNN",
        "reception_time": "2022-01-15T23:44:28.836-00:00",
        "included_in_blocks":
          [ "BLEzmdSzdUuBbfDG1WbWN9YuVyXFUiSyWqzha3J6GhKtMLPs7pe" ] },
      { "delegate": "tz3WMqdzXqRWXwyvj5Hp2H7QEepaUuS7vd9K",
        "reception_time": "2022-01-15T23:44:28.909-00:00",
        "included_in_blocks":
          [ "BLEzmdSzdUuBbfDG1WbWN9YuVyXFUiSyWqzha3J6GhKtMLPs7pe" ] },
      { "delegate": "tz3bvNMQ95vfAYtG8193ymshqjSvmxiCUuR5",
        "reception_time": "2022-01-15T23:44:29.073-00:00",
        "included_in_blocks":
          [ "BLEzmdSzdUuBbfDG1WbWN9YuVyXFUiSyWqzha3J6GhKtMLPs7pe" ] },
      { "delegate": "tz1NMNQYrYrfNpmUqQrMhJypf6ovnaDZhJHM",
        "reception_time": "2022-01-15T23:44:29.109-00:00",
        "included_in_blocks":
          [ "BLEzmdSzdUuBbfDG1WbWN9YuVyXFUiSyWqzha3J6GhKtMLPs7pe" ] },
      { "delegate": "tz1NEKxGEHsFufk87CVZcrqWu8o22qh46GK6",
        "reception_time": "2022-01-15T23:44:29.115-00:00",
        "included_in_blocks":
          [ "BLEzmdSzdUuBbfDG1WbWN9YuVyXFUiSyWqzha3J6GhKtMLPs7pe" ] },
      { "delegate": "tz1RjoHc98dBoqaH2jawF62XNKh7YsHwbkEv",
        "reception_time": "2022-01-15T23:44:29.208-00:00",
        "included_in_blocks":
          [ "BLEzmdSzdUuBbfDG1WbWN9YuVyXFUiSyWqzha3J6GhKtMLPs7pe" ] },
      { "delegate": "tz1dNVDWPf3Q59SdJqnjdnu277iyvReiRS9M",
        "reception_time": "2022-01-15T23:44:29.230-00:00",
        "included_in_blocks":
          [ "BLEzmdSzdUuBbfDG1WbWN9YuVyXFUiSyWqzha3J6GhKtMLPs7pe" ] },
      { "delegate": "tz1UVFkBnZzy2WGzs7415DNwsbvuyvz4ZznB",
        "reception_time": "2022-01-15T23:44:29.325-00:00",
        "included_in_blocks":
          [ "BLEzmdSzdUuBbfDG1WbWN9YuVyXFUiSyWqzha3J6GhKtMLPs7pe" ] },
      { "delegate": "tz1V3yg82mcrPJbegqVCPn6bC8w1CSTRp3f8",
        "reception_time": "2022-01-15T23:44:29.505-00:00",
        "included_in_blocks":
          [ "BLEzmdSzdUuBbfDG1WbWN9YuVyXFUiSyWqzha3J6GhKtMLPs7pe" ] },
      { "delegate": "tz1T7duV5gZWSTq4YpBGbXNLTfznCLDrFxvs",
        "reception_time": "2022-01-15T23:44:29.528-00:00",
        "included_in_blocks":
          [ "BLEzmdSzdUuBbfDG1WbWN9YuVyXFUiSyWqzha3J6GhKtMLPs7pe" ] },
      { "delegate": "tz1dRKU4FQ9QRRQPdaH4zCR6gmCmXfcvcgtB",
        "reception_time": "2022-01-15T23:44:29.601-00:00",
        "included_in_blocks":
          [ "BLEzmdSzdUuBbfDG1WbWN9YuVyXFUiSyWqzha3J6GhKtMLPs7pe" ] },
      { "delegate": "tz3NExpXn9aPNZPorRE4SdjJ2RGrfbJgMAaV",
        "reception_time": "2022-01-15T23:44:29.782-00:00",
        "included_in_blocks":
          [ "BLEzmdSzdUuBbfDG1WbWN9YuVyXFUiSyWqzha3J6GhKtMLPs7pe" ] },
      { "delegate": "tz1TRqbYbUf2GyrjErf3hBzgBJPzW8y36qEs",
        "reception_time": "2022-01-15T23:44:29.840-00:00",
        "included_in_blocks":
          [ "BLEzmdSzdUuBbfDG1WbWN9YuVyXFUiSyWqzha3J6GhKtMLPs7pe" ] },
      { "delegate": "tz1i3mhawFAgcB8JHaHwoUF6hdncwTAkLEn2",
        "reception_time": "2022-01-15T23:44:29.917-00:00",
        "included_in_blocks":
          [ "BLEzmdSzdUuBbfDG1WbWN9YuVyXFUiSyWqzha3J6GhKtMLPs7pe" ] },
      { "delegate": "tz1ZcTRk5uxD86EFEn1vvNffWWqJy7q5eVhc",
        "reception_time": "2022-01-15T23:44:29.967-00:00",
        "included_in_blocks":
          [ "BLEzmdSzdUuBbfDG1WbWN9YuVyXFUiSyWqzha3J6GhKtMLPs7pe" ] },
      { "delegate": "tz1awXW7wuXy21c66vBudMXQVAPgRnqqwgTH",
        "reception_time": "2022-01-15T23:44:30.035-00:00",
        "included_in_blocks":
          [ "BLEzmdSzdUuBbfDG1WbWN9YuVyXFUiSyWqzha3J6GhKtMLPs7pe" ] },
      { "delegate": "tz1QccGQsmt7WMnbVX9inJQgEuQGeMXddfjp",
        "reception_time": "2022-01-15T23:44:30.464-00:00",
        "included_in_blocks":
          [ "BLEzmdSzdUuBbfDG1WbWN9YuVyXFUiSyWqzha3J6GhKtMLPs7pe" ] },
      { "delegate": "tz3UoffC7FG7zfpmvmjUmUeAaHvzdcUvAj6r",
        "reception_time": "2022-01-15T23:44:30.497-00:00",
        "included_in_blocks":
          [ "BLEzmdSzdUuBbfDG1WbWN9YuVyXFUiSyWqzha3J6GhKtMLPs7pe" ] },
      { "delegate": "tz1aRoaRhSpRYvFdyvgWLL6TGyRoGF51wDjM",
        "reception_time": "2022-01-15T23:44:30.560-00:00",
        "included_in_blocks":
          [ "BLEzmdSzdUuBbfDG1WbWN9YuVyXFUiSyWqzha3J6GhKtMLPs7pe" ] },
      { "delegate": "tz1fJHFn6sWEd3NnBPngACuw2dggTv6nQZ7g",
        "reception_time": "2022-01-15T23:44:31.410-00:00",
        "included_in_blocks":
          [ "BLEzmdSzdUuBbfDG1WbWN9YuVyXFUiSyWqzha3J6GhKtMLPs7pe" ] },
      { "delegate": "tz1eVaNx3gCmG1EsLjijkmgAxdLYVf6Bf5Sq",
        "reception_time": "2022-01-15T23:44:31.499-00:00",
        "included_in_blocks":
          [ "BLEzmdSzdUuBbfDG1WbWN9YuVyXFUiSyWqzha3J6GhKtMLPs7pe" ] },
      { "delegate": "tz1LVqmufjrmV67vNmZWXRDPMwSCh7mLBnS3",
        "reception_time": "2022-01-15T23:44:32.212-00:00",
        "included_in_blocks":
          [ "BLEzmdSzdUuBbfDG1WbWN9YuVyXFUiSyWqzha3J6GhKtMLPs7pe" ] },
      { "delegate": "tz1S5WxdZR5f9NzsPXhr7L9L1vrEb5spZFur",
        "reception_time": "2022-01-15T23:44:32.564-00:00",
        "included_in_blocks":
          [ "BLEzmdSzdUuBbfDG1WbWN9YuVyXFUiSyWqzha3J6GhKtMLPs7pe" ] },
      { "delegate": "tz1WnyXakHZKotpQHxevTnLmomz5rTwdiccy",
        "reception_time": "2022-01-15T23:44:36.797-00:00",
        "included_in_blocks":
          [ "BLEzmdSzdUuBbfDG1WbWN9YuVyXFUiSyWqzha3J6GhKtMLPs7pe" ] },
      { "delegate": "tz1NpWrAyDL9k2Lmnyxcgr9xuJakbBxdq7FB",
        "reception_time": "2022-01-15T23:44:38.161-00:00",
        "included_in_blocks":
          [ "BLEzmdSzdUuBbfDG1WbWN9YuVyXFUiSyWqzha3J6GhKtMLPs7pe" ] } ] }