{ "blocks":
    [ { "hash": "BMBZ8vRGjSMsNdKpZTpeJPoCRhUW2hLBwYeHDs6SbcZJN1yoKt6",
        "delegate": "tz3bTdwZinP8U1JmSweNzVKhmwafqWmFWRfk",
        "reception_time": "2022-01-16T00:38:08.807-00:00",
        "timestamp": "2022-01-16T00:38:00Z" } ],
  "endorsements":
    [ { "delegate": "tz1dbfppLAAxXZNtf2SDps7rch3qfUznKSoK" },
      { "delegate": "tz1TRspM5SeZpaQUhzByXbEvqKF1vnCM2YTK" },
      { "delegate": "tz1NMdMmWZN8QPB8pY4ddncACDg1cHi1xD2e" },
      { "delegate": "tz3e7LbZvUtoXhpUD1yb6wuFodZpfYRb9nWJ",
        "reception_time": "2022-01-16T00:38:17.503-00:00",
        "included_in_blocks":
          [ "BLmgv2uoA4yUHq5zuaTaUq2Bw7rCYvbXBtM9WG1agunv5o8rJ57" ] },
      { "delegate": "tz1go7f6mEQfT2xX2LuHAqgnRGN6c2zHPf5c",
        "reception_time": "2022-01-16T00:38:15.555-00:00",
        "included_in_blocks":
          [ "BLmgv2uoA4yUHq5zuaTaUq2Bw7rCYvbXBtM9WG1agunv5o8rJ57" ] },
      { "delegate": "tz1W5VkdB5s7ENMESVBtwyt9kyvLqPcUczRT",
        "reception_time": "2022-01-16T00:38:13.516-00:00",
        "included_in_blocks":
          [ "BLmgv2uoA4yUHq5zuaTaUq2Bw7rCYvbXBtM9WG1agunv5o8rJ57" ] },
      { "delegate": "tz1awXW7wuXy21c66vBudMXQVAPgRnqqwgTH",
        "reception_time": "2022-01-16T00:38:13.098-00:00",
        "included_in_blocks":
          [ "BLmgv2uoA4yUHq5zuaTaUq2Bw7rCYvbXBtM9WG1agunv5o8rJ57" ] },
      { "delegate": "tz1eLbDXYceRsPZoPmaJXZgQ6pzgnTQvZtpo",
        "reception_time": "2022-01-16T00:38:13.137-00:00",
        "included_in_blocks":
          [ "BLmgv2uoA4yUHq5zuaTaUq2Bw7rCYvbXBtM9WG1agunv5o8rJ57" ] },
      { "delegate": "tz1RjoHc98dBoqaH2jawF62XNKh7YsHwbkEv",
        "reception_time": "2022-01-16T00:38:12.573-00:00",
        "included_in_blocks":
          [ "BLmgv2uoA4yUHq5zuaTaUq2Bw7rCYvbXBtM9WG1agunv5o8rJ57" ] },
      { "delegate": "tz1TRqbYbUf2GyrjErf3hBzgBJPzW8y36qEs",
        "reception_time": "2022-01-16T00:38:12.117-00:00",
        "included_in_blocks":
          [ "BLmgv2uoA4yUHq5zuaTaUq2Bw7rCYvbXBtM9WG1agunv5o8rJ57" ] },
      { "delegate": "tz1UvkANVPWppVgMkLnvN7BwYZsCP7vm6NVd",
        "reception_time": "2022-01-16T00:38:11.944-00:00",
        "included_in_blocks":
          [ "BLmgv2uoA4yUHq5zuaTaUq2Bw7rCYvbXBtM9WG1agunv5o8rJ57" ] },
      { "delegate": "tz3NExpXn9aPNZPorRE4SdjJ2RGrfbJgMAaV",
        "reception_time": "2022-01-16T00:38:11.976-00:00",
        "included_in_blocks":
          [ "BLmgv2uoA4yUHq5zuaTaUq2Bw7rCYvbXBtM9WG1agunv5o8rJ57" ] },
      { "delegate": "tz3UoffC7FG7zfpmvmjUmUeAaHvzdcUvAj6r",
        "reception_time": "2022-01-16T00:38:11.872-00:00",
        "included_in_blocks":
          [ "BLmgv2uoA4yUHq5zuaTaUq2Bw7rCYvbXBtM9WG1agunv5o8rJ57" ] },
      { "delegate": "tz1aRoaRhSpRYvFdyvgWLL6TGyRoGF51wDjM",
        "reception_time": "2022-01-16T00:38:11.796-00:00",
        "included_in_blocks":
          [ "BLmgv2uoA4yUHq5zuaTaUq2Bw7rCYvbXBtM9WG1agunv5o8rJ57" ] },
      { "delegate": "tz1NEKxGEHsFufk87CVZcrqWu8o22qh46GK6",
        "reception_time": "2022-01-16T00:38:11.666-00:00",
        "included_in_blocks":
          [ "BLmgv2uoA4yUHq5zuaTaUq2Bw7rCYvbXBtM9WG1agunv5o8rJ57" ] },
      { "delegate": "tz3NDpRj6WBrJPikcPVHRBEjWKxFw3c6eQPS",
        "reception_time": "2022-01-16T00:38:11.441-00:00",
        "included_in_blocks":
          [ "BLmgv2uoA4yUHq5zuaTaUq2Bw7rCYvbXBtM9WG1agunv5o8rJ57" ] },
      { "delegate": "tz1fwnfJNgiDACshK9avfRfFbMaXrs3ghoJa",
        "reception_time": "2022-01-16T00:38:11.349-00:00",
        "included_in_blocks":
          [ "BLmgv2uoA4yUHq5zuaTaUq2Bw7rCYvbXBtM9WG1agunv5o8rJ57" ] },
      { "delegate": "tz2FCNBrERXtaTtNX6iimR1UJ5JSDxvdHM93",
        "reception_time": "2022-01-16T00:38:11.356-00:00",
        "included_in_blocks":
          [ "BLmgv2uoA4yUHq5zuaTaUq2Bw7rCYvbXBtM9WG1agunv5o8rJ57" ] },
      { "delegate": "tz1RQhNh7iB9CZA7i3ifTWNwiGYVffponfbB",
        "reception_time": "2022-01-16T00:38:11.344-00:00",
        "included_in_blocks":
          [ "BLmgv2uoA4yUHq5zuaTaUq2Bw7rCYvbXBtM9WG1agunv5o8rJ57" ] },
      { "delegate": "tz1SohptP53wDPZhzTWzDUFAUcWF6DMBpaJV",
        "reception_time": "2022-01-16T00:38:11.222-00:00",
        "included_in_blocks":
          [ "BLmgv2uoA4yUHq5zuaTaUq2Bw7rCYvbXBtM9WG1agunv5o8rJ57" ] },
      { "delegate": "tz1UMCB2AHSTwG7YcGNr31CqYCtGN873royv",
        "reception_time": "2022-01-16T00:38:11.115-00:00",
        "included_in_blocks":
          [ "BLmgv2uoA4yUHq5zuaTaUq2Bw7rCYvbXBtM9WG1agunv5o8rJ57" ] },
      { "delegate": "tz1KfEsrtDaA1sX7vdM4qmEPWuSytuqCDp5j",
        "reception_time": "2022-01-16T00:38:11.142-00:00",
        "included_in_blocks":
          [ "BLmgv2uoA4yUHq5zuaTaUq2Bw7rCYvbXBtM9WG1agunv5o8rJ57" ] },
      { "delegate": "tz1WBfwbT66FC6BTLexc2BoyCCBM9LG7pnVW",
        "reception_time": "2022-01-16T00:38:11.092-00:00",
        "included_in_blocks":
          [ "BLmgv2uoA4yUHq5zuaTaUq2Bw7rCYvbXBtM9WG1agunv5o8rJ57" ] },
      { "delegate": "tz1Tnjaxk6tbAeC2TmMApPh8UsrEVQvhHvx5",
        "reception_time": "2022-01-16T00:38:11.104-00:00",
        "included_in_blocks":
          [ "BLmgv2uoA4yUHq5zuaTaUq2Bw7rCYvbXBtM9WG1agunv5o8rJ57" ] },
      { "delegate": "tz1ei4WtWEMEJekSv8qDnu9PExG6Q8HgRGr3",
        "reception_time": "2022-01-16T00:38:10.944-00:00",
        "included_in_blocks":
          [ "BLmgv2uoA4yUHq5zuaTaUq2Bw7rCYvbXBtM9WG1agunv5o8rJ57" ] },
      { "delegate": "tz3WMqdzXqRWXwyvj5Hp2H7QEepaUuS7vd9K",
        "reception_time": "2022-01-16T00:38:10.840-00:00",
        "included_in_blocks":
          [ "BLmgv2uoA4yUHq5zuaTaUq2Bw7rCYvbXBtM9WG1agunv5o8rJ57" ] },
      { "delegate": "tz3VEZ4k6a4Wx42iyev6i2aVAptTRLEAivNN",
        "reception_time": "2022-01-16T00:38:10.934-00:00",
        "included_in_blocks":
          [ "BLmgv2uoA4yUHq5zuaTaUq2Bw7rCYvbXBtM9WG1agunv5o8rJ57" ] },
      { "delegate": "tz1gfArv665EUkSg2ojMBzcbfwuPxAvqPvjo",
        "reception_time": "2022-01-16T00:38:10.845-00:00",
        "included_in_blocks":
          [ "BLmgv2uoA4yUHq5zuaTaUq2Bw7rCYvbXBtM9WG1agunv5o8rJ57" ] },
      { "delegate": "tz3bvNMQ95vfAYtG8193ymshqjSvmxiCUuR5",
        "reception_time": "2022-01-16T00:38:10.783-00:00",
        "included_in_blocks":
          [ "BLmgv2uoA4yUHq5zuaTaUq2Bw7rCYvbXBtM9WG1agunv5o8rJ57" ] },
      { "delegate": "tz1g8vkmcde6sWKaG2NN9WKzCkDM6Rziq194",
        "reception_time": "2022-01-16T00:38:10.785-00:00",
        "included_in_blocks":
          [ "BLmgv2uoA4yUHq5zuaTaUq2Bw7rCYvbXBtM9WG1agunv5o8rJ57" ] },
      { "delegate": "tz1Nf6tsK4G6bBqgSQERy4nUtkHNKUVdh7q1",
        "reception_time": "2022-01-16T00:38:10.653-00:00",
        "included_in_blocks":
          [ "BLmgv2uoA4yUHq5zuaTaUq2Bw7rCYvbXBtM9WG1agunv5o8rJ57" ] },
      { "delegate": "tz1WnfXMPaNTBmH7DBPwqCWs9cPDJdkGBTZ8",
        "reception_time": "2022-01-16T00:38:10.636-00:00",
        "included_in_blocks":
          [ "BLmgv2uoA4yUHq5zuaTaUq2Bw7rCYvbXBtM9WG1agunv5o8rJ57" ] },
      { "delegate": "tz3adcvQaKXTCg12zbninqo3q8ptKKtDFTLv",
        "reception_time": "2022-01-16T00:38:10.627-00:00",
        "included_in_blocks":
          [ "BLmgv2uoA4yUHq5zuaTaUq2Bw7rCYvbXBtM9WG1agunv5o8rJ57" ] },
      { "delegate": "tz3gtoUxdudfBRcNY7iVdKPHCYYX6xdPpoRS",
        "reception_time": "2022-01-16T00:38:10.442-00:00",
        "included_in_blocks":
          [ "BLmgv2uoA4yUHq5zuaTaUq2Bw7rCYvbXBtM9WG1agunv5o8rJ57" ] },
      { "delegate": "tz3RB4aoyjov4KEVRbuhvQ1CKJgBJMWhaeB8",
        "reception_time": "2022-01-16T00:38:10.516-00:00",
        "included_in_blocks":
          [ "BLmgv2uoA4yUHq5zuaTaUq2Bw7rCYvbXBtM9WG1agunv5o8rJ57" ] },
      { "delegate": "tz3QSGPoRp3Kn7n3vY24eYeu3Peuqo45LQ4D",
        "reception_time": "2022-01-16T00:38:10.449-00:00",
        "included_in_blocks":
          [ "BLmgv2uoA4yUHq5zuaTaUq2Bw7rCYvbXBtM9WG1agunv5o8rJ57" ] },
      { "delegate": "tz1KzSC1J9aBxKp7u8TUnpN8L7S65PBRkgdF",
        "reception_time": "2022-01-16T00:38:10.467-00:00",
        "included_in_blocks":
          [ "BLmgv2uoA4yUHq5zuaTaUq2Bw7rCYvbXBtM9WG1agunv5o8rJ57" ] },
      { "delegate": "tz1cSj7fTex3JPd1p1LN1fwek6AV1kH93Wwc",
        "reception_time": "2022-01-16T00:38:10.472-00:00",
        "included_in_blocks":
          [ "BLmgv2uoA4yUHq5zuaTaUq2Bw7rCYvbXBtM9WG1agunv5o8rJ57" ] },
      { "delegate": "tz1SYq214SCBy9naR6cvycQsYcUGpBqQAE8d",
        "reception_time": "2022-01-16T00:38:10.377-00:00",
        "included_in_blocks":
          [ "BLmgv2uoA4yUHq5zuaTaUq2Bw7rCYvbXBtM9WG1agunv5o8rJ57" ] },
      { "delegate": "tz1gUNyn3hmnEWqkusWPzxRaon1cs7ndWh7h",
        "reception_time": "2022-01-16T00:38:10.325-00:00",
        "included_in_blocks":
          [ "BLmgv2uoA4yUHq5zuaTaUq2Bw7rCYvbXBtM9WG1agunv5o8rJ57" ] },
      { "delegate": "tz1abmz7jiCV2GH2u81LRrGgAFFgvQgiDiaf",
        "reception_time": "2022-01-16T00:38:10.418-00:00",
        "included_in_blocks":
          [ "BLmgv2uoA4yUHq5zuaTaUq2Bw7rCYvbXBtM9WG1agunv5o8rJ57" ] },
      { "delegate": "tz1VQnqCCqX4K5sP3FNkVSNKTdCAMJDd3E1n",
        "reception_time": "2022-01-16T00:38:10.326-00:00",
        "included_in_blocks":
          [ "BLmgv2uoA4yUHq5zuaTaUq2Bw7rCYvbXBtM9WG1agunv5o8rJ57" ] },
      { "delegate": "tz1S8MNvuFEUsWgjHvi3AxibRBf388NhT1q2",
        "reception_time": "2022-01-16T00:38:10.306-00:00",
        "included_in_blocks":
          [ "BLmgv2uoA4yUHq5zuaTaUq2Bw7rCYvbXBtM9WG1agunv5o8rJ57" ] },
      { "delegate": "tz1VmiY38m3y95HqQLjMwqnMS7sdMfGomzKi",
        "reception_time": "2022-01-16T00:38:10.303-00:00",
        "included_in_blocks":
          [ "BLmgv2uoA4yUHq5zuaTaUq2Bw7rCYvbXBtM9WG1agunv5o8rJ57" ] },
      { "delegate": "tz1WCd2jm4uSt4vntk4vSuUWoZQGhLcDuR9q",
        "reception_time": "2022-01-16T00:38:10.284-00:00",
        "included_in_blocks":
          [ "BLmgv2uoA4yUHq5zuaTaUq2Bw7rCYvbXBtM9WG1agunv5o8rJ57" ] },
      { "delegate": "tz1MQJPGNMijnXnVoBENFz9rUhaPt3S7rWoz",
        "reception_time": "2022-01-16T00:38:10.139-00:00",
        "included_in_blocks":
          [ "BLmgv2uoA4yUHq5zuaTaUq2Bw7rCYvbXBtM9WG1agunv5o8rJ57" ] },
      { "delegate": "tz1fUyqYH7H4pRHN1roWY17giXhy1RvxjgUV",
        "reception_time": "2022-01-16T00:38:10.191-00:00",
        "included_in_blocks":
          [ "BLmgv2uoA4yUHq5zuaTaUq2Bw7rCYvbXBtM9WG1agunv5o8rJ57" ] },
      { "delegate": "tz3RDC3Jdn4j15J7bBHZd29EUee9gVB1CxD9",
        "reception_time": "2022-01-16T00:38:10.167-00:00",
        "included_in_blocks":
          [ "BLmgv2uoA4yUHq5zuaTaUq2Bw7rCYvbXBtM9WG1agunv5o8rJ57" ] },
      { "delegate": "tz3Zhs2dygr55yHyQyKjntAtY9bgfhLZ4Xj1",
        "reception_time": "2022-01-16T00:38:10.042-00:00",
        "included_in_blocks":
          [ "BLmgv2uoA4yUHq5zuaTaUq2Bw7rCYvbXBtM9WG1agunv5o8rJ57" ] },
      { "delegate": "tz3iJu5vrKZcsqRPs8yJ61UDoeEXZmtro4qh",
        "reception_time": "2022-01-16T00:38:10.057-00:00",
        "included_in_blocks":
          [ "BLmgv2uoA4yUHq5zuaTaUq2Bw7rCYvbXBtM9WG1agunv5o8rJ57" ] },
      { "delegate": "tz1Ldzz6k1BHdhuKvAtMRX7h5kJSMHESMHLC",
        "reception_time": "2022-01-16T00:38:10.057-00:00",
        "included_in_blocks":
          [ "BLmgv2uoA4yUHq5zuaTaUq2Bw7rCYvbXBtM9WG1agunv5o8rJ57" ] },
      { "delegate": "tz1iMAHAVpkCVegF9FLGWUpQQeiAHh4ffdLQ",
        "reception_time": "2022-01-16T00:38:10.062-00:00",
        "included_in_blocks":
          [ "BLmgv2uoA4yUHq5zuaTaUq2Bw7rCYvbXBtM9WG1agunv5o8rJ57" ] },
      { "delegate": "tz3RKYFsLuQzKBtmYuLNas7uMu3AsYd4QdsA",
        "reception_time": "2022-01-16T00:38:09.993-00:00",
        "included_in_blocks":
          [ "BLmgv2uoA4yUHq5zuaTaUq2Bw7rCYvbXBtM9WG1agunv5o8rJ57" ] },
      { "delegate": "tz3QT9dHYKDqh563chVa6za8526ys1UKfRfL",
        "reception_time": "2022-01-16T00:38:10.030-00:00",
        "included_in_blocks":
          [ "BLmgv2uoA4yUHq5zuaTaUq2Bw7rCYvbXBtM9WG1agunv5o8rJ57" ] },
      { "delegate": "tz3hw2kqXhLUvY65ca1eety2oQTpAvd34R9Q",
        "reception_time": "2022-01-16T00:38:10.078-00:00",
        "included_in_blocks":
          [ "BLmgv2uoA4yUHq5zuaTaUq2Bw7rCYvbXBtM9WG1agunv5o8rJ57" ] },
      { "delegate": "tz3S6BBeKgJGXxvLyZ1xzXzMPn11nnFtq5L9",
        "reception_time": "2022-01-16T00:38:10.012-00:00",
        "included_in_blocks":
          [ "BLmgv2uoA4yUHq5zuaTaUq2Bw7rCYvbXBtM9WG1agunv5o8rJ57" ] },
      { "delegate": "tz1irJKkXS2DBWkU1NnmFQx1c1L7pbGg4yhk",
        "reception_time": "2022-01-16T00:38:09.589-00:00",
        "included_in_blocks":
          [ "BLmgv2uoA4yUHq5zuaTaUq2Bw7rCYvbXBtM9WG1agunv5o8rJ57" ] },
      { "delegate": "tz3ZbP2pM3nwvXztbuMJwJnDvV5xdpU8UkkD",
        "reception_time": "2022-01-16T00:38:09.725-00:00",
        "included_in_blocks":
          [ "BLmgv2uoA4yUHq5zuaTaUq2Bw7rCYvbXBtM9WG1agunv5o8rJ57" ] },
      { "delegate": "tz3NxTnke1acr8o3h5y9ytf5awQBGNJUKzVU",
        "reception_time": "2022-01-16T00:38:09.657-00:00",
        "included_in_blocks":
          [ "BLmgv2uoA4yUHq5zuaTaUq2Bw7rCYvbXBtM9WG1agunv5o8rJ57" ] },
      { "delegate": "tz1TXzyaKUA8wsWefdSnyaYFnV2M3vCV7er9",
        "reception_time": "2022-01-16T00:38:09.461-00:00",
        "included_in_blocks":
          [ "BLmgv2uoA4yUHq5zuaTaUq2Bw7rCYvbXBtM9WG1agunv5o8rJ57" ] },
      { "delegate": "tz1Scdr2HsZiQjc7bHMeBbmDRXYVvdhjJbBh",
        "reception_time": "2022-01-16T00:38:09.456-00:00",
        "included_in_blocks":
          [ "BLmgv2uoA4yUHq5zuaTaUq2Bw7rCYvbXBtM9WG1agunv5o8rJ57" ] },
      { "delegate": "tz1MXFrtZoaXckE41bjUCSjAjAap3AFDSr3N",
        "reception_time": "2022-01-16T00:38:09.463-00:00",
        "included_in_blocks":
          [ "BLmgv2uoA4yUHq5zuaTaUq2Bw7rCYvbXBtM9WG1agunv5o8rJ57" ] },
      { "delegate": "tz3bTdwZinP8U1JmSweNzVKhmwafqWmFWRfk",
        "reception_time": "2022-01-16T00:38:09.470-00:00",
        "included_in_blocks":
          [ "BLmgv2uoA4yUHq5zuaTaUq2Bw7rCYvbXBtM9WG1agunv5o8rJ57" ] },
      { "delegate": "tz1Kt4P8BCaP93AEV4eA7gmpRryWt5hznjCP",
        "reception_time": "2022-01-16T00:38:09.459-00:00",
        "included_in_blocks":
          [ "BLmgv2uoA4yUHq5zuaTaUq2Bw7rCYvbXBtM9WG1agunv5o8rJ57" ] },
      { "delegate": "tz1eEnQhbwf6trb8Q8mPb2RaPkNk2rN7BKi8",
        "reception_time": "2022-01-16T00:38:09.455-00:00",
        "included_in_blocks":
          [ "BLmgv2uoA4yUHq5zuaTaUq2Bw7rCYvbXBtM9WG1agunv5o8rJ57" ] } ] }