{ "blocks":
    [ { "hash": "BKuGvWTpf9DNtBVtyxwuX5pBE99pa4AoxQ7MwbwdPkiwApU8LH2",
        "delegate": "tz3S6BBeKgJGXxvLyZ1xzXzMPn11nnFtq5L9",
        "reception_time": "2022-01-16T01:06:35.835-00:00",
        "timestamp": "2022-01-16T01:06:30Z" } ],
  "endorsements":
    [ { "delegate": "tz1dbfppLAAxXZNtf2SDps7rch3qfUznKSoK" },
      { "delegate": "tz1TRspM5SeZpaQUhzByXbEvqKF1vnCM2YTK" },
      { "delegate": "tz2BzJTyoQp8fNbfhWD4YQgH9JJHDgSGzpdG",
        "reception_time": "2022-01-16T01:06:44.993-00:00",
        "included_in_blocks":
          [ "BLP8jRCxraiBfEfysQKN2Accr2tW9SvF1H66WeY4jVkEjqezshM" ] },
      { "delegate": "tz1NpWrAyDL9k2Lmnyxcgr9xuJakbBxdq7FB",
        "reception_time": "2022-01-16T01:06:41.697-00:00",
        "included_in_blocks":
          [ "BLP8jRCxraiBfEfysQKN2Accr2tW9SvF1H66WeY4jVkEjqezshM" ] },
      { "delegate": "tz3UoffC7FG7zfpmvmjUmUeAaHvzdcUvAj6r",
        "reception_time": "2022-01-16T01:06:40.568-00:00",
        "included_in_blocks":
          [ "BLP8jRCxraiBfEfysQKN2Accr2tW9SvF1H66WeY4jVkEjqezshM" ] },
      { "delegate": "tz1TcH4Nb3aHNDJ7CGZhU7jgAK1BkSP4Lxds",
        "reception_time": "2022-01-16T01:06:40.574-00:00",
        "included_in_blocks":
          [ "BLP8jRCxraiBfEfysQKN2Accr2tW9SvF1H66WeY4jVkEjqezshM" ] },
      { "delegate": "tz1aJS7Pk9uWR3wWyFf1i3RwhYxN84G7stom",
        "reception_time": "2022-01-16T01:06:39.841-00:00",
        "included_in_blocks":
          [ "BLP8jRCxraiBfEfysQKN2Accr2tW9SvF1H66WeY4jVkEjqezshM" ] },
      { "delegate": "tz1b9MYGrbN1NAxphLEsPPNT9JC7aNFc5nA4",
        "reception_time": "2022-01-16T01:06:39.908-00:00",
        "included_in_blocks":
          [ "BLP8jRCxraiBfEfysQKN2Accr2tW9SvF1H66WeY4jVkEjqezshM" ] },
      { "delegate": "tz3bvNMQ95vfAYtG8193ymshqjSvmxiCUuR5",
        "reception_time": "2022-01-16T01:06:39.809-00:00",
        "included_in_blocks":
          [ "BLP8jRCxraiBfEfysQKN2Accr2tW9SvF1H66WeY4jVkEjqezshM" ] },
      { "delegate": "tz3NExpXn9aPNZPorRE4SdjJ2RGrfbJgMAaV",
        "reception_time": "2022-01-16T01:06:39.652-00:00",
        "included_in_blocks":
          [ "BLP8jRCxraiBfEfysQKN2Accr2tW9SvF1H66WeY4jVkEjqezshM" ] },
      { "delegate": "tz1bTpviNnyx2PXsNmGpCQTMQsGoYordkUoA",
        "reception_time": "2022-01-16T01:06:39.594-00:00",
        "included_in_blocks":
          [ "BLP8jRCxraiBfEfysQKN2Accr2tW9SvF1H66WeY4jVkEjqezshM" ] },
      { "delegate": "tz1dRKU4FQ9QRRQPdaH4zCR6gmCmXfcvcgtB",
        "reception_time": "2022-01-16T01:06:39.279-00:00",
        "included_in_blocks":
          [ "BLP8jRCxraiBfEfysQKN2Accr2tW9SvF1H66WeY4jVkEjqezshM" ] },
      { "delegate": "tz1fJHFn6sWEd3NnBPngACuw2dggTv6nQZ7g",
        "reception_time": "2022-01-16T01:06:39.513-00:00",
        "included_in_blocks":
          [ "BLP8jRCxraiBfEfysQKN2Accr2tW9SvF1H66WeY4jVkEjqezshM" ] },
      { "delegate": "tz1UNkf4sWzC5vsKP7FnejSeJsXdc6z8Kzk4",
        "reception_time": "2022-01-16T01:06:39.329-00:00",
        "included_in_blocks":
          [ "BLP8jRCxraiBfEfysQKN2Accr2tW9SvF1H66WeY4jVkEjqezshM" ] },
      { "delegate": "tz1dNVDWPf3Q59SdJqnjdnu277iyvReiRS9M",
        "reception_time": "2022-01-16T01:06:39.127-00:00",
        "included_in_blocks":
          [ "BLP8jRCxraiBfEfysQKN2Accr2tW9SvF1H66WeY4jVkEjqezshM" ] },
      { "delegate": "tz3RB4aoyjov4KEVRbuhvQ1CKJgBJMWhaeB8",
        "reception_time": "2022-01-16T01:06:39.179-00:00",
        "included_in_blocks":
          [ "BLP8jRCxraiBfEfysQKN2Accr2tW9SvF1H66WeY4jVkEjqezshM" ] },
      { "delegate": "tz1fWJaG5uj6bQZ19bCSLjELJz6g2J6inUL1",
        "reception_time": "2022-01-16T01:06:39.017-00:00",
        "included_in_blocks":
          [ "BLP8jRCxraiBfEfysQKN2Accr2tW9SvF1H66WeY4jVkEjqezshM" ] },
      { "delegate": "tz3VEZ4k6a4Wx42iyev6i2aVAptTRLEAivNN",
        "reception_time": "2022-01-16T01:06:38.971-00:00",
        "included_in_blocks":
          [ "BLP8jRCxraiBfEfysQKN2Accr2tW9SvF1H66WeY4jVkEjqezshM" ] },
      { "delegate": "tz1awXW7wuXy21c66vBudMXQVAPgRnqqwgTH",
        "reception_time": "2022-01-16T01:06:38.748-00:00",
        "included_in_blocks":
          [ "BLP8jRCxraiBfEfysQKN2Accr2tW9SvF1H66WeY4jVkEjqezshM" ] },
      { "delegate": "tz3WMqdzXqRWXwyvj5Hp2H7QEepaUuS7vd9K",
        "reception_time": "2022-01-16T01:06:38.741-00:00",
        "included_in_blocks":
          [ "BLP8jRCxraiBfEfysQKN2Accr2tW9SvF1H66WeY4jVkEjqezshM" ] },
      { "delegate": "tz1RjoHc98dBoqaH2jawF62XNKh7YsHwbkEv",
        "reception_time": "2022-01-16T01:06:38.817-00:00",
        "included_in_blocks":
          [ "BLP8jRCxraiBfEfysQKN2Accr2tW9SvF1H66WeY4jVkEjqezshM" ] },
      { "delegate": "tz1NEKxGEHsFufk87CVZcrqWu8o22qh46GK6",
        "reception_time": "2022-01-16T01:06:38.614-00:00",
        "included_in_blocks":
          [ "BLP8jRCxraiBfEfysQKN2Accr2tW9SvF1H66WeY4jVkEjqezshM" ] },
      { "delegate": "tz1Nf6tsK4G6bBqgSQERy4nUtkHNKUVdh7q1",
        "reception_time": "2022-01-16T01:06:38.626-00:00",
        "included_in_blocks":
          [ "BLP8jRCxraiBfEfysQKN2Accr2tW9SvF1H66WeY4jVkEjqezshM" ] },
      { "delegate": "tz1cig1EHyvZd7J2k389moM9PxVgPQvmFkvi",
        "reception_time": "2022-01-16T01:06:38.550-00:00",
        "included_in_blocks":
          [ "BLP8jRCxraiBfEfysQKN2Accr2tW9SvF1H66WeY4jVkEjqezshM" ] },
      { "delegate": "tz1aRoaRhSpRYvFdyvgWLL6TGyRoGF51wDjM",
        "reception_time": "2022-01-16T01:06:38.695-00:00",
        "included_in_blocks":
          [ "BLP8jRCxraiBfEfysQKN2Accr2tW9SvF1H66WeY4jVkEjqezshM" ] },
      { "delegate": "tz2FCNBrERXtaTtNX6iimR1UJ5JSDxvdHM93",
        "reception_time": "2022-01-16T01:06:38.187-00:00",
        "included_in_blocks":
          [ "BLP8jRCxraiBfEfysQKN2Accr2tW9SvF1H66WeY4jVkEjqezshM" ] },
      { "delegate": "tz1PeZx7FXy7QRuMREGXGxeipb24RsMMzUNe",
        "reception_time": "2022-01-16T01:06:38.299-00:00",
        "included_in_blocks":
          [ "BLP8jRCxraiBfEfysQKN2Accr2tW9SvF1H66WeY4jVkEjqezshM" ] },
      { "delegate": "tz1RCFbB9GpALpsZtu6J58sb74dm8qe6XBzv",
        "reception_time": "2022-01-16T01:06:38.227-00:00",
        "included_in_blocks":
          [ "BLP8jRCxraiBfEfysQKN2Accr2tW9SvF1H66WeY4jVkEjqezshM" ] },
      { "delegate": "tz3NDpRj6WBrJPikcPVHRBEjWKxFw3c6eQPS",
        "reception_time": "2022-01-16T01:06:38.198-00:00",
        "included_in_blocks":
          [ "BLP8jRCxraiBfEfysQKN2Accr2tW9SvF1H66WeY4jVkEjqezshM" ] },
      { "delegate": "tz1S8MNvuFEUsWgjHvi3AxibRBf388NhT1q2",
        "reception_time": "2022-01-16T01:06:38.052-00:00",
        "included_in_blocks":
          [ "BLP8jRCxraiBfEfysQKN2Accr2tW9SvF1H66WeY4jVkEjqezshM" ] },
      { "delegate": "tz1KfEsrtDaA1sX7vdM4qmEPWuSytuqCDp5j",
        "reception_time": "2022-01-16T01:06:38.127-00:00",
        "included_in_blocks":
          [ "BLP8jRCxraiBfEfysQKN2Accr2tW9SvF1H66WeY4jVkEjqezshM" ] },
      { "delegate": "tz1TEc75UKXv4W5cwi14Na3NtqFD51yKQi7h",
        "reception_time": "2022-01-16T01:06:38.036-00:00",
        "included_in_blocks":
          [ "BLP8jRCxraiBfEfysQKN2Accr2tW9SvF1H66WeY4jVkEjqezshM" ] },
      { "delegate": "tz1YiuvpfeVAHbnU8akcWErNfQGFHNQ7F45z",
        "reception_time": "2022-01-16T01:06:38.068-00:00",
        "included_in_blocks":
          [ "BLP8jRCxraiBfEfysQKN2Accr2tW9SvF1H66WeY4jVkEjqezshM" ] },
      { "delegate": "tz1ei4WtWEMEJekSv8qDnu9PExG6Q8HgRGr3",
        "reception_time": "2022-01-16T01:06:38.003-00:00",
        "included_in_blocks":
          [ "BLP8jRCxraiBfEfysQKN2Accr2tW9SvF1H66WeY4jVkEjqezshM" ] },
      { "delegate": "tz1SYq214SCBy9naR6cvycQsYcUGpBqQAE8d",
        "reception_time": "2022-01-16T01:06:37.904-00:00",
        "included_in_blocks":
          [ "BLP8jRCxraiBfEfysQKN2Accr2tW9SvF1H66WeY4jVkEjqezshM" ] },
      { "delegate": "tz1V4qCyvPKZ5UeqdH14HN42rxvNPQfc9UZg",
        "reception_time": "2022-01-16T01:06:37.787-00:00",
        "included_in_blocks":
          [ "BLP8jRCxraiBfEfysQKN2Accr2tW9SvF1H66WeY4jVkEjqezshM" ] },
      { "delegate": "tz1RQhNh7iB9CZA7i3ifTWNwiGYVffponfbB",
        "reception_time": "2022-01-16T01:06:37.800-00:00",
        "included_in_blocks":
          [ "BLP8jRCxraiBfEfysQKN2Accr2tW9SvF1H66WeY4jVkEjqezshM" ] },
      { "delegate": "tz1LmaFsWRkjr7QMCx5PtV6xTUz3AmEpKQiF",
        "reception_time": "2022-01-16T01:06:37.875-00:00",
        "included_in_blocks":
          [ "BLP8jRCxraiBfEfysQKN2Accr2tW9SvF1H66WeY4jVkEjqezshM" ] },
      { "delegate": "tz1g8vkmcde6sWKaG2NN9WKzCkDM6Rziq194",
        "reception_time": "2022-01-16T01:06:37.764-00:00",
        "included_in_blocks":
          [ "BLP8jRCxraiBfEfysQKN2Accr2tW9SvF1H66WeY4jVkEjqezshM" ] },
      { "delegate": "tz1MQJPGNMijnXnVoBENFz9rUhaPt3S7rWoz",
        "reception_time": "2022-01-16T01:06:37.709-00:00",
        "included_in_blocks":
          [ "BLP8jRCxraiBfEfysQKN2Accr2tW9SvF1H66WeY4jVkEjqezshM" ] },
      { "delegate": "tz3bTdwZinP8U1JmSweNzVKhmwafqWmFWRfk",
        "reception_time": "2022-01-16T01:06:37.703-00:00",
        "included_in_blocks":
          [ "BLP8jRCxraiBfEfysQKN2Accr2tW9SvF1H66WeY4jVkEjqezshM" ] },
      { "delegate": "tz1dwu9aYb7CRNq4Y2zAjipdjFuSVKhHS8vA",
        "reception_time": "2022-01-16T01:06:37.719-00:00",
        "included_in_blocks":
          [ "BLP8jRCxraiBfEfysQKN2Accr2tW9SvF1H66WeY4jVkEjqezshM" ] },
      { "delegate": "tz1W3VYi3gSt9Xgfw6WNV1aGZRPH2BsskMEY",
        "reception_time": "2022-01-16T01:06:37.496-00:00",
        "included_in_blocks":
          [ "BLP8jRCxraiBfEfysQKN2Accr2tW9SvF1H66WeY4jVkEjqezshM" ] },
      { "delegate": "tz1gfArv665EUkSg2ojMBzcbfwuPxAvqPvjo",
        "reception_time": "2022-01-16T01:06:37.616-00:00",
        "included_in_blocks":
          [ "BLP8jRCxraiBfEfysQKN2Accr2tW9SvF1H66WeY4jVkEjqezshM" ] },
      { "delegate": "tz3RDC3Jdn4j15J7bBHZd29EUee9gVB1CxD9",
        "reception_time": "2022-01-16T01:06:37.576-00:00",
        "included_in_blocks":
          [ "BLP8jRCxraiBfEfysQKN2Accr2tW9SvF1H66WeY4jVkEjqezshM" ] },
      { "delegate": "tz1gUNyn3hmnEWqkusWPzxRaon1cs7ndWh7h",
        "reception_time": "2022-01-16T01:06:37.306-00:00",
        "included_in_blocks":
          [ "BLP8jRCxraiBfEfysQKN2Accr2tW9SvF1H66WeY4jVkEjqezshM" ] },
      { "delegate": "tz1h4GUAMweP7SNWzDgvMk3yRCAZyaP1MxZq",
        "reception_time": "2022-01-16T01:06:37.279-00:00",
        "included_in_blocks":
          [ "BLP8jRCxraiBfEfysQKN2Accr2tW9SvF1H66WeY4jVkEjqezshM" ] },
      { "delegate": "tz1VQnqCCqX4K5sP3FNkVSNKTdCAMJDd3E1n",
        "reception_time": "2022-01-16T01:06:37.313-00:00",
        "included_in_blocks":
          [ "BLP8jRCxraiBfEfysQKN2Accr2tW9SvF1H66WeY4jVkEjqezshM" ] },
      { "delegate": "tz1QLXqnfN51dkjeghXvKHkJfhvGiM5gK4tc",
        "reception_time": "2022-01-16T01:06:37.286-00:00",
        "included_in_blocks":
          [ "BLP8jRCxraiBfEfysQKN2Accr2tW9SvF1H66WeY4jVkEjqezshM" ] },
      { "delegate": "tz3adcvQaKXTCg12zbninqo3q8ptKKtDFTLv",
        "reception_time": "2022-01-16T01:06:37.131-00:00",
        "included_in_blocks":
          [ "BLP8jRCxraiBfEfysQKN2Accr2tW9SvF1H66WeY4jVkEjqezshM" ] },
      { "delegate": "tz1MQMiZHV8q4tTwUMWmS5Y3kaP6J2136iXr",
        "reception_time": "2022-01-16T01:06:37.055-00:00",
        "included_in_blocks":
          [ "BLP8jRCxraiBfEfysQKN2Accr2tW9SvF1H66WeY4jVkEjqezshM" ] },
      { "delegate": "tz3QCNyySViKHmeSr45kzDxzchys7NiXCWoa",
        "reception_time": "2022-01-16T01:06:37.051-00:00",
        "included_in_blocks":
          [ "BLP8jRCxraiBfEfysQKN2Accr2tW9SvF1H66WeY4jVkEjqezshM" ] },
      { "delegate": "tz1VmiY38m3y95HqQLjMwqnMS7sdMfGomzKi",
        "reception_time": "2022-01-16T01:06:37.066-00:00",
        "included_in_blocks":
          [ "BLP8jRCxraiBfEfysQKN2Accr2tW9SvF1H66WeY4jVkEjqezshM" ] },
      { "delegate": "tz1a51WYsAsoh4fs4A4x5aCN6Za26mpfDfTi",
        "reception_time": "2022-01-16T01:06:37.035-00:00",
        "included_in_blocks":
          [ "BLP8jRCxraiBfEfysQKN2Accr2tW9SvF1H66WeY4jVkEjqezshM" ] },
      { "delegate": "tz1Ldzz6k1BHdhuKvAtMRX7h5kJSMHESMHLC",
        "reception_time": "2022-01-16T01:06:36.885-00:00",
        "included_in_blocks":
          [ "BLP8jRCxraiBfEfysQKN2Accr2tW9SvF1H66WeY4jVkEjqezshM" ] },
      { "delegate": "tz3Zhs2dygr55yHyQyKjntAtY9bgfhLZ4Xj1",
        "reception_time": "2022-01-16T01:06:36.934-00:00",
        "included_in_blocks":
          [ "BLP8jRCxraiBfEfysQKN2Accr2tW9SvF1H66WeY4jVkEjqezshM" ] },
      { "delegate": "tz3ZbP2pM3nwvXztbuMJwJnDvV5xdpU8UkkD",
        "reception_time": "2022-01-16T01:06:36.775-00:00",
        "included_in_blocks":
          [ "BLP8jRCxraiBfEfysQKN2Accr2tW9SvF1H66WeY4jVkEjqezshM" ] },
      { "delegate": "tz3iJu5vrKZcsqRPs8yJ61UDoeEXZmtro4qh",
        "reception_time": "2022-01-16T01:06:36.904-00:00",
        "included_in_blocks":
          [ "BLP8jRCxraiBfEfysQKN2Accr2tW9SvF1H66WeY4jVkEjqezshM" ] },
      { "delegate": "tz3gtoUxdudfBRcNY7iVdKPHCYYX6xdPpoRS",
        "reception_time": "2022-01-16T01:06:36.950-00:00",
        "included_in_blocks":
          [ "BLP8jRCxraiBfEfysQKN2Accr2tW9SvF1H66WeY4jVkEjqezshM" ] },
      { "delegate": "tz3hw2kqXhLUvY65ca1eety2oQTpAvd34R9Q",
        "reception_time": "2022-01-16T01:06:36.808-00:00",
        "included_in_blocks":
          [ "BLP8jRCxraiBfEfysQKN2Accr2tW9SvF1H66WeY4jVkEjqezshM" ] },
      { "delegate": "tz1WCd2jm4uSt4vntk4vSuUWoZQGhLcDuR9q",
        "reception_time": "2022-01-16T01:06:36.954-00:00",
        "included_in_blocks":
          [ "BLP8jRCxraiBfEfysQKN2Accr2tW9SvF1H66WeY4jVkEjqezshM" ] },
      { "delegate": "tz3NxTnke1acr8o3h5y9ytf5awQBGNJUKzVU",
        "reception_time": "2022-01-16T01:06:36.793-00:00",
        "included_in_blocks":
          [ "BLP8jRCxraiBfEfysQKN2Accr2tW9SvF1H66WeY4jVkEjqezshM" ] },
      { "delegate": "tz3RKYFsLuQzKBtmYuLNas7uMu3AsYd4QdsA",
        "reception_time": "2022-01-16T01:06:36.730-00:00",
        "included_in_blocks":
          [ "BLP8jRCxraiBfEfysQKN2Accr2tW9SvF1H66WeY4jVkEjqezshM" ] },
      { "delegate": "tz1irJKkXS2DBWkU1NnmFQx1c1L7pbGg4yhk",
        "reception_time": "2022-01-16T01:06:36.592-00:00",
        "included_in_blocks":
          [ "BLP8jRCxraiBfEfysQKN2Accr2tW9SvF1H66WeY4jVkEjqezshM" ] },
      { "delegate": "tz1STeamwbp68THcny9zk3LsbG3H36DMvbRK",
        "reception_time": "2022-01-16T01:06:36.572-00:00",
        "included_in_blocks":
          [ "BLP8jRCxraiBfEfysQKN2Accr2tW9SvF1H66WeY4jVkEjqezshM" ] },
      { "delegate": "tz3QT9dHYKDqh563chVa6za8526ys1UKfRfL",
        "reception_time": "2022-01-16T01:06:36.565-00:00",
        "included_in_blocks":
          [ "BLP8jRCxraiBfEfysQKN2Accr2tW9SvF1H66WeY4jVkEjqezshM" ] },
      { "delegate": "tz1eEnQhbwf6trb8Q8mPb2RaPkNk2rN7BKi8",
        "reception_time": "2022-01-16T01:06:36.425-00:00",
        "included_in_blocks":
          [ "BLP8jRCxraiBfEfysQKN2Accr2tW9SvF1H66WeY4jVkEjqezshM" ] },
      { "delegate": "tz1P2Po7YM526ughEsRbY4oR9zaUPDZjxFrb",
        "reception_time": "2022-01-16T01:06:36.422-00:00",
        "included_in_blocks":
          [ "BLP8jRCxraiBfEfysQKN2Accr2tW9SvF1H66WeY4jVkEjqezshM" ] },
      { "delegate": "tz1Lhf4J9Qxoe3DZ2nfe8FGDnvVj7oKjnMY6",
        "reception_time": "2022-01-16T01:06:36.422-00:00",
        "included_in_blocks":
          [ "BLP8jRCxraiBfEfysQKN2Accr2tW9SvF1H66WeY4jVkEjqezshM" ] },
      { "delegate": "tz3S6BBeKgJGXxvLyZ1xzXzMPn11nnFtq5L9",
        "reception_time": "2022-01-16T01:06:36.524-00:00",
        "included_in_blocks":
          [ "BLP8jRCxraiBfEfysQKN2Accr2tW9SvF1H66WeY4jVkEjqezshM" ] },
      { "delegate": "tz1TXzyaKUA8wsWefdSnyaYFnV2M3vCV7er9",
        "reception_time": "2022-01-16T01:06:36.416-00:00",
        "included_in_blocks":
          [ "BLP8jRCxraiBfEfysQKN2Accr2tW9SvF1H66WeY4jVkEjqezshM" ] },
      { "delegate": "tz1S8e9GgdZG78XJRB3NqabfWeM37GnhZMWQ",
        "reception_time": "2022-01-16T01:06:36.403-00:00",
        "included_in_blocks":
          [ "BLP8jRCxraiBfEfysQKN2Accr2tW9SvF1H66WeY4jVkEjqezshM" ] } ] }