{ "blocks":
    [ { "hash": "BMDgA3QTnuqB9Q7q4MmmxyP8xAHtwRhZc6AjMcDe779tGn4m6qC",
        "delegate": "tz3QSGPoRp3Kn7n3vY24eYeu3Peuqo45LQ4D",
        "reception_time": "2022-01-16T05:06:25.152-00:00",
        "timestamp": "2022-01-16T05:06:20Z" } ],
  "endorsements":
    [ { "delegate": "tz1P2Po7YM526ughEsRbY4oR9zaUPDZjxFrb",
        "reception_time": "2022-01-16T05:06:25.059-00:00",
        "errors":
          [ { "kind": "temporary",
              "id": "proto.011-PtHangz2.prefilter.outdated_endorsement" } ],
        "included_in_blocks":
          [ "BMHGL9s4eXdxPvjmEh6sCwF8H7ZwLVTSQd5ycb4A6D6WEM86Dtv" ] },
      { "delegate": "tz1S8e9GgdZG78XJRB3NqabfWeM37GnhZMWQ",
        "reception_time": "2022-01-16T05:06:25.048-00:00",
        "errors":
          [ { "kind": "temporary",
              "id": "proto.011-PtHangz2.prefilter.outdated_endorsement" } ],
        "included_in_blocks":
          [ "BMHGL9s4eXdxPvjmEh6sCwF8H7ZwLVTSQd5ycb4A6D6WEM86Dtv" ] },
      { "delegate": "tz1TRspM5SeZpaQUhzByXbEvqKF1vnCM2YTK" },
      { "delegate": "tz1dbfppLAAxXZNtf2SDps7rch3qfUznKSoK" },
      { "delegate": "tz1STeamwbp68THcny9zk3LsbG3H36DMvbRK",
        "reception_time": "2022-01-16T05:06:26.160-00:00",
        "included_in_blocks":
          [ "BMHGL9s4eXdxPvjmEh6sCwF8H7ZwLVTSQd5ycb4A6D6WEM86Dtv" ] },
      { "delegate": "tz1irJKkXS2DBWkU1NnmFQx1c1L7pbGg4yhk",
        "reception_time": "2022-01-16T05:06:26.160-00:00",
        "included_in_blocks":
          [ "BMHGL9s4eXdxPvjmEh6sCwF8H7ZwLVTSQd5ycb4A6D6WEM86Dtv" ] },
      { "delegate": "tz3QSGPoRp3Kn7n3vY24eYeu3Peuqo45LQ4D",
        "reception_time": "2022-01-16T05:06:26.160-00:00",
        "included_in_blocks":
          [ "BMHGL9s4eXdxPvjmEh6sCwF8H7ZwLVTSQd5ycb4A6D6WEM86Dtv" ] },
      { "delegate": "tz1eEnQhbwf6trb8Q8mPb2RaPkNk2rN7BKi8",
        "reception_time": "2022-01-16T05:06:26.160-00:00",
        "included_in_blocks":
          [ "BMHGL9s4eXdxPvjmEh6sCwF8H7ZwLVTSQd5ycb4A6D6WEM86Dtv" ] },
      { "delegate": "tz3gtoUxdudfBRcNY7iVdKPHCYYX6xdPpoRS",
        "reception_time": "2022-01-16T05:06:26.160-00:00",
        "included_in_blocks":
          [ "BMHGL9s4eXdxPvjmEh6sCwF8H7ZwLVTSQd5ycb4A6D6WEM86Dtv" ] },
      { "delegate": "tz1Kt4P8BCaP93AEV4eA7gmpRryWt5hznjCP",
        "reception_time": "2022-01-16T05:06:26.426-00:00",
        "included_in_blocks":
          [ "BMHGL9s4eXdxPvjmEh6sCwF8H7ZwLVTSQd5ycb4A6D6WEM86Dtv" ] },
      { "delegate": "tz1Ldzz6k1BHdhuKvAtMRX7h5kJSMHESMHLC",
        "reception_time": "2022-01-16T05:06:26.426-00:00",
        "included_in_blocks":
          [ "BMHGL9s4eXdxPvjmEh6sCwF8H7ZwLVTSQd5ycb4A6D6WEM86Dtv" ] },
      { "delegate": "tz3RKYFsLuQzKBtmYuLNas7uMu3AsYd4QdsA",
        "reception_time": "2022-01-16T05:06:26.426-00:00",
        "included_in_blocks":
          [ "BMHGL9s4eXdxPvjmEh6sCwF8H7ZwLVTSQd5ycb4A6D6WEM86Dtv" ] },
      { "delegate": "tz1aXD7Jigrt3PBYSpHSg5Rr33SexMmmM5Ys",
        "reception_time": "2022-01-16T05:06:26.426-00:00",
        "included_in_blocks":
          [ "BMHGL9s4eXdxPvjmEh6sCwF8H7ZwLVTSQd5ycb4A6D6WEM86Dtv" ] },
      { "delegate": "tz1VQnqCCqX4K5sP3FNkVSNKTdCAMJDd3E1n",
        "reception_time": "2022-01-16T05:06:26.426-00:00",
        "included_in_blocks":
          [ "BMHGL9s4eXdxPvjmEh6sCwF8H7ZwLVTSQd5ycb4A6D6WEM86Dtv" ] },
      { "delegate": "tz1WnfXMPaNTBmH7DBPwqCWs9cPDJdkGBTZ8",
        "reception_time": "2022-01-16T05:06:26.426-00:00",
        "included_in_blocks":
          [ "BMHGL9s4eXdxPvjmEh6sCwF8H7ZwLVTSQd5ycb4A6D6WEM86Dtv" ] },
      { "delegate": "tz3iJu5vrKZcsqRPs8yJ61UDoeEXZmtro4qh",
        "reception_time": "2022-01-16T05:06:26.426-00:00",
        "included_in_blocks":
          [ "BMHGL9s4eXdxPvjmEh6sCwF8H7ZwLVTSQd5ycb4A6D6WEM86Dtv" ] },
      { "delegate": "tz1gUNyn3hmnEWqkusWPzxRaon1cs7ndWh7h",
        "reception_time": "2022-01-16T05:06:26.426-00:00",
        "included_in_blocks":
          [ "BMHGL9s4eXdxPvjmEh6sCwF8H7ZwLVTSQd5ycb4A6D6WEM86Dtv" ] },
      { "delegate": "tz1VmiY38m3y95HqQLjMwqnMS7sdMfGomzKi",
        "reception_time": "2022-01-16T05:06:26.426-00:00",
        "included_in_blocks":
          [ "BMHGL9s4eXdxPvjmEh6sCwF8H7ZwLVTSQd5ycb4A6D6WEM86Dtv" ] },
      { "delegate": "tz3QT9dHYKDqh563chVa6za8526ys1UKfRfL",
        "reception_time": "2022-01-16T05:06:26.426-00:00",
        "included_in_blocks":
          [ "BMHGL9s4eXdxPvjmEh6sCwF8H7ZwLVTSQd5ycb4A6D6WEM86Dtv" ] },
      { "delegate": "tz3Zhs2dygr55yHyQyKjntAtY9bgfhLZ4Xj1",
        "reception_time": "2022-01-16T05:06:26.426-00:00",
        "included_in_blocks":
          [ "BMHGL9s4eXdxPvjmEh6sCwF8H7ZwLVTSQd5ycb4A6D6WEM86Dtv" ] },
      { "delegate": "tz3NxTnke1acr8o3h5y9ytf5awQBGNJUKzVU",
        "reception_time": "2022-01-16T05:06:26.426-00:00",
        "included_in_blocks":
          [ "BMHGL9s4eXdxPvjmEh6sCwF8H7ZwLVTSQd5ycb4A6D6WEM86Dtv" ] },
      { "delegate": "tz1MJx9vhaNRSimcuXPK2rW4fLccQnDAnVKJ",
        "reception_time": "2022-01-16T05:06:26.441-00:00",
        "included_in_blocks":
          [ "BMHGL9s4eXdxPvjmEh6sCwF8H7ZwLVTSQd5ycb4A6D6WEM86Dtv" ] },
      { "delegate": "tz3S6BBeKgJGXxvLyZ1xzXzMPn11nnFtq5L9",
        "reception_time": "2022-01-16T05:06:26.465-00:00",
        "included_in_blocks":
          [ "BMHGL9s4eXdxPvjmEh6sCwF8H7ZwLVTSQd5ycb4A6D6WEM86Dtv" ] },
      { "delegate": "tz3ZbP2pM3nwvXztbuMJwJnDvV5xdpU8UkkD",
        "reception_time": "2022-01-16T05:06:26.473-00:00",
        "included_in_blocks":
          [ "BMHGL9s4eXdxPvjmEh6sCwF8H7ZwLVTSQd5ycb4A6D6WEM86Dtv" ] },
      { "delegate": "tz1UJvHTgpVzcKWhTazGxVcn5wsHru5Gietg",
        "reception_time": "2022-01-16T05:06:26.495-00:00",
        "included_in_blocks":
          [ "BMHGL9s4eXdxPvjmEh6sCwF8H7ZwLVTSQd5ycb4A6D6WEM86Dtv" ] },
      { "delegate": "tz1RCFbB9GpALpsZtu6J58sb74dm8qe6XBzv",
        "reception_time": "2022-01-16T05:06:26.520-00:00",
        "included_in_blocks":
          [ "BMHGL9s4eXdxPvjmEh6sCwF8H7ZwLVTSQd5ycb4A6D6WEM86Dtv" ] },
      { "delegate": "tz1MQMiZHV8q4tTwUMWmS5Y3kaP6J2136iXr",
        "reception_time": "2022-01-16T05:06:26.704-00:00",
        "included_in_blocks":
          [ "BMHGL9s4eXdxPvjmEh6sCwF8H7ZwLVTSQd5ycb4A6D6WEM86Dtv" ] },
      { "delegate": "tz1iPHM2Xx2hwmzcr1EG1zzrV6oKafVoA91m",
        "reception_time": "2022-01-16T05:06:26.723-00:00",
        "included_in_blocks":
          [ "BMHGL9s4eXdxPvjmEh6sCwF8H7ZwLVTSQd5ycb4A6D6WEM86Dtv" ] },
      { "delegate": "tz1fb7c66UwePkkfDXz4ajFaBP9hVNLdS7JJ",
        "reception_time": "2022-01-16T05:06:26.789-00:00",
        "included_in_blocks":
          [ "BMHGL9s4eXdxPvjmEh6sCwF8H7ZwLVTSQd5ycb4A6D6WEM86Dtv" ] },
      { "delegate": "tz1dwu9aYb7CRNq4Y2zAjipdjFuSVKhHS8vA",
        "reception_time": "2022-01-16T05:06:26.951-00:00",
        "included_in_blocks":
          [ "BMHGL9s4eXdxPvjmEh6sCwF8H7ZwLVTSQd5ycb4A6D6WEM86Dtv" ] },
      { "delegate": "tz1NortRftucvAkD1J58L32EhSVrQEWJCEnB",
        "reception_time": "2022-01-16T05:06:27.026-00:00",
        "included_in_blocks":
          [ "BMHGL9s4eXdxPvjmEh6sCwF8H7ZwLVTSQd5ycb4A6D6WEM86Dtv" ] },
      { "delegate": "tz1V4qCyvPKZ5UeqdH14HN42rxvNPQfc9UZg",
        "reception_time": "2022-01-16T05:06:27.071-00:00",
        "included_in_blocks":
          [ "BMHGL9s4eXdxPvjmEh6sCwF8H7ZwLVTSQd5ycb4A6D6WEM86Dtv" ] },
      { "delegate": "tz1ei4WtWEMEJekSv8qDnu9PExG6Q8HgRGr3",
        "reception_time": "2022-01-16T05:06:27.098-00:00",
        "included_in_blocks":
          [ "BMHGL9s4eXdxPvjmEh6sCwF8H7ZwLVTSQd5ycb4A6D6WEM86Dtv" ] },
      { "delegate": "tz1S8MNvuFEUsWgjHvi3AxibRBf388NhT1q2",
        "reception_time": "2022-01-16T05:06:27.214-00:00",
        "included_in_blocks":
          [ "BMHGL9s4eXdxPvjmEh6sCwF8H7ZwLVTSQd5ycb4A6D6WEM86Dtv" ] },
      { "delegate": "tz1abmz7jiCV2GH2u81LRrGgAFFgvQgiDiaf",
        "reception_time": "2022-01-16T05:06:27.217-00:00",
        "included_in_blocks":
          [ "BMHGL9s4eXdxPvjmEh6sCwF8H7ZwLVTSQd5ycb4A6D6WEM86Dtv" ] },
      { "delegate": "tz1WBfwbT66FC6BTLexc2BoyCCBM9LG7pnVW",
        "reception_time": "2022-01-16T05:06:27.272-00:00",
        "included_in_blocks":
          [ "BMHGL9s4eXdxPvjmEh6sCwF8H7ZwLVTSQd5ycb4A6D6WEM86Dtv" ] },
      { "delegate": "tz1MQJPGNMijnXnVoBENFz9rUhaPt3S7rWoz",
        "reception_time": "2022-01-16T05:06:27.295-00:00",
        "included_in_blocks":
          [ "BMHGL9s4eXdxPvjmEh6sCwF8H7ZwLVTSQd5ycb4A6D6WEM86Dtv" ] },
      { "delegate": "tz3bTdwZinP8U1JmSweNzVKhmwafqWmFWRfk",
        "reception_time": "2022-01-16T05:06:27.342-00:00",
        "included_in_blocks":
          [ "BMHGL9s4eXdxPvjmEh6sCwF8H7ZwLVTSQd5ycb4A6D6WEM86Dtv" ] },
      { "delegate": "tz1cZfFQpcYhwDp7y1njZXDsZqCrn2NqmVof",
        "reception_time": "2022-01-16T05:06:27.368-00:00",
        "included_in_blocks":
          [ "BMHGL9s4eXdxPvjmEh6sCwF8H7ZwLVTSQd5ycb4A6D6WEM86Dtv" ] },
      { "delegate": "tz1gfArv665EUkSg2ojMBzcbfwuPxAvqPvjo",
        "reception_time": "2022-01-16T05:06:27.376-00:00",
        "included_in_blocks":
          [ "BMHGL9s4eXdxPvjmEh6sCwF8H7ZwLVTSQd5ycb4A6D6WEM86Dtv" ] },
      { "delegate": "tz2FCNBrERXtaTtNX6iimR1UJ5JSDxvdHM93",
        "reception_time": "2022-01-16T05:06:27.421-00:00",
        "included_in_blocks":
          [ "BMHGL9s4eXdxPvjmEh6sCwF8H7ZwLVTSQd5ycb4A6D6WEM86Dtv" ] },
      { "delegate": "tz1TEc75UKXv4W5cwi14Na3NtqFD51yKQi7h",
        "reception_time": "2022-01-16T05:06:27.462-00:00",
        "included_in_blocks":
          [ "BMHGL9s4eXdxPvjmEh6sCwF8H7ZwLVTSQd5ycb4A6D6WEM86Dtv" ] },
      { "delegate": "tz1SYq214SCBy9naR6cvycQsYcUGpBqQAE8d",
        "reception_time": "2022-01-16T05:06:27.533-00:00",
        "included_in_blocks":
          [ "BMHGL9s4eXdxPvjmEh6sCwF8H7ZwLVTSQd5ycb4A6D6WEM86Dtv" ] },
      { "delegate": "tz1Nf6tsK4G6bBqgSQERy4nUtkHNKUVdh7q1",
        "reception_time": "2022-01-16T05:06:27.654-00:00",
        "included_in_blocks":
          [ "BMHGL9s4eXdxPvjmEh6sCwF8H7ZwLVTSQd5ycb4A6D6WEM86Dtv" ] },
      { "delegate": "tz1g8vkmcde6sWKaG2NN9WKzCkDM6Rziq194",
        "reception_time": "2022-01-16T05:06:27.757-00:00",
        "included_in_blocks":
          [ "BMHGL9s4eXdxPvjmEh6sCwF8H7ZwLVTSQd5ycb4A6D6WEM86Dtv" ] },
      { "delegate": "tz1NEKxGEHsFufk87CVZcrqWu8o22qh46GK6",
        "reception_time": "2022-01-16T05:06:27.792-00:00",
        "included_in_blocks":
          [ "BMHGL9s4eXdxPvjmEh6sCwF8H7ZwLVTSQd5ycb4A6D6WEM86Dtv" ] },
      { "delegate": "tz1PeZx7FXy7QRuMREGXGxeipb24RsMMzUNe",
        "reception_time": "2022-01-16T05:06:27.803-00:00",
        "included_in_blocks":
          [ "BMHGL9s4eXdxPvjmEh6sCwF8H7ZwLVTSQd5ycb4A6D6WEM86Dtv" ] },
      { "delegate": "tz3NDpRj6WBrJPikcPVHRBEjWKxFw3c6eQPS",
        "reception_time": "2022-01-16T05:06:27.823-00:00",
        "included_in_blocks":
          [ "BMHGL9s4eXdxPvjmEh6sCwF8H7ZwLVTSQd5ycb4A6D6WEM86Dtv" ] },
      { "delegate": "tz3gLTu4Yxj8tPAcriQVUdxv6BY9QyvzU1az",
        "reception_time": "2022-01-16T05:06:27.836-00:00",
        "included_in_blocks":
          [ "BMHGL9s4eXdxPvjmEh6sCwF8H7ZwLVTSQd5ycb4A6D6WEM86Dtv" ] },
      { "delegate": "tz1UMCB2AHSTwG7YcGNr31CqYCtGN873royv",
        "reception_time": "2022-01-16T05:06:27.908-00:00",
        "included_in_blocks":
          [ "BMHGL9s4eXdxPvjmEh6sCwF8H7ZwLVTSQd5ycb4A6D6WEM86Dtv" ] },
      { "delegate": "tz1RjoHc98dBoqaH2jawF62XNKh7YsHwbkEv",
        "reception_time": "2022-01-16T05:06:27.969-00:00",
        "included_in_blocks":
          [ "BMHGL9s4eXdxPvjmEh6sCwF8H7ZwLVTSQd5ycb4A6D6WEM86Dtv" ] },
      { "delegate": "tz1TRqbYbUf2GyrjErf3hBzgBJPzW8y36qEs",
        "reception_time": "2022-01-16T05:06:27.971-00:00",
        "included_in_blocks":
          [ "BMHGL9s4eXdxPvjmEh6sCwF8H7ZwLVTSQd5ycb4A6D6WEM86Dtv" ] },
      { "delegate": "tz1cYufsxHXJcvANhvS55h3aY32a9BAFB494",
        "reception_time": "2022-01-16T05:06:27.978-00:00",
        "included_in_blocks":
          [ "BMHGL9s4eXdxPvjmEh6sCwF8H7ZwLVTSQd5ycb4A6D6WEM86Dtv" ] },
      { "delegate": "tz3UoffC7FG7zfpmvmjUmUeAaHvzdcUvAj6r",
        "reception_time": "2022-01-16T05:06:28.036-00:00",
        "included_in_blocks":
          [ "BMHGL9s4eXdxPvjmEh6sCwF8H7ZwLVTSQd5ycb4A6D6WEM86Dtv" ] },
      { "delegate": "tz1dNVDWPf3Q59SdJqnjdnu277iyvReiRS9M",
        "reception_time": "2022-01-16T05:06:28.241-00:00",
        "included_in_blocks":
          [ "BMHGL9s4eXdxPvjmEh6sCwF8H7ZwLVTSQd5ycb4A6D6WEM86Dtv" ] },
      { "delegate": "tz3RB4aoyjov4KEVRbuhvQ1CKJgBJMWhaeB8",
        "reception_time": "2022-01-16T05:06:28.302-00:00",
        "included_in_blocks":
          [ "BMHGL9s4eXdxPvjmEh6sCwF8H7ZwLVTSQd5ycb4A6D6WEM86Dtv" ] },
      { "delegate": "tz3WMqdzXqRWXwyvj5Hp2H7QEepaUuS7vd9K",
        "reception_time": "2022-01-16T05:06:28.379-00:00",
        "included_in_blocks":
          [ "BMHGL9s4eXdxPvjmEh6sCwF8H7ZwLVTSQd5ycb4A6D6WEM86Dtv" ] },
      { "delegate": "tz1aRoaRhSpRYvFdyvgWLL6TGyRoGF51wDjM",
        "reception_time": "2022-01-16T05:06:28.512-00:00",
        "included_in_blocks":
          [ "BMHGL9s4eXdxPvjmEh6sCwF8H7ZwLVTSQd5ycb4A6D6WEM86Dtv" ] },
      { "delegate": "tz1dRKU4FQ9QRRQPdaH4zCR6gmCmXfcvcgtB",
        "reception_time": "2022-01-16T05:06:28.529-00:00",
        "included_in_blocks":
          [ "BMHGL9s4eXdxPvjmEh6sCwF8H7ZwLVTSQd5ycb4A6D6WEM86Dtv" ] },
      { "delegate": "tz3bvNMQ95vfAYtG8193ymshqjSvmxiCUuR5",
        "reception_time": "2022-01-16T05:06:28.580-00:00",
        "included_in_blocks":
          [ "BMHGL9s4eXdxPvjmEh6sCwF8H7ZwLVTSQd5ycb4A6D6WEM86Dtv" ] },
      { "delegate": "tz1Xsrfv6hn86fp88YfRs6xcKwt2nTqxVZYM",
        "reception_time": "2022-01-16T05:06:28.607-00:00",
        "included_in_blocks":
          [ "BMHGL9s4eXdxPvjmEh6sCwF8H7ZwLVTSQd5ycb4A6D6WEM86Dtv" ] },
      { "delegate": "tz1awXW7wuXy21c66vBudMXQVAPgRnqqwgTH",
        "reception_time": "2022-01-16T05:06:28.745-00:00",
        "included_in_blocks":
          [ "BMHGL9s4eXdxPvjmEh6sCwF8H7ZwLVTSQd5ycb4A6D6WEM86Dtv" ] },
      { "delegate": "tz3RDC3Jdn4j15J7bBHZd29EUee9gVB1CxD9",
        "reception_time": "2022-01-16T05:06:28.745-00:00",
        "included_in_blocks":
          [ "BMHGL9s4eXdxPvjmEh6sCwF8H7ZwLVTSQd5ycb4A6D6WEM86Dtv" ] },
      { "delegate": "tz1T7duV5gZWSTq4YpBGbXNLTfznCLDrFxvs",
        "reception_time": "2022-01-16T05:06:28.921-00:00",
        "included_in_blocks":
          [ "BMHGL9s4eXdxPvjmEh6sCwF8H7ZwLVTSQd5ycb4A6D6WEM86Dtv" ] },
      { "delegate": "tz3VEZ4k6a4Wx42iyev6i2aVAptTRLEAivNN",
        "reception_time": "2022-01-16T05:06:29.018-00:00",
        "included_in_blocks":
          [ "BMHGL9s4eXdxPvjmEh6sCwF8H7ZwLVTSQd5ycb4A6D6WEM86Dtv" ] },
      { "delegate": "tz3NExpXn9aPNZPorRE4SdjJ2RGrfbJgMAaV",
        "reception_time": "2022-01-16T05:06:29.187-00:00",
        "included_in_blocks":
          [ "BMHGL9s4eXdxPvjmEh6sCwF8H7ZwLVTSQd5ycb4A6D6WEM86Dtv" ] },
      { "delegate": "tz1fJHFn6sWEd3NnBPngACuw2dggTv6nQZ7g",
        "reception_time": "2022-01-16T05:06:29.351-00:00",
        "included_in_blocks":
          [ "BMHGL9s4eXdxPvjmEh6sCwF8H7ZwLVTSQd5ycb4A6D6WEM86Dtv" ] },
      { "delegate": "tz1TcH4Nb3aHNDJ7CGZhU7jgAK1BkSP4Lxds",
        "reception_time": "2022-01-16T05:06:29.378-00:00",
        "included_in_blocks":
          [ "BMHGL9s4eXdxPvjmEh6sCwF8H7ZwLVTSQd5ycb4A6D6WEM86Dtv" ] },
      { "delegate": "tz1ZcTRk5uxD86EFEn1vvNffWWqJy7q5eVhc",
        "reception_time": "2022-01-16T05:06:29.538-00:00",
        "included_in_blocks":
          [ "BMHGL9s4eXdxPvjmEh6sCwF8H7ZwLVTSQd5ycb4A6D6WEM86Dtv" ] },
      { "delegate": "tz1W5VkdB5s7ENMESVBtwyt9kyvLqPcUczRT",
        "reception_time": "2022-01-16T05:06:30.856-00:00",
        "included_in_blocks":
          [ "BMHGL9s4eXdxPvjmEh6sCwF8H7ZwLVTSQd5ycb4A6D6WEM86Dtv" ] },
      { "delegate": "tz1NpWrAyDL9k2Lmnyxcgr9xuJakbBxdq7FB",
        "reception_time": "2022-01-16T05:06:31.266-00:00",
        "included_in_blocks":
          [ "BMHGL9s4eXdxPvjmEh6sCwF8H7ZwLVTSQd5ycb4A6D6WEM86Dtv" ] },
      { "delegate": "tz3e7LbZvUtoXhpUD1yb6wuFodZpfYRb9nWJ",
        "reception_time": "2022-01-16T05:06:35.739-00:00",
        "included_in_blocks":
          [ "BMHGL9s4eXdxPvjmEh6sCwF8H7ZwLVTSQd5ycb4A6D6WEM86Dtv" ] },
      { "delegate": "tz2BzJTyoQp8fNbfhWD4YQgH9JJHDgSGzpdG",
        "reception_time": "2022-01-16T05:06:44.433-00:00",
        "included_in_blocks":
          [ "BMHGL9s4eXdxPvjmEh6sCwF8H7ZwLVTSQd5ycb4A6D6WEM86Dtv" ] } ] }