{ "blocks":
    [ { "hash": "BMWPrSem3gTJtWDiZG3dguT2z9Mb5TE3rJRDWAtZ5NH7nWq1MSX",
        "delegate": "tz1cYufsxHXJcvANhvS55h3aY32a9BAFB494",
        "reception_time": "2022-01-16T00:58:11.326-00:00",
        "timestamp": "2022-01-16T00:58:00Z" } ],
  "endorsements":
    [ { "delegate": "tz1THsLcunLo8CmDm9f2y1xHuXttXZCpyFnq",
        "reception_time": "2022-01-16T00:58:11.098-00:00",
        "errors":
          [ { "kind": "temporary",
              "id": "proto.011-PtHangz2.prefilter.outdated_endorsement" } ],
        "included_in_blocks":
          [ "BKm7uZWwxftagpVLAE6oo3CU2AdPhgidMJeGcfYcghgeJMvFUMc" ] },
      { "delegate": "tz1NMdMmWZN8QPB8pY4ddncACDg1cHi1xD2e" },
      { "delegate": "tz1TRspM5SeZpaQUhzByXbEvqKF1vnCM2YTK" },
      { "delegate": "tz1UvkANVPWppVgMkLnvN7BwYZsCP7vm6NVd" },
      { "delegate": "tz1dbfppLAAxXZNtf2SDps7rch3qfUznKSoK" },
      { "delegate": "tz1ibcPVGK4Y8pcW4BYUsojiHoBKnZbyDGrX" },
      { "delegate": "tz1STeamwbp68THcny9zk3LsbG3H36DMvbRK",
        "reception_time": "2022-01-16T00:58:13.303-00:00",
        "included_in_blocks":
          [ "BKm7uZWwxftagpVLAE6oo3CU2AdPhgidMJeGcfYcghgeJMvFUMc" ] },
      { "delegate": "tz1irJKkXS2DBWkU1NnmFQx1c1L7pbGg4yhk",
        "reception_time": "2022-01-16T00:58:13.303-00:00",
        "included_in_blocks":
          [ "BKm7uZWwxftagpVLAE6oo3CU2AdPhgidMJeGcfYcghgeJMvFUMc" ] },
      { "delegate": "tz1eEnQhbwf6trb8Q8mPb2RaPkNk2rN7BKi8",
        "reception_time": "2022-01-16T00:58:13.303-00:00",
        "included_in_blocks":
          [ "BKm7uZWwxftagpVLAE6oo3CU2AdPhgidMJeGcfYcghgeJMvFUMc" ] },
      { "delegate": "tz1P2Po7YM526ughEsRbY4oR9zaUPDZjxFrb",
        "reception_time": "2022-01-16T00:58:13.303-00:00",
        "included_in_blocks":
          [ "BKm7uZWwxftagpVLAE6oo3CU2AdPhgidMJeGcfYcghgeJMvFUMc" ] },
      { "delegate": "tz1Scdr2HsZiQjc7bHMeBbmDRXYVvdhjJbBh",
        "reception_time": "2022-01-16T00:58:13.303-00:00",
        "included_in_blocks":
          [ "BKm7uZWwxftagpVLAE6oo3CU2AdPhgidMJeGcfYcghgeJMvFUMc" ] },
      { "delegate": "tz1VQnqCCqX4K5sP3FNkVSNKTdCAMJDd3E1n",
        "reception_time": "2022-01-16T00:58:13.303-00:00",
        "included_in_blocks":
          [ "BKm7uZWwxftagpVLAE6oo3CU2AdPhgidMJeGcfYcghgeJMvFUMc" ] },
      { "delegate": "tz1gUNyn3hmnEWqkusWPzxRaon1cs7ndWh7h",
        "reception_time": "2022-01-16T00:58:13.303-00:00",
        "included_in_blocks":
          [ "BKm7uZWwxftagpVLAE6oo3CU2AdPhgidMJeGcfYcghgeJMvFUMc" ] },
      { "delegate": "tz3Zhs2dygr55yHyQyKjntAtY9bgfhLZ4Xj1",
        "reception_time": "2022-01-16T00:58:13.303-00:00",
        "included_in_blocks":
          [ "BKm7uZWwxftagpVLAE6oo3CU2AdPhgidMJeGcfYcghgeJMvFUMc" ] },
      { "delegate": "tz3gtoUxdudfBRcNY7iVdKPHCYYX6xdPpoRS",
        "reception_time": "2022-01-16T00:58:13.303-00:00",
        "included_in_blocks":
          [ "BKm7uZWwxftagpVLAE6oo3CU2AdPhgidMJeGcfYcghgeJMvFUMc" ] },
      { "delegate": "tz3QSGPoRp3Kn7n3vY24eYeu3Peuqo45LQ4D",
        "reception_time": "2022-01-16T00:58:13.303-00:00",
        "included_in_blocks":
          [ "BKm7uZWwxftagpVLAE6oo3CU2AdPhgidMJeGcfYcghgeJMvFUMc" ] },
      { "delegate": "tz3ZbP2pM3nwvXztbuMJwJnDvV5xdpU8UkkD",
        "reception_time": "2022-01-16T00:58:13.303-00:00",
        "included_in_blocks":
          [ "BKm7uZWwxftagpVLAE6oo3CU2AdPhgidMJeGcfYcghgeJMvFUMc" ] },
      { "delegate": "tz3RKYFsLuQzKBtmYuLNas7uMu3AsYd4QdsA",
        "reception_time": "2022-01-16T00:58:13.303-00:00",
        "included_in_blocks":
          [ "BKm7uZWwxftagpVLAE6oo3CU2AdPhgidMJeGcfYcghgeJMvFUMc" ] },
      { "delegate": "tz1TzaNn7wSQSP5gYPXCnNzBCpyMiidCq1PX",
        "reception_time": "2022-01-16T00:58:13.303-00:00",
        "included_in_blocks":
          [ "BKm7uZWwxftagpVLAE6oo3CU2AdPhgidMJeGcfYcghgeJMvFUMc" ] },
      { "delegate": "tz1WCd2jm4uSt4vntk4vSuUWoZQGhLcDuR9q",
        "reception_time": "2022-01-16T00:58:13.303-00:00",
        "included_in_blocks":
          [ "BKm7uZWwxftagpVLAE6oo3CU2AdPhgidMJeGcfYcghgeJMvFUMc" ] },
      { "delegate": "tz1Ldzz6k1BHdhuKvAtMRX7h5kJSMHESMHLC",
        "reception_time": "2022-01-16T00:58:13.303-00:00",
        "included_in_blocks":
          [ "BKm7uZWwxftagpVLAE6oo3CU2AdPhgidMJeGcfYcghgeJMvFUMc" ] },
      { "delegate": "tz3S6BBeKgJGXxvLyZ1xzXzMPn11nnFtq5L9",
        "reception_time": "2022-01-16T00:58:13.303-00:00",
        "included_in_blocks":
          [ "BKm7uZWwxftagpVLAE6oo3CU2AdPhgidMJeGcfYcghgeJMvFUMc" ] },
      { "delegate": "tz3NxTnke1acr8o3h5y9ytf5awQBGNJUKzVU",
        "reception_time": "2022-01-16T00:58:13.303-00:00",
        "included_in_blocks":
          [ "BKm7uZWwxftagpVLAE6oo3CU2AdPhgidMJeGcfYcghgeJMvFUMc" ] },
      { "delegate": "tz1gfArv665EUkSg2ojMBzcbfwuPxAvqPvjo",
        "reception_time": "2022-01-16T00:58:13.303-00:00",
        "included_in_blocks":
          [ "BKm7uZWwxftagpVLAE6oo3CU2AdPhgidMJeGcfYcghgeJMvFUMc" ] },
      { "delegate": "tz1ajgycuHmd2z2JbTSJxKv7x6cok2KuNSk1",
        "reception_time": "2022-01-16T00:58:13.303-00:00",
        "included_in_blocks":
          [ "BKm7uZWwxftagpVLAE6oo3CU2AdPhgidMJeGcfYcghgeJMvFUMc" ] },
      { "delegate": "tz1aXD7Jigrt3PBYSpHSg5Rr33SexMmmM5Ys",
        "reception_time": "2022-01-16T00:58:13.303-00:00",
        "included_in_blocks":
          [ "BKm7uZWwxftagpVLAE6oo3CU2AdPhgidMJeGcfYcghgeJMvFUMc" ] },
      { "delegate": "tz3QT9dHYKDqh563chVa6za8526ys1UKfRfL",
        "reception_time": "2022-01-16T00:58:13.303-00:00",
        "included_in_blocks":
          [ "BKm7uZWwxftagpVLAE6oo3CU2AdPhgidMJeGcfYcghgeJMvFUMc" ] },
      { "delegate": "tz1VmiY38m3y95HqQLjMwqnMS7sdMfGomzKi",
        "reception_time": "2022-01-16T00:58:13.303-00:00",
        "included_in_blocks":
          [ "BKm7uZWwxftagpVLAE6oo3CU2AdPhgidMJeGcfYcghgeJMvFUMc" ] },
      { "delegate": "tz3hw2kqXhLUvY65ca1eety2oQTpAvd34R9Q",
        "reception_time": "2022-01-16T00:58:13.303-00:00",
        "included_in_blocks":
          [ "BKm7uZWwxftagpVLAE6oo3CU2AdPhgidMJeGcfYcghgeJMvFUMc" ] },
      { "delegate": "tz3bTdwZinP8U1JmSweNzVKhmwafqWmFWRfk",
        "reception_time": "2022-01-16T00:58:13.345-00:00",
        "included_in_blocks":
          [ "BKm7uZWwxftagpVLAE6oo3CU2AdPhgidMJeGcfYcghgeJMvFUMc" ] },
      { "delegate": "tz1RQhNh7iB9CZA7i3ifTWNwiGYVffponfbB",
        "reception_time": "2022-01-16T00:58:13.348-00:00",
        "included_in_blocks":
          [ "BKm7uZWwxftagpVLAE6oo3CU2AdPhgidMJeGcfYcghgeJMvFUMc" ] },
      { "delegate": "tz1ei4WtWEMEJekSv8qDnu9PExG6Q8HgRGr3",
        "reception_time": "2022-01-16T00:58:13.388-00:00",
        "included_in_blocks":
          [ "BKm7uZWwxftagpVLAE6oo3CU2AdPhgidMJeGcfYcghgeJMvFUMc" ] },
      { "delegate": "tz1SYq214SCBy9naR6cvycQsYcUGpBqQAE8d",
        "reception_time": "2022-01-16T00:58:13.510-00:00",
        "included_in_blocks":
          [ "BKm7uZWwxftagpVLAE6oo3CU2AdPhgidMJeGcfYcghgeJMvFUMc" ] },
      { "delegate": "tz1V4qCyvPKZ5UeqdH14HN42rxvNPQfc9UZg",
        "reception_time": "2022-01-16T00:58:13.525-00:00",
        "included_in_blocks":
          [ "BKm7uZWwxftagpVLAE6oo3CU2AdPhgidMJeGcfYcghgeJMvFUMc" ] },
      { "delegate": "tz1TEc75UKXv4W5cwi14Na3NtqFD51yKQi7h",
        "reception_time": "2022-01-16T00:58:13.544-00:00",
        "included_in_blocks":
          [ "BKm7uZWwxftagpVLAE6oo3CU2AdPhgidMJeGcfYcghgeJMvFUMc" ] },
      { "delegate": "tz1NortRftucvAkD1J58L32EhSVrQEWJCEnB",
        "reception_time": "2022-01-16T00:58:13.546-00:00",
        "included_in_blocks":
          [ "BKm7uZWwxftagpVLAE6oo3CU2AdPhgidMJeGcfYcghgeJMvFUMc" ] },
      { "delegate": "tz1S8MNvuFEUsWgjHvi3AxibRBf388NhT1q2",
        "reception_time": "2022-01-16T00:58:13.648-00:00",
        "included_in_blocks":
          [ "BKm7uZWwxftagpVLAE6oo3CU2AdPhgidMJeGcfYcghgeJMvFUMc" ] },
      { "delegate": "tz1aDiEJf9ztRrAJEXZfcG3CKimoKsGhwVAi",
        "reception_time": "2022-01-16T00:58:13.691-00:00",
        "included_in_blocks":
          [ "BKm7uZWwxftagpVLAE6oo3CU2AdPhgidMJeGcfYcghgeJMvFUMc" ] },
      { "delegate": "tz1SUgyRB8T5jXgXAwS33pgRHAKrafyg87Yc",
        "reception_time": "2022-01-16T00:58:13.813-00:00",
        "included_in_blocks":
          [ "BKm7uZWwxftagpVLAE6oo3CU2AdPhgidMJeGcfYcghgeJMvFUMc" ] },
      { "delegate": "tz1TUByFyn9oCXd5c4wDrDekjhPfXtYn4cyb",
        "reception_time": "2022-01-16T00:58:13.818-00:00",
        "included_in_blocks":
          [ "BKm7uZWwxftagpVLAE6oo3CU2AdPhgidMJeGcfYcghgeJMvFUMc" ] },
      { "delegate": "tz1YiuvpfeVAHbnU8akcWErNfQGFHNQ7F45z",
        "reception_time": "2022-01-16T00:58:13.825-00:00",
        "included_in_blocks":
          [ "BKm7uZWwxftagpVLAE6oo3CU2AdPhgidMJeGcfYcghgeJMvFUMc" ] },
      { "delegate": "tz1Nf6tsK4G6bBqgSQERy4nUtkHNKUVdh7q1",
        "reception_time": "2022-01-16T00:58:13.831-00:00",
        "included_in_blocks":
          [ "BKm7uZWwxftagpVLAE6oo3CU2AdPhgidMJeGcfYcghgeJMvFUMc" ] },
      { "delegate": "tz1MQJPGNMijnXnVoBENFz9rUhaPt3S7rWoz",
        "reception_time": "2022-01-16T00:58:13.877-00:00",
        "included_in_blocks":
          [ "BKm7uZWwxftagpVLAE6oo3CU2AdPhgidMJeGcfYcghgeJMvFUMc" ] },
      { "delegate": "tz2FCNBrERXtaTtNX6iimR1UJ5JSDxvdHM93",
        "reception_time": "2022-01-16T00:58:13.890-00:00",
        "included_in_blocks":
          [ "BKm7uZWwxftagpVLAE6oo3CU2AdPhgidMJeGcfYcghgeJMvFUMc" ] },
      { "delegate": "tz1cYufsxHXJcvANhvS55h3aY32a9BAFB494",
        "reception_time": "2022-01-16T00:58:13.896-00:00",
        "included_in_blocks":
          [ "BKm7uZWwxftagpVLAE6oo3CU2AdPhgidMJeGcfYcghgeJMvFUMc" ] },
      { "delegate": "tz1TRqbYbUf2GyrjErf3hBzgBJPzW8y36qEs",
        "reception_time": "2022-01-16T00:58:13.947-00:00",
        "included_in_blocks":
          [ "BKm7uZWwxftagpVLAE6oo3CU2AdPhgidMJeGcfYcghgeJMvFUMc" ] },
      { "delegate": "tz1RCFbB9GpALpsZtu6J58sb74dm8qe6XBzv",
        "reception_time": "2022-01-16T00:58:13.951-00:00",
        "included_in_blocks":
          [ "BKm7uZWwxftagpVLAE6oo3CU2AdPhgidMJeGcfYcghgeJMvFUMc" ] },
      { "delegate": "tz3NDpRj6WBrJPikcPVHRBEjWKxFw3c6eQPS",
        "reception_time": "2022-01-16T00:58:14.038-00:00",
        "included_in_blocks":
          [ "BKm7uZWwxftagpVLAE6oo3CU2AdPhgidMJeGcfYcghgeJMvFUMc" ] },
      { "delegate": "tz1LmaFsWRkjr7QMCx5PtV6xTUz3AmEpKQiF",
        "reception_time": "2022-01-16T00:58:14.202-00:00",
        "included_in_blocks":
          [ "BKm7uZWwxftagpVLAE6oo3CU2AdPhgidMJeGcfYcghgeJMvFUMc" ] },
      { "delegate": "tz3RB4aoyjov4KEVRbuhvQ1CKJgBJMWhaeB8",
        "reception_time": "2022-01-16T00:58:14.391-00:00",
        "included_in_blocks":
          [ "BKm7uZWwxftagpVLAE6oo3CU2AdPhgidMJeGcfYcghgeJMvFUMc" ] },
      { "delegate": "tz3adcvQaKXTCg12zbninqo3q8ptKKtDFTLv",
        "reception_time": "2022-01-16T00:58:14.481-00:00",
        "included_in_blocks":
          [ "BKm7uZWwxftagpVLAE6oo3CU2AdPhgidMJeGcfYcghgeJMvFUMc" ] },
      { "delegate": "tz1NEKxGEHsFufk87CVZcrqWu8o22qh46GK6",
        "reception_time": "2022-01-16T00:58:14.567-00:00",
        "included_in_blocks":
          [ "BKm7uZWwxftagpVLAE6oo3CU2AdPhgidMJeGcfYcghgeJMvFUMc" ] },
      { "delegate": "tz1WctSwL49BZtdWAQ75NY6vr4xsAx6oKdah",
        "reception_time": "2022-01-16T00:58:14.710-00:00",
        "included_in_blocks":
          [ "BKm7uZWwxftagpVLAE6oo3CU2AdPhgidMJeGcfYcghgeJMvFUMc" ] },
      { "delegate": "tz3VEZ4k6a4Wx42iyev6i2aVAptTRLEAivNN",
        "reception_time": "2022-01-16T00:58:14.727-00:00",
        "included_in_blocks":
          [ "BKm7uZWwxftagpVLAE6oo3CU2AdPhgidMJeGcfYcghgeJMvFUMc" ] },
      { "delegate": "tz1T7duV5gZWSTq4YpBGbXNLTfznCLDrFxvs",
        "reception_time": "2022-01-16T00:58:14.750-00:00",
        "included_in_blocks":
          [ "BKm7uZWwxftagpVLAE6oo3CU2AdPhgidMJeGcfYcghgeJMvFUMc" ] },
      { "delegate": "tz1ULYFhUY7Syao5NWr9jZ1pp3aw81QPiqjs",
        "reception_time": "2022-01-16T00:58:14.782-00:00",
        "included_in_blocks":
          [ "BKm7uZWwxftagpVLAE6oo3CU2AdPhgidMJeGcfYcghgeJMvFUMc" ] },
      { "delegate": "tz3bvNMQ95vfAYtG8193ymshqjSvmxiCUuR5",
        "reception_time": "2022-01-16T00:58:14.825-00:00",
        "included_in_blocks":
          [ "BKm7uZWwxftagpVLAE6oo3CU2AdPhgidMJeGcfYcghgeJMvFUMc" ] },
      { "delegate": "tz1dRKU4FQ9QRRQPdaH4zCR6gmCmXfcvcgtB",
        "reception_time": "2022-01-16T00:58:14.898-00:00",
        "included_in_blocks":
          [ "BKm7uZWwxftagpVLAE6oo3CU2AdPhgidMJeGcfYcghgeJMvFUMc" ] },
      { "delegate": "tz1aRoaRhSpRYvFdyvgWLL6TGyRoGF51wDjM",
        "reception_time": "2022-01-16T00:58:14.899-00:00",
        "included_in_blocks":
          [ "BKm7uZWwxftagpVLAE6oo3CU2AdPhgidMJeGcfYcghgeJMvFUMc" ] },
      { "delegate": "tz3RDC3Jdn4j15J7bBHZd29EUee9gVB1CxD9",
        "reception_time": "2022-01-16T00:58:15.029-00:00",
        "included_in_blocks":
          [ "BKm7uZWwxftagpVLAE6oo3CU2AdPhgidMJeGcfYcghgeJMvFUMc" ] },
      { "delegate": "tz1awXW7wuXy21c66vBudMXQVAPgRnqqwgTH",
        "reception_time": "2022-01-16T00:58:15.045-00:00",
        "included_in_blocks":
          [ "BKm7uZWwxftagpVLAE6oo3CU2AdPhgidMJeGcfYcghgeJMvFUMc" ] },
      { "delegate": "tz1fJHFn6sWEd3NnBPngACuw2dggTv6nQZ7g",
        "reception_time": "2022-01-16T00:58:15.409-00:00",
        "included_in_blocks":
          [ "BKm7uZWwxftagpVLAE6oo3CU2AdPhgidMJeGcfYcghgeJMvFUMc" ] },
      { "delegate": "tz3UoffC7FG7zfpmvmjUmUeAaHvzdcUvAj6r",
        "reception_time": "2022-01-16T00:58:15.500-00:00",
        "included_in_blocks":
          [ "BKm7uZWwxftagpVLAE6oo3CU2AdPhgidMJeGcfYcghgeJMvFUMc" ] },
      { "delegate": "tz3NExpXn9aPNZPorRE4SdjJ2RGrfbJgMAaV",
        "reception_time": "2022-01-16T00:58:15.561-00:00",
        "included_in_blocks":
          [ "BKm7uZWwxftagpVLAE6oo3CU2AdPhgidMJeGcfYcghgeJMvFUMc" ] },
      { "delegate": "tz3WMqdzXqRWXwyvj5Hp2H7QEepaUuS7vd9K",
        "reception_time": "2022-01-16T00:58:15.873-00:00",
        "included_in_blocks":
          [ "BKm7uZWwxftagpVLAE6oo3CU2AdPhgidMJeGcfYcghgeJMvFUMc" ] },
      { "delegate": "tz1RjoHc98dBoqaH2jawF62XNKh7YsHwbkEv",
        "reception_time": "2022-01-16T00:58:16.213-00:00",
        "included_in_blocks":
          [ "BKm7uZWwxftagpVLAE6oo3CU2AdPhgidMJeGcfYcghgeJMvFUMc" ] },
      { "delegate": "tz1W5VkdB5s7ENMESVBtwyt9kyvLqPcUczRT",
        "reception_time": "2022-01-16T00:58:16.521-00:00",
        "included_in_blocks":
          [ "BKm7uZWwxftagpVLAE6oo3CU2AdPhgidMJeGcfYcghgeJMvFUMc" ] },
      { "delegate": "tz1MbhmEwEAzzfb3naSr7vTp4mDxB8HsknA9",
        "reception_time": "2022-01-16T00:58:16.598-00:00",
        "included_in_blocks":
          [ "BKm7uZWwxftagpVLAE6oo3CU2AdPhgidMJeGcfYcghgeJMvFUMc" ] },
      { "delegate": "tz1NpWrAyDL9k2Lmnyxcgr9xuJakbBxdq7FB",
        "reception_time": "2022-01-16T00:58:18.813-00:00",
        "included_in_blocks":
          [ "BKm7uZWwxftagpVLAE6oo3CU2AdPhgidMJeGcfYcghgeJMvFUMc" ] },
      { "delegate": "tz1S5WxdZR5f9NzsPXhr7L9L1vrEb5spZFur",
        "reception_time": "2022-01-16T00:58:20.414-00:00",
        "included_in_blocks":
          [ "BKm7uZWwxftagpVLAE6oo3CU2AdPhgidMJeGcfYcghgeJMvFUMc" ] } ] }