{ "blocks":
    [ { "hash": "BLDBVu5Cfk2BpcdFf7kGiajZvj454MiqML1hnviSugaZC4Ty3mr",
        "delegate": "tz1irJKkXS2DBWkU1NnmFQx1c1L7pbGg4yhk",
        "reception_time": "2022-01-16T06:26:25.647-00:00",
        "timestamp": "2022-01-16T06:26:20Z" } ],
  "endorsements":
    [ { "delegate": "tz1eEnQhbwf6trb8Q8mPb2RaPkNk2rN7BKi8",
        "reception_time": "2022-01-16T06:26:25.555-00:00",
        "errors":
          [ { "kind": "temporary",
              "id": "proto.011-PtHangz2.prefilter.outdated_endorsement" } ],
        "included_in_blocks":
          [ "BLtGY9PPRaxfKdGQFLchnkc22YN8yJndYCDoiU7iB9up4iCDT8C" ] },
      { "delegate": "tz1Lhf4J9Qxoe3DZ2nfe8FGDnvVj7oKjnMY6",
        "reception_time": "2022-01-16T06:26:25.540-00:00",
        "errors":
          [ { "kind": "temporary",
              "id": "proto.011-PtHangz2.prefilter.outdated_endorsement" } ],
        "included_in_blocks":
          [ "BLtGY9PPRaxfKdGQFLchnkc22YN8yJndYCDoiU7iB9up4iCDT8C" ] },
      { "delegate": "tz1P2Po7YM526ughEsRbY4oR9zaUPDZjxFrb",
        "reception_time": "2022-01-16T06:26:25.417-00:00",
        "errors":
          [ { "kind": "temporary",
              "id": "proto.011-PtHangz2.prefilter.outdated_endorsement" } ],
        "included_in_blocks":
          [ "BLtGY9PPRaxfKdGQFLchnkc22YN8yJndYCDoiU7iB9up4iCDT8C" ] },
      { "delegate": "tz1irJKkXS2DBWkU1NnmFQx1c1L7pbGg4yhk",
        "reception_time": "2022-01-16T06:26:26.393-00:00",
        "included_in_blocks":
          [ "BLtGY9PPRaxfKdGQFLchnkc22YN8yJndYCDoiU7iB9up4iCDT8C" ] },
      { "delegate": "tz1gUNyn3hmnEWqkusWPzxRaon1cs7ndWh7h",
        "reception_time": "2022-01-16T06:26:26.393-00:00",
        "included_in_blocks":
          [ "BLtGY9PPRaxfKdGQFLchnkc22YN8yJndYCDoiU7iB9up4iCDT8C" ] },
      { "delegate": "tz1VQnqCCqX4K5sP3FNkVSNKTdCAMJDd3E1n",
        "reception_time": "2022-01-16T06:26:26.393-00:00",
        "included_in_blocks":
          [ "BLtGY9PPRaxfKdGQFLchnkc22YN8yJndYCDoiU7iB9up4iCDT8C" ] },
      { "delegate": "tz3ZbP2pM3nwvXztbuMJwJnDvV5xdpU8UkkD",
        "reception_time": "2022-01-16T06:26:26.555-00:00",
        "included_in_blocks":
          [ "BLtGY9PPRaxfKdGQFLchnkc22YN8yJndYCDoiU7iB9up4iCDT8C" ] },
      { "delegate": "tz1bsdrs36X5BTH83RHUBdUouKLJZK8d2oBa",
        "reception_time": "2022-01-16T06:26:26.555-00:00",
        "included_in_blocks":
          [ "BLtGY9PPRaxfKdGQFLchnkc22YN8yJndYCDoiU7iB9up4iCDT8C" ] },
      { "delegate": "tz3RKYFsLuQzKBtmYuLNas7uMu3AsYd4QdsA",
        "reception_time": "2022-01-16T06:26:26.555-00:00",
        "included_in_blocks":
          [ "BLtGY9PPRaxfKdGQFLchnkc22YN8yJndYCDoiU7iB9up4iCDT8C" ] },
      { "delegate": "tz1Ldzz6k1BHdhuKvAtMRX7h5kJSMHESMHLC",
        "reception_time": "2022-01-16T06:26:26.555-00:00",
        "included_in_blocks":
          [ "BLtGY9PPRaxfKdGQFLchnkc22YN8yJndYCDoiU7iB9up4iCDT8C" ] },
      { "delegate": "tz1Kt4P8BCaP93AEV4eA7gmpRryWt5hznjCP",
        "reception_time": "2022-01-16T06:26:26.555-00:00",
        "included_in_blocks":
          [ "BLtGY9PPRaxfKdGQFLchnkc22YN8yJndYCDoiU7iB9up4iCDT8C" ] },
      { "delegate": "tz3hw2kqXhLUvY65ca1eety2oQTpAvd34R9Q",
        "reception_time": "2022-01-16T06:26:26.555-00:00",
        "included_in_blocks":
          [ "BLtGY9PPRaxfKdGQFLchnkc22YN8yJndYCDoiU7iB9up4iCDT8C" ] },
      { "delegate": "tz3NxTnke1acr8o3h5y9ytf5awQBGNJUKzVU",
        "reception_time": "2022-01-16T06:26:26.555-00:00",
        "included_in_blocks":
          [ "BLtGY9PPRaxfKdGQFLchnkc22YN8yJndYCDoiU7iB9up4iCDT8C" ] },
      { "delegate": "tz3QSGPoRp3Kn7n3vY24eYeu3Peuqo45LQ4D",
        "reception_time": "2022-01-16T06:26:26.836-00:00",
        "included_in_blocks":
          [ "BLtGY9PPRaxfKdGQFLchnkc22YN8yJndYCDoiU7iB9up4iCDT8C" ] },
      { "delegate": "tz3gtoUxdudfBRcNY7iVdKPHCYYX6xdPpoRS",
        "reception_time": "2022-01-16T06:26:26.836-00:00",
        "included_in_blocks":
          [ "BLtGY9PPRaxfKdGQFLchnkc22YN8yJndYCDoiU7iB9up4iCDT8C" ] },
      { "delegate": "tz1VmiY38m3y95HqQLjMwqnMS7sdMfGomzKi",
        "reception_time": "2022-01-16T06:26:26.836-00:00",
        "included_in_blocks":
          [ "BLtGY9PPRaxfKdGQFLchnkc22YN8yJndYCDoiU7iB9up4iCDT8C" ] },
      { "delegate": "tz3S6BBeKgJGXxvLyZ1xzXzMPn11nnFtq5L9",
        "reception_time": "2022-01-16T06:26:26.836-00:00",
        "included_in_blocks":
          [ "BLtGY9PPRaxfKdGQFLchnkc22YN8yJndYCDoiU7iB9up4iCDT8C" ] },
      { "delegate": "tz1XX67xSF2ou3aQZ6LhXaaxZWDR3YZ6hCMs",
        "reception_time": "2022-01-16T06:26:26.836-00:00",
        "included_in_blocks":
          [ "BLtGY9PPRaxfKdGQFLchnkc22YN8yJndYCDoiU7iB9up4iCDT8C" ] },
      { "delegate": "tz3QT9dHYKDqh563chVa6za8526ys1UKfRfL",
        "reception_time": "2022-01-16T06:26:26.836-00:00",
        "included_in_blocks":
          [ "BLtGY9PPRaxfKdGQFLchnkc22YN8yJndYCDoiU7iB9up4iCDT8C" ] },
      { "delegate": "tz3Zhs2dygr55yHyQyKjntAtY9bgfhLZ4Xj1",
        "reception_time": "2022-01-16T06:26:26.836-00:00",
        "included_in_blocks":
          [ "BLtGY9PPRaxfKdGQFLchnkc22YN8yJndYCDoiU7iB9up4iCDT8C" ] },
      { "delegate": "tz1SUgyRB8T5jXgXAwS33pgRHAKrafyg87Yc",
        "reception_time": "2022-01-16T06:26:26.836-00:00",
        "included_in_blocks":
          [ "BLtGY9PPRaxfKdGQFLchnkc22YN8yJndYCDoiU7iB9up4iCDT8C" ] },
      { "delegate": "tz3iJu5vrKZcsqRPs8yJ61UDoeEXZmtro4qh",
        "reception_time": "2022-01-16T06:26:26.836-00:00",
        "included_in_blocks":
          [ "BLtGY9PPRaxfKdGQFLchnkc22YN8yJndYCDoiU7iB9up4iCDT8C" ] },
      { "delegate": "tz1fUjvVhJrHLZCbhPNvDRckxApqbkievJHN",
        "reception_time": "2022-01-16T06:26:26.924-00:00",
        "included_in_blocks":
          [ "BLtGY9PPRaxfKdGQFLchnkc22YN8yJndYCDoiU7iB9up4iCDT8C" ] },
      { "delegate": "tz1PWCDnz783NNGGQjEFFsHtrcK5yBW4E2rm",
        "reception_time": "2022-01-16T06:26:26.956-00:00",
        "included_in_blocks":
          [ "BLtGY9PPRaxfKdGQFLchnkc22YN8yJndYCDoiU7iB9up4iCDT8C" ] },
      { "delegate": "tz1S8MNvuFEUsWgjHvi3AxibRBf388NhT1q2",
        "reception_time": "2022-01-16T06:26:26.961-00:00",
        "included_in_blocks":
          [ "BLtGY9PPRaxfKdGQFLchnkc22YN8yJndYCDoiU7iB9up4iCDT8C" ] },
      { "delegate": "tz1RCFbB9GpALpsZtu6J58sb74dm8qe6XBzv",
        "reception_time": "2022-01-16T06:26:26.968-00:00",
        "included_in_blocks":
          [ "BLtGY9PPRaxfKdGQFLchnkc22YN8yJndYCDoiU7iB9up4iCDT8C" ] },
      { "delegate": "tz3bTdwZinP8U1JmSweNzVKhmwafqWmFWRfk",
        "reception_time": "2022-01-16T06:26:26.980-00:00",
        "included_in_blocks":
          [ "BLtGY9PPRaxfKdGQFLchnkc22YN8yJndYCDoiU7iB9up4iCDT8C" ] },
      { "delegate": "tz3bvNMQ95vfAYtG8193ymshqjSvmxiCUuR5",
        "reception_time": "2022-01-16T06:26:27.076-00:00",
        "included_in_blocks":
          [ "BLtGY9PPRaxfKdGQFLchnkc22YN8yJndYCDoiU7iB9up4iCDT8C" ] },
      { "delegate": "tz3RDC3Jdn4j15J7bBHZd29EUee9gVB1CxD9",
        "reception_time": "2022-01-16T06:26:27.083-00:00",
        "included_in_blocks":
          [ "BLtGY9PPRaxfKdGQFLchnkc22YN8yJndYCDoiU7iB9up4iCDT8C" ] },
      { "delegate": "tz2FCNBrERXtaTtNX6iimR1UJ5JSDxvdHM93",
        "reception_time": "2022-01-16T06:26:27.112-00:00",
        "included_in_blocks":
          [ "BLtGY9PPRaxfKdGQFLchnkc22YN8yJndYCDoiU7iB9up4iCDT8C" ] },
      { "delegate": "tz1gfArv665EUkSg2ojMBzcbfwuPxAvqPvjo",
        "reception_time": "2022-01-16T06:26:27.284-00:00",
        "included_in_blocks":
          [ "BLtGY9PPRaxfKdGQFLchnkc22YN8yJndYCDoiU7iB9up4iCDT8C" ] },
      { "delegate": "tz1MGTFJXpQmtxLi8QJ7AuVRgM2L2Qfn9w9i",
        "reception_time": "2022-01-16T06:26:27.346-00:00",
        "included_in_blocks":
          [ "BLtGY9PPRaxfKdGQFLchnkc22YN8yJndYCDoiU7iB9up4iCDT8C" ] },
      { "delegate": "tz1ei4WtWEMEJekSv8qDnu9PExG6Q8HgRGr3",
        "reception_time": "2022-01-16T06:26:27.398-00:00",
        "included_in_blocks":
          [ "BLtGY9PPRaxfKdGQFLchnkc22YN8yJndYCDoiU7iB9up4iCDT8C" ] },
      { "delegate": "tz1LmaFsWRkjr7QMCx5PtV6xTUz3AmEpKQiF",
        "reception_time": "2022-01-16T06:26:27.431-00:00",
        "included_in_blocks":
          [ "BLtGY9PPRaxfKdGQFLchnkc22YN8yJndYCDoiU7iB9up4iCDT8C" ] },
      { "delegate": "tz1RjoHc98dBoqaH2jawF62XNKh7YsHwbkEv",
        "reception_time": "2022-01-16T06:26:27.460-00:00",
        "included_in_blocks":
          [ "BLtGY9PPRaxfKdGQFLchnkc22YN8yJndYCDoiU7iB9up4iCDT8C" ] },
      { "delegate": "tz1MQJPGNMijnXnVoBENFz9rUhaPt3S7rWoz",
        "reception_time": "2022-01-16T06:26:27.544-00:00",
        "included_in_blocks":
          [ "BLtGY9PPRaxfKdGQFLchnkc22YN8yJndYCDoiU7iB9up4iCDT8C" ] },
      { "delegate": "tz1TEc75UKXv4W5cwi14Na3NtqFD51yKQi7h",
        "reception_time": "2022-01-16T06:26:27.561-00:00",
        "included_in_blocks":
          [ "BLtGY9PPRaxfKdGQFLchnkc22YN8yJndYCDoiU7iB9up4iCDT8C" ] },
      { "delegate": "tz1Vd1rXpV8hTHbFXCXN3c3qzCsgcU5BZw1e",
        "reception_time": "2022-01-16T06:26:27.657-00:00",
        "included_in_blocks":
          [ "BLtGY9PPRaxfKdGQFLchnkc22YN8yJndYCDoiU7iB9up4iCDT8C" ] },
      { "delegate": "tz1M1gA1hgmmLf8VvtAwupbWCkaciQZMFbvi",
        "reception_time": "2022-01-16T06:26:27.662-00:00",
        "included_in_blocks":
          [ "BLtGY9PPRaxfKdGQFLchnkc22YN8yJndYCDoiU7iB9up4iCDT8C" ] },
      { "delegate": "tz1SYq214SCBy9naR6cvycQsYcUGpBqQAE8d",
        "reception_time": "2022-01-16T06:26:27.741-00:00",
        "included_in_blocks":
          [ "BLtGY9PPRaxfKdGQFLchnkc22YN8yJndYCDoiU7iB9up4iCDT8C" ] },
      { "delegate": "tz1TRqbYbUf2GyrjErf3hBzgBJPzW8y36qEs",
        "reception_time": "2022-01-16T06:26:27.799-00:00",
        "included_in_blocks":
          [ "BLtGY9PPRaxfKdGQFLchnkc22YN8yJndYCDoiU7iB9up4iCDT8C" ] },
      { "delegate": "tz1WBfwbT66FC6BTLexc2BoyCCBM9LG7pnVW",
        "reception_time": "2022-01-16T06:26:27.893-00:00",
        "included_in_blocks":
          [ "BLtGY9PPRaxfKdGQFLchnkc22YN8yJndYCDoiU7iB9up4iCDT8C" ] },
      { "delegate": "tz1Nf6tsK4G6bBqgSQERy4nUtkHNKUVdh7q1",
        "reception_time": "2022-01-16T06:26:27.898-00:00",
        "included_in_blocks":
          [ "BLtGY9PPRaxfKdGQFLchnkc22YN8yJndYCDoiU7iB9up4iCDT8C" ] },
      { "delegate": "tz1NEKxGEHsFufk87CVZcrqWu8o22qh46GK6",
        "reception_time": "2022-01-16T06:26:27.974-00:00",
        "included_in_blocks":
          [ "BLtGY9PPRaxfKdGQFLchnkc22YN8yJndYCDoiU7iB9up4iCDT8C" ] },
      { "delegate": "tz1cYufsxHXJcvANhvS55h3aY32a9BAFB494",
        "reception_time": "2022-01-16T06:26:28.038-00:00",
        "included_in_blocks":
          [ "BLtGY9PPRaxfKdGQFLchnkc22YN8yJndYCDoiU7iB9up4iCDT8C" ] },
      { "delegate": "tz1KfEsrtDaA1sX7vdM4qmEPWuSytuqCDp5j",
        "reception_time": "2022-01-16T06:26:28.102-00:00",
        "included_in_blocks":
          [ "BLtGY9PPRaxfKdGQFLchnkc22YN8yJndYCDoiU7iB9up4iCDT8C" ] },
      { "delegate": "tz3RB4aoyjov4KEVRbuhvQ1CKJgBJMWhaeB8",
        "reception_time": "2022-01-16T06:26:28.178-00:00",
        "included_in_blocks":
          [ "BLtGY9PPRaxfKdGQFLchnkc22YN8yJndYCDoiU7iB9up4iCDT8C" ] },
      { "delegate": "tz3WMqdzXqRWXwyvj5Hp2H7QEepaUuS7vd9K",
        "reception_time": "2022-01-16T06:26:28.246-00:00",
        "included_in_blocks":
          [ "BLtGY9PPRaxfKdGQFLchnkc22YN8yJndYCDoiU7iB9up4iCDT8C" ] },
      { "delegate": "tz3VEZ4k6a4Wx42iyev6i2aVAptTRLEAivNN",
        "reception_time": "2022-01-16T06:26:28.343-00:00",
        "included_in_blocks":
          [ "BLtGY9PPRaxfKdGQFLchnkc22YN8yJndYCDoiU7iB9up4iCDT8C" ] },
      { "delegate": "tz1LAJKyGRCheNiLAQQmJ8dXnoKbKgLzxNFp",
        "reception_time": "2022-01-16T06:26:28.363-00:00",
        "included_in_blocks":
          [ "BLtGY9PPRaxfKdGQFLchnkc22YN8yJndYCDoiU7iB9up4iCDT8C" ] },
      { "delegate": "tz1aRoaRhSpRYvFdyvgWLL6TGyRoGF51wDjM",
        "reception_time": "2022-01-16T06:26:28.366-00:00",
        "included_in_blocks":
          [ "BLtGY9PPRaxfKdGQFLchnkc22YN8yJndYCDoiU7iB9up4iCDT8C" ] },
      { "delegate": "tz1NRGxXV9h6SdNaZLcgmjuLx3hyy2f8YoGN",
        "reception_time": "2022-01-16T06:26:28.403-00:00",
        "included_in_blocks":
          [ "BLtGY9PPRaxfKdGQFLchnkc22YN8yJndYCDoiU7iB9up4iCDT8C" ] },
      { "delegate": "tz1Z2jXfEXL7dXhs6bsLmyLFLfmAkXBzA9WE",
        "reception_time": "2022-01-16T06:26:28.658-00:00",
        "included_in_blocks":
          [ "BLtGY9PPRaxfKdGQFLchnkc22YN8yJndYCDoiU7iB9up4iCDT8C" ] },
      { "delegate": "tz1RzwaogUQ8zPntqrSn4yn5f3VquXfEH5Jo",
        "reception_time": "2022-01-16T06:26:28.862-00:00",
        "included_in_blocks":
          [ "BLtGY9PPRaxfKdGQFLchnkc22YN8yJndYCDoiU7iB9up4iCDT8C" ] },
      { "delegate": "tz1T7duV5gZWSTq4YpBGbXNLTfznCLDrFxvs",
        "reception_time": "2022-01-16T06:26:28.952-00:00",
        "included_in_blocks":
          [ "BLtGY9PPRaxfKdGQFLchnkc22YN8yJndYCDoiU7iB9up4iCDT8C" ] },
      { "delegate": "tz1dRKU4FQ9QRRQPdaH4zCR6gmCmXfcvcgtB",
        "reception_time": "2022-01-16T06:26:29.051-00:00",
        "included_in_blocks":
          [ "BLtGY9PPRaxfKdGQFLchnkc22YN8yJndYCDoiU7iB9up4iCDT8C" ] },
      { "delegate": "tz3UoffC7FG7zfpmvmjUmUeAaHvzdcUvAj6r",
        "reception_time": "2022-01-16T06:26:29.219-00:00",
        "included_in_blocks":
          [ "BLtGY9PPRaxfKdGQFLchnkc22YN8yJndYCDoiU7iB9up4iCDT8C" ] },
      { "delegate": "tz1QdCydwfoU3Pvv2jq5TCsLTNm9Cgk7ptyk",
        "reception_time": "2022-01-16T06:26:29.234-00:00",
        "included_in_blocks":
          [ "BLtGY9PPRaxfKdGQFLchnkc22YN8yJndYCDoiU7iB9up4iCDT8C" ] },
      { "delegate": "tz3NExpXn9aPNZPorRE4SdjJ2RGrfbJgMAaV",
        "reception_time": "2022-01-16T06:26:29.389-00:00",
        "included_in_blocks":
          [ "BLtGY9PPRaxfKdGQFLchnkc22YN8yJndYCDoiU7iB9up4iCDT8C" ] },
      { "delegate": "tz1QJU1PuKUP5ZQxUr4pHZjCHGRvJSpcXv7G",
        "reception_time": "2022-01-16T06:26:29.400-00:00",
        "included_in_blocks":
          [ "BLtGY9PPRaxfKdGQFLchnkc22YN8yJndYCDoiU7iB9up4iCDT8C" ] },
      { "delegate": "tz1QccGQsmt7WMnbVX9inJQgEuQGeMXddfjp",
        "reception_time": "2022-01-16T06:26:29.474-00:00",
        "included_in_blocks":
          [ "BLtGY9PPRaxfKdGQFLchnkc22YN8yJndYCDoiU7iB9up4iCDT8C" ] },
      { "delegate": "tz1W5VkdB5s7ENMESVBtwyt9kyvLqPcUczRT",
        "reception_time": "2022-01-16T06:26:30.073-00:00",
        "included_in_blocks":
          [ "BLtGY9PPRaxfKdGQFLchnkc22YN8yJndYCDoiU7iB9up4iCDT8C" ] },
      { "delegate": "tz1aJS7Pk9uWR3wWyFf1i3RwhYxN84G7stom",
        "reception_time": "2022-01-16T06:26:30.962-00:00",
        "included_in_blocks":
          [ "BLtGY9PPRaxfKdGQFLchnkc22YN8yJndYCDoiU7iB9up4iCDT8C" ] },
      { "delegate": "tz1RAxW1rBTRumV9QEpFsw51QWPQmAKHGMei",
        "reception_time": "2022-01-16T06:26:33.655-00:00",
        "included_in_blocks":
          [ "BLtGY9PPRaxfKdGQFLchnkc22YN8yJndYCDoiU7iB9up4iCDT8C" ] } ] }