{ "blocks":
    [ { "hash": "BM99BESgy2UqmCxLMj4SNjrZmm4CGSkLxM6zPenZFd9g5JXdR8h",
        "delegate": "tz1RCFbB9GpALpsZtu6J58sb74dm8qe6XBzv",
        "reception_time": "2022-01-16T07:14:25.188-00:00",
        "timestamp": "2022-01-16T07:14:20Z" } ],
  "endorsements":
    [ { "delegate": "tz1TRspM5SeZpaQUhzByXbEvqKF1vnCM2YTK" },
      { "delegate": "tz1RjoHc98dBoqaH2jawF62XNKh7YsHwbkEv" },
      { "delegate": "tz3e7LbZvUtoXhpUD1yb6wuFodZpfYRb9nWJ",
        "reception_time": "2022-01-16T07:14:33.267-00:00",
        "included_in_blocks":
          [ "BLRSCPx6BgD9WARjnG8zP8q4f1Eudn2N152hgTeW2UnfKREiuKr" ] },
      { "delegate": "tz1go7f6mEQfT2xX2LuHAqgnRGN6c2zHPf5c",
        "reception_time": "2022-01-16T07:14:30.482-00:00",
        "included_in_blocks":
          [ "BLRSCPx6BgD9WARjnG8zP8q4f1Eudn2N152hgTeW2UnfKREiuKr" ] },
      { "delegate": "tz1W5VkdB5s7ENMESVBtwyt9kyvLqPcUczRT",
        "reception_time": "2022-01-16T07:14:30.223-00:00",
        "included_in_blocks":
          [ "BLRSCPx6BgD9WARjnG8zP8q4f1Eudn2N152hgTeW2UnfKREiuKr" ] },
      { "delegate": "tz1i3mhawFAgcB8JHaHwoUF6hdncwTAkLEn2",
        "reception_time": "2022-01-16T07:14:29.553-00:00",
        "included_in_blocks":
          [ "BLRSCPx6BgD9WARjnG8zP8q4f1Eudn2N152hgTeW2UnfKREiuKr" ] },
      { "delegate": "tz1g8vkmcde6sWKaG2NN9WKzCkDM6Rziq194",
        "reception_time": "2022-01-16T07:14:29.488-00:00",
        "included_in_blocks":
          [ "BLRSCPx6BgD9WARjnG8zP8q4f1Eudn2N152hgTeW2UnfKREiuKr" ] },
      { "delegate": "tz1T7duV5gZWSTq4YpBGbXNLTfznCLDrFxvs",
        "reception_time": "2022-01-16T07:14:29.330-00:00",
        "included_in_blocks":
          [ "BLRSCPx6BgD9WARjnG8zP8q4f1Eudn2N152hgTeW2UnfKREiuKr" ] },
      { "delegate": "tz1cYufsxHXJcvANhvS55h3aY32a9BAFB494",
        "reception_time": "2022-01-16T07:14:28.953-00:00",
        "included_in_blocks":
          [ "BLRSCPx6BgD9WARjnG8zP8q4f1Eudn2N152hgTeW2UnfKREiuKr" ] },
      { "delegate": "tz1dRKU4FQ9QRRQPdaH4zCR6gmCmXfcvcgtB",
        "reception_time": "2022-01-16T07:14:28.917-00:00",
        "included_in_blocks":
          [ "BLRSCPx6BgD9WARjnG8zP8q4f1Eudn2N152hgTeW2UnfKREiuKr" ] },
      { "delegate": "tz3NExpXn9aPNZPorRE4SdjJ2RGrfbJgMAaV",
        "reception_time": "2022-01-16T07:14:28.695-00:00",
        "included_in_blocks":
          [ "BLRSCPx6BgD9WARjnG8zP8q4f1Eudn2N152hgTeW2UnfKREiuKr" ] },
      { "delegate": "tz1dDsLch7Ww1s5mfD1tjBtKWwCdrjuHWanV",
        "reception_time": "2022-01-16T07:14:28.593-00:00",
        "included_in_blocks":
          [ "BLRSCPx6BgD9WARjnG8zP8q4f1Eudn2N152hgTeW2UnfKREiuKr" ] },
      { "delegate": "tz1UvkANVPWppVgMkLnvN7BwYZsCP7vm6NVd",
        "reception_time": "2022-01-16T07:14:28.281-00:00",
        "included_in_blocks":
          [ "BLRSCPx6BgD9WARjnG8zP8q4f1Eudn2N152hgTeW2UnfKREiuKr" ] },
      { "delegate": "tz3NDpRj6WBrJPikcPVHRBEjWKxFw3c6eQPS",
        "reception_time": "2022-01-16T07:14:28.195-00:00",
        "included_in_blocks":
          [ "BLRSCPx6BgD9WARjnG8zP8q4f1Eudn2N152hgTeW2UnfKREiuKr" ] },
      { "delegate": "tz3gLTu4Yxj8tPAcriQVUdxv6BY9QyvzU1az",
        "reception_time": "2022-01-16T07:14:28.187-00:00",
        "included_in_blocks":
          [ "BLRSCPx6BgD9WARjnG8zP8q4f1Eudn2N152hgTeW2UnfKREiuKr" ] },
      { "delegate": "tz1awXW7wuXy21c66vBudMXQVAPgRnqqwgTH",
        "reception_time": "2022-01-16T07:14:28.217-00:00",
        "included_in_blocks":
          [ "BLRSCPx6BgD9WARjnG8zP8q4f1Eudn2N152hgTeW2UnfKREiuKr" ] },
      { "delegate": "tz1aRoaRhSpRYvFdyvgWLL6TGyRoGF51wDjM",
        "reception_time": "2022-01-16T07:14:28.130-00:00",
        "included_in_blocks":
          [ "BLRSCPx6BgD9WARjnG8zP8q4f1Eudn2N152hgTeW2UnfKREiuKr" ] },
      { "delegate": "tz1WctSwL49BZtdWAQ75NY6vr4xsAx6oKdah",
        "reception_time": "2022-01-16T07:14:28.038-00:00",
        "included_in_blocks":
          [ "BLRSCPx6BgD9WARjnG8zP8q4f1Eudn2N152hgTeW2UnfKREiuKr" ] },
      { "delegate": "tz3VEZ4k6a4Wx42iyev6i2aVAptTRLEAivNN",
        "reception_time": "2022-01-16T07:14:28.130-00:00",
        "included_in_blocks":
          [ "BLRSCPx6BgD9WARjnG8zP8q4f1Eudn2N152hgTeW2UnfKREiuKr" ] },
      { "delegate": "tz3RB4aoyjov4KEVRbuhvQ1CKJgBJMWhaeB8",
        "reception_time": "2022-01-16T07:14:27.911-00:00",
        "included_in_blocks":
          [ "BLRSCPx6BgD9WARjnG8zP8q4f1Eudn2N152hgTeW2UnfKREiuKr" ] },
      { "delegate": "tz1NEKxGEHsFufk87CVZcrqWu8o22qh46GK6",
        "reception_time": "2022-01-16T07:14:27.881-00:00",
        "included_in_blocks":
          [ "BLRSCPx6BgD9WARjnG8zP8q4f1Eudn2N152hgTeW2UnfKREiuKr" ] },
      { "delegate": "tz2FCNBrERXtaTtNX6iimR1UJ5JSDxvdHM93",
        "reception_time": "2022-01-16T07:14:27.743-00:00",
        "included_in_blocks":
          [ "BLRSCPx6BgD9WARjnG8zP8q4f1Eudn2N152hgTeW2UnfKREiuKr" ] },
      { "delegate": "tz1PeZx7FXy7QRuMREGXGxeipb24RsMMzUNe",
        "reception_time": "2022-01-16T07:14:27.743-00:00",
        "included_in_blocks":
          [ "BLRSCPx6BgD9WARjnG8zP8q4f1Eudn2N152hgTeW2UnfKREiuKr" ] },
      { "delegate": "tz1SohptP53wDPZhzTWzDUFAUcWF6DMBpaJV",
        "reception_time": "2022-01-16T07:14:27.714-00:00",
        "included_in_blocks":
          [ "BLRSCPx6BgD9WARjnG8zP8q4f1Eudn2N152hgTeW2UnfKREiuKr" ] },
      { "delegate": "tz1Nf6tsK4G6bBqgSQERy4nUtkHNKUVdh7q1",
        "reception_time": "2022-01-16T07:14:27.578-00:00",
        "included_in_blocks":
          [ "BLRSCPx6BgD9WARjnG8zP8q4f1Eudn2N152hgTeW2UnfKREiuKr" ] },
      { "delegate": "tz1eCzNtidHvVgeRzQ38C81FPcYnxMsCEL6Z",
        "reception_time": "2022-01-16T07:14:27.560-00:00",
        "included_in_blocks":
          [ "BLRSCPx6BgD9WARjnG8zP8q4f1Eudn2N152hgTeW2UnfKREiuKr" ] },
      { "delegate": "tz1WBfwbT66FC6BTLexc2BoyCCBM9LG7pnVW",
        "reception_time": "2022-01-16T07:14:27.469-00:00",
        "included_in_blocks":
          [ "BLRSCPx6BgD9WARjnG8zP8q4f1Eudn2N152hgTeW2UnfKREiuKr" ] },
      { "delegate": "tz1TRqbYbUf2GyrjErf3hBzgBJPzW8y36qEs",
        "reception_time": "2022-01-16T07:14:27.542-00:00",
        "included_in_blocks":
          [ "BLRSCPx6BgD9WARjnG8zP8q4f1Eudn2N152hgTeW2UnfKREiuKr" ] },
      { "delegate": "tz3UoffC7FG7zfpmvmjUmUeAaHvzdcUvAj6r",
        "reception_time": "2022-01-16T07:14:27.381-00:00",
        "included_in_blocks":
          [ "BLRSCPx6BgD9WARjnG8zP8q4f1Eudn2N152hgTeW2UnfKREiuKr" ] },
      { "delegate": "tz3WMqdzXqRWXwyvj5Hp2H7QEepaUuS7vd9K",
        "reception_time": "2022-01-16T07:14:27.415-00:00",
        "included_in_blocks":
          [ "BLRSCPx6BgD9WARjnG8zP8q4f1Eudn2N152hgTeW2UnfKREiuKr" ] },
      { "delegate": "tz1SYq214SCBy9naR6cvycQsYcUGpBqQAE8d",
        "reception_time": "2022-01-16T07:14:27.195-00:00",
        "included_in_blocks":
          [ "BLRSCPx6BgD9WARjnG8zP8q4f1Eudn2N152hgTeW2UnfKREiuKr" ] },
      { "delegate": "tz1KfEsrtDaA1sX7vdM4qmEPWuSytuqCDp5j",
        "reception_time": "2022-01-16T07:14:27.154-00:00",
        "included_in_blocks":
          [ "BLRSCPx6BgD9WARjnG8zP8q4f1Eudn2N152hgTeW2UnfKREiuKr" ] },
      { "delegate": "tz3bvNMQ95vfAYtG8193ymshqjSvmxiCUuR5",
        "reception_time": "2022-01-16T07:14:27.047-00:00",
        "included_in_blocks":
          [ "BLRSCPx6BgD9WARjnG8zP8q4f1Eudn2N152hgTeW2UnfKREiuKr" ] },
      { "delegate": "tz1gfArv665EUkSg2ojMBzcbfwuPxAvqPvjo",
        "reception_time": "2022-01-16T07:14:27.031-00:00",
        "included_in_blocks":
          [ "BLRSCPx6BgD9WARjnG8zP8q4f1Eudn2N152hgTeW2UnfKREiuKr" ] },
      { "delegate": "tz1LmaFsWRkjr7QMCx5PtV6xTUz3AmEpKQiF",
        "reception_time": "2022-01-16T07:14:27.089-00:00",
        "included_in_blocks":
          [ "BLRSCPx6BgD9WARjnG8zP8q4f1Eudn2N152hgTeW2UnfKREiuKr" ] },
      { "delegate": "tz3bTdwZinP8U1JmSweNzVKhmwafqWmFWRfk",
        "reception_time": "2022-01-16T07:14:27.026-00:00",
        "included_in_blocks":
          [ "BLRSCPx6BgD9WARjnG8zP8q4f1Eudn2N152hgTeW2UnfKREiuKr" ] },
      { "delegate": "tz1d6Fx42mYgVFnHUW8T8A7WBfJ6nD9pVok8",
        "reception_time": "2022-01-16T07:14:27.119-00:00",
        "included_in_blocks":
          [ "BLRSCPx6BgD9WARjnG8zP8q4f1Eudn2N152hgTeW2UnfKREiuKr" ] },
      { "delegate": "tz3RDC3Jdn4j15J7bBHZd29EUee9gVB1CxD9",
        "reception_time": "2022-01-16T07:14:26.998-00:00",
        "included_in_blocks":
          [ "BLRSCPx6BgD9WARjnG8zP8q4f1Eudn2N152hgTeW2UnfKREiuKr" ] },
      { "delegate": "tz1PWCDnz783NNGGQjEFFsHtrcK5yBW4E2rm",
        "reception_time": "2022-01-16T07:14:26.884-00:00",
        "included_in_blocks":
          [ "BLRSCPx6BgD9WARjnG8zP8q4f1Eudn2N152hgTeW2UnfKREiuKr" ] },
      { "delegate": "tz1ei4WtWEMEJekSv8qDnu9PExG6Q8HgRGr3",
        "reception_time": "2022-01-16T07:14:26.828-00:00",
        "included_in_blocks":
          [ "BLRSCPx6BgD9WARjnG8zP8q4f1Eudn2N152hgTeW2UnfKREiuKr" ] },
      { "delegate": "tz1abmz7jiCV2GH2u81LRrGgAFFgvQgiDiaf",
        "reception_time": "2022-01-16T07:14:26.878-00:00",
        "included_in_blocks":
          [ "BLRSCPx6BgD9WARjnG8zP8q4f1Eudn2N152hgTeW2UnfKREiuKr" ] },
      { "delegate": "tz1Ldzz6k1BHdhuKvAtMRX7h5kJSMHESMHLC",
        "reception_time": "2022-01-16T07:14:26.705-00:00",
        "included_in_blocks":
          [ "BLRSCPx6BgD9WARjnG8zP8q4f1Eudn2N152hgTeW2UnfKREiuKr" ] },
      { "delegate": "tz1aDiEJf9ztRrAJEXZfcG3CKimoKsGhwVAi",
        "reception_time": "2022-01-16T07:14:26.642-00:00",
        "included_in_blocks":
          [ "BLRSCPx6BgD9WARjnG8zP8q4f1Eudn2N152hgTeW2UnfKREiuKr" ] },
      { "delegate": "tz1fPKAtsYydh4f1wfWNfeNxWYu72TmM48fu",
        "reception_time": "2022-01-16T07:14:26.816-00:00",
        "included_in_blocks":
          [ "BLRSCPx6BgD9WARjnG8zP8q4f1Eudn2N152hgTeW2UnfKREiuKr" ] },
      { "delegate": "tz3RKYFsLuQzKBtmYuLNas7uMu3AsYd4QdsA",
        "reception_time": "2022-01-16T07:14:26.781-00:00",
        "included_in_blocks":
          [ "BLRSCPx6BgD9WARjnG8zP8q4f1Eudn2N152hgTeW2UnfKREiuKr" ] },
      { "delegate": "tz3iJu5vrKZcsqRPs8yJ61UDoeEXZmtro4qh",
        "reception_time": "2022-01-16T07:14:26.608-00:00",
        "included_in_blocks":
          [ "BLRSCPx6BgD9WARjnG8zP8q4f1Eudn2N152hgTeW2UnfKREiuKr" ] },
      { "delegate": "tz3hw2kqXhLUvY65ca1eety2oQTpAvd34R9Q",
        "reception_time": "2022-01-16T07:14:26.773-00:00",
        "included_in_blocks":
          [ "BLRSCPx6BgD9WARjnG8zP8q4f1Eudn2N152hgTeW2UnfKREiuKr" ] },
      { "delegate": "tz1TzaNn7wSQSP5gYPXCnNzBCpyMiidCq1PX",
        "reception_time": "2022-01-16T07:14:26.683-00:00",
        "included_in_blocks":
          [ "BLRSCPx6BgD9WARjnG8zP8q4f1Eudn2N152hgTeW2UnfKREiuKr" ] },
      { "delegate": "tz1S8MNvuFEUsWgjHvi3AxibRBf388NhT1q2",
        "reception_time": "2022-01-16T07:14:26.819-00:00",
        "included_in_blocks":
          [ "BLRSCPx6BgD9WARjnG8zP8q4f1Eudn2N152hgTeW2UnfKREiuKr" ] },
      { "delegate": "tz3S6BBeKgJGXxvLyZ1xzXzMPn11nnFtq5L9",
        "reception_time": "2022-01-16T07:14:26.618-00:00",
        "included_in_blocks":
          [ "BLRSCPx6BgD9WARjnG8zP8q4f1Eudn2N152hgTeW2UnfKREiuKr" ] },
      { "delegate": "tz1VmiY38m3y95HqQLjMwqnMS7sdMfGomzKi",
        "reception_time": "2022-01-16T07:14:26.798-00:00",
        "included_in_blocks":
          [ "BLRSCPx6BgD9WARjnG8zP8q4f1Eudn2N152hgTeW2UnfKREiuKr" ] },
      { "delegate": "tz3QT9dHYKDqh563chVa6za8526ys1UKfRfL",
        "reception_time": "2022-01-16T07:14:26.592-00:00",
        "included_in_blocks":
          [ "BLRSCPx6BgD9WARjnG8zP8q4f1Eudn2N152hgTeW2UnfKREiuKr" ] },
      { "delegate": "tz3Zhs2dygr55yHyQyKjntAtY9bgfhLZ4Xj1",
        "reception_time": "2022-01-16T07:14:26.583-00:00",
        "included_in_blocks":
          [ "BLRSCPx6BgD9WARjnG8zP8q4f1Eudn2N152hgTeW2UnfKREiuKr" ] },
      { "delegate": "tz1TwVimQy3BywXoSszdFXjT9bSTQrsZYo2u",
        "reception_time": "2022-01-16T07:14:26.563-00:00",
        "included_in_blocks":
          [ "BLRSCPx6BgD9WARjnG8zP8q4f1Eudn2N152hgTeW2UnfKREiuKr" ] },
      { "delegate": "tz3gtoUxdudfBRcNY7iVdKPHCYYX6xdPpoRS",
        "reception_time": "2022-01-16T07:14:26.449-00:00",
        "included_in_blocks":
          [ "BLRSCPx6BgD9WARjnG8zP8q4f1Eudn2N152hgTeW2UnfKREiuKr" ] },
      { "delegate": "tz1fUyqYH7H4pRHN1roWY17giXhy1RvxjgUV",
        "reception_time": "2022-01-16T07:14:26.431-00:00",
        "included_in_blocks":
          [ "BLRSCPx6BgD9WARjnG8zP8q4f1Eudn2N152hgTeW2UnfKREiuKr" ] },
      { "delegate": "tz1aXD7Jigrt3PBYSpHSg5Rr33SexMmmM5Ys",
        "reception_time": "2022-01-16T07:14:26.570-00:00",
        "included_in_blocks":
          [ "BLRSCPx6BgD9WARjnG8zP8q4f1Eudn2N152hgTeW2UnfKREiuKr" ] },
      { "delegate": "tz1VQnqCCqX4K5sP3FNkVSNKTdCAMJDd3E1n",
        "reception_time": "2022-01-16T07:14:26.320-00:00",
        "included_in_blocks":
          [ "BLRSCPx6BgD9WARjnG8zP8q4f1Eudn2N152hgTeW2UnfKREiuKr" ] },
      { "delegate": "tz1gUNyn3hmnEWqkusWPzxRaon1cs7ndWh7h",
        "reception_time": "2022-01-16T07:14:26.319-00:00",
        "included_in_blocks":
          [ "BLRSCPx6BgD9WARjnG8zP8q4f1Eudn2N152hgTeW2UnfKREiuKr" ] },
      { "delegate": "tz1Kf25fX1VdmYGSEzwFy1wNmkbSEZ2V83sY",
        "reception_time": "2022-01-16T07:14:26.313-00:00",
        "included_in_blocks":
          [ "BLRSCPx6BgD9WARjnG8zP8q4f1Eudn2N152hgTeW2UnfKREiuKr" ] },
      { "delegate": "tz3QSGPoRp3Kn7n3vY24eYeu3Peuqo45LQ4D",
        "reception_time": "2022-01-16T07:14:26.416-00:00",
        "included_in_blocks":
          [ "BLRSCPx6BgD9WARjnG8zP8q4f1Eudn2N152hgTeW2UnfKREiuKr" ] },
      { "delegate": "tz3NxTnke1acr8o3h5y9ytf5awQBGNJUKzVU",
        "reception_time": "2022-01-16T07:14:26.342-00:00",
        "included_in_blocks":
          [ "BLRSCPx6BgD9WARjnG8zP8q4f1Eudn2N152hgTeW2UnfKREiuKr" ] },
      { "delegate": "tz1eEnQhbwf6trb8Q8mPb2RaPkNk2rN7BKi8",
        "reception_time": "2022-01-16T07:14:26.312-00:00",
        "included_in_blocks":
          [ "BLRSCPx6BgD9WARjnG8zP8q4f1Eudn2N152hgTeW2UnfKREiuKr" ] },
      { "delegate": "tz1ZPh7XfUaJXUDvkrBxmS1BjEM1i62hiPpM",
        "reception_time": "2022-01-16T07:14:26.312-00:00",
        "included_in_blocks":
          [ "BLRSCPx6BgD9WARjnG8zP8q4f1Eudn2N152hgTeW2UnfKREiuKr" ] },
      { "delegate": "tz1beersuEDv8Z7ngQ825xfbaJNS2EhXnyHR",
        "reception_time": "2022-01-16T07:14:26.312-00:00",
        "included_in_blocks":
          [ "BLRSCPx6BgD9WARjnG8zP8q4f1Eudn2N152hgTeW2UnfKREiuKr" ] },
      { "delegate": "tz1Kt4P8BCaP93AEV4eA7gmpRryWt5hznjCP",
        "reception_time": "2022-01-16T07:14:25.849-00:00",
        "included_in_blocks":
          [ "BLRSCPx6BgD9WARjnG8zP8q4f1Eudn2N152hgTeW2UnfKREiuKr" ] },
      { "delegate": "tz1irJKkXS2DBWkU1NnmFQx1c1L7pbGg4yhk",
        "reception_time": "2022-01-16T07:14:26.312-00:00",
        "included_in_blocks":
          [ "BLRSCPx6BgD9WARjnG8zP8q4f1Eudn2N152hgTeW2UnfKREiuKr" ] },
      { "delegate": "tz1Scdr2HsZiQjc7bHMeBbmDRXYVvdhjJbBh",
        "reception_time": "2022-01-16T07:14:25.849-00:00",
        "included_in_blocks":
          [ "BLRSCPx6BgD9WARjnG8zP8q4f1Eudn2N152hgTeW2UnfKREiuKr" ] },
      { "delegate": "tz1RCFbB9GpALpsZtu6J58sb74dm8qe6XBzv",
        "reception_time": "2022-01-16T07:14:25.849-00:00",
        "included_in_blocks":
          [ "BLRSCPx6BgD9WARjnG8zP8q4f1Eudn2N152hgTeW2UnfKREiuKr" ] },
      { "delegate": "tz1P2Po7YM526ughEsRbY4oR9zaUPDZjxFrb",
        "reception_time": "2022-01-16T07:14:25.849-00:00",
        "included_in_blocks":
          [ "BLRSCPx6BgD9WARjnG8zP8q4f1Eudn2N152hgTeW2UnfKREiuKr" ] } ] }