{ "blocks":
    [ { "hash": "BLGYEsrk2Ac91HN5fXYhZzMpTgQ9S3K3jwNujP8s5AQJj2NrmpZ",
        "delegate": "tz1irJKkXS2DBWkU1NnmFQx1c1L7pbGg4yhk",
        "reception_time": "2022-01-16T06:05:27.720-00:00",
        "timestamp": "2022-01-16T06:05:20Z" } ],
  "endorsements":
    [ { "delegate": "tz1TRspM5SeZpaQUhzByXbEvqKF1vnCM2YTK" },
      { "delegate": "tz1M8C2V7mVatuz6HgZCPd4bEWM2So7DBGu2" },
      { "delegate": "tz1eEnQhbwf6trb8Q8mPb2RaPkNk2rN7BKi8",
        "reception_time": "2022-01-16T06:05:27.598-00:00",
        "errors":
          [ { "kind": "temporary",
              "id": "proto.011-PtHangz2.prefilter.outdated_endorsement" } ],
        "included_in_blocks":
          [ "BKwLPqWTETqbrZWf9JmQddo2oaNZdasQmJF4d3gzjHLq9FaJa4F" ] },
      { "delegate": "tz1irJKkXS2DBWkU1NnmFQx1c1L7pbGg4yhk",
        "reception_time": "2022-01-16T06:05:27.517-00:00",
        "errors":
          [ { "kind": "temporary",
              "id": "proto.011-PtHangz2.prefilter.outdated_endorsement" } ],
        "included_in_blocks":
          [ "BKwLPqWTETqbrZWf9JmQddo2oaNZdasQmJF4d3gzjHLq9FaJa4F" ] },
      { "delegate": "tz1MXFrtZoaXckE41bjUCSjAjAap3AFDSr3N",
        "reception_time": "2022-01-16T06:05:27.368-00:00",
        "errors":
          [ { "kind": "temporary",
              "id": "proto.011-PtHangz2.prefilter.outdated_endorsement" } ],
        "included_in_blocks":
          [ "BKwLPqWTETqbrZWf9JmQddo2oaNZdasQmJF4d3gzjHLq9FaJa4F" ] },
      { "delegate": "tz1P2Po7YM526ughEsRbY4oR9zaUPDZjxFrb",
        "reception_time": "2022-01-16T06:05:27.092-00:00",
        "errors":
          [ { "kind": "temporary",
              "id": "proto.011-PtHangz2.prefilter.outdated_endorsement" } ],
        "included_in_blocks":
          [ "BKwLPqWTETqbrZWf9JmQddo2oaNZdasQmJF4d3gzjHLq9FaJa4F" ] },
      { "delegate": "tz1S8e9GgdZG78XJRB3NqabfWeM37GnhZMWQ",
        "reception_time": "2022-01-16T06:05:26.986-00:00",
        "errors":
          [ { "kind": "temporary",
              "id": "proto.011-PtHangz2.prefilter.outdated_endorsement" } ],
        "included_in_blocks":
          [ "BKwLPqWTETqbrZWf9JmQddo2oaNZdasQmJF4d3gzjHLq9FaJa4F" ] },
      { "delegate": "tz3e7LbZvUtoXhpUD1yb6wuFodZpfYRb9nWJ",
        "reception_time": "2022-01-16T06:05:35.926-00:00",
        "included_in_blocks":
          [ "BKwLPqWTETqbrZWf9JmQddo2oaNZdasQmJF4d3gzjHLq9FaJa4F" ] },
      { "delegate": "tz1WnyXakHZKotpQHxevTnLmomz5rTwdiccy",
        "reception_time": "2022-01-16T06:05:34.901-00:00",
        "included_in_blocks":
          [ "BKwLPqWTETqbrZWf9JmQddo2oaNZdasQmJF4d3gzjHLq9FaJa4F" ] },
      { "delegate": "tz1NpWrAyDL9k2Lmnyxcgr9xuJakbBxdq7FB",
        "reception_time": "2022-01-16T06:05:34.799-00:00",
        "included_in_blocks":
          [ "BKwLPqWTETqbrZWf9JmQddo2oaNZdasQmJF4d3gzjHLq9FaJa4F" ] },
      { "delegate": "tz1dfg9PkvRLf7hKMmGdGRhXWCbd8QgbwBF7",
        "reception_time": "2022-01-16T06:05:33.142-00:00",
        "included_in_blocks":
          [ "BKwLPqWTETqbrZWf9JmQddo2oaNZdasQmJF4d3gzjHLq9FaJa4F" ] },
      { "delegate": "tz1gg5bjopPcr9agjamyu9BbXKLibNc2rbAq",
        "reception_time": "2022-01-16T06:05:33.270-00:00",
        "included_in_blocks":
          [ "BKwLPqWTETqbrZWf9JmQddo2oaNZdasQmJF4d3gzjHLq9FaJa4F" ] },
      { "delegate": "tz3hw2kqXhLUvY65ca1eety2oQTpAvd34R9Q",
        "reception_time": "2022-01-16T06:05:31.741-00:00",
        "included_in_blocks":
          [ "BKwLPqWTETqbrZWf9JmQddo2oaNZdasQmJF4d3gzjHLq9FaJa4F" ] },
      { "delegate": "tz3RKYFsLuQzKBtmYuLNas7uMu3AsYd4QdsA",
        "reception_time": "2022-01-16T06:05:31.621-00:00",
        "included_in_blocks":
          [ "BKwLPqWTETqbrZWf9JmQddo2oaNZdasQmJF4d3gzjHLq9FaJa4F" ] },
      { "delegate": "tz1cM8Xc7ZP1TrjkTeKq4PeRhtbnwXSBR6Sw",
        "reception_time": "2022-01-16T06:05:31.681-00:00",
        "included_in_blocks":
          [ "BKwLPqWTETqbrZWf9JmQddo2oaNZdasQmJF4d3gzjHLq9FaJa4F" ] },
      { "delegate": "tz2FCNBrERXtaTtNX6iimR1UJ5JSDxvdHM93",
        "reception_time": "2022-01-16T06:05:31.532-00:00",
        "included_in_blocks":
          [ "BKwLPqWTETqbrZWf9JmQddo2oaNZdasQmJF4d3gzjHLq9FaJa4F" ] },
      { "delegate": "tz1ZcTRk5uxD86EFEn1vvNffWWqJy7q5eVhc",
        "reception_time": "2022-01-16T06:05:31.481-00:00",
        "included_in_blocks":
          [ "BKwLPqWTETqbrZWf9JmQddo2oaNZdasQmJF4d3gzjHLq9FaJa4F" ] },
      { "delegate": "tz1awXW7wuXy21c66vBudMXQVAPgRnqqwgTH",
        "reception_time": "2022-01-16T06:05:31.354-00:00",
        "included_in_blocks":
          [ "BKwLPqWTETqbrZWf9JmQddo2oaNZdasQmJF4d3gzjHLq9FaJa4F" ] },
      { "delegate": "tz3NExpXn9aPNZPorRE4SdjJ2RGrfbJgMAaV",
        "reception_time": "2022-01-16T06:05:31.499-00:00",
        "included_in_blocks":
          [ "BKwLPqWTETqbrZWf9JmQddo2oaNZdasQmJF4d3gzjHLq9FaJa4F" ] },
      { "delegate": "tz1dNVDWPf3Q59SdJqnjdnu277iyvReiRS9M",
        "reception_time": "2022-01-16T06:05:31.156-00:00",
        "included_in_blocks":
          [ "BKwLPqWTETqbrZWf9JmQddo2oaNZdasQmJF4d3gzjHLq9FaJa4F" ] },
      { "delegate": "tz3UoffC7FG7zfpmvmjUmUeAaHvzdcUvAj6r",
        "reception_time": "2022-01-16T06:05:31.350-00:00",
        "included_in_blocks":
          [ "BKwLPqWTETqbrZWf9JmQddo2oaNZdasQmJF4d3gzjHLq9FaJa4F" ] },
      { "delegate": "tz1RjoHc98dBoqaH2jawF62XNKh7YsHwbkEv",
        "reception_time": "2022-01-16T06:05:31.106-00:00",
        "included_in_blocks":
          [ "BKwLPqWTETqbrZWf9JmQddo2oaNZdasQmJF4d3gzjHLq9FaJa4F" ] },
      { "delegate": "tz3ZbP2pM3nwvXztbuMJwJnDvV5xdpU8UkkD",
        "reception_time": "2022-01-16T06:05:31.131-00:00",
        "included_in_blocks":
          [ "BKwLPqWTETqbrZWf9JmQddo2oaNZdasQmJF4d3gzjHLq9FaJa4F" ] },
      { "delegate": "tz3NxTnke1acr8o3h5y9ytf5awQBGNJUKzVU",
        "reception_time": "2022-01-16T06:05:31.093-00:00",
        "included_in_blocks":
          [ "BKwLPqWTETqbrZWf9JmQddo2oaNZdasQmJF4d3gzjHLq9FaJa4F" ] },
      { "delegate": "tz3cF8X5V6DGBdZCC1hoqLzjtq95BcDvDKqe",
        "reception_time": "2022-01-16T06:05:30.703-00:00",
        "included_in_blocks":
          [ "BKwLPqWTETqbrZWf9JmQddo2oaNZdasQmJF4d3gzjHLq9FaJa4F" ] },
      { "delegate": "tz3bvNMQ95vfAYtG8193ymshqjSvmxiCUuR5",
        "reception_time": "2022-01-16T06:05:30.638-00:00",
        "included_in_blocks":
          [ "BKwLPqWTETqbrZWf9JmQddo2oaNZdasQmJF4d3gzjHLq9FaJa4F" ] },
      { "delegate": "tz1NEKxGEHsFufk87CVZcrqWu8o22qh46GK6",
        "reception_time": "2022-01-16T06:05:30.432-00:00",
        "included_in_blocks":
          [ "BKwLPqWTETqbrZWf9JmQddo2oaNZdasQmJF4d3gzjHLq9FaJa4F" ] },
      { "delegate": "tz3WMqdzXqRWXwyvj5Hp2H7QEepaUuS7vd9K",
        "reception_time": "2022-01-16T06:05:30.240-00:00",
        "included_in_blocks":
          [ "BKwLPqWTETqbrZWf9JmQddo2oaNZdasQmJF4d3gzjHLq9FaJa4F" ] },
      { "delegate": "tz1UNkf4sWzC5vsKP7FnejSeJsXdc6z8Kzk4",
        "reception_time": "2022-01-16T06:05:30.290-00:00",
        "included_in_blocks":
          [ "BKwLPqWTETqbrZWf9JmQddo2oaNZdasQmJF4d3gzjHLq9FaJa4F" ] },
      { "delegate": "tz1V3yg82mcrPJbegqVCPn6bC8w1CSTRp3f8",
        "reception_time": "2022-01-16T06:05:30.162-00:00",
        "included_in_blocks":
          [ "BKwLPqWTETqbrZWf9JmQddo2oaNZdasQmJF4d3gzjHLq9FaJa4F" ] },
      { "delegate": "tz1KfEsrtDaA1sX7vdM4qmEPWuSytuqCDp5j",
        "reception_time": "2022-01-16T06:05:30.221-00:00",
        "included_in_blocks":
          [ "BKwLPqWTETqbrZWf9JmQddo2oaNZdasQmJF4d3gzjHLq9FaJa4F" ] },
      { "delegate": "tz1aRoaRhSpRYvFdyvgWLL6TGyRoGF51wDjM",
        "reception_time": "2022-01-16T06:05:30.265-00:00",
        "included_in_blocks":
          [ "BKwLPqWTETqbrZWf9JmQddo2oaNZdasQmJF4d3gzjHLq9FaJa4F" ] },
      { "delegate": "tz3RDC3Jdn4j15J7bBHZd29EUee9gVB1CxD9",
        "reception_time": "2022-01-16T06:05:30.152-00:00",
        "included_in_blocks":
          [ "BKwLPqWTETqbrZWf9JmQddo2oaNZdasQmJF4d3gzjHLq9FaJa4F" ] },
      { "delegate": "tz3VEZ4k6a4Wx42iyev6i2aVAptTRLEAivNN",
        "reception_time": "2022-01-16T06:05:30.025-00:00",
        "included_in_blocks":
          [ "BKwLPqWTETqbrZWf9JmQddo2oaNZdasQmJF4d3gzjHLq9FaJa4F" ] },
      { "delegate": "tz1WctSwL49BZtdWAQ75NY6vr4xsAx6oKdah",
        "reception_time": "2022-01-16T06:05:30.240-00:00",
        "included_in_blocks":
          [ "BKwLPqWTETqbrZWf9JmQddo2oaNZdasQmJF4d3gzjHLq9FaJa4F" ] },
      { "delegate": "tz1SohptP53wDPZhzTWzDUFAUcWF6DMBpaJV",
        "reception_time": "2022-01-16T06:05:29.977-00:00",
        "included_in_blocks":
          [ "BKwLPqWTETqbrZWf9JmQddo2oaNZdasQmJF4d3gzjHLq9FaJa4F" ] },
      { "delegate": "tz1axcnVN9tZnCe4sQQhC6f3tfSEXdjPaXPY",
        "reception_time": "2022-01-16T06:05:30.071-00:00",
        "included_in_blocks":
          [ "BKwLPqWTETqbrZWf9JmQddo2oaNZdasQmJF4d3gzjHLq9FaJa4F" ] },
      { "delegate": "tz1eVaNx3gCmG1EsLjijkmgAxdLYVf6Bf5Sq",
        "reception_time": "2022-01-16T06:05:29.949-00:00",
        "included_in_blocks":
          [ "BKwLPqWTETqbrZWf9JmQddo2oaNZdasQmJF4d3gzjHLq9FaJa4F" ] },
      { "delegate": "tz1TRqbYbUf2GyrjErf3hBzgBJPzW8y36qEs",
        "reception_time": "2022-01-16T06:05:29.977-00:00",
        "included_in_blocks":
          [ "BKwLPqWTETqbrZWf9JmQddo2oaNZdasQmJF4d3gzjHLq9FaJa4F" ] },
      { "delegate": "tz1PeZx7FXy7QRuMREGXGxeipb24RsMMzUNe",
        "reception_time": "2022-01-16T06:05:30.034-00:00",
        "included_in_blocks":
          [ "BKwLPqWTETqbrZWf9JmQddo2oaNZdasQmJF4d3gzjHLq9FaJa4F" ] },
      { "delegate": "tz1SYq214SCBy9naR6cvycQsYcUGpBqQAE8d",
        "reception_time": "2022-01-16T06:05:29.819-00:00",
        "included_in_blocks":
          [ "BKwLPqWTETqbrZWf9JmQddo2oaNZdasQmJF4d3gzjHLq9FaJa4F" ] },
      { "delegate": "tz3adcvQaKXTCg12zbninqo3q8ptKKtDFTLv",
        "reception_time": "2022-01-16T06:05:29.712-00:00",
        "included_in_blocks":
          [ "BKwLPqWTETqbrZWf9JmQddo2oaNZdasQmJF4d3gzjHLq9FaJa4F" ] },
      { "delegate": "tz1abmz7jiCV2GH2u81LRrGgAFFgvQgiDiaf",
        "reception_time": "2022-01-16T06:05:29.500-00:00",
        "included_in_blocks":
          [ "BKwLPqWTETqbrZWf9JmQddo2oaNZdasQmJF4d3gzjHLq9FaJa4F" ] },
      { "delegate": "tz1Tnjaxk6tbAeC2TmMApPh8UsrEVQvhHvx5",
        "reception_time": "2022-01-16T06:05:29.677-00:00",
        "included_in_blocks":
          [ "BKwLPqWTETqbrZWf9JmQddo2oaNZdasQmJF4d3gzjHLq9FaJa4F" ] },
      { "delegate": "tz1TEc75UKXv4W5cwi14Na3NtqFD51yKQi7h",
        "reception_time": "2022-01-16T06:05:29.673-00:00",
        "included_in_blocks":
          [ "BKwLPqWTETqbrZWf9JmQddo2oaNZdasQmJF4d3gzjHLq9FaJa4F" ] },
      { "delegate": "tz1UMCB2AHSTwG7YcGNr31CqYCtGN873royv",
        "reception_time": "2022-01-16T06:05:29.629-00:00",
        "included_in_blocks":
          [ "BKwLPqWTETqbrZWf9JmQddo2oaNZdasQmJF4d3gzjHLq9FaJa4F" ] },
      { "delegate": "tz1ei4WtWEMEJekSv8qDnu9PExG6Q8HgRGr3",
        "reception_time": "2022-01-16T06:05:29.297-00:00",
        "included_in_blocks":
          [ "BKwLPqWTETqbrZWf9JmQddo2oaNZdasQmJF4d3gzjHLq9FaJa4F" ] },
      { "delegate": "tz1NortRftucvAkD1J58L32EhSVrQEWJCEnB",
        "reception_time": "2022-01-16T06:05:29.290-00:00",
        "included_in_blocks":
          [ "BKwLPqWTETqbrZWf9JmQddo2oaNZdasQmJF4d3gzjHLq9FaJa4F" ] },
      { "delegate": "tz1LmaFsWRkjr7QMCx5PtV6xTUz3AmEpKQiF",
        "reception_time": "2022-01-16T06:05:29.294-00:00",
        "included_in_blocks":
          [ "BKwLPqWTETqbrZWf9JmQddo2oaNZdasQmJF4d3gzjHLq9FaJa4F" ] },
      { "delegate": "tz3QCNyySViKHmeSr45kzDxzchys7NiXCWoa",
        "reception_time": "2022-01-16T06:05:29.176-00:00",
        "included_in_blocks":
          [ "BKwLPqWTETqbrZWf9JmQddo2oaNZdasQmJF4d3gzjHLq9FaJa4F" ] },
      { "delegate": "tz1g8vkmcde6sWKaG2NN9WKzCkDM6Rziq194",
        "reception_time": "2022-01-16T06:05:29.150-00:00",
        "included_in_blocks":
          [ "BKwLPqWTETqbrZWf9JmQddo2oaNZdasQmJF4d3gzjHLq9FaJa4F" ] },
      { "delegate": "tz1gfArv665EUkSg2ojMBzcbfwuPxAvqPvjo",
        "reception_time": "2022-01-16T06:05:29.262-00:00",
        "included_in_blocks":
          [ "BKwLPqWTETqbrZWf9JmQddo2oaNZdasQmJF4d3gzjHLq9FaJa4F" ] },
      { "delegate": "tz1V4qCyvPKZ5UeqdH14HN42rxvNPQfc9UZg",
        "reception_time": "2022-01-16T06:05:29.118-00:00",
        "included_in_blocks":
          [ "BKwLPqWTETqbrZWf9JmQddo2oaNZdasQmJF4d3gzjHLq9FaJa4F" ] },
      { "delegate": "tz1PWCDnz783NNGGQjEFFsHtrcK5yBW4E2rm",
        "reception_time": "2022-01-16T06:05:28.950-00:00",
        "included_in_blocks":
          [ "BKwLPqWTETqbrZWf9JmQddo2oaNZdasQmJF4d3gzjHLq9FaJa4F" ] },
      { "delegate": "tz1d6Fx42mYgVFnHUW8T8A7WBfJ6nD9pVok8",
        "reception_time": "2022-01-16T06:05:28.986-00:00",
        "included_in_blocks":
          [ "BKwLPqWTETqbrZWf9JmQddo2oaNZdasQmJF4d3gzjHLq9FaJa4F" ] },
      { "delegate": "tz1MQMiZHV8q4tTwUMWmS5Y3kaP6J2136iXr",
        "reception_time": "2022-01-16T06:05:28.993-00:00",
        "included_in_blocks":
          [ "BKwLPqWTETqbrZWf9JmQddo2oaNZdasQmJF4d3gzjHLq9FaJa4F" ] },
      { "delegate": "tz1Nf6tsK4G6bBqgSQERy4nUtkHNKUVdh7q1",
        "reception_time": "2022-01-16T06:05:30.007-00:00",
        "included_in_blocks":
          [ "BKwLPqWTETqbrZWf9JmQddo2oaNZdasQmJF4d3gzjHLq9FaJa4F" ] },
      { "delegate": "tz1S8MNvuFEUsWgjHvi3AxibRBf388NhT1q2",
        "reception_time": "2022-01-16T06:05:28.642-00:00",
        "included_in_blocks":
          [ "BKwLPqWTETqbrZWf9JmQddo2oaNZdasQmJF4d3gzjHLq9FaJa4F" ] },
      { "delegate": "tz1WCd2jm4uSt4vntk4vSuUWoZQGhLcDuR9q",
        "reception_time": "2022-01-16T06:05:28.490-00:00",
        "included_in_blocks":
          [ "BKwLPqWTETqbrZWf9JmQddo2oaNZdasQmJF4d3gzjHLq9FaJa4F" ] },
      { "delegate": "tz1iPHM2Xx2hwmzcr1EG1zzrV6oKafVoA91m",
        "reception_time": "2022-01-16T06:05:28.731-00:00",
        "included_in_blocks":
          [ "BKwLPqWTETqbrZWf9JmQddo2oaNZdasQmJF4d3gzjHLq9FaJa4F" ] },
      { "delegate": "tz1h4GUAMweP7SNWzDgvMk3yRCAZyaP1MxZq",
        "reception_time": "2022-01-16T06:05:28.718-00:00",
        "included_in_blocks":
          [ "BKwLPqWTETqbrZWf9JmQddo2oaNZdasQmJF4d3gzjHLq9FaJa4F" ] },
      { "delegate": "tz1RCFbB9GpALpsZtu6J58sb74dm8qe6XBzv",
        "reception_time": "2022-01-16T06:05:28.788-00:00",
        "included_in_blocks":
          [ "BKwLPqWTETqbrZWf9JmQddo2oaNZdasQmJF4d3gzjHLq9FaJa4F" ] },
      { "delegate": "tz3QSGPoRp3Kn7n3vY24eYeu3Peuqo45LQ4D",
        "reception_time": "2022-01-16T06:05:28.439-00:00",
        "included_in_blocks":
          [ "BKwLPqWTETqbrZWf9JmQddo2oaNZdasQmJF4d3gzjHLq9FaJa4F" ] },
      { "delegate": "tz3Zhs2dygr55yHyQyKjntAtY9bgfhLZ4Xj1",
        "reception_time": "2022-01-16T06:05:28.511-00:00",
        "included_in_blocks":
          [ "BKwLPqWTETqbrZWf9JmQddo2oaNZdasQmJF4d3gzjHLq9FaJa4F" ] },
      { "delegate": "tz3RB4aoyjov4KEVRbuhvQ1CKJgBJMWhaeB8",
        "reception_time": "2022-01-16T06:05:28.870-00:00",
        "included_in_blocks":
          [ "BKwLPqWTETqbrZWf9JmQddo2oaNZdasQmJF4d3gzjHLq9FaJa4F" ] },
      { "delegate": "tz1VmiY38m3y95HqQLjMwqnMS7sdMfGomzKi",
        "reception_time": "2022-01-16T06:05:28.586-00:00",
        "included_in_blocks":
          [ "BKwLPqWTETqbrZWf9JmQddo2oaNZdasQmJF4d3gzjHLq9FaJa4F" ] },
      { "delegate": "tz3bTdwZinP8U1JmSweNzVKhmwafqWmFWRfk",
        "reception_time": "2022-01-16T06:05:28.897-00:00",
        "included_in_blocks":
          [ "BKwLPqWTETqbrZWf9JmQddo2oaNZdasQmJF4d3gzjHLq9FaJa4F" ] },
      { "delegate": "tz3iJu5vrKZcsqRPs8yJ61UDoeEXZmtro4qh",
        "reception_time": "2022-01-16T06:05:28.526-00:00",
        "included_in_blocks":
          [ "BKwLPqWTETqbrZWf9JmQddo2oaNZdasQmJF4d3gzjHLq9FaJa4F" ] },
      { "delegate": "tz3QT9dHYKDqh563chVa6za8526ys1UKfRfL",
        "reception_time": "2022-01-16T06:05:28.518-00:00",
        "included_in_blocks":
          [ "BKwLPqWTETqbrZWf9JmQddo2oaNZdasQmJF4d3gzjHLq9FaJa4F" ] },
      { "delegate": "tz1fUyqYH7H4pRHN1roWY17giXhy1RvxjgUV",
        "reception_time": "2022-01-16T06:05:28.475-00:00",
        "included_in_blocks":
          [ "BKwLPqWTETqbrZWf9JmQddo2oaNZdasQmJF4d3gzjHLq9FaJa4F" ] },
      { "delegate": "tz1gUNyn3hmnEWqkusWPzxRaon1cs7ndWh7h",
        "reception_time": "2022-01-16T06:05:28.443-00:00",
        "included_in_blocks":
          [ "BKwLPqWTETqbrZWf9JmQddo2oaNZdasQmJF4d3gzjHLq9FaJa4F" ] },
      { "delegate": "tz3S6BBeKgJGXxvLyZ1xzXzMPn11nnFtq5L9",
        "reception_time": "2022-01-16T06:05:28.487-00:00",
        "included_in_blocks":
          [ "BKwLPqWTETqbrZWf9JmQddo2oaNZdasQmJF4d3gzjHLq9FaJa4F" ] },
      { "delegate": "tz1VQnqCCqX4K5sP3FNkVSNKTdCAMJDd3E1n",
        "reception_time": "2022-01-16T06:05:28.471-00:00",
        "included_in_blocks":
          [ "BKwLPqWTETqbrZWf9JmQddo2oaNZdasQmJF4d3gzjHLq9FaJa4F" ] },
      { "delegate": "tz1Ldzz6k1BHdhuKvAtMRX7h5kJSMHESMHLC",
        "reception_time": "2022-01-16T06:05:28.475-00:00",
        "included_in_blocks":
          [ "BKwLPqWTETqbrZWf9JmQddo2oaNZdasQmJF4d3gzjHLq9FaJa4F" ] },
      { "delegate": "tz3gtoUxdudfBRcNY7iVdKPHCYYX6xdPpoRS",
        "reception_time": "2022-01-16T06:05:28.469-00:00",
        "included_in_blocks":
          [ "BKwLPqWTETqbrZWf9JmQddo2oaNZdasQmJF4d3gzjHLq9FaJa4F" ] },
      { "delegate": "tz1XfAjZyaLdceHnZxbMYop7g7kWKPut4PR7",
        "reception_time": "2022-01-16T06:05:28.443-00:00",
        "included_in_blocks":
          [ "BKwLPqWTETqbrZWf9JmQddo2oaNZdasQmJF4d3gzjHLq9FaJa4F" ] } ] }