{ "blocks":
    [ { "hash": "BLdw2buyVivy7RvyauV9zTJYS5WvVMFR5rtmt6tQsJJNePJ9ct6",
        "delegate": "tz2FCNBrERXtaTtNX6iimR1UJ5JSDxvdHM93",
        "reception_time": "2022-01-16T10:43:35.411-00:00",
        "timestamp": "2022-01-16T10:43:30Z" } ],
  "endorsements":
    [ { "delegate": "tz1ibcPVGK4Y8pcW4BYUsojiHoBKnZbyDGrX" },
      { "delegate": "tz1dbfppLAAxXZNtf2SDps7rch3qfUznKSoK" },
      { "delegate": "tz1TRspM5SeZpaQUhzByXbEvqKF1vnCM2YTK" },
      { "delegate": "tz1SYq214SCBy9naR6cvycQsYcUGpBqQAE8d" },
      { "delegate": "tz1RjoHc98dBoqaH2jawF62XNKh7YsHwbkEv" },
      { "delegate": "tz1go7f6mEQfT2xX2LuHAqgnRGN6c2zHPf5c",
        "reception_time": "2022-01-16T10:43:42.622-00:00",
        "included_in_blocks":
          [ "BKtXBWfdhXhvcrY7U2A8nTcJPSYLWt6w1N24Lkr4GmhwWvz5nXC" ] },
      { "delegate": "tz1aJS7Pk9uWR3wWyFf1i3RwhYxN84G7stom",
        "reception_time": "2022-01-16T10:43:41.077-00:00",
        "included_in_blocks":
          [ "BKtXBWfdhXhvcrY7U2A8nTcJPSYLWt6w1N24Lkr4GmhwWvz5nXC" ] },
      { "delegate": "tz1S5WxdZR5f9NzsPXhr7L9L1vrEb5spZFur",
        "reception_time": "2022-01-16T10:43:40.980-00:00",
        "included_in_blocks":
          [ "BKtXBWfdhXhvcrY7U2A8nTcJPSYLWt6w1N24Lkr4GmhwWvz5nXC" ] },
      { "delegate": "tz1NpWrAyDL9k2Lmnyxcgr9xuJakbBxdq7FB",
        "reception_time": "2022-01-16T10:43:41.044-00:00",
        "included_in_blocks":
          [ "BKtXBWfdhXhvcrY7U2A8nTcJPSYLWt6w1N24Lkr4GmhwWvz5nXC" ] },
      { "delegate": "tz1T7duV5gZWSTq4YpBGbXNLTfznCLDrFxvs",
        "reception_time": "2022-01-16T10:43:39.059-00:00",
        "included_in_blocks":
          [ "BKtXBWfdhXhvcrY7U2A8nTcJPSYLWt6w1N24Lkr4GmhwWvz5nXC" ] },
      { "delegate": "tz1dRKU4FQ9QRRQPdaH4zCR6gmCmXfcvcgtB",
        "reception_time": "2022-01-16T10:43:39.147-00:00",
        "included_in_blocks":
          [ "BKtXBWfdhXhvcrY7U2A8nTcJPSYLWt6w1N24Lkr4GmhwWvz5nXC" ] },
      { "delegate": "tz1Z2jXfEXL7dXhs6bsLmyLFLfmAkXBzA9WE",
        "reception_time": "2022-01-16T10:43:38.621-00:00",
        "included_in_blocks":
          [ "BKtXBWfdhXhvcrY7U2A8nTcJPSYLWt6w1N24Lkr4GmhwWvz5nXC" ] },
      { "delegate": "tz1NMNQYrYrfNpmUqQrMhJypf6ovnaDZhJHM",
        "reception_time": "2022-01-16T10:43:38.615-00:00",
        "included_in_blocks":
          [ "BKtXBWfdhXhvcrY7U2A8nTcJPSYLWt6w1N24Lkr4GmhwWvz5nXC" ] },
      { "delegate": "tz1dNVDWPf3Q59SdJqnjdnu277iyvReiRS9M",
        "reception_time": "2022-01-16T10:43:39.095-00:00",
        "included_in_blocks":
          [ "BKtXBWfdhXhvcrY7U2A8nTcJPSYLWt6w1N24Lkr4GmhwWvz5nXC" ] },
      { "delegate": "tz1UvkANVPWppVgMkLnvN7BwYZsCP7vm6NVd",
        "reception_time": "2022-01-16T10:43:38.396-00:00",
        "included_in_blocks":
          [ "BKtXBWfdhXhvcrY7U2A8nTcJPSYLWt6w1N24Lkr4GmhwWvz5nXC" ] },
      { "delegate": "tz3UoffC7FG7zfpmvmjUmUeAaHvzdcUvAj6r",
        "reception_time": "2022-01-16T10:43:39.194-00:00",
        "included_in_blocks":
          [ "BKtXBWfdhXhvcrY7U2A8nTcJPSYLWt6w1N24Lkr4GmhwWvz5nXC" ] },
      { "delegate": "tz1aRoaRhSpRYvFdyvgWLL6TGyRoGF51wDjM",
        "reception_time": "2022-01-16T10:43:38.109-00:00",
        "included_in_blocks":
          [ "BKtXBWfdhXhvcrY7U2A8nTcJPSYLWt6w1N24Lkr4GmhwWvz5nXC" ] },
      { "delegate": "tz3NExpXn9aPNZPorRE4SdjJ2RGrfbJgMAaV",
        "reception_time": "2022-01-16T10:43:38.997-00:00",
        "included_in_blocks":
          [ "BKtXBWfdhXhvcrY7U2A8nTcJPSYLWt6w1N24Lkr4GmhwWvz5nXC" ] },
      { "delegate": "tz3NDpRj6WBrJPikcPVHRBEjWKxFw3c6eQPS",
        "reception_time": "2022-01-16T10:43:38.175-00:00",
        "included_in_blocks":
          [ "BKtXBWfdhXhvcrY7U2A8nTcJPSYLWt6w1N24Lkr4GmhwWvz5nXC" ] },
      { "delegate": "tz1fZ767VDbqx4DeKiFswPSHh513f51mKEUZ",
        "reception_time": "2022-01-16T10:43:37.845-00:00",
        "included_in_blocks":
          [ "BKtXBWfdhXhvcrY7U2A8nTcJPSYLWt6w1N24Lkr4GmhwWvz5nXC" ] },
      { "delegate": "tz1TRqbYbUf2GyrjErf3hBzgBJPzW8y36qEs",
        "reception_time": "2022-01-16T10:43:38.071-00:00",
        "included_in_blocks":
          [ "BKtXBWfdhXhvcrY7U2A8nTcJPSYLWt6w1N24Lkr4GmhwWvz5nXC" ] },
      { "delegate": "tz3QSGPoRp3Kn7n3vY24eYeu3Peuqo45LQ4D",
        "reception_time": "2022-01-16T10:43:37.546-00:00",
        "included_in_blocks":
          [ "BKtXBWfdhXhvcrY7U2A8nTcJPSYLWt6w1N24Lkr4GmhwWvz5nXC" ] },
      { "delegate": "tz1PeZx7FXy7QRuMREGXGxeipb24RsMMzUNe",
        "reception_time": "2022-01-16T10:43:37.752-00:00",
        "included_in_blocks":
          [ "BKtXBWfdhXhvcrY7U2A8nTcJPSYLWt6w1N24Lkr4GmhwWvz5nXC" ] },
      { "delegate": "tz1WBfwbT66FC6BTLexc2BoyCCBM9LG7pnVW",
        "reception_time": "2022-01-16T10:43:37.933-00:00",
        "included_in_blocks":
          [ "BKtXBWfdhXhvcrY7U2A8nTcJPSYLWt6w1N24Lkr4GmhwWvz5nXC" ] },
      { "delegate": "tz1KfEsrtDaA1sX7vdM4qmEPWuSytuqCDp5j",
        "reception_time": "2022-01-16T10:43:38.157-00:00",
        "included_in_blocks":
          [ "BKtXBWfdhXhvcrY7U2A8nTcJPSYLWt6w1N24Lkr4GmhwWvz5nXC" ] },
      { "delegate": "tz3VEZ4k6a4Wx42iyev6i2aVAptTRLEAivNN",
        "reception_time": "2022-01-16T10:43:38.334-00:00",
        "included_in_blocks":
          [ "BKtXBWfdhXhvcrY7U2A8nTcJPSYLWt6w1N24Lkr4GmhwWvz5nXC" ] },
      { "delegate": "tz1UVFkBnZzy2WGzs7415DNwsbvuyvz4ZznB",
        "reception_time": "2022-01-16T10:43:37.955-00:00",
        "included_in_blocks":
          [ "BKtXBWfdhXhvcrY7U2A8nTcJPSYLWt6w1N24Lkr4GmhwWvz5nXC" ] },
      { "delegate": "tz1NoYvKjXTzTk54VpLxBfouJ33J8jwKPPvw",
        "reception_time": "2022-01-16T10:43:37.754-00:00",
        "included_in_blocks":
          [ "BKtXBWfdhXhvcrY7U2A8nTcJPSYLWt6w1N24Lkr4GmhwWvz5nXC" ] },
      { "delegate": "tz1NEKxGEHsFufk87CVZcrqWu8o22qh46GK6",
        "reception_time": "2022-01-16T10:43:38.160-00:00",
        "included_in_blocks":
          [ "BKtXBWfdhXhvcrY7U2A8nTcJPSYLWt6w1N24Lkr4GmhwWvz5nXC" ] },
      { "delegate": "tz3gtoUxdudfBRcNY7iVdKPHCYYX6xdPpoRS",
        "reception_time": "2022-01-16T10:43:37.731-00:00",
        "included_in_blocks":
          [ "BKtXBWfdhXhvcrY7U2A8nTcJPSYLWt6w1N24Lkr4GmhwWvz5nXC" ] },
      { "delegate": "tz1cSj7fTex3JPd1p1LN1fwek6AV1kH93Wwc",
        "reception_time": "2022-01-16T10:43:37.387-00:00",
        "included_in_blocks":
          [ "BKtXBWfdhXhvcrY7U2A8nTcJPSYLWt6w1N24Lkr4GmhwWvz5nXC" ] },
      { "delegate": "tz1Nf6tsK4G6bBqgSQERy4nUtkHNKUVdh7q1",
        "reception_time": "2022-01-16T10:43:37.368-00:00",
        "included_in_blocks":
          [ "BKtXBWfdhXhvcrY7U2A8nTcJPSYLWt6w1N24Lkr4GmhwWvz5nXC" ] },
      { "delegate": "tz1TEc75UKXv4W5cwi14Na3NtqFD51yKQi7h",
        "reception_time": "2022-01-16T10:43:37.743-00:00",
        "included_in_blocks":
          [ "BKtXBWfdhXhvcrY7U2A8nTcJPSYLWt6w1N24Lkr4GmhwWvz5nXC" ] },
      { "delegate": "tz3WMqdzXqRWXwyvj5Hp2H7QEepaUuS7vd9K",
        "reception_time": "2022-01-16T10:43:38.095-00:00",
        "included_in_blocks":
          [ "BKtXBWfdhXhvcrY7U2A8nTcJPSYLWt6w1N24Lkr4GmhwWvz5nXC" ] },
      { "delegate": "tz3RB4aoyjov4KEVRbuhvQ1CKJgBJMWhaeB8",
        "reception_time": "2022-01-16T10:43:37.112-00:00",
        "included_in_blocks":
          [ "BKtXBWfdhXhvcrY7U2A8nTcJPSYLWt6w1N24Lkr4GmhwWvz5nXC" ] },
      { "delegate": "tz1PWCDnz783NNGGQjEFFsHtrcK5yBW4E2rm",
        "reception_time": "2022-01-16T10:43:37.237-00:00",
        "included_in_blocks":
          [ "BKtXBWfdhXhvcrY7U2A8nTcJPSYLWt6w1N24Lkr4GmhwWvz5nXC" ] },
      { "delegate": "tz1LmaFsWRkjr7QMCx5PtV6xTUz3AmEpKQiF",
        "reception_time": "2022-01-16T10:43:37.740-00:00",
        "included_in_blocks":
          [ "BKtXBWfdhXhvcrY7U2A8nTcJPSYLWt6w1N24Lkr4GmhwWvz5nXC" ] },
      { "delegate": "tz2FCNBrERXtaTtNX6iimR1UJ5JSDxvdHM93",
        "reception_time": "2022-01-16T10:43:36.986-00:00",
        "included_in_blocks":
          [ "BKtXBWfdhXhvcrY7U2A8nTcJPSYLWt6w1N24Lkr4GmhwWvz5nXC" ] },
      { "delegate": "tz3RDC3Jdn4j15J7bBHZd29EUee9gVB1CxD9",
        "reception_time": "2022-01-16T10:43:37.130-00:00",
        "included_in_blocks":
          [ "BKtXBWfdhXhvcrY7U2A8nTcJPSYLWt6w1N24Lkr4GmhwWvz5nXC" ] },
      { "delegate": "tz3bTdwZinP8U1JmSweNzVKhmwafqWmFWRfk",
        "reception_time": "2022-01-16T10:43:36.954-00:00",
        "included_in_blocks":
          [ "BKtXBWfdhXhvcrY7U2A8nTcJPSYLWt6w1N24Lkr4GmhwWvz5nXC" ] },
      { "delegate": "tz1ei4WtWEMEJekSv8qDnu9PExG6Q8HgRGr3",
        "reception_time": "2022-01-16T10:43:37.493-00:00",
        "included_in_blocks":
          [ "BKtXBWfdhXhvcrY7U2A8nTcJPSYLWt6w1N24Lkr4GmhwWvz5nXC" ] },
      { "delegate": "tz1MQJPGNMijnXnVoBENFz9rUhaPt3S7rWoz",
        "reception_time": "2022-01-16T10:43:37.526-00:00",
        "included_in_blocks":
          [ "BKtXBWfdhXhvcrY7U2A8nTcJPSYLWt6w1N24Lkr4GmhwWvz5nXC" ] },
      { "delegate": "tz3bvNMQ95vfAYtG8193ymshqjSvmxiCUuR5",
        "reception_time": "2022-01-16T10:43:36.887-00:00",
        "included_in_blocks":
          [ "BKtXBWfdhXhvcrY7U2A8nTcJPSYLWt6w1N24Lkr4GmhwWvz5nXC" ] },
      { "delegate": "tz1WCd2jm4uSt4vntk4vSuUWoZQGhLcDuR9q",
        "reception_time": "2022-01-16T10:43:36.644-00:00",
        "included_in_blocks":
          [ "BKtXBWfdhXhvcrY7U2A8nTcJPSYLWt6w1N24Lkr4GmhwWvz5nXC" ] },
      { "delegate": "tz1gfArv665EUkSg2ojMBzcbfwuPxAvqPvjo",
        "reception_time": "2022-01-16T10:43:37.362-00:00",
        "included_in_blocks":
          [ "BKtXBWfdhXhvcrY7U2A8nTcJPSYLWt6w1N24Lkr4GmhwWvz5nXC" ] },
      { "delegate": "tz3QT9dHYKDqh563chVa6za8526ys1UKfRfL",
        "reception_time": "2022-01-16T10:43:36.644-00:00",
        "included_in_blocks":
          [ "BKtXBWfdhXhvcrY7U2A8nTcJPSYLWt6w1N24Lkr4GmhwWvz5nXC" ] },
      { "delegate": "tz1RCFbB9GpALpsZtu6J58sb74dm8qe6XBzv",
        "reception_time": "2022-01-16T10:43:36.983-00:00",
        "included_in_blocks":
          [ "BKtXBWfdhXhvcrY7U2A8nTcJPSYLWt6w1N24Lkr4GmhwWvz5nXC" ] },
      { "delegate": "tz3S6BBeKgJGXxvLyZ1xzXzMPn11nnFtq5L9",
        "reception_time": "2022-01-16T10:43:36.644-00:00",
        "included_in_blocks":
          [ "BKtXBWfdhXhvcrY7U2A8nTcJPSYLWt6w1N24Lkr4GmhwWvz5nXC" ] },
      { "delegate": "tz3RKYFsLuQzKBtmYuLNas7uMu3AsYd4QdsA",
        "reception_time": "2022-01-16T10:43:36.644-00:00",
        "included_in_blocks":
          [ "BKtXBWfdhXhvcrY7U2A8nTcJPSYLWt6w1N24Lkr4GmhwWvz5nXC" ] },
      { "delegate": "tz3hw2kqXhLUvY65ca1eety2oQTpAvd34R9Q",
        "reception_time": "2022-01-16T10:43:36.644-00:00",
        "included_in_blocks":
          [ "BKtXBWfdhXhvcrY7U2A8nTcJPSYLWt6w1N24Lkr4GmhwWvz5nXC" ] },
      { "delegate": "tz1WnfXMPaNTBmH7DBPwqCWs9cPDJdkGBTZ8",
        "reception_time": "2022-01-16T10:43:36.772-00:00",
        "included_in_blocks":
          [ "BKtXBWfdhXhvcrY7U2A8nTcJPSYLWt6w1N24Lkr4GmhwWvz5nXC" ] },
      { "delegate": "tz3Zhs2dygr55yHyQyKjntAtY9bgfhLZ4Xj1",
        "reception_time": "2022-01-16T10:43:36.644-00:00",
        "included_in_blocks":
          [ "BKtXBWfdhXhvcrY7U2A8nTcJPSYLWt6w1N24Lkr4GmhwWvz5nXC" ] },
      { "delegate": "tz1W3VYi3gSt9Xgfw6WNV1aGZRPH2BsskMEY",
        "reception_time": "2022-01-16T10:43:36.740-00:00",
        "included_in_blocks":
          [ "BKtXBWfdhXhvcrY7U2A8nTcJPSYLWt6w1N24Lkr4GmhwWvz5nXC" ] },
      { "delegate": "tz1Ldzz6k1BHdhuKvAtMRX7h5kJSMHESMHLC",
        "reception_time": "2022-01-16T10:43:36.644-00:00",
        "included_in_blocks":
          [ "BKtXBWfdhXhvcrY7U2A8nTcJPSYLWt6w1N24Lkr4GmhwWvz5nXC" ] },
      { "delegate": "tz1VmiY38m3y95HqQLjMwqnMS7sdMfGomzKi",
        "reception_time": "2022-01-16T10:43:36.764-00:00",
        "included_in_blocks":
          [ "BKtXBWfdhXhvcrY7U2A8nTcJPSYLWt6w1N24Lkr4GmhwWvz5nXC" ] },
      { "delegate": "tz1gUNyn3hmnEWqkusWPzxRaon1cs7ndWh7h",
        "reception_time": "2022-01-16T10:43:36.644-00:00",
        "included_in_blocks":
          [ "BKtXBWfdhXhvcrY7U2A8nTcJPSYLWt6w1N24Lkr4GmhwWvz5nXC" ] },
      { "delegate": "tz3ZbP2pM3nwvXztbuMJwJnDvV5xdpU8UkkD",
        "reception_time": "2022-01-16T10:43:36.331-00:00",
        "included_in_blocks":
          [ "BKtXBWfdhXhvcrY7U2A8nTcJPSYLWt6w1N24Lkr4GmhwWvz5nXC" ] },
      { "delegate": "tz1aXD7Jigrt3PBYSpHSg5Rr33SexMmmM5Ys",
        "reception_time": "2022-01-16T10:43:36.907-00:00",
        "included_in_blocks":
          [ "BKtXBWfdhXhvcrY7U2A8nTcJPSYLWt6w1N24Lkr4GmhwWvz5nXC" ] },
      { "delegate": "tz3NxTnke1acr8o3h5y9ytf5awQBGNJUKzVU",
        "reception_time": "2022-01-16T10:43:36.331-00:00",
        "included_in_blocks":
          [ "BKtXBWfdhXhvcrY7U2A8nTcJPSYLWt6w1N24Lkr4GmhwWvz5nXC" ] },
      { "delegate": "tz1VQnqCCqX4K5sP3FNkVSNKTdCAMJDd3E1n",
        "reception_time": "2022-01-16T10:43:36.644-00:00",
        "included_in_blocks":
          [ "BKtXBWfdhXhvcrY7U2A8nTcJPSYLWt6w1N24Lkr4GmhwWvz5nXC" ] },
      { "delegate": "tz1iZEKy4LaAjnTmn2RuGDf2iqdAQKnRi8kY",
        "reception_time": "2022-01-16T10:43:36.644-00:00",
        "included_in_blocks":
          [ "BKtXBWfdhXhvcrY7U2A8nTcJPSYLWt6w1N24Lkr4GmhwWvz5nXC" ] },
      { "delegate": "tz1irJKkXS2DBWkU1NnmFQx1c1L7pbGg4yhk",
        "reception_time": "2022-01-16T10:43:36.331-00:00",
        "included_in_blocks":
          [ "BKtXBWfdhXhvcrY7U2A8nTcJPSYLWt6w1N24Lkr4GmhwWvz5nXC" ] },
      { "delegate": "tz1eEnQhbwf6trb8Q8mPb2RaPkNk2rN7BKi8",
        "reception_time": "2022-01-16T10:43:36.331-00:00",
        "included_in_blocks":
          [ "BKtXBWfdhXhvcrY7U2A8nTcJPSYLWt6w1N24Lkr4GmhwWvz5nXC" ] },
      { "delegate": "tz1RV1MBbZMR68tacosb7Mwj6LkbPSUS1er1",
        "reception_time": "2022-01-16T10:43:36.331-00:00",
        "included_in_blocks":
          [ "BKtXBWfdhXhvcrY7U2A8nTcJPSYLWt6w1N24Lkr4GmhwWvz5nXC" ] },
      { "delegate": "tz1S8MNvuFEUsWgjHvi3AxibRBf388NhT1q2",
        "reception_time": "2022-01-16T10:43:37.185-00:00",
        "included_in_blocks":
          [ "BKtXBWfdhXhvcrY7U2A8nTcJPSYLWt6w1N24Lkr4GmhwWvz5nXC" ] },
      { "delegate": "tz1P2Po7YM526ughEsRbY4oR9zaUPDZjxFrb",
        "reception_time": "2022-01-16T10:43:36.331-00:00",
        "included_in_blocks":
          [ "BKtXBWfdhXhvcrY7U2A8nTcJPSYLWt6w1N24Lkr4GmhwWvz5nXC" ] },
      { "delegate": "tz1S8e9GgdZG78XJRB3NqabfWeM37GnhZMWQ",
        "reception_time": "2022-01-16T10:43:36.157-00:00",
        "included_in_blocks":
          [ "BKtXBWfdhXhvcrY7U2A8nTcJPSYLWt6w1N24Lkr4GmhwWvz5nXC" ] } ] }