{ "blocks":
    [ { "hash": "BLSUwhUs96NRToLMBzJj4ejtUWcEFDfsqLRpbUZRUoWeMARgvR3",
        "delegate": "tz1irJKkXS2DBWkU1NnmFQx1c1L7pbGg4yhk",
        "reception_time": "2022-01-16T10:34:25.172-00:00",
        "timestamp": "2022-01-16T10:34:20Z" } ],
  "endorsements":
    [ { "delegate": "tz1RjoHc98dBoqaH2jawF62XNKh7YsHwbkEv" },
      { "delegate": "tz1SYq214SCBy9naR6cvycQsYcUGpBqQAE8d" },
      { "delegate": "tz1TRspM5SeZpaQUhzByXbEvqKF1vnCM2YTK" },
      { "delegate": "tz1dbfppLAAxXZNtf2SDps7rch3qfUznKSoK" },
      { "delegate": "tz1S8e9GgdZG78XJRB3NqabfWeM37GnhZMWQ",
        "reception_time": "2022-01-16T10:34:25.822-00:00",
        "included_in_blocks":
          [ "BL62fNQwwujhsjCqh5NWzwyNYquhvthoajcBVCrLoXsryGboN1T" ] },
      { "delegate": "tz1P2Po7YM526ughEsRbY4oR9zaUPDZjxFrb",
        "reception_time": "2022-01-16T10:34:25.822-00:00",
        "included_in_blocks":
          [ "BL62fNQwwujhsjCqh5NWzwyNYquhvthoajcBVCrLoXsryGboN1T" ] },
      { "delegate": "tz1Scdr2HsZiQjc7bHMeBbmDRXYVvdhjJbBh",
        "reception_time": "2022-01-16T10:34:25.832-00:00",
        "included_in_blocks":
          [ "BL62fNQwwujhsjCqh5NWzwyNYquhvthoajcBVCrLoXsryGboN1T" ] },
      { "delegate": "tz1irJKkXS2DBWkU1NnmFQx1c1L7pbGg4yhk",
        "reception_time": "2022-01-16T10:34:25.835-00:00",
        "included_in_blocks":
          [ "BL62fNQwwujhsjCqh5NWzwyNYquhvthoajcBVCrLoXsryGboN1T" ] },
      { "delegate": "tz1eEnQhbwf6trb8Q8mPb2RaPkNk2rN7BKi8",
        "reception_time": "2022-01-16T10:34:25.837-00:00",
        "included_in_blocks":
          [ "BL62fNQwwujhsjCqh5NWzwyNYquhvthoajcBVCrLoXsryGboN1T" ] },
      { "delegate": "tz1h4GUAMweP7SNWzDgvMk3yRCAZyaP1MxZq",
        "reception_time": "2022-01-16T10:34:26.049-00:00",
        "included_in_blocks":
          [ "BL62fNQwwujhsjCqh5NWzwyNYquhvthoajcBVCrLoXsryGboN1T" ] },
      { "delegate": "tz1bsdrs36X5BTH83RHUBdUouKLJZK8d2oBa",
        "reception_time": "2022-01-16T10:34:26.125-00:00",
        "included_in_blocks":
          [ "BL62fNQwwujhsjCqh5NWzwyNYquhvthoajcBVCrLoXsryGboN1T" ] },
      { "delegate": "tz3NxTnke1acr8o3h5y9ytf5awQBGNJUKzVU",
        "reception_time": "2022-01-16T10:34:26.262-00:00",
        "included_in_blocks":
          [ "BL62fNQwwujhsjCqh5NWzwyNYquhvthoajcBVCrLoXsryGboN1T" ] },
      { "delegate": "tz1VQnqCCqX4K5sP3FNkVSNKTdCAMJDd3E1n",
        "reception_time": "2022-01-16T10:34:26.273-00:00",
        "included_in_blocks":
          [ "BL62fNQwwujhsjCqh5NWzwyNYquhvthoajcBVCrLoXsryGboN1T" ] },
      { "delegate": "tz3ZbP2pM3nwvXztbuMJwJnDvV5xdpU8UkkD",
        "reception_time": "2022-01-16T10:34:26.289-00:00",
        "included_in_blocks":
          [ "BL62fNQwwujhsjCqh5NWzwyNYquhvthoajcBVCrLoXsryGboN1T" ] },
      { "delegate": "tz1gUNyn3hmnEWqkusWPzxRaon1cs7ndWh7h",
        "reception_time": "2022-01-16T10:34:26.293-00:00",
        "included_in_blocks":
          [ "BL62fNQwwujhsjCqh5NWzwyNYquhvthoajcBVCrLoXsryGboN1T" ] },
      { "delegate": "tz3QCNyySViKHmeSr45kzDxzchys7NiXCWoa",
        "reception_time": "2022-01-16T10:34:26.307-00:00",
        "included_in_blocks":
          [ "BL62fNQwwujhsjCqh5NWzwyNYquhvthoajcBVCrLoXsryGboN1T" ] },
      { "delegate": "tz3iJu5vrKZcsqRPs8yJ61UDoeEXZmtro4qh",
        "reception_time": "2022-01-16T10:34:26.342-00:00",
        "included_in_blocks":
          [ "BL62fNQwwujhsjCqh5NWzwyNYquhvthoajcBVCrLoXsryGboN1T" ] },
      { "delegate": "tz3QSGPoRp3Kn7n3vY24eYeu3Peuqo45LQ4D",
        "reception_time": "2022-01-16T10:34:26.355-00:00",
        "included_in_blocks":
          [ "BL62fNQwwujhsjCqh5NWzwyNYquhvthoajcBVCrLoXsryGboN1T" ] },
      { "delegate": "tz3Zhs2dygr55yHyQyKjntAtY9bgfhLZ4Xj1",
        "reception_time": "2022-01-16T10:34:26.400-00:00",
        "included_in_blocks":
          [ "BL62fNQwwujhsjCqh5NWzwyNYquhvthoajcBVCrLoXsryGboN1T" ] },
      { "delegate": "tz3gtoUxdudfBRcNY7iVdKPHCYYX6xdPpoRS",
        "reception_time": "2022-01-16T10:34:26.423-00:00",
        "included_in_blocks":
          [ "BL62fNQwwujhsjCqh5NWzwyNYquhvthoajcBVCrLoXsryGboN1T" ] },
      { "delegate": "tz1Ldzz6k1BHdhuKvAtMRX7h5kJSMHESMHLC",
        "reception_time": "2022-01-16T10:34:26.445-00:00",
        "included_in_blocks":
          [ "BL62fNQwwujhsjCqh5NWzwyNYquhvthoajcBVCrLoXsryGboN1T" ] },
      { "delegate": "tz3RKYFsLuQzKBtmYuLNas7uMu3AsYd4QdsA",
        "reception_time": "2022-01-16T10:34:26.470-00:00",
        "included_in_blocks":
          [ "BL62fNQwwujhsjCqh5NWzwyNYquhvthoajcBVCrLoXsryGboN1T" ] },
      { "delegate": "tz3hw2kqXhLUvY65ca1eety2oQTpAvd34R9Q",
        "reception_time": "2022-01-16T10:34:26.489-00:00",
        "included_in_blocks":
          [ "BL62fNQwwujhsjCqh5NWzwyNYquhvthoajcBVCrLoXsryGboN1T" ] },
      { "delegate": "tz1aXD7Jigrt3PBYSpHSg5Rr33SexMmmM5Ys",
        "reception_time": "2022-01-16T10:34:26.492-00:00",
        "included_in_blocks":
          [ "BL62fNQwwujhsjCqh5NWzwyNYquhvthoajcBVCrLoXsryGboN1T" ] },
      { "delegate": "tz3QT9dHYKDqh563chVa6za8526ys1UKfRfL",
        "reception_time": "2022-01-16T10:34:26.522-00:00",
        "included_in_blocks":
          [ "BL62fNQwwujhsjCqh5NWzwyNYquhvthoajcBVCrLoXsryGboN1T" ] },
      { "delegate": "tz1fUyqYH7H4pRHN1roWY17giXhy1RvxjgUV",
        "reception_time": "2022-01-16T10:34:26.568-00:00",
        "included_in_blocks":
          [ "BL62fNQwwujhsjCqh5NWzwyNYquhvthoajcBVCrLoXsryGboN1T" ] },
      { "delegate": "tz3S6BBeKgJGXxvLyZ1xzXzMPn11nnFtq5L9",
        "reception_time": "2022-01-16T10:34:26.579-00:00",
        "included_in_blocks":
          [ "BL62fNQwwujhsjCqh5NWzwyNYquhvthoajcBVCrLoXsryGboN1T" ] },
      { "delegate": "tz1WCd2jm4uSt4vntk4vSuUWoZQGhLcDuR9q",
        "reception_time": "2022-01-16T10:34:26.589-00:00",
        "included_in_blocks":
          [ "BL62fNQwwujhsjCqh5NWzwyNYquhvthoajcBVCrLoXsryGboN1T" ] },
      { "delegate": "tz1d6Fx42mYgVFnHUW8T8A7WBfJ6nD9pVok8",
        "reception_time": "2022-01-16T10:34:26.669-00:00",
        "included_in_blocks":
          [ "BL62fNQwwujhsjCqh5NWzwyNYquhvthoajcBVCrLoXsryGboN1T" ] },
      { "delegate": "tz1VmiY38m3y95HqQLjMwqnMS7sdMfGomzKi",
        "reception_time": "2022-01-16T10:34:26.796-00:00",
        "included_in_blocks":
          [ "BL62fNQwwujhsjCqh5NWzwyNYquhvthoajcBVCrLoXsryGboN1T" ] },
      { "delegate": "tz1fPKAtsYydh4f1wfWNfeNxWYu72TmM48fu",
        "reception_time": "2022-01-16T10:34:26.887-00:00",
        "included_in_blocks":
          [ "BL62fNQwwujhsjCqh5NWzwyNYquhvthoajcBVCrLoXsryGboN1T" ] },
      { "delegate": "tz1RCFbB9GpALpsZtu6J58sb74dm8qe6XBzv",
        "reception_time": "2022-01-16T10:34:26.921-00:00",
        "included_in_blocks":
          [ "BL62fNQwwujhsjCqh5NWzwyNYquhvthoajcBVCrLoXsryGboN1T" ] },
      { "delegate": "tz1WnfXMPaNTBmH7DBPwqCWs9cPDJdkGBTZ8",
        "reception_time": "2022-01-16T10:34:26.925-00:00",
        "included_in_blocks":
          [ "BL62fNQwwujhsjCqh5NWzwyNYquhvthoajcBVCrLoXsryGboN1T" ] },
      { "delegate": "tz3RDC3Jdn4j15J7bBHZd29EUee9gVB1CxD9",
        "reception_time": "2022-01-16T10:34:26.938-00:00",
        "included_in_blocks":
          [ "BL62fNQwwujhsjCqh5NWzwyNYquhvthoajcBVCrLoXsryGboN1T" ] },
      { "delegate": "tz3bTdwZinP8U1JmSweNzVKhmwafqWmFWRfk",
        "reception_time": "2022-01-16T10:34:26.959-00:00",
        "included_in_blocks":
          [ "BL62fNQwwujhsjCqh5NWzwyNYquhvthoajcBVCrLoXsryGboN1T" ] },
      { "delegate": "tz1YhNsiRRU8aHNGg7NK3uuP6UDAyacJernB",
        "reception_time": "2022-01-16T10:34:27.010-00:00",
        "included_in_blocks":
          [ "BL62fNQwwujhsjCqh5NWzwyNYquhvthoajcBVCrLoXsryGboN1T" ] },
      { "delegate": "tz1S8MNvuFEUsWgjHvi3AxibRBf388NhT1q2",
        "reception_time": "2022-01-16T10:34:27.060-00:00",
        "included_in_blocks":
          [ "BL62fNQwwujhsjCqh5NWzwyNYquhvthoajcBVCrLoXsryGboN1T" ] },
      { "delegate": "tz1abmz7jiCV2GH2u81LRrGgAFFgvQgiDiaf",
        "reception_time": "2022-01-16T10:34:27.065-00:00",
        "included_in_blocks":
          [ "BL62fNQwwujhsjCqh5NWzwyNYquhvthoajcBVCrLoXsryGboN1T" ] },
      { "delegate": "tz2FCNBrERXtaTtNX6iimR1UJ5JSDxvdHM93",
        "reception_time": "2022-01-16T10:34:27.097-00:00",
        "included_in_blocks":
          [ "BL62fNQwwujhsjCqh5NWzwyNYquhvthoajcBVCrLoXsryGboN1T" ] },
      { "delegate": "tz1MQJPGNMijnXnVoBENFz9rUhaPt3S7rWoz",
        "reception_time": "2022-01-16T10:34:27.160-00:00",
        "included_in_blocks":
          [ "BL62fNQwwujhsjCqh5NWzwyNYquhvthoajcBVCrLoXsryGboN1T" ] },
      { "delegate": "tz1gfArv665EUkSg2ojMBzcbfwuPxAvqPvjo",
        "reception_time": "2022-01-16T10:34:27.205-00:00",
        "included_in_blocks":
          [ "BL62fNQwwujhsjCqh5NWzwyNYquhvthoajcBVCrLoXsryGboN1T" ] },
      { "delegate": "tz1TRqbYbUf2GyrjErf3hBzgBJPzW8y36qEs",
        "reception_time": "2022-01-16T10:34:27.236-00:00",
        "included_in_blocks":
          [ "BL62fNQwwujhsjCqh5NWzwyNYquhvthoajcBVCrLoXsryGboN1T" ] },
      { "delegate": "tz1PWCDnz783NNGGQjEFFsHtrcK5yBW4E2rm",
        "reception_time": "2022-01-16T10:34:27.280-00:00",
        "included_in_blocks":
          [ "BL62fNQwwujhsjCqh5NWzwyNYquhvthoajcBVCrLoXsryGboN1T" ] },
      { "delegate": "tz1ei4WtWEMEJekSv8qDnu9PExG6Q8HgRGr3",
        "reception_time": "2022-01-16T10:34:27.553-00:00",
        "included_in_blocks":
          [ "BL62fNQwwujhsjCqh5NWzwyNYquhvthoajcBVCrLoXsryGboN1T" ] },
      { "delegate": "tz1LmaFsWRkjr7QMCx5PtV6xTUz3AmEpKQiF",
        "reception_time": "2022-01-16T10:34:27.675-00:00",
        "included_in_blocks":
          [ "BL62fNQwwujhsjCqh5NWzwyNYquhvthoajcBVCrLoXsryGboN1T" ] },
      { "delegate": "tz1Tnjaxk6tbAeC2TmMApPh8UsrEVQvhHvx5",
        "reception_time": "2022-01-16T10:34:27.684-00:00",
        "included_in_blocks":
          [ "BL62fNQwwujhsjCqh5NWzwyNYquhvthoajcBVCrLoXsryGboN1T" ] },
      { "delegate": "tz1PeZx7FXy7QRuMREGXGxeipb24RsMMzUNe",
        "reception_time": "2022-01-16T10:34:27.735-00:00",
        "included_in_blocks":
          [ "BL62fNQwwujhsjCqh5NWzwyNYquhvthoajcBVCrLoXsryGboN1T" ] },
      { "delegate": "tz1awXW7wuXy21c66vBudMXQVAPgRnqqwgTH",
        "reception_time": "2022-01-16T10:34:27.758-00:00",
        "included_in_blocks":
          [ "BL62fNQwwujhsjCqh5NWzwyNYquhvthoajcBVCrLoXsryGboN1T" ] },
      { "delegate": "tz1aRoaRhSpRYvFdyvgWLL6TGyRoGF51wDjM",
        "reception_time": "2022-01-16T10:34:27.894-00:00",
        "included_in_blocks":
          [ "BL62fNQwwujhsjCqh5NWzwyNYquhvthoajcBVCrLoXsryGboN1T" ] },
      { "delegate": "tz1NEKxGEHsFufk87CVZcrqWu8o22qh46GK6",
        "reception_time": "2022-01-16T10:34:27.990-00:00",
        "included_in_blocks":
          [ "BL62fNQwwujhsjCqh5NWzwyNYquhvthoajcBVCrLoXsryGboN1T" ] },
      { "delegate": "tz1Nf6tsK4G6bBqgSQERy4nUtkHNKUVdh7q1",
        "reception_time": "2022-01-16T10:34:28.092-00:00",
        "included_in_blocks":
          [ "BL62fNQwwujhsjCqh5NWzwyNYquhvthoajcBVCrLoXsryGboN1T" ] },
      { "delegate": "tz1cYufsxHXJcvANhvS55h3aY32a9BAFB494",
        "reception_time": "2022-01-16T10:34:28.140-00:00",
        "included_in_blocks":
          [ "BL62fNQwwujhsjCqh5NWzwyNYquhvthoajcBVCrLoXsryGboN1T" ] },
      { "delegate": "tz3RB4aoyjov4KEVRbuhvQ1CKJgBJMWhaeB8",
        "reception_time": "2022-01-16T10:34:28.284-00:00",
        "included_in_blocks":
          [ "BL62fNQwwujhsjCqh5NWzwyNYquhvthoajcBVCrLoXsryGboN1T" ] },
      { "delegate": "tz3bvNMQ95vfAYtG8193ymshqjSvmxiCUuR5",
        "reception_time": "2022-01-16T10:34:28.300-00:00",
        "included_in_blocks":
          [ "BL62fNQwwujhsjCqh5NWzwyNYquhvthoajcBVCrLoXsryGboN1T" ] },
      { "delegate": "tz3NDpRj6WBrJPikcPVHRBEjWKxFw3c6eQPS",
        "reception_time": "2022-01-16T10:34:28.312-00:00",
        "included_in_blocks":
          [ "BL62fNQwwujhsjCqh5NWzwyNYquhvthoajcBVCrLoXsryGboN1T" ] },
      { "delegate": "tz1T7duV5gZWSTq4YpBGbXNLTfznCLDrFxvs",
        "reception_time": "2022-01-16T10:34:28.405-00:00",
        "included_in_blocks":
          [ "BL62fNQwwujhsjCqh5NWzwyNYquhvthoajcBVCrLoXsryGboN1T" ] },
      { "delegate": "tz1WctSwL49BZtdWAQ75NY6vr4xsAx6oKdah",
        "reception_time": "2022-01-16T10:34:28.507-00:00",
        "included_in_blocks":
          [ "BL62fNQwwujhsjCqh5NWzwyNYquhvthoajcBVCrLoXsryGboN1T" ] },
      { "delegate": "tz3VEZ4k6a4Wx42iyev6i2aVAptTRLEAivNN",
        "reception_time": "2022-01-16T10:34:28.637-00:00",
        "included_in_blocks":
          [ "BL62fNQwwujhsjCqh5NWzwyNYquhvthoajcBVCrLoXsryGboN1T" ] },
      { "delegate": "tz1Xsrfv6hn86fp88YfRs6xcKwt2nTqxVZYM",
        "reception_time": "2022-01-16T10:34:28.721-00:00",
        "included_in_blocks":
          [ "BL62fNQwwujhsjCqh5NWzwyNYquhvthoajcBVCrLoXsryGboN1T" ] },
      { "delegate": "tz3NExpXn9aPNZPorRE4SdjJ2RGrfbJgMAaV",
        "reception_time": "2022-01-16T10:34:28.947-00:00",
        "included_in_blocks":
          [ "BL62fNQwwujhsjCqh5NWzwyNYquhvthoajcBVCrLoXsryGboN1T" ] },
      { "delegate": "tz1dNVDWPf3Q59SdJqnjdnu277iyvReiRS9M",
        "reception_time": "2022-01-16T10:34:29.012-00:00",
        "included_in_blocks":
          [ "BL62fNQwwujhsjCqh5NWzwyNYquhvthoajcBVCrLoXsryGboN1T" ] },
      { "delegate": "tz1dRKU4FQ9QRRQPdaH4zCR6gmCmXfcvcgtB",
        "reception_time": "2022-01-16T10:34:29.093-00:00",
        "included_in_blocks":
          [ "BL62fNQwwujhsjCqh5NWzwyNYquhvthoajcBVCrLoXsryGboN1T" ] },
      { "delegate": "tz1ZcTRk5uxD86EFEn1vvNffWWqJy7q5eVhc",
        "reception_time": "2022-01-16T10:34:29.117-00:00",
        "included_in_blocks":
          [ "BL62fNQwwujhsjCqh5NWzwyNYquhvthoajcBVCrLoXsryGboN1T" ] },
      { "delegate": "tz3UoffC7FG7zfpmvmjUmUeAaHvzdcUvAj6r",
        "reception_time": "2022-01-16T10:34:29.289-00:00",
        "included_in_blocks":
          [ "BL62fNQwwujhsjCqh5NWzwyNYquhvthoajcBVCrLoXsryGboN1T" ] },
      { "delegate": "tz3WMqdzXqRWXwyvj5Hp2H7QEepaUuS7vd9K",
        "reception_time": "2022-01-16T10:34:29.518-00:00",
        "included_in_blocks":
          [ "BL62fNQwwujhsjCqh5NWzwyNYquhvthoajcBVCrLoXsryGboN1T" ] },
      { "delegate": "tz1PFeoTuFen8jAMRHajBySNyCwLmY5RqF9M",
        "reception_time": "2022-01-16T10:34:29.587-00:00",
        "included_in_blocks":
          [ "BL62fNQwwujhsjCqh5NWzwyNYquhvthoajcBVCrLoXsryGboN1T" ] },
      { "delegate": "tz1W5VkdB5s7ENMESVBtwyt9kyvLqPcUczRT",
        "reception_time": "2022-01-16T10:34:30.391-00:00",
        "included_in_blocks":
          [ "BL62fNQwwujhsjCqh5NWzwyNYquhvthoajcBVCrLoXsryGboN1T" ] },
      { "delegate": "tz1NpWrAyDL9k2Lmnyxcgr9xuJakbBxdq7FB",
        "reception_time": "2022-01-16T10:34:31.367-00:00",
        "included_in_blocks":
          [ "BL62fNQwwujhsjCqh5NWzwyNYquhvthoajcBVCrLoXsryGboN1T" ] } ] }