{ "blocks":
    [ { "hash": "BLsy12ja1umxeEfFvUSamoEfszitLogPYKwW2iRcPTgVtEzQrUY",
        "delegate": "tz1WCd2jm4uSt4vntk4vSuUWoZQGhLcDuR9q",
        "reception_time": "2022-01-16T07:39:36.217-00:00",
        "timestamp": "2022-01-16T07:39:30Z" } ],
  "endorsements":
    [ { "delegate": "tz1XXayQohB8XRXN7kMoHbf2NFwNiH3oMRQQ",
        "reception_time": "2022-01-16T07:39:36.161-00:00",
        "errors":
          [ { "kind": "temporary",
              "id": "proto.011-PtHangz2.prefilter.outdated_endorsement" } ],
        "included_in_blocks":
          [ "BMFbUdSQhqL8dGGpd7sr26jtczEi4KPX6YvVxAeF6KREnnqBeS8" ] },
      { "delegate": "tz1P2Po7YM526ughEsRbY4oR9zaUPDZjxFrb",
        "reception_time": "2022-01-16T07:39:35.980-00:00",
        "errors":
          [ { "kind": "temporary",
              "id": "proto.011-PtHangz2.prefilter.outdated_endorsement" } ],
        "included_in_blocks":
          [ "BMFbUdSQhqL8dGGpd7sr26jtczEi4KPX6YvVxAeF6KREnnqBeS8" ] },
      { "delegate": "tz1S8e9GgdZG78XJRB3NqabfWeM37GnhZMWQ",
        "reception_time": "2022-01-16T07:39:35.946-00:00",
        "errors":
          [ { "kind": "temporary",
              "id": "proto.011-PtHangz2.prefilter.outdated_endorsement" } ],
        "included_in_blocks":
          [ "BMFbUdSQhqL8dGGpd7sr26jtczEi4KPX6YvVxAeF6KREnnqBeS8" ] },
      { "delegate": "tz1NdhRv643wLW6zCcRP3VfT24dvDnh7nuh9" },
      { "delegate": "tz1RjoHc98dBoqaH2jawF62XNKh7YsHwbkEv" },
      { "delegate": "tz1dbfppLAAxXZNtf2SDps7rch3qfUznKSoK" },
      { "delegate": "tz1eEnQhbwf6trb8Q8mPb2RaPkNk2rN7BKi8",
        "reception_time": "2022-01-16T07:39:37.267-00:00",
        "included_in_blocks":
          [ "BMFbUdSQhqL8dGGpd7sr26jtczEi4KPX6YvVxAeF6KREnnqBeS8" ] },
      { "delegate": "tz1Scdr2HsZiQjc7bHMeBbmDRXYVvdhjJbBh",
        "reception_time": "2022-01-16T07:39:37.267-00:00",
        "included_in_blocks":
          [ "BMFbUdSQhqL8dGGpd7sr26jtczEi4KPX6YvVxAeF6KREnnqBeS8" ] },
      { "delegate": "tz1RV1MBbZMR68tacosb7Mwj6LkbPSUS1er1",
        "reception_time": "2022-01-16T07:39:37.267-00:00",
        "included_in_blocks":
          [ "BMFbUdSQhqL8dGGpd7sr26jtczEi4KPX6YvVxAeF6KREnnqBeS8" ] },
      { "delegate": "tz1MJx9vhaNRSimcuXPK2rW4fLccQnDAnVKJ",
        "reception_time": "2022-01-16T07:39:37.267-00:00",
        "included_in_blocks":
          [ "BMFbUdSQhqL8dGGpd7sr26jtczEi4KPX6YvVxAeF6KREnnqBeS8" ] },
      { "delegate": "tz1irJKkXS2DBWkU1NnmFQx1c1L7pbGg4yhk",
        "reception_time": "2022-01-16T07:39:37.267-00:00",
        "included_in_blocks":
          [ "BMFbUdSQhqL8dGGpd7sr26jtczEi4KPX6YvVxAeF6KREnnqBeS8" ] },
      { "delegate": "tz3gtoUxdudfBRcNY7iVdKPHCYYX6xdPpoRS",
        "reception_time": "2022-01-16T07:39:37.267-00:00",
        "included_in_blocks":
          [ "BMFbUdSQhqL8dGGpd7sr26jtczEi4KPX6YvVxAeF6KREnnqBeS8" ] },
      { "delegate": "tz3QCNyySViKHmeSr45kzDxzchys7NiXCWoa",
        "reception_time": "2022-01-16T07:39:37.267-00:00",
        "included_in_blocks":
          [ "BMFbUdSQhqL8dGGpd7sr26jtczEi4KPX6YvVxAeF6KREnnqBeS8" ] },
      { "delegate": "tz3QSGPoRp3Kn7n3vY24eYeu3Peuqo45LQ4D",
        "reception_time": "2022-01-16T07:39:37.267-00:00",
        "included_in_blocks":
          [ "BMFbUdSQhqL8dGGpd7sr26jtczEi4KPX6YvVxAeF6KREnnqBeS8" ] },
      { "delegate": "tz3ZbP2pM3nwvXztbuMJwJnDvV5xdpU8UkkD",
        "reception_time": "2022-01-16T07:39:37.267-00:00",
        "included_in_blocks":
          [ "BMFbUdSQhqL8dGGpd7sr26jtczEi4KPX6YvVxAeF6KREnnqBeS8" ] },
      { "delegate": "tz1Ldzz6k1BHdhuKvAtMRX7h5kJSMHESMHLC",
        "reception_time": "2022-01-16T07:39:37.267-00:00",
        "included_in_blocks":
          [ "BMFbUdSQhqL8dGGpd7sr26jtczEi4KPX6YvVxAeF6KREnnqBeS8" ] },
      { "delegate": "tz1WCd2jm4uSt4vntk4vSuUWoZQGhLcDuR9q",
        "reception_time": "2022-01-16T07:39:37.567-00:00",
        "included_in_blocks":
          [ "BMFbUdSQhqL8dGGpd7sr26jtczEi4KPX6YvVxAeF6KREnnqBeS8" ] },
      { "delegate": "tz3hw2kqXhLUvY65ca1eety2oQTpAvd34R9Q",
        "reception_time": "2022-01-16T07:39:37.567-00:00",
        "included_in_blocks":
          [ "BMFbUdSQhqL8dGGpd7sr26jtczEi4KPX6YvVxAeF6KREnnqBeS8" ] },
      { "delegate": "tz3NxTnke1acr8o3h5y9ytf5awQBGNJUKzVU",
        "reception_time": "2022-01-16T07:39:37.567-00:00",
        "included_in_blocks":
          [ "BMFbUdSQhqL8dGGpd7sr26jtczEi4KPX6YvVxAeF6KREnnqBeS8" ] },
      { "delegate": "tz3RKYFsLuQzKBtmYuLNas7uMu3AsYd4QdsA",
        "reception_time": "2022-01-16T07:39:37.567-00:00",
        "included_in_blocks":
          [ "BMFbUdSQhqL8dGGpd7sr26jtczEi4KPX6YvVxAeF6KREnnqBeS8" ] },
      { "delegate": "tz3iJu5vrKZcsqRPs8yJ61UDoeEXZmtro4qh",
        "reception_time": "2022-01-16T07:39:37.567-00:00",
        "included_in_blocks":
          [ "BMFbUdSQhqL8dGGpd7sr26jtczEi4KPX6YvVxAeF6KREnnqBeS8" ] },
      { "delegate": "tz1TzaNn7wSQSP5gYPXCnNzBCpyMiidCq1PX",
        "reception_time": "2022-01-16T07:39:37.567-00:00",
        "included_in_blocks":
          [ "BMFbUdSQhqL8dGGpd7sr26jtczEi4KPX6YvVxAeF6KREnnqBeS8" ] },
      { "delegate": "tz1aXD7Jigrt3PBYSpHSg5Rr33SexMmmM5Ys",
        "reception_time": "2022-01-16T07:39:37.567-00:00",
        "included_in_blocks":
          [ "BMFbUdSQhqL8dGGpd7sr26jtczEi4KPX6YvVxAeF6KREnnqBeS8" ] },
      { "delegate": "tz1VQnqCCqX4K5sP3FNkVSNKTdCAMJDd3E1n",
        "reception_time": "2022-01-16T07:39:37.567-00:00",
        "included_in_blocks":
          [ "BMFbUdSQhqL8dGGpd7sr26jtczEi4KPX6YvVxAeF6KREnnqBeS8" ] },
      { "delegate": "tz1fUyqYH7H4pRHN1roWY17giXhy1RvxjgUV",
        "reception_time": "2022-01-16T07:39:37.567-00:00",
        "included_in_blocks":
          [ "BMFbUdSQhqL8dGGpd7sr26jtczEi4KPX6YvVxAeF6KREnnqBeS8" ] },
      { "delegate": "tz3QT9dHYKDqh563chVa6za8526ys1UKfRfL",
        "reception_time": "2022-01-16T07:39:37.567-00:00",
        "included_in_blocks":
          [ "BMFbUdSQhqL8dGGpd7sr26jtczEi4KPX6YvVxAeF6KREnnqBeS8" ] },
      { "delegate": "tz1gUNyn3hmnEWqkusWPzxRaon1cs7ndWh7h",
        "reception_time": "2022-01-16T07:39:37.567-00:00",
        "included_in_blocks":
          [ "BMFbUdSQhqL8dGGpd7sr26jtczEi4KPX6YvVxAeF6KREnnqBeS8" ] },
      { "delegate": "tz3S6BBeKgJGXxvLyZ1xzXzMPn11nnFtq5L9",
        "reception_time": "2022-01-16T07:39:37.567-00:00",
        "included_in_blocks":
          [ "BMFbUdSQhqL8dGGpd7sr26jtczEi4KPX6YvVxAeF6KREnnqBeS8" ] },
      { "delegate": "tz3Zhs2dygr55yHyQyKjntAtY9bgfhLZ4Xj1",
        "reception_time": "2022-01-16T07:39:37.567-00:00",
        "included_in_blocks":
          [ "BMFbUdSQhqL8dGGpd7sr26jtczEi4KPX6YvVxAeF6KREnnqBeS8" ] },
      { "delegate": "tz1PWCDnz783NNGGQjEFFsHtrcK5yBW4E2rm",
        "reception_time": "2022-01-16T07:39:37.567-00:00",
        "included_in_blocks":
          [ "BMFbUdSQhqL8dGGpd7sr26jtczEi4KPX6YvVxAeF6KREnnqBeS8" ] },
      { "delegate": "tz3RB4aoyjov4KEVRbuhvQ1CKJgBJMWhaeB8",
        "reception_time": "2022-01-16T07:39:37.567-00:00",
        "included_in_blocks":
          [ "BMFbUdSQhqL8dGGpd7sr26jtczEi4KPX6YvVxAeF6KREnnqBeS8" ] },
      { "delegate": "tz1WnfXMPaNTBmH7DBPwqCWs9cPDJdkGBTZ8",
        "reception_time": "2022-01-16T07:39:37.650-00:00",
        "included_in_blocks":
          [ "BMFbUdSQhqL8dGGpd7sr26jtczEi4KPX6YvVxAeF6KREnnqBeS8" ] },
      { "delegate": "tz1MQMiZHV8q4tTwUMWmS5Y3kaP6J2136iXr",
        "reception_time": "2022-01-16T07:39:37.711-00:00",
        "included_in_blocks":
          [ "BMFbUdSQhqL8dGGpd7sr26jtczEi4KPX6YvVxAeF6KREnnqBeS8" ] },
      { "delegate": "tz3adcvQaKXTCg12zbninqo3q8ptKKtDFTLv",
        "reception_time": "2022-01-16T07:39:37.745-00:00",
        "included_in_blocks":
          [ "BMFbUdSQhqL8dGGpd7sr26jtczEi4KPX6YvVxAeF6KREnnqBeS8" ] },
      { "delegate": "tz1RCFbB9GpALpsZtu6J58sb74dm8qe6XBzv",
        "reception_time": "2022-01-16T07:39:37.840-00:00",
        "included_in_blocks":
          [ "BMFbUdSQhqL8dGGpd7sr26jtczEi4KPX6YvVxAeF6KREnnqBeS8" ] },
      { "delegate": "tz1aDiEJf9ztRrAJEXZfcG3CKimoKsGhwVAi",
        "reception_time": "2022-01-16T07:39:37.867-00:00",
        "included_in_blocks":
          [ "BMFbUdSQhqL8dGGpd7sr26jtczEi4KPX6YvVxAeF6KREnnqBeS8" ] },
      { "delegate": "tz1d6Fx42mYgVFnHUW8T8A7WBfJ6nD9pVok8",
        "reception_time": "2022-01-16T07:39:37.903-00:00",
        "included_in_blocks":
          [ "BMFbUdSQhqL8dGGpd7sr26jtczEi4KPX6YvVxAeF6KREnnqBeS8" ] },
      { "delegate": "tz1dwu9aYb7CRNq4Y2zAjipdjFuSVKhHS8vA",
        "reception_time": "2022-01-16T07:39:37.908-00:00",
        "included_in_blocks":
          [ "BMFbUdSQhqL8dGGpd7sr26jtczEi4KPX6YvVxAeF6KREnnqBeS8" ] },
      { "delegate": "tz1V4qCyvPKZ5UeqdH14HN42rxvNPQfc9UZg",
        "reception_time": "2022-01-16T07:39:37.939-00:00",
        "included_in_blocks":
          [ "BMFbUdSQhqL8dGGpd7sr26jtczEi4KPX6YvVxAeF6KREnnqBeS8" ] },
      { "delegate": "tz1bZ8vsMAXmaWEV7FRnyhcuUs2fYMaQ6Hkk",
        "reception_time": "2022-01-16T07:39:37.960-00:00",
        "included_in_blocks":
          [ "BMFbUdSQhqL8dGGpd7sr26jtczEi4KPX6YvVxAeF6KREnnqBeS8" ] },
      { "delegate": "tz1SYq214SCBy9naR6cvycQsYcUGpBqQAE8d",
        "reception_time": "2022-01-16T07:39:37.970-00:00",
        "included_in_blocks":
          [ "BMFbUdSQhqL8dGGpd7sr26jtczEi4KPX6YvVxAeF6KREnnqBeS8" ] },
      { "delegate": "tz1S8MNvuFEUsWgjHvi3AxibRBf388NhT1q2",
        "reception_time": "2022-01-16T07:39:37.978-00:00",
        "included_in_blocks":
          [ "BMFbUdSQhqL8dGGpd7sr26jtczEi4KPX6YvVxAeF6KREnnqBeS8" ] },
      { "delegate": "tz1MQJPGNMijnXnVoBENFz9rUhaPt3S7rWoz",
        "reception_time": "2022-01-16T07:39:37.999-00:00",
        "included_in_blocks":
          [ "BMFbUdSQhqL8dGGpd7sr26jtczEi4KPX6YvVxAeF6KREnnqBeS8" ] },
      { "delegate": "tz1gfArv665EUkSg2ojMBzcbfwuPxAvqPvjo",
        "reception_time": "2022-01-16T07:39:38.030-00:00",
        "included_in_blocks":
          [ "BMFbUdSQhqL8dGGpd7sr26jtczEi4KPX6YvVxAeF6KREnnqBeS8" ] },
      { "delegate": "tz1fwnfJNgiDACshK9avfRfFbMaXrs3ghoJa",
        "reception_time": "2022-01-16T07:39:38.190-00:00",
        "included_in_blocks":
          [ "BMFbUdSQhqL8dGGpd7sr26jtczEi4KPX6YvVxAeF6KREnnqBeS8" ] },
      { "delegate": "tz1ei4WtWEMEJekSv8qDnu9PExG6Q8HgRGr3",
        "reception_time": "2022-01-16T07:39:38.222-00:00",
        "included_in_blocks":
          [ "BMFbUdSQhqL8dGGpd7sr26jtczEi4KPX6YvVxAeF6KREnnqBeS8" ] },
      { "delegate": "tz1abmz7jiCV2GH2u81LRrGgAFFgvQgiDiaf",
        "reception_time": "2022-01-16T07:39:38.322-00:00",
        "included_in_blocks":
          [ "BMFbUdSQhqL8dGGpd7sr26jtczEi4KPX6YvVxAeF6KREnnqBeS8" ] },
      { "delegate": "tz1Tnjaxk6tbAeC2TmMApPh8UsrEVQvhHvx5",
        "reception_time": "2022-01-16T07:39:38.373-00:00",
        "included_in_blocks":
          [ "BMFbUdSQhqL8dGGpd7sr26jtczEi4KPX6YvVxAeF6KREnnqBeS8" ] },
      { "delegate": "tz3UoffC7FG7zfpmvmjUmUeAaHvzdcUvAj6r",
        "reception_time": "2022-01-16T07:39:38.481-00:00",
        "included_in_blocks":
          [ "BMFbUdSQhqL8dGGpd7sr26jtczEi4KPX6YvVxAeF6KREnnqBeS8" ] },
      { "delegate": "tz1TEc75UKXv4W5cwi14Na3NtqFD51yKQi7h",
        "reception_time": "2022-01-16T07:39:38.503-00:00",
        "included_in_blocks":
          [ "BMFbUdSQhqL8dGGpd7sr26jtczEi4KPX6YvVxAeF6KREnnqBeS8" ] },
      { "delegate": "tz1VceyYUpq1gk5dtp6jXQRtCtY8hm5DKt72",
        "reception_time": "2022-01-16T07:39:38.515-00:00",
        "included_in_blocks":
          [ "BMFbUdSQhqL8dGGpd7sr26jtczEi4KPX6YvVxAeF6KREnnqBeS8" ] },
      { "delegate": "tz1PeZx7FXy7QRuMREGXGxeipb24RsMMzUNe",
        "reception_time": "2022-01-16T07:39:38.533-00:00",
        "included_in_blocks":
          [ "BMFbUdSQhqL8dGGpd7sr26jtczEi4KPX6YvVxAeF6KREnnqBeS8" ] },
      { "delegate": "tz1Nf6tsK4G6bBqgSQERy4nUtkHNKUVdh7q1",
        "reception_time": "2022-01-16T07:39:38.638-00:00",
        "included_in_blocks":
          [ "BMFbUdSQhqL8dGGpd7sr26jtczEi4KPX6YvVxAeF6KREnnqBeS8" ] },
      { "delegate": "tz1TRqbYbUf2GyrjErf3hBzgBJPzW8y36qEs",
        "reception_time": "2022-01-16T07:39:38.687-00:00",
        "included_in_blocks":
          [ "BMFbUdSQhqL8dGGpd7sr26jtczEi4KPX6YvVxAeF6KREnnqBeS8" ] },
      { "delegate": "tz3NDpRj6WBrJPikcPVHRBEjWKxFw3c6eQPS",
        "reception_time": "2022-01-16T07:39:38.910-00:00",
        "included_in_blocks":
          [ "BMFbUdSQhqL8dGGpd7sr26jtczEi4KPX6YvVxAeF6KREnnqBeS8" ] },
      { "delegate": "tz1NEKxGEHsFufk87CVZcrqWu8o22qh46GK6",
        "reception_time": "2022-01-16T07:39:38.919-00:00",
        "included_in_blocks":
          [ "BMFbUdSQhqL8dGGpd7sr26jtczEi4KPX6YvVxAeF6KREnnqBeS8" ] },
      { "delegate": "tz3gLTu4Yxj8tPAcriQVUdxv6BY9QyvzU1az",
        "reception_time": "2022-01-16T07:39:38.927-00:00",
        "included_in_blocks":
          [ "BMFbUdSQhqL8dGGpd7sr26jtczEi4KPX6YvVxAeF6KREnnqBeS8" ] },
      { "delegate": "tz2FCNBrERXtaTtNX6iimR1UJ5JSDxvdHM93",
        "reception_time": "2022-01-16T07:39:38.973-00:00",
        "included_in_blocks":
          [ "BMFbUdSQhqL8dGGpd7sr26jtczEi4KPX6YvVxAeF6KREnnqBeS8" ] },
      { "delegate": "tz3VEZ4k6a4Wx42iyev6i2aVAptTRLEAivNN",
        "reception_time": "2022-01-16T07:39:39.037-00:00",
        "included_in_blocks":
          [ "BMFbUdSQhqL8dGGpd7sr26jtczEi4KPX6YvVxAeF6KREnnqBeS8" ] },
      { "delegate": "tz3bvNMQ95vfAYtG8193ymshqjSvmxiCUuR5",
        "reception_time": "2022-01-16T07:39:39.052-00:00",
        "included_in_blocks":
          [ "BMFbUdSQhqL8dGGpd7sr26jtczEi4KPX6YvVxAeF6KREnnqBeS8" ] },
      { "delegate": "tz1dNVDWPf3Q59SdJqnjdnu277iyvReiRS9M",
        "reception_time": "2022-01-16T07:39:39.103-00:00",
        "included_in_blocks":
          [ "BMFbUdSQhqL8dGGpd7sr26jtczEi4KPX6YvVxAeF6KREnnqBeS8" ] },
      { "delegate": "tz1cYufsxHXJcvANhvS55h3aY32a9BAFB494",
        "reception_time": "2022-01-16T07:39:39.287-00:00",
        "included_in_blocks":
          [ "BMFbUdSQhqL8dGGpd7sr26jtczEi4KPX6YvVxAeF6KREnnqBeS8" ] },
      { "delegate": "tz1awXW7wuXy21c66vBudMXQVAPgRnqqwgTH",
        "reception_time": "2022-01-16T07:39:39.371-00:00",
        "included_in_blocks":
          [ "BMFbUdSQhqL8dGGpd7sr26jtczEi4KPX6YvVxAeF6KREnnqBeS8" ] },
      { "delegate": "tz1aRoaRhSpRYvFdyvgWLL6TGyRoGF51wDjM",
        "reception_time": "2022-01-16T07:39:39.460-00:00",
        "included_in_blocks":
          [ "BMFbUdSQhqL8dGGpd7sr26jtczEi4KPX6YvVxAeF6KREnnqBeS8" ] },
      { "delegate": "tz3RDC3Jdn4j15J7bBHZd29EUee9gVB1CxD9",
        "reception_time": "2022-01-16T07:39:39.476-00:00",
        "included_in_blocks":
          [ "BMFbUdSQhqL8dGGpd7sr26jtczEi4KPX6YvVxAeF6KREnnqBeS8" ] },
      { "delegate": "tz3NExpXn9aPNZPorRE4SdjJ2RGrfbJgMAaV",
        "reception_time": "2022-01-16T07:39:39.664-00:00",
        "included_in_blocks":
          [ "BMFbUdSQhqL8dGGpd7sr26jtczEi4KPX6YvVxAeF6KREnnqBeS8" ] },
      { "delegate": "tz1dRKU4FQ9QRRQPdaH4zCR6gmCmXfcvcgtB",
        "reception_time": "2022-01-16T07:39:39.745-00:00",
        "included_in_blocks":
          [ "BMFbUdSQhqL8dGGpd7sr26jtczEi4KPX6YvVxAeF6KREnnqBeS8" ] },
      { "delegate": "tz3WMqdzXqRWXwyvj5Hp2H7QEepaUuS7vd9K",
        "reception_time": "2022-01-16T07:39:40.174-00:00",
        "included_in_blocks":
          [ "BMFbUdSQhqL8dGGpd7sr26jtczEi4KPX6YvVxAeF6KREnnqBeS8" ] },
      { "delegate": "tz1T7duV5gZWSTq4YpBGbXNLTfznCLDrFxvs",
        "reception_time": "2022-01-16T07:39:40.473-00:00",
        "included_in_blocks":
          [ "BMFbUdSQhqL8dGGpd7sr26jtczEi4KPX6YvVxAeF6KREnnqBeS8" ] } ] }