{ "blocks":
    [ { "hash": "BLeieVn2gRcfDRM1nes4mh3qGsdVBiksBMwPnUjcr1NRSX9hoir",
        "delegate": "tz1S8MNvuFEUsWgjHvi3AxibRBf388NhT1q2",
        "reception_time": "2022-01-16T13:21:35.682-00:00",
        "timestamp": "2022-01-16T13:21:30Z" } ],
  "endorsements":
    [ { "delegate": "tz1P2Po7YM526ughEsRbY4oR9zaUPDZjxFrb",
        "reception_time": "2022-01-16T13:21:35.579-00:00",
        "errors":
          [ { "kind": "temporary",
              "id": "proto.011-PtHangz2.prefilter.outdated_endorsement" } ],
        "included_in_blocks":
          [ "BLG8TGkmoKSj8Xo7SsR2qBQmzqVWGb89kYGvfQVjQUPxZCBDn7e" ] },
      { "delegate": "tz1ibcPVGK4Y8pcW4BYUsojiHoBKnZbyDGrX" },
      { "delegate": "tz1Lhf4J9Qxoe3DZ2nfe8FGDnvVj7oKjnMY6",
        "reception_time": "2022-01-16T13:21:37.011-00:00",
        "included_in_blocks":
          [ "BLG8TGkmoKSj8Xo7SsR2qBQmzqVWGb89kYGvfQVjQUPxZCBDn7e" ] },
      { "delegate": "tz1S8e9GgdZG78XJRB3NqabfWeM37GnhZMWQ",
        "reception_time": "2022-01-16T13:21:37.029-00:00",
        "included_in_blocks":
          [ "BLG8TGkmoKSj8Xo7SsR2qBQmzqVWGb89kYGvfQVjQUPxZCBDn7e" ] },
      { "delegate": "tz1Scdr2HsZiQjc7bHMeBbmDRXYVvdhjJbBh",
        "reception_time": "2022-01-16T13:21:37.037-00:00",
        "included_in_blocks":
          [ "BLG8TGkmoKSj8Xo7SsR2qBQmzqVWGb89kYGvfQVjQUPxZCBDn7e" ] },
      { "delegate": "tz1irJKkXS2DBWkU1NnmFQx1c1L7pbGg4yhk",
        "reception_time": "2022-01-16T13:21:37.037-00:00",
        "included_in_blocks":
          [ "BLG8TGkmoKSj8Xo7SsR2qBQmzqVWGb89kYGvfQVjQUPxZCBDn7e" ] },
      { "delegate": "tz1eEnQhbwf6trb8Q8mPb2RaPkNk2rN7BKi8",
        "reception_time": "2022-01-16T13:21:37.053-00:00",
        "included_in_blocks":
          [ "BLG8TGkmoKSj8Xo7SsR2qBQmzqVWGb89kYGvfQVjQUPxZCBDn7e" ] },
      { "delegate": "tz1beersuEDv8Z7ngQ825xfbaJNS2EhXnyHR",
        "reception_time": "2022-01-16T13:21:37.081-00:00",
        "included_in_blocks":
          [ "BLG8TGkmoKSj8Xo7SsR2qBQmzqVWGb89kYGvfQVjQUPxZCBDn7e" ] },
      { "delegate": "tz1MJx9vhaNRSimcuXPK2rW4fLccQnDAnVKJ",
        "reception_time": "2022-01-16T13:21:37.086-00:00",
        "included_in_blocks":
          [ "BLG8TGkmoKSj8Xo7SsR2qBQmzqVWGb89kYGvfQVjQUPxZCBDn7e" ] },
      { "delegate": "tz1S8MNvuFEUsWgjHvi3AxibRBf388NhT1q2",
        "reception_time": "2022-01-16T13:21:37.093-00:00",
        "included_in_blocks":
          [ "BLG8TGkmoKSj8Xo7SsR2qBQmzqVWGb89kYGvfQVjQUPxZCBDn7e" ] },
      { "delegate": "tz1gfArv665EUkSg2ojMBzcbfwuPxAvqPvjo",
        "reception_time": "2022-01-16T13:21:37.133-00:00",
        "included_in_blocks":
          [ "BLG8TGkmoKSj8Xo7SsR2qBQmzqVWGb89kYGvfQVjQUPxZCBDn7e" ] },
      { "delegate": "tz1MQJPGNMijnXnVoBENFz9rUhaPt3S7rWoz",
        "reception_time": "2022-01-16T13:21:37.142-00:00",
        "included_in_blocks":
          [ "BLG8TGkmoKSj8Xo7SsR2qBQmzqVWGb89kYGvfQVjQUPxZCBDn7e" ] },
      { "delegate": "tz1VmiY38m3y95HqQLjMwqnMS7sdMfGomzKi",
        "reception_time": "2022-01-16T13:21:37.148-00:00",
        "included_in_blocks":
          [ "BLG8TGkmoKSj8Xo7SsR2qBQmzqVWGb89kYGvfQVjQUPxZCBDn7e" ] },
      { "delegate": "tz1Ldzz6k1BHdhuKvAtMRX7h5kJSMHESMHLC",
        "reception_time": "2022-01-16T13:21:37.183-00:00",
        "included_in_blocks":
          [ "BLG8TGkmoKSj8Xo7SsR2qBQmzqVWGb89kYGvfQVjQUPxZCBDn7e" ] },
      { "delegate": "tz3QSGPoRp3Kn7n3vY24eYeu3Peuqo45LQ4D",
        "reception_time": "2022-01-16T13:21:37.196-00:00",
        "included_in_blocks":
          [ "BLG8TGkmoKSj8Xo7SsR2qBQmzqVWGb89kYGvfQVjQUPxZCBDn7e" ] },
      { "delegate": "tz3Zhs2dygr55yHyQyKjntAtY9bgfhLZ4Xj1",
        "reception_time": "2022-01-16T13:21:37.204-00:00",
        "included_in_blocks":
          [ "BLG8TGkmoKSj8Xo7SsR2qBQmzqVWGb89kYGvfQVjQUPxZCBDn7e" ] },
      { "delegate": "tz1TzaNn7wSQSP5gYPXCnNzBCpyMiidCq1PX",
        "reception_time": "2022-01-16T13:21:37.247-00:00",
        "included_in_blocks":
          [ "BLG8TGkmoKSj8Xo7SsR2qBQmzqVWGb89kYGvfQVjQUPxZCBDn7e" ] },
      { "delegate": "tz1RCFbB9GpALpsZtu6J58sb74dm8qe6XBzv",
        "reception_time": "2022-01-16T13:21:37.250-00:00",
        "included_in_blocks":
          [ "BLG8TGkmoKSj8Xo7SsR2qBQmzqVWGb89kYGvfQVjQUPxZCBDn7e" ] },
      { "delegate": "tz3RKYFsLuQzKBtmYuLNas7uMu3AsYd4QdsA",
        "reception_time": "2022-01-16T13:21:37.258-00:00",
        "included_in_blocks":
          [ "BLG8TGkmoKSj8Xo7SsR2qBQmzqVWGb89kYGvfQVjQUPxZCBDn7e" ] },
      { "delegate": "tz1fPKAtsYydh4f1wfWNfeNxWYu72TmM48fu",
        "reception_time": "2022-01-16T13:21:37.262-00:00",
        "included_in_blocks":
          [ "BLG8TGkmoKSj8Xo7SsR2qBQmzqVWGb89kYGvfQVjQUPxZCBDn7e" ] },
      { "delegate": "tz3hw2kqXhLUvY65ca1eety2oQTpAvd34R9Q",
        "reception_time": "2022-01-16T13:21:37.272-00:00",
        "included_in_blocks":
          [ "BLG8TGkmoKSj8Xo7SsR2qBQmzqVWGb89kYGvfQVjQUPxZCBDn7e" ] },
      { "delegate": "tz1MQMiZHV8q4tTwUMWmS5Y3kaP6J2136iXr",
        "reception_time": "2022-01-16T13:21:37.276-00:00",
        "included_in_blocks":
          [ "BLG8TGkmoKSj8Xo7SsR2qBQmzqVWGb89kYGvfQVjQUPxZCBDn7e" ] },
      { "delegate": "tz3iJu5vrKZcsqRPs8yJ61UDoeEXZmtro4qh",
        "reception_time": "2022-01-16T13:21:37.284-00:00",
        "included_in_blocks":
          [ "BLG8TGkmoKSj8Xo7SsR2qBQmzqVWGb89kYGvfQVjQUPxZCBDn7e" ] },
      { "delegate": "tz3gtoUxdudfBRcNY7iVdKPHCYYX6xdPpoRS",
        "reception_time": "2022-01-16T13:21:37.292-00:00",
        "included_in_blocks":
          [ "BLG8TGkmoKSj8Xo7SsR2qBQmzqVWGb89kYGvfQVjQUPxZCBDn7e" ] },
      { "delegate": "tz3ZbP2pM3nwvXztbuMJwJnDvV5xdpU8UkkD",
        "reception_time": "2022-01-16T13:21:37.301-00:00",
        "included_in_blocks":
          [ "BLG8TGkmoKSj8Xo7SsR2qBQmzqVWGb89kYGvfQVjQUPxZCBDn7e" ] },
      { "delegate": "tz1NSDFKuRyzHxpfG1AMkyCwEiZ52cbR2mRW",
        "reception_time": "2022-01-16T13:21:37.324-00:00",
        "included_in_blocks":
          [ "BLG8TGkmoKSj8Xo7SsR2qBQmzqVWGb89kYGvfQVjQUPxZCBDn7e" ] },
      { "delegate": "tz1Tnjaxk6tbAeC2TmMApPh8UsrEVQvhHvx5",
        "reception_time": "2022-01-16T13:21:37.342-00:00",
        "included_in_blocks":
          [ "BLG8TGkmoKSj8Xo7SsR2qBQmzqVWGb89kYGvfQVjQUPxZCBDn7e" ] },
      { "delegate": "tz3QT9dHYKDqh563chVa6za8526ys1UKfRfL",
        "reception_time": "2022-01-16T13:21:37.390-00:00",
        "included_in_blocks":
          [ "BLG8TGkmoKSj8Xo7SsR2qBQmzqVWGb89kYGvfQVjQUPxZCBDn7e" ] },
      { "delegate": "tz3S6BBeKgJGXxvLyZ1xzXzMPn11nnFtq5L9",
        "reception_time": "2022-01-16T13:21:37.397-00:00",
        "included_in_blocks":
          [ "BLG8TGkmoKSj8Xo7SsR2qBQmzqVWGb89kYGvfQVjQUPxZCBDn7e" ] },
      { "delegate": "tz1aqcYgG6NuViML5vdWhohHJBYxcDVLNUsE",
        "reception_time": "2022-01-16T13:21:37.402-00:00",
        "included_in_blocks":
          [ "BLG8TGkmoKSj8Xo7SsR2qBQmzqVWGb89kYGvfQVjQUPxZCBDn7e" ] },
      { "delegate": "tz1VQnqCCqX4K5sP3FNkVSNKTdCAMJDd3E1n",
        "reception_time": "2022-01-16T13:21:37.421-00:00",
        "included_in_blocks":
          [ "BLG8TGkmoKSj8Xo7SsR2qBQmzqVWGb89kYGvfQVjQUPxZCBDn7e" ] },
      { "delegate": "tz1gUNyn3hmnEWqkusWPzxRaon1cs7ndWh7h",
        "reception_time": "2022-01-16T13:21:37.425-00:00",
        "included_in_blocks":
          [ "BLG8TGkmoKSj8Xo7SsR2qBQmzqVWGb89kYGvfQVjQUPxZCBDn7e" ] },
      { "delegate": "tz1PWCDnz783NNGGQjEFFsHtrcK5yBW4E2rm",
        "reception_time": "2022-01-16T13:21:37.425-00:00",
        "included_in_blocks":
          [ "BLG8TGkmoKSj8Xo7SsR2qBQmzqVWGb89kYGvfQVjQUPxZCBDn7e" ] },
      { "delegate": "tz1ei4WtWEMEJekSv8qDnu9PExG6Q8HgRGr3",
        "reception_time": "2022-01-16T13:21:37.427-00:00",
        "included_in_blocks":
          [ "BLG8TGkmoKSj8Xo7SsR2qBQmzqVWGb89kYGvfQVjQUPxZCBDn7e" ] },
      { "delegate": "tz1fb7c66UwePkkfDXz4ajFaBP9hVNLdS7JJ",
        "reception_time": "2022-01-16T13:21:37.430-00:00",
        "included_in_blocks":
          [ "BLG8TGkmoKSj8Xo7SsR2qBQmzqVWGb89kYGvfQVjQUPxZCBDn7e" ] },
      { "delegate": "tz1UJvHTgpVzcKWhTazGxVcn5wsHru5Gietg",
        "reception_time": "2022-01-16T13:21:37.438-00:00",
        "included_in_blocks":
          [ "BLG8TGkmoKSj8Xo7SsR2qBQmzqVWGb89kYGvfQVjQUPxZCBDn7e" ] },
      { "delegate": "tz1aDiEJf9ztRrAJEXZfcG3CKimoKsGhwVAi",
        "reception_time": "2022-01-16T13:21:37.447-00:00",
        "included_in_blocks":
          [ "BLG8TGkmoKSj8Xo7SsR2qBQmzqVWGb89kYGvfQVjQUPxZCBDn7e" ] },
      { "delegate": "tz1KfEsrtDaA1sX7vdM4qmEPWuSytuqCDp5j",
        "reception_time": "2022-01-16T13:21:37.490-00:00",
        "included_in_blocks":
          [ "BLG8TGkmoKSj8Xo7SsR2qBQmzqVWGb89kYGvfQVjQUPxZCBDn7e" ] },
      { "delegate": "tz3WMqdzXqRWXwyvj5Hp2H7QEepaUuS7vd9K",
        "reception_time": "2022-01-16T13:21:37.551-00:00",
        "included_in_blocks":
          [ "BLG8TGkmoKSj8Xo7SsR2qBQmzqVWGb89kYGvfQVjQUPxZCBDn7e" ] },
      { "delegate": "tz3RDC3Jdn4j15J7bBHZd29EUee9gVB1CxD9",
        "reception_time": "2022-01-16T13:21:37.572-00:00",
        "included_in_blocks":
          [ "BLG8TGkmoKSj8Xo7SsR2qBQmzqVWGb89kYGvfQVjQUPxZCBDn7e" ] },
      { "delegate": "tz1N7fL6KvRzD5Umy7yeX5uBa5wFsC5veuN2",
        "reception_time": "2022-01-16T13:21:37.627-00:00",
        "included_in_blocks":
          [ "BLG8TGkmoKSj8Xo7SsR2qBQmzqVWGb89kYGvfQVjQUPxZCBDn7e" ] },
      { "delegate": "tz1LmaFsWRkjr7QMCx5PtV6xTUz3AmEpKQiF",
        "reception_time": "2022-01-16T13:21:37.713-00:00",
        "included_in_blocks":
          [ "BLG8TGkmoKSj8Xo7SsR2qBQmzqVWGb89kYGvfQVjQUPxZCBDn7e" ] },
      { "delegate": "tz3bTdwZinP8U1JmSweNzVKhmwafqWmFWRfk",
        "reception_time": "2022-01-16T13:21:37.775-00:00",
        "included_in_blocks":
          [ "BLG8TGkmoKSj8Xo7SsR2qBQmzqVWGb89kYGvfQVjQUPxZCBDn7e" ] },
      { "delegate": "tz3RB4aoyjov4KEVRbuhvQ1CKJgBJMWhaeB8",
        "reception_time": "2022-01-16T13:21:37.782-00:00",
        "included_in_blocks":
          [ "BLG8TGkmoKSj8Xo7SsR2qBQmzqVWGb89kYGvfQVjQUPxZCBDn7e" ] },
      { "delegate": "tz1SUgyRB8T5jXgXAwS33pgRHAKrafyg87Yc",
        "reception_time": "2022-01-16T13:21:37.810-00:00",
        "included_in_blocks":
          [ "BLG8TGkmoKSj8Xo7SsR2qBQmzqVWGb89kYGvfQVjQUPxZCBDn7e" ] },
      { "delegate": "tz1abmz7jiCV2GH2u81LRrGgAFFgvQgiDiaf",
        "reception_time": "2022-01-16T13:21:37.812-00:00",
        "included_in_blocks":
          [ "BLG8TGkmoKSj8Xo7SsR2qBQmzqVWGb89kYGvfQVjQUPxZCBDn7e" ] },
      { "delegate": "tz1NEKxGEHsFufk87CVZcrqWu8o22qh46GK6",
        "reception_time": "2022-01-16T13:21:37.865-00:00",
        "included_in_blocks":
          [ "BLG8TGkmoKSj8Xo7SsR2qBQmzqVWGb89kYGvfQVjQUPxZCBDn7e" ] },
      { "delegate": "tz1Nf6tsK4G6bBqgSQERy4nUtkHNKUVdh7q1",
        "reception_time": "2022-01-16T13:21:37.873-00:00",
        "included_in_blocks":
          [ "BLG8TGkmoKSj8Xo7SsR2qBQmzqVWGb89kYGvfQVjQUPxZCBDn7e" ] },
      { "delegate": "tz3VEZ4k6a4Wx42iyev6i2aVAptTRLEAivNN",
        "reception_time": "2022-01-16T13:21:37.886-00:00",
        "included_in_blocks":
          [ "BLG8TGkmoKSj8Xo7SsR2qBQmzqVWGb89kYGvfQVjQUPxZCBDn7e" ] },
      { "delegate": "tz1RQhNh7iB9CZA7i3ifTWNwiGYVffponfbB",
        "reception_time": "2022-01-16T13:21:37.978-00:00",
        "included_in_blocks":
          [ "BLG8TGkmoKSj8Xo7SsR2qBQmzqVWGb89kYGvfQVjQUPxZCBDn7e" ] },
      { "delegate": "tz1WBfwbT66FC6BTLexc2BoyCCBM9LG7pnVW",
        "reception_time": "2022-01-16T13:21:38.052-00:00",
        "included_in_blocks":
          [ "BLG8TGkmoKSj8Xo7SsR2qBQmzqVWGb89kYGvfQVjQUPxZCBDn7e" ] },
      { "delegate": "tz1SYq214SCBy9naR6cvycQsYcUGpBqQAE8d",
        "reception_time": "2022-01-16T13:21:38.119-00:00",
        "included_in_blocks":
          [ "BLG8TGkmoKSj8Xo7SsR2qBQmzqVWGb89kYGvfQVjQUPxZCBDn7e" ] },
      { "delegate": "tz1fwnfJNgiDACshK9avfRfFbMaXrs3ghoJa",
        "reception_time": "2022-01-16T13:21:38.122-00:00",
        "included_in_blocks":
          [ "BLG8TGkmoKSj8Xo7SsR2qBQmzqVWGb89kYGvfQVjQUPxZCBDn7e" ] },
      { "delegate": "tz2FCNBrERXtaTtNX6iimR1UJ5JSDxvdHM93",
        "reception_time": "2022-01-16T13:21:38.200-00:00",
        "included_in_blocks":
          [ "BLG8TGkmoKSj8Xo7SsR2qBQmzqVWGb89kYGvfQVjQUPxZCBDn7e" ] },
      { "delegate": "tz1dNVDWPf3Q59SdJqnjdnu277iyvReiRS9M",
        "reception_time": "2022-01-16T13:21:38.271-00:00",
        "included_in_blocks":
          [ "BLG8TGkmoKSj8Xo7SsR2qBQmzqVWGb89kYGvfQVjQUPxZCBDn7e" ] },
      { "delegate": "tz1VceyYUpq1gk5dtp6jXQRtCtY8hm5DKt72",
        "reception_time": "2022-01-16T13:21:38.346-00:00",
        "included_in_blocks":
          [ "BLG8TGkmoKSj8Xo7SsR2qBQmzqVWGb89kYGvfQVjQUPxZCBDn7e" ] },
      { "delegate": "tz1dKRZVcmJBVNvaAueUmqX42vVEaLb2MbA6",
        "reception_time": "2022-01-16T13:21:38.621-00:00",
        "included_in_blocks":
          [ "BLG8TGkmoKSj8Xo7SsR2qBQmzqVWGb89kYGvfQVjQUPxZCBDn7e" ] },
      { "delegate": "tz1awXW7wuXy21c66vBudMXQVAPgRnqqwgTH",
        "reception_time": "2022-01-16T13:21:38.749-00:00",
        "included_in_blocks":
          [ "BLG8TGkmoKSj8Xo7SsR2qBQmzqVWGb89kYGvfQVjQUPxZCBDn7e" ] },
      { "delegate": "tz3UoffC7FG7zfpmvmjUmUeAaHvzdcUvAj6r",
        "reception_time": "2022-01-16T13:21:38.765-00:00",
        "included_in_blocks":
          [ "BLG8TGkmoKSj8Xo7SsR2qBQmzqVWGb89kYGvfQVjQUPxZCBDn7e" ] },
      { "delegate": "tz1TRqbYbUf2GyrjErf3hBzgBJPzW8y36qEs",
        "reception_time": "2022-01-16T13:21:38.797-00:00",
        "included_in_blocks":
          [ "BLG8TGkmoKSj8Xo7SsR2qBQmzqVWGb89kYGvfQVjQUPxZCBDn7e" ] },
      { "delegate": "tz3NExpXn9aPNZPorRE4SdjJ2RGrfbJgMAaV",
        "reception_time": "2022-01-16T13:21:38.818-00:00",
        "included_in_blocks":
          [ "BLG8TGkmoKSj8Xo7SsR2qBQmzqVWGb89kYGvfQVjQUPxZCBDn7e" ] },
      { "delegate": "tz1f3Re8iw6Pt3KMHAvyccHxDU3NuqL95axD",
        "reception_time": "2022-01-16T13:21:38.823-00:00",
        "included_in_blocks":
          [ "BLG8TGkmoKSj8Xo7SsR2qBQmzqVWGb89kYGvfQVjQUPxZCBDn7e" ] },
      { "delegate": "tz3NDpRj6WBrJPikcPVHRBEjWKxFw3c6eQPS",
        "reception_time": "2022-01-16T13:21:38.945-00:00",
        "included_in_blocks":
          [ "BLG8TGkmoKSj8Xo7SsR2qBQmzqVWGb89kYGvfQVjQUPxZCBDn7e" ] },
      { "delegate": "tz1T7duV5gZWSTq4YpBGbXNLTfznCLDrFxvs",
        "reception_time": "2022-01-16T13:21:39.139-00:00",
        "included_in_blocks":
          [ "BLG8TGkmoKSj8Xo7SsR2qBQmzqVWGb89kYGvfQVjQUPxZCBDn7e" ] },
      { "delegate": "tz3bvNMQ95vfAYtG8193ymshqjSvmxiCUuR5",
        "reception_time": "2022-01-16T13:21:39.180-00:00",
        "included_in_blocks":
          [ "BLG8TGkmoKSj8Xo7SsR2qBQmzqVWGb89kYGvfQVjQUPxZCBDn7e" ] },
      { "delegate": "tz1g8vkmcde6sWKaG2NN9WKzCkDM6Rziq194",
        "reception_time": "2022-01-16T13:21:39.224-00:00",
        "included_in_blocks":
          [ "BLG8TGkmoKSj8Xo7SsR2qBQmzqVWGb89kYGvfQVjQUPxZCBDn7e" ] },
      { "delegate": "tz1aRoaRhSpRYvFdyvgWLL6TGyRoGF51wDjM",
        "reception_time": "2022-01-16T13:21:39.408-00:00",
        "included_in_blocks":
          [ "BLG8TGkmoKSj8Xo7SsR2qBQmzqVWGb89kYGvfQVjQUPxZCBDn7e" ] },
      { "delegate": "tz1QccGQsmt7WMnbVX9inJQgEuQGeMXddfjp",
        "reception_time": "2022-01-16T13:21:40.803-00:00",
        "included_in_blocks":
          [ "BLG8TGkmoKSj8Xo7SsR2qBQmzqVWGb89kYGvfQVjQUPxZCBDn7e" ] },
      { "delegate": "tz1NpWrAyDL9k2Lmnyxcgr9xuJakbBxdq7FB",
        "reception_time": "2022-01-16T13:21:47.402-00:00",
        "included_in_blocks":
          [ "BLG8TGkmoKSj8Xo7SsR2qBQmzqVWGb89kYGvfQVjQUPxZCBDn7e" ] },
      { "delegate": "tz3e7LbZvUtoXhpUD1yb6wuFodZpfYRb9nWJ",
        "reception_time": "2022-01-16T13:21:48.793-00:00",
        "included_in_blocks":
          [ "BLG8TGkmoKSj8Xo7SsR2qBQmzqVWGb89kYGvfQVjQUPxZCBDn7e" ] },
      { "delegate": "tz1TUByFyn9oCXd5c4wDrDekjhPfXtYn4cyb",
        "reception_time": "2022-01-16T13:21:55.799-00:00",
        "included_in_blocks":
          [ "BLG8TGkmoKSj8Xo7SsR2qBQmzqVWGb89kYGvfQVjQUPxZCBDn7e" ] } ] }