{ "blocks":
    [ { "hash": "BKvZXJeQj3V4QS8KD4k24ydTotczk9vYLqzZLLM2F7nMotDCAqP",
        "delegate": "tz1VQnqCCqX4K5sP3FNkVSNKTdCAMJDd3E1n",
        "reception_time": "2022-01-16T12:41:24.268-00:00",
        "timestamp": "2022-01-16T12:41:20Z" } ],
  "endorsements":
    [ { "delegate": "tz3bEQoFCZEEfZMskefZ8q8e4eiHH1pssRax" },
      { "delegate": "tz1RjoHc98dBoqaH2jawF62XNKh7YsHwbkEv" },
      { "delegate": "tz1R2KrxRcghJgjQdTrUPwwMKtT9RLMmAAJV",
        "reception_time": "2022-01-16T12:41:33.354-00:00",
        "included_in_blocks":
          [ "BLWTnDa2sGiY5u8SJWyXnZq6vWWQcdPpARxa2Z2U6gZqiGZbuBo" ] },
      { "delegate": "tz1TRqbYbUf2GyrjErf3hBzgBJPzW8y36qEs",
        "reception_time": "2022-01-16T12:41:27.729-00:00",
        "included_in_blocks":
          [ "BLWTnDa2sGiY5u8SJWyXnZq6vWWQcdPpARxa2Z2U6gZqiGZbuBo" ] },
      { "delegate": "tz1dRKU4FQ9QRRQPdaH4zCR6gmCmXfcvcgtB",
        "reception_time": "2022-01-16T12:41:27.784-00:00",
        "included_in_blocks":
          [ "BLWTnDa2sGiY5u8SJWyXnZq6vWWQcdPpARxa2Z2U6gZqiGZbuBo" ] },
      { "delegate": "tz1eVaNx3gCmG1EsLjijkmgAxdLYVf6Bf5Sq",
        "reception_time": "2022-01-16T12:41:27.604-00:00",
        "included_in_blocks":
          [ "BLWTnDa2sGiY5u8SJWyXnZq6vWWQcdPpARxa2Z2U6gZqiGZbuBo" ] },
      { "delegate": "tz1aRoaRhSpRYvFdyvgWLL6TGyRoGF51wDjM",
        "reception_time": "2022-01-16T12:41:27.599-00:00",
        "included_in_blocks":
          [ "BLWTnDa2sGiY5u8SJWyXnZq6vWWQcdPpARxa2Z2U6gZqiGZbuBo" ] },
      { "delegate": "tz1SYq214SCBy9naR6cvycQsYcUGpBqQAE8d",
        "reception_time": "2022-01-16T12:41:28.121-00:00",
        "included_in_blocks":
          [ "BLWTnDa2sGiY5u8SJWyXnZq6vWWQcdPpARxa2Z2U6gZqiGZbuBo" ] },
      { "delegate": "tz3NExpXn9aPNZPorRE4SdjJ2RGrfbJgMAaV",
        "reception_time": "2022-01-16T12:41:28.267-00:00",
        "included_in_blocks":
          [ "BLWTnDa2sGiY5u8SJWyXnZq6vWWQcdPpARxa2Z2U6gZqiGZbuBo" ] },
      { "delegate": "tz3bvNMQ95vfAYtG8193ymshqjSvmxiCUuR5",
        "reception_time": "2022-01-16T12:41:27.190-00:00",
        "included_in_blocks":
          [ "BLWTnDa2sGiY5u8SJWyXnZq6vWWQcdPpARxa2Z2U6gZqiGZbuBo" ] },
      { "delegate": "tz1WctSwL49BZtdWAQ75NY6vr4xsAx6oKdah",
        "reception_time": "2022-01-16T12:41:27.318-00:00",
        "included_in_blocks":
          [ "BLWTnDa2sGiY5u8SJWyXnZq6vWWQcdPpARxa2Z2U6gZqiGZbuBo" ] },
      { "delegate": "tz3RDC3Jdn4j15J7bBHZd29EUee9gVB1CxD9",
        "reception_time": "2022-01-16T12:41:27.312-00:00",
        "included_in_blocks":
          [ "BLWTnDa2sGiY5u8SJWyXnZq6vWWQcdPpARxa2Z2U6gZqiGZbuBo" ] },
      { "delegate": "tz1d4G4MdmfJWUzu8X4SJUTKjx4Ns6TUR9gR",
        "reception_time": "2022-01-16T12:41:26.985-00:00",
        "included_in_blocks":
          [ "BLWTnDa2sGiY5u8SJWyXnZq6vWWQcdPpARxa2Z2U6gZqiGZbuBo" ] },
      { "delegate": "tz3gLTu4Yxj8tPAcriQVUdxv6BY9QyvzU1az",
        "reception_time": "2022-01-16T12:41:27.168-00:00",
        "included_in_blocks":
          [ "BLWTnDa2sGiY5u8SJWyXnZq6vWWQcdPpARxa2Z2U6gZqiGZbuBo" ] },
      { "delegate": "tz3NDpRj6WBrJPikcPVHRBEjWKxFw3c6eQPS",
        "reception_time": "2022-01-16T12:41:27.202-00:00",
        "included_in_blocks":
          [ "BLWTnDa2sGiY5u8SJWyXnZq6vWWQcdPpARxa2Z2U6gZqiGZbuBo" ] },
      { "delegate": "tz3UoffC7FG7zfpmvmjUmUeAaHvzdcUvAj6r",
        "reception_time": "2022-01-16T12:41:28.099-00:00",
        "included_in_blocks":
          [ "BLWTnDa2sGiY5u8SJWyXnZq6vWWQcdPpARxa2Z2U6gZqiGZbuBo" ] },
      { "delegate": "tz1dNVDWPf3Q59SdJqnjdnu277iyvReiRS9M",
        "reception_time": "2022-01-16T12:41:27.133-00:00",
        "included_in_blocks":
          [ "BLWTnDa2sGiY5u8SJWyXnZq6vWWQcdPpARxa2Z2U6gZqiGZbuBo" ] },
      { "delegate": "tz1PeZx7FXy7QRuMREGXGxeipb24RsMMzUNe",
        "reception_time": "2022-01-16T12:41:26.629-00:00",
        "included_in_blocks":
          [ "BLWTnDa2sGiY5u8SJWyXnZq6vWWQcdPpARxa2Z2U6gZqiGZbuBo" ] },
      { "delegate": "tz1R4PuhxUxBBZhfLJDx2nNjbr7WorAPX1oC",
        "reception_time": "2022-01-16T12:41:26.681-00:00",
        "included_in_blocks":
          [ "BLWTnDa2sGiY5u8SJWyXnZq6vWWQcdPpARxa2Z2U6gZqiGZbuBo" ] },
      { "delegate": "tz2FCNBrERXtaTtNX6iimR1UJ5JSDxvdHM93",
        "reception_time": "2022-01-16T12:41:26.686-00:00",
        "included_in_blocks":
          [ "BLWTnDa2sGiY5u8SJWyXnZq6vWWQcdPpARxa2Z2U6gZqiGZbuBo" ] },
      { "delegate": "tz1axcnVN9tZnCe4sQQhC6f3tfSEXdjPaXPY",
        "reception_time": "2022-01-16T12:41:26.604-00:00",
        "included_in_blocks":
          [ "BLWTnDa2sGiY5u8SJWyXnZq6vWWQcdPpARxa2Z2U6gZqiGZbuBo" ] },
      { "delegate": "tz1NEKxGEHsFufk87CVZcrqWu8o22qh46GK6",
        "reception_time": "2022-01-16T12:41:27.210-00:00",
        "included_in_blocks":
          [ "BLWTnDa2sGiY5u8SJWyXnZq6vWWQcdPpARxa2Z2U6gZqiGZbuBo" ] },
      { "delegate": "tz3VEZ4k6a4Wx42iyev6i2aVAptTRLEAivNN",
        "reception_time": "2022-01-16T12:41:27.451-00:00",
        "included_in_blocks":
          [ "BLWTnDa2sGiY5u8SJWyXnZq6vWWQcdPpARxa2Z2U6gZqiGZbuBo" ] },
      { "delegate": "tz3QCNyySViKHmeSr45kzDxzchys7NiXCWoa",
        "reception_time": "2022-01-16T12:41:26.492-00:00",
        "included_in_blocks":
          [ "BLWTnDa2sGiY5u8SJWyXnZq6vWWQcdPpARxa2Z2U6gZqiGZbuBo" ] },
      { "delegate": "tz1abmz7jiCV2GH2u81LRrGgAFFgvQgiDiaf",
        "reception_time": "2022-01-16T12:41:26.401-00:00",
        "included_in_blocks":
          [ "BLWTnDa2sGiY5u8SJWyXnZq6vWWQcdPpARxa2Z2U6gZqiGZbuBo" ] },
      { "delegate": "tz1aJ8wxNeVRYbbx5YqzurmYzwKzkS96rHP4",
        "reception_time": "2022-01-16T12:41:26.476-00:00",
        "included_in_blocks":
          [ "BLWTnDa2sGiY5u8SJWyXnZq6vWWQcdPpARxa2Z2U6gZqiGZbuBo" ] },
      { "delegate": "tz1TEc75UKXv4W5cwi14Na3NtqFD51yKQi7h",
        "reception_time": "2022-01-16T12:41:26.479-00:00",
        "included_in_blocks":
          [ "BLWTnDa2sGiY5u8SJWyXnZq6vWWQcdPpARxa2Z2U6gZqiGZbuBo" ] },
      { "delegate": "tz1c8TSSGtVtg7ANrNVY7G4KnLn7iKdRnUVk",
        "reception_time": "2022-01-16T12:41:27.288-00:00",
        "included_in_blocks":
          [ "BLWTnDa2sGiY5u8SJWyXnZq6vWWQcdPpARxa2Z2U6gZqiGZbuBo" ] },
      { "delegate": "tz1ei4WtWEMEJekSv8qDnu9PExG6Q8HgRGr3",
        "reception_time": "2022-01-16T12:41:26.293-00:00",
        "included_in_blocks":
          [ "BLWTnDa2sGiY5u8SJWyXnZq6vWWQcdPpARxa2Z2U6gZqiGZbuBo" ] },
      { "delegate": "tz1Nf6tsK4G6bBqgSQERy4nUtkHNKUVdh7q1",
        "reception_time": "2022-01-16T12:41:26.091-00:00",
        "included_in_blocks":
          [ "BLWTnDa2sGiY5u8SJWyXnZq6vWWQcdPpARxa2Z2U6gZqiGZbuBo" ] },
      { "delegate": "tz1g8vkmcde6sWKaG2NN9WKzCkDM6Rziq194",
        "reception_time": "2022-01-16T12:41:26.011-00:00",
        "included_in_blocks":
          [ "BLWTnDa2sGiY5u8SJWyXnZq6vWWQcdPpARxa2Z2U6gZqiGZbuBo" ] },
      { "delegate": "tz1MH387oMRFco3kzz8t3wuqdbpAyTcKZtsg",
        "reception_time": "2022-01-16T12:41:26.463-00:00",
        "included_in_blocks":
          [ "BLWTnDa2sGiY5u8SJWyXnZq6vWWQcdPpARxa2Z2U6gZqiGZbuBo" ] },
      { "delegate": "tz1dwu9aYb7CRNq4Y2zAjipdjFuSVKhHS8vA",
        "reception_time": "2022-01-16T12:41:25.960-00:00",
        "included_in_blocks":
          [ "BLWTnDa2sGiY5u8SJWyXnZq6vWWQcdPpARxa2Z2U6gZqiGZbuBo" ] },
      { "delegate": "tz1XX67xSF2ou3aQZ6LhXaaxZWDR3YZ6hCMs",
        "reception_time": "2022-01-16T12:41:25.969-00:00",
        "included_in_blocks":
          [ "BLWTnDa2sGiY5u8SJWyXnZq6vWWQcdPpARxa2Z2U6gZqiGZbuBo" ] },
      { "delegate": "tz3bTdwZinP8U1JmSweNzVKhmwafqWmFWRfk",
        "reception_time": "2022-01-16T12:41:26.065-00:00",
        "included_in_blocks":
          [ "BLWTnDa2sGiY5u8SJWyXnZq6vWWQcdPpARxa2Z2U6gZqiGZbuBo" ] },
      { "delegate": "tz3RB4aoyjov4KEVRbuhvQ1CKJgBJMWhaeB8",
        "reception_time": "2022-01-16T12:41:26.046-00:00",
        "included_in_blocks":
          [ "BLWTnDa2sGiY5u8SJWyXnZq6vWWQcdPpARxa2Z2U6gZqiGZbuBo" ] },
      { "delegate": "tz1V4qCyvPKZ5UeqdH14HN42rxvNPQfc9UZg",
        "reception_time": "2022-01-16T12:41:26.068-00:00",
        "included_in_blocks":
          [ "BLWTnDa2sGiY5u8SJWyXnZq6vWWQcdPpARxa2Z2U6gZqiGZbuBo" ] },
      { "delegate": "tz1gfArv665EUkSg2ojMBzcbfwuPxAvqPvjo",
        "reception_time": "2022-01-16T12:41:25.872-00:00",
        "included_in_blocks":
          [ "BLWTnDa2sGiY5u8SJWyXnZq6vWWQcdPpARxa2Z2U6gZqiGZbuBo" ] },
      { "delegate": "tz3WMqdzXqRWXwyvj5Hp2H7QEepaUuS7vd9K",
        "reception_time": "2022-01-16T12:41:26.977-00:00",
        "included_in_blocks":
          [ "BLWTnDa2sGiY5u8SJWyXnZq6vWWQcdPpARxa2Z2U6gZqiGZbuBo" ] },
      { "delegate": "tz3QSGPoRp3Kn7n3vY24eYeu3Peuqo45LQ4D",
        "reception_time": "2022-01-16T12:41:25.383-00:00",
        "included_in_blocks":
          [ "BLWTnDa2sGiY5u8SJWyXnZq6vWWQcdPpARxa2Z2U6gZqiGZbuBo" ] },
      { "delegate": "tz1WCd2jm4uSt4vntk4vSuUWoZQGhLcDuR9q",
        "reception_time": "2022-01-16T12:41:25.609-00:00",
        "included_in_blocks":
          [ "BLWTnDa2sGiY5u8SJWyXnZq6vWWQcdPpARxa2Z2U6gZqiGZbuBo" ] },
      { "delegate": "tz3S6BBeKgJGXxvLyZ1xzXzMPn11nnFtq5L9",
        "reception_time": "2022-01-16T12:41:25.520-00:00",
        "included_in_blocks":
          [ "BLWTnDa2sGiY5u8SJWyXnZq6vWWQcdPpARxa2Z2U6gZqiGZbuBo" ] },
      { "delegate": "tz3gtoUxdudfBRcNY7iVdKPHCYYX6xdPpoRS",
        "reception_time": "2022-01-16T12:41:25.504-00:00",
        "included_in_blocks":
          [ "BLWTnDa2sGiY5u8SJWyXnZq6vWWQcdPpARxa2Z2U6gZqiGZbuBo" ] },
      { "delegate": "tz1VmiY38m3y95HqQLjMwqnMS7sdMfGomzKi",
        "reception_time": "2022-01-16T12:41:25.428-00:00",
        "included_in_blocks":
          [ "BLWTnDa2sGiY5u8SJWyXnZq6vWWQcdPpARxa2Z2U6gZqiGZbuBo" ] },
      { "delegate": "tz3QT9dHYKDqh563chVa6za8526ys1UKfRfL",
        "reception_time": "2022-01-16T12:41:25.471-00:00",
        "included_in_blocks":
          [ "BLWTnDa2sGiY5u8SJWyXnZq6vWWQcdPpARxa2Z2U6gZqiGZbuBo" ] },
      { "delegate": "tz1KfEsrtDaA1sX7vdM4qmEPWuSytuqCDp5j",
        "reception_time": "2022-01-16T12:41:26.131-00:00",
        "included_in_blocks":
          [ "BLWTnDa2sGiY5u8SJWyXnZq6vWWQcdPpARxa2Z2U6gZqiGZbuBo" ] },
      { "delegate": "tz1aXD7Jigrt3PBYSpHSg5Rr33SexMmmM5Ys",
        "reception_time": "2022-01-16T12:41:25.520-00:00",
        "included_in_blocks":
          [ "BLWTnDa2sGiY5u8SJWyXnZq6vWWQcdPpARxa2Z2U6gZqiGZbuBo" ] },
      { "delegate": "tz1Ldzz6k1BHdhuKvAtMRX7h5kJSMHESMHLC",
        "reception_time": "2022-01-16T12:41:25.306-00:00",
        "included_in_blocks":
          [ "BLWTnDa2sGiY5u8SJWyXnZq6vWWQcdPpARxa2Z2U6gZqiGZbuBo" ] },
      { "delegate": "tz1UJvHTgpVzcKWhTazGxVcn5wsHru5Gietg",
        "reception_time": "2022-01-16T12:41:25.475-00:00",
        "included_in_blocks":
          [ "BLWTnDa2sGiY5u8SJWyXnZq6vWWQcdPpARxa2Z2U6gZqiGZbuBo" ] },
      { "delegate": "tz1TzaNn7wSQSP5gYPXCnNzBCpyMiidCq1PX",
        "reception_time": "2022-01-16T12:41:25.157-00:00",
        "included_in_blocks":
          [ "BLWTnDa2sGiY5u8SJWyXnZq6vWWQcdPpARxa2Z2U6gZqiGZbuBo" ] },
      { "delegate": "tz3RKYFsLuQzKBtmYuLNas7uMu3AsYd4QdsA",
        "reception_time": "2022-01-16T12:41:25.399-00:00",
        "included_in_blocks":
          [ "BLWTnDa2sGiY5u8SJWyXnZq6vWWQcdPpARxa2Z2U6gZqiGZbuBo" ] },
      { "delegate": "tz3hw2kqXhLUvY65ca1eety2oQTpAvd34R9Q",
        "reception_time": "2022-01-16T12:41:25.354-00:00",
        "included_in_blocks":
          [ "BLWTnDa2sGiY5u8SJWyXnZq6vWWQcdPpARxa2Z2U6gZqiGZbuBo" ] },
      { "delegate": "tz3iJu5vrKZcsqRPs8yJ61UDoeEXZmtro4qh",
        "reception_time": "2022-01-16T12:41:25.284-00:00",
        "included_in_blocks":
          [ "BLWTnDa2sGiY5u8SJWyXnZq6vWWQcdPpARxa2Z2U6gZqiGZbuBo" ] },
      { "delegate": "tz3NxTnke1acr8o3h5y9ytf5awQBGNJUKzVU",
        "reception_time": "2022-01-16T12:41:25.248-00:00",
        "included_in_blocks":
          [ "BLWTnDa2sGiY5u8SJWyXnZq6vWWQcdPpARxa2Z2U6gZqiGZbuBo" ] },
      { "delegate": "tz3ZbP2pM3nwvXztbuMJwJnDvV5xdpU8UkkD",
        "reception_time": "2022-01-16T12:41:25.299-00:00",
        "included_in_blocks":
          [ "BLWTnDa2sGiY5u8SJWyXnZq6vWWQcdPpARxa2Z2U6gZqiGZbuBo" ] },
      { "delegate": "tz3Zhs2dygr55yHyQyKjntAtY9bgfhLZ4Xj1",
        "reception_time": "2022-01-16T12:41:25.214-00:00",
        "included_in_blocks":
          [ "BLWTnDa2sGiY5u8SJWyXnZq6vWWQcdPpARxa2Z2U6gZqiGZbuBo" ] },
      { "delegate": "tz1YhNsiRRU8aHNGg7NK3uuP6UDAyacJernB",
        "reception_time": "2022-01-16T12:41:25.399-00:00",
        "included_in_blocks":
          [ "BLWTnDa2sGiY5u8SJWyXnZq6vWWQcdPpARxa2Z2U6gZqiGZbuBo" ] },
      { "delegate": "tz1irJKkXS2DBWkU1NnmFQx1c1L7pbGg4yhk",
        "reception_time": "2022-01-16T12:41:24.981-00:00",
        "included_in_blocks":
          [ "BLWTnDa2sGiY5u8SJWyXnZq6vWWQcdPpARxa2Z2U6gZqiGZbuBo" ] },
      { "delegate": "tz1S8MNvuFEUsWgjHvi3AxibRBf388NhT1q2",
        "reception_time": "2022-01-16T12:41:25.954-00:00",
        "included_in_blocks":
          [ "BLWTnDa2sGiY5u8SJWyXnZq6vWWQcdPpARxa2Z2U6gZqiGZbuBo" ] },
      { "delegate": "tz1eEnQhbwf6trb8Q8mPb2RaPkNk2rN7BKi8",
        "reception_time": "2022-01-16T12:41:24.931-00:00",
        "included_in_blocks":
          [ "BLWTnDa2sGiY5u8SJWyXnZq6vWWQcdPpARxa2Z2U6gZqiGZbuBo" ] },
      { "delegate": "tz1RCFbB9GpALpsZtu6J58sb74dm8qe6XBzv",
        "reception_time": "2022-01-16T12:41:25.479-00:00",
        "included_in_blocks":
          [ "BLWTnDa2sGiY5u8SJWyXnZq6vWWQcdPpARxa2Z2U6gZqiGZbuBo" ] },
      { "delegate": "tz1TXzyaKUA8wsWefdSnyaYFnV2M3vCV7er9",
        "reception_time": "2022-01-16T12:41:24.925-00:00",
        "included_in_blocks":
          [ "BLWTnDa2sGiY5u8SJWyXnZq6vWWQcdPpARxa2Z2U6gZqiGZbuBo" ] },
      { "delegate": "tz1TRspM5SeZpaQUhzByXbEvqKF1vnCM2YTK",
        "reception_time": "2022-01-16T12:41:24.923-00:00",
        "included_in_blocks":
          [ "BLWTnDa2sGiY5u8SJWyXnZq6vWWQcdPpARxa2Z2U6gZqiGZbuBo" ] },
      { "delegate": "tz1RV1MBbZMR68tacosb7Mwj6LkbPSUS1er1",
        "reception_time": "2022-01-16T12:41:24.928-00:00",
        "included_in_blocks":
          [ "BLWTnDa2sGiY5u8SJWyXnZq6vWWQcdPpARxa2Z2U6gZqiGZbuBo" ] },
      { "delegate": "tz1P2Po7YM526ughEsRbY4oR9zaUPDZjxFrb",
        "reception_time": "2022-01-16T12:41:24.910-00:00",
        "included_in_blocks":
          [ "BLWTnDa2sGiY5u8SJWyXnZq6vWWQcdPpARxa2Z2U6gZqiGZbuBo" ] },
      { "delegate": "tz1VQnqCCqX4K5sP3FNkVSNKTdCAMJDd3E1n",
        "reception_time": "2022-01-16T12:41:24.917-00:00",
        "included_in_blocks":
          [ "BLWTnDa2sGiY5u8SJWyXnZq6vWWQcdPpARxa2Z2U6gZqiGZbuBo" ] },
      { "delegate": "tz1Scdr2HsZiQjc7bHMeBbmDRXYVvdhjJbBh",
        "reception_time": "2022-01-16T12:41:24.914-00:00",
        "included_in_blocks":
          [ "BLWTnDa2sGiY5u8SJWyXnZq6vWWQcdPpARxa2Z2U6gZqiGZbuBo" ] },
      { "delegate": "tz1gUNyn3hmnEWqkusWPzxRaon1cs7ndWh7h",
        "reception_time": "2022-01-16T12:41:24.920-00:00",
        "included_in_blocks":
          [ "BLWTnDa2sGiY5u8SJWyXnZq6vWWQcdPpARxa2Z2U6gZqiGZbuBo" ] } ] }