{ "blocks":
    [ { "hash": "BMHtvzRrgfaF2pnwMVxVAKFnVGLrkVZtF2gicnVQWN3MntxxxZ8",
        "delegate": "tz3UoffC7FG7zfpmvmjUmUeAaHvzdcUvAj6r",
        "reception_time": "2022-01-16T10:32:59.721-00:00",
        "timestamp": "2022-01-16T10:32:50Z" } ],
  "endorsements":
    [ { "delegate": "tz1S8e9GgdZG78XJRB3NqabfWeM37GnhZMWQ",
        "reception_time": "2022-01-16T10:32:59.483-00:00",
        "errors":
          [ { "kind": "temporary",
              "id": "proto.011-PtHangz2.prefilter.outdated_endorsement" } ],
        "included_in_blocks":
          [ "BKyeKQwp5vin1JUQyt8ZrRGn2b4fPtrXBAodfvtYTM16KTB9u2S" ] },
      { "delegate": "tz1P2Po7YM526ughEsRbY4oR9zaUPDZjxFrb",
        "reception_time": "2022-01-16T10:32:59.379-00:00",
        "errors":
          [ { "kind": "temporary",
              "id": "proto.011-PtHangz2.prefilter.outdated_endorsement" } ],
        "included_in_blocks":
          [ "BKyeKQwp5vin1JUQyt8ZrRGn2b4fPtrXBAodfvtYTM16KTB9u2S" ] },
      { "delegate": "tz1dbfppLAAxXZNtf2SDps7rch3qfUznKSoK" },
      { "delegate": "tz1gUNyn3hmnEWqkusWPzxRaon1cs7ndWh7h",
        "reception_time": "2022-01-16T10:33:00.791-00:00",
        "included_in_blocks":
          [ "BKyeKQwp5vin1JUQyt8ZrRGn2b4fPtrXBAodfvtYTM16KTB9u2S" ] },
      { "delegate": "tz1TXzyaKUA8wsWefdSnyaYFnV2M3vCV7er9",
        "reception_time": "2022-01-16T10:33:00.791-00:00",
        "included_in_blocks":
          [ "BKyeKQwp5vin1JUQyt8ZrRGn2b4fPtrXBAodfvtYTM16KTB9u2S" ] },
      { "delegate": "tz1Kf25fX1VdmYGSEzwFy1wNmkbSEZ2V83sY",
        "reception_time": "2022-01-16T10:33:00.791-00:00",
        "included_in_blocks":
          [ "BKyeKQwp5vin1JUQyt8ZrRGn2b4fPtrXBAodfvtYTM16KTB9u2S" ] },
      { "delegate": "tz1Scdr2HsZiQjc7bHMeBbmDRXYVvdhjJbBh",
        "reception_time": "2022-01-16T10:33:00.791-00:00",
        "included_in_blocks":
          [ "BKyeKQwp5vin1JUQyt8ZrRGn2b4fPtrXBAodfvtYTM16KTB9u2S" ] },
      { "delegate": "tz1irJKkXS2DBWkU1NnmFQx1c1L7pbGg4yhk",
        "reception_time": "2022-01-16T10:33:00.791-00:00",
        "included_in_blocks":
          [ "BKyeKQwp5vin1JUQyt8ZrRGn2b4fPtrXBAodfvtYTM16KTB9u2S" ] },
      { "delegate": "tz1VQnqCCqX4K5sP3FNkVSNKTdCAMJDd3E1n",
        "reception_time": "2022-01-16T10:33:00.791-00:00",
        "included_in_blocks":
          [ "BKyeKQwp5vin1JUQyt8ZrRGn2b4fPtrXBAodfvtYTM16KTB9u2S" ] },
      { "delegate": "tz1eEnQhbwf6trb8Q8mPb2RaPkNk2rN7BKi8",
        "reception_time": "2022-01-16T10:33:00.791-00:00",
        "included_in_blocks":
          [ "BKyeKQwp5vin1JUQyt8ZrRGn2b4fPtrXBAodfvtYTM16KTB9u2S" ] },
      { "delegate": "tz1STeamwbp68THcny9zk3LsbG3H36DMvbRK",
        "reception_time": "2022-01-16T10:33:00.791-00:00",
        "included_in_blocks":
          [ "BKyeKQwp5vin1JUQyt8ZrRGn2b4fPtrXBAodfvtYTM16KTB9u2S" ] },
      { "delegate": "tz1ZPh7XfUaJXUDvkrBxmS1BjEM1i62hiPpM",
        "reception_time": "2022-01-16T10:33:00.791-00:00",
        "included_in_blocks":
          [ "BKyeKQwp5vin1JUQyt8ZrRGn2b4fPtrXBAodfvtYTM16KTB9u2S" ] },
      { "delegate": "tz1Ldzz6k1BHdhuKvAtMRX7h5kJSMHESMHLC",
        "reception_time": "2022-01-16T10:33:00.791-00:00",
        "included_in_blocks":
          [ "BKyeKQwp5vin1JUQyt8ZrRGn2b4fPtrXBAodfvtYTM16KTB9u2S" ] },
      { "delegate": "tz1S8MNvuFEUsWgjHvi3AxibRBf388NhT1q2",
        "reception_time": "2022-01-16T10:33:00.791-00:00",
        "included_in_blocks":
          [ "BKyeKQwp5vin1JUQyt8ZrRGn2b4fPtrXBAodfvtYTM16KTB9u2S" ] },
      { "delegate": "tz1fPKAtsYydh4f1wfWNfeNxWYu72TmM48fu",
        "reception_time": "2022-01-16T10:33:00.791-00:00",
        "included_in_blocks":
          [ "BKyeKQwp5vin1JUQyt8ZrRGn2b4fPtrXBAodfvtYTM16KTB9u2S" ] },
      { "delegate": "tz3NxTnke1acr8o3h5y9ytf5awQBGNJUKzVU",
        "reception_time": "2022-01-16T10:33:00.791-00:00",
        "included_in_blocks":
          [ "BKyeKQwp5vin1JUQyt8ZrRGn2b4fPtrXBAodfvtYTM16KTB9u2S" ] },
      { "delegate": "tz3ZbP2pM3nwvXztbuMJwJnDvV5xdpU8UkkD",
        "reception_time": "2022-01-16T10:33:00.791-00:00",
        "included_in_blocks":
          [ "BKyeKQwp5vin1JUQyt8ZrRGn2b4fPtrXBAodfvtYTM16KTB9u2S" ] },
      { "delegate": "tz1aXD7Jigrt3PBYSpHSg5Rr33SexMmmM5Ys",
        "reception_time": "2022-01-16T10:33:01.092-00:00",
        "included_in_blocks":
          [ "BKyeKQwp5vin1JUQyt8ZrRGn2b4fPtrXBAodfvtYTM16KTB9u2S" ] },
      { "delegate": "tz3QSGPoRp3Kn7n3vY24eYeu3Peuqo45LQ4D",
        "reception_time": "2022-01-16T10:33:01.092-00:00",
        "included_in_blocks":
          [ "BKyeKQwp5vin1JUQyt8ZrRGn2b4fPtrXBAodfvtYTM16KTB9u2S" ] },
      { "delegate": "tz3gtoUxdudfBRcNY7iVdKPHCYYX6xdPpoRS",
        "reception_time": "2022-01-16T10:33:01.092-00:00",
        "included_in_blocks":
          [ "BKyeKQwp5vin1JUQyt8ZrRGn2b4fPtrXBAodfvtYTM16KTB9u2S" ] },
      { "delegate": "tz1LmaFsWRkjr7QMCx5PtV6xTUz3AmEpKQiF",
        "reception_time": "2022-01-16T10:33:01.092-00:00",
        "included_in_blocks":
          [ "BKyeKQwp5vin1JUQyt8ZrRGn2b4fPtrXBAodfvtYTM16KTB9u2S" ] },
      { "delegate": "tz1VmiY38m3y95HqQLjMwqnMS7sdMfGomzKi",
        "reception_time": "2022-01-16T10:33:01.092-00:00",
        "included_in_blocks":
          [ "BKyeKQwp5vin1JUQyt8ZrRGn2b4fPtrXBAodfvtYTM16KTB9u2S" ] },
      { "delegate": "tz3RKYFsLuQzKBtmYuLNas7uMu3AsYd4QdsA",
        "reception_time": "2022-01-16T10:33:01.092-00:00",
        "included_in_blocks":
          [ "BKyeKQwp5vin1JUQyt8ZrRGn2b4fPtrXBAodfvtYTM16KTB9u2S" ] },
      { "delegate": "tz3hw2kqXhLUvY65ca1eety2oQTpAvd34R9Q",
        "reception_time": "2022-01-16T10:33:01.092-00:00",
        "included_in_blocks":
          [ "BKyeKQwp5vin1JUQyt8ZrRGn2b4fPtrXBAodfvtYTM16KTB9u2S" ] },
      { "delegate": "tz3iJu5vrKZcsqRPs8yJ61UDoeEXZmtro4qh",
        "reception_time": "2022-01-16T10:33:01.140-00:00",
        "included_in_blocks":
          [ "BKyeKQwp5vin1JUQyt8ZrRGn2b4fPtrXBAodfvtYTM16KTB9u2S" ] },
      { "delegate": "tz3Zhs2dygr55yHyQyKjntAtY9bgfhLZ4Xj1",
        "reception_time": "2022-01-16T10:33:01.148-00:00",
        "included_in_blocks":
          [ "BKyeKQwp5vin1JUQyt8ZrRGn2b4fPtrXBAodfvtYTM16KTB9u2S" ] },
      { "delegate": "tz1gfArv665EUkSg2ojMBzcbfwuPxAvqPvjo",
        "reception_time": "2022-01-16T10:33:01.252-00:00",
        "included_in_blocks":
          [ "BKyeKQwp5vin1JUQyt8ZrRGn2b4fPtrXBAodfvtYTM16KTB9u2S" ] },
      { "delegate": "tz3bvNMQ95vfAYtG8193ymshqjSvmxiCUuR5",
        "reception_time": "2022-01-16T10:33:01.259-00:00",
        "included_in_blocks":
          [ "BKyeKQwp5vin1JUQyt8ZrRGn2b4fPtrXBAodfvtYTM16KTB9u2S" ] },
      { "delegate": "tz3S6BBeKgJGXxvLyZ1xzXzMPn11nnFtq5L9",
        "reception_time": "2022-01-16T10:33:01.270-00:00",
        "included_in_blocks":
          [ "BKyeKQwp5vin1JUQyt8ZrRGn2b4fPtrXBAodfvtYTM16KTB9u2S" ] },
      { "delegate": "tz1aqcYgG6NuViML5vdWhohHJBYxcDVLNUsE",
        "reception_time": "2022-01-16T10:33:01.274-00:00",
        "included_in_blocks":
          [ "BKyeKQwp5vin1JUQyt8ZrRGn2b4fPtrXBAodfvtYTM16KTB9u2S" ] },
      { "delegate": "tz3QT9dHYKDqh563chVa6za8526ys1UKfRfL",
        "reception_time": "2022-01-16T10:33:01.345-00:00",
        "included_in_blocks":
          [ "BKyeKQwp5vin1JUQyt8ZrRGn2b4fPtrXBAodfvtYTM16KTB9u2S" ] },
      { "delegate": "tz1WCd2jm4uSt4vntk4vSuUWoZQGhLcDuR9q",
        "reception_time": "2022-01-16T10:33:01.395-00:00",
        "included_in_blocks":
          [ "BKyeKQwp5vin1JUQyt8ZrRGn2b4fPtrXBAodfvtYTM16KTB9u2S" ] },
      { "delegate": "tz1PWCDnz783NNGGQjEFFsHtrcK5yBW4E2rm",
        "reception_time": "2022-01-16T10:33:01.422-00:00",
        "included_in_blocks":
          [ "BKyeKQwp5vin1JUQyt8ZrRGn2b4fPtrXBAodfvtYTM16KTB9u2S" ] },
      { "delegate": "tz1RCFbB9GpALpsZtu6J58sb74dm8qe6XBzv",
        "reception_time": "2022-01-16T10:33:01.431-00:00",
        "included_in_blocks":
          [ "BKyeKQwp5vin1JUQyt8ZrRGn2b4fPtrXBAodfvtYTM16KTB9u2S" ] },
      { "delegate": "tz1ei4WtWEMEJekSv8qDnu9PExG6Q8HgRGr3",
        "reception_time": "2022-01-16T10:33:01.442-00:00",
        "included_in_blocks":
          [ "BKyeKQwp5vin1JUQyt8ZrRGn2b4fPtrXBAodfvtYTM16KTB9u2S" ] },
      { "delegate": "tz1NEKxGEHsFufk87CVZcrqWu8o22qh46GK6",
        "reception_time": "2022-01-16T10:33:01.466-00:00",
        "included_in_blocks":
          [ "BKyeKQwp5vin1JUQyt8ZrRGn2b4fPtrXBAodfvtYTM16KTB9u2S" ] },
      { "delegate": "tz1SRqg1KT7dJ5QxF9PWnWdfbXgh6HfKZxbd",
        "reception_time": "2022-01-16T10:33:01.523-00:00",
        "included_in_blocks":
          [ "BKyeKQwp5vin1JUQyt8ZrRGn2b4fPtrXBAodfvtYTM16KTB9u2S" ] },
      { "delegate": "tz1RQhNh7iB9CZA7i3ifTWNwiGYVffponfbB",
        "reception_time": "2022-01-16T10:33:01.561-00:00",
        "included_in_blocks":
          [ "BKyeKQwp5vin1JUQyt8ZrRGn2b4fPtrXBAodfvtYTM16KTB9u2S" ] },
      { "delegate": "tz3bTdwZinP8U1JmSweNzVKhmwafqWmFWRfk",
        "reception_time": "2022-01-16T10:33:01.609-00:00",
        "included_in_blocks":
          [ "BKyeKQwp5vin1JUQyt8ZrRGn2b4fPtrXBAodfvtYTM16KTB9u2S" ] },
      { "delegate": "tz3WMqdzXqRWXwyvj5Hp2H7QEepaUuS7vd9K",
        "reception_time": "2022-01-16T10:33:01.643-00:00",
        "included_in_blocks":
          [ "BKyeKQwp5vin1JUQyt8ZrRGn2b4fPtrXBAodfvtYTM16KTB9u2S" ] },
      { "delegate": "tz1abmz7jiCV2GH2u81LRrGgAFFgvQgiDiaf",
        "reception_time": "2022-01-16T10:33:01.760-00:00",
        "included_in_blocks":
          [ "BKyeKQwp5vin1JUQyt8ZrRGn2b4fPtrXBAodfvtYTM16KTB9u2S" ] },
      { "delegate": "tz3VEZ4k6a4Wx42iyev6i2aVAptTRLEAivNN",
        "reception_time": "2022-01-16T10:33:01.866-00:00",
        "included_in_blocks":
          [ "BKyeKQwp5vin1JUQyt8ZrRGn2b4fPtrXBAodfvtYTM16KTB9u2S" ] },
      { "delegate": "tz1SUgyRB8T5jXgXAwS33pgRHAKrafyg87Yc",
        "reception_time": "2022-01-16T10:33:01.887-00:00",
        "included_in_blocks":
          [ "BKyeKQwp5vin1JUQyt8ZrRGn2b4fPtrXBAodfvtYTM16KTB9u2S" ] },
      { "delegate": "tz1NortRftucvAkD1J58L32EhSVrQEWJCEnB",
        "reception_time": "2022-01-16T10:33:01.920-00:00",
        "included_in_blocks":
          [ "BKyeKQwp5vin1JUQyt8ZrRGn2b4fPtrXBAodfvtYTM16KTB9u2S" ] },
      { "delegate": "tz2FCNBrERXtaTtNX6iimR1UJ5JSDxvdHM93",
        "reception_time": "2022-01-16T10:33:01.937-00:00",
        "included_in_blocks":
          [ "BKyeKQwp5vin1JUQyt8ZrRGn2b4fPtrXBAodfvtYTM16KTB9u2S" ] },
      { "delegate": "tz1WBfwbT66FC6BTLexc2BoyCCBM9LG7pnVW",
        "reception_time": "2022-01-16T10:33:01.946-00:00",
        "included_in_blocks":
          [ "BKyeKQwp5vin1JUQyt8ZrRGn2b4fPtrXBAodfvtYTM16KTB9u2S" ] },
      { "delegate": "tz1PeZx7FXy7QRuMREGXGxeipb24RsMMzUNe",
        "reception_time": "2022-01-16T10:33:02.007-00:00",
        "included_in_blocks":
          [ "BKyeKQwp5vin1JUQyt8ZrRGn2b4fPtrXBAodfvtYTM16KTB9u2S" ] },
      { "delegate": "tz3UoffC7FG7zfpmvmjUmUeAaHvzdcUvAj6r",
        "reception_time": "2022-01-16T10:33:02.038-00:00",
        "included_in_blocks":
          [ "BKyeKQwp5vin1JUQyt8ZrRGn2b4fPtrXBAodfvtYTM16KTB9u2S" ] },
      { "delegate": "tz1RpeqCseogMpCPXpyGjhmLH9i9DhqJ8cUR",
        "reception_time": "2022-01-16T10:33:02.044-00:00",
        "included_in_blocks":
          [ "BKyeKQwp5vin1JUQyt8ZrRGn2b4fPtrXBAodfvtYTM16KTB9u2S" ] },
      { "delegate": "tz1TRqbYbUf2GyrjErf3hBzgBJPzW8y36qEs",
        "reception_time": "2022-01-16T10:33:02.094-00:00",
        "included_in_blocks":
          [ "BKyeKQwp5vin1JUQyt8ZrRGn2b4fPtrXBAodfvtYTM16KTB9u2S" ] },
      { "delegate": "tz1Nf6tsK4G6bBqgSQERy4nUtkHNKUVdh7q1",
        "reception_time": "2022-01-16T10:33:02.104-00:00",
        "included_in_blocks":
          [ "BKyeKQwp5vin1JUQyt8ZrRGn2b4fPtrXBAodfvtYTM16KTB9u2S" ] },
      { "delegate": "tz1YhNsiRRU8aHNGg7NK3uuP6UDAyacJernB",
        "reception_time": "2022-01-16T10:33:02.281-00:00",
        "included_in_blocks":
          [ "BKyeKQwp5vin1JUQyt8ZrRGn2b4fPtrXBAodfvtYTM16KTB9u2S" ] },
      { "delegate": "tz1cYufsxHXJcvANhvS55h3aY32a9BAFB494",
        "reception_time": "2022-01-16T10:33:02.502-00:00",
        "included_in_blocks":
          [ "BKyeKQwp5vin1JUQyt8ZrRGn2b4fPtrXBAodfvtYTM16KTB9u2S" ] },
      { "delegate": "tz1g8vkmcde6sWKaG2NN9WKzCkDM6Rziq194",
        "reception_time": "2022-01-16T10:33:02.509-00:00",
        "included_in_blocks":
          [ "BKyeKQwp5vin1JUQyt8ZrRGn2b4fPtrXBAodfvtYTM16KTB9u2S" ] },
      { "delegate": "tz1awXW7wuXy21c66vBudMXQVAPgRnqqwgTH",
        "reception_time": "2022-01-16T10:33:02.695-00:00",
        "included_in_blocks":
          [ "BKyeKQwp5vin1JUQyt8ZrRGn2b4fPtrXBAodfvtYTM16KTB9u2S" ] },
      { "delegate": "tz1LAJKyGRCheNiLAQQmJ8dXnoKbKgLzxNFp",
        "reception_time": "2022-01-16T10:33:02.718-00:00",
        "included_in_blocks":
          [ "BKyeKQwp5vin1JUQyt8ZrRGn2b4fPtrXBAodfvtYTM16KTB9u2S" ] },
      { "delegate": "tz3NDpRj6WBrJPikcPVHRBEjWKxFw3c6eQPS",
        "reception_time": "2022-01-16T10:33:02.750-00:00",
        "included_in_blocks":
          [ "BKyeKQwp5vin1JUQyt8ZrRGn2b4fPtrXBAodfvtYTM16KTB9u2S" ] },
      { "delegate": "tz1dRKU4FQ9QRRQPdaH4zCR6gmCmXfcvcgtB",
        "reception_time": "2022-01-16T10:33:03.049-00:00",
        "included_in_blocks":
          [ "BKyeKQwp5vin1JUQyt8ZrRGn2b4fPtrXBAodfvtYTM16KTB9u2S" ] },
      { "delegate": "tz1T7duV5gZWSTq4YpBGbXNLTfznCLDrFxvs",
        "reception_time": "2022-01-16T10:33:03.068-00:00",
        "included_in_blocks":
          [ "BKyeKQwp5vin1JUQyt8ZrRGn2b4fPtrXBAodfvtYTM16KTB9u2S" ] },
      { "delegate": "tz1Xsrfv6hn86fp88YfRs6xcKwt2nTqxVZYM",
        "reception_time": "2022-01-16T10:33:03.106-00:00",
        "included_in_blocks":
          [ "BKyeKQwp5vin1JUQyt8ZrRGn2b4fPtrXBAodfvtYTM16KTB9u2S" ] },
      { "delegate": "tz3NExpXn9aPNZPorRE4SdjJ2RGrfbJgMAaV",
        "reception_time": "2022-01-16T10:33:03.334-00:00",
        "included_in_blocks":
          [ "BKyeKQwp5vin1JUQyt8ZrRGn2b4fPtrXBAodfvtYTM16KTB9u2S" ] },
      { "delegate": "tz1UvkANVPWppVgMkLnvN7BwYZsCP7vm6NVd",
        "reception_time": "2022-01-16T10:33:03.345-00:00",
        "included_in_blocks":
          [ "BKyeKQwp5vin1JUQyt8ZrRGn2b4fPtrXBAodfvtYTM16KTB9u2S" ] },
      { "delegate": "tz3RB4aoyjov4KEVRbuhvQ1CKJgBJMWhaeB8",
        "reception_time": "2022-01-16T10:33:03.660-00:00",
        "included_in_blocks":
          [ "BKyeKQwp5vin1JUQyt8ZrRGn2b4fPtrXBAodfvtYTM16KTB9u2S" ] },
      { "delegate": "tz1aRoaRhSpRYvFdyvgWLL6TGyRoGF51wDjM",
        "reception_time": "2022-01-16T10:33:03.936-00:00",
        "included_in_blocks":
          [ "BKyeKQwp5vin1JUQyt8ZrRGn2b4fPtrXBAodfvtYTM16KTB9u2S" ] },
      { "delegate": "tz1PFeoTuFen8jAMRHajBySNyCwLmY5RqF9M",
        "reception_time": "2022-01-16T10:33:04.299-00:00",
        "included_in_blocks":
          [ "BKyeKQwp5vin1JUQyt8ZrRGn2b4fPtrXBAodfvtYTM16KTB9u2S" ] },
      { "delegate": "tz1eVaNx3gCmG1EsLjijkmgAxdLYVf6Bf5Sq",
        "reception_time": "2022-01-16T10:33:04.379-00:00",
        "included_in_blocks":
          [ "BKyeKQwp5vin1JUQyt8ZrRGn2b4fPtrXBAodfvtYTM16KTB9u2S" ] },
      { "delegate": "tz1fJHFn6sWEd3NnBPngACuw2dggTv6nQZ7g",
        "reception_time": "2022-01-16T10:33:04.526-00:00",
        "included_in_blocks":
          [ "BKyeKQwp5vin1JUQyt8ZrRGn2b4fPtrXBAodfvtYTM16KTB9u2S" ] },
      { "delegate": "tz1MbhmEwEAzzfb3naSr7vTp4mDxB8HsknA9",
        "reception_time": "2022-01-16T10:33:04.981-00:00",
        "included_in_blocks":
          [ "BKyeKQwp5vin1JUQyt8ZrRGn2b4fPtrXBAodfvtYTM16KTB9u2S" ] },
      { "delegate": "tz3e7LbZvUtoXhpUD1yb6wuFodZpfYRb9nWJ",
        "reception_time": "2022-01-16T10:33:08.822-00:00",
        "included_in_blocks":
          [ "BKyeKQwp5vin1JUQyt8ZrRGn2b4fPtrXBAodfvtYTM16KTB9u2S" ] },
      { "delegate": "tz1RAxW1rBTRumV9QEpFsw51QWPQmAKHGMei",
        "reception_time": "2022-01-16T10:33:09.347-00:00",
        "included_in_blocks":
          [ "BKyeKQwp5vin1JUQyt8ZrRGn2b4fPtrXBAodfvtYTM16KTB9u2S" ] } ] }