{ "blocks":
    [ { "hash": "BLCkLcEgrzkkY7RT7RwHTttG76tfLkdcYXA1DdEtS4aapvinUxt",
        "delegate": "tz1irJKkXS2DBWkU1NnmFQx1c1L7pbGg4yhk",
        "reception_time": "2022-01-16T12:57:24.796-00:00",
        "timestamp": "2022-01-16T12:57:20Z" } ],
  "endorsements":
    [ { "delegate": "tz1P2Po7YM526ughEsRbY4oR9zaUPDZjxFrb",
        "reception_time": "2022-01-16T12:57:24.744-00:00",
        "errors":
          [ { "kind": "temporary",
              "id": "proto.011-PtHangz2.prefilter.outdated_endorsement" } ],
        "included_in_blocks":
          [ "BLHZaxMajPVipjiAQcBYedaW9L6aXjUFsjonrdfVeYvQpH214Ca" ] },
      { "delegate": "tz1RjoHc98dBoqaH2jawF62XNKh7YsHwbkEv" },
      { "delegate": "tz1ibcPVGK4Y8pcW4BYUsojiHoBKnZbyDGrX" },
      { "delegate": "tz3bEQoFCZEEfZMskefZ8q8e4eiHH1pssRax" },
      { "delegate": "tz1Lhf4J9Qxoe3DZ2nfe8FGDnvVj7oKjnMY6",
        "reception_time": "2022-01-16T12:57:25.647-00:00",
        "included_in_blocks":
          [ "BLHZaxMajPVipjiAQcBYedaW9L6aXjUFsjonrdfVeYvQpH214Ca" ] },
      { "delegate": "tz1Scdr2HsZiQjc7bHMeBbmDRXYVvdhjJbBh",
        "reception_time": "2022-01-16T12:57:25.647-00:00",
        "included_in_blocks":
          [ "BLHZaxMajPVipjiAQcBYedaW9L6aXjUFsjonrdfVeYvQpH214Ca" ] },
      { "delegate": "tz1TXzyaKUA8wsWefdSnyaYFnV2M3vCV7er9",
        "reception_time": "2022-01-16T12:57:25.653-00:00",
        "included_in_blocks":
          [ "BLHZaxMajPVipjiAQcBYedaW9L6aXjUFsjonrdfVeYvQpH214Ca" ] },
      { "delegate": "tz1TRspM5SeZpaQUhzByXbEvqKF1vnCM2YTK",
        "reception_time": "2022-01-16T12:57:25.665-00:00",
        "included_in_blocks":
          [ "BLHZaxMajPVipjiAQcBYedaW9L6aXjUFsjonrdfVeYvQpH214Ca" ] },
      { "delegate": "tz1S8e9GgdZG78XJRB3NqabfWeM37GnhZMWQ",
        "reception_time": "2022-01-16T12:57:25.667-00:00",
        "included_in_blocks":
          [ "BLHZaxMajPVipjiAQcBYedaW9L6aXjUFsjonrdfVeYvQpH214Ca" ] },
      { "delegate": "tz1STeamwbp68THcny9zk3LsbG3H36DMvbRK",
        "reception_time": "2022-01-16T12:57:25.677-00:00",
        "included_in_blocks":
          [ "BLHZaxMajPVipjiAQcBYedaW9L6aXjUFsjonrdfVeYvQpH214Ca" ] },
      { "delegate": "tz1irJKkXS2DBWkU1NnmFQx1c1L7pbGg4yhk",
        "reception_time": "2022-01-16T12:57:25.679-00:00",
        "included_in_blocks":
          [ "BLHZaxMajPVipjiAQcBYedaW9L6aXjUFsjonrdfVeYvQpH214Ca" ] },
      { "delegate": "tz1eEnQhbwf6trb8Q8mPb2RaPkNk2rN7BKi8",
        "reception_time": "2022-01-16T12:57:25.683-00:00",
        "included_in_blocks":
          [ "BLHZaxMajPVipjiAQcBYedaW9L6aXjUFsjonrdfVeYvQpH214Ca" ] },
      { "delegate": "tz1Zhv3RkfU2pHrmaiDyxp7kFZpZrUCu1CiF",
        "reception_time": "2022-01-16T12:57:25.685-00:00",
        "included_in_blocks":
          [ "BLHZaxMajPVipjiAQcBYedaW9L6aXjUFsjonrdfVeYvQpH214Ca" ] },
      { "delegate": "tz1ZPh7XfUaJXUDvkrBxmS1BjEM1i62hiPpM",
        "reception_time": "2022-01-16T12:57:25.690-00:00",
        "included_in_blocks":
          [ "BLHZaxMajPVipjiAQcBYedaW9L6aXjUFsjonrdfVeYvQpH214Ca" ] },
      { "delegate": "tz1RV1MBbZMR68tacosb7Mwj6LkbPSUS1er1",
        "reception_time": "2022-01-16T12:57:25.693-00:00",
        "included_in_blocks":
          [ "BLHZaxMajPVipjiAQcBYedaW9L6aXjUFsjonrdfVeYvQpH214Ca" ] },
      { "delegate": "tz3NxTnke1acr8o3h5y9ytf5awQBGNJUKzVU",
        "reception_time": "2022-01-16T12:57:25.717-00:00",
        "included_in_blocks":
          [ "BLHZaxMajPVipjiAQcBYedaW9L6aXjUFsjonrdfVeYvQpH214Ca" ] },
      { "delegate": "tz3ZbP2pM3nwvXztbuMJwJnDvV5xdpU8UkkD",
        "reception_time": "2022-01-16T12:57:25.724-00:00",
        "included_in_blocks":
          [ "BLHZaxMajPVipjiAQcBYedaW9L6aXjUFsjonrdfVeYvQpH214Ca" ] },
      { "delegate": "tz3QCNyySViKHmeSr45kzDxzchys7NiXCWoa",
        "reception_time": "2022-01-16T12:57:25.765-00:00",
        "included_in_blocks":
          [ "BLHZaxMajPVipjiAQcBYedaW9L6aXjUFsjonrdfVeYvQpH214Ca" ] },
      { "delegate": "tz3RKYFsLuQzKBtmYuLNas7uMu3AsYd4QdsA",
        "reception_time": "2022-01-16T12:57:25.774-00:00",
        "included_in_blocks":
          [ "BLHZaxMajPVipjiAQcBYedaW9L6aXjUFsjonrdfVeYvQpH214Ca" ] },
      { "delegate": "tz3hw2kqXhLUvY65ca1eety2oQTpAvd34R9Q",
        "reception_time": "2022-01-16T12:57:25.781-00:00",
        "included_in_blocks":
          [ "BLHZaxMajPVipjiAQcBYedaW9L6aXjUFsjonrdfVeYvQpH214Ca" ] },
      { "delegate": "tz1Kt4P8BCaP93AEV4eA7gmpRryWt5hznjCP",
        "reception_time": "2022-01-16T12:57:25.803-00:00",
        "included_in_blocks":
          [ "BLHZaxMajPVipjiAQcBYedaW9L6aXjUFsjonrdfVeYvQpH214Ca" ] },
      { "delegate": "tz3gtoUxdudfBRcNY7iVdKPHCYYX6xdPpoRS",
        "reception_time": "2022-01-16T12:57:25.820-00:00",
        "included_in_blocks":
          [ "BLHZaxMajPVipjiAQcBYedaW9L6aXjUFsjonrdfVeYvQpH214Ca" ] },
      { "delegate": "tz3QSGPoRp3Kn7n3vY24eYeu3Peuqo45LQ4D",
        "reception_time": "2022-01-16T12:57:25.874-00:00",
        "included_in_blocks":
          [ "BLHZaxMajPVipjiAQcBYedaW9L6aXjUFsjonrdfVeYvQpH214Ca" ] },
      { "delegate": "tz1RCFbB9GpALpsZtu6J58sb74dm8qe6XBzv",
        "reception_time": "2022-01-16T12:57:25.930-00:00",
        "included_in_blocks":
          [ "BLHZaxMajPVipjiAQcBYedaW9L6aXjUFsjonrdfVeYvQpH214Ca" ] },
      { "delegate": "tz1TzaNn7wSQSP5gYPXCnNzBCpyMiidCq1PX",
        "reception_time": "2022-01-16T12:57:25.933-00:00",
        "included_in_blocks":
          [ "BLHZaxMajPVipjiAQcBYedaW9L6aXjUFsjonrdfVeYvQpH214Ca" ] },
      { "delegate": "tz3Zhs2dygr55yHyQyKjntAtY9bgfhLZ4Xj1",
        "reception_time": "2022-01-16T12:57:25.962-00:00",
        "included_in_blocks":
          [ "BLHZaxMajPVipjiAQcBYedaW9L6aXjUFsjonrdfVeYvQpH214Ca" ] },
      { "delegate": "tz3iJu5vrKZcsqRPs8yJ61UDoeEXZmtro4qh",
        "reception_time": "2022-01-16T12:57:26.002-00:00",
        "included_in_blocks":
          [ "BLHZaxMajPVipjiAQcBYedaW9L6aXjUFsjonrdfVeYvQpH214Ca" ] },
      { "delegate": "tz1Ldzz6k1BHdhuKvAtMRX7h5kJSMHESMHLC",
        "reception_time": "2022-01-16T12:57:26.019-00:00",
        "included_in_blocks":
          [ "BLHZaxMajPVipjiAQcBYedaW9L6aXjUFsjonrdfVeYvQpH214Ca" ] },
      { "delegate": "tz1bsdrs36X5BTH83RHUBdUouKLJZK8d2oBa",
        "reception_time": "2022-01-16T12:57:26.030-00:00",
        "included_in_blocks":
          [ "BLHZaxMajPVipjiAQcBYedaW9L6aXjUFsjonrdfVeYvQpH214Ca" ] },
      { "delegate": "tz3S6BBeKgJGXxvLyZ1xzXzMPn11nnFtq5L9",
        "reception_time": "2022-01-16T12:57:26.144-00:00",
        "included_in_blocks":
          [ "BLHZaxMajPVipjiAQcBYedaW9L6aXjUFsjonrdfVeYvQpH214Ca" ] },
      { "delegate": "tz1VmiY38m3y95HqQLjMwqnMS7sdMfGomzKi",
        "reception_time": "2022-01-16T12:57:26.151-00:00",
        "included_in_blocks":
          [ "BLHZaxMajPVipjiAQcBYedaW9L6aXjUFsjonrdfVeYvQpH214Ca" ] },
      { "delegate": "tz3QT9dHYKDqh563chVa6za8526ys1UKfRfL",
        "reception_time": "2022-01-16T12:57:26.248-00:00",
        "included_in_blocks":
          [ "BLHZaxMajPVipjiAQcBYedaW9L6aXjUFsjonrdfVeYvQpH214Ca" ] },
      { "delegate": "tz1NSDFKuRyzHxpfG1AMkyCwEiZ52cbR2mRW",
        "reception_time": "2022-01-16T12:57:26.334-00:00",
        "included_in_blocks":
          [ "BLHZaxMajPVipjiAQcBYedaW9L6aXjUFsjonrdfVeYvQpH214Ca" ] },
      { "delegate": "tz1gfArv665EUkSg2ojMBzcbfwuPxAvqPvjo",
        "reception_time": "2022-01-16T12:57:26.343-00:00",
        "included_in_blocks":
          [ "BLHZaxMajPVipjiAQcBYedaW9L6aXjUFsjonrdfVeYvQpH214Ca" ] },
      { "delegate": "tz1gUNyn3hmnEWqkusWPzxRaon1cs7ndWh7h",
        "reception_time": "2022-01-16T12:57:26.345-00:00",
        "included_in_blocks":
          [ "BLHZaxMajPVipjiAQcBYedaW9L6aXjUFsjonrdfVeYvQpH214Ca" ] },
      { "delegate": "tz3bTdwZinP8U1JmSweNzVKhmwafqWmFWRfk",
        "reception_time": "2022-01-16T12:57:26.367-00:00",
        "included_in_blocks":
          [ "BLHZaxMajPVipjiAQcBYedaW9L6aXjUFsjonrdfVeYvQpH214Ca" ] },
      { "delegate": "tz1WCd2jm4uSt4vntk4vSuUWoZQGhLcDuR9q",
        "reception_time": "2022-01-16T12:57:26.390-00:00",
        "included_in_blocks":
          [ "BLHZaxMajPVipjiAQcBYedaW9L6aXjUFsjonrdfVeYvQpH214Ca" ] },
      { "delegate": "tz1VQnqCCqX4K5sP3FNkVSNKTdCAMJDd3E1n",
        "reception_time": "2022-01-16T12:57:26.455-00:00",
        "included_in_blocks":
          [ "BLHZaxMajPVipjiAQcBYedaW9L6aXjUFsjonrdfVeYvQpH214Ca" ] },
      { "delegate": "tz1fb7c66UwePkkfDXz4ajFaBP9hVNLdS7JJ",
        "reception_time": "2022-01-16T12:57:26.510-00:00",
        "included_in_blocks":
          [ "BLHZaxMajPVipjiAQcBYedaW9L6aXjUFsjonrdfVeYvQpH214Ca" ] },
      { "delegate": "tz3RB4aoyjov4KEVRbuhvQ1CKJgBJMWhaeB8",
        "reception_time": "2022-01-16T12:57:26.631-00:00",
        "included_in_blocks":
          [ "BLHZaxMajPVipjiAQcBYedaW9L6aXjUFsjonrdfVeYvQpH214Ca" ] },
      { "delegate": "tz1cSj7fTex3JPd1p1LN1fwek6AV1kH93Wwc",
        "reception_time": "2022-01-16T12:57:26.651-00:00",
        "included_in_blocks":
          [ "BLHZaxMajPVipjiAQcBYedaW9L6aXjUFsjonrdfVeYvQpH214Ca" ] },
      { "delegate": "tz1fPKAtsYydh4f1wfWNfeNxWYu72TmM48fu",
        "reception_time": "2022-01-16T12:57:26.700-00:00",
        "included_in_blocks":
          [ "BLHZaxMajPVipjiAQcBYedaW9L6aXjUFsjonrdfVeYvQpH214Ca" ] },
      { "delegate": "tz1S8MNvuFEUsWgjHvi3AxibRBf388NhT1q2",
        "reception_time": "2022-01-16T12:57:26.718-00:00",
        "included_in_blocks":
          [ "BLHZaxMajPVipjiAQcBYedaW9L6aXjUFsjonrdfVeYvQpH214Ca" ] },
      { "delegate": "tz1SUgyRB8T5jXgXAwS33pgRHAKrafyg87Yc",
        "reception_time": "2022-01-16T12:57:26.756-00:00",
        "included_in_blocks":
          [ "BLHZaxMajPVipjiAQcBYedaW9L6aXjUFsjonrdfVeYvQpH214Ca" ] },
      { "delegate": "tz1PWCDnz783NNGGQjEFFsHtrcK5yBW4E2rm",
        "reception_time": "2022-01-16T12:57:26.761-00:00",
        "included_in_blocks":
          [ "BLHZaxMajPVipjiAQcBYedaW9L6aXjUFsjonrdfVeYvQpH214Ca" ] },
      { "delegate": "tz1Tnjaxk6tbAeC2TmMApPh8UsrEVQvhHvx5",
        "reception_time": "2022-01-16T12:57:26.791-00:00",
        "included_in_blocks":
          [ "BLHZaxMajPVipjiAQcBYedaW9L6aXjUFsjonrdfVeYvQpH214Ca" ] },
      { "delegate": "tz1MQMiZHV8q4tTwUMWmS5Y3kaP6J2136iXr",
        "reception_time": "2022-01-16T12:57:26.802-00:00",
        "included_in_blocks":
          [ "BLHZaxMajPVipjiAQcBYedaW9L6aXjUFsjonrdfVeYvQpH214Ca" ] },
      { "delegate": "tz1g8vkmcde6sWKaG2NN9WKzCkDM6Rziq194",
        "reception_time": "2022-01-16T12:57:27.540-00:00",
        "included_in_blocks":
          [ "BLHZaxMajPVipjiAQcBYedaW9L6aXjUFsjonrdfVeYvQpH214Ca" ] },
      { "delegate": "tz1fwnfJNgiDACshK9avfRfFbMaXrs3ghoJa",
        "reception_time": "2022-01-16T12:57:27.567-00:00",
        "included_in_blocks":
          [ "BLHZaxMajPVipjiAQcBYedaW9L6aXjUFsjonrdfVeYvQpH214Ca" ] },
      { "delegate": "tz1LmaFsWRkjr7QMCx5PtV6xTUz3AmEpKQiF",
        "reception_time": "2022-01-16T12:57:27.601-00:00",
        "included_in_blocks":
          [ "BLHZaxMajPVipjiAQcBYedaW9L6aXjUFsjonrdfVeYvQpH214Ca" ] },
      { "delegate": "tz1TEc75UKXv4W5cwi14Na3NtqFD51yKQi7h",
        "reception_time": "2022-01-16T12:57:27.622-00:00",
        "included_in_blocks":
          [ "BLHZaxMajPVipjiAQcBYedaW9L6aXjUFsjonrdfVeYvQpH214Ca" ] },
      { "delegate": "tz1Nf6tsK4G6bBqgSQERy4nUtkHNKUVdh7q1",
        "reception_time": "2022-01-16T12:57:27.630-00:00",
        "included_in_blocks":
          [ "BLHZaxMajPVipjiAQcBYedaW9L6aXjUFsjonrdfVeYvQpH214Ca" ] },
      { "delegate": "tz1ei4WtWEMEJekSv8qDnu9PExG6Q8HgRGr3",
        "reception_time": "2022-01-16T12:57:27.637-00:00",
        "included_in_blocks":
          [ "BLHZaxMajPVipjiAQcBYedaW9L6aXjUFsjonrdfVeYvQpH214Ca" ] },
      { "delegate": "tz1WnfXMPaNTBmH7DBPwqCWs9cPDJdkGBTZ8",
        "reception_time": "2022-01-16T12:57:27.638-00:00",
        "included_in_blocks":
          [ "BLHZaxMajPVipjiAQcBYedaW9L6aXjUFsjonrdfVeYvQpH214Ca" ] },
      { "delegate": "tz1TRqbYbUf2GyrjErf3hBzgBJPzW8y36qEs",
        "reception_time": "2022-01-16T12:57:27.652-00:00",
        "included_in_blocks":
          [ "BLHZaxMajPVipjiAQcBYedaW9L6aXjUFsjonrdfVeYvQpH214Ca" ] },
      { "delegate": "tz3VEZ4k6a4Wx42iyev6i2aVAptTRLEAivNN",
        "reception_time": "2022-01-16T12:57:27.662-00:00",
        "included_in_blocks":
          [ "BLHZaxMajPVipjiAQcBYedaW9L6aXjUFsjonrdfVeYvQpH214Ca" ] },
      { "delegate": "tz3bvNMQ95vfAYtG8193ymshqjSvmxiCUuR5",
        "reception_time": "2022-01-16T12:57:27.691-00:00",
        "included_in_blocks":
          [ "BLHZaxMajPVipjiAQcBYedaW9L6aXjUFsjonrdfVeYvQpH214Ca" ] },
      { "delegate": "tz1UMCB2AHSTwG7YcGNr31CqYCtGN873royv",
        "reception_time": "2022-01-16T12:57:27.711-00:00",
        "included_in_blocks":
          [ "BLHZaxMajPVipjiAQcBYedaW9L6aXjUFsjonrdfVeYvQpH214Ca" ] },
      { "delegate": "tz1SYq214SCBy9naR6cvycQsYcUGpBqQAE8d",
        "reception_time": "2022-01-16T12:57:27.725-00:00",
        "included_in_blocks":
          [ "BLHZaxMajPVipjiAQcBYedaW9L6aXjUFsjonrdfVeYvQpH214Ca" ] },
      { "delegate": "tz3RDC3Jdn4j15J7bBHZd29EUee9gVB1CxD9",
        "reception_time": "2022-01-16T12:57:27.814-00:00",
        "included_in_blocks":
          [ "BLHZaxMajPVipjiAQcBYedaW9L6aXjUFsjonrdfVeYvQpH214Ca" ] },
      { "delegate": "tz3WMqdzXqRWXwyvj5Hp2H7QEepaUuS7vd9K",
        "reception_time": "2022-01-16T12:57:27.842-00:00",
        "included_in_blocks":
          [ "BLHZaxMajPVipjiAQcBYedaW9L6aXjUFsjonrdfVeYvQpH214Ca" ] },
      { "delegate": "tz3NDpRj6WBrJPikcPVHRBEjWKxFw3c6eQPS",
        "reception_time": "2022-01-16T12:57:27.881-00:00",
        "included_in_blocks":
          [ "BLHZaxMajPVipjiAQcBYedaW9L6aXjUFsjonrdfVeYvQpH214Ca" ] },
      { "delegate": "tz1dNVDWPf3Q59SdJqnjdnu277iyvReiRS9M",
        "reception_time": "2022-01-16T12:57:28.242-00:00",
        "included_in_blocks":
          [ "BLHZaxMajPVipjiAQcBYedaW9L6aXjUFsjonrdfVeYvQpH214Ca" ] },
      { "delegate": "tz1NEKxGEHsFufk87CVZcrqWu8o22qh46GK6",
        "reception_time": "2022-01-16T12:57:28.366-00:00",
        "included_in_blocks":
          [ "BLHZaxMajPVipjiAQcBYedaW9L6aXjUFsjonrdfVeYvQpH214Ca" ] },
      { "delegate": "tz1aRoaRhSpRYvFdyvgWLL6TGyRoGF51wDjM",
        "reception_time": "2022-01-16T12:57:28.373-00:00",
        "included_in_blocks":
          [ "BLHZaxMajPVipjiAQcBYedaW9L6aXjUFsjonrdfVeYvQpH214Ca" ] },
      { "delegate": "tz1UvkANVPWppVgMkLnvN7BwYZsCP7vm6NVd",
        "reception_time": "2022-01-16T12:57:28.460-00:00",
        "included_in_blocks":
          [ "BLHZaxMajPVipjiAQcBYedaW9L6aXjUFsjonrdfVeYvQpH214Ca" ] },
      { "delegate": "tz1aDiEJf9ztRrAJEXZfcG3CKimoKsGhwVAi",
        "reception_time": "2022-01-16T12:57:28.534-00:00",
        "included_in_blocks":
          [ "BLHZaxMajPVipjiAQcBYedaW9L6aXjUFsjonrdfVeYvQpH214Ca" ] },
      { "delegate": "tz1dRKU4FQ9QRRQPdaH4zCR6gmCmXfcvcgtB",
        "reception_time": "2022-01-16T12:57:28.534-00:00",
        "included_in_blocks":
          [ "BLHZaxMajPVipjiAQcBYedaW9L6aXjUFsjonrdfVeYvQpH214Ca" ] },
      { "delegate": "tz1T7duV5gZWSTq4YpBGbXNLTfznCLDrFxvs",
        "reception_time": "2022-01-16T12:57:28.572-00:00",
        "included_in_blocks":
          [ "BLHZaxMajPVipjiAQcBYedaW9L6aXjUFsjonrdfVeYvQpH214Ca" ] },
      { "delegate": "tz3NExpXn9aPNZPorRE4SdjJ2RGrfbJgMAaV",
        "reception_time": "2022-01-16T12:57:28.872-00:00",
        "included_in_blocks":
          [ "BLHZaxMajPVipjiAQcBYedaW9L6aXjUFsjonrdfVeYvQpH214Ca" ] },
      { "delegate": "tz3UoffC7FG7zfpmvmjUmUeAaHvzdcUvAj6r",
        "reception_time": "2022-01-16T12:57:28.891-00:00",
        "included_in_blocks":
          [ "BLHZaxMajPVipjiAQcBYedaW9L6aXjUFsjonrdfVeYvQpH214Ca" ] },
      { "delegate": "tz1Y42aKCk53vMbaJNpf1hBg1rznGdBxHJ5C",
        "reception_time": "2022-01-16T12:57:28.965-00:00",
        "included_in_blocks":
          [ "BLHZaxMajPVipjiAQcBYedaW9L6aXjUFsjonrdfVeYvQpH214Ca" ] },
      { "delegate": "tz1NoYvKjXTzTk54VpLxBfouJ33J8jwKPPvw",
        "reception_time": "2022-01-16T12:57:29.135-00:00",
        "included_in_blocks":
          [ "BLHZaxMajPVipjiAQcBYedaW9L6aXjUFsjonrdfVeYvQpH214Ca" ] },
      { "delegate": "tz1QccGQsmt7WMnbVX9inJQgEuQGeMXddfjp",
        "reception_time": "2022-01-16T12:57:29.843-00:00",
        "included_in_blocks":
          [ "BLHZaxMajPVipjiAQcBYedaW9L6aXjUFsjonrdfVeYvQpH214Ca" ] },
      { "delegate": "tz1W5VkdB5s7ENMESVBtwyt9kyvLqPcUczRT",
        "reception_time": "2022-01-16T12:57:29.849-00:00",
        "included_in_blocks":
          [ "BLHZaxMajPVipjiAQcBYedaW9L6aXjUFsjonrdfVeYvQpH214Ca" ] },
      { "delegate": "tz2FCNBrERXtaTtNX6iimR1UJ5JSDxvdHM93",
        "reception_time": "2022-01-16T12:57:30.009-00:00",
        "included_in_blocks":
          [ "BLHZaxMajPVipjiAQcBYedaW9L6aXjUFsjonrdfVeYvQpH214Ca" ] },
      { "delegate": "tz1aJS7Pk9uWR3wWyFf1i3RwhYxN84G7stom",
        "reception_time": "2022-01-16T12:57:30.015-00:00",
        "included_in_blocks":
          [ "BLHZaxMajPVipjiAQcBYedaW9L6aXjUFsjonrdfVeYvQpH214Ca" ] },
      { "delegate": "tz1ZdSQibskQwRdiaFUh7RUVm1Z6xudMedoj",
        "reception_time": "2022-01-16T12:57:31.504-00:00",
        "included_in_blocks":
          [ "BLHZaxMajPVipjiAQcBYedaW9L6aXjUFsjonrdfVeYvQpH214Ca" ] },
      { "delegate": "tz1bTpviNnyx2PXsNmGpCQTMQsGoYordkUoA",
        "reception_time": "2022-01-16T12:57:32.242-00:00",
        "included_in_blocks":
          [ "BLHZaxMajPVipjiAQcBYedaW9L6aXjUFsjonrdfVeYvQpH214Ca" ] } ] }