{ "blocks":
    [ { "hash": "BLFDPtu7X1GPv1zKw9HZ8pAgca7xKr34vHzCVo8dfzzoWjtGLA8",
        "delegate": "tz1gfArv665EUkSg2ojMBzcbfwuPxAvqPvjo",
        "reception_time": "2022-01-16T10:06:57.730-00:00",
        "timestamp": "2022-01-16T10:06:50Z" } ],
  "endorsements":
    [ { "delegate": "tz1TRspM5SeZpaQUhzByXbEvqKF1vnCM2YTK" },
      { "delegate": "tz1RjoHc98dBoqaH2jawF62XNKh7YsHwbkEv" },
      { "delegate": "tz1P2Po7YM526ughEsRbY4oR9zaUPDZjxFrb",
        "reception_time": "2022-01-16T10:06:57.705-00:00",
        "errors":
          [ { "kind": "temporary",
              "id": "proto.011-PtHangz2.prefilter.outdated_endorsement" } ],
        "included_in_blocks":
          [ "BMXQaMdgypUTGMrufH47SaSka72dDmXDqB4iNFhQRDJQRw1ydgJ" ] },
      { "delegate": "tz1bkESY3QKVUwboioG5vSbGiS9GRwHdB4xB",
        "reception_time": "2022-01-16T10:06:57.677-00:00",
        "errors":
          [ { "kind": "temporary",
              "id": "proto.011-PtHangz2.prefilter.outdated_endorsement" } ],
        "included_in_blocks":
          [ "BMXQaMdgypUTGMrufH47SaSka72dDmXDqB4iNFhQRDJQRw1ydgJ" ] },
      { "delegate": "tz1eEnQhbwf6trb8Q8mPb2RaPkNk2rN7BKi8",
        "reception_time": "2022-01-16T10:06:57.548-00:00",
        "errors":
          [ { "kind": "temporary",
              "id": "proto.011-PtHangz2.prefilter.outdated_endorsement" } ],
        "included_in_blocks":
          [ "BMXQaMdgypUTGMrufH47SaSka72dDmXDqB4iNFhQRDJQRw1ydgJ" ] },
      { "delegate": "tz1Zhv3RkfU2pHrmaiDyxp7kFZpZrUCu1CiF",
        "reception_time": "2022-01-16T10:06:57.534-00:00",
        "errors":
          [ { "kind": "temporary",
              "id": "proto.011-PtHangz2.prefilter.outdated_endorsement" } ],
        "included_in_blocks":
          [ "BMXQaMdgypUTGMrufH47SaSka72dDmXDqB4iNFhQRDJQRw1ydgJ" ] },
      { "delegate": "tz1S8e9GgdZG78XJRB3NqabfWeM37GnhZMWQ",
        "reception_time": "2022-01-16T10:06:57.308-00:00",
        "errors":
          [ { "kind": "temporary",
              "id": "proto.011-PtHangz2.prefilter.outdated_endorsement" } ],
        "included_in_blocks":
          [ "BMXQaMdgypUTGMrufH47SaSka72dDmXDqB4iNFhQRDJQRw1ydgJ" ] },
      { "delegate": "tz1gfArv665EUkSg2ojMBzcbfwuPxAvqPvjo",
        "reception_time": "2022-01-16T10:06:57.299-00:00",
        "errors":
          [ { "kind": "temporary",
              "id": "proto.011-PtHangz2.prefilter.outdated_endorsement" } ],
        "included_in_blocks":
          [ "BMXQaMdgypUTGMrufH47SaSka72dDmXDqB4iNFhQRDJQRw1ydgJ" ] },
      { "delegate": "tz1XXayQohB8XRXN7kMoHbf2NFwNiH3oMRQQ",
        "reception_time": "2022-01-16T10:06:57.293-00:00",
        "errors":
          [ { "kind": "temporary",
              "id": "proto.011-PtHangz2.prefilter.outdated_endorsement" } ],
        "included_in_blocks":
          [ "BMXQaMdgypUTGMrufH47SaSka72dDmXDqB4iNFhQRDJQRw1ydgJ" ] },
      { "delegate": "tz1NpWrAyDL9k2Lmnyxcgr9xuJakbBxdq7FB",
        "reception_time": "2022-01-16T10:07:04.896-00:00",
        "included_in_blocks":
          [ "BMXQaMdgypUTGMrufH47SaSka72dDmXDqB4iNFhQRDJQRw1ydgJ" ] },
      { "delegate": "tz1Wp9DASxBnuiZTXHTBACtQ69kp8YL4bzLz",
        "reception_time": "2022-01-16T10:07:03.636-00:00",
        "included_in_blocks":
          [ "BMXQaMdgypUTGMrufH47SaSka72dDmXDqB4iNFhQRDJQRw1ydgJ" ] },
      { "delegate": "tz3NExpXn9aPNZPorRE4SdjJ2RGrfbJgMAaV",
        "reception_time": "2022-01-16T10:07:01.687-00:00",
        "included_in_blocks":
          [ "BMXQaMdgypUTGMrufH47SaSka72dDmXDqB4iNFhQRDJQRw1ydgJ" ] },
      { "delegate": "tz1ZcTRk5uxD86EFEn1vvNffWWqJy7q5eVhc",
        "reception_time": "2022-01-16T10:07:01.241-00:00",
        "included_in_blocks":
          [ "BMXQaMdgypUTGMrufH47SaSka72dDmXDqB4iNFhQRDJQRw1ydgJ" ] },
      { "delegate": "tz1T7duV5gZWSTq4YpBGbXNLTfznCLDrFxvs",
        "reception_time": "2022-01-16T10:07:01.261-00:00",
        "included_in_blocks":
          [ "BMXQaMdgypUTGMrufH47SaSka72dDmXDqB4iNFhQRDJQRw1ydgJ" ] },
      { "delegate": "tz1dNVDWPf3Q59SdJqnjdnu277iyvReiRS9M",
        "reception_time": "2022-01-16T10:07:01.081-00:00",
        "included_in_blocks":
          [ "BMXQaMdgypUTGMrufH47SaSka72dDmXDqB4iNFhQRDJQRw1ydgJ" ] },
      { "delegate": "tz1b9MYGrbN1NAxphLEsPPNT9JC7aNFc5nA4",
        "reception_time": "2022-01-16T10:07:00.951-00:00",
        "included_in_blocks":
          [ "BMXQaMdgypUTGMrufH47SaSka72dDmXDqB4iNFhQRDJQRw1ydgJ" ] },
      { "delegate": "tz1Xsrfv6hn86fp88YfRs6xcKwt2nTqxVZYM",
        "reception_time": "2022-01-16T10:07:00.937-00:00",
        "included_in_blocks":
          [ "BMXQaMdgypUTGMrufH47SaSka72dDmXDqB4iNFhQRDJQRw1ydgJ" ] },
      { "delegate": "tz1dRKU4FQ9QRRQPdaH4zCR6gmCmXfcvcgtB",
        "reception_time": "2022-01-16T10:07:00.829-00:00",
        "included_in_blocks":
          [ "BMXQaMdgypUTGMrufH47SaSka72dDmXDqB4iNFhQRDJQRw1ydgJ" ] },
      { "delegate": "tz1aRoaRhSpRYvFdyvgWLL6TGyRoGF51wDjM",
        "reception_time": "2022-01-16T10:07:00.744-00:00",
        "included_in_blocks":
          [ "BMXQaMdgypUTGMrufH47SaSka72dDmXDqB4iNFhQRDJQRw1ydgJ" ] },
      { "delegate": "tz3RB4aoyjov4KEVRbuhvQ1CKJgBJMWhaeB8",
        "reception_time": "2022-01-16T10:07:00.629-00:00",
        "included_in_blocks":
          [ "BMXQaMdgypUTGMrufH47SaSka72dDmXDqB4iNFhQRDJQRw1ydgJ" ] },
      { "delegate": "tz3bvNMQ95vfAYtG8193ymshqjSvmxiCUuR5",
        "reception_time": "2022-01-16T10:07:00.727-00:00",
        "included_in_blocks":
          [ "BMXQaMdgypUTGMrufH47SaSka72dDmXDqB4iNFhQRDJQRw1ydgJ" ] },
      { "delegate": "tz1dDsLch7Ww1s5mfD1tjBtKWwCdrjuHWanV",
        "reception_time": "2022-01-16T10:07:00.778-00:00",
        "included_in_blocks":
          [ "BMXQaMdgypUTGMrufH47SaSka72dDmXDqB4iNFhQRDJQRw1ydgJ" ] },
      { "delegate": "tz1R6Ej25VSerE3MkSoEEeBjKHCDTFbpKuSX",
        "reception_time": "2022-01-16T10:07:00.558-00:00",
        "included_in_blocks":
          [ "BMXQaMdgypUTGMrufH47SaSka72dDmXDqB4iNFhQRDJQRw1ydgJ" ] },
      { "delegate": "tz3UoffC7FG7zfpmvmjUmUeAaHvzdcUvAj6r",
        "reception_time": "2022-01-16T10:07:00.457-00:00",
        "included_in_blocks":
          [ "BMXQaMdgypUTGMrufH47SaSka72dDmXDqB4iNFhQRDJQRw1ydgJ" ] },
      { "delegate": "tz3RDC3Jdn4j15J7bBHZd29EUee9gVB1CxD9",
        "reception_time": "2022-01-16T10:07:00.490-00:00",
        "included_in_blocks":
          [ "BMXQaMdgypUTGMrufH47SaSka72dDmXDqB4iNFhQRDJQRw1ydgJ" ] },
      { "delegate": "tz3VEZ4k6a4Wx42iyev6i2aVAptTRLEAivNN",
        "reception_time": "2022-01-16T10:07:00.514-00:00",
        "included_in_blocks":
          [ "BMXQaMdgypUTGMrufH47SaSka72dDmXDqB4iNFhQRDJQRw1ydgJ" ] },
      { "delegate": "tz2FCNBrERXtaTtNX6iimR1UJ5JSDxvdHM93",
        "reception_time": "2022-01-16T10:07:00.292-00:00",
        "included_in_blocks":
          [ "BMXQaMdgypUTGMrufH47SaSka72dDmXDqB4iNFhQRDJQRw1ydgJ" ] },
      { "delegate": "tz1g8vkmcde6sWKaG2NN9WKzCkDM6Rziq194",
        "reception_time": "2022-01-16T10:07:00.345-00:00",
        "included_in_blocks":
          [ "BMXQaMdgypUTGMrufH47SaSka72dDmXDqB4iNFhQRDJQRw1ydgJ" ] },
      { "delegate": "tz1NoYvKjXTzTk54VpLxBfouJ33J8jwKPPvw",
        "reception_time": "2022-01-16T10:07:00.343-00:00",
        "included_in_blocks":
          [ "BMXQaMdgypUTGMrufH47SaSka72dDmXDqB4iNFhQRDJQRw1ydgJ" ] },
      { "delegate": "tz3adcvQaKXTCg12zbninqo3q8ptKKtDFTLv",
        "reception_time": "2022-01-16T10:07:00.193-00:00",
        "included_in_blocks":
          [ "BMXQaMdgypUTGMrufH47SaSka72dDmXDqB4iNFhQRDJQRw1ydgJ" ] },
      { "delegate": "tz3WMqdzXqRWXwyvj5Hp2H7QEepaUuS7vd9K",
        "reception_time": "2022-01-16T10:07:00.104-00:00",
        "included_in_blocks":
          [ "BMXQaMdgypUTGMrufH47SaSka72dDmXDqB4iNFhQRDJQRw1ydgJ" ] },
      { "delegate": "tz1SRqg1KT7dJ5QxF9PWnWdfbXgh6HfKZxbd",
        "reception_time": "2022-01-16T10:07:00.000-00:00",
        "included_in_blocks":
          [ "BMXQaMdgypUTGMrufH47SaSka72dDmXDqB4iNFhQRDJQRw1ydgJ" ] },
      { "delegate": "tz1NEKxGEHsFufk87CVZcrqWu8o22qh46GK6",
        "reception_time": "2022-01-16T10:06:59.919-00:00",
        "included_in_blocks":
          [ "BMXQaMdgypUTGMrufH47SaSka72dDmXDqB4iNFhQRDJQRw1ydgJ" ] },
      { "delegate": "tz1SohptP53wDPZhzTWzDUFAUcWF6DMBpaJV",
        "reception_time": "2022-01-16T10:06:59.707-00:00",
        "included_in_blocks":
          [ "BMXQaMdgypUTGMrufH47SaSka72dDmXDqB4iNFhQRDJQRw1ydgJ" ] },
      { "delegate": "tz1LmaFsWRkjr7QMCx5PtV6xTUz3AmEpKQiF",
        "reception_time": "2022-01-16T10:06:59.541-00:00",
        "included_in_blocks":
          [ "BMXQaMdgypUTGMrufH47SaSka72dDmXDqB4iNFhQRDJQRw1ydgJ" ] },
      { "delegate": "tz3bTdwZinP8U1JmSweNzVKhmwafqWmFWRfk",
        "reception_time": "2022-01-16T10:06:59.573-00:00",
        "included_in_blocks":
          [ "BMXQaMdgypUTGMrufH47SaSka72dDmXDqB4iNFhQRDJQRw1ydgJ" ] },
      { "delegate": "tz1fwnfJNgiDACshK9avfRfFbMaXrs3ghoJa",
        "reception_time": "2022-01-16T10:06:59.421-00:00",
        "included_in_blocks":
          [ "BMXQaMdgypUTGMrufH47SaSka72dDmXDqB4iNFhQRDJQRw1ydgJ" ] },
      { "delegate": "tz1hAYfexyzPGG6RhZZMpDvAHifubsbb6kgn",
        "reception_time": "2022-01-16T10:06:59.475-00:00",
        "included_in_blocks":
          [ "BMXQaMdgypUTGMrufH47SaSka72dDmXDqB4iNFhQRDJQRw1ydgJ" ] },
      { "delegate": "tz1Nf6tsK4G6bBqgSQERy4nUtkHNKUVdh7q1",
        "reception_time": "2022-01-16T10:06:59.369-00:00",
        "included_in_blocks":
          [ "BMXQaMdgypUTGMrufH47SaSka72dDmXDqB4iNFhQRDJQRw1ydgJ" ] },
      { "delegate": "tz1dwu9aYb7CRNq4Y2zAjipdjFuSVKhHS8vA",
        "reception_time": "2022-01-16T10:06:59.246-00:00",
        "included_in_blocks":
          [ "BMXQaMdgypUTGMrufH47SaSka72dDmXDqB4iNFhQRDJQRw1ydgJ" ] },
      { "delegate": "tz1cZfFQpcYhwDp7y1njZXDsZqCrn2NqmVof",
        "reception_time": "2022-01-16T10:06:59.321-00:00",
        "included_in_blocks":
          [ "BMXQaMdgypUTGMrufH47SaSka72dDmXDqB4iNFhQRDJQRw1ydgJ" ] },
      { "delegate": "tz1ei4WtWEMEJekSv8qDnu9PExG6Q8HgRGr3",
        "reception_time": "2022-01-16T10:06:59.252-00:00",
        "included_in_blocks":
          [ "BMXQaMdgypUTGMrufH47SaSka72dDmXDqB4iNFhQRDJQRw1ydgJ" ] },
      { "delegate": "tz1SYq214SCBy9naR6cvycQsYcUGpBqQAE8d",
        "reception_time": "2022-01-16T10:06:59.237-00:00",
        "included_in_blocks":
          [ "BMXQaMdgypUTGMrufH47SaSka72dDmXDqB4iNFhQRDJQRw1ydgJ" ] },
      { "delegate": "tz1KfEsrtDaA1sX7vdM4qmEPWuSytuqCDp5j",
        "reception_time": "2022-01-16T10:06:59.262-00:00",
        "included_in_blocks":
          [ "BMXQaMdgypUTGMrufH47SaSka72dDmXDqB4iNFhQRDJQRw1ydgJ" ] },
      { "delegate": "tz1abmz7jiCV2GH2u81LRrGgAFFgvQgiDiaf",
        "reception_time": "2022-01-16T10:06:59.281-00:00",
        "included_in_blocks":
          [ "BMXQaMdgypUTGMrufH47SaSka72dDmXDqB4iNFhQRDJQRw1ydgJ" ] },
      { "delegate": "tz1V4qCyvPKZ5UeqdH14HN42rxvNPQfc9UZg",
        "reception_time": "2022-01-16T10:06:59.215-00:00",
        "included_in_blocks":
          [ "BMXQaMdgypUTGMrufH47SaSka72dDmXDqB4iNFhQRDJQRw1ydgJ" ] },
      { "delegate": "tz1PWCDnz783NNGGQjEFFsHtrcK5yBW4E2rm",
        "reception_time": "2022-01-16T10:06:59.224-00:00",
        "included_in_blocks":
          [ "BMXQaMdgypUTGMrufH47SaSka72dDmXDqB4iNFhQRDJQRw1ydgJ" ] },
      { "delegate": "tz1MQJPGNMijnXnVoBENFz9rUhaPt3S7rWoz",
        "reception_time": "2022-01-16T10:06:59.148-00:00",
        "included_in_blocks":
          [ "BMXQaMdgypUTGMrufH47SaSka72dDmXDqB4iNFhQRDJQRw1ydgJ" ] },
      { "delegate": "tz1bHzftcTKZMTZgLLtnrXydCm6UEqf4ivca",
        "reception_time": "2022-01-16T10:06:59.148-00:00",
        "included_in_blocks":
          [ "BMXQaMdgypUTGMrufH47SaSka72dDmXDqB4iNFhQRDJQRw1ydgJ" ] },
      { "delegate": "tz1MQMiZHV8q4tTwUMWmS5Y3kaP6J2136iXr",
        "reception_time": "2022-01-16T10:06:59.165-00:00",
        "included_in_blocks":
          [ "BMXQaMdgypUTGMrufH47SaSka72dDmXDqB4iNFhQRDJQRw1ydgJ" ] },
      { "delegate": "tz1QLXqnfN51dkjeghXvKHkJfhvGiM5gK4tc",
        "reception_time": "2022-01-16T10:06:59.148-00:00",
        "included_in_blocks":
          [ "BMXQaMdgypUTGMrufH47SaSka72dDmXDqB4iNFhQRDJQRw1ydgJ" ] },
      { "delegate": "tz1WCd2jm4uSt4vntk4vSuUWoZQGhLcDuR9q",
        "reception_time": "2022-01-16T10:06:59.148-00:00",
        "included_in_blocks":
          [ "BMXQaMdgypUTGMrufH47SaSka72dDmXDqB4iNFhQRDJQRw1ydgJ" ] },
      { "delegate": "tz1RCFbB9GpALpsZtu6J58sb74dm8qe6XBzv",
        "reception_time": "2022-01-16T10:06:59.148-00:00",
        "included_in_blocks":
          [ "BMXQaMdgypUTGMrufH47SaSka72dDmXDqB4iNFhQRDJQRw1ydgJ" ] },
      { "delegate": "tz1TzaNn7wSQSP5gYPXCnNzBCpyMiidCq1PX",
        "reception_time": "2022-01-16T10:06:59.148-00:00",
        "included_in_blocks":
          [ "BMXQaMdgypUTGMrufH47SaSka72dDmXDqB4iNFhQRDJQRw1ydgJ" ] },
      { "delegate": "tz3gtoUxdudfBRcNY7iVdKPHCYYX6xdPpoRS",
        "reception_time": "2022-01-16T10:06:59.148-00:00",
        "included_in_blocks":
          [ "BMXQaMdgypUTGMrufH47SaSka72dDmXDqB4iNFhQRDJQRw1ydgJ" ] },
      { "delegate": "tz3QSGPoRp3Kn7n3vY24eYeu3Peuqo45LQ4D",
        "reception_time": "2022-01-16T10:06:59.148-00:00",
        "included_in_blocks":
          [ "BMXQaMdgypUTGMrufH47SaSka72dDmXDqB4iNFhQRDJQRw1ydgJ" ] },
      { "delegate": "tz3QT9dHYKDqh563chVa6za8526ys1UKfRfL",
        "reception_time": "2022-01-16T10:06:59.148-00:00",
        "included_in_blocks":
          [ "BMXQaMdgypUTGMrufH47SaSka72dDmXDqB4iNFhQRDJQRw1ydgJ" ] },
      { "delegate": "tz3Zhs2dygr55yHyQyKjntAtY9bgfhLZ4Xj1",
        "reception_time": "2022-01-16T10:06:59.148-00:00",
        "included_in_blocks":
          [ "BMXQaMdgypUTGMrufH47SaSka72dDmXDqB4iNFhQRDJQRw1ydgJ" ] },
      { "delegate": "tz1UJvHTgpVzcKWhTazGxVcn5wsHru5Gietg",
        "reception_time": "2022-01-16T10:06:59.148-00:00",
        "included_in_blocks":
          [ "BMXQaMdgypUTGMrufH47SaSka72dDmXDqB4iNFhQRDJQRw1ydgJ" ] },
      { "delegate": "tz3iJu5vrKZcsqRPs8yJ61UDoeEXZmtro4qh",
        "reception_time": "2022-01-16T10:06:58.836-00:00",
        "included_in_blocks":
          [ "BMXQaMdgypUTGMrufH47SaSka72dDmXDqB4iNFhQRDJQRw1ydgJ" ] },
      { "delegate": "tz3ZbP2pM3nwvXztbuMJwJnDvV5xdpU8UkkD",
        "reception_time": "2022-01-16T10:06:58.836-00:00",
        "included_in_blocks":
          [ "BMXQaMdgypUTGMrufH47SaSka72dDmXDqB4iNFhQRDJQRw1ydgJ" ] },
      { "delegate": "tz1gcna2xxZj2eNp1LaMyAhVJ49mEFj4FH26",
        "reception_time": "2022-01-16T10:06:58.836-00:00",
        "included_in_blocks":
          [ "BMXQaMdgypUTGMrufH47SaSka72dDmXDqB4iNFhQRDJQRw1ydgJ" ] },
      { "delegate": "tz3NxTnke1acr8o3h5y9ytf5awQBGNJUKzVU",
        "reception_time": "2022-01-16T10:06:58.836-00:00",
        "included_in_blocks":
          [ "BMXQaMdgypUTGMrufH47SaSka72dDmXDqB4iNFhQRDJQRw1ydgJ" ] },
      { "delegate": "tz1Ldzz6k1BHdhuKvAtMRX7h5kJSMHESMHLC",
        "reception_time": "2022-01-16T10:06:58.836-00:00",
        "included_in_blocks":
          [ "BMXQaMdgypUTGMrufH47SaSka72dDmXDqB4iNFhQRDJQRw1ydgJ" ] },
      { "delegate": "tz1VmiY38m3y95HqQLjMwqnMS7sdMfGomzKi",
        "reception_time": "2022-01-16T10:06:59.148-00:00",
        "included_in_blocks":
          [ "BMXQaMdgypUTGMrufH47SaSka72dDmXDqB4iNFhQRDJQRw1ydgJ" ] },
      { "delegate": "tz3RKYFsLuQzKBtmYuLNas7uMu3AsYd4QdsA",
        "reception_time": "2022-01-16T10:06:58.836-00:00",
        "included_in_blocks":
          [ "BMXQaMdgypUTGMrufH47SaSka72dDmXDqB4iNFhQRDJQRw1ydgJ" ] },
      { "delegate": "tz3hw2kqXhLUvY65ca1eety2oQTpAvd34R9Q",
        "reception_time": "2022-01-16T10:06:58.836-00:00",
        "included_in_blocks":
          [ "BMXQaMdgypUTGMrufH47SaSka72dDmXDqB4iNFhQRDJQRw1ydgJ" ] },
      { "delegate": "tz1gUNyn3hmnEWqkusWPzxRaon1cs7ndWh7h",
        "reception_time": "2022-01-16T10:06:58.836-00:00",
        "included_in_blocks":
          [ "BMXQaMdgypUTGMrufH47SaSka72dDmXDqB4iNFhQRDJQRw1ydgJ" ] },
      { "delegate": "tz1YhNsiRRU8aHNGg7NK3uuP6UDAyacJernB",
        "reception_time": "2022-01-16T10:06:58.836-00:00",
        "included_in_blocks":
          [ "BMXQaMdgypUTGMrufH47SaSka72dDmXDqB4iNFhQRDJQRw1ydgJ" ] },
      { "delegate": "tz1S8MNvuFEUsWgjHvi3AxibRBf388NhT1q2",
        "reception_time": "2022-01-16T10:06:58.836-00:00",
        "included_in_blocks":
          [ "BMXQaMdgypUTGMrufH47SaSka72dDmXDqB4iNFhQRDJQRw1ydgJ" ] },
      { "delegate": "tz1VQnqCCqX4K5sP3FNkVSNKTdCAMJDd3E1n",
        "reception_time": "2022-01-16T10:06:58.836-00:00",
        "included_in_blocks":
          [ "BMXQaMdgypUTGMrufH47SaSka72dDmXDqB4iNFhQRDJQRw1ydgJ" ] },
      { "delegate": "tz1ZPh7XfUaJXUDvkrBxmS1BjEM1i62hiPpM",
        "reception_time": "2022-01-16T10:06:58.836-00:00",
        "included_in_blocks":
          [ "BMXQaMdgypUTGMrufH47SaSka72dDmXDqB4iNFhQRDJQRw1ydgJ" ] },
      { "delegate": "tz1irJKkXS2DBWkU1NnmFQx1c1L7pbGg4yhk",
        "reception_time": "2022-01-16T10:06:58.836-00:00",
        "included_in_blocks":
          [ "BMXQaMdgypUTGMrufH47SaSka72dDmXDqB4iNFhQRDJQRw1ydgJ" ] },
      { "delegate": "tz1Scdr2HsZiQjc7bHMeBbmDRXYVvdhjJbBh",
        "reception_time": "2022-01-16T10:06:58.659-00:00",
        "included_in_blocks":
          [ "BMXQaMdgypUTGMrufH47SaSka72dDmXDqB4iNFhQRDJQRw1ydgJ" ] } ] }