{ "blocks":
    [ { "hash": "BLDrnQtF79h8qv81w9YqHpH768mx2JTKRHwg4Gvxb6hWTVPdNqM",
        "delegate": "tz1TzaNn7wSQSP5gYPXCnNzBCpyMiidCq1PX",
        "reception_time": "2022-01-16T13:46:26.869-00:00",
        "timestamp": "2022-01-16T13:46:20Z" } ],
  "endorsements":
    [ { "delegate": "tz1ibcPVGK4Y8pcW4BYUsojiHoBKnZbyDGrX" },
      { "delegate": "tz1RjoHc98dBoqaH2jawF62XNKh7YsHwbkEv" },
      { "delegate": "tz1Lhf4J9Qxoe3DZ2nfe8FGDnvVj7oKjnMY6",
        "reception_time": "2022-01-16T13:46:26.791-00:00",
        "errors":
          [ { "kind": "temporary",
              "id": "proto.011-PtHangz2.prefilter.outdated_endorsement" } ],
        "included_in_blocks":
          [ "BLpp9fWEjovgELjbMut3wDpeGhZJFoPANJHQFXdGjry1Euagxrn" ] },
      { "delegate": "tz1MXFrtZoaXckE41bjUCSjAjAap3AFDSr3N",
        "reception_time": "2022-01-16T13:46:26.728-00:00",
        "errors":
          [ { "kind": "temporary",
              "id": "proto.011-PtHangz2.prefilter.outdated_endorsement" } ],
        "included_in_blocks":
          [ "BLpp9fWEjovgELjbMut3wDpeGhZJFoPANJHQFXdGjry1Euagxrn" ] },
      { "delegate": "tz1P2Po7YM526ughEsRbY4oR9zaUPDZjxFrb",
        "reception_time": "2022-01-16T13:46:26.433-00:00",
        "errors":
          [ { "kind": "temporary",
              "id": "proto.011-PtHangz2.prefilter.outdated_endorsement" } ],
        "included_in_blocks":
          [ "BLpp9fWEjovgELjbMut3wDpeGhZJFoPANJHQFXdGjry1Euagxrn" ] },
      { "delegate": "tz1NpWrAyDL9k2Lmnyxcgr9xuJakbBxdq7FB",
        "reception_time": "2022-01-16T13:46:36.669-00:00",
        "included_in_blocks":
          [ "BLpp9fWEjovgELjbMut3wDpeGhZJFoPANJHQFXdGjry1Euagxrn" ] },
      { "delegate": "tz1ULYFhUY7Syao5NWr9jZ1pp3aw81QPiqjs",
        "reception_time": "2022-01-16T13:46:32.546-00:00",
        "included_in_blocks":
          [ "BLpp9fWEjovgELjbMut3wDpeGhZJFoPANJHQFXdGjry1Euagxrn" ] },
      { "delegate": "tz1QdCydwfoU3Pvv2jq5TCsLTNm9Cgk7ptyk",
        "reception_time": "2022-01-16T13:46:31.605-00:00",
        "included_in_blocks":
          [ "BLpp9fWEjovgELjbMut3wDpeGhZJFoPANJHQFXdGjry1Euagxrn" ] },
      { "delegate": "tz3NExpXn9aPNZPorRE4SdjJ2RGrfbJgMAaV",
        "reception_time": "2022-01-16T13:46:30.318-00:00",
        "included_in_blocks":
          [ "BLpp9fWEjovgELjbMut3wDpeGhZJFoPANJHQFXdGjry1Euagxrn" ] },
      { "delegate": "tz1dRKU4FQ9QRRQPdaH4zCR6gmCmXfcvcgtB",
        "reception_time": "2022-01-16T13:46:30.140-00:00",
        "included_in_blocks":
          [ "BLpp9fWEjovgELjbMut3wDpeGhZJFoPANJHQFXdGjry1Euagxrn" ] },
      { "delegate": "tz1dNVDWPf3Q59SdJqnjdnu277iyvReiRS9M",
        "reception_time": "2022-01-16T13:46:30.135-00:00",
        "included_in_blocks":
          [ "BLpp9fWEjovgELjbMut3wDpeGhZJFoPANJHQFXdGjry1Euagxrn" ] },
      { "delegate": "tz1awXW7wuXy21c66vBudMXQVAPgRnqqwgTH",
        "reception_time": "2022-01-16T13:46:29.889-00:00",
        "included_in_blocks":
          [ "BLpp9fWEjovgELjbMut3wDpeGhZJFoPANJHQFXdGjry1Euagxrn" ] },
      { "delegate": "tz1aRoaRhSpRYvFdyvgWLL6TGyRoGF51wDjM",
        "reception_time": "2022-01-16T13:46:29.987-00:00",
        "included_in_blocks":
          [ "BLpp9fWEjovgELjbMut3wDpeGhZJFoPANJHQFXdGjry1Euagxrn" ] },
      { "delegate": "tz3bvNMQ95vfAYtG8193ymshqjSvmxiCUuR5",
        "reception_time": "2022-01-16T13:46:29.756-00:00",
        "included_in_blocks":
          [ "BLpp9fWEjovgELjbMut3wDpeGhZJFoPANJHQFXdGjry1Euagxrn" ] },
      { "delegate": "tz3WMqdzXqRWXwyvj5Hp2H7QEepaUuS7vd9K",
        "reception_time": "2022-01-16T13:46:29.541-00:00",
        "included_in_blocks":
          [ "BLpp9fWEjovgELjbMut3wDpeGhZJFoPANJHQFXdGjry1Euagxrn" ] },
      { "delegate": "tz3NDpRj6WBrJPikcPVHRBEjWKxFw3c6eQPS",
        "reception_time": "2022-01-16T13:46:29.489-00:00",
        "included_in_blocks":
          [ "BLpp9fWEjovgELjbMut3wDpeGhZJFoPANJHQFXdGjry1Euagxrn" ] },
      { "delegate": "tz3VEZ4k6a4Wx42iyev6i2aVAptTRLEAivNN",
        "reception_time": "2022-01-16T13:46:29.424-00:00",
        "included_in_blocks":
          [ "BLpp9fWEjovgELjbMut3wDpeGhZJFoPANJHQFXdGjry1Euagxrn" ] },
      { "delegate": "tz3gLTu4Yxj8tPAcriQVUdxv6BY9QyvzU1az",
        "reception_time": "2022-01-16T13:46:29.469-00:00",
        "included_in_blocks":
          [ "BLpp9fWEjovgELjbMut3wDpeGhZJFoPANJHQFXdGjry1Euagxrn" ] },
      { "delegate": "tz1TRqbYbUf2GyrjErf3hBzgBJPzW8y36qEs",
        "reception_time": "2022-01-16T13:46:29.438-00:00",
        "included_in_blocks":
          [ "BLpp9fWEjovgELjbMut3wDpeGhZJFoPANJHQFXdGjry1Euagxrn" ] },
      { "delegate": "tz3UoffC7FG7zfpmvmjUmUeAaHvzdcUvAj6r",
        "reception_time": "2022-01-16T13:46:29.334-00:00",
        "included_in_blocks":
          [ "BLpp9fWEjovgELjbMut3wDpeGhZJFoPANJHQFXdGjry1Euagxrn" ] },
      { "delegate": "tz1PeZx7FXy7QRuMREGXGxeipb24RsMMzUNe",
        "reception_time": "2022-01-16T13:46:29.192-00:00",
        "included_in_blocks":
          [ "BLpp9fWEjovgELjbMut3wDpeGhZJFoPANJHQFXdGjry1Euagxrn" ] },
      { "delegate": "tz1NEKxGEHsFufk87CVZcrqWu8o22qh46GK6",
        "reception_time": "2022-01-16T13:46:29.078-00:00",
        "included_in_blocks":
          [ "BLpp9fWEjovgELjbMut3wDpeGhZJFoPANJHQFXdGjry1Euagxrn" ] },
      { "delegate": "tz1abmz7jiCV2GH2u81LRrGgAFFgvQgiDiaf",
        "reception_time": "2022-01-16T13:46:29.084-00:00",
        "included_in_blocks":
          [ "BLpp9fWEjovgELjbMut3wDpeGhZJFoPANJHQFXdGjry1Euagxrn" ] },
      { "delegate": "tz1TEc75UKXv4W5cwi14Na3NtqFD51yKQi7h",
        "reception_time": "2022-01-16T13:46:29.100-00:00",
        "included_in_blocks":
          [ "BLpp9fWEjovgELjbMut3wDpeGhZJFoPANJHQFXdGjry1Euagxrn" ] },
      { "delegate": "tz1KfEsrtDaA1sX7vdM4qmEPWuSytuqCDp5j",
        "reception_time": "2022-01-16T13:46:29.100-00:00",
        "included_in_blocks":
          [ "BLpp9fWEjovgELjbMut3wDpeGhZJFoPANJHQFXdGjry1Euagxrn" ] },
      { "delegate": "tz2FCNBrERXtaTtNX6iimR1UJ5JSDxvdHM93",
        "reception_time": "2022-01-16T13:46:29.081-00:00",
        "included_in_blocks":
          [ "BLpp9fWEjovgELjbMut3wDpeGhZJFoPANJHQFXdGjry1Euagxrn" ] },
      { "delegate": "tz1R4PuhxUxBBZhfLJDx2nNjbr7WorAPX1oC",
        "reception_time": "2022-01-16T13:46:28.958-00:00",
        "included_in_blocks":
          [ "BLpp9fWEjovgELjbMut3wDpeGhZJFoPANJHQFXdGjry1Euagxrn" ] },
      { "delegate": "tz1WBfwbT66FC6BTLexc2BoyCCBM9LG7pnVW",
        "reception_time": "2022-01-16T13:46:28.980-00:00",
        "included_in_blocks":
          [ "BLpp9fWEjovgELjbMut3wDpeGhZJFoPANJHQFXdGjry1Euagxrn" ] },
      { "delegate": "tz1SYq214SCBy9naR6cvycQsYcUGpBqQAE8d",
        "reception_time": "2022-01-16T13:46:28.918-00:00",
        "included_in_blocks":
          [ "BLpp9fWEjovgELjbMut3wDpeGhZJFoPANJHQFXdGjry1Euagxrn" ] },
      { "delegate": "tz1Nf6tsK4G6bBqgSQERy4nUtkHNKUVdh7q1",
        "reception_time": "2022-01-16T13:46:28.977-00:00",
        "included_in_blocks":
          [ "BLpp9fWEjovgELjbMut3wDpeGhZJFoPANJHQFXdGjry1Euagxrn" ] },
      { "delegate": "tz1S8MNvuFEUsWgjHvi3AxibRBf388NhT1q2",
        "reception_time": "2022-01-16T13:46:28.869-00:00",
        "included_in_blocks":
          [ "BLpp9fWEjovgELjbMut3wDpeGhZJFoPANJHQFXdGjry1Euagxrn" ] },
      { "delegate": "tz1RQhNh7iB9CZA7i3ifTWNwiGYVffponfbB",
        "reception_time": "2022-01-16T13:46:28.862-00:00",
        "included_in_blocks":
          [ "BLpp9fWEjovgELjbMut3wDpeGhZJFoPANJHQFXdGjry1Euagxrn" ] },
      { "delegate": "tz1V4qCyvPKZ5UeqdH14HN42rxvNPQfc9UZg",
        "reception_time": "2022-01-16T13:46:28.853-00:00",
        "included_in_blocks":
          [ "BLpp9fWEjovgELjbMut3wDpeGhZJFoPANJHQFXdGjry1Euagxrn" ] },
      { "delegate": "tz1ei4WtWEMEJekSv8qDnu9PExG6Q8HgRGr3",
        "reception_time": "2022-01-16T13:46:28.795-00:00",
        "included_in_blocks":
          [ "BLpp9fWEjovgELjbMut3wDpeGhZJFoPANJHQFXdGjry1Euagxrn" ] },
      { "delegate": "tz3RDC3Jdn4j15J7bBHZd29EUee9gVB1CxD9",
        "reception_time": "2022-01-16T13:46:28.827-00:00",
        "included_in_blocks":
          [ "BLpp9fWEjovgELjbMut3wDpeGhZJFoPANJHQFXdGjry1Euagxrn" ] },
      { "delegate": "tz1NortRftucvAkD1J58L32EhSVrQEWJCEnB",
        "reception_time": "2022-01-16T13:46:28.831-00:00",
        "included_in_blocks":
          [ "BLpp9fWEjovgELjbMut3wDpeGhZJFoPANJHQFXdGjry1Euagxrn" ] },
      { "delegate": "tz1gfArv665EUkSg2ojMBzcbfwuPxAvqPvjo",
        "reception_time": "2022-01-16T13:46:28.857-00:00",
        "included_in_blocks":
          [ "BLpp9fWEjovgELjbMut3wDpeGhZJFoPANJHQFXdGjry1Euagxrn" ] },
      { "delegate": "tz3bTdwZinP8U1JmSweNzVKhmwafqWmFWRfk",
        "reception_time": "2022-01-16T13:46:28.876-00:00",
        "included_in_blocks":
          [ "BLpp9fWEjovgELjbMut3wDpeGhZJFoPANJHQFXdGjry1Euagxrn" ] },
      { "delegate": "tz1RCFbB9GpALpsZtu6J58sb74dm8qe6XBzv",
        "reception_time": "2022-01-16T13:46:28.667-00:00",
        "included_in_blocks":
          [ "BLpp9fWEjovgELjbMut3wDpeGhZJFoPANJHQFXdGjry1Euagxrn" ] },
      { "delegate": "tz1PWCDnz783NNGGQjEFFsHtrcK5yBW4E2rm",
        "reception_time": "2022-01-16T13:46:28.883-00:00",
        "included_in_blocks":
          [ "BLpp9fWEjovgELjbMut3wDpeGhZJFoPANJHQFXdGjry1Euagxrn" ] },
      { "delegate": "tz3RB4aoyjov4KEVRbuhvQ1CKJgBJMWhaeB8",
        "reception_time": "2022-01-16T13:46:28.818-00:00",
        "included_in_blocks":
          [ "BLpp9fWEjovgELjbMut3wDpeGhZJFoPANJHQFXdGjry1Euagxrn" ] },
      { "delegate": "tz1aXD7Jigrt3PBYSpHSg5Rr33SexMmmM5Ys",
        "reception_time": "2022-01-16T13:46:28.685-00:00",
        "included_in_blocks":
          [ "BLpp9fWEjovgELjbMut3wDpeGhZJFoPANJHQFXdGjry1Euagxrn" ] },
      { "delegate": "tz1NSDFKuRyzHxpfG1AMkyCwEiZ52cbR2mRW",
        "reception_time": "2022-01-16T13:46:28.527-00:00",
        "included_in_blocks":
          [ "BLpp9fWEjovgELjbMut3wDpeGhZJFoPANJHQFXdGjry1Euagxrn" ] },
      { "delegate": "tz1gcna2xxZj2eNp1LaMyAhVJ49mEFj4FH26",
        "reception_time": "2022-01-16T13:46:28.837-00:00",
        "included_in_blocks":
          [ "BLpp9fWEjovgELjbMut3wDpeGhZJFoPANJHQFXdGjry1Euagxrn" ] },
      { "delegate": "tz1YhNsiRRU8aHNGg7NK3uuP6UDAyacJernB",
        "reception_time": "2022-01-16T13:46:28.729-00:00",
        "included_in_blocks":
          [ "BLpp9fWEjovgELjbMut3wDpeGhZJFoPANJHQFXdGjry1Euagxrn" ] },
      { "delegate": "tz1VmiY38m3y95HqQLjMwqnMS7sdMfGomzKi",
        "reception_time": "2022-01-16T13:46:28.505-00:00",
        "included_in_blocks":
          [ "BLpp9fWEjovgELjbMut3wDpeGhZJFoPANJHQFXdGjry1Euagxrn" ] },
      { "delegate": "tz1h4GUAMweP7SNWzDgvMk3yRCAZyaP1MxZq",
        "reception_time": "2022-01-16T13:46:28.648-00:00",
        "included_in_blocks":
          [ "BLpp9fWEjovgELjbMut3wDpeGhZJFoPANJHQFXdGjry1Euagxrn" ] },
      { "delegate": "tz3S6BBeKgJGXxvLyZ1xzXzMPn11nnFtq5L9",
        "reception_time": "2022-01-16T13:46:28.662-00:00",
        "included_in_blocks":
          [ "BLpp9fWEjovgELjbMut3wDpeGhZJFoPANJHQFXdGjry1Euagxrn" ] },
      { "delegate": "tz3QT9dHYKDqh563chVa6za8526ys1UKfRfL",
        "reception_time": "2022-01-16T13:46:28.562-00:00",
        "included_in_blocks":
          [ "BLpp9fWEjovgELjbMut3wDpeGhZJFoPANJHQFXdGjry1Euagxrn" ] },
      { "delegate": "tz3iJu5vrKZcsqRPs8yJ61UDoeEXZmtro4qh",
        "reception_time": "2022-01-16T13:46:28.631-00:00",
        "included_in_blocks":
          [ "BLpp9fWEjovgELjbMut3wDpeGhZJFoPANJHQFXdGjry1Euagxrn" ] },
      { "delegate": "tz3Zhs2dygr55yHyQyKjntAtY9bgfhLZ4Xj1",
        "reception_time": "2022-01-16T13:46:28.297-00:00",
        "included_in_blocks":
          [ "BLpp9fWEjovgELjbMut3wDpeGhZJFoPANJHQFXdGjry1Euagxrn" ] },
      { "delegate": "tz1Ldzz6k1BHdhuKvAtMRX7h5kJSMHESMHLC",
        "reception_time": "2022-01-16T13:46:28.290-00:00",
        "included_in_blocks":
          [ "BLpp9fWEjovgELjbMut3wDpeGhZJFoPANJHQFXdGjry1Euagxrn" ] },
      { "delegate": "tz1WCd2jm4uSt4vntk4vSuUWoZQGhLcDuR9q",
        "reception_time": "2022-01-16T13:46:28.641-00:00",
        "included_in_blocks":
          [ "BLpp9fWEjovgELjbMut3wDpeGhZJFoPANJHQFXdGjry1Euagxrn" ] },
      { "delegate": "tz1irJKkXS2DBWkU1NnmFQx1c1L7pbGg4yhk",
        "reception_time": "2022-01-16T13:46:28.327-00:00",
        "included_in_blocks":
          [ "BLpp9fWEjovgELjbMut3wDpeGhZJFoPANJHQFXdGjry1Euagxrn" ] },
      { "delegate": "tz3ZbP2pM3nwvXztbuMJwJnDvV5xdpU8UkkD",
        "reception_time": "2022-01-16T13:46:28.335-00:00",
        "included_in_blocks":
          [ "BLpp9fWEjovgELjbMut3wDpeGhZJFoPANJHQFXdGjry1Euagxrn" ] },
      { "delegate": "tz3gtoUxdudfBRcNY7iVdKPHCYYX6xdPpoRS",
        "reception_time": "2022-01-16T13:46:28.306-00:00",
        "included_in_blocks":
          [ "BLpp9fWEjovgELjbMut3wDpeGhZJFoPANJHQFXdGjry1Euagxrn" ] },
      { "delegate": "tz3NxTnke1acr8o3h5y9ytf5awQBGNJUKzVU",
        "reception_time": "2022-01-16T13:46:28.281-00:00",
        "included_in_blocks":
          [ "BLpp9fWEjovgELjbMut3wDpeGhZJFoPANJHQFXdGjry1Euagxrn" ] },
      { "delegate": "tz1Kf25fX1VdmYGSEzwFy1wNmkbSEZ2V83sY",
        "reception_time": "2022-01-16T13:46:28.459-00:00",
        "included_in_blocks":
          [ "BLpp9fWEjovgELjbMut3wDpeGhZJFoPANJHQFXdGjry1Euagxrn" ] },
      { "delegate": "tz3hw2kqXhLUvY65ca1eety2oQTpAvd34R9Q",
        "reception_time": "2022-01-16T13:46:28.752-00:00",
        "included_in_blocks":
          [ "BLpp9fWEjovgELjbMut3wDpeGhZJFoPANJHQFXdGjry1Euagxrn" ] },
      { "delegate": "tz3RKYFsLuQzKBtmYuLNas7uMu3AsYd4QdsA",
        "reception_time": "2022-01-16T13:46:28.598-00:00",
        "included_in_blocks":
          [ "BLpp9fWEjovgELjbMut3wDpeGhZJFoPANJHQFXdGjry1Euagxrn" ] },
      { "delegate": "tz1VQnqCCqX4K5sP3FNkVSNKTdCAMJDd3E1n",
        "reception_time": "2022-01-16T13:46:28.281-00:00",
        "included_in_blocks":
          [ "BLpp9fWEjovgELjbMut3wDpeGhZJFoPANJHQFXdGjry1Euagxrn" ] },
      { "delegate": "tz1Kt4P8BCaP93AEV4eA7gmpRryWt5hznjCP",
        "reception_time": "2022-01-16T13:46:28.264-00:00",
        "included_in_blocks":
          [ "BLpp9fWEjovgELjbMut3wDpeGhZJFoPANJHQFXdGjry1Euagxrn" ] },
      { "delegate": "tz1gUNyn3hmnEWqkusWPzxRaon1cs7ndWh7h",
        "reception_time": "2022-01-16T13:46:28.290-00:00",
        "included_in_blocks":
          [ "BLpp9fWEjovgELjbMut3wDpeGhZJFoPANJHQFXdGjry1Euagxrn" ] },
      { "delegate": "tz1iZEKy4LaAjnTmn2RuGDf2iqdAQKnRi8kY",
        "reception_time": "2022-01-16T13:46:28.584-00:00",
        "included_in_blocks":
          [ "BLpp9fWEjovgELjbMut3wDpeGhZJFoPANJHQFXdGjry1Euagxrn" ] },
      { "delegate": "tz1eEnQhbwf6trb8Q8mPb2RaPkNk2rN7BKi8",
        "reception_time": "2022-01-16T13:46:28.253-00:00",
        "included_in_blocks":
          [ "BLpp9fWEjovgELjbMut3wDpeGhZJFoPANJHQFXdGjry1Euagxrn" ] },
      { "delegate": "tz1TXzyaKUA8wsWefdSnyaYFnV2M3vCV7er9",
        "reception_time": "2022-01-16T13:46:28.264-00:00",
        "included_in_blocks":
          [ "BLpp9fWEjovgELjbMut3wDpeGhZJFoPANJHQFXdGjry1Euagxrn" ] },
      { "delegate": "tz1TRspM5SeZpaQUhzByXbEvqKF1vnCM2YTK",
        "reception_time": "2022-01-16T13:46:28.246-00:00",
        "included_in_blocks":
          [ "BLpp9fWEjovgELjbMut3wDpeGhZJFoPANJHQFXdGjry1Euagxrn" ] },
      { "delegate": "tz1Scdr2HsZiQjc7bHMeBbmDRXYVvdhjJbBh",
        "reception_time": "2022-01-16T13:46:28.200-00:00",
        "included_in_blocks":
          [ "BLpp9fWEjovgELjbMut3wDpeGhZJFoPANJHQFXdGjry1Euagxrn" ] } ] }