{ "blocks":
    [ { "hash": "BKq7JqWryq6C25X1WPoPfX44FP2dbK2mTK8UzmnCjYepnaAmp7L",
        "delegate": "tz3WMqdzXqRWXwyvj5Hp2H7QEepaUuS7vd9K",
        "reception_time": "2022-01-16T07:23:28.248-00:00",
        "timestamp": "2022-01-16T07:23:20Z" } ],
  "endorsements":
    [ { "delegate": "tz1ibcPVGK4Y8pcW4BYUsojiHoBKnZbyDGrX" },
      { "delegate": "tz1fwnfJNgiDACshK9avfRfFbMaXrs3ghoJa" },
      { "delegate": "tz1dbfppLAAxXZNtf2SDps7rch3qfUznKSoK" },
      { "delegate": "tz1TRspM5SeZpaQUhzByXbEvqKF1vnCM2YTK" },
      { "delegate": "tz1RjoHc98dBoqaH2jawF62XNKh7YsHwbkEv" },
      { "delegate": "tz1ZY5ug2KcAiaVfxhDKtKLx8U5zEgsxgdjV",
        "reception_time": "2022-01-16T07:23:35.770-00:00",
        "included_in_blocks":
          [ "BMW5JnyXhnAVGMKFHFuMKLVG3xeUy62vpyvECmDY3WSSa7yfjns" ] },
      { "delegate": "tz1KwafrdmM8RwxUMxdbbtWyZuKLWSPVxe9u",
        "reception_time": "2022-01-16T07:23:34.347-00:00",
        "included_in_blocks":
          [ "BMW5JnyXhnAVGMKFHFuMKLVG3xeUy62vpyvECmDY3WSSa7yfjns" ] },
      { "delegate": "tz1fTqpT5D4X4tc63uCpcVFkpV68LB6z4ih7",
        "reception_time": "2022-01-16T07:23:34.104-00:00",
        "included_in_blocks":
          [ "BMW5JnyXhnAVGMKFHFuMKLVG3xeUy62vpyvECmDY3WSSa7yfjns" ] },
      { "delegate": "tz1eVaNx3gCmG1EsLjijkmgAxdLYVf6Bf5Sq",
        "reception_time": "2022-01-16T07:23:33.825-00:00",
        "included_in_blocks":
          [ "BMW5JnyXhnAVGMKFHFuMKLVG3xeUy62vpyvECmDY3WSSa7yfjns" ] },
      { "delegate": "tz1T7duV5gZWSTq4YpBGbXNLTfznCLDrFxvs",
        "reception_time": "2022-01-16T07:23:32.141-00:00",
        "included_in_blocks":
          [ "BMW5JnyXhnAVGMKFHFuMKLVG3xeUy62vpyvECmDY3WSSa7yfjns" ] },
      { "delegate": "tz1aRoaRhSpRYvFdyvgWLL6TGyRoGF51wDjM",
        "reception_time": "2022-01-16T07:23:32.127-00:00",
        "included_in_blocks":
          [ "BMW5JnyXhnAVGMKFHFuMKLVG3xeUy62vpyvECmDY3WSSa7yfjns" ] },
      { "delegate": "tz1ZcTRk5uxD86EFEn1vvNffWWqJy7q5eVhc",
        "reception_time": "2022-01-16T07:23:32.057-00:00",
        "included_in_blocks":
          [ "BMW5JnyXhnAVGMKFHFuMKLVG3xeUy62vpyvECmDY3WSSa7yfjns" ] },
      { "delegate": "tz1cYufsxHXJcvANhvS55h3aY32a9BAFB494",
        "reception_time": "2022-01-16T07:23:31.686-00:00",
        "included_in_blocks":
          [ "BMW5JnyXhnAVGMKFHFuMKLVG3xeUy62vpyvECmDY3WSSa7yfjns" ] },
      { "delegate": "tz1dNVDWPf3Q59SdJqnjdnu277iyvReiRS9M",
        "reception_time": "2022-01-16T07:23:31.127-00:00",
        "included_in_blocks":
          [ "BMW5JnyXhnAVGMKFHFuMKLVG3xeUy62vpyvECmDY3WSSa7yfjns" ] },
      { "delegate": "tz3NExpXn9aPNZPorRE4SdjJ2RGrfbJgMAaV",
        "reception_time": "2022-01-16T07:23:31.108-00:00",
        "included_in_blocks":
          [ "BMW5JnyXhnAVGMKFHFuMKLVG3xeUy62vpyvECmDY3WSSa7yfjns" ] },
      { "delegate": "tz3gLTu4Yxj8tPAcriQVUdxv6BY9QyvzU1az",
        "reception_time": "2022-01-16T07:23:31.036-00:00",
        "included_in_blocks":
          [ "BMW5JnyXhnAVGMKFHFuMKLVG3xeUy62vpyvECmDY3WSSa7yfjns" ] },
      { "delegate": "tz3UoffC7FG7zfpmvmjUmUeAaHvzdcUvAj6r",
        "reception_time": "2022-01-16T07:23:31.098-00:00",
        "included_in_blocks":
          [ "BMW5JnyXhnAVGMKFHFuMKLVG3xeUy62vpyvECmDY3WSSa7yfjns" ] },
      { "delegate": "tz1VceyYUpq1gk5dtp6jXQRtCtY8hm5DKt72",
        "reception_time": "2022-01-16T07:23:30.939-00:00",
        "included_in_blocks":
          [ "BMW5JnyXhnAVGMKFHFuMKLVG3xeUy62vpyvECmDY3WSSa7yfjns" ] },
      { "delegate": "tz2FCNBrERXtaTtNX6iimR1UJ5JSDxvdHM93",
        "reception_time": "2022-01-16T07:23:30.859-00:00",
        "included_in_blocks":
          [ "BMW5JnyXhnAVGMKFHFuMKLVG3xeUy62vpyvECmDY3WSSa7yfjns" ] },
      { "delegate": "tz3bvNMQ95vfAYtG8193ymshqjSvmxiCUuR5",
        "reception_time": "2022-01-16T07:23:30.612-00:00",
        "included_in_blocks":
          [ "BMW5JnyXhnAVGMKFHFuMKLVG3xeUy62vpyvECmDY3WSSa7yfjns" ] },
      { "delegate": "tz1axcnVN9tZnCe4sQQhC6f3tfSEXdjPaXPY",
        "reception_time": "2022-01-16T07:23:30.636-00:00",
        "included_in_blocks":
          [ "BMW5JnyXhnAVGMKFHFuMKLVG3xeUy62vpyvECmDY3WSSa7yfjns" ] },
      { "delegate": "tz1S6H83gugqK4dR5Had9jWR9M1ZdAAVgU5e",
        "reception_time": "2022-01-16T07:23:30.552-00:00",
        "included_in_blocks":
          [ "BMW5JnyXhnAVGMKFHFuMKLVG3xeUy62vpyvECmDY3WSSa7yfjns" ] },
      { "delegate": "tz1TRqbYbUf2GyrjErf3hBzgBJPzW8y36qEs",
        "reception_time": "2022-01-16T07:23:30.518-00:00",
        "included_in_blocks":
          [ "BMW5JnyXhnAVGMKFHFuMKLVG3xeUy62vpyvECmDY3WSSa7yfjns" ] },
      { "delegate": "tz1g8vkmcde6sWKaG2NN9WKzCkDM6Rziq194",
        "reception_time": "2022-01-16T07:23:30.515-00:00",
        "included_in_blocks":
          [ "BMW5JnyXhnAVGMKFHFuMKLVG3xeUy62vpyvECmDY3WSSa7yfjns" ] },
      { "delegate": "tz1QLXqnfN51dkjeghXvKHkJfhvGiM5gK4tc",
        "reception_time": "2022-01-16T07:23:30.495-00:00",
        "included_in_blocks":
          [ "BMW5JnyXhnAVGMKFHFuMKLVG3xeUy62vpyvECmDY3WSSa7yfjns" ] },
      { "delegate": "tz1NEKxGEHsFufk87CVZcrqWu8o22qh46GK6",
        "reception_time": "2022-01-16T07:23:30.371-00:00",
        "included_in_blocks":
          [ "BMW5JnyXhnAVGMKFHFuMKLVG3xeUy62vpyvECmDY3WSSa7yfjns" ] },
      { "delegate": "tz1PeZx7FXy7QRuMREGXGxeipb24RsMMzUNe",
        "reception_time": "2022-01-16T07:23:30.447-00:00",
        "included_in_blocks":
          [ "BMW5JnyXhnAVGMKFHFuMKLVG3xeUy62vpyvECmDY3WSSa7yfjns" ] },
      { "delegate": "tz1X4Qb9NJ7JEuitX3jFpZptuAh7DUnCaLs1",
        "reception_time": "2022-01-16T07:23:30.365-00:00",
        "included_in_blocks":
          [ "BMW5JnyXhnAVGMKFHFuMKLVG3xeUy62vpyvECmDY3WSSa7yfjns" ] },
      { "delegate": "tz1Nf6tsK4G6bBqgSQERy4nUtkHNKUVdh7q1",
        "reception_time": "2022-01-16T07:23:30.363-00:00",
        "included_in_blocks":
          [ "BMW5JnyXhnAVGMKFHFuMKLVG3xeUy62vpyvECmDY3WSSa7yfjns" ] },
      { "delegate": "tz1abmz7jiCV2GH2u81LRrGgAFFgvQgiDiaf",
        "reception_time": "2022-01-16T07:23:30.237-00:00",
        "included_in_blocks":
          [ "BMW5JnyXhnAVGMKFHFuMKLVG3xeUy62vpyvECmDY3WSSa7yfjns" ] },
      { "delegate": "tz1cig1EHyvZd7J2k389moM9PxVgPQvmFkvi",
        "reception_time": "2022-01-16T07:23:30.257-00:00",
        "included_in_blocks":
          [ "BMW5JnyXhnAVGMKFHFuMKLVG3xeUy62vpyvECmDY3WSSa7yfjns" ] },
      { "delegate": "tz1dwu9aYb7CRNq4Y2zAjipdjFuSVKhHS8vA",
        "reception_time": "2022-01-16T07:23:30.077-00:00",
        "included_in_blocks":
          [ "BMW5JnyXhnAVGMKFHFuMKLVG3xeUy62vpyvECmDY3WSSa7yfjns" ] },
      { "delegate": "tz1cSj7fTex3JPd1p1LN1fwek6AV1kH93Wwc",
        "reception_time": "2022-01-16T07:23:30.062-00:00",
        "included_in_blocks":
          [ "BMW5JnyXhnAVGMKFHFuMKLVG3xeUy62vpyvECmDY3WSSa7yfjns" ] },
      { "delegate": "tz1WBfwbT66FC6BTLexc2BoyCCBM9LG7pnVW",
        "reception_time": "2022-01-16T07:23:30.028-00:00",
        "included_in_blocks":
          [ "BMW5JnyXhnAVGMKFHFuMKLVG3xeUy62vpyvECmDY3WSSa7yfjns" ] },
      { "delegate": "tz1TEc75UKXv4W5cwi14Na3NtqFD51yKQi7h",
        "reception_time": "2022-01-16T07:23:29.828-00:00",
        "included_in_blocks":
          [ "BMW5JnyXhnAVGMKFHFuMKLVG3xeUy62vpyvECmDY3WSSa7yfjns" ] },
      { "delegate": "tz3VEZ4k6a4Wx42iyev6i2aVAptTRLEAivNN",
        "reception_time": "2022-01-16T07:23:29.958-00:00",
        "included_in_blocks":
          [ "BMW5JnyXhnAVGMKFHFuMKLVG3xeUy62vpyvECmDY3WSSa7yfjns" ] },
      { "delegate": "tz1KfEsrtDaA1sX7vdM4qmEPWuSytuqCDp5j",
        "reception_time": "2022-01-16T07:23:29.891-00:00",
        "included_in_blocks":
          [ "BMW5JnyXhnAVGMKFHFuMKLVG3xeUy62vpyvECmDY3WSSa7yfjns" ] },
      { "delegate": "tz1PWCDnz783NNGGQjEFFsHtrcK5yBW4E2rm",
        "reception_time": "2022-01-16T07:23:29.916-00:00",
        "included_in_blocks":
          [ "BMW5JnyXhnAVGMKFHFuMKLVG3xeUy62vpyvECmDY3WSSa7yfjns" ] },
      { "delegate": "tz3bTdwZinP8U1JmSweNzVKhmwafqWmFWRfk",
        "reception_time": "2022-01-16T07:23:29.862-00:00",
        "included_in_blocks":
          [ "BMW5JnyXhnAVGMKFHFuMKLVG3xeUy62vpyvECmDY3WSSa7yfjns" ] },
      { "delegate": "tz1gfArv665EUkSg2ojMBzcbfwuPxAvqPvjo",
        "reception_time": "2022-01-16T07:23:29.823-00:00",
        "included_in_blocks":
          [ "BMW5JnyXhnAVGMKFHFuMKLVG3xeUy62vpyvECmDY3WSSa7yfjns" ] },
      { "delegate": "tz1NSDFKuRyzHxpfG1AMkyCwEiZ52cbR2mRW",
        "reception_time": "2022-01-16T07:23:29.794-00:00",
        "included_in_blocks":
          [ "BMW5JnyXhnAVGMKFHFuMKLVG3xeUy62vpyvECmDY3WSSa7yfjns" ] },
      { "delegate": "tz3hw2kqXhLUvY65ca1eety2oQTpAvd34R9Q",
        "reception_time": "2022-01-16T07:23:29.780-00:00",
        "included_in_blocks":
          [ "BMW5JnyXhnAVGMKFHFuMKLVG3xeUy62vpyvECmDY3WSSa7yfjns" ] },
      { "delegate": "tz3gtoUxdudfBRcNY7iVdKPHCYYX6xdPpoRS",
        "reception_time": "2022-01-16T07:23:29.780-00:00",
        "included_in_blocks":
          [ "BMW5JnyXhnAVGMKFHFuMKLVG3xeUy62vpyvECmDY3WSSa7yfjns" ] },
      { "delegate": "tz3RB4aoyjov4KEVRbuhvQ1CKJgBJMWhaeB8",
        "reception_time": "2022-01-16T07:23:29.780-00:00",
        "included_in_blocks":
          [ "BMW5JnyXhnAVGMKFHFuMKLVG3xeUy62vpyvECmDY3WSSa7yfjns" ] },
      { "delegate": "tz3QSGPoRp3Kn7n3vY24eYeu3Peuqo45LQ4D",
        "reception_time": "2022-01-16T07:23:29.780-00:00",
        "included_in_blocks":
          [ "BMW5JnyXhnAVGMKFHFuMKLVG3xeUy62vpyvECmDY3WSSa7yfjns" ] },
      { "delegate": "tz1WnfXMPaNTBmH7DBPwqCWs9cPDJdkGBTZ8",
        "reception_time": "2022-01-16T07:23:29.780-00:00",
        "included_in_blocks":
          [ "BMW5JnyXhnAVGMKFHFuMKLVG3xeUy62vpyvECmDY3WSSa7yfjns" ] },
      { "delegate": "tz1Ldzz6k1BHdhuKvAtMRX7h5kJSMHESMHLC",
        "reception_time": "2022-01-16T07:23:29.780-00:00",
        "included_in_blocks":
          [ "BMW5JnyXhnAVGMKFHFuMKLVG3xeUy62vpyvECmDY3WSSa7yfjns" ] },
      { "delegate": "tz3RDC3Jdn4j15J7bBHZd29EUee9gVB1CxD9",
        "reception_time": "2022-01-16T07:23:29.780-00:00",
        "included_in_blocks":
          [ "BMW5JnyXhnAVGMKFHFuMKLVG3xeUy62vpyvECmDY3WSSa7yfjns" ] },
      { "delegate": "tz1TzaNn7wSQSP5gYPXCnNzBCpyMiidCq1PX",
        "reception_time": "2022-01-16T07:23:29.780-00:00",
        "included_in_blocks":
          [ "BMW5JnyXhnAVGMKFHFuMKLVG3xeUy62vpyvECmDY3WSSa7yfjns" ] },
      { "delegate": "tz1RCFbB9GpALpsZtu6J58sb74dm8qe6XBzv",
        "reception_time": "2022-01-16T07:23:29.780-00:00",
        "included_in_blocks":
          [ "BMW5JnyXhnAVGMKFHFuMKLVG3xeUy62vpyvECmDY3WSSa7yfjns" ] },
      { "delegate": "tz3Zhs2dygr55yHyQyKjntAtY9bgfhLZ4Xj1",
        "reception_time": "2022-01-16T07:23:29.780-00:00",
        "included_in_blocks":
          [ "BMW5JnyXhnAVGMKFHFuMKLVG3xeUy62vpyvECmDY3WSSa7yfjns" ] },
      { "delegate": "tz1VQnqCCqX4K5sP3FNkVSNKTdCAMJDd3E1n",
        "reception_time": "2022-01-16T07:23:29.780-00:00",
        "included_in_blocks":
          [ "BMW5JnyXhnAVGMKFHFuMKLVG3xeUy62vpyvECmDY3WSSa7yfjns" ] },
      { "delegate": "tz3QT9dHYKDqh563chVa6za8526ys1UKfRfL",
        "reception_time": "2022-01-16T07:23:29.780-00:00",
        "included_in_blocks":
          [ "BMW5JnyXhnAVGMKFHFuMKLVG3xeUy62vpyvECmDY3WSSa7yfjns" ] },
      { "delegate": "tz3iJu5vrKZcsqRPs8yJ61UDoeEXZmtro4qh",
        "reception_time": "2022-01-16T07:23:29.780-00:00",
        "included_in_blocks":
          [ "BMW5JnyXhnAVGMKFHFuMKLVG3xeUy62vpyvECmDY3WSSa7yfjns" ] },
      { "delegate": "tz1WCd2jm4uSt4vntk4vSuUWoZQGhLcDuR9q",
        "reception_time": "2022-01-16T07:23:29.780-00:00",
        "included_in_blocks":
          [ "BMW5JnyXhnAVGMKFHFuMKLVG3xeUy62vpyvECmDY3WSSa7yfjns" ] },
      { "delegate": "tz3S6BBeKgJGXxvLyZ1xzXzMPn11nnFtq5L9",
        "reception_time": "2022-01-16T07:23:29.780-00:00",
        "included_in_blocks":
          [ "BMW5JnyXhnAVGMKFHFuMKLVG3xeUy62vpyvECmDY3WSSa7yfjns" ] },
      { "delegate": "tz1LmaFsWRkjr7QMCx5PtV6xTUz3AmEpKQiF",
        "reception_time": "2022-01-16T07:23:29.780-00:00",
        "included_in_blocks":
          [ "BMW5JnyXhnAVGMKFHFuMKLVG3xeUy62vpyvECmDY3WSSa7yfjns" ] },
      { "delegate": "tz1fUyqYH7H4pRHN1roWY17giXhy1RvxjgUV",
        "reception_time": "2022-01-16T07:23:29.780-00:00",
        "included_in_blocks":
          [ "BMW5JnyXhnAVGMKFHFuMKLVG3xeUy62vpyvECmDY3WSSa7yfjns" ] },
      { "delegate": "tz1gUNyn3hmnEWqkusWPzxRaon1cs7ndWh7h",
        "reception_time": "2022-01-16T07:23:29.780-00:00",
        "included_in_blocks":
          [ "BMW5JnyXhnAVGMKFHFuMKLVG3xeUy62vpyvECmDY3WSSa7yfjns" ] },
      { "delegate": "tz1SYq214SCBy9naR6cvycQsYcUGpBqQAE8d",
        "reception_time": "2022-01-16T07:23:29.780-00:00",
        "included_in_blocks":
          [ "BMW5JnyXhnAVGMKFHFuMKLVG3xeUy62vpyvECmDY3WSSa7yfjns" ] },
      { "delegate": "tz3ZbP2pM3nwvXztbuMJwJnDvV5xdpU8UkkD",
        "reception_time": "2022-01-16T07:23:29.780-00:00",
        "included_in_blocks":
          [ "BMW5JnyXhnAVGMKFHFuMKLVG3xeUy62vpyvECmDY3WSSa7yfjns" ] },
      { "delegate": "tz3NxTnke1acr8o3h5y9ytf5awQBGNJUKzVU",
        "reception_time": "2022-01-16T07:23:29.780-00:00",
        "included_in_blocks":
          [ "BMW5JnyXhnAVGMKFHFuMKLVG3xeUy62vpyvECmDY3WSSa7yfjns" ] },
      { "delegate": "tz1irJKkXS2DBWkU1NnmFQx1c1L7pbGg4yhk",
        "reception_time": "2022-01-16T07:23:29.780-00:00",
        "included_in_blocks":
          [ "BMW5JnyXhnAVGMKFHFuMKLVG3xeUy62vpyvECmDY3WSSa7yfjns" ] },
      { "delegate": "tz3WMqdzXqRWXwyvj5Hp2H7QEepaUuS7vd9K",
        "reception_time": "2022-01-16T07:23:29.496-00:00",
        "included_in_blocks":
          [ "BMW5JnyXhnAVGMKFHFuMKLVG3xeUy62vpyvECmDY3WSSa7yfjns" ] },
      { "delegate": "tz1TXzyaKUA8wsWefdSnyaYFnV2M3vCV7er9",
        "reception_time": "2022-01-16T07:23:29.496-00:00",
        "included_in_blocks":
          [ "BMW5JnyXhnAVGMKFHFuMKLVG3xeUy62vpyvECmDY3WSSa7yfjns" ] },
      { "delegate": "tz1aDiEJf9ztRrAJEXZfcG3CKimoKsGhwVAi",
        "reception_time": "2022-01-16T07:23:29.496-00:00",
        "included_in_blocks":
          [ "BMW5JnyXhnAVGMKFHFuMKLVG3xeUy62vpyvECmDY3WSSa7yfjns" ] },
      { "delegate": "tz1d9ek6HrScY6QRZ71NJdB85MNz8gKGBjrv",
        "reception_time": "2022-01-16T07:23:29.496-00:00",
        "included_in_blocks":
          [ "BMW5JnyXhnAVGMKFHFuMKLVG3xeUy62vpyvECmDY3WSSa7yfjns" ] },
      { "delegate": "tz1Scdr2HsZiQjc7bHMeBbmDRXYVvdhjJbBh",
        "reception_time": "2022-01-16T07:23:29.496-00:00",
        "included_in_blocks":
          [ "BMW5JnyXhnAVGMKFHFuMKLVG3xeUy62vpyvECmDY3WSSa7yfjns" ] },
      { "delegate": "tz1S8MNvuFEUsWgjHvi3AxibRBf388NhT1q2",
        "reception_time": "2022-01-16T07:23:29.496-00:00",
        "included_in_blocks":
          [ "BMW5JnyXhnAVGMKFHFuMKLVG3xeUy62vpyvECmDY3WSSa7yfjns" ] },
      { "delegate": "tz1eEnQhbwf6trb8Q8mPb2RaPkNk2rN7BKi8",
        "reception_time": "2022-01-16T07:23:29.496-00:00",
        "included_in_blocks":
          [ "BMW5JnyXhnAVGMKFHFuMKLVG3xeUy62vpyvECmDY3WSSa7yfjns" ] },
      { "delegate": "tz1Zhv3RkfU2pHrmaiDyxp7kFZpZrUCu1CiF",
        "reception_time": "2022-01-16T07:23:29.496-00:00",
        "included_in_blocks":
          [ "BMW5JnyXhnAVGMKFHFuMKLVG3xeUy62vpyvECmDY3WSSa7yfjns" ] },
      { "delegate": "tz1Lhf4J9Qxoe3DZ2nfe8FGDnvVj7oKjnMY6",
        "reception_time": "2022-01-16T07:23:29.496-00:00",
        "included_in_blocks":
          [ "BMW5JnyXhnAVGMKFHFuMKLVG3xeUy62vpyvECmDY3WSSa7yfjns" ] },
      { "delegate": "tz1P2Po7YM526ughEsRbY4oR9zaUPDZjxFrb",
        "reception_time": "2022-01-16T07:23:29.496-00:00",
        "included_in_blocks":
          [ "BMW5JnyXhnAVGMKFHFuMKLVG3xeUy62vpyvECmDY3WSSa7yfjns" ] } ] }