{ "blocks":
    [ { "hash": "BLYzqq9ZHbo52TUigMYcWUhYW1n2NpsMnoaop2uRcUajireTwDf",
        "delegate": "tz1VQnqCCqX4K5sP3FNkVSNKTdCAMJDd3E1n",
        "reception_time": "2022-01-16T08:29:33.504-00:00",
        "timestamp": "2022-01-16T08:29:30Z" } ],
  "endorsements":
    [ { "delegate": "tz1TRspM5SeZpaQUhzByXbEvqKF1vnCM2YTK" },
      { "delegate": "tz1dbfppLAAxXZNtf2SDps7rch3qfUznKSoK" },
      { "delegate": "tz1Lhf4J9Qxoe3DZ2nfe8FGDnvVj7oKjnMY6",
        "reception_time": "2022-01-16T08:29:34.495-00:00",
        "included_in_blocks":
          [ "BKkNutanLi5dtg3MomVzNGW7rGao6YpNRrCUV2GCNnLNBPTtqGf" ] },
      { "delegate": "tz1eEnQhbwf6trb8Q8mPb2RaPkNk2rN7BKi8",
        "reception_time": "2022-01-16T08:29:34.507-00:00",
        "included_in_blocks":
          [ "BKkNutanLi5dtg3MomVzNGW7rGao6YpNRrCUV2GCNnLNBPTtqGf" ] },
      { "delegate": "tz1MXFrtZoaXckE41bjUCSjAjAap3AFDSr3N",
        "reception_time": "2022-01-16T08:29:34.507-00:00",
        "included_in_blocks":
          [ "BKkNutanLi5dtg3MomVzNGW7rGao6YpNRrCUV2GCNnLNBPTtqGf" ] },
      { "delegate": "tz1RV1MBbZMR68tacosb7Mwj6LkbPSUS1er1",
        "reception_time": "2022-01-16T08:29:34.517-00:00",
        "included_in_blocks":
          [ "BKkNutanLi5dtg3MomVzNGW7rGao6YpNRrCUV2GCNnLNBPTtqGf" ] },
      { "delegate": "tz1P2Po7YM526ughEsRbY4oR9zaUPDZjxFrb",
        "reception_time": "2022-01-16T08:29:34.517-00:00",
        "included_in_blocks":
          [ "BKkNutanLi5dtg3MomVzNGW7rGao6YpNRrCUV2GCNnLNBPTtqGf" ] },
      { "delegate": "tz3ZbP2pM3nwvXztbuMJwJnDvV5xdpU8UkkD",
        "reception_time": "2022-01-16T08:29:34.529-00:00",
        "included_in_blocks":
          [ "BKkNutanLi5dtg3MomVzNGW7rGao6YpNRrCUV2GCNnLNBPTtqGf" ] },
      { "delegate": "tz3NxTnke1acr8o3h5y9ytf5awQBGNJUKzVU",
        "reception_time": "2022-01-16T08:29:34.551-00:00",
        "included_in_blocks":
          [ "BKkNutanLi5dtg3MomVzNGW7rGao6YpNRrCUV2GCNnLNBPTtqGf" ] },
      { "delegate": "tz1ZPh7XfUaJXUDvkrBxmS1BjEM1i62hiPpM",
        "reception_time": "2022-01-16T08:29:34.554-00:00",
        "included_in_blocks":
          [ "BKkNutanLi5dtg3MomVzNGW7rGao6YpNRrCUV2GCNnLNBPTtqGf" ] },
      { "delegate": "tz1gUNyn3hmnEWqkusWPzxRaon1cs7ndWh7h",
        "reception_time": "2022-01-16T08:29:34.561-00:00",
        "included_in_blocks":
          [ "BKkNutanLi5dtg3MomVzNGW7rGao6YpNRrCUV2GCNnLNBPTtqGf" ] },
      { "delegate": "tz1irJKkXS2DBWkU1NnmFQx1c1L7pbGg4yhk",
        "reception_time": "2022-01-16T08:29:34.566-00:00",
        "included_in_blocks":
          [ "BKkNutanLi5dtg3MomVzNGW7rGao6YpNRrCUV2GCNnLNBPTtqGf" ] },
      { "delegate": "tz1LLNkQK4UQV6QcFShiXJ2vT2ELw449MzAA",
        "reception_time": "2022-01-16T08:29:34.566-00:00",
        "included_in_blocks":
          [ "BKkNutanLi5dtg3MomVzNGW7rGao6YpNRrCUV2GCNnLNBPTtqGf" ] },
      { "delegate": "tz1VQnqCCqX4K5sP3FNkVSNKTdCAMJDd3E1n",
        "reception_time": "2022-01-16T08:29:34.569-00:00",
        "included_in_blocks":
          [ "BKkNutanLi5dtg3MomVzNGW7rGao6YpNRrCUV2GCNnLNBPTtqGf" ] },
      { "delegate": "tz3S6BBeKgJGXxvLyZ1xzXzMPn11nnFtq5L9",
        "reception_time": "2022-01-16T08:29:34.576-00:00",
        "included_in_blocks":
          [ "BKkNutanLi5dtg3MomVzNGW7rGao6YpNRrCUV2GCNnLNBPTtqGf" ] },
      { "delegate": "tz1Ldzz6k1BHdhuKvAtMRX7h5kJSMHESMHLC",
        "reception_time": "2022-01-16T08:29:34.578-00:00",
        "included_in_blocks":
          [ "BKkNutanLi5dtg3MomVzNGW7rGao6YpNRrCUV2GCNnLNBPTtqGf" ] },
      { "delegate": "tz3Zhs2dygr55yHyQyKjntAtY9bgfhLZ4Xj1",
        "reception_time": "2022-01-16T08:29:34.585-00:00",
        "included_in_blocks":
          [ "BKkNutanLi5dtg3MomVzNGW7rGao6YpNRrCUV2GCNnLNBPTtqGf" ] },
      { "delegate": "tz3QSGPoRp3Kn7n3vY24eYeu3Peuqo45LQ4D",
        "reception_time": "2022-01-16T08:29:34.591-00:00",
        "included_in_blocks":
          [ "BKkNutanLi5dtg3MomVzNGW7rGao6YpNRrCUV2GCNnLNBPTtqGf" ] },
      { "delegate": "tz1Kf25fX1VdmYGSEzwFy1wNmkbSEZ2V83sY",
        "reception_time": "2022-01-16T08:29:34.614-00:00",
        "included_in_blocks":
          [ "BKkNutanLi5dtg3MomVzNGW7rGao6YpNRrCUV2GCNnLNBPTtqGf" ] },
      { "delegate": "tz3QT9dHYKDqh563chVa6za8526ys1UKfRfL",
        "reception_time": "2022-01-16T08:29:34.633-00:00",
        "included_in_blocks":
          [ "BKkNutanLi5dtg3MomVzNGW7rGao6YpNRrCUV2GCNnLNBPTtqGf" ] },
      { "delegate": "tz3iJu5vrKZcsqRPs8yJ61UDoeEXZmtro4qh",
        "reception_time": "2022-01-16T08:29:34.643-00:00",
        "included_in_blocks":
          [ "BKkNutanLi5dtg3MomVzNGW7rGao6YpNRrCUV2GCNnLNBPTtqGf" ] },
      { "delegate": "tz3RKYFsLuQzKBtmYuLNas7uMu3AsYd4QdsA",
        "reception_time": "2022-01-16T08:29:34.650-00:00",
        "included_in_blocks":
          [ "BKkNutanLi5dtg3MomVzNGW7rGao6YpNRrCUV2GCNnLNBPTtqGf" ] },
      { "delegate": "tz1UJvHTgpVzcKWhTazGxVcn5wsHru5Gietg",
        "reception_time": "2022-01-16T08:29:34.658-00:00",
        "included_in_blocks":
          [ "BKkNutanLi5dtg3MomVzNGW7rGao6YpNRrCUV2GCNnLNBPTtqGf" ] },
      { "delegate": "tz3hw2kqXhLUvY65ca1eety2oQTpAvd34R9Q",
        "reception_time": "2022-01-16T08:29:34.669-00:00",
        "included_in_blocks":
          [ "BKkNutanLi5dtg3MomVzNGW7rGao6YpNRrCUV2GCNnLNBPTtqGf" ] },
      { "delegate": "tz3gtoUxdudfBRcNY7iVdKPHCYYX6xdPpoRS",
        "reception_time": "2022-01-16T08:29:34.679-00:00",
        "included_in_blocks":
          [ "BKkNutanLi5dtg3MomVzNGW7rGao6YpNRrCUV2GCNnLNBPTtqGf" ] },
      { "delegate": "tz1aXD7Jigrt3PBYSpHSg5Rr33SexMmmM5Ys",
        "reception_time": "2022-01-16T08:29:34.718-00:00",
        "included_in_blocks":
          [ "BKkNutanLi5dtg3MomVzNGW7rGao6YpNRrCUV2GCNnLNBPTtqGf" ] },
      { "delegate": "tz1eDDuQBEgwvc6tbnnCVrnr12tvrd6gBTpx",
        "reception_time": "2022-01-16T08:29:34.720-00:00",
        "included_in_blocks":
          [ "BKkNutanLi5dtg3MomVzNGW7rGao6YpNRrCUV2GCNnLNBPTtqGf" ] },
      { "delegate": "tz3QCNyySViKHmeSr45kzDxzchys7NiXCWoa",
        "reception_time": "2022-01-16T08:29:34.792-00:00",
        "included_in_blocks":
          [ "BKkNutanLi5dtg3MomVzNGW7rGao6YpNRrCUV2GCNnLNBPTtqGf" ] },
      { "delegate": "tz1PWCDnz783NNGGQjEFFsHtrcK5yBW4E2rm",
        "reception_time": "2022-01-16T08:29:35.041-00:00",
        "included_in_blocks":
          [ "BKkNutanLi5dtg3MomVzNGW7rGao6YpNRrCUV2GCNnLNBPTtqGf" ] },
      { "delegate": "tz3bTdwZinP8U1JmSweNzVKhmwafqWmFWRfk",
        "reception_time": "2022-01-16T08:29:35.051-00:00",
        "included_in_blocks":
          [ "BKkNutanLi5dtg3MomVzNGW7rGao6YpNRrCUV2GCNnLNBPTtqGf" ] },
      { "delegate": "tz1S8MNvuFEUsWgjHvi3AxibRBf388NhT1q2",
        "reception_time": "2022-01-16T08:29:35.119-00:00",
        "included_in_blocks":
          [ "BKkNutanLi5dtg3MomVzNGW7rGao6YpNRrCUV2GCNnLNBPTtqGf" ] },
      { "delegate": "tz1gfArv665EUkSg2ojMBzcbfwuPxAvqPvjo",
        "reception_time": "2022-01-16T08:29:35.169-00:00",
        "included_in_blocks":
          [ "BKkNutanLi5dtg3MomVzNGW7rGao6YpNRrCUV2GCNnLNBPTtqGf" ] },
      { "delegate": "tz1RCFbB9GpALpsZtu6J58sb74dm8qe6XBzv",
        "reception_time": "2022-01-16T08:29:35.177-00:00",
        "included_in_blocks":
          [ "BKkNutanLi5dtg3MomVzNGW7rGao6YpNRrCUV2GCNnLNBPTtqGf" ] },
      { "delegate": "tz1abmz7jiCV2GH2u81LRrGgAFFgvQgiDiaf",
        "reception_time": "2022-01-16T08:29:35.207-00:00",
        "included_in_blocks":
          [ "BKkNutanLi5dtg3MomVzNGW7rGao6YpNRrCUV2GCNnLNBPTtqGf" ] },
      { "delegate": "tz1aDiEJf9ztRrAJEXZfcG3CKimoKsGhwVAi",
        "reception_time": "2022-01-16T08:29:35.214-00:00",
        "included_in_blocks":
          [ "BKkNutanLi5dtg3MomVzNGW7rGao6YpNRrCUV2GCNnLNBPTtqGf" ] },
      { "delegate": "tz1fb7c66UwePkkfDXz4ajFaBP9hVNLdS7JJ",
        "reception_time": "2022-01-16T08:29:35.220-00:00",
        "included_in_blocks":
          [ "BKkNutanLi5dtg3MomVzNGW7rGao6YpNRrCUV2GCNnLNBPTtqGf" ] },
      { "delegate": "tz3RB4aoyjov4KEVRbuhvQ1CKJgBJMWhaeB8",
        "reception_time": "2022-01-16T08:29:35.273-00:00",
        "included_in_blocks":
          [ "BKkNutanLi5dtg3MomVzNGW7rGao6YpNRrCUV2GCNnLNBPTtqGf" ] },
      { "delegate": "tz1cSj7fTex3JPd1p1LN1fwek6AV1kH93Wwc",
        "reception_time": "2022-01-16T08:29:35.299-00:00",
        "included_in_blocks":
          [ "BKkNutanLi5dtg3MomVzNGW7rGao6YpNRrCUV2GCNnLNBPTtqGf" ] },
      { "delegate": "tz1dwu9aYb7CRNq4Y2zAjipdjFuSVKhHS8vA",
        "reception_time": "2022-01-16T08:29:35.364-00:00",
        "included_in_blocks":
          [ "BKkNutanLi5dtg3MomVzNGW7rGao6YpNRrCUV2GCNnLNBPTtqGf" ] },
      { "delegate": "tz1ei4WtWEMEJekSv8qDnu9PExG6Q8HgRGr3",
        "reception_time": "2022-01-16T08:29:35.470-00:00",
        "included_in_blocks":
          [ "BKkNutanLi5dtg3MomVzNGW7rGao6YpNRrCUV2GCNnLNBPTtqGf" ] },
      { "delegate": "tz1RQhNh7iB9CZA7i3ifTWNwiGYVffponfbB",
        "reception_time": "2022-01-16T08:29:35.554-00:00",
        "included_in_blocks":
          [ "BKkNutanLi5dtg3MomVzNGW7rGao6YpNRrCUV2GCNnLNBPTtqGf" ] },
      { "delegate": "tz2FCNBrERXtaTtNX6iimR1UJ5JSDxvdHM93",
        "reception_time": "2022-01-16T08:29:35.616-00:00",
        "included_in_blocks":
          [ "BKkNutanLi5dtg3MomVzNGW7rGao6YpNRrCUV2GCNnLNBPTtqGf" ] },
      { "delegate": "tz1WBfwbT66FC6BTLexc2BoyCCBM9LG7pnVW",
        "reception_time": "2022-01-16T08:29:35.695-00:00",
        "included_in_blocks":
          [ "BKkNutanLi5dtg3MomVzNGW7rGao6YpNRrCUV2GCNnLNBPTtqGf" ] },
      { "delegate": "tz1fwnfJNgiDACshK9avfRfFbMaXrs3ghoJa",
        "reception_time": "2022-01-16T08:29:35.763-00:00",
        "included_in_blocks":
          [ "BKkNutanLi5dtg3MomVzNGW7rGao6YpNRrCUV2GCNnLNBPTtqGf" ] },
      { "delegate": "tz1LXpCpLNRhP7G9Yw8dRhWd8ZfH8929uvGo",
        "reception_time": "2022-01-16T08:29:35.798-00:00",
        "included_in_blocks":
          [ "BKkNutanLi5dtg3MomVzNGW7rGao6YpNRrCUV2GCNnLNBPTtqGf" ] },
      { "delegate": "tz1TEc75UKXv4W5cwi14Na3NtqFD51yKQi7h",
        "reception_time": "2022-01-16T08:29:35.806-00:00",
        "included_in_blocks":
          [ "BKkNutanLi5dtg3MomVzNGW7rGao6YpNRrCUV2GCNnLNBPTtqGf" ] },
      { "delegate": "tz1UMCB2AHSTwG7YcGNr31CqYCtGN873royv",
        "reception_time": "2022-01-16T08:29:35.813-00:00",
        "included_in_blocks":
          [ "BKkNutanLi5dtg3MomVzNGW7rGao6YpNRrCUV2GCNnLNBPTtqGf" ] },
      { "delegate": "tz1PeZx7FXy7QRuMREGXGxeipb24RsMMzUNe",
        "reception_time": "2022-01-16T08:29:35.930-00:00",
        "included_in_blocks":
          [ "BKkNutanLi5dtg3MomVzNGW7rGao6YpNRrCUV2GCNnLNBPTtqGf" ] },
      { "delegate": "tz1KfEsrtDaA1sX7vdM4qmEPWuSytuqCDp5j",
        "reception_time": "2022-01-16T08:29:36.007-00:00",
        "included_in_blocks":
          [ "BKkNutanLi5dtg3MomVzNGW7rGao6YpNRrCUV2GCNnLNBPTtqGf" ] },
      { "delegate": "tz1Nf6tsK4G6bBqgSQERy4nUtkHNKUVdh7q1",
        "reception_time": "2022-01-16T08:29:36.028-00:00",
        "included_in_blocks":
          [ "BKkNutanLi5dtg3MomVzNGW7rGao6YpNRrCUV2GCNnLNBPTtqGf" ] },
      { "delegate": "tz3RDC3Jdn4j15J7bBHZd29EUee9gVB1CxD9",
        "reception_time": "2022-01-16T08:29:36.158-00:00",
        "included_in_blocks":
          [ "BKkNutanLi5dtg3MomVzNGW7rGao6YpNRrCUV2GCNnLNBPTtqGf" ] },
      { "delegate": "tz3gLTu4Yxj8tPAcriQVUdxv6BY9QyvzU1az",
        "reception_time": "2022-01-16T08:29:36.223-00:00",
        "included_in_blocks":
          [ "BKkNutanLi5dtg3MomVzNGW7rGao6YpNRrCUV2GCNnLNBPTtqGf" ] },
      { "delegate": "tz3WMqdzXqRWXwyvj5Hp2H7QEepaUuS7vd9K",
        "reception_time": "2022-01-16T08:29:36.315-00:00",
        "included_in_blocks":
          [ "BKkNutanLi5dtg3MomVzNGW7rGao6YpNRrCUV2GCNnLNBPTtqGf" ] },
      { "delegate": "tz3NDpRj6WBrJPikcPVHRBEjWKxFw3c6eQPS",
        "reception_time": "2022-01-16T08:29:36.329-00:00",
        "included_in_blocks":
          [ "BKkNutanLi5dtg3MomVzNGW7rGao6YpNRrCUV2GCNnLNBPTtqGf" ] },
      { "delegate": "tz1UvkANVPWppVgMkLnvN7BwYZsCP7vm6NVd",
        "reception_time": "2022-01-16T08:29:36.386-00:00",
        "included_in_blocks":
          [ "BKkNutanLi5dtg3MomVzNGW7rGao6YpNRrCUV2GCNnLNBPTtqGf" ] },
      { "delegate": "tz1cYufsxHXJcvANhvS55h3aY32a9BAFB494",
        "reception_time": "2022-01-16T08:29:36.469-00:00",
        "included_in_blocks":
          [ "BKkNutanLi5dtg3MomVzNGW7rGao6YpNRrCUV2GCNnLNBPTtqGf" ] },
      { "delegate": "tz3VEZ4k6a4Wx42iyev6i2aVAptTRLEAivNN",
        "reception_time": "2022-01-16T08:29:36.469-00:00",
        "included_in_blocks":
          [ "BKkNutanLi5dtg3MomVzNGW7rGao6YpNRrCUV2GCNnLNBPTtqGf" ] },
      { "delegate": "tz3bvNMQ95vfAYtG8193ymshqjSvmxiCUuR5",
        "reception_time": "2022-01-16T08:29:36.539-00:00",
        "included_in_blocks":
          [ "BKkNutanLi5dtg3MomVzNGW7rGao6YpNRrCUV2GCNnLNBPTtqGf" ] },
      { "delegate": "tz1SYq214SCBy9naR6cvycQsYcUGpBqQAE8d",
        "reception_time": "2022-01-16T08:29:36.543-00:00",
        "included_in_blocks":
          [ "BKkNutanLi5dtg3MomVzNGW7rGao6YpNRrCUV2GCNnLNBPTtqGf" ] },
      { "delegate": "tz1aRoaRhSpRYvFdyvgWLL6TGyRoGF51wDjM",
        "reception_time": "2022-01-16T08:29:36.562-00:00",
        "included_in_blocks":
          [ "BKkNutanLi5dtg3MomVzNGW7rGao6YpNRrCUV2GCNnLNBPTtqGf" ] },
      { "delegate": "tz1NEKxGEHsFufk87CVZcrqWu8o22qh46GK6",
        "reception_time": "2022-01-16T08:29:36.581-00:00",
        "included_in_blocks":
          [ "BKkNutanLi5dtg3MomVzNGW7rGao6YpNRrCUV2GCNnLNBPTtqGf" ] },
      { "delegate": "tz1T7duV5gZWSTq4YpBGbXNLTfznCLDrFxvs",
        "reception_time": "2022-01-16T08:29:36.600-00:00",
        "included_in_blocks":
          [ "BKkNutanLi5dtg3MomVzNGW7rGao6YpNRrCUV2GCNnLNBPTtqGf" ] },
      { "delegate": "tz1awXW7wuXy21c66vBudMXQVAPgRnqqwgTH",
        "reception_time": "2022-01-16T08:29:36.728-00:00",
        "included_in_blocks":
          [ "BKkNutanLi5dtg3MomVzNGW7rGao6YpNRrCUV2GCNnLNBPTtqGf" ] },
      { "delegate": "tz3UoffC7FG7zfpmvmjUmUeAaHvzdcUvAj6r",
        "reception_time": "2022-01-16T08:29:37.199-00:00",
        "included_in_blocks":
          [ "BKkNutanLi5dtg3MomVzNGW7rGao6YpNRrCUV2GCNnLNBPTtqGf" ] },
      { "delegate": "tz3NExpXn9aPNZPorRE4SdjJ2RGrfbJgMAaV",
        "reception_time": "2022-01-16T08:29:37.490-00:00",
        "included_in_blocks":
          [ "BKkNutanLi5dtg3MomVzNGW7rGao6YpNRrCUV2GCNnLNBPTtqGf" ] },
      { "delegate": "tz1W5VkdB5s7ENMESVBtwyt9kyvLqPcUczRT",
        "reception_time": "2022-01-16T08:29:38.474-00:00",
        "included_in_blocks":
          [ "BKkNutanLi5dtg3MomVzNGW7rGao6YpNRrCUV2GCNnLNBPTtqGf" ] },
      { "delegate": "tz1NpWrAyDL9k2Lmnyxcgr9xuJakbBxdq7FB",
        "reception_time": "2022-01-16T08:29:40.736-00:00",
        "included_in_blocks":
          [ "BKkNutanLi5dtg3MomVzNGW7rGao6YpNRrCUV2GCNnLNBPTtqGf" ] } ] }