{ "blocks":
    [ { "hash": "BLTdCmsYk4BTMVurbnRDHzxqCMM4gREeivh4eDMNvSLJLkbcd8E",
        "delegate": "tz3iJu5vrKZcsqRPs8yJ61UDoeEXZmtro4qh",
        "reception_time": "2022-01-16T06:34:55.610-00:00",
        "timestamp": "2022-01-16T06:34:50Z" } ],
  "endorsements":
    [ { "delegate": "tz3bEQoFCZEEfZMskefZ8q8e4eiHH1pssRax" },
      { "delegate": "tz1ibcPVGK4Y8pcW4BYUsojiHoBKnZbyDGrX" },
      { "delegate": "tz1TRspM5SeZpaQUhzByXbEvqKF1vnCM2YTK" },
      { "delegate": "tz1NdhRv643wLW6zCcRP3VfT24dvDnh7nuh9" },
      { "delegate": "tz1P2Po7YM526ughEsRbY4oR9zaUPDZjxFrb",
        "reception_time": "2022-01-16T06:34:55.610-00:00",
        "errors":
          [ { "kind": "temporary",
              "id": "proto.011-PtHangz2.prefilter.outdated_endorsement" } ],
        "included_in_blocks":
          [ "BLWbgW8EeWMdid9S9MTHriXomG189McJKpoCTv1BAbMtWqEJrd7" ] },
      { "delegate": "tz1MXFrtZoaXckE41bjUCSjAjAap3AFDSr3N",
        "reception_time": "2022-01-16T06:34:55.584-00:00",
        "errors":
          [ { "kind": "temporary",
              "id": "proto.011-PtHangz2.prefilter.outdated_endorsement" } ],
        "included_in_blocks":
          [ "BLWbgW8EeWMdid9S9MTHriXomG189McJKpoCTv1BAbMtWqEJrd7" ] },
      { "delegate": "tz1S8e9GgdZG78XJRB3NqabfWeM37GnhZMWQ",
        "reception_time": "2022-01-16T06:34:55.182-00:00",
        "errors":
          [ { "kind": "temporary",
              "id": "proto.011-PtHangz2.prefilter.outdated_endorsement" } ],
        "included_in_blocks":
          [ "BLWbgW8EeWMdid9S9MTHriXomG189McJKpoCTv1BAbMtWqEJrd7" ] },
      { "delegate": "tz2BzJTyoQp8fNbfhWD4YQgH9JJHDgSGzpdG",
        "reception_time": "2022-01-16T06:35:04.376-00:00",
        "included_in_blocks":
          [ "BLWbgW8EeWMdid9S9MTHriXomG189McJKpoCTv1BAbMtWqEJrd7" ] },
      { "delegate": "tz1go7f6mEQfT2xX2LuHAqgnRGN6c2zHPf5c",
        "reception_time": "2022-01-16T06:35:02.015-00:00",
        "included_in_blocks":
          [ "BLWbgW8EeWMdid9S9MTHriXomG189McJKpoCTv1BAbMtWqEJrd7" ] },
      { "delegate": "tz1dRKU4FQ9QRRQPdaH4zCR6gmCmXfcvcgtB",
        "reception_time": "2022-01-16T06:35:00.409-00:00",
        "included_in_blocks":
          [ "BLWbgW8EeWMdid9S9MTHriXomG189McJKpoCTv1BAbMtWqEJrd7" ] },
      { "delegate": "tz1dNVDWPf3Q59SdJqnjdnu277iyvReiRS9M",
        "reception_time": "2022-01-16T06:35:00.076-00:00",
        "included_in_blocks":
          [ "BLWbgW8EeWMdid9S9MTHriXomG189McJKpoCTv1BAbMtWqEJrd7" ] },
      { "delegate": "tz3UoffC7FG7zfpmvmjUmUeAaHvzdcUvAj6r",
        "reception_time": "2022-01-16T06:34:59.812-00:00",
        "included_in_blocks":
          [ "BLWbgW8EeWMdid9S9MTHriXomG189McJKpoCTv1BAbMtWqEJrd7" ] },
      { "delegate": "tz1aRoaRhSpRYvFdyvgWLL6TGyRoGF51wDjM",
        "reception_time": "2022-01-16T06:34:59.499-00:00",
        "included_in_blocks":
          [ "BLWbgW8EeWMdid9S9MTHriXomG189McJKpoCTv1BAbMtWqEJrd7" ] },
      { "delegate": "tz3WMqdzXqRWXwyvj5Hp2H7QEepaUuS7vd9K",
        "reception_time": "2022-01-16T06:34:59.647-00:00",
        "included_in_blocks":
          [ "BLWbgW8EeWMdid9S9MTHriXomG189McJKpoCTv1BAbMtWqEJrd7" ] },
      { "delegate": "tz1ZcTRk5uxD86EFEn1vvNffWWqJy7q5eVhc",
        "reception_time": "2022-01-16T06:34:59.467-00:00",
        "included_in_blocks":
          [ "BLWbgW8EeWMdid9S9MTHriXomG189McJKpoCTv1BAbMtWqEJrd7" ] },
      { "delegate": "tz1bTpviNnyx2PXsNmGpCQTMQsGoYordkUoA",
        "reception_time": "2022-01-16T06:34:59.487-00:00",
        "included_in_blocks":
          [ "BLWbgW8EeWMdid9S9MTHriXomG189McJKpoCTv1BAbMtWqEJrd7" ] },
      { "delegate": "tz3NExpXn9aPNZPorRE4SdjJ2RGrfbJgMAaV",
        "reception_time": "2022-01-16T06:34:59.603-00:00",
        "included_in_blocks":
          [ "BLWbgW8EeWMdid9S9MTHriXomG189McJKpoCTv1BAbMtWqEJrd7" ] },
      { "delegate": "tz1T7duV5gZWSTq4YpBGbXNLTfznCLDrFxvs",
        "reception_time": "2022-01-16T06:34:59.064-00:00",
        "included_in_blocks":
          [ "BLWbgW8EeWMdid9S9MTHriXomG189McJKpoCTv1BAbMtWqEJrd7" ] },
      { "delegate": "tz3RDC3Jdn4j15J7bBHZd29EUee9gVB1CxD9",
        "reception_time": "2022-01-16T06:34:58.987-00:00",
        "included_in_blocks":
          [ "BLWbgW8EeWMdid9S9MTHriXomG189McJKpoCTv1BAbMtWqEJrd7" ] },
      { "delegate": "tz3bvNMQ95vfAYtG8193ymshqjSvmxiCUuR5",
        "reception_time": "2022-01-16T06:34:58.972-00:00",
        "included_in_blocks":
          [ "BLWbgW8EeWMdid9S9MTHriXomG189McJKpoCTv1BAbMtWqEJrd7" ] },
      { "delegate": "tz1awXW7wuXy21c66vBudMXQVAPgRnqqwgTH",
        "reception_time": "2022-01-16T06:34:58.980-00:00",
        "included_in_blocks":
          [ "BLWbgW8EeWMdid9S9MTHriXomG189McJKpoCTv1BAbMtWqEJrd7" ] },
      { "delegate": "tz1TRqbYbUf2GyrjErf3hBzgBJPzW8y36qEs",
        "reception_time": "2022-01-16T06:34:58.587-00:00",
        "included_in_blocks":
          [ "BLWbgW8EeWMdid9S9MTHriXomG189McJKpoCTv1BAbMtWqEJrd7" ] },
      { "delegate": "tz1QXrzaHrGACVn15UiCg33aLCJ6npWdQb3J",
        "reception_time": "2022-01-16T06:34:58.608-00:00",
        "included_in_blocks":
          [ "BLWbgW8EeWMdid9S9MTHriXomG189McJKpoCTv1BAbMtWqEJrd7" ] },
      { "delegate": "tz3VEZ4k6a4Wx42iyev6i2aVAptTRLEAivNN",
        "reception_time": "2022-01-16T06:34:58.710-00:00",
        "included_in_blocks":
          [ "BLWbgW8EeWMdid9S9MTHriXomG189McJKpoCTv1BAbMtWqEJrd7" ] },
      { "delegate": "tz3NDpRj6WBrJPikcPVHRBEjWKxFw3c6eQPS",
        "reception_time": "2022-01-16T06:34:58.339-00:00",
        "included_in_blocks":
          [ "BLWbgW8EeWMdid9S9MTHriXomG189McJKpoCTv1BAbMtWqEJrd7" ] },
      { "delegate": "tz1UMCB2AHSTwG7YcGNr31CqYCtGN873royv",
        "reception_time": "2022-01-16T06:34:58.139-00:00",
        "included_in_blocks":
          [ "BLWbgW8EeWMdid9S9MTHriXomG189McJKpoCTv1BAbMtWqEJrd7" ] },
      { "delegate": "tz3gLTu4Yxj8tPAcriQVUdxv6BY9QyvzU1az",
        "reception_time": "2022-01-16T06:34:58.313-00:00",
        "included_in_blocks":
          [ "BLWbgW8EeWMdid9S9MTHriXomG189McJKpoCTv1BAbMtWqEJrd7" ] },
      { "delegate": "tz1axcnVN9tZnCe4sQQhC6f3tfSEXdjPaXPY",
        "reception_time": "2022-01-16T06:34:58.169-00:00",
        "included_in_blocks":
          [ "BLWbgW8EeWMdid9S9MTHriXomG189McJKpoCTv1BAbMtWqEJrd7" ] },
      { "delegate": "tz2FCNBrERXtaTtNX6iimR1UJ5JSDxvdHM93",
        "reception_time": "2022-01-16T06:34:57.928-00:00",
        "included_in_blocks":
          [ "BLWbgW8EeWMdid9S9MTHriXomG189McJKpoCTv1BAbMtWqEJrd7" ] },
      { "delegate": "tz1NoYvKjXTzTk54VpLxBfouJ33J8jwKPPvw",
        "reception_time": "2022-01-16T06:34:58.029-00:00",
        "included_in_blocks":
          [ "BLWbgW8EeWMdid9S9MTHriXomG189McJKpoCTv1BAbMtWqEJrd7" ] },
      { "delegate": "tz1TEc75UKXv4W5cwi14Na3NtqFD51yKQi7h",
        "reception_time": "2022-01-16T06:34:57.862-00:00",
        "included_in_blocks":
          [ "BLWbgW8EeWMdid9S9MTHriXomG189McJKpoCTv1BAbMtWqEJrd7" ] },
      { "delegate": "tz1WBfwbT66FC6BTLexc2BoyCCBM9LG7pnVW",
        "reception_time": "2022-01-16T06:34:57.801-00:00",
        "included_in_blocks":
          [ "BLWbgW8EeWMdid9S9MTHriXomG189McJKpoCTv1BAbMtWqEJrd7" ] },
      { "delegate": "tz1aDiEJf9ztRrAJEXZfcG3CKimoKsGhwVAi",
        "reception_time": "2022-01-16T06:34:57.663-00:00",
        "included_in_blocks":
          [ "BLWbgW8EeWMdid9S9MTHriXomG189McJKpoCTv1BAbMtWqEJrd7" ] },
      { "delegate": "tz1LmaFsWRkjr7QMCx5PtV6xTUz3AmEpKQiF",
        "reception_time": "2022-01-16T06:34:57.525-00:00",
        "included_in_blocks":
          [ "BLWbgW8EeWMdid9S9MTHriXomG189McJKpoCTv1BAbMtWqEJrd7" ] },
      { "delegate": "tz1SYq214SCBy9naR6cvycQsYcUGpBqQAE8d",
        "reception_time": "2022-01-16T06:34:57.796-00:00",
        "included_in_blocks":
          [ "BLWbgW8EeWMdid9S9MTHriXomG189McJKpoCTv1BAbMtWqEJrd7" ] },
      { "delegate": "tz1Tnjaxk6tbAeC2TmMApPh8UsrEVQvhHvx5",
        "reception_time": "2022-01-16T06:34:57.598-00:00",
        "included_in_blocks":
          [ "BLWbgW8EeWMdid9S9MTHriXomG189McJKpoCTv1BAbMtWqEJrd7" ] },
      { "delegate": "tz1ei4WtWEMEJekSv8qDnu9PExG6Q8HgRGr3",
        "reception_time": "2022-01-16T06:34:57.463-00:00",
        "included_in_blocks":
          [ "BLWbgW8EeWMdid9S9MTHriXomG189McJKpoCTv1BAbMtWqEJrd7" ] },
      { "delegate": "tz1V4qCyvPKZ5UeqdH14HN42rxvNPQfc9UZg",
        "reception_time": "2022-01-16T06:34:57.352-00:00",
        "included_in_blocks":
          [ "BLWbgW8EeWMdid9S9MTHriXomG189McJKpoCTv1BAbMtWqEJrd7" ] },
      { "delegate": "tz3QCNyySViKHmeSr45kzDxzchys7NiXCWoa",
        "reception_time": "2022-01-16T06:34:57.492-00:00",
        "included_in_blocks":
          [ "BLWbgW8EeWMdid9S9MTHriXomG189McJKpoCTv1BAbMtWqEJrd7" ] },
      { "delegate": "tz1fb7c66UwePkkfDXz4ajFaBP9hVNLdS7JJ",
        "reception_time": "2022-01-16T06:34:57.467-00:00",
        "included_in_blocks":
          [ "BLWbgW8EeWMdid9S9MTHriXomG189McJKpoCTv1BAbMtWqEJrd7" ] },
      { "delegate": "tz3bTdwZinP8U1JmSweNzVKhmwafqWmFWRfk",
        "reception_time": "2022-01-16T06:34:57.428-00:00",
        "included_in_blocks":
          [ "BLWbgW8EeWMdid9S9MTHriXomG189McJKpoCTv1BAbMtWqEJrd7" ] },
      { "delegate": "tz3RB4aoyjov4KEVRbuhvQ1CKJgBJMWhaeB8",
        "reception_time": "2022-01-16T06:34:57.332-00:00",
        "included_in_blocks":
          [ "BLWbgW8EeWMdid9S9MTHriXomG189McJKpoCTv1BAbMtWqEJrd7" ] },
      { "delegate": "tz1SpU2P8EBQTAjxkdiTz3JAzZBj32w9Sb2Q",
        "reception_time": "2022-01-16T06:34:57.303-00:00",
        "included_in_blocks":
          [ "BLWbgW8EeWMdid9S9MTHriXomG189McJKpoCTv1BAbMtWqEJrd7" ] },
      { "delegate": "tz1cSj7fTex3JPd1p1LN1fwek6AV1kH93Wwc",
        "reception_time": "2022-01-16T06:34:57.307-00:00",
        "included_in_blocks":
          [ "BLWbgW8EeWMdid9S9MTHriXomG189McJKpoCTv1BAbMtWqEJrd7" ] },
      { "delegate": "tz1WnfXMPaNTBmH7DBPwqCWs9cPDJdkGBTZ8",
        "reception_time": "2022-01-16T06:34:57.159-00:00",
        "included_in_blocks":
          [ "BLWbgW8EeWMdid9S9MTHriXomG189McJKpoCTv1BAbMtWqEJrd7" ] },
      { "delegate": "tz1iPHM2Xx2hwmzcr1EG1zzrV6oKafVoA91m",
        "reception_time": "2022-01-16T06:34:57.478-00:00",
        "included_in_blocks":
          [ "BLWbgW8EeWMdid9S9MTHriXomG189McJKpoCTv1BAbMtWqEJrd7" ] },
      { "delegate": "tz1MGTFJXpQmtxLi8QJ7AuVRgM2L2Qfn9w9i",
        "reception_time": "2022-01-16T06:34:57.271-00:00",
        "included_in_blocks":
          [ "BLWbgW8EeWMdid9S9MTHriXomG189McJKpoCTv1BAbMtWqEJrd7" ] },
      { "delegate": "tz1gfArv665EUkSg2ojMBzcbfwuPxAvqPvjo",
        "reception_time": "2022-01-16T06:34:57.446-00:00",
        "included_in_blocks":
          [ "BLWbgW8EeWMdid9S9MTHriXomG189McJKpoCTv1BAbMtWqEJrd7" ] },
      { "delegate": "tz1MWhSr4oT8W67CKdxduqp4bkVyF32qsERK",
        "reception_time": "2022-01-16T06:34:57.144-00:00",
        "included_in_blocks":
          [ "BLWbgW8EeWMdid9S9MTHriXomG189McJKpoCTv1BAbMtWqEJrd7" ] },
      { "delegate": "tz1d6Fx42mYgVFnHUW8T8A7WBfJ6nD9pVok8",
        "reception_time": "2022-01-16T06:34:57.095-00:00",
        "included_in_blocks":
          [ "BLWbgW8EeWMdid9S9MTHriXomG189McJKpoCTv1BAbMtWqEJrd7" ] },
      { "delegate": "tz3S6BBeKgJGXxvLyZ1xzXzMPn11nnFtq5L9",
        "reception_time": "2022-01-16T06:34:57.029-00:00",
        "included_in_blocks":
          [ "BLWbgW8EeWMdid9S9MTHriXomG189McJKpoCTv1BAbMtWqEJrd7" ] },
      { "delegate": "tz1YhNsiRRU8aHNGg7NK3uuP6UDAyacJernB",
        "reception_time": "2022-01-16T06:34:57.068-00:00",
        "included_in_blocks":
          [ "BLWbgW8EeWMdid9S9MTHriXomG189McJKpoCTv1BAbMtWqEJrd7" ] },
      { "delegate": "tz3adcvQaKXTCg12zbninqo3q8ptKKtDFTLv",
        "reception_time": "2022-01-16T06:34:56.990-00:00",
        "included_in_blocks":
          [ "BLWbgW8EeWMdid9S9MTHriXomG189McJKpoCTv1BAbMtWqEJrd7" ] },
      { "delegate": "tz1S8MNvuFEUsWgjHvi3AxibRBf388NhT1q2",
        "reception_time": "2022-01-16T06:34:57.135-00:00",
        "included_in_blocks":
          [ "BLWbgW8EeWMdid9S9MTHriXomG189McJKpoCTv1BAbMtWqEJrd7" ] },
      { "delegate": "tz3QT9dHYKDqh563chVa6za8526ys1UKfRfL",
        "reception_time": "2022-01-16T06:34:57.049-00:00",
        "included_in_blocks":
          [ "BLWbgW8EeWMdid9S9MTHriXomG189McJKpoCTv1BAbMtWqEJrd7" ] },
      { "delegate": "tz3QSGPoRp3Kn7n3vY24eYeu3Peuqo45LQ4D",
        "reception_time": "2022-01-16T06:34:56.881-00:00",
        "included_in_blocks":
          [ "BLWbgW8EeWMdid9S9MTHriXomG189McJKpoCTv1BAbMtWqEJrd7" ] },
      { "delegate": "tz1PWCDnz783NNGGQjEFFsHtrcK5yBW4E2rm",
        "reception_time": "2022-01-16T06:34:56.861-00:00",
        "included_in_blocks":
          [ "BLWbgW8EeWMdid9S9MTHriXomG189McJKpoCTv1BAbMtWqEJrd7" ] },
      { "delegate": "tz3gtoUxdudfBRcNY7iVdKPHCYYX6xdPpoRS",
        "reception_time": "2022-01-16T06:34:56.976-00:00",
        "included_in_blocks":
          [ "BLWbgW8EeWMdid9S9MTHriXomG189McJKpoCTv1BAbMtWqEJrd7" ] },
      { "delegate": "tz1aXD7Jigrt3PBYSpHSg5Rr33SexMmmM5Ys",
        "reception_time": "2022-01-16T06:34:56.845-00:00",
        "included_in_blocks":
          [ "BLWbgW8EeWMdid9S9MTHriXomG189McJKpoCTv1BAbMtWqEJrd7" ] },
      { "delegate": "tz1Nf6tsK4G6bBqgSQERy4nUtkHNKUVdh7q1",
        "reception_time": "2022-01-16T06:34:57.658-00:00",
        "included_in_blocks":
          [ "BLWbgW8EeWMdid9S9MTHriXomG189McJKpoCTv1BAbMtWqEJrd7" ] },
      { "delegate": "tz1Kt4P8BCaP93AEV4eA7gmpRryWt5hznjCP",
        "reception_time": "2022-01-16T06:34:56.708-00:00",
        "included_in_blocks":
          [ "BLWbgW8EeWMdid9S9MTHriXomG189McJKpoCTv1BAbMtWqEJrd7" ] },
      { "delegate": "tz1eDDuQBEgwvc6tbnnCVrnr12tvrd6gBTpx",
        "reception_time": "2022-01-16T06:34:56.777-00:00",
        "included_in_blocks":
          [ "BLWbgW8EeWMdid9S9MTHriXomG189McJKpoCTv1BAbMtWqEJrd7" ] },
      { "delegate": "tz1TzaNn7wSQSP5gYPXCnNzBCpyMiidCq1PX",
        "reception_time": "2022-01-16T06:34:56.656-00:00",
        "included_in_blocks":
          [ "BLWbgW8EeWMdid9S9MTHriXomG189McJKpoCTv1BAbMtWqEJrd7" ] },
      { "delegate": "tz1WCd2jm4uSt4vntk4vSuUWoZQGhLcDuR9q",
        "reception_time": "2022-01-16T06:34:56.660-00:00",
        "included_in_blocks":
          [ "BLWbgW8EeWMdid9S9MTHriXomG189McJKpoCTv1BAbMtWqEJrd7" ] },
      { "delegate": "tz3hw2kqXhLUvY65ca1eety2oQTpAvd34R9Q",
        "reception_time": "2022-01-16T06:34:56.679-00:00",
        "included_in_blocks":
          [ "BLWbgW8EeWMdid9S9MTHriXomG189McJKpoCTv1BAbMtWqEJrd7" ] },
      { "delegate": "tz1Ldzz6k1BHdhuKvAtMRX7h5kJSMHESMHLC",
        "reception_time": "2022-01-16T06:34:56.632-00:00",
        "included_in_blocks":
          [ "BLWbgW8EeWMdid9S9MTHriXomG189McJKpoCTv1BAbMtWqEJrd7" ] },
      { "delegate": "tz3RKYFsLuQzKBtmYuLNas7uMu3AsYd4QdsA",
        "reception_time": "2022-01-16T06:34:56.526-00:00",
        "included_in_blocks":
          [ "BLWbgW8EeWMdid9S9MTHriXomG189McJKpoCTv1BAbMtWqEJrd7" ] },
      { "delegate": "tz3ZbP2pM3nwvXztbuMJwJnDvV5xdpU8UkkD",
        "reception_time": "2022-01-16T06:34:56.548-00:00",
        "included_in_blocks":
          [ "BLWbgW8EeWMdid9S9MTHriXomG189McJKpoCTv1BAbMtWqEJrd7" ] },
      { "delegate": "tz3NxTnke1acr8o3h5y9ytf5awQBGNJUKzVU",
        "reception_time": "2022-01-16T06:34:56.608-00:00",
        "included_in_blocks":
          [ "BLWbgW8EeWMdid9S9MTHriXomG189McJKpoCTv1BAbMtWqEJrd7" ] },
      { "delegate": "tz1MJx9vhaNRSimcuXPK2rW4fLccQnDAnVKJ",
        "reception_time": "2022-01-16T06:34:56.471-00:00",
        "included_in_blocks":
          [ "BLWbgW8EeWMdid9S9MTHriXomG189McJKpoCTv1BAbMtWqEJrd7" ] },
      { "delegate": "tz3Zhs2dygr55yHyQyKjntAtY9bgfhLZ4Xj1",
        "reception_time": "2022-01-16T06:34:56.318-00:00",
        "included_in_blocks":
          [ "BLWbgW8EeWMdid9S9MTHriXomG189McJKpoCTv1BAbMtWqEJrd7" ] },
      { "delegate": "tz1VQnqCCqX4K5sP3FNkVSNKTdCAMJDd3E1n",
        "reception_time": "2022-01-16T06:34:56.351-00:00",
        "included_in_blocks":
          [ "BLWbgW8EeWMdid9S9MTHriXomG189McJKpoCTv1BAbMtWqEJrd7" ] },
      { "delegate": "tz3iJu5vrKZcsqRPs8yJ61UDoeEXZmtro4qh",
        "reception_time": "2022-01-16T06:34:56.328-00:00",
        "included_in_blocks":
          [ "BLWbgW8EeWMdid9S9MTHriXomG189McJKpoCTv1BAbMtWqEJrd7" ] },
      { "delegate": "tz1gUNyn3hmnEWqkusWPzxRaon1cs7ndWh7h",
        "reception_time": "2022-01-16T06:34:56.348-00:00",
        "included_in_blocks":
          [ "BLWbgW8EeWMdid9S9MTHriXomG189McJKpoCTv1BAbMtWqEJrd7" ] },
      { "delegate": "tz1irJKkXS2DBWkU1NnmFQx1c1L7pbGg4yhk",
        "reception_time": "2022-01-16T06:34:56.340-00:00",
        "included_in_blocks":
          [ "BLWbgW8EeWMdid9S9MTHriXomG189McJKpoCTv1BAbMtWqEJrd7" ] },
      { "delegate": "tz1eEnQhbwf6trb8Q8mPb2RaPkNk2rN7BKi8",
        "reception_time": "2022-01-16T06:34:56.320-00:00",
        "included_in_blocks":
          [ "BLWbgW8EeWMdid9S9MTHriXomG189McJKpoCTv1BAbMtWqEJrd7" ] },
      { "delegate": "tz1Scdr2HsZiQjc7bHMeBbmDRXYVvdhjJbBh",
        "reception_time": "2022-01-16T06:34:56.318-00:00",
        "included_in_blocks":
          [ "BLWbgW8EeWMdid9S9MTHriXomG189McJKpoCTv1BAbMtWqEJrd7" ] } ] }