{ "blocks":
    [ { "hash": "BMPzVn46RHjQmF5pztpbgQ57coBFVjj2t1ELJcbBgadVKFugWEX",
        "delegate": "tz1irJKkXS2DBWkU1NnmFQx1c1L7pbGg4yhk",
        "reception_time": "2022-01-16T12:54:25.790-00:00",
        "timestamp": "2022-01-16T12:54:20Z" } ],
  "endorsements":
    [ { "delegate": "tz1cwkVaVm1M59zoNZPm4VnYnmh18Eit8xXn" },
      { "delegate": "tz1Vyuu4EJ5Nym4JcrfRLnp3hpaq1DSEp1Ke" },
      { "delegate": "tz1RjoHc98dBoqaH2jawF62XNKh7YsHwbkEv" },
      { "delegate": "tz1NdhRv643wLW6zCcRP3VfT24dvDnh7nuh9" },
      { "delegate": "tz1TRspM5SeZpaQUhzByXbEvqKF1vnCM2YTK",
        "reception_time": "2022-01-16T12:54:25.728-00:00",
        "errors":
          [ { "kind": "temporary",
              "id": "proto.011-PtHangz2.prefilter.outdated_endorsement" } ],
        "included_in_blocks":
          [ "BMTbwgR1NvjpD5rGAozfYasfXCHuR1agGtPR1cT1bYjmPB4Qphc" ] },
      { "delegate": "tz1eEnQhbwf6trb8Q8mPb2RaPkNk2rN7BKi8",
        "reception_time": "2022-01-16T12:54:25.527-00:00",
        "errors":
          [ { "kind": "temporary",
              "id": "proto.011-PtHangz2.prefilter.outdated_endorsement" } ],
        "included_in_blocks":
          [ "BMTbwgR1NvjpD5rGAozfYasfXCHuR1agGtPR1cT1bYjmPB4Qphc" ] },
      { "delegate": "tz1irJKkXS2DBWkU1NnmFQx1c1L7pbGg4yhk",
        "reception_time": "2022-01-16T12:54:25.420-00:00",
        "errors":
          [ { "kind": "temporary",
              "id": "proto.011-PtHangz2.prefilter.outdated_endorsement" } ],
        "included_in_blocks":
          [ "BMTbwgR1NvjpD5rGAozfYasfXCHuR1agGtPR1cT1bYjmPB4Qphc" ] },
      { "delegate": "tz1beersuEDv8Z7ngQ825xfbaJNS2EhXnyHR",
        "reception_time": "2022-01-16T12:54:25.407-00:00",
        "errors":
          [ { "kind": "temporary",
              "id": "proto.011-PtHangz2.prefilter.outdated_endorsement" } ],
        "included_in_blocks":
          [ "BMTbwgR1NvjpD5rGAozfYasfXCHuR1agGtPR1cT1bYjmPB4Qphc" ] },
      { "delegate": "tz1XXayQohB8XRXN7kMoHbf2NFwNiH3oMRQQ",
        "reception_time": "2022-01-16T12:54:25.348-00:00",
        "errors":
          [ { "kind": "temporary",
              "id": "proto.011-PtHangz2.prefilter.outdated_endorsement" } ],
        "included_in_blocks":
          [ "BMTbwgR1NvjpD5rGAozfYasfXCHuR1agGtPR1cT1bYjmPB4Qphc" ] },
      { "delegate": "tz1P2Po7YM526ughEsRbY4oR9zaUPDZjxFrb",
        "reception_time": "2022-01-16T12:54:25.060-00:00",
        "errors":
          [ { "kind": "temporary",
              "id": "proto.011-PtHangz2.prefilter.outdated_endorsement" } ],
        "included_in_blocks":
          [ "BMTbwgR1NvjpD5rGAozfYasfXCHuR1agGtPR1cT1bYjmPB4Qphc" ] },
      { "delegate": "tz1aburfPdZGWDJFNY1D9sgsVWQAvQJYwiTB",
        "reception_time": "2022-01-16T12:54:34.097-00:00",
        "included_in_blocks":
          [ "BMTbwgR1NvjpD5rGAozfYasfXCHuR1agGtPR1cT1bYjmPB4Qphc" ] },
      { "delegate": "tz1LVqmufjrmV67vNmZWXRDPMwSCh7mLBnS3",
        "reception_time": "2022-01-16T12:54:29.875-00:00",
        "included_in_blocks":
          [ "BMTbwgR1NvjpD5rGAozfYasfXCHuR1agGtPR1cT1bYjmPB4Qphc" ] },
      { "delegate": "tz3NExpXn9aPNZPorRE4SdjJ2RGrfbJgMAaV",
        "reception_time": "2022-01-16T12:54:29.610-00:00",
        "included_in_blocks":
          [ "BMTbwgR1NvjpD5rGAozfYasfXCHuR1agGtPR1cT1bYjmPB4Qphc" ] },
      { "delegate": "tz3UoffC7FG7zfpmvmjUmUeAaHvzdcUvAj6r",
        "reception_time": "2022-01-16T12:54:29.282-00:00",
        "included_in_blocks":
          [ "BMTbwgR1NvjpD5rGAozfYasfXCHuR1agGtPR1cT1bYjmPB4Qphc" ] },
      { "delegate": "tz1ZcTRk5uxD86EFEn1vvNffWWqJy7q5eVhc",
        "reception_time": "2022-01-16T12:54:29.232-00:00",
        "included_in_blocks":
          [ "BMTbwgR1NvjpD5rGAozfYasfXCHuR1agGtPR1cT1bYjmPB4Qphc" ] },
      { "delegate": "tz1dNVDWPf3Q59SdJqnjdnu277iyvReiRS9M",
        "reception_time": "2022-01-16T12:54:29.103-00:00",
        "included_in_blocks":
          [ "BMTbwgR1NvjpD5rGAozfYasfXCHuR1agGtPR1cT1bYjmPB4Qphc" ] },
      { "delegate": "tz3WMqdzXqRWXwyvj5Hp2H7QEepaUuS7vd9K",
        "reception_time": "2022-01-16T12:54:28.974-00:00",
        "included_in_blocks":
          [ "BMTbwgR1NvjpD5rGAozfYasfXCHuR1agGtPR1cT1bYjmPB4Qphc" ] },
      { "delegate": "tz1dRKU4FQ9QRRQPdaH4zCR6gmCmXfcvcgtB",
        "reception_time": "2022-01-16T12:54:28.893-00:00",
        "included_in_blocks":
          [ "BMTbwgR1NvjpD5rGAozfYasfXCHuR1agGtPR1cT1bYjmPB4Qphc" ] },
      { "delegate": "tz1T7duV5gZWSTq4YpBGbXNLTfznCLDrFxvs",
        "reception_time": "2022-01-16T12:54:28.618-00:00",
        "included_in_blocks":
          [ "BMTbwgR1NvjpD5rGAozfYasfXCHuR1agGtPR1cT1bYjmPB4Qphc" ] },
      { "delegate": "tz1awXW7wuXy21c66vBudMXQVAPgRnqqwgTH",
        "reception_time": "2022-01-16T12:54:28.621-00:00",
        "included_in_blocks":
          [ "BMTbwgR1NvjpD5rGAozfYasfXCHuR1agGtPR1cT1bYjmPB4Qphc" ] },
      { "delegate": "tz1bTpviNnyx2PXsNmGpCQTMQsGoYordkUoA",
        "reception_time": "2022-01-16T12:54:28.583-00:00",
        "included_in_blocks":
          [ "BMTbwgR1NvjpD5rGAozfYasfXCHuR1agGtPR1cT1bYjmPB4Qphc" ] },
      { "delegate": "tz1fJHFn6sWEd3NnBPngACuw2dggTv6nQZ7g",
        "reception_time": "2022-01-16T12:54:28.594-00:00",
        "included_in_blocks":
          [ "BMTbwgR1NvjpD5rGAozfYasfXCHuR1agGtPR1cT1bYjmPB4Qphc" ] },
      { "delegate": "tz3bvNMQ95vfAYtG8193ymshqjSvmxiCUuR5",
        "reception_time": "2022-01-16T12:54:28.299-00:00",
        "included_in_blocks":
          [ "BMTbwgR1NvjpD5rGAozfYasfXCHuR1agGtPR1cT1bYjmPB4Qphc" ] },
      { "delegate": "tz1fUyqYH7H4pRHN1roWY17giXhy1RvxjgUV",
        "reception_time": "2022-01-16T12:54:28.111-00:00",
        "included_in_blocks":
          [ "BMTbwgR1NvjpD5rGAozfYasfXCHuR1agGtPR1cT1bYjmPB4Qphc" ] },
      { "delegate": "tz1aRoaRhSpRYvFdyvgWLL6TGyRoGF51wDjM",
        "reception_time": "2022-01-16T12:54:28.152-00:00",
        "included_in_blocks":
          [ "BMTbwgR1NvjpD5rGAozfYasfXCHuR1agGtPR1cT1bYjmPB4Qphc" ] },
      { "delegate": "tz1f3Re8iw6Pt3KMHAvyccHxDU3NuqL95axD",
        "reception_time": "2022-01-16T12:54:28.076-00:00",
        "included_in_blocks":
          [ "BMTbwgR1NvjpD5rGAozfYasfXCHuR1agGtPR1cT1bYjmPB4Qphc" ] },
      { "delegate": "tz1NEKxGEHsFufk87CVZcrqWu8o22qh46GK6",
        "reception_time": "2022-01-16T12:54:28.061-00:00",
        "included_in_blocks":
          [ "BMTbwgR1NvjpD5rGAozfYasfXCHuR1agGtPR1cT1bYjmPB4Qphc" ] },
      { "delegate": "tz3VEZ4k6a4Wx42iyev6i2aVAptTRLEAivNN",
        "reception_time": "2022-01-16T12:54:28.127-00:00",
        "included_in_blocks":
          [ "BMTbwgR1NvjpD5rGAozfYasfXCHuR1agGtPR1cT1bYjmPB4Qphc" ] },
      { "delegate": "tz1eCzNtidHvVgeRzQ38C81FPcYnxMsCEL6Z",
        "reception_time": "2022-01-16T12:54:27.781-00:00",
        "included_in_blocks":
          [ "BMTbwgR1NvjpD5rGAozfYasfXCHuR1agGtPR1cT1bYjmPB4Qphc" ] },
      { "delegate": "tz1g8vkmcde6sWKaG2NN9WKzCkDM6Rziq194",
        "reception_time": "2022-01-16T12:54:27.764-00:00",
        "included_in_blocks":
          [ "BMTbwgR1NvjpD5rGAozfYasfXCHuR1agGtPR1cT1bYjmPB4Qphc" ] },
      { "delegate": "tz1SohptP53wDPZhzTWzDUFAUcWF6DMBpaJV",
        "reception_time": "2022-01-16T12:54:27.677-00:00",
        "included_in_blocks":
          [ "BMTbwgR1NvjpD5rGAozfYasfXCHuR1agGtPR1cT1bYjmPB4Qphc" ] },
      { "delegate": "tz2FCNBrERXtaTtNX6iimR1UJ5JSDxvdHM93",
        "reception_time": "2022-01-16T12:54:27.693-00:00",
        "included_in_blocks":
          [ "BMTbwgR1NvjpD5rGAozfYasfXCHuR1agGtPR1cT1bYjmPB4Qphc" ] },
      { "delegate": "tz1TEc75UKXv4W5cwi14Na3NtqFD51yKQi7h",
        "reception_time": "2022-01-16T12:54:27.611-00:00",
        "included_in_blocks":
          [ "BMTbwgR1NvjpD5rGAozfYasfXCHuR1agGtPR1cT1bYjmPB4Qphc" ] },
      { "delegate": "tz1PeZx7FXy7QRuMREGXGxeipb24RsMMzUNe",
        "reception_time": "2022-01-16T12:54:27.564-00:00",
        "included_in_blocks":
          [ "BMTbwgR1NvjpD5rGAozfYasfXCHuR1agGtPR1cT1bYjmPB4Qphc" ] },
      { "delegate": "tz1SYq214SCBy9naR6cvycQsYcUGpBqQAE8d",
        "reception_time": "2022-01-16T12:54:27.573-00:00",
        "included_in_blocks":
          [ "BMTbwgR1NvjpD5rGAozfYasfXCHuR1agGtPR1cT1bYjmPB4Qphc" ] },
      { "delegate": "tz1Nf6tsK4G6bBqgSQERy4nUtkHNKUVdh7q1",
        "reception_time": "2022-01-16T12:54:27.495-00:00",
        "included_in_blocks":
          [ "BMTbwgR1NvjpD5rGAozfYasfXCHuR1agGtPR1cT1bYjmPB4Qphc" ] },
      { "delegate": "tz1WBfwbT66FC6BTLexc2BoyCCBM9LG7pnVW",
        "reception_time": "2022-01-16T12:54:27.592-00:00",
        "included_in_blocks":
          [ "BMTbwgR1NvjpD5rGAozfYasfXCHuR1agGtPR1cT1bYjmPB4Qphc" ] },
      { "delegate": "tz3RB4aoyjov4KEVRbuhvQ1CKJgBJMWhaeB8",
        "reception_time": "2022-01-16T12:54:27.375-00:00",
        "included_in_blocks":
          [ "BMTbwgR1NvjpD5rGAozfYasfXCHuR1agGtPR1cT1bYjmPB4Qphc" ] },
      { "delegate": "tz1S8MNvuFEUsWgjHvi3AxibRBf388NhT1q2",
        "reception_time": "2022-01-16T12:54:27.320-00:00",
        "included_in_blocks":
          [ "BMTbwgR1NvjpD5rGAozfYasfXCHuR1agGtPR1cT1bYjmPB4Qphc" ] },
      { "delegate": "tz1PWCDnz783NNGGQjEFFsHtrcK5yBW4E2rm",
        "reception_time": "2022-01-16T12:54:27.347-00:00",
        "included_in_blocks":
          [ "BMTbwgR1NvjpD5rGAozfYasfXCHuR1agGtPR1cT1bYjmPB4Qphc" ] },
      { "delegate": "tz1MGTFJXpQmtxLi8QJ7AuVRgM2L2Qfn9w9i",
        "reception_time": "2022-01-16T12:54:27.278-00:00",
        "included_in_blocks":
          [ "BMTbwgR1NvjpD5rGAozfYasfXCHuR1agGtPR1cT1bYjmPB4Qphc" ] },
      { "delegate": "tz1Tnjaxk6tbAeC2TmMApPh8UsrEVQvhHvx5",
        "reception_time": "2022-01-16T12:54:27.357-00:00",
        "included_in_blocks":
          [ "BMTbwgR1NvjpD5rGAozfYasfXCHuR1agGtPR1cT1bYjmPB4Qphc" ] },
      { "delegate": "tz1ei4WtWEMEJekSv8qDnu9PExG6Q8HgRGr3",
        "reception_time": "2022-01-16T12:54:27.333-00:00",
        "included_in_blocks":
          [ "BMTbwgR1NvjpD5rGAozfYasfXCHuR1agGtPR1cT1bYjmPB4Qphc" ] },
      { "delegate": "tz3bTdwZinP8U1JmSweNzVKhmwafqWmFWRfk",
        "reception_time": "2022-01-16T12:54:27.343-00:00",
        "included_in_blocks":
          [ "BMTbwgR1NvjpD5rGAozfYasfXCHuR1agGtPR1cT1bYjmPB4Qphc" ] },
      { "delegate": "tz1RQhNh7iB9CZA7i3ifTWNwiGYVffponfbB",
        "reception_time": "2022-01-16T12:54:27.242-00:00",
        "included_in_blocks":
          [ "BMTbwgR1NvjpD5rGAozfYasfXCHuR1agGtPR1cT1bYjmPB4Qphc" ] },
      { "delegate": "tz3RDC3Jdn4j15J7bBHZd29EUee9gVB1CxD9",
        "reception_time": "2022-01-16T12:54:27.268-00:00",
        "included_in_blocks":
          [ "BMTbwgR1NvjpD5rGAozfYasfXCHuR1agGtPR1cT1bYjmPB4Qphc" ] },
      { "delegate": "tz1UJvHTgpVzcKWhTazGxVcn5wsHru5Gietg",
        "reception_time": "2022-01-16T12:54:27.238-00:00",
        "included_in_blocks":
          [ "BMTbwgR1NvjpD5rGAozfYasfXCHuR1agGtPR1cT1bYjmPB4Qphc" ] },
      { "delegate": "tz1MQJPGNMijnXnVoBENFz9rUhaPt3S7rWoz",
        "reception_time": "2022-01-16T12:54:27.257-00:00",
        "included_in_blocks":
          [ "BMTbwgR1NvjpD5rGAozfYasfXCHuR1agGtPR1cT1bYjmPB4Qphc" ] },
      { "delegate": "tz1RCFbB9GpALpsZtu6J58sb74dm8qe6XBzv",
        "reception_time": "2022-01-16T12:54:27.271-00:00",
        "included_in_blocks":
          [ "BMTbwgR1NvjpD5rGAozfYasfXCHuR1agGtPR1cT1bYjmPB4Qphc" ] },
      { "delegate": "tz1gfArv665EUkSg2ojMBzcbfwuPxAvqPvjo",
        "reception_time": "2022-01-16T12:54:27.216-00:00",
        "included_in_blocks":
          [ "BMTbwgR1NvjpD5rGAozfYasfXCHuR1agGtPR1cT1bYjmPB4Qphc" ] },
      { "delegate": "tz1d6Fx42mYgVFnHUW8T8A7WBfJ6nD9pVok8",
        "reception_time": "2022-01-16T12:54:27.091-00:00",
        "included_in_blocks":
          [ "BMTbwgR1NvjpD5rGAozfYasfXCHuR1agGtPR1cT1bYjmPB4Qphc" ] },
      { "delegate": "tz1iPHM2Xx2hwmzcr1EG1zzrV6oKafVoA91m",
        "reception_time": "2022-01-16T12:54:27.223-00:00",
        "included_in_blocks":
          [ "BMTbwgR1NvjpD5rGAozfYasfXCHuR1agGtPR1cT1bYjmPB4Qphc" ] },
      { "delegate": "tz1WCd2jm4uSt4vntk4vSuUWoZQGhLcDuR9q",
        "reception_time": "2022-01-16T12:54:27.087-00:00",
        "included_in_blocks":
          [ "BMTbwgR1NvjpD5rGAozfYasfXCHuR1agGtPR1cT1bYjmPB4Qphc" ] },
      { "delegate": "tz1TzaNn7wSQSP5gYPXCnNzBCpyMiidCq1PX",
        "reception_time": "2022-01-16T12:54:27.187-00:00",
        "included_in_blocks":
          [ "BMTbwgR1NvjpD5rGAozfYasfXCHuR1agGtPR1cT1bYjmPB4Qphc" ] },
      { "delegate": "tz3S6BBeKgJGXxvLyZ1xzXzMPn11nnFtq5L9",
        "reception_time": "2022-01-16T12:54:27.104-00:00",
        "included_in_blocks":
          [ "BMTbwgR1NvjpD5rGAozfYasfXCHuR1agGtPR1cT1bYjmPB4Qphc" ] },
      { "delegate": "tz3QT9dHYKDqh563chVa6za8526ys1UKfRfL",
        "reception_time": "2022-01-16T12:54:27.151-00:00",
        "included_in_blocks":
          [ "BMTbwgR1NvjpD5rGAozfYasfXCHuR1agGtPR1cT1bYjmPB4Qphc" ] },
      { "delegate": "tz1h4GUAMweP7SNWzDgvMk3yRCAZyaP1MxZq",
        "reception_time": "2022-01-16T12:54:27.114-00:00",
        "included_in_blocks":
          [ "BMTbwgR1NvjpD5rGAozfYasfXCHuR1agGtPR1cT1bYjmPB4Qphc" ] },
      { "delegate": "tz3adcvQaKXTCg12zbninqo3q8ptKKtDFTLv",
        "reception_time": "2022-01-16T12:54:27.136-00:00",
        "included_in_blocks":
          [ "BMTbwgR1NvjpD5rGAozfYasfXCHuR1agGtPR1cT1bYjmPB4Qphc" ] },
      { "delegate": "tz1gUNyn3hmnEWqkusWPzxRaon1cs7ndWh7h",
        "reception_time": "2022-01-16T12:54:27.151-00:00",
        "included_in_blocks":
          [ "BMTbwgR1NvjpD5rGAozfYasfXCHuR1agGtPR1cT1bYjmPB4Qphc" ] },
      { "delegate": "tz3QSGPoRp3Kn7n3vY24eYeu3Peuqo45LQ4D",
        "reception_time": "2022-01-16T12:54:27.087-00:00",
        "included_in_blocks":
          [ "BMTbwgR1NvjpD5rGAozfYasfXCHuR1agGtPR1cT1bYjmPB4Qphc" ] },
      { "delegate": "tz3Zhs2dygr55yHyQyKjntAtY9bgfhLZ4Xj1",
        "reception_time": "2022-01-16T12:54:27.114-00:00",
        "included_in_blocks":
          [ "BMTbwgR1NvjpD5rGAozfYasfXCHuR1agGtPR1cT1bYjmPB4Qphc" ] },
      { "delegate": "tz1VmiY38m3y95HqQLjMwqnMS7sdMfGomzKi",
        "reception_time": "2022-01-16T12:54:27.120-00:00",
        "included_in_blocks":
          [ "BMTbwgR1NvjpD5rGAozfYasfXCHuR1agGtPR1cT1bYjmPB4Qphc" ] },
      { "delegate": "tz1VQnqCCqX4K5sP3FNkVSNKTdCAMJDd3E1n",
        "reception_time": "2022-01-16T12:54:27.091-00:00",
        "included_in_blocks":
          [ "BMTbwgR1NvjpD5rGAozfYasfXCHuR1agGtPR1cT1bYjmPB4Qphc" ] },
      { "delegate": "tz1Ldzz6k1BHdhuKvAtMRX7h5kJSMHESMHLC",
        "reception_time": "2022-01-16T12:54:27.063-00:00",
        "included_in_blocks":
          [ "BMTbwgR1NvjpD5rGAozfYasfXCHuR1agGtPR1cT1bYjmPB4Qphc" ] },
      { "delegate": "tz3NxTnke1acr8o3h5y9ytf5awQBGNJUKzVU",
        "reception_time": "2022-01-16T12:54:27.076-00:00",
        "included_in_blocks":
          [ "BMTbwgR1NvjpD5rGAozfYasfXCHuR1agGtPR1cT1bYjmPB4Qphc" ] },
      { "delegate": "tz3gtoUxdudfBRcNY7iVdKPHCYYX6xdPpoRS",
        "reception_time": "2022-01-16T12:54:27.104-00:00",
        "included_in_blocks":
          [ "BMTbwgR1NvjpD5rGAozfYasfXCHuR1agGtPR1cT1bYjmPB4Qphc" ] },
      { "delegate": "tz3ZbP2pM3nwvXztbuMJwJnDvV5xdpU8UkkD",
        "reception_time": "2022-01-16T12:54:27.058-00:00",
        "included_in_blocks":
          [ "BMTbwgR1NvjpD5rGAozfYasfXCHuR1agGtPR1cT1bYjmPB4Qphc" ] },
      { "delegate": "tz1ZPh7XfUaJXUDvkrBxmS1BjEM1i62hiPpM",
        "reception_time": "2022-01-16T12:54:27.051-00:00",
        "included_in_blocks":
          [ "BMTbwgR1NvjpD5rGAozfYasfXCHuR1agGtPR1cT1bYjmPB4Qphc" ] },
      { "delegate": "tz3hw2kqXhLUvY65ca1eety2oQTpAvd34R9Q",
        "reception_time": "2022-01-16T12:54:27.076-00:00",
        "included_in_blocks":
          [ "BMTbwgR1NvjpD5rGAozfYasfXCHuR1agGtPR1cT1bYjmPB4Qphc" ] },
      { "delegate": "tz3RKYFsLuQzKBtmYuLNas7uMu3AsYd4QdsA",
        "reception_time": "2022-01-16T12:54:27.128-00:00",
        "included_in_blocks":
          [ "BMTbwgR1NvjpD5rGAozfYasfXCHuR1agGtPR1cT1bYjmPB4Qphc" ] },
      { "delegate": "tz1cX93Q3KsiTADpCC4f12TBvAmS5tw7CW19",
        "reception_time": "2022-01-16T12:54:26.832-00:00",
        "included_in_blocks":
          [ "BMTbwgR1NvjpD5rGAozfYasfXCHuR1agGtPR1cT1bYjmPB4Qphc" ] } ] }