{ "blocks":
    [ { "hash": "BKjUmbtw5hwVrK8itB2427pusNjvtLhh6xCkDwqrXmWRDXdYtgt",
        "delegate": "tz3QSGPoRp3Kn7n3vY24eYeu3Peuqo45LQ4D",
        "reception_time": "2022-01-16T13:02:34.929-00:00",
        "timestamp": "2022-01-16T13:02:30Z" } ],
  "endorsements":
    [ { "delegate": "tz1Lhf4J9Qxoe3DZ2nfe8FGDnvVj7oKjnMY6",
        "reception_time": "2022-01-16T13:02:34.776-00:00",
        "errors":
          [ { "kind": "temporary",
              "id": "proto.011-PtHangz2.prefilter.outdated_endorsement" } ],
        "included_in_blocks":
          [ "BKnJzT6CQVbFszkydJb4oxiHP6zWwAwSaCLtJZ1BWtt1mv5VrrB" ] },
      { "delegate": "tz1TXzyaKUA8wsWefdSnyaYFnV2M3vCV7er9",
        "reception_time": "2022-01-16T13:02:34.663-00:00",
        "errors":
          [ { "kind": "temporary",
              "id": "proto.011-PtHangz2.prefilter.outdated_endorsement" } ],
        "included_in_blocks":
          [ "BKnJzT6CQVbFszkydJb4oxiHP6zWwAwSaCLtJZ1BWtt1mv5VrrB" ] },
      { "delegate": "tz1P2Po7YM526ughEsRbY4oR9zaUPDZjxFrb",
        "reception_time": "2022-01-16T13:02:34.513-00:00",
        "errors":
          [ { "kind": "temporary",
              "id": "proto.011-PtHangz2.prefilter.outdated_endorsement" } ],
        "included_in_blocks":
          [ "BKnJzT6CQVbFszkydJb4oxiHP6zWwAwSaCLtJZ1BWtt1mv5VrrB" ] },
      { "delegate": "tz1Vyuu4EJ5Nym4JcrfRLnp3hpaq1DSEp1Ke" },
      { "delegate": "tz3gtoUxdudfBRcNY7iVdKPHCYYX6xdPpoRS",
        "reception_time": "2022-01-16T13:02:35.719-00:00",
        "included_in_blocks":
          [ "BKnJzT6CQVbFszkydJb4oxiHP6zWwAwSaCLtJZ1BWtt1mv5VrrB" ] },
      { "delegate": "tz1gUNyn3hmnEWqkusWPzxRaon1cs7ndWh7h",
        "reception_time": "2022-01-16T13:02:35.721-00:00",
        "included_in_blocks":
          [ "BKnJzT6CQVbFszkydJb4oxiHP6zWwAwSaCLtJZ1BWtt1mv5VrrB" ] },
      { "delegate": "tz3QSGPoRp3Kn7n3vY24eYeu3Peuqo45LQ4D",
        "reception_time": "2022-01-16T13:02:35.728-00:00",
        "included_in_blocks":
          [ "BKnJzT6CQVbFszkydJb4oxiHP6zWwAwSaCLtJZ1BWtt1mv5VrrB" ] },
      { "delegate": "tz1VQnqCCqX4K5sP3FNkVSNKTdCAMJDd3E1n",
        "reception_time": "2022-01-16T13:02:35.730-00:00",
        "included_in_blocks":
          [ "BKnJzT6CQVbFszkydJb4oxiHP6zWwAwSaCLtJZ1BWtt1mv5VrrB" ] },
      { "delegate": "tz1irJKkXS2DBWkU1NnmFQx1c1L7pbGg4yhk",
        "reception_time": "2022-01-16T13:02:35.734-00:00",
        "included_in_blocks":
          [ "BKnJzT6CQVbFszkydJb4oxiHP6zWwAwSaCLtJZ1BWtt1mv5VrrB" ] },
      { "delegate": "tz1eEnQhbwf6trb8Q8mPb2RaPkNk2rN7BKi8",
        "reception_time": "2022-01-16T13:02:35.736-00:00",
        "included_in_blocks":
          [ "BKnJzT6CQVbFszkydJb4oxiHP6zWwAwSaCLtJZ1BWtt1mv5VrrB" ] },
      { "delegate": "tz3NxTnke1acr8o3h5y9ytf5awQBGNJUKzVU",
        "reception_time": "2022-01-16T13:02:35.842-00:00",
        "included_in_blocks":
          [ "BKnJzT6CQVbFszkydJb4oxiHP6zWwAwSaCLtJZ1BWtt1mv5VrrB" ] },
      { "delegate": "tz3ZbP2pM3nwvXztbuMJwJnDvV5xdpU8UkkD",
        "reception_time": "2022-01-16T13:02:35.850-00:00",
        "included_in_blocks":
          [ "BKnJzT6CQVbFszkydJb4oxiHP6zWwAwSaCLtJZ1BWtt1mv5VrrB" ] },
      { "delegate": "tz1Ldzz6k1BHdhuKvAtMRX7h5kJSMHESMHLC",
        "reception_time": "2022-01-16T13:02:35.865-00:00",
        "included_in_blocks":
          [ "BKnJzT6CQVbFszkydJb4oxiHP6zWwAwSaCLtJZ1BWtt1mv5VrrB" ] },
      { "delegate": "tz1W1f1JrE7VsqgpUpj1iiDobqP5TixgZhDk",
        "reception_time": "2022-01-16T13:02:35.923-00:00",
        "included_in_blocks":
          [ "BKnJzT6CQVbFszkydJb4oxiHP6zWwAwSaCLtJZ1BWtt1mv5VrrB" ] },
      { "delegate": "tz3S6BBeKgJGXxvLyZ1xzXzMPn11nnFtq5L9",
        "reception_time": "2022-01-16T13:02:36.024-00:00",
        "included_in_blocks":
          [ "BKnJzT6CQVbFszkydJb4oxiHP6zWwAwSaCLtJZ1BWtt1mv5VrrB" ] },
      { "delegate": "tz3QT9dHYKDqh563chVa6za8526ys1UKfRfL",
        "reception_time": "2022-01-16T13:02:36.072-00:00",
        "included_in_blocks":
          [ "BKnJzT6CQVbFszkydJb4oxiHP6zWwAwSaCLtJZ1BWtt1mv5VrrB" ] },
      { "delegate": "tz1VmiY38m3y95HqQLjMwqnMS7sdMfGomzKi",
        "reception_time": "2022-01-16T13:02:36.100-00:00",
        "included_in_blocks":
          [ "BKnJzT6CQVbFszkydJb4oxiHP6zWwAwSaCLtJZ1BWtt1mv5VrrB" ] },
      { "delegate": "tz1WCd2jm4uSt4vntk4vSuUWoZQGhLcDuR9q",
        "reception_time": "2022-01-16T13:02:36.180-00:00",
        "included_in_blocks":
          [ "BKnJzT6CQVbFszkydJb4oxiHP6zWwAwSaCLtJZ1BWtt1mv5VrrB" ] },
      { "delegate": "tz3Zhs2dygr55yHyQyKjntAtY9bgfhLZ4Xj1",
        "reception_time": "2022-01-16T13:02:36.191-00:00",
        "included_in_blocks":
          [ "BKnJzT6CQVbFszkydJb4oxiHP6zWwAwSaCLtJZ1BWtt1mv5VrrB" ] },
      { "delegate": "tz3iJu5vrKZcsqRPs8yJ61UDoeEXZmtro4qh",
        "reception_time": "2022-01-16T13:02:36.203-00:00",
        "included_in_blocks":
          [ "BKnJzT6CQVbFszkydJb4oxiHP6zWwAwSaCLtJZ1BWtt1mv5VrrB" ] },
      { "delegate": "tz3RKYFsLuQzKBtmYuLNas7uMu3AsYd4QdsA",
        "reception_time": "2022-01-16T13:02:36.497-00:00",
        "included_in_blocks":
          [ "BKnJzT6CQVbFszkydJb4oxiHP6zWwAwSaCLtJZ1BWtt1mv5VrrB" ] },
      { "delegate": "tz3hw2kqXhLUvY65ca1eety2oQTpAvd34R9Q",
        "reception_time": "2022-01-16T13:02:36.516-00:00",
        "included_in_blocks":
          [ "BKnJzT6CQVbFszkydJb4oxiHP6zWwAwSaCLtJZ1BWtt1mv5VrrB" ] },
      { "delegate": "tz3bTdwZinP8U1JmSweNzVKhmwafqWmFWRfk",
        "reception_time": "2022-01-16T13:02:36.528-00:00",
        "included_in_blocks":
          [ "BKnJzT6CQVbFszkydJb4oxiHP6zWwAwSaCLtJZ1BWtt1mv5VrrB" ] },
      { "delegate": "tz1RCFbB9GpALpsZtu6J58sb74dm8qe6XBzv",
        "reception_time": "2022-01-16T13:02:36.547-00:00",
        "included_in_blocks":
          [ "BKnJzT6CQVbFszkydJb4oxiHP6zWwAwSaCLtJZ1BWtt1mv5VrrB" ] },
      { "delegate": "tz1SpU2P8EBQTAjxkdiTz3JAzZBj32w9Sb2Q",
        "reception_time": "2022-01-16T13:02:36.588-00:00",
        "included_in_blocks":
          [ "BKnJzT6CQVbFszkydJb4oxiHP6zWwAwSaCLtJZ1BWtt1mv5VrrB" ] },
      { "delegate": "tz1gfArv665EUkSg2ojMBzcbfwuPxAvqPvjo",
        "reception_time": "2022-01-16T13:02:36.647-00:00",
        "included_in_blocks":
          [ "BKnJzT6CQVbFszkydJb4oxiHP6zWwAwSaCLtJZ1BWtt1mv5VrrB" ] },
      { "delegate": "tz3RDC3Jdn4j15J7bBHZd29EUee9gVB1CxD9",
        "reception_time": "2022-01-16T13:02:36.657-00:00",
        "included_in_blocks":
          [ "BKnJzT6CQVbFszkydJb4oxiHP6zWwAwSaCLtJZ1BWtt1mv5VrrB" ] },
      { "delegate": "tz1PWCDnz783NNGGQjEFFsHtrcK5yBW4E2rm",
        "reception_time": "2022-01-16T13:02:36.662-00:00",
        "included_in_blocks":
          [ "BKnJzT6CQVbFszkydJb4oxiHP6zWwAwSaCLtJZ1BWtt1mv5VrrB" ] },
      { "delegate": "tz1LYW7Yepo9qsQx2kjpek2RYVMCeGwBvDCQ",
        "reception_time": "2022-01-16T13:02:36.858-00:00",
        "included_in_blocks":
          [ "BKnJzT6CQVbFszkydJb4oxiHP6zWwAwSaCLtJZ1BWtt1mv5VrrB" ] },
      { "delegate": "tz1S8MNvuFEUsWgjHvi3AxibRBf388NhT1q2",
        "reception_time": "2022-01-16T13:02:37.009-00:00",
        "included_in_blocks":
          [ "BKnJzT6CQVbFszkydJb4oxiHP6zWwAwSaCLtJZ1BWtt1mv5VrrB" ] },
      { "delegate": "tz1MQJPGNMijnXnVoBENFz9rUhaPt3S7rWoz",
        "reception_time": "2022-01-16T13:02:37.027-00:00",
        "included_in_blocks":
          [ "BKnJzT6CQVbFszkydJb4oxiHP6zWwAwSaCLtJZ1BWtt1mv5VrrB" ] },
      { "delegate": "tz1Nf6tsK4G6bBqgSQERy4nUtkHNKUVdh7q1",
        "reception_time": "2022-01-16T13:02:37.064-00:00",
        "included_in_blocks":
          [ "BKnJzT6CQVbFszkydJb4oxiHP6zWwAwSaCLtJZ1BWtt1mv5VrrB" ] },
      { "delegate": "tz1V4qCyvPKZ5UeqdH14HN42rxvNPQfc9UZg",
        "reception_time": "2022-01-16T13:02:37.071-00:00",
        "included_in_blocks":
          [ "BKnJzT6CQVbFszkydJb4oxiHP6zWwAwSaCLtJZ1BWtt1mv5VrrB" ] },
      { "delegate": "tz1ei4WtWEMEJekSv8qDnu9PExG6Q8HgRGr3",
        "reception_time": "2022-01-16T13:02:37.076-00:00",
        "included_in_blocks":
          [ "BKnJzT6CQVbFszkydJb4oxiHP6zWwAwSaCLtJZ1BWtt1mv5VrrB" ] },
      { "delegate": "tz1SohptP53wDPZhzTWzDUFAUcWF6DMBpaJV",
        "reception_time": "2022-01-16T13:02:37.258-00:00",
        "included_in_blocks":
          [ "BKnJzT6CQVbFszkydJb4oxiHP6zWwAwSaCLtJZ1BWtt1mv5VrrB" ] },
      { "delegate": "tz1TEc75UKXv4W5cwi14Na3NtqFD51yKQi7h",
        "reception_time": "2022-01-16T13:02:37.302-00:00",
        "included_in_blocks":
          [ "BKnJzT6CQVbFszkydJb4oxiHP6zWwAwSaCLtJZ1BWtt1mv5VrrB" ] },
      { "delegate": "tz1fZ767VDbqx4DeKiFswPSHh513f51mKEUZ",
        "reception_time": "2022-01-16T13:02:37.316-00:00",
        "included_in_blocks":
          [ "BKnJzT6CQVbFszkydJb4oxiHP6zWwAwSaCLtJZ1BWtt1mv5VrrB" ] },
      { "delegate": "tz1KfEsrtDaA1sX7vdM4qmEPWuSytuqCDp5j",
        "reception_time": "2022-01-16T13:02:37.323-00:00",
        "included_in_blocks":
          [ "BKnJzT6CQVbFszkydJb4oxiHP6zWwAwSaCLtJZ1BWtt1mv5VrrB" ] },
      { "delegate": "tz1SYq214SCBy9naR6cvycQsYcUGpBqQAE8d",
        "reception_time": "2022-01-16T13:02:37.335-00:00",
        "included_in_blocks":
          [ "BKnJzT6CQVbFszkydJb4oxiHP6zWwAwSaCLtJZ1BWtt1mv5VrrB" ] },
      { "delegate": "tz1abmz7jiCV2GH2u81LRrGgAFFgvQgiDiaf",
        "reception_time": "2022-01-16T13:02:37.349-00:00",
        "included_in_blocks":
          [ "BKnJzT6CQVbFszkydJb4oxiHP6zWwAwSaCLtJZ1BWtt1mv5VrrB" ] },
      { "delegate": "tz2FCNBrERXtaTtNX6iimR1UJ5JSDxvdHM93",
        "reception_time": "2022-01-16T13:02:37.409-00:00",
        "included_in_blocks":
          [ "BKnJzT6CQVbFszkydJb4oxiHP6zWwAwSaCLtJZ1BWtt1mv5VrrB" ] },
      { "delegate": "tz1M1gA1hgmmLf8VvtAwupbWCkaciQZMFbvi",
        "reception_time": "2022-01-16T13:02:37.463-00:00",
        "included_in_blocks":
          [ "BKnJzT6CQVbFszkydJb4oxiHP6zWwAwSaCLtJZ1BWtt1mv5VrrB" ] },
      { "delegate": "tz1NoYvKjXTzTk54VpLxBfouJ33J8jwKPPvw",
        "reception_time": "2022-01-16T13:02:37.643-00:00",
        "included_in_blocks":
          [ "BKnJzT6CQVbFszkydJb4oxiHP6zWwAwSaCLtJZ1BWtt1mv5VrrB" ] },
      { "delegate": "tz3gLTu4Yxj8tPAcriQVUdxv6BY9QyvzU1az",
        "reception_time": "2022-01-16T13:02:37.662-00:00",
        "included_in_blocks":
          [ "BKnJzT6CQVbFszkydJb4oxiHP6zWwAwSaCLtJZ1BWtt1mv5VrrB" ] },
      { "delegate": "tz1TRqbYbUf2GyrjErf3hBzgBJPzW8y36qEs",
        "reception_time": "2022-01-16T13:02:37.665-00:00",
        "included_in_blocks":
          [ "BKnJzT6CQVbFszkydJb4oxiHP6zWwAwSaCLtJZ1BWtt1mv5VrrB" ] },
      { "delegate": "tz1WwDDoqA6h1wAnAoT5jiCYJz5CB43f3D78",
        "reception_time": "2022-01-16T13:02:37.680-00:00",
        "included_in_blocks":
          [ "BKnJzT6CQVbFszkydJb4oxiHP6zWwAwSaCLtJZ1BWtt1mv5VrrB" ] },
      { "delegate": "tz1WctSwL49BZtdWAQ75NY6vr4xsAx6oKdah",
        "reception_time": "2022-01-16T13:02:37.754-00:00",
        "included_in_blocks":
          [ "BKnJzT6CQVbFszkydJb4oxiHP6zWwAwSaCLtJZ1BWtt1mv5VrrB" ] },
      { "delegate": "tz3NDpRj6WBrJPikcPVHRBEjWKxFw3c6eQPS",
        "reception_time": "2022-01-16T13:02:37.810-00:00",
        "included_in_blocks":
          [ "BKnJzT6CQVbFszkydJb4oxiHP6zWwAwSaCLtJZ1BWtt1mv5VrrB" ] },
      { "delegate": "tz3WMqdzXqRWXwyvj5Hp2H7QEepaUuS7vd9K",
        "reception_time": "2022-01-16T13:02:37.894-00:00",
        "included_in_blocks":
          [ "BKnJzT6CQVbFszkydJb4oxiHP6zWwAwSaCLtJZ1BWtt1mv5VrrB" ] },
      { "delegate": "tz3RB4aoyjov4KEVRbuhvQ1CKJgBJMWhaeB8",
        "reception_time": "2022-01-16T13:02:37.918-00:00",
        "included_in_blocks":
          [ "BKnJzT6CQVbFszkydJb4oxiHP6zWwAwSaCLtJZ1BWtt1mv5VrrB" ] },
      { "delegate": "tz3bvNMQ95vfAYtG8193ymshqjSvmxiCUuR5",
        "reception_time": "2022-01-16T13:02:37.934-00:00",
        "included_in_blocks":
          [ "BKnJzT6CQVbFszkydJb4oxiHP6zWwAwSaCLtJZ1BWtt1mv5VrrB" ] },
      { "delegate": "tz3VEZ4k6a4Wx42iyev6i2aVAptTRLEAivNN",
        "reception_time": "2022-01-16T13:02:38.038-00:00",
        "included_in_blocks":
          [ "BKnJzT6CQVbFszkydJb4oxiHP6zWwAwSaCLtJZ1BWtt1mv5VrrB" ] },
      { "delegate": "tz1fWJaG5uj6bQZ19bCSLjELJz6g2J6inUL1",
        "reception_time": "2022-01-16T13:02:38.062-00:00",
        "included_in_blocks":
          [ "BKnJzT6CQVbFszkydJb4oxiHP6zWwAwSaCLtJZ1BWtt1mv5VrrB" ] },
      { "delegate": "tz1aDiEJf9ztRrAJEXZfcG3CKimoKsGhwVAi",
        "reception_time": "2022-01-16T13:02:38.150-00:00",
        "included_in_blocks":
          [ "BKnJzT6CQVbFszkydJb4oxiHP6zWwAwSaCLtJZ1BWtt1mv5VrrB" ] },
      { "delegate": "tz1dNVDWPf3Q59SdJqnjdnu277iyvReiRS9M",
        "reception_time": "2022-01-16T13:02:38.231-00:00",
        "included_in_blocks":
          [ "BKnJzT6CQVbFszkydJb4oxiHP6zWwAwSaCLtJZ1BWtt1mv5VrrB" ] },
      { "delegate": "tz1NEKxGEHsFufk87CVZcrqWu8o22qh46GK6",
        "reception_time": "2022-01-16T13:02:38.331-00:00",
        "included_in_blocks":
          [ "BKnJzT6CQVbFszkydJb4oxiHP6zWwAwSaCLtJZ1BWtt1mv5VrrB" ] },
      { "delegate": "tz1f3Re8iw6Pt3KMHAvyccHxDU3NuqL95axD",
        "reception_time": "2022-01-16T13:02:38.420-00:00",
        "included_in_blocks":
          [ "BKnJzT6CQVbFszkydJb4oxiHP6zWwAwSaCLtJZ1BWtt1mv5VrrB" ] },
      { "delegate": "tz1awXW7wuXy21c66vBudMXQVAPgRnqqwgTH",
        "reception_time": "2022-01-16T13:02:38.448-00:00",
        "included_in_blocks":
          [ "BKnJzT6CQVbFszkydJb4oxiHP6zWwAwSaCLtJZ1BWtt1mv5VrrB" ] },
      { "delegate": "tz1T7duV5gZWSTq4YpBGbXNLTfznCLDrFxvs",
        "reception_time": "2022-01-16T13:02:38.544-00:00",
        "included_in_blocks":
          [ "BKnJzT6CQVbFszkydJb4oxiHP6zWwAwSaCLtJZ1BWtt1mv5VrrB" ] },
      { "delegate": "tz3UoffC7FG7zfpmvmjUmUeAaHvzdcUvAj6r",
        "reception_time": "2022-01-16T13:02:38.821-00:00",
        "included_in_blocks":
          [ "BKnJzT6CQVbFszkydJb4oxiHP6zWwAwSaCLtJZ1BWtt1mv5VrrB" ] },
      { "delegate": "tz1acZQd7TdfoiUnD2czHnTHB2TaJQP6gdqo",
        "reception_time": "2022-01-16T13:02:38.866-00:00",
        "included_in_blocks":
          [ "BKnJzT6CQVbFszkydJb4oxiHP6zWwAwSaCLtJZ1BWtt1mv5VrrB" ] },
      { "delegate": "tz3NExpXn9aPNZPorRE4SdjJ2RGrfbJgMAaV",
        "reception_time": "2022-01-16T13:02:38.913-00:00",
        "included_in_blocks":
          [ "BKnJzT6CQVbFszkydJb4oxiHP6zWwAwSaCLtJZ1BWtt1mv5VrrB" ] },
      { "delegate": "tz1aRoaRhSpRYvFdyvgWLL6TGyRoGF51wDjM",
        "reception_time": "2022-01-16T13:02:39.019-00:00",
        "included_in_blocks":
          [ "BKnJzT6CQVbFszkydJb4oxiHP6zWwAwSaCLtJZ1BWtt1mv5VrrB" ] },
      { "delegate": "tz1PFeoTuFen8jAMRHajBySNyCwLmY5RqF9M",
        "reception_time": "2022-01-16T13:02:39.039-00:00",
        "included_in_blocks":
          [ "BKnJzT6CQVbFszkydJb4oxiHP6zWwAwSaCLtJZ1BWtt1mv5VrrB" ] },
      { "delegate": "tz1aJS7Pk9uWR3wWyFf1i3RwhYxN84G7stom",
        "reception_time": "2022-01-16T13:02:39.786-00:00",
        "included_in_blocks":
          [ "BKnJzT6CQVbFszkydJb4oxiHP6zWwAwSaCLtJZ1BWtt1mv5VrrB" ] },
      { "delegate": "tz1QccGQsmt7WMnbVX9inJQgEuQGeMXddfjp",
        "reception_time": "2022-01-16T13:02:39.792-00:00",
        "included_in_blocks":
          [ "BKnJzT6CQVbFszkydJb4oxiHP6zWwAwSaCLtJZ1BWtt1mv5VrrB" ] },
      { "delegate": "tz1go7f6mEQfT2xX2LuHAqgnRGN6c2zHPf5c",
        "reception_time": "2022-01-16T13:02:41.722-00:00",
        "included_in_blocks":
          [ "BKnJzT6CQVbFszkydJb4oxiHP6zWwAwSaCLtJZ1BWtt1mv5VrrB" ] },
      { "delegate": "tz1NpWrAyDL9k2Lmnyxcgr9xuJakbBxdq7FB",
        "reception_time": "2022-01-16T13:02:43.123-00:00",
        "included_in_blocks":
          [ "BKnJzT6CQVbFszkydJb4oxiHP6zWwAwSaCLtJZ1BWtt1mv5VrrB" ] },
      { "delegate": "tz1LBgHhYP4JbYUWB9kPLgpri8STz5bD58EB",
        "reception_time": "2022-01-16T13:02:44.232-00:00",
        "included_in_blocks":
          [ "BKnJzT6CQVbFszkydJb4oxiHP6zWwAwSaCLtJZ1BWtt1mv5VrrB" ] },
      { "delegate": "tz2BzJTyoQp8fNbfhWD4YQgH9JJHDgSGzpdG",
        "reception_time": "2022-01-16T13:02:45.438-00:00",
        "included_in_blocks":
          [ "BKnJzT6CQVbFszkydJb4oxiHP6zWwAwSaCLtJZ1BWtt1mv5VrrB" ] } ] }