{ "blocks":
    [ { "hash": "BMRYu2kxD1iBHz7iT2bemPK5iT2tHTL3MqqidhLeZjVKwVG7kpB",
        "delegate": "tz3gtoUxdudfBRcNY7iVdKPHCYYX6xdPpoRS",
        "reception_time": "2022-01-16T11:04:35.646-00:00",
        "timestamp": "2022-01-16T11:04:30Z" } ],
  "endorsements":
    [ { "delegate": "tz1Vyuu4EJ5Nym4JcrfRLnp3hpaq1DSEp1Ke" },
      { "delegate": "tz1TRspM5SeZpaQUhzByXbEvqKF1vnCM2YTK" },
      { "delegate": "tz1S8e9GgdZG78XJRB3NqabfWeM37GnhZMWQ",
        "reception_time": "2022-01-16T11:04:35.404-00:00",
        "errors":
          [ { "kind": "temporary",
              "id": "proto.011-PtHangz2.prefilter.outdated_endorsement" } ],
        "included_in_blocks":
          [ "BM4CkNwYzHk8SX823vHk7inGmyeq9LKnAuZyF8Bkc6mQSdbde8G" ] },
      { "delegate": "tz1WnyXakHZKotpQHxevTnLmomz5rTwdiccy",
        "reception_time": "2022-01-16T11:04:45.062-00:00",
        "included_in_blocks":
          [ "BM4CkNwYzHk8SX823vHk7inGmyeq9LKnAuZyF8Bkc6mQSdbde8G" ] },
      { "delegate": "tz1NpWrAyDL9k2Lmnyxcgr9xuJakbBxdq7FB",
        "reception_time": "2022-01-16T11:04:44.363-00:00",
        "included_in_blocks":
          [ "BM4CkNwYzHk8SX823vHk7inGmyeq9LKnAuZyF8Bkc6mQSdbde8G" ] },
      { "delegate": "tz1go7f6mEQfT2xX2LuHAqgnRGN6c2zHPf5c",
        "reception_time": "2022-01-16T11:04:42.386-00:00",
        "included_in_blocks":
          [ "BM4CkNwYzHk8SX823vHk7inGmyeq9LKnAuZyF8Bkc6mQSdbde8G" ] },
      { "delegate": "tz1gg5bjopPcr9agjamyu9BbXKLibNc2rbAq",
        "reception_time": "2022-01-16T11:04:41.045-00:00",
        "included_in_blocks":
          [ "BM4CkNwYzHk8SX823vHk7inGmyeq9LKnAuZyF8Bkc6mQSdbde8G" ] },
      { "delegate": "tz1TcH4Nb3aHNDJ7CGZhU7jgAK1BkSP4Lxds",
        "reception_time": "2022-01-16T11:04:41.401-00:00",
        "included_in_blocks":
          [ "BM4CkNwYzHk8SX823vHk7inGmyeq9LKnAuZyF8Bkc6mQSdbde8G" ] },
      { "delegate": "tz3RDC3Jdn4j15J7bBHZd29EUee9gVB1CxD9",
        "reception_time": "2022-01-16T11:04:39.361-00:00",
        "included_in_blocks":
          [ "BM4CkNwYzHk8SX823vHk7inGmyeq9LKnAuZyF8Bkc6mQSdbde8G" ] },
      { "delegate": "tz1dRKU4FQ9QRRQPdaH4zCR6gmCmXfcvcgtB",
        "reception_time": "2022-01-16T11:04:39.258-00:00",
        "included_in_blocks":
          [ "BM4CkNwYzHk8SX823vHk7inGmyeq9LKnAuZyF8Bkc6mQSdbde8G" ] },
      { "delegate": "tz1fJHFn6sWEd3NnBPngACuw2dggTv6nQZ7g",
        "reception_time": "2022-01-16T11:04:39.253-00:00",
        "included_in_blocks":
          [ "BM4CkNwYzHk8SX823vHk7inGmyeq9LKnAuZyF8Bkc6mQSdbde8G" ] },
      { "delegate": "tz1XhnCdVENzgko5x1MMswLHSoQbJ5NPwLZ6",
        "reception_time": "2022-01-16T11:04:39.005-00:00",
        "included_in_blocks":
          [ "BM4CkNwYzHk8SX823vHk7inGmyeq9LKnAuZyF8Bkc6mQSdbde8G" ] },
      { "delegate": "tz1T7duV5gZWSTq4YpBGbXNLTfznCLDrFxvs",
        "reception_time": "2022-01-16T11:04:39.061-00:00",
        "included_in_blocks":
          [ "BM4CkNwYzHk8SX823vHk7inGmyeq9LKnAuZyF8Bkc6mQSdbde8G" ] },
      { "delegate": "tz1aRoaRhSpRYvFdyvgWLL6TGyRoGF51wDjM",
        "reception_time": "2022-01-16T11:04:38.778-00:00",
        "included_in_blocks":
          [ "BM4CkNwYzHk8SX823vHk7inGmyeq9LKnAuZyF8Bkc6mQSdbde8G" ] },
      { "delegate": "tz3NDpRj6WBrJPikcPVHRBEjWKxFw3c6eQPS",
        "reception_time": "2022-01-16T11:04:38.456-00:00",
        "included_in_blocks":
          [ "BM4CkNwYzHk8SX823vHk7inGmyeq9LKnAuZyF8Bkc6mQSdbde8G" ] },
      { "delegate": "tz1LYW7Yepo9qsQx2kjpek2RYVMCeGwBvDCQ",
        "reception_time": "2022-01-16T11:04:38.503-00:00",
        "included_in_blocks":
          [ "BM4CkNwYzHk8SX823vHk7inGmyeq9LKnAuZyF8Bkc6mQSdbde8G" ] },
      { "delegate": "tz1Vd1rXpV8hTHbFXCXN3c3qzCsgcU5BZw1e",
        "reception_time": "2022-01-16T11:04:38.584-00:00",
        "included_in_blocks":
          [ "BM4CkNwYzHk8SX823vHk7inGmyeq9LKnAuZyF8Bkc6mQSdbde8G" ] },
      { "delegate": "tz3NExpXn9aPNZPorRE4SdjJ2RGrfbJgMAaV",
        "reception_time": "2022-01-16T11:04:39.502-00:00",
        "included_in_blocks":
          [ "BM4CkNwYzHk8SX823vHk7inGmyeq9LKnAuZyF8Bkc6mQSdbde8G" ] },
      { "delegate": "tz1VceyYUpq1gk5dtp6jXQRtCtY8hm5DKt72",
        "reception_time": "2022-01-16T11:04:38.296-00:00",
        "included_in_blocks":
          [ "BM4CkNwYzHk8SX823vHk7inGmyeq9LKnAuZyF8Bkc6mQSdbde8G" ] },
      { "delegate": "tz1TRqbYbUf2GyrjErf3hBzgBJPzW8y36qEs",
        "reception_time": "2022-01-16T11:04:38.348-00:00",
        "included_in_blocks":
          [ "BM4CkNwYzHk8SX823vHk7inGmyeq9LKnAuZyF8Bkc6mQSdbde8G" ] },
      { "delegate": "tz1SYq214SCBy9naR6cvycQsYcUGpBqQAE8d",
        "reception_time": "2022-01-16T11:04:38.038-00:00",
        "included_in_blocks":
          [ "BM4CkNwYzHk8SX823vHk7inGmyeq9LKnAuZyF8Bkc6mQSdbde8G" ] },
      { "delegate": "tz3VEZ4k6a4Wx42iyev6i2aVAptTRLEAivNN",
        "reception_time": "2022-01-16T11:04:38.894-00:00",
        "included_in_blocks":
          [ "BM4CkNwYzHk8SX823vHk7inGmyeq9LKnAuZyF8Bkc6mQSdbde8G" ] },
      { "delegate": "tz1Mc61yajNASzh5KWZFtYs4i7EJbzAxQC4K",
        "reception_time": "2022-01-16T11:04:38.053-00:00",
        "included_in_blocks":
          [ "BM4CkNwYzHk8SX823vHk7inGmyeq9LKnAuZyF8Bkc6mQSdbde8G" ] },
      { "delegate": "tz1ei4WtWEMEJekSv8qDnu9PExG6Q8HgRGr3",
        "reception_time": "2022-01-16T11:04:38.150-00:00",
        "included_in_blocks":
          [ "BM4CkNwYzHk8SX823vHk7inGmyeq9LKnAuZyF8Bkc6mQSdbde8G" ] },
      { "delegate": "tz1WBfwbT66FC6BTLexc2BoyCCBM9LG7pnVW",
        "reception_time": "2022-01-16T11:04:37.902-00:00",
        "included_in_blocks":
          [ "BM4CkNwYzHk8SX823vHk7inGmyeq9LKnAuZyF8Bkc6mQSdbde8G" ] },
      { "delegate": "tz1abmz7jiCV2GH2u81LRrGgAFFgvQgiDiaf",
        "reception_time": "2022-01-16T11:04:37.876-00:00",
        "included_in_blocks":
          [ "BM4CkNwYzHk8SX823vHk7inGmyeq9LKnAuZyF8Bkc6mQSdbde8G" ] },
      { "delegate": "tz3WMqdzXqRWXwyvj5Hp2H7QEepaUuS7vd9K",
        "reception_time": "2022-01-16T11:04:38.654-00:00",
        "included_in_blocks":
          [ "BM4CkNwYzHk8SX823vHk7inGmyeq9LKnAuZyF8Bkc6mQSdbde8G" ] },
      { "delegate": "tz1S8MNvuFEUsWgjHvi3AxibRBf388NhT1q2",
        "reception_time": "2022-01-16T11:04:38.590-00:00",
        "included_in_blocks":
          [ "BM4CkNwYzHk8SX823vHk7inGmyeq9LKnAuZyF8Bkc6mQSdbde8G" ] },
      { "delegate": "tz1NEKxGEHsFufk87CVZcrqWu8o22qh46GK6",
        "reception_time": "2022-01-16T11:04:38.423-00:00",
        "included_in_blocks":
          [ "BM4CkNwYzHk8SX823vHk7inGmyeq9LKnAuZyF8Bkc6mQSdbde8G" ] },
      { "delegate": "tz2FCNBrERXtaTtNX6iimR1UJ5JSDxvdHM93",
        "reception_time": "2022-01-16T11:04:37.760-00:00",
        "included_in_blocks":
          [ "BM4CkNwYzHk8SX823vHk7inGmyeq9LKnAuZyF8Bkc6mQSdbde8G" ] },
      { "delegate": "tz3UoffC7FG7zfpmvmjUmUeAaHvzdcUvAj6r",
        "reception_time": "2022-01-16T11:04:38.720-00:00",
        "included_in_blocks":
          [ "BM4CkNwYzHk8SX823vHk7inGmyeq9LKnAuZyF8Bkc6mQSdbde8G" ] },
      { "delegate": "tz3bvNMQ95vfAYtG8193ymshqjSvmxiCUuR5",
        "reception_time": "2022-01-16T11:04:37.593-00:00",
        "included_in_blocks":
          [ "BM4CkNwYzHk8SX823vHk7inGmyeq9LKnAuZyF8Bkc6mQSdbde8G" ] },
      { "delegate": "tz1Nf6tsK4G6bBqgSQERy4nUtkHNKUVdh7q1",
        "reception_time": "2022-01-16T11:04:37.727-00:00",
        "included_in_blocks":
          [ "BM4CkNwYzHk8SX823vHk7inGmyeq9LKnAuZyF8Bkc6mQSdbde8G" ] },
      { "delegate": "tz1Tnjaxk6tbAeC2TmMApPh8UsrEVQvhHvx5",
        "reception_time": "2022-01-16T11:04:37.874-00:00",
        "included_in_blocks":
          [ "BM4CkNwYzHk8SX823vHk7inGmyeq9LKnAuZyF8Bkc6mQSdbde8G" ] },
      { "delegate": "tz1MGTFJXpQmtxLi8QJ7AuVRgM2L2Qfn9w9i",
        "reception_time": "2022-01-16T11:04:37.473-00:00",
        "included_in_blocks":
          [ "BM4CkNwYzHk8SX823vHk7inGmyeq9LKnAuZyF8Bkc6mQSdbde8G" ] },
      { "delegate": "tz1iPHM2Xx2hwmzcr1EG1zzrV6oKafVoA91m",
        "reception_time": "2022-01-16T11:04:37.546-00:00",
        "included_in_blocks":
          [ "BM4CkNwYzHk8SX823vHk7inGmyeq9LKnAuZyF8Bkc6mQSdbde8G" ] },
      { "delegate": "tz1eeArNKzpoGLrT8dR3ewRgZ4r3YQkY165n",
        "reception_time": "2022-01-16T11:04:38.075-00:00",
        "included_in_blocks":
          [ "BM4CkNwYzHk8SX823vHk7inGmyeq9LKnAuZyF8Bkc6mQSdbde8G" ] },
      { "delegate": "tz3RB4aoyjov4KEVRbuhvQ1CKJgBJMWhaeB8",
        "reception_time": "2022-01-16T11:04:37.377-00:00",
        "included_in_blocks":
          [ "BM4CkNwYzHk8SX823vHk7inGmyeq9LKnAuZyF8Bkc6mQSdbde8G" ] },
      { "delegate": "tz3bTdwZinP8U1JmSweNzVKhmwafqWmFWRfk",
        "reception_time": "2022-01-16T11:04:37.394-00:00",
        "included_in_blocks":
          [ "BM4CkNwYzHk8SX823vHk7inGmyeq9LKnAuZyF8Bkc6mQSdbde8G" ] },
      { "delegate": "tz1YhNsiRRU8aHNGg7NK3uuP6UDAyacJernB",
        "reception_time": "2022-01-16T11:04:37.135-00:00",
        "included_in_blocks":
          [ "BM4CkNwYzHk8SX823vHk7inGmyeq9LKnAuZyF8Bkc6mQSdbde8G" ] },
      { "delegate": "tz1RCFbB9GpALpsZtu6J58sb74dm8qe6XBzv",
        "reception_time": "2022-01-16T11:04:37.276-00:00",
        "included_in_blocks":
          [ "BM4CkNwYzHk8SX823vHk7inGmyeq9LKnAuZyF8Bkc6mQSdbde8G" ] },
      { "delegate": "tz1gfArv665EUkSg2ojMBzcbfwuPxAvqPvjo",
        "reception_time": "2022-01-16T11:04:37.473-00:00",
        "included_in_blocks":
          [ "BM4CkNwYzHk8SX823vHk7inGmyeq9LKnAuZyF8Bkc6mQSdbde8G" ] },
      { "delegate": "tz1WCd2jm4uSt4vntk4vSuUWoZQGhLcDuR9q",
        "reception_time": "2022-01-16T11:04:37.099-00:00",
        "included_in_blocks":
          [ "BM4CkNwYzHk8SX823vHk7inGmyeq9LKnAuZyF8Bkc6mQSdbde8G" ] },
      { "delegate": "tz1LmaFsWRkjr7QMCx5PtV6xTUz3AmEpKQiF",
        "reception_time": "2022-01-16T11:04:37.929-00:00",
        "included_in_blocks":
          [ "BM4CkNwYzHk8SX823vHk7inGmyeq9LKnAuZyF8Bkc6mQSdbde8G" ] },
      { "delegate": "tz3QT9dHYKDqh563chVa6za8526ys1UKfRfL",
        "reception_time": "2022-01-16T11:04:36.985-00:00",
        "included_in_blocks":
          [ "BM4CkNwYzHk8SX823vHk7inGmyeq9LKnAuZyF8Bkc6mQSdbde8G" ] },
      { "delegate": "tz3adcvQaKXTCg12zbninqo3q8ptKKtDFTLv",
        "reception_time": "2022-01-16T11:04:37.133-00:00",
        "included_in_blocks":
          [ "BM4CkNwYzHk8SX823vHk7inGmyeq9LKnAuZyF8Bkc6mQSdbde8G" ] },
      { "delegate": "tz3QCNyySViKHmeSr45kzDxzchys7NiXCWoa",
        "reception_time": "2022-01-16T11:04:36.961-00:00",
        "included_in_blocks":
          [ "BM4CkNwYzHk8SX823vHk7inGmyeq9LKnAuZyF8Bkc6mQSdbde8G" ] },
      { "delegate": "tz3S6BBeKgJGXxvLyZ1xzXzMPn11nnFtq5L9",
        "reception_time": "2022-01-16T11:04:37.026-00:00",
        "included_in_blocks":
          [ "BM4CkNwYzHk8SX823vHk7inGmyeq9LKnAuZyF8Bkc6mQSdbde8G" ] },
      { "delegate": "tz1MQJPGNMijnXnVoBENFz9rUhaPt3S7rWoz",
        "reception_time": "2022-01-16T11:04:37.680-00:00",
        "included_in_blocks":
          [ "BM4CkNwYzHk8SX823vHk7inGmyeq9LKnAuZyF8Bkc6mQSdbde8G" ] },
      { "delegate": "tz1ia6jze3LrBGWJkaDmZ7ThJpPsYWh8D398",
        "reception_time": "2022-01-16T11:04:36.965-00:00",
        "included_in_blocks":
          [ "BM4CkNwYzHk8SX823vHk7inGmyeq9LKnAuZyF8Bkc6mQSdbde8G" ] },
      { "delegate": "tz1VmiY38m3y95HqQLjMwqnMS7sdMfGomzKi",
        "reception_time": "2022-01-16T11:04:36.921-00:00",
        "included_in_blocks":
          [ "BM4CkNwYzHk8SX823vHk7inGmyeq9LKnAuZyF8Bkc6mQSdbde8G" ] },
      { "delegate": "tz1ajgycuHmd2z2JbTSJxKv7x6cok2KuNSk1",
        "reception_time": "2022-01-16T11:04:37.138-00:00",
        "included_in_blocks":
          [ "BM4CkNwYzHk8SX823vHk7inGmyeq9LKnAuZyF8Bkc6mQSdbde8G" ] },
      { "delegate": "tz3Zhs2dygr55yHyQyKjntAtY9bgfhLZ4Xj1",
        "reception_time": "2022-01-16T11:04:36.832-00:00",
        "included_in_blocks":
          [ "BM4CkNwYzHk8SX823vHk7inGmyeq9LKnAuZyF8Bkc6mQSdbde8G" ] },
      { "delegate": "tz1h4GUAMweP7SNWzDgvMk3yRCAZyaP1MxZq",
        "reception_time": "2022-01-16T11:04:36.767-00:00",
        "included_in_blocks":
          [ "BM4CkNwYzHk8SX823vHk7inGmyeq9LKnAuZyF8Bkc6mQSdbde8G" ] },
      { "delegate": "tz3iJu5vrKZcsqRPs8yJ61UDoeEXZmtro4qh",
        "reception_time": "2022-01-16T11:04:36.825-00:00",
        "included_in_blocks":
          [ "BM4CkNwYzHk8SX823vHk7inGmyeq9LKnAuZyF8Bkc6mQSdbde8G" ] },
      { "delegate": "tz1irJKkXS2DBWkU1NnmFQx1c1L7pbGg4yhk",
        "reception_time": "2022-01-16T11:04:36.619-00:00",
        "included_in_blocks":
          [ "BM4CkNwYzHk8SX823vHk7inGmyeq9LKnAuZyF8Bkc6mQSdbde8G" ] },
      { "delegate": "tz3RKYFsLuQzKBtmYuLNas7uMu3AsYd4QdsA",
        "reception_time": "2022-01-16T11:04:36.583-00:00",
        "included_in_blocks":
          [ "BM4CkNwYzHk8SX823vHk7inGmyeq9LKnAuZyF8Bkc6mQSdbde8G" ] },
      { "delegate": "tz1Kf25fX1VdmYGSEzwFy1wNmkbSEZ2V83sY",
        "reception_time": "2022-01-16T11:04:36.567-00:00",
        "included_in_blocks":
          [ "BM4CkNwYzHk8SX823vHk7inGmyeq9LKnAuZyF8Bkc6mQSdbde8G" ] },
      { "delegate": "tz3hw2kqXhLUvY65ca1eety2oQTpAvd34R9Q",
        "reception_time": "2022-01-16T11:04:36.564-00:00",
        "included_in_blocks":
          [ "BM4CkNwYzHk8SX823vHk7inGmyeq9LKnAuZyF8Bkc6mQSdbde8G" ] },
      { "delegate": "tz1Ldzz6k1BHdhuKvAtMRX7h5kJSMHESMHLC",
        "reception_time": "2022-01-16T11:04:36.658-00:00",
        "included_in_blocks":
          [ "BM4CkNwYzHk8SX823vHk7inGmyeq9LKnAuZyF8Bkc6mQSdbde8G" ] },
      { "delegate": "tz3QSGPoRp3Kn7n3vY24eYeu3Peuqo45LQ4D",
        "reception_time": "2022-01-16T11:04:36.551-00:00",
        "included_in_blocks":
          [ "BM4CkNwYzHk8SX823vHk7inGmyeq9LKnAuZyF8Bkc6mQSdbde8G" ] },
      { "delegate": "tz1eEnQhbwf6trb8Q8mPb2RaPkNk2rN7BKi8",
        "reception_time": "2022-01-16T11:04:36.509-00:00",
        "included_in_blocks":
          [ "BM4CkNwYzHk8SX823vHk7inGmyeq9LKnAuZyF8Bkc6mQSdbde8G" ] },
      { "delegate": "tz3ZbP2pM3nwvXztbuMJwJnDvV5xdpU8UkkD",
        "reception_time": "2022-01-16T11:04:36.539-00:00",
        "included_in_blocks":
          [ "BM4CkNwYzHk8SX823vHk7inGmyeq9LKnAuZyF8Bkc6mQSdbde8G" ] },
      { "delegate": "tz3gtoUxdudfBRcNY7iVdKPHCYYX6xdPpoRS",
        "reception_time": "2022-01-16T11:04:36.530-00:00",
        "included_in_blocks":
          [ "BM4CkNwYzHk8SX823vHk7inGmyeq9LKnAuZyF8Bkc6mQSdbde8G" ] },
      { "delegate": "tz3NxTnke1acr8o3h5y9ytf5awQBGNJUKzVU",
        "reception_time": "2022-01-16T11:04:36.521-00:00",
        "included_in_blocks":
          [ "BM4CkNwYzHk8SX823vHk7inGmyeq9LKnAuZyF8Bkc6mQSdbde8G" ] },
      { "delegate": "tz1gUNyn3hmnEWqkusWPzxRaon1cs7ndWh7h",
        "reception_time": "2022-01-16T11:04:36.542-00:00",
        "included_in_blocks":
          [ "BM4CkNwYzHk8SX823vHk7inGmyeq9LKnAuZyF8Bkc6mQSdbde8G" ] },
      { "delegate": "tz1VQnqCCqX4K5sP3FNkVSNKTdCAMJDd3E1n",
        "reception_time": "2022-01-16T11:04:36.533-00:00",
        "included_in_blocks":
          [ "BM4CkNwYzHk8SX823vHk7inGmyeq9LKnAuZyF8Bkc6mQSdbde8G" ] },
      { "delegate": "tz1Scdr2HsZiQjc7bHMeBbmDRXYVvdhjJbBh",
        "reception_time": "2022-01-16T11:04:36.514-00:00",
        "included_in_blocks":
          [ "BM4CkNwYzHk8SX823vHk7inGmyeq9LKnAuZyF8Bkc6mQSdbde8G" ] },
      { "delegate": "tz1P2Po7YM526ughEsRbY4oR9zaUPDZjxFrb",
        "reception_time": "2022-01-16T11:04:36.501-00:00",
        "included_in_blocks":
          [ "BM4CkNwYzHk8SX823vHk7inGmyeq9LKnAuZyF8Bkc6mQSdbde8G" ] } ] }