{ "blocks":
    [ { "hash": "BMQGriHz1E2cix2k2YP3Vc7mxEixebNRtXHJZfQMwQpkKZaT8QT",
        "delegate": "tz1RAxW1rBTRumV9QEpFsw51QWPQmAKHGMei",
        "reception_time": "2022-01-16T08:32:05.864-00:00",
        "timestamp": "2022-01-16T08:31:30Z" } ],
  "endorsements":
    [ { "delegate": "tz1TcH4Nb3aHNDJ7CGZhU7jgAK1BkSP4Lxds",
        "reception_time": "2022-01-16T08:32:10.271-00:00" },
      { "delegate": "tz3NExpXn9aPNZPorRE4SdjJ2RGrfbJgMAaV",
        "reception_time": "2022-01-16T08:32:10.193-00:00" },
      { "delegate": "tz3UoffC7FG7zfpmvmjUmUeAaHvzdcUvAj6r",
        "reception_time": "2022-01-16T08:32:09.765-00:00" },
      { "delegate": "tz1T7duV5gZWSTq4YpBGbXNLTfznCLDrFxvs",
        "reception_time": "2022-01-16T08:32:09.583-00:00" },
      { "delegate": "tz1aRoaRhSpRYvFdyvgWLL6TGyRoGF51wDjM",
        "reception_time": "2022-01-16T08:32:09.392-00:00" },
      { "delegate": "tz1cYufsxHXJcvANhvS55h3aY32a9BAFB494",
        "reception_time": "2022-01-16T08:32:09.319-00:00" },
      { "delegate": "tz1iEWcNL383qiDJ3Q3qt5W2T4aSKUbEU4An",
        "reception_time": "2022-01-16T08:32:09.279-00:00" },
      { "delegate": "tz3VEZ4k6a4Wx42iyev6i2aVAptTRLEAivNN",
        "reception_time": "2022-01-16T08:32:09.236-00:00" },
      { "delegate": "tz1awXW7wuXy21c66vBudMXQVAPgRnqqwgTH",
        "reception_time": "2022-01-16T08:32:09.221-00:00" },
      { "delegate": "tz1UvkANVPWppVgMkLnvN7BwYZsCP7vm6NVd",
        "reception_time": "2022-01-16T08:32:09.198-00:00" },
      { "delegate": "tz3WMqdzXqRWXwyvj5Hp2H7QEepaUuS7vd9K",
        "reception_time": "2022-01-16T08:32:09.090-00:00" },
      { "delegate": "tz3bvNMQ95vfAYtG8193ymshqjSvmxiCUuR5",
        "reception_time": "2022-01-16T08:32:09.072-00:00" },
      { "delegate": "tz1Zcxkfa5jKrRbBThG765GP29bUCU3C4ok5",
        "reception_time": "2022-01-16T08:32:08.911-00:00" },
      { "delegate": "tz3NDpRj6WBrJPikcPVHRBEjWKxFw3c6eQPS",
        "reception_time": "2022-01-16T08:32:08.749-00:00" },
      { "delegate": "tz3gLTu4Yxj8tPAcriQVUdxv6BY9QyvzU1az",
        "reception_time": "2022-01-16T08:32:08.735-00:00" },
      { "delegate": "tz1WctSwL49BZtdWAQ75NY6vr4xsAx6oKdah",
        "reception_time": "2022-01-16T08:32:08.722-00:00" },
      { "delegate": "tz1MGTFJXpQmtxLi8QJ7AuVRgM2L2Qfn9w9i",
        "reception_time": "2022-01-16T08:32:08.554-00:00" },
      { "delegate": "tz1WBfwbT66FC6BTLexc2BoyCCBM9LG7pnVW",
        "reception_time": "2022-01-16T08:32:08.312-00:00" },
      { "delegate": "tz1TEc75UKXv4W5cwi14Na3NtqFD51yKQi7h",
        "reception_time": "2022-01-16T08:32:08.309-00:00" },
      { "delegate": "tz1Ldzz6k1BHdhuKvAtMRX7h5kJSMHESMHLC",
        "reception_time": "2022-01-16T08:32:08.255-00:00" },
      { "delegate": "tz1TRqbYbUf2GyrjErf3hBzgBJPzW8y36qEs",
        "reception_time": "2022-01-16T08:32:08.236-00:00" },
      { "delegate": "tz1Tnjaxk6tbAeC2TmMApPh8UsrEVQvhHvx5",
        "reception_time": "2022-01-16T08:32:08.224-00:00" },
      { "delegate": "tz2FCNBrERXtaTtNX6iimR1UJ5JSDxvdHM93",
        "reception_time": "2022-01-16T08:32:08.183-00:00" },
      { "delegate": "tz1KfEsrtDaA1sX7vdM4qmEPWuSytuqCDp5j",
        "reception_time": "2022-01-16T08:32:08.159-00:00" },
      { "delegate": "tz1ei4WtWEMEJekSv8qDnu9PExG6Q8HgRGr3",
        "reception_time": "2022-01-16T08:32:08.141-00:00" },
      { "delegate": "tz1NortRftucvAkD1J58L32EhSVrQEWJCEnB",
        "reception_time": "2022-01-16T08:32:08.121-00:00" },
      { "delegate": "tz1gfArv665EUkSg2ojMBzcbfwuPxAvqPvjo",
        "reception_time": "2022-01-16T08:32:08.109-00:00",
        "included_in_blocks":
          [ "BLRVXyor3rTcTKSZU6E2NygFCtAynytC7js9c69SWhPFnzYKZmX" ] },
      { "delegate": "tz1Nf6tsK4G6bBqgSQERy4nUtkHNKUVdh7q1",
        "reception_time": "2022-01-16T08:32:08.097-00:00" },
      { "delegate": "tz1SYq214SCBy9naR6cvycQsYcUGpBqQAE8d",
        "reception_time": "2022-01-16T08:32:08.006-00:00",
        "included_in_blocks":
          [ "BLRVXyor3rTcTKSZU6E2NygFCtAynytC7js9c69SWhPFnzYKZmX" ] },
      { "delegate": "tz3RB4aoyjov4KEVRbuhvQ1CKJgBJMWhaeB8",
        "reception_time": "2022-01-16T08:32:07.999-00:00",
        "included_in_blocks":
          [ "BLRVXyor3rTcTKSZU6E2NygFCtAynytC7js9c69SWhPFnzYKZmX" ] },
      { "delegate": "tz3QCNyySViKHmeSr45kzDxzchys7NiXCWoa",
        "reception_time": "2022-01-16T08:32:07.973-00:00",
        "included_in_blocks":
          [ "BLRVXyor3rTcTKSZU6E2NygFCtAynytC7js9c69SWhPFnzYKZmX" ] },
      { "delegate": "tz1S8MNvuFEUsWgjHvi3AxibRBf388NhT1q2",
        "reception_time": "2022-01-16T08:32:07.956-00:00",
        "included_in_blocks":
          [ "BLRVXyor3rTcTKSZU6E2NygFCtAynytC7js9c69SWhPFnzYKZmX" ] },
      { "delegate": "tz1aDiEJf9ztRrAJEXZfcG3CKimoKsGhwVAi",
        "reception_time": "2022-01-16T08:32:07.951-00:00",
        "included_in_blocks":
          [ "BLRVXyor3rTcTKSZU6E2NygFCtAynytC7js9c69SWhPFnzYKZmX" ] },
      { "delegate": "tz1V4qCyvPKZ5UeqdH14HN42rxvNPQfc9UZg",
        "reception_time": "2022-01-16T08:32:07.909-00:00",
        "included_in_blocks":
          [ "BLRVXyor3rTcTKSZU6E2NygFCtAynytC7js9c69SWhPFnzYKZmX" ] },
      { "delegate": "tz3RDC3Jdn4j15J7bBHZd29EUee9gVB1CxD9",
        "reception_time": "2022-01-16T08:32:07.870-00:00",
        "included_in_blocks":
          [ "BLRVXyor3rTcTKSZU6E2NygFCtAynytC7js9c69SWhPFnzYKZmX" ] },
      { "delegate": "tz1hAYfexyzPGG6RhZZMpDvAHifubsbb6kgn",
        "reception_time": "2022-01-16T08:32:07.821-00:00",
        "included_in_blocks":
          [ "BLRVXyor3rTcTKSZU6E2NygFCtAynytC7js9c69SWhPFnzYKZmX" ] },
      { "delegate": "tz1RCFbB9GpALpsZtu6J58sb74dm8qe6XBzv",
        "reception_time": "2022-01-16T08:32:07.774-00:00",
        "included_in_blocks":
          [ "BLRVXyor3rTcTKSZU6E2NygFCtAynytC7js9c69SWhPFnzYKZmX" ] },
      { "delegate": "tz1MQMiZHV8q4tTwUMWmS5Y3kaP6J2136iXr",
        "reception_time": "2022-01-16T08:32:07.741-00:00",
        "included_in_blocks":
          [ "BLRVXyor3rTcTKSZU6E2NygFCtAynytC7js9c69SWhPFnzYKZmX" ] },
      { "delegate": "tz1MQJPGNMijnXnVoBENFz9rUhaPt3S7rWoz",
        "reception_time": "2022-01-16T08:32:07.729-00:00",
        "included_in_blocks":
          [ "BLRVXyor3rTcTKSZU6E2NygFCtAynytC7js9c69SWhPFnzYKZmX" ] },
      { "delegate": "tz3bTdwZinP8U1JmSweNzVKhmwafqWmFWRfk",
        "reception_time": "2022-01-16T08:32:07.722-00:00",
        "included_in_blocks":
          [ "BLRVXyor3rTcTKSZU6E2NygFCtAynytC7js9c69SWhPFnzYKZmX" ] },
      { "delegate": "tz1iPHM2Xx2hwmzcr1EG1zzrV6oKafVoA91m",
        "reception_time": "2022-01-16T08:32:07.702-00:00",
        "included_in_blocks":
          [ "BLRVXyor3rTcTKSZU6E2NygFCtAynytC7js9c69SWhPFnzYKZmX" ] },
      { "delegate": "tz1W3VYi3gSt9Xgfw6WNV1aGZRPH2BsskMEY",
        "reception_time": "2022-01-16T08:32:07.687-00:00",
        "included_in_blocks":
          [ "BLRVXyor3rTcTKSZU6E2NygFCtAynytC7js9c69SWhPFnzYKZmX" ] },
      { "delegate": "tz1h4GUAMweP7SNWzDgvMk3yRCAZyaP1MxZq",
        "reception_time": "2022-01-16T08:32:07.625-00:00",
        "included_in_blocks":
          [ "BLRVXyor3rTcTKSZU6E2NygFCtAynytC7js9c69SWhPFnzYKZmX" ] },
      { "delegate": "tz3adcvQaKXTCg12zbninqo3q8ptKKtDFTLv",
        "reception_time": "2022-01-16T08:32:07.587-00:00",
        "included_in_blocks":
          [ "BLRVXyor3rTcTKSZU6E2NygFCtAynytC7js9c69SWhPFnzYKZmX" ] },
      { "delegate": "tz1cSj7fTex3JPd1p1LN1fwek6AV1kH93Wwc",
        "reception_time": "2022-01-16T08:32:07.581-00:00",
        "included_in_blocks":
          [ "BLRVXyor3rTcTKSZU6E2NygFCtAynytC7js9c69SWhPFnzYKZmX" ] },
      { "delegate": "tz1PWCDnz783NNGGQjEFFsHtrcK5yBW4E2rm",
        "reception_time": "2022-01-16T08:32:07.546-00:00",
        "included_in_blocks":
          [ "BLRVXyor3rTcTKSZU6E2NygFCtAynytC7js9c69SWhPFnzYKZmX" ] },
      { "delegate": "tz3S6BBeKgJGXxvLyZ1xzXzMPn11nnFtq5L9",
        "reception_time": "2022-01-16T08:32:07.441-00:00",
        "included_in_blocks":
          [ "BLRVXyor3rTcTKSZU6E2NygFCtAynytC7js9c69SWhPFnzYKZmX" ] },
      { "delegate": "tz3QT9dHYKDqh563chVa6za8526ys1UKfRfL",
        "reception_time": "2022-01-16T08:32:07.441-00:00",
        "included_in_blocks":
          [ "BLRVXyor3rTcTKSZU6E2NygFCtAynytC7js9c69SWhPFnzYKZmX" ] },
      { "delegate": "tz1gUNyn3hmnEWqkusWPzxRaon1cs7ndWh7h",
        "reception_time": "2022-01-16T08:32:07.441-00:00",
        "included_in_blocks":
          [ "BLRVXyor3rTcTKSZU6E2NygFCtAynytC7js9c69SWhPFnzYKZmX" ] },
      { "delegate": "tz1VQnqCCqX4K5sP3FNkVSNKTdCAMJDd3E1n",
        "reception_time": "2022-01-16T08:32:07.441-00:00",
        "included_in_blocks":
          [ "BLRVXyor3rTcTKSZU6E2NygFCtAynytC7js9c69SWhPFnzYKZmX" ] },
      { "delegate": "tz3gtoUxdudfBRcNY7iVdKPHCYYX6xdPpoRS",
        "reception_time": "2022-01-16T08:32:07.441-00:00",
        "included_in_blocks":
          [ "BLRVXyor3rTcTKSZU6E2NygFCtAynytC7js9c69SWhPFnzYKZmX" ] },
      { "delegate": "tz3QSGPoRp3Kn7n3vY24eYeu3Peuqo45LQ4D",
        "reception_time": "2022-01-16T08:32:07.441-00:00",
        "included_in_blocks":
          [ "BLRVXyor3rTcTKSZU6E2NygFCtAynytC7js9c69SWhPFnzYKZmX" ] },
      { "delegate": "tz1WCd2jm4uSt4vntk4vSuUWoZQGhLcDuR9q",
        "reception_time": "2022-01-16T08:32:07.441-00:00",
        "included_in_blocks":
          [ "BLRVXyor3rTcTKSZU6E2NygFCtAynytC7js9c69SWhPFnzYKZmX" ] },
      { "delegate": "tz3NxTnke1acr8o3h5y9ytf5awQBGNJUKzVU",
        "reception_time": "2022-01-16T08:32:07.441-00:00",
        "included_in_blocks":
          [ "BLRVXyor3rTcTKSZU6E2NygFCtAynytC7js9c69SWhPFnzYKZmX" ] },
      { "delegate": "tz3ZbP2pM3nwvXztbuMJwJnDvV5xdpU8UkkD",
        "reception_time": "2022-01-16T08:32:07.441-00:00",
        "included_in_blocks":
          [ "BLRVXyor3rTcTKSZU6E2NygFCtAynytC7js9c69SWhPFnzYKZmX" ] },
      { "delegate": "tz1aXD7Jigrt3PBYSpHSg5Rr33SexMmmM5Ys",
        "reception_time": "2022-01-16T08:32:07.441-00:00",
        "included_in_blocks":
          [ "BLRVXyor3rTcTKSZU6E2NygFCtAynytC7js9c69SWhPFnzYKZmX" ] },
      { "delegate": "tz3iJu5vrKZcsqRPs8yJ61UDoeEXZmtro4qh",
        "reception_time": "2022-01-16T08:32:07.441-00:00",
        "included_in_blocks":
          [ "BLRVXyor3rTcTKSZU6E2NygFCtAynytC7js9c69SWhPFnzYKZmX" ] },
      { "delegate": "tz1VmiY38m3y95HqQLjMwqnMS7sdMfGomzKi",
        "reception_time": "2022-01-16T08:32:07.441-00:00",
        "included_in_blocks":
          [ "BLRVXyor3rTcTKSZU6E2NygFCtAynytC7js9c69SWhPFnzYKZmX" ] },
      { "delegate": "tz1TzaNn7wSQSP5gYPXCnNzBCpyMiidCq1PX",
        "reception_time": "2022-01-16T08:32:07.157-00:00",
        "included_in_blocks":
          [ "BLRVXyor3rTcTKSZU6E2NygFCtAynytC7js9c69SWhPFnzYKZmX" ] },
      { "delegate": "tz1irJKkXS2DBWkU1NnmFQx1c1L7pbGg4yhk",
        "reception_time": "2022-01-16T08:32:07.157-00:00",
        "included_in_blocks":
          [ "BLRVXyor3rTcTKSZU6E2NygFCtAynytC7js9c69SWhPFnzYKZmX" ] },
      { "delegate": "tz3hw2kqXhLUvY65ca1eety2oQTpAvd34R9Q",
        "reception_time": "2022-01-16T08:32:07.157-00:00",
        "included_in_blocks":
          [ "BLRVXyor3rTcTKSZU6E2NygFCtAynytC7js9c69SWhPFnzYKZmX" ] },
      { "delegate": "tz1eEnQhbwf6trb8Q8mPb2RaPkNk2rN7BKi8",
        "reception_time": "2022-01-16T08:32:07.157-00:00",
        "included_in_blocks":
          [ "BLRVXyor3rTcTKSZU6E2NygFCtAynytC7js9c69SWhPFnzYKZmX" ] },
      { "delegate": "tz3RKYFsLuQzKBtmYuLNas7uMu3AsYd4QdsA",
        "reception_time": "2022-01-16T08:32:07.157-00:00",
        "included_in_blocks":
          [ "BLRVXyor3rTcTKSZU6E2NygFCtAynytC7js9c69SWhPFnzYKZmX" ] },
      { "delegate": "tz1d9ek6HrScY6QRZ71NJdB85MNz8gKGBjrv",
        "reception_time": "2022-01-16T08:32:07.157-00:00",
        "included_in_blocks":
          [ "BLRVXyor3rTcTKSZU6E2NygFCtAynytC7js9c69SWhPFnzYKZmX" ] },
      { "delegate": "tz1P2Po7YM526ughEsRbY4oR9zaUPDZjxFrb",
        "reception_time": "2022-01-16T08:32:07.157-00:00",
        "included_in_blocks":
          [ "BLRVXyor3rTcTKSZU6E2NygFCtAynytC7js9c69SWhPFnzYKZmX" ] },
      { "delegate": "tz1dbfppLAAxXZNtf2SDps7rch3qfUznKSoK" },
      { "delegate": "tz1RjoHc98dBoqaH2jawF62XNKh7YsHwbkEv" },
      { "delegate": "tz1NpWrAyDL9k2Lmnyxcgr9xuJakbBxdq7FB" },
      { "delegate": "tz1NdhRv643wLW6zCcRP3VfT24dvDnh7nuh9" },
      { "delegate": "tz1S8e9GgdZG78XJRB3NqabfWeM37GnhZMWQ",
        "reception_time": "2022-01-16T08:32:05.790-00:00",
        "errors":
          [ { "kind": "temporary",
              "id": "proto.011-PtHangz2.prefilter.outdated_endorsement" } ],
        "included_in_blocks":
          [ "BLRVXyor3rTcTKSZU6E2NygFCtAynytC7js9c69SWhPFnzYKZmX" ] } ] }