{ "blocks":
    [ { "hash": "BKn32gCGLqW5KWWxuC2ZqLSgapENn5Dv96coDDZFmv9zq6gnsZ7",
        "delegate": "tz1aRoaRhSpRYvFdyvgWLL6TGyRoGF51wDjM",
        "reception_time": "2022-01-16T11:39:50.934-00:00",
        "timestamp": "2022-01-16T11:39:40Z" } ],
  "endorsements":
    [ { "delegate": "tz3bEQoFCZEEfZMskefZ8q8e4eiHH1pssRax" },
      { "delegate": "tz1RjoHc98dBoqaH2jawF62XNKh7YsHwbkEv" },
      { "delegate": "tz1P6WKJu2rcbxKiKRZHKQKmKrpC9TfW1AwM",
        "reception_time": "2022-01-16T11:40:00.936-00:00",
        "included_in_blocks":
          [ "BMLj9ScEyWRr9x7TCno7WqtTMjDLu24NKG2cPv17Z8SesQ2tR9b" ] },
      { "delegate": "tz1NMNQYrYrfNpmUqQrMhJypf6ovnaDZhJHM",
        "reception_time": "2022-01-16T11:39:55.812-00:00",
        "included_in_blocks":
          [ "BMLj9ScEyWRr9x7TCno7WqtTMjDLu24NKG2cPv17Z8SesQ2tR9b" ] },
      { "delegate": "tz1eVaNx3gCmG1EsLjijkmgAxdLYVf6Bf5Sq",
        "reception_time": "2022-01-16T11:39:55.848-00:00",
        "included_in_blocks":
          [ "BMLj9ScEyWRr9x7TCno7WqtTMjDLu24NKG2cPv17Z8SesQ2tR9b" ] },
      { "delegate": "tz3NExpXn9aPNZPorRE4SdjJ2RGrfbJgMAaV",
        "reception_time": "2022-01-16T11:39:54.962-00:00",
        "included_in_blocks":
          [ "BMLj9ScEyWRr9x7TCno7WqtTMjDLu24NKG2cPv17Z8SesQ2tR9b" ] },
      { "delegate": "tz1dRKU4FQ9QRRQPdaH4zCR6gmCmXfcvcgtB",
        "reception_time": "2022-01-16T11:39:54.697-00:00",
        "included_in_blocks":
          [ "BMLj9ScEyWRr9x7TCno7WqtTMjDLu24NKG2cPv17Z8SesQ2tR9b" ] },
      { "delegate": "tz3UoffC7FG7zfpmvmjUmUeAaHvzdcUvAj6r",
        "reception_time": "2022-01-16T11:39:54.862-00:00",
        "included_in_blocks":
          [ "BMLj9ScEyWRr9x7TCno7WqtTMjDLu24NKG2cPv17Z8SesQ2tR9b" ] },
      { "delegate": "tz1WvL7MKyCuUHfC3FxPFyiXcy8hHTBT3vjE",
        "reception_time": "2022-01-16T11:39:54.738-00:00",
        "included_in_blocks":
          [ "BMLj9ScEyWRr9x7TCno7WqtTMjDLu24NKG2cPv17Z8SesQ2tR9b" ] },
      { "delegate": "tz1T7duV5gZWSTq4YpBGbXNLTfznCLDrFxvs",
        "reception_time": "2022-01-16T11:39:54.167-00:00",
        "included_in_blocks":
          [ "BMLj9ScEyWRr9x7TCno7WqtTMjDLu24NKG2cPv17Z8SesQ2tR9b" ] },
      { "delegate": "tz1KfEsrtDaA1sX7vdM4qmEPWuSytuqCDp5j",
        "reception_time": "2022-01-16T11:39:54.003-00:00",
        "included_in_blocks":
          [ "BMLj9ScEyWRr9x7TCno7WqtTMjDLu24NKG2cPv17Z8SesQ2tR9b" ] },
      { "delegate": "tz3VEZ4k6a4Wx42iyev6i2aVAptTRLEAivNN",
        "reception_time": "2022-01-16T11:39:54.106-00:00",
        "included_in_blocks":
          [ "BMLj9ScEyWRr9x7TCno7WqtTMjDLu24NKG2cPv17Z8SesQ2tR9b" ] },
      { "delegate": "tz3WMqdzXqRWXwyvj5Hp2H7QEepaUuS7vd9K",
        "reception_time": "2022-01-16T11:39:54.077-00:00",
        "included_in_blocks":
          [ "BMLj9ScEyWRr9x7TCno7WqtTMjDLu24NKG2cPv17Z8SesQ2tR9b" ] },
      { "delegate": "tz1NEKxGEHsFufk87CVZcrqWu8o22qh46GK6",
        "reception_time": "2022-01-16T11:39:53.903-00:00",
        "included_in_blocks":
          [ "BMLj9ScEyWRr9x7TCno7WqtTMjDLu24NKG2cPv17Z8SesQ2tR9b" ] },
      { "delegate": "tz1Mc61yajNASzh5KWZFtYs4i7EJbzAxQC4K",
        "reception_time": "2022-01-16T11:39:53.828-00:00",
        "included_in_blocks":
          [ "BMLj9ScEyWRr9x7TCno7WqtTMjDLu24NKG2cPv17Z8SesQ2tR9b" ] },
      { "delegate": "tz3RB4aoyjov4KEVRbuhvQ1CKJgBJMWhaeB8",
        "reception_time": "2022-01-16T11:39:53.859-00:00",
        "included_in_blocks":
          [ "BMLj9ScEyWRr9x7TCno7WqtTMjDLu24NKG2cPv17Z8SesQ2tR9b" ] },
      { "delegate": "tz1awXW7wuXy21c66vBudMXQVAPgRnqqwgTH",
        "reception_time": "2022-01-16T11:39:53.900-00:00",
        "included_in_blocks":
          [ "BMLj9ScEyWRr9x7TCno7WqtTMjDLu24NKG2cPv17Z8SesQ2tR9b" ] },
      { "delegate": "tz3RDC3Jdn4j15J7bBHZd29EUee9gVB1CxD9",
        "reception_time": "2022-01-16T11:39:53.743-00:00",
        "included_in_blocks":
          [ "BMLj9ScEyWRr9x7TCno7WqtTMjDLu24NKG2cPv17Z8SesQ2tR9b" ] },
      { "delegate": "tz1UMCB2AHSTwG7YcGNr31CqYCtGN873royv",
        "reception_time": "2022-01-16T11:39:53.828-00:00",
        "included_in_blocks":
          [ "BMLj9ScEyWRr9x7TCno7WqtTMjDLu24NKG2cPv17Z8SesQ2tR9b" ] },
      { "delegate": "tz1aRoaRhSpRYvFdyvgWLL6TGyRoGF51wDjM",
        "reception_time": "2022-01-16T11:39:53.721-00:00",
        "included_in_blocks":
          [ "BMLj9ScEyWRr9x7TCno7WqtTMjDLu24NKG2cPv17Z8SesQ2tR9b" ] },
      { "delegate": "tz3bvNMQ95vfAYtG8193ymshqjSvmxiCUuR5",
        "reception_time": "2022-01-16T11:39:53.781-00:00",
        "included_in_blocks":
          [ "BMLj9ScEyWRr9x7TCno7WqtTMjDLu24NKG2cPv17Z8SesQ2tR9b" ] },
      { "delegate": "tz3NDpRj6WBrJPikcPVHRBEjWKxFw3c6eQPS",
        "reception_time": "2022-01-16T11:39:53.641-00:00",
        "included_in_blocks":
          [ "BMLj9ScEyWRr9x7TCno7WqtTMjDLu24NKG2cPv17Z8SesQ2tR9b" ] },
      { "delegate": "tz3gLTu4Yxj8tPAcriQVUdxv6BY9QyvzU1az",
        "reception_time": "2022-01-16T11:39:53.731-00:00",
        "included_in_blocks":
          [ "BMLj9ScEyWRr9x7TCno7WqtTMjDLu24NKG2cPv17Z8SesQ2tR9b" ] },
      { "delegate": "tz1axcnVN9tZnCe4sQQhC6f3tfSEXdjPaXPY",
        "reception_time": "2022-01-16T11:39:53.707-00:00",
        "included_in_blocks":
          [ "BMLj9ScEyWRr9x7TCno7WqtTMjDLu24NKG2cPv17Z8SesQ2tR9b" ] },
      { "delegate": "tz1g8vkmcde6sWKaG2NN9WKzCkDM6Rziq194",
        "reception_time": "2022-01-16T11:39:53.544-00:00",
        "included_in_blocks":
          [ "BMLj9ScEyWRr9x7TCno7WqtTMjDLu24NKG2cPv17Z8SesQ2tR9b" ] },
      { "delegate": "tz1TRqbYbUf2GyrjErf3hBzgBJPzW8y36qEs",
        "reception_time": "2022-01-16T11:39:53.548-00:00",
        "included_in_blocks":
          [ "BMLj9ScEyWRr9x7TCno7WqtTMjDLu24NKG2cPv17Z8SesQ2tR9b" ] },
      { "delegate": "tz1WBfwbT66FC6BTLexc2BoyCCBM9LG7pnVW",
        "reception_time": "2022-01-16T11:39:53.460-00:00",
        "included_in_blocks":
          [ "BMLj9ScEyWRr9x7TCno7WqtTMjDLu24NKG2cPv17Z8SesQ2tR9b" ] },
      { "delegate": "tz1Vd1rXpV8hTHbFXCXN3c3qzCsgcU5BZw1e",
        "reception_time": "2022-01-16T11:39:53.441-00:00",
        "included_in_blocks":
          [ "BMLj9ScEyWRr9x7TCno7WqtTMjDLu24NKG2cPv17Z8SesQ2tR9b" ] },
      { "delegate": "tz1SYq214SCBy9naR6cvycQsYcUGpBqQAE8d",
        "reception_time": "2022-01-16T11:39:53.444-00:00",
        "included_in_blocks":
          [ "BMLj9ScEyWRr9x7TCno7WqtTMjDLu24NKG2cPv17Z8SesQ2tR9b" ] },
      { "delegate": "tz1MQMiZHV8q4tTwUMWmS5Y3kaP6J2136iXr",
        "reception_time": "2022-01-16T11:39:53.407-00:00",
        "included_in_blocks":
          [ "BMLj9ScEyWRr9x7TCno7WqtTMjDLu24NKG2cPv17Z8SesQ2tR9b" ] },
      { "delegate": "tz1S8MNvuFEUsWgjHvi3AxibRBf388NhT1q2",
        "reception_time": "2022-01-16T11:39:53.431-00:00",
        "included_in_blocks":
          [ "BMLj9ScEyWRr9x7TCno7WqtTMjDLu24NKG2cPv17Z8SesQ2tR9b" ] },
      { "delegate": "tz1Tnjaxk6tbAeC2TmMApPh8UsrEVQvhHvx5",
        "reception_time": "2022-01-16T11:39:53.427-00:00",
        "included_in_blocks":
          [ "BMLj9ScEyWRr9x7TCno7WqtTMjDLu24NKG2cPv17Z8SesQ2tR9b" ] },
      { "delegate": "tz1Nf6tsK4G6bBqgSQERy4nUtkHNKUVdh7q1",
        "reception_time": "2022-01-16T11:39:53.270-00:00",
        "included_in_blocks":
          [ "BMLj9ScEyWRr9x7TCno7WqtTMjDLu24NKG2cPv17Z8SesQ2tR9b" ] },
      { "delegate": "tz2FCNBrERXtaTtNX6iimR1UJ5JSDxvdHM93",
        "reception_time": "2022-01-16T11:39:53.313-00:00",
        "included_in_blocks":
          [ "BMLj9ScEyWRr9x7TCno7WqtTMjDLu24NKG2cPv17Z8SesQ2tR9b" ] },
      { "delegate": "tz1LmaFsWRkjr7QMCx5PtV6xTUz3AmEpKQiF",
        "reception_time": "2022-01-16T11:39:53.227-00:00",
        "included_in_blocks":
          [ "BMLj9ScEyWRr9x7TCno7WqtTMjDLu24NKG2cPv17Z8SesQ2tR9b" ] },
      { "delegate": "tz3bTdwZinP8U1JmSweNzVKhmwafqWmFWRfk",
        "reception_time": "2022-01-16T11:39:53.054-00:00",
        "included_in_blocks":
          [ "BMLj9ScEyWRr9x7TCno7WqtTMjDLu24NKG2cPv17Z8SesQ2tR9b" ] },
      { "delegate": "tz1MQJPGNMijnXnVoBENFz9rUhaPt3S7rWoz",
        "reception_time": "2022-01-16T11:39:52.967-00:00",
        "included_in_blocks":
          [ "BMLj9ScEyWRr9x7TCno7WqtTMjDLu24NKG2cPv17Z8SesQ2tR9b" ] },
      { "delegate": "tz1PWCDnz783NNGGQjEFFsHtrcK5yBW4E2rm",
        "reception_time": "2022-01-16T11:39:52.876-00:00",
        "included_in_blocks":
          [ "BMLj9ScEyWRr9x7TCno7WqtTMjDLu24NKG2cPv17Z8SesQ2tR9b" ] },
      { "delegate": "tz1MGTFJXpQmtxLi8QJ7AuVRgM2L2Qfn9w9i",
        "reception_time": "2022-01-16T11:39:52.725-00:00",
        "included_in_blocks":
          [ "BMLj9ScEyWRr9x7TCno7WqtTMjDLu24NKG2cPv17Z8SesQ2tR9b" ] },
      { "delegate": "tz1gfArv665EUkSg2ojMBzcbfwuPxAvqPvjo",
        "reception_time": "2022-01-16T11:39:52.756-00:00",
        "included_in_blocks":
          [ "BMLj9ScEyWRr9x7TCno7WqtTMjDLu24NKG2cPv17Z8SesQ2tR9b" ] },
      { "delegate": "tz1Lc87p6zRaDwzJs9kHvdpm7XzeWE8QTwVB",
        "reception_time": "2022-01-16T11:39:52.603-00:00",
        "included_in_blocks":
          [ "BMLj9ScEyWRr9x7TCno7WqtTMjDLu24NKG2cPv17Z8SesQ2tR9b" ] },
      { "delegate": "tz1RCFbB9GpALpsZtu6J58sb74dm8qe6XBzv",
        "reception_time": "2022-01-16T11:39:52.764-00:00",
        "included_in_blocks":
          [ "BMLj9ScEyWRr9x7TCno7WqtTMjDLu24NKG2cPv17Z8SesQ2tR9b" ] },
      { "delegate": "tz1VmiY38m3y95HqQLjMwqnMS7sdMfGomzKi",
        "reception_time": "2022-01-16T11:39:52.614-00:00",
        "included_in_blocks":
          [ "BMLj9ScEyWRr9x7TCno7WqtTMjDLu24NKG2cPv17Z8SesQ2tR9b" ] },
      { "delegate": "tz1SFtJ3XwU1d6rWTRfJmwVDFpywcp4J743S",
        "reception_time": "2022-01-16T11:39:52.480-00:00",
        "included_in_blocks":
          [ "BMLj9ScEyWRr9x7TCno7WqtTMjDLu24NKG2cPv17Z8SesQ2tR9b" ] },
      { "delegate": "tz1d6Fx42mYgVFnHUW8T8A7WBfJ6nD9pVok8",
        "reception_time": "2022-01-16T11:39:52.395-00:00",
        "included_in_blocks":
          [ "BMLj9ScEyWRr9x7TCno7WqtTMjDLu24NKG2cPv17Z8SesQ2tR9b" ] },
      { "delegate": "tz1gUNyn3hmnEWqkusWPzxRaon1cs7ndWh7h",
        "reception_time": "2022-01-16T11:39:52.350-00:00",
        "included_in_blocks":
          [ "BMLj9ScEyWRr9x7TCno7WqtTMjDLu24NKG2cPv17Z8SesQ2tR9b" ] },
      { "delegate": "tz1VQnqCCqX4K5sP3FNkVSNKTdCAMJDd3E1n",
        "reception_time": "2022-01-16T11:39:52.382-00:00",
        "included_in_blocks":
          [ "BMLj9ScEyWRr9x7TCno7WqtTMjDLu24NKG2cPv17Z8SesQ2tR9b" ] },
      { "delegate": "tz3QT9dHYKDqh563chVa6za8526ys1UKfRfL",
        "reception_time": "2022-01-16T11:39:52.318-00:00",
        "included_in_blocks":
          [ "BMLj9ScEyWRr9x7TCno7WqtTMjDLu24NKG2cPv17Z8SesQ2tR9b" ] },
      { "delegate": "tz3iJu5vrKZcsqRPs8yJ61UDoeEXZmtro4qh",
        "reception_time": "2022-01-16T11:39:52.268-00:00",
        "included_in_blocks":
          [ "BMLj9ScEyWRr9x7TCno7WqtTMjDLu24NKG2cPv17Z8SesQ2tR9b" ] },
      { "delegate": "tz3QSGPoRp3Kn7n3vY24eYeu3Peuqo45LQ4D",
        "reception_time": "2022-01-16T11:39:52.237-00:00",
        "included_in_blocks":
          [ "BMLj9ScEyWRr9x7TCno7WqtTMjDLu24NKG2cPv17Z8SesQ2tR9b" ] },
      { "delegate": "tz3gtoUxdudfBRcNY7iVdKPHCYYX6xdPpoRS",
        "reception_time": "2022-01-16T11:39:52.217-00:00",
        "included_in_blocks":
          [ "BMLj9ScEyWRr9x7TCno7WqtTMjDLu24NKG2cPv17Z8SesQ2tR9b" ] },
      { "delegate": "tz3hw2kqXhLUvY65ca1eety2oQTpAvd34R9Q",
        "reception_time": "2022-01-16T11:39:52.237-00:00",
        "included_in_blocks":
          [ "BMLj9ScEyWRr9x7TCno7WqtTMjDLu24NKG2cPv17Z8SesQ2tR9b" ] },
      { "delegate": "tz3S6BBeKgJGXxvLyZ1xzXzMPn11nnFtq5L9",
        "reception_time": "2022-01-16T11:39:52.309-00:00",
        "included_in_blocks":
          [ "BMLj9ScEyWRr9x7TCno7WqtTMjDLu24NKG2cPv17Z8SesQ2tR9b" ] },
      { "delegate": "tz3RKYFsLuQzKBtmYuLNas7uMu3AsYd4QdsA",
        "reception_time": "2022-01-16T11:39:52.186-00:00",
        "included_in_blocks":
          [ "BMLj9ScEyWRr9x7TCno7WqtTMjDLu24NKG2cPv17Z8SesQ2tR9b" ] },
      { "delegate": "tz1WCd2jm4uSt4vntk4vSuUWoZQGhLcDuR9q",
        "reception_time": "2022-01-16T11:39:52.259-00:00",
        "included_in_blocks":
          [ "BMLj9ScEyWRr9x7TCno7WqtTMjDLu24NKG2cPv17Z8SesQ2tR9b" ] },
      { "delegate": "tz1Kt4P8BCaP93AEV4eA7gmpRryWt5hznjCP",
        "reception_time": "2022-01-16T11:39:52.119-00:00",
        "included_in_blocks":
          [ "BMLj9ScEyWRr9x7TCno7WqtTMjDLu24NKG2cPv17Z8SesQ2tR9b" ] },
      { "delegate": "tz1Ldzz6k1BHdhuKvAtMRX7h5kJSMHESMHLC",
        "reception_time": "2022-01-16T11:39:52.197-00:00",
        "included_in_blocks":
          [ "BMLj9ScEyWRr9x7TCno7WqtTMjDLu24NKG2cPv17Z8SesQ2tR9b" ] },
      { "delegate": "tz1Kf25fX1VdmYGSEzwFy1wNmkbSEZ2V83sY",
        "reception_time": "2022-01-16T11:39:51.925-00:00",
        "included_in_blocks":
          [ "BMLj9ScEyWRr9x7TCno7WqtTMjDLu24NKG2cPv17Z8SesQ2tR9b" ] },
      { "delegate": "tz1MJx9vhaNRSimcuXPK2rW4fLccQnDAnVKJ",
        "reception_time": "2022-01-16T11:39:51.846-00:00",
        "included_in_blocks":
          [ "BMLj9ScEyWRr9x7TCno7WqtTMjDLu24NKG2cPv17Z8SesQ2tR9b" ] },
      { "delegate": "tz3ZbP2pM3nwvXztbuMJwJnDvV5xdpU8UkkD",
        "reception_time": "2022-01-16T11:39:51.833-00:00",
        "included_in_blocks":
          [ "BMLj9ScEyWRr9x7TCno7WqtTMjDLu24NKG2cPv17Z8SesQ2tR9b" ] },
      { "delegate": "tz3NxTnke1acr8o3h5y9ytf5awQBGNJUKzVU",
        "reception_time": "2022-01-16T11:39:51.793-00:00",
        "included_in_blocks":
          [ "BMLj9ScEyWRr9x7TCno7WqtTMjDLu24NKG2cPv17Z8SesQ2tR9b" ] },
      { "delegate": "tz1TRspM5SeZpaQUhzByXbEvqKF1vnCM2YTK",
        "reception_time": "2022-01-16T11:39:51.576-00:00",
        "included_in_blocks":
          [ "BMLj9ScEyWRr9x7TCno7WqtTMjDLu24NKG2cPv17Z8SesQ2tR9b" ] },
      { "delegate": "tz1eEnQhbwf6trb8Q8mPb2RaPkNk2rN7BKi8",
        "reception_time": "2022-01-16T11:39:51.574-00:00",
        "included_in_blocks":
          [ "BMLj9ScEyWRr9x7TCno7WqtTMjDLu24NKG2cPv17Z8SesQ2tR9b" ] },
      { "delegate": "tz1irJKkXS2DBWkU1NnmFQx1c1L7pbGg4yhk",
        "reception_time": "2022-01-16T11:39:51.749-00:00",
        "included_in_blocks":
          [ "BMLj9ScEyWRr9x7TCno7WqtTMjDLu24NKG2cPv17Z8SesQ2tR9b" ] },
      { "delegate": "tz1Lhf4J9Qxoe3DZ2nfe8FGDnvVj7oKjnMY6",
        "reception_time": "2022-01-16T11:39:51.565-00:00",
        "included_in_blocks":
          [ "BMLj9ScEyWRr9x7TCno7WqtTMjDLu24NKG2cPv17Z8SesQ2tR9b" ] },
      { "delegate": "tz1P2Po7YM526ughEsRbY4oR9zaUPDZjxFrb",
        "reception_time": "2022-01-16T11:39:51.570-00:00",
        "included_in_blocks":
          [ "BMLj9ScEyWRr9x7TCno7WqtTMjDLu24NKG2cPv17Z8SesQ2tR9b" ] } ] }