{ "blocks":
    [ { "hash": "BKmwrwwkn5sbhhMcu5j7rcVSbcRDAburfGcqBjTGy49JfEVFbuQ",
        "delegate": "tz1irJKkXS2DBWkU1NnmFQx1c1L7pbGg4yhk",
        "reception_time": "2022-01-16T13:04:35.187-00:00",
        "timestamp": "2022-01-16T13:04:30Z" } ],
  "endorsements":
    [ { "delegate": "tz1S8e9GgdZG78XJRB3NqabfWeM37GnhZMWQ",
        "reception_time": "2022-01-16T13:04:35.125-00:00",
        "errors":
          [ { "kind": "temporary",
              "id": "proto.011-PtHangz2.prefilter.outdated_endorsement" } ],
        "included_in_blocks":
          [ "BMQh8ChJVHA8g5mSuc5Cm4P9cJGe4nJGvW5xZyrsazro8H8ymX9" ] },
      { "delegate": "tz1P2Po7YM526ughEsRbY4oR9zaUPDZjxFrb",
        "reception_time": "2022-01-16T13:04:35.074-00:00",
        "errors":
          [ { "kind": "temporary",
              "id": "proto.011-PtHangz2.prefilter.outdated_endorsement" } ],
        "included_in_blocks":
          [ "BMQh8ChJVHA8g5mSuc5Cm4P9cJGe4nJGvW5xZyrsazro8H8ymX9" ] },
      { "delegate": "tz1THsLcunLo8CmDm9f2y1xHuXttXZCpyFnq",
        "reception_time": "2022-01-16T13:04:34.991-00:00",
        "errors":
          [ { "kind": "temporary",
              "id": "proto.011-PtHangz2.prefilter.outdated_endorsement" } ],
        "included_in_blocks":
          [ "BMQh8ChJVHA8g5mSuc5Cm4P9cJGe4nJGvW5xZyrsazro8H8ymX9" ] },
      { "delegate": "tz1RjoHc98dBoqaH2jawF62XNKh7YsHwbkEv" },
      { "delegate": "tz1beersuEDv8Z7ngQ825xfbaJNS2EhXnyHR",
        "reception_time": "2022-01-16T13:04:35.986-00:00",
        "included_in_blocks":
          [ "BMQh8ChJVHA8g5mSuc5Cm4P9cJGe4nJGvW5xZyrsazro8H8ymX9" ] },
      { "delegate": "tz1irJKkXS2DBWkU1NnmFQx1c1L7pbGg4yhk",
        "reception_time": "2022-01-16T13:04:35.988-00:00",
        "included_in_blocks":
          [ "BMQh8ChJVHA8g5mSuc5Cm4P9cJGe4nJGvW5xZyrsazro8H8ymX9" ] },
      { "delegate": "tz1eEnQhbwf6trb8Q8mPb2RaPkNk2rN7BKi8",
        "reception_time": "2022-01-16T13:04:36.150-00:00",
        "included_in_blocks":
          [ "BMQh8ChJVHA8g5mSuc5Cm4P9cJGe4nJGvW5xZyrsazro8H8ymX9" ] },
      { "delegate": "tz1TRspM5SeZpaQUhzByXbEvqKF1vnCM2YTK",
        "reception_time": "2022-01-16T13:04:36.186-00:00",
        "included_in_blocks":
          [ "BMQh8ChJVHA8g5mSuc5Cm4P9cJGe4nJGvW5xZyrsazro8H8ymX9" ] },
      { "delegate": "tz3ZbP2pM3nwvXztbuMJwJnDvV5xdpU8UkkD",
        "reception_time": "2022-01-16T13:04:36.234-00:00",
        "included_in_blocks":
          [ "BMQh8ChJVHA8g5mSuc5Cm4P9cJGe4nJGvW5xZyrsazro8H8ymX9" ] },
      { "delegate": "tz3NxTnke1acr8o3h5y9ytf5awQBGNJUKzVU",
        "reception_time": "2022-01-16T13:04:36.250-00:00",
        "included_in_blocks":
          [ "BMQh8ChJVHA8g5mSuc5Cm4P9cJGe4nJGvW5xZyrsazro8H8ymX9" ] },
      { "delegate": "tz3hw2kqXhLUvY65ca1eety2oQTpAvd34R9Q",
        "reception_time": "2022-01-16T13:04:36.269-00:00",
        "included_in_blocks":
          [ "BMQh8ChJVHA8g5mSuc5Cm4P9cJGe4nJGvW5xZyrsazro8H8ymX9" ] },
      { "delegate": "tz1gUNyn3hmnEWqkusWPzxRaon1cs7ndWh7h",
        "reception_time": "2022-01-16T13:04:36.306-00:00",
        "included_in_blocks":
          [ "BMQh8ChJVHA8g5mSuc5Cm4P9cJGe4nJGvW5xZyrsazro8H8ymX9" ] },
      { "delegate": "tz1VQnqCCqX4K5sP3FNkVSNKTdCAMJDd3E1n",
        "reception_time": "2022-01-16T13:04:36.321-00:00",
        "included_in_blocks":
          [ "BMQh8ChJVHA8g5mSuc5Cm4P9cJGe4nJGvW5xZyrsazro8H8ymX9" ] },
      { "delegate": "tz1aXD7Jigrt3PBYSpHSg5Rr33SexMmmM5Ys",
        "reception_time": "2022-01-16T13:04:36.328-00:00",
        "included_in_blocks":
          [ "BMQh8ChJVHA8g5mSuc5Cm4P9cJGe4nJGvW5xZyrsazro8H8ymX9" ] },
      { "delegate": "tz3RKYFsLuQzKBtmYuLNas7uMu3AsYd4QdsA",
        "reception_time": "2022-01-16T13:04:36.345-00:00",
        "included_in_blocks":
          [ "BMQh8ChJVHA8g5mSuc5Cm4P9cJGe4nJGvW5xZyrsazro8H8ymX9" ] },
      { "delegate": "tz1TzaNn7wSQSP5gYPXCnNzBCpyMiidCq1PX",
        "reception_time": "2022-01-16T13:04:36.416-00:00",
        "included_in_blocks":
          [ "BMQh8ChJVHA8g5mSuc5Cm4P9cJGe4nJGvW5xZyrsazro8H8ymX9" ] },
      { "delegate": "tz3QSGPoRp3Kn7n3vY24eYeu3Peuqo45LQ4D",
        "reception_time": "2022-01-16T13:04:36.429-00:00",
        "included_in_blocks":
          [ "BMQh8ChJVHA8g5mSuc5Cm4P9cJGe4nJGvW5xZyrsazro8H8ymX9" ] },
      { "delegate": "tz1VmiY38m3y95HqQLjMwqnMS7sdMfGomzKi",
        "reception_time": "2022-01-16T13:04:36.467-00:00",
        "included_in_blocks":
          [ "BMQh8ChJVHA8g5mSuc5Cm4P9cJGe4nJGvW5xZyrsazro8H8ymX9" ] },
      { "delegate": "tz3gtoUxdudfBRcNY7iVdKPHCYYX6xdPpoRS",
        "reception_time": "2022-01-16T13:04:36.486-00:00",
        "included_in_blocks":
          [ "BMQh8ChJVHA8g5mSuc5Cm4P9cJGe4nJGvW5xZyrsazro8H8ymX9" ] },
      { "delegate": "tz1Ldzz6k1BHdhuKvAtMRX7h5kJSMHESMHLC",
        "reception_time": "2022-01-16T13:04:36.514-00:00",
        "included_in_blocks":
          [ "BMQh8ChJVHA8g5mSuc5Cm4P9cJGe4nJGvW5xZyrsazro8H8ymX9" ] },
      { "delegate": "tz1WCd2jm4uSt4vntk4vSuUWoZQGhLcDuR9q",
        "reception_time": "2022-01-16T13:04:36.662-00:00",
        "included_in_blocks":
          [ "BMQh8ChJVHA8g5mSuc5Cm4P9cJGe4nJGvW5xZyrsazro8H8ymX9" ] },
      { "delegate": "tz3Zhs2dygr55yHyQyKjntAtY9bgfhLZ4Xj1",
        "reception_time": "2022-01-16T13:04:36.673-00:00",
        "included_in_blocks":
          [ "BMQh8ChJVHA8g5mSuc5Cm4P9cJGe4nJGvW5xZyrsazro8H8ymX9" ] },
      { "delegate": "tz3QT9dHYKDqh563chVa6za8526ys1UKfRfL",
        "reception_time": "2022-01-16T13:04:36.701-00:00",
        "included_in_blocks":
          [ "BMQh8ChJVHA8g5mSuc5Cm4P9cJGe4nJGvW5xZyrsazro8H8ymX9" ] },
      { "delegate": "tz3iJu5vrKZcsqRPs8yJ61UDoeEXZmtro4qh",
        "reception_time": "2022-01-16T13:04:36.735-00:00",
        "included_in_blocks":
          [ "BMQh8ChJVHA8g5mSuc5Cm4P9cJGe4nJGvW5xZyrsazro8H8ymX9" ] },
      { "delegate": "tz3S6BBeKgJGXxvLyZ1xzXzMPn11nnFtq5L9",
        "reception_time": "2022-01-16T13:04:36.748-00:00",
        "included_in_blocks":
          [ "BMQh8ChJVHA8g5mSuc5Cm4P9cJGe4nJGvW5xZyrsazro8H8ymX9" ] },
      { "delegate": "tz1UJvHTgpVzcKWhTazGxVcn5wsHru5Gietg",
        "reception_time": "2022-01-16T13:04:36.799-00:00",
        "included_in_blocks":
          [ "BMQh8ChJVHA8g5mSuc5Cm4P9cJGe4nJGvW5xZyrsazro8H8ymX9" ] },
      { "delegate": "tz1gfArv665EUkSg2ojMBzcbfwuPxAvqPvjo",
        "reception_time": "2022-01-16T13:04:36.835-00:00",
        "included_in_blocks":
          [ "BMQh8ChJVHA8g5mSuc5Cm4P9cJGe4nJGvW5xZyrsazro8H8ymX9" ] },
      { "delegate": "tz3RDC3Jdn4j15J7bBHZd29EUee9gVB1CxD9",
        "reception_time": "2022-01-16T13:04:36.924-00:00",
        "included_in_blocks":
          [ "BMQh8ChJVHA8g5mSuc5Cm4P9cJGe4nJGvW5xZyrsazro8H8ymX9" ] },
      { "delegate": "tz1W3VYi3gSt9Xgfw6WNV1aGZRPH2BsskMEY",
        "reception_time": "2022-01-16T13:04:37.066-00:00",
        "included_in_blocks":
          [ "BMQh8ChJVHA8g5mSuc5Cm4P9cJGe4nJGvW5xZyrsazro8H8ymX9" ] },
      { "delegate": "tz1YhNsiRRU8aHNGg7NK3uuP6UDAyacJernB",
        "reception_time": "2022-01-16T13:04:37.085-00:00",
        "included_in_blocks":
          [ "BMQh8ChJVHA8g5mSuc5Cm4P9cJGe4nJGvW5xZyrsazro8H8ymX9" ] },
      { "delegate": "tz1RCFbB9GpALpsZtu6J58sb74dm8qe6XBzv",
        "reception_time": "2022-01-16T13:04:37.151-00:00",
        "included_in_blocks":
          [ "BMQh8ChJVHA8g5mSuc5Cm4P9cJGe4nJGvW5xZyrsazro8H8ymX9" ] },
      { "delegate": "tz3RB4aoyjov4KEVRbuhvQ1CKJgBJMWhaeB8",
        "reception_time": "2022-01-16T13:04:37.171-00:00",
        "included_in_blocks":
          [ "BMQh8ChJVHA8g5mSuc5Cm4P9cJGe4nJGvW5xZyrsazro8H8ymX9" ] },
      { "delegate": "tz1dwu9aYb7CRNq4Y2zAjipdjFuSVKhHS8vA",
        "reception_time": "2022-01-16T13:04:37.240-00:00",
        "included_in_blocks":
          [ "BMQh8ChJVHA8g5mSuc5Cm4P9cJGe4nJGvW5xZyrsazro8H8ymX9" ] },
      { "delegate": "tz1S8MNvuFEUsWgjHvi3AxibRBf388NhT1q2",
        "reception_time": "2022-01-16T13:04:37.252-00:00",
        "included_in_blocks":
          [ "BMQh8ChJVHA8g5mSuc5Cm4P9cJGe4nJGvW5xZyrsazro8H8ymX9" ] },
      { "delegate": "tz1MQJPGNMijnXnVoBENFz9rUhaPt3S7rWoz",
        "reception_time": "2022-01-16T13:04:37.296-00:00",
        "included_in_blocks":
          [ "BMQh8ChJVHA8g5mSuc5Cm4P9cJGe4nJGvW5xZyrsazro8H8ymX9" ] },
      { "delegate": "tz1ei4WtWEMEJekSv8qDnu9PExG6Q8HgRGr3",
        "reception_time": "2022-01-16T13:04:37.332-00:00",
        "included_in_blocks":
          [ "BMQh8ChJVHA8g5mSuc5Cm4P9cJGe4nJGvW5xZyrsazro8H8ymX9" ] },
      { "delegate": "tz3bTdwZinP8U1JmSweNzVKhmwafqWmFWRfk",
        "reception_time": "2022-01-16T13:04:37.366-00:00",
        "included_in_blocks":
          [ "BMQh8ChJVHA8g5mSuc5Cm4P9cJGe4nJGvW5xZyrsazro8H8ymX9" ] },
      { "delegate": "tz1abmz7jiCV2GH2u81LRrGgAFFgvQgiDiaf",
        "reception_time": "2022-01-16T13:04:37.428-00:00",
        "included_in_blocks":
          [ "BMQh8ChJVHA8g5mSuc5Cm4P9cJGe4nJGvW5xZyrsazro8H8ymX9" ] },
      { "delegate": "tz1PWCDnz783NNGGQjEFFsHtrcK5yBW4E2rm",
        "reception_time": "2022-01-16T13:04:37.446-00:00",
        "included_in_blocks":
          [ "BMQh8ChJVHA8g5mSuc5Cm4P9cJGe4nJGvW5xZyrsazro8H8ymX9" ] },
      { "delegate": "tz1fPKAtsYydh4f1wfWNfeNxWYu72TmM48fu",
        "reception_time": "2022-01-16T13:04:37.451-00:00",
        "included_in_blocks":
          [ "BMQh8ChJVHA8g5mSuc5Cm4P9cJGe4nJGvW5xZyrsazro8H8ymX9" ] },
      { "delegate": "tz1LmaFsWRkjr7QMCx5PtV6xTUz3AmEpKQiF",
        "reception_time": "2022-01-16T13:04:37.465-00:00",
        "included_in_blocks":
          [ "BMQh8ChJVHA8g5mSuc5Cm4P9cJGe4nJGvW5xZyrsazro8H8ymX9" ] },
      { "delegate": "tz1WBfwbT66FC6BTLexc2BoyCCBM9LG7pnVW",
        "reception_time": "2022-01-16T13:04:37.548-00:00",
        "included_in_blocks":
          [ "BMQh8ChJVHA8g5mSuc5Cm4P9cJGe4nJGvW5xZyrsazro8H8ymX9" ] },
      { "delegate": "tz1Nf6tsK4G6bBqgSQERy4nUtkHNKUVdh7q1",
        "reception_time": "2022-01-16T13:04:37.563-00:00",
        "included_in_blocks":
          [ "BMQh8ChJVHA8g5mSuc5Cm4P9cJGe4nJGvW5xZyrsazro8H8ymX9" ] },
      { "delegate": "tz2FCNBrERXtaTtNX6iimR1UJ5JSDxvdHM93",
        "reception_time": "2022-01-16T13:04:37.568-00:00",
        "included_in_blocks":
          [ "BMQh8ChJVHA8g5mSuc5Cm4P9cJGe4nJGvW5xZyrsazro8H8ymX9" ] },
      { "delegate": "tz1eibLoCDot2w2QWyR7kMoVDTto9fYs2mnJ",
        "reception_time": "2022-01-16T13:04:37.792-00:00",
        "included_in_blocks":
          [ "BMQh8ChJVHA8g5mSuc5Cm4P9cJGe4nJGvW5xZyrsazro8H8ymX9" ] },
      { "delegate": "tz1PeZx7FXy7QRuMREGXGxeipb24RsMMzUNe",
        "reception_time": "2022-01-16T13:04:37.815-00:00",
        "included_in_blocks":
          [ "BMQh8ChJVHA8g5mSuc5Cm4P9cJGe4nJGvW5xZyrsazro8H8ymX9" ] },
      { "delegate": "tz1SYq214SCBy9naR6cvycQsYcUGpBqQAE8d",
        "reception_time": "2022-01-16T13:04:37.884-00:00",
        "included_in_blocks":
          [ "BMQh8ChJVHA8g5mSuc5Cm4P9cJGe4nJGvW5xZyrsazro8H8ymX9" ] },
      { "delegate": "tz1eeArNKzpoGLrT8dR3ewRgZ4r3YQkY165n",
        "reception_time": "2022-01-16T13:04:37.944-00:00",
        "included_in_blocks":
          [ "BMQh8ChJVHA8g5mSuc5Cm4P9cJGe4nJGvW5xZyrsazro8H8ymX9" ] },
      { "delegate": "tz3gLTu4Yxj8tPAcriQVUdxv6BY9QyvzU1az",
        "reception_time": "2022-01-16T13:04:38.018-00:00",
        "included_in_blocks":
          [ "BMQh8ChJVHA8g5mSuc5Cm4P9cJGe4nJGvW5xZyrsazro8H8ymX9" ] },
      { "delegate": "tz3UoffC7FG7zfpmvmjUmUeAaHvzdcUvAj6r",
        "reception_time": "2022-01-16T13:04:38.168-00:00",
        "included_in_blocks":
          [ "BMQh8ChJVHA8g5mSuc5Cm4P9cJGe4nJGvW5xZyrsazro8H8ymX9" ] },
      { "delegate": "tz1KfEsrtDaA1sX7vdM4qmEPWuSytuqCDp5j",
        "reception_time": "2022-01-16T13:04:38.173-00:00",
        "included_in_blocks":
          [ "BMQh8ChJVHA8g5mSuc5Cm4P9cJGe4nJGvW5xZyrsazro8H8ymX9" ] },
      { "delegate": "tz3WMqdzXqRWXwyvj5Hp2H7QEepaUuS7vd9K",
        "reception_time": "2022-01-16T13:04:38.197-00:00",
        "included_in_blocks":
          [ "BMQh8ChJVHA8g5mSuc5Cm4P9cJGe4nJGvW5xZyrsazro8H8ymX9" ] },
      { "delegate": "tz3bvNMQ95vfAYtG8193ymshqjSvmxiCUuR5",
        "reception_time": "2022-01-16T13:04:38.361-00:00",
        "included_in_blocks":
          [ "BMQh8ChJVHA8g5mSuc5Cm4P9cJGe4nJGvW5xZyrsazro8H8ymX9" ] },
      { "delegate": "tz3VEZ4k6a4Wx42iyev6i2aVAptTRLEAivNN",
        "reception_time": "2022-01-16T13:04:38.404-00:00",
        "included_in_blocks":
          [ "BMQh8ChJVHA8g5mSuc5Cm4P9cJGe4nJGvW5xZyrsazro8H8ymX9" ] },
      { "delegate": "tz1awXW7wuXy21c66vBudMXQVAPgRnqqwgTH",
        "reception_time": "2022-01-16T13:04:38.448-00:00",
        "included_in_blocks":
          [ "BMQh8ChJVHA8g5mSuc5Cm4P9cJGe4nJGvW5xZyrsazro8H8ymX9" ] },
      { "delegate": "tz1TRqbYbUf2GyrjErf3hBzgBJPzW8y36qEs",
        "reception_time": "2022-01-16T13:04:38.547-00:00",
        "included_in_blocks":
          [ "BMQh8ChJVHA8g5mSuc5Cm4P9cJGe4nJGvW5xZyrsazro8H8ymX9" ] },
      { "delegate": "tz1NEKxGEHsFufk87CVZcrqWu8o22qh46GK6",
        "reception_time": "2022-01-16T13:04:38.568-00:00",
        "included_in_blocks":
          [ "BMQh8ChJVHA8g5mSuc5Cm4P9cJGe4nJGvW5xZyrsazro8H8ymX9" ] },
      { "delegate": "tz1T7duV5gZWSTq4YpBGbXNLTfznCLDrFxvs",
        "reception_time": "2022-01-16T13:04:38.623-00:00",
        "included_in_blocks":
          [ "BMQh8ChJVHA8g5mSuc5Cm4P9cJGe4nJGvW5xZyrsazro8H8ymX9" ] },
      { "delegate": "tz1Xsrfv6hn86fp88YfRs6xcKwt2nTqxVZYM",
        "reception_time": "2022-01-16T13:04:38.626-00:00",
        "included_in_blocks":
          [ "BMQh8ChJVHA8g5mSuc5Cm4P9cJGe4nJGvW5xZyrsazro8H8ymX9" ] },
      { "delegate": "tz1cYufsxHXJcvANhvS55h3aY32a9BAFB494",
        "reception_time": "2022-01-16T13:04:38.717-00:00",
        "included_in_blocks":
          [ "BMQh8ChJVHA8g5mSuc5Cm4P9cJGe4nJGvW5xZyrsazro8H8ymX9" ] },
      { "delegate": "tz1dRKU4FQ9QRRQPdaH4zCR6gmCmXfcvcgtB",
        "reception_time": "2022-01-16T13:04:38.889-00:00",
        "included_in_blocks":
          [ "BMQh8ChJVHA8g5mSuc5Cm4P9cJGe4nJGvW5xZyrsazro8H8ymX9" ] },
      { "delegate": "tz3NExpXn9aPNZPorRE4SdjJ2RGrfbJgMAaV",
        "reception_time": "2022-01-16T13:04:39.131-00:00",
        "included_in_blocks":
          [ "BMQh8ChJVHA8g5mSuc5Cm4P9cJGe4nJGvW5xZyrsazro8H8ymX9" ] },
      { "delegate": "tz1aRoaRhSpRYvFdyvgWLL6TGyRoGF51wDjM",
        "reception_time": "2022-01-16T13:04:39.208-00:00",
        "included_in_blocks":
          [ "BMQh8ChJVHA8g5mSuc5Cm4P9cJGe4nJGvW5xZyrsazro8H8ymX9" ] },
      { "delegate": "tz1ZcTRk5uxD86EFEn1vvNffWWqJy7q5eVhc",
        "reception_time": "2022-01-16T13:04:39.389-00:00",
        "included_in_blocks":
          [ "BMQh8ChJVHA8g5mSuc5Cm4P9cJGe4nJGvW5xZyrsazro8H8ymX9" ] },
      { "delegate": "tz1g8vkmcde6sWKaG2NN9WKzCkDM6Rziq194",
        "reception_time": "2022-01-16T13:04:39.581-00:00",
        "included_in_blocks":
          [ "BMQh8ChJVHA8g5mSuc5Cm4P9cJGe4nJGvW5xZyrsazro8H8ymX9" ] },
      { "delegate": "tz1TcH4Nb3aHNDJ7CGZhU7jgAK1BkSP4Lxds",
        "reception_time": "2022-01-16T13:04:40.190-00:00",
        "included_in_blocks":
          [ "BMQh8ChJVHA8g5mSuc5Cm4P9cJGe4nJGvW5xZyrsazro8H8ymX9" ] },
      { "delegate": "tz1eVaNx3gCmG1EsLjijkmgAxdLYVf6Bf5Sq",
        "reception_time": "2022-01-16T13:04:40.514-00:00",
        "included_in_blocks":
          [ "BMQh8ChJVHA8g5mSuc5Cm4P9cJGe4nJGvW5xZyrsazro8H8ymX9" ] },
      { "delegate": "tz1YiuvpfeVAHbnU8akcWErNfQGFHNQ7F45z",
        "reception_time": "2022-01-16T13:04:40.637-00:00",
        "included_in_blocks":
          [ "BMQh8ChJVHA8g5mSuc5Cm4P9cJGe4nJGvW5xZyrsazro8H8ymX9" ] },
      { "delegate": "tz1Z1WwoqgRFbLE3YNdYRpCx44NSfiMJzeAG",
        "reception_time": "2022-01-16T13:04:45.417-00:00",
        "included_in_blocks":
          [ "BMQh8ChJVHA8g5mSuc5Cm4P9cJGe4nJGvW5xZyrsazro8H8ymX9" ] } ] }