{ "blocks":
    [ { "hash": "BLYBPaSCJp6YsNH79eNgrwst8645JwkRw2FaGAjV5J8MUemckD8",
        "delegate": "tz3QT9dHYKDqh563chVa6za8526ys1UKfRfL",
        "reception_time": "2022-01-16T07:50:35.622-00:00",
        "timestamp": "2022-01-16T07:50:30Z" } ],
  "endorsements":
    [ { "delegate": "tz1S8e9GgdZG78XJRB3NqabfWeM37GnhZMWQ",
        "reception_time": "2022-01-16T07:50:35.586-00:00",
        "errors":
          [ { "kind": "temporary",
              "id": "proto.011-PtHangz2.prefilter.outdated_endorsement" } ],
        "included_in_blocks":
          [ "BLwtSvwTvXKzGcAZ6v5FwdHXB9KX1J5FJDB8Aak2R1H4m2F54pV" ] },
      { "delegate": "tz1P2Po7YM526ughEsRbY4oR9zaUPDZjxFrb",
        "reception_time": "2022-01-16T07:50:35.330-00:00",
        "errors":
          [ { "kind": "temporary",
              "id": "proto.011-PtHangz2.prefilter.outdated_endorsement" } ],
        "included_in_blocks":
          [ "BLwtSvwTvXKzGcAZ6v5FwdHXB9KX1J5FJDB8Aak2R1H4m2F54pV" ] },
      { "delegate": "tz1TRspM5SeZpaQUhzByXbEvqKF1vnCM2YTK" },
      { "delegate": "tz1eEnQhbwf6trb8Q8mPb2RaPkNk2rN7BKi8",
        "reception_time": "2022-01-16T07:50:36.718-00:00",
        "included_in_blocks":
          [ "BLwtSvwTvXKzGcAZ6v5FwdHXB9KX1J5FJDB8Aak2R1H4m2F54pV" ] },
      { "delegate": "tz1VQnqCCqX4K5sP3FNkVSNKTdCAMJDd3E1n",
        "reception_time": "2022-01-16T07:50:36.718-00:00",
        "included_in_blocks":
          [ "BLwtSvwTvXKzGcAZ6v5FwdHXB9KX1J5FJDB8Aak2R1H4m2F54pV" ] },
      { "delegate": "tz1beersuEDv8Z7ngQ825xfbaJNS2EhXnyHR",
        "reception_time": "2022-01-16T07:50:36.718-00:00",
        "included_in_blocks":
          [ "BLwtSvwTvXKzGcAZ6v5FwdHXB9KX1J5FJDB8Aak2R1H4m2F54pV" ] },
      { "delegate": "tz1irJKkXS2DBWkU1NnmFQx1c1L7pbGg4yhk",
        "reception_time": "2022-01-16T07:50:36.718-00:00",
        "included_in_blocks":
          [ "BLwtSvwTvXKzGcAZ6v5FwdHXB9KX1J5FJDB8Aak2R1H4m2F54pV" ] },
      { "delegate": "tz1STeamwbp68THcny9zk3LsbG3H36DMvbRK",
        "reception_time": "2022-01-16T07:50:36.718-00:00",
        "included_in_blocks":
          [ "BLwtSvwTvXKzGcAZ6v5FwdHXB9KX1J5FJDB8Aak2R1H4m2F54pV" ] },
      { "delegate": "tz1gUNyn3hmnEWqkusWPzxRaon1cs7ndWh7h",
        "reception_time": "2022-01-16T07:50:36.718-00:00",
        "included_in_blocks":
          [ "BLwtSvwTvXKzGcAZ6v5FwdHXB9KX1J5FJDB8Aak2R1H4m2F54pV" ] },
      { "delegate": "tz1Kt4P8BCaP93AEV4eA7gmpRryWt5hznjCP",
        "reception_time": "2022-01-16T07:50:36.995-00:00",
        "included_in_blocks":
          [ "BLwtSvwTvXKzGcAZ6v5FwdHXB9KX1J5FJDB8Aak2R1H4m2F54pV" ] },
      { "delegate": "tz1MJx9vhaNRSimcuXPK2rW4fLccQnDAnVKJ",
        "reception_time": "2022-01-16T07:50:36.995-00:00",
        "included_in_blocks":
          [ "BLwtSvwTvXKzGcAZ6v5FwdHXB9KX1J5FJDB8Aak2R1H4m2F54pV" ] },
      { "delegate": "tz1ZPh7XfUaJXUDvkrBxmS1BjEM1i62hiPpM",
        "reception_time": "2022-01-16T07:50:36.995-00:00",
        "included_in_blocks":
          [ "BLwtSvwTvXKzGcAZ6v5FwdHXB9KX1J5FJDB8Aak2R1H4m2F54pV" ] },
      { "delegate": "tz3S6BBeKgJGXxvLyZ1xzXzMPn11nnFtq5L9",
        "reception_time": "2022-01-16T07:50:36.995-00:00",
        "included_in_blocks":
          [ "BLwtSvwTvXKzGcAZ6v5FwdHXB9KX1J5FJDB8Aak2R1H4m2F54pV" ] },
      { "delegate": "tz1Ldzz6k1BHdhuKvAtMRX7h5kJSMHESMHLC",
        "reception_time": "2022-01-16T07:50:36.995-00:00",
        "included_in_blocks":
          [ "BLwtSvwTvXKzGcAZ6v5FwdHXB9KX1J5FJDB8Aak2R1H4m2F54pV" ] },
      { "delegate": "tz3QT9dHYKDqh563chVa6za8526ys1UKfRfL",
        "reception_time": "2022-01-16T07:50:36.995-00:00",
        "included_in_blocks":
          [ "BLwtSvwTvXKzGcAZ6v5FwdHXB9KX1J5FJDB8Aak2R1H4m2F54pV" ] },
      { "delegate": "tz3QCNyySViKHmeSr45kzDxzchys7NiXCWoa",
        "reception_time": "2022-01-16T07:50:36.995-00:00",
        "included_in_blocks":
          [ "BLwtSvwTvXKzGcAZ6v5FwdHXB9KX1J5FJDB8Aak2R1H4m2F54pV" ] },
      { "delegate": "tz1VmiY38m3y95HqQLjMwqnMS7sdMfGomzKi",
        "reception_time": "2022-01-16T07:50:36.995-00:00",
        "included_in_blocks":
          [ "BLwtSvwTvXKzGcAZ6v5FwdHXB9KX1J5FJDB8Aak2R1H4m2F54pV" ] },
      { "delegate": "tz1TzaNn7wSQSP5gYPXCnNzBCpyMiidCq1PX",
        "reception_time": "2022-01-16T07:50:36.995-00:00",
        "included_in_blocks":
          [ "BLwtSvwTvXKzGcAZ6v5FwdHXB9KX1J5FJDB8Aak2R1H4m2F54pV" ] },
      { "delegate": "tz1WCd2jm4uSt4vntk4vSuUWoZQGhLcDuR9q",
        "reception_time": "2022-01-16T07:50:36.995-00:00",
        "included_in_blocks":
          [ "BLwtSvwTvXKzGcAZ6v5FwdHXB9KX1J5FJDB8Aak2R1H4m2F54pV" ] },
      { "delegate": "tz3ZbP2pM3nwvXztbuMJwJnDvV5xdpU8UkkD",
        "reception_time": "2022-01-16T07:50:37.042-00:00",
        "included_in_blocks":
          [ "BLwtSvwTvXKzGcAZ6v5FwdHXB9KX1J5FJDB8Aak2R1H4m2F54pV" ] },
      { "delegate": "tz3Zhs2dygr55yHyQyKjntAtY9bgfhLZ4Xj1",
        "reception_time": "2022-01-16T07:50:37.050-00:00",
        "included_in_blocks":
          [ "BLwtSvwTvXKzGcAZ6v5FwdHXB9KX1J5FJDB8Aak2R1H4m2F54pV" ] },
      { "delegate": "tz3gtoUxdudfBRcNY7iVdKPHCYYX6xdPpoRS",
        "reception_time": "2022-01-16T07:50:37.147-00:00",
        "included_in_blocks":
          [ "BLwtSvwTvXKzGcAZ6v5FwdHXB9KX1J5FJDB8Aak2R1H4m2F54pV" ] },
      { "delegate": "tz3NxTnke1acr8o3h5y9ytf5awQBGNJUKzVU",
        "reception_time": "2022-01-16T07:50:37.193-00:00",
        "included_in_blocks":
          [ "BLwtSvwTvXKzGcAZ6v5FwdHXB9KX1J5FJDB8Aak2R1H4m2F54pV" ] },
      { "delegate": "tz3QSGPoRp3Kn7n3vY24eYeu3Peuqo45LQ4D",
        "reception_time": "2022-01-16T07:50:37.193-00:00",
        "included_in_blocks":
          [ "BLwtSvwTvXKzGcAZ6v5FwdHXB9KX1J5FJDB8Aak2R1H4m2F54pV" ] },
      { "delegate": "tz3RKYFsLuQzKBtmYuLNas7uMu3AsYd4QdsA",
        "reception_time": "2022-01-16T07:50:37.295-00:00",
        "included_in_blocks":
          [ "BLwtSvwTvXKzGcAZ6v5FwdHXB9KX1J5FJDB8Aak2R1H4m2F54pV" ] },
      { "delegate": "tz3hw2kqXhLUvY65ca1eety2oQTpAvd34R9Q",
        "reception_time": "2022-01-16T07:50:37.338-00:00",
        "included_in_blocks":
          [ "BLwtSvwTvXKzGcAZ6v5FwdHXB9KX1J5FJDB8Aak2R1H4m2F54pV" ] },
      { "delegate": "tz1PWCDnz783NNGGQjEFFsHtrcK5yBW4E2rm",
        "reception_time": "2022-01-16T07:50:37.558-00:00",
        "included_in_blocks":
          [ "BLwtSvwTvXKzGcAZ6v5FwdHXB9KX1J5FJDB8Aak2R1H4m2F54pV" ] },
      { "delegate": "tz1g8vkmcde6sWKaG2NN9WKzCkDM6Rziq194",
        "reception_time": "2022-01-16T07:50:37.620-00:00",
        "included_in_blocks":
          [ "BLwtSvwTvXKzGcAZ6v5FwdHXB9KX1J5FJDB8Aak2R1H4m2F54pV" ] },
      { "delegate": "tz1Nf6tsK4G6bBqgSQERy4nUtkHNKUVdh7q1",
        "reception_time": "2022-01-16T07:50:37.637-00:00",
        "included_in_blocks":
          [ "BLwtSvwTvXKzGcAZ6v5FwdHXB9KX1J5FJDB8Aak2R1H4m2F54pV" ] },
      { "delegate": "tz1bZ8vsMAXmaWEV7FRnyhcuUs2fYMaQ6Hkk",
        "reception_time": "2022-01-16T07:50:37.712-00:00",
        "included_in_blocks":
          [ "BLwtSvwTvXKzGcAZ6v5FwdHXB9KX1J5FJDB8Aak2R1H4m2F54pV" ] },
      { "delegate": "tz1h4GUAMweP7SNWzDgvMk3yRCAZyaP1MxZq",
        "reception_time": "2022-01-16T07:50:37.732-00:00",
        "included_in_blocks":
          [ "BLwtSvwTvXKzGcAZ6v5FwdHXB9KX1J5FJDB8Aak2R1H4m2F54pV" ] },
      { "delegate": "tz1ei4WtWEMEJekSv8qDnu9PExG6Q8HgRGr3",
        "reception_time": "2022-01-16T07:50:37.779-00:00",
        "included_in_blocks":
          [ "BLwtSvwTvXKzGcAZ6v5FwdHXB9KX1J5FJDB8Aak2R1H4m2F54pV" ] },
      { "delegate": "tz1S8MNvuFEUsWgjHvi3AxibRBf388NhT1q2",
        "reception_time": "2022-01-16T07:50:37.845-00:00",
        "included_in_blocks":
          [ "BLwtSvwTvXKzGcAZ6v5FwdHXB9KX1J5FJDB8Aak2R1H4m2F54pV" ] },
      { "delegate": "tz1fPKAtsYydh4f1wfWNfeNxWYu72TmM48fu",
        "reception_time": "2022-01-16T07:50:37.875-00:00",
        "included_in_blocks":
          [ "BLwtSvwTvXKzGcAZ6v5FwdHXB9KX1J5FJDB8Aak2R1H4m2F54pV" ] },
      { "delegate": "tz1RCFbB9GpALpsZtu6J58sb74dm8qe6XBzv",
        "reception_time": "2022-01-16T07:50:37.903-00:00",
        "included_in_blocks":
          [ "BLwtSvwTvXKzGcAZ6v5FwdHXB9KX1J5FJDB8Aak2R1H4m2F54pV" ] },
      { "delegate": "tz3bTdwZinP8U1JmSweNzVKhmwafqWmFWRfk",
        "reception_time": "2022-01-16T07:50:37.925-00:00",
        "included_in_blocks":
          [ "BLwtSvwTvXKzGcAZ6v5FwdHXB9KX1J5FJDB8Aak2R1H4m2F54pV" ] },
      { "delegate": "tz1gfArv665EUkSg2ojMBzcbfwuPxAvqPvjo",
        "reception_time": "2022-01-16T07:50:37.983-00:00",
        "included_in_blocks":
          [ "BLwtSvwTvXKzGcAZ6v5FwdHXB9KX1J5FJDB8Aak2R1H4m2F54pV" ] },
      { "delegate": "tz3RDC3Jdn4j15J7bBHZd29EUee9gVB1CxD9",
        "reception_time": "2022-01-16T07:50:38.065-00:00",
        "included_in_blocks":
          [ "BLwtSvwTvXKzGcAZ6v5FwdHXB9KX1J5FJDB8Aak2R1H4m2F54pV" ] },
      { "delegate": "tz1fZ767VDbqx4DeKiFswPSHh513f51mKEUZ",
        "reception_time": "2022-01-16T07:50:38.099-00:00",
        "included_in_blocks":
          [ "BLwtSvwTvXKzGcAZ6v5FwdHXB9KX1J5FJDB8Aak2R1H4m2F54pV" ] },
      { "delegate": "tz1TEc75UKXv4W5cwi14Na3NtqFD51yKQi7h",
        "reception_time": "2022-01-16T07:50:38.233-00:00",
        "included_in_blocks":
          [ "BLwtSvwTvXKzGcAZ6v5FwdHXB9KX1J5FJDB8Aak2R1H4m2F54pV" ] },
      { "delegate": "tz1KfEsrtDaA1sX7vdM4qmEPWuSytuqCDp5j",
        "reception_time": "2022-01-16T07:50:38.244-00:00",
        "included_in_blocks":
          [ "BLwtSvwTvXKzGcAZ6v5FwdHXB9KX1J5FJDB8Aak2R1H4m2F54pV" ] },
      { "delegate": "tz1PeZx7FXy7QRuMREGXGxeipb24RsMMzUNe",
        "reception_time": "2022-01-16T07:50:38.251-00:00",
        "included_in_blocks":
          [ "BLwtSvwTvXKzGcAZ6v5FwdHXB9KX1J5FJDB8Aak2R1H4m2F54pV" ] },
      { "delegate": "tz2FCNBrERXtaTtNX6iimR1UJ5JSDxvdHM93",
        "reception_time": "2022-01-16T07:50:38.273-00:00",
        "included_in_blocks":
          [ "BLwtSvwTvXKzGcAZ6v5FwdHXB9KX1J5FJDB8Aak2R1H4m2F54pV" ] },
      { "delegate": "tz1TRqbYbUf2GyrjErf3hBzgBJPzW8y36qEs",
        "reception_time": "2022-01-16T07:50:38.439-00:00",
        "included_in_blocks":
          [ "BLwtSvwTvXKzGcAZ6v5FwdHXB9KX1J5FJDB8Aak2R1H4m2F54pV" ] },
      { "delegate": "tz1fwnfJNgiDACshK9avfRfFbMaXrs3ghoJa",
        "reception_time": "2022-01-16T07:50:38.441-00:00",
        "included_in_blocks":
          [ "BLwtSvwTvXKzGcAZ6v5FwdHXB9KX1J5FJDB8Aak2R1H4m2F54pV" ] },
      { "delegate": "tz1NEKxGEHsFufk87CVZcrqWu8o22qh46GK6",
        "reception_time": "2022-01-16T07:50:38.488-00:00",
        "included_in_blocks":
          [ "BLwtSvwTvXKzGcAZ6v5FwdHXB9KX1J5FJDB8Aak2R1H4m2F54pV" ] },
      { "delegate": "tz1abmz7jiCV2GH2u81LRrGgAFFgvQgiDiaf",
        "reception_time": "2022-01-16T07:50:38.544-00:00",
        "included_in_blocks":
          [ "BLwtSvwTvXKzGcAZ6v5FwdHXB9KX1J5FJDB8Aak2R1H4m2F54pV" ] },
      { "delegate": "tz1WctSwL49BZtdWAQ75NY6vr4xsAx6oKdah",
        "reception_time": "2022-01-16T07:50:38.692-00:00",
        "included_in_blocks":
          [ "BLwtSvwTvXKzGcAZ6v5FwdHXB9KX1J5FJDB8Aak2R1H4m2F54pV" ] },
      { "delegate": "tz3WMqdzXqRWXwyvj5Hp2H7QEepaUuS7vd9K",
        "reception_time": "2022-01-16T07:50:39.006-00:00",
        "included_in_blocks":
          [ "BLwtSvwTvXKzGcAZ6v5FwdHXB9KX1J5FJDB8Aak2R1H4m2F54pV" ] },
      { "delegate": "tz3bvNMQ95vfAYtG8193ymshqjSvmxiCUuR5",
        "reception_time": "2022-01-16T07:50:39.030-00:00",
        "included_in_blocks":
          [ "BLwtSvwTvXKzGcAZ6v5FwdHXB9KX1J5FJDB8Aak2R1H4m2F54pV" ] },
      { "delegate": "tz3NDpRj6WBrJPikcPVHRBEjWKxFw3c6eQPS",
        "reception_time": "2022-01-16T07:50:39.117-00:00",
        "included_in_blocks":
          [ "BLwtSvwTvXKzGcAZ6v5FwdHXB9KX1J5FJDB8Aak2R1H4m2F54pV" ] },
      { "delegate": "tz3RB4aoyjov4KEVRbuhvQ1CKJgBJMWhaeB8",
        "reception_time": "2022-01-16T07:50:39.239-00:00",
        "included_in_blocks":
          [ "BLwtSvwTvXKzGcAZ6v5FwdHXB9KX1J5FJDB8Aak2R1H4m2F54pV" ] },
      { "delegate": "tz3VEZ4k6a4Wx42iyev6i2aVAptTRLEAivNN",
        "reception_time": "2022-01-16T07:50:39.271-00:00",
        "included_in_blocks":
          [ "BLwtSvwTvXKzGcAZ6v5FwdHXB9KX1J5FJDB8Aak2R1H4m2F54pV" ] },
      { "delegate": "tz1cYufsxHXJcvANhvS55h3aY32a9BAFB494",
        "reception_time": "2022-01-16T07:50:39.388-00:00",
        "included_in_blocks":
          [ "BLwtSvwTvXKzGcAZ6v5FwdHXB9KX1J5FJDB8Aak2R1H4m2F54pV" ] },
      { "delegate": "tz1awXW7wuXy21c66vBudMXQVAPgRnqqwgTH",
        "reception_time": "2022-01-16T07:50:39.408-00:00",
        "included_in_blocks":
          [ "BLwtSvwTvXKzGcAZ6v5FwdHXB9KX1J5FJDB8Aak2R1H4m2F54pV" ] },
      { "delegate": "tz1aNPWn5jgLBpEGFABKM161eeeLVVJxgYME",
        "reception_time": "2022-01-16T07:50:39.413-00:00",
        "included_in_blocks":
          [ "BLwtSvwTvXKzGcAZ6v5FwdHXB9KX1J5FJDB8Aak2R1H4m2F54pV" ] },
      { "delegate": "tz1T7duV5gZWSTq4YpBGbXNLTfznCLDrFxvs",
        "reception_time": "2022-01-16T07:50:39.523-00:00",
        "included_in_blocks":
          [ "BLwtSvwTvXKzGcAZ6v5FwdHXB9KX1J5FJDB8Aak2R1H4m2F54pV" ] },
      { "delegate": "tz3NExpXn9aPNZPorRE4SdjJ2RGrfbJgMAaV",
        "reception_time": "2022-01-16T07:50:39.655-00:00",
        "included_in_blocks":
          [ "BLwtSvwTvXKzGcAZ6v5FwdHXB9KX1J5FJDB8Aak2R1H4m2F54pV" ] },
      { "delegate": "tz1ZcTRk5uxD86EFEn1vvNffWWqJy7q5eVhc",
        "reception_time": "2022-01-16T07:50:39.916-00:00",
        "included_in_blocks":
          [ "BLwtSvwTvXKzGcAZ6v5FwdHXB9KX1J5FJDB8Aak2R1H4m2F54pV" ] },
      { "delegate": "tz3UoffC7FG7zfpmvmjUmUeAaHvzdcUvAj6r",
        "reception_time": "2022-01-16T07:50:39.936-00:00",
        "included_in_blocks":
          [ "BLwtSvwTvXKzGcAZ6v5FwdHXB9KX1J5FJDB8Aak2R1H4m2F54pV" ] },
      { "delegate": "tz1aRoaRhSpRYvFdyvgWLL6TGyRoGF51wDjM",
        "reception_time": "2022-01-16T07:50:39.990-00:00",
        "included_in_blocks":
          [ "BLwtSvwTvXKzGcAZ6v5FwdHXB9KX1J5FJDB8Aak2R1H4m2F54pV" ] },
      { "delegate": "tz1QJU1PuKUP5ZQxUr4pHZjCHGRvJSpcXv7G",
        "reception_time": "2022-01-16T07:50:40.299-00:00",
        "included_in_blocks":
          [ "BLwtSvwTvXKzGcAZ6v5FwdHXB9KX1J5FJDB8Aak2R1H4m2F54pV" ] },
      { "delegate": "tz1bTpviNnyx2PXsNmGpCQTMQsGoYordkUoA",
        "reception_time": "2022-01-16T07:50:40.364-00:00",
        "included_in_blocks":
          [ "BLwtSvwTvXKzGcAZ6v5FwdHXB9KX1J5FJDB8Aak2R1H4m2F54pV" ] },
      { "delegate": "tz1fJHFn6sWEd3NnBPngACuw2dggTv6nQZ7g",
        "reception_time": "2022-01-16T07:50:41.640-00:00",
        "included_in_blocks":
          [ "BLwtSvwTvXKzGcAZ6v5FwdHXB9KX1J5FJDB8Aak2R1H4m2F54pV" ] } ] }