{ "blocks":
    [ { "hash": "BLHPmXqVsi4F9u3g5z1ehivWxjLwV58UtEPGoPH47nfe7pdVPww",
        "delegate": "tz1Tnjaxk6tbAeC2TmMApPh8UsrEVQvhHvx5",
        "reception_time": "2022-01-16T05:44:28.531-00:00",
        "timestamp": "2022-01-16T05:44:20Z" } ],
  "endorsements":
    [ { "delegate": "tz1P2Po7YM526ughEsRbY4oR9zaUPDZjxFrb",
        "reception_time": "2022-01-16T05:44:28.464-00:00",
        "errors":
          [ { "kind": "temporary",
              "id": "proto.011-PtHangz2.prefilter.outdated_endorsement" } ],
        "included_in_blocks":
          [ "BLJuv31zmYEVtdJRBseTGQBM5uzYNjEsvsp1FVL4CgiaEeQNNgj" ] },
      { "delegate": "tz1S8e9GgdZG78XJRB3NqabfWeM37GnhZMWQ",
        "reception_time": "2022-01-16T05:44:28.333-00:00",
        "errors":
          [ { "kind": "temporary",
              "id": "proto.011-PtHangz2.prefilter.outdated_endorsement" } ],
        "included_in_blocks":
          [ "BLJuv31zmYEVtdJRBseTGQBM5uzYNjEsvsp1FVL4CgiaEeQNNgj" ] },
      { "delegate": "tz1Scdr2HsZiQjc7bHMeBbmDRXYVvdhjJbBh",
        "reception_time": "2022-01-16T05:44:29.281-00:00",
        "included_in_blocks":
          [ "BLJuv31zmYEVtdJRBseTGQBM5uzYNjEsvsp1FVL4CgiaEeQNNgj" ] },
      { "delegate": "tz1beersuEDv8Z7ngQ825xfbaJNS2EhXnyHR",
        "reception_time": "2022-01-16T05:44:29.293-00:00",
        "included_in_blocks":
          [ "BLJuv31zmYEVtdJRBseTGQBM5uzYNjEsvsp1FVL4CgiaEeQNNgj" ] },
      { "delegate": "tz1Lhf4J9Qxoe3DZ2nfe8FGDnvVj7oKjnMY6",
        "reception_time": "2022-01-16T05:44:29.326-00:00",
        "included_in_blocks":
          [ "BLJuv31zmYEVtdJRBseTGQBM5uzYNjEsvsp1FVL4CgiaEeQNNgj" ] },
      { "delegate": "tz1STeamwbp68THcny9zk3LsbG3H36DMvbRK",
        "reception_time": "2022-01-16T05:44:29.329-00:00",
        "included_in_blocks":
          [ "BLJuv31zmYEVtdJRBseTGQBM5uzYNjEsvsp1FVL4CgiaEeQNNgj" ] },
      { "delegate": "tz1aXD7Jigrt3PBYSpHSg5Rr33SexMmmM5Ys",
        "reception_time": "2022-01-16T05:44:29.331-00:00",
        "included_in_blocks":
          [ "BLJuv31zmYEVtdJRBseTGQBM5uzYNjEsvsp1FVL4CgiaEeQNNgj" ] },
      { "delegate": "tz1eEnQhbwf6trb8Q8mPb2RaPkNk2rN7BKi8",
        "reception_time": "2022-01-16T05:44:29.334-00:00",
        "included_in_blocks":
          [ "BLJuv31zmYEVtdJRBseTGQBM5uzYNjEsvsp1FVL4CgiaEeQNNgj" ] },
      { "delegate": "tz1d9ek6HrScY6QRZ71NJdB85MNz8gKGBjrv",
        "reception_time": "2022-01-16T05:44:29.336-00:00",
        "included_in_blocks":
          [ "BLJuv31zmYEVtdJRBseTGQBM5uzYNjEsvsp1FVL4CgiaEeQNNgj" ] },
      { "delegate": "tz1irJKkXS2DBWkU1NnmFQx1c1L7pbGg4yhk",
        "reception_time": "2022-01-16T05:44:29.340-00:00",
        "included_in_blocks":
          [ "BLJuv31zmYEVtdJRBseTGQBM5uzYNjEsvsp1FVL4CgiaEeQNNgj" ] },
      { "delegate": "tz1Kt4P8BCaP93AEV4eA7gmpRryWt5hznjCP",
        "reception_time": "2022-01-16T05:44:29.343-00:00",
        "included_in_blocks":
          [ "BLJuv31zmYEVtdJRBseTGQBM5uzYNjEsvsp1FVL4CgiaEeQNNgj" ] },
      { "delegate": "tz1VQnqCCqX4K5sP3FNkVSNKTdCAMJDd3E1n",
        "reception_time": "2022-01-16T05:44:29.370-00:00",
        "included_in_blocks":
          [ "BLJuv31zmYEVtdJRBseTGQBM5uzYNjEsvsp1FVL4CgiaEeQNNgj" ] },
      { "delegate": "tz1gUNyn3hmnEWqkusWPzxRaon1cs7ndWh7h",
        "reception_time": "2022-01-16T05:44:29.371-00:00",
        "included_in_blocks":
          [ "BLJuv31zmYEVtdJRBseTGQBM5uzYNjEsvsp1FVL4CgiaEeQNNgj" ] },
      { "delegate": "tz1Ldzz6k1BHdhuKvAtMRX7h5kJSMHESMHLC",
        "reception_time": "2022-01-16T05:44:29.486-00:00",
        "included_in_blocks":
          [ "BLJuv31zmYEVtdJRBseTGQBM5uzYNjEsvsp1FVL4CgiaEeQNNgj" ] },
      { "delegate": "tz3QSGPoRp3Kn7n3vY24eYeu3Peuqo45LQ4D",
        "reception_time": "2022-01-16T05:44:29.504-00:00",
        "included_in_blocks":
          [ "BLJuv31zmYEVtdJRBseTGQBM5uzYNjEsvsp1FVL4CgiaEeQNNgj" ] },
      { "delegate": "tz1VHmaNfUC9BBcm851g2fhgSUq8NxFapuCA",
        "reception_time": "2022-01-16T05:44:29.508-00:00",
        "included_in_blocks":
          [ "BLJuv31zmYEVtdJRBseTGQBM5uzYNjEsvsp1FVL4CgiaEeQNNgj" ] },
      { "delegate": "tz1MQMiZHV8q4tTwUMWmS5Y3kaP6J2136iXr",
        "reception_time": "2022-01-16T05:44:29.518-00:00",
        "included_in_blocks":
          [ "BLJuv31zmYEVtdJRBseTGQBM5uzYNjEsvsp1FVL4CgiaEeQNNgj" ] },
      { "delegate": "tz3ZbP2pM3nwvXztbuMJwJnDvV5xdpU8UkkD",
        "reception_time": "2022-01-16T05:44:29.528-00:00",
        "included_in_blocks":
          [ "BLJuv31zmYEVtdJRBseTGQBM5uzYNjEsvsp1FVL4CgiaEeQNNgj" ] },
      { "delegate": "tz3NxTnke1acr8o3h5y9ytf5awQBGNJUKzVU",
        "reception_time": "2022-01-16T05:44:29.554-00:00",
        "included_in_blocks":
          [ "BLJuv31zmYEVtdJRBseTGQBM5uzYNjEsvsp1FVL4CgiaEeQNNgj" ] },
      { "delegate": "tz1TzaNn7wSQSP5gYPXCnNzBCpyMiidCq1PX",
        "reception_time": "2022-01-16T05:44:29.558-00:00",
        "included_in_blocks":
          [ "BLJuv31zmYEVtdJRBseTGQBM5uzYNjEsvsp1FVL4CgiaEeQNNgj" ] },
      { "delegate": "tz3gtoUxdudfBRcNY7iVdKPHCYYX6xdPpoRS",
        "reception_time": "2022-01-16T05:44:29.570-00:00",
        "included_in_blocks":
          [ "BLJuv31zmYEVtdJRBseTGQBM5uzYNjEsvsp1FVL4CgiaEeQNNgj" ] },
      { "delegate": "tz1S8MNvuFEUsWgjHvi3AxibRBf388NhT1q2",
        "reception_time": "2022-01-16T05:44:29.574-00:00",
        "included_in_blocks":
          [ "BLJuv31zmYEVtdJRBseTGQBM5uzYNjEsvsp1FVL4CgiaEeQNNgj" ] },
      { "delegate": "tz1VmiY38m3y95HqQLjMwqnMS7sdMfGomzKi",
        "reception_time": "2022-01-16T05:44:29.576-00:00",
        "included_in_blocks":
          [ "BLJuv31zmYEVtdJRBseTGQBM5uzYNjEsvsp1FVL4CgiaEeQNNgj" ] },
      { "delegate": "tz3S6BBeKgJGXxvLyZ1xzXzMPn11nnFtq5L9",
        "reception_time": "2022-01-16T05:44:29.668-00:00",
        "included_in_blocks":
          [ "BLJuv31zmYEVtdJRBseTGQBM5uzYNjEsvsp1FVL4CgiaEeQNNgj" ] },
      { "delegate": "tz1PWCDnz783NNGGQjEFFsHtrcK5yBW4E2rm",
        "reception_time": "2022-01-16T05:44:29.680-00:00",
        "included_in_blocks":
          [ "BLJuv31zmYEVtdJRBseTGQBM5uzYNjEsvsp1FVL4CgiaEeQNNgj" ] },
      { "delegate": "tz1ia6jze3LrBGWJkaDmZ7ThJpPsYWh8D398",
        "reception_time": "2022-01-16T05:44:29.706-00:00",
        "included_in_blocks":
          [ "BLJuv31zmYEVtdJRBseTGQBM5uzYNjEsvsp1FVL4CgiaEeQNNgj" ] },
      { "delegate": "tz3QT9dHYKDqh563chVa6za8526ys1UKfRfL",
        "reception_time": "2022-01-16T05:44:29.733-00:00",
        "included_in_blocks":
          [ "BLJuv31zmYEVtdJRBseTGQBM5uzYNjEsvsp1FVL4CgiaEeQNNgj" ] },
      { "delegate": "tz3iJu5vrKZcsqRPs8yJ61UDoeEXZmtro4qh",
        "reception_time": "2022-01-16T05:44:29.761-00:00",
        "included_in_blocks":
          [ "BLJuv31zmYEVtdJRBseTGQBM5uzYNjEsvsp1FVL4CgiaEeQNNgj" ] },
      { "delegate": "tz3hw2kqXhLUvY65ca1eety2oQTpAvd34R9Q",
        "reception_time": "2022-01-16T05:44:29.790-00:00",
        "included_in_blocks":
          [ "BLJuv31zmYEVtdJRBseTGQBM5uzYNjEsvsp1FVL4CgiaEeQNNgj" ] },
      { "delegate": "tz3Zhs2dygr55yHyQyKjntAtY9bgfhLZ4Xj1",
        "reception_time": "2022-01-16T05:44:29.801-00:00",
        "included_in_blocks":
          [ "BLJuv31zmYEVtdJRBseTGQBM5uzYNjEsvsp1FVL4CgiaEeQNNgj" ] },
      { "delegate": "tz1hAYfexyzPGG6RhZZMpDvAHifubsbb6kgn",
        "reception_time": "2022-01-16T05:44:29.822-00:00",
        "included_in_blocks":
          [ "BLJuv31zmYEVtdJRBseTGQBM5uzYNjEsvsp1FVL4CgiaEeQNNgj" ] },
      { "delegate": "tz3RKYFsLuQzKBtmYuLNas7uMu3AsYd4QdsA",
        "reception_time": "2022-01-16T05:44:29.829-00:00",
        "included_in_blocks":
          [ "BLJuv31zmYEVtdJRBseTGQBM5uzYNjEsvsp1FVL4CgiaEeQNNgj" ] },
      { "delegate": "tz1RCFbB9GpALpsZtu6J58sb74dm8qe6XBzv",
        "reception_time": "2022-01-16T05:44:29.836-00:00",
        "included_in_blocks":
          [ "BLJuv31zmYEVtdJRBseTGQBM5uzYNjEsvsp1FVL4CgiaEeQNNgj" ] },
      { "delegate": "tz1ei4WtWEMEJekSv8qDnu9PExG6Q8HgRGr3",
        "reception_time": "2022-01-16T05:44:29.941-00:00",
        "included_in_blocks":
          [ "BLJuv31zmYEVtdJRBseTGQBM5uzYNjEsvsp1FVL4CgiaEeQNNgj" ] },
      { "delegate": "tz1KfEsrtDaA1sX7vdM4qmEPWuSytuqCDp5j",
        "reception_time": "2022-01-16T05:44:30.121-00:00",
        "included_in_blocks":
          [ "BLJuv31zmYEVtdJRBseTGQBM5uzYNjEsvsp1FVL4CgiaEeQNNgj" ] },
      { "delegate": "tz1TRqbYbUf2GyrjErf3hBzgBJPzW8y36qEs",
        "reception_time": "2022-01-16T05:44:30.221-00:00",
        "included_in_blocks":
          [ "BLJuv31zmYEVtdJRBseTGQBM5uzYNjEsvsp1FVL4CgiaEeQNNgj" ] },
      { "delegate": "tz1gfArv665EUkSg2ojMBzcbfwuPxAvqPvjo",
        "reception_time": "2022-01-16T05:44:30.274-00:00",
        "included_in_blocks":
          [ "BLJuv31zmYEVtdJRBseTGQBM5uzYNjEsvsp1FVL4CgiaEeQNNgj" ] },
      { "delegate": "tz1abmz7jiCV2GH2u81LRrGgAFFgvQgiDiaf",
        "reception_time": "2022-01-16T05:44:30.324-00:00",
        "included_in_blocks":
          [ "BLJuv31zmYEVtdJRBseTGQBM5uzYNjEsvsp1FVL4CgiaEeQNNgj" ] },
      { "delegate": "tz1TKdBNQTFf3DqMga3z2h4MfYv1tPxdDMm4",
        "reception_time": "2022-01-16T05:44:30.327-00:00",
        "included_in_blocks":
          [ "BLJuv31zmYEVtdJRBseTGQBM5uzYNjEsvsp1FVL4CgiaEeQNNgj" ] },
      { "delegate": "tz1NortRftucvAkD1J58L32EhSVrQEWJCEnB",
        "reception_time": "2022-01-16T05:44:30.375-00:00",
        "included_in_blocks":
          [ "BLJuv31zmYEVtdJRBseTGQBM5uzYNjEsvsp1FVL4CgiaEeQNNgj" ] },
      { "delegate": "tz1SYq214SCBy9naR6cvycQsYcUGpBqQAE8d",
        "reception_time": "2022-01-16T05:44:30.395-00:00",
        "included_in_blocks":
          [ "BLJuv31zmYEVtdJRBseTGQBM5uzYNjEsvsp1FVL4CgiaEeQNNgj" ] },
      { "delegate": "tz3bTdwZinP8U1JmSweNzVKhmwafqWmFWRfk",
        "reception_time": "2022-01-16T05:44:30.431-00:00",
        "included_in_blocks":
          [ "BLJuv31zmYEVtdJRBseTGQBM5uzYNjEsvsp1FVL4CgiaEeQNNgj" ] },
      { "delegate": "tz2FCNBrERXtaTtNX6iimR1UJ5JSDxvdHM93",
        "reception_time": "2022-01-16T05:44:30.435-00:00",
        "included_in_blocks":
          [ "BLJuv31zmYEVtdJRBseTGQBM5uzYNjEsvsp1FVL4CgiaEeQNNgj" ] },
      { "delegate": "tz3RB4aoyjov4KEVRbuhvQ1CKJgBJMWhaeB8",
        "reception_time": "2022-01-16T05:44:30.452-00:00",
        "included_in_blocks":
          [ "BLJuv31zmYEVtdJRBseTGQBM5uzYNjEsvsp1FVL4CgiaEeQNNgj" ] },
      { "delegate": "tz1axcnVN9tZnCe4sQQhC6f3tfSEXdjPaXPY",
        "reception_time": "2022-01-16T05:44:30.540-00:00",
        "included_in_blocks":
          [ "BLJuv31zmYEVtdJRBseTGQBM5uzYNjEsvsp1FVL4CgiaEeQNNgj" ] },
      { "delegate": "tz1Nf6tsK4G6bBqgSQERy4nUtkHNKUVdh7q1",
        "reception_time": "2022-01-16T05:44:30.567-00:00",
        "included_in_blocks":
          [ "BLJuv31zmYEVtdJRBseTGQBM5uzYNjEsvsp1FVL4CgiaEeQNNgj" ] },
      { "delegate": "tz1RQhNh7iB9CZA7i3ifTWNwiGYVffponfbB",
        "reception_time": "2022-01-16T05:44:30.640-00:00",
        "included_in_blocks":
          [ "BLJuv31zmYEVtdJRBseTGQBM5uzYNjEsvsp1FVL4CgiaEeQNNgj" ] },
      { "delegate": "tz1eeArNKzpoGLrT8dR3ewRgZ4r3YQkY165n",
        "reception_time": "2022-01-16T05:44:30.867-00:00",
        "included_in_blocks":
          [ "BLJuv31zmYEVtdJRBseTGQBM5uzYNjEsvsp1FVL4CgiaEeQNNgj" ] },
      { "delegate": "tz1NuUu12WHdW3jHqvkujGHsiTi46Wvw1ci1",
        "reception_time": "2022-01-16T05:44:31.031-00:00",
        "included_in_blocks":
          [ "BLJuv31zmYEVtdJRBseTGQBM5uzYNjEsvsp1FVL4CgiaEeQNNgj" ] },
      { "delegate": "tz1awXW7wuXy21c66vBudMXQVAPgRnqqwgTH",
        "reception_time": "2022-01-16T05:44:31.152-00:00",
        "included_in_blocks":
          [ "BLJuv31zmYEVtdJRBseTGQBM5uzYNjEsvsp1FVL4CgiaEeQNNgj" ] },
      { "delegate": "tz1T7duV5gZWSTq4YpBGbXNLTfznCLDrFxvs",
        "reception_time": "2022-01-16T05:44:31.159-00:00",
        "included_in_blocks":
          [ "BLJuv31zmYEVtdJRBseTGQBM5uzYNjEsvsp1FVL4CgiaEeQNNgj" ] },
      { "delegate": "tz1dNVDWPf3Q59SdJqnjdnu277iyvReiRS9M",
        "reception_time": "2022-01-16T05:44:31.182-00:00",
        "included_in_blocks":
          [ "BLJuv31zmYEVtdJRBseTGQBM5uzYNjEsvsp1FVL4CgiaEeQNNgj" ] },
      { "delegate": "tz1V3yg82mcrPJbegqVCPn6bC8w1CSTRp3f8",
        "reception_time": "2022-01-16T05:44:31.224-00:00",
        "included_in_blocks":
          [ "BLJuv31zmYEVtdJRBseTGQBM5uzYNjEsvsp1FVL4CgiaEeQNNgj" ] },
      { "delegate": "tz3VEZ4k6a4Wx42iyev6i2aVAptTRLEAivNN",
        "reception_time": "2022-01-16T05:44:31.293-00:00",
        "included_in_blocks":
          [ "BLJuv31zmYEVtdJRBseTGQBM5uzYNjEsvsp1FVL4CgiaEeQNNgj" ] },
      { "delegate": "tz1cYufsxHXJcvANhvS55h3aY32a9BAFB494",
        "reception_time": "2022-01-16T05:44:31.299-00:00",
        "included_in_blocks":
          [ "BLJuv31zmYEVtdJRBseTGQBM5uzYNjEsvsp1FVL4CgiaEeQNNgj" ] },
      { "delegate": "tz1WctSwL49BZtdWAQ75NY6vr4xsAx6oKdah",
        "reception_time": "2022-01-16T05:44:31.388-00:00",
        "included_in_blocks":
          [ "BLJuv31zmYEVtdJRBseTGQBM5uzYNjEsvsp1FVL4CgiaEeQNNgj" ] },
      { "delegate": "tz3NDpRj6WBrJPikcPVHRBEjWKxFw3c6eQPS",
        "reception_time": "2022-01-16T05:44:31.429-00:00",
        "included_in_blocks":
          [ "BLJuv31zmYEVtdJRBseTGQBM5uzYNjEsvsp1FVL4CgiaEeQNNgj" ] },
      { "delegate": "tz1dRKU4FQ9QRRQPdaH4zCR6gmCmXfcvcgtB",
        "reception_time": "2022-01-16T05:44:31.481-00:00",
        "included_in_blocks":
          [ "BLJuv31zmYEVtdJRBseTGQBM5uzYNjEsvsp1FVL4CgiaEeQNNgj" ] },
      { "delegate": "tz1Z2jXfEXL7dXhs6bsLmyLFLfmAkXBzA9WE",
        "reception_time": "2022-01-16T05:44:31.519-00:00",
        "included_in_blocks":
          [ "BLJuv31zmYEVtdJRBseTGQBM5uzYNjEsvsp1FVL4CgiaEeQNNgj" ] },
      { "delegate": "tz1NEKxGEHsFufk87CVZcrqWu8o22qh46GK6",
        "reception_time": "2022-01-16T05:44:31.591-00:00",
        "included_in_blocks":
          [ "BLJuv31zmYEVtdJRBseTGQBM5uzYNjEsvsp1FVL4CgiaEeQNNgj" ] },
      { "delegate": "tz3bvNMQ95vfAYtG8193ymshqjSvmxiCUuR5",
        "reception_time": "2022-01-16T05:44:31.775-00:00",
        "included_in_blocks":
          [ "BLJuv31zmYEVtdJRBseTGQBM5uzYNjEsvsp1FVL4CgiaEeQNNgj" ] },
      { "delegate": "tz3NExpXn9aPNZPorRE4SdjJ2RGrfbJgMAaV",
        "reception_time": "2022-01-16T05:44:31.882-00:00",
        "included_in_blocks":
          [ "BLJuv31zmYEVtdJRBseTGQBM5uzYNjEsvsp1FVL4CgiaEeQNNgj" ] },
      { "delegate": "tz3RDC3Jdn4j15J7bBHZd29EUee9gVB1CxD9",
        "reception_time": "2022-01-16T05:44:31.981-00:00",
        "included_in_blocks":
          [ "BLJuv31zmYEVtdJRBseTGQBM5uzYNjEsvsp1FVL4CgiaEeQNNgj" ] },
      { "delegate": "tz3UoffC7FG7zfpmvmjUmUeAaHvzdcUvAj6r",
        "reception_time": "2022-01-16T05:44:32.101-00:00",
        "included_in_blocks":
          [ "BLJuv31zmYEVtdJRBseTGQBM5uzYNjEsvsp1FVL4CgiaEeQNNgj" ] },
      { "delegate": "tz3WMqdzXqRWXwyvj5Hp2H7QEepaUuS7vd9K",
        "reception_time": "2022-01-16T05:44:32.304-00:00",
        "included_in_blocks":
          [ "BLJuv31zmYEVtdJRBseTGQBM5uzYNjEsvsp1FVL4CgiaEeQNNgj" ] },
      { "delegate": "tz1aRoaRhSpRYvFdyvgWLL6TGyRoGF51wDjM",
        "reception_time": "2022-01-16T05:44:32.583-00:00",
        "included_in_blocks":
          [ "BLJuv31zmYEVtdJRBseTGQBM5uzYNjEsvsp1FVL4CgiaEeQNNgj" ] } ] }