{ "blocks":
    [ { "hash": "BLjzx1cDPxWrrmck8e3KNasUgfHuC7fKmDn5Kyi9WJB1oSCcucQ",
        "delegate": "tz3S6BBeKgJGXxvLyZ1xzXzMPn11nnFtq5L9",
        "reception_time": "2022-01-16T15:06:26.972-00:00",
        "timestamp": "2022-01-16T15:06:20Z" } ],
  "endorsements":
    [ { "delegate": "tz1S8e9GgdZG78XJRB3NqabfWeM37GnhZMWQ",
        "reception_time": "2022-01-16T15:06:26.859-00:00",
        "errors":
          [ { "kind": "temporary",
              "id": "proto.011-PtHangz2.prefilter.outdated_endorsement" } ],
        "included_in_blocks":
          [ "BL8Fs6Yorv91kcTrYB7u5Qr5Sj6uBiutguSNAc9b35o5igAqfRF" ] },
      { "delegate": "tz1RjoHc98dBoqaH2jawF62XNKh7YsHwbkEv" },
      { "delegate": "tz1Vyuu4EJ5Nym4JcrfRLnp3hpaq1DSEp1Ke" },
      { "delegate": "tz1dbfppLAAxXZNtf2SDps7rch3qfUznKSoK" },
      { "delegate": "tz1P2Po7YM526ughEsRbY4oR9zaUPDZjxFrb",
        "reception_time": "2022-01-16T15:06:27.731-00:00",
        "included_in_blocks":
          [ "BL8Fs6Yorv91kcTrYB7u5Qr5Sj6uBiutguSNAc9b35o5igAqfRF" ] },
      { "delegate": "tz1eEnQhbwf6trb8Q8mPb2RaPkNk2rN7BKi8",
        "reception_time": "2022-01-16T15:06:27.743-00:00",
        "included_in_blocks":
          [ "BL8Fs6Yorv91kcTrYB7u5Qr5Sj6uBiutguSNAc9b35o5igAqfRF" ] },
      { "delegate": "tz1RV1MBbZMR68tacosb7Mwj6LkbPSUS1er1",
        "reception_time": "2022-01-16T15:06:27.745-00:00",
        "included_in_blocks":
          [ "BL8Fs6Yorv91kcTrYB7u5Qr5Sj6uBiutguSNAc9b35o5igAqfRF" ] },
      { "delegate": "tz1STeamwbp68THcny9zk3LsbG3H36DMvbRK",
        "reception_time": "2022-01-16T15:06:27.748-00:00",
        "included_in_blocks":
          [ "BL8Fs6Yorv91kcTrYB7u5Qr5Sj6uBiutguSNAc9b35o5igAqfRF" ] },
      { "delegate": "tz1Lhf4J9Qxoe3DZ2nfe8FGDnvVj7oKjnMY6",
        "reception_time": "2022-01-16T15:06:27.751-00:00",
        "included_in_blocks":
          [ "BL8Fs6Yorv91kcTrYB7u5Qr5Sj6uBiutguSNAc9b35o5igAqfRF" ] },
      { "delegate": "tz1TXzyaKUA8wsWefdSnyaYFnV2M3vCV7er9",
        "reception_time": "2022-01-16T15:06:27.753-00:00",
        "included_in_blocks":
          [ "BL8Fs6Yorv91kcTrYB7u5Qr5Sj6uBiutguSNAc9b35o5igAqfRF" ] },
      { "delegate": "tz1iMAHAVpkCVegF9FLGWUpQQeiAHh4ffdLQ",
        "reception_time": "2022-01-16T15:06:27.806-00:00",
        "included_in_blocks":
          [ "BL8Fs6Yorv91kcTrYB7u5Qr5Sj6uBiutguSNAc9b35o5igAqfRF" ] },
      { "delegate": "tz1bsdrs36X5BTH83RHUBdUouKLJZK8d2oBa",
        "reception_time": "2022-01-16T15:06:27.846-00:00",
        "included_in_blocks":
          [ "BL8Fs6Yorv91kcTrYB7u5Qr5Sj6uBiutguSNAc9b35o5igAqfRF" ] },
      { "delegate": "tz3QCNyySViKHmeSr45kzDxzchys7NiXCWoa",
        "reception_time": "2022-01-16T15:06:27.937-00:00",
        "included_in_blocks":
          [ "BL8Fs6Yorv91kcTrYB7u5Qr5Sj6uBiutguSNAc9b35o5igAqfRF" ] },
      { "delegate": "tz3QT9dHYKDqh563chVa6za8526ys1UKfRfL",
        "reception_time": "2022-01-16T15:06:27.965-00:00",
        "included_in_blocks":
          [ "BL8Fs6Yorv91kcTrYB7u5Qr5Sj6uBiutguSNAc9b35o5igAqfRF" ] },
      { "delegate": "tz3QSGPoRp3Kn7n3vY24eYeu3Peuqo45LQ4D",
        "reception_time": "2022-01-16T15:06:27.974-00:00",
        "included_in_blocks":
          [ "BL8Fs6Yorv91kcTrYB7u5Qr5Sj6uBiutguSNAc9b35o5igAqfRF" ] },
      { "delegate": "tz3gtoUxdudfBRcNY7iVdKPHCYYX6xdPpoRS",
        "reception_time": "2022-01-16T15:06:28.000-00:00",
        "included_in_blocks":
          [ "BL8Fs6Yorv91kcTrYB7u5Qr5Sj6uBiutguSNAc9b35o5igAqfRF" ] },
      { "delegate": "tz1Kf25fX1VdmYGSEzwFy1wNmkbSEZ2V83sY",
        "reception_time": "2022-01-16T15:06:28.012-00:00",
        "included_in_blocks":
          [ "BL8Fs6Yorv91kcTrYB7u5Qr5Sj6uBiutguSNAc9b35o5igAqfRF" ] },
      { "delegate": "tz3S6BBeKgJGXxvLyZ1xzXzMPn11nnFtq5L9",
        "reception_time": "2022-01-16T15:06:28.024-00:00",
        "included_in_blocks":
          [ "BL8Fs6Yorv91kcTrYB7u5Qr5Sj6uBiutguSNAc9b35o5igAqfRF" ] },
      { "delegate": "tz3iJu5vrKZcsqRPs8yJ61UDoeEXZmtro4qh",
        "reception_time": "2022-01-16T15:06:28.089-00:00",
        "included_in_blocks":
          [ "BL8Fs6Yorv91kcTrYB7u5Qr5Sj6uBiutguSNAc9b35o5igAqfRF" ] },
      { "delegate": "tz1Ldzz6k1BHdhuKvAtMRX7h5kJSMHESMHLC",
        "reception_time": "2022-01-16T15:06:28.126-00:00",
        "included_in_blocks":
          [ "BL8Fs6Yorv91kcTrYB7u5Qr5Sj6uBiutguSNAc9b35o5igAqfRF" ] },
      { "delegate": "tz1TzaNn7wSQSP5gYPXCnNzBCpyMiidCq1PX",
        "reception_time": "2022-01-16T15:06:28.131-00:00",
        "included_in_blocks":
          [ "BL8Fs6Yorv91kcTrYB7u5Qr5Sj6uBiutguSNAc9b35o5igAqfRF" ] },
      { "delegate": "tz3RKYFsLuQzKBtmYuLNas7uMu3AsYd4QdsA",
        "reception_time": "2022-01-16T15:06:28.180-00:00",
        "included_in_blocks":
          [ "BL8Fs6Yorv91kcTrYB7u5Qr5Sj6uBiutguSNAc9b35o5igAqfRF" ] },
      { "delegate": "tz1WCd2jm4uSt4vntk4vSuUWoZQGhLcDuR9q",
        "reception_time": "2022-01-16T15:06:28.213-00:00",
        "included_in_blocks":
          [ "BL8Fs6Yorv91kcTrYB7u5Qr5Sj6uBiutguSNAc9b35o5igAqfRF" ] },
      { "delegate": "tz3hw2kqXhLUvY65ca1eety2oQTpAvd34R9Q",
        "reception_time": "2022-01-16T15:06:28.223-00:00",
        "included_in_blocks":
          [ "BL8Fs6Yorv91kcTrYB7u5Qr5Sj6uBiutguSNAc9b35o5igAqfRF" ] },
      { "delegate": "tz3ZbP2pM3nwvXztbuMJwJnDvV5xdpU8UkkD",
        "reception_time": "2022-01-16T15:06:28.269-00:00",
        "included_in_blocks":
          [ "BL8Fs6Yorv91kcTrYB7u5Qr5Sj6uBiutguSNAc9b35o5igAqfRF" ] },
      { "delegate": "tz3NxTnke1acr8o3h5y9ytf5awQBGNJUKzVU",
        "reception_time": "2022-01-16T15:06:28.284-00:00",
        "included_in_blocks":
          [ "BL8Fs6Yorv91kcTrYB7u5Qr5Sj6uBiutguSNAc9b35o5igAqfRF" ] },
      { "delegate": "tz1gUNyn3hmnEWqkusWPzxRaon1cs7ndWh7h",
        "reception_time": "2022-01-16T15:06:28.307-00:00",
        "included_in_blocks":
          [ "BL8Fs6Yorv91kcTrYB7u5Qr5Sj6uBiutguSNAc9b35o5igAqfRF" ] },
      { "delegate": "tz1VQnqCCqX4K5sP3FNkVSNKTdCAMJDd3E1n",
        "reception_time": "2022-01-16T15:06:28.313-00:00",
        "included_in_blocks":
          [ "BL8Fs6Yorv91kcTrYB7u5Qr5Sj6uBiutguSNAc9b35o5igAqfRF" ] },
      { "delegate": "tz1aXD7Jigrt3PBYSpHSg5Rr33SexMmmM5Ys",
        "reception_time": "2022-01-16T15:06:28.380-00:00",
        "included_in_blocks":
          [ "BL8Fs6Yorv91kcTrYB7u5Qr5Sj6uBiutguSNAc9b35o5igAqfRF" ] },
      { "delegate": "tz1VmiY38m3y95HqQLjMwqnMS7sdMfGomzKi",
        "reception_time": "2022-01-16T15:06:28.451-00:00",
        "included_in_blocks":
          [ "BL8Fs6Yorv91kcTrYB7u5Qr5Sj6uBiutguSNAc9b35o5igAqfRF" ] },
      { "delegate": "tz1fUjvVhJrHLZCbhPNvDRckxApqbkievJHN",
        "reception_time": "2022-01-16T15:06:28.575-00:00",
        "included_in_blocks":
          [ "BL8Fs6Yorv91kcTrYB7u5Qr5Sj6uBiutguSNAc9b35o5igAqfRF" ] },
      { "delegate": "tz1fUyqYH7H4pRHN1roWY17giXhy1RvxjgUV",
        "reception_time": "2022-01-16T15:06:28.578-00:00",
        "included_in_blocks":
          [ "BL8Fs6Yorv91kcTrYB7u5Qr5Sj6uBiutguSNAc9b35o5igAqfRF" ] },
      { "delegate": "tz1RCFbB9GpALpsZtu6J58sb74dm8qe6XBzv",
        "reception_time": "2022-01-16T15:06:28.610-00:00",
        "included_in_blocks":
          [ "BL8Fs6Yorv91kcTrYB7u5Qr5Sj6uBiutguSNAc9b35o5igAqfRF" ] },
      { "delegate": "tz1MQMiZHV8q4tTwUMWmS5Y3kaP6J2136iXr",
        "reception_time": "2022-01-16T15:06:28.664-00:00",
        "included_in_blocks":
          [ "BL8Fs6Yorv91kcTrYB7u5Qr5Sj6uBiutguSNAc9b35o5igAqfRF" ] },
      { "delegate": "tz1YhNsiRRU8aHNGg7NK3uuP6UDAyacJernB",
        "reception_time": "2022-01-16T15:06:28.687-00:00",
        "included_in_blocks":
          [ "BL8Fs6Yorv91kcTrYB7u5Qr5Sj6uBiutguSNAc9b35o5igAqfRF" ] },
      { "delegate": "tz3RB4aoyjov4KEVRbuhvQ1CKJgBJMWhaeB8",
        "reception_time": "2022-01-16T15:06:28.727-00:00",
        "included_in_blocks":
          [ "BL8Fs6Yorv91kcTrYB7u5Qr5Sj6uBiutguSNAc9b35o5igAqfRF" ] },
      { "delegate": "tz3bTdwZinP8U1JmSweNzVKhmwafqWmFWRfk",
        "reception_time": "2022-01-16T15:06:28.743-00:00",
        "included_in_blocks":
          [ "BL8Fs6Yorv91kcTrYB7u5Qr5Sj6uBiutguSNAc9b35o5igAqfRF" ] },
      { "delegate": "tz1gfArv665EUkSg2ojMBzcbfwuPxAvqPvjo",
        "reception_time": "2022-01-16T15:06:28.748-00:00",
        "included_in_blocks":
          [ "BL8Fs6Yorv91kcTrYB7u5Qr5Sj6uBiutguSNAc9b35o5igAqfRF" ] },
      { "delegate": "tz1S8MNvuFEUsWgjHvi3AxibRBf388NhT1q2",
        "reception_time": "2022-01-16T15:06:28.760-00:00",
        "included_in_blocks":
          [ "BL8Fs6Yorv91kcTrYB7u5Qr5Sj6uBiutguSNAc9b35o5igAqfRF" ] },
      { "delegate": "tz1W3VYi3gSt9Xgfw6WNV1aGZRPH2BsskMEY",
        "reception_time": "2022-01-16T15:06:28.810-00:00",
        "included_in_blocks":
          [ "BL8Fs6Yorv91kcTrYB7u5Qr5Sj6uBiutguSNAc9b35o5igAqfRF" ] },
      { "delegate": "tz1irJKkXS2DBWkU1NnmFQx1c1L7pbGg4yhk",
        "reception_time": "2022-01-16T15:06:28.833-00:00",
        "included_in_blocks":
          [ "BL8Fs6Yorv91kcTrYB7u5Qr5Sj6uBiutguSNAc9b35o5igAqfRF" ] },
      { "delegate": "tz1WnfXMPaNTBmH7DBPwqCWs9cPDJdkGBTZ8",
        "reception_time": "2022-01-16T15:06:28.883-00:00",
        "included_in_blocks":
          [ "BL8Fs6Yorv91kcTrYB7u5Qr5Sj6uBiutguSNAc9b35o5igAqfRF" ] },
      { "delegate": "tz1PWCDnz783NNGGQjEFFsHtrcK5yBW4E2rm",
        "reception_time": "2022-01-16T15:06:28.891-00:00",
        "included_in_blocks":
          [ "BL8Fs6Yorv91kcTrYB7u5Qr5Sj6uBiutguSNAc9b35o5igAqfRF" ] },
      { "delegate": "tz1MQJPGNMijnXnVoBENFz9rUhaPt3S7rWoz",
        "reception_time": "2022-01-16T15:06:29.141-00:00",
        "included_in_blocks":
          [ "BL8Fs6Yorv91kcTrYB7u5Qr5Sj6uBiutguSNAc9b35o5igAqfRF" ] },
      { "delegate": "tz1abmz7jiCV2GH2u81LRrGgAFFgvQgiDiaf",
        "reception_time": "2022-01-16T15:06:29.166-00:00",
        "included_in_blocks":
          [ "BL8Fs6Yorv91kcTrYB7u5Qr5Sj6uBiutguSNAc9b35o5igAqfRF" ] },
      { "delegate": "tz1ei4WtWEMEJekSv8qDnu9PExG6Q8HgRGr3",
        "reception_time": "2022-01-16T15:06:29.179-00:00",
        "included_in_blocks":
          [ "BL8Fs6Yorv91kcTrYB7u5Qr5Sj6uBiutguSNAc9b35o5igAqfRF" ] },
      { "delegate": "tz2FCNBrERXtaTtNX6iimR1UJ5JSDxvdHM93",
        "reception_time": "2022-01-16T15:06:29.201-00:00",
        "included_in_blocks":
          [ "BL8Fs6Yorv91kcTrYB7u5Qr5Sj6uBiutguSNAc9b35o5igAqfRF" ] },
      { "delegate": "tz1RSRhQCg3KYjr9QPFCLgGKciaB93oGTRh2",
        "reception_time": "2022-01-16T15:06:29.233-00:00",
        "included_in_blocks":
          [ "BL8Fs6Yorv91kcTrYB7u5Qr5Sj6uBiutguSNAc9b35o5igAqfRF" ] },
      { "delegate": "tz1SYq214SCBy9naR6cvycQsYcUGpBqQAE8d",
        "reception_time": "2022-01-16T15:06:29.292-00:00",
        "included_in_blocks":
          [ "BL8Fs6Yorv91kcTrYB7u5Qr5Sj6uBiutguSNAc9b35o5igAqfRF" ] },
      { "delegate": "tz1TRqbYbUf2GyrjErf3hBzgBJPzW8y36qEs",
        "reception_time": "2022-01-16T15:06:29.330-00:00",
        "included_in_blocks":
          [ "BL8Fs6Yorv91kcTrYB7u5Qr5Sj6uBiutguSNAc9b35o5igAqfRF" ] },
      { "delegate": "tz1TEc75UKXv4W5cwi14Na3NtqFD51yKQi7h",
        "reception_time": "2022-01-16T15:06:29.351-00:00",
        "included_in_blocks":
          [ "BL8Fs6Yorv91kcTrYB7u5Qr5Sj6uBiutguSNAc9b35o5igAqfRF" ] },
      { "delegate": "tz1bTpviNnyx2PXsNmGpCQTMQsGoYordkUoA",
        "reception_time": "2022-01-16T15:06:29.534-00:00",
        "included_in_blocks":
          [ "BL8Fs6Yorv91kcTrYB7u5Qr5Sj6uBiutguSNAc9b35o5igAqfRF" ] },
      { "delegate": "tz1WBfwbT66FC6BTLexc2BoyCCBM9LG7pnVW",
        "reception_time": "2022-01-16T15:06:29.540-00:00",
        "included_in_blocks":
          [ "BL8Fs6Yorv91kcTrYB7u5Qr5Sj6uBiutguSNAc9b35o5igAqfRF" ] },
      { "delegate": "tz3VEZ4k6a4Wx42iyev6i2aVAptTRLEAivNN",
        "reception_time": "2022-01-16T15:06:29.745-00:00",
        "included_in_blocks":
          [ "BL8Fs6Yorv91kcTrYB7u5Qr5Sj6uBiutguSNAc9b35o5igAqfRF" ] },
      { "delegate": "tz1Nf6tsK4G6bBqgSQERy4nUtkHNKUVdh7q1",
        "reception_time": "2022-01-16T15:06:29.749-00:00",
        "included_in_blocks":
          [ "BL8Fs6Yorv91kcTrYB7u5Qr5Sj6uBiutguSNAc9b35o5igAqfRF" ] },
      { "delegate": "tz3WMqdzXqRWXwyvj5Hp2H7QEepaUuS7vd9K",
        "reception_time": "2022-01-16T15:06:29.762-00:00",
        "included_in_blocks":
          [ "BL8Fs6Yorv91kcTrYB7u5Qr5Sj6uBiutguSNAc9b35o5igAqfRF" ] },
      { "delegate": "tz3gLTu4Yxj8tPAcriQVUdxv6BY9QyvzU1az",
        "reception_time": "2022-01-16T15:06:29.822-00:00",
        "included_in_blocks":
          [ "BL8Fs6Yorv91kcTrYB7u5Qr5Sj6uBiutguSNAc9b35o5igAqfRF" ] },
      { "delegate": "tz3bvNMQ95vfAYtG8193ymshqjSvmxiCUuR5",
        "reception_time": "2022-01-16T15:06:29.868-00:00",
        "included_in_blocks":
          [ "BL8Fs6Yorv91kcTrYB7u5Qr5Sj6uBiutguSNAc9b35o5igAqfRF" ] },
      { "delegate": "tz1aRoaRhSpRYvFdyvgWLL6TGyRoGF51wDjM",
        "reception_time": "2022-01-16T15:06:29.896-00:00",
        "included_in_blocks":
          [ "BL8Fs6Yorv91kcTrYB7u5Qr5Sj6uBiutguSNAc9b35o5igAqfRF" ] },
      { "delegate": "tz1T7duV5gZWSTq4YpBGbXNLTfznCLDrFxvs",
        "reception_time": "2022-01-16T15:06:29.983-00:00",
        "included_in_blocks":
          [ "BL8Fs6Yorv91kcTrYB7u5Qr5Sj6uBiutguSNAc9b35o5igAqfRF" ] },
      { "delegate": "tz3RDC3Jdn4j15J7bBHZd29EUee9gVB1CxD9",
        "reception_time": "2022-01-16T15:06:30.168-00:00",
        "included_in_blocks":
          [ "BL8Fs6Yorv91kcTrYB7u5Qr5Sj6uBiutguSNAc9b35o5igAqfRF" ] },
      { "delegate": "tz1KfEsrtDaA1sX7vdM4qmEPWuSytuqCDp5j",
        "reception_time": "2022-01-16T15:06:30.249-00:00",
        "included_in_blocks":
          [ "BL8Fs6Yorv91kcTrYB7u5Qr5Sj6uBiutguSNAc9b35o5igAqfRF" ] },
      { "delegate": "tz1dRKU4FQ9QRRQPdaH4zCR6gmCmXfcvcgtB",
        "reception_time": "2022-01-16T15:06:30.560-00:00",
        "included_in_blocks":
          [ "BL8Fs6Yorv91kcTrYB7u5Qr5Sj6uBiutguSNAc9b35o5igAqfRF" ] },
      { "delegate": "tz3UoffC7FG7zfpmvmjUmUeAaHvzdcUvAj6r",
        "reception_time": "2022-01-16T15:06:30.743-00:00",
        "included_in_blocks":
          [ "BL8Fs6Yorv91kcTrYB7u5Qr5Sj6uBiutguSNAc9b35o5igAqfRF" ] },
      { "delegate": "tz3NExpXn9aPNZPorRE4SdjJ2RGrfbJgMAaV",
        "reception_time": "2022-01-16T15:06:30.815-00:00",
        "included_in_blocks":
          [ "BL8Fs6Yorv91kcTrYB7u5Qr5Sj6uBiutguSNAc9b35o5igAqfRF" ] },
      { "delegate": "tz1W5VkdB5s7ENMESVBtwyt9kyvLqPcUczRT",
        "reception_time": "2022-01-16T15:06:32.919-00:00",
        "included_in_blocks":
          [ "BL8Fs6Yorv91kcTrYB7u5Qr5Sj6uBiutguSNAc9b35o5igAqfRF" ] },
      { "delegate": "tz2BzJTyoQp8fNbfhWD4YQgH9JJHDgSGzpdG",
        "reception_time": "2022-01-16T15:06:35.673-00:00",
        "included_in_blocks":
          [ "BL8Fs6Yorv91kcTrYB7u5Qr5Sj6uBiutguSNAc9b35o5igAqfRF" ] },
      { "delegate": "tz1NpWrAyDL9k2Lmnyxcgr9xuJakbBxdq7FB",
        "reception_time": "2022-01-16T15:06:38.730-00:00",
        "included_in_blocks":
          [ "BL8Fs6Yorv91kcTrYB7u5Qr5Sj6uBiutguSNAc9b35o5igAqfRF" ] } ] }