{ "blocks":
    [ { "hash": "BMJCPcw5Z6LrhpREuZTdzrqMgY5ukogReRYxUqR8pEu8aPtqr1C",
        "delegate": "tz1PWCDnz783NNGGQjEFFsHtrcK5yBW4E2rm",
        "reception_time": "2022-01-16T21:36:35.860-00:00",
        "timestamp": "2022-01-16T21:36:30Z" } ],
  "endorsements":
    [ { "delegate": "tz1RjoHc98dBoqaH2jawF62XNKh7YsHwbkEv" },
      { "delegate": "tz1P2Po7YM526ughEsRbY4oR9zaUPDZjxFrb",
        "reception_time": "2022-01-16T21:36:35.508-00:00",
        "errors":
          [ { "kind": "temporary",
              "id": "proto.011-PtHangz2.prefilter.outdated_endorsement" } ],
        "included_in_blocks":
          [ "BLdSNkmviC8mYJPTsUv1xCoSVuBZXeZPa8ujCDag2y9xAFbJ5De" ] },
      { "delegate": "tz1R2KrxRcghJgjQdTrUPwwMKtT9RLMmAAJV",
        "reception_time": "2022-01-16T21:36:44.271-00:00",
        "included_in_blocks":
          [ "BLdSNkmviC8mYJPTsUv1xCoSVuBZXeZPa8ujCDag2y9xAFbJ5De" ] },
      { "delegate": "tz1NpWrAyDL9k2Lmnyxcgr9xuJakbBxdq7FB",
        "reception_time": "2022-01-16T21:36:44.084-00:00",
        "included_in_blocks":
          [ "BLdSNkmviC8mYJPTsUv1xCoSVuBZXeZPa8ujCDag2y9xAFbJ5De" ] },
      { "delegate": "tz1W5VkdB5s7ENMESVBtwyt9kyvLqPcUczRT",
        "reception_time": "2022-01-16T21:36:41.398-00:00",
        "included_in_blocks":
          [ "BLdSNkmviC8mYJPTsUv1xCoSVuBZXeZPa8ujCDag2y9xAFbJ5De" ] },
      { "delegate": "tz1aRoaRhSpRYvFdyvgWLL6TGyRoGF51wDjM",
        "reception_time": "2022-01-16T21:36:39.614-00:00",
        "included_in_blocks":
          [ "BLdSNkmviC8mYJPTsUv1xCoSVuBZXeZPa8ujCDag2y9xAFbJ5De" ] },
      { "delegate": "tz1cYufsxHXJcvANhvS55h3aY32a9BAFB494",
        "reception_time": "2022-01-16T21:36:39.483-00:00",
        "included_in_blocks":
          [ "BLdSNkmviC8mYJPTsUv1xCoSVuBZXeZPa8ujCDag2y9xAFbJ5De" ] },
      { "delegate": "tz1T7duV5gZWSTq4YpBGbXNLTfznCLDrFxvs",
        "reception_time": "2022-01-16T21:36:39.660-00:00",
        "included_in_blocks":
          [ "BLdSNkmviC8mYJPTsUv1xCoSVuBZXeZPa8ujCDag2y9xAFbJ5De" ] },
      { "delegate": "tz1cM8Xc7ZP1TrjkTeKq4PeRhtbnwXSBR6Sw",
        "reception_time": "2022-01-16T21:36:40.282-00:00",
        "included_in_blocks":
          [ "BLdSNkmviC8mYJPTsUv1xCoSVuBZXeZPa8ujCDag2y9xAFbJ5De" ] },
      { "delegate": "tz3gLTu4Yxj8tPAcriQVUdxv6BY9QyvzU1az",
        "reception_time": "2022-01-16T21:36:39.007-00:00",
        "included_in_blocks":
          [ "BLdSNkmviC8mYJPTsUv1xCoSVuBZXeZPa8ujCDag2y9xAFbJ5De" ] },
      { "delegate": "tz1dRKU4FQ9QRRQPdaH4zCR6gmCmXfcvcgtB",
        "reception_time": "2022-01-16T21:36:39.149-00:00",
        "included_in_blocks":
          [ "BLdSNkmviC8mYJPTsUv1xCoSVuBZXeZPa8ujCDag2y9xAFbJ5De" ] },
      { "delegate": "tz3bvNMQ95vfAYtG8193ymshqjSvmxiCUuR5",
        "reception_time": "2022-01-16T21:36:38.947-00:00",
        "included_in_blocks":
          [ "BLdSNkmviC8mYJPTsUv1xCoSVuBZXeZPa8ujCDag2y9xAFbJ5De" ] },
      { "delegate": "tz3RB4aoyjov4KEVRbuhvQ1CKJgBJMWhaeB8",
        "reception_time": "2022-01-16T21:36:38.879-00:00",
        "included_in_blocks":
          [ "BLdSNkmviC8mYJPTsUv1xCoSVuBZXeZPa8ujCDag2y9xAFbJ5De" ] },
      { "delegate": "tz3NDpRj6WBrJPikcPVHRBEjWKxFw3c6eQPS",
        "reception_time": "2022-01-16T21:36:39.019-00:00",
        "included_in_blocks":
          [ "BLdSNkmviC8mYJPTsUv1xCoSVuBZXeZPa8ujCDag2y9xAFbJ5De" ] },
      { "delegate": "tz1LjZjdF1wFgUtVyNsrr8P1uYaoBJGTTPyr",
        "reception_time": "2022-01-16T21:36:38.511-00:00",
        "included_in_blocks":
          [ "BLdSNkmviC8mYJPTsUv1xCoSVuBZXeZPa8ujCDag2y9xAFbJ5De" ] },
      { "delegate": "tz3UoffC7FG7zfpmvmjUmUeAaHvzdcUvAj6r",
        "reception_time": "2022-01-16T21:36:39.607-00:00",
        "included_in_blocks":
          [ "BLdSNkmviC8mYJPTsUv1xCoSVuBZXeZPa8ujCDag2y9xAFbJ5De" ] },
      { "delegate": "tz1Z2jXfEXL7dXhs6bsLmyLFLfmAkXBzA9WE",
        "reception_time": "2022-01-16T21:36:38.603-00:00",
        "included_in_blocks":
          [ "BLdSNkmviC8mYJPTsUv1xCoSVuBZXeZPa8ujCDag2y9xAFbJ5De" ] },
      { "delegate": "tz1abmz7jiCV2GH2u81LRrGgAFFgvQgiDiaf",
        "reception_time": "2022-01-16T21:36:38.714-00:00",
        "included_in_blocks":
          [ "BLdSNkmviC8mYJPTsUv1xCoSVuBZXeZPa8ujCDag2y9xAFbJ5De" ] },
      { "delegate": "tz3NExpXn9aPNZPorRE4SdjJ2RGrfbJgMAaV",
        "reception_time": "2022-01-16T21:36:39.639-00:00",
        "included_in_blocks":
          [ "BLdSNkmviC8mYJPTsUv1xCoSVuBZXeZPa8ujCDag2y9xAFbJ5De" ] },
      { "delegate": "tz2FCNBrERXtaTtNX6iimR1UJ5JSDxvdHM93",
        "reception_time": "2022-01-16T21:36:38.519-00:00",
        "included_in_blocks":
          [ "BLdSNkmviC8mYJPTsUv1xCoSVuBZXeZPa8ujCDag2y9xAFbJ5De" ] },
      { "delegate": "tz1TRqbYbUf2GyrjErf3hBzgBJPzW8y36qEs",
        "reception_time": "2022-01-16T21:36:38.703-00:00",
        "included_in_blocks":
          [ "BLdSNkmviC8mYJPTsUv1xCoSVuBZXeZPa8ujCDag2y9xAFbJ5De" ] },
      { "delegate": "tz1SYq214SCBy9naR6cvycQsYcUGpBqQAE8d",
        "reception_time": "2022-01-16T21:36:38.675-00:00",
        "included_in_blocks":
          [ "BLdSNkmviC8mYJPTsUv1xCoSVuBZXeZPa8ujCDag2y9xAFbJ5De" ] },
      { "delegate": "tz1WBfwbT66FC6BTLexc2BoyCCBM9LG7pnVW",
        "reception_time": "2022-01-16T21:36:38.361-00:00",
        "included_in_blocks":
          [ "BLdSNkmviC8mYJPTsUv1xCoSVuBZXeZPa8ujCDag2y9xAFbJ5De" ] },
      { "delegate": "tz3VEZ4k6a4Wx42iyev6i2aVAptTRLEAivNN",
        "reception_time": "2022-01-16T21:36:39.093-00:00",
        "included_in_blocks":
          [ "BLdSNkmviC8mYJPTsUv1xCoSVuBZXeZPa8ujCDag2y9xAFbJ5De" ] },
      { "delegate": "tz1RCFbB9GpALpsZtu6J58sb74dm8qe6XBzv",
        "reception_time": "2022-01-16T21:36:38.332-00:00",
        "included_in_blocks":
          [ "BLdSNkmviC8mYJPTsUv1xCoSVuBZXeZPa8ujCDag2y9xAFbJ5De" ] },
      { "delegate": "tz1fR5e22cR7fTSMHm1ZTMRqK38sRwk9U148",
        "reception_time": "2022-01-16T21:36:38.257-00:00",
        "included_in_blocks":
          [ "BLdSNkmviC8mYJPTsUv1xCoSVuBZXeZPa8ujCDag2y9xAFbJ5De" ] },
      { "delegate": "tz1TEc75UKXv4W5cwi14Na3NtqFD51yKQi7h",
        "reception_time": "2022-01-16T21:36:38.236-00:00",
        "included_in_blocks":
          [ "BLdSNkmviC8mYJPTsUv1xCoSVuBZXeZPa8ujCDag2y9xAFbJ5De" ] },
      { "delegate": "tz1UMCB2AHSTwG7YcGNr31CqYCtGN873royv",
        "reception_time": "2022-01-16T21:36:38.400-00:00",
        "included_in_blocks":
          [ "BLdSNkmviC8mYJPTsUv1xCoSVuBZXeZPa8ujCDag2y9xAFbJ5De" ] },
      { "delegate": "tz1NortRftucvAkD1J58L32EhSVrQEWJCEnB",
        "reception_time": "2022-01-16T21:36:37.702-00:00",
        "included_in_blocks":
          [ "BLdSNkmviC8mYJPTsUv1xCoSVuBZXeZPa8ujCDag2y9xAFbJ5De" ] },
      { "delegate": "tz1Ur8V74zqkw9eFh73mEX3uNHdSruuDfV2Q",
        "reception_time": "2022-01-16T21:36:38.139-00:00",
        "included_in_blocks":
          [ "BLdSNkmviC8mYJPTsUv1xCoSVuBZXeZPa8ujCDag2y9xAFbJ5De" ] },
      { "delegate": "tz1NSDFKuRyzHxpfG1AMkyCwEiZ52cbR2mRW",
        "reception_time": "2022-01-16T21:36:38.074-00:00",
        "included_in_blocks":
          [ "BLdSNkmviC8mYJPTsUv1xCoSVuBZXeZPa8ujCDag2y9xAFbJ5De" ] },
      { "delegate": "tz3WMqdzXqRWXwyvj5Hp2H7QEepaUuS7vd9K",
        "reception_time": "2022-01-16T21:36:38.863-00:00",
        "included_in_blocks":
          [ "BLdSNkmviC8mYJPTsUv1xCoSVuBZXeZPa8ujCDag2y9xAFbJ5De" ] },
      { "delegate": "tz1MQJPGNMijnXnVoBENFz9rUhaPt3S7rWoz",
        "reception_time": "2022-01-16T21:36:38.522-00:00",
        "included_in_blocks":
          [ "BLdSNkmviC8mYJPTsUv1xCoSVuBZXeZPa8ujCDag2y9xAFbJ5De" ] },
      { "delegate": "tz1Nf6tsK4G6bBqgSQERy4nUtkHNKUVdh7q1",
        "reception_time": "2022-01-16T21:36:38.261-00:00",
        "included_in_blocks":
          [ "BLdSNkmviC8mYJPTsUv1xCoSVuBZXeZPa8ujCDag2y9xAFbJ5De" ] },
      { "delegate": "tz3S6BBeKgJGXxvLyZ1xzXzMPn11nnFtq5L9",
        "reception_time": "2022-01-16T21:36:37.678-00:00",
        "included_in_blocks":
          [ "BLdSNkmviC8mYJPTsUv1xCoSVuBZXeZPa8ujCDag2y9xAFbJ5De" ] },
      { "delegate": "tz3RDC3Jdn4j15J7bBHZd29EUee9gVB1CxD9",
        "reception_time": "2022-01-16T21:36:37.496-00:00",
        "included_in_blocks":
          [ "BLdSNkmviC8mYJPTsUv1xCoSVuBZXeZPa8ujCDag2y9xAFbJ5De" ] },
      { "delegate": "tz3QT9dHYKDqh563chVa6za8526ys1UKfRfL",
        "reception_time": "2022-01-16T21:36:37.670-00:00",
        "included_in_blocks":
          [ "BLdSNkmviC8mYJPTsUv1xCoSVuBZXeZPa8ujCDag2y9xAFbJ5De" ] },
      { "delegate": "tz1NEKxGEHsFufk87CVZcrqWu8o22qh46GK6",
        "reception_time": "2022-01-16T21:36:38.533-00:00",
        "included_in_blocks":
          [ "BLdSNkmviC8mYJPTsUv1xCoSVuBZXeZPa8ujCDag2y9xAFbJ5De" ] },
      { "delegate": "tz1KfEsrtDaA1sX7vdM4qmEPWuSytuqCDp5j",
        "reception_time": "2022-01-16T21:36:37.976-00:00",
        "included_in_blocks":
          [ "BLdSNkmviC8mYJPTsUv1xCoSVuBZXeZPa8ujCDag2y9xAFbJ5De" ] },
      { "delegate": "tz3QCNyySViKHmeSr45kzDxzchys7NiXCWoa",
        "reception_time": "2022-01-16T21:36:37.282-00:00",
        "included_in_blocks":
          [ "BLdSNkmviC8mYJPTsUv1xCoSVuBZXeZPa8ujCDag2y9xAFbJ5De" ] },
      { "delegate": "tz1S8MNvuFEUsWgjHvi3AxibRBf388NhT1q2",
        "reception_time": "2022-01-16T21:36:38.169-00:00",
        "included_in_blocks":
          [ "BLdSNkmviC8mYJPTsUv1xCoSVuBZXeZPa8ujCDag2y9xAFbJ5De" ] },
      { "delegate": "tz3Zhs2dygr55yHyQyKjntAtY9bgfhLZ4Xj1",
        "reception_time": "2022-01-16T21:36:37.245-00:00",
        "included_in_blocks":
          [ "BLdSNkmviC8mYJPTsUv1xCoSVuBZXeZPa8ujCDag2y9xAFbJ5De" ] },
      { "delegate": "tz3ZbP2pM3nwvXztbuMJwJnDvV5xdpU8UkkD",
        "reception_time": "2022-01-16T21:36:37.169-00:00",
        "included_in_blocks":
          [ "BLdSNkmviC8mYJPTsUv1xCoSVuBZXeZPa8ujCDag2y9xAFbJ5De" ] },
      { "delegate": "tz3bTdwZinP8U1JmSweNzVKhmwafqWmFWRfk",
        "reception_time": "2022-01-16T21:36:37.288-00:00",
        "included_in_blocks":
          [ "BLdSNkmviC8mYJPTsUv1xCoSVuBZXeZPa8ujCDag2y9xAFbJ5De" ] },
      { "delegate": "tz1WCd2jm4uSt4vntk4vSuUWoZQGhLcDuR9q",
        "reception_time": "2022-01-16T21:36:37.148-00:00",
        "included_in_blocks":
          [ "BLdSNkmviC8mYJPTsUv1xCoSVuBZXeZPa8ujCDag2y9xAFbJ5De" ] },
      { "delegate": "tz3NxTnke1acr8o3h5y9ytf5awQBGNJUKzVU",
        "reception_time": "2022-01-16T21:36:37.120-00:00",
        "included_in_blocks":
          [ "BLdSNkmviC8mYJPTsUv1xCoSVuBZXeZPa8ujCDag2y9xAFbJ5De" ] },
      { "delegate": "tz1UtayNgAX8QEJ3NoLptPzoPr9JiH3Cskzz",
        "reception_time": "2022-01-16T21:36:37.888-00:00",
        "included_in_blocks":
          [ "BLdSNkmviC8mYJPTsUv1xCoSVuBZXeZPa8ujCDag2y9xAFbJ5De" ] },
      { "delegate": "tz1V4qCyvPKZ5UeqdH14HN42rxvNPQfc9UZg",
        "reception_time": "2022-01-16T21:36:37.789-00:00",
        "included_in_blocks":
          [ "BLdSNkmviC8mYJPTsUv1xCoSVuBZXeZPa8ujCDag2y9xAFbJ5De" ] },
      { "delegate": "tz3hw2kqXhLUvY65ca1eety2oQTpAvd34R9Q",
        "reception_time": "2022-01-16T21:36:37.037-00:00",
        "included_in_blocks":
          [ "BLdSNkmviC8mYJPTsUv1xCoSVuBZXeZPa8ujCDag2y9xAFbJ5De" ] },
      { "delegate": "tz3RKYFsLuQzKBtmYuLNas7uMu3AsYd4QdsA",
        "reception_time": "2022-01-16T21:36:37.099-00:00",
        "included_in_blocks":
          [ "BLdSNkmviC8mYJPTsUv1xCoSVuBZXeZPa8ujCDag2y9xAFbJ5De" ] },
      { "delegate": "tz3QSGPoRp3Kn7n3vY24eYeu3Peuqo45LQ4D",
        "reception_time": "2022-01-16T21:36:36.956-00:00",
        "included_in_blocks":
          [ "BLdSNkmviC8mYJPTsUv1xCoSVuBZXeZPa8ujCDag2y9xAFbJ5De" ] },
      { "delegate": "tz1UJvHTgpVzcKWhTazGxVcn5wsHru5Gietg",
        "reception_time": "2022-01-16T21:36:37.192-00:00",
        "included_in_blocks":
          [ "BLdSNkmviC8mYJPTsUv1xCoSVuBZXeZPa8ujCDag2y9xAFbJ5De" ] },
      { "delegate": "tz1ei4WtWEMEJekSv8qDnu9PExG6Q8HgRGr3",
        "reception_time": "2022-01-16T21:36:37.614-00:00",
        "included_in_blocks":
          [ "BLdSNkmviC8mYJPTsUv1xCoSVuBZXeZPa8ujCDag2y9xAFbJ5De" ] },
      { "delegate": "tz1iPHM2Xx2hwmzcr1EG1zzrV6oKafVoA91m",
        "reception_time": "2022-01-16T21:36:37.312-00:00",
        "included_in_blocks":
          [ "BLdSNkmviC8mYJPTsUv1xCoSVuBZXeZPa8ujCDag2y9xAFbJ5De" ] },
      { "delegate": "tz3gtoUxdudfBRcNY7iVdKPHCYYX6xdPpoRS",
        "reception_time": "2022-01-16T21:36:36.872-00:00",
        "included_in_blocks":
          [ "BLdSNkmviC8mYJPTsUv1xCoSVuBZXeZPa8ujCDag2y9xAFbJ5De" ] },
      { "delegate": "tz1TzaNn7wSQSP5gYPXCnNzBCpyMiidCq1PX",
        "reception_time": "2022-01-16T21:36:36.853-00:00",
        "included_in_blocks":
          [ "BLdSNkmviC8mYJPTsUv1xCoSVuBZXeZPa8ujCDag2y9xAFbJ5De" ] },
      { "delegate": "tz1VmiY38m3y95HqQLjMwqnMS7sdMfGomzKi",
        "reception_time": "2022-01-16T21:36:37.125-00:00",
        "included_in_blocks":
          [ "BLdSNkmviC8mYJPTsUv1xCoSVuBZXeZPa8ujCDag2y9xAFbJ5De" ] },
      { "delegate": "tz1MJx9vhaNRSimcuXPK2rW4fLccQnDAnVKJ",
        "reception_time": "2022-01-16T21:36:36.789-00:00",
        "included_in_blocks":
          [ "BLdSNkmviC8mYJPTsUv1xCoSVuBZXeZPa8ujCDag2y9xAFbJ5De" ] },
      { "delegate": "tz1LmaFsWRkjr7QMCx5PtV6xTUz3AmEpKQiF",
        "reception_time": "2022-01-16T21:36:37.740-00:00",
        "included_in_blocks":
          [ "BLdSNkmviC8mYJPTsUv1xCoSVuBZXeZPa8ujCDag2y9xAFbJ5De" ] },
      { "delegate": "tz1Ldzz6k1BHdhuKvAtMRX7h5kJSMHESMHLC",
        "reception_time": "2022-01-16T21:36:36.810-00:00",
        "included_in_blocks":
          [ "BLdSNkmviC8mYJPTsUv1xCoSVuBZXeZPa8ujCDag2y9xAFbJ5De" ] },
      { "delegate": "tz1gfArv665EUkSg2ojMBzcbfwuPxAvqPvjo",
        "reception_time": "2022-01-16T21:36:36.974-00:00",
        "included_in_blocks":
          [ "BLdSNkmviC8mYJPTsUv1xCoSVuBZXeZPa8ujCDag2y9xAFbJ5De" ] },
      { "delegate": "tz1irJKkXS2DBWkU1NnmFQx1c1L7pbGg4yhk",
        "reception_time": "2022-01-16T21:36:36.791-00:00",
        "included_in_blocks":
          [ "BLdSNkmviC8mYJPTsUv1xCoSVuBZXeZPa8ujCDag2y9xAFbJ5De" ] },
      { "delegate": "tz1VQnqCCqX4K5sP3FNkVSNKTdCAMJDd3E1n",
        "reception_time": "2022-01-16T21:36:36.781-00:00",
        "included_in_blocks":
          [ "BLdSNkmviC8mYJPTsUv1xCoSVuBZXeZPa8ujCDag2y9xAFbJ5De" ] },
      { "delegate": "tz1gUNyn3hmnEWqkusWPzxRaon1cs7ndWh7h",
        "reception_time": "2022-01-16T21:36:36.805-00:00",
        "included_in_blocks":
          [ "BLdSNkmviC8mYJPTsUv1xCoSVuBZXeZPa8ujCDag2y9xAFbJ5De" ] },
      { "delegate": "tz1eEnQhbwf6trb8Q8mPb2RaPkNk2rN7BKi8",
        "reception_time": "2022-01-16T21:36:36.804-00:00",
        "included_in_blocks":
          [ "BLdSNkmviC8mYJPTsUv1xCoSVuBZXeZPa8ujCDag2y9xAFbJ5De" ] },
      { "delegate": "tz1aXD7Jigrt3PBYSpHSg5Rr33SexMmmM5Ys",
        "reception_time": "2022-01-16T21:36:36.795-00:00",
        "included_in_blocks":
          [ "BLdSNkmviC8mYJPTsUv1xCoSVuBZXeZPa8ujCDag2y9xAFbJ5De" ] },
      { "delegate": "tz1PWCDnz783NNGGQjEFFsHtrcK5yBW4E2rm",
        "reception_time": "2022-01-16T21:36:36.804-00:00",
        "included_in_blocks":
          [ "BLdSNkmviC8mYJPTsUv1xCoSVuBZXeZPa8ujCDag2y9xAFbJ5De" ] },
      { "delegate": "tz1Scdr2HsZiQjc7bHMeBbmDRXYVvdhjJbBh",
        "reception_time": "2022-01-16T21:36:36.784-00:00",
        "included_in_blocks":
          [ "BLdSNkmviC8mYJPTsUv1xCoSVuBZXeZPa8ujCDag2y9xAFbJ5De" ] },
      { "delegate": "tz1RV1MBbZMR68tacosb7Mwj6LkbPSUS1er1",
        "reception_time": "2022-01-16T21:36:36.774-00:00",
        "included_in_blocks":
          [ "BLdSNkmviC8mYJPTsUv1xCoSVuBZXeZPa8ujCDag2y9xAFbJ5De" ] } ] }