{ "blocks":
    [ { "hash": "BLYxMQNu2me2FhdKsujdgwf3QsRJv4sn1Aza8pa3juPC7rFd5Jr",
        "delegate": "tz1ZcTRk5uxD86EFEn1vvNffWWqJy7q5eVhc",
        "reception_time": "2022-01-16T20:21:47.882-00:00",
        "timestamp": "2022-01-16T20:21:40Z" } ],
  "endorsements":
    [ { "delegate": "tz1dbfppLAAxXZNtf2SDps7rch3qfUznKSoK" },
      { "delegate": "tz1ibcPVGK4Y8pcW4BYUsojiHoBKnZbyDGrX" },
      { "delegate": "tz1P2Po7YM526ughEsRbY4oR9zaUPDZjxFrb",
        "reception_time": "2022-01-16T20:21:48.624-00:00",
        "included_in_blocks":
          [ "BLmpSLQr5B6wZPLqQnetLPrTc11BTzXpb7TH4UHtcjyTgQJPUnG" ] },
      { "delegate": "tz1TXzyaKUA8wsWefdSnyaYFnV2M3vCV7er9",
        "reception_time": "2022-01-16T20:21:48.624-00:00",
        "included_in_blocks":
          [ "BLmpSLQr5B6wZPLqQnetLPrTc11BTzXpb7TH4UHtcjyTgQJPUnG" ] },
      { "delegate": "tz1MXFrtZoaXckE41bjUCSjAjAap3AFDSr3N",
        "reception_time": "2022-01-16T20:21:48.627-00:00",
        "included_in_blocks":
          [ "BLmpSLQr5B6wZPLqQnetLPrTc11BTzXpb7TH4UHtcjyTgQJPUnG" ] },
      { "delegate": "tz1VQnqCCqX4K5sP3FNkVSNKTdCAMJDd3E1n",
        "reception_time": "2022-01-16T20:21:48.642-00:00",
        "included_in_blocks":
          [ "BLmpSLQr5B6wZPLqQnetLPrTc11BTzXpb7TH4UHtcjyTgQJPUnG" ] },
      { "delegate": "tz1eEnQhbwf6trb8Q8mPb2RaPkNk2rN7BKi8",
        "reception_time": "2022-01-16T20:21:48.645-00:00",
        "included_in_blocks":
          [ "BLmpSLQr5B6wZPLqQnetLPrTc11BTzXpb7TH4UHtcjyTgQJPUnG" ] },
      { "delegate": "tz1STeamwbp68THcny9zk3LsbG3H36DMvbRK",
        "reception_time": "2022-01-16T20:21:48.648-00:00",
        "included_in_blocks":
          [ "BLmpSLQr5B6wZPLqQnetLPrTc11BTzXpb7TH4UHtcjyTgQJPUnG" ] },
      { "delegate": "tz1Scdr2HsZiQjc7bHMeBbmDRXYVvdhjJbBh",
        "reception_time": "2022-01-16T20:21:48.653-00:00",
        "included_in_blocks":
          [ "BLmpSLQr5B6wZPLqQnetLPrTc11BTzXpb7TH4UHtcjyTgQJPUnG" ] },
      { "delegate": "tz1gUNyn3hmnEWqkusWPzxRaon1cs7ndWh7h",
        "reception_time": "2022-01-16T20:21:48.653-00:00",
        "included_in_blocks":
          [ "BLmpSLQr5B6wZPLqQnetLPrTc11BTzXpb7TH4UHtcjyTgQJPUnG" ] },
      { "delegate": "tz1irJKkXS2DBWkU1NnmFQx1c1L7pbGg4yhk",
        "reception_time": "2022-01-16T20:21:48.655-00:00",
        "included_in_blocks":
          [ "BLmpSLQr5B6wZPLqQnetLPrTc11BTzXpb7TH4UHtcjyTgQJPUnG" ] },
      { "delegate": "tz3adcvQaKXTCg12zbninqo3q8ptKKtDFTLv",
        "reception_time": "2022-01-16T20:21:48.753-00:00",
        "included_in_blocks":
          [ "BLmpSLQr5B6wZPLqQnetLPrTc11BTzXpb7TH4UHtcjyTgQJPUnG" ] },
      { "delegate": "tz1fUyqYH7H4pRHN1roWY17giXhy1RvxjgUV",
        "reception_time": "2022-01-16T20:21:48.841-00:00",
        "included_in_blocks":
          [ "BLmpSLQr5B6wZPLqQnetLPrTc11BTzXpb7TH4UHtcjyTgQJPUnG" ] },
      { "delegate": "tz1UJvHTgpVzcKWhTazGxVcn5wsHru5Gietg",
        "reception_time": "2022-01-16T20:21:48.865-00:00",
        "included_in_blocks":
          [ "BLmpSLQr5B6wZPLqQnetLPrTc11BTzXpb7TH4UHtcjyTgQJPUnG" ] },
      { "delegate": "tz1Ldzz6k1BHdhuKvAtMRX7h5kJSMHESMHLC",
        "reception_time": "2022-01-16T20:21:48.915-00:00",
        "included_in_blocks":
          [ "BLmpSLQr5B6wZPLqQnetLPrTc11BTzXpb7TH4UHtcjyTgQJPUnG" ] },
      { "delegate": "tz1PWCDnz783NNGGQjEFFsHtrcK5yBW4E2rm",
        "reception_time": "2022-01-16T20:21:48.917-00:00",
        "included_in_blocks":
          [ "BLmpSLQr5B6wZPLqQnetLPrTc11BTzXpb7TH4UHtcjyTgQJPUnG" ] },
      { "delegate": "tz1NSDFKuRyzHxpfG1AMkyCwEiZ52cbR2mRW",
        "reception_time": "2022-01-16T20:21:48.922-00:00",
        "included_in_blocks":
          [ "BLmpSLQr5B6wZPLqQnetLPrTc11BTzXpb7TH4UHtcjyTgQJPUnG" ] },
      { "delegate": "tz3QSGPoRp3Kn7n3vY24eYeu3Peuqo45LQ4D",
        "reception_time": "2022-01-16T20:21:49.034-00:00",
        "included_in_blocks":
          [ "BLmpSLQr5B6wZPLqQnetLPrTc11BTzXpb7TH4UHtcjyTgQJPUnG" ] },
      { "delegate": "tz3ZbP2pM3nwvXztbuMJwJnDvV5xdpU8UkkD",
        "reception_time": "2022-01-16T20:21:49.042-00:00",
        "included_in_blocks":
          [ "BLmpSLQr5B6wZPLqQnetLPrTc11BTzXpb7TH4UHtcjyTgQJPUnG" ] },
      { "delegate": "tz1TzaNn7wSQSP5gYPXCnNzBCpyMiidCq1PX",
        "reception_time": "2022-01-16T20:21:49.046-00:00",
        "included_in_blocks":
          [ "BLmpSLQr5B6wZPLqQnetLPrTc11BTzXpb7TH4UHtcjyTgQJPUnG" ] },
      { "delegate": "tz3gtoUxdudfBRcNY7iVdKPHCYYX6xdPpoRS",
        "reception_time": "2022-01-16T20:21:49.052-00:00",
        "included_in_blocks":
          [ "BLmpSLQr5B6wZPLqQnetLPrTc11BTzXpb7TH4UHtcjyTgQJPUnG" ] },
      { "delegate": "tz1VmiY38m3y95HqQLjMwqnMS7sdMfGomzKi",
        "reception_time": "2022-01-16T20:21:49.075-00:00",
        "included_in_blocks":
          [ "BLmpSLQr5B6wZPLqQnetLPrTc11BTzXpb7TH4UHtcjyTgQJPUnG" ] },
      { "delegate": "tz1MQMiZHV8q4tTwUMWmS5Y3kaP6J2136iXr",
        "reception_time": "2022-01-16T20:21:49.150-00:00",
        "included_in_blocks":
          [ "BLmpSLQr5B6wZPLqQnetLPrTc11BTzXpb7TH4UHtcjyTgQJPUnG" ] },
      { "delegate": "tz3S6BBeKgJGXxvLyZ1xzXzMPn11nnFtq5L9",
        "reception_time": "2022-01-16T20:21:49.185-00:00",
        "included_in_blocks":
          [ "BLmpSLQr5B6wZPLqQnetLPrTc11BTzXpb7TH4UHtcjyTgQJPUnG" ] },
      { "delegate": "tz3QT9dHYKDqh563chVa6za8526ys1UKfRfL",
        "reception_time": "2022-01-16T20:21:49.191-00:00",
        "included_in_blocks":
          [ "BLmpSLQr5B6wZPLqQnetLPrTc11BTzXpb7TH4UHtcjyTgQJPUnG" ] },
      { "delegate": "tz1W3VYi3gSt9Xgfw6WNV1aGZRPH2BsskMEY",
        "reception_time": "2022-01-16T20:21:49.193-00:00",
        "included_in_blocks":
          [ "BLmpSLQr5B6wZPLqQnetLPrTc11BTzXpb7TH4UHtcjyTgQJPUnG" ] },
      { "delegate": "tz1iPHM2Xx2hwmzcr1EG1zzrV6oKafVoA91m",
        "reception_time": "2022-01-16T20:21:49.216-00:00",
        "included_in_blocks":
          [ "BLmpSLQr5B6wZPLqQnetLPrTc11BTzXpb7TH4UHtcjyTgQJPUnG" ] },
      { "delegate": "tz3RKYFsLuQzKBtmYuLNas7uMu3AsYd4QdsA",
        "reception_time": "2022-01-16T20:21:49.301-00:00",
        "included_in_blocks":
          [ "BLmpSLQr5B6wZPLqQnetLPrTc11BTzXpb7TH4UHtcjyTgQJPUnG" ] },
      { "delegate": "tz3hw2kqXhLUvY65ca1eety2oQTpAvd34R9Q",
        "reception_time": "2022-01-16T20:21:49.314-00:00",
        "included_in_blocks":
          [ "BLmpSLQr5B6wZPLqQnetLPrTc11BTzXpb7TH4UHtcjyTgQJPUnG" ] },
      { "delegate": "tz3Zhs2dygr55yHyQyKjntAtY9bgfhLZ4Xj1",
        "reception_time": "2022-01-16T20:21:49.374-00:00",
        "included_in_blocks":
          [ "BLmpSLQr5B6wZPLqQnetLPrTc11BTzXpb7TH4UHtcjyTgQJPUnG" ] },
      { "delegate": "tz3iJu5vrKZcsqRPs8yJ61UDoeEXZmtro4qh",
        "reception_time": "2022-01-16T20:21:49.387-00:00",
        "included_in_blocks":
          [ "BLmpSLQr5B6wZPLqQnetLPrTc11BTzXpb7TH4UHtcjyTgQJPUnG" ] },
      { "delegate": "tz1ei4WtWEMEJekSv8qDnu9PExG6Q8HgRGr3",
        "reception_time": "2022-01-16T20:21:49.482-00:00",
        "included_in_blocks":
          [ "BLmpSLQr5B6wZPLqQnetLPrTc11BTzXpb7TH4UHtcjyTgQJPUnG" ] },
      { "delegate": "tz1S8MNvuFEUsWgjHvi3AxibRBf388NhT1q2",
        "reception_time": "2022-01-16T20:21:49.664-00:00",
        "included_in_blocks":
          [ "BLmpSLQr5B6wZPLqQnetLPrTc11BTzXpb7TH4UHtcjyTgQJPUnG" ] },
      { "delegate": "tz1gfArv665EUkSg2ojMBzcbfwuPxAvqPvjo",
        "reception_time": "2022-01-16T20:21:49.687-00:00",
        "included_in_blocks":
          [ "BLmpSLQr5B6wZPLqQnetLPrTc11BTzXpb7TH4UHtcjyTgQJPUnG" ] },
      { "delegate": "tz3bvNMQ95vfAYtG8193ymshqjSvmxiCUuR5",
        "reception_time": "2022-01-16T20:21:49.713-00:00",
        "included_in_blocks":
          [ "BLmpSLQr5B6wZPLqQnetLPrTc11BTzXpb7TH4UHtcjyTgQJPUnG" ] },
      { "delegate": "tz1RCFbB9GpALpsZtu6J58sb74dm8qe6XBzv",
        "reception_time": "2022-01-16T20:21:49.847-00:00",
        "included_in_blocks":
          [ "BLmpSLQr5B6wZPLqQnetLPrTc11BTzXpb7TH4UHtcjyTgQJPUnG" ] },
      { "delegate": "tz3bTdwZinP8U1JmSweNzVKhmwafqWmFWRfk",
        "reception_time": "2022-01-16T20:21:49.864-00:00",
        "included_in_blocks":
          [ "BLmpSLQr5B6wZPLqQnetLPrTc11BTzXpb7TH4UHtcjyTgQJPUnG" ] },
      { "delegate": "tz1Nf6tsK4G6bBqgSQERy4nUtkHNKUVdh7q1",
        "reception_time": "2022-01-16T20:21:49.933-00:00",
        "included_in_blocks":
          [ "BLmpSLQr5B6wZPLqQnetLPrTc11BTzXpb7TH4UHtcjyTgQJPUnG" ] },
      { "delegate": "tz2FCNBrERXtaTtNX6iimR1UJ5JSDxvdHM93",
        "reception_time": "2022-01-16T20:21:49.962-00:00",
        "included_in_blocks":
          [ "BLmpSLQr5B6wZPLqQnetLPrTc11BTzXpb7TH4UHtcjyTgQJPUnG" ] },
      { "delegate": "tz1abmz7jiCV2GH2u81LRrGgAFFgvQgiDiaf",
        "reception_time": "2022-01-16T20:21:50.016-00:00",
        "included_in_blocks":
          [ "BLmpSLQr5B6wZPLqQnetLPrTc11BTzXpb7TH4UHtcjyTgQJPUnG" ] },
      { "delegate": "tz1WBfwbT66FC6BTLexc2BoyCCBM9LG7pnVW",
        "reception_time": "2022-01-16T20:21:50.019-00:00",
        "included_in_blocks":
          [ "BLmpSLQr5B6wZPLqQnetLPrTc11BTzXpb7TH4UHtcjyTgQJPUnG" ] },
      { "delegate": "tz1g8vkmcde6sWKaG2NN9WKzCkDM6Rziq194",
        "reception_time": "2022-01-16T20:21:50.389-00:00",
        "included_in_blocks":
          [ "BLmpSLQr5B6wZPLqQnetLPrTc11BTzXpb7TH4UHtcjyTgQJPUnG" ] },
      { "delegate": "tz1Vd1rXpV8hTHbFXCXN3c3qzCsgcU5BZw1e",
        "reception_time": "2022-01-16T20:21:50.486-00:00",
        "included_in_blocks":
          [ "BLmpSLQr5B6wZPLqQnetLPrTc11BTzXpb7TH4UHtcjyTgQJPUnG" ] },
      { "delegate": "tz1SYq214SCBy9naR6cvycQsYcUGpBqQAE8d",
        "reception_time": "2022-01-16T20:21:50.490-00:00",
        "included_in_blocks":
          [ "BLmpSLQr5B6wZPLqQnetLPrTc11BTzXpb7TH4UHtcjyTgQJPUnG" ] },
      { "delegate": "tz1awXW7wuXy21c66vBudMXQVAPgRnqqwgTH",
        "reception_time": "2022-01-16T20:21:50.525-00:00",
        "included_in_blocks":
          [ "BLmpSLQr5B6wZPLqQnetLPrTc11BTzXpb7TH4UHtcjyTgQJPUnG" ] },
      { "delegate": "tz3UoffC7FG7zfpmvmjUmUeAaHvzdcUvAj6r",
        "reception_time": "2022-01-16T20:21:50.549-00:00",
        "included_in_blocks":
          [ "BLmpSLQr5B6wZPLqQnetLPrTc11BTzXpb7TH4UHtcjyTgQJPUnG" ] },
      { "delegate": "tz1PeZx7FXy7QRuMREGXGxeipb24RsMMzUNe",
        "reception_time": "2022-01-16T20:21:50.600-00:00",
        "included_in_blocks":
          [ "BLmpSLQr5B6wZPLqQnetLPrTc11BTzXpb7TH4UHtcjyTgQJPUnG" ] },
      { "delegate": "tz3NDpRj6WBrJPikcPVHRBEjWKxFw3c6eQPS",
        "reception_time": "2022-01-16T20:21:50.657-00:00",
        "included_in_blocks":
          [ "BLmpSLQr5B6wZPLqQnetLPrTc11BTzXpb7TH4UHtcjyTgQJPUnG" ] },
      { "delegate": "tz3gLTu4Yxj8tPAcriQVUdxv6BY9QyvzU1az",
        "reception_time": "2022-01-16T20:21:50.664-00:00",
        "included_in_blocks":
          [ "BLmpSLQr5B6wZPLqQnetLPrTc11BTzXpb7TH4UHtcjyTgQJPUnG" ] },
      { "delegate": "tz3VEZ4k6a4Wx42iyev6i2aVAptTRLEAivNN",
        "reception_time": "2022-01-16T20:21:50.675-00:00",
        "included_in_blocks":
          [ "BLmpSLQr5B6wZPLqQnetLPrTc11BTzXpb7TH4UHtcjyTgQJPUnG" ] },
      { "delegate": "tz1ZcTRk5uxD86EFEn1vvNffWWqJy7q5eVhc",
        "reception_time": "2022-01-16T20:21:50.918-00:00",
        "included_in_blocks":
          [ "BLmpSLQr5B6wZPLqQnetLPrTc11BTzXpb7TH4UHtcjyTgQJPUnG" ] },
      { "delegate": "tz3RB4aoyjov4KEVRbuhvQ1CKJgBJMWhaeB8",
        "reception_time": "2022-01-16T20:21:50.941-00:00",
        "included_in_blocks":
          [ "BLmpSLQr5B6wZPLqQnetLPrTc11BTzXpb7TH4UHtcjyTgQJPUnG" ] },
      { "delegate": "tz1dRKU4FQ9QRRQPdaH4zCR6gmCmXfcvcgtB",
        "reception_time": "2022-01-16T20:21:50.948-00:00",
        "included_in_blocks":
          [ "BLmpSLQr5B6wZPLqQnetLPrTc11BTzXpb7TH4UHtcjyTgQJPUnG" ] },
      { "delegate": "tz3WMqdzXqRWXwyvj5Hp2H7QEepaUuS7vd9K",
        "reception_time": "2022-01-16T20:21:50.966-00:00",
        "included_in_blocks":
          [ "BLmpSLQr5B6wZPLqQnetLPrTc11BTzXpb7TH4UHtcjyTgQJPUnG" ] },
      { "delegate": "tz1LAJKyGRCheNiLAQQmJ8dXnoKbKgLzxNFp",
        "reception_time": "2022-01-16T20:21:50.968-00:00",
        "included_in_blocks":
          [ "BLmpSLQr5B6wZPLqQnetLPrTc11BTzXpb7TH4UHtcjyTgQJPUnG" ] },
      { "delegate": "tz3RDC3Jdn4j15J7bBHZd29EUee9gVB1CxD9",
        "reception_time": "2022-01-16T20:21:51.021-00:00",
        "included_in_blocks":
          [ "BLmpSLQr5B6wZPLqQnetLPrTc11BTzXpb7TH4UHtcjyTgQJPUnG" ] },
      { "delegate": "tz1dNVDWPf3Q59SdJqnjdnu277iyvReiRS9M",
        "reception_time": "2022-01-16T20:21:51.168-00:00",
        "included_in_blocks":
          [ "BLmpSLQr5B6wZPLqQnetLPrTc11BTzXpb7TH4UHtcjyTgQJPUnG" ] },
      { "delegate": "tz1aRoaRhSpRYvFdyvgWLL6TGyRoGF51wDjM",
        "reception_time": "2022-01-16T20:21:51.859-00:00",
        "included_in_blocks":
          [ "BLmpSLQr5B6wZPLqQnetLPrTc11BTzXpb7TH4UHtcjyTgQJPUnG" ] },
      { "delegate": "tz3NExpXn9aPNZPorRE4SdjJ2RGrfbJgMAaV",
        "reception_time": "2022-01-16T20:21:52.017-00:00",
        "included_in_blocks":
          [ "BLmpSLQr5B6wZPLqQnetLPrTc11BTzXpb7TH4UHtcjyTgQJPUnG" ] },
      { "delegate": "tz1W5VkdB5s7ENMESVBtwyt9kyvLqPcUczRT",
        "reception_time": "2022-01-16T20:21:53.077-00:00",
        "included_in_blocks":
          [ "BLmpSLQr5B6wZPLqQnetLPrTc11BTzXpb7TH4UHtcjyTgQJPUnG" ] },
      { "delegate": "tz1gg5bjopPcr9agjamyu9BbXKLibNc2rbAq",
        "reception_time": "2022-01-16T20:21:53.445-00:00",
        "included_in_blocks":
          [ "BLmpSLQr5B6wZPLqQnetLPrTc11BTzXpb7TH4UHtcjyTgQJPUnG" ] },
      { "delegate": "tz1UMCB2AHSTwG7YcGNr31CqYCtGN873royv",
        "reception_time": "2022-01-16T20:21:54.156-00:00",
        "included_in_blocks":
          [ "BLmpSLQr5B6wZPLqQnetLPrTc11BTzXpb7TH4UHtcjyTgQJPUnG" ] },
      { "delegate": "tz1go7f6mEQfT2xX2LuHAqgnRGN6c2zHPf5c",
        "reception_time": "2022-01-16T20:21:54.809-00:00",
        "included_in_blocks":
          [ "BLmpSLQr5B6wZPLqQnetLPrTc11BTzXpb7TH4UHtcjyTgQJPUnG" ] },
      { "delegate": "tz2BzJTyoQp8fNbfhWD4YQgH9JJHDgSGzpdG",
        "reception_time": "2022-01-16T20:21:55.600-00:00",
        "included_in_blocks":
          [ "BLmpSLQr5B6wZPLqQnetLPrTc11BTzXpb7TH4UHtcjyTgQJPUnG" ] },
      { "delegate": "tz1NpWrAyDL9k2Lmnyxcgr9xuJakbBxdq7FB",
        "reception_time": "2022-01-16T20:21:56.842-00:00",
        "included_in_blocks":
          [ "BLmpSLQr5B6wZPLqQnetLPrTc11BTzXpb7TH4UHtcjyTgQJPUnG" ] },
      { "delegate": "tz3e7LbZvUtoXhpUD1yb6wuFodZpfYRb9nWJ",
        "reception_time": "2022-01-16T20:21:57.864-00:00",
        "included_in_blocks":
          [ "BLmpSLQr5B6wZPLqQnetLPrTc11BTzXpb7TH4UHtcjyTgQJPUnG" ] } ] }