{ "blocks":
    [ { "hash": "BM8p17MPeqVAXAexexLNnrPcnscPdRu72cQwJGAbHuK85eNU5Uf",
        "delegate": "tz3Zhs2dygr55yHyQyKjntAtY9bgfhLZ4Xj1",
        "reception_time": "2022-01-16T21:14:15.894-00:00",
        "timestamp": "2022-01-16T21:14:10Z" } ],
  "endorsements":
    [ { "delegate": "tz1Lhf4J9Qxoe3DZ2nfe8FGDnvVj7oKjnMY6",
        "reception_time": "2022-01-16T21:14:15.789-00:00",
        "errors":
          [ { "kind": "temporary",
              "id": "proto.011-PtHangz2.prefilter.outdated_endorsement" } ],
        "included_in_blocks":
          [ "BLFUghYrvLccfBxhbbgfeA72S5pAzW8oU4mFB4izku6QqKTFMUc" ] },
      { "delegate": "tz1S8e9GgdZG78XJRB3NqabfWeM37GnhZMWQ",
        "reception_time": "2022-01-16T21:14:15.343-00:00",
        "errors":
          [ { "kind": "temporary",
              "id": "proto.011-PtHangz2.prefilter.outdated_endorsement" } ],
        "included_in_blocks":
          [ "BLFUghYrvLccfBxhbbgfeA72S5pAzW8oU4mFB4izku6QqKTFMUc" ] },
      { "delegate": "tz1NdhRv643wLW6zCcRP3VfT24dvDnh7nuh9" },
      { "delegate": "tz1beersuEDv8Z7ngQ825xfbaJNS2EhXnyHR",
        "reception_time": "2022-01-16T21:14:17.231-00:00",
        "included_in_blocks":
          [ "BLFUghYrvLccfBxhbbgfeA72S5pAzW8oU4mFB4izku6QqKTFMUc" ] },
      { "delegate": "tz1Zhv3RkfU2pHrmaiDyxp7kFZpZrUCu1CiF",
        "reception_time": "2022-01-16T21:14:17.234-00:00",
        "included_in_blocks":
          [ "BLFUghYrvLccfBxhbbgfeA72S5pAzW8oU4mFB4izku6QqKTFMUc" ] },
      { "delegate": "tz1irJKkXS2DBWkU1NnmFQx1c1L7pbGg4yhk",
        "reception_time": "2022-01-16T21:14:17.243-00:00",
        "included_in_blocks":
          [ "BLFUghYrvLccfBxhbbgfeA72S5pAzW8oU4mFB4izku6QqKTFMUc" ] },
      { "delegate": "tz1gUNyn3hmnEWqkusWPzxRaon1cs7ndWh7h",
        "reception_time": "2022-01-16T21:14:17.249-00:00",
        "included_in_blocks":
          [ "BLFUghYrvLccfBxhbbgfeA72S5pAzW8oU4mFB4izku6QqKTFMUc" ] },
      { "delegate": "tz1eEnQhbwf6trb8Q8mPb2RaPkNk2rN7BKi8",
        "reception_time": "2022-01-16T21:14:17.283-00:00",
        "included_in_blocks":
          [ "BLFUghYrvLccfBxhbbgfeA72S5pAzW8oU4mFB4izku6QqKTFMUc" ] },
      { "delegate": "tz3Zhs2dygr55yHyQyKjntAtY9bgfhLZ4Xj1",
        "reception_time": "2022-01-16T21:14:17.290-00:00",
        "included_in_blocks":
          [ "BLFUghYrvLccfBxhbbgfeA72S5pAzW8oU4mFB4izku6QqKTFMUc" ] },
      { "delegate": "tz1TXzyaKUA8wsWefdSnyaYFnV2M3vCV7er9",
        "reception_time": "2022-01-16T21:14:17.294-00:00",
        "included_in_blocks":
          [ "BLFUghYrvLccfBxhbbgfeA72S5pAzW8oU4mFB4izku6QqKTFMUc" ] },
      { "delegate": "tz1VQnqCCqX4K5sP3FNkVSNKTdCAMJDd3E1n",
        "reception_time": "2022-01-16T21:14:17.298-00:00",
        "included_in_blocks":
          [ "BLFUghYrvLccfBxhbbgfeA72S5pAzW8oU4mFB4izku6QqKTFMUc" ] },
      { "delegate": "tz3iJu5vrKZcsqRPs8yJ61UDoeEXZmtro4qh",
        "reception_time": "2022-01-16T21:14:17.315-00:00",
        "included_in_blocks":
          [ "BLFUghYrvLccfBxhbbgfeA72S5pAzW8oU4mFB4izku6QqKTFMUc" ] },
      { "delegate": "tz1P2Po7YM526ughEsRbY4oR9zaUPDZjxFrb",
        "reception_time": "2022-01-16T21:14:17.352-00:00",
        "included_in_blocks":
          [ "BLFUghYrvLccfBxhbbgfeA72S5pAzW8oU4mFB4izku6QqKTFMUc" ] },
      { "delegate": "tz1Ldzz6k1BHdhuKvAtMRX7h5kJSMHESMHLC",
        "reception_time": "2022-01-16T21:14:17.355-00:00",
        "included_in_blocks":
          [ "BLFUghYrvLccfBxhbbgfeA72S5pAzW8oU4mFB4izku6QqKTFMUc" ] },
      { "delegate": "tz3QSGPoRp3Kn7n3vY24eYeu3Peuqo45LQ4D",
        "reception_time": "2022-01-16T21:14:17.477-00:00",
        "included_in_blocks":
          [ "BLFUghYrvLccfBxhbbgfeA72S5pAzW8oU4mFB4izku6QqKTFMUc" ] },
      { "delegate": "tz3gtoUxdudfBRcNY7iVdKPHCYYX6xdPpoRS",
        "reception_time": "2022-01-16T21:14:17.486-00:00",
        "included_in_blocks":
          [ "BLFUghYrvLccfBxhbbgfeA72S5pAzW8oU4mFB4izku6QqKTFMUc" ] },
      { "delegate": "tz1VmiY38m3y95HqQLjMwqnMS7sdMfGomzKi",
        "reception_time": "2022-01-16T21:14:17.500-00:00",
        "included_in_blocks":
          [ "BLFUghYrvLccfBxhbbgfeA72S5pAzW8oU4mFB4izku6QqKTFMUc" ] },
      { "delegate": "tz3hw2kqXhLUvY65ca1eety2oQTpAvd34R9Q",
        "reception_time": "2022-01-16T21:14:17.500-00:00",
        "included_in_blocks":
          [ "BLFUghYrvLccfBxhbbgfeA72S5pAzW8oU4mFB4izku6QqKTFMUc" ] },
      { "delegate": "tz3NxTnke1acr8o3h5y9ytf5awQBGNJUKzVU",
        "reception_time": "2022-01-16T21:14:17.509-00:00",
        "included_in_blocks":
          [ "BLFUghYrvLccfBxhbbgfeA72S5pAzW8oU4mFB4izku6QqKTFMUc" ] },
      { "delegate": "tz3RKYFsLuQzKBtmYuLNas7uMu3AsYd4QdsA",
        "reception_time": "2022-01-16T21:14:17.517-00:00",
        "included_in_blocks":
          [ "BLFUghYrvLccfBxhbbgfeA72S5pAzW8oU4mFB4izku6QqKTFMUc" ] },
      { "delegate": "tz3QT9dHYKDqh563chVa6za8526ys1UKfRfL",
        "reception_time": "2022-01-16T21:14:17.528-00:00",
        "included_in_blocks":
          [ "BLFUghYrvLccfBxhbbgfeA72S5pAzW8oU4mFB4izku6QqKTFMUc" ] },
      { "delegate": "tz3ZbP2pM3nwvXztbuMJwJnDvV5xdpU8UkkD",
        "reception_time": "2022-01-16T21:14:17.537-00:00",
        "included_in_blocks":
          [ "BLFUghYrvLccfBxhbbgfeA72S5pAzW8oU4mFB4izku6QqKTFMUc" ] },
      { "delegate": "tz1gcna2xxZj2eNp1LaMyAhVJ49mEFj4FH26",
        "reception_time": "2022-01-16T21:14:17.537-00:00",
        "included_in_blocks":
          [ "BLFUghYrvLccfBxhbbgfeA72S5pAzW8oU4mFB4izku6QqKTFMUc" ] },
      { "delegate": "tz1PWCDnz783NNGGQjEFFsHtrcK5yBW4E2rm",
        "reception_time": "2022-01-16T21:14:17.545-00:00",
        "included_in_blocks":
          [ "BLFUghYrvLccfBxhbbgfeA72S5pAzW8oU4mFB4izku6QqKTFMUc" ] },
      { "delegate": "tz1WCd2jm4uSt4vntk4vSuUWoZQGhLcDuR9q",
        "reception_time": "2022-01-16T21:14:17.603-00:00",
        "included_in_blocks":
          [ "BLFUghYrvLccfBxhbbgfeA72S5pAzW8oU4mFB4izku6QqKTFMUc" ] },
      { "delegate": "tz1gfArv665EUkSg2ojMBzcbfwuPxAvqPvjo",
        "reception_time": "2022-01-16T21:14:17.611-00:00",
        "included_in_blocks":
          [ "BLFUghYrvLccfBxhbbgfeA72S5pAzW8oU4mFB4izku6QqKTFMUc" ] },
      { "delegate": "tz1fb7c66UwePkkfDXz4ajFaBP9hVNLdS7JJ",
        "reception_time": "2022-01-16T21:14:17.635-00:00",
        "included_in_blocks":
          [ "BLFUghYrvLccfBxhbbgfeA72S5pAzW8oU4mFB4izku6QqKTFMUc" ] },
      { "delegate": "tz3QCNyySViKHmeSr45kzDxzchys7NiXCWoa",
        "reception_time": "2022-01-16T21:14:17.657-00:00",
        "included_in_blocks":
          [ "BLFUghYrvLccfBxhbbgfeA72S5pAzW8oU4mFB4izku6QqKTFMUc" ] },
      { "delegate": "tz1S8MNvuFEUsWgjHvi3AxibRBf388NhT1q2",
        "reception_time": "2022-01-16T21:14:17.660-00:00",
        "included_in_blocks":
          [ "BLFUghYrvLccfBxhbbgfeA72S5pAzW8oU4mFB4izku6QqKTFMUc" ] },
      { "delegate": "tz1cSj7fTex3JPd1p1LN1fwek6AV1kH93Wwc",
        "reception_time": "2022-01-16T21:14:17.663-00:00",
        "included_in_blocks":
          [ "BLFUghYrvLccfBxhbbgfeA72S5pAzW8oU4mFB4izku6QqKTFMUc" ] },
      { "delegate": "tz3bTdwZinP8U1JmSweNzVKhmwafqWmFWRfk",
        "reception_time": "2022-01-16T21:14:17.669-00:00",
        "included_in_blocks":
          [ "BLFUghYrvLccfBxhbbgfeA72S5pAzW8oU4mFB4izku6QqKTFMUc" ] },
      { "delegate": "tz1MQMiZHV8q4tTwUMWmS5Y3kaP6J2136iXr",
        "reception_time": "2022-01-16T21:14:17.688-00:00",
        "included_in_blocks":
          [ "BLFUghYrvLccfBxhbbgfeA72S5pAzW8oU4mFB4izku6QqKTFMUc" ] },
      { "delegate": "tz1ei4WtWEMEJekSv8qDnu9PExG6Q8HgRGr3",
        "reception_time": "2022-01-16T21:14:17.785-00:00",
        "included_in_blocks":
          [ "BLFUghYrvLccfBxhbbgfeA72S5pAzW8oU4mFB4izku6QqKTFMUc" ] },
      { "delegate": "tz1g8vkmcde6sWKaG2NN9WKzCkDM6Rziq194",
        "reception_time": "2022-01-16T21:14:17.872-00:00",
        "included_in_blocks":
          [ "BLFUghYrvLccfBxhbbgfeA72S5pAzW8oU4mFB4izku6QqKTFMUc" ] },
      { "delegate": "tz1RQhNh7iB9CZA7i3ifTWNwiGYVffponfbB",
        "reception_time": "2022-01-16T21:14:17.886-00:00",
        "included_in_blocks":
          [ "BLFUghYrvLccfBxhbbgfeA72S5pAzW8oU4mFB4izku6QqKTFMUc" ] },
      { "delegate": "tz1RCFbB9GpALpsZtu6J58sb74dm8qe6XBzv",
        "reception_time": "2022-01-16T21:14:17.950-00:00",
        "included_in_blocks":
          [ "BLFUghYrvLccfBxhbbgfeA72S5pAzW8oU4mFB4izku6QqKTFMUc" ] },
      { "delegate": "tz1aDiEJf9ztRrAJEXZfcG3CKimoKsGhwVAi",
        "reception_time": "2022-01-16T21:14:18.005-00:00",
        "included_in_blocks":
          [ "BLFUghYrvLccfBxhbbgfeA72S5pAzW8oU4mFB4izku6QqKTFMUc" ] },
      { "delegate": "tz1TEc75UKXv4W5cwi14Na3NtqFD51yKQi7h",
        "reception_time": "2022-01-16T21:14:18.031-00:00",
        "included_in_blocks":
          [ "BLFUghYrvLccfBxhbbgfeA72S5pAzW8oU4mFB4izku6QqKTFMUc" ] },
      { "delegate": "tz2FCNBrERXtaTtNX6iimR1UJ5JSDxvdHM93",
        "reception_time": "2022-01-16T21:14:18.287-00:00",
        "included_in_blocks":
          [ "BLFUghYrvLccfBxhbbgfeA72S5pAzW8oU4mFB4izku6QqKTFMUc" ] },
      { "delegate": "tz1SYq214SCBy9naR6cvycQsYcUGpBqQAE8d",
        "reception_time": "2022-01-16T21:14:18.438-00:00",
        "included_in_blocks":
          [ "BLFUghYrvLccfBxhbbgfeA72S5pAzW8oU4mFB4izku6QqKTFMUc" ] },
      { "delegate": "tz3WMqdzXqRWXwyvj5Hp2H7QEepaUuS7vd9K",
        "reception_time": "2022-01-16T21:14:18.496-00:00",
        "included_in_blocks":
          [ "BLFUghYrvLccfBxhbbgfeA72S5pAzW8oU4mFB4izku6QqKTFMUc" ] },
      { "delegate": "tz1eE4ERseiJfLTy3ydsdiitpCMbRRHEGhqM",
        "delegate_alias": "boutiger",
        "reception_time": "2022-01-16T21:14:18.503-00:00",
        "included_in_blocks":
          [ "BLFUghYrvLccfBxhbbgfeA72S5pAzW8oU4mFB4izku6QqKTFMUc" ] },
      { "delegate": "tz1Nf6tsK4G6bBqgSQERy4nUtkHNKUVdh7q1",
        "reception_time": "2022-01-16T21:14:18.606-00:00",
        "included_in_blocks":
          [ "BLFUghYrvLccfBxhbbgfeA72S5pAzW8oU4mFB4izku6QqKTFMUc" ] },
      { "delegate": "tz3RDC3Jdn4j15J7bBHZd29EUee9gVB1CxD9",
        "reception_time": "2022-01-16T21:14:18.701-00:00",
        "included_in_blocks":
          [ "BLFUghYrvLccfBxhbbgfeA72S5pAzW8oU4mFB4izku6QqKTFMUc" ] },
      { "delegate": "tz3VEZ4k6a4Wx42iyev6i2aVAptTRLEAivNN",
        "reception_time": "2022-01-16T21:14:18.808-00:00",
        "included_in_blocks":
          [ "BLFUghYrvLccfBxhbbgfeA72S5pAzW8oU4mFB4izku6QqKTFMUc" ] },
      { "delegate": "tz3NDpRj6WBrJPikcPVHRBEjWKxFw3c6eQPS",
        "reception_time": "2022-01-16T21:14:18.820-00:00",
        "included_in_blocks":
          [ "BLFUghYrvLccfBxhbbgfeA72S5pAzW8oU4mFB4izku6QqKTFMUc" ] },
      { "delegate": "tz3bvNMQ95vfAYtG8193ymshqjSvmxiCUuR5",
        "reception_time": "2022-01-16T21:14:18.860-00:00",
        "included_in_blocks":
          [ "BLFUghYrvLccfBxhbbgfeA72S5pAzW8oU4mFB4izku6QqKTFMUc" ] },
      { "delegate": "tz1TRqbYbUf2GyrjErf3hBzgBJPzW8y36qEs",
        "reception_time": "2022-01-16T21:14:18.886-00:00",
        "included_in_blocks":
          [ "BLFUghYrvLccfBxhbbgfeA72S5pAzW8oU4mFB4izku6QqKTFMUc" ] },
      { "delegate": "tz3RB4aoyjov4KEVRbuhvQ1CKJgBJMWhaeB8",
        "reception_time": "2022-01-16T21:14:18.933-00:00",
        "included_in_blocks":
          [ "BLFUghYrvLccfBxhbbgfeA72S5pAzW8oU4mFB4izku6QqKTFMUc" ] },
      { "delegate": "tz1abmz7jiCV2GH2u81LRrGgAFFgvQgiDiaf",
        "reception_time": "2022-01-16T21:14:18.964-00:00",
        "included_in_blocks":
          [ "BLFUghYrvLccfBxhbbgfeA72S5pAzW8oU4mFB4izku6QqKTFMUc" ] },
      { "delegate": "tz1dNVDWPf3Q59SdJqnjdnu277iyvReiRS9M",
        "reception_time": "2022-01-16T21:14:19.135-00:00",
        "included_in_blocks":
          [ "BLFUghYrvLccfBxhbbgfeA72S5pAzW8oU4mFB4izku6QqKTFMUc" ] },
      { "delegate": "tz1dRKU4FQ9QRRQPdaH4zCR6gmCmXfcvcgtB",
        "reception_time": "2022-01-16T21:14:19.312-00:00",
        "included_in_blocks":
          [ "BLFUghYrvLccfBxhbbgfeA72S5pAzW8oU4mFB4izku6QqKTFMUc" ] },
      { "delegate": "tz1awXW7wuXy21c66vBudMXQVAPgRnqqwgTH",
        "reception_time": "2022-01-16T21:14:19.347-00:00",
        "included_in_blocks":
          [ "BLFUghYrvLccfBxhbbgfeA72S5pAzW8oU4mFB4izku6QqKTFMUc" ] },
      { "delegate": "tz3UoffC7FG7zfpmvmjUmUeAaHvzdcUvAj6r",
        "reception_time": "2022-01-16T21:14:19.645-00:00",
        "included_in_blocks":
          [ "BLFUghYrvLccfBxhbbgfeA72S5pAzW8oU4mFB4izku6QqKTFMUc" ] },
      { "delegate": "tz3NExpXn9aPNZPorRE4SdjJ2RGrfbJgMAaV",
        "reception_time": "2022-01-16T21:14:20.003-00:00",
        "included_in_blocks":
          [ "BLFUghYrvLccfBxhbbgfeA72S5pAzW8oU4mFB4izku6QqKTFMUc" ] },
      { "delegate": "tz1aRoaRhSpRYvFdyvgWLL6TGyRoGF51wDjM",
        "reception_time": "2022-01-16T21:14:20.034-00:00",
        "included_in_blocks":
          [ "BLFUghYrvLccfBxhbbgfeA72S5pAzW8oU4mFB4izku6QqKTFMUc" ] },
      { "delegate": "tz1ZcTRk5uxD86EFEn1vvNffWWqJy7q5eVhc",
        "reception_time": "2022-01-16T21:14:20.204-00:00",
        "included_in_blocks":
          [ "BLFUghYrvLccfBxhbbgfeA72S5pAzW8oU4mFB4izku6QqKTFMUc" ] },
      { "delegate": "tz1PFeoTuFen8jAMRHajBySNyCwLmY5RqF9M",
        "reception_time": "2022-01-16T21:14:20.595-00:00",
        "included_in_blocks":
          [ "BLFUghYrvLccfBxhbbgfeA72S5pAzW8oU4mFB4izku6QqKTFMUc" ] },
      { "delegate": "tz1W5VkdB5s7ENMESVBtwyt9kyvLqPcUczRT",
        "reception_time": "2022-01-16T21:14:21.707-00:00",
        "included_in_blocks":
          [ "BLFUghYrvLccfBxhbbgfeA72S5pAzW8oU4mFB4izku6QqKTFMUc" ] },
      { "delegate": "tz2BzJTyoQp8fNbfhWD4YQgH9JJHDgSGzpdG",
        "reception_time": "2022-01-16T21:14:25.385-00:00",
        "included_in_blocks":
          [ "BLFUghYrvLccfBxhbbgfeA72S5pAzW8oU4mFB4izku6QqKTFMUc" ] },
      { "delegate": "tz3e7LbZvUtoXhpUD1yb6wuFodZpfYRb9nWJ",
        "reception_time": "2022-01-16T21:14:25.833-00:00",
        "included_in_blocks":
          [ "BLFUghYrvLccfBxhbbgfeA72S5pAzW8oU4mFB4izku6QqKTFMUc" ] } ] }