{ "blocks":
    [ { "hash": "BLauzWk3TM5Qoqj88jzPm7fbRoyymBdav75VR6Rs6xn934pMYCw",
        "delegate": "tz3RB4aoyjov4KEVRbuhvQ1CKJgBJMWhaeB8",
        "reception_time": "2022-01-16T18:40:41.034-00:00",
        "timestamp": "2022-01-16T18:40:30Z" } ],
  "endorsements":
    [ { "delegate": "tz1ibcPVGK4Y8pcW4BYUsojiHoBKnZbyDGrX" },
      { "delegate": "tz1dbfppLAAxXZNtf2SDps7rch3qfUznKSoK" },
      { "delegate": "tz1RjoHc98dBoqaH2jawF62XNKh7YsHwbkEv" },
      { "delegate": "tz1NpWrAyDL9k2Lmnyxcgr9xuJakbBxdq7FB",
        "reception_time": "2022-01-16T18:40:54.321-00:00",
        "included_in_blocks":
          [ "BLjSUXDnDefZhU9npRDofRKzn3tXrDGeJx2LYsCThP24k23HUPP" ] },
      { "delegate": "tz1Yjryh3tpFHQG73dofJNatR21KUdRDu7mH",
        "reception_time": "2022-01-16T18:40:49.193-00:00",
        "included_in_blocks":
          [ "BLjSUXDnDefZhU9npRDofRKzn3tXrDGeJx2LYsCThP24k23HUPP" ] },
      { "delegate": "tz3e7LbZvUtoXhpUD1yb6wuFodZpfYRb9nWJ",
        "reception_time": "2022-01-16T18:40:48.565-00:00",
        "included_in_blocks":
          [ "BLjSUXDnDefZhU9npRDofRKzn3tXrDGeJx2LYsCThP24k23HUPP" ] },
      { "delegate": "tz1T7duV5gZWSTq4YpBGbXNLTfznCLDrFxvs",
        "reception_time": "2022-01-16T18:40:44.916-00:00",
        "included_in_blocks":
          [ "BLjSUXDnDefZhU9npRDofRKzn3tXrDGeJx2LYsCThP24k23HUPP" ] },
      { "delegate": "tz3UoffC7FG7zfpmvmjUmUeAaHvzdcUvAj6r",
        "reception_time": "2022-01-16T18:40:44.663-00:00",
        "included_in_blocks":
          [ "BLjSUXDnDefZhU9npRDofRKzn3tXrDGeJx2LYsCThP24k23HUPP" ] },
      { "delegate": "tz1dRKU4FQ9QRRQPdaH4zCR6gmCmXfcvcgtB",
        "reception_time": "2022-01-16T18:40:44.720-00:00",
        "included_in_blocks":
          [ "BLjSUXDnDefZhU9npRDofRKzn3tXrDGeJx2LYsCThP24k23HUPP" ] },
      { "delegate": "tz1awXW7wuXy21c66vBudMXQVAPgRnqqwgTH",
        "reception_time": "2022-01-16T18:40:44.607-00:00",
        "included_in_blocks":
          [ "BLjSUXDnDefZhU9npRDofRKzn3tXrDGeJx2LYsCThP24k23HUPP" ] },
      { "delegate": "tz3NExpXn9aPNZPorRE4SdjJ2RGrfbJgMAaV",
        "reception_time": "2022-01-16T18:40:44.528-00:00",
        "included_in_blocks":
          [ "BLjSUXDnDefZhU9npRDofRKzn3tXrDGeJx2LYsCThP24k23HUPP" ] },
      { "delegate": "tz1cYufsxHXJcvANhvS55h3aY32a9BAFB494",
        "reception_time": "2022-01-16T18:40:44.488-00:00",
        "included_in_blocks":
          [ "BLjSUXDnDefZhU9npRDofRKzn3tXrDGeJx2LYsCThP24k23HUPP" ] },
      { "delegate": "tz3bvNMQ95vfAYtG8193ymshqjSvmxiCUuR5",
        "reception_time": "2022-01-16T18:40:44.208-00:00",
        "included_in_blocks":
          [ "BLjSUXDnDefZhU9npRDofRKzn3tXrDGeJx2LYsCThP24k23HUPP" ] },
      { "delegate": "tz1aRoaRhSpRYvFdyvgWLL6TGyRoGF51wDjM",
        "reception_time": "2022-01-16T18:40:44.190-00:00",
        "included_in_blocks":
          [ "BLjSUXDnDefZhU9npRDofRKzn3tXrDGeJx2LYsCThP24k23HUPP" ] },
      { "delegate": "tz1WctSwL49BZtdWAQ75NY6vr4xsAx6oKdah",
        "reception_time": "2022-01-16T18:40:44.250-00:00",
        "included_in_blocks":
          [ "BLjSUXDnDefZhU9npRDofRKzn3tXrDGeJx2LYsCThP24k23HUPP" ] },
      { "delegate": "tz3RDC3Jdn4j15J7bBHZd29EUee9gVB1CxD9",
        "reception_time": "2022-01-16T18:40:44.069-00:00",
        "included_in_blocks":
          [ "BLjSUXDnDefZhU9npRDofRKzn3tXrDGeJx2LYsCThP24k23HUPP" ] },
      { "delegate": "tz1V3yg82mcrPJbegqVCPn6bC8w1CSTRp3f8",
        "reception_time": "2022-01-16T18:40:44.076-00:00",
        "included_in_blocks":
          [ "BLjSUXDnDefZhU9npRDofRKzn3tXrDGeJx2LYsCThP24k23HUPP" ] },
      { "delegate": "tz3VEZ4k6a4Wx42iyev6i2aVAptTRLEAivNN",
        "reception_time": "2022-01-16T18:40:44.055-00:00",
        "included_in_blocks":
          [ "BLjSUXDnDefZhU9npRDofRKzn3tXrDGeJx2LYsCThP24k23HUPP" ] },
      { "delegate": "tz1TRqbYbUf2GyrjErf3hBzgBJPzW8y36qEs",
        "reception_time": "2022-01-16T18:40:43.885-00:00",
        "included_in_blocks":
          [ "BLjSUXDnDefZhU9npRDofRKzn3tXrDGeJx2LYsCThP24k23HUPP" ] },
      { "delegate": "tz1g8vkmcde6sWKaG2NN9WKzCkDM6Rziq194",
        "reception_time": "2022-01-16T18:40:43.900-00:00",
        "included_in_blocks":
          [ "BLjSUXDnDefZhU9npRDofRKzn3tXrDGeJx2LYsCThP24k23HUPP" ] },
      { "delegate": "tz3NDpRj6WBrJPikcPVHRBEjWKxFw3c6eQPS",
        "reception_time": "2022-01-16T18:40:43.878-00:00",
        "included_in_blocks":
          [ "BLjSUXDnDefZhU9npRDofRKzn3tXrDGeJx2LYsCThP24k23HUPP" ] },
      { "delegate": "tz1TEc75UKXv4W5cwi14Na3NtqFD51yKQi7h",
        "reception_time": "2022-01-16T18:40:43.746-00:00",
        "included_in_blocks":
          [ "BLjSUXDnDefZhU9npRDofRKzn3tXrDGeJx2LYsCThP24k23HUPP" ] },
      { "delegate": "tz1SohptP53wDPZhzTWzDUFAUcWF6DMBpaJV",
        "reception_time": "2022-01-16T18:40:43.641-00:00",
        "included_in_blocks":
          [ "BLjSUXDnDefZhU9npRDofRKzn3tXrDGeJx2LYsCThP24k23HUPP" ] },
      { "delegate": "tz3WMqdzXqRWXwyvj5Hp2H7QEepaUuS7vd9K",
        "reception_time": "2022-01-16T18:40:43.627-00:00",
        "included_in_blocks":
          [ "BLjSUXDnDefZhU9npRDofRKzn3tXrDGeJx2LYsCThP24k23HUPP" ] },
      { "delegate": "tz1WBfwbT66FC6BTLexc2BoyCCBM9LG7pnVW",
        "reception_time": "2022-01-16T18:40:43.495-00:00",
        "included_in_blocks":
          [ "BLjSUXDnDefZhU9npRDofRKzn3tXrDGeJx2LYsCThP24k23HUPP" ] },
      { "delegate": "tz1RQhNh7iB9CZA7i3ifTWNwiGYVffponfbB",
        "reception_time": "2022-01-16T18:40:43.351-00:00",
        "included_in_blocks":
          [ "BLjSUXDnDefZhU9npRDofRKzn3tXrDGeJx2LYsCThP24k23HUPP" ] },
      { "delegate": "tz1NEKxGEHsFufk87CVZcrqWu8o22qh46GK6",
        "reception_time": "2022-01-16T18:40:43.471-00:00",
        "included_in_blocks":
          [ "BLjSUXDnDefZhU9npRDofRKzn3tXrDGeJx2LYsCThP24k23HUPP" ] },
      { "delegate": "tz1Nf6tsK4G6bBqgSQERy4nUtkHNKUVdh7q1",
        "reception_time": "2022-01-16T18:40:43.322-00:00",
        "included_in_blocks":
          [ "BLjSUXDnDefZhU9npRDofRKzn3tXrDGeJx2LYsCThP24k23HUPP" ] },
      { "delegate": "tz1a1J3AGjJTAyBqWWSqFuUazUDV2TtD6hMy",
        "reception_time": "2022-01-16T18:40:43.433-00:00",
        "included_in_blocks":
          [ "BLjSUXDnDefZhU9npRDofRKzn3tXrDGeJx2LYsCThP24k23HUPP" ] },
      { "delegate": "tz1RCFbB9GpALpsZtu6J58sb74dm8qe6XBzv",
        "reception_time": "2022-01-16T18:40:43.282-00:00",
        "included_in_blocks":
          [ "BLjSUXDnDefZhU9npRDofRKzn3tXrDGeJx2LYsCThP24k23HUPP" ] },
      { "delegate": "tz1ei4WtWEMEJekSv8qDnu9PExG6Q8HgRGr3",
        "reception_time": "2022-01-16T18:40:43.412-00:00",
        "included_in_blocks":
          [ "BLjSUXDnDefZhU9npRDofRKzn3tXrDGeJx2LYsCThP24k23HUPP" ] },
      { "delegate": "tz1Tnjaxk6tbAeC2TmMApPh8UsrEVQvhHvx5",
        "reception_time": "2022-01-16T18:40:43.246-00:00",
        "included_in_blocks":
          [ "BLjSUXDnDefZhU9npRDofRKzn3tXrDGeJx2LYsCThP24k23HUPP" ] },
      { "delegate": "tz1Ldzz6k1BHdhuKvAtMRX7h5kJSMHESMHLC",
        "reception_time": "2022-01-16T18:40:43.158-00:00",
        "included_in_blocks":
          [ "BLjSUXDnDefZhU9npRDofRKzn3tXrDGeJx2LYsCThP24k23HUPP" ] },
      { "delegate": "tz2FCNBrERXtaTtNX6iimR1UJ5JSDxvdHM93",
        "reception_time": "2022-01-16T18:40:43.279-00:00",
        "included_in_blocks":
          [ "BLjSUXDnDefZhU9npRDofRKzn3tXrDGeJx2LYsCThP24k23HUPP" ] },
      { "delegate": "tz1V4qCyvPKZ5UeqdH14HN42rxvNPQfc9UZg",
        "reception_time": "2022-01-16T18:40:43.153-00:00",
        "included_in_blocks":
          [ "BLjSUXDnDefZhU9npRDofRKzn3tXrDGeJx2LYsCThP24k23HUPP" ] },
      { "delegate": "tz1LmaFsWRkjr7QMCx5PtV6xTUz3AmEpKQiF",
        "reception_time": "2022-01-16T18:40:43.002-00:00",
        "included_in_blocks":
          [ "BLjSUXDnDefZhU9npRDofRKzn3tXrDGeJx2LYsCThP24k23HUPP" ] },
      { "delegate": "tz3adcvQaKXTCg12zbninqo3q8ptKKtDFTLv",
        "reception_time": "2022-01-16T18:40:42.866-00:00",
        "included_in_blocks":
          [ "BLjSUXDnDefZhU9npRDofRKzn3tXrDGeJx2LYsCThP24k23HUPP" ] },
      { "delegate": "tz3bTdwZinP8U1JmSweNzVKhmwafqWmFWRfk",
        "reception_time": "2022-01-16T18:40:42.778-00:00",
        "included_in_blocks":
          [ "BLjSUXDnDefZhU9npRDofRKzn3tXrDGeJx2LYsCThP24k23HUPP" ] },
      { "delegate": "tz1bHzftcTKZMTZgLLtnrXydCm6UEqf4ivca",
        "reception_time": "2022-01-16T18:40:42.783-00:00",
        "included_in_blocks":
          [ "BLjSUXDnDefZhU9npRDofRKzn3tXrDGeJx2LYsCThP24k23HUPP" ] },
      { "delegate": "tz1S8MNvuFEUsWgjHvi3AxibRBf388NhT1q2",
        "reception_time": "2022-01-16T18:40:42.801-00:00",
        "included_in_blocks":
          [ "BLjSUXDnDefZhU9npRDofRKzn3tXrDGeJx2LYsCThP24k23HUPP" ] },
      { "delegate": "tz1PWCDnz783NNGGQjEFFsHtrcK5yBW4E2rm",
        "reception_time": "2022-01-16T18:40:42.848-00:00",
        "included_in_blocks":
          [ "BLjSUXDnDefZhU9npRDofRKzn3tXrDGeJx2LYsCThP24k23HUPP" ] },
      { "delegate": "tz1iPHM2Xx2hwmzcr1EG1zzrV6oKafVoA91m",
        "reception_time": "2022-01-16T18:40:42.688-00:00",
        "included_in_blocks":
          [ "BLjSUXDnDefZhU9npRDofRKzn3tXrDGeJx2LYsCThP24k23HUPP" ] },
      { "delegate": "tz1ia6jze3LrBGWJkaDmZ7ThJpPsYWh8D398",
        "reception_time": "2022-01-16T18:40:42.590-00:00",
        "included_in_blocks":
          [ "BLjSUXDnDefZhU9npRDofRKzn3tXrDGeJx2LYsCThP24k23HUPP" ] },
      { "delegate": "tz1MQJPGNMijnXnVoBENFz9rUhaPt3S7rWoz",
        "reception_time": "2022-01-16T18:40:42.642-00:00",
        "included_in_blocks":
          [ "BLjSUXDnDefZhU9npRDofRKzn3tXrDGeJx2LYsCThP24k23HUPP" ] },
      { "delegate": "tz1gfArv665EUkSg2ojMBzcbfwuPxAvqPvjo",
        "reception_time": "2022-01-16T18:40:42.630-00:00",
        "included_in_blocks":
          [ "BLjSUXDnDefZhU9npRDofRKzn3tXrDGeJx2LYsCThP24k23HUPP" ] },
      { "delegate": "tz3RB4aoyjov4KEVRbuhvQ1CKJgBJMWhaeB8",
        "reception_time": "2022-01-16T18:40:42.566-00:00",
        "included_in_blocks":
          [ "BLjSUXDnDefZhU9npRDofRKzn3tXrDGeJx2LYsCThP24k23HUPP" ] },
      { "delegate": "tz1WCd2jm4uSt4vntk4vSuUWoZQGhLcDuR9q",
        "reception_time": "2022-01-16T18:40:42.392-00:00",
        "included_in_blocks":
          [ "BLjSUXDnDefZhU9npRDofRKzn3tXrDGeJx2LYsCThP24k23HUPP" ] },
      { "delegate": "tz3QT9dHYKDqh563chVa6za8526ys1UKfRfL",
        "reception_time": "2022-01-16T18:40:42.336-00:00",
        "included_in_blocks":
          [ "BLjSUXDnDefZhU9npRDofRKzn3tXrDGeJx2LYsCThP24k23HUPP" ] },
      { "delegate": "tz3S6BBeKgJGXxvLyZ1xzXzMPn11nnFtq5L9",
        "reception_time": "2022-01-16T18:40:42.359-00:00",
        "included_in_blocks":
          [ "BLjSUXDnDefZhU9npRDofRKzn3tXrDGeJx2LYsCThP24k23HUPP" ] },
      { "delegate": "tz1VmiY38m3y95HqQLjMwqnMS7sdMfGomzKi",
        "reception_time": "2022-01-16T18:40:42.346-00:00",
        "included_in_blocks":
          [ "BLjSUXDnDefZhU9npRDofRKzn3tXrDGeJx2LYsCThP24k23HUPP" ] },
      { "delegate": "tz1fUyqYH7H4pRHN1roWY17giXhy1RvxjgUV",
        "reception_time": "2022-01-16T18:40:42.314-00:00",
        "included_in_blocks":
          [ "BLjSUXDnDefZhU9npRDofRKzn3tXrDGeJx2LYsCThP24k23HUPP" ] },
      { "delegate": "tz1gUNyn3hmnEWqkusWPzxRaon1cs7ndWh7h",
        "reception_time": "2022-01-16T18:40:42.372-00:00",
        "included_in_blocks":
          [ "BLjSUXDnDefZhU9npRDofRKzn3tXrDGeJx2LYsCThP24k23HUPP" ] },
      { "delegate": "tz1VQnqCCqX4K5sP3FNkVSNKTdCAMJDd3E1n",
        "reception_time": "2022-01-16T18:40:42.296-00:00",
        "included_in_blocks":
          [ "BLjSUXDnDefZhU9npRDofRKzn3tXrDGeJx2LYsCThP24k23HUPP" ] },
      { "delegate": "tz1MQMiZHV8q4tTwUMWmS5Y3kaP6J2136iXr",
        "reception_time": "2022-01-16T18:40:42.363-00:00",
        "included_in_blocks":
          [ "BLjSUXDnDefZhU9npRDofRKzn3tXrDGeJx2LYsCThP24k23HUPP" ] },
      { "delegate": "tz1TzaNn7wSQSP5gYPXCnNzBCpyMiidCq1PX",
        "reception_time": "2022-01-16T18:40:42.162-00:00",
        "included_in_blocks":
          [ "BLjSUXDnDefZhU9npRDofRKzn3tXrDGeJx2LYsCThP24k23HUPP" ] },
      { "delegate": "tz3hw2kqXhLUvY65ca1eety2oQTpAvd34R9Q",
        "reception_time": "2022-01-16T18:40:42.140-00:00",
        "included_in_blocks":
          [ "BLjSUXDnDefZhU9npRDofRKzn3tXrDGeJx2LYsCThP24k23HUPP" ] },
      { "delegate": "tz3iJu5vrKZcsqRPs8yJ61UDoeEXZmtro4qh",
        "reception_time": "2022-01-16T18:40:42.186-00:00",
        "included_in_blocks":
          [ "BLjSUXDnDefZhU9npRDofRKzn3tXrDGeJx2LYsCThP24k23HUPP" ] },
      { "delegate": "tz3RKYFsLuQzKBtmYuLNas7uMu3AsYd4QdsA",
        "reception_time": "2022-01-16T18:40:42.097-00:00",
        "included_in_blocks":
          [ "BLjSUXDnDefZhU9npRDofRKzn3tXrDGeJx2LYsCThP24k23HUPP" ] },
      { "delegate": "tz3ZbP2pM3nwvXztbuMJwJnDvV5xdpU8UkkD",
        "reception_time": "2022-01-16T18:40:42.074-00:00",
        "included_in_blocks":
          [ "BLjSUXDnDefZhU9npRDofRKzn3tXrDGeJx2LYsCThP24k23HUPP" ] },
      { "delegate": "tz3NxTnke1acr8o3h5y9ytf5awQBGNJUKzVU",
        "reception_time": "2022-01-16T18:40:42.128-00:00",
        "included_in_blocks":
          [ "BLjSUXDnDefZhU9npRDofRKzn3tXrDGeJx2LYsCThP24k23HUPP" ] },
      { "delegate": "tz3QSGPoRp3Kn7n3vY24eYeu3Peuqo45LQ4D",
        "reception_time": "2022-01-16T18:40:41.907-00:00",
        "included_in_blocks":
          [ "BLjSUXDnDefZhU9npRDofRKzn3tXrDGeJx2LYsCThP24k23HUPP" ] },
      { "delegate": "tz3gtoUxdudfBRcNY7iVdKPHCYYX6xdPpoRS",
        "reception_time": "2022-01-16T18:40:42.000-00:00",
        "included_in_blocks":
          [ "BLjSUXDnDefZhU9npRDofRKzn3tXrDGeJx2LYsCThP24k23HUPP" ] },
      { "delegate": "tz1NMdMmWZN8QPB8pY4ddncACDg1cHi1xD2e",
        "reception_time": "2022-01-16T18:40:41.839-00:00",
        "included_in_blocks":
          [ "BLjSUXDnDefZhU9npRDofRKzn3tXrDGeJx2LYsCThP24k23HUPP" ] },
      { "delegate": "tz1RV1MBbZMR68tacosb7Mwj6LkbPSUS1er1",
        "reception_time": "2022-01-16T18:40:41.915-00:00",
        "included_in_blocks":
          [ "BLjSUXDnDefZhU9npRDofRKzn3tXrDGeJx2LYsCThP24k23HUPP" ] },
      { "delegate": "tz1ZPh7XfUaJXUDvkrBxmS1BjEM1i62hiPpM",
        "reception_time": "2022-01-16T18:40:41.884-00:00",
        "included_in_blocks":
          [ "BLjSUXDnDefZhU9npRDofRKzn3tXrDGeJx2LYsCThP24k23HUPP" ] },
      { "delegate": "tz1beersuEDv8Z7ngQ825xfbaJNS2EhXnyHR",
        "reception_time": "2022-01-16T18:40:41.712-00:00",
        "included_in_blocks":
          [ "BLjSUXDnDefZhU9npRDofRKzn3tXrDGeJx2LYsCThP24k23HUPP" ] },
      { "delegate": "tz1eEnQhbwf6trb8Q8mPb2RaPkNk2rN7BKi8",
        "reception_time": "2022-01-16T18:40:41.716-00:00",
        "included_in_blocks":
          [ "BLjSUXDnDefZhU9npRDofRKzn3tXrDGeJx2LYsCThP24k23HUPP" ] },
      { "delegate": "tz1Zhv3RkfU2pHrmaiDyxp7kFZpZrUCu1CiF",
        "reception_time": "2022-01-16T18:40:41.705-00:00",
        "included_in_blocks":
          [ "BLjSUXDnDefZhU9npRDofRKzn3tXrDGeJx2LYsCThP24k23HUPP" ] },
      { "delegate": "tz1Scdr2HsZiQjc7bHMeBbmDRXYVvdhjJbBh",
        "reception_time": "2022-01-16T18:40:41.700-00:00",
        "included_in_blocks":
          [ "BLjSUXDnDefZhU9npRDofRKzn3tXrDGeJx2LYsCThP24k23HUPP" ] },
      { "delegate": "tz1irJKkXS2DBWkU1NnmFQx1c1L7pbGg4yhk",
        "reception_time": "2022-01-16T18:40:41.712-00:00",
        "included_in_blocks":
          [ "BLjSUXDnDefZhU9npRDofRKzn3tXrDGeJx2LYsCThP24k23HUPP" ] },
      { "delegate": "tz1P2Po7YM526ughEsRbY4oR9zaUPDZjxFrb",
        "reception_time": "2022-01-16T18:40:41.705-00:00",
        "included_in_blocks":
          [ "BLjSUXDnDefZhU9npRDofRKzn3tXrDGeJx2LYsCThP24k23HUPP" ] } ] }