{ "blocks":
    [ { "hash": "BMXHUerbpoLmjT3JNkF5bZwvSMn8VtWEvP2FXhM5YeXpSLxftX1",
        "delegate": "tz1irJKkXS2DBWkU1NnmFQx1c1L7pbGg4yhk",
        "reception_time": "2022-01-16T16:04:15.772-00:00",
        "timestamp": "2022-01-16T16:04:10Z" } ],
  "endorsements":
    [ { "delegate": "tz3bEQoFCZEEfZMskefZ8q8e4eiHH1pssRax" },
      { "delegate": "tz1RjoHc98dBoqaH2jawF62XNKh7YsHwbkEv" },
      { "delegate": "tz3e7LbZvUtoXhpUD1yb6wuFodZpfYRb9nWJ",
        "reception_time": "2022-01-16T16:04:26.240-00:00",
        "included_in_blocks":
          [ "BMYv414Xi6qemFS7fyCNSDuVJw22cyK8kQUPfig44ygWyYz4A5J" ] },
      { "delegate": "tz1Z1WwoqgRFbLE3YNdYRpCx44NSfiMJzeAG",
        "reception_time": "2022-01-16T16:04:25.697-00:00",
        "included_in_blocks":
          [ "BMYv414Xi6qemFS7fyCNSDuVJw22cyK8kQUPfig44ygWyYz4A5J" ] },
      { "delegate": "tz1R664EP6wjcM1RSUVJ7nrJisTpBW9QyJzP",
        "reception_time": "2022-01-16T16:04:23.348-00:00",
        "included_in_blocks":
          [ "BMYv414Xi6qemFS7fyCNSDuVJw22cyK8kQUPfig44ygWyYz4A5J" ] },
      { "delegate": "tz1aJS7Pk9uWR3wWyFf1i3RwhYxN84G7stom",
        "reception_time": "2022-01-16T16:04:20.927-00:00",
        "included_in_blocks":
          [ "BMYv414Xi6qemFS7fyCNSDuVJw22cyK8kQUPfig44ygWyYz4A5J" ] },
      { "delegate": "tz3UoffC7FG7zfpmvmjUmUeAaHvzdcUvAj6r",
        "reception_time": "2022-01-16T16:04:20.036-00:00",
        "included_in_blocks":
          [ "BMYv414Xi6qemFS7fyCNSDuVJw22cyK8kQUPfig44ygWyYz4A5J" ] },
      { "delegate": "tz1ULYFhUY7Syao5NWr9jZ1pp3aw81QPiqjs",
        "reception_time": "2022-01-16T16:04:19.533-00:00",
        "included_in_blocks":
          [ "BMYv414Xi6qemFS7fyCNSDuVJw22cyK8kQUPfig44ygWyYz4A5J" ] },
      { "delegate": "tz3NExpXn9aPNZPorRE4SdjJ2RGrfbJgMAaV",
        "reception_time": "2022-01-16T16:04:19.586-00:00",
        "included_in_blocks":
          [ "BMYv414Xi6qemFS7fyCNSDuVJw22cyK8kQUPfig44ygWyYz4A5J" ] },
      { "delegate": "tz1T7duV5gZWSTq4YpBGbXNLTfznCLDrFxvs",
        "reception_time": "2022-01-16T16:04:19.420-00:00",
        "included_in_blocks":
          [ "BMYv414Xi6qemFS7fyCNSDuVJw22cyK8kQUPfig44ygWyYz4A5J" ] },
      { "delegate": "tz3bvNMQ95vfAYtG8193ymshqjSvmxiCUuR5",
        "reception_time": "2022-01-16T16:04:19.245-00:00",
        "included_in_blocks":
          [ "BMYv414Xi6qemFS7fyCNSDuVJw22cyK8kQUPfig44ygWyYz4A5J" ] },
      { "delegate": "tz1aRoaRhSpRYvFdyvgWLL6TGyRoGF51wDjM",
        "reception_time": "2022-01-16T16:04:19.097-00:00",
        "included_in_blocks":
          [ "BMYv414Xi6qemFS7fyCNSDuVJw22cyK8kQUPfig44ygWyYz4A5J" ] },
      { "delegate": "tz3VEZ4k6a4Wx42iyev6i2aVAptTRLEAivNN",
        "reception_time": "2022-01-16T16:04:19.106-00:00",
        "included_in_blocks":
          [ "BMYv414Xi6qemFS7fyCNSDuVJw22cyK8kQUPfig44ygWyYz4A5J" ] },
      { "delegate": "tz1dRKU4FQ9QRRQPdaH4zCR6gmCmXfcvcgtB",
        "reception_time": "2022-01-16T16:04:18.978-00:00",
        "included_in_blocks":
          [ "BMYv414Xi6qemFS7fyCNSDuVJw22cyK8kQUPfig44ygWyYz4A5J" ] },
      { "delegate": "tz3WMqdzXqRWXwyvj5Hp2H7QEepaUuS7vd9K",
        "reception_time": "2022-01-16T16:04:18.888-00:00",
        "included_in_blocks":
          [ "BMYv414Xi6qemFS7fyCNSDuVJw22cyK8kQUPfig44ygWyYz4A5J" ] },
      { "delegate": "tz1UvkANVPWppVgMkLnvN7BwYZsCP7vm6NVd",
        "reception_time": "2022-01-16T16:04:18.724-00:00",
        "included_in_blocks":
          [ "BMYv414Xi6qemFS7fyCNSDuVJw22cyK8kQUPfig44ygWyYz4A5J" ] },
      { "delegate": "tz1cYufsxHXJcvANhvS55h3aY32a9BAFB494",
        "reception_time": "2022-01-16T16:04:18.849-00:00",
        "included_in_blocks":
          [ "BMYv414Xi6qemFS7fyCNSDuVJw22cyK8kQUPfig44ygWyYz4A5J" ] },
      { "delegate": "tz3NDpRj6WBrJPikcPVHRBEjWKxFw3c6eQPS",
        "reception_time": "2022-01-16T16:04:18.718-00:00",
        "included_in_blocks":
          [ "BMYv414Xi6qemFS7fyCNSDuVJw22cyK8kQUPfig44ygWyYz4A5J" ] },
      { "delegate": "tz1WctSwL49BZtdWAQ75NY6vr4xsAx6oKdah",
        "reception_time": "2022-01-16T16:04:18.581-00:00",
        "included_in_blocks":
          [ "BMYv414Xi6qemFS7fyCNSDuVJw22cyK8kQUPfig44ygWyYz4A5J" ] },
      { "delegate": "tz3RDC3Jdn4j15J7bBHZd29EUee9gVB1CxD9",
        "reception_time": "2022-01-16T16:04:18.506-00:00",
        "included_in_blocks":
          [ "BMYv414Xi6qemFS7fyCNSDuVJw22cyK8kQUPfig44ygWyYz4A5J" ] },
      { "delegate": "tz1Nf6tsK4G6bBqgSQERy4nUtkHNKUVdh7q1",
        "reception_time": "2022-01-16T16:04:18.481-00:00",
        "included_in_blocks":
          [ "BMYv414Xi6qemFS7fyCNSDuVJw22cyK8kQUPfig44ygWyYz4A5J" ] },
      { "delegate": "tz1g8vkmcde6sWKaG2NN9WKzCkDM6Rziq194",
        "reception_time": "2022-01-16T16:04:18.391-00:00",
        "included_in_blocks":
          [ "BMYv414Xi6qemFS7fyCNSDuVJw22cyK8kQUPfig44ygWyYz4A5J" ] },
      { "delegate": "tz1NEKxGEHsFufk87CVZcrqWu8o22qh46GK6",
        "reception_time": "2022-01-16T16:04:18.359-00:00",
        "included_in_blocks":
          [ "BMYv414Xi6qemFS7fyCNSDuVJw22cyK8kQUPfig44ygWyYz4A5J" ] },
      { "delegate": "tz1PeZx7FXy7QRuMREGXGxeipb24RsMMzUNe",
        "reception_time": "2022-01-16T16:04:18.316-00:00",
        "included_in_blocks":
          [ "BMYv414Xi6qemFS7fyCNSDuVJw22cyK8kQUPfig44ygWyYz4A5J" ] },
      { "delegate": "tz3RB4aoyjov4KEVRbuhvQ1CKJgBJMWhaeB8",
        "reception_time": "2022-01-16T16:04:18.117-00:00",
        "included_in_blocks":
          [ "BMYv414Xi6qemFS7fyCNSDuVJw22cyK8kQUPfig44ygWyYz4A5J" ] },
      { "delegate": "tz1KfEsrtDaA1sX7vdM4qmEPWuSytuqCDp5j",
        "reception_time": "2022-01-16T16:04:18.058-00:00",
        "included_in_blocks":
          [ "BMYv414Xi6qemFS7fyCNSDuVJw22cyK8kQUPfig44ygWyYz4A5J" ] },
      { "delegate": "tz2FCNBrERXtaTtNX6iimR1UJ5JSDxvdHM93",
        "reception_time": "2022-01-16T16:04:17.933-00:00",
        "included_in_blocks":
          [ "BMYv414Xi6qemFS7fyCNSDuVJw22cyK8kQUPfig44ygWyYz4A5J" ] },
      { "delegate": "tz1TEc75UKXv4W5cwi14Na3NtqFD51yKQi7h",
        "reception_time": "2022-01-16T16:04:17.871-00:00",
        "included_in_blocks":
          [ "BMYv414Xi6qemFS7fyCNSDuVJw22cyK8kQUPfig44ygWyYz4A5J" ] },
      { "delegate": "tz1ei4WtWEMEJekSv8qDnu9PExG6Q8HgRGr3",
        "reception_time": "2022-01-16T16:04:17.893-00:00",
        "included_in_blocks":
          [ "BMYv414Xi6qemFS7fyCNSDuVJw22cyK8kQUPfig44ygWyYz4A5J" ] },
      { "delegate": "tz1gfArv665EUkSg2ojMBzcbfwuPxAvqPvjo",
        "reception_time": "2022-01-16T16:04:17.744-00:00",
        "included_in_blocks":
          [ "BMYv414Xi6qemFS7fyCNSDuVJw22cyK8kQUPfig44ygWyYz4A5J" ] },
      { "delegate": "tz3bTdwZinP8U1JmSweNzVKhmwafqWmFWRfk",
        "reception_time": "2022-01-16T16:04:17.759-00:00",
        "included_in_blocks":
          [ "BMYv414Xi6qemFS7fyCNSDuVJw22cyK8kQUPfig44ygWyYz4A5J" ] },
      { "delegate": "tz1QLXqnfN51dkjeghXvKHkJfhvGiM5gK4tc",
        "reception_time": "2022-01-16T16:04:17.842-00:00",
        "included_in_blocks":
          [ "BMYv414Xi6qemFS7fyCNSDuVJw22cyK8kQUPfig44ygWyYz4A5J" ] },
      { "delegate": "tz1RCFbB9GpALpsZtu6J58sb74dm8qe6XBzv",
        "reception_time": "2022-01-16T16:04:17.690-00:00",
        "included_in_blocks":
          [ "BMYv414Xi6qemFS7fyCNSDuVJw22cyK8kQUPfig44ygWyYz4A5J" ] },
      { "delegate": "tz1YhNsiRRU8aHNGg7NK3uuP6UDAyacJernB",
        "reception_time": "2022-01-16T16:04:17.675-00:00",
        "included_in_blocks":
          [ "BMYv414Xi6qemFS7fyCNSDuVJw22cyK8kQUPfig44ygWyYz4A5J" ] },
      { "delegate": "tz1fPKAtsYydh4f1wfWNfeNxWYu72TmM48fu",
        "reception_time": "2022-01-16T16:04:17.542-00:00",
        "included_in_blocks":
          [ "BMYv414Xi6qemFS7fyCNSDuVJw22cyK8kQUPfig44ygWyYz4A5J" ] },
      { "delegate": "tz1S8MNvuFEUsWgjHvi3AxibRBf388NhT1q2",
        "reception_time": "2022-01-16T16:04:17.586-00:00",
        "included_in_blocks":
          [ "BMYv414Xi6qemFS7fyCNSDuVJw22cyK8kQUPfig44ygWyYz4A5J" ] },
      { "delegate": "tz1NSDFKuRyzHxpfG1AMkyCwEiZ52cbR2mRW",
        "reception_time": "2022-01-16T16:04:17.522-00:00",
        "included_in_blocks":
          [ "BMYv414Xi6qemFS7fyCNSDuVJw22cyK8kQUPfig44ygWyYz4A5J" ] },
      { "delegate": "tz1PWCDnz783NNGGQjEFFsHtrcK5yBW4E2rm",
        "reception_time": "2022-01-16T16:04:17.333-00:00",
        "included_in_blocks":
          [ "BMYv414Xi6qemFS7fyCNSDuVJw22cyK8kQUPfig44ygWyYz4A5J" ] },
      { "delegate": "tz1WCd2jm4uSt4vntk4vSuUWoZQGhLcDuR9q",
        "reception_time": "2022-01-16T16:04:17.461-00:00",
        "included_in_blocks":
          [ "BMYv414Xi6qemFS7fyCNSDuVJw22cyK8kQUPfig44ygWyYz4A5J" ] },
      { "delegate": "tz3Zhs2dygr55yHyQyKjntAtY9bgfhLZ4Xj1",
        "reception_time": "2022-01-16T16:04:17.428-00:00",
        "included_in_blocks":
          [ "BMYv414Xi6qemFS7fyCNSDuVJw22cyK8kQUPfig44ygWyYz4A5J" ] },
      { "delegate": "tz3QT9dHYKDqh563chVa6za8526ys1UKfRfL",
        "reception_time": "2022-01-16T16:04:17.623-00:00",
        "included_in_blocks":
          [ "BMYv414Xi6qemFS7fyCNSDuVJw22cyK8kQUPfig44ygWyYz4A5J" ] },
      { "delegate": "tz3QSGPoRp3Kn7n3vY24eYeu3Peuqo45LQ4D",
        "reception_time": "2022-01-16T16:04:17.479-00:00",
        "included_in_blocks":
          [ "BMYv414Xi6qemFS7fyCNSDuVJw22cyK8kQUPfig44ygWyYz4A5J" ] },
      { "delegate": "tz3iJu5vrKZcsqRPs8yJ61UDoeEXZmtro4qh",
        "reception_time": "2022-01-16T16:04:17.435-00:00",
        "included_in_blocks":
          [ "BMYv414Xi6qemFS7fyCNSDuVJw22cyK8kQUPfig44ygWyYz4A5J" ] },
      { "delegate": "tz3RKYFsLuQzKBtmYuLNas7uMu3AsYd4QdsA",
        "reception_time": "2022-01-16T16:04:17.472-00:00",
        "included_in_blocks":
          [ "BMYv414Xi6qemFS7fyCNSDuVJw22cyK8kQUPfig44ygWyYz4A5J" ] },
      { "delegate": "tz3hw2kqXhLUvY65ca1eety2oQTpAvd34R9Q",
        "reception_time": "2022-01-16T16:04:17.414-00:00",
        "included_in_blocks":
          [ "BMYv414Xi6qemFS7fyCNSDuVJw22cyK8kQUPfig44ygWyYz4A5J" ] },
      { "delegate": "tz1VmiY38m3y95HqQLjMwqnMS7sdMfGomzKi",
        "reception_time": "2022-01-16T16:04:17.539-00:00",
        "included_in_blocks":
          [ "BMYv414Xi6qemFS7fyCNSDuVJw22cyK8kQUPfig44ygWyYz4A5J" ] },
      { "delegate": "tz1aXD7Jigrt3PBYSpHSg5Rr33SexMmmM5Ys",
        "reception_time": "2022-01-16T16:04:17.288-00:00",
        "included_in_blocks":
          [ "BMYv414Xi6qemFS7fyCNSDuVJw22cyK8kQUPfig44ygWyYz4A5J" ] },
      { "delegate": "tz3gtoUxdudfBRcNY7iVdKPHCYYX6xdPpoRS",
        "reception_time": "2022-01-16T16:04:17.457-00:00",
        "included_in_blocks":
          [ "BMYv414Xi6qemFS7fyCNSDuVJw22cyK8kQUPfig44ygWyYz4A5J" ] },
      { "delegate": "tz1a51WYsAsoh4fs4A4x5aCN6Za26mpfDfTi",
        "reception_time": "2022-01-16T16:04:17.152-00:00",
        "included_in_blocks":
          [ "BMYv414Xi6qemFS7fyCNSDuVJw22cyK8kQUPfig44ygWyYz4A5J" ] },
      { "delegate": "tz1Ldzz6k1BHdhuKvAtMRX7h5kJSMHESMHLC",
        "reception_time": "2022-01-16T16:04:17.238-00:00",
        "included_in_blocks":
          [ "BMYv414Xi6qemFS7fyCNSDuVJw22cyK8kQUPfig44ygWyYz4A5J" ] },
      { "delegate": "tz1XfAjZyaLdceHnZxbMYop7g7kWKPut4PR7",
        "reception_time": "2022-01-16T16:04:17.134-00:00",
        "included_in_blocks":
          [ "BMYv414Xi6qemFS7fyCNSDuVJw22cyK8kQUPfig44ygWyYz4A5J" ] },
      { "delegate": "tz1Kt4P8BCaP93AEV4eA7gmpRryWt5hznjCP",
        "reception_time": "2022-01-16T16:04:17.187-00:00",
        "included_in_blocks":
          [ "BMYv414Xi6qemFS7fyCNSDuVJw22cyK8kQUPfig44ygWyYz4A5J" ] },
      { "delegate": "tz1gUNyn3hmnEWqkusWPzxRaon1cs7ndWh7h",
        "reception_time": "2022-01-16T16:04:17.068-00:00",
        "included_in_blocks":
          [ "BMYv414Xi6qemFS7fyCNSDuVJw22cyK8kQUPfig44ygWyYz4A5J" ] },
      { "delegate": "tz1VQnqCCqX4K5sP3FNkVSNKTdCAMJDd3E1n",
        "reception_time": "2022-01-16T16:04:17.108-00:00",
        "included_in_blocks":
          [ "BMYv414Xi6qemFS7fyCNSDuVJw22cyK8kQUPfig44ygWyYz4A5J" ] },
      { "delegate": "tz3ZbP2pM3nwvXztbuMJwJnDvV5xdpU8UkkD",
        "reception_time": "2022-01-16T16:04:17.055-00:00",
        "included_in_blocks":
          [ "BMYv414Xi6qemFS7fyCNSDuVJw22cyK8kQUPfig44ygWyYz4A5J" ] },
      { "delegate": "tz3NxTnke1acr8o3h5y9ytf5awQBGNJUKzVU",
        "reception_time": "2022-01-16T16:04:17.152-00:00",
        "included_in_blocks":
          [ "BMYv414Xi6qemFS7fyCNSDuVJw22cyK8kQUPfig44ygWyYz4A5J" ] },
      { "delegate": "tz1TXzyaKUA8wsWefdSnyaYFnV2M3vCV7er9",
        "reception_time": "2022-01-16T16:04:17.026-00:00",
        "included_in_blocks":
          [ "BMYv414Xi6qemFS7fyCNSDuVJw22cyK8kQUPfig44ygWyYz4A5J" ] },
      { "delegate": "tz1eEnQhbwf6trb8Q8mPb2RaPkNk2rN7BKi8",
        "reception_time": "2022-01-16T16:04:17.019-00:00",
        "included_in_blocks":
          [ "BMYv414Xi6qemFS7fyCNSDuVJw22cyK8kQUPfig44ygWyYz4A5J" ] },
      { "delegate": "tz1irJKkXS2DBWkU1NnmFQx1c1L7pbGg4yhk",
        "reception_time": "2022-01-16T16:04:17.005-00:00",
        "included_in_blocks":
          [ "BMYv414Xi6qemFS7fyCNSDuVJw22cyK8kQUPfig44ygWyYz4A5J" ] },
      { "delegate": "tz1Lhf4J9Qxoe3DZ2nfe8FGDnvVj7oKjnMY6",
        "reception_time": "2022-01-16T16:04:16.987-00:00",
        "included_in_blocks":
          [ "BMYv414Xi6qemFS7fyCNSDuVJw22cyK8kQUPfig44ygWyYz4A5J" ] },
      { "delegate": "tz1P2Po7YM526ughEsRbY4oR9zaUPDZjxFrb",
        "reception_time": "2022-01-16T16:04:16.983-00:00",
        "included_in_blocks":
          [ "BMYv414Xi6qemFS7fyCNSDuVJw22cyK8kQUPfig44ygWyYz4A5J" ] } ] }