{ "blocks":
    [ { "hash": "BLKRnmgZdwNYmkU3H1QxRu3hHagybQa2vSR3cG6gj9aJWtt2i1h",
        "delegate": "tz1ZcTRk5uxD86EFEn1vvNffWWqJy7q5eVhc",
        "reception_time": "2022-01-16T21:11:18.884-00:00",
        "timestamp": "2022-01-16T21:11:10Z" } ],
  "endorsements":
    [ { "delegate": "tz1Zhv3RkfU2pHrmaiDyxp7kFZpZrUCu1CiF",
        "reception_time": "2022-01-16T21:11:21.398-00:00",
        "included_in_blocks":
          [ "BLhvFxYnNhpqRjf6p8DoZd9wYMhhoghr6MEXdtyMxuAbDSRfXAK" ] },
      { "delegate": "tz1TXzyaKUA8wsWefdSnyaYFnV2M3vCV7er9",
        "reception_time": "2022-01-16T21:11:21.379-00:00",
        "included_in_blocks":
          [ "BLhvFxYnNhpqRjf6p8DoZd9wYMhhoghr6MEXdtyMxuAbDSRfXAK" ] },
      { "delegate": "tz1Lhf4J9Qxoe3DZ2nfe8FGDnvVj7oKjnMY6",
        "reception_time": "2022-01-16T21:11:21.363-00:00",
        "included_in_blocks":
          [ "BLhvFxYnNhpqRjf6p8DoZd9wYMhhoghr6MEXdtyMxuAbDSRfXAK" ] },
      { "delegate": "tz1P2Po7YM526ughEsRbY4oR9zaUPDZjxFrb",
        "reception_time": "2022-01-16T21:11:21.404-00:00",
        "included_in_blocks":
          [ "BLhvFxYnNhpqRjf6p8DoZd9wYMhhoghr6MEXdtyMxuAbDSRfXAK" ] },
      { "delegate": "tz1VQnqCCqX4K5sP3FNkVSNKTdCAMJDd3E1n",
        "reception_time": "2022-01-16T21:11:21.388-00:00",
        "included_in_blocks":
          [ "BLhvFxYnNhpqRjf6p8DoZd9wYMhhoghr6MEXdtyMxuAbDSRfXAK" ] },
      { "delegate": "tz1gUNyn3hmnEWqkusWPzxRaon1cs7ndWh7h",
        "reception_time": "2022-01-16T21:11:21.368-00:00",
        "included_in_blocks":
          [ "BLhvFxYnNhpqRjf6p8DoZd9wYMhhoghr6MEXdtyMxuAbDSRfXAK" ] },
      { "delegate": "tz1eEnQhbwf6trb8Q8mPb2RaPkNk2rN7BKi8",
        "reception_time": "2022-01-16T21:11:21.343-00:00",
        "included_in_blocks":
          [ "BLhvFxYnNhpqRjf6p8DoZd9wYMhhoghr6MEXdtyMxuAbDSRfXAK" ] },
      { "delegate": "tz1QLXqnfN51dkjeghXvKHkJfhvGiM5gK4tc",
        "reception_time": "2022-01-16T21:11:21.404-00:00",
        "included_in_blocks":
          [ "BLhvFxYnNhpqRjf6p8DoZd9wYMhhoghr6MEXdtyMxuAbDSRfXAK" ] },
      { "delegate": "tz1hMUEDYTUFrsayTT2hTE13A6uJMXMbPQgx",
        "reception_time": "2022-01-16T21:11:21.368-00:00",
        "included_in_blocks":
          [ "BLhvFxYnNhpqRjf6p8DoZd9wYMhhoghr6MEXdtyMxuAbDSRfXAK" ] },
      { "delegate": "tz1Ldzz6k1BHdhuKvAtMRX7h5kJSMHESMHLC",
        "reception_time": "2022-01-16T21:11:21.357-00:00",
        "included_in_blocks":
          [ "BLhvFxYnNhpqRjf6p8DoZd9wYMhhoghr6MEXdtyMxuAbDSRfXAK" ] },
      { "delegate": "tz1irJKkXS2DBWkU1NnmFQx1c1L7pbGg4yhk",
        "reception_time": "2022-01-16T21:11:21.363-00:00",
        "included_in_blocks":
          [ "BLhvFxYnNhpqRjf6p8DoZd9wYMhhoghr6MEXdtyMxuAbDSRfXAK" ] },
      { "delegate": "tz1WCd2jm4uSt4vntk4vSuUWoZQGhLcDuR9q",
        "reception_time": "2022-01-16T21:11:21.423-00:00",
        "included_in_blocks":
          [ "BLhvFxYnNhpqRjf6p8DoZd9wYMhhoghr6MEXdtyMxuAbDSRfXAK" ] },
      { "delegate": "tz1VmiY38m3y95HqQLjMwqnMS7sdMfGomzKi",
        "reception_time": "2022-01-16T21:11:21.357-00:00",
        "included_in_blocks":
          [ "BLhvFxYnNhpqRjf6p8DoZd9wYMhhoghr6MEXdtyMxuAbDSRfXAK" ] },
      { "delegate": "tz3NxTnke1acr8o3h5y9ytf5awQBGNJUKzVU",
        "reception_time": "2022-01-16T21:11:21.379-00:00",
        "included_in_blocks":
          [ "BLhvFxYnNhpqRjf6p8DoZd9wYMhhoghr6MEXdtyMxuAbDSRfXAK" ] },
      { "delegate": "tz3ZbP2pM3nwvXztbuMJwJnDvV5xdpU8UkkD",
        "reception_time": "2022-01-16T21:11:21.413-00:00",
        "included_in_blocks":
          [ "BLhvFxYnNhpqRjf6p8DoZd9wYMhhoghr6MEXdtyMxuAbDSRfXAK" ] },
      { "delegate": "tz3Zhs2dygr55yHyQyKjntAtY9bgfhLZ4Xj1",
        "reception_time": "2022-01-16T21:11:21.388-00:00",
        "included_in_blocks":
          [ "BLhvFxYnNhpqRjf6p8DoZd9wYMhhoghr6MEXdtyMxuAbDSRfXAK" ] },
      { "delegate": "tz3iJu5vrKZcsqRPs8yJ61UDoeEXZmtro4qh",
        "reception_time": "2022-01-16T21:11:21.485-00:00",
        "included_in_blocks":
          [ "BLhvFxYnNhpqRjf6p8DoZd9wYMhhoghr6MEXdtyMxuAbDSRfXAK" ] },
      { "delegate": "tz3hw2kqXhLUvY65ca1eety2oQTpAvd34R9Q",
        "reception_time": "2022-01-16T21:11:21.351-00:00",
        "included_in_blocks":
          [ "BLhvFxYnNhpqRjf6p8DoZd9wYMhhoghr6MEXdtyMxuAbDSRfXAK" ] },
      { "delegate": "tz3RKYFsLuQzKBtmYuLNas7uMu3AsYd4QdsA",
        "reception_time": "2022-01-16T21:11:21.423-00:00",
        "included_in_blocks":
          [ "BLhvFxYnNhpqRjf6p8DoZd9wYMhhoghr6MEXdtyMxuAbDSRfXAK" ] },
      { "delegate": "tz3gtoUxdudfBRcNY7iVdKPHCYYX6xdPpoRS",
        "reception_time": "2022-01-16T21:11:21.468-00:00",
        "included_in_blocks":
          [ "BLhvFxYnNhpqRjf6p8DoZd9wYMhhoghr6MEXdtyMxuAbDSRfXAK" ] },
      { "delegate": "tz3adcvQaKXTCg12zbninqo3q8ptKKtDFTLv",
        "reception_time": "2022-01-16T21:11:21.398-00:00",
        "included_in_blocks":
          [ "BLhvFxYnNhpqRjf6p8DoZd9wYMhhoghr6MEXdtyMxuAbDSRfXAK" ] },
      { "delegate": "tz3QSGPoRp3Kn7n3vY24eYeu3Peuqo45LQ4D",
        "reception_time": "2022-01-16T21:11:21.477-00:00",
        "included_in_blocks":
          [ "BLhvFxYnNhpqRjf6p8DoZd9wYMhhoghr6MEXdtyMxuAbDSRfXAK" ] },
      { "delegate": "tz1RCFbB9GpALpsZtu6J58sb74dm8qe6XBzv",
        "reception_time": "2022-01-16T21:11:21.488-00:00",
        "included_in_blocks":
          [ "BLhvFxYnNhpqRjf6p8DoZd9wYMhhoghr6MEXdtyMxuAbDSRfXAK" ] },
      { "delegate": "tz1d6Fx42mYgVFnHUW8T8A7WBfJ6nD9pVok8",
        "reception_time": "2022-01-16T21:11:21.413-00:00",
        "included_in_blocks":
          [ "BLhvFxYnNhpqRjf6p8DoZd9wYMhhoghr6MEXdtyMxuAbDSRfXAK" ] },
      { "delegate": "tz1gfArv665EUkSg2ojMBzcbfwuPxAvqPvjo",
        "reception_time": "2022-01-16T21:11:21.590-00:00",
        "included_in_blocks":
          [ "BLhvFxYnNhpqRjf6p8DoZd9wYMhhoghr6MEXdtyMxuAbDSRfXAK" ] },
      { "delegate": "tz3S6BBeKgJGXxvLyZ1xzXzMPn11nnFtq5L9",
        "reception_time": "2022-01-16T21:11:21.560-00:00",
        "included_in_blocks":
          [ "BLhvFxYnNhpqRjf6p8DoZd9wYMhhoghr6MEXdtyMxuAbDSRfXAK" ] },
      { "delegate": "tz1ei4WtWEMEJekSv8qDnu9PExG6Q8HgRGr3",
        "reception_time": "2022-01-16T21:11:21.595-00:00",
        "included_in_blocks":
          [ "BLhvFxYnNhpqRjf6p8DoZd9wYMhhoghr6MEXdtyMxuAbDSRfXAK" ] },
      { "delegate": "tz1S8MNvuFEUsWgjHvi3AxibRBf388NhT1q2",
        "reception_time": "2022-01-16T21:11:21.505-00:00",
        "included_in_blocks":
          [ "BLhvFxYnNhpqRjf6p8DoZd9wYMhhoghr6MEXdtyMxuAbDSRfXAK" ] },
      { "delegate": "tz3QT9dHYKDqh563chVa6za8526ys1UKfRfL",
        "reception_time": "2022-01-16T21:11:21.585-00:00",
        "included_in_blocks":
          [ "BLhvFxYnNhpqRjf6p8DoZd9wYMhhoghr6MEXdtyMxuAbDSRfXAK" ] },
      { "delegate": "tz1PWCDnz783NNGGQjEFFsHtrcK5yBW4E2rm",
        "reception_time": "2022-01-16T21:11:21.524-00:00",
        "included_in_blocks":
          [ "BLhvFxYnNhpqRjf6p8DoZd9wYMhhoghr6MEXdtyMxuAbDSRfXAK" ] },
      { "delegate": "tz1KfEsrtDaA1sX7vdM4qmEPWuSytuqCDp5j",
        "reception_time": "2022-01-16T21:11:21.431-00:00",
        "included_in_blocks":
          [ "BLhvFxYnNhpqRjf6p8DoZd9wYMhhoghr6MEXdtyMxuAbDSRfXAK" ] },
      { "delegate": "tz1R4PuhxUxBBZhfLJDx2nNjbr7WorAPX1oC",
        "reception_time": "2022-01-16T21:11:21.460-00:00",
        "included_in_blocks":
          [ "BLhvFxYnNhpqRjf6p8DoZd9wYMhhoghr6MEXdtyMxuAbDSRfXAK" ] },
      { "delegate": "tz1WBfwbT66FC6BTLexc2BoyCCBM9LG7pnVW",
        "reception_time": "2022-01-16T21:11:21.603-00:00",
        "included_in_blocks":
          [ "BLhvFxYnNhpqRjf6p8DoZd9wYMhhoghr6MEXdtyMxuAbDSRfXAK" ] },
      { "delegate": "tz1RQhNh7iB9CZA7i3ifTWNwiGYVffponfbB",
        "reception_time": "2022-01-16T21:11:21.477-00:00",
        "included_in_blocks":
          [ "BLhvFxYnNhpqRjf6p8DoZd9wYMhhoghr6MEXdtyMxuAbDSRfXAK" ] },
      { "delegate": "tz1TEc75UKXv4W5cwi14Na3NtqFD51yKQi7h",
        "reception_time": "2022-01-16T21:11:21.552-00:00",
        "included_in_blocks":
          [ "BLhvFxYnNhpqRjf6p8DoZd9wYMhhoghr6MEXdtyMxuAbDSRfXAK" ] },
      { "delegate": "tz1UJvHTgpVzcKWhTazGxVcn5wsHru5Gietg",
        "reception_time": "2022-01-16T21:11:21.599-00:00",
        "included_in_blocks":
          [ "BLhvFxYnNhpqRjf6p8DoZd9wYMhhoghr6MEXdtyMxuAbDSRfXAK" ] },
      { "delegate": "tz1YhNsiRRU8aHNGg7NK3uuP6UDAyacJernB",
        "reception_time": "2022-01-16T21:11:21.520-00:00",
        "included_in_blocks":
          [ "BLhvFxYnNhpqRjf6p8DoZd9wYMhhoghr6MEXdtyMxuAbDSRfXAK" ] },
      { "delegate": "tz2FCNBrERXtaTtNX6iimR1UJ5JSDxvdHM93",
        "reception_time": "2022-01-16T21:11:21.537-00:00",
        "included_in_blocks":
          [ "BLhvFxYnNhpqRjf6p8DoZd9wYMhhoghr6MEXdtyMxuAbDSRfXAK" ] },
      { "delegate": "tz1MH387oMRFco3kzz8t3wuqdbpAyTcKZtsg",
        "reception_time": "2022-01-16T21:11:21.606-00:00",
        "included_in_blocks":
          [ "BLhvFxYnNhpqRjf6p8DoZd9wYMhhoghr6MEXdtyMxuAbDSRfXAK" ] },
      { "delegate": "tz1T7duV5gZWSTq4YpBGbXNLTfznCLDrFxvs",
        "reception_time": "2022-01-16T21:11:21.611-00:00",
        "included_in_blocks":
          [ "BLhvFxYnNhpqRjf6p8DoZd9wYMhhoghr6MEXdtyMxuAbDSRfXAK" ] },
      { "delegate": "tz3bTdwZinP8U1JmSweNzVKhmwafqWmFWRfk",
        "reception_time": "2022-01-16T21:11:21.670-00:00",
        "included_in_blocks":
          [ "BLhvFxYnNhpqRjf6p8DoZd9wYMhhoghr6MEXdtyMxuAbDSRfXAK" ] },
      { "delegate": "tz1Nf6tsK4G6bBqgSQERy4nUtkHNKUVdh7q1",
        "reception_time": "2022-01-16T21:11:21.716-00:00",
        "included_in_blocks":
          [ "BLhvFxYnNhpqRjf6p8DoZd9wYMhhoghr6MEXdtyMxuAbDSRfXAK" ] },
      { "delegate": "tz1NEKxGEHsFufk87CVZcrqWu8o22qh46GK6",
        "reception_time": "2022-01-16T21:11:21.866-00:00",
        "included_in_blocks":
          [ "BLhvFxYnNhpqRjf6p8DoZd9wYMhhoghr6MEXdtyMxuAbDSRfXAK" ] },
      { "delegate": "tz1LmaFsWRkjr7QMCx5PtV6xTUz3AmEpKQiF",
        "reception_time": "2022-01-16T21:11:22.029-00:00",
        "included_in_blocks":
          [ "BLhvFxYnNhpqRjf6p8DoZd9wYMhhoghr6MEXdtyMxuAbDSRfXAK" ] },
      { "delegate": "tz1ZcTRk5uxD86EFEn1vvNffWWqJy7q5eVhc",
        "reception_time": "2022-01-16T21:11:21.912-00:00",
        "included_in_blocks":
          [ "BLhvFxYnNhpqRjf6p8DoZd9wYMhhoghr6MEXdtyMxuAbDSRfXAK" ] },
      { "delegate": "tz1bxVgPCiveFHSand7zn22S8ZBtvNQbqgqU",
        "reception_time": "2022-01-16T21:11:22.038-00:00",
        "included_in_blocks":
          [ "BLhvFxYnNhpqRjf6p8DoZd9wYMhhoghr6MEXdtyMxuAbDSRfXAK" ] },
      { "delegate": "tz1h4GUAMweP7SNWzDgvMk3yRCAZyaP1MxZq",
        "reception_time": "2022-01-16T21:11:21.940-00:00",
        "included_in_blocks":
          [ "BLhvFxYnNhpqRjf6p8DoZd9wYMhhoghr6MEXdtyMxuAbDSRfXAK" ] },
      { "delegate": "tz1SYq214SCBy9naR6cvycQsYcUGpBqQAE8d",
        "reception_time": "2022-01-16T21:11:22.171-00:00",
        "included_in_blocks":
          [ "BLhvFxYnNhpqRjf6p8DoZd9wYMhhoghr6MEXdtyMxuAbDSRfXAK" ] },
      { "delegate": "tz3WMqdzXqRWXwyvj5Hp2H7QEepaUuS7vd9K",
        "reception_time": "2022-01-16T21:11:22.214-00:00",
        "included_in_blocks":
          [ "BLhvFxYnNhpqRjf6p8DoZd9wYMhhoghr6MEXdtyMxuAbDSRfXAK" ] },
      { "delegate": "tz1SUgyRB8T5jXgXAwS33pgRHAKrafyg87Yc",
        "reception_time": "2022-01-16T21:11:22.284-00:00",
        "included_in_blocks":
          [ "BLhvFxYnNhpqRjf6p8DoZd9wYMhhoghr6MEXdtyMxuAbDSRfXAK" ] },
      { "delegate": "tz1dRKU4FQ9QRRQPdaH4zCR6gmCmXfcvcgtB",
        "reception_time": "2022-01-16T21:11:22.203-00:00",
        "included_in_blocks":
          [ "BLhvFxYnNhpqRjf6p8DoZd9wYMhhoghr6MEXdtyMxuAbDSRfXAK" ] },
      { "delegate": "tz3VEZ4k6a4Wx42iyev6i2aVAptTRLEAivNN",
        "reception_time": "2022-01-16T21:11:22.496-00:00",
        "included_in_blocks":
          [ "BLhvFxYnNhpqRjf6p8DoZd9wYMhhoghr6MEXdtyMxuAbDSRfXAK" ] },
      { "delegate": "tz3gLTu4Yxj8tPAcriQVUdxv6BY9QyvzU1az",
        "reception_time": "2022-01-16T21:11:22.652-00:00",
        "included_in_blocks":
          [ "BLhvFxYnNhpqRjf6p8DoZd9wYMhhoghr6MEXdtyMxuAbDSRfXAK" ] },
      { "delegate": "tz3NDpRj6WBrJPikcPVHRBEjWKxFw3c6eQPS",
        "reception_time": "2022-01-16T21:11:22.635-00:00",
        "included_in_blocks":
          [ "BLhvFxYnNhpqRjf6p8DoZd9wYMhhoghr6MEXdtyMxuAbDSRfXAK" ] },
      { "delegate": "tz3RB4aoyjov4KEVRbuhvQ1CKJgBJMWhaeB8",
        "reception_time": "2022-01-16T21:11:22.677-00:00",
        "included_in_blocks":
          [ "BLhvFxYnNhpqRjf6p8DoZd9wYMhhoghr6MEXdtyMxuAbDSRfXAK" ] },
      { "delegate": "tz3RDC3Jdn4j15J7bBHZd29EUee9gVB1CxD9",
        "reception_time": "2022-01-16T21:11:22.938-00:00",
        "included_in_blocks":
          [ "BLhvFxYnNhpqRjf6p8DoZd9wYMhhoghr6MEXdtyMxuAbDSRfXAK" ] },
      { "delegate": "tz3bvNMQ95vfAYtG8193ymshqjSvmxiCUuR5",
        "reception_time": "2022-01-16T21:11:23.131-00:00",
        "included_in_blocks":
          [ "BLhvFxYnNhpqRjf6p8DoZd9wYMhhoghr6MEXdtyMxuAbDSRfXAK" ] },
      { "delegate": "tz1aJS7Pk9uWR3wWyFf1i3RwhYxN84G7stom",
        "reception_time": "2022-01-16T21:11:23.504-00:00",
        "included_in_blocks":
          [ "BLhvFxYnNhpqRjf6p8DoZd9wYMhhoghr6MEXdtyMxuAbDSRfXAK" ] },
      { "delegate": "tz3UoffC7FG7zfpmvmjUmUeAaHvzdcUvAj6r",
        "reception_time": "2022-01-16T21:11:23.312-00:00",
        "included_in_blocks":
          [ "BLhvFxYnNhpqRjf6p8DoZd9wYMhhoghr6MEXdtyMxuAbDSRfXAK" ] },
      { "delegate": "tz3NExpXn9aPNZPorRE4SdjJ2RGrfbJgMAaV",
        "reception_time": "2022-01-16T21:11:23.794-00:00",
        "included_in_blocks":
          [ "BLhvFxYnNhpqRjf6p8DoZd9wYMhhoghr6MEXdtyMxuAbDSRfXAK" ] },
      { "delegate": "tz1g8vkmcde6sWKaG2NN9WKzCkDM6Rziq194",
        "reception_time": "2022-01-16T21:11:23.949-00:00",
        "included_in_blocks":
          [ "BLhvFxYnNhpqRjf6p8DoZd9wYMhhoghr6MEXdtyMxuAbDSRfXAK" ] },
      { "delegate": "tz1Wp9DASxBnuiZTXHTBACtQ69kp8YL4bzLz",
        "reception_time": "2022-01-16T21:11:24.943-00:00",
        "included_in_blocks":
          [ "BLhvFxYnNhpqRjf6p8DoZd9wYMhhoghr6MEXdtyMxuAbDSRfXAK" ] },
      { "delegate": "tz1gg5bjopPcr9agjamyu9BbXKLibNc2rbAq",
        "reception_time": "2022-01-16T21:11:26.967-00:00",
        "included_in_blocks":
          [ "BLhvFxYnNhpqRjf6p8DoZd9wYMhhoghr6MEXdtyMxuAbDSRfXAK" ] },
      { "delegate": "tz1go7f6mEQfT2xX2LuHAqgnRGN6c2zHPf5c",
        "reception_time": "2022-01-16T21:11:29.420-00:00",
        "included_in_blocks":
          [ "BLhvFxYnNhpqRjf6p8DoZd9wYMhhoghr6MEXdtyMxuAbDSRfXAK" ] },
      { "delegate": "tz1NpWrAyDL9k2Lmnyxcgr9xuJakbBxdq7FB",
        "reception_time": "2022-01-16T21:11:30.670-00:00",
        "included_in_blocks":
          [ "BLhvFxYnNhpqRjf6p8DoZd9wYMhhoghr6MEXdtyMxuAbDSRfXAK" ] },
      { "delegate": "tz3e7LbZvUtoXhpUD1yb6wuFodZpfYRb9nWJ",
        "reception_time": "2022-01-16T21:11:34.717-00:00",
        "included_in_blocks":
          [ "BLhvFxYnNhpqRjf6p8DoZd9wYMhhoghr6MEXdtyMxuAbDSRfXAK" ] },
      { "delegate": "tz1S8e9GgdZG78XJRB3NqabfWeM37GnhZMWQ",
        "reception_time": "2022-01-16T21:11:18.741-00:00",
        "errors":
          [ { "kind": "temporary",
              "id": "proto.011-PtHangz2.prefilter.outdated_endorsement" } ],
        "included_in_blocks":
          [ "BLhvFxYnNhpqRjf6p8DoZd9wYMhhoghr6MEXdtyMxuAbDSRfXAK" ] },
      { "delegate": "tz1RjoHc98dBoqaH2jawF62XNKh7YsHwbkEv" },
      { "delegate": "tz1aRoaRhSpRYvFdyvgWLL6TGyRoGF51wDjM",
        "reception_time": "2022-01-16T21:11:46.473-00:00" } ] }