{ "blocks":
    [ { "hash": "BLo9Gxdg8Ra1SYnKK9AoFPJ459ggB3cfAVn9Na4z6bsXW1MoEvT",
        "delegate": "tz1irJKkXS2DBWkU1NnmFQx1c1L7pbGg4yhk",
        "reception_time": "2022-01-16T17:46:37.711-00:00",
        "timestamp": "2022-01-16T17:46:30Z" } ],
  "endorsements":
    [ { "delegate": "tz1ibcPVGK4Y8pcW4BYUsojiHoBKnZbyDGrX" },
      { "delegate": "tz1dbfppLAAxXZNtf2SDps7rch3qfUznKSoK" },
      { "delegate": "tz1RjoHc98dBoqaH2jawF62XNKh7YsHwbkEv" },
      { "delegate": "tz1MXFrtZoaXckE41bjUCSjAjAap3AFDSr3N",
        "reception_time": "2022-01-16T17:46:37.712-00:00",
        "errors":
          [ { "kind": "temporary",
              "id": "proto.011-PtHangz2.prefilter.outdated_endorsement" } ],
        "included_in_blocks":
          [ "BLg6BDF4p892ocv71B7nybF9cdZWGWW3jZXQZgyy6Dpie2gfeCc" ] },
      { "delegate": "tz1irJKkXS2DBWkU1NnmFQx1c1L7pbGg4yhk",
        "reception_time": "2022-01-16T17:46:37.645-00:00",
        "errors":
          [ { "kind": "temporary",
              "id": "proto.011-PtHangz2.prefilter.outdated_endorsement" } ],
        "included_in_blocks":
          [ "BLg6BDF4p892ocv71B7nybF9cdZWGWW3jZXQZgyy6Dpie2gfeCc" ] },
      { "delegate": "tz1Lhf4J9Qxoe3DZ2nfe8FGDnvVj7oKjnMY6",
        "reception_time": "2022-01-16T17:46:37.554-00:00",
        "errors":
          [ { "kind": "temporary",
              "id": "proto.011-PtHangz2.prefilter.outdated_endorsement" } ],
        "included_in_blocks":
          [ "BLg6BDF4p892ocv71B7nybF9cdZWGWW3jZXQZgyy6Dpie2gfeCc" ] },
      { "delegate": "tz1S8e9GgdZG78XJRB3NqabfWeM37GnhZMWQ",
        "reception_time": "2022-01-16T17:46:37.031-00:00",
        "errors":
          [ { "kind": "temporary",
              "id": "proto.011-PtHangz2.prefilter.outdated_endorsement" } ],
        "included_in_blocks":
          [ "BLg6BDF4p892ocv71B7nybF9cdZWGWW3jZXQZgyy6Dpie2gfeCc" ] },
      { "delegate": "tz1go7f6mEQfT2xX2LuHAqgnRGN6c2zHPf5c",
        "reception_time": "2022-01-16T17:46:44.333-00:00",
        "included_in_blocks":
          [ "BLg6BDF4p892ocv71B7nybF9cdZWGWW3jZXQZgyy6Dpie2gfeCc" ] },
      { "delegate": "tz1TcH4Nb3aHNDJ7CGZhU7jgAK1BkSP4Lxds",
        "reception_time": "2022-01-16T17:46:41.699-00:00",
        "included_in_blocks":
          [ "BLg6BDF4p892ocv71B7nybF9cdZWGWW3jZXQZgyy6Dpie2gfeCc" ] },
      { "delegate": "tz3NExpXn9aPNZPorRE4SdjJ2RGrfbJgMAaV",
        "reception_time": "2022-01-16T17:46:41.540-00:00",
        "included_in_blocks":
          [ "BLg6BDF4p892ocv71B7nybF9cdZWGWW3jZXQZgyy6Dpie2gfeCc" ] },
      { "delegate": "tz3UoffC7FG7zfpmvmjUmUeAaHvzdcUvAj6r",
        "reception_time": "2022-01-16T17:46:41.527-00:00",
        "included_in_blocks":
          [ "BLg6BDF4p892ocv71B7nybF9cdZWGWW3jZXQZgyy6Dpie2gfeCc" ] },
      { "delegate": "tz1awXW7wuXy21c66vBudMXQVAPgRnqqwgTH",
        "reception_time": "2022-01-16T17:46:41.460-00:00",
        "included_in_blocks":
          [ "BLg6BDF4p892ocv71B7nybF9cdZWGWW3jZXQZgyy6Dpie2gfeCc" ] },
      { "delegate": "tz1aRoaRhSpRYvFdyvgWLL6TGyRoGF51wDjM",
        "reception_time": "2022-01-16T17:46:41.369-00:00",
        "included_in_blocks":
          [ "BLg6BDF4p892ocv71B7nybF9cdZWGWW3jZXQZgyy6Dpie2gfeCc" ] },
      { "delegate": "tz1T7duV5gZWSTq4YpBGbXNLTfznCLDrFxvs",
        "reception_time": "2022-01-16T17:46:40.986-00:00",
        "included_in_blocks":
          [ "BLg6BDF4p892ocv71B7nybF9cdZWGWW3jZXQZgyy6Dpie2gfeCc" ] },
      { "delegate": "tz1dRKU4FQ9QRRQPdaH4zCR6gmCmXfcvcgtB",
        "reception_time": "2022-01-16T17:46:40.792-00:00",
        "included_in_blocks":
          [ "BLg6BDF4p892ocv71B7nybF9cdZWGWW3jZXQZgyy6Dpie2gfeCc" ] },
      { "delegate": "tz1NEKxGEHsFufk87CVZcrqWu8o22qh46GK6",
        "reception_time": "2022-01-16T17:46:40.534-00:00",
        "included_in_blocks":
          [ "BLg6BDF4p892ocv71B7nybF9cdZWGWW3jZXQZgyy6Dpie2gfeCc" ] },
      { "delegate": "tz3NDpRj6WBrJPikcPVHRBEjWKxFw3c6eQPS",
        "reception_time": "2022-01-16T17:46:40.498-00:00",
        "included_in_blocks":
          [ "BLg6BDF4p892ocv71B7nybF9cdZWGWW3jZXQZgyy6Dpie2gfeCc" ] },
      { "delegate": "tz1Nf6tsK4G6bBqgSQERy4nUtkHNKUVdh7q1",
        "reception_time": "2022-01-16T17:46:40.477-00:00",
        "included_in_blocks":
          [ "BLg6BDF4p892ocv71B7nybF9cdZWGWW3jZXQZgyy6Dpie2gfeCc" ] },
      { "delegate": "tz1a1J3AGjJTAyBqWWSqFuUazUDV2TtD6hMy",
        "reception_time": "2022-01-16T17:46:40.351-00:00",
        "included_in_blocks":
          [ "BLg6BDF4p892ocv71B7nybF9cdZWGWW3jZXQZgyy6Dpie2gfeCc" ] },
      { "delegate": "tz3WMqdzXqRWXwyvj5Hp2H7QEepaUuS7vd9K",
        "reception_time": "2022-01-16T17:46:40.373-00:00",
        "included_in_blocks":
          [ "BLg6BDF4p892ocv71B7nybF9cdZWGWW3jZXQZgyy6Dpie2gfeCc" ] },
      { "delegate": "tz3bvNMQ95vfAYtG8193ymshqjSvmxiCUuR5",
        "reception_time": "2022-01-16T17:46:40.472-00:00",
        "included_in_blocks":
          [ "BLg6BDF4p892ocv71B7nybF9cdZWGWW3jZXQZgyy6Dpie2gfeCc" ] },
      { "delegate": "tz3RDC3Jdn4j15J7bBHZd29EUee9gVB1CxD9",
        "reception_time": "2022-01-16T17:46:40.409-00:00",
        "included_in_blocks":
          [ "BLg6BDF4p892ocv71B7nybF9cdZWGWW3jZXQZgyy6Dpie2gfeCc" ] },
      { "delegate": "tz1SYq214SCBy9naR6cvycQsYcUGpBqQAE8d",
        "reception_time": "2022-01-16T17:46:40.314-00:00",
        "included_in_blocks":
          [ "BLg6BDF4p892ocv71B7nybF9cdZWGWW3jZXQZgyy6Dpie2gfeCc" ] },
      { "delegate": "tz1NSDFKuRyzHxpfG1AMkyCwEiZ52cbR2mRW",
        "reception_time": "2022-01-16T17:46:40.287-00:00",
        "included_in_blocks":
          [ "BLg6BDF4p892ocv71B7nybF9cdZWGWW3jZXQZgyy6Dpie2gfeCc" ] },
      { "delegate": "tz3VEZ4k6a4Wx42iyev6i2aVAptTRLEAivNN",
        "reception_time": "2022-01-16T17:46:40.196-00:00",
        "included_in_blocks":
          [ "BLg6BDF4p892ocv71B7nybF9cdZWGWW3jZXQZgyy6Dpie2gfeCc" ] },
      { "delegate": "tz1PeZx7FXy7QRuMREGXGxeipb24RsMMzUNe",
        "reception_time": "2022-01-16T17:46:40.034-00:00",
        "included_in_blocks":
          [ "BLg6BDF4p892ocv71B7nybF9cdZWGWW3jZXQZgyy6Dpie2gfeCc" ] },
      { "delegate": "tz1KfEsrtDaA1sX7vdM4qmEPWuSytuqCDp5j",
        "reception_time": "2022-01-16T17:46:40.046-00:00",
        "included_in_blocks":
          [ "BLg6BDF4p892ocv71B7nybF9cdZWGWW3jZXQZgyy6Dpie2gfeCc" ] },
      { "delegate": "tz1LmaFsWRkjr7QMCx5PtV6xTUz3AmEpKQiF",
        "reception_time": "2022-01-16T17:46:40.005-00:00",
        "included_in_blocks":
          [ "BLg6BDF4p892ocv71B7nybF9cdZWGWW3jZXQZgyy6Dpie2gfeCc" ] },
      { "delegate": "tz1cZfFQpcYhwDp7y1njZXDsZqCrn2NqmVof",
        "reception_time": "2022-01-16T17:46:39.926-00:00",
        "included_in_blocks":
          [ "BLg6BDF4p892ocv71B7nybF9cdZWGWW3jZXQZgyy6Dpie2gfeCc" ] },
      { "delegate": "tz2FCNBrERXtaTtNX6iimR1UJ5JSDxvdHM93",
        "reception_time": "2022-01-16T17:46:39.906-00:00",
        "included_in_blocks":
          [ "BLg6BDF4p892ocv71B7nybF9cdZWGWW3jZXQZgyy6Dpie2gfeCc" ] },
      { "delegate": "tz1WBfwbT66FC6BTLexc2BoyCCBM9LG7pnVW",
        "reception_time": "2022-01-16T17:46:39.941-00:00",
        "included_in_blocks":
          [ "BLg6BDF4p892ocv71B7nybF9cdZWGWW3jZXQZgyy6Dpie2gfeCc" ] },
      { "delegate": "tz1RCFbB9GpALpsZtu6J58sb74dm8qe6XBzv",
        "reception_time": "2022-01-16T17:46:39.883-00:00",
        "included_in_blocks":
          [ "BLg6BDF4p892ocv71B7nybF9cdZWGWW3jZXQZgyy6Dpie2gfeCc" ] },
      { "delegate": "tz1UMCB2AHSTwG7YcGNr31CqYCtGN873royv",
        "reception_time": "2022-01-16T17:46:39.854-00:00",
        "included_in_blocks":
          [ "BLg6BDF4p892ocv71B7nybF9cdZWGWW3jZXQZgyy6Dpie2gfeCc" ] },
      { "delegate": "tz1ei4WtWEMEJekSv8qDnu9PExG6Q8HgRGr3",
        "reception_time": "2022-01-16T17:46:39.889-00:00",
        "included_in_blocks":
          [ "BLg6BDF4p892ocv71B7nybF9cdZWGWW3jZXQZgyy6Dpie2gfeCc" ] },
      { "delegate": "tz1fwnfJNgiDACshK9avfRfFbMaXrs3ghoJa",
        "reception_time": "2022-01-16T17:46:39.654-00:00",
        "included_in_blocks":
          [ "BLg6BDF4p892ocv71B7nybF9cdZWGWW3jZXQZgyy6Dpie2gfeCc" ] },
      { "delegate": "tz1MQJPGNMijnXnVoBENFz9rUhaPt3S7rWoz",
        "reception_time": "2022-01-16T17:46:39.604-00:00",
        "included_in_blocks":
          [ "BLg6BDF4p892ocv71B7nybF9cdZWGWW3jZXQZgyy6Dpie2gfeCc" ] },
      { "delegate": "tz1bZ8vsMAXmaWEV7FRnyhcuUs2fYMaQ6Hkk",
        "reception_time": "2022-01-16T17:46:39.493-00:00",
        "included_in_blocks":
          [ "BLg6BDF4p892ocv71B7nybF9cdZWGWW3jZXQZgyy6Dpie2gfeCc" ] },
      { "delegate": "tz1bHzftcTKZMTZgLLtnrXydCm6UEqf4ivca",
        "reception_time": "2022-01-16T17:46:39.363-00:00",
        "included_in_blocks":
          [ "BLg6BDF4p892ocv71B7nybF9cdZWGWW3jZXQZgyy6Dpie2gfeCc" ] },
      { "delegate": "tz1RQhNh7iB9CZA7i3ifTWNwiGYVffponfbB",
        "reception_time": "2022-01-16T17:46:39.477-00:00",
        "included_in_blocks":
          [ "BLg6BDF4p892ocv71B7nybF9cdZWGWW3jZXQZgyy6Dpie2gfeCc" ] },
      { "delegate": "tz1S8MNvuFEUsWgjHvi3AxibRBf388NhT1q2",
        "reception_time": "2022-01-16T17:46:39.335-00:00",
        "included_in_blocks":
          [ "BLg6BDF4p892ocv71B7nybF9cdZWGWW3jZXQZgyy6Dpie2gfeCc" ] },
      { "delegate": "tz1TEc75UKXv4W5cwi14Na3NtqFD51yKQi7h",
        "reception_time": "2022-01-16T17:46:39.418-00:00",
        "included_in_blocks":
          [ "BLg6BDF4p892ocv71B7nybF9cdZWGWW3jZXQZgyy6Dpie2gfeCc" ] },
      { "delegate": "tz1PWCDnz783NNGGQjEFFsHtrcK5yBW4E2rm",
        "reception_time": "2022-01-16T17:46:39.221-00:00",
        "included_in_blocks":
          [ "BLg6BDF4p892ocv71B7nybF9cdZWGWW3jZXQZgyy6Dpie2gfeCc" ] },
      { "delegate": "tz1gfArv665EUkSg2ojMBzcbfwuPxAvqPvjo",
        "reception_time": "2022-01-16T17:46:39.379-00:00",
        "included_in_blocks":
          [ "BLg6BDF4p892ocv71B7nybF9cdZWGWW3jZXQZgyy6Dpie2gfeCc" ] },
      { "delegate": "tz3bTdwZinP8U1JmSweNzVKhmwafqWmFWRfk",
        "reception_time": "2022-01-16T17:46:39.241-00:00",
        "included_in_blocks":
          [ "BLg6BDF4p892ocv71B7nybF9cdZWGWW3jZXQZgyy6Dpie2gfeCc" ] },
      { "delegate": "tz1UJvHTgpVzcKWhTazGxVcn5wsHru5Gietg",
        "reception_time": "2022-01-16T17:46:39.214-00:00",
        "included_in_blocks":
          [ "BLg6BDF4p892ocv71B7nybF9cdZWGWW3jZXQZgyy6Dpie2gfeCc" ] },
      { "delegate": "tz3RB4aoyjov4KEVRbuhvQ1CKJgBJMWhaeB8",
        "reception_time": "2022-01-16T17:46:39.166-00:00",
        "included_in_blocks":
          [ "BLg6BDF4p892ocv71B7nybF9cdZWGWW3jZXQZgyy6Dpie2gfeCc" ] },
      { "delegate": "tz3iJu5vrKZcsqRPs8yJ61UDoeEXZmtro4qh",
        "reception_time": "2022-01-16T17:46:39.182-00:00",
        "included_in_blocks":
          [ "BLg6BDF4p892ocv71B7nybF9cdZWGWW3jZXQZgyy6Dpie2gfeCc" ] },
      { "delegate": "tz3QT9dHYKDqh563chVa6za8526ys1UKfRfL",
        "reception_time": "2022-01-16T17:46:39.119-00:00",
        "included_in_blocks":
          [ "BLg6BDF4p892ocv71B7nybF9cdZWGWW3jZXQZgyy6Dpie2gfeCc" ] },
      { "delegate": "tz3Zhs2dygr55yHyQyKjntAtY9bgfhLZ4Xj1",
        "reception_time": "2022-01-16T17:46:39.133-00:00",
        "included_in_blocks":
          [ "BLg6BDF4p892ocv71B7nybF9cdZWGWW3jZXQZgyy6Dpie2gfeCc" ] },
      { "delegate": "tz3S6BBeKgJGXxvLyZ1xzXzMPn11nnFtq5L9",
        "reception_time": "2022-01-16T17:46:39.174-00:00",
        "included_in_blocks":
          [ "BLg6BDF4p892ocv71B7nybF9cdZWGWW3jZXQZgyy6Dpie2gfeCc" ] },
      { "delegate": "tz1MQMiZHV8q4tTwUMWmS5Y3kaP6J2136iXr",
        "reception_time": "2022-01-16T17:46:39.192-00:00",
        "included_in_blocks":
          [ "BLg6BDF4p892ocv71B7nybF9cdZWGWW3jZXQZgyy6Dpie2gfeCc" ] },
      { "delegate": "tz3QCNyySViKHmeSr45kzDxzchys7NiXCWoa",
        "reception_time": "2022-01-16T17:46:39.125-00:00",
        "included_in_blocks":
          [ "BLg6BDF4p892ocv71B7nybF9cdZWGWW3jZXQZgyy6Dpie2gfeCc" ] },
      { "delegate": "tz1YhNsiRRU8aHNGg7NK3uuP6UDAyacJernB",
        "reception_time": "2022-01-16T17:46:39.135-00:00",
        "included_in_blocks":
          [ "BLg6BDF4p892ocv71B7nybF9cdZWGWW3jZXQZgyy6Dpie2gfeCc" ] },
      { "delegate": "tz1VmiY38m3y95HqQLjMwqnMS7sdMfGomzKi",
        "reception_time": "2022-01-16T17:46:39.101-00:00",
        "included_in_blocks":
          [ "BLg6BDF4p892ocv71B7nybF9cdZWGWW3jZXQZgyy6Dpie2gfeCc" ] },
      { "delegate": "tz3QSGPoRp3Kn7n3vY24eYeu3Peuqo45LQ4D",
        "reception_time": "2022-01-16T17:46:38.992-00:00",
        "included_in_blocks":
          [ "BLg6BDF4p892ocv71B7nybF9cdZWGWW3jZXQZgyy6Dpie2gfeCc" ] },
      { "delegate": "tz3RKYFsLuQzKBtmYuLNas7uMu3AsYd4QdsA",
        "reception_time": "2022-01-16T17:46:39.082-00:00",
        "included_in_blocks":
          [ "BLg6BDF4p892ocv71B7nybF9cdZWGWW3jZXQZgyy6Dpie2gfeCc" ] },
      { "delegate": "tz1TzaNn7wSQSP5gYPXCnNzBCpyMiidCq1PX",
        "reception_time": "2022-01-16T17:46:39.052-00:00",
        "included_in_blocks":
          [ "BLg6BDF4p892ocv71B7nybF9cdZWGWW3jZXQZgyy6Dpie2gfeCc" ] },
      { "delegate": "tz3gtoUxdudfBRcNY7iVdKPHCYYX6xdPpoRS",
        "reception_time": "2022-01-16T17:46:39.097-00:00",
        "included_in_blocks":
          [ "BLg6BDF4p892ocv71B7nybF9cdZWGWW3jZXQZgyy6Dpie2gfeCc" ] },
      { "delegate": "tz3hw2kqXhLUvY65ca1eety2oQTpAvd34R9Q",
        "reception_time": "2022-01-16T17:46:39.003-00:00",
        "included_in_blocks":
          [ "BLg6BDF4p892ocv71B7nybF9cdZWGWW3jZXQZgyy6Dpie2gfeCc" ] },
      { "delegate": "tz1bnf8bo9GUgeyUhfMcaC7mNqMmLS6Ri3hb",
        "reception_time": "2022-01-16T17:46:39.043-00:00",
        "included_in_blocks":
          [ "BLg6BDF4p892ocv71B7nybF9cdZWGWW3jZXQZgyy6Dpie2gfeCc" ] },
      { "delegate": "tz1aXD7Jigrt3PBYSpHSg5Rr33SexMmmM5Ys",
        "reception_time": "2022-01-16T17:46:39.075-00:00",
        "included_in_blocks":
          [ "BLg6BDF4p892ocv71B7nybF9cdZWGWW3jZXQZgyy6Dpie2gfeCc" ] },
      { "delegate": "tz1gUNyn3hmnEWqkusWPzxRaon1cs7ndWh7h",
        "reception_time": "2022-01-16T17:46:38.948-00:00",
        "included_in_blocks":
          [ "BLg6BDF4p892ocv71B7nybF9cdZWGWW3jZXQZgyy6Dpie2gfeCc" ] },
      { "delegate": "tz1VQnqCCqX4K5sP3FNkVSNKTdCAMJDd3E1n",
        "reception_time": "2022-01-16T17:46:38.964-00:00",
        "included_in_blocks":
          [ "BLg6BDF4p892ocv71B7nybF9cdZWGWW3jZXQZgyy6Dpie2gfeCc" ] },
      { "delegate": "tz1Ldzz6k1BHdhuKvAtMRX7h5kJSMHESMHLC",
        "reception_time": "2022-01-16T17:46:38.971-00:00",
        "included_in_blocks":
          [ "BLg6BDF4p892ocv71B7nybF9cdZWGWW3jZXQZgyy6Dpie2gfeCc" ] },
      { "delegate": "tz1NMdMmWZN8QPB8pY4ddncACDg1cHi1xD2e",
        "reception_time": "2022-01-16T17:46:39.067-00:00",
        "included_in_blocks":
          [ "BLg6BDF4p892ocv71B7nybF9cdZWGWW3jZXQZgyy6Dpie2gfeCc" ] },
      { "delegate": "tz3ZbP2pM3nwvXztbuMJwJnDvV5xdpU8UkkD",
        "reception_time": "2022-01-16T17:46:38.979-00:00",
        "included_in_blocks":
          [ "BLg6BDF4p892ocv71B7nybF9cdZWGWW3jZXQZgyy6Dpie2gfeCc" ] },
      { "delegate": "tz1beersuEDv8Z7ngQ825xfbaJNS2EhXnyHR",
        "reception_time": "2022-01-16T17:46:38.960-00:00",
        "included_in_blocks":
          [ "BLg6BDF4p892ocv71B7nybF9cdZWGWW3jZXQZgyy6Dpie2gfeCc" ] },
      { "delegate": "tz1TXzyaKUA8wsWefdSnyaYFnV2M3vCV7er9",
        "reception_time": "2022-01-16T17:46:38.952-00:00",
        "included_in_blocks":
          [ "BLg6BDF4p892ocv71B7nybF9cdZWGWW3jZXQZgyy6Dpie2gfeCc" ] },
      { "delegate": "tz1P2Po7YM526ughEsRbY4oR9zaUPDZjxFrb",
        "reception_time": "2022-01-16T17:46:38.925-00:00",
        "included_in_blocks":
          [ "BLg6BDF4p892ocv71B7nybF9cdZWGWW3jZXQZgyy6Dpie2gfeCc" ] },
      { "delegate": "tz1eEnQhbwf6trb8Q8mPb2RaPkNk2rN7BKi8",
        "reception_time": "2022-01-16T17:46:38.938-00:00",
        "included_in_blocks":
          [ "BLg6BDF4p892ocv71B7nybF9cdZWGWW3jZXQZgyy6Dpie2gfeCc" ] } ] }