{ "blocks":
    [ { "hash": "BM19zEcav4TTbh9tKUgQijy71Ab3mS8PraDv2qSnfsMn9Vnc4No",
        "delegate": "tz1eEnQhbwf6trb8Q8mPb2RaPkNk2rN7BKi8",
        "reception_time": "2022-01-16T17:31:08.133-00:00",
        "timestamp": "2022-01-16T17:31:00Z" } ],
  "endorsements":
    [ { "delegate": "tz1P2Po7YM526ughEsRbY4oR9zaUPDZjxFrb",
        "reception_time": "2022-01-16T17:31:08.112-00:00",
        "errors":
          [ { "kind": "temporary",
              "id": "proto.011-PtHangz2.prefilter.outdated_endorsement" } ],
        "included_in_blocks":
          [ "BKoJqaCK3gb3PGAtdgTE4ixVS86R4XefijvEgHsYoQwKbS8DYC9" ] },
      { "delegate": "tz1eEnQhbwf6trb8Q8mPb2RaPkNk2rN7BKi8",
        "reception_time": "2022-01-16T17:31:07.901-00:00",
        "errors":
          [ { "kind": "temporary",
              "id": "proto.011-PtHangz2.prefilter.outdated_endorsement" } ],
        "included_in_blocks":
          [ "BKoJqaCK3gb3PGAtdgTE4ixVS86R4XefijvEgHsYoQwKbS8DYC9" ] },
      { "delegate": "tz1Lhf4J9Qxoe3DZ2nfe8FGDnvVj7oKjnMY6",
        "reception_time": "2022-01-16T17:31:07.868-00:00",
        "errors":
          [ { "kind": "temporary",
              "id": "proto.011-PtHangz2.prefilter.outdated_endorsement" } ],
        "included_in_blocks":
          [ "BKoJqaCK3gb3PGAtdgTE4ixVS86R4XefijvEgHsYoQwKbS8DYC9" ] },
      { "delegate": "tz1NdhRv643wLW6zCcRP3VfT24dvDnh7nuh9" },
      { "delegate": "tz1RjoHc98dBoqaH2jawF62XNKh7YsHwbkEv" },
      { "delegate": "tz1ibcPVGK4Y8pcW4BYUsojiHoBKnZbyDGrX" },
      { "delegate": "tz1iZEKy4LaAjnTmn2RuGDf2iqdAQKnRi8kY",
        "reception_time": "2022-01-16T17:31:08.951-00:00",
        "included_in_blocks":
          [ "BKoJqaCK3gb3PGAtdgTE4ixVS86R4XefijvEgHsYoQwKbS8DYC9" ] },
      { "delegate": "tz3ZbP2pM3nwvXztbuMJwJnDvV5xdpU8UkkD",
        "reception_time": "2022-01-16T17:31:08.962-00:00",
        "included_in_blocks":
          [ "BKoJqaCK3gb3PGAtdgTE4ixVS86R4XefijvEgHsYoQwKbS8DYC9" ] },
      { "delegate": "tz3NxTnke1acr8o3h5y9ytf5awQBGNJUKzVU",
        "reception_time": "2022-01-16T17:31:08.988-00:00",
        "included_in_blocks":
          [ "BKoJqaCK3gb3PGAtdgTE4ixVS86R4XefijvEgHsYoQwKbS8DYC9" ] },
      { "delegate": "tz1beersuEDv8Z7ngQ825xfbaJNS2EhXnyHR",
        "reception_time": "2022-01-16T17:31:08.988-00:00",
        "included_in_blocks":
          [ "BKoJqaCK3gb3PGAtdgTE4ixVS86R4XefijvEgHsYoQwKbS8DYC9" ] },
      { "delegate": "tz1Ldzz6k1BHdhuKvAtMRX7h5kJSMHESMHLC",
        "reception_time": "2022-01-16T17:31:08.988-00:00",
        "included_in_blocks":
          [ "BKoJqaCK3gb3PGAtdgTE4ixVS86R4XefijvEgHsYoQwKbS8DYC9" ] },
      { "delegate": "tz1irJKkXS2DBWkU1NnmFQx1c1L7pbGg4yhk",
        "reception_time": "2022-01-16T17:31:08.988-00:00",
        "included_in_blocks":
          [ "BKoJqaCK3gb3PGAtdgTE4ixVS86R4XefijvEgHsYoQwKbS8DYC9" ] },
      { "delegate": "tz1Kt4P8BCaP93AEV4eA7gmpRryWt5hznjCP",
        "reception_time": "2022-01-16T17:31:08.988-00:00",
        "included_in_blocks":
          [ "BKoJqaCK3gb3PGAtdgTE4ixVS86R4XefijvEgHsYoQwKbS8DYC9" ] },
      { "delegate": "tz1Kf25fX1VdmYGSEzwFy1wNmkbSEZ2V83sY",
        "reception_time": "2022-01-16T17:31:08.988-00:00",
        "included_in_blocks":
          [ "BKoJqaCK3gb3PGAtdgTE4ixVS86R4XefijvEgHsYoQwKbS8DYC9" ] },
      { "delegate": "tz1TRspM5SeZpaQUhzByXbEvqKF1vnCM2YTK",
        "reception_time": "2022-01-16T17:31:08.991-00:00",
        "included_in_blocks":
          [ "BKoJqaCK3gb3PGAtdgTE4ixVS86R4XefijvEgHsYoQwKbS8DYC9" ] },
      { "delegate": "tz1TzaNn7wSQSP5gYPXCnNzBCpyMiidCq1PX",
        "reception_time": "2022-01-16T17:31:09.002-00:00",
        "included_in_blocks":
          [ "BKoJqaCK3gb3PGAtdgTE4ixVS86R4XefijvEgHsYoQwKbS8DYC9" ] },
      { "delegate": "tz1WCd2jm4uSt4vntk4vSuUWoZQGhLcDuR9q",
        "reception_time": "2022-01-16T17:31:09.071-00:00",
        "included_in_blocks":
          [ "BKoJqaCK3gb3PGAtdgTE4ixVS86R4XefijvEgHsYoQwKbS8DYC9" ] },
      { "delegate": "tz3hw2kqXhLUvY65ca1eety2oQTpAvd34R9Q",
        "reception_time": "2022-01-16T17:31:09.248-00:00",
        "included_in_blocks":
          [ "BKoJqaCK3gb3PGAtdgTE4ixVS86R4XefijvEgHsYoQwKbS8DYC9" ] },
      { "delegate": "tz3RKYFsLuQzKBtmYuLNas7uMu3AsYd4QdsA",
        "reception_time": "2022-01-16T17:31:09.320-00:00",
        "included_in_blocks":
          [ "BKoJqaCK3gb3PGAtdgTE4ixVS86R4XefijvEgHsYoQwKbS8DYC9" ] },
      { "delegate": "tz3Zhs2dygr55yHyQyKjntAtY9bgfhLZ4Xj1",
        "reception_time": "2022-01-16T17:31:09.344-00:00",
        "included_in_blocks":
          [ "BKoJqaCK3gb3PGAtdgTE4ixVS86R4XefijvEgHsYoQwKbS8DYC9" ] },
      { "delegate": "tz1PWCDnz783NNGGQjEFFsHtrcK5yBW4E2rm",
        "reception_time": "2022-01-16T17:31:09.384-00:00",
        "included_in_blocks":
          [ "BKoJqaCK3gb3PGAtdgTE4ixVS86R4XefijvEgHsYoQwKbS8DYC9" ] },
      { "delegate": "tz1YhNsiRRU8aHNGg7NK3uuP6UDAyacJernB",
        "reception_time": "2022-01-16T17:31:09.416-00:00",
        "included_in_blocks":
          [ "BKoJqaCK3gb3PGAtdgTE4ixVS86R4XefijvEgHsYoQwKbS8DYC9" ] },
      { "delegate": "tz3iJu5vrKZcsqRPs8yJ61UDoeEXZmtro4qh",
        "reception_time": "2022-01-16T17:31:09.434-00:00",
        "included_in_blocks":
          [ "BKoJqaCK3gb3PGAtdgTE4ixVS86R4XefijvEgHsYoQwKbS8DYC9" ] },
      { "delegate": "tz3gtoUxdudfBRcNY7iVdKPHCYYX6xdPpoRS",
        "reception_time": "2022-01-16T17:31:09.445-00:00",
        "included_in_blocks":
          [ "BKoJqaCK3gb3PGAtdgTE4ixVS86R4XefijvEgHsYoQwKbS8DYC9" ] },
      { "delegate": "tz1VQnqCCqX4K5sP3FNkVSNKTdCAMJDd3E1n",
        "reception_time": "2022-01-16T17:31:09.445-00:00",
        "included_in_blocks":
          [ "BKoJqaCK3gb3PGAtdgTE4ixVS86R4XefijvEgHsYoQwKbS8DYC9" ] },
      { "delegate": "tz1gfArv665EUkSg2ojMBzcbfwuPxAvqPvjo",
        "reception_time": "2022-01-16T17:31:09.450-00:00",
        "included_in_blocks":
          [ "BKoJqaCK3gb3PGAtdgTE4ixVS86R4XefijvEgHsYoQwKbS8DYC9" ] },
      { "delegate": "tz3QSGPoRp3Kn7n3vY24eYeu3Peuqo45LQ4D",
        "reception_time": "2022-01-16T17:31:09.466-00:00",
        "included_in_blocks":
          [ "BKoJqaCK3gb3PGAtdgTE4ixVS86R4XefijvEgHsYoQwKbS8DYC9" ] },
      { "delegate": "tz3S6BBeKgJGXxvLyZ1xzXzMPn11nnFtq5L9",
        "reception_time": "2022-01-16T17:31:09.483-00:00",
        "included_in_blocks":
          [ "BKoJqaCK3gb3PGAtdgTE4ixVS86R4XefijvEgHsYoQwKbS8DYC9" ] },
      { "delegate": "tz1gUNyn3hmnEWqkusWPzxRaon1cs7ndWh7h",
        "reception_time": "2022-01-16T17:31:09.508-00:00",
        "included_in_blocks":
          [ "BKoJqaCK3gb3PGAtdgTE4ixVS86R4XefijvEgHsYoQwKbS8DYC9" ] },
      { "delegate": "tz3QT9dHYKDqh563chVa6za8526ys1UKfRfL",
        "reception_time": "2022-01-16T17:31:09.550-00:00",
        "included_in_blocks":
          [ "BKoJqaCK3gb3PGAtdgTE4ixVS86R4XefijvEgHsYoQwKbS8DYC9" ] },
      { "delegate": "tz1LmaFsWRkjr7QMCx5PtV6xTUz3AmEpKQiF",
        "reception_time": "2022-01-16T17:31:09.758-00:00",
        "included_in_blocks":
          [ "BKoJqaCK3gb3PGAtdgTE4ixVS86R4XefijvEgHsYoQwKbS8DYC9" ] },
      { "delegate": "tz1S8MNvuFEUsWgjHvi3AxibRBf388NhT1q2",
        "reception_time": "2022-01-16T17:31:09.801-00:00",
        "included_in_blocks":
          [ "BKoJqaCK3gb3PGAtdgTE4ixVS86R4XefijvEgHsYoQwKbS8DYC9" ] },
      { "delegate": "tz1dwu9aYb7CRNq4Y2zAjipdjFuSVKhHS8vA",
        "reception_time": "2022-01-16T17:31:09.815-00:00",
        "included_in_blocks":
          [ "BKoJqaCK3gb3PGAtdgTE4ixVS86R4XefijvEgHsYoQwKbS8DYC9" ] },
      { "delegate": "tz1cYqRcjRXSWcs3bjehN21VmBAH2aFMg6Ds",
        "reception_time": "2022-01-16T17:31:09.846-00:00",
        "included_in_blocks":
          [ "BKoJqaCK3gb3PGAtdgTE4ixVS86R4XefijvEgHsYoQwKbS8DYC9" ] },
      { "delegate": "tz1SYq214SCBy9naR6cvycQsYcUGpBqQAE8d",
        "reception_time": "2022-01-16T17:31:09.850-00:00",
        "included_in_blocks":
          [ "BKoJqaCK3gb3PGAtdgTE4ixVS86R4XefijvEgHsYoQwKbS8DYC9" ] },
      { "delegate": "tz1ei4WtWEMEJekSv8qDnu9PExG6Q8HgRGr3",
        "reception_time": "2022-01-16T17:31:09.881-00:00",
        "included_in_blocks":
          [ "BKoJqaCK3gb3PGAtdgTE4ixVS86R4XefijvEgHsYoQwKbS8DYC9" ] },
      { "delegate": "tz1V4qCyvPKZ5UeqdH14HN42rxvNPQfc9UZg",
        "reception_time": "2022-01-16T17:31:09.939-00:00",
        "included_in_blocks":
          [ "BKoJqaCK3gb3PGAtdgTE4ixVS86R4XefijvEgHsYoQwKbS8DYC9" ] },
      { "delegate": "tz1XX67xSF2ou3aQZ6LhXaaxZWDR3YZ6hCMs",
        "reception_time": "2022-01-16T17:31:10.003-00:00",
        "included_in_blocks":
          [ "BKoJqaCK3gb3PGAtdgTE4ixVS86R4XefijvEgHsYoQwKbS8DYC9" ] },
      { "delegate": "tz1KfEsrtDaA1sX7vdM4qmEPWuSytuqCDp5j",
        "reception_time": "2022-01-16T17:31:10.090-00:00",
        "included_in_blocks":
          [ "BKoJqaCK3gb3PGAtdgTE4ixVS86R4XefijvEgHsYoQwKbS8DYC9" ] },
      { "delegate": "tz1fwnfJNgiDACshK9avfRfFbMaXrs3ghoJa",
        "reception_time": "2022-01-16T17:31:10.220-00:00",
        "included_in_blocks":
          [ "BKoJqaCK3gb3PGAtdgTE4ixVS86R4XefijvEgHsYoQwKbS8DYC9" ] },
      { "delegate": "tz1RCFbB9GpALpsZtu6J58sb74dm8qe6XBzv",
        "reception_time": "2022-01-16T17:31:10.242-00:00",
        "included_in_blocks":
          [ "BKoJqaCK3gb3PGAtdgTE4ixVS86R4XefijvEgHsYoQwKbS8DYC9" ] },
      { "delegate": "tz1Tnjaxk6tbAeC2TmMApPh8UsrEVQvhHvx5",
        "reception_time": "2022-01-16T17:31:10.294-00:00",
        "included_in_blocks":
          [ "BKoJqaCK3gb3PGAtdgTE4ixVS86R4XefijvEgHsYoQwKbS8DYC9" ] },
      { "delegate": "tz3bTdwZinP8U1JmSweNzVKhmwafqWmFWRfk",
        "reception_time": "2022-01-16T17:31:10.310-00:00",
        "included_in_blocks":
          [ "BKoJqaCK3gb3PGAtdgTE4ixVS86R4XefijvEgHsYoQwKbS8DYC9" ] },
      { "delegate": "tz1Nf6tsK4G6bBqgSQERy4nUtkHNKUVdh7q1",
        "reception_time": "2022-01-16T17:31:10.384-00:00",
        "included_in_blocks":
          [ "BKoJqaCK3gb3PGAtdgTE4ixVS86R4XefijvEgHsYoQwKbS8DYC9" ] },
      { "delegate": "tz1NortRftucvAkD1J58L32EhSVrQEWJCEnB",
        "reception_time": "2022-01-16T17:31:10.400-00:00",
        "included_in_blocks":
          [ "BKoJqaCK3gb3PGAtdgTE4ixVS86R4XefijvEgHsYoQwKbS8DYC9" ] },
      { "delegate": "tz3NDpRj6WBrJPikcPVHRBEjWKxFw3c6eQPS",
        "reception_time": "2022-01-16T17:31:10.536-00:00",
        "included_in_blocks":
          [ "BKoJqaCK3gb3PGAtdgTE4ixVS86R4XefijvEgHsYoQwKbS8DYC9" ] },
      { "delegate": "tz1NEKxGEHsFufk87CVZcrqWu8o22qh46GK6",
        "reception_time": "2022-01-16T17:31:10.537-00:00",
        "included_in_blocks":
          [ "BKoJqaCK3gb3PGAtdgTE4ixVS86R4XefijvEgHsYoQwKbS8DYC9" ] },
      { "delegate": "tz3UoffC7FG7zfpmvmjUmUeAaHvzdcUvAj6r",
        "reception_time": "2022-01-16T17:31:10.573-00:00",
        "included_in_blocks":
          [ "BKoJqaCK3gb3PGAtdgTE4ixVS86R4XefijvEgHsYoQwKbS8DYC9" ] },
      { "delegate": "tz1g8vkmcde6sWKaG2NN9WKzCkDM6Rziq194",
        "reception_time": "2022-01-16T17:31:10.600-00:00",
        "included_in_blocks":
          [ "BKoJqaCK3gb3PGAtdgTE4ixVS86R4XefijvEgHsYoQwKbS8DYC9" ] },
      { "delegate": "tz3WMqdzXqRWXwyvj5Hp2H7QEepaUuS7vd9K",
        "reception_time": "2022-01-16T17:31:10.643-00:00",
        "included_in_blocks":
          [ "BKoJqaCK3gb3PGAtdgTE4ixVS86R4XefijvEgHsYoQwKbS8DYC9" ] },
      { "delegate": "tz2FCNBrERXtaTtNX6iimR1UJ5JSDxvdHM93",
        "reception_time": "2022-01-16T17:31:10.668-00:00",
        "included_in_blocks":
          [ "BKoJqaCK3gb3PGAtdgTE4ixVS86R4XefijvEgHsYoQwKbS8DYC9" ] },
      { "delegate": "tz3VEZ4k6a4Wx42iyev6i2aVAptTRLEAivNN",
        "reception_time": "2022-01-16T17:31:10.975-00:00",
        "included_in_blocks":
          [ "BKoJqaCK3gb3PGAtdgTE4ixVS86R4XefijvEgHsYoQwKbS8DYC9" ] },
      { "delegate": "tz1SohptP53wDPZhzTWzDUFAUcWF6DMBpaJV",
        "reception_time": "2022-01-16T17:31:10.990-00:00",
        "included_in_blocks":
          [ "BKoJqaCK3gb3PGAtdgTE4ixVS86R4XefijvEgHsYoQwKbS8DYC9" ] },
      { "delegate": "tz1UvkANVPWppVgMkLnvN7BwYZsCP7vm6NVd",
        "reception_time": "2022-01-16T17:31:11.002-00:00",
        "included_in_blocks":
          [ "BKoJqaCK3gb3PGAtdgTE4ixVS86R4XefijvEgHsYoQwKbS8DYC9" ] },
      { "delegate": "tz1NoYvKjXTzTk54VpLxBfouJ33J8jwKPPvw",
        "reception_time": "2022-01-16T17:31:11.006-00:00",
        "included_in_blocks":
          [ "BKoJqaCK3gb3PGAtdgTE4ixVS86R4XefijvEgHsYoQwKbS8DYC9" ] },
      { "delegate": "tz3RB4aoyjov4KEVRbuhvQ1CKJgBJMWhaeB8",
        "reception_time": "2022-01-16T17:31:11.166-00:00",
        "included_in_blocks":
          [ "BKoJqaCK3gb3PGAtdgTE4ixVS86R4XefijvEgHsYoQwKbS8DYC9" ] },
      { "delegate": "tz3bvNMQ95vfAYtG8193ymshqjSvmxiCUuR5",
        "reception_time": "2022-01-16T17:31:11.194-00:00",
        "included_in_blocks":
          [ "BKoJqaCK3gb3PGAtdgTE4ixVS86R4XefijvEgHsYoQwKbS8DYC9" ] },
      { "delegate": "tz1Zdk8q7wNasmv7VFeQ6QFwcw5fP2c7StoF",
        "reception_time": "2022-01-16T17:31:11.341-00:00",
        "included_in_blocks":
          [ "BKoJqaCK3gb3PGAtdgTE4ixVS86R4XefijvEgHsYoQwKbS8DYC9" ] },
      { "delegate": "tz1RzwaogUQ8zPntqrSn4yn5f3VquXfEH5Jo",
        "reception_time": "2022-01-16T17:31:11.472-00:00",
        "included_in_blocks":
          [ "BKoJqaCK3gb3PGAtdgTE4ixVS86R4XefijvEgHsYoQwKbS8DYC9" ] },
      { "delegate": "tz1T7duV5gZWSTq4YpBGbXNLTfznCLDrFxvs",
        "reception_time": "2022-01-16T17:31:11.472-00:00",
        "included_in_blocks":
          [ "BKoJqaCK3gb3PGAtdgTE4ixVS86R4XefijvEgHsYoQwKbS8DYC9" ] },
      { "delegate": "tz3RDC3Jdn4j15J7bBHZd29EUee9gVB1CxD9",
        "reception_time": "2022-01-16T17:31:11.520-00:00",
        "included_in_blocks":
          [ "BKoJqaCK3gb3PGAtdgTE4ixVS86R4XefijvEgHsYoQwKbS8DYC9" ] },
      { "delegate": "tz1aRoaRhSpRYvFdyvgWLL6TGyRoGF51wDjM",
        "reception_time": "2022-01-16T17:31:11.800-00:00",
        "included_in_blocks":
          [ "BKoJqaCK3gb3PGAtdgTE4ixVS86R4XefijvEgHsYoQwKbS8DYC9" ] },
      { "delegate": "tz1b9MYGrbN1NAxphLEsPPNT9JC7aNFc5nA4",
        "reception_time": "2022-01-16T17:31:11.895-00:00",
        "included_in_blocks":
          [ "BKoJqaCK3gb3PGAtdgTE4ixVS86R4XefijvEgHsYoQwKbS8DYC9" ] },
      { "delegate": "tz3NExpXn9aPNZPorRE4SdjJ2RGrfbJgMAaV",
        "reception_time": "2022-01-16T17:31:12.119-00:00",
        "included_in_blocks":
          [ "BKoJqaCK3gb3PGAtdgTE4ixVS86R4XefijvEgHsYoQwKbS8DYC9" ] },
      { "delegate": "tz1ZcTRk5uxD86EFEn1vvNffWWqJy7q5eVhc",
        "reception_time": "2022-01-16T17:31:12.267-00:00",
        "included_in_blocks":
          [ "BKoJqaCK3gb3PGAtdgTE4ixVS86R4XefijvEgHsYoQwKbS8DYC9" ] },
      { "delegate": "tz1TcH4Nb3aHNDJ7CGZhU7jgAK1BkSP4Lxds",
        "reception_time": "2022-01-16T17:31:12.380-00:00",
        "included_in_blocks":
          [ "BKoJqaCK3gb3PGAtdgTE4ixVS86R4XefijvEgHsYoQwKbS8DYC9" ] },
      { "delegate": "tz1aJS7Pk9uWR3wWyFf1i3RwhYxN84G7stom",
        "reception_time": "2022-01-16T17:31:12.899-00:00",
        "included_in_blocks":
          [ "BKoJqaCK3gb3PGAtdgTE4ixVS86R4XefijvEgHsYoQwKbS8DYC9" ] },
      { "delegate": "tz1W5VkdB5s7ENMESVBtwyt9kyvLqPcUczRT",
        "reception_time": "2022-01-16T17:31:13.329-00:00",
        "included_in_blocks":
          [ "BKoJqaCK3gb3PGAtdgTE4ixVS86R4XefijvEgHsYoQwKbS8DYC9" ] },
      { "delegate": "tz1S5WxdZR5f9NzsPXhr7L9L1vrEb5spZFur",
        "reception_time": "2022-01-16T17:31:14.719-00:00",
        "included_in_blocks":
          [ "BKoJqaCK3gb3PGAtdgTE4ixVS86R4XefijvEgHsYoQwKbS8DYC9" ] },
      { "delegate": "tz1NpWrAyDL9k2Lmnyxcgr9xuJakbBxdq7FB",
        "reception_time": "2022-01-16T17:31:16.834-00:00",
        "included_in_blocks":
          [ "BKoJqaCK3gb3PGAtdgTE4ixVS86R4XefijvEgHsYoQwKbS8DYC9" ] },
      { "delegate": "tz3e7LbZvUtoXhpUD1yb6wuFodZpfYRb9nWJ",
        "reception_time": "2022-01-16T17:31:18.960-00:00",
        "included_in_blocks":
          [ "BKoJqaCK3gb3PGAtdgTE4ixVS86R4XefijvEgHsYoQwKbS8DYC9" ] },
      { "delegate": "tz1RAxW1rBTRumV9QEpFsw51QWPQmAKHGMei",
        "reception_time": "2022-01-16T17:31:20.782-00:00",
        "included_in_blocks":
          [ "BKoJqaCK3gb3PGAtdgTE4ixVS86R4XefijvEgHsYoQwKbS8DYC9" ] } ] }