{ "blocks":
    [ { "hash": "BM4XoNnBQdnRh789Tabuk9nmBMfq2pL2cgHEaAw2KuGPt8zjR8i",
        "delegate": "tz1irJKkXS2DBWkU1NnmFQx1c1L7pbGg4yhk",
        "reception_time": "2022-01-16T18:22:06.341-00:00",
        "timestamp": "2022-01-16T18:22:00Z" } ],
  "endorsements":
    [ { "delegate": "tz1Vyuu4EJ5Nym4JcrfRLnp3hpaq1DSEp1Ke" },
      { "delegate": "tz1RjoHc98dBoqaH2jawF62XNKh7YsHwbkEv" },
      { "delegate": "tz1irJKkXS2DBWkU1NnmFQx1c1L7pbGg4yhk",
        "reception_time": "2022-01-16T18:22:06.321-00:00",
        "errors":
          [ { "kind": "temporary",
              "id": "proto.011-PtHangz2.prefilter.outdated_endorsement" } ],
        "included_in_blocks":
          [ "BKpTEETMswgPd1tVMRJcTYMqvrNBTp414CdEA98J3hJHdEQUahz" ] },
      { "delegate": "tz1P2Po7YM526ughEsRbY4oR9zaUPDZjxFrb",
        "reception_time": "2022-01-16T18:22:06.201-00:00",
        "errors":
          [ { "kind": "temporary",
              "id": "proto.011-PtHangz2.prefilter.outdated_endorsement" } ],
        "included_in_blocks":
          [ "BKpTEETMswgPd1tVMRJcTYMqvrNBTp414CdEA98J3hJHdEQUahz" ] },
      { "delegate": "tz1S8e9GgdZG78XJRB3NqabfWeM37GnhZMWQ",
        "reception_time": "2022-01-16T18:22:05.911-00:00",
        "errors":
          [ { "kind": "temporary",
              "id": "proto.011-PtHangz2.prefilter.outdated_endorsement" } ],
        "included_in_blocks":
          [ "BKpTEETMswgPd1tVMRJcTYMqvrNBTp414CdEA98J3hJHdEQUahz" ] },
      { "delegate": "tz3e5zQDhMEZYbDnaYT39jYLroYRHPWVgDdx",
        "reception_time": "2022-01-16T18:22:22.669-00:00",
        "included_in_blocks":
          [ "BKpTEETMswgPd1tVMRJcTYMqvrNBTp414CdEA98J3hJHdEQUahz" ] },
      { "delegate": "tz1RAxW1rBTRumV9QEpFsw51QWPQmAKHGMei",
        "reception_time": "2022-01-16T18:22:20.932-00:00",
        "included_in_blocks":
          [ "BKpTEETMswgPd1tVMRJcTYMqvrNBTp414CdEA98J3hJHdEQUahz" ] },
      { "delegate": "tz1awXW7wuXy21c66vBudMXQVAPgRnqqwgTH",
        "reception_time": "2022-01-16T18:22:11.150-00:00",
        "included_in_blocks":
          [ "BKpTEETMswgPd1tVMRJcTYMqvrNBTp414CdEA98J3hJHdEQUahz" ] },
      { "delegate": "tz1f3Re8iw6Pt3KMHAvyccHxDU3NuqL95axD",
        "reception_time": "2022-01-16T18:22:10.824-00:00",
        "included_in_blocks":
          [ "BKpTEETMswgPd1tVMRJcTYMqvrNBTp414CdEA98J3hJHdEQUahz" ] },
      { "delegate": "tz1aRoaRhSpRYvFdyvgWLL6TGyRoGF51wDjM",
        "reception_time": "2022-01-16T18:22:10.664-00:00",
        "included_in_blocks":
          [ "BKpTEETMswgPd1tVMRJcTYMqvrNBTp414CdEA98J3hJHdEQUahz" ] },
      { "delegate": "tz1ZcTRk5uxD86EFEn1vvNffWWqJy7q5eVhc",
        "reception_time": "2022-01-16T18:22:10.512-00:00",
        "included_in_blocks":
          [ "BKpTEETMswgPd1tVMRJcTYMqvrNBTp414CdEA98J3hJHdEQUahz" ] },
      { "delegate": "tz1cYufsxHXJcvANhvS55h3aY32a9BAFB494",
        "reception_time": "2022-01-16T18:22:10.481-00:00",
        "included_in_blocks":
          [ "BKpTEETMswgPd1tVMRJcTYMqvrNBTp414CdEA98J3hJHdEQUahz" ] },
      { "delegate": "tz3UoffC7FG7zfpmvmjUmUeAaHvzdcUvAj6r",
        "reception_time": "2022-01-16T18:22:10.331-00:00",
        "included_in_blocks":
          [ "BKpTEETMswgPd1tVMRJcTYMqvrNBTp414CdEA98J3hJHdEQUahz" ] },
      { "delegate": "tz3NExpXn9aPNZPorRE4SdjJ2RGrfbJgMAaV",
        "reception_time": "2022-01-16T18:22:10.174-00:00",
        "included_in_blocks":
          [ "BKpTEETMswgPd1tVMRJcTYMqvrNBTp414CdEA98J3hJHdEQUahz" ] },
      { "delegate": "tz1aJS7Pk9uWR3wWyFf1i3RwhYxN84G7stom",
        "reception_time": "2022-01-16T18:22:09.672-00:00",
        "included_in_blocks":
          [ "BKpTEETMswgPd1tVMRJcTYMqvrNBTp414CdEA98J3hJHdEQUahz" ] },
      { "delegate": "tz1V3yg82mcrPJbegqVCPn6bC8w1CSTRp3f8",
        "reception_time": "2022-01-16T18:22:09.628-00:00",
        "included_in_blocks":
          [ "BKpTEETMswgPd1tVMRJcTYMqvrNBTp414CdEA98J3hJHdEQUahz" ] },
      { "delegate": "tz3RDC3Jdn4j15J7bBHZd29EUee9gVB1CxD9",
        "reception_time": "2022-01-16T18:22:09.536-00:00",
        "included_in_blocks":
          [ "BKpTEETMswgPd1tVMRJcTYMqvrNBTp414CdEA98J3hJHdEQUahz" ] },
      { "delegate": "tz1aNPWn5jgLBpEGFABKM161eeeLVVJxgYME",
        "reception_time": "2022-01-16T18:22:09.476-00:00",
        "included_in_blocks":
          [ "BKpTEETMswgPd1tVMRJcTYMqvrNBTp414CdEA98J3hJHdEQUahz" ] },
      { "delegate": "tz3VEZ4k6a4Wx42iyev6i2aVAptTRLEAivNN",
        "reception_time": "2022-01-16T18:22:09.468-00:00",
        "included_in_blocks":
          [ "BKpTEETMswgPd1tVMRJcTYMqvrNBTp414CdEA98J3hJHdEQUahz" ] },
      { "delegate": "tz1RCFbB9GpALpsZtu6J58sb74dm8qe6XBzv",
        "reception_time": "2022-01-16T18:22:09.389-00:00",
        "included_in_blocks":
          [ "BKpTEETMswgPd1tVMRJcTYMqvrNBTp414CdEA98J3hJHdEQUahz" ] },
      { "delegate": "tz1dRKU4FQ9QRRQPdaH4zCR6gmCmXfcvcgtB",
        "reception_time": "2022-01-16T18:22:09.425-00:00",
        "included_in_blocks":
          [ "BKpTEETMswgPd1tVMRJcTYMqvrNBTp414CdEA98J3hJHdEQUahz" ] },
      { "delegate": "tz1SYq214SCBy9naR6cvycQsYcUGpBqQAE8d",
        "reception_time": "2022-01-16T18:22:09.212-00:00",
        "included_in_blocks":
          [ "BKpTEETMswgPd1tVMRJcTYMqvrNBTp414CdEA98J3hJHdEQUahz" ] },
      { "delegate": "tz3bvNMQ95vfAYtG8193ymshqjSvmxiCUuR5",
        "reception_time": "2022-01-16T18:22:09.269-00:00",
        "included_in_blocks":
          [ "BKpTEETMswgPd1tVMRJcTYMqvrNBTp414CdEA98J3hJHdEQUahz" ] },
      { "delegate": "tz3gLTu4Yxj8tPAcriQVUdxv6BY9QyvzU1az",
        "reception_time": "2022-01-16T18:22:09.125-00:00",
        "included_in_blocks":
          [ "BKpTEETMswgPd1tVMRJcTYMqvrNBTp414CdEA98J3hJHdEQUahz" ] },
      { "delegate": "tz3NDpRj6WBrJPikcPVHRBEjWKxFw3c6eQPS",
        "reception_time": "2022-01-16T18:22:09.103-00:00",
        "included_in_blocks":
          [ "BKpTEETMswgPd1tVMRJcTYMqvrNBTp414CdEA98J3hJHdEQUahz" ] },
      { "delegate": "tz1fZ767VDbqx4DeKiFswPSHh513f51mKEUZ",
        "reception_time": "2022-01-16T18:22:09.053-00:00",
        "included_in_blocks":
          [ "BKpTEETMswgPd1tVMRJcTYMqvrNBTp414CdEA98J3hJHdEQUahz" ] },
      { "delegate": "tz1dNVDWPf3Q59SdJqnjdnu277iyvReiRS9M",
        "reception_time": "2022-01-16T18:22:09.146-00:00",
        "included_in_blocks":
          [ "BKpTEETMswgPd1tVMRJcTYMqvrNBTp414CdEA98J3hJHdEQUahz" ] },
      { "delegate": "tz1hYj2SDMv9UfagrUiaAhnCrzoF9RqFK7eM",
        "reception_time": "2022-01-16T18:22:09.086-00:00",
        "included_in_blocks":
          [ "BKpTEETMswgPd1tVMRJcTYMqvrNBTp414CdEA98J3hJHdEQUahz" ] },
      { "delegate": "tz1Nf6tsK4G6bBqgSQERy4nUtkHNKUVdh7q1",
        "reception_time": "2022-01-16T18:22:08.967-00:00",
        "included_in_blocks":
          [ "BKpTEETMswgPd1tVMRJcTYMqvrNBTp414CdEA98J3hJHdEQUahz" ] },
      { "delegate": "tz1hAYfexyzPGG6RhZZMpDvAHifubsbb6kgn",
        "reception_time": "2022-01-16T18:22:09.054-00:00",
        "included_in_blocks":
          [ "BKpTEETMswgPd1tVMRJcTYMqvrNBTp414CdEA98J3hJHdEQUahz" ] },
      { "delegate": "tz1NEKxGEHsFufk87CVZcrqWu8o22qh46GK6",
        "reception_time": "2022-01-16T18:22:08.905-00:00",
        "included_in_blocks":
          [ "BKpTEETMswgPd1tVMRJcTYMqvrNBTp414CdEA98J3hJHdEQUahz" ] },
      { "delegate": "tz1TEc75UKXv4W5cwi14Na3NtqFD51yKQi7h",
        "reception_time": "2022-01-16T18:22:08.899-00:00",
        "included_in_blocks":
          [ "BKpTEETMswgPd1tVMRJcTYMqvrNBTp414CdEA98J3hJHdEQUahz" ] },
      { "delegate": "tz2FCNBrERXtaTtNX6iimR1UJ5JSDxvdHM93",
        "reception_time": "2022-01-16T18:22:08.927-00:00",
        "included_in_blocks":
          [ "BKpTEETMswgPd1tVMRJcTYMqvrNBTp414CdEA98J3hJHdEQUahz" ] },
      { "delegate": "tz1cig1EHyvZd7J2k389moM9PxVgPQvmFkvi",
        "reception_time": "2022-01-16T18:22:08.909-00:00",
        "included_in_blocks":
          [ "BKpTEETMswgPd1tVMRJcTYMqvrNBTp414CdEA98J3hJHdEQUahz" ] },
      { "delegate": "tz1WctSwL49BZtdWAQ75NY6vr4xsAx6oKdah",
        "reception_time": "2022-01-16T18:22:08.804-00:00",
        "included_in_blocks":
          [ "BKpTEETMswgPd1tVMRJcTYMqvrNBTp414CdEA98J3hJHdEQUahz" ] },
      { "delegate": "tz1WBfwbT66FC6BTLexc2BoyCCBM9LG7pnVW",
        "reception_time": "2022-01-16T18:22:08.772-00:00",
        "included_in_blocks":
          [ "BKpTEETMswgPd1tVMRJcTYMqvrNBTp414CdEA98J3hJHdEQUahz" ] },
      { "delegate": "tz3RB4aoyjov4KEVRbuhvQ1CKJgBJMWhaeB8",
        "reception_time": "2022-01-16T18:22:08.729-00:00",
        "included_in_blocks":
          [ "BKpTEETMswgPd1tVMRJcTYMqvrNBTp414CdEA98J3hJHdEQUahz" ] },
      { "delegate": "tz1fwnfJNgiDACshK9avfRfFbMaXrs3ghoJa",
        "reception_time": "2022-01-16T18:22:08.813-00:00",
        "included_in_blocks":
          [ "BKpTEETMswgPd1tVMRJcTYMqvrNBTp414CdEA98J3hJHdEQUahz" ] },
      { "delegate": "tz1YhNsiRRU8aHNGg7NK3uuP6UDAyacJernB",
        "reception_time": "2022-01-16T18:22:08.732-00:00",
        "included_in_blocks":
          [ "BKpTEETMswgPd1tVMRJcTYMqvrNBTp414CdEA98J3hJHdEQUahz" ] },
      { "delegate": "tz1LmaFsWRkjr7QMCx5PtV6xTUz3AmEpKQiF",
        "reception_time": "2022-01-16T18:22:08.553-00:00",
        "included_in_blocks":
          [ "BKpTEETMswgPd1tVMRJcTYMqvrNBTp414CdEA98J3hJHdEQUahz" ] },
      { "delegate": "tz3QCNyySViKHmeSr45kzDxzchys7NiXCWoa",
        "reception_time": "2022-01-16T18:22:08.568-00:00",
        "included_in_blocks":
          [ "BKpTEETMswgPd1tVMRJcTYMqvrNBTp414CdEA98J3hJHdEQUahz" ] },
      { "delegate": "tz1TKdBNQTFf3DqMga3z2h4MfYv1tPxdDMm4",
        "reception_time": "2022-01-16T18:22:08.517-00:00",
        "included_in_blocks":
          [ "BKpTEETMswgPd1tVMRJcTYMqvrNBTp414CdEA98J3hJHdEQUahz" ] },
      { "delegate": "tz1ei4WtWEMEJekSv8qDnu9PExG6Q8HgRGr3",
        "reception_time": "2022-01-16T18:22:08.407-00:00",
        "included_in_blocks":
          [ "BKpTEETMswgPd1tVMRJcTYMqvrNBTp414CdEA98J3hJHdEQUahz" ] },
      { "delegate": "tz3bTdwZinP8U1JmSweNzVKhmwafqWmFWRfk",
        "reception_time": "2022-01-16T18:22:08.523-00:00",
        "included_in_blocks":
          [ "BKpTEETMswgPd1tVMRJcTYMqvrNBTp414CdEA98J3hJHdEQUahz" ] },
      { "delegate": "tz1KfEsrtDaA1sX7vdM4qmEPWuSytuqCDp5j",
        "reception_time": "2022-01-16T18:22:08.467-00:00",
        "included_in_blocks":
          [ "BKpTEETMswgPd1tVMRJcTYMqvrNBTp414CdEA98J3hJHdEQUahz" ] },
      { "delegate": "tz1Tnjaxk6tbAeC2TmMApPh8UsrEVQvhHvx5",
        "reception_time": "2022-01-16T18:22:08.585-00:00",
        "included_in_blocks":
          [ "BKpTEETMswgPd1tVMRJcTYMqvrNBTp414CdEA98J3hJHdEQUahz" ] },
      { "delegate": "tz1fPKAtsYydh4f1wfWNfeNxWYu72TmM48fu",
        "reception_time": "2022-01-16T18:22:08.271-00:00",
        "included_in_blocks":
          [ "BKpTEETMswgPd1tVMRJcTYMqvrNBTp414CdEA98J3hJHdEQUahz" ] },
      { "delegate": "tz1gfArv665EUkSg2ojMBzcbfwuPxAvqPvjo",
        "reception_time": "2022-01-16T18:22:08.259-00:00",
        "included_in_blocks":
          [ "BKpTEETMswgPd1tVMRJcTYMqvrNBTp414CdEA98J3hJHdEQUahz" ] },
      { "delegate": "tz1S8MNvuFEUsWgjHvi3AxibRBf388NhT1q2",
        "reception_time": "2022-01-16T18:22:08.265-00:00",
        "included_in_blocks":
          [ "BKpTEETMswgPd1tVMRJcTYMqvrNBTp414CdEA98J3hJHdEQUahz" ] },
      { "delegate": "tz1fUyqYH7H4pRHN1roWY17giXhy1RvxjgUV",
        "reception_time": "2022-01-16T18:22:08.230-00:00",
        "included_in_blocks":
          [ "BKpTEETMswgPd1tVMRJcTYMqvrNBTp414CdEA98J3hJHdEQUahz" ] },
      { "delegate": "tz1d6Fx42mYgVFnHUW8T8A7WBfJ6nD9pVok8",
        "reception_time": "2022-01-16T18:22:08.160-00:00",
        "included_in_blocks":
          [ "BKpTEETMswgPd1tVMRJcTYMqvrNBTp414CdEA98J3hJHdEQUahz" ] },
      { "delegate": "tz3S6BBeKgJGXxvLyZ1xzXzMPn11nnFtq5L9",
        "reception_time": "2022-01-16T18:22:08.156-00:00",
        "included_in_blocks":
          [ "BKpTEETMswgPd1tVMRJcTYMqvrNBTp414CdEA98J3hJHdEQUahz" ] },
      { "delegate": "tz3hw2kqXhLUvY65ca1eety2oQTpAvd34R9Q",
        "reception_time": "2022-01-16T18:22:08.133-00:00",
        "included_in_blocks":
          [ "BKpTEETMswgPd1tVMRJcTYMqvrNBTp414CdEA98J3hJHdEQUahz" ] },
      { "delegate": "tz3RKYFsLuQzKBtmYuLNas7uMu3AsYd4QdsA",
        "reception_time": "2022-01-16T18:22:08.156-00:00",
        "included_in_blocks":
          [ "BKpTEETMswgPd1tVMRJcTYMqvrNBTp414CdEA98J3hJHdEQUahz" ] },
      { "delegate": "tz3QT9dHYKDqh563chVa6za8526ys1UKfRfL",
        "reception_time": "2022-01-16T18:22:08.107-00:00",
        "included_in_blocks":
          [ "BKpTEETMswgPd1tVMRJcTYMqvrNBTp414CdEA98J3hJHdEQUahz" ] },
      { "delegate": "tz3QSGPoRp3Kn7n3vY24eYeu3Peuqo45LQ4D",
        "reception_time": "2022-01-16T18:22:08.053-00:00",
        "included_in_blocks":
          [ "BKpTEETMswgPd1tVMRJcTYMqvrNBTp414CdEA98J3hJHdEQUahz" ] },
      { "delegate": "tz1Sm5iH2vfTtyPQdRHt4STaARTVqTHxJ6Ea",
        "reception_time": "2022-01-16T18:22:08.091-00:00",
        "included_in_blocks":
          [ "BKpTEETMswgPd1tVMRJcTYMqvrNBTp414CdEA98J3hJHdEQUahz" ] },
      { "delegate": "tz3Zhs2dygr55yHyQyKjntAtY9bgfhLZ4Xj1",
        "reception_time": "2022-01-16T18:22:08.011-00:00",
        "included_in_blocks":
          [ "BKpTEETMswgPd1tVMRJcTYMqvrNBTp414CdEA98J3hJHdEQUahz" ] },
      { "delegate": "tz1PWCDnz783NNGGQjEFFsHtrcK5yBW4E2rm",
        "reception_time": "2022-01-16T18:22:08.086-00:00",
        "included_in_blocks":
          [ "BKpTEETMswgPd1tVMRJcTYMqvrNBTp414CdEA98J3hJHdEQUahz" ] },
      { "delegate": "tz1Ldzz6k1BHdhuKvAtMRX7h5kJSMHESMHLC",
        "reception_time": "2022-01-16T18:22:08.099-00:00",
        "included_in_blocks":
          [ "BKpTEETMswgPd1tVMRJcTYMqvrNBTp414CdEA98J3hJHdEQUahz" ] },
      { "delegate": "tz3iJu5vrKZcsqRPs8yJ61UDoeEXZmtro4qh",
        "reception_time": "2022-01-16T18:22:08.066-00:00",
        "included_in_blocks":
          [ "BKpTEETMswgPd1tVMRJcTYMqvrNBTp414CdEA98J3hJHdEQUahz" ] },
      { "delegate": "tz1MQMiZHV8q4tTwUMWmS5Y3kaP6J2136iXr",
        "reception_time": "2022-01-16T18:22:08.056-00:00",
        "included_in_blocks":
          [ "BKpTEETMswgPd1tVMRJcTYMqvrNBTp414CdEA98J3hJHdEQUahz" ] },
      { "delegate": "tz3gtoUxdudfBRcNY7iVdKPHCYYX6xdPpoRS",
        "reception_time": "2022-01-16T18:22:08.043-00:00",
        "included_in_blocks":
          [ "BKpTEETMswgPd1tVMRJcTYMqvrNBTp414CdEA98J3hJHdEQUahz" ] },
      { "delegate": "tz3ZbP2pM3nwvXztbuMJwJnDvV5xdpU8UkkD",
        "reception_time": "2022-01-16T18:22:08.002-00:00",
        "included_in_blocks":
          [ "BKpTEETMswgPd1tVMRJcTYMqvrNBTp414CdEA98J3hJHdEQUahz" ] },
      { "delegate": "tz1WCd2jm4uSt4vntk4vSuUWoZQGhLcDuR9q",
        "reception_time": "2022-01-16T18:22:08.035-00:00",
        "included_in_blocks":
          [ "BKpTEETMswgPd1tVMRJcTYMqvrNBTp414CdEA98J3hJHdEQUahz" ] },
      { "delegate": "tz3adcvQaKXTCg12zbninqo3q8ptKKtDFTLv",
        "reception_time": "2022-01-16T18:22:08.023-00:00",
        "included_in_blocks":
          [ "BKpTEETMswgPd1tVMRJcTYMqvrNBTp414CdEA98J3hJHdEQUahz" ] },
      { "delegate": "tz3NxTnke1acr8o3h5y9ytf5awQBGNJUKzVU",
        "reception_time": "2022-01-16T18:22:08.033-00:00",
        "included_in_blocks":
          [ "BKpTEETMswgPd1tVMRJcTYMqvrNBTp414CdEA98J3hJHdEQUahz" ] },
      { "delegate": "tz1VQnqCCqX4K5sP3FNkVSNKTdCAMJDd3E1n",
        "reception_time": "2022-01-16T18:22:08.045-00:00",
        "included_in_blocks":
          [ "BKpTEETMswgPd1tVMRJcTYMqvrNBTp414CdEA98J3hJHdEQUahz" ] },
      { "delegate": "tz1gUNyn3hmnEWqkusWPzxRaon1cs7ndWh7h",
        "reception_time": "2022-01-16T18:22:08.017-00:00",
        "included_in_blocks":
          [ "BKpTEETMswgPd1tVMRJcTYMqvrNBTp414CdEA98J3hJHdEQUahz" ] },
      { "delegate": "tz1VmiY38m3y95HqQLjMwqnMS7sdMfGomzKi",
        "reception_time": "2022-01-16T18:22:07.901-00:00",
        "included_in_blocks":
          [ "BKpTEETMswgPd1tVMRJcTYMqvrNBTp414CdEA98J3hJHdEQUahz" ] },
      { "delegate": "tz1beersuEDv8Z7ngQ825xfbaJNS2EhXnyHR",
        "reception_time": "2022-01-16T18:22:07.338-00:00",
        "included_in_blocks":
          [ "BKpTEETMswgPd1tVMRJcTYMqvrNBTp414CdEA98J3hJHdEQUahz" ] },
      { "delegate": "tz1TRspM5SeZpaQUhzByXbEvqKF1vnCM2YTK",
        "reception_time": "2022-01-16T18:22:07.898-00:00",
        "included_in_blocks":
          [ "BKpTEETMswgPd1tVMRJcTYMqvrNBTp414CdEA98J3hJHdEQUahz" ] },
      { "delegate": "tz1Lhf4J9Qxoe3DZ2nfe8FGDnvVj7oKjnMY6",
        "reception_time": "2022-01-16T18:22:07.352-00:00",
        "included_in_blocks":
          [ "BKpTEETMswgPd1tVMRJcTYMqvrNBTp414CdEA98J3hJHdEQUahz" ] },
      { "delegate": "tz1eEnQhbwf6trb8Q8mPb2RaPkNk2rN7BKi8",
        "reception_time": "2022-01-16T18:22:07.918-00:00",
        "included_in_blocks":
          [ "BKpTEETMswgPd1tVMRJcTYMqvrNBTp414CdEA98J3hJHdEQUahz" ] },
      { "delegate": "tz1RV1MBbZMR68tacosb7Mwj6LkbPSUS1er1",
        "reception_time": "2022-01-16T18:22:07.907-00:00",
        "included_in_blocks":
          [ "BKpTEETMswgPd1tVMRJcTYMqvrNBTp414CdEA98J3hJHdEQUahz" ] },
      { "delegate": "tz1STeamwbp68THcny9zk3LsbG3H36DMvbRK",
        "reception_time": "2022-01-16T18:22:07.343-00:00",
        "included_in_blocks":
          [ "BKpTEETMswgPd1tVMRJcTYMqvrNBTp414CdEA98J3hJHdEQUahz" ] },
      { "delegate": "tz1TXzyaKUA8wsWefdSnyaYFnV2M3vCV7er9",
        "reception_time": "2022-01-16T18:22:07.343-00:00",
        "included_in_blocks":
          [ "BKpTEETMswgPd1tVMRJcTYMqvrNBTp414CdEA98J3hJHdEQUahz" ] } ] }