{ "blocks":
    [ { "hash": "BLvj96Pd3Cg9ySkse4DEutW9387PGJpUWu6w4vUPj8pUuubHYEd",
        "delegate": "tz3NExpXn9aPNZPorRE4SdjJ2RGrfbJgMAaV",
        "reception_time": "2022-01-16T18:24:09.672-00:00",
        "timestamp": "2022-01-16T18:24:00Z" } ],
  "endorsements":
    [ { "delegate": "tz1P2Po7YM526ughEsRbY4oR9zaUPDZjxFrb",
        "reception_time": "2022-01-16T18:24:09.673-00:00",
        "errors":
          [ { "kind": "temporary",
              "id": "proto.011-PtHangz2.prefilter.outdated_endorsement" } ],
        "included_in_blocks":
          [ "BLQb7qRdEgDiaGSNnHZAwK6Syk9C3518M9oAXods35hC9Ru9kbd" ] },
      { "delegate": "tz1S8e9GgdZG78XJRB3NqabfWeM37GnhZMWQ",
        "reception_time": "2022-01-16T18:24:09.364-00:00",
        "errors":
          [ { "kind": "temporary",
              "id": "proto.011-PtHangz2.prefilter.outdated_endorsement" } ],
        "included_in_blocks":
          [ "BLQb7qRdEgDiaGSNnHZAwK6Syk9C3518M9oAXods35hC9Ru9kbd" ] },
      { "delegate": "tz1THsLcunLo8CmDm9f2y1xHuXttXZCpyFnq",
        "reception_time": "2022-01-16T18:24:09.189-00:00",
        "errors":
          [ { "kind": "temporary",
              "id": "proto.011-PtHangz2.prefilter.outdated_endorsement" } ],
        "included_in_blocks":
          [ "BLQb7qRdEgDiaGSNnHZAwK6Syk9C3518M9oAXods35hC9Ru9kbd" ] },
      { "delegate": "tz1RjoHc98dBoqaH2jawF62XNKh7YsHwbkEv" },
      { "delegate": "tz1dbfppLAAxXZNtf2SDps7rch3qfUznKSoK" },
      { "delegate": "tz3bEQoFCZEEfZMskefZ8q8e4eiHH1pssRax" },
      { "delegate": "tz1STeamwbp68THcny9zk3LsbG3H36DMvbRK",
        "reception_time": "2022-01-16T18:24:11.296-00:00",
        "included_in_blocks":
          [ "BLQb7qRdEgDiaGSNnHZAwK6Syk9C3518M9oAXods35hC9Ru9kbd" ] },
      { "delegate": "tz1Lhf4J9Qxoe3DZ2nfe8FGDnvVj7oKjnMY6",
        "reception_time": "2022-01-16T18:24:11.299-00:00",
        "included_in_blocks":
          [ "BLQb7qRdEgDiaGSNnHZAwK6Syk9C3518M9oAXods35hC9Ru9kbd" ] },
      { "delegate": "tz1XfAjZyaLdceHnZxbMYop7g7kWKPut4PR7",
        "reception_time": "2022-01-16T18:24:11.316-00:00",
        "included_in_blocks":
          [ "BLQb7qRdEgDiaGSNnHZAwK6Syk9C3518M9oAXods35hC9Ru9kbd" ] },
      { "delegate": "tz1eEnQhbwf6trb8Q8mPb2RaPkNk2rN7BKi8",
        "reception_time": "2022-01-16T18:24:11.324-00:00",
        "included_in_blocks":
          [ "BLQb7qRdEgDiaGSNnHZAwK6Syk9C3518M9oAXods35hC9Ru9kbd" ] },
      { "delegate": "tz3ZbP2pM3nwvXztbuMJwJnDvV5xdpU8UkkD",
        "reception_time": "2022-01-16T18:24:11.332-00:00",
        "included_in_blocks":
          [ "BLQb7qRdEgDiaGSNnHZAwK6Syk9C3518M9oAXods35hC9Ru9kbd" ] },
      { "delegate": "tz1irJKkXS2DBWkU1NnmFQx1c1L7pbGg4yhk",
        "reception_time": "2022-01-16T18:24:11.332-00:00",
        "included_in_blocks":
          [ "BLQb7qRdEgDiaGSNnHZAwK6Syk9C3518M9oAXods35hC9Ru9kbd" ] },
      { "delegate": "tz3adcvQaKXTCg12zbninqo3q8ptKKtDFTLv",
        "reception_time": "2022-01-16T18:24:11.339-00:00",
        "included_in_blocks":
          [ "BLQb7qRdEgDiaGSNnHZAwK6Syk9C3518M9oAXods35hC9Ru9kbd" ] },
      { "delegate": "tz1cSj7fTex3JPd1p1LN1fwek6AV1kH93Wwc",
        "reception_time": "2022-01-16T18:24:11.345-00:00",
        "included_in_blocks":
          [ "BLQb7qRdEgDiaGSNnHZAwK6Syk9C3518M9oAXods35hC9Ru9kbd" ] },
      { "delegate": "tz1VQnqCCqX4K5sP3FNkVSNKTdCAMJDd3E1n",
        "reception_time": "2022-01-16T18:24:11.347-00:00",
        "included_in_blocks":
          [ "BLQb7qRdEgDiaGSNnHZAwK6Syk9C3518M9oAXods35hC9Ru9kbd" ] },
      { "delegate": "tz3NxTnke1acr8o3h5y9ytf5awQBGNJUKzVU",
        "reception_time": "2022-01-16T18:24:11.363-00:00",
        "included_in_blocks":
          [ "BLQb7qRdEgDiaGSNnHZAwK6Syk9C3518M9oAXods35hC9Ru9kbd" ] },
      { "delegate": "tz1gUNyn3hmnEWqkusWPzxRaon1cs7ndWh7h",
        "reception_time": "2022-01-16T18:24:11.367-00:00",
        "included_in_blocks":
          [ "BLQb7qRdEgDiaGSNnHZAwK6Syk9C3518M9oAXods35hC9Ru9kbd" ] },
      { "delegate": "tz1aXD7Jigrt3PBYSpHSg5Rr33SexMmmM5Ys",
        "reception_time": "2022-01-16T18:24:11.373-00:00",
        "included_in_blocks":
          [ "BLQb7qRdEgDiaGSNnHZAwK6Syk9C3518M9oAXods35hC9Ru9kbd" ] },
      { "delegate": "tz1VmiY38m3y95HqQLjMwqnMS7sdMfGomzKi",
        "reception_time": "2022-01-16T18:24:11.381-00:00",
        "included_in_blocks":
          [ "BLQb7qRdEgDiaGSNnHZAwK6Syk9C3518M9oAXods35hC9Ru9kbd" ] },
      { "delegate": "tz1fUyqYH7H4pRHN1roWY17giXhy1RvxjgUV",
        "reception_time": "2022-01-16T18:24:11.381-00:00",
        "included_in_blocks":
          [ "BLQb7qRdEgDiaGSNnHZAwK6Syk9C3518M9oAXods35hC9Ru9kbd" ] },
      { "delegate": "tz1TzaNn7wSQSP5gYPXCnNzBCpyMiidCq1PX",
        "reception_time": "2022-01-16T18:24:11.384-00:00",
        "included_in_blocks":
          [ "BLQb7qRdEgDiaGSNnHZAwK6Syk9C3518M9oAXods35hC9Ru9kbd" ] },
      { "delegate": "tz3hw2kqXhLUvY65ca1eety2oQTpAvd34R9Q",
        "reception_time": "2022-01-16T18:24:11.390-00:00",
        "included_in_blocks":
          [ "BLQb7qRdEgDiaGSNnHZAwK6Syk9C3518M9oAXods35hC9Ru9kbd" ] },
      { "delegate": "tz1TRspM5SeZpaQUhzByXbEvqKF1vnCM2YTK",
        "reception_time": "2022-01-16T18:24:11.394-00:00",
        "included_in_blocks":
          [ "BLQb7qRdEgDiaGSNnHZAwK6Syk9C3518M9oAXods35hC9Ru9kbd" ] },
      { "delegate": "tz3gtoUxdudfBRcNY7iVdKPHCYYX6xdPpoRS",
        "reception_time": "2022-01-16T18:24:11.400-00:00",
        "included_in_blocks":
          [ "BLQb7qRdEgDiaGSNnHZAwK6Syk9C3518M9oAXods35hC9Ru9kbd" ] },
      { "delegate": "tz1S8MNvuFEUsWgjHvi3AxibRBf388NhT1q2",
        "reception_time": "2022-01-16T18:24:11.427-00:00",
        "included_in_blocks":
          [ "BLQb7qRdEgDiaGSNnHZAwK6Syk9C3518M9oAXods35hC9Ru9kbd" ] },
      { "delegate": "tz3QSGPoRp3Kn7n3vY24eYeu3Peuqo45LQ4D",
        "reception_time": "2022-01-16T18:24:11.434-00:00",
        "included_in_blocks":
          [ "BLQb7qRdEgDiaGSNnHZAwK6Syk9C3518M9oAXods35hC9Ru9kbd" ] },
      { "delegate": "tz1RHgE6W7SnPdwqL1SAtGWEdynA7HeTbpbN",
        "reception_time": "2022-01-16T18:24:11.437-00:00",
        "included_in_blocks":
          [ "BLQb7qRdEgDiaGSNnHZAwK6Syk9C3518M9oAXods35hC9Ru9kbd" ] },
      { "delegate": "tz3Zhs2dygr55yHyQyKjntAtY9bgfhLZ4Xj1",
        "reception_time": "2022-01-16T18:24:11.470-00:00",
        "included_in_blocks":
          [ "BLQb7qRdEgDiaGSNnHZAwK6Syk9C3518M9oAXods35hC9Ru9kbd" ] },
      { "delegate": "tz3iJu5vrKZcsqRPs8yJ61UDoeEXZmtro4qh",
        "reception_time": "2022-01-16T18:24:11.477-00:00",
        "included_in_blocks":
          [ "BLQb7qRdEgDiaGSNnHZAwK6Syk9C3518M9oAXods35hC9Ru9kbd" ] },
      { "delegate": "tz1KfEsrtDaA1sX7vdM4qmEPWuSytuqCDp5j",
        "reception_time": "2022-01-16T18:24:11.481-00:00",
        "included_in_blocks":
          [ "BLQb7qRdEgDiaGSNnHZAwK6Syk9C3518M9oAXods35hC9Ru9kbd" ] },
      { "delegate": "tz1PWCDnz783NNGGQjEFFsHtrcK5yBW4E2rm",
        "reception_time": "2022-01-16T18:24:11.488-00:00",
        "included_in_blocks":
          [ "BLQb7qRdEgDiaGSNnHZAwK6Syk9C3518M9oAXods35hC9Ru9kbd" ] },
      { "delegate": "tz3RKYFsLuQzKBtmYuLNas7uMu3AsYd4QdsA",
        "reception_time": "2022-01-16T18:24:11.499-00:00",
        "included_in_blocks":
          [ "BLQb7qRdEgDiaGSNnHZAwK6Syk9C3518M9oAXods35hC9Ru9kbd" ] },
      { "delegate": "tz1MQJPGNMijnXnVoBENFz9rUhaPt3S7rWoz",
        "reception_time": "2022-01-16T18:24:11.502-00:00",
        "included_in_blocks":
          [ "BLQb7qRdEgDiaGSNnHZAwK6Syk9C3518M9oAXods35hC9Ru9kbd" ] },
      { "delegate": "tz3VEZ4k6a4Wx42iyev6i2aVAptTRLEAivNN",
        "reception_time": "2022-01-16T18:24:11.512-00:00",
        "included_in_blocks":
          [ "BLQb7qRdEgDiaGSNnHZAwK6Syk9C3518M9oAXods35hC9Ru9kbd" ] },
      { "delegate": "tz1Ldzz6k1BHdhuKvAtMRX7h5kJSMHESMHLC",
        "reception_time": "2022-01-16T18:24:11.521-00:00",
        "included_in_blocks":
          [ "BLQb7qRdEgDiaGSNnHZAwK6Syk9C3518M9oAXods35hC9Ru9kbd" ] },
      { "delegate": "tz3S6BBeKgJGXxvLyZ1xzXzMPn11nnFtq5L9",
        "reception_time": "2022-01-16T18:24:11.542-00:00",
        "included_in_blocks":
          [ "BLQb7qRdEgDiaGSNnHZAwK6Syk9C3518M9oAXods35hC9Ru9kbd" ] },
      { "delegate": "tz1ei4WtWEMEJekSv8qDnu9PExG6Q8HgRGr3",
        "reception_time": "2022-01-16T18:24:11.566-00:00",
        "included_in_blocks":
          [ "BLQb7qRdEgDiaGSNnHZAwK6Syk9C3518M9oAXods35hC9Ru9kbd" ] },
      { "delegate": "tz3bTdwZinP8U1JmSweNzVKhmwafqWmFWRfk",
        "reception_time": "2022-01-16T18:24:11.573-00:00",
        "included_in_blocks":
          [ "BLQb7qRdEgDiaGSNnHZAwK6Syk9C3518M9oAXods35hC9Ru9kbd" ] },
      { "delegate": "tz3RDC3Jdn4j15J7bBHZd29EUee9gVB1CxD9",
        "reception_time": "2022-01-16T18:24:11.581-00:00",
        "included_in_blocks":
          [ "BLQb7qRdEgDiaGSNnHZAwK6Syk9C3518M9oAXods35hC9Ru9kbd" ] },
      { "delegate": "tz1gfArv665EUkSg2ojMBzcbfwuPxAvqPvjo",
        "reception_time": "2022-01-16T18:24:11.612-00:00",
        "included_in_blocks":
          [ "BLQb7qRdEgDiaGSNnHZAwK6Syk9C3518M9oAXods35hC9Ru9kbd" ] },
      { "delegate": "tz3UoffC7FG7zfpmvmjUmUeAaHvzdcUvAj6r",
        "reception_time": "2022-01-16T18:24:11.632-00:00",
        "included_in_blocks":
          [ "BLQb7qRdEgDiaGSNnHZAwK6Syk9C3518M9oAXods35hC9Ru9kbd" ] },
      { "delegate": "tz3NExpXn9aPNZPorRE4SdjJ2RGrfbJgMAaV",
        "reception_time": "2022-01-16T18:24:11.650-00:00",
        "included_in_blocks":
          [ "BLQb7qRdEgDiaGSNnHZAwK6Syk9C3518M9oAXods35hC9Ru9kbd" ] },
      { "delegate": "tz3WMqdzXqRWXwyvj5Hp2H7QEepaUuS7vd9K",
        "reception_time": "2022-01-16T18:24:11.686-00:00",
        "included_in_blocks":
          [ "BLQb7qRdEgDiaGSNnHZAwK6Syk9C3518M9oAXods35hC9Ru9kbd" ] },
      { "delegate": "tz1NEKxGEHsFufk87CVZcrqWu8o22qh46GK6",
        "reception_time": "2022-01-16T18:24:11.686-00:00",
        "included_in_blocks":
          [ "BLQb7qRdEgDiaGSNnHZAwK6Syk9C3518M9oAXods35hC9Ru9kbd" ] },
      { "delegate": "tz1TEc75UKXv4W5cwi14Na3NtqFD51yKQi7h",
        "reception_time": "2022-01-16T18:24:11.726-00:00",
        "included_in_blocks":
          [ "BLQb7qRdEgDiaGSNnHZAwK6Syk9C3518M9oAXods35hC9Ru9kbd" ] },
      { "delegate": "tz1V4qCyvPKZ5UeqdH14HN42rxvNPQfc9UZg",
        "reception_time": "2022-01-16T18:24:11.729-00:00",
        "included_in_blocks":
          [ "BLQb7qRdEgDiaGSNnHZAwK6Syk9C3518M9oAXods35hC9Ru9kbd" ] },
      { "delegate": "tz1abmz7jiCV2GH2u81LRrGgAFFgvQgiDiaf",
        "reception_time": "2022-01-16T18:24:11.795-00:00",
        "included_in_blocks":
          [ "BLQb7qRdEgDiaGSNnHZAwK6Syk9C3518M9oAXods35hC9Ru9kbd" ] },
      { "delegate": "tz1WBfwbT66FC6BTLexc2BoyCCBM9LG7pnVW",
        "reception_time": "2022-01-16T18:24:11.880-00:00",
        "included_in_blocks":
          [ "BLQb7qRdEgDiaGSNnHZAwK6Syk9C3518M9oAXods35hC9Ru9kbd" ] },
      { "delegate": "tz1RCFbB9GpALpsZtu6J58sb74dm8qe6XBzv",
        "reception_time": "2022-01-16T18:24:12.015-00:00",
        "included_in_blocks":
          [ "BLQb7qRdEgDiaGSNnHZAwK6Syk9C3518M9oAXods35hC9Ru9kbd" ] },
      { "delegate": "tz1PeZx7FXy7QRuMREGXGxeipb24RsMMzUNe",
        "reception_time": "2022-01-16T18:24:12.015-00:00",
        "included_in_blocks":
          [ "BLQb7qRdEgDiaGSNnHZAwK6Syk9C3518M9oAXods35hC9Ru9kbd" ] },
      { "delegate": "tz2FCNBrERXtaTtNX6iimR1UJ5JSDxvdHM93",
        "reception_time": "2022-01-16T18:24:12.019-00:00",
        "included_in_blocks":
          [ "BLQb7qRdEgDiaGSNnHZAwK6Syk9C3518M9oAXods35hC9Ru9kbd" ] },
      { "delegate": "tz1hAYfexyzPGG6RhZZMpDvAHifubsbb6kgn",
        "reception_time": "2022-01-16T18:24:12.205-00:00",
        "included_in_blocks":
          [ "BLQb7qRdEgDiaGSNnHZAwK6Syk9C3518M9oAXods35hC9Ru9kbd" ] },
      { "delegate": "tz1Nf6tsK4G6bBqgSQERy4nUtkHNKUVdh7q1",
        "reception_time": "2022-01-16T18:24:12.350-00:00",
        "included_in_blocks":
          [ "BLQb7qRdEgDiaGSNnHZAwK6Syk9C3518M9oAXods35hC9Ru9kbd" ] },
      { "delegate": "tz1axcnVN9tZnCe4sQQhC6f3tfSEXdjPaXPY",
        "reception_time": "2022-01-16T18:24:12.421-00:00",
        "included_in_blocks":
          [ "BLQb7qRdEgDiaGSNnHZAwK6Syk9C3518M9oAXods35hC9Ru9kbd" ] },
      { "delegate": "tz1TRqbYbUf2GyrjErf3hBzgBJPzW8y36qEs",
        "reception_time": "2022-01-16T18:24:12.583-00:00",
        "included_in_blocks":
          [ "BLQb7qRdEgDiaGSNnHZAwK6Syk9C3518M9oAXods35hC9Ru9kbd" ] },
      { "delegate": "tz3bvNMQ95vfAYtG8193ymshqjSvmxiCUuR5",
        "reception_time": "2022-01-16T18:24:12.619-00:00",
        "included_in_blocks":
          [ "BLQb7qRdEgDiaGSNnHZAwK6Syk9C3518M9oAXods35hC9Ru9kbd" ] },
      { "delegate": "tz3RB4aoyjov4KEVRbuhvQ1CKJgBJMWhaeB8",
        "reception_time": "2022-01-16T18:24:12.745-00:00",
        "included_in_blocks":
          [ "BLQb7qRdEgDiaGSNnHZAwK6Syk9C3518M9oAXods35hC9Ru9kbd" ] },
      { "delegate": "tz1TcH4Nb3aHNDJ7CGZhU7jgAK1BkSP4Lxds",
        "reception_time": "2022-01-16T18:24:12.911-00:00",
        "included_in_blocks":
          [ "BLQb7qRdEgDiaGSNnHZAwK6Syk9C3518M9oAXods35hC9Ru9kbd" ] },
      { "delegate": "tz3NDpRj6WBrJPikcPVHRBEjWKxFw3c6eQPS",
        "reception_time": "2022-01-16T18:24:13.010-00:00",
        "included_in_blocks":
          [ "BLQb7qRdEgDiaGSNnHZAwK6Syk9C3518M9oAXods35hC9Ru9kbd" ] },
      { "delegate": "tz1dRKU4FQ9QRRQPdaH4zCR6gmCmXfcvcgtB",
        "reception_time": "2022-01-16T18:24:13.053-00:00",
        "included_in_blocks":
          [ "BLQb7qRdEgDiaGSNnHZAwK6Syk9C3518M9oAXods35hC9Ru9kbd" ] },
      { "delegate": "tz1NoYvKjXTzTk54VpLxBfouJ33J8jwKPPvw",
        "reception_time": "2022-01-16T18:24:13.157-00:00",
        "included_in_blocks":
          [ "BLQb7qRdEgDiaGSNnHZAwK6Syk9C3518M9oAXods35hC9Ru9kbd" ] },
      { "delegate": "tz1cM8Xc7ZP1TrjkTeKq4PeRhtbnwXSBR6Sw",
        "reception_time": "2022-01-16T18:24:13.340-00:00",
        "included_in_blocks":
          [ "BLQb7qRdEgDiaGSNnHZAwK6Syk9C3518M9oAXods35hC9Ru9kbd" ] },
      { "delegate": "tz1awXW7wuXy21c66vBudMXQVAPgRnqqwgTH",
        "reception_time": "2022-01-16T18:24:13.505-00:00",
        "included_in_blocks":
          [ "BLQb7qRdEgDiaGSNnHZAwK6Syk9C3518M9oAXods35hC9Ru9kbd" ] },
      { "delegate": "tz1V3yg82mcrPJbegqVCPn6bC8w1CSTRp3f8",
        "reception_time": "2022-01-16T18:24:13.662-00:00",
        "included_in_blocks":
          [ "BLQb7qRdEgDiaGSNnHZAwK6Syk9C3518M9oAXods35hC9Ru9kbd" ] },
      { "delegate": "tz1ZcTRk5uxD86EFEn1vvNffWWqJy7q5eVhc",
        "reception_time": "2022-01-16T18:24:13.684-00:00",
        "included_in_blocks":
          [ "BLQb7qRdEgDiaGSNnHZAwK6Syk9C3518M9oAXods35hC9Ru9kbd" ] },
      { "delegate": "tz1cYufsxHXJcvANhvS55h3aY32a9BAFB494",
        "reception_time": "2022-01-16T18:24:14.100-00:00",
        "included_in_blocks":
          [ "BLQb7qRdEgDiaGSNnHZAwK6Syk9C3518M9oAXods35hC9Ru9kbd" ] },
      { "delegate": "tz1aRoaRhSpRYvFdyvgWLL6TGyRoGF51wDjM",
        "reception_time": "2022-01-16T18:24:14.628-00:00",
        "included_in_blocks":
          [ "BLQb7qRdEgDiaGSNnHZAwK6Syk9C3518M9oAXods35hC9Ru9kbd" ] },
      { "delegate": "tz1eLbDXYceRsPZoPmaJXZgQ6pzgnTQvZtpo",
        "reception_time": "2022-01-16T18:24:15.134-00:00",
        "included_in_blocks":
          [ "BLQb7qRdEgDiaGSNnHZAwK6Syk9C3518M9oAXods35hC9Ru9kbd" ] },
      { "delegate": "tz1PFeoTuFen8jAMRHajBySNyCwLmY5RqF9M",
        "reception_time": "2022-01-16T18:24:15.541-00:00",
        "included_in_blocks":
          [ "BLQb7qRdEgDiaGSNnHZAwK6Syk9C3518M9oAXods35hC9Ru9kbd" ] },
      { "delegate": "tz1QccGQsmt7WMnbVX9inJQgEuQGeMXddfjp",
        "reception_time": "2022-01-16T18:24:16.126-00:00",
        "included_in_blocks":
          [ "BLQb7qRdEgDiaGSNnHZAwK6Syk9C3518M9oAXods35hC9Ru9kbd" ] },
      { "delegate": "tz3e7LbZvUtoXhpUD1yb6wuFodZpfYRb9nWJ",
        "reception_time": "2022-01-16T18:24:22.580-00:00",
        "included_in_blocks":
          [ "BLQb7qRdEgDiaGSNnHZAwK6Syk9C3518M9oAXods35hC9Ru9kbd" ] } ] }