{ "blocks":
    [ { "hash": "BLPNmScikJYdwkZL4wjA89Wws79WxPbDzYTHVN5QyRWVxi6y9x4",
        "delegate": "tz3hw2kqXhLUvY65ca1eety2oQTpAvd34R9Q",
        "reception_time": "2022-01-16T15:55:45.576-00:00",
        "timestamp": "2022-01-16T15:55:40Z" } ],
  "endorsements":
    [ { "delegate": "tz1dbfppLAAxXZNtf2SDps7rch3qfUznKSoK" },
      { "delegate": "tz1TXzyaKUA8wsWefdSnyaYFnV2M3vCV7er9",
        "reception_time": "2022-01-16T15:55:45.352-00:00",
        "errors":
          [ { "kind": "temporary",
              "id": "proto.011-PtHangz2.prefilter.outdated_endorsement" } ],
        "included_in_blocks":
          [ "BMCYmUEp5YrHndcdQbdydu5PhJ7HyPj1eEjqwAjWrBTU4iY6MHJ" ] },
      { "delegate": "tz1NpWrAyDL9k2Lmnyxcgr9xuJakbBxdq7FB",
        "reception_time": "2022-01-16T15:56:03.092-00:00",
        "included_in_blocks":
          [ "BMCYmUEp5YrHndcdQbdydu5PhJ7HyPj1eEjqwAjWrBTU4iY6MHJ" ] },
      { "delegate": "tz1LVqmufjrmV67vNmZWXRDPMwSCh7mLBnS3",
        "reception_time": "2022-01-16T15:55:50.409-00:00",
        "included_in_blocks":
          [ "BMCYmUEp5YrHndcdQbdydu5PhJ7HyPj1eEjqwAjWrBTU4iY6MHJ" ] },
      { "delegate": "tz3NExpXn9aPNZPorRE4SdjJ2RGrfbJgMAaV",
        "reception_time": "2022-01-16T15:55:49.484-00:00",
        "included_in_blocks":
          [ "BMCYmUEp5YrHndcdQbdydu5PhJ7HyPj1eEjqwAjWrBTU4iY6MHJ" ] },
      { "delegate": "tz3UoffC7FG7zfpmvmjUmUeAaHvzdcUvAj6r",
        "reception_time": "2022-01-16T15:55:49.266-00:00",
        "included_in_blocks":
          [ "BMCYmUEp5YrHndcdQbdydu5PhJ7HyPj1eEjqwAjWrBTU4iY6MHJ" ] },
      { "delegate": "tz3RDC3Jdn4j15J7bBHZd29EUee9gVB1CxD9",
        "reception_time": "2022-01-16T15:55:49.363-00:00",
        "included_in_blocks":
          [ "BMCYmUEp5YrHndcdQbdydu5PhJ7HyPj1eEjqwAjWrBTU4iY6MHJ" ] },
      { "delegate": "tz3VEZ4k6a4Wx42iyev6i2aVAptTRLEAivNN",
        "reception_time": "2022-01-16T15:55:48.867-00:00",
        "included_in_blocks":
          [ "BMCYmUEp5YrHndcdQbdydu5PhJ7HyPj1eEjqwAjWrBTU4iY6MHJ" ] },
      { "delegate": "tz3bvNMQ95vfAYtG8193ymshqjSvmxiCUuR5",
        "reception_time": "2022-01-16T15:55:48.792-00:00",
        "included_in_blocks":
          [ "BMCYmUEp5YrHndcdQbdydu5PhJ7HyPj1eEjqwAjWrBTU4iY6MHJ" ] },
      { "delegate": "tz1UvkANVPWppVgMkLnvN7BwYZsCP7vm6NVd",
        "reception_time": "2022-01-16T15:55:48.580-00:00",
        "included_in_blocks":
          [ "BMCYmUEp5YrHndcdQbdydu5PhJ7HyPj1eEjqwAjWrBTU4iY6MHJ" ] },
      { "delegate": "tz1T7duV5gZWSTq4YpBGbXNLTfznCLDrFxvs",
        "reception_time": "2022-01-16T15:55:48.542-00:00",
        "included_in_blocks":
          [ "BMCYmUEp5YrHndcdQbdydu5PhJ7HyPj1eEjqwAjWrBTU4iY6MHJ" ] },
      { "delegate": "tz1Q8QkSBS63ZQnH3fBTiAMPes9R666Rn6Sc",
        "reception_time": "2022-01-16T15:55:48.666-00:00",
        "included_in_blocks":
          [ "BMCYmUEp5YrHndcdQbdydu5PhJ7HyPj1eEjqwAjWrBTU4iY6MHJ" ] },
      { "delegate": "tz1cYufsxHXJcvANhvS55h3aY32a9BAFB494",
        "reception_time": "2022-01-16T15:55:48.487-00:00",
        "included_in_blocks":
          [ "BMCYmUEp5YrHndcdQbdydu5PhJ7HyPj1eEjqwAjWrBTU4iY6MHJ" ] },
      { "delegate": "tz3WMqdzXqRWXwyvj5Hp2H7QEepaUuS7vd9K",
        "reception_time": "2022-01-16T15:55:48.403-00:00",
        "included_in_blocks":
          [ "BMCYmUEp5YrHndcdQbdydu5PhJ7HyPj1eEjqwAjWrBTU4iY6MHJ" ] },
      { "delegate": "tz1SohptP53wDPZhzTWzDUFAUcWF6DMBpaJV",
        "reception_time": "2022-01-16T15:55:48.368-00:00",
        "included_in_blocks":
          [ "BMCYmUEp5YrHndcdQbdydu5PhJ7HyPj1eEjqwAjWrBTU4iY6MHJ" ] },
      { "delegate": "tz1WctSwL49BZtdWAQ75NY6vr4xsAx6oKdah",
        "reception_time": "2022-01-16T15:55:48.172-00:00",
        "included_in_blocks":
          [ "BMCYmUEp5YrHndcdQbdydu5PhJ7HyPj1eEjqwAjWrBTU4iY6MHJ" ] },
      { "delegate": "tz3gLTu4Yxj8tPAcriQVUdxv6BY9QyvzU1az",
        "reception_time": "2022-01-16T15:55:48.167-00:00",
        "included_in_blocks":
          [ "BMCYmUEp5YrHndcdQbdydu5PhJ7HyPj1eEjqwAjWrBTU4iY6MHJ" ] },
      { "delegate": "tz1aRoaRhSpRYvFdyvgWLL6TGyRoGF51wDjM",
        "reception_time": "2022-01-16T15:55:48.565-00:00",
        "included_in_blocks":
          [ "BMCYmUEp5YrHndcdQbdydu5PhJ7HyPj1eEjqwAjWrBTU4iY6MHJ" ] },
      { "delegate": "tz3NDpRj6WBrJPikcPVHRBEjWKxFw3c6eQPS",
        "reception_time": "2022-01-16T15:55:48.233-00:00",
        "included_in_blocks":
          [ "BMCYmUEp5YrHndcdQbdydu5PhJ7HyPj1eEjqwAjWrBTU4iY6MHJ" ] },
      { "delegate": "tz1Nf6tsK4G6bBqgSQERy4nUtkHNKUVdh7q1",
        "reception_time": "2022-01-16T15:55:48.092-00:00",
        "included_in_blocks":
          [ "BMCYmUEp5YrHndcdQbdydu5PhJ7HyPj1eEjqwAjWrBTU4iY6MHJ" ] },
      { "delegate": "tz3RB4aoyjov4KEVRbuhvQ1CKJgBJMWhaeB8",
        "reception_time": "2022-01-16T15:55:48.086-00:00",
        "included_in_blocks":
          [ "BMCYmUEp5YrHndcdQbdydu5PhJ7HyPj1eEjqwAjWrBTU4iY6MHJ" ] },
      { "delegate": "tz1gfArv665EUkSg2ojMBzcbfwuPxAvqPvjo",
        "reception_time": "2022-01-16T15:55:48.027-00:00",
        "included_in_blocks":
          [ "BMCYmUEp5YrHndcdQbdydu5PhJ7HyPj1eEjqwAjWrBTU4iY6MHJ" ] },
      { "delegate": "tz1PeZx7FXy7QRuMREGXGxeipb24RsMMzUNe",
        "reception_time": "2022-01-16T15:55:48.064-00:00",
        "included_in_blocks":
          [ "BMCYmUEp5YrHndcdQbdydu5PhJ7HyPj1eEjqwAjWrBTU4iY6MHJ" ] },
      { "delegate": "tz1gvrUnfTfEcRW6qcgB6FJdZnAxv4HG1rj9",
        "reception_time": "2022-01-16T15:55:47.836-00:00",
        "included_in_blocks":
          [ "BMCYmUEp5YrHndcdQbdydu5PhJ7HyPj1eEjqwAjWrBTU4iY6MHJ" ] },
      { "delegate": "tz1TRqbYbUf2GyrjErf3hBzgBJPzW8y36qEs",
        "reception_time": "2022-01-16T15:55:47.860-00:00",
        "included_in_blocks":
          [ "BMCYmUEp5YrHndcdQbdydu5PhJ7HyPj1eEjqwAjWrBTU4iY6MHJ" ] },
      { "delegate": "tz1g8vkmcde6sWKaG2NN9WKzCkDM6Rziq194",
        "reception_time": "2022-01-16T15:55:47.906-00:00",
        "included_in_blocks":
          [ "BMCYmUEp5YrHndcdQbdydu5PhJ7HyPj1eEjqwAjWrBTU4iY6MHJ" ] },
      { "delegate": "tz1fwnfJNgiDACshK9avfRfFbMaXrs3ghoJa",
        "reception_time": "2022-01-16T15:55:47.742-00:00",
        "included_in_blocks":
          [ "BMCYmUEp5YrHndcdQbdydu5PhJ7HyPj1eEjqwAjWrBTU4iY6MHJ" ] },
      { "delegate": "tz1TEc75UKXv4W5cwi14Na3NtqFD51yKQi7h",
        "reception_time": "2022-01-16T15:55:47.698-00:00",
        "included_in_blocks":
          [ "BMCYmUEp5YrHndcdQbdydu5PhJ7HyPj1eEjqwAjWrBTU4iY6MHJ" ] },
      { "delegate": "tz2FCNBrERXtaTtNX6iimR1UJ5JSDxvdHM93",
        "reception_time": "2022-01-16T15:55:47.529-00:00",
        "included_in_blocks":
          [ "BMCYmUEp5YrHndcdQbdydu5PhJ7HyPj1eEjqwAjWrBTU4iY6MHJ" ] },
      { "delegate": "tz1Tnjaxk6tbAeC2TmMApPh8UsrEVQvhHvx5",
        "reception_time": "2022-01-16T15:55:47.475-00:00",
        "included_in_blocks":
          [ "BMCYmUEp5YrHndcdQbdydu5PhJ7HyPj1eEjqwAjWrBTU4iY6MHJ" ] },
      { "delegate": "tz1V4qCyvPKZ5UeqdH14HN42rxvNPQfc9UZg",
        "reception_time": "2022-01-16T15:55:47.465-00:00",
        "included_in_blocks":
          [ "BMCYmUEp5YrHndcdQbdydu5PhJ7HyPj1eEjqwAjWrBTU4iY6MHJ" ] },
      { "delegate": "tz1PWCDnz783NNGGQjEFFsHtrcK5yBW4E2rm",
        "reception_time": "2022-01-16T15:55:46.975-00:00",
        "included_in_blocks":
          [ "BMCYmUEp5YrHndcdQbdydu5PhJ7HyPj1eEjqwAjWrBTU4iY6MHJ" ] },
      { "delegate": "tz3gtoUxdudfBRcNY7iVdKPHCYYX6xdPpoRS",
        "reception_time": "2022-01-16T15:55:46.791-00:00",
        "included_in_blocks":
          [ "BMCYmUEp5YrHndcdQbdydu5PhJ7HyPj1eEjqwAjWrBTU4iY6MHJ" ] },
      { "delegate": "tz1abmz7jiCV2GH2u81LRrGgAFFgvQgiDiaf",
        "reception_time": "2022-01-16T15:55:46.989-00:00",
        "included_in_blocks":
          [ "BMCYmUEp5YrHndcdQbdydu5PhJ7HyPj1eEjqwAjWrBTU4iY6MHJ" ] },
      { "delegate": "tz3QSGPoRp3Kn7n3vY24eYeu3Peuqo45LQ4D",
        "reception_time": "2022-01-16T15:55:46.779-00:00",
        "included_in_blocks":
          [ "BMCYmUEp5YrHndcdQbdydu5PhJ7HyPj1eEjqwAjWrBTU4iY6MHJ" ] },
      { "delegate": "tz1RCFbB9GpALpsZtu6J58sb74dm8qe6XBzv",
        "reception_time": "2022-01-16T15:55:46.918-00:00",
        "included_in_blocks":
          [ "BMCYmUEp5YrHndcdQbdydu5PhJ7HyPj1eEjqwAjWrBTU4iY6MHJ" ] },
      { "delegate": "tz1WCd2jm4uSt4vntk4vSuUWoZQGhLcDuR9q",
        "reception_time": "2022-01-16T15:55:46.967-00:00",
        "included_in_blocks":
          [ "BMCYmUEp5YrHndcdQbdydu5PhJ7HyPj1eEjqwAjWrBTU4iY6MHJ" ] },
      { "delegate": "tz1SCmznQQrawNcGcdinKVwZSS7QBUUed3BP",
        "reception_time": "2022-01-16T15:55:46.953-00:00",
        "included_in_blocks":
          [ "BMCYmUEp5YrHndcdQbdydu5PhJ7HyPj1eEjqwAjWrBTU4iY6MHJ" ] },
      { "delegate": "tz1LnWa4AiFCjMezTgSNa65QFoo7DQGEWgEU",
        "reception_time": "2022-01-16T15:55:46.911-00:00",
        "included_in_blocks":
          [ "BMCYmUEp5YrHndcdQbdydu5PhJ7HyPj1eEjqwAjWrBTU4iY6MHJ" ] },
      { "delegate": "tz1P2Po7YM526ughEsRbY4oR9zaUPDZjxFrb",
        "reception_time": "2022-01-16T15:55:46.993-00:00",
        "included_in_blocks":
          [ "BMCYmUEp5YrHndcdQbdydu5PhJ7HyPj1eEjqwAjWrBTU4iY6MHJ" ] },
      { "delegate": "tz1d6Fx42mYgVFnHUW8T8A7WBfJ6nD9pVok8",
        "reception_time": "2022-01-16T15:55:47.188-00:00",
        "included_in_blocks":
          [ "BMCYmUEp5YrHndcdQbdydu5PhJ7HyPj1eEjqwAjWrBTU4iY6MHJ" ] },
      { "delegate": "tz1ia6jze3LrBGWJkaDmZ7ThJpPsYWh8D398",
        "reception_time": "2022-01-16T15:55:47.179-00:00",
        "included_in_blocks":
          [ "BMCYmUEp5YrHndcdQbdydu5PhJ7HyPj1eEjqwAjWrBTU4iY6MHJ" ] },
      { "delegate": "tz1TzaNn7wSQSP5gYPXCnNzBCpyMiidCq1PX",
        "reception_time": "2022-01-16T15:55:46.747-00:00",
        "included_in_blocks":
          [ "BMCYmUEp5YrHndcdQbdydu5PhJ7HyPj1eEjqwAjWrBTU4iY6MHJ" ] },
      { "delegate": "tz1S8MNvuFEUsWgjHvi3AxibRBf388NhT1q2",
        "reception_time": "2022-01-16T15:55:47.179-00:00",
        "included_in_blocks":
          [ "BMCYmUEp5YrHndcdQbdydu5PhJ7HyPj1eEjqwAjWrBTU4iY6MHJ" ] },
      { "delegate": "tz1aXD7Jigrt3PBYSpHSg5Rr33SexMmmM5Ys",
        "reception_time": "2022-01-16T15:55:46.568-00:00",
        "included_in_blocks":
          [ "BMCYmUEp5YrHndcdQbdydu5PhJ7HyPj1eEjqwAjWrBTU4iY6MHJ" ] },
      { "delegate": "tz3adcvQaKXTCg12zbninqo3q8ptKKtDFTLv",
        "reception_time": "2022-01-16T15:55:46.657-00:00",
        "included_in_blocks":
          [ "BMCYmUEp5YrHndcdQbdydu5PhJ7HyPj1eEjqwAjWrBTU4iY6MHJ" ] },
      { "delegate": "tz1VmiY38m3y95HqQLjMwqnMS7sdMfGomzKi",
        "reception_time": "2022-01-16T15:55:46.586-00:00",
        "included_in_blocks":
          [ "BMCYmUEp5YrHndcdQbdydu5PhJ7HyPj1eEjqwAjWrBTU4iY6MHJ" ] },
      { "delegate": "tz1Ldzz6k1BHdhuKvAtMRX7h5kJSMHESMHLC",
        "reception_time": "2022-01-16T15:55:46.402-00:00",
        "included_in_blocks":
          [ "BMCYmUEp5YrHndcdQbdydu5PhJ7HyPj1eEjqwAjWrBTU4iY6MHJ" ] },
      { "delegate": "tz3ZbP2pM3nwvXztbuMJwJnDvV5xdpU8UkkD",
        "reception_time": "2022-01-16T15:55:46.320-00:00",
        "included_in_blocks":
          [ "BMCYmUEp5YrHndcdQbdydu5PhJ7HyPj1eEjqwAjWrBTU4iY6MHJ" ] },
      { "delegate": "tz3RKYFsLuQzKBtmYuLNas7uMu3AsYd4QdsA",
        "reception_time": "2022-01-16T15:55:46.331-00:00",
        "included_in_blocks":
          [ "BMCYmUEp5YrHndcdQbdydu5PhJ7HyPj1eEjqwAjWrBTU4iY6MHJ" ] },
      { "delegate": "tz1MJx9vhaNRSimcuXPK2rW4fLccQnDAnVKJ",
        "reception_time": "2022-01-16T15:55:46.526-00:00",
        "included_in_blocks":
          [ "BMCYmUEp5YrHndcdQbdydu5PhJ7HyPj1eEjqwAjWrBTU4iY6MHJ" ] },
      { "delegate": "tz3Zhs2dygr55yHyQyKjntAtY9bgfhLZ4Xj1",
        "reception_time": "2022-01-16T15:55:46.370-00:00",
        "included_in_blocks":
          [ "BMCYmUEp5YrHndcdQbdydu5PhJ7HyPj1eEjqwAjWrBTU4iY6MHJ" ] },
      { "delegate": "tz3hw2kqXhLUvY65ca1eety2oQTpAvd34R9Q",
        "reception_time": "2022-01-16T15:55:46.339-00:00",
        "included_in_blocks":
          [ "BMCYmUEp5YrHndcdQbdydu5PhJ7HyPj1eEjqwAjWrBTU4iY6MHJ" ] },
      { "delegate": "tz1gUNyn3hmnEWqkusWPzxRaon1cs7ndWh7h",
        "reception_time": "2022-01-16T15:55:46.354-00:00",
        "included_in_blocks":
          [ "BMCYmUEp5YrHndcdQbdydu5PhJ7HyPj1eEjqwAjWrBTU4iY6MHJ" ] },
      { "delegate": "tz1VQnqCCqX4K5sP3FNkVSNKTdCAMJDd3E1n",
        "reception_time": "2022-01-16T15:55:46.357-00:00",
        "included_in_blocks":
          [ "BMCYmUEp5YrHndcdQbdydu5PhJ7HyPj1eEjqwAjWrBTU4iY6MHJ" ] },
      { "delegate": "tz3iJu5vrKZcsqRPs8yJ61UDoeEXZmtro4qh",
        "reception_time": "2022-01-16T15:55:46.377-00:00",
        "included_in_blocks":
          [ "BMCYmUEp5YrHndcdQbdydu5PhJ7HyPj1eEjqwAjWrBTU4iY6MHJ" ] },
      { "delegate": "tz3NxTnke1acr8o3h5y9ytf5awQBGNJUKzVU",
        "reception_time": "2022-01-16T15:55:46.364-00:00",
        "included_in_blocks":
          [ "BMCYmUEp5YrHndcdQbdydu5PhJ7HyPj1eEjqwAjWrBTU4iY6MHJ" ] },
      { "delegate": "tz1eEnQhbwf6trb8Q8mPb2RaPkNk2rN7BKi8",
        "reception_time": "2022-01-16T15:55:46.339-00:00",
        "included_in_blocks":
          [ "BMCYmUEp5YrHndcdQbdydu5PhJ7HyPj1eEjqwAjWrBTU4iY6MHJ" ] },
      { "delegate": "tz1irJKkXS2DBWkU1NnmFQx1c1L7pbGg4yhk",
        "reception_time": "2022-01-16T15:55:46.381-00:00",
        "included_in_blocks":
          [ "BMCYmUEp5YrHndcdQbdydu5PhJ7HyPj1eEjqwAjWrBTU4iY6MHJ" ] },
      { "delegate": "tz1Scdr2HsZiQjc7bHMeBbmDRXYVvdhjJbBh",
        "reception_time": "2022-01-16T15:55:46.324-00:00",
        "included_in_blocks":
          [ "BMCYmUEp5YrHndcdQbdydu5PhJ7HyPj1eEjqwAjWrBTU4iY6MHJ" ] } ] }