{ "blocks":
    [ { "hash": "BMKyvZec9EVQnnxQN9KqDZEGPN9hStMDUEs47MewouRxEC6Byet",
        "delegate": "tz1irJKkXS2DBWkU1NnmFQx1c1L7pbGg4yhk",
        "reception_time": "2022-01-16T17:17:56.778-00:00",
        "timestamp": "2022-01-16T17:17:50Z" } ],
  "endorsements":
    [ { "delegate": "tz1eEnQhbwf6trb8Q8mPb2RaPkNk2rN7BKi8",
        "reception_time": "2022-01-16T17:17:56.617-00:00",
        "errors":
          [ { "kind": "temporary",
              "id": "proto.011-PtHangz2.prefilter.outdated_endorsement" } ],
        "included_in_blocks":
          [ "BLk4DipwAwTfMFQPYtGcMkDm7y8qXqadKGc1s3kEEsiT2YaxiCz" ] },
      { "delegate": "tz1irJKkXS2DBWkU1NnmFQx1c1L7pbGg4yhk",
        "reception_time": "2022-01-16T17:17:56.463-00:00",
        "errors":
          [ { "kind": "temporary",
              "id": "proto.011-PtHangz2.prefilter.outdated_endorsement" } ],
        "included_in_blocks":
          [ "BLk4DipwAwTfMFQPYtGcMkDm7y8qXqadKGc1s3kEEsiT2YaxiCz" ] },
      { "delegate": "tz1Lhf4J9Qxoe3DZ2nfe8FGDnvVj7oKjnMY6",
        "reception_time": "2022-01-16T17:17:56.090-00:00",
        "errors":
          [ { "kind": "temporary",
              "id": "proto.011-PtHangz2.prefilter.outdated_endorsement" } ],
        "included_in_blocks":
          [ "BLk4DipwAwTfMFQPYtGcMkDm7y8qXqadKGc1s3kEEsiT2YaxiCz" ] },
      { "delegate": "tz1P2Po7YM526ughEsRbY4oR9zaUPDZjxFrb",
        "reception_time": "2022-01-16T17:17:56.074-00:00",
        "errors":
          [ { "kind": "temporary",
              "id": "proto.011-PtHangz2.prefilter.outdated_endorsement" } ],
        "included_in_blocks":
          [ "BLk4DipwAwTfMFQPYtGcMkDm7y8qXqadKGc1s3kEEsiT2YaxiCz" ] },
      { "delegate": "tz1S8e9GgdZG78XJRB3NqabfWeM37GnhZMWQ",
        "reception_time": "2022-01-16T17:17:55.932-00:00",
        "errors":
          [ { "kind": "temporary",
              "id": "proto.011-PtHangz2.prefilter.outdated_endorsement" } ],
        "included_in_blocks":
          [ "BLk4DipwAwTfMFQPYtGcMkDm7y8qXqadKGc1s3kEEsiT2YaxiCz" ] },
      { "delegate": "tz1Vyuu4EJ5Nym4JcrfRLnp3hpaq1DSEp1Ke" },
      { "delegate": "tz1ibcPVGK4Y8pcW4BYUsojiHoBKnZbyDGrX" },
      { "delegate": "tz3bEQoFCZEEfZMskefZ8q8e4eiHH1pssRax" },
      { "delegate": "tz1TRspM5SeZpaQUhzByXbEvqKF1vnCM2YTK",
        "reception_time": "2022-01-16T17:17:57.613-00:00",
        "included_in_blocks":
          [ "BLk4DipwAwTfMFQPYtGcMkDm7y8qXqadKGc1s3kEEsiT2YaxiCz" ] },
      { "delegate": "tz1gUNyn3hmnEWqkusWPzxRaon1cs7ndWh7h",
        "reception_time": "2022-01-16T17:17:57.615-00:00",
        "included_in_blocks":
          [ "BLk4DipwAwTfMFQPYtGcMkDm7y8qXqadKGc1s3kEEsiT2YaxiCz" ] },
      { "delegate": "tz1aXD7Jigrt3PBYSpHSg5Rr33SexMmmM5Ys",
        "reception_time": "2022-01-16T17:17:57.626-00:00",
        "included_in_blocks":
          [ "BLk4DipwAwTfMFQPYtGcMkDm7y8qXqadKGc1s3kEEsiT2YaxiCz" ] },
      { "delegate": "tz1MQMiZHV8q4tTwUMWmS5Y3kaP6J2136iXr",
        "reception_time": "2022-01-16T17:17:57.626-00:00",
        "included_in_blocks":
          [ "BLk4DipwAwTfMFQPYtGcMkDm7y8qXqadKGc1s3kEEsiT2YaxiCz" ] },
      { "delegate": "tz3RKYFsLuQzKBtmYuLNas7uMu3AsYd4QdsA",
        "reception_time": "2022-01-16T17:17:57.633-00:00",
        "included_in_blocks":
          [ "BLk4DipwAwTfMFQPYtGcMkDm7y8qXqadKGc1s3kEEsiT2YaxiCz" ] },
      { "delegate": "tz1VmiY38m3y95HqQLjMwqnMS7sdMfGomzKi",
        "reception_time": "2022-01-16T17:17:57.635-00:00",
        "included_in_blocks":
          [ "BLk4DipwAwTfMFQPYtGcMkDm7y8qXqadKGc1s3kEEsiT2YaxiCz" ] },
      { "delegate": "tz1Ldzz6k1BHdhuKvAtMRX7h5kJSMHESMHLC",
        "reception_time": "2022-01-16T17:17:57.639-00:00",
        "included_in_blocks":
          [ "BLk4DipwAwTfMFQPYtGcMkDm7y8qXqadKGc1s3kEEsiT2YaxiCz" ] },
      { "delegate": "tz1Kt4P8BCaP93AEV4eA7gmpRryWt5hznjCP",
        "reception_time": "2022-01-16T17:17:57.642-00:00",
        "included_in_blocks":
          [ "BLk4DipwAwTfMFQPYtGcMkDm7y8qXqadKGc1s3kEEsiT2YaxiCz" ] },
      { "delegate": "tz1ia6jze3LrBGWJkaDmZ7ThJpPsYWh8D398",
        "reception_time": "2022-01-16T17:17:58.046-00:00",
        "included_in_blocks":
          [ "BLk4DipwAwTfMFQPYtGcMkDm7y8qXqadKGc1s3kEEsiT2YaxiCz" ] },
      { "delegate": "tz3NxTnke1acr8o3h5y9ytf5awQBGNJUKzVU",
        "reception_time": "2022-01-16T17:17:58.063-00:00",
        "included_in_blocks":
          [ "BLk4DipwAwTfMFQPYtGcMkDm7y8qXqadKGc1s3kEEsiT2YaxiCz" ] },
      { "delegate": "tz3QSGPoRp3Kn7n3vY24eYeu3Peuqo45LQ4D",
        "reception_time": "2022-01-16T17:17:58.063-00:00",
        "included_in_blocks":
          [ "BLk4DipwAwTfMFQPYtGcMkDm7y8qXqadKGc1s3kEEsiT2YaxiCz" ] },
      { "delegate": "tz3QT9dHYKDqh563chVa6za8526ys1UKfRfL",
        "reception_time": "2022-01-16T17:17:58.075-00:00",
        "included_in_blocks":
          [ "BLk4DipwAwTfMFQPYtGcMkDm7y8qXqadKGc1s3kEEsiT2YaxiCz" ] },
      { "delegate": "tz3ZbP2pM3nwvXztbuMJwJnDvV5xdpU8UkkD",
        "reception_time": "2022-01-16T17:17:58.075-00:00",
        "included_in_blocks":
          [ "BLk4DipwAwTfMFQPYtGcMkDm7y8qXqadKGc1s3kEEsiT2YaxiCz" ] },
      { "delegate": "tz3iJu5vrKZcsqRPs8yJ61UDoeEXZmtro4qh",
        "reception_time": "2022-01-16T17:17:58.086-00:00",
        "included_in_blocks":
          [ "BLk4DipwAwTfMFQPYtGcMkDm7y8qXqadKGc1s3kEEsiT2YaxiCz" ] },
      { "delegate": "tz3Zhs2dygr55yHyQyKjntAtY9bgfhLZ4Xj1",
        "reception_time": "2022-01-16T17:17:58.096-00:00",
        "included_in_blocks":
          [ "BLk4DipwAwTfMFQPYtGcMkDm7y8qXqadKGc1s3kEEsiT2YaxiCz" ] },
      { "delegate": "tz1VQnqCCqX4K5sP3FNkVSNKTdCAMJDd3E1n",
        "reception_time": "2022-01-16T17:17:58.099-00:00",
        "included_in_blocks":
          [ "BLk4DipwAwTfMFQPYtGcMkDm7y8qXqadKGc1s3kEEsiT2YaxiCz" ] },
      { "delegate": "tz1WnfXMPaNTBmH7DBPwqCWs9cPDJdkGBTZ8",
        "reception_time": "2022-01-16T17:17:58.113-00:00",
        "included_in_blocks":
          [ "BLk4DipwAwTfMFQPYtGcMkDm7y8qXqadKGc1s3kEEsiT2YaxiCz" ] },
      { "delegate": "tz1bZ8vsMAXmaWEV7FRnyhcuUs2fYMaQ6Hkk",
        "reception_time": "2022-01-16T17:17:58.144-00:00",
        "included_in_blocks":
          [ "BLk4DipwAwTfMFQPYtGcMkDm7y8qXqadKGc1s3kEEsiT2YaxiCz" ] },
      { "delegate": "tz3gtoUxdudfBRcNY7iVdKPHCYYX6xdPpoRS",
        "reception_time": "2022-01-16T17:17:58.251-00:00",
        "included_in_blocks":
          [ "BLk4DipwAwTfMFQPYtGcMkDm7y8qXqadKGc1s3kEEsiT2YaxiCz" ] },
      { "delegate": "tz1MQJPGNMijnXnVoBENFz9rUhaPt3S7rWoz",
        "reception_time": "2022-01-16T17:17:58.347-00:00",
        "included_in_blocks":
          [ "BLk4DipwAwTfMFQPYtGcMkDm7y8qXqadKGc1s3kEEsiT2YaxiCz" ] },
      { "delegate": "tz1PWCDnz783NNGGQjEFFsHtrcK5yBW4E2rm",
        "reception_time": "2022-01-16T17:17:58.350-00:00",
        "included_in_blocks":
          [ "BLk4DipwAwTfMFQPYtGcMkDm7y8qXqadKGc1s3kEEsiT2YaxiCz" ] },
      { "delegate": "tz1gfArv665EUkSg2ojMBzcbfwuPxAvqPvjo",
        "reception_time": "2022-01-16T17:17:58.372-00:00",
        "included_in_blocks":
          [ "BLk4DipwAwTfMFQPYtGcMkDm7y8qXqadKGc1s3kEEsiT2YaxiCz" ] },
      { "delegate": "tz1V4qCyvPKZ5UeqdH14HN42rxvNPQfc9UZg",
        "reception_time": "2022-01-16T17:17:58.377-00:00",
        "included_in_blocks":
          [ "BLk4DipwAwTfMFQPYtGcMkDm7y8qXqadKGc1s3kEEsiT2YaxiCz" ] },
      { "delegate": "tz1MWhSr4oT8W67CKdxduqp4bkVyF32qsERK",
        "reception_time": "2022-01-16T17:17:58.379-00:00",
        "included_in_blocks":
          [ "BLk4DipwAwTfMFQPYtGcMkDm7y8qXqadKGc1s3kEEsiT2YaxiCz" ] },
      { "delegate": "tz3QCNyySViKHmeSr45kzDxzchys7NiXCWoa",
        "reception_time": "2022-01-16T17:17:58.389-00:00",
        "included_in_blocks":
          [ "BLk4DipwAwTfMFQPYtGcMkDm7y8qXqadKGc1s3kEEsiT2YaxiCz" ] },
      { "delegate": "tz1LmaFsWRkjr7QMCx5PtV6xTUz3AmEpKQiF",
        "reception_time": "2022-01-16T17:17:58.391-00:00",
        "included_in_blocks":
          [ "BLk4DipwAwTfMFQPYtGcMkDm7y8qXqadKGc1s3kEEsiT2YaxiCz" ] },
      { "delegate": "tz3bTdwZinP8U1JmSweNzVKhmwafqWmFWRfk",
        "reception_time": "2022-01-16T17:17:58.400-00:00",
        "included_in_blocks":
          [ "BLk4DipwAwTfMFQPYtGcMkDm7y8qXqadKGc1s3kEEsiT2YaxiCz" ] },
      { "delegate": "tz1YhNsiRRU8aHNGg7NK3uuP6UDAyacJernB",
        "reception_time": "2022-01-16T17:17:58.408-00:00",
        "included_in_blocks":
          [ "BLk4DipwAwTfMFQPYtGcMkDm7y8qXqadKGc1s3kEEsiT2YaxiCz" ] },
      { "delegate": "tz1fPKAtsYydh4f1wfWNfeNxWYu72TmM48fu",
        "reception_time": "2022-01-16T17:17:58.413-00:00",
        "included_in_blocks":
          [ "BLk4DipwAwTfMFQPYtGcMkDm7y8qXqadKGc1s3kEEsiT2YaxiCz" ] },
      { "delegate": "tz2FCNBrERXtaTtNX6iimR1UJ5JSDxvdHM93",
        "reception_time": "2022-01-16T17:17:58.413-00:00",
        "included_in_blocks":
          [ "BLk4DipwAwTfMFQPYtGcMkDm7y8qXqadKGc1s3kEEsiT2YaxiCz" ] },
      { "delegate": "tz1KfEsrtDaA1sX7vdM4qmEPWuSytuqCDp5j",
        "reception_time": "2022-01-16T17:17:58.418-00:00",
        "included_in_blocks":
          [ "BLk4DipwAwTfMFQPYtGcMkDm7y8qXqadKGc1s3kEEsiT2YaxiCz" ] },
      { "delegate": "tz1Nf6tsK4G6bBqgSQERy4nUtkHNKUVdh7q1",
        "reception_time": "2022-01-16T17:17:58.436-00:00",
        "included_in_blocks":
          [ "BLk4DipwAwTfMFQPYtGcMkDm7y8qXqadKGc1s3kEEsiT2YaxiCz" ] },
      { "delegate": "tz1Tnjaxk6tbAeC2TmMApPh8UsrEVQvhHvx5",
        "reception_time": "2022-01-16T17:17:58.457-00:00",
        "included_in_blocks":
          [ "BLk4DipwAwTfMFQPYtGcMkDm7y8qXqadKGc1s3kEEsiT2YaxiCz" ] },
      { "delegate": "tz3bvNMQ95vfAYtG8193ymshqjSvmxiCUuR5",
        "reception_time": "2022-01-16T17:17:58.516-00:00",
        "included_in_blocks":
          [ "BLk4DipwAwTfMFQPYtGcMkDm7y8qXqadKGc1s3kEEsiT2YaxiCz" ] },
      { "delegate": "tz3RB4aoyjov4KEVRbuhvQ1CKJgBJMWhaeB8",
        "reception_time": "2022-01-16T17:17:58.559-00:00",
        "included_in_blocks":
          [ "BLk4DipwAwTfMFQPYtGcMkDm7y8qXqadKGc1s3kEEsiT2YaxiCz" ] },
      { "delegate": "tz1ei4WtWEMEJekSv8qDnu9PExG6Q8HgRGr3",
        "reception_time": "2022-01-16T17:17:58.575-00:00",
        "included_in_blocks":
          [ "BLk4DipwAwTfMFQPYtGcMkDm7y8qXqadKGc1s3kEEsiT2YaxiCz" ] },
      { "delegate": "tz1WBfwbT66FC6BTLexc2BoyCCBM9LG7pnVW",
        "reception_time": "2022-01-16T17:17:58.584-00:00",
        "included_in_blocks":
          [ "BLk4DipwAwTfMFQPYtGcMkDm7y8qXqadKGc1s3kEEsiT2YaxiCz" ] },
      { "delegate": "tz1PeZx7FXy7QRuMREGXGxeipb24RsMMzUNe",
        "reception_time": "2022-01-16T17:17:58.602-00:00",
        "included_in_blocks":
          [ "BLk4DipwAwTfMFQPYtGcMkDm7y8qXqadKGc1s3kEEsiT2YaxiCz" ] },
      { "delegate": "tz1NEKxGEHsFufk87CVZcrqWu8o22qh46GK6",
        "reception_time": "2022-01-16T17:17:58.645-00:00",
        "included_in_blocks":
          [ "BLk4DipwAwTfMFQPYtGcMkDm7y8qXqadKGc1s3kEEsiT2YaxiCz" ] },
      { "delegate": "tz1RCFbB9GpALpsZtu6J58sb74dm8qe6XBzv",
        "reception_time": "2022-01-16T17:17:58.693-00:00",
        "included_in_blocks":
          [ "BLk4DipwAwTfMFQPYtGcMkDm7y8qXqadKGc1s3kEEsiT2YaxiCz" ] },
      { "delegate": "tz1abmz7jiCV2GH2u81LRrGgAFFgvQgiDiaf",
        "reception_time": "2022-01-16T17:17:58.719-00:00",
        "included_in_blocks":
          [ "BLk4DipwAwTfMFQPYtGcMkDm7y8qXqadKGc1s3kEEsiT2YaxiCz" ] },
      { "delegate": "tz1SYq214SCBy9naR6cvycQsYcUGpBqQAE8d",
        "reception_time": "2022-01-16T17:17:58.722-00:00",
        "included_in_blocks":
          [ "BLk4DipwAwTfMFQPYtGcMkDm7y8qXqadKGc1s3kEEsiT2YaxiCz" ] },
      { "delegate": "tz1Vd1rXpV8hTHbFXCXN3c3qzCsgcU5BZw1e",
        "reception_time": "2022-01-16T17:17:58.735-00:00",
        "included_in_blocks":
          [ "BLk4DipwAwTfMFQPYtGcMkDm7y8qXqadKGc1s3kEEsiT2YaxiCz" ] },
      { "delegate": "tz3UoffC7FG7zfpmvmjUmUeAaHvzdcUvAj6r",
        "reception_time": "2022-01-16T17:17:58.774-00:00",
        "included_in_blocks":
          [ "BLk4DipwAwTfMFQPYtGcMkDm7y8qXqadKGc1s3kEEsiT2YaxiCz" ] },
      { "delegate": "tz1S8MNvuFEUsWgjHvi3AxibRBf388NhT1q2",
        "reception_time": "2022-01-16T17:17:58.918-00:00",
        "included_in_blocks":
          [ "BLk4DipwAwTfMFQPYtGcMkDm7y8qXqadKGc1s3kEEsiT2YaxiCz" ] },
      { "delegate": "tz1cig1EHyvZd7J2k389moM9PxVgPQvmFkvi",
        "reception_time": "2022-01-16T17:17:58.949-00:00",
        "included_in_blocks":
          [ "BLk4DipwAwTfMFQPYtGcMkDm7y8qXqadKGc1s3kEEsiT2YaxiCz" ] },
      { "delegate": "tz1a1J3AGjJTAyBqWWSqFuUazUDV2TtD6hMy",
        "reception_time": "2022-01-16T17:17:59.014-00:00",
        "included_in_blocks":
          [ "BLk4DipwAwTfMFQPYtGcMkDm7y8qXqadKGc1s3kEEsiT2YaxiCz" ] },
      { "delegate": "tz1TRqbYbUf2GyrjErf3hBzgBJPzW8y36qEs",
        "reception_time": "2022-01-16T17:17:59.054-00:00",
        "included_in_blocks":
          [ "BLk4DipwAwTfMFQPYtGcMkDm7y8qXqadKGc1s3kEEsiT2YaxiCz" ] },
      { "delegate": "tz1NRGxXV9h6SdNaZLcgmjuLx3hyy2f8YoGN",
        "reception_time": "2022-01-16T17:17:59.125-00:00",
        "included_in_blocks":
          [ "BLk4DipwAwTfMFQPYtGcMkDm7y8qXqadKGc1s3kEEsiT2YaxiCz" ] },
      { "delegate": "tz3WMqdzXqRWXwyvj5Hp2H7QEepaUuS7vd9K",
        "reception_time": "2022-01-16T17:17:59.216-00:00",
        "included_in_blocks":
          [ "BLk4DipwAwTfMFQPYtGcMkDm7y8qXqadKGc1s3kEEsiT2YaxiCz" ] },
      { "delegate": "tz3RDC3Jdn4j15J7bBHZd29EUee9gVB1CxD9",
        "reception_time": "2022-01-16T17:17:59.238-00:00",
        "included_in_blocks":
          [ "BLk4DipwAwTfMFQPYtGcMkDm7y8qXqadKGc1s3kEEsiT2YaxiCz" ] },
      { "delegate": "tz3VEZ4k6a4Wx42iyev6i2aVAptTRLEAivNN",
        "reception_time": "2022-01-16T17:17:59.423-00:00",
        "included_in_blocks":
          [ "BLk4DipwAwTfMFQPYtGcMkDm7y8qXqadKGc1s3kEEsiT2YaxiCz" ] },
      { "delegate": "tz1YiuvpfeVAHbnU8akcWErNfQGFHNQ7F45z",
        "reception_time": "2022-01-16T17:17:59.472-00:00",
        "included_in_blocks":
          [ "BLk4DipwAwTfMFQPYtGcMkDm7y8qXqadKGc1s3kEEsiT2YaxiCz" ] },
      { "delegate": "tz3NDpRj6WBrJPikcPVHRBEjWKxFw3c6eQPS",
        "reception_time": "2022-01-16T17:17:59.489-00:00",
        "included_in_blocks":
          [ "BLk4DipwAwTfMFQPYtGcMkDm7y8qXqadKGc1s3kEEsiT2YaxiCz" ] },
      { "delegate": "tz1UvkANVPWppVgMkLnvN7BwYZsCP7vm6NVd",
        "reception_time": "2022-01-16T17:17:59.573-00:00",
        "included_in_blocks":
          [ "BLk4DipwAwTfMFQPYtGcMkDm7y8qXqadKGc1s3kEEsiT2YaxiCz" ] },
      { "delegate": "tz3NExpXn9aPNZPorRE4SdjJ2RGrfbJgMAaV",
        "reception_time": "2022-01-16T17:17:59.973-00:00",
        "included_in_blocks":
          [ "BLk4DipwAwTfMFQPYtGcMkDm7y8qXqadKGc1s3kEEsiT2YaxiCz" ] },
      { "delegate": "tz1SUgyRB8T5jXgXAwS33pgRHAKrafyg87Yc",
        "reception_time": "2022-01-16T17:17:59.979-00:00",
        "included_in_blocks":
          [ "BLk4DipwAwTfMFQPYtGcMkDm7y8qXqadKGc1s3kEEsiT2YaxiCz" ] },
      { "delegate": "tz1T7duV5gZWSTq4YpBGbXNLTfznCLDrFxvs",
        "reception_time": "2022-01-16T17:18:00.103-00:00",
        "included_in_blocks":
          [ "BLk4DipwAwTfMFQPYtGcMkDm7y8qXqadKGc1s3kEEsiT2YaxiCz" ] },
      { "delegate": "tz1aRoaRhSpRYvFdyvgWLL6TGyRoGF51wDjM",
        "reception_time": "2022-01-16T17:18:00.157-00:00",
        "included_in_blocks":
          [ "BLk4DipwAwTfMFQPYtGcMkDm7y8qXqadKGc1s3kEEsiT2YaxiCz" ] },
      { "delegate": "tz1cM8Xc7ZP1TrjkTeKq4PeRhtbnwXSBR6Sw",
        "reception_time": "2022-01-16T17:18:00.333-00:00",
        "included_in_blocks":
          [ "BLk4DipwAwTfMFQPYtGcMkDm7y8qXqadKGc1s3kEEsiT2YaxiCz" ] },
      { "delegate": "tz1W5VkdB5s7ENMESVBtwyt9kyvLqPcUczRT",
        "reception_time": "2022-01-16T17:18:01.385-00:00",
        "included_in_blocks":
          [ "BLk4DipwAwTfMFQPYtGcMkDm7y8qXqadKGc1s3kEEsiT2YaxiCz" ] },
      { "delegate": "tz1PFeoTuFen8jAMRHajBySNyCwLmY5RqF9M",
        "reception_time": "2022-01-16T17:18:01.871-00:00",
        "included_in_blocks":
          [ "BLk4DipwAwTfMFQPYtGcMkDm7y8qXqadKGc1s3kEEsiT2YaxiCz" ] } ] }