{ "blocks":
    [ { "hash": "BLJMmnKDjAgS5WPzu3ofUFRpXbyWtekj5Fv7R85FJy2LKSUxcJs",
        "delegate": "tz2FCNBrERXtaTtNX6iimR1UJ5JSDxvdHM93",
        "reception_time": "2022-01-16T15:07:58.118-00:00",
        "timestamp": "2022-01-16T15:07:50Z" } ],
  "endorsements":
    [ { "delegate": "tz1ZPh7XfUaJXUDvkrBxmS1BjEM1i62hiPpM",
        "reception_time": "2022-01-16T15:07:57.915-00:00",
        "errors":
          [ { "kind": "temporary",
              "id": "proto.011-PtHangz2.prefilter.outdated_endorsement" } ],
        "included_in_blocks":
          [ "BMHvyCHDBzxZ4qqRzQGN7QgEFvm3G4VbxsEL1ZwG2sgB6DKqp4W" ] },
      { "delegate": "tz1irJKkXS2DBWkU1NnmFQx1c1L7pbGg4yhk",
        "reception_time": "2022-01-16T15:07:57.835-00:00",
        "errors":
          [ { "kind": "temporary",
              "id": "proto.011-PtHangz2.prefilter.outdated_endorsement" } ],
        "included_in_blocks":
          [ "BMHvyCHDBzxZ4qqRzQGN7QgEFvm3G4VbxsEL1ZwG2sgB6DKqp4W" ] },
      { "delegate": "tz1beersuEDv8Z7ngQ825xfbaJNS2EhXnyHR",
        "reception_time": "2022-01-16T15:07:57.819-00:00",
        "errors":
          [ { "kind": "temporary",
              "id": "proto.011-PtHangz2.prefilter.outdated_endorsement" } ],
        "included_in_blocks":
          [ "BMHvyCHDBzxZ4qqRzQGN7QgEFvm3G4VbxsEL1ZwG2sgB6DKqp4W" ] },
      { "delegate": "tz1STeamwbp68THcny9zk3LsbG3H36DMvbRK",
        "reception_time": "2022-01-16T15:07:57.674-00:00",
        "errors":
          [ { "kind": "temporary",
              "id": "proto.011-PtHangz2.prefilter.outdated_endorsement" } ],
        "included_in_blocks":
          [ "BMHvyCHDBzxZ4qqRzQGN7QgEFvm3G4VbxsEL1ZwG2sgB6DKqp4W" ] },
      { "delegate": "tz1P2Po7YM526ughEsRbY4oR9zaUPDZjxFrb",
        "reception_time": "2022-01-16T15:07:57.672-00:00",
        "errors":
          [ { "kind": "temporary",
              "id": "proto.011-PtHangz2.prefilter.outdated_endorsement" } ],
        "included_in_blocks":
          [ "BMHvyCHDBzxZ4qqRzQGN7QgEFvm3G4VbxsEL1ZwG2sgB6DKqp4W" ] },
      { "delegate": "tz1eEnQhbwf6trb8Q8mPb2RaPkNk2rN7BKi8",
        "reception_time": "2022-01-16T15:07:57.553-00:00",
        "errors":
          [ { "kind": "temporary",
              "id": "proto.011-PtHangz2.prefilter.outdated_endorsement" } ],
        "included_in_blocks":
          [ "BMHvyCHDBzxZ4qqRzQGN7QgEFvm3G4VbxsEL1ZwG2sgB6DKqp4W" ] },
      { "delegate": "tz1S8e9GgdZG78XJRB3NqabfWeM37GnhZMWQ",
        "reception_time": "2022-01-16T15:07:57.175-00:00",
        "errors":
          [ { "kind": "temporary",
              "id": "proto.011-PtHangz2.prefilter.outdated_endorsement" } ],
        "included_in_blocks":
          [ "BMHvyCHDBzxZ4qqRzQGN7QgEFvm3G4VbxsEL1ZwG2sgB6DKqp4W" ] },
      { "delegate": "tz1RjoHc98dBoqaH2jawF62XNKh7YsHwbkEv" },
      { "delegate": "tz1dbfppLAAxXZNtf2SDps7rch3qfUznKSoK" },
      { "delegate": "tz3bEQoFCZEEfZMskefZ8q8e4eiHH1pssRax" },
      { "delegate": "tz1Kt4P8BCaP93AEV4eA7gmpRryWt5hznjCP",
        "reception_time": "2022-01-16T15:07:59.005-00:00",
        "included_in_blocks":
          [ "BMHvyCHDBzxZ4qqRzQGN7QgEFvm3G4VbxsEL1ZwG2sgB6DKqp4W" ] },
      { "delegate": "tz3Zhs2dygr55yHyQyKjntAtY9bgfhLZ4Xj1",
        "reception_time": "2022-01-16T15:07:59.017-00:00",
        "included_in_blocks":
          [ "BMHvyCHDBzxZ4qqRzQGN7QgEFvm3G4VbxsEL1ZwG2sgB6DKqp4W" ] },
      { "delegate": "tz3NxTnke1acr8o3h5y9ytf5awQBGNJUKzVU",
        "reception_time": "2022-01-16T15:07:59.025-00:00",
        "included_in_blocks":
          [ "BMHvyCHDBzxZ4qqRzQGN7QgEFvm3G4VbxsEL1ZwG2sgB6DKqp4W" ] },
      { "delegate": "tz1VmiY38m3y95HqQLjMwqnMS7sdMfGomzKi",
        "reception_time": "2022-01-16T15:07:59.028-00:00",
        "included_in_blocks":
          [ "BMHvyCHDBzxZ4qqRzQGN7QgEFvm3G4VbxsEL1ZwG2sgB6DKqp4W" ] },
      { "delegate": "tz1VQnqCCqX4K5sP3FNkVSNKTdCAMJDd3E1n",
        "reception_time": "2022-01-16T15:07:59.037-00:00",
        "included_in_blocks":
          [ "BMHvyCHDBzxZ4qqRzQGN7QgEFvm3G4VbxsEL1ZwG2sgB6DKqp4W" ] },
      { "delegate": "tz3hw2kqXhLUvY65ca1eety2oQTpAvd34R9Q",
        "reception_time": "2022-01-16T15:07:59.037-00:00",
        "included_in_blocks":
          [ "BMHvyCHDBzxZ4qqRzQGN7QgEFvm3G4VbxsEL1ZwG2sgB6DKqp4W" ] },
      { "delegate": "tz3gtoUxdudfBRcNY7iVdKPHCYYX6xdPpoRS",
        "reception_time": "2022-01-16T15:07:59.044-00:00",
        "included_in_blocks":
          [ "BMHvyCHDBzxZ4qqRzQGN7QgEFvm3G4VbxsEL1ZwG2sgB6DKqp4W" ] },
      { "delegate": "tz3ZbP2pM3nwvXztbuMJwJnDvV5xdpU8UkkD",
        "reception_time": "2022-01-16T15:07:59.054-00:00",
        "included_in_blocks":
          [ "BMHvyCHDBzxZ4qqRzQGN7QgEFvm3G4VbxsEL1ZwG2sgB6DKqp4W" ] },
      { "delegate": "tz1Ldzz6k1BHdhuKvAtMRX7h5kJSMHESMHLC",
        "reception_time": "2022-01-16T15:07:59.054-00:00",
        "included_in_blocks":
          [ "BMHvyCHDBzxZ4qqRzQGN7QgEFvm3G4VbxsEL1ZwG2sgB6DKqp4W" ] },
      { "delegate": "tz1gUNyn3hmnEWqkusWPzxRaon1cs7ndWh7h",
        "reception_time": "2022-01-16T15:07:59.059-00:00",
        "included_in_blocks":
          [ "BMHvyCHDBzxZ4qqRzQGN7QgEFvm3G4VbxsEL1ZwG2sgB6DKqp4W" ] },
      { "delegate": "tz3iJu5vrKZcsqRPs8yJ61UDoeEXZmtro4qh",
        "reception_time": "2022-01-16T15:07:59.066-00:00",
        "included_in_blocks":
          [ "BMHvyCHDBzxZ4qqRzQGN7QgEFvm3G4VbxsEL1ZwG2sgB6DKqp4W" ] },
      { "delegate": "tz3RKYFsLuQzKBtmYuLNas7uMu3AsYd4QdsA",
        "reception_time": "2022-01-16T15:07:59.074-00:00",
        "included_in_blocks":
          [ "BMHvyCHDBzxZ4qqRzQGN7QgEFvm3G4VbxsEL1ZwG2sgB6DKqp4W" ] },
      { "delegate": "tz1MJx9vhaNRSimcuXPK2rW4fLccQnDAnVKJ",
        "reception_time": "2022-01-16T15:07:59.077-00:00",
        "included_in_blocks":
          [ "BMHvyCHDBzxZ4qqRzQGN7QgEFvm3G4VbxsEL1ZwG2sgB6DKqp4W" ] },
      { "delegate": "tz1TzaNn7wSQSP5gYPXCnNzBCpyMiidCq1PX",
        "reception_time": "2022-01-16T15:07:59.090-00:00",
        "included_in_blocks":
          [ "BMHvyCHDBzxZ4qqRzQGN7QgEFvm3G4VbxsEL1ZwG2sgB6DKqp4W" ] },
      { "delegate": "tz3adcvQaKXTCg12zbninqo3q8ptKKtDFTLv",
        "reception_time": "2022-01-16T15:07:59.099-00:00",
        "included_in_blocks":
          [ "BMHvyCHDBzxZ4qqRzQGN7QgEFvm3G4VbxsEL1ZwG2sgB6DKqp4W" ] },
      { "delegate": "tz1WCd2jm4uSt4vntk4vSuUWoZQGhLcDuR9q",
        "reception_time": "2022-01-16T15:07:59.103-00:00",
        "included_in_blocks":
          [ "BMHvyCHDBzxZ4qqRzQGN7QgEFvm3G4VbxsEL1ZwG2sgB6DKqp4W" ] },
      { "delegate": "tz3S6BBeKgJGXxvLyZ1xzXzMPn11nnFtq5L9",
        "reception_time": "2022-01-16T15:07:59.133-00:00",
        "included_in_blocks":
          [ "BMHvyCHDBzxZ4qqRzQGN7QgEFvm3G4VbxsEL1ZwG2sgB6DKqp4W" ] },
      { "delegate": "tz1YhNsiRRU8aHNGg7NK3uuP6UDAyacJernB",
        "reception_time": "2022-01-16T15:07:59.143-00:00",
        "included_in_blocks":
          [ "BMHvyCHDBzxZ4qqRzQGN7QgEFvm3G4VbxsEL1ZwG2sgB6DKqp4W" ] },
      { "delegate": "tz3QSGPoRp3Kn7n3vY24eYeu3Peuqo45LQ4D",
        "reception_time": "2022-01-16T15:07:59.153-00:00",
        "included_in_blocks":
          [ "BMHvyCHDBzxZ4qqRzQGN7QgEFvm3G4VbxsEL1ZwG2sgB6DKqp4W" ] },
      { "delegate": "tz3QT9dHYKDqh563chVa6za8526ys1UKfRfL",
        "reception_time": "2022-01-16T15:07:59.182-00:00",
        "included_in_blocks":
          [ "BMHvyCHDBzxZ4qqRzQGN7QgEFvm3G4VbxsEL1ZwG2sgB6DKqp4W" ] },
      { "delegate": "tz3QCNyySViKHmeSr45kzDxzchys7NiXCWoa",
        "reception_time": "2022-01-16T15:07:59.202-00:00",
        "included_in_blocks":
          [ "BMHvyCHDBzxZ4qqRzQGN7QgEFvm3G4VbxsEL1ZwG2sgB6DKqp4W" ] },
      { "delegate": "tz1aqcYgG6NuViML5vdWhohHJBYxcDVLNUsE",
        "reception_time": "2022-01-16T15:07:59.209-00:00",
        "included_in_blocks":
          [ "BMHvyCHDBzxZ4qqRzQGN7QgEFvm3G4VbxsEL1ZwG2sgB6DKqp4W" ] },
      { "delegate": "tz1gfArv665EUkSg2ojMBzcbfwuPxAvqPvjo",
        "reception_time": "2022-01-16T15:07:59.213-00:00",
        "included_in_blocks":
          [ "BMHvyCHDBzxZ4qqRzQGN7QgEFvm3G4VbxsEL1ZwG2sgB6DKqp4W" ] },
      { "delegate": "tz3bTdwZinP8U1JmSweNzVKhmwafqWmFWRfk",
        "reception_time": "2022-01-16T15:07:59.223-00:00",
        "included_in_blocks":
          [ "BMHvyCHDBzxZ4qqRzQGN7QgEFvm3G4VbxsEL1ZwG2sgB6DKqp4W" ] },
      { "delegate": "tz3RDC3Jdn4j15J7bBHZd29EUee9gVB1CxD9",
        "reception_time": "2022-01-16T15:07:59.230-00:00",
        "included_in_blocks":
          [ "BMHvyCHDBzxZ4qqRzQGN7QgEFvm3G4VbxsEL1ZwG2sgB6DKqp4W" ] },
      { "delegate": "tz1RCFbB9GpALpsZtu6J58sb74dm8qe6XBzv",
        "reception_time": "2022-01-16T15:07:59.249-00:00",
        "included_in_blocks":
          [ "BMHvyCHDBzxZ4qqRzQGN7QgEFvm3G4VbxsEL1ZwG2sgB6DKqp4W" ] },
      { "delegate": "tz1MWhSr4oT8W67CKdxduqp4bkVyF32qsERK",
        "reception_time": "2022-01-16T15:07:59.253-00:00",
        "included_in_blocks":
          [ "BMHvyCHDBzxZ4qqRzQGN7QgEFvm3G4VbxsEL1ZwG2sgB6DKqp4W" ] },
      { "delegate": "tz3RB4aoyjov4KEVRbuhvQ1CKJgBJMWhaeB8",
        "reception_time": "2022-01-16T15:07:59.262-00:00",
        "included_in_blocks":
          [ "BMHvyCHDBzxZ4qqRzQGN7QgEFvm3G4VbxsEL1ZwG2sgB6DKqp4W" ] },
      { "delegate": "tz1UJvHTgpVzcKWhTazGxVcn5wsHru5Gietg",
        "reception_time": "2022-01-16T15:07:59.268-00:00",
        "included_in_blocks":
          [ "BMHvyCHDBzxZ4qqRzQGN7QgEFvm3G4VbxsEL1ZwG2sgB6DKqp4W" ] },
      { "delegate": "tz1h4GUAMweP7SNWzDgvMk3yRCAZyaP1MxZq",
        "reception_time": "2022-01-16T15:07:59.281-00:00",
        "included_in_blocks":
          [ "BMHvyCHDBzxZ4qqRzQGN7QgEFvm3G4VbxsEL1ZwG2sgB6DKqp4W" ] },
      { "delegate": "tz1bZ8vsMAXmaWEV7FRnyhcuUs2fYMaQ6Hkk",
        "reception_time": "2022-01-16T15:07:59.287-00:00",
        "included_in_blocks":
          [ "BMHvyCHDBzxZ4qqRzQGN7QgEFvm3G4VbxsEL1ZwG2sgB6DKqp4W" ] },
      { "delegate": "tz1PWCDnz783NNGGQjEFFsHtrcK5yBW4E2rm",
        "reception_time": "2022-01-16T15:07:59.298-00:00",
        "included_in_blocks":
          [ "BMHvyCHDBzxZ4qqRzQGN7QgEFvm3G4VbxsEL1ZwG2sgB6DKqp4W" ] },
      { "delegate": "tz1V4qCyvPKZ5UeqdH14HN42rxvNPQfc9UZg",
        "reception_time": "2022-01-16T15:07:59.326-00:00",
        "included_in_blocks":
          [ "BMHvyCHDBzxZ4qqRzQGN7QgEFvm3G4VbxsEL1ZwG2sgB6DKqp4W" ] },
      { "delegate": "tz2FCNBrERXtaTtNX6iimR1UJ5JSDxvdHM93",
        "reception_time": "2022-01-16T15:07:59.328-00:00",
        "included_in_blocks":
          [ "BMHvyCHDBzxZ4qqRzQGN7QgEFvm3G4VbxsEL1ZwG2sgB6DKqp4W" ] },
      { "delegate": "tz1g8vkmcde6sWKaG2NN9WKzCkDM6Rziq194",
        "reception_time": "2022-01-16T15:07:59.345-00:00",
        "included_in_blocks":
          [ "BMHvyCHDBzxZ4qqRzQGN7QgEFvm3G4VbxsEL1ZwG2sgB6DKqp4W" ] },
      { "delegate": "tz1ei4WtWEMEJekSv8qDnu9PExG6Q8HgRGr3",
        "reception_time": "2022-01-16T15:07:59.351-00:00",
        "included_in_blocks":
          [ "BMHvyCHDBzxZ4qqRzQGN7QgEFvm3G4VbxsEL1ZwG2sgB6DKqp4W" ] },
      { "delegate": "tz1S8MNvuFEUsWgjHvi3AxibRBf388NhT1q2",
        "reception_time": "2022-01-16T15:07:59.384-00:00",
        "included_in_blocks":
          [ "BMHvyCHDBzxZ4qqRzQGN7QgEFvm3G4VbxsEL1ZwG2sgB6DKqp4W" ] },
      { "delegate": "tz1TEc75UKXv4W5cwi14Na3NtqFD51yKQi7h",
        "reception_time": "2022-01-16T15:07:59.602-00:00",
        "included_in_blocks":
          [ "BMHvyCHDBzxZ4qqRzQGN7QgEFvm3G4VbxsEL1ZwG2sgB6DKqp4W" ] },
      { "delegate": "tz1LmaFsWRkjr7QMCx5PtV6xTUz3AmEpKQiF",
        "reception_time": "2022-01-16T15:07:59.615-00:00",
        "included_in_blocks":
          [ "BMHvyCHDBzxZ4qqRzQGN7QgEFvm3G4VbxsEL1ZwG2sgB6DKqp4W" ] },
      { "delegate": "tz1WBfwbT66FC6BTLexc2BoyCCBM9LG7pnVW",
        "reception_time": "2022-01-16T15:07:59.691-00:00",
        "included_in_blocks":
          [ "BMHvyCHDBzxZ4qqRzQGN7QgEFvm3G4VbxsEL1ZwG2sgB6DKqp4W" ] },
      { "delegate": "tz1LXpCpLNRhP7G9Yw8dRhWd8ZfH8929uvGo",
        "reception_time": "2022-01-16T15:07:59.751-00:00",
        "included_in_blocks":
          [ "BMHvyCHDBzxZ4qqRzQGN7QgEFvm3G4VbxsEL1ZwG2sgB6DKqp4W" ] },
      { "delegate": "tz1Nf6tsK4G6bBqgSQERy4nUtkHNKUVdh7q1",
        "reception_time": "2022-01-16T15:07:59.867-00:00",
        "included_in_blocks":
          [ "BMHvyCHDBzxZ4qqRzQGN7QgEFvm3G4VbxsEL1ZwG2sgB6DKqp4W" ] },
      { "delegate": "tz1NEKxGEHsFufk87CVZcrqWu8o22qh46GK6",
        "reception_time": "2022-01-16T15:07:59.918-00:00",
        "included_in_blocks":
          [ "BMHvyCHDBzxZ4qqRzQGN7QgEFvm3G4VbxsEL1ZwG2sgB6DKqp4W" ] },
      { "delegate": "tz1Vd1rXpV8hTHbFXCXN3c3qzCsgcU5BZw1e",
        "reception_time": "2022-01-16T15:07:59.925-00:00",
        "included_in_blocks":
          [ "BMHvyCHDBzxZ4qqRzQGN7QgEFvm3G4VbxsEL1ZwG2sgB6DKqp4W" ] },
      { "delegate": "tz1KfEsrtDaA1sX7vdM4qmEPWuSytuqCDp5j",
        "reception_time": "2022-01-16T15:07:59.991-00:00",
        "included_in_blocks":
          [ "BMHvyCHDBzxZ4qqRzQGN7QgEFvm3G4VbxsEL1ZwG2sgB6DKqp4W" ] },
      { "delegate": "tz1chefX9Lf2XcZ4BzPtHjV4Qed6BY2ci9GE",
        "reception_time": "2022-01-16T15:08:00.062-00:00",
        "included_in_blocks":
          [ "BMHvyCHDBzxZ4qqRzQGN7QgEFvm3G4VbxsEL1ZwG2sgB6DKqp4W" ] },
      { "delegate": "tz1PeZx7FXy7QRuMREGXGxeipb24RsMMzUNe",
        "reception_time": "2022-01-16T15:08:00.151-00:00",
        "included_in_blocks":
          [ "BMHvyCHDBzxZ4qqRzQGN7QgEFvm3G4VbxsEL1ZwG2sgB6DKqp4W" ] },
      { "delegate": "tz1dNVDWPf3Q59SdJqnjdnu277iyvReiRS9M",
        "reception_time": "2022-01-16T15:08:00.156-00:00",
        "included_in_blocks":
          [ "BMHvyCHDBzxZ4qqRzQGN7QgEFvm3G4VbxsEL1ZwG2sgB6DKqp4W" ] },
      { "delegate": "tz1aRoaRhSpRYvFdyvgWLL6TGyRoGF51wDjM",
        "reception_time": "2022-01-16T15:08:00.194-00:00",
        "included_in_blocks":
          [ "BMHvyCHDBzxZ4qqRzQGN7QgEFvm3G4VbxsEL1ZwG2sgB6DKqp4W" ] },
      { "delegate": "tz3NDpRj6WBrJPikcPVHRBEjWKxFw3c6eQPS",
        "reception_time": "2022-01-16T15:08:00.206-00:00",
        "included_in_blocks":
          [ "BMHvyCHDBzxZ4qqRzQGN7QgEFvm3G4VbxsEL1ZwG2sgB6DKqp4W" ] },
      { "delegate": "tz1TRqbYbUf2GyrjErf3hBzgBJPzW8y36qEs",
        "reception_time": "2022-01-16T15:08:00.211-00:00",
        "included_in_blocks":
          [ "BMHvyCHDBzxZ4qqRzQGN7QgEFvm3G4VbxsEL1ZwG2sgB6DKqp4W" ] },
      { "delegate": "tz3bvNMQ95vfAYtG8193ymshqjSvmxiCUuR5",
        "reception_time": "2022-01-16T15:08:00.222-00:00",
        "included_in_blocks":
          [ "BMHvyCHDBzxZ4qqRzQGN7QgEFvm3G4VbxsEL1ZwG2sgB6DKqp4W" ] },
      { "delegate": "tz3WMqdzXqRWXwyvj5Hp2H7QEepaUuS7vd9K",
        "reception_time": "2022-01-16T15:08:00.233-00:00",
        "included_in_blocks":
          [ "BMHvyCHDBzxZ4qqRzQGN7QgEFvm3G4VbxsEL1ZwG2sgB6DKqp4W" ] },
      { "delegate": "tz3gLTu4Yxj8tPAcriQVUdxv6BY9QyvzU1az",
        "reception_time": "2022-01-16T15:08:00.276-00:00",
        "included_in_blocks":
          [ "BMHvyCHDBzxZ4qqRzQGN7QgEFvm3G4VbxsEL1ZwG2sgB6DKqp4W" ] },
      { "delegate": "tz3VEZ4k6a4Wx42iyev6i2aVAptTRLEAivNN",
        "reception_time": "2022-01-16T15:08:00.484-00:00",
        "included_in_blocks":
          [ "BMHvyCHDBzxZ4qqRzQGN7QgEFvm3G4VbxsEL1ZwG2sgB6DKqp4W" ] },
      { "delegate": "tz1SYq214SCBy9naR6cvycQsYcUGpBqQAE8d",
        "reception_time": "2022-01-16T15:08:00.554-00:00",
        "included_in_blocks":
          [ "BMHvyCHDBzxZ4qqRzQGN7QgEFvm3G4VbxsEL1ZwG2sgB6DKqp4W" ] },
      { "delegate": "tz3NExpXn9aPNZPorRE4SdjJ2RGrfbJgMAaV",
        "reception_time": "2022-01-16T15:08:00.633-00:00",
        "included_in_blocks":
          [ "BMHvyCHDBzxZ4qqRzQGN7QgEFvm3G4VbxsEL1ZwG2sgB6DKqp4W" ] },
      { "delegate": "tz1eVaNx3gCmG1EsLjijkmgAxdLYVf6Bf5Sq",
        "reception_time": "2022-01-16T15:08:00.698-00:00",
        "included_in_blocks":
          [ "BMHvyCHDBzxZ4qqRzQGN7QgEFvm3G4VbxsEL1ZwG2sgB6DKqp4W" ] },
      { "delegate": "tz1awXW7wuXy21c66vBudMXQVAPgRnqqwgTH",
        "reception_time": "2022-01-16T15:08:00.706-00:00",
        "included_in_blocks":
          [ "BMHvyCHDBzxZ4qqRzQGN7QgEFvm3G4VbxsEL1ZwG2sgB6DKqp4W" ] },
      { "delegate": "tz1f3Re8iw6Pt3KMHAvyccHxDU3NuqL95axD",
        "reception_time": "2022-01-16T15:08:00.771-00:00",
        "included_in_blocks":
          [ "BMHvyCHDBzxZ4qqRzQGN7QgEFvm3G4VbxsEL1ZwG2sgB6DKqp4W" ] },
      { "delegate": "tz1cYufsxHXJcvANhvS55h3aY32a9BAFB494",
        "reception_time": "2022-01-16T15:08:00.807-00:00",
        "included_in_blocks":
          [ "BMHvyCHDBzxZ4qqRzQGN7QgEFvm3G4VbxsEL1ZwG2sgB6DKqp4W" ] },
      { "delegate": "tz3UoffC7FG7zfpmvmjUmUeAaHvzdcUvAj6r",
        "reception_time": "2022-01-16T15:08:00.819-00:00",
        "included_in_blocks":
          [ "BMHvyCHDBzxZ4qqRzQGN7QgEFvm3G4VbxsEL1ZwG2sgB6DKqp4W" ] },
      { "delegate": "tz1dRKU4FQ9QRRQPdaH4zCR6gmCmXfcvcgtB",
        "reception_time": "2022-01-16T15:08:00.842-00:00",
        "included_in_blocks":
          [ "BMHvyCHDBzxZ4qqRzQGN7QgEFvm3G4VbxsEL1ZwG2sgB6DKqp4W" ] },
      { "delegate": "tz1Xsrfv6hn86fp88YfRs6xcKwt2nTqxVZYM",
        "reception_time": "2022-01-16T15:08:01.026-00:00",
        "included_in_blocks":
          [ "BMHvyCHDBzxZ4qqRzQGN7QgEFvm3G4VbxsEL1ZwG2sgB6DKqp4W" ] },
      { "delegate": "tz1YiuvpfeVAHbnU8akcWErNfQGFHNQ7F45z",
        "reception_time": "2022-01-16T15:08:01.687-00:00",
        "included_in_blocks":
          [ "BMHvyCHDBzxZ4qqRzQGN7QgEFvm3G4VbxsEL1ZwG2sgB6DKqp4W" ] },
      { "delegate": "tz1ZcTRk5uxD86EFEn1vvNffWWqJy7q5eVhc",
        "reception_time": "2022-01-16T15:08:01.778-00:00",
        "included_in_blocks":
          [ "BMHvyCHDBzxZ4qqRzQGN7QgEFvm3G4VbxsEL1ZwG2sgB6DKqp4W" ] },
      { "delegate": "tz1go7f6mEQfT2xX2LuHAqgnRGN6c2zHPf5c",
        "reception_time": "2022-01-16T15:08:03.919-00:00",
        "included_in_blocks":
          [ "BMHvyCHDBzxZ4qqRzQGN7QgEFvm3G4VbxsEL1ZwG2sgB6DKqp4W" ] },
      { "delegate": "tz1dfg9PkvRLf7hKMmGdGRhXWCbd8QgbwBF7",
        "reception_time": "2022-01-16T15:08:04.078-00:00",
        "included_in_blocks":
          [ "BMHvyCHDBzxZ4qqRzQGN7QgEFvm3G4VbxsEL1ZwG2sgB6DKqp4W" ] },
      { "delegate": "tz1NpWrAyDL9k2Lmnyxcgr9xuJakbBxdq7FB",
        "reception_time": "2022-01-16T15:08:17.366-00:00",
        "included_in_blocks":
          [ "BMHvyCHDBzxZ4qqRzQGN7QgEFvm3G4VbxsEL1ZwG2sgB6DKqp4W" ] } ] }