{ "blocks":
    [ { "hash": "BLUHFhiSJu3nQm2YLaTDTGTP8vishTq1YyFDbYRUKXPJJFqbC1L",
        "delegate": "tz1aRoaRhSpRYvFdyvgWLL6TGyRoGF51wDjM",
        "reception_time": "2022-01-16T19:57:20.980-00:00",
        "timestamp": "2022-01-16T19:57:10Z" } ],
  "endorsements":
    [ { "delegate": "tz1RjoHc98dBoqaH2jawF62XNKh7YsHwbkEv" },
      { "delegate": "tz3bEQoFCZEEfZMskefZ8q8e4eiHH1pssRax" },
      { "delegate": "tz1P2Po7YM526ughEsRbY4oR9zaUPDZjxFrb",
        "reception_time": "2022-01-16T19:57:22.362-00:00",
        "included_in_blocks":
          [ "BKs9TZRo6bPPYujmfvmH9LNzNWBUYNfaL5xqZrZrYuzdVowT3cv" ] },
      { "delegate": "tz1S8e9GgdZG78XJRB3NqabfWeM37GnhZMWQ",
        "reception_time": "2022-01-16T19:57:22.369-00:00",
        "included_in_blocks":
          [ "BKs9TZRo6bPPYujmfvmH9LNzNWBUYNfaL5xqZrZrYuzdVowT3cv" ] },
      { "delegate": "tz1eEnQhbwf6trb8Q8mPb2RaPkNk2rN7BKi8",
        "reception_time": "2022-01-16T19:57:22.455-00:00",
        "included_in_blocks":
          [ "BKs9TZRo6bPPYujmfvmH9LNzNWBUYNfaL5xqZrZrYuzdVowT3cv" ] },
      { "delegate": "tz1TXzyaKUA8wsWefdSnyaYFnV2M3vCV7er9",
        "reception_time": "2022-01-16T19:57:22.502-00:00",
        "included_in_blocks":
          [ "BKs9TZRo6bPPYujmfvmH9LNzNWBUYNfaL5xqZrZrYuzdVowT3cv" ] },
      { "delegate": "tz1irJKkXS2DBWkU1NnmFQx1c1L7pbGg4yhk",
        "reception_time": "2022-01-16T19:57:22.525-00:00",
        "included_in_blocks":
          [ "BKs9TZRo6bPPYujmfvmH9LNzNWBUYNfaL5xqZrZrYuzdVowT3cv" ] },
      { "delegate": "tz1QLXqnfN51dkjeghXvKHkJfhvGiM5gK4tc",
        "reception_time": "2022-01-16T19:57:22.529-00:00",
        "included_in_blocks":
          [ "BKs9TZRo6bPPYujmfvmH9LNzNWBUYNfaL5xqZrZrYuzdVowT3cv" ] },
      { "delegate": "tz1TRspM5SeZpaQUhzByXbEvqKF1vnCM2YTK",
        "reception_time": "2022-01-16T19:57:22.536-00:00",
        "included_in_blocks":
          [ "BKs9TZRo6bPPYujmfvmH9LNzNWBUYNfaL5xqZrZrYuzdVowT3cv" ] },
      { "delegate": "tz1beersuEDv8Z7ngQ825xfbaJNS2EhXnyHR",
        "reception_time": "2022-01-16T19:57:22.538-00:00",
        "included_in_blocks":
          [ "BKs9TZRo6bPPYujmfvmH9LNzNWBUYNfaL5xqZrZrYuzdVowT3cv" ] },
      { "delegate": "tz1ZPh7XfUaJXUDvkrBxmS1BjEM1i62hiPpM",
        "reception_time": "2022-01-16T19:57:22.553-00:00",
        "included_in_blocks":
          [ "BKs9TZRo6bPPYujmfvmH9LNzNWBUYNfaL5xqZrZrYuzdVowT3cv" ] },
      { "delegate": "tz3adcvQaKXTCg12zbninqo3q8ptKKtDFTLv",
        "reception_time": "2022-01-16T19:57:22.559-00:00",
        "included_in_blocks":
          [ "BKs9TZRo6bPPYujmfvmH9LNzNWBUYNfaL5xqZrZrYuzdVowT3cv" ] },
      { "delegate": "tz1h4GUAMweP7SNWzDgvMk3yRCAZyaP1MxZq",
        "reception_time": "2022-01-16T19:57:22.566-00:00",
        "included_in_blocks":
          [ "BKs9TZRo6bPPYujmfvmH9LNzNWBUYNfaL5xqZrZrYuzdVowT3cv" ] },
      { "delegate": "tz1Ldzz6k1BHdhuKvAtMRX7h5kJSMHESMHLC",
        "reception_time": "2022-01-16T19:57:22.570-00:00",
        "included_in_blocks":
          [ "BKs9TZRo6bPPYujmfvmH9LNzNWBUYNfaL5xqZrZrYuzdVowT3cv" ] },
      { "delegate": "tz1VQnqCCqX4K5sP3FNkVSNKTdCAMJDd3E1n",
        "reception_time": "2022-01-16T19:57:22.577-00:00",
        "included_in_blocks":
          [ "BKs9TZRo6bPPYujmfvmH9LNzNWBUYNfaL5xqZrZrYuzdVowT3cv" ] },
      { "delegate": "tz1fUyqYH7H4pRHN1roWY17giXhy1RvxjgUV",
        "reception_time": "2022-01-16T19:57:22.580-00:00",
        "included_in_blocks":
          [ "BKs9TZRo6bPPYujmfvmH9LNzNWBUYNfaL5xqZrZrYuzdVowT3cv" ] },
      { "delegate": "tz1gUNyn3hmnEWqkusWPzxRaon1cs7ndWh7h",
        "reception_time": "2022-01-16T19:57:22.593-00:00",
        "included_in_blocks":
          [ "BKs9TZRo6bPPYujmfvmH9LNzNWBUYNfaL5xqZrZrYuzdVowT3cv" ] },
      { "delegate": "tz3ZbP2pM3nwvXztbuMJwJnDvV5xdpU8UkkD",
        "reception_time": "2022-01-16T19:57:22.593-00:00",
        "included_in_blocks":
          [ "BKs9TZRo6bPPYujmfvmH9LNzNWBUYNfaL5xqZrZrYuzdVowT3cv" ] },
      { "delegate": "tz3NxTnke1acr8o3h5y9ytf5awQBGNJUKzVU",
        "reception_time": "2022-01-16T19:57:22.599-00:00",
        "included_in_blocks":
          [ "BKs9TZRo6bPPYujmfvmH9LNzNWBUYNfaL5xqZrZrYuzdVowT3cv" ] },
      { "delegate": "tz3RKYFsLuQzKBtmYuLNas7uMu3AsYd4QdsA",
        "reception_time": "2022-01-16T19:57:22.676-00:00",
        "included_in_blocks":
          [ "BKs9TZRo6bPPYujmfvmH9LNzNWBUYNfaL5xqZrZrYuzdVowT3cv" ] },
      { "delegate": "tz3QT9dHYKDqh563chVa6za8526ys1UKfRfL",
        "reception_time": "2022-01-16T19:57:22.690-00:00",
        "included_in_blocks":
          [ "BKs9TZRo6bPPYujmfvmH9LNzNWBUYNfaL5xqZrZrYuzdVowT3cv" ] },
      { "delegate": "tz3hw2kqXhLUvY65ca1eety2oQTpAvd34R9Q",
        "reception_time": "2022-01-16T19:57:22.722-00:00",
        "included_in_blocks":
          [ "BKs9TZRo6bPPYujmfvmH9LNzNWBUYNfaL5xqZrZrYuzdVowT3cv" ] },
      { "delegate": "tz3gtoUxdudfBRcNY7iVdKPHCYYX6xdPpoRS",
        "reception_time": "2022-01-16T19:57:22.795-00:00",
        "included_in_blocks":
          [ "BKs9TZRo6bPPYujmfvmH9LNzNWBUYNfaL5xqZrZrYuzdVowT3cv" ] },
      { "delegate": "tz1VmiY38m3y95HqQLjMwqnMS7sdMfGomzKi",
        "reception_time": "2022-01-16T19:57:22.799-00:00",
        "included_in_blocks":
          [ "BKs9TZRo6bPPYujmfvmH9LNzNWBUYNfaL5xqZrZrYuzdVowT3cv" ] },
      { "delegate": "tz3QSGPoRp3Kn7n3vY24eYeu3Peuqo45LQ4D",
        "reception_time": "2022-01-16T19:57:22.806-00:00",
        "included_in_blocks":
          [ "BKs9TZRo6bPPYujmfvmH9LNzNWBUYNfaL5xqZrZrYuzdVowT3cv" ] },
      { "delegate": "tz3S6BBeKgJGXxvLyZ1xzXzMPn11nnFtq5L9",
        "reception_time": "2022-01-16T19:57:22.857-00:00",
        "included_in_blocks":
          [ "BKs9TZRo6bPPYujmfvmH9LNzNWBUYNfaL5xqZrZrYuzdVowT3cv" ] },
      { "delegate": "tz3iJu5vrKZcsqRPs8yJ61UDoeEXZmtro4qh",
        "reception_time": "2022-01-16T19:57:22.875-00:00",
        "included_in_blocks":
          [ "BKs9TZRo6bPPYujmfvmH9LNzNWBUYNfaL5xqZrZrYuzdVowT3cv" ] },
      { "delegate": "tz3Zhs2dygr55yHyQyKjntAtY9bgfhLZ4Xj1",
        "reception_time": "2022-01-16T19:57:22.886-00:00",
        "included_in_blocks":
          [ "BKs9TZRo6bPPYujmfvmH9LNzNWBUYNfaL5xqZrZrYuzdVowT3cv" ] },
      { "delegate": "tz1WCd2jm4uSt4vntk4vSuUWoZQGhLcDuR9q",
        "reception_time": "2022-01-16T19:57:22.907-00:00",
        "included_in_blocks":
          [ "BKs9TZRo6bPPYujmfvmH9LNzNWBUYNfaL5xqZrZrYuzdVowT3cv" ] },
      { "delegate": "tz1UJvHTgpVzcKWhTazGxVcn5wsHru5Gietg",
        "reception_time": "2022-01-16T19:57:22.909-00:00",
        "included_in_blocks":
          [ "BKs9TZRo6bPPYujmfvmH9LNzNWBUYNfaL5xqZrZrYuzdVowT3cv" ] },
      { "delegate": "tz1d6Fx42mYgVFnHUW8T8A7WBfJ6nD9pVok8",
        "reception_time": "2022-01-16T19:57:23.000-00:00",
        "included_in_blocks":
          [ "BKs9TZRo6bPPYujmfvmH9LNzNWBUYNfaL5xqZrZrYuzdVowT3cv" ] },
      { "delegate": "tz3bTdwZinP8U1JmSweNzVKhmwafqWmFWRfk",
        "reception_time": "2022-01-16T19:57:23.113-00:00",
        "included_in_blocks":
          [ "BKs9TZRo6bPPYujmfvmH9LNzNWBUYNfaL5xqZrZrYuzdVowT3cv" ] },
      { "delegate": "tz1PWCDnz783NNGGQjEFFsHtrcK5yBW4E2rm",
        "reception_time": "2022-01-16T19:57:23.243-00:00",
        "included_in_blocks":
          [ "BKs9TZRo6bPPYujmfvmH9LNzNWBUYNfaL5xqZrZrYuzdVowT3cv" ] },
      { "delegate": "tz1YhNsiRRU8aHNGg7NK3uuP6UDAyacJernB",
        "reception_time": "2022-01-16T19:57:23.297-00:00",
        "included_in_blocks":
          [ "BKs9TZRo6bPPYujmfvmH9LNzNWBUYNfaL5xqZrZrYuzdVowT3cv" ] },
      { "delegate": "tz3RDC3Jdn4j15J7bBHZd29EUee9gVB1CxD9",
        "reception_time": "2022-01-16T19:57:23.374-00:00",
        "included_in_blocks":
          [ "BKs9TZRo6bPPYujmfvmH9LNzNWBUYNfaL5xqZrZrYuzdVowT3cv" ] },
      { "delegate": "tz1NSDFKuRyzHxpfG1AMkyCwEiZ52cbR2mRW",
        "reception_time": "2022-01-16T19:57:23.413-00:00",
        "included_in_blocks":
          [ "BKs9TZRo6bPPYujmfvmH9LNzNWBUYNfaL5xqZrZrYuzdVowT3cv" ] },
      { "delegate": "tz1gfArv665EUkSg2ojMBzcbfwuPxAvqPvjo",
        "reception_time": "2022-01-16T19:57:23.523-00:00",
        "included_in_blocks":
          [ "BKs9TZRo6bPPYujmfvmH9LNzNWBUYNfaL5xqZrZrYuzdVowT3cv" ] },
      { "delegate": "tz1S8MNvuFEUsWgjHvi3AxibRBf388NhT1q2",
        "reception_time": "2022-01-16T19:57:23.526-00:00",
        "included_in_blocks":
          [ "BKs9TZRo6bPPYujmfvmH9LNzNWBUYNfaL5xqZrZrYuzdVowT3cv" ] },
      { "delegate": "tz1Nf6tsK4G6bBqgSQERy4nUtkHNKUVdh7q1",
        "reception_time": "2022-01-16T19:57:23.532-00:00",
        "included_in_blocks":
          [ "BKs9TZRo6bPPYujmfvmH9LNzNWBUYNfaL5xqZrZrYuzdVowT3cv" ] },
      { "delegate": "tz1RCFbB9GpALpsZtu6J58sb74dm8qe6XBzv",
        "reception_time": "2022-01-16T19:57:23.550-00:00",
        "included_in_blocks":
          [ "BKs9TZRo6bPPYujmfvmH9LNzNWBUYNfaL5xqZrZrYuzdVowT3cv" ] },
      { "delegate": "tz2FCNBrERXtaTtNX6iimR1UJ5JSDxvdHM93",
        "reception_time": "2022-01-16T19:57:23.565-00:00",
        "included_in_blocks":
          [ "BKs9TZRo6bPPYujmfvmH9LNzNWBUYNfaL5xqZrZrYuzdVowT3cv" ] },
      { "delegate": "tz1fwnfJNgiDACshK9avfRfFbMaXrs3ghoJa",
        "reception_time": "2022-01-16T19:57:23.938-00:00",
        "included_in_blocks":
          [ "BKs9TZRo6bPPYujmfvmH9LNzNWBUYNfaL5xqZrZrYuzdVowT3cv" ] },
      { "delegate": "tz1PeZx7FXy7QRuMREGXGxeipb24RsMMzUNe",
        "reception_time": "2022-01-16T19:57:23.974-00:00",
        "included_in_blocks":
          [ "BKs9TZRo6bPPYujmfvmH9LNzNWBUYNfaL5xqZrZrYuzdVowT3cv" ] },
      { "delegate": "tz1TRqbYbUf2GyrjErf3hBzgBJPzW8y36qEs",
        "reception_time": "2022-01-16T19:57:23.981-00:00",
        "included_in_blocks":
          [ "BKs9TZRo6bPPYujmfvmH9LNzNWBUYNfaL5xqZrZrYuzdVowT3cv" ] },
      { "delegate": "tz3RB4aoyjov4KEVRbuhvQ1CKJgBJMWhaeB8",
        "reception_time": "2022-01-16T19:57:24.122-00:00",
        "included_in_blocks":
          [ "BKs9TZRo6bPPYujmfvmH9LNzNWBUYNfaL5xqZrZrYuzdVowT3cv" ] },
      { "delegate": "tz1KfEsrtDaA1sX7vdM4qmEPWuSytuqCDp5j",
        "reception_time": "2022-01-16T19:57:24.129-00:00",
        "included_in_blocks":
          [ "BKs9TZRo6bPPYujmfvmH9LNzNWBUYNfaL5xqZrZrYuzdVowT3cv" ] },
      { "delegate": "tz1SYq214SCBy9naR6cvycQsYcUGpBqQAE8d",
        "reception_time": "2022-01-16T19:57:24.264-00:00",
        "included_in_blocks":
          [ "BKs9TZRo6bPPYujmfvmH9LNzNWBUYNfaL5xqZrZrYuzdVowT3cv" ] },
      { "delegate": "tz1aRoaRhSpRYvFdyvgWLL6TGyRoGF51wDjM",
        "reception_time": "2022-01-16T19:57:24.269-00:00",
        "included_in_blocks":
          [ "BKs9TZRo6bPPYujmfvmH9LNzNWBUYNfaL5xqZrZrYuzdVowT3cv" ] },
      { "delegate": "tz3VEZ4k6a4Wx42iyev6i2aVAptTRLEAivNN",
        "reception_time": "2022-01-16T19:57:24.314-00:00",
        "included_in_blocks":
          [ "BKs9TZRo6bPPYujmfvmH9LNzNWBUYNfaL5xqZrZrYuzdVowT3cv" ] },
      { "delegate": "tz1SohptP53wDPZhzTWzDUFAUcWF6DMBpaJV",
        "reception_time": "2022-01-16T19:57:24.322-00:00",
        "included_in_blocks":
          [ "BKs9TZRo6bPPYujmfvmH9LNzNWBUYNfaL5xqZrZrYuzdVowT3cv" ] },
      { "delegate": "tz1NEKxGEHsFufk87CVZcrqWu8o22qh46GK6",
        "reception_time": "2022-01-16T19:57:24.326-00:00",
        "included_in_blocks":
          [ "BKs9TZRo6bPPYujmfvmH9LNzNWBUYNfaL5xqZrZrYuzdVowT3cv" ] },
      { "delegate": "tz3NDpRj6WBrJPikcPVHRBEjWKxFw3c6eQPS",
        "reception_time": "2022-01-16T19:57:24.431-00:00",
        "included_in_blocks":
          [ "BKs9TZRo6bPPYujmfvmH9LNzNWBUYNfaL5xqZrZrYuzdVowT3cv" ] },
      { "delegate": "tz3bvNMQ95vfAYtG8193ymshqjSvmxiCUuR5",
        "reception_time": "2022-01-16T19:57:24.619-00:00",
        "included_in_blocks":
          [ "BKs9TZRo6bPPYujmfvmH9LNzNWBUYNfaL5xqZrZrYuzdVowT3cv" ] },
      { "delegate": "tz3WMqdzXqRWXwyvj5Hp2H7QEepaUuS7vd9K",
        "reception_time": "2022-01-16T19:57:24.630-00:00",
        "included_in_blocks":
          [ "BKs9TZRo6bPPYujmfvmH9LNzNWBUYNfaL5xqZrZrYuzdVowT3cv" ] },
      { "delegate": "tz1Z2jXfEXL7dXhs6bsLmyLFLfmAkXBzA9WE",
        "reception_time": "2022-01-16T19:57:24.666-00:00",
        "included_in_blocks":
          [ "BKs9TZRo6bPPYujmfvmH9LNzNWBUYNfaL5xqZrZrYuzdVowT3cv" ] },
      { "delegate": "tz1eLbDXYceRsPZoPmaJXZgQ6pzgnTQvZtpo",
        "reception_time": "2022-01-16T19:57:24.786-00:00",
        "included_in_blocks":
          [ "BKs9TZRo6bPPYujmfvmH9LNzNWBUYNfaL5xqZrZrYuzdVowT3cv" ] },
      { "delegate": "tz1awXW7wuXy21c66vBudMXQVAPgRnqqwgTH",
        "reception_time": "2022-01-16T19:57:24.916-00:00",
        "included_in_blocks":
          [ "BKs9TZRo6bPPYujmfvmH9LNzNWBUYNfaL5xqZrZrYuzdVowT3cv" ] },
      { "delegate": "tz1T7duV5gZWSTq4YpBGbXNLTfznCLDrFxvs",
        "reception_time": "2022-01-16T19:57:24.939-00:00",
        "included_in_blocks":
          [ "BKs9TZRo6bPPYujmfvmH9LNzNWBUYNfaL5xqZrZrYuzdVowT3cv" ] },
      { "delegate": "tz1g8vkmcde6sWKaG2NN9WKzCkDM6Rziq194",
        "reception_time": "2022-01-16T19:57:25.091-00:00",
        "included_in_blocks":
          [ "BKs9TZRo6bPPYujmfvmH9LNzNWBUYNfaL5xqZrZrYuzdVowT3cv" ] },
      { "delegate": "tz1dRKU4FQ9QRRQPdaH4zCR6gmCmXfcvcgtB",
        "reception_time": "2022-01-16T19:57:25.123-00:00",
        "included_in_blocks":
          [ "BKs9TZRo6bPPYujmfvmH9LNzNWBUYNfaL5xqZrZrYuzdVowT3cv" ] },
      { "delegate": "tz3NExpXn9aPNZPorRE4SdjJ2RGrfbJgMAaV",
        "reception_time": "2022-01-16T19:57:25.161-00:00",
        "included_in_blocks":
          [ "BKs9TZRo6bPPYujmfvmH9LNzNWBUYNfaL5xqZrZrYuzdVowT3cv" ] },
      { "delegate": "tz3UoffC7FG7zfpmvmjUmUeAaHvzdcUvAj6r",
        "reception_time": "2022-01-16T19:57:25.287-00:00",
        "included_in_blocks":
          [ "BKs9TZRo6bPPYujmfvmH9LNzNWBUYNfaL5xqZrZrYuzdVowT3cv" ] },
      { "delegate": "tz1ZcTRk5uxD86EFEn1vvNffWWqJy7q5eVhc",
        "reception_time": "2022-01-16T19:57:25.416-00:00",
        "included_in_blocks":
          [ "BKs9TZRo6bPPYujmfvmH9LNzNWBUYNfaL5xqZrZrYuzdVowT3cv" ] },
      { "delegate": "tz1QJU1PuKUP5ZQxUr4pHZjCHGRvJSpcXv7G",
        "reception_time": "2022-01-16T19:57:25.818-00:00",
        "included_in_blocks":
          [ "BKs9TZRo6bPPYujmfvmH9LNzNWBUYNfaL5xqZrZrYuzdVowT3cv" ] },
      { "delegate": "tz1eVaNx3gCmG1EsLjijkmgAxdLYVf6Bf5Sq",
        "reception_time": "2022-01-16T19:57:26.143-00:00",
        "included_in_blocks":
          [ "BKs9TZRo6bPPYujmfvmH9LNzNWBUYNfaL5xqZrZrYuzdVowT3cv" ] },
      { "delegate": "tz1aoKwjRZjqnzdQwXeUtNqBvMWcpLmTk76m",
        "reception_time": "2022-01-16T19:57:26.153-00:00",
        "included_in_blocks":
          [ "BKs9TZRo6bPPYujmfvmH9LNzNWBUYNfaL5xqZrZrYuzdVowT3cv" ] },
      { "delegate": "tz1dfg9PkvRLf7hKMmGdGRhXWCbd8QgbwBF7",
        "reception_time": "2022-01-16T19:57:27.162-00:00",
        "included_in_blocks":
          [ "BKs9TZRo6bPPYujmfvmH9LNzNWBUYNfaL5xqZrZrYuzdVowT3cv" ] } ] }