{ "blocks":
    [ { "hash": "BLvkXwmQnoi9RLsFTSLsgjMVWvTXaD98maGPDi4EYezAKCitGdK",
        "delegate": "tz3WMqdzXqRWXwyvj5Hp2H7QEepaUuS7vd9K",
        "reception_time": "2022-01-16T22:12:08.199-00:00",
        "timestamp": "2022-01-16T22:12:00Z" } ],
  "endorsements":
    [ { "delegate": "tz1ibcPVGK4Y8pcW4BYUsojiHoBKnZbyDGrX" },
      { "delegate": "tz1RjoHc98dBoqaH2jawF62XNKh7YsHwbkEv" },
      { "delegate": "tz1Kt4P8BCaP93AEV4eA7gmpRryWt5hznjCP",
        "reception_time": "2022-01-16T22:12:08.020-00:00",
        "errors":
          [ { "kind": "temporary",
              "id": "proto.011-PtHangz2.prefilter.outdated_endorsement" } ],
        "included_in_blocks":
          [ "BL9HQtNnd7ZnFCHJWaLyugC747qaJXhdSke5o6tirNgpNCyQaa3" ] },
      { "delegate": "tz1NpWrAyDL9k2Lmnyxcgr9xuJakbBxdq7FB",
        "reception_time": "2022-01-16T22:12:18.163-00:00",
        "included_in_blocks":
          [ "BL9HQtNnd7ZnFCHJWaLyugC747qaJXhdSke5o6tirNgpNCyQaa3" ] },
      { "delegate": "tz1go7f6mEQfT2xX2LuHAqgnRGN6c2zHPf5c",
        "reception_time": "2022-01-16T22:12:15.299-00:00",
        "included_in_blocks":
          [ "BL9HQtNnd7ZnFCHJWaLyugC747qaJXhdSke5o6tirNgpNCyQaa3" ] },
      { "delegate": "tz1PFeoTuFen8jAMRHajBySNyCwLmY5RqF9M",
        "reception_time": "2022-01-16T22:12:13.626-00:00",
        "included_in_blocks":
          [ "BL9HQtNnd7ZnFCHJWaLyugC747qaJXhdSke5o6tirNgpNCyQaa3" ] },
      { "delegate": "tz1ZdSQibskQwRdiaFUh7RUVm1Z6xudMedoj",
        "reception_time": "2022-01-16T22:12:13.451-00:00",
        "included_in_blocks":
          [ "BL9HQtNnd7ZnFCHJWaLyugC747qaJXhdSke5o6tirNgpNCyQaa3" ] },
      { "delegate": "tz1W5VkdB5s7ENMESVBtwyt9kyvLqPcUczRT",
        "reception_time": "2022-01-16T22:12:13.067-00:00",
        "included_in_blocks":
          [ "BL9HQtNnd7ZnFCHJWaLyugC747qaJXhdSke5o6tirNgpNCyQaa3" ] },
      { "delegate": "tz1NuUu12WHdW3jHqvkujGHsiTi46Wvw1ci1",
        "reception_time": "2022-01-16T22:12:12.119-00:00",
        "included_in_blocks":
          [ "BL9HQtNnd7ZnFCHJWaLyugC747qaJXhdSke5o6tirNgpNCyQaa3" ] },
      { "delegate": "tz1ZcTRk5uxD86EFEn1vvNffWWqJy7q5eVhc",
        "reception_time": "2022-01-16T22:12:12.185-00:00",
        "included_in_blocks":
          [ "BL9HQtNnd7ZnFCHJWaLyugC747qaJXhdSke5o6tirNgpNCyQaa3" ] },
      { "delegate": "tz1aRoaRhSpRYvFdyvgWLL6TGyRoGF51wDjM",
        "reception_time": "2022-01-16T22:12:11.960-00:00",
        "included_in_blocks":
          [ "BL9HQtNnd7ZnFCHJWaLyugC747qaJXhdSke5o6tirNgpNCyQaa3" ] },
      { "delegate": "tz1Zdk8q7wNasmv7VFeQ6QFwcw5fP2c7StoF",
        "reception_time": "2022-01-16T22:12:11.477-00:00",
        "included_in_blocks":
          [ "BL9HQtNnd7ZnFCHJWaLyugC747qaJXhdSke5o6tirNgpNCyQaa3" ] },
      { "delegate": "tz1NoYvKjXTzTk54VpLxBfouJ33J8jwKPPvw",
        "reception_time": "2022-01-16T22:12:11.495-00:00",
        "included_in_blocks":
          [ "BL9HQtNnd7ZnFCHJWaLyugC747qaJXhdSke5o6tirNgpNCyQaa3" ] },
      { "delegate": "tz1dRKU4FQ9QRRQPdaH4zCR6gmCmXfcvcgtB",
        "reception_time": "2022-01-16T22:12:11.412-00:00",
        "included_in_blocks":
          [ "BL9HQtNnd7ZnFCHJWaLyugC747qaJXhdSke5o6tirNgpNCyQaa3" ] },
      { "delegate": "tz1cYufsxHXJcvANhvS55h3aY32a9BAFB494",
        "reception_time": "2022-01-16T22:12:11.366-00:00",
        "included_in_blocks":
          [ "BL9HQtNnd7ZnFCHJWaLyugC747qaJXhdSke5o6tirNgpNCyQaa3" ] },
      { "delegate": "tz1awXW7wuXy21c66vBudMXQVAPgRnqqwgTH",
        "reception_time": "2022-01-16T22:12:11.333-00:00",
        "included_in_blocks":
          [ "BL9HQtNnd7ZnFCHJWaLyugC747qaJXhdSke5o6tirNgpNCyQaa3" ] },
      { "delegate": "tz3NExpXn9aPNZPorRE4SdjJ2RGrfbJgMAaV",
        "reception_time": "2022-01-16T22:12:11.194-00:00",
        "included_in_blocks":
          [ "BL9HQtNnd7ZnFCHJWaLyugC747qaJXhdSke5o6tirNgpNCyQaa3" ] },
      { "delegate": "tz3gLTu4Yxj8tPAcriQVUdxv6BY9QyvzU1az",
        "reception_time": "2022-01-16T22:12:11.299-00:00",
        "included_in_blocks":
          [ "BL9HQtNnd7ZnFCHJWaLyugC747qaJXhdSke5o6tirNgpNCyQaa3" ] },
      { "delegate": "tz3NDpRj6WBrJPikcPVHRBEjWKxFw3c6eQPS",
        "reception_time": "2022-01-16T22:12:11.183-00:00",
        "included_in_blocks":
          [ "BL9HQtNnd7ZnFCHJWaLyugC747qaJXhdSke5o6tirNgpNCyQaa3" ] },
      { "delegate": "tz1iPHM2Xx2hwmzcr1EG1zzrV6oKafVoA91m",
        "reception_time": "2022-01-16T22:12:11.052-00:00",
        "included_in_blocks":
          [ "BL9HQtNnd7ZnFCHJWaLyugC747qaJXhdSke5o6tirNgpNCyQaa3" ] },
      { "delegate": "tz1TUByFyn9oCXd5c4wDrDekjhPfXtYn4cyb",
        "reception_time": "2022-01-16T22:12:11.003-00:00",
        "included_in_blocks":
          [ "BL9HQtNnd7ZnFCHJWaLyugC747qaJXhdSke5o6tirNgpNCyQaa3" ] },
      { "delegate": "tz1T7duV5gZWSTq4YpBGbXNLTfznCLDrFxvs",
        "reception_time": "2022-01-16T22:12:10.882-00:00",
        "included_in_blocks":
          [ "BL9HQtNnd7ZnFCHJWaLyugC747qaJXhdSke5o6tirNgpNCyQaa3" ] },
      { "delegate": "tz1Nf6tsK4G6bBqgSQERy4nUtkHNKUVdh7q1",
        "reception_time": "2022-01-16T22:12:10.890-00:00",
        "included_in_blocks":
          [ "BL9HQtNnd7ZnFCHJWaLyugC747qaJXhdSke5o6tirNgpNCyQaa3" ] },
      { "delegate": "tz1SYq214SCBy9naR6cvycQsYcUGpBqQAE8d",
        "reception_time": "2022-01-16T22:12:10.773-00:00",
        "included_in_blocks":
          [ "BL9HQtNnd7ZnFCHJWaLyugC747qaJXhdSke5o6tirNgpNCyQaa3" ] },
      { "delegate": "tz1TRqbYbUf2GyrjErf3hBzgBJPzW8y36qEs",
        "reception_time": "2022-01-16T22:12:10.803-00:00",
        "included_in_blocks":
          [ "BL9HQtNnd7ZnFCHJWaLyugC747qaJXhdSke5o6tirNgpNCyQaa3" ] },
      { "delegate": "tz3UoffC7FG7zfpmvmjUmUeAaHvzdcUvAj6r",
        "reception_time": "2022-01-16T22:12:10.748-00:00",
        "included_in_blocks":
          [ "BL9HQtNnd7ZnFCHJWaLyugC747qaJXhdSke5o6tirNgpNCyQaa3" ] },
      { "delegate": "tz2FCNBrERXtaTtNX6iimR1UJ5JSDxvdHM93",
        "reception_time": "2022-01-16T22:12:10.538-00:00",
        "included_in_blocks":
          [ "BL9HQtNnd7ZnFCHJWaLyugC747qaJXhdSke5o6tirNgpNCyQaa3" ] },
      { "delegate": "tz1NEKxGEHsFufk87CVZcrqWu8o22qh46GK6",
        "reception_time": "2022-01-16T22:12:10.509-00:00",
        "included_in_blocks":
          [ "BL9HQtNnd7ZnFCHJWaLyugC747qaJXhdSke5o6tirNgpNCyQaa3" ] },
      { "delegate": "tz1LYW7Yepo9qsQx2kjpek2RYVMCeGwBvDCQ",
        "reception_time": "2022-01-16T22:12:10.452-00:00",
        "included_in_blocks":
          [ "BL9HQtNnd7ZnFCHJWaLyugC747qaJXhdSke5o6tirNgpNCyQaa3" ] },
      { "delegate": "tz1WBfwbT66FC6BTLexc2BoyCCBM9LG7pnVW",
        "reception_time": "2022-01-16T22:12:10.334-00:00",
        "included_in_blocks":
          [ "BL9HQtNnd7ZnFCHJWaLyugC747qaJXhdSke5o6tirNgpNCyQaa3" ] },
      { "delegate": "tz1YhNsiRRU8aHNGg7NK3uuP6UDAyacJernB",
        "reception_time": "2022-01-16T22:12:10.299-00:00",
        "included_in_blocks":
          [ "BL9HQtNnd7ZnFCHJWaLyugC747qaJXhdSke5o6tirNgpNCyQaa3" ] },
      { "delegate": "tz1fwnfJNgiDACshK9avfRfFbMaXrs3ghoJa",
        "reception_time": "2022-01-16T22:12:10.218-00:00",
        "included_in_blocks":
          [ "BL9HQtNnd7ZnFCHJWaLyugC747qaJXhdSke5o6tirNgpNCyQaa3" ] },
      { "delegate": "tz1KfEsrtDaA1sX7vdM4qmEPWuSytuqCDp5j",
        "reception_time": "2022-01-16T22:12:10.142-00:00",
        "included_in_blocks":
          [ "BL9HQtNnd7ZnFCHJWaLyugC747qaJXhdSke5o6tirNgpNCyQaa3" ] },
      { "delegate": "tz1TEc75UKXv4W5cwi14Na3NtqFD51yKQi7h",
        "reception_time": "2022-01-16T22:12:10.151-00:00",
        "included_in_blocks":
          [ "BL9HQtNnd7ZnFCHJWaLyugC747qaJXhdSke5o6tirNgpNCyQaa3" ] },
      { "delegate": "tz1gfArv665EUkSg2ojMBzcbfwuPxAvqPvjo",
        "reception_time": "2022-01-16T22:12:10.117-00:00",
        "included_in_blocks":
          [ "BL9HQtNnd7ZnFCHJWaLyugC747qaJXhdSke5o6tirNgpNCyQaa3" ] },
      { "delegate": "tz1Tnjaxk6tbAeC2TmMApPh8UsrEVQvhHvx5",
        "reception_time": "2022-01-16T22:12:09.970-00:00",
        "included_in_blocks":
          [ "BL9HQtNnd7ZnFCHJWaLyugC747qaJXhdSke5o6tirNgpNCyQaa3" ] },
      { "delegate": "tz3VEZ4k6a4Wx42iyev6i2aVAptTRLEAivNN",
        "reception_time": "2022-01-16T22:12:10.066-00:00",
        "included_in_blocks":
          [ "BL9HQtNnd7ZnFCHJWaLyugC747qaJXhdSke5o6tirNgpNCyQaa3" ] },
      { "delegate": "tz3bvNMQ95vfAYtG8193ymshqjSvmxiCUuR5",
        "reception_time": "2022-01-16T22:12:09.935-00:00",
        "included_in_blocks":
          [ "BL9HQtNnd7ZnFCHJWaLyugC747qaJXhdSke5o6tirNgpNCyQaa3" ] },
      { "delegate": "tz1fb7c66UwePkkfDXz4ajFaBP9hVNLdS7JJ",
        "reception_time": "2022-01-16T22:12:09.915-00:00",
        "included_in_blocks":
          [ "BL9HQtNnd7ZnFCHJWaLyugC747qaJXhdSke5o6tirNgpNCyQaa3" ] },
      { "delegate": "tz3RB4aoyjov4KEVRbuhvQ1CKJgBJMWhaeB8",
        "reception_time": "2022-01-16T22:12:09.913-00:00",
        "included_in_blocks":
          [ "BL9HQtNnd7ZnFCHJWaLyugC747qaJXhdSke5o6tirNgpNCyQaa3" ] },
      { "delegate": "tz1LmaFsWRkjr7QMCx5PtV6xTUz3AmEpKQiF",
        "reception_time": "2022-01-16T22:12:09.758-00:00",
        "included_in_blocks":
          [ "BL9HQtNnd7ZnFCHJWaLyugC747qaJXhdSke5o6tirNgpNCyQaa3" ] },
      { "delegate": "tz1RCFbB9GpALpsZtu6J58sb74dm8qe6XBzv",
        "reception_time": "2022-01-16T22:12:09.762-00:00",
        "included_in_blocks":
          [ "BL9HQtNnd7ZnFCHJWaLyugC747qaJXhdSke5o6tirNgpNCyQaa3" ] },
      { "delegate": "tz3bTdwZinP8U1JmSweNzVKhmwafqWmFWRfk",
        "reception_time": "2022-01-16T22:12:09.710-00:00",
        "included_in_blocks":
          [ "BL9HQtNnd7ZnFCHJWaLyugC747qaJXhdSke5o6tirNgpNCyQaa3" ] },
      { "delegate": "tz3iJu5vrKZcsqRPs8yJ61UDoeEXZmtro4qh",
        "reception_time": "2022-01-16T22:12:09.564-00:00",
        "included_in_blocks":
          [ "BL9HQtNnd7ZnFCHJWaLyugC747qaJXhdSke5o6tirNgpNCyQaa3" ] },
      { "delegate": "tz3Zhs2dygr55yHyQyKjntAtY9bgfhLZ4Xj1",
        "reception_time": "2022-01-16T22:12:09.532-00:00",
        "included_in_blocks":
          [ "BL9HQtNnd7ZnFCHJWaLyugC747qaJXhdSke5o6tirNgpNCyQaa3" ] },
      { "delegate": "tz1ei4WtWEMEJekSv8qDnu9PExG6Q8HgRGr3",
        "reception_time": "2022-01-16T22:12:09.654-00:00",
        "included_in_blocks":
          [ "BL9HQtNnd7ZnFCHJWaLyugC747qaJXhdSke5o6tirNgpNCyQaa3" ] },
      { "delegate": "tz3hw2kqXhLUvY65ca1eety2oQTpAvd34R9Q",
        "reception_time": "2022-01-16T22:12:09.604-00:00",
        "included_in_blocks":
          [ "BL9HQtNnd7ZnFCHJWaLyugC747qaJXhdSke5o6tirNgpNCyQaa3" ] },
      { "delegate": "tz3RKYFsLuQzKBtmYuLNas7uMu3AsYd4QdsA",
        "reception_time": "2022-01-16T22:12:09.636-00:00",
        "included_in_blocks":
          [ "BL9HQtNnd7ZnFCHJWaLyugC747qaJXhdSke5o6tirNgpNCyQaa3" ] },
      { "delegate": "tz3RDC3Jdn4j15J7bBHZd29EUee9gVB1CxD9",
        "reception_time": "2022-01-16T22:12:09.645-00:00",
        "included_in_blocks":
          [ "BL9HQtNnd7ZnFCHJWaLyugC747qaJXhdSke5o6tirNgpNCyQaa3" ] },
      { "delegate": "tz3QT9dHYKDqh563chVa6za8526ys1UKfRfL",
        "reception_time": "2022-01-16T22:12:09.626-00:00",
        "included_in_blocks":
          [ "BL9HQtNnd7ZnFCHJWaLyugC747qaJXhdSke5o6tirNgpNCyQaa3" ] },
      { "delegate": "tz1WnfXMPaNTBmH7DBPwqCWs9cPDJdkGBTZ8",
        "reception_time": "2022-01-16T22:12:09.650-00:00",
        "included_in_blocks":
          [ "BL9HQtNnd7ZnFCHJWaLyugC747qaJXhdSke5o6tirNgpNCyQaa3" ] },
      { "delegate": "tz1S8MNvuFEUsWgjHvi3AxibRBf388NhT1q2",
        "reception_time": "2022-01-16T22:12:09.480-00:00",
        "included_in_blocks":
          [ "BL9HQtNnd7ZnFCHJWaLyugC747qaJXhdSke5o6tirNgpNCyQaa3" ] },
      { "delegate": "tz3S6BBeKgJGXxvLyZ1xzXzMPn11nnFtq5L9",
        "reception_time": "2022-01-16T22:12:09.570-00:00",
        "included_in_blocks":
          [ "BL9HQtNnd7ZnFCHJWaLyugC747qaJXhdSke5o6tirNgpNCyQaa3" ] },
      { "delegate": "tz1gUNyn3hmnEWqkusWPzxRaon1cs7ndWh7h",
        "reception_time": "2022-01-16T22:12:09.554-00:00",
        "included_in_blocks":
          [ "BL9HQtNnd7ZnFCHJWaLyugC747qaJXhdSke5o6tirNgpNCyQaa3" ] },
      { "delegate": "tz1WCd2jm4uSt4vntk4vSuUWoZQGhLcDuR9q",
        "reception_time": "2022-01-16T22:12:09.519-00:00",
        "included_in_blocks":
          [ "BL9HQtNnd7ZnFCHJWaLyugC747qaJXhdSke5o6tirNgpNCyQaa3" ] },
      { "delegate": "tz3NxTnke1acr8o3h5y9ytf5awQBGNJUKzVU",
        "reception_time": "2022-01-16T22:12:09.550-00:00",
        "included_in_blocks":
          [ "BL9HQtNnd7ZnFCHJWaLyugC747qaJXhdSke5o6tirNgpNCyQaa3" ] },
      { "delegate": "tz3adcvQaKXTCg12zbninqo3q8ptKKtDFTLv",
        "reception_time": "2022-01-16T22:12:09.472-00:00",
        "included_in_blocks":
          [ "BL9HQtNnd7ZnFCHJWaLyugC747qaJXhdSke5o6tirNgpNCyQaa3" ] },
      { "delegate": "tz1VQnqCCqX4K5sP3FNkVSNKTdCAMJDd3E1n",
        "reception_time": "2022-01-16T22:12:09.525-00:00",
        "included_in_blocks":
          [ "BL9HQtNnd7ZnFCHJWaLyugC747qaJXhdSke5o6tirNgpNCyQaa3" ] },
      { "delegate": "tz3ZbP2pM3nwvXztbuMJwJnDvV5xdpU8UkkD",
        "reception_time": "2022-01-16T22:12:09.550-00:00",
        "included_in_blocks":
          [ "BL9HQtNnd7ZnFCHJWaLyugC747qaJXhdSke5o6tirNgpNCyQaa3" ] },
      { "delegate": "tz1MQJPGNMijnXnVoBENFz9rUhaPt3S7rWoz",
        "reception_time": "2022-01-16T22:12:09.509-00:00",
        "included_in_blocks":
          [ "BL9HQtNnd7ZnFCHJWaLyugC747qaJXhdSke5o6tirNgpNCyQaa3" ] },
      { "delegate": "tz3gtoUxdudfBRcNY7iVdKPHCYYX6xdPpoRS",
        "reception_time": "2022-01-16T22:12:09.407-00:00",
        "included_in_blocks":
          [ "BL9HQtNnd7ZnFCHJWaLyugC747qaJXhdSke5o6tirNgpNCyQaa3" ] },
      { "delegate": "tz1W3VYi3gSt9Xgfw6WNV1aGZRPH2BsskMEY",
        "reception_time": "2022-01-16T22:12:09.450-00:00",
        "included_in_blocks":
          [ "BL9HQtNnd7ZnFCHJWaLyugC747qaJXhdSke5o6tirNgpNCyQaa3" ] },
      { "delegate": "tz1Ldzz6k1BHdhuKvAtMRX7h5kJSMHESMHLC",
        "reception_time": "2022-01-16T22:12:09.276-00:00",
        "included_in_blocks":
          [ "BL9HQtNnd7ZnFCHJWaLyugC747qaJXhdSke5o6tirNgpNCyQaa3" ] },
      { "delegate": "tz1eEnQhbwf6trb8Q8mPb2RaPkNk2rN7BKi8",
        "reception_time": "2022-01-16T22:12:09.257-00:00",
        "included_in_blocks":
          [ "BL9HQtNnd7ZnFCHJWaLyugC747qaJXhdSke5o6tirNgpNCyQaa3" ] },
      { "delegate": "tz1MJx9vhaNRSimcuXPK2rW4fLccQnDAnVKJ",
        "reception_time": "2022-01-16T22:12:09.257-00:00",
        "included_in_blocks":
          [ "BL9HQtNnd7ZnFCHJWaLyugC747qaJXhdSke5o6tirNgpNCyQaa3" ] },
      { "delegate": "tz1LLNkQK4UQV6QcFShiXJ2vT2ELw449MzAA",
        "reception_time": "2022-01-16T22:12:09.227-00:00",
        "included_in_blocks":
          [ "BL9HQtNnd7ZnFCHJWaLyugC747qaJXhdSke5o6tirNgpNCyQaa3" ] },
      { "delegate": "tz1MQMiZHV8q4tTwUMWmS5Y3kaP6J2136iXr",
        "reception_time": "2022-01-16T22:12:09.262-00:00",
        "included_in_blocks":
          [ "BL9HQtNnd7ZnFCHJWaLyugC747qaJXhdSke5o6tirNgpNCyQaa3" ] },
      { "delegate": "tz1RV1MBbZMR68tacosb7Mwj6LkbPSUS1er1",
        "reception_time": "2022-01-16T22:12:09.238-00:00",
        "included_in_blocks":
          [ "BL9HQtNnd7ZnFCHJWaLyugC747qaJXhdSke5o6tirNgpNCyQaa3" ] },
      { "delegate": "tz1irJKkXS2DBWkU1NnmFQx1c1L7pbGg4yhk",
        "reception_time": "2022-01-16T22:12:09.234-00:00",
        "included_in_blocks":
          [ "BL9HQtNnd7ZnFCHJWaLyugC747qaJXhdSke5o6tirNgpNCyQaa3" ] },
      { "delegate": "tz1beersuEDv8Z7ngQ825xfbaJNS2EhXnyHR",
        "reception_time": "2022-01-16T22:12:09.213-00:00",
        "included_in_blocks":
          [ "BL9HQtNnd7ZnFCHJWaLyugC747qaJXhdSke5o6tirNgpNCyQaa3" ] },
      { "delegate": "tz1ajgycuHmd2z2JbTSJxKv7x6cok2KuNSk1",
        "reception_time": "2022-01-16T22:12:09.208-00:00",
        "included_in_blocks":
          [ "BL9HQtNnd7ZnFCHJWaLyugC747qaJXhdSke5o6tirNgpNCyQaa3" ] },
      { "delegate": "tz1aXD7Jigrt3PBYSpHSg5Rr33SexMmmM5Ys",
        "reception_time": "2022-01-16T22:12:09.247-00:00",
        "included_in_blocks":
          [ "BL9HQtNnd7ZnFCHJWaLyugC747qaJXhdSke5o6tirNgpNCyQaa3" ] },
      { "delegate": "tz1XfAjZyaLdceHnZxbMYop7g7kWKPut4PR7",
        "reception_time": "2022-01-16T22:12:09.251-00:00",
        "included_in_blocks":
          [ "BL9HQtNnd7ZnFCHJWaLyugC747qaJXhdSke5o6tirNgpNCyQaa3" ] },
      { "delegate": "tz1Scdr2HsZiQjc7bHMeBbmDRXYVvdhjJbBh",
        "reception_time": "2022-01-16T22:12:09.220-00:00",
        "included_in_blocks":
          [ "BL9HQtNnd7ZnFCHJWaLyugC747qaJXhdSke5o6tirNgpNCyQaa3" ] },
      { "delegate": "tz1P2Po7YM526ughEsRbY4oR9zaUPDZjxFrb",
        "reception_time": "2022-01-16T22:12:09.208-00:00",
        "included_in_blocks":
          [ "BL9HQtNnd7ZnFCHJWaLyugC747qaJXhdSke5o6tirNgpNCyQaa3" ] },
      { "delegate": "tz1Lhf4J9Qxoe3DZ2nfe8FGDnvVj7oKjnMY6",
        "reception_time": "2022-01-16T22:12:09.217-00:00",
        "included_in_blocks":
          [ "BL9HQtNnd7ZnFCHJWaLyugC747qaJXhdSke5o6tirNgpNCyQaa3" ] } ] }