{ "blocks":
    [ { "hash": "BMCdc4pdzYN1YXj1zy4v6r1apDo9PbSjWPQ6drjE76iASYuNDBi",
        "delegate": "tz3VEZ4k6a4Wx42iyev6i2aVAptTRLEAivNN",
        "reception_time": "2022-01-16T17:11:59.817-00:00",
        "timestamp": "2022-01-16T17:11:50Z" } ],
  "endorsements":
    [ { "delegate": "tz3VEZ4k6a4Wx42iyev6i2aVAptTRLEAivNN",
        "reception_time": "2022-01-16T17:11:59.737-00:00",
        "errors":
          [ { "kind": "temporary",
              "id": "proto.011-PtHangz2.prefilter.outdated_endorsement" } ],
        "included_in_blocks":
          [ "BL3wfgHTYo7828RDUp3NNF4z8HYEAhMGQFwrGgtyYyi46NAa4NJ" ] },
      { "delegate": "tz1gcna2xxZj2eNp1LaMyAhVJ49mEFj4FH26",
        "reception_time": "2022-01-16T17:11:59.628-00:00",
        "errors":
          [ { "kind": "temporary",
              "id": "proto.011-PtHangz2.prefilter.outdated_endorsement" } ],
        "included_in_blocks":
          [ "BL3wfgHTYo7828RDUp3NNF4z8HYEAhMGQFwrGgtyYyi46NAa4NJ" ] },
      { "delegate": "tz1RV1MBbZMR68tacosb7Mwj6LkbPSUS1er1",
        "reception_time": "2022-01-16T17:11:59.605-00:00",
        "errors":
          [ { "kind": "temporary",
              "id": "proto.011-PtHangz2.prefilter.outdated_endorsement" } ],
        "included_in_blocks":
          [ "BL3wfgHTYo7828RDUp3NNF4z8HYEAhMGQFwrGgtyYyi46NAa4NJ" ] },
      { "delegate": "tz1STeamwbp68THcny9zk3LsbG3H36DMvbRK",
        "reception_time": "2022-01-16T17:11:59.569-00:00",
        "errors":
          [ { "kind": "temporary",
              "id": "proto.011-PtHangz2.prefilter.outdated_endorsement" } ],
        "included_in_blocks":
          [ "BL3wfgHTYo7828RDUp3NNF4z8HYEAhMGQFwrGgtyYyi46NAa4NJ" ] },
      { "delegate": "tz1eEnQhbwf6trb8Q8mPb2RaPkNk2rN7BKi8",
        "reception_time": "2022-01-16T17:11:59.467-00:00",
        "errors":
          [ { "kind": "temporary",
              "id": "proto.011-PtHangz2.prefilter.outdated_endorsement" } ],
        "included_in_blocks":
          [ "BL3wfgHTYo7828RDUp3NNF4z8HYEAhMGQFwrGgtyYyi46NAa4NJ" ] },
      { "delegate": "tz1beersuEDv8Z7ngQ825xfbaJNS2EhXnyHR",
        "reception_time": "2022-01-16T17:11:59.464-00:00",
        "errors":
          [ { "kind": "temporary",
              "id": "proto.011-PtHangz2.prefilter.outdated_endorsement" } ],
        "included_in_blocks":
          [ "BL3wfgHTYo7828RDUp3NNF4z8HYEAhMGQFwrGgtyYyi46NAa4NJ" ] },
      { "delegate": "tz1Scdr2HsZiQjc7bHMeBbmDRXYVvdhjJbBh",
        "reception_time": "2022-01-16T17:11:59.452-00:00",
        "errors":
          [ { "kind": "temporary",
              "id": "proto.011-PtHangz2.prefilter.outdated_endorsement" } ],
        "included_in_blocks":
          [ "BL3wfgHTYo7828RDUp3NNF4z8HYEAhMGQFwrGgtyYyi46NAa4NJ" ] },
      { "delegate": "tz1irJKkXS2DBWkU1NnmFQx1c1L7pbGg4yhk",
        "reception_time": "2022-01-16T17:11:59.441-00:00",
        "errors":
          [ { "kind": "temporary",
              "id": "proto.011-PtHangz2.prefilter.outdated_endorsement" } ],
        "included_in_blocks":
          [ "BL3wfgHTYo7828RDUp3NNF4z8HYEAhMGQFwrGgtyYyi46NAa4NJ" ] },
      { "delegate": "tz1Kt4P8BCaP93AEV4eA7gmpRryWt5hznjCP",
        "reception_time": "2022-01-16T17:11:59.266-00:00",
        "errors":
          [ { "kind": "temporary",
              "id": "proto.011-PtHangz2.prefilter.outdated_endorsement" } ],
        "included_in_blocks":
          [ "BL3wfgHTYo7828RDUp3NNF4z8HYEAhMGQFwrGgtyYyi46NAa4NJ" ] },
      { "delegate": "tz1TXzyaKUA8wsWefdSnyaYFnV2M3vCV7er9",
        "reception_time": "2022-01-16T17:11:59.207-00:00",
        "errors":
          [ { "kind": "temporary",
              "id": "proto.011-PtHangz2.prefilter.outdated_endorsement" } ],
        "included_in_blocks":
          [ "BL3wfgHTYo7828RDUp3NNF4z8HYEAhMGQFwrGgtyYyi46NAa4NJ" ] },
      { "delegate": "tz1P2Po7YM526ughEsRbY4oR9zaUPDZjxFrb",
        "reception_time": "2022-01-16T17:11:59.025-00:00",
        "errors":
          [ { "kind": "temporary",
              "id": "proto.011-PtHangz2.prefilter.outdated_endorsement" } ],
        "included_in_blocks":
          [ "BL3wfgHTYo7828RDUp3NNF4z8HYEAhMGQFwrGgtyYyi46NAa4NJ" ] },
      { "delegate": "tz1S8e9GgdZG78XJRB3NqabfWeM37GnhZMWQ",
        "reception_time": "2022-01-16T17:11:58.922-00:00",
        "errors":
          [ { "kind": "temporary",
              "id": "proto.011-PtHangz2.prefilter.outdated_endorsement" } ],
        "included_in_blocks":
          [ "BL3wfgHTYo7828RDUp3NNF4z8HYEAhMGQFwrGgtyYyi46NAa4NJ" ] },
      { "delegate": "tz1RjoHc98dBoqaH2jawF62XNKh7YsHwbkEv" },
      { "delegate": "tz1TRspM5SeZpaQUhzByXbEvqKF1vnCM2YTK",
        "reception_time": "2022-01-16T17:12:00.672-00:00",
        "included_in_blocks":
          [ "BL3wfgHTYo7828RDUp3NNF4z8HYEAhMGQFwrGgtyYyi46NAa4NJ" ] },
      { "delegate": "tz1TzaNn7wSQSP5gYPXCnNzBCpyMiidCq1PX",
        "reception_time": "2022-01-16T17:12:00.837-00:00",
        "included_in_blocks":
          [ "BL3wfgHTYo7828RDUp3NNF4z8HYEAhMGQFwrGgtyYyi46NAa4NJ" ] },
      { "delegate": "tz1Ldzz6k1BHdhuKvAtMRX7h5kJSMHESMHLC",
        "reception_time": "2022-01-16T17:12:00.841-00:00",
        "included_in_blocks":
          [ "BL3wfgHTYo7828RDUp3NNF4z8HYEAhMGQFwrGgtyYyi46NAa4NJ" ] },
      { "delegate": "tz3iJu5vrKZcsqRPs8yJ61UDoeEXZmtro4qh",
        "reception_time": "2022-01-16T17:12:00.860-00:00",
        "included_in_blocks":
          [ "BL3wfgHTYo7828RDUp3NNF4z8HYEAhMGQFwrGgtyYyi46NAa4NJ" ] },
      { "delegate": "tz1WCd2jm4uSt4vntk4vSuUWoZQGhLcDuR9q",
        "reception_time": "2022-01-16T17:12:00.869-00:00",
        "included_in_blocks":
          [ "BL3wfgHTYo7828RDUp3NNF4z8HYEAhMGQFwrGgtyYyi46NAa4NJ" ] },
      { "delegate": "tz3Zhs2dygr55yHyQyKjntAtY9bgfhLZ4Xj1",
        "reception_time": "2022-01-16T17:12:00.879-00:00",
        "included_in_blocks":
          [ "BL3wfgHTYo7828RDUp3NNF4z8HYEAhMGQFwrGgtyYyi46NAa4NJ" ] },
      { "delegate": "tz1VQnqCCqX4K5sP3FNkVSNKTdCAMJDd3E1n",
        "reception_time": "2022-01-16T17:12:00.887-00:00",
        "included_in_blocks":
          [ "BL3wfgHTYo7828RDUp3NNF4z8HYEAhMGQFwrGgtyYyi46NAa4NJ" ] },
      { "delegate": "tz3gtoUxdudfBRcNY7iVdKPHCYYX6xdPpoRS",
        "reception_time": "2022-01-16T17:12:00.894-00:00",
        "included_in_blocks":
          [ "BL3wfgHTYo7828RDUp3NNF4z8HYEAhMGQFwrGgtyYyi46NAa4NJ" ] },
      { "delegate": "tz3NxTnke1acr8o3h5y9ytf5awQBGNJUKzVU",
        "reception_time": "2022-01-16T17:12:00.901-00:00",
        "included_in_blocks":
          [ "BL3wfgHTYo7828RDUp3NNF4z8HYEAhMGQFwrGgtyYyi46NAa4NJ" ] },
      { "delegate": "tz3hw2kqXhLUvY65ca1eety2oQTpAvd34R9Q",
        "reception_time": "2022-01-16T17:12:00.910-00:00",
        "included_in_blocks":
          [ "BL3wfgHTYo7828RDUp3NNF4z8HYEAhMGQFwrGgtyYyi46NAa4NJ" ] },
      { "delegate": "tz3RB4aoyjov4KEVRbuhvQ1CKJgBJMWhaeB8",
        "reception_time": "2022-01-16T17:12:00.916-00:00",
        "included_in_blocks":
          [ "BL3wfgHTYo7828RDUp3NNF4z8HYEAhMGQFwrGgtyYyi46NAa4NJ" ] },
      { "delegate": "tz1S8MNvuFEUsWgjHvi3AxibRBf388NhT1q2",
        "reception_time": "2022-01-16T17:12:00.920-00:00",
        "included_in_blocks":
          [ "BL3wfgHTYo7828RDUp3NNF4z8HYEAhMGQFwrGgtyYyi46NAa4NJ" ] },
      { "delegate": "tz3ZbP2pM3nwvXztbuMJwJnDvV5xdpU8UkkD",
        "reception_time": "2022-01-16T17:12:00.926-00:00",
        "included_in_blocks":
          [ "BL3wfgHTYo7828RDUp3NNF4z8HYEAhMGQFwrGgtyYyi46NAa4NJ" ] },
      { "delegate": "tz3QSGPoRp3Kn7n3vY24eYeu3Peuqo45LQ4D",
        "reception_time": "2022-01-16T17:12:00.935-00:00",
        "included_in_blocks":
          [ "BL3wfgHTYo7828RDUp3NNF4z8HYEAhMGQFwrGgtyYyi46NAa4NJ" ] },
      { "delegate": "tz1Lc87p6zRaDwzJs9kHvdpm7XzeWE8QTwVB",
        "reception_time": "2022-01-16T17:12:00.957-00:00",
        "included_in_blocks":
          [ "BL3wfgHTYo7828RDUp3NNF4z8HYEAhMGQFwrGgtyYyi46NAa4NJ" ] },
      { "delegate": "tz3RKYFsLuQzKBtmYuLNas7uMu3AsYd4QdsA",
        "reception_time": "2022-01-16T17:12:00.966-00:00",
        "included_in_blocks":
          [ "BL3wfgHTYo7828RDUp3NNF4z8HYEAhMGQFwrGgtyYyi46NAa4NJ" ] },
      { "delegate": "tz1LmaFsWRkjr7QMCx5PtV6xTUz3AmEpKQiF",
        "reception_time": "2022-01-16T17:12:00.966-00:00",
        "included_in_blocks":
          [ "BL3wfgHTYo7828RDUp3NNF4z8HYEAhMGQFwrGgtyYyi46NAa4NJ" ] },
      { "delegate": "tz3S6BBeKgJGXxvLyZ1xzXzMPn11nnFtq5L9",
        "reception_time": "2022-01-16T17:12:00.975-00:00",
        "included_in_blocks":
          [ "BL3wfgHTYo7828RDUp3NNF4z8HYEAhMGQFwrGgtyYyi46NAa4NJ" ] },
      { "delegate": "tz1gUNyn3hmnEWqkusWPzxRaon1cs7ndWh7h",
        "reception_time": "2022-01-16T17:12:00.980-00:00",
        "included_in_blocks":
          [ "BL3wfgHTYo7828RDUp3NNF4z8HYEAhMGQFwrGgtyYyi46NAa4NJ" ] },
      { "delegate": "tz1VmiY38m3y95HqQLjMwqnMS7sdMfGomzKi",
        "reception_time": "2022-01-16T17:12:00.985-00:00",
        "included_in_blocks":
          [ "BL3wfgHTYo7828RDUp3NNF4z8HYEAhMGQFwrGgtyYyi46NAa4NJ" ] },
      { "delegate": "tz1PWCDnz783NNGGQjEFFsHtrcK5yBW4E2rm",
        "reception_time": "2022-01-16T17:12:00.995-00:00",
        "included_in_blocks":
          [ "BL3wfgHTYo7828RDUp3NNF4z8HYEAhMGQFwrGgtyYyi46NAa4NJ" ] },
      { "delegate": "tz1KfEsrtDaA1sX7vdM4qmEPWuSytuqCDp5j",
        "reception_time": "2022-01-16T17:12:01.021-00:00",
        "included_in_blocks":
          [ "BL3wfgHTYo7828RDUp3NNF4z8HYEAhMGQFwrGgtyYyi46NAa4NJ" ] },
      { "delegate": "tz3bTdwZinP8U1JmSweNzVKhmwafqWmFWRfk",
        "reception_time": "2022-01-16T17:12:01.033-00:00",
        "included_in_blocks":
          [ "BL3wfgHTYo7828RDUp3NNF4z8HYEAhMGQFwrGgtyYyi46NAa4NJ" ] },
      { "delegate": "tz1V4qCyvPKZ5UeqdH14HN42rxvNPQfc9UZg",
        "reception_time": "2022-01-16T17:12:01.041-00:00",
        "included_in_blocks":
          [ "BL3wfgHTYo7828RDUp3NNF4z8HYEAhMGQFwrGgtyYyi46NAa4NJ" ] },
      { "delegate": "tz1NEKxGEHsFufk87CVZcrqWu8o22qh46GK6",
        "reception_time": "2022-01-16T17:12:01.047-00:00",
        "included_in_blocks":
          [ "BL3wfgHTYo7828RDUp3NNF4z8HYEAhMGQFwrGgtyYyi46NAa4NJ" ] },
      { "delegate": "tz3WMqdzXqRWXwyvj5Hp2H7QEepaUuS7vd9K",
        "reception_time": "2022-01-16T17:12:01.056-00:00",
        "included_in_blocks":
          [ "BL3wfgHTYo7828RDUp3NNF4z8HYEAhMGQFwrGgtyYyi46NAa4NJ" ] },
      { "delegate": "tz1ei4WtWEMEJekSv8qDnu9PExG6Q8HgRGr3",
        "reception_time": "2022-01-16T17:12:01.127-00:00",
        "included_in_blocks":
          [ "BL3wfgHTYo7828RDUp3NNF4z8HYEAhMGQFwrGgtyYyi46NAa4NJ" ] },
      { "delegate": "tz1gfArv665EUkSg2ojMBzcbfwuPxAvqPvjo",
        "reception_time": "2022-01-16T17:12:01.173-00:00",
        "included_in_blocks":
          [ "BL3wfgHTYo7828RDUp3NNF4z8HYEAhMGQFwrGgtyYyi46NAa4NJ" ] },
      { "delegate": "tz1WBfwbT66FC6BTLexc2BoyCCBM9LG7pnVW",
        "reception_time": "2022-01-16T17:12:01.383-00:00",
        "included_in_blocks":
          [ "BL3wfgHTYo7828RDUp3NNF4z8HYEAhMGQFwrGgtyYyi46NAa4NJ" ] },
      { "delegate": "tz1fwnfJNgiDACshK9avfRfFbMaXrs3ghoJa",
        "reception_time": "2022-01-16T17:12:01.408-00:00",
        "included_in_blocks":
          [ "BL3wfgHTYo7828RDUp3NNF4z8HYEAhMGQFwrGgtyYyi46NAa4NJ" ] },
      { "delegate": "tz1abmz7jiCV2GH2u81LRrGgAFFgvQgiDiaf",
        "reception_time": "2022-01-16T17:12:01.428-00:00",
        "included_in_blocks":
          [ "BL3wfgHTYo7828RDUp3NNF4z8HYEAhMGQFwrGgtyYyi46NAa4NJ" ] },
      { "delegate": "tz1RQhNh7iB9CZA7i3ifTWNwiGYVffponfbB",
        "reception_time": "2022-01-16T17:12:01.511-00:00",
        "included_in_blocks":
          [ "BL3wfgHTYo7828RDUp3NNF4z8HYEAhMGQFwrGgtyYyi46NAa4NJ" ] },
      { "delegate": "tz3NExpXn9aPNZPorRE4SdjJ2RGrfbJgMAaV",
        "reception_time": "2022-01-16T17:12:01.536-00:00",
        "included_in_blocks":
          [ "BL3wfgHTYo7828RDUp3NNF4z8HYEAhMGQFwrGgtyYyi46NAa4NJ" ] },
      { "delegate": "tz1PeZx7FXy7QRuMREGXGxeipb24RsMMzUNe",
        "reception_time": "2022-01-16T17:12:01.727-00:00",
        "included_in_blocks":
          [ "BL3wfgHTYo7828RDUp3NNF4z8HYEAhMGQFwrGgtyYyi46NAa4NJ" ] },
      { "delegate": "tz3adcvQaKXTCg12zbninqo3q8ptKKtDFTLv",
        "reception_time": "2022-01-16T17:12:01.942-00:00",
        "included_in_blocks":
          [ "BL3wfgHTYo7828RDUp3NNF4z8HYEAhMGQFwrGgtyYyi46NAa4NJ" ] },
      { "delegate": "tz1Nf6tsK4G6bBqgSQERy4nUtkHNKUVdh7q1",
        "reception_time": "2022-01-16T17:12:02.086-00:00",
        "included_in_blocks":
          [ "BL3wfgHTYo7828RDUp3NNF4z8HYEAhMGQFwrGgtyYyi46NAa4NJ" ] },
      { "delegate": "tz3UoffC7FG7zfpmvmjUmUeAaHvzdcUvAj6r",
        "reception_time": "2022-01-16T17:12:02.118-00:00",
        "included_in_blocks":
          [ "BL3wfgHTYo7828RDUp3NNF4z8HYEAhMGQFwrGgtyYyi46NAa4NJ" ] },
      { "delegate": "tz1dNVDWPf3Q59SdJqnjdnu277iyvReiRS9M",
        "reception_time": "2022-01-16T17:12:02.128-00:00",
        "included_in_blocks":
          [ "BL3wfgHTYo7828RDUp3NNF4z8HYEAhMGQFwrGgtyYyi46NAa4NJ" ] },
      { "delegate": "tz3RDC3Jdn4j15J7bBHZd29EUee9gVB1CxD9",
        "reception_time": "2022-01-16T17:12:02.201-00:00",
        "included_in_blocks":
          [ "BL3wfgHTYo7828RDUp3NNF4z8HYEAhMGQFwrGgtyYyi46NAa4NJ" ] },
      { "delegate": "tz1QLXqnfN51dkjeghXvKHkJfhvGiM5gK4tc",
        "reception_time": "2022-01-16T17:12:02.241-00:00",
        "included_in_blocks":
          [ "BL3wfgHTYo7828RDUp3NNF4z8HYEAhMGQFwrGgtyYyi46NAa4NJ" ] },
      { "delegate": "tz3bvNMQ95vfAYtG8193ymshqjSvmxiCUuR5",
        "reception_time": "2022-01-16T17:12:02.297-00:00",
        "included_in_blocks":
          [ "BL3wfgHTYo7828RDUp3NNF4z8HYEAhMGQFwrGgtyYyi46NAa4NJ" ] },
      { "delegate": "tz2FCNBrERXtaTtNX6iimR1UJ5JSDxvdHM93",
        "reception_time": "2022-01-16T17:12:02.393-00:00",
        "included_in_blocks":
          [ "BL3wfgHTYo7828RDUp3NNF4z8HYEAhMGQFwrGgtyYyi46NAa4NJ" ] },
      { "delegate": "tz1Z2jXfEXL7dXhs6bsLmyLFLfmAkXBzA9WE",
        "reception_time": "2022-01-16T17:12:02.652-00:00",
        "included_in_blocks":
          [ "BL3wfgHTYo7828RDUp3NNF4z8HYEAhMGQFwrGgtyYyi46NAa4NJ" ] },
      { "delegate": "tz1aRoaRhSpRYvFdyvgWLL6TGyRoGF51wDjM",
        "reception_time": "2022-01-16T17:12:02.846-00:00",
        "included_in_blocks":
          [ "BL3wfgHTYo7828RDUp3NNF4z8HYEAhMGQFwrGgtyYyi46NAa4NJ" ] },
      { "delegate": "tz1RCFbB9GpALpsZtu6J58sb74dm8qe6XBzv",
        "reception_time": "2022-01-16T17:12:03.157-00:00",
        "included_in_blocks":
          [ "BL3wfgHTYo7828RDUp3NNF4z8HYEAhMGQFwrGgtyYyi46NAa4NJ" ] },
      { "delegate": "tz1T7duV5gZWSTq4YpBGbXNLTfznCLDrFxvs",
        "reception_time": "2022-01-16T17:12:03.424-00:00",
        "included_in_blocks":
          [ "BL3wfgHTYo7828RDUp3NNF4z8HYEAhMGQFwrGgtyYyi46NAa4NJ" ] },
      { "delegate": "tz1cYufsxHXJcvANhvS55h3aY32a9BAFB494",
        "reception_time": "2022-01-16T17:12:03.424-00:00",
        "included_in_blocks":
          [ "BL3wfgHTYo7828RDUp3NNF4z8HYEAhMGQFwrGgtyYyi46NAa4NJ" ] },
      { "delegate": "tz1TRqbYbUf2GyrjErf3hBzgBJPzW8y36qEs",
        "reception_time": "2022-01-16T17:12:03.474-00:00",
        "included_in_blocks":
          [ "BL3wfgHTYo7828RDUp3NNF4z8HYEAhMGQFwrGgtyYyi46NAa4NJ" ] },
      { "delegate": "tz1awXW7wuXy21c66vBudMXQVAPgRnqqwgTH",
        "reception_time": "2022-01-16T17:12:03.967-00:00",
        "included_in_blocks":
          [ "BL3wfgHTYo7828RDUp3NNF4z8HYEAhMGQFwrGgtyYyi46NAa4NJ" ] },
      { "delegate": "tz1W5VkdB5s7ENMESVBtwyt9kyvLqPcUczRT",
        "reception_time": "2022-01-16T17:12:05.637-00:00",
        "included_in_blocks":
          [ "BL3wfgHTYo7828RDUp3NNF4z8HYEAhMGQFwrGgtyYyi46NAa4NJ" ] },
      { "delegate": "tz1go7f6mEQfT2xX2LuHAqgnRGN6c2zHPf5c",
        "reception_time": "2022-01-16T17:12:07.399-00:00",
        "included_in_blocks":
          [ "BL3wfgHTYo7828RDUp3NNF4z8HYEAhMGQFwrGgtyYyi46NAa4NJ" ] },
      { "delegate": "tz3e7LbZvUtoXhpUD1yb6wuFodZpfYRb9nWJ",
        "reception_time": "2022-01-16T17:12:09.838-00:00",
        "included_in_blocks":
          [ "BL3wfgHTYo7828RDUp3NNF4z8HYEAhMGQFwrGgtyYyi46NAa4NJ" ] },
      { "delegate": "tz1NpWrAyDL9k2Lmnyxcgr9xuJakbBxdq7FB",
        "reception_time": "2022-01-16T17:12:11.213-00:00",
        "included_in_blocks":
          [ "BL3wfgHTYo7828RDUp3NNF4z8HYEAhMGQFwrGgtyYyi46NAa4NJ" ] } ] }