{ "blocks":
    [ { "hash": "BLzXi9r88wLhPMbJ9eAdqKY73hrTNNgrmRHTKuvdwQWcc9QMeU8",
        "delegate": "tz1aRoaRhSpRYvFdyvgWLL6TGyRoGF51wDjM",
        "reception_time": "2022-01-16T14:26:05.475-00:00",
        "timestamp": "2022-01-16T14:25:50Z" } ],
  "endorsements":
    [ { "delegate": "tz1NpWrAyDL9k2Lmnyxcgr9xuJakbBxdq7FB",
        "reception_time": "2022-01-16T14:26:21.898-00:00" },
      { "delegate": "tz3e7LbZvUtoXhpUD1yb6wuFodZpfYRb9nWJ",
        "reception_time": "2022-01-16T14:26:17.080-00:00",
        "included_in_blocks":
          [ "BKt9eiazPB23mvBXQkFZDd1ZWsijdFitNbCAGMZ1KC6c8de3YSy" ] },
      { "delegate": "tz1go7f6mEQfT2xX2LuHAqgnRGN6c2zHPf5c",
        "reception_time": "2022-01-16T14:26:13.773-00:00",
        "included_in_blocks":
          [ "BKt9eiazPB23mvBXQkFZDd1ZWsijdFitNbCAGMZ1KC6c8de3YSy" ] },
      { "delegate": "tz1gg5bjopPcr9agjamyu9BbXKLibNc2rbAq",
        "reception_time": "2022-01-16T14:26:13.090-00:00",
        "included_in_blocks":
          [ "BKt9eiazPB23mvBXQkFZDd1ZWsijdFitNbCAGMZ1KC6c8de3YSy" ] },
      { "delegate": "tz1QHEAXGd4DFPBc5yq5gxQw99fTvNEmpKLE",
        "reception_time": "2022-01-16T14:26:11.078-00:00",
        "included_in_blocks":
          [ "BKt9eiazPB23mvBXQkFZDd1ZWsijdFitNbCAGMZ1KC6c8de3YSy" ] },
      { "delegate": "tz1W5VkdB5s7ENMESVBtwyt9kyvLqPcUczRT",
        "reception_time": "2022-01-16T14:26:11.063-00:00",
        "included_in_blocks":
          [ "BKt9eiazPB23mvBXQkFZDd1ZWsijdFitNbCAGMZ1KC6c8de3YSy" ] },
      { "delegate": "tz1YiuvpfeVAHbnU8akcWErNfQGFHNQ7F45z",
        "reception_time": "2022-01-16T14:26:10.886-00:00",
        "included_in_blocks":
          [ "BKt9eiazPB23mvBXQkFZDd1ZWsijdFitNbCAGMZ1KC6c8de3YSy" ] },
      { "delegate": "tz1eVaNx3gCmG1EsLjijkmgAxdLYVf6Bf5Sq",
        "reception_time": "2022-01-16T14:26:10.272-00:00",
        "included_in_blocks":
          [ "BKt9eiazPB23mvBXQkFZDd1ZWsijdFitNbCAGMZ1KC6c8de3YSy" ] },
      { "delegate": "tz1ZcTRk5uxD86EFEn1vvNffWWqJy7q5eVhc",
        "reception_time": "2022-01-16T14:26:10.069-00:00",
        "included_in_blocks":
          [ "BKt9eiazPB23mvBXQkFZDd1ZWsijdFitNbCAGMZ1KC6c8de3YSy" ] },
      { "delegate": "tz1bTpviNnyx2PXsNmGpCQTMQsGoYordkUoA",
        "reception_time": "2022-01-16T14:26:10.060-00:00",
        "included_in_blocks":
          [ "BKt9eiazPB23mvBXQkFZDd1ZWsijdFitNbCAGMZ1KC6c8de3YSy" ] },
      { "delegate": "tz1b9MYGrbN1NAxphLEsPPNT9JC7aNFc5nA4",
        "reception_time": "2022-01-16T14:26:09.934-00:00",
        "included_in_blocks":
          [ "BKt9eiazPB23mvBXQkFZDd1ZWsijdFitNbCAGMZ1KC6c8de3YSy" ] },
      { "delegate": "tz1Xsrfv6hn86fp88YfRs6xcKwt2nTqxVZYM",
        "reception_time": "2022-01-16T14:26:09.881-00:00",
        "included_in_blocks":
          [ "BKt9eiazPB23mvBXQkFZDd1ZWsijdFitNbCAGMZ1KC6c8de3YSy" ] },
      { "delegate": "tz1awXW7wuXy21c66vBudMXQVAPgRnqqwgTH",
        "reception_time": "2022-01-16T14:26:09.539-00:00",
        "included_in_blocks":
          [ "BKt9eiazPB23mvBXQkFZDd1ZWsijdFitNbCAGMZ1KC6c8de3YSy" ] },
      { "delegate": "tz3UoffC7FG7zfpmvmjUmUeAaHvzdcUvAj6r",
        "reception_time": "2022-01-16T14:26:09.396-00:00",
        "included_in_blocks":
          [ "BKt9eiazPB23mvBXQkFZDd1ZWsijdFitNbCAGMZ1KC6c8de3YSy" ] },
      { "delegate": "tz1NuUu12WHdW3jHqvkujGHsiTi46Wvw1ci1",
        "reception_time": "2022-01-16T14:26:09.375-00:00",
        "included_in_blocks":
          [ "BKt9eiazPB23mvBXQkFZDd1ZWsijdFitNbCAGMZ1KC6c8de3YSy" ] },
      { "delegate": "tz3NExpXn9aPNZPorRE4SdjJ2RGrfbJgMAaV",
        "reception_time": "2022-01-16T14:26:09.291-00:00",
        "included_in_blocks":
          [ "BKt9eiazPB23mvBXQkFZDd1ZWsijdFitNbCAGMZ1KC6c8de3YSy" ] },
      { "delegate": "tz1dNVDWPf3Q59SdJqnjdnu277iyvReiRS9M",
        "reception_time": "2022-01-16T14:26:09.230-00:00",
        "included_in_blocks":
          [ "BKt9eiazPB23mvBXQkFZDd1ZWsijdFitNbCAGMZ1KC6c8de3YSy" ] },
      { "delegate": "tz1SUgyRB8T5jXgXAwS33pgRHAKrafyg87Yc",
        "reception_time": "2022-01-16T14:26:09.164-00:00",
        "included_in_blocks":
          [ "BKt9eiazPB23mvBXQkFZDd1ZWsijdFitNbCAGMZ1KC6c8de3YSy" ] },
      { "delegate": "tz3bvNMQ95vfAYtG8193ymshqjSvmxiCUuR5",
        "reception_time": "2022-01-16T14:26:09.125-00:00",
        "included_in_blocks":
          [ "BKt9eiazPB23mvBXQkFZDd1ZWsijdFitNbCAGMZ1KC6c8de3YSy" ] },
      { "delegate": "tz1fWJaG5uj6bQZ19bCSLjELJz6g2J6inUL1",
        "reception_time": "2022-01-16T14:26:08.984-00:00",
        "included_in_blocks":
          [ "BKt9eiazPB23mvBXQkFZDd1ZWsijdFitNbCAGMZ1KC6c8de3YSy" ] },
      { "delegate": "tz1cYufsxHXJcvANhvS55h3aY32a9BAFB494",
        "reception_time": "2022-01-16T14:26:08.948-00:00",
        "included_in_blocks":
          [ "BKt9eiazPB23mvBXQkFZDd1ZWsijdFitNbCAGMZ1KC6c8de3YSy" ] },
      { "delegate": "tz3WMqdzXqRWXwyvj5Hp2H7QEepaUuS7vd9K",
        "reception_time": "2022-01-16T14:26:08.930-00:00",
        "included_in_blocks":
          [ "BKt9eiazPB23mvBXQkFZDd1ZWsijdFitNbCAGMZ1KC6c8de3YSy" ] },
      { "delegate": "tz3RDC3Jdn4j15J7bBHZd29EUee9gVB1CxD9",
        "reception_time": "2022-01-16T14:26:08.923-00:00",
        "included_in_blocks":
          [ "BKt9eiazPB23mvBXQkFZDd1ZWsijdFitNbCAGMZ1KC6c8de3YSy" ] },
      { "delegate": "tz1T7duV5gZWSTq4YpBGbXNLTfznCLDrFxvs",
        "reception_time": "2022-01-16T14:26:08.917-00:00",
        "included_in_blocks":
          [ "BKt9eiazPB23mvBXQkFZDd1ZWsijdFitNbCAGMZ1KC6c8de3YSy" ] },
      { "delegate": "tz3RB4aoyjov4KEVRbuhvQ1CKJgBJMWhaeB8",
        "reception_time": "2022-01-16T14:26:08.808-00:00",
        "included_in_blocks":
          [ "BKt9eiazPB23mvBXQkFZDd1ZWsijdFitNbCAGMZ1KC6c8de3YSy" ] },
      { "delegate": "tz1UvkANVPWppVgMkLnvN7BwYZsCP7vm6NVd",
        "reception_time": "2022-01-16T14:26:08.800-00:00",
        "included_in_blocks":
          [ "BKt9eiazPB23mvBXQkFZDd1ZWsijdFitNbCAGMZ1KC6c8de3YSy" ] },
      { "delegate": "tz1Z2jXfEXL7dXhs6bsLmyLFLfmAkXBzA9WE",
        "reception_time": "2022-01-16T14:26:08.800-00:00",
        "included_in_blocks":
          [ "BKt9eiazPB23mvBXQkFZDd1ZWsijdFitNbCAGMZ1KC6c8de3YSy" ] },
      { "delegate": "tz1NSDFKuRyzHxpfG1AMkyCwEiZ52cbR2mRW",
        "reception_time": "2022-01-16T14:26:08.717-00:00",
        "included_in_blocks":
          [ "BKt9eiazPB23mvBXQkFZDd1ZWsijdFitNbCAGMZ1KC6c8de3YSy" ] },
      { "delegate": "tz1WctSwL49BZtdWAQ75NY6vr4xsAx6oKdah",
        "reception_time": "2022-01-16T14:26:08.573-00:00",
        "included_in_blocks":
          [ "BKt9eiazPB23mvBXQkFZDd1ZWsijdFitNbCAGMZ1KC6c8de3YSy" ] },
      { "delegate": "tz3NDpRj6WBrJPikcPVHRBEjWKxFw3c6eQPS",
        "reception_time": "2022-01-16T14:26:08.500-00:00",
        "included_in_blocks":
          [ "BKt9eiazPB23mvBXQkFZDd1ZWsijdFitNbCAGMZ1KC6c8de3YSy" ] },
      { "delegate": "tz3gLTu4Yxj8tPAcriQVUdxv6BY9QyvzU1az",
        "reception_time": "2022-01-16T14:26:08.485-00:00",
        "included_in_blocks":
          [ "BKt9eiazPB23mvBXQkFZDd1ZWsijdFitNbCAGMZ1KC6c8de3YSy" ] },
      { "delegate": "tz1SYq214SCBy9naR6cvycQsYcUGpBqQAE8d",
        "reception_time": "2022-01-16T14:26:08.405-00:00",
        "included_in_blocks":
          [ "BKt9eiazPB23mvBXQkFZDd1ZWsijdFitNbCAGMZ1KC6c8de3YSy" ] },
      { "delegate": "tz1a1J3AGjJTAyBqWWSqFuUazUDV2TtD6hMy",
        "reception_time": "2022-01-16T14:26:08.400-00:00",
        "included_in_blocks":
          [ "BKt9eiazPB23mvBXQkFZDd1ZWsijdFitNbCAGMZ1KC6c8de3YSy" ] },
      { "delegate": "tz2FCNBrERXtaTtNX6iimR1UJ5JSDxvdHM93",
        "reception_time": "2022-01-16T14:26:08.325-00:00",
        "included_in_blocks":
          [ "BKt9eiazPB23mvBXQkFZDd1ZWsijdFitNbCAGMZ1KC6c8de3YSy" ] },
      { "delegate": "tz3VEZ4k6a4Wx42iyev6i2aVAptTRLEAivNN",
        "reception_time": "2022-01-16T14:26:08.319-00:00",
        "included_in_blocks":
          [ "BKt9eiazPB23mvBXQkFZDd1ZWsijdFitNbCAGMZ1KC6c8de3YSy" ] },
      { "delegate": "tz1PeZx7FXy7QRuMREGXGxeipb24RsMMzUNe",
        "reception_time": "2022-01-16T14:26:08.204-00:00",
        "included_in_blocks":
          [ "BKt9eiazPB23mvBXQkFZDd1ZWsijdFitNbCAGMZ1KC6c8de3YSy" ] },
      { "delegate": "tz1aRoaRhSpRYvFdyvgWLL6TGyRoGF51wDjM",
        "reception_time": "2022-01-16T14:26:08.168-00:00",
        "included_in_blocks":
          [ "BKt9eiazPB23mvBXQkFZDd1ZWsijdFitNbCAGMZ1KC6c8de3YSy" ] },
      { "delegate": "tz1KfEsrtDaA1sX7vdM4qmEPWuSytuqCDp5j",
        "reception_time": "2022-01-16T14:26:08.153-00:00",
        "included_in_blocks":
          [ "BKt9eiazPB23mvBXQkFZDd1ZWsijdFitNbCAGMZ1KC6c8de3YSy" ] },
      { "delegate": "tz1LmaFsWRkjr7QMCx5PtV6xTUz3AmEpKQiF",
        "reception_time": "2022-01-16T14:26:08.007-00:00",
        "included_in_blocks":
          [ "BKt9eiazPB23mvBXQkFZDd1ZWsijdFitNbCAGMZ1KC6c8de3YSy" ] },
      { "delegate": "tz1g8vkmcde6sWKaG2NN9WKzCkDM6Rziq194",
        "reception_time": "2022-01-16T14:26:07.950-00:00",
        "included_in_blocks":
          [ "BKt9eiazPB23mvBXQkFZDd1ZWsijdFitNbCAGMZ1KC6c8de3YSy" ] },
      { "delegate": "tz1TEc75UKXv4W5cwi14Na3NtqFD51yKQi7h",
        "reception_time": "2022-01-16T14:26:07.931-00:00",
        "included_in_blocks":
          [ "BKt9eiazPB23mvBXQkFZDd1ZWsijdFitNbCAGMZ1KC6c8de3YSy" ] },
      { "delegate": "tz1ei4WtWEMEJekSv8qDnu9PExG6Q8HgRGr3",
        "reception_time": "2022-01-16T14:26:07.911-00:00",
        "included_in_blocks":
          [ "BKt9eiazPB23mvBXQkFZDd1ZWsijdFitNbCAGMZ1KC6c8de3YSy" ] },
      { "delegate": "tz1Nf6tsK4G6bBqgSQERy4nUtkHNKUVdh7q1",
        "reception_time": "2022-01-16T14:26:07.743-00:00",
        "included_in_blocks":
          [ "BKt9eiazPB23mvBXQkFZDd1ZWsijdFitNbCAGMZ1KC6c8de3YSy" ] },
      { "delegate": "tz1V4qCyvPKZ5UeqdH14HN42rxvNPQfc9UZg",
        "reception_time": "2022-01-16T14:26:07.624-00:00",
        "included_in_blocks":
          [ "BKt9eiazPB23mvBXQkFZDd1ZWsijdFitNbCAGMZ1KC6c8de3YSy" ] },
      { "delegate": "tz1RQhNh7iB9CZA7i3ifTWNwiGYVffponfbB",
        "reception_time": "2022-01-16T14:26:07.599-00:00",
        "included_in_blocks":
          [ "BKt9eiazPB23mvBXQkFZDd1ZWsijdFitNbCAGMZ1KC6c8de3YSy" ] },
      { "delegate": "tz1MQJPGNMijnXnVoBENFz9rUhaPt3S7rWoz",
        "reception_time": "2022-01-16T14:26:07.597-00:00",
        "included_in_blocks":
          [ "BKt9eiazPB23mvBXQkFZDd1ZWsijdFitNbCAGMZ1KC6c8de3YSy" ] },
      { "delegate": "tz1RCFbB9GpALpsZtu6J58sb74dm8qe6XBzv",
        "reception_time": "2022-01-16T14:26:07.548-00:00",
        "included_in_blocks":
          [ "BKt9eiazPB23mvBXQkFZDd1ZWsijdFitNbCAGMZ1KC6c8de3YSy" ] },
      { "delegate": "tz1YhNsiRRU8aHNGg7NK3uuP6UDAyacJernB",
        "reception_time": "2022-01-16T14:26:07.536-00:00",
        "included_in_blocks":
          [ "BKt9eiazPB23mvBXQkFZDd1ZWsijdFitNbCAGMZ1KC6c8de3YSy" ] },
      { "delegate": "tz1gfArv665EUkSg2ojMBzcbfwuPxAvqPvjo",
        "reception_time": "2022-01-16T14:26:07.489-00:00",
        "included_in_blocks":
          [ "BKt9eiazPB23mvBXQkFZDd1ZWsijdFitNbCAGMZ1KC6c8de3YSy" ] },
      { "delegate": "tz1dwu9aYb7CRNq4Y2zAjipdjFuSVKhHS8vA",
        "reception_time": "2022-01-16T14:26:07.472-00:00",
        "included_in_blocks":
          [ "BKt9eiazPB23mvBXQkFZDd1ZWsijdFitNbCAGMZ1KC6c8de3YSy" ] },
      { "delegate": "tz1PWCDnz783NNGGQjEFFsHtrcK5yBW4E2rm",
        "reception_time": "2022-01-16T14:26:07.466-00:00",
        "included_in_blocks":
          [ "BKt9eiazPB23mvBXQkFZDd1ZWsijdFitNbCAGMZ1KC6c8de3YSy" ] },
      { "delegate": "tz1S8MNvuFEUsWgjHvi3AxibRBf388NhT1q2",
        "reception_time": "2022-01-16T14:26:07.433-00:00",
        "included_in_blocks":
          [ "BKt9eiazPB23mvBXQkFZDd1ZWsijdFitNbCAGMZ1KC6c8de3YSy" ] },
      { "delegate": "tz1LnWa4AiFCjMezTgSNa65QFoo7DQGEWgEU",
        "reception_time": "2022-01-16T14:26:07.426-00:00",
        "included_in_blocks":
          [ "BKt9eiazPB23mvBXQkFZDd1ZWsijdFitNbCAGMZ1KC6c8de3YSy" ] },
      { "delegate": "tz3bTdwZinP8U1JmSweNzVKhmwafqWmFWRfk",
        "reception_time": "2022-01-16T14:26:07.416-00:00",
        "included_in_blocks":
          [ "BKt9eiazPB23mvBXQkFZDd1ZWsijdFitNbCAGMZ1KC6c8de3YSy" ] },
      { "delegate": "tz1Kf25fX1VdmYGSEzwFy1wNmkbSEZ2V83sY",
        "reception_time": "2022-01-16T14:26:07.401-00:00",
        "included_in_blocks":
          [ "BKt9eiazPB23mvBXQkFZDd1ZWsijdFitNbCAGMZ1KC6c8de3YSy" ] },
      { "delegate": "tz1d6Fx42mYgVFnHUW8T8A7WBfJ6nD9pVok8",
        "reception_time": "2022-01-16T14:26:07.375-00:00",
        "included_in_blocks":
          [ "BKt9eiazPB23mvBXQkFZDd1ZWsijdFitNbCAGMZ1KC6c8de3YSy" ] },
      { "delegate": "tz1fUyqYH7H4pRHN1roWY17giXhy1RvxjgUV",
        "reception_time": "2022-01-16T14:26:07.373-00:00",
        "included_in_blocks":
          [ "BKt9eiazPB23mvBXQkFZDd1ZWsijdFitNbCAGMZ1KC6c8de3YSy" ] },
      { "delegate": "tz1VmiY38m3y95HqQLjMwqnMS7sdMfGomzKi",
        "reception_time": "2022-01-16T14:26:07.331-00:00",
        "included_in_blocks":
          [ "BKt9eiazPB23mvBXQkFZDd1ZWsijdFitNbCAGMZ1KC6c8de3YSy" ] },
      { "delegate": "tz3ZbP2pM3nwvXztbuMJwJnDvV5xdpU8UkkD",
        "reception_time": "2022-01-16T14:26:07.328-00:00",
        "included_in_blocks":
          [ "BKt9eiazPB23mvBXQkFZDd1ZWsijdFitNbCAGMZ1KC6c8de3YSy" ] },
      { "delegate": "tz1irJKkXS2DBWkU1NnmFQx1c1L7pbGg4yhk",
        "reception_time": "2022-01-16T14:26:07.321-00:00",
        "included_in_blocks":
          [ "BKt9eiazPB23mvBXQkFZDd1ZWsijdFitNbCAGMZ1KC6c8de3YSy" ] },
      { "delegate": "tz1ajgycuHmd2z2JbTSJxKv7x6cok2KuNSk1",
        "reception_time": "2022-01-16T14:26:07.314-00:00",
        "included_in_blocks":
          [ "BKt9eiazPB23mvBXQkFZDd1ZWsijdFitNbCAGMZ1KC6c8de3YSy" ] },
      { "delegate": "tz1TRspM5SeZpaQUhzByXbEvqKF1vnCM2YTK",
        "reception_time": "2022-01-16T14:26:07.308-00:00",
        "included_in_blocks":
          [ "BKt9eiazPB23mvBXQkFZDd1ZWsijdFitNbCAGMZ1KC6c8de3YSy" ] },
      { "delegate": "tz1WCd2jm4uSt4vntk4vSuUWoZQGhLcDuR9q",
        "reception_time": "2022-01-16T14:26:07.290-00:00",
        "included_in_blocks":
          [ "BKt9eiazPB23mvBXQkFZDd1ZWsijdFitNbCAGMZ1KC6c8de3YSy" ] },
      { "delegate": "tz3QT9dHYKDqh563chVa6za8526ys1UKfRfL",
        "reception_time": "2022-01-16T14:26:07.286-00:00",
        "included_in_blocks":
          [ "BKt9eiazPB23mvBXQkFZDd1ZWsijdFitNbCAGMZ1KC6c8de3YSy" ] },
      { "delegate": "tz3S6BBeKgJGXxvLyZ1xzXzMPn11nnFtq5L9",
        "reception_time": "2022-01-16T14:26:07.279-00:00",
        "included_in_blocks":
          [ "BKt9eiazPB23mvBXQkFZDd1ZWsijdFitNbCAGMZ1KC6c8de3YSy" ] },
      { "delegate": "tz3Zhs2dygr55yHyQyKjntAtY9bgfhLZ4Xj1",
        "reception_time": "2022-01-16T14:26:07.272-00:00",
        "included_in_blocks":
          [ "BKt9eiazPB23mvBXQkFZDd1ZWsijdFitNbCAGMZ1KC6c8de3YSy" ] },
      { "delegate": "tz3gtoUxdudfBRcNY7iVdKPHCYYX6xdPpoRS",
        "reception_time": "2022-01-16T14:26:07.246-00:00",
        "included_in_blocks":
          [ "BKt9eiazPB23mvBXQkFZDd1ZWsijdFitNbCAGMZ1KC6c8de3YSy" ] },
      { "delegate": "tz3QSGPoRp3Kn7n3vY24eYeu3Peuqo45LQ4D",
        "reception_time": "2022-01-16T14:26:07.239-00:00",
        "included_in_blocks":
          [ "BKt9eiazPB23mvBXQkFZDd1ZWsijdFitNbCAGMZ1KC6c8de3YSy" ] },
      { "delegate": "tz3hw2kqXhLUvY65ca1eety2oQTpAvd34R9Q",
        "reception_time": "2022-01-16T14:26:07.233-00:00",
        "included_in_blocks":
          [ "BKt9eiazPB23mvBXQkFZDd1ZWsijdFitNbCAGMZ1KC6c8de3YSy" ] },
      { "delegate": "tz3iJu5vrKZcsqRPs8yJ61UDoeEXZmtro4qh",
        "reception_time": "2022-01-16T14:26:07.226-00:00",
        "included_in_blocks":
          [ "BKt9eiazPB23mvBXQkFZDd1ZWsijdFitNbCAGMZ1KC6c8de3YSy" ] },
      { "delegate": "tz3NxTnke1acr8o3h5y9ytf5awQBGNJUKzVU",
        "reception_time": "2022-01-16T14:26:07.218-00:00",
        "included_in_blocks":
          [ "BKt9eiazPB23mvBXQkFZDd1ZWsijdFitNbCAGMZ1KC6c8de3YSy" ] },
      { "delegate": "tz1MJx9vhaNRSimcuXPK2rW4fLccQnDAnVKJ",
        "reception_time": "2022-01-16T14:26:07.218-00:00",
        "included_in_blocks":
          [ "BKt9eiazPB23mvBXQkFZDd1ZWsijdFitNbCAGMZ1KC6c8de3YSy" ] },
      { "delegate": "tz1Ldzz6k1BHdhuKvAtMRX7h5kJSMHESMHLC",
        "reception_time": "2022-01-16T14:26:07.208-00:00",
        "included_in_blocks":
          [ "BKt9eiazPB23mvBXQkFZDd1ZWsijdFitNbCAGMZ1KC6c8de3YSy" ] },
      { "delegate": "tz1gUNyn3hmnEWqkusWPzxRaon1cs7ndWh7h",
        "reception_time": "2022-01-16T14:26:07.208-00:00",
        "included_in_blocks":
          [ "BKt9eiazPB23mvBXQkFZDd1ZWsijdFitNbCAGMZ1KC6c8de3YSy" ] },
      { "delegate": "tz1eEnQhbwf6trb8Q8mPb2RaPkNk2rN7BKi8",
        "reception_time": "2022-01-16T14:26:07.199-00:00",
        "included_in_blocks":
          [ "BKt9eiazPB23mvBXQkFZDd1ZWsijdFitNbCAGMZ1KC6c8de3YSy" ] },
      { "delegate": "tz1VQnqCCqX4K5sP3FNkVSNKTdCAMJDd3E1n",
        "reception_time": "2022-01-16T14:26:07.196-00:00",
        "included_in_blocks":
          [ "BKt9eiazPB23mvBXQkFZDd1ZWsijdFitNbCAGMZ1KC6c8de3YSy" ] },
      { "delegate": "tz1TXzyaKUA8wsWefdSnyaYFnV2M3vCV7er9",
        "reception_time": "2022-01-16T14:26:07.196-00:00",
        "included_in_blocks":
          [ "BKt9eiazPB23mvBXQkFZDd1ZWsijdFitNbCAGMZ1KC6c8de3YSy" ] },
      { "delegate": "tz1U638Z3xWRiXDDKx2S125MCCaAeGDdA896",
        "reception_time": "2022-01-16T14:26:07.192-00:00",
        "included_in_blocks":
          [ "BKt9eiazPB23mvBXQkFZDd1ZWsijdFitNbCAGMZ1KC6c8de3YSy" ] },
      { "delegate": "tz1P2Po7YM526ughEsRbY4oR9zaUPDZjxFrb",
        "reception_time": "2022-01-16T14:26:07.187-00:00",
        "included_in_blocks":
          [ "BKt9eiazPB23mvBXQkFZDd1ZWsijdFitNbCAGMZ1KC6c8de3YSy" ] },
      { "delegate": "tz1Scdr2HsZiQjc7bHMeBbmDRXYVvdhjJbBh",
        "reception_time": "2022-01-16T14:26:07.170-00:00",
        "included_in_blocks":
          [ "BKt9eiazPB23mvBXQkFZDd1ZWsijdFitNbCAGMZ1KC6c8de3YSy" ] },
      { "delegate": "tz1S8e9GgdZG78XJRB3NqabfWeM37GnhZMWQ",
        "reception_time": "2022-01-16T14:26:05.298-00:00",
        "errors":
          [ { "kind": "temporary",
              "id": "proto.011-PtHangz2.prefilter.outdated_endorsement" } ],
        "included_in_blocks":
          [ "BKt9eiazPB23mvBXQkFZDd1ZWsijdFitNbCAGMZ1KC6c8de3YSy" ] } ] }