{ "blocks":
    [ { "hash": "BLFihxapZSswQqwje18KufSvranmXunr8DEdW9AvonbwWtbekVN",
        "delegate": "tz1gfArv665EUkSg2ojMBzcbfwuPxAvqPvjo",
        "reception_time": "2022-01-16T18:07:09.366-00:00",
        "timestamp": "2022-01-16T18:07:00Z" } ],
  "endorsements":
    [ { "delegate": "tz1RjoHc98dBoqaH2jawF62XNKh7YsHwbkEv" },
      { "delegate": "tz1NdhRv643wLW6zCcRP3VfT24dvDnh7nuh9" },
      { "delegate": "tz1eEnQhbwf6trb8Q8mPb2RaPkNk2rN7BKi8",
        "reception_time": "2022-01-16T18:07:09.347-00:00",
        "errors":
          [ { "kind": "temporary",
              "id": "proto.011-PtHangz2.prefilter.outdated_endorsement" } ],
        "included_in_blocks":
          [ "BM8tFaQdY8eB5zohFiNp2Up6pgmxesuZrnrU3jHj7opinjiCNJJ" ] },
      { "delegate": "tz1gUNyn3hmnEWqkusWPzxRaon1cs7ndWh7h",
        "reception_time": "2022-01-16T18:07:09.335-00:00",
        "errors":
          [ { "kind": "temporary",
              "id": "proto.011-PtHangz2.prefilter.outdated_endorsement" } ],
        "included_in_blocks":
          [ "BM8tFaQdY8eB5zohFiNp2Up6pgmxesuZrnrU3jHj7opinjiCNJJ" ] },
      { "delegate": "tz1VQnqCCqX4K5sP3FNkVSNKTdCAMJDd3E1n",
        "reception_time": "2022-01-16T18:07:09.327-00:00",
        "errors":
          [ { "kind": "temporary",
              "id": "proto.011-PtHangz2.prefilter.outdated_endorsement" } ],
        "included_in_blocks":
          [ "BM8tFaQdY8eB5zohFiNp2Up6pgmxesuZrnrU3jHj7opinjiCNJJ" ] },
      { "delegate": "tz1STeamwbp68THcny9zk3LsbG3H36DMvbRK",
        "reception_time": "2022-01-16T18:07:09.240-00:00",
        "errors":
          [ { "kind": "temporary",
              "id": "proto.011-PtHangz2.prefilter.outdated_endorsement" } ],
        "included_in_blocks":
          [ "BM8tFaQdY8eB5zohFiNp2Up6pgmxesuZrnrU3jHj7opinjiCNJJ" ] },
      { "delegate": "tz1VmiY38m3y95HqQLjMwqnMS7sdMfGomzKi",
        "reception_time": "2022-01-16T18:07:09.234-00:00",
        "errors":
          [ { "kind": "temporary",
              "id": "proto.011-PtHangz2.prefilter.outdated_endorsement" } ],
        "included_in_blocks":
          [ "BM8tFaQdY8eB5zohFiNp2Up6pgmxesuZrnrU3jHj7opinjiCNJJ" ] },
      { "delegate": "tz1aXD7Jigrt3PBYSpHSg5Rr33SexMmmM5Ys",
        "reception_time": "2022-01-16T18:07:09.194-00:00",
        "errors":
          [ { "kind": "temporary",
              "id": "proto.011-PtHangz2.prefilter.outdated_endorsement" } ],
        "included_in_blocks":
          [ "BM8tFaQdY8eB5zohFiNp2Up6pgmxesuZrnrU3jHj7opinjiCNJJ" ] },
      { "delegate": "tz1P2Po7YM526ughEsRbY4oR9zaUPDZjxFrb",
        "reception_time": "2022-01-16T18:07:09.077-00:00",
        "errors":
          [ { "kind": "temporary",
              "id": "proto.011-PtHangz2.prefilter.outdated_endorsement" } ],
        "included_in_blocks":
          [ "BM8tFaQdY8eB5zohFiNp2Up6pgmxesuZrnrU3jHj7opinjiCNJJ" ] },
      { "delegate": "tz1Lhf4J9Qxoe3DZ2nfe8FGDnvVj7oKjnMY6",
        "reception_time": "2022-01-16T18:07:08.953-00:00",
        "errors":
          [ { "kind": "temporary",
              "id": "proto.011-PtHangz2.prefilter.outdated_endorsement" } ],
        "included_in_blocks":
          [ "BM8tFaQdY8eB5zohFiNp2Up6pgmxesuZrnrU3jHj7opinjiCNJJ" ] },
      { "delegate": "tz1gfArv665EUkSg2ojMBzcbfwuPxAvqPvjo",
        "reception_time": "2022-01-16T18:07:08.151-00:00",
        "errors":
          [ { "kind": "temporary",
              "id": "proto.011-PtHangz2.prefilter.outdated_endorsement" } ],
        "included_in_blocks":
          [ "BM8tFaQdY8eB5zohFiNp2Up6pgmxesuZrnrU3jHj7opinjiCNJJ" ] },
      { "delegate": "tz1NpWrAyDL9k2Lmnyxcgr9xuJakbBxdq7FB",
        "reception_time": "2022-01-16T18:07:21.901-00:00",
        "included_in_blocks":
          [ "BM8tFaQdY8eB5zohFiNp2Up6pgmxesuZrnrU3jHj7opinjiCNJJ" ] },
      { "delegate": "tz3e7LbZvUtoXhpUD1yb6wuFodZpfYRb9nWJ",
        "reception_time": "2022-01-16T18:07:20.459-00:00",
        "included_in_blocks":
          [ "BM8tFaQdY8eB5zohFiNp2Up6pgmxesuZrnrU3jHj7opinjiCNJJ" ] },
      { "delegate": "tz2BzJTyoQp8fNbfhWD4YQgH9JJHDgSGzpdG",
        "reception_time": "2022-01-16T18:07:16.378-00:00",
        "included_in_blocks":
          [ "BM8tFaQdY8eB5zohFiNp2Up6pgmxesuZrnrU3jHj7opinjiCNJJ" ] },
      { "delegate": "tz1aRoaRhSpRYvFdyvgWLL6TGyRoGF51wDjM",
        "reception_time": "2022-01-16T18:07:13.341-00:00",
        "included_in_blocks":
          [ "BM8tFaQdY8eB5zohFiNp2Up6pgmxesuZrnrU3jHj7opinjiCNJJ" ] },
      { "delegate": "tz1acZQd7TdfoiUnD2czHnTHB2TaJQP6gdqo",
        "reception_time": "2022-01-16T18:07:13.526-00:00",
        "included_in_blocks":
          [ "BM8tFaQdY8eB5zohFiNp2Up6pgmxesuZrnrU3jHj7opinjiCNJJ" ] },
      { "delegate": "tz1Xsrfv6hn86fp88YfRs6xcKwt2nTqxVZYM",
        "reception_time": "2022-01-16T18:07:13.430-00:00",
        "included_in_blocks":
          [ "BM8tFaQdY8eB5zohFiNp2Up6pgmxesuZrnrU3jHj7opinjiCNJJ" ] },
      { "delegate": "tz1QJU1PuKUP5ZQxUr4pHZjCHGRvJSpcXv7G",
        "reception_time": "2022-01-16T18:07:13.521-00:00",
        "included_in_blocks":
          [ "BM8tFaQdY8eB5zohFiNp2Up6pgmxesuZrnrU3jHj7opinjiCNJJ" ] },
      { "delegate": "tz3NExpXn9aPNZPorRE4SdjJ2RGrfbJgMAaV",
        "reception_time": "2022-01-16T18:07:12.822-00:00",
        "included_in_blocks":
          [ "BM8tFaQdY8eB5zohFiNp2Up6pgmxesuZrnrU3jHj7opinjiCNJJ" ] },
      { "delegate": "tz1cYufsxHXJcvANhvS55h3aY32a9BAFB494",
        "reception_time": "2022-01-16T18:07:12.830-00:00",
        "included_in_blocks":
          [ "BM8tFaQdY8eB5zohFiNp2Up6pgmxesuZrnrU3jHj7opinjiCNJJ" ] },
      { "delegate": "tz1eVaNx3gCmG1EsLjijkmgAxdLYVf6Bf5Sq",
        "reception_time": "2022-01-16T18:07:12.772-00:00",
        "included_in_blocks":
          [ "BM8tFaQdY8eB5zohFiNp2Up6pgmxesuZrnrU3jHj7opinjiCNJJ" ] },
      { "delegate": "tz1V3yg82mcrPJbegqVCPn6bC8w1CSTRp3f8",
        "reception_time": "2022-01-16T18:07:12.509-00:00",
        "included_in_blocks":
          [ "BM8tFaQdY8eB5zohFiNp2Up6pgmxesuZrnrU3jHj7opinjiCNJJ" ] },
      { "delegate": "tz3RDC3Jdn4j15J7bBHZd29EUee9gVB1CxD9",
        "reception_time": "2022-01-16T18:07:12.248-00:00",
        "included_in_blocks":
          [ "BM8tFaQdY8eB5zohFiNp2Up6pgmxesuZrnrU3jHj7opinjiCNJJ" ] },
      { "delegate": "tz2FCNBrERXtaTtNX6iimR1UJ5JSDxvdHM93",
        "reception_time": "2022-01-16T18:07:11.828-00:00",
        "included_in_blocks":
          [ "BM8tFaQdY8eB5zohFiNp2Up6pgmxesuZrnrU3jHj7opinjiCNJJ" ] },
      { "delegate": "tz1TRqbYbUf2GyrjErf3hBzgBJPzW8y36qEs",
        "reception_time": "2022-01-16T18:07:12.136-00:00",
        "included_in_blocks":
          [ "BM8tFaQdY8eB5zohFiNp2Up6pgmxesuZrnrU3jHj7opinjiCNJJ" ] },
      { "delegate": "tz1dRKU4FQ9QRRQPdaH4zCR6gmCmXfcvcgtB",
        "reception_time": "2022-01-16T18:07:12.172-00:00",
        "included_in_blocks":
          [ "BM8tFaQdY8eB5zohFiNp2Up6pgmxesuZrnrU3jHj7opinjiCNJJ" ] },
      { "delegate": "tz3WMqdzXqRWXwyvj5Hp2H7QEepaUuS7vd9K",
        "reception_time": "2022-01-16T18:07:11.920-00:00",
        "included_in_blocks":
          [ "BM8tFaQdY8eB5zohFiNp2Up6pgmxesuZrnrU3jHj7opinjiCNJJ" ] },
      { "delegate": "tz3UoffC7FG7zfpmvmjUmUeAaHvzdcUvAj6r",
        "reception_time": "2022-01-16T18:07:11.811-00:00",
        "included_in_blocks":
          [ "BM8tFaQdY8eB5zohFiNp2Up6pgmxesuZrnrU3jHj7opinjiCNJJ" ] },
      { "delegate": "tz3VEZ4k6a4Wx42iyev6i2aVAptTRLEAivNN",
        "reception_time": "2022-01-16T18:07:11.775-00:00",
        "included_in_blocks":
          [ "BM8tFaQdY8eB5zohFiNp2Up6pgmxesuZrnrU3jHj7opinjiCNJJ" ] },
      { "delegate": "tz1NEKxGEHsFufk87CVZcrqWu8o22qh46GK6",
        "reception_time": "2022-01-16T18:07:11.258-00:00",
        "included_in_blocks":
          [ "BM8tFaQdY8eB5zohFiNp2Up6pgmxesuZrnrU3jHj7opinjiCNJJ" ] },
      { "delegate": "tz3bvNMQ95vfAYtG8193ymshqjSvmxiCUuR5",
        "reception_time": "2022-01-16T18:07:11.201-00:00",
        "included_in_blocks":
          [ "BM8tFaQdY8eB5zohFiNp2Up6pgmxesuZrnrU3jHj7opinjiCNJJ" ] },
      { "delegate": "tz1WctSwL49BZtdWAQ75NY6vr4xsAx6oKdah",
        "reception_time": "2022-01-16T18:07:11.568-00:00",
        "included_in_blocks":
          [ "BM8tFaQdY8eB5zohFiNp2Up6pgmxesuZrnrU3jHj7opinjiCNJJ" ] },
      { "delegate": "tz1Nf6tsK4G6bBqgSQERy4nUtkHNKUVdh7q1",
        "reception_time": "2022-01-16T18:07:11.206-00:00",
        "included_in_blocks":
          [ "BM8tFaQdY8eB5zohFiNp2Up6pgmxesuZrnrU3jHj7opinjiCNJJ" ] },
      { "delegate": "tz1SYq214SCBy9naR6cvycQsYcUGpBqQAE8d",
        "reception_time": "2022-01-16T18:07:11.060-00:00",
        "included_in_blocks":
          [ "BM8tFaQdY8eB5zohFiNp2Up6pgmxesuZrnrU3jHj7opinjiCNJJ" ] },
      { "delegate": "tz1LXpCpLNRhP7G9Yw8dRhWd8ZfH8929uvGo",
        "reception_time": "2022-01-16T18:07:11.107-00:00",
        "included_in_blocks":
          [ "BM8tFaQdY8eB5zohFiNp2Up6pgmxesuZrnrU3jHj7opinjiCNJJ" ] },
      { "delegate": "tz3bTdwZinP8U1JmSweNzVKhmwafqWmFWRfk",
        "reception_time": "2022-01-16T18:07:10.785-00:00",
        "included_in_blocks":
          [ "BM8tFaQdY8eB5zohFiNp2Up6pgmxesuZrnrU3jHj7opinjiCNJJ" ] },
      { "delegate": "tz1dNVDWPf3Q59SdJqnjdnu277iyvReiRS9M",
        "reception_time": "2022-01-16T18:07:11.305-00:00",
        "included_in_blocks":
          [ "BM8tFaQdY8eB5zohFiNp2Up6pgmxesuZrnrU3jHj7opinjiCNJJ" ] },
      { "delegate": "tz1RCFbB9GpALpsZtu6J58sb74dm8qe6XBzv",
        "reception_time": "2022-01-16T18:07:11.334-00:00",
        "included_in_blocks":
          [ "BM8tFaQdY8eB5zohFiNp2Up6pgmxesuZrnrU3jHj7opinjiCNJJ" ] },
      { "delegate": "tz1KfEsrtDaA1sX7vdM4qmEPWuSytuqCDp5j",
        "reception_time": "2022-01-16T18:07:11.014-00:00",
        "included_in_blocks":
          [ "BM8tFaQdY8eB5zohFiNp2Up6pgmxesuZrnrU3jHj7opinjiCNJJ" ] },
      { "delegate": "tz1ei4WtWEMEJekSv8qDnu9PExG6Q8HgRGr3",
        "reception_time": "2022-01-16T18:07:10.885-00:00",
        "included_in_blocks":
          [ "BM8tFaQdY8eB5zohFiNp2Up6pgmxesuZrnrU3jHj7opinjiCNJJ" ] },
      { "delegate": "tz3RB4aoyjov4KEVRbuhvQ1CKJgBJMWhaeB8",
        "reception_time": "2022-01-16T18:07:10.616-00:00",
        "included_in_blocks":
          [ "BM8tFaQdY8eB5zohFiNp2Up6pgmxesuZrnrU3jHj7opinjiCNJJ" ] },
      { "delegate": "tz1LmaFsWRkjr7QMCx5PtV6xTUz3AmEpKQiF",
        "reception_time": "2022-01-16T18:07:10.733-00:00",
        "included_in_blocks":
          [ "BM8tFaQdY8eB5zohFiNp2Up6pgmxesuZrnrU3jHj7opinjiCNJJ" ] },
      { "delegate": "tz1LnWa4AiFCjMezTgSNa65QFoo7DQGEWgEU",
        "reception_time": "2022-01-16T18:07:10.634-00:00",
        "included_in_blocks":
          [ "BM8tFaQdY8eB5zohFiNp2Up6pgmxesuZrnrU3jHj7opinjiCNJJ" ] },
      { "delegate": "tz3QSGPoRp3Kn7n3vY24eYeu3Peuqo45LQ4D",
        "reception_time": "2022-01-16T18:07:10.565-00:00",
        "included_in_blocks":
          [ "BM8tFaQdY8eB5zohFiNp2Up6pgmxesuZrnrU3jHj7opinjiCNJJ" ] },
      { "delegate": "tz3gtoUxdudfBRcNY7iVdKPHCYYX6xdPpoRS",
        "reception_time": "2022-01-16T18:07:10.573-00:00",
        "included_in_blocks":
          [ "BM8tFaQdY8eB5zohFiNp2Up6pgmxesuZrnrU3jHj7opinjiCNJJ" ] },
      { "delegate": "tz1WCd2jm4uSt4vntk4vSuUWoZQGhLcDuR9q",
        "reception_time": "2022-01-16T18:07:10.422-00:00",
        "included_in_blocks":
          [ "BM8tFaQdY8eB5zohFiNp2Up6pgmxesuZrnrU3jHj7opinjiCNJJ" ] },
      { "delegate": "tz3RKYFsLuQzKBtmYuLNas7uMu3AsYd4QdsA",
        "reception_time": "2022-01-16T18:07:10.495-00:00",
        "included_in_blocks":
          [ "BM8tFaQdY8eB5zohFiNp2Up6pgmxesuZrnrU3jHj7opinjiCNJJ" ] },
      { "delegate": "tz1S8MNvuFEUsWgjHvi3AxibRBf388NhT1q2",
        "reception_time": "2022-01-16T18:07:10.637-00:00",
        "included_in_blocks":
          [ "BM8tFaQdY8eB5zohFiNp2Up6pgmxesuZrnrU3jHj7opinjiCNJJ" ] },
      { "delegate": "tz3hw2kqXhLUvY65ca1eety2oQTpAvd34R9Q",
        "reception_time": "2022-01-16T18:07:10.522-00:00",
        "included_in_blocks":
          [ "BM8tFaQdY8eB5zohFiNp2Up6pgmxesuZrnrU3jHj7opinjiCNJJ" ] },
      { "delegate": "tz3iJu5vrKZcsqRPs8yJ61UDoeEXZmtro4qh",
        "reception_time": "2022-01-16T18:07:10.495-00:00",
        "included_in_blocks":
          [ "BM8tFaQdY8eB5zohFiNp2Up6pgmxesuZrnrU3jHj7opinjiCNJJ" ] },
      { "delegate": "tz3QT9dHYKDqh563chVa6za8526ys1UKfRfL",
        "reception_time": "2022-01-16T18:07:10.463-00:00",
        "included_in_blocks":
          [ "BM8tFaQdY8eB5zohFiNp2Up6pgmxesuZrnrU3jHj7opinjiCNJJ" ] },
      { "delegate": "tz3Zhs2dygr55yHyQyKjntAtY9bgfhLZ4Xj1",
        "reception_time": "2022-01-16T18:07:10.439-00:00",
        "included_in_blocks":
          [ "BM8tFaQdY8eB5zohFiNp2Up6pgmxesuZrnrU3jHj7opinjiCNJJ" ] },
      { "delegate": "tz3ZbP2pM3nwvXztbuMJwJnDvV5xdpU8UkkD",
        "reception_time": "2022-01-16T18:07:10.451-00:00",
        "included_in_blocks":
          [ "BM8tFaQdY8eB5zohFiNp2Up6pgmxesuZrnrU3jHj7opinjiCNJJ" ] },
      { "delegate": "tz3S6BBeKgJGXxvLyZ1xzXzMPn11nnFtq5L9",
        "reception_time": "2022-01-16T18:07:10.415-00:00",
        "included_in_blocks":
          [ "BM8tFaQdY8eB5zohFiNp2Up6pgmxesuZrnrU3jHj7opinjiCNJJ" ] },
      { "delegate": "tz1TzaNn7wSQSP5gYPXCnNzBCpyMiidCq1PX",
        "reception_time": "2022-01-16T18:07:10.426-00:00",
        "included_in_blocks":
          [ "BM8tFaQdY8eB5zohFiNp2Up6pgmxesuZrnrU3jHj7opinjiCNJJ" ] },
      { "delegate": "tz1bnf8bo9GUgeyUhfMcaC7mNqMmLS6Ri3hb",
        "reception_time": "2022-01-16T18:07:10.348-00:00",
        "included_in_blocks":
          [ "BM8tFaQdY8eB5zohFiNp2Up6pgmxesuZrnrU3jHj7opinjiCNJJ" ] },
      { "delegate": "tz1WnfXMPaNTBmH7DBPwqCWs9cPDJdkGBTZ8",
        "reception_time": "2022-01-16T18:07:10.508-00:00",
        "included_in_blocks":
          [ "BM8tFaQdY8eB5zohFiNp2Up6pgmxesuZrnrU3jHj7opinjiCNJJ" ] },
      { "delegate": "tz1PWCDnz783NNGGQjEFFsHtrcK5yBW4E2rm",
        "reception_time": "2022-01-16T18:07:10.538-00:00",
        "included_in_blocks":
          [ "BM8tFaQdY8eB5zohFiNp2Up6pgmxesuZrnrU3jHj7opinjiCNJJ" ] },
      { "delegate": "tz1Ldzz6k1BHdhuKvAtMRX7h5kJSMHESMHLC",
        "reception_time": "2022-01-16T18:07:10.456-00:00",
        "included_in_blocks":
          [ "BM8tFaQdY8eB5zohFiNp2Up6pgmxesuZrnrU3jHj7opinjiCNJJ" ] },
      { "delegate": "tz3adcvQaKXTCg12zbninqo3q8ptKKtDFTLv",
        "reception_time": "2022-01-16T18:07:10.522-00:00",
        "included_in_blocks":
          [ "BM8tFaQdY8eB5zohFiNp2Up6pgmxesuZrnrU3jHj7opinjiCNJJ" ] },
      { "delegate": "tz1irJKkXS2DBWkU1NnmFQx1c1L7pbGg4yhk",
        "reception_time": "2022-01-16T18:07:10.338-00:00",
        "included_in_blocks":
          [ "BM8tFaQdY8eB5zohFiNp2Up6pgmxesuZrnrU3jHj7opinjiCNJJ" ] },
      { "delegate": "tz1Scdr2HsZiQjc7bHMeBbmDRXYVvdhjJbBh",
        "reception_time": "2022-01-16T18:07:10.332-00:00",
        "included_in_blocks":
          [ "BM8tFaQdY8eB5zohFiNp2Up6pgmxesuZrnrU3jHj7opinjiCNJJ" ] },
      { "delegate": "tz1RV1MBbZMR68tacosb7Mwj6LkbPSUS1er1",
        "reception_time": "2022-01-16T18:07:10.247-00:00",
        "included_in_blocks":
          [ "BM8tFaQdY8eB5zohFiNp2Up6pgmxesuZrnrU3jHj7opinjiCNJJ" ] } ] }