{ "blocks":
    [ { "hash": "BLmkWbaqEM4Ctggk2TwXMS72bamm4aaWePZa6u6EGFeF3Z87q6V",
        "delegate": "tz1gfArv665EUkSg2ojMBzcbfwuPxAvqPvjo",
        "reception_time": "2022-01-16T20:55:48.508-00:00",
        "timestamp": "2022-01-16T20:55:40Z" } ],
  "endorsements":
    [ { "delegate": "tz1TRspM5SeZpaQUhzByXbEvqKF1vnCM2YTK",
        "reception_time": "2022-01-16T20:55:48.425-00:00",
        "errors":
          [ { "kind": "temporary",
              "id": "proto.011-PtHangz2.prefilter.outdated_endorsement" } ],
        "included_in_blocks":
          [ "BLtHst45QD4E6amQNfCSTqfSxkiZEkv847TqTA5GfipWFZcQDsS" ] },
      { "delegate": "tz1P2Po7YM526ughEsRbY4oR9zaUPDZjxFrb",
        "reception_time": "2022-01-16T20:55:48.424-00:00",
        "errors":
          [ { "kind": "temporary",
              "id": "proto.011-PtHangz2.prefilter.outdated_endorsement" } ],
        "included_in_blocks":
          [ "BLtHst45QD4E6amQNfCSTqfSxkiZEkv847TqTA5GfipWFZcQDsS" ] },
      { "delegate": "tz1S8e9GgdZG78XJRB3NqabfWeM37GnhZMWQ",
        "reception_time": "2022-01-16T20:55:48.066-00:00",
        "errors":
          [ { "kind": "temporary",
              "id": "proto.011-PtHangz2.prefilter.outdated_endorsement" } ],
        "included_in_blocks":
          [ "BLtHst45QD4E6amQNfCSTqfSxkiZEkv847TqTA5GfipWFZcQDsS" ] },
      { "delegate": "tz1gfArv665EUkSg2ojMBzcbfwuPxAvqPvjo",
        "reception_time": "2022-01-16T20:55:48.003-00:00",
        "errors":
          [ { "kind": "temporary",
              "id": "proto.011-PtHangz2.prefilter.outdated_endorsement" } ],
        "included_in_blocks":
          [ "BLtHst45QD4E6amQNfCSTqfSxkiZEkv847TqTA5GfipWFZcQDsS" ] },
      { "delegate": "tz1NdhRv643wLW6zCcRP3VfT24dvDnh7nuh9" },
      { "delegate": "tz1RjoHc98dBoqaH2jawF62XNKh7YsHwbkEv" },
      { "delegate": "tz1ibcPVGK4Y8pcW4BYUsojiHoBKnZbyDGrX" },
      { "delegate": "tz1eEnQhbwf6trb8Q8mPb2RaPkNk2rN7BKi8",
        "reception_time": "2022-01-16T20:55:49.641-00:00",
        "included_in_blocks":
          [ "BLtHst45QD4E6amQNfCSTqfSxkiZEkv847TqTA5GfipWFZcQDsS" ] },
      { "delegate": "tz1STeamwbp68THcny9zk3LsbG3H36DMvbRK",
        "reception_time": "2022-01-16T20:55:49.660-00:00",
        "included_in_blocks":
          [ "BLtHst45QD4E6amQNfCSTqfSxkiZEkv847TqTA5GfipWFZcQDsS" ] },
      { "delegate": "tz1NadALtM1Z4jWBxHbPUgvQrjqQoFJXTZz5",
        "reception_time": "2022-01-16T20:55:49.672-00:00",
        "included_in_blocks":
          [ "BLtHst45QD4E6amQNfCSTqfSxkiZEkv847TqTA5GfipWFZcQDsS" ] },
      { "delegate": "tz1irJKkXS2DBWkU1NnmFQx1c1L7pbGg4yhk",
        "reception_time": "2022-01-16T20:55:49.690-00:00",
        "included_in_blocks":
          [ "BLtHst45QD4E6amQNfCSTqfSxkiZEkv847TqTA5GfipWFZcQDsS" ] },
      { "delegate": "tz1Kt4P8BCaP93AEV4eA7gmpRryWt5hznjCP",
        "reception_time": "2022-01-16T20:55:50.080-00:00",
        "included_in_blocks":
          [ "BLtHst45QD4E6amQNfCSTqfSxkiZEkv847TqTA5GfipWFZcQDsS" ] },
      { "delegate": "tz3NxTnke1acr8o3h5y9ytf5awQBGNJUKzVU",
        "reception_time": "2022-01-16T20:55:50.080-00:00",
        "included_in_blocks":
          [ "BLtHst45QD4E6amQNfCSTqfSxkiZEkv847TqTA5GfipWFZcQDsS" ] },
      { "delegate": "tz3ZbP2pM3nwvXztbuMJwJnDvV5xdpU8UkkD",
        "reception_time": "2022-01-16T20:55:50.103-00:00",
        "included_in_blocks":
          [ "BLtHst45QD4E6amQNfCSTqfSxkiZEkv847TqTA5GfipWFZcQDsS" ] },
      { "delegate": "tz1a51WYsAsoh4fs4A4x5aCN6Za26mpfDfTi",
        "reception_time": "2022-01-16T20:55:50.103-00:00",
        "included_in_blocks":
          [ "BLtHst45QD4E6amQNfCSTqfSxkiZEkv847TqTA5GfipWFZcQDsS" ] },
      { "delegate": "tz1MJx9vhaNRSimcuXPK2rW4fLccQnDAnVKJ",
        "reception_time": "2022-01-16T20:55:50.111-00:00",
        "included_in_blocks":
          [ "BLtHst45QD4E6amQNfCSTqfSxkiZEkv847TqTA5GfipWFZcQDsS" ] },
      { "delegate": "tz3QT9dHYKDqh563chVa6za8526ys1UKfRfL",
        "reception_time": "2022-01-16T20:55:50.138-00:00",
        "included_in_blocks":
          [ "BLtHst45QD4E6amQNfCSTqfSxkiZEkv847TqTA5GfipWFZcQDsS" ] },
      { "delegate": "tz1MQMiZHV8q4tTwUMWmS5Y3kaP6J2136iXr",
        "reception_time": "2022-01-16T20:55:50.151-00:00",
        "included_in_blocks":
          [ "BLtHst45QD4E6amQNfCSTqfSxkiZEkv847TqTA5GfipWFZcQDsS" ] },
      { "delegate": "tz1VQnqCCqX4K5sP3FNkVSNKTdCAMJDd3E1n",
        "reception_time": "2022-01-16T20:55:50.161-00:00",
        "included_in_blocks":
          [ "BLtHst45QD4E6amQNfCSTqfSxkiZEkv847TqTA5GfipWFZcQDsS" ] },
      { "delegate": "tz3Zhs2dygr55yHyQyKjntAtY9bgfhLZ4Xj1",
        "reception_time": "2022-01-16T20:55:50.196-00:00",
        "included_in_blocks":
          [ "BLtHst45QD4E6amQNfCSTqfSxkiZEkv847TqTA5GfipWFZcQDsS" ] },
      { "delegate": "tz3iJu5vrKZcsqRPs8yJ61UDoeEXZmtro4qh",
        "reception_time": "2022-01-16T20:55:50.220-00:00",
        "included_in_blocks":
          [ "BLtHst45QD4E6amQNfCSTqfSxkiZEkv847TqTA5GfipWFZcQDsS" ] },
      { "delegate": "tz1gUNyn3hmnEWqkusWPzxRaon1cs7ndWh7h",
        "reception_time": "2022-01-16T20:55:50.244-00:00",
        "included_in_blocks":
          [ "BLtHst45QD4E6amQNfCSTqfSxkiZEkv847TqTA5GfipWFZcQDsS" ] },
      { "delegate": "tz1PWCDnz783NNGGQjEFFsHtrcK5yBW4E2rm",
        "reception_time": "2022-01-16T20:55:50.254-00:00",
        "included_in_blocks":
          [ "BLtHst45QD4E6amQNfCSTqfSxkiZEkv847TqTA5GfipWFZcQDsS" ] },
      { "delegate": "tz1Ldzz6k1BHdhuKvAtMRX7h5kJSMHESMHLC",
        "reception_time": "2022-01-16T20:55:50.257-00:00",
        "included_in_blocks":
          [ "BLtHst45QD4E6amQNfCSTqfSxkiZEkv847TqTA5GfipWFZcQDsS" ] },
      { "delegate": "tz3QSGPoRp3Kn7n3vY24eYeu3Peuqo45LQ4D",
        "reception_time": "2022-01-16T20:55:50.284-00:00",
        "included_in_blocks":
          [ "BLtHst45QD4E6amQNfCSTqfSxkiZEkv847TqTA5GfipWFZcQDsS" ] },
      { "delegate": "tz3hw2kqXhLUvY65ca1eety2oQTpAvd34R9Q",
        "reception_time": "2022-01-16T20:55:50.304-00:00",
        "included_in_blocks":
          [ "BLtHst45QD4E6amQNfCSTqfSxkiZEkv847TqTA5GfipWFZcQDsS" ] },
      { "delegate": "tz3gtoUxdudfBRcNY7iVdKPHCYYX6xdPpoRS",
        "reception_time": "2022-01-16T20:55:50.345-00:00",
        "included_in_blocks":
          [ "BLtHst45QD4E6amQNfCSTqfSxkiZEkv847TqTA5GfipWFZcQDsS" ] },
      { "delegate": "tz3bTdwZinP8U1JmSweNzVKhmwafqWmFWRfk",
        "reception_time": "2022-01-16T20:55:50.359-00:00",
        "included_in_blocks":
          [ "BLtHst45QD4E6amQNfCSTqfSxkiZEkv847TqTA5GfipWFZcQDsS" ] },
      { "delegate": "tz3RKYFsLuQzKBtmYuLNas7uMu3AsYd4QdsA",
        "reception_time": "2022-01-16T20:55:50.386-00:00",
        "included_in_blocks":
          [ "BLtHst45QD4E6amQNfCSTqfSxkiZEkv847TqTA5GfipWFZcQDsS" ] },
      { "delegate": "tz1fb7c66UwePkkfDXz4ajFaBP9hVNLdS7JJ",
        "reception_time": "2022-01-16T20:55:50.523-00:00",
        "included_in_blocks":
          [ "BLtHst45QD4E6amQNfCSTqfSxkiZEkv847TqTA5GfipWFZcQDsS" ] },
      { "delegate": "tz1S8MNvuFEUsWgjHvi3AxibRBf388NhT1q2",
        "reception_time": "2022-01-16T20:55:50.535-00:00",
        "included_in_blocks":
          [ "BLtHst45QD4E6amQNfCSTqfSxkiZEkv847TqTA5GfipWFZcQDsS" ] },
      { "delegate": "tz1RCFbB9GpALpsZtu6J58sb74dm8qe6XBzv",
        "reception_time": "2022-01-16T20:55:50.535-00:00",
        "included_in_blocks":
          [ "BLtHst45QD4E6amQNfCSTqfSxkiZEkv847TqTA5GfipWFZcQDsS" ] },
      { "delegate": "tz1WCd2jm4uSt4vntk4vSuUWoZQGhLcDuR9q",
        "reception_time": "2022-01-16T20:55:50.545-00:00",
        "included_in_blocks":
          [ "BLtHst45QD4E6amQNfCSTqfSxkiZEkv847TqTA5GfipWFZcQDsS" ] },
      { "delegate": "tz1MGTFJXpQmtxLi8QJ7AuVRgM2L2Qfn9w9i",
        "reception_time": "2022-01-16T20:55:50.553-00:00",
        "included_in_blocks":
          [ "BLtHst45QD4E6amQNfCSTqfSxkiZEkv847TqTA5GfipWFZcQDsS" ] },
      { "delegate": "tz1SFtJ3XwU1d6rWTRfJmwVDFpywcp4J743S",
        "reception_time": "2022-01-16T20:55:50.560-00:00",
        "included_in_blocks":
          [ "BLtHst45QD4E6amQNfCSTqfSxkiZEkv847TqTA5GfipWFZcQDsS" ] },
      { "delegate": "tz1SohptP53wDPZhzTWzDUFAUcWF6DMBpaJV",
        "reception_time": "2022-01-16T20:55:50.573-00:00",
        "included_in_blocks":
          [ "BLtHst45QD4E6amQNfCSTqfSxkiZEkv847TqTA5GfipWFZcQDsS" ] },
      { "delegate": "tz3RB4aoyjov4KEVRbuhvQ1CKJgBJMWhaeB8",
        "reception_time": "2022-01-16T20:55:50.582-00:00",
        "included_in_blocks":
          [ "BLtHst45QD4E6amQNfCSTqfSxkiZEkv847TqTA5GfipWFZcQDsS" ] },
      { "delegate": "tz1ei4WtWEMEJekSv8qDnu9PExG6Q8HgRGr3",
        "reception_time": "2022-01-16T20:55:50.590-00:00",
        "included_in_blocks":
          [ "BLtHst45QD4E6amQNfCSTqfSxkiZEkv847TqTA5GfipWFZcQDsS" ] },
      { "delegate": "tz1dwu9aYb7CRNq4Y2zAjipdjFuSVKhHS8vA",
        "reception_time": "2022-01-16T20:55:50.617-00:00",
        "included_in_blocks":
          [ "BLtHst45QD4E6amQNfCSTqfSxkiZEkv847TqTA5GfipWFZcQDsS" ] },
      { "delegate": "tz1aDiEJf9ztRrAJEXZfcG3CKimoKsGhwVAi",
        "reception_time": "2022-01-16T20:55:50.640-00:00",
        "included_in_blocks":
          [ "BLtHst45QD4E6amQNfCSTqfSxkiZEkv847TqTA5GfipWFZcQDsS" ] },
      { "delegate": "tz1RQhNh7iB9CZA7i3ifTWNwiGYVffponfbB",
        "reception_time": "2022-01-16T20:55:50.647-00:00",
        "included_in_blocks":
          [ "BLtHst45QD4E6amQNfCSTqfSxkiZEkv847TqTA5GfipWFZcQDsS" ] },
      { "delegate": "tz3WMqdzXqRWXwyvj5Hp2H7QEepaUuS7vd9K",
        "reception_time": "2022-01-16T20:55:50.657-00:00",
        "included_in_blocks":
          [ "BLtHst45QD4E6amQNfCSTqfSxkiZEkv847TqTA5GfipWFZcQDsS" ] },
      { "delegate": "tz1RNoDLWUjbqqs6uCHtJKgSLAegutbD8cNe",
        "reception_time": "2022-01-16T20:55:50.666-00:00",
        "included_in_blocks":
          [ "BLtHst45QD4E6amQNfCSTqfSxkiZEkv847TqTA5GfipWFZcQDsS" ] },
      { "delegate": "tz1TRqbYbUf2GyrjErf3hBzgBJPzW8y36qEs",
        "reception_time": "2022-01-16T20:55:50.673-00:00",
        "included_in_blocks":
          [ "BLtHst45QD4E6amQNfCSTqfSxkiZEkv847TqTA5GfipWFZcQDsS" ] },
      { "delegate": "tz1axcnVN9tZnCe4sQQhC6f3tfSEXdjPaXPY",
        "reception_time": "2022-01-16T20:55:50.683-00:00",
        "included_in_blocks":
          [ "BLtHst45QD4E6amQNfCSTqfSxkiZEkv847TqTA5GfipWFZcQDsS" ] },
      { "delegate": "tz2FCNBrERXtaTtNX6iimR1UJ5JSDxvdHM93",
        "reception_time": "2022-01-16T20:55:50.703-00:00",
        "included_in_blocks":
          [ "BLtHst45QD4E6amQNfCSTqfSxkiZEkv847TqTA5GfipWFZcQDsS" ] },
      { "delegate": "tz1SYq214SCBy9naR6cvycQsYcUGpBqQAE8d",
        "reception_time": "2022-01-16T20:55:50.705-00:00",
        "included_in_blocks":
          [ "BLtHst45QD4E6amQNfCSTqfSxkiZEkv847TqTA5GfipWFZcQDsS" ] },
      { "delegate": "tz1NEKxGEHsFufk87CVZcrqWu8o22qh46GK6",
        "reception_time": "2022-01-16T20:55:50.737-00:00",
        "included_in_blocks":
          [ "BLtHst45QD4E6amQNfCSTqfSxkiZEkv847TqTA5GfipWFZcQDsS" ] },
      { "delegate": "tz3UoffC7FG7zfpmvmjUmUeAaHvzdcUvAj6r",
        "reception_time": "2022-01-16T20:55:50.842-00:00",
        "included_in_blocks":
          [ "BLtHst45QD4E6amQNfCSTqfSxkiZEkv847TqTA5GfipWFZcQDsS" ] },
      { "delegate": "tz1abmz7jiCV2GH2u81LRrGgAFFgvQgiDiaf",
        "reception_time": "2022-01-16T20:55:50.883-00:00",
        "included_in_blocks":
          [ "BLtHst45QD4E6amQNfCSTqfSxkiZEkv847TqTA5GfipWFZcQDsS" ] },
      { "delegate": "tz1PeZx7FXy7QRuMREGXGxeipb24RsMMzUNe",
        "reception_time": "2022-01-16T20:55:50.929-00:00",
        "included_in_blocks":
          [ "BLtHst45QD4E6amQNfCSTqfSxkiZEkv847TqTA5GfipWFZcQDsS" ] },
      { "delegate": "tz1LmaFsWRkjr7QMCx5PtV6xTUz3AmEpKQiF",
        "reception_time": "2022-01-16T20:55:50.964-00:00",
        "included_in_blocks":
          [ "BLtHst45QD4E6amQNfCSTqfSxkiZEkv847TqTA5GfipWFZcQDsS" ] },
      { "delegate": "tz1KfEsrtDaA1sX7vdM4qmEPWuSytuqCDp5j",
        "reception_time": "2022-01-16T20:55:51.132-00:00",
        "included_in_blocks":
          [ "BLtHst45QD4E6amQNfCSTqfSxkiZEkv847TqTA5GfipWFZcQDsS" ] },
      { "delegate": "tz1Nf6tsK4G6bBqgSQERy4nUtkHNKUVdh7q1",
        "reception_time": "2022-01-16T20:55:51.227-00:00",
        "included_in_blocks":
          [ "BLtHst45QD4E6amQNfCSTqfSxkiZEkv847TqTA5GfipWFZcQDsS" ] },
      { "delegate": "tz1LwEsi8GVhtpCcxBHgQAgM4XrdjsJLmYc8",
        "reception_time": "2022-01-16T20:55:51.234-00:00",
        "included_in_blocks":
          [ "BLtHst45QD4E6amQNfCSTqfSxkiZEkv847TqTA5GfipWFZcQDsS" ] },
      { "delegate": "tz3VEZ4k6a4Wx42iyev6i2aVAptTRLEAivNN",
        "reception_time": "2022-01-16T20:55:51.279-00:00",
        "included_in_blocks":
          [ "BLtHst45QD4E6amQNfCSTqfSxkiZEkv847TqTA5GfipWFZcQDsS" ] },
      { "delegate": "tz1dRKU4FQ9QRRQPdaH4zCR6gmCmXfcvcgtB",
        "reception_time": "2022-01-16T20:55:51.304-00:00",
        "included_in_blocks":
          [ "BLtHst45QD4E6amQNfCSTqfSxkiZEkv847TqTA5GfipWFZcQDsS" ] },
      { "delegate": "tz3RDC3Jdn4j15J7bBHZd29EUee9gVB1CxD9",
        "reception_time": "2022-01-16T20:55:51.377-00:00",
        "included_in_blocks":
          [ "BLtHst45QD4E6amQNfCSTqfSxkiZEkv847TqTA5GfipWFZcQDsS" ] },
      { "delegate": "tz1aJS7Pk9uWR3wWyFf1i3RwhYxN84G7stom",
        "reception_time": "2022-01-16T20:55:51.439-00:00",
        "included_in_blocks":
          [ "BLtHst45QD4E6amQNfCSTqfSxkiZEkv847TqTA5GfipWFZcQDsS" ] },
      { "delegate": "tz1Z2jXfEXL7dXhs6bsLmyLFLfmAkXBzA9WE",
        "reception_time": "2022-01-16T20:55:51.530-00:00",
        "included_in_blocks":
          [ "BLtHst45QD4E6amQNfCSTqfSxkiZEkv847TqTA5GfipWFZcQDsS" ] },
      { "delegate": "tz3bvNMQ95vfAYtG8193ymshqjSvmxiCUuR5",
        "reception_time": "2022-01-16T20:55:51.547-00:00",
        "included_in_blocks":
          [ "BLtHst45QD4E6amQNfCSTqfSxkiZEkv847TqTA5GfipWFZcQDsS" ] },
      { "delegate": "tz3NDpRj6WBrJPikcPVHRBEjWKxFw3c6eQPS",
        "reception_time": "2022-01-16T20:55:51.594-00:00",
        "included_in_blocks":
          [ "BLtHst45QD4E6amQNfCSTqfSxkiZEkv847TqTA5GfipWFZcQDsS" ] },
      { "delegate": "tz1awXW7wuXy21c66vBudMXQVAPgRnqqwgTH",
        "reception_time": "2022-01-16T20:55:52.070-00:00",
        "included_in_blocks":
          [ "BLtHst45QD4E6amQNfCSTqfSxkiZEkv847TqTA5GfipWFZcQDsS" ] },
      { "delegate": "tz1TcH4Nb3aHNDJ7CGZhU7jgAK1BkSP4Lxds",
        "reception_time": "2022-01-16T20:55:52.160-00:00",
        "included_in_blocks":
          [ "BLtHst45QD4E6amQNfCSTqfSxkiZEkv847TqTA5GfipWFZcQDsS" ] },
      { "delegate": "tz3NExpXn9aPNZPorRE4SdjJ2RGrfbJgMAaV",
        "reception_time": "2022-01-16T20:55:52.311-00:00",
        "included_in_blocks":
          [ "BLtHst45QD4E6amQNfCSTqfSxkiZEkv847TqTA5GfipWFZcQDsS" ] },
      { "delegate": "tz1aRoaRhSpRYvFdyvgWLL6TGyRoGF51wDjM",
        "reception_time": "2022-01-16T20:55:52.822-00:00",
        "included_in_blocks":
          [ "BLtHst45QD4E6amQNfCSTqfSxkiZEkv847TqTA5GfipWFZcQDsS" ] },
      { "delegate": "tz1gg5bjopPcr9agjamyu9BbXKLibNc2rbAq",
        "reception_time": "2022-01-16T20:55:53.738-00:00",
        "included_in_blocks":
          [ "BLtHst45QD4E6amQNfCSTqfSxkiZEkv847TqTA5GfipWFZcQDsS" ] },
      { "delegate": "tz1S3ZahYq7fqZQ5bq4qCLsTWgPUzQhfAswy",
        "reception_time": "2022-01-16T20:56:00.089-00:00",
        "included_in_blocks":
          [ "BLtHst45QD4E6amQNfCSTqfSxkiZEkv847TqTA5GfipWFZcQDsS" ] } ] }