{ "blocks":
    [ { "hash": "BLAGN5GS1peVF878zVtYhYeEcAUMriULMkckHC4m62oR19AiR4W",
        "delegate": "tz1irJKkXS2DBWkU1NnmFQx1c1L7pbGg4yhk",
        "reception_time": "2022-01-16T19:52:16.839-00:00",
        "timestamp": "2022-01-16T19:52:10Z" } ],
  "endorsements":
    [ { "delegate": "tz1RjoHc98dBoqaH2jawF62XNKh7YsHwbkEv" },
      { "delegate": "tz1RV1MBbZMR68tacosb7Mwj6LkbPSUS1er1",
        "reception_time": "2022-01-16T19:52:16.647-00:00",
        "errors":
          [ { "kind": "temporary",
              "id": "proto.011-PtHangz2.prefilter.outdated_endorsement" } ],
        "included_in_blocks":
          [ "BMAxx8MDamQ9ktPNcF5caG2kMTAeFu2T7y6MuxHab8p1TNmSxFa" ] },
      { "delegate": "tz1eEnQhbwf6trb8Q8mPb2RaPkNk2rN7BKi8",
        "reception_time": "2022-01-16T19:52:16.394-00:00",
        "errors":
          [ { "kind": "temporary",
              "id": "proto.011-PtHangz2.prefilter.outdated_endorsement" } ],
        "included_in_blocks":
          [ "BMAxx8MDamQ9ktPNcF5caG2kMTAeFu2T7y6MuxHab8p1TNmSxFa" ] },
      { "delegate": "tz1TXzyaKUA8wsWefdSnyaYFnV2M3vCV7er9",
        "reception_time": "2022-01-16T19:52:16.239-00:00",
        "errors":
          [ { "kind": "temporary",
              "id": "proto.011-PtHangz2.prefilter.outdated_endorsement" } ],
        "included_in_blocks":
          [ "BMAxx8MDamQ9ktPNcF5caG2kMTAeFu2T7y6MuxHab8p1TNmSxFa" ] },
      { "delegate": "tz1bkESY3QKVUwboioG5vSbGiS9GRwHdB4xB",
        "reception_time": "2022-01-16T19:52:16.234-00:00",
        "errors":
          [ { "kind": "temporary",
              "id": "proto.011-PtHangz2.prefilter.outdated_endorsement" } ],
        "included_in_blocks":
          [ "BMAxx8MDamQ9ktPNcF5caG2kMTAeFu2T7y6MuxHab8p1TNmSxFa" ] },
      { "delegate": "tz1irJKkXS2DBWkU1NnmFQx1c1L7pbGg4yhk",
        "reception_time": "2022-01-16T19:52:16.227-00:00",
        "errors":
          [ { "kind": "temporary",
              "id": "proto.011-PtHangz2.prefilter.outdated_endorsement" } ],
        "included_in_blocks":
          [ "BMAxx8MDamQ9ktPNcF5caG2kMTAeFu2T7y6MuxHab8p1TNmSxFa" ] },
      { "delegate": "tz1XXayQohB8XRXN7kMoHbf2NFwNiH3oMRQQ",
        "reception_time": "2022-01-16T19:52:16.155-00:00",
        "errors":
          [ { "kind": "temporary",
              "id": "proto.011-PtHangz2.prefilter.outdated_endorsement" } ],
        "included_in_blocks":
          [ "BMAxx8MDamQ9ktPNcF5caG2kMTAeFu2T7y6MuxHab8p1TNmSxFa" ] },
      { "delegate": "tz1P2Po7YM526ughEsRbY4oR9zaUPDZjxFrb",
        "reception_time": "2022-01-16T19:52:15.972-00:00",
        "errors":
          [ { "kind": "temporary",
              "id": "proto.011-PtHangz2.prefilter.outdated_endorsement" } ],
        "included_in_blocks":
          [ "BMAxx8MDamQ9ktPNcF5caG2kMTAeFu2T7y6MuxHab8p1TNmSxFa" ] },
      { "delegate": "tz3e7LbZvUtoXhpUD1yb6wuFodZpfYRb9nWJ",
        "reception_time": "2022-01-16T19:52:26.599-00:00",
        "included_in_blocks":
          [ "BMAxx8MDamQ9ktPNcF5caG2kMTAeFu2T7y6MuxHab8p1TNmSxFa" ] },
      { "delegate": "tz1ZdSQibskQwRdiaFUh7RUVm1Z6xudMedoj",
        "reception_time": "2022-01-16T19:52:22.752-00:00",
        "included_in_blocks":
          [ "BMAxx8MDamQ9ktPNcF5caG2kMTAeFu2T7y6MuxHab8p1TNmSxFa" ] },
      { "delegate": "tz1PFeoTuFen8jAMRHajBySNyCwLmY5RqF9M",
        "reception_time": "2022-01-16T19:52:21.953-00:00",
        "included_in_blocks":
          [ "BMAxx8MDamQ9ktPNcF5caG2kMTAeFu2T7y6MuxHab8p1TNmSxFa" ] },
      { "delegate": "tz3NExpXn9aPNZPorRE4SdjJ2RGrfbJgMAaV",
        "reception_time": "2022-01-16T19:52:20.076-00:00",
        "included_in_blocks":
          [ "BMAxx8MDamQ9ktPNcF5caG2kMTAeFu2T7y6MuxHab8p1TNmSxFa" ] },
      { "delegate": "tz1d6Fx42mYgVFnHUW8T8A7WBfJ6nD9pVok8",
        "reception_time": "2022-01-16T19:52:20.088-00:00",
        "included_in_blocks":
          [ "BMAxx8MDamQ9ktPNcF5caG2kMTAeFu2T7y6MuxHab8p1TNmSxFa" ] },
      { "delegate": "tz1ZcTRk5uxD86EFEn1vvNffWWqJy7q5eVhc",
        "reception_time": "2022-01-16T19:52:20.081-00:00",
        "included_in_blocks":
          [ "BMAxx8MDamQ9ktPNcF5caG2kMTAeFu2T7y6MuxHab8p1TNmSxFa" ] },
      { "delegate": "tz3UoffC7FG7zfpmvmjUmUeAaHvzdcUvAj6r",
        "reception_time": "2022-01-16T19:52:19.736-00:00",
        "included_in_blocks":
          [ "BMAxx8MDamQ9ktPNcF5caG2kMTAeFu2T7y6MuxHab8p1TNmSxFa" ] },
      { "delegate": "tz1T7duV5gZWSTq4YpBGbXNLTfznCLDrFxvs",
        "reception_time": "2022-01-16T19:52:19.783-00:00",
        "included_in_blocks":
          [ "BMAxx8MDamQ9ktPNcF5caG2kMTAeFu2T7y6MuxHab8p1TNmSxFa" ] },
      { "delegate": "tz1Z2jXfEXL7dXhs6bsLmyLFLfmAkXBzA9WE",
        "reception_time": "2022-01-16T19:52:19.628-00:00",
        "included_in_blocks":
          [ "BMAxx8MDamQ9ktPNcF5caG2kMTAeFu2T7y6MuxHab8p1TNmSxFa" ] },
      { "delegate": "tz3gLTu4Yxj8tPAcriQVUdxv6BY9QyvzU1az",
        "reception_time": "2022-01-16T19:52:19.451-00:00",
        "included_in_blocks":
          [ "BMAxx8MDamQ9ktPNcF5caG2kMTAeFu2T7y6MuxHab8p1TNmSxFa" ] },
      { "delegate": "tz1aRoaRhSpRYvFdyvgWLL6TGyRoGF51wDjM",
        "reception_time": "2022-01-16T19:52:19.459-00:00",
        "included_in_blocks":
          [ "BMAxx8MDamQ9ktPNcF5caG2kMTAeFu2T7y6MuxHab8p1TNmSxFa" ] },
      { "delegate": "tz3NDpRj6WBrJPikcPVHRBEjWKxFw3c6eQPS",
        "reception_time": "2022-01-16T19:52:19.442-00:00",
        "included_in_blocks":
          [ "BMAxx8MDamQ9ktPNcF5caG2kMTAeFu2T7y6MuxHab8p1TNmSxFa" ] },
      { "delegate": "tz3WMqdzXqRWXwyvj5Hp2H7QEepaUuS7vd9K",
        "reception_time": "2022-01-16T19:52:19.362-00:00",
        "included_in_blocks":
          [ "BMAxx8MDamQ9ktPNcF5caG2kMTAeFu2T7y6MuxHab8p1TNmSxFa" ] },
      { "delegate": "tz1NuUu12WHdW3jHqvkujGHsiTi46Wvw1ci1",
        "reception_time": "2022-01-16T19:52:19.354-00:00",
        "included_in_blocks":
          [ "BMAxx8MDamQ9ktPNcF5caG2kMTAeFu2T7y6MuxHab8p1TNmSxFa" ] },
      { "delegate": "tz1dRKU4FQ9QRRQPdaH4zCR6gmCmXfcvcgtB",
        "reception_time": "2022-01-16T19:52:19.326-00:00",
        "included_in_blocks":
          [ "BMAxx8MDamQ9ktPNcF5caG2kMTAeFu2T7y6MuxHab8p1TNmSxFa" ] },
      { "delegate": "tz3RDC3Jdn4j15J7bBHZd29EUee9gVB1CxD9",
        "reception_time": "2022-01-16T19:52:19.318-00:00",
        "included_in_blocks":
          [ "BMAxx8MDamQ9ktPNcF5caG2kMTAeFu2T7y6MuxHab8p1TNmSxFa" ] },
      { "delegate": "tz1bTpviNnyx2PXsNmGpCQTMQsGoYordkUoA",
        "reception_time": "2022-01-16T19:52:19.190-00:00",
        "included_in_blocks":
          [ "BMAxx8MDamQ9ktPNcF5caG2kMTAeFu2T7y6MuxHab8p1TNmSxFa" ] },
      { "delegate": "tz3VEZ4k6a4Wx42iyev6i2aVAptTRLEAivNN",
        "reception_time": "2022-01-16T19:52:19.274-00:00",
        "included_in_blocks":
          [ "BMAxx8MDamQ9ktPNcF5caG2kMTAeFu2T7y6MuxHab8p1TNmSxFa" ] },
      { "delegate": "tz1dNVDWPf3Q59SdJqnjdnu277iyvReiRS9M",
        "reception_time": "2022-01-16T19:52:19.243-00:00",
        "included_in_blocks":
          [ "BMAxx8MDamQ9ktPNcF5caG2kMTAeFu2T7y6MuxHab8p1TNmSxFa" ] },
      { "delegate": "tz1gfArv665EUkSg2ojMBzcbfwuPxAvqPvjo",
        "reception_time": "2022-01-16T19:52:19.170-00:00",
        "included_in_blocks":
          [ "BMAxx8MDamQ9ktPNcF5caG2kMTAeFu2T7y6MuxHab8p1TNmSxFa" ] },
      { "delegate": "tz1awXW7wuXy21c66vBudMXQVAPgRnqqwgTH",
        "reception_time": "2022-01-16T19:52:19.149-00:00",
        "included_in_blocks":
          [ "BMAxx8MDamQ9ktPNcF5caG2kMTAeFu2T7y6MuxHab8p1TNmSxFa" ] },
      { "delegate": "tz3RB4aoyjov4KEVRbuhvQ1CKJgBJMWhaeB8",
        "reception_time": "2022-01-16T19:52:19.007-00:00",
        "included_in_blocks":
          [ "BMAxx8MDamQ9ktPNcF5caG2kMTAeFu2T7y6MuxHab8p1TNmSxFa" ] },
      { "delegate": "tz1g8vkmcde6sWKaG2NN9WKzCkDM6Rziq194",
        "reception_time": "2022-01-16T19:52:18.965-00:00",
        "included_in_blocks":
          [ "BMAxx8MDamQ9ktPNcF5caG2kMTAeFu2T7y6MuxHab8p1TNmSxFa" ] },
      { "delegate": "tz1PeZx7FXy7QRuMREGXGxeipb24RsMMzUNe",
        "reception_time": "2022-01-16T19:52:18.968-00:00",
        "included_in_blocks":
          [ "BMAxx8MDamQ9ktPNcF5caG2kMTAeFu2T7y6MuxHab8p1TNmSxFa" ] },
      { "delegate": "tz1TRqbYbUf2GyrjErf3hBzgBJPzW8y36qEs",
        "reception_time": "2022-01-16T19:52:18.939-00:00",
        "included_in_blocks":
          [ "BMAxx8MDamQ9ktPNcF5caG2kMTAeFu2T7y6MuxHab8p1TNmSxFa" ] },
      { "delegate": "tz1UMCB2AHSTwG7YcGNr31CqYCtGN873royv",
        "reception_time": "2022-01-16T19:52:18.996-00:00",
        "included_in_blocks":
          [ "BMAxx8MDamQ9ktPNcF5caG2kMTAeFu2T7y6MuxHab8p1TNmSxFa" ] },
      { "delegate": "tz1Tnjaxk6tbAeC2TmMApPh8UsrEVQvhHvx5",
        "reception_time": "2022-01-16T19:52:18.810-00:00",
        "included_in_blocks":
          [ "BMAxx8MDamQ9ktPNcF5caG2kMTAeFu2T7y6MuxHab8p1TNmSxFa" ] },
      { "delegate": "tz1SYq214SCBy9naR6cvycQsYcUGpBqQAE8d",
        "reception_time": "2022-01-16T19:52:19.075-00:00",
        "included_in_blocks":
          [ "BMAxx8MDamQ9ktPNcF5caG2kMTAeFu2T7y6MuxHab8p1TNmSxFa" ] },
      { "delegate": "tz1WBfwbT66FC6BTLexc2BoyCCBM9LG7pnVW",
        "reception_time": "2022-01-16T19:52:18.987-00:00",
        "included_in_blocks":
          [ "BMAxx8MDamQ9ktPNcF5caG2kMTAeFu2T7y6MuxHab8p1TNmSxFa" ] },
      { "delegate": "tz1fwnfJNgiDACshK9avfRfFbMaXrs3ghoJa",
        "reception_time": "2022-01-16T19:52:18.984-00:00",
        "included_in_blocks":
          [ "BMAxx8MDamQ9ktPNcF5caG2kMTAeFu2T7y6MuxHab8p1TNmSxFa" ] },
      { "delegate": "tz3bvNMQ95vfAYtG8193ymshqjSvmxiCUuR5",
        "reception_time": "2022-01-16T19:52:18.981-00:00",
        "included_in_blocks":
          [ "BMAxx8MDamQ9ktPNcF5caG2kMTAeFu2T7y6MuxHab8p1TNmSxFa" ] },
      { "delegate": "tz1KfEsrtDaA1sX7vdM4qmEPWuSytuqCDp5j",
        "reception_time": "2022-01-16T19:52:19.015-00:00",
        "included_in_blocks":
          [ "BMAxx8MDamQ9ktPNcF5caG2kMTAeFu2T7y6MuxHab8p1TNmSxFa" ] },
      { "delegate": "tz1RCFbB9GpALpsZtu6J58sb74dm8qe6XBzv",
        "reception_time": "2022-01-16T19:52:18.999-00:00",
        "included_in_blocks":
          [ "BMAxx8MDamQ9ktPNcF5caG2kMTAeFu2T7y6MuxHab8p1TNmSxFa" ] },
      { "delegate": "tz2FCNBrERXtaTtNX6iimR1UJ5JSDxvdHM93",
        "reception_time": "2022-01-16T19:52:18.955-00:00",
        "included_in_blocks":
          [ "BMAxx8MDamQ9ktPNcF5caG2kMTAeFu2T7y6MuxHab8p1TNmSxFa" ] },
      { "delegate": "tz1Nf6tsK4G6bBqgSQERy4nUtkHNKUVdh7q1",
        "reception_time": "2022-01-16T19:52:18.778-00:00",
        "included_in_blocks":
          [ "BMAxx8MDamQ9ktPNcF5caG2kMTAeFu2T7y6MuxHab8p1TNmSxFa" ] },
      { "delegate": "tz1aDiEJf9ztRrAJEXZfcG3CKimoKsGhwVAi",
        "reception_time": "2022-01-16T19:52:18.992-00:00",
        "included_in_blocks":
          [ "BMAxx8MDamQ9ktPNcF5caG2kMTAeFu2T7y6MuxHab8p1TNmSxFa" ] },
      { "delegate": "tz1YhNsiRRU8aHNGg7NK3uuP6UDAyacJernB",
        "reception_time": "2022-01-16T19:52:18.540-00:00",
        "included_in_blocks":
          [ "BMAxx8MDamQ9ktPNcF5caG2kMTAeFu2T7y6MuxHab8p1TNmSxFa" ] },
      { "delegate": "tz3bTdwZinP8U1JmSweNzVKhmwafqWmFWRfk",
        "reception_time": "2022-01-16T19:52:18.570-00:00",
        "included_in_blocks":
          [ "BMAxx8MDamQ9ktPNcF5caG2kMTAeFu2T7y6MuxHab8p1TNmSxFa" ] },
      { "delegate": "tz1ei4WtWEMEJekSv8qDnu9PExG6Q8HgRGr3",
        "reception_time": "2022-01-16T19:52:18.496-00:00",
        "included_in_blocks":
          [ "BMAxx8MDamQ9ktPNcF5caG2kMTAeFu2T7y6MuxHab8p1TNmSxFa" ] },
      { "delegate": "tz1V4qCyvPKZ5UeqdH14HN42rxvNPQfc9UZg",
        "reception_time": "2022-01-16T19:52:18.606-00:00",
        "included_in_blocks":
          [ "BMAxx8MDamQ9ktPNcF5caG2kMTAeFu2T7y6MuxHab8p1TNmSxFa" ] },
      { "delegate": "tz1S8MNvuFEUsWgjHvi3AxibRBf388NhT1q2",
        "reception_time": "2022-01-16T19:52:18.796-00:00",
        "included_in_blocks":
          [ "BMAxx8MDamQ9ktPNcF5caG2kMTAeFu2T7y6MuxHab8p1TNmSxFa" ] },
      { "delegate": "tz3S6BBeKgJGXxvLyZ1xzXzMPn11nnFtq5L9",
        "reception_time": "2022-01-16T19:52:18.557-00:00",
        "included_in_blocks":
          [ "BMAxx8MDamQ9ktPNcF5caG2kMTAeFu2T7y6MuxHab8p1TNmSxFa" ] },
      { "delegate": "tz1bHzftcTKZMTZgLLtnrXydCm6UEqf4ivca",
        "reception_time": "2022-01-16T19:52:18.480-00:00",
        "included_in_blocks":
          [ "BMAxx8MDamQ9ktPNcF5caG2kMTAeFu2T7y6MuxHab8p1TNmSxFa" ] },
      { "delegate": "tz3QT9dHYKDqh563chVa6za8526ys1UKfRfL",
        "reception_time": "2022-01-16T19:52:18.427-00:00",
        "included_in_blocks":
          [ "BMAxx8MDamQ9ktPNcF5caG2kMTAeFu2T7y6MuxHab8p1TNmSxFa" ] },
      { "delegate": "tz3Zhs2dygr55yHyQyKjntAtY9bgfhLZ4Xj1",
        "reception_time": "2022-01-16T19:52:18.355-00:00",
        "included_in_blocks":
          [ "BMAxx8MDamQ9ktPNcF5caG2kMTAeFu2T7y6MuxHab8p1TNmSxFa" ] },
      { "delegate": "tz1gUNyn3hmnEWqkusWPzxRaon1cs7ndWh7h",
        "reception_time": "2022-01-16T19:52:18.487-00:00",
        "included_in_blocks":
          [ "BMAxx8MDamQ9ktPNcF5caG2kMTAeFu2T7y6MuxHab8p1TNmSxFa" ] },
      { "delegate": "tz1VQnqCCqX4K5sP3FNkVSNKTdCAMJDd3E1n",
        "reception_time": "2022-01-16T19:52:18.358-00:00",
        "included_in_blocks":
          [ "BMAxx8MDamQ9ktPNcF5caG2kMTAeFu2T7y6MuxHab8p1TNmSxFa" ] },
      { "delegate": "tz1fPKAtsYydh4f1wfWNfeNxWYu72TmM48fu",
        "reception_time": "2022-01-16T19:52:18.531-00:00",
        "included_in_blocks":
          [ "BMAxx8MDamQ9ktPNcF5caG2kMTAeFu2T7y6MuxHab8p1TNmSxFa" ] },
      { "delegate": "tz3NxTnke1acr8o3h5y9ytf5awQBGNJUKzVU",
        "reception_time": "2022-01-16T19:52:18.526-00:00",
        "included_in_blocks":
          [ "BMAxx8MDamQ9ktPNcF5caG2kMTAeFu2T7y6MuxHab8p1TNmSxFa" ] },
      { "delegate": "tz3ZbP2pM3nwvXztbuMJwJnDvV5xdpU8UkkD",
        "reception_time": "2022-01-16T19:52:18.652-00:00",
        "included_in_blocks":
          [ "BMAxx8MDamQ9ktPNcF5caG2kMTAeFu2T7y6MuxHab8p1TNmSxFa" ] },
      { "delegate": "tz3QSGPoRp3Kn7n3vY24eYeu3Peuqo45LQ4D",
        "reception_time": "2022-01-16T19:52:18.557-00:00",
        "included_in_blocks":
          [ "BMAxx8MDamQ9ktPNcF5caG2kMTAeFu2T7y6MuxHab8p1TNmSxFa" ] },
      { "delegate": "tz3RKYFsLuQzKBtmYuLNas7uMu3AsYd4QdsA",
        "reception_time": "2022-01-16T19:52:18.386-00:00",
        "included_in_blocks":
          [ "BMAxx8MDamQ9ktPNcF5caG2kMTAeFu2T7y6MuxHab8p1TNmSxFa" ] },
      { "delegate": "tz1VmiY38m3y95HqQLjMwqnMS7sdMfGomzKi",
        "reception_time": "2022-01-16T19:52:18.312-00:00",
        "included_in_blocks":
          [ "BMAxx8MDamQ9ktPNcF5caG2kMTAeFu2T7y6MuxHab8p1TNmSxFa" ] },
      { "delegate": "tz1Kf25fX1VdmYGSEzwFy1wNmkbSEZ2V83sY",
        "reception_time": "2022-01-16T19:52:18.393-00:00",
        "included_in_blocks":
          [ "BMAxx8MDamQ9ktPNcF5caG2kMTAeFu2T7y6MuxHab8p1TNmSxFa" ] },
      { "delegate": "tz1WCd2jm4uSt4vntk4vSuUWoZQGhLcDuR9q",
        "reception_time": "2022-01-16T19:52:18.265-00:00",
        "included_in_blocks":
          [ "BMAxx8MDamQ9ktPNcF5caG2kMTAeFu2T7y6MuxHab8p1TNmSxFa" ] },
      { "delegate": "tz1PWCDnz783NNGGQjEFFsHtrcK5yBW4E2rm",
        "reception_time": "2022-01-16T19:52:18.227-00:00",
        "included_in_blocks":
          [ "BMAxx8MDamQ9ktPNcF5caG2kMTAeFu2T7y6MuxHab8p1TNmSxFa" ] },
      { "delegate": "tz1bsdrs36X5BTH83RHUBdUouKLJZK8d2oBa",
        "reception_time": "2022-01-16T19:52:18.143-00:00",
        "included_in_blocks":
          [ "BMAxx8MDamQ9ktPNcF5caG2kMTAeFu2T7y6MuxHab8p1TNmSxFa" ] },
      { "delegate": "tz1TzaNn7wSQSP5gYPXCnNzBCpyMiidCq1PX",
        "reception_time": "2022-01-16T19:52:18.279-00:00",
        "included_in_blocks":
          [ "BMAxx8MDamQ9ktPNcF5caG2kMTAeFu2T7y6MuxHab8p1TNmSxFa" ] },
      { "delegate": "tz1Ldzz6k1BHdhuKvAtMRX7h5kJSMHESMHLC",
        "reception_time": "2022-01-16T19:52:18.215-00:00",
        "included_in_blocks":
          [ "BMAxx8MDamQ9ktPNcF5caG2kMTAeFu2T7y6MuxHab8p1TNmSxFa" ] },
      { "delegate": "tz1NMdMmWZN8QPB8pY4ddncACDg1cHi1xD2e",
        "reception_time": "2022-01-16T19:52:17.795-00:00",
        "included_in_blocks":
          [ "BMAxx8MDamQ9ktPNcF5caG2kMTAeFu2T7y6MuxHab8p1TNmSxFa" ] } ] }