{ "blocks":
    [ { "hash": "BLx4T1tn39YeWGJmMbKF9AWpMKSzEdgTu4RskN27XcQJrgB3uCL",
        "delegate": "tz3NxTnke1acr8o3h5y9ytf5awQBGNJUKzVU",
        "reception_time": "2022-01-16T21:55:45.591-00:00",
        "timestamp": "2022-01-16T21:55:40Z" } ],
  "endorsements":
    [ { "delegate": "tz1RjoHc98dBoqaH2jawF62XNKh7YsHwbkEv" },
      { "delegate": "tz1NpWrAyDL9k2Lmnyxcgr9xuJakbBxdq7FB",
        "reception_time": "2022-01-16T21:56:00.188-00:00",
        "included_in_blocks":
          [ "BKnBtoHNDdN8Q3NLpRBcD2WvHfCoyigg5JWnntKNmfZUM5g9i1J" ] },
      { "delegate": "tz1ZdSQibskQwRdiaFUh7RUVm1Z6xudMedoj",
        "reception_time": "2022-01-16T21:55:52.390-00:00",
        "included_in_blocks":
          [ "BKnBtoHNDdN8Q3NLpRBcD2WvHfCoyigg5JWnntKNmfZUM5g9i1J" ] },
      { "delegate": "tz1eVaNx3gCmG1EsLjijkmgAxdLYVf6Bf5Sq",
        "reception_time": "2022-01-16T21:55:50.911-00:00",
        "included_in_blocks":
          [ "BKnBtoHNDdN8Q3NLpRBcD2WvHfCoyigg5JWnntKNmfZUM5g9i1J" ] },
      { "delegate": "tz3NExpXn9aPNZPorRE4SdjJ2RGrfbJgMAaV",
        "reception_time": "2022-01-16T21:55:50.312-00:00",
        "included_in_blocks":
          [ "BKnBtoHNDdN8Q3NLpRBcD2WvHfCoyigg5JWnntKNmfZUM5g9i1J" ] },
      { "delegate": "tz1i3mhawFAgcB8JHaHwoUF6hdncwTAkLEn2",
        "reception_time": "2022-01-16T21:55:50.166-00:00",
        "included_in_blocks":
          [ "BKnBtoHNDdN8Q3NLpRBcD2WvHfCoyigg5JWnntKNmfZUM5g9i1J" ] },
      { "delegate": "tz1Z9M4biBHSiH38k5ciRMjR5bgk89yEgLTz",
        "reception_time": "2022-01-16T21:55:50.143-00:00",
        "included_in_blocks":
          [ "BKnBtoHNDdN8Q3NLpRBcD2WvHfCoyigg5JWnntKNmfZUM5g9i1J" ] },
      { "delegate": "tz1ZcTRk5uxD86EFEn1vvNffWWqJy7q5eVhc",
        "reception_time": "2022-01-16T21:55:49.819-00:00",
        "included_in_blocks":
          [ "BKnBtoHNDdN8Q3NLpRBcD2WvHfCoyigg5JWnntKNmfZUM5g9i1J" ] },
      { "delegate": "tz3UoffC7FG7zfpmvmjUmUeAaHvzdcUvAj6r",
        "reception_time": "2022-01-16T21:55:49.679-00:00",
        "included_in_blocks":
          [ "BKnBtoHNDdN8Q3NLpRBcD2WvHfCoyigg5JWnntKNmfZUM5g9i1J" ] },
      { "delegate": "tz1Xsrfv6hn86fp88YfRs6xcKwt2nTqxVZYM",
        "reception_time": "2022-01-16T21:55:49.798-00:00",
        "included_in_blocks":
          [ "BKnBtoHNDdN8Q3NLpRBcD2WvHfCoyigg5JWnntKNmfZUM5g9i1J" ] },
      { "delegate": "tz1T7duV5gZWSTq4YpBGbXNLTfznCLDrFxvs",
        "reception_time": "2022-01-16T21:55:49.115-00:00",
        "included_in_blocks":
          [ "BKnBtoHNDdN8Q3NLpRBcD2WvHfCoyigg5JWnntKNmfZUM5g9i1J" ] },
      { "delegate": "tz3RB4aoyjov4KEVRbuhvQ1CKJgBJMWhaeB8",
        "reception_time": "2022-01-16T21:55:49.013-00:00",
        "included_in_blocks":
          [ "BKnBtoHNDdN8Q3NLpRBcD2WvHfCoyigg5JWnntKNmfZUM5g9i1J" ] },
      { "delegate": "tz1YhNsiRRU8aHNGg7NK3uuP6UDAyacJernB",
        "reception_time": "2022-01-16T21:55:48.749-00:00",
        "included_in_blocks":
          [ "BKnBtoHNDdN8Q3NLpRBcD2WvHfCoyigg5JWnntKNmfZUM5g9i1J" ] },
      { "delegate": "tz3VEZ4k6a4Wx42iyev6i2aVAptTRLEAivNN",
        "reception_time": "2022-01-16T21:55:48.982-00:00",
        "included_in_blocks":
          [ "BKnBtoHNDdN8Q3NLpRBcD2WvHfCoyigg5JWnntKNmfZUM5g9i1J" ] },
      { "delegate": "tz1M1gA1hgmmLf8VvtAwupbWCkaciQZMFbvi",
        "reception_time": "2022-01-16T21:55:48.807-00:00",
        "included_in_blocks":
          [ "BKnBtoHNDdN8Q3NLpRBcD2WvHfCoyigg5JWnntKNmfZUM5g9i1J" ] },
      { "delegate": "tz1WBfwbT66FC6BTLexc2BoyCCBM9LG7pnVW",
        "reception_time": "2022-01-16T21:55:48.817-00:00",
        "included_in_blocks":
          [ "BKnBtoHNDdN8Q3NLpRBcD2WvHfCoyigg5JWnntKNmfZUM5g9i1J" ] },
      { "delegate": "tz1QXrzaHrGACVn15UiCg33aLCJ6npWdQb3J",
        "reception_time": "2022-01-16T21:55:48.879-00:00",
        "included_in_blocks":
          [ "BKnBtoHNDdN8Q3NLpRBcD2WvHfCoyigg5JWnntKNmfZUM5g9i1J" ] },
      { "delegate": "tz1c8TSSGtVtg7ANrNVY7G4KnLn7iKdRnUVk",
        "reception_time": "2022-01-16T21:55:48.889-00:00",
        "included_in_blocks":
          [ "BKnBtoHNDdN8Q3NLpRBcD2WvHfCoyigg5JWnntKNmfZUM5g9i1J" ] },
      { "delegate": "tz1TRqbYbUf2GyrjErf3hBzgBJPzW8y36qEs",
        "reception_time": "2022-01-16T21:55:48.459-00:00",
        "included_in_blocks":
          [ "BKnBtoHNDdN8Q3NLpRBcD2WvHfCoyigg5JWnntKNmfZUM5g9i1J" ] },
      { "delegate": "tz3NDpRj6WBrJPikcPVHRBEjWKxFw3c6eQPS",
        "reception_time": "2022-01-16T21:55:48.402-00:00",
        "included_in_blocks":
          [ "BKnBtoHNDdN8Q3NLpRBcD2WvHfCoyigg5JWnntKNmfZUM5g9i1J" ] },
      { "delegate": "tz1X4Qb9NJ7JEuitX3jFpZptuAh7DUnCaLs1",
        "reception_time": "2022-01-16T21:55:48.755-00:00",
        "included_in_blocks":
          [ "BKnBtoHNDdN8Q3NLpRBcD2WvHfCoyigg5JWnntKNmfZUM5g9i1J" ] },
      { "delegate": "tz1MQJPGNMijnXnVoBENFz9rUhaPt3S7rWoz",
        "reception_time": "2022-01-16T21:55:48.798-00:00",
        "included_in_blocks":
          [ "BKnBtoHNDdN8Q3NLpRBcD2WvHfCoyigg5JWnntKNmfZUM5g9i1J" ] },
      { "delegate": "tz1PeZx7FXy7QRuMREGXGxeipb24RsMMzUNe",
        "reception_time": "2022-01-16T21:55:48.424-00:00",
        "included_in_blocks":
          [ "BKnBtoHNDdN8Q3NLpRBcD2WvHfCoyigg5JWnntKNmfZUM5g9i1J" ] },
      { "delegate": "tz1SohptP53wDPZhzTWzDUFAUcWF6DMBpaJV",
        "reception_time": "2022-01-16T21:55:48.407-00:00",
        "included_in_blocks":
          [ "BKnBtoHNDdN8Q3NLpRBcD2WvHfCoyigg5JWnntKNmfZUM5g9i1J" ] },
      { "delegate": "tz3WMqdzXqRWXwyvj5Hp2H7QEepaUuS7vd9K",
        "reception_time": "2022-01-16T21:55:48.373-00:00",
        "included_in_blocks":
          [ "BKnBtoHNDdN8Q3NLpRBcD2WvHfCoyigg5JWnntKNmfZUM5g9i1J" ] },
      { "delegate": "tz1aRoaRhSpRYvFdyvgWLL6TGyRoGF51wDjM",
        "reception_time": "2022-01-16T21:55:49.696-00:00",
        "included_in_blocks":
          [ "BKnBtoHNDdN8Q3NLpRBcD2WvHfCoyigg5JWnntKNmfZUM5g9i1J" ] },
      { "delegate": "tz1WctSwL49BZtdWAQ75NY6vr4xsAx6oKdah",
        "reception_time": "2022-01-16T21:55:48.168-00:00",
        "included_in_blocks":
          [ "BKnBtoHNDdN8Q3NLpRBcD2WvHfCoyigg5JWnntKNmfZUM5g9i1J" ] },
      { "delegate": "tz1gfArv665EUkSg2ojMBzcbfwuPxAvqPvjo",
        "reception_time": "2022-01-16T21:55:48.126-00:00",
        "included_in_blocks":
          [ "BKnBtoHNDdN8Q3NLpRBcD2WvHfCoyigg5JWnntKNmfZUM5g9i1J" ] },
      { "delegate": "tz2FCNBrERXtaTtNX6iimR1UJ5JSDxvdHM93",
        "reception_time": "2022-01-16T21:55:48.144-00:00",
        "included_in_blocks":
          [ "BKnBtoHNDdN8Q3NLpRBcD2WvHfCoyigg5JWnntKNmfZUM5g9i1J" ] },
      { "delegate": "tz1KfEsrtDaA1sX7vdM4qmEPWuSytuqCDp5j",
        "reception_time": "2022-01-16T21:55:48.086-00:00",
        "included_in_blocks":
          [ "BKnBtoHNDdN8Q3NLpRBcD2WvHfCoyigg5JWnntKNmfZUM5g9i1J" ] },
      { "delegate": "tz1LmaFsWRkjr7QMCx5PtV6xTUz3AmEpKQiF",
        "reception_time": "2022-01-16T21:55:47.949-00:00",
        "included_in_blocks":
          [ "BKnBtoHNDdN8Q3NLpRBcD2WvHfCoyigg5JWnntKNmfZUM5g9i1J" ] },
      { "delegate": "tz1hAYfexyzPGG6RhZZMpDvAHifubsbb6kgn",
        "reception_time": "2022-01-16T21:55:48.002-00:00",
        "included_in_blocks":
          [ "BKnBtoHNDdN8Q3NLpRBcD2WvHfCoyigg5JWnntKNmfZUM5g9i1J" ] },
      { "delegate": "tz3bvNMQ95vfAYtG8193ymshqjSvmxiCUuR5",
        "reception_time": "2022-01-16T21:55:47.852-00:00",
        "included_in_blocks":
          [ "BKnBtoHNDdN8Q3NLpRBcD2WvHfCoyigg5JWnntKNmfZUM5g9i1J" ] },
      { "delegate": "tz1Nf6tsK4G6bBqgSQERy4nUtkHNKUVdh7q1",
        "reception_time": "2022-01-16T21:55:47.623-00:00",
        "included_in_blocks":
          [ "BKnBtoHNDdN8Q3NLpRBcD2WvHfCoyigg5JWnntKNmfZUM5g9i1J" ] },
      { "delegate": "tz1g8vkmcde6sWKaG2NN9WKzCkDM6Rziq194",
        "reception_time": "2022-01-16T21:55:47.865-00:00",
        "included_in_blocks":
          [ "BKnBtoHNDdN8Q3NLpRBcD2WvHfCoyigg5JWnntKNmfZUM5g9i1J" ] },
      { "delegate": "tz1Tnjaxk6tbAeC2TmMApPh8UsrEVQvhHvx5",
        "reception_time": "2022-01-16T21:55:47.754-00:00",
        "included_in_blocks":
          [ "BKnBtoHNDdN8Q3NLpRBcD2WvHfCoyigg5JWnntKNmfZUM5g9i1J" ] },
      { "delegate": "tz1P2Po7YM526ughEsRbY4oR9zaUPDZjxFrb",
        "reception_time": "2022-01-16T21:55:47.570-00:00",
        "included_in_blocks":
          [ "BKnBtoHNDdN8Q3NLpRBcD2WvHfCoyigg5JWnntKNmfZUM5g9i1J" ] },
      { "delegate": "tz1NEKxGEHsFufk87CVZcrqWu8o22qh46GK6",
        "reception_time": "2022-01-16T21:55:47.881-00:00",
        "included_in_blocks":
          [ "BKnBtoHNDdN8Q3NLpRBcD2WvHfCoyigg5JWnntKNmfZUM5g9i1J" ] },
      { "delegate": "tz1RCFbB9GpALpsZtu6J58sb74dm8qe6XBzv",
        "reception_time": "2022-01-16T21:55:47.696-00:00",
        "included_in_blocks":
          [ "BKnBtoHNDdN8Q3NLpRBcD2WvHfCoyigg5JWnntKNmfZUM5g9i1J" ] },
      { "delegate": "tz1fwnfJNgiDACshK9avfRfFbMaXrs3ghoJa",
        "reception_time": "2022-01-16T21:55:47.758-00:00",
        "included_in_blocks":
          [ "BKnBtoHNDdN8Q3NLpRBcD2WvHfCoyigg5JWnntKNmfZUM5g9i1J" ] },
      { "delegate": "tz1S8MNvuFEUsWgjHvi3AxibRBf388NhT1q2",
        "reception_time": "2022-01-16T21:55:47.575-00:00",
        "included_in_blocks":
          [ "BKnBtoHNDdN8Q3NLpRBcD2WvHfCoyigg5JWnntKNmfZUM5g9i1J" ] },
      { "delegate": "tz3hw2kqXhLUvY65ca1eety2oQTpAvd34R9Q",
        "reception_time": "2022-01-16T21:55:46.917-00:00",
        "included_in_blocks":
          [ "BKnBtoHNDdN8Q3NLpRBcD2WvHfCoyigg5JWnntKNmfZUM5g9i1J" ] },
      { "delegate": "tz1ei4WtWEMEJekSv8qDnu9PExG6Q8HgRGr3",
        "reception_time": "2022-01-16T21:55:47.372-00:00",
        "included_in_blocks":
          [ "BKnBtoHNDdN8Q3NLpRBcD2WvHfCoyigg5JWnntKNmfZUM5g9i1J" ] },
      { "delegate": "tz1bZ8vsMAXmaWEV7FRnyhcuUs2fYMaQ6Hkk",
        "reception_time": "2022-01-16T21:55:47.240-00:00",
        "included_in_blocks":
          [ "BKnBtoHNDdN8Q3NLpRBcD2WvHfCoyigg5JWnntKNmfZUM5g9i1J" ] },
      { "delegate": "tz3QT9dHYKDqh563chVa6za8526ys1UKfRfL",
        "reception_time": "2022-01-16T21:55:47.050-00:00",
        "included_in_blocks":
          [ "BKnBtoHNDdN8Q3NLpRBcD2WvHfCoyigg5JWnntKNmfZUM5g9i1J" ] },
      { "delegate": "tz1fUyqYH7H4pRHN1roWY17giXhy1RvxjgUV",
        "reception_time": "2022-01-16T21:55:47.074-00:00",
        "included_in_blocks":
          [ "BKnBtoHNDdN8Q3NLpRBcD2WvHfCoyigg5JWnntKNmfZUM5g9i1J" ] },
      { "delegate": "tz3iJu5vrKZcsqRPs8yJ61UDoeEXZmtro4qh",
        "reception_time": "2022-01-16T21:55:46.987-00:00",
        "included_in_blocks":
          [ "BKnBtoHNDdN8Q3NLpRBcD2WvHfCoyigg5JWnntKNmfZUM5g9i1J" ] },
      { "delegate": "tz3RDC3Jdn4j15J7bBHZd29EUee9gVB1CxD9",
        "reception_time": "2022-01-16T21:55:47.460-00:00",
        "included_in_blocks":
          [ "BKnBtoHNDdN8Q3NLpRBcD2WvHfCoyigg5JWnntKNmfZUM5g9i1J" ] },
      { "delegate": "tz1dUpfvjmAX3HLYvYhAwb94qe7nJodJr51c",
        "reception_time": "2022-01-16T21:55:46.890-00:00",
        "included_in_blocks":
          [ "BKnBtoHNDdN8Q3NLpRBcD2WvHfCoyigg5JWnntKNmfZUM5g9i1J" ] },
      { "delegate": "tz1MQMiZHV8q4tTwUMWmS5Y3kaP6J2136iXr",
        "reception_time": "2022-01-16T21:55:47.228-00:00",
        "included_in_blocks":
          [ "BKnBtoHNDdN8Q3NLpRBcD2WvHfCoyigg5JWnntKNmfZUM5g9i1J" ] },
      { "delegate": "tz3gtoUxdudfBRcNY7iVdKPHCYYX6xdPpoRS",
        "reception_time": "2022-01-16T21:55:46.910-00:00",
        "included_in_blocks":
          [ "BKnBtoHNDdN8Q3NLpRBcD2WvHfCoyigg5JWnntKNmfZUM5g9i1J" ] },
      { "delegate": "tz3RKYFsLuQzKBtmYuLNas7uMu3AsYd4QdsA",
        "reception_time": "2022-01-16T21:55:46.901-00:00",
        "included_in_blocks":
          [ "BKnBtoHNDdN8Q3NLpRBcD2WvHfCoyigg5JWnntKNmfZUM5g9i1J" ] },
      { "delegate": "tz1Ldzz6k1BHdhuKvAtMRX7h5kJSMHESMHLC",
        "reception_time": "2022-01-16T21:55:46.887-00:00",
        "included_in_blocks":
          [ "BKnBtoHNDdN8Q3NLpRBcD2WvHfCoyigg5JWnntKNmfZUM5g9i1J" ] },
      { "delegate": "tz3QSGPoRp3Kn7n3vY24eYeu3Peuqo45LQ4D",
        "reception_time": "2022-01-16T21:55:46.962-00:00",
        "included_in_blocks":
          [ "BKnBtoHNDdN8Q3NLpRBcD2WvHfCoyigg5JWnntKNmfZUM5g9i1J" ] },
      { "delegate": "tz3S6BBeKgJGXxvLyZ1xzXzMPn11nnFtq5L9",
        "reception_time": "2022-01-16T21:55:47.082-00:00",
        "included_in_blocks":
          [ "BKnBtoHNDdN8Q3NLpRBcD2WvHfCoyigg5JWnntKNmfZUM5g9i1J" ] },
      { "delegate": "tz1Kf25fX1VdmYGSEzwFy1wNmkbSEZ2V83sY",
        "reception_time": "2022-01-16T21:55:47.392-00:00",
        "included_in_blocks":
          [ "BKnBtoHNDdN8Q3NLpRBcD2WvHfCoyigg5JWnntKNmfZUM5g9i1J" ] },
      { "delegate": "tz1TzaNn7wSQSP5gYPXCnNzBCpyMiidCq1PX",
        "reception_time": "2022-01-16T21:55:46.868-00:00",
        "included_in_blocks":
          [ "BKnBtoHNDdN8Q3NLpRBcD2WvHfCoyigg5JWnntKNmfZUM5g9i1J" ] },
      { "delegate": "tz1ZPh7XfUaJXUDvkrBxmS1BjEM1i62hiPpM",
        "reception_time": "2022-01-16T21:55:46.879-00:00",
        "included_in_blocks":
          [ "BKnBtoHNDdN8Q3NLpRBcD2WvHfCoyigg5JWnntKNmfZUM5g9i1J" ] },
      { "delegate": "tz1VQnqCCqX4K5sP3FNkVSNKTdCAMJDd3E1n",
        "reception_time": "2022-01-16T21:55:46.882-00:00",
        "included_in_blocks":
          [ "BKnBtoHNDdN8Q3NLpRBcD2WvHfCoyigg5JWnntKNmfZUM5g9i1J" ] },
      { "delegate": "tz1WCd2jm4uSt4vntk4vSuUWoZQGhLcDuR9q",
        "reception_time": "2022-01-16T21:55:46.887-00:00",
        "included_in_blocks":
          [ "BKnBtoHNDdN8Q3NLpRBcD2WvHfCoyigg5JWnntKNmfZUM5g9i1J" ] },
      { "delegate": "tz1gUNyn3hmnEWqkusWPzxRaon1cs7ndWh7h",
        "reception_time": "2022-01-16T21:55:46.848-00:00",
        "included_in_blocks":
          [ "BKnBtoHNDdN8Q3NLpRBcD2WvHfCoyigg5JWnntKNmfZUM5g9i1J" ] },
      { "delegate": "tz3NxTnke1acr8o3h5y9ytf5awQBGNJUKzVU",
        "reception_time": "2022-01-16T21:55:46.863-00:00",
        "included_in_blocks":
          [ "BKnBtoHNDdN8Q3NLpRBcD2WvHfCoyigg5JWnntKNmfZUM5g9i1J" ] },
      { "delegate": "tz3Zhs2dygr55yHyQyKjntAtY9bgfhLZ4Xj1",
        "reception_time": "2022-01-16T21:55:46.977-00:00",
        "included_in_blocks":
          [ "BKnBtoHNDdN8Q3NLpRBcD2WvHfCoyigg5JWnntKNmfZUM5g9i1J" ] },
      { "delegate": "tz1TRspM5SeZpaQUhzByXbEvqKF1vnCM2YTK",
        "reception_time": "2022-01-16T21:55:46.868-00:00",
        "included_in_blocks":
          [ "BKnBtoHNDdN8Q3NLpRBcD2WvHfCoyigg5JWnntKNmfZUM5g9i1J" ] },
      { "delegate": "tz1aKxnrzx5PXZJe7unufEswVRCMU9yafmfb",
        "reception_time": "2022-01-16T21:55:46.875-00:00",
        "included_in_blocks":
          [ "BKnBtoHNDdN8Q3NLpRBcD2WvHfCoyigg5JWnntKNmfZUM5g9i1J" ] },
      { "delegate": "tz1MJx9vhaNRSimcuXPK2rW4fLccQnDAnVKJ",
        "reception_time": "2022-01-16T21:55:46.843-00:00",
        "included_in_blocks":
          [ "BKnBtoHNDdN8Q3NLpRBcD2WvHfCoyigg5JWnntKNmfZUM5g9i1J" ] },
      { "delegate": "tz3bTdwZinP8U1JmSweNzVKhmwafqWmFWRfk",
        "reception_time": "2022-01-16T21:55:47.217-00:00",
        "included_in_blocks":
          [ "BKnBtoHNDdN8Q3NLpRBcD2WvHfCoyigg5JWnntKNmfZUM5g9i1J" ] },
      { "delegate": "tz1Kt4P8BCaP93AEV4eA7gmpRryWt5hznjCP",
        "reception_time": "2022-01-16T21:55:46.871-00:00",
        "included_in_blocks":
          [ "BKnBtoHNDdN8Q3NLpRBcD2WvHfCoyigg5JWnntKNmfZUM5g9i1J" ] },
      { "delegate": "tz1RV1MBbZMR68tacosb7Mwj6LkbPSUS1er1",
        "reception_time": "2022-01-16T21:55:46.854-00:00",
        "included_in_blocks":
          [ "BKnBtoHNDdN8Q3NLpRBcD2WvHfCoyigg5JWnntKNmfZUM5g9i1J" ] },
      { "delegate": "tz1beersuEDv8Z7ngQ825xfbaJNS2EhXnyHR",
        "reception_time": "2022-01-16T21:55:46.831-00:00",
        "included_in_blocks":
          [ "BKnBtoHNDdN8Q3NLpRBcD2WvHfCoyigg5JWnntKNmfZUM5g9i1J" ] },
      { "delegate": "tz3ZbP2pM3nwvXztbuMJwJnDvV5xdpU8UkkD",
        "reception_time": "2022-01-16T21:55:46.828-00:00",
        "included_in_blocks":
          [ "BKnBtoHNDdN8Q3NLpRBcD2WvHfCoyigg5JWnntKNmfZUM5g9i1J" ] },
      { "delegate": "tz1Scdr2HsZiQjc7bHMeBbmDRXYVvdhjJbBh",
        "reception_time": "2022-01-16T21:55:46.863-00:00",
        "included_in_blocks":
          [ "BKnBtoHNDdN8Q3NLpRBcD2WvHfCoyigg5JWnntKNmfZUM5g9i1J" ] },
      { "delegate": "tz1irJKkXS2DBWkU1NnmFQx1c1L7pbGg4yhk",
        "reception_time": "2022-01-16T21:55:46.851-00:00",
        "included_in_blocks":
          [ "BKnBtoHNDdN8Q3NLpRBcD2WvHfCoyigg5JWnntKNmfZUM5g9i1J" ] } ] }