{ "blocks":
    [ { "hash": "BLvnx3bXYfkAuAKqrL2KB6QQsg3GvDwVDkWVzYseP6JyKUkySZB",
        "delegate": "tz3bvNMQ95vfAYtG8193ymshqjSvmxiCUuR5",
        "reception_time": "2022-01-16T18:43:47.500-00:00",
        "timestamp": "2022-01-16T18:43:40Z" } ],
  "endorsements":
    [ { "delegate": "tz1S8e9GgdZG78XJRB3NqabfWeM37GnhZMWQ",
        "reception_time": "2022-01-16T18:43:47.398-00:00",
        "errors":
          [ { "kind": "temporary",
              "id": "proto.011-PtHangz2.prefilter.outdated_endorsement" } ],
        "included_in_blocks":
          [ "BMCatbaUgcfjxc8rXNWhDCqqrozw3zTeC73GBKQuqBqcfiqe2Kr" ] },
      { "delegate": "tz1RjoHc98dBoqaH2jawF62XNKh7YsHwbkEv" },
      { "delegate": "tz1eEnQhbwf6trb8Q8mPb2RaPkNk2rN7BKi8",
        "reception_time": "2022-01-16T18:43:48.343-00:00",
        "included_in_blocks":
          [ "BMCatbaUgcfjxc8rXNWhDCqqrozw3zTeC73GBKQuqBqcfiqe2Kr" ] },
      { "delegate": "tz1P2Po7YM526ughEsRbY4oR9zaUPDZjxFrb",
        "reception_time": "2022-01-16T18:43:48.361-00:00",
        "included_in_blocks":
          [ "BMCatbaUgcfjxc8rXNWhDCqqrozw3zTeC73GBKQuqBqcfiqe2Kr" ] },
      { "delegate": "tz1Lhf4J9Qxoe3DZ2nfe8FGDnvVj7oKjnMY6",
        "reception_time": "2022-01-16T18:43:48.396-00:00",
        "included_in_blocks":
          [ "BMCatbaUgcfjxc8rXNWhDCqqrozw3zTeC73GBKQuqBqcfiqe2Kr" ] },
      { "delegate": "tz3bvNMQ95vfAYtG8193ymshqjSvmxiCUuR5",
        "reception_time": "2022-01-16T18:43:48.417-00:00",
        "included_in_blocks":
          [ "BMCatbaUgcfjxc8rXNWhDCqqrozw3zTeC73GBKQuqBqcfiqe2Kr" ] },
      { "delegate": "tz1XfAjZyaLdceHnZxbMYop7g7kWKPut4PR7",
        "reception_time": "2022-01-16T18:43:48.422-00:00",
        "included_in_blocks":
          [ "BMCatbaUgcfjxc8rXNWhDCqqrozw3zTeC73GBKQuqBqcfiqe2Kr" ] },
      { "delegate": "tz1aKxnrzx5PXZJe7unufEswVRCMU9yafmfb",
        "reception_time": "2022-01-16T18:43:48.431-00:00",
        "included_in_blocks":
          [ "BMCatbaUgcfjxc8rXNWhDCqqrozw3zTeC73GBKQuqBqcfiqe2Kr" ] },
      { "delegate": "tz1MXFrtZoaXckE41bjUCSjAjAap3AFDSr3N",
        "reception_time": "2022-01-16T18:43:48.437-00:00",
        "included_in_blocks":
          [ "BMCatbaUgcfjxc8rXNWhDCqqrozw3zTeC73GBKQuqBqcfiqe2Kr" ] },
      { "delegate": "tz1irJKkXS2DBWkU1NnmFQx1c1L7pbGg4yhk",
        "reception_time": "2022-01-16T18:43:48.437-00:00",
        "included_in_blocks":
          [ "BMCatbaUgcfjxc8rXNWhDCqqrozw3zTeC73GBKQuqBqcfiqe2Kr" ] },
      { "delegate": "tz1gUNyn3hmnEWqkusWPzxRaon1cs7ndWh7h",
        "reception_time": "2022-01-16T18:43:48.497-00:00",
        "included_in_blocks":
          [ "BMCatbaUgcfjxc8rXNWhDCqqrozw3zTeC73GBKQuqBqcfiqe2Kr" ] },
      { "delegate": "tz1VQnqCCqX4K5sP3FNkVSNKTdCAMJDd3E1n",
        "reception_time": "2022-01-16T18:43:48.539-00:00",
        "included_in_blocks":
          [ "BMCatbaUgcfjxc8rXNWhDCqqrozw3zTeC73GBKQuqBqcfiqe2Kr" ] },
      { "delegate": "tz1Kt4P8BCaP93AEV4eA7gmpRryWt5hznjCP",
        "reception_time": "2022-01-16T18:43:48.561-00:00",
        "included_in_blocks":
          [ "BMCatbaUgcfjxc8rXNWhDCqqrozw3zTeC73GBKQuqBqcfiqe2Kr" ] },
      { "delegate": "tz3gtoUxdudfBRcNY7iVdKPHCYYX6xdPpoRS",
        "reception_time": "2022-01-16T18:43:48.574-00:00",
        "included_in_blocks":
          [ "BMCatbaUgcfjxc8rXNWhDCqqrozw3zTeC73GBKQuqBqcfiqe2Kr" ] },
      { "delegate": "tz3QSGPoRp3Kn7n3vY24eYeu3Peuqo45LQ4D",
        "reception_time": "2022-01-16T18:43:48.592-00:00",
        "included_in_blocks":
          [ "BMCatbaUgcfjxc8rXNWhDCqqrozw3zTeC73GBKQuqBqcfiqe2Kr" ] },
      { "delegate": "tz1TzaNn7wSQSP5gYPXCnNzBCpyMiidCq1PX",
        "reception_time": "2022-01-16T18:43:48.629-00:00",
        "included_in_blocks":
          [ "BMCatbaUgcfjxc8rXNWhDCqqrozw3zTeC73GBKQuqBqcfiqe2Kr" ] },
      { "delegate": "tz3NxTnke1acr8o3h5y9ytf5awQBGNJUKzVU",
        "reception_time": "2022-01-16T18:43:48.643-00:00",
        "included_in_blocks":
          [ "BMCatbaUgcfjxc8rXNWhDCqqrozw3zTeC73GBKQuqBqcfiqe2Kr" ] },
      { "delegate": "tz3ZbP2pM3nwvXztbuMJwJnDvV5xdpU8UkkD",
        "reception_time": "2022-01-16T18:43:48.650-00:00",
        "included_in_blocks":
          [ "BMCatbaUgcfjxc8rXNWhDCqqrozw3zTeC73GBKQuqBqcfiqe2Kr" ] },
      { "delegate": "tz3iJu5vrKZcsqRPs8yJ61UDoeEXZmtro4qh",
        "reception_time": "2022-01-16T18:43:48.696-00:00",
        "included_in_blocks":
          [ "BMCatbaUgcfjxc8rXNWhDCqqrozw3zTeC73GBKQuqBqcfiqe2Kr" ] },
      { "delegate": "tz1Ldzz6k1BHdhuKvAtMRX7h5kJSMHESMHLC",
        "reception_time": "2022-01-16T18:43:48.705-00:00",
        "included_in_blocks":
          [ "BMCatbaUgcfjxc8rXNWhDCqqrozw3zTeC73GBKQuqBqcfiqe2Kr" ] },
      { "delegate": "tz3S6BBeKgJGXxvLyZ1xzXzMPn11nnFtq5L9",
        "reception_time": "2022-01-16T18:43:48.718-00:00",
        "included_in_blocks":
          [ "BMCatbaUgcfjxc8rXNWhDCqqrozw3zTeC73GBKQuqBqcfiqe2Kr" ] },
      { "delegate": "tz3RKYFsLuQzKBtmYuLNas7uMu3AsYd4QdsA",
        "reception_time": "2022-01-16T18:43:48.733-00:00",
        "included_in_blocks":
          [ "BMCatbaUgcfjxc8rXNWhDCqqrozw3zTeC73GBKQuqBqcfiqe2Kr" ] },
      { "delegate": "tz3hw2kqXhLUvY65ca1eety2oQTpAvd34R9Q",
        "reception_time": "2022-01-16T18:43:48.757-00:00",
        "included_in_blocks":
          [ "BMCatbaUgcfjxc8rXNWhDCqqrozw3zTeC73GBKQuqBqcfiqe2Kr" ] },
      { "delegate": "tz1VmiY38m3y95HqQLjMwqnMS7sdMfGomzKi",
        "reception_time": "2022-01-16T18:43:48.771-00:00",
        "included_in_blocks":
          [ "BMCatbaUgcfjxc8rXNWhDCqqrozw3zTeC73GBKQuqBqcfiqe2Kr" ] },
      { "delegate": "tz3QT9dHYKDqh563chVa6za8526ys1UKfRfL",
        "reception_time": "2022-01-16T18:43:48.777-00:00",
        "included_in_blocks":
          [ "BMCatbaUgcfjxc8rXNWhDCqqrozw3zTeC73GBKQuqBqcfiqe2Kr" ] },
      { "delegate": "tz1WCd2jm4uSt4vntk4vSuUWoZQGhLcDuR9q",
        "reception_time": "2022-01-16T18:43:48.789-00:00",
        "included_in_blocks":
          [ "BMCatbaUgcfjxc8rXNWhDCqqrozw3zTeC73GBKQuqBqcfiqe2Kr" ] },
      { "delegate": "tz1MQMiZHV8q4tTwUMWmS5Y3kaP6J2136iXr",
        "reception_time": "2022-01-16T18:43:48.849-00:00",
        "included_in_blocks":
          [ "BMCatbaUgcfjxc8rXNWhDCqqrozw3zTeC73GBKQuqBqcfiqe2Kr" ] },
      { "delegate": "tz1gfArv665EUkSg2ojMBzcbfwuPxAvqPvjo",
        "reception_time": "2022-01-16T18:43:49.084-00:00",
        "included_in_blocks":
          [ "BMCatbaUgcfjxc8rXNWhDCqqrozw3zTeC73GBKQuqBqcfiqe2Kr" ] },
      { "delegate": "tz1d6Fx42mYgVFnHUW8T8A7WBfJ6nD9pVok8",
        "reception_time": "2022-01-16T18:43:49.116-00:00",
        "included_in_blocks":
          [ "BMCatbaUgcfjxc8rXNWhDCqqrozw3zTeC73GBKQuqBqcfiqe2Kr" ] },
      { "delegate": "tz1fUjvVhJrHLZCbhPNvDRckxApqbkievJHN",
        "reception_time": "2022-01-16T18:43:49.132-00:00",
        "included_in_blocks":
          [ "BMCatbaUgcfjxc8rXNWhDCqqrozw3zTeC73GBKQuqBqcfiqe2Kr" ] },
      { "delegate": "tz1PWCDnz783NNGGQjEFFsHtrcK5yBW4E2rm",
        "reception_time": "2022-01-16T18:43:49.166-00:00",
        "included_in_blocks":
          [ "BMCatbaUgcfjxc8rXNWhDCqqrozw3zTeC73GBKQuqBqcfiqe2Kr" ] },
      { "delegate": "tz3RDC3Jdn4j15J7bBHZd29EUee9gVB1CxD9",
        "reception_time": "2022-01-16T18:43:49.211-00:00",
        "included_in_blocks":
          [ "BMCatbaUgcfjxc8rXNWhDCqqrozw3zTeC73GBKQuqBqcfiqe2Kr" ] },
      { "delegate": "tz3adcvQaKXTCg12zbninqo3q8ptKKtDFTLv",
        "reception_time": "2022-01-16T18:43:49.227-00:00",
        "included_in_blocks":
          [ "BMCatbaUgcfjxc8rXNWhDCqqrozw3zTeC73GBKQuqBqcfiqe2Kr" ] },
      { "delegate": "tz3bTdwZinP8U1JmSweNzVKhmwafqWmFWRfk",
        "reception_time": "2022-01-16T18:43:49.334-00:00",
        "included_in_blocks":
          [ "BMCatbaUgcfjxc8rXNWhDCqqrozw3zTeC73GBKQuqBqcfiqe2Kr" ] },
      { "delegate": "tz3RB4aoyjov4KEVRbuhvQ1CKJgBJMWhaeB8",
        "reception_time": "2022-01-16T18:43:49.365-00:00",
        "included_in_blocks":
          [ "BMCatbaUgcfjxc8rXNWhDCqqrozw3zTeC73GBKQuqBqcfiqe2Kr" ] },
      { "delegate": "tz1S8MNvuFEUsWgjHvi3AxibRBf388NhT1q2",
        "reception_time": "2022-01-16T18:43:49.384-00:00",
        "included_in_blocks":
          [ "BMCatbaUgcfjxc8rXNWhDCqqrozw3zTeC73GBKQuqBqcfiqe2Kr" ] },
      { "delegate": "tz1MDSg9ycDZmRxDqymSmHsWUgozhTvYskPi",
        "reception_time": "2022-01-16T18:43:49.396-00:00",
        "included_in_blocks":
          [ "BMCatbaUgcfjxc8rXNWhDCqqrozw3zTeC73GBKQuqBqcfiqe2Kr" ] },
      { "delegate": "tz1NortRftucvAkD1J58L32EhSVrQEWJCEnB",
        "reception_time": "2022-01-16T18:43:49.403-00:00",
        "included_in_blocks":
          [ "BMCatbaUgcfjxc8rXNWhDCqqrozw3zTeC73GBKQuqBqcfiqe2Kr" ] },
      { "delegate": "tz1hAYfexyzPGG6RhZZMpDvAHifubsbb6kgn",
        "reception_time": "2022-01-16T18:43:49.410-00:00",
        "included_in_blocks":
          [ "BMCatbaUgcfjxc8rXNWhDCqqrozw3zTeC73GBKQuqBqcfiqe2Kr" ] },
      { "delegate": "tz2FCNBrERXtaTtNX6iimR1UJ5JSDxvdHM93",
        "reception_time": "2022-01-16T18:43:49.483-00:00",
        "included_in_blocks":
          [ "BMCatbaUgcfjxc8rXNWhDCqqrozw3zTeC73GBKQuqBqcfiqe2Kr" ] },
      { "delegate": "tz1Nf6tsK4G6bBqgSQERy4nUtkHNKUVdh7q1",
        "reception_time": "2022-01-16T18:43:49.498-00:00",
        "included_in_blocks":
          [ "BMCatbaUgcfjxc8rXNWhDCqqrozw3zTeC73GBKQuqBqcfiqe2Kr" ] },
      { "delegate": "tz1V4qCyvPKZ5UeqdH14HN42rxvNPQfc9UZg",
        "reception_time": "2022-01-16T18:43:49.613-00:00",
        "included_in_blocks":
          [ "BMCatbaUgcfjxc8rXNWhDCqqrozw3zTeC73GBKQuqBqcfiqe2Kr" ] },
      { "delegate": "tz1RCFbB9GpALpsZtu6J58sb74dm8qe6XBzv",
        "reception_time": "2022-01-16T18:43:49.654-00:00",
        "included_in_blocks":
          [ "BMCatbaUgcfjxc8rXNWhDCqqrozw3zTeC73GBKQuqBqcfiqe2Kr" ] },
      { "delegate": "tz1Tnjaxk6tbAeC2TmMApPh8UsrEVQvhHvx5",
        "reception_time": "2022-01-16T18:43:49.666-00:00",
        "included_in_blocks":
          [ "BMCatbaUgcfjxc8rXNWhDCqqrozw3zTeC73GBKQuqBqcfiqe2Kr" ] },
      { "delegate": "tz1WBfwbT66FC6BTLexc2BoyCCBM9LG7pnVW",
        "reception_time": "2022-01-16T18:43:49.708-00:00",
        "included_in_blocks":
          [ "BMCatbaUgcfjxc8rXNWhDCqqrozw3zTeC73GBKQuqBqcfiqe2Kr" ] },
      { "delegate": "tz1TEc75UKXv4W5cwi14Na3NtqFD51yKQi7h",
        "reception_time": "2022-01-16T18:43:49.761-00:00",
        "included_in_blocks":
          [ "BMCatbaUgcfjxc8rXNWhDCqqrozw3zTeC73GBKQuqBqcfiqe2Kr" ] },
      { "delegate": "tz1SohptP53wDPZhzTWzDUFAUcWF6DMBpaJV",
        "reception_time": "2022-01-16T18:43:49.764-00:00",
        "included_in_blocks":
          [ "BMCatbaUgcfjxc8rXNWhDCqqrozw3zTeC73GBKQuqBqcfiqe2Kr" ] },
      { "delegate": "tz1PeZx7FXy7QRuMREGXGxeipb24RsMMzUNe",
        "reception_time": "2022-01-16T18:43:49.785-00:00",
        "included_in_blocks":
          [ "BMCatbaUgcfjxc8rXNWhDCqqrozw3zTeC73GBKQuqBqcfiqe2Kr" ] },
      { "delegate": "tz1ei4WtWEMEJekSv8qDnu9PExG6Q8HgRGr3",
        "reception_time": "2022-01-16T18:43:49.822-00:00",
        "included_in_blocks":
          [ "BMCatbaUgcfjxc8rXNWhDCqqrozw3zTeC73GBKQuqBqcfiqe2Kr" ] },
      { "delegate": "tz1Mc61yajNASzh5KWZFtYs4i7EJbzAxQC4K",
        "reception_time": "2022-01-16T18:43:49.901-00:00",
        "included_in_blocks":
          [ "BMCatbaUgcfjxc8rXNWhDCqqrozw3zTeC73GBKQuqBqcfiqe2Kr" ] },
      { "delegate": "tz1KfEsrtDaA1sX7vdM4qmEPWuSytuqCDp5j",
        "reception_time": "2022-01-16T18:43:49.974-00:00",
        "included_in_blocks":
          [ "BMCatbaUgcfjxc8rXNWhDCqqrozw3zTeC73GBKQuqBqcfiqe2Kr" ] },
      { "delegate": "tz1TRqbYbUf2GyrjErf3hBzgBJPzW8y36qEs",
        "reception_time": "2022-01-16T18:43:50.072-00:00",
        "included_in_blocks":
          [ "BMCatbaUgcfjxc8rXNWhDCqqrozw3zTeC73GBKQuqBqcfiqe2Kr" ] },
      { "delegate": "tz1UMCB2AHSTwG7YcGNr31CqYCtGN873royv",
        "reception_time": "2022-01-16T18:43:50.158-00:00",
        "included_in_blocks":
          [ "BMCatbaUgcfjxc8rXNWhDCqqrozw3zTeC73GBKQuqBqcfiqe2Kr" ] },
      { "delegate": "tz1SYq214SCBy9naR6cvycQsYcUGpBqQAE8d",
        "reception_time": "2022-01-16T18:43:50.164-00:00",
        "included_in_blocks":
          [ "BMCatbaUgcfjxc8rXNWhDCqqrozw3zTeC73GBKQuqBqcfiqe2Kr" ] },
      { "delegate": "tz3VEZ4k6a4Wx42iyev6i2aVAptTRLEAivNN",
        "reception_time": "2022-01-16T18:43:50.210-00:00",
        "included_in_blocks":
          [ "BMCatbaUgcfjxc8rXNWhDCqqrozw3zTeC73GBKQuqBqcfiqe2Kr" ] },
      { "delegate": "tz1awXW7wuXy21c66vBudMXQVAPgRnqqwgTH",
        "reception_time": "2022-01-16T18:43:50.301-00:00",
        "included_in_blocks":
          [ "BMCatbaUgcfjxc8rXNWhDCqqrozw3zTeC73GBKQuqBqcfiqe2Kr" ] },
      { "delegate": "tz1NEKxGEHsFufk87CVZcrqWu8o22qh46GK6",
        "reception_time": "2022-01-16T18:43:50.459-00:00",
        "included_in_blocks":
          [ "BMCatbaUgcfjxc8rXNWhDCqqrozw3zTeC73GBKQuqBqcfiqe2Kr" ] },
      { "delegate": "tz3NDpRj6WBrJPikcPVHRBEjWKxFw3c6eQPS",
        "reception_time": "2022-01-16T18:43:50.506-00:00",
        "included_in_blocks":
          [ "BMCatbaUgcfjxc8rXNWhDCqqrozw3zTeC73GBKQuqBqcfiqe2Kr" ] },
      { "delegate": "tz1Z2jXfEXL7dXhs6bsLmyLFLfmAkXBzA9WE",
        "reception_time": "2022-01-16T18:43:50.528-00:00",
        "included_in_blocks":
          [ "BMCatbaUgcfjxc8rXNWhDCqqrozw3zTeC73GBKQuqBqcfiqe2Kr" ] },
      { "delegate": "tz1T7duV5gZWSTq4YpBGbXNLTfznCLDrFxvs",
        "reception_time": "2022-01-16T18:43:50.651-00:00",
        "included_in_blocks":
          [ "BMCatbaUgcfjxc8rXNWhDCqqrozw3zTeC73GBKQuqBqcfiqe2Kr" ] },
      { "delegate": "tz1aRoaRhSpRYvFdyvgWLL6TGyRoGF51wDjM",
        "reception_time": "2022-01-16T18:43:50.940-00:00",
        "included_in_blocks":
          [ "BMCatbaUgcfjxc8rXNWhDCqqrozw3zTeC73GBKQuqBqcfiqe2Kr" ] },
      { "delegate": "tz1dNVDWPf3Q59SdJqnjdnu277iyvReiRS9M",
        "reception_time": "2022-01-16T18:43:51.065-00:00",
        "included_in_blocks":
          [ "BMCatbaUgcfjxc8rXNWhDCqqrozw3zTeC73GBKQuqBqcfiqe2Kr" ] },
      { "delegate": "tz3WMqdzXqRWXwyvj5Hp2H7QEepaUuS7vd9K",
        "reception_time": "2022-01-16T18:43:51.080-00:00",
        "included_in_blocks":
          [ "BMCatbaUgcfjxc8rXNWhDCqqrozw3zTeC73GBKQuqBqcfiqe2Kr" ] },
      { "delegate": "tz3UoffC7FG7zfpmvmjUmUeAaHvzdcUvAj6r",
        "reception_time": "2022-01-16T18:43:51.181-00:00",
        "included_in_blocks":
          [ "BMCatbaUgcfjxc8rXNWhDCqqrozw3zTeC73GBKQuqBqcfiqe2Kr" ] },
      { "delegate": "tz3NExpXn9aPNZPorRE4SdjJ2RGrfbJgMAaV",
        "reception_time": "2022-01-16T18:43:51.295-00:00",
        "included_in_blocks":
          [ "BMCatbaUgcfjxc8rXNWhDCqqrozw3zTeC73GBKQuqBqcfiqe2Kr" ] },
      { "delegate": "tz1W5VkdB5s7ENMESVBtwyt9kyvLqPcUczRT",
        "reception_time": "2022-01-16T18:43:53.136-00:00",
        "included_in_blocks":
          [ "BMCatbaUgcfjxc8rXNWhDCqqrozw3zTeC73GBKQuqBqcfiqe2Kr" ] },
      { "delegate": "tz1NpWrAyDL9k2Lmnyxcgr9xuJakbBxdq7FB",
        "reception_time": "2022-01-16T18:43:57.166-00:00",
        "included_in_blocks":
          [ "BMCatbaUgcfjxc8rXNWhDCqqrozw3zTeC73GBKQuqBqcfiqe2Kr" ] } ] }