{ "blocks":
    [ { "hash": "BMLzQcmpWf8hbrKehVM89x7TruExftYgECAhrJtE4h2yiDem4No",
        "delegate": "tz3bTdwZinP8U1JmSweNzVKhmwafqWmFWRfk",
        "reception_time": "2022-01-16T19:47:18.391-00:00",
        "timestamp": "2022-01-16T19:47:10Z" } ],
  "endorsements":
    [ { "delegate": "tz1ibcPVGK4Y8pcW4BYUsojiHoBKnZbyDGrX" },
      { "delegate": "tz1dbfppLAAxXZNtf2SDps7rch3qfUznKSoK" },
      { "delegate": "tz1P2Po7YM526ughEsRbY4oR9zaUPDZjxFrb",
        "reception_time": "2022-01-16T19:47:18.350-00:00",
        "errors":
          [ { "kind": "temporary",
              "id": "proto.011-PtHangz2.prefilter.outdated_endorsement" } ],
        "included_in_blocks":
          [ "BMLEGjAebof2BtVELb57UDhoG4zyCi3bzF1HxRgFop7JRS3aG6N" ] },
      { "delegate": "tz1NpWrAyDL9k2Lmnyxcgr9xuJakbBxdq7FB",
        "reception_time": "2022-01-16T19:47:25.483-00:00",
        "included_in_blocks":
          [ "BMLEGjAebof2BtVELb57UDhoG4zyCi3bzF1HxRgFop7JRS3aG6N" ] },
      { "delegate": "tz1W5VkdB5s7ENMESVBtwyt9kyvLqPcUczRT",
        "reception_time": "2022-01-16T19:47:23.403-00:00",
        "included_in_blocks":
          [ "BMLEGjAebof2BtVELb57UDhoG4zyCi3bzF1HxRgFop7JRS3aG6N" ] },
      { "delegate": "tz1eVaNx3gCmG1EsLjijkmgAxdLYVf6Bf5Sq",
        "reception_time": "2022-01-16T19:47:22.966-00:00",
        "included_in_blocks":
          [ "BMLEGjAebof2BtVELb57UDhoG4zyCi3bzF1HxRgFop7JRS3aG6N" ] },
      { "delegate": "tz1gg5bjopPcr9agjamyu9BbXKLibNc2rbAq",
        "reception_time": "2022-01-16T19:47:22.675-00:00",
        "included_in_blocks":
          [ "BMLEGjAebof2BtVELb57UDhoG4zyCi3bzF1HxRgFop7JRS3aG6N" ] },
      { "delegate": "tz3bvNMQ95vfAYtG8193ymshqjSvmxiCUuR5",
        "reception_time": "2022-01-16T19:47:21.536-00:00",
        "included_in_blocks":
          [ "BMLEGjAebof2BtVELb57UDhoG4zyCi3bzF1HxRgFop7JRS3aG6N" ] },
      { "delegate": "tz1aRoaRhSpRYvFdyvgWLL6TGyRoGF51wDjM",
        "reception_time": "2022-01-16T19:47:21.508-00:00",
        "included_in_blocks":
          [ "BMLEGjAebof2BtVELb57UDhoG4zyCi3bzF1HxRgFop7JRS3aG6N" ] },
      { "delegate": "tz3NDpRj6WBrJPikcPVHRBEjWKxFw3c6eQPS",
        "reception_time": "2022-01-16T19:47:21.471-00:00",
        "included_in_blocks":
          [ "BMLEGjAebof2BtVELb57UDhoG4zyCi3bzF1HxRgFop7JRS3aG6N" ] },
      { "delegate": "tz1T7duV5gZWSTq4YpBGbXNLTfznCLDrFxvs",
        "reception_time": "2022-01-16T19:47:21.562-00:00",
        "included_in_blocks":
          [ "BMLEGjAebof2BtVELb57UDhoG4zyCi3bzF1HxRgFop7JRS3aG6N" ] },
      { "delegate": "tz3RDC3Jdn4j15J7bBHZd29EUee9gVB1CxD9",
        "reception_time": "2022-01-16T19:47:21.350-00:00",
        "included_in_blocks":
          [ "BMLEGjAebof2BtVELb57UDhoG4zyCi3bzF1HxRgFop7JRS3aG6N" ] },
      { "delegate": "tz3NExpXn9aPNZPorRE4SdjJ2RGrfbJgMAaV",
        "reception_time": "2022-01-16T19:47:21.631-00:00",
        "included_in_blocks":
          [ "BMLEGjAebof2BtVELb57UDhoG4zyCi3bzF1HxRgFop7JRS3aG6N" ] },
      { "delegate": "tz3UoffC7FG7zfpmvmjUmUeAaHvzdcUvAj6r",
        "reception_time": "2022-01-16T19:47:21.333-00:00",
        "included_in_blocks":
          [ "BMLEGjAebof2BtVELb57UDhoG4zyCi3bzF1HxRgFop7JRS3aG6N" ] },
      { "delegate": "tz1VceyYUpq1gk5dtp6jXQRtCtY8hm5DKt72",
        "reception_time": "2022-01-16T19:47:20.525-00:00",
        "included_in_blocks":
          [ "BMLEGjAebof2BtVELb57UDhoG4zyCi3bzF1HxRgFop7JRS3aG6N" ] },
      { "delegate": "tz2FCNBrERXtaTtNX6iimR1UJ5JSDxvdHM93",
        "reception_time": "2022-01-16T19:47:20.374-00:00",
        "included_in_blocks":
          [ "BMLEGjAebof2BtVELb57UDhoG4zyCi3bzF1HxRgFop7JRS3aG6N" ] },
      { "delegate": "tz1Nf6tsK4G6bBqgSQERy4nUtkHNKUVdh7q1",
        "reception_time": "2022-01-16T19:47:20.304-00:00",
        "included_in_blocks":
          [ "BMLEGjAebof2BtVELb57UDhoG4zyCi3bzF1HxRgFop7JRS3aG6N" ] },
      { "delegate": "tz3VEZ4k6a4Wx42iyev6i2aVAptTRLEAivNN",
        "reception_time": "2022-01-16T19:47:20.372-00:00",
        "included_in_blocks":
          [ "BMLEGjAebof2BtVELb57UDhoG4zyCi3bzF1HxRgFop7JRS3aG6N" ] },
      { "delegate": "tz3WMqdzXqRWXwyvj5Hp2H7QEepaUuS7vd9K",
        "reception_time": "2022-01-16T19:47:20.393-00:00",
        "included_in_blocks":
          [ "BMLEGjAebof2BtVELb57UDhoG4zyCi3bzF1HxRgFop7JRS3aG6N" ] },
      { "delegate": "tz1SohptP53wDPZhzTWzDUFAUcWF6DMBpaJV",
        "reception_time": "2022-01-16T19:47:20.717-00:00",
        "included_in_blocks":
          [ "BMLEGjAebof2BtVELb57UDhoG4zyCi3bzF1HxRgFop7JRS3aG6N" ] },
      { "delegate": "tz1NEKxGEHsFufk87CVZcrqWu8o22qh46GK6",
        "reception_time": "2022-01-16T19:47:20.511-00:00",
        "included_in_blocks":
          [ "BMLEGjAebof2BtVELb57UDhoG4zyCi3bzF1HxRgFop7JRS3aG6N" ] },
      { "delegate": "tz1TRqbYbUf2GyrjErf3hBzgBJPzW8y36qEs",
        "reception_time": "2022-01-16T19:47:20.506-00:00",
        "included_in_blocks":
          [ "BMLEGjAebof2BtVELb57UDhoG4zyCi3bzF1HxRgFop7JRS3aG6N" ] },
      { "delegate": "tz1fwnfJNgiDACshK9avfRfFbMaXrs3ghoJa",
        "reception_time": "2022-01-16T19:47:20.466-00:00",
        "included_in_blocks":
          [ "BMLEGjAebof2BtVELb57UDhoG4zyCi3bzF1HxRgFop7JRS3aG6N" ] },
      { "delegate": "tz1WBfwbT66FC6BTLexc2BoyCCBM9LG7pnVW",
        "reception_time": "2022-01-16T19:47:20.349-00:00",
        "included_in_blocks":
          [ "BMLEGjAebof2BtVELb57UDhoG4zyCi3bzF1HxRgFop7JRS3aG6N" ] },
      { "delegate": "tz1ei4WtWEMEJekSv8qDnu9PExG6Q8HgRGr3",
        "reception_time": "2022-01-16T19:47:20.241-00:00",
        "included_in_blocks":
          [ "BMLEGjAebof2BtVELb57UDhoG4zyCi3bzF1HxRgFop7JRS3aG6N" ] },
      { "delegate": "tz1aDiEJf9ztRrAJEXZfcG3CKimoKsGhwVAi",
        "reception_time": "2022-01-16T19:47:20.358-00:00",
        "included_in_blocks":
          [ "BMLEGjAebof2BtVELb57UDhoG4zyCi3bzF1HxRgFop7JRS3aG6N" ] },
      { "delegate": "tz1MGTFJXpQmtxLi8QJ7AuVRgM2L2Qfn9w9i",
        "reception_time": "2022-01-16T19:47:20.191-00:00",
        "included_in_blocks":
          [ "BMLEGjAebof2BtVELb57UDhoG4zyCi3bzF1HxRgFop7JRS3aG6N" ] },
      { "delegate": "tz1NSDFKuRyzHxpfG1AMkyCwEiZ52cbR2mRW",
        "reception_time": "2022-01-16T19:47:20.096-00:00",
        "included_in_blocks":
          [ "BMLEGjAebof2BtVELb57UDhoG4zyCi3bzF1HxRgFop7JRS3aG6N" ] },
      { "delegate": "tz3iJu5vrKZcsqRPs8yJ61UDoeEXZmtro4qh",
        "reception_time": "2022-01-16T19:47:20.102-00:00",
        "included_in_blocks":
          [ "BMLEGjAebof2BtVELb57UDhoG4zyCi3bzF1HxRgFop7JRS3aG6N" ] },
      { "delegate": "tz3RB4aoyjov4KEVRbuhvQ1CKJgBJMWhaeB8",
        "reception_time": "2022-01-16T19:47:20.123-00:00",
        "included_in_blocks":
          [ "BMLEGjAebof2BtVELb57UDhoG4zyCi3bzF1HxRgFop7JRS3aG6N" ] },
      { "delegate": "tz3Zhs2dygr55yHyQyKjntAtY9bgfhLZ4Xj1",
        "reception_time": "2022-01-16T19:47:20.130-00:00",
        "included_in_blocks":
          [ "BMLEGjAebof2BtVELb57UDhoG4zyCi3bzF1HxRgFop7JRS3aG6N" ] },
      { "delegate": "tz1WnfXMPaNTBmH7DBPwqCWs9cPDJdkGBTZ8",
        "reception_time": "2022-01-16T19:47:20.058-00:00",
        "included_in_blocks":
          [ "BMLEGjAebof2BtVELb57UDhoG4zyCi3bzF1HxRgFop7JRS3aG6N" ] },
      { "delegate": "tz1RCFbB9GpALpsZtu6J58sb74dm8qe6XBzv",
        "reception_time": "2022-01-16T19:47:20.336-00:00",
        "included_in_blocks":
          [ "BMLEGjAebof2BtVELb57UDhoG4zyCi3bzF1HxRgFop7JRS3aG6N" ] },
      { "delegate": "tz3RKYFsLuQzKBtmYuLNas7uMu3AsYd4QdsA",
        "reception_time": "2022-01-16T19:47:20.110-00:00",
        "included_in_blocks":
          [ "BMLEGjAebof2BtVELb57UDhoG4zyCi3bzF1HxRgFop7JRS3aG6N" ] },
      { "delegate": "tz1PWCDnz783NNGGQjEFFsHtrcK5yBW4E2rm",
        "reception_time": "2022-01-16T19:47:20.160-00:00",
        "included_in_blocks":
          [ "BMLEGjAebof2BtVELb57UDhoG4zyCi3bzF1HxRgFop7JRS3aG6N" ] },
      { "delegate": "tz3QCNyySViKHmeSr45kzDxzchys7NiXCWoa",
        "reception_time": "2022-01-16T19:47:20.001-00:00",
        "included_in_blocks":
          [ "BMLEGjAebof2BtVELb57UDhoG4zyCi3bzF1HxRgFop7JRS3aG6N" ] },
      { "delegate": "tz3hw2kqXhLUvY65ca1eety2oQTpAvd34R9Q",
        "reception_time": "2022-01-16T19:47:20.076-00:00",
        "included_in_blocks":
          [ "BMLEGjAebof2BtVELb57UDhoG4zyCi3bzF1HxRgFop7JRS3aG6N" ] },
      { "delegate": "tz3NxTnke1acr8o3h5y9ytf5awQBGNJUKzVU",
        "reception_time": "2022-01-16T19:47:20.007-00:00",
        "included_in_blocks":
          [ "BMLEGjAebof2BtVELb57UDhoG4zyCi3bzF1HxRgFop7JRS3aG6N" ] },
      { "delegate": "tz1S8MNvuFEUsWgjHvi3AxibRBf388NhT1q2",
        "reception_time": "2022-01-16T19:47:20.133-00:00",
        "included_in_blocks":
          [ "BMLEGjAebof2BtVELb57UDhoG4zyCi3bzF1HxRgFop7JRS3aG6N" ] },
      { "delegate": "tz3ZbP2pM3nwvXztbuMJwJnDvV5xdpU8UkkD",
        "reception_time": "2022-01-16T19:47:20.014-00:00",
        "included_in_blocks":
          [ "BMLEGjAebof2BtVELb57UDhoG4zyCi3bzF1HxRgFop7JRS3aG6N" ] },
      { "delegate": "tz1Ldzz6k1BHdhuKvAtMRX7h5kJSMHESMHLC",
        "reception_time": "2022-01-16T19:47:19.954-00:00",
        "included_in_blocks":
          [ "BMLEGjAebof2BtVELb57UDhoG4zyCi3bzF1HxRgFop7JRS3aG6N" ] },
      { "delegate": "tz3gtoUxdudfBRcNY7iVdKPHCYYX6xdPpoRS",
        "reception_time": "2022-01-16T19:47:19.981-00:00",
        "included_in_blocks":
          [ "BMLEGjAebof2BtVELb57UDhoG4zyCi3bzF1HxRgFop7JRS3aG6N" ] },
      { "delegate": "tz3QSGPoRp3Kn7n3vY24eYeu3Peuqo45LQ4D",
        "reception_time": "2022-01-16T19:47:19.951-00:00",
        "included_in_blocks":
          [ "BMLEGjAebof2BtVELb57UDhoG4zyCi3bzF1HxRgFop7JRS3aG6N" ] },
      { "delegate": "tz1gfArv665EUkSg2ojMBzcbfwuPxAvqPvjo",
        "reception_time": "2022-01-16T19:47:20.275-00:00",
        "included_in_blocks":
          [ "BMLEGjAebof2BtVELb57UDhoG4zyCi3bzF1HxRgFop7JRS3aG6N" ] },
      { "delegate": "tz1VQnqCCqX4K5sP3FNkVSNKTdCAMJDd3E1n",
        "reception_time": "2022-01-16T19:47:20.042-00:00",
        "included_in_blocks":
          [ "BMLEGjAebof2BtVELb57UDhoG4zyCi3bzF1HxRgFop7JRS3aG6N" ] },
      { "delegate": "tz1LmaFsWRkjr7QMCx5PtV6xTUz3AmEpKQiF",
        "reception_time": "2022-01-16T19:47:20.139-00:00",
        "included_in_blocks":
          [ "BMLEGjAebof2BtVELb57UDhoG4zyCi3bzF1HxRgFop7JRS3aG6N" ] },
      { "delegate": "tz3QT9dHYKDqh563chVa6za8526ys1UKfRfL",
        "reception_time": "2022-01-16T19:47:20.040-00:00",
        "included_in_blocks":
          [ "BMLEGjAebof2BtVELb57UDhoG4zyCi3bzF1HxRgFop7JRS3aG6N" ] },
      { "delegate": "tz3S6BBeKgJGXxvLyZ1xzXzMPn11nnFtq5L9",
        "reception_time": "2022-01-16T19:47:19.969-00:00",
        "included_in_blocks":
          [ "BMLEGjAebof2BtVELb57UDhoG4zyCi3bzF1HxRgFop7JRS3aG6N" ] },
      { "delegate": "tz1WCd2jm4uSt4vntk4vSuUWoZQGhLcDuR9q",
        "reception_time": "2022-01-16T19:47:19.934-00:00",
        "included_in_blocks":
          [ "BMLEGjAebof2BtVELb57UDhoG4zyCi3bzF1HxRgFop7JRS3aG6N" ] },
      { "delegate": "tz1MJx9vhaNRSimcuXPK2rW4fLccQnDAnVKJ",
        "reception_time": "2022-01-16T19:47:19.973-00:00",
        "included_in_blocks":
          [ "BMLEGjAebof2BtVELb57UDhoG4zyCi3bzF1HxRgFop7JRS3aG6N" ] },
      { "delegate": "tz1MQJPGNMijnXnVoBENFz9rUhaPt3S7rWoz",
        "reception_time": "2022-01-16T19:47:20.069-00:00",
        "included_in_blocks":
          [ "BMLEGjAebof2BtVELb57UDhoG4zyCi3bzF1HxRgFop7JRS3aG6N" ] },
      { "delegate": "tz1UJvHTgpVzcKWhTazGxVcn5wsHru5Gietg",
        "reception_time": "2022-01-16T19:47:19.962-00:00",
        "included_in_blocks":
          [ "BMLEGjAebof2BtVELb57UDhoG4zyCi3bzF1HxRgFop7JRS3aG6N" ] },
      { "delegate": "tz1MQMiZHV8q4tTwUMWmS5Y3kaP6J2136iXr",
        "reception_time": "2022-01-16T19:47:20.061-00:00",
        "included_in_blocks":
          [ "BMLEGjAebof2BtVELb57UDhoG4zyCi3bzF1HxRgFop7JRS3aG6N" ] },
      { "delegate": "tz1VmiY38m3y95HqQLjMwqnMS7sdMfGomzKi",
        "reception_time": "2022-01-16T19:47:19.981-00:00",
        "included_in_blocks":
          [ "BMLEGjAebof2BtVELb57UDhoG4zyCi3bzF1HxRgFop7JRS3aG6N" ] },
      { "delegate": "tz1beersuEDv8Z7ngQ825xfbaJNS2EhXnyHR",
        "reception_time": "2022-01-16T19:47:19.911-00:00",
        "included_in_blocks":
          [ "BMLEGjAebof2BtVELb57UDhoG4zyCi3bzF1HxRgFop7JRS3aG6N" ] },
      { "delegate": "tz1LLNkQK4UQV6QcFShiXJ2vT2ELw449MzAA",
        "reception_time": "2022-01-16T19:47:19.814-00:00",
        "included_in_blocks":
          [ "BMLEGjAebof2BtVELb57UDhoG4zyCi3bzF1HxRgFop7JRS3aG6N" ] },
      { "delegate": "tz1eEnQhbwf6trb8Q8mPb2RaPkNk2rN7BKi8",
        "reception_time": "2022-01-16T19:47:19.758-00:00",
        "included_in_blocks":
          [ "BMLEGjAebof2BtVELb57UDhoG4zyCi3bzF1HxRgFop7JRS3aG6N" ] },
      { "delegate": "tz1irJKkXS2DBWkU1NnmFQx1c1L7pbGg4yhk",
        "reception_time": "2022-01-16T19:47:19.787-00:00",
        "included_in_blocks":
          [ "BMLEGjAebof2BtVELb57UDhoG4zyCi3bzF1HxRgFop7JRS3aG6N" ] },
      { "delegate": "tz3bTdwZinP8U1JmSweNzVKhmwafqWmFWRfk",
        "reception_time": "2022-01-16T19:47:19.748-00:00",
        "included_in_blocks":
          [ "BMLEGjAebof2BtVELb57UDhoG4zyCi3bzF1HxRgFop7JRS3aG6N" ] },
      { "delegate": "tz1Scdr2HsZiQjc7bHMeBbmDRXYVvdhjJbBh",
        "reception_time": "2022-01-16T19:47:19.734-00:00",
        "included_in_blocks":
          [ "BMLEGjAebof2BtVELb57UDhoG4zyCi3bzF1HxRgFop7JRS3aG6N" ] },
      { "delegate": "tz1Kt4P8BCaP93AEV4eA7gmpRryWt5hznjCP",
        "reception_time": "2022-01-16T19:47:19.187-00:00",
        "included_in_blocks":
          [ "BMLEGjAebof2BtVELb57UDhoG4zyCi3bzF1HxRgFop7JRS3aG6N" ] } ] }