{ "blocks":
    [ { "hash": "BLLu1TSafDzuKLe15w7igdZQ47xpdvzZZbNXhokaAcBeF4sk3yq",
        "delegate": "tz1S8MNvuFEUsWgjHvi3AxibRBf388NhT1q2",
        "reception_time": "2022-01-16T23:53:05.071-00:00",
        "timestamp": "2022-01-16T23:53:00Z" } ],
  "endorsements":
    [ { "delegate": "tz1awXW7wuXy21c66vBudMXQVAPgRnqqwgTH" },
      { "delegate": "tz1P2Po7YM526ughEsRbY4oR9zaUPDZjxFrb",
        "reception_time": "2022-01-16T23:53:04.997-00:00",
        "errors":
          [ { "kind": "temporary",
              "id": "proto.011-PtHangz2.prefilter.outdated_endorsement" } ],
        "included_in_blocks":
          [ "BKokbbwKNNvwoak1XTQyVeV5gPpJCu6RpfKfBftKXfbaT2LcWtB" ] },
      { "delegate": "tz1QLXqnfN51dkjeghXvKHkJfhvGiM5gK4tc",
        "reception_time": "2022-01-16T23:53:04.746-00:00",
        "errors":
          [ { "kind": "temporary",
              "id": "proto.011-PtHangz2.prefilter.outdated_endorsement" } ],
        "included_in_blocks":
          [ "BKokbbwKNNvwoak1XTQyVeV5gPpJCu6RpfKfBftKXfbaT2LcWtB" ] },
      { "delegate": "tz3e7LbZvUtoXhpUD1yb6wuFodZpfYRb9nWJ",
        "reception_time": "2022-01-16T23:53:14.211-00:00",
        "included_in_blocks":
          [ "BKokbbwKNNvwoak1XTQyVeV5gPpJCu6RpfKfBftKXfbaT2LcWtB" ] },
      { "delegate": "tz1NpWrAyDL9k2Lmnyxcgr9xuJakbBxdq7FB",
        "reception_time": "2022-01-16T23:53:13.413-00:00",
        "included_in_blocks":
          [ "BKokbbwKNNvwoak1XTQyVeV5gPpJCu6RpfKfBftKXfbaT2LcWtB" ] },
      { "delegate": "tz1go7f6mEQfT2xX2LuHAqgnRGN6c2zHPf5c",
        "reception_time": "2022-01-16T23:53:11.489-00:00",
        "included_in_blocks":
          [ "BKokbbwKNNvwoak1XTQyVeV5gPpJCu6RpfKfBftKXfbaT2LcWtB" ] },
      { "delegate": "tz1MbhmEwEAzzfb3naSr7vTp4mDxB8HsknA9",
        "reception_time": "2022-01-16T23:53:10.009-00:00",
        "included_in_blocks":
          [ "BKokbbwKNNvwoak1XTQyVeV5gPpJCu6RpfKfBftKXfbaT2LcWtB" ] },
      { "delegate": "tz1aJS7Pk9uWR3wWyFf1i3RwhYxN84G7stom",
        "reception_time": "2022-01-16T23:53:09.567-00:00",
        "included_in_blocks":
          [ "BKokbbwKNNvwoak1XTQyVeV5gPpJCu6RpfKfBftKXfbaT2LcWtB" ] },
      { "delegate": "tz1PFeoTuFen8jAMRHajBySNyCwLmY5RqF9M",
        "reception_time": "2022-01-16T23:53:09.057-00:00",
        "included_in_blocks":
          [ "BKokbbwKNNvwoak1XTQyVeV5gPpJCu6RpfKfBftKXfbaT2LcWtB" ] },
      { "delegate": "tz1bTpviNnyx2PXsNmGpCQTMQsGoYordkUoA",
        "reception_time": "2022-01-16T23:53:08.632-00:00",
        "included_in_blocks":
          [ "BKokbbwKNNvwoak1XTQyVeV5gPpJCu6RpfKfBftKXfbaT2LcWtB" ] },
      { "delegate": "tz1ZcTRk5uxD86EFEn1vvNffWWqJy7q5eVhc",
        "reception_time": "2022-01-16T23:53:08.682-00:00",
        "included_in_blocks":
          [ "BKokbbwKNNvwoak1XTQyVeV5gPpJCu6RpfKfBftKXfbaT2LcWtB" ] },
      { "delegate": "tz1cYufsxHXJcvANhvS55h3aY32a9BAFB494",
        "reception_time": "2022-01-16T23:53:08.269-00:00",
        "included_in_blocks":
          [ "BKokbbwKNNvwoak1XTQyVeV5gPpJCu6RpfKfBftKXfbaT2LcWtB" ] },
      { "delegate": "tz1aRoaRhSpRYvFdyvgWLL6TGyRoGF51wDjM",
        "reception_time": "2022-01-16T23:53:08.237-00:00",
        "included_in_blocks":
          [ "BKokbbwKNNvwoak1XTQyVeV5gPpJCu6RpfKfBftKXfbaT2LcWtB" ] },
      { "delegate": "tz1T7duV5gZWSTq4YpBGbXNLTfznCLDrFxvs",
        "reception_time": "2022-01-16T23:53:08.327-00:00",
        "included_in_blocks":
          [ "BKokbbwKNNvwoak1XTQyVeV5gPpJCu6RpfKfBftKXfbaT2LcWtB" ] },
      { "delegate": "tz1dRKU4FQ9QRRQPdaH4zCR6gmCmXfcvcgtB",
        "reception_time": "2022-01-16T23:53:08.203-00:00",
        "included_in_blocks":
          [ "BKokbbwKNNvwoak1XTQyVeV5gPpJCu6RpfKfBftKXfbaT2LcWtB" ] },
      { "delegate": "tz1UvkANVPWppVgMkLnvN7BwYZsCP7vm6NVd",
        "reception_time": "2022-01-16T23:53:08.182-00:00",
        "included_in_blocks":
          [ "BKokbbwKNNvwoak1XTQyVeV5gPpJCu6RpfKfBftKXfbaT2LcWtB" ] },
      { "delegate": "tz3NDpRj6WBrJPikcPVHRBEjWKxFw3c6eQPS",
        "reception_time": "2022-01-16T23:53:07.862-00:00",
        "included_in_blocks":
          [ "BKokbbwKNNvwoak1XTQyVeV5gPpJCu6RpfKfBftKXfbaT2LcWtB" ] },
      { "delegate": "tz1TRqbYbUf2GyrjErf3hBzgBJPzW8y36qEs",
        "reception_time": "2022-01-16T23:53:07.986-00:00",
        "included_in_blocks":
          [ "BKokbbwKNNvwoak1XTQyVeV5gPpJCu6RpfKfBftKXfbaT2LcWtB" ] },
      { "delegate": "tz3NExpXn9aPNZPorRE4SdjJ2RGrfbJgMAaV",
        "reception_time": "2022-01-16T23:53:07.841-00:00",
        "included_in_blocks":
          [ "BKokbbwKNNvwoak1XTQyVeV5gPpJCu6RpfKfBftKXfbaT2LcWtB" ] },
      { "delegate": "tz3UoffC7FG7zfpmvmjUmUeAaHvzdcUvAj6r",
        "reception_time": "2022-01-16T23:53:07.832-00:00",
        "included_in_blocks":
          [ "BKokbbwKNNvwoak1XTQyVeV5gPpJCu6RpfKfBftKXfbaT2LcWtB" ] },
      { "delegate": "tz1PeZx7FXy7QRuMREGXGxeipb24RsMMzUNe",
        "reception_time": "2022-01-16T23:53:07.820-00:00",
        "included_in_blocks":
          [ "BKokbbwKNNvwoak1XTQyVeV5gPpJCu6RpfKfBftKXfbaT2LcWtB" ] },
      { "delegate": "tz1SohptP53wDPZhzTWzDUFAUcWF6DMBpaJV",
        "reception_time": "2022-01-16T23:53:07.691-00:00",
        "included_in_blocks":
          [ "BKokbbwKNNvwoak1XTQyVeV5gPpJCu6RpfKfBftKXfbaT2LcWtB" ] },
      { "delegate": "tz3RDC3Jdn4j15J7bBHZd29EUee9gVB1CxD9",
        "reception_time": "2022-01-16T23:53:07.602-00:00",
        "included_in_blocks":
          [ "BKokbbwKNNvwoak1XTQyVeV5gPpJCu6RpfKfBftKXfbaT2LcWtB" ] },
      { "delegate": "tz1NoYvKjXTzTk54VpLxBfouJ33J8jwKPPvw",
        "reception_time": "2022-01-16T23:53:07.536-00:00",
        "included_in_blocks":
          [ "BKokbbwKNNvwoak1XTQyVeV5gPpJCu6RpfKfBftKXfbaT2LcWtB" ] },
      { "delegate": "tz1V3yg82mcrPJbegqVCPn6bC8w1CSTRp3f8",
        "reception_time": "2022-01-16T23:53:07.487-00:00",
        "included_in_blocks":
          [ "BKokbbwKNNvwoak1XTQyVeV5gPpJCu6RpfKfBftKXfbaT2LcWtB" ] },
      { "delegate": "tz3e75hU4EhDU3ukyJueh5v6UvEHzGwkg3yC",
        "reception_time": "2022-01-16T23:53:07.577-00:00",
        "included_in_blocks":
          [ "BKokbbwKNNvwoak1XTQyVeV5gPpJCu6RpfKfBftKXfbaT2LcWtB" ] },
      { "delegate": "tz1bxVgPCiveFHSand7zn22S8ZBtvNQbqgqU",
        "reception_time": "2022-01-16T23:53:07.348-00:00",
        "included_in_blocks":
          [ "BKokbbwKNNvwoak1XTQyVeV5gPpJCu6RpfKfBftKXfbaT2LcWtB" ] },
      { "delegate": "tz3VEZ4k6a4Wx42iyev6i2aVAptTRLEAivNN",
        "reception_time": "2022-01-16T23:53:07.199-00:00",
        "included_in_blocks":
          [ "BKokbbwKNNvwoak1XTQyVeV5gPpJCu6RpfKfBftKXfbaT2LcWtB" ] },
      { "delegate": "tz1NEKxGEHsFufk87CVZcrqWu8o22qh46GK6",
        "reception_time": "2022-01-16T23:53:07.149-00:00",
        "included_in_blocks":
          [ "BKokbbwKNNvwoak1XTQyVeV5gPpJCu6RpfKfBftKXfbaT2LcWtB" ] },
      { "delegate": "tz1SYq214SCBy9naR6cvycQsYcUGpBqQAE8d",
        "reception_time": "2022-01-16T23:53:07.145-00:00",
        "included_in_blocks":
          [ "BKokbbwKNNvwoak1XTQyVeV5gPpJCu6RpfKfBftKXfbaT2LcWtB" ] },
      { "delegate": "tz1a1J3AGjJTAyBqWWSqFuUazUDV2TtD6hMy",
        "reception_time": "2022-01-16T23:53:07.078-00:00",
        "included_in_blocks":
          [ "BKokbbwKNNvwoak1XTQyVeV5gPpJCu6RpfKfBftKXfbaT2LcWtB" ] },
      { "delegate": "tz1ei4WtWEMEJekSv8qDnu9PExG6Q8HgRGr3",
        "reception_time": "2022-01-16T23:53:07.128-00:00",
        "included_in_blocks":
          [ "BKokbbwKNNvwoak1XTQyVeV5gPpJCu6RpfKfBftKXfbaT2LcWtB" ] },
      { "delegate": "tz1UMCB2AHSTwG7YcGNr31CqYCtGN873royv",
        "reception_time": "2022-01-16T23:53:07.010-00:00",
        "included_in_blocks":
          [ "BKokbbwKNNvwoak1XTQyVeV5gPpJCu6RpfKfBftKXfbaT2LcWtB" ] },
      { "delegate": "tz1fwnfJNgiDACshK9avfRfFbMaXrs3ghoJa",
        "reception_time": "2022-01-16T23:53:07.001-00:00",
        "included_in_blocks":
          [ "BKokbbwKNNvwoak1XTQyVeV5gPpJCu6RpfKfBftKXfbaT2LcWtB" ] },
      { "delegate": "tz1axcnVN9tZnCe4sQQhC6f3tfSEXdjPaXPY",
        "reception_time": "2022-01-16T23:53:07.025-00:00",
        "included_in_blocks":
          [ "BKokbbwKNNvwoak1XTQyVeV5gPpJCu6RpfKfBftKXfbaT2LcWtB" ] },
      { "delegate": "tz2FCNBrERXtaTtNX6iimR1UJ5JSDxvdHM93",
        "reception_time": "2022-01-16T23:53:07.017-00:00",
        "included_in_blocks":
          [ "BKokbbwKNNvwoak1XTQyVeV5gPpJCu6RpfKfBftKXfbaT2LcWtB" ] },
      { "delegate": "tz1g8vkmcde6sWKaG2NN9WKzCkDM6Rziq194",
        "reception_time": "2022-01-16T23:53:07.021-00:00",
        "included_in_blocks":
          [ "BKokbbwKNNvwoak1XTQyVeV5gPpJCu6RpfKfBftKXfbaT2LcWtB" ] },
      { "delegate": "tz1WBfwbT66FC6BTLexc2BoyCCBM9LG7pnVW",
        "reception_time": "2022-01-16T23:53:07.013-00:00",
        "included_in_blocks":
          [ "BKokbbwKNNvwoak1XTQyVeV5gPpJCu6RpfKfBftKXfbaT2LcWtB" ] },
      { "delegate": "tz1TEc75UKXv4W5cwi14Na3NtqFD51yKQi7h",
        "reception_time": "2022-01-16T23:53:06.953-00:00",
        "included_in_blocks":
          [ "BKokbbwKNNvwoak1XTQyVeV5gPpJCu6RpfKfBftKXfbaT2LcWtB" ] },
      { "delegate": "tz1R4PuhxUxBBZhfLJDx2nNjbr7WorAPX1oC",
        "reception_time": "2022-01-16T23:53:06.823-00:00",
        "included_in_blocks":
          [ "BKokbbwKNNvwoak1XTQyVeV5gPpJCu6RpfKfBftKXfbaT2LcWtB" ] },
      { "delegate": "tz3bvNMQ95vfAYtG8193ymshqjSvmxiCUuR5",
        "reception_time": "2022-01-16T23:53:06.695-00:00",
        "included_in_blocks":
          [ "BKokbbwKNNvwoak1XTQyVeV5gPpJCu6RpfKfBftKXfbaT2LcWtB" ] },
      { "delegate": "tz1RCFbB9GpALpsZtu6J58sb74dm8qe6XBzv",
        "reception_time": "2022-01-16T23:53:06.718-00:00",
        "included_in_blocks":
          [ "BKokbbwKNNvwoak1XTQyVeV5gPpJCu6RpfKfBftKXfbaT2LcWtB" ] },
      { "delegate": "tz3RB4aoyjov4KEVRbuhvQ1CKJgBJMWhaeB8",
        "reception_time": "2022-01-16T23:53:06.637-00:00",
        "included_in_blocks":
          [ "BKokbbwKNNvwoak1XTQyVeV5gPpJCu6RpfKfBftKXfbaT2LcWtB" ] },
      { "delegate": "tz1PWCDnz783NNGGQjEFFsHtrcK5yBW4E2rm",
        "reception_time": "2022-01-16T23:53:06.506-00:00",
        "included_in_blocks":
          [ "BKokbbwKNNvwoak1XTQyVeV5gPpJCu6RpfKfBftKXfbaT2LcWtB" ] },
      { "delegate": "tz3WMqdzXqRWXwyvj5Hp2H7QEepaUuS7vd9K",
        "reception_time": "2022-01-16T23:53:06.473-00:00",
        "included_in_blocks":
          [ "BKokbbwKNNvwoak1XTQyVeV5gPpJCu6RpfKfBftKXfbaT2LcWtB" ] },
      { "delegate": "tz3bTdwZinP8U1JmSweNzVKhmwafqWmFWRfk",
        "reception_time": "2022-01-16T23:53:06.516-00:00",
        "included_in_blocks":
          [ "BKokbbwKNNvwoak1XTQyVeV5gPpJCu6RpfKfBftKXfbaT2LcWtB" ] },
      { "delegate": "tz1MQJPGNMijnXnVoBENFz9rUhaPt3S7rWoz",
        "reception_time": "2022-01-16T23:53:06.447-00:00",
        "included_in_blocks":
          [ "BKokbbwKNNvwoak1XTQyVeV5gPpJCu6RpfKfBftKXfbaT2LcWtB" ] },
      { "delegate": "tz1Nf6tsK4G6bBqgSQERy4nUtkHNKUVdh7q1",
        "reception_time": "2022-01-16T23:53:06.343-00:00",
        "included_in_blocks":
          [ "BKokbbwKNNvwoak1XTQyVeV5gPpJCu6RpfKfBftKXfbaT2LcWtB" ] },
      { "delegate": "tz1cSj7fTex3JPd1p1LN1fwek6AV1kH93Wwc",
        "reception_time": "2022-01-16T23:53:06.345-00:00",
        "included_in_blocks":
          [ "BKokbbwKNNvwoak1XTQyVeV5gPpJCu6RpfKfBftKXfbaT2LcWtB" ] },
      { "delegate": "tz1VQnqCCqX4K5sP3FNkVSNKTdCAMJDd3E1n",
        "reception_time": "2022-01-16T23:53:06.340-00:00",
        "included_in_blocks":
          [ "BKokbbwKNNvwoak1XTQyVeV5gPpJCu6RpfKfBftKXfbaT2LcWtB" ] },
      { "delegate": "tz3S6BBeKgJGXxvLyZ1xzXzMPn11nnFtq5L9",
        "reception_time": "2022-01-16T23:53:06.351-00:00",
        "included_in_blocks":
          [ "BKokbbwKNNvwoak1XTQyVeV5gPpJCu6RpfKfBftKXfbaT2LcWtB" ] },
      { "delegate": "tz1gUNyn3hmnEWqkusWPzxRaon1cs7ndWh7h",
        "reception_time": "2022-01-16T23:53:06.326-00:00",
        "included_in_blocks":
          [ "BKokbbwKNNvwoak1XTQyVeV5gPpJCu6RpfKfBftKXfbaT2LcWtB" ] },
      { "delegate": "tz3QT9dHYKDqh563chVa6za8526ys1UKfRfL",
        "reception_time": "2022-01-16T23:53:06.309-00:00",
        "included_in_blocks":
          [ "BKokbbwKNNvwoak1XTQyVeV5gPpJCu6RpfKfBftKXfbaT2LcWtB" ] },
      { "delegate": "tz3Zhs2dygr55yHyQyKjntAtY9bgfhLZ4Xj1",
        "reception_time": "2022-01-16T23:53:06.358-00:00",
        "included_in_blocks":
          [ "BKokbbwKNNvwoak1XTQyVeV5gPpJCu6RpfKfBftKXfbaT2LcWtB" ] },
      { "delegate": "tz3iJu5vrKZcsqRPs8yJ61UDoeEXZmtro4qh",
        "reception_time": "2022-01-16T23:53:06.322-00:00",
        "included_in_blocks":
          [ "BKokbbwKNNvwoak1XTQyVeV5gPpJCu6RpfKfBftKXfbaT2LcWtB" ] },
      { "delegate": "tz1WCd2jm4uSt4vntk4vSuUWoZQGhLcDuR9q",
        "reception_time": "2022-01-16T23:53:06.203-00:00",
        "included_in_blocks":
          [ "BKokbbwKNNvwoak1XTQyVeV5gPpJCu6RpfKfBftKXfbaT2LcWtB" ] },
      { "delegate": "tz3gtoUxdudfBRcNY7iVdKPHCYYX6xdPpoRS",
        "reception_time": "2022-01-16T23:53:06.302-00:00",
        "included_in_blocks":
          [ "BKokbbwKNNvwoak1XTQyVeV5gPpJCu6RpfKfBftKXfbaT2LcWtB" ] },
      { "delegate": "tz3QSGPoRp3Kn7n3vY24eYeu3Peuqo45LQ4D",
        "reception_time": "2022-01-16T23:53:06.283-00:00",
        "included_in_blocks":
          [ "BKokbbwKNNvwoak1XTQyVeV5gPpJCu6RpfKfBftKXfbaT2LcWtB" ] },
      { "delegate": "tz3RKYFsLuQzKBtmYuLNas7uMu3AsYd4QdsA",
        "reception_time": "2022-01-16T23:53:06.145-00:00",
        "included_in_blocks":
          [ "BKokbbwKNNvwoak1XTQyVeV5gPpJCu6RpfKfBftKXfbaT2LcWtB" ] },
      { "delegate": "tz1gfArv665EUkSg2ojMBzcbfwuPxAvqPvjo",
        "reception_time": "2022-01-16T23:53:06.112-00:00",
        "included_in_blocks":
          [ "BKokbbwKNNvwoak1XTQyVeV5gPpJCu6RpfKfBftKXfbaT2LcWtB" ] },
      { "delegate": "tz1TzaNn7wSQSP5gYPXCnNzBCpyMiidCq1PX",
        "reception_time": "2022-01-16T23:53:06.050-00:00",
        "included_in_blocks":
          [ "BKokbbwKNNvwoak1XTQyVeV5gPpJCu6RpfKfBftKXfbaT2LcWtB" ] },
      { "delegate": "tz3ZbP2pM3nwvXztbuMJwJnDvV5xdpU8UkkD",
        "reception_time": "2022-01-16T23:53:06.046-00:00",
        "included_in_blocks":
          [ "BKokbbwKNNvwoak1XTQyVeV5gPpJCu6RpfKfBftKXfbaT2LcWtB" ] },
      { "delegate": "tz1Ldzz6k1BHdhuKvAtMRX7h5kJSMHESMHLC",
        "reception_time": "2022-01-16T23:53:06.056-00:00",
        "included_in_blocks":
          [ "BKokbbwKNNvwoak1XTQyVeV5gPpJCu6RpfKfBftKXfbaT2LcWtB" ] },
      { "delegate": "tz1YhNsiRRU8aHNGg7NK3uuP6UDAyacJernB",
        "reception_time": "2022-01-16T23:53:06.053-00:00",
        "included_in_blocks":
          [ "BKokbbwKNNvwoak1XTQyVeV5gPpJCu6RpfKfBftKXfbaT2LcWtB" ] },
      { "delegate": "tz1UJvHTgpVzcKWhTazGxVcn5wsHru5Gietg",
        "reception_time": "2022-01-16T23:53:06.032-00:00",
        "included_in_blocks":
          [ "BKokbbwKNNvwoak1XTQyVeV5gPpJCu6RpfKfBftKXfbaT2LcWtB" ] },
      { "delegate": "tz3QCNyySViKHmeSr45kzDxzchys7NiXCWoa",
        "reception_time": "2022-01-16T23:53:05.993-00:00",
        "included_in_blocks":
          [ "BKokbbwKNNvwoak1XTQyVeV5gPpJCu6RpfKfBftKXfbaT2LcWtB" ] },
      { "delegate": "tz3NxTnke1acr8o3h5y9ytf5awQBGNJUKzVU",
        "reception_time": "2022-01-16T23:53:06.040-00:00",
        "included_in_blocks":
          [ "BKokbbwKNNvwoak1XTQyVeV5gPpJCu6RpfKfBftKXfbaT2LcWtB" ] },
      { "delegate": "tz1Kf25fX1VdmYGSEzwFy1wNmkbSEZ2V83sY",
        "reception_time": "2022-01-16T23:53:06.000-00:00",
        "included_in_blocks":
          [ "BKokbbwKNNvwoak1XTQyVeV5gPpJCu6RpfKfBftKXfbaT2LcWtB" ] },
      { "delegate": "tz1VmiY38m3y95HqQLjMwqnMS7sdMfGomzKi",
        "reception_time": "2022-01-16T23:53:06.011-00:00",
        "included_in_blocks":
          [ "BKokbbwKNNvwoak1XTQyVeV5gPpJCu6RpfKfBftKXfbaT2LcWtB" ] },
      { "delegate": "tz1MJx9vhaNRSimcuXPK2rW4fLccQnDAnVKJ",
        "reception_time": "2022-01-16T23:53:05.998-00:00",
        "included_in_blocks":
          [ "BKokbbwKNNvwoak1XTQyVeV5gPpJCu6RpfKfBftKXfbaT2LcWtB" ] },
      { "delegate": "tz1eEnQhbwf6trb8Q8mPb2RaPkNk2rN7BKi8",
        "reception_time": "2022-01-16T23:53:05.980-00:00",
        "included_in_blocks":
          [ "BKokbbwKNNvwoak1XTQyVeV5gPpJCu6RpfKfBftKXfbaT2LcWtB" ] },
      { "delegate": "tz1aXD7Jigrt3PBYSpHSg5Rr33SexMmmM5Ys",
        "reception_time": "2022-01-16T23:53:05.972-00:00",
        "included_in_blocks":
          [ "BKokbbwKNNvwoak1XTQyVeV5gPpJCu6RpfKfBftKXfbaT2LcWtB" ] },
      { "delegate": "tz1STeamwbp68THcny9zk3LsbG3H36DMvbRK",
        "reception_time": "2022-01-16T23:53:05.967-00:00",
        "included_in_blocks":
          [ "BKokbbwKNNvwoak1XTQyVeV5gPpJCu6RpfKfBftKXfbaT2LcWtB" ] },
      { "delegate": "tz1RV1MBbZMR68tacosb7Mwj6LkbPSUS1er1",
        "reception_time": "2022-01-16T23:53:05.962-00:00",
        "included_in_blocks":
          [ "BKokbbwKNNvwoak1XTQyVeV5gPpJCu6RpfKfBftKXfbaT2LcWtB" ] },
      { "delegate": "tz1Scdr2HsZiQjc7bHMeBbmDRXYVvdhjJbBh",
        "reception_time": "2022-01-16T23:53:05.986-00:00",
        "included_in_blocks":
          [ "BKokbbwKNNvwoak1XTQyVeV5gPpJCu6RpfKfBftKXfbaT2LcWtB" ] },
      { "delegate": "tz1Lhf4J9Qxoe3DZ2nfe8FGDnvVj7oKjnMY6",
        "reception_time": "2022-01-16T23:53:05.967-00:00",
        "included_in_blocks":
          [ "BKokbbwKNNvwoak1XTQyVeV5gPpJCu6RpfKfBftKXfbaT2LcWtB" ] },
      { "delegate": "tz1irJKkXS2DBWkU1NnmFQx1c1L7pbGg4yhk",
        "reception_time": "2022-01-16T23:53:05.982-00:00",
        "included_in_blocks":
          [ "BKokbbwKNNvwoak1XTQyVeV5gPpJCu6RpfKfBftKXfbaT2LcWtB" ] },
      { "delegate": "tz1S8MNvuFEUsWgjHvi3AxibRBf388NhT1q2",
        "reception_time": "2022-01-16T23:53:05.460-00:00",
        "included_in_blocks":
          [ "BKokbbwKNNvwoak1XTQyVeV5gPpJCu6RpfKfBftKXfbaT2LcWtB" ] } ] }