{ "blocks":
    [ { "hash": "BKmKAs8ZRNHzFfXNhwmxRqCR7U96RuS3DVEFor4QoqpY25wjq5h",
        "delegate": "tz1S8MNvuFEUsWgjHvi3AxibRBf388NhT1q2",
        "reception_time": "2022-01-17T03:30:45.708-00:00",
        "timestamp": "2022-01-17T03:30:40Z" } ],
  "endorsements":
    [ { "delegate": "tz1Lhf4J9Qxoe3DZ2nfe8FGDnvVj7oKjnMY6",
        "reception_time": "2022-01-17T03:30:45.594-00:00",
        "errors":
          [ { "kind": "temporary",
              "id": "proto.011-PtHangz2.prefilter.outdated_endorsement" } ],
        "included_in_blocks":
          [ "BMQSNeZnUyeCmhacBxdWcazA19qkvbE6NFeYKx5XT3ScrUriZ3W" ] },
      { "delegate": "tz1S8e9GgdZG78XJRB3NqabfWeM37GnhZMWQ",
        "reception_time": "2022-01-17T03:30:44.962-00:00",
        "errors":
          [ { "kind": "temporary",
              "id": "proto.011-PtHangz2.prefilter.outdated_endorsement" } ],
        "included_in_blocks":
          [ "BMQSNeZnUyeCmhacBxdWcazA19qkvbE6NFeYKx5XT3ScrUriZ3W" ] },
      { "delegate": "tz1RjoHc98dBoqaH2jawF62XNKh7YsHwbkEv" },
      { "delegate": "tz1awXW7wuXy21c66vBudMXQVAPgRnqqwgTH" },
      { "delegate": "tz1dbfppLAAxXZNtf2SDps7rch3qfUznKSoK" },
      { "delegate": "tz1Scdr2HsZiQjc7bHMeBbmDRXYVvdhjJbBh",
        "reception_time": "2022-01-17T03:30:46.469-00:00",
        "included_in_blocks":
          [ "BMQSNeZnUyeCmhacBxdWcazA19qkvbE6NFeYKx5XT3ScrUriZ3W" ] },
      { "delegate": "tz1eEnQhbwf6trb8Q8mPb2RaPkNk2rN7BKi8",
        "reception_time": "2022-01-17T03:30:46.475-00:00",
        "included_in_blocks":
          [ "BMQSNeZnUyeCmhacBxdWcazA19qkvbE6NFeYKx5XT3ScrUriZ3W" ] },
      { "delegate": "tz1irJKkXS2DBWkU1NnmFQx1c1L7pbGg4yhk",
        "reception_time": "2022-01-17T03:30:46.479-00:00",
        "included_in_blocks":
          [ "BMQSNeZnUyeCmhacBxdWcazA19qkvbE6NFeYKx5XT3ScrUriZ3W" ] },
      { "delegate": "tz1TXzyaKUA8wsWefdSnyaYFnV2M3vCV7er9",
        "reception_time": "2022-01-17T03:30:46.483-00:00",
        "included_in_blocks":
          [ "BMQSNeZnUyeCmhacBxdWcazA19qkvbE6NFeYKx5XT3ScrUriZ3W" ] },
      { "delegate": "tz1RV1MBbZMR68tacosb7Mwj6LkbPSUS1er1",
        "reception_time": "2022-01-17T03:30:46.494-00:00",
        "included_in_blocks":
          [ "BMQSNeZnUyeCmhacBxdWcazA19qkvbE6NFeYKx5XT3ScrUriZ3W" ] },
      { "delegate": "tz1S8MNvuFEUsWgjHvi3AxibRBf388NhT1q2",
        "reception_time": "2022-01-17T03:30:46.494-00:00",
        "included_in_blocks":
          [ "BMQSNeZnUyeCmhacBxdWcazA19qkvbE6NFeYKx5XT3ScrUriZ3W" ] },
      { "delegate": "tz1Ldzz6k1BHdhuKvAtMRX7h5kJSMHESMHLC",
        "reception_time": "2022-01-17T03:30:46.499-00:00",
        "included_in_blocks":
          [ "BMQSNeZnUyeCmhacBxdWcazA19qkvbE6NFeYKx5XT3ScrUriZ3W" ] },
      { "delegate": "tz1aXD7Jigrt3PBYSpHSg5Rr33SexMmmM5Ys",
        "reception_time": "2022-01-17T03:30:46.509-00:00",
        "included_in_blocks":
          [ "BMQSNeZnUyeCmhacBxdWcazA19qkvbE6NFeYKx5XT3ScrUriZ3W" ] },
      { "delegate": "tz1VQnqCCqX4K5sP3FNkVSNKTdCAMJDd3E1n",
        "reception_time": "2022-01-17T03:30:46.524-00:00",
        "included_in_blocks":
          [ "BMQSNeZnUyeCmhacBxdWcazA19qkvbE6NFeYKx5XT3ScrUriZ3W" ] },
      { "delegate": "tz3RKYFsLuQzKBtmYuLNas7uMu3AsYd4QdsA",
        "reception_time": "2022-01-17T03:30:46.537-00:00",
        "included_in_blocks":
          [ "BMQSNeZnUyeCmhacBxdWcazA19qkvbE6NFeYKx5XT3ScrUriZ3W" ] },
      { "delegate": "tz3hw2kqXhLUvY65ca1eety2oQTpAvd34R9Q",
        "reception_time": "2022-01-17T03:30:46.544-00:00",
        "included_in_blocks":
          [ "BMQSNeZnUyeCmhacBxdWcazA19qkvbE6NFeYKx5XT3ScrUriZ3W" ] },
      { "delegate": "tz1WnfXMPaNTBmH7DBPwqCWs9cPDJdkGBTZ8",
        "reception_time": "2022-01-17T03:30:46.665-00:00",
        "included_in_blocks":
          [ "BMQSNeZnUyeCmhacBxdWcazA19qkvbE6NFeYKx5XT3ScrUriZ3W" ] },
      { "delegate": "tz1gfArv665EUkSg2ojMBzcbfwuPxAvqPvjo",
        "reception_time": "2022-01-17T03:30:46.694-00:00",
        "included_in_blocks":
          [ "BMQSNeZnUyeCmhacBxdWcazA19qkvbE6NFeYKx5XT3ScrUriZ3W" ] },
      { "delegate": "tz1PWCDnz783NNGGQjEFFsHtrcK5yBW4E2rm",
        "reception_time": "2022-01-17T03:30:46.699-00:00",
        "included_in_blocks":
          [ "BMQSNeZnUyeCmhacBxdWcazA19qkvbE6NFeYKx5XT3ScrUriZ3W" ] },
      { "delegate": "tz3QCNyySViKHmeSr45kzDxzchys7NiXCWoa",
        "reception_time": "2022-01-17T03:30:46.715-00:00",
        "included_in_blocks":
          [ "BMQSNeZnUyeCmhacBxdWcazA19qkvbE6NFeYKx5XT3ScrUriZ3W" ] },
      { "delegate": "tz3gtoUxdudfBRcNY7iVdKPHCYYX6xdPpoRS",
        "reception_time": "2022-01-17T03:30:46.777-00:00",
        "included_in_blocks":
          [ "BMQSNeZnUyeCmhacBxdWcazA19qkvbE6NFeYKx5XT3ScrUriZ3W" ] },
      { "delegate": "tz1RCFbB9GpALpsZtu6J58sb74dm8qe6XBzv",
        "reception_time": "2022-01-17T03:30:46.800-00:00",
        "included_in_blocks":
          [ "BMQSNeZnUyeCmhacBxdWcazA19qkvbE6NFeYKx5XT3ScrUriZ3W" ] },
      { "delegate": "tz3ZbP2pM3nwvXztbuMJwJnDvV5xdpU8UkkD",
        "reception_time": "2022-01-17T03:30:46.813-00:00",
        "included_in_blocks":
          [ "BMQSNeZnUyeCmhacBxdWcazA19qkvbE6NFeYKx5XT3ScrUriZ3W" ] },
      { "delegate": "tz3Zhs2dygr55yHyQyKjntAtY9bgfhLZ4Xj1",
        "reception_time": "2022-01-17T03:30:46.820-00:00",
        "included_in_blocks":
          [ "BMQSNeZnUyeCmhacBxdWcazA19qkvbE6NFeYKx5XT3ScrUriZ3W" ] },
      { "delegate": "tz3QSGPoRp3Kn7n3vY24eYeu3Peuqo45LQ4D",
        "reception_time": "2022-01-17T03:30:46.833-00:00",
        "included_in_blocks":
          [ "BMQSNeZnUyeCmhacBxdWcazA19qkvbE6NFeYKx5XT3ScrUriZ3W" ] },
      { "delegate": "tz3NxTnke1acr8o3h5y9ytf5awQBGNJUKzVU",
        "reception_time": "2022-01-17T03:30:46.849-00:00",
        "included_in_blocks":
          [ "BMQSNeZnUyeCmhacBxdWcazA19qkvbE6NFeYKx5XT3ScrUriZ3W" ] },
      { "delegate": "tz1WCd2jm4uSt4vntk4vSuUWoZQGhLcDuR9q",
        "reception_time": "2022-01-17T03:30:46.860-00:00",
        "included_in_blocks":
          [ "BMQSNeZnUyeCmhacBxdWcazA19qkvbE6NFeYKx5XT3ScrUriZ3W" ] },
      { "delegate": "tz1cSj7fTex3JPd1p1LN1fwek6AV1kH93Wwc",
        "reception_time": "2022-01-17T03:30:46.864-00:00",
        "included_in_blocks":
          [ "BMQSNeZnUyeCmhacBxdWcazA19qkvbE6NFeYKx5XT3ScrUriZ3W" ] },
      { "delegate": "tz3iJu5vrKZcsqRPs8yJ61UDoeEXZmtro4qh",
        "reception_time": "2022-01-17T03:30:46.877-00:00",
        "included_in_blocks":
          [ "BMQSNeZnUyeCmhacBxdWcazA19qkvbE6NFeYKx5XT3ScrUriZ3W" ] },
      { "delegate": "tz1fUjvVhJrHLZCbhPNvDRckxApqbkievJHN",
        "reception_time": "2022-01-17T03:30:46.968-00:00",
        "included_in_blocks":
          [ "BMQSNeZnUyeCmhacBxdWcazA19qkvbE6NFeYKx5XT3ScrUriZ3W" ] },
      { "delegate": "tz1d6Fx42mYgVFnHUW8T8A7WBfJ6nD9pVok8",
        "reception_time": "2022-01-17T03:30:47.043-00:00",
        "included_in_blocks":
          [ "BMQSNeZnUyeCmhacBxdWcazA19qkvbE6NFeYKx5XT3ScrUriZ3W" ] },
      { "delegate": "tz1LnWa4AiFCjMezTgSNa65QFoo7DQGEWgEU",
        "reception_time": "2022-01-17T03:30:47.062-00:00",
        "included_in_blocks":
          [ "BMQSNeZnUyeCmhacBxdWcazA19qkvbE6NFeYKx5XT3ScrUriZ3W" ] },
      { "delegate": "tz3QT9dHYKDqh563chVa6za8526ys1UKfRfL",
        "reception_time": "2022-01-17T03:30:47.085-00:00",
        "included_in_blocks":
          [ "BMQSNeZnUyeCmhacBxdWcazA19qkvbE6NFeYKx5XT3ScrUriZ3W" ] },
      { "delegate": "tz1dNVDWPf3Q59SdJqnjdnu277iyvReiRS9M",
        "reception_time": "2022-01-17T03:30:47.113-00:00",
        "included_in_blocks":
          [ "BMQSNeZnUyeCmhacBxdWcazA19qkvbE6NFeYKx5XT3ScrUriZ3W" ] },
      { "delegate": "tz1KfEsrtDaA1sX7vdM4qmEPWuSytuqCDp5j",
        "reception_time": "2022-01-17T03:30:47.151-00:00",
        "included_in_blocks":
          [ "BMQSNeZnUyeCmhacBxdWcazA19qkvbE6NFeYKx5XT3ScrUriZ3W" ] },
      { "delegate": "tz3S6BBeKgJGXxvLyZ1xzXzMPn11nnFtq5L9",
        "reception_time": "2022-01-17T03:30:47.178-00:00",
        "included_in_blocks":
          [ "BMQSNeZnUyeCmhacBxdWcazA19qkvbE6NFeYKx5XT3ScrUriZ3W" ] },
      { "delegate": "tz1ei4WtWEMEJekSv8qDnu9PExG6Q8HgRGr3",
        "reception_time": "2022-01-17T03:30:47.260-00:00",
        "included_in_blocks":
          [ "BMQSNeZnUyeCmhacBxdWcazA19qkvbE6NFeYKx5XT3ScrUriZ3W" ] },
      { "delegate": "tz1Tnjaxk6tbAeC2TmMApPh8UsrEVQvhHvx5",
        "reception_time": "2022-01-17T03:30:47.297-00:00",
        "included_in_blocks":
          [ "BMQSNeZnUyeCmhacBxdWcazA19qkvbE6NFeYKx5XT3ScrUriZ3W" ] },
      { "delegate": "tz1Nf6tsK4G6bBqgSQERy4nUtkHNKUVdh7q1",
        "reception_time": "2022-01-17T03:30:47.325-00:00",
        "included_in_blocks":
          [ "BMQSNeZnUyeCmhacBxdWcazA19qkvbE6NFeYKx5XT3ScrUriZ3W" ] },
      { "delegate": "tz3bTdwZinP8U1JmSweNzVKhmwafqWmFWRfk",
        "reception_time": "2022-01-17T03:30:47.332-00:00",
        "included_in_blocks":
          [ "BMQSNeZnUyeCmhacBxdWcazA19qkvbE6NFeYKx5XT3ScrUriZ3W" ] },
      { "delegate": "tz3WMqdzXqRWXwyvj5Hp2H7QEepaUuS7vd9K",
        "reception_time": "2022-01-17T03:30:47.389-00:00",
        "included_in_blocks":
          [ "BMQSNeZnUyeCmhacBxdWcazA19qkvbE6NFeYKx5XT3ScrUriZ3W" ] },
      { "delegate": "tz3bvNMQ95vfAYtG8193ymshqjSvmxiCUuR5",
        "reception_time": "2022-01-17T03:30:47.434-00:00",
        "included_in_blocks":
          [ "BMQSNeZnUyeCmhacBxdWcazA19qkvbE6NFeYKx5XT3ScrUriZ3W" ] },
      { "delegate": "tz3RB4aoyjov4KEVRbuhvQ1CKJgBJMWhaeB8",
        "reception_time": "2022-01-17T03:30:47.488-00:00",
        "included_in_blocks":
          [ "BMQSNeZnUyeCmhacBxdWcazA19qkvbE6NFeYKx5XT3ScrUriZ3W" ] },
      { "delegate": "tz1WBfwbT66FC6BTLexc2BoyCCBM9LG7pnVW",
        "reception_time": "2022-01-17T03:30:47.581-00:00",
        "included_in_blocks":
          [ "BMQSNeZnUyeCmhacBxdWcazA19qkvbE6NFeYKx5XT3ScrUriZ3W" ] },
      { "delegate": "tz3VEZ4k6a4Wx42iyev6i2aVAptTRLEAivNN",
        "reception_time": "2022-01-17T03:30:47.789-00:00",
        "included_in_blocks":
          [ "BMQSNeZnUyeCmhacBxdWcazA19qkvbE6NFeYKx5XT3ScrUriZ3W" ] },
      { "delegate": "tz1TwVimQy3BywXoSszdFXjT9bSTQrsZYo2u",
        "reception_time": "2022-01-17T03:30:47.813-00:00",
        "included_in_blocks":
          [ "BMQSNeZnUyeCmhacBxdWcazA19qkvbE6NFeYKx5XT3ScrUriZ3W" ] },
      { "delegate": "tz1WctSwL49BZtdWAQ75NY6vr4xsAx6oKdah",
        "reception_time": "2022-01-17T03:30:47.855-00:00",
        "included_in_blocks":
          [ "BMQSNeZnUyeCmhacBxdWcazA19qkvbE6NFeYKx5XT3ScrUriZ3W" ] },
      { "delegate": "tz2FCNBrERXtaTtNX6iimR1UJ5JSDxvdHM93",
        "reception_time": "2022-01-17T03:30:47.982-00:00",
        "included_in_blocks":
          [ "BMQSNeZnUyeCmhacBxdWcazA19qkvbE6NFeYKx5XT3ScrUriZ3W" ] },
      { "delegate": "tz1SohptP53wDPZhzTWzDUFAUcWF6DMBpaJV",
        "reception_time": "2022-01-17T03:30:48.318-00:00",
        "included_in_blocks":
          [ "BMQSNeZnUyeCmhacBxdWcazA19qkvbE6NFeYKx5XT3ScrUriZ3W" ] },
      { "delegate": "tz1TRqbYbUf2GyrjErf3hBzgBJPzW8y36qEs",
        "reception_time": "2022-01-17T03:30:48.320-00:00",
        "included_in_blocks":
          [ "BMQSNeZnUyeCmhacBxdWcazA19qkvbE6NFeYKx5XT3ScrUriZ3W" ] },
      { "delegate": "tz3RDC3Jdn4j15J7bBHZd29EUee9gVB1CxD9",
        "reception_time": "2022-01-17T03:30:48.386-00:00",
        "included_in_blocks":
          [ "BMQSNeZnUyeCmhacBxdWcazA19qkvbE6NFeYKx5XT3ScrUriZ3W" ] },
      { "delegate": "tz3UoffC7FG7zfpmvmjUmUeAaHvzdcUvAj6r",
        "reception_time": "2022-01-17T03:30:48.491-00:00",
        "included_in_blocks":
          [ "BMQSNeZnUyeCmhacBxdWcazA19qkvbE6NFeYKx5XT3ScrUriZ3W" ] },
      { "delegate": "tz1P2Po7YM526ughEsRbY4oR9zaUPDZjxFrb",
        "reception_time": "2022-01-17T03:30:48.501-00:00",
        "included_in_blocks":
          [ "BMQSNeZnUyeCmhacBxdWcazA19qkvbE6NFeYKx5XT3ScrUriZ3W" ] },
      { "delegate": "tz1Z2jXfEXL7dXhs6bsLmyLFLfmAkXBzA9WE",
        "reception_time": "2022-01-17T03:30:48.527-00:00",
        "included_in_blocks":
          [ "BMQSNeZnUyeCmhacBxdWcazA19qkvbE6NFeYKx5XT3ScrUriZ3W" ] },
      { "delegate": "tz1dRKU4FQ9QRRQPdaH4zCR6gmCmXfcvcgtB",
        "reception_time": "2022-01-17T03:30:48.650-00:00",
        "included_in_blocks":
          [ "BMQSNeZnUyeCmhacBxdWcazA19qkvbE6NFeYKx5XT3ScrUriZ3W" ] },
      { "delegate": "tz3gLTu4Yxj8tPAcriQVUdxv6BY9QyvzU1az",
        "reception_time": "2022-01-17T03:30:48.773-00:00",
        "included_in_blocks":
          [ "BMQSNeZnUyeCmhacBxdWcazA19qkvbE6NFeYKx5XT3ScrUriZ3W" ] },
      { "delegate": "tz3NDpRj6WBrJPikcPVHRBEjWKxFw3c6eQPS",
        "reception_time": "2022-01-17T03:30:48.818-00:00",
        "included_in_blocks":
          [ "BMQSNeZnUyeCmhacBxdWcazA19qkvbE6NFeYKx5XT3ScrUriZ3W" ] },
      { "delegate": "tz3NExpXn9aPNZPorRE4SdjJ2RGrfbJgMAaV",
        "reception_time": "2022-01-17T03:30:48.964-00:00",
        "included_in_blocks":
          [ "BMQSNeZnUyeCmhacBxdWcazA19qkvbE6NFeYKx5XT3ScrUriZ3W" ] },
      { "delegate": "tz1T7duV5gZWSTq4YpBGbXNLTfznCLDrFxvs",
        "reception_time": "2022-01-17T03:30:48.971-00:00",
        "included_in_blocks":
          [ "BMQSNeZnUyeCmhacBxdWcazA19qkvbE6NFeYKx5XT3ScrUriZ3W" ] },
      { "delegate": "tz1aRoaRhSpRYvFdyvgWLL6TGyRoGF51wDjM",
        "reception_time": "2022-01-17T03:30:49.538-00:00",
        "included_in_blocks":
          [ "BMQSNeZnUyeCmhacBxdWcazA19qkvbE6NFeYKx5XT3ScrUriZ3W" ] },
      { "delegate": "tz1Zcxkfa5jKrRbBThG765GP29bUCU3C4ok5",
        "reception_time": "2022-01-17T03:30:49.938-00:00",
        "included_in_blocks":
          [ "BMQSNeZnUyeCmhacBxdWcazA19qkvbE6NFeYKx5XT3ScrUriZ3W" ] },
      { "delegate": "tz1W5VkdB5s7ENMESVBtwyt9kyvLqPcUczRT",
        "reception_time": "2022-01-17T03:30:50.284-00:00",
        "included_in_blocks":
          [ "BMQSNeZnUyeCmhacBxdWcazA19qkvbE6NFeYKx5XT3ScrUriZ3W" ] },
      { "delegate": "tz1i3mhawFAgcB8JHaHwoUF6hdncwTAkLEn2",
        "reception_time": "2022-01-17T03:30:50.377-00:00",
        "included_in_blocks":
          [ "BMQSNeZnUyeCmhacBxdWcazA19qkvbE6NFeYKx5XT3ScrUriZ3W" ] },
      { "delegate": "tz1Wp9DASxBnuiZTXHTBACtQ69kp8YL4bzLz",
        "reception_time": "2022-01-17T03:30:50.423-00:00",
        "included_in_blocks":
          [ "BMQSNeZnUyeCmhacBxdWcazA19qkvbE6NFeYKx5XT3ScrUriZ3W" ] },
      { "delegate": "tz1NpWrAyDL9k2Lmnyxcgr9xuJakbBxdq7FB",
        "reception_time": "2022-01-17T03:30:53.564-00:00",
        "included_in_blocks":
          [ "BMQSNeZnUyeCmhacBxdWcazA19qkvbE6NFeYKx5XT3ScrUriZ3W" ] },
      { "delegate": "tz3e7LbZvUtoXhpUD1yb6wuFodZpfYRb9nWJ",
        "reception_time": "2022-01-17T03:30:56.247-00:00",
        "included_in_blocks":
          [ "BMQSNeZnUyeCmhacBxdWcazA19qkvbE6NFeYKx5XT3ScrUriZ3W" ] },
      { "delegate": "tz1MduLJ4AAR6g7CDjB77Jci3gvu3Xsvk6bJ",
        "reception_time": "2022-01-17T03:31:09.723-00:00",
        "included_in_blocks":
          [ "BMQSNeZnUyeCmhacBxdWcazA19qkvbE6NFeYKx5XT3ScrUriZ3W" ] } ] }