{ "blocks":
    [ { "hash": "BLSNTMrWCBDNUP7MvPLxH3oyNZ4PPtpseeWtpRohR11cvUeFYGY",
        "delegate": "tz1irJKkXS2DBWkU1NnmFQx1c1L7pbGg4yhk",
        "reception_time": "2022-01-16T23:05:57.271-00:00",
        "timestamp": "2022-01-16T23:05:50Z" } ],
  "endorsements":
    [ { "delegate": "tz1awXW7wuXy21c66vBudMXQVAPgRnqqwgTH" },
      { "delegate": "tz1WnfXMPaNTBmH7DBPwqCWs9cPDJdkGBTZ8",
        "reception_time": "2022-01-16T23:05:57.185-00:00",
        "errors":
          [ { "kind": "temporary",
              "id": "proto.011-PtHangz2.prefilter.outdated_endorsement" } ],
        "included_in_blocks":
          [ "BLAGNk8kEVX6MSdefvNeRWKYBkbGGrP5SvojJkvqZQL2XJJdQUR" ] },
      { "delegate": "tz1gfArv665EUkSg2ojMBzcbfwuPxAvqPvjo",
        "reception_time": "2022-01-16T23:05:57.118-00:00",
        "errors":
          [ { "kind": "temporary",
              "id": "proto.011-PtHangz2.prefilter.outdated_endorsement" } ],
        "included_in_blocks":
          [ "BLAGNk8kEVX6MSdefvNeRWKYBkbGGrP5SvojJkvqZQL2XJJdQUR" ] },
      { "delegate": "tz1W3VYi3gSt9Xgfw6WNV1aGZRPH2BsskMEY",
        "reception_time": "2022-01-16T23:05:57.085-00:00",
        "errors":
          [ { "kind": "temporary",
              "id": "proto.011-PtHangz2.prefilter.outdated_endorsement" } ],
        "included_in_blocks":
          [ "BLAGNk8kEVX6MSdefvNeRWKYBkbGGrP5SvojJkvqZQL2XJJdQUR" ] },
      { "delegate": "tz3QT9dHYKDqh563chVa6za8526ys1UKfRfL",
        "reception_time": "2022-01-16T23:05:56.884-00:00",
        "errors":
          [ { "kind": "temporary",
              "id": "proto.011-PtHangz2.prefilter.outdated_endorsement" } ],
        "included_in_blocks":
          [ "BLAGNk8kEVX6MSdefvNeRWKYBkbGGrP5SvojJkvqZQL2XJJdQUR" ] },
      { "delegate": "tz3S6BBeKgJGXxvLyZ1xzXzMPn11nnFtq5L9",
        "reception_time": "2022-01-16T23:05:56.864-00:00",
        "errors":
          [ { "kind": "temporary",
              "id": "proto.011-PtHangz2.prefilter.outdated_endorsement" } ],
        "included_in_blocks":
          [ "BLAGNk8kEVX6MSdefvNeRWKYBkbGGrP5SvojJkvqZQL2XJJdQUR" ] },
      { "delegate": "tz1W1f1JrE7VsqgpUpj1iiDobqP5TixgZhDk",
        "reception_time": "2022-01-16T23:05:56.800-00:00",
        "errors":
          [ { "kind": "temporary",
              "id": "proto.011-PtHangz2.prefilter.outdated_endorsement" } ],
        "included_in_blocks":
          [ "BLAGNk8kEVX6MSdefvNeRWKYBkbGGrP5SvojJkvqZQL2XJJdQUR" ] },
      { "delegate": "tz1VmiY38m3y95HqQLjMwqnMS7sdMfGomzKi",
        "reception_time": "2022-01-16T23:05:56.800-00:00",
        "errors":
          [ { "kind": "temporary",
              "id": "proto.011-PtHangz2.prefilter.outdated_endorsement" } ],
        "included_in_blocks":
          [ "BLAGNk8kEVX6MSdefvNeRWKYBkbGGrP5SvojJkvqZQL2XJJdQUR" ] },
      { "delegate": "tz3iJu5vrKZcsqRPs8yJ61UDoeEXZmtro4qh",
        "reception_time": "2022-01-16T23:05:56.798-00:00",
        "errors":
          [ { "kind": "temporary",
              "id": "proto.011-PtHangz2.prefilter.outdated_endorsement" } ],
        "included_in_blocks":
          [ "BLAGNk8kEVX6MSdefvNeRWKYBkbGGrP5SvojJkvqZQL2XJJdQUR" ] },
      { "delegate": "tz3Zhs2dygr55yHyQyKjntAtY9bgfhLZ4Xj1",
        "reception_time": "2022-01-16T23:05:56.772-00:00",
        "errors":
          [ { "kind": "temporary",
              "id": "proto.011-PtHangz2.prefilter.outdated_endorsement" } ],
        "included_in_blocks":
          [ "BLAGNk8kEVX6MSdefvNeRWKYBkbGGrP5SvojJkvqZQL2XJJdQUR" ] },
      { "delegate": "tz3gtoUxdudfBRcNY7iVdKPHCYYX6xdPpoRS",
        "reception_time": "2022-01-16T23:05:56.762-00:00",
        "errors":
          [ { "kind": "temporary",
              "id": "proto.011-PtHangz2.prefilter.outdated_endorsement" } ],
        "included_in_blocks":
          [ "BLAGNk8kEVX6MSdefvNeRWKYBkbGGrP5SvojJkvqZQL2XJJdQUR" ] },
      { "delegate": "tz3QSGPoRp3Kn7n3vY24eYeu3Peuqo45LQ4D",
        "reception_time": "2022-01-16T23:05:56.760-00:00",
        "errors":
          [ { "kind": "temporary",
              "id": "proto.011-PtHangz2.prefilter.outdated_endorsement" } ],
        "included_in_blocks":
          [ "BLAGNk8kEVX6MSdefvNeRWKYBkbGGrP5SvojJkvqZQL2XJJdQUR" ] },
      { "delegate": "tz1WCd2jm4uSt4vntk4vSuUWoZQGhLcDuR9q",
        "reception_time": "2022-01-16T23:05:56.698-00:00",
        "errors":
          [ { "kind": "temporary",
              "id": "proto.011-PtHangz2.prefilter.outdated_endorsement" } ],
        "included_in_blocks":
          [ "BLAGNk8kEVX6MSdefvNeRWKYBkbGGrP5SvojJkvqZQL2XJJdQUR" ] },
      { "delegate": "tz3RKYFsLuQzKBtmYuLNas7uMu3AsYd4QdsA",
        "reception_time": "2022-01-16T23:05:56.640-00:00",
        "errors":
          [ { "kind": "temporary",
              "id": "proto.011-PtHangz2.prefilter.outdated_endorsement" } ],
        "included_in_blocks":
          [ "BLAGNk8kEVX6MSdefvNeRWKYBkbGGrP5SvojJkvqZQL2XJJdQUR" ] },
      { "delegate": "tz3hw2kqXhLUvY65ca1eety2oQTpAvd34R9Q",
        "reception_time": "2022-01-16T23:05:56.639-00:00",
        "errors":
          [ { "kind": "temporary",
              "id": "proto.011-PtHangz2.prefilter.outdated_endorsement" } ],
        "included_in_blocks":
          [ "BLAGNk8kEVX6MSdefvNeRWKYBkbGGrP5SvojJkvqZQL2XJJdQUR" ] },
      { "delegate": "tz1Ldzz6k1BHdhuKvAtMRX7h5kJSMHESMHLC",
        "reception_time": "2022-01-16T23:05:56.518-00:00",
        "errors":
          [ { "kind": "temporary",
              "id": "proto.011-PtHangz2.prefilter.outdated_endorsement" } ],
        "included_in_blocks":
          [ "BLAGNk8kEVX6MSdefvNeRWKYBkbGGrP5SvojJkvqZQL2XJJdQUR" ] },
      { "delegate": "tz3ZbP2pM3nwvXztbuMJwJnDvV5xdpU8UkkD",
        "reception_time": "2022-01-16T23:05:56.489-00:00",
        "errors":
          [ { "kind": "temporary",
              "id": "proto.011-PtHangz2.prefilter.outdated_endorsement" } ],
        "included_in_blocks":
          [ "BLAGNk8kEVX6MSdefvNeRWKYBkbGGrP5SvojJkvqZQL2XJJdQUR" ] },
      { "delegate": "tz3NxTnke1acr8o3h5y9ytf5awQBGNJUKzVU",
        "reception_time": "2022-01-16T23:05:56.483-00:00",
        "errors":
          [ { "kind": "temporary",
              "id": "proto.011-PtHangz2.prefilter.outdated_endorsement" } ],
        "included_in_blocks":
          [ "BLAGNk8kEVX6MSdefvNeRWKYBkbGGrP5SvojJkvqZQL2XJJdQUR" ] },
      { "delegate": "tz1VQnqCCqX4K5sP3FNkVSNKTdCAMJDd3E1n",
        "reception_time": "2022-01-16T23:05:56.386-00:00",
        "errors":
          [ { "kind": "temporary",
              "id": "proto.011-PtHangz2.prefilter.outdated_endorsement" } ],
        "included_in_blocks":
          [ "BLAGNk8kEVX6MSdefvNeRWKYBkbGGrP5SvojJkvqZQL2XJJdQUR" ] },
      { "delegate": "tz1gUNyn3hmnEWqkusWPzxRaon1cs7ndWh7h",
        "reception_time": "2022-01-16T23:05:56.340-00:00",
        "errors":
          [ { "kind": "temporary",
              "id": "proto.011-PtHangz2.prefilter.outdated_endorsement" } ],
        "included_in_blocks":
          [ "BLAGNk8kEVX6MSdefvNeRWKYBkbGGrP5SvojJkvqZQL2XJJdQUR" ] },
      { "delegate": "tz1TRspM5SeZpaQUhzByXbEvqKF1vnCM2YTK",
        "reception_time": "2022-01-16T23:05:56.088-00:00",
        "errors":
          [ { "kind": "temporary",
              "id": "proto.011-PtHangz2.prefilter.outdated_endorsement" } ],
        "included_in_blocks":
          [ "BLAGNk8kEVX6MSdefvNeRWKYBkbGGrP5SvojJkvqZQL2XJJdQUR" ] },
      { "delegate": "tz1ZPh7XfUaJXUDvkrBxmS1BjEM1i62hiPpM",
        "reception_time": "2022-01-16T23:05:56.072-00:00",
        "errors":
          [ { "kind": "temporary",
              "id": "proto.011-PtHangz2.prefilter.outdated_endorsement" } ],
        "included_in_blocks":
          [ "BLAGNk8kEVX6MSdefvNeRWKYBkbGGrP5SvojJkvqZQL2XJJdQUR" ] },
      { "delegate": "tz1beersuEDv8Z7ngQ825xfbaJNS2EhXnyHR",
        "reception_time": "2022-01-16T23:05:56.032-00:00",
        "errors":
          [ { "kind": "temporary",
              "id": "proto.011-PtHangz2.prefilter.outdated_endorsement" } ],
        "included_in_blocks":
          [ "BLAGNk8kEVX6MSdefvNeRWKYBkbGGrP5SvojJkvqZQL2XJJdQUR" ] },
      { "delegate": "tz1Lhf4J9Qxoe3DZ2nfe8FGDnvVj7oKjnMY6",
        "reception_time": "2022-01-16T23:05:55.988-00:00",
        "errors":
          [ { "kind": "temporary",
              "id": "proto.011-PtHangz2.prefilter.outdated_endorsement" } ],
        "included_in_blocks":
          [ "BLAGNk8kEVX6MSdefvNeRWKYBkbGGrP5SvojJkvqZQL2XJJdQUR" ] },
      { "delegate": "tz1STeamwbp68THcny9zk3LsbG3H36DMvbRK",
        "reception_time": "2022-01-16T23:05:55.881-00:00",
        "errors":
          [ { "kind": "temporary",
              "id": "proto.011-PtHangz2.prefilter.outdated_endorsement" } ],
        "included_in_blocks":
          [ "BLAGNk8kEVX6MSdefvNeRWKYBkbGGrP5SvojJkvqZQL2XJJdQUR" ] },
      { "delegate": "tz1TXzyaKUA8wsWefdSnyaYFnV2M3vCV7er9",
        "reception_time": "2022-01-16T23:05:55.877-00:00",
        "errors":
          [ { "kind": "temporary",
              "id": "proto.011-PtHangz2.prefilter.outdated_endorsement" } ],
        "included_in_blocks":
          [ "BLAGNk8kEVX6MSdefvNeRWKYBkbGGrP5SvojJkvqZQL2XJJdQUR" ] },
      { "delegate": "tz1eEnQhbwf6trb8Q8mPb2RaPkNk2rN7BKi8",
        "reception_time": "2022-01-16T23:05:55.854-00:00",
        "errors":
          [ { "kind": "temporary",
              "id": "proto.011-PtHangz2.prefilter.outdated_endorsement" } ],
        "included_in_blocks":
          [ "BLAGNk8kEVX6MSdefvNeRWKYBkbGGrP5SvojJkvqZQL2XJJdQUR" ] },
      { "delegate": "tz1irJKkXS2DBWkU1NnmFQx1c1L7pbGg4yhk",
        "reception_time": "2022-01-16T23:05:55.640-00:00",
        "errors":
          [ { "kind": "temporary",
              "id": "proto.011-PtHangz2.prefilter.outdated_endorsement" } ],
        "included_in_blocks":
          [ "BLAGNk8kEVX6MSdefvNeRWKYBkbGGrP5SvojJkvqZQL2XJJdQUR" ] },
      { "delegate": "tz1QLXqnfN51dkjeghXvKHkJfhvGiM5gK4tc",
        "reception_time": "2022-01-16T23:05:55.539-00:00",
        "errors":
          [ { "kind": "temporary",
              "id": "proto.011-PtHangz2.prefilter.outdated_endorsement" } ],
        "included_in_blocks":
          [ "BLAGNk8kEVX6MSdefvNeRWKYBkbGGrP5SvojJkvqZQL2XJJdQUR" ] },
      { "delegate": "tz1P2Po7YM526ughEsRbY4oR9zaUPDZjxFrb",
        "reception_time": "2022-01-16T23:05:55.512-00:00",
        "errors":
          [ { "kind": "temporary",
              "id": "proto.011-PtHangz2.prefilter.outdated_endorsement" } ],
        "included_in_blocks":
          [ "BLAGNk8kEVX6MSdefvNeRWKYBkbGGrP5SvojJkvqZQL2XJJdQUR" ] },
      { "delegate": "tz3e7LbZvUtoXhpUD1yb6wuFodZpfYRb9nWJ",
        "reception_time": "2022-01-16T23:06:05.464-00:00",
        "included_in_blocks":
          [ "BLAGNk8kEVX6MSdefvNeRWKYBkbGGrP5SvojJkvqZQL2XJJdQUR" ] },
      { "delegate": "tz1NpWrAyDL9k2Lmnyxcgr9xuJakbBxdq7FB",
        "reception_time": "2022-01-16T23:06:05.467-00:00",
        "included_in_blocks":
          [ "BLAGNk8kEVX6MSdefvNeRWKYBkbGGrP5SvojJkvqZQL2XJJdQUR" ] },
      { "delegate": "tz1ZdSQibskQwRdiaFUh7RUVm1Z6xudMedoj",
        "reception_time": "2022-01-16T23:06:01.123-00:00",
        "included_in_blocks":
          [ "BLAGNk8kEVX6MSdefvNeRWKYBkbGGrP5SvojJkvqZQL2XJJdQUR" ] },
      { "delegate": "tz1W5VkdB5s7ENMESVBtwyt9kyvLqPcUczRT",
        "reception_time": "2022-01-16T23:06:00.899-00:00",
        "included_in_blocks":
          [ "BLAGNk8kEVX6MSdefvNeRWKYBkbGGrP5SvojJkvqZQL2XJJdQUR" ] },
      { "delegate": "tz1PFeoTuFen8jAMRHajBySNyCwLmY5RqF9M",
        "reception_time": "2022-01-16T23:06:00.703-00:00",
        "included_in_blocks":
          [ "BLAGNk8kEVX6MSdefvNeRWKYBkbGGrP5SvojJkvqZQL2XJJdQUR" ] },
      { "delegate": "tz1fJHFn6sWEd3NnBPngACuw2dggTv6nQZ7g",
        "reception_time": "2022-01-16T23:06:00.331-00:00",
        "included_in_blocks":
          [ "BLAGNk8kEVX6MSdefvNeRWKYBkbGGrP5SvojJkvqZQL2XJJdQUR" ] },
      { "delegate": "tz1TcH4Nb3aHNDJ7CGZhU7jgAK1BkSP4Lxds",
        "reception_time": "2022-01-16T23:05:59.991-00:00",
        "included_in_blocks":
          [ "BLAGNk8kEVX6MSdefvNeRWKYBkbGGrP5SvojJkvqZQL2XJJdQUR" ] },
      { "delegate": "tz3UoffC7FG7zfpmvmjUmUeAaHvzdcUvAj6r",
        "reception_time": "2022-01-16T23:05:59.458-00:00",
        "included_in_blocks":
          [ "BLAGNk8kEVX6MSdefvNeRWKYBkbGGrP5SvojJkvqZQL2XJJdQUR" ] },
      { "delegate": "tz3NExpXn9aPNZPorRE4SdjJ2RGrfbJgMAaV",
        "reception_time": "2022-01-16T23:05:59.449-00:00",
        "included_in_blocks":
          [ "BLAGNk8kEVX6MSdefvNeRWKYBkbGGrP5SvojJkvqZQL2XJJdQUR" ] },
      { "delegate": "tz1SohptP53wDPZhzTWzDUFAUcWF6DMBpaJV",
        "reception_time": "2022-01-16T23:05:59.393-00:00",
        "included_in_blocks":
          [ "BLAGNk8kEVX6MSdefvNeRWKYBkbGGrP5SvojJkvqZQL2XJJdQUR" ] },
      { "delegate": "tz1NuUu12WHdW3jHqvkujGHsiTi46Wvw1ci1",
        "reception_time": "2022-01-16T23:05:59.430-00:00",
        "included_in_blocks":
          [ "BLAGNk8kEVX6MSdefvNeRWKYBkbGGrP5SvojJkvqZQL2XJJdQUR" ] },
      { "delegate": "tz1SYq214SCBy9naR6cvycQsYcUGpBqQAE8d",
        "reception_time": "2022-01-16T23:05:59.363-00:00",
        "included_in_blocks":
          [ "BLAGNk8kEVX6MSdefvNeRWKYBkbGGrP5SvojJkvqZQL2XJJdQUR" ] },
      { "delegate": "tz1aRoaRhSpRYvFdyvgWLL6TGyRoGF51wDjM",
        "reception_time": "2022-01-16T23:05:59.321-00:00",
        "included_in_blocks":
          [ "BLAGNk8kEVX6MSdefvNeRWKYBkbGGrP5SvojJkvqZQL2XJJdQUR" ] },
      { "delegate": "tz3VEZ4k6a4Wx42iyev6i2aVAptTRLEAivNN",
        "reception_time": "2022-01-16T23:05:59.226-00:00",
        "included_in_blocks":
          [ "BLAGNk8kEVX6MSdefvNeRWKYBkbGGrP5SvojJkvqZQL2XJJdQUR" ] },
      { "delegate": "tz3gLTu4Yxj8tPAcriQVUdxv6BY9QyvzU1az",
        "reception_time": "2022-01-16T23:05:59.212-00:00",
        "included_in_blocks":
          [ "BLAGNk8kEVX6MSdefvNeRWKYBkbGGrP5SvojJkvqZQL2XJJdQUR" ] },
      { "delegate": "tz3NDpRj6WBrJPikcPVHRBEjWKxFw3c6eQPS",
        "reception_time": "2022-01-16T23:05:59.254-00:00",
        "included_in_blocks":
          [ "BLAGNk8kEVX6MSdefvNeRWKYBkbGGrP5SvojJkvqZQL2XJJdQUR" ] },
      { "delegate": "tz3RDC3Jdn4j15J7bBHZd29EUee9gVB1CxD9",
        "reception_time": "2022-01-16T23:05:59.234-00:00",
        "included_in_blocks":
          [ "BLAGNk8kEVX6MSdefvNeRWKYBkbGGrP5SvojJkvqZQL2XJJdQUR" ] },
      { "delegate": "tz3bvNMQ95vfAYtG8193ymshqjSvmxiCUuR5",
        "reception_time": "2022-01-16T23:05:59.299-00:00",
        "included_in_blocks":
          [ "BLAGNk8kEVX6MSdefvNeRWKYBkbGGrP5SvojJkvqZQL2XJJdQUR" ] },
      { "delegate": "tz1T7duV5gZWSTq4YpBGbXNLTfznCLDrFxvs",
        "reception_time": "2022-01-16T23:05:59.261-00:00",
        "included_in_blocks":
          [ "BLAGNk8kEVX6MSdefvNeRWKYBkbGGrP5SvojJkvqZQL2XJJdQUR" ] },
      { "delegate": "tz1Nf6tsK4G6bBqgSQERy4nUtkHNKUVdh7q1",
        "reception_time": "2022-01-16T23:05:59.189-00:00",
        "included_in_blocks":
          [ "BLAGNk8kEVX6MSdefvNeRWKYBkbGGrP5SvojJkvqZQL2XJJdQUR" ] },
      { "delegate": "tz1cYufsxHXJcvANhvS55h3aY32a9BAFB494",
        "reception_time": "2022-01-16T23:05:59.215-00:00",
        "included_in_blocks":
          [ "BLAGNk8kEVX6MSdefvNeRWKYBkbGGrP5SvojJkvqZQL2XJJdQUR" ] },
      { "delegate": "tz3WMqdzXqRWXwyvj5Hp2H7QEepaUuS7vd9K",
        "reception_time": "2022-01-16T23:05:59.119-00:00",
        "included_in_blocks":
          [ "BLAGNk8kEVX6MSdefvNeRWKYBkbGGrP5SvojJkvqZQL2XJJdQUR" ] },
      { "delegate": "tz1fZ767VDbqx4DeKiFswPSHh513f51mKEUZ",
        "reception_time": "2022-01-16T23:05:59.178-00:00",
        "included_in_blocks":
          [ "BLAGNk8kEVX6MSdefvNeRWKYBkbGGrP5SvojJkvqZQL2XJJdQUR" ] },
      { "delegate": "tz1NEKxGEHsFufk87CVZcrqWu8o22qh46GK6",
        "reception_time": "2022-01-16T23:05:59.203-00:00",
        "included_in_blocks":
          [ "BLAGNk8kEVX6MSdefvNeRWKYBkbGGrP5SvojJkvqZQL2XJJdQUR" ] },
      { "delegate": "tz1KfEsrtDaA1sX7vdM4qmEPWuSytuqCDp5j",
        "reception_time": "2022-01-16T23:05:59.245-00:00",
        "included_in_blocks":
          [ "BLAGNk8kEVX6MSdefvNeRWKYBkbGGrP5SvojJkvqZQL2XJJdQUR" ] },
      { "delegate": "tz1axcnVN9tZnCe4sQQhC6f3tfSEXdjPaXPY",
        "reception_time": "2022-01-16T23:05:59.112-00:00",
        "included_in_blocks":
          [ "BLAGNk8kEVX6MSdefvNeRWKYBkbGGrP5SvojJkvqZQL2XJJdQUR" ] },
      { "delegate": "tz1WBfwbT66FC6BTLexc2BoyCCBM9LG7pnVW",
        "reception_time": "2022-01-16T23:05:59.164-00:00",
        "included_in_blocks":
          [ "BLAGNk8kEVX6MSdefvNeRWKYBkbGGrP5SvojJkvqZQL2XJJdQUR" ] },
      { "delegate": "tz1cig1EHyvZd7J2k389moM9PxVgPQvmFkvi",
        "reception_time": "2022-01-16T23:05:58.995-00:00",
        "included_in_blocks":
          [ "BLAGNk8kEVX6MSdefvNeRWKYBkbGGrP5SvojJkvqZQL2XJJdQUR" ] },
      { "delegate": "tz1RCFbB9GpALpsZtu6J58sb74dm8qe6XBzv",
        "reception_time": "2022-01-16T23:05:59.138-00:00",
        "included_in_blocks":
          [ "BLAGNk8kEVX6MSdefvNeRWKYBkbGGrP5SvojJkvqZQL2XJJdQUR" ] },
      { "delegate": "tz1fwnfJNgiDACshK9avfRfFbMaXrs3ghoJa",
        "reception_time": "2022-01-16T23:05:59.103-00:00",
        "included_in_blocks":
          [ "BLAGNk8kEVX6MSdefvNeRWKYBkbGGrP5SvojJkvqZQL2XJJdQUR" ] },
      { "delegate": "tz1TEc75UKXv4W5cwi14Na3NtqFD51yKQi7h",
        "reception_time": "2022-01-16T23:05:59.087-00:00",
        "included_in_blocks":
          [ "BLAGNk8kEVX6MSdefvNeRWKYBkbGGrP5SvojJkvqZQL2XJJdQUR" ] },
      { "delegate": "tz1Tnjaxk6tbAeC2TmMApPh8UsrEVQvhHvx5",
        "reception_time": "2022-01-16T23:05:59.080-00:00",
        "included_in_blocks":
          [ "BLAGNk8kEVX6MSdefvNeRWKYBkbGGrP5SvojJkvqZQL2XJJdQUR" ] },
      { "delegate": "tz1NortRftucvAkD1J58L32EhSVrQEWJCEnB",
        "reception_time": "2022-01-16T23:05:59.094-00:00",
        "included_in_blocks":
          [ "BLAGNk8kEVX6MSdefvNeRWKYBkbGGrP5SvojJkvqZQL2XJJdQUR" ] },
      { "delegate": "tz1PWCDnz783NNGGQjEFFsHtrcK5yBW4E2rm",
        "reception_time": "2022-01-16T23:05:58.960-00:00",
        "included_in_blocks":
          [ "BLAGNk8kEVX6MSdefvNeRWKYBkbGGrP5SvojJkvqZQL2XJJdQUR" ] },
      { "delegate": "tz1d4G4MdmfJWUzu8X4SJUTKjx4Ns6TUR9gR",
        "reception_time": "2022-01-16T23:05:59.037-00:00",
        "included_in_blocks":
          [ "BLAGNk8kEVX6MSdefvNeRWKYBkbGGrP5SvojJkvqZQL2XJJdQUR" ] },
      { "delegate": "tz3bTdwZinP8U1JmSweNzVKhmwafqWmFWRfk",
        "reception_time": "2022-01-16T23:05:59.050-00:00",
        "included_in_blocks":
          [ "BLAGNk8kEVX6MSdefvNeRWKYBkbGGrP5SvojJkvqZQL2XJJdQUR" ] },
      { "delegate": "tz1bHzftcTKZMTZgLLtnrXydCm6UEqf4ivca",
        "reception_time": "2022-01-16T23:05:59.004-00:00",
        "included_in_blocks":
          [ "BLAGNk8kEVX6MSdefvNeRWKYBkbGGrP5SvojJkvqZQL2XJJdQUR" ] },
      { "delegate": "tz3RB4aoyjov4KEVRbuhvQ1CKJgBJMWhaeB8",
        "reception_time": "2022-01-16T23:05:58.952-00:00",
        "included_in_blocks":
          [ "BLAGNk8kEVX6MSdefvNeRWKYBkbGGrP5SvojJkvqZQL2XJJdQUR" ] },
      { "delegate": "tz1S8MNvuFEUsWgjHvi3AxibRBf388NhT1q2",
        "reception_time": "2022-01-16T23:05:59.050-00:00",
        "included_in_blocks":
          [ "BLAGNk8kEVX6MSdefvNeRWKYBkbGGrP5SvojJkvqZQL2XJJdQUR" ] },
      { "delegate": "tz1V4qCyvPKZ5UeqdH14HN42rxvNPQfc9UZg",
        "reception_time": "2022-01-16T23:05:58.552-00:00",
        "included_in_blocks":
          [ "BLAGNk8kEVX6MSdefvNeRWKYBkbGGrP5SvojJkvqZQL2XJJdQUR" ] },
      { "delegate": "tz2FCNBrERXtaTtNX6iimR1UJ5JSDxvdHM93",
        "reception_time": "2022-01-16T23:05:59.037-00:00",
        "included_in_blocks":
          [ "BLAGNk8kEVX6MSdefvNeRWKYBkbGGrP5SvojJkvqZQL2XJJdQUR" ] },
      { "delegate": "tz1TRqbYbUf2GyrjErf3hBzgBJPzW8y36qEs",
        "reception_time": "2022-01-16T23:05:58.936-00:00",
        "included_in_blocks":
          [ "BLAGNk8kEVX6MSdefvNeRWKYBkbGGrP5SvojJkvqZQL2XJJdQUR" ] },
      { "delegate": "tz1ei4WtWEMEJekSv8qDnu9PExG6Q8HgRGr3",
        "reception_time": "2022-01-16T23:05:58.939-00:00",
        "included_in_blocks":
          [ "BLAGNk8kEVX6MSdefvNeRWKYBkbGGrP5SvojJkvqZQL2XJJdQUR" ] },
      { "delegate": "tz1d6Fx42mYgVFnHUW8T8A7WBfJ6nD9pVok8",
        "reception_time": "2022-01-16T23:05:58.918-00:00",
        "included_in_blocks":
          [ "BLAGNk8kEVX6MSdefvNeRWKYBkbGGrP5SvojJkvqZQL2XJJdQUR" ] } ] }