{ "blocks":
    [ { "hash": "BLyRySrmXN6Kywic8Wy3v7UDJVWJk9VNjufSEGnUGnbtQv9rHNE",
        "delegate": "tz3ZbP2pM3nwvXztbuMJwJnDvV5xdpU8UkkD",
        "reception_time": "2022-01-17T06:44:44.629-00:00",
        "timestamp": "2022-01-17T06:44:40Z" } ],
  "endorsements":
    [ { "delegate": "tz1ibcPVGK4Y8pcW4BYUsojiHoBKnZbyDGrX" },
      { "delegate": "tz1awXW7wuXy21c66vBudMXQVAPgRnqqwgTH" },
      { "delegate": "tz1RjoHc98dBoqaH2jawF62XNKh7YsHwbkEv" },
      { "delegate": "tz3e7LbZvUtoXhpUD1yb6wuFodZpfYRb9nWJ",
        "reception_time": "2022-01-17T06:44:56.575-00:00",
        "included_in_blocks":
          [ "BLridmmLB2FkJxL6xRG7GeAsMQxir96tyZhvcUbrEBhpKbG1Yp3" ] },
      { "delegate": "tz1g8vkmcde6sWKaG2NN9WKzCkDM6Rziq194",
        "reception_time": "2022-01-17T06:44:54.122-00:00",
        "included_in_blocks":
          [ "BLridmmLB2FkJxL6xRG7GeAsMQxir96tyZhvcUbrEBhpKbG1Yp3" ] },
      { "delegate": "tz1fTqpT5D4X4tc63uCpcVFkpV68LB6z4ih7",
        "reception_time": "2022-01-17T06:44:53.177-00:00",
        "included_in_blocks":
          [ "BLridmmLB2FkJxL6xRG7GeAsMQxir96tyZhvcUbrEBhpKbG1Yp3" ] },
      { "delegate": "tz3bEQoFCZEEfZMskefZ8q8e4eiHH1pssRax",
        "reception_time": "2022-01-17T06:44:53.102-00:00",
        "included_in_blocks":
          [ "BLridmmLB2FkJxL6xRG7GeAsMQxir96tyZhvcUbrEBhpKbG1Yp3" ] },
      { "delegate": "tz1NpWrAyDL9k2Lmnyxcgr9xuJakbBxdq7FB",
        "reception_time": "2022-01-17T06:44:51.583-00:00",
        "included_in_blocks":
          [ "BLridmmLB2FkJxL6xRG7GeAsMQxir96tyZhvcUbrEBhpKbG1Yp3" ] },
      { "delegate": "tz1PFeoTuFen8jAMRHajBySNyCwLmY5RqF9M",
        "reception_time": "2022-01-17T06:44:50.485-00:00",
        "included_in_blocks":
          [ "BLridmmLB2FkJxL6xRG7GeAsMQxir96tyZhvcUbrEBhpKbG1Yp3" ] },
      { "delegate": "tz1aRoaRhSpRYvFdyvgWLL6TGyRoGF51wDjM",
        "reception_time": "2022-01-17T06:44:49.724-00:00",
        "included_in_blocks":
          [ "BLridmmLB2FkJxL6xRG7GeAsMQxir96tyZhvcUbrEBhpKbG1Yp3" ] },
      { "delegate": "tz1eVaNx3gCmG1EsLjijkmgAxdLYVf6Bf5Sq",
        "reception_time": "2022-01-17T06:44:49.906-00:00",
        "included_in_blocks":
          [ "BLridmmLB2FkJxL6xRG7GeAsMQxir96tyZhvcUbrEBhpKbG1Yp3" ] },
      { "delegate": "tz1dRKU4FQ9QRRQPdaH4zCR6gmCmXfcvcgtB",
        "reception_time": "2022-01-17T06:44:49.188-00:00",
        "included_in_blocks":
          [ "BLridmmLB2FkJxL6xRG7GeAsMQxir96tyZhvcUbrEBhpKbG1Yp3" ] },
      { "delegate": "tz1ZcTRk5uxD86EFEn1vvNffWWqJy7q5eVhc",
        "reception_time": "2022-01-17T06:44:49.030-00:00",
        "included_in_blocks":
          [ "BLridmmLB2FkJxL6xRG7GeAsMQxir96tyZhvcUbrEBhpKbG1Yp3" ] },
      { "delegate": "tz3bvNMQ95vfAYtG8193ymshqjSvmxiCUuR5",
        "reception_time": "2022-01-17T06:44:48.452-00:00",
        "included_in_blocks":
          [ "BLridmmLB2FkJxL6xRG7GeAsMQxir96tyZhvcUbrEBhpKbG1Yp3" ] },
      { "delegate": "tz3RDC3Jdn4j15J7bBHZd29EUee9gVB1CxD9",
        "reception_time": "2022-01-17T06:44:48.392-00:00",
        "included_in_blocks":
          [ "BLridmmLB2FkJxL6xRG7GeAsMQxir96tyZhvcUbrEBhpKbG1Yp3" ] },
      { "delegate": "tz3NExpXn9aPNZPorRE4SdjJ2RGrfbJgMAaV",
        "reception_time": "2022-01-17T06:44:49.065-00:00",
        "included_in_blocks":
          [ "BLridmmLB2FkJxL6xRG7GeAsMQxir96tyZhvcUbrEBhpKbG1Yp3" ] },
      { "delegate": "tz3UoffC7FG7zfpmvmjUmUeAaHvzdcUvAj6r",
        "reception_time": "2022-01-17T06:44:48.838-00:00",
        "included_in_blocks":
          [ "BLridmmLB2FkJxL6xRG7GeAsMQxir96tyZhvcUbrEBhpKbG1Yp3" ] },
      { "delegate": "tz3NDpRj6WBrJPikcPVHRBEjWKxFw3c6eQPS",
        "reception_time": "2022-01-17T06:44:48.188-00:00",
        "included_in_blocks":
          [ "BLridmmLB2FkJxL6xRG7GeAsMQxir96tyZhvcUbrEBhpKbG1Yp3" ] },
      { "delegate": "tz1Mc61yajNASzh5KWZFtYs4i7EJbzAxQC4K",
        "reception_time": "2022-01-17T06:44:48.017-00:00",
        "included_in_blocks":
          [ "BLridmmLB2FkJxL6xRG7GeAsMQxir96tyZhvcUbrEBhpKbG1Yp3" ] },
      { "delegate": "tz1T7duV5gZWSTq4YpBGbXNLTfznCLDrFxvs",
        "reception_time": "2022-01-17T06:44:48.305-00:00",
        "included_in_blocks":
          [ "BLridmmLB2FkJxL6xRG7GeAsMQxir96tyZhvcUbrEBhpKbG1Yp3" ] },
      { "delegate": "tz2FCNBrERXtaTtNX6iimR1UJ5JSDxvdHM93",
        "reception_time": "2022-01-17T06:44:47.929-00:00",
        "included_in_blocks":
          [ "BLridmmLB2FkJxL6xRG7GeAsMQxir96tyZhvcUbrEBhpKbG1Yp3" ] },
      { "delegate": "tz1iEWcNL383qiDJ3Q3qt5W2T4aSKUbEU4An",
        "reception_time": "2022-01-17T06:44:47.941-00:00",
        "included_in_blocks":
          [ "BLridmmLB2FkJxL6xRG7GeAsMQxir96tyZhvcUbrEBhpKbG1Yp3" ] },
      { "delegate": "tz1Vd1rXpV8hTHbFXCXN3c3qzCsgcU5BZw1e",
        "reception_time": "2022-01-17T06:44:47.726-00:00",
        "included_in_blocks":
          [ "BLridmmLB2FkJxL6xRG7GeAsMQxir96tyZhvcUbrEBhpKbG1Yp3" ] },
      { "delegate": "tz1WctSwL49BZtdWAQ75NY6vr4xsAx6oKdah",
        "reception_time": "2022-01-17T06:44:47.990-00:00",
        "included_in_blocks":
          [ "BLridmmLB2FkJxL6xRG7GeAsMQxir96tyZhvcUbrEBhpKbG1Yp3" ] },
      { "delegate": "tz1TRqbYbUf2GyrjErf3hBzgBJPzW8y36qEs",
        "reception_time": "2022-01-17T06:44:47.850-00:00",
        "included_in_blocks":
          [ "BLridmmLB2FkJxL6xRG7GeAsMQxir96tyZhvcUbrEBhpKbG1Yp3" ] },
      { "delegate": "tz3RB4aoyjov4KEVRbuhvQ1CKJgBJMWhaeB8",
        "reception_time": "2022-01-17T06:44:47.148-00:00",
        "included_in_blocks":
          [ "BLridmmLB2FkJxL6xRG7GeAsMQxir96tyZhvcUbrEBhpKbG1Yp3" ] },
      { "delegate": "tz1abmz7jiCV2GH2u81LRrGgAFFgvQgiDiaf",
        "reception_time": "2022-01-17T06:44:47.575-00:00",
        "included_in_blocks":
          [ "BLridmmLB2FkJxL6xRG7GeAsMQxir96tyZhvcUbrEBhpKbG1Yp3" ] },
      { "delegate": "tz1SYq214SCBy9naR6cvycQsYcUGpBqQAE8d",
        "reception_time": "2022-01-17T06:44:47.881-00:00",
        "included_in_blocks":
          [ "BLridmmLB2FkJxL6xRG7GeAsMQxir96tyZhvcUbrEBhpKbG1Yp3" ] },
      { "delegate": "tz1Nf6tsK4G6bBqgSQERy4nUtkHNKUVdh7q1",
        "reception_time": "2022-01-17T06:44:47.765-00:00",
        "included_in_blocks":
          [ "BLridmmLB2FkJxL6xRG7GeAsMQxir96tyZhvcUbrEBhpKbG1Yp3" ] },
      { "delegate": "tz3VEZ4k6a4Wx42iyev6i2aVAptTRLEAivNN",
        "reception_time": "2022-01-17T06:44:48.198-00:00",
        "included_in_blocks":
          [ "BLridmmLB2FkJxL6xRG7GeAsMQxir96tyZhvcUbrEBhpKbG1Yp3" ] },
      { "delegate": "tz1a1J3AGjJTAyBqWWSqFuUazUDV2TtD6hMy",
        "reception_time": "2022-01-17T06:44:47.908-00:00",
        "included_in_blocks":
          [ "BLridmmLB2FkJxL6xRG7GeAsMQxir96tyZhvcUbrEBhpKbG1Yp3" ] },
      { "delegate": "tz1NEKxGEHsFufk87CVZcrqWu8o22qh46GK6",
        "reception_time": "2022-01-17T06:44:48.024-00:00",
        "included_in_blocks":
          [ "BLridmmLB2FkJxL6xRG7GeAsMQxir96tyZhvcUbrEBhpKbG1Yp3" ] },
      { "delegate": "tz1fwnfJNgiDACshK9avfRfFbMaXrs3ghoJa",
        "reception_time": "2022-01-17T06:44:47.305-00:00",
        "included_in_blocks":
          [ "BLridmmLB2FkJxL6xRG7GeAsMQxir96tyZhvcUbrEBhpKbG1Yp3" ] },
      { "delegate": "tz1WBfwbT66FC6BTLexc2BoyCCBM9LG7pnVW",
        "reception_time": "2022-01-17T06:44:47.447-00:00",
        "included_in_blocks":
          [ "BLridmmLB2FkJxL6xRG7GeAsMQxir96tyZhvcUbrEBhpKbG1Yp3" ] },
      { "delegate": "tz3WMqdzXqRWXwyvj5Hp2H7QEepaUuS7vd9K",
        "reception_time": "2022-01-17T06:44:48.068-00:00",
        "included_in_blocks":
          [ "BLridmmLB2FkJxL6xRG7GeAsMQxir96tyZhvcUbrEBhpKbG1Yp3" ] },
      { "delegate": "tz1dNVDWPf3Q59SdJqnjdnu277iyvReiRS9M",
        "reception_time": "2022-01-17T06:44:47.379-00:00",
        "included_in_blocks":
          [ "BLridmmLB2FkJxL6xRG7GeAsMQxir96tyZhvcUbrEBhpKbG1Yp3" ] },
      { "delegate": "tz1UMCB2AHSTwG7YcGNr31CqYCtGN873royv",
        "reception_time": "2022-01-17T06:44:47.391-00:00",
        "included_in_blocks":
          [ "BLridmmLB2FkJxL6xRG7GeAsMQxir96tyZhvcUbrEBhpKbG1Yp3" ] },
      { "delegate": "tz1d6Fx42mYgVFnHUW8T8A7WBfJ6nD9pVok8",
        "reception_time": "2022-01-17T06:44:46.724-00:00",
        "included_in_blocks":
          [ "BLridmmLB2FkJxL6xRG7GeAsMQxir96tyZhvcUbrEBhpKbG1Yp3" ] },
      { "delegate": "tz1ei4WtWEMEJekSv8qDnu9PExG6Q8HgRGr3",
        "reception_time": "2022-01-17T06:44:47.344-00:00",
        "included_in_blocks":
          [ "BLridmmLB2FkJxL6xRG7GeAsMQxir96tyZhvcUbrEBhpKbG1Yp3" ] },
      { "delegate": "tz3S6BBeKgJGXxvLyZ1xzXzMPn11nnFtq5L9",
        "reception_time": "2022-01-17T06:44:46.787-00:00",
        "included_in_blocks":
          [ "BLridmmLB2FkJxL6xRG7GeAsMQxir96tyZhvcUbrEBhpKbG1Yp3" ] },
      { "delegate": "tz3QT9dHYKDqh563chVa6za8526ys1UKfRfL",
        "reception_time": "2022-01-17T06:44:46.747-00:00",
        "included_in_blocks":
          [ "BLridmmLB2FkJxL6xRG7GeAsMQxir96tyZhvcUbrEBhpKbG1Yp3" ] },
      { "delegate": "tz1gfArv665EUkSg2ojMBzcbfwuPxAvqPvjo",
        "reception_time": "2022-01-17T06:44:47.137-00:00",
        "included_in_blocks":
          [ "BLridmmLB2FkJxL6xRG7GeAsMQxir96tyZhvcUbrEBhpKbG1Yp3" ] },
      { "delegate": "tz3bTdwZinP8U1JmSweNzVKhmwafqWmFWRfk",
        "reception_time": "2022-01-17T06:44:46.860-00:00",
        "included_in_blocks":
          [ "BLridmmLB2FkJxL6xRG7GeAsMQxir96tyZhvcUbrEBhpKbG1Yp3" ] },
      { "delegate": "tz1MivraUX9U6nmGAQkm7XkrNVmsPExEUT1W",
        "reception_time": "2022-01-17T06:44:46.608-00:00",
        "included_in_blocks":
          [ "BLridmmLB2FkJxL6xRG7GeAsMQxir96tyZhvcUbrEBhpKbG1Yp3" ] },
      { "delegate": "tz1KfEsrtDaA1sX7vdM4qmEPWuSytuqCDp5j",
        "reception_time": "2022-01-17T06:44:47.076-00:00",
        "included_in_blocks":
          [ "BLridmmLB2FkJxL6xRG7GeAsMQxir96tyZhvcUbrEBhpKbG1Yp3" ] },
      { "delegate": "tz1UJvHTgpVzcKWhTazGxVcn5wsHru5Gietg",
        "reception_time": "2022-01-17T06:44:46.868-00:00",
        "included_in_blocks":
          [ "BLridmmLB2FkJxL6xRG7GeAsMQxir96tyZhvcUbrEBhpKbG1Yp3" ] },
      { "delegate": "tz3Zhs2dygr55yHyQyKjntAtY9bgfhLZ4Xj1",
        "reception_time": "2022-01-17T06:44:46.427-00:00",
        "included_in_blocks":
          [ "BLridmmLB2FkJxL6xRG7GeAsMQxir96tyZhvcUbrEBhpKbG1Yp3" ] },
      { "delegate": "tz1PWCDnz783NNGGQjEFFsHtrcK5yBW4E2rm",
        "reception_time": "2022-01-17T06:44:46.777-00:00",
        "included_in_blocks":
          [ "BLridmmLB2FkJxL6xRG7GeAsMQxir96tyZhvcUbrEBhpKbG1Yp3" ] },
      { "delegate": "tz3iJu5vrKZcsqRPs8yJ61UDoeEXZmtro4qh",
        "reception_time": "2022-01-17T06:44:46.476-00:00",
        "included_in_blocks":
          [ "BLridmmLB2FkJxL6xRG7GeAsMQxir96tyZhvcUbrEBhpKbG1Yp3" ] },
      { "delegate": "tz1gUNyn3hmnEWqkusWPzxRaon1cs7ndWh7h",
        "reception_time": "2022-01-17T06:44:46.484-00:00",
        "included_in_blocks":
          [ "BLridmmLB2FkJxL6xRG7GeAsMQxir96tyZhvcUbrEBhpKbG1Yp3" ] },
      { "delegate": "tz3adcvQaKXTCg12zbninqo3q8ptKKtDFTLv",
        "reception_time": "2022-01-17T06:44:46.533-00:00",
        "included_in_blocks":
          [ "BLridmmLB2FkJxL6xRG7GeAsMQxir96tyZhvcUbrEBhpKbG1Yp3" ] },
      { "delegate": "tz1RCFbB9GpALpsZtu6J58sb74dm8qe6XBzv",
        "reception_time": "2022-01-17T06:44:46.841-00:00",
        "included_in_blocks":
          [ "BLridmmLB2FkJxL6xRG7GeAsMQxir96tyZhvcUbrEBhpKbG1Yp3" ] },
      { "delegate": "tz1V4qCyvPKZ5UeqdH14HN42rxvNPQfc9UZg",
        "reception_time": "2022-01-17T06:44:46.884-00:00",
        "included_in_blocks":
          [ "BLridmmLB2FkJxL6xRG7GeAsMQxir96tyZhvcUbrEBhpKbG1Yp3" ] },
      { "delegate": "tz1VQnqCCqX4K5sP3FNkVSNKTdCAMJDd3E1n",
        "reception_time": "2022-01-17T06:44:46.476-00:00",
        "included_in_blocks":
          [ "BLridmmLB2FkJxL6xRG7GeAsMQxir96tyZhvcUbrEBhpKbG1Yp3" ] },
      { "delegate": "tz3RKYFsLuQzKBtmYuLNas7uMu3AsYd4QdsA",
        "reception_time": "2022-01-17T06:44:46.427-00:00",
        "included_in_blocks":
          [ "BLridmmLB2FkJxL6xRG7GeAsMQxir96tyZhvcUbrEBhpKbG1Yp3" ] },
      { "delegate": "tz1VmiY38m3y95HqQLjMwqnMS7sdMfGomzKi",
        "reception_time": "2022-01-17T06:44:46.623-00:00",
        "included_in_blocks":
          [ "BLridmmLB2FkJxL6xRG7GeAsMQxir96tyZhvcUbrEBhpKbG1Yp3" ] },
      { "delegate": "tz1MQMiZHV8q4tTwUMWmS5Y3kaP6J2136iXr",
        "reception_time": "2022-01-17T06:44:47.049-00:00",
        "included_in_blocks":
          [ "BLridmmLB2FkJxL6xRG7GeAsMQxir96tyZhvcUbrEBhpKbG1Yp3" ] },
      { "delegate": "tz1Ldzz6k1BHdhuKvAtMRX7h5kJSMHESMHLC",
        "reception_time": "2022-01-17T06:44:46.331-00:00",
        "included_in_blocks":
          [ "BLridmmLB2FkJxL6xRG7GeAsMQxir96tyZhvcUbrEBhpKbG1Yp3" ] },
      { "delegate": "tz1WCd2jm4uSt4vntk4vSuUWoZQGhLcDuR9q",
        "reception_time": "2022-01-17T06:44:46.413-00:00",
        "included_in_blocks":
          [ "BLridmmLB2FkJxL6xRG7GeAsMQxir96tyZhvcUbrEBhpKbG1Yp3" ] },
      { "delegate": "tz1fPKAtsYydh4f1wfWNfeNxWYu72TmM48fu",
        "reception_time": "2022-01-17T06:44:47.153-00:00",
        "included_in_blocks":
          [ "BLridmmLB2FkJxL6xRG7GeAsMQxir96tyZhvcUbrEBhpKbG1Yp3" ] },
      { "delegate": "tz1iPHM2Xx2hwmzcr1EG1zzrV6oKafVoA91m",
        "reception_time": "2022-01-17T06:44:46.554-00:00",
        "included_in_blocks":
          [ "BLridmmLB2FkJxL6xRG7GeAsMQxir96tyZhvcUbrEBhpKbG1Yp3" ] },
      { "delegate": "tz3gtoUxdudfBRcNY7iVdKPHCYYX6xdPpoRS",
        "reception_time": "2022-01-17T06:44:46.328-00:00",
        "included_in_blocks":
          [ "BLridmmLB2FkJxL6xRG7GeAsMQxir96tyZhvcUbrEBhpKbG1Yp3" ] },
      { "delegate": "tz1S8MNvuFEUsWgjHvi3AxibRBf388NhT1q2",
        "reception_time": "2022-01-17T06:44:47.599-00:00",
        "included_in_blocks":
          [ "BLridmmLB2FkJxL6xRG7GeAsMQxir96tyZhvcUbrEBhpKbG1Yp3" ] },
      { "delegate": "tz3QSGPoRp3Kn7n3vY24eYeu3Peuqo45LQ4D",
        "reception_time": "2022-01-17T06:44:46.383-00:00",
        "included_in_blocks":
          [ "BLridmmLB2FkJxL6xRG7GeAsMQxir96tyZhvcUbrEBhpKbG1Yp3" ] },
      { "delegate": "tz1aXD7Jigrt3PBYSpHSg5Rr33SexMmmM5Ys",
        "reception_time": "2022-01-17T06:44:46.628-00:00",
        "included_in_blocks":
          [ "BLridmmLB2FkJxL6xRG7GeAsMQxir96tyZhvcUbrEBhpKbG1Yp3" ] },
      { "delegate": "tz1eDDuQBEgwvc6tbnnCVrnr12tvrd6gBTpx",
        "reception_time": "2022-01-17T06:44:46.540-00:00",
        "included_in_blocks":
          [ "BLridmmLB2FkJxL6xRG7GeAsMQxir96tyZhvcUbrEBhpKbG1Yp3" ] },
      { "delegate": "tz3NxTnke1acr8o3h5y9ytf5awQBGNJUKzVU",
        "reception_time": "2022-01-17T06:44:46.344-00:00",
        "included_in_blocks":
          [ "BLridmmLB2FkJxL6xRG7GeAsMQxir96tyZhvcUbrEBhpKbG1Yp3" ] },
      { "delegate": "tz1irJKkXS2DBWkU1NnmFQx1c1L7pbGg4yhk",
        "reception_time": "2022-01-17T06:44:46.401-00:00",
        "included_in_blocks":
          [ "BLridmmLB2FkJxL6xRG7GeAsMQxir96tyZhvcUbrEBhpKbG1Yp3" ] },
      { "delegate": "tz1TRspM5SeZpaQUhzByXbEvqKF1vnCM2YTK",
        "reception_time": "2022-01-17T06:44:46.371-00:00",
        "included_in_blocks":
          [ "BLridmmLB2FkJxL6xRG7GeAsMQxir96tyZhvcUbrEBhpKbG1Yp3" ] },
      { "delegate": "tz1TXzyaKUA8wsWefdSnyaYFnV2M3vCV7er9",
        "reception_time": "2022-01-17T06:44:46.363-00:00",
        "included_in_blocks":
          [ "BLridmmLB2FkJxL6xRG7GeAsMQxir96tyZhvcUbrEBhpKbG1Yp3" ] },
      { "delegate": "tz3ZbP2pM3nwvXztbuMJwJnDvV5xdpU8UkkD",
        "reception_time": "2022-01-17T06:44:46.320-00:00",
        "included_in_blocks":
          [ "BLridmmLB2FkJxL6xRG7GeAsMQxir96tyZhvcUbrEBhpKbG1Yp3" ] },
      { "delegate": "tz1RNFBuv3iqriqVbobB8yAeUpTKLdzMQ4Aq",
        "reception_time": "2022-01-17T06:44:46.294-00:00",
        "included_in_blocks":
          [ "BLridmmLB2FkJxL6xRG7GeAsMQxir96tyZhvcUbrEBhpKbG1Yp3" ] },
      { "delegate": "tz1MXFrtZoaXckE41bjUCSjAjAap3AFDSr3N",
        "reception_time": "2022-01-17T06:44:46.285-00:00",
        "included_in_blocks":
          [ "BLridmmLB2FkJxL6xRG7GeAsMQxir96tyZhvcUbrEBhpKbG1Yp3" ] },
      { "delegate": "tz1P2Po7YM526ughEsRbY4oR9zaUPDZjxFrb",
        "reception_time": "2022-01-17T06:44:46.294-00:00",
        "included_in_blocks":
          [ "BLridmmLB2FkJxL6xRG7GeAsMQxir96tyZhvcUbrEBhpKbG1Yp3" ] } ] }