{ "blocks":
    [ { "hash": "BMTrnPMwkbCK2xZXw4ho2LDLmeHDBYG4CdiKxYpC6TxMSv3x2qV",
        "delegate": "tz1STeamwbp68THcny9zk3LsbG3H36DMvbRK",
        "reception_time": "2022-01-16T23:07:28.315-00:00",
        "timestamp": "2022-01-16T23:07:20Z" } ],
  "endorsements":
    [ { "delegate": "tz1S8e9GgdZG78XJRB3NqabfWeM37GnhZMWQ",
        "reception_time": "2022-01-16T23:07:28.003-00:00",
        "errors":
          [ { "kind": "temporary",
              "id": "proto.011-PtHangz2.prefilter.outdated_endorsement" } ],
        "included_in_blocks":
          [ "BLAJbB3BLoKeFEAQA6wWxisvEk7Riun7WRxCPjVXGkdTLvtbsZP" ] },
      { "delegate": "tz1RjoHc98dBoqaH2jawF62XNKh7YsHwbkEv" },
      { "delegate": "tz1awXW7wuXy21c66vBudMXQVAPgRnqqwgTH" },
      { "delegate": "tz1MXFrtZoaXckE41bjUCSjAjAap3AFDSr3N",
        "reception_time": "2022-01-16T23:07:29.034-00:00",
        "included_in_blocks":
          [ "BLAJbB3BLoKeFEAQA6wWxisvEk7Riun7WRxCPjVXGkdTLvtbsZP" ] },
      { "delegate": "tz1irJKkXS2DBWkU1NnmFQx1c1L7pbGg4yhk",
        "reception_time": "2022-01-16T23:07:29.039-00:00",
        "included_in_blocks":
          [ "BLAJbB3BLoKeFEAQA6wWxisvEk7Riun7WRxCPjVXGkdTLvtbsZP" ] },
      { "delegate": "tz1Scdr2HsZiQjc7bHMeBbmDRXYVvdhjJbBh",
        "reception_time": "2022-01-16T23:07:29.494-00:00",
        "included_in_blocks":
          [ "BLAJbB3BLoKeFEAQA6wWxisvEk7Riun7WRxCPjVXGkdTLvtbsZP" ] },
      { "delegate": "tz1eEnQhbwf6trb8Q8mPb2RaPkNk2rN7BKi8",
        "reception_time": "2022-01-16T23:07:29.777-00:00",
        "included_in_blocks":
          [ "BLAJbB3BLoKeFEAQA6wWxisvEk7Riun7WRxCPjVXGkdTLvtbsZP" ] },
      { "delegate": "tz1P2Po7YM526ughEsRbY4oR9zaUPDZjxFrb",
        "reception_time": "2022-01-16T23:07:29.780-00:00",
        "included_in_blocks":
          [ "BLAJbB3BLoKeFEAQA6wWxisvEk7Riun7WRxCPjVXGkdTLvtbsZP" ] },
      { "delegate": "tz1WCd2jm4uSt4vntk4vSuUWoZQGhLcDuR9q",
        "reception_time": "2022-01-16T23:07:29.800-00:00",
        "included_in_blocks":
          [ "BLAJbB3BLoKeFEAQA6wWxisvEk7Riun7WRxCPjVXGkdTLvtbsZP" ] },
      { "delegate": "tz3ZbP2pM3nwvXztbuMJwJnDvV5xdpU8UkkD",
        "reception_time": "2022-01-16T23:07:29.807-00:00",
        "included_in_blocks":
          [ "BLAJbB3BLoKeFEAQA6wWxisvEk7Riun7WRxCPjVXGkdTLvtbsZP" ] },
      { "delegate": "tz3RDC3Jdn4j15J7bBHZd29EUee9gVB1CxD9",
        "reception_time": "2022-01-16T23:07:29.814-00:00",
        "included_in_blocks":
          [ "BLAJbB3BLoKeFEAQA6wWxisvEk7Riun7WRxCPjVXGkdTLvtbsZP" ] },
      { "delegate": "tz1Kt4P8BCaP93AEV4eA7gmpRryWt5hznjCP",
        "reception_time": "2022-01-16T23:07:29.818-00:00",
        "included_in_blocks":
          [ "BLAJbB3BLoKeFEAQA6wWxisvEk7Riun7WRxCPjVXGkdTLvtbsZP" ] },
      { "delegate": "tz1aXD7Jigrt3PBYSpHSg5Rr33SexMmmM5Ys",
        "reception_time": "2022-01-16T23:07:29.823-00:00",
        "included_in_blocks":
          [ "BLAJbB3BLoKeFEAQA6wWxisvEk7Riun7WRxCPjVXGkdTLvtbsZP" ] },
      { "delegate": "tz1Ldzz6k1BHdhuKvAtMRX7h5kJSMHESMHLC",
        "reception_time": "2022-01-16T23:07:29.825-00:00",
        "included_in_blocks":
          [ "BLAJbB3BLoKeFEAQA6wWxisvEk7Riun7WRxCPjVXGkdTLvtbsZP" ] },
      { "delegate": "tz3NxTnke1acr8o3h5y9ytf5awQBGNJUKzVU",
        "reception_time": "2022-01-16T23:07:29.833-00:00",
        "included_in_blocks":
          [ "BLAJbB3BLoKeFEAQA6wWxisvEk7Riun7WRxCPjVXGkdTLvtbsZP" ] },
      { "delegate": "tz1gfArv665EUkSg2ojMBzcbfwuPxAvqPvjo",
        "reception_time": "2022-01-16T23:07:29.836-00:00",
        "included_in_blocks":
          [ "BLAJbB3BLoKeFEAQA6wWxisvEk7Riun7WRxCPjVXGkdTLvtbsZP" ] },
      { "delegate": "tz1VmiY38m3y95HqQLjMwqnMS7sdMfGomzKi",
        "reception_time": "2022-01-16T23:07:29.845-00:00",
        "included_in_blocks":
          [ "BLAJbB3BLoKeFEAQA6wWxisvEk7Riun7WRxCPjVXGkdTLvtbsZP" ] },
      { "delegate": "tz3Zhs2dygr55yHyQyKjntAtY9bgfhLZ4Xj1",
        "reception_time": "2022-01-16T23:07:29.845-00:00",
        "included_in_blocks":
          [ "BLAJbB3BLoKeFEAQA6wWxisvEk7Riun7WRxCPjVXGkdTLvtbsZP" ] },
      { "delegate": "tz3RKYFsLuQzKBtmYuLNas7uMu3AsYd4QdsA",
        "reception_time": "2022-01-16T23:07:29.854-00:00",
        "included_in_blocks":
          [ "BLAJbB3BLoKeFEAQA6wWxisvEk7Riun7WRxCPjVXGkdTLvtbsZP" ] },
      { "delegate": "tz1VQnqCCqX4K5sP3FNkVSNKTdCAMJDd3E1n",
        "reception_time": "2022-01-16T23:07:29.854-00:00",
        "included_in_blocks":
          [ "BLAJbB3BLoKeFEAQA6wWxisvEk7Riun7WRxCPjVXGkdTLvtbsZP" ] },
      { "delegate": "tz1TXzyaKUA8wsWefdSnyaYFnV2M3vCV7er9",
        "reception_time": "2022-01-16T23:07:29.859-00:00",
        "included_in_blocks":
          [ "BLAJbB3BLoKeFEAQA6wWxisvEk7Riun7WRxCPjVXGkdTLvtbsZP" ] },
      { "delegate": "tz1TzaNn7wSQSP5gYPXCnNzBCpyMiidCq1PX",
        "reception_time": "2022-01-16T23:07:29.859-00:00",
        "included_in_blocks":
          [ "BLAJbB3BLoKeFEAQA6wWxisvEk7Riun7WRxCPjVXGkdTLvtbsZP" ] },
      { "delegate": "tz1PWCDnz783NNGGQjEFFsHtrcK5yBW4E2rm",
        "reception_time": "2022-01-16T23:07:29.865-00:00",
        "included_in_blocks":
          [ "BLAJbB3BLoKeFEAQA6wWxisvEk7Riun7WRxCPjVXGkdTLvtbsZP" ] },
      { "delegate": "tz1STeamwbp68THcny9zk3LsbG3H36DMvbRK",
        "reception_time": "2022-01-16T23:07:29.865-00:00",
        "included_in_blocks":
          [ "BLAJbB3BLoKeFEAQA6wWxisvEk7Riun7WRxCPjVXGkdTLvtbsZP" ] },
      { "delegate": "tz1gUNyn3hmnEWqkusWPzxRaon1cs7ndWh7h",
        "reception_time": "2022-01-16T23:07:29.868-00:00",
        "included_in_blocks":
          [ "BLAJbB3BLoKeFEAQA6wWxisvEk7Riun7WRxCPjVXGkdTLvtbsZP" ] },
      { "delegate": "tz3S6BBeKgJGXxvLyZ1xzXzMPn11nnFtq5L9",
        "reception_time": "2022-01-16T23:07:29.875-00:00",
        "included_in_blocks":
          [ "BLAJbB3BLoKeFEAQA6wWxisvEk7Riun7WRxCPjVXGkdTLvtbsZP" ] },
      { "delegate": "tz3QT9dHYKDqh563chVa6za8526ys1UKfRfL",
        "reception_time": "2022-01-16T23:07:29.906-00:00",
        "included_in_blocks":
          [ "BLAJbB3BLoKeFEAQA6wWxisvEk7Riun7WRxCPjVXGkdTLvtbsZP" ] },
      { "delegate": "tz3QSGPoRp3Kn7n3vY24eYeu3Peuqo45LQ4D",
        "reception_time": "2022-01-16T23:07:29.921-00:00",
        "included_in_blocks":
          [ "BLAJbB3BLoKeFEAQA6wWxisvEk7Riun7WRxCPjVXGkdTLvtbsZP" ] },
      { "delegate": "tz3gtoUxdudfBRcNY7iVdKPHCYYX6xdPpoRS",
        "reception_time": "2022-01-16T23:07:29.931-00:00",
        "included_in_blocks":
          [ "BLAJbB3BLoKeFEAQA6wWxisvEk7Riun7WRxCPjVXGkdTLvtbsZP" ] },
      { "delegate": "tz1MQMiZHV8q4tTwUMWmS5Y3kaP6J2136iXr",
        "reception_time": "2022-01-16T23:07:29.953-00:00",
        "included_in_blocks":
          [ "BLAJbB3BLoKeFEAQA6wWxisvEk7Riun7WRxCPjVXGkdTLvtbsZP" ] },
      { "delegate": "tz1S8MNvuFEUsWgjHvi3AxibRBf388NhT1q2",
        "reception_time": "2022-01-16T23:07:29.956-00:00",
        "included_in_blocks":
          [ "BLAJbB3BLoKeFEAQA6wWxisvEk7Riun7WRxCPjVXGkdTLvtbsZP" ] },
      { "delegate": "tz3RB4aoyjov4KEVRbuhvQ1CKJgBJMWhaeB8",
        "reception_time": "2022-01-16T23:07:29.999-00:00",
        "included_in_blocks":
          [ "BLAJbB3BLoKeFEAQA6wWxisvEk7Riun7WRxCPjVXGkdTLvtbsZP" ] },
      { "delegate": "tz1gcna2xxZj2eNp1LaMyAhVJ49mEFj4FH26",
        "reception_time": "2022-01-16T23:07:30.006-00:00",
        "included_in_blocks":
          [ "BLAJbB3BLoKeFEAQA6wWxisvEk7Riun7WRxCPjVXGkdTLvtbsZP" ] },
      { "delegate": "tz3bTdwZinP8U1JmSweNzVKhmwafqWmFWRfk",
        "reception_time": "2022-01-16T23:07:30.026-00:00",
        "included_in_blocks":
          [ "BLAJbB3BLoKeFEAQA6wWxisvEk7Riun7WRxCPjVXGkdTLvtbsZP" ] },
      { "delegate": "tz1Tnjaxk6tbAeC2TmMApPh8UsrEVQvhHvx5",
        "reception_time": "2022-01-16T23:07:30.045-00:00",
        "included_in_blocks":
          [ "BLAJbB3BLoKeFEAQA6wWxisvEk7Riun7WRxCPjVXGkdTLvtbsZP" ] },
      { "delegate": "tz1dwu9aYb7CRNq4Y2zAjipdjFuSVKhHS8vA",
        "reception_time": "2022-01-16T23:07:30.049-00:00",
        "included_in_blocks":
          [ "BLAJbB3BLoKeFEAQA6wWxisvEk7Riun7WRxCPjVXGkdTLvtbsZP" ] },
      { "delegate": "tz1ei4WtWEMEJekSv8qDnu9PExG6Q8HgRGr3",
        "reception_time": "2022-01-16T23:07:30.064-00:00",
        "included_in_blocks":
          [ "BLAJbB3BLoKeFEAQA6wWxisvEk7Riun7WRxCPjVXGkdTLvtbsZP" ] },
      { "delegate": "tz1aDiEJf9ztRrAJEXZfcG3CKimoKsGhwVAi",
        "reception_time": "2022-01-16T23:07:30.069-00:00",
        "included_in_blocks":
          [ "BLAJbB3BLoKeFEAQA6wWxisvEk7Riun7WRxCPjVXGkdTLvtbsZP" ] },
      { "delegate": "tz1NortRftucvAkD1J58L32EhSVrQEWJCEnB",
        "reception_time": "2022-01-16T23:07:30.114-00:00",
        "included_in_blocks":
          [ "BLAJbB3BLoKeFEAQA6wWxisvEk7Riun7WRxCPjVXGkdTLvtbsZP" ] },
      { "delegate": "tz1Kf25fX1VdmYGSEzwFy1wNmkbSEZ2V83sY",
        "reception_time": "2022-01-16T23:07:30.121-00:00",
        "included_in_blocks":
          [ "BLAJbB3BLoKeFEAQA6wWxisvEk7Riun7WRxCPjVXGkdTLvtbsZP" ] },
      { "delegate": "tz1V4qCyvPKZ5UeqdH14HN42rxvNPQfc9UZg",
        "reception_time": "2022-01-16T23:07:30.143-00:00",
        "included_in_blocks":
          [ "BLAJbB3BLoKeFEAQA6wWxisvEk7Riun7WRxCPjVXGkdTLvtbsZP" ] },
      { "delegate": "tz1LmaFsWRkjr7QMCx5PtV6xTUz3AmEpKQiF",
        "reception_time": "2022-01-16T23:07:30.147-00:00",
        "included_in_blocks":
          [ "BLAJbB3BLoKeFEAQA6wWxisvEk7Riun7WRxCPjVXGkdTLvtbsZP" ] },
      { "delegate": "tz1TKdBNQTFf3DqMga3z2h4MfYv1tPxdDMm4",
        "reception_time": "2022-01-16T23:07:30.160-00:00",
        "included_in_blocks":
          [ "BLAJbB3BLoKeFEAQA6wWxisvEk7Riun7WRxCPjVXGkdTLvtbsZP" ] },
      { "delegate": "tz1RCFbB9GpALpsZtu6J58sb74dm8qe6XBzv",
        "reception_time": "2022-01-16T23:07:30.167-00:00",
        "included_in_blocks":
          [ "BLAJbB3BLoKeFEAQA6wWxisvEk7Riun7WRxCPjVXGkdTLvtbsZP" ] },
      { "delegate": "tz1fNdh4YftsUasbB1BWBpqDmr4sFZaPNZVL",
        "reception_time": "2022-01-16T23:07:30.278-00:00",
        "included_in_blocks":
          [ "BLAJbB3BLoKeFEAQA6wWxisvEk7Riun7WRxCPjVXGkdTLvtbsZP" ] },
      { "delegate": "tz1MQJPGNMijnXnVoBENFz9rUhaPt3S7rWoz",
        "reception_time": "2022-01-16T23:07:30.295-00:00",
        "included_in_blocks":
          [ "BLAJbB3BLoKeFEAQA6wWxisvEk7Riun7WRxCPjVXGkdTLvtbsZP" ] },
      { "delegate": "tz2FCNBrERXtaTtNX6iimR1UJ5JSDxvdHM93",
        "reception_time": "2022-01-16T23:07:30.315-00:00",
        "included_in_blocks":
          [ "BLAJbB3BLoKeFEAQA6wWxisvEk7Riun7WRxCPjVXGkdTLvtbsZP" ] },
      { "delegate": "tz1Ur8V74zqkw9eFh73mEX3uNHdSruuDfV2Q",
        "reception_time": "2022-01-16T23:07:30.316-00:00",
        "included_in_blocks":
          [ "BLAJbB3BLoKeFEAQA6wWxisvEk7Riun7WRxCPjVXGkdTLvtbsZP" ] },
      { "delegate": "tz1TEc75UKXv4W5cwi14Na3NtqFD51yKQi7h",
        "reception_time": "2022-01-16T23:07:30.342-00:00",
        "included_in_blocks":
          [ "BLAJbB3BLoKeFEAQA6wWxisvEk7Riun7WRxCPjVXGkdTLvtbsZP" ] },
      { "delegate": "tz1Nf6tsK4G6bBqgSQERy4nUtkHNKUVdh7q1",
        "reception_time": "2022-01-16T23:07:30.433-00:00",
        "included_in_blocks":
          [ "BLAJbB3BLoKeFEAQA6wWxisvEk7Riun7WRxCPjVXGkdTLvtbsZP" ] },
      { "delegate": "tz1WwnreQXXyfeqiffNoh3fkkczxZK51p16T",
        "reception_time": "2022-01-16T23:07:30.457-00:00",
        "included_in_blocks":
          [ "BLAJbB3BLoKeFEAQA6wWxisvEk7Riun7WRxCPjVXGkdTLvtbsZP" ] },
      { "delegate": "tz1PeZx7FXy7QRuMREGXGxeipb24RsMMzUNe",
        "reception_time": "2022-01-16T23:07:30.750-00:00",
        "included_in_blocks":
          [ "BLAJbB3BLoKeFEAQA6wWxisvEk7Riun7WRxCPjVXGkdTLvtbsZP" ] },
      { "delegate": "tz1fwnfJNgiDACshK9avfRfFbMaXrs3ghoJa",
        "reception_time": "2022-01-16T23:07:30.763-00:00",
        "included_in_blocks":
          [ "BLAJbB3BLoKeFEAQA6wWxisvEk7Riun7WRxCPjVXGkdTLvtbsZP" ] },
      { "delegate": "tz3VEZ4k6a4Wx42iyev6i2aVAptTRLEAivNN",
        "reception_time": "2022-01-16T23:07:30.779-00:00",
        "included_in_blocks":
          [ "BLAJbB3BLoKeFEAQA6wWxisvEk7Riun7WRxCPjVXGkdTLvtbsZP" ] },
      { "delegate": "tz1NEKxGEHsFufk87CVZcrqWu8o22qh46GK6",
        "reception_time": "2022-01-16T23:07:30.794-00:00",
        "included_in_blocks":
          [ "BLAJbB3BLoKeFEAQA6wWxisvEk7Riun7WRxCPjVXGkdTLvtbsZP" ] },
      { "delegate": "tz3WMqdzXqRWXwyvj5Hp2H7QEepaUuS7vd9K",
        "reception_time": "2022-01-16T23:07:30.914-00:00",
        "included_in_blocks":
          [ "BLAJbB3BLoKeFEAQA6wWxisvEk7Riun7WRxCPjVXGkdTLvtbsZP" ] },
      { "delegate": "tz1a1J3AGjJTAyBqWWSqFuUazUDV2TtD6hMy",
        "reception_time": "2022-01-16T23:07:30.955-00:00",
        "included_in_blocks":
          [ "BLAJbB3BLoKeFEAQA6wWxisvEk7Riun7WRxCPjVXGkdTLvtbsZP" ] },
      { "delegate": "tz1TRqbYbUf2GyrjErf3hBzgBJPzW8y36qEs",
        "reception_time": "2022-01-16T23:07:30.968-00:00",
        "included_in_blocks":
          [ "BLAJbB3BLoKeFEAQA6wWxisvEk7Riun7WRxCPjVXGkdTLvtbsZP" ] },
      { "delegate": "tz1S6H83gugqK4dR5Had9jWR9M1ZdAAVgU5e",
        "reception_time": "2022-01-16T23:07:30.997-00:00",
        "included_in_blocks":
          [ "BLAJbB3BLoKeFEAQA6wWxisvEk7Riun7WRxCPjVXGkdTLvtbsZP" ] },
      { "delegate": "tz1dNVDWPf3Q59SdJqnjdnu277iyvReiRS9M",
        "reception_time": "2022-01-16T23:07:31.035-00:00",
        "included_in_blocks":
          [ "BLAJbB3BLoKeFEAQA6wWxisvEk7Riun7WRxCPjVXGkdTLvtbsZP" ] },
      { "delegate": "tz1T7duV5gZWSTq4YpBGbXNLTfznCLDrFxvs",
        "reception_time": "2022-01-16T23:07:31.108-00:00",
        "included_in_blocks":
          [ "BLAJbB3BLoKeFEAQA6wWxisvEk7Riun7WRxCPjVXGkdTLvtbsZP" ] },
      { "delegate": "tz3NDpRj6WBrJPikcPVHRBEjWKxFw3c6eQPS",
        "reception_time": "2022-01-16T23:07:31.162-00:00",
        "included_in_blocks":
          [ "BLAJbB3BLoKeFEAQA6wWxisvEk7Riun7WRxCPjVXGkdTLvtbsZP" ] },
      { "delegate": "tz1SohptP53wDPZhzTWzDUFAUcWF6DMBpaJV",
        "reception_time": "2022-01-16T23:07:31.172-00:00",
        "included_in_blocks":
          [ "BLAJbB3BLoKeFEAQA6wWxisvEk7Riun7WRxCPjVXGkdTLvtbsZP" ] },
      { "delegate": "tz3bvNMQ95vfAYtG8193ymshqjSvmxiCUuR5",
        "reception_time": "2022-01-16T23:07:31.325-00:00",
        "included_in_blocks":
          [ "BLAJbB3BLoKeFEAQA6wWxisvEk7Riun7WRxCPjVXGkdTLvtbsZP" ] },
      { "delegate": "tz1cYufsxHXJcvANhvS55h3aY32a9BAFB494",
        "reception_time": "2022-01-16T23:07:31.518-00:00",
        "included_in_blocks":
          [ "BLAJbB3BLoKeFEAQA6wWxisvEk7Riun7WRxCPjVXGkdTLvtbsZP" ] },
      { "delegate": "tz1Xsrfv6hn86fp88YfRs6xcKwt2nTqxVZYM",
        "reception_time": "2022-01-16T23:07:31.523-00:00",
        "included_in_blocks":
          [ "BLAJbB3BLoKeFEAQA6wWxisvEk7Riun7WRxCPjVXGkdTLvtbsZP" ] },
      { "delegate": "tz3NExpXn9aPNZPorRE4SdjJ2RGrfbJgMAaV",
        "reception_time": "2022-01-16T23:07:31.802-00:00",
        "included_in_blocks":
          [ "BLAJbB3BLoKeFEAQA6wWxisvEk7Riun7WRxCPjVXGkdTLvtbsZP" ] },
      { "delegate": "tz1SYq214SCBy9naR6cvycQsYcUGpBqQAE8d",
        "reception_time": "2022-01-16T23:07:31.808-00:00",
        "included_in_blocks":
          [ "BLAJbB3BLoKeFEAQA6wWxisvEk7Riun7WRxCPjVXGkdTLvtbsZP" ] },
      { "delegate": "tz3UoffC7FG7zfpmvmjUmUeAaHvzdcUvAj6r",
        "reception_time": "2022-01-16T23:07:31.921-00:00",
        "included_in_blocks":
          [ "BLAJbB3BLoKeFEAQA6wWxisvEk7Riun7WRxCPjVXGkdTLvtbsZP" ] },
      { "delegate": "tz1aRoaRhSpRYvFdyvgWLL6TGyRoGF51wDjM",
        "reception_time": "2022-01-16T23:07:32.048-00:00",
        "included_in_blocks":
          [ "BLAJbB3BLoKeFEAQA6wWxisvEk7Riun7WRxCPjVXGkdTLvtbsZP" ] },
      { "delegate": "tz1ZcTRk5uxD86EFEn1vvNffWWqJy7q5eVhc",
        "reception_time": "2022-01-16T23:07:32.203-00:00",
        "included_in_blocks":
          [ "BLAJbB3BLoKeFEAQA6wWxisvEk7Riun7WRxCPjVXGkdTLvtbsZP" ] },
      { "delegate": "tz1NuUu12WHdW3jHqvkujGHsiTi46Wvw1ci1",
        "reception_time": "2022-01-16T23:07:32.210-00:00",
        "included_in_blocks":
          [ "BLAJbB3BLoKeFEAQA6wWxisvEk7Riun7WRxCPjVXGkdTLvtbsZP" ] },
      { "delegate": "tz1W5VkdB5s7ENMESVBtwyt9kyvLqPcUczRT",
        "reception_time": "2022-01-16T23:07:33.166-00:00",
        "included_in_blocks":
          [ "BLAJbB3BLoKeFEAQA6wWxisvEk7Riun7WRxCPjVXGkdTLvtbsZP" ] },
      { "delegate": "tz3e7LbZvUtoXhpUD1yb6wuFodZpfYRb9nWJ",
        "reception_time": "2022-01-16T23:07:39.434-00:00",
        "included_in_blocks":
          [ "BLAJbB3BLoKeFEAQA6wWxisvEk7Riun7WRxCPjVXGkdTLvtbsZP" ] },
      { "delegate": "tz1NpWrAyDL9k2Lmnyxcgr9xuJakbBxdq7FB",
        "reception_time": "2022-01-16T23:07:41.266-00:00",
        "included_in_blocks":
          [ "BLAJbB3BLoKeFEAQA6wWxisvEk7Riun7WRxCPjVXGkdTLvtbsZP" ] } ] }