{ "blocks":
    [ { "hash": "BLfShGpsoUuDdH8kXGnWjQqJd8bx6FHbyxQEyjb8wdA6dFPhfqc",
        "delegate": "tz3NxTnke1acr8o3h5y9ytf5awQBGNJUKzVU",
        "reception_time": "2022-01-17T04:04:25.115-00:00",
        "timestamp": "2022-01-17T04:04:20Z" } ],
  "endorsements":
    [ { "delegate": "tz1P2Po7YM526ughEsRbY4oR9zaUPDZjxFrb",
        "reception_time": "2022-01-17T04:04:25.722-00:00",
        "errors":
          [ { "kind": "temporary",
              "id": "proto.011-PtHangz2.prefilter.outdated_endorsement" } ],
        "included_in_blocks":
          [ "BMEWmaFgbY6YWazc1rbxsqGsBBke7cgqmh5aqrggCjmon8NmCrY" ] },
      { "delegate": "tz1eEnQhbwf6trb8Q8mPb2RaPkNk2rN7BKi8",
        "reception_time": "2022-01-17T04:04:25.029-00:00",
        "errors":
          [ { "kind": "temporary",
              "id": "proto.011-PtHangz2.prefilter.outdated_endorsement" } ],
        "included_in_blocks":
          [ "BMEWmaFgbY6YWazc1rbxsqGsBBke7cgqmh5aqrggCjmon8NmCrY" ] },
      { "delegate": "tz1MXFrtZoaXckE41bjUCSjAjAap3AFDSr3N",
        "reception_time": "2022-01-17T04:04:25.016-00:00",
        "errors":
          [ { "kind": "temporary",
              "id": "proto.011-PtHangz2.prefilter.outdated_endorsement" } ],
        "included_in_blocks":
          [ "BMEWmaFgbY6YWazc1rbxsqGsBBke7cgqmh5aqrggCjmon8NmCrY" ] },
      { "delegate": "tz1beersuEDv8Z7ngQ825xfbaJNS2EhXnyHR",
        "reception_time": "2022-01-17T04:04:24.952-00:00",
        "errors":
          [ { "kind": "temporary",
              "id": "proto.011-PtHangz2.prefilter.outdated_endorsement" } ],
        "included_in_blocks":
          [ "BMEWmaFgbY6YWazc1rbxsqGsBBke7cgqmh5aqrggCjmon8NmCrY" ] },
      { "delegate": "tz1Scdr2HsZiQjc7bHMeBbmDRXYVvdhjJbBh",
        "reception_time": "2022-01-17T04:04:24.939-00:00",
        "errors":
          [ { "kind": "temporary",
              "id": "proto.011-PtHangz2.prefilter.outdated_endorsement" } ],
        "included_in_blocks":
          [ "BMEWmaFgbY6YWazc1rbxsqGsBBke7cgqmh5aqrggCjmon8NmCrY" ] },
      { "delegate": "tz1RjoHc98dBoqaH2jawF62XNKh7YsHwbkEv" },
      { "delegate": "tz3ZbP2pM3nwvXztbuMJwJnDvV5xdpU8UkkD",
        "reception_time": "2022-01-17T04:04:26.341-00:00",
        "included_in_blocks":
          [ "BMEWmaFgbY6YWazc1rbxsqGsBBke7cgqmh5aqrggCjmon8NmCrY" ] },
      { "delegate": "tz1MJx9vhaNRSimcuXPK2rW4fLccQnDAnVKJ",
        "reception_time": "2022-01-17T04:04:26.345-00:00",
        "included_in_blocks":
          [ "BMEWmaFgbY6YWazc1rbxsqGsBBke7cgqmh5aqrggCjmon8NmCrY" ] },
      { "delegate": "tz1aDiEJf9ztRrAJEXZfcG3CKimoKsGhwVAi",
        "reception_time": "2022-01-17T04:04:26.349-00:00",
        "included_in_blocks":
          [ "BMEWmaFgbY6YWazc1rbxsqGsBBke7cgqmh5aqrggCjmon8NmCrY" ] },
      { "delegate": "tz3NxTnke1acr8o3h5y9ytf5awQBGNJUKzVU",
        "reception_time": "2022-01-17T04:04:26.359-00:00",
        "included_in_blocks":
          [ "BMEWmaFgbY6YWazc1rbxsqGsBBke7cgqmh5aqrggCjmon8NmCrY" ] },
      { "delegate": "tz1irJKkXS2DBWkU1NnmFQx1c1L7pbGg4yhk",
        "reception_time": "2022-01-17T04:04:26.362-00:00",
        "included_in_blocks":
          [ "BMEWmaFgbY6YWazc1rbxsqGsBBke7cgqmh5aqrggCjmon8NmCrY" ] },
      { "delegate": "tz1eDDuQBEgwvc6tbnnCVrnr12tvrd6gBTpx",
        "reception_time": "2022-01-17T04:04:26.385-00:00",
        "included_in_blocks":
          [ "BMEWmaFgbY6YWazc1rbxsqGsBBke7cgqmh5aqrggCjmon8NmCrY" ] },
      { "delegate": "tz3RKYFsLuQzKBtmYuLNas7uMu3AsYd4QdsA",
        "reception_time": "2022-01-17T04:04:26.399-00:00",
        "included_in_blocks":
          [ "BMEWmaFgbY6YWazc1rbxsqGsBBke7cgqmh5aqrggCjmon8NmCrY" ] },
      { "delegate": "tz1WCd2jm4uSt4vntk4vSuUWoZQGhLcDuR9q",
        "reception_time": "2022-01-17T04:04:26.402-00:00",
        "included_in_blocks":
          [ "BMEWmaFgbY6YWazc1rbxsqGsBBke7cgqmh5aqrggCjmon8NmCrY" ] },
      { "delegate": "tz3S6BBeKgJGXxvLyZ1xzXzMPn11nnFtq5L9",
        "reception_time": "2022-01-17T04:04:26.409-00:00",
        "included_in_blocks":
          [ "BMEWmaFgbY6YWazc1rbxsqGsBBke7cgqmh5aqrggCjmon8NmCrY" ] },
      { "delegate": "tz1Ldzz6k1BHdhuKvAtMRX7h5kJSMHESMHLC",
        "reception_time": "2022-01-17T04:04:26.411-00:00",
        "included_in_blocks":
          [ "BMEWmaFgbY6YWazc1rbxsqGsBBke7cgqmh5aqrggCjmon8NmCrY" ] },
      { "delegate": "tz3iJu5vrKZcsqRPs8yJ61UDoeEXZmtro4qh",
        "reception_time": "2022-01-17T04:04:26.421-00:00",
        "included_in_blocks":
          [ "BMEWmaFgbY6YWazc1rbxsqGsBBke7cgqmh5aqrggCjmon8NmCrY" ] },
      { "delegate": "tz1VmiY38m3y95HqQLjMwqnMS7sdMfGomzKi",
        "reception_time": "2022-01-17T04:04:26.433-00:00",
        "included_in_blocks":
          [ "BMEWmaFgbY6YWazc1rbxsqGsBBke7cgqmh5aqrggCjmon8NmCrY" ] },
      { "delegate": "tz3Zhs2dygr55yHyQyKjntAtY9bgfhLZ4Xj1",
        "reception_time": "2022-01-17T04:04:26.442-00:00",
        "included_in_blocks":
          [ "BMEWmaFgbY6YWazc1rbxsqGsBBke7cgqmh5aqrggCjmon8NmCrY" ] },
      { "delegate": "tz1UbFpJY5Hext38GisuaXQBkbzhaKJkxpEs",
        "reception_time": "2022-01-17T04:04:26.469-00:00",
        "included_in_blocks":
          [ "BMEWmaFgbY6YWazc1rbxsqGsBBke7cgqmh5aqrggCjmon8NmCrY" ] },
      { "delegate": "tz3QSGPoRp3Kn7n3vY24eYeu3Peuqo45LQ4D",
        "reception_time": "2022-01-17T04:04:26.499-00:00",
        "included_in_blocks":
          [ "BMEWmaFgbY6YWazc1rbxsqGsBBke7cgqmh5aqrggCjmon8NmCrY" ] },
      { "delegate": "tz3gtoUxdudfBRcNY7iVdKPHCYYX6xdPpoRS",
        "reception_time": "2022-01-17T04:04:26.509-00:00",
        "included_in_blocks":
          [ "BMEWmaFgbY6YWazc1rbxsqGsBBke7cgqmh5aqrggCjmon8NmCrY" ] },
      { "delegate": "tz1VQnqCCqX4K5sP3FNkVSNKTdCAMJDd3E1n",
        "reception_time": "2022-01-17T04:04:26.511-00:00",
        "included_in_blocks":
          [ "BMEWmaFgbY6YWazc1rbxsqGsBBke7cgqmh5aqrggCjmon8NmCrY" ] },
      { "delegate": "tz1UJvHTgpVzcKWhTazGxVcn5wsHru5Gietg",
        "reception_time": "2022-01-17T04:04:26.515-00:00",
        "included_in_blocks":
          [ "BMEWmaFgbY6YWazc1rbxsqGsBBke7cgqmh5aqrggCjmon8NmCrY" ] },
      { "delegate": "tz1gUNyn3hmnEWqkusWPzxRaon1cs7ndWh7h",
        "reception_time": "2022-01-17T04:04:26.518-00:00",
        "included_in_blocks":
          [ "BMEWmaFgbY6YWazc1rbxsqGsBBke7cgqmh5aqrggCjmon8NmCrY" ] },
      { "delegate": "tz3QCNyySViKHmeSr45kzDxzchys7NiXCWoa",
        "reception_time": "2022-01-17T04:04:26.525-00:00",
        "included_in_blocks":
          [ "BMEWmaFgbY6YWazc1rbxsqGsBBke7cgqmh5aqrggCjmon8NmCrY" ] },
      { "delegate": "tz3QT9dHYKDqh563chVa6za8526ys1UKfRfL",
        "reception_time": "2022-01-17T04:04:26.533-00:00",
        "included_in_blocks":
          [ "BMEWmaFgbY6YWazc1rbxsqGsBBke7cgqmh5aqrggCjmon8NmCrY" ] },
      { "delegate": "tz1iZEKy4LaAjnTmn2RuGDf2iqdAQKnRi8kY",
        "reception_time": "2022-01-17T04:04:26.547-00:00",
        "included_in_blocks":
          [ "BMEWmaFgbY6YWazc1rbxsqGsBBke7cgqmh5aqrggCjmon8NmCrY" ] },
      { "delegate": "tz1PWCDnz783NNGGQjEFFsHtrcK5yBW4E2rm",
        "reception_time": "2022-01-17T04:04:26.557-00:00",
        "included_in_blocks":
          [ "BMEWmaFgbY6YWazc1rbxsqGsBBke7cgqmh5aqrggCjmon8NmCrY" ] },
      { "delegate": "tz3bTdwZinP8U1JmSweNzVKhmwafqWmFWRfk",
        "reception_time": "2022-01-17T04:04:26.633-00:00",
        "included_in_blocks":
          [ "BMEWmaFgbY6YWazc1rbxsqGsBBke7cgqmh5aqrggCjmon8NmCrY" ] },
      { "delegate": "tz3RDC3Jdn4j15J7bBHZd29EUee9gVB1CxD9",
        "reception_time": "2022-01-17T04:04:26.643-00:00",
        "included_in_blocks":
          [ "BMEWmaFgbY6YWazc1rbxsqGsBBke7cgqmh5aqrggCjmon8NmCrY" ] },
      { "delegate": "tz3RB4aoyjov4KEVRbuhvQ1CKJgBJMWhaeB8",
        "reception_time": "2022-01-17T04:04:26.657-00:00",
        "included_in_blocks":
          [ "BMEWmaFgbY6YWazc1rbxsqGsBBke7cgqmh5aqrggCjmon8NmCrY" ] },
      { "delegate": "tz1Tnjaxk6tbAeC2TmMApPh8UsrEVQvhHvx5",
        "reception_time": "2022-01-17T04:04:26.717-00:00",
        "included_in_blocks":
          [ "BMEWmaFgbY6YWazc1rbxsqGsBBke7cgqmh5aqrggCjmon8NmCrY" ] },
      { "delegate": "tz1NSDFKuRyzHxpfG1AMkyCwEiZ52cbR2mRW",
        "reception_time": "2022-01-17T04:04:26.797-00:00",
        "included_in_blocks":
          [ "BMEWmaFgbY6YWazc1rbxsqGsBBke7cgqmh5aqrggCjmon8NmCrY" ] },
      { "delegate": "tz1abmz7jiCV2GH2u81LRrGgAFFgvQgiDiaf",
        "reception_time": "2022-01-17T04:04:26.825-00:00",
        "included_in_blocks":
          [ "BMEWmaFgbY6YWazc1rbxsqGsBBke7cgqmh5aqrggCjmon8NmCrY" ] },
      { "delegate": "tz1S8MNvuFEUsWgjHvi3AxibRBf388NhT1q2",
        "reception_time": "2022-01-17T04:04:26.883-00:00",
        "included_in_blocks":
          [ "BMEWmaFgbY6YWazc1rbxsqGsBBke7cgqmh5aqrggCjmon8NmCrY" ] },
      { "delegate": "tz1gfArv665EUkSg2ojMBzcbfwuPxAvqPvjo",
        "reception_time": "2022-01-17T04:04:26.909-00:00",
        "included_in_blocks":
          [ "BMEWmaFgbY6YWazc1rbxsqGsBBke7cgqmh5aqrggCjmon8NmCrY" ] },
      { "delegate": "tz1dNVDWPf3Q59SdJqnjdnu277iyvReiRS9M",
        "reception_time": "2022-01-17T04:04:26.926-00:00",
        "included_in_blocks":
          [ "BMEWmaFgbY6YWazc1rbxsqGsBBke7cgqmh5aqrggCjmon8NmCrY" ] },
      { "delegate": "tz1RCFbB9GpALpsZtu6J58sb74dm8qe6XBzv",
        "reception_time": "2022-01-17T04:04:26.944-00:00",
        "included_in_blocks":
          [ "BMEWmaFgbY6YWazc1rbxsqGsBBke7cgqmh5aqrggCjmon8NmCrY" ] },
      { "delegate": "tz1MQJPGNMijnXnVoBENFz9rUhaPt3S7rWoz",
        "reception_time": "2022-01-17T04:04:26.950-00:00",
        "included_in_blocks":
          [ "BMEWmaFgbY6YWazc1rbxsqGsBBke7cgqmh5aqrggCjmon8NmCrY" ] },
      { "delegate": "tz1V4qCyvPKZ5UeqdH14HN42rxvNPQfc9UZg",
        "reception_time": "2022-01-17T04:04:26.989-00:00",
        "included_in_blocks":
          [ "BMEWmaFgbY6YWazc1rbxsqGsBBke7cgqmh5aqrggCjmon8NmCrY" ] },
      { "delegate": "tz1fPKAtsYydh4f1wfWNfeNxWYu72TmM48fu",
        "reception_time": "2022-01-17T04:04:27.024-00:00",
        "included_in_blocks":
          [ "BMEWmaFgbY6YWazc1rbxsqGsBBke7cgqmh5aqrggCjmon8NmCrY" ] },
      { "delegate": "tz1Nf6tsK4G6bBqgSQERy4nUtkHNKUVdh7q1",
        "reception_time": "2022-01-17T04:04:27.060-00:00",
        "included_in_blocks":
          [ "BMEWmaFgbY6YWazc1rbxsqGsBBke7cgqmh5aqrggCjmon8NmCrY" ] },
      { "delegate": "tz1ei4WtWEMEJekSv8qDnu9PExG6Q8HgRGr3",
        "reception_time": "2022-01-17T04:04:27.158-00:00",
        "included_in_blocks":
          [ "BMEWmaFgbY6YWazc1rbxsqGsBBke7cgqmh5aqrggCjmon8NmCrY" ] },
      { "delegate": "tz2FCNBrERXtaTtNX6iimR1UJ5JSDxvdHM93",
        "reception_time": "2022-01-17T04:04:27.162-00:00",
        "included_in_blocks":
          [ "BMEWmaFgbY6YWazc1rbxsqGsBBke7cgqmh5aqrggCjmon8NmCrY" ] },
      { "delegate": "tz1WBfwbT66FC6BTLexc2BoyCCBM9LG7pnVW",
        "reception_time": "2022-01-17T04:04:27.301-00:00",
        "included_in_blocks":
          [ "BMEWmaFgbY6YWazc1rbxsqGsBBke7cgqmh5aqrggCjmon8NmCrY" ] },
      { "delegate": "tz1cZfFQpcYhwDp7y1njZXDsZqCrn2NqmVof",
        "reception_time": "2022-01-17T04:04:27.350-00:00",
        "included_in_blocks":
          [ "BMEWmaFgbY6YWazc1rbxsqGsBBke7cgqmh5aqrggCjmon8NmCrY" ] },
      { "delegate": "tz1SYq214SCBy9naR6cvycQsYcUGpBqQAE8d",
        "reception_time": "2022-01-17T04:04:27.457-00:00",
        "included_in_blocks":
          [ "BMEWmaFgbY6YWazc1rbxsqGsBBke7cgqmh5aqrggCjmon8NmCrY" ] },
      { "delegate": "tz3gLTu4Yxj8tPAcriQVUdxv6BY9QyvzU1az",
        "reception_time": "2022-01-17T04:04:27.603-00:00",
        "included_in_blocks":
          [ "BMEWmaFgbY6YWazc1rbxsqGsBBke7cgqmh5aqrggCjmon8NmCrY" ] },
      { "delegate": "tz1TRqbYbUf2GyrjErf3hBzgBJPzW8y36qEs",
        "reception_time": "2022-01-17T04:04:27.620-00:00",
        "included_in_blocks":
          [ "BMEWmaFgbY6YWazc1rbxsqGsBBke7cgqmh5aqrggCjmon8NmCrY" ] },
      { "delegate": "tz3NDpRj6WBrJPikcPVHRBEjWKxFw3c6eQPS",
        "reception_time": "2022-01-17T04:04:27.633-00:00",
        "included_in_blocks":
          [ "BMEWmaFgbY6YWazc1rbxsqGsBBke7cgqmh5aqrggCjmon8NmCrY" ] },
      { "delegate": "tz3bvNMQ95vfAYtG8193ymshqjSvmxiCUuR5",
        "reception_time": "2022-01-17T04:04:27.677-00:00",
        "included_in_blocks":
          [ "BMEWmaFgbY6YWazc1rbxsqGsBBke7cgqmh5aqrggCjmon8NmCrY" ] },
      { "delegate": "tz1aRoaRhSpRYvFdyvgWLL6TGyRoGF51wDjM",
        "reception_time": "2022-01-17T04:04:27.679-00:00",
        "included_in_blocks":
          [ "BMEWmaFgbY6YWazc1rbxsqGsBBke7cgqmh5aqrggCjmon8NmCrY" ] },
      { "delegate": "tz3VEZ4k6a4Wx42iyev6i2aVAptTRLEAivNN",
        "reception_time": "2022-01-17T04:04:27.775-00:00",
        "included_in_blocks":
          [ "BMEWmaFgbY6YWazc1rbxsqGsBBke7cgqmh5aqrggCjmon8NmCrY" ] },
      { "delegate": "tz3WMqdzXqRWXwyvj5Hp2H7QEepaUuS7vd9K",
        "reception_time": "2022-01-17T04:04:27.803-00:00",
        "included_in_blocks":
          [ "BMEWmaFgbY6YWazc1rbxsqGsBBke7cgqmh5aqrggCjmon8NmCrY" ] },
      { "delegate": "tz1cig1EHyvZd7J2k389moM9PxVgPQvmFkvi",
        "reception_time": "2022-01-17T04:04:27.821-00:00",
        "included_in_blocks":
          [ "BMEWmaFgbY6YWazc1rbxsqGsBBke7cgqmh5aqrggCjmon8NmCrY" ] },
      { "delegate": "tz1UvkANVPWppVgMkLnvN7BwYZsCP7vm6NVd",
        "reception_time": "2022-01-17T04:04:27.856-00:00",
        "included_in_blocks":
          [ "BMEWmaFgbY6YWazc1rbxsqGsBBke7cgqmh5aqrggCjmon8NmCrY" ] },
      { "delegate": "tz1NEKxGEHsFufk87CVZcrqWu8o22qh46GK6",
        "reception_time": "2022-01-17T04:04:27.960-00:00",
        "included_in_blocks":
          [ "BMEWmaFgbY6YWazc1rbxsqGsBBke7cgqmh5aqrggCjmon8NmCrY" ] },
      { "delegate": "tz1g8vkmcde6sWKaG2NN9WKzCkDM6Rziq194",
        "reception_time": "2022-01-17T04:04:28.052-00:00",
        "included_in_blocks":
          [ "BMEWmaFgbY6YWazc1rbxsqGsBBke7cgqmh5aqrggCjmon8NmCrY" ] },
      { "delegate": "tz3NExpXn9aPNZPorRE4SdjJ2RGrfbJgMAaV",
        "reception_time": "2022-01-17T04:04:28.413-00:00",
        "included_in_blocks":
          [ "BMEWmaFgbY6YWazc1rbxsqGsBBke7cgqmh5aqrggCjmon8NmCrY" ] },
      { "delegate": "tz1Uoy4PdQDDiHRRec77pJEQJ21tSyksarur",
        "reception_time": "2022-01-17T04:04:28.562-00:00",
        "included_in_blocks":
          [ "BMEWmaFgbY6YWazc1rbxsqGsBBke7cgqmh5aqrggCjmon8NmCrY" ] },
      { "delegate": "tz1T7duV5gZWSTq4YpBGbXNLTfznCLDrFxvs",
        "reception_time": "2022-01-17T04:04:28.707-00:00",
        "included_in_blocks":
          [ "BMEWmaFgbY6YWazc1rbxsqGsBBke7cgqmh5aqrggCjmon8NmCrY" ] },
      { "delegate": "tz1Zcxkfa5jKrRbBThG765GP29bUCU3C4ok5",
        "reception_time": "2022-01-17T04:04:28.877-00:00",
        "included_in_blocks":
          [ "BMEWmaFgbY6YWazc1rbxsqGsBBke7cgqmh5aqrggCjmon8NmCrY" ] },
      { "delegate": "tz3UoffC7FG7zfpmvmjUmUeAaHvzdcUvAj6r",
        "reception_time": "2022-01-17T04:04:29.062-00:00",
        "included_in_blocks":
          [ "BMEWmaFgbY6YWazc1rbxsqGsBBke7cgqmh5aqrggCjmon8NmCrY" ] },
      { "delegate": "tz1ZcTRk5uxD86EFEn1vvNffWWqJy7q5eVhc",
        "reception_time": "2022-01-17T04:04:29.334-00:00",
        "included_in_blocks":
          [ "BMEWmaFgbY6YWazc1rbxsqGsBBke7cgqmh5aqrggCjmon8NmCrY" ] },
      { "delegate": "tz1bTpviNnyx2PXsNmGpCQTMQsGoYordkUoA",
        "reception_time": "2022-01-17T04:04:29.698-00:00",
        "included_in_blocks":
          [ "BMEWmaFgbY6YWazc1rbxsqGsBBke7cgqmh5aqrggCjmon8NmCrY" ] },
      { "delegate": "tz1W5VkdB5s7ENMESVBtwyt9kyvLqPcUczRT",
        "reception_time": "2022-01-17T04:04:29.826-00:00",
        "included_in_blocks":
          [ "BMEWmaFgbY6YWazc1rbxsqGsBBke7cgqmh5aqrggCjmon8NmCrY" ] },
      { "delegate": "tz1aJS7Pk9uWR3wWyFf1i3RwhYxN84G7stom",
        "reception_time": "2022-01-17T04:04:30.138-00:00",
        "included_in_blocks":
          [ "BMEWmaFgbY6YWazc1rbxsqGsBBke7cgqmh5aqrggCjmon8NmCrY" ] },
      { "delegate": "tz1h4ar7F5wC6Ae2cfkrmrRP6nrPk9gGFaxg",
        "reception_time": "2022-01-17T04:04:30.488-00:00",
        "included_in_blocks":
          [ "BMEWmaFgbY6YWazc1rbxsqGsBBke7cgqmh5aqrggCjmon8NmCrY" ] },
      { "delegate": "tz1ULYFhUY7Syao5NWr9jZ1pp3aw81QPiqjs",
        "reception_time": "2022-01-17T04:04:30.988-00:00",
        "included_in_blocks":
          [ "BMEWmaFgbY6YWazc1rbxsqGsBBke7cgqmh5aqrggCjmon8NmCrY" ] } ] }