{ "blocks":
    [ { "hash": "BMYNAVy2kWkeNU1M1iigbbAE6TJQ7Z4Civ24eb1WWNivHVRyKKE",
        "delegate": "tz1irJKkXS2DBWkU1NnmFQx1c1L7pbGg4yhk",
        "reception_time": "2022-01-17T01:06:25.249-00:00",
        "timestamp": "2022-01-17T01:06:20Z" } ],
  "endorsements":
    [ { "delegate": "tz1RjoHc98dBoqaH2jawF62XNKh7YsHwbkEv" },
      { "delegate": "tz1NpWrAyDL9k2Lmnyxcgr9xuJakbBxdq7FB",
        "reception_time": "2022-01-17T01:06:36.724-00:00",
        "included_in_blocks":
          [ "BLi9FBYEXycoc7KHyU3gp3EN64s48SbUa2KiigMepfbTfEEfK4h" ] },
      { "delegate": "tz3e7LbZvUtoXhpUD1yb6wuFodZpfYRb9nWJ",
        "reception_time": "2022-01-17T01:06:34.118-00:00",
        "included_in_blocks":
          [ "BLi9FBYEXycoc7KHyU3gp3EN64s48SbUa2KiigMepfbTfEEfK4h" ] },
      { "delegate": "tz1gg5bjopPcr9agjamyu9BbXKLibNc2rbAq",
        "reception_time": "2022-01-17T01:06:30.590-00:00",
        "included_in_blocks":
          [ "BLi9FBYEXycoc7KHyU3gp3EN64s48SbUa2KiigMepfbTfEEfK4h" ] },
      { "delegate": "tz1eVaNx3gCmG1EsLjijkmgAxdLYVf6Bf5Sq",
        "reception_time": "2022-01-17T01:06:30.570-00:00",
        "included_in_blocks":
          [ "BLi9FBYEXycoc7KHyU3gp3EN64s48SbUa2KiigMepfbTfEEfK4h" ] },
      { "delegate": "tz1TcH4Nb3aHNDJ7CGZhU7jgAK1BkSP4Lxds",
        "reception_time": "2022-01-17T01:06:29.344-00:00",
        "included_in_blocks":
          [ "BLi9FBYEXycoc7KHyU3gp3EN64s48SbUa2KiigMepfbTfEEfK4h" ] },
      { "delegate": "tz1aRoaRhSpRYvFdyvgWLL6TGyRoGF51wDjM",
        "reception_time": "2022-01-17T01:06:28.949-00:00",
        "included_in_blocks":
          [ "BLi9FBYEXycoc7KHyU3gp3EN64s48SbUa2KiigMepfbTfEEfK4h" ] },
      { "delegate": "tz3UoffC7FG7zfpmvmjUmUeAaHvzdcUvAj6r",
        "reception_time": "2022-01-17T01:06:28.982-00:00",
        "included_in_blocks":
          [ "BLi9FBYEXycoc7KHyU3gp3EN64s48SbUa2KiigMepfbTfEEfK4h" ] },
      { "delegate": "tz1T7duV5gZWSTq4YpBGbXNLTfznCLDrFxvs",
        "reception_time": "2022-01-17T01:06:29.165-00:00",
        "included_in_blocks":
          [ "BLi9FBYEXycoc7KHyU3gp3EN64s48SbUa2KiigMepfbTfEEfK4h" ] },
      { "delegate": "tz1NEKxGEHsFufk87CVZcrqWu8o22qh46GK6",
        "reception_time": "2022-01-17T01:06:28.833-00:00",
        "included_in_blocks":
          [ "BLi9FBYEXycoc7KHyU3gp3EN64s48SbUa2KiigMepfbTfEEfK4h" ] },
      { "delegate": "tz1TRqbYbUf2GyrjErf3hBzgBJPzW8y36qEs",
        "reception_time": "2022-01-17T01:06:28.797-00:00",
        "included_in_blocks":
          [ "BLi9FBYEXycoc7KHyU3gp3EN64s48SbUa2KiigMepfbTfEEfK4h" ] },
      { "delegate": "tz3NExpXn9aPNZPorRE4SdjJ2RGrfbJgMAaV",
        "reception_time": "2022-01-17T01:06:28.967-00:00",
        "included_in_blocks":
          [ "BLi9FBYEXycoc7KHyU3gp3EN64s48SbUa2KiigMepfbTfEEfK4h" ] },
      { "delegate": "tz1UvkANVPWppVgMkLnvN7BwYZsCP7vm6NVd",
        "reception_time": "2022-01-17T01:06:28.369-00:00",
        "included_in_blocks":
          [ "BLi9FBYEXycoc7KHyU3gp3EN64s48SbUa2KiigMepfbTfEEfK4h" ] },
      { "delegate": "tz3NDpRj6WBrJPikcPVHRBEjWKxFw3c6eQPS",
        "reception_time": "2022-01-17T01:06:28.311-00:00",
        "included_in_blocks":
          [ "BLi9FBYEXycoc7KHyU3gp3EN64s48SbUa2KiigMepfbTfEEfK4h" ] },
      { "delegate": "tz1g8vkmcde6sWKaG2NN9WKzCkDM6Rziq194",
        "reception_time": "2022-01-17T01:06:28.088-00:00",
        "included_in_blocks":
          [ "BLi9FBYEXycoc7KHyU3gp3EN64s48SbUa2KiigMepfbTfEEfK4h" ] },
      { "delegate": "tz3RDC3Jdn4j15J7bBHZd29EUee9gVB1CxD9",
        "reception_time": "2022-01-17T01:06:28.158-00:00",
        "included_in_blocks":
          [ "BLi9FBYEXycoc7KHyU3gp3EN64s48SbUa2KiigMepfbTfEEfK4h" ] },
      { "delegate": "tz2FCNBrERXtaTtNX6iimR1UJ5JSDxvdHM93",
        "reception_time": "2022-01-17T01:06:28.082-00:00",
        "included_in_blocks":
          [ "BLi9FBYEXycoc7KHyU3gp3EN64s48SbUa2KiigMepfbTfEEfK4h" ] },
      { "delegate": "tz3VEZ4k6a4Wx42iyev6i2aVAptTRLEAivNN",
        "reception_time": "2022-01-17T01:06:28.228-00:00",
        "included_in_blocks":
          [ "BLi9FBYEXycoc7KHyU3gp3EN64s48SbUa2KiigMepfbTfEEfK4h" ] },
      { "delegate": "tz1KfEsrtDaA1sX7vdM4qmEPWuSytuqCDp5j",
        "reception_time": "2022-01-17T01:06:28.217-00:00",
        "included_in_blocks":
          [ "BLi9FBYEXycoc7KHyU3gp3EN64s48SbUa2KiigMepfbTfEEfK4h" ] },
      { "delegate": "tz1SUgyRB8T5jXgXAwS33pgRHAKrafyg87Yc",
        "reception_time": "2022-01-17T01:06:28.118-00:00",
        "included_in_blocks":
          [ "BLi9FBYEXycoc7KHyU3gp3EN64s48SbUa2KiigMepfbTfEEfK4h" ] },
      { "delegate": "tz3WMqdzXqRWXwyvj5Hp2H7QEepaUuS7vd9K",
        "reception_time": "2022-01-17T01:06:28.140-00:00",
        "included_in_blocks":
          [ "BLi9FBYEXycoc7KHyU3gp3EN64s48SbUa2KiigMepfbTfEEfK4h" ] },
      { "delegate": "tz1Mc61yajNASzh5KWZFtYs4i7EJbzAxQC4K",
        "reception_time": "2022-01-17T01:06:28.165-00:00",
        "included_in_blocks":
          [ "BLi9FBYEXycoc7KHyU3gp3EN64s48SbUa2KiigMepfbTfEEfK4h" ] },
      { "delegate": "tz1cig1EHyvZd7J2k389moM9PxVgPQvmFkvi",
        "reception_time": "2022-01-17T01:06:28.209-00:00",
        "included_in_blocks":
          [ "BLi9FBYEXycoc7KHyU3gp3EN64s48SbUa2KiigMepfbTfEEfK4h" ] },
      { "delegate": "tz1RQhNh7iB9CZA7i3ifTWNwiGYVffponfbB",
        "reception_time": "2022-01-17T01:06:27.354-00:00",
        "included_in_blocks":
          [ "BLi9FBYEXycoc7KHyU3gp3EN64s48SbUa2KiigMepfbTfEEfK4h" ] },
      { "delegate": "tz1WBfwbT66FC6BTLexc2BoyCCBM9LG7pnVW",
        "reception_time": "2022-01-17T01:06:27.812-00:00",
        "included_in_blocks":
          [ "BLi9FBYEXycoc7KHyU3gp3EN64s48SbUa2KiigMepfbTfEEfK4h" ] },
      { "delegate": "tz1Nf6tsK4G6bBqgSQERy4nUtkHNKUVdh7q1",
        "reception_time": "2022-01-17T01:06:27.256-00:00",
        "included_in_blocks":
          [ "BLi9FBYEXycoc7KHyU3gp3EN64s48SbUa2KiigMepfbTfEEfK4h" ] },
      { "delegate": "tz1NortRftucvAkD1J58L32EhSVrQEWJCEnB",
        "reception_time": "2022-01-17T01:06:27.136-00:00",
        "included_in_blocks":
          [ "BLi9FBYEXycoc7KHyU3gp3EN64s48SbUa2KiigMepfbTfEEfK4h" ] },
      { "delegate": "tz3bvNMQ95vfAYtG8193ymshqjSvmxiCUuR5",
        "reception_time": "2022-01-17T01:06:26.982-00:00",
        "included_in_blocks":
          [ "BLi9FBYEXycoc7KHyU3gp3EN64s48SbUa2KiigMepfbTfEEfK4h" ] },
      { "delegate": "tz1fwnfJNgiDACshK9avfRfFbMaXrs3ghoJa",
        "reception_time": "2022-01-17T01:06:27.440-00:00",
        "included_in_blocks":
          [ "BLi9FBYEXycoc7KHyU3gp3EN64s48SbUa2KiigMepfbTfEEfK4h" ] },
      { "delegate": "tz3bTdwZinP8U1JmSweNzVKhmwafqWmFWRfk",
        "reception_time": "2022-01-17T01:06:27.010-00:00",
        "included_in_blocks":
          [ "BLi9FBYEXycoc7KHyU3gp3EN64s48SbUa2KiigMepfbTfEEfK4h" ] },
      { "delegate": "tz3RB4aoyjov4KEVRbuhvQ1CKJgBJMWhaeB8",
        "reception_time": "2022-01-17T01:06:26.926-00:00",
        "included_in_blocks":
          [ "BLi9FBYEXycoc7KHyU3gp3EN64s48SbUa2KiigMepfbTfEEfK4h" ] },
      { "delegate": "tz1aDiEJf9ztRrAJEXZfcG3CKimoKsGhwVAi",
        "reception_time": "2022-01-17T01:06:27.334-00:00",
        "included_in_blocks":
          [ "BLi9FBYEXycoc7KHyU3gp3EN64s48SbUa2KiigMepfbTfEEfK4h" ] },
      { "delegate": "tz1S8MNvuFEUsWgjHvi3AxibRBf388NhT1q2",
        "reception_time": "2022-01-17T01:06:27.318-00:00",
        "included_in_blocks":
          [ "BLi9FBYEXycoc7KHyU3gp3EN64s48SbUa2KiigMepfbTfEEfK4h" ] },
      { "delegate": "tz1Tnjaxk6tbAeC2TmMApPh8UsrEVQvhHvx5",
        "reception_time": "2022-01-17T01:06:27.445-00:00",
        "included_in_blocks":
          [ "BLi9FBYEXycoc7KHyU3gp3EN64s48SbUa2KiigMepfbTfEEfK4h" ] },
      { "delegate": "tz3S6BBeKgJGXxvLyZ1xzXzMPn11nnFtq5L9",
        "reception_time": "2022-01-17T01:06:26.688-00:00",
        "included_in_blocks":
          [ "BLi9FBYEXycoc7KHyU3gp3EN64s48SbUa2KiigMepfbTfEEfK4h" ] },
      { "delegate": "tz1PWCDnz783NNGGQjEFFsHtrcK5yBW4E2rm",
        "reception_time": "2022-01-17T01:06:27.145-00:00",
        "included_in_blocks":
          [ "BLi9FBYEXycoc7KHyU3gp3EN64s48SbUa2KiigMepfbTfEEfK4h" ] },
      { "delegate": "tz3QT9dHYKDqh563chVa6za8526ys1UKfRfL",
        "reception_time": "2022-01-17T01:06:26.673-00:00",
        "included_in_blocks":
          [ "BLi9FBYEXycoc7KHyU3gp3EN64s48SbUa2KiigMepfbTfEEfK4h" ] },
      { "delegate": "tz1ei4WtWEMEJekSv8qDnu9PExG6Q8HgRGr3",
        "reception_time": "2022-01-17T01:06:27.345-00:00",
        "included_in_blocks":
          [ "BLi9FBYEXycoc7KHyU3gp3EN64s48SbUa2KiigMepfbTfEEfK4h" ] },
      { "delegate": "tz1RCFbB9GpALpsZtu6J58sb74dm8qe6XBzv",
        "reception_time": "2022-01-17T01:06:27.170-00:00",
        "included_in_blocks":
          [ "BLi9FBYEXycoc7KHyU3gp3EN64s48SbUa2KiigMepfbTfEEfK4h" ] },
      { "delegate": "tz1gfArv665EUkSg2ojMBzcbfwuPxAvqPvjo",
        "reception_time": "2022-01-17T01:06:26.989-00:00",
        "included_in_blocks":
          [ "BLi9FBYEXycoc7KHyU3gp3EN64s48SbUa2KiigMepfbTfEEfK4h" ] },
      { "delegate": "tz3RKYFsLuQzKBtmYuLNas7uMu3AsYd4QdsA",
        "reception_time": "2022-01-17T01:06:26.648-00:00",
        "included_in_blocks":
          [ "BLi9FBYEXycoc7KHyU3gp3EN64s48SbUa2KiigMepfbTfEEfK4h" ] },
      { "delegate": "tz3adcvQaKXTCg12zbninqo3q8ptKKtDFTLv",
        "reception_time": "2022-01-17T01:06:26.793-00:00",
        "included_in_blocks":
          [ "BLi9FBYEXycoc7KHyU3gp3EN64s48SbUa2KiigMepfbTfEEfK4h" ] },
      { "delegate": "tz3QSGPoRp3Kn7n3vY24eYeu3Peuqo45LQ4D",
        "reception_time": "2022-01-17T01:06:26.564-00:00",
        "included_in_blocks":
          [ "BLi9FBYEXycoc7KHyU3gp3EN64s48SbUa2KiigMepfbTfEEfK4h" ] },
      { "delegate": "tz3hw2kqXhLUvY65ca1eety2oQTpAvd34R9Q",
        "reception_time": "2022-01-17T01:06:26.574-00:00",
        "included_in_blocks":
          [ "BLi9FBYEXycoc7KHyU3gp3EN64s48SbUa2KiigMepfbTfEEfK4h" ] },
      { "delegate": "tz3iJu5vrKZcsqRPs8yJ61UDoeEXZmtro4qh",
        "reception_time": "2022-01-17T01:06:26.548-00:00",
        "included_in_blocks":
          [ "BLi9FBYEXycoc7KHyU3gp3EN64s48SbUa2KiigMepfbTfEEfK4h" ] },
      { "delegate": "tz3gtoUxdudfBRcNY7iVdKPHCYYX6xdPpoRS",
        "reception_time": "2022-01-17T01:06:26.489-00:00",
        "included_in_blocks":
          [ "BLi9FBYEXycoc7KHyU3gp3EN64s48SbUa2KiigMepfbTfEEfK4h" ] },
      { "delegate": "tz1TzaNn7wSQSP5gYPXCnNzBCpyMiidCq1PX",
        "reception_time": "2022-01-17T01:06:26.548-00:00",
        "included_in_blocks":
          [ "BLi9FBYEXycoc7KHyU3gp3EN64s48SbUa2KiigMepfbTfEEfK4h" ] },
      { "delegate": "tz3Zhs2dygr55yHyQyKjntAtY9bgfhLZ4Xj1",
        "reception_time": "2022-01-17T01:06:26.535-00:00",
        "included_in_blocks":
          [ "BLi9FBYEXycoc7KHyU3gp3EN64s48SbUa2KiigMepfbTfEEfK4h" ] },
      { "delegate": "tz1WCd2jm4uSt4vntk4vSuUWoZQGhLcDuR9q",
        "reception_time": "2022-01-17T01:06:26.539-00:00",
        "included_in_blocks":
          [ "BLi9FBYEXycoc7KHyU3gp3EN64s48SbUa2KiigMepfbTfEEfK4h" ] },
      { "delegate": "tz1Ldzz6k1BHdhuKvAtMRX7h5kJSMHESMHLC",
        "reception_time": "2022-01-17T01:06:26.523-00:00",
        "included_in_blocks":
          [ "BLi9FBYEXycoc7KHyU3gp3EN64s48SbUa2KiigMepfbTfEEfK4h" ] },
      { "delegate": "tz1V4qCyvPKZ5UeqdH14HN42rxvNPQfc9UZg",
        "reception_time": "2022-01-17T01:06:27.324-00:00",
        "included_in_blocks":
          [ "BLi9FBYEXycoc7KHyU3gp3EN64s48SbUa2KiigMepfbTfEEfK4h" ] },
      { "delegate": "tz3ZbP2pM3nwvXztbuMJwJnDvV5xdpU8UkkD",
        "reception_time": "2022-01-17T01:06:26.447-00:00",
        "included_in_blocks":
          [ "BLi9FBYEXycoc7KHyU3gp3EN64s48SbUa2KiigMepfbTfEEfK4h" ] },
      { "delegate": "tz3NxTnke1acr8o3h5y9ytf5awQBGNJUKzVU",
        "reception_time": "2022-01-17T01:06:26.455-00:00",
        "included_in_blocks":
          [ "BLi9FBYEXycoc7KHyU3gp3EN64s48SbUa2KiigMepfbTfEEfK4h" ] },
      { "delegate": "tz1gUNyn3hmnEWqkusWPzxRaon1cs7ndWh7h",
        "reception_time": "2022-01-17T01:06:26.478-00:00",
        "included_in_blocks":
          [ "BLi9FBYEXycoc7KHyU3gp3EN64s48SbUa2KiigMepfbTfEEfK4h" ] },
      { "delegate": "tz1VQnqCCqX4K5sP3FNkVSNKTdCAMJDd3E1n",
        "reception_time": "2022-01-17T01:06:26.466-00:00",
        "included_in_blocks":
          [ "BLi9FBYEXycoc7KHyU3gp3EN64s48SbUa2KiigMepfbTfEEfK4h" ] },
      { "delegate": "tz3QCNyySViKHmeSr45kzDxzchys7NiXCWoa",
        "reception_time": "2022-01-17T01:06:26.417-00:00",
        "included_in_blocks":
          [ "BLi9FBYEXycoc7KHyU3gp3EN64s48SbUa2KiigMepfbTfEEfK4h" ] },
      { "delegate": "tz1MJx9vhaNRSimcuXPK2rW4fLccQnDAnVKJ",
        "reception_time": "2022-01-17T01:06:26.424-00:00",
        "included_in_blocks":
          [ "BLi9FBYEXycoc7KHyU3gp3EN64s48SbUa2KiigMepfbTfEEfK4h" ] },
      { "delegate": "tz1VmiY38m3y95HqQLjMwqnMS7sdMfGomzKi",
        "reception_time": "2022-01-17T01:06:26.523-00:00",
        "included_in_blocks":
          [ "BLi9FBYEXycoc7KHyU3gp3EN64s48SbUa2KiigMepfbTfEEfK4h" ] },
      { "delegate": "tz1iZEKy4LaAjnTmn2RuGDf2iqdAQKnRi8kY",
        "reception_time": "2022-01-17T01:06:26.528-00:00",
        "included_in_blocks":
          [ "BLi9FBYEXycoc7KHyU3gp3EN64s48SbUa2KiigMepfbTfEEfK4h" ] },
      { "delegate": "tz1LLNkQK4UQV6QcFShiXJ2vT2ELw449MzAA",
        "reception_time": "2022-01-17T01:06:26.427-00:00",
        "included_in_blocks":
          [ "BLi9FBYEXycoc7KHyU3gp3EN64s48SbUa2KiigMepfbTfEEfK4h" ] },
      { "delegate": "tz1NMdMmWZN8QPB8pY4ddncACDg1cHi1xD2e",
        "reception_time": "2022-01-17T01:06:26.419-00:00",
        "included_in_blocks":
          [ "BLi9FBYEXycoc7KHyU3gp3EN64s48SbUa2KiigMepfbTfEEfK4h" ] },
      { "delegate": "tz1TRspM5SeZpaQUhzByXbEvqKF1vnCM2YTK",
        "reception_time": "2022-01-17T01:06:26.458-00:00",
        "included_in_blocks":
          [ "BLi9FBYEXycoc7KHyU3gp3EN64s48SbUa2KiigMepfbTfEEfK4h" ] },
      { "delegate": "tz1aXD7Jigrt3PBYSpHSg5Rr33SexMmmM5Ys",
        "reception_time": "2022-01-17T01:06:26.557-00:00",
        "included_in_blocks":
          [ "BLi9FBYEXycoc7KHyU3gp3EN64s48SbUa2KiigMepfbTfEEfK4h" ] },
      { "delegate": "tz1TXzyaKUA8wsWefdSnyaYFnV2M3vCV7er9",
        "reception_time": "2022-01-17T01:06:26.407-00:00",
        "included_in_blocks":
          [ "BLi9FBYEXycoc7KHyU3gp3EN64s48SbUa2KiigMepfbTfEEfK4h" ] },
      { "delegate": "tz1Kt4P8BCaP93AEV4eA7gmpRryWt5hznjCP",
        "reception_time": "2022-01-17T01:06:26.494-00:00",
        "included_in_blocks":
          [ "BLi9FBYEXycoc7KHyU3gp3EN64s48SbUa2KiigMepfbTfEEfK4h" ] },
      { "delegate": "tz1beersuEDv8Z7ngQ825xfbaJNS2EhXnyHR",
        "reception_time": "2022-01-17T01:06:26.410-00:00",
        "included_in_blocks":
          [ "BLi9FBYEXycoc7KHyU3gp3EN64s48SbUa2KiigMepfbTfEEfK4h" ] },
      { "delegate": "tz1STeamwbp68THcny9zk3LsbG3H36DMvbRK",
        "reception_time": "2022-01-17T01:06:26.435-00:00",
        "included_in_blocks":
          [ "BLi9FBYEXycoc7KHyU3gp3EN64s48SbUa2KiigMepfbTfEEfK4h" ] },
      { "delegate": "tz1eEnQhbwf6trb8Q8mPb2RaPkNk2rN7BKi8",
        "reception_time": "2022-01-17T01:06:26.432-00:00",
        "included_in_blocks":
          [ "BLi9FBYEXycoc7KHyU3gp3EN64s48SbUa2KiigMepfbTfEEfK4h" ] },
      { "delegate": "tz1MXFrtZoaXckE41bjUCSjAjAap3AFDSr3N",
        "reception_time": "2022-01-17T01:06:26.432-00:00",
        "included_in_blocks":
          [ "BLi9FBYEXycoc7KHyU3gp3EN64s48SbUa2KiigMepfbTfEEfK4h" ] },
      { "delegate": "tz1P2Po7YM526ughEsRbY4oR9zaUPDZjxFrb",
        "reception_time": "2022-01-17T01:06:26.397-00:00",
        "included_in_blocks":
          [ "BLi9FBYEXycoc7KHyU3gp3EN64s48SbUa2KiigMepfbTfEEfK4h" ] },
      { "delegate": "tz1irJKkXS2DBWkU1NnmFQx1c1L7pbGg4yhk",
        "reception_time": "2022-01-17T01:06:26.424-00:00",
        "included_in_blocks":
          [ "BLi9FBYEXycoc7KHyU3gp3EN64s48SbUa2KiigMepfbTfEEfK4h" ] },
      { "delegate": "tz1QLXqnfN51dkjeghXvKHkJfhvGiM5gK4tc",
        "reception_time": "2022-01-17T01:06:26.439-00:00",
        "included_in_blocks":
          [ "BLi9FBYEXycoc7KHyU3gp3EN64s48SbUa2KiigMepfbTfEEfK4h" ] } ] }