{ "blocks":
    [ { "hash": "BLyiLAAntdWehykZq7cXM8u5z1Qx4C7hYSZEPEpUeZukWqWY4iG",
        "delegate": "tz1Nf6tsK4G6bBqgSQERy4nUtkHNKUVdh7q1",
        "reception_time": "2022-01-17T03:36:46.066-00:00",
        "timestamp": "2022-01-17T03:36:40Z" } ],
  "endorsements":
    [ { "delegate": "tz1awXW7wuXy21c66vBudMXQVAPgRnqqwgTH" },
      { "delegate": "tz1RjoHc98dBoqaH2jawF62XNKh7YsHwbkEv" },
      { "delegate": "tz1S8e9GgdZG78XJRB3NqabfWeM37GnhZMWQ",
        "reception_time": "2022-01-17T03:36:45.892-00:00",
        "errors":
          [ { "kind": "temporary",
              "id": "proto.011-PtHangz2.prefilter.outdated_endorsement" } ],
        "included_in_blocks":
          [ "BKqU6K1QRJbzW8qqdKAxWXCk6pu9X2ANAm3PYckAiLxCZhFMdyX" ] },
      { "delegate": "tz1NpWrAyDL9k2Lmnyxcgr9xuJakbBxdq7FB",
        "reception_time": "2022-01-17T03:36:52.043-00:00",
        "included_in_blocks":
          [ "BKqU6K1QRJbzW8qqdKAxWXCk6pu9X2ANAm3PYckAiLxCZhFMdyX" ] },
      { "delegate": "tz1cM8Xc7ZP1TrjkTeKq4PeRhtbnwXSBR6Sw",
        "reception_time": "2022-01-17T03:36:50.369-00:00",
        "included_in_blocks":
          [ "BKqU6K1QRJbzW8qqdKAxWXCk6pu9X2ANAm3PYckAiLxCZhFMdyX" ] },
      { "delegate": "tz1ZcTRk5uxD86EFEn1vvNffWWqJy7q5eVhc",
        "reception_time": "2022-01-17T03:36:50.197-00:00",
        "included_in_blocks":
          [ "BKqU6K1QRJbzW8qqdKAxWXCk6pu9X2ANAm3PYckAiLxCZhFMdyX" ] },
      { "delegate": "tz3NExpXn9aPNZPorRE4SdjJ2RGrfbJgMAaV",
        "reception_time": "2022-01-17T03:36:49.581-00:00",
        "included_in_blocks":
          [ "BKqU6K1QRJbzW8qqdKAxWXCk6pu9X2ANAm3PYckAiLxCZhFMdyX" ] },
      { "delegate": "tz1inEhztXuPdCF81YHomPrFaAVa514HDZXH",
        "reception_time": "2022-01-17T03:36:49.311-00:00",
        "included_in_blocks":
          [ "BKqU6K1QRJbzW8qqdKAxWXCk6pu9X2ANAm3PYckAiLxCZhFMdyX" ] },
      { "delegate": "tz1KfEsrtDaA1sX7vdM4qmEPWuSytuqCDp5j",
        "reception_time": "2022-01-17T03:36:49.354-00:00",
        "included_in_blocks":
          [ "BKqU6K1QRJbzW8qqdKAxWXCk6pu9X2ANAm3PYckAiLxCZhFMdyX" ] },
      { "delegate": "tz3gLTu4Yxj8tPAcriQVUdxv6BY9QyvzU1az",
        "reception_time": "2022-01-17T03:36:49.204-00:00",
        "included_in_blocks":
          [ "BKqU6K1QRJbzW8qqdKAxWXCk6pu9X2ANAm3PYckAiLxCZhFMdyX" ] },
      { "delegate": "tz3bvNMQ95vfAYtG8193ymshqjSvmxiCUuR5",
        "reception_time": "2022-01-17T03:36:49.324-00:00",
        "included_in_blocks":
          [ "BKqU6K1QRJbzW8qqdKAxWXCk6pu9X2ANAm3PYckAiLxCZhFMdyX" ] },
      { "delegate": "tz3NDpRj6WBrJPikcPVHRBEjWKxFw3c6eQPS",
        "reception_time": "2022-01-17T03:36:49.167-00:00",
        "included_in_blocks":
          [ "BKqU6K1QRJbzW8qqdKAxWXCk6pu9X2ANAm3PYckAiLxCZhFMdyX" ] },
      { "delegate": "tz1R6Ej25VSerE3MkSoEEeBjKHCDTFbpKuSX",
        "reception_time": "2022-01-17T03:36:49.209-00:00",
        "included_in_blocks":
          [ "BKqU6K1QRJbzW8qqdKAxWXCk6pu9X2ANAm3PYckAiLxCZhFMdyX" ] },
      { "delegate": "tz1T7duV5gZWSTq4YpBGbXNLTfznCLDrFxvs",
        "reception_time": "2022-01-17T03:36:49.045-00:00",
        "included_in_blocks":
          [ "BKqU6K1QRJbzW8qqdKAxWXCk6pu9X2ANAm3PYckAiLxCZhFMdyX" ] },
      { "delegate": "tz1i3mhawFAgcB8JHaHwoUF6hdncwTAkLEn2",
        "reception_time": "2022-01-17T03:36:49.058-00:00",
        "included_in_blocks":
          [ "BKqU6K1QRJbzW8qqdKAxWXCk6pu9X2ANAm3PYckAiLxCZhFMdyX" ] },
      { "delegate": "tz1LAJKyGRCheNiLAQQmJ8dXnoKbKgLzxNFp",
        "reception_time": "2022-01-17T03:36:49.086-00:00",
        "included_in_blocks":
          [ "BKqU6K1QRJbzW8qqdKAxWXCk6pu9X2ANAm3PYckAiLxCZhFMdyX" ] },
      { "delegate": "tz1cYufsxHXJcvANhvS55h3aY32a9BAFB494",
        "reception_time": "2022-01-17T03:36:49.036-00:00",
        "included_in_blocks":
          [ "BKqU6K1QRJbzW8qqdKAxWXCk6pu9X2ANAm3PYckAiLxCZhFMdyX" ] },
      { "delegate": "tz1UvkANVPWppVgMkLnvN7BwYZsCP7vm6NVd",
        "reception_time": "2022-01-17T03:36:49.039-00:00",
        "included_in_blocks":
          [ "BKqU6K1QRJbzW8qqdKAxWXCk6pu9X2ANAm3PYckAiLxCZhFMdyX" ] },
      { "delegate": "tz3UoffC7FG7zfpmvmjUmUeAaHvzdcUvAj6r",
        "reception_time": "2022-01-17T03:36:49.055-00:00",
        "included_in_blocks":
          [ "BKqU6K1QRJbzW8qqdKAxWXCk6pu9X2ANAm3PYckAiLxCZhFMdyX" ] },
      { "delegate": "tz1NEKxGEHsFufk87CVZcrqWu8o22qh46GK6",
        "reception_time": "2022-01-17T03:36:48.922-00:00",
        "included_in_blocks":
          [ "BKqU6K1QRJbzW8qqdKAxWXCk6pu9X2ANAm3PYckAiLxCZhFMdyX" ] },
      { "delegate": "tz1aRoaRhSpRYvFdyvgWLL6TGyRoGF51wDjM",
        "reception_time": "2022-01-17T03:36:48.851-00:00",
        "included_in_blocks":
          [ "BKqU6K1QRJbzW8qqdKAxWXCk6pu9X2ANAm3PYckAiLxCZhFMdyX" ] },
      { "delegate": "tz1QXrzaHrGACVn15UiCg33aLCJ6npWdQb3J",
        "reception_time": "2022-01-17T03:36:48.867-00:00",
        "included_in_blocks":
          [ "BKqU6K1QRJbzW8qqdKAxWXCk6pu9X2ANAm3PYckAiLxCZhFMdyX" ] },
      { "delegate": "tz1Q8QkSBS63ZQnH3fBTiAMPes9R666Rn6Sc",
        "reception_time": "2022-01-17T03:36:48.768-00:00",
        "included_in_blocks":
          [ "BKqU6K1QRJbzW8qqdKAxWXCk6pu9X2ANAm3PYckAiLxCZhFMdyX" ] },
      { "delegate": "tz1WctSwL49BZtdWAQ75NY6vr4xsAx6oKdah",
        "reception_time": "2022-01-17T03:36:48.810-00:00",
        "included_in_blocks":
          [ "BKqU6K1QRJbzW8qqdKAxWXCk6pu9X2ANAm3PYckAiLxCZhFMdyX" ] },
      { "delegate": "tz1axcnVN9tZnCe4sQQhC6f3tfSEXdjPaXPY",
        "reception_time": "2022-01-17T03:36:48.813-00:00",
        "included_in_blocks":
          [ "BKqU6K1QRJbzW8qqdKAxWXCk6pu9X2ANAm3PYckAiLxCZhFMdyX" ] },
      { "delegate": "tz1TEc75UKXv4W5cwi14Na3NtqFD51yKQi7h",
        "reception_time": "2022-01-17T03:36:48.586-00:00",
        "included_in_blocks":
          [ "BKqU6K1QRJbzW8qqdKAxWXCk6pu9X2ANAm3PYckAiLxCZhFMdyX" ] },
      { "delegate": "tz1LmaFsWRkjr7QMCx5PtV6xTUz3AmEpKQiF",
        "reception_time": "2022-01-17T03:36:48.623-00:00",
        "included_in_blocks":
          [ "BKqU6K1QRJbzW8qqdKAxWXCk6pu9X2ANAm3PYckAiLxCZhFMdyX" ] },
      { "delegate": "tz3RDC3Jdn4j15J7bBHZd29EUee9gVB1CxD9",
        "reception_time": "2022-01-17T03:36:48.977-00:00",
        "included_in_blocks":
          [ "BKqU6K1QRJbzW8qqdKAxWXCk6pu9X2ANAm3PYckAiLxCZhFMdyX" ] },
      { "delegate": "tz1TRqbYbUf2GyrjErf3hBzgBJPzW8y36qEs",
        "reception_time": "2022-01-17T03:36:48.517-00:00",
        "included_in_blocks":
          [ "BKqU6K1QRJbzW8qqdKAxWXCk6pu9X2ANAm3PYckAiLxCZhFMdyX" ] },
      { "delegate": "tz1WBfwbT66FC6BTLexc2BoyCCBM9LG7pnVW",
        "reception_time": "2022-01-17T03:36:48.438-00:00",
        "included_in_blocks":
          [ "BKqU6K1QRJbzW8qqdKAxWXCk6pu9X2ANAm3PYckAiLxCZhFMdyX" ] },
      { "delegate": "tz3WMqdzXqRWXwyvj5Hp2H7QEepaUuS7vd9K",
        "reception_time": "2022-01-17T03:36:48.492-00:00",
        "included_in_blocks":
          [ "BKqU6K1QRJbzW8qqdKAxWXCk6pu9X2ANAm3PYckAiLxCZhFMdyX" ] },
      { "delegate": "tz3VEZ4k6a4Wx42iyev6i2aVAptTRLEAivNN",
        "reception_time": "2022-01-17T03:36:48.434-00:00",
        "included_in_blocks":
          [ "BKqU6K1QRJbzW8qqdKAxWXCk6pu9X2ANAm3PYckAiLxCZhFMdyX" ] },
      { "delegate": "tz1RQhNh7iB9CZA7i3ifTWNwiGYVffponfbB",
        "reception_time": "2022-01-17T03:36:48.298-00:00",
        "included_in_blocks":
          [ "BKqU6K1QRJbzW8qqdKAxWXCk6pu9X2ANAm3PYckAiLxCZhFMdyX" ] },
      { "delegate": "tz1ei4WtWEMEJekSv8qDnu9PExG6Q8HgRGr3",
        "reception_time": "2022-01-17T03:36:48.277-00:00",
        "included_in_blocks":
          [ "BKqU6K1QRJbzW8qqdKAxWXCk6pu9X2ANAm3PYckAiLxCZhFMdyX" ] },
      { "delegate": "tz1Tnjaxk6tbAeC2TmMApPh8UsrEVQvhHvx5",
        "reception_time": "2022-01-17T03:36:48.179-00:00",
        "included_in_blocks":
          [ "BKqU6K1QRJbzW8qqdKAxWXCk6pu9X2ANAm3PYckAiLxCZhFMdyX" ] },
      { "delegate": "tz1S8MNvuFEUsWgjHvi3AxibRBf388NhT1q2",
        "reception_time": "2022-01-17T03:36:48.131-00:00",
        "included_in_blocks":
          [ "BKqU6K1QRJbzW8qqdKAxWXCk6pu9X2ANAm3PYckAiLxCZhFMdyX" ] },
      { "delegate": "tz2FCNBrERXtaTtNX6iimR1UJ5JSDxvdHM93",
        "reception_time": "2022-01-17T03:36:48.161-00:00",
        "included_in_blocks":
          [ "BKqU6K1QRJbzW8qqdKAxWXCk6pu9X2ANAm3PYckAiLxCZhFMdyX" ] },
      { "delegate": "tz1aJ8wxNeVRYbbx5YqzurmYzwKzkS96rHP4",
        "reception_time": "2022-01-17T03:36:47.993-00:00",
        "included_in_blocks":
          [ "BKqU6K1QRJbzW8qqdKAxWXCk6pu9X2ANAm3PYckAiLxCZhFMdyX" ] },
      { "delegate": "tz1dwu9aYb7CRNq4Y2zAjipdjFuSVKhHS8vA",
        "reception_time": "2022-01-17T03:36:47.975-00:00",
        "included_in_blocks":
          [ "BKqU6K1QRJbzW8qqdKAxWXCk6pu9X2ANAm3PYckAiLxCZhFMdyX" ] },
      { "delegate": "tz1gfArv665EUkSg2ojMBzcbfwuPxAvqPvjo",
        "reception_time": "2022-01-17T03:36:47.844-00:00",
        "included_in_blocks":
          [ "BKqU6K1QRJbzW8qqdKAxWXCk6pu9X2ANAm3PYckAiLxCZhFMdyX" ] },
      { "delegate": "tz1cSj7fTex3JPd1p1LN1fwek6AV1kH93Wwc",
        "reception_time": "2022-01-17T03:36:47.914-00:00",
        "included_in_blocks":
          [ "BKqU6K1QRJbzW8qqdKAxWXCk6pu9X2ANAm3PYckAiLxCZhFMdyX" ] },
      { "delegate": "tz1SYq214SCBy9naR6cvycQsYcUGpBqQAE8d",
        "reception_time": "2022-01-17T03:36:47.960-00:00",
        "included_in_blocks":
          [ "BKqU6K1QRJbzW8qqdKAxWXCk6pu9X2ANAm3PYckAiLxCZhFMdyX" ] },
      { "delegate": "tz3RB4aoyjov4KEVRbuhvQ1CKJgBJMWhaeB8",
        "reception_time": "2022-01-17T03:36:47.912-00:00",
        "included_in_blocks":
          [ "BKqU6K1QRJbzW8qqdKAxWXCk6pu9X2ANAm3PYckAiLxCZhFMdyX" ] },
      { "delegate": "tz1PWCDnz783NNGGQjEFFsHtrcK5yBW4E2rm",
        "reception_time": "2022-01-17T03:36:47.841-00:00",
        "included_in_blocks":
          [ "BKqU6K1QRJbzW8qqdKAxWXCk6pu9X2ANAm3PYckAiLxCZhFMdyX" ] },
      { "delegate": "tz1iPHM2Xx2hwmzcr1EG1zzrV6oKafVoA91m",
        "reception_time": "2022-01-17T03:36:47.731-00:00",
        "included_in_blocks":
          [ "BKqU6K1QRJbzW8qqdKAxWXCk6pu9X2ANAm3PYckAiLxCZhFMdyX" ] },
      { "delegate": "tz1UJvHTgpVzcKWhTazGxVcn5wsHru5Gietg",
        "reception_time": "2022-01-17T03:36:47.626-00:00",
        "included_in_blocks":
          [ "BKqU6K1QRJbzW8qqdKAxWXCk6pu9X2ANAm3PYckAiLxCZhFMdyX" ] },
      { "delegate": "tz1RCFbB9GpALpsZtu6J58sb74dm8qe6XBzv",
        "reception_time": "2022-01-17T03:36:47.711-00:00",
        "included_in_blocks":
          [ "BKqU6K1QRJbzW8qqdKAxWXCk6pu9X2ANAm3PYckAiLxCZhFMdyX" ] },
      { "delegate": "tz3QT9dHYKDqh563chVa6za8526ys1UKfRfL",
        "reception_time": "2022-01-17T03:36:47.609-00:00",
        "included_in_blocks":
          [ "BKqU6K1QRJbzW8qqdKAxWXCk6pu9X2ANAm3PYckAiLxCZhFMdyX" ] },
      { "delegate": "tz3S6BBeKgJGXxvLyZ1xzXzMPn11nnFtq5L9",
        "reception_time": "2022-01-17T03:36:47.586-00:00",
        "included_in_blocks":
          [ "BKqU6K1QRJbzW8qqdKAxWXCk6pu9X2ANAm3PYckAiLxCZhFMdyX" ] },
      { "delegate": "tz1LnWa4AiFCjMezTgSNa65QFoo7DQGEWgEU",
        "reception_time": "2022-01-17T03:36:47.629-00:00",
        "included_in_blocks":
          [ "BKqU6K1QRJbzW8qqdKAxWXCk6pu9X2ANAm3PYckAiLxCZhFMdyX" ] },
      { "delegate": "tz1VmiY38m3y95HqQLjMwqnMS7sdMfGomzKi",
        "reception_time": "2022-01-17T03:36:47.616-00:00",
        "included_in_blocks":
          [ "BKqU6K1QRJbzW8qqdKAxWXCk6pu9X2ANAm3PYckAiLxCZhFMdyX" ] },
      { "delegate": "tz3bTdwZinP8U1JmSweNzVKhmwafqWmFWRfk",
        "reception_time": "2022-01-17T03:36:47.706-00:00",
        "included_in_blocks":
          [ "BKqU6K1QRJbzW8qqdKAxWXCk6pu9X2ANAm3PYckAiLxCZhFMdyX" ] },
      { "delegate": "tz1MJx9vhaNRSimcuXPK2rW4fLccQnDAnVKJ",
        "reception_time": "2022-01-17T03:36:47.483-00:00",
        "included_in_blocks":
          [ "BKqU6K1QRJbzW8qqdKAxWXCk6pu9X2ANAm3PYckAiLxCZhFMdyX" ] },
      { "delegate": "tz1NSDFKuRyzHxpfG1AMkyCwEiZ52cbR2mRW",
        "reception_time": "2022-01-17T03:36:47.473-00:00",
        "included_in_blocks":
          [ "BKqU6K1QRJbzW8qqdKAxWXCk6pu9X2ANAm3PYckAiLxCZhFMdyX" ] },
      { "delegate": "tz1d6Fx42mYgVFnHUW8T8A7WBfJ6nD9pVok8",
        "reception_time": "2022-01-17T03:36:47.602-00:00",
        "included_in_blocks":
          [ "BKqU6K1QRJbzW8qqdKAxWXCk6pu9X2ANAm3PYckAiLxCZhFMdyX" ] },
      { "delegate": "tz1Kf25fX1VdmYGSEzwFy1wNmkbSEZ2V83sY",
        "reception_time": "2022-01-17T03:36:47.335-00:00",
        "included_in_blocks":
          [ "BKqU6K1QRJbzW8qqdKAxWXCk6pu9X2ANAm3PYckAiLxCZhFMdyX" ] },
      { "delegate": "tz3adcvQaKXTCg12zbninqo3q8ptKKtDFTLv",
        "reception_time": "2022-01-17T03:36:47.461-00:00",
        "included_in_blocks":
          [ "BKqU6K1QRJbzW8qqdKAxWXCk6pu9X2ANAm3PYckAiLxCZhFMdyX" ] },
      { "delegate": "tz1VQnqCCqX4K5sP3FNkVSNKTdCAMJDd3E1n",
        "reception_time": "2022-01-17T03:36:47.351-00:00",
        "included_in_blocks":
          [ "BKqU6K1QRJbzW8qqdKAxWXCk6pu9X2ANAm3PYckAiLxCZhFMdyX" ] },
      { "delegate": "tz3iJu5vrKZcsqRPs8yJ61UDoeEXZmtro4qh",
        "reception_time": "2022-01-17T03:36:47.362-00:00",
        "included_in_blocks":
          [ "BKqU6K1QRJbzW8qqdKAxWXCk6pu9X2ANAm3PYckAiLxCZhFMdyX" ] },
      { "delegate": "tz1gUNyn3hmnEWqkusWPzxRaon1cs7ndWh7h",
        "reception_time": "2022-01-17T03:36:47.366-00:00",
        "included_in_blocks":
          [ "BKqU6K1QRJbzW8qqdKAxWXCk6pu9X2ANAm3PYckAiLxCZhFMdyX" ] },
      { "delegate": "tz3Zhs2dygr55yHyQyKjntAtY9bgfhLZ4Xj1",
        "reception_time": "2022-01-17T03:36:47.347-00:00",
        "included_in_blocks":
          [ "BKqU6K1QRJbzW8qqdKAxWXCk6pu9X2ANAm3PYckAiLxCZhFMdyX" ] },
      { "delegate": "tz1YhNsiRRU8aHNGg7NK3uuP6UDAyacJernB",
        "reception_time": "2022-01-17T03:36:47.451-00:00",
        "included_in_blocks":
          [ "BKqU6K1QRJbzW8qqdKAxWXCk6pu9X2ANAm3PYckAiLxCZhFMdyX" ] },
      { "delegate": "tz1WCd2jm4uSt4vntk4vSuUWoZQGhLcDuR9q",
        "reception_time": "2022-01-17T03:36:47.444-00:00",
        "included_in_blocks":
          [ "BKqU6K1QRJbzW8qqdKAxWXCk6pu9X2ANAm3PYckAiLxCZhFMdyX" ] },
      { "delegate": "tz1Nf6tsK4G6bBqgSQERy4nUtkHNKUVdh7q1",
        "reception_time": "2022-01-17T03:36:47.234-00:00",
        "included_in_blocks":
          [ "BKqU6K1QRJbzW8qqdKAxWXCk6pu9X2ANAm3PYckAiLxCZhFMdyX" ] },
      { "delegate": "tz3gtoUxdudfBRcNY7iVdKPHCYYX6xdPpoRS",
        "reception_time": "2022-01-17T03:36:47.230-00:00",
        "included_in_blocks":
          [ "BKqU6K1QRJbzW8qqdKAxWXCk6pu9X2ANAm3PYckAiLxCZhFMdyX" ] },
      { "delegate": "tz3QSGPoRp3Kn7n3vY24eYeu3Peuqo45LQ4D",
        "reception_time": "2022-01-17T03:36:47.282-00:00",
        "included_in_blocks":
          [ "BKqU6K1QRJbzW8qqdKAxWXCk6pu9X2ANAm3PYckAiLxCZhFMdyX" ] },
      { "delegate": "tz3RKYFsLuQzKBtmYuLNas7uMu3AsYd4QdsA",
        "reception_time": "2022-01-17T03:36:47.192-00:00",
        "included_in_blocks":
          [ "BKqU6K1QRJbzW8qqdKAxWXCk6pu9X2ANAm3PYckAiLxCZhFMdyX" ] },
      { "delegate": "tz3hw2kqXhLUvY65ca1eety2oQTpAvd34R9Q",
        "reception_time": "2022-01-17T03:36:47.176-00:00",
        "included_in_blocks":
          [ "BKqU6K1QRJbzW8qqdKAxWXCk6pu9X2ANAm3PYckAiLxCZhFMdyX" ] },
      { "delegate": "tz1Ldzz6k1BHdhuKvAtMRX7h5kJSMHESMHLC",
        "reception_time": "2022-01-17T03:36:47.144-00:00",
        "included_in_blocks":
          [ "BKqU6K1QRJbzW8qqdKAxWXCk6pu9X2ANAm3PYckAiLxCZhFMdyX" ] },
      { "delegate": "tz3NxTnke1acr8o3h5y9ytf5awQBGNJUKzVU",
        "reception_time": "2022-01-17T03:36:46.970-00:00",
        "included_in_blocks":
          [ "BKqU6K1QRJbzW8qqdKAxWXCk6pu9X2ANAm3PYckAiLxCZhFMdyX" ] },
      { "delegate": "tz3ZbP2pM3nwvXztbuMJwJnDvV5xdpU8UkkD",
        "reception_time": "2022-01-17T03:36:46.944-00:00",
        "included_in_blocks":
          [ "BKqU6K1QRJbzW8qqdKAxWXCk6pu9X2ANAm3PYckAiLxCZhFMdyX" ] },
      { "delegate": "tz1Kt4P8BCaP93AEV4eA7gmpRryWt5hznjCP",
        "reception_time": "2022-01-17T03:36:46.944-00:00",
        "included_in_blocks":
          [ "BKqU6K1QRJbzW8qqdKAxWXCk6pu9X2ANAm3PYckAiLxCZhFMdyX" ] },
      { "delegate": "tz1irJKkXS2DBWkU1NnmFQx1c1L7pbGg4yhk",
        "reception_time": "2022-01-17T03:36:46.944-00:00",
        "included_in_blocks":
          [ "BKqU6K1QRJbzW8qqdKAxWXCk6pu9X2ANAm3PYckAiLxCZhFMdyX" ] },
      { "delegate": "tz1TRspM5SeZpaQUhzByXbEvqKF1vnCM2YTK",
        "reception_time": "2022-01-17T03:36:46.944-00:00",
        "included_in_blocks":
          [ "BKqU6K1QRJbzW8qqdKAxWXCk6pu9X2ANAm3PYckAiLxCZhFMdyX" ] },
      { "delegate": "tz1LLNkQK4UQV6QcFShiXJ2vT2ELw449MzAA",
        "reception_time": "2022-01-17T03:36:46.818-00:00",
        "included_in_blocks":
          [ "BKqU6K1QRJbzW8qqdKAxWXCk6pu9X2ANAm3PYckAiLxCZhFMdyX" ] },
      { "delegate": "tz1eEnQhbwf6trb8Q8mPb2RaPkNk2rN7BKi8",
        "reception_time": "2022-01-17T03:36:46.944-00:00",
        "included_in_blocks":
          [ "BKqU6K1QRJbzW8qqdKAxWXCk6pu9X2ANAm3PYckAiLxCZhFMdyX" ] },
      { "delegate": "tz1STeamwbp68THcny9zk3LsbG3H36DMvbRK",
        "reception_time": "2022-01-17T03:36:46.818-00:00",
        "included_in_blocks":
          [ "BKqU6K1QRJbzW8qqdKAxWXCk6pu9X2ANAm3PYckAiLxCZhFMdyX" ] },
      { "delegate": "tz1iZEKy4LaAjnTmn2RuGDf2iqdAQKnRi8kY",
        "reception_time": "2022-01-17T03:36:46.944-00:00",
        "included_in_blocks":
          [ "BKqU6K1QRJbzW8qqdKAxWXCk6pu9X2ANAm3PYckAiLxCZhFMdyX" ] },
      { "delegate": "tz1P2Po7YM526ughEsRbY4oR9zaUPDZjxFrb",
        "reception_time": "2022-01-17T03:36:46.818-00:00",
        "included_in_blocks":
          [ "BKqU6K1QRJbzW8qqdKAxWXCk6pu9X2ANAm3PYckAiLxCZhFMdyX" ] } ] }