{ "blocks":
    [ { "hash": "BLCAC5HvSxSs1XoowqwXYFBXqxnymuvNmCRWMDhBxjTG3s2pFJZ",
        "delegate": "tz3QT9dHYKDqh563chVa6za8526ys1UKfRfL",
        "reception_time": "2022-01-17T01:34:45.216-00:00",
        "timestamp": "2022-01-17T01:34:40Z" } ],
  "endorsements":
    [ { "delegate": "tz1NpWrAyDL9k2Lmnyxcgr9xuJakbBxdq7FB",
        "reception_time": "2022-01-17T01:34:54.610-00:00",
        "included_in_blocks":
          [ "BMUojH5s6dPoTdwmhDWubUHyiYma16A4DTSrP3EiRT8qKWEBFJQ" ] },
      { "delegate": "tz3e7LbZvUtoXhpUD1yb6wuFodZpfYRb9nWJ",
        "reception_time": "2022-01-17T01:34:53.604-00:00",
        "included_in_blocks":
          [ "BMUojH5s6dPoTdwmhDWubUHyiYma16A4DTSrP3EiRT8qKWEBFJQ" ] },
      { "delegate": "tz2BzJTyoQp8fNbfhWD4YQgH9JJHDgSGzpdG",
        "reception_time": "2022-01-17T01:34:52.341-00:00",
        "included_in_blocks":
          [ "BMUojH5s6dPoTdwmhDWubUHyiYma16A4DTSrP3EiRT8qKWEBFJQ" ] },
      { "delegate": "tz1cM8Xc7ZP1TrjkTeKq4PeRhtbnwXSBR6Sw",
        "reception_time": "2022-01-17T01:34:49.974-00:00",
        "included_in_blocks":
          [ "BMUojH5s6dPoTdwmhDWubUHyiYma16A4DTSrP3EiRT8qKWEBFJQ" ] },
      { "delegate": "tz3UoffC7FG7zfpmvmjUmUeAaHvzdcUvAj6r",
        "reception_time": "2022-01-17T01:34:49.399-00:00",
        "included_in_blocks":
          [ "BMUojH5s6dPoTdwmhDWubUHyiYma16A4DTSrP3EiRT8qKWEBFJQ" ] },
      { "delegate": "tz1aRoaRhSpRYvFdyvgWLL6TGyRoGF51wDjM",
        "reception_time": "2022-01-17T01:34:49.285-00:00",
        "included_in_blocks":
          [ "BMUojH5s6dPoTdwmhDWubUHyiYma16A4DTSrP3EiRT8qKWEBFJQ" ] },
      { "delegate": "tz1cYufsxHXJcvANhvS55h3aY32a9BAFB494",
        "reception_time": "2022-01-17T01:34:49.217-00:00",
        "included_in_blocks":
          [ "BMUojH5s6dPoTdwmhDWubUHyiYma16A4DTSrP3EiRT8qKWEBFJQ" ] },
      { "delegate": "tz3NExpXn9aPNZPorRE4SdjJ2RGrfbJgMAaV",
        "reception_time": "2022-01-17T01:34:49.163-00:00",
        "included_in_blocks":
          [ "BMUojH5s6dPoTdwmhDWubUHyiYma16A4DTSrP3EiRT8qKWEBFJQ" ] },
      { "delegate": "tz3WMqdzXqRWXwyvj5Hp2H7QEepaUuS7vd9K",
        "reception_time": "2022-01-17T01:34:49.198-00:00",
        "included_in_blocks":
          [ "BMUojH5s6dPoTdwmhDWubUHyiYma16A4DTSrP3EiRT8qKWEBFJQ" ] },
      { "delegate": "tz1NL14EZjUmY9eEdk1ejyACEaTuwVGVKEeU",
        "reception_time": "2022-01-17T01:34:48.990-00:00",
        "included_in_blocks":
          [ "BMUojH5s6dPoTdwmhDWubUHyiYma16A4DTSrP3EiRT8qKWEBFJQ" ] },
      { "delegate": "tz1dRKU4FQ9QRRQPdaH4zCR6gmCmXfcvcgtB",
        "reception_time": "2022-01-17T01:34:48.795-00:00",
        "included_in_blocks":
          [ "BMUojH5s6dPoTdwmhDWubUHyiYma16A4DTSrP3EiRT8qKWEBFJQ" ] },
      { "delegate": "tz1T7duV5gZWSTq4YpBGbXNLTfznCLDrFxvs",
        "reception_time": "2022-01-17T01:34:48.640-00:00",
        "included_in_blocks":
          [ "BMUojH5s6dPoTdwmhDWubUHyiYma16A4DTSrP3EiRT8qKWEBFJQ" ] },
      { "delegate": "tz3VEZ4k6a4Wx42iyev6i2aVAptTRLEAivNN",
        "reception_time": "2022-01-17T01:34:48.514-00:00",
        "included_in_blocks":
          [ "BMUojH5s6dPoTdwmhDWubUHyiYma16A4DTSrP3EiRT8qKWEBFJQ" ] },
      { "delegate": "tz3NDpRj6WBrJPikcPVHRBEjWKxFw3c6eQPS",
        "reception_time": "2022-01-17T01:34:48.461-00:00",
        "included_in_blocks":
          [ "BMUojH5s6dPoTdwmhDWubUHyiYma16A4DTSrP3EiRT8qKWEBFJQ" ] },
      { "delegate": "tz1Nf6tsK4G6bBqgSQERy4nUtkHNKUVdh7q1",
        "reception_time": "2022-01-17T01:34:48.184-00:00",
        "included_in_blocks":
          [ "BMUojH5s6dPoTdwmhDWubUHyiYma16A4DTSrP3EiRT8qKWEBFJQ" ] },
      { "delegate": "tz1WctSwL49BZtdWAQ75NY6vr4xsAx6oKdah",
        "reception_time": "2022-01-17T01:34:48.208-00:00",
        "included_in_blocks":
          [ "BMUojH5s6dPoTdwmhDWubUHyiYma16A4DTSrP3EiRT8qKWEBFJQ" ] },
      { "delegate": "tz1NEKxGEHsFufk87CVZcrqWu8o22qh46GK6",
        "reception_time": "2022-01-17T01:34:48.155-00:00",
        "included_in_blocks":
          [ "BMUojH5s6dPoTdwmhDWubUHyiYma16A4DTSrP3EiRT8qKWEBFJQ" ] },
      { "delegate": "tz1dNVDWPf3Q59SdJqnjdnu277iyvReiRS9M",
        "reception_time": "2022-01-17T01:34:48.072-00:00",
        "included_in_blocks":
          [ "BMUojH5s6dPoTdwmhDWubUHyiYma16A4DTSrP3EiRT8qKWEBFJQ" ] },
      { "delegate": "tz1KfEsrtDaA1sX7vdM4qmEPWuSytuqCDp5j",
        "reception_time": "2022-01-17T01:34:48.216-00:00",
        "included_in_blocks":
          [ "BMUojH5s6dPoTdwmhDWubUHyiYma16A4DTSrP3EiRT8qKWEBFJQ" ] },
      { "delegate": "tz1SYq214SCBy9naR6cvycQsYcUGpBqQAE8d",
        "reception_time": "2022-01-17T01:34:48.137-00:00",
        "included_in_blocks":
          [ "BMUojH5s6dPoTdwmhDWubUHyiYma16A4DTSrP3EiRT8qKWEBFJQ" ] },
      { "delegate": "tz2FCNBrERXtaTtNX6iimR1UJ5JSDxvdHM93",
        "reception_time": "2022-01-17T01:34:48.055-00:00",
        "included_in_blocks":
          [ "BMUojH5s6dPoTdwmhDWubUHyiYma16A4DTSrP3EiRT8qKWEBFJQ" ] },
      { "delegate": "tz1PeZx7FXy7QRuMREGXGxeipb24RsMMzUNe",
        "reception_time": "2022-01-17T01:34:47.639-00:00",
        "included_in_blocks":
          [ "BMUojH5s6dPoTdwmhDWubUHyiYma16A4DTSrP3EiRT8qKWEBFJQ" ] },
      { "delegate": "tz1ei4WtWEMEJekSv8qDnu9PExG6Q8HgRGr3",
        "reception_time": "2022-01-17T01:34:47.602-00:00",
        "included_in_blocks":
          [ "BMUojH5s6dPoTdwmhDWubUHyiYma16A4DTSrP3EiRT8qKWEBFJQ" ] },
      { "delegate": "tz1abmz7jiCV2GH2u81LRrGgAFFgvQgiDiaf",
        "reception_time": "2022-01-17T01:34:47.519-00:00",
        "included_in_blocks":
          [ "BMUojH5s6dPoTdwmhDWubUHyiYma16A4DTSrP3EiRT8qKWEBFJQ" ] },
      { "delegate": "tz1S8MNvuFEUsWgjHvi3AxibRBf388NhT1q2",
        "reception_time": "2022-01-17T01:34:47.359-00:00",
        "included_in_blocks":
          [ "BMUojH5s6dPoTdwmhDWubUHyiYma16A4DTSrP3EiRT8qKWEBFJQ" ] },
      { "delegate": "tz1WBfwbT66FC6BTLexc2BoyCCBM9LG7pnVW",
        "reception_time": "2022-01-17T01:34:47.441-00:00",
        "included_in_blocks":
          [ "BMUojH5s6dPoTdwmhDWubUHyiYma16A4DTSrP3EiRT8qKWEBFJQ" ] },
      { "delegate": "tz1TRqbYbUf2GyrjErf3hBzgBJPzW8y36qEs",
        "reception_time": "2022-01-17T01:34:47.409-00:00",
        "included_in_blocks":
          [ "BMUojH5s6dPoTdwmhDWubUHyiYma16A4DTSrP3EiRT8qKWEBFJQ" ] },
      { "delegate": "tz1V4qCyvPKZ5UeqdH14HN42rxvNPQfc9UZg",
        "reception_time": "2022-01-17T01:34:47.336-00:00",
        "included_in_blocks":
          [ "BMUojH5s6dPoTdwmhDWubUHyiYma16A4DTSrP3EiRT8qKWEBFJQ" ] },
      { "delegate": "tz3bTdwZinP8U1JmSweNzVKhmwafqWmFWRfk",
        "reception_time": "2022-01-17T01:34:47.375-00:00",
        "included_in_blocks":
          [ "BMUojH5s6dPoTdwmhDWubUHyiYma16A4DTSrP3EiRT8qKWEBFJQ" ] },
      { "delegate": "tz1LmaFsWRkjr7QMCx5PtV6xTUz3AmEpKQiF",
        "reception_time": "2022-01-17T01:34:47.323-00:00",
        "included_in_blocks":
          [ "BMUojH5s6dPoTdwmhDWubUHyiYma16A4DTSrP3EiRT8qKWEBFJQ" ] },
      { "delegate": "tz1RQhNh7iB9CZA7i3ifTWNwiGYVffponfbB",
        "reception_time": "2022-01-17T01:34:47.320-00:00",
        "included_in_blocks":
          [ "BMUojH5s6dPoTdwmhDWubUHyiYma16A4DTSrP3EiRT8qKWEBFJQ" ] },
      { "delegate": "tz1cSj7fTex3JPd1p1LN1fwek6AV1kH93Wwc",
        "reception_time": "2022-01-17T01:34:47.185-00:00",
        "included_in_blocks":
          [ "BMUojH5s6dPoTdwmhDWubUHyiYma16A4DTSrP3EiRT8qKWEBFJQ" ] },
      { "delegate": "tz3RB4aoyjov4KEVRbuhvQ1CKJgBJMWhaeB8",
        "reception_time": "2022-01-17T01:34:47.197-00:00",
        "included_in_blocks":
          [ "BMUojH5s6dPoTdwmhDWubUHyiYma16A4DTSrP3EiRT8qKWEBFJQ" ] },
      { "delegate": "tz3RDC3Jdn4j15J7bBHZd29EUee9gVB1CxD9",
        "reception_time": "2022-01-17T01:34:47.214-00:00",
        "included_in_blocks":
          [ "BMUojH5s6dPoTdwmhDWubUHyiYma16A4DTSrP3EiRT8qKWEBFJQ" ] },
      { "delegate": "tz1PWCDnz783NNGGQjEFFsHtrcK5yBW4E2rm",
        "reception_time": "2022-01-17T01:34:47.018-00:00",
        "included_in_blocks":
          [ "BMUojH5s6dPoTdwmhDWubUHyiYma16A4DTSrP3EiRT8qKWEBFJQ" ] },
      { "delegate": "tz1MQJPGNMijnXnVoBENFz9rUhaPt3S7rWoz",
        "reception_time": "2022-01-17T01:34:47.170-00:00",
        "included_in_blocks":
          [ "BMUojH5s6dPoTdwmhDWubUHyiYma16A4DTSrP3EiRT8qKWEBFJQ" ] },
      { "delegate": "tz3bvNMQ95vfAYtG8193ymshqjSvmxiCUuR5",
        "reception_time": "2022-01-17T01:34:47.122-00:00",
        "included_in_blocks":
          [ "BMUojH5s6dPoTdwmhDWubUHyiYma16A4DTSrP3EiRT8qKWEBFJQ" ] },
      { "delegate": "tz1gfArv665EUkSg2ojMBzcbfwuPxAvqPvjo",
        "reception_time": "2022-01-17T01:34:47.042-00:00",
        "included_in_blocks":
          [ "BMUojH5s6dPoTdwmhDWubUHyiYma16A4DTSrP3EiRT8qKWEBFJQ" ] },
      { "delegate": "tz1d6Fx42mYgVFnHUW8T8A7WBfJ6nD9pVok8",
        "reception_time": "2022-01-17T01:34:46.833-00:00",
        "included_in_blocks":
          [ "BMUojH5s6dPoTdwmhDWubUHyiYma16A4DTSrP3EiRT8qKWEBFJQ" ] },
      { "delegate": "tz1RCFbB9GpALpsZtu6J58sb74dm8qe6XBzv",
        "reception_time": "2022-01-17T01:34:46.926-00:00",
        "included_in_blocks":
          [ "BMUojH5s6dPoTdwmhDWubUHyiYma16A4DTSrP3EiRT8qKWEBFJQ" ] },
      { "delegate": "tz1fPKAtsYydh4f1wfWNfeNxWYu72TmM48fu",
        "reception_time": "2022-01-17T01:34:46.874-00:00",
        "included_in_blocks":
          [ "BMUojH5s6dPoTdwmhDWubUHyiYma16A4DTSrP3EiRT8qKWEBFJQ" ] },
      { "delegate": "tz1VmiY38m3y95HqQLjMwqnMS7sdMfGomzKi",
        "reception_time": "2022-01-17T01:34:46.822-00:00",
        "included_in_blocks":
          [ "BMUojH5s6dPoTdwmhDWubUHyiYma16A4DTSrP3EiRT8qKWEBFJQ" ] },
      { "delegate": "tz3iJu5vrKZcsqRPs8yJ61UDoeEXZmtro4qh",
        "reception_time": "2022-01-17T01:34:46.679-00:00",
        "included_in_blocks":
          [ "BMUojH5s6dPoTdwmhDWubUHyiYma16A4DTSrP3EiRT8qKWEBFJQ" ] },
      { "delegate": "tz1iPHM2Xx2hwmzcr1EG1zzrV6oKafVoA91m",
        "reception_time": "2022-01-17T01:34:46.734-00:00",
        "included_in_blocks":
          [ "BMUojH5s6dPoTdwmhDWubUHyiYma16A4DTSrP3EiRT8qKWEBFJQ" ] },
      { "delegate": "tz3QSGPoRp3Kn7n3vY24eYeu3Peuqo45LQ4D",
        "reception_time": "2022-01-17T01:34:46.591-00:00",
        "included_in_blocks":
          [ "BMUojH5s6dPoTdwmhDWubUHyiYma16A4DTSrP3EiRT8qKWEBFJQ" ] },
      { "delegate": "tz3gtoUxdudfBRcNY7iVdKPHCYYX6xdPpoRS",
        "reception_time": "2022-01-17T01:34:46.577-00:00",
        "included_in_blocks":
          [ "BMUojH5s6dPoTdwmhDWubUHyiYma16A4DTSrP3EiRT8qKWEBFJQ" ] },
      { "delegate": "tz1WCd2jm4uSt4vntk4vSuUWoZQGhLcDuR9q",
        "reception_time": "2022-01-17T01:34:46.523-00:00",
        "included_in_blocks":
          [ "BMUojH5s6dPoTdwmhDWubUHyiYma16A4DTSrP3EiRT8qKWEBFJQ" ] },
      { "delegate": "tz3NxTnke1acr8o3h5y9ytf5awQBGNJUKzVU",
        "reception_time": "2022-01-17T01:34:46.448-00:00",
        "included_in_blocks":
          [ "BMUojH5s6dPoTdwmhDWubUHyiYma16A4DTSrP3EiRT8qKWEBFJQ" ] },
      { "delegate": "tz3ZbP2pM3nwvXztbuMJwJnDvV5xdpU8UkkD",
        "reception_time": "2022-01-17T01:34:46.459-00:00",
        "included_in_blocks":
          [ "BMUojH5s6dPoTdwmhDWubUHyiYma16A4DTSrP3EiRT8qKWEBFJQ" ] },
      { "delegate": "tz1Kf25fX1VdmYGSEzwFy1wNmkbSEZ2V83sY",
        "reception_time": "2022-01-17T01:34:46.373-00:00",
        "included_in_blocks":
          [ "BMUojH5s6dPoTdwmhDWubUHyiYma16A4DTSrP3EiRT8qKWEBFJQ" ] },
      { "delegate": "tz1VQnqCCqX4K5sP3FNkVSNKTdCAMJDd3E1n",
        "reception_time": "2022-01-17T01:34:46.307-00:00",
        "included_in_blocks":
          [ "BMUojH5s6dPoTdwmhDWubUHyiYma16A4DTSrP3EiRT8qKWEBFJQ" ] },
      { "delegate": "tz3RKYFsLuQzKBtmYuLNas7uMu3AsYd4QdsA",
        "reception_time": "2022-01-17T01:34:46.353-00:00",
        "included_in_blocks":
          [ "BMUojH5s6dPoTdwmhDWubUHyiYma16A4DTSrP3EiRT8qKWEBFJQ" ] },
      { "delegate": "tz3hw2kqXhLUvY65ca1eety2oQTpAvd34R9Q",
        "reception_time": "2022-01-17T01:34:46.336-00:00",
        "included_in_blocks":
          [ "BMUojH5s6dPoTdwmhDWubUHyiYma16A4DTSrP3EiRT8qKWEBFJQ" ] },
      { "delegate": "tz1TzaNn7wSQSP5gYPXCnNzBCpyMiidCq1PX",
        "reception_time": "2022-01-17T01:34:46.376-00:00",
        "included_in_blocks":
          [ "BMUojH5s6dPoTdwmhDWubUHyiYma16A4DTSrP3EiRT8qKWEBFJQ" ] },
      { "delegate": "tz1gUNyn3hmnEWqkusWPzxRaon1cs7ndWh7h",
        "reception_time": "2022-01-17T01:34:46.243-00:00",
        "included_in_blocks":
          [ "BMUojH5s6dPoTdwmhDWubUHyiYma16A4DTSrP3EiRT8qKWEBFJQ" ] },
      { "delegate": "tz1Ldzz6k1BHdhuKvAtMRX7h5kJSMHESMHLC",
        "reception_time": "2022-01-17T01:34:46.191-00:00",
        "included_in_blocks":
          [ "BMUojH5s6dPoTdwmhDWubUHyiYma16A4DTSrP3EiRT8qKWEBFJQ" ] },
      { "delegate": "tz1bsdrs36X5BTH83RHUBdUouKLJZK8d2oBa",
        "reception_time": "2022-01-17T01:34:46.180-00:00",
        "included_in_blocks":
          [ "BMUojH5s6dPoTdwmhDWubUHyiYma16A4DTSrP3EiRT8qKWEBFJQ" ] },
      { "delegate": "tz3QT9dHYKDqh563chVa6za8526ys1UKfRfL",
        "reception_time": "2022-01-17T01:34:46.030-00:00",
        "included_in_blocks":
          [ "BMUojH5s6dPoTdwmhDWubUHyiYma16A4DTSrP3EiRT8qKWEBFJQ" ] },
      { "delegate": "tz1TRspM5SeZpaQUhzByXbEvqKF1vnCM2YTK",
        "reception_time": "2022-01-17T01:34:45.906-00:00",
        "included_in_blocks":
          [ "BMUojH5s6dPoTdwmhDWubUHyiYma16A4DTSrP3EiRT8qKWEBFJQ" ] },
      { "delegate": "tz3S6BBeKgJGXxvLyZ1xzXzMPn11nnFtq5L9",
        "reception_time": "2022-01-17T01:34:46.063-00:00",
        "included_in_blocks":
          [ "BMUojH5s6dPoTdwmhDWubUHyiYma16A4DTSrP3EiRT8qKWEBFJQ" ] },
      { "delegate": "tz1irJKkXS2DBWkU1NnmFQx1c1L7pbGg4yhk",
        "reception_time": "2022-01-17T01:34:45.891-00:00",
        "included_in_blocks":
          [ "BMUojH5s6dPoTdwmhDWubUHyiYma16A4DTSrP3EiRT8qKWEBFJQ" ] },
      { "delegate": "tz1eEnQhbwf6trb8Q8mPb2RaPkNk2rN7BKi8",
        "reception_time": "2022-01-17T01:34:45.860-00:00",
        "included_in_blocks":
          [ "BMUojH5s6dPoTdwmhDWubUHyiYma16A4DTSrP3EiRT8qKWEBFJQ" ] },
      { "delegate": "tz1MXFrtZoaXckE41bjUCSjAjAap3AFDSr3N",
        "reception_time": "2022-01-17T01:34:45.865-00:00",
        "included_in_blocks":
          [ "BMUojH5s6dPoTdwmhDWubUHyiYma16A4DTSrP3EiRT8qKWEBFJQ" ] },
      { "delegate": "tz1LLNkQK4UQV6QcFShiXJ2vT2ELw449MzAA",
        "reception_time": "2022-01-17T01:34:45.870-00:00",
        "included_in_blocks":
          [ "BMUojH5s6dPoTdwmhDWubUHyiYma16A4DTSrP3EiRT8qKWEBFJQ" ] },
      { "delegate": "tz1P2Po7YM526ughEsRbY4oR9zaUPDZjxFrb",
        "reception_time": "2022-01-17T01:34:45.865-00:00",
        "included_in_blocks":
          [ "BMUojH5s6dPoTdwmhDWubUHyiYma16A4DTSrP3EiRT8qKWEBFJQ" ] },
      { "delegate": "tz1Scdr2HsZiQjc7bHMeBbmDRXYVvdhjJbBh",
        "reception_time": "2022-01-17T01:34:45.820-00:00",
        "included_in_blocks":
          [ "BMUojH5s6dPoTdwmhDWubUHyiYma16A4DTSrP3EiRT8qKWEBFJQ" ] } ] }