{ "blocks":
    [ { "hash": "BLrQxaSfhfyFcJJi3Wsb9K2bD8NxtdnMTHUrvF2VAdZfjeZ2Dvq",
        "delegate": "tz1dwu9aYb7CRNq4Y2zAjipdjFuSVKhHS8vA",
        "reception_time": "2022-01-16T22:41:29.257-00:00",
        "timestamp": "2022-01-16T22:41:20Z" } ],
  "endorsements":
    [ { "delegate": "tz1RjoHc98dBoqaH2jawF62XNKh7YsHwbkEv" },
      { "delegate": "tz1NpWrAyDL9k2Lmnyxcgr9xuJakbBxdq7FB",
        "reception_time": "2022-01-16T22:41:46.794-00:00",
        "included_in_blocks":
          [ "BLYvbjp6FLbDh3X6NStDggFRRc172ZB9hEPxegLmxXyKpmJCwBA" ] },
      { "delegate": "tz1dKRZVcmJBVNvaAueUmqX42vVEaLb2MbA6",
        "reception_time": "2022-01-16T22:41:36.847-00:00",
        "included_in_blocks":
          [ "BLYvbjp6FLbDh3X6NStDggFRRc172ZB9hEPxegLmxXyKpmJCwBA" ] },
      { "delegate": "tz2BzJTyoQp8fNbfhWD4YQgH9JJHDgSGzpdG",
        "reception_time": "2022-01-16T22:41:35.941-00:00",
        "included_in_blocks":
          [ "BLYvbjp6FLbDh3X6NStDggFRRc172ZB9hEPxegLmxXyKpmJCwBA" ] },
      { "delegate": "tz1Z9M4biBHSiH38k5ciRMjR5bgk89yEgLTz",
        "reception_time": "2022-01-16T22:41:33.766-00:00",
        "included_in_blocks":
          [ "BLYvbjp6FLbDh3X6NStDggFRRc172ZB9hEPxegLmxXyKpmJCwBA" ] },
      { "delegate": "tz1awXW7wuXy21c66vBudMXQVAPgRnqqwgTH",
        "reception_time": "2022-01-16T22:41:33.013-00:00",
        "included_in_blocks":
          [ "BLYvbjp6FLbDh3X6NStDggFRRc172ZB9hEPxegLmxXyKpmJCwBA" ] },
      { "delegate": "tz1aRoaRhSpRYvFdyvgWLL6TGyRoGF51wDjM",
        "reception_time": "2022-01-16T22:41:32.956-00:00",
        "included_in_blocks":
          [ "BLYvbjp6FLbDh3X6NStDggFRRc172ZB9hEPxegLmxXyKpmJCwBA" ] },
      { "delegate": "tz3UoffC7FG7zfpmvmjUmUeAaHvzdcUvAj6r",
        "reception_time": "2022-01-16T22:41:32.540-00:00",
        "included_in_blocks":
          [ "BLYvbjp6FLbDh3X6NStDggFRRc172ZB9hEPxegLmxXyKpmJCwBA" ] },
      { "delegate": "tz3NExpXn9aPNZPorRE4SdjJ2RGrfbJgMAaV",
        "reception_time": "2022-01-16T22:41:32.524-00:00",
        "included_in_blocks":
          [ "BLYvbjp6FLbDh3X6NStDggFRRc172ZB9hEPxegLmxXyKpmJCwBA" ] },
      { "delegate": "tz1eLbDXYceRsPZoPmaJXZgQ6pzgnTQvZtpo",
        "reception_time": "2022-01-16T22:41:32.351-00:00",
        "included_in_blocks":
          [ "BLYvbjp6FLbDh3X6NStDggFRRc172ZB9hEPxegLmxXyKpmJCwBA" ] },
      { "delegate": "tz1eVaNx3gCmG1EsLjijkmgAxdLYVf6Bf5Sq",
        "reception_time": "2022-01-16T22:41:32.188-00:00",
        "included_in_blocks":
          [ "BLYvbjp6FLbDh3X6NStDggFRRc172ZB9hEPxegLmxXyKpmJCwBA" ] },
      { "delegate": "tz1cYufsxHXJcvANhvS55h3aY32a9BAFB494",
        "reception_time": "2022-01-16T22:41:32.155-00:00",
        "included_in_blocks":
          [ "BLYvbjp6FLbDh3X6NStDggFRRc172ZB9hEPxegLmxXyKpmJCwBA" ] },
      { "delegate": "tz3VEZ4k6a4Wx42iyev6i2aVAptTRLEAivNN",
        "reception_time": "2022-01-16T22:41:32.150-00:00",
        "included_in_blocks":
          [ "BLYvbjp6FLbDh3X6NStDggFRRc172ZB9hEPxegLmxXyKpmJCwBA" ] },
      { "delegate": "tz3gLTu4Yxj8tPAcriQVUdxv6BY9QyvzU1az",
        "reception_time": "2022-01-16T22:41:31.764-00:00",
        "included_in_blocks":
          [ "BLYvbjp6FLbDh3X6NStDggFRRc172ZB9hEPxegLmxXyKpmJCwBA" ] },
      { "delegate": "tz3bvNMQ95vfAYtG8193ymshqjSvmxiCUuR5",
        "reception_time": "2022-01-16T22:41:31.793-00:00",
        "included_in_blocks":
          [ "BLYvbjp6FLbDh3X6NStDggFRRc172ZB9hEPxegLmxXyKpmJCwBA" ] },
      { "delegate": "tz1abmz7jiCV2GH2u81LRrGgAFFgvQgiDiaf",
        "reception_time": "2022-01-16T22:41:31.668-00:00",
        "included_in_blocks":
          [ "BLYvbjp6FLbDh3X6NStDggFRRc172ZB9hEPxegLmxXyKpmJCwBA" ] },
      { "delegate": "tz3WMqdzXqRWXwyvj5Hp2H7QEepaUuS7vd9K",
        "reception_time": "2022-01-16T22:41:31.629-00:00",
        "included_in_blocks":
          [ "BLYvbjp6FLbDh3X6NStDggFRRc172ZB9hEPxegLmxXyKpmJCwBA" ] },
      { "delegate": "tz1Nf6tsK4G6bBqgSQERy4nUtkHNKUVdh7q1",
        "reception_time": "2022-01-16T22:41:31.471-00:00",
        "included_in_blocks":
          [ "BLYvbjp6FLbDh3X6NStDggFRRc172ZB9hEPxegLmxXyKpmJCwBA" ] },
      { "delegate": "tz1PeZx7FXy7QRuMREGXGxeipb24RsMMzUNe",
        "reception_time": "2022-01-16T22:41:31.446-00:00",
        "included_in_blocks":
          [ "BLYvbjp6FLbDh3X6NStDggFRRc172ZB9hEPxegLmxXyKpmJCwBA" ] },
      { "delegate": "tz1RpeqCseogMpCPXpyGjhmLH9i9DhqJ8cUR",
        "reception_time": "2022-01-16T22:41:31.419-00:00",
        "included_in_blocks":
          [ "BLYvbjp6FLbDh3X6NStDggFRRc172ZB9hEPxegLmxXyKpmJCwBA" ] },
      { "delegate": "tz1WBfwbT66FC6BTLexc2BoyCCBM9LG7pnVW",
        "reception_time": "2022-01-16T22:41:31.368-00:00",
        "included_in_blocks":
          [ "BLYvbjp6FLbDh3X6NStDggFRRc172ZB9hEPxegLmxXyKpmJCwBA" ] },
      { "delegate": "tz1TRqbYbUf2GyrjErf3hBzgBJPzW8y36qEs",
        "reception_time": "2022-01-16T22:41:31.986-00:00",
        "included_in_blocks":
          [ "BLYvbjp6FLbDh3X6NStDggFRRc172ZB9hEPxegLmxXyKpmJCwBA" ] },
      { "delegate": "tz1NEKxGEHsFufk87CVZcrqWu8o22qh46GK6",
        "reception_time": "2022-01-16T22:41:31.293-00:00",
        "included_in_blocks":
          [ "BLYvbjp6FLbDh3X6NStDggFRRc172ZB9hEPxegLmxXyKpmJCwBA" ] },
      { "delegate": "tz2FCNBrERXtaTtNX6iimR1UJ5JSDxvdHM93",
        "reception_time": "2022-01-16T22:41:31.179-00:00",
        "included_in_blocks":
          [ "BLYvbjp6FLbDh3X6NStDggFRRc172ZB9hEPxegLmxXyKpmJCwBA" ] },
      { "delegate": "tz1MQJPGNMijnXnVoBENFz9rUhaPt3S7rWoz",
        "reception_time": "2022-01-16T22:41:31.567-00:00",
        "included_in_blocks":
          [ "BLYvbjp6FLbDh3X6NStDggFRRc172ZB9hEPxegLmxXyKpmJCwBA" ] },
      { "delegate": "tz1KfEsrtDaA1sX7vdM4qmEPWuSytuqCDp5j",
        "reception_time": "2022-01-16T22:41:31.091-00:00",
        "included_in_blocks":
          [ "BLYvbjp6FLbDh3X6NStDggFRRc172ZB9hEPxegLmxXyKpmJCwBA" ] },
      { "delegate": "tz3bTdwZinP8U1JmSweNzVKhmwafqWmFWRfk",
        "reception_time": "2022-01-16T22:41:30.782-00:00",
        "included_in_blocks":
          [ "BLYvbjp6FLbDh3X6NStDggFRRc172ZB9hEPxegLmxXyKpmJCwBA" ] },
      { "delegate": "tz1g8vkmcde6sWKaG2NN9WKzCkDM6Rziq194",
        "reception_time": "2022-01-16T22:41:30.784-00:00",
        "included_in_blocks":
          [ "BLYvbjp6FLbDh3X6NStDggFRRc172ZB9hEPxegLmxXyKpmJCwBA" ] },
      { "delegate": "tz1d6Fx42mYgVFnHUW8T8A7WBfJ6nD9pVok8",
        "reception_time": "2022-01-16T22:41:30.938-00:00",
        "included_in_blocks":
          [ "BLYvbjp6FLbDh3X6NStDggFRRc172ZB9hEPxegLmxXyKpmJCwBA" ] },
      { "delegate": "tz1iZvYctCtV2oGvEeXCCgUseb4qtdKh3mrV",
        "reception_time": "2022-01-16T22:41:30.894-00:00",
        "included_in_blocks":
          [ "BLYvbjp6FLbDh3X6NStDggFRRc172ZB9hEPxegLmxXyKpmJCwBA" ] },
      { "delegate": "tz1TEc75UKXv4W5cwi14Na3NtqFD51yKQi7h",
        "reception_time": "2022-01-16T22:41:31.017-00:00",
        "included_in_blocks":
          [ "BLYvbjp6FLbDh3X6NStDggFRRc172ZB9hEPxegLmxXyKpmJCwBA" ] },
      { "delegate": "tz1LmaFsWRkjr7QMCx5PtV6xTUz3AmEpKQiF",
        "reception_time": "2022-01-16T22:41:30.879-00:00",
        "included_in_blocks":
          [ "BLYvbjp6FLbDh3X6NStDggFRRc172ZB9hEPxegLmxXyKpmJCwBA" ] },
      { "delegate": "tz1fwnfJNgiDACshK9avfRfFbMaXrs3ghoJa",
        "reception_time": "2022-01-16T22:41:30.907-00:00",
        "included_in_blocks":
          [ "BLYvbjp6FLbDh3X6NStDggFRRc172ZB9hEPxegLmxXyKpmJCwBA" ] },
      { "delegate": "tz3adcvQaKXTCg12zbninqo3q8ptKKtDFTLv",
        "reception_time": "2022-01-16T22:41:30.793-00:00",
        "included_in_blocks":
          [ "BLYvbjp6FLbDh3X6NStDggFRRc172ZB9hEPxegLmxXyKpmJCwBA" ] },
      { "delegate": "tz3RB4aoyjov4KEVRbuhvQ1CKJgBJMWhaeB8",
        "reception_time": "2022-01-16T22:41:30.847-00:00",
        "included_in_blocks":
          [ "BLYvbjp6FLbDh3X6NStDggFRRc172ZB9hEPxegLmxXyKpmJCwBA" ] },
      { "delegate": "tz3RDC3Jdn4j15J7bBHZd29EUee9gVB1CxD9",
        "reception_time": "2022-01-16T22:41:30.399-00:00",
        "included_in_blocks":
          [ "BLYvbjp6FLbDh3X6NStDggFRRc172ZB9hEPxegLmxXyKpmJCwBA" ] },
      { "delegate": "tz3S6BBeKgJGXxvLyZ1xzXzMPn11nnFtq5L9",
        "reception_time": "2022-01-16T22:41:30.632-00:00",
        "included_in_blocks":
          [ "BLYvbjp6FLbDh3X6NStDggFRRc172ZB9hEPxegLmxXyKpmJCwBA" ] },
      { "delegate": "tz3QT9dHYKDqh563chVa6za8526ys1UKfRfL",
        "reception_time": "2022-01-16T22:41:30.648-00:00",
        "included_in_blocks":
          [ "BLYvbjp6FLbDh3X6NStDggFRRc172ZB9hEPxegLmxXyKpmJCwBA" ] },
      { "delegate": "tz1LjZjdF1wFgUtVyNsrr8P1uYaoBJGTTPyr",
        "reception_time": "2022-01-16T22:41:30.579-00:00",
        "included_in_blocks":
          [ "BLYvbjp6FLbDh3X6NStDggFRRc172ZB9hEPxegLmxXyKpmJCwBA" ] },
      { "delegate": "tz1h4GUAMweP7SNWzDgvMk3yRCAZyaP1MxZq",
        "reception_time": "2022-01-16T22:41:30.420-00:00",
        "included_in_blocks":
          [ "BLYvbjp6FLbDh3X6NStDggFRRc172ZB9hEPxegLmxXyKpmJCwBA" ] },
      { "delegate": "tz1Tnjaxk6tbAeC2TmMApPh8UsrEVQvhHvx5",
        "reception_time": "2022-01-16T22:41:30.905-00:00",
        "included_in_blocks":
          [ "BLYvbjp6FLbDh3X6NStDggFRRc172ZB9hEPxegLmxXyKpmJCwBA" ] },
      { "delegate": "tz1RCFbB9GpALpsZtu6J58sb74dm8qe6XBzv",
        "reception_time": "2022-01-16T22:41:30.608-00:00",
        "included_in_blocks":
          [ "BLYvbjp6FLbDh3X6NStDggFRRc172ZB9hEPxegLmxXyKpmJCwBA" ] },
      { "delegate": "tz1ei4WtWEMEJekSv8qDnu9PExG6Q8HgRGr3",
        "reception_time": "2022-01-16T22:41:30.620-00:00",
        "included_in_blocks":
          [ "BLYvbjp6FLbDh3X6NStDggFRRc172ZB9hEPxegLmxXyKpmJCwBA" ] },
      { "delegate": "tz1WnfXMPaNTBmH7DBPwqCWs9cPDJdkGBTZ8",
        "reception_time": "2022-01-16T22:41:30.337-00:00",
        "included_in_blocks":
          [ "BLYvbjp6FLbDh3X6NStDggFRRc172ZB9hEPxegLmxXyKpmJCwBA" ] },
      { "delegate": "tz1PWCDnz783NNGGQjEFFsHtrcK5yBW4E2rm",
        "reception_time": "2022-01-16T22:41:30.248-00:00",
        "included_in_blocks":
          [ "BLYvbjp6FLbDh3X6NStDggFRRc172ZB9hEPxegLmxXyKpmJCwBA" ] },
      { "delegate": "tz1S8MNvuFEUsWgjHvi3AxibRBf388NhT1q2",
        "reception_time": "2022-01-16T22:41:30.492-00:00",
        "included_in_blocks":
          [ "BLYvbjp6FLbDh3X6NStDggFRRc172ZB9hEPxegLmxXyKpmJCwBA" ] },
      { "delegate": "tz1cSj7fTex3JPd1p1LN1fwek6AV1kH93Wwc",
        "reception_time": "2022-01-16T22:41:30.231-00:00",
        "included_in_blocks":
          [ "BLYvbjp6FLbDh3X6NStDggFRRc172ZB9hEPxegLmxXyKpmJCwBA" ] },
      { "delegate": "tz1ajgycuHmd2z2JbTSJxKv7x6cok2KuNSk1",
        "reception_time": "2022-01-16T22:41:30.254-00:00",
        "included_in_blocks":
          [ "BLYvbjp6FLbDh3X6NStDggFRRc172ZB9hEPxegLmxXyKpmJCwBA" ] },
      { "delegate": "tz3Zhs2dygr55yHyQyKjntAtY9bgfhLZ4Xj1",
        "reception_time": "2022-01-16T22:41:30.097-00:00",
        "included_in_blocks":
          [ "BLYvbjp6FLbDh3X6NStDggFRRc172ZB9hEPxegLmxXyKpmJCwBA" ] },
      { "delegate": "tz1P2Po7YM526ughEsRbY4oR9zaUPDZjxFrb",
        "reception_time": "2022-01-16T22:41:29.977-00:00",
        "included_in_blocks":
          [ "BLYvbjp6FLbDh3X6NStDggFRRc172ZB9hEPxegLmxXyKpmJCwBA" ] },
      { "delegate": "tz1ZPh7XfUaJXUDvkrBxmS1BjEM1i62hiPpM",
        "reception_time": "2022-01-16T22:41:30.047-00:00",
        "included_in_blocks":
          [ "BLYvbjp6FLbDh3X6NStDggFRRc172ZB9hEPxegLmxXyKpmJCwBA" ] },
      { "delegate": "tz3QSGPoRp3Kn7n3vY24eYeu3Peuqo45LQ4D",
        "reception_time": "2022-01-16T22:41:30.174-00:00",
        "included_in_blocks":
          [ "BLYvbjp6FLbDh3X6NStDggFRRc172ZB9hEPxegLmxXyKpmJCwBA" ] },
      { "delegate": "tz1MQMiZHV8q4tTwUMWmS5Y3kaP6J2136iXr",
        "reception_time": "2022-01-16T22:41:30.101-00:00",
        "included_in_blocks":
          [ "BLYvbjp6FLbDh3X6NStDggFRRc172ZB9hEPxegLmxXyKpmJCwBA" ] },
      { "delegate": "tz3gtoUxdudfBRcNY7iVdKPHCYYX6xdPpoRS",
        "reception_time": "2022-01-16T22:41:30.134-00:00",
        "included_in_blocks":
          [ "BLYvbjp6FLbDh3X6NStDggFRRc172ZB9hEPxegLmxXyKpmJCwBA" ] },
      { "delegate": "tz3ZbP2pM3nwvXztbuMJwJnDvV5xdpU8UkkD",
        "reception_time": "2022-01-16T22:41:30.065-00:00",
        "included_in_blocks":
          [ "BLYvbjp6FLbDh3X6NStDggFRRc172ZB9hEPxegLmxXyKpmJCwBA" ] },
      { "delegate": "tz1S8e9GgdZG78XJRB3NqabfWeM37GnhZMWQ",
        "reception_time": "2022-01-16T22:41:29.932-00:00",
        "included_in_blocks":
          [ "BLYvbjp6FLbDh3X6NStDggFRRc172ZB9hEPxegLmxXyKpmJCwBA" ] },
      { "delegate": "tz1eEnQhbwf6trb8Q8mPb2RaPkNk2rN7BKi8",
        "reception_time": "2022-01-16T22:41:29.998-00:00",
        "included_in_blocks":
          [ "BLYvbjp6FLbDh3X6NStDggFRRc172ZB9hEPxegLmxXyKpmJCwBA" ] },
      { "delegate": "tz3RKYFsLuQzKBtmYuLNas7uMu3AsYd4QdsA",
        "reception_time": "2022-01-16T22:41:30.088-00:00",
        "included_in_blocks":
          [ "BLYvbjp6FLbDh3X6NStDggFRRc172ZB9hEPxegLmxXyKpmJCwBA" ] },
      { "delegate": "tz1irJKkXS2DBWkU1NnmFQx1c1L7pbGg4yhk",
        "reception_time": "2022-01-16T22:41:29.941-00:00",
        "included_in_blocks":
          [ "BLYvbjp6FLbDh3X6NStDggFRRc172ZB9hEPxegLmxXyKpmJCwBA" ] },
      { "delegate": "tz1VQnqCCqX4K5sP3FNkVSNKTdCAMJDd3E1n",
        "reception_time": "2022-01-16T22:41:30.021-00:00",
        "included_in_blocks":
          [ "BLYvbjp6FLbDh3X6NStDggFRRc172ZB9hEPxegLmxXyKpmJCwBA" ] },
      { "delegate": "tz1TzaNn7wSQSP5gYPXCnNzBCpyMiidCq1PX",
        "reception_time": "2022-01-16T22:41:30.073-00:00",
        "included_in_blocks":
          [ "BLYvbjp6FLbDh3X6NStDggFRRc172ZB9hEPxegLmxXyKpmJCwBA" ] },
      { "delegate": "tz1Kt4P8BCaP93AEV4eA7gmpRryWt5hznjCP",
        "reception_time": "2022-01-16T22:41:29.993-00:00",
        "included_in_blocks":
          [ "BLYvbjp6FLbDh3X6NStDggFRRc172ZB9hEPxegLmxXyKpmJCwBA" ] },
      { "delegate": "tz1Ldzz6k1BHdhuKvAtMRX7h5kJSMHESMHLC",
        "reception_time": "2022-01-16T22:41:30.065-00:00",
        "included_in_blocks":
          [ "BLYvbjp6FLbDh3X6NStDggFRRc172ZB9hEPxegLmxXyKpmJCwBA" ] },
      { "delegate": "tz3iJu5vrKZcsqRPs8yJ61UDoeEXZmtro4qh",
        "reception_time": "2022-01-16T22:41:30.143-00:00",
        "included_in_blocks":
          [ "BLYvbjp6FLbDh3X6NStDggFRRc172ZB9hEPxegLmxXyKpmJCwBA" ] },
      { "delegate": "tz1LLNkQK4UQV6QcFShiXJ2vT2ELw449MzAA",
        "reception_time": "2022-01-16T22:41:29.932-00:00",
        "included_in_blocks":
          [ "BLYvbjp6FLbDh3X6NStDggFRRc172ZB9hEPxegLmxXyKpmJCwBA" ] },
      { "delegate": "tz1gfArv665EUkSg2ojMBzcbfwuPxAvqPvjo",
        "reception_time": "2022-01-16T22:41:30.250-00:00",
        "included_in_blocks":
          [ "BLYvbjp6FLbDh3X6NStDggFRRc172ZB9hEPxegLmxXyKpmJCwBA" ] },
      { "delegate": "tz3hw2kqXhLUvY65ca1eety2oQTpAvd34R9Q",
        "reception_time": "2022-01-16T22:41:30.081-00:00",
        "included_in_blocks":
          [ "BLYvbjp6FLbDh3X6NStDggFRRc172ZB9hEPxegLmxXyKpmJCwBA" ] },
      { "delegate": "tz1beersuEDv8Z7ngQ825xfbaJNS2EhXnyHR",
        "reception_time": "2022-01-16T22:41:29.938-00:00",
        "included_in_blocks":
          [ "BLYvbjp6FLbDh3X6NStDggFRRc172ZB9hEPxegLmxXyKpmJCwBA" ] },
      { "delegate": "tz3NxTnke1acr8o3h5y9ytf5awQBGNJUKzVU",
        "reception_time": "2022-01-16T22:41:30.055-00:00",
        "included_in_blocks":
          [ "BLYvbjp6FLbDh3X6NStDggFRRc172ZB9hEPxegLmxXyKpmJCwBA" ] },
      { "delegate": "tz1Scdr2HsZiQjc7bHMeBbmDRXYVvdhjJbBh",
        "reception_time": "2022-01-16T22:41:29.938-00:00",
        "included_in_blocks":
          [ "BLYvbjp6FLbDh3X6NStDggFRRc172ZB9hEPxegLmxXyKpmJCwBA" ] },
      { "delegate": "tz1TXzyaKUA8wsWefdSnyaYFnV2M3vCV7er9",
        "reception_time": "2022-01-16T22:41:30.070-00:00",
        "included_in_blocks":
          [ "BLYvbjp6FLbDh3X6NStDggFRRc172ZB9hEPxegLmxXyKpmJCwBA" ] },
      { "delegate": "tz1TRspM5SeZpaQUhzByXbEvqKF1vnCM2YTK",
        "reception_time": "2022-01-16T22:41:30.043-00:00",
        "included_in_blocks":
          [ "BLYvbjp6FLbDh3X6NStDggFRRc172ZB9hEPxegLmxXyKpmJCwBA" ] },
      { "delegate": "tz1WCd2jm4uSt4vntk4vSuUWoZQGhLcDuR9q",
        "reception_time": "2022-01-16T22:41:30.146-00:00",
        "included_in_blocks":
          [ "BLYvbjp6FLbDh3X6NStDggFRRc172ZB9hEPxegLmxXyKpmJCwBA" ] } ] }