{ "blocks":
    [ { "hash": "BLRuukaCiVKdg21uFJvx9saw2hxzhDYNwRsu2AtBjSt3fzrh2uy",
        "delegate": "tz1S8MNvuFEUsWgjHvi3AxibRBf388NhT1q2",
        "reception_time": "2022-01-17T05:30:54.993-00:00",
        "timestamp": "2022-01-17T05:30:50Z" } ],
  "endorsements":
    [ { "delegate": "tz1XXayQohB8XRXN7kMoHbf2NFwNiH3oMRQQ",
        "reception_time": "2022-01-17T05:30:54.961-00:00",
        "errors":
          [ { "kind": "temporary",
              "id": "proto.011-PtHangz2.prefilter.outdated_endorsement" } ],
        "included_in_blocks":
          [ "BMD4qcwmYD5BvHKVsqs1jwc68f2bvqKt1GVWqn5GXWQ1UyycAuW" ] },
      { "delegate": "tz1P2Po7YM526ughEsRbY4oR9zaUPDZjxFrb",
        "reception_time": "2022-01-17T05:30:54.948-00:00",
        "errors":
          [ { "kind": "temporary",
              "id": "proto.011-PtHangz2.prefilter.outdated_endorsement" } ],
        "included_in_blocks":
          [ "BMD4qcwmYD5BvHKVsqs1jwc68f2bvqKt1GVWqn5GXWQ1UyycAuW" ] },
      { "delegate": "tz1eEnQhbwf6trb8Q8mPb2RaPkNk2rN7BKi8",
        "reception_time": "2022-01-17T05:30:54.854-00:00",
        "errors":
          [ { "kind": "temporary",
              "id": "proto.011-PtHangz2.prefilter.outdated_endorsement" } ],
        "included_in_blocks":
          [ "BMD4qcwmYD5BvHKVsqs1jwc68f2bvqKt1GVWqn5GXWQ1UyycAuW" ] },
      { "delegate": "tz1RjoHc98dBoqaH2jawF62XNKh7YsHwbkEv" },
      { "delegate": "tz1dbfppLAAxXZNtf2SDps7rch3qfUznKSoK" },
      { "delegate": "tz1Zhv3RkfU2pHrmaiDyxp7kFZpZrUCu1CiF",
        "reception_time": "2022-01-17T05:30:55.802-00:00",
        "included_in_blocks":
          [ "BMD4qcwmYD5BvHKVsqs1jwc68f2bvqKt1GVWqn5GXWQ1UyycAuW" ] },
      { "delegate": "tz1Scdr2HsZiQjc7bHMeBbmDRXYVvdhjJbBh",
        "reception_time": "2022-01-17T05:30:55.802-00:00",
        "included_in_blocks":
          [ "BMD4qcwmYD5BvHKVsqs1jwc68f2bvqKt1GVWqn5GXWQ1UyycAuW" ] },
      { "delegate": "tz1S8MNvuFEUsWgjHvi3AxibRBf388NhT1q2",
        "reception_time": "2022-01-17T05:30:55.802-00:00",
        "included_in_blocks":
          [ "BMD4qcwmYD5BvHKVsqs1jwc68f2bvqKt1GVWqn5GXWQ1UyycAuW" ] },
      { "delegate": "tz1Lhf4J9Qxoe3DZ2nfe8FGDnvVj7oKjnMY6",
        "reception_time": "2022-01-17T05:30:55.802-00:00",
        "included_in_blocks":
          [ "BMD4qcwmYD5BvHKVsqs1jwc68f2bvqKt1GVWqn5GXWQ1UyycAuW" ] },
      { "delegate": "tz1aDiEJf9ztRrAJEXZfcG3CKimoKsGhwVAi",
        "reception_time": "2022-01-17T05:30:55.802-00:00",
        "included_in_blocks":
          [ "BMD4qcwmYD5BvHKVsqs1jwc68f2bvqKt1GVWqn5GXWQ1UyycAuW" ] },
      { "delegate": "tz1irJKkXS2DBWkU1NnmFQx1c1L7pbGg4yhk",
        "reception_time": "2022-01-17T05:30:55.802-00:00",
        "included_in_blocks":
          [ "BMD4qcwmYD5BvHKVsqs1jwc68f2bvqKt1GVWqn5GXWQ1UyycAuW" ] },
      { "delegate": "tz1TRspM5SeZpaQUhzByXbEvqKF1vnCM2YTK",
        "reception_time": "2022-01-17T05:30:55.828-00:00",
        "included_in_blocks":
          [ "BMD4qcwmYD5BvHKVsqs1jwc68f2bvqKt1GVWqn5GXWQ1UyycAuW" ] },
      { "delegate": "tz3adcvQaKXTCg12zbninqo3q8ptKKtDFTLv",
        "reception_time": "2022-01-17T05:30:55.839-00:00",
        "included_in_blocks":
          [ "BMD4qcwmYD5BvHKVsqs1jwc68f2bvqKt1GVWqn5GXWQ1UyycAuW" ] },
      { "delegate": "tz3NxTnke1acr8o3h5y9ytf5awQBGNJUKzVU",
        "reception_time": "2022-01-17T05:30:55.870-00:00",
        "included_in_blocks":
          [ "BMD4qcwmYD5BvHKVsqs1jwc68f2bvqKt1GVWqn5GXWQ1UyycAuW" ] },
      { "delegate": "tz3ZbP2pM3nwvXztbuMJwJnDvV5xdpU8UkkD",
        "reception_time": "2022-01-17T05:30:55.905-00:00",
        "included_in_blocks":
          [ "BMD4qcwmYD5BvHKVsqs1jwc68f2bvqKt1GVWqn5GXWQ1UyycAuW" ] },
      { "delegate": "tz3gtoUxdudfBRcNY7iVdKPHCYYX6xdPpoRS",
        "reception_time": "2022-01-17T05:30:55.930-00:00",
        "included_in_blocks":
          [ "BMD4qcwmYD5BvHKVsqs1jwc68f2bvqKt1GVWqn5GXWQ1UyycAuW" ] },
      { "delegate": "tz1NSDFKuRyzHxpfG1AMkyCwEiZ52cbR2mRW",
        "reception_time": "2022-01-17T05:30:55.938-00:00",
        "included_in_blocks":
          [ "BMD4qcwmYD5BvHKVsqs1jwc68f2bvqKt1GVWqn5GXWQ1UyycAuW" ] },
      { "delegate": "tz1Ldzz6k1BHdhuKvAtMRX7h5kJSMHESMHLC",
        "reception_time": "2022-01-17T05:30:55.952-00:00",
        "included_in_blocks":
          [ "BMD4qcwmYD5BvHKVsqs1jwc68f2bvqKt1GVWqn5GXWQ1UyycAuW" ] },
      { "delegate": "tz3QSGPoRp3Kn7n3vY24eYeu3Peuqo45LQ4D",
        "reception_time": "2022-01-17T05:30:55.959-00:00",
        "included_in_blocks":
          [ "BMD4qcwmYD5BvHKVsqs1jwc68f2bvqKt1GVWqn5GXWQ1UyycAuW" ] },
      { "delegate": "tz1TzaNn7wSQSP5gYPXCnNzBCpyMiidCq1PX",
        "reception_time": "2022-01-17T05:30:55.963-00:00",
        "included_in_blocks":
          [ "BMD4qcwmYD5BvHKVsqs1jwc68f2bvqKt1GVWqn5GXWQ1UyycAuW" ] },
      { "delegate": "tz1SUgyRB8T5jXgXAwS33pgRHAKrafyg87Yc",
        "reception_time": "2022-01-17T05:30:55.966-00:00",
        "included_in_blocks":
          [ "BMD4qcwmYD5BvHKVsqs1jwc68f2bvqKt1GVWqn5GXWQ1UyycAuW" ] },
      { "delegate": "tz3Zhs2dygr55yHyQyKjntAtY9bgfhLZ4Xj1",
        "reception_time": "2022-01-17T05:30:56.058-00:00",
        "included_in_blocks":
          [ "BMD4qcwmYD5BvHKVsqs1jwc68f2bvqKt1GVWqn5GXWQ1UyycAuW" ] },
      { "delegate": "tz1WCd2jm4uSt4vntk4vSuUWoZQGhLcDuR9q",
        "reception_time": "2022-01-17T05:30:56.129-00:00",
        "included_in_blocks":
          [ "BMD4qcwmYD5BvHKVsqs1jwc68f2bvqKt1GVWqn5GXWQ1UyycAuW" ] },
      { "delegate": "tz1PWCDnz783NNGGQjEFFsHtrcK5yBW4E2rm",
        "reception_time": "2022-01-17T05:30:56.143-00:00",
        "included_in_blocks":
          [ "BMD4qcwmYD5BvHKVsqs1jwc68f2bvqKt1GVWqn5GXWQ1UyycAuW" ] },
      { "delegate": "tz3iJu5vrKZcsqRPs8yJ61UDoeEXZmtro4qh",
        "reception_time": "2022-01-17T05:30:56.155-00:00",
        "included_in_blocks":
          [ "BMD4qcwmYD5BvHKVsqs1jwc68f2bvqKt1GVWqn5GXWQ1UyycAuW" ] },
      { "delegate": "tz3RKYFsLuQzKBtmYuLNas7uMu3AsYd4QdsA",
        "reception_time": "2022-01-17T05:30:56.181-00:00",
        "included_in_blocks":
          [ "BMD4qcwmYD5BvHKVsqs1jwc68f2bvqKt1GVWqn5GXWQ1UyycAuW" ] },
      { "delegate": "tz3hw2kqXhLUvY65ca1eety2oQTpAvd34R9Q",
        "reception_time": "2022-01-17T05:30:56.207-00:00",
        "included_in_blocks":
          [ "BMD4qcwmYD5BvHKVsqs1jwc68f2bvqKt1GVWqn5GXWQ1UyycAuW" ] },
      { "delegate": "tz1RCFbB9GpALpsZtu6J58sb74dm8qe6XBzv",
        "reception_time": "2022-01-17T05:30:56.211-00:00",
        "included_in_blocks":
          [ "BMD4qcwmYD5BvHKVsqs1jwc68f2bvqKt1GVWqn5GXWQ1UyycAuW" ] },
      { "delegate": "tz3S6BBeKgJGXxvLyZ1xzXzMPn11nnFtq5L9",
        "reception_time": "2022-01-17T05:30:56.227-00:00",
        "included_in_blocks":
          [ "BMD4qcwmYD5BvHKVsqs1jwc68f2bvqKt1GVWqn5GXWQ1UyycAuW" ] },
      { "delegate": "tz1ei4WtWEMEJekSv8qDnu9PExG6Q8HgRGr3",
        "reception_time": "2022-01-17T05:30:56.278-00:00",
        "included_in_blocks":
          [ "BMD4qcwmYD5BvHKVsqs1jwc68f2bvqKt1GVWqn5GXWQ1UyycAuW" ] },
      { "delegate": "tz3QT9dHYKDqh563chVa6za8526ys1UKfRfL",
        "reception_time": "2022-01-17T05:30:56.278-00:00",
        "included_in_blocks":
          [ "BMD4qcwmYD5BvHKVsqs1jwc68f2bvqKt1GVWqn5GXWQ1UyycAuW" ] },
      { "delegate": "tz1LnWa4AiFCjMezTgSNa65QFoo7DQGEWgEU",
        "reception_time": "2022-01-17T05:30:56.294-00:00",
        "included_in_blocks":
          [ "BMD4qcwmYD5BvHKVsqs1jwc68f2bvqKt1GVWqn5GXWQ1UyycAuW" ] },
      { "delegate": "tz1d6Fx42mYgVFnHUW8T8A7WBfJ6nD9pVok8",
        "reception_time": "2022-01-17T05:30:56.353-00:00",
        "included_in_blocks":
          [ "BMD4qcwmYD5BvHKVsqs1jwc68f2bvqKt1GVWqn5GXWQ1UyycAuW" ] },
      { "delegate": "tz3bTdwZinP8U1JmSweNzVKhmwafqWmFWRfk",
        "reception_time": "2022-01-17T05:30:56.369-00:00",
        "included_in_blocks":
          [ "BMD4qcwmYD5BvHKVsqs1jwc68f2bvqKt1GVWqn5GXWQ1UyycAuW" ] },
      { "delegate": "tz1KfEsrtDaA1sX7vdM4qmEPWuSytuqCDp5j",
        "reception_time": "2022-01-17T05:30:56.376-00:00",
        "included_in_blocks":
          [ "BMD4qcwmYD5BvHKVsqs1jwc68f2bvqKt1GVWqn5GXWQ1UyycAuW" ] },
      { "delegate": "tz1VQnqCCqX4K5sP3FNkVSNKTdCAMJDd3E1n",
        "reception_time": "2022-01-17T05:30:56.387-00:00",
        "included_in_blocks":
          [ "BMD4qcwmYD5BvHKVsqs1jwc68f2bvqKt1GVWqn5GXWQ1UyycAuW" ] },
      { "delegate": "tz3RDC3Jdn4j15J7bBHZd29EUee9gVB1CxD9",
        "reception_time": "2022-01-17T05:30:56.417-00:00",
        "included_in_blocks":
          [ "BMD4qcwmYD5BvHKVsqs1jwc68f2bvqKt1GVWqn5GXWQ1UyycAuW" ] },
      { "delegate": "tz1gUNyn3hmnEWqkusWPzxRaon1cs7ndWh7h",
        "reception_time": "2022-01-17T05:30:56.423-00:00",
        "included_in_blocks":
          [ "BMD4qcwmYD5BvHKVsqs1jwc68f2bvqKt1GVWqn5GXWQ1UyycAuW" ] },
      { "delegate": "tz1UMCB2AHSTwG7YcGNr31CqYCtGN873royv",
        "reception_time": "2022-01-17T05:30:56.444-00:00",
        "included_in_blocks":
          [ "BMD4qcwmYD5BvHKVsqs1jwc68f2bvqKt1GVWqn5GXWQ1UyycAuW" ] },
      { "delegate": "tz1fb7c66UwePkkfDXz4ajFaBP9hVNLdS7JJ",
        "reception_time": "2022-01-17T05:30:56.506-00:00",
        "included_in_blocks":
          [ "BMD4qcwmYD5BvHKVsqs1jwc68f2bvqKt1GVWqn5GXWQ1UyycAuW" ] },
      { "delegate": "tz1TRqbYbUf2GyrjErf3hBzgBJPzW8y36qEs",
        "reception_time": "2022-01-17T05:30:56.508-00:00",
        "included_in_blocks":
          [ "BMD4qcwmYD5BvHKVsqs1jwc68f2bvqKt1GVWqn5GXWQ1UyycAuW" ] },
      { "delegate": "tz1abmz7jiCV2GH2u81LRrGgAFFgvQgiDiaf",
        "reception_time": "2022-01-17T05:30:56.512-00:00",
        "included_in_blocks":
          [ "BMD4qcwmYD5BvHKVsqs1jwc68f2bvqKt1GVWqn5GXWQ1UyycAuW" ] },
      { "delegate": "tz1Nf6tsK4G6bBqgSQERy4nUtkHNKUVdh7q1",
        "reception_time": "2022-01-17T05:30:56.520-00:00",
        "included_in_blocks":
          [ "BMD4qcwmYD5BvHKVsqs1jwc68f2bvqKt1GVWqn5GXWQ1UyycAuW" ] },
      { "delegate": "tz3RB4aoyjov4KEVRbuhvQ1CKJgBJMWhaeB8",
        "reception_time": "2022-01-17T05:30:56.544-00:00",
        "included_in_blocks":
          [ "BMD4qcwmYD5BvHKVsqs1jwc68f2bvqKt1GVWqn5GXWQ1UyycAuW" ] },
      { "delegate": "tz1cSj7fTex3JPd1p1LN1fwek6AV1kH93Wwc",
        "reception_time": "2022-01-17T05:30:56.579-00:00",
        "included_in_blocks":
          [ "BMD4qcwmYD5BvHKVsqs1jwc68f2bvqKt1GVWqn5GXWQ1UyycAuW" ] },
      { "delegate": "tz1hAYfexyzPGG6RhZZMpDvAHifubsbb6kgn",
        "reception_time": "2022-01-17T05:30:56.599-00:00",
        "included_in_blocks":
          [ "BMD4qcwmYD5BvHKVsqs1jwc68f2bvqKt1GVWqn5GXWQ1UyycAuW" ] },
      { "delegate": "tz3bvNMQ95vfAYtG8193ymshqjSvmxiCUuR5",
        "reception_time": "2022-01-17T05:30:56.655-00:00",
        "included_in_blocks":
          [ "BMD4qcwmYD5BvHKVsqs1jwc68f2bvqKt1GVWqn5GXWQ1UyycAuW" ] },
      { "delegate": "tz1NEKxGEHsFufk87CVZcrqWu8o22qh46GK6",
        "reception_time": "2022-01-17T05:30:56.659-00:00",
        "included_in_blocks":
          [ "BMD4qcwmYD5BvHKVsqs1jwc68f2bvqKt1GVWqn5GXWQ1UyycAuW" ] },
      { "delegate": "tz1d4G4MdmfJWUzu8X4SJUTKjx4Ns6TUR9gR",
        "reception_time": "2022-01-17T05:30:56.665-00:00",
        "included_in_blocks":
          [ "BMD4qcwmYD5BvHKVsqs1jwc68f2bvqKt1GVWqn5GXWQ1UyycAuW" ] },
      { "delegate": "tz2FCNBrERXtaTtNX6iimR1UJ5JSDxvdHM93",
        "reception_time": "2022-01-17T05:30:56.736-00:00",
        "included_in_blocks":
          [ "BMD4qcwmYD5BvHKVsqs1jwc68f2bvqKt1GVWqn5GXWQ1UyycAuW" ] },
      { "delegate": "tz1a1J3AGjJTAyBqWWSqFuUazUDV2TtD6hMy",
        "reception_time": "2022-01-17T05:30:56.804-00:00",
        "included_in_blocks":
          [ "BMD4qcwmYD5BvHKVsqs1jwc68f2bvqKt1GVWqn5GXWQ1UyycAuW" ] },
      { "delegate": "tz3VEZ4k6a4Wx42iyev6i2aVAptTRLEAivNN",
        "reception_time": "2022-01-17T05:30:56.818-00:00",
        "included_in_blocks":
          [ "BMD4qcwmYD5BvHKVsqs1jwc68f2bvqKt1GVWqn5GXWQ1UyycAuW" ] },
      { "delegate": "tz3WMqdzXqRWXwyvj5Hp2H7QEepaUuS7vd9K",
        "reception_time": "2022-01-17T05:30:56.841-00:00",
        "included_in_blocks":
          [ "BMD4qcwmYD5BvHKVsqs1jwc68f2bvqKt1GVWqn5GXWQ1UyycAuW" ] },
      { "delegate": "tz1WBfwbT66FC6BTLexc2BoyCCBM9LG7pnVW",
        "reception_time": "2022-01-17T05:30:56.846-00:00",
        "included_in_blocks":
          [ "BMD4qcwmYD5BvHKVsqs1jwc68f2bvqKt1GVWqn5GXWQ1UyycAuW" ] },
      { "delegate": "tz1MGTFJXpQmtxLi8QJ7AuVRgM2L2Qfn9w9i",
        "reception_time": "2022-01-17T05:30:56.933-00:00",
        "included_in_blocks":
          [ "BMD4qcwmYD5BvHKVsqs1jwc68f2bvqKt1GVWqn5GXWQ1UyycAuW" ] },
      { "delegate": "tz1PeZx7FXy7QRuMREGXGxeipb24RsMMzUNe",
        "reception_time": "2022-01-17T05:30:57.097-00:00",
        "included_in_blocks":
          [ "BMD4qcwmYD5BvHKVsqs1jwc68f2bvqKt1GVWqn5GXWQ1UyycAuW" ] },
      { "delegate": "tz1Vd1rXpV8hTHbFXCXN3c3qzCsgcU5BZw1e",
        "reception_time": "2022-01-17T05:30:57.119-00:00",
        "included_in_blocks":
          [ "BMD4qcwmYD5BvHKVsqs1jwc68f2bvqKt1GVWqn5GXWQ1UyycAuW" ] },
      { "delegate": "tz1cig1EHyvZd7J2k389moM9PxVgPQvmFkvi",
        "reception_time": "2022-01-17T05:30:57.151-00:00",
        "included_in_blocks":
          [ "BMD4qcwmYD5BvHKVsqs1jwc68f2bvqKt1GVWqn5GXWQ1UyycAuW" ] },
      { "delegate": "tz1T7duV5gZWSTq4YpBGbXNLTfznCLDrFxvs",
        "reception_time": "2022-01-17T05:30:57.286-00:00",
        "included_in_blocks":
          [ "BMD4qcwmYD5BvHKVsqs1jwc68f2bvqKt1GVWqn5GXWQ1UyycAuW" ] },
      { "delegate": "tz1gfArv665EUkSg2ojMBzcbfwuPxAvqPvjo",
        "reception_time": "2022-01-17T05:30:57.333-00:00",
        "included_in_blocks":
          [ "BMD4qcwmYD5BvHKVsqs1jwc68f2bvqKt1GVWqn5GXWQ1UyycAuW" ] },
      { "delegate": "tz1WwnreQXXyfeqiffNoh3fkkczxZK51p16T",
        "reception_time": "2022-01-17T05:30:57.366-00:00",
        "included_in_blocks":
          [ "BMD4qcwmYD5BvHKVsqs1jwc68f2bvqKt1GVWqn5GXWQ1UyycAuW" ] },
      { "delegate": "tz1fUyqYH7H4pRHN1roWY17giXhy1RvxjgUV",
        "reception_time": "2022-01-17T05:30:57.443-00:00",
        "included_in_blocks":
          [ "BMD4qcwmYD5BvHKVsqs1jwc68f2bvqKt1GVWqn5GXWQ1UyycAuW" ] },
      { "delegate": "tz1cYufsxHXJcvANhvS55h3aY32a9BAFB494",
        "reception_time": "2022-01-17T05:30:57.520-00:00",
        "included_in_blocks":
          [ "BMD4qcwmYD5BvHKVsqs1jwc68f2bvqKt1GVWqn5GXWQ1UyycAuW" ] },
      { "delegate": "tz3NExpXn9aPNZPorRE4SdjJ2RGrfbJgMAaV",
        "reception_time": "2022-01-17T05:30:57.539-00:00",
        "included_in_blocks":
          [ "BMD4qcwmYD5BvHKVsqs1jwc68f2bvqKt1GVWqn5GXWQ1UyycAuW" ] },
      { "delegate": "tz1LAJKyGRCheNiLAQQmJ8dXnoKbKgLzxNFp",
        "reception_time": "2022-01-17T05:30:57.649-00:00",
        "included_in_blocks":
          [ "BMD4qcwmYD5BvHKVsqs1jwc68f2bvqKt1GVWqn5GXWQ1UyycAuW" ] },
      { "delegate": "tz3gLTu4Yxj8tPAcriQVUdxv6BY9QyvzU1az",
        "reception_time": "2022-01-17T05:30:57.699-00:00",
        "included_in_blocks":
          [ "BMD4qcwmYD5BvHKVsqs1jwc68f2bvqKt1GVWqn5GXWQ1UyycAuW" ] },
      { "delegate": "tz3NDpRj6WBrJPikcPVHRBEjWKxFw3c6eQPS",
        "reception_time": "2022-01-17T05:30:57.735-00:00",
        "included_in_blocks":
          [ "BMD4qcwmYD5BvHKVsqs1jwc68f2bvqKt1GVWqn5GXWQ1UyycAuW" ] },
      { "delegate": "tz3UoffC7FG7zfpmvmjUmUeAaHvzdcUvAj6r",
        "reception_time": "2022-01-17T05:30:57.776-00:00",
        "included_in_blocks":
          [ "BMD4qcwmYD5BvHKVsqs1jwc68f2bvqKt1GVWqn5GXWQ1UyycAuW" ] },
      { "delegate": "tz1dRKU4FQ9QRRQPdaH4zCR6gmCmXfcvcgtB",
        "reception_time": "2022-01-17T05:30:58.161-00:00",
        "included_in_blocks":
          [ "BMD4qcwmYD5BvHKVsqs1jwc68f2bvqKt1GVWqn5GXWQ1UyycAuW" ] },
      { "delegate": "tz1aRoaRhSpRYvFdyvgWLL6TGyRoGF51wDjM",
        "reception_time": "2022-01-17T05:30:58.189-00:00",
        "included_in_blocks":
          [ "BMD4qcwmYD5BvHKVsqs1jwc68f2bvqKt1GVWqn5GXWQ1UyycAuW" ] },
      { "delegate": "tz1NMNQYrYrfNpmUqQrMhJypf6ovnaDZhJHM",
        "reception_time": "2022-01-17T05:30:58.489-00:00",
        "included_in_blocks":
          [ "BMD4qcwmYD5BvHKVsqs1jwc68f2bvqKt1GVWqn5GXWQ1UyycAuW" ] },
      { "delegate": "tz1ZcTRk5uxD86EFEn1vvNffWWqJy7q5eVhc",
        "reception_time": "2022-01-17T05:30:58.504-00:00",
        "included_in_blocks":
          [ "BMD4qcwmYD5BvHKVsqs1jwc68f2bvqKt1GVWqn5GXWQ1UyycAuW" ] },
      { "delegate": "tz1cM8Xc7ZP1TrjkTeKq4PeRhtbnwXSBR6Sw",
        "reception_time": "2022-01-17T05:30:58.687-00:00",
        "included_in_blocks":
          [ "BMD4qcwmYD5BvHKVsqs1jwc68f2bvqKt1GVWqn5GXWQ1UyycAuW" ] },
      { "delegate": "tz1PFeoTuFen8jAMRHajBySNyCwLmY5RqF9M",
        "reception_time": "2022-01-17T05:30:58.839-00:00",
        "included_in_blocks":
          [ "BMD4qcwmYD5BvHKVsqs1jwc68f2bvqKt1GVWqn5GXWQ1UyycAuW" ] },
      { "delegate": "tz1NpWrAyDL9k2Lmnyxcgr9xuJakbBxdq7FB",
        "reception_time": "2022-01-17T05:30:59.093-00:00",
        "included_in_blocks":
          [ "BMD4qcwmYD5BvHKVsqs1jwc68f2bvqKt1GVWqn5GXWQ1UyycAuW" ] },
      { "delegate": "tz1W5VkdB5s7ENMESVBtwyt9kyvLqPcUczRT",
        "reception_time": "2022-01-17T05:30:59.424-00:00",
        "included_in_blocks":
          [ "BMD4qcwmYD5BvHKVsqs1jwc68f2bvqKt1GVWqn5GXWQ1UyycAuW" ] },
      { "delegate": "tz1TcH4Nb3aHNDJ7CGZhU7jgAK1BkSP4Lxds",
        "reception_time": "2022-01-17T05:30:59.628-00:00",
        "included_in_blocks":
          [ "BMD4qcwmYD5BvHKVsqs1jwc68f2bvqKt1GVWqn5GXWQ1UyycAuW" ] } ] }