{ "blocks":
    [ { "hash": "BLGx8sEoKdXexA3hUNjR7dmyfcdTsridRMfDWGbzghN538PnMu9",
        "delegate": "tz1irJKkXS2DBWkU1NnmFQx1c1L7pbGg4yhk",
        "reception_time": "2022-01-17T02:57:17.197-00:00",
        "timestamp": "2022-01-17T02:57:10Z" } ],
  "endorsements":
    [ { "delegate": "tz1S8e9GgdZG78XJRB3NqabfWeM37GnhZMWQ",
        "reception_time": "2022-01-17T02:57:17.198-00:00",
        "errors":
          [ { "kind": "temporary",
              "id": "proto.011-PtHangz2.prefilter.outdated_endorsement" } ],
        "included_in_blocks":
          [ "BLGi9XZ8RMA6FYqKCVB4katiosdrragXtXyUipshQ5D98sGmUvy" ] },
      { "delegate": "tz1RjoHc98dBoqaH2jawF62XNKh7YsHwbkEv" },
      { "delegate": "tz1awXW7wuXy21c66vBudMXQVAPgRnqqwgTH" },
      { "delegate": "tz1Lhf4J9Qxoe3DZ2nfe8FGDnvVj7oKjnMY6",
        "reception_time": "2022-01-17T02:57:17.925-00:00",
        "included_in_blocks":
          [ "BLGi9XZ8RMA6FYqKCVB4katiosdrragXtXyUipshQ5D98sGmUvy" ] },
      { "delegate": "tz1eEnQhbwf6trb8Q8mPb2RaPkNk2rN7BKi8",
        "reception_time": "2022-01-17T02:57:17.932-00:00",
        "included_in_blocks":
          [ "BLGi9XZ8RMA6FYqKCVB4katiosdrragXtXyUipshQ5D98sGmUvy" ] },
      { "delegate": "tz1P2Po7YM526ughEsRbY4oR9zaUPDZjxFrb",
        "reception_time": "2022-01-17T02:57:17.936-00:00",
        "included_in_blocks":
          [ "BLGi9XZ8RMA6FYqKCVB4katiosdrragXtXyUipshQ5D98sGmUvy" ] },
      { "delegate": "tz1irJKkXS2DBWkU1NnmFQx1c1L7pbGg4yhk",
        "reception_time": "2022-01-17T02:57:17.946-00:00",
        "included_in_blocks":
          [ "BLGi9XZ8RMA6FYqKCVB4katiosdrragXtXyUipshQ5D98sGmUvy" ] },
      { "delegate": "tz1TRspM5SeZpaQUhzByXbEvqKF1vnCM2YTK",
        "reception_time": "2022-01-17T02:57:17.949-00:00",
        "included_in_blocks":
          [ "BLGi9XZ8RMA6FYqKCVB4katiosdrragXtXyUipshQ5D98sGmUvy" ] },
      { "delegate": "tz3NxTnke1acr8o3h5y9ytf5awQBGNJUKzVU",
        "reception_time": "2022-01-17T02:57:18.123-00:00",
        "included_in_blocks":
          [ "BLGi9XZ8RMA6FYqKCVB4katiosdrragXtXyUipshQ5D98sGmUvy" ] },
      { "delegate": "tz3ZbP2pM3nwvXztbuMJwJnDvV5xdpU8UkkD",
        "reception_time": "2022-01-17T02:57:18.138-00:00",
        "included_in_blocks":
          [ "BLGi9XZ8RMA6FYqKCVB4katiosdrragXtXyUipshQ5D98sGmUvy" ] },
      { "delegate": "tz1Ldzz6k1BHdhuKvAtMRX7h5kJSMHESMHLC",
        "reception_time": "2022-01-17T02:57:18.158-00:00",
        "included_in_blocks":
          [ "BLGi9XZ8RMA6FYqKCVB4katiosdrragXtXyUipshQ5D98sGmUvy" ] },
      { "delegate": "tz1bsdrs36X5BTH83RHUBdUouKLJZK8d2oBa",
        "reception_time": "2022-01-17T02:57:18.180-00:00",
        "included_in_blocks":
          [ "BLGi9XZ8RMA6FYqKCVB4katiosdrragXtXyUipshQ5D98sGmUvy" ] },
      { "delegate": "tz1Kt4P8BCaP93AEV4eA7gmpRryWt5hznjCP",
        "reception_time": "2022-01-17T02:57:18.197-00:00",
        "included_in_blocks":
          [ "BLGi9XZ8RMA6FYqKCVB4katiosdrragXtXyUipshQ5D98sGmUvy" ] },
      { "delegate": "tz1gUNyn3hmnEWqkusWPzxRaon1cs7ndWh7h",
        "reception_time": "2022-01-17T02:57:18.281-00:00",
        "included_in_blocks":
          [ "BLGi9XZ8RMA6FYqKCVB4katiosdrragXtXyUipshQ5D98sGmUvy" ] },
      { "delegate": "tz1VQnqCCqX4K5sP3FNkVSNKTdCAMJDd3E1n",
        "reception_time": "2022-01-17T02:57:18.301-00:00",
        "included_in_blocks":
          [ "BLGi9XZ8RMA6FYqKCVB4katiosdrragXtXyUipshQ5D98sGmUvy" ] },
      { "delegate": "tz1TzaNn7wSQSP5gYPXCnNzBCpyMiidCq1PX",
        "reception_time": "2022-01-17T02:57:18.403-00:00",
        "included_in_blocks":
          [ "BLGi9XZ8RMA6FYqKCVB4katiosdrragXtXyUipshQ5D98sGmUvy" ] },
      { "delegate": "tz3hw2kqXhLUvY65ca1eety2oQTpAvd34R9Q",
        "reception_time": "2022-01-17T02:57:18.438-00:00",
        "included_in_blocks":
          [ "BLGi9XZ8RMA6FYqKCVB4katiosdrragXtXyUipshQ5D98sGmUvy" ] },
      { "delegate": "tz3RKYFsLuQzKBtmYuLNas7uMu3AsYd4QdsA",
        "reception_time": "2022-01-17T02:57:18.448-00:00",
        "included_in_blocks":
          [ "BLGi9XZ8RMA6FYqKCVB4katiosdrragXtXyUipshQ5D98sGmUvy" ] },
      { "delegate": "tz3QSGPoRp3Kn7n3vY24eYeu3Peuqo45LQ4D",
        "reception_time": "2022-01-17T02:57:18.477-00:00",
        "included_in_blocks":
          [ "BLGi9XZ8RMA6FYqKCVB4katiosdrragXtXyUipshQ5D98sGmUvy" ] },
      { "delegate": "tz1WCd2jm4uSt4vntk4vSuUWoZQGhLcDuR9q",
        "reception_time": "2022-01-17T02:57:18.505-00:00",
        "included_in_blocks":
          [ "BLGi9XZ8RMA6FYqKCVB4katiosdrragXtXyUipshQ5D98sGmUvy" ] },
      { "delegate": "tz3gtoUxdudfBRcNY7iVdKPHCYYX6xdPpoRS",
        "reception_time": "2022-01-17T02:57:18.531-00:00",
        "included_in_blocks":
          [ "BLGi9XZ8RMA6FYqKCVB4katiosdrragXtXyUipshQ5D98sGmUvy" ] },
      { "delegate": "tz3iJu5vrKZcsqRPs8yJ61UDoeEXZmtro4qh",
        "reception_time": "2022-01-17T02:57:18.549-00:00",
        "included_in_blocks":
          [ "BLGi9XZ8RMA6FYqKCVB4katiosdrragXtXyUipshQ5D98sGmUvy" ] },
      { "delegate": "tz1NSDFKuRyzHxpfG1AMkyCwEiZ52cbR2mRW",
        "reception_time": "2022-01-17T02:57:18.567-00:00",
        "included_in_blocks":
          [ "BLGi9XZ8RMA6FYqKCVB4katiosdrragXtXyUipshQ5D98sGmUvy" ] },
      { "delegate": "tz3QT9dHYKDqh563chVa6za8526ys1UKfRfL",
        "reception_time": "2022-01-17T02:57:18.591-00:00",
        "included_in_blocks":
          [ "BLGi9XZ8RMA6FYqKCVB4katiosdrragXtXyUipshQ5D98sGmUvy" ] },
      { "delegate": "tz3Zhs2dygr55yHyQyKjntAtY9bgfhLZ4Xj1",
        "reception_time": "2022-01-17T02:57:18.603-00:00",
        "included_in_blocks":
          [ "BLGi9XZ8RMA6FYqKCVB4katiosdrragXtXyUipshQ5D98sGmUvy" ] },
      { "delegate": "tz1PWCDnz783NNGGQjEFFsHtrcK5yBW4E2rm",
        "reception_time": "2022-01-17T02:57:18.610-00:00",
        "included_in_blocks":
          [ "BLGi9XZ8RMA6FYqKCVB4katiosdrragXtXyUipshQ5D98sGmUvy" ] },
      { "delegate": "tz1cSj7fTex3JPd1p1LN1fwek6AV1kH93Wwc",
        "reception_time": "2022-01-17T02:57:18.618-00:00",
        "included_in_blocks":
          [ "BLGi9XZ8RMA6FYqKCVB4katiosdrragXtXyUipshQ5D98sGmUvy" ] },
      { "delegate": "tz1VmiY38m3y95HqQLjMwqnMS7sdMfGomzKi",
        "reception_time": "2022-01-17T02:57:18.667-00:00",
        "included_in_blocks":
          [ "BLGi9XZ8RMA6FYqKCVB4katiosdrragXtXyUipshQ5D98sGmUvy" ] },
      { "delegate": "tz3bTdwZinP8U1JmSweNzVKhmwafqWmFWRfk",
        "reception_time": "2022-01-17T02:57:18.768-00:00",
        "included_in_blocks":
          [ "BLGi9XZ8RMA6FYqKCVB4katiosdrragXtXyUipshQ5D98sGmUvy" ] },
      { "delegate": "tz1gfArv665EUkSg2ojMBzcbfwuPxAvqPvjo",
        "reception_time": "2022-01-17T02:57:18.915-00:00",
        "included_in_blocks":
          [ "BLGi9XZ8RMA6FYqKCVB4katiosdrragXtXyUipshQ5D98sGmUvy" ] },
      { "delegate": "tz3RB4aoyjov4KEVRbuhvQ1CKJgBJMWhaeB8",
        "reception_time": "2022-01-17T02:57:18.973-00:00",
        "included_in_blocks":
          [ "BLGi9XZ8RMA6FYqKCVB4katiosdrragXtXyUipshQ5D98sGmUvy" ] },
      { "delegate": "tz1fb7c66UwePkkfDXz4ajFaBP9hVNLdS7JJ",
        "reception_time": "2022-01-17T02:57:19.060-00:00",
        "included_in_blocks":
          [ "BLGi9XZ8RMA6FYqKCVB4katiosdrragXtXyUipshQ5D98sGmUvy" ] },
      { "delegate": "tz1S8MNvuFEUsWgjHvi3AxibRBf388NhT1q2",
        "reception_time": "2022-01-17T02:57:19.123-00:00",
        "included_in_blocks":
          [ "BLGi9XZ8RMA6FYqKCVB4katiosdrragXtXyUipshQ5D98sGmUvy" ] },
      { "delegate": "tz1RCFbB9GpALpsZtu6J58sb74dm8qe6XBzv",
        "reception_time": "2022-01-17T02:57:19.161-00:00",
        "included_in_blocks":
          [ "BLGi9XZ8RMA6FYqKCVB4katiosdrragXtXyUipshQ5D98sGmUvy" ] },
      { "delegate": "tz1abmz7jiCV2GH2u81LRrGgAFFgvQgiDiaf",
        "reception_time": "2022-01-17T02:57:19.176-00:00",
        "included_in_blocks":
          [ "BLGi9XZ8RMA6FYqKCVB4katiosdrragXtXyUipshQ5D98sGmUvy" ] },
      { "delegate": "tz1MQJPGNMijnXnVoBENFz9rUhaPt3S7rWoz",
        "reception_time": "2022-01-17T02:57:19.252-00:00",
        "included_in_blocks":
          [ "BLGi9XZ8RMA6FYqKCVB4katiosdrragXtXyUipshQ5D98sGmUvy" ] },
      { "delegate": "tz1V4qCyvPKZ5UeqdH14HN42rxvNPQfc9UZg",
        "reception_time": "2022-01-17T02:57:19.266-00:00",
        "included_in_blocks":
          [ "BLGi9XZ8RMA6FYqKCVB4katiosdrragXtXyUipshQ5D98sGmUvy" ] },
      { "delegate": "tz1ei4WtWEMEJekSv8qDnu9PExG6Q8HgRGr3",
        "reception_time": "2022-01-17T02:57:19.342-00:00",
        "included_in_blocks":
          [ "BLGi9XZ8RMA6FYqKCVB4katiosdrragXtXyUipshQ5D98sGmUvy" ] },
      { "delegate": "tz2FCNBrERXtaTtNX6iimR1UJ5JSDxvdHM93",
        "reception_time": "2022-01-17T02:57:19.345-00:00",
        "included_in_blocks":
          [ "BLGi9XZ8RMA6FYqKCVB4katiosdrragXtXyUipshQ5D98sGmUvy" ] },
      { "delegate": "tz1TEc75UKXv4W5cwi14Na3NtqFD51yKQi7h",
        "reception_time": "2022-01-17T02:57:19.498-00:00",
        "included_in_blocks":
          [ "BLGi9XZ8RMA6FYqKCVB4katiosdrragXtXyUipshQ5D98sGmUvy" ] },
      { "delegate": "tz1fwnfJNgiDACshK9avfRfFbMaXrs3ghoJa",
        "reception_time": "2022-01-17T02:57:19.511-00:00",
        "included_in_blocks":
          [ "BLGi9XZ8RMA6FYqKCVB4katiosdrragXtXyUipshQ5D98sGmUvy" ] },
      { "delegate": "tz1PeZx7FXy7QRuMREGXGxeipb24RsMMzUNe",
        "reception_time": "2022-01-17T02:57:19.757-00:00",
        "included_in_blocks":
          [ "BLGi9XZ8RMA6FYqKCVB4katiosdrragXtXyUipshQ5D98sGmUvy" ] },
      { "delegate": "tz1TRqbYbUf2GyrjErf3hBzgBJPzW8y36qEs",
        "reception_time": "2022-01-17T02:57:19.773-00:00",
        "included_in_blocks":
          [ "BLGi9XZ8RMA6FYqKCVB4katiosdrragXtXyUipshQ5D98sGmUvy" ] },
      { "delegate": "tz1SYq214SCBy9naR6cvycQsYcUGpBqQAE8d",
        "reception_time": "2022-01-17T02:57:19.807-00:00",
        "included_in_blocks":
          [ "BLGi9XZ8RMA6FYqKCVB4katiosdrragXtXyUipshQ5D98sGmUvy" ] },
      { "delegate": "tz1Nf6tsK4G6bBqgSQERy4nUtkHNKUVdh7q1",
        "reception_time": "2022-01-17T02:57:19.889-00:00",
        "included_in_blocks":
          [ "BLGi9XZ8RMA6FYqKCVB4katiosdrragXtXyUipshQ5D98sGmUvy" ] },
      { "delegate": "tz1i3mhawFAgcB8JHaHwoUF6hdncwTAkLEn2",
        "reception_time": "2022-01-17T02:57:19.900-00:00",
        "included_in_blocks":
          [ "BLGi9XZ8RMA6FYqKCVB4katiosdrragXtXyUipshQ5D98sGmUvy" ] },
      { "delegate": "tz1NEKxGEHsFufk87CVZcrqWu8o22qh46GK6",
        "reception_time": "2022-01-17T02:57:19.969-00:00",
        "included_in_blocks":
          [ "BLGi9XZ8RMA6FYqKCVB4katiosdrragXtXyUipshQ5D98sGmUvy" ] },
      { "delegate": "tz3bvNMQ95vfAYtG8193ymshqjSvmxiCUuR5",
        "reception_time": "2022-01-17T02:57:20.093-00:00",
        "included_in_blocks":
          [ "BLGi9XZ8RMA6FYqKCVB4katiosdrragXtXyUipshQ5D98sGmUvy" ] },
      { "delegate": "tz3NDpRj6WBrJPikcPVHRBEjWKxFw3c6eQPS",
        "reception_time": "2022-01-17T02:57:20.106-00:00",
        "included_in_blocks":
          [ "BLGi9XZ8RMA6FYqKCVB4katiosdrragXtXyUipshQ5D98sGmUvy" ] },
      { "delegate": "tz1Zdk8q7wNasmv7VFeQ6QFwcw5fP2c7StoF",
        "reception_time": "2022-01-17T02:57:20.113-00:00",
        "included_in_blocks":
          [ "BLGi9XZ8RMA6FYqKCVB4katiosdrragXtXyUipshQ5D98sGmUvy" ] },
      { "delegate": "tz3gLTu4Yxj8tPAcriQVUdxv6BY9QyvzU1az",
        "reception_time": "2022-01-17T02:57:20.123-00:00",
        "included_in_blocks":
          [ "BLGi9XZ8RMA6FYqKCVB4katiosdrragXtXyUipshQ5D98sGmUvy" ] },
      { "delegate": "tz3WMqdzXqRWXwyvj5Hp2H7QEepaUuS7vd9K",
        "reception_time": "2022-01-17T02:57:20.196-00:00",
        "included_in_blocks":
          [ "BLGi9XZ8RMA6FYqKCVB4katiosdrragXtXyUipshQ5D98sGmUvy" ] },
      { "delegate": "tz1cYufsxHXJcvANhvS55h3aY32a9BAFB494",
        "reception_time": "2022-01-17T02:57:20.229-00:00",
        "included_in_blocks":
          [ "BLGi9XZ8RMA6FYqKCVB4katiosdrragXtXyUipshQ5D98sGmUvy" ] },
      { "delegate": "tz1dNVDWPf3Q59SdJqnjdnu277iyvReiRS9M",
        "reception_time": "2022-01-17T02:57:20.233-00:00",
        "included_in_blocks":
          [ "BLGi9XZ8RMA6FYqKCVB4katiosdrragXtXyUipshQ5D98sGmUvy" ] },
      { "delegate": "tz1aRoaRhSpRYvFdyvgWLL6TGyRoGF51wDjM",
        "reception_time": "2022-01-17T02:57:20.238-00:00",
        "included_in_blocks":
          [ "BLGi9XZ8RMA6FYqKCVB4katiosdrragXtXyUipshQ5D98sGmUvy" ] },
      { "delegate": "tz1SohptP53wDPZhzTWzDUFAUcWF6DMBpaJV",
        "reception_time": "2022-01-17T02:57:20.302-00:00",
        "included_in_blocks":
          [ "BLGi9XZ8RMA6FYqKCVB4katiosdrragXtXyUipshQ5D98sGmUvy" ] },
      { "delegate": "tz3VEZ4k6a4Wx42iyev6i2aVAptTRLEAivNN",
        "reception_time": "2022-01-17T02:57:20.349-00:00",
        "included_in_blocks":
          [ "BLGi9XZ8RMA6FYqKCVB4katiosdrragXtXyUipshQ5D98sGmUvy" ] },
      { "delegate": "tz1T7duV5gZWSTq4YpBGbXNLTfznCLDrFxvs",
        "reception_time": "2022-01-17T02:57:20.632-00:00",
        "included_in_blocks":
          [ "BLGi9XZ8RMA6FYqKCVB4katiosdrragXtXyUipshQ5D98sGmUvy" ] },
      { "delegate": "tz1f3Re8iw6Pt3KMHAvyccHxDU3NuqL95axD",
        "reception_time": "2022-01-17T02:57:20.761-00:00",
        "included_in_blocks":
          [ "BLGi9XZ8RMA6FYqKCVB4katiosdrragXtXyUipshQ5D98sGmUvy" ] },
      { "delegate": "tz1dRKU4FQ9QRRQPdaH4zCR6gmCmXfcvcgtB",
        "reception_time": "2022-01-17T02:57:20.761-00:00",
        "included_in_blocks":
          [ "BLGi9XZ8RMA6FYqKCVB4katiosdrragXtXyUipshQ5D98sGmUvy" ] },
      { "delegate": "tz1fJHFn6sWEd3NnBPngACuw2dggTv6nQZ7g",
        "reception_time": "2022-01-17T02:57:20.780-00:00",
        "included_in_blocks":
          [ "BLGi9XZ8RMA6FYqKCVB4katiosdrragXtXyUipshQ5D98sGmUvy" ] },
      { "delegate": "tz3NExpXn9aPNZPorRE4SdjJ2RGrfbJgMAaV",
        "reception_time": "2022-01-17T02:57:20.921-00:00",
        "included_in_blocks":
          [ "BLGi9XZ8RMA6FYqKCVB4katiosdrragXtXyUipshQ5D98sGmUvy" ] },
      { "delegate": "tz3RDC3Jdn4j15J7bBHZd29EUee9gVB1CxD9",
        "reception_time": "2022-01-17T02:57:21.011-00:00",
        "included_in_blocks":
          [ "BLGi9XZ8RMA6FYqKCVB4katiosdrragXtXyUipshQ5D98sGmUvy" ] },
      { "delegate": "tz3UoffC7FG7zfpmvmjUmUeAaHvzdcUvAj6r",
        "reception_time": "2022-01-17T02:57:21.039-00:00",
        "included_in_blocks":
          [ "BLGi9XZ8RMA6FYqKCVB4katiosdrragXtXyUipshQ5D98sGmUvy" ] },
      { "delegate": "tz1PFeoTuFen8jAMRHajBySNyCwLmY5RqF9M",
        "reception_time": "2022-01-17T02:57:21.593-00:00",
        "included_in_blocks":
          [ "BLGi9XZ8RMA6FYqKCVB4katiosdrragXtXyUipshQ5D98sGmUvy" ] },
      { "delegate": "tz1g8vkmcde6sWKaG2NN9WKzCkDM6Rziq194",
        "reception_time": "2022-01-17T02:57:24.413-00:00",
        "included_in_blocks":
          [ "BLGi9XZ8RMA6FYqKCVB4katiosdrragXtXyUipshQ5D98sGmUvy" ] },
      { "delegate": "tz2BzJTyoQp8fNbfhWD4YQgH9JJHDgSGzpdG",
        "reception_time": "2022-01-17T02:57:24.761-00:00",
        "included_in_blocks":
          [ "BLGi9XZ8RMA6FYqKCVB4katiosdrragXtXyUipshQ5D98sGmUvy" ] },
      { "delegate": "tz3e7LbZvUtoXhpUD1yb6wuFodZpfYRb9nWJ",
        "reception_time": "2022-01-17T02:57:25.486-00:00",
        "included_in_blocks":
          [ "BLGi9XZ8RMA6FYqKCVB4katiosdrragXtXyUipshQ5D98sGmUvy" ] } ] }