{ "blocks":
    [ { "hash": "BLtWmZyagpdy48JHsvnCYnkvj37KSe1Ho99eXZJoHNHTR6QSKch",
        "delegate": "tz3bTdwZinP8U1JmSweNzVKhmwafqWmFWRfk",
        "reception_time": "2022-01-17T05:05:18.111-00:00",
        "timestamp": "2022-01-17T05:05:10Z" } ],
  "endorsements":
    [ { "delegate": "tz1dbfppLAAxXZNtf2SDps7rch3qfUznKSoK" },
      { "delegate": "tz1awXW7wuXy21c66vBudMXQVAPgRnqqwgTH" },
      { "delegate": "tz1RjoHc98dBoqaH2jawF62XNKh7YsHwbkEv" },
      { "delegate": "tz1Scdr2HsZiQjc7bHMeBbmDRXYVvdhjJbBh",
        "reception_time": "2022-01-17T05:05:17.979-00:00",
        "errors":
          [ { "kind": "temporary",
              "id": "proto.011-PtHangz2.prefilter.outdated_endorsement" } ],
        "included_in_blocks":
          [ "BL68pz1aZ2SNgboZNCRGnVjpi5DZwP6ZPg56kbVPufJUnjkXWf9" ] },
      { "delegate": "tz1P2Po7YM526ughEsRbY4oR9zaUPDZjxFrb",
        "reception_time": "2022-01-17T05:05:17.887-00:00",
        "errors":
          [ { "kind": "temporary",
              "id": "proto.011-PtHangz2.prefilter.outdated_endorsement" } ],
        "included_in_blocks":
          [ "BL68pz1aZ2SNgboZNCRGnVjpi5DZwP6ZPg56kbVPufJUnjkXWf9" ] },
      { "delegate": "tz1S8e9GgdZG78XJRB3NqabfWeM37GnhZMWQ",
        "reception_time": "2022-01-17T05:05:17.609-00:00",
        "errors":
          [ { "kind": "temporary",
              "id": "proto.011-PtHangz2.prefilter.outdated_endorsement" } ],
        "included_in_blocks":
          [ "BL68pz1aZ2SNgboZNCRGnVjpi5DZwP6ZPg56kbVPufJUnjkXWf9" ] },
      { "delegate": "tz1P6WKJu2rcbxKiKRZHKQKmKrpC9TfW1AwM",
        "reception_time": "2022-01-17T05:05:30.494-00:00",
        "included_in_blocks":
          [ "BL68pz1aZ2SNgboZNCRGnVjpi5DZwP6ZPg56kbVPufJUnjkXWf9" ] },
      { "delegate": "tz3bEQoFCZEEfZMskefZ8q8e4eiHH1pssRax",
        "reception_time": "2022-01-17T05:05:27.765-00:00",
        "included_in_blocks":
          [ "BL68pz1aZ2SNgboZNCRGnVjpi5DZwP6ZPg56kbVPufJUnjkXWf9" ] },
      { "delegate": "tz1NpWrAyDL9k2Lmnyxcgr9xuJakbBxdq7FB",
        "reception_time": "2022-01-17T05:05:27.429-00:00",
        "included_in_blocks":
          [ "BL68pz1aZ2SNgboZNCRGnVjpi5DZwP6ZPg56kbVPufJUnjkXWf9" ] },
      { "delegate": "tz1TcH4Nb3aHNDJ7CGZhU7jgAK1BkSP4Lxds",
        "reception_time": "2022-01-17T05:05:24.919-00:00",
        "included_in_blocks":
          [ "BL68pz1aZ2SNgboZNCRGnVjpi5DZwP6ZPg56kbVPufJUnjkXWf9" ] },
      { "delegate": "tz1bTpviNnyx2PXsNmGpCQTMQsGoYordkUoA",
        "reception_time": "2022-01-17T05:05:23.092-00:00",
        "included_in_blocks":
          [ "BL68pz1aZ2SNgboZNCRGnVjpi5DZwP6ZPg56kbVPufJUnjkXWf9" ] },
      { "delegate": "tz1W5VkdB5s7ENMESVBtwyt9kyvLqPcUczRT",
        "reception_time": "2022-01-17T05:05:22.881-00:00",
        "included_in_blocks":
          [ "BL68pz1aZ2SNgboZNCRGnVjpi5DZwP6ZPg56kbVPufJUnjkXWf9" ] },
      { "delegate": "tz1QccGQsmt7WMnbVX9inJQgEuQGeMXddfjp",
        "reception_time": "2022-01-17T05:05:22.750-00:00",
        "included_in_blocks":
          [ "BL68pz1aZ2SNgboZNCRGnVjpi5DZwP6ZPg56kbVPufJUnjkXWf9" ] },
      { "delegate": "tz1ZcTRk5uxD86EFEn1vvNffWWqJy7q5eVhc",
        "reception_time": "2022-01-17T05:05:22.280-00:00",
        "included_in_blocks":
          [ "BL68pz1aZ2SNgboZNCRGnVjpi5DZwP6ZPg56kbVPufJUnjkXWf9" ] },
      { "delegate": "tz1TRqbYbUf2GyrjErf3hBzgBJPzW8y36qEs",
        "reception_time": "2022-01-17T05:05:22.204-00:00",
        "included_in_blocks":
          [ "BL68pz1aZ2SNgboZNCRGnVjpi5DZwP6ZPg56kbVPufJUnjkXWf9" ] },
      { "delegate": "tz1T7duV5gZWSTq4YpBGbXNLTfznCLDrFxvs",
        "reception_time": "2022-01-17T05:05:22.046-00:00",
        "included_in_blocks":
          [ "BL68pz1aZ2SNgboZNCRGnVjpi5DZwP6ZPg56kbVPufJUnjkXWf9" ] },
      { "delegate": "tz1Xsrfv6hn86fp88YfRs6xcKwt2nTqxVZYM",
        "reception_time": "2022-01-17T05:05:22.070-00:00",
        "included_in_blocks":
          [ "BL68pz1aZ2SNgboZNCRGnVjpi5DZwP6ZPg56kbVPufJUnjkXWf9" ] },
      { "delegate": "tz1S8MNvuFEUsWgjHvi3AxibRBf388NhT1q2",
        "reception_time": "2022-01-17T05:05:21.934-00:00",
        "included_in_blocks":
          [ "BL68pz1aZ2SNgboZNCRGnVjpi5DZwP6ZPg56kbVPufJUnjkXWf9" ] },
      { "delegate": "tz3UoffC7FG7zfpmvmjUmUeAaHvzdcUvAj6r",
        "reception_time": "2022-01-17T05:05:21.852-00:00",
        "included_in_blocks":
          [ "BL68pz1aZ2SNgboZNCRGnVjpi5DZwP6ZPg56kbVPufJUnjkXWf9" ] },
      { "delegate": "tz1Z2jXfEXL7dXhs6bsLmyLFLfmAkXBzA9WE",
        "reception_time": "2022-01-17T05:05:21.611-00:00",
        "included_in_blocks":
          [ "BL68pz1aZ2SNgboZNCRGnVjpi5DZwP6ZPg56kbVPufJUnjkXWf9" ] },
      { "delegate": "tz1aRoaRhSpRYvFdyvgWLL6TGyRoGF51wDjM",
        "reception_time": "2022-01-17T05:05:21.567-00:00",
        "included_in_blocks":
          [ "BL68pz1aZ2SNgboZNCRGnVjpi5DZwP6ZPg56kbVPufJUnjkXWf9" ] },
      { "delegate": "tz1UvkANVPWppVgMkLnvN7BwYZsCP7vm6NVd",
        "reception_time": "2022-01-17T05:05:21.592-00:00",
        "included_in_blocks":
          [ "BL68pz1aZ2SNgboZNCRGnVjpi5DZwP6ZPg56kbVPufJUnjkXWf9" ] },
      { "delegate": "tz1dRKU4FQ9QRRQPdaH4zCR6gmCmXfcvcgtB",
        "reception_time": "2022-01-17T05:05:21.441-00:00",
        "included_in_blocks":
          [ "BL68pz1aZ2SNgboZNCRGnVjpi5DZwP6ZPg56kbVPufJUnjkXWf9" ] },
      { "delegate": "tz1WctSwL49BZtdWAQ75NY6vr4xsAx6oKdah",
        "reception_time": "2022-01-17T05:05:21.280-00:00",
        "included_in_blocks":
          [ "BL68pz1aZ2SNgboZNCRGnVjpi5DZwP6ZPg56kbVPufJUnjkXWf9" ] },
      { "delegate": "tz3bvNMQ95vfAYtG8193ymshqjSvmxiCUuR5",
        "reception_time": "2022-01-17T05:05:20.994-00:00",
        "included_in_blocks":
          [ "BL68pz1aZ2SNgboZNCRGnVjpi5DZwP6ZPg56kbVPufJUnjkXWf9" ] },
      { "delegate": "tz2FCNBrERXtaTtNX6iimR1UJ5JSDxvdHM93",
        "reception_time": "2022-01-17T05:05:21.029-00:00",
        "included_in_blocks":
          [ "BL68pz1aZ2SNgboZNCRGnVjpi5DZwP6ZPg56kbVPufJUnjkXWf9" ] },
      { "delegate": "tz3NExpXn9aPNZPorRE4SdjJ2RGrfbJgMAaV",
        "reception_time": "2022-01-17T05:05:20.975-00:00",
        "included_in_blocks":
          [ "BL68pz1aZ2SNgboZNCRGnVjpi5DZwP6ZPg56kbVPufJUnjkXWf9" ] },
      { "delegate": "tz3NDpRj6WBrJPikcPVHRBEjWKxFw3c6eQPS",
        "reception_time": "2022-01-17T05:05:21.349-00:00",
        "included_in_blocks":
          [ "BL68pz1aZ2SNgboZNCRGnVjpi5DZwP6ZPg56kbVPufJUnjkXWf9" ] },
      { "delegate": "tz1Nf6tsK4G6bBqgSQERy4nUtkHNKUVdh7q1",
        "reception_time": "2022-01-17T05:05:20.321-00:00",
        "included_in_blocks":
          [ "BL68pz1aZ2SNgboZNCRGnVjpi5DZwP6ZPg56kbVPufJUnjkXWf9" ] },
      { "delegate": "tz1SYq214SCBy9naR6cvycQsYcUGpBqQAE8d",
        "reception_time": "2022-01-17T05:05:20.717-00:00",
        "included_in_blocks":
          [ "BL68pz1aZ2SNgboZNCRGnVjpi5DZwP6ZPg56kbVPufJUnjkXWf9" ] },
      { "delegate": "tz3WMqdzXqRWXwyvj5Hp2H7QEepaUuS7vd9K",
        "reception_time": "2022-01-17T05:05:20.295-00:00",
        "included_in_blocks":
          [ "BL68pz1aZ2SNgboZNCRGnVjpi5DZwP6ZPg56kbVPufJUnjkXWf9" ] },
      { "delegate": "tz1NEKxGEHsFufk87CVZcrqWu8o22qh46GK6",
        "reception_time": "2022-01-17T05:05:20.454-00:00",
        "included_in_blocks":
          [ "BL68pz1aZ2SNgboZNCRGnVjpi5DZwP6ZPg56kbVPufJUnjkXWf9" ] },
      { "delegate": "tz1fwnfJNgiDACshK9avfRfFbMaXrs3ghoJa",
        "reception_time": "2022-01-17T05:05:20.285-00:00",
        "included_in_blocks":
          [ "BL68pz1aZ2SNgboZNCRGnVjpi5DZwP6ZPg56kbVPufJUnjkXWf9" ] },
      { "delegate": "tz1PeZx7FXy7QRuMREGXGxeipb24RsMMzUNe",
        "reception_time": "2022-01-17T05:05:20.313-00:00",
        "included_in_blocks":
          [ "BL68pz1aZ2SNgboZNCRGnVjpi5DZwP6ZPg56kbVPufJUnjkXWf9" ] },
      { "delegate": "tz1V4qCyvPKZ5UeqdH14HN42rxvNPQfc9UZg",
        "reception_time": "2022-01-17T05:05:20.115-00:00",
        "included_in_blocks":
          [ "BL68pz1aZ2SNgboZNCRGnVjpi5DZwP6ZPg56kbVPufJUnjkXWf9" ] },
      { "delegate": "tz1KfEsrtDaA1sX7vdM4qmEPWuSytuqCDp5j",
        "reception_time": "2022-01-17T05:05:20.182-00:00",
        "included_in_blocks":
          [ "BL68pz1aZ2SNgboZNCRGnVjpi5DZwP6ZPg56kbVPufJUnjkXWf9" ] },
      { "delegate": "tz3VEZ4k6a4Wx42iyev6i2aVAptTRLEAivNN",
        "reception_time": "2022-01-17T05:05:20.164-00:00",
        "included_in_blocks":
          [ "BL68pz1aZ2SNgboZNCRGnVjpi5DZwP6ZPg56kbVPufJUnjkXWf9" ] },
      { "delegate": "tz1WBfwbT66FC6BTLexc2BoyCCBM9LG7pnVW",
        "reception_time": "2022-01-17T05:05:19.971-00:00",
        "included_in_blocks":
          [ "BL68pz1aZ2SNgboZNCRGnVjpi5DZwP6ZPg56kbVPufJUnjkXWf9" ] },
      { "delegate": "tz3QCNyySViKHmeSr45kzDxzchys7NiXCWoa",
        "reception_time": "2022-01-17T05:05:20.131-00:00",
        "included_in_blocks":
          [ "BL68pz1aZ2SNgboZNCRGnVjpi5DZwP6ZPg56kbVPufJUnjkXWf9" ] },
      { "delegate": "tz1RCFbB9GpALpsZtu6J58sb74dm8qe6XBzv",
        "reception_time": "2022-01-17T05:05:19.811-00:00",
        "included_in_blocks":
          [ "BL68pz1aZ2SNgboZNCRGnVjpi5DZwP6ZPg56kbVPufJUnjkXWf9" ] },
      { "delegate": "tz1PWCDnz783NNGGQjEFFsHtrcK5yBW4E2rm",
        "reception_time": "2022-01-17T05:05:19.717-00:00",
        "included_in_blocks":
          [ "BL68pz1aZ2SNgboZNCRGnVjpi5DZwP6ZPg56kbVPufJUnjkXWf9" ] },
      { "delegate": "tz1fPKAtsYydh4f1wfWNfeNxWYu72TmM48fu",
        "reception_time": "2022-01-17T05:05:19.803-00:00",
        "included_in_blocks":
          [ "BL68pz1aZ2SNgboZNCRGnVjpi5DZwP6ZPg56kbVPufJUnjkXWf9" ] },
      { "delegate": "tz1bZ8vsMAXmaWEV7FRnyhcuUs2fYMaQ6Hkk",
        "reception_time": "2022-01-17T05:05:19.858-00:00",
        "included_in_blocks":
          [ "BL68pz1aZ2SNgboZNCRGnVjpi5DZwP6ZPg56kbVPufJUnjkXWf9" ] },
      { "delegate": "tz3S6BBeKgJGXxvLyZ1xzXzMPn11nnFtq5L9",
        "reception_time": "2022-01-17T05:05:19.478-00:00",
        "included_in_blocks":
          [ "BL68pz1aZ2SNgboZNCRGnVjpi5DZwP6ZPg56kbVPufJUnjkXWf9" ] },
      { "delegate": "tz3RDC3Jdn4j15J7bBHZd29EUee9gVB1CxD9",
        "reception_time": "2022-01-17T05:05:19.455-00:00",
        "included_in_blocks":
          [ "BL68pz1aZ2SNgboZNCRGnVjpi5DZwP6ZPg56kbVPufJUnjkXWf9" ] },
      { "delegate": "tz3QT9dHYKDqh563chVa6za8526ys1UKfRfL",
        "reception_time": "2022-01-17T05:05:19.487-00:00",
        "included_in_blocks":
          [ "BL68pz1aZ2SNgboZNCRGnVjpi5DZwP6ZPg56kbVPufJUnjkXWf9" ] },
      { "delegate": "tz3iJu5vrKZcsqRPs8yJ61UDoeEXZmtro4qh",
        "reception_time": "2022-01-17T05:05:19.348-00:00",
        "included_in_blocks":
          [ "BL68pz1aZ2SNgboZNCRGnVjpi5DZwP6ZPg56kbVPufJUnjkXWf9" ] },
      { "delegate": "tz3Zhs2dygr55yHyQyKjntAtY9bgfhLZ4Xj1",
        "reception_time": "2022-01-17T05:05:19.405-00:00",
        "included_in_blocks":
          [ "BL68pz1aZ2SNgboZNCRGnVjpi5DZwP6ZPg56kbVPufJUnjkXWf9" ] },
      { "delegate": "tz1TzaNn7wSQSP5gYPXCnNzBCpyMiidCq1PX",
        "reception_time": "2022-01-17T05:05:19.394-00:00",
        "included_in_blocks":
          [ "BL68pz1aZ2SNgboZNCRGnVjpi5DZwP6ZPg56kbVPufJUnjkXWf9" ] },
      { "delegate": "tz1gfArv665EUkSg2ojMBzcbfwuPxAvqPvjo",
        "reception_time": "2022-01-17T05:05:19.448-00:00",
        "included_in_blocks":
          [ "BL68pz1aZ2SNgboZNCRGnVjpi5DZwP6ZPg56kbVPufJUnjkXWf9" ] },
      { "delegate": "tz1WCd2jm4uSt4vntk4vSuUWoZQGhLcDuR9q",
        "reception_time": "2022-01-17T05:05:19.204-00:00",
        "included_in_blocks":
          [ "BL68pz1aZ2SNgboZNCRGnVjpi5DZwP6ZPg56kbVPufJUnjkXWf9" ] },
      { "delegate": "tz1gUNyn3hmnEWqkusWPzxRaon1cs7ndWh7h",
        "reception_time": "2022-01-17T05:05:19.306-00:00",
        "included_in_blocks":
          [ "BL68pz1aZ2SNgboZNCRGnVjpi5DZwP6ZPg56kbVPufJUnjkXWf9" ] },
      { "delegate": "tz3hw2kqXhLUvY65ca1eety2oQTpAvd34R9Q",
        "reception_time": "2022-01-17T05:05:19.186-00:00",
        "included_in_blocks":
          [ "BL68pz1aZ2SNgboZNCRGnVjpi5DZwP6ZPg56kbVPufJUnjkXWf9" ] },
      { "delegate": "tz3RKYFsLuQzKBtmYuLNas7uMu3AsYd4QdsA",
        "reception_time": "2022-01-17T05:05:19.186-00:00",
        "included_in_blocks":
          [ "BL68pz1aZ2SNgboZNCRGnVjpi5DZwP6ZPg56kbVPufJUnjkXWf9" ] },
      { "delegate": "tz1VmiY38m3y95HqQLjMwqnMS7sdMfGomzKi",
        "reception_time": "2022-01-17T05:05:19.219-00:00",
        "included_in_blocks":
          [ "BL68pz1aZ2SNgboZNCRGnVjpi5DZwP6ZPg56kbVPufJUnjkXWf9" ] },
      { "delegate": "tz1ZPh7XfUaJXUDvkrBxmS1BjEM1i62hiPpM",
        "reception_time": "2022-01-17T05:05:19.112-00:00",
        "included_in_blocks":
          [ "BL68pz1aZ2SNgboZNCRGnVjpi5DZwP6ZPg56kbVPufJUnjkXWf9" ] },
      { "delegate": "tz3ZbP2pM3nwvXztbuMJwJnDvV5xdpU8UkkD",
        "reception_time": "2022-01-17T05:05:19.076-00:00",
        "included_in_blocks":
          [ "BL68pz1aZ2SNgboZNCRGnVjpi5DZwP6ZPg56kbVPufJUnjkXWf9" ] },
      { "delegate": "tz3gtoUxdudfBRcNY7iVdKPHCYYX6xdPpoRS",
        "reception_time": "2022-01-17T05:05:19.097-00:00",
        "included_in_blocks":
          [ "BL68pz1aZ2SNgboZNCRGnVjpi5DZwP6ZPg56kbVPufJUnjkXWf9" ] },
      { "delegate": "tz1Ldzz6k1BHdhuKvAtMRX7h5kJSMHESMHLC",
        "reception_time": "2022-01-17T05:05:19.088-00:00",
        "included_in_blocks":
          [ "BL68pz1aZ2SNgboZNCRGnVjpi5DZwP6ZPg56kbVPufJUnjkXWf9" ] },
      { "delegate": "tz3RB4aoyjov4KEVRbuhvQ1CKJgBJMWhaeB8",
        "reception_time": "2022-01-17T05:05:19.085-00:00",
        "included_in_blocks":
          [ "BL68pz1aZ2SNgboZNCRGnVjpi5DZwP6ZPg56kbVPufJUnjkXWf9" ] },
      { "delegate": "tz3NxTnke1acr8o3h5y9ytf5awQBGNJUKzVU",
        "reception_time": "2022-01-17T05:05:19.070-00:00",
        "included_in_blocks":
          [ "BL68pz1aZ2SNgboZNCRGnVjpi5DZwP6ZPg56kbVPufJUnjkXWf9" ] },
      { "delegate": "tz3QSGPoRp3Kn7n3vY24eYeu3Peuqo45LQ4D",
        "reception_time": "2022-01-17T05:05:19.109-00:00",
        "included_in_blocks":
          [ "BL68pz1aZ2SNgboZNCRGnVjpi5DZwP6ZPg56kbVPufJUnjkXWf9" ] },
      { "delegate": "tz1TRspM5SeZpaQUhzByXbEvqKF1vnCM2YTK",
        "reception_time": "2022-01-17T05:05:19.026-00:00",
        "included_in_blocks":
          [ "BL68pz1aZ2SNgboZNCRGnVjpi5DZwP6ZPg56kbVPufJUnjkXWf9" ] },
      { "delegate": "tz1VQnqCCqX4K5sP3FNkVSNKTdCAMJDd3E1n",
        "reception_time": "2022-01-17T05:05:19.018-00:00",
        "included_in_blocks":
          [ "BL68pz1aZ2SNgboZNCRGnVjpi5DZwP6ZPg56kbVPufJUnjkXWf9" ] },
      { "delegate": "tz1QLXqnfN51dkjeghXvKHkJfhvGiM5gK4tc",
        "reception_time": "2022-01-17T05:05:19.034-00:00",
        "included_in_blocks":
          [ "BL68pz1aZ2SNgboZNCRGnVjpi5DZwP6ZPg56kbVPufJUnjkXWf9" ] },
      { "delegate": "tz1STeamwbp68THcny9zk3LsbG3H36DMvbRK",
        "reception_time": "2022-01-17T05:05:19.085-00:00",
        "included_in_blocks":
          [ "BL68pz1aZ2SNgboZNCRGnVjpi5DZwP6ZPg56kbVPufJUnjkXWf9" ] },
      { "delegate": "tz1eEnQhbwf6trb8Q8mPb2RaPkNk2rN7BKi8",
        "reception_time": "2022-01-17T05:05:19.045-00:00",
        "included_in_blocks":
          [ "BL68pz1aZ2SNgboZNCRGnVjpi5DZwP6ZPg56kbVPufJUnjkXWf9" ] },
      { "delegate": "tz3bTdwZinP8U1JmSweNzVKhmwafqWmFWRfk",
        "reception_time": "2022-01-17T05:05:19.043-00:00",
        "included_in_blocks":
          [ "BL68pz1aZ2SNgboZNCRGnVjpi5DZwP6ZPg56kbVPufJUnjkXWf9" ] },
      { "delegate": "tz1irJKkXS2DBWkU1NnmFQx1c1L7pbGg4yhk",
        "reception_time": "2022-01-17T05:05:19.016-00:00",
        "included_in_blocks":
          [ "BL68pz1aZ2SNgboZNCRGnVjpi5DZwP6ZPg56kbVPufJUnjkXWf9" ] } ] }