{ "blocks":
    [ { "hash": "BL1kRHYUUhKUMBjxsqDgY2gbXMUnM6XTbW9rQHrGgUAcvt1tqSb",
        "delegate": "tz1eEnQhbwf6trb8Q8mPb2RaPkNk2rN7BKi8",
        "reception_time": "2022-01-17T05:31:54.981-00:00",
        "timestamp": "2022-01-17T05:31:50Z" } ],
  "endorsements":
    [ { "delegate": "tz1S8e9GgdZG78XJRB3NqabfWeM37GnhZMWQ",
        "reception_time": "2022-01-17T05:31:54.730-00:00",
        "errors":
          [ { "kind": "temporary",
              "id": "proto.011-PtHangz2.prefilter.outdated_endorsement" } ],
        "included_in_blocks":
          [ "BLiemfNS56b3CiEVVVwFw85Y4XUNdfU8JPm6BLFRiUcQN7BfMeK" ] },
      { "delegate": "tz1RjoHc98dBoqaH2jawF62XNKh7YsHwbkEv" },
      { "delegate": "tz1awXW7wuXy21c66vBudMXQVAPgRnqqwgTH" },
      { "delegate": "tz1P2Po7YM526ughEsRbY4oR9zaUPDZjxFrb",
        "reception_time": "2022-01-17T05:31:56.869-00:00",
        "included_in_blocks":
          [ "BLiemfNS56b3CiEVVVwFw85Y4XUNdfU8JPm6BLFRiUcQN7BfMeK" ] },
      { "delegate": "tz1TXzyaKUA8wsWefdSnyaYFnV2M3vCV7er9",
        "reception_time": "2022-01-17T05:31:56.869-00:00",
        "included_in_blocks":
          [ "BLiemfNS56b3CiEVVVwFw85Y4XUNdfU8JPm6BLFRiUcQN7BfMeK" ] },
      { "delegate": "tz1Scdr2HsZiQjc7bHMeBbmDRXYVvdhjJbBh",
        "reception_time": "2022-01-17T05:31:56.873-00:00",
        "included_in_blocks":
          [ "BLiemfNS56b3CiEVVVwFw85Y4XUNdfU8JPm6BLFRiUcQN7BfMeK" ] },
      { "delegate": "tz1Lhf4J9Qxoe3DZ2nfe8FGDnvVj7oKjnMY6",
        "reception_time": "2022-01-17T05:31:56.877-00:00",
        "included_in_blocks":
          [ "BLiemfNS56b3CiEVVVwFw85Y4XUNdfU8JPm6BLFRiUcQN7BfMeK" ] },
      { "delegate": "tz1eEnQhbwf6trb8Q8mPb2RaPkNk2rN7BKi8",
        "reception_time": "2022-01-17T05:31:56.885-00:00",
        "included_in_blocks":
          [ "BLiemfNS56b3CiEVVVwFw85Y4XUNdfU8JPm6BLFRiUcQN7BfMeK" ] },
      { "delegate": "tz1TRspM5SeZpaQUhzByXbEvqKF1vnCM2YTK",
        "reception_time": "2022-01-17T05:31:56.893-00:00",
        "included_in_blocks":
          [ "BLiemfNS56b3CiEVVVwFw85Y4XUNdfU8JPm6BLFRiUcQN7BfMeK" ] },
      { "delegate": "tz1irJKkXS2DBWkU1NnmFQx1c1L7pbGg4yhk",
        "reception_time": "2022-01-17T05:31:56.929-00:00",
        "included_in_blocks":
          [ "BLiemfNS56b3CiEVVVwFw85Y4XUNdfU8JPm6BLFRiUcQN7BfMeK" ] },
      { "delegate": "tz1ZPh7XfUaJXUDvkrBxmS1BjEM1i62hiPpM",
        "reception_time": "2022-01-17T05:31:56.933-00:00",
        "included_in_blocks":
          [ "BLiemfNS56b3CiEVVVwFw85Y4XUNdfU8JPm6BLFRiUcQN7BfMeK" ] },
      { "delegate": "tz1Kt4P8BCaP93AEV4eA7gmpRryWt5hznjCP",
        "reception_time": "2022-01-17T05:31:56.943-00:00",
        "included_in_blocks":
          [ "BLiemfNS56b3CiEVVVwFw85Y4XUNdfU8JPm6BLFRiUcQN7BfMeK" ] },
      { "delegate": "tz1STeamwbp68THcny9zk3LsbG3H36DMvbRK",
        "reception_time": "2022-01-17T05:31:56.949-00:00",
        "included_in_blocks":
          [ "BLiemfNS56b3CiEVVVwFw85Y4XUNdfU8JPm6BLFRiUcQN7BfMeK" ] },
      { "delegate": "tz1cX93Q3KsiTADpCC4f12TBvAmS5tw7CW19",
        "reception_time": "2022-01-17T05:31:56.992-00:00",
        "included_in_blocks":
          [ "BLiemfNS56b3CiEVVVwFw85Y4XUNdfU8JPm6BLFRiUcQN7BfMeK" ] },
      { "delegate": "tz3gtoUxdudfBRcNY7iVdKPHCYYX6xdPpoRS",
        "reception_time": "2022-01-17T05:31:57.010-00:00",
        "included_in_blocks":
          [ "BLiemfNS56b3CiEVVVwFw85Y4XUNdfU8JPm6BLFRiUcQN7BfMeK" ] },
      { "delegate": "tz3ZbP2pM3nwvXztbuMJwJnDvV5xdpU8UkkD",
        "reception_time": "2022-01-17T05:31:57.023-00:00",
        "included_in_blocks":
          [ "BLiemfNS56b3CiEVVVwFw85Y4XUNdfU8JPm6BLFRiUcQN7BfMeK" ] },
      { "delegate": "tz3S6BBeKgJGXxvLyZ1xzXzMPn11nnFtq5L9",
        "reception_time": "2022-01-17T05:31:57.031-00:00",
        "included_in_blocks":
          [ "BLiemfNS56b3CiEVVVwFw85Y4XUNdfU8JPm6BLFRiUcQN7BfMeK" ] },
      { "delegate": "tz1VQnqCCqX4K5sP3FNkVSNKTdCAMJDd3E1n",
        "reception_time": "2022-01-17T05:31:57.035-00:00",
        "included_in_blocks":
          [ "BLiemfNS56b3CiEVVVwFw85Y4XUNdfU8JPm6BLFRiUcQN7BfMeK" ] },
      { "delegate": "tz1bsdrs36X5BTH83RHUBdUouKLJZK8d2oBa",
        "reception_time": "2022-01-17T05:31:57.043-00:00",
        "included_in_blocks":
          [ "BLiemfNS56b3CiEVVVwFw85Y4XUNdfU8JPm6BLFRiUcQN7BfMeK" ] },
      { "delegate": "tz1VmiY38m3y95HqQLjMwqnMS7sdMfGomzKi",
        "reception_time": "2022-01-17T05:31:57.046-00:00",
        "included_in_blocks":
          [ "BLiemfNS56b3CiEVVVwFw85Y4XUNdfU8JPm6BLFRiUcQN7BfMeK" ] },
      { "delegate": "tz1gUNyn3hmnEWqkusWPzxRaon1cs7ndWh7h",
        "reception_time": "2022-01-17T05:31:57.050-00:00",
        "included_in_blocks":
          [ "BLiemfNS56b3CiEVVVwFw85Y4XUNdfU8JPm6BLFRiUcQN7BfMeK" ] },
      { "delegate": "tz3QSGPoRp3Kn7n3vY24eYeu3Peuqo45LQ4D",
        "reception_time": "2022-01-17T05:31:57.057-00:00",
        "included_in_blocks":
          [ "BLiemfNS56b3CiEVVVwFw85Y4XUNdfU8JPm6BLFRiUcQN7BfMeK" ] },
      { "delegate": "tz3hw2kqXhLUvY65ca1eety2oQTpAvd34R9Q",
        "reception_time": "2022-01-17T05:31:57.065-00:00",
        "included_in_blocks":
          [ "BLiemfNS56b3CiEVVVwFw85Y4XUNdfU8JPm6BLFRiUcQN7BfMeK" ] },
      { "delegate": "tz1TzaNn7wSQSP5gYPXCnNzBCpyMiidCq1PX",
        "reception_time": "2022-01-17T05:31:57.067-00:00",
        "included_in_blocks":
          [ "BLiemfNS56b3CiEVVVwFw85Y4XUNdfU8JPm6BLFRiUcQN7BfMeK" ] },
      { "delegate": "tz1aXD7Jigrt3PBYSpHSg5Rr33SexMmmM5Ys",
        "reception_time": "2022-01-17T05:31:57.071-00:00",
        "included_in_blocks":
          [ "BLiemfNS56b3CiEVVVwFw85Y4XUNdfU8JPm6BLFRiUcQN7BfMeK" ] },
      { "delegate": "tz1Ldzz6k1BHdhuKvAtMRX7h5kJSMHESMHLC",
        "reception_time": "2022-01-17T05:31:57.076-00:00",
        "included_in_blocks":
          [ "BLiemfNS56b3CiEVVVwFw85Y4XUNdfU8JPm6BLFRiUcQN7BfMeK" ] },
      { "delegate": "tz1h4GUAMweP7SNWzDgvMk3yRCAZyaP1MxZq",
        "reception_time": "2022-01-17T05:31:57.081-00:00",
        "included_in_blocks":
          [ "BLiemfNS56b3CiEVVVwFw85Y4XUNdfU8JPm6BLFRiUcQN7BfMeK" ] },
      { "delegate": "tz3Zhs2dygr55yHyQyKjntAtY9bgfhLZ4Xj1",
        "reception_time": "2022-01-17T05:31:57.088-00:00",
        "included_in_blocks":
          [ "BLiemfNS56b3CiEVVVwFw85Y4XUNdfU8JPm6BLFRiUcQN7BfMeK" ] },
      { "delegate": "tz3RKYFsLuQzKBtmYuLNas7uMu3AsYd4QdsA",
        "reception_time": "2022-01-17T05:31:57.095-00:00",
        "included_in_blocks":
          [ "BLiemfNS56b3CiEVVVwFw85Y4XUNdfU8JPm6BLFRiUcQN7BfMeK" ] },
      { "delegate": "tz3QT9dHYKDqh563chVa6za8526ys1UKfRfL",
        "reception_time": "2022-01-17T05:31:57.123-00:00",
        "included_in_blocks":
          [ "BLiemfNS56b3CiEVVVwFw85Y4XUNdfU8JPm6BLFRiUcQN7BfMeK" ] },
      { "delegate": "tz3iJu5vrKZcsqRPs8yJ61UDoeEXZmtro4qh",
        "reception_time": "2022-01-17T05:31:57.134-00:00",
        "included_in_blocks":
          [ "BLiemfNS56b3CiEVVVwFw85Y4XUNdfU8JPm6BLFRiUcQN7BfMeK" ] },
      { "delegate": "tz3NxTnke1acr8o3h5y9ytf5awQBGNJUKzVU",
        "reception_time": "2022-01-17T05:31:57.146-00:00",
        "included_in_blocks":
          [ "BLiemfNS56b3CiEVVVwFw85Y4XUNdfU8JPm6BLFRiUcQN7BfMeK" ] },
      { "delegate": "tz1WCd2jm4uSt4vntk4vSuUWoZQGhLcDuR9q",
        "reception_time": "2022-01-17T05:31:57.157-00:00",
        "included_in_blocks":
          [ "BLiemfNS56b3CiEVVVwFw85Y4XUNdfU8JPm6BLFRiUcQN7BfMeK" ] },
      { "delegate": "tz1gfArv665EUkSg2ojMBzcbfwuPxAvqPvjo",
        "reception_time": "2022-01-17T05:31:57.170-00:00",
        "included_in_blocks":
          [ "BLiemfNS56b3CiEVVVwFw85Y4XUNdfU8JPm6BLFRiUcQN7BfMeK" ] },
      { "delegate": "tz1RCFbB9GpALpsZtu6J58sb74dm8qe6XBzv",
        "reception_time": "2022-01-17T05:31:57.174-00:00",
        "included_in_blocks":
          [ "BLiemfNS56b3CiEVVVwFw85Y4XUNdfU8JPm6BLFRiUcQN7BfMeK" ] },
      { "delegate": "tz3adcvQaKXTCg12zbninqo3q8ptKKtDFTLv",
        "reception_time": "2022-01-17T05:31:57.189-00:00",
        "included_in_blocks":
          [ "BLiemfNS56b3CiEVVVwFw85Y4XUNdfU8JPm6BLFRiUcQN7BfMeK" ] },
      { "delegate": "tz3bTdwZinP8U1JmSweNzVKhmwafqWmFWRfk",
        "reception_time": "2022-01-17T05:31:57.206-00:00",
        "included_in_blocks":
          [ "BLiemfNS56b3CiEVVVwFw85Y4XUNdfU8JPm6BLFRiUcQN7BfMeK" ] },
      { "delegate": "tz3RB4aoyjov4KEVRbuhvQ1CKJgBJMWhaeB8",
        "reception_time": "2022-01-17T05:31:57.212-00:00",
        "included_in_blocks":
          [ "BLiemfNS56b3CiEVVVwFw85Y4XUNdfU8JPm6BLFRiUcQN7BfMeK" ] },
      { "delegate": "tz1UJvHTgpVzcKWhTazGxVcn5wsHru5Gietg",
        "reception_time": "2022-01-17T05:31:57.237-00:00",
        "included_in_blocks":
          [ "BLiemfNS56b3CiEVVVwFw85Y4XUNdfU8JPm6BLFRiUcQN7BfMeK" ] },
      { "delegate": "tz1LnWa4AiFCjMezTgSNa65QFoo7DQGEWgEU",
        "reception_time": "2022-01-17T05:31:57.246-00:00",
        "included_in_blocks":
          [ "BLiemfNS56b3CiEVVVwFw85Y4XUNdfU8JPm6BLFRiUcQN7BfMeK" ] },
      { "delegate": "tz1PWCDnz783NNGGQjEFFsHtrcK5yBW4E2rm",
        "reception_time": "2022-01-17T05:31:57.281-00:00",
        "included_in_blocks":
          [ "BLiemfNS56b3CiEVVVwFw85Y4XUNdfU8JPm6BLFRiUcQN7BfMeK" ] },
      { "delegate": "tz1ei4WtWEMEJekSv8qDnu9PExG6Q8HgRGr3",
        "reception_time": "2022-01-17T05:31:57.286-00:00",
        "included_in_blocks":
          [ "BLiemfNS56b3CiEVVVwFw85Y4XUNdfU8JPm6BLFRiUcQN7BfMeK" ] },
      { "delegate": "tz1Nf6tsK4G6bBqgSQERy4nUtkHNKUVdh7q1",
        "reception_time": "2022-01-17T05:31:57.299-00:00",
        "included_in_blocks":
          [ "BLiemfNS56b3CiEVVVwFw85Y4XUNdfU8JPm6BLFRiUcQN7BfMeK" ] },
      { "delegate": "tz1V4qCyvPKZ5UeqdH14HN42rxvNPQfc9UZg",
        "reception_time": "2022-01-17T05:31:57.430-00:00",
        "included_in_blocks":
          [ "BLiemfNS56b3CiEVVVwFw85Y4XUNdfU8JPm6BLFRiUcQN7BfMeK" ] },
      { "delegate": "tz1dNVDWPf3Q59SdJqnjdnu277iyvReiRS9M",
        "reception_time": "2022-01-17T05:31:57.436-00:00",
        "included_in_blocks":
          [ "BLiemfNS56b3CiEVVVwFw85Y4XUNdfU8JPm6BLFRiUcQN7BfMeK" ] },
      { "delegate": "tz1KzSC1J9aBxKp7u8TUnpN8L7S65PBRkgdF",
        "reception_time": "2022-01-17T05:31:57.584-00:00",
        "included_in_blocks":
          [ "BLiemfNS56b3CiEVVVwFw85Y4XUNdfU8JPm6BLFRiUcQN7BfMeK" ] },
      { "delegate": "tz1UbFpJY5Hext38GisuaXQBkbzhaKJkxpEs",
        "reception_time": "2022-01-17T05:31:57.610-00:00",
        "included_in_blocks":
          [ "BLiemfNS56b3CiEVVVwFw85Y4XUNdfU8JPm6BLFRiUcQN7BfMeK" ] },
      { "delegate": "tz1NEKxGEHsFufk87CVZcrqWu8o22qh46GK6",
        "reception_time": "2022-01-17T05:31:57.708-00:00",
        "included_in_blocks":
          [ "BLiemfNS56b3CiEVVVwFw85Y4XUNdfU8JPm6BLFRiUcQN7BfMeK" ] },
      { "delegate": "tz1hAYfexyzPGG6RhZZMpDvAHifubsbb6kgn",
        "reception_time": "2022-01-17T05:31:57.881-00:00",
        "included_in_blocks":
          [ "BLiemfNS56b3CiEVVVwFw85Y4XUNdfU8JPm6BLFRiUcQN7BfMeK" ] },
      { "delegate": "tz2FCNBrERXtaTtNX6iimR1UJ5JSDxvdHM93",
        "reception_time": "2022-01-17T05:31:57.940-00:00",
        "included_in_blocks":
          [ "BLiemfNS56b3CiEVVVwFw85Y4XUNdfU8JPm6BLFRiUcQN7BfMeK" ] },
      { "delegate": "tz1LmaFsWRkjr7QMCx5PtV6xTUz3AmEpKQiF",
        "reception_time": "2022-01-17T05:31:57.946-00:00",
        "included_in_blocks":
          [ "BLiemfNS56b3CiEVVVwFw85Y4XUNdfU8JPm6BLFRiUcQN7BfMeK" ] },
      { "delegate": "tz1MQMiZHV8q4tTwUMWmS5Y3kaP6J2136iXr",
        "reception_time": "2022-01-17T05:31:58.094-00:00",
        "included_in_blocks":
          [ "BLiemfNS56b3CiEVVVwFw85Y4XUNdfU8JPm6BLFRiUcQN7BfMeK" ] },
      { "delegate": "tz1SYq214SCBy9naR6cvycQsYcUGpBqQAE8d",
        "reception_time": "2022-01-17T05:31:58.231-00:00",
        "included_in_blocks":
          [ "BLiemfNS56b3CiEVVVwFw85Y4XUNdfU8JPm6BLFRiUcQN7BfMeK" ] },
      { "delegate": "tz1T7duV5gZWSTq4YpBGbXNLTfznCLDrFxvs",
        "reception_time": "2022-01-17T05:31:58.237-00:00",
        "included_in_blocks":
          [ "BLiemfNS56b3CiEVVVwFw85Y4XUNdfU8JPm6BLFRiUcQN7BfMeK" ] },
      { "delegate": "tz1KfEsrtDaA1sX7vdM4qmEPWuSytuqCDp5j",
        "reception_time": "2022-01-17T05:31:58.240-00:00",
        "included_in_blocks":
          [ "BLiemfNS56b3CiEVVVwFw85Y4XUNdfU8JPm6BLFRiUcQN7BfMeK" ] },
      { "delegate": "tz3VEZ4k6a4Wx42iyev6i2aVAptTRLEAivNN",
        "reception_time": "2022-01-17T05:31:58.272-00:00",
        "included_in_blocks":
          [ "BLiemfNS56b3CiEVVVwFw85Y4XUNdfU8JPm6BLFRiUcQN7BfMeK" ] },
      { "delegate": "tz3RDC3Jdn4j15J7bBHZd29EUee9gVB1CxD9",
        "reception_time": "2022-01-17T05:31:58.285-00:00",
        "included_in_blocks":
          [ "BLiemfNS56b3CiEVVVwFw85Y4XUNdfU8JPm6BLFRiUcQN7BfMeK" ] },
      { "delegate": "tz3NDpRj6WBrJPikcPVHRBEjWKxFw3c6eQPS",
        "reception_time": "2022-01-17T05:31:58.302-00:00",
        "included_in_blocks":
          [ "BLiemfNS56b3CiEVVVwFw85Y4XUNdfU8JPm6BLFRiUcQN7BfMeK" ] },
      { "delegate": "tz1WnfXMPaNTBmH7DBPwqCWs9cPDJdkGBTZ8",
        "reception_time": "2022-01-17T05:31:58.327-00:00",
        "included_in_blocks":
          [ "BLiemfNS56b3CiEVVVwFw85Y4XUNdfU8JPm6BLFRiUcQN7BfMeK" ] },
      { "delegate": "tz1dRKU4FQ9QRRQPdaH4zCR6gmCmXfcvcgtB",
        "reception_time": "2022-01-17T05:31:58.442-00:00",
        "included_in_blocks":
          [ "BLiemfNS56b3CiEVVVwFw85Y4XUNdfU8JPm6BLFRiUcQN7BfMeK" ] },
      { "delegate": "tz3WMqdzXqRWXwyvj5Hp2H7QEepaUuS7vd9K",
        "reception_time": "2022-01-17T05:31:58.536-00:00",
        "included_in_blocks":
          [ "BLiemfNS56b3CiEVVVwFw85Y4XUNdfU8JPm6BLFRiUcQN7BfMeK" ] },
      { "delegate": "tz1S8MNvuFEUsWgjHvi3AxibRBf388NhT1q2",
        "reception_time": "2022-01-17T05:31:58.653-00:00",
        "included_in_blocks":
          [ "BLiemfNS56b3CiEVVVwFw85Y4XUNdfU8JPm6BLFRiUcQN7BfMeK" ] },
      { "delegate": "tz1TRqbYbUf2GyrjErf3hBzgBJPzW8y36qEs",
        "reception_time": "2022-01-17T05:31:58.796-00:00",
        "included_in_blocks":
          [ "BLiemfNS56b3CiEVVVwFw85Y4XUNdfU8JPm6BLFRiUcQN7BfMeK" ] },
      { "delegate": "tz3NExpXn9aPNZPorRE4SdjJ2RGrfbJgMAaV",
        "reception_time": "2022-01-17T05:31:58.853-00:00",
        "included_in_blocks":
          [ "BLiemfNS56b3CiEVVVwFw85Y4XUNdfU8JPm6BLFRiUcQN7BfMeK" ] },
      { "delegate": "tz1b9MYGrbN1NAxphLEsPPNT9JC7aNFc5nA4",
        "reception_time": "2022-01-17T05:31:58.859-00:00",
        "included_in_blocks":
          [ "BLiemfNS56b3CiEVVVwFw85Y4XUNdfU8JPm6BLFRiUcQN7BfMeK" ] },
      { "delegate": "tz1cYufsxHXJcvANhvS55h3aY32a9BAFB494",
        "reception_time": "2022-01-17T05:31:58.881-00:00",
        "included_in_blocks":
          [ "BLiemfNS56b3CiEVVVwFw85Y4XUNdfU8JPm6BLFRiUcQN7BfMeK" ] },
      { "delegate": "tz1Q8QkSBS63ZQnH3fBTiAMPes9R666Rn6Sc",
        "reception_time": "2022-01-17T05:31:58.958-00:00",
        "included_in_blocks":
          [ "BLiemfNS56b3CiEVVVwFw85Y4XUNdfU8JPm6BLFRiUcQN7BfMeK" ] },
      { "delegate": "tz1aRoaRhSpRYvFdyvgWLL6TGyRoGF51wDjM",
        "reception_time": "2022-01-17T05:31:59.205-00:00",
        "included_in_blocks":
          [ "BLiemfNS56b3CiEVVVwFw85Y4XUNdfU8JPm6BLFRiUcQN7BfMeK" ] },
      { "delegate": "tz3bvNMQ95vfAYtG8193ymshqjSvmxiCUuR5",
        "reception_time": "2022-01-17T05:31:59.248-00:00",
        "included_in_blocks":
          [ "BLiemfNS56b3CiEVVVwFw85Y4XUNdfU8JPm6BLFRiUcQN7BfMeK" ] },
      { "delegate": "tz3UoffC7FG7zfpmvmjUmUeAaHvzdcUvAj6r",
        "reception_time": "2022-01-17T05:31:59.310-00:00",
        "included_in_blocks":
          [ "BLiemfNS56b3CiEVVVwFw85Y4XUNdfU8JPm6BLFRiUcQN7BfMeK" ] },
      { "delegate": "tz1W5VkdB5s7ENMESVBtwyt9kyvLqPcUczRT",
        "reception_time": "2022-01-17T05:32:00.903-00:00",
        "included_in_blocks":
          [ "BLiemfNS56b3CiEVVVwFw85Y4XUNdfU8JPm6BLFRiUcQN7BfMeK" ] },
      { "delegate": "tz3e7LbZvUtoXhpUD1yb6wuFodZpfYRb9nWJ",
        "reception_time": "2022-01-17T05:32:04.358-00:00",
        "included_in_blocks":
          [ "BLiemfNS56b3CiEVVVwFw85Y4XUNdfU8JPm6BLFRiUcQN7BfMeK" ] } ] }