{ "blocks":
    [ { "hash": "BLx7tmaCJqeC9rYEC4FkP9MorkjhDrvCKowNb5kCzA5W9rm2eBr",
        "delegate": "tz1S8MNvuFEUsWgjHvi3AxibRBf388NhT1q2",
        "reception_time": "2022-01-16T23:28:24.643-00:00",
        "timestamp": "2022-01-16T23:28:20Z" } ],
  "endorsements":
    [ { "delegate": "tz1S8e9GgdZG78XJRB3NqabfWeM37GnhZMWQ",
        "reception_time": "2022-01-16T23:28:24.645-00:00",
        "errors":
          [ { "kind": "temporary",
              "id": "proto.011-PtHangz2.prefilter.outdated_endorsement" } ],
        "included_in_blocks":
          [ "BLCiS9rSF3oM4MvDFhXpCB19zQvuTqSHw4iEswMEmaLA34d69pF" ] },
      { "delegate": "tz1NdhRv643wLW6zCcRP3VfT24dvDnh7nuh9" },
      { "delegate": "tz1RjoHc98dBoqaH2jawF62XNKh7YsHwbkEv" },
      { "delegate": "tz1SYq214SCBy9naR6cvycQsYcUGpBqQAE8d" },
      { "delegate": "tz1P2Po7YM526ughEsRbY4oR9zaUPDZjxFrb",
        "reception_time": "2022-01-16T23:28:25.612-00:00",
        "included_in_blocks":
          [ "BLCiS9rSF3oM4MvDFhXpCB19zQvuTqSHw4iEswMEmaLA34d69pF" ] },
      { "delegate": "tz1TXzyaKUA8wsWefdSnyaYFnV2M3vCV7er9",
        "reception_time": "2022-01-16T23:28:25.612-00:00",
        "included_in_blocks":
          [ "BLCiS9rSF3oM4MvDFhXpCB19zQvuTqSHw4iEswMEmaLA34d69pF" ] },
      { "delegate": "tz1RV1MBbZMR68tacosb7Mwj6LkbPSUS1er1",
        "reception_time": "2022-01-16T23:28:25.612-00:00",
        "included_in_blocks":
          [ "BLCiS9rSF3oM4MvDFhXpCB19zQvuTqSHw4iEswMEmaLA34d69pF" ] },
      { "delegate": "tz1S8MNvuFEUsWgjHvi3AxibRBf388NhT1q2",
        "reception_time": "2022-01-16T23:28:25.612-00:00",
        "included_in_blocks":
          [ "BLCiS9rSF3oM4MvDFhXpCB19zQvuTqSHw4iEswMEmaLA34d69pF" ] },
      { "delegate": "tz1fPKAtsYydh4f1wfWNfeNxWYu72TmM48fu",
        "reception_time": "2022-01-16T23:28:25.612-00:00",
        "included_in_blocks":
          [ "BLCiS9rSF3oM4MvDFhXpCB19zQvuTqSHw4iEswMEmaLA34d69pF" ] },
      { "delegate": "tz1eEnQhbwf6trb8Q8mPb2RaPkNk2rN7BKi8",
        "reception_time": "2022-01-16T23:28:25.612-00:00",
        "included_in_blocks":
          [ "BLCiS9rSF3oM4MvDFhXpCB19zQvuTqSHw4iEswMEmaLA34d69pF" ] },
      { "delegate": "tz1irJKkXS2DBWkU1NnmFQx1c1L7pbGg4yhk",
        "reception_time": "2022-01-16T23:28:25.612-00:00",
        "included_in_blocks":
          [ "BLCiS9rSF3oM4MvDFhXpCB19zQvuTqSHw4iEswMEmaLA34d69pF" ] },
      { "delegate": "tz1beersuEDv8Z7ngQ825xfbaJNS2EhXnyHR",
        "reception_time": "2022-01-16T23:28:25.612-00:00",
        "included_in_blocks":
          [ "BLCiS9rSF3oM4MvDFhXpCB19zQvuTqSHw4iEswMEmaLA34d69pF" ] },
      { "delegate": "tz1MXFrtZoaXckE41bjUCSjAjAap3AFDSr3N",
        "reception_time": "2022-01-16T23:28:25.612-00:00",
        "included_in_blocks":
          [ "BLCiS9rSF3oM4MvDFhXpCB19zQvuTqSHw4iEswMEmaLA34d69pF" ] },
      { "delegate": "tz1MJx9vhaNRSimcuXPK2rW4fLccQnDAnVKJ",
        "reception_time": "2022-01-16T23:28:25.612-00:00",
        "included_in_blocks":
          [ "BLCiS9rSF3oM4MvDFhXpCB19zQvuTqSHw4iEswMEmaLA34d69pF" ] },
      { "delegate": "tz1TRspM5SeZpaQUhzByXbEvqKF1vnCM2YTK",
        "reception_time": "2022-01-16T23:28:25.675-00:00",
        "included_in_blocks":
          [ "BLCiS9rSF3oM4MvDFhXpCB19zQvuTqSHw4iEswMEmaLA34d69pF" ] },
      { "delegate": "tz1ZPh7XfUaJXUDvkrBxmS1BjEM1i62hiPpM",
        "reception_time": "2022-01-16T23:28:25.675-00:00",
        "included_in_blocks":
          [ "BLCiS9rSF3oM4MvDFhXpCB19zQvuTqSHw4iEswMEmaLA34d69pF" ] },
      { "delegate": "tz1NSDFKuRyzHxpfG1AMkyCwEiZ52cbR2mRW",
        "reception_time": "2022-01-16T23:28:25.757-00:00",
        "included_in_blocks":
          [ "BLCiS9rSF3oM4MvDFhXpCB19zQvuTqSHw4iEswMEmaLA34d69pF" ] },
      { "delegate": "tz3NxTnke1acr8o3h5y9ytf5awQBGNJUKzVU",
        "reception_time": "2022-01-16T23:28:25.757-00:00",
        "included_in_blocks":
          [ "BLCiS9rSF3oM4MvDFhXpCB19zQvuTqSHw4iEswMEmaLA34d69pF" ] },
      { "delegate": "tz1KzSC1J9aBxKp7u8TUnpN8L7S65PBRkgdF",
        "reception_time": "2022-01-16T23:28:25.757-00:00",
        "included_in_blocks":
          [ "BLCiS9rSF3oM4MvDFhXpCB19zQvuTqSHw4iEswMEmaLA34d69pF" ] },
      { "delegate": "tz1gfArv665EUkSg2ojMBzcbfwuPxAvqPvjo",
        "reception_time": "2022-01-16T23:28:25.757-00:00",
        "included_in_blocks":
          [ "BLCiS9rSF3oM4MvDFhXpCB19zQvuTqSHw4iEswMEmaLA34d69pF" ] },
      { "delegate": "tz1LmaFsWRkjr7QMCx5PtV6xTUz3AmEpKQiF",
        "reception_time": "2022-01-16T23:28:25.757-00:00",
        "included_in_blocks":
          [ "BLCiS9rSF3oM4MvDFhXpCB19zQvuTqSHw4iEswMEmaLA34d69pF" ] },
      { "delegate": "tz3adcvQaKXTCg12zbninqo3q8ptKKtDFTLv",
        "reception_time": "2022-01-16T23:28:25.757-00:00",
        "included_in_blocks":
          [ "BLCiS9rSF3oM4MvDFhXpCB19zQvuTqSHw4iEswMEmaLA34d69pF" ] },
      { "delegate": "tz3ZbP2pM3nwvXztbuMJwJnDvV5xdpU8UkkD",
        "reception_time": "2022-01-16T23:28:25.868-00:00",
        "included_in_blocks":
          [ "BLCiS9rSF3oM4MvDFhXpCB19zQvuTqSHw4iEswMEmaLA34d69pF" ] },
      { "delegate": "tz1UJvHTgpVzcKWhTazGxVcn5wsHru5Gietg",
        "reception_time": "2022-01-16T23:28:25.868-00:00",
        "included_in_blocks":
          [ "BLCiS9rSF3oM4MvDFhXpCB19zQvuTqSHw4iEswMEmaLA34d69pF" ] },
      { "delegate": "tz3QSGPoRp3Kn7n3vY24eYeu3Peuqo45LQ4D",
        "reception_time": "2022-01-16T23:28:25.868-00:00",
        "included_in_blocks":
          [ "BLCiS9rSF3oM4MvDFhXpCB19zQvuTqSHw4iEswMEmaLA34d69pF" ] },
      { "delegate": "tz3gtoUxdudfBRcNY7iVdKPHCYYX6xdPpoRS",
        "reception_time": "2022-01-16T23:28:25.868-00:00",
        "included_in_blocks":
          [ "BLCiS9rSF3oM4MvDFhXpCB19zQvuTqSHw4iEswMEmaLA34d69pF" ] },
      { "delegate": "tz1Ldzz6k1BHdhuKvAtMRX7h5kJSMHESMHLC",
        "reception_time": "2022-01-16T23:28:25.868-00:00",
        "included_in_blocks":
          [ "BLCiS9rSF3oM4MvDFhXpCB19zQvuTqSHw4iEswMEmaLA34d69pF" ] },
      { "delegate": "tz3RKYFsLuQzKBtmYuLNas7uMu3AsYd4QdsA",
        "reception_time": "2022-01-16T23:28:25.881-00:00",
        "included_in_blocks":
          [ "BLCiS9rSF3oM4MvDFhXpCB19zQvuTqSHw4iEswMEmaLA34d69pF" ] },
      { "delegate": "tz3hw2kqXhLUvY65ca1eety2oQTpAvd34R9Q",
        "reception_time": "2022-01-16T23:28:25.897-00:00",
        "included_in_blocks":
          [ "BLCiS9rSF3oM4MvDFhXpCB19zQvuTqSHw4iEswMEmaLA34d69pF" ] },
      { "delegate": "tz1WCd2jm4uSt4vntk4vSuUWoZQGhLcDuR9q",
        "reception_time": "2022-01-16T23:28:26.010-00:00",
        "included_in_blocks":
          [ "BLCiS9rSF3oM4MvDFhXpCB19zQvuTqSHw4iEswMEmaLA34d69pF" ] },
      { "delegate": "tz3S6BBeKgJGXxvLyZ1xzXzMPn11nnFtq5L9",
        "reception_time": "2022-01-16T23:28:26.035-00:00",
        "included_in_blocks":
          [ "BLCiS9rSF3oM4MvDFhXpCB19zQvuTqSHw4iEswMEmaLA34d69pF" ] },
      { "delegate": "tz3Zhs2dygr55yHyQyKjntAtY9bgfhLZ4Xj1",
        "reception_time": "2022-01-16T23:28:26.043-00:00",
        "included_in_blocks":
          [ "BLCiS9rSF3oM4MvDFhXpCB19zQvuTqSHw4iEswMEmaLA34d69pF" ] },
      { "delegate": "tz3iJu5vrKZcsqRPs8yJ61UDoeEXZmtro4qh",
        "reception_time": "2022-01-16T23:28:26.070-00:00",
        "included_in_blocks":
          [ "BLCiS9rSF3oM4MvDFhXpCB19zQvuTqSHw4iEswMEmaLA34d69pF" ] },
      { "delegate": "tz1VmiY38m3y95HqQLjMwqnMS7sdMfGomzKi",
        "reception_time": "2022-01-16T23:28:26.087-00:00",
        "included_in_blocks":
          [ "BLCiS9rSF3oM4MvDFhXpCB19zQvuTqSHw4iEswMEmaLA34d69pF" ] },
      { "delegate": "tz3QT9dHYKDqh563chVa6za8526ys1UKfRfL",
        "reception_time": "2022-01-16T23:28:26.109-00:00",
        "included_in_blocks":
          [ "BLCiS9rSF3oM4MvDFhXpCB19zQvuTqSHw4iEswMEmaLA34d69pF" ] },
      { "delegate": "tz1ei4WtWEMEJekSv8qDnu9PExG6Q8HgRGr3",
        "reception_time": "2022-01-16T23:28:26.125-00:00",
        "included_in_blocks":
          [ "BLCiS9rSF3oM4MvDFhXpCB19zQvuTqSHw4iEswMEmaLA34d69pF" ] },
      { "delegate": "tz3RB4aoyjov4KEVRbuhvQ1CKJgBJMWhaeB8",
        "reception_time": "2022-01-16T23:28:26.155-00:00",
        "included_in_blocks":
          [ "BLCiS9rSF3oM4MvDFhXpCB19zQvuTqSHw4iEswMEmaLA34d69pF" ] },
      { "delegate": "tz1W1f1JrE7VsqgpUpj1iiDobqP5TixgZhDk",
        "reception_time": "2022-01-16T23:28:26.265-00:00",
        "included_in_blocks":
          [ "BLCiS9rSF3oM4MvDFhXpCB19zQvuTqSHw4iEswMEmaLA34d69pF" ] },
      { "delegate": "tz1PWCDnz783NNGGQjEFFsHtrcK5yBW4E2rm",
        "reception_time": "2022-01-16T23:28:26.269-00:00",
        "included_in_blocks":
          [ "BLCiS9rSF3oM4MvDFhXpCB19zQvuTqSHw4iEswMEmaLA34d69pF" ] },
      { "delegate": "tz1RCFbB9GpALpsZtu6J58sb74dm8qe6XBzv",
        "reception_time": "2022-01-16T23:28:26.272-00:00",
        "included_in_blocks":
          [ "BLCiS9rSF3oM4MvDFhXpCB19zQvuTqSHw4iEswMEmaLA34d69pF" ] },
      { "delegate": "tz1gUNyn3hmnEWqkusWPzxRaon1cs7ndWh7h",
        "reception_time": "2022-01-16T23:28:26.275-00:00",
        "included_in_blocks":
          [ "BLCiS9rSF3oM4MvDFhXpCB19zQvuTqSHw4iEswMEmaLA34d69pF" ] },
      { "delegate": "tz1VQnqCCqX4K5sP3FNkVSNKTdCAMJDd3E1n",
        "reception_time": "2022-01-16T23:28:26.277-00:00",
        "included_in_blocks":
          [ "BLCiS9rSF3oM4MvDFhXpCB19zQvuTqSHw4iEswMEmaLA34d69pF" ] },
      { "delegate": "tz3bTdwZinP8U1JmSweNzVKhmwafqWmFWRfk",
        "reception_time": "2022-01-16T23:28:26.301-00:00",
        "included_in_blocks":
          [ "BLCiS9rSF3oM4MvDFhXpCB19zQvuTqSHw4iEswMEmaLA34d69pF" ] },
      { "delegate": "tz1d6Fx42mYgVFnHUW8T8A7WBfJ6nD9pVok8",
        "reception_time": "2022-01-16T23:28:26.309-00:00",
        "included_in_blocks":
          [ "BLCiS9rSF3oM4MvDFhXpCB19zQvuTqSHw4iEswMEmaLA34d69pF" ] },
      { "delegate": "tz1TEc75UKXv4W5cwi14Na3NtqFD51yKQi7h",
        "reception_time": "2022-01-16T23:28:26.317-00:00",
        "included_in_blocks":
          [ "BLCiS9rSF3oM4MvDFhXpCB19zQvuTqSHw4iEswMEmaLA34d69pF" ] },
      { "delegate": "tz1abmz7jiCV2GH2u81LRrGgAFFgvQgiDiaf",
        "reception_time": "2022-01-16T23:28:26.335-00:00",
        "included_in_blocks":
          [ "BLCiS9rSF3oM4MvDFhXpCB19zQvuTqSHw4iEswMEmaLA34d69pF" ] },
      { "delegate": "tz3WMqdzXqRWXwyvj5Hp2H7QEepaUuS7vd9K",
        "reception_time": "2022-01-16T23:28:26.392-00:00",
        "included_in_blocks":
          [ "BLCiS9rSF3oM4MvDFhXpCB19zQvuTqSHw4iEswMEmaLA34d69pF" ] },
      { "delegate": "tz1KfEsrtDaA1sX7vdM4qmEPWuSytuqCDp5j",
        "reception_time": "2022-01-16T23:28:26.411-00:00",
        "included_in_blocks":
          [ "BLCiS9rSF3oM4MvDFhXpCB19zQvuTqSHw4iEswMEmaLA34d69pF" ] },
      { "delegate": "tz1Tnjaxk6tbAeC2TmMApPh8UsrEVQvhHvx5",
        "reception_time": "2022-01-16T23:28:26.428-00:00",
        "included_in_blocks":
          [ "BLCiS9rSF3oM4MvDFhXpCB19zQvuTqSHw4iEswMEmaLA34d69pF" ] },
      { "delegate": "tz2FCNBrERXtaTtNX6iimR1UJ5JSDxvdHM93",
        "reception_time": "2022-01-16T23:28:26.451-00:00",
        "included_in_blocks":
          [ "BLCiS9rSF3oM4MvDFhXpCB19zQvuTqSHw4iEswMEmaLA34d69pF" ] },
      { "delegate": "tz1Nf6tsK4G6bBqgSQERy4nUtkHNKUVdh7q1",
        "reception_time": "2022-01-16T23:28:26.576-00:00",
        "included_in_blocks":
          [ "BLCiS9rSF3oM4MvDFhXpCB19zQvuTqSHw4iEswMEmaLA34d69pF" ] },
      { "delegate": "tz1TRqbYbUf2GyrjErf3hBzgBJPzW8y36qEs",
        "reception_time": "2022-01-16T23:28:26.794-00:00",
        "included_in_blocks":
          [ "BLCiS9rSF3oM4MvDFhXpCB19zQvuTqSHw4iEswMEmaLA34d69pF" ] },
      { "delegate": "tz3VEZ4k6a4Wx42iyev6i2aVAptTRLEAivNN",
        "reception_time": "2022-01-16T23:28:26.917-00:00",
        "included_in_blocks":
          [ "BLCiS9rSF3oM4MvDFhXpCB19zQvuTqSHw4iEswMEmaLA34d69pF" ] },
      { "delegate": "tz1UMCB2AHSTwG7YcGNr31CqYCtGN873royv",
        "reception_time": "2022-01-16T23:28:26.948-00:00",
        "included_in_blocks":
          [ "BLCiS9rSF3oM4MvDFhXpCB19zQvuTqSHw4iEswMEmaLA34d69pF" ] },
      { "delegate": "tz1NEKxGEHsFufk87CVZcrqWu8o22qh46GK6",
        "reception_time": "2022-01-16T23:28:26.977-00:00",
        "included_in_blocks":
          [ "BLCiS9rSF3oM4MvDFhXpCB19zQvuTqSHw4iEswMEmaLA34d69pF" ] },
      { "delegate": "tz1WctSwL49BZtdWAQ75NY6vr4xsAx6oKdah",
        "reception_time": "2022-01-16T23:28:27.101-00:00",
        "included_in_blocks":
          [ "BLCiS9rSF3oM4MvDFhXpCB19zQvuTqSHw4iEswMEmaLA34d69pF" ] },
      { "delegate": "tz1cYufsxHXJcvANhvS55h3aY32a9BAFB494",
        "reception_time": "2022-01-16T23:28:27.183-00:00",
        "included_in_blocks":
          [ "BLCiS9rSF3oM4MvDFhXpCB19zQvuTqSHw4iEswMEmaLA34d69pF" ] },
      { "delegate": "tz3UoffC7FG7zfpmvmjUmUeAaHvzdcUvAj6r",
        "reception_time": "2022-01-16T23:28:27.479-00:00",
        "included_in_blocks":
          [ "BLCiS9rSF3oM4MvDFhXpCB19zQvuTqSHw4iEswMEmaLA34d69pF" ] },
      { "delegate": "tz3bvNMQ95vfAYtG8193ymshqjSvmxiCUuR5",
        "reception_time": "2022-01-16T23:28:27.598-00:00",
        "included_in_blocks":
          [ "BLCiS9rSF3oM4MvDFhXpCB19zQvuTqSHw4iEswMEmaLA34d69pF" ] },
      { "delegate": "tz3NExpXn9aPNZPorRE4SdjJ2RGrfbJgMAaV",
        "reception_time": "2022-01-16T23:28:27.723-00:00",
        "included_in_blocks":
          [ "BLCiS9rSF3oM4MvDFhXpCB19zQvuTqSHw4iEswMEmaLA34d69pF" ] },
      { "delegate": "tz3RDC3Jdn4j15J7bBHZd29EUee9gVB1CxD9",
        "reception_time": "2022-01-16T23:28:27.746-00:00",
        "included_in_blocks":
          [ "BLCiS9rSF3oM4MvDFhXpCB19zQvuTqSHw4iEswMEmaLA34d69pF" ] },
      { "delegate": "tz3NDpRj6WBrJPikcPVHRBEjWKxFw3c6eQPS",
        "reception_time": "2022-01-16T23:28:27.781-00:00",
        "included_in_blocks":
          [ "BLCiS9rSF3oM4MvDFhXpCB19zQvuTqSHw4iEswMEmaLA34d69pF" ] },
      { "delegate": "tz1T7duV5gZWSTq4YpBGbXNLTfznCLDrFxvs",
        "reception_time": "2022-01-16T23:28:27.792-00:00",
        "included_in_blocks":
          [ "BLCiS9rSF3oM4MvDFhXpCB19zQvuTqSHw4iEswMEmaLA34d69pF" ] },
      { "delegate": "tz1dRKU4FQ9QRRQPdaH4zCR6gmCmXfcvcgtB",
        "reception_time": "2022-01-16T23:28:27.841-00:00",
        "included_in_blocks":
          [ "BLCiS9rSF3oM4MvDFhXpCB19zQvuTqSHw4iEswMEmaLA34d69pF" ] },
      { "delegate": "tz1aRoaRhSpRYvFdyvgWLL6TGyRoGF51wDjM",
        "reception_time": "2022-01-16T23:28:27.978-00:00",
        "included_in_blocks":
          [ "BLCiS9rSF3oM4MvDFhXpCB19zQvuTqSHw4iEswMEmaLA34d69pF" ] },
      { "delegate": "tz1g8vkmcde6sWKaG2NN9WKzCkDM6Rziq194",
        "reception_time": "2022-01-16T23:28:28.498-00:00",
        "included_in_blocks":
          [ "BLCiS9rSF3oM4MvDFhXpCB19zQvuTqSHw4iEswMEmaLA34d69pF" ] },
      { "delegate": "tz1LBgHhYP4JbYUWB9kPLgpri8STz5bD58EB",
        "reception_time": "2022-01-16T23:28:30.856-00:00",
        "included_in_blocks":
          [ "BLCiS9rSF3oM4MvDFhXpCB19zQvuTqSHw4iEswMEmaLA34d69pF" ] } ] }