{ "blocks":
    [ { "hash": "BLv8F3YFc8J4gsTVev66NF8rX2fiKBLQLorQozBa5qJK6uq9aMk",
        "delegate": "tz1VQnqCCqX4K5sP3FNkVSNKTdCAMJDd3E1n",
        "reception_time": "2022-01-17T02:45:02.851-00:00",
        "timestamp": "2022-01-17T02:45:00Z" } ],
  "endorsements":
    [ { "delegate": "tz1NdhRv643wLW6zCcRP3VfT24dvDnh7nuh9" },
      { "delegate": "tz1RjoHc98dBoqaH2jawF62XNKh7YsHwbkEv" },
      { "delegate": "tz1awXW7wuXy21c66vBudMXQVAPgRnqqwgTH" },
      { "delegate": "tz1dbfppLAAxXZNtf2SDps7rch3qfUznKSoK" },
      { "delegate": "tz1THsLcunLo8CmDm9f2y1xHuXttXZCpyFnq",
        "reception_time": "2022-01-17T02:45:03.850-00:00",
        "included_in_blocks":
          [ "BL63ApBJKtRYqyS5nurS7sJX4eGoiQj7zCkTnZv9UXm3HtjrPSC" ] },
      { "delegate": "tz1S8e9GgdZG78XJRB3NqabfWeM37GnhZMWQ",
        "reception_time": "2022-01-17T02:45:03.850-00:00",
        "included_in_blocks":
          [ "BL63ApBJKtRYqyS5nurS7sJX4eGoiQj7zCkTnZv9UXm3HtjrPSC" ] },
      { "delegate": "tz1beersuEDv8Z7ngQ825xfbaJNS2EhXnyHR",
        "reception_time": "2022-01-17T02:45:03.854-00:00",
        "included_in_blocks":
          [ "BL63ApBJKtRYqyS5nurS7sJX4eGoiQj7zCkTnZv9UXm3HtjrPSC" ] },
      { "delegate": "tz1Scdr2HsZiQjc7bHMeBbmDRXYVvdhjJbBh",
        "reception_time": "2022-01-17T02:45:03.865-00:00",
        "included_in_blocks":
          [ "BL63ApBJKtRYqyS5nurS7sJX4eGoiQj7zCkTnZv9UXm3HtjrPSC" ] },
      { "delegate": "tz1P2Po7YM526ughEsRbY4oR9zaUPDZjxFrb",
        "reception_time": "2022-01-17T02:45:03.869-00:00",
        "included_in_blocks":
          [ "BL63ApBJKtRYqyS5nurS7sJX4eGoiQj7zCkTnZv9UXm3HtjrPSC" ] },
      { "delegate": "tz1MXFrtZoaXckE41bjUCSjAjAap3AFDSr3N",
        "reception_time": "2022-01-17T02:45:03.877-00:00",
        "included_in_blocks":
          [ "BL63ApBJKtRYqyS5nurS7sJX4eGoiQj7zCkTnZv9UXm3HtjrPSC" ] },
      { "delegate": "tz1LLNkQK4UQV6QcFShiXJ2vT2ELw449MzAA",
        "reception_time": "2022-01-17T02:45:03.880-00:00",
        "included_in_blocks":
          [ "BL63ApBJKtRYqyS5nurS7sJX4eGoiQj7zCkTnZv9UXm3HtjrPSC" ] },
      { "delegate": "tz1TXzyaKUA8wsWefdSnyaYFnV2M3vCV7er9",
        "reception_time": "2022-01-17T02:45:03.883-00:00",
        "included_in_blocks":
          [ "BL63ApBJKtRYqyS5nurS7sJX4eGoiQj7zCkTnZv9UXm3HtjrPSC" ] },
      { "delegate": "tz1eEnQhbwf6trb8Q8mPb2RaPkNk2rN7BKi8",
        "reception_time": "2022-01-17T02:45:03.887-00:00",
        "included_in_blocks":
          [ "BL63ApBJKtRYqyS5nurS7sJX4eGoiQj7zCkTnZv9UXm3HtjrPSC" ] },
      { "delegate": "tz1bsdrs36X5BTH83RHUBdUouKLJZK8d2oBa",
        "reception_time": "2022-01-17T02:45:04.143-00:00",
        "included_in_blocks":
          [ "BL63ApBJKtRYqyS5nurS7sJX4eGoiQj7zCkTnZv9UXm3HtjrPSC" ] },
      { "delegate": "tz3NxTnke1acr8o3h5y9ytf5awQBGNJUKzVU",
        "reception_time": "2022-01-17T02:45:04.199-00:00",
        "included_in_blocks":
          [ "BL63ApBJKtRYqyS5nurS7sJX4eGoiQj7zCkTnZv9UXm3HtjrPSC" ] },
      { "delegate": "tz3ZbP2pM3nwvXztbuMJwJnDvV5xdpU8UkkD",
        "reception_time": "2022-01-17T02:45:04.208-00:00",
        "included_in_blocks":
          [ "BL63ApBJKtRYqyS5nurS7sJX4eGoiQj7zCkTnZv9UXm3HtjrPSC" ] },
      { "delegate": "tz1irJKkXS2DBWkU1NnmFQx1c1L7pbGg4yhk",
        "reception_time": "2022-01-17T02:45:04.217-00:00",
        "included_in_blocks":
          [ "BL63ApBJKtRYqyS5nurS7sJX4eGoiQj7zCkTnZv9UXm3HtjrPSC" ] },
      { "delegate": "tz1aXD7Jigrt3PBYSpHSg5Rr33SexMmmM5Ys",
        "reception_time": "2022-01-17T02:45:04.227-00:00",
        "included_in_blocks":
          [ "BL63ApBJKtRYqyS5nurS7sJX4eGoiQj7zCkTnZv9UXm3HtjrPSC" ] },
      { "delegate": "tz3RKYFsLuQzKBtmYuLNas7uMu3AsYd4QdsA",
        "reception_time": "2022-01-17T02:45:04.271-00:00",
        "included_in_blocks":
          [ "BL63ApBJKtRYqyS5nurS7sJX4eGoiQj7zCkTnZv9UXm3HtjrPSC" ] },
      { "delegate": "tz1Ldzz6k1BHdhuKvAtMRX7h5kJSMHESMHLC",
        "reception_time": "2022-01-17T02:45:04.316-00:00",
        "included_in_blocks":
          [ "BL63ApBJKtRYqyS5nurS7sJX4eGoiQj7zCkTnZv9UXm3HtjrPSC" ] },
      { "delegate": "tz1TzaNn7wSQSP5gYPXCnNzBCpyMiidCq1PX",
        "reception_time": "2022-01-17T02:45:04.333-00:00",
        "included_in_blocks":
          [ "BL63ApBJKtRYqyS5nurS7sJX4eGoiQj7zCkTnZv9UXm3HtjrPSC" ] },
      { "delegate": "tz3hw2kqXhLUvY65ca1eety2oQTpAvd34R9Q",
        "reception_time": "2022-01-17T02:45:04.343-00:00",
        "included_in_blocks":
          [ "BL63ApBJKtRYqyS5nurS7sJX4eGoiQj7zCkTnZv9UXm3HtjrPSC" ] },
      { "delegate": "tz1VQnqCCqX4K5sP3FNkVSNKTdCAMJDd3E1n",
        "reception_time": "2022-01-17T02:45:04.365-00:00",
        "included_in_blocks":
          [ "BL63ApBJKtRYqyS5nurS7sJX4eGoiQj7zCkTnZv9UXm3HtjrPSC" ] },
      { "delegate": "tz1gUNyn3hmnEWqkusWPzxRaon1cs7ndWh7h",
        "reception_time": "2022-01-17T02:45:04.369-00:00",
        "included_in_blocks":
          [ "BL63ApBJKtRYqyS5nurS7sJX4eGoiQj7zCkTnZv9UXm3HtjrPSC" ] },
      { "delegate": "tz3Zhs2dygr55yHyQyKjntAtY9bgfhLZ4Xj1",
        "reception_time": "2022-01-17T02:45:04.382-00:00",
        "included_in_blocks":
          [ "BL63ApBJKtRYqyS5nurS7sJX4eGoiQj7zCkTnZv9UXm3HtjrPSC" ] },
      { "delegate": "tz3iJu5vrKZcsqRPs8yJ61UDoeEXZmtro4qh",
        "reception_time": "2022-01-17T02:45:04.391-00:00",
        "included_in_blocks":
          [ "BL63ApBJKtRYqyS5nurS7sJX4eGoiQj7zCkTnZv9UXm3HtjrPSC" ] },
      { "delegate": "tz3gtoUxdudfBRcNY7iVdKPHCYYX6xdPpoRS",
        "reception_time": "2022-01-17T02:45:04.440-00:00",
        "included_in_blocks":
          [ "BL63ApBJKtRYqyS5nurS7sJX4eGoiQj7zCkTnZv9UXm3HtjrPSC" ] },
      { "delegate": "tz1WCd2jm4uSt4vntk4vSuUWoZQGhLcDuR9q",
        "reception_time": "2022-01-17T02:45:04.444-00:00",
        "included_in_blocks":
          [ "BL63ApBJKtRYqyS5nurS7sJX4eGoiQj7zCkTnZv9UXm3HtjrPSC" ] },
      { "delegate": "tz3QSGPoRp3Kn7n3vY24eYeu3Peuqo45LQ4D",
        "reception_time": "2022-01-17T02:45:04.450-00:00",
        "included_in_blocks":
          [ "BL63ApBJKtRYqyS5nurS7sJX4eGoiQj7zCkTnZv9UXm3HtjrPSC" ] },
      { "delegate": "tz3S6BBeKgJGXxvLyZ1xzXzMPn11nnFtq5L9",
        "reception_time": "2022-01-17T02:45:04.472-00:00",
        "included_in_blocks":
          [ "BL63ApBJKtRYqyS5nurS7sJX4eGoiQj7zCkTnZv9UXm3HtjrPSC" ] },
      { "delegate": "tz1RCFbB9GpALpsZtu6J58sb74dm8qe6XBzv",
        "reception_time": "2022-01-17T02:45:04.495-00:00",
        "included_in_blocks":
          [ "BL63ApBJKtRYqyS5nurS7sJX4eGoiQj7zCkTnZv9UXm3HtjrPSC" ] },
      { "delegate": "tz1fPKAtsYydh4f1wfWNfeNxWYu72TmM48fu",
        "reception_time": "2022-01-17T02:45:04.501-00:00",
        "included_in_blocks":
          [ "BL63ApBJKtRYqyS5nurS7sJX4eGoiQj7zCkTnZv9UXm3HtjrPSC" ] },
      { "delegate": "tz1UJvHTgpVzcKWhTazGxVcn5wsHru5Gietg",
        "reception_time": "2022-01-17T02:45:04.512-00:00",
        "included_in_blocks":
          [ "BL63ApBJKtRYqyS5nurS7sJX4eGoiQj7zCkTnZv9UXm3HtjrPSC" ] },
      { "delegate": "tz3QT9dHYKDqh563chVa6za8526ys1UKfRfL",
        "reception_time": "2022-01-17T02:45:04.574-00:00",
        "included_in_blocks":
          [ "BL63ApBJKtRYqyS5nurS7sJX4eGoiQj7zCkTnZv9UXm3HtjrPSC" ] },
      { "delegate": "tz1PWCDnz783NNGGQjEFFsHtrcK5yBW4E2rm",
        "reception_time": "2022-01-17T02:45:04.593-00:00",
        "included_in_blocks":
          [ "BL63ApBJKtRYqyS5nurS7sJX4eGoiQj7zCkTnZv9UXm3HtjrPSC" ] },
      { "delegate": "tz1ia6jze3LrBGWJkaDmZ7ThJpPsYWh8D398",
        "reception_time": "2022-01-17T02:45:04.660-00:00",
        "included_in_blocks":
          [ "BL63ApBJKtRYqyS5nurS7sJX4eGoiQj7zCkTnZv9UXm3HtjrPSC" ] },
      { "delegate": "tz3bTdwZinP8U1JmSweNzVKhmwafqWmFWRfk",
        "reception_time": "2022-01-17T02:45:04.788-00:00",
        "included_in_blocks":
          [ "BL63ApBJKtRYqyS5nurS7sJX4eGoiQj7zCkTnZv9UXm3HtjrPSC" ] },
      { "delegate": "tz1dwu9aYb7CRNq4Y2zAjipdjFuSVKhHS8vA",
        "reception_time": "2022-01-17T02:45:04.792-00:00",
        "included_in_blocks":
          [ "BL63ApBJKtRYqyS5nurS7sJX4eGoiQj7zCkTnZv9UXm3HtjrPSC" ] },
      { "delegate": "tz1d6Fx42mYgVFnHUW8T8A7WBfJ6nD9pVok8",
        "reception_time": "2022-01-17T02:45:04.855-00:00",
        "included_in_blocks":
          [ "BL63ApBJKtRYqyS5nurS7sJX4eGoiQj7zCkTnZv9UXm3HtjrPSC" ] },
      { "delegate": "tz1TRqbYbUf2GyrjErf3hBzgBJPzW8y36qEs",
        "reception_time": "2022-01-17T02:45:04.865-00:00",
        "included_in_blocks":
          [ "BL63ApBJKtRYqyS5nurS7sJX4eGoiQj7zCkTnZv9UXm3HtjrPSC" ] },
      { "delegate": "tz3RB4aoyjov4KEVRbuhvQ1CKJgBJMWhaeB8",
        "reception_time": "2022-01-17T02:45:04.885-00:00",
        "included_in_blocks":
          [ "BL63ApBJKtRYqyS5nurS7sJX4eGoiQj7zCkTnZv9UXm3HtjrPSC" ] },
      { "delegate": "tz1VmiY38m3y95HqQLjMwqnMS7sdMfGomzKi",
        "reception_time": "2022-01-17T02:45:04.926-00:00",
        "included_in_blocks":
          [ "BL63ApBJKtRYqyS5nurS7sJX4eGoiQj7zCkTnZv9UXm3HtjrPSC" ] },
      { "delegate": "tz1NMNQYrYrfNpmUqQrMhJypf6ovnaDZhJHM",
        "reception_time": "2022-01-17T02:45:04.951-00:00",
        "included_in_blocks":
          [ "BL63ApBJKtRYqyS5nurS7sJX4eGoiQj7zCkTnZv9UXm3HtjrPSC" ] },
      { "delegate": "tz1MQJPGNMijnXnVoBENFz9rUhaPt3S7rWoz",
        "reception_time": "2022-01-17T02:45:04.962-00:00",
        "included_in_blocks":
          [ "BL63ApBJKtRYqyS5nurS7sJX4eGoiQj7zCkTnZv9UXm3HtjrPSC" ] },
      { "delegate": "tz1cSj7fTex3JPd1p1LN1fwek6AV1kH93Wwc",
        "reception_time": "2022-01-17T02:45:04.962-00:00",
        "included_in_blocks":
          [ "BL63ApBJKtRYqyS5nurS7sJX4eGoiQj7zCkTnZv9UXm3HtjrPSC" ] },
      { "delegate": "tz1hAYfexyzPGG6RhZZMpDvAHifubsbb6kgn",
        "reception_time": "2022-01-17T02:45:04.974-00:00",
        "included_in_blocks":
          [ "BL63ApBJKtRYqyS5nurS7sJX4eGoiQj7zCkTnZv9UXm3HtjrPSC" ] },
      { "delegate": "tz1gfArv665EUkSg2ojMBzcbfwuPxAvqPvjo",
        "reception_time": "2022-01-17T02:45:04.977-00:00",
        "included_in_blocks":
          [ "BL63ApBJKtRYqyS5nurS7sJX4eGoiQj7zCkTnZv9UXm3HtjrPSC" ] },
      { "delegate": "tz1S8MNvuFEUsWgjHvi3AxibRBf388NhT1q2",
        "reception_time": "2022-01-17T02:45:05.001-00:00",
        "included_in_blocks":
          [ "BL63ApBJKtRYqyS5nurS7sJX4eGoiQj7zCkTnZv9UXm3HtjrPSC" ] },
      { "delegate": "tz2FCNBrERXtaTtNX6iimR1UJ5JSDxvdHM93",
        "reception_time": "2022-01-17T02:45:05.005-00:00",
        "included_in_blocks":
          [ "BL63ApBJKtRYqyS5nurS7sJX4eGoiQj7zCkTnZv9UXm3HtjrPSC" ] },
      { "delegate": "tz1fwnfJNgiDACshK9avfRfFbMaXrs3ghoJa",
        "reception_time": "2022-01-17T02:45:05.137-00:00",
        "included_in_blocks":
          [ "BL63ApBJKtRYqyS5nurS7sJX4eGoiQj7zCkTnZv9UXm3HtjrPSC" ] },
      { "delegate": "tz1Tnjaxk6tbAeC2TmMApPh8UsrEVQvhHvx5",
        "reception_time": "2022-01-17T02:45:05.212-00:00",
        "included_in_blocks":
          [ "BL63ApBJKtRYqyS5nurS7sJX4eGoiQj7zCkTnZv9UXm3HtjrPSC" ] },
      { "delegate": "tz1ei4WtWEMEJekSv8qDnu9PExG6Q8HgRGr3",
        "reception_time": "2022-01-17T02:45:05.517-00:00",
        "included_in_blocks":
          [ "BL63ApBJKtRYqyS5nurS7sJX4eGoiQj7zCkTnZv9UXm3HtjrPSC" ] },
      { "delegate": "tz1PeZx7FXy7QRuMREGXGxeipb24RsMMzUNe",
        "reception_time": "2022-01-17T02:45:05.522-00:00",
        "included_in_blocks":
          [ "BL63ApBJKtRYqyS5nurS7sJX4eGoiQj7zCkTnZv9UXm3HtjrPSC" ] },
      { "delegate": "tz1cig1EHyvZd7J2k389moM9PxVgPQvmFkvi",
        "reception_time": "2022-01-17T02:45:05.686-00:00",
        "included_in_blocks":
          [ "BL63ApBJKtRYqyS5nurS7sJX4eGoiQj7zCkTnZv9UXm3HtjrPSC" ] },
      { "delegate": "tz1aRoaRhSpRYvFdyvgWLL6TGyRoGF51wDjM",
        "reception_time": "2022-01-17T02:45:05.710-00:00",
        "included_in_blocks":
          [ "BL63ApBJKtRYqyS5nurS7sJX4eGoiQj7zCkTnZv9UXm3HtjrPSC" ] },
      { "delegate": "tz1SohptP53wDPZhzTWzDUFAUcWF6DMBpaJV",
        "reception_time": "2022-01-17T02:45:05.714-00:00",
        "included_in_blocks":
          [ "BL63ApBJKtRYqyS5nurS7sJX4eGoiQj7zCkTnZv9UXm3HtjrPSC" ] },
      { "delegate": "tz1QXrzaHrGACVn15UiCg33aLCJ6npWdQb3J",
        "reception_time": "2022-01-17T02:45:05.765-00:00",
        "included_in_blocks":
          [ "BL63ApBJKtRYqyS5nurS7sJX4eGoiQj7zCkTnZv9UXm3HtjrPSC" ] },
      { "delegate": "tz1cYufsxHXJcvANhvS55h3aY32a9BAFB494",
        "reception_time": "2022-01-17T02:45:05.856-00:00",
        "included_in_blocks":
          [ "BL63ApBJKtRYqyS5nurS7sJX4eGoiQj7zCkTnZv9UXm3HtjrPSC" ] },
      { "delegate": "tz1SYq214SCBy9naR6cvycQsYcUGpBqQAE8d",
        "reception_time": "2022-01-17T02:45:05.911-00:00",
        "included_in_blocks":
          [ "BL63ApBJKtRYqyS5nurS7sJX4eGoiQj7zCkTnZv9UXm3HtjrPSC" ] },
      { "delegate": "tz3gLTu4Yxj8tPAcriQVUdxv6BY9QyvzU1az",
        "reception_time": "2022-01-17T02:45:05.920-00:00",
        "included_in_blocks":
          [ "BL63ApBJKtRYqyS5nurS7sJX4eGoiQj7zCkTnZv9UXm3HtjrPSC" ] },
      { "delegate": "tz3NDpRj6WBrJPikcPVHRBEjWKxFw3c6eQPS",
        "reception_time": "2022-01-17T02:45:05.937-00:00",
        "included_in_blocks":
          [ "BL63ApBJKtRYqyS5nurS7sJX4eGoiQj7zCkTnZv9UXm3HtjrPSC" ] },
      { "delegate": "tz3RDC3Jdn4j15J7bBHZd29EUee9gVB1CxD9",
        "reception_time": "2022-01-17T02:45:06.030-00:00",
        "included_in_blocks":
          [ "BL63ApBJKtRYqyS5nurS7sJX4eGoiQj7zCkTnZv9UXm3HtjrPSC" ] },
      { "delegate": "tz3bvNMQ95vfAYtG8193ymshqjSvmxiCUuR5",
        "reception_time": "2022-01-17T02:45:06.046-00:00",
        "included_in_blocks":
          [ "BL63ApBJKtRYqyS5nurS7sJX4eGoiQj7zCkTnZv9UXm3HtjrPSC" ] },
      { "delegate": "tz1NEKxGEHsFufk87CVZcrqWu8o22qh46GK6",
        "reception_time": "2022-01-17T02:45:06.052-00:00",
        "included_in_blocks":
          [ "BL63ApBJKtRYqyS5nurS7sJX4eGoiQj7zCkTnZv9UXm3HtjrPSC" ] },
      { "delegate": "tz3VEZ4k6a4Wx42iyev6i2aVAptTRLEAivNN",
        "reception_time": "2022-01-17T02:45:06.074-00:00",
        "included_in_blocks":
          [ "BL63ApBJKtRYqyS5nurS7sJX4eGoiQj7zCkTnZv9UXm3HtjrPSC" ] },
      { "delegate": "tz1Nf6tsK4G6bBqgSQERy4nUtkHNKUVdh7q1",
        "reception_time": "2022-01-17T02:45:06.079-00:00",
        "included_in_blocks":
          [ "BL63ApBJKtRYqyS5nurS7sJX4eGoiQj7zCkTnZv9UXm3HtjrPSC" ] },
      { "delegate": "tz1KfEsrtDaA1sX7vdM4qmEPWuSytuqCDp5j",
        "reception_time": "2022-01-17T02:45:06.110-00:00",
        "included_in_blocks":
          [ "BL63ApBJKtRYqyS5nurS7sJX4eGoiQj7zCkTnZv9UXm3HtjrPSC" ] },
      { "delegate": "tz1dRKU4FQ9QRRQPdaH4zCR6gmCmXfcvcgtB",
        "reception_time": "2022-01-17T02:45:06.755-00:00",
        "included_in_blocks":
          [ "BL63ApBJKtRYqyS5nurS7sJX4eGoiQj7zCkTnZv9UXm3HtjrPSC" ] },
      { "delegate": "tz1T7duV5gZWSTq4YpBGbXNLTfznCLDrFxvs",
        "reception_time": "2022-01-17T02:45:06.941-00:00",
        "included_in_blocks":
          [ "BL63ApBJKtRYqyS5nurS7sJX4eGoiQj7zCkTnZv9UXm3HtjrPSC" ] },
      { "delegate": "tz3NExpXn9aPNZPorRE4SdjJ2RGrfbJgMAaV",
        "reception_time": "2022-01-17T02:45:06.986-00:00",
        "included_in_blocks":
          [ "BL63ApBJKtRYqyS5nurS7sJX4eGoiQj7zCkTnZv9UXm3HtjrPSC" ] },
      { "delegate": "tz1ZcTRk5uxD86EFEn1vvNffWWqJy7q5eVhc",
        "reception_time": "2022-01-17T02:45:07.228-00:00",
        "included_in_blocks":
          [ "BL63ApBJKtRYqyS5nurS7sJX4eGoiQj7zCkTnZv9UXm3HtjrPSC" ] },
      { "delegate": "tz3UoffC7FG7zfpmvmjUmUeAaHvzdcUvAj6r",
        "reception_time": "2022-01-17T02:45:07.267-00:00",
        "included_in_blocks":
          [ "BL63ApBJKtRYqyS5nurS7sJX4eGoiQj7zCkTnZv9UXm3HtjrPSC" ] },
      { "delegate": "tz3WMqdzXqRWXwyvj5Hp2H7QEepaUuS7vd9K",
        "reception_time": "2022-01-17T02:45:07.385-00:00",
        "included_in_blocks":
          [ "BL63ApBJKtRYqyS5nurS7sJX4eGoiQj7zCkTnZv9UXm3HtjrPSC" ] },
      { "delegate": "tz1W5VkdB5s7ENMESVBtwyt9kyvLqPcUczRT",
        "reception_time": "2022-01-17T02:45:07.739-00:00",
        "included_in_blocks":
          [ "BL63ApBJKtRYqyS5nurS7sJX4eGoiQj7zCkTnZv9UXm3HtjrPSC" ] } ] }