{ "blocks":
    [ { "hash": "BMFRDGearqmxpZczNgE4KxRtufnZz499hTHCSkmTP9uazy74sx6",
        "delegate": "tz3QSGPoRp3Kn7n3vY24eYeu3Peuqo45LQ4D",
        "reception_time": "2022-01-17T03:46:45.291-00:00",
        "timestamp": "2022-01-17T03:46:40Z" } ],
  "endorsements":
    [ { "delegate": "tz1Zhv3RkfU2pHrmaiDyxp7kFZpZrUCu1CiF",
        "reception_time": "2022-01-17T03:46:45.172-00:00",
        "errors":
          [ { "kind": "temporary",
              "id": "proto.011-PtHangz2.prefilter.outdated_endorsement" } ],
        "included_in_blocks":
          [ "BL1v7G1qx45umdpJRHbTFVYk4rgUjQQbmMPiP5ZSFL1wYoKYPoE" ] },
      { "delegate": "tz1awXW7wuXy21c66vBudMXQVAPgRnqqwgTH" },
      { "delegate": "tz1TXzyaKUA8wsWefdSnyaYFnV2M3vCV7er9",
        "reception_time": "2022-01-17T03:46:46.629-00:00",
        "included_in_blocks":
          [ "BL1v7G1qx45umdpJRHbTFVYk4rgUjQQbmMPiP5ZSFL1wYoKYPoE" ] },
      { "delegate": "tz1Lhf4J9Qxoe3DZ2nfe8FGDnvVj7oKjnMY6",
        "reception_time": "2022-01-17T03:46:46.633-00:00",
        "included_in_blocks":
          [ "BL1v7G1qx45umdpJRHbTFVYk4rgUjQQbmMPiP5ZSFL1wYoKYPoE" ] },
      { "delegate": "tz1TRspM5SeZpaQUhzByXbEvqKF1vnCM2YTK",
        "reception_time": "2022-01-17T03:46:46.636-00:00",
        "included_in_blocks":
          [ "BL1v7G1qx45umdpJRHbTFVYk4rgUjQQbmMPiP5ZSFL1wYoKYPoE" ] },
      { "delegate": "tz1irJKkXS2DBWkU1NnmFQx1c1L7pbGg4yhk",
        "reception_time": "2022-01-17T03:46:46.640-00:00",
        "included_in_blocks":
          [ "BL1v7G1qx45umdpJRHbTFVYk4rgUjQQbmMPiP5ZSFL1wYoKYPoE" ] },
      { "delegate": "tz1eEnQhbwf6trb8Q8mPb2RaPkNk2rN7BKi8",
        "reception_time": "2022-01-17T03:46:46.644-00:00",
        "included_in_blocks":
          [ "BL1v7G1qx45umdpJRHbTFVYk4rgUjQQbmMPiP5ZSFL1wYoKYPoE" ] },
      { "delegate": "tz3QSGPoRp3Kn7n3vY24eYeu3Peuqo45LQ4D",
        "reception_time": "2022-01-17T03:46:46.653-00:00",
        "included_in_blocks":
          [ "BL1v7G1qx45umdpJRHbTFVYk4rgUjQQbmMPiP5ZSFL1wYoKYPoE" ] },
      { "delegate": "tz1RV1MBbZMR68tacosb7Mwj6LkbPSUS1er1",
        "reception_time": "2022-01-17T03:46:46.657-00:00",
        "included_in_blocks":
          [ "BL1v7G1qx45umdpJRHbTFVYk4rgUjQQbmMPiP5ZSFL1wYoKYPoE" ] },
      { "delegate": "tz3RKYFsLuQzKBtmYuLNas7uMu3AsYd4QdsA",
        "reception_time": "2022-01-17T03:46:46.671-00:00",
        "included_in_blocks":
          [ "BL1v7G1qx45umdpJRHbTFVYk4rgUjQQbmMPiP5ZSFL1wYoKYPoE" ] },
      { "delegate": "tz3gtoUxdudfBRcNY7iVdKPHCYYX6xdPpoRS",
        "reception_time": "2022-01-17T03:46:46.678-00:00",
        "included_in_blocks":
          [ "BL1v7G1qx45umdpJRHbTFVYk4rgUjQQbmMPiP5ZSFL1wYoKYPoE" ] },
      { "delegate": "tz3hw2kqXhLUvY65ca1eety2oQTpAvd34R9Q",
        "reception_time": "2022-01-17T03:46:46.692-00:00",
        "included_in_blocks":
          [ "BL1v7G1qx45umdpJRHbTFVYk4rgUjQQbmMPiP5ZSFL1wYoKYPoE" ] },
      { "delegate": "tz1MJx9vhaNRSimcuXPK2rW4fLccQnDAnVKJ",
        "reception_time": "2022-01-17T03:46:46.700-00:00",
        "included_in_blocks":
          [ "BL1v7G1qx45umdpJRHbTFVYk4rgUjQQbmMPiP5ZSFL1wYoKYPoE" ] },
      { "delegate": "tz1aXD7Jigrt3PBYSpHSg5Rr33SexMmmM5Ys",
        "reception_time": "2022-01-17T03:46:46.725-00:00",
        "included_in_blocks":
          [ "BL1v7G1qx45umdpJRHbTFVYk4rgUjQQbmMPiP5ZSFL1wYoKYPoE" ] },
      { "delegate": "tz1VQnqCCqX4K5sP3FNkVSNKTdCAMJDd3E1n",
        "reception_time": "2022-01-17T03:46:46.728-00:00",
        "included_in_blocks":
          [ "BL1v7G1qx45umdpJRHbTFVYk4rgUjQQbmMPiP5ZSFL1wYoKYPoE" ] },
      { "delegate": "tz1Ldzz6k1BHdhuKvAtMRX7h5kJSMHESMHLC",
        "reception_time": "2022-01-17T03:46:46.749-00:00",
        "included_in_blocks":
          [ "BL1v7G1qx45umdpJRHbTFVYk4rgUjQQbmMPiP5ZSFL1wYoKYPoE" ] },
      { "delegate": "tz1PWCDnz783NNGGQjEFFsHtrcK5yBW4E2rm",
        "reception_time": "2022-01-17T03:46:46.761-00:00",
        "included_in_blocks":
          [ "BL1v7G1qx45umdpJRHbTFVYk4rgUjQQbmMPiP5ZSFL1wYoKYPoE" ] },
      { "delegate": "tz1gUNyn3hmnEWqkusWPzxRaon1cs7ndWh7h",
        "reception_time": "2022-01-17T03:46:46.765-00:00",
        "included_in_blocks":
          [ "BL1v7G1qx45umdpJRHbTFVYk4rgUjQQbmMPiP5ZSFL1wYoKYPoE" ] },
      { "delegate": "tz1WCd2jm4uSt4vntk4vSuUWoZQGhLcDuR9q",
        "reception_time": "2022-01-17T03:46:46.769-00:00",
        "included_in_blocks":
          [ "BL1v7G1qx45umdpJRHbTFVYk4rgUjQQbmMPiP5ZSFL1wYoKYPoE" ] },
      { "delegate": "tz3QT9dHYKDqh563chVa6za8526ys1UKfRfL",
        "reception_time": "2022-01-17T03:46:46.777-00:00",
        "included_in_blocks":
          [ "BL1v7G1qx45umdpJRHbTFVYk4rgUjQQbmMPiP5ZSFL1wYoKYPoE" ] },
      { "delegate": "tz3NxTnke1acr8o3h5y9ytf5awQBGNJUKzVU",
        "reception_time": "2022-01-17T03:46:46.789-00:00",
        "included_in_blocks":
          [ "BL1v7G1qx45umdpJRHbTFVYk4rgUjQQbmMPiP5ZSFL1wYoKYPoE" ] },
      { "delegate": "tz3QCNyySViKHmeSr45kzDxzchys7NiXCWoa",
        "reception_time": "2022-01-17T03:46:46.810-00:00",
        "included_in_blocks":
          [ "BL1v7G1qx45umdpJRHbTFVYk4rgUjQQbmMPiP5ZSFL1wYoKYPoE" ] },
      { "delegate": "tz3S6BBeKgJGXxvLyZ1xzXzMPn11nnFtq5L9",
        "reception_time": "2022-01-17T03:46:46.832-00:00",
        "included_in_blocks":
          [ "BL1v7G1qx45umdpJRHbTFVYk4rgUjQQbmMPiP5ZSFL1wYoKYPoE" ] },
      { "delegate": "tz3iJu5vrKZcsqRPs8yJ61UDoeEXZmtro4qh",
        "reception_time": "2022-01-17T03:46:46.839-00:00",
        "included_in_blocks":
          [ "BL1v7G1qx45umdpJRHbTFVYk4rgUjQQbmMPiP5ZSFL1wYoKYPoE" ] },
      { "delegate": "tz3Zhs2dygr55yHyQyKjntAtY9bgfhLZ4Xj1",
        "reception_time": "2022-01-17T03:46:46.851-00:00",
        "included_in_blocks":
          [ "BL1v7G1qx45umdpJRHbTFVYk4rgUjQQbmMPiP5ZSFL1wYoKYPoE" ] },
      { "delegate": "tz1Kt4P8BCaP93AEV4eA7gmpRryWt5hznjCP",
        "reception_time": "2022-01-17T03:46:46.880-00:00",
        "included_in_blocks":
          [ "BL1v7G1qx45umdpJRHbTFVYk4rgUjQQbmMPiP5ZSFL1wYoKYPoE" ] },
      { "delegate": "tz1d6Fx42mYgVFnHUW8T8A7WBfJ6nD9pVok8",
        "reception_time": "2022-01-17T03:46:46.887-00:00",
        "included_in_blocks":
          [ "BL1v7G1qx45umdpJRHbTFVYk4rgUjQQbmMPiP5ZSFL1wYoKYPoE" ] },
      { "delegate": "tz1WnfXMPaNTBmH7DBPwqCWs9cPDJdkGBTZ8",
        "reception_time": "2022-01-17T03:46:46.905-00:00",
        "included_in_blocks":
          [ "BL1v7G1qx45umdpJRHbTFVYk4rgUjQQbmMPiP5ZSFL1wYoKYPoE" ] },
      { "delegate": "tz1SUgyRB8T5jXgXAwS33pgRHAKrafyg87Yc",
        "reception_time": "2022-01-17T03:46:46.956-00:00",
        "included_in_blocks":
          [ "BL1v7G1qx45umdpJRHbTFVYk4rgUjQQbmMPiP5ZSFL1wYoKYPoE" ] },
      { "delegate": "tz1MQJPGNMijnXnVoBENFz9rUhaPt3S7rWoz",
        "reception_time": "2022-01-17T03:46:46.970-00:00",
        "included_in_blocks":
          [ "BL1v7G1qx45umdpJRHbTFVYk4rgUjQQbmMPiP5ZSFL1wYoKYPoE" ] },
      { "delegate": "tz1MQMiZHV8q4tTwUMWmS5Y3kaP6J2136iXr",
        "reception_time": "2022-01-17T03:46:46.971-00:00",
        "included_in_blocks":
          [ "BL1v7G1qx45umdpJRHbTFVYk4rgUjQQbmMPiP5ZSFL1wYoKYPoE" ] },
      { "delegate": "tz3bTdwZinP8U1JmSweNzVKhmwafqWmFWRfk",
        "reception_time": "2022-01-17T03:46:46.999-00:00",
        "included_in_blocks":
          [ "BL1v7G1qx45umdpJRHbTFVYk4rgUjQQbmMPiP5ZSFL1wYoKYPoE" ] },
      { "delegate": "tz3RB4aoyjov4KEVRbuhvQ1CKJgBJMWhaeB8",
        "reception_time": "2022-01-17T03:46:47.010-00:00",
        "included_in_blocks":
          [ "BL1v7G1qx45umdpJRHbTFVYk4rgUjQQbmMPiP5ZSFL1wYoKYPoE" ] },
      { "delegate": "tz1RCFbB9GpALpsZtu6J58sb74dm8qe6XBzv",
        "reception_time": "2022-01-17T03:46:47.070-00:00",
        "included_in_blocks":
          [ "BL1v7G1qx45umdpJRHbTFVYk4rgUjQQbmMPiP5ZSFL1wYoKYPoE" ] },
      { "delegate": "tz1gfArv665EUkSg2ojMBzcbfwuPxAvqPvjo",
        "reception_time": "2022-01-17T03:46:47.177-00:00",
        "included_in_blocks":
          [ "BL1v7G1qx45umdpJRHbTFVYk4rgUjQQbmMPiP5ZSFL1wYoKYPoE" ] },
      { "delegate": "tz1Nf6tsK4G6bBqgSQERy4nUtkHNKUVdh7q1",
        "reception_time": "2022-01-17T03:46:47.214-00:00",
        "included_in_blocks":
          [ "BL1v7G1qx45umdpJRHbTFVYk4rgUjQQbmMPiP5ZSFL1wYoKYPoE" ] },
      { "delegate": "tz1S8MNvuFEUsWgjHvi3AxibRBf388NhT1q2",
        "reception_time": "2022-01-17T03:46:47.239-00:00",
        "included_in_blocks":
          [ "BL1v7G1qx45umdpJRHbTFVYk4rgUjQQbmMPiP5ZSFL1wYoKYPoE" ] },
      { "delegate": "tz2FCNBrERXtaTtNX6iimR1UJ5JSDxvdHM93",
        "reception_time": "2022-01-17T03:46:47.292-00:00",
        "included_in_blocks":
          [ "BL1v7G1qx45umdpJRHbTFVYk4rgUjQQbmMPiP5ZSFL1wYoKYPoE" ] },
      { "delegate": "tz1RpeqCseogMpCPXpyGjhmLH9i9DhqJ8cUR",
        "reception_time": "2022-01-17T03:46:47.334-00:00",
        "included_in_blocks":
          [ "BL1v7G1qx45umdpJRHbTFVYk4rgUjQQbmMPiP5ZSFL1wYoKYPoE" ] },
      { "delegate": "tz1Tnjaxk6tbAeC2TmMApPh8UsrEVQvhHvx5",
        "reception_time": "2022-01-17T03:46:47.356-00:00",
        "included_in_blocks":
          [ "BL1v7G1qx45umdpJRHbTFVYk4rgUjQQbmMPiP5ZSFL1wYoKYPoE" ] },
      { "delegate": "tz1fwnfJNgiDACshK9avfRfFbMaXrs3ghoJa",
        "reception_time": "2022-01-17T03:46:47.384-00:00",
        "included_in_blocks":
          [ "BL1v7G1qx45umdpJRHbTFVYk4rgUjQQbmMPiP5ZSFL1wYoKYPoE" ] },
      { "delegate": "tz1RSRhQCg3KYjr9QPFCLgGKciaB93oGTRh2",
        "reception_time": "2022-01-17T03:46:47.418-00:00",
        "included_in_blocks":
          [ "BL1v7G1qx45umdpJRHbTFVYk4rgUjQQbmMPiP5ZSFL1wYoKYPoE" ] },
      { "delegate": "tz1WBfwbT66FC6BTLexc2BoyCCBM9LG7pnVW",
        "reception_time": "2022-01-17T03:46:47.440-00:00",
        "included_in_blocks":
          [ "BL1v7G1qx45umdpJRHbTFVYk4rgUjQQbmMPiP5ZSFL1wYoKYPoE" ] },
      { "delegate": "tz1TRqbYbUf2GyrjErf3hBzgBJPzW8y36qEs",
        "reception_time": "2022-01-17T03:46:47.477-00:00",
        "included_in_blocks":
          [ "BL1v7G1qx45umdpJRHbTFVYk4rgUjQQbmMPiP5ZSFL1wYoKYPoE" ] },
      { "delegate": "tz1SYq214SCBy9naR6cvycQsYcUGpBqQAE8d",
        "reception_time": "2022-01-17T03:46:47.481-00:00",
        "included_in_blocks":
          [ "BL1v7G1qx45umdpJRHbTFVYk4rgUjQQbmMPiP5ZSFL1wYoKYPoE" ] },
      { "delegate": "tz1dNVDWPf3Q59SdJqnjdnu277iyvReiRS9M",
        "reception_time": "2022-01-17T03:46:47.488-00:00",
        "included_in_blocks":
          [ "BL1v7G1qx45umdpJRHbTFVYk4rgUjQQbmMPiP5ZSFL1wYoKYPoE" ] },
      { "delegate": "tz1abmz7jiCV2GH2u81LRrGgAFFgvQgiDiaf",
        "reception_time": "2022-01-17T03:46:47.488-00:00",
        "included_in_blocks":
          [ "BL1v7G1qx45umdpJRHbTFVYk4rgUjQQbmMPiP5ZSFL1wYoKYPoE" ] },
      { "delegate": "tz1ei4WtWEMEJekSv8qDnu9PExG6Q8HgRGr3",
        "reception_time": "2022-01-17T03:46:47.567-00:00",
        "included_in_blocks":
          [ "BL1v7G1qx45umdpJRHbTFVYk4rgUjQQbmMPiP5ZSFL1wYoKYPoE" ] },
      { "delegate": "tz1LXpCpLNRhP7G9Yw8dRhWd8ZfH8929uvGo",
        "reception_time": "2022-01-17T03:46:47.570-00:00",
        "included_in_blocks":
          [ "BL1v7G1qx45umdpJRHbTFVYk4rgUjQQbmMPiP5ZSFL1wYoKYPoE" ] },
      { "delegate": "tz1Mc61yajNASzh5KWZFtYs4i7EJbzAxQC4K",
        "reception_time": "2022-01-17T03:46:47.630-00:00",
        "included_in_blocks":
          [ "BL1v7G1qx45umdpJRHbTFVYk4rgUjQQbmMPiP5ZSFL1wYoKYPoE" ] },
      { "delegate": "tz1LmaFsWRkjr7QMCx5PtV6xTUz3AmEpKQiF",
        "reception_time": "2022-01-17T03:46:47.725-00:00",
        "included_in_blocks":
          [ "BL1v7G1qx45umdpJRHbTFVYk4rgUjQQbmMPiP5ZSFL1wYoKYPoE" ] },
      { "delegate": "tz1Vd1rXpV8hTHbFXCXN3c3qzCsgcU5BZw1e",
        "reception_time": "2022-01-17T03:46:47.784-00:00",
        "included_in_blocks":
          [ "BL1v7G1qx45umdpJRHbTFVYk4rgUjQQbmMPiP5ZSFL1wYoKYPoE" ] },
      { "delegate": "tz3UoffC7FG7zfpmvmjUmUeAaHvzdcUvAj6r",
        "reception_time": "2022-01-17T03:46:47.810-00:00",
        "included_in_blocks":
          [ "BL1v7G1qx45umdpJRHbTFVYk4rgUjQQbmMPiP5ZSFL1wYoKYPoE" ] },
      { "delegate": "tz1g8vkmcde6sWKaG2NN9WKzCkDM6Rziq194",
        "reception_time": "2022-01-17T03:46:47.926-00:00",
        "included_in_blocks":
          [ "BL1v7G1qx45umdpJRHbTFVYk4rgUjQQbmMPiP5ZSFL1wYoKYPoE" ] },
      { "delegate": "tz1UvkANVPWppVgMkLnvN7BwYZsCP7vm6NVd",
        "reception_time": "2022-01-17T03:46:47.928-00:00",
        "included_in_blocks":
          [ "BL1v7G1qx45umdpJRHbTFVYk4rgUjQQbmMPiP5ZSFL1wYoKYPoE" ] },
      { "delegate": "tz1aRoaRhSpRYvFdyvgWLL6TGyRoGF51wDjM",
        "reception_time": "2022-01-17T03:46:47.943-00:00",
        "included_in_blocks":
          [ "BL1v7G1qx45umdpJRHbTFVYk4rgUjQQbmMPiP5ZSFL1wYoKYPoE" ] },
      { "delegate": "tz3NDpRj6WBrJPikcPVHRBEjWKxFw3c6eQPS",
        "reception_time": "2022-01-17T03:46:48.010-00:00",
        "included_in_blocks":
          [ "BL1v7G1qx45umdpJRHbTFVYk4rgUjQQbmMPiP5ZSFL1wYoKYPoE" ] },
      { "delegate": "tz1KfEsrtDaA1sX7vdM4qmEPWuSytuqCDp5j",
        "reception_time": "2022-01-17T03:46:48.012-00:00",
        "included_in_blocks":
          [ "BL1v7G1qx45umdpJRHbTFVYk4rgUjQQbmMPiP5ZSFL1wYoKYPoE" ] },
      { "delegate": "tz1V3yg82mcrPJbegqVCPn6bC8w1CSTRp3f8",
        "reception_time": "2022-01-17T03:46:48.106-00:00",
        "included_in_blocks":
          [ "BL1v7G1qx45umdpJRHbTFVYk4rgUjQQbmMPiP5ZSFL1wYoKYPoE" ] },
      { "delegate": "tz3VEZ4k6a4Wx42iyev6i2aVAptTRLEAivNN",
        "reception_time": "2022-01-17T03:46:48.312-00:00",
        "included_in_blocks":
          [ "BL1v7G1qx45umdpJRHbTFVYk4rgUjQQbmMPiP5ZSFL1wYoKYPoE" ] },
      { "delegate": "tz3WMqdzXqRWXwyvj5Hp2H7QEepaUuS7vd9K",
        "reception_time": "2022-01-17T03:46:48.345-00:00",
        "included_in_blocks":
          [ "BL1v7G1qx45umdpJRHbTFVYk4rgUjQQbmMPiP5ZSFL1wYoKYPoE" ] },
      { "delegate": "tz3RDC3Jdn4j15J7bBHZd29EUee9gVB1CxD9",
        "reception_time": "2022-01-17T03:46:48.427-00:00",
        "included_in_blocks":
          [ "BL1v7G1qx45umdpJRHbTFVYk4rgUjQQbmMPiP5ZSFL1wYoKYPoE" ] },
      { "delegate": "tz3bvNMQ95vfAYtG8193ymshqjSvmxiCUuR5",
        "reception_time": "2022-01-17T03:46:48.435-00:00",
        "included_in_blocks":
          [ "BL1v7G1qx45umdpJRHbTFVYk4rgUjQQbmMPiP5ZSFL1wYoKYPoE" ] },
      { "delegate": "tz1T7duV5gZWSTq4YpBGbXNLTfznCLDrFxvs",
        "reception_time": "2022-01-17T03:46:48.609-00:00",
        "included_in_blocks":
          [ "BL1v7G1qx45umdpJRHbTFVYk4rgUjQQbmMPiP5ZSFL1wYoKYPoE" ] },
      { "delegate": "tz1WvL7MKyCuUHfC3FxPFyiXcy8hHTBT3vjE",
        "reception_time": "2022-01-17T03:46:48.706-00:00",
        "included_in_blocks":
          [ "BL1v7G1qx45umdpJRHbTFVYk4rgUjQQbmMPiP5ZSFL1wYoKYPoE" ] },
      { "delegate": "tz1dRKU4FQ9QRRQPdaH4zCR6gmCmXfcvcgtB",
        "reception_time": "2022-01-17T03:46:48.790-00:00",
        "included_in_blocks":
          [ "BL1v7G1qx45umdpJRHbTFVYk4rgUjQQbmMPiP5ZSFL1wYoKYPoE" ] },
      { "delegate": "tz1QXrzaHrGACVn15UiCg33aLCJ6npWdQb3J",
        "reception_time": "2022-01-17T03:46:48.938-00:00",
        "included_in_blocks":
          [ "BL1v7G1qx45umdpJRHbTFVYk4rgUjQQbmMPiP5ZSFL1wYoKYPoE" ] },
      { "delegate": "tz3NExpXn9aPNZPorRE4SdjJ2RGrfbJgMAaV",
        "reception_time": "2022-01-17T03:46:48.977-00:00",
        "included_in_blocks":
          [ "BL1v7G1qx45umdpJRHbTFVYk4rgUjQQbmMPiP5ZSFL1wYoKYPoE" ] },
      { "delegate": "tz1ZcTRk5uxD86EFEn1vvNffWWqJy7q5eVhc",
        "reception_time": "2022-01-17T03:46:49.285-00:00",
        "included_in_blocks":
          [ "BL1v7G1qx45umdpJRHbTFVYk4rgUjQQbmMPiP5ZSFL1wYoKYPoE" ] },
      { "delegate": "tz1Zcxkfa5jKrRbBThG765GP29bUCU3C4ok5",
        "reception_time": "2022-01-17T03:46:49.311-00:00",
        "included_in_blocks":
          [ "BL1v7G1qx45umdpJRHbTFVYk4rgUjQQbmMPiP5ZSFL1wYoKYPoE" ] },
      { "delegate": "tz1PFeoTuFen8jAMRHajBySNyCwLmY5RqF9M",
        "reception_time": "2022-01-17T03:46:49.359-00:00",
        "included_in_blocks":
          [ "BL1v7G1qx45umdpJRHbTFVYk4rgUjQQbmMPiP5ZSFL1wYoKYPoE" ] },
      { "delegate": "tz1W5VkdB5s7ENMESVBtwyt9kyvLqPcUczRT",
        "reception_time": "2022-01-17T03:46:49.724-00:00",
        "included_in_blocks":
          [ "BL1v7G1qx45umdpJRHbTFVYk4rgUjQQbmMPiP5ZSFL1wYoKYPoE" ] },
      { "delegate": "tz1Z9M4biBHSiH38k5ciRMjR5bgk89yEgLTz",
        "reception_time": "2022-01-17T03:46:49.804-00:00",
        "included_in_blocks":
          [ "BL1v7G1qx45umdpJRHbTFVYk4rgUjQQbmMPiP5ZSFL1wYoKYPoE" ] },
      { "delegate": "tz1acZQd7TdfoiUnD2czHnTHB2TaJQP6gdqo",
        "reception_time": "2022-01-17T03:46:49.919-00:00",
        "included_in_blocks":
          [ "BL1v7G1qx45umdpJRHbTFVYk4rgUjQQbmMPiP5ZSFL1wYoKYPoE" ] },
      { "delegate": "tz1eVaNx3gCmG1EsLjijkmgAxdLYVf6Bf5Sq",
        "reception_time": "2022-01-17T03:46:50.782-00:00",
        "included_in_blocks":
          [ "BL1v7G1qx45umdpJRHbTFVYk4rgUjQQbmMPiP5ZSFL1wYoKYPoE" ] },
      { "delegate": "tz1WnyXakHZKotpQHxevTnLmomz5rTwdiccy",
        "reception_time": "2022-01-17T03:46:53.276-00:00",
        "included_in_blocks":
          [ "BL1v7G1qx45umdpJRHbTFVYk4rgUjQQbmMPiP5ZSFL1wYoKYPoE" ] },
      { "delegate": "tz1NpWrAyDL9k2Lmnyxcgr9xuJakbBxdq7FB",
        "reception_time": "2022-01-17T03:46:54.074-00:00",
        "included_in_blocks":
          [ "BL1v7G1qx45umdpJRHbTFVYk4rgUjQQbmMPiP5ZSFL1wYoKYPoE" ] },
      { "delegate": "tz2BzJTyoQp8fNbfhWD4YQgH9JJHDgSGzpdG",
        "reception_time": "2022-01-17T03:46:55.046-00:00",
        "included_in_blocks":
          [ "BL1v7G1qx45umdpJRHbTFVYk4rgUjQQbmMPiP5ZSFL1wYoKYPoE" ] } ] }