{ "blocks":
    [ { "hash": "BMZFGe2wXRoZBM21b7Rz3EASWsA6Q5BjYG49pwCHErsGgZsa6PK",
        "delegate": "tz1aRoaRhSpRYvFdyvgWLL6TGyRoGF51wDjM",
        "reception_time": "2022-01-17T02:35:11.607-00:00",
        "timestamp": "2022-01-17T02:35:00Z" } ],
  "endorsements":
    [ { "delegate": "tz1awXW7wuXy21c66vBudMXQVAPgRnqqwgTH" },
      { "delegate": "tz1RjoHc98dBoqaH2jawF62XNKh7YsHwbkEv" },
      { "delegate": "tz1NpWrAyDL9k2Lmnyxcgr9xuJakbBxdq7FB",
        "reception_time": "2022-01-17T02:35:24.541-00:00",
        "included_in_blocks":
          [ "BLNaH3QR7TjuUwHzHc6uco5NSFpaPEGFJxywv3YmGjAu8xj42WZ" ] },
      { "delegate": "tz1R2KrxRcghJgjQdTrUPwwMKtT9RLMmAAJV",
        "reception_time": "2022-01-17T02:35:19.536-00:00",
        "included_in_blocks":
          [ "BLNaH3QR7TjuUwHzHc6uco5NSFpaPEGFJxywv3YmGjAu8xj42WZ" ] },
      { "delegate": "tz1LVqmufjrmV67vNmZWXRDPMwSCh7mLBnS3",
        "reception_time": "2022-01-17T02:35:17.199-00:00",
        "included_in_blocks":
          [ "BLNaH3QR7TjuUwHzHc6uco5NSFpaPEGFJxywv3YmGjAu8xj42WZ" ] },
      { "delegate": "tz1aJS7Pk9uWR3wWyFf1i3RwhYxN84G7stom",
        "reception_time": "2022-01-17T02:35:17.145-00:00",
        "included_in_blocks":
          [ "BLNaH3QR7TjuUwHzHc6uco5NSFpaPEGFJxywv3YmGjAu8xj42WZ" ] },
      { "delegate": "tz1ZcTRk5uxD86EFEn1vvNffWWqJy7q5eVhc",
        "reception_time": "2022-01-17T02:35:15.708-00:00",
        "included_in_blocks":
          [ "BLNaH3QR7TjuUwHzHc6uco5NSFpaPEGFJxywv3YmGjAu8xj42WZ" ] },
      { "delegate": "tz3NExpXn9aPNZPorRE4SdjJ2RGrfbJgMAaV",
        "reception_time": "2022-01-17T02:35:15.865-00:00",
        "included_in_blocks":
          [ "BLNaH3QR7TjuUwHzHc6uco5NSFpaPEGFJxywv3YmGjAu8xj42WZ" ] },
      { "delegate": "tz1dRKU4FQ9QRRQPdaH4zCR6gmCmXfcvcgtB",
        "reception_time": "2022-01-17T02:35:14.952-00:00",
        "included_in_blocks":
          [ "BLNaH3QR7TjuUwHzHc6uco5NSFpaPEGFJxywv3YmGjAu8xj42WZ" ] },
      { "delegate": "tz3bvNMQ95vfAYtG8193ymshqjSvmxiCUuR5",
        "reception_time": "2022-01-17T02:35:15.072-00:00",
        "included_in_blocks":
          [ "BLNaH3QR7TjuUwHzHc6uco5NSFpaPEGFJxywv3YmGjAu8xj42WZ" ] },
      { "delegate": "tz3NDpRj6WBrJPikcPVHRBEjWKxFw3c6eQPS",
        "reception_time": "2022-01-17T02:35:15.088-00:00",
        "included_in_blocks":
          [ "BLNaH3QR7TjuUwHzHc6uco5NSFpaPEGFJxywv3YmGjAu8xj42WZ" ] },
      { "delegate": "tz3VEZ4k6a4Wx42iyev6i2aVAptTRLEAivNN",
        "reception_time": "2022-01-17T02:35:15.189-00:00",
        "included_in_blocks":
          [ "BLNaH3QR7TjuUwHzHc6uco5NSFpaPEGFJxywv3YmGjAu8xj42WZ" ] },
      { "delegate": "tz1g8vkmcde6sWKaG2NN9WKzCkDM6Rziq194",
        "reception_time": "2022-01-17T02:35:15.439-00:00",
        "included_in_blocks":
          [ "BLNaH3QR7TjuUwHzHc6uco5NSFpaPEGFJxywv3YmGjAu8xj42WZ" ] },
      { "delegate": "tz1T7duV5gZWSTq4YpBGbXNLTfznCLDrFxvs",
        "reception_time": "2022-01-17T02:35:15.148-00:00",
        "included_in_blocks":
          [ "BLNaH3QR7TjuUwHzHc6uco5NSFpaPEGFJxywv3YmGjAu8xj42WZ" ] },
      { "delegate": "tz3WMqdzXqRWXwyvj5Hp2H7QEepaUuS7vd9K",
        "reception_time": "2022-01-17T02:35:14.983-00:00",
        "included_in_blocks":
          [ "BLNaH3QR7TjuUwHzHc6uco5NSFpaPEGFJxywv3YmGjAu8xj42WZ" ] },
      { "delegate": "tz1bTpviNnyx2PXsNmGpCQTMQsGoYordkUoA",
        "reception_time": "2022-01-17T02:35:15.238-00:00",
        "included_in_blocks":
          [ "BLNaH3QR7TjuUwHzHc6uco5NSFpaPEGFJxywv3YmGjAu8xj42WZ" ] },
      { "delegate": "tz1NRGxXV9h6SdNaZLcgmjuLx3hyy2f8YoGN",
        "reception_time": "2022-01-17T02:35:14.789-00:00",
        "included_in_blocks":
          [ "BLNaH3QR7TjuUwHzHc6uco5NSFpaPEGFJxywv3YmGjAu8xj42WZ" ] },
      { "delegate": "tz3UoffC7FG7zfpmvmjUmUeAaHvzdcUvAj6r",
        "reception_time": "2022-01-17T02:35:14.620-00:00",
        "included_in_blocks":
          [ "BLNaH3QR7TjuUwHzHc6uco5NSFpaPEGFJxywv3YmGjAu8xj42WZ" ] },
      { "delegate": "tz3RB4aoyjov4KEVRbuhvQ1CKJgBJMWhaeB8",
        "reception_time": "2022-01-17T02:35:14.678-00:00",
        "included_in_blocks":
          [ "BLNaH3QR7TjuUwHzHc6uco5NSFpaPEGFJxywv3YmGjAu8xj42WZ" ] },
      { "delegate": "tz1iEWcNL383qiDJ3Q3qt5W2T4aSKUbEU4An",
        "reception_time": "2022-01-17T02:35:14.503-00:00",
        "included_in_blocks":
          [ "BLNaH3QR7TjuUwHzHc6uco5NSFpaPEGFJxywv3YmGjAu8xj42WZ" ] },
      { "delegate": "tz1gfArv665EUkSg2ojMBzcbfwuPxAvqPvjo",
        "reception_time": "2022-01-17T02:35:14.816-00:00",
        "included_in_blocks":
          [ "BLNaH3QR7TjuUwHzHc6uco5NSFpaPEGFJxywv3YmGjAu8xj42WZ" ] },
      { "delegate": "tz1NEKxGEHsFufk87CVZcrqWu8o22qh46GK6",
        "reception_time": "2022-01-17T02:35:14.614-00:00",
        "included_in_blocks":
          [ "BLNaH3QR7TjuUwHzHc6uco5NSFpaPEGFJxywv3YmGjAu8xj42WZ" ] },
      { "delegate": "tz1Nf6tsK4G6bBqgSQERy4nUtkHNKUVdh7q1",
        "reception_time": "2022-01-17T02:35:14.198-00:00",
        "included_in_blocks":
          [ "BLNaH3QR7TjuUwHzHc6uco5NSFpaPEGFJxywv3YmGjAu8xj42WZ" ] },
      { "delegate": "tz1KfEsrtDaA1sX7vdM4qmEPWuSytuqCDp5j",
        "reception_time": "2022-01-17T02:35:14.130-00:00",
        "included_in_blocks":
          [ "BLNaH3QR7TjuUwHzHc6uco5NSFpaPEGFJxywv3YmGjAu8xj42WZ" ] },
      { "delegate": "tz1SohptP53wDPZhzTWzDUFAUcWF6DMBpaJV",
        "reception_time": "2022-01-17T02:35:14.363-00:00",
        "included_in_blocks":
          [ "BLNaH3QR7TjuUwHzHc6uco5NSFpaPEGFJxywv3YmGjAu8xj42WZ" ] },
      { "delegate": "tz1TEc75UKXv4W5cwi14Na3NtqFD51yKQi7h",
        "reception_time": "2022-01-17T02:35:14.124-00:00",
        "included_in_blocks":
          [ "BLNaH3QR7TjuUwHzHc6uco5NSFpaPEGFJxywv3YmGjAu8xj42WZ" ] },
      { "delegate": "tz2FCNBrERXtaTtNX6iimR1UJ5JSDxvdHM93",
        "reception_time": "2022-01-17T02:35:13.838-00:00",
        "included_in_blocks":
          [ "BLNaH3QR7TjuUwHzHc6uco5NSFpaPEGFJxywv3YmGjAu8xj42WZ" ] },
      { "delegate": "tz1aRoaRhSpRYvFdyvgWLL6TGyRoGF51wDjM",
        "reception_time": "2022-01-17T02:35:14.047-00:00",
        "included_in_blocks":
          [ "BLNaH3QR7TjuUwHzHc6uco5NSFpaPEGFJxywv3YmGjAu8xj42WZ" ] },
      { "delegate": "tz3ZbP2pM3nwvXztbuMJwJnDvV5xdpU8UkkD",
        "reception_time": "2022-01-17T02:35:13.002-00:00",
        "included_in_blocks":
          [ "BLNaH3QR7TjuUwHzHc6uco5NSFpaPEGFJxywv3YmGjAu8xj42WZ" ] },
      { "delegate": "tz1VmiY38m3y95HqQLjMwqnMS7sdMfGomzKi",
        "reception_time": "2022-01-17T02:35:13.276-00:00",
        "included_in_blocks":
          [ "BLNaH3QR7TjuUwHzHc6uco5NSFpaPEGFJxywv3YmGjAu8xj42WZ" ] },
      { "delegate": "tz1iPHM2Xx2hwmzcr1EG1zzrV6oKafVoA91m",
        "reception_time": "2022-01-17T02:35:13.359-00:00",
        "included_in_blocks":
          [ "BLNaH3QR7TjuUwHzHc6uco5NSFpaPEGFJxywv3YmGjAu8xj42WZ" ] },
      { "delegate": "tz1TzaNn7wSQSP5gYPXCnNzBCpyMiidCq1PX",
        "reception_time": "2022-01-17T02:35:13.006-00:00",
        "included_in_blocks":
          [ "BLNaH3QR7TjuUwHzHc6uco5NSFpaPEGFJxywv3YmGjAu8xj42WZ" ] },
      { "delegate": "tz1gUNyn3hmnEWqkusWPzxRaon1cs7ndWh7h",
        "reception_time": "2022-01-17T02:35:13.353-00:00",
        "included_in_blocks":
          [ "BLNaH3QR7TjuUwHzHc6uco5NSFpaPEGFJxywv3YmGjAu8xj42WZ" ] },
      { "delegate": "tz1Ldzz6k1BHdhuKvAtMRX7h5kJSMHESMHLC",
        "reception_time": "2022-01-17T02:35:12.877-00:00",
        "included_in_blocks":
          [ "BLNaH3QR7TjuUwHzHc6uco5NSFpaPEGFJxywv3YmGjAu8xj42WZ" ] },
      { "delegate": "tz3RDC3Jdn4j15J7bBHZd29EUee9gVB1CxD9",
        "reception_time": "2022-01-17T02:35:13.956-00:00",
        "included_in_blocks":
          [ "BLNaH3QR7TjuUwHzHc6uco5NSFpaPEGFJxywv3YmGjAu8xj42WZ" ] },
      { "delegate": "tz1ZPh7XfUaJXUDvkrBxmS1BjEM1i62hiPpM",
        "reception_time": "2022-01-17T02:35:12.471-00:00",
        "included_in_blocks":
          [ "BLNaH3QR7TjuUwHzHc6uco5NSFpaPEGFJxywv3YmGjAu8xj42WZ" ] },
      { "delegate": "tz1P2Po7YM526ughEsRbY4oR9zaUPDZjxFrb",
        "reception_time": "2022-01-17T02:35:12.444-00:00",
        "included_in_blocks":
          [ "BLNaH3QR7TjuUwHzHc6uco5NSFpaPEGFJxywv3YmGjAu8xj42WZ" ] },
      { "delegate": "tz1STeamwbp68THcny9zk3LsbG3H36DMvbRK",
        "reception_time": "2022-01-17T02:35:12.460-00:00",
        "included_in_blocks":
          [ "BLNaH3QR7TjuUwHzHc6uco5NSFpaPEGFJxywv3YmGjAu8xj42WZ" ] },
      { "delegate": "tz1ei4WtWEMEJekSv8qDnu9PExG6Q8HgRGr3",
        "reception_time": "2022-01-17T02:35:13.809-00:00",
        "included_in_blocks":
          [ "BLNaH3QR7TjuUwHzHc6uco5NSFpaPEGFJxywv3YmGjAu8xj42WZ" ] },
      { "delegate": "tz3Zhs2dygr55yHyQyKjntAtY9bgfhLZ4Xj1",
        "reception_time": "2022-01-17T02:35:13.087-00:00",
        "included_in_blocks":
          [ "BLNaH3QR7TjuUwHzHc6uco5NSFpaPEGFJxywv3YmGjAu8xj42WZ" ] },
      { "delegate": "tz1MXFrtZoaXckE41bjUCSjAjAap3AFDSr3N",
        "reception_time": "2022-01-17T02:35:12.467-00:00",
        "included_in_blocks":
          [ "BLNaH3QR7TjuUwHzHc6uco5NSFpaPEGFJxywv3YmGjAu8xj42WZ" ] },
      { "delegate": "tz3iJu5vrKZcsqRPs8yJ61UDoeEXZmtro4qh",
        "reception_time": "2022-01-17T02:35:13.077-00:00",
        "included_in_blocks":
          [ "BLNaH3QR7TjuUwHzHc6uco5NSFpaPEGFJxywv3YmGjAu8xj42WZ" ] },
      { "delegate": "tz3NxTnke1acr8o3h5y9ytf5awQBGNJUKzVU",
        "reception_time": "2022-01-17T02:35:13.002-00:00",
        "included_in_blocks":
          [ "BLNaH3QR7TjuUwHzHc6uco5NSFpaPEGFJxywv3YmGjAu8xj42WZ" ] },
      { "delegate": "tz3bTdwZinP8U1JmSweNzVKhmwafqWmFWRfk",
        "reception_time": "2022-01-17T02:35:13.438-00:00",
        "included_in_blocks":
          [ "BLNaH3QR7TjuUwHzHc6uco5NSFpaPEGFJxywv3YmGjAu8xj42WZ" ] },
      { "delegate": "tz1WCd2jm4uSt4vntk4vSuUWoZQGhLcDuR9q",
        "reception_time": "2022-01-17T02:35:13.194-00:00",
        "included_in_blocks":
          [ "BLNaH3QR7TjuUwHzHc6uco5NSFpaPEGFJxywv3YmGjAu8xj42WZ" ] },
      { "delegate": "tz1aDiEJf9ztRrAJEXZfcG3CKimoKsGhwVAi",
        "reception_time": "2022-01-17T02:35:14.110-00:00",
        "included_in_blocks":
          [ "BLNaH3QR7TjuUwHzHc6uco5NSFpaPEGFJxywv3YmGjAu8xj42WZ" ] },
      { "delegate": "tz1LmaFsWRkjr7QMCx5PtV6xTUz3AmEpKQiF",
        "reception_time": "2022-01-17T02:35:13.869-00:00",
        "included_in_blocks":
          [ "BLNaH3QR7TjuUwHzHc6uco5NSFpaPEGFJxywv3YmGjAu8xj42WZ" ] },
      { "delegate": "tz1MQMiZHV8q4tTwUMWmS5Y3kaP6J2136iXr",
        "reception_time": "2022-01-17T02:35:13.222-00:00",
        "included_in_blocks":
          [ "BLNaH3QR7TjuUwHzHc6uco5NSFpaPEGFJxywv3YmGjAu8xj42WZ" ] },
      { "delegate": "tz1VQnqCCqX4K5sP3FNkVSNKTdCAMJDd3E1n",
        "reception_time": "2022-01-17T02:35:13.357-00:00",
        "included_in_blocks":
          [ "BLNaH3QR7TjuUwHzHc6uco5NSFpaPEGFJxywv3YmGjAu8xj42WZ" ] },
      { "delegate": "tz1TXzyaKUA8wsWefdSnyaYFnV2M3vCV7er9",
        "reception_time": "2022-01-17T02:35:12.469-00:00",
        "included_in_blocks":
          [ "BLNaH3QR7TjuUwHzHc6uco5NSFpaPEGFJxywv3YmGjAu8xj42WZ" ] },
      { "delegate": "tz1RCFbB9GpALpsZtu6J58sb74dm8qe6XBzv",
        "reception_time": "2022-01-17T02:35:13.498-00:00",
        "included_in_blocks":
          [ "BLNaH3QR7TjuUwHzHc6uco5NSFpaPEGFJxywv3YmGjAu8xj42WZ" ] },
      { "delegate": "tz3QT9dHYKDqh563chVa6za8526ys1UKfRfL",
        "reception_time": "2022-01-17T02:35:13.216-00:00",
        "included_in_blocks":
          [ "BLNaH3QR7TjuUwHzHc6uco5NSFpaPEGFJxywv3YmGjAu8xj42WZ" ] },
      { "delegate": "tz1MJx9vhaNRSimcuXPK2rW4fLccQnDAnVKJ",
        "reception_time": "2022-01-17T02:35:12.789-00:00",
        "included_in_blocks":
          [ "BLNaH3QR7TjuUwHzHc6uco5NSFpaPEGFJxywv3YmGjAu8xj42WZ" ] },
      { "delegate": "tz3RKYFsLuQzKBtmYuLNas7uMu3AsYd4QdsA",
        "reception_time": "2022-01-17T02:35:12.840-00:00",
        "included_in_blocks":
          [ "BLNaH3QR7TjuUwHzHc6uco5NSFpaPEGFJxywv3YmGjAu8xj42WZ" ] },
      { "delegate": "tz3S6BBeKgJGXxvLyZ1xzXzMPn11nnFtq5L9",
        "reception_time": "2022-01-17T02:35:13.238-00:00",
        "included_in_blocks":
          [ "BLNaH3QR7TjuUwHzHc6uco5NSFpaPEGFJxywv3YmGjAu8xj42WZ" ] },
      { "delegate": "tz1eEnQhbwf6trb8Q8mPb2RaPkNk2rN7BKi8",
        "reception_time": "2022-01-17T02:35:12.456-00:00",
        "included_in_blocks":
          [ "BLNaH3QR7TjuUwHzHc6uco5NSFpaPEGFJxywv3YmGjAu8xj42WZ" ] },
      { "delegate": "tz1a51WYsAsoh4fs4A4x5aCN6Za26mpfDfTi",
        "reception_time": "2022-01-17T02:35:12.741-00:00",
        "included_in_blocks":
          [ "BLNaH3QR7TjuUwHzHc6uco5NSFpaPEGFJxywv3YmGjAu8xj42WZ" ] },
      { "delegate": "tz1S8MNvuFEUsWgjHvi3AxibRBf388NhT1q2",
        "reception_time": "2022-01-17T02:35:13.670-00:00",
        "included_in_blocks":
          [ "BLNaH3QR7TjuUwHzHc6uco5NSFpaPEGFJxywv3YmGjAu8xj42WZ" ] },
      { "delegate": "tz3hw2kqXhLUvY65ca1eety2oQTpAvd34R9Q",
        "reception_time": "2022-01-17T02:35:12.874-00:00",
        "included_in_blocks":
          [ "BLNaH3QR7TjuUwHzHc6uco5NSFpaPEGFJxywv3YmGjAu8xj42WZ" ] },
      { "delegate": "tz1MGTFJXpQmtxLi8QJ7AuVRgM2L2Qfn9w9i",
        "reception_time": "2022-01-17T02:35:13.507-00:00",
        "included_in_blocks":
          [ "BLNaH3QR7TjuUwHzHc6uco5NSFpaPEGFJxywv3YmGjAu8xj42WZ" ] },
      { "delegate": "tz3adcvQaKXTCg12zbninqo3q8ptKKtDFTLv",
        "reception_time": "2022-01-17T02:35:13.050-00:00",
        "included_in_blocks":
          [ "BLNaH3QR7TjuUwHzHc6uco5NSFpaPEGFJxywv3YmGjAu8xj42WZ" ] },
      { "delegate": "tz3QCNyySViKHmeSr45kzDxzchys7NiXCWoa",
        "reception_time": "2022-01-17T02:35:12.921-00:00",
        "included_in_blocks":
          [ "BLNaH3QR7TjuUwHzHc6uco5NSFpaPEGFJxywv3YmGjAu8xj42WZ" ] },
      { "delegate": "tz1NMdMmWZN8QPB8pY4ddncACDg1cHi1xD2e",
        "reception_time": "2022-01-17T02:35:12.505-00:00",
        "included_in_blocks":
          [ "BLNaH3QR7TjuUwHzHc6uco5NSFpaPEGFJxywv3YmGjAu8xj42WZ" ] },
      { "delegate": "tz3gtoUxdudfBRcNY7iVdKPHCYYX6xdPpoRS",
        "reception_time": "2022-01-17T02:35:12.958-00:00",
        "included_in_blocks":
          [ "BLNaH3QR7TjuUwHzHc6uco5NSFpaPEGFJxywv3YmGjAu8xj42WZ" ] },
      { "delegate": "tz1cX93Q3KsiTADpCC4f12TBvAmS5tw7CW19",
        "reception_time": "2022-01-17T02:35:12.503-00:00",
        "included_in_blocks":
          [ "BLNaH3QR7TjuUwHzHc6uco5NSFpaPEGFJxywv3YmGjAu8xj42WZ" ] },
      { "delegate": "tz1abmz7jiCV2GH2u81LRrGgAFFgvQgiDiaf",
        "reception_time": "2022-01-17T02:35:14.064-00:00",
        "included_in_blocks":
          [ "BLNaH3QR7TjuUwHzHc6uco5NSFpaPEGFJxywv3YmGjAu8xj42WZ" ] },
      { "delegate": "tz1irJKkXS2DBWkU1NnmFQx1c1L7pbGg4yhk",
        "reception_time": "2022-01-17T02:35:12.724-00:00",
        "included_in_blocks":
          [ "BLNaH3QR7TjuUwHzHc6uco5NSFpaPEGFJxywv3YmGjAu8xj42WZ" ] },
      { "delegate": "tz1Lc87p6zRaDwzJs9kHvdpm7XzeWE8QTwVB",
        "reception_time": "2022-01-17T02:35:13.260-00:00",
        "included_in_blocks":
          [ "BLNaH3QR7TjuUwHzHc6uco5NSFpaPEGFJxywv3YmGjAu8xj42WZ" ] },
      { "delegate": "tz3QSGPoRp3Kn7n3vY24eYeu3Peuqo45LQ4D",
        "reception_time": "2022-01-17T02:35:12.936-00:00",
        "included_in_blocks":
          [ "BLNaH3QR7TjuUwHzHc6uco5NSFpaPEGFJxywv3YmGjAu8xj42WZ" ] },
      { "delegate": "tz1Zhv3RkfU2pHrmaiDyxp7kFZpZrUCu1CiF",
        "reception_time": "2022-01-17T02:35:12.449-00:00",
        "included_in_blocks":
          [ "BLNaH3QR7TjuUwHzHc6uco5NSFpaPEGFJxywv3YmGjAu8xj42WZ" ] },
      { "delegate": "tz1MQJPGNMijnXnVoBENFz9rUhaPt3S7rWoz",
        "reception_time": "2022-01-17T02:35:13.934-00:00",
        "included_in_blocks":
          [ "BLNaH3QR7TjuUwHzHc6uco5NSFpaPEGFJxywv3YmGjAu8xj42WZ" ] },
      { "delegate": "tz1SUgyRB8T5jXgXAwS33pgRHAKrafyg87Yc",
        "reception_time": "2022-01-17T02:35:13.769-00:00",
        "included_in_blocks":
          [ "BLNaH3QR7TjuUwHzHc6uco5NSFpaPEGFJxywv3YmGjAu8xj42WZ" ] },
      { "delegate": "tz1Scdr2HsZiQjc7bHMeBbmDRXYVvdhjJbBh",
        "reception_time": "2022-01-17T02:35:12.441-00:00",
        "included_in_blocks":
          [ "BLNaH3QR7TjuUwHzHc6uco5NSFpaPEGFJxywv3YmGjAu8xj42WZ" ] } ] }