{ "blocks":
    [ { "hash": "BMNjfW1oAj6gdtZvnyaUXhJPGKMnwq6hUsJTjTDjwt2Ds6pEsHZ",
        "delegate": "tz1S8MNvuFEUsWgjHvi3AxibRBf388NhT1q2",
        "reception_time": "2022-01-17T05:18:16.059-00:00",
        "timestamp": "2022-01-17T05:18:10Z" } ],
  "endorsements":
    [ { "delegate": "tz1RjoHc98dBoqaH2jawF62XNKh7YsHwbkEv" },
      { "delegate": "tz1awXW7wuXy21c66vBudMXQVAPgRnqqwgTH" },
      { "delegate": "tz1RV1MBbZMR68tacosb7Mwj6LkbPSUS1er1",
        "reception_time": "2022-01-17T05:18:16.840-00:00",
        "included_in_blocks":
          [ "BMdzZDvgVq28BqyEsvP7ZRoRmZLdNbzCTZVgDS8rzy3Kquhr1T4" ] },
      { "delegate": "tz1TRspM5SeZpaQUhzByXbEvqKF1vnCM2YTK",
        "reception_time": "2022-01-17T05:18:16.845-00:00",
        "included_in_blocks":
          [ "BMdzZDvgVq28BqyEsvP7ZRoRmZLdNbzCTZVgDS8rzy3Kquhr1T4" ] },
      { "delegate": "tz1Scdr2HsZiQjc7bHMeBbmDRXYVvdhjJbBh",
        "reception_time": "2022-01-17T05:18:16.848-00:00",
        "included_in_blocks":
          [ "BMdzZDvgVq28BqyEsvP7ZRoRmZLdNbzCTZVgDS8rzy3Kquhr1T4" ] },
      { "delegate": "tz1eEnQhbwf6trb8Q8mPb2RaPkNk2rN7BKi8",
        "reception_time": "2022-01-17T05:18:16.851-00:00",
        "included_in_blocks":
          [ "BMdzZDvgVq28BqyEsvP7ZRoRmZLdNbzCTZVgDS8rzy3Kquhr1T4" ] },
      { "delegate": "tz1STeamwbp68THcny9zk3LsbG3H36DMvbRK",
        "reception_time": "2022-01-17T05:18:16.860-00:00",
        "included_in_blocks":
          [ "BMdzZDvgVq28BqyEsvP7ZRoRmZLdNbzCTZVgDS8rzy3Kquhr1T4" ] },
      { "delegate": "tz3TTPtexYio6PPT9M9WdYnM5xob1xvQPiUp",
        "reception_time": "2022-01-17T05:18:16.880-00:00",
        "included_in_blocks":
          [ "BMdzZDvgVq28BqyEsvP7ZRoRmZLdNbzCTZVgDS8rzy3Kquhr1T4" ] },
      { "delegate": "tz1VmiY38m3y95HqQLjMwqnMS7sdMfGomzKi",
        "reception_time": "2022-01-17T05:18:16.953-00:00",
        "included_in_blocks":
          [ "BMdzZDvgVq28BqyEsvP7ZRoRmZLdNbzCTZVgDS8rzy3Kquhr1T4" ] },
      { "delegate": "tz1gfArv665EUkSg2ojMBzcbfwuPxAvqPvjo",
        "reception_time": "2022-01-17T05:18:16.956-00:00",
        "included_in_blocks":
          [ "BMdzZDvgVq28BqyEsvP7ZRoRmZLdNbzCTZVgDS8rzy3Kquhr1T4" ] },
      { "delegate": "tz1RCFbB9GpALpsZtu6J58sb74dm8qe6XBzv",
        "reception_time": "2022-01-17T05:18:17.013-00:00",
        "included_in_blocks":
          [ "BMdzZDvgVq28BqyEsvP7ZRoRmZLdNbzCTZVgDS8rzy3Kquhr1T4" ] },
      { "delegate": "tz1Ldzz6k1BHdhuKvAtMRX7h5kJSMHESMHLC",
        "reception_time": "2022-01-17T05:18:17.054-00:00",
        "included_in_blocks":
          [ "BMdzZDvgVq28BqyEsvP7ZRoRmZLdNbzCTZVgDS8rzy3Kquhr1T4" ] },
      { "delegate": "tz1S8MNvuFEUsWgjHvi3AxibRBf388NhT1q2",
        "reception_time": "2022-01-17T05:18:17.083-00:00",
        "included_in_blocks":
          [ "BMdzZDvgVq28BqyEsvP7ZRoRmZLdNbzCTZVgDS8rzy3Kquhr1T4" ] },
      { "delegate": "tz3QCNyySViKHmeSr45kzDxzchys7NiXCWoa",
        "reception_time": "2022-01-17T05:18:17.126-00:00",
        "included_in_blocks":
          [ "BMdzZDvgVq28BqyEsvP7ZRoRmZLdNbzCTZVgDS8rzy3Kquhr1T4" ] },
      { "delegate": "tz1MQMiZHV8q4tTwUMWmS5Y3kaP6J2136iXr",
        "reception_time": "2022-01-17T05:18:17.182-00:00",
        "included_in_blocks":
          [ "BMdzZDvgVq28BqyEsvP7ZRoRmZLdNbzCTZVgDS8rzy3Kquhr1T4" ] },
      { "delegate": "tz3QSGPoRp3Kn7n3vY24eYeu3Peuqo45LQ4D",
        "reception_time": "2022-01-17T05:18:17.200-00:00",
        "included_in_blocks":
          [ "BMdzZDvgVq28BqyEsvP7ZRoRmZLdNbzCTZVgDS8rzy3Kquhr1T4" ] },
      { "delegate": "tz3ZbP2pM3nwvXztbuMJwJnDvV5xdpU8UkkD",
        "reception_time": "2022-01-17T05:18:17.238-00:00",
        "included_in_blocks":
          [ "BMdzZDvgVq28BqyEsvP7ZRoRmZLdNbzCTZVgDS8rzy3Kquhr1T4" ] },
      { "delegate": "tz3NxTnke1acr8o3h5y9ytf5awQBGNJUKzVU",
        "reception_time": "2022-01-17T05:18:17.245-00:00",
        "included_in_blocks":
          [ "BMdzZDvgVq28BqyEsvP7ZRoRmZLdNbzCTZVgDS8rzy3Kquhr1T4" ] },
      { "delegate": "tz3gtoUxdudfBRcNY7iVdKPHCYYX6xdPpoRS",
        "reception_time": "2022-01-17T05:18:17.270-00:00",
        "included_in_blocks":
          [ "BMdzZDvgVq28BqyEsvP7ZRoRmZLdNbzCTZVgDS8rzy3Kquhr1T4" ] },
      { "delegate": "tz1d6Fx42mYgVFnHUW8T8A7WBfJ6nD9pVok8",
        "reception_time": "2022-01-17T05:18:17.349-00:00",
        "included_in_blocks":
          [ "BMdzZDvgVq28BqyEsvP7ZRoRmZLdNbzCTZVgDS8rzy3Kquhr1T4" ] },
      { "delegate": "tz1VQnqCCqX4K5sP3FNkVSNKTdCAMJDd3E1n",
        "reception_time": "2022-01-17T05:18:17.349-00:00",
        "included_in_blocks":
          [ "BMdzZDvgVq28BqyEsvP7ZRoRmZLdNbzCTZVgDS8rzy3Kquhr1T4" ] },
      { "delegate": "tz3hw2kqXhLUvY65ca1eety2oQTpAvd34R9Q",
        "reception_time": "2022-01-17T05:18:17.381-00:00",
        "included_in_blocks":
          [ "BMdzZDvgVq28BqyEsvP7ZRoRmZLdNbzCTZVgDS8rzy3Kquhr1T4" ] },
      { "delegate": "tz1ei4WtWEMEJekSv8qDnu9PExG6Q8HgRGr3",
        "reception_time": "2022-01-17T05:18:17.390-00:00",
        "included_in_blocks":
          [ "BMdzZDvgVq28BqyEsvP7ZRoRmZLdNbzCTZVgDS8rzy3Kquhr1T4" ] },
      { "delegate": "tz1W3VYi3gSt9Xgfw6WNV1aGZRPH2BsskMEY",
        "reception_time": "2022-01-17T05:18:17.392-00:00",
        "included_in_blocks":
          [ "BMdzZDvgVq28BqyEsvP7ZRoRmZLdNbzCTZVgDS8rzy3Kquhr1T4" ] },
      { "delegate": "tz1PWCDnz783NNGGQjEFFsHtrcK5yBW4E2rm",
        "reception_time": "2022-01-17T05:18:17.405-00:00",
        "included_in_blocks":
          [ "BMdzZDvgVq28BqyEsvP7ZRoRmZLdNbzCTZVgDS8rzy3Kquhr1T4" ] },
      { "delegate": "tz3S6BBeKgJGXxvLyZ1xzXzMPn11nnFtq5L9",
        "reception_time": "2022-01-17T05:18:17.414-00:00",
        "included_in_blocks":
          [ "BMdzZDvgVq28BqyEsvP7ZRoRmZLdNbzCTZVgDS8rzy3Kquhr1T4" ] },
      { "delegate": "tz1h4GUAMweP7SNWzDgvMk3yRCAZyaP1MxZq",
        "reception_time": "2022-01-17T05:18:17.438-00:00",
        "included_in_blocks":
          [ "BMdzZDvgVq28BqyEsvP7ZRoRmZLdNbzCTZVgDS8rzy3Kquhr1T4" ] },
      { "delegate": "tz3RKYFsLuQzKBtmYuLNas7uMu3AsYd4QdsA",
        "reception_time": "2022-01-17T05:18:17.451-00:00",
        "included_in_blocks":
          [ "BMdzZDvgVq28BqyEsvP7ZRoRmZLdNbzCTZVgDS8rzy3Kquhr1T4" ] },
      { "delegate": "tz3iJu5vrKZcsqRPs8yJ61UDoeEXZmtro4qh",
        "reception_time": "2022-01-17T05:18:17.512-00:00",
        "included_in_blocks":
          [ "BMdzZDvgVq28BqyEsvP7ZRoRmZLdNbzCTZVgDS8rzy3Kquhr1T4" ] },
      { "delegate": "tz3QT9dHYKDqh563chVa6za8526ys1UKfRfL",
        "reception_time": "2022-01-17T05:18:17.519-00:00",
        "included_in_blocks":
          [ "BMdzZDvgVq28BqyEsvP7ZRoRmZLdNbzCTZVgDS8rzy3Kquhr1T4" ] },
      { "delegate": "tz3Zhs2dygr55yHyQyKjntAtY9bgfhLZ4Xj1",
        "reception_time": "2022-01-17T05:18:17.540-00:00",
        "included_in_blocks":
          [ "BMdzZDvgVq28BqyEsvP7ZRoRmZLdNbzCTZVgDS8rzy3Kquhr1T4" ] },
      { "delegate": "tz1P2Po7YM526ughEsRbY4oR9zaUPDZjxFrb",
        "reception_time": "2022-01-17T05:18:17.785-00:00",
        "included_in_blocks":
          [ "BMdzZDvgVq28BqyEsvP7ZRoRmZLdNbzCTZVgDS8rzy3Kquhr1T4" ] },
      { "delegate": "tz1dNVDWPf3Q59SdJqnjdnu277iyvReiRS9M",
        "reception_time": "2022-01-17T05:18:17.884-00:00",
        "included_in_blocks":
          [ "BMdzZDvgVq28BqyEsvP7ZRoRmZLdNbzCTZVgDS8rzy3Kquhr1T4" ] },
      { "delegate": "tz3bTdwZinP8U1JmSweNzVKhmwafqWmFWRfk",
        "reception_time": "2022-01-17T05:18:17.953-00:00",
        "included_in_blocks":
          [ "BMdzZDvgVq28BqyEsvP7ZRoRmZLdNbzCTZVgDS8rzy3Kquhr1T4" ] },
      { "delegate": "tz1fwnfJNgiDACshK9avfRfFbMaXrs3ghoJa",
        "reception_time": "2022-01-17T05:18:17.971-00:00",
        "included_in_blocks":
          [ "BMdzZDvgVq28BqyEsvP7ZRoRmZLdNbzCTZVgDS8rzy3Kquhr1T4" ] },
      { "delegate": "tz3RB4aoyjov4KEVRbuhvQ1CKJgBJMWhaeB8",
        "reception_time": "2022-01-17T05:18:18.002-00:00",
        "included_in_blocks":
          [ "BMdzZDvgVq28BqyEsvP7ZRoRmZLdNbzCTZVgDS8rzy3Kquhr1T4" ] },
      { "delegate": "tz1TEc75UKXv4W5cwi14Na3NtqFD51yKQi7h",
        "reception_time": "2022-01-17T05:18:18.011-00:00",
        "included_in_blocks":
          [ "BMdzZDvgVq28BqyEsvP7ZRoRmZLdNbzCTZVgDS8rzy3Kquhr1T4" ] },
      { "delegate": "tz1NEKxGEHsFufk87CVZcrqWu8o22qh46GK6",
        "reception_time": "2022-01-17T05:18:18.097-00:00",
        "included_in_blocks":
          [ "BMdzZDvgVq28BqyEsvP7ZRoRmZLdNbzCTZVgDS8rzy3Kquhr1T4" ] },
      { "delegate": "tz3WMqdzXqRWXwyvj5Hp2H7QEepaUuS7vd9K",
        "reception_time": "2022-01-17T05:18:18.107-00:00",
        "included_in_blocks":
          [ "BMdzZDvgVq28BqyEsvP7ZRoRmZLdNbzCTZVgDS8rzy3Kquhr1T4" ] },
      { "delegate": "tz1cZfFQpcYhwDp7y1njZXDsZqCrn2NqmVof",
        "reception_time": "2022-01-17T05:18:18.124-00:00",
        "included_in_blocks":
          [ "BMdzZDvgVq28BqyEsvP7ZRoRmZLdNbzCTZVgDS8rzy3Kquhr1T4" ] },
      { "delegate": "tz1WBfwbT66FC6BTLexc2BoyCCBM9LG7pnVW",
        "reception_time": "2022-01-17T05:18:18.164-00:00",
        "included_in_blocks":
          [ "BMdzZDvgVq28BqyEsvP7ZRoRmZLdNbzCTZVgDS8rzy3Kquhr1T4" ] },
      { "delegate": "tz1Nf6tsK4G6bBqgSQERy4nUtkHNKUVdh7q1",
        "reception_time": "2022-01-17T05:18:18.179-00:00",
        "included_in_blocks":
          [ "BMdzZDvgVq28BqyEsvP7ZRoRmZLdNbzCTZVgDS8rzy3Kquhr1T4" ] },
      { "delegate": "tz1NortRftucvAkD1J58L32EhSVrQEWJCEnB",
        "reception_time": "2022-01-17T05:18:18.271-00:00",
        "included_in_blocks":
          [ "BMdzZDvgVq28BqyEsvP7ZRoRmZLdNbzCTZVgDS8rzy3Kquhr1T4" ] },
      { "delegate": "tz2FCNBrERXtaTtNX6iimR1UJ5JSDxvdHM93",
        "reception_time": "2022-01-17T05:18:18.333-00:00",
        "included_in_blocks":
          [ "BMdzZDvgVq28BqyEsvP7ZRoRmZLdNbzCTZVgDS8rzy3Kquhr1T4" ] },
      { "delegate": "tz1WctSwL49BZtdWAQ75NY6vr4xsAx6oKdah",
        "reception_time": "2022-01-17T05:18:18.491-00:00",
        "included_in_blocks":
          [ "BMdzZDvgVq28BqyEsvP7ZRoRmZLdNbzCTZVgDS8rzy3Kquhr1T4" ] },
      { "delegate": "tz1SYq214SCBy9naR6cvycQsYcUGpBqQAE8d",
        "reception_time": "2022-01-17T05:18:18.637-00:00",
        "included_in_blocks":
          [ "BMdzZDvgVq28BqyEsvP7ZRoRmZLdNbzCTZVgDS8rzy3Kquhr1T4" ] },
      { "delegate": "tz1Z2jXfEXL7dXhs6bsLmyLFLfmAkXBzA9WE",
        "reception_time": "2022-01-17T05:18:18.645-00:00",
        "included_in_blocks":
          [ "BMdzZDvgVq28BqyEsvP7ZRoRmZLdNbzCTZVgDS8rzy3Kquhr1T4" ] },
      { "delegate": "tz1bTpviNnyx2PXsNmGpCQTMQsGoYordkUoA",
        "reception_time": "2022-01-17T05:18:18.789-00:00",
        "included_in_blocks":
          [ "BMdzZDvgVq28BqyEsvP7ZRoRmZLdNbzCTZVgDS8rzy3Kquhr1T4" ] },
      { "delegate": "tz1TRqbYbUf2GyrjErf3hBzgBJPzW8y36qEs",
        "reception_time": "2022-01-17T05:18:18.928-00:00",
        "included_in_blocks":
          [ "BMdzZDvgVq28BqyEsvP7ZRoRmZLdNbzCTZVgDS8rzy3Kquhr1T4" ] },
      { "delegate": "tz3VEZ4k6a4Wx42iyev6i2aVAptTRLEAivNN",
        "reception_time": "2022-01-17T05:18:18.972-00:00",
        "included_in_blocks":
          [ "BMdzZDvgVq28BqyEsvP7ZRoRmZLdNbzCTZVgDS8rzy3Kquhr1T4" ] },
      { "delegate": "tz1T7duV5gZWSTq4YpBGbXNLTfznCLDrFxvs",
        "reception_time": "2022-01-17T05:18:19.079-00:00",
        "included_in_blocks":
          [ "BMdzZDvgVq28BqyEsvP7ZRoRmZLdNbzCTZVgDS8rzy3Kquhr1T4" ] },
      { "delegate": "tz3NDpRj6WBrJPikcPVHRBEjWKxFw3c6eQPS",
        "reception_time": "2022-01-17T05:18:19.119-00:00",
        "included_in_blocks":
          [ "BMdzZDvgVq28BqyEsvP7ZRoRmZLdNbzCTZVgDS8rzy3Kquhr1T4" ] },
      { "delegate": "tz1dRKU4FQ9QRRQPdaH4zCR6gmCmXfcvcgtB",
        "reception_time": "2022-01-17T05:18:19.122-00:00",
        "included_in_blocks":
          [ "BMdzZDvgVq28BqyEsvP7ZRoRmZLdNbzCTZVgDS8rzy3Kquhr1T4" ] },
      { "delegate": "tz1irJKkXS2DBWkU1NnmFQx1c1L7pbGg4yhk",
        "reception_time": "2022-01-17T05:18:19.213-00:00",
        "included_in_blocks":
          [ "BMdzZDvgVq28BqyEsvP7ZRoRmZLdNbzCTZVgDS8rzy3Kquhr1T4" ] },
      { "delegate": "tz3bvNMQ95vfAYtG8193ymshqjSvmxiCUuR5",
        "reception_time": "2022-01-17T05:18:19.259-00:00",
        "included_in_blocks":
          [ "BMdzZDvgVq28BqyEsvP7ZRoRmZLdNbzCTZVgDS8rzy3Kquhr1T4" ] },
      { "delegate": "tz1cYufsxHXJcvANhvS55h3aY32a9BAFB494",
        "reception_time": "2022-01-17T05:18:19.548-00:00",
        "included_in_blocks":
          [ "BMdzZDvgVq28BqyEsvP7ZRoRmZLdNbzCTZVgDS8rzy3Kquhr1T4" ] },
      { "delegate": "tz1aRoaRhSpRYvFdyvgWLL6TGyRoGF51wDjM",
        "reception_time": "2022-01-17T05:18:19.565-00:00",
        "included_in_blocks":
          [ "BMdzZDvgVq28BqyEsvP7ZRoRmZLdNbzCTZVgDS8rzy3Kquhr1T4" ] },
      { "delegate": "tz3RDC3Jdn4j15J7bBHZd29EUee9gVB1CxD9",
        "reception_time": "2022-01-17T05:18:19.590-00:00",
        "included_in_blocks":
          [ "BMdzZDvgVq28BqyEsvP7ZRoRmZLdNbzCTZVgDS8rzy3Kquhr1T4" ] },
      { "delegate": "tz1g8vkmcde6sWKaG2NN9WKzCkDM6Rziq194",
        "reception_time": "2022-01-17T05:18:19.702-00:00",
        "included_in_blocks":
          [ "BMdzZDvgVq28BqyEsvP7ZRoRmZLdNbzCTZVgDS8rzy3Kquhr1T4" ] },
      { "delegate": "tz3UoffC7FG7zfpmvmjUmUeAaHvzdcUvAj6r",
        "reception_time": "2022-01-17T05:18:19.811-00:00",
        "included_in_blocks":
          [ "BMdzZDvgVq28BqyEsvP7ZRoRmZLdNbzCTZVgDS8rzy3Kquhr1T4" ] },
      { "delegate": "tz3NExpXn9aPNZPorRE4SdjJ2RGrfbJgMAaV",
        "reception_time": "2022-01-17T05:18:20.001-00:00",
        "included_in_blocks":
          [ "BMdzZDvgVq28BqyEsvP7ZRoRmZLdNbzCTZVgDS8rzy3Kquhr1T4" ] },
      { "delegate": "tz1TcH4Nb3aHNDJ7CGZhU7jgAK1BkSP4Lxds",
        "reception_time": "2022-01-17T05:18:21.279-00:00",
        "included_in_blocks":
          [ "BMdzZDvgVq28BqyEsvP7ZRoRmZLdNbzCTZVgDS8rzy3Kquhr1T4" ] },
      { "delegate": "tz1dfg9PkvRLf7hKMmGdGRhXWCbd8QgbwBF7",
        "reception_time": "2022-01-17T05:18:22.307-00:00",
        "included_in_blocks":
          [ "BMdzZDvgVq28BqyEsvP7ZRoRmZLdNbzCTZVgDS8rzy3Kquhr1T4" ] },
      { "delegate": "tz1NpWrAyDL9k2Lmnyxcgr9xuJakbBxdq7FB",
        "reception_time": "2022-01-17T05:18:23.597-00:00",
        "included_in_blocks":
          [ "BMdzZDvgVq28BqyEsvP7ZRoRmZLdNbzCTZVgDS8rzy3Kquhr1T4" ] },
      { "delegate": "tz1WnyXakHZKotpQHxevTnLmomz5rTwdiccy",
        "reception_time": "2022-01-17T05:18:25.514-00:00",
        "included_in_blocks":
          [ "BMdzZDvgVq28BqyEsvP7ZRoRmZLdNbzCTZVgDS8rzy3Kquhr1T4" ] } ] }