{ "blocks":
    [ { "hash": "BKmDYCNL3KLovbjPSX82drQxhsiunxR3Suubf7QCxCoGoYKpSZt",
        "delegate": "tz3bTdwZinP8U1JmSweNzVKhmwafqWmFWRfk",
        "reception_time": "2022-01-17T06:54:18.721-00:00",
        "timestamp": "2022-01-17T06:54:10Z" } ],
  "endorsements":
    [ { "delegate": "tz1awXW7wuXy21c66vBudMXQVAPgRnqqwgTH" },
      { "delegate": "tz1RjoHc98dBoqaH2jawF62XNKh7YsHwbkEv" },
      { "delegate": "tz1WL4xAAYsQ2GM9MCQGePYcbwwu6kvfqMWN",
        "reception_time": "2022-01-17T06:54:18.722-00:00",
        "errors":
          [ { "kind": "temporary",
              "id": "proto.011-PtHangz2.prefilter.outdated_endorsement" } ],
        "included_in_blocks":
          [ "BL2w54hAX7jQcBJJBJ9nznpeCfBbWKmaNxkLbpsfzqjcYrxkAhK" ] },
      { "delegate": "tz1P2Po7YM526ughEsRbY4oR9zaUPDZjxFrb",
        "reception_time": "2022-01-17T06:54:18.273-00:00",
        "errors":
          [ { "kind": "temporary",
              "id": "proto.011-PtHangz2.prefilter.outdated_endorsement" } ],
        "included_in_blocks":
          [ "BL2w54hAX7jQcBJJBJ9nznpeCfBbWKmaNxkLbpsfzqjcYrxkAhK" ] },
      { "delegate": "tz1S8e9GgdZG78XJRB3NqabfWeM37GnhZMWQ",
        "reception_time": "2022-01-17T06:54:18.173-00:00",
        "errors":
          [ { "kind": "temporary",
              "id": "proto.011-PtHangz2.prefilter.outdated_endorsement" } ],
        "included_in_blocks":
          [ "BL2w54hAX7jQcBJJBJ9nznpeCfBbWKmaNxkLbpsfzqjcYrxkAhK" ] },
      { "delegate": "tz2BzJTyoQp8fNbfhWD4YQgH9JJHDgSGzpdG",
        "reception_time": "2022-01-17T06:54:25.953-00:00",
        "included_in_blocks":
          [ "BL2w54hAX7jQcBJJBJ9nznpeCfBbWKmaNxkLbpsfzqjcYrxkAhK" ] },
      { "delegate": "tz1go7f6mEQfT2xX2LuHAqgnRGN6c2zHPf5c",
        "reception_time": "2022-01-17T06:54:24.883-00:00",
        "included_in_blocks":
          [ "BL2w54hAX7jQcBJJBJ9nznpeCfBbWKmaNxkLbpsfzqjcYrxkAhK" ] },
      { "delegate": "tz1dfg9PkvRLf7hKMmGdGRhXWCbd8QgbwBF7",
        "reception_time": "2022-01-17T06:54:24.737-00:00",
        "included_in_blocks":
          [ "BL2w54hAX7jQcBJJBJ9nznpeCfBbWKmaNxkLbpsfzqjcYrxkAhK" ] },
      { "delegate": "tz1aJS7Pk9uWR3wWyFf1i3RwhYxN84G7stom",
        "reception_time": "2022-01-17T06:54:23.338-00:00",
        "included_in_blocks":
          [ "BL2w54hAX7jQcBJJBJ9nznpeCfBbWKmaNxkLbpsfzqjcYrxkAhK" ] },
      { "delegate": "tz1g8vkmcde6sWKaG2NN9WKzCkDM6Rziq194",
        "reception_time": "2022-01-17T06:54:23.261-00:00",
        "included_in_blocks":
          [ "BL2w54hAX7jQcBJJBJ9nznpeCfBbWKmaNxkLbpsfzqjcYrxkAhK" ] },
      { "delegate": "tz1acZQd7TdfoiUnD2czHnTHB2TaJQP6gdqo",
        "reception_time": "2022-01-17T06:54:23.029-00:00",
        "included_in_blocks":
          [ "BL2w54hAX7jQcBJJBJ9nznpeCfBbWKmaNxkLbpsfzqjcYrxkAhK" ] },
      { "delegate": "tz1ZcTRk5uxD86EFEn1vvNffWWqJy7q5eVhc",
        "reception_time": "2022-01-17T06:54:22.338-00:00",
        "included_in_blocks":
          [ "BL2w54hAX7jQcBJJBJ9nznpeCfBbWKmaNxkLbpsfzqjcYrxkAhK" ] },
      { "delegate": "tz1cM8Xc7ZP1TrjkTeKq4PeRhtbnwXSBR6Sw",
        "reception_time": "2022-01-17T06:54:22.263-00:00",
        "included_in_blocks":
          [ "BL2w54hAX7jQcBJJBJ9nznpeCfBbWKmaNxkLbpsfzqjcYrxkAhK" ] },
      { "delegate": "tz1f3Re8iw6Pt3KMHAvyccHxDU3NuqL95axD",
        "reception_time": "2022-01-17T06:54:21.916-00:00",
        "included_in_blocks":
          [ "BL2w54hAX7jQcBJJBJ9nznpeCfBbWKmaNxkLbpsfzqjcYrxkAhK" ] },
      { "delegate": "tz3WMqdzXqRWXwyvj5Hp2H7QEepaUuS7vd9K",
        "reception_time": "2022-01-17T06:54:22.100-00:00",
        "included_in_blocks":
          [ "BL2w54hAX7jQcBJJBJ9nznpeCfBbWKmaNxkLbpsfzqjcYrxkAhK" ] },
      { "delegate": "tz3RDC3Jdn4j15J7bBHZd29EUee9gVB1CxD9",
        "reception_time": "2022-01-17T06:54:21.753-00:00",
        "included_in_blocks":
          [ "BL2w54hAX7jQcBJJBJ9nznpeCfBbWKmaNxkLbpsfzqjcYrxkAhK" ] },
      { "delegate": "tz3NExpXn9aPNZPorRE4SdjJ2RGrfbJgMAaV",
        "reception_time": "2022-01-17T06:54:21.878-00:00",
        "included_in_blocks":
          [ "BL2w54hAX7jQcBJJBJ9nznpeCfBbWKmaNxkLbpsfzqjcYrxkAhK" ] },
      { "delegate": "tz1NoYvKjXTzTk54VpLxBfouJ33J8jwKPPvw",
        "reception_time": "2022-01-17T06:54:21.158-00:00",
        "included_in_blocks":
          [ "BL2w54hAX7jQcBJJBJ9nznpeCfBbWKmaNxkLbpsfzqjcYrxkAhK" ] },
      { "delegate": "tz1cYufsxHXJcvANhvS55h3aY32a9BAFB494",
        "reception_time": "2022-01-17T06:54:21.477-00:00",
        "included_in_blocks":
          [ "BL2w54hAX7jQcBJJBJ9nznpeCfBbWKmaNxkLbpsfzqjcYrxkAhK" ] },
      { "delegate": "tz3gLTu4Yxj8tPAcriQVUdxv6BY9QyvzU1az",
        "reception_time": "2022-01-17T06:54:21.456-00:00",
        "included_in_blocks":
          [ "BL2w54hAX7jQcBJJBJ9nznpeCfBbWKmaNxkLbpsfzqjcYrxkAhK" ] },
      { "delegate": "tz1V4qCyvPKZ5UeqdH14HN42rxvNPQfc9UZg",
        "reception_time": "2022-01-17T06:54:20.610-00:00",
        "included_in_blocks":
          [ "BL2w54hAX7jQcBJJBJ9nznpeCfBbWKmaNxkLbpsfzqjcYrxkAhK" ] },
      { "delegate": "tz1UNkf4sWzC5vsKP7FnejSeJsXdc6z8Kzk4",
        "reception_time": "2022-01-17T06:54:21.434-00:00",
        "included_in_blocks":
          [ "BL2w54hAX7jQcBJJBJ9nznpeCfBbWKmaNxkLbpsfzqjcYrxkAhK" ] },
      { "delegate": "tz1KfEsrtDaA1sX7vdM4qmEPWuSytuqCDp5j",
        "reception_time": "2022-01-17T06:54:21.248-00:00",
        "included_in_blocks":
          [ "BL2w54hAX7jQcBJJBJ9nznpeCfBbWKmaNxkLbpsfzqjcYrxkAhK" ] },
      { "delegate": "tz1NEKxGEHsFufk87CVZcrqWu8o22qh46GK6",
        "reception_time": "2022-01-17T06:54:20.862-00:00",
        "included_in_blocks":
          [ "BL2w54hAX7jQcBJJBJ9nznpeCfBbWKmaNxkLbpsfzqjcYrxkAhK" ] },
      { "delegate": "tz2FCNBrERXtaTtNX6iimR1UJ5JSDxvdHM93",
        "reception_time": "2022-01-17T06:54:20.415-00:00",
        "included_in_blocks":
          [ "BL2w54hAX7jQcBJJBJ9nznpeCfBbWKmaNxkLbpsfzqjcYrxkAhK" ] },
      { "delegate": "tz3UoffC7FG7zfpmvmjUmUeAaHvzdcUvAj6r",
        "reception_time": "2022-01-17T06:54:21.383-00:00",
        "included_in_blocks":
          [ "BL2w54hAX7jQcBJJBJ9nznpeCfBbWKmaNxkLbpsfzqjcYrxkAhK" ] },
      { "delegate": "tz1Nf6tsK4G6bBqgSQERy4nUtkHNKUVdh7q1",
        "reception_time": "2022-01-17T06:54:20.850-00:00",
        "included_in_blocks":
          [ "BL2w54hAX7jQcBJJBJ9nznpeCfBbWKmaNxkLbpsfzqjcYrxkAhK" ] },
      { "delegate": "tz3VEZ4k6a4Wx42iyev6i2aVAptTRLEAivNN",
        "reception_time": "2022-01-17T06:54:20.675-00:00",
        "included_in_blocks":
          [ "BL2w54hAX7jQcBJJBJ9nznpeCfBbWKmaNxkLbpsfzqjcYrxkAhK" ] },
      { "delegate": "tz1SYq214SCBy9naR6cvycQsYcUGpBqQAE8d",
        "reception_time": "2022-01-17T06:54:20.530-00:00",
        "included_in_blocks":
          [ "BL2w54hAX7jQcBJJBJ9nznpeCfBbWKmaNxkLbpsfzqjcYrxkAhK" ] },
      { "delegate": "tz1VceyYUpq1gk5dtp6jXQRtCtY8hm5DKt72",
        "reception_time": "2022-01-17T06:54:20.447-00:00",
        "included_in_blocks":
          [ "BL2w54hAX7jQcBJJBJ9nznpeCfBbWKmaNxkLbpsfzqjcYrxkAhK" ] },
      { "delegate": "tz1UvkANVPWppVgMkLnvN7BwYZsCP7vm6NVd",
        "reception_time": "2022-01-17T06:54:21.400-00:00",
        "included_in_blocks":
          [ "BL2w54hAX7jQcBJJBJ9nznpeCfBbWKmaNxkLbpsfzqjcYrxkAhK" ] },
      { "delegate": "tz1T7duV5gZWSTq4YpBGbXNLTfznCLDrFxvs",
        "reception_time": "2022-01-17T06:54:21.229-00:00",
        "included_in_blocks":
          [ "BL2w54hAX7jQcBJJBJ9nznpeCfBbWKmaNxkLbpsfzqjcYrxkAhK" ] },
      { "delegate": "tz1WnfXMPaNTBmH7DBPwqCWs9cPDJdkGBTZ8",
        "reception_time": "2022-01-17T06:54:20.269-00:00",
        "included_in_blocks":
          [ "BL2w54hAX7jQcBJJBJ9nznpeCfBbWKmaNxkLbpsfzqjcYrxkAhK" ] },
      { "delegate": "tz1abmz7jiCV2GH2u81LRrGgAFFgvQgiDiaf",
        "reception_time": "2022-01-17T06:54:20.530-00:00",
        "included_in_blocks":
          [ "BL2w54hAX7jQcBJJBJ9nznpeCfBbWKmaNxkLbpsfzqjcYrxkAhK" ] },
      { "delegate": "tz3NDpRj6WBrJPikcPVHRBEjWKxFw3c6eQPS",
        "reception_time": "2022-01-17T06:54:21.411-00:00",
        "included_in_blocks":
          [ "BL2w54hAX7jQcBJJBJ9nznpeCfBbWKmaNxkLbpsfzqjcYrxkAhK" ] },
      { "delegate": "tz1TEc75UKXv4W5cwi14Na3NtqFD51yKQi7h",
        "reception_time": "2022-01-17T06:54:20.581-00:00",
        "included_in_blocks":
          [ "BL2w54hAX7jQcBJJBJ9nznpeCfBbWKmaNxkLbpsfzqjcYrxkAhK" ] },
      { "delegate": "tz1aRoaRhSpRYvFdyvgWLL6TGyRoGF51wDjM",
        "reception_time": "2022-01-17T06:54:22.278-00:00",
        "included_in_blocks":
          [ "BL2w54hAX7jQcBJJBJ9nznpeCfBbWKmaNxkLbpsfzqjcYrxkAhK" ] },
      { "delegate": "tz1TRqbYbUf2GyrjErf3hBzgBJPzW8y36qEs",
        "reception_time": "2022-01-17T06:54:20.701-00:00",
        "included_in_blocks":
          [ "BL2w54hAX7jQcBJJBJ9nznpeCfBbWKmaNxkLbpsfzqjcYrxkAhK" ] },
      { "delegate": "tz1PWCDnz783NNGGQjEFFsHtrcK5yBW4E2rm",
        "reception_time": "2022-01-17T06:54:20.087-00:00",
        "included_in_blocks":
          [ "BL2w54hAX7jQcBJJBJ9nznpeCfBbWKmaNxkLbpsfzqjcYrxkAhK" ] },
      { "delegate": "tz3bvNMQ95vfAYtG8193ymshqjSvmxiCUuR5",
        "reception_time": "2022-01-17T06:54:21.184-00:00",
        "included_in_blocks":
          [ "BL2w54hAX7jQcBJJBJ9nznpeCfBbWKmaNxkLbpsfzqjcYrxkAhK" ] },
      { "delegate": "tz1WBfwbT66FC6BTLexc2BoyCCBM9LG7pnVW",
        "reception_time": "2022-01-17T06:54:20.278-00:00",
        "included_in_blocks":
          [ "BL2w54hAX7jQcBJJBJ9nznpeCfBbWKmaNxkLbpsfzqjcYrxkAhK" ] },
      { "delegate": "tz1LmaFsWRkjr7QMCx5PtV6xTUz3AmEpKQiF",
        "reception_time": "2022-01-17T06:54:20.644-00:00",
        "included_in_blocks":
          [ "BL2w54hAX7jQcBJJBJ9nznpeCfBbWKmaNxkLbpsfzqjcYrxkAhK" ] },
      { "delegate": "tz3QCNyySViKHmeSr45kzDxzchys7NiXCWoa",
        "reception_time": "2022-01-17T06:54:20.269-00:00",
        "included_in_blocks":
          [ "BL2w54hAX7jQcBJJBJ9nznpeCfBbWKmaNxkLbpsfzqjcYrxkAhK" ] },
      { "delegate": "tz1ei4WtWEMEJekSv8qDnu9PExG6Q8HgRGr3",
        "reception_time": "2022-01-17T06:54:20.315-00:00",
        "included_in_blocks":
          [ "BL2w54hAX7jQcBJJBJ9nznpeCfBbWKmaNxkLbpsfzqjcYrxkAhK" ] },
      { "delegate": "tz3gtoUxdudfBRcNY7iVdKPHCYYX6xdPpoRS",
        "reception_time": "2022-01-17T06:54:20.025-00:00",
        "included_in_blocks":
          [ "BL2w54hAX7jQcBJJBJ9nznpeCfBbWKmaNxkLbpsfzqjcYrxkAhK" ] },
      { "delegate": "tz1UJvHTgpVzcKWhTazGxVcn5wsHru5Gietg",
        "reception_time": "2022-01-17T06:54:19.975-00:00",
        "included_in_blocks":
          [ "BL2w54hAX7jQcBJJBJ9nznpeCfBbWKmaNxkLbpsfzqjcYrxkAhK" ] },
      { "delegate": "tz3QSGPoRp3Kn7n3vY24eYeu3Peuqo45LQ4D",
        "reception_time": "2022-01-17T06:54:19.907-00:00",
        "included_in_blocks":
          [ "BL2w54hAX7jQcBJJBJ9nznpeCfBbWKmaNxkLbpsfzqjcYrxkAhK" ] },
      { "delegate": "tz1MQMiZHV8q4tTwUMWmS5Y3kaP6J2136iXr",
        "reception_time": "2022-01-17T06:54:20.180-00:00",
        "included_in_blocks":
          [ "BL2w54hAX7jQcBJJBJ9nznpeCfBbWKmaNxkLbpsfzqjcYrxkAhK" ] },
      { "delegate": "tz1RCFbB9GpALpsZtu6J58sb74dm8qe6XBzv",
        "reception_time": "2022-01-17T06:54:20.101-00:00",
        "included_in_blocks":
          [ "BL2w54hAX7jQcBJJBJ9nznpeCfBbWKmaNxkLbpsfzqjcYrxkAhK" ] },
      { "delegate": "tz3hw2kqXhLUvY65ca1eety2oQTpAvd34R9Q",
        "reception_time": "2022-01-17T06:54:19.649-00:00",
        "included_in_blocks":
          [ "BL2w54hAX7jQcBJJBJ9nznpeCfBbWKmaNxkLbpsfzqjcYrxkAhK" ] },
      { "delegate": "tz1gfArv665EUkSg2ojMBzcbfwuPxAvqPvjo",
        "reception_time": "2022-01-17T06:54:19.856-00:00",
        "included_in_blocks":
          [ "BL2w54hAX7jQcBJJBJ9nznpeCfBbWKmaNxkLbpsfzqjcYrxkAhK" ] },
      { "delegate": "tz1WCd2jm4uSt4vntk4vSuUWoZQGhLcDuR9q",
        "reception_time": "2022-01-17T06:54:19.725-00:00",
        "included_in_blocks":
          [ "BL2w54hAX7jQcBJJBJ9nznpeCfBbWKmaNxkLbpsfzqjcYrxkAhK" ] },
      { "delegate": "tz1S8MNvuFEUsWgjHvi3AxibRBf388NhT1q2",
        "reception_time": "2022-01-17T06:54:20.109-00:00",
        "included_in_blocks":
          [ "BL2w54hAX7jQcBJJBJ9nznpeCfBbWKmaNxkLbpsfzqjcYrxkAhK" ] },
      { "delegate": "tz1SpU2P8EBQTAjxkdiTz3JAzZBj32w9Sb2Q",
        "reception_time": "2022-01-17T06:54:19.923-00:00",
        "included_in_blocks":
          [ "BL2w54hAX7jQcBJJBJ9nznpeCfBbWKmaNxkLbpsfzqjcYrxkAhK" ] },
      { "delegate": "tz1gUNyn3hmnEWqkusWPzxRaon1cs7ndWh7h",
        "reception_time": "2022-01-17T06:54:19.625-00:00",
        "included_in_blocks":
          [ "BL2w54hAX7jQcBJJBJ9nznpeCfBbWKmaNxkLbpsfzqjcYrxkAhK" ] },
      { "delegate": "tz1MQJPGNMijnXnVoBENFz9rUhaPt3S7rWoz",
        "reception_time": "2022-01-17T06:54:19.871-00:00",
        "included_in_blocks":
          [ "BL2w54hAX7jQcBJJBJ9nznpeCfBbWKmaNxkLbpsfzqjcYrxkAhK" ] },
      { "delegate": "tz3adcvQaKXTCg12zbninqo3q8ptKKtDFTLv",
        "reception_time": "2022-01-17T06:54:19.673-00:00",
        "included_in_blocks":
          [ "BL2w54hAX7jQcBJJBJ9nznpeCfBbWKmaNxkLbpsfzqjcYrxkAhK" ] },
      { "delegate": "tz1aXD7Jigrt3PBYSpHSg5Rr33SexMmmM5Ys",
        "reception_time": "2022-01-17T06:54:19.766-00:00",
        "included_in_blocks":
          [ "BL2w54hAX7jQcBJJBJ9nznpeCfBbWKmaNxkLbpsfzqjcYrxkAhK" ] },
      { "delegate": "tz3S6BBeKgJGXxvLyZ1xzXzMPn11nnFtq5L9",
        "reception_time": "2022-01-17T06:54:19.721-00:00",
        "included_in_blocks":
          [ "BL2w54hAX7jQcBJJBJ9nznpeCfBbWKmaNxkLbpsfzqjcYrxkAhK" ] },
      { "delegate": "tz3Zhs2dygr55yHyQyKjntAtY9bgfhLZ4Xj1",
        "reception_time": "2022-01-17T06:54:19.635-00:00",
        "included_in_blocks":
          [ "BL2w54hAX7jQcBJJBJ9nznpeCfBbWKmaNxkLbpsfzqjcYrxkAhK" ] },
      { "delegate": "tz1VmiY38m3y95HqQLjMwqnMS7sdMfGomzKi",
        "reception_time": "2022-01-17T06:54:19.750-00:00",
        "included_in_blocks":
          [ "BL2w54hAX7jQcBJJBJ9nznpeCfBbWKmaNxkLbpsfzqjcYrxkAhK" ] },
      { "delegate": "tz3iJu5vrKZcsqRPs8yJ61UDoeEXZmtro4qh",
        "reception_time": "2022-01-17T06:54:19.641-00:00",
        "included_in_blocks":
          [ "BL2w54hAX7jQcBJJBJ9nznpeCfBbWKmaNxkLbpsfzqjcYrxkAhK" ] },
      { "delegate": "tz3ZbP2pM3nwvXztbuMJwJnDvV5xdpU8UkkD",
        "reception_time": "2022-01-17T06:54:19.681-00:00",
        "included_in_blocks":
          [ "BL2w54hAX7jQcBJJBJ9nznpeCfBbWKmaNxkLbpsfzqjcYrxkAhK" ] },
      { "delegate": "tz3RB4aoyjov4KEVRbuhvQ1CKJgBJMWhaeB8",
        "reception_time": "2022-01-17T06:54:19.657-00:00",
        "included_in_blocks":
          [ "BL2w54hAX7jQcBJJBJ9nznpeCfBbWKmaNxkLbpsfzqjcYrxkAhK" ] },
      { "delegate": "tz1irJKkXS2DBWkU1NnmFQx1c1L7pbGg4yhk",
        "reception_time": "2022-01-17T06:54:19.604-00:00",
        "included_in_blocks":
          [ "BL2w54hAX7jQcBJJBJ9nznpeCfBbWKmaNxkLbpsfzqjcYrxkAhK" ] },
      { "delegate": "tz1Ldzz6k1BHdhuKvAtMRX7h5kJSMHESMHLC",
        "reception_time": "2022-01-17T06:54:19.621-00:00",
        "included_in_blocks":
          [ "BL2w54hAX7jQcBJJBJ9nznpeCfBbWKmaNxkLbpsfzqjcYrxkAhK" ] },
      { "delegate": "tz1VQnqCCqX4K5sP3FNkVSNKTdCAMJDd3E1n",
        "reception_time": "2022-01-17T06:54:19.628-00:00",
        "included_in_blocks":
          [ "BL2w54hAX7jQcBJJBJ9nznpeCfBbWKmaNxkLbpsfzqjcYrxkAhK" ] },
      { "delegate": "tz1eEnQhbwf6trb8Q8mPb2RaPkNk2rN7BKi8",
        "reception_time": "2022-01-17T06:54:19.600-00:00",
        "included_in_blocks":
          [ "BL2w54hAX7jQcBJJBJ9nznpeCfBbWKmaNxkLbpsfzqjcYrxkAhK" ] },
      { "delegate": "tz1cX93Q3KsiTADpCC4f12TBvAmS5tw7CW19",
        "reception_time": "2022-01-17T06:54:19.616-00:00",
        "included_in_blocks":
          [ "BL2w54hAX7jQcBJJBJ9nznpeCfBbWKmaNxkLbpsfzqjcYrxkAhK" ] },
      { "delegate": "tz3bTdwZinP8U1JmSweNzVKhmwafqWmFWRfk",
        "reception_time": "2022-01-17T06:54:19.593-00:00",
        "included_in_blocks":
          [ "BL2w54hAX7jQcBJJBJ9nznpeCfBbWKmaNxkLbpsfzqjcYrxkAhK" ] },
      { "delegate": "tz1MJx9vhaNRSimcuXPK2rW4fLccQnDAnVKJ",
        "reception_time": "2022-01-17T06:54:19.585-00:00",
        "included_in_blocks":
          [ "BL2w54hAX7jQcBJJBJ9nznpeCfBbWKmaNxkLbpsfzqjcYrxkAhK" ] },
      { "delegate": "tz1TXzyaKUA8wsWefdSnyaYFnV2M3vCV7er9",
        "reception_time": "2022-01-17T06:54:19.597-00:00",
        "included_in_blocks":
          [ "BL2w54hAX7jQcBJJBJ9nznpeCfBbWKmaNxkLbpsfzqjcYrxkAhK" ] } ] }