{ "blocks":
    [ { "hash": "BKukiYDbGVUeVgqCq2CQcJVvvkgiNas719Tx59pyBmcX5bucQss",
        "delegate": "tz3gtoUxdudfBRcNY7iVdKPHCYYX6xdPpoRS",
        "reception_time": "2022-01-17T11:01:35.472-00:00",
        "timestamp": "2022-01-17T11:01:30Z" } ],
  "endorsements":
    [ { "delegate": "tz1RjoHc98dBoqaH2jawF62XNKh7YsHwbkEv" },
      { "delegate": "tz1awXW7wuXy21c66vBudMXQVAPgRnqqwgTH" },
      { "delegate": "tz1TXzyaKUA8wsWefdSnyaYFnV2M3vCV7er9",
        "reception_time": "2022-01-17T11:01:36.098-00:00",
        "included_in_blocks":
          [ "BLtq8gbJPJwzZYi2YqGoENJb1PKjzJvhKPyfSsMeHwAF3wiCC1U" ] },
      { "delegate": "tz1aDiEJf9ztRrAJEXZfcG3CKimoKsGhwVAi",
        "reception_time": "2022-01-17T11:01:36.103-00:00",
        "included_in_blocks":
          [ "BLtq8gbJPJwzZYi2YqGoENJb1PKjzJvhKPyfSsMeHwAF3wiCC1U" ] },
      { "delegate": "tz1Scdr2HsZiQjc7bHMeBbmDRXYVvdhjJbBh",
        "reception_time": "2022-01-17T11:01:36.103-00:00",
        "included_in_blocks":
          [ "BLtq8gbJPJwzZYi2YqGoENJb1PKjzJvhKPyfSsMeHwAF3wiCC1U" ] },
      { "delegate": "tz1P2Po7YM526ughEsRbY4oR9zaUPDZjxFrb",
        "reception_time": "2022-01-17T11:01:36.111-00:00",
        "included_in_blocks":
          [ "BLtq8gbJPJwzZYi2YqGoENJb1PKjzJvhKPyfSsMeHwAF3wiCC1U" ] },
      { "delegate": "tz1eEnQhbwf6trb8Q8mPb2RaPkNk2rN7BKi8",
        "reception_time": "2022-01-17T11:01:36.124-00:00",
        "included_in_blocks":
          [ "BLtq8gbJPJwzZYi2YqGoENJb1PKjzJvhKPyfSsMeHwAF3wiCC1U" ] },
      { "delegate": "tz1d9ek6HrScY6QRZ71NJdB85MNz8gKGBjrv",
        "reception_time": "2022-01-17T11:01:36.126-00:00",
        "included_in_blocks":
          [ "BLtq8gbJPJwzZYi2YqGoENJb1PKjzJvhKPyfSsMeHwAF3wiCC1U" ] },
      { "delegate": "tz1irJKkXS2DBWkU1NnmFQx1c1L7pbGg4yhk",
        "reception_time": "2022-01-17T11:01:36.129-00:00",
        "included_in_blocks":
          [ "BLtq8gbJPJwzZYi2YqGoENJb1PKjzJvhKPyfSsMeHwAF3wiCC1U" ] },
      { "delegate": "tz3gtoUxdudfBRcNY7iVdKPHCYYX6xdPpoRS",
        "reception_time": "2022-01-17T11:01:36.135-00:00",
        "included_in_blocks":
          [ "BLtq8gbJPJwzZYi2YqGoENJb1PKjzJvhKPyfSsMeHwAF3wiCC1U" ] },
      { "delegate": "tz1U638Z3xWRiXDDKx2S125MCCaAeGDdA896",
        "reception_time": "2022-01-17T11:01:36.138-00:00",
        "included_in_blocks":
          [ "BLtq8gbJPJwzZYi2YqGoENJb1PKjzJvhKPyfSsMeHwAF3wiCC1U" ] },
      { "delegate": "tz1TRspM5SeZpaQUhzByXbEvqKF1vnCM2YTK",
        "reception_time": "2022-01-17T11:01:36.144-00:00",
        "included_in_blocks":
          [ "BLtq8gbJPJwzZYi2YqGoENJb1PKjzJvhKPyfSsMeHwAF3wiCC1U" ] },
      { "delegate": "tz1Kf25fX1VdmYGSEzwFy1wNmkbSEZ2V83sY",
        "reception_time": "2022-01-17T11:01:36.267-00:00",
        "included_in_blocks":
          [ "BLtq8gbJPJwzZYi2YqGoENJb1PKjzJvhKPyfSsMeHwAF3wiCC1U" ] },
      { "delegate": "tz1Kt4P8BCaP93AEV4eA7gmpRryWt5hznjCP",
        "reception_time": "2022-01-17T11:01:36.297-00:00",
        "included_in_blocks":
          [ "BLtq8gbJPJwzZYi2YqGoENJb1PKjzJvhKPyfSsMeHwAF3wiCC1U" ] },
      { "delegate": "tz3NxTnke1acr8o3h5y9ytf5awQBGNJUKzVU",
        "reception_time": "2022-01-17T11:01:36.383-00:00",
        "included_in_blocks":
          [ "BLtq8gbJPJwzZYi2YqGoENJb1PKjzJvhKPyfSsMeHwAF3wiCC1U" ] },
      { "delegate": "tz3ZbP2pM3nwvXztbuMJwJnDvV5xdpU8UkkD",
        "reception_time": "2022-01-17T11:01:36.417-00:00",
        "included_in_blocks":
          [ "BLtq8gbJPJwzZYi2YqGoENJb1PKjzJvhKPyfSsMeHwAF3wiCC1U" ] },
      { "delegate": "tz1Ldzz6k1BHdhuKvAtMRX7h5kJSMHESMHLC",
        "reception_time": "2022-01-17T11:01:36.425-00:00",
        "included_in_blocks":
          [ "BLtq8gbJPJwzZYi2YqGoENJb1PKjzJvhKPyfSsMeHwAF3wiCC1U" ] },
      { "delegate": "tz1VmiY38m3y95HqQLjMwqnMS7sdMfGomzKi",
        "reception_time": "2022-01-17T11:01:36.429-00:00",
        "included_in_blocks":
          [ "BLtq8gbJPJwzZYi2YqGoENJb1PKjzJvhKPyfSsMeHwAF3wiCC1U" ] },
      { "delegate": "tz1VQnqCCqX4K5sP3FNkVSNKTdCAMJDd3E1n",
        "reception_time": "2022-01-17T11:01:36.478-00:00",
        "included_in_blocks":
          [ "BLtq8gbJPJwzZYi2YqGoENJb1PKjzJvhKPyfSsMeHwAF3wiCC1U" ] },
      { "delegate": "tz1gUNyn3hmnEWqkusWPzxRaon1cs7ndWh7h",
        "reception_time": "2022-01-17T11:01:36.480-00:00",
        "included_in_blocks":
          [ "BLtq8gbJPJwzZYi2YqGoENJb1PKjzJvhKPyfSsMeHwAF3wiCC1U" ] },
      { "delegate": "tz3RKYFsLuQzKBtmYuLNas7uMu3AsYd4QdsA",
        "reception_time": "2022-01-17T11:01:36.579-00:00",
        "included_in_blocks":
          [ "BLtq8gbJPJwzZYi2YqGoENJb1PKjzJvhKPyfSsMeHwAF3wiCC1U" ] },
      { "delegate": "tz3Zhs2dygr55yHyQyKjntAtY9bgfhLZ4Xj1",
        "reception_time": "2022-01-17T11:01:36.615-00:00",
        "included_in_blocks":
          [ "BLtq8gbJPJwzZYi2YqGoENJb1PKjzJvhKPyfSsMeHwAF3wiCC1U" ] },
      { "delegate": "tz3hw2kqXhLUvY65ca1eety2oQTpAvd34R9Q",
        "reception_time": "2022-01-17T11:01:36.644-00:00",
        "included_in_blocks":
          [ "BLtq8gbJPJwzZYi2YqGoENJb1PKjzJvhKPyfSsMeHwAF3wiCC1U" ] },
      { "delegate": "tz3iJu5vrKZcsqRPs8yJ61UDoeEXZmtro4qh",
        "reception_time": "2022-01-17T11:01:36.644-00:00",
        "included_in_blocks":
          [ "BLtq8gbJPJwzZYi2YqGoENJb1PKjzJvhKPyfSsMeHwAF3wiCC1U" ] },
      { "delegate": "tz1WCd2jm4uSt4vntk4vSuUWoZQGhLcDuR9q",
        "reception_time": "2022-01-17T11:01:36.665-00:00",
        "included_in_blocks":
          [ "BLtq8gbJPJwzZYi2YqGoENJb1PKjzJvhKPyfSsMeHwAF3wiCC1U" ] },
      { "delegate": "tz3S6BBeKgJGXxvLyZ1xzXzMPn11nnFtq5L9",
        "reception_time": "2022-01-17T11:01:36.700-00:00",
        "included_in_blocks":
          [ "BLtq8gbJPJwzZYi2YqGoENJb1PKjzJvhKPyfSsMeHwAF3wiCC1U" ] },
      { "delegate": "tz3QT9dHYKDqh563chVa6za8526ys1UKfRfL",
        "reception_time": "2022-01-17T11:01:36.709-00:00",
        "included_in_blocks":
          [ "BLtq8gbJPJwzZYi2YqGoENJb1PKjzJvhKPyfSsMeHwAF3wiCC1U" ] },
      { "delegate": "tz1cSj7fTex3JPd1p1LN1fwek6AV1kH93Wwc",
        "reception_time": "2022-01-17T11:01:36.782-00:00",
        "included_in_blocks":
          [ "BLtq8gbJPJwzZYi2YqGoENJb1PKjzJvhKPyfSsMeHwAF3wiCC1U" ] },
      { "delegate": "tz1bHzftcTKZMTZgLLtnrXydCm6UEqf4ivca",
        "reception_time": "2022-01-17T11:01:36.919-00:00",
        "included_in_blocks":
          [ "BLtq8gbJPJwzZYi2YqGoENJb1PKjzJvhKPyfSsMeHwAF3wiCC1U" ] },
      { "delegate": "tz1fUjvVhJrHLZCbhPNvDRckxApqbkievJHN",
        "reception_time": "2022-01-17T11:01:37.018-00:00",
        "included_in_blocks":
          [ "BLtq8gbJPJwzZYi2YqGoENJb1PKjzJvhKPyfSsMeHwAF3wiCC1U" ] },
      { "delegate": "tz1g8vkmcde6sWKaG2NN9WKzCkDM6Rziq194",
        "reception_time": "2022-01-17T11:01:37.039-00:00",
        "included_in_blocks":
          [ "BLtq8gbJPJwzZYi2YqGoENJb1PKjzJvhKPyfSsMeHwAF3wiCC1U" ] },
      { "delegate": "tz1WBfwbT66FC6BTLexc2BoyCCBM9LG7pnVW",
        "reception_time": "2022-01-17T11:01:37.087-00:00",
        "included_in_blocks":
          [ "BLtq8gbJPJwzZYi2YqGoENJb1PKjzJvhKPyfSsMeHwAF3wiCC1U" ] },
      { "delegate": "tz1MGTFJXpQmtxLi8QJ7AuVRgM2L2Qfn9w9i",
        "reception_time": "2022-01-17T11:01:37.126-00:00",
        "included_in_blocks":
          [ "BLtq8gbJPJwzZYi2YqGoENJb1PKjzJvhKPyfSsMeHwAF3wiCC1U" ] },
      { "delegate": "tz3bTdwZinP8U1JmSweNzVKhmwafqWmFWRfk",
        "reception_time": "2022-01-17T11:01:37.283-00:00",
        "included_in_blocks":
          [ "BLtq8gbJPJwzZYi2YqGoENJb1PKjzJvhKPyfSsMeHwAF3wiCC1U" ] },
      { "delegate": "tz1c8JTzmA6c7cm6ZmUwR7WES6akdiMa1kwt",
        "reception_time": "2022-01-17T11:01:37.290-00:00",
        "included_in_blocks":
          [ "BLtq8gbJPJwzZYi2YqGoENJb1PKjzJvhKPyfSsMeHwAF3wiCC1U" ] },
      { "delegate": "tz1RCFbB9GpALpsZtu6J58sb74dm8qe6XBzv",
        "reception_time": "2022-01-17T11:01:37.305-00:00",
        "included_in_blocks":
          [ "BLtq8gbJPJwzZYi2YqGoENJb1PKjzJvhKPyfSsMeHwAF3wiCC1U" ] },
      { "delegate": "tz3bvNMQ95vfAYtG8193ymshqjSvmxiCUuR5",
        "reception_time": "2022-01-17T11:01:37.318-00:00",
        "included_in_blocks":
          [ "BLtq8gbJPJwzZYi2YqGoENJb1PKjzJvhKPyfSsMeHwAF3wiCC1U" ] },
      { "delegate": "tz1KfEsrtDaA1sX7vdM4qmEPWuSytuqCDp5j",
        "reception_time": "2022-01-17T11:01:37.349-00:00",
        "included_in_blocks":
          [ "BLtq8gbJPJwzZYi2YqGoENJb1PKjzJvhKPyfSsMeHwAF3wiCC1U" ] },
      { "delegate": "tz1gfArv665EUkSg2ojMBzcbfwuPxAvqPvjo",
        "reception_time": "2022-01-17T11:01:37.374-00:00",
        "included_in_blocks":
          [ "BLtq8gbJPJwzZYi2YqGoENJb1PKjzJvhKPyfSsMeHwAF3wiCC1U" ] },
      { "delegate": "tz1S8MNvuFEUsWgjHvi3AxibRBf388NhT1q2",
        "reception_time": "2022-01-17T11:01:37.381-00:00",
        "included_in_blocks":
          [ "BLtq8gbJPJwzZYi2YqGoENJb1PKjzJvhKPyfSsMeHwAF3wiCC1U" ] },
      { "delegate": "tz1LYW7Yepo9qsQx2kjpek2RYVMCeGwBvDCQ",
        "reception_time": "2022-01-17T11:01:37.417-00:00",
        "included_in_blocks":
          [ "BLtq8gbJPJwzZYi2YqGoENJb1PKjzJvhKPyfSsMeHwAF3wiCC1U" ] },
      { "delegate": "tz1ei4WtWEMEJekSv8qDnu9PExG6Q8HgRGr3",
        "reception_time": "2022-01-17T11:01:37.422-00:00",
        "included_in_blocks":
          [ "BLtq8gbJPJwzZYi2YqGoENJb1PKjzJvhKPyfSsMeHwAF3wiCC1U" ] },
      { "delegate": "tz1dNVDWPf3Q59SdJqnjdnu277iyvReiRS9M",
        "reception_time": "2022-01-17T11:01:37.426-00:00",
        "included_in_blocks":
          [ "BLtq8gbJPJwzZYi2YqGoENJb1PKjzJvhKPyfSsMeHwAF3wiCC1U" ] },
      { "delegate": "tz1SYq214SCBy9naR6cvycQsYcUGpBqQAE8d",
        "reception_time": "2022-01-17T11:01:37.468-00:00",
        "included_in_blocks":
          [ "BLtq8gbJPJwzZYi2YqGoENJb1PKjzJvhKPyfSsMeHwAF3wiCC1U" ] },
      { "delegate": "tz1fwnfJNgiDACshK9avfRfFbMaXrs3ghoJa",
        "reception_time": "2022-01-17T11:01:37.504-00:00",
        "included_in_blocks":
          [ "BLtq8gbJPJwzZYi2YqGoENJb1PKjzJvhKPyfSsMeHwAF3wiCC1U" ] },
      { "delegate": "tz3RDC3Jdn4j15J7bBHZd29EUee9gVB1CxD9",
        "reception_time": "2022-01-17T11:01:37.515-00:00",
        "included_in_blocks":
          [ "BLtq8gbJPJwzZYi2YqGoENJb1PKjzJvhKPyfSsMeHwAF3wiCC1U" ] },
      { "delegate": "tz1LmaFsWRkjr7QMCx5PtV6xTUz3AmEpKQiF",
        "reception_time": "2022-01-17T11:01:37.545-00:00",
        "included_in_blocks":
          [ "BLtq8gbJPJwzZYi2YqGoENJb1PKjzJvhKPyfSsMeHwAF3wiCC1U" ] },
      { "delegate": "tz1RQhNh7iB9CZA7i3ifTWNwiGYVffponfbB",
        "reception_time": "2022-01-17T11:01:37.647-00:00",
        "included_in_blocks":
          [ "BLtq8gbJPJwzZYi2YqGoENJb1PKjzJvhKPyfSsMeHwAF3wiCC1U" ] },
      { "delegate": "tz1Tnjaxk6tbAeC2TmMApPh8UsrEVQvhHvx5",
        "reception_time": "2022-01-17T11:01:37.682-00:00",
        "included_in_blocks":
          [ "BLtq8gbJPJwzZYi2YqGoENJb1PKjzJvhKPyfSsMeHwAF3wiCC1U" ] },
      { "delegate": "tz2FCNBrERXtaTtNX6iimR1UJ5JSDxvdHM93",
        "reception_time": "2022-01-17T11:01:37.737-00:00",
        "included_in_blocks":
          [ "BLtq8gbJPJwzZYi2YqGoENJb1PKjzJvhKPyfSsMeHwAF3wiCC1U" ] },
      { "delegate": "tz1PeZx7FXy7QRuMREGXGxeipb24RsMMzUNe",
        "reception_time": "2022-01-17T11:01:37.822-00:00",
        "included_in_blocks":
          [ "BLtq8gbJPJwzZYi2YqGoENJb1PKjzJvhKPyfSsMeHwAF3wiCC1U" ] },
      { "delegate": "tz1Nf6tsK4G6bBqgSQERy4nUtkHNKUVdh7q1",
        "reception_time": "2022-01-17T11:01:38.021-00:00",
        "included_in_blocks":
          [ "BLtq8gbJPJwzZYi2YqGoENJb1PKjzJvhKPyfSsMeHwAF3wiCC1U" ] },
      { "delegate": "tz1TRqbYbUf2GyrjErf3hBzgBJPzW8y36qEs",
        "reception_time": "2022-01-17T11:01:38.053-00:00",
        "included_in_blocks":
          [ "BLtq8gbJPJwzZYi2YqGoENJb1PKjzJvhKPyfSsMeHwAF3wiCC1U" ] },
      { "delegate": "tz3WMqdzXqRWXwyvj5Hp2H7QEepaUuS7vd9K",
        "reception_time": "2022-01-17T11:01:38.117-00:00",
        "included_in_blocks":
          [ "BLtq8gbJPJwzZYi2YqGoENJb1PKjzJvhKPyfSsMeHwAF3wiCC1U" ] },
      { "delegate": "tz1aRoaRhSpRYvFdyvgWLL6TGyRoGF51wDjM",
        "reception_time": "2022-01-17T11:01:38.156-00:00",
        "included_in_blocks":
          [ "BLtq8gbJPJwzZYi2YqGoENJb1PKjzJvhKPyfSsMeHwAF3wiCC1U" ] },
      { "delegate": "tz3VEZ4k6a4Wx42iyev6i2aVAptTRLEAivNN",
        "reception_time": "2022-01-17T11:01:38.224-00:00",
        "included_in_blocks":
          [ "BLtq8gbJPJwzZYi2YqGoENJb1PKjzJvhKPyfSsMeHwAF3wiCC1U" ] },
      { "delegate": "tz1cig1EHyvZd7J2k389moM9PxVgPQvmFkvi",
        "reception_time": "2022-01-17T11:01:38.300-00:00",
        "included_in_blocks":
          [ "BLtq8gbJPJwzZYi2YqGoENJb1PKjzJvhKPyfSsMeHwAF3wiCC1U" ] },
      { "delegate": "tz1NEKxGEHsFufk87CVZcrqWu8o22qh46GK6",
        "reception_time": "2022-01-17T11:01:38.512-00:00",
        "included_in_blocks":
          [ "BLtq8gbJPJwzZYi2YqGoENJb1PKjzJvhKPyfSsMeHwAF3wiCC1U" ] },
      { "delegate": "tz1Z2jXfEXL7dXhs6bsLmyLFLfmAkXBzA9WE",
        "reception_time": "2022-01-17T11:01:38.595-00:00",
        "included_in_blocks":
          [ "BLtq8gbJPJwzZYi2YqGoENJb1PKjzJvhKPyfSsMeHwAF3wiCC1U" ] },
      { "delegate": "tz1dRKU4FQ9QRRQPdaH4zCR6gmCmXfcvcgtB",
        "reception_time": "2022-01-17T11:01:38.900-00:00",
        "included_in_blocks":
          [ "BLtq8gbJPJwzZYi2YqGoENJb1PKjzJvhKPyfSsMeHwAF3wiCC1U" ] },
      { "delegate": "tz3RB4aoyjov4KEVRbuhvQ1CKJgBJMWhaeB8",
        "reception_time": "2022-01-17T11:01:38.983-00:00",
        "included_in_blocks":
          [ "BLtq8gbJPJwzZYi2YqGoENJb1PKjzJvhKPyfSsMeHwAF3wiCC1U" ] },
      { "delegate": "tz1T7duV5gZWSTq4YpBGbXNLTfznCLDrFxvs",
        "reception_time": "2022-01-17T11:01:39.155-00:00",
        "included_in_blocks":
          [ "BLtq8gbJPJwzZYi2YqGoENJb1PKjzJvhKPyfSsMeHwAF3wiCC1U" ] },
      { "delegate": "tz3NExpXn9aPNZPorRE4SdjJ2RGrfbJgMAaV",
        "reception_time": "2022-01-17T11:01:39.243-00:00",
        "included_in_blocks":
          [ "BLtq8gbJPJwzZYi2YqGoENJb1PKjzJvhKPyfSsMeHwAF3wiCC1U" ] },
      { "delegate": "tz3UoffC7FG7zfpmvmjUmUeAaHvzdcUvAj6r",
        "reception_time": "2022-01-17T11:01:39.299-00:00",
        "included_in_blocks":
          [ "BLtq8gbJPJwzZYi2YqGoENJb1PKjzJvhKPyfSsMeHwAF3wiCC1U" ] },
      { "delegate": "tz1ZcTRk5uxD86EFEn1vvNffWWqJy7q5eVhc",
        "reception_time": "2022-01-17T11:01:39.663-00:00",
        "included_in_blocks":
          [ "BLtq8gbJPJwzZYi2YqGoENJb1PKjzJvhKPyfSsMeHwAF3wiCC1U" ] },
      { "delegate": "tz1aoKwjRZjqnzdQwXeUtNqBvMWcpLmTk76m",
        "reception_time": "2022-01-17T11:01:39.730-00:00",
        "included_in_blocks":
          [ "BLtq8gbJPJwzZYi2YqGoENJb1PKjzJvhKPyfSsMeHwAF3wiCC1U" ] },
      { "delegate": "tz1Z9M4biBHSiH38k5ciRMjR5bgk89yEgLTz",
        "reception_time": "2022-01-17T11:01:40.288-00:00",
        "included_in_blocks":
          [ "BLtq8gbJPJwzZYi2YqGoENJb1PKjzJvhKPyfSsMeHwAF3wiCC1U" ] },
      { "delegate": "tz1eVaNx3gCmG1EsLjijkmgAxdLYVf6Bf5Sq",
        "reception_time": "2022-01-17T11:01:40.407-00:00",
        "included_in_blocks":
          [ "BLtq8gbJPJwzZYi2YqGoENJb1PKjzJvhKPyfSsMeHwAF3wiCC1U" ] },
      { "delegate": "tz1cYufsxHXJcvANhvS55h3aY32a9BAFB494",
        "reception_time": "2022-01-17T11:01:40.957-00:00",
        "included_in_blocks":
          [ "BLtq8gbJPJwzZYi2YqGoENJb1PKjzJvhKPyfSsMeHwAF3wiCC1U" ] },
      { "delegate": "tz1KwafrdmM8RwxUMxdbbtWyZuKLWSPVxe9u",
        "reception_time": "2022-01-17T11:01:42.220-00:00",
        "included_in_blocks":
          [ "BLtq8gbJPJwzZYi2YqGoENJb1PKjzJvhKPyfSsMeHwAF3wiCC1U" ] },
      { "delegate": "tz1NpWrAyDL9k2Lmnyxcgr9xuJakbBxdq7FB",
        "reception_time": "2022-01-17T11:01:44.342-00:00",
        "included_in_blocks":
          [ "BLtq8gbJPJwzZYi2YqGoENJb1PKjzJvhKPyfSsMeHwAF3wiCC1U" ] } ] }