{ "blocks":
    [ { "hash": "BLp7H3FxJBz6QaKg93dmPHDbGwGV3JhhFQL9p86152VQNw316cz",
        "delegate": "tz1Vd1rXpV8hTHbFXCXN3c3qzCsgcU5BZw1e",
        "reception_time": "2022-01-17T13:25:42.085-00:00",
        "timestamp": "2022-01-17T13:25:30Z" } ],
  "endorsements":
    [ { "delegate": "tz1eEnQhbwf6trb8Q8mPb2RaPkNk2rN7BKi8",
        "reception_time": "2022-01-17T13:25:41.925-00:00",
        "errors":
          [ { "kind": "temporary",
              "id": "proto.011-PtHangz2.prefilter.outdated_endorsement" } ],
        "included_in_blocks":
          [ "BMHer9DJQfhKydz2frKvUZMYx2ya5ob2VyMaqW2k8kdLS5EXp47" ] },
      { "delegate": "tz1beersuEDv8Z7ngQ825xfbaJNS2EhXnyHR",
        "reception_time": "2022-01-17T13:25:41.897-00:00",
        "errors":
          [ { "kind": "temporary",
              "id": "proto.011-PtHangz2.prefilter.outdated_endorsement" } ],
        "included_in_blocks":
          [ "BMHer9DJQfhKydz2frKvUZMYx2ya5ob2VyMaqW2k8kdLS5EXp47" ] },
      { "delegate": "tz1P2Po7YM526ughEsRbY4oR9zaUPDZjxFrb",
        "reception_time": "2022-01-17T13:25:41.644-00:00",
        "errors":
          [ { "kind": "temporary",
              "id": "proto.011-PtHangz2.prefilter.outdated_endorsement" } ],
        "included_in_blocks":
          [ "BMHer9DJQfhKydz2frKvUZMYx2ya5ob2VyMaqW2k8kdLS5EXp47" ] },
      { "delegate": "tz1Scdr2HsZiQjc7bHMeBbmDRXYVvdhjJbBh",
        "reception_time": "2022-01-17T13:25:41.577-00:00",
        "errors":
          [ { "kind": "temporary",
              "id": "proto.011-PtHangz2.prefilter.outdated_endorsement" } ],
        "included_in_blocks":
          [ "BMHer9DJQfhKydz2frKvUZMYx2ya5ob2VyMaqW2k8kdLS5EXp47" ] },
      { "delegate": "tz1S8e9GgdZG78XJRB3NqabfWeM37GnhZMWQ",
        "reception_time": "2022-01-17T13:25:41.357-00:00",
        "errors":
          [ { "kind": "temporary",
              "id": "proto.011-PtHangz2.prefilter.outdated_endorsement" } ],
        "included_in_blocks":
          [ "BMHer9DJQfhKydz2frKvUZMYx2ya5ob2VyMaqW2k8kdLS5EXp47" ] },
      { "delegate": "tz1XXayQohB8XRXN7kMoHbf2NFwNiH3oMRQQ",
        "reception_time": "2022-01-17T13:25:41.231-00:00",
        "errors":
          [ { "kind": "temporary",
              "id": "proto.011-PtHangz2.prefilter.outdated_endorsement" } ],
        "included_in_blocks":
          [ "BMHer9DJQfhKydz2frKvUZMYx2ya5ob2VyMaqW2k8kdLS5EXp47" ] },
      { "delegate": "tz1RjoHc98dBoqaH2jawF62XNKh7YsHwbkEv" },
      { "delegate": "tz1awXW7wuXy21c66vBudMXQVAPgRnqqwgTH" },
      { "delegate": "tz1XfAjZyaLdceHnZxbMYop7g7kWKPut4PR7",
        "reception_time": "2022-01-17T13:25:42.367-00:00",
        "included_in_blocks":
          [ "BMHer9DJQfhKydz2frKvUZMYx2ya5ob2VyMaqW2k8kdLS5EXp47" ] },
      { "delegate": "tz1iZEKy4LaAjnTmn2RuGDf2iqdAQKnRi8kY",
        "reception_time": "2022-01-17T13:25:42.674-00:00",
        "included_in_blocks":
          [ "BMHer9DJQfhKydz2frKvUZMYx2ya5ob2VyMaqW2k8kdLS5EXp47" ] },
      { "delegate": "tz1QLXqnfN51dkjeghXvKHkJfhvGiM5gK4tc",
        "reception_time": "2022-01-17T13:25:42.699-00:00",
        "included_in_blocks":
          [ "BMHer9DJQfhKydz2frKvUZMYx2ya5ob2VyMaqW2k8kdLS5EXp47" ] },
      { "delegate": "tz1irJKkXS2DBWkU1NnmFQx1c1L7pbGg4yhk",
        "reception_time": "2022-01-17T13:25:42.940-00:00",
        "included_in_blocks":
          [ "BMHer9DJQfhKydz2frKvUZMYx2ya5ob2VyMaqW2k8kdLS5EXp47" ] },
      { "delegate": "tz1VQnqCCqX4K5sP3FNkVSNKTdCAMJDd3E1n",
        "reception_time": "2022-01-17T13:25:42.944-00:00",
        "included_in_blocks":
          [ "BMHer9DJQfhKydz2frKvUZMYx2ya5ob2VyMaqW2k8kdLS5EXp47" ] },
      { "delegate": "tz1gUNyn3hmnEWqkusWPzxRaon1cs7ndWh7h",
        "reception_time": "2022-01-17T13:25:42.948-00:00",
        "included_in_blocks":
          [ "BMHer9DJQfhKydz2frKvUZMYx2ya5ob2VyMaqW2k8kdLS5EXp47" ] },
      { "delegate": "tz1MJx9vhaNRSimcuXPK2rW4fLccQnDAnVKJ",
        "reception_time": "2022-01-17T13:25:42.951-00:00",
        "included_in_blocks":
          [ "BMHer9DJQfhKydz2frKvUZMYx2ya5ob2VyMaqW2k8kdLS5EXp47" ] },
      { "delegate": "tz1Ldzz6k1BHdhuKvAtMRX7h5kJSMHESMHLC",
        "reception_time": "2022-01-17T13:25:42.973-00:00",
        "included_in_blocks":
          [ "BMHer9DJQfhKydz2frKvUZMYx2ya5ob2VyMaqW2k8kdLS5EXp47" ] },
      { "delegate": "tz3ZbP2pM3nwvXztbuMJwJnDvV5xdpU8UkkD",
        "reception_time": "2022-01-17T13:25:42.979-00:00",
        "included_in_blocks":
          [ "BMHer9DJQfhKydz2frKvUZMYx2ya5ob2VyMaqW2k8kdLS5EXp47" ] },
      { "delegate": "tz3NxTnke1acr8o3h5y9ytf5awQBGNJUKzVU",
        "reception_time": "2022-01-17T13:25:42.986-00:00",
        "included_in_blocks":
          [ "BMHer9DJQfhKydz2frKvUZMYx2ya5ob2VyMaqW2k8kdLS5EXp47" ] },
      { "delegate": "tz1d6Fx42mYgVFnHUW8T8A7WBfJ6nD9pVok8",
        "reception_time": "2022-01-17T13:25:42.988-00:00",
        "included_in_blocks":
          [ "BMHer9DJQfhKydz2frKvUZMYx2ya5ob2VyMaqW2k8kdLS5EXp47" ] },
      { "delegate": "tz1TRspM5SeZpaQUhzByXbEvqKF1vnCM2YTK",
        "reception_time": "2022-01-17T13:25:42.991-00:00",
        "included_in_blocks":
          [ "BMHer9DJQfhKydz2frKvUZMYx2ya5ob2VyMaqW2k8kdLS5EXp47" ] },
      { "delegate": "tz1TzaNn7wSQSP5gYPXCnNzBCpyMiidCq1PX",
        "reception_time": "2022-01-17T13:25:42.994-00:00",
        "included_in_blocks":
          [ "BMHer9DJQfhKydz2frKvUZMYx2ya5ob2VyMaqW2k8kdLS5EXp47" ] },
      { "delegate": "tz1WCd2jm4uSt4vntk4vSuUWoZQGhLcDuR9q",
        "reception_time": "2022-01-17T13:25:42.996-00:00",
        "included_in_blocks":
          [ "BMHer9DJQfhKydz2frKvUZMYx2ya5ob2VyMaqW2k8kdLS5EXp47" ] },
      { "delegate": "tz1aqcYgG6NuViML5vdWhohHJBYxcDVLNUsE",
        "reception_time": "2022-01-17T13:25:43.002-00:00",
        "included_in_blocks":
          [ "BMHer9DJQfhKydz2frKvUZMYx2ya5ob2VyMaqW2k8kdLS5EXp47" ] },
      { "delegate": "tz3S6BBeKgJGXxvLyZ1xzXzMPn11nnFtq5L9",
        "reception_time": "2022-01-17T13:25:43.012-00:00",
        "included_in_blocks":
          [ "BMHer9DJQfhKydz2frKvUZMYx2ya5ob2VyMaqW2k8kdLS5EXp47" ] },
      { "delegate": "tz3QT9dHYKDqh563chVa6za8526ys1UKfRfL",
        "reception_time": "2022-01-17T13:25:43.019-00:00",
        "included_in_blocks":
          [ "BMHer9DJQfhKydz2frKvUZMYx2ya5ob2VyMaqW2k8kdLS5EXp47" ] },
      { "delegate": "tz3gtoUxdudfBRcNY7iVdKPHCYYX6xdPpoRS",
        "reception_time": "2022-01-17T13:25:43.026-00:00",
        "included_in_blocks":
          [ "BMHer9DJQfhKydz2frKvUZMYx2ya5ob2VyMaqW2k8kdLS5EXp47" ] },
      { "delegate": "tz3Zhs2dygr55yHyQyKjntAtY9bgfhLZ4Xj1",
        "reception_time": "2022-01-17T13:25:43.033-00:00",
        "included_in_blocks":
          [ "BMHer9DJQfhKydz2frKvUZMYx2ya5ob2VyMaqW2k8kdLS5EXp47" ] },
      { "delegate": "tz3iJu5vrKZcsqRPs8yJ61UDoeEXZmtro4qh",
        "reception_time": "2022-01-17T13:25:43.058-00:00",
        "included_in_blocks":
          [ "BMHer9DJQfhKydz2frKvUZMYx2ya5ob2VyMaqW2k8kdLS5EXp47" ] },
      { "delegate": "tz3RKYFsLuQzKBtmYuLNas7uMu3AsYd4QdsA",
        "reception_time": "2022-01-17T13:25:43.069-00:00",
        "included_in_blocks":
          [ "BMHer9DJQfhKydz2frKvUZMYx2ya5ob2VyMaqW2k8kdLS5EXp47" ] },
      { "delegate": "tz3QCNyySViKHmeSr45kzDxzchys7NiXCWoa",
        "reception_time": "2022-01-17T13:25:43.078-00:00",
        "included_in_blocks":
          [ "BMHer9DJQfhKydz2frKvUZMYx2ya5ob2VyMaqW2k8kdLS5EXp47" ] },
      { "delegate": "tz3hw2kqXhLUvY65ca1eety2oQTpAvd34R9Q",
        "reception_time": "2022-01-17T13:25:43.094-00:00",
        "included_in_blocks":
          [ "BMHer9DJQfhKydz2frKvUZMYx2ya5ob2VyMaqW2k8kdLS5EXp47" ] },
      { "delegate": "tz3QSGPoRp3Kn7n3vY24eYeu3Peuqo45LQ4D",
        "reception_time": "2022-01-17T13:25:43.119-00:00",
        "included_in_blocks":
          [ "BMHer9DJQfhKydz2frKvUZMYx2ya5ob2VyMaqW2k8kdLS5EXp47" ] },
      { "delegate": "tz1PWCDnz783NNGGQjEFFsHtrcK5yBW4E2rm",
        "reception_time": "2022-01-17T13:25:43.124-00:00",
        "included_in_blocks":
          [ "BMHer9DJQfhKydz2frKvUZMYx2ya5ob2VyMaqW2k8kdLS5EXp47" ] },
      { "delegate": "tz1MQMiZHV8q4tTwUMWmS5Y3kaP6J2136iXr",
        "reception_time": "2022-01-17T13:25:43.142-00:00",
        "included_in_blocks":
          [ "BMHer9DJQfhKydz2frKvUZMYx2ya5ob2VyMaqW2k8kdLS5EXp47" ] },
      { "delegate": "tz1YhNsiRRU8aHNGg7NK3uuP6UDAyacJernB",
        "reception_time": "2022-01-17T13:25:43.180-00:00",
        "included_in_blocks":
          [ "BMHer9DJQfhKydz2frKvUZMYx2ya5ob2VyMaqW2k8kdLS5EXp47" ] },
      { "delegate": "tz1UJvHTgpVzcKWhTazGxVcn5wsHru5Gietg",
        "reception_time": "2022-01-17T13:25:43.410-00:00",
        "included_in_blocks":
          [ "BMHer9DJQfhKydz2frKvUZMYx2ya5ob2VyMaqW2k8kdLS5EXp47" ] },
      { "delegate": "tz3RB4aoyjov4KEVRbuhvQ1CKJgBJMWhaeB8",
        "reception_time": "2022-01-17T13:25:43.425-00:00",
        "included_in_blocks":
          [ "BMHer9DJQfhKydz2frKvUZMYx2ya5ob2VyMaqW2k8kdLS5EXp47" ] },
      { "delegate": "tz1V4qCyvPKZ5UeqdH14HN42rxvNPQfc9UZg",
        "reception_time": "2022-01-17T13:25:43.546-00:00",
        "included_in_blocks":
          [ "BMHer9DJQfhKydz2frKvUZMYx2ya5ob2VyMaqW2k8kdLS5EXp47" ] },
      { "delegate": "tz1ei4WtWEMEJekSv8qDnu9PExG6Q8HgRGr3",
        "reception_time": "2022-01-17T13:25:43.580-00:00",
        "included_in_blocks":
          [ "BMHer9DJQfhKydz2frKvUZMYx2ya5ob2VyMaqW2k8kdLS5EXp47" ] },
      { "delegate": "tz2FCNBrERXtaTtNX6iimR1UJ5JSDxvdHM93",
        "reception_time": "2022-01-17T13:25:43.599-00:00",
        "included_in_blocks":
          [ "BMHer9DJQfhKydz2frKvUZMYx2ya5ob2VyMaqW2k8kdLS5EXp47" ] },
      { "delegate": "tz3bTdwZinP8U1JmSweNzVKhmwafqWmFWRfk",
        "reception_time": "2022-01-17T13:25:43.609-00:00",
        "included_in_blocks":
          [ "BMHer9DJQfhKydz2frKvUZMYx2ya5ob2VyMaqW2k8kdLS5EXp47" ] },
      { "delegate": "tz3RDC3Jdn4j15J7bBHZd29EUee9gVB1CxD9",
        "reception_time": "2022-01-17T13:25:43.633-00:00",
        "included_in_blocks":
          [ "BMHer9DJQfhKydz2frKvUZMYx2ya5ob2VyMaqW2k8kdLS5EXp47" ] },
      { "delegate": "tz1S8MNvuFEUsWgjHvi3AxibRBf388NhT1q2",
        "reception_time": "2022-01-17T13:25:43.673-00:00",
        "included_in_blocks":
          [ "BMHer9DJQfhKydz2frKvUZMYx2ya5ob2VyMaqW2k8kdLS5EXp47" ] },
      { "delegate": "tz1TwVimQy3BywXoSszdFXjT9bSTQrsZYo2u",
        "reception_time": "2022-01-17T13:25:43.678-00:00",
        "included_in_blocks":
          [ "BMHer9DJQfhKydz2frKvUZMYx2ya5ob2VyMaqW2k8kdLS5EXp47" ] },
      { "delegate": "tz1TEc75UKXv4W5cwi14Na3NtqFD51yKQi7h",
        "reception_time": "2022-01-17T13:25:43.691-00:00",
        "included_in_blocks":
          [ "BMHer9DJQfhKydz2frKvUZMYx2ya5ob2VyMaqW2k8kdLS5EXp47" ] },
      { "delegate": "tz1fPKAtsYydh4f1wfWNfeNxWYu72TmM48fu",
        "reception_time": "2022-01-17T13:25:43.720-00:00",
        "included_in_blocks":
          [ "BMHer9DJQfhKydz2frKvUZMYx2ya5ob2VyMaqW2k8kdLS5EXp47" ] },
      { "delegate": "tz1Tnjaxk6tbAeC2TmMApPh8UsrEVQvhHvx5",
        "reception_time": "2022-01-17T13:25:43.731-00:00",
        "included_in_blocks":
          [ "BMHer9DJQfhKydz2frKvUZMYx2ya5ob2VyMaqW2k8kdLS5EXp47" ] },
      { "delegate": "tz1Nf6tsK4G6bBqgSQERy4nUtkHNKUVdh7q1",
        "reception_time": "2022-01-17T13:25:43.734-00:00",
        "included_in_blocks":
          [ "BMHer9DJQfhKydz2frKvUZMYx2ya5ob2VyMaqW2k8kdLS5EXp47" ] },
      { "delegate": "tz1LmaFsWRkjr7QMCx5PtV6xTUz3AmEpKQiF",
        "reception_time": "2022-01-17T13:25:43.771-00:00",
        "included_in_blocks":
          [ "BMHer9DJQfhKydz2frKvUZMYx2ya5ob2VyMaqW2k8kdLS5EXp47" ] },
      { "delegate": "tz1MQJPGNMijnXnVoBENFz9rUhaPt3S7rWoz",
        "reception_time": "2022-01-17T13:25:43.875-00:00",
        "included_in_blocks":
          [ "BMHer9DJQfhKydz2frKvUZMYx2ya5ob2VyMaqW2k8kdLS5EXp47" ] },
      { "delegate": "tz1SUgyRB8T5jXgXAwS33pgRHAKrafyg87Yc",
        "reception_time": "2022-01-17T13:25:43.897-00:00",
        "included_in_blocks":
          [ "BMHer9DJQfhKydz2frKvUZMYx2ya5ob2VyMaqW2k8kdLS5EXp47" ] },
      { "delegate": "tz1g8vkmcde6sWKaG2NN9WKzCkDM6Rziq194",
        "reception_time": "2022-01-17T13:25:43.903-00:00",
        "included_in_blocks":
          [ "BMHer9DJQfhKydz2frKvUZMYx2ya5ob2VyMaqW2k8kdLS5EXp47" ] },
      { "delegate": "tz1RCFbB9GpALpsZtu6J58sb74dm8qe6XBzv",
        "reception_time": "2022-01-17T13:25:43.943-00:00",
        "included_in_blocks":
          [ "BMHer9DJQfhKydz2frKvUZMYx2ya5ob2VyMaqW2k8kdLS5EXp47" ] },
      { "delegate": "tz1abmz7jiCV2GH2u81LRrGgAFFgvQgiDiaf",
        "reception_time": "2022-01-17T13:25:44.057-00:00",
        "included_in_blocks":
          [ "BMHer9DJQfhKydz2frKvUZMYx2ya5ob2VyMaqW2k8kdLS5EXp47" ] },
      { "delegate": "tz1KfEsrtDaA1sX7vdM4qmEPWuSytuqCDp5j",
        "reception_time": "2022-01-17T13:25:44.114-00:00",
        "included_in_blocks":
          [ "BMHer9DJQfhKydz2frKvUZMYx2ya5ob2VyMaqW2k8kdLS5EXp47" ] },
      { "delegate": "tz1gfArv665EUkSg2ojMBzcbfwuPxAvqPvjo",
        "reception_time": "2022-01-17T13:25:44.217-00:00",
        "included_in_blocks":
          [ "BMHer9DJQfhKydz2frKvUZMYx2ya5ob2VyMaqW2k8kdLS5EXp47" ] },
      { "delegate": "tz1hAYfexyzPGG6RhZZMpDvAHifubsbb6kgn",
        "reception_time": "2022-01-17T13:25:44.250-00:00",
        "included_in_blocks":
          [ "BMHer9DJQfhKydz2frKvUZMYx2ya5ob2VyMaqW2k8kdLS5EXp47" ] },
      { "delegate": "tz1NEKxGEHsFufk87CVZcrqWu8o22qh46GK6",
        "reception_time": "2022-01-17T13:25:44.385-00:00",
        "included_in_blocks":
          [ "BMHer9DJQfhKydz2frKvUZMYx2ya5ob2VyMaqW2k8kdLS5EXp47" ] },
      { "delegate": "tz3adcvQaKXTCg12zbninqo3q8ptKKtDFTLv",
        "reception_time": "2022-01-17T13:25:44.660-00:00",
        "included_in_blocks":
          [ "BMHer9DJQfhKydz2frKvUZMYx2ya5ob2VyMaqW2k8kdLS5EXp47" ] },
      { "delegate": "tz1iPHM2Xx2hwmzcr1EG1zzrV6oKafVoA91m",
        "reception_time": "2022-01-17T13:25:44.669-00:00",
        "included_in_blocks":
          [ "BMHer9DJQfhKydz2frKvUZMYx2ya5ob2VyMaqW2k8kdLS5EXp47" ] },
      { "delegate": "tz3WMqdzXqRWXwyvj5Hp2H7QEepaUuS7vd9K",
        "reception_time": "2022-01-17T13:25:44.794-00:00",
        "included_in_blocks":
          [ "BMHer9DJQfhKydz2frKvUZMYx2ya5ob2VyMaqW2k8kdLS5EXp47" ] },
      { "delegate": "tz3bvNMQ95vfAYtG8193ymshqjSvmxiCUuR5",
        "reception_time": "2022-01-17T13:25:44.896-00:00",
        "included_in_blocks":
          [ "BMHer9DJQfhKydz2frKvUZMYx2ya5ob2VyMaqW2k8kdLS5EXp47" ] },
      { "delegate": "tz1WApynBLihFFfDpaDdFerYvQE4dsZyfocn",
        "reception_time": "2022-01-17T13:25:44.946-00:00",
        "included_in_blocks":
          [ "BMHer9DJQfhKydz2frKvUZMYx2ya5ob2VyMaqW2k8kdLS5EXp47" ] },
      { "delegate": "tz1dRKU4FQ9QRRQPdaH4zCR6gmCmXfcvcgtB",
        "reception_time": "2022-01-17T13:25:44.951-00:00",
        "included_in_blocks":
          [ "BMHer9DJQfhKydz2frKvUZMYx2ya5ob2VyMaqW2k8kdLS5EXp47" ] },
      { "delegate": "tz1aRoaRhSpRYvFdyvgWLL6TGyRoGF51wDjM",
        "reception_time": "2022-01-17T13:25:45.041-00:00",
        "included_in_blocks":
          [ "BMHer9DJQfhKydz2frKvUZMYx2ya5ob2VyMaqW2k8kdLS5EXp47" ] },
      { "delegate": "tz3gLTu4Yxj8tPAcriQVUdxv6BY9QyvzU1az",
        "reception_time": "2022-01-17T13:25:45.505-00:00",
        "included_in_blocks":
          [ "BMHer9DJQfhKydz2frKvUZMYx2ya5ob2VyMaqW2k8kdLS5EXp47" ] },
      { "delegate": "tz3NDpRj6WBrJPikcPVHRBEjWKxFw3c6eQPS",
        "reception_time": "2022-01-17T13:25:45.512-00:00",
        "included_in_blocks":
          [ "BMHer9DJQfhKydz2frKvUZMYx2ya5ob2VyMaqW2k8kdLS5EXp47" ] },
      { "delegate": "tz1T7duV5gZWSTq4YpBGbXNLTfznCLDrFxvs",
        "reception_time": "2022-01-17T13:25:45.527-00:00",
        "included_in_blocks":
          [ "BMHer9DJQfhKydz2frKvUZMYx2ya5ob2VyMaqW2k8kdLS5EXp47" ] },
      { "delegate": "tz3VEZ4k6a4Wx42iyev6i2aVAptTRLEAivNN",
        "reception_time": "2022-01-17T13:25:45.553-00:00",
        "included_in_blocks":
          [ "BMHer9DJQfhKydz2frKvUZMYx2ya5ob2VyMaqW2k8kdLS5EXp47" ] },
      { "delegate": "tz1NMNQYrYrfNpmUqQrMhJypf6ovnaDZhJHM",
        "reception_time": "2022-01-17T13:25:45.712-00:00",
        "included_in_blocks":
          [ "BMHer9DJQfhKydz2frKvUZMYx2ya5ob2VyMaqW2k8kdLS5EXp47" ] },
      { "delegate": "tz3UoffC7FG7zfpmvmjUmUeAaHvzdcUvAj6r",
        "reception_time": "2022-01-17T13:25:46.206-00:00",
        "included_in_blocks":
          [ "BMHer9DJQfhKydz2frKvUZMYx2ya5ob2VyMaqW2k8kdLS5EXp47" ] },
      { "delegate": "tz1eVaNx3gCmG1EsLjijkmgAxdLYVf6Bf5Sq",
        "reception_time": "2022-01-17T13:25:46.631-00:00",
        "included_in_blocks":
          [ "BMHer9DJQfhKydz2frKvUZMYx2ya5ob2VyMaqW2k8kdLS5EXp47" ] },
      { "delegate": "tz1cYufsxHXJcvANhvS55h3aY32a9BAFB494",
        "reception_time": "2022-01-17T13:25:50.219-00:00",
        "included_in_blocks":
          [ "BMHer9DJQfhKydz2frKvUZMYx2ya5ob2VyMaqW2k8kdLS5EXp47" ] } ] }