{ "blocks":
    [ { "hash": "BMF8yMDtj11PL1qxGEiEkTQaUaxW3KhgEW737i5YYSk6McoPcLn",
        "delegate": "tz3WMqdzXqRWXwyvj5Hp2H7QEepaUuS7vd9K",
        "reception_time": "2022-01-17T13:31:37.536-00:00",
        "timestamp": "2022-01-17T13:31:30Z" } ],
  "endorsements":
    [ { "delegate": "tz1awXW7wuXy21c66vBudMXQVAPgRnqqwgTH" },
      { "delegate": "tz1RjoHc98dBoqaH2jawF62XNKh7YsHwbkEv" },
      { "delegate": "tz1P2Po7YM526ughEsRbY4oR9zaUPDZjxFrb",
        "reception_time": "2022-01-17T13:31:37.451-00:00",
        "errors":
          [ { "kind": "temporary",
              "id": "proto.011-PtHangz2.prefilter.outdated_endorsement" } ],
        "included_in_blocks":
          [ "BKkP42fDRVUWVmkf5Z4s41Upabm9XgTfDXgo11UvH3X9KtBQnZm" ] },
      { "delegate": "tz1S8e9GgdZG78XJRB3NqabfWeM37GnhZMWQ",
        "reception_time": "2022-01-17T13:31:37.440-00:00",
        "errors":
          [ { "kind": "temporary",
              "id": "proto.011-PtHangz2.prefilter.outdated_endorsement" } ],
        "included_in_blocks":
          [ "BKkP42fDRVUWVmkf5Z4s41Upabm9XgTfDXgo11UvH3X9KtBQnZm" ] },
      { "delegate": "tz1W5VkdB5s7ENMESVBtwyt9kyvLqPcUczRT",
        "reception_time": "2022-01-17T13:31:42.530-00:00",
        "included_in_blocks":
          [ "BKkP42fDRVUWVmkf5Z4s41Upabm9XgTfDXgo11UvH3X9KtBQnZm" ] },
      { "delegate": "tz1eVaNx3gCmG1EsLjijkmgAxdLYVf6Bf5Sq",
        "reception_time": "2022-01-17T13:31:41.996-00:00",
        "included_in_blocks":
          [ "BKkP42fDRVUWVmkf5Z4s41Upabm9XgTfDXgo11UvH3X9KtBQnZm" ] },
      { "delegate": "tz3NDpRj6WBrJPikcPVHRBEjWKxFw3c6eQPS",
        "reception_time": "2022-01-17T13:31:41.207-00:00",
        "included_in_blocks":
          [ "BKkP42fDRVUWVmkf5Z4s41Upabm9XgTfDXgo11UvH3X9KtBQnZm" ] },
      { "delegate": "tz3gLTu4Yxj8tPAcriQVUdxv6BY9QyvzU1az",
        "reception_time": "2022-01-17T13:31:41.196-00:00",
        "included_in_blocks":
          [ "BKkP42fDRVUWVmkf5Z4s41Upabm9XgTfDXgo11UvH3X9KtBQnZm" ] },
      { "delegate": "tz1aRoaRhSpRYvFdyvgWLL6TGyRoGF51wDjM",
        "reception_time": "2022-01-17T13:31:40.826-00:00",
        "included_in_blocks":
          [ "BKkP42fDRVUWVmkf5Z4s41Upabm9XgTfDXgo11UvH3X9KtBQnZm" ] },
      { "delegate": "tz3bvNMQ95vfAYtG8193ymshqjSvmxiCUuR5",
        "reception_time": "2022-01-17T13:31:40.909-00:00",
        "included_in_blocks":
          [ "BKkP42fDRVUWVmkf5Z4s41Upabm9XgTfDXgo11UvH3X9KtBQnZm" ] },
      { "delegate": "tz1UvkANVPWppVgMkLnvN7BwYZsCP7vm6NVd",
        "reception_time": "2022-01-17T13:31:40.630-00:00",
        "included_in_blocks":
          [ "BKkP42fDRVUWVmkf5Z4s41Upabm9XgTfDXgo11UvH3X9KtBQnZm" ] },
      { "delegate": "tz3RB4aoyjov4KEVRbuhvQ1CKJgBJMWhaeB8",
        "reception_time": "2022-01-17T13:31:40.360-00:00",
        "included_in_blocks":
          [ "BKkP42fDRVUWVmkf5Z4s41Upabm9XgTfDXgo11UvH3X9KtBQnZm" ] },
      { "delegate": "tz1dRKU4FQ9QRRQPdaH4zCR6gmCmXfcvcgtB",
        "reception_time": "2022-01-17T13:31:40.634-00:00",
        "included_in_blocks":
          [ "BKkP42fDRVUWVmkf5Z4s41Upabm9XgTfDXgo11UvH3X9KtBQnZm" ] },
      { "delegate": "tz1T7duV5gZWSTq4YpBGbXNLTfznCLDrFxvs",
        "reception_time": "2022-01-17T13:31:40.284-00:00",
        "included_in_blocks":
          [ "BKkP42fDRVUWVmkf5Z4s41Upabm9XgTfDXgo11UvH3X9KtBQnZm" ] },
      { "delegate": "tz1WvL7MKyCuUHfC3FxPFyiXcy8hHTBT3vjE",
        "reception_time": "2022-01-17T13:31:40.438-00:00",
        "included_in_blocks":
          [ "BKkP42fDRVUWVmkf5Z4s41Upabm9XgTfDXgo11UvH3X9KtBQnZm" ] },
      { "delegate": "tz3RDC3Jdn4j15J7bBHZd29EUee9gVB1CxD9",
        "reception_time": "2022-01-17T13:31:40.148-00:00",
        "included_in_blocks":
          [ "BKkP42fDRVUWVmkf5Z4s41Upabm9XgTfDXgo11UvH3X9KtBQnZm" ] },
      { "delegate": "tz2FCNBrERXtaTtNX6iimR1UJ5JSDxvdHM93",
        "reception_time": "2022-01-17T13:31:40.014-00:00",
        "included_in_blocks":
          [ "BKkP42fDRVUWVmkf5Z4s41Upabm9XgTfDXgo11UvH3X9KtBQnZm" ] },
      { "delegate": "tz1TRqbYbUf2GyrjErf3hBzgBJPzW8y36qEs",
        "reception_time": "2022-01-17T13:31:40.002-00:00",
        "included_in_blocks":
          [ "BKkP42fDRVUWVmkf5Z4s41Upabm9XgTfDXgo11UvH3X9KtBQnZm" ] },
      { "delegate": "tz1PeZx7FXy7QRuMREGXGxeipb24RsMMzUNe",
        "reception_time": "2022-01-17T13:31:39.904-00:00",
        "included_in_blocks":
          [ "BKkP42fDRVUWVmkf5Z4s41Upabm9XgTfDXgo11UvH3X9KtBQnZm" ] },
      { "delegate": "tz1f3Re8iw6Pt3KMHAvyccHxDU3NuqL95axD",
        "reception_time": "2022-01-17T13:31:40.276-00:00",
        "included_in_blocks":
          [ "BKkP42fDRVUWVmkf5Z4s41Upabm9XgTfDXgo11UvH3X9KtBQnZm" ] },
      { "delegate": "tz1abmz7jiCV2GH2u81LRrGgAFFgvQgiDiaf",
        "reception_time": "2022-01-17T13:31:39.860-00:00",
        "included_in_blocks":
          [ "BKkP42fDRVUWVmkf5Z4s41Upabm9XgTfDXgo11UvH3X9KtBQnZm" ] },
      { "delegate": "tz1NSDFKuRyzHxpfG1AMkyCwEiZ52cbR2mRW",
        "reception_time": "2022-01-17T13:31:39.489-00:00",
        "included_in_blocks":
          [ "BKkP42fDRVUWVmkf5Z4s41Upabm9XgTfDXgo11UvH3X9KtBQnZm" ] },
      { "delegate": "tz1dwu9aYb7CRNq4Y2zAjipdjFuSVKhHS8vA",
        "reception_time": "2022-01-17T13:31:39.191-00:00",
        "included_in_blocks":
          [ "BKkP42fDRVUWVmkf5Z4s41Upabm9XgTfDXgo11UvH3X9KtBQnZm" ] },
      { "delegate": "tz1NortRftucvAkD1J58L32EhSVrQEWJCEnB",
        "reception_time": "2022-01-17T13:31:39.264-00:00",
        "included_in_blocks":
          [ "BKkP42fDRVUWVmkf5Z4s41Upabm9XgTfDXgo11UvH3X9KtBQnZm" ] },
      { "delegate": "tz1RCFbB9GpALpsZtu6J58sb74dm8qe6XBzv",
        "reception_time": "2022-01-17T13:31:39.471-00:00",
        "included_in_blocks":
          [ "BKkP42fDRVUWVmkf5Z4s41Upabm9XgTfDXgo11UvH3X9KtBQnZm" ] },
      { "delegate": "tz3S6BBeKgJGXxvLyZ1xzXzMPn11nnFtq5L9",
        "reception_time": "2022-01-17T13:31:39.161-00:00",
        "included_in_blocks":
          [ "BKkP42fDRVUWVmkf5Z4s41Upabm9XgTfDXgo11UvH3X9KtBQnZm" ] },
      { "delegate": "tz3QT9dHYKDqh563chVa6za8526ys1UKfRfL",
        "reception_time": "2022-01-17T13:31:39.052-00:00",
        "included_in_blocks":
          [ "BKkP42fDRVUWVmkf5Z4s41Upabm9XgTfDXgo11UvH3X9KtBQnZm" ] },
      { "delegate": "tz1SYq214SCBy9naR6cvycQsYcUGpBqQAE8d",
        "reception_time": "2022-01-17T13:31:39.128-00:00",
        "included_in_blocks":
          [ "BKkP42fDRVUWVmkf5Z4s41Upabm9XgTfDXgo11UvH3X9KtBQnZm" ] },
      { "delegate": "tz1XX67xSF2ou3aQZ6LhXaaxZWDR3YZ6hCMs",
        "reception_time": "2022-01-17T13:31:39.038-00:00",
        "included_in_blocks":
          [ "BKkP42fDRVUWVmkf5Z4s41Upabm9XgTfDXgo11UvH3X9KtBQnZm" ] },
      { "delegate": "tz1bHzftcTKZMTZgLLtnrXydCm6UEqf4ivca",
        "reception_time": "2022-01-17T13:31:39.044-00:00",
        "included_in_blocks":
          [ "BKkP42fDRVUWVmkf5Z4s41Upabm9XgTfDXgo11UvH3X9KtBQnZm" ] },
      { "delegate": "tz3Zhs2dygr55yHyQyKjntAtY9bgfhLZ4Xj1",
        "reception_time": "2022-01-17T13:31:38.982-00:00",
        "included_in_blocks":
          [ "BKkP42fDRVUWVmkf5Z4s41Upabm9XgTfDXgo11UvH3X9KtBQnZm" ] },
      { "delegate": "tz3NExpXn9aPNZPorRE4SdjJ2RGrfbJgMAaV",
        "reception_time": "2022-01-17T13:31:40.191-00:00",
        "included_in_blocks":
          [ "BKkP42fDRVUWVmkf5Z4s41Upabm9XgTfDXgo11UvH3X9KtBQnZm" ] },
      { "delegate": "tz1cSj7fTex3JPd1p1LN1fwek6AV1kH93Wwc",
        "reception_time": "2022-01-17T13:31:39.000-00:00",
        "included_in_blocks":
          [ "BKkP42fDRVUWVmkf5Z4s41Upabm9XgTfDXgo11UvH3X9KtBQnZm" ] },
      { "delegate": "tz1WnfXMPaNTBmH7DBPwqCWs9cPDJdkGBTZ8",
        "reception_time": "2022-01-17T13:31:38.986-00:00",
        "included_in_blocks":
          [ "BKkP42fDRVUWVmkf5Z4s41Upabm9XgTfDXgo11UvH3X9KtBQnZm" ] },
      { "delegate": "tz1UMCB2AHSTwG7YcGNr31CqYCtGN873royv",
        "reception_time": "2022-01-17T13:31:39.426-00:00",
        "included_in_blocks":
          [ "BKkP42fDRVUWVmkf5Z4s41Upabm9XgTfDXgo11UvH3X9KtBQnZm" ] },
      { "delegate": "tz3iJu5vrKZcsqRPs8yJ61UDoeEXZmtro4qh",
        "reception_time": "2022-01-17T13:31:38.909-00:00",
        "included_in_blocks":
          [ "BKkP42fDRVUWVmkf5Z4s41Upabm9XgTfDXgo11UvH3X9KtBQnZm" ] },
      { "delegate": "tz1d6Fx42mYgVFnHUW8T8A7WBfJ6nD9pVok8",
        "reception_time": "2022-01-17T13:31:38.879-00:00",
        "included_in_blocks":
          [ "BKkP42fDRVUWVmkf5Z4s41Upabm9XgTfDXgo11UvH3X9KtBQnZm" ] },
      { "delegate": "tz1Nf6tsK4G6bBqgSQERy4nUtkHNKUVdh7q1",
        "reception_time": "2022-01-17T13:31:39.467-00:00",
        "included_in_blocks":
          [ "BKkP42fDRVUWVmkf5Z4s41Upabm9XgTfDXgo11UvH3X9KtBQnZm" ] },
      { "delegate": "tz1Tnjaxk6tbAeC2TmMApPh8UsrEVQvhHvx5",
        "reception_time": "2022-01-17T13:31:39.169-00:00",
        "included_in_blocks":
          [ "BKkP42fDRVUWVmkf5Z4s41Upabm9XgTfDXgo11UvH3X9KtBQnZm" ] },
      { "delegate": "tz1dNVDWPf3Q59SdJqnjdnu277iyvReiRS9M",
        "reception_time": "2022-01-17T13:31:38.848-00:00",
        "included_in_blocks":
          [ "BKkP42fDRVUWVmkf5Z4s41Upabm9XgTfDXgo11UvH3X9KtBQnZm" ] },
      { "delegate": "tz3hw2kqXhLUvY65ca1eety2oQTpAvd34R9Q",
        "reception_time": "2022-01-17T13:31:38.770-00:00",
        "included_in_blocks":
          [ "BKkP42fDRVUWVmkf5Z4s41Upabm9XgTfDXgo11UvH3X9KtBQnZm" ] },
      { "delegate": "tz3adcvQaKXTCg12zbninqo3q8ptKKtDFTLv",
        "reception_time": "2022-01-17T13:31:38.888-00:00",
        "included_in_blocks":
          [ "BKkP42fDRVUWVmkf5Z4s41Upabm9XgTfDXgo11UvH3X9KtBQnZm" ] },
      { "delegate": "tz3RKYFsLuQzKBtmYuLNas7uMu3AsYd4QdsA",
        "reception_time": "2022-01-17T13:31:38.804-00:00",
        "included_in_blocks":
          [ "BKkP42fDRVUWVmkf5Z4s41Upabm9XgTfDXgo11UvH3X9KtBQnZm" ] },
      { "delegate": "tz1PWCDnz783NNGGQjEFFsHtrcK5yBW4E2rm",
        "reception_time": "2022-01-17T13:31:38.962-00:00",
        "included_in_blocks":
          [ "BKkP42fDRVUWVmkf5Z4s41Upabm9XgTfDXgo11UvH3X9KtBQnZm" ] },
      { "delegate": "tz1ei4WtWEMEJekSv8qDnu9PExG6Q8HgRGr3",
        "reception_time": "2022-01-17T13:31:39.011-00:00",
        "included_in_blocks":
          [ "BKkP42fDRVUWVmkf5Z4s41Upabm9XgTfDXgo11UvH3X9KtBQnZm" ] },
      { "delegate": "tz1NEKxGEHsFufk87CVZcrqWu8o22qh46GK6",
        "reception_time": "2022-01-17T13:31:39.340-00:00",
        "included_in_blocks":
          [ "BKkP42fDRVUWVmkf5Z4s41Upabm9XgTfDXgo11UvH3X9KtBQnZm" ] },
      { "delegate": "tz1SUgyRB8T5jXgXAwS33pgRHAKrafyg87Yc",
        "reception_time": "2022-01-17T13:31:38.732-00:00",
        "included_in_blocks":
          [ "BKkP42fDRVUWVmkf5Z4s41Upabm9XgTfDXgo11UvH3X9KtBQnZm" ] },
      { "delegate": "tz3bTdwZinP8U1JmSweNzVKhmwafqWmFWRfk",
        "reception_time": "2022-01-17T13:31:38.760-00:00",
        "included_in_blocks":
          [ "BKkP42fDRVUWVmkf5Z4s41Upabm9XgTfDXgo11UvH3X9KtBQnZm" ] },
      { "delegate": "tz3QSGPoRp3Kn7n3vY24eYeu3Peuqo45LQ4D",
        "reception_time": "2022-01-17T13:31:38.692-00:00",
        "included_in_blocks":
          [ "BKkP42fDRVUWVmkf5Z4s41Upabm9XgTfDXgo11UvH3X9KtBQnZm" ] },
      { "delegate": "tz3gtoUxdudfBRcNY7iVdKPHCYYX6xdPpoRS",
        "reception_time": "2022-01-17T13:31:38.670-00:00",
        "included_in_blocks":
          [ "BKkP42fDRVUWVmkf5Z4s41Upabm9XgTfDXgo11UvH3X9KtBQnZm" ] },
      { "delegate": "tz3VEZ4k6a4Wx42iyev6i2aVAptTRLEAivNN",
        "reception_time": "2022-01-17T13:31:39.331-00:00",
        "included_in_blocks":
          [ "BKkP42fDRVUWVmkf5Z4s41Upabm9XgTfDXgo11UvH3X9KtBQnZm" ] },
      { "delegate": "tz3ZbP2pM3nwvXztbuMJwJnDvV5xdpU8UkkD",
        "reception_time": "2022-01-17T13:31:38.670-00:00",
        "included_in_blocks":
          [ "BKkP42fDRVUWVmkf5Z4s41Upabm9XgTfDXgo11UvH3X9KtBQnZm" ] },
      { "delegate": "tz1MJx9vhaNRSimcuXPK2rW4fLccQnDAnVKJ",
        "reception_time": "2022-01-17T13:31:38.676-00:00",
        "included_in_blocks":
          [ "BKkP42fDRVUWVmkf5Z4s41Upabm9XgTfDXgo11UvH3X9KtBQnZm" ] },
      { "delegate": "tz3NxTnke1acr8o3h5y9ytf5awQBGNJUKzVU",
        "reception_time": "2022-01-17T13:31:38.670-00:00",
        "included_in_blocks":
          [ "BKkP42fDRVUWVmkf5Z4s41Upabm9XgTfDXgo11UvH3X9KtBQnZm" ] },
      { "delegate": "tz1Ldzz6k1BHdhuKvAtMRX7h5kJSMHESMHLC",
        "reception_time": "2022-01-17T13:31:38.670-00:00",
        "included_in_blocks":
          [ "BKkP42fDRVUWVmkf5Z4s41Upabm9XgTfDXgo11UvH3X9KtBQnZm" ] },
      { "delegate": "tz1WCd2jm4uSt4vntk4vSuUWoZQGhLcDuR9q",
        "reception_time": "2022-01-17T13:31:38.672-00:00",
        "included_in_blocks":
          [ "BKkP42fDRVUWVmkf5Z4s41Upabm9XgTfDXgo11UvH3X9KtBQnZm" ] },
      { "delegate": "tz1gUNyn3hmnEWqkusWPzxRaon1cs7ndWh7h",
        "reception_time": "2022-01-17T13:31:38.670-00:00",
        "included_in_blocks":
          [ "BKkP42fDRVUWVmkf5Z4s41Upabm9XgTfDXgo11UvH3X9KtBQnZm" ] },
      { "delegate": "tz1VQnqCCqX4K5sP3FNkVSNKTdCAMJDd3E1n",
        "reception_time": "2022-01-17T13:31:38.670-00:00",
        "included_in_blocks":
          [ "BKkP42fDRVUWVmkf5Z4s41Upabm9XgTfDXgo11UvH3X9KtBQnZm" ] },
      { "delegate": "tz1KfEsrtDaA1sX7vdM4qmEPWuSytuqCDp5j",
        "reception_time": "2022-01-17T13:31:39.194-00:00",
        "included_in_blocks":
          [ "BKkP42fDRVUWVmkf5Z4s41Upabm9XgTfDXgo11UvH3X9KtBQnZm" ] },
      { "delegate": "tz3UoffC7FG7zfpmvmjUmUeAaHvzdcUvAj6r",
        "reception_time": "2022-01-17T13:31:39.137-00:00",
        "included_in_blocks":
          [ "BKkP42fDRVUWVmkf5Z4s41Upabm9XgTfDXgo11UvH3X9KtBQnZm" ] },
      { "delegate": "tz1gfArv665EUkSg2ojMBzcbfwuPxAvqPvjo",
        "reception_time": "2022-01-17T13:31:38.699-00:00",
        "included_in_blocks":
          [ "BKkP42fDRVUWVmkf5Z4s41Upabm9XgTfDXgo11UvH3X9KtBQnZm" ] },
      { "delegate": "tz1iZEKy4LaAjnTmn2RuGDf2iqdAQKnRi8kY",
        "reception_time": "2022-01-17T13:31:38.670-00:00",
        "included_in_blocks":
          [ "BKkP42fDRVUWVmkf5Z4s41Upabm9XgTfDXgo11UvH3X9KtBQnZm" ] },
      { "delegate": "tz1eEnQhbwf6trb8Q8mPb2RaPkNk2rN7BKi8",
        "reception_time": "2022-01-17T13:31:38.670-00:00",
        "included_in_blocks":
          [ "BKkP42fDRVUWVmkf5Z4s41Upabm9XgTfDXgo11UvH3X9KtBQnZm" ] },
      { "delegate": "tz1aXD7Jigrt3PBYSpHSg5Rr33SexMmmM5Ys",
        "reception_time": "2022-01-17T13:31:38.670-00:00",
        "included_in_blocks":
          [ "BKkP42fDRVUWVmkf5Z4s41Upabm9XgTfDXgo11UvH3X9KtBQnZm" ] },
      { "delegate": "tz1MQJPGNMijnXnVoBENFz9rUhaPt3S7rWoz",
        "reception_time": "2022-01-17T13:31:38.670-00:00",
        "included_in_blocks":
          [ "BKkP42fDRVUWVmkf5Z4s41Upabm9XgTfDXgo11UvH3X9KtBQnZm" ] },
      { "delegate": "tz1irJKkXS2DBWkU1NnmFQx1c1L7pbGg4yhk",
        "reception_time": "2022-01-17T13:31:38.670-00:00",
        "included_in_blocks":
          [ "BKkP42fDRVUWVmkf5Z4s41Upabm9XgTfDXgo11UvH3X9KtBQnZm" ] },
      { "delegate": "tz1STeamwbp68THcny9zk3LsbG3H36DMvbRK",
        "reception_time": "2022-01-17T13:31:38.670-00:00",
        "included_in_blocks":
          [ "BKkP42fDRVUWVmkf5Z4s41Upabm9XgTfDXgo11UvH3X9KtBQnZm" ] },
      { "delegate": "tz1S8MNvuFEUsWgjHvi3AxibRBf388NhT1q2",
        "reception_time": "2022-01-17T13:31:38.670-00:00",
        "included_in_blocks":
          [ "BKkP42fDRVUWVmkf5Z4s41Upabm9XgTfDXgo11UvH3X9KtBQnZm" ] },
      { "delegate": "tz1beersuEDv8Z7ngQ825xfbaJNS2EhXnyHR",
        "reception_time": "2022-01-17T13:31:38.670-00:00",
        "included_in_blocks":
          [ "BKkP42fDRVUWVmkf5Z4s41Upabm9XgTfDXgo11UvH3X9KtBQnZm" ] },
      { "delegate": "tz1MXFrtZoaXckE41bjUCSjAjAap3AFDSr3N",
        "reception_time": "2022-01-17T13:31:38.670-00:00",
        "included_in_blocks":
          [ "BKkP42fDRVUWVmkf5Z4s41Upabm9XgTfDXgo11UvH3X9KtBQnZm" ] },
      { "delegate": "tz1aDiEJf9ztRrAJEXZfcG3CKimoKsGhwVAi",
        "reception_time": "2022-01-17T13:31:38.670-00:00",
        "included_in_blocks":
          [ "BKkP42fDRVUWVmkf5Z4s41Upabm9XgTfDXgo11UvH3X9KtBQnZm" ] },
      { "delegate": "tz1Lhf4J9Qxoe3DZ2nfe8FGDnvVj7oKjnMY6",
        "reception_time": "2022-01-17T13:31:38.670-00:00",
        "included_in_blocks":
          [ "BKkP42fDRVUWVmkf5Z4s41Upabm9XgTfDXgo11UvH3X9KtBQnZm" ] },
      { "delegate": "tz3WMqdzXqRWXwyvj5Hp2H7QEepaUuS7vd9K",
        "reception_time": "2022-01-17T13:31:38.670-00:00",
        "included_in_blocks":
          [ "BKkP42fDRVUWVmkf5Z4s41Upabm9XgTfDXgo11UvH3X9KtBQnZm" ] },
      { "delegate": "tz1MQMiZHV8q4tTwUMWmS5Y3kaP6J2136iXr",
        "reception_time": "2022-01-17T13:31:38.670-00:00",
        "included_in_blocks":
          [ "BKkP42fDRVUWVmkf5Z4s41Upabm9XgTfDXgo11UvH3X9KtBQnZm" ] },
      { "delegate": "tz1Kt4P8BCaP93AEV4eA7gmpRryWt5hznjCP",
        "reception_time": "2022-01-17T13:31:38.670-00:00",
        "included_in_blocks":
          [ "BKkP42fDRVUWVmkf5Z4s41Upabm9XgTfDXgo11UvH3X9KtBQnZm" ] } ] }