{ "blocks":
    [ { "hash": "BLHkUtaSoAKK8RbywinjG4fCpfKCJAh4DcRFpTkJs3d9Q2iywJc",
        "delegate": "tz1dNVDWPf3Q59SdJqnjdnu277iyvReiRS9M",
        "reception_time": "2022-01-17T14:53:37.349-00:00",
        "timestamp": "2022-01-17T14:53:30Z" } ],
  "endorsements":
    [ { "delegate": "tz1irJKkXS2DBWkU1NnmFQx1c1L7pbGg4yhk",
        "reception_time": "2022-01-17T14:53:37.235-00:00",
        "errors":
          [ { "kind": "temporary",
              "id": "proto.011-PtHangz2.prefilter.outdated_endorsement" } ],
        "included_in_blocks":
          [ "BMdnexYXedkACc2RHXKEMrqMsxhqq5kFKZ4nUJvDUr8qNSjmawL" ] },
      { "delegate": "tz1gUNyn3hmnEWqkusWPzxRaon1cs7ndWh7h",
        "reception_time": "2022-01-17T14:53:37.223-00:00",
        "errors":
          [ { "kind": "temporary",
              "id": "proto.011-PtHangz2.prefilter.outdated_endorsement" } ],
        "included_in_blocks":
          [ "BMdnexYXedkACc2RHXKEMrqMsxhqq5kFKZ4nUJvDUr8qNSjmawL" ] },
      { "delegate": "tz1NMdMmWZN8QPB8pY4ddncACDg1cHi1xD2e",
        "reception_time": "2022-01-17T14:53:37.199-00:00",
        "errors":
          [ { "kind": "temporary",
              "id": "proto.011-PtHangz2.prefilter.outdated_endorsement" } ],
        "included_in_blocks":
          [ "BMdnexYXedkACc2RHXKEMrqMsxhqq5kFKZ4nUJvDUr8qNSjmawL" ] },
      { "delegate": "tz1eEnQhbwf6trb8Q8mPb2RaPkNk2rN7BKi8",
        "reception_time": "2022-01-17T14:53:37.117-00:00",
        "errors":
          [ { "kind": "temporary",
              "id": "proto.011-PtHangz2.prefilter.outdated_endorsement" } ],
        "included_in_blocks":
          [ "BMdnexYXedkACc2RHXKEMrqMsxhqq5kFKZ4nUJvDUr8qNSjmawL" ] },
      { "delegate": "tz1MXFrtZoaXckE41bjUCSjAjAap3AFDSr3N",
        "reception_time": "2022-01-17T14:53:37.102-00:00",
        "errors":
          [ { "kind": "temporary",
              "id": "proto.011-PtHangz2.prefilter.outdated_endorsement" } ],
        "included_in_blocks":
          [ "BMdnexYXedkACc2RHXKEMrqMsxhqq5kFKZ4nUJvDUr8qNSjmawL" ] },
      { "delegate": "tz1beersuEDv8Z7ngQ825xfbaJNS2EhXnyHR",
        "reception_time": "2022-01-17T14:53:37.088-00:00",
        "errors":
          [ { "kind": "temporary",
              "id": "proto.011-PtHangz2.prefilter.outdated_endorsement" } ],
        "included_in_blocks":
          [ "BMdnexYXedkACc2RHXKEMrqMsxhqq5kFKZ4nUJvDUr8qNSjmawL" ] },
      { "delegate": "tz1P2Po7YM526ughEsRbY4oR9zaUPDZjxFrb",
        "reception_time": "2022-01-17T14:53:36.993-00:00",
        "errors":
          [ { "kind": "temporary",
              "id": "proto.011-PtHangz2.prefilter.outdated_endorsement" } ],
        "included_in_blocks":
          [ "BMdnexYXedkACc2RHXKEMrqMsxhqq5kFKZ4nUJvDUr8qNSjmawL" ] },
      { "delegate": "tz1Zhv3RkfU2pHrmaiDyxp7kFZpZrUCu1CiF",
        "reception_time": "2022-01-17T14:53:36.843-00:00",
        "errors":
          [ { "kind": "temporary",
              "id": "proto.011-PtHangz2.prefilter.outdated_endorsement" } ],
        "included_in_blocks":
          [ "BMdnexYXedkACc2RHXKEMrqMsxhqq5kFKZ4nUJvDUr8qNSjmawL" ] },
      { "delegate": "tz1RjoHc98dBoqaH2jawF62XNKh7YsHwbkEv" },
      { "delegate": "tz1Vyuu4EJ5Nym4JcrfRLnp3hpaq1DSEp1Ke" },
      { "delegate": "tz1awXW7wuXy21c66vBudMXQVAPgRnqqwgTH" },
      { "delegate": "tz1fUyqYH7H4pRHN1roWY17giXhy1RvxjgUV" },
      { "delegate": "tz1Kt4P8BCaP93AEV4eA7gmpRryWt5hznjCP",
        "reception_time": "2022-01-17T14:53:38.036-00:00",
        "included_in_blocks":
          [ "BMdnexYXedkACc2RHXKEMrqMsxhqq5kFKZ4nUJvDUr8qNSjmawL" ] },
      { "delegate": "tz1VQnqCCqX4K5sP3FNkVSNKTdCAMJDd3E1n",
        "reception_time": "2022-01-17T14:53:38.576-00:00",
        "included_in_blocks":
          [ "BMdnexYXedkACc2RHXKEMrqMsxhqq5kFKZ4nUJvDUr8qNSjmawL" ] },
      { "delegate": "tz1TRspM5SeZpaQUhzByXbEvqKF1vnCM2YTK",
        "reception_time": "2022-01-17T14:53:38.576-00:00",
        "included_in_blocks":
          [ "BMdnexYXedkACc2RHXKEMrqMsxhqq5kFKZ4nUJvDUr8qNSjmawL" ] },
      { "delegate": "tz1U638Z3xWRiXDDKx2S125MCCaAeGDdA896",
        "reception_time": "2022-01-17T14:53:38.576-00:00",
        "included_in_blocks":
          [ "BMdnexYXedkACc2RHXKEMrqMsxhqq5kFKZ4nUJvDUr8qNSjmawL" ] },
      { "delegate": "tz1Ldzz6k1BHdhuKvAtMRX7h5kJSMHESMHLC",
        "reception_time": "2022-01-17T14:53:38.576-00:00",
        "included_in_blocks":
          [ "BMdnexYXedkACc2RHXKEMrqMsxhqq5kFKZ4nUJvDUr8qNSjmawL" ] },
      { "delegate": "tz3QCNyySViKHmeSr45kzDxzchys7NiXCWoa",
        "reception_time": "2022-01-17T14:53:38.576-00:00",
        "included_in_blocks":
          [ "BMdnexYXedkACc2RHXKEMrqMsxhqq5kFKZ4nUJvDUr8qNSjmawL" ] },
      { "delegate": "tz3hw2kqXhLUvY65ca1eety2oQTpAvd34R9Q",
        "reception_time": "2022-01-17T14:53:38.576-00:00",
        "included_in_blocks":
          [ "BMdnexYXedkACc2RHXKEMrqMsxhqq5kFKZ4nUJvDUr8qNSjmawL" ] },
      { "delegate": "tz3NxTnke1acr8o3h5y9ytf5awQBGNJUKzVU",
        "reception_time": "2022-01-17T14:53:38.576-00:00",
        "included_in_blocks":
          [ "BMdnexYXedkACc2RHXKEMrqMsxhqq5kFKZ4nUJvDUr8qNSjmawL" ] },
      { "delegate": "tz1gcna2xxZj2eNp1LaMyAhVJ49mEFj4FH26",
        "reception_time": "2022-01-17T14:53:38.576-00:00",
        "included_in_blocks":
          [ "BMdnexYXedkACc2RHXKEMrqMsxhqq5kFKZ4nUJvDUr8qNSjmawL" ] },
      { "delegate": "tz3QT9dHYKDqh563chVa6za8526ys1UKfRfL",
        "reception_time": "2022-01-17T14:53:38.576-00:00",
        "included_in_blocks":
          [ "BMdnexYXedkACc2RHXKEMrqMsxhqq5kFKZ4nUJvDUr8qNSjmawL" ] },
      { "delegate": "tz3S6BBeKgJGXxvLyZ1xzXzMPn11nnFtq5L9",
        "reception_time": "2022-01-17T14:53:38.576-00:00",
        "included_in_blocks":
          [ "BMdnexYXedkACc2RHXKEMrqMsxhqq5kFKZ4nUJvDUr8qNSjmawL" ] },
      { "delegate": "tz3ZbP2pM3nwvXztbuMJwJnDvV5xdpU8UkkD",
        "reception_time": "2022-01-17T14:53:38.576-00:00",
        "included_in_blocks":
          [ "BMdnexYXedkACc2RHXKEMrqMsxhqq5kFKZ4nUJvDUr8qNSjmawL" ] },
      { "delegate": "tz1dNVDWPf3Q59SdJqnjdnu277iyvReiRS9M",
        "reception_time": "2022-01-17T14:53:38.586-00:00",
        "included_in_blocks":
          [ "BMdnexYXedkACc2RHXKEMrqMsxhqq5kFKZ4nUJvDUr8qNSjmawL" ] },
      { "delegate": "tz3RKYFsLuQzKBtmYuLNas7uMu3AsYd4QdsA",
        "reception_time": "2022-01-17T14:53:38.586-00:00",
        "included_in_blocks":
          [ "BMdnexYXedkACc2RHXKEMrqMsxhqq5kFKZ4nUJvDUr8qNSjmawL" ] },
      { "delegate": "tz3gtoUxdudfBRcNY7iVdKPHCYYX6xdPpoRS",
        "reception_time": "2022-01-17T14:53:38.616-00:00",
        "included_in_blocks":
          [ "BMdnexYXedkACc2RHXKEMrqMsxhqq5kFKZ4nUJvDUr8qNSjmawL" ] },
      { "delegate": "tz1RCFbB9GpALpsZtu6J58sb74dm8qe6XBzv",
        "reception_time": "2022-01-17T14:53:38.616-00:00",
        "included_in_blocks":
          [ "BMdnexYXedkACc2RHXKEMrqMsxhqq5kFKZ4nUJvDUr8qNSjmawL" ] },
      { "delegate": "tz1MQMiZHV8q4tTwUMWmS5Y3kaP6J2136iXr",
        "reception_time": "2022-01-17T14:53:38.624-00:00",
        "included_in_blocks":
          [ "BMdnexYXedkACc2RHXKEMrqMsxhqq5kFKZ4nUJvDUr8qNSjmawL" ] },
      { "delegate": "tz1YhNsiRRU8aHNGg7NK3uuP6UDAyacJernB",
        "reception_time": "2022-01-17T14:53:38.627-00:00",
        "included_in_blocks":
          [ "BMdnexYXedkACc2RHXKEMrqMsxhqq5kFKZ4nUJvDUr8qNSjmawL" ] },
      { "delegate": "tz1d6Fx42mYgVFnHUW8T8A7WBfJ6nD9pVok8",
        "reception_time": "2022-01-17T14:53:38.631-00:00",
        "included_in_blocks":
          [ "BMdnexYXedkACc2RHXKEMrqMsxhqq5kFKZ4nUJvDUr8qNSjmawL" ] },
      { "delegate": "tz1PWCDnz783NNGGQjEFFsHtrcK5yBW4E2rm",
        "reception_time": "2022-01-17T14:53:38.635-00:00",
        "included_in_blocks":
          [ "BMdnexYXedkACc2RHXKEMrqMsxhqq5kFKZ4nUJvDUr8qNSjmawL" ] },
      { "delegate": "tz3QSGPoRp3Kn7n3vY24eYeu3Peuqo45LQ4D",
        "reception_time": "2022-01-17T14:53:38.643-00:00",
        "included_in_blocks":
          [ "BMdnexYXedkACc2RHXKEMrqMsxhqq5kFKZ4nUJvDUr8qNSjmawL" ] },
      { "delegate": "tz1S8MNvuFEUsWgjHvi3AxibRBf388NhT1q2",
        "reception_time": "2022-01-17T14:53:38.673-00:00",
        "included_in_blocks":
          [ "BMdnexYXedkACc2RHXKEMrqMsxhqq5kFKZ4nUJvDUr8qNSjmawL" ] },
      { "delegate": "tz1iPHM2Xx2hwmzcr1EG1zzrV6oKafVoA91m",
        "reception_time": "2022-01-17T14:53:38.676-00:00",
        "included_in_blocks":
          [ "BMdnexYXedkACc2RHXKEMrqMsxhqq5kFKZ4nUJvDUr8qNSjmawL" ] },
      { "delegate": "tz1NortRftucvAkD1J58L32EhSVrQEWJCEnB",
        "reception_time": "2022-01-17T14:53:38.696-00:00",
        "included_in_blocks":
          [ "BMdnexYXedkACc2RHXKEMrqMsxhqq5kFKZ4nUJvDUr8qNSjmawL" ] },
      { "delegate": "tz3bTdwZinP8U1JmSweNzVKhmwafqWmFWRfk",
        "reception_time": "2022-01-17T14:53:38.706-00:00",
        "included_in_blocks":
          [ "BMdnexYXedkACc2RHXKEMrqMsxhqq5kFKZ4nUJvDUr8qNSjmawL" ] },
      { "delegate": "tz3iJu5vrKZcsqRPs8yJ61UDoeEXZmtro4qh",
        "reception_time": "2022-01-17T14:53:38.732-00:00",
        "included_in_blocks":
          [ "BMdnexYXedkACc2RHXKEMrqMsxhqq5kFKZ4nUJvDUr8qNSjmawL" ] },
      { "delegate": "tz1ei4WtWEMEJekSv8qDnu9PExG6Q8HgRGr3",
        "reception_time": "2022-01-17T14:53:38.739-00:00",
        "included_in_blocks":
          [ "BMdnexYXedkACc2RHXKEMrqMsxhqq5kFKZ4nUJvDUr8qNSjmawL" ] },
      { "delegate": "tz3RDC3Jdn4j15J7bBHZd29EUee9gVB1CxD9",
        "reception_time": "2022-01-17T14:53:38.749-00:00",
        "included_in_blocks":
          [ "BMdnexYXedkACc2RHXKEMrqMsxhqq5kFKZ4nUJvDUr8qNSjmawL" ] },
      { "delegate": "tz3Zhs2dygr55yHyQyKjntAtY9bgfhLZ4Xj1",
        "reception_time": "2022-01-17T14:53:38.756-00:00",
        "included_in_blocks":
          [ "BMdnexYXedkACc2RHXKEMrqMsxhqq5kFKZ4nUJvDUr8qNSjmawL" ] },
      { "delegate": "tz1dwu9aYb7CRNq4Y2zAjipdjFuSVKhHS8vA",
        "reception_time": "2022-01-17T14:53:38.779-00:00",
        "included_in_blocks":
          [ "BMdnexYXedkACc2RHXKEMrqMsxhqq5kFKZ4nUJvDUr8qNSjmawL" ] },
      { "delegate": "tz1fUjvVhJrHLZCbhPNvDRckxApqbkievJHN",
        "reception_time": "2022-01-17T14:53:38.790-00:00",
        "included_in_blocks":
          [ "BMdnexYXedkACc2RHXKEMrqMsxhqq5kFKZ4nUJvDUr8qNSjmawL" ] },
      { "delegate": "tz3RB4aoyjov4KEVRbuhvQ1CKJgBJMWhaeB8",
        "reception_time": "2022-01-17T14:53:38.827-00:00",
        "included_in_blocks":
          [ "BMdnexYXedkACc2RHXKEMrqMsxhqq5kFKZ4nUJvDUr8qNSjmawL" ] },
      { "delegate": "tz1SohptP53wDPZhzTWzDUFAUcWF6DMBpaJV",
        "reception_time": "2022-01-17T14:53:38.833-00:00",
        "included_in_blocks":
          [ "BMdnexYXedkACc2RHXKEMrqMsxhqq5kFKZ4nUJvDUr8qNSjmawL" ] },
      { "delegate": "tz1WBfwbT66FC6BTLexc2BoyCCBM9LG7pnVW",
        "reception_time": "2022-01-17T14:53:38.920-00:00",
        "included_in_blocks":
          [ "BMdnexYXedkACc2RHXKEMrqMsxhqq5kFKZ4nUJvDUr8qNSjmawL" ] },
      { "delegate": "tz1TEc75UKXv4W5cwi14Na3NtqFD51yKQi7h",
        "reception_time": "2022-01-17T14:53:38.925-00:00",
        "included_in_blocks":
          [ "BMdnexYXedkACc2RHXKEMrqMsxhqq5kFKZ4nUJvDUr8qNSjmawL" ] },
      { "delegate": "tz1SYq214SCBy9naR6cvycQsYcUGpBqQAE8d",
        "reception_time": "2022-01-17T14:53:38.949-00:00",
        "included_in_blocks":
          [ "BMdnexYXedkACc2RHXKEMrqMsxhqq5kFKZ4nUJvDUr8qNSjmawL" ] },
      { "delegate": "tz1SUgyRB8T5jXgXAwS33pgRHAKrafyg87Yc",
        "reception_time": "2022-01-17T14:53:38.960-00:00",
        "included_in_blocks":
          [ "BMdnexYXedkACc2RHXKEMrqMsxhqq5kFKZ4nUJvDUr8qNSjmawL" ] },
      { "delegate": "tz1KfEsrtDaA1sX7vdM4qmEPWuSytuqCDp5j",
        "reception_time": "2022-01-17T14:53:39.082-00:00",
        "included_in_blocks":
          [ "BMdnexYXedkACc2RHXKEMrqMsxhqq5kFKZ4nUJvDUr8qNSjmawL" ] },
      { "delegate": "tz1fwnfJNgiDACshK9avfRfFbMaXrs3ghoJa",
        "reception_time": "2022-01-17T14:53:39.087-00:00",
        "included_in_blocks":
          [ "BMdnexYXedkACc2RHXKEMrqMsxhqq5kFKZ4nUJvDUr8qNSjmawL" ] },
      { "delegate": "tz1gfArv665EUkSg2ojMBzcbfwuPxAvqPvjo",
        "reception_time": "2022-01-17T14:53:39.240-00:00",
        "included_in_blocks":
          [ "BMdnexYXedkACc2RHXKEMrqMsxhqq5kFKZ4nUJvDUr8qNSjmawL" ] },
      { "delegate": "tz1Nf6tsK4G6bBqgSQERy4nUtkHNKUVdh7q1",
        "reception_time": "2022-01-17T14:53:39.434-00:00",
        "included_in_blocks":
          [ "BMdnexYXedkACc2RHXKEMrqMsxhqq5kFKZ4nUJvDUr8qNSjmawL" ] },
      { "delegate": "tz2FCNBrERXtaTtNX6iimR1UJ5JSDxvdHM93",
        "reception_time": "2022-01-17T14:53:39.518-00:00",
        "included_in_blocks":
          [ "BMdnexYXedkACc2RHXKEMrqMsxhqq5kFKZ4nUJvDUr8qNSjmawL" ] },
      { "delegate": "tz1abmz7jiCV2GH2u81LRrGgAFFgvQgiDiaf",
        "reception_time": "2022-01-17T14:53:39.647-00:00",
        "included_in_blocks":
          [ "BMdnexYXedkACc2RHXKEMrqMsxhqq5kFKZ4nUJvDUr8qNSjmawL" ] },
      { "delegate": "tz3WMqdzXqRWXwyvj5Hp2H7QEepaUuS7vd9K",
        "reception_time": "2022-01-17T14:53:39.665-00:00",
        "included_in_blocks":
          [ "BMdnexYXedkACc2RHXKEMrqMsxhqq5kFKZ4nUJvDUr8qNSjmawL" ] },
      { "delegate": "tz1T7duV5gZWSTq4YpBGbXNLTfznCLDrFxvs",
        "reception_time": "2022-01-17T14:53:39.786-00:00",
        "included_in_blocks":
          [ "BMdnexYXedkACc2RHXKEMrqMsxhqq5kFKZ4nUJvDUr8qNSjmawL" ] },
      { "delegate": "tz1TRqbYbUf2GyrjErf3hBzgBJPzW8y36qEs",
        "reception_time": "2022-01-17T14:53:39.854-00:00",
        "included_in_blocks":
          [ "BMdnexYXedkACc2RHXKEMrqMsxhqq5kFKZ4nUJvDUr8qNSjmawL" ] },
      { "delegate": "tz1PeZx7FXy7QRuMREGXGxeipb24RsMMzUNe",
        "reception_time": "2022-01-17T14:53:39.904-00:00",
        "included_in_blocks":
          [ "BMdnexYXedkACc2RHXKEMrqMsxhqq5kFKZ4nUJvDUr8qNSjmawL" ] },
      { "delegate": "tz3VEZ4k6a4Wx42iyev6i2aVAptTRLEAivNN",
        "reception_time": "2022-01-17T14:53:39.962-00:00",
        "included_in_blocks":
          [ "BMdnexYXedkACc2RHXKEMrqMsxhqq5kFKZ4nUJvDUr8qNSjmawL" ] },
      { "delegate": "tz1NoYvKjXTzTk54VpLxBfouJ33J8jwKPPvw",
        "reception_time": "2022-01-17T14:53:40.069-00:00",
        "included_in_blocks":
          [ "BMdnexYXedkACc2RHXKEMrqMsxhqq5kFKZ4nUJvDUr8qNSjmawL" ] },
      { "delegate": "tz3bvNMQ95vfAYtG8193ymshqjSvmxiCUuR5",
        "reception_time": "2022-01-17T14:53:40.168-00:00",
        "included_in_blocks":
          [ "BMdnexYXedkACc2RHXKEMrqMsxhqq5kFKZ4nUJvDUr8qNSjmawL" ] },
      { "delegate": "tz3NExpXn9aPNZPorRE4SdjJ2RGrfbJgMAaV",
        "reception_time": "2022-01-17T14:53:40.637-00:00",
        "included_in_blocks":
          [ "BMdnexYXedkACc2RHXKEMrqMsxhqq5kFKZ4nUJvDUr8qNSjmawL" ] },
      { "delegate": "tz3NDpRj6WBrJPikcPVHRBEjWKxFw3c6eQPS",
        "reception_time": "2022-01-17T14:53:40.657-00:00",
        "included_in_blocks":
          [ "BMdnexYXedkACc2RHXKEMrqMsxhqq5kFKZ4nUJvDUr8qNSjmawL" ] },
      { "delegate": "tz3UoffC7FG7zfpmvmjUmUeAaHvzdcUvAj6r",
        "reception_time": "2022-01-17T14:53:40.790-00:00",
        "included_in_blocks":
          [ "BMdnexYXedkACc2RHXKEMrqMsxhqq5kFKZ4nUJvDUr8qNSjmawL" ] },
      { "delegate": "tz1aRoaRhSpRYvFdyvgWLL6TGyRoGF51wDjM",
        "reception_time": "2022-01-17T14:53:41.216-00:00",
        "included_in_blocks":
          [ "BMdnexYXedkACc2RHXKEMrqMsxhqq5kFKZ4nUJvDUr8qNSjmawL" ] },
      { "delegate": "tz1QJU1PuKUP5ZQxUr4pHZjCHGRvJSpcXv7G",
        "reception_time": "2022-01-17T14:53:41.457-00:00",
        "included_in_blocks":
          [ "BMdnexYXedkACc2RHXKEMrqMsxhqq5kFKZ4nUJvDUr8qNSjmawL" ] },
      { "delegate": "tz1g8vkmcde6sWKaG2NN9WKzCkDM6Rziq194",
        "reception_time": "2022-01-17T14:53:43.008-00:00",
        "included_in_blocks":
          [ "BMdnexYXedkACc2RHXKEMrqMsxhqq5kFKZ4nUJvDUr8qNSjmawL" ] },
      { "delegate": "tz1dfg9PkvRLf7hKMmGdGRhXWCbd8QgbwBF7",
        "reception_time": "2022-01-17T14:53:44.009-00:00",
        "included_in_blocks":
          [ "BMdnexYXedkACc2RHXKEMrqMsxhqq5kFKZ4nUJvDUr8qNSjmawL" ] },
      { "delegate": "tz1go7f6mEQfT2xX2LuHAqgnRGN6c2zHPf5c",
        "reception_time": "2022-01-17T14:53:44.571-00:00",
        "included_in_blocks":
          [ "BMdnexYXedkACc2RHXKEMrqMsxhqq5kFKZ4nUJvDUr8qNSjmawL" ] },
      { "delegate": "tz3e7LbZvUtoXhpUD1yb6wuFodZpfYRb9nWJ",
        "reception_time": "2022-01-17T14:53:46.638-00:00",
        "included_in_blocks":
          [ "BMdnexYXedkACc2RHXKEMrqMsxhqq5kFKZ4nUJvDUr8qNSjmawL" ] } ] }