{ "blocks":
    [ { "hash": "BLDPKTouj2D3rgtzzCxEw7JFGogkKzJkRi9zuC1zN6JKQyi933X",
        "delegate": "tz1irJKkXS2DBWkU1NnmFQx1c1L7pbGg4yhk",
        "reception_time": "2022-01-17T08:13:46.005-00:00",
        "timestamp": "2022-01-17T08:13:40Z" } ],
  "endorsements":
    [ { "delegate": "tz1awXW7wuXy21c66vBudMXQVAPgRnqqwgTH" },
      { "delegate": "tz1RjoHc98dBoqaH2jawF62XNKh7YsHwbkEv" },
      { "delegate": "tz1ZPh7XfUaJXUDvkrBxmS1BjEM1i62hiPpM",
        "reception_time": "2022-01-17T08:13:45.969-00:00",
        "errors":
          [ { "kind": "temporary",
              "id": "proto.011-PtHangz2.prefilter.outdated_endorsement" } ],
        "included_in_blocks":
          [ "BMQztcDP7T2sLKJe8g1jRzp7wuJbinf6g5ZRcHc63p9NT9KHKGe" ] },
      { "delegate": "tz1eEnQhbwf6trb8Q8mPb2RaPkNk2rN7BKi8",
        "reception_time": "2022-01-17T08:13:45.710-00:00",
        "errors":
          [ { "kind": "temporary",
              "id": "proto.011-PtHangz2.prefilter.outdated_endorsement" } ],
        "included_in_blocks":
          [ "BMQztcDP7T2sLKJe8g1jRzp7wuJbinf6g5ZRcHc63p9NT9KHKGe" ] },
      { "delegate": "tz1P2Po7YM526ughEsRbY4oR9zaUPDZjxFrb",
        "reception_time": "2022-01-17T08:13:45.543-00:00",
        "errors":
          [ { "kind": "temporary",
              "id": "proto.011-PtHangz2.prefilter.outdated_endorsement" } ],
        "included_in_blocks":
          [ "BMQztcDP7T2sLKJe8g1jRzp7wuJbinf6g5ZRcHc63p9NT9KHKGe" ] },
      { "delegate": "tz1Zhv3RkfU2pHrmaiDyxp7kFZpZrUCu1CiF",
        "reception_time": "2022-01-17T08:13:45.518-00:00",
        "errors":
          [ { "kind": "temporary",
              "id": "proto.011-PtHangz2.prefilter.outdated_endorsement" } ],
        "included_in_blocks":
          [ "BMQztcDP7T2sLKJe8g1jRzp7wuJbinf6g5ZRcHc63p9NT9KHKGe" ] },
      { "delegate": "tz1Lhf4J9Qxoe3DZ2nfe8FGDnvVj7oKjnMY6",
        "reception_time": "2022-01-17T08:13:45.501-00:00",
        "errors":
          [ { "kind": "temporary",
              "id": "proto.011-PtHangz2.prefilter.outdated_endorsement" } ],
        "included_in_blocks":
          [ "BMQztcDP7T2sLKJe8g1jRzp7wuJbinf6g5ZRcHc63p9NT9KHKGe" ] },
      { "delegate": "tz1XXayQohB8XRXN7kMoHbf2NFwNiH3oMRQQ",
        "reception_time": "2022-01-17T08:13:45.388-00:00",
        "errors":
          [ { "kind": "temporary",
              "id": "proto.011-PtHangz2.prefilter.outdated_endorsement" } ],
        "included_in_blocks":
          [ "BMQztcDP7T2sLKJe8g1jRzp7wuJbinf6g5ZRcHc63p9NT9KHKGe" ] },
      { "delegate": "tz1S8e9GgdZG78XJRB3NqabfWeM37GnhZMWQ",
        "reception_time": "2022-01-17T08:13:45.153-00:00",
        "errors":
          [ { "kind": "temporary",
              "id": "proto.011-PtHangz2.prefilter.outdated_endorsement" } ],
        "included_in_blocks":
          [ "BMQztcDP7T2sLKJe8g1jRzp7wuJbinf6g5ZRcHc63p9NT9KHKGe" ] },
      { "delegate": "tz1NpWrAyDL9k2Lmnyxcgr9xuJakbBxdq7FB",
        "reception_time": "2022-01-17T08:14:02.200-00:00",
        "included_in_blocks":
          [ "BMQztcDP7T2sLKJe8g1jRzp7wuJbinf6g5ZRcHc63p9NT9KHKGe" ] },
      { "delegate": "tz3e7LbZvUtoXhpUD1yb6wuFodZpfYRb9nWJ",
        "reception_time": "2022-01-17T08:13:53.969-00:00",
        "included_in_blocks":
          [ "BMQztcDP7T2sLKJe8g1jRzp7wuJbinf6g5ZRcHc63p9NT9KHKGe" ] },
      { "delegate": "tz1bTpviNnyx2PXsNmGpCQTMQsGoYordkUoA",
        "reception_time": "2022-01-17T08:13:51.481-00:00",
        "included_in_blocks":
          [ "BMQztcDP7T2sLKJe8g1jRzp7wuJbinf6g5ZRcHc63p9NT9KHKGe" ] },
      { "delegate": "tz1b9MYGrbN1NAxphLEsPPNT9JC7aNFc5nA4",
        "reception_time": "2022-01-17T08:13:49.938-00:00",
        "included_in_blocks":
          [ "BMQztcDP7T2sLKJe8g1jRzp7wuJbinf6g5ZRcHc63p9NT9KHKGe" ] },
      { "delegate": "tz3NExpXn9aPNZPorRE4SdjJ2RGrfbJgMAaV",
        "reception_time": "2022-01-17T08:13:49.255-00:00",
        "included_in_blocks":
          [ "BMQztcDP7T2sLKJe8g1jRzp7wuJbinf6g5ZRcHc63p9NT9KHKGe" ] },
      { "delegate": "tz2FCNBrERXtaTtNX6iimR1UJ5JSDxvdHM93",
        "reception_time": "2022-01-17T08:13:49.238-00:00",
        "included_in_blocks":
          [ "BMQztcDP7T2sLKJe8g1jRzp7wuJbinf6g5ZRcHc63p9NT9KHKGe" ] },
      { "delegate": "tz1T7duV5gZWSTq4YpBGbXNLTfznCLDrFxvs",
        "reception_time": "2022-01-17T08:13:49.149-00:00",
        "included_in_blocks":
          [ "BMQztcDP7T2sLKJe8g1jRzp7wuJbinf6g5ZRcHc63p9NT9KHKGe" ] },
      { "delegate": "tz3WMqdzXqRWXwyvj5Hp2H7QEepaUuS7vd9K",
        "reception_time": "2022-01-17T08:13:49.141-00:00",
        "included_in_blocks":
          [ "BMQztcDP7T2sLKJe8g1jRzp7wuJbinf6g5ZRcHc63p9NT9KHKGe" ] },
      { "delegate": "tz3UoffC7FG7zfpmvmjUmUeAaHvzdcUvAj6r",
        "reception_time": "2022-01-17T08:13:48.978-00:00",
        "included_in_blocks":
          [ "BMQztcDP7T2sLKJe8g1jRzp7wuJbinf6g5ZRcHc63p9NT9KHKGe" ] },
      { "delegate": "tz1dRKU4FQ9QRRQPdaH4zCR6gmCmXfcvcgtB",
        "reception_time": "2022-01-17T08:13:48.864-00:00",
        "included_in_blocks":
          [ "BMQztcDP7T2sLKJe8g1jRzp7wuJbinf6g5ZRcHc63p9NT9KHKGe" ] },
      { "delegate": "tz1SYq214SCBy9naR6cvycQsYcUGpBqQAE8d",
        "reception_time": "2022-01-17T08:13:48.669-00:00",
        "included_in_blocks":
          [ "BMQztcDP7T2sLKJe8g1jRzp7wuJbinf6g5ZRcHc63p9NT9KHKGe" ] },
      { "delegate": "tz1aRoaRhSpRYvFdyvgWLL6TGyRoGF51wDjM",
        "reception_time": "2022-01-17T08:13:48.497-00:00",
        "included_in_blocks":
          [ "BMQztcDP7T2sLKJe8g1jRzp7wuJbinf6g5ZRcHc63p9NT9KHKGe" ] },
      { "delegate": "tz3NDpRj6WBrJPikcPVHRBEjWKxFw3c6eQPS",
        "reception_time": "2022-01-17T08:13:48.402-00:00",
        "included_in_blocks":
          [ "BMQztcDP7T2sLKJe8g1jRzp7wuJbinf6g5ZRcHc63p9NT9KHKGe" ] },
      { "delegate": "tz1SohptP53wDPZhzTWzDUFAUcWF6DMBpaJV",
        "reception_time": "2022-01-17T08:13:48.363-00:00",
        "included_in_blocks":
          [ "BMQztcDP7T2sLKJe8g1jRzp7wuJbinf6g5ZRcHc63p9NT9KHKGe" ] },
      { "delegate": "tz3bvNMQ95vfAYtG8193ymshqjSvmxiCUuR5",
        "reception_time": "2022-01-17T08:13:48.352-00:00",
        "included_in_blocks":
          [ "BMQztcDP7T2sLKJe8g1jRzp7wuJbinf6g5ZRcHc63p9NT9KHKGe" ] },
      { "delegate": "tz3VEZ4k6a4Wx42iyev6i2aVAptTRLEAivNN",
        "reception_time": "2022-01-17T08:13:48.372-00:00",
        "included_in_blocks":
          [ "BMQztcDP7T2sLKJe8g1jRzp7wuJbinf6g5ZRcHc63p9NT9KHKGe" ] },
      { "delegate": "tz1WnfXMPaNTBmH7DBPwqCWs9cPDJdkGBTZ8",
        "reception_time": "2022-01-17T08:13:48.171-00:00",
        "included_in_blocks":
          [ "BMQztcDP7T2sLKJe8g1jRzp7wuJbinf6g5ZRcHc63p9NT9KHKGe" ] },
      { "delegate": "tz1KfEsrtDaA1sX7vdM4qmEPWuSytuqCDp5j",
        "reception_time": "2022-01-17T08:13:48.142-00:00",
        "included_in_blocks":
          [ "BMQztcDP7T2sLKJe8g1jRzp7wuJbinf6g5ZRcHc63p9NT9KHKGe" ] },
      { "delegate": "tz1WctSwL49BZtdWAQ75NY6vr4xsAx6oKdah",
        "reception_time": "2022-01-17T08:13:48.127-00:00",
        "included_in_blocks":
          [ "BMQztcDP7T2sLKJe8g1jRzp7wuJbinf6g5ZRcHc63p9NT9KHKGe" ] },
      { "delegate": "tz3RDC3Jdn4j15J7bBHZd29EUee9gVB1CxD9",
        "reception_time": "2022-01-17T08:13:48.001-00:00",
        "included_in_blocks":
          [ "BMQztcDP7T2sLKJe8g1jRzp7wuJbinf6g5ZRcHc63p9NT9KHKGe" ] },
      { "delegate": "tz1S8MNvuFEUsWgjHvi3AxibRBf388NhT1q2",
        "reception_time": "2022-01-17T08:13:47.767-00:00",
        "included_in_blocks":
          [ "BMQztcDP7T2sLKJe8g1jRzp7wuJbinf6g5ZRcHc63p9NT9KHKGe" ] },
      { "delegate": "tz1abmz7jiCV2GH2u81LRrGgAFFgvQgiDiaf",
        "reception_time": "2022-01-17T08:13:47.951-00:00",
        "included_in_blocks":
          [ "BMQztcDP7T2sLKJe8g1jRzp7wuJbinf6g5ZRcHc63p9NT9KHKGe" ] },
      { "delegate": "tz1SUgyRB8T5jXgXAwS33pgRHAKrafyg87Yc",
        "reception_time": "2022-01-17T08:13:47.652-00:00",
        "included_in_blocks":
          [ "BMQztcDP7T2sLKJe8g1jRzp7wuJbinf6g5ZRcHc63p9NT9KHKGe" ] },
      { "delegate": "tz1VceyYUpq1gk5dtp6jXQRtCtY8hm5DKt72",
        "reception_time": "2022-01-17T08:13:47.710-00:00",
        "included_in_blocks":
          [ "BMQztcDP7T2sLKJe8g1jRzp7wuJbinf6g5ZRcHc63p9NT9KHKGe" ] },
      { "delegate": "tz1LmaFsWRkjr7QMCx5PtV6xTUz3AmEpKQiF",
        "reception_time": "2022-01-17T08:13:47.697-00:00",
        "included_in_blocks":
          [ "BMQztcDP7T2sLKJe8g1jRzp7wuJbinf6g5ZRcHc63p9NT9KHKGe" ] },
      { "delegate": "tz1Nf6tsK4G6bBqgSQERy4nUtkHNKUVdh7q1",
        "reception_time": "2022-01-17T08:13:47.607-00:00",
        "included_in_blocks":
          [ "BMQztcDP7T2sLKJe8g1jRzp7wuJbinf6g5ZRcHc63p9NT9KHKGe" ] },
      { "delegate": "tz1RCFbB9GpALpsZtu6J58sb74dm8qe6XBzv",
        "reception_time": "2022-01-17T08:13:47.639-00:00",
        "included_in_blocks":
          [ "BMQztcDP7T2sLKJe8g1jRzp7wuJbinf6g5ZRcHc63p9NT9KHKGe" ] },
      { "delegate": "tz1RpeqCseogMpCPXpyGjhmLH9i9DhqJ8cUR",
        "reception_time": "2022-01-17T08:13:47.601-00:00",
        "included_in_blocks":
          [ "BMQztcDP7T2sLKJe8g1jRzp7wuJbinf6g5ZRcHc63p9NT9KHKGe" ] },
      { "delegate": "tz1WBfwbT66FC6BTLexc2BoyCCBM9LG7pnVW",
        "reception_time": "2022-01-17T08:13:47.565-00:00",
        "included_in_blocks":
          [ "BMQztcDP7T2sLKJe8g1jRzp7wuJbinf6g5ZRcHc63p9NT9KHKGe" ] },
      { "delegate": "tz1ei4WtWEMEJekSv8qDnu9PExG6Q8HgRGr3",
        "reception_time": "2022-01-17T08:13:47.534-00:00",
        "included_in_blocks":
          [ "BMQztcDP7T2sLKJe8g1jRzp7wuJbinf6g5ZRcHc63p9NT9KHKGe" ] },
      { "delegate": "tz1gfArv665EUkSg2ojMBzcbfwuPxAvqPvjo",
        "reception_time": "2022-01-17T08:13:47.510-00:00",
        "included_in_blocks":
          [ "BMQztcDP7T2sLKJe8g1jRzp7wuJbinf6g5ZRcHc63p9NT9KHKGe" ] },
      { "delegate": "tz1dNVDWPf3Q59SdJqnjdnu277iyvReiRS9M",
        "reception_time": "2022-01-17T08:13:47.563-00:00",
        "included_in_blocks":
          [ "BMQztcDP7T2sLKJe8g1jRzp7wuJbinf6g5ZRcHc63p9NT9KHKGe" ] },
      { "delegate": "tz3bTdwZinP8U1JmSweNzVKhmwafqWmFWRfk",
        "reception_time": "2022-01-17T08:13:47.470-00:00",
        "included_in_blocks":
          [ "BMQztcDP7T2sLKJe8g1jRzp7wuJbinf6g5ZRcHc63p9NT9KHKGe" ] },
      { "delegate": "tz1PWCDnz783NNGGQjEFFsHtrcK5yBW4E2rm",
        "reception_time": "2022-01-17T08:13:47.443-00:00",
        "included_in_blocks":
          [ "BMQztcDP7T2sLKJe8g1jRzp7wuJbinf6g5ZRcHc63p9NT9KHKGe" ] },
      { "delegate": "tz3RB4aoyjov4KEVRbuhvQ1CKJgBJMWhaeB8",
        "reception_time": "2022-01-17T08:13:47.434-00:00",
        "included_in_blocks":
          [ "BMQztcDP7T2sLKJe8g1jRzp7wuJbinf6g5ZRcHc63p9NT9KHKGe" ] },
      { "delegate": "tz1UJvHTgpVzcKWhTazGxVcn5wsHru5Gietg",
        "reception_time": "2022-01-17T08:13:47.439-00:00",
        "included_in_blocks":
          [ "BMQztcDP7T2sLKJe8g1jRzp7wuJbinf6g5ZRcHc63p9NT9KHKGe" ] },
      { "delegate": "tz1WCd2jm4uSt4vntk4vSuUWoZQGhLcDuR9q",
        "reception_time": "2022-01-17T08:13:47.437-00:00",
        "included_in_blocks":
          [ "BMQztcDP7T2sLKJe8g1jRzp7wuJbinf6g5ZRcHc63p9NT9KHKGe" ] },
      { "delegate": "tz1aXD7Jigrt3PBYSpHSg5Rr33SexMmmM5Ys",
        "reception_time": "2022-01-17T08:13:47.459-00:00",
        "included_in_blocks":
          [ "BMQztcDP7T2sLKJe8g1jRzp7wuJbinf6g5ZRcHc63p9NT9KHKGe" ] },
      { "delegate": "tz1iZEKy4LaAjnTmn2RuGDf2iqdAQKnRi8kY",
        "reception_time": "2022-01-17T08:13:47.348-00:00",
        "included_in_blocks":
          [ "BMQztcDP7T2sLKJe8g1jRzp7wuJbinf6g5ZRcHc63p9NT9KHKGe" ] },
      { "delegate": "tz3S6BBeKgJGXxvLyZ1xzXzMPn11nnFtq5L9",
        "reception_time": "2022-01-17T08:13:47.391-00:00",
        "included_in_blocks":
          [ "BMQztcDP7T2sLKJe8g1jRzp7wuJbinf6g5ZRcHc63p9NT9KHKGe" ] },
      { "delegate": "tz1irJKkXS2DBWkU1NnmFQx1c1L7pbGg4yhk",
        "reception_time": "2022-01-17T08:13:47.341-00:00",
        "included_in_blocks":
          [ "BMQztcDP7T2sLKJe8g1jRzp7wuJbinf6g5ZRcHc63p9NT9KHKGe" ] },
      { "delegate": "tz3gtoUxdudfBRcNY7iVdKPHCYYX6xdPpoRS",
        "reception_time": "2022-01-17T08:13:47.311-00:00",
        "included_in_blocks":
          [ "BMQztcDP7T2sLKJe8g1jRzp7wuJbinf6g5ZRcHc63p9NT9KHKGe" ] },
      { "delegate": "tz3QT9dHYKDqh563chVa6za8526ys1UKfRfL",
        "reception_time": "2022-01-17T08:13:47.398-00:00",
        "included_in_blocks":
          [ "BMQztcDP7T2sLKJe8g1jRzp7wuJbinf6g5ZRcHc63p9NT9KHKGe" ] },
      { "delegate": "tz3Zhs2dygr55yHyQyKjntAtY9bgfhLZ4Xj1",
        "reception_time": "2022-01-17T08:13:47.434-00:00",
        "included_in_blocks":
          [ "BMQztcDP7T2sLKJe8g1jRzp7wuJbinf6g5ZRcHc63p9NT9KHKGe" ] },
      { "delegate": "tz3iJu5vrKZcsqRPs8yJ61UDoeEXZmtro4qh",
        "reception_time": "2022-01-17T08:13:47.417-00:00",
        "included_in_blocks":
          [ "BMQztcDP7T2sLKJe8g1jRzp7wuJbinf6g5ZRcHc63p9NT9KHKGe" ] },
      { "delegate": "tz1bsdrs36X5BTH83RHUBdUouKLJZK8d2oBa",
        "reception_time": "2022-01-17T08:13:47.301-00:00",
        "included_in_blocks":
          [ "BMQztcDP7T2sLKJe8g1jRzp7wuJbinf6g5ZRcHc63p9NT9KHKGe" ] },
      { "delegate": "tz1VmiY38m3y95HqQLjMwqnMS7sdMfGomzKi",
        "reception_time": "2022-01-17T08:13:47.357-00:00",
        "included_in_blocks":
          [ "BMQztcDP7T2sLKJe8g1jRzp7wuJbinf6g5ZRcHc63p9NT9KHKGe" ] },
      { "delegate": "tz3QSGPoRp3Kn7n3vY24eYeu3Peuqo45LQ4D",
        "reception_time": "2022-01-17T08:13:47.284-00:00",
        "included_in_blocks":
          [ "BMQztcDP7T2sLKJe8g1jRzp7wuJbinf6g5ZRcHc63p9NT9KHKGe" ] },
      { "delegate": "tz3ZbP2pM3nwvXztbuMJwJnDvV5xdpU8UkkD",
        "reception_time": "2022-01-17T08:13:47.336-00:00",
        "included_in_blocks":
          [ "BMQztcDP7T2sLKJe8g1jRzp7wuJbinf6g5ZRcHc63p9NT9KHKGe" ] },
      { "delegate": "tz3RKYFsLuQzKBtmYuLNas7uMu3AsYd4QdsA",
        "reception_time": "2022-01-17T08:13:47.357-00:00",
        "included_in_blocks":
          [ "BMQztcDP7T2sLKJe8g1jRzp7wuJbinf6g5ZRcHc63p9NT9KHKGe" ] },
      { "delegate": "tz3NxTnke1acr8o3h5y9ytf5awQBGNJUKzVU",
        "reception_time": "2022-01-17T08:13:47.329-00:00",
        "included_in_blocks":
          [ "BMQztcDP7T2sLKJe8g1jRzp7wuJbinf6g5ZRcHc63p9NT9KHKGe" ] },
      { "delegate": "tz1VQnqCCqX4K5sP3FNkVSNKTdCAMJDd3E1n",
        "reception_time": "2022-01-17T08:13:47.344-00:00",
        "included_in_blocks":
          [ "BMQztcDP7T2sLKJe8g1jRzp7wuJbinf6g5ZRcHc63p9NT9KHKGe" ] },
      { "delegate": "tz1gUNyn3hmnEWqkusWPzxRaon1cs7ndWh7h",
        "reception_time": "2022-01-17T08:13:47.304-00:00",
        "included_in_blocks":
          [ "BMQztcDP7T2sLKJe8g1jRzp7wuJbinf6g5ZRcHc63p9NT9KHKGe" ] },
      { "delegate": "tz1Ldzz6k1BHdhuKvAtMRX7h5kJSMHESMHLC",
        "reception_time": "2022-01-17T08:13:47.341-00:00",
        "included_in_blocks":
          [ "BMQztcDP7T2sLKJe8g1jRzp7wuJbinf6g5ZRcHc63p9NT9KHKGe" ] },
      { "delegate": "tz3hw2kqXhLUvY65ca1eety2oQTpAvd34R9Q",
        "reception_time": "2022-01-17T08:13:47.329-00:00",
        "included_in_blocks":
          [ "BMQztcDP7T2sLKJe8g1jRzp7wuJbinf6g5ZRcHc63p9NT9KHKGe" ] },
      { "delegate": "tz1Kt4P8BCaP93AEV4eA7gmpRryWt5hznjCP",
        "reception_time": "2022-01-17T08:13:47.314-00:00",
        "included_in_blocks":
          [ "BMQztcDP7T2sLKJe8g1jRzp7wuJbinf6g5ZRcHc63p9NT9KHKGe" ] },
      { "delegate": "tz1d9ek6HrScY6QRZ71NJdB85MNz8gKGBjrv",
        "reception_time": "2022-01-17T08:13:47.263-00:00",
        "included_in_blocks":
          [ "BMQztcDP7T2sLKJe8g1jRzp7wuJbinf6g5ZRcHc63p9NT9KHKGe" ] } ] }