{ "blocks":
    [ { "hash": "BLKV8mfavvikofu3A7KyDzvbUdiBAsaqzntDoqetRz9b8583F2U",
        "delegate": "tz1VQnqCCqX4K5sP3FNkVSNKTdCAMJDd3E1n",
        "reception_time": "2022-01-17T09:46:43.437-00:00",
        "timestamp": "2022-01-17T09:46:40Z" } ],
  "endorsements":
    [ { "delegate": "tz1ibcPVGK4Y8pcW4BYUsojiHoBKnZbyDGrX" },
      { "delegate": "tz1awXW7wuXy21c66vBudMXQVAPgRnqqwgTH" },
      { "delegate": "tz1RjoHc98dBoqaH2jawF62XNKh7YsHwbkEv" },
      { "delegate": "tz1P2Po7YM526ughEsRbY4oR9zaUPDZjxFrb",
        "reception_time": "2022-01-17T09:46:43.247-00:00",
        "errors":
          [ { "kind": "temporary",
              "id": "proto.011-PtHangz2.prefilter.outdated_endorsement" } ],
        "included_in_blocks":
          [ "BLR8K2zQDtN8QQppWphoCobtWwSbm25qGeD1ktEU7934CfSUCn9" ] },
      { "delegate": "tz1eEnQhbwf6trb8Q8mPb2RaPkNk2rN7BKi8",
        "reception_time": "2022-01-17T09:46:43.246-00:00",
        "errors":
          [ { "kind": "temporary",
              "id": "proto.011-PtHangz2.prefilter.outdated_endorsement" } ],
        "included_in_blocks":
          [ "BLR8K2zQDtN8QQppWphoCobtWwSbm25qGeD1ktEU7934CfSUCn9" ] },
      { "delegate": "tz1ZcTRk5uxD86EFEn1vvNffWWqJy7q5eVhc",
        "reception_time": "2022-01-17T09:46:47.609-00:00",
        "included_in_blocks":
          [ "BLR8K2zQDtN8QQppWphoCobtWwSbm25qGeD1ktEU7934CfSUCn9" ] },
      { "delegate": "tz3UoffC7FG7zfpmvmjUmUeAaHvzdcUvAj6r",
        "reception_time": "2022-01-17T09:46:47.253-00:00",
        "included_in_blocks":
          [ "BLR8K2zQDtN8QQppWphoCobtWwSbm25qGeD1ktEU7934CfSUCn9" ] },
      { "delegate": "tz3NExpXn9aPNZPorRE4SdjJ2RGrfbJgMAaV",
        "reception_time": "2022-01-17T09:46:47.104-00:00",
        "included_in_blocks":
          [ "BLR8K2zQDtN8QQppWphoCobtWwSbm25qGeD1ktEU7934CfSUCn9" ] },
      { "delegate": "tz3gLTu4Yxj8tPAcriQVUdxv6BY9QyvzU1az",
        "reception_time": "2022-01-17T09:46:46.595-00:00",
        "included_in_blocks":
          [ "BLR8K2zQDtN8QQppWphoCobtWwSbm25qGeD1ktEU7934CfSUCn9" ] },
      { "delegate": "tz1Z2jXfEXL7dXhs6bsLmyLFLfmAkXBzA9WE",
        "reception_time": "2022-01-17T09:46:46.615-00:00",
        "included_in_blocks":
          [ "BLR8K2zQDtN8QQppWphoCobtWwSbm25qGeD1ktEU7934CfSUCn9" ] },
      { "delegate": "tz1dRKU4FQ9QRRQPdaH4zCR6gmCmXfcvcgtB",
        "reception_time": "2022-01-17T09:46:46.893-00:00",
        "included_in_blocks":
          [ "BLR8K2zQDtN8QQppWphoCobtWwSbm25qGeD1ktEU7934CfSUCn9" ] },
      { "delegate": "tz1aRoaRhSpRYvFdyvgWLL6TGyRoGF51wDjM",
        "reception_time": "2022-01-17T09:46:46.390-00:00",
        "included_in_blocks":
          [ "BLR8K2zQDtN8QQppWphoCobtWwSbm25qGeD1ktEU7934CfSUCn9" ] },
      { "delegate": "tz1cYufsxHXJcvANhvS55h3aY32a9BAFB494",
        "reception_time": "2022-01-17T09:46:46.410-00:00",
        "included_in_blocks":
          [ "BLR8K2zQDtN8QQppWphoCobtWwSbm25qGeD1ktEU7934CfSUCn9" ] },
      { "delegate": "tz1T7duV5gZWSTq4YpBGbXNLTfznCLDrFxvs",
        "reception_time": "2022-01-17T09:46:46.377-00:00",
        "included_in_blocks":
          [ "BLR8K2zQDtN8QQppWphoCobtWwSbm25qGeD1ktEU7934CfSUCn9" ] },
      { "delegate": "tz3VEZ4k6a4Wx42iyev6i2aVAptTRLEAivNN",
        "reception_time": "2022-01-17T09:46:46.266-00:00",
        "included_in_blocks":
          [ "BLR8K2zQDtN8QQppWphoCobtWwSbm25qGeD1ktEU7934CfSUCn9" ] },
      { "delegate": "tz3WMqdzXqRWXwyvj5Hp2H7QEepaUuS7vd9K",
        "reception_time": "2022-01-17T09:46:46.209-00:00",
        "included_in_blocks":
          [ "BLR8K2zQDtN8QQppWphoCobtWwSbm25qGeD1ktEU7934CfSUCn9" ] },
      { "delegate": "tz1bTpviNnyx2PXsNmGpCQTMQsGoYordkUoA",
        "reception_time": "2022-01-17T09:46:46.359-00:00",
        "included_in_blocks":
          [ "BLR8K2zQDtN8QQppWphoCobtWwSbm25qGeD1ktEU7934CfSUCn9" ] },
      { "delegate": "tz1Mc61yajNASzh5KWZFtYs4i7EJbzAxQC4K",
        "reception_time": "2022-01-17T09:46:46.101-00:00",
        "included_in_blocks":
          [ "BLR8K2zQDtN8QQppWphoCobtWwSbm25qGeD1ktEU7934CfSUCn9" ] },
      { "delegate": "tz1KfEsrtDaA1sX7vdM4qmEPWuSytuqCDp5j",
        "reception_time": "2022-01-17T09:46:46.030-00:00",
        "included_in_blocks":
          [ "BLR8K2zQDtN8QQppWphoCobtWwSbm25qGeD1ktEU7934CfSUCn9" ] },
      { "delegate": "tz1WctSwL49BZtdWAQ75NY6vr4xsAx6oKdah",
        "reception_time": "2022-01-17T09:46:46.047-00:00",
        "included_in_blocks":
          [ "BLR8K2zQDtN8QQppWphoCobtWwSbm25qGeD1ktEU7934CfSUCn9" ] },
      { "delegate": "tz1XX67xSF2ou3aQZ6LhXaaxZWDR3YZ6hCMs",
        "reception_time": "2022-01-17T09:46:45.693-00:00",
        "included_in_blocks":
          [ "BLR8K2zQDtN8QQppWphoCobtWwSbm25qGeD1ktEU7934CfSUCn9" ] },
      { "delegate": "tz1VceyYUpq1gk5dtp6jXQRtCtY8hm5DKt72",
        "reception_time": "2022-01-17T09:46:45.526-00:00",
        "included_in_blocks":
          [ "BLR8K2zQDtN8QQppWphoCobtWwSbm25qGeD1ktEU7934CfSUCn9" ] },
      { "delegate": "tz2FCNBrERXtaTtNX6iimR1UJ5JSDxvdHM93",
        "reception_time": "2022-01-17T09:46:45.516-00:00",
        "included_in_blocks":
          [ "BLR8K2zQDtN8QQppWphoCobtWwSbm25qGeD1ktEU7934CfSUCn9" ] },
      { "delegate": "tz1g8vkmcde6sWKaG2NN9WKzCkDM6Rziq194",
        "reception_time": "2022-01-17T09:46:45.324-00:00",
        "included_in_blocks":
          [ "BLR8K2zQDtN8QQppWphoCobtWwSbm25qGeD1ktEU7934CfSUCn9" ] },
      { "delegate": "tz3bTdwZinP8U1JmSweNzVKhmwafqWmFWRfk",
        "reception_time": "2022-01-17T09:46:45.426-00:00",
        "included_in_blocks":
          [ "BLR8K2zQDtN8QQppWphoCobtWwSbm25qGeD1ktEU7934CfSUCn9" ] },
      { "delegate": "tz1MDSg9ycDZmRxDqymSmHsWUgozhTvYskPi",
        "reception_time": "2022-01-17T09:46:45.256-00:00",
        "included_in_blocks":
          [ "BLR8K2zQDtN8QQppWphoCobtWwSbm25qGeD1ktEU7934CfSUCn9" ] },
      { "delegate": "tz1Nf6tsK4G6bBqgSQERy4nUtkHNKUVdh7q1",
        "reception_time": "2022-01-17T09:46:45.261-00:00",
        "included_in_blocks":
          [ "BLR8K2zQDtN8QQppWphoCobtWwSbm25qGeD1ktEU7934CfSUCn9" ] },
      { "delegate": "tz3RDC3Jdn4j15J7bBHZd29EUee9gVB1CxD9",
        "reception_time": "2022-01-17T09:46:45.272-00:00",
        "included_in_blocks":
          [ "BLR8K2zQDtN8QQppWphoCobtWwSbm25qGeD1ktEU7934CfSUCn9" ] },
      { "delegate": "tz1WBfwbT66FC6BTLexc2BoyCCBM9LG7pnVW",
        "reception_time": "2022-01-17T09:46:45.587-00:00",
        "included_in_blocks":
          [ "BLR8K2zQDtN8QQppWphoCobtWwSbm25qGeD1ktEU7934CfSUCn9" ] },
      { "delegate": "tz1TKdBNQTFf3DqMga3z2h4MfYv1tPxdDMm4",
        "reception_time": "2022-01-17T09:46:45.537-00:00",
        "included_in_blocks":
          [ "BLR8K2zQDtN8QQppWphoCobtWwSbm25qGeD1ktEU7934CfSUCn9" ] },
      { "delegate": "tz3RB4aoyjov4KEVRbuhvQ1CKJgBJMWhaeB8",
        "reception_time": "2022-01-17T09:46:45.163-00:00",
        "included_in_blocks":
          [ "BLR8K2zQDtN8QQppWphoCobtWwSbm25qGeD1ktEU7934CfSUCn9" ] },
      { "delegate": "tz3bvNMQ95vfAYtG8193ymshqjSvmxiCUuR5",
        "reception_time": "2022-01-17T09:46:45.117-00:00",
        "included_in_blocks":
          [ "BLR8K2zQDtN8QQppWphoCobtWwSbm25qGeD1ktEU7934CfSUCn9" ] },
      { "delegate": "tz1Tnjaxk6tbAeC2TmMApPh8UsrEVQvhHvx5",
        "reception_time": "2022-01-17T09:46:45.435-00:00",
        "included_in_blocks":
          [ "BLR8K2zQDtN8QQppWphoCobtWwSbm25qGeD1ktEU7934CfSUCn9" ] },
      { "delegate": "tz1cSj7fTex3JPd1p1LN1fwek6AV1kH93Wwc",
        "reception_time": "2022-01-17T09:46:44.987-00:00",
        "included_in_blocks":
          [ "BLR8K2zQDtN8QQppWphoCobtWwSbm25qGeD1ktEU7934CfSUCn9" ] },
      { "delegate": "tz1RCFbB9GpALpsZtu6J58sb74dm8qe6XBzv",
        "reception_time": "2022-01-17T09:46:45.574-00:00",
        "included_in_blocks":
          [ "BLR8K2zQDtN8QQppWphoCobtWwSbm25qGeD1ktEU7934CfSUCn9" ] },
      { "delegate": "tz3Zhs2dygr55yHyQyKjntAtY9bgfhLZ4Xj1",
        "reception_time": "2022-01-17T09:46:44.890-00:00",
        "included_in_blocks":
          [ "BLR8K2zQDtN8QQppWphoCobtWwSbm25qGeD1ktEU7934CfSUCn9" ] },
      { "delegate": "tz3iJu5vrKZcsqRPs8yJ61UDoeEXZmtro4qh",
        "reception_time": "2022-01-17T09:46:44.877-00:00",
        "included_in_blocks":
          [ "BLR8K2zQDtN8QQppWphoCobtWwSbm25qGeD1ktEU7934CfSUCn9" ] },
      { "delegate": "tz1ei4WtWEMEJekSv8qDnu9PExG6Q8HgRGr3",
        "reception_time": "2022-01-17T09:46:45.311-00:00",
        "included_in_blocks":
          [ "BLR8K2zQDtN8QQppWphoCobtWwSbm25qGeD1ktEU7934CfSUCn9" ] },
      { "delegate": "tz3QT9dHYKDqh563chVa6za8526ys1UKfRfL",
        "reception_time": "2022-01-17T09:46:44.776-00:00",
        "included_in_blocks":
          [ "BLR8K2zQDtN8QQppWphoCobtWwSbm25qGeD1ktEU7934CfSUCn9" ] },
      { "delegate": "tz3S6BBeKgJGXxvLyZ1xzXzMPn11nnFtq5L9",
        "reception_time": "2022-01-17T09:46:44.837-00:00",
        "included_in_blocks":
          [ "BLR8K2zQDtN8QQppWphoCobtWwSbm25qGeD1ktEU7934CfSUCn9" ] },
      { "delegate": "tz1TRqbYbUf2GyrjErf3hBzgBJPzW8y36qEs",
        "reception_time": "2022-01-17T09:46:45.317-00:00",
        "included_in_blocks":
          [ "BLR8K2zQDtN8QQppWphoCobtWwSbm25qGeD1ktEU7934CfSUCn9" ] },
      { "delegate": "tz1WCd2jm4uSt4vntk4vSuUWoZQGhLcDuR9q",
        "reception_time": "2022-01-17T09:46:44.797-00:00",
        "included_in_blocks":
          [ "BLR8K2zQDtN8QQppWphoCobtWwSbm25qGeD1ktEU7934CfSUCn9" ] },
      { "delegate": "tz1S8MNvuFEUsWgjHvi3AxibRBf388NhT1q2",
        "reception_time": "2022-01-17T09:46:45.385-00:00",
        "included_in_blocks":
          [ "BLR8K2zQDtN8QQppWphoCobtWwSbm25qGeD1ktEU7934CfSUCn9" ] },
      { "delegate": "tz3QSGPoRp3Kn7n3vY24eYeu3Peuqo45LQ4D",
        "reception_time": "2022-01-17T09:46:44.550-00:00",
        "included_in_blocks":
          [ "BLR8K2zQDtN8QQppWphoCobtWwSbm25qGeD1ktEU7934CfSUCn9" ] },
      { "delegate": "tz3gtoUxdudfBRcNY7iVdKPHCYYX6xdPpoRS",
        "reception_time": "2022-01-17T09:46:44.582-00:00",
        "included_in_blocks":
          [ "BLR8K2zQDtN8QQppWphoCobtWwSbm25qGeD1ktEU7934CfSUCn9" ] },
      { "delegate": "tz1V4qCyvPKZ5UeqdH14HN42rxvNPQfc9UZg",
        "reception_time": "2022-01-17T09:46:45.153-00:00",
        "included_in_blocks":
          [ "BLR8K2zQDtN8QQppWphoCobtWwSbm25qGeD1ktEU7934CfSUCn9" ] },
      { "delegate": "tz3hw2kqXhLUvY65ca1eety2oQTpAvd34R9Q",
        "reception_time": "2022-01-17T09:46:44.528-00:00",
        "included_in_blocks":
          [ "BLR8K2zQDtN8QQppWphoCobtWwSbm25qGeD1ktEU7934CfSUCn9" ] },
      { "delegate": "tz3ZbP2pM3nwvXztbuMJwJnDvV5xdpU8UkkD",
        "reception_time": "2022-01-17T09:46:44.480-00:00",
        "included_in_blocks":
          [ "BLR8K2zQDtN8QQppWphoCobtWwSbm25qGeD1ktEU7934CfSUCn9" ] },
      { "delegate": "tz1VQnqCCqX4K5sP3FNkVSNKTdCAMJDd3E1n",
        "reception_time": "2022-01-17T09:46:44.423-00:00",
        "included_in_blocks":
          [ "BLR8K2zQDtN8QQppWphoCobtWwSbm25qGeD1ktEU7934CfSUCn9" ] },
      { "delegate": "tz3RKYFsLuQzKBtmYuLNas7uMu3AsYd4QdsA",
        "reception_time": "2022-01-17T09:46:44.489-00:00",
        "included_in_blocks":
          [ "BLR8K2zQDtN8QQppWphoCobtWwSbm25qGeD1ktEU7934CfSUCn9" ] },
      { "delegate": "tz1Ldzz6k1BHdhuKvAtMRX7h5kJSMHESMHLC",
        "reception_time": "2022-01-17T09:46:44.535-00:00",
        "included_in_blocks":
          [ "BLR8K2zQDtN8QQppWphoCobtWwSbm25qGeD1ktEU7934CfSUCn9" ] },
      { "delegate": "tz1PWCDnz783NNGGQjEFFsHtrcK5yBW4E2rm",
        "reception_time": "2022-01-17T09:46:44.895-00:00",
        "included_in_blocks":
          [ "BLR8K2zQDtN8QQppWphoCobtWwSbm25qGeD1ktEU7934CfSUCn9" ] },
      { "delegate": "tz1gUNyn3hmnEWqkusWPzxRaon1cs7ndWh7h",
        "reception_time": "2022-01-17T09:46:44.460-00:00",
        "included_in_blocks":
          [ "BLR8K2zQDtN8QQppWphoCobtWwSbm25qGeD1ktEU7934CfSUCn9" ] },
      { "delegate": "tz3adcvQaKXTCg12zbninqo3q8ptKKtDFTLv",
        "reception_time": "2022-01-17T09:46:44.630-00:00",
        "included_in_blocks":
          [ "BLR8K2zQDtN8QQppWphoCobtWwSbm25qGeD1ktEU7934CfSUCn9" ] },
      { "delegate": "tz1fPKAtsYydh4f1wfWNfeNxWYu72TmM48fu",
        "reception_time": "2022-01-17T09:46:44.717-00:00",
        "included_in_blocks":
          [ "BLR8K2zQDtN8QQppWphoCobtWwSbm25qGeD1ktEU7934CfSUCn9" ] },
      { "delegate": "tz1gfArv665EUkSg2ojMBzcbfwuPxAvqPvjo",
        "reception_time": "2022-01-17T09:46:45.285-00:00",
        "included_in_blocks":
          [ "BLR8K2zQDtN8QQppWphoCobtWwSbm25qGeD1ktEU7934CfSUCn9" ] },
      { "delegate": "tz3NxTnke1acr8o3h5y9ytf5awQBGNJUKzVU",
        "reception_time": "2022-01-17T09:46:44.472-00:00",
        "included_in_blocks":
          [ "BLR8K2zQDtN8QQppWphoCobtWwSbm25qGeD1ktEU7934CfSUCn9" ] },
      { "delegate": "tz1ZPh7XfUaJXUDvkrBxmS1BjEM1i62hiPpM",
        "reception_time": "2022-01-17T09:46:44.349-00:00",
        "included_in_blocks":
          [ "BLR8K2zQDtN8QQppWphoCobtWwSbm25qGeD1ktEU7934CfSUCn9" ] },
      { "delegate": "tz3QCNyySViKHmeSr45kzDxzchys7NiXCWoa",
        "reception_time": "2022-01-17T09:46:44.376-00:00",
        "included_in_blocks":
          [ "BLR8K2zQDtN8QQppWphoCobtWwSbm25qGeD1ktEU7934CfSUCn9" ] },
      { "delegate": "tz1irJKkXS2DBWkU1NnmFQx1c1L7pbGg4yhk",
        "reception_time": "2022-01-17T09:46:44.349-00:00",
        "included_in_blocks":
          [ "BLR8K2zQDtN8QQppWphoCobtWwSbm25qGeD1ktEU7934CfSUCn9" ] },
      { "delegate": "tz1VmiY38m3y95HqQLjMwqnMS7sdMfGomzKi",
        "reception_time": "2022-01-17T09:46:44.393-00:00",
        "included_in_blocks":
          [ "BLR8K2zQDtN8QQppWphoCobtWwSbm25qGeD1ktEU7934CfSUCn9" ] },
      { "delegate": "tz1beersuEDv8Z7ngQ825xfbaJNS2EhXnyHR",
        "reception_time": "2022-01-17T09:46:44.348-00:00",
        "included_in_blocks":
          [ "BLR8K2zQDtN8QQppWphoCobtWwSbm25qGeD1ktEU7934CfSUCn9" ] },
      { "delegate": "tz1TRspM5SeZpaQUhzByXbEvqKF1vnCM2YTK",
        "reception_time": "2022-01-17T09:46:44.349-00:00",
        "included_in_blocks":
          [ "BLR8K2zQDtN8QQppWphoCobtWwSbm25qGeD1ktEU7934CfSUCn9" ] } ] }