{ "blocks":
    [ { "hash": "BL2X8nG3bSrcRUEtFUhGDs1u7q72jKvtRBwLhkXFiEFN4Kvu68m",
        "delegate": "tz1irJKkXS2DBWkU1NnmFQx1c1L7pbGg4yhk",
        "reception_time": "2022-01-17T14:01:37.195-00:00",
        "timestamp": "2022-01-17T14:01:30Z" } ],
  "endorsements":
    [ { "delegate": "tz1Scdr2HsZiQjc7bHMeBbmDRXYVvdhjJbBh",
        "reception_time": "2022-01-17T14:01:37.126-00:00",
        "errors":
          [ { "kind": "temporary",
              "id": "proto.011-PtHangz2.prefilter.outdated_endorsement" } ],
        "included_in_blocks":
          [ "BLpfzca3ReGRSqVcT2o3YNZ67LTcv5JY4L1NaGEC5n6eXYdXsVG" ] },
      { "delegate": "tz1Lhf4J9Qxoe3DZ2nfe8FGDnvVj7oKjnMY6",
        "reception_time": "2022-01-17T14:01:37.085-00:00",
        "errors":
          [ { "kind": "temporary",
              "id": "proto.011-PtHangz2.prefilter.outdated_endorsement" } ],
        "included_in_blocks":
          [ "BLpfzca3ReGRSqVcT2o3YNZ67LTcv5JY4L1NaGEC5n6eXYdXsVG" ] },
      { "delegate": "tz1irJKkXS2DBWkU1NnmFQx1c1L7pbGg4yhk",
        "reception_time": "2022-01-17T14:01:36.911-00:00",
        "errors":
          [ { "kind": "temporary",
              "id": "proto.011-PtHangz2.prefilter.outdated_endorsement" } ],
        "included_in_blocks":
          [ "BLpfzca3ReGRSqVcT2o3YNZ67LTcv5JY4L1NaGEC5n6eXYdXsVG" ] },
      { "delegate": "tz1P2Po7YM526ughEsRbY4oR9zaUPDZjxFrb",
        "reception_time": "2022-01-17T14:01:36.661-00:00",
        "errors":
          [ { "kind": "temporary",
              "id": "proto.011-PtHangz2.prefilter.outdated_endorsement" } ],
        "included_in_blocks":
          [ "BLpfzca3ReGRSqVcT2o3YNZ67LTcv5JY4L1NaGEC5n6eXYdXsVG" ] },
      { "delegate": "tz1XXayQohB8XRXN7kMoHbf2NFwNiH3oMRQQ",
        "reception_time": "2022-01-17T14:01:36.592-00:00",
        "errors":
          [ { "kind": "temporary",
              "id": "proto.011-PtHangz2.prefilter.outdated_endorsement" } ],
        "included_in_blocks":
          [ "BLpfzca3ReGRSqVcT2o3YNZ67LTcv5JY4L1NaGEC5n6eXYdXsVG" ] },
      { "delegate": "tz1S8e9GgdZG78XJRB3NqabfWeM37GnhZMWQ",
        "reception_time": "2022-01-17T14:01:36.425-00:00",
        "errors":
          [ { "kind": "temporary",
              "id": "proto.011-PtHangz2.prefilter.outdated_endorsement" } ],
        "included_in_blocks":
          [ "BLpfzca3ReGRSqVcT2o3YNZ67LTcv5JY4L1NaGEC5n6eXYdXsVG" ] },
      { "delegate": "tz1MduLJ4AAR6g7CDjB77Jci3gvu3Xsvk6bJ" },
      { "delegate": "tz1NdhRv643wLW6zCcRP3VfT24dvDnh7nuh9" },
      { "delegate": "tz1RjoHc98dBoqaH2jawF62XNKh7YsHwbkEv" },
      { "delegate": "tz1dbfppLAAxXZNtf2SDps7rch3qfUznKSoK" },
      { "delegate": "tz1VQnqCCqX4K5sP3FNkVSNKTdCAMJDd3E1n",
        "reception_time": "2022-01-17T14:01:38.002-00:00",
        "included_in_blocks":
          [ "BLpfzca3ReGRSqVcT2o3YNZ67LTcv5JY4L1NaGEC5n6eXYdXsVG" ] },
      { "delegate": "tz1ZPh7XfUaJXUDvkrBxmS1BjEM1i62hiPpM",
        "reception_time": "2022-01-17T14:01:38.014-00:00",
        "included_in_blocks":
          [ "BLpfzca3ReGRSqVcT2o3YNZ67LTcv5JY4L1NaGEC5n6eXYdXsVG" ] },
      { "delegate": "tz1gUNyn3hmnEWqkusWPzxRaon1cs7ndWh7h",
        "reception_time": "2022-01-17T14:01:38.019-00:00",
        "included_in_blocks":
          [ "BLpfzca3ReGRSqVcT2o3YNZ67LTcv5JY4L1NaGEC5n6eXYdXsVG" ] },
      { "delegate": "tz1TRspM5SeZpaQUhzByXbEvqKF1vnCM2YTK",
        "reception_time": "2022-01-17T14:01:38.022-00:00",
        "included_in_blocks":
          [ "BLpfzca3ReGRSqVcT2o3YNZ67LTcv5JY4L1NaGEC5n6eXYdXsVG" ] },
      { "delegate": "tz3ZbP2pM3nwvXztbuMJwJnDvV5xdpU8UkkD",
        "reception_time": "2022-01-17T14:01:38.030-00:00",
        "included_in_blocks":
          [ "BLpfzca3ReGRSqVcT2o3YNZ67LTcv5JY4L1NaGEC5n6eXYdXsVG" ] },
      { "delegate": "tz1eEnQhbwf6trb8Q8mPb2RaPkNk2rN7BKi8",
        "reception_time": "2022-01-17T14:01:38.030-00:00",
        "included_in_blocks":
          [ "BLpfzca3ReGRSqVcT2o3YNZ67LTcv5JY4L1NaGEC5n6eXYdXsVG" ] },
      { "delegate": "tz1Ldzz6k1BHdhuKvAtMRX7h5kJSMHESMHLC",
        "reception_time": "2022-01-17T14:01:38.035-00:00",
        "included_in_blocks":
          [ "BLpfzca3ReGRSqVcT2o3YNZ67LTcv5JY4L1NaGEC5n6eXYdXsVG" ] },
      { "delegate": "tz1TzaNn7wSQSP5gYPXCnNzBCpyMiidCq1PX",
        "reception_time": "2022-01-17T14:01:38.035-00:00",
        "included_in_blocks":
          [ "BLpfzca3ReGRSqVcT2o3YNZ67LTcv5JY4L1NaGEC5n6eXYdXsVG" ] },
      { "delegate": "tz3NxTnke1acr8o3h5y9ytf5awQBGNJUKzVU",
        "reception_time": "2022-01-17T14:01:38.043-00:00",
        "included_in_blocks":
          [ "BLpfzca3ReGRSqVcT2o3YNZ67LTcv5JY4L1NaGEC5n6eXYdXsVG" ] },
      { "delegate": "tz1aXD7Jigrt3PBYSpHSg5Rr33SexMmmM5Ys",
        "reception_time": "2022-01-17T14:01:38.050-00:00",
        "included_in_blocks":
          [ "BLpfzca3ReGRSqVcT2o3YNZ67LTcv5JY4L1NaGEC5n6eXYdXsVG" ] },
      { "delegate": "tz1Kf25fX1VdmYGSEzwFy1wNmkbSEZ2V83sY",
        "reception_time": "2022-01-17T14:01:38.060-00:00",
        "included_in_blocks":
          [ "BLpfzca3ReGRSqVcT2o3YNZ67LTcv5JY4L1NaGEC5n6eXYdXsVG" ] },
      { "delegate": "tz3gtoUxdudfBRcNY7iVdKPHCYYX6xdPpoRS",
        "reception_time": "2022-01-17T14:01:38.085-00:00",
        "included_in_blocks":
          [ "BLpfzca3ReGRSqVcT2o3YNZ67LTcv5JY4L1NaGEC5n6eXYdXsVG" ] },
      { "delegate": "tz3iJu5vrKZcsqRPs8yJ61UDoeEXZmtro4qh",
        "reception_time": "2022-01-17T14:01:38.145-00:00",
        "included_in_blocks":
          [ "BLpfzca3ReGRSqVcT2o3YNZ67LTcv5JY4L1NaGEC5n6eXYdXsVG" ] },
      { "delegate": "tz3Zhs2dygr55yHyQyKjntAtY9bgfhLZ4Xj1",
        "reception_time": "2022-01-17T14:01:38.159-00:00",
        "included_in_blocks":
          [ "BLpfzca3ReGRSqVcT2o3YNZ67LTcv5JY4L1NaGEC5n6eXYdXsVG" ] },
      { "delegate": "tz1aqcYgG6NuViML5vdWhohHJBYxcDVLNUsE",
        "reception_time": "2022-01-17T14:01:38.162-00:00",
        "included_in_blocks":
          [ "BLpfzca3ReGRSqVcT2o3YNZ67LTcv5JY4L1NaGEC5n6eXYdXsVG" ] },
      { "delegate": "tz1cSj7fTex3JPd1p1LN1fwek6AV1kH93Wwc",
        "reception_time": "2022-01-17T14:01:38.171-00:00",
        "included_in_blocks":
          [ "BLpfzca3ReGRSqVcT2o3YNZ67LTcv5JY4L1NaGEC5n6eXYdXsVG" ] },
      { "delegate": "tz3QSGPoRp3Kn7n3vY24eYeu3Peuqo45LQ4D",
        "reception_time": "2022-01-17T14:01:38.171-00:00",
        "included_in_blocks":
          [ "BLpfzca3ReGRSqVcT2o3YNZ67LTcv5JY4L1NaGEC5n6eXYdXsVG" ] },
      { "delegate": "tz1gfArv665EUkSg2ojMBzcbfwuPxAvqPvjo",
        "reception_time": "2022-01-17T14:01:38.294-00:00",
        "included_in_blocks":
          [ "BLpfzca3ReGRSqVcT2o3YNZ67LTcv5JY4L1NaGEC5n6eXYdXsVG" ] },
      { "delegate": "tz1WCd2jm4uSt4vntk4vSuUWoZQGhLcDuR9q",
        "reception_time": "2022-01-17T14:01:38.317-00:00",
        "included_in_blocks":
          [ "BLpfzca3ReGRSqVcT2o3YNZ67LTcv5JY4L1NaGEC5n6eXYdXsVG" ] },
      { "delegate": "tz3hw2kqXhLUvY65ca1eety2oQTpAvd34R9Q",
        "reception_time": "2022-01-17T14:01:38.363-00:00",
        "included_in_blocks":
          [ "BLpfzca3ReGRSqVcT2o3YNZ67LTcv5JY4L1NaGEC5n6eXYdXsVG" ] },
      { "delegate": "tz1fb7c66UwePkkfDXz4ajFaBP9hVNLdS7JJ",
        "reception_time": "2022-01-17T14:01:38.423-00:00",
        "included_in_blocks":
          [ "BLpfzca3ReGRSqVcT2o3YNZ67LTcv5JY4L1NaGEC5n6eXYdXsVG" ] },
      { "delegate": "tz3RKYFsLuQzKBtmYuLNas7uMu3AsYd4QdsA",
        "reception_time": "2022-01-17T14:01:38.641-00:00",
        "included_in_blocks":
          [ "BLpfzca3ReGRSqVcT2o3YNZ67LTcv5JY4L1NaGEC5n6eXYdXsVG" ] },
      { "delegate": "tz3QT9dHYKDqh563chVa6za8526ys1UKfRfL",
        "reception_time": "2022-01-17T14:01:38.653-00:00",
        "included_in_blocks":
          [ "BLpfzca3ReGRSqVcT2o3YNZ67LTcv5JY4L1NaGEC5n6eXYdXsVG" ] },
      { "delegate": "tz1MQMiZHV8q4tTwUMWmS5Y3kaP6J2136iXr",
        "reception_time": "2022-01-17T14:01:38.659-00:00",
        "included_in_blocks":
          [ "BLpfzca3ReGRSqVcT2o3YNZ67LTcv5JY4L1NaGEC5n6eXYdXsVG" ] },
      { "delegate": "tz1SYq214SCBy9naR6cvycQsYcUGpBqQAE8d",
        "reception_time": "2022-01-17T14:01:38.791-00:00",
        "included_in_blocks":
          [ "BLpfzca3ReGRSqVcT2o3YNZ67LTcv5JY4L1NaGEC5n6eXYdXsVG" ] },
      { "delegate": "tz3S6BBeKgJGXxvLyZ1xzXzMPn11nnFtq5L9",
        "reception_time": "2022-01-17T14:01:38.813-00:00",
        "included_in_blocks":
          [ "BLpfzca3ReGRSqVcT2o3YNZ67LTcv5JY4L1NaGEC5n6eXYdXsVG" ] },
      { "delegate": "tz1TEc75UKXv4W5cwi14Na3NtqFD51yKQi7h",
        "reception_time": "2022-01-17T14:01:38.838-00:00",
        "included_in_blocks":
          [ "BLpfzca3ReGRSqVcT2o3YNZ67LTcv5JY4L1NaGEC5n6eXYdXsVG" ] },
      { "delegate": "tz1ei4WtWEMEJekSv8qDnu9PExG6Q8HgRGr3",
        "reception_time": "2022-01-17T14:01:38.858-00:00",
        "included_in_blocks":
          [ "BLpfzca3ReGRSqVcT2o3YNZ67LTcv5JY4L1NaGEC5n6eXYdXsVG" ] },
      { "delegate": "tz1WBfwbT66FC6BTLexc2BoyCCBM9LG7pnVW",
        "reception_time": "2022-01-17T14:01:38.956-00:00",
        "included_in_blocks":
          [ "BLpfzca3ReGRSqVcT2o3YNZ67LTcv5JY4L1NaGEC5n6eXYdXsVG" ] },
      { "delegate": "tz1iPHM2Xx2hwmzcr1EG1zzrV6oKafVoA91m",
        "reception_time": "2022-01-17T14:01:38.983-00:00",
        "included_in_blocks":
          [ "BLpfzca3ReGRSqVcT2o3YNZ67LTcv5JY4L1NaGEC5n6eXYdXsVG" ] },
      { "delegate": "tz3RB4aoyjov4KEVRbuhvQ1CKJgBJMWhaeB8",
        "reception_time": "2022-01-17T14:01:39.015-00:00",
        "included_in_blocks":
          [ "BLpfzca3ReGRSqVcT2o3YNZ67LTcv5JY4L1NaGEC5n6eXYdXsVG" ] },
      { "delegate": "tz3adcvQaKXTCg12zbninqo3q8ptKKtDFTLv",
        "reception_time": "2022-01-17T14:01:39.039-00:00",
        "included_in_blocks":
          [ "BLpfzca3ReGRSqVcT2o3YNZ67LTcv5JY4L1NaGEC5n6eXYdXsVG" ] },
      { "delegate": "tz1KfEsrtDaA1sX7vdM4qmEPWuSytuqCDp5j",
        "reception_time": "2022-01-17T14:01:39.058-00:00",
        "included_in_blocks":
          [ "BLpfzca3ReGRSqVcT2o3YNZ67LTcv5JY4L1NaGEC5n6eXYdXsVG" ] },
      { "delegate": "tz1V4qCyvPKZ5UeqdH14HN42rxvNPQfc9UZg",
        "reception_time": "2022-01-17T14:01:39.077-00:00",
        "included_in_blocks":
          [ "BLpfzca3ReGRSqVcT2o3YNZ67LTcv5JY4L1NaGEC5n6eXYdXsVG" ] },
      { "delegate": "tz3bTdwZinP8U1JmSweNzVKhmwafqWmFWRfk",
        "reception_time": "2022-01-17T14:01:39.127-00:00",
        "included_in_blocks":
          [ "BLpfzca3ReGRSqVcT2o3YNZ67LTcv5JY4L1NaGEC5n6eXYdXsVG" ] },
      { "delegate": "tz1Nf6tsK4G6bBqgSQERy4nUtkHNKUVdh7q1",
        "reception_time": "2022-01-17T14:01:39.253-00:00",
        "included_in_blocks":
          [ "BLpfzca3ReGRSqVcT2o3YNZ67LTcv5JY4L1NaGEC5n6eXYdXsVG" ] },
      { "delegate": "tz1S8MNvuFEUsWgjHvi3AxibRBf388NhT1q2",
        "reception_time": "2022-01-17T14:01:39.433-00:00",
        "included_in_blocks":
          [ "BLpfzca3ReGRSqVcT2o3YNZ67LTcv5JY4L1NaGEC5n6eXYdXsVG" ] },
      { "delegate": "tz1RCFbB9GpALpsZtu6J58sb74dm8qe6XBzv",
        "reception_time": "2022-01-17T14:01:39.556-00:00",
        "included_in_blocks":
          [ "BLpfzca3ReGRSqVcT2o3YNZ67LTcv5JY4L1NaGEC5n6eXYdXsVG" ] },
      { "delegate": "tz1LmaFsWRkjr7QMCx5PtV6xTUz3AmEpKQiF",
        "reception_time": "2022-01-17T14:01:39.790-00:00",
        "included_in_blocks":
          [ "BLpfzca3ReGRSqVcT2o3YNZ67LTcv5JY4L1NaGEC5n6eXYdXsVG" ] },
      { "delegate": "tz3WMqdzXqRWXwyvj5Hp2H7QEepaUuS7vd9K",
        "reception_time": "2022-01-17T14:01:39.857-00:00",
        "included_in_blocks":
          [ "BLpfzca3ReGRSqVcT2o3YNZ67LTcv5JY4L1NaGEC5n6eXYdXsVG" ] },
      { "delegate": "tz1WctSwL49BZtdWAQ75NY6vr4xsAx6oKdah",
        "reception_time": "2022-01-17T14:01:39.922-00:00",
        "included_in_blocks":
          [ "BLpfzca3ReGRSqVcT2o3YNZ67LTcv5JY4L1NaGEC5n6eXYdXsVG" ] },
      { "delegate": "tz1dRKU4FQ9QRRQPdaH4zCR6gmCmXfcvcgtB",
        "reception_time": "2022-01-17T14:01:39.964-00:00",
        "included_in_blocks":
          [ "BLpfzca3ReGRSqVcT2o3YNZ67LTcv5JY4L1NaGEC5n6eXYdXsVG" ] },
      { "delegate": "tz3UoffC7FG7zfpmvmjUmUeAaHvzdcUvAj6r",
        "reception_time": "2022-01-17T14:01:40.054-00:00",
        "included_in_blocks":
          [ "BLpfzca3ReGRSqVcT2o3YNZ67LTcv5JY4L1NaGEC5n6eXYdXsVG" ] },
      { "delegate": "tz2FCNBrERXtaTtNX6iimR1UJ5JSDxvdHM93",
        "reception_time": "2022-01-17T14:01:40.059-00:00",
        "included_in_blocks":
          [ "BLpfzca3ReGRSqVcT2o3YNZ67LTcv5JY4L1NaGEC5n6eXYdXsVG" ] },
      { "delegate": "tz1NEKxGEHsFufk87CVZcrqWu8o22qh46GK6",
        "reception_time": "2022-01-17T14:01:40.122-00:00",
        "included_in_blocks":
          [ "BLpfzca3ReGRSqVcT2o3YNZ67LTcv5JY4L1NaGEC5n6eXYdXsVG" ] },
      { "delegate": "tz1PeZx7FXy7QRuMREGXGxeipb24RsMMzUNe",
        "reception_time": "2022-01-17T14:01:40.210-00:00",
        "included_in_blocks":
          [ "BLpfzca3ReGRSqVcT2o3YNZ67LTcv5JY4L1NaGEC5n6eXYdXsVG" ] },
      { "delegate": "tz3RDC3Jdn4j15J7bBHZd29EUee9gVB1CxD9",
        "reception_time": "2022-01-17T14:01:40.331-00:00",
        "included_in_blocks":
          [ "BLpfzca3ReGRSqVcT2o3YNZ67LTcv5JY4L1NaGEC5n6eXYdXsVG" ] },
      { "delegate": "tz3bvNMQ95vfAYtG8193ymshqjSvmxiCUuR5",
        "reception_time": "2022-01-17T14:01:40.377-00:00",
        "included_in_blocks":
          [ "BLpfzca3ReGRSqVcT2o3YNZ67LTcv5JY4L1NaGEC5n6eXYdXsVG" ] },
      { "delegate": "tz3VEZ4k6a4Wx42iyev6i2aVAptTRLEAivNN",
        "reception_time": "2022-01-17T14:01:40.385-00:00",
        "included_in_blocks":
          [ "BLpfzca3ReGRSqVcT2o3YNZ67LTcv5JY4L1NaGEC5n6eXYdXsVG" ] },
      { "delegate": "tz1TRqbYbUf2GyrjErf3hBzgBJPzW8y36qEs",
        "reception_time": "2022-01-17T14:01:40.500-00:00",
        "included_in_blocks":
          [ "BLpfzca3ReGRSqVcT2o3YNZ67LTcv5JY4L1NaGEC5n6eXYdXsVG" ] },
      { "delegate": "tz3NExpXn9aPNZPorRE4SdjJ2RGrfbJgMAaV",
        "reception_time": "2022-01-17T14:01:40.597-00:00",
        "included_in_blocks":
          [ "BLpfzca3ReGRSqVcT2o3YNZ67LTcv5JY4L1NaGEC5n6eXYdXsVG" ] },
      { "delegate": "tz1T7duV5gZWSTq4YpBGbXNLTfznCLDrFxvs",
        "reception_time": "2022-01-17T14:01:40.627-00:00",
        "included_in_blocks":
          [ "BLpfzca3ReGRSqVcT2o3YNZ67LTcv5JY4L1NaGEC5n6eXYdXsVG" ] },
      { "delegate": "tz1aRoaRhSpRYvFdyvgWLL6TGyRoGF51wDjM",
        "reception_time": "2022-01-17T14:01:40.796-00:00",
        "included_in_blocks":
          [ "BLpfzca3ReGRSqVcT2o3YNZ67LTcv5JY4L1NaGEC5n6eXYdXsVG" ] },
      { "delegate": "tz1NuUu12WHdW3jHqvkujGHsiTi46Wvw1ci1",
        "reception_time": "2022-01-17T14:01:40.992-00:00",
        "included_in_blocks":
          [ "BLpfzca3ReGRSqVcT2o3YNZ67LTcv5JY4L1NaGEC5n6eXYdXsVG" ] },
      { "delegate": "tz1dfg9PkvRLf7hKMmGdGRhXWCbd8QgbwBF7",
        "reception_time": "2022-01-17T14:01:44.417-00:00",
        "included_in_blocks":
          [ "BLpfzca3ReGRSqVcT2o3YNZ67LTcv5JY4L1NaGEC5n6eXYdXsVG" ] },
      { "delegate": "tz1NpWrAyDL9k2Lmnyxcgr9xuJakbBxdq7FB",
        "reception_time": "2022-01-17T14:01:49.214-00:00",
        "included_in_blocks":
          [ "BLpfzca3ReGRSqVcT2o3YNZ67LTcv5JY4L1NaGEC5n6eXYdXsVG" ] },
      { "delegate": "tz1cYufsxHXJcvANhvS55h3aY32a9BAFB494",
        "reception_time": "2022-01-17T14:01:59.415-00:00",
        "included_in_blocks":
          [ "BLpfzca3ReGRSqVcT2o3YNZ67LTcv5JY4L1NaGEC5n6eXYdXsVG" ] } ] }