{ "blocks":
    [ { "hash": "BKpAPrXR12Ys7wSPz6QofPqfTWW11dg5Ar5Fzc3HdQVS36AmXz6",
        "delegate": "tz1P2Po7YM526ughEsRbY4oR9zaUPDZjxFrb",
        "reception_time": "2022-01-17T11:42:27.578-00:00",
        "timestamp": "2022-01-17T11:42:20Z" } ],
  "endorsements":
    [ { "delegate": "tz1P2Po7YM526ughEsRbY4oR9zaUPDZjxFrb",
        "reception_time": "2022-01-17T11:42:27.523-00:00",
        "errors":
          [ { "kind": "temporary",
              "id": "proto.011-PtHangz2.prefilter.outdated_endorsement" } ],
        "included_in_blocks":
          [ "BMV9xp2Tu8ugkvohuJNeECnJBA2sRXfz3YuymAjWFrgvCV2Cg3e" ] },
      { "delegate": "tz1c461F8GirBvq5DpFftPoPyCcPR7HQM6gm",
        "reception_time": "2022-01-17T11:42:27.391-00:00",
        "errors":
          [ { "kind": "temporary",
              "id": "proto.011-PtHangz2.prefilter.outdated_endorsement" } ],
        "included_in_blocks":
          [ "BMV9xp2Tu8ugkvohuJNeECnJBA2sRXfz3YuymAjWFrgvCV2Cg3e" ] },
      { "delegate": "tz1S8e9GgdZG78XJRB3NqabfWeM37GnhZMWQ",
        "reception_time": "2022-01-17T11:42:27.146-00:00",
        "errors":
          [ { "kind": "temporary",
              "id": "proto.011-PtHangz2.prefilter.outdated_endorsement" } ],
        "included_in_blocks":
          [ "BMV9xp2Tu8ugkvohuJNeECnJBA2sRXfz3YuymAjWFrgvCV2Cg3e" ] },
      { "delegate": "tz1RjoHc98dBoqaH2jawF62XNKh7YsHwbkEv" },
      { "delegate": "tz1awXW7wuXy21c66vBudMXQVAPgRnqqwgTH" },
      { "delegate": "tz1irJKkXS2DBWkU1NnmFQx1c1L7pbGg4yhk",
        "reception_time": "2022-01-17T11:42:28.325-00:00",
        "included_in_blocks":
          [ "BMV9xp2Tu8ugkvohuJNeECnJBA2sRXfz3YuymAjWFrgvCV2Cg3e" ] },
      { "delegate": "tz1gUNyn3hmnEWqkusWPzxRaon1cs7ndWh7h",
        "reception_time": "2022-01-17T11:42:28.328-00:00",
        "included_in_blocks":
          [ "BMV9xp2Tu8ugkvohuJNeECnJBA2sRXfz3YuymAjWFrgvCV2Cg3e" ] },
      { "delegate": "tz1eEnQhbwf6trb8Q8mPb2RaPkNk2rN7BKi8",
        "reception_time": "2022-01-17T11:42:28.330-00:00",
        "included_in_blocks":
          [ "BMV9xp2Tu8ugkvohuJNeECnJBA2sRXfz3YuymAjWFrgvCV2Cg3e" ] },
      { "delegate": "tz1NMdMmWZN8QPB8pY4ddncACDg1cHi1xD2e",
        "reception_time": "2022-01-17T11:42:28.337-00:00",
        "included_in_blocks":
          [ "BMV9xp2Tu8ugkvohuJNeECnJBA2sRXfz3YuymAjWFrgvCV2Cg3e" ] },
      { "delegate": "tz1VQnqCCqX4K5sP3FNkVSNKTdCAMJDd3E1n",
        "reception_time": "2022-01-17T11:42:28.337-00:00",
        "included_in_blocks":
          [ "BMV9xp2Tu8ugkvohuJNeECnJBA2sRXfz3YuymAjWFrgvCV2Cg3e" ] },
      { "delegate": "tz1Ldzz6k1BHdhuKvAtMRX7h5kJSMHESMHLC",
        "reception_time": "2022-01-17T11:42:28.506-00:00",
        "included_in_blocks":
          [ "BMV9xp2Tu8ugkvohuJNeECnJBA2sRXfz3YuymAjWFrgvCV2Cg3e" ] },
      { "delegate": "tz3RKYFsLuQzKBtmYuLNas7uMu3AsYd4QdsA",
        "reception_time": "2022-01-17T11:42:28.533-00:00",
        "included_in_blocks":
          [ "BMV9xp2Tu8ugkvohuJNeECnJBA2sRXfz3YuymAjWFrgvCV2Cg3e" ] },
      { "delegate": "tz3hw2kqXhLUvY65ca1eety2oQTpAvd34R9Q",
        "reception_time": "2022-01-17T11:42:28.634-00:00",
        "included_in_blocks":
          [ "BMV9xp2Tu8ugkvohuJNeECnJBA2sRXfz3YuymAjWFrgvCV2Cg3e" ] },
      { "delegate": "tz1WCd2jm4uSt4vntk4vSuUWoZQGhLcDuR9q",
        "reception_time": "2022-01-17T11:42:28.660-00:00",
        "included_in_blocks":
          [ "BMV9xp2Tu8ugkvohuJNeECnJBA2sRXfz3YuymAjWFrgvCV2Cg3e" ] },
      { "delegate": "tz3QCNyySViKHmeSr45kzDxzchys7NiXCWoa",
        "reception_time": "2022-01-17T11:42:28.681-00:00",
        "included_in_blocks":
          [ "BMV9xp2Tu8ugkvohuJNeECnJBA2sRXfz3YuymAjWFrgvCV2Cg3e" ] },
      { "delegate": "tz1Kt4P8BCaP93AEV4eA7gmpRryWt5hznjCP",
        "reception_time": "2022-01-17T11:42:28.751-00:00",
        "included_in_blocks":
          [ "BMV9xp2Tu8ugkvohuJNeECnJBA2sRXfz3YuymAjWFrgvCV2Cg3e" ] },
      { "delegate": "tz1ZPh7XfUaJXUDvkrBxmS1BjEM1i62hiPpM",
        "reception_time": "2022-01-17T11:42:28.796-00:00",
        "included_in_blocks":
          [ "BMV9xp2Tu8ugkvohuJNeECnJBA2sRXfz3YuymAjWFrgvCV2Cg3e" ] },
      { "delegate": "tz1VmiY38m3y95HqQLjMwqnMS7sdMfGomzKi",
        "reception_time": "2022-01-17T11:42:28.901-00:00",
        "included_in_blocks":
          [ "BMV9xp2Tu8ugkvohuJNeECnJBA2sRXfz3YuymAjWFrgvCV2Cg3e" ] },
      { "delegate": "tz3Zhs2dygr55yHyQyKjntAtY9bgfhLZ4Xj1",
        "reception_time": "2022-01-17T11:42:28.917-00:00",
        "included_in_blocks":
          [ "BMV9xp2Tu8ugkvohuJNeECnJBA2sRXfz3YuymAjWFrgvCV2Cg3e" ] },
      { "delegate": "tz3NxTnke1acr8o3h5y9ytf5awQBGNJUKzVU",
        "reception_time": "2022-01-17T11:42:28.929-00:00",
        "included_in_blocks":
          [ "BMV9xp2Tu8ugkvohuJNeECnJBA2sRXfz3YuymAjWFrgvCV2Cg3e" ] },
      { "delegate": "tz3ZbP2pM3nwvXztbuMJwJnDvV5xdpU8UkkD",
        "reception_time": "2022-01-17T11:42:28.950-00:00",
        "included_in_blocks":
          [ "BMV9xp2Tu8ugkvohuJNeECnJBA2sRXfz3YuymAjWFrgvCV2Cg3e" ] },
      { "delegate": "tz3iJu5vrKZcsqRPs8yJ61UDoeEXZmtro4qh",
        "reception_time": "2022-01-17T11:42:28.970-00:00",
        "included_in_blocks":
          [ "BMV9xp2Tu8ugkvohuJNeECnJBA2sRXfz3YuymAjWFrgvCV2Cg3e" ] },
      { "delegate": "tz3gtoUxdudfBRcNY7iVdKPHCYYX6xdPpoRS",
        "reception_time": "2022-01-17T11:42:29.062-00:00",
        "included_in_blocks":
          [ "BMV9xp2Tu8ugkvohuJNeECnJBA2sRXfz3YuymAjWFrgvCV2Cg3e" ] },
      { "delegate": "tz1cSj7fTex3JPd1p1LN1fwek6AV1kH93Wwc",
        "reception_time": "2022-01-17T11:42:29.075-00:00",
        "included_in_blocks":
          [ "BMV9xp2Tu8ugkvohuJNeECnJBA2sRXfz3YuymAjWFrgvCV2Cg3e" ] },
      { "delegate": "tz3QSGPoRp3Kn7n3vY24eYeu3Peuqo45LQ4D",
        "reception_time": "2022-01-17T11:42:29.083-00:00",
        "included_in_blocks":
          [ "BMV9xp2Tu8ugkvohuJNeECnJBA2sRXfz3YuymAjWFrgvCV2Cg3e" ] },
      { "delegate": "tz1bHzftcTKZMTZgLLtnrXydCm6UEqf4ivca",
        "reception_time": "2022-01-17T11:42:29.180-00:00",
        "included_in_blocks":
          [ "BMV9xp2Tu8ugkvohuJNeECnJBA2sRXfz3YuymAjWFrgvCV2Cg3e" ] },
      { "delegate": "tz3bTdwZinP8U1JmSweNzVKhmwafqWmFWRfk",
        "reception_time": "2022-01-17T11:42:29.201-00:00",
        "included_in_blocks":
          [ "BMV9xp2Tu8ugkvohuJNeECnJBA2sRXfz3YuymAjWFrgvCV2Cg3e" ] },
      { "delegate": "tz1MivraUX9U6nmGAQkm7XkrNVmsPExEUT1W",
        "reception_time": "2022-01-17T11:42:29.205-00:00",
        "included_in_blocks":
          [ "BMV9xp2Tu8ugkvohuJNeECnJBA2sRXfz3YuymAjWFrgvCV2Cg3e" ] },
      { "delegate": "tz1iPHM2Xx2hwmzcr1EG1zzrV6oKafVoA91m",
        "reception_time": "2022-01-17T11:42:29.226-00:00",
        "included_in_blocks":
          [ "BMV9xp2Tu8ugkvohuJNeECnJBA2sRXfz3YuymAjWFrgvCV2Cg3e" ] },
      { "delegate": "tz1PWCDnz783NNGGQjEFFsHtrcK5yBW4E2rm",
        "reception_time": "2022-01-17T11:42:29.261-00:00",
        "included_in_blocks":
          [ "BMV9xp2Tu8ugkvohuJNeECnJBA2sRXfz3YuymAjWFrgvCV2Cg3e" ] },
      { "delegate": "tz3QT9dHYKDqh563chVa6za8526ys1UKfRfL",
        "reception_time": "2022-01-17T11:42:29.301-00:00",
        "included_in_blocks":
          [ "BMV9xp2Tu8ugkvohuJNeECnJBA2sRXfz3YuymAjWFrgvCV2Cg3e" ] },
      { "delegate": "tz3bvNMQ95vfAYtG8193ymshqjSvmxiCUuR5",
        "reception_time": "2022-01-17T11:42:29.345-00:00",
        "included_in_blocks":
          [ "BMV9xp2Tu8ugkvohuJNeECnJBA2sRXfz3YuymAjWFrgvCV2Cg3e" ] },
      { "delegate": "tz3RB4aoyjov4KEVRbuhvQ1CKJgBJMWhaeB8",
        "reception_time": "2022-01-17T11:42:29.371-00:00",
        "included_in_blocks":
          [ "BMV9xp2Tu8ugkvohuJNeECnJBA2sRXfz3YuymAjWFrgvCV2Cg3e" ] },
      { "delegate": "tz3S6BBeKgJGXxvLyZ1xzXzMPn11nnFtq5L9",
        "reception_time": "2022-01-17T11:42:29.422-00:00",
        "included_in_blocks":
          [ "BMV9xp2Tu8ugkvohuJNeECnJBA2sRXfz3YuymAjWFrgvCV2Cg3e" ] },
      { "delegate": "tz1LXpCpLNRhP7G9Yw8dRhWd8ZfH8929uvGo",
        "reception_time": "2022-01-17T11:42:29.494-00:00",
        "included_in_blocks":
          [ "BMV9xp2Tu8ugkvohuJNeECnJBA2sRXfz3YuymAjWFrgvCV2Cg3e" ] },
      { "delegate": "tz1Tnjaxk6tbAeC2TmMApPh8UsrEVQvhHvx5",
        "reception_time": "2022-01-17T11:42:29.508-00:00",
        "included_in_blocks":
          [ "BMV9xp2Tu8ugkvohuJNeECnJBA2sRXfz3YuymAjWFrgvCV2Cg3e" ] },
      { "delegate": "tz1abmz7jiCV2GH2u81LRrGgAFFgvQgiDiaf",
        "reception_time": "2022-01-17T11:42:29.535-00:00",
        "included_in_blocks":
          [ "BMV9xp2Tu8ugkvohuJNeECnJBA2sRXfz3YuymAjWFrgvCV2Cg3e" ] },
      { "delegate": "tz1V4qCyvPKZ5UeqdH14HN42rxvNPQfc9UZg",
        "reception_time": "2022-01-17T11:42:29.541-00:00",
        "included_in_blocks":
          [ "BMV9xp2Tu8ugkvohuJNeECnJBA2sRXfz3YuymAjWFrgvCV2Cg3e" ] },
      { "delegate": "tz1gfArv665EUkSg2ojMBzcbfwuPxAvqPvjo",
        "reception_time": "2022-01-17T11:42:29.569-00:00",
        "included_in_blocks":
          [ "BMV9xp2Tu8ugkvohuJNeECnJBA2sRXfz3YuymAjWFrgvCV2Cg3e" ] },
      { "delegate": "tz1ei4WtWEMEJekSv8qDnu9PExG6Q8HgRGr3",
        "reception_time": "2022-01-17T11:42:29.649-00:00",
        "included_in_blocks":
          [ "BMV9xp2Tu8ugkvohuJNeECnJBA2sRXfz3YuymAjWFrgvCV2Cg3e" ] },
      { "delegate": "tz1S8MNvuFEUsWgjHvi3AxibRBf388NhT1q2",
        "reception_time": "2022-01-17T11:42:29.666-00:00",
        "included_in_blocks":
          [ "BMV9xp2Tu8ugkvohuJNeECnJBA2sRXfz3YuymAjWFrgvCV2Cg3e" ] },
      { "delegate": "tz1SohptP53wDPZhzTWzDUFAUcWF6DMBpaJV",
        "reception_time": "2022-01-17T11:42:29.764-00:00",
        "included_in_blocks":
          [ "BMV9xp2Tu8ugkvohuJNeECnJBA2sRXfz3YuymAjWFrgvCV2Cg3e" ] },
      { "delegate": "tz2FCNBrERXtaTtNX6iimR1UJ5JSDxvdHM93",
        "reception_time": "2022-01-17T11:42:29.797-00:00",
        "included_in_blocks":
          [ "BMV9xp2Tu8ugkvohuJNeECnJBA2sRXfz3YuymAjWFrgvCV2Cg3e" ] },
      { "delegate": "tz1WwnreQXXyfeqiffNoh3fkkczxZK51p16T",
        "reception_time": "2022-01-17T11:42:29.817-00:00",
        "included_in_blocks":
          [ "BMV9xp2Tu8ugkvohuJNeECnJBA2sRXfz3YuymAjWFrgvCV2Cg3e" ] },
      { "delegate": "tz1SYq214SCBy9naR6cvycQsYcUGpBqQAE8d",
        "reception_time": "2022-01-17T11:42:29.820-00:00",
        "included_in_blocks":
          [ "BMV9xp2Tu8ugkvohuJNeECnJBA2sRXfz3YuymAjWFrgvCV2Cg3e" ] },
      { "delegate": "tz1LmaFsWRkjr7QMCx5PtV6xTUz3AmEpKQiF",
        "reception_time": "2022-01-17T11:42:29.824-00:00",
        "included_in_blocks":
          [ "BMV9xp2Tu8ugkvohuJNeECnJBA2sRXfz3YuymAjWFrgvCV2Cg3e" ] },
      { "delegate": "tz1MGTFJXpQmtxLi8QJ7AuVRgM2L2Qfn9w9i",
        "reception_time": "2022-01-17T11:42:29.851-00:00",
        "included_in_blocks":
          [ "BMV9xp2Tu8ugkvohuJNeECnJBA2sRXfz3YuymAjWFrgvCV2Cg3e" ] },
      { "delegate": "tz1TEc75UKXv4W5cwi14Na3NtqFD51yKQi7h",
        "reception_time": "2022-01-17T11:42:29.882-00:00",
        "included_in_blocks":
          [ "BMV9xp2Tu8ugkvohuJNeECnJBA2sRXfz3YuymAjWFrgvCV2Cg3e" ] },
      { "delegate": "tz1UMCB2AHSTwG7YcGNr31CqYCtGN873royv",
        "reception_time": "2022-01-17T11:42:29.917-00:00",
        "included_in_blocks":
          [ "BMV9xp2Tu8ugkvohuJNeECnJBA2sRXfz3YuymAjWFrgvCV2Cg3e" ] },
      { "delegate": "tz1WBfwbT66FC6BTLexc2BoyCCBM9LG7pnVW",
        "reception_time": "2022-01-17T11:42:29.920-00:00",
        "included_in_blocks":
          [ "BMV9xp2Tu8ugkvohuJNeECnJBA2sRXfz3YuymAjWFrgvCV2Cg3e" ] },
      { "delegate": "tz1Nf6tsK4G6bBqgSQERy4nUtkHNKUVdh7q1",
        "reception_time": "2022-01-17T11:42:30.021-00:00",
        "included_in_blocks":
          [ "BMV9xp2Tu8ugkvohuJNeECnJBA2sRXfz3YuymAjWFrgvCV2Cg3e" ] },
      { "delegate": "tz1g8vkmcde6sWKaG2NN9WKzCkDM6Rziq194",
        "reception_time": "2022-01-17T11:42:30.057-00:00",
        "included_in_blocks":
          [ "BMV9xp2Tu8ugkvohuJNeECnJBA2sRXfz3YuymAjWFrgvCV2Cg3e" ] },
      { "delegate": "tz1RCFbB9GpALpsZtu6J58sb74dm8qe6XBzv",
        "reception_time": "2022-01-17T11:42:30.087-00:00",
        "included_in_blocks":
          [ "BMV9xp2Tu8ugkvohuJNeECnJBA2sRXfz3YuymAjWFrgvCV2Cg3e" ] },
      { "delegate": "tz1KfEsrtDaA1sX7vdM4qmEPWuSytuqCDp5j",
        "reception_time": "2022-01-17T11:42:30.154-00:00",
        "included_in_blocks":
          [ "BMV9xp2Tu8ugkvohuJNeECnJBA2sRXfz3YuymAjWFrgvCV2Cg3e" ] },
      { "delegate": "tz3UoffC7FG7zfpmvmjUmUeAaHvzdcUvAj6r",
        "reception_time": "2022-01-17T11:42:30.170-00:00",
        "included_in_blocks":
          [ "BMV9xp2Tu8ugkvohuJNeECnJBA2sRXfz3YuymAjWFrgvCV2Cg3e" ] },
      { "delegate": "tz1NEKxGEHsFufk87CVZcrqWu8o22qh46GK6",
        "reception_time": "2022-01-17T11:42:30.217-00:00",
        "included_in_blocks":
          [ "BMV9xp2Tu8ugkvohuJNeECnJBA2sRXfz3YuymAjWFrgvCV2Cg3e" ] },
      { "delegate": "tz1iEWcNL383qiDJ3Q3qt5W2T4aSKUbEU4An",
        "reception_time": "2022-01-17T11:42:30.293-00:00",
        "included_in_blocks":
          [ "BMV9xp2Tu8ugkvohuJNeECnJBA2sRXfz3YuymAjWFrgvCV2Cg3e" ] },
      { "delegate": "tz1UVFkBnZzy2WGzs7415DNwsbvuyvz4ZznB",
        "reception_time": "2022-01-17T11:42:30.334-00:00",
        "included_in_blocks":
          [ "BMV9xp2Tu8ugkvohuJNeECnJBA2sRXfz3YuymAjWFrgvCV2Cg3e" ] },
      { "delegate": "tz3WMqdzXqRWXwyvj5Hp2H7QEepaUuS7vd9K",
        "reception_time": "2022-01-17T11:42:30.380-00:00",
        "included_in_blocks":
          [ "BMV9xp2Tu8ugkvohuJNeECnJBA2sRXfz3YuymAjWFrgvCV2Cg3e" ] },
      { "delegate": "tz1WctSwL49BZtdWAQ75NY6vr4xsAx6oKdah",
        "reception_time": "2022-01-17T11:42:30.575-00:00",
        "included_in_blocks":
          [ "BMV9xp2Tu8ugkvohuJNeECnJBA2sRXfz3YuymAjWFrgvCV2Cg3e" ] },
      { "delegate": "tz3VEZ4k6a4Wx42iyev6i2aVAptTRLEAivNN",
        "reception_time": "2022-01-17T11:42:30.642-00:00",
        "included_in_blocks":
          [ "BMV9xp2Tu8ugkvohuJNeECnJBA2sRXfz3YuymAjWFrgvCV2Cg3e" ] },
      { "delegate": "tz1c8TSSGtVtg7ANrNVY7G4KnLn7iKdRnUVk",
        "reception_time": "2022-01-17T11:42:30.671-00:00",
        "included_in_blocks":
          [ "BMV9xp2Tu8ugkvohuJNeECnJBA2sRXfz3YuymAjWFrgvCV2Cg3e" ] },
      { "delegate": "tz1UvkANVPWppVgMkLnvN7BwYZsCP7vm6NVd",
        "reception_time": "2022-01-17T11:42:30.702-00:00",
        "included_in_blocks":
          [ "BMV9xp2Tu8ugkvohuJNeECnJBA2sRXfz3YuymAjWFrgvCV2Cg3e" ] },
      { "delegate": "tz1T7duV5gZWSTq4YpBGbXNLTfznCLDrFxvs",
        "reception_time": "2022-01-17T11:42:30.882-00:00",
        "included_in_blocks":
          [ "BMV9xp2Tu8ugkvohuJNeECnJBA2sRXfz3YuymAjWFrgvCV2Cg3e" ] },
      { "delegate": "tz3RDC3Jdn4j15J7bBHZd29EUee9gVB1CxD9",
        "reception_time": "2022-01-17T11:42:30.943-00:00",
        "included_in_blocks":
          [ "BMV9xp2Tu8ugkvohuJNeECnJBA2sRXfz3YuymAjWFrgvCV2Cg3e" ] },
      { "delegate": "tz1dRKU4FQ9QRRQPdaH4zCR6gmCmXfcvcgtB",
        "reception_time": "2022-01-17T11:42:30.993-00:00",
        "included_in_blocks":
          [ "BMV9xp2Tu8ugkvohuJNeECnJBA2sRXfz3YuymAjWFrgvCV2Cg3e" ] },
      { "delegate": "tz1aRoaRhSpRYvFdyvgWLL6TGyRoGF51wDjM",
        "reception_time": "2022-01-17T11:42:31.485-00:00",
        "included_in_blocks":
          [ "BMV9xp2Tu8ugkvohuJNeECnJBA2sRXfz3YuymAjWFrgvCV2Cg3e" ] },
      { "delegate": "tz3NDpRj6WBrJPikcPVHRBEjWKxFw3c6eQPS",
        "reception_time": "2022-01-17T11:42:31.537-00:00",
        "included_in_blocks":
          [ "BMV9xp2Tu8ugkvohuJNeECnJBA2sRXfz3YuymAjWFrgvCV2Cg3e" ] },
      { "delegate": "tz3NExpXn9aPNZPorRE4SdjJ2RGrfbJgMAaV",
        "reception_time": "2022-01-17T11:42:31.690-00:00",
        "included_in_blocks":
          [ "BMV9xp2Tu8ugkvohuJNeECnJBA2sRXfz3YuymAjWFrgvCV2Cg3e" ] },
      { "delegate": "tz1fJHFn6sWEd3NnBPngACuw2dggTv6nQZ7g",
        "reception_time": "2022-01-17T11:42:32.319-00:00",
        "included_in_blocks":
          [ "BMV9xp2Tu8ugkvohuJNeECnJBA2sRXfz3YuymAjWFrgvCV2Cg3e" ] },
      { "delegate": "tz1inhpLat1tg2R6upJMmHNfWfRzu5d6ZxKJ",
        "reception_time": "2022-01-17T11:42:32.600-00:00",
        "included_in_blocks":
          [ "BMV9xp2Tu8ugkvohuJNeECnJBA2sRXfz3YuymAjWFrgvCV2Cg3e" ] },
      { "delegate": "tz1NfwaFPNcQi3icf37Ybz7bbqDmVmarFWtP",
        "reception_time": "2022-01-17T11:42:32.655-00:00",
        "included_in_blocks":
          [ "BMV9xp2Tu8ugkvohuJNeECnJBA2sRXfz3YuymAjWFrgvCV2Cg3e" ] },
      { "delegate": "tz1aJS7Pk9uWR3wWyFf1i3RwhYxN84G7stom",
        "reception_time": "2022-01-17T11:42:32.806-00:00",
        "included_in_blocks":
          [ "BMV9xp2Tu8ugkvohuJNeECnJBA2sRXfz3YuymAjWFrgvCV2Cg3e" ] },
      { "delegate": "tz1Z9M4biBHSiH38k5ciRMjR5bgk89yEgLTz",
        "reception_time": "2022-01-17T11:42:34.250-00:00",
        "included_in_blocks":
          [ "BMV9xp2Tu8ugkvohuJNeECnJBA2sRXfz3YuymAjWFrgvCV2Cg3e" ] },
      { "delegate": "tz1eVaNx3gCmG1EsLjijkmgAxdLYVf6Bf5Sq",
        "reception_time": "2022-01-17T11:42:34.783-00:00",
        "included_in_blocks":
          [ "BMV9xp2Tu8ugkvohuJNeECnJBA2sRXfz3YuymAjWFrgvCV2Cg3e" ] } ] }