{ "blocks":
    [ { "hash": "BMSwfJT7NgVPUvufCz6pKreYpRYGvCQjnP3eKc8FLmLSCuBNVzk",
        "delegate": "tz1S8MNvuFEUsWgjHvi3AxibRBf388NhT1q2",
        "reception_time": "2022-01-17T10:18:24.940-00:00",
        "timestamp": "2022-01-17T10:18:20Z" } ],
  "endorsements":
    [ { "delegate": "tz3NDpRj6WBrJPikcPVHRBEjWKxFw3c6eQPS" },
      { "delegate": "tz1awXW7wuXy21c66vBudMXQVAPgRnqqwgTH" },
      { "delegate": "tz1RjoHc98dBoqaH2jawF62XNKh7YsHwbkEv" },
      { "delegate": "tz1P2Po7YM526ughEsRbY4oR9zaUPDZjxFrb",
        "reception_time": "2022-01-17T10:18:24.916-00:00",
        "errors":
          [ { "kind": "temporary",
              "id": "proto.011-PtHangz2.prefilter.outdated_endorsement" } ],
        "included_in_blocks":
          [ "BM4twMeqhVfh3uXHzdr4tmFdbtrjyriyURaaJyd3fweQdKAMiwj" ] },
      { "delegate": "tz1S8MNvuFEUsWgjHvi3AxibRBf388NhT1q2",
        "reception_time": "2022-01-17T10:18:24.909-00:00",
        "errors":
          [ { "kind": "temporary",
              "id": "proto.011-PtHangz2.prefilter.outdated_endorsement" } ],
        "included_in_blocks":
          [ "BM4twMeqhVfh3uXHzdr4tmFdbtrjyriyURaaJyd3fweQdKAMiwj" ] },
      { "delegate": "tz1TRspM5SeZpaQUhzByXbEvqKF1vnCM2YTK",
        "reception_time": "2022-01-17T10:18:24.782-00:00",
        "errors":
          [ { "kind": "temporary",
              "id": "proto.011-PtHangz2.prefilter.outdated_endorsement" } ],
        "included_in_blocks":
          [ "BM4twMeqhVfh3uXHzdr4tmFdbtrjyriyURaaJyd3fweQdKAMiwj" ] },
      { "delegate": "tz3e7LbZvUtoXhpUD1yb6wuFodZpfYRb9nWJ",
        "reception_time": "2022-01-17T10:18:32.720-00:00",
        "included_in_blocks":
          [ "BM4twMeqhVfh3uXHzdr4tmFdbtrjyriyURaaJyd3fweQdKAMiwj" ] },
      { "delegate": "tz1WnyXakHZKotpQHxevTnLmomz5rTwdiccy",
        "reception_time": "2022-01-17T10:18:31.678-00:00",
        "included_in_blocks":
          [ "BM4twMeqhVfh3uXHzdr4tmFdbtrjyriyURaaJyd3fweQdKAMiwj" ] },
      { "delegate": "tz1g8vkmcde6sWKaG2NN9WKzCkDM6Rziq194",
        "reception_time": "2022-01-17T10:18:30.848-00:00",
        "included_in_blocks":
          [ "BM4twMeqhVfh3uXHzdr4tmFdbtrjyriyURaaJyd3fweQdKAMiwj" ] },
      { "delegate": "tz1go7f6mEQfT2xX2LuHAqgnRGN6c2zHPf5c",
        "reception_time": "2022-01-17T10:18:30.674-00:00",
        "included_in_blocks":
          [ "BM4twMeqhVfh3uXHzdr4tmFdbtrjyriyURaaJyd3fweQdKAMiwj" ] },
      { "delegate": "tz1R664EP6wjcM1RSUVJ7nrJisTpBW9QyJzP",
        "reception_time": "2022-01-17T10:18:29.076-00:00",
        "included_in_blocks":
          [ "BM4twMeqhVfh3uXHzdr4tmFdbtrjyriyURaaJyd3fweQdKAMiwj" ] },
      { "delegate": "tz1ZcTRk5uxD86EFEn1vvNffWWqJy7q5eVhc",
        "reception_time": "2022-01-17T10:18:28.753-00:00",
        "included_in_blocks":
          [ "BM4twMeqhVfh3uXHzdr4tmFdbtrjyriyURaaJyd3fweQdKAMiwj" ] },
      { "delegate": "tz1TcH4Nb3aHNDJ7CGZhU7jgAK1BkSP4Lxds",
        "reception_time": "2022-01-17T10:18:28.521-00:00",
        "included_in_blocks":
          [ "BM4twMeqhVfh3uXHzdr4tmFdbtrjyriyURaaJyd3fweQdKAMiwj" ] },
      { "delegate": "tz1fJHFn6sWEd3NnBPngACuw2dggTv6nQZ7g",
        "reception_time": "2022-01-17T10:18:27.973-00:00",
        "included_in_blocks":
          [ "BM4twMeqhVfh3uXHzdr4tmFdbtrjyriyURaaJyd3fweQdKAMiwj" ] },
      { "delegate": "tz3bvNMQ95vfAYtG8193ymshqjSvmxiCUuR5",
        "reception_time": "2022-01-17T10:18:27.717-00:00",
        "included_in_blocks":
          [ "BM4twMeqhVfh3uXHzdr4tmFdbtrjyriyURaaJyd3fweQdKAMiwj" ] },
      { "delegate": "tz1aRoaRhSpRYvFdyvgWLL6TGyRoGF51wDjM",
        "reception_time": "2022-01-17T10:18:27.667-00:00",
        "included_in_blocks":
          [ "BM4twMeqhVfh3uXHzdr4tmFdbtrjyriyURaaJyd3fweQdKAMiwj" ] },
      { "delegate": "tz1Q8QkSBS63ZQnH3fBTiAMPes9R666Rn6Sc",
        "reception_time": "2022-01-17T10:18:27.582-00:00",
        "included_in_blocks":
          [ "BM4twMeqhVfh3uXHzdr4tmFdbtrjyriyURaaJyd3fweQdKAMiwj" ] },
      { "delegate": "tz3NExpXn9aPNZPorRE4SdjJ2RGrfbJgMAaV",
        "reception_time": "2022-01-17T10:18:27.663-00:00",
        "included_in_blocks":
          [ "BM4twMeqhVfh3uXHzdr4tmFdbtrjyriyURaaJyd3fweQdKAMiwj" ] },
      { "delegate": "tz1dRKU4FQ9QRRQPdaH4zCR6gmCmXfcvcgtB",
        "reception_time": "2022-01-17T10:18:28.062-00:00",
        "included_in_blocks":
          [ "BM4twMeqhVfh3uXHzdr4tmFdbtrjyriyURaaJyd3fweQdKAMiwj" ] },
      { "delegate": "tz1PeZx7FXy7QRuMREGXGxeipb24RsMMzUNe",
        "reception_time": "2022-01-17T10:18:27.316-00:00",
        "included_in_blocks":
          [ "BM4twMeqhVfh3uXHzdr4tmFdbtrjyriyURaaJyd3fweQdKAMiwj" ] },
      { "delegate": "tz3UoffC7FG7zfpmvmjUmUeAaHvzdcUvAj6r",
        "reception_time": "2022-01-17T10:18:27.729-00:00",
        "included_in_blocks":
          [ "BM4twMeqhVfh3uXHzdr4tmFdbtrjyriyURaaJyd3fweQdKAMiwj" ] },
      { "delegate": "tz1Nf6tsK4G6bBqgSQERy4nUtkHNKUVdh7q1",
        "reception_time": "2022-01-17T10:18:27.326-00:00",
        "included_in_blocks":
          [ "BM4twMeqhVfh3uXHzdr4tmFdbtrjyriyURaaJyd3fweQdKAMiwj" ] },
      { "delegate": "tz1T7duV5gZWSTq4YpBGbXNLTfznCLDrFxvs",
        "reception_time": "2022-01-17T10:18:27.363-00:00",
        "included_in_blocks":
          [ "BM4twMeqhVfh3uXHzdr4tmFdbtrjyriyURaaJyd3fweQdKAMiwj" ] },
      { "delegate": "tz1fZ767VDbqx4DeKiFswPSHh513f51mKEUZ",
        "reception_time": "2022-01-17T10:18:27.165-00:00",
        "included_in_blocks":
          [ "BM4twMeqhVfh3uXHzdr4tmFdbtrjyriyURaaJyd3fweQdKAMiwj" ] },
      { "delegate": "tz3VEZ4k6a4Wx42iyev6i2aVAptTRLEAivNN",
        "reception_time": "2022-01-17T10:18:27.013-00:00",
        "included_in_blocks":
          [ "BM4twMeqhVfh3uXHzdr4tmFdbtrjyriyURaaJyd3fweQdKAMiwj" ] },
      { "delegate": "tz1QHd5o2iqqEigkUwK4QGJvuNRfhz2eY1xh",
        "reception_time": "2022-01-17T10:18:26.721-00:00",
        "included_in_blocks":
          [ "BM4twMeqhVfh3uXHzdr4tmFdbtrjyriyURaaJyd3fweQdKAMiwj" ] },
      { "delegate": "tz1WctSwL49BZtdWAQ75NY6vr4xsAx6oKdah",
        "reception_time": "2022-01-17T10:18:27.351-00:00",
        "included_in_blocks":
          [ "BM4twMeqhVfh3uXHzdr4tmFdbtrjyriyURaaJyd3fweQdKAMiwj" ] },
      { "delegate": "tz1KfEsrtDaA1sX7vdM4qmEPWuSytuqCDp5j",
        "reception_time": "2022-01-17T10:18:26.947-00:00",
        "included_in_blocks":
          [ "BM4twMeqhVfh3uXHzdr4tmFdbtrjyriyURaaJyd3fweQdKAMiwj" ] },
      { "delegate": "tz1fb7c66UwePkkfDXz4ajFaBP9hVNLdS7JJ",
        "reception_time": "2022-01-17T10:18:26.582-00:00",
        "included_in_blocks":
          [ "BM4twMeqhVfh3uXHzdr4tmFdbtrjyriyURaaJyd3fweQdKAMiwj" ] },
      { "delegate": "tz2FCNBrERXtaTtNX6iimR1UJ5JSDxvdHM93",
        "reception_time": "2022-01-17T10:18:26.679-00:00",
        "included_in_blocks":
          [ "BM4twMeqhVfh3uXHzdr4tmFdbtrjyriyURaaJyd3fweQdKAMiwj" ] },
      { "delegate": "tz1gfArv665EUkSg2ojMBzcbfwuPxAvqPvjo",
        "reception_time": "2022-01-17T10:18:27.407-00:00",
        "included_in_blocks":
          [ "BM4twMeqhVfh3uXHzdr4tmFdbtrjyriyURaaJyd3fweQdKAMiwj" ] },
      { "delegate": "tz1NEKxGEHsFufk87CVZcrqWu8o22qh46GK6",
        "reception_time": "2022-01-17T10:18:26.829-00:00",
        "included_in_blocks":
          [ "BM4twMeqhVfh3uXHzdr4tmFdbtrjyriyURaaJyd3fweQdKAMiwj" ] },
      { "delegate": "tz3RB4aoyjov4KEVRbuhvQ1CKJgBJMWhaeB8",
        "reception_time": "2022-01-17T10:18:26.545-00:00",
        "included_in_blocks":
          [ "BM4twMeqhVfh3uXHzdr4tmFdbtrjyriyURaaJyd3fweQdKAMiwj" ] },
      { "delegate": "tz3RDC3Jdn4j15J7bBHZd29EUee9gVB1CxD9",
        "reception_time": "2022-01-17T10:18:26.525-00:00",
        "included_in_blocks":
          [ "BM4twMeqhVfh3uXHzdr4tmFdbtrjyriyURaaJyd3fweQdKAMiwj" ] },
      { "delegate": "tz1gUNyn3hmnEWqkusWPzxRaon1cs7ndWh7h",
        "reception_time": "2022-01-17T10:18:26.433-00:00",
        "included_in_blocks":
          [ "BM4twMeqhVfh3uXHzdr4tmFdbtrjyriyURaaJyd3fweQdKAMiwj" ] },
      { "delegate": "tz1VQnqCCqX4K5sP3FNkVSNKTdCAMJDd3E1n",
        "reception_time": "2022-01-17T10:18:26.333-00:00",
        "included_in_blocks":
          [ "BM4twMeqhVfh3uXHzdr4tmFdbtrjyriyURaaJyd3fweQdKAMiwj" ] },
      { "delegate": "tz1NSDFKuRyzHxpfG1AMkyCwEiZ52cbR2mRW",
        "reception_time": "2022-01-17T10:18:26.954-00:00",
        "included_in_blocks":
          [ "BM4twMeqhVfh3uXHzdr4tmFdbtrjyriyURaaJyd3fweQdKAMiwj" ] },
      { "delegate": "tz1SYq214SCBy9naR6cvycQsYcUGpBqQAE8d",
        "reception_time": "2022-01-17T10:18:26.799-00:00",
        "included_in_blocks":
          [ "BM4twMeqhVfh3uXHzdr4tmFdbtrjyriyURaaJyd3fweQdKAMiwj" ] },
      { "delegate": "tz1WBfwbT66FC6BTLexc2BoyCCBM9LG7pnVW",
        "reception_time": "2022-01-17T10:18:26.698-00:00",
        "included_in_blocks":
          [ "BM4twMeqhVfh3uXHzdr4tmFdbtrjyriyURaaJyd3fweQdKAMiwj" ] },
      { "delegate": "tz1TEc75UKXv4W5cwi14Na3NtqFD51yKQi7h",
        "reception_time": "2022-01-17T10:18:26.670-00:00",
        "included_in_blocks":
          [ "BM4twMeqhVfh3uXHzdr4tmFdbtrjyriyURaaJyd3fweQdKAMiwj" ] },
      { "delegate": "tz1hAYfexyzPGG6RhZZMpDvAHifubsbb6kgn",
        "reception_time": "2022-01-17T10:18:26.806-00:00",
        "included_in_blocks":
          [ "BM4twMeqhVfh3uXHzdr4tmFdbtrjyriyURaaJyd3fweQdKAMiwj" ] },
      { "delegate": "tz1TRqbYbUf2GyrjErf3hBzgBJPzW8y36qEs",
        "reception_time": "2022-01-17T10:18:26.711-00:00",
        "included_in_blocks":
          [ "BM4twMeqhVfh3uXHzdr4tmFdbtrjyriyURaaJyd3fweQdKAMiwj" ] },
      { "delegate": "tz3Zhs2dygr55yHyQyKjntAtY9bgfhLZ4Xj1",
        "reception_time": "2022-01-17T10:18:26.230-00:00",
        "included_in_blocks":
          [ "BM4twMeqhVfh3uXHzdr4tmFdbtrjyriyURaaJyd3fweQdKAMiwj" ] },
      { "delegate": "tz3iJu5vrKZcsqRPs8yJ61UDoeEXZmtro4qh",
        "reception_time": "2022-01-17T10:18:26.139-00:00",
        "included_in_blocks":
          [ "BM4twMeqhVfh3uXHzdr4tmFdbtrjyriyURaaJyd3fweQdKAMiwj" ] },
      { "delegate": "tz3QT9dHYKDqh563chVa6za8526ys1UKfRfL",
        "reception_time": "2022-01-17T10:18:26.161-00:00",
        "included_in_blocks":
          [ "BM4twMeqhVfh3uXHzdr4tmFdbtrjyriyURaaJyd3fweQdKAMiwj" ] },
      { "delegate": "tz1WCd2jm4uSt4vntk4vSuUWoZQGhLcDuR9q",
        "reception_time": "2022-01-17T10:18:26.164-00:00",
        "included_in_blocks":
          [ "BM4twMeqhVfh3uXHzdr4tmFdbtrjyriyURaaJyd3fweQdKAMiwj" ] },
      { "delegate": "tz3WMqdzXqRWXwyvj5Hp2H7QEepaUuS7vd9K",
        "reception_time": "2022-01-17T10:18:26.759-00:00",
        "included_in_blocks":
          [ "BM4twMeqhVfh3uXHzdr4tmFdbtrjyriyURaaJyd3fweQdKAMiwj" ] },
      { "delegate": "tz1gcna2xxZj2eNp1LaMyAhVJ49mEFj4FH26",
        "reception_time": "2022-01-17T10:18:26.005-00:00",
        "included_in_blocks":
          [ "BM4twMeqhVfh3uXHzdr4tmFdbtrjyriyURaaJyd3fweQdKAMiwj" ] },
      { "delegate": "tz3RKYFsLuQzKBtmYuLNas7uMu3AsYd4QdsA",
        "reception_time": "2022-01-17T10:18:26.068-00:00",
        "included_in_blocks":
          [ "BM4twMeqhVfh3uXHzdr4tmFdbtrjyriyURaaJyd3fweQdKAMiwj" ] },
      { "delegate": "tz3QSGPoRp3Kn7n3vY24eYeu3Peuqo45LQ4D",
        "reception_time": "2022-01-17T10:18:25.952-00:00",
        "included_in_blocks":
          [ "BM4twMeqhVfh3uXHzdr4tmFdbtrjyriyURaaJyd3fweQdKAMiwj" ] },
      { "delegate": "tz1Tnjaxk6tbAeC2TmMApPh8UsrEVQvhHvx5",
        "reception_time": "2022-01-17T10:18:26.576-00:00",
        "included_in_blocks":
          [ "BM4twMeqhVfh3uXHzdr4tmFdbtrjyriyURaaJyd3fweQdKAMiwj" ] },
      { "delegate": "tz3gtoUxdudfBRcNY7iVdKPHCYYX6xdPpoRS",
        "reception_time": "2022-01-17T10:18:25.979-00:00",
        "included_in_blocks":
          [ "BM4twMeqhVfh3uXHzdr4tmFdbtrjyriyURaaJyd3fweQdKAMiwj" ] },
      { "delegate": "tz3ZbP2pM3nwvXztbuMJwJnDvV5xdpU8UkkD",
        "reception_time": "2022-01-17T10:18:25.905-00:00",
        "included_in_blocks":
          [ "BM4twMeqhVfh3uXHzdr4tmFdbtrjyriyURaaJyd3fweQdKAMiwj" ] },
      { "delegate": "tz3NxTnke1acr8o3h5y9ytf5awQBGNJUKzVU",
        "reception_time": "2022-01-17T10:18:25.886-00:00",
        "included_in_blocks":
          [ "BM4twMeqhVfh3uXHzdr4tmFdbtrjyriyURaaJyd3fweQdKAMiwj" ] },
      { "delegate": "tz1Ldzz6k1BHdhuKvAtMRX7h5kJSMHESMHLC",
        "reception_time": "2022-01-17T10:18:25.891-00:00",
        "included_in_blocks":
          [ "BM4twMeqhVfh3uXHzdr4tmFdbtrjyriyURaaJyd3fweQdKAMiwj" ] },
      { "delegate": "tz1TzaNn7wSQSP5gYPXCnNzBCpyMiidCq1PX",
        "reception_time": "2022-01-17T10:18:25.909-00:00",
        "included_in_blocks":
          [ "BM4twMeqhVfh3uXHzdr4tmFdbtrjyriyURaaJyd3fweQdKAMiwj" ] },
      { "delegate": "tz1RCFbB9GpALpsZtu6J58sb74dm8qe6XBzv",
        "reception_time": "2022-01-17T10:18:26.213-00:00",
        "included_in_blocks":
          [ "BM4twMeqhVfh3uXHzdr4tmFdbtrjyriyURaaJyd3fweQdKAMiwj" ] },
      { "delegate": "tz3QCNyySViKHmeSr45kzDxzchys7NiXCWoa",
        "reception_time": "2022-01-17T10:18:25.860-00:00",
        "included_in_blocks":
          [ "BM4twMeqhVfh3uXHzdr4tmFdbtrjyriyURaaJyd3fweQdKAMiwj" ] },
      { "delegate": "tz1MQJPGNMijnXnVoBENFz9rUhaPt3S7rWoz",
        "reception_time": "2022-01-17T10:18:26.371-00:00",
        "included_in_blocks":
          [ "BM4twMeqhVfh3uXHzdr4tmFdbtrjyriyURaaJyd3fweQdKAMiwj" ] },
      { "delegate": "tz1PWCDnz783NNGGQjEFFsHtrcK5yBW4E2rm",
        "reception_time": "2022-01-17T10:18:26.055-00:00",
        "included_in_blocks":
          [ "BM4twMeqhVfh3uXHzdr4tmFdbtrjyriyURaaJyd3fweQdKAMiwj" ] },
      { "delegate": "tz1ei4WtWEMEJekSv8qDnu9PExG6Q8HgRGr3",
        "reception_time": "2022-01-17T10:18:26.180-00:00",
        "included_in_blocks":
          [ "BM4twMeqhVfh3uXHzdr4tmFdbtrjyriyURaaJyd3fweQdKAMiwj" ] },
      { "delegate": "tz1iPHM2Xx2hwmzcr1EG1zzrV6oKafVoA91m",
        "reception_time": "2022-01-17T10:18:26.036-00:00",
        "included_in_blocks":
          [ "BM4twMeqhVfh3uXHzdr4tmFdbtrjyriyURaaJyd3fweQdKAMiwj" ] },
      { "delegate": "tz1U638Z3xWRiXDDKx2S125MCCaAeGDdA896",
        "reception_time": "2022-01-17T10:18:25.723-00:00",
        "included_in_blocks":
          [ "BM4twMeqhVfh3uXHzdr4tmFdbtrjyriyURaaJyd3fweQdKAMiwj" ] },
      { "delegate": "tz1irJKkXS2DBWkU1NnmFQx1c1L7pbGg4yhk",
        "reception_time": "2022-01-17T10:18:25.725-00:00",
        "included_in_blocks":
          [ "BM4twMeqhVfh3uXHzdr4tmFdbtrjyriyURaaJyd3fweQdKAMiwj" ] },
      { "delegate": "tz1VmiY38m3y95HqQLjMwqnMS7sdMfGomzKi",
        "reception_time": "2022-01-17T10:18:25.868-00:00",
        "included_in_blocks":
          [ "BM4twMeqhVfh3uXHzdr4tmFdbtrjyriyURaaJyd3fweQdKAMiwj" ] },
      { "delegate": "tz1V4qCyvPKZ5UeqdH14HN42rxvNPQfc9UZg",
        "reception_time": "2022-01-17T10:18:25.984-00:00",
        "included_in_blocks":
          [ "BM4twMeqhVfh3uXHzdr4tmFdbtrjyriyURaaJyd3fweQdKAMiwj" ] },
      { "delegate": "tz1TXzyaKUA8wsWefdSnyaYFnV2M3vCV7er9",
        "reception_time": "2022-01-17T10:18:25.702-00:00",
        "included_in_blocks":
          [ "BM4twMeqhVfh3uXHzdr4tmFdbtrjyriyURaaJyd3fweQdKAMiwj" ] },
      { "delegate": "tz1Scdr2HsZiQjc7bHMeBbmDRXYVvdhjJbBh",
        "reception_time": "2022-01-17T10:18:25.681-00:00",
        "included_in_blocks":
          [ "BM4twMeqhVfh3uXHzdr4tmFdbtrjyriyURaaJyd3fweQdKAMiwj" ] },
      { "delegate": "tz1eEnQhbwf6trb8Q8mPb2RaPkNk2rN7BKi8",
        "reception_time": "2022-01-17T10:18:25.698-00:00",
        "included_in_blocks":
          [ "BM4twMeqhVfh3uXHzdr4tmFdbtrjyriyURaaJyd3fweQdKAMiwj" ] },
      { "delegate": "tz1MQMiZHV8q4tTwUMWmS5Y3kaP6J2136iXr",
        "reception_time": "2022-01-17T10:18:25.727-00:00",
        "included_in_blocks":
          [ "BM4twMeqhVfh3uXHzdr4tmFdbtrjyriyURaaJyd3fweQdKAMiwj" ] },
      { "delegate": "tz1aXD7Jigrt3PBYSpHSg5Rr33SexMmmM5Ys",
        "reception_time": "2022-01-17T10:18:25.729-00:00",
        "included_in_blocks":
          [ "BM4twMeqhVfh3uXHzdr4tmFdbtrjyriyURaaJyd3fweQdKAMiwj" ] },
      { "delegate": "tz1Kt4P8BCaP93AEV4eA7gmpRryWt5hznjCP",
        "reception_time": "2022-01-17T10:18:25.533-00:00",
        "included_in_blocks":
          [ "BM4twMeqhVfh3uXHzdr4tmFdbtrjyriyURaaJyd3fweQdKAMiwj" ] } ] }