{ "blocks":
    [ { "hash": "BM9qN5hKc354ybu7pKz2G8fz6yfFpp83e3s1FpLicr6Aca5ZS2m",
        "delegate": "tz1ZcTRk5uxD86EFEn1vvNffWWqJy7q5eVhc",
        "reception_time": "2022-01-17T08:09:18.437-00:00",
        "timestamp": "2022-01-17T08:09:10Z" } ],
  "endorsements":
    [ { "delegate": "tz1awXW7wuXy21c66vBudMXQVAPgRnqqwgTH" },
      { "delegate": "tz1RjoHc98dBoqaH2jawF62XNKh7YsHwbkEv" },
      { "delegate": "tz1P2Po7YM526ughEsRbY4oR9zaUPDZjxFrb",
        "reception_time": "2022-01-17T08:09:18.414-00:00",
        "errors":
          [ { "kind": "temporary",
              "id": "proto.011-PtHangz2.prefilter.outdated_endorsement" } ],
        "included_in_blocks":
          [ "BKkNvKd75mvSJdD8V7HjDEo4JY9UnRprc7Fu56duvQ7cNdPv4tv" ] },
      { "delegate": "tz1S8e9GgdZG78XJRB3NqabfWeM37GnhZMWQ",
        "reception_time": "2022-01-17T08:09:18.299-00:00",
        "errors":
          [ { "kind": "temporary",
              "id": "proto.011-PtHangz2.prefilter.outdated_endorsement" } ],
        "included_in_blocks":
          [ "BKkNvKd75mvSJdD8V7HjDEo4JY9UnRprc7Fu56duvQ7cNdPv4tv" ] },
      { "delegate": "tz1NpWrAyDL9k2Lmnyxcgr9xuJakbBxdq7FB",
        "reception_time": "2022-01-17T08:09:34.159-00:00",
        "included_in_blocks":
          [ "BKkNvKd75mvSJdD8V7HjDEo4JY9UnRprc7Fu56duvQ7cNdPv4tv" ] },
      { "delegate": "tz1W5VkdB5s7ENMESVBtwyt9kyvLqPcUczRT",
        "reception_time": "2022-01-17T08:09:23.445-00:00",
        "included_in_blocks":
          [ "BKkNvKd75mvSJdD8V7HjDEo4JY9UnRprc7Fu56duvQ7cNdPv4tv" ] },
      { "delegate": "tz3NDpRj6WBrJPikcPVHRBEjWKxFw3c6eQPS",
        "reception_time": "2022-01-17T08:09:22.948-00:00",
        "included_in_blocks":
          [ "BKkNvKd75mvSJdD8V7HjDEo4JY9UnRprc7Fu56duvQ7cNdPv4tv" ] },
      { "delegate": "tz1Z9M4biBHSiH38k5ciRMjR5bgk89yEgLTz",
        "reception_time": "2022-01-17T08:09:22.948-00:00",
        "included_in_blocks":
          [ "BKkNvKd75mvSJdD8V7HjDEo4JY9UnRprc7Fu56duvQ7cNdPv4tv" ] },
      { "delegate": "tz3NExpXn9aPNZPorRE4SdjJ2RGrfbJgMAaV",
        "reception_time": "2022-01-17T08:09:22.243-00:00",
        "included_in_blocks":
          [ "BKkNvKd75mvSJdD8V7HjDEo4JY9UnRprc7Fu56duvQ7cNdPv4tv" ] },
      { "delegate": "tz1UVFkBnZzy2WGzs7415DNwsbvuyvz4ZznB",
        "reception_time": "2022-01-17T08:09:21.940-00:00",
        "included_in_blocks":
          [ "BKkNvKd75mvSJdD8V7HjDEo4JY9UnRprc7Fu56duvQ7cNdPv4tv" ] },
      { "delegate": "tz1a1J3AGjJTAyBqWWSqFuUazUDV2TtD6hMy",
        "reception_time": "2022-01-17T08:09:21.896-00:00",
        "included_in_blocks":
          [ "BKkNvKd75mvSJdD8V7HjDEo4JY9UnRprc7Fu56duvQ7cNdPv4tv" ] },
      { "delegate": "tz1aRoaRhSpRYvFdyvgWLL6TGyRoGF51wDjM",
        "reception_time": "2022-01-17T08:09:21.735-00:00",
        "included_in_blocks":
          [ "BKkNvKd75mvSJdD8V7HjDEo4JY9UnRprc7Fu56duvQ7cNdPv4tv" ] },
      { "delegate": "tz1T7duV5gZWSTq4YpBGbXNLTfznCLDrFxvs",
        "reception_time": "2022-01-17T08:09:21.594-00:00",
        "included_in_blocks":
          [ "BKkNvKd75mvSJdD8V7HjDEo4JY9UnRprc7Fu56duvQ7cNdPv4tv" ] },
      { "delegate": "tz1cYufsxHXJcvANhvS55h3aY32a9BAFB494",
        "reception_time": "2022-01-17T08:09:21.529-00:00",
        "included_in_blocks":
          [ "BKkNvKd75mvSJdD8V7HjDEo4JY9UnRprc7Fu56duvQ7cNdPv4tv" ] },
      { "delegate": "tz3RDC3Jdn4j15J7bBHZd29EUee9gVB1CxD9",
        "reception_time": "2022-01-17T08:09:21.498-00:00",
        "included_in_blocks":
          [ "BKkNvKd75mvSJdD8V7HjDEo4JY9UnRprc7Fu56duvQ7cNdPv4tv" ] },
      { "delegate": "tz3RB4aoyjov4KEVRbuhvQ1CKJgBJMWhaeB8",
        "reception_time": "2022-01-17T08:09:21.372-00:00",
        "included_in_blocks":
          [ "BKkNvKd75mvSJdD8V7HjDEo4JY9UnRprc7Fu56duvQ7cNdPv4tv" ] },
      { "delegate": "tz1NoYvKjXTzTk54VpLxBfouJ33J8jwKPPvw",
        "reception_time": "2022-01-17T08:09:21.310-00:00",
        "included_in_blocks":
          [ "BKkNvKd75mvSJdD8V7HjDEo4JY9UnRprc7Fu56duvQ7cNdPv4tv" ] },
      { "delegate": "tz3WMqdzXqRWXwyvj5Hp2H7QEepaUuS7vd9K",
        "reception_time": "2022-01-17T08:09:21.355-00:00",
        "included_in_blocks":
          [ "BKkNvKd75mvSJdD8V7HjDEo4JY9UnRprc7Fu56duvQ7cNdPv4tv" ] },
      { "delegate": "tz1Vd1rXpV8hTHbFXCXN3c3qzCsgcU5BZw1e",
        "reception_time": "2022-01-17T08:09:21.094-00:00",
        "included_in_blocks":
          [ "BKkNvKd75mvSJdD8V7HjDEo4JY9UnRprc7Fu56duvQ7cNdPv4tv" ] },
      { "delegate": "tz3VEZ4k6a4Wx42iyev6i2aVAptTRLEAivNN",
        "reception_time": "2022-01-17T08:09:21.044-00:00",
        "included_in_blocks":
          [ "BKkNvKd75mvSJdD8V7HjDEo4JY9UnRprc7Fu56duvQ7cNdPv4tv" ] },
      { "delegate": "tz1WctSwL49BZtdWAQ75NY6vr4xsAx6oKdah",
        "reception_time": "2022-01-17T08:09:21.107-00:00",
        "included_in_blocks":
          [ "BKkNvKd75mvSJdD8V7HjDEo4JY9UnRprc7Fu56duvQ7cNdPv4tv" ] },
      { "delegate": "tz1NEKxGEHsFufk87CVZcrqWu8o22qh46GK6",
        "reception_time": "2022-01-17T08:09:21.313-00:00",
        "included_in_blocks":
          [ "BKkNvKd75mvSJdD8V7HjDEo4JY9UnRprc7Fu56duvQ7cNdPv4tv" ] },
      { "delegate": "tz1Nf6tsK4G6bBqgSQERy4nUtkHNKUVdh7q1",
        "reception_time": "2022-01-17T08:09:21.085-00:00",
        "included_in_blocks":
          [ "BKkNvKd75mvSJdD8V7HjDEo4JY9UnRprc7Fu56duvQ7cNdPv4tv" ] },
      { "delegate": "tz1g8vkmcde6sWKaG2NN9WKzCkDM6Rziq194",
        "reception_time": "2022-01-17T08:09:20.991-00:00",
        "included_in_blocks":
          [ "BKkNvKd75mvSJdD8V7HjDEo4JY9UnRprc7Fu56duvQ7cNdPv4tv" ] },
      { "delegate": "tz3UoffC7FG7zfpmvmjUmUeAaHvzdcUvAj6r",
        "reception_time": "2022-01-17T08:09:20.931-00:00",
        "included_in_blocks":
          [ "BKkNvKd75mvSJdD8V7HjDEo4JY9UnRprc7Fu56duvQ7cNdPv4tv" ] },
      { "delegate": "tz1cig1EHyvZd7J2k389moM9PxVgPQvmFkvi",
        "reception_time": "2022-01-17T08:09:20.925-00:00",
        "included_in_blocks":
          [ "BKkNvKd75mvSJdD8V7HjDEo4JY9UnRprc7Fu56duvQ7cNdPv4tv" ] },
      { "delegate": "tz1SYq214SCBy9naR6cvycQsYcUGpBqQAE8d",
        "reception_time": "2022-01-17T08:09:20.848-00:00",
        "included_in_blocks":
          [ "BKkNvKd75mvSJdD8V7HjDEo4JY9UnRprc7Fu56duvQ7cNdPv4tv" ] },
      { "delegate": "tz2FCNBrERXtaTtNX6iimR1UJ5JSDxvdHM93",
        "reception_time": "2022-01-17T08:09:20.890-00:00",
        "included_in_blocks":
          [ "BKkNvKd75mvSJdD8V7HjDEo4JY9UnRprc7Fu56duvQ7cNdPv4tv" ] },
      { "delegate": "tz1iPHM2Xx2hwmzcr1EG1zzrV6oKafVoA91m",
        "reception_time": "2022-01-17T08:09:20.680-00:00",
        "included_in_blocks":
          [ "BKkNvKd75mvSJdD8V7HjDEo4JY9UnRprc7Fu56duvQ7cNdPv4tv" ] },
      { "delegate": "tz1ei4WtWEMEJekSv8qDnu9PExG6Q8HgRGr3",
        "reception_time": "2022-01-17T08:09:20.805-00:00",
        "included_in_blocks":
          [ "BKkNvKd75mvSJdD8V7HjDEo4JY9UnRprc7Fu56duvQ7cNdPv4tv" ] },
      { "delegate": "tz1Tnjaxk6tbAeC2TmMApPh8UsrEVQvhHvx5",
        "reception_time": "2022-01-17T08:09:20.600-00:00",
        "included_in_blocks":
          [ "BKkNvKd75mvSJdD8V7HjDEo4JY9UnRprc7Fu56duvQ7cNdPv4tv" ] },
      { "delegate": "tz1dwu9aYb7CRNq4Y2zAjipdjFuSVKhHS8vA",
        "reception_time": "2022-01-17T08:09:20.767-00:00",
        "included_in_blocks":
          [ "BKkNvKd75mvSJdD8V7HjDEo4JY9UnRprc7Fu56duvQ7cNdPv4tv" ] },
      { "delegate": "tz1KfEsrtDaA1sX7vdM4qmEPWuSytuqCDp5j",
        "reception_time": "2022-01-17T08:09:20.639-00:00",
        "included_in_blocks":
          [ "BKkNvKd75mvSJdD8V7HjDEo4JY9UnRprc7Fu56duvQ7cNdPv4tv" ] },
      { "delegate": "tz1LmaFsWRkjr7QMCx5PtV6xTUz3AmEpKQiF",
        "reception_time": "2022-01-17T08:09:20.797-00:00",
        "included_in_blocks":
          [ "BKkNvKd75mvSJdD8V7HjDEo4JY9UnRprc7Fu56duvQ7cNdPv4tv" ] },
      { "delegate": "tz1fb7c66UwePkkfDXz4ajFaBP9hVNLdS7JJ",
        "reception_time": "2022-01-17T08:09:20.725-00:00",
        "included_in_blocks":
          [ "BKkNvKd75mvSJdD8V7HjDEo4JY9UnRprc7Fu56duvQ7cNdPv4tv" ] },
      { "delegate": "tz3ZbP2pM3nwvXztbuMJwJnDvV5xdpU8UkkD",
        "reception_time": "2022-01-17T08:09:20.752-00:00",
        "included_in_blocks":
          [ "BKkNvKd75mvSJdD8V7HjDEo4JY9UnRprc7Fu56duvQ7cNdPv4tv" ] },
      { "delegate": "tz1fPKAtsYydh4f1wfWNfeNxWYu72TmM48fu",
        "reception_time": "2022-01-17T08:09:20.473-00:00",
        "included_in_blocks":
          [ "BKkNvKd75mvSJdD8V7HjDEo4JY9UnRprc7Fu56duvQ7cNdPv4tv" ] },
      { "delegate": "tz1abmz7jiCV2GH2u81LRrGgAFFgvQgiDiaf",
        "reception_time": "2022-01-17T08:09:20.594-00:00",
        "included_in_blocks":
          [ "BKkNvKd75mvSJdD8V7HjDEo4JY9UnRprc7Fu56duvQ7cNdPv4tv" ] },
      { "delegate": "tz3NxTnke1acr8o3h5y9ytf5awQBGNJUKzVU",
        "reception_time": "2022-01-17T08:09:20.627-00:00",
        "included_in_blocks":
          [ "BKkNvKd75mvSJdD8V7HjDEo4JY9UnRprc7Fu56duvQ7cNdPv4tv" ] },
      { "delegate": "tz1LnWa4AiFCjMezTgSNa65QFoo7DQGEWgEU",
        "reception_time": "2022-01-17T08:09:20.709-00:00",
        "included_in_blocks":
          [ "BKkNvKd75mvSJdD8V7HjDEo4JY9UnRprc7Fu56duvQ7cNdPv4tv" ] },
      { "delegate": "tz1S8MNvuFEUsWgjHvi3AxibRBf388NhT1q2",
        "reception_time": "2022-01-17T08:09:20.448-00:00",
        "included_in_blocks":
          [ "BKkNvKd75mvSJdD8V7HjDEo4JY9UnRprc7Fu56duvQ7cNdPv4tv" ] },
      { "delegate": "tz1d6Fx42mYgVFnHUW8T8A7WBfJ6nD9pVok8",
        "reception_time": "2022-01-17T08:09:20.540-00:00",
        "included_in_blocks":
          [ "BKkNvKd75mvSJdD8V7HjDEo4JY9UnRprc7Fu56duvQ7cNdPv4tv" ] },
      { "delegate": "tz3bTdwZinP8U1JmSweNzVKhmwafqWmFWRfk",
        "reception_time": "2022-01-17T08:09:20.609-00:00",
        "included_in_blocks":
          [ "BKkNvKd75mvSJdD8V7HjDEo4JY9UnRprc7Fu56duvQ7cNdPv4tv" ] },
      { "delegate": "tz3iJu5vrKZcsqRPs8yJ61UDoeEXZmtro4qh",
        "reception_time": "2022-01-17T08:09:20.448-00:00",
        "included_in_blocks":
          [ "BKkNvKd75mvSJdD8V7HjDEo4JY9UnRprc7Fu56duvQ7cNdPv4tv" ] },
      { "delegate": "tz1ajgycuHmd2z2JbTSJxKv7x6cok2KuNSk1",
        "reception_time": "2022-01-17T08:09:20.544-00:00",
        "included_in_blocks":
          [ "BKkNvKd75mvSJdD8V7HjDEo4JY9UnRprc7Fu56duvQ7cNdPv4tv" ] },
      { "delegate": "tz1gfArv665EUkSg2ojMBzcbfwuPxAvqPvjo",
        "reception_time": "2022-01-17T08:09:20.418-00:00",
        "included_in_blocks":
          [ "BKkNvKd75mvSJdD8V7HjDEo4JY9UnRprc7Fu56duvQ7cNdPv4tv" ] },
      { "delegate": "tz3hw2kqXhLUvY65ca1eety2oQTpAvd34R9Q",
        "reception_time": "2022-01-17T08:09:20.349-00:00",
        "included_in_blocks":
          [ "BKkNvKd75mvSJdD8V7HjDEo4JY9UnRprc7Fu56duvQ7cNdPv4tv" ] },
      { "delegate": "tz3bvNMQ95vfAYtG8193ymshqjSvmxiCUuR5",
        "reception_time": "2022-01-17T08:09:20.737-00:00",
        "included_in_blocks":
          [ "BKkNvKd75mvSJdD8V7HjDEo4JY9UnRprc7Fu56duvQ7cNdPv4tv" ] },
      { "delegate": "tz3QT9dHYKDqh563chVa6za8526ys1UKfRfL",
        "reception_time": "2022-01-17T08:09:20.142-00:00",
        "included_in_blocks":
          [ "BKkNvKd75mvSJdD8V7HjDEo4JY9UnRprc7Fu56duvQ7cNdPv4tv" ] },
      { "delegate": "tz3S6BBeKgJGXxvLyZ1xzXzMPn11nnFtq5L9",
        "reception_time": "2022-01-17T08:09:20.195-00:00",
        "included_in_blocks":
          [ "BKkNvKd75mvSJdD8V7HjDEo4JY9UnRprc7Fu56duvQ7cNdPv4tv" ] },
      { "delegate": "tz3RKYFsLuQzKBtmYuLNas7uMu3AsYd4QdsA",
        "reception_time": "2022-01-17T08:09:20.284-00:00",
        "included_in_blocks":
          [ "BKkNvKd75mvSJdD8V7HjDEo4JY9UnRprc7Fu56duvQ7cNdPv4tv" ] },
      { "delegate": "tz3QSGPoRp3Kn7n3vY24eYeu3Peuqo45LQ4D",
        "reception_time": "2022-01-17T08:09:20.364-00:00",
        "included_in_blocks":
          [ "BKkNvKd75mvSJdD8V7HjDEo4JY9UnRprc7Fu56duvQ7cNdPv4tv" ] },
      { "delegate": "tz1RCFbB9GpALpsZtu6J58sb74dm8qe6XBzv",
        "reception_time": "2022-01-17T08:09:20.087-00:00",
        "included_in_blocks":
          [ "BKkNvKd75mvSJdD8V7HjDEo4JY9UnRprc7Fu56duvQ7cNdPv4tv" ] },
      { "delegate": "tz3gtoUxdudfBRcNY7iVdKPHCYYX6xdPpoRS",
        "reception_time": "2022-01-17T08:09:20.432-00:00",
        "included_in_blocks":
          [ "BKkNvKd75mvSJdD8V7HjDEo4JY9UnRprc7Fu56duvQ7cNdPv4tv" ] },
      { "delegate": "tz1YhNsiRRU8aHNGg7NK3uuP6UDAyacJernB",
        "reception_time": "2022-01-17T08:09:20.268-00:00",
        "included_in_blocks":
          [ "BKkNvKd75mvSJdD8V7HjDEo4JY9UnRprc7Fu56duvQ7cNdPv4tv" ] },
      { "delegate": "tz1WCd2jm4uSt4vntk4vSuUWoZQGhLcDuR9q",
        "reception_time": "2022-01-17T08:09:20.276-00:00",
        "included_in_blocks":
          [ "BKkNvKd75mvSJdD8V7HjDEo4JY9UnRprc7Fu56duvQ7cNdPv4tv" ] },
      { "delegate": "tz1TzaNn7wSQSP5gYPXCnNzBCpyMiidCq1PX",
        "reception_time": "2022-01-17T08:09:19.982-00:00",
        "included_in_blocks":
          [ "BKkNvKd75mvSJdD8V7HjDEo4JY9UnRprc7Fu56duvQ7cNdPv4tv" ] },
      { "delegate": "tz1VmiY38m3y95HqQLjMwqnMS7sdMfGomzKi",
        "reception_time": "2022-01-17T08:09:20.301-00:00",
        "included_in_blocks":
          [ "BKkNvKd75mvSJdD8V7HjDEo4JY9UnRprc7Fu56duvQ7cNdPv4tv" ] },
      { "delegate": "tz1Ldzz6k1BHdhuKvAtMRX7h5kJSMHESMHLC",
        "reception_time": "2022-01-17T08:09:20.207-00:00",
        "included_in_blocks":
          [ "BKkNvKd75mvSJdD8V7HjDEo4JY9UnRprc7Fu56duvQ7cNdPv4tv" ] },
      { "delegate": "tz1VQnqCCqX4K5sP3FNkVSNKTdCAMJDd3E1n",
        "reception_time": "2022-01-17T08:09:19.971-00:00",
        "included_in_blocks":
          [ "BKkNvKd75mvSJdD8V7HjDEo4JY9UnRprc7Fu56duvQ7cNdPv4tv" ] },
      { "delegate": "tz1gUNyn3hmnEWqkusWPzxRaon1cs7ndWh7h",
        "reception_time": "2022-01-17T08:09:19.974-00:00",
        "included_in_blocks":
          [ "BKkNvKd75mvSJdD8V7HjDEo4JY9UnRprc7Fu56duvQ7cNdPv4tv" ] },
      { "delegate": "tz1aXD7Jigrt3PBYSpHSg5Rr33SexMmmM5Ys",
        "reception_time": "2022-01-17T08:09:20.183-00:00",
        "included_in_blocks":
          [ "BKkNvKd75mvSJdD8V7HjDEo4JY9UnRprc7Fu56duvQ7cNdPv4tv" ] },
      { "delegate": "tz3QCNyySViKHmeSr45kzDxzchys7NiXCWoa",
        "reception_time": "2022-01-17T08:09:20.158-00:00",
        "included_in_blocks":
          [ "BKkNvKd75mvSJdD8V7HjDEo4JY9UnRprc7Fu56duvQ7cNdPv4tv" ] },
      { "delegate": "tz1Kt4P8BCaP93AEV4eA7gmpRryWt5hznjCP",
        "reception_time": "2022-01-17T08:09:20.066-00:00",
        "included_in_blocks":
          [ "BKkNvKd75mvSJdD8V7HjDEo4JY9UnRprc7Fu56duvQ7cNdPv4tv" ] },
      { "delegate": "tz1XfAjZyaLdceHnZxbMYop7g7kWKPut4PR7",
        "reception_time": "2022-01-17T08:09:20.005-00:00",
        "included_in_blocks":
          [ "BKkNvKd75mvSJdD8V7HjDEo4JY9UnRprc7Fu56duvQ7cNdPv4tv" ] },
      { "delegate": "tz1Scdr2HsZiQjc7bHMeBbmDRXYVvdhjJbBh",
        "reception_time": "2022-01-17T08:09:19.898-00:00",
        "included_in_blocks":
          [ "BKkNvKd75mvSJdD8V7HjDEo4JY9UnRprc7Fu56duvQ7cNdPv4tv" ] },
      { "delegate": "tz1irJKkXS2DBWkU1NnmFQx1c1L7pbGg4yhk",
        "reception_time": "2022-01-17T08:09:19.935-00:00",
        "included_in_blocks":
          [ "BKkNvKd75mvSJdD8V7HjDEo4JY9UnRprc7Fu56duvQ7cNdPv4tv" ] },
      { "delegate": "tz1aDiEJf9ztRrAJEXZfcG3CKimoKsGhwVAi",
        "reception_time": "2022-01-17T08:09:19.890-00:00",
        "included_in_blocks":
          [ "BKkNvKd75mvSJdD8V7HjDEo4JY9UnRprc7Fu56duvQ7cNdPv4tv" ] },
      { "delegate": "tz1Lhf4J9Qxoe3DZ2nfe8FGDnvVj7oKjnMY6",
        "reception_time": "2022-01-17T08:09:19.828-00:00",
        "included_in_blocks":
          [ "BKkNvKd75mvSJdD8V7HjDEo4JY9UnRprc7Fu56duvQ7cNdPv4tv" ] },
      { "delegate": "tz1d9ek6HrScY6QRZ71NJdB85MNz8gKGBjrv",
        "reception_time": "2022-01-17T08:09:19.890-00:00",
        "included_in_blocks":
          [ "BKkNvKd75mvSJdD8V7HjDEo4JY9UnRprc7Fu56duvQ7cNdPv4tv" ] },
      { "delegate": "tz1RV1MBbZMR68tacosb7Mwj6LkbPSUS1er1",
        "reception_time": "2022-01-17T08:09:19.814-00:00",
        "included_in_blocks":
          [ "BKkNvKd75mvSJdD8V7HjDEo4JY9UnRprc7Fu56duvQ7cNdPv4tv" ] },
      { "delegate": "tz1MXFrtZoaXckE41bjUCSjAjAap3AFDSr3N",
        "reception_time": "2022-01-17T08:09:19.546-00:00",
        "included_in_blocks":
          [ "BKkNvKd75mvSJdD8V7HjDEo4JY9UnRprc7Fu56duvQ7cNdPv4tv" ] },
      { "delegate": "tz1NMdMmWZN8QPB8pY4ddncACDg1cHi1xD2e",
        "reception_time": "2022-01-17T08:09:19.909-00:00",
        "included_in_blocks":
          [ "BKkNvKd75mvSJdD8V7HjDEo4JY9UnRprc7Fu56duvQ7cNdPv4tv" ] },
      { "delegate": "tz1eEnQhbwf6trb8Q8mPb2RaPkNk2rN7BKi8",
        "reception_time": "2022-01-17T08:09:19.878-00:00",
        "included_in_blocks":
          [ "BKkNvKd75mvSJdD8V7HjDEo4JY9UnRprc7Fu56duvQ7cNdPv4tv" ] } ] }