{ "blocks":
    [ { "hash": "BM8zUZyjTg9SPPjVXiHaS6g46Ti65iK5yLoHfbWgxVqwfxFtb7y",
        "delegate": "tz1aRoaRhSpRYvFdyvgWLL6TGyRoGF51wDjM",
        "reception_time": "2022-01-17T09:10:13.064-00:00",
        "timestamp": "2022-01-17T09:10:00Z" } ],
  "endorsements":
    [ { "delegate": "tz1Kt4P8BCaP93AEV4eA7gmpRryWt5hznjCP",
        "reception_time": "2022-01-17T09:10:14.534-00:00",
        "included_in_blocks":
          [ "BLgJjmUKEgoQfFYVgaya8X5NT6vc4mFA6wg1a59VHkuCUL2h97J" ] },
      { "delegate": "tz1S8e9GgdZG78XJRB3NqabfWeM37GnhZMWQ",
        "reception_time": "2022-01-17T09:10:14.484-00:00",
        "included_in_blocks":
          [ "BLgJjmUKEgoQfFYVgaya8X5NT6vc4mFA6wg1a59VHkuCUL2h97J" ] },
      { "delegate": "tz1Scdr2HsZiQjc7bHMeBbmDRXYVvdhjJbBh",
        "reception_time": "2022-01-17T09:10:14.470-00:00",
        "included_in_blocks":
          [ "BLgJjmUKEgoQfFYVgaya8X5NT6vc4mFA6wg1a59VHkuCUL2h97J" ] },
      { "delegate": "tz1P2Po7YM526ughEsRbY4oR9zaUPDZjxFrb",
        "reception_time": "2022-01-17T09:10:14.475-00:00",
        "included_in_blocks":
          [ "BLgJjmUKEgoQfFYVgaya8X5NT6vc4mFA6wg1a59VHkuCUL2h97J" ] },
      { "delegate": "tz1iZEKy4LaAjnTmn2RuGDf2iqdAQKnRi8kY",
        "reception_time": "2022-01-17T09:10:14.494-00:00",
        "included_in_blocks":
          [ "BLgJjmUKEgoQfFYVgaya8X5NT6vc4mFA6wg1a59VHkuCUL2h97J" ] },
      { "delegate": "tz1STeamwbp68THcny9zk3LsbG3H36DMvbRK",
        "reception_time": "2022-01-17T09:10:14.479-00:00",
        "included_in_blocks":
          [ "BLgJjmUKEgoQfFYVgaya8X5NT6vc4mFA6wg1a59VHkuCUL2h97J" ] },
      { "delegate": "tz1eEnQhbwf6trb8Q8mPb2RaPkNk2rN7BKi8",
        "reception_time": "2022-01-17T09:10:14.488-00:00",
        "included_in_blocks":
          [ "BLgJjmUKEgoQfFYVgaya8X5NT6vc4mFA6wg1a59VHkuCUL2h97J" ] },
      { "delegate": "tz1MJx9vhaNRSimcuXPK2rW4fLccQnDAnVKJ",
        "reception_time": "2022-01-17T09:10:14.475-00:00",
        "included_in_blocks":
          [ "BLgJjmUKEgoQfFYVgaya8X5NT6vc4mFA6wg1a59VHkuCUL2h97J" ] },
      { "delegate": "tz1TRspM5SeZpaQUhzByXbEvqKF1vnCM2YTK",
        "reception_time": "2022-01-17T09:10:14.523-00:00",
        "included_in_blocks":
          [ "BLgJjmUKEgoQfFYVgaya8X5NT6vc4mFA6wg1a59VHkuCUL2h97J" ] },
      { "delegate": "tz1irJKkXS2DBWkU1NnmFQx1c1L7pbGg4yhk",
        "reception_time": "2022-01-17T09:10:14.491-00:00",
        "included_in_blocks":
          [ "BLgJjmUKEgoQfFYVgaya8X5NT6vc4mFA6wg1a59VHkuCUL2h97J" ] },
      { "delegate": "tz1VmiY38m3y95HqQLjMwqnMS7sdMfGomzKi",
        "reception_time": "2022-01-17T09:10:14.610-00:00",
        "included_in_blocks":
          [ "BLgJjmUKEgoQfFYVgaya8X5NT6vc4mFA6wg1a59VHkuCUL2h97J" ] },
      { "delegate": "tz1gfArv665EUkSg2ojMBzcbfwuPxAvqPvjo",
        "reception_time": "2022-01-17T09:10:15.021-00:00",
        "included_in_blocks":
          [ "BLgJjmUKEgoQfFYVgaya8X5NT6vc4mFA6wg1a59VHkuCUL2h97J" ] },
      { "delegate": "tz1RCFbB9GpALpsZtu6J58sb74dm8qe6XBzv",
        "reception_time": "2022-01-17T09:10:14.747-00:00",
        "included_in_blocks":
          [ "BLgJjmUKEgoQfFYVgaya8X5NT6vc4mFA6wg1a59VHkuCUL2h97J" ] },
      { "delegate": "tz1VQnqCCqX4K5sP3FNkVSNKTdCAMJDd3E1n",
        "reception_time": "2022-01-17T09:10:14.552-00:00",
        "included_in_blocks":
          [ "BLgJjmUKEgoQfFYVgaya8X5NT6vc4mFA6wg1a59VHkuCUL2h97J" ] },
      { "delegate": "tz3NxTnke1acr8o3h5y9ytf5awQBGNJUKzVU",
        "reception_time": "2022-01-17T09:10:14.530-00:00",
        "included_in_blocks":
          [ "BLgJjmUKEgoQfFYVgaya8X5NT6vc4mFA6wg1a59VHkuCUL2h97J" ] },
      { "delegate": "tz3QCNyySViKHmeSr45kzDxzchys7NiXCWoa",
        "reception_time": "2022-01-17T09:10:14.570-00:00",
        "included_in_blocks":
          [ "BLgJjmUKEgoQfFYVgaya8X5NT6vc4mFA6wg1a59VHkuCUL2h97J" ] },
      { "delegate": "tz3ZbP2pM3nwvXztbuMJwJnDvV5xdpU8UkkD",
        "reception_time": "2022-01-17T09:10:14.542-00:00",
        "included_in_blocks":
          [ "BLgJjmUKEgoQfFYVgaya8X5NT6vc4mFA6wg1a59VHkuCUL2h97J" ] },
      { "delegate": "tz1Ldzz6k1BHdhuKvAtMRX7h5kJSMHESMHLC",
        "reception_time": "2022-01-17T09:10:14.518-00:00",
        "included_in_blocks":
          [ "BLgJjmUKEgoQfFYVgaya8X5NT6vc4mFA6wg1a59VHkuCUL2h97J" ] },
      { "delegate": "tz3QSGPoRp3Kn7n3vY24eYeu3Peuqo45LQ4D",
        "reception_time": "2022-01-17T09:10:14.549-00:00",
        "included_in_blocks":
          [ "BLgJjmUKEgoQfFYVgaya8X5NT6vc4mFA6wg1a59VHkuCUL2h97J" ] },
      { "delegate": "tz3gtoUxdudfBRcNY7iVdKPHCYYX6xdPpoRS",
        "reception_time": "2022-01-17T09:10:14.563-00:00",
        "included_in_blocks":
          [ "BLgJjmUKEgoQfFYVgaya8X5NT6vc4mFA6wg1a59VHkuCUL2h97J" ] },
      { "delegate": "tz1gUNyn3hmnEWqkusWPzxRaon1cs7ndWh7h",
        "reception_time": "2022-01-17T09:10:14.554-00:00",
        "included_in_blocks":
          [ "BLgJjmUKEgoQfFYVgaya8X5NT6vc4mFA6wg1a59VHkuCUL2h97J" ] },
      { "delegate": "tz3hw2kqXhLUvY65ca1eety2oQTpAvd34R9Q",
        "reception_time": "2022-01-17T09:10:14.643-00:00",
        "included_in_blocks":
          [ "BLgJjmUKEgoQfFYVgaya8X5NT6vc4mFA6wg1a59VHkuCUL2h97J" ] },
      { "delegate": "tz3RKYFsLuQzKBtmYuLNas7uMu3AsYd4QdsA",
        "reception_time": "2022-01-17T09:10:14.653-00:00",
        "included_in_blocks":
          [ "BLgJjmUKEgoQfFYVgaya8X5NT6vc4mFA6wg1a59VHkuCUL2h97J" ] },
      { "delegate": "tz1cSj7fTex3JPd1p1LN1fwek6AV1kH93Wwc",
        "reception_time": "2022-01-17T09:10:14.819-00:00",
        "included_in_blocks":
          [ "BLgJjmUKEgoQfFYVgaya8X5NT6vc4mFA6wg1a59VHkuCUL2h97J" ] },
      { "delegate": "tz3Zhs2dygr55yHyQyKjntAtY9bgfhLZ4Xj1",
        "reception_time": "2022-01-17T09:10:14.795-00:00",
        "included_in_blocks":
          [ "BLgJjmUKEgoQfFYVgaya8X5NT6vc4mFA6wg1a59VHkuCUL2h97J" ] },
      { "delegate": "tz1MQMiZHV8q4tTwUMWmS5Y3kaP6J2136iXr",
        "reception_time": "2022-01-17T09:10:15.192-00:00",
        "included_in_blocks":
          [ "BLgJjmUKEgoQfFYVgaya8X5NT6vc4mFA6wg1a59VHkuCUL2h97J" ] },
      { "delegate": "tz1KfEsrtDaA1sX7vdM4qmEPWuSytuqCDp5j",
        "reception_time": "2022-01-17T09:10:15.438-00:00",
        "included_in_blocks":
          [ "BLgJjmUKEgoQfFYVgaya8X5NT6vc4mFA6wg1a59VHkuCUL2h97J" ] },
      { "delegate": "tz1S8MNvuFEUsWgjHvi3AxibRBf388NhT1q2",
        "reception_time": "2022-01-17T09:10:15.153-00:00",
        "included_in_blocks":
          [ "BLgJjmUKEgoQfFYVgaya8X5NT6vc4mFA6wg1a59VHkuCUL2h97J" ] },
      { "delegate": "tz3QT9dHYKDqh563chVa6za8526ys1UKfRfL",
        "reception_time": "2022-01-17T09:10:14.686-00:00",
        "included_in_blocks":
          [ "BLgJjmUKEgoQfFYVgaya8X5NT6vc4mFA6wg1a59VHkuCUL2h97J" ] },
      { "delegate": "tz3iJu5vrKZcsqRPs8yJ61UDoeEXZmtro4qh",
        "reception_time": "2022-01-17T09:10:14.738-00:00",
        "included_in_blocks":
          [ "BLgJjmUKEgoQfFYVgaya8X5NT6vc4mFA6wg1a59VHkuCUL2h97J" ] },
      { "delegate": "tz1ei4WtWEMEJekSv8qDnu9PExG6Q8HgRGr3",
        "reception_time": "2022-01-17T09:10:15.426-00:00",
        "included_in_blocks":
          [ "BLgJjmUKEgoQfFYVgaya8X5NT6vc4mFA6wg1a59VHkuCUL2h97J" ] },
      { "delegate": "tz1MivraUX9U6nmGAQkm7XkrNVmsPExEUT1W",
        "reception_time": "2022-01-17T09:10:14.829-00:00",
        "included_in_blocks":
          [ "BLgJjmUKEgoQfFYVgaya8X5NT6vc4mFA6wg1a59VHkuCUL2h97J" ] },
      { "delegate": "tz3RB4aoyjov4KEVRbuhvQ1CKJgBJMWhaeB8",
        "reception_time": "2022-01-17T09:10:14.990-00:00",
        "included_in_blocks":
          [ "BLgJjmUKEgoQfFYVgaya8X5NT6vc4mFA6wg1a59VHkuCUL2h97J" ] },
      { "delegate": "tz3bTdwZinP8U1JmSweNzVKhmwafqWmFWRfk",
        "reception_time": "2022-01-17T09:10:15.117-00:00",
        "included_in_blocks":
          [ "BLgJjmUKEgoQfFYVgaya8X5NT6vc4mFA6wg1a59VHkuCUL2h97J" ] },
      { "delegate": "tz1dKRZVcmJBVNvaAueUmqX42vVEaLb2MbA6",
        "reception_time": "2022-01-17T09:10:15.382-00:00",
        "included_in_blocks":
          [ "BLgJjmUKEgoQfFYVgaya8X5NT6vc4mFA6wg1a59VHkuCUL2h97J" ] },
      { "delegate": "tz3bvNMQ95vfAYtG8193ymshqjSvmxiCUuR5",
        "reception_time": "2022-01-17T09:10:15.263-00:00",
        "included_in_blocks":
          [ "BLgJjmUKEgoQfFYVgaya8X5NT6vc4mFA6wg1a59VHkuCUL2h97J" ] },
      { "delegate": "tz1TEc75UKXv4W5cwi14Na3NtqFD51yKQi7h",
        "reception_time": "2022-01-17T09:10:15.557-00:00",
        "included_in_blocks":
          [ "BLgJjmUKEgoQfFYVgaya8X5NT6vc4mFA6wg1a59VHkuCUL2h97J" ] },
      { "delegate": "tz1dNVDWPf3Q59SdJqnjdnu277iyvReiRS9M",
        "reception_time": "2022-01-17T09:10:15.388-00:00",
        "included_in_blocks":
          [ "BLgJjmUKEgoQfFYVgaya8X5NT6vc4mFA6wg1a59VHkuCUL2h97J" ] },
      { "delegate": "tz1WBfwbT66FC6BTLexc2BoyCCBM9LG7pnVW",
        "reception_time": "2022-01-17T09:10:15.452-00:00",
        "included_in_blocks":
          [ "BLgJjmUKEgoQfFYVgaya8X5NT6vc4mFA6wg1a59VHkuCUL2h97J" ] },
      { "delegate": "tz1LmaFsWRkjr7QMCx5PtV6xTUz3AmEpKQiF",
        "reception_time": "2022-01-17T09:10:15.754-00:00",
        "included_in_blocks":
          [ "BLgJjmUKEgoQfFYVgaya8X5NT6vc4mFA6wg1a59VHkuCUL2h97J" ] },
      { "delegate": "tz1TRqbYbUf2GyrjErf3hBzgBJPzW8y36qEs",
        "reception_time": "2022-01-17T09:10:15.567-00:00",
        "included_in_blocks":
          [ "BLgJjmUKEgoQfFYVgaya8X5NT6vc4mFA6wg1a59VHkuCUL2h97J" ] },
      { "delegate": "tz1NEKxGEHsFufk87CVZcrqWu8o22qh46GK6",
        "reception_time": "2022-01-17T09:10:15.910-00:00",
        "included_in_blocks":
          [ "BLgJjmUKEgoQfFYVgaya8X5NT6vc4mFA6wg1a59VHkuCUL2h97J" ] },
      { "delegate": "tz2FCNBrERXtaTtNX6iimR1UJ5JSDxvdHM93",
        "reception_time": "2022-01-17T09:10:15.309-00:00",
        "included_in_blocks":
          [ "BLgJjmUKEgoQfFYVgaya8X5NT6vc4mFA6wg1a59VHkuCUL2h97J" ] },
      { "delegate": "tz1UMCB2AHSTwG7YcGNr31CqYCtGN873royv",
        "reception_time": "2022-01-17T09:10:15.824-00:00",
        "included_in_blocks":
          [ "BLgJjmUKEgoQfFYVgaya8X5NT6vc4mFA6wg1a59VHkuCUL2h97J" ] },
      { "delegate": "tz1Nf6tsK4G6bBqgSQERy4nUtkHNKUVdh7q1",
        "reception_time": "2022-01-17T09:10:15.542-00:00",
        "included_in_blocks":
          [ "BLgJjmUKEgoQfFYVgaya8X5NT6vc4mFA6wg1a59VHkuCUL2h97J" ] },
      { "delegate": "tz1RQhNh7iB9CZA7i3ifTWNwiGYVffponfbB",
        "reception_time": "2022-01-17T09:10:15.443-00:00",
        "included_in_blocks":
          [ "BLgJjmUKEgoQfFYVgaya8X5NT6vc4mFA6wg1a59VHkuCUL2h97J" ] },
      { "delegate": "tz3VEZ4k6a4Wx42iyev6i2aVAptTRLEAivNN",
        "reception_time": "2022-01-17T09:10:16.156-00:00",
        "included_in_blocks":
          [ "BLgJjmUKEgoQfFYVgaya8X5NT6vc4mFA6wg1a59VHkuCUL2h97J" ] },
      { "delegate": "tz1abmz7jiCV2GH2u81LRrGgAFFgvQgiDiaf",
        "reception_time": "2022-01-17T09:10:16.108-00:00",
        "included_in_blocks":
          [ "BLgJjmUKEgoQfFYVgaya8X5NT6vc4mFA6wg1a59VHkuCUL2h97J" ] },
      { "delegate": "tz1SYq214SCBy9naR6cvycQsYcUGpBqQAE8d",
        "reception_time": "2022-01-17T09:10:16.099-00:00",
        "included_in_blocks":
          [ "BLgJjmUKEgoQfFYVgaya8X5NT6vc4mFA6wg1a59VHkuCUL2h97J" ] },
      { "delegate": "tz1PeZx7FXy7QRuMREGXGxeipb24RsMMzUNe",
        "reception_time": "2022-01-17T09:10:15.822-00:00",
        "included_in_blocks":
          [ "BLgJjmUKEgoQfFYVgaya8X5NT6vc4mFA6wg1a59VHkuCUL2h97J" ] },
      { "delegate": "tz3NExpXn9aPNZPorRE4SdjJ2RGrfbJgMAaV",
        "reception_time": "2022-01-17T09:10:16.929-00:00",
        "included_in_blocks":
          [ "BLgJjmUKEgoQfFYVgaya8X5NT6vc4mFA6wg1a59VHkuCUL2h97J" ] },
      { "delegate": "tz1Mc61yajNASzh5KWZFtYs4i7EJbzAxQC4K",
        "reception_time": "2022-01-17T09:10:16.185-00:00",
        "included_in_blocks":
          [ "BLgJjmUKEgoQfFYVgaya8X5NT6vc4mFA6wg1a59VHkuCUL2h97J" ] },
      { "delegate": "tz3WMqdzXqRWXwyvj5Hp2H7QEepaUuS7vd9K",
        "reception_time": "2022-01-17T09:10:16.120-00:00",
        "included_in_blocks":
          [ "BLgJjmUKEgoQfFYVgaya8X5NT6vc4mFA6wg1a59VHkuCUL2h97J" ] },
      { "delegate": "tz3UoffC7FG7zfpmvmjUmUeAaHvzdcUvAj6r",
        "reception_time": "2022-01-17T09:10:16.983-00:00",
        "included_in_blocks":
          [ "BLgJjmUKEgoQfFYVgaya8X5NT6vc4mFA6wg1a59VHkuCUL2h97J" ] },
      { "delegate": "tz2E3BvcMiGvFEgNVdsAiwVvPHcwJDTA8wLt",
        "reception_time": "2022-01-17T09:10:16.127-00:00",
        "included_in_blocks":
          [ "BLgJjmUKEgoQfFYVgaya8X5NT6vc4mFA6wg1a59VHkuCUL2h97J" ] },
      { "delegate": "tz1aRoaRhSpRYvFdyvgWLL6TGyRoGF51wDjM",
        "reception_time": "2022-01-17T09:10:16.086-00:00",
        "included_in_blocks":
          [ "BLgJjmUKEgoQfFYVgaya8X5NT6vc4mFA6wg1a59VHkuCUL2h97J" ] },
      { "delegate": "tz1dRKU4FQ9QRRQPdaH4zCR6gmCmXfcvcgtB",
        "reception_time": "2022-01-17T09:10:16.760-00:00",
        "included_in_blocks":
          [ "BLgJjmUKEgoQfFYVgaya8X5NT6vc4mFA6wg1a59VHkuCUL2h97J" ] },
      { "delegate": "tz3NDpRj6WBrJPikcPVHRBEjWKxFw3c6eQPS",
        "reception_time": "2022-01-17T09:10:16.333-00:00",
        "included_in_blocks":
          [ "BLgJjmUKEgoQfFYVgaya8X5NT6vc4mFA6wg1a59VHkuCUL2h97J" ] },
      { "delegate": "tz1cYufsxHXJcvANhvS55h3aY32a9BAFB494",
        "reception_time": "2022-01-17T09:10:16.442-00:00",
        "included_in_blocks":
          [ "BLgJjmUKEgoQfFYVgaya8X5NT6vc4mFA6wg1a59VHkuCUL2h97J" ] },
      { "delegate": "tz3RDC3Jdn4j15J7bBHZd29EUee9gVB1CxD9",
        "reception_time": "2022-01-17T09:10:16.528-00:00",
        "included_in_blocks":
          [ "BLgJjmUKEgoQfFYVgaya8X5NT6vc4mFA6wg1a59VHkuCUL2h97J" ] },
      { "delegate": "tz1T7duV5gZWSTq4YpBGbXNLTfznCLDrFxvs",
        "reception_time": "2022-01-17T09:10:16.881-00:00",
        "included_in_blocks":
          [ "BLgJjmUKEgoQfFYVgaya8X5NT6vc4mFA6wg1a59VHkuCUL2h97J" ] },
      { "delegate": "tz1Z2jXfEXL7dXhs6bsLmyLFLfmAkXBzA9WE",
        "reception_time": "2022-01-17T09:10:16.608-00:00",
        "included_in_blocks":
          [ "BLgJjmUKEgoQfFYVgaya8X5NT6vc4mFA6wg1a59VHkuCUL2h97J" ] },
      { "delegate": "tz1Zcxkfa5jKrRbBThG765GP29bUCU3C4ok5",
        "reception_time": "2022-01-17T09:10:17.083-00:00",
        "included_in_blocks":
          [ "BLgJjmUKEgoQfFYVgaya8X5NT6vc4mFA6wg1a59VHkuCUL2h97J" ] },
      { "delegate": "tz1ZcTRk5uxD86EFEn1vvNffWWqJy7q5eVhc",
        "reception_time": "2022-01-17T09:10:18.256-00:00",
        "included_in_blocks":
          [ "BLgJjmUKEgoQfFYVgaya8X5NT6vc4mFA6wg1a59VHkuCUL2h97J" ] },
      { "delegate": "tz1W5VkdB5s7ENMESVBtwyt9kyvLqPcUczRT",
        "reception_time": "2022-01-17T09:10:18.539-00:00",
        "included_in_blocks":
          [ "BLgJjmUKEgoQfFYVgaya8X5NT6vc4mFA6wg1a59VHkuCUL2h97J" ] },
      { "delegate": "tz3bEQoFCZEEfZMskefZ8q8e4eiHH1pssRax",
        "reception_time": "2022-01-17T09:10:19.298-00:00",
        "included_in_blocks":
          [ "BLgJjmUKEgoQfFYVgaya8X5NT6vc4mFA6wg1a59VHkuCUL2h97J" ] },
      { "delegate": "tz1NdhRv643wLW6zCcRP3VfT24dvDnh7nuh9" },
      { "delegate": "tz1RjoHc98dBoqaH2jawF62XNKh7YsHwbkEv" },
      { "delegate": "tz1awXW7wuXy21c66vBudMXQVAPgRnqqwgTH" },
      { "delegate": "tz1NpWrAyDL9k2Lmnyxcgr9xuJakbBxdq7FB",
        "reception_time": "2022-01-17T09:10:30.693-00:00" } ] }