{ "blocks":
    [ { "hash": "BLLw2HrnUZFFxDfuKQKYJpEwUGhuU7t18qPxCqMGXW95f79Z4km",
        "delegate": "tz1R4PuhxUxBBZhfLJDx2nNjbr7WorAPX1oC",
        "reception_time": "2022-01-17T10:27:07.935-00:00",
        "timestamp": "2022-01-17T10:27:00Z" } ],
  "endorsements":
    [ { "delegate": "tz1fUyqYH7H4pRHN1roWY17giXhy1RvxjgUV" },
      { "delegate": "tz1awXW7wuXy21c66vBudMXQVAPgRnqqwgTH" },
      { "delegate": "tz1P2Po7YM526ughEsRbY4oR9zaUPDZjxFrb",
        "reception_time": "2022-01-17T10:27:07.908-00:00",
        "errors":
          [ { "kind": "temporary",
              "id": "proto.011-PtHangz2.prefilter.outdated_endorsement" } ],
        "included_in_blocks":
          [ "BM8GDbLEhU6193Pkkc2Ch5yT62qdxrwgGXSTpcYCFLMzhn2hpDq" ] },
      { "delegate": "tz1S8e9GgdZG78XJRB3NqabfWeM37GnhZMWQ",
        "reception_time": "2022-01-17T10:27:07.802-00:00",
        "errors":
          [ { "kind": "temporary",
              "id": "proto.011-PtHangz2.prefilter.outdated_endorsement" } ],
        "included_in_blocks":
          [ "BM8GDbLEhU6193Pkkc2Ch5yT62qdxrwgGXSTpcYCFLMzhn2hpDq" ] },
      { "delegate": "tz1NpWrAyDL9k2Lmnyxcgr9xuJakbBxdq7FB",
        "reception_time": "2022-01-17T10:27:16.679-00:00",
        "included_in_blocks":
          [ "BM8GDbLEhU6193Pkkc2Ch5yT62qdxrwgGXSTpcYCFLMzhn2hpDq" ] },
      { "delegate": "tz1fJHFn6sWEd3NnBPngACuw2dggTv6nQZ7g",
        "reception_time": "2022-01-17T10:27:12.533-00:00",
        "included_in_blocks":
          [ "BM8GDbLEhU6193Pkkc2Ch5yT62qdxrwgGXSTpcYCFLMzhn2hpDq" ] },
      { "delegate": "tz1ZcTRk5uxD86EFEn1vvNffWWqJy7q5eVhc",
        "reception_time": "2022-01-17T10:27:11.866-00:00",
        "included_in_blocks":
          [ "BM8GDbLEhU6193Pkkc2Ch5yT62qdxrwgGXSTpcYCFLMzhn2hpDq" ] },
      { "delegate": "tz3NExpXn9aPNZPorRE4SdjJ2RGrfbJgMAaV",
        "reception_time": "2022-01-17T10:27:12.524-00:00",
        "included_in_blocks":
          [ "BM8GDbLEhU6193Pkkc2Ch5yT62qdxrwgGXSTpcYCFLMzhn2hpDq" ] },
      { "delegate": "tz3gLTu4Yxj8tPAcriQVUdxv6BY9QyvzU1az",
        "reception_time": "2022-01-17T10:27:11.408-00:00",
        "included_in_blocks":
          [ "BM8GDbLEhU6193Pkkc2Ch5yT62qdxrwgGXSTpcYCFLMzhn2hpDq" ] },
      { "delegate": "tz1aRoaRhSpRYvFdyvgWLL6TGyRoGF51wDjM",
        "reception_time": "2022-01-17T10:27:11.245-00:00",
        "included_in_blocks":
          [ "BM8GDbLEhU6193Pkkc2Ch5yT62qdxrwgGXSTpcYCFLMzhn2hpDq" ] },
      { "delegate": "tz1bTpviNnyx2PXsNmGpCQTMQsGoYordkUoA",
        "reception_time": "2022-01-17T10:27:11.314-00:00",
        "included_in_blocks":
          [ "BM8GDbLEhU6193Pkkc2Ch5yT62qdxrwgGXSTpcYCFLMzhn2hpDq" ] },
      { "delegate": "tz1abmz7jiCV2GH2u81LRrGgAFFgvQgiDiaf",
        "reception_time": "2022-01-17T10:27:11.232-00:00",
        "included_in_blocks":
          [ "BM8GDbLEhU6193Pkkc2Ch5yT62qdxrwgGXSTpcYCFLMzhn2hpDq" ] },
      { "delegate": "tz1U7uKs3epS4JTxDV21QtsHHPuBZm7hc9mz",
        "reception_time": "2022-01-17T10:27:11.040-00:00",
        "included_in_blocks":
          [ "BM8GDbLEhU6193Pkkc2Ch5yT62qdxrwgGXSTpcYCFLMzhn2hpDq" ] },
      { "delegate": "tz3RDC3Jdn4j15J7bBHZd29EUee9gVB1CxD9",
        "reception_time": "2022-01-17T10:27:11.167-00:00",
        "included_in_blocks":
          [ "BM8GDbLEhU6193Pkkc2Ch5yT62qdxrwgGXSTpcYCFLMzhn2hpDq" ] },
      { "delegate": "tz1cYufsxHXJcvANhvS55h3aY32a9BAFB494",
        "reception_time": "2022-01-17T10:27:10.895-00:00",
        "included_in_blocks":
          [ "BM8GDbLEhU6193Pkkc2Ch5yT62qdxrwgGXSTpcYCFLMzhn2hpDq" ] },
      { "delegate": "tz1T7duV5gZWSTq4YpBGbXNLTfznCLDrFxvs",
        "reception_time": "2022-01-17T10:27:10.787-00:00",
        "included_in_blocks":
          [ "BM8GDbLEhU6193Pkkc2Ch5yT62qdxrwgGXSTpcYCFLMzhn2hpDq" ] },
      { "delegate": "tz1NoYvKjXTzTk54VpLxBfouJ33J8jwKPPvw",
        "reception_time": "2022-01-17T10:27:10.851-00:00",
        "included_in_blocks":
          [ "BM8GDbLEhU6193Pkkc2Ch5yT62qdxrwgGXSTpcYCFLMzhn2hpDq" ] },
      { "delegate": "tz1SYq214SCBy9naR6cvycQsYcUGpBqQAE8d",
        "reception_time": "2022-01-17T10:27:10.392-00:00",
        "included_in_blocks":
          [ "BM8GDbLEhU6193Pkkc2Ch5yT62qdxrwgGXSTpcYCFLMzhn2hpDq" ] },
      { "delegate": "tz1gfArv665EUkSg2ojMBzcbfwuPxAvqPvjo",
        "reception_time": "2022-01-17T10:27:10.483-00:00",
        "included_in_blocks":
          [ "BM8GDbLEhU6193Pkkc2Ch5yT62qdxrwgGXSTpcYCFLMzhn2hpDq" ] },
      { "delegate": "tz3UoffC7FG7zfpmvmjUmUeAaHvzdcUvAj6r",
        "reception_time": "2022-01-17T10:27:11.224-00:00",
        "included_in_blocks":
          [ "BM8GDbLEhU6193Pkkc2Ch5yT62qdxrwgGXSTpcYCFLMzhn2hpDq" ] },
      { "delegate": "tz1PeZx7FXy7QRuMREGXGxeipb24RsMMzUNe",
        "reception_time": "2022-01-17T10:27:10.135-00:00",
        "included_in_blocks":
          [ "BM8GDbLEhU6193Pkkc2Ch5yT62qdxrwgGXSTpcYCFLMzhn2hpDq" ] },
      { "delegate": "tz1Nf6tsK4G6bBqgSQERy4nUtkHNKUVdh7q1",
        "reception_time": "2022-01-17T10:27:10.557-00:00",
        "included_in_blocks":
          [ "BM8GDbLEhU6193Pkkc2Ch5yT62qdxrwgGXSTpcYCFLMzhn2hpDq" ] },
      { "delegate": "tz1cig1EHyvZd7J2k389moM9PxVgPQvmFkvi",
        "reception_time": "2022-01-17T10:27:10.312-00:00",
        "included_in_blocks":
          [ "BM8GDbLEhU6193Pkkc2Ch5yT62qdxrwgGXSTpcYCFLMzhn2hpDq" ] },
      { "delegate": "tz2FCNBrERXtaTtNX6iimR1UJ5JSDxvdHM93",
        "reception_time": "2022-01-17T10:27:10.045-00:00",
        "included_in_blocks":
          [ "BM8GDbLEhU6193Pkkc2Ch5yT62qdxrwgGXSTpcYCFLMzhn2hpDq" ] },
      { "delegate": "tz1NEKxGEHsFufk87CVZcrqWu8o22qh46GK6",
        "reception_time": "2022-01-17T10:27:10.705-00:00",
        "included_in_blocks":
          [ "BM8GDbLEhU6193Pkkc2Ch5yT62qdxrwgGXSTpcYCFLMzhn2hpDq" ] },
      { "delegate": "tz1TRqbYbUf2GyrjErf3hBzgBJPzW8y36qEs",
        "reception_time": "2022-01-17T10:27:09.847-00:00",
        "included_in_blocks":
          [ "BM8GDbLEhU6193Pkkc2Ch5yT62qdxrwgGXSTpcYCFLMzhn2hpDq" ] },
      { "delegate": "tz1ei4WtWEMEJekSv8qDnu9PExG6Q8HgRGr3",
        "reception_time": "2022-01-17T10:27:09.818-00:00",
        "included_in_blocks":
          [ "BM8GDbLEhU6193Pkkc2Ch5yT62qdxrwgGXSTpcYCFLMzhn2hpDq" ] },
      { "delegate": "tz3WMqdzXqRWXwyvj5Hp2H7QEepaUuS7vd9K",
        "reception_time": "2022-01-17T10:27:10.473-00:00",
        "included_in_blocks":
          [ "BM8GDbLEhU6193Pkkc2Ch5yT62qdxrwgGXSTpcYCFLMzhn2hpDq" ] },
      { "delegate": "tz3bvNMQ95vfAYtG8193ymshqjSvmxiCUuR5",
        "reception_time": "2022-01-17T10:27:09.845-00:00",
        "included_in_blocks":
          [ "BM8GDbLEhU6193Pkkc2Ch5yT62qdxrwgGXSTpcYCFLMzhn2hpDq" ] },
      { "delegate": "tz1WBfwbT66FC6BTLexc2BoyCCBM9LG7pnVW",
        "reception_time": "2022-01-17T10:27:09.744-00:00",
        "included_in_blocks":
          [ "BM8GDbLEhU6193Pkkc2Ch5yT62qdxrwgGXSTpcYCFLMzhn2hpDq" ] },
      { "delegate": "tz1dNVDWPf3Q59SdJqnjdnu277iyvReiRS9M",
        "reception_time": "2022-01-17T10:27:09.764-00:00",
        "included_in_blocks":
          [ "BM8GDbLEhU6193Pkkc2Ch5yT62qdxrwgGXSTpcYCFLMzhn2hpDq" ] },
      { "delegate": "tz3RB4aoyjov4KEVRbuhvQ1CKJgBJMWhaeB8",
        "reception_time": "2022-01-17T10:27:09.597-00:00",
        "included_in_blocks":
          [ "BM8GDbLEhU6193Pkkc2Ch5yT62qdxrwgGXSTpcYCFLMzhn2hpDq" ] },
      { "delegate": "tz3bTdwZinP8U1JmSweNzVKhmwafqWmFWRfk",
        "reception_time": "2022-01-17T10:27:09.432-00:00",
        "included_in_blocks":
          [ "BM8GDbLEhU6193Pkkc2Ch5yT62qdxrwgGXSTpcYCFLMzhn2hpDq" ] },
      { "delegate": "tz1dwu9aYb7CRNq4Y2zAjipdjFuSVKhHS8vA",
        "reception_time": "2022-01-17T10:27:09.234-00:00",
        "included_in_blocks":
          [ "BM8GDbLEhU6193Pkkc2Ch5yT62qdxrwgGXSTpcYCFLMzhn2hpDq" ] },
      { "delegate": "tz1Kf25fX1VdmYGSEzwFy1wNmkbSEZ2V83sY",
        "reception_time": "2022-01-17T10:27:09.219-00:00",
        "included_in_blocks":
          [ "BM8GDbLEhU6193Pkkc2Ch5yT62qdxrwgGXSTpcYCFLMzhn2hpDq" ] },
      { "delegate": "tz3gtoUxdudfBRcNY7iVdKPHCYYX6xdPpoRS",
        "reception_time": "2022-01-17T10:27:09.318-00:00",
        "included_in_blocks":
          [ "BM8GDbLEhU6193Pkkc2Ch5yT62qdxrwgGXSTpcYCFLMzhn2hpDq" ] },
      { "delegate": "tz3QSGPoRp3Kn7n3vY24eYeu3Peuqo45LQ4D",
        "reception_time": "2022-01-17T10:27:09.284-00:00",
        "included_in_blocks":
          [ "BM8GDbLEhU6193Pkkc2Ch5yT62qdxrwgGXSTpcYCFLMzhn2hpDq" ] },
      { "delegate": "tz3S6BBeKgJGXxvLyZ1xzXzMPn11nnFtq5L9",
        "reception_time": "2022-01-17T10:27:09.255-00:00",
        "included_in_blocks":
          [ "BM8GDbLEhU6193Pkkc2Ch5yT62qdxrwgGXSTpcYCFLMzhn2hpDq" ] },
      { "delegate": "tz3RKYFsLuQzKBtmYuLNas7uMu3AsYd4QdsA",
        "reception_time": "2022-01-17T10:27:09.211-00:00",
        "included_in_blocks":
          [ "BM8GDbLEhU6193Pkkc2Ch5yT62qdxrwgGXSTpcYCFLMzhn2hpDq" ] },
      { "delegate": "tz3Zhs2dygr55yHyQyKjntAtY9bgfhLZ4Xj1",
        "reception_time": "2022-01-17T10:27:09.158-00:00",
        "included_in_blocks":
          [ "BM8GDbLEhU6193Pkkc2Ch5yT62qdxrwgGXSTpcYCFLMzhn2hpDq" ] },
      { "delegate": "tz3iJu5vrKZcsqRPs8yJ61UDoeEXZmtro4qh",
        "reception_time": "2022-01-17T10:27:09.123-00:00",
        "included_in_blocks":
          [ "BM8GDbLEhU6193Pkkc2Ch5yT62qdxrwgGXSTpcYCFLMzhn2hpDq" ] },
      { "delegate": "tz3hw2kqXhLUvY65ca1eety2oQTpAvd34R9Q",
        "reception_time": "2022-01-17T10:27:09.182-00:00",
        "included_in_blocks":
          [ "BM8GDbLEhU6193Pkkc2Ch5yT62qdxrwgGXSTpcYCFLMzhn2hpDq" ] },
      { "delegate": "tz3QT9dHYKDqh563chVa6za8526ys1UKfRfL",
        "reception_time": "2022-01-17T10:27:09.306-00:00",
        "included_in_blocks":
          [ "BM8GDbLEhU6193Pkkc2Ch5yT62qdxrwgGXSTpcYCFLMzhn2hpDq" ] },
      { "delegate": "tz3VEZ4k6a4Wx42iyev6i2aVAptTRLEAivNN",
        "reception_time": "2022-01-17T10:27:10.534-00:00",
        "included_in_blocks":
          [ "BM8GDbLEhU6193Pkkc2Ch5yT62qdxrwgGXSTpcYCFLMzhn2hpDq" ] },
      { "delegate": "tz1LmaFsWRkjr7QMCx5PtV6xTUz3AmEpKQiF",
        "reception_time": "2022-01-17T10:27:09.734-00:00",
        "included_in_blocks":
          [ "BM8GDbLEhU6193Pkkc2Ch5yT62qdxrwgGXSTpcYCFLMzhn2hpDq" ] },
      { "delegate": "tz1Ldzz6k1BHdhuKvAtMRX7h5kJSMHESMHLC",
        "reception_time": "2022-01-17T10:27:08.967-00:00",
        "included_in_blocks":
          [ "BM8GDbLEhU6193Pkkc2Ch5yT62qdxrwgGXSTpcYCFLMzhn2hpDq" ] },
      { "delegate": "tz3NxTnke1acr8o3h5y9ytf5awQBGNJUKzVU",
        "reception_time": "2022-01-17T10:27:08.960-00:00",
        "included_in_blocks":
          [ "BM8GDbLEhU6193Pkkc2Ch5yT62qdxrwgGXSTpcYCFLMzhn2hpDq" ] },
      { "delegate": "tz3QCNyySViKHmeSr45kzDxzchys7NiXCWoa",
        "reception_time": "2022-01-17T10:27:09.029-00:00",
        "included_in_blocks":
          [ "BM8GDbLEhU6193Pkkc2Ch5yT62qdxrwgGXSTpcYCFLMzhn2hpDq" ] },
      { "delegate": "tz1WCd2jm4uSt4vntk4vSuUWoZQGhLcDuR9q",
        "reception_time": "2022-01-17T10:27:08.963-00:00",
        "included_in_blocks":
          [ "BM8GDbLEhU6193Pkkc2Ch5yT62qdxrwgGXSTpcYCFLMzhn2hpDq" ] },
      { "delegate": "tz3ZbP2pM3nwvXztbuMJwJnDvV5xdpU8UkkD",
        "reception_time": "2022-01-17T10:27:08.949-00:00",
        "included_in_blocks":
          [ "BM8GDbLEhU6193Pkkc2Ch5yT62qdxrwgGXSTpcYCFLMzhn2hpDq" ] },
      { "delegate": "tz1PWCDnz783NNGGQjEFFsHtrcK5yBW4E2rm",
        "reception_time": "2022-01-17T10:27:08.952-00:00",
        "included_in_blocks":
          [ "BM8GDbLEhU6193Pkkc2Ch5yT62qdxrwgGXSTpcYCFLMzhn2hpDq" ] },
      { "delegate": "tz1irJKkXS2DBWkU1NnmFQx1c1L7pbGg4yhk",
        "reception_time": "2022-01-17T10:27:08.945-00:00",
        "included_in_blocks":
          [ "BM8GDbLEhU6193Pkkc2Ch5yT62qdxrwgGXSTpcYCFLMzhn2hpDq" ] },
      { "delegate": "tz1RCFbB9GpALpsZtu6J58sb74dm8qe6XBzv",
        "reception_time": "2022-01-17T10:27:09.125-00:00",
        "included_in_blocks":
          [ "BM8GDbLEhU6193Pkkc2Ch5yT62qdxrwgGXSTpcYCFLMzhn2hpDq" ] },
      { "delegate": "tz1S8MNvuFEUsWgjHvi3AxibRBf388NhT1q2",
        "reception_time": "2022-01-17T10:27:09.452-00:00",
        "included_in_blocks":
          [ "BM8GDbLEhU6193Pkkc2Ch5yT62qdxrwgGXSTpcYCFLMzhn2hpDq" ] },
      { "delegate": "tz1beersuEDv8Z7ngQ825xfbaJNS2EhXnyHR",
        "reception_time": "2022-01-17T10:27:08.945-00:00",
        "included_in_blocks":
          [ "BM8GDbLEhU6193Pkkc2Ch5yT62qdxrwgGXSTpcYCFLMzhn2hpDq" ] },
      { "delegate": "tz1VmiY38m3y95HqQLjMwqnMS7sdMfGomzKi",
        "reception_time": "2022-01-17T10:27:08.945-00:00",
        "included_in_blocks":
          [ "BM8GDbLEhU6193Pkkc2Ch5yT62qdxrwgGXSTpcYCFLMzhn2hpDq" ] },
      { "delegate": "tz1TRspM5SeZpaQUhzByXbEvqKF1vnCM2YTK",
        "reception_time": "2022-01-17T10:27:08.945-00:00",
        "included_in_blocks":
          [ "BM8GDbLEhU6193Pkkc2Ch5yT62qdxrwgGXSTpcYCFLMzhn2hpDq" ] },
      { "delegate": "tz1MQMiZHV8q4tTwUMWmS5Y3kaP6J2136iXr",
        "reception_time": "2022-01-17T10:27:09.057-00:00",
        "included_in_blocks":
          [ "BM8GDbLEhU6193Pkkc2Ch5yT62qdxrwgGXSTpcYCFLMzhn2hpDq" ] },
      { "delegate": "tz1Kt4P8BCaP93AEV4eA7gmpRryWt5hznjCP",
        "reception_time": "2022-01-17T10:27:08.945-00:00",
        "included_in_blocks":
          [ "BM8GDbLEhU6193Pkkc2Ch5yT62qdxrwgGXSTpcYCFLMzhn2hpDq" ] },
      { "delegate": "tz1VQnqCCqX4K5sP3FNkVSNKTdCAMJDd3E1n",
        "reception_time": "2022-01-17T10:27:08.945-00:00",
        "included_in_blocks":
          [ "BM8GDbLEhU6193Pkkc2Ch5yT62qdxrwgGXSTpcYCFLMzhn2hpDq" ] },
      { "delegate": "tz1eEnQhbwf6trb8Q8mPb2RaPkNk2rN7BKi8",
        "reception_time": "2022-01-17T10:27:08.771-00:00",
        "included_in_blocks":
          [ "BM8GDbLEhU6193Pkkc2Ch5yT62qdxrwgGXSTpcYCFLMzhn2hpDq" ] },
      { "delegate": "tz1aXD7Jigrt3PBYSpHSg5Rr33SexMmmM5Ys",
        "reception_time": "2022-01-17T10:27:08.945-00:00",
        "included_in_blocks":
          [ "BM8GDbLEhU6193Pkkc2Ch5yT62qdxrwgGXSTpcYCFLMzhn2hpDq" ] },
      { "delegate": "tz1gUNyn3hmnEWqkusWPzxRaon1cs7ndWh7h",
        "reception_time": "2022-01-17T10:27:08.945-00:00",
        "included_in_blocks":
          [ "BM8GDbLEhU6193Pkkc2Ch5yT62qdxrwgGXSTpcYCFLMzhn2hpDq" ] } ] }