{ "blocks":
    [ { "hash": "BLt7qQzbxTfNHsiShewhgZp4LrPFRry9KPeS9LykCfi6BC18pC1",
        "delegate": "tz1dNVDWPf3Q59SdJqnjdnu277iyvReiRS9M",
        "reception_time": "2022-01-17T10:44:07.633-00:00",
        "timestamp": "2022-01-17T10:44:00Z" } ],
  "endorsements":
    [ { "delegate": "tz1awXW7wuXy21c66vBudMXQVAPgRnqqwgTH" },
      { "delegate": "tz1RjoHc98dBoqaH2jawF62XNKh7YsHwbkEv" },
      { "delegate": "tz1NdhRv643wLW6zCcRP3VfT24dvDnh7nuh9" },
      { "delegate": "tz1iZEKy4LaAjnTmn2RuGDf2iqdAQKnRi8kY",
        "reception_time": "2022-01-17T10:44:07.611-00:00",
        "errors":
          [ { "kind": "temporary",
              "id": "proto.011-PtHangz2.prefilter.outdated_endorsement" } ],
        "included_in_blocks":
          [ "BLy4Gf4t7FmWpiiRP4CiZe8mhCicjtnL9emLVNfbmkUVQfP2zvv" ] },
      { "delegate": "tz1eEnQhbwf6trb8Q8mPb2RaPkNk2rN7BKi8",
        "reception_time": "2022-01-17T10:44:07.601-00:00",
        "errors":
          [ { "kind": "temporary",
              "id": "proto.011-PtHangz2.prefilter.outdated_endorsement" } ],
        "included_in_blocks":
          [ "BLy4Gf4t7FmWpiiRP4CiZe8mhCicjtnL9emLVNfbmkUVQfP2zvv" ] },
      { "delegate": "tz1MXFrtZoaXckE41bjUCSjAjAap3AFDSr3N",
        "reception_time": "2022-01-17T10:44:07.594-00:00",
        "errors":
          [ { "kind": "temporary",
              "id": "proto.011-PtHangz2.prefilter.outdated_endorsement" } ],
        "included_in_blocks":
          [ "BLy4Gf4t7FmWpiiRP4CiZe8mhCicjtnL9emLVNfbmkUVQfP2zvv" ] },
      { "delegate": "tz1P2Po7YM526ughEsRbY4oR9zaUPDZjxFrb",
        "reception_time": "2022-01-17T10:44:07.591-00:00",
        "errors":
          [ { "kind": "temporary",
              "id": "proto.011-PtHangz2.prefilter.outdated_endorsement" } ],
        "included_in_blocks":
          [ "BLy4Gf4t7FmWpiiRP4CiZe8mhCicjtnL9emLVNfbmkUVQfP2zvv" ] },
      { "delegate": "tz1S8e9GgdZG78XJRB3NqabfWeM37GnhZMWQ",
        "reception_time": "2022-01-17T10:44:07.315-00:00",
        "errors":
          [ { "kind": "temporary",
              "id": "proto.011-PtHangz2.prefilter.outdated_endorsement" } ],
        "included_in_blocks":
          [ "BLy4Gf4t7FmWpiiRP4CiZe8mhCicjtnL9emLVNfbmkUVQfP2zvv" ] },
      { "delegate": "tz1Zhv3RkfU2pHrmaiDyxp7kFZpZrUCu1CiF",
        "reception_time": "2022-01-17T10:44:07.276-00:00",
        "errors":
          [ { "kind": "temporary",
              "id": "proto.011-PtHangz2.prefilter.outdated_endorsement" } ],
        "included_in_blocks":
          [ "BLy4Gf4t7FmWpiiRP4CiZe8mhCicjtnL9emLVNfbmkUVQfP2zvv" ] },
      { "delegate": "tz1i5PPsXa711EuZzped9jqPS8hGKsrCMB9f",
        "reception_time": "2022-01-17T10:44:19.208-00:00",
        "included_in_blocks":
          [ "BLy4Gf4t7FmWpiiRP4CiZe8mhCicjtnL9emLVNfbmkUVQfP2zvv" ] },
      { "delegate": "tz1go7f6mEQfT2xX2LuHAqgnRGN6c2zHPf5c",
        "reception_time": "2022-01-17T10:44:14.677-00:00",
        "included_in_blocks":
          [ "BLy4Gf4t7FmWpiiRP4CiZe8mhCicjtnL9emLVNfbmkUVQfP2zvv" ] },
      { "delegate": "tz1aRoaRhSpRYvFdyvgWLL6TGyRoGF51wDjM",
        "reception_time": "2022-01-17T10:44:10.965-00:00",
        "included_in_blocks":
          [ "BLy4Gf4t7FmWpiiRP4CiZe8mhCicjtnL9emLVNfbmkUVQfP2zvv" ] },
      { "delegate": "tz3gLTu4Yxj8tPAcriQVUdxv6BY9QyvzU1az",
        "reception_time": "2022-01-17T10:44:11.175-00:00",
        "included_in_blocks":
          [ "BLy4Gf4t7FmWpiiRP4CiZe8mhCicjtnL9emLVNfbmkUVQfP2zvv" ] },
      { "delegate": "tz1ZcTRk5uxD86EFEn1vvNffWWqJy7q5eVhc",
        "reception_time": "2022-01-17T10:44:11.151-00:00",
        "included_in_blocks":
          [ "BLy4Gf4t7FmWpiiRP4CiZe8mhCicjtnL9emLVNfbmkUVQfP2zvv" ] },
      { "delegate": "tz3UoffC7FG7zfpmvmjUmUeAaHvzdcUvAj6r",
        "reception_time": "2022-01-17T10:44:11.798-00:00",
        "included_in_blocks":
          [ "BLy4Gf4t7FmWpiiRP4CiZe8mhCicjtnL9emLVNfbmkUVQfP2zvv" ] },
      { "delegate": "tz3NDpRj6WBrJPikcPVHRBEjWKxFw3c6eQPS",
        "reception_time": "2022-01-17T10:44:11.134-00:00",
        "included_in_blocks":
          [ "BLy4Gf4t7FmWpiiRP4CiZe8mhCicjtnL9emLVNfbmkUVQfP2zvv" ] },
      { "delegate": "tz3bvNMQ95vfAYtG8193ymshqjSvmxiCUuR5",
        "reception_time": "2022-01-17T10:44:10.760-00:00",
        "included_in_blocks":
          [ "BLy4Gf4t7FmWpiiRP4CiZe8mhCicjtnL9emLVNfbmkUVQfP2zvv" ] },
      { "delegate": "tz1dRKU4FQ9QRRQPdaH4zCR6gmCmXfcvcgtB",
        "reception_time": "2022-01-17T10:44:10.659-00:00",
        "included_in_blocks":
          [ "BLy4Gf4t7FmWpiiRP4CiZe8mhCicjtnL9emLVNfbmkUVQfP2zvv" ] },
      { "delegate": "tz3RDC3Jdn4j15J7bBHZd29EUee9gVB1CxD9",
        "reception_time": "2022-01-17T10:44:10.325-00:00",
        "included_in_blocks":
          [ "BLy4Gf4t7FmWpiiRP4CiZe8mhCicjtnL9emLVNfbmkUVQfP2zvv" ] },
      { "delegate": "tz1cYufsxHXJcvANhvS55h3aY32a9BAFB494",
        "reception_time": "2022-01-17T10:44:10.447-00:00",
        "included_in_blocks":
          [ "BLy4Gf4t7FmWpiiRP4CiZe8mhCicjtnL9emLVNfbmkUVQfP2zvv" ] },
      { "delegate": "tz3NExpXn9aPNZPorRE4SdjJ2RGrfbJgMAaV",
        "reception_time": "2022-01-17T10:44:10.817-00:00",
        "included_in_blocks":
          [ "BLy4Gf4t7FmWpiiRP4CiZe8mhCicjtnL9emLVNfbmkUVQfP2zvv" ] },
      { "delegate": "tz1NoYvKjXTzTk54VpLxBfouJ33J8jwKPPvw",
        "reception_time": "2022-01-17T10:44:09.930-00:00",
        "included_in_blocks":
          [ "BLy4Gf4t7FmWpiiRP4CiZe8mhCicjtnL9emLVNfbmkUVQfP2zvv" ] },
      { "delegate": "tz1iEWcNL383qiDJ3Q3qt5W2T4aSKUbEU4An",
        "reception_time": "2022-01-17T10:44:10.068-00:00",
        "included_in_blocks":
          [ "BLy4Gf4t7FmWpiiRP4CiZe8mhCicjtnL9emLVNfbmkUVQfP2zvv" ] },
      { "delegate": "tz1fZ767VDbqx4DeKiFswPSHh513f51mKEUZ",
        "reception_time": "2022-01-17T10:44:10.161-00:00",
        "included_in_blocks":
          [ "BLy4Gf4t7FmWpiiRP4CiZe8mhCicjtnL9emLVNfbmkUVQfP2zvv" ] },
      { "delegate": "tz3WMqdzXqRWXwyvj5Hp2H7QEepaUuS7vd9K",
        "reception_time": "2022-01-17T10:44:10.721-00:00",
        "included_in_blocks":
          [ "BLy4Gf4t7FmWpiiRP4CiZe8mhCicjtnL9emLVNfbmkUVQfP2zvv" ] },
      { "delegate": "tz1PeZx7FXy7QRuMREGXGxeipb24RsMMzUNe",
        "reception_time": "2022-01-17T10:44:09.946-00:00",
        "included_in_blocks":
          [ "BLy4Gf4t7FmWpiiRP4CiZe8mhCicjtnL9emLVNfbmkUVQfP2zvv" ] },
      { "delegate": "tz1SohptP53wDPZhzTWzDUFAUcWF6DMBpaJV",
        "reception_time": "2022-01-17T10:44:09.886-00:00",
        "included_in_blocks":
          [ "BLy4Gf4t7FmWpiiRP4CiZe8mhCicjtnL9emLVNfbmkUVQfP2zvv" ] },
      { "delegate": "tz3RB4aoyjov4KEVRbuhvQ1CKJgBJMWhaeB8",
        "reception_time": "2022-01-17T10:44:09.877-00:00",
        "included_in_blocks":
          [ "BLy4Gf4t7FmWpiiRP4CiZe8mhCicjtnL9emLVNfbmkUVQfP2zvv" ] },
      { "delegate": "tz1Nf6tsK4G6bBqgSQERy4nUtkHNKUVdh7q1",
        "reception_time": "2022-01-17T10:44:10.002-00:00",
        "included_in_blocks":
          [ "BLy4Gf4t7FmWpiiRP4CiZe8mhCicjtnL9emLVNfbmkUVQfP2zvv" ] },
      { "delegate": "tz1NortRftucvAkD1J58L32EhSVrQEWJCEnB",
        "reception_time": "2022-01-17T10:44:09.647-00:00",
        "included_in_blocks":
          [ "BLy4Gf4t7FmWpiiRP4CiZe8mhCicjtnL9emLVNfbmkUVQfP2zvv" ] },
      { "delegate": "tz3bTdwZinP8U1JmSweNzVKhmwafqWmFWRfk",
        "reception_time": "2022-01-17T10:44:09.746-00:00",
        "included_in_blocks":
          [ "BLy4Gf4t7FmWpiiRP4CiZe8mhCicjtnL9emLVNfbmkUVQfP2zvv" ] },
      { "delegate": "tz3VEZ4k6a4Wx42iyev6i2aVAptTRLEAivNN",
        "reception_time": "2022-01-17T10:44:10.235-00:00",
        "included_in_blocks":
          [ "BLy4Gf4t7FmWpiiRP4CiZe8mhCicjtnL9emLVNfbmkUVQfP2zvv" ] },
      { "delegate": "tz2FCNBrERXtaTtNX6iimR1UJ5JSDxvdHM93",
        "reception_time": "2022-01-17T10:44:09.440-00:00",
        "included_in_blocks":
          [ "BLy4Gf4t7FmWpiiRP4CiZe8mhCicjtnL9emLVNfbmkUVQfP2zvv" ] },
      { "delegate": "tz1SYq214SCBy9naR6cvycQsYcUGpBqQAE8d",
        "reception_time": "2022-01-17T10:44:09.337-00:00",
        "included_in_blocks":
          [ "BLy4Gf4t7FmWpiiRP4CiZe8mhCicjtnL9emLVNfbmkUVQfP2zvv" ] },
      { "delegate": "tz1abmz7jiCV2GH2u81LRrGgAFFgvQgiDiaf",
        "reception_time": "2022-01-17T10:44:09.461-00:00",
        "included_in_blocks":
          [ "BLy4Gf4t7FmWpiiRP4CiZe8mhCicjtnL9emLVNfbmkUVQfP2zvv" ] },
      { "delegate": "tz1N7fL6KvRzD5Umy7yeX5uBa5wFsC5veuN2",
        "reception_time": "2022-01-17T10:44:09.278-00:00",
        "included_in_blocks":
          [ "BLy4Gf4t7FmWpiiRP4CiZe8mhCicjtnL9emLVNfbmkUVQfP2zvv" ] },
      { "delegate": "tz1TRqbYbUf2GyrjErf3hBzgBJPzW8y36qEs",
        "reception_time": "2022-01-17T10:44:09.273-00:00",
        "included_in_blocks":
          [ "BLy4Gf4t7FmWpiiRP4CiZe8mhCicjtnL9emLVNfbmkUVQfP2zvv" ] },
      { "delegate": "tz1WBfwbT66FC6BTLexc2BoyCCBM9LG7pnVW",
        "reception_time": "2022-01-17T10:44:09.230-00:00",
        "included_in_blocks":
          [ "BLy4Gf4t7FmWpiiRP4CiZe8mhCicjtnL9emLVNfbmkUVQfP2zvv" ] },
      { "delegate": "tz1LmaFsWRkjr7QMCx5PtV6xTUz3AmEpKQiF",
        "reception_time": "2022-01-17T10:44:09.585-00:00",
        "included_in_blocks":
          [ "BLy4Gf4t7FmWpiiRP4CiZe8mhCicjtnL9emLVNfbmkUVQfP2zvv" ] },
      { "delegate": "tz1ei4WtWEMEJekSv8qDnu9PExG6Q8HgRGr3",
        "reception_time": "2022-01-17T10:44:09.395-00:00",
        "included_in_blocks":
          [ "BLy4Gf4t7FmWpiiRP4CiZe8mhCicjtnL9emLVNfbmkUVQfP2zvv" ] },
      { "delegate": "tz1fwnfJNgiDACshK9avfRfFbMaXrs3ghoJa",
        "reception_time": "2022-01-17T10:44:09.159-00:00",
        "included_in_blocks":
          [ "BLy4Gf4t7FmWpiiRP4CiZe8mhCicjtnL9emLVNfbmkUVQfP2zvv" ] },
      { "delegate": "tz1TEc75UKXv4W5cwi14Na3NtqFD51yKQi7h",
        "reception_time": "2022-01-17T10:44:09.280-00:00",
        "included_in_blocks":
          [ "BLy4Gf4t7FmWpiiRP4CiZe8mhCicjtnL9emLVNfbmkUVQfP2zvv" ] },
      { "delegate": "tz1ci1ARnm8JoYV16Hbe4FoxX17yFEAQVytg",
        "reception_time": "2022-01-17T10:44:09.093-00:00",
        "included_in_blocks":
          [ "BLy4Gf4t7FmWpiiRP4CiZe8mhCicjtnL9emLVNfbmkUVQfP2zvv" ] },
      { "delegate": "tz1Ur8V74zqkw9eFh73mEX3uNHdSruuDfV2Q",
        "reception_time": "2022-01-17T10:44:09.039-00:00",
        "included_in_blocks":
          [ "BLy4Gf4t7FmWpiiRP4CiZe8mhCicjtnL9emLVNfbmkUVQfP2zvv" ] },
      { "delegate": "tz1RCFbB9GpALpsZtu6J58sb74dm8qe6XBzv",
        "reception_time": "2022-01-17T10:44:08.976-00:00",
        "included_in_blocks":
          [ "BLy4Gf4t7FmWpiiRP4CiZe8mhCicjtnL9emLVNfbmkUVQfP2zvv" ] },
      { "delegate": "tz1MQJPGNMijnXnVoBENFz9rUhaPt3S7rWoz",
        "reception_time": "2022-01-17T10:44:09.415-00:00",
        "included_in_blocks":
          [ "BLy4Gf4t7FmWpiiRP4CiZe8mhCicjtnL9emLVNfbmkUVQfP2zvv" ] },
      { "delegate": "tz1NEKxGEHsFufk87CVZcrqWu8o22qh46GK6",
        "reception_time": "2022-01-17T10:44:09.953-00:00",
        "included_in_blocks":
          [ "BLy4Gf4t7FmWpiiRP4CiZe8mhCicjtnL9emLVNfbmkUVQfP2zvv" ] },
      { "delegate": "tz3RKYFsLuQzKBtmYuLNas7uMu3AsYd4QdsA",
        "reception_time": "2022-01-17T10:44:08.717-00:00",
        "included_in_blocks":
          [ "BLy4Gf4t7FmWpiiRP4CiZe8mhCicjtnL9emLVNfbmkUVQfP2zvv" ] },
      { "delegate": "tz3hw2kqXhLUvY65ca1eety2oQTpAvd34R9Q",
        "reception_time": "2022-01-17T10:44:08.580-00:00",
        "included_in_blocks":
          [ "BLy4Gf4t7FmWpiiRP4CiZe8mhCicjtnL9emLVNfbmkUVQfP2zvv" ] },
      { "delegate": "tz1KzSC1J9aBxKp7u8TUnpN8L7S65PBRkgdF",
        "reception_time": "2022-01-17T10:44:09.135-00:00",
        "included_in_blocks":
          [ "BLy4Gf4t7FmWpiiRP4CiZe8mhCicjtnL9emLVNfbmkUVQfP2zvv" ] },
      { "delegate": "tz3iJu5vrKZcsqRPs8yJ61UDoeEXZmtro4qh",
        "reception_time": "2022-01-17T10:44:08.630-00:00",
        "included_in_blocks":
          [ "BLy4Gf4t7FmWpiiRP4CiZe8mhCicjtnL9emLVNfbmkUVQfP2zvv" ] },
      { "delegate": "tz3Zhs2dygr55yHyQyKjntAtY9bgfhLZ4Xj1",
        "reception_time": "2022-01-17T10:44:08.644-00:00",
        "included_in_blocks":
          [ "BLy4Gf4t7FmWpiiRP4CiZe8mhCicjtnL9emLVNfbmkUVQfP2zvv" ] },
      { "delegate": "tz3QT9dHYKDqh563chVa6za8526ys1UKfRfL",
        "reception_time": "2022-01-17T10:44:08.558-00:00",
        "included_in_blocks":
          [ "BLy4Gf4t7FmWpiiRP4CiZe8mhCicjtnL9emLVNfbmkUVQfP2zvv" ] },
      { "delegate": "tz1WCd2jm4uSt4vntk4vSuUWoZQGhLcDuR9q",
        "reception_time": "2022-01-17T10:44:08.558-00:00",
        "included_in_blocks":
          [ "BLy4Gf4t7FmWpiiRP4CiZe8mhCicjtnL9emLVNfbmkUVQfP2zvv" ] },
      { "delegate": "tz3S6BBeKgJGXxvLyZ1xzXzMPn11nnFtq5L9",
        "reception_time": "2022-01-17T10:44:08.558-00:00",
        "included_in_blocks":
          [ "BLy4Gf4t7FmWpiiRP4CiZe8mhCicjtnL9emLVNfbmkUVQfP2zvv" ] },
      { "delegate": "tz1PWCDnz783NNGGQjEFFsHtrcK5yBW4E2rm",
        "reception_time": "2022-01-17T10:44:08.558-00:00",
        "included_in_blocks":
          [ "BLy4Gf4t7FmWpiiRP4CiZe8mhCicjtnL9emLVNfbmkUVQfP2zvv" ] },
      { "delegate": "tz1gUNyn3hmnEWqkusWPzxRaon1cs7ndWh7h",
        "reception_time": "2022-01-17T10:44:08.558-00:00",
        "included_in_blocks":
          [ "BLy4Gf4t7FmWpiiRP4CiZe8mhCicjtnL9emLVNfbmkUVQfP2zvv" ] },
      { "delegate": "tz3QSGPoRp3Kn7n3vY24eYeu3Peuqo45LQ4D",
        "reception_time": "2022-01-17T10:44:08.558-00:00",
        "included_in_blocks":
          [ "BLy4Gf4t7FmWpiiRP4CiZe8mhCicjtnL9emLVNfbmkUVQfP2zvv" ] },
      { "delegate": "tz3ZbP2pM3nwvXztbuMJwJnDvV5xdpU8UkkD",
        "reception_time": "2022-01-17T10:44:08.558-00:00",
        "included_in_blocks":
          [ "BLy4Gf4t7FmWpiiRP4CiZe8mhCicjtnL9emLVNfbmkUVQfP2zvv" ] },
      { "delegate": "tz1VQnqCCqX4K5sP3FNkVSNKTdCAMJDd3E1n",
        "reception_time": "2022-01-17T10:44:08.558-00:00",
        "included_in_blocks":
          [ "BLy4Gf4t7FmWpiiRP4CiZe8mhCicjtnL9emLVNfbmkUVQfP2zvv" ] },
      { "delegate": "tz3gtoUxdudfBRcNY7iVdKPHCYYX6xdPpoRS",
        "reception_time": "2022-01-17T10:44:08.558-00:00",
        "included_in_blocks":
          [ "BLy4Gf4t7FmWpiiRP4CiZe8mhCicjtnL9emLVNfbmkUVQfP2zvv" ] },
      { "delegate": "tz1Ldzz6k1BHdhuKvAtMRX7h5kJSMHESMHLC",
        "reception_time": "2022-01-17T10:44:08.558-00:00",
        "included_in_blocks":
          [ "BLy4Gf4t7FmWpiiRP4CiZe8mhCicjtnL9emLVNfbmkUVQfP2zvv" ] },
      { "delegate": "tz1irJKkXS2DBWkU1NnmFQx1c1L7pbGg4yhk",
        "reception_time": "2022-01-17T10:44:08.558-00:00",
        "included_in_blocks":
          [ "BLy4Gf4t7FmWpiiRP4CiZe8mhCicjtnL9emLVNfbmkUVQfP2zvv" ] },
      { "delegate": "tz1V4qCyvPKZ5UeqdH14HN42rxvNPQfc9UZg",
        "reception_time": "2022-01-17T10:44:08.558-00:00",
        "included_in_blocks":
          [ "BLy4Gf4t7FmWpiiRP4CiZe8mhCicjtnL9emLVNfbmkUVQfP2zvv" ] },
      { "delegate": "tz1VmiY38m3y95HqQLjMwqnMS7sdMfGomzKi",
        "reception_time": "2022-01-17T10:44:08.558-00:00",
        "included_in_blocks":
          [ "BLy4Gf4t7FmWpiiRP4CiZe8mhCicjtnL9emLVNfbmkUVQfP2zvv" ] },
      { "delegate": "tz1Scdr2HsZiQjc7bHMeBbmDRXYVvdhjJbBh",
        "reception_time": "2022-01-17T10:44:08.381-00:00",
        "included_in_blocks":
          [ "BLy4Gf4t7FmWpiiRP4CiZe8mhCicjtnL9emLVNfbmkUVQfP2zvv" ] },
      { "delegate": "tz1STeamwbp68THcny9zk3LsbG3H36DMvbRK",
        "reception_time": "2022-01-17T10:44:08.381-00:00",
        "included_in_blocks":
          [ "BLy4Gf4t7FmWpiiRP4CiZe8mhCicjtnL9emLVNfbmkUVQfP2zvv" ] },
      { "delegate": "tz1MQMiZHV8q4tTwUMWmS5Y3kaP6J2136iXr",
        "reception_time": "2022-01-17T10:44:08.759-00:00",
        "included_in_blocks":
          [ "BLy4Gf4t7FmWpiiRP4CiZe8mhCicjtnL9emLVNfbmkUVQfP2zvv" ] },
      { "delegate": "tz1S8MNvuFEUsWgjHvi3AxibRBf388NhT1q2",
        "reception_time": "2022-01-17T10:44:08.633-00:00",
        "included_in_blocks":
          [ "BLy4Gf4t7FmWpiiRP4CiZe8mhCicjtnL9emLVNfbmkUVQfP2zvv" ] },
      { "delegate": "tz1gfArv665EUkSg2ojMBzcbfwuPxAvqPvjo",
        "reception_time": "2022-01-17T10:44:08.558-00:00",
        "included_in_blocks":
          [ "BLy4Gf4t7FmWpiiRP4CiZe8mhCicjtnL9emLVNfbmkUVQfP2zvv" ] },
      { "delegate": "tz1TRspM5SeZpaQUhzByXbEvqKF1vnCM2YTK",
        "reception_time": "2022-01-17T10:44:08.381-00:00",
        "included_in_blocks":
          [ "BLy4Gf4t7FmWpiiRP4CiZe8mhCicjtnL9emLVNfbmkUVQfP2zvv" ] } ] }