{ "blocks":
    [ { "hash": "BLYhvrAtqeKHauUaDUtFAw9eT5HWWH2r5kfB8UET8vuwCgWkDHr",
        "delegate": "tz1TzaNn7wSQSP5gYPXCnNzBCpyMiidCq1PX",
        "reception_time": "2022-01-17T11:33:55.191-00:00",
        "timestamp": "2022-01-17T11:33:50Z" } ],
  "endorsements":
    [ { "delegate": "tz1RjoHc98dBoqaH2jawF62XNKh7YsHwbkEv" },
      { "delegate": "tz1awXW7wuXy21c66vBudMXQVAPgRnqqwgTH" },
      { "delegate": "tz1dbfppLAAxXZNtf2SDps7rch3qfUznKSoK" },
      { "delegate": "tz1S8e9GgdZG78XJRB3NqabfWeM37GnhZMWQ",
        "reception_time": "2022-01-17T11:33:56.139-00:00",
        "included_in_blocks":
          [ "BM6GZ89Aj3Vf14u1CKQ3BSu1J6T29CF5rRFjHJ3JtXcNG7FF1fs" ] },
      { "delegate": "tz1P2Po7YM526ughEsRbY4oR9zaUPDZjxFrb",
        "reception_time": "2022-01-17T11:33:56.145-00:00",
        "included_in_blocks":
          [ "BM6GZ89Aj3Vf14u1CKQ3BSu1J6T29CF5rRFjHJ3JtXcNG7FF1fs" ] },
      { "delegate": "tz1TXzyaKUA8wsWefdSnyaYFnV2M3vCV7er9",
        "reception_time": "2022-01-17T11:33:56.187-00:00",
        "included_in_blocks":
          [ "BM6GZ89Aj3Vf14u1CKQ3BSu1J6T29CF5rRFjHJ3JtXcNG7FF1fs" ] },
      { "delegate": "tz1beersuEDv8Z7ngQ825xfbaJNS2EhXnyHR",
        "reception_time": "2022-01-17T11:33:56.189-00:00",
        "included_in_blocks":
          [ "BM6GZ89Aj3Vf14u1CKQ3BSu1J6T29CF5rRFjHJ3JtXcNG7FF1fs" ] },
      { "delegate": "tz1eEnQhbwf6trb8Q8mPb2RaPkNk2rN7BKi8",
        "reception_time": "2022-01-17T11:33:56.193-00:00",
        "included_in_blocks":
          [ "BM6GZ89Aj3Vf14u1CKQ3BSu1J6T29CF5rRFjHJ3JtXcNG7FF1fs" ] },
      { "delegate": "tz1STeamwbp68THcny9zk3LsbG3H36DMvbRK",
        "reception_time": "2022-01-17T11:33:56.197-00:00",
        "included_in_blocks":
          [ "BM6GZ89Aj3Vf14u1CKQ3BSu1J6T29CF5rRFjHJ3JtXcNG7FF1fs" ] },
      { "delegate": "tz1aDiEJf9ztRrAJEXZfcG3CKimoKsGhwVAi",
        "reception_time": "2022-01-17T11:33:56.203-00:00",
        "included_in_blocks":
          [ "BM6GZ89Aj3Vf14u1CKQ3BSu1J6T29CF5rRFjHJ3JtXcNG7FF1fs" ] },
      { "delegate": "tz1VQnqCCqX4K5sP3FNkVSNKTdCAMJDd3E1n",
        "reception_time": "2022-01-17T11:33:56.403-00:00",
        "included_in_blocks":
          [ "BM6GZ89Aj3Vf14u1CKQ3BSu1J6T29CF5rRFjHJ3JtXcNG7FF1fs" ] },
      { "delegate": "tz1gUNyn3hmnEWqkusWPzxRaon1cs7ndWh7h",
        "reception_time": "2022-01-17T11:33:56.431-00:00",
        "included_in_blocks":
          [ "BM6GZ89Aj3Vf14u1CKQ3BSu1J6T29CF5rRFjHJ3JtXcNG7FF1fs" ] },
      { "delegate": "tz1NMdMmWZN8QPB8pY4ddncACDg1cHi1xD2e",
        "reception_time": "2022-01-17T11:33:56.443-00:00",
        "included_in_blocks":
          [ "BM6GZ89Aj3Vf14u1CKQ3BSu1J6T29CF5rRFjHJ3JtXcNG7FF1fs" ] },
      { "delegate": "tz1TRspM5SeZpaQUhzByXbEvqKF1vnCM2YTK",
        "reception_time": "2022-01-17T11:33:56.469-00:00",
        "included_in_blocks":
          [ "BM6GZ89Aj3Vf14u1CKQ3BSu1J6T29CF5rRFjHJ3JtXcNG7FF1fs" ] },
      { "delegate": "tz1a23ggmEF4ujBDsh2YyDpoRjNomEjmHBrb",
        "reception_time": "2022-01-17T11:33:56.482-00:00",
        "included_in_blocks":
          [ "BM6GZ89Aj3Vf14u1CKQ3BSu1J6T29CF5rRFjHJ3JtXcNG7FF1fs" ] },
      { "delegate": "tz1irJKkXS2DBWkU1NnmFQx1c1L7pbGg4yhk",
        "reception_time": "2022-01-17T11:33:56.565-00:00",
        "included_in_blocks":
          [ "BM6GZ89Aj3Vf14u1CKQ3BSu1J6T29CF5rRFjHJ3JtXcNG7FF1fs" ] },
      { "delegate": "tz1Ldzz6k1BHdhuKvAtMRX7h5kJSMHESMHLC",
        "reception_time": "2022-01-17T11:33:56.571-00:00",
        "included_in_blocks":
          [ "BM6GZ89Aj3Vf14u1CKQ3BSu1J6T29CF5rRFjHJ3JtXcNG7FF1fs" ] },
      { "delegate": "tz1Kt4P8BCaP93AEV4eA7gmpRryWt5hznjCP",
        "reception_time": "2022-01-17T11:33:56.647-00:00",
        "included_in_blocks":
          [ "BM6GZ89Aj3Vf14u1CKQ3BSu1J6T29CF5rRFjHJ3JtXcNG7FF1fs" ] },
      { "delegate": "tz3adcvQaKXTCg12zbninqo3q8ptKKtDFTLv",
        "reception_time": "2022-01-17T11:33:56.789-00:00",
        "included_in_blocks":
          [ "BM6GZ89Aj3Vf14u1CKQ3BSu1J6T29CF5rRFjHJ3JtXcNG7FF1fs" ] },
      { "delegate": "tz1WCd2jm4uSt4vntk4vSuUWoZQGhLcDuR9q",
        "reception_time": "2022-01-17T11:33:56.868-00:00",
        "included_in_blocks":
          [ "BM6GZ89Aj3Vf14u1CKQ3BSu1J6T29CF5rRFjHJ3JtXcNG7FF1fs" ] },
      { "delegate": "tz3ZbP2pM3nwvXztbuMJwJnDvV5xdpU8UkkD",
        "reception_time": "2022-01-17T11:33:56.965-00:00",
        "included_in_blocks":
          [ "BM6GZ89Aj3Vf14u1CKQ3BSu1J6T29CF5rRFjHJ3JtXcNG7FF1fs" ] },
      { "delegate": "tz3NxTnke1acr8o3h5y9ytf5awQBGNJUKzVU",
        "reception_time": "2022-01-17T11:33:56.979-00:00",
        "included_in_blocks":
          [ "BM6GZ89Aj3Vf14u1CKQ3BSu1J6T29CF5rRFjHJ3JtXcNG7FF1fs" ] },
      { "delegate": "tz1aXD7Jigrt3PBYSpHSg5Rr33SexMmmM5Ys",
        "reception_time": "2022-01-17T11:33:56.993-00:00",
        "included_in_blocks":
          [ "BM6GZ89Aj3Vf14u1CKQ3BSu1J6T29CF5rRFjHJ3JtXcNG7FF1fs" ] },
      { "delegate": "tz3QCNyySViKHmeSr45kzDxzchys7NiXCWoa",
        "reception_time": "2022-01-17T11:33:57.038-00:00",
        "included_in_blocks":
          [ "BM6GZ89Aj3Vf14u1CKQ3BSu1J6T29CF5rRFjHJ3JtXcNG7FF1fs" ] },
      { "delegate": "tz3QSGPoRp3Kn7n3vY24eYeu3Peuqo45LQ4D",
        "reception_time": "2022-01-17T11:33:57.066-00:00",
        "included_in_blocks":
          [ "BM6GZ89Aj3Vf14u1CKQ3BSu1J6T29CF5rRFjHJ3JtXcNG7FF1fs" ] },
      { "delegate": "tz3gtoUxdudfBRcNY7iVdKPHCYYX6xdPpoRS",
        "reception_time": "2022-01-17T11:33:57.139-00:00",
        "included_in_blocks":
          [ "BM6GZ89Aj3Vf14u1CKQ3BSu1J6T29CF5rRFjHJ3JtXcNG7FF1fs" ] },
      { "delegate": "tz1VmiY38m3y95HqQLjMwqnMS7sdMfGomzKi",
        "reception_time": "2022-01-17T11:33:57.144-00:00",
        "included_in_blocks":
          [ "BM6GZ89Aj3Vf14u1CKQ3BSu1J6T29CF5rRFjHJ3JtXcNG7FF1fs" ] },
      { "delegate": "tz3iJu5vrKZcsqRPs8yJ61UDoeEXZmtro4qh",
        "reception_time": "2022-01-17T11:33:57.170-00:00",
        "included_in_blocks":
          [ "BM6GZ89Aj3Vf14u1CKQ3BSu1J6T29CF5rRFjHJ3JtXcNG7FF1fs" ] },
      { "delegate": "tz1XX67xSF2ou3aQZ6LhXaaxZWDR3YZ6hCMs",
        "reception_time": "2022-01-17T11:33:57.180-00:00",
        "included_in_blocks":
          [ "BM6GZ89Aj3Vf14u1CKQ3BSu1J6T29CF5rRFjHJ3JtXcNG7FF1fs" ] },
      { "delegate": "tz3Zhs2dygr55yHyQyKjntAtY9bgfhLZ4Xj1",
        "reception_time": "2022-01-17T11:33:57.210-00:00",
        "included_in_blocks":
          [ "BM6GZ89Aj3Vf14u1CKQ3BSu1J6T29CF5rRFjHJ3JtXcNG7FF1fs" ] },
      { "delegate": "tz1MQMiZHV8q4tTwUMWmS5Y3kaP6J2136iXr",
        "reception_time": "2022-01-17T11:33:57.239-00:00",
        "included_in_blocks":
          [ "BM6GZ89Aj3Vf14u1CKQ3BSu1J6T29CF5rRFjHJ3JtXcNG7FF1fs" ] },
      { "delegate": "tz3RKYFsLuQzKBtmYuLNas7uMu3AsYd4QdsA",
        "reception_time": "2022-01-17T11:33:57.264-00:00",
        "included_in_blocks":
          [ "BM6GZ89Aj3Vf14u1CKQ3BSu1J6T29CF5rRFjHJ3JtXcNG7FF1fs" ] },
      { "delegate": "tz3S6BBeKgJGXxvLyZ1xzXzMPn11nnFtq5L9",
        "reception_time": "2022-01-17T11:33:57.275-00:00",
        "included_in_blocks":
          [ "BM6GZ89Aj3Vf14u1CKQ3BSu1J6T29CF5rRFjHJ3JtXcNG7FF1fs" ] },
      { "delegate": "tz1PMWrbSda1RvsRi8Xq7GRd3P7739jtyaM8",
        "reception_time": "2022-01-17T11:33:57.291-00:00",
        "included_in_blocks":
          [ "BM6GZ89Aj3Vf14u1CKQ3BSu1J6T29CF5rRFjHJ3JtXcNG7FF1fs" ] },
      { "delegate": "tz3QT9dHYKDqh563chVa6za8526ys1UKfRfL",
        "reception_time": "2022-01-17T11:33:57.303-00:00",
        "included_in_blocks":
          [ "BM6GZ89Aj3Vf14u1CKQ3BSu1J6T29CF5rRFjHJ3JtXcNG7FF1fs" ] },
      { "delegate": "tz3hw2kqXhLUvY65ca1eety2oQTpAvd34R9Q",
        "reception_time": "2022-01-17T11:33:57.355-00:00",
        "included_in_blocks":
          [ "BM6GZ89Aj3Vf14u1CKQ3BSu1J6T29CF5rRFjHJ3JtXcNG7FF1fs" ] },
      { "delegate": "tz1cSj7fTex3JPd1p1LN1fwek6AV1kH93Wwc",
        "reception_time": "2022-01-17T11:33:57.358-00:00",
        "included_in_blocks":
          [ "BM6GZ89Aj3Vf14u1CKQ3BSu1J6T29CF5rRFjHJ3JtXcNG7FF1fs" ] },
      { "delegate": "tz1WnfXMPaNTBmH7DBPwqCWs9cPDJdkGBTZ8",
        "reception_time": "2022-01-17T11:33:57.520-00:00",
        "included_in_blocks":
          [ "BM6GZ89Aj3Vf14u1CKQ3BSu1J6T29CF5rRFjHJ3JtXcNG7FF1fs" ] },
      { "delegate": "tz1V4qCyvPKZ5UeqdH14HN42rxvNPQfc9UZg",
        "reception_time": "2022-01-17T11:33:57.653-00:00",
        "included_in_blocks":
          [ "BM6GZ89Aj3Vf14u1CKQ3BSu1J6T29CF5rRFjHJ3JtXcNG7FF1fs" ] },
      { "delegate": "tz1gfArv665EUkSg2ojMBzcbfwuPxAvqPvjo",
        "reception_time": "2022-01-17T11:33:57.657-00:00",
        "included_in_blocks":
          [ "BM6GZ89Aj3Vf14u1CKQ3BSu1J6T29CF5rRFjHJ3JtXcNG7FF1fs" ] },
      { "delegate": "tz1fPKAtsYydh4f1wfWNfeNxWYu72TmM48fu",
        "reception_time": "2022-01-17T11:33:57.723-00:00",
        "included_in_blocks":
          [ "BM6GZ89Aj3Vf14u1CKQ3BSu1J6T29CF5rRFjHJ3JtXcNG7FF1fs" ] },
      { "delegate": "tz3bvNMQ95vfAYtG8193ymshqjSvmxiCUuR5",
        "reception_time": "2022-01-17T11:33:57.738-00:00",
        "included_in_blocks":
          [ "BM6GZ89Aj3Vf14u1CKQ3BSu1J6T29CF5rRFjHJ3JtXcNG7FF1fs" ] },
      { "delegate": "tz3bTdwZinP8U1JmSweNzVKhmwafqWmFWRfk",
        "reception_time": "2022-01-17T11:33:57.782-00:00",
        "included_in_blocks":
          [ "BM6GZ89Aj3Vf14u1CKQ3BSu1J6T29CF5rRFjHJ3JtXcNG7FF1fs" ] },
      { "delegate": "tz1S8MNvuFEUsWgjHvi3AxibRBf388NhT1q2",
        "reception_time": "2022-01-17T11:33:57.849-00:00",
        "included_in_blocks":
          [ "BM6GZ89Aj3Vf14u1CKQ3BSu1J6T29CF5rRFjHJ3JtXcNG7FF1fs" ] },
      { "delegate": "tz1Nf6tsK4G6bBqgSQERy4nUtkHNKUVdh7q1",
        "reception_time": "2022-01-17T11:33:57.855-00:00",
        "included_in_blocks":
          [ "BM6GZ89Aj3Vf14u1CKQ3BSu1J6T29CF5rRFjHJ3JtXcNG7FF1fs" ] },
      { "delegate": "tz3RB4aoyjov4KEVRbuhvQ1CKJgBJMWhaeB8",
        "reception_time": "2022-01-17T11:33:57.952-00:00",
        "included_in_blocks":
          [ "BM6GZ89Aj3Vf14u1CKQ3BSu1J6T29CF5rRFjHJ3JtXcNG7FF1fs" ] },
      { "delegate": "tz2FCNBrERXtaTtNX6iimR1UJ5JSDxvdHM93",
        "reception_time": "2022-01-17T11:33:58.080-00:00",
        "included_in_blocks":
          [ "BM6GZ89Aj3Vf14u1CKQ3BSu1J6T29CF5rRFjHJ3JtXcNG7FF1fs" ] },
      { "delegate": "tz1NortRftucvAkD1J58L32EhSVrQEWJCEnB",
        "reception_time": "2022-01-17T11:33:58.091-00:00",
        "included_in_blocks":
          [ "BM6GZ89Aj3Vf14u1CKQ3BSu1J6T29CF5rRFjHJ3JtXcNG7FF1fs" ] },
      { "delegate": "tz1KfEsrtDaA1sX7vdM4qmEPWuSytuqCDp5j",
        "reception_time": "2022-01-17T11:33:58.199-00:00",
        "included_in_blocks":
          [ "BM6GZ89Aj3Vf14u1CKQ3BSu1J6T29CF5rRFjHJ3JtXcNG7FF1fs" ] },
      { "delegate": "tz1RpeqCseogMpCPXpyGjhmLH9i9DhqJ8cUR",
        "reception_time": "2022-01-17T11:33:58.208-00:00",
        "included_in_blocks":
          [ "BM6GZ89Aj3Vf14u1CKQ3BSu1J6T29CF5rRFjHJ3JtXcNG7FF1fs" ] },
      { "delegate": "tz1ei4WtWEMEJekSv8qDnu9PExG6Q8HgRGr3",
        "reception_time": "2022-01-17T11:33:58.239-00:00",
        "included_in_blocks":
          [ "BM6GZ89Aj3Vf14u1CKQ3BSu1J6T29CF5rRFjHJ3JtXcNG7FF1fs" ] },
      { "delegate": "tz1PeZx7FXy7QRuMREGXGxeipb24RsMMzUNe",
        "reception_time": "2022-01-17T11:33:58.275-00:00",
        "included_in_blocks":
          [ "BM6GZ89Aj3Vf14u1CKQ3BSu1J6T29CF5rRFjHJ3JtXcNG7FF1fs" ] },
      { "delegate": "tz1NMNQYrYrfNpmUqQrMhJypf6ovnaDZhJHM",
        "reception_time": "2022-01-17T11:33:58.369-00:00",
        "included_in_blocks":
          [ "BM6GZ89Aj3Vf14u1CKQ3BSu1J6T29CF5rRFjHJ3JtXcNG7FF1fs" ] },
      { "delegate": "tz1RCFbB9GpALpsZtu6J58sb74dm8qe6XBzv",
        "reception_time": "2022-01-17T11:33:58.563-00:00",
        "included_in_blocks":
          [ "BM6GZ89Aj3Vf14u1CKQ3BSu1J6T29CF5rRFjHJ3JtXcNG7FF1fs" ] },
      { "delegate": "tz1abmz7jiCV2GH2u81LRrGgAFFgvQgiDiaf",
        "reception_time": "2022-01-17T11:33:58.576-00:00",
        "included_in_blocks":
          [ "BM6GZ89Aj3Vf14u1CKQ3BSu1J6T29CF5rRFjHJ3JtXcNG7FF1fs" ] },
      { "delegate": "tz1bxVgPCiveFHSand7zn22S8ZBtvNQbqgqU",
        "reception_time": "2022-01-17T11:33:58.603-00:00",
        "included_in_blocks":
          [ "BM6GZ89Aj3Vf14u1CKQ3BSu1J6T29CF5rRFjHJ3JtXcNG7FF1fs" ] },
      { "delegate": "tz1TRqbYbUf2GyrjErf3hBzgBJPzW8y36qEs",
        "reception_time": "2022-01-17T11:33:58.621-00:00",
        "included_in_blocks":
          [ "BM6GZ89Aj3Vf14u1CKQ3BSu1J6T29CF5rRFjHJ3JtXcNG7FF1fs" ] },
      { "delegate": "tz1NEKxGEHsFufk87CVZcrqWu8o22qh46GK6",
        "reception_time": "2022-01-17T11:33:58.742-00:00",
        "included_in_blocks":
          [ "BM6GZ89Aj3Vf14u1CKQ3BSu1J6T29CF5rRFjHJ3JtXcNG7FF1fs" ] },
      { "delegate": "tz1aRoaRhSpRYvFdyvgWLL6TGyRoGF51wDjM",
        "reception_time": "2022-01-17T11:33:59.013-00:00",
        "included_in_blocks":
          [ "BM6GZ89Aj3Vf14u1CKQ3BSu1J6T29CF5rRFjHJ3JtXcNG7FF1fs" ] },
      { "delegate": "tz1T7duV5gZWSTq4YpBGbXNLTfznCLDrFxvs",
        "reception_time": "2022-01-17T11:33:59.094-00:00",
        "included_in_blocks":
          [ "BM6GZ89Aj3Vf14u1CKQ3BSu1J6T29CF5rRFjHJ3JtXcNG7FF1fs" ] },
      { "delegate": "tz1UvkANVPWppVgMkLnvN7BwYZsCP7vm6NVd",
        "reception_time": "2022-01-17T11:33:59.115-00:00",
        "included_in_blocks":
          [ "BM6GZ89Aj3Vf14u1CKQ3BSu1J6T29CF5rRFjHJ3JtXcNG7FF1fs" ] },
      { "delegate": "tz3RDC3Jdn4j15J7bBHZd29EUee9gVB1CxD9",
        "reception_time": "2022-01-17T11:33:59.160-00:00",
        "included_in_blocks":
          [ "BM6GZ89Aj3Vf14u1CKQ3BSu1J6T29CF5rRFjHJ3JtXcNG7FF1fs" ] },
      { "delegate": "tz1dRKU4FQ9QRRQPdaH4zCR6gmCmXfcvcgtB",
        "reception_time": "2022-01-17T11:33:59.220-00:00",
        "included_in_blocks":
          [ "BM6GZ89Aj3Vf14u1CKQ3BSu1J6T29CF5rRFjHJ3JtXcNG7FF1fs" ] },
      { "delegate": "tz3VEZ4k6a4Wx42iyev6i2aVAptTRLEAivNN",
        "reception_time": "2022-01-17T11:33:59.273-00:00",
        "included_in_blocks":
          [ "BM6GZ89Aj3Vf14u1CKQ3BSu1J6T29CF5rRFjHJ3JtXcNG7FF1fs" ] },
      { "delegate": "tz3gLTu4Yxj8tPAcriQVUdxv6BY9QyvzU1az",
        "reception_time": "2022-01-17T11:33:59.318-00:00",
        "included_in_blocks":
          [ "BM6GZ89Aj3Vf14u1CKQ3BSu1J6T29CF5rRFjHJ3JtXcNG7FF1fs" ] },
      { "delegate": "tz3NDpRj6WBrJPikcPVHRBEjWKxFw3c6eQPS",
        "reception_time": "2022-01-17T11:33:59.340-00:00",
        "included_in_blocks":
          [ "BM6GZ89Aj3Vf14u1CKQ3BSu1J6T29CF5rRFjHJ3JtXcNG7FF1fs" ] },
      { "delegate": "tz1ZcTRk5uxD86EFEn1vvNffWWqJy7q5eVhc",
        "reception_time": "2022-01-17T11:33:59.819-00:00",
        "included_in_blocks":
          [ "BM6GZ89Aj3Vf14u1CKQ3BSu1J6T29CF5rRFjHJ3JtXcNG7FF1fs" ] },
      { "delegate": "tz3UoffC7FG7zfpmvmjUmUeAaHvzdcUvAj6r",
        "reception_time": "2022-01-17T11:33:59.947-00:00",
        "included_in_blocks":
          [ "BM6GZ89Aj3Vf14u1CKQ3BSu1J6T29CF5rRFjHJ3JtXcNG7FF1fs" ] },
      { "delegate": "tz1bTpviNnyx2PXsNmGpCQTMQsGoYordkUoA",
        "reception_time": "2022-01-17T11:33:59.989-00:00",
        "included_in_blocks":
          [ "BM6GZ89Aj3Vf14u1CKQ3BSu1J6T29CF5rRFjHJ3JtXcNG7FF1fs" ] },
      { "delegate": "tz1TcH4Nb3aHNDJ7CGZhU7jgAK1BkSP4Lxds",
        "reception_time": "2022-01-17T11:34:00.104-00:00",
        "included_in_blocks":
          [ "BM6GZ89Aj3Vf14u1CKQ3BSu1J6T29CF5rRFjHJ3JtXcNG7FF1fs" ] },
      { "delegate": "tz1SYq214SCBy9naR6cvycQsYcUGpBqQAE8d",
        "reception_time": "2022-01-17T11:34:00.159-00:00",
        "included_in_blocks":
          [ "BM6GZ89Aj3Vf14u1CKQ3BSu1J6T29CF5rRFjHJ3JtXcNG7FF1fs" ] },
      { "delegate": "tz3NExpXn9aPNZPorRE4SdjJ2RGrfbJgMAaV",
        "reception_time": "2022-01-17T11:34:00.236-00:00",
        "included_in_blocks":
          [ "BM6GZ89Aj3Vf14u1CKQ3BSu1J6T29CF5rRFjHJ3JtXcNG7FF1fs" ] },
      { "delegate": "tz3WMqdzXqRWXwyvj5Hp2H7QEepaUuS7vd9K",
        "reception_time": "2022-01-17T11:34:00.477-00:00",
        "included_in_blocks":
          [ "BM6GZ89Aj3Vf14u1CKQ3BSu1J6T29CF5rRFjHJ3JtXcNG7FF1fs" ] },
      { "delegate": "tz1W5VkdB5s7ENMESVBtwyt9kyvLqPcUczRT",
        "reception_time": "2022-01-17T11:34:00.924-00:00",
        "included_in_blocks":
          [ "BM6GZ89Aj3Vf14u1CKQ3BSu1J6T29CF5rRFjHJ3JtXcNG7FF1fs" ] },
      { "delegate": "tz1eVaNx3gCmG1EsLjijkmgAxdLYVf6Bf5Sq",
        "reception_time": "2022-01-17T11:34:01.066-00:00",
        "included_in_blocks":
          [ "BM6GZ89Aj3Vf14u1CKQ3BSu1J6T29CF5rRFjHJ3JtXcNG7FF1fs" ] },
      { "delegate": "tz1cYufsxHXJcvANhvS55h3aY32a9BAFB494",
        "reception_time": "2022-01-17T11:34:02.951-00:00",
        "included_in_blocks":
          [ "BM6GZ89Aj3Vf14u1CKQ3BSu1J6T29CF5rRFjHJ3JtXcNG7FF1fs" ] },
      { "delegate": "tz1NpWrAyDL9k2Lmnyxcgr9xuJakbBxdq7FB",
        "reception_time": "2022-01-17T11:34:04.078-00:00",
        "included_in_blocks":
          [ "BM6GZ89Aj3Vf14u1CKQ3BSu1J6T29CF5rRFjHJ3JtXcNG7FF1fs" ] },
      { "delegate": "tz3e7LbZvUtoXhpUD1yb6wuFodZpfYRb9nWJ",
        "reception_time": "2022-01-17T11:34:05.792-00:00",
        "included_in_blocks":
          [ "BM6GZ89Aj3Vf14u1CKQ3BSu1J6T29CF5rRFjHJ3JtXcNG7FF1fs" ] },
      { "delegate": "tz1ZLKMBbvgMFbSUnsddKFtUFav29fEB4mkx",
        "reception_time": "2022-01-17T11:34:07.069-00:00",
        "included_in_blocks":
          [ "BM6GZ89Aj3Vf14u1CKQ3BSu1J6T29CF5rRFjHJ3JtXcNG7FF1fs" ] },
      { "delegate": "tz2BzJTyoQp8fNbfhWD4YQgH9JJHDgSGzpdG",
        "reception_time": "2022-01-17T11:34:08.939-00:00",
        "included_in_blocks":
          [ "BM6GZ89Aj3Vf14u1CKQ3BSu1J6T29CF5rRFjHJ3JtXcNG7FF1fs" ] } ] }