{ "blocks":
    [ { "hash": "BLkXhoykuyPv3sGZgyAaPa2R6hsagLVrJ2385BNpJfzFXBVmpgA",
        "delegate": "tz3RKYFsLuQzKBtmYuLNas7uMu3AsYd4QdsA",
        "reception_time": "2022-01-17T09:36:46.234-00:00",
        "timestamp": "2022-01-17T09:36:40Z" } ],
  "endorsements":
    [ { "delegate": "tz1LLNkQK4UQV6QcFShiXJ2vT2ELw449MzAA",
        "reception_time": "2022-01-17T09:36:45.732-00:00",
        "errors":
          [ { "kind": "temporary",
              "id": "proto.011-PtHangz2.prefilter.outdated_endorsement" } ],
        "included_in_blocks":
          [ "BM8gMPSRAaZMFvS5FKiL3oTVhQxUisZxjNaq5AxWzyjJqf1DnoD" ] },
      { "delegate": "tz1TXzyaKUA8wsWefdSnyaYFnV2M3vCV7er9",
        "reception_time": "2022-01-17T09:36:45.716-00:00",
        "errors":
          [ { "kind": "temporary",
              "id": "proto.011-PtHangz2.prefilter.outdated_endorsement" } ],
        "included_in_blocks":
          [ "BM8gMPSRAaZMFvS5FKiL3oTVhQxUisZxjNaq5AxWzyjJqf1DnoD" ] },
      { "delegate": "tz1eEnQhbwf6trb8Q8mPb2RaPkNk2rN7BKi8",
        "reception_time": "2022-01-17T09:36:45.654-00:00",
        "errors":
          [ { "kind": "temporary",
              "id": "proto.011-PtHangz2.prefilter.outdated_endorsement" } ],
        "included_in_blocks":
          [ "BM8gMPSRAaZMFvS5FKiL3oTVhQxUisZxjNaq5AxWzyjJqf1DnoD" ] },
      { "delegate": "tz1P2Po7YM526ughEsRbY4oR9zaUPDZjxFrb",
        "reception_time": "2022-01-17T09:36:45.532-00:00",
        "errors":
          [ { "kind": "temporary",
              "id": "proto.011-PtHangz2.prefilter.outdated_endorsement" } ],
        "included_in_blocks":
          [ "BM8gMPSRAaZMFvS5FKiL3oTVhQxUisZxjNaq5AxWzyjJqf1DnoD" ] },
      { "delegate": "tz1S8e9GgdZG78XJRB3NqabfWeM37GnhZMWQ",
        "reception_time": "2022-01-17T09:36:45.188-00:00",
        "errors":
          [ { "kind": "temporary",
              "id": "proto.011-PtHangz2.prefilter.outdated_endorsement" } ],
        "included_in_blocks":
          [ "BM8gMPSRAaZMFvS5FKiL3oTVhQxUisZxjNaq5AxWzyjJqf1DnoD" ] },
      { "delegate": "tz1NdhRv643wLW6zCcRP3VfT24dvDnh7nuh9" },
      { "delegate": "tz1awXW7wuXy21c66vBudMXQVAPgRnqqwgTH" },
      { "delegate": "tz1irJKkXS2DBWkU1NnmFQx1c1L7pbGg4yhk",
        "reception_time": "2022-01-17T09:36:47.208-00:00",
        "included_in_blocks":
          [ "BM8gMPSRAaZMFvS5FKiL3oTVhQxUisZxjNaq5AxWzyjJqf1DnoD" ] },
      { "delegate": "tz3RKYFsLuQzKBtmYuLNas7uMu3AsYd4QdsA",
        "reception_time": "2022-01-17T09:36:47.229-00:00",
        "included_in_blocks":
          [ "BM8gMPSRAaZMFvS5FKiL3oTVhQxUisZxjNaq5AxWzyjJqf1DnoD" ] },
      { "delegate": "tz3hw2kqXhLUvY65ca1eety2oQTpAvd34R9Q",
        "reception_time": "2022-01-17T09:36:47.246-00:00",
        "included_in_blocks":
          [ "BM8gMPSRAaZMFvS5FKiL3oTVhQxUisZxjNaq5AxWzyjJqf1DnoD" ] },
      { "delegate": "tz1gcna2xxZj2eNp1LaMyAhVJ49mEFj4FH26",
        "reception_time": "2022-01-17T09:36:47.258-00:00",
        "included_in_blocks":
          [ "BM8gMPSRAaZMFvS5FKiL3oTVhQxUisZxjNaq5AxWzyjJqf1DnoD" ] },
      { "delegate": "tz1Kt4P8BCaP93AEV4eA7gmpRryWt5hznjCP",
        "reception_time": "2022-01-17T09:36:47.268-00:00",
        "included_in_blocks":
          [ "BM8gMPSRAaZMFvS5FKiL3oTVhQxUisZxjNaq5AxWzyjJqf1DnoD" ] },
      { "delegate": "tz1QLXqnfN51dkjeghXvKHkJfhvGiM5gK4tc",
        "reception_time": "2022-01-17T09:36:47.268-00:00",
        "included_in_blocks":
          [ "BM8gMPSRAaZMFvS5FKiL3oTVhQxUisZxjNaq5AxWzyjJqf1DnoD" ] },
      { "delegate": "tz1VQnqCCqX4K5sP3FNkVSNKTdCAMJDd3E1n",
        "reception_time": "2022-01-17T09:36:47.273-00:00",
        "included_in_blocks":
          [ "BM8gMPSRAaZMFvS5FKiL3oTVhQxUisZxjNaq5AxWzyjJqf1DnoD" ] },
      { "delegate": "tz1PMWrbSda1RvsRi8Xq7GRd3P7739jtyaM8",
        "reception_time": "2022-01-17T09:36:47.301-00:00",
        "included_in_blocks":
          [ "BM8gMPSRAaZMFvS5FKiL3oTVhQxUisZxjNaq5AxWzyjJqf1DnoD" ] },
      { "delegate": "tz3ZbP2pM3nwvXztbuMJwJnDvV5xdpU8UkkD",
        "reception_time": "2022-01-17T09:36:47.324-00:00",
        "included_in_blocks":
          [ "BM8gMPSRAaZMFvS5FKiL3oTVhQxUisZxjNaq5AxWzyjJqf1DnoD" ] },
      { "delegate": "tz1Ldzz6k1BHdhuKvAtMRX7h5kJSMHESMHLC",
        "reception_time": "2022-01-17T09:36:47.336-00:00",
        "included_in_blocks":
          [ "BM8gMPSRAaZMFvS5FKiL3oTVhQxUisZxjNaq5AxWzyjJqf1DnoD" ] },
      { "delegate": "tz1WnfXMPaNTBmH7DBPwqCWs9cPDJdkGBTZ8",
        "reception_time": "2022-01-17T09:36:47.346-00:00",
        "included_in_blocks":
          [ "BM8gMPSRAaZMFvS5FKiL3oTVhQxUisZxjNaq5AxWzyjJqf1DnoD" ] },
      { "delegate": "tz1Kf25fX1VdmYGSEzwFy1wNmkbSEZ2V83sY",
        "reception_time": "2022-01-17T09:36:47.352-00:00",
        "included_in_blocks":
          [ "BM8gMPSRAaZMFvS5FKiL3oTVhQxUisZxjNaq5AxWzyjJqf1DnoD" ] },
      { "delegate": "tz3gtoUxdudfBRcNY7iVdKPHCYYX6xdPpoRS",
        "reception_time": "2022-01-17T09:36:47.374-00:00",
        "included_in_blocks":
          [ "BM8gMPSRAaZMFvS5FKiL3oTVhQxUisZxjNaq5AxWzyjJqf1DnoD" ] },
      { "delegate": "tz3QT9dHYKDqh563chVa6za8526ys1UKfRfL",
        "reception_time": "2022-01-17T09:36:47.384-00:00",
        "included_in_blocks":
          [ "BM8gMPSRAaZMFvS5FKiL3oTVhQxUisZxjNaq5AxWzyjJqf1DnoD" ] },
      { "delegate": "tz1gUNyn3hmnEWqkusWPzxRaon1cs7ndWh7h",
        "reception_time": "2022-01-17T09:36:47.388-00:00",
        "included_in_blocks":
          [ "BM8gMPSRAaZMFvS5FKiL3oTVhQxUisZxjNaq5AxWzyjJqf1DnoD" ] },
      { "delegate": "tz1aXD7Jigrt3PBYSpHSg5Rr33SexMmmM5Ys",
        "reception_time": "2022-01-17T09:36:47.395-00:00",
        "included_in_blocks":
          [ "BM8gMPSRAaZMFvS5FKiL3oTVhQxUisZxjNaq5AxWzyjJqf1DnoD" ] },
      { "delegate": "tz3NxTnke1acr8o3h5y9ytf5awQBGNJUKzVU",
        "reception_time": "2022-01-17T09:36:47.409-00:00",
        "included_in_blocks":
          [ "BM8gMPSRAaZMFvS5FKiL3oTVhQxUisZxjNaq5AxWzyjJqf1DnoD" ] },
      { "delegate": "tz3QSGPoRp3Kn7n3vY24eYeu3Peuqo45LQ4D",
        "reception_time": "2022-01-17T09:36:47.419-00:00",
        "included_in_blocks":
          [ "BM8gMPSRAaZMFvS5FKiL3oTVhQxUisZxjNaq5AxWzyjJqf1DnoD" ] },
      { "delegate": "tz1WCd2jm4uSt4vntk4vSuUWoZQGhLcDuR9q",
        "reception_time": "2022-01-17T09:36:47.424-00:00",
        "included_in_blocks":
          [ "BM8gMPSRAaZMFvS5FKiL3oTVhQxUisZxjNaq5AxWzyjJqf1DnoD" ] },
      { "delegate": "tz3adcvQaKXTCg12zbninqo3q8ptKKtDFTLv",
        "reception_time": "2022-01-17T09:36:47.432-00:00",
        "included_in_blocks":
          [ "BM8gMPSRAaZMFvS5FKiL3oTVhQxUisZxjNaq5AxWzyjJqf1DnoD" ] },
      { "delegate": "tz1h4GUAMweP7SNWzDgvMk3yRCAZyaP1MxZq",
        "reception_time": "2022-01-17T09:36:47.457-00:00",
        "included_in_blocks":
          [ "BM8gMPSRAaZMFvS5FKiL3oTVhQxUisZxjNaq5AxWzyjJqf1DnoD" ] },
      { "delegate": "tz1MQMiZHV8q4tTwUMWmS5Y3kaP6J2136iXr",
        "reception_time": "2022-01-17T09:36:47.509-00:00",
        "included_in_blocks":
          [ "BM8gMPSRAaZMFvS5FKiL3oTVhQxUisZxjNaq5AxWzyjJqf1DnoD" ] },
      { "delegate": "tz1RCFbB9GpALpsZtu6J58sb74dm8qe6XBzv",
        "reception_time": "2022-01-17T09:36:47.522-00:00",
        "included_in_blocks":
          [ "BM8gMPSRAaZMFvS5FKiL3oTVhQxUisZxjNaq5AxWzyjJqf1DnoD" ] },
      { "delegate": "tz1PWCDnz783NNGGQjEFFsHtrcK5yBW4E2rm",
        "reception_time": "2022-01-17T09:36:47.526-00:00",
        "included_in_blocks":
          [ "BM8gMPSRAaZMFvS5FKiL3oTVhQxUisZxjNaq5AxWzyjJqf1DnoD" ] },
      { "delegate": "tz1fPKAtsYydh4f1wfWNfeNxWYu72TmM48fu",
        "reception_time": "2022-01-17T09:36:47.538-00:00",
        "included_in_blocks":
          [ "BM8gMPSRAaZMFvS5FKiL3oTVhQxUisZxjNaq5AxWzyjJqf1DnoD" ] },
      { "delegate": "tz3iJu5vrKZcsqRPs8yJ61UDoeEXZmtro4qh",
        "reception_time": "2022-01-17T09:36:47.576-00:00",
        "included_in_blocks":
          [ "BM8gMPSRAaZMFvS5FKiL3oTVhQxUisZxjNaq5AxWzyjJqf1DnoD" ] },
      { "delegate": "tz1d6Fx42mYgVFnHUW8T8A7WBfJ6nD9pVok8",
        "reception_time": "2022-01-17T09:36:47.641-00:00",
        "included_in_blocks":
          [ "BM8gMPSRAaZMFvS5FKiL3oTVhQxUisZxjNaq5AxWzyjJqf1DnoD" ] },
      { "delegate": "tz1gfArv665EUkSg2ojMBzcbfwuPxAvqPvjo",
        "reception_time": "2022-01-17T09:36:47.668-00:00",
        "included_in_blocks":
          [ "BM8gMPSRAaZMFvS5FKiL3oTVhQxUisZxjNaq5AxWzyjJqf1DnoD" ] },
      { "delegate": "tz3Zhs2dygr55yHyQyKjntAtY9bgfhLZ4Xj1",
        "reception_time": "2022-01-17T09:36:47.697-00:00",
        "included_in_blocks":
          [ "BM8gMPSRAaZMFvS5FKiL3oTVhQxUisZxjNaq5AxWzyjJqf1DnoD" ] },
      { "delegate": "tz1TRqbYbUf2GyrjErf3hBzgBJPzW8y36qEs",
        "reception_time": "2022-01-17T09:36:47.792-00:00",
        "included_in_blocks":
          [ "BM8gMPSRAaZMFvS5FKiL3oTVhQxUisZxjNaq5AxWzyjJqf1DnoD" ] },
      { "delegate": "tz1S8MNvuFEUsWgjHvi3AxibRBf388NhT1q2",
        "reception_time": "2022-01-17T09:36:47.979-00:00",
        "included_in_blocks":
          [ "BM8gMPSRAaZMFvS5FKiL3oTVhQxUisZxjNaq5AxWzyjJqf1DnoD" ] },
      { "delegate": "tz1dNVDWPf3Q59SdJqnjdnu277iyvReiRS9M",
        "reception_time": "2022-01-17T09:36:48.029-00:00",
        "included_in_blocks":
          [ "BM8gMPSRAaZMFvS5FKiL3oTVhQxUisZxjNaq5AxWzyjJqf1DnoD" ] },
      { "delegate": "tz1a3T5mRR1XWM1JgydvAqxEwpNs7ktVZuXc",
        "reception_time": "2022-01-17T09:36:48.063-00:00",
        "included_in_blocks":
          [ "BM8gMPSRAaZMFvS5FKiL3oTVhQxUisZxjNaq5AxWzyjJqf1DnoD" ] },
      { "delegate": "tz1Nf6tsK4G6bBqgSQERy4nUtkHNKUVdh7q1",
        "reception_time": "2022-01-17T09:36:48.107-00:00",
        "included_in_blocks":
          [ "BM8gMPSRAaZMFvS5FKiL3oTVhQxUisZxjNaq5AxWzyjJqf1DnoD" ] },
      { "delegate": "tz1Tnjaxk6tbAeC2TmMApPh8UsrEVQvhHvx5",
        "reception_time": "2022-01-17T09:36:48.142-00:00",
        "included_in_blocks":
          [ "BM8gMPSRAaZMFvS5FKiL3oTVhQxUisZxjNaq5AxWzyjJqf1DnoD" ] },
      { "delegate": "tz1WctSwL49BZtdWAQ75NY6vr4xsAx6oKdah",
        "reception_time": "2022-01-17T09:36:48.203-00:00",
        "included_in_blocks":
          [ "BM8gMPSRAaZMFvS5FKiL3oTVhQxUisZxjNaq5AxWzyjJqf1DnoD" ] },
      { "delegate": "tz3bTdwZinP8U1JmSweNzVKhmwafqWmFWRfk",
        "reception_time": "2022-01-17T09:36:48.246-00:00",
        "included_in_blocks":
          [ "BM8gMPSRAaZMFvS5FKiL3oTVhQxUisZxjNaq5AxWzyjJqf1DnoD" ] },
      { "delegate": "tz1MQJPGNMijnXnVoBENFz9rUhaPt3S7rWoz",
        "reception_time": "2022-01-17T09:36:48.268-00:00",
        "included_in_blocks":
          [ "BM8gMPSRAaZMFvS5FKiL3oTVhQxUisZxjNaq5AxWzyjJqf1DnoD" ] },
      { "delegate": "tz3RB4aoyjov4KEVRbuhvQ1CKJgBJMWhaeB8",
        "reception_time": "2022-01-17T09:36:48.277-00:00",
        "included_in_blocks":
          [ "BM8gMPSRAaZMFvS5FKiL3oTVhQxUisZxjNaq5AxWzyjJqf1DnoD" ] },
      { "delegate": "tz1V4qCyvPKZ5UeqdH14HN42rxvNPQfc9UZg",
        "reception_time": "2022-01-17T09:36:48.306-00:00",
        "included_in_blocks":
          [ "BM8gMPSRAaZMFvS5FKiL3oTVhQxUisZxjNaq5AxWzyjJqf1DnoD" ] },
      { "delegate": "tz1WBfwbT66FC6BTLexc2BoyCCBM9LG7pnVW",
        "reception_time": "2022-01-17T09:36:48.382-00:00",
        "included_in_blocks":
          [ "BM8gMPSRAaZMFvS5FKiL3oTVhQxUisZxjNaq5AxWzyjJqf1DnoD" ] },
      { "delegate": "tz1LmaFsWRkjr7QMCx5PtV6xTUz3AmEpKQiF",
        "reception_time": "2022-01-17T09:36:48.581-00:00",
        "included_in_blocks":
          [ "BM8gMPSRAaZMFvS5FKiL3oTVhQxUisZxjNaq5AxWzyjJqf1DnoD" ] },
      { "delegate": "tz1axcnVN9tZnCe4sQQhC6f3tfSEXdjPaXPY",
        "reception_time": "2022-01-17T09:36:48.611-00:00",
        "included_in_blocks":
          [ "BM8gMPSRAaZMFvS5FKiL3oTVhQxUisZxjNaq5AxWzyjJqf1DnoD" ] },
      { "delegate": "tz1ei4WtWEMEJekSv8qDnu9PExG6Q8HgRGr3",
        "reception_time": "2022-01-17T09:36:48.669-00:00",
        "included_in_blocks":
          [ "BM8gMPSRAaZMFvS5FKiL3oTVhQxUisZxjNaq5AxWzyjJqf1DnoD" ] },
      { "delegate": "tz1SohptP53wDPZhzTWzDUFAUcWF6DMBpaJV",
        "reception_time": "2022-01-17T09:36:48.736-00:00",
        "included_in_blocks":
          [ "BM8gMPSRAaZMFvS5FKiL3oTVhQxUisZxjNaq5AxWzyjJqf1DnoD" ] },
      { "delegate": "tz1SYq214SCBy9naR6cvycQsYcUGpBqQAE8d",
        "reception_time": "2022-01-17T09:36:48.847-00:00",
        "included_in_blocks":
          [ "BM8gMPSRAaZMFvS5FKiL3oTVhQxUisZxjNaq5AxWzyjJqf1DnoD" ] },
      { "delegate": "tz3S6BBeKgJGXxvLyZ1xzXzMPn11nnFtq5L9",
        "reception_time": "2022-01-17T09:36:48.867-00:00",
        "included_in_blocks":
          [ "BM8gMPSRAaZMFvS5FKiL3oTVhQxUisZxjNaq5AxWzyjJqf1DnoD" ] },
      { "delegate": "tz1g8vkmcde6sWKaG2NN9WKzCkDM6Rziq194",
        "reception_time": "2022-01-17T09:36:48.886-00:00",
        "included_in_blocks":
          [ "BM8gMPSRAaZMFvS5FKiL3oTVhQxUisZxjNaq5AxWzyjJqf1DnoD" ] },
      { "delegate": "tz1NEKxGEHsFufk87CVZcrqWu8o22qh46GK6",
        "reception_time": "2022-01-17T09:36:48.886-00:00",
        "included_in_blocks":
          [ "BM8gMPSRAaZMFvS5FKiL3oTVhQxUisZxjNaq5AxWzyjJqf1DnoD" ] },
      { "delegate": "tz1UMCB2AHSTwG7YcGNr31CqYCtGN873royv",
        "reception_time": "2022-01-17T09:36:48.904-00:00",
        "included_in_blocks":
          [ "BM8gMPSRAaZMFvS5FKiL3oTVhQxUisZxjNaq5AxWzyjJqf1DnoD" ] },
      { "delegate": "tz2FCNBrERXtaTtNX6iimR1UJ5JSDxvdHM93",
        "reception_time": "2022-01-17T09:36:48.959-00:00",
        "included_in_blocks":
          [ "BM8gMPSRAaZMFvS5FKiL3oTVhQxUisZxjNaq5AxWzyjJqf1DnoD" ] },
      { "delegate": "tz1aRoaRhSpRYvFdyvgWLL6TGyRoGF51wDjM",
        "reception_time": "2022-01-17T09:36:48.965-00:00",
        "included_in_blocks":
          [ "BM8gMPSRAaZMFvS5FKiL3oTVhQxUisZxjNaq5AxWzyjJqf1DnoD" ] },
      { "delegate": "tz1PeZx7FXy7QRuMREGXGxeipb24RsMMzUNe",
        "reception_time": "2022-01-17T09:36:49.006-00:00",
        "included_in_blocks":
          [ "BM8gMPSRAaZMFvS5FKiL3oTVhQxUisZxjNaq5AxWzyjJqf1DnoD" ] },
      { "delegate": "tz3VEZ4k6a4Wx42iyev6i2aVAptTRLEAivNN",
        "reception_time": "2022-01-17T09:36:49.038-00:00",
        "included_in_blocks":
          [ "BM8gMPSRAaZMFvS5FKiL3oTVhQxUisZxjNaq5AxWzyjJqf1DnoD" ] },
      { "delegate": "tz3NDpRj6WBrJPikcPVHRBEjWKxFw3c6eQPS",
        "reception_time": "2022-01-17T09:36:49.104-00:00",
        "included_in_blocks":
          [ "BM8gMPSRAaZMFvS5FKiL3oTVhQxUisZxjNaq5AxWzyjJqf1DnoD" ] },
      { "delegate": "tz3WMqdzXqRWXwyvj5Hp2H7QEepaUuS7vd9K",
        "reception_time": "2022-01-17T09:36:49.221-00:00",
        "included_in_blocks":
          [ "BM8gMPSRAaZMFvS5FKiL3oTVhQxUisZxjNaq5AxWzyjJqf1DnoD" ] },
      { "delegate": "tz3RDC3Jdn4j15J7bBHZd29EUee9gVB1CxD9",
        "reception_time": "2022-01-17T09:36:49.230-00:00",
        "included_in_blocks":
          [ "BM8gMPSRAaZMFvS5FKiL3oTVhQxUisZxjNaq5AxWzyjJqf1DnoD" ] },
      { "delegate": "tz1fJHFn6sWEd3NnBPngACuw2dggTv6nQZ7g",
        "reception_time": "2022-01-17T09:36:49.278-00:00",
        "included_in_blocks":
          [ "BM8gMPSRAaZMFvS5FKiL3oTVhQxUisZxjNaq5AxWzyjJqf1DnoD" ] },
      { "delegate": "tz1dRKU4FQ9QRRQPdaH4zCR6gmCmXfcvcgtB",
        "reception_time": "2022-01-17T09:36:49.317-00:00",
        "included_in_blocks":
          [ "BM8gMPSRAaZMFvS5FKiL3oTVhQxUisZxjNaq5AxWzyjJqf1DnoD" ] },
      { "delegate": "tz3bvNMQ95vfAYtG8193ymshqjSvmxiCUuR5",
        "reception_time": "2022-01-17T09:36:49.346-00:00",
        "included_in_blocks":
          [ "BM8gMPSRAaZMFvS5FKiL3oTVhQxUisZxjNaq5AxWzyjJqf1DnoD" ] },
      { "delegate": "tz1T7duV5gZWSTq4YpBGbXNLTfznCLDrFxvs",
        "reception_time": "2022-01-17T09:36:49.388-00:00",
        "included_in_blocks":
          [ "BM8gMPSRAaZMFvS5FKiL3oTVhQxUisZxjNaq5AxWzyjJqf1DnoD" ] },
      { "delegate": "tz3UoffC7FG7zfpmvmjUmUeAaHvzdcUvAj6r",
        "reception_time": "2022-01-17T09:36:49.534-00:00",
        "included_in_blocks":
          [ "BM8gMPSRAaZMFvS5FKiL3oTVhQxUisZxjNaq5AxWzyjJqf1DnoD" ] },
      { "delegate": "tz3NExpXn9aPNZPorRE4SdjJ2RGrfbJgMAaV",
        "reception_time": "2022-01-17T09:36:49.571-00:00",
        "included_in_blocks":
          [ "BM8gMPSRAaZMFvS5FKiL3oTVhQxUisZxjNaq5AxWzyjJqf1DnoD" ] },
      { "delegate": "tz1Xsrfv6hn86fp88YfRs6xcKwt2nTqxVZYM",
        "reception_time": "2022-01-17T09:36:49.597-00:00",
        "included_in_blocks":
          [ "BM8gMPSRAaZMFvS5FKiL3oTVhQxUisZxjNaq5AxWzyjJqf1DnoD" ] },
      { "delegate": "tz1PFeoTuFen8jAMRHajBySNyCwLmY5RqF9M",
        "reception_time": "2022-01-17T09:36:49.678-00:00",
        "included_in_blocks":
          [ "BM8gMPSRAaZMFvS5FKiL3oTVhQxUisZxjNaq5AxWzyjJqf1DnoD" ] },
      { "delegate": "tz1eVaNx3gCmG1EsLjijkmgAxdLYVf6Bf5Sq",
        "reception_time": "2022-01-17T09:36:50.939-00:00",
        "included_in_blocks":
          [ "BM8gMPSRAaZMFvS5FKiL3oTVhQxUisZxjNaq5AxWzyjJqf1DnoD" ] } ] }