{ "blocks":
    [ { "hash": "BKwfzNbajFp9XFjCSQEmV5rbq8beAHAEAM3efdJLJVeU1NSkU1U",
        "delegate": "tz1iPHM2Xx2hwmzcr1EG1zzrV6oKafVoA91m",
        "reception_time": "2022-01-17T17:22:50.670-00:00",
        "timestamp": "2022-01-17T17:22:40Z" } ],
  "endorsements":
    [ { "delegate": "tz1RV1MBbZMR68tacosb7Mwj6LkbPSUS1er1",
        "reception_time": "2022-01-17T17:22:49.770-00:00",
        "errors":
          [ { "kind": "temporary",
              "id": "proto.011-PtHangz2.prefilter.outdated_endorsement" } ],
        "included_in_blocks":
          [ "BMUM2y2APf3TzWeWnas26Vvrfr2DxQaAQ7E5tPuFS9g7w7QBwBh" ] },
      { "delegate": "tz1Zhv3RkfU2pHrmaiDyxp7kFZpZrUCu1CiF",
        "reception_time": "2022-01-17T17:22:49.700-00:00",
        "errors":
          [ { "kind": "temporary",
              "id": "proto.011-PtHangz2.prefilter.outdated_endorsement" } ],
        "included_in_blocks":
          [ "BMUM2y2APf3TzWeWnas26Vvrfr2DxQaAQ7E5tPuFS9g7w7QBwBh" ] },
      { "delegate": "tz1Lhf4J9Qxoe3DZ2nfe8FGDnvVj7oKjnMY6",
        "reception_time": "2022-01-17T17:22:49.635-00:00",
        "errors":
          [ { "kind": "temporary",
              "id": "proto.011-PtHangz2.prefilter.outdated_endorsement" } ],
        "included_in_blocks":
          [ "BMUM2y2APf3TzWeWnas26Vvrfr2DxQaAQ7E5tPuFS9g7w7QBwBh" ] },
      { "delegate": "tz1P2Po7YM526ughEsRbY4oR9zaUPDZjxFrb",
        "reception_time": "2022-01-17T17:22:49.228-00:00",
        "errors":
          [ { "kind": "temporary",
              "id": "proto.011-PtHangz2.prefilter.outdated_endorsement" } ],
        "included_in_blocks":
          [ "BMUM2y2APf3TzWeWnas26Vvrfr2DxQaAQ7E5tPuFS9g7w7QBwBh" ] },
      { "delegate": "tz1S8e9GgdZG78XJRB3NqabfWeM37GnhZMWQ",
        "reception_time": "2022-01-17T17:22:49.162-00:00",
        "errors":
          [ { "kind": "temporary",
              "id": "proto.011-PtHangz2.prefilter.outdated_endorsement" } ],
        "included_in_blocks":
          [ "BMUM2y2APf3TzWeWnas26Vvrfr2DxQaAQ7E5tPuFS9g7w7QBwBh" ] },
      { "delegate": "tz1Kt4P8BCaP93AEV4eA7gmpRryWt5hznjCP",
        "reception_time": "2022-01-17T17:22:51.501-00:00",
        "included_in_blocks":
          [ "BMUM2y2APf3TzWeWnas26Vvrfr2DxQaAQ7E5tPuFS9g7w7QBwBh" ] },
      { "delegate": "tz1QLXqnfN51dkjeghXvKHkJfhvGiM5gK4tc",
        "reception_time": "2022-01-17T17:22:51.501-00:00",
        "included_in_blocks":
          [ "BMUM2y2APf3TzWeWnas26Vvrfr2DxQaAQ7E5tPuFS9g7w7QBwBh" ] },
      { "delegate": "tz1MXFrtZoaXckE41bjUCSjAjAap3AFDSr3N",
        "reception_time": "2022-01-17T17:22:51.755-00:00",
        "included_in_blocks":
          [ "BMUM2y2APf3TzWeWnas26Vvrfr2DxQaAQ7E5tPuFS9g7w7QBwBh" ] },
      { "delegate": "tz3hw2kqXhLUvY65ca1eety2oQTpAvd34R9Q",
        "reception_time": "2022-01-17T17:22:51.767-00:00",
        "included_in_blocks":
          [ "BMUM2y2APf3TzWeWnas26Vvrfr2DxQaAQ7E5tPuFS9g7w7QBwBh" ] },
      { "delegate": "tz1MQMiZHV8q4tTwUMWmS5Y3kaP6J2136iXr",
        "reception_time": "2022-01-17T17:22:51.767-00:00",
        "included_in_blocks":
          [ "BMUM2y2APf3TzWeWnas26Vvrfr2DxQaAQ7E5tPuFS9g7w7QBwBh" ] },
      { "delegate": "tz1irJKkXS2DBWkU1NnmFQx1c1L7pbGg4yhk",
        "reception_time": "2022-01-17T17:22:51.786-00:00",
        "included_in_blocks":
          [ "BMUM2y2APf3TzWeWnas26Vvrfr2DxQaAQ7E5tPuFS9g7w7QBwBh" ] },
      { "delegate": "tz1dbfppLAAxXZNtf2SDps7rch3qfUznKSoK",
        "reception_time": "2022-01-17T17:22:51.786-00:00",
        "included_in_blocks":
          [ "BMUM2y2APf3TzWeWnas26Vvrfr2DxQaAQ7E5tPuFS9g7w7QBwBh" ] },
      { "delegate": "tz1gUNyn3hmnEWqkusWPzxRaon1cs7ndWh7h",
        "reception_time": "2022-01-17T17:22:51.786-00:00",
        "included_in_blocks":
          [ "BMUM2y2APf3TzWeWnas26Vvrfr2DxQaAQ7E5tPuFS9g7w7QBwBh" ] },
      { "delegate": "tz1VmiY38m3y95HqQLjMwqnMS7sdMfGomzKi",
        "reception_time": "2022-01-17T17:22:51.786-00:00",
        "included_in_blocks":
          [ "BMUM2y2APf3TzWeWnas26Vvrfr2DxQaAQ7E5tPuFS9g7w7QBwBh" ] },
      { "delegate": "tz1TRspM5SeZpaQUhzByXbEvqKF1vnCM2YTK",
        "reception_time": "2022-01-17T17:22:51.797-00:00",
        "included_in_blocks":
          [ "BMUM2y2APf3TzWeWnas26Vvrfr2DxQaAQ7E5tPuFS9g7w7QBwBh" ] },
      { "delegate": "tz1VQnqCCqX4K5sP3FNkVSNKTdCAMJDd3E1n",
        "reception_time": "2022-01-17T17:22:51.805-00:00",
        "included_in_blocks":
          [ "BMUM2y2APf3TzWeWnas26Vvrfr2DxQaAQ7E5tPuFS9g7w7QBwBh" ] },
      { "delegate": "tz1Ldzz6k1BHdhuKvAtMRX7h5kJSMHESMHLC",
        "reception_time": "2022-01-17T17:22:51.809-00:00",
        "included_in_blocks":
          [ "BMUM2y2APf3TzWeWnas26Vvrfr2DxQaAQ7E5tPuFS9g7w7QBwBh" ] },
      { "delegate": "tz1eEnQhbwf6trb8Q8mPb2RaPkNk2rN7BKi8",
        "reception_time": "2022-01-17T17:22:51.813-00:00",
        "included_in_blocks":
          [ "BMUM2y2APf3TzWeWnas26Vvrfr2DxQaAQ7E5tPuFS9g7w7QBwBh" ] },
      { "delegate": "tz1aDiEJf9ztRrAJEXZfcG3CKimoKsGhwVAi",
        "reception_time": "2022-01-17T17:22:51.816-00:00",
        "included_in_blocks":
          [ "BMUM2y2APf3TzWeWnas26Vvrfr2DxQaAQ7E5tPuFS9g7w7QBwBh" ] },
      { "delegate": "tz1PWCDnz783NNGGQjEFFsHtrcK5yBW4E2rm",
        "reception_time": "2022-01-17T17:22:51.822-00:00",
        "included_in_blocks":
          [ "BMUM2y2APf3TzWeWnas26Vvrfr2DxQaAQ7E5tPuFS9g7w7QBwBh" ] },
      { "delegate": "tz3Zhs2dygr55yHyQyKjntAtY9bgfhLZ4Xj1",
        "reception_time": "2022-01-17T17:22:51.849-00:00",
        "included_in_blocks":
          [ "BMUM2y2APf3TzWeWnas26Vvrfr2DxQaAQ7E5tPuFS9g7w7QBwBh" ] },
      { "delegate": "tz1Nf6tsK4G6bBqgSQERy4nUtkHNKUVdh7q1",
        "reception_time": "2022-01-17T17:22:51.849-00:00",
        "included_in_blocks":
          [ "BMUM2y2APf3TzWeWnas26Vvrfr2DxQaAQ7E5tPuFS9g7w7QBwBh" ] },
      { "delegate": "tz3RKYFsLuQzKBtmYuLNas7uMu3AsYd4QdsA",
        "reception_time": "2022-01-17T17:22:51.860-00:00",
        "included_in_blocks":
          [ "BMUM2y2APf3TzWeWnas26Vvrfr2DxQaAQ7E5tPuFS9g7w7QBwBh" ] },
      { "delegate": "tz3NxTnke1acr8o3h5y9ytf5awQBGNJUKzVU",
        "reception_time": "2022-01-17T17:22:51.866-00:00",
        "included_in_blocks":
          [ "BMUM2y2APf3TzWeWnas26Vvrfr2DxQaAQ7E5tPuFS9g7w7QBwBh" ] },
      { "delegate": "tz3ZbP2pM3nwvXztbuMJwJnDvV5xdpU8UkkD",
        "reception_time": "2022-01-17T17:22:51.897-00:00",
        "included_in_blocks":
          [ "BMUM2y2APf3TzWeWnas26Vvrfr2DxQaAQ7E5tPuFS9g7w7QBwBh" ] },
      { "delegate": "tz3QSGPoRp3Kn7n3vY24eYeu3Peuqo45LQ4D",
        "reception_time": "2022-01-17T17:22:51.911-00:00",
        "included_in_blocks":
          [ "BMUM2y2APf3TzWeWnas26Vvrfr2DxQaAQ7E5tPuFS9g7w7QBwBh" ] },
      { "delegate": "tz3gtoUxdudfBRcNY7iVdKPHCYYX6xdPpoRS",
        "reception_time": "2022-01-17T17:22:51.919-00:00",
        "included_in_blocks":
          [ "BMUM2y2APf3TzWeWnas26Vvrfr2DxQaAQ7E5tPuFS9g7w7QBwBh" ] },
      { "delegate": "tz1S8MNvuFEUsWgjHvi3AxibRBf388NhT1q2",
        "reception_time": "2022-01-17T17:22:51.928-00:00",
        "included_in_blocks":
          [ "BMUM2y2APf3TzWeWnas26Vvrfr2DxQaAQ7E5tPuFS9g7w7QBwBh" ] },
      { "delegate": "tz3iJu5vrKZcsqRPs8yJ61UDoeEXZmtro4qh",
        "reception_time": "2022-01-17T17:22:51.928-00:00",
        "included_in_blocks":
          [ "BMUM2y2APf3TzWeWnas26Vvrfr2DxQaAQ7E5tPuFS9g7w7QBwBh" ] },
      { "delegate": "tz3adcvQaKXTCg12zbninqo3q8ptKKtDFTLv",
        "reception_time": "2022-01-17T17:22:51.936-00:00",
        "included_in_blocks":
          [ "BMUM2y2APf3TzWeWnas26Vvrfr2DxQaAQ7E5tPuFS9g7w7QBwBh" ] },
      { "delegate": "tz3QT9dHYKDqh563chVa6za8526ys1UKfRfL",
        "reception_time": "2022-01-17T17:22:51.945-00:00",
        "included_in_blocks":
          [ "BMUM2y2APf3TzWeWnas26Vvrfr2DxQaAQ7E5tPuFS9g7w7QBwBh" ] },
      { "delegate": "tz3S6BBeKgJGXxvLyZ1xzXzMPn11nnFtq5L9",
        "reception_time": "2022-01-17T17:22:51.951-00:00",
        "included_in_blocks":
          [ "BMUM2y2APf3TzWeWnas26Vvrfr2DxQaAQ7E5tPuFS9g7w7QBwBh" ] },
      { "delegate": "tz1MJx9vhaNRSimcuXPK2rW4fLccQnDAnVKJ",
        "reception_time": "2022-01-17T17:22:51.961-00:00",
        "included_in_blocks":
          [ "BMUM2y2APf3TzWeWnas26Vvrfr2DxQaAQ7E5tPuFS9g7w7QBwBh" ] },
      { "delegate": "tz1ei4WtWEMEJekSv8qDnu9PExG6Q8HgRGr3",
        "reception_time": "2022-01-17T17:22:51.969-00:00",
        "included_in_blocks":
          [ "BMUM2y2APf3TzWeWnas26Vvrfr2DxQaAQ7E5tPuFS9g7w7QBwBh" ] },
      { "delegate": "tz1TXzyaKUA8wsWefdSnyaYFnV2M3vCV7er9",
        "reception_time": "2022-01-17T17:22:51.973-00:00",
        "included_in_blocks":
          [ "BMUM2y2APf3TzWeWnas26Vvrfr2DxQaAQ7E5tPuFS9g7w7QBwBh" ] },
      { "delegate": "tz1WBfwbT66FC6BTLexc2BoyCCBM9LG7pnVW",
        "reception_time": "2022-01-17T17:22:52.071-00:00",
        "included_in_blocks":
          [ "BMUM2y2APf3TzWeWnas26Vvrfr2DxQaAQ7E5tPuFS9g7w7QBwBh" ] },
      { "delegate": "tz1RCFbB9GpALpsZtu6J58sb74dm8qe6XBzv",
        "reception_time": "2022-01-17T17:22:52.075-00:00",
        "included_in_blocks":
          [ "BMUM2y2APf3TzWeWnas26Vvrfr2DxQaAQ7E5tPuFS9g7w7QBwBh" ] },
      { "delegate": "tz3bTdwZinP8U1JmSweNzVKhmwafqWmFWRfk",
        "reception_time": "2022-01-17T17:22:52.082-00:00",
        "included_in_blocks":
          [ "BMUM2y2APf3TzWeWnas26Vvrfr2DxQaAQ7E5tPuFS9g7w7QBwBh" ] },
      { "delegate": "tz1axcnVN9tZnCe4sQQhC6f3tfSEXdjPaXPY",
        "reception_time": "2022-01-17T17:22:52.087-00:00",
        "included_in_blocks":
          [ "BMUM2y2APf3TzWeWnas26Vvrfr2DxQaAQ7E5tPuFS9g7w7QBwBh" ] },
      { "delegate": "tz1NEKxGEHsFufk87CVZcrqWu8o22qh46GK6",
        "reception_time": "2022-01-17T17:22:52.097-00:00",
        "included_in_blocks":
          [ "BMUM2y2APf3TzWeWnas26Vvrfr2DxQaAQ7E5tPuFS9g7w7QBwBh" ] },
      { "delegate": "tz1LmaFsWRkjr7QMCx5PtV6xTUz3AmEpKQiF",
        "reception_time": "2022-01-17T17:22:52.118-00:00",
        "included_in_blocks":
          [ "BMUM2y2APf3TzWeWnas26Vvrfr2DxQaAQ7E5tPuFS9g7w7QBwBh" ] },
      { "delegate": "tz1gfArv665EUkSg2ojMBzcbfwuPxAvqPvjo",
        "reception_time": "2022-01-17T17:22:52.128-00:00",
        "included_in_blocks":
          [ "BMUM2y2APf3TzWeWnas26Vvrfr2DxQaAQ7E5tPuFS9g7w7QBwBh" ] },
      { "delegate": "tz2FCNBrERXtaTtNX6iimR1UJ5JSDxvdHM93",
        "reception_time": "2022-01-17T17:22:52.159-00:00",
        "included_in_blocks":
          [ "BMUM2y2APf3TzWeWnas26Vvrfr2DxQaAQ7E5tPuFS9g7w7QBwBh" ] },
      { "delegate": "tz3WMqdzXqRWXwyvj5Hp2H7QEepaUuS7vd9K",
        "reception_time": "2022-01-17T17:22:52.203-00:00",
        "included_in_blocks":
          [ "BMUM2y2APf3TzWeWnas26Vvrfr2DxQaAQ7E5tPuFS9g7w7QBwBh" ] },
      { "delegate": "tz1g8vkmcde6sWKaG2NN9WKzCkDM6Rziq194",
        "reception_time": "2022-01-17T17:22:52.320-00:00",
        "included_in_blocks":
          [ "BMUM2y2APf3TzWeWnas26Vvrfr2DxQaAQ7E5tPuFS9g7w7QBwBh" ] },
      { "delegate": "tz3bvNMQ95vfAYtG8193ymshqjSvmxiCUuR5",
        "reception_time": "2022-01-17T17:22:52.394-00:00",
        "included_in_blocks":
          [ "BMUM2y2APf3TzWeWnas26Vvrfr2DxQaAQ7E5tPuFS9g7w7QBwBh" ] },
      { "delegate": "tz3UoffC7FG7zfpmvmjUmUeAaHvzdcUvAj6r",
        "reception_time": "2022-01-17T17:22:52.412-00:00",
        "included_in_blocks":
          [ "BMUM2y2APf3TzWeWnas26Vvrfr2DxQaAQ7E5tPuFS9g7w7QBwBh" ] },
      { "delegate": "tz3VEZ4k6a4Wx42iyev6i2aVAptTRLEAivNN",
        "reception_time": "2022-01-17T17:22:52.436-00:00",
        "included_in_blocks":
          [ "BMUM2y2APf3TzWeWnas26Vvrfr2DxQaAQ7E5tPuFS9g7w7QBwBh" ] },
      { "delegate": "tz1dRKU4FQ9QRRQPdaH4zCR6gmCmXfcvcgtB",
        "reception_time": "2022-01-17T17:22:52.662-00:00",
        "included_in_blocks":
          [ "BMUM2y2APf3TzWeWnas26Vvrfr2DxQaAQ7E5tPuFS9g7w7QBwBh" ] },
      { "delegate": "tz1TRqbYbUf2GyrjErf3hBzgBJPzW8y36qEs",
        "reception_time": "2022-01-17T17:22:52.666-00:00",
        "included_in_blocks":
          [ "BMUM2y2APf3TzWeWnas26Vvrfr2DxQaAQ7E5tPuFS9g7w7QBwBh" ] },
      { "delegate": "tz1T7duV5gZWSTq4YpBGbXNLTfznCLDrFxvs",
        "reception_time": "2022-01-17T17:22:52.774-00:00",
        "included_in_blocks":
          [ "BMUM2y2APf3TzWeWnas26Vvrfr2DxQaAQ7E5tPuFS9g7w7QBwBh" ] },
      { "delegate": "tz1eLbDXYceRsPZoPmaJXZgQ6pzgnTQvZtpo",
        "reception_time": "2022-01-17T17:22:53.067-00:00",
        "included_in_blocks":
          [ "BMUM2y2APf3TzWeWnas26Vvrfr2DxQaAQ7E5tPuFS9g7w7QBwBh" ] },
      { "delegate": "tz3NExpXn9aPNZPorRE4SdjJ2RGrfbJgMAaV",
        "reception_time": "2022-01-17T17:22:53.203-00:00",
        "included_in_blocks":
          [ "BMUM2y2APf3TzWeWnas26Vvrfr2DxQaAQ7E5tPuFS9g7w7QBwBh" ] },
      { "delegate": "tz3RDC3Jdn4j15J7bBHZd29EUee9gVB1CxD9",
        "reception_time": "2022-01-17T17:22:53.213-00:00",
        "included_in_blocks":
          [ "BMUM2y2APf3TzWeWnas26Vvrfr2DxQaAQ7E5tPuFS9g7w7QBwBh" ] },
      { "delegate": "tz1aRoaRhSpRYvFdyvgWLL6TGyRoGF51wDjM",
        "reception_time": "2022-01-17T17:22:53.267-00:00",
        "included_in_blocks":
          [ "BMUM2y2APf3TzWeWnas26Vvrfr2DxQaAQ7E5tPuFS9g7w7QBwBh" ] },
      { "delegate": "tz1cYufsxHXJcvANhvS55h3aY32a9BAFB494",
        "reception_time": "2022-01-17T17:22:53.349-00:00",
        "included_in_blocks":
          [ "BMUM2y2APf3TzWeWnas26Vvrfr2DxQaAQ7E5tPuFS9g7w7QBwBh" ] },
      { "delegate": "tz1W5VkdB5s7ENMESVBtwyt9kyvLqPcUczRT",
        "reception_time": "2022-01-17T17:22:55.432-00:00",
        "included_in_blocks":
          [ "BMUM2y2APf3TzWeWnas26Vvrfr2DxQaAQ7E5tPuFS9g7w7QBwBh" ] },
      { "delegate": "tz1SYq214SCBy9naR6cvycQsYcUGpBqQAE8d",
        "reception_time": "2022-01-17T17:22:55.673-00:00",
        "included_in_blocks":
          [ "BMUM2y2APf3TzWeWnas26Vvrfr2DxQaAQ7E5tPuFS9g7w7QBwBh" ] },
      { "delegate": "tz1Uoy4PdQDDiHRRec77pJEQJ21tSyksarur",
        "reception_time": "2022-01-17T17:22:55.784-00:00",
        "included_in_blocks":
          [ "BMUM2y2APf3TzWeWnas26Vvrfr2DxQaAQ7E5tPuFS9g7w7QBwBh" ] },
      { "delegate": "tz1ZdSQibskQwRdiaFUh7RUVm1Z6xudMedoj",
        "reception_time": "2022-01-17T17:22:56.051-00:00",
        "included_in_blocks":
          [ "BMUM2y2APf3TzWeWnas26Vvrfr2DxQaAQ7E5tPuFS9g7w7QBwBh" ] },
      { "delegate": "tz3bEQoFCZEEfZMskefZ8q8e4eiHH1pssRax",
        "reception_time": "2022-01-17T17:22:57.421-00:00",
        "included_in_blocks":
          [ "BMUM2y2APf3TzWeWnas26Vvrfr2DxQaAQ7E5tPuFS9g7w7QBwBh" ] },
      { "delegate": "tz3e7LbZvUtoXhpUD1yb6wuFodZpfYRb9nWJ",
        "reception_time": "2022-01-17T17:23:00.070-00:00",
        "included_in_blocks":
          [ "BMUM2y2APf3TzWeWnas26Vvrfr2DxQaAQ7E5tPuFS9g7w7QBwBh" ] },
      { "delegate": "tz1ZLKMBbvgMFbSUnsddKFtUFav29fEB4mkx",
        "reception_time": "2022-01-17T17:23:01.319-00:00",
        "included_in_blocks":
          [ "BMUM2y2APf3TzWeWnas26Vvrfr2DxQaAQ7E5tPuFS9g7w7QBwBh" ] } ] }