{ "blocks":
    [ { "hash": "BLnWEsgnBmdzA3qMNYDtrESMwgeLcLe423SYs4nKcTo1Tpog88N",
        "delegate": "tz1Tnjaxk6tbAeC2TmMApPh8UsrEVQvhHvx5",
        "reception_time": "2022-01-17T17:07:38.785-00:00",
        "timestamp": "2022-01-17T17:07:30Z" } ],
  "endorsements":
    [ { "delegate": "tz1fUyqYH7H4pRHN1roWY17giXhy1RvxjgUV" },
      { "delegate": "tz1V3yg82mcrPJbegqVCPn6bC8w1CSTRp3f8" },
      { "delegate": "tz1RjoHc98dBoqaH2jawF62XNKh7YsHwbkEv" },
      { "delegate": "tz1TXzyaKUA8wsWefdSnyaYFnV2M3vCV7er9",
        "reception_time": "2022-01-17T17:07:38.656-00:00",
        "errors":
          [ { "kind": "temporary",
              "id": "proto.011-PtHangz2.prefilter.outdated_endorsement" } ],
        "included_in_blocks":
          [ "BLdHvMoA3HndLGJoJN1fRzwTCFQswQRptFjURk12Yarrjhkw5pJ" ] },
      { "delegate": "tz1Kf25fX1VdmYGSEzwFy1wNmkbSEZ2V83sY",
        "reception_time": "2022-01-17T17:07:38.583-00:00",
        "errors":
          [ { "kind": "temporary",
              "id": "proto.011-PtHangz2.prefilter.outdated_endorsement" } ],
        "included_in_blocks":
          [ "BLdHvMoA3HndLGJoJN1fRzwTCFQswQRptFjURk12Yarrjhkw5pJ" ] },
      { "delegate": "tz1Scdr2HsZiQjc7bHMeBbmDRXYVvdhjJbBh",
        "reception_time": "2022-01-17T17:07:38.568-00:00",
        "errors":
          [ { "kind": "temporary",
              "id": "proto.011-PtHangz2.prefilter.outdated_endorsement" } ],
        "included_in_blocks":
          [ "BLdHvMoA3HndLGJoJN1fRzwTCFQswQRptFjURk12Yarrjhkw5pJ" ] },
      { "delegate": "tz1MXFrtZoaXckE41bjUCSjAjAap3AFDSr3N",
        "reception_time": "2022-01-17T17:07:38.522-00:00",
        "errors":
          [ { "kind": "temporary",
              "id": "proto.011-PtHangz2.prefilter.outdated_endorsement" } ],
        "included_in_blocks":
          [ "BLdHvMoA3HndLGJoJN1fRzwTCFQswQRptFjURk12Yarrjhkw5pJ" ] },
      { "delegate": "tz1beersuEDv8Z7ngQ825xfbaJNS2EhXnyHR",
        "reception_time": "2022-01-17T17:07:38.511-00:00",
        "errors":
          [ { "kind": "temporary",
              "id": "proto.011-PtHangz2.prefilter.outdated_endorsement" } ],
        "included_in_blocks":
          [ "BLdHvMoA3HndLGJoJN1fRzwTCFQswQRptFjURk12Yarrjhkw5pJ" ] },
      { "delegate": "tz1P2Po7YM526ughEsRbY4oR9zaUPDZjxFrb",
        "reception_time": "2022-01-17T17:07:38.383-00:00",
        "errors":
          [ { "kind": "temporary",
              "id": "proto.011-PtHangz2.prefilter.outdated_endorsement" } ],
        "included_in_blocks":
          [ "BLdHvMoA3HndLGJoJN1fRzwTCFQswQRptFjURk12Yarrjhkw5pJ" ] },
      { "delegate": "tz1Zhv3RkfU2pHrmaiDyxp7kFZpZrUCu1CiF",
        "reception_time": "2022-01-17T17:07:38.371-00:00",
        "errors":
          [ { "kind": "temporary",
              "id": "proto.011-PtHangz2.prefilter.outdated_endorsement" } ],
        "included_in_blocks":
          [ "BLdHvMoA3HndLGJoJN1fRzwTCFQswQRptFjURk12Yarrjhkw5pJ" ] },
      { "delegate": "tz1Lhf4J9Qxoe3DZ2nfe8FGDnvVj7oKjnMY6",
        "reception_time": "2022-01-17T17:07:38.368-00:00",
        "errors":
          [ { "kind": "temporary",
              "id": "proto.011-PtHangz2.prefilter.outdated_endorsement" } ],
        "included_in_blocks":
          [ "BLdHvMoA3HndLGJoJN1fRzwTCFQswQRptFjURk12Yarrjhkw5pJ" ] },
      { "delegate": "tz1XXayQohB8XRXN7kMoHbf2NFwNiH3oMRQQ",
        "reception_time": "2022-01-17T17:07:38.318-00:00",
        "errors":
          [ { "kind": "temporary",
              "id": "proto.011-PtHangz2.prefilter.outdated_endorsement" } ],
        "included_in_blocks":
          [ "BLdHvMoA3HndLGJoJN1fRzwTCFQswQRptFjURk12Yarrjhkw5pJ" ] },
      { "delegate": "tz1S8e9GgdZG78XJRB3NqabfWeM37GnhZMWQ",
        "reception_time": "2022-01-17T17:07:37.960-00:00",
        "errors":
          [ { "kind": "temporary",
              "id": "proto.011-PtHangz2.prefilter.outdated_endorsement" } ],
        "included_in_blocks":
          [ "BLdHvMoA3HndLGJoJN1fRzwTCFQswQRptFjURk12Yarrjhkw5pJ" ] },
      { "delegate": "tz1NpWrAyDL9k2Lmnyxcgr9xuJakbBxdq7FB",
        "reception_time": "2022-01-17T17:07:54.596-00:00",
        "included_in_blocks":
          [ "BLdHvMoA3HndLGJoJN1fRzwTCFQswQRptFjURk12Yarrjhkw5pJ" ] },
      { "delegate": "tz1ZcTRk5uxD86EFEn1vvNffWWqJy7q5eVhc",
        "reception_time": "2022-01-17T17:07:42.304-00:00",
        "included_in_blocks":
          [ "BLdHvMoA3HndLGJoJN1fRzwTCFQswQRptFjURk12Yarrjhkw5pJ" ] },
      { "delegate": "tz1aRoaRhSpRYvFdyvgWLL6TGyRoGF51wDjM",
        "reception_time": "2022-01-17T17:07:42.424-00:00",
        "included_in_blocks":
          [ "BLdHvMoA3HndLGJoJN1fRzwTCFQswQRptFjURk12Yarrjhkw5pJ" ] },
      { "delegate": "tz3NDpRj6WBrJPikcPVHRBEjWKxFw3c6eQPS",
        "reception_time": "2022-01-17T17:07:42.093-00:00",
        "included_in_blocks":
          [ "BLdHvMoA3HndLGJoJN1fRzwTCFQswQRptFjURk12Yarrjhkw5pJ" ] },
      { "delegate": "tz1NoYvKjXTzTk54VpLxBfouJ33J8jwKPPvw",
        "reception_time": "2022-01-17T17:07:41.707-00:00",
        "included_in_blocks":
          [ "BLdHvMoA3HndLGJoJN1fRzwTCFQswQRptFjURk12Yarrjhkw5pJ" ] },
      { "delegate": "tz1T7duV5gZWSTq4YpBGbXNLTfznCLDrFxvs",
        "reception_time": "2022-01-17T17:07:41.406-00:00",
        "included_in_blocks":
          [ "BLdHvMoA3HndLGJoJN1fRzwTCFQswQRptFjURk12Yarrjhkw5pJ" ] },
      { "delegate": "tz1TcH4Nb3aHNDJ7CGZhU7jgAK1BkSP4Lxds",
        "reception_time": "2022-01-17T17:07:42.055-00:00",
        "included_in_blocks":
          [ "BLdHvMoA3HndLGJoJN1fRzwTCFQswQRptFjURk12Yarrjhkw5pJ" ] },
      { "delegate": "tz1PeZx7FXy7QRuMREGXGxeipb24RsMMzUNe",
        "reception_time": "2022-01-17T17:07:41.320-00:00",
        "included_in_blocks":
          [ "BLdHvMoA3HndLGJoJN1fRzwTCFQswQRptFjURk12Yarrjhkw5pJ" ] },
      { "delegate": "tz2FCNBrERXtaTtNX6iimR1UJ5JSDxvdHM93",
        "reception_time": "2022-01-17T17:07:41.275-00:00",
        "included_in_blocks":
          [ "BLdHvMoA3HndLGJoJN1fRzwTCFQswQRptFjURk12Yarrjhkw5pJ" ] },
      { "delegate": "tz1TRqbYbUf2GyrjErf3hBzgBJPzW8y36qEs",
        "reception_time": "2022-01-17T17:07:41.335-00:00",
        "included_in_blocks":
          [ "BLdHvMoA3HndLGJoJN1fRzwTCFQswQRptFjURk12Yarrjhkw5pJ" ] },
      { "delegate": "tz1SYq214SCBy9naR6cvycQsYcUGpBqQAE8d",
        "reception_time": "2022-01-17T17:07:41.128-00:00",
        "included_in_blocks":
          [ "BLdHvMoA3HndLGJoJN1fRzwTCFQswQRptFjURk12Yarrjhkw5pJ" ] },
      { "delegate": "tz3NExpXn9aPNZPorRE4SdjJ2RGrfbJgMAaV",
        "reception_time": "2022-01-17T17:07:42.275-00:00",
        "included_in_blocks":
          [ "BLdHvMoA3HndLGJoJN1fRzwTCFQswQRptFjURk12Yarrjhkw5pJ" ] },
      { "delegate": "tz1WctSwL49BZtdWAQ75NY6vr4xsAx6oKdah",
        "reception_time": "2022-01-17T17:07:40.940-00:00",
        "included_in_blocks":
          [ "BLdHvMoA3HndLGJoJN1fRzwTCFQswQRptFjURk12Yarrjhkw5pJ" ] },
      { "delegate": "tz1NEKxGEHsFufk87CVZcrqWu8o22qh46GK6",
        "reception_time": "2022-01-17T17:07:41.065-00:00",
        "included_in_blocks":
          [ "BLdHvMoA3HndLGJoJN1fRzwTCFQswQRptFjURk12Yarrjhkw5pJ" ] },
      { "delegate": "tz3bvNMQ95vfAYtG8193ymshqjSvmxiCUuR5",
        "reception_time": "2022-01-17T17:07:40.751-00:00",
        "included_in_blocks":
          [ "BLdHvMoA3HndLGJoJN1fRzwTCFQswQRptFjURk12Yarrjhkw5pJ" ] },
      { "delegate": "tz3VEZ4k6a4Wx42iyev6i2aVAptTRLEAivNN",
        "reception_time": "2022-01-17T17:07:41.666-00:00",
        "included_in_blocks":
          [ "BLdHvMoA3HndLGJoJN1fRzwTCFQswQRptFjURk12Yarrjhkw5pJ" ] },
      { "delegate": "tz1KfEsrtDaA1sX7vdM4qmEPWuSytuqCDp5j",
        "reception_time": "2022-01-17T17:07:41.157-00:00",
        "included_in_blocks":
          [ "BLdHvMoA3HndLGJoJN1fRzwTCFQswQRptFjURk12Yarrjhkw5pJ" ] },
      { "delegate": "tz3RDC3Jdn4j15J7bBHZd29EUee9gVB1CxD9",
        "reception_time": "2022-01-17T17:07:40.512-00:00",
        "included_in_blocks":
          [ "BLdHvMoA3HndLGJoJN1fRzwTCFQswQRptFjURk12Yarrjhkw5pJ" ] },
      { "delegate": "tz3bTdwZinP8U1JmSweNzVKhmwafqWmFWRfk",
        "reception_time": "2022-01-17T17:07:40.440-00:00",
        "included_in_blocks":
          [ "BLdHvMoA3HndLGJoJN1fRzwTCFQswQRptFjURk12Yarrjhkw5pJ" ] },
      { "delegate": "tz1NSDFKuRyzHxpfG1AMkyCwEiZ52cbR2mRW",
        "reception_time": "2022-01-17T17:07:40.474-00:00",
        "included_in_blocks":
          [ "BLdHvMoA3HndLGJoJN1fRzwTCFQswQRptFjURk12Yarrjhkw5pJ" ] },
      { "delegate": "tz1NortRftucvAkD1J58L32EhSVrQEWJCEnB",
        "reception_time": "2022-01-17T17:07:40.292-00:00",
        "included_in_blocks":
          [ "BLdHvMoA3HndLGJoJN1fRzwTCFQswQRptFjURk12Yarrjhkw5pJ" ] },
      { "delegate": "tz1Nf6tsK4G6bBqgSQERy4nUtkHNKUVdh7q1",
        "reception_time": "2022-01-17T17:07:40.885-00:00",
        "included_in_blocks":
          [ "BLdHvMoA3HndLGJoJN1fRzwTCFQswQRptFjURk12Yarrjhkw5pJ" ] },
      { "delegate": "tz1abmz7jiCV2GH2u81LRrGgAFFgvQgiDiaf",
        "reception_time": "2022-01-17T17:07:40.350-00:00",
        "included_in_blocks":
          [ "BLdHvMoA3HndLGJoJN1fRzwTCFQswQRptFjURk12Yarrjhkw5pJ" ] },
      { "delegate": "tz1a1J3AGjJTAyBqWWSqFuUazUDV2TtD6hMy",
        "reception_time": "2022-01-17T17:07:40.896-00:00",
        "included_in_blocks":
          [ "BLdHvMoA3HndLGJoJN1fRzwTCFQswQRptFjURk12Yarrjhkw5pJ" ] },
      { "delegate": "tz3RB4aoyjov4KEVRbuhvQ1CKJgBJMWhaeB8",
        "reception_time": "2022-01-17T17:07:40.289-00:00",
        "included_in_blocks":
          [ "BLdHvMoA3HndLGJoJN1fRzwTCFQswQRptFjURk12Yarrjhkw5pJ" ] },
      { "delegate": "tz3gtoUxdudfBRcNY7iVdKPHCYYX6xdPpoRS",
        "reception_time": "2022-01-17T17:07:40.163-00:00",
        "included_in_blocks":
          [ "BLdHvMoA3HndLGJoJN1fRzwTCFQswQRptFjURk12Yarrjhkw5pJ" ] },
      { "delegate": "tz3UoffC7FG7zfpmvmjUmUeAaHvzdcUvAj6r",
        "reception_time": "2022-01-17T17:07:41.083-00:00",
        "included_in_blocks":
          [ "BLdHvMoA3HndLGJoJN1fRzwTCFQswQRptFjURk12Yarrjhkw5pJ" ] },
      { "delegate": "tz3QSGPoRp3Kn7n3vY24eYeu3Peuqo45LQ4D",
        "reception_time": "2022-01-17T17:07:40.127-00:00",
        "included_in_blocks":
          [ "BLdHvMoA3HndLGJoJN1fRzwTCFQswQRptFjURk12Yarrjhkw5pJ" ] },
      { "delegate": "tz3iJu5vrKZcsqRPs8yJ61UDoeEXZmtro4qh",
        "reception_time": "2022-01-17T17:07:39.935-00:00",
        "included_in_blocks":
          [ "BLdHvMoA3HndLGJoJN1fRzwTCFQswQRptFjURk12Yarrjhkw5pJ" ] },
      { "delegate": "tz3Zhs2dygr55yHyQyKjntAtY9bgfhLZ4Xj1",
        "reception_time": "2022-01-17T17:07:39.906-00:00",
        "included_in_blocks":
          [ "BLdHvMoA3HndLGJoJN1fRzwTCFQswQRptFjURk12Yarrjhkw5pJ" ] },
      { "delegate": "tz3S6BBeKgJGXxvLyZ1xzXzMPn11nnFtq5L9",
        "reception_time": "2022-01-17T17:07:39.964-00:00",
        "included_in_blocks":
          [ "BLdHvMoA3HndLGJoJN1fRzwTCFQswQRptFjURk12Yarrjhkw5pJ" ] },
      { "delegate": "tz3QT9dHYKDqh563chVa6za8526ys1UKfRfL",
        "reception_time": "2022-01-17T17:07:40.019-00:00",
        "included_in_blocks":
          [ "BLdHvMoA3HndLGJoJN1fRzwTCFQswQRptFjURk12Yarrjhkw5pJ" ] },
      { "delegate": "tz3RKYFsLuQzKBtmYuLNas7uMu3AsYd4QdsA",
        "reception_time": "2022-01-17T17:07:39.906-00:00",
        "included_in_blocks":
          [ "BLdHvMoA3HndLGJoJN1fRzwTCFQswQRptFjURk12Yarrjhkw5pJ" ] },
      { "delegate": "tz1UJvHTgpVzcKWhTazGxVcn5wsHru5Gietg",
        "reception_time": "2022-01-17T17:07:39.906-00:00",
        "included_in_blocks":
          [ "BLdHvMoA3HndLGJoJN1fRzwTCFQswQRptFjURk12Yarrjhkw5pJ" ] },
      { "delegate": "tz1WCd2jm4uSt4vntk4vSuUWoZQGhLcDuR9q",
        "reception_time": "2022-01-17T17:07:39.906-00:00",
        "included_in_blocks":
          [ "BLdHvMoA3HndLGJoJN1fRzwTCFQswQRptFjURk12Yarrjhkw5pJ" ] },
      { "delegate": "tz1Tnjaxk6tbAeC2TmMApPh8UsrEVQvhHvx5",
        "reception_time": "2022-01-17T17:07:40.042-00:00",
        "included_in_blocks":
          [ "BLdHvMoA3HndLGJoJN1fRzwTCFQswQRptFjURk12Yarrjhkw5pJ" ] },
      { "delegate": "tz3hw2kqXhLUvY65ca1eety2oQTpAvd34R9Q",
        "reception_time": "2022-01-17T17:07:39.906-00:00",
        "included_in_blocks":
          [ "BLdHvMoA3HndLGJoJN1fRzwTCFQswQRptFjURk12Yarrjhkw5pJ" ] },
      { "delegate": "tz3WMqdzXqRWXwyvj5Hp2H7QEepaUuS7vd9K",
        "reception_time": "2022-01-17T17:07:40.211-00:00",
        "included_in_blocks":
          [ "BLdHvMoA3HndLGJoJN1fRzwTCFQswQRptFjURk12Yarrjhkw5pJ" ] },
      { "delegate": "tz3NxTnke1acr8o3h5y9ytf5awQBGNJUKzVU",
        "reception_time": "2022-01-17T17:07:39.906-00:00",
        "included_in_blocks":
          [ "BLdHvMoA3HndLGJoJN1fRzwTCFQswQRptFjURk12Yarrjhkw5pJ" ] },
      { "delegate": "tz3ZbP2pM3nwvXztbuMJwJnDvV5xdpU8UkkD",
        "reception_time": "2022-01-17T17:07:39.906-00:00",
        "included_in_blocks":
          [ "BLdHvMoA3HndLGJoJN1fRzwTCFQswQRptFjURk12Yarrjhkw5pJ" ] },
      { "delegate": "tz1MJx9vhaNRSimcuXPK2rW4fLccQnDAnVKJ",
        "reception_time": "2022-01-17T17:07:39.906-00:00",
        "included_in_blocks":
          [ "BLdHvMoA3HndLGJoJN1fRzwTCFQswQRptFjURk12Yarrjhkw5pJ" ] },
      { "delegate": "tz1V4qCyvPKZ5UeqdH14HN42rxvNPQfc9UZg",
        "reception_time": "2022-01-17T17:07:39.906-00:00",
        "included_in_blocks":
          [ "BLdHvMoA3HndLGJoJN1fRzwTCFQswQRptFjURk12Yarrjhkw5pJ" ] },
      { "delegate": "tz1VQnqCCqX4K5sP3FNkVSNKTdCAMJDd3E1n",
        "reception_time": "2022-01-17T17:07:39.906-00:00",
        "included_in_blocks":
          [ "BLdHvMoA3HndLGJoJN1fRzwTCFQswQRptFjURk12Yarrjhkw5pJ" ] },
      { "delegate": "tz1VmiY38m3y95HqQLjMwqnMS7sdMfGomzKi",
        "reception_time": "2022-01-17T17:07:39.906-00:00",
        "included_in_blocks":
          [ "BLdHvMoA3HndLGJoJN1fRzwTCFQswQRptFjURk12Yarrjhkw5pJ" ] },
      { "delegate": "tz1PWCDnz783NNGGQjEFFsHtrcK5yBW4E2rm",
        "reception_time": "2022-01-17T17:07:39.906-00:00",
        "included_in_blocks":
          [ "BLdHvMoA3HndLGJoJN1fRzwTCFQswQRptFjURk12Yarrjhkw5pJ" ] },
      { "delegate": "tz1gUNyn3hmnEWqkusWPzxRaon1cs7ndWh7h",
        "reception_time": "2022-01-17T17:07:39.906-00:00",
        "included_in_blocks":
          [ "BLdHvMoA3HndLGJoJN1fRzwTCFQswQRptFjURk12Yarrjhkw5pJ" ] },
      { "delegate": "tz1eEnQhbwf6trb8Q8mPb2RaPkNk2rN7BKi8",
        "reception_time": "2022-01-17T17:07:39.906-00:00",
        "included_in_blocks":
          [ "BLdHvMoA3HndLGJoJN1fRzwTCFQswQRptFjURk12Yarrjhkw5pJ" ] },
      { "delegate": "tz1irJKkXS2DBWkU1NnmFQx1c1L7pbGg4yhk",
        "reception_time": "2022-01-17T17:07:39.906-00:00",
        "included_in_blocks":
          [ "BLdHvMoA3HndLGJoJN1fRzwTCFQswQRptFjURk12Yarrjhkw5pJ" ] },
      { "delegate": "tz1ajgycuHmd2z2JbTSJxKv7x6cok2KuNSk1",
        "reception_time": "2022-01-17T17:07:39.906-00:00",
        "included_in_blocks":
          [ "BLdHvMoA3HndLGJoJN1fRzwTCFQswQRptFjURk12Yarrjhkw5pJ" ] },
      { "delegate": "tz1Ldzz6k1BHdhuKvAtMRX7h5kJSMHESMHLC",
        "reception_time": "2022-01-17T17:07:39.906-00:00",
        "included_in_blocks":
          [ "BLdHvMoA3HndLGJoJN1fRzwTCFQswQRptFjURk12Yarrjhkw5pJ" ] },
      { "delegate": "tz1S8MNvuFEUsWgjHvi3AxibRBf388NhT1q2",
        "reception_time": "2022-01-17T17:07:39.906-00:00",
        "included_in_blocks":
          [ "BLdHvMoA3HndLGJoJN1fRzwTCFQswQRptFjURk12Yarrjhkw5pJ" ] },
      { "delegate": "tz1ei4WtWEMEJekSv8qDnu9PExG6Q8HgRGr3",
        "reception_time": "2022-01-17T17:07:39.906-00:00",
        "included_in_blocks":
          [ "BLdHvMoA3HndLGJoJN1fRzwTCFQswQRptFjURk12Yarrjhkw5pJ" ] },
      { "delegate": "tz1gfArv665EUkSg2ojMBzcbfwuPxAvqPvjo",
        "reception_time": "2022-01-17T17:07:39.906-00:00",
        "included_in_blocks":
          [ "BLdHvMoA3HndLGJoJN1fRzwTCFQswQRptFjURk12Yarrjhkw5pJ" ] },
      { "delegate": "tz1STeamwbp68THcny9zk3LsbG3H36DMvbRK",
        "reception_time": "2022-01-17T17:07:39.906-00:00",
        "included_in_blocks":
          [ "BLdHvMoA3HndLGJoJN1fRzwTCFQswQRptFjURk12Yarrjhkw5pJ" ] },
      { "delegate": "tz1MQMiZHV8q4tTwUMWmS5Y3kaP6J2136iXr",
        "reception_time": "2022-01-17T17:07:39.906-00:00",
        "included_in_blocks":
          [ "BLdHvMoA3HndLGJoJN1fRzwTCFQswQRptFjURk12Yarrjhkw5pJ" ] } ] }