{ "blocks":
    [ { "hash": "BLjALUKxHy26HvyzKmC7mriHmsd2ppNL9kePC1mzaD4g7YXs5Ed",
        "delegate": "tz1S8MNvuFEUsWgjHvi3AxibRBf388NhT1q2",
        "reception_time": "2022-01-17T23:56:55.914-00:00",
        "timestamp": "2022-01-17T23:56:50Z" } ],
  "endorsements":
    [ { "delegate": "tz1S8MNvuFEUsWgjHvi3AxibRBf388NhT1q2",
        "reception_time": "2022-01-17T23:56:55.845-00:00",
        "errors":
          [ { "kind": "temporary",
              "id": "proto.011-PtHangz2.prefilter.outdated_endorsement" } ],
        "included_in_blocks":
          [ "BLbWzTV72Je51HQnB3tnjCNB6MTZrsvnUtCU3B34BWZKbYfxyoY" ] },
      { "delegate": "tz2KrmHRWu7b7Vr3GYQ3SJ41xaW64PiqWBYm",
        "reception_time": "2022-01-17T23:57:04.175-00:00",
        "included_in_blocks":
          [ "BLbWzTV72Je51HQnB3tnjCNB6MTZrsvnUtCU3B34BWZKbYfxyoY" ] },
      { "delegate": "tz1NpWrAyDL9k2Lmnyxcgr9xuJakbBxdq7FB",
        "reception_time": "2022-01-17T23:57:02.385-00:00",
        "included_in_blocks":
          [ "BLbWzTV72Je51HQnB3tnjCNB6MTZrsvnUtCU3B34BWZKbYfxyoY" ] },
      { "delegate": "tz1W5VkdB5s7ENMESVBtwyt9kyvLqPcUczRT",
        "reception_time": "2022-01-17T23:57:01.264-00:00",
        "included_in_blocks":
          [ "BLbWzTV72Je51HQnB3tnjCNB6MTZrsvnUtCU3B34BWZKbYfxyoY" ] },
      { "delegate": "tz3RB4aoyjov4KEVRbuhvQ1CKJgBJMWhaeB8",
        "reception_time": "2022-01-17T23:57:01.066-00:00",
        "included_in_blocks":
          [ "BLbWzTV72Je51HQnB3tnjCNB6MTZrsvnUtCU3B34BWZKbYfxyoY" ] },
      { "delegate": "tz3VEZ4k6a4Wx42iyev6i2aVAptTRLEAivNN",
        "reception_time": "2022-01-17T23:57:00.386-00:00",
        "included_in_blocks":
          [ "BLbWzTV72Je51HQnB3tnjCNB6MTZrsvnUtCU3B34BWZKbYfxyoY" ] },
      { "delegate": "tz3WMqdzXqRWXwyvj5Hp2H7QEepaUuS7vd9K",
        "reception_time": "2022-01-17T23:56:59.972-00:00",
        "included_in_blocks":
          [ "BLbWzTV72Je51HQnB3tnjCNB6MTZrsvnUtCU3B34BWZKbYfxyoY" ] },
      { "delegate": "tz1aRoaRhSpRYvFdyvgWLL6TGyRoGF51wDjM",
        "reception_time": "2022-01-17T23:56:59.902-00:00",
        "included_in_blocks":
          [ "BLbWzTV72Je51HQnB3tnjCNB6MTZrsvnUtCU3B34BWZKbYfxyoY" ] },
      { "delegate": "tz3bTdwZinP8U1JmSweNzVKhmwafqWmFWRfk",
        "reception_time": "2022-01-17T23:56:59.838-00:00",
        "included_in_blocks":
          [ "BLbWzTV72Je51HQnB3tnjCNB6MTZrsvnUtCU3B34BWZKbYfxyoY" ] },
      { "delegate": "tz3UoffC7FG7zfpmvmjUmUeAaHvzdcUvAj6r",
        "reception_time": "2022-01-17T23:56:59.751-00:00",
        "included_in_blocks":
          [ "BLbWzTV72Je51HQnB3tnjCNB6MTZrsvnUtCU3B34BWZKbYfxyoY" ] },
      { "delegate": "tz1ZcTRk5uxD86EFEn1vvNffWWqJy7q5eVhc",
        "reception_time": "2022-01-17T23:56:59.656-00:00",
        "included_in_blocks":
          [ "BLbWzTV72Je51HQnB3tnjCNB6MTZrsvnUtCU3B34BWZKbYfxyoY" ] },
      { "delegate": "tz3NExpXn9aPNZPorRE4SdjJ2RGrfbJgMAaV",
        "reception_time": "2022-01-17T23:56:59.080-00:00",
        "included_in_blocks":
          [ "BLbWzTV72Je51HQnB3tnjCNB6MTZrsvnUtCU3B34BWZKbYfxyoY" ] },
      { "delegate": "tz1awXW7wuXy21c66vBudMXQVAPgRnqqwgTH",
        "reception_time": "2022-01-17T23:56:58.960-00:00",
        "included_in_blocks":
          [ "BLbWzTV72Je51HQnB3tnjCNB6MTZrsvnUtCU3B34BWZKbYfxyoY" ] },
      { "delegate": "tz3RKYFsLuQzKBtmYuLNas7uMu3AsYd4QdsA",
        "reception_time": "2022-01-17T23:56:59.226-00:00",
        "included_in_blocks":
          [ "BLbWzTV72Je51HQnB3tnjCNB6MTZrsvnUtCU3B34BWZKbYfxyoY" ] },
      { "delegate": "tz3hw2kqXhLUvY65ca1eety2oQTpAvd34R9Q",
        "reception_time": "2022-01-17T23:56:59.218-00:00",
        "included_in_blocks":
          [ "BLbWzTV72Je51HQnB3tnjCNB6MTZrsvnUtCU3B34BWZKbYfxyoY" ] },
      { "delegate": "tz1dRKU4FQ9QRRQPdaH4zCR6gmCmXfcvcgtB",
        "reception_time": "2022-01-17T23:56:58.780-00:00",
        "included_in_blocks":
          [ "BLbWzTV72Je51HQnB3tnjCNB6MTZrsvnUtCU3B34BWZKbYfxyoY" ] },
      { "delegate": "tz1PeZx7FXy7QRuMREGXGxeipb24RsMMzUNe",
        "reception_time": "2022-01-17T23:56:58.811-00:00",
        "included_in_blocks":
          [ "BLbWzTV72Je51HQnB3tnjCNB6MTZrsvnUtCU3B34BWZKbYfxyoY" ] },
      { "delegate": "tz3RDC3Jdn4j15J7bBHZd29EUee9gVB1CxD9",
        "reception_time": "2022-01-17T23:56:58.856-00:00",
        "included_in_blocks":
          [ "BLbWzTV72Je51HQnB3tnjCNB6MTZrsvnUtCU3B34BWZKbYfxyoY" ] },
      { "delegate": "tz3bvNMQ95vfAYtG8193ymshqjSvmxiCUuR5",
        "reception_time": "2022-01-17T23:56:58.611-00:00",
        "included_in_blocks":
          [ "BLbWzTV72Je51HQnB3tnjCNB6MTZrsvnUtCU3B34BWZKbYfxyoY" ] },
      { "delegate": "tz1cYufsxHXJcvANhvS55h3aY32a9BAFB494",
        "reception_time": "2022-01-17T23:56:58.901-00:00",
        "included_in_blocks":
          [ "BLbWzTV72Je51HQnB3tnjCNB6MTZrsvnUtCU3B34BWZKbYfxyoY" ] },
      { "delegate": "tz2FCNBrERXtaTtNX6iimR1UJ5JSDxvdHM93",
        "reception_time": "2022-01-17T23:56:58.386-00:00",
        "included_in_blocks":
          [ "BLbWzTV72Je51HQnB3tnjCNB6MTZrsvnUtCU3B34BWZKbYfxyoY" ] },
      { "delegate": "tz1T7duV5gZWSTq4YpBGbXNLTfznCLDrFxvs",
        "reception_time": "2022-01-17T23:56:58.427-00:00",
        "included_in_blocks":
          [ "BLbWzTV72Je51HQnB3tnjCNB6MTZrsvnUtCU3B34BWZKbYfxyoY" ] },
      { "delegate": "tz3NDpRj6WBrJPikcPVHRBEjWKxFw3c6eQPS",
        "reception_time": "2022-01-17T23:56:58.348-00:00",
        "included_in_blocks":
          [ "BLbWzTV72Je51HQnB3tnjCNB6MTZrsvnUtCU3B34BWZKbYfxyoY" ] },
      { "delegate": "tz1Nf6tsK4G6bBqgSQERy4nUtkHNKUVdh7q1",
        "reception_time": "2022-01-17T23:56:58.328-00:00",
        "included_in_blocks":
          [ "BLbWzTV72Je51HQnB3tnjCNB6MTZrsvnUtCU3B34BWZKbYfxyoY" ] },
      { "delegate": "tz1fwnfJNgiDACshK9avfRfFbMaXrs3ghoJa",
        "reception_time": "2022-01-17T23:56:58.319-00:00",
        "included_in_blocks":
          [ "BLbWzTV72Je51HQnB3tnjCNB6MTZrsvnUtCU3B34BWZKbYfxyoY" ] },
      { "delegate": "tz1KfEsrtDaA1sX7vdM4qmEPWuSytuqCDp5j",
        "reception_time": "2022-01-17T23:56:58.316-00:00",
        "included_in_blocks":
          [ "BLbWzTV72Je51HQnB3tnjCNB6MTZrsvnUtCU3B34BWZKbYfxyoY" ] },
      { "delegate": "tz1NEKxGEHsFufk87CVZcrqWu8o22qh46GK6",
        "reception_time": "2022-01-17T23:56:58.056-00:00",
        "included_in_blocks":
          [ "BLbWzTV72Je51HQnB3tnjCNB6MTZrsvnUtCU3B34BWZKbYfxyoY" ] },
      { "delegate": "tz1RjoHc98dBoqaH2jawF62XNKh7YsHwbkEv",
        "reception_time": "2022-01-17T23:56:57.845-00:00",
        "included_in_blocks":
          [ "BLbWzTV72Je51HQnB3tnjCNB6MTZrsvnUtCU3B34BWZKbYfxyoY" ] },
      { "delegate": "tz1dwu9aYb7CRNq4Y2zAjipdjFuSVKhHS8vA",
        "reception_time": "2022-01-17T23:56:57.890-00:00",
        "included_in_blocks":
          [ "BLbWzTV72Je51HQnB3tnjCNB6MTZrsvnUtCU3B34BWZKbYfxyoY" ] },
      { "delegate": "tz1g8vkmcde6sWKaG2NN9WKzCkDM6Rziq194",
        "reception_time": "2022-01-17T23:56:57.815-00:00",
        "included_in_blocks":
          [ "BLbWzTV72Je51HQnB3tnjCNB6MTZrsvnUtCU3B34BWZKbYfxyoY" ] },
      { "delegate": "tz1V4qCyvPKZ5UeqdH14HN42rxvNPQfc9UZg",
        "reception_time": "2022-01-17T23:56:57.702-00:00",
        "included_in_blocks":
          [ "BLbWzTV72Je51HQnB3tnjCNB6MTZrsvnUtCU3B34BWZKbYfxyoY" ] },
      { "delegate": "tz1TEc75UKXv4W5cwi14Na3NtqFD51yKQi7h",
        "reception_time": "2022-01-17T23:56:57.362-00:00",
        "included_in_blocks":
          [ "BLbWzTV72Je51HQnB3tnjCNB6MTZrsvnUtCU3B34BWZKbYfxyoY" ] },
      { "delegate": "tz1VQnqCCqX4K5sP3FNkVSNKTdCAMJDd3E1n",
        "reception_time": "2022-01-17T23:56:57.408-00:00",
        "included_in_blocks":
          [ "BLbWzTV72Je51HQnB3tnjCNB6MTZrsvnUtCU3B34BWZKbYfxyoY" ] },
      { "delegate": "tz1WnfXMPaNTBmH7DBPwqCWs9cPDJdkGBTZ8",
        "reception_time": "2022-01-17T23:56:57.612-00:00",
        "included_in_blocks":
          [ "BLbWzTV72Je51HQnB3tnjCNB6MTZrsvnUtCU3B34BWZKbYfxyoY" ] },
      { "delegate": "tz1gfArv665EUkSg2ojMBzcbfwuPxAvqPvjo",
        "reception_time": "2022-01-17T23:56:57.502-00:00",
        "included_in_blocks":
          [ "BLbWzTV72Je51HQnB3tnjCNB6MTZrsvnUtCU3B34BWZKbYfxyoY" ] },
      { "delegate": "tz1WCd2jm4uSt4vntk4vSuUWoZQGhLcDuR9q",
        "reception_time": "2022-01-17T23:56:57.018-00:00",
        "included_in_blocks":
          [ "BLbWzTV72Je51HQnB3tnjCNB6MTZrsvnUtCU3B34BWZKbYfxyoY" ] },
      { "delegate": "tz1VmiY38m3y95HqQLjMwqnMS7sdMfGomzKi",
        "reception_time": "2022-01-17T23:56:56.826-00:00",
        "included_in_blocks":
          [ "BLbWzTV72Je51HQnB3tnjCNB6MTZrsvnUtCU3B34BWZKbYfxyoY" ] },
      { "delegate": "tz1Ldzz6k1BHdhuKvAtMRX7h5kJSMHESMHLC",
        "reception_time": "2022-01-17T23:56:56.898-00:00",
        "included_in_blocks":
          [ "BLbWzTV72Je51HQnB3tnjCNB6MTZrsvnUtCU3B34BWZKbYfxyoY" ] },
      { "delegate": "tz1irJKkXS2DBWkU1NnmFQx1c1L7pbGg4yhk",
        "reception_time": "2022-01-17T23:56:56.676-00:00",
        "included_in_blocks":
          [ "BLbWzTV72Je51HQnB3tnjCNB6MTZrsvnUtCU3B34BWZKbYfxyoY" ] },
      { "delegate": "tz1Kt4P8BCaP93AEV4eA7gmpRryWt5hznjCP",
        "reception_time": "2022-01-17T23:56:56.663-00:00",
        "included_in_blocks":
          [ "BLbWzTV72Je51HQnB3tnjCNB6MTZrsvnUtCU3B34BWZKbYfxyoY" ] },
      { "delegate": "tz1RCFbB9GpALpsZtu6J58sb74dm8qe6XBzv",
        "reception_time": "2022-01-17T23:56:56.919-00:00",
        "included_in_blocks":
          [ "BLbWzTV72Je51HQnB3tnjCNB6MTZrsvnUtCU3B34BWZKbYfxyoY" ] },
      { "delegate": "tz1eEnQhbwf6trb8Q8mPb2RaPkNk2rN7BKi8",
        "reception_time": "2022-01-17T23:56:56.635-00:00",
        "included_in_blocks":
          [ "BLbWzTV72Je51HQnB3tnjCNB6MTZrsvnUtCU3B34BWZKbYfxyoY" ] },
      { "delegate": "tz1RV1MBbZMR68tacosb7Mwj6LkbPSUS1er1",
        "reception_time": "2022-01-17T23:56:56.641-00:00",
        "included_in_blocks":
          [ "BLbWzTV72Je51HQnB3tnjCNB6MTZrsvnUtCU3B34BWZKbYfxyoY" ] },
      { "delegate": "tz1ei4WtWEMEJekSv8qDnu9PExG6Q8HgRGr3",
        "reception_time": "2022-01-17T23:56:57.410-00:00",
        "included_in_blocks":
          [ "BLbWzTV72Je51HQnB3tnjCNB6MTZrsvnUtCU3B34BWZKbYfxyoY" ] },
      { "delegate": "tz1TRspM5SeZpaQUhzByXbEvqKF1vnCM2YTK",
        "reception_time": "2022-01-17T23:56:56.673-00:00",
        "included_in_blocks":
          [ "BLbWzTV72Je51HQnB3tnjCNB6MTZrsvnUtCU3B34BWZKbYfxyoY" ] },
      { "delegate": "tz1gUNyn3hmnEWqkusWPzxRaon1cs7ndWh7h",
        "reception_time": "2022-01-17T23:56:57.377-00:00",
        "included_in_blocks":
          [ "BLbWzTV72Je51HQnB3tnjCNB6MTZrsvnUtCU3B34BWZKbYfxyoY" ] },
      { "delegate": "tz1STeamwbp68THcny9zk3LsbG3H36DMvbRK",
        "reception_time": "2022-01-17T23:56:56.638-00:00",
        "included_in_blocks":
          [ "BLbWzTV72Je51HQnB3tnjCNB6MTZrsvnUtCU3B34BWZKbYfxyoY" ] },
      { "delegate": "tz3QSGPoRp3Kn7n3vY24eYeu3Peuqo45LQ4D",
        "reception_time": "2022-01-17T23:56:56.889-00:00",
        "included_in_blocks":
          [ "BLbWzTV72Je51HQnB3tnjCNB6MTZrsvnUtCU3B34BWZKbYfxyoY" ] },
      { "delegate": "tz1RHgE6W7SnPdwqL1SAtGWEdynA7HeTbpbN",
        "reception_time": "2022-01-17T23:56:57.171-00:00",
        "included_in_blocks":
          [ "BLbWzTV72Je51HQnB3tnjCNB6MTZrsvnUtCU3B34BWZKbYfxyoY" ] },
      { "delegate": "tz3gtoUxdudfBRcNY7iVdKPHCYYX6xdPpoRS",
        "reception_time": "2022-01-17T23:56:56.831-00:00",
        "included_in_blocks":
          [ "BLbWzTV72Je51HQnB3tnjCNB6MTZrsvnUtCU3B34BWZKbYfxyoY" ] },
      { "delegate": "tz3ZbP2pM3nwvXztbuMJwJnDvV5xdpU8UkkD",
        "reception_time": "2022-01-17T23:56:56.684-00:00",
        "included_in_blocks":
          [ "BLbWzTV72Je51HQnB3tnjCNB6MTZrsvnUtCU3B34BWZKbYfxyoY" ] },
      { "delegate": "tz1PWCDnz783NNGGQjEFFsHtrcK5yBW4E2rm",
        "reception_time": "2022-01-17T23:56:57.238-00:00",
        "included_in_blocks":
          [ "BLbWzTV72Je51HQnB3tnjCNB6MTZrsvnUtCU3B34BWZKbYfxyoY" ] },
      { "delegate": "tz1Lhf4J9Qxoe3DZ2nfe8FGDnvVj7oKjnMY6",
        "reception_time": "2022-01-17T23:56:56.630-00:00",
        "included_in_blocks":
          [ "BLbWzTV72Je51HQnB3tnjCNB6MTZrsvnUtCU3B34BWZKbYfxyoY" ] },
      { "delegate": "tz1YhNsiRRU8aHNGg7NK3uuP6UDAyacJernB",
        "reception_time": "2022-01-17T23:56:56.848-00:00",
        "included_in_blocks":
          [ "BLbWzTV72Je51HQnB3tnjCNB6MTZrsvnUtCU3B34BWZKbYfxyoY" ] },
      { "delegate": "tz3Zhs2dygr55yHyQyKjntAtY9bgfhLZ4Xj1",
        "reception_time": "2022-01-17T23:56:57.080-00:00",
        "included_in_blocks":
          [ "BLbWzTV72Je51HQnB3tnjCNB6MTZrsvnUtCU3B34BWZKbYfxyoY" ] },
      { "delegate": "tz3S6BBeKgJGXxvLyZ1xzXzMPn11nnFtq5L9",
        "reception_time": "2022-01-17T23:56:57.326-00:00",
        "included_in_blocks":
          [ "BLbWzTV72Je51HQnB3tnjCNB6MTZrsvnUtCU3B34BWZKbYfxyoY" ] },
      { "delegate": "tz1beersuEDv8Z7ngQ825xfbaJNS2EhXnyHR",
        "reception_time": "2022-01-17T23:56:56.669-00:00",
        "included_in_blocks":
          [ "BLbWzTV72Je51HQnB3tnjCNB6MTZrsvnUtCU3B34BWZKbYfxyoY" ] },
      { "delegate": "tz3NxTnke1acr8o3h5y9ytf5awQBGNJUKzVU",
        "reception_time": "2022-01-17T23:56:56.799-00:00",
        "included_in_blocks":
          [ "BLbWzTV72Je51HQnB3tnjCNB6MTZrsvnUtCU3B34BWZKbYfxyoY" ] },
      { "delegate": "tz1P2Po7YM526ughEsRbY4oR9zaUPDZjxFrb",
        "reception_time": "2022-01-17T23:56:56.552-00:00",
        "included_in_blocks":
          [ "BLbWzTV72Je51HQnB3tnjCNB6MTZrsvnUtCU3B34BWZKbYfxyoY" ] },
      { "delegate": "tz1TXzyaKUA8wsWefdSnyaYFnV2M3vCV7er9",
        "reception_time": "2022-01-17T23:56:56.618-00:00",
        "included_in_blocks":
          [ "BLbWzTV72Je51HQnB3tnjCNB6MTZrsvnUtCU3B34BWZKbYfxyoY" ] },
      { "delegate": "tz1SYq214SCBy9naR6cvycQsYcUGpBqQAE8d",
        "reception_time": "2022-01-17T23:56:56.803-00:00",
        "included_in_blocks":
          [ "BLbWzTV72Je51HQnB3tnjCNB6MTZrsvnUtCU3B34BWZKbYfxyoY" ] },
      { "delegate": "tz3QT9dHYKDqh563chVa6za8526ys1UKfRfL",
        "reception_time": "2022-01-17T23:56:57.317-00:00",
        "included_in_blocks":
          [ "BLbWzTV72Je51HQnB3tnjCNB6MTZrsvnUtCU3B34BWZKbYfxyoY" ] },
      { "delegate": "tz1UJvHTgpVzcKWhTazGxVcn5wsHru5Gietg",
        "reception_time": "2022-01-17T23:56:57.169-00:00",
        "included_in_blocks":
          [ "BLbWzTV72Je51HQnB3tnjCNB6MTZrsvnUtCU3B34BWZKbYfxyoY" ] },
      { "delegate": "tz1MXFrtZoaXckE41bjUCSjAjAap3AFDSr3N",
        "reception_time": "2022-01-17T23:56:56.552-00:00",
        "included_in_blocks":
          [ "BLbWzTV72Je51HQnB3tnjCNB6MTZrsvnUtCU3B34BWZKbYfxyoY" ] } ] }