{ "blocks":
    [ { "hash": "BMeMB67Vy2PkDeWQd5nngQLiWacgSqAj8J4b8uivQNjAKwfgea5",
        "delegate": "tz3bvNMQ95vfAYtG8193ymshqjSvmxiCUuR5",
        "reception_time": "2022-01-18T00:44:28.051-00:00",
        "timestamp": "2022-01-18T00:44:20Z" } ],
  "endorsements":
    [ { "delegate": "tz1S8e9GgdZG78XJRB3NqabfWeM37GnhZMWQ",
        "reception_time": "2022-01-18T00:44:28.033-00:00",
        "errors":
          [ { "kind": "temporary",
              "id": "proto.011-PtHangz2.prefilter.outdated_endorsement" } ],
        "included_in_blocks":
          [ "BMUQLfEo4BgZCHfLXGLvZ2n97CpPhCu4t5imzKeFJZFoQXoaB94" ] },
      { "delegate": "tz1NdhRv643wLW6zCcRP3VfT24dvDnh7nuh9" },
      { "delegate": "tz1P2Po7YM526ughEsRbY4oR9zaUPDZjxFrb",
        "reception_time": "2022-01-18T00:44:28.758-00:00",
        "included_in_blocks":
          [ "BMUQLfEo4BgZCHfLXGLvZ2n97CpPhCu4t5imzKeFJZFoQXoaB94" ] },
      { "delegate": "tz1beersuEDv8Z7ngQ825xfbaJNS2EhXnyHR",
        "reception_time": "2022-01-18T00:44:28.760-00:00",
        "included_in_blocks":
          [ "BMUQLfEo4BgZCHfLXGLvZ2n97CpPhCu4t5imzKeFJZFoQXoaB94" ] },
      { "delegate": "tz3bvNMQ95vfAYtG8193ymshqjSvmxiCUuR5",
        "reception_time": "2022-01-18T00:44:28.766-00:00",
        "included_in_blocks":
          [ "BMUQLfEo4BgZCHfLXGLvZ2n97CpPhCu4t5imzKeFJZFoQXoaB94" ] },
      { "delegate": "tz1aDiEJf9ztRrAJEXZfcG3CKimoKsGhwVAi",
        "reception_time": "2022-01-18T00:44:28.768-00:00",
        "included_in_blocks":
          [ "BMUQLfEo4BgZCHfLXGLvZ2n97CpPhCu4t5imzKeFJZFoQXoaB94" ] },
      { "delegate": "tz1eEnQhbwf6trb8Q8mPb2RaPkNk2rN7BKi8",
        "reception_time": "2022-01-18T00:44:28.770-00:00",
        "included_in_blocks":
          [ "BMUQLfEo4BgZCHfLXGLvZ2n97CpPhCu4t5imzKeFJZFoQXoaB94" ] },
      { "delegate": "tz1irJKkXS2DBWkU1NnmFQx1c1L7pbGg4yhk",
        "reception_time": "2022-01-18T00:44:28.851-00:00",
        "included_in_blocks":
          [ "BMUQLfEo4BgZCHfLXGLvZ2n97CpPhCu4t5imzKeFJZFoQXoaB94" ] },
      { "delegate": "tz3NxTnke1acr8o3h5y9ytf5awQBGNJUKzVU",
        "reception_time": "2022-01-18T00:44:28.882-00:00",
        "included_in_blocks":
          [ "BMUQLfEo4BgZCHfLXGLvZ2n97CpPhCu4t5imzKeFJZFoQXoaB94" ] },
      { "delegate": "tz3ZbP2pM3nwvXztbuMJwJnDvV5xdpU8UkkD",
        "reception_time": "2022-01-18T00:44:28.903-00:00",
        "included_in_blocks":
          [ "BMUQLfEo4BgZCHfLXGLvZ2n97CpPhCu4t5imzKeFJZFoQXoaB94" ] },
      { "delegate": "tz3QSGPoRp3Kn7n3vY24eYeu3Peuqo45LQ4D",
        "reception_time": "2022-01-18T00:44:28.919-00:00",
        "included_in_blocks":
          [ "BMUQLfEo4BgZCHfLXGLvZ2n97CpPhCu4t5imzKeFJZFoQXoaB94" ] },
      { "delegate": "tz3gtoUxdudfBRcNY7iVdKPHCYYX6xdPpoRS",
        "reception_time": "2022-01-18T00:44:28.945-00:00",
        "included_in_blocks":
          [ "BMUQLfEo4BgZCHfLXGLvZ2n97CpPhCu4t5imzKeFJZFoQXoaB94" ] },
      { "delegate": "tz3S6BBeKgJGXxvLyZ1xzXzMPn11nnFtq5L9",
        "reception_time": "2022-01-18T00:44:29.037-00:00",
        "included_in_blocks":
          [ "BMUQLfEo4BgZCHfLXGLvZ2n97CpPhCu4t5imzKeFJZFoQXoaB94" ] },
      { "delegate": "tz3RDC3Jdn4j15J7bBHZd29EUee9gVB1CxD9",
        "reception_time": "2022-01-18T00:44:29.062-00:00",
        "included_in_blocks":
          [ "BMUQLfEo4BgZCHfLXGLvZ2n97CpPhCu4t5imzKeFJZFoQXoaB94" ] },
      { "delegate": "tz1TzaNn7wSQSP5gYPXCnNzBCpyMiidCq1PX",
        "reception_time": "2022-01-18T00:44:29.092-00:00",
        "included_in_blocks":
          [ "BMUQLfEo4BgZCHfLXGLvZ2n97CpPhCu4t5imzKeFJZFoQXoaB94" ] },
      { "delegate": "tz3Zhs2dygr55yHyQyKjntAtY9bgfhLZ4Xj1",
        "reception_time": "2022-01-18T00:44:29.129-00:00",
        "included_in_blocks":
          [ "BMUQLfEo4BgZCHfLXGLvZ2n97CpPhCu4t5imzKeFJZFoQXoaB94" ] },
      { "delegate": "tz3QT9dHYKDqh563chVa6za8526ys1UKfRfL",
        "reception_time": "2022-01-18T00:44:29.142-00:00",
        "included_in_blocks":
          [ "BMUQLfEo4BgZCHfLXGLvZ2n97CpPhCu4t5imzKeFJZFoQXoaB94" ] },
      { "delegate": "tz1Ldzz6k1BHdhuKvAtMRX7h5kJSMHESMHLC",
        "reception_time": "2022-01-18T00:44:29.189-00:00",
        "included_in_blocks":
          [ "BMUQLfEo4BgZCHfLXGLvZ2n97CpPhCu4t5imzKeFJZFoQXoaB94" ] },
      { "delegate": "tz3iJu5vrKZcsqRPs8yJ61UDoeEXZmtro4qh",
        "reception_time": "2022-01-18T00:44:29.220-00:00",
        "included_in_blocks":
          [ "BMUQLfEo4BgZCHfLXGLvZ2n97CpPhCu4t5imzKeFJZFoQXoaB94" ] },
      { "delegate": "tz1eDDuQBEgwvc6tbnnCVrnr12tvrd6gBTpx",
        "reception_time": "2022-01-18T00:44:29.280-00:00",
        "included_in_blocks":
          [ "BMUQLfEo4BgZCHfLXGLvZ2n97CpPhCu4t5imzKeFJZFoQXoaB94" ] },
      { "delegate": "tz1gUNyn3hmnEWqkusWPzxRaon1cs7ndWh7h",
        "reception_time": "2022-01-18T00:44:29.363-00:00",
        "included_in_blocks":
          [ "BMUQLfEo4BgZCHfLXGLvZ2n97CpPhCu4t5imzKeFJZFoQXoaB94" ] },
      { "delegate": "tz3RB4aoyjov4KEVRbuhvQ1CKJgBJMWhaeB8",
        "reception_time": "2022-01-18T00:44:29.384-00:00",
        "included_in_blocks":
          [ "BMUQLfEo4BgZCHfLXGLvZ2n97CpPhCu4t5imzKeFJZFoQXoaB94" ] },
      { "delegate": "tz3RKYFsLuQzKBtmYuLNas7uMu3AsYd4QdsA",
        "reception_time": "2022-01-18T00:44:29.417-00:00",
        "included_in_blocks":
          [ "BMUQLfEo4BgZCHfLXGLvZ2n97CpPhCu4t5imzKeFJZFoQXoaB94" ] },
      { "delegate": "tz1VQnqCCqX4K5sP3FNkVSNKTdCAMJDd3E1n",
        "reception_time": "2022-01-18T00:44:29.421-00:00",
        "included_in_blocks":
          [ "BMUQLfEo4BgZCHfLXGLvZ2n97CpPhCu4t5imzKeFJZFoQXoaB94" ] },
      { "delegate": "tz3hw2kqXhLUvY65ca1eety2oQTpAvd34R9Q",
        "reception_time": "2022-01-18T00:44:29.439-00:00",
        "included_in_blocks":
          [ "BMUQLfEo4BgZCHfLXGLvZ2n97CpPhCu4t5imzKeFJZFoQXoaB94" ] },
      { "delegate": "tz1YhNsiRRU8aHNGg7NK3uuP6UDAyacJernB",
        "reception_time": "2022-01-18T00:44:29.444-00:00",
        "included_in_blocks":
          [ "BMUQLfEo4BgZCHfLXGLvZ2n97CpPhCu4t5imzKeFJZFoQXoaB94" ] },
      { "delegate": "tz1cSj7fTex3JPd1p1LN1fwek6AV1kH93Wwc",
        "reception_time": "2022-01-18T00:44:29.528-00:00",
        "included_in_blocks":
          [ "BMUQLfEo4BgZCHfLXGLvZ2n97CpPhCu4t5imzKeFJZFoQXoaB94" ] },
      { "delegate": "tz1UJvHTgpVzcKWhTazGxVcn5wsHru5Gietg",
        "reception_time": "2022-01-18T00:44:29.537-00:00",
        "included_in_blocks":
          [ "BMUQLfEo4BgZCHfLXGLvZ2n97CpPhCu4t5imzKeFJZFoQXoaB94" ] },
      { "delegate": "tz1RCFbB9GpALpsZtu6J58sb74dm8qe6XBzv",
        "reception_time": "2022-01-18T00:44:29.560-00:00",
        "included_in_blocks":
          [ "BMUQLfEo4BgZCHfLXGLvZ2n97CpPhCu4t5imzKeFJZFoQXoaB94" ] },
      { "delegate": "tz1ajgycuHmd2z2JbTSJxKv7x6cok2KuNSk1",
        "reception_time": "2022-01-18T00:44:29.627-00:00",
        "included_in_blocks":
          [ "BMUQLfEo4BgZCHfLXGLvZ2n97CpPhCu4t5imzKeFJZFoQXoaB94" ] },
      { "delegate": "tz1S8MNvuFEUsWgjHvi3AxibRBf388NhT1q2",
        "reception_time": "2022-01-18T00:44:29.646-00:00",
        "included_in_blocks":
          [ "BMUQLfEo4BgZCHfLXGLvZ2n97CpPhCu4t5imzKeFJZFoQXoaB94" ] },
      { "delegate": "tz1MQMiZHV8q4tTwUMWmS5Y3kaP6J2136iXr",
        "reception_time": "2022-01-18T00:44:29.669-00:00",
        "included_in_blocks":
          [ "BMUQLfEo4BgZCHfLXGLvZ2n97CpPhCu4t5imzKeFJZFoQXoaB94" ] },
      { "delegate": "tz3bTdwZinP8U1JmSweNzVKhmwafqWmFWRfk",
        "reception_time": "2022-01-18T00:44:29.676-00:00",
        "included_in_blocks":
          [ "BMUQLfEo4BgZCHfLXGLvZ2n97CpPhCu4t5imzKeFJZFoQXoaB94" ] },
      { "delegate": "tz1fPKAtsYydh4f1wfWNfeNxWYu72TmM48fu",
        "reception_time": "2022-01-18T00:44:29.687-00:00",
        "included_in_blocks":
          [ "BMUQLfEo4BgZCHfLXGLvZ2n97CpPhCu4t5imzKeFJZFoQXoaB94" ] },
      { "delegate": "tz1PWCDnz783NNGGQjEFFsHtrcK5yBW4E2rm",
        "reception_time": "2022-01-18T00:44:29.718-00:00",
        "included_in_blocks":
          [ "BMUQLfEo4BgZCHfLXGLvZ2n97CpPhCu4t5imzKeFJZFoQXoaB94" ] },
      { "delegate": "tz1WnfXMPaNTBmH7DBPwqCWs9cPDJdkGBTZ8",
        "reception_time": "2022-01-18T00:44:29.743-00:00",
        "included_in_blocks":
          [ "BMUQLfEo4BgZCHfLXGLvZ2n97CpPhCu4t5imzKeFJZFoQXoaB94" ] },
      { "delegate": "tz1gfArv665EUkSg2ojMBzcbfwuPxAvqPvjo",
        "reception_time": "2022-01-18T00:44:29.808-00:00",
        "included_in_blocks":
          [ "BMUQLfEo4BgZCHfLXGLvZ2n97CpPhCu4t5imzKeFJZFoQXoaB94" ] },
      { "delegate": "tz1RQhNh7iB9CZA7i3ifTWNwiGYVffponfbB",
        "reception_time": "2022-01-18T00:44:30.169-00:00",
        "included_in_blocks":
          [ "BMUQLfEo4BgZCHfLXGLvZ2n97CpPhCu4t5imzKeFJZFoQXoaB94" ] },
      { "delegate": "tz1NoYvKjXTzTk54VpLxBfouJ33J8jwKPPvw",
        "reception_time": "2022-01-18T00:44:30.236-00:00",
        "included_in_blocks":
          [ "BMUQLfEo4BgZCHfLXGLvZ2n97CpPhCu4t5imzKeFJZFoQXoaB94" ] },
      { "delegate": "tz1LmaFsWRkjr7QMCx5PtV6xTUz3AmEpKQiF",
        "reception_time": "2022-01-18T00:44:30.247-00:00",
        "included_in_blocks":
          [ "BMUQLfEo4BgZCHfLXGLvZ2n97CpPhCu4t5imzKeFJZFoQXoaB94" ] },
      { "delegate": "tz1Tnjaxk6tbAeC2TmMApPh8UsrEVQvhHvx5",
        "reception_time": "2022-01-18T00:44:30.267-00:00",
        "included_in_blocks":
          [ "BMUQLfEo4BgZCHfLXGLvZ2n97CpPhCu4t5imzKeFJZFoQXoaB94" ] },
      { "delegate": "tz1ei4WtWEMEJekSv8qDnu9PExG6Q8HgRGr3",
        "reception_time": "2022-01-18T00:44:30.303-00:00",
        "included_in_blocks":
          [ "BMUQLfEo4BgZCHfLXGLvZ2n97CpPhCu4t5imzKeFJZFoQXoaB94" ] },
      { "delegate": "tz3WMqdzXqRWXwyvj5Hp2H7QEepaUuS7vd9K",
        "reception_time": "2022-01-18T00:44:30.353-00:00",
        "included_in_blocks":
          [ "BMUQLfEo4BgZCHfLXGLvZ2n97CpPhCu4t5imzKeFJZFoQXoaB94" ] },
      { "delegate": "tz2FCNBrERXtaTtNX6iimR1UJ5JSDxvdHM93",
        "reception_time": "2022-01-18T00:44:30.375-00:00",
        "included_in_blocks":
          [ "BMUQLfEo4BgZCHfLXGLvZ2n97CpPhCu4t5imzKeFJZFoQXoaB94" ] },
      { "delegate": "tz3VEZ4k6a4Wx42iyev6i2aVAptTRLEAivNN",
        "reception_time": "2022-01-18T00:44:30.395-00:00",
        "included_in_blocks":
          [ "BMUQLfEo4BgZCHfLXGLvZ2n97CpPhCu4t5imzKeFJZFoQXoaB94" ] },
      { "delegate": "tz3NDpRj6WBrJPikcPVHRBEjWKxFw3c6eQPS",
        "reception_time": "2022-01-18T00:44:30.411-00:00",
        "included_in_blocks":
          [ "BMUQLfEo4BgZCHfLXGLvZ2n97CpPhCu4t5imzKeFJZFoQXoaB94" ] },
      { "delegate": "tz1g8vkmcde6sWKaG2NN9WKzCkDM6Rziq194",
        "reception_time": "2022-01-18T00:44:30.472-00:00",
        "included_in_blocks":
          [ "BMUQLfEo4BgZCHfLXGLvZ2n97CpPhCu4t5imzKeFJZFoQXoaB94" ] },
      { "delegate": "tz1SYq214SCBy9naR6cvycQsYcUGpBqQAE8d",
        "reception_time": "2022-01-18T00:44:30.483-00:00",
        "included_in_blocks":
          [ "BMUQLfEo4BgZCHfLXGLvZ2n97CpPhCu4t5imzKeFJZFoQXoaB94" ] },
      { "delegate": "tz1Nf6tsK4G6bBqgSQERy4nUtkHNKUVdh7q1",
        "reception_time": "2022-01-18T00:44:30.532-00:00",
        "included_in_blocks":
          [ "BMUQLfEo4BgZCHfLXGLvZ2n97CpPhCu4t5imzKeFJZFoQXoaB94" ] },
      { "delegate": "tz1R4PuhxUxBBZhfLJDx2nNjbr7WorAPX1oC",
        "reception_time": "2022-01-18T00:44:30.547-00:00",
        "included_in_blocks":
          [ "BMUQLfEo4BgZCHfLXGLvZ2n97CpPhCu4t5imzKeFJZFoQXoaB94" ] },
      { "delegate": "tz1TRqbYbUf2GyrjErf3hBzgBJPzW8y36qEs",
        "reception_time": "2022-01-18T00:44:30.552-00:00",
        "included_in_blocks":
          [ "BMUQLfEo4BgZCHfLXGLvZ2n97CpPhCu4t5imzKeFJZFoQXoaB94" ] },
      { "delegate": "tz1NEKxGEHsFufk87CVZcrqWu8o22qh46GK6",
        "reception_time": "2022-01-18T00:44:30.895-00:00",
        "included_in_blocks":
          [ "BMUQLfEo4BgZCHfLXGLvZ2n97CpPhCu4t5imzKeFJZFoQXoaB94" ] },
      { "delegate": "tz1UMCB2AHSTwG7YcGNr31CqYCtGN873royv",
        "reception_time": "2022-01-18T00:44:30.939-00:00",
        "included_in_blocks":
          [ "BMUQLfEo4BgZCHfLXGLvZ2n97CpPhCu4t5imzKeFJZFoQXoaB94" ] },
      { "delegate": "tz1PeZx7FXy7QRuMREGXGxeipb24RsMMzUNe",
        "reception_time": "2022-01-18T00:44:30.953-00:00",
        "included_in_blocks":
          [ "BMUQLfEo4BgZCHfLXGLvZ2n97CpPhCu4t5imzKeFJZFoQXoaB94" ] },
      { "delegate": "tz1awXW7wuXy21c66vBudMXQVAPgRnqqwgTH",
        "reception_time": "2022-01-18T00:44:31.080-00:00",
        "included_in_blocks":
          [ "BMUQLfEo4BgZCHfLXGLvZ2n97CpPhCu4t5imzKeFJZFoQXoaB94" ] },
      { "delegate": "tz1cYufsxHXJcvANhvS55h3aY32a9BAFB494",
        "reception_time": "2022-01-18T00:44:31.093-00:00",
        "included_in_blocks":
          [ "BMUQLfEo4BgZCHfLXGLvZ2n97CpPhCu4t5imzKeFJZFoQXoaB94" ] },
      { "delegate": "tz1KfEsrtDaA1sX7vdM4qmEPWuSytuqCDp5j",
        "reception_time": "2022-01-18T00:44:31.272-00:00",
        "included_in_blocks":
          [ "BMUQLfEo4BgZCHfLXGLvZ2n97CpPhCu4t5imzKeFJZFoQXoaB94" ] },
      { "delegate": "tz1T7duV5gZWSTq4YpBGbXNLTfznCLDrFxvs",
        "reception_time": "2022-01-18T00:44:31.293-00:00",
        "included_in_blocks":
          [ "BMUQLfEo4BgZCHfLXGLvZ2n97CpPhCu4t5imzKeFJZFoQXoaB94" ] },
      { "delegate": "tz1aRoaRhSpRYvFdyvgWLL6TGyRoGF51wDjM",
        "reception_time": "2022-01-18T00:44:31.350-00:00",
        "included_in_blocks":
          [ "BMUQLfEo4BgZCHfLXGLvZ2n97CpPhCu4t5imzKeFJZFoQXoaB94" ] },
      { "delegate": "tz3NExpXn9aPNZPorRE4SdjJ2RGrfbJgMAaV",
        "reception_time": "2022-01-18T00:44:31.373-00:00",
        "included_in_blocks":
          [ "BMUQLfEo4BgZCHfLXGLvZ2n97CpPhCu4t5imzKeFJZFoQXoaB94" ] },
      { "delegate": "tz3UoffC7FG7zfpmvmjUmUeAaHvzdcUvAj6r",
        "reception_time": "2022-01-18T00:44:31.417-00:00",
        "included_in_blocks":
          [ "BMUQLfEo4BgZCHfLXGLvZ2n97CpPhCu4t5imzKeFJZFoQXoaB94" ] },
      { "delegate": "tz1dRKU4FQ9QRRQPdaH4zCR6gmCmXfcvcgtB",
        "reception_time": "2022-01-18T00:44:31.461-00:00",
        "included_in_blocks":
          [ "BMUQLfEo4BgZCHfLXGLvZ2n97CpPhCu4t5imzKeFJZFoQXoaB94" ] },
      { "delegate": "tz1Zcxkfa5jKrRbBThG765GP29bUCU3C4ok5",
        "reception_time": "2022-01-18T00:44:31.606-00:00",
        "included_in_blocks":
          [ "BMUQLfEo4BgZCHfLXGLvZ2n97CpPhCu4t5imzKeFJZFoQXoaB94" ] },
      { "delegate": "tz1Z2jXfEXL7dXhs6bsLmyLFLfmAkXBzA9WE",
        "reception_time": "2022-01-18T00:44:31.620-00:00",
        "included_in_blocks":
          [ "BMUQLfEo4BgZCHfLXGLvZ2n97CpPhCu4t5imzKeFJZFoQXoaB94" ] },
      { "delegate": "tz1hA2m6dTgvtgZPXmP6MEauqiYWpD3KXaRy",
        "reception_time": "2022-01-18T00:44:32.029-00:00",
        "included_in_blocks":
          [ "BMUQLfEo4BgZCHfLXGLvZ2n97CpPhCu4t5imzKeFJZFoQXoaB94" ] },
      { "delegate": "tz1ZcTRk5uxD86EFEn1vvNffWWqJy7q5eVhc",
        "reception_time": "2022-01-18T00:44:32.040-00:00",
        "included_in_blocks":
          [ "BMUQLfEo4BgZCHfLXGLvZ2n97CpPhCu4t5imzKeFJZFoQXoaB94" ] },
      { "delegate": "tz1W5VkdB5s7ENMESVBtwyt9kyvLqPcUczRT",
        "reception_time": "2022-01-18T00:44:32.968-00:00",
        "included_in_blocks":
          [ "BMUQLfEo4BgZCHfLXGLvZ2n97CpPhCu4t5imzKeFJZFoQXoaB94" ] },
      { "delegate": "tz1Vd1rXpV8hTHbFXCXN3c3qzCsgcU5BZw1e",
        "reception_time": "2022-01-18T00:44:33.017-00:00",
        "included_in_blocks":
          [ "BMUQLfEo4BgZCHfLXGLvZ2n97CpPhCu4t5imzKeFJZFoQXoaB94" ] },
      { "delegate": "tz3e7LbZvUtoXhpUD1yb6wuFodZpfYRb9nWJ",
        "reception_time": "2022-01-18T00:44:34.997-00:00",
        "included_in_blocks":
          [ "BMUQLfEo4BgZCHfLXGLvZ2n97CpPhCu4t5imzKeFJZFoQXoaB94" ] } ] }