{ "blocks":
    [ { "hash": "BMXuNjfs5qa8GJy2w8L5hCs969fSFZFU9XhgmFtwTVkLuoieGtg",
        "delegate": "tz1gfArv665EUkSg2ojMBzcbfwuPxAvqPvjo",
        "reception_time": "2022-01-17T23:42:58.847-00:00",
        "timestamp": "2022-01-17T23:42:50Z" } ],
  "endorsements":
    [ { "delegate": "tz1VmiY38m3y95HqQLjMwqnMS7sdMfGomzKi",
        "reception_time": "2022-01-17T23:42:58.772-00:00",
        "errors":
          [ { "kind": "temporary",
              "id": "proto.011-PtHangz2.prefilter.outdated_endorsement" } ],
        "included_in_blocks":
          [ "BM68EDaN3NvTHNiFoWGDb7KxaQ17cB72hn5yS42veRXaG5vAyzR" ] },
      { "delegate": "tz1dbfppLAAxXZNtf2SDps7rch3qfUznKSoK",
        "reception_time": "2022-01-17T23:42:58.743-00:00",
        "errors":
          [ { "kind": "temporary",
              "id": "proto.011-PtHangz2.prefilter.outdated_endorsement" } ],
        "included_in_blocks":
          [ "BM68EDaN3NvTHNiFoWGDb7KxaQ17cB72hn5yS42veRXaG5vAyzR" ] },
      { "delegate": "tz3NxTnke1acr8o3h5y9ytf5awQBGNJUKzVU",
        "reception_time": "2022-01-17T23:42:58.680-00:00",
        "errors":
          [ { "kind": "temporary",
              "id": "proto.011-PtHangz2.prefilter.outdated_endorsement" } ],
        "included_in_blocks":
          [ "BM68EDaN3NvTHNiFoWGDb7KxaQ17cB72hn5yS42veRXaG5vAyzR" ] },
      { "delegate": "tz1beersuEDv8Z7ngQ825xfbaJNS2EhXnyHR",
        "reception_time": "2022-01-17T23:42:58.660-00:00",
        "errors":
          [ { "kind": "temporary",
              "id": "proto.011-PtHangz2.prefilter.outdated_endorsement" } ],
        "included_in_blocks":
          [ "BM68EDaN3NvTHNiFoWGDb7KxaQ17cB72hn5yS42veRXaG5vAyzR" ] },
      { "delegate": "tz3iJu5vrKZcsqRPs8yJ61UDoeEXZmtro4qh",
        "reception_time": "2022-01-17T23:42:58.650-00:00",
        "errors":
          [ { "kind": "temporary",
              "id": "proto.011-PtHangz2.prefilter.outdated_endorsement" } ],
        "included_in_blocks":
          [ "BM68EDaN3NvTHNiFoWGDb7KxaQ17cB72hn5yS42veRXaG5vAyzR" ] },
      { "delegate": "tz3ZbP2pM3nwvXztbuMJwJnDvV5xdpU8UkkD",
        "reception_time": "2022-01-17T23:42:58.598-00:00",
        "errors":
          [ { "kind": "temporary",
              "id": "proto.011-PtHangz2.prefilter.outdated_endorsement" } ],
        "included_in_blocks":
          [ "BM68EDaN3NvTHNiFoWGDb7KxaQ17cB72hn5yS42veRXaG5vAyzR" ] },
      { "delegate": "tz1irJKkXS2DBWkU1NnmFQx1c1L7pbGg4yhk",
        "reception_time": "2022-01-17T23:42:58.595-00:00",
        "errors":
          [ { "kind": "temporary",
              "id": "proto.011-PtHangz2.prefilter.outdated_endorsement" } ],
        "included_in_blocks":
          [ "BM68EDaN3NvTHNiFoWGDb7KxaQ17cB72hn5yS42veRXaG5vAyzR" ] },
      { "delegate": "tz3Zhs2dygr55yHyQyKjntAtY9bgfhLZ4Xj1",
        "reception_time": "2022-01-17T23:42:58.540-00:00",
        "errors":
          [ { "kind": "temporary",
              "id": "proto.011-PtHangz2.prefilter.outdated_endorsement" } ],
        "included_in_blocks":
          [ "BM68EDaN3NvTHNiFoWGDb7KxaQ17cB72hn5yS42veRXaG5vAyzR" ] },
      { "delegate": "tz1eEnQhbwf6trb8Q8mPb2RaPkNk2rN7BKi8",
        "reception_time": "2022-01-17T23:42:58.392-00:00",
        "errors":
          [ { "kind": "temporary",
              "id": "proto.011-PtHangz2.prefilter.outdated_endorsement" } ],
        "included_in_blocks":
          [ "BM68EDaN3NvTHNiFoWGDb7KxaQ17cB72hn5yS42veRXaG5vAyzR" ] },
      { "delegate": "tz1Kt4P8BCaP93AEV4eA7gmpRryWt5hznjCP",
        "reception_time": "2022-01-17T23:42:58.289-00:00",
        "errors":
          [ { "kind": "temporary",
              "id": "proto.011-PtHangz2.prefilter.outdated_endorsement" } ],
        "included_in_blocks":
          [ "BM68EDaN3NvTHNiFoWGDb7KxaQ17cB72hn5yS42veRXaG5vAyzR" ] },
      { "delegate": "tz1P2Po7YM526ughEsRbY4oR9zaUPDZjxFrb",
        "reception_time": "2022-01-17T23:42:58.173-00:00",
        "errors":
          [ { "kind": "temporary",
              "id": "proto.011-PtHangz2.prefilter.outdated_endorsement" } ],
        "included_in_blocks":
          [ "BM68EDaN3NvTHNiFoWGDb7KxaQ17cB72hn5yS42veRXaG5vAyzR" ] },
      { "delegate": "tz1MXFrtZoaXckE41bjUCSjAjAap3AFDSr3N",
        "reception_time": "2022-01-17T23:42:57.975-00:00",
        "errors":
          [ { "kind": "temporary",
              "id": "proto.011-PtHangz2.prefilter.outdated_endorsement" } ],
        "included_in_blocks":
          [ "BM68EDaN3NvTHNiFoWGDb7KxaQ17cB72hn5yS42veRXaG5vAyzR" ] },
      { "delegate": "tz1S8e9GgdZG78XJRB3NqabfWeM37GnhZMWQ",
        "reception_time": "2022-01-17T23:42:57.588-00:00",
        "errors":
          [ { "kind": "temporary",
              "id": "proto.011-PtHangz2.prefilter.outdated_endorsement" } ],
        "included_in_blocks":
          [ "BM68EDaN3NvTHNiFoWGDb7KxaQ17cB72hn5yS42veRXaG5vAyzR" ] },
      { "delegate": "tz1gfArv665EUkSg2ojMBzcbfwuPxAvqPvjo",
        "reception_time": "2022-01-17T23:42:57.435-00:00",
        "errors":
          [ { "kind": "temporary",
              "id": "proto.011-PtHangz2.prefilter.outdated_endorsement" } ],
        "included_in_blocks":
          [ "BM68EDaN3NvTHNiFoWGDb7KxaQ17cB72hn5yS42veRXaG5vAyzR" ] },
      { "delegate": "tz1NpWrAyDL9k2Lmnyxcgr9xuJakbBxdq7FB",
        "reception_time": "2022-01-17T23:43:15.346-00:00",
        "included_in_blocks":
          [ "BM68EDaN3NvTHNiFoWGDb7KxaQ17cB72hn5yS42veRXaG5vAyzR" ] },
      { "delegate": "tz3hw2kqXhLUvY65ca1eety2oQTpAvd34R9Q",
        "reception_time": "2022-01-17T23:43:09.820-00:00",
        "included_in_blocks":
          [ "BM68EDaN3NvTHNiFoWGDb7KxaQ17cB72hn5yS42veRXaG5vAyzR" ] },
      { "delegate": "tz3RKYFsLuQzKBtmYuLNas7uMu3AsYd4QdsA",
        "reception_time": "2022-01-17T23:43:09.840-00:00",
        "included_in_blocks":
          [ "BM68EDaN3NvTHNiFoWGDb7KxaQ17cB72hn5yS42veRXaG5vAyzR" ] },
      { "delegate": "tz1hA2m6dTgvtgZPXmP6MEauqiYWpD3KXaRy",
        "reception_time": "2022-01-17T23:43:09.467-00:00",
        "included_in_blocks":
          [ "BM68EDaN3NvTHNiFoWGDb7KxaQ17cB72hn5yS42veRXaG5vAyzR" ] },
      { "delegate": "tz3e7LbZvUtoXhpUD1yb6wuFodZpfYRb9nWJ",
        "reception_time": "2022-01-17T23:43:07.483-00:00",
        "included_in_blocks":
          [ "BM68EDaN3NvTHNiFoWGDb7KxaQ17cB72hn5yS42veRXaG5vAyzR" ] },
      { "delegate": "tz1LBgHhYP4JbYUWB9kPLgpri8STz5bD58EB",
        "reception_time": "2022-01-17T23:43:06.336-00:00",
        "included_in_blocks":
          [ "BM68EDaN3NvTHNiFoWGDb7KxaQ17cB72hn5yS42veRXaG5vAyzR" ] },
      { "delegate": "tz1TRqbYbUf2GyrjErf3hBzgBJPzW8y36qEs",
        "reception_time": "2022-01-17T23:43:03.999-00:00",
        "included_in_blocks":
          [ "BM68EDaN3NvTHNiFoWGDb7KxaQ17cB72hn5yS42veRXaG5vAyzR" ] },
      { "delegate": "tz1S6H83gugqK4dR5Had9jWR9M1ZdAAVgU5e",
        "reception_time": "2022-01-17T23:43:03.126-00:00",
        "included_in_blocks":
          [ "BM68EDaN3NvTHNiFoWGDb7KxaQ17cB72hn5yS42veRXaG5vAyzR" ] },
      { "delegate": "tz1fJHFn6sWEd3NnBPngACuw2dggTv6nQZ7g",
        "reception_time": "2022-01-17T23:43:03.242-00:00",
        "included_in_blocks":
          [ "BM68EDaN3NvTHNiFoWGDb7KxaQ17cB72hn5yS42veRXaG5vAyzR" ] },
      { "delegate": "tz1cYufsxHXJcvANhvS55h3aY32a9BAFB494",
        "reception_time": "2022-01-17T23:43:02.812-00:00",
        "included_in_blocks":
          [ "BM68EDaN3NvTHNiFoWGDb7KxaQ17cB72hn5yS42veRXaG5vAyzR" ] },
      { "delegate": "tz1eVaNx3gCmG1EsLjijkmgAxdLYVf6Bf5Sq",
        "reception_time": "2022-01-17T23:43:02.792-00:00",
        "included_in_blocks":
          [ "BM68EDaN3NvTHNiFoWGDb7KxaQ17cB72hn5yS42veRXaG5vAyzR" ] },
      { "delegate": "tz2FCNBrERXtaTtNX6iimR1UJ5JSDxvdHM93",
        "reception_time": "2022-01-17T23:43:02.262-00:00",
        "included_in_blocks":
          [ "BM68EDaN3NvTHNiFoWGDb7KxaQ17cB72hn5yS42veRXaG5vAyzR" ] },
      { "delegate": "tz1cM8Xc7ZP1TrjkTeKq4PeRhtbnwXSBR6Sw",
        "reception_time": "2022-01-17T23:43:03.061-00:00",
        "included_in_blocks":
          [ "BM68EDaN3NvTHNiFoWGDb7KxaQ17cB72hn5yS42veRXaG5vAyzR" ] },
      { "delegate": "tz1ULYFhUY7Syao5NWr9jZ1pp3aw81QPiqjs",
        "reception_time": "2022-01-17T23:43:02.221-00:00",
        "included_in_blocks":
          [ "BM68EDaN3NvTHNiFoWGDb7KxaQ17cB72hn5yS42veRXaG5vAyzR" ] },
      { "delegate": "tz1SohptP53wDPZhzTWzDUFAUcWF6DMBpaJV",
        "reception_time": "2022-01-17T23:43:01.466-00:00",
        "included_in_blocks":
          [ "BM68EDaN3NvTHNiFoWGDb7KxaQ17cB72hn5yS42veRXaG5vAyzR" ] },
      { "delegate": "tz1PeZx7FXy7QRuMREGXGxeipb24RsMMzUNe",
        "reception_time": "2022-01-17T23:43:01.529-00:00",
        "included_in_blocks":
          [ "BM68EDaN3NvTHNiFoWGDb7KxaQ17cB72hn5yS42veRXaG5vAyzR" ] },
      { "delegate": "tz1dRKU4FQ9QRRQPdaH4zCR6gmCmXfcvcgtB",
        "reception_time": "2022-01-17T23:43:01.269-00:00",
        "included_in_blocks":
          [ "BM68EDaN3NvTHNiFoWGDb7KxaQ17cB72hn5yS42veRXaG5vAyzR" ] },
      { "delegate": "tz1T7duV5gZWSTq4YpBGbXNLTfznCLDrFxvs",
        "reception_time": "2022-01-17T23:43:01.533-00:00",
        "included_in_blocks":
          [ "BM68EDaN3NvTHNiFoWGDb7KxaQ17cB72hn5yS42veRXaG5vAyzR" ] },
      { "delegate": "tz1RjoHc98dBoqaH2jawF62XNKh7YsHwbkEv",
        "reception_time": "2022-01-17T23:43:02.068-00:00",
        "included_in_blocks":
          [ "BM68EDaN3NvTHNiFoWGDb7KxaQ17cB72hn5yS42veRXaG5vAyzR" ] },
      { "delegate": "tz1aRoaRhSpRYvFdyvgWLL6TGyRoGF51wDjM",
        "reception_time": "2022-01-17T23:43:00.691-00:00",
        "included_in_blocks":
          [ "BM68EDaN3NvTHNiFoWGDb7KxaQ17cB72hn5yS42veRXaG5vAyzR" ] },
      { "delegate": "tz1WctSwL49BZtdWAQ75NY6vr4xsAx6oKdah",
        "reception_time": "2022-01-17T23:43:01.120-00:00",
        "included_in_blocks":
          [ "BM68EDaN3NvTHNiFoWGDb7KxaQ17cB72hn5yS42veRXaG5vAyzR" ] },
      { "delegate": "tz1S8MNvuFEUsWgjHvi3AxibRBf388NhT1q2",
        "reception_time": "2022-01-17T23:43:01.639-00:00",
        "included_in_blocks":
          [ "BM68EDaN3NvTHNiFoWGDb7KxaQ17cB72hn5yS42veRXaG5vAyzR" ] },
      { "delegate": "tz3bvNMQ95vfAYtG8193ymshqjSvmxiCUuR5",
        "reception_time": "2022-01-17T23:43:00.926-00:00",
        "included_in_blocks":
          [ "BM68EDaN3NvTHNiFoWGDb7KxaQ17cB72hn5yS42veRXaG5vAyzR" ] },
      { "delegate": "tz1NEKxGEHsFufk87CVZcrqWu8o22qh46GK6",
        "reception_time": "2022-01-17T23:43:01.144-00:00",
        "included_in_blocks":
          [ "BM68EDaN3NvTHNiFoWGDb7KxaQ17cB72hn5yS42veRXaG5vAyzR" ] },
      { "delegate": "tz3RDC3Jdn4j15J7bBHZd29EUee9gVB1CxD9",
        "reception_time": "2022-01-17T23:43:00.673-00:00",
        "included_in_blocks":
          [ "BM68EDaN3NvTHNiFoWGDb7KxaQ17cB72hn5yS42veRXaG5vAyzR" ] },
      { "delegate": "tz3NExpXn9aPNZPorRE4SdjJ2RGrfbJgMAaV",
        "reception_time": "2022-01-17T23:43:01.417-00:00",
        "included_in_blocks":
          [ "BM68EDaN3NvTHNiFoWGDb7KxaQ17cB72hn5yS42veRXaG5vAyzR" ] },
      { "delegate": "tz1axcnVN9tZnCe4sQQhC6f3tfSEXdjPaXPY",
        "reception_time": "2022-01-17T23:43:00.495-00:00",
        "included_in_blocks":
          [ "BM68EDaN3NvTHNiFoWGDb7KxaQ17cB72hn5yS42veRXaG5vAyzR" ] },
      { "delegate": "tz1RCFbB9GpALpsZtu6J58sb74dm8qe6XBzv",
        "reception_time": "2022-01-17T23:43:00.475-00:00",
        "included_in_blocks":
          [ "BM68EDaN3NvTHNiFoWGDb7KxaQ17cB72hn5yS42veRXaG5vAyzR" ] },
      { "delegate": "tz1MGTFJXpQmtxLi8QJ7AuVRgM2L2Qfn9w9i",
        "reception_time": "2022-01-17T23:43:00.393-00:00",
        "included_in_blocks":
          [ "BM68EDaN3NvTHNiFoWGDb7KxaQ17cB72hn5yS42veRXaG5vAyzR" ] },
      { "delegate": "tz1WBfwbT66FC6BTLexc2BoyCCBM9LG7pnVW",
        "reception_time": "2022-01-17T23:43:00.130-00:00",
        "included_in_blocks":
          [ "BM68EDaN3NvTHNiFoWGDb7KxaQ17cB72hn5yS42veRXaG5vAyzR" ] },
      { "delegate": "tz1TEc75UKXv4W5cwi14Na3NtqFD51yKQi7h",
        "reception_time": "2022-01-17T23:43:00.511-00:00",
        "included_in_blocks":
          [ "BM68EDaN3NvTHNiFoWGDb7KxaQ17cB72hn5yS42veRXaG5vAyzR" ] },
      { "delegate": "tz1Nf6tsK4G6bBqgSQERy4nUtkHNKUVdh7q1",
        "reception_time": "2022-01-17T23:43:00.507-00:00",
        "included_in_blocks":
          [ "BM68EDaN3NvTHNiFoWGDb7KxaQ17cB72hn5yS42veRXaG5vAyzR" ] },
      { "delegate": "tz1iPHM2Xx2hwmzcr1EG1zzrV6oKafVoA91m",
        "reception_time": "2022-01-17T23:43:00.412-00:00",
        "included_in_blocks":
          [ "BM68EDaN3NvTHNiFoWGDb7KxaQ17cB72hn5yS42veRXaG5vAyzR" ] },
      { "delegate": "tz1fPKAtsYydh4f1wfWNfeNxWYu72TmM48fu",
        "reception_time": "2022-01-17T23:43:00.983-00:00",
        "included_in_blocks":
          [ "BM68EDaN3NvTHNiFoWGDb7KxaQ17cB72hn5yS42veRXaG5vAyzR" ] },
      { "delegate": "tz1cZfFQpcYhwDp7y1njZXDsZqCrn2NqmVof",
        "reception_time": "2022-01-17T23:42:59.970-00:00",
        "included_in_blocks":
          [ "BM68EDaN3NvTHNiFoWGDb7KxaQ17cB72hn5yS42veRXaG5vAyzR" ] },
      { "delegate": "tz1TXzyaKUA8wsWefdSnyaYFnV2M3vCV7er9",
        "reception_time": "2022-01-17T23:42:59.957-00:00",
        "included_in_blocks":
          [ "BM68EDaN3NvTHNiFoWGDb7KxaQ17cB72hn5yS42veRXaG5vAyzR" ] },
      { "delegate": "tz3QCNyySViKHmeSr45kzDxzchys7NiXCWoa",
        "reception_time": "2022-01-17T23:42:59.879-00:00",
        "included_in_blocks":
          [ "BM68EDaN3NvTHNiFoWGDb7KxaQ17cB72hn5yS42veRXaG5vAyzR" ] },
      { "delegate": "tz1dwu9aYb7CRNq4Y2zAjipdjFuSVKhHS8vA",
        "reception_time": "2022-01-17T23:42:59.934-00:00",
        "included_in_blocks":
          [ "BM68EDaN3NvTHNiFoWGDb7KxaQ17cB72hn5yS42veRXaG5vAyzR" ] },
      { "delegate": "tz3NDpRj6WBrJPikcPVHRBEjWKxFw3c6eQPS",
        "reception_time": "2022-01-17T23:43:00.003-00:00",
        "included_in_blocks":
          [ "BM68EDaN3NvTHNiFoWGDb7KxaQ17cB72hn5yS42veRXaG5vAyzR" ] },
      { "delegate": "tz3VEZ4k6a4Wx42iyev6i2aVAptTRLEAivNN",
        "reception_time": "2022-01-17T23:43:00.946-00:00",
        "included_in_blocks":
          [ "BM68EDaN3NvTHNiFoWGDb7KxaQ17cB72hn5yS42veRXaG5vAyzR" ] },
      { "delegate": "tz1LmaFsWRkjr7QMCx5PtV6xTUz3AmEpKQiF",
        "reception_time": "2022-01-17T23:43:00.762-00:00",
        "included_in_blocks":
          [ "BM68EDaN3NvTHNiFoWGDb7KxaQ17cB72hn5yS42veRXaG5vAyzR" ] },
      { "delegate": "tz1SYq214SCBy9naR6cvycQsYcUGpBqQAE8d",
        "reception_time": "2022-01-17T23:43:00.605-00:00",
        "included_in_blocks":
          [ "BM68EDaN3NvTHNiFoWGDb7KxaQ17cB72hn5yS42veRXaG5vAyzR" ] },
      { "delegate": "tz3bTdwZinP8U1JmSweNzVKhmwafqWmFWRfk",
        "reception_time": "2022-01-17T23:42:59.890-00:00",
        "included_in_blocks":
          [ "BM68EDaN3NvTHNiFoWGDb7KxaQ17cB72hn5yS42veRXaG5vAyzR" ] },
      { "delegate": "tz1dNVDWPf3Q59SdJqnjdnu277iyvReiRS9M",
        "reception_time": "2022-01-17T23:43:00.006-00:00",
        "included_in_blocks":
          [ "BM68EDaN3NvTHNiFoWGDb7KxaQ17cB72hn5yS42veRXaG5vAyzR" ] },
      { "delegate": "tz1g8vkmcde6sWKaG2NN9WKzCkDM6Rziq194",
        "reception_time": "2022-01-17T23:42:59.893-00:00",
        "included_in_blocks":
          [ "BM68EDaN3NvTHNiFoWGDb7KxaQ17cB72hn5yS42veRXaG5vAyzR" ] },
      { "delegate": "tz1UMCB2AHSTwG7YcGNr31CqYCtGN873royv",
        "reception_time": "2022-01-17T23:42:59.972-00:00",
        "included_in_blocks":
          [ "BM68EDaN3NvTHNiFoWGDb7KxaQ17cB72hn5yS42veRXaG5vAyzR" ] },
      { "delegate": "tz1MQMiZHV8q4tTwUMWmS5Y3kaP6J2136iXr",
        "reception_time": "2022-01-17T23:43:00.276-00:00",
        "included_in_blocks":
          [ "BM68EDaN3NvTHNiFoWGDb7KxaQ17cB72hn5yS42veRXaG5vAyzR" ] },
      { "delegate": "tz1KfEsrtDaA1sX7vdM4qmEPWuSytuqCDp5j",
        "reception_time": "2022-01-17T23:43:00.148-00:00",
        "included_in_blocks":
          [ "BM68EDaN3NvTHNiFoWGDb7KxaQ17cB72hn5yS42veRXaG5vAyzR" ] },
      { "delegate": "tz1gcna2xxZj2eNp1LaMyAhVJ49mEFj4FH26",
        "reception_time": "2022-01-17T23:42:59.832-00:00",
        "included_in_blocks":
          [ "BM68EDaN3NvTHNiFoWGDb7KxaQ17cB72hn5yS42veRXaG5vAyzR" ] },
      { "delegate": "tz1MJx9vhaNRSimcuXPK2rW4fLccQnDAnVKJ",
        "reception_time": "2022-01-17T23:42:59.871-00:00",
        "included_in_blocks":
          [ "BM68EDaN3NvTHNiFoWGDb7KxaQ17cB72hn5yS42veRXaG5vAyzR" ] },
      { "delegate": "tz1gUNyn3hmnEWqkusWPzxRaon1cs7ndWh7h",
        "reception_time": "2022-01-17T23:42:59.857-00:00",
        "included_in_blocks":
          [ "BM68EDaN3NvTHNiFoWGDb7KxaQ17cB72hn5yS42veRXaG5vAyzR" ] },
      { "delegate": "tz1VQnqCCqX4K5sP3FNkVSNKTdCAMJDd3E1n",
        "reception_time": "2022-01-17T23:42:59.857-00:00",
        "included_in_blocks":
          [ "BM68EDaN3NvTHNiFoWGDb7KxaQ17cB72hn5yS42veRXaG5vAyzR" ] },
      { "delegate": "tz3RB4aoyjov4KEVRbuhvQ1CKJgBJMWhaeB8",
        "reception_time": "2022-01-17T23:42:59.865-00:00",
        "included_in_blocks":
          [ "BM68EDaN3NvTHNiFoWGDb7KxaQ17cB72hn5yS42veRXaG5vAyzR" ] },
      { "delegate": "tz1Ldzz6k1BHdhuKvAtMRX7h5kJSMHESMHLC",
        "reception_time": "2022-01-17T23:42:59.838-00:00",
        "included_in_blocks":
          [ "BM68EDaN3NvTHNiFoWGDb7KxaQ17cB72hn5yS42veRXaG5vAyzR" ] },
      { "delegate": "tz1TzaNn7wSQSP5gYPXCnNzBCpyMiidCq1PX",
        "reception_time": "2022-01-17T23:42:59.797-00:00",
        "included_in_blocks":
          [ "BM68EDaN3NvTHNiFoWGDb7KxaQ17cB72hn5yS42veRXaG5vAyzR" ] },
      { "delegate": "tz1aqcYgG6NuViML5vdWhohHJBYxcDVLNUsE",
        "reception_time": "2022-01-17T23:42:59.851-00:00",
        "included_in_blocks":
          [ "BM68EDaN3NvTHNiFoWGDb7KxaQ17cB72hn5yS42veRXaG5vAyzR" ] },
      { "delegate": "tz3WMqdzXqRWXwyvj5Hp2H7QEepaUuS7vd9K",
        "reception_time": "2022-01-17T23:43:00.101-00:00",
        "included_in_blocks":
          [ "BM68EDaN3NvTHNiFoWGDb7KxaQ17cB72hn5yS42veRXaG5vAyzR" ] },
      { "delegate": "tz1bsdrs36X5BTH83RHUBdUouKLJZK8d2oBa",
        "reception_time": "2022-01-17T23:42:59.843-00:00",
        "included_in_blocks":
          [ "BM68EDaN3NvTHNiFoWGDb7KxaQ17cB72hn5yS42veRXaG5vAyzR" ] },
      { "delegate": "tz3UoffC7FG7zfpmvmjUmUeAaHvzdcUvAj6r",
        "reception_time": "2022-01-17T23:43:00.287-00:00",
        "included_in_blocks":
          [ "BM68EDaN3NvTHNiFoWGDb7KxaQ17cB72hn5yS42veRXaG5vAyzR" ] },
      { "delegate": "tz1aXD7Jigrt3PBYSpHSg5Rr33SexMmmM5Ys",
        "reception_time": "2022-01-17T23:42:59.869-00:00",
        "included_in_blocks":
          [ "BM68EDaN3NvTHNiFoWGDb7KxaQ17cB72hn5yS42veRXaG5vAyzR" ] },
      { "delegate": "tz1ei4WtWEMEJekSv8qDnu9PExG6Q8HgRGr3",
        "reception_time": "2022-01-17T23:42:59.848-00:00",
        "included_in_blocks":
          [ "BM68EDaN3NvTHNiFoWGDb7KxaQ17cB72hn5yS42veRXaG5vAyzR" ] },
      { "delegate": "tz3gtoUxdudfBRcNY7iVdKPHCYYX6xdPpoRS",
        "reception_time": "2022-01-17T23:42:59.808-00:00",
        "included_in_blocks":
          [ "BM68EDaN3NvTHNiFoWGDb7KxaQ17cB72hn5yS42veRXaG5vAyzR" ] },
      { "delegate": "tz3S6BBeKgJGXxvLyZ1xzXzMPn11nnFtq5L9",
        "reception_time": "2022-01-17T23:42:59.821-00:00",
        "included_in_blocks":
          [ "BM68EDaN3NvTHNiFoWGDb7KxaQ17cB72hn5yS42veRXaG5vAyzR" ] },
      { "delegate": "tz3QT9dHYKDqh563chVa6za8526ys1UKfRfL",
        "reception_time": "2022-01-17T23:42:59.821-00:00",
        "included_in_blocks":
          [ "BM68EDaN3NvTHNiFoWGDb7KxaQ17cB72hn5yS42veRXaG5vAyzR" ] },
      { "delegate": "tz3QSGPoRp3Kn7n3vY24eYeu3Peuqo45LQ4D",
        "reception_time": "2022-01-17T23:42:59.793-00:00",
        "included_in_blocks":
          [ "BM68EDaN3NvTHNiFoWGDb7KxaQ17cB72hn5yS42veRXaG5vAyzR" ] } ] }