{ "blocks":
    [ { "hash": "BLnUepnASJCQzvhJJEwnqS9NuT9tqJfeSMDCPADrx28g5SwyBiy",
        "delegate": "tz1irJKkXS2DBWkU1NnmFQx1c1L7pbGg4yhk",
        "reception_time": "2022-01-17T23:53:56.468-00:00",
        "timestamp": "2022-01-17T23:53:50Z" } ],
  "endorsements":
    [ { "delegate": "tz1VQnqCCqX4K5sP3FNkVSNKTdCAMJDd3E1n",
        "reception_time": "2022-01-17T23:53:56.294-00:00",
        "errors":
          [ { "kind": "temporary",
              "id": "proto.011-PtHangz2.prefilter.outdated_endorsement" } ],
        "included_in_blocks":
          [ "BMMwi4GERvRgqcwNYidDSr68BuATTDLtcArkGitxinqPEFDXFyK" ] },
      { "delegate": "tz1eDDuQBEgwvc6tbnnCVrnr12tvrd6gBTpx",
        "reception_time": "2022-01-17T23:53:56.266-00:00",
        "errors":
          [ { "kind": "temporary",
              "id": "proto.011-PtHangz2.prefilter.outdated_endorsement" } ],
        "included_in_blocks":
          [ "BMMwi4GERvRgqcwNYidDSr68BuATTDLtcArkGitxinqPEFDXFyK" ] },
      { "delegate": "tz1gUNyn3hmnEWqkusWPzxRaon1cs7ndWh7h",
        "reception_time": "2022-01-17T23:53:56.248-00:00",
        "errors":
          [ { "kind": "temporary",
              "id": "proto.011-PtHangz2.prefilter.outdated_endorsement" } ],
        "included_in_blocks":
          [ "BMMwi4GERvRgqcwNYidDSr68BuATTDLtcArkGitxinqPEFDXFyK" ] },
      { "delegate": "tz1ZPh7XfUaJXUDvkrBxmS1BjEM1i62hiPpM",
        "reception_time": "2022-01-17T23:53:56.075-00:00",
        "errors":
          [ { "kind": "temporary",
              "id": "proto.011-PtHangz2.prefilter.outdated_endorsement" } ],
        "included_in_blocks":
          [ "BMMwi4GERvRgqcwNYidDSr68BuATTDLtcArkGitxinqPEFDXFyK" ] },
      { "delegate": "tz1irJKkXS2DBWkU1NnmFQx1c1L7pbGg4yhk",
        "reception_time": "2022-01-17T23:53:56.049-00:00",
        "errors":
          [ { "kind": "temporary",
              "id": "proto.011-PtHangz2.prefilter.outdated_endorsement" } ],
        "included_in_blocks":
          [ "BMMwi4GERvRgqcwNYidDSr68BuATTDLtcArkGitxinqPEFDXFyK" ] },
      { "delegate": "tz1beersuEDv8Z7ngQ825xfbaJNS2EhXnyHR",
        "reception_time": "2022-01-17T23:53:56.043-00:00",
        "errors":
          [ { "kind": "temporary",
              "id": "proto.011-PtHangz2.prefilter.outdated_endorsement" } ],
        "included_in_blocks":
          [ "BMMwi4GERvRgqcwNYidDSr68BuATTDLtcArkGitxinqPEFDXFyK" ] },
      { "delegate": "tz1TXzyaKUA8wsWefdSnyaYFnV2M3vCV7er9",
        "reception_time": "2022-01-17T23:53:56.035-00:00",
        "errors":
          [ { "kind": "temporary",
              "id": "proto.011-PtHangz2.prefilter.outdated_endorsement" } ],
        "included_in_blocks":
          [ "BMMwi4GERvRgqcwNYidDSr68BuATTDLtcArkGitxinqPEFDXFyK" ] },
      { "delegate": "tz1eEnQhbwf6trb8Q8mPb2RaPkNk2rN7BKi8",
        "reception_time": "2022-01-17T23:53:56.017-00:00",
        "errors":
          [ { "kind": "temporary",
              "id": "proto.011-PtHangz2.prefilter.outdated_endorsement" } ],
        "included_in_blocks":
          [ "BMMwi4GERvRgqcwNYidDSr68BuATTDLtcArkGitxinqPEFDXFyK" ] },
      { "delegate": "tz1dbfppLAAxXZNtf2SDps7rch3qfUznKSoK",
        "reception_time": "2022-01-17T23:53:56.010-00:00",
        "errors":
          [ { "kind": "temporary",
              "id": "proto.011-PtHangz2.prefilter.outdated_endorsement" } ],
        "included_in_blocks":
          [ "BMMwi4GERvRgqcwNYidDSr68BuATTDLtcArkGitxinqPEFDXFyK" ] },
      { "delegate": "tz1P2Po7YM526ughEsRbY4oR9zaUPDZjxFrb",
        "reception_time": "2022-01-17T23:53:55.957-00:00",
        "errors":
          [ { "kind": "temporary",
              "id": "proto.011-PtHangz2.prefilter.outdated_endorsement" } ],
        "included_in_blocks":
          [ "BMMwi4GERvRgqcwNYidDSr68BuATTDLtcArkGitxinqPEFDXFyK" ] },
      { "delegate": "tz1Lhf4J9Qxoe3DZ2nfe8FGDnvVj7oKjnMY6",
        "reception_time": "2022-01-17T23:53:55.848-00:00",
        "errors":
          [ { "kind": "temporary",
              "id": "proto.011-PtHangz2.prefilter.outdated_endorsement" } ],
        "included_in_blocks":
          [ "BMMwi4GERvRgqcwNYidDSr68BuATTDLtcArkGitxinqPEFDXFyK" ] },
      { "delegate": "tz1S8e9GgdZG78XJRB3NqabfWeM37GnhZMWQ",
        "reception_time": "2022-01-17T23:53:55.625-00:00",
        "errors":
          [ { "kind": "temporary",
              "id": "proto.011-PtHangz2.prefilter.outdated_endorsement" } ],
        "included_in_blocks":
          [ "BMMwi4GERvRgqcwNYidDSr68BuATTDLtcArkGitxinqPEFDXFyK" ] },
      { "delegate": "tz1MduLJ4AAR6g7CDjB77Jci3gvu3Xsvk6bJ" },
      { "delegate": "tz1NdhRv643wLW6zCcRP3VfT24dvDnh7nuh9" },
      { "delegate": "tz1R664EP6wjcM1RSUVJ7nrJisTpBW9QyJzP" },
      { "delegate": "tz1ibcPVGK4Y8pcW4BYUsojiHoBKnZbyDGrX" },
      { "delegate": "tz1Kf25fX1VdmYGSEzwFy1wNmkbSEZ2V83sY",
        "reception_time": "2022-01-17T23:53:56.757-00:00",
        "included_in_blocks":
          [ "BMMwi4GERvRgqcwNYidDSr68BuATTDLtcArkGitxinqPEFDXFyK" ] },
      { "delegate": "tz3NxTnke1acr8o3h5y9ytf5awQBGNJUKzVU",
        "reception_time": "2022-01-17T23:53:57.442-00:00",
        "included_in_blocks":
          [ "BMMwi4GERvRgqcwNYidDSr68BuATTDLtcArkGitxinqPEFDXFyK" ] },
      { "delegate": "tz3gtoUxdudfBRcNY7iVdKPHCYYX6xdPpoRS",
        "reception_time": "2022-01-17T23:53:57.527-00:00",
        "included_in_blocks":
          [ "BMMwi4GERvRgqcwNYidDSr68BuATTDLtcArkGitxinqPEFDXFyK" ] },
      { "delegate": "tz3QSGPoRp3Kn7n3vY24eYeu3Peuqo45LQ4D",
        "reception_time": "2022-01-17T23:53:57.535-00:00",
        "included_in_blocks":
          [ "BMMwi4GERvRgqcwNYidDSr68BuATTDLtcArkGitxinqPEFDXFyK" ] },
      { "delegate": "tz3ZbP2pM3nwvXztbuMJwJnDvV5xdpU8UkkD",
        "reception_time": "2022-01-17T23:53:57.576-00:00",
        "included_in_blocks":
          [ "BMMwi4GERvRgqcwNYidDSr68BuATTDLtcArkGitxinqPEFDXFyK" ] },
      { "delegate": "tz1h4GUAMweP7SNWzDgvMk3yRCAZyaP1MxZq",
        "reception_time": "2022-01-17T23:53:57.707-00:00",
        "included_in_blocks":
          [ "BMMwi4GERvRgqcwNYidDSr68BuATTDLtcArkGitxinqPEFDXFyK" ] },
      { "delegate": "tz1Ldzz6k1BHdhuKvAtMRX7h5kJSMHESMHLC",
        "reception_time": "2022-01-17T23:53:57.718-00:00",
        "included_in_blocks":
          [ "BMMwi4GERvRgqcwNYidDSr68BuATTDLtcArkGitxinqPEFDXFyK" ] },
      { "delegate": "tz1WCd2jm4uSt4vntk4vSuUWoZQGhLcDuR9q",
        "reception_time": "2022-01-17T23:53:57.767-00:00",
        "included_in_blocks":
          [ "BMMwi4GERvRgqcwNYidDSr68BuATTDLtcArkGitxinqPEFDXFyK" ] },
      { "delegate": "tz3iJu5vrKZcsqRPs8yJ61UDoeEXZmtro4qh",
        "reception_time": "2022-01-17T23:53:57.782-00:00",
        "included_in_blocks":
          [ "BMMwi4GERvRgqcwNYidDSr68BuATTDLtcArkGitxinqPEFDXFyK" ] },
      { "delegate": "tz1TRspM5SeZpaQUhzByXbEvqKF1vnCM2YTK",
        "reception_time": "2022-01-17T23:53:57.790-00:00",
        "included_in_blocks":
          [ "BMMwi4GERvRgqcwNYidDSr68BuATTDLtcArkGitxinqPEFDXFyK" ] },
      { "delegate": "tz3S6BBeKgJGXxvLyZ1xzXzMPn11nnFtq5L9",
        "reception_time": "2022-01-17T23:53:57.806-00:00",
        "included_in_blocks":
          [ "BMMwi4GERvRgqcwNYidDSr68BuATTDLtcArkGitxinqPEFDXFyK" ] },
      { "delegate": "tz1VmiY38m3y95HqQLjMwqnMS7sdMfGomzKi",
        "reception_time": "2022-01-17T23:53:57.875-00:00",
        "included_in_blocks":
          [ "BMMwi4GERvRgqcwNYidDSr68BuATTDLtcArkGitxinqPEFDXFyK" ] },
      { "delegate": "tz1RCFbB9GpALpsZtu6J58sb74dm8qe6XBzv",
        "reception_time": "2022-01-17T23:53:57.885-00:00",
        "included_in_blocks":
          [ "BMMwi4GERvRgqcwNYidDSr68BuATTDLtcArkGitxinqPEFDXFyK" ] },
      { "delegate": "tz1cSj7fTex3JPd1p1LN1fwek6AV1kH93Wwc",
        "reception_time": "2022-01-17T23:53:57.885-00:00",
        "included_in_blocks":
          [ "BMMwi4GERvRgqcwNYidDSr68BuATTDLtcArkGitxinqPEFDXFyK" ] },
      { "delegate": "tz3Zhs2dygr55yHyQyKjntAtY9bgfhLZ4Xj1",
        "reception_time": "2022-01-17T23:53:57.924-00:00",
        "included_in_blocks":
          [ "BMMwi4GERvRgqcwNYidDSr68BuATTDLtcArkGitxinqPEFDXFyK" ] },
      { "delegate": "tz3QT9dHYKDqh563chVa6za8526ys1UKfRfL",
        "reception_time": "2022-01-17T23:53:57.936-00:00",
        "included_in_blocks":
          [ "BMMwi4GERvRgqcwNYidDSr68BuATTDLtcArkGitxinqPEFDXFyK" ] },
      { "delegate": "tz1fPKAtsYydh4f1wfWNfeNxWYu72TmM48fu",
        "reception_time": "2022-01-17T23:53:58.061-00:00",
        "included_in_blocks":
          [ "BMMwi4GERvRgqcwNYidDSr68BuATTDLtcArkGitxinqPEFDXFyK" ] },
      { "delegate": "tz1MQMiZHV8q4tTwUMWmS5Y3kaP6J2136iXr",
        "reception_time": "2022-01-17T23:53:58.070-00:00",
        "included_in_blocks":
          [ "BMMwi4GERvRgqcwNYidDSr68BuATTDLtcArkGitxinqPEFDXFyK" ] },
      { "delegate": "tz1SYq214SCBy9naR6cvycQsYcUGpBqQAE8d",
        "reception_time": "2022-01-17T23:53:58.070-00:00",
        "included_in_blocks":
          [ "BMMwi4GERvRgqcwNYidDSr68BuATTDLtcArkGitxinqPEFDXFyK" ] },
      { "delegate": "tz3QCNyySViKHmeSr45kzDxzchys7NiXCWoa",
        "reception_time": "2022-01-17T23:53:58.127-00:00",
        "included_in_blocks":
          [ "BMMwi4GERvRgqcwNYidDSr68BuATTDLtcArkGitxinqPEFDXFyK" ] },
      { "delegate": "tz1gfArv665EUkSg2ojMBzcbfwuPxAvqPvjo",
        "reception_time": "2022-01-17T23:53:58.182-00:00",
        "included_in_blocks":
          [ "BMMwi4GERvRgqcwNYidDSr68BuATTDLtcArkGitxinqPEFDXFyK" ] },
      { "delegate": "tz1S8MNvuFEUsWgjHvi3AxibRBf388NhT1q2",
        "reception_time": "2022-01-17T23:53:58.201-00:00",
        "included_in_blocks":
          [ "BMMwi4GERvRgqcwNYidDSr68BuATTDLtcArkGitxinqPEFDXFyK" ] },
      { "delegate": "tz1PWCDnz783NNGGQjEFFsHtrcK5yBW4E2rm",
        "reception_time": "2022-01-17T23:53:58.308-00:00",
        "included_in_blocks":
          [ "BMMwi4GERvRgqcwNYidDSr68BuATTDLtcArkGitxinqPEFDXFyK" ] },
      { "delegate": "tz2FCNBrERXtaTtNX6iimR1UJ5JSDxvdHM93",
        "reception_time": "2022-01-17T23:53:58.344-00:00",
        "included_in_blocks":
          [ "BMMwi4GERvRgqcwNYidDSr68BuATTDLtcArkGitxinqPEFDXFyK" ] },
      { "delegate": "tz1ei4WtWEMEJekSv8qDnu9PExG6Q8HgRGr3",
        "reception_time": "2022-01-17T23:53:58.360-00:00",
        "included_in_blocks":
          [ "BMMwi4GERvRgqcwNYidDSr68BuATTDLtcArkGitxinqPEFDXFyK" ] },
      { "delegate": "tz1TEc75UKXv4W5cwi14Na3NtqFD51yKQi7h",
        "reception_time": "2022-01-17T23:53:58.377-00:00",
        "included_in_blocks":
          [ "BMMwi4GERvRgqcwNYidDSr68BuATTDLtcArkGitxinqPEFDXFyK" ] },
      { "delegate": "tz1TwVimQy3BywXoSszdFXjT9bSTQrsZYo2u",
        "reception_time": "2022-01-17T23:53:58.507-00:00",
        "included_in_blocks":
          [ "BMMwi4GERvRgqcwNYidDSr68BuATTDLtcArkGitxinqPEFDXFyK" ] },
      { "delegate": "tz1V4qCyvPKZ5UeqdH14HN42rxvNPQfc9UZg",
        "reception_time": "2022-01-17T23:53:58.520-00:00",
        "included_in_blocks":
          [ "BMMwi4GERvRgqcwNYidDSr68BuATTDLtcArkGitxinqPEFDXFyK" ] },
      { "delegate": "tz1dNVDWPf3Q59SdJqnjdnu277iyvReiRS9M",
        "reception_time": "2022-01-17T23:53:58.525-00:00",
        "included_in_blocks":
          [ "BMMwi4GERvRgqcwNYidDSr68BuATTDLtcArkGitxinqPEFDXFyK" ] },
      { "delegate": "tz3bTdwZinP8U1JmSweNzVKhmwafqWmFWRfk",
        "reception_time": "2022-01-17T23:53:58.586-00:00",
        "included_in_blocks":
          [ "BMMwi4GERvRgqcwNYidDSr68BuATTDLtcArkGitxinqPEFDXFyK" ] },
      { "delegate": "tz1dwu9aYb7CRNq4Y2zAjipdjFuSVKhHS8vA",
        "reception_time": "2022-01-17T23:53:58.593-00:00",
        "included_in_blocks":
          [ "BMMwi4GERvRgqcwNYidDSr68BuATTDLtcArkGitxinqPEFDXFyK" ] },
      { "delegate": "tz3RB4aoyjov4KEVRbuhvQ1CKJgBJMWhaeB8",
        "reception_time": "2022-01-17T23:53:58.604-00:00",
        "included_in_blocks":
          [ "BMMwi4GERvRgqcwNYidDSr68BuATTDLtcArkGitxinqPEFDXFyK" ] },
      { "delegate": "tz1g8vkmcde6sWKaG2NN9WKzCkDM6Rziq194",
        "reception_time": "2022-01-17T23:53:58.604-00:00",
        "included_in_blocks":
          [ "BMMwi4GERvRgqcwNYidDSr68BuATTDLtcArkGitxinqPEFDXFyK" ] },
      { "delegate": "tz1awXW7wuXy21c66vBudMXQVAPgRnqqwgTH",
        "reception_time": "2022-01-17T23:53:58.627-00:00",
        "included_in_blocks":
          [ "BMMwi4GERvRgqcwNYidDSr68BuATTDLtcArkGitxinqPEFDXFyK" ] },
      { "delegate": "tz1cUTyvZAs9ExrK8Fq88UvaaBrb72bseicE",
        "reception_time": "2022-01-17T23:53:58.631-00:00",
        "included_in_blocks":
          [ "BMMwi4GERvRgqcwNYidDSr68BuATTDLtcArkGitxinqPEFDXFyK" ] },
      { "delegate": "tz1LmaFsWRkjr7QMCx5PtV6xTUz3AmEpKQiF",
        "reception_time": "2022-01-17T23:53:58.636-00:00",
        "included_in_blocks":
          [ "BMMwi4GERvRgqcwNYidDSr68BuATTDLtcArkGitxinqPEFDXFyK" ] },
      { "delegate": "tz1abmz7jiCV2GH2u81LRrGgAFFgvQgiDiaf",
        "reception_time": "2022-01-17T23:53:58.647-00:00",
        "included_in_blocks":
          [ "BMMwi4GERvRgqcwNYidDSr68BuATTDLtcArkGitxinqPEFDXFyK" ] },
      { "delegate": "tz3hw2kqXhLUvY65ca1eety2oQTpAvd34R9Q",
        "reception_time": "2022-01-17T23:53:58.665-00:00",
        "included_in_blocks":
          [ "BMMwi4GERvRgqcwNYidDSr68BuATTDLtcArkGitxinqPEFDXFyK" ] },
      { "delegate": "tz3bvNMQ95vfAYtG8193ymshqjSvmxiCUuR5",
        "reception_time": "2022-01-17T23:53:58.696-00:00",
        "included_in_blocks":
          [ "BMMwi4GERvRgqcwNYidDSr68BuATTDLtcArkGitxinqPEFDXFyK" ] },
      { "delegate": "tz1T7duV5gZWSTq4YpBGbXNLTfznCLDrFxvs",
        "reception_time": "2022-01-17T23:53:58.710-00:00",
        "included_in_blocks":
          [ "BMMwi4GERvRgqcwNYidDSr68BuATTDLtcArkGitxinqPEFDXFyK" ] },
      { "delegate": "tz1Nf6tsK4G6bBqgSQERy4nUtkHNKUVdh7q1",
        "reception_time": "2022-01-17T23:53:58.720-00:00",
        "included_in_blocks":
          [ "BMMwi4GERvRgqcwNYidDSr68BuATTDLtcArkGitxinqPEFDXFyK" ] },
      { "delegate": "tz1TRqbYbUf2GyrjErf3hBzgBJPzW8y36qEs",
        "reception_time": "2022-01-17T23:53:58.723-00:00",
        "included_in_blocks":
          [ "BMMwi4GERvRgqcwNYidDSr68BuATTDLtcArkGitxinqPEFDXFyK" ] },
      { "delegate": "tz1cYufsxHXJcvANhvS55h3aY32a9BAFB494",
        "reception_time": "2022-01-17T23:53:58.745-00:00",
        "included_in_blocks":
          [ "BMMwi4GERvRgqcwNYidDSr68BuATTDLtcArkGitxinqPEFDXFyK" ] },
      { "delegate": "tz3RDC3Jdn4j15J7bBHZd29EUee9gVB1CxD9",
        "reception_time": "2022-01-17T23:53:58.757-00:00",
        "included_in_blocks":
          [ "BMMwi4GERvRgqcwNYidDSr68BuATTDLtcArkGitxinqPEFDXFyK" ] },
      { "delegate": "tz3VEZ4k6a4Wx42iyev6i2aVAptTRLEAivNN",
        "reception_time": "2022-01-17T23:53:58.813-00:00",
        "included_in_blocks":
          [ "BMMwi4GERvRgqcwNYidDSr68BuATTDLtcArkGitxinqPEFDXFyK" ] },
      { "delegate": "tz3WMqdzXqRWXwyvj5Hp2H7QEepaUuS7vd9K",
        "reception_time": "2022-01-17T23:53:58.821-00:00",
        "included_in_blocks":
          [ "BMMwi4GERvRgqcwNYidDSr68BuATTDLtcArkGitxinqPEFDXFyK" ] },
      { "delegate": "tz3UoffC7FG7zfpmvmjUmUeAaHvzdcUvAj6r",
        "reception_time": "2022-01-17T23:53:58.864-00:00",
        "included_in_blocks":
          [ "BMMwi4GERvRgqcwNYidDSr68BuATTDLtcArkGitxinqPEFDXFyK" ] },
      { "delegate": "tz1dRKU4FQ9QRRQPdaH4zCR6gmCmXfcvcgtB",
        "reception_time": "2022-01-17T23:53:59.132-00:00",
        "included_in_blocks":
          [ "BMMwi4GERvRgqcwNYidDSr68BuATTDLtcArkGitxinqPEFDXFyK" ] },
      { "delegate": "tz3NExpXn9aPNZPorRE4SdjJ2RGrfbJgMAaV",
        "reception_time": "2022-01-17T23:53:59.483-00:00",
        "included_in_blocks":
          [ "BMMwi4GERvRgqcwNYidDSr68BuATTDLtcArkGitxinqPEFDXFyK" ] },
      { "delegate": "tz1ZcTRk5uxD86EFEn1vvNffWWqJy7q5eVhc",
        "reception_time": "2022-01-17T23:53:59.654-00:00",
        "included_in_blocks":
          [ "BMMwi4GERvRgqcwNYidDSr68BuATTDLtcArkGitxinqPEFDXFyK" ] },
      { "delegate": "tz1aJS7Pk9uWR3wWyFf1i3RwhYxN84G7stom",
        "reception_time": "2022-01-17T23:54:00.101-00:00",
        "included_in_blocks":
          [ "BMMwi4GERvRgqcwNYidDSr68BuATTDLtcArkGitxinqPEFDXFyK" ] },
      { "delegate": "tz1aRoaRhSpRYvFdyvgWLL6TGyRoGF51wDjM",
        "reception_time": "2022-01-17T23:54:00.360-00:00",
        "included_in_blocks":
          [ "BMMwi4GERvRgqcwNYidDSr68BuATTDLtcArkGitxinqPEFDXFyK" ] },
      { "delegate": "tz1h4ar7F5wC6Ae2cfkrmrRP6nrPk9gGFaxg",
        "reception_time": "2022-01-17T23:54:00.865-00:00",
        "included_in_blocks":
          [ "BMMwi4GERvRgqcwNYidDSr68BuATTDLtcArkGitxinqPEFDXFyK" ] },
      { "delegate": "tz1W5VkdB5s7ENMESVBtwyt9kyvLqPcUczRT",
        "reception_time": "2022-01-17T23:54:01.020-00:00",
        "included_in_blocks":
          [ "BMMwi4GERvRgqcwNYidDSr68BuATTDLtcArkGitxinqPEFDXFyK" ] },
      { "delegate": "tz1NpWrAyDL9k2Lmnyxcgr9xuJakbBxdq7FB",
        "reception_time": "2022-01-17T23:54:01.864-00:00",
        "included_in_blocks":
          [ "BMMwi4GERvRgqcwNYidDSr68BuATTDLtcArkGitxinqPEFDXFyK" ] },
      { "delegate": "tz1QccGQsmt7WMnbVX9inJQgEuQGeMXddfjp",
        "reception_time": "2022-01-17T23:54:04.766-00:00",
        "included_in_blocks":
          [ "BMMwi4GERvRgqcwNYidDSr68BuATTDLtcArkGitxinqPEFDXFyK" ] },
      { "delegate": "tz1Z1WwoqgRFbLE3YNdYRpCx44NSfiMJzeAG",
        "reception_time": "2022-01-17T23:54:05.861-00:00",
        "included_in_blocks":
          [ "BMMwi4GERvRgqcwNYidDSr68BuATTDLtcArkGitxinqPEFDXFyK" ] } ] }