{ "blocks":
    [ { "hash": "BMUM2y2APf3TzWeWnas26Vvrfr2DxQaAQ7E5tPuFS9g7w7QBwBh",
        "delegate": "tz3bTdwZinP8U1JmSweNzVKhmwafqWmFWRfk",
        "reception_time": "2022-01-17T17:23:21.614-00:00",
        "timestamp": "2022-01-17T17:23:10Z" } ],
  "endorsements":
    [ { "delegate": "tz1awXW7wuXy21c66vBudMXQVAPgRnqqwgTH" },
      { "delegate": "tz1V3yg82mcrPJbegqVCPn6bC8w1CSTRp3f8" },
      { "delegate": "tz1RjoHc98dBoqaH2jawF62XNKh7YsHwbkEv" },
      { "delegate": "tz3bTdwZinP8U1JmSweNzVKhmwafqWmFWRfk",
        "reception_time": "2022-01-17T17:23:20.138-00:00",
        "errors":
          [ { "kind": "temporary",
              "id": "proto.011-PtHangz2.prefilter.outdated_endorsement" } ],
        "included_in_blocks":
          [ "BMPnEoTGuF96RpnkmossSs5nJeRW3womTR2GCEKY9uTLMVyWGPj" ] },
      { "delegate": "tz1Ldzz6k1BHdhuKvAtMRX7h5kJSMHESMHLC",
        "reception_time": "2022-01-17T17:23:19.888-00:00",
        "errors":
          [ { "kind": "temporary",
              "id": "proto.011-PtHangz2.prefilter.outdated_endorsement" } ],
        "included_in_blocks":
          [ "BMPnEoTGuF96RpnkmossSs5nJeRW3womTR2GCEKY9uTLMVyWGPj" ] },
      { "delegate": "tz1TRspM5SeZpaQUhzByXbEvqKF1vnCM2YTK",
        "reception_time": "2022-01-17T17:23:19.850-00:00",
        "errors":
          [ { "kind": "temporary",
              "id": "proto.011-PtHangz2.prefilter.outdated_endorsement" } ],
        "included_in_blocks":
          [ "BMPnEoTGuF96RpnkmossSs5nJeRW3womTR2GCEKY9uTLMVyWGPj" ] },
      { "delegate": "tz1aDiEJf9ztRrAJEXZfcG3CKimoKsGhwVAi",
        "reception_time": "2022-01-17T17:23:19.701-00:00",
        "errors":
          [ { "kind": "temporary",
              "id": "proto.011-PtHangz2.prefilter.outdated_endorsement" } ],
        "included_in_blocks":
          [ "BMPnEoTGuF96RpnkmossSs5nJeRW3womTR2GCEKY9uTLMVyWGPj" ] },
      { "delegate": "tz1STeamwbp68THcny9zk3LsbG3H36DMvbRK",
        "reception_time": "2022-01-17T17:23:19.669-00:00",
        "errors":
          [ { "kind": "temporary",
              "id": "proto.011-PtHangz2.prefilter.outdated_endorsement" } ],
        "included_in_blocks":
          [ "BMPnEoTGuF96RpnkmossSs5nJeRW3womTR2GCEKY9uTLMVyWGPj" ] },
      { "delegate": "tz1Zhv3RkfU2pHrmaiDyxp7kFZpZrUCu1CiF",
        "reception_time": "2022-01-17T17:23:19.554-00:00",
        "errors":
          [ { "kind": "temporary",
              "id": "proto.011-PtHangz2.prefilter.outdated_endorsement" } ],
        "included_in_blocks":
          [ "BMPnEoTGuF96RpnkmossSs5nJeRW3womTR2GCEKY9uTLMVyWGPj" ] },
      { "delegate": "tz1Kt4P8BCaP93AEV4eA7gmpRryWt5hznjCP",
        "reception_time": "2022-01-17T17:23:19.414-00:00",
        "errors":
          [ { "kind": "temporary",
              "id": "proto.011-PtHangz2.prefilter.outdated_endorsement" } ],
        "included_in_blocks":
          [ "BMPnEoTGuF96RpnkmossSs5nJeRW3womTR2GCEKY9uTLMVyWGPj" ] },
      { "delegate": "tz1P2Po7YM526ughEsRbY4oR9zaUPDZjxFrb",
        "reception_time": "2022-01-17T17:23:18.895-00:00",
        "errors":
          [ { "kind": "temporary",
              "id": "proto.011-PtHangz2.prefilter.outdated_endorsement" } ],
        "included_in_blocks":
          [ "BMPnEoTGuF96RpnkmossSs5nJeRW3womTR2GCEKY9uTLMVyWGPj" ] },
      { "delegate": "tz1dKRZVcmJBVNvaAueUmqX42vVEaLb2MbA6",
        "reception_time": "2022-01-17T17:23:33.168-00:00",
        "included_in_blocks":
          [ "BMPnEoTGuF96RpnkmossSs5nJeRW3womTR2GCEKY9uTLMVyWGPj" ] },
      { "delegate": "tz3e7LbZvUtoXhpUD1yb6wuFodZpfYRb9nWJ",
        "reception_time": "2022-01-17T17:23:31.184-00:00",
        "included_in_blocks":
          [ "BMPnEoTGuF96RpnkmossSs5nJeRW3womTR2GCEKY9uTLMVyWGPj" ] },
      { "delegate": "tz3bEQoFCZEEfZMskefZ8q8e4eiHH1pssRax",
        "reception_time": "2022-01-17T17:23:28.107-00:00",
        "included_in_blocks":
          [ "BMPnEoTGuF96RpnkmossSs5nJeRW3womTR2GCEKY9uTLMVyWGPj" ] },
      { "delegate": "tz1h4ar7F5wC6Ae2cfkrmrRP6nrPk9gGFaxg",
        "reception_time": "2022-01-17T17:23:26.520-00:00",
        "included_in_blocks":
          [ "BMPnEoTGuF96RpnkmossSs5nJeRW3womTR2GCEKY9uTLMVyWGPj" ] },
      { "delegate": "tz1SYq214SCBy9naR6cvycQsYcUGpBqQAE8d",
        "reception_time": "2022-01-17T17:23:24.902-00:00",
        "included_in_blocks":
          [ "BMPnEoTGuF96RpnkmossSs5nJeRW3womTR2GCEKY9uTLMVyWGPj" ] },
      { "delegate": "tz1TcH4Nb3aHNDJ7CGZhU7jgAK1BkSP4Lxds",
        "reception_time": "2022-01-17T17:23:24.122-00:00",
        "included_in_blocks":
          [ "BMPnEoTGuF96RpnkmossSs5nJeRW3womTR2GCEKY9uTLMVyWGPj" ] },
      { "delegate": "tz1aRoaRhSpRYvFdyvgWLL6TGyRoGF51wDjM",
        "reception_time": "2022-01-17T17:23:24.205-00:00",
        "included_in_blocks":
          [ "BMPnEoTGuF96RpnkmossSs5nJeRW3womTR2GCEKY9uTLMVyWGPj" ] },
      { "delegate": "tz1QJU1PuKUP5ZQxUr4pHZjCHGRvJSpcXv7G",
        "reception_time": "2022-01-17T17:23:24.022-00:00",
        "included_in_blocks":
          [ "BMPnEoTGuF96RpnkmossSs5nJeRW3womTR2GCEKY9uTLMVyWGPj" ] },
      { "delegate": "tz3NDpRj6WBrJPikcPVHRBEjWKxFw3c6eQPS",
        "reception_time": "2022-01-17T17:23:24.236-00:00",
        "included_in_blocks":
          [ "BMPnEoTGuF96RpnkmossSs5nJeRW3womTR2GCEKY9uTLMVyWGPj" ] },
      { "delegate": "tz1ZcTRk5uxD86EFEn1vvNffWWqJy7q5eVhc",
        "reception_time": "2022-01-17T17:23:23.923-00:00",
        "included_in_blocks":
          [ "BMPnEoTGuF96RpnkmossSs5nJeRW3womTR2GCEKY9uTLMVyWGPj" ] },
      { "delegate": "tz1T7duV5gZWSTq4YpBGbXNLTfznCLDrFxvs",
        "reception_time": "2022-01-17T17:23:24.197-00:00",
        "included_in_blocks":
          [ "BMPnEoTGuF96RpnkmossSs5nJeRW3womTR2GCEKY9uTLMVyWGPj" ] },
      { "delegate": "tz1TRqbYbUf2GyrjErf3hBzgBJPzW8y36qEs",
        "reception_time": "2022-01-17T17:23:24.139-00:00",
        "included_in_blocks":
          [ "BMPnEoTGuF96RpnkmossSs5nJeRW3womTR2GCEKY9uTLMVyWGPj" ] },
      { "delegate": "tz1Xsrfv6hn86fp88YfRs6xcKwt2nTqxVZYM",
        "reception_time": "2022-01-17T17:23:23.997-00:00",
        "included_in_blocks":
          [ "BMPnEoTGuF96RpnkmossSs5nJeRW3womTR2GCEKY9uTLMVyWGPj" ] },
      { "delegate": "tz3UoffC7FG7zfpmvmjUmUeAaHvzdcUvAj6r",
        "reception_time": "2022-01-17T17:23:24.012-00:00",
        "included_in_blocks":
          [ "BMPnEoTGuF96RpnkmossSs5nJeRW3womTR2GCEKY9uTLMVyWGPj" ] },
      { "delegate": "tz3RDC3Jdn4j15J7bBHZd29EUee9gVB1CxD9",
        "reception_time": "2022-01-17T17:23:23.949-00:00",
        "included_in_blocks":
          [ "BMPnEoTGuF96RpnkmossSs5nJeRW3womTR2GCEKY9uTLMVyWGPj" ] },
      { "delegate": "tz1dRKU4FQ9QRRQPdaH4zCR6gmCmXfcvcgtB",
        "reception_time": "2022-01-17T17:23:24.062-00:00",
        "included_in_blocks":
          [ "BMPnEoTGuF96RpnkmossSs5nJeRW3womTR2GCEKY9uTLMVyWGPj" ] },
      { "delegate": "tz1hAYfexyzPGG6RhZZMpDvAHifubsbb6kgn",
        "reception_time": "2022-01-17T17:23:23.800-00:00",
        "included_in_blocks":
          [ "BMPnEoTGuF96RpnkmossSs5nJeRW3womTR2GCEKY9uTLMVyWGPj" ] },
      { "delegate": "tz1fwnfJNgiDACshK9avfRfFbMaXrs3ghoJa",
        "reception_time": "2022-01-17T17:23:23.873-00:00",
        "included_in_blocks":
          [ "BMPnEoTGuF96RpnkmossSs5nJeRW3womTR2GCEKY9uTLMVyWGPj" ] },
      { "delegate": "tz3NExpXn9aPNZPorRE4SdjJ2RGrfbJgMAaV",
        "reception_time": "2022-01-17T17:23:23.825-00:00",
        "included_in_blocks":
          [ "BMPnEoTGuF96RpnkmossSs5nJeRW3womTR2GCEKY9uTLMVyWGPj" ] },
      { "delegate": "tz2FCNBrERXtaTtNX6iimR1UJ5JSDxvdHM93",
        "reception_time": "2022-01-17T17:23:23.674-00:00",
        "included_in_blocks":
          [ "BMPnEoTGuF96RpnkmossSs5nJeRW3womTR2GCEKY9uTLMVyWGPj" ] },
      { "delegate": "tz3VEZ4k6a4Wx42iyev6i2aVAptTRLEAivNN",
        "reception_time": "2022-01-17T17:23:23.848-00:00",
        "included_in_blocks":
          [ "BMPnEoTGuF96RpnkmossSs5nJeRW3womTR2GCEKY9uTLMVyWGPj" ] },
      { "delegate": "tz1RCFbB9GpALpsZtu6J58sb74dm8qe6XBzv",
        "reception_time": "2022-01-17T17:23:23.869-00:00",
        "included_in_blocks":
          [ "BMPnEoTGuF96RpnkmossSs5nJeRW3womTR2GCEKY9uTLMVyWGPj" ] },
      { "delegate": "tz1bxVgPCiveFHSand7zn22S8ZBtvNQbqgqU",
        "reception_time": "2022-01-17T17:23:24.049-00:00",
        "included_in_blocks":
          [ "BMPnEoTGuF96RpnkmossSs5nJeRW3womTR2GCEKY9uTLMVyWGPj" ] },
      { "delegate": "tz1PeZx7FXy7QRuMREGXGxeipb24RsMMzUNe",
        "reception_time": "2022-01-17T17:23:23.729-00:00",
        "included_in_blocks":
          [ "BMPnEoTGuF96RpnkmossSs5nJeRW3womTR2GCEKY9uTLMVyWGPj" ] },
      { "delegate": "tz1NortRftucvAkD1J58L32EhSVrQEWJCEnB",
        "reception_time": "2022-01-17T17:23:23.772-00:00",
        "included_in_blocks":
          [ "BMPnEoTGuF96RpnkmossSs5nJeRW3womTR2GCEKY9uTLMVyWGPj" ] },
      { "delegate": "tz1LmaFsWRkjr7QMCx5PtV6xTUz3AmEpKQiF",
        "reception_time": "2022-01-17T17:23:23.740-00:00",
        "included_in_blocks":
          [ "BMPnEoTGuF96RpnkmossSs5nJeRW3womTR2GCEKY9uTLMVyWGPj" ] },
      { "delegate": "tz1S8MNvuFEUsWgjHvi3AxibRBf388NhT1q2",
        "reception_time": "2022-01-17T17:23:23.743-00:00",
        "included_in_blocks":
          [ "BMPnEoTGuF96RpnkmossSs5nJeRW3womTR2GCEKY9uTLMVyWGPj" ] },
      { "delegate": "tz1RQhNh7iB9CZA7i3ifTWNwiGYVffponfbB",
        "reception_time": "2022-01-17T17:23:23.595-00:00",
        "included_in_blocks":
          [ "BMPnEoTGuF96RpnkmossSs5nJeRW3womTR2GCEKY9uTLMVyWGPj" ] },
      { "delegate": "tz1UtayNgAX8QEJ3NoLptPzoPr9JiH3Cskzz",
        "reception_time": "2022-01-17T17:23:23.804-00:00",
        "included_in_blocks":
          [ "BMPnEoTGuF96RpnkmossSs5nJeRW3womTR2GCEKY9uTLMVyWGPj" ] },
      { "delegate": "tz1Nf6tsK4G6bBqgSQERy4nUtkHNKUVdh7q1",
        "reception_time": "2022-01-17T17:23:23.763-00:00",
        "included_in_blocks":
          [ "BMPnEoTGuF96RpnkmossSs5nJeRW3womTR2GCEKY9uTLMVyWGPj" ] },
      { "delegate": "tz1WBfwbT66FC6BTLexc2BoyCCBM9LG7pnVW",
        "reception_time": "2022-01-17T17:23:23.537-00:00",
        "included_in_blocks":
          [ "BMPnEoTGuF96RpnkmossSs5nJeRW3womTR2GCEKY9uTLMVyWGPj" ] },
      { "delegate": "tz3RB4aoyjov4KEVRbuhvQ1CKJgBJMWhaeB8",
        "reception_time": "2022-01-17T17:23:23.687-00:00",
        "included_in_blocks":
          [ "BMPnEoTGuF96RpnkmossSs5nJeRW3womTR2GCEKY9uTLMVyWGPj" ] },
      { "delegate": "tz1ei4WtWEMEJekSv8qDnu9PExG6Q8HgRGr3",
        "reception_time": "2022-01-17T17:23:23.582-00:00",
        "included_in_blocks":
          [ "BMPnEoTGuF96RpnkmossSs5nJeRW3womTR2GCEKY9uTLMVyWGPj" ] },
      { "delegate": "tz1MJx9vhaNRSimcuXPK2rW4fLccQnDAnVKJ",
        "reception_time": "2022-01-17T17:23:23.559-00:00",
        "included_in_blocks":
          [ "BMPnEoTGuF96RpnkmossSs5nJeRW3womTR2GCEKY9uTLMVyWGPj" ] },
      { "delegate": "tz3WMqdzXqRWXwyvj5Hp2H7QEepaUuS7vd9K",
        "reception_time": "2022-01-17T17:23:23.515-00:00",
        "included_in_blocks":
          [ "BMPnEoTGuF96RpnkmossSs5nJeRW3womTR2GCEKY9uTLMVyWGPj" ] },
      { "delegate": "tz1dNVDWPf3Q59SdJqnjdnu277iyvReiRS9M",
        "reception_time": "2022-01-17T17:23:23.395-00:00",
        "included_in_blocks":
          [ "BMPnEoTGuF96RpnkmossSs5nJeRW3womTR2GCEKY9uTLMVyWGPj" ] },
      { "delegate": "tz1V4qCyvPKZ5UeqdH14HN42rxvNPQfc9UZg",
        "reception_time": "2022-01-17T17:23:23.360-00:00",
        "included_in_blocks":
          [ "BMPnEoTGuF96RpnkmossSs5nJeRW3womTR2GCEKY9uTLMVyWGPj" ] },
      { "delegate": "tz1gfArv665EUkSg2ojMBzcbfwuPxAvqPvjo",
        "reception_time": "2022-01-17T17:23:23.603-00:00",
        "included_in_blocks":
          [ "BMPnEoTGuF96RpnkmossSs5nJeRW3womTR2GCEKY9uTLMVyWGPj" ] },
      { "delegate": "tz1d6Fx42mYgVFnHUW8T8A7WBfJ6nD9pVok8",
        "reception_time": "2022-01-17T17:23:23.701-00:00",
        "included_in_blocks":
          [ "BMPnEoTGuF96RpnkmossSs5nJeRW3womTR2GCEKY9uTLMVyWGPj" ] },
      { "delegate": "tz3QT9dHYKDqh563chVa6za8526ys1UKfRfL",
        "reception_time": "2022-01-17T17:23:23.573-00:00",
        "included_in_blocks":
          [ "BMPnEoTGuF96RpnkmossSs5nJeRW3womTR2GCEKY9uTLMVyWGPj" ] },
      { "delegate": "tz3gtoUxdudfBRcNY7iVdKPHCYYX6xdPpoRS",
        "reception_time": "2022-01-17T17:23:23.457-00:00",
        "included_in_blocks":
          [ "BMPnEoTGuF96RpnkmossSs5nJeRW3womTR2GCEKY9uTLMVyWGPj" ] },
      { "delegate": "tz3bvNMQ95vfAYtG8193ymshqjSvmxiCUuR5",
        "reception_time": "2022-01-17T17:23:23.556-00:00",
        "included_in_blocks":
          [ "BMPnEoTGuF96RpnkmossSs5nJeRW3womTR2GCEKY9uTLMVyWGPj" ] },
      { "delegate": "tz1MQJPGNMijnXnVoBENFz9rUhaPt3S7rWoz",
        "reception_time": "2022-01-17T17:23:23.549-00:00",
        "included_in_blocks":
          [ "BMPnEoTGuF96RpnkmossSs5nJeRW3womTR2GCEKY9uTLMVyWGPj" ] },
      { "delegate": "tz3S6BBeKgJGXxvLyZ1xzXzMPn11nnFtq5L9",
        "reception_time": "2022-01-17T17:23:23.595-00:00",
        "included_in_blocks":
          [ "BMPnEoTGuF96RpnkmossSs5nJeRW3womTR2GCEKY9uTLMVyWGPj" ] },
      { "delegate": "tz1dwu9aYb7CRNq4Y2zAjipdjFuSVKhHS8vA",
        "reception_time": "2022-01-17T17:23:23.573-00:00",
        "included_in_blocks":
          [ "BMPnEoTGuF96RpnkmossSs5nJeRW3womTR2GCEKY9uTLMVyWGPj" ] },
      { "delegate": "tz1TXzyaKUA8wsWefdSnyaYFnV2M3vCV7er9",
        "reception_time": "2022-01-17T17:23:23.582-00:00",
        "included_in_blocks":
          [ "BMPnEoTGuF96RpnkmossSs5nJeRW3womTR2GCEKY9uTLMVyWGPj" ] },
      { "delegate": "tz3QSGPoRp3Kn7n3vY24eYeu3Peuqo45LQ4D",
        "reception_time": "2022-01-17T17:23:23.505-00:00",
        "included_in_blocks":
          [ "BMPnEoTGuF96RpnkmossSs5nJeRW3womTR2GCEKY9uTLMVyWGPj" ] },
      { "delegate": "tz3RKYFsLuQzKBtmYuLNas7uMu3AsYd4QdsA",
        "reception_time": "2022-01-17T17:23:23.292-00:00",
        "included_in_blocks":
          [ "BMPnEoTGuF96RpnkmossSs5nJeRW3womTR2GCEKY9uTLMVyWGPj" ] },
      { "delegate": "tz3hw2kqXhLUvY65ca1eety2oQTpAvd34R9Q",
        "reception_time": "2022-01-17T17:23:23.384-00:00",
        "included_in_blocks":
          [ "BMPnEoTGuF96RpnkmossSs5nJeRW3womTR2GCEKY9uTLMVyWGPj" ] },
      { "delegate": "tz1SFtJ3XwU1d6rWTRfJmwVDFpywcp4J743S",
        "reception_time": "2022-01-17T17:23:23.526-00:00",
        "included_in_blocks":
          [ "BMPnEoTGuF96RpnkmossSs5nJeRW3womTR2GCEKY9uTLMVyWGPj" ] },
      { "delegate": "tz3ZbP2pM3nwvXztbuMJwJnDvV5xdpU8UkkD",
        "reception_time": "2022-01-17T17:23:23.262-00:00",
        "included_in_blocks":
          [ "BMPnEoTGuF96RpnkmossSs5nJeRW3womTR2GCEKY9uTLMVyWGPj" ] },
      { "delegate": "tz3Zhs2dygr55yHyQyKjntAtY9bgfhLZ4Xj1",
        "reception_time": "2022-01-17T17:23:23.005-00:00",
        "included_in_blocks":
          [ "BMPnEoTGuF96RpnkmossSs5nJeRW3womTR2GCEKY9uTLMVyWGPj" ] },
      { "delegate": "tz3iJu5vrKZcsqRPs8yJ61UDoeEXZmtro4qh",
        "reception_time": "2022-01-17T17:23:23.090-00:00",
        "included_in_blocks":
          [ "BMPnEoTGuF96RpnkmossSs5nJeRW3womTR2GCEKY9uTLMVyWGPj" ] },
      { "delegate": "tz3NxTnke1acr8o3h5y9ytf5awQBGNJUKzVU",
        "reception_time": "2022-01-17T17:23:23.335-00:00",
        "included_in_blocks":
          [ "BMPnEoTGuF96RpnkmossSs5nJeRW3womTR2GCEKY9uTLMVyWGPj" ] },
      { "delegate": "tz1PWCDnz783NNGGQjEFFsHtrcK5yBW4E2rm",
        "reception_time": "2022-01-17T17:23:23.296-00:00",
        "included_in_blocks":
          [ "BMPnEoTGuF96RpnkmossSs5nJeRW3womTR2GCEKY9uTLMVyWGPj" ] },
      { "delegate": "tz1gUNyn3hmnEWqkusWPzxRaon1cs7ndWh7h",
        "reception_time": "2022-01-17T17:23:23.035-00:00",
        "included_in_blocks":
          [ "BMPnEoTGuF96RpnkmossSs5nJeRW3womTR2GCEKY9uTLMVyWGPj" ] },
      { "delegate": "tz1aqcYgG6NuViML5vdWhohHJBYxcDVLNUsE",
        "reception_time": "2022-01-17T17:23:23.443-00:00",
        "included_in_blocks":
          [ "BMPnEoTGuF96RpnkmossSs5nJeRW3womTR2GCEKY9uTLMVyWGPj" ] },
      { "delegate": "tz3adcvQaKXTCg12zbninqo3q8ptKKtDFTLv",
        "reception_time": "2022-01-17T17:23:23.071-00:00",
        "included_in_blocks":
          [ "BMPnEoTGuF96RpnkmossSs5nJeRW3womTR2GCEKY9uTLMVyWGPj" ] },
      { "delegate": "tz1VQnqCCqX4K5sP3FNkVSNKTdCAMJDd3E1n",
        "reception_time": "2022-01-17T17:23:23.339-00:00",
        "included_in_blocks":
          [ "BMPnEoTGuF96RpnkmossSs5nJeRW3womTR2GCEKY9uTLMVyWGPj" ] },
      { "delegate": "tz1U638Z3xWRiXDDKx2S125MCCaAeGDdA896",
        "reception_time": "2022-01-17T17:23:22.755-00:00",
        "included_in_blocks":
          [ "BMPnEoTGuF96RpnkmossSs5nJeRW3womTR2GCEKY9uTLMVyWGPj" ] },
      { "delegate": "tz1irJKkXS2DBWkU1NnmFQx1c1L7pbGg4yhk",
        "reception_time": "2022-01-17T17:23:23.005-00:00",
        "included_in_blocks":
          [ "BMPnEoTGuF96RpnkmossSs5nJeRW3womTR2GCEKY9uTLMVyWGPj" ] },
      { "delegate": "tz1eEnQhbwf6trb8Q8mPb2RaPkNk2rN7BKi8",
        "reception_time": "2022-01-17T17:23:22.755-00:00",
        "included_in_blocks":
          [ "BMPnEoTGuF96RpnkmossSs5nJeRW3womTR2GCEKY9uTLMVyWGPj" ] },
      { "delegate": "tz1WCd2jm4uSt4vntk4vSuUWoZQGhLcDuR9q",
        "reception_time": "2022-01-17T17:23:22.755-00:00",
        "included_in_blocks":
          [ "BMPnEoTGuF96RpnkmossSs5nJeRW3womTR2GCEKY9uTLMVyWGPj" ] } ] }