{ "blocks":
    [ { "hash": "BMHA6h3KC9ekZD7wFj8tAqjmivogU3RGkrjy8htSQDzZxTpfLxL",
        "delegate": "tz3RB4aoyjov4KEVRbuhvQ1CKJgBJMWhaeB8",
        "reception_time": "2022-01-17T17:15:41.999-00:00",
        "timestamp": "2022-01-17T17:15:30Z" } ],
  "endorsements":
    [ { "delegate": "tz1NpWrAyDL9k2Lmnyxcgr9xuJakbBxdq7FB",
        "reception_time": "2022-01-17T17:15:53.631-00:00",
        "included_in_blocks":
          [ "BM2KhsuQ8TgjGCdVjHdKYR3J99iWPeLPnedoBbxknuVUdE3sFVq" ] },
      { "delegate": "tz1WnyXakHZKotpQHxevTnLmomz5rTwdiccy",
        "reception_time": "2022-01-17T17:15:52.889-00:00",
        "included_in_blocks":
          [ "BM2KhsuQ8TgjGCdVjHdKYR3J99iWPeLPnedoBbxknuVUdE3sFVq" ] },
      { "delegate": "tz1PFeoTuFen8jAMRHajBySNyCwLmY5RqF9M",
        "reception_time": "2022-01-17T17:15:48.342-00:00",
        "included_in_blocks":
          [ "BM2KhsuQ8TgjGCdVjHdKYR3J99iWPeLPnedoBbxknuVUdE3sFVq" ] },
      { "delegate": "tz1aRoaRhSpRYvFdyvgWLL6TGyRoGF51wDjM",
        "reception_time": "2022-01-17T17:15:45.881-00:00",
        "included_in_blocks":
          [ "BM2KhsuQ8TgjGCdVjHdKYR3J99iWPeLPnedoBbxknuVUdE3sFVq" ] },
      { "delegate": "tz3NExpXn9aPNZPorRE4SdjJ2RGrfbJgMAaV",
        "reception_time": "2022-01-17T17:15:45.611-00:00",
        "included_in_blocks":
          [ "BM2KhsuQ8TgjGCdVjHdKYR3J99iWPeLPnedoBbxknuVUdE3sFVq" ] },
      { "delegate": "tz1ZcTRk5uxD86EFEn1vvNffWWqJy7q5eVhc",
        "reception_time": "2022-01-17T17:15:45.472-00:00",
        "included_in_blocks":
          [ "BM2KhsuQ8TgjGCdVjHdKYR3J99iWPeLPnedoBbxknuVUdE3sFVq" ] },
      { "delegate": "tz1SohptP53wDPZhzTWzDUFAUcWF6DMBpaJV",
        "reception_time": "2022-01-17T17:15:45.255-00:00",
        "included_in_blocks":
          [ "BM2KhsuQ8TgjGCdVjHdKYR3J99iWPeLPnedoBbxknuVUdE3sFVq" ] },
      { "delegate": "tz3bvNMQ95vfAYtG8193ymshqjSvmxiCUuR5",
        "reception_time": "2022-01-17T17:15:45.203-00:00",
        "included_in_blocks":
          [ "BM2KhsuQ8TgjGCdVjHdKYR3J99iWPeLPnedoBbxknuVUdE3sFVq" ] },
      { "delegate": "tz3UoffC7FG7zfpmvmjUmUeAaHvzdcUvAj6r",
        "reception_time": "2022-01-17T17:15:45.026-00:00",
        "included_in_blocks":
          [ "BM2KhsuQ8TgjGCdVjHdKYR3J99iWPeLPnedoBbxknuVUdE3sFVq" ] },
      { "delegate": "tz1cYufsxHXJcvANhvS55h3aY32a9BAFB494",
        "reception_time": "2022-01-17T17:15:45.002-00:00",
        "included_in_blocks":
          [ "BM2KhsuQ8TgjGCdVjHdKYR3J99iWPeLPnedoBbxknuVUdE3sFVq" ] },
      { "delegate": "tz1T7duV5gZWSTq4YpBGbXNLTfznCLDrFxvs",
        "reception_time": "2022-01-17T17:15:44.993-00:00",
        "included_in_blocks":
          [ "BM2KhsuQ8TgjGCdVjHdKYR3J99iWPeLPnedoBbxknuVUdE3sFVq" ] },
      { "delegate": "tz1g8vkmcde6sWKaG2NN9WKzCkDM6Rziq194",
        "reception_time": "2022-01-17T17:15:44.974-00:00",
        "included_in_blocks":
          [ "BM2KhsuQ8TgjGCdVjHdKYR3J99iWPeLPnedoBbxknuVUdE3sFVq" ] },
      { "delegate": "tz1TRqbYbUf2GyrjErf3hBzgBJPzW8y36qEs",
        "reception_time": "2022-01-17T17:15:44.962-00:00",
        "included_in_blocks":
          [ "BM2KhsuQ8TgjGCdVjHdKYR3J99iWPeLPnedoBbxknuVUdE3sFVq" ] },
      { "delegate": "tz3RDC3Jdn4j15J7bBHZd29EUee9gVB1CxD9",
        "reception_time": "2022-01-17T17:15:44.768-00:00",
        "included_in_blocks":
          [ "BM2KhsuQ8TgjGCdVjHdKYR3J99iWPeLPnedoBbxknuVUdE3sFVq" ] },
      { "delegate": "tz3NDpRj6WBrJPikcPVHRBEjWKxFw3c6eQPS",
        "reception_time": "2022-01-17T17:15:44.768-00:00",
        "included_in_blocks":
          [ "BM2KhsuQ8TgjGCdVjHdKYR3J99iWPeLPnedoBbxknuVUdE3sFVq" ] },
      { "delegate": "tz1eLdXTtJwdQw1b2ebNuZBF31mbxs1Ww4K8",
        "reception_time": "2022-01-17T17:15:44.768-00:00",
        "included_in_blocks":
          [ "BM2KhsuQ8TgjGCdVjHdKYR3J99iWPeLPnedoBbxknuVUdE3sFVq" ] },
      { "delegate": "tz3WMqdzXqRWXwyvj5Hp2H7QEepaUuS7vd9K",
        "reception_time": "2022-01-17T17:15:44.768-00:00",
        "included_in_blocks":
          [ "BM2KhsuQ8TgjGCdVjHdKYR3J99iWPeLPnedoBbxknuVUdE3sFVq" ] },
      { "delegate": "tz1KfEsrtDaA1sX7vdM4qmEPWuSytuqCDp5j",
        "reception_time": "2022-01-17T17:15:44.768-00:00",
        "included_in_blocks":
          [ "BM2KhsuQ8TgjGCdVjHdKYR3J99iWPeLPnedoBbxknuVUdE3sFVq" ] },
      { "delegate": "tz1abmz7jiCV2GH2u81LRrGgAFFgvQgiDiaf",
        "reception_time": "2022-01-17T17:15:44.768-00:00",
        "included_in_blocks":
          [ "BM2KhsuQ8TgjGCdVjHdKYR3J99iWPeLPnedoBbxknuVUdE3sFVq" ] },
      { "delegate": "tz1SYq214SCBy9naR6cvycQsYcUGpBqQAE8d",
        "reception_time": "2022-01-17T17:15:44.768-00:00",
        "included_in_blocks":
          [ "BM2KhsuQ8TgjGCdVjHdKYR3J99iWPeLPnedoBbxknuVUdE3sFVq" ] },
      { "delegate": "tz1WvL7MKyCuUHfC3FxPFyiXcy8hHTBT3vjE",
        "reception_time": "2022-01-17T17:15:44.768-00:00",
        "included_in_blocks":
          [ "BM2KhsuQ8TgjGCdVjHdKYR3J99iWPeLPnedoBbxknuVUdE3sFVq" ] },
      { "delegate": "tz1KzSC1J9aBxKp7u8TUnpN8L7S65PBRkgdF",
        "reception_time": "2022-01-17T17:15:44.768-00:00",
        "included_in_blocks":
          [ "BM2KhsuQ8TgjGCdVjHdKYR3J99iWPeLPnedoBbxknuVUdE3sFVq" ] },
      { "delegate": "tz1TEc75UKXv4W5cwi14Na3NtqFD51yKQi7h",
        "reception_time": "2022-01-17T17:15:44.768-00:00",
        "included_in_blocks":
          [ "BM2KhsuQ8TgjGCdVjHdKYR3J99iWPeLPnedoBbxknuVUdE3sFVq" ] },
      { "delegate": "tz1RCFbB9GpALpsZtu6J58sb74dm8qe6XBzv",
        "reception_time": "2022-01-17T17:15:44.768-00:00",
        "included_in_blocks":
          [ "BM2KhsuQ8TgjGCdVjHdKYR3J99iWPeLPnedoBbxknuVUdE3sFVq" ] },
      { "delegate": "tz1NEKxGEHsFufk87CVZcrqWu8o22qh46GK6",
        "reception_time": "2022-01-17T17:15:44.768-00:00",
        "included_in_blocks":
          [ "BM2KhsuQ8TgjGCdVjHdKYR3J99iWPeLPnedoBbxknuVUdE3sFVq" ] },
      { "delegate": "tz3QT9dHYKDqh563chVa6za8526ys1UKfRfL",
        "reception_time": "2022-01-17T17:15:44.556-00:00",
        "included_in_blocks":
          [ "BM2KhsuQ8TgjGCdVjHdKYR3J99iWPeLPnedoBbxknuVUdE3sFVq" ] },
      { "delegate": "tz3VEZ4k6a4Wx42iyev6i2aVAptTRLEAivNN",
        "reception_time": "2022-01-17T17:15:44.556-00:00",
        "included_in_blocks":
          [ "BM2KhsuQ8TgjGCdVjHdKYR3J99iWPeLPnedoBbxknuVUdE3sFVq" ] },
      { "delegate": "tz2FCNBrERXtaTtNX6iimR1UJ5JSDxvdHM93",
        "reception_time": "2022-01-17T17:15:44.556-00:00",
        "included_in_blocks":
          [ "BM2KhsuQ8TgjGCdVjHdKYR3J99iWPeLPnedoBbxknuVUdE3sFVq" ] },
      { "delegate": "tz3RB4aoyjov4KEVRbuhvQ1CKJgBJMWhaeB8",
        "reception_time": "2022-01-17T17:15:44.556-00:00",
        "included_in_blocks":
          [ "BM2KhsuQ8TgjGCdVjHdKYR3J99iWPeLPnedoBbxknuVUdE3sFVq" ] },
      { "delegate": "tz3hw2kqXhLUvY65ca1eety2oQTpAvd34R9Q",
        "reception_time": "2022-01-17T17:15:44.556-00:00",
        "included_in_blocks":
          [ "BM2KhsuQ8TgjGCdVjHdKYR3J99iWPeLPnedoBbxknuVUdE3sFVq" ] },
      { "delegate": "tz1gfArv665EUkSg2ojMBzcbfwuPxAvqPvjo",
        "reception_time": "2022-01-17T17:15:44.556-00:00",
        "included_in_blocks":
          [ "BM2KhsuQ8TgjGCdVjHdKYR3J99iWPeLPnedoBbxknuVUdE3sFVq" ] },
      { "delegate": "tz1Nf6tsK4G6bBqgSQERy4nUtkHNKUVdh7q1",
        "reception_time": "2022-01-17T17:15:44.556-00:00",
        "included_in_blocks":
          [ "BM2KhsuQ8TgjGCdVjHdKYR3J99iWPeLPnedoBbxknuVUdE3sFVq" ] },
      { "delegate": "tz1S8MNvuFEUsWgjHvi3AxibRBf388NhT1q2",
        "reception_time": "2022-01-17T17:15:44.556-00:00",
        "included_in_blocks":
          [ "BM2KhsuQ8TgjGCdVjHdKYR3J99iWPeLPnedoBbxknuVUdE3sFVq" ] },
      { "delegate": "tz1cSoWttzYi9taqyHfcKS86b5M31SoaTQdg",
        "reception_time": "2022-01-17T17:15:44.556-00:00",
        "included_in_blocks":
          [ "BM2KhsuQ8TgjGCdVjHdKYR3J99iWPeLPnedoBbxknuVUdE3sFVq" ] },
      { "delegate": "tz3QCNyySViKHmeSr45kzDxzchys7NiXCWoa",
        "reception_time": "2022-01-17T17:15:44.442-00:00",
        "included_in_blocks":
          [ "BM2KhsuQ8TgjGCdVjHdKYR3J99iWPeLPnedoBbxknuVUdE3sFVq" ] },
      { "delegate": "tz3bTdwZinP8U1JmSweNzVKhmwafqWmFWRfk",
        "reception_time": "2022-01-17T17:15:44.442-00:00",
        "included_in_blocks":
          [ "BM2KhsuQ8TgjGCdVjHdKYR3J99iWPeLPnedoBbxknuVUdE3sFVq" ] },
      { "delegate": "tz1WBfwbT66FC6BTLexc2BoyCCBM9LG7pnVW",
        "reception_time": "2022-01-17T17:15:44.442-00:00",
        "included_in_blocks":
          [ "BM2KhsuQ8TgjGCdVjHdKYR3J99iWPeLPnedoBbxknuVUdE3sFVq" ] },
      { "delegate": "tz3gtoUxdudfBRcNY7iVdKPHCYYX6xdPpoRS",
        "reception_time": "2022-01-17T17:15:44.442-00:00",
        "included_in_blocks":
          [ "BM2KhsuQ8TgjGCdVjHdKYR3J99iWPeLPnedoBbxknuVUdE3sFVq" ] },
      { "delegate": "tz1PWCDnz783NNGGQjEFFsHtrcK5yBW4E2rm",
        "reception_time": "2022-01-17T17:15:44.442-00:00",
        "included_in_blocks":
          [ "BM2KhsuQ8TgjGCdVjHdKYR3J99iWPeLPnedoBbxknuVUdE3sFVq" ] },
      { "delegate": "tz3Zhs2dygr55yHyQyKjntAtY9bgfhLZ4Xj1",
        "reception_time": "2022-01-17T17:15:44.442-00:00",
        "included_in_blocks":
          [ "BM2KhsuQ8TgjGCdVjHdKYR3J99iWPeLPnedoBbxknuVUdE3sFVq" ] },
      { "delegate": "tz3S6BBeKgJGXxvLyZ1xzXzMPn11nnFtq5L9",
        "reception_time": "2022-01-17T17:15:44.442-00:00",
        "included_in_blocks":
          [ "BM2KhsuQ8TgjGCdVjHdKYR3J99iWPeLPnedoBbxknuVUdE3sFVq" ] },
      { "delegate": "tz1VmiY38m3y95HqQLjMwqnMS7sdMfGomzKi",
        "reception_time": "2022-01-17T17:15:44.442-00:00",
        "included_in_blocks":
          [ "BM2KhsuQ8TgjGCdVjHdKYR3J99iWPeLPnedoBbxknuVUdE3sFVq" ] },
      { "delegate": "tz3QSGPoRp3Kn7n3vY24eYeu3Peuqo45LQ4D",
        "reception_time": "2022-01-17T17:15:44.442-00:00",
        "included_in_blocks":
          [ "BM2KhsuQ8TgjGCdVjHdKYR3J99iWPeLPnedoBbxknuVUdE3sFVq" ] },
      { "delegate": "tz1RHgE6W7SnPdwqL1SAtGWEdynA7HeTbpbN",
        "reception_time": "2022-01-17T17:15:44.442-00:00",
        "included_in_blocks":
          [ "BM2KhsuQ8TgjGCdVjHdKYR3J99iWPeLPnedoBbxknuVUdE3sFVq" ] },
      { "delegate": "tz3ZbP2pM3nwvXztbuMJwJnDvV5xdpU8UkkD",
        "reception_time": "2022-01-17T17:15:44.442-00:00",
        "included_in_blocks":
          [ "BM2KhsuQ8TgjGCdVjHdKYR3J99iWPeLPnedoBbxknuVUdE3sFVq" ] },
      { "delegate": "tz3RKYFsLuQzKBtmYuLNas7uMu3AsYd4QdsA",
        "reception_time": "2022-01-17T17:15:44.442-00:00",
        "included_in_blocks":
          [ "BM2KhsuQ8TgjGCdVjHdKYR3J99iWPeLPnedoBbxknuVUdE3sFVq" ] },
      { "delegate": "tz1WCd2jm4uSt4vntk4vSuUWoZQGhLcDuR9q",
        "reception_time": "2022-01-17T17:15:44.442-00:00",
        "included_in_blocks":
          [ "BM2KhsuQ8TgjGCdVjHdKYR3J99iWPeLPnedoBbxknuVUdE3sFVq" ] },
      { "delegate": "tz1ei4WtWEMEJekSv8qDnu9PExG6Q8HgRGr3",
        "reception_time": "2022-01-17T17:15:44.442-00:00",
        "included_in_blocks":
          [ "BM2KhsuQ8TgjGCdVjHdKYR3J99iWPeLPnedoBbxknuVUdE3sFVq" ] },
      { "delegate": "tz3iJu5vrKZcsqRPs8yJ61UDoeEXZmtro4qh",
        "reception_time": "2022-01-17T17:15:44.294-00:00",
        "included_in_blocks":
          [ "BM2KhsuQ8TgjGCdVjHdKYR3J99iWPeLPnedoBbxknuVUdE3sFVq" ] },
      { "delegate": "tz1TRspM5SeZpaQUhzByXbEvqKF1vnCM2YTK",
        "reception_time": "2022-01-17T17:15:44.294-00:00",
        "included_in_blocks":
          [ "BM2KhsuQ8TgjGCdVjHdKYR3J99iWPeLPnedoBbxknuVUdE3sFVq" ] },
      { "delegate": "tz3NxTnke1acr8o3h5y9ytf5awQBGNJUKzVU",
        "reception_time": "2022-01-17T17:15:44.294-00:00",
        "included_in_blocks":
          [ "BM2KhsuQ8TgjGCdVjHdKYR3J99iWPeLPnedoBbxknuVUdE3sFVq" ] },
      { "delegate": "tz1eEnQhbwf6trb8Q8mPb2RaPkNk2rN7BKi8",
        "reception_time": "2022-01-17T17:15:44.294-00:00",
        "included_in_blocks":
          [ "BM2KhsuQ8TgjGCdVjHdKYR3J99iWPeLPnedoBbxknuVUdE3sFVq" ] },
      { "delegate": "tz1fPKAtsYydh4f1wfWNfeNxWYu72TmM48fu",
        "reception_time": "2022-01-17T17:15:44.294-00:00",
        "included_in_blocks":
          [ "BM2KhsuQ8TgjGCdVjHdKYR3J99iWPeLPnedoBbxknuVUdE3sFVq" ] },
      { "delegate": "tz1Ldzz6k1BHdhuKvAtMRX7h5kJSMHESMHLC",
        "reception_time": "2022-01-17T17:15:44.294-00:00",
        "included_in_blocks":
          [ "BM2KhsuQ8TgjGCdVjHdKYR3J99iWPeLPnedoBbxknuVUdE3sFVq" ] },
      { "delegate": "tz1awXW7wuXy21c66vBudMXQVAPgRnqqwgTH" },
      { "delegate": "tz1RjoHc98dBoqaH2jawF62XNKh7YsHwbkEv" },
      { "delegate": "tz1MduLJ4AAR6g7CDjB77Jci3gvu3Xsvk6bJ",
        "reception_time": "2022-01-17T17:16:22.217-00:00",
        "errors":
          [ { "kind": "temporary",
              "id": "proto.011-PtHangz2.prefilter.outdated_endorsement" } ] },
      { "delegate": "tz1S8e9GgdZG78XJRB3NqabfWeM37GnhZMWQ",
        "reception_time": "2022-01-17T17:15:40.656-00:00",
        "errors":
          [ { "kind": "temporary",
              "id": "proto.011-PtHangz2.prefilter.outdated_endorsement" } ],
        "included_in_blocks":
          [ "BM2KhsuQ8TgjGCdVjHdKYR3J99iWPeLPnedoBbxknuVUdE3sFVq" ] },
      { "delegate": "tz1MXFrtZoaXckE41bjUCSjAjAap3AFDSr3N",
        "reception_time": "2022-01-17T17:15:41.261-00:00",
        "errors":
          [ { "kind": "temporary",
              "id": "proto.011-PtHangz2.prefilter.outdated_endorsement" } ],
        "included_in_blocks":
          [ "BM2KhsuQ8TgjGCdVjHdKYR3J99iWPeLPnedoBbxknuVUdE3sFVq" ] },
      { "delegate": "tz1P2Po7YM526ughEsRbY4oR9zaUPDZjxFrb",
        "reception_time": "2022-01-17T17:15:41.368-00:00",
        "errors":
          [ { "kind": "temporary",
              "id": "proto.011-PtHangz2.prefilter.outdated_endorsement" } ],
        "included_in_blocks":
          [ "BM2KhsuQ8TgjGCdVjHdKYR3J99iWPeLPnedoBbxknuVUdE3sFVq" ] },
      { "delegate": "tz1Zhv3RkfU2pHrmaiDyxp7kFZpZrUCu1CiF",
        "reception_time": "2022-01-17T17:15:41.412-00:00",
        "errors":
          [ { "kind": "temporary",
              "id": "proto.011-PtHangz2.prefilter.outdated_endorsement" } ],
        "included_in_blocks":
          [ "BM2KhsuQ8TgjGCdVjHdKYR3J99iWPeLPnedoBbxknuVUdE3sFVq" ] },
      { "delegate": "tz1Kt4P8BCaP93AEV4eA7gmpRryWt5hznjCP",
        "reception_time": "2022-01-17T17:15:41.436-00:00",
        "errors":
          [ { "kind": "temporary",
              "id": "proto.011-PtHangz2.prefilter.outdated_endorsement" } ],
        "included_in_blocks":
          [ "BM2KhsuQ8TgjGCdVjHdKYR3J99iWPeLPnedoBbxknuVUdE3sFVq" ] },
      { "delegate": "tz1irJKkXS2DBWkU1NnmFQx1c1L7pbGg4yhk",
        "reception_time": "2022-01-17T17:15:41.462-00:00",
        "errors":
          [ { "kind": "temporary",
              "id": "proto.011-PtHangz2.prefilter.outdated_endorsement" } ],
        "included_in_blocks":
          [ "BM2KhsuQ8TgjGCdVjHdKYR3J99iWPeLPnedoBbxknuVUdE3sFVq" ] },
      { "delegate": "tz1gUNyn3hmnEWqkusWPzxRaon1cs7ndWh7h",
        "reception_time": "2022-01-17T17:15:41.513-00:00",
        "errors":
          [ { "kind": "temporary",
              "id": "proto.011-PtHangz2.prefilter.outdated_endorsement" } ],
        "included_in_blocks":
          [ "BM2KhsuQ8TgjGCdVjHdKYR3J99iWPeLPnedoBbxknuVUdE3sFVq" ] },
      { "delegate": "tz1VQnqCCqX4K5sP3FNkVSNKTdCAMJDd3E1n",
        "reception_time": "2022-01-17T17:15:41.514-00:00",
        "errors":
          [ { "kind": "temporary",
              "id": "proto.011-PtHangz2.prefilter.outdated_endorsement" } ],
        "included_in_blocks":
          [ "BM2KhsuQ8TgjGCdVjHdKYR3J99iWPeLPnedoBbxknuVUdE3sFVq" ] },
      { "delegate": "tz1Lhf4J9Qxoe3DZ2nfe8FGDnvVj7oKjnMY6",
        "reception_time": "2022-01-17T17:15:41.644-00:00",
        "errors":
          [ { "kind": "temporary",
              "id": "proto.011-PtHangz2.prefilter.outdated_endorsement" } ],
        "included_in_blocks":
          [ "BM2KhsuQ8TgjGCdVjHdKYR3J99iWPeLPnedoBbxknuVUdE3sFVq" ] },
      { "delegate": "tz1STeamwbp68THcny9zk3LsbG3H36DMvbRK",
        "reception_time": "2022-01-17T17:15:41.674-00:00",
        "errors":
          [ { "kind": "temporary",
              "id": "proto.011-PtHangz2.prefilter.outdated_endorsement" } ],
        "included_in_blocks":
          [ "BM2KhsuQ8TgjGCdVjHdKYR3J99iWPeLPnedoBbxknuVUdE3sFVq" ] },
      { "delegate": "tz1aKxnrzx5PXZJe7unufEswVRCMU9yafmfb",
        "reception_time": "2022-01-17T17:15:41.702-00:00",
        "errors":
          [ { "kind": "temporary",
              "id": "proto.011-PtHangz2.prefilter.outdated_endorsement" } ],
        "included_in_blocks":
          [ "BM2KhsuQ8TgjGCdVjHdKYR3J99iWPeLPnedoBbxknuVUdE3sFVq" ] },
      { "delegate": "tz1RV1MBbZMR68tacosb7Mwj6LkbPSUS1er1",
        "reception_time": "2022-01-17T17:15:41.843-00:00",
        "errors":
          [ { "kind": "temporary",
              "id": "proto.011-PtHangz2.prefilter.outdated_endorsement" } ],
        "included_in_blocks":
          [ "BM2KhsuQ8TgjGCdVjHdKYR3J99iWPeLPnedoBbxknuVUdE3sFVq" ] },
      { "delegate": "tz1XfAjZyaLdceHnZxbMYop7g7kWKPut4PR7",
        "reception_time": "2022-01-17T17:15:41.882-00:00",
        "errors":
          [ { "kind": "temporary",
              "id": "proto.011-PtHangz2.prefilter.outdated_endorsement" } ],
        "included_in_blocks":
          [ "BM2KhsuQ8TgjGCdVjHdKYR3J99iWPeLPnedoBbxknuVUdE3sFVq" ] },
      { "delegate": "tz1RNFBuv3iqriqVbobB8yAeUpTKLdzMQ4Aq",
        "reception_time": "2022-01-17T17:15:41.933-00:00",
        "errors":
          [ { "kind": "temporary",
              "id": "proto.011-PtHangz2.prefilter.outdated_endorsement" } ],
        "included_in_blocks":
          [ "BM2KhsuQ8TgjGCdVjHdKYR3J99iWPeLPnedoBbxknuVUdE3sFVq" ] } ] }