{ "blocks":
    [ { "hash": "BMPxgxcHvknGgvi28a2FXNX25wS9f7a9Vg3PeKJgggs3snUZGgR",
        "delegate": "tz3RDC3Jdn4j15J7bBHZd29EUee9gVB1CxD9",
        "reception_time": "2022-01-17T17:04:10.696-00:00",
        "timestamp": "2022-01-17T17:04:00Z" } ],
  "endorsements":
    [ { "delegate": "tz1TXzyaKUA8wsWefdSnyaYFnV2M3vCV7er9",
        "reception_time": "2022-01-17T17:04:10.474-00:00",
        "errors":
          [ { "kind": "temporary",
              "id": "proto.011-PtHangz2.prefilter.outdated_endorsement" } ],
        "included_in_blocks":
          [ "BM42pMWrQzJhFvHjg1mmFoS3ver3DbzWpAnrcFMor5n8w1VR8ju" ] },
      { "delegate": "tz1VQnqCCqX4K5sP3FNkVSNKTdCAMJDd3E1n",
        "reception_time": "2022-01-17T17:04:10.460-00:00",
        "errors":
          [ { "kind": "temporary",
              "id": "proto.011-PtHangz2.prefilter.outdated_endorsement" } ],
        "included_in_blocks":
          [ "BM42pMWrQzJhFvHjg1mmFoS3ver3DbzWpAnrcFMor5n8w1VR8ju" ] },
      { "delegate": "tz1gUNyn3hmnEWqkusWPzxRaon1cs7ndWh7h",
        "reception_time": "2022-01-17T17:04:10.457-00:00",
        "errors":
          [ { "kind": "temporary",
              "id": "proto.011-PtHangz2.prefilter.outdated_endorsement" } ],
        "included_in_blocks":
          [ "BM42pMWrQzJhFvHjg1mmFoS3ver3DbzWpAnrcFMor5n8w1VR8ju" ] },
      { "delegate": "tz1irJKkXS2DBWkU1NnmFQx1c1L7pbGg4yhk",
        "reception_time": "2022-01-17T17:04:10.401-00:00",
        "errors":
          [ { "kind": "temporary",
              "id": "proto.011-PtHangz2.prefilter.outdated_endorsement" } ],
        "included_in_blocks":
          [ "BM42pMWrQzJhFvHjg1mmFoS3ver3DbzWpAnrcFMor5n8w1VR8ju" ] },
      { "delegate": "tz1P2Po7YM526ughEsRbY4oR9zaUPDZjxFrb",
        "reception_time": "2022-01-17T17:04:10.374-00:00",
        "errors":
          [ { "kind": "temporary",
              "id": "proto.011-PtHangz2.prefilter.outdated_endorsement" } ],
        "included_in_blocks":
          [ "BM42pMWrQzJhFvHjg1mmFoS3ver3DbzWpAnrcFMor5n8w1VR8ju" ] },
      { "delegate": "tz1Lhf4J9Qxoe3DZ2nfe8FGDnvVj7oKjnMY6",
        "reception_time": "2022-01-17T17:04:10.359-00:00",
        "errors":
          [ { "kind": "temporary",
              "id": "proto.011-PtHangz2.prefilter.outdated_endorsement" } ],
        "included_in_blocks":
          [ "BM42pMWrQzJhFvHjg1mmFoS3ver3DbzWpAnrcFMor5n8w1VR8ju" ] },
      { "delegate": "tz3RDC3Jdn4j15J7bBHZd29EUee9gVB1CxD9",
        "reception_time": "2022-01-17T17:04:10.348-00:00",
        "errors":
          [ { "kind": "temporary",
              "id": "proto.011-PtHangz2.prefilter.outdated_endorsement" } ],
        "included_in_blocks":
          [ "BM42pMWrQzJhFvHjg1mmFoS3ver3DbzWpAnrcFMor5n8w1VR8ju" ] },
      { "delegate": "tz1S8e9GgdZG78XJRB3NqabfWeM37GnhZMWQ",
        "reception_time": "2022-01-17T17:04:09.615-00:00",
        "errors":
          [ { "kind": "temporary",
              "id": "proto.011-PtHangz2.prefilter.outdated_endorsement" } ],
        "included_in_blocks":
          [ "BM42pMWrQzJhFvHjg1mmFoS3ver3DbzWpAnrcFMor5n8w1VR8ju" ] },
      { "delegate": "tz1RjoHc98dBoqaH2jawF62XNKh7YsHwbkEv" },
      { "delegate": "tz1Vyuu4EJ5Nym4JcrfRLnp3hpaq1DSEp1Ke" },
      { "delegate": "tz1awXW7wuXy21c66vBudMXQVAPgRnqqwgTH" },
      { "delegate": "tz1gfArv665EUkSg2ojMBzcbfwuPxAvqPvjo",
        "reception_time": "2022-01-17T17:04:12.937-00:00",
        "included_in_blocks":
          [ "BM42pMWrQzJhFvHjg1mmFoS3ver3DbzWpAnrcFMor5n8w1VR8ju" ] },
      { "delegate": "tz1bsdrs36X5BTH83RHUBdUouKLJZK8d2oBa",
        "reception_time": "2022-01-17T17:04:12.937-00:00",
        "included_in_blocks":
          [ "BM42pMWrQzJhFvHjg1mmFoS3ver3DbzWpAnrcFMor5n8w1VR8ju" ] },
      { "delegate": "tz3QT9dHYKDqh563chVa6za8526ys1UKfRfL",
        "reception_time": "2022-01-17T17:04:12.940-00:00",
        "included_in_blocks":
          [ "BM42pMWrQzJhFvHjg1mmFoS3ver3DbzWpAnrcFMor5n8w1VR8ju" ] },
      { "delegate": "tz1Ldzz6k1BHdhuKvAtMRX7h5kJSMHESMHLC",
        "reception_time": "2022-01-17T17:04:12.949-00:00",
        "included_in_blocks":
          [ "BM42pMWrQzJhFvHjg1mmFoS3ver3DbzWpAnrcFMor5n8w1VR8ju" ] },
      { "delegate": "tz3RKYFsLuQzKBtmYuLNas7uMu3AsYd4QdsA",
        "reception_time": "2022-01-17T17:04:12.949-00:00",
        "included_in_blocks":
          [ "BM42pMWrQzJhFvHjg1mmFoS3ver3DbzWpAnrcFMor5n8w1VR8ju" ] },
      { "delegate": "tz1d6Fx42mYgVFnHUW8T8A7WBfJ6nD9pVok8",
        "reception_time": "2022-01-17T17:04:12.951-00:00",
        "included_in_blocks":
          [ "BM42pMWrQzJhFvHjg1mmFoS3ver3DbzWpAnrcFMor5n8w1VR8ju" ] },
      { "delegate": "tz1WCd2jm4uSt4vntk4vSuUWoZQGhLcDuR9q",
        "reception_time": "2022-01-17T17:04:12.961-00:00",
        "included_in_blocks":
          [ "BM42pMWrQzJhFvHjg1mmFoS3ver3DbzWpAnrcFMor5n8w1VR8ju" ] },
      { "delegate": "tz3ZbP2pM3nwvXztbuMJwJnDvV5xdpU8UkkD",
        "reception_time": "2022-01-17T17:04:12.961-00:00",
        "included_in_blocks":
          [ "BM42pMWrQzJhFvHjg1mmFoS3ver3DbzWpAnrcFMor5n8w1VR8ju" ] },
      { "delegate": "tz3Zhs2dygr55yHyQyKjntAtY9bgfhLZ4Xj1",
        "reception_time": "2022-01-17T17:04:12.970-00:00",
        "included_in_blocks":
          [ "BM42pMWrQzJhFvHjg1mmFoS3ver3DbzWpAnrcFMor5n8w1VR8ju" ] },
      { "delegate": "tz1PWCDnz783NNGGQjEFFsHtrcK5yBW4E2rm",
        "reception_time": "2022-01-17T17:04:12.970-00:00",
        "included_in_blocks":
          [ "BM42pMWrQzJhFvHjg1mmFoS3ver3DbzWpAnrcFMor5n8w1VR8ju" ] },
      { "delegate": "tz3iJu5vrKZcsqRPs8yJ61UDoeEXZmtro4qh",
        "reception_time": "2022-01-17T17:04:12.978-00:00",
        "included_in_blocks":
          [ "BM42pMWrQzJhFvHjg1mmFoS3ver3DbzWpAnrcFMor5n8w1VR8ju" ] },
      { "delegate": "tz1LnWa4AiFCjMezTgSNa65QFoo7DQGEWgEU",
        "reception_time": "2022-01-17T17:04:12.982-00:00",
        "included_in_blocks":
          [ "BM42pMWrQzJhFvHjg1mmFoS3ver3DbzWpAnrcFMor5n8w1VR8ju" ] },
      { "delegate": "tz1aXD7Jigrt3PBYSpHSg5Rr33SexMmmM5Ys",
        "reception_time": "2022-01-17T17:04:12.987-00:00",
        "included_in_blocks":
          [ "BM42pMWrQzJhFvHjg1mmFoS3ver3DbzWpAnrcFMor5n8w1VR8ju" ] },
      { "delegate": "tz1WBfwbT66FC6BTLexc2BoyCCBM9LG7pnVW",
        "reception_time": "2022-01-17T17:04:12.987-00:00",
        "included_in_blocks":
          [ "BM42pMWrQzJhFvHjg1mmFoS3ver3DbzWpAnrcFMor5n8w1VR8ju" ] },
      { "delegate": "tz1Kf25fX1VdmYGSEzwFy1wNmkbSEZ2V83sY",
        "reception_time": "2022-01-17T17:04:12.991-00:00",
        "included_in_blocks":
          [ "BM42pMWrQzJhFvHjg1mmFoS3ver3DbzWpAnrcFMor5n8w1VR8ju" ] },
      { "delegate": "tz3VEZ4k6a4Wx42iyev6i2aVAptTRLEAivNN",
        "reception_time": "2022-01-17T17:04:12.998-00:00",
        "included_in_blocks":
          [ "BM42pMWrQzJhFvHjg1mmFoS3ver3DbzWpAnrcFMor5n8w1VR8ju" ] },
      { "delegate": "tz3gtoUxdudfBRcNY7iVdKPHCYYX6xdPpoRS",
        "reception_time": "2022-01-17T17:04:13.010-00:00",
        "included_in_blocks":
          [ "BM42pMWrQzJhFvHjg1mmFoS3ver3DbzWpAnrcFMor5n8w1VR8ju" ] },
      { "delegate": "tz1ei4WtWEMEJekSv8qDnu9PExG6Q8HgRGr3",
        "reception_time": "2022-01-17T17:04:13.023-00:00",
        "included_in_blocks":
          [ "BM42pMWrQzJhFvHjg1mmFoS3ver3DbzWpAnrcFMor5n8w1VR8ju" ] },
      { "delegate": "tz3S6BBeKgJGXxvLyZ1xzXzMPn11nnFtq5L9",
        "reception_time": "2022-01-17T17:04:13.072-00:00",
        "included_in_blocks":
          [ "BM42pMWrQzJhFvHjg1mmFoS3ver3DbzWpAnrcFMor5n8w1VR8ju" ] },
      { "delegate": "tz3hw2kqXhLUvY65ca1eety2oQTpAvd34R9Q",
        "reception_time": "2022-01-17T17:04:13.080-00:00",
        "included_in_blocks":
          [ "BM42pMWrQzJhFvHjg1mmFoS3ver3DbzWpAnrcFMor5n8w1VR8ju" ] },
      { "delegate": "tz3bTdwZinP8U1JmSweNzVKhmwafqWmFWRfk",
        "reception_time": "2022-01-17T17:04:13.094-00:00",
        "included_in_blocks":
          [ "BM42pMWrQzJhFvHjg1mmFoS3ver3DbzWpAnrcFMor5n8w1VR8ju" ] },
      { "delegate": "tz1RCFbB9GpALpsZtu6J58sb74dm8qe6XBzv",
        "reception_time": "2022-01-17T17:04:13.101-00:00",
        "included_in_blocks":
          [ "BM42pMWrQzJhFvHjg1mmFoS3ver3DbzWpAnrcFMor5n8w1VR8ju" ] },
      { "delegate": "tz3QSGPoRp3Kn7n3vY24eYeu3Peuqo45LQ4D",
        "reception_time": "2022-01-17T17:04:13.112-00:00",
        "included_in_blocks":
          [ "BM42pMWrQzJhFvHjg1mmFoS3ver3DbzWpAnrcFMor5n8w1VR8ju" ] },
      { "delegate": "tz1UtayNgAX8QEJ3NoLptPzoPr9JiH3Cskzz",
        "reception_time": "2022-01-17T17:04:13.119-00:00",
        "included_in_blocks":
          [ "BM42pMWrQzJhFvHjg1mmFoS3ver3DbzWpAnrcFMor5n8w1VR8ju" ] },
      { "delegate": "tz1Nf6tsK4G6bBqgSQERy4nUtkHNKUVdh7q1",
        "reception_time": "2022-01-17T17:04:13.122-00:00",
        "included_in_blocks":
          [ "BM42pMWrQzJhFvHjg1mmFoS3ver3DbzWpAnrcFMor5n8w1VR8ju" ] },
      { "delegate": "tz1LmaFsWRkjr7QMCx5PtV6xTUz3AmEpKQiF",
        "reception_time": "2022-01-17T17:04:13.126-00:00",
        "included_in_blocks":
          [ "BM42pMWrQzJhFvHjg1mmFoS3ver3DbzWpAnrcFMor5n8w1VR8ju" ] },
      { "delegate": "tz1eEnQhbwf6trb8Q8mPb2RaPkNk2rN7BKi8",
        "reception_time": "2022-01-17T17:04:13.148-00:00",
        "included_in_blocks":
          [ "BM42pMWrQzJhFvHjg1mmFoS3ver3DbzWpAnrcFMor5n8w1VR8ju" ] },
      { "delegate": "tz1V4qCyvPKZ5UeqdH14HN42rxvNPQfc9UZg",
        "reception_time": "2022-01-17T17:04:13.151-00:00",
        "included_in_blocks":
          [ "BM42pMWrQzJhFvHjg1mmFoS3ver3DbzWpAnrcFMor5n8w1VR8ju" ] },
      { "delegate": "tz1PeZx7FXy7QRuMREGXGxeipb24RsMMzUNe",
        "reception_time": "2022-01-17T17:04:13.155-00:00",
        "included_in_blocks":
          [ "BM42pMWrQzJhFvHjg1mmFoS3ver3DbzWpAnrcFMor5n8w1VR8ju" ] },
      { "delegate": "tz3QCNyySViKHmeSr45kzDxzchys7NiXCWoa",
        "reception_time": "2022-01-17T17:04:13.177-00:00",
        "included_in_blocks":
          [ "BM42pMWrQzJhFvHjg1mmFoS3ver3DbzWpAnrcFMor5n8w1VR8ju" ] },
      { "delegate": "tz1S8MNvuFEUsWgjHvi3AxibRBf388NhT1q2",
        "reception_time": "2022-01-17T17:04:13.180-00:00",
        "included_in_blocks":
          [ "BM42pMWrQzJhFvHjg1mmFoS3ver3DbzWpAnrcFMor5n8w1VR8ju" ] },
      { "delegate": "tz1RQhNh7iB9CZA7i3ifTWNwiGYVffponfbB",
        "reception_time": "2022-01-17T17:04:13.184-00:00",
        "included_in_blocks":
          [ "BM42pMWrQzJhFvHjg1mmFoS3ver3DbzWpAnrcFMor5n8w1VR8ju" ] },
      { "delegate": "tz3RB4aoyjov4KEVRbuhvQ1CKJgBJMWhaeB8",
        "reception_time": "2022-01-17T17:04:13.194-00:00",
        "included_in_blocks":
          [ "BM42pMWrQzJhFvHjg1mmFoS3ver3DbzWpAnrcFMor5n8w1VR8ju" ] },
      { "delegate": "tz1NEKxGEHsFufk87CVZcrqWu8o22qh46GK6",
        "reception_time": "2022-01-17T17:04:13.206-00:00",
        "included_in_blocks":
          [ "BM42pMWrQzJhFvHjg1mmFoS3ver3DbzWpAnrcFMor5n8w1VR8ju" ] },
      { "delegate": "tz1fwnfJNgiDACshK9avfRfFbMaXrs3ghoJa",
        "reception_time": "2022-01-17T17:04:13.210-00:00",
        "included_in_blocks":
          [ "BM42pMWrQzJhFvHjg1mmFoS3ver3DbzWpAnrcFMor5n8w1VR8ju" ] },
      { "delegate": "tz1SYq214SCBy9naR6cvycQsYcUGpBqQAE8d",
        "reception_time": "2022-01-17T17:04:13.234-00:00",
        "included_in_blocks":
          [ "BM42pMWrQzJhFvHjg1mmFoS3ver3DbzWpAnrcFMor5n8w1VR8ju" ] },
      { "delegate": "tz3WMqdzXqRWXwyvj5Hp2H7QEepaUuS7vd9K",
        "reception_time": "2022-01-17T17:04:13.252-00:00",
        "included_in_blocks":
          [ "BM42pMWrQzJhFvHjg1mmFoS3ver3DbzWpAnrcFMor5n8w1VR8ju" ] },
      { "delegate": "tz2FCNBrERXtaTtNX6iimR1UJ5JSDxvdHM93",
        "reception_time": "2022-01-17T17:04:13.289-00:00",
        "included_in_blocks":
          [ "BM42pMWrQzJhFvHjg1mmFoS3ver3DbzWpAnrcFMor5n8w1VR8ju" ] },
      { "delegate": "tz3NDpRj6WBrJPikcPVHRBEjWKxFw3c6eQPS",
        "reception_time": "2022-01-17T17:04:13.299-00:00",
        "included_in_blocks":
          [ "BM42pMWrQzJhFvHjg1mmFoS3ver3DbzWpAnrcFMor5n8w1VR8ju" ] },
      { "delegate": "tz3bvNMQ95vfAYtG8193ymshqjSvmxiCUuR5",
        "reception_time": "2022-01-17T17:04:13.311-00:00",
        "included_in_blocks":
          [ "BM42pMWrQzJhFvHjg1mmFoS3ver3DbzWpAnrcFMor5n8w1VR8ju" ] },
      { "delegate": "tz1g8vkmcde6sWKaG2NN9WKzCkDM6Rziq194",
        "reception_time": "2022-01-17T17:04:13.327-00:00",
        "included_in_blocks":
          [ "BM42pMWrQzJhFvHjg1mmFoS3ver3DbzWpAnrcFMor5n8w1VR8ju" ] },
      { "delegate": "tz1TRqbYbUf2GyrjErf3hBzgBJPzW8y36qEs",
        "reception_time": "2022-01-17T17:04:13.431-00:00",
        "included_in_blocks":
          [ "BM42pMWrQzJhFvHjg1mmFoS3ver3DbzWpAnrcFMor5n8w1VR8ju" ] },
      { "delegate": "tz3RV2baWaaS81wamZjcA4q4eWV7FnYMuwWn",
        "reception_time": "2022-01-17T17:04:13.444-00:00",
        "included_in_blocks":
          [ "BM42pMWrQzJhFvHjg1mmFoS3ver3DbzWpAnrcFMor5n8w1VR8ju" ] },
      { "delegate": "tz3UoffC7FG7zfpmvmjUmUeAaHvzdcUvAj6r",
        "reception_time": "2022-01-17T17:04:13.665-00:00",
        "included_in_blocks":
          [ "BM42pMWrQzJhFvHjg1mmFoS3ver3DbzWpAnrcFMor5n8w1VR8ju" ] },
      { "delegate": "tz1Z2jXfEXL7dXhs6bsLmyLFLfmAkXBzA9WE",
        "reception_time": "2022-01-17T17:04:13.731-00:00",
        "included_in_blocks":
          [ "BM42pMWrQzJhFvHjg1mmFoS3ver3DbzWpAnrcFMor5n8w1VR8ju" ] },
      { "delegate": "tz1cYufsxHXJcvANhvS55h3aY32a9BAFB494",
        "reception_time": "2022-01-17T17:04:13.820-00:00",
        "included_in_blocks":
          [ "BM42pMWrQzJhFvHjg1mmFoS3ver3DbzWpAnrcFMor5n8w1VR8ju" ] },
      { "delegate": "tz3NExpXn9aPNZPorRE4SdjJ2RGrfbJgMAaV",
        "reception_time": "2022-01-17T17:04:13.956-00:00",
        "included_in_blocks":
          [ "BM42pMWrQzJhFvHjg1mmFoS3ver3DbzWpAnrcFMor5n8w1VR8ju" ] },
      { "delegate": "tz1ULYFhUY7Syao5NWr9jZ1pp3aw81QPiqjs",
        "reception_time": "2022-01-17T17:04:14.073-00:00",
        "included_in_blocks":
          [ "BM42pMWrQzJhFvHjg1mmFoS3ver3DbzWpAnrcFMor5n8w1VR8ju" ] },
      { "delegate": "tz1ZcTRk5uxD86EFEn1vvNffWWqJy7q5eVhc",
        "reception_time": "2022-01-17T17:04:14.388-00:00",
        "included_in_blocks":
          [ "BM42pMWrQzJhFvHjg1mmFoS3ver3DbzWpAnrcFMor5n8w1VR8ju" ] },
      { "delegate": "tz1T7duV5gZWSTq4YpBGbXNLTfznCLDrFxvs",
        "reception_time": "2022-01-17T17:04:14.436-00:00",
        "included_in_blocks":
          [ "BM42pMWrQzJhFvHjg1mmFoS3ver3DbzWpAnrcFMor5n8w1VR8ju" ] },
      { "delegate": "tz1aRoaRhSpRYvFdyvgWLL6TGyRoGF51wDjM",
        "reception_time": "2022-01-17T17:04:14.517-00:00",
        "included_in_blocks":
          [ "BM42pMWrQzJhFvHjg1mmFoS3ver3DbzWpAnrcFMor5n8w1VR8ju" ] },
      { "delegate": "tz1W5VkdB5s7ENMESVBtwyt9kyvLqPcUczRT",
        "reception_time": "2022-01-17T17:04:15.224-00:00",
        "included_in_blocks":
          [ "BM42pMWrQzJhFvHjg1mmFoS3ver3DbzWpAnrcFMor5n8w1VR8ju" ] },
      { "delegate": "tz1h4ar7F5wC6Ae2cfkrmrRP6nrPk9gGFaxg",
        "reception_time": "2022-01-17T17:04:15.714-00:00",
        "included_in_blocks":
          [ "BM42pMWrQzJhFvHjg1mmFoS3ver3DbzWpAnrcFMor5n8w1VR8ju" ] },
      { "delegate": "tz1eVaNx3gCmG1EsLjijkmgAxdLYVf6Bf5Sq",
        "reception_time": "2022-01-17T17:04:16.065-00:00",
        "included_in_blocks":
          [ "BM42pMWrQzJhFvHjg1mmFoS3ver3DbzWpAnrcFMor5n8w1VR8ju" ] } ] }