{ "blocks":
    [ { "hash": "BLC2ji2hXxHjY2cAzSHJ4F1ReNQ1NgGtLVQ3FcSrAxY2dECadNc",
        "delegate": "tz1aRoaRhSpRYvFdyvgWLL6TGyRoGF51wDjM",
        "reception_time": "2022-01-18T00:28:31.153-00:00",
        "timestamp": "2022-01-18T00:28:20Z" } ],
  "endorsements":
    [ { "delegate": "tz1S8e9GgdZG78XJRB3NqabfWeM37GnhZMWQ",
        "reception_time": "2022-01-18T00:28:31.155-00:00",
        "errors":
          [ { "kind": "temporary",
              "id": "proto.011-PtHangz2.prefilter.outdated_endorsement" } ],
        "included_in_blocks":
          [ "BMUoQuZGgYgPpZyj9gfB5c9cbwu4N9EKFk1E6v95W3uWjrECouf" ] },
      { "delegate": "tz1ibcPVGK4Y8pcW4BYUsojiHoBKnZbyDGrX" },
      { "delegate": "tz1eEnQhbwf6trb8Q8mPb2RaPkNk2rN7BKi8",
        "reception_time": "2022-01-18T00:28:31.888-00:00",
        "included_in_blocks":
          [ "BMUoQuZGgYgPpZyj9gfB5c9cbwu4N9EKFk1E6v95W3uWjrECouf" ] },
      { "delegate": "tz1MXFrtZoaXckE41bjUCSjAjAap3AFDSr3N",
        "reception_time": "2022-01-18T00:28:31.892-00:00",
        "included_in_blocks":
          [ "BMUoQuZGgYgPpZyj9gfB5c9cbwu4N9EKFk1E6v95W3uWjrECouf" ] },
      { "delegate": "tz1P2Po7YM526ughEsRbY4oR9zaUPDZjxFrb",
        "reception_time": "2022-01-18T00:28:31.897-00:00",
        "included_in_blocks":
          [ "BMUoQuZGgYgPpZyj9gfB5c9cbwu4N9EKFk1E6v95W3uWjrECouf" ] },
      { "delegate": "tz1aDiEJf9ztRrAJEXZfcG3CKimoKsGhwVAi",
        "reception_time": "2022-01-18T00:28:31.899-00:00",
        "included_in_blocks":
          [ "BMUoQuZGgYgPpZyj9gfB5c9cbwu4N9EKFk1E6v95W3uWjrECouf" ] },
      { "delegate": "tz1aXD7Jigrt3PBYSpHSg5Rr33SexMmmM5Ys",
        "reception_time": "2022-01-18T00:28:32.041-00:00",
        "included_in_blocks":
          [ "BMUoQuZGgYgPpZyj9gfB5c9cbwu4N9EKFk1E6v95W3uWjrECouf" ] },
      { "delegate": "tz1h4GUAMweP7SNWzDgvMk3yRCAZyaP1MxZq",
        "reception_time": "2022-01-18T00:28:32.101-00:00",
        "included_in_blocks":
          [ "BMUoQuZGgYgPpZyj9gfB5c9cbwu4N9EKFk1E6v95W3uWjrECouf" ] },
      { "delegate": "tz3ZbP2pM3nwvXztbuMJwJnDvV5xdpU8UkkD",
        "reception_time": "2022-01-18T00:28:32.124-00:00",
        "included_in_blocks":
          [ "BMUoQuZGgYgPpZyj9gfB5c9cbwu4N9EKFk1E6v95W3uWjrECouf" ] },
      { "delegate": "tz3NxTnke1acr8o3h5y9ytf5awQBGNJUKzVU",
        "reception_time": "2022-01-18T00:28:32.163-00:00",
        "included_in_blocks":
          [ "BMUoQuZGgYgPpZyj9gfB5c9cbwu4N9EKFk1E6v95W3uWjrECouf" ] },
      { "delegate": "tz3iJu5vrKZcsqRPs8yJ61UDoeEXZmtro4qh",
        "reception_time": "2022-01-18T00:28:32.207-00:00",
        "included_in_blocks":
          [ "BMUoQuZGgYgPpZyj9gfB5c9cbwu4N9EKFk1E6v95W3uWjrECouf" ] },
      { "delegate": "tz1TRspM5SeZpaQUhzByXbEvqKF1vnCM2YTK",
        "reception_time": "2022-01-18T00:28:32.219-00:00",
        "included_in_blocks":
          [ "BMUoQuZGgYgPpZyj9gfB5c9cbwu4N9EKFk1E6v95W3uWjrECouf" ] },
      { "delegate": "tz3gtoUxdudfBRcNY7iVdKPHCYYX6xdPpoRS",
        "reception_time": "2022-01-18T00:28:32.237-00:00",
        "included_in_blocks":
          [ "BMUoQuZGgYgPpZyj9gfB5c9cbwu4N9EKFk1E6v95W3uWjrECouf" ] },
      { "delegate": "tz3QSGPoRp3Kn7n3vY24eYeu3Peuqo45LQ4D",
        "reception_time": "2022-01-18T00:28:32.247-00:00",
        "included_in_blocks":
          [ "BMUoQuZGgYgPpZyj9gfB5c9cbwu4N9EKFk1E6v95W3uWjrECouf" ] },
      { "delegate": "tz1gcna2xxZj2eNp1LaMyAhVJ49mEFj4FH26",
        "reception_time": "2022-01-18T00:28:32.255-00:00",
        "included_in_blocks":
          [ "BMUoQuZGgYgPpZyj9gfB5c9cbwu4N9EKFk1E6v95W3uWjrECouf" ] },
      { "delegate": "tz3Zhs2dygr55yHyQyKjntAtY9bgfhLZ4Xj1",
        "reception_time": "2022-01-18T00:28:32.297-00:00",
        "included_in_blocks":
          [ "BMUoQuZGgYgPpZyj9gfB5c9cbwu4N9EKFk1E6v95W3uWjrECouf" ] },
      { "delegate": "tz1Ldzz6k1BHdhuKvAtMRX7h5kJSMHESMHLC",
        "reception_time": "2022-01-18T00:28:32.325-00:00",
        "included_in_blocks":
          [ "BMUoQuZGgYgPpZyj9gfB5c9cbwu4N9EKFk1E6v95W3uWjrECouf" ] },
      { "delegate": "tz1gUNyn3hmnEWqkusWPzxRaon1cs7ndWh7h",
        "reception_time": "2022-01-18T00:28:32.329-00:00",
        "included_in_blocks":
          [ "BMUoQuZGgYgPpZyj9gfB5c9cbwu4N9EKFk1E6v95W3uWjrECouf" ] },
      { "delegate": "tz3adcvQaKXTCg12zbninqo3q8ptKKtDFTLv",
        "reception_time": "2022-01-18T00:28:32.363-00:00",
        "included_in_blocks":
          [ "BMUoQuZGgYgPpZyj9gfB5c9cbwu4N9EKFk1E6v95W3uWjrECouf" ] },
      { "delegate": "tz1VQnqCCqX4K5sP3FNkVSNKTdCAMJDd3E1n",
        "reception_time": "2022-01-18T00:28:32.380-00:00",
        "included_in_blocks":
          [ "BMUoQuZGgYgPpZyj9gfB5c9cbwu4N9EKFk1E6v95W3uWjrECouf" ] },
      { "delegate": "tz3QT9dHYKDqh563chVa6za8526ys1UKfRfL",
        "reception_time": "2022-01-18T00:28:32.414-00:00",
        "included_in_blocks":
          [ "BMUoQuZGgYgPpZyj9gfB5c9cbwu4N9EKFk1E6v95W3uWjrECouf" ] },
      { "delegate": "tz3S6BBeKgJGXxvLyZ1xzXzMPn11nnFtq5L9",
        "reception_time": "2022-01-18T00:28:32.421-00:00",
        "included_in_blocks":
          [ "BMUoQuZGgYgPpZyj9gfB5c9cbwu4N9EKFk1E6v95W3uWjrECouf" ] },
      { "delegate": "tz1RCFbB9GpALpsZtu6J58sb74dm8qe6XBzv",
        "reception_time": "2022-01-18T00:28:32.727-00:00",
        "included_in_blocks":
          [ "BMUoQuZGgYgPpZyj9gfB5c9cbwu4N9EKFk1E6v95W3uWjrECouf" ] },
      { "delegate": "tz1VmiY38m3y95HqQLjMwqnMS7sdMfGomzKi",
        "reception_time": "2022-01-18T00:28:32.774-00:00",
        "included_in_blocks":
          [ "BMUoQuZGgYgPpZyj9gfB5c9cbwu4N9EKFk1E6v95W3uWjrECouf" ] },
      { "delegate": "tz3bvNMQ95vfAYtG8193ymshqjSvmxiCUuR5",
        "reception_time": "2022-01-18T00:28:32.791-00:00",
        "included_in_blocks":
          [ "BMUoQuZGgYgPpZyj9gfB5c9cbwu4N9EKFk1E6v95W3uWjrECouf" ] },
      { "delegate": "tz1WCd2jm4uSt4vntk4vSuUWoZQGhLcDuR9q",
        "reception_time": "2022-01-18T00:28:32.799-00:00",
        "included_in_blocks":
          [ "BMUoQuZGgYgPpZyj9gfB5c9cbwu4N9EKFk1E6v95W3uWjrECouf" ] },
      { "delegate": "tz3bTdwZinP8U1JmSweNzVKhmwafqWmFWRfk",
        "reception_time": "2022-01-18T00:28:32.821-00:00",
        "included_in_blocks":
          [ "BMUoQuZGgYgPpZyj9gfB5c9cbwu4N9EKFk1E6v95W3uWjrECouf" ] },
      { "delegate": "tz1S8MNvuFEUsWgjHvi3AxibRBf388NhT1q2",
        "reception_time": "2022-01-18T00:28:32.828-00:00",
        "included_in_blocks":
          [ "BMUoQuZGgYgPpZyj9gfB5c9cbwu4N9EKFk1E6v95W3uWjrECouf" ] },
      { "delegate": "tz1cSj7fTex3JPd1p1LN1fwek6AV1kH93Wwc",
        "reception_time": "2022-01-18T00:28:32.936-00:00",
        "included_in_blocks":
          [ "BMUoQuZGgYgPpZyj9gfB5c9cbwu4N9EKFk1E6v95W3uWjrECouf" ] },
      { "delegate": "tz1irJKkXS2DBWkU1NnmFQx1c1L7pbGg4yhk",
        "reception_time": "2022-01-18T00:28:32.941-00:00",
        "included_in_blocks":
          [ "BMUoQuZGgYgPpZyj9gfB5c9cbwu4N9EKFk1E6v95W3uWjrECouf" ] },
      { "delegate": "tz3RKYFsLuQzKBtmYuLNas7uMu3AsYd4QdsA",
        "reception_time": "2022-01-18T00:28:32.958-00:00",
        "included_in_blocks":
          [ "BMUoQuZGgYgPpZyj9gfB5c9cbwu4N9EKFk1E6v95W3uWjrECouf" ] },
      { "delegate": "tz3RB4aoyjov4KEVRbuhvQ1CKJgBJMWhaeB8",
        "reception_time": "2022-01-18T00:28:32.967-00:00",
        "included_in_blocks":
          [ "BMUoQuZGgYgPpZyj9gfB5c9cbwu4N9EKFk1E6v95W3uWjrECouf" ] },
      { "delegate": "tz3hw2kqXhLUvY65ca1eety2oQTpAvd34R9Q",
        "reception_time": "2022-01-18T00:28:32.975-00:00",
        "included_in_blocks":
          [ "BMUoQuZGgYgPpZyj9gfB5c9cbwu4N9EKFk1E6v95W3uWjrECouf" ] },
      { "delegate": "tz1MQMiZHV8q4tTwUMWmS5Y3kaP6J2136iXr",
        "reception_time": "2022-01-18T00:28:32.994-00:00",
        "included_in_blocks":
          [ "BMUoQuZGgYgPpZyj9gfB5c9cbwu4N9EKFk1E6v95W3uWjrECouf" ] },
      { "delegate": "tz1abmz7jiCV2GH2u81LRrGgAFFgvQgiDiaf",
        "reception_time": "2022-01-18T00:28:33.017-00:00",
        "included_in_blocks":
          [ "BMUoQuZGgYgPpZyj9gfB5c9cbwu4N9EKFk1E6v95W3uWjrECouf" ] },
      { "delegate": "tz2FCNBrERXtaTtNX6iimR1UJ5JSDxvdHM93",
        "reception_time": "2022-01-18T00:28:33.111-00:00",
        "included_in_blocks":
          [ "BMUoQuZGgYgPpZyj9gfB5c9cbwu4N9EKFk1E6v95W3uWjrECouf" ] },
      { "delegate": "tz1gfArv665EUkSg2ojMBzcbfwuPxAvqPvjo",
        "reception_time": "2022-01-18T00:28:33.122-00:00",
        "included_in_blocks":
          [ "BMUoQuZGgYgPpZyj9gfB5c9cbwu4N9EKFk1E6v95W3uWjrECouf" ] },
      { "delegate": "tz1ci1ARnm8JoYV16Hbe4FoxX17yFEAQVytg",
        "reception_time": "2022-01-18T00:28:33.159-00:00",
        "included_in_blocks":
          [ "BMUoQuZGgYgPpZyj9gfB5c9cbwu4N9EKFk1E6v95W3uWjrECouf" ] },
      { "delegate": "tz1TEc75UKXv4W5cwi14Na3NtqFD51yKQi7h",
        "reception_time": "2022-01-18T00:28:33.172-00:00",
        "included_in_blocks":
          [ "BMUoQuZGgYgPpZyj9gfB5c9cbwu4N9EKFk1E6v95W3uWjrECouf" ] },
      { "delegate": "tz1Nf6tsK4G6bBqgSQERy4nUtkHNKUVdh7q1",
        "reception_time": "2022-01-18T00:28:33.370-00:00",
        "included_in_blocks":
          [ "BMUoQuZGgYgPpZyj9gfB5c9cbwu4N9EKFk1E6v95W3uWjrECouf" ] },
      { "delegate": "tz3gLTu4Yxj8tPAcriQVUdxv6BY9QyvzU1az",
        "reception_time": "2022-01-18T00:28:33.430-00:00",
        "included_in_blocks":
          [ "BMUoQuZGgYgPpZyj9gfB5c9cbwu4N9EKFk1E6v95W3uWjrECouf" ] },
      { "delegate": "tz1ei4WtWEMEJekSv8qDnu9PExG6Q8HgRGr3",
        "reception_time": "2022-01-18T00:28:33.480-00:00",
        "included_in_blocks":
          [ "BMUoQuZGgYgPpZyj9gfB5c9cbwu4N9EKFk1E6v95W3uWjrECouf" ] },
      { "delegate": "tz3NDpRj6WBrJPikcPVHRBEjWKxFw3c6eQPS",
        "reception_time": "2022-01-18T00:28:33.488-00:00",
        "included_in_blocks":
          [ "BMUoQuZGgYgPpZyj9gfB5c9cbwu4N9EKFk1E6v95W3uWjrECouf" ] },
      { "delegate": "tz1WBfwbT66FC6BTLexc2BoyCCBM9LG7pnVW",
        "reception_time": "2022-01-18T00:28:33.511-00:00",
        "included_in_blocks":
          [ "BMUoQuZGgYgPpZyj9gfB5c9cbwu4N9EKFk1E6v95W3uWjrECouf" ] },
      { "delegate": "tz1dNVDWPf3Q59SdJqnjdnu277iyvReiRS9M",
        "reception_time": "2022-01-18T00:28:33.568-00:00",
        "included_in_blocks":
          [ "BMUoQuZGgYgPpZyj9gfB5c9cbwu4N9EKFk1E6v95W3uWjrECouf" ] },
      { "delegate": "tz1R4PuhxUxBBZhfLJDx2nNjbr7WorAPX1oC",
        "reception_time": "2022-01-18T00:28:33.612-00:00",
        "included_in_blocks":
          [ "BMUoQuZGgYgPpZyj9gfB5c9cbwu4N9EKFk1E6v95W3uWjrECouf" ] },
      { "delegate": "tz3VEZ4k6a4Wx42iyev6i2aVAptTRLEAivNN",
        "reception_time": "2022-01-18T00:28:33.782-00:00",
        "included_in_blocks":
          [ "BMUoQuZGgYgPpZyj9gfB5c9cbwu4N9EKFk1E6v95W3uWjrECouf" ] },
      { "delegate": "tz1SohptP53wDPZhzTWzDUFAUcWF6DMBpaJV",
        "reception_time": "2022-01-18T00:28:33.807-00:00",
        "included_in_blocks":
          [ "BMUoQuZGgYgPpZyj9gfB5c9cbwu4N9EKFk1E6v95W3uWjrECouf" ] },
      { "delegate": "tz1WctSwL49BZtdWAQ75NY6vr4xsAx6oKdah",
        "reception_time": "2022-01-18T00:28:33.896-00:00",
        "included_in_blocks":
          [ "BMUoQuZGgYgPpZyj9gfB5c9cbwu4N9EKFk1E6v95W3uWjrECouf" ] },
      { "delegate": "tz1SYq214SCBy9naR6cvycQsYcUGpBqQAE8d",
        "reception_time": "2022-01-18T00:28:33.913-00:00",
        "included_in_blocks":
          [ "BMUoQuZGgYgPpZyj9gfB5c9cbwu4N9EKFk1E6v95W3uWjrECouf" ] },
      { "delegate": "tz1aRoaRhSpRYvFdyvgWLL6TGyRoGF51wDjM",
        "reception_time": "2022-01-18T00:28:33.915-00:00",
        "included_in_blocks":
          [ "BMUoQuZGgYgPpZyj9gfB5c9cbwu4N9EKFk1E6v95W3uWjrECouf" ] },
      { "delegate": "tz1RjoHc98dBoqaH2jawF62XNKh7YsHwbkEv",
        "reception_time": "2022-01-18T00:28:33.978-00:00",
        "included_in_blocks":
          [ "BMUoQuZGgYgPpZyj9gfB5c9cbwu4N9EKFk1E6v95W3uWjrECouf" ] },
      { "delegate": "tz1dDsLch7Ww1s5mfD1tjBtKWwCdrjuHWanV",
        "reception_time": "2022-01-18T00:28:34.042-00:00",
        "included_in_blocks":
          [ "BMUoQuZGgYgPpZyj9gfB5c9cbwu4N9EKFk1E6v95W3uWjrECouf" ] },
      { "delegate": "tz1hAYfexyzPGG6RhZZMpDvAHifubsbb6kgn",
        "reception_time": "2022-01-18T00:28:34.047-00:00",
        "included_in_blocks":
          [ "BMUoQuZGgYgPpZyj9gfB5c9cbwu4N9EKFk1E6v95W3uWjrECouf" ] },
      { "delegate": "tz1KfEsrtDaA1sX7vdM4qmEPWuSytuqCDp5j",
        "reception_time": "2022-01-18T00:28:34.050-00:00",
        "included_in_blocks":
          [ "BMUoQuZGgYgPpZyj9gfB5c9cbwu4N9EKFk1E6v95W3uWjrECouf" ] },
      { "delegate": "tz1XCJBHkDn2D9wjgXEJHMi2jTxg563XUunQ",
        "reception_time": "2022-01-18T00:28:34.052-00:00",
        "included_in_blocks":
          [ "BMUoQuZGgYgPpZyj9gfB5c9cbwu4N9EKFk1E6v95W3uWjrECouf" ] },
      { "delegate": "tz1cYufsxHXJcvANhvS55h3aY32a9BAFB494",
        "reception_time": "2022-01-18T00:28:34.064-00:00",
        "included_in_blocks":
          [ "BMUoQuZGgYgPpZyj9gfB5c9cbwu4N9EKFk1E6v95W3uWjrECouf" ] },
      { "delegate": "tz3WMqdzXqRWXwyvj5Hp2H7QEepaUuS7vd9K",
        "reception_time": "2022-01-18T00:28:34.078-00:00",
        "included_in_blocks":
          [ "BMUoQuZGgYgPpZyj9gfB5c9cbwu4N9EKFk1E6v95W3uWjrECouf" ] },
      { "delegate": "tz1awXW7wuXy21c66vBudMXQVAPgRnqqwgTH",
        "reception_time": "2022-01-18T00:28:34.089-00:00",
        "included_in_blocks":
          [ "BMUoQuZGgYgPpZyj9gfB5c9cbwu4N9EKFk1E6v95W3uWjrECouf" ] },
      { "delegate": "tz1NEKxGEHsFufk87CVZcrqWu8o22qh46GK6",
        "reception_time": "2022-01-18T00:28:34.247-00:00",
        "included_in_blocks":
          [ "BMUoQuZGgYgPpZyj9gfB5c9cbwu4N9EKFk1E6v95W3uWjrECouf" ] },
      { "delegate": "tz1T7duV5gZWSTq4YpBGbXNLTfznCLDrFxvs",
        "reception_time": "2022-01-18T00:28:34.615-00:00",
        "included_in_blocks":
          [ "BMUoQuZGgYgPpZyj9gfB5c9cbwu4N9EKFk1E6v95W3uWjrECouf" ] },
      { "delegate": "tz3NExpXn9aPNZPorRE4SdjJ2RGrfbJgMAaV",
        "reception_time": "2022-01-18T00:28:34.639-00:00",
        "included_in_blocks":
          [ "BMUoQuZGgYgPpZyj9gfB5c9cbwu4N9EKFk1E6v95W3uWjrECouf" ] },
      { "delegate": "tz1Z2jXfEXL7dXhs6bsLmyLFLfmAkXBzA9WE",
        "reception_time": "2022-01-18T00:28:34.644-00:00",
        "included_in_blocks":
          [ "BMUoQuZGgYgPpZyj9gfB5c9cbwu4N9EKFk1E6v95W3uWjrECouf" ] },
      { "delegate": "tz3UoffC7FG7zfpmvmjUmUeAaHvzdcUvAj6r",
        "reception_time": "2022-01-18T00:28:34.821-00:00",
        "included_in_blocks":
          [ "BMUoQuZGgYgPpZyj9gfB5c9cbwu4N9EKFk1E6v95W3uWjrECouf" ] },
      { "delegate": "tz1dRKU4FQ9QRRQPdaH4zCR6gmCmXfcvcgtB",
        "reception_time": "2022-01-18T00:28:34.854-00:00",
        "included_in_blocks":
          [ "BMUoQuZGgYgPpZyj9gfB5c9cbwu4N9EKFk1E6v95W3uWjrECouf" ] },
      { "delegate": "tz1WvL7MKyCuUHfC3FxPFyiXcy8hHTBT3vjE",
        "reception_time": "2022-01-18T00:28:34.932-00:00",
        "included_in_blocks":
          [ "BMUoQuZGgYgPpZyj9gfB5c9cbwu4N9EKFk1E6v95W3uWjrECouf" ] },
      { "delegate": "tz1TcH4Nb3aHNDJ7CGZhU7jgAK1BkSP4Lxds",
        "reception_time": "2022-01-18T00:28:35.015-00:00",
        "included_in_blocks":
          [ "BMUoQuZGgYgPpZyj9gfB5c9cbwu4N9EKFk1E6v95W3uWjrECouf" ] },
      { "delegate": "tz1ZcTRk5uxD86EFEn1vvNffWWqJy7q5eVhc",
        "reception_time": "2022-01-18T00:28:35.490-00:00",
        "included_in_blocks":
          [ "BMUoQuZGgYgPpZyj9gfB5c9cbwu4N9EKFk1E6v95W3uWjrECouf" ] },
      { "delegate": "tz1W5VkdB5s7ENMESVBtwyt9kyvLqPcUczRT",
        "reception_time": "2022-01-18T00:28:36.834-00:00",
        "included_in_blocks":
          [ "BMUoQuZGgYgPpZyj9gfB5c9cbwu4N9EKFk1E6v95W3uWjrECouf" ] },
      { "delegate": "tz1ZdSQibskQwRdiaFUh7RUVm1Z6xudMedoj",
        "reception_time": "2022-01-18T00:28:37.175-00:00",
        "included_in_blocks":
          [ "BMUoQuZGgYgPpZyj9gfB5c9cbwu4N9EKFk1E6v95W3uWjrECouf" ] },
      { "delegate": "tz1g8vkmcde6sWKaG2NN9WKzCkDM6Rziq194",
        "reception_time": "2022-01-18T00:28:37.243-00:00",
        "included_in_blocks":
          [ "BMUoQuZGgYgPpZyj9gfB5c9cbwu4N9EKFk1E6v95W3uWjrECouf" ] },
      { "delegate": "tz1fJHFn6sWEd3NnBPngACuw2dggTv6nQZ7g",
        "reception_time": "2022-01-18T00:28:37.722-00:00",
        "included_in_blocks":
          [ "BMUoQuZGgYgPpZyj9gfB5c9cbwu4N9EKFk1E6v95W3uWjrECouf" ] },
      { "delegate": "tz1NpWrAyDL9k2Lmnyxcgr9xuJakbBxdq7FB",
        "reception_time": "2022-01-18T00:28:37.899-00:00",
        "included_in_blocks":
          [ "BMUoQuZGgYgPpZyj9gfB5c9cbwu4N9EKFk1E6v95W3uWjrECouf" ] } ] }