{ "blocks":
    [ { "hash": "BMJaGDmwbLMgBQw59gNfAwX8ZhqwWmv6YMFYvFGRTfmHZavrLW1",
        "delegate": "tz3NDpRj6WBrJPikcPVHRBEjWKxFw3c6eQPS",
        "reception_time": "2022-01-17T16:45:07.351-00:00",
        "timestamp": "2022-01-17T16:45:00Z" } ],
  "endorsements":
    [ { "delegate": "tz1fUyqYH7H4pRHN1roWY17giXhy1RvxjgUV" },
      { "delegate": "tz1XpbziteVDNqr7C3pkYEkwZmpvweXqdy4A" },
      { "delegate": "tz1RjoHc98dBoqaH2jawF62XNKh7YsHwbkEv" },
      { "delegate": "tz1Zhv3RkfU2pHrmaiDyxp7kFZpZrUCu1CiF",
        "reception_time": "2022-01-17T16:45:07.140-00:00",
        "errors":
          [ { "kind": "temporary",
              "id": "proto.011-PtHangz2.prefilter.outdated_endorsement" } ],
        "included_in_blocks":
          [ "BLmXou6hsxEBQB1zUB8XzWTrk3agqxBZsZs37d3jxqvLfRKnHGS" ] },
      { "delegate": "tz1Lhf4J9Qxoe3DZ2nfe8FGDnvVj7oKjnMY6",
        "reception_time": "2022-01-17T16:45:07.038-00:00",
        "errors":
          [ { "kind": "temporary",
              "id": "proto.011-PtHangz2.prefilter.outdated_endorsement" } ],
        "included_in_blocks":
          [ "BLmXou6hsxEBQB1zUB8XzWTrk3agqxBZsZs37d3jxqvLfRKnHGS" ] },
      { "delegate": "tz1P2Po7YM526ughEsRbY4oR9zaUPDZjxFrb",
        "reception_time": "2022-01-17T16:45:06.634-00:00",
        "errors":
          [ { "kind": "temporary",
              "id": "proto.011-PtHangz2.prefilter.outdated_endorsement" } ],
        "included_in_blocks":
          [ "BLmXou6hsxEBQB1zUB8XzWTrk3agqxBZsZs37d3jxqvLfRKnHGS" ] },
      { "delegate": "tz1S8e9GgdZG78XJRB3NqabfWeM37GnhZMWQ",
        "reception_time": "2022-01-17T16:45:06.423-00:00",
        "errors":
          [ { "kind": "temporary",
              "id": "proto.011-PtHangz2.prefilter.outdated_endorsement" } ],
        "included_in_blocks":
          [ "BLmXou6hsxEBQB1zUB8XzWTrk3agqxBZsZs37d3jxqvLfRKnHGS" ] },
      { "delegate": "tz3e7LbZvUtoXhpUD1yb6wuFodZpfYRb9nWJ",
        "reception_time": "2022-01-17T16:45:19.463-00:00",
        "included_in_blocks":
          [ "BLmXou6hsxEBQB1zUB8XzWTrk3agqxBZsZs37d3jxqvLfRKnHGS" ] },
      { "delegate": "tz1Z1WwoqgRFbLE3YNdYRpCx44NSfiMJzeAG",
        "reception_time": "2022-01-17T16:45:18.903-00:00",
        "included_in_blocks":
          [ "BLmXou6hsxEBQB1zUB8XzWTrk3agqxBZsZs37d3jxqvLfRKnHGS" ] },
      { "delegate": "tz1g8vkmcde6sWKaG2NN9WKzCkDM6Rziq194",
        "reception_time": "2022-01-17T16:45:13.442-00:00",
        "included_in_blocks":
          [ "BLmXou6hsxEBQB1zUB8XzWTrk3agqxBZsZs37d3jxqvLfRKnHGS" ] },
      { "delegate": "tz1QccGQsmt7WMnbVX9inJQgEuQGeMXddfjp",
        "reception_time": "2022-01-17T16:45:13.599-00:00",
        "included_in_blocks":
          [ "BLmXou6hsxEBQB1zUB8XzWTrk3agqxBZsZs37d3jxqvLfRKnHGS" ] },
      { "delegate": "tz1PFeoTuFen8jAMRHajBySNyCwLmY5RqF9M",
        "reception_time": "2022-01-17T16:45:12.113-00:00",
        "included_in_blocks":
          [ "BLmXou6hsxEBQB1zUB8XzWTrk3agqxBZsZs37d3jxqvLfRKnHGS" ] },
      { "delegate": "tz1LAJKyGRCheNiLAQQmJ8dXnoKbKgLzxNFp",
        "reception_time": "2022-01-17T16:45:11.419-00:00",
        "included_in_blocks":
          [ "BLmXou6hsxEBQB1zUB8XzWTrk3agqxBZsZs37d3jxqvLfRKnHGS" ] },
      { "delegate": "tz1dDsLch7Ww1s5mfD1tjBtKWwCdrjuHWanV",
        "reception_time": "2022-01-17T16:45:11.452-00:00",
        "included_in_blocks":
          [ "BLmXou6hsxEBQB1zUB8XzWTrk3agqxBZsZs37d3jxqvLfRKnHGS" ] },
      { "delegate": "tz3RDC3Jdn4j15J7bBHZd29EUee9gVB1CxD9",
        "reception_time": "2022-01-17T16:45:11.545-00:00",
        "included_in_blocks":
          [ "BLmXou6hsxEBQB1zUB8XzWTrk3agqxBZsZs37d3jxqvLfRKnHGS" ] },
      { "delegate": "tz1aRoaRhSpRYvFdyvgWLL6TGyRoGF51wDjM",
        "reception_time": "2022-01-17T16:45:11.495-00:00",
        "included_in_blocks":
          [ "BLmXou6hsxEBQB1zUB8XzWTrk3agqxBZsZs37d3jxqvLfRKnHGS" ] },
      { "delegate": "tz1PeZx7FXy7QRuMREGXGxeipb24RsMMzUNe",
        "reception_time": "2022-01-17T16:45:11.335-00:00",
        "included_in_blocks":
          [ "BLmXou6hsxEBQB1zUB8XzWTrk3agqxBZsZs37d3jxqvLfRKnHGS" ] },
      { "delegate": "tz3NExpXn9aPNZPorRE4SdjJ2RGrfbJgMAaV",
        "reception_time": "2022-01-17T16:45:11.509-00:00",
        "included_in_blocks":
          [ "BLmXou6hsxEBQB1zUB8XzWTrk3agqxBZsZs37d3jxqvLfRKnHGS" ] },
      { "delegate": "tz1TRqbYbUf2GyrjErf3hBzgBJPzW8y36qEs",
        "reception_time": "2022-01-17T16:45:11.867-00:00",
        "included_in_blocks":
          [ "BLmXou6hsxEBQB1zUB8XzWTrk3agqxBZsZs37d3jxqvLfRKnHGS" ] },
      { "delegate": "tz1Xsrfv6hn86fp88YfRs6xcKwt2nTqxVZYM",
        "reception_time": "2022-01-17T16:45:11.311-00:00",
        "included_in_blocks":
          [ "BLmXou6hsxEBQB1zUB8XzWTrk3agqxBZsZs37d3jxqvLfRKnHGS" ] },
      { "delegate": "tz1ZcTRk5uxD86EFEn1vvNffWWqJy7q5eVhc",
        "reception_time": "2022-01-17T16:45:11.427-00:00",
        "included_in_blocks":
          [ "BLmXou6hsxEBQB1zUB8XzWTrk3agqxBZsZs37d3jxqvLfRKnHGS" ] },
      { "delegate": "tz3VEZ4k6a4Wx42iyev6i2aVAptTRLEAivNN",
        "reception_time": "2022-01-17T16:45:10.871-00:00",
        "included_in_blocks":
          [ "BLmXou6hsxEBQB1zUB8XzWTrk3agqxBZsZs37d3jxqvLfRKnHGS" ] },
      { "delegate": "tz1UvkANVPWppVgMkLnvN7BwYZsCP7vm6NVd",
        "reception_time": "2022-01-17T16:45:10.815-00:00",
        "included_in_blocks":
          [ "BLmXou6hsxEBQB1zUB8XzWTrk3agqxBZsZs37d3jxqvLfRKnHGS" ] },
      { "delegate": "tz1MQJPGNMijnXnVoBENFz9rUhaPt3S7rWoz",
        "reception_time": "2022-01-17T16:45:11.389-00:00",
        "included_in_blocks":
          [ "BLmXou6hsxEBQB1zUB8XzWTrk3agqxBZsZs37d3jxqvLfRKnHGS" ] },
      { "delegate": "tz1Vd1rXpV8hTHbFXCXN3c3qzCsgcU5BZw1e",
        "reception_time": "2022-01-17T16:45:10.400-00:00",
        "included_in_blocks":
          [ "BLmXou6hsxEBQB1zUB8XzWTrk3agqxBZsZs37d3jxqvLfRKnHGS" ] },
      { "delegate": "tz1Zdk8q7wNasmv7VFeQ6QFwcw5fP2c7StoF",
        "reception_time": "2022-01-17T16:45:10.698-00:00",
        "included_in_blocks":
          [ "BLmXou6hsxEBQB1zUB8XzWTrk3agqxBZsZs37d3jxqvLfRKnHGS" ] },
      { "delegate": "tz1Nf6tsK4G6bBqgSQERy4nUtkHNKUVdh7q1",
        "reception_time": "2022-01-17T16:45:10.145-00:00",
        "included_in_blocks":
          [ "BLmXou6hsxEBQB1zUB8XzWTrk3agqxBZsZs37d3jxqvLfRKnHGS" ] },
      { "delegate": "tz1NSDFKuRyzHxpfG1AMkyCwEiZ52cbR2mRW",
        "reception_time": "2022-01-17T16:45:10.629-00:00",
        "included_in_blocks":
          [ "BLmXou6hsxEBQB1zUB8XzWTrk3agqxBZsZs37d3jxqvLfRKnHGS" ] },
      { "delegate": "tz3RB4aoyjov4KEVRbuhvQ1CKJgBJMWhaeB8",
        "reception_time": "2022-01-17T16:45:10.463-00:00",
        "included_in_blocks":
          [ "BLmXou6hsxEBQB1zUB8XzWTrk3agqxBZsZs37d3jxqvLfRKnHGS" ] },
      { "delegate": "tz3NDpRj6WBrJPikcPVHRBEjWKxFw3c6eQPS",
        "reception_time": "2022-01-17T16:45:10.400-00:00",
        "included_in_blocks":
          [ "BLmXou6hsxEBQB1zUB8XzWTrk3agqxBZsZs37d3jxqvLfRKnHGS" ] },
      { "delegate": "tz1h4GUAMweP7SNWzDgvMk3yRCAZyaP1MxZq",
        "reception_time": "2022-01-17T16:45:09.717-00:00",
        "included_in_blocks":
          [ "BLmXou6hsxEBQB1zUB8XzWTrk3agqxBZsZs37d3jxqvLfRKnHGS" ] },
      { "delegate": "tz3UoffC7FG7zfpmvmjUmUeAaHvzdcUvAj6r",
        "reception_time": "2022-01-17T16:45:10.452-00:00",
        "included_in_blocks":
          [ "BLmXou6hsxEBQB1zUB8XzWTrk3agqxBZsZs37d3jxqvLfRKnHGS" ] },
      { "delegate": "tz1NEKxGEHsFufk87CVZcrqWu8o22qh46GK6",
        "reception_time": "2022-01-17T16:45:10.263-00:00",
        "included_in_blocks":
          [ "BLmXou6hsxEBQB1zUB8XzWTrk3agqxBZsZs37d3jxqvLfRKnHGS" ] },
      { "delegate": "tz1dRKU4FQ9QRRQPdaH4zCR6gmCmXfcvcgtB",
        "reception_time": "2022-01-17T16:45:10.804-00:00",
        "included_in_blocks":
          [ "BLmXou6hsxEBQB1zUB8XzWTrk3agqxBZsZs37d3jxqvLfRKnHGS" ] },
      { "delegate": "tz1cig1EHyvZd7J2k389moM9PxVgPQvmFkvi",
        "reception_time": "2022-01-17T16:45:10.110-00:00",
        "included_in_blocks":
          [ "BLmXou6hsxEBQB1zUB8XzWTrk3agqxBZsZs37d3jxqvLfRKnHGS" ] },
      { "delegate": "tz1a1J3AGjJTAyBqWWSqFuUazUDV2TtD6hMy",
        "reception_time": "2022-01-17T16:45:10.129-00:00",
        "included_in_blocks":
          [ "BLmXou6hsxEBQB1zUB8XzWTrk3agqxBZsZs37d3jxqvLfRKnHGS" ] },
      { "delegate": "tz1LmaFsWRkjr7QMCx5PtV6xTUz3AmEpKQiF",
        "reception_time": "2022-01-17T16:45:10.456-00:00",
        "included_in_blocks":
          [ "BLmXou6hsxEBQB1zUB8XzWTrk3agqxBZsZs37d3jxqvLfRKnHGS" ] },
      { "delegate": "tz1S8MNvuFEUsWgjHvi3AxibRBf388NhT1q2",
        "reception_time": "2022-01-17T16:45:10.004-00:00",
        "included_in_blocks":
          [ "BLmXou6hsxEBQB1zUB8XzWTrk3agqxBZsZs37d3jxqvLfRKnHGS" ] },
      { "delegate": "tz1abmz7jiCV2GH2u81LRrGgAFFgvQgiDiaf",
        "reception_time": "2022-01-17T16:45:10.190-00:00",
        "included_in_blocks":
          [ "BLmXou6hsxEBQB1zUB8XzWTrk3agqxBZsZs37d3jxqvLfRKnHGS" ] },
      { "delegate": "tz3S6BBeKgJGXxvLyZ1xzXzMPn11nnFtq5L9",
        "reception_time": "2022-01-17T16:45:09.246-00:00",
        "included_in_blocks":
          [ "BLmXou6hsxEBQB1zUB8XzWTrk3agqxBZsZs37d3jxqvLfRKnHGS" ] },
      { "delegate": "tz3WMqdzXqRWXwyvj5Hp2H7QEepaUuS7vd9K",
        "reception_time": "2022-01-17T16:45:10.291-00:00",
        "included_in_blocks":
          [ "BLmXou6hsxEBQB1zUB8XzWTrk3agqxBZsZs37d3jxqvLfRKnHGS" ] },
      { "delegate": "tz2FCNBrERXtaTtNX6iimR1UJ5JSDxvdHM93",
        "reception_time": "2022-01-17T16:45:09.774-00:00",
        "included_in_blocks":
          [ "BLmXou6hsxEBQB1zUB8XzWTrk3agqxBZsZs37d3jxqvLfRKnHGS" ] },
      { "delegate": "tz3bvNMQ95vfAYtG8193ymshqjSvmxiCUuR5",
        "reception_time": "2022-01-17T16:45:09.324-00:00",
        "included_in_blocks":
          [ "BLmXou6hsxEBQB1zUB8XzWTrk3agqxBZsZs37d3jxqvLfRKnHGS" ] },
      { "delegate": "tz1RCFbB9GpALpsZtu6J58sb74dm8qe6XBzv",
        "reception_time": "2022-01-17T16:45:09.744-00:00",
        "included_in_blocks":
          [ "BLmXou6hsxEBQB1zUB8XzWTrk3agqxBZsZs37d3jxqvLfRKnHGS" ] },
      { "delegate": "tz1Tnjaxk6tbAeC2TmMApPh8UsrEVQvhHvx5",
        "reception_time": "2022-01-17T16:45:09.920-00:00",
        "included_in_blocks":
          [ "BLmXou6hsxEBQB1zUB8XzWTrk3agqxBZsZs37d3jxqvLfRKnHGS" ] },
      { "delegate": "tz1gfArv665EUkSg2ojMBzcbfwuPxAvqPvjo",
        "reception_time": "2022-01-17T16:45:09.683-00:00",
        "included_in_blocks":
          [ "BLmXou6hsxEBQB1zUB8XzWTrk3agqxBZsZs37d3jxqvLfRKnHGS" ] },
      { "delegate": "tz3Zhs2dygr55yHyQyKjntAtY9bgfhLZ4Xj1",
        "reception_time": "2022-01-17T16:45:09.131-00:00",
        "included_in_blocks":
          [ "BLmXou6hsxEBQB1zUB8XzWTrk3agqxBZsZs37d3jxqvLfRKnHGS" ] },
      { "delegate": "tz3bTdwZinP8U1JmSweNzVKhmwafqWmFWRfk",
        "reception_time": "2022-01-17T16:45:09.181-00:00",
        "included_in_blocks":
          [ "BLmXou6hsxEBQB1zUB8XzWTrk3agqxBZsZs37d3jxqvLfRKnHGS" ] },
      { "delegate": "tz3iJu5vrKZcsqRPs8yJ61UDoeEXZmtro4qh",
        "reception_time": "2022-01-17T16:45:09.158-00:00",
        "included_in_blocks":
          [ "BLmXou6hsxEBQB1zUB8XzWTrk3agqxBZsZs37d3jxqvLfRKnHGS" ] },
      { "delegate": "tz3QSGPoRp3Kn7n3vY24eYeu3Peuqo45LQ4D",
        "reception_time": "2022-01-17T16:45:09.017-00:00",
        "included_in_blocks":
          [ "BLmXou6hsxEBQB1zUB8XzWTrk3agqxBZsZs37d3jxqvLfRKnHGS" ] },
      { "delegate": "tz3gtoUxdudfBRcNY7iVdKPHCYYX6xdPpoRS",
        "reception_time": "2022-01-17T16:45:09.123-00:00",
        "included_in_blocks":
          [ "BLmXou6hsxEBQB1zUB8XzWTrk3agqxBZsZs37d3jxqvLfRKnHGS" ] },
      { "delegate": "tz1KfEsrtDaA1sX7vdM4qmEPWuSytuqCDp5j",
        "reception_time": "2022-01-17T16:45:09.622-00:00",
        "included_in_blocks":
          [ "BLmXou6hsxEBQB1zUB8XzWTrk3agqxBZsZs37d3jxqvLfRKnHGS" ] },
      { "delegate": "tz3RKYFsLuQzKBtmYuLNas7uMu3AsYd4QdsA",
        "reception_time": "2022-01-17T16:45:08.966-00:00",
        "included_in_blocks":
          [ "BLmXou6hsxEBQB1zUB8XzWTrk3agqxBZsZs37d3jxqvLfRKnHGS" ] },
      { "delegate": "tz1WCd2jm4uSt4vntk4vSuUWoZQGhLcDuR9q",
        "reception_time": "2022-01-17T16:45:08.801-00:00",
        "included_in_blocks":
          [ "BLmXou6hsxEBQB1zUB8XzWTrk3agqxBZsZs37d3jxqvLfRKnHGS" ] },
      { "delegate": "tz1ei4WtWEMEJekSv8qDnu9PExG6Q8HgRGr3",
        "reception_time": "2022-01-17T16:45:09.265-00:00",
        "included_in_blocks":
          [ "BLmXou6hsxEBQB1zUB8XzWTrk3agqxBZsZs37d3jxqvLfRKnHGS" ] },
      { "delegate": "tz1MQMiZHV8q4tTwUMWmS5Y3kaP6J2136iXr",
        "reception_time": "2022-01-17T16:45:08.498-00:00",
        "included_in_blocks":
          [ "BLmXou6hsxEBQB1zUB8XzWTrk3agqxBZsZs37d3jxqvLfRKnHGS" ] },
      { "delegate": "tz3hw2kqXhLUvY65ca1eety2oQTpAvd34R9Q",
        "reception_time": "2022-01-17T16:45:08.966-00:00",
        "included_in_blocks":
          [ "BLmXou6hsxEBQB1zUB8XzWTrk3agqxBZsZs37d3jxqvLfRKnHGS" ] },
      { "delegate": "tz1Ldzz6k1BHdhuKvAtMRX7h5kJSMHESMHLC",
        "reception_time": "2022-01-17T16:45:08.334-00:00",
        "included_in_blocks":
          [ "BLmXou6hsxEBQB1zUB8XzWTrk3agqxBZsZs37d3jxqvLfRKnHGS" ] },
      { "delegate": "tz1eEnQhbwf6trb8Q8mPb2RaPkNk2rN7BKi8",
        "reception_time": "2022-01-17T16:45:08.350-00:00",
        "included_in_blocks":
          [ "BLmXou6hsxEBQB1zUB8XzWTrk3agqxBZsZs37d3jxqvLfRKnHGS" ] },
      { "delegate": "tz3ZbP2pM3nwvXztbuMJwJnDvV5xdpU8UkkD",
        "reception_time": "2022-01-17T16:45:08.871-00:00",
        "included_in_blocks":
          [ "BLmXou6hsxEBQB1zUB8XzWTrk3agqxBZsZs37d3jxqvLfRKnHGS" ] },
      { "delegate": "tz3adcvQaKXTCg12zbninqo3q8ptKKtDFTLv",
        "reception_time": "2022-01-17T16:45:08.427-00:00",
        "included_in_blocks":
          [ "BLmXou6hsxEBQB1zUB8XzWTrk3agqxBZsZs37d3jxqvLfRKnHGS" ] },
      { "delegate": "tz1irJKkXS2DBWkU1NnmFQx1c1L7pbGg4yhk",
        "reception_time": "2022-01-17T16:45:08.315-00:00",
        "included_in_blocks":
          [ "BLmXou6hsxEBQB1zUB8XzWTrk3agqxBZsZs37d3jxqvLfRKnHGS" ] },
      { "delegate": "tz1STeamwbp68THcny9zk3LsbG3H36DMvbRK",
        "reception_time": "2022-01-17T16:45:08.323-00:00",
        "included_in_blocks":
          [ "BLmXou6hsxEBQB1zUB8XzWTrk3agqxBZsZs37d3jxqvLfRKnHGS" ] },
      { "delegate": "tz1dbfppLAAxXZNtf2SDps7rch3qfUznKSoK",
        "reception_time": "2022-01-17T16:45:08.326-00:00",
        "included_in_blocks":
          [ "BLmXou6hsxEBQB1zUB8XzWTrk3agqxBZsZs37d3jxqvLfRKnHGS" ] },
      { "delegate": "tz1VQnqCCqX4K5sP3FNkVSNKTdCAMJDd3E1n",
        "reception_time": "2022-01-17T16:45:08.320-00:00",
        "included_in_blocks":
          [ "BLmXou6hsxEBQB1zUB8XzWTrk3agqxBZsZs37d3jxqvLfRKnHGS" ] },
      { "delegate": "tz1bsdrs36X5BTH83RHUBdUouKLJZK8d2oBa",
        "reception_time": "2022-01-17T16:45:08.353-00:00",
        "included_in_blocks":
          [ "BLmXou6hsxEBQB1zUB8XzWTrk3agqxBZsZs37d3jxqvLfRKnHGS" ] },
      { "delegate": "tz1MJx9vhaNRSimcuXPK2rW4fLccQnDAnVKJ",
        "reception_time": "2022-01-17T16:45:08.503-00:00",
        "included_in_blocks":
          [ "BLmXou6hsxEBQB1zUB8XzWTrk3agqxBZsZs37d3jxqvLfRKnHGS" ] },
      { "delegate": "tz1gUNyn3hmnEWqkusWPzxRaon1cs7ndWh7h",
        "reception_time": "2022-01-17T16:45:08.315-00:00",
        "included_in_blocks":
          [ "BLmXou6hsxEBQB1zUB8XzWTrk3agqxBZsZs37d3jxqvLfRKnHGS" ] },
      { "delegate": "tz3NxTnke1acr8o3h5y9ytf5awQBGNJUKzVU",
        "reception_time": "2022-01-17T16:45:08.862-00:00",
        "included_in_blocks":
          [ "BLmXou6hsxEBQB1zUB8XzWTrk3agqxBZsZs37d3jxqvLfRKnHGS" ] },
      { "delegate": "tz1Kf25fX1VdmYGSEzwFy1wNmkbSEZ2V83sY",
        "reception_time": "2022-01-17T16:45:08.523-00:00",
        "included_in_blocks":
          [ "BLmXou6hsxEBQB1zUB8XzWTrk3agqxBZsZs37d3jxqvLfRKnHGS" ] },
      { "delegate": "tz1aXD7Jigrt3PBYSpHSg5Rr33SexMmmM5Ys",
        "reception_time": "2022-01-17T16:45:08.336-00:00",
        "included_in_blocks":
          [ "BLmXou6hsxEBQB1zUB8XzWTrk3agqxBZsZs37d3jxqvLfRKnHGS" ] } ] }