{ "blocks":
    [ { "hash": "BLxWRavhtcLeDfMEacYpMVyAfgCaqq7yPKFRjNi6Cqpf2sPjWE1",
        "delegate": "tz3Zhs2dygr55yHyQyKjntAtY9bgfhLZ4Xj1",
        "reception_time": "2022-01-18T00:15:25.701-00:00",
        "timestamp": "2022-01-18T00:15:20Z" } ],
  "endorsements":
    [ { "delegate": "tz1P2Po7YM526ughEsRbY4oR9zaUPDZjxFrb",
        "reception_time": "2022-01-18T00:15:25.631-00:00",
        "errors":
          [ { "kind": "temporary",
              "id": "proto.011-PtHangz2.prefilter.outdated_endorsement" } ],
        "included_in_blocks":
          [ "BMKx1W32oijVaZjLpUYS9qmnSgnGQx4jxX2Ei4eBnpxgxfQ5G1o" ] },
      { "delegate": "tz1S8e9GgdZG78XJRB3NqabfWeM37GnhZMWQ",
        "reception_time": "2022-01-18T00:15:25.399-00:00",
        "errors":
          [ { "kind": "temporary",
              "id": "proto.011-PtHangz2.prefilter.outdated_endorsement" } ],
        "included_in_blocks":
          [ "BMKx1W32oijVaZjLpUYS9qmnSgnGQx4jxX2Ei4eBnpxgxfQ5G1o" ] },
      { "delegate": "tz1eEnQhbwf6trb8Q8mPb2RaPkNk2rN7BKi8",
        "reception_time": "2022-01-18T00:15:26.674-00:00",
        "included_in_blocks":
          [ "BMKx1W32oijVaZjLpUYS9qmnSgnGQx4jxX2Ei4eBnpxgxfQ5G1o" ] },
      { "delegate": "tz1Scdr2HsZiQjc7bHMeBbmDRXYVvdhjJbBh",
        "reception_time": "2022-01-18T00:15:26.677-00:00",
        "included_in_blocks":
          [ "BMKx1W32oijVaZjLpUYS9qmnSgnGQx4jxX2Ei4eBnpxgxfQ5G1o" ] },
      { "delegate": "tz3Zhs2dygr55yHyQyKjntAtY9bgfhLZ4Xj1",
        "reception_time": "2022-01-18T00:15:26.689-00:00",
        "included_in_blocks":
          [ "BMKx1W32oijVaZjLpUYS9qmnSgnGQx4jxX2Ei4eBnpxgxfQ5G1o" ] },
      { "delegate": "tz3iJu5vrKZcsqRPs8yJ61UDoeEXZmtro4qh",
        "reception_time": "2022-01-18T00:15:26.697-00:00",
        "included_in_blocks":
          [ "BMKx1W32oijVaZjLpUYS9qmnSgnGQx4jxX2Ei4eBnpxgxfQ5G1o" ] },
      { "delegate": "tz1TXzyaKUA8wsWefdSnyaYFnV2M3vCV7er9",
        "reception_time": "2022-01-18T00:15:26.700-00:00",
        "included_in_blocks":
          [ "BMKx1W32oijVaZjLpUYS9qmnSgnGQx4jxX2Ei4eBnpxgxfQ5G1o" ] },
      { "delegate": "tz3ZbP2pM3nwvXztbuMJwJnDvV5xdpU8UkkD",
        "reception_time": "2022-01-18T00:15:26.709-00:00",
        "included_in_blocks":
          [ "BMKx1W32oijVaZjLpUYS9qmnSgnGQx4jxX2Ei4eBnpxgxfQ5G1o" ] },
      { "delegate": "tz1d9ek6HrScY6QRZ71NJdB85MNz8gKGBjrv",
        "reception_time": "2022-01-18T00:15:26.712-00:00",
        "included_in_blocks":
          [ "BMKx1W32oijVaZjLpUYS9qmnSgnGQx4jxX2Ei4eBnpxgxfQ5G1o" ] },
      { "delegate": "tz1ZPh7XfUaJXUDvkrBxmS1BjEM1i62hiPpM",
        "reception_time": "2022-01-18T00:15:26.716-00:00",
        "included_in_blocks":
          [ "BMKx1W32oijVaZjLpUYS9qmnSgnGQx4jxX2Ei4eBnpxgxfQ5G1o" ] },
      { "delegate": "tz1MJx9vhaNRSimcuXPK2rW4fLccQnDAnVKJ",
        "reception_time": "2022-01-18T00:15:26.719-00:00",
        "included_in_blocks":
          [ "BMKx1W32oijVaZjLpUYS9qmnSgnGQx4jxX2Ei4eBnpxgxfQ5G1o" ] },
      { "delegate": "tz3QSGPoRp3Kn7n3vY24eYeu3Peuqo45LQ4D",
        "reception_time": "2022-01-18T00:15:26.728-00:00",
        "included_in_blocks":
          [ "BMKx1W32oijVaZjLpUYS9qmnSgnGQx4jxX2Ei4eBnpxgxfQ5G1o" ] },
      { "delegate": "tz3gtoUxdudfBRcNY7iVdKPHCYYX6xdPpoRS",
        "reception_time": "2022-01-18T00:15:26.735-00:00",
        "included_in_blocks":
          [ "BMKx1W32oijVaZjLpUYS9qmnSgnGQx4jxX2Ei4eBnpxgxfQ5G1o" ] },
      { "delegate": "tz1Kt4P8BCaP93AEV4eA7gmpRryWt5hznjCP",
        "reception_time": "2022-01-18T00:15:26.743-00:00",
        "included_in_blocks":
          [ "BMKx1W32oijVaZjLpUYS9qmnSgnGQx4jxX2Ei4eBnpxgxfQ5G1o" ] },
      { "delegate": "tz3S6BBeKgJGXxvLyZ1xzXzMPn11nnFtq5L9",
        "reception_time": "2022-01-18T00:15:26.799-00:00",
        "included_in_blocks":
          [ "BMKx1W32oijVaZjLpUYS9qmnSgnGQx4jxX2Ei4eBnpxgxfQ5G1o" ] },
      { "delegate": "tz3QT9dHYKDqh563chVa6za8526ys1UKfRfL",
        "reception_time": "2022-01-18T00:15:26.808-00:00",
        "included_in_blocks":
          [ "BMKx1W32oijVaZjLpUYS9qmnSgnGQx4jxX2Ei4eBnpxgxfQ5G1o" ] },
      { "delegate": "tz1VmiY38m3y95HqQLjMwqnMS7sdMfGomzKi",
        "reception_time": "2022-01-18T00:15:26.817-00:00",
        "included_in_blocks":
          [ "BMKx1W32oijVaZjLpUYS9qmnSgnGQx4jxX2Ei4eBnpxgxfQ5G1o" ] },
      { "delegate": "tz1irJKkXS2DBWkU1NnmFQx1c1L7pbGg4yhk",
        "reception_time": "2022-01-18T00:15:26.848-00:00",
        "included_in_blocks":
          [ "BMKx1W32oijVaZjLpUYS9qmnSgnGQx4jxX2Ei4eBnpxgxfQ5G1o" ] },
      { "delegate": "tz1WCd2jm4uSt4vntk4vSuUWoZQGhLcDuR9q",
        "reception_time": "2022-01-18T00:15:26.863-00:00",
        "included_in_blocks":
          [ "BMKx1W32oijVaZjLpUYS9qmnSgnGQx4jxX2Ei4eBnpxgxfQ5G1o" ] },
      { "delegate": "tz1a51WYsAsoh4fs4A4x5aCN6Za26mpfDfTi",
        "reception_time": "2022-01-18T00:15:26.865-00:00",
        "included_in_blocks":
          [ "BMKx1W32oijVaZjLpUYS9qmnSgnGQx4jxX2Ei4eBnpxgxfQ5G1o" ] },
      { "delegate": "tz1TRspM5SeZpaQUhzByXbEvqKF1vnCM2YTK",
        "reception_time": "2022-01-18T00:15:26.873-00:00",
        "included_in_blocks":
          [ "BMKx1W32oijVaZjLpUYS9qmnSgnGQx4jxX2Ei4eBnpxgxfQ5G1o" ] },
      { "delegate": "tz1NMdMmWZN8QPB8pY4ddncACDg1cHi1xD2e",
        "reception_time": "2022-01-18T00:15:26.878-00:00",
        "included_in_blocks":
          [ "BMKx1W32oijVaZjLpUYS9qmnSgnGQx4jxX2Ei4eBnpxgxfQ5G1o" ] },
      { "delegate": "tz1Ldzz6k1BHdhuKvAtMRX7h5kJSMHESMHLC",
        "reception_time": "2022-01-18T00:15:26.952-00:00",
        "included_in_blocks":
          [ "BMKx1W32oijVaZjLpUYS9qmnSgnGQx4jxX2Ei4eBnpxgxfQ5G1o" ] },
      { "delegate": "tz3QCNyySViKHmeSr45kzDxzchys7NiXCWoa",
        "reception_time": "2022-01-18T00:15:26.991-00:00",
        "included_in_blocks":
          [ "BMKx1W32oijVaZjLpUYS9qmnSgnGQx4jxX2Ei4eBnpxgxfQ5G1o" ] },
      { "delegate": "tz1PWCDnz783NNGGQjEFFsHtrcK5yBW4E2rm",
        "reception_time": "2022-01-18T00:15:27.331-00:00",
        "included_in_blocks":
          [ "BMKx1W32oijVaZjLpUYS9qmnSgnGQx4jxX2Ei4eBnpxgxfQ5G1o" ] },
      { "delegate": "tz1MQMiZHV8q4tTwUMWmS5Y3kaP6J2136iXr",
        "reception_time": "2022-01-18T00:15:27.347-00:00",
        "included_in_blocks":
          [ "BMKx1W32oijVaZjLpUYS9qmnSgnGQx4jxX2Ei4eBnpxgxfQ5G1o" ] },
      { "delegate": "tz1VQnqCCqX4K5sP3FNkVSNKTdCAMJDd3E1n",
        "reception_time": "2022-01-18T00:15:27.412-00:00",
        "included_in_blocks":
          [ "BMKx1W32oijVaZjLpUYS9qmnSgnGQx4jxX2Ei4eBnpxgxfQ5G1o" ] },
      { "delegate": "tz1gUNyn3hmnEWqkusWPzxRaon1cs7ndWh7h",
        "reception_time": "2022-01-18T00:15:27.421-00:00",
        "included_in_blocks":
          [ "BMKx1W32oijVaZjLpUYS9qmnSgnGQx4jxX2Ei4eBnpxgxfQ5G1o" ] },
      { "delegate": "tz1RCFbB9GpALpsZtu6J58sb74dm8qe6XBzv",
        "reception_time": "2022-01-18T00:15:27.472-00:00",
        "included_in_blocks":
          [ "BMKx1W32oijVaZjLpUYS9qmnSgnGQx4jxX2Ei4eBnpxgxfQ5G1o" ] },
      { "delegate": "tz3adcvQaKXTCg12zbninqo3q8ptKKtDFTLv",
        "reception_time": "2022-01-18T00:15:27.500-00:00",
        "included_in_blocks":
          [ "BMKx1W32oijVaZjLpUYS9qmnSgnGQx4jxX2Ei4eBnpxgxfQ5G1o" ] },
      { "delegate": "tz1MGTFJXpQmtxLi8QJ7AuVRgM2L2Qfn9w9i",
        "reception_time": "2022-01-18T00:15:27.515-00:00",
        "included_in_blocks":
          [ "BMKx1W32oijVaZjLpUYS9qmnSgnGQx4jxX2Ei4eBnpxgxfQ5G1o" ] },
      { "delegate": "tz1gfArv665EUkSg2ojMBzcbfwuPxAvqPvjo",
        "reception_time": "2022-01-18T00:15:27.515-00:00",
        "included_in_blocks":
          [ "BMKx1W32oijVaZjLpUYS9qmnSgnGQx4jxX2Ei4eBnpxgxfQ5G1o" ] },
      { "delegate": "tz1fPKAtsYydh4f1wfWNfeNxWYu72TmM48fu",
        "reception_time": "2022-01-18T00:15:27.517-00:00",
        "included_in_blocks":
          [ "BMKx1W32oijVaZjLpUYS9qmnSgnGQx4jxX2Ei4eBnpxgxfQ5G1o" ] },
      { "delegate": "tz1bZ8vsMAXmaWEV7FRnyhcuUs2fYMaQ6Hkk",
        "reception_time": "2022-01-18T00:15:27.522-00:00",
        "included_in_blocks":
          [ "BMKx1W32oijVaZjLpUYS9qmnSgnGQx4jxX2Ei4eBnpxgxfQ5G1o" ] },
      { "delegate": "tz3bTdwZinP8U1JmSweNzVKhmwafqWmFWRfk",
        "reception_time": "2022-01-18T00:15:27.541-00:00",
        "included_in_blocks":
          [ "BMKx1W32oijVaZjLpUYS9qmnSgnGQx4jxX2Ei4eBnpxgxfQ5G1o" ] },
      { "delegate": "tz1ei4WtWEMEJekSv8qDnu9PExG6Q8HgRGr3",
        "reception_time": "2022-01-18T00:15:27.546-00:00",
        "included_in_blocks":
          [ "BMKx1W32oijVaZjLpUYS9qmnSgnGQx4jxX2Ei4eBnpxgxfQ5G1o" ] },
      { "delegate": "tz1S8MNvuFEUsWgjHvi3AxibRBf388NhT1q2",
        "reception_time": "2022-01-18T00:15:27.619-00:00",
        "included_in_blocks":
          [ "BMKx1W32oijVaZjLpUYS9qmnSgnGQx4jxX2Ei4eBnpxgxfQ5G1o" ] },
      { "delegate": "tz1Nf6tsK4G6bBqgSQERy4nUtkHNKUVdh7q1",
        "reception_time": "2022-01-18T00:15:27.701-00:00",
        "included_in_blocks":
          [ "BMKx1W32oijVaZjLpUYS9qmnSgnGQx4jxX2Ei4eBnpxgxfQ5G1o" ] },
      { "delegate": "tz1g8vkmcde6sWKaG2NN9WKzCkDM6Rziq194",
        "reception_time": "2022-01-18T00:15:27.714-00:00",
        "included_in_blocks":
          [ "BMKx1W32oijVaZjLpUYS9qmnSgnGQx4jxX2Ei4eBnpxgxfQ5G1o" ] },
      { "delegate": "tz2FCNBrERXtaTtNX6iimR1UJ5JSDxvdHM93",
        "reception_time": "2022-01-18T00:15:27.778-00:00",
        "included_in_blocks":
          [ "BMKx1W32oijVaZjLpUYS9qmnSgnGQx4jxX2Ei4eBnpxgxfQ5G1o" ] },
      { "delegate": "tz1V4qCyvPKZ5UeqdH14HN42rxvNPQfc9UZg",
        "reception_time": "2022-01-18T00:15:27.781-00:00",
        "included_in_blocks":
          [ "BMKx1W32oijVaZjLpUYS9qmnSgnGQx4jxX2Ei4eBnpxgxfQ5G1o" ] },
      { "delegate": "tz3UoffC7FG7zfpmvmjUmUeAaHvzdcUvAj6r",
        "reception_time": "2022-01-18T00:15:27.850-00:00",
        "included_in_blocks":
          [ "BMKx1W32oijVaZjLpUYS9qmnSgnGQx4jxX2Ei4eBnpxgxfQ5G1o" ] },
      { "delegate": "tz3NDpRj6WBrJPikcPVHRBEjWKxFw3c6eQPS",
        "reception_time": "2022-01-18T00:15:27.857-00:00",
        "included_in_blocks":
          [ "BMKx1W32oijVaZjLpUYS9qmnSgnGQx4jxX2Ei4eBnpxgxfQ5G1o" ] },
      { "delegate": "tz1fZ767VDbqx4DeKiFswPSHh513f51mKEUZ",
        "reception_time": "2022-01-18T00:15:27.892-00:00",
        "included_in_blocks":
          [ "BMKx1W32oijVaZjLpUYS9qmnSgnGQx4jxX2Ei4eBnpxgxfQ5G1o" ] },
      { "delegate": "tz1TEc75UKXv4W5cwi14Na3NtqFD51yKQi7h",
        "reception_time": "2022-01-18T00:15:27.933-00:00",
        "included_in_blocks":
          [ "BMKx1W32oijVaZjLpUYS9qmnSgnGQx4jxX2Ei4eBnpxgxfQ5G1o" ] },
      { "delegate": "tz1dNVDWPf3Q59SdJqnjdnu277iyvReiRS9M",
        "reception_time": "2022-01-18T00:15:27.950-00:00",
        "included_in_blocks":
          [ "BMKx1W32oijVaZjLpUYS9qmnSgnGQx4jxX2Ei4eBnpxgxfQ5G1o" ] },
      { "delegate": "tz1MQJPGNMijnXnVoBENFz9rUhaPt3S7rWoz",
        "reception_time": "2022-01-18T00:15:27.973-00:00",
        "included_in_blocks":
          [ "BMKx1W32oijVaZjLpUYS9qmnSgnGQx4jxX2Ei4eBnpxgxfQ5G1o" ] },
      { "delegate": "tz1Tnjaxk6tbAeC2TmMApPh8UsrEVQvhHvx5",
        "reception_time": "2022-01-18T00:15:28.090-00:00",
        "included_in_blocks":
          [ "BMKx1W32oijVaZjLpUYS9qmnSgnGQx4jxX2Ei4eBnpxgxfQ5G1o" ] },
      { "delegate": "tz1KfEsrtDaA1sX7vdM4qmEPWuSytuqCDp5j",
        "reception_time": "2022-01-18T00:15:28.157-00:00",
        "included_in_blocks":
          [ "BMKx1W32oijVaZjLpUYS9qmnSgnGQx4jxX2Ei4eBnpxgxfQ5G1o" ] },
      { "delegate": "tz1TRqbYbUf2GyrjErf3hBzgBJPzW8y36qEs",
        "reception_time": "2022-01-18T00:15:28.225-00:00",
        "included_in_blocks":
          [ "BMKx1W32oijVaZjLpUYS9qmnSgnGQx4jxX2Ei4eBnpxgxfQ5G1o" ] },
      { "delegate": "tz3hw2kqXhLUvY65ca1eety2oQTpAvd34R9Q",
        "reception_time": "2022-01-18T00:15:28.271-00:00",
        "included_in_blocks":
          [ "BMKx1W32oijVaZjLpUYS9qmnSgnGQx4jxX2Ei4eBnpxgxfQ5G1o" ] },
      { "delegate": "tz3VEZ4k6a4Wx42iyev6i2aVAptTRLEAivNN",
        "reception_time": "2022-01-18T00:15:28.278-00:00",
        "included_in_blocks":
          [ "BMKx1W32oijVaZjLpUYS9qmnSgnGQx4jxX2Ei4eBnpxgxfQ5G1o" ] },
      { "delegate": "tz1SYq214SCBy9naR6cvycQsYcUGpBqQAE8d",
        "reception_time": "2022-01-18T00:15:28.374-00:00",
        "included_in_blocks":
          [ "BMKx1W32oijVaZjLpUYS9qmnSgnGQx4jxX2Ei4eBnpxgxfQ5G1o" ] },
      { "delegate": "tz1T7duV5gZWSTq4YpBGbXNLTfznCLDrFxvs",
        "reception_time": "2022-01-18T00:15:28.495-00:00",
        "included_in_blocks":
          [ "BMKx1W32oijVaZjLpUYS9qmnSgnGQx4jxX2Ei4eBnpxgxfQ5G1o" ] },
      { "delegate": "tz3bvNMQ95vfAYtG8193ymshqjSvmxiCUuR5",
        "reception_time": "2022-01-18T00:15:28.545-00:00",
        "included_in_blocks":
          [ "BMKx1W32oijVaZjLpUYS9qmnSgnGQx4jxX2Ei4eBnpxgxfQ5G1o" ] },
      { "delegate": "tz1NEKxGEHsFufk87CVZcrqWu8o22qh46GK6",
        "reception_time": "2022-01-18T00:15:28.545-00:00",
        "included_in_blocks":
          [ "BMKx1W32oijVaZjLpUYS9qmnSgnGQx4jxX2Ei4eBnpxgxfQ5G1o" ] },
      { "delegate": "tz3RDC3Jdn4j15J7bBHZd29EUee9gVB1CxD9",
        "reception_time": "2022-01-18T00:15:28.563-00:00",
        "included_in_blocks":
          [ "BMKx1W32oijVaZjLpUYS9qmnSgnGQx4jxX2Ei4eBnpxgxfQ5G1o" ] },
      { "delegate": "tz1cYufsxHXJcvANhvS55h3aY32a9BAFB494",
        "reception_time": "2022-01-18T00:15:28.649-00:00",
        "included_in_blocks":
          [ "BMKx1W32oijVaZjLpUYS9qmnSgnGQx4jxX2Ei4eBnpxgxfQ5G1o" ] },
      { "delegate": "tz3WMqdzXqRWXwyvj5Hp2H7QEepaUuS7vd9K",
        "reception_time": "2022-01-18T00:15:28.728-00:00",
        "included_in_blocks":
          [ "BMKx1W32oijVaZjLpUYS9qmnSgnGQx4jxX2Ei4eBnpxgxfQ5G1o" ] },
      { "delegate": "tz1aRoaRhSpRYvFdyvgWLL6TGyRoGF51wDjM",
        "reception_time": "2022-01-18T00:15:28.903-00:00",
        "included_in_blocks":
          [ "BMKx1W32oijVaZjLpUYS9qmnSgnGQx4jxX2Ei4eBnpxgxfQ5G1o" ] },
      { "delegate": "tz3RB4aoyjov4KEVRbuhvQ1CKJgBJMWhaeB8",
        "reception_time": "2022-01-18T00:15:28.920-00:00",
        "included_in_blocks":
          [ "BMKx1W32oijVaZjLpUYS9qmnSgnGQx4jxX2Ei4eBnpxgxfQ5G1o" ] },
      { "delegate": "tz1RjoHc98dBoqaH2jawF62XNKh7YsHwbkEv",
        "reception_time": "2022-01-18T00:15:28.973-00:00",
        "included_in_blocks":
          [ "BMKx1W32oijVaZjLpUYS9qmnSgnGQx4jxX2Ei4eBnpxgxfQ5G1o" ] },
      { "delegate": "tz1awXW7wuXy21c66vBudMXQVAPgRnqqwgTH",
        "reception_time": "2022-01-18T00:15:29.054-00:00",
        "included_in_blocks":
          [ "BMKx1W32oijVaZjLpUYS9qmnSgnGQx4jxX2Ei4eBnpxgxfQ5G1o" ] },
      { "delegate": "tz1dRKU4FQ9QRRQPdaH4zCR6gmCmXfcvcgtB",
        "reception_time": "2022-01-18T00:15:29.101-00:00",
        "included_in_blocks":
          [ "BMKx1W32oijVaZjLpUYS9qmnSgnGQx4jxX2Ei4eBnpxgxfQ5G1o" ] },
      { "delegate": "tz1fJHFn6sWEd3NnBPngACuw2dggTv6nQZ7g",
        "reception_time": "2022-01-18T00:15:29.233-00:00",
        "included_in_blocks":
          [ "BMKx1W32oijVaZjLpUYS9qmnSgnGQx4jxX2Ei4eBnpxgxfQ5G1o" ] },
      { "delegate": "tz3NExpXn9aPNZPorRE4SdjJ2RGrfbJgMAaV",
        "reception_time": "2022-01-18T00:15:29.641-00:00",
        "included_in_blocks":
          [ "BMKx1W32oijVaZjLpUYS9qmnSgnGQx4jxX2Ei4eBnpxgxfQ5G1o" ] },
      { "delegate": "tz1Wp9DASxBnuiZTXHTBACtQ69kp8YL4bzLz",
        "reception_time": "2022-01-18T00:15:29.656-00:00",
        "included_in_blocks":
          [ "BMKx1W32oijVaZjLpUYS9qmnSgnGQx4jxX2Ei4eBnpxgxfQ5G1o" ] },
      { "delegate": "tz1gg5bjopPcr9agjamyu9BbXKLibNc2rbAq",
        "reception_time": "2022-01-18T00:15:31.671-00:00",
        "included_in_blocks":
          [ "BMKx1W32oijVaZjLpUYS9qmnSgnGQx4jxX2Ei4eBnpxgxfQ5G1o" ] },
      { "delegate": "tz2BzJTyoQp8fNbfhWD4YQgH9JJHDgSGzpdG",
        "reception_time": "2022-01-18T00:15:37.946-00:00",
        "included_in_blocks":
          [ "BMKx1W32oijVaZjLpUYS9qmnSgnGQx4jxX2Ei4eBnpxgxfQ5G1o" ] } ] }