{ "blocks":
    [ { "hash": "BLJUrVRKjjhYWe1dC6QM9SNcQWGy9SyKWmVhaoBvZCuv7cV36rD",
        "delegate": "tz1S8MNvuFEUsWgjHvi3AxibRBf388NhT1q2",
        "reception_time": "2022-01-17T17:10:36.441-00:00",
        "timestamp": "2022-01-17T17:10:30Z" } ],
  "endorsements":
    [ { "delegate": "tz1awXW7wuXy21c66vBudMXQVAPgRnqqwgTH" },
      { "delegate": "tz1RjoHc98dBoqaH2jawF62XNKh7YsHwbkEv" },
      { "delegate": "tz1Kt4P8BCaP93AEV4eA7gmpRryWt5hznjCP",
        "reception_time": "2022-01-17T17:10:36.316-00:00",
        "errors":
          [ { "kind": "temporary",
              "id": "proto.011-PtHangz2.prefilter.outdated_endorsement" } ],
        "included_in_blocks":
          [ "BL3QDzySG8MZkmV1AVkbxuUKoPW1YZL9abRUnoiM3XiUBxFCbwG" ] },
      { "delegate": "tz3e7LbZvUtoXhpUD1yb6wuFodZpfYRb9nWJ",
        "reception_time": "2022-01-17T17:10:51.172-00:00",
        "included_in_blocks":
          [ "BL3QDzySG8MZkmV1AVkbxuUKoPW1YZL9abRUnoiM3XiUBxFCbwG" ] },
      { "delegate": "tz1g8vkmcde6sWKaG2NN9WKzCkDM6Rziq194",
        "reception_time": "2022-01-17T17:10:43.487-00:00",
        "included_in_blocks":
          [ "BL3QDzySG8MZkmV1AVkbxuUKoPW1YZL9abRUnoiM3XiUBxFCbwG" ] },
      { "delegate": "tz1W5VkdB5s7ENMESVBtwyt9kyvLqPcUczRT",
        "reception_time": "2022-01-17T17:10:41.480-00:00",
        "included_in_blocks":
          [ "BL3QDzySG8MZkmV1AVkbxuUKoPW1YZL9abRUnoiM3XiUBxFCbwG" ] },
      { "delegate": "tz1eVaNx3gCmG1EsLjijkmgAxdLYVf6Bf5Sq",
        "reception_time": "2022-01-17T17:10:41.360-00:00",
        "included_in_blocks":
          [ "BL3QDzySG8MZkmV1AVkbxuUKoPW1YZL9abRUnoiM3XiUBxFCbwG" ] },
      { "delegate": "tz3bvNMQ95vfAYtG8193ymshqjSvmxiCUuR5",
        "reception_time": "2022-01-17T17:10:40.473-00:00",
        "included_in_blocks":
          [ "BL3QDzySG8MZkmV1AVkbxuUKoPW1YZL9abRUnoiM3XiUBxFCbwG" ] },
      { "delegate": "tz1QJU1PuKUP5ZQxUr4pHZjCHGRvJSpcXv7G",
        "reception_time": "2022-01-17T17:10:40.293-00:00",
        "included_in_blocks":
          [ "BL3QDzySG8MZkmV1AVkbxuUKoPW1YZL9abRUnoiM3XiUBxFCbwG" ] },
      { "delegate": "tz1aRoaRhSpRYvFdyvgWLL6TGyRoGF51wDjM",
        "reception_time": "2022-01-17T17:10:39.882-00:00",
        "included_in_blocks":
          [ "BL3QDzySG8MZkmV1AVkbxuUKoPW1YZL9abRUnoiM3XiUBxFCbwG" ] },
      { "delegate": "tz3NDpRj6WBrJPikcPVHRBEjWKxFw3c6eQPS",
        "reception_time": "2022-01-17T17:10:39.854-00:00",
        "included_in_blocks":
          [ "BL3QDzySG8MZkmV1AVkbxuUKoPW1YZL9abRUnoiM3XiUBxFCbwG" ] },
      { "delegate": "tz1dRKU4FQ9QRRQPdaH4zCR6gmCmXfcvcgtB",
        "reception_time": "2022-01-17T17:10:39.834-00:00",
        "included_in_blocks":
          [ "BL3QDzySG8MZkmV1AVkbxuUKoPW1YZL9abRUnoiM3XiUBxFCbwG" ] },
      { "delegate": "tz3VEZ4k6a4Wx42iyev6i2aVAptTRLEAivNN",
        "reception_time": "2022-01-17T17:10:39.866-00:00",
        "included_in_blocks":
          [ "BL3QDzySG8MZkmV1AVkbxuUKoPW1YZL9abRUnoiM3XiUBxFCbwG" ] },
      { "delegate": "tz3WMqdzXqRWXwyvj5Hp2H7QEepaUuS7vd9K",
        "reception_time": "2022-01-17T17:10:39.941-00:00",
        "included_in_blocks":
          [ "BL3QDzySG8MZkmV1AVkbxuUKoPW1YZL9abRUnoiM3XiUBxFCbwG" ] },
      { "delegate": "tz1Z2jXfEXL7dXhs6bsLmyLFLfmAkXBzA9WE",
        "reception_time": "2022-01-17T17:10:39.770-00:00",
        "included_in_blocks":
          [ "BL3QDzySG8MZkmV1AVkbxuUKoPW1YZL9abRUnoiM3XiUBxFCbwG" ] },
      { "delegate": "tz3UoffC7FG7zfpmvmjUmUeAaHvzdcUvAj6r",
        "reception_time": "2022-01-17T17:10:39.573-00:00",
        "included_in_blocks":
          [ "BL3QDzySG8MZkmV1AVkbxuUKoPW1YZL9abRUnoiM3XiUBxFCbwG" ] },
      { "delegate": "tz3NExpXn9aPNZPorRE4SdjJ2RGrfbJgMAaV",
        "reception_time": "2022-01-17T17:10:39.525-00:00",
        "included_in_blocks":
          [ "BL3QDzySG8MZkmV1AVkbxuUKoPW1YZL9abRUnoiM3XiUBxFCbwG" ] },
      { "delegate": "tz3RDC3Jdn4j15J7bBHZd29EUee9gVB1CxD9",
        "reception_time": "2022-01-17T17:10:39.561-00:00",
        "included_in_blocks":
          [ "BL3QDzySG8MZkmV1AVkbxuUKoPW1YZL9abRUnoiM3XiUBxFCbwG" ] },
      { "delegate": "tz1PeZx7FXy7QRuMREGXGxeipb24RsMMzUNe",
        "reception_time": "2022-01-17T17:10:39.535-00:00",
        "included_in_blocks":
          [ "BL3QDzySG8MZkmV1AVkbxuUKoPW1YZL9abRUnoiM3XiUBxFCbwG" ] },
      { "delegate": "tz1T7duV5gZWSTq4YpBGbXNLTfznCLDrFxvs",
        "reception_time": "2022-01-17T17:10:39.351-00:00",
        "included_in_blocks":
          [ "BL3QDzySG8MZkmV1AVkbxuUKoPW1YZL9abRUnoiM3XiUBxFCbwG" ] },
      { "delegate": "tz1NoYvKjXTzTk54VpLxBfouJ33J8jwKPPvw",
        "reception_time": "2022-01-17T17:10:38.977-00:00",
        "included_in_blocks":
          [ "BL3QDzySG8MZkmV1AVkbxuUKoPW1YZL9abRUnoiM3XiUBxFCbwG" ] },
      { "delegate": "tz1NEKxGEHsFufk87CVZcrqWu8o22qh46GK6",
        "reception_time": "2022-01-17T17:10:39.024-00:00",
        "included_in_blocks":
          [ "BL3QDzySG8MZkmV1AVkbxuUKoPW1YZL9abRUnoiM3XiUBxFCbwG" ] },
      { "delegate": "tz1TRqbYbUf2GyrjErf3hBzgBJPzW8y36qEs",
        "reception_time": "2022-01-17T17:10:38.921-00:00",
        "included_in_blocks":
          [ "BL3QDzySG8MZkmV1AVkbxuUKoPW1YZL9abRUnoiM3XiUBxFCbwG" ] },
      { "delegate": "tz1NortRftucvAkD1J58L32EhSVrQEWJCEnB",
        "reception_time": "2022-01-17T17:10:38.863-00:00",
        "included_in_blocks":
          [ "BL3QDzySG8MZkmV1AVkbxuUKoPW1YZL9abRUnoiM3XiUBxFCbwG" ] },
      { "delegate": "tz1Nf6tsK4G6bBqgSQERy4nUtkHNKUVdh7q1",
        "reception_time": "2022-01-17T17:10:38.784-00:00",
        "included_in_blocks":
          [ "BL3QDzySG8MZkmV1AVkbxuUKoPW1YZL9abRUnoiM3XiUBxFCbwG" ] },
      { "delegate": "tz1abmz7jiCV2GH2u81LRrGgAFFgvQgiDiaf",
        "reception_time": "2022-01-17T17:10:38.760-00:00",
        "included_in_blocks":
          [ "BL3QDzySG8MZkmV1AVkbxuUKoPW1YZL9abRUnoiM3XiUBxFCbwG" ] },
      { "delegate": "tz1chefX9Lf2XcZ4BzPtHjV4Qed6BY2ci9GE",
        "reception_time": "2022-01-17T17:10:38.798-00:00",
        "included_in_blocks":
          [ "BL3QDzySG8MZkmV1AVkbxuUKoPW1YZL9abRUnoiM3XiUBxFCbwG" ] },
      { "delegate": "tz3bTdwZinP8U1JmSweNzVKhmwafqWmFWRfk",
        "reception_time": "2022-01-17T17:10:38.680-00:00",
        "included_in_blocks":
          [ "BL3QDzySG8MZkmV1AVkbxuUKoPW1YZL9abRUnoiM3XiUBxFCbwG" ] },
      { "delegate": "tz2FCNBrERXtaTtNX6iimR1UJ5JSDxvdHM93",
        "reception_time": "2022-01-17T17:10:38.775-00:00",
        "included_in_blocks":
          [ "BL3QDzySG8MZkmV1AVkbxuUKoPW1YZL9abRUnoiM3XiUBxFCbwG" ] },
      { "delegate": "tz3RB4aoyjov4KEVRbuhvQ1CKJgBJMWhaeB8",
        "reception_time": "2022-01-17T17:10:38.705-00:00",
        "included_in_blocks":
          [ "BL3QDzySG8MZkmV1AVkbxuUKoPW1YZL9abRUnoiM3XiUBxFCbwG" ] },
      { "delegate": "tz1WBfwbT66FC6BTLexc2BoyCCBM9LG7pnVW",
        "reception_time": "2022-01-17T17:10:38.512-00:00",
        "included_in_blocks":
          [ "BL3QDzySG8MZkmV1AVkbxuUKoPW1YZL9abRUnoiM3XiUBxFCbwG" ] },
      { "delegate": "tz1fwnfJNgiDACshK9avfRfFbMaXrs3ghoJa",
        "reception_time": "2022-01-17T17:10:38.591-00:00",
        "included_in_blocks":
          [ "BL3QDzySG8MZkmV1AVkbxuUKoPW1YZL9abRUnoiM3XiUBxFCbwG" ] },
      { "delegate": "tz1ei4WtWEMEJekSv8qDnu9PExG6Q8HgRGr3",
        "reception_time": "2022-01-17T17:10:38.531-00:00",
        "included_in_blocks":
          [ "BL3QDzySG8MZkmV1AVkbxuUKoPW1YZL9abRUnoiM3XiUBxFCbwG" ] },
      { "delegate": "tz1KfEsrtDaA1sX7vdM4qmEPWuSytuqCDp5j",
        "reception_time": "2022-01-17T17:10:38.428-00:00",
        "included_in_blocks":
          [ "BL3QDzySG8MZkmV1AVkbxuUKoPW1YZL9abRUnoiM3XiUBxFCbwG" ] },
      { "delegate": "tz1TEc75UKXv4W5cwi14Na3NtqFD51yKQi7h",
        "reception_time": "2022-01-17T17:10:38.336-00:00",
        "included_in_blocks":
          [ "BL3QDzySG8MZkmV1AVkbxuUKoPW1YZL9abRUnoiM3XiUBxFCbwG" ] },
      { "delegate": "tz3Zhs2dygr55yHyQyKjntAtY9bgfhLZ4Xj1",
        "reception_time": "2022-01-17T17:10:38.256-00:00",
        "included_in_blocks":
          [ "BL3QDzySG8MZkmV1AVkbxuUKoPW1YZL9abRUnoiM3XiUBxFCbwG" ] },
      { "delegate": "tz3iJu5vrKZcsqRPs8yJ61UDoeEXZmtro4qh",
        "reception_time": "2022-01-17T17:10:38.207-00:00",
        "included_in_blocks":
          [ "BL3QDzySG8MZkmV1AVkbxuUKoPW1YZL9abRUnoiM3XiUBxFCbwG" ] },
      { "delegate": "tz1cSj7fTex3JPd1p1LN1fwek6AV1kH93Wwc",
        "reception_time": "2022-01-17T17:10:38.168-00:00",
        "included_in_blocks":
          [ "BL3QDzySG8MZkmV1AVkbxuUKoPW1YZL9abRUnoiM3XiUBxFCbwG" ] },
      { "delegate": "tz1d6Fx42mYgVFnHUW8T8A7WBfJ6nD9pVok8",
        "reception_time": "2022-01-17T17:10:38.286-00:00",
        "included_in_blocks":
          [ "BL3QDzySG8MZkmV1AVkbxuUKoPW1YZL9abRUnoiM3XiUBxFCbwG" ] },
      { "delegate": "tz1WnfXMPaNTBmH7DBPwqCWs9cPDJdkGBTZ8",
        "reception_time": "2022-01-17T17:10:38.198-00:00",
        "included_in_blocks":
          [ "BL3QDzySG8MZkmV1AVkbxuUKoPW1YZL9abRUnoiM3XiUBxFCbwG" ] },
      { "delegate": "tz1RCFbB9GpALpsZtu6J58sb74dm8qe6XBzv",
        "reception_time": "2022-01-17T17:10:38.210-00:00",
        "included_in_blocks":
          [ "BL3QDzySG8MZkmV1AVkbxuUKoPW1YZL9abRUnoiM3XiUBxFCbwG" ] },
      { "delegate": "tz1WCd2jm4uSt4vntk4vSuUWoZQGhLcDuR9q",
        "reception_time": "2022-01-17T17:10:38.088-00:00",
        "included_in_blocks":
          [ "BL3QDzySG8MZkmV1AVkbxuUKoPW1YZL9abRUnoiM3XiUBxFCbwG" ] },
      { "delegate": "tz3QSGPoRp3Kn7n3vY24eYeu3Peuqo45LQ4D",
        "reception_time": "2022-01-17T17:10:38.061-00:00",
        "included_in_blocks":
          [ "BL3QDzySG8MZkmV1AVkbxuUKoPW1YZL9abRUnoiM3XiUBxFCbwG" ] },
      { "delegate": "tz1Ldzz6k1BHdhuKvAtMRX7h5kJSMHESMHLC",
        "reception_time": "2022-01-17T17:10:38.007-00:00",
        "included_in_blocks":
          [ "BL3QDzySG8MZkmV1AVkbxuUKoPW1YZL9abRUnoiM3XiUBxFCbwG" ] },
      { "delegate": "tz3gtoUxdudfBRcNY7iVdKPHCYYX6xdPpoRS",
        "reception_time": "2022-01-17T17:10:38.055-00:00",
        "included_in_blocks":
          [ "BL3QDzySG8MZkmV1AVkbxuUKoPW1YZL9abRUnoiM3XiUBxFCbwG" ] },
      { "delegate": "tz1V4qCyvPKZ5UeqdH14HN42rxvNPQfc9UZg",
        "reception_time": "2022-01-17T17:10:38.100-00:00",
        "included_in_blocks":
          [ "BL3QDzySG8MZkmV1AVkbxuUKoPW1YZL9abRUnoiM3XiUBxFCbwG" ] },
      { "delegate": "tz3RKYFsLuQzKBtmYuLNas7uMu3AsYd4QdsA",
        "reception_time": "2022-01-17T17:10:38.045-00:00",
        "included_in_blocks":
          [ "BL3QDzySG8MZkmV1AVkbxuUKoPW1YZL9abRUnoiM3XiUBxFCbwG" ] },
      { "delegate": "tz3hw2kqXhLUvY65ca1eety2oQTpAvd34R9Q",
        "reception_time": "2022-01-17T17:10:38.018-00:00",
        "included_in_blocks":
          [ "BL3QDzySG8MZkmV1AVkbxuUKoPW1YZL9abRUnoiM3XiUBxFCbwG" ] },
      { "delegate": "tz1PWCDnz783NNGGQjEFFsHtrcK5yBW4E2rm",
        "reception_time": "2022-01-17T17:10:38.007-00:00",
        "included_in_blocks":
          [ "BL3QDzySG8MZkmV1AVkbxuUKoPW1YZL9abRUnoiM3XiUBxFCbwG" ] },
      { "delegate": "tz1MQJPGNMijnXnVoBENFz9rUhaPt3S7rWoz",
        "reception_time": "2022-01-17T17:10:37.963-00:00",
        "included_in_blocks":
          [ "BL3QDzySG8MZkmV1AVkbxuUKoPW1YZL9abRUnoiM3XiUBxFCbwG" ] },
      { "delegate": "tz3NxTnke1acr8o3h5y9ytf5awQBGNJUKzVU",
        "reception_time": "2022-01-17T17:10:37.935-00:00",
        "included_in_blocks":
          [ "BL3QDzySG8MZkmV1AVkbxuUKoPW1YZL9abRUnoiM3XiUBxFCbwG" ] },
      { "delegate": "tz3ZbP2pM3nwvXztbuMJwJnDvV5xdpU8UkkD",
        "reception_time": "2022-01-17T17:10:37.950-00:00",
        "included_in_blocks":
          [ "BL3QDzySG8MZkmV1AVkbxuUKoPW1YZL9abRUnoiM3XiUBxFCbwG" ] },
      { "delegate": "tz3QT9dHYKDqh563chVa6za8526ys1UKfRfL",
        "reception_time": "2022-01-17T17:10:37.963-00:00",
        "included_in_blocks":
          [ "BL3QDzySG8MZkmV1AVkbxuUKoPW1YZL9abRUnoiM3XiUBxFCbwG" ] },
      { "delegate": "tz3S6BBeKgJGXxvLyZ1xzXzMPn11nnFtq5L9",
        "reception_time": "2022-01-17T17:10:37.970-00:00",
        "included_in_blocks":
          [ "BL3QDzySG8MZkmV1AVkbxuUKoPW1YZL9abRUnoiM3XiUBxFCbwG" ] },
      { "delegate": "tz1VmiY38m3y95HqQLjMwqnMS7sdMfGomzKi",
        "reception_time": "2022-01-17T17:10:38.000-00:00",
        "included_in_blocks":
          [ "BL3QDzySG8MZkmV1AVkbxuUKoPW1YZL9abRUnoiM3XiUBxFCbwG" ] },
      { "delegate": "tz1gfArv665EUkSg2ojMBzcbfwuPxAvqPvjo",
        "reception_time": "2022-01-17T17:10:37.882-00:00",
        "included_in_blocks":
          [ "BL3QDzySG8MZkmV1AVkbxuUKoPW1YZL9abRUnoiM3XiUBxFCbwG" ] },
      { "delegate": "tz1irJKkXS2DBWkU1NnmFQx1c1L7pbGg4yhk",
        "reception_time": "2022-01-17T17:10:37.755-00:00",
        "included_in_blocks":
          [ "BL3QDzySG8MZkmV1AVkbxuUKoPW1YZL9abRUnoiM3XiUBxFCbwG" ] },
      { "delegate": "tz1RV1MBbZMR68tacosb7Mwj6LkbPSUS1er1",
        "reception_time": "2022-01-17T17:10:37.776-00:00",
        "included_in_blocks":
          [ "BL3QDzySG8MZkmV1AVkbxuUKoPW1YZL9abRUnoiM3XiUBxFCbwG" ] },
      { "delegate": "tz1beersuEDv8Z7ngQ825xfbaJNS2EhXnyHR",
        "reception_time": "2022-01-17T17:10:37.635-00:00",
        "included_in_blocks":
          [ "BL3QDzySG8MZkmV1AVkbxuUKoPW1YZL9abRUnoiM3XiUBxFCbwG" ] },
      { "delegate": "tz1STeamwbp68THcny9zk3LsbG3H36DMvbRK",
        "reception_time": "2022-01-17T17:10:37.772-00:00",
        "included_in_blocks":
          [ "BL3QDzySG8MZkmV1AVkbxuUKoPW1YZL9abRUnoiM3XiUBxFCbwG" ] },
      { "delegate": "tz1eEnQhbwf6trb8Q8mPb2RaPkNk2rN7BKi8",
        "reception_time": "2022-01-17T17:10:37.800-00:00",
        "included_in_blocks":
          [ "BL3QDzySG8MZkmV1AVkbxuUKoPW1YZL9abRUnoiM3XiUBxFCbwG" ] },
      { "delegate": "tz1bsdrs36X5BTH83RHUBdUouKLJZK8d2oBa",
        "reception_time": "2022-01-17T17:10:37.759-00:00",
        "included_in_blocks":
          [ "BL3QDzySG8MZkmV1AVkbxuUKoPW1YZL9abRUnoiM3XiUBxFCbwG" ] },
      { "delegate": "tz1gUNyn3hmnEWqkusWPzxRaon1cs7ndWh7h",
        "reception_time": "2022-01-17T17:10:37.909-00:00",
        "included_in_blocks":
          [ "BL3QDzySG8MZkmV1AVkbxuUKoPW1YZL9abRUnoiM3XiUBxFCbwG" ] },
      { "delegate": "tz1VQnqCCqX4K5sP3FNkVSNKTdCAMJDd3E1n",
        "reception_time": "2022-01-17T17:10:37.924-00:00",
        "included_in_blocks":
          [ "BL3QDzySG8MZkmV1AVkbxuUKoPW1YZL9abRUnoiM3XiUBxFCbwG" ] },
      { "delegate": "tz1TXzyaKUA8wsWefdSnyaYFnV2M3vCV7er9",
        "reception_time": "2022-01-17T17:10:37.797-00:00",
        "included_in_blocks":
          [ "BL3QDzySG8MZkmV1AVkbxuUKoPW1YZL9abRUnoiM3XiUBxFCbwG" ] },
      { "delegate": "tz1S8MNvuFEUsWgjHvi3AxibRBf388NhT1q2",
        "reception_time": "2022-01-17T17:10:37.788-00:00",
        "included_in_blocks":
          [ "BL3QDzySG8MZkmV1AVkbxuUKoPW1YZL9abRUnoiM3XiUBxFCbwG" ] },
      { "delegate": "tz1P2Po7YM526ughEsRbY4oR9zaUPDZjxFrb",
        "reception_time": "2022-01-17T17:10:37.651-00:00",
        "included_in_blocks":
          [ "BL3QDzySG8MZkmV1AVkbxuUKoPW1YZL9abRUnoiM3XiUBxFCbwG" ] },
      { "delegate": "tz1TRspM5SeZpaQUhzByXbEvqKF1vnCM2YTK",
        "reception_time": "2022-01-17T17:10:37.586-00:00",
        "included_in_blocks":
          [ "BL3QDzySG8MZkmV1AVkbxuUKoPW1YZL9abRUnoiM3XiUBxFCbwG" ] },
      { "delegate": "tz1Scdr2HsZiQjc7bHMeBbmDRXYVvdhjJbBh",
        "reception_time": "2022-01-17T17:10:37.589-00:00",
        "included_in_blocks":
          [ "BL3QDzySG8MZkmV1AVkbxuUKoPW1YZL9abRUnoiM3XiUBxFCbwG" ] } ] }