{ "blocks":
    [ { "hash": "BM1v48ujBauUZMxM5W1hDqUgFhh1jD7jxTne8NddXuc6dZfmmfF",
        "delegate": "tz3S6BBeKgJGXxvLyZ1xzXzMPn11nnFtq5L9",
        "reception_time": "2022-01-17T23:41:28.848-00:00",
        "timestamp": "2022-01-17T23:41:20Z" } ],
  "endorsements":
    [ { "delegate": "tz3QSGPoRp3Kn7n3vY24eYeu3Peuqo45LQ4D",
        "reception_time": "2022-01-17T23:41:28.783-00:00",
        "errors":
          [ { "kind": "temporary",
              "id": "proto.011-PtHangz2.prefilter.outdated_endorsement" } ],
        "included_in_blocks":
          [ "BLXVp3uxTLmzCBfkgvyTjciegXJN5W5YmRdwWMRyF6QpopXU6rQ" ] },
      { "delegate": "tz1WCd2jm4uSt4vntk4vSuUWoZQGhLcDuR9q",
        "reception_time": "2022-01-17T23:41:28.743-00:00",
        "errors":
          [ { "kind": "temporary",
              "id": "proto.011-PtHangz2.prefilter.outdated_endorsement" } ],
        "included_in_blocks":
          [ "BLXVp3uxTLmzCBfkgvyTjciegXJN5W5YmRdwWMRyF6QpopXU6rQ" ] },
      { "delegate": "tz3gtoUxdudfBRcNY7iVdKPHCYYX6xdPpoRS",
        "reception_time": "2022-01-17T23:41:28.735-00:00",
        "errors":
          [ { "kind": "temporary",
              "id": "proto.011-PtHangz2.prefilter.outdated_endorsement" } ],
        "included_in_blocks":
          [ "BLXVp3uxTLmzCBfkgvyTjciegXJN5W5YmRdwWMRyF6QpopXU6rQ" ] },
      { "delegate": "tz1aXD7Jigrt3PBYSpHSg5Rr33SexMmmM5Ys",
        "reception_time": "2022-01-17T23:41:28.725-00:00",
        "errors":
          [ { "kind": "temporary",
              "id": "proto.011-PtHangz2.prefilter.outdated_endorsement" } ],
        "included_in_blocks":
          [ "BLXVp3uxTLmzCBfkgvyTjciegXJN5W5YmRdwWMRyF6QpopXU6rQ" ] },
      { "delegate": "tz3iJu5vrKZcsqRPs8yJ61UDoeEXZmtro4qh",
        "reception_time": "2022-01-17T23:41:28.718-00:00",
        "errors":
          [ { "kind": "temporary",
              "id": "proto.011-PtHangz2.prefilter.outdated_endorsement" } ],
        "included_in_blocks":
          [ "BLXVp3uxTLmzCBfkgvyTjciegXJN5W5YmRdwWMRyF6QpopXU6rQ" ] },
      { "delegate": "tz1VmiY38m3y95HqQLjMwqnMS7sdMfGomzKi",
        "reception_time": "2022-01-17T23:41:28.685-00:00",
        "errors":
          [ { "kind": "temporary",
              "id": "proto.011-PtHangz2.prefilter.outdated_endorsement" } ],
        "included_in_blocks":
          [ "BLXVp3uxTLmzCBfkgvyTjciegXJN5W5YmRdwWMRyF6QpopXU6rQ" ] },
      { "delegate": "tz3Zhs2dygr55yHyQyKjntAtY9bgfhLZ4Xj1",
        "reception_time": "2022-01-17T23:41:28.684-00:00",
        "errors":
          [ { "kind": "temporary",
              "id": "proto.011-PtHangz2.prefilter.outdated_endorsement" } ],
        "included_in_blocks":
          [ "BLXVp3uxTLmzCBfkgvyTjciegXJN5W5YmRdwWMRyF6QpopXU6rQ" ] },
      { "delegate": "tz3NxTnke1acr8o3h5y9ytf5awQBGNJUKzVU",
        "reception_time": "2022-01-17T23:41:28.518-00:00",
        "errors":
          [ { "kind": "temporary",
              "id": "proto.011-PtHangz2.prefilter.outdated_endorsement" } ],
        "included_in_blocks":
          [ "BLXVp3uxTLmzCBfkgvyTjciegXJN5W5YmRdwWMRyF6QpopXU6rQ" ] },
      { "delegate": "tz1ZPh7XfUaJXUDvkrBxmS1BjEM1i62hiPpM",
        "reception_time": "2022-01-17T23:41:28.509-00:00",
        "errors":
          [ { "kind": "temporary",
              "id": "proto.011-PtHangz2.prefilter.outdated_endorsement" } ],
        "included_in_blocks":
          [ "BLXVp3uxTLmzCBfkgvyTjciegXJN5W5YmRdwWMRyF6QpopXU6rQ" ] },
      { "delegate": "tz1RV1MBbZMR68tacosb7Mwj6LkbPSUS1er1",
        "reception_time": "2022-01-17T23:41:28.486-00:00",
        "errors":
          [ { "kind": "temporary",
              "id": "proto.011-PtHangz2.prefilter.outdated_endorsement" } ],
        "included_in_blocks":
          [ "BLXVp3uxTLmzCBfkgvyTjciegXJN5W5YmRdwWMRyF6QpopXU6rQ" ] },
      { "delegate": "tz3ZbP2pM3nwvXztbuMJwJnDvV5xdpU8UkkD",
        "reception_time": "2022-01-17T23:41:28.482-00:00",
        "errors":
          [ { "kind": "temporary",
              "id": "proto.011-PtHangz2.prefilter.outdated_endorsement" } ],
        "included_in_blocks":
          [ "BLXVp3uxTLmzCBfkgvyTjciegXJN5W5YmRdwWMRyF6QpopXU6rQ" ] },
      { "delegate": "tz3QT9dHYKDqh563chVa6za8526ys1UKfRfL",
        "reception_time": "2022-01-17T23:41:28.452-00:00",
        "errors":
          [ { "kind": "temporary",
              "id": "proto.011-PtHangz2.prefilter.outdated_endorsement" } ],
        "included_in_blocks":
          [ "BLXVp3uxTLmzCBfkgvyTjciegXJN5W5YmRdwWMRyF6QpopXU6rQ" ] },
      { "delegate": "tz1Kt4P8BCaP93AEV4eA7gmpRryWt5hznjCP",
        "reception_time": "2022-01-17T23:41:28.441-00:00",
        "errors":
          [ { "kind": "temporary",
              "id": "proto.011-PtHangz2.prefilter.outdated_endorsement" } ],
        "included_in_blocks":
          [ "BLXVp3uxTLmzCBfkgvyTjciegXJN5W5YmRdwWMRyF6QpopXU6rQ" ] },
      { "delegate": "tz1LLNkQK4UQV6QcFShiXJ2vT2ELw449MzAA",
        "reception_time": "2022-01-17T23:41:28.419-00:00",
        "errors":
          [ { "kind": "temporary",
              "id": "proto.011-PtHangz2.prefilter.outdated_endorsement" } ],
        "included_in_blocks":
          [ "BLXVp3uxTLmzCBfkgvyTjciegXJN5W5YmRdwWMRyF6QpopXU6rQ" ] },
      { "delegate": "tz3S6BBeKgJGXxvLyZ1xzXzMPn11nnFtq5L9",
        "reception_time": "2022-01-17T23:41:28.380-00:00",
        "errors":
          [ { "kind": "temporary",
              "id": "proto.011-PtHangz2.prefilter.outdated_endorsement" } ],
        "included_in_blocks":
          [ "BLXVp3uxTLmzCBfkgvyTjciegXJN5W5YmRdwWMRyF6QpopXU6rQ" ] },
      { "delegate": "tz1irJKkXS2DBWkU1NnmFQx1c1L7pbGg4yhk",
        "reception_time": "2022-01-17T23:41:28.376-00:00",
        "errors":
          [ { "kind": "temporary",
              "id": "proto.011-PtHangz2.prefilter.outdated_endorsement" } ],
        "included_in_blocks":
          [ "BLXVp3uxTLmzCBfkgvyTjciegXJN5W5YmRdwWMRyF6QpopXU6rQ" ] },
      { "delegate": "tz1gUNyn3hmnEWqkusWPzxRaon1cs7ndWh7h",
        "reception_time": "2022-01-17T23:41:28.372-00:00",
        "errors":
          [ { "kind": "temporary",
              "id": "proto.011-PtHangz2.prefilter.outdated_endorsement" } ],
        "included_in_blocks":
          [ "BLXVp3uxTLmzCBfkgvyTjciegXJN5W5YmRdwWMRyF6QpopXU6rQ" ] },
      { "delegate": "tz1TRspM5SeZpaQUhzByXbEvqKF1vnCM2YTK",
        "reception_time": "2022-01-17T23:41:28.342-00:00",
        "errors":
          [ { "kind": "temporary",
              "id": "proto.011-PtHangz2.prefilter.outdated_endorsement" } ],
        "included_in_blocks":
          [ "BLXVp3uxTLmzCBfkgvyTjciegXJN5W5YmRdwWMRyF6QpopXU6rQ" ] },
      { "delegate": "tz1VQnqCCqX4K5sP3FNkVSNKTdCAMJDd3E1n",
        "reception_time": "2022-01-17T23:41:28.248-00:00",
        "errors":
          [ { "kind": "temporary",
              "id": "proto.011-PtHangz2.prefilter.outdated_endorsement" } ],
        "included_in_blocks":
          [ "BLXVp3uxTLmzCBfkgvyTjciegXJN5W5YmRdwWMRyF6QpopXU6rQ" ] },
      { "delegate": "tz1TXzyaKUA8wsWefdSnyaYFnV2M3vCV7er9",
        "reception_time": "2022-01-17T23:41:28.036-00:00",
        "errors":
          [ { "kind": "temporary",
              "id": "proto.011-PtHangz2.prefilter.outdated_endorsement" } ],
        "included_in_blocks":
          [ "BLXVp3uxTLmzCBfkgvyTjciegXJN5W5YmRdwWMRyF6QpopXU6rQ" ] },
      { "delegate": "tz1Scdr2HsZiQjc7bHMeBbmDRXYVvdhjJbBh",
        "reception_time": "2022-01-17T23:41:27.930-00:00",
        "errors":
          [ { "kind": "temporary",
              "id": "proto.011-PtHangz2.prefilter.outdated_endorsement" } ],
        "included_in_blocks":
          [ "BLXVp3uxTLmzCBfkgvyTjciegXJN5W5YmRdwWMRyF6QpopXU6rQ" ] },
      { "delegate": "tz1MXFrtZoaXckE41bjUCSjAjAap3AFDSr3N",
        "reception_time": "2022-01-17T23:41:27.781-00:00",
        "errors":
          [ { "kind": "temporary",
              "id": "proto.011-PtHangz2.prefilter.outdated_endorsement" } ],
        "included_in_blocks":
          [ "BLXVp3uxTLmzCBfkgvyTjciegXJN5W5YmRdwWMRyF6QpopXU6rQ" ] },
      { "delegate": "tz1Zhv3RkfU2pHrmaiDyxp7kFZpZrUCu1CiF",
        "reception_time": "2022-01-17T23:41:27.779-00:00",
        "errors":
          [ { "kind": "temporary",
              "id": "proto.011-PtHangz2.prefilter.outdated_endorsement" } ],
        "included_in_blocks":
          [ "BLXVp3uxTLmzCBfkgvyTjciegXJN5W5YmRdwWMRyF6QpopXU6rQ" ] },
      { "delegate": "tz1eEnQhbwf6trb8Q8mPb2RaPkNk2rN7BKi8",
        "reception_time": "2022-01-17T23:41:27.700-00:00",
        "errors":
          [ { "kind": "temporary",
              "id": "proto.011-PtHangz2.prefilter.outdated_endorsement" } ],
        "included_in_blocks":
          [ "BLXVp3uxTLmzCBfkgvyTjciegXJN5W5YmRdwWMRyF6QpopXU6rQ" ] },
      { "delegate": "tz1P2Po7YM526ughEsRbY4oR9zaUPDZjxFrb",
        "reception_time": "2022-01-17T23:41:27.672-00:00",
        "errors":
          [ { "kind": "temporary",
              "id": "proto.011-PtHangz2.prefilter.outdated_endorsement" } ],
        "included_in_blocks":
          [ "BLXVp3uxTLmzCBfkgvyTjciegXJN5W5YmRdwWMRyF6QpopXU6rQ" ] },
      { "delegate": "tz1S8e9GgdZG78XJRB3NqabfWeM37GnhZMWQ",
        "reception_time": "2022-01-17T23:41:27.378-00:00",
        "errors":
          [ { "kind": "temporary",
              "id": "proto.011-PtHangz2.prefilter.outdated_endorsement" } ],
        "included_in_blocks":
          [ "BLXVp3uxTLmzCBfkgvyTjciegXJN5W5YmRdwWMRyF6QpopXU6rQ" ] },
      { "delegate": "tz1cSj7fTex3JPd1p1LN1fwek6AV1kH93Wwc",
        "reception_time": "2022-01-17T23:41:29.612-00:00",
        "included_in_blocks":
          [ "BLXVp3uxTLmzCBfkgvyTjciegXJN5W5YmRdwWMRyF6QpopXU6rQ" ] },
      { "delegate": "tz3bTdwZinP8U1JmSweNzVKhmwafqWmFWRfk",
        "reception_time": "2022-01-17T23:41:29.832-00:00",
        "included_in_blocks":
          [ "BLXVp3uxTLmzCBfkgvyTjciegXJN5W5YmRdwWMRyF6QpopXU6rQ" ] },
      { "delegate": "tz1Ldzz6k1BHdhuKvAtMRX7h5kJSMHESMHLC",
        "reception_time": "2022-01-17T23:41:29.862-00:00",
        "included_in_blocks":
          [ "BLXVp3uxTLmzCBfkgvyTjciegXJN5W5YmRdwWMRyF6QpopXU6rQ" ] },
      { "delegate": "tz1MGTFJXpQmtxLi8QJ7AuVRgM2L2Qfn9w9i",
        "reception_time": "2022-01-17T23:41:29.868-00:00",
        "included_in_blocks":
          [ "BLXVp3uxTLmzCBfkgvyTjciegXJN5W5YmRdwWMRyF6QpopXU6rQ" ] },
      { "delegate": "tz1MQJPGNMijnXnVoBENFz9rUhaPt3S7rWoz",
        "reception_time": "2022-01-17T23:41:29.871-00:00",
        "included_in_blocks":
          [ "BLXVp3uxTLmzCBfkgvyTjciegXJN5W5YmRdwWMRyF6QpopXU6rQ" ] },
      { "delegate": "tz1iPHM2Xx2hwmzcr1EG1zzrV6oKafVoA91m",
        "reception_time": "2022-01-17T23:41:29.873-00:00",
        "included_in_blocks":
          [ "BLXVp3uxTLmzCBfkgvyTjciegXJN5W5YmRdwWMRyF6QpopXU6rQ" ] },
      { "delegate": "tz3RB4aoyjov4KEVRbuhvQ1CKJgBJMWhaeB8",
        "reception_time": "2022-01-17T23:41:29.884-00:00",
        "included_in_blocks":
          [ "BLXVp3uxTLmzCBfkgvyTjciegXJN5W5YmRdwWMRyF6QpopXU6rQ" ] },
      { "delegate": "tz1gfArv665EUkSg2ojMBzcbfwuPxAvqPvjo",
        "reception_time": "2022-01-17T23:41:29.884-00:00",
        "included_in_blocks":
          [ "BLXVp3uxTLmzCBfkgvyTjciegXJN5W5YmRdwWMRyF6QpopXU6rQ" ] },
      { "delegate": "tz1RCFbB9GpALpsZtu6J58sb74dm8qe6XBzv",
        "reception_time": "2022-01-17T23:41:30.072-00:00",
        "included_in_blocks":
          [ "BLXVp3uxTLmzCBfkgvyTjciegXJN5W5YmRdwWMRyF6QpopXU6rQ" ] },
      { "delegate": "tz1TEc75UKXv4W5cwi14Na3NtqFD51yKQi7h",
        "reception_time": "2022-01-17T23:41:30.079-00:00",
        "included_in_blocks":
          [ "BLXVp3uxTLmzCBfkgvyTjciegXJN5W5YmRdwWMRyF6QpopXU6rQ" ] },
      { "delegate": "tz1LmaFsWRkjr7QMCx5PtV6xTUz3AmEpKQiF",
        "reception_time": "2022-01-17T23:41:30.115-00:00",
        "included_in_blocks":
          [ "BLXVp3uxTLmzCBfkgvyTjciegXJN5W5YmRdwWMRyF6QpopXU6rQ" ] },
      { "delegate": "tz3RDC3Jdn4j15J7bBHZd29EUee9gVB1CxD9",
        "reception_time": "2022-01-17T23:41:30.131-00:00",
        "included_in_blocks":
          [ "BLXVp3uxTLmzCBfkgvyTjciegXJN5W5YmRdwWMRyF6QpopXU6rQ" ] },
      { "delegate": "tz1dNVDWPf3Q59SdJqnjdnu277iyvReiRS9M",
        "reception_time": "2022-01-17T23:41:30.133-00:00",
        "included_in_blocks":
          [ "BLXVp3uxTLmzCBfkgvyTjciegXJN5W5YmRdwWMRyF6QpopXU6rQ" ] },
      { "delegate": "tz1WnfXMPaNTBmH7DBPwqCWs9cPDJdkGBTZ8",
        "reception_time": "2022-01-17T23:41:30.137-00:00",
        "included_in_blocks":
          [ "BLXVp3uxTLmzCBfkgvyTjciegXJN5W5YmRdwWMRyF6QpopXU6rQ" ] },
      { "delegate": "tz1V4qCyvPKZ5UeqdH14HN42rxvNPQfc9UZg",
        "reception_time": "2022-01-17T23:41:30.139-00:00",
        "included_in_blocks":
          [ "BLXVp3uxTLmzCBfkgvyTjciegXJN5W5YmRdwWMRyF6QpopXU6rQ" ] },
      { "delegate": "tz1Tnjaxk6tbAeC2TmMApPh8UsrEVQvhHvx5",
        "reception_time": "2022-01-17T23:41:30.158-00:00",
        "included_in_blocks":
          [ "BLXVp3uxTLmzCBfkgvyTjciegXJN5W5YmRdwWMRyF6QpopXU6rQ" ] },
      { "delegate": "tz1KfEsrtDaA1sX7vdM4qmEPWuSytuqCDp5j",
        "reception_time": "2022-01-17T23:41:30.163-00:00",
        "included_in_blocks":
          [ "BLXVp3uxTLmzCBfkgvyTjciegXJN5W5YmRdwWMRyF6QpopXU6rQ" ] },
      { "delegate": "tz1MQMiZHV8q4tTwUMWmS5Y3kaP6J2136iXr",
        "reception_time": "2022-01-17T23:41:30.206-00:00",
        "included_in_blocks":
          [ "BLXVp3uxTLmzCBfkgvyTjciegXJN5W5YmRdwWMRyF6QpopXU6rQ" ] },
      { "delegate": "tz1WBfwbT66FC6BTLexc2BoyCCBM9LG7pnVW",
        "reception_time": "2022-01-17T23:41:30.262-00:00",
        "included_in_blocks":
          [ "BLXVp3uxTLmzCBfkgvyTjciegXJN5W5YmRdwWMRyF6QpopXU6rQ" ] },
      { "delegate": "tz1UMCB2AHSTwG7YcGNr31CqYCtGN873royv",
        "reception_time": "2022-01-17T23:41:30.265-00:00",
        "included_in_blocks":
          [ "BLXVp3uxTLmzCBfkgvyTjciegXJN5W5YmRdwWMRyF6QpopXU6rQ" ] },
      { "delegate": "tz1axcnVN9tZnCe4sQQhC6f3tfSEXdjPaXPY",
        "reception_time": "2022-01-17T23:41:30.268-00:00",
        "included_in_blocks":
          [ "BLXVp3uxTLmzCBfkgvyTjciegXJN5W5YmRdwWMRyF6QpopXU6rQ" ] },
      { "delegate": "tz2FCNBrERXtaTtNX6iimR1UJ5JSDxvdHM93",
        "reception_time": "2022-01-17T23:41:30.470-00:00",
        "included_in_blocks":
          [ "BLXVp3uxTLmzCBfkgvyTjciegXJN5W5YmRdwWMRyF6QpopXU6rQ" ] },
      { "delegate": "tz1S8MNvuFEUsWgjHvi3AxibRBf388NhT1q2",
        "reception_time": "2022-01-17T23:41:30.523-00:00",
        "included_in_blocks":
          [ "BLXVp3uxTLmzCBfkgvyTjciegXJN5W5YmRdwWMRyF6QpopXU6rQ" ] },
      { "delegate": "tz1NEKxGEHsFufk87CVZcrqWu8o22qh46GK6",
        "reception_time": "2022-01-17T23:41:30.567-00:00",
        "included_in_blocks":
          [ "BLXVp3uxTLmzCBfkgvyTjciegXJN5W5YmRdwWMRyF6QpopXU6rQ" ] },
      { "delegate": "tz1Nf6tsK4G6bBqgSQERy4nUtkHNKUVdh7q1",
        "reception_time": "2022-01-17T23:41:30.586-00:00",
        "included_in_blocks":
          [ "BLXVp3uxTLmzCBfkgvyTjciegXJN5W5YmRdwWMRyF6QpopXU6rQ" ] },
      { "delegate": "tz1SYq214SCBy9naR6cvycQsYcUGpBqQAE8d",
        "reception_time": "2022-01-17T23:41:30.658-00:00",
        "included_in_blocks":
          [ "BLXVp3uxTLmzCBfkgvyTjciegXJN5W5YmRdwWMRyF6QpopXU6rQ" ] },
      { "delegate": "tz1cig1EHyvZd7J2k389moM9PxVgPQvmFkvi",
        "reception_time": "2022-01-17T23:41:30.666-00:00",
        "included_in_blocks":
          [ "BLXVp3uxTLmzCBfkgvyTjciegXJN5W5YmRdwWMRyF6QpopXU6rQ" ] },
      { "delegate": "tz1RAQJ6mcKiG6odfM3RH7iJYR1aRWRAuf5T",
        "reception_time": "2022-01-17T23:41:30.704-00:00",
        "included_in_blocks":
          [ "BLXVp3uxTLmzCBfkgvyTjciegXJN5W5YmRdwWMRyF6QpopXU6rQ" ] },
      { "delegate": "tz3WMqdzXqRWXwyvj5Hp2H7QEepaUuS7vd9K",
        "reception_time": "2022-01-17T23:41:30.807-00:00",
        "included_in_blocks":
          [ "BLXVp3uxTLmzCBfkgvyTjciegXJN5W5YmRdwWMRyF6QpopXU6rQ" ] },
      { "delegate": "tz1T7duV5gZWSTq4YpBGbXNLTfznCLDrFxvs",
        "reception_time": "2022-01-17T23:41:30.834-00:00",
        "included_in_blocks":
          [ "BLXVp3uxTLmzCBfkgvyTjciegXJN5W5YmRdwWMRyF6QpopXU6rQ" ] },
      { "delegate": "tz1RzwaogUQ8zPntqrSn4yn5f3VquXfEH5Jo",
        "reception_time": "2022-01-17T23:41:30.912-00:00",
        "included_in_blocks":
          [ "BLXVp3uxTLmzCBfkgvyTjciegXJN5W5YmRdwWMRyF6QpopXU6rQ" ] },
      { "delegate": "tz3bvNMQ95vfAYtG8193ymshqjSvmxiCUuR5",
        "reception_time": "2022-01-17T23:41:30.925-00:00",
        "included_in_blocks":
          [ "BLXVp3uxTLmzCBfkgvyTjciegXJN5W5YmRdwWMRyF6QpopXU6rQ" ] },
      { "delegate": "tz3VEZ4k6a4Wx42iyev6i2aVAptTRLEAivNN",
        "reception_time": "2022-01-17T23:41:30.937-00:00",
        "included_in_blocks":
          [ "BLXVp3uxTLmzCBfkgvyTjciegXJN5W5YmRdwWMRyF6QpopXU6rQ" ] },
      { "delegate": "tz3NExpXn9aPNZPorRE4SdjJ2RGrfbJgMAaV",
        "reception_time": "2022-01-17T23:41:31.036-00:00",
        "included_in_blocks":
          [ "BLXVp3uxTLmzCBfkgvyTjciegXJN5W5YmRdwWMRyF6QpopXU6rQ" ] },
      { "delegate": "tz1dRKU4FQ9QRRQPdaH4zCR6gmCmXfcvcgtB",
        "reception_time": "2022-01-17T23:41:31.165-00:00",
        "included_in_blocks":
          [ "BLXVp3uxTLmzCBfkgvyTjciegXJN5W5YmRdwWMRyF6QpopXU6rQ" ] },
      { "delegate": "tz3UoffC7FG7zfpmvmjUmUeAaHvzdcUvAj6r",
        "reception_time": "2022-01-17T23:41:31.280-00:00",
        "included_in_blocks":
          [ "BLXVp3uxTLmzCBfkgvyTjciegXJN5W5YmRdwWMRyF6QpopXU6rQ" ] },
      { "delegate": "tz1cYufsxHXJcvANhvS55h3aY32a9BAFB494",
        "reception_time": "2022-01-17T23:41:31.359-00:00",
        "included_in_blocks":
          [ "BLXVp3uxTLmzCBfkgvyTjciegXJN5W5YmRdwWMRyF6QpopXU6rQ" ] },
      { "delegate": "tz1aRoaRhSpRYvFdyvgWLL6TGyRoGF51wDjM",
        "reception_time": "2022-01-17T23:41:32.097-00:00",
        "included_in_blocks":
          [ "BLXVp3uxTLmzCBfkgvyTjciegXJN5W5YmRdwWMRyF6QpopXU6rQ" ] },
      { "delegate": "tz1M1gA1hgmmLf8VvtAwupbWCkaciQZMFbvi",
        "reception_time": "2022-01-17T23:41:32.448-00:00",
        "included_in_blocks":
          [ "BLXVp3uxTLmzCBfkgvyTjciegXJN5W5YmRdwWMRyF6QpopXU6rQ" ] },
      { "delegate": "tz3hw2kqXhLUvY65ca1eety2oQTpAvd34R9Q",
        "reception_time": "2022-01-17T23:41:32.860-00:00",
        "included_in_blocks":
          [ "BLXVp3uxTLmzCBfkgvyTjciegXJN5W5YmRdwWMRyF6QpopXU6rQ" ] },
      { "delegate": "tz3RKYFsLuQzKBtmYuLNas7uMu3AsYd4QdsA",
        "reception_time": "2022-01-17T23:41:32.911-00:00",
        "included_in_blocks":
          [ "BLXVp3uxTLmzCBfkgvyTjciegXJN5W5YmRdwWMRyF6QpopXU6rQ" ] },
      { "delegate": "tz1go7f6mEQfT2xX2LuHAqgnRGN6c2zHPf5c",
        "reception_time": "2022-01-17T23:41:36.282-00:00",
        "included_in_blocks":
          [ "BLXVp3uxTLmzCBfkgvyTjciegXJN5W5YmRdwWMRyF6QpopXU6rQ" ] } ] }