{ "blocks":
    [ { "hash": "BKt9M8nmQW1xxoD5uw1mBrwNn4vdx8Uyu2DwtQqGZCcQignfhT8",
        "delegate": "tz1VQnqCCqX4K5sP3FNkVSNKTdCAMJDd3E1n",
        "reception_time": "2022-01-17T22:31:03.672-00:00",
        "timestamp": "2022-01-17T22:31:00Z" } ],
  "endorsements":
    [ { "delegate": "tz1V3yg82mcrPJbegqVCPn6bC8w1CSTRp3f8" },
      { "delegate": "tz1RjoHc98dBoqaH2jawF62XNKh7YsHwbkEv" },
      { "delegate": "tz1WnyXakHZKotpQHxevTnLmomz5rTwdiccy",
        "reception_time": "2022-01-17T22:31:12.542-00:00",
        "included_in_blocks":
          [ "BLRQnHrZkVYmpwr4pAmF8LJemiV45nneFpndmeaEwLaVZStJjPh" ] },
      { "delegate": "tz1NuUu12WHdW3jHqvkujGHsiTi46Wvw1ci1",
        "reception_time": "2022-01-17T22:31:07.679-00:00",
        "included_in_blocks":
          [ "BLRQnHrZkVYmpwr4pAmF8LJemiV45nneFpndmeaEwLaVZStJjPh" ] },
      { "delegate": "tz1dRKU4FQ9QRRQPdaH4zCR6gmCmXfcvcgtB",
        "reception_time": "2022-01-17T22:31:07.483-00:00",
        "included_in_blocks":
          [ "BLRQnHrZkVYmpwr4pAmF8LJemiV45nneFpndmeaEwLaVZStJjPh" ] },
      { "delegate": "tz3NExpXn9aPNZPorRE4SdjJ2RGrfbJgMAaV",
        "reception_time": "2022-01-17T22:31:07.564-00:00",
        "included_in_blocks":
          [ "BLRQnHrZkVYmpwr4pAmF8LJemiV45nneFpndmeaEwLaVZStJjPh" ] },
      { "delegate": "tz1cYufsxHXJcvANhvS55h3aY32a9BAFB494",
        "reception_time": "2022-01-17T22:31:07.476-00:00",
        "included_in_blocks":
          [ "BLRQnHrZkVYmpwr4pAmF8LJemiV45nneFpndmeaEwLaVZStJjPh" ] },
      { "delegate": "tz3VEZ4k6a4Wx42iyev6i2aVAptTRLEAivNN",
        "reception_time": "2022-01-17T22:31:07.355-00:00",
        "included_in_blocks":
          [ "BLRQnHrZkVYmpwr4pAmF8LJemiV45nneFpndmeaEwLaVZStJjPh" ] },
      { "delegate": "tz1irJKkXS2DBWkU1NnmFQx1c1L7pbGg4yhk",
        "reception_time": "2022-01-17T22:31:07.220-00:00",
        "included_in_blocks":
          [ "BLRQnHrZkVYmpwr4pAmF8LJemiV45nneFpndmeaEwLaVZStJjPh" ] },
      { "delegate": "tz1aRoaRhSpRYvFdyvgWLL6TGyRoGF51wDjM",
        "reception_time": "2022-01-17T22:31:07.365-00:00",
        "included_in_blocks":
          [ "BLRQnHrZkVYmpwr4pAmF8LJemiV45nneFpndmeaEwLaVZStJjPh" ] },
      { "delegate": "tz3WMqdzXqRWXwyvj5Hp2H7QEepaUuS7vd9K",
        "reception_time": "2022-01-17T22:31:07.059-00:00",
        "included_in_blocks":
          [ "BLRQnHrZkVYmpwr4pAmF8LJemiV45nneFpndmeaEwLaVZStJjPh" ] },
      { "delegate": "tz1S8MNvuFEUsWgjHvi3AxibRBf388NhT1q2",
        "reception_time": "2022-01-17T22:31:07.018-00:00",
        "included_in_blocks":
          [ "BLRQnHrZkVYmpwr4pAmF8LJemiV45nneFpndmeaEwLaVZStJjPh" ] },
      { "delegate": "tz3RDC3Jdn4j15J7bBHZd29EUee9gVB1CxD9",
        "reception_time": "2022-01-17T22:31:07.025-00:00",
        "included_in_blocks":
          [ "BLRQnHrZkVYmpwr4pAmF8LJemiV45nneFpndmeaEwLaVZStJjPh" ] },
      { "delegate": "tz1WwDDoqA6h1wAnAoT5jiCYJz5CB43f3D78",
        "reception_time": "2022-01-17T22:31:06.852-00:00",
        "included_in_blocks":
          [ "BLRQnHrZkVYmpwr4pAmF8LJemiV45nneFpndmeaEwLaVZStJjPh" ] },
      { "delegate": "tz1M1gA1hgmmLf8VvtAwupbWCkaciQZMFbvi",
        "reception_time": "2022-01-17T22:31:06.905-00:00",
        "included_in_blocks":
          [ "BLRQnHrZkVYmpwr4pAmF8LJemiV45nneFpndmeaEwLaVZStJjPh" ] },
      { "delegate": "tz1TRqbYbUf2GyrjErf3hBzgBJPzW8y36qEs",
        "reception_time": "2022-01-17T22:31:06.825-00:00",
        "included_in_blocks":
          [ "BLRQnHrZkVYmpwr4pAmF8LJemiV45nneFpndmeaEwLaVZStJjPh" ] },
      { "delegate": "tz1WctSwL49BZtdWAQ75NY6vr4xsAx6oKdah",
        "reception_time": "2022-01-17T22:31:06.836-00:00",
        "included_in_blocks":
          [ "BLRQnHrZkVYmpwr4pAmF8LJemiV45nneFpndmeaEwLaVZStJjPh" ] },
      { "delegate": "tz1eVaNx3gCmG1EsLjijkmgAxdLYVf6Bf5Sq",
        "reception_time": "2022-01-17T22:31:06.901-00:00",
        "included_in_blocks":
          [ "BLRQnHrZkVYmpwr4pAmF8LJemiV45nneFpndmeaEwLaVZStJjPh" ] },
      { "delegate": "tz1NEKxGEHsFufk87CVZcrqWu8o22qh46GK6",
        "reception_time": "2022-01-17T22:31:06.678-00:00",
        "included_in_blocks":
          [ "BLRQnHrZkVYmpwr4pAmF8LJemiV45nneFpndmeaEwLaVZStJjPh" ] },
      { "delegate": "tz3UoffC7FG7zfpmvmjUmUeAaHvzdcUvAj6r",
        "reception_time": "2022-01-17T22:31:06.543-00:00",
        "included_in_blocks":
          [ "BLRQnHrZkVYmpwr4pAmF8LJemiV45nneFpndmeaEwLaVZStJjPh" ] },
      { "delegate": "tz1WBfwbT66FC6BTLexc2BoyCCBM9LG7pnVW",
        "reception_time": "2022-01-17T22:31:06.447-00:00",
        "included_in_blocks":
          [ "BLRQnHrZkVYmpwr4pAmF8LJemiV45nneFpndmeaEwLaVZStJjPh" ] },
      { "delegate": "tz1KfEsrtDaA1sX7vdM4qmEPWuSytuqCDp5j",
        "reception_time": "2022-01-17T22:31:06.178-00:00",
        "included_in_blocks":
          [ "BLRQnHrZkVYmpwr4pAmF8LJemiV45nneFpndmeaEwLaVZStJjPh" ] },
      { "delegate": "tz2FCNBrERXtaTtNX6iimR1UJ5JSDxvdHM93",
        "reception_time": "2022-01-17T22:31:06.318-00:00",
        "included_in_blocks":
          [ "BLRQnHrZkVYmpwr4pAmF8LJemiV45nneFpndmeaEwLaVZStJjPh" ] },
      { "delegate": "tz1dNVDWPf3Q59SdJqnjdnu277iyvReiRS9M",
        "reception_time": "2022-01-17T22:31:06.394-00:00",
        "included_in_blocks":
          [ "BLRQnHrZkVYmpwr4pAmF8LJemiV45nneFpndmeaEwLaVZStJjPh" ] },
      { "delegate": "tz1fwnfJNgiDACshK9avfRfFbMaXrs3ghoJa",
        "reception_time": "2022-01-17T22:31:06.305-00:00",
        "included_in_blocks":
          [ "BLRQnHrZkVYmpwr4pAmF8LJemiV45nneFpndmeaEwLaVZStJjPh" ] },
      { "delegate": "tz1NSDFKuRyzHxpfG1AMkyCwEiZ52cbR2mRW",
        "reception_time": "2022-01-17T22:31:06.141-00:00",
        "included_in_blocks":
          [ "BLRQnHrZkVYmpwr4pAmF8LJemiV45nneFpndmeaEwLaVZStJjPh" ] },
      { "delegate": "tz1S4zxqvZteyYGtN4P1VXjpGW26PipB1zpD",
        "reception_time": "2022-01-17T22:31:06.136-00:00",
        "included_in_blocks":
          [ "BLRQnHrZkVYmpwr4pAmF8LJemiV45nneFpndmeaEwLaVZStJjPh" ] },
      { "delegate": "tz1ei4WtWEMEJekSv8qDnu9PExG6Q8HgRGr3",
        "reception_time": "2022-01-17T22:31:06.123-00:00",
        "included_in_blocks":
          [ "BLRQnHrZkVYmpwr4pAmF8LJemiV45nneFpndmeaEwLaVZStJjPh" ] },
      { "delegate": "tz3RB4aoyjov4KEVRbuhvQ1CKJgBJMWhaeB8",
        "reception_time": "2022-01-17T22:31:05.985-00:00",
        "included_in_blocks":
          [ "BLRQnHrZkVYmpwr4pAmF8LJemiV45nneFpndmeaEwLaVZStJjPh" ] },
      { "delegate": "tz1gfArv665EUkSg2ojMBzcbfwuPxAvqPvjo",
        "reception_time": "2022-01-17T22:31:06.030-00:00",
        "included_in_blocks":
          [ "BLRQnHrZkVYmpwr4pAmF8LJemiV45nneFpndmeaEwLaVZStJjPh" ] },
      { "delegate": "tz3bvNMQ95vfAYtG8193ymshqjSvmxiCUuR5",
        "reception_time": "2022-01-17T22:31:05.977-00:00",
        "included_in_blocks":
          [ "BLRQnHrZkVYmpwr4pAmF8LJemiV45nneFpndmeaEwLaVZStJjPh" ] },
      { "delegate": "tz1V4qCyvPKZ5UeqdH14HN42rxvNPQfc9UZg",
        "reception_time": "2022-01-17T22:31:05.867-00:00",
        "included_in_blocks":
          [ "BLRQnHrZkVYmpwr4pAmF8LJemiV45nneFpndmeaEwLaVZStJjPh" ] },
      { "delegate": "tz1SYq214SCBy9naR6cvycQsYcUGpBqQAE8d",
        "reception_time": "2022-01-17T22:31:05.893-00:00",
        "included_in_blocks":
          [ "BLRQnHrZkVYmpwr4pAmF8LJemiV45nneFpndmeaEwLaVZStJjPh" ] },
      { "delegate": "tz3bTdwZinP8U1JmSweNzVKhmwafqWmFWRfk",
        "reception_time": "2022-01-17T22:31:05.832-00:00",
        "included_in_blocks":
          [ "BLRQnHrZkVYmpwr4pAmF8LJemiV45nneFpndmeaEwLaVZStJjPh" ] },
      { "delegate": "tz1MH387oMRFco3kzz8t3wuqdbpAyTcKZtsg",
        "reception_time": "2022-01-17T22:31:06.103-00:00",
        "included_in_blocks":
          [ "BLRQnHrZkVYmpwr4pAmF8LJemiV45nneFpndmeaEwLaVZStJjPh" ] },
      { "delegate": "tz1PWCDnz783NNGGQjEFFsHtrcK5yBW4E2rm",
        "reception_time": "2022-01-17T22:31:05.909-00:00",
        "included_in_blocks":
          [ "BLRQnHrZkVYmpwr4pAmF8LJemiV45nneFpndmeaEwLaVZStJjPh" ] },
      { "delegate": "tz1g8vkmcde6sWKaG2NN9WKzCkDM6Rziq194",
        "reception_time": "2022-01-17T22:31:06.008-00:00",
        "included_in_blocks":
          [ "BLRQnHrZkVYmpwr4pAmF8LJemiV45nneFpndmeaEwLaVZStJjPh" ] },
      { "delegate": "tz1RCFbB9GpALpsZtu6J58sb74dm8qe6XBzv",
        "reception_time": "2022-01-17T22:31:05.574-00:00",
        "included_in_blocks":
          [ "BLRQnHrZkVYmpwr4pAmF8LJemiV45nneFpndmeaEwLaVZStJjPh" ] },
      { "delegate": "tz3Zhs2dygr55yHyQyKjntAtY9bgfhLZ4Xj1",
        "reception_time": "2022-01-17T22:31:05.313-00:00",
        "included_in_blocks":
          [ "BLRQnHrZkVYmpwr4pAmF8LJemiV45nneFpndmeaEwLaVZStJjPh" ] },
      { "delegate": "tz3hw2kqXhLUvY65ca1eety2oQTpAvd34R9Q",
        "reception_time": "2022-01-17T22:31:05.256-00:00",
        "included_in_blocks":
          [ "BLRQnHrZkVYmpwr4pAmF8LJemiV45nneFpndmeaEwLaVZStJjPh" ] },
      { "delegate": "tz1Nf6tsK4G6bBqgSQERy4nUtkHNKUVdh7q1",
        "reception_time": "2022-01-17T22:31:05.903-00:00",
        "included_in_blocks":
          [ "BLRQnHrZkVYmpwr4pAmF8LJemiV45nneFpndmeaEwLaVZStJjPh" ] },
      { "delegate": "tz3QT9dHYKDqh563chVa6za8526ys1UKfRfL",
        "reception_time": "2022-01-17T22:31:05.624-00:00",
        "included_in_blocks":
          [ "BLRQnHrZkVYmpwr4pAmF8LJemiV45nneFpndmeaEwLaVZStJjPh" ] },
      { "delegate": "tz3S6BBeKgJGXxvLyZ1xzXzMPn11nnFtq5L9",
        "reception_time": "2022-01-17T22:31:05.672-00:00",
        "included_in_blocks":
          [ "BLRQnHrZkVYmpwr4pAmF8LJemiV45nneFpndmeaEwLaVZStJjPh" ] },
      { "delegate": "tz3QCNyySViKHmeSr45kzDxzchys7NiXCWoa",
        "reception_time": "2022-01-17T22:31:05.072-00:00",
        "included_in_blocks":
          [ "BLRQnHrZkVYmpwr4pAmF8LJemiV45nneFpndmeaEwLaVZStJjPh" ] },
      { "delegate": "tz1VmiY38m3y95HqQLjMwqnMS7sdMfGomzKi",
        "reception_time": "2022-01-17T22:31:05.198-00:00",
        "included_in_blocks":
          [ "BLRQnHrZkVYmpwr4pAmF8LJemiV45nneFpndmeaEwLaVZStJjPh" ] },
      { "delegate": "tz1Kt4P8BCaP93AEV4eA7gmpRryWt5hznjCP",
        "reception_time": "2022-01-17T22:31:05.045-00:00",
        "included_in_blocks":
          [ "BLRQnHrZkVYmpwr4pAmF8LJemiV45nneFpndmeaEwLaVZStJjPh" ] },
      { "delegate": "tz3RKYFsLuQzKBtmYuLNas7uMu3AsYd4QdsA",
        "reception_time": "2022-01-17T22:31:05.220-00:00",
        "included_in_blocks":
          [ "BLRQnHrZkVYmpwr4pAmF8LJemiV45nneFpndmeaEwLaVZStJjPh" ] },
      { "delegate": "tz3gtoUxdudfBRcNY7iVdKPHCYYX6xdPpoRS",
        "reception_time": "2022-01-17T22:31:05.102-00:00",
        "included_in_blocks":
          [ "BLRQnHrZkVYmpwr4pAmF8LJemiV45nneFpndmeaEwLaVZStJjPh" ] },
      { "delegate": "tz3NxTnke1acr8o3h5y9ytf5awQBGNJUKzVU",
        "reception_time": "2022-01-17T22:31:05.088-00:00",
        "included_in_blocks":
          [ "BLRQnHrZkVYmpwr4pAmF8LJemiV45nneFpndmeaEwLaVZStJjPh" ] },
      { "delegate": "tz1WCd2jm4uSt4vntk4vSuUWoZQGhLcDuR9q",
        "reception_time": "2022-01-17T22:31:05.164-00:00",
        "included_in_blocks":
          [ "BLRQnHrZkVYmpwr4pAmF8LJemiV45nneFpndmeaEwLaVZStJjPh" ] },
      { "delegate": "tz3ZbP2pM3nwvXztbuMJwJnDvV5xdpU8UkkD",
        "reception_time": "2022-01-17T22:31:05.164-00:00",
        "included_in_blocks":
          [ "BLRQnHrZkVYmpwr4pAmF8LJemiV45nneFpndmeaEwLaVZStJjPh" ] },
      { "delegate": "tz1bsdrs36X5BTH83RHUBdUouKLJZK8d2oBa",
        "reception_time": "2022-01-17T22:31:04.889-00:00",
        "included_in_blocks":
          [ "BLRQnHrZkVYmpwr4pAmF8LJemiV45nneFpndmeaEwLaVZStJjPh" ] },
      { "delegate": "tz1MJx9vhaNRSimcuXPK2rW4fLccQnDAnVKJ",
        "reception_time": "2022-01-17T22:31:04.920-00:00",
        "included_in_blocks":
          [ "BLRQnHrZkVYmpwr4pAmF8LJemiV45nneFpndmeaEwLaVZStJjPh" ] },
      { "delegate": "tz1Ldzz6k1BHdhuKvAtMRX7h5kJSMHESMHLC",
        "reception_time": "2022-01-17T22:31:04.931-00:00",
        "included_in_blocks":
          [ "BLRQnHrZkVYmpwr4pAmF8LJemiV45nneFpndmeaEwLaVZStJjPh" ] },
      { "delegate": "tz1TzaNn7wSQSP5gYPXCnNzBCpyMiidCq1PX",
        "reception_time": "2022-01-17T22:31:05.053-00:00",
        "included_in_blocks":
          [ "BLRQnHrZkVYmpwr4pAmF8LJemiV45nneFpndmeaEwLaVZStJjPh" ] },
      { "delegate": "tz1Zhv3RkfU2pHrmaiDyxp7kFZpZrUCu1CiF",
        "reception_time": "2022-01-17T22:31:04.440-00:00",
        "included_in_blocks":
          [ "BLRQnHrZkVYmpwr4pAmF8LJemiV45nneFpndmeaEwLaVZStJjPh" ] },
      { "delegate": "tz1gUNyn3hmnEWqkusWPzxRaon1cs7ndWh7h",
        "reception_time": "2022-01-17T22:31:04.454-00:00",
        "included_in_blocks":
          [ "BLRQnHrZkVYmpwr4pAmF8LJemiV45nneFpndmeaEwLaVZStJjPh" ] },
      { "delegate": "tz1VQnqCCqX4K5sP3FNkVSNKTdCAMJDd3E1n",
        "reception_time": "2022-01-17T22:31:04.436-00:00",
        "included_in_blocks":
          [ "BLRQnHrZkVYmpwr4pAmF8LJemiV45nneFpndmeaEwLaVZStJjPh" ] },
      { "delegate": "tz1S8e9GgdZG78XJRB3NqabfWeM37GnhZMWQ",
        "reception_time": "2022-01-17T22:31:04.447-00:00",
        "included_in_blocks":
          [ "BLRQnHrZkVYmpwr4pAmF8LJemiV45nneFpndmeaEwLaVZStJjPh" ] },
      { "delegate": "tz1P2Po7YM526ughEsRbY4oR9zaUPDZjxFrb",
        "reception_time": "2022-01-17T22:31:04.426-00:00",
        "included_in_blocks":
          [ "BLRQnHrZkVYmpwr4pAmF8LJemiV45nneFpndmeaEwLaVZStJjPh" ] },
      { "delegate": "tz1Lhf4J9Qxoe3DZ2nfe8FGDnvVj7oKjnMY6",
        "reception_time": "2022-01-17T22:31:04.444-00:00",
        "included_in_blocks":
          [ "BLRQnHrZkVYmpwr4pAmF8LJemiV45nneFpndmeaEwLaVZStJjPh" ] },
      { "delegate": "tz1TRspM5SeZpaQUhzByXbEvqKF1vnCM2YTK",
        "reception_time": "2022-01-17T22:31:04.451-00:00",
        "included_in_blocks":
          [ "BLRQnHrZkVYmpwr4pAmF8LJemiV45nneFpndmeaEwLaVZStJjPh" ] },
      { "delegate": "tz1eEnQhbwf6trb8Q8mPb2RaPkNk2rN7BKi8",
        "reception_time": "2022-01-17T22:31:04.440-00:00",
        "included_in_blocks":
          [ "BLRQnHrZkVYmpwr4pAmF8LJemiV45nneFpndmeaEwLaVZStJjPh" ] } ] }