{ "blocks":
    [ { "hash": "BLfUo5Q2Dy2bqQ2HXo8wj7ZVPWfhDEW6vep9APXYwuwSjvCuznA",
        "delegate": "tz3hw2kqXhLUvY65ca1eety2oQTpAvd34R9Q",
        "reception_time": "2022-01-18T04:24:58.651-00:00",
        "timestamp": "2022-01-18T04:24:50Z" } ],
  "endorsements":
    [ { "delegate": "tz1ibcPVGK4Y8pcW4BYUsojiHoBKnZbyDGrX" },
      { "delegate": "tz1Scdr2HsZiQjc7bHMeBbmDRXYVvdhjJbBh",
        "reception_time": "2022-01-18T04:24:58.626-00:00",
        "errors":
          [ { "kind": "temporary",
              "id": "proto.011-PtHangz2.prefilter.outdated_endorsement" } ],
        "included_in_blocks":
          [ "BLxxKeqoK18WCahBPckPBzcfFCLJ9yCQF6GktAaJuh7TDAd9R6C" ] },
      { "delegate": "tz1dbfppLAAxXZNtf2SDps7rch3qfUznKSoK",
        "reception_time": "2022-01-18T04:24:58.581-00:00",
        "errors":
          [ { "kind": "temporary",
              "id": "proto.011-PtHangz2.prefilter.outdated_endorsement" } ],
        "included_in_blocks":
          [ "BLxxKeqoK18WCahBPckPBzcfFCLJ9yCQF6GktAaJuh7TDAd9R6C" ] },
      { "delegate": "tz1NpWrAyDL9k2Lmnyxcgr9xuJakbBxdq7FB",
        "reception_time": "2022-01-18T04:25:08.217-00:00",
        "included_in_blocks":
          [ "BLxxKeqoK18WCahBPckPBzcfFCLJ9yCQF6GktAaJuh7TDAd9R6C" ] },
      { "delegate": "tz1Z9M4biBHSiH38k5ciRMjR5bgk89yEgLTz",
        "reception_time": "2022-01-18T04:25:02.846-00:00",
        "included_in_blocks":
          [ "BLxxKeqoK18WCahBPckPBzcfFCLJ9yCQF6GktAaJuh7TDAd9R6C" ] },
      { "delegate": "tz3UoffC7FG7zfpmvmjUmUeAaHvzdcUvAj6r",
        "reception_time": "2022-01-18T04:25:02.626-00:00",
        "included_in_blocks":
          [ "BLxxKeqoK18WCahBPckPBzcfFCLJ9yCQF6GktAaJuh7TDAd9R6C" ] },
      { "delegate": "tz3WMqdzXqRWXwyvj5Hp2H7QEepaUuS7vd9K",
        "reception_time": "2022-01-18T04:25:02.370-00:00",
        "included_in_blocks":
          [ "BLxxKeqoK18WCahBPckPBzcfFCLJ9yCQF6GktAaJuh7TDAd9R6C" ] },
      { "delegate": "tz3NExpXn9aPNZPorRE4SdjJ2RGrfbJgMAaV",
        "reception_time": "2022-01-18T04:25:02.271-00:00",
        "included_in_blocks":
          [ "BLxxKeqoK18WCahBPckPBzcfFCLJ9yCQF6GktAaJuh7TDAd9R6C" ] },
      { "delegate": "tz1ZcTRk5uxD86EFEn1vvNffWWqJy7q5eVhc",
        "reception_time": "2022-01-18T04:25:02.301-00:00",
        "included_in_blocks":
          [ "BLxxKeqoK18WCahBPckPBzcfFCLJ9yCQF6GktAaJuh7TDAd9R6C" ] },
      { "delegate": "tz1dRKU4FQ9QRRQPdaH4zCR6gmCmXfcvcgtB",
        "reception_time": "2022-01-18T04:25:01.750-00:00",
        "included_in_blocks":
          [ "BLxxKeqoK18WCahBPckPBzcfFCLJ9yCQF6GktAaJuh7TDAd9R6C" ] },
      { "delegate": "tz3VEZ4k6a4Wx42iyev6i2aVAptTRLEAivNN",
        "reception_time": "2022-01-18T04:25:01.513-00:00",
        "included_in_blocks":
          [ "BLxxKeqoK18WCahBPckPBzcfFCLJ9yCQF6GktAaJuh7TDAd9R6C" ] },
      { "delegate": "tz1awXW7wuXy21c66vBudMXQVAPgRnqqwgTH",
        "reception_time": "2022-01-18T04:25:01.484-00:00",
        "included_in_blocks":
          [ "BLxxKeqoK18WCahBPckPBzcfFCLJ9yCQF6GktAaJuh7TDAd9R6C" ] },
      { "delegate": "tz1iEWcNL383qiDJ3Q3qt5W2T4aSKUbEU4An",
        "reception_time": "2022-01-18T04:25:01.465-00:00",
        "included_in_blocks":
          [ "BLxxKeqoK18WCahBPckPBzcfFCLJ9yCQF6GktAaJuh7TDAd9R6C" ] },
      { "delegate": "tz1UNkf4sWzC5vsKP7FnejSeJsXdc6z8Kzk4",
        "reception_time": "2022-01-18T04:25:01.457-00:00",
        "included_in_blocks":
          [ "BLxxKeqoK18WCahBPckPBzcfFCLJ9yCQF6GktAaJuh7TDAd9R6C" ] },
      { "delegate": "tz1T7duV5gZWSTq4YpBGbXNLTfznCLDrFxvs",
        "reception_time": "2022-01-18T04:25:01.413-00:00",
        "included_in_blocks":
          [ "BLxxKeqoK18WCahBPckPBzcfFCLJ9yCQF6GktAaJuh7TDAd9R6C" ] },
      { "delegate": "tz1Nf6tsK4G6bBqgSQERy4nUtkHNKUVdh7q1",
        "reception_time": "2022-01-18T04:25:01.469-00:00",
        "included_in_blocks":
          [ "BLxxKeqoK18WCahBPckPBzcfFCLJ9yCQF6GktAaJuh7TDAd9R6C" ] },
      { "delegate": "tz3bvNMQ95vfAYtG8193ymshqjSvmxiCUuR5",
        "reception_time": "2022-01-18T04:25:01.330-00:00",
        "included_in_blocks":
          [ "BLxxKeqoK18WCahBPckPBzcfFCLJ9yCQF6GktAaJuh7TDAd9R6C" ] },
      { "delegate": "tz1f3Re8iw6Pt3KMHAvyccHxDU3NuqL95axD",
        "reception_time": "2022-01-18T04:25:01.387-00:00",
        "included_in_blocks":
          [ "BLxxKeqoK18WCahBPckPBzcfFCLJ9yCQF6GktAaJuh7TDAd9R6C" ] },
      { "delegate": "tz1NEKxGEHsFufk87CVZcrqWu8o22qh46GK6",
        "reception_time": "2022-01-18T04:25:01.378-00:00",
        "included_in_blocks":
          [ "BLxxKeqoK18WCahBPckPBzcfFCLJ9yCQF6GktAaJuh7TDAd9R6C" ] },
      { "delegate": "tz1KfEsrtDaA1sX7vdM4qmEPWuSytuqCDp5j",
        "reception_time": "2022-01-18T04:25:01.343-00:00",
        "included_in_blocks":
          [ "BLxxKeqoK18WCahBPckPBzcfFCLJ9yCQF6GktAaJuh7TDAd9R6C" ] },
      { "delegate": "tz1PeZx7FXy7QRuMREGXGxeipb24RsMMzUNe",
        "reception_time": "2022-01-18T04:25:01.293-00:00",
        "included_in_blocks":
          [ "BLxxKeqoK18WCahBPckPBzcfFCLJ9yCQF6GktAaJuh7TDAd9R6C" ] },
      { "delegate": "tz1SohptP53wDPZhzTWzDUFAUcWF6DMBpaJV",
        "reception_time": "2022-01-18T04:25:01.182-00:00",
        "included_in_blocks":
          [ "BLxxKeqoK18WCahBPckPBzcfFCLJ9yCQF6GktAaJuh7TDAd9R6C" ] },
      { "delegate": "tz1aRoaRhSpRYvFdyvgWLL6TGyRoGF51wDjM",
        "reception_time": "2022-01-18T04:25:01.308-00:00",
        "included_in_blocks":
          [ "BLxxKeqoK18WCahBPckPBzcfFCLJ9yCQF6GktAaJuh7TDAd9R6C" ] },
      { "delegate": "tz1TRqbYbUf2GyrjErf3hBzgBJPzW8y36qEs",
        "reception_time": "2022-01-18T04:25:01.176-00:00",
        "included_in_blocks":
          [ "BLxxKeqoK18WCahBPckPBzcfFCLJ9yCQF6GktAaJuh7TDAd9R6C" ] },
      { "delegate": "tz3gLTu4Yxj8tPAcriQVUdxv6BY9QyvzU1az",
        "reception_time": "2022-01-18T04:25:01.092-00:00",
        "included_in_blocks":
          [ "BLxxKeqoK18WCahBPckPBzcfFCLJ9yCQF6GktAaJuh7TDAd9R6C" ] },
      { "delegate": "tz1WBfwbT66FC6BTLexc2BoyCCBM9LG7pnVW",
        "reception_time": "2022-01-18T04:25:01.179-00:00",
        "included_in_blocks":
          [ "BLxxKeqoK18WCahBPckPBzcfFCLJ9yCQF6GktAaJuh7TDAd9R6C" ] },
      { "delegate": "tz1RCFbB9GpALpsZtu6J58sb74dm8qe6XBzv",
        "reception_time": "2022-01-18T04:25:01.075-00:00",
        "included_in_blocks":
          [ "BLxxKeqoK18WCahBPckPBzcfFCLJ9yCQF6GktAaJuh7TDAd9R6C" ] },
      { "delegate": "tz2FCNBrERXtaTtNX6iimR1UJ5JSDxvdHM93",
        "reception_time": "2022-01-18T04:25:01.300-00:00",
        "included_in_blocks":
          [ "BLxxKeqoK18WCahBPckPBzcfFCLJ9yCQF6GktAaJuh7TDAd9R6C" ] },
      { "delegate": "tz3RDC3Jdn4j15J7bBHZd29EUee9gVB1CxD9",
        "reception_time": "2022-01-18T04:25:01.115-00:00",
        "included_in_blocks":
          [ "BLxxKeqoK18WCahBPckPBzcfFCLJ9yCQF6GktAaJuh7TDAd9R6C" ] },
      { "delegate": "tz3NDpRj6WBrJPikcPVHRBEjWKxFw3c6eQPS",
        "reception_time": "2022-01-18T04:25:01.155-00:00",
        "included_in_blocks":
          [ "BLxxKeqoK18WCahBPckPBzcfFCLJ9yCQF6GktAaJuh7TDAd9R6C" ] },
      { "delegate": "tz1Tnjaxk6tbAeC2TmMApPh8UsrEVQvhHvx5",
        "reception_time": "2022-01-18T04:25:01.057-00:00",
        "included_in_blocks":
          [ "BLxxKeqoK18WCahBPckPBzcfFCLJ9yCQF6GktAaJuh7TDAd9R6C" ] },
      { "delegate": "tz1SYq214SCBy9naR6cvycQsYcUGpBqQAE8d",
        "reception_time": "2022-01-18T04:25:01.054-00:00",
        "included_in_blocks":
          [ "BLxxKeqoK18WCahBPckPBzcfFCLJ9yCQF6GktAaJuh7TDAd9R6C" ] },
      { "delegate": "tz1ei4WtWEMEJekSv8qDnu9PExG6Q8HgRGr3",
        "reception_time": "2022-01-18T04:25:01.193-00:00",
        "included_in_blocks":
          [ "BLxxKeqoK18WCahBPckPBzcfFCLJ9yCQF6GktAaJuh7TDAd9R6C" ] },
      { "delegate": "tz3e75hU4EhDU3ukyJueh5v6UvEHzGwkg3yC",
        "reception_time": "2022-01-18T04:25:00.999-00:00",
        "included_in_blocks":
          [ "BLxxKeqoK18WCahBPckPBzcfFCLJ9yCQF6GktAaJuh7TDAd9R6C" ] },
      { "delegate": "tz1RpeqCseogMpCPXpyGjhmLH9i9DhqJ8cUR",
        "reception_time": "2022-01-18T04:25:01.011-00:00",
        "included_in_blocks":
          [ "BLxxKeqoK18WCahBPckPBzcfFCLJ9yCQF6GktAaJuh7TDAd9R6C" ] },
      { "delegate": "tz1RQhNh7iB9CZA7i3ifTWNwiGYVffponfbB",
        "reception_time": "2022-01-18T04:25:01.067-00:00",
        "included_in_blocks":
          [ "BLxxKeqoK18WCahBPckPBzcfFCLJ9yCQF6GktAaJuh7TDAd9R6C" ] },
      { "delegate": "tz3RB4aoyjov4KEVRbuhvQ1CKJgBJMWhaeB8",
        "reception_time": "2022-01-18T04:25:01.011-00:00",
        "included_in_blocks":
          [ "BLxxKeqoK18WCahBPckPBzcfFCLJ9yCQF6GktAaJuh7TDAd9R6C" ] },
      { "delegate": "tz1TEc75UKXv4W5cwi14Na3NtqFD51yKQi7h",
        "reception_time": "2022-01-18T04:25:01.206-00:00",
        "included_in_blocks":
          [ "BLxxKeqoK18WCahBPckPBzcfFCLJ9yCQF6GktAaJuh7TDAd9R6C" ] },
      { "delegate": "tz1LmaFsWRkjr7QMCx5PtV6xTUz3AmEpKQiF",
        "reception_time": "2022-01-18T04:25:01.020-00:00",
        "included_in_blocks":
          [ "BLxxKeqoK18WCahBPckPBzcfFCLJ9yCQF6GktAaJuh7TDAd9R6C" ] },
      { "delegate": "tz1SUgyRB8T5jXgXAwS33pgRHAKrafyg87Yc",
        "reception_time": "2022-01-18T04:25:01.038-00:00",
        "included_in_blocks":
          [ "BLxxKeqoK18WCahBPckPBzcfFCLJ9yCQF6GktAaJuh7TDAd9R6C" ] },
      { "delegate": "tz1gfArv665EUkSg2ojMBzcbfwuPxAvqPvjo",
        "reception_time": "2022-01-18T04:25:01.128-00:00",
        "included_in_blocks":
          [ "BLxxKeqoK18WCahBPckPBzcfFCLJ9yCQF6GktAaJuh7TDAd9R6C" ] },
      { "delegate": "tz1VmiY38m3y95HqQLjMwqnMS7sdMfGomzKi",
        "reception_time": "2022-01-18T04:25:01.082-00:00",
        "included_in_blocks":
          [ "BLxxKeqoK18WCahBPckPBzcfFCLJ9yCQF6GktAaJuh7TDAd9R6C" ] },
      { "delegate": "tz1S8MNvuFEUsWgjHvi3AxibRBf388NhT1q2",
        "reception_time": "2022-01-18T04:25:00.653-00:00",
        "included_in_blocks":
          [ "BLxxKeqoK18WCahBPckPBzcfFCLJ9yCQF6GktAaJuh7TDAd9R6C" ] },
      { "delegate": "tz1d8SMQTY56YRsCEa5UZNnKgWe2yP7obxKs",
        "reception_time": "2022-01-18T04:25:00.513-00:00",
        "included_in_blocks":
          [ "BLxxKeqoK18WCahBPckPBzcfFCLJ9yCQF6GktAaJuh7TDAd9R6C" ] },
      { "delegate": "tz3QT9dHYKDqh563chVa6za8526ys1UKfRfL",
        "reception_time": "2022-01-18T04:25:00.922-00:00",
        "included_in_blocks":
          [ "BLxxKeqoK18WCahBPckPBzcfFCLJ9yCQF6GktAaJuh7TDAd9R6C" ] },
      { "delegate": "tz3bTdwZinP8U1JmSweNzVKhmwafqWmFWRfk",
        "reception_time": "2022-01-18T04:25:00.944-00:00",
        "included_in_blocks":
          [ "BLxxKeqoK18WCahBPckPBzcfFCLJ9yCQF6GktAaJuh7TDAd9R6C" ] },
      { "delegate": "tz3S6BBeKgJGXxvLyZ1xzXzMPn11nnFtq5L9",
        "reception_time": "2022-01-18T04:25:00.953-00:00",
        "included_in_blocks":
          [ "BLxxKeqoK18WCahBPckPBzcfFCLJ9yCQF6GktAaJuh7TDAd9R6C" ] },
      { "delegate": "tz3iJu5vrKZcsqRPs8yJ61UDoeEXZmtro4qh",
        "reception_time": "2022-01-18T04:25:00.614-00:00",
        "included_in_blocks":
          [ "BLxxKeqoK18WCahBPckPBzcfFCLJ9yCQF6GktAaJuh7TDAd9R6C" ] },
      { "delegate": "tz3Zhs2dygr55yHyQyKjntAtY9bgfhLZ4Xj1",
        "reception_time": "2022-01-18T04:25:00.465-00:00",
        "included_in_blocks":
          [ "BLxxKeqoK18WCahBPckPBzcfFCLJ9yCQF6GktAaJuh7TDAd9R6C" ] },
      { "delegate": "tz1TzaNn7wSQSP5gYPXCnNzBCpyMiidCq1PX",
        "reception_time": "2022-01-18T04:25:00.780-00:00",
        "included_in_blocks":
          [ "BLxxKeqoK18WCahBPckPBzcfFCLJ9yCQF6GktAaJuh7TDAd9R6C" ] },
      { "delegate": "tz1gUNyn3hmnEWqkusWPzxRaon1cs7ndWh7h",
        "reception_time": "2022-01-18T04:25:00.708-00:00",
        "included_in_blocks":
          [ "BLxxKeqoK18WCahBPckPBzcfFCLJ9yCQF6GktAaJuh7TDAd9R6C" ] },
      { "delegate": "tz1VQnqCCqX4K5sP3FNkVSNKTdCAMJDd3E1n",
        "reception_time": "2022-01-18T04:25:00.603-00:00",
        "included_in_blocks":
          [ "BLxxKeqoK18WCahBPckPBzcfFCLJ9yCQF6GktAaJuh7TDAd9R6C" ] },
      { "delegate": "tz3adcvQaKXTCg12zbninqo3q8ptKKtDFTLv",
        "reception_time": "2022-01-18T04:25:00.593-00:00",
        "included_in_blocks":
          [ "BLxxKeqoK18WCahBPckPBzcfFCLJ9yCQF6GktAaJuh7TDAd9R6C" ] },
      { "delegate": "tz1Ldzz6k1BHdhuKvAtMRX7h5kJSMHESMHLC",
        "reception_time": "2022-01-18T04:25:00.418-00:00",
        "included_in_blocks":
          [ "BLxxKeqoK18WCahBPckPBzcfFCLJ9yCQF6GktAaJuh7TDAd9R6C" ] },
      { "delegate": "tz1iMAHAVpkCVegF9FLGWUpQQeiAHh4ffdLQ",
        "reception_time": "2022-01-18T04:25:00.578-00:00",
        "included_in_blocks":
          [ "BLxxKeqoK18WCahBPckPBzcfFCLJ9yCQF6GktAaJuh7TDAd9R6C" ] },
      { "delegate": "tz1TRspM5SeZpaQUhzByXbEvqKF1vnCM2YTK",
        "reception_time": "2022-01-18T04:25:00.363-00:00",
        "included_in_blocks":
          [ "BLxxKeqoK18WCahBPckPBzcfFCLJ9yCQF6GktAaJuh7TDAd9R6C" ] },
      { "delegate": "tz1MJx9vhaNRSimcuXPK2rW4fLccQnDAnVKJ",
        "reception_time": "2022-01-18T04:25:00.603-00:00",
        "included_in_blocks":
          [ "BLxxKeqoK18WCahBPckPBzcfFCLJ9yCQF6GktAaJuh7TDAd9R6C" ] },
      { "delegate": "tz1R4D8nfepxHTDppGzsQqD5CMM4jjmk5o91",
        "reception_time": "2022-01-18T04:25:00.324-00:00",
        "included_in_blocks":
          [ "BLxxKeqoK18WCahBPckPBzcfFCLJ9yCQF6GktAaJuh7TDAd9R6C" ] },
      { "delegate": "tz3QSGPoRp3Kn7n3vY24eYeu3Peuqo45LQ4D",
        "reception_time": "2022-01-18T04:25:00.432-00:00",
        "included_in_blocks":
          [ "BLxxKeqoK18WCahBPckPBzcfFCLJ9yCQF6GktAaJuh7TDAd9R6C" ] },
      { "delegate": "tz3hw2kqXhLUvY65ca1eety2oQTpAvd34R9Q",
        "reception_time": "2022-01-18T04:25:00.378-00:00",
        "included_in_blocks":
          [ "BLxxKeqoK18WCahBPckPBzcfFCLJ9yCQF6GktAaJuh7TDAd9R6C" ] },
      { "delegate": "tz1irJKkXS2DBWkU1NnmFQx1c1L7pbGg4yhk",
        "reception_time": "2022-01-18T04:25:00.349-00:00",
        "included_in_blocks":
          [ "BLxxKeqoK18WCahBPckPBzcfFCLJ9yCQF6GktAaJuh7TDAd9R6C" ] },
      { "delegate": "tz3ZbP2pM3nwvXztbuMJwJnDvV5xdpU8UkkD",
        "reception_time": "2022-01-18T04:25:00.495-00:00",
        "included_in_blocks":
          [ "BLxxKeqoK18WCahBPckPBzcfFCLJ9yCQF6GktAaJuh7TDAd9R6C" ] },
      { "delegate": "tz1beersuEDv8Z7ngQ825xfbaJNS2EhXnyHR",
        "reception_time": "2022-01-18T04:25:00.363-00:00",
        "included_in_blocks":
          [ "BLxxKeqoK18WCahBPckPBzcfFCLJ9yCQF6GktAaJuh7TDAd9R6C" ] },
      { "delegate": "tz3RKYFsLuQzKBtmYuLNas7uMu3AsYd4QdsA",
        "reception_time": "2022-01-18T04:25:00.314-00:00",
        "included_in_blocks":
          [ "BLxxKeqoK18WCahBPckPBzcfFCLJ9yCQF6GktAaJuh7TDAd9R6C" ] },
      { "delegate": "tz1ZPh7XfUaJXUDvkrBxmS1BjEM1i62hiPpM",
        "reception_time": "2022-01-18T04:25:00.271-00:00",
        "included_in_blocks":
          [ "BLxxKeqoK18WCahBPckPBzcfFCLJ9yCQF6GktAaJuh7TDAd9R6C" ] },
      { "delegate": "tz3gtoUxdudfBRcNY7iVdKPHCYYX6xdPpoRS",
        "reception_time": "2022-01-18T04:25:00.446-00:00",
        "included_in_blocks":
          [ "BLxxKeqoK18WCahBPckPBzcfFCLJ9yCQF6GktAaJuh7TDAd9R6C" ] },
      { "delegate": "tz1P2Po7YM526ughEsRbY4oR9zaUPDZjxFrb",
        "reception_time": "2022-01-18T04:25:00.333-00:00",
        "included_in_blocks":
          [ "BLxxKeqoK18WCahBPckPBzcfFCLJ9yCQF6GktAaJuh7TDAd9R6C" ] } ] }