{ "blocks":
    [ { "hash": "BKuHRgfEHTycYYuKdMYydNP2fYMysq2Dr57iiRRKc3YgtY9BnrQ",
        "delegate": "tz1WCd2jm4uSt4vntk4vSuUWoZQGhLcDuR9q",
        "reception_time": "2022-01-18T06:31:55.228-00:00",
        "timestamp": "2022-01-18T06:31:50Z" } ],
  "endorsements":
    [ { "delegate": "tz1Vyuu4EJ5Nym4JcrfRLnp3hpaq1DSEp1Ke" },
      { "delegate": "tz1eEnQhbwf6trb8Q8mPb2RaPkNk2rN7BKi8",
        "reception_time": "2022-01-18T06:31:55.190-00:00",
        "errors":
          [ { "kind": "temporary",
              "id": "proto.011-PtHangz2.prefilter.outdated_endorsement" } ],
        "included_in_blocks":
          [ "BMCFyARH7CkN8KGBv7aX2CB4WpkfW9eUp2TQfSgY9oczjHS3Z6e" ] },
      { "delegate": "tz1MXFrtZoaXckE41bjUCSjAjAap3AFDSr3N",
        "reception_time": "2022-01-18T06:31:55.051-00:00",
        "errors":
          [ { "kind": "temporary",
              "id": "proto.011-PtHangz2.prefilter.outdated_endorsement" } ],
        "included_in_blocks":
          [ "BMCFyARH7CkN8KGBv7aX2CB4WpkfW9eUp2TQfSgY9oczjHS3Z6e" ] },
      { "delegate": "tz1S8e9GgdZG78XJRB3NqabfWeM37GnhZMWQ",
        "reception_time": "2022-01-18T06:31:54.705-00:00",
        "errors":
          [ { "kind": "temporary",
              "id": "proto.011-PtHangz2.prefilter.outdated_endorsement" } ],
        "included_in_blocks":
          [ "BMCFyARH7CkN8KGBv7aX2CB4WpkfW9eUp2TQfSgY9oczjHS3Z6e" ] },
      { "delegate": "tz1NpWrAyDL9k2Lmnyxcgr9xuJakbBxdq7FB",
        "reception_time": "2022-01-18T06:32:01.493-00:00",
        "included_in_blocks":
          [ "BMCFyARH7CkN8KGBv7aX2CB4WpkfW9eUp2TQfSgY9oczjHS3Z6e" ] },
      { "delegate": "tz1g8vkmcde6sWKaG2NN9WKzCkDM6Rziq194",
        "reception_time": "2022-01-18T06:32:00.476-00:00",
        "included_in_blocks":
          [ "BMCFyARH7CkN8KGBv7aX2CB4WpkfW9eUp2TQfSgY9oczjHS3Z6e" ] },
      { "delegate": "tz1cYufsxHXJcvANhvS55h3aY32a9BAFB494",
        "reception_time": "2022-01-18T06:31:59.846-00:00",
        "included_in_blocks":
          [ "BMCFyARH7CkN8KGBv7aX2CB4WpkfW9eUp2TQfSgY9oczjHS3Z6e" ] },
      { "delegate": "tz1TcH4Nb3aHNDJ7CGZhU7jgAK1BkSP4Lxds",
        "reception_time": "2022-01-18T06:31:59.421-00:00",
        "included_in_blocks":
          [ "BMCFyARH7CkN8KGBv7aX2CB4WpkfW9eUp2TQfSgY9oczjHS3Z6e" ] },
      { "delegate": "tz3NExpXn9aPNZPorRE4SdjJ2RGrfbJgMAaV",
        "reception_time": "2022-01-18T06:31:58.755-00:00",
        "included_in_blocks":
          [ "BMCFyARH7CkN8KGBv7aX2CB4WpkfW9eUp2TQfSgY9oczjHS3Z6e" ] },
      { "delegate": "tz1dRKU4FQ9QRRQPdaH4zCR6gmCmXfcvcgtB",
        "reception_time": "2022-01-18T06:31:58.674-00:00",
        "included_in_blocks":
          [ "BMCFyARH7CkN8KGBv7aX2CB4WpkfW9eUp2TQfSgY9oczjHS3Z6e" ] },
      { "delegate": "tz1T7duV5gZWSTq4YpBGbXNLTfznCLDrFxvs",
        "reception_time": "2022-01-18T06:31:58.655-00:00",
        "included_in_blocks":
          [ "BMCFyARH7CkN8KGBv7aX2CB4WpkfW9eUp2TQfSgY9oczjHS3Z6e" ] },
      { "delegate": "tz1R6Ej25VSerE3MkSoEEeBjKHCDTFbpKuSX",
        "reception_time": "2022-01-18T06:31:58.640-00:00",
        "included_in_blocks":
          [ "BMCFyARH7CkN8KGBv7aX2CB4WpkfW9eUp2TQfSgY9oczjHS3Z6e" ] },
      { "delegate": "tz1fJHFn6sWEd3NnBPngACuw2dggTv6nQZ7g",
        "reception_time": "2022-01-18T06:31:58.665-00:00",
        "included_in_blocks":
          [ "BMCFyARH7CkN8KGBv7aX2CB4WpkfW9eUp2TQfSgY9oczjHS3Z6e" ] },
      { "delegate": "tz1awXW7wuXy21c66vBudMXQVAPgRnqqwgTH",
        "reception_time": "2022-01-18T06:31:58.491-00:00",
        "included_in_blocks":
          [ "BMCFyARH7CkN8KGBv7aX2CB4WpkfW9eUp2TQfSgY9oczjHS3Z6e" ] },
      { "delegate": "tz1RjoHc98dBoqaH2jawF62XNKh7YsHwbkEv",
        "reception_time": "2022-01-18T06:31:58.372-00:00",
        "included_in_blocks":
          [ "BMCFyARH7CkN8KGBv7aX2CB4WpkfW9eUp2TQfSgY9oczjHS3Z6e" ] },
      { "delegate": "tz1KfEsrtDaA1sX7vdM4qmEPWuSytuqCDp5j",
        "reception_time": "2022-01-18T06:31:58.234-00:00",
        "included_in_blocks":
          [ "BMCFyARH7CkN8KGBv7aX2CB4WpkfW9eUp2TQfSgY9oczjHS3Z6e" ] },
      { "delegate": "tz3VEZ4k6a4Wx42iyev6i2aVAptTRLEAivNN",
        "reception_time": "2022-01-18T06:31:58.269-00:00",
        "included_in_blocks":
          [ "BMCFyARH7CkN8KGBv7aX2CB4WpkfW9eUp2TQfSgY9oczjHS3Z6e" ] },
      { "delegate": "tz3bvNMQ95vfAYtG8193ymshqjSvmxiCUuR5",
        "reception_time": "2022-01-18T06:31:57.888-00:00",
        "included_in_blocks":
          [ "BMCFyARH7CkN8KGBv7aX2CB4WpkfW9eUp2TQfSgY9oczjHS3Z6e" ] },
      { "delegate": "tz1NEKxGEHsFufk87CVZcrqWu8o22qh46GK6",
        "reception_time": "2022-01-18T06:31:57.810-00:00",
        "included_in_blocks":
          [ "BMCFyARH7CkN8KGBv7aX2CB4WpkfW9eUp2TQfSgY9oczjHS3Z6e" ] },
      { "delegate": "tz1TRqbYbUf2GyrjErf3hBzgBJPzW8y36qEs",
        "reception_time": "2022-01-18T06:31:57.799-00:00",
        "included_in_blocks":
          [ "BMCFyARH7CkN8KGBv7aX2CB4WpkfW9eUp2TQfSgY9oczjHS3Z6e" ] },
      { "delegate": "tz1Vd1rXpV8hTHbFXCXN3c3qzCsgcU5BZw1e",
        "reception_time": "2022-01-18T06:31:57.766-00:00",
        "included_in_blocks":
          [ "BMCFyARH7CkN8KGBv7aX2CB4WpkfW9eUp2TQfSgY9oczjHS3Z6e" ] },
      { "delegate": "tz3WMqdzXqRWXwyvj5Hp2H7QEepaUuS7vd9K",
        "reception_time": "2022-01-18T06:31:57.775-00:00",
        "included_in_blocks":
          [ "BMCFyARH7CkN8KGBv7aX2CB4WpkfW9eUp2TQfSgY9oczjHS3Z6e" ] },
      { "delegate": "tz3RB4aoyjov4KEVRbuhvQ1CKJgBJMWhaeB8",
        "reception_time": "2022-01-18T06:31:57.674-00:00",
        "included_in_blocks":
          [ "BMCFyARH7CkN8KGBv7aX2CB4WpkfW9eUp2TQfSgY9oczjHS3Z6e" ] },
      { "delegate": "tz1aRoaRhSpRYvFdyvgWLL6TGyRoGF51wDjM",
        "reception_time": "2022-01-18T06:31:57.573-00:00",
        "included_in_blocks":
          [ "BMCFyARH7CkN8KGBv7aX2CB4WpkfW9eUp2TQfSgY9oczjHS3Z6e" ] },
      { "delegate": "tz1RCFbB9GpALpsZtu6J58sb74dm8qe6XBzv",
        "reception_time": "2022-01-18T06:31:57.494-00:00",
        "included_in_blocks":
          [ "BMCFyARH7CkN8KGBv7aX2CB4WpkfW9eUp2TQfSgY9oczjHS3Z6e" ] },
      { "delegate": "tz3UoffC7FG7zfpmvmjUmUeAaHvzdcUvAj6r",
        "reception_time": "2022-01-18T06:31:57.442-00:00",
        "included_in_blocks":
          [ "BMCFyARH7CkN8KGBv7aX2CB4WpkfW9eUp2TQfSgY9oczjHS3Z6e" ] },
      { "delegate": "tz2FCNBrERXtaTtNX6iimR1UJ5JSDxvdHM93",
        "reception_time": "2022-01-18T06:31:57.311-00:00",
        "included_in_blocks":
          [ "BMCFyARH7CkN8KGBv7aX2CB4WpkfW9eUp2TQfSgY9oczjHS3Z6e" ] },
      { "delegate": "tz1Nf6tsK4G6bBqgSQERy4nUtkHNKUVdh7q1",
        "reception_time": "2022-01-18T06:31:57.272-00:00",
        "included_in_blocks":
          [ "BMCFyARH7CkN8KGBv7aX2CB4WpkfW9eUp2TQfSgY9oczjHS3Z6e" ] },
      { "delegate": "tz1WBfwbT66FC6BTLexc2BoyCCBM9LG7pnVW",
        "reception_time": "2022-01-18T06:31:57.243-00:00",
        "included_in_blocks":
          [ "BMCFyARH7CkN8KGBv7aX2CB4WpkfW9eUp2TQfSgY9oczjHS3Z6e" ] },
      { "delegate": "tz1SohptP53wDPZhzTWzDUFAUcWF6DMBpaJV",
        "reception_time": "2022-01-18T06:31:57.288-00:00",
        "included_in_blocks":
          [ "BMCFyARH7CkN8KGBv7aX2CB4WpkfW9eUp2TQfSgY9oczjHS3Z6e" ] },
      { "delegate": "tz1R4PuhxUxBBZhfLJDx2nNjbr7WorAPX1oC",
        "reception_time": "2022-01-18T06:31:57.103-00:00",
        "included_in_blocks":
          [ "BMCFyARH7CkN8KGBv7aX2CB4WpkfW9eUp2TQfSgY9oczjHS3Z6e" ] },
      { "delegate": "tz1bxVgPCiveFHSand7zn22S8ZBtvNQbqgqU",
        "reception_time": "2022-01-18T06:31:57.286-00:00",
        "included_in_blocks":
          [ "BMCFyARH7CkN8KGBv7aX2CB4WpkfW9eUp2TQfSgY9oczjHS3Z6e" ] },
      { "delegate": "tz1ei4WtWEMEJekSv8qDnu9PExG6Q8HgRGr3",
        "reception_time": "2022-01-18T06:31:57.038-00:00",
        "included_in_blocks":
          [ "BMCFyARH7CkN8KGBv7aX2CB4WpkfW9eUp2TQfSgY9oczjHS3Z6e" ] },
      { "delegate": "tz1S8MNvuFEUsWgjHvi3AxibRBf388NhT1q2",
        "reception_time": "2022-01-18T06:31:57.040-00:00",
        "included_in_blocks":
          [ "BMCFyARH7CkN8KGBv7aX2CB4WpkfW9eUp2TQfSgY9oczjHS3Z6e" ] },
      { "delegate": "tz1SYq214SCBy9naR6cvycQsYcUGpBqQAE8d",
        "reception_time": "2022-01-18T06:31:57.017-00:00",
        "included_in_blocks":
          [ "BMCFyARH7CkN8KGBv7aX2CB4WpkfW9eUp2TQfSgY9oczjHS3Z6e" ] },
      { "delegate": "tz1MQJPGNMijnXnVoBENFz9rUhaPt3S7rWoz",
        "reception_time": "2022-01-18T06:31:56.978-00:00",
        "included_in_blocks":
          [ "BMCFyARH7CkN8KGBv7aX2CB4WpkfW9eUp2TQfSgY9oczjHS3Z6e" ] },
      { "delegate": "tz3gtoUxdudfBRcNY7iVdKPHCYYX6xdPpoRS",
        "reception_time": "2022-01-18T06:31:56.955-00:00",
        "included_in_blocks":
          [ "BMCFyARH7CkN8KGBv7aX2CB4WpkfW9eUp2TQfSgY9oczjHS3Z6e" ] },
      { "delegate": "tz3QSGPoRp3Kn7n3vY24eYeu3Peuqo45LQ4D",
        "reception_time": "2022-01-18T06:31:56.947-00:00",
        "included_in_blocks":
          [ "BMCFyARH7CkN8KGBv7aX2CB4WpkfW9eUp2TQfSgY9oczjHS3Z6e" ] },
      { "delegate": "tz1gfArv665EUkSg2ojMBzcbfwuPxAvqPvjo",
        "reception_time": "2022-01-18T06:31:56.833-00:00",
        "included_in_blocks":
          [ "BMCFyARH7CkN8KGBv7aX2CB4WpkfW9eUp2TQfSgY9oczjHS3Z6e" ] },
      { "delegate": "tz1c8JTzmA6c7cm6ZmUwR7WES6akdiMa1kwt",
        "reception_time": "2022-01-18T06:31:56.842-00:00",
        "included_in_blocks":
          [ "BMCFyARH7CkN8KGBv7aX2CB4WpkfW9eUp2TQfSgY9oczjHS3Z6e" ] },
      { "delegate": "tz1LmaFsWRkjr7QMCx5PtV6xTUz3AmEpKQiF",
        "reception_time": "2022-01-18T06:31:56.845-00:00",
        "included_in_blocks":
          [ "BMCFyARH7CkN8KGBv7aX2CB4WpkfW9eUp2TQfSgY9oczjHS3Z6e" ] },
      { "delegate": "tz1abmz7jiCV2GH2u81LRrGgAFFgvQgiDiaf",
        "reception_time": "2022-01-18T06:31:56.848-00:00",
        "included_in_blocks":
          [ "BMCFyARH7CkN8KGBv7aX2CB4WpkfW9eUp2TQfSgY9oczjHS3Z6e" ] },
      { "delegate": "tz3RDC3Jdn4j15J7bBHZd29EUee9gVB1CxD9",
        "reception_time": "2022-01-18T06:31:56.792-00:00",
        "included_in_blocks":
          [ "BMCFyARH7CkN8KGBv7aX2CB4WpkfW9eUp2TQfSgY9oczjHS3Z6e" ] },
      { "delegate": "tz1ajgycuHmd2z2JbTSJxKv7x6cok2KuNSk1",
        "reception_time": "2022-01-18T06:31:56.810-00:00",
        "included_in_blocks":
          [ "BMCFyARH7CkN8KGBv7aX2CB4WpkfW9eUp2TQfSgY9oczjHS3Z6e" ] },
      { "delegate": "tz1PWCDnz783NNGGQjEFFsHtrcK5yBW4E2rm",
        "reception_time": "2022-01-18T06:31:56.733-00:00",
        "included_in_blocks":
          [ "BMCFyARH7CkN8KGBv7aX2CB4WpkfW9eUp2TQfSgY9oczjHS3Z6e" ] },
      { "delegate": "tz3bTdwZinP8U1JmSweNzVKhmwafqWmFWRfk",
        "reception_time": "2022-01-18T06:31:56.746-00:00",
        "included_in_blocks":
          [ "BMCFyARH7CkN8KGBv7aX2CB4WpkfW9eUp2TQfSgY9oczjHS3Z6e" ] },
      { "delegate": "tz3adcvQaKXTCg12zbninqo3q8ptKKtDFTLv",
        "reception_time": "2022-01-18T06:31:56.717-00:00",
        "included_in_blocks":
          [ "BMCFyARH7CkN8KGBv7aX2CB4WpkfW9eUp2TQfSgY9oczjHS3Z6e" ] },
      { "delegate": "tz1VQnqCCqX4K5sP3FNkVSNKTdCAMJDd3E1n",
        "reception_time": "2022-01-18T06:31:56.697-00:00",
        "included_in_blocks":
          [ "BMCFyARH7CkN8KGBv7aX2CB4WpkfW9eUp2TQfSgY9oczjHS3Z6e" ] },
      { "delegate": "tz1cSj7fTex3JPd1p1LN1fwek6AV1kH93Wwc",
        "reception_time": "2022-01-18T06:31:56.692-00:00",
        "included_in_blocks":
          [ "BMCFyARH7CkN8KGBv7aX2CB4WpkfW9eUp2TQfSgY9oczjHS3Z6e" ] },
      { "delegate": "tz1gUNyn3hmnEWqkusWPzxRaon1cs7ndWh7h",
        "reception_time": "2022-01-18T06:31:56.709-00:00",
        "included_in_blocks":
          [ "BMCFyARH7CkN8KGBv7aX2CB4WpkfW9eUp2TQfSgY9oczjHS3Z6e" ] },
      { "delegate": "tz1fUyqYH7H4pRHN1roWY17giXhy1RvxjgUV",
        "reception_time": "2022-01-18T06:31:56.671-00:00",
        "included_in_blocks":
          [ "BMCFyARH7CkN8KGBv7aX2CB4WpkfW9eUp2TQfSgY9oczjHS3Z6e" ] },
      { "delegate": "tz1aXD7Jigrt3PBYSpHSg5Rr33SexMmmM5Ys",
        "reception_time": "2022-01-18T06:31:56.588-00:00",
        "included_in_blocks":
          [ "BMCFyARH7CkN8KGBv7aX2CB4WpkfW9eUp2TQfSgY9oczjHS3Z6e" ] },
      { "delegate": "tz3QT9dHYKDqh563chVa6za8526ys1UKfRfL",
        "reception_time": "2022-01-18T06:31:56.622-00:00",
        "included_in_blocks":
          [ "BMCFyARH7CkN8KGBv7aX2CB4WpkfW9eUp2TQfSgY9oczjHS3Z6e" ] },
      { "delegate": "tz3S6BBeKgJGXxvLyZ1xzXzMPn11nnFtq5L9",
        "reception_time": "2022-01-18T06:31:56.685-00:00",
        "included_in_blocks":
          [ "BMCFyARH7CkN8KGBv7aX2CB4WpkfW9eUp2TQfSgY9oczjHS3Z6e" ] },
      { "delegate": "tz3QCNyySViKHmeSr45kzDxzchys7NiXCWoa",
        "reception_time": "2022-01-18T06:31:56.608-00:00",
        "included_in_blocks":
          [ "BMCFyARH7CkN8KGBv7aX2CB4WpkfW9eUp2TQfSgY9oczjHS3Z6e" ] },
      { "delegate": "tz1Kt4P8BCaP93AEV4eA7gmpRryWt5hznjCP",
        "reception_time": "2022-01-18T06:31:56.550-00:00",
        "included_in_blocks":
          [ "BMCFyARH7CkN8KGBv7aX2CB4WpkfW9eUp2TQfSgY9oczjHS3Z6e" ] },
      { "delegate": "tz1Ldzz6k1BHdhuKvAtMRX7h5kJSMHESMHLC",
        "reception_time": "2022-01-18T06:31:56.626-00:00",
        "included_in_blocks":
          [ "BMCFyARH7CkN8KGBv7aX2CB4WpkfW9eUp2TQfSgY9oczjHS3Z6e" ] },
      { "delegate": "tz1TzaNn7wSQSP5gYPXCnNzBCpyMiidCq1PX",
        "reception_time": "2022-01-18T06:31:56.507-00:00",
        "included_in_blocks":
          [ "BMCFyARH7CkN8KGBv7aX2CB4WpkfW9eUp2TQfSgY9oczjHS3Z6e" ] },
      { "delegate": "tz1cX93Q3KsiTADpCC4f12TBvAmS5tw7CW19",
        "reception_time": "2022-01-18T06:31:56.532-00:00",
        "included_in_blocks":
          [ "BMCFyARH7CkN8KGBv7aX2CB4WpkfW9eUp2TQfSgY9oczjHS3Z6e" ] },
      { "delegate": "tz3hw2kqXhLUvY65ca1eety2oQTpAvd34R9Q",
        "reception_time": "2022-01-18T06:31:56.527-00:00",
        "included_in_blocks":
          [ "BMCFyARH7CkN8KGBv7aX2CB4WpkfW9eUp2TQfSgY9oczjHS3Z6e" ] },
      { "delegate": "tz1TRspM5SeZpaQUhzByXbEvqKF1vnCM2YTK",
        "reception_time": "2022-01-18T06:31:56.495-00:00",
        "included_in_blocks":
          [ "BMCFyARH7CkN8KGBv7aX2CB4WpkfW9eUp2TQfSgY9oczjHS3Z6e" ] },
      { "delegate": "tz3NxTnke1acr8o3h5y9ytf5awQBGNJUKzVU",
        "reception_time": "2022-01-18T06:31:56.539-00:00",
        "included_in_blocks":
          [ "BMCFyARH7CkN8KGBv7aX2CB4WpkfW9eUp2TQfSgY9oczjHS3Z6e" ] },
      { "delegate": "tz3RKYFsLuQzKBtmYuLNas7uMu3AsYd4QdsA",
        "reception_time": "2022-01-18T06:31:56.488-00:00",
        "included_in_blocks":
          [ "BMCFyARH7CkN8KGBv7aX2CB4WpkfW9eUp2TQfSgY9oczjHS3Z6e" ] },
      { "delegate": "tz3ZbP2pM3nwvXztbuMJwJnDvV5xdpU8UkkD",
        "reception_time": "2022-01-18T06:31:56.504-00:00",
        "included_in_blocks":
          [ "BMCFyARH7CkN8KGBv7aX2CB4WpkfW9eUp2TQfSgY9oczjHS3Z6e" ] },
      { "delegate": "tz1bsdrs36X5BTH83RHUBdUouKLJZK8d2oBa",
        "reception_time": "2022-01-18T06:31:56.544-00:00",
        "included_in_blocks":
          [ "BMCFyARH7CkN8KGBv7aX2CB4WpkfW9eUp2TQfSgY9oczjHS3Z6e" ] },
      { "delegate": "tz1iMAHAVpkCVegF9FLGWUpQQeiAHh4ffdLQ",
        "reception_time": "2022-01-18T06:31:56.479-00:00",
        "included_in_blocks":
          [ "BMCFyARH7CkN8KGBv7aX2CB4WpkfW9eUp2TQfSgY9oczjHS3Z6e" ] },
      { "delegate": "tz3Zhs2dygr55yHyQyKjntAtY9bgfhLZ4Xj1",
        "reception_time": "2022-01-18T06:31:56.559-00:00",
        "included_in_blocks":
          [ "BMCFyARH7CkN8KGBv7aX2CB4WpkfW9eUp2TQfSgY9oczjHS3Z6e" ] },
      { "delegate": "tz3iJu5vrKZcsqRPs8yJ61UDoeEXZmtro4qh",
        "reception_time": "2022-01-18T06:31:56.566-00:00",
        "included_in_blocks":
          [ "BMCFyARH7CkN8KGBv7aX2CB4WpkfW9eUp2TQfSgY9oczjHS3Z6e" ] },
      { "delegate": "tz1irJKkXS2DBWkU1NnmFQx1c1L7pbGg4yhk",
        "reception_time": "2022-01-18T06:31:56.544-00:00",
        "included_in_blocks":
          [ "BMCFyARH7CkN8KGBv7aX2CB4WpkfW9eUp2TQfSgY9oczjHS3Z6e" ] },
      { "delegate": "tz1WCd2jm4uSt4vntk4vSuUWoZQGhLcDuR9q",
        "reception_time": "2022-01-18T06:31:56.471-00:00",
        "included_in_blocks":
          [ "BMCFyARH7CkN8KGBv7aX2CB4WpkfW9eUp2TQfSgY9oczjHS3Z6e" ] },
      { "delegate": "tz1TXzyaKUA8wsWefdSnyaYFnV2M3vCV7er9",
        "reception_time": "2022-01-18T06:31:56.420-00:00",
        "included_in_blocks":
          [ "BMCFyARH7CkN8KGBv7aX2CB4WpkfW9eUp2TQfSgY9oczjHS3Z6e" ] },
      { "delegate": "tz1P2Po7YM526ughEsRbY4oR9zaUPDZjxFrb",
        "reception_time": "2022-01-18T06:31:56.420-00:00",
        "included_in_blocks":
          [ "BMCFyARH7CkN8KGBv7aX2CB4WpkfW9eUp2TQfSgY9oczjHS3Z6e" ] },
      { "delegate": "tz1Scdr2HsZiQjc7bHMeBbmDRXYVvdhjJbBh",
        "reception_time": "2022-01-18T06:31:56.422-00:00",
        "included_in_blocks":
          [ "BMCFyARH7CkN8KGBv7aX2CB4WpkfW9eUp2TQfSgY9oczjHS3Z6e" ] } ] }