{ "blocks":
    [ { "hash": "BLDYZ2dkm34WSRVdFX1UVU6RbncfbpSV1S73oeMvhqBp8vccpak",
        "delegate": "tz1bsdrs36X5BTH83RHUBdUouKLJZK8d2oBa",
        "reception_time": "2022-01-18T07:54:35.435-00:00",
        "timestamp": "2022-01-18T07:54:30Z" } ],
  "endorsements":
    [ { "delegate": "tz1aRoaRhSpRYvFdyvgWLL6TGyRoGF51wDjM",
        "reception_time": "2022-01-18T07:54:44.178-00:00",
        "included_in_blocks":
          [ "BMJ3aJmGXK5xYrkyXqf2vcXE5qjrwM8n46UdWjsPiGb7HYLTYCe" ] },
      { "delegate": "tz1MduLJ4AAR6g7CDjB77Jci3gvu3Xsvk6bJ",
        "reception_time": "2022-01-18T07:54:41.908-00:00",
        "included_in_blocks":
          [ "BMJ3aJmGXK5xYrkyXqf2vcXE5qjrwM8n46UdWjsPiGb7HYLTYCe" ] },
      { "delegate": "tz1NpWrAyDL9k2Lmnyxcgr9xuJakbBxdq7FB",
        "reception_time": "2022-01-18T07:54:40.714-00:00",
        "included_in_blocks":
          [ "BMJ3aJmGXK5xYrkyXqf2vcXE5qjrwM8n46UdWjsPiGb7HYLTYCe" ] },
      { "delegate": "tz3bEQoFCZEEfZMskefZ8q8e4eiHH1pssRax",
        "reception_time": "2022-01-18T07:54:39.672-00:00",
        "included_in_blocks":
          [ "BMJ3aJmGXK5xYrkyXqf2vcXE5qjrwM8n46UdWjsPiGb7HYLTYCe" ] },
      { "delegate": "tz3NExpXn9aPNZPorRE4SdjJ2RGrfbJgMAaV",
        "reception_time": "2022-01-18T07:54:39.032-00:00",
        "included_in_blocks":
          [ "BMJ3aJmGXK5xYrkyXqf2vcXE5qjrwM8n46UdWjsPiGb7HYLTYCe" ] },
      { "delegate": "tz1dRKU4FQ9QRRQPdaH4zCR6gmCmXfcvcgtB",
        "reception_time": "2022-01-18T07:54:38.635-00:00",
        "included_in_blocks":
          [ "BMJ3aJmGXK5xYrkyXqf2vcXE5qjrwM8n46UdWjsPiGb7HYLTYCe" ] },
      { "delegate": "tz3VEZ4k6a4Wx42iyev6i2aVAptTRLEAivNN",
        "reception_time": "2022-01-18T07:54:38.149-00:00",
        "included_in_blocks":
          [ "BMJ3aJmGXK5xYrkyXqf2vcXE5qjrwM8n46UdWjsPiGb7HYLTYCe" ] },
      { "delegate": "tz1UvkANVPWppVgMkLnvN7BwYZsCP7vm6NVd",
        "reception_time": "2022-01-18T07:54:38.142-00:00",
        "included_in_blocks":
          [ "BMJ3aJmGXK5xYrkyXqf2vcXE5qjrwM8n46UdWjsPiGb7HYLTYCe" ] },
      { "delegate": "tz1KzSC1J9aBxKp7u8TUnpN8L7S65PBRkgdF",
        "reception_time": "2022-01-18T07:54:37.227-00:00",
        "included_in_blocks":
          [ "BMJ3aJmGXK5xYrkyXqf2vcXE5qjrwM8n46UdWjsPiGb7HYLTYCe" ] },
      { "delegate": "tz1dNVDWPf3Q59SdJqnjdnu277iyvReiRS9M",
        "reception_time": "2022-01-18T07:54:37.303-00:00",
        "included_in_blocks":
          [ "BMJ3aJmGXK5xYrkyXqf2vcXE5qjrwM8n46UdWjsPiGb7HYLTYCe" ] },
      { "delegate": "tz1SYq214SCBy9naR6cvycQsYcUGpBqQAE8d",
        "reception_time": "2022-01-18T07:54:37.559-00:00",
        "included_in_blocks":
          [ "BMJ3aJmGXK5xYrkyXqf2vcXE5qjrwM8n46UdWjsPiGb7HYLTYCe" ] },
      { "delegate": "tz3RDC3Jdn4j15J7bBHZd29EUee9gVB1CxD9",
        "reception_time": "2022-01-18T07:54:38.207-00:00",
        "included_in_blocks":
          [ "BMJ3aJmGXK5xYrkyXqf2vcXE5qjrwM8n46UdWjsPiGb7HYLTYCe" ] },
      { "delegate": "tz1WctSwL49BZtdWAQ75NY6vr4xsAx6oKdah",
        "reception_time": "2022-01-18T07:54:37.983-00:00",
        "included_in_blocks":
          [ "BMJ3aJmGXK5xYrkyXqf2vcXE5qjrwM8n46UdWjsPiGb7HYLTYCe" ] },
      { "delegate": "tz1KfEsrtDaA1sX7vdM4qmEPWuSytuqCDp5j",
        "reception_time": "2022-01-18T07:54:38.131-00:00",
        "included_in_blocks":
          [ "BMJ3aJmGXK5xYrkyXqf2vcXE5qjrwM8n46UdWjsPiGb7HYLTYCe" ] },
      { "delegate": "tz1hAYfexyzPGG6RhZZMpDvAHifubsbb6kgn",
        "reception_time": "2022-01-18T07:54:37.259-00:00",
        "included_in_blocks":
          [ "BMJ3aJmGXK5xYrkyXqf2vcXE5qjrwM8n46UdWjsPiGb7HYLTYCe" ] },
      { "delegate": "tz1LmaFsWRkjr7QMCx5PtV6xTUz3AmEpKQiF",
        "reception_time": "2022-01-18T07:54:37.398-00:00",
        "included_in_blocks":
          [ "BMJ3aJmGXK5xYrkyXqf2vcXE5qjrwM8n46UdWjsPiGb7HYLTYCe" ] },
      { "delegate": "tz2FCNBrERXtaTtNX6iimR1UJ5JSDxvdHM93",
        "reception_time": "2022-01-18T07:54:37.183-00:00",
        "included_in_blocks":
          [ "BMJ3aJmGXK5xYrkyXqf2vcXE5qjrwM8n46UdWjsPiGb7HYLTYCe" ] },
      { "delegate": "tz3UoffC7FG7zfpmvmjUmUeAaHvzdcUvAj6r",
        "reception_time": "2022-01-18T07:54:37.833-00:00",
        "included_in_blocks":
          [ "BMJ3aJmGXK5xYrkyXqf2vcXE5qjrwM8n46UdWjsPiGb7HYLTYCe" ] },
      { "delegate": "tz3e75hU4EhDU3ukyJueh5v6UvEHzGwkg3yC",
        "reception_time": "2022-01-18T07:54:37.429-00:00",
        "included_in_blocks":
          [ "BMJ3aJmGXK5xYrkyXqf2vcXE5qjrwM8n46UdWjsPiGb7HYLTYCe" ] },
      { "delegate": "tz1RjoHc98dBoqaH2jawF62XNKh7YsHwbkEv",
        "reception_time": "2022-01-18T07:54:38.141-00:00",
        "included_in_blocks":
          [ "BMJ3aJmGXK5xYrkyXqf2vcXE5qjrwM8n46UdWjsPiGb7HYLTYCe" ] },
      { "delegate": "tz1eLbDXYceRsPZoPmaJXZgQ6pzgnTQvZtpo",
        "reception_time": "2022-01-18T07:54:37.980-00:00",
        "included_in_blocks":
          [ "BMJ3aJmGXK5xYrkyXqf2vcXE5qjrwM8n46UdWjsPiGb7HYLTYCe" ] },
      { "delegate": "tz1V4qCyvPKZ5UeqdH14HN42rxvNPQfc9UZg",
        "reception_time": "2022-01-18T07:54:37.119-00:00",
        "included_in_blocks":
          [ "BMJ3aJmGXK5xYrkyXqf2vcXE5qjrwM8n46UdWjsPiGb7HYLTYCe" ] },
      { "delegate": "tz3WMqdzXqRWXwyvj5Hp2H7QEepaUuS7vd9K",
        "reception_time": "2022-01-18T07:54:38.079-00:00",
        "included_in_blocks":
          [ "BMJ3aJmGXK5xYrkyXqf2vcXE5qjrwM8n46UdWjsPiGb7HYLTYCe" ] },
      { "delegate": "tz1Nf6tsK4G6bBqgSQERy4nUtkHNKUVdh7q1",
        "reception_time": "2022-01-18T07:54:37.468-00:00",
        "included_in_blocks":
          [ "BMJ3aJmGXK5xYrkyXqf2vcXE5qjrwM8n46UdWjsPiGb7HYLTYCe" ] },
      { "delegate": "tz1TEc75UKXv4W5cwi14Na3NtqFD51yKQi7h",
        "reception_time": "2022-01-18T07:54:37.262-00:00",
        "included_in_blocks":
          [ "BMJ3aJmGXK5xYrkyXqf2vcXE5qjrwM8n46UdWjsPiGb7HYLTYCe" ] },
      { "delegate": "tz1NMNQYrYrfNpmUqQrMhJypf6ovnaDZhJHM",
        "reception_time": "2022-01-18T07:54:37.915-00:00",
        "included_in_blocks":
          [ "BMJ3aJmGXK5xYrkyXqf2vcXE5qjrwM8n46UdWjsPiGb7HYLTYCe" ] },
      { "delegate": "tz3NDpRj6WBrJPikcPVHRBEjWKxFw3c6eQPS",
        "reception_time": "2022-01-18T07:54:37.196-00:00",
        "included_in_blocks":
          [ "BMJ3aJmGXK5xYrkyXqf2vcXE5qjrwM8n46UdWjsPiGb7HYLTYCe" ] },
      { "delegate": "tz3bvNMQ95vfAYtG8193ymshqjSvmxiCUuR5",
        "reception_time": "2022-01-18T07:54:37.119-00:00",
        "included_in_blocks":
          [ "BMJ3aJmGXK5xYrkyXqf2vcXE5qjrwM8n46UdWjsPiGb7HYLTYCe" ] },
      { "delegate": "tz1WApynBLihFFfDpaDdFerYvQE4dsZyfocn",
        "reception_time": "2022-01-18T07:54:37.376-00:00",
        "included_in_blocks":
          [ "BMJ3aJmGXK5xYrkyXqf2vcXE5qjrwM8n46UdWjsPiGb7HYLTYCe" ] },
      { "delegate": "tz3bTdwZinP8U1JmSweNzVKhmwafqWmFWRfk",
        "reception_time": "2022-01-18T07:54:37.059-00:00",
        "included_in_blocks":
          [ "BMJ3aJmGXK5xYrkyXqf2vcXE5qjrwM8n46UdWjsPiGb7HYLTYCe" ] },
      { "delegate": "tz1WBfwbT66FC6BTLexc2BoyCCBM9LG7pnVW",
        "reception_time": "2022-01-18T07:54:36.957-00:00",
        "included_in_blocks":
          [ "BMJ3aJmGXK5xYrkyXqf2vcXE5qjrwM8n46UdWjsPiGb7HYLTYCe" ] },
      { "delegate": "tz3RB4aoyjov4KEVRbuhvQ1CKJgBJMWhaeB8",
        "reception_time": "2022-01-18T07:54:37.051-00:00",
        "included_in_blocks":
          [ "BMJ3aJmGXK5xYrkyXqf2vcXE5qjrwM8n46UdWjsPiGb7HYLTYCe" ] },
      { "delegate": "tz1ei4WtWEMEJekSv8qDnu9PExG6Q8HgRGr3",
        "reception_time": "2022-01-18T07:54:37.148-00:00",
        "included_in_blocks":
          [ "BMJ3aJmGXK5xYrkyXqf2vcXE5qjrwM8n46UdWjsPiGb7HYLTYCe" ] },
      { "delegate": "tz1VmiY38m3y95HqQLjMwqnMS7sdMfGomzKi",
        "reception_time": "2022-01-18T07:54:36.628-00:00",
        "included_in_blocks":
          [ "BMJ3aJmGXK5xYrkyXqf2vcXE5qjrwM8n46UdWjsPiGb7HYLTYCe" ] },
      { "delegate": "tz1gfArv665EUkSg2ojMBzcbfwuPxAvqPvjo",
        "reception_time": "2022-01-18T07:54:36.794-00:00",
        "included_in_blocks":
          [ "BMJ3aJmGXK5xYrkyXqf2vcXE5qjrwM8n46UdWjsPiGb7HYLTYCe" ] },
      { "delegate": "tz1XX67xSF2ou3aQZ6LhXaaxZWDR3YZ6hCMs",
        "reception_time": "2022-01-18T07:54:36.774-00:00",
        "included_in_blocks":
          [ "BMJ3aJmGXK5xYrkyXqf2vcXE5qjrwM8n46UdWjsPiGb7HYLTYCe" ] },
      { "delegate": "tz1WCd2jm4uSt4vntk4vSuUWoZQGhLcDuR9q",
        "reception_time": "2022-01-18T07:54:36.609-00:00",
        "included_in_blocks":
          [ "BMJ3aJmGXK5xYrkyXqf2vcXE5qjrwM8n46UdWjsPiGb7HYLTYCe" ] },
      { "delegate": "tz1RCFbB9GpALpsZtu6J58sb74dm8qe6XBzv",
        "reception_time": "2022-01-18T07:54:36.805-00:00",
        "included_in_blocks":
          [ "BMJ3aJmGXK5xYrkyXqf2vcXE5qjrwM8n46UdWjsPiGb7HYLTYCe" ] },
      { "delegate": "tz1PWCDnz783NNGGQjEFFsHtrcK5yBW4E2rm",
        "reception_time": "2022-01-18T07:54:36.626-00:00",
        "included_in_blocks":
          [ "BMJ3aJmGXK5xYrkyXqf2vcXE5qjrwM8n46UdWjsPiGb7HYLTYCe" ] },
      { "delegate": "tz3adcvQaKXTCg12zbninqo3q8ptKKtDFTLv",
        "reception_time": "2022-01-18T07:54:36.598-00:00",
        "included_in_blocks":
          [ "BMJ3aJmGXK5xYrkyXqf2vcXE5qjrwM8n46UdWjsPiGb7HYLTYCe" ] },
      { "delegate": "tz1UtayNgAX8QEJ3NoLptPzoPr9JiH3Cskzz",
        "reception_time": "2022-01-18T07:54:36.681-00:00",
        "included_in_blocks":
          [ "BMJ3aJmGXK5xYrkyXqf2vcXE5qjrwM8n46UdWjsPiGb7HYLTYCe" ] },
      { "delegate": "tz1S8MNvuFEUsWgjHvi3AxibRBf388NhT1q2",
        "reception_time": "2022-01-18T07:54:36.750-00:00",
        "included_in_blocks":
          [ "BMJ3aJmGXK5xYrkyXqf2vcXE5qjrwM8n46UdWjsPiGb7HYLTYCe" ] },
      { "delegate": "tz1Kt4P8BCaP93AEV4eA7gmpRryWt5hznjCP",
        "reception_time": "2022-01-18T07:54:36.538-00:00",
        "included_in_blocks":
          [ "BMJ3aJmGXK5xYrkyXqf2vcXE5qjrwM8n46UdWjsPiGb7HYLTYCe" ] },
      { "delegate": "tz3QT9dHYKDqh563chVa6za8526ys1UKfRfL",
        "reception_time": "2022-01-18T07:54:36.531-00:00",
        "included_in_blocks":
          [ "BMJ3aJmGXK5xYrkyXqf2vcXE5qjrwM8n46UdWjsPiGb7HYLTYCe" ] },
      { "delegate": "tz3NxTnke1acr8o3h5y9ytf5awQBGNJUKzVU",
        "reception_time": "2022-01-18T07:54:36.355-00:00",
        "included_in_blocks":
          [ "BMJ3aJmGXK5xYrkyXqf2vcXE5qjrwM8n46UdWjsPiGb7HYLTYCe" ] },
      { "delegate": "tz1Lhf4J9Qxoe3DZ2nfe8FGDnvVj7oKjnMY6",
        "reception_time": "2022-01-18T07:54:36.137-00:00",
        "included_in_blocks":
          [ "BMJ3aJmGXK5xYrkyXqf2vcXE5qjrwM8n46UdWjsPiGb7HYLTYCe" ] },
      { "delegate": "tz3S6BBeKgJGXxvLyZ1xzXzMPn11nnFtq5L9",
        "reception_time": "2022-01-18T07:54:36.567-00:00",
        "included_in_blocks":
          [ "BMJ3aJmGXK5xYrkyXqf2vcXE5qjrwM8n46UdWjsPiGb7HYLTYCe" ] },
      { "delegate": "tz1Ldzz6k1BHdhuKvAtMRX7h5kJSMHESMHLC",
        "reception_time": "2022-01-18T07:54:36.338-00:00",
        "included_in_blocks":
          [ "BMJ3aJmGXK5xYrkyXqf2vcXE5qjrwM8n46UdWjsPiGb7HYLTYCe" ] },
      { "delegate": "tz1aKxnrzx5PXZJe7unufEswVRCMU9yafmfb",
        "reception_time": "2022-01-18T07:54:36.145-00:00",
        "included_in_blocks":
          [ "BMJ3aJmGXK5xYrkyXqf2vcXE5qjrwM8n46UdWjsPiGb7HYLTYCe" ] },
      { "delegate": "tz1dbfppLAAxXZNtf2SDps7rch3qfUznKSoK",
        "reception_time": "2022-01-18T07:54:36.163-00:00",
        "included_in_blocks":
          [ "BMJ3aJmGXK5xYrkyXqf2vcXE5qjrwM8n46UdWjsPiGb7HYLTYCe" ] },
      { "delegate": "tz3hw2kqXhLUvY65ca1eety2oQTpAvd34R9Q",
        "reception_time": "2022-01-18T07:54:36.262-00:00",
        "included_in_blocks":
          [ "BMJ3aJmGXK5xYrkyXqf2vcXE5qjrwM8n46UdWjsPiGb7HYLTYCe" ] },
      { "delegate": "tz3gtoUxdudfBRcNY7iVdKPHCYYX6xdPpoRS",
        "reception_time": "2022-01-18T07:54:36.233-00:00",
        "included_in_blocks":
          [ "BMJ3aJmGXK5xYrkyXqf2vcXE5qjrwM8n46UdWjsPiGb7HYLTYCe" ] },
      { "delegate": "tz1Zhv3RkfU2pHrmaiDyxp7kFZpZrUCu1CiF",
        "reception_time": "2022-01-18T07:54:36.141-00:00",
        "included_in_blocks":
          [ "BMJ3aJmGXK5xYrkyXqf2vcXE5qjrwM8n46UdWjsPiGb7HYLTYCe" ] },
      { "delegate": "tz3ZbP2pM3nwvXztbuMJwJnDvV5xdpU8UkkD",
        "reception_time": "2022-01-18T07:54:36.327-00:00",
        "included_in_blocks":
          [ "BMJ3aJmGXK5xYrkyXqf2vcXE5qjrwM8n46UdWjsPiGb7HYLTYCe" ] },
      { "delegate": "tz1iZEKy4LaAjnTmn2RuGDf2iqdAQKnRi8kY",
        "reception_time": "2022-01-18T07:54:36.173-00:00",
        "included_in_blocks":
          [ "BMJ3aJmGXK5xYrkyXqf2vcXE5qjrwM8n46UdWjsPiGb7HYLTYCe" ] },
      { "delegate": "tz1irJKkXS2DBWkU1NnmFQx1c1L7pbGg4yhk",
        "reception_time": "2022-01-18T07:54:36.169-00:00",
        "included_in_blocks":
          [ "BMJ3aJmGXK5xYrkyXqf2vcXE5qjrwM8n46UdWjsPiGb7HYLTYCe" ] },
      { "delegate": "tz1fPKAtsYydh4f1wfWNfeNxWYu72TmM48fu",
        "reception_time": "2022-01-18T07:54:36.378-00:00",
        "included_in_blocks":
          [ "BMJ3aJmGXK5xYrkyXqf2vcXE5qjrwM8n46UdWjsPiGb7HYLTYCe" ] },
      { "delegate": "tz3QSGPoRp3Kn7n3vY24eYeu3Peuqo45LQ4D",
        "reception_time": "2022-01-18T07:54:36.334-00:00",
        "included_in_blocks":
          [ "BMJ3aJmGXK5xYrkyXqf2vcXE5qjrwM8n46UdWjsPiGb7HYLTYCe" ] },
      { "delegate": "tz1TRspM5SeZpaQUhzByXbEvqKF1vnCM2YTK",
        "reception_time": "2022-01-18T07:54:36.214-00:00",
        "included_in_blocks":
          [ "BMJ3aJmGXK5xYrkyXqf2vcXE5qjrwM8n46UdWjsPiGb7HYLTYCe" ] },
      { "delegate": "tz1gUNyn3hmnEWqkusWPzxRaon1cs7ndWh7h",
        "reception_time": "2022-01-18T07:54:36.425-00:00",
        "included_in_blocks":
          [ "BMJ3aJmGXK5xYrkyXqf2vcXE5qjrwM8n46UdWjsPiGb7HYLTYCe" ] },
      { "delegate": "tz1VQnqCCqX4K5sP3FNkVSNKTdCAMJDd3E1n",
        "reception_time": "2022-01-18T07:54:36.439-00:00",
        "included_in_blocks":
          [ "BMJ3aJmGXK5xYrkyXqf2vcXE5qjrwM8n46UdWjsPiGb7HYLTYCe" ] },
      { "delegate": "tz3RKYFsLuQzKBtmYuLNas7uMu3AsYd4QdsA",
        "reception_time": "2022-01-18T07:54:36.240-00:00",
        "included_in_blocks":
          [ "BMJ3aJmGXK5xYrkyXqf2vcXE5qjrwM8n46UdWjsPiGb7HYLTYCe" ] },
      { "delegate": "tz3iJu5vrKZcsqRPs8yJ61UDoeEXZmtro4qh",
        "reception_time": "2022-01-18T07:54:36.269-00:00",
        "included_in_blocks":
          [ "BMJ3aJmGXK5xYrkyXqf2vcXE5qjrwM8n46UdWjsPiGb7HYLTYCe" ] },
      { "delegate": "tz1P2Po7YM526ughEsRbY4oR9zaUPDZjxFrb",
        "reception_time": "2022-01-18T07:54:36.137-00:00",
        "included_in_blocks":
          [ "BMJ3aJmGXK5xYrkyXqf2vcXE5qjrwM8n46UdWjsPiGb7HYLTYCe" ] },
      { "delegate": "tz3Zhs2dygr55yHyQyKjntAtY9bgfhLZ4Xj1",
        "reception_time": "2022-01-18T07:54:36.277-00:00",
        "included_in_blocks":
          [ "BMJ3aJmGXK5xYrkyXqf2vcXE5qjrwM8n46UdWjsPiGb7HYLTYCe" ] },
      { "delegate": "tz1eEnQhbwf6trb8Q8mPb2RaPkNk2rN7BKi8",
        "reception_time": "2022-01-18T07:54:36.157-00:00",
        "included_in_blocks":
          [ "BMJ3aJmGXK5xYrkyXqf2vcXE5qjrwM8n46UdWjsPiGb7HYLTYCe" ] },
      { "delegate": "tz1MQMiZHV8q4tTwUMWmS5Y3kaP6J2136iXr",
        "reception_time": "2022-01-18T07:54:36.614-00:00",
        "included_in_blocks":
          [ "BMJ3aJmGXK5xYrkyXqf2vcXE5qjrwM8n46UdWjsPiGb7HYLTYCe" ] } ] }