{ "blocks":
    [ { "hash": "BLBctJxWAfaY5KXN2Macz4wuo2wGw1SNX5zjDLANy9mKFmxu9Gu",
        "delegate": "tz1irJKkXS2DBWkU1NnmFQx1c1L7pbGg4yhk",
        "reception_time": "2022-01-18T07:25:34.791-00:00",
        "timestamp": "2022-01-18T07:25:30Z" } ],
  "endorsements":
    [ { "delegate": "tz1NpWrAyDL9k2Lmnyxcgr9xuJakbBxdq7FB",
        "reception_time": "2022-01-18T07:25:41.527-00:00",
        "included_in_blocks":
          [ "BMJJ9vNzeU2pYKGUvbJyMmvsRq8V9A6oB7Cah8p2pcUEzqMW68n" ] },
      { "delegate": "tz1cYufsxHXJcvANhvS55h3aY32a9BAFB494",
        "reception_time": "2022-01-18T07:25:40.931-00:00",
        "included_in_blocks":
          [ "BMJJ9vNzeU2pYKGUvbJyMmvsRq8V9A6oB7Cah8p2pcUEzqMW68n" ] },
      { "delegate": "tz1dfg9PkvRLf7hKMmGdGRhXWCbd8QgbwBF7",
        "reception_time": "2022-01-18T07:25:40.032-00:00",
        "included_in_blocks":
          [ "BMJJ9vNzeU2pYKGUvbJyMmvsRq8V9A6oB7Cah8p2pcUEzqMW68n" ] },
      { "delegate": "tz1W5VkdB5s7ENMESVBtwyt9kyvLqPcUczRT",
        "reception_time": "2022-01-18T07:25:39.144-00:00",
        "included_in_blocks":
          [ "BMJJ9vNzeU2pYKGUvbJyMmvsRq8V9A6oB7Cah8p2pcUEzqMW68n" ] },
      { "delegate": "tz1TcH4Nb3aHNDJ7CGZhU7jgAK1BkSP4Lxds",
        "reception_time": "2022-01-18T07:25:38.957-00:00",
        "included_in_blocks":
          [ "BMJJ9vNzeU2pYKGUvbJyMmvsRq8V9A6oB7Cah8p2pcUEzqMW68n" ] },
      { "delegate": "tz1ZcTRk5uxD86EFEn1vvNffWWqJy7q5eVhc",
        "reception_time": "2022-01-18T07:25:38.361-00:00",
        "included_in_blocks":
          [ "BMJJ9vNzeU2pYKGUvbJyMmvsRq8V9A6oB7Cah8p2pcUEzqMW68n" ] },
      { "delegate": "tz1dRKU4FQ9QRRQPdaH4zCR6gmCmXfcvcgtB",
        "reception_time": "2022-01-18T07:25:38.306-00:00",
        "included_in_blocks":
          [ "BMJJ9vNzeU2pYKGUvbJyMmvsRq8V9A6oB7Cah8p2pcUEzqMW68n" ] },
      { "delegate": "tz3UoffC7FG7zfpmvmjUmUeAaHvzdcUvAj6r",
        "reception_time": "2022-01-18T07:25:38.400-00:00",
        "included_in_blocks":
          [ "BMJJ9vNzeU2pYKGUvbJyMmvsRq8V9A6oB7Cah8p2pcUEzqMW68n" ] },
      { "delegate": "tz1Z9M4biBHSiH38k5ciRMjR5bgk89yEgLTz",
        "reception_time": "2022-01-18T07:25:38.301-00:00",
        "included_in_blocks":
          [ "BMJJ9vNzeU2pYKGUvbJyMmvsRq8V9A6oB7Cah8p2pcUEzqMW68n" ] },
      { "delegate": "tz3NExpXn9aPNZPorRE4SdjJ2RGrfbJgMAaV",
        "reception_time": "2022-01-18T07:25:38.215-00:00",
        "included_in_blocks":
          [ "BMJJ9vNzeU2pYKGUvbJyMmvsRq8V9A6oB7Cah8p2pcUEzqMW68n" ] },
      { "delegate": "tz1T7duV5gZWSTq4YpBGbXNLTfznCLDrFxvs",
        "reception_time": "2022-01-18T07:25:37.599-00:00",
        "included_in_blocks":
          [ "BMJJ9vNzeU2pYKGUvbJyMmvsRq8V9A6oB7Cah8p2pcUEzqMW68n" ] },
      { "delegate": "tz1awXW7wuXy21c66vBudMXQVAPgRnqqwgTH",
        "reception_time": "2022-01-18T07:25:37.560-00:00",
        "included_in_blocks":
          [ "BMJJ9vNzeU2pYKGUvbJyMmvsRq8V9A6oB7Cah8p2pcUEzqMW68n" ] },
      { "delegate": "tz1V3yg82mcrPJbegqVCPn6bC8w1CSTRp3f8",
        "reception_time": "2022-01-18T07:25:37.461-00:00",
        "included_in_blocks":
          [ "BMJJ9vNzeU2pYKGUvbJyMmvsRq8V9A6oB7Cah8p2pcUEzqMW68n" ] },
      { "delegate": "tz1WctSwL49BZtdWAQ75NY6vr4xsAx6oKdah",
        "reception_time": "2022-01-18T07:25:37.504-00:00",
        "included_in_blocks":
          [ "BMJJ9vNzeU2pYKGUvbJyMmvsRq8V9A6oB7Cah8p2pcUEzqMW68n" ] },
      { "delegate": "tz1NEKxGEHsFufk87CVZcrqWu8o22qh46GK6",
        "reception_time": "2022-01-18T07:25:37.573-00:00",
        "included_in_blocks":
          [ "BMJJ9vNzeU2pYKGUvbJyMmvsRq8V9A6oB7Cah8p2pcUEzqMW68n" ] },
      { "delegate": "tz3RDC3Jdn4j15J7bBHZd29EUee9gVB1CxD9",
        "reception_time": "2022-01-18T07:25:37.446-00:00",
        "included_in_blocks":
          [ "BMJJ9vNzeU2pYKGUvbJyMmvsRq8V9A6oB7Cah8p2pcUEzqMW68n" ] },
      { "delegate": "tz1RjoHc98dBoqaH2jawF62XNKh7YsHwbkEv",
        "reception_time": "2022-01-18T07:25:37.510-00:00",
        "included_in_blocks":
          [ "BMJJ9vNzeU2pYKGUvbJyMmvsRq8V9A6oB7Cah8p2pcUEzqMW68n" ] },
      { "delegate": "tz1aRoaRhSpRYvFdyvgWLL6TGyRoGF51wDjM",
        "reception_time": "2022-01-18T07:25:37.478-00:00",
        "included_in_blocks":
          [ "BMJJ9vNzeU2pYKGUvbJyMmvsRq8V9A6oB7Cah8p2pcUEzqMW68n" ] },
      { "delegate": "tz1SYq214SCBy9naR6cvycQsYcUGpBqQAE8d",
        "reception_time": "2022-01-18T07:25:37.301-00:00",
        "included_in_blocks":
          [ "BMJJ9vNzeU2pYKGUvbJyMmvsRq8V9A6oB7Cah8p2pcUEzqMW68n" ] },
      { "delegate": "tz3WMqdzXqRWXwyvj5Hp2H7QEepaUuS7vd9K",
        "reception_time": "2022-01-18T07:25:37.139-00:00",
        "included_in_blocks":
          [ "BMJJ9vNzeU2pYKGUvbJyMmvsRq8V9A6oB7Cah8p2pcUEzqMW68n" ] },
      { "delegate": "tz1fwnfJNgiDACshK9avfRfFbMaXrs3ghoJa",
        "reception_time": "2022-01-18T07:25:37.154-00:00",
        "included_in_blocks":
          [ "BMJJ9vNzeU2pYKGUvbJyMmvsRq8V9A6oB7Cah8p2pcUEzqMW68n" ] },
      { "delegate": "tz1SohptP53wDPZhzTWzDUFAUcWF6DMBpaJV",
        "reception_time": "2022-01-18T07:25:37.194-00:00",
        "included_in_blocks":
          [ "BMJJ9vNzeU2pYKGUvbJyMmvsRq8V9A6oB7Cah8p2pcUEzqMW68n" ] },
      { "delegate": "tz1PeZx7FXy7QRuMREGXGxeipb24RsMMzUNe",
        "reception_time": "2022-01-18T07:25:37.090-00:00",
        "included_in_blocks":
          [ "BMJJ9vNzeU2pYKGUvbJyMmvsRq8V9A6oB7Cah8p2pcUEzqMW68n" ] },
      { "delegate": "tz1KfEsrtDaA1sX7vdM4qmEPWuSytuqCDp5j",
        "reception_time": "2022-01-18T07:25:37.142-00:00",
        "included_in_blocks":
          [ "BMJJ9vNzeU2pYKGUvbJyMmvsRq8V9A6oB7Cah8p2pcUEzqMW68n" ] },
      { "delegate": "tz3VEZ4k6a4Wx42iyev6i2aVAptTRLEAivNN",
        "reception_time": "2022-01-18T07:25:36.987-00:00",
        "included_in_blocks":
          [ "BMJJ9vNzeU2pYKGUvbJyMmvsRq8V9A6oB7Cah8p2pcUEzqMW68n" ] },
      { "delegate": "tz1TEc75UKXv4W5cwi14Na3NtqFD51yKQi7h",
        "reception_time": "2022-01-18T07:25:36.995-00:00",
        "included_in_blocks":
          [ "BMJJ9vNzeU2pYKGUvbJyMmvsRq8V9A6oB7Cah8p2pcUEzqMW68n" ] },
      { "delegate": "tz1TRqbYbUf2GyrjErf3hBzgBJPzW8y36qEs",
        "reception_time": "2022-01-18T07:25:37.064-00:00",
        "included_in_blocks":
          [ "BMJJ9vNzeU2pYKGUvbJyMmvsRq8V9A6oB7Cah8p2pcUEzqMW68n" ] },
      { "delegate": "tz3NDpRj6WBrJPikcPVHRBEjWKxFw3c6eQPS",
        "reception_time": "2022-01-18T07:25:37.041-00:00",
        "included_in_blocks":
          [ "BMJJ9vNzeU2pYKGUvbJyMmvsRq8V9A6oB7Cah8p2pcUEzqMW68n" ] },
      { "delegate": "tz3gLTu4Yxj8tPAcriQVUdxv6BY9QyvzU1az",
        "reception_time": "2022-01-18T07:25:37.062-00:00",
        "included_in_blocks":
          [ "BMJJ9vNzeU2pYKGUvbJyMmvsRq8V9A6oB7Cah8p2pcUEzqMW68n" ] },
      { "delegate": "tz1WBfwbT66FC6BTLexc2BoyCCBM9LG7pnVW",
        "reception_time": "2022-01-18T07:25:36.793-00:00",
        "included_in_blocks":
          [ "BMJJ9vNzeU2pYKGUvbJyMmvsRq8V9A6oB7Cah8p2pcUEzqMW68n" ] },
      { "delegate": "tz1Nf6tsK4G6bBqgSQERy4nUtkHNKUVdh7q1",
        "reception_time": "2022-01-18T07:25:36.699-00:00",
        "included_in_blocks":
          [ "BMJJ9vNzeU2pYKGUvbJyMmvsRq8V9A6oB7Cah8p2pcUEzqMW68n" ] },
      { "delegate": "tz1Tnjaxk6tbAeC2TmMApPh8UsrEVQvhHvx5",
        "reception_time": "2022-01-18T07:25:36.563-00:00",
        "included_in_blocks":
          [ "BMJJ9vNzeU2pYKGUvbJyMmvsRq8V9A6oB7Cah8p2pcUEzqMW68n" ] },
      { "delegate": "tz1RCFbB9GpALpsZtu6J58sb74dm8qe6XBzv",
        "reception_time": "2022-01-18T07:25:36.560-00:00",
        "included_in_blocks":
          [ "BMJJ9vNzeU2pYKGUvbJyMmvsRq8V9A6oB7Cah8p2pcUEzqMW68n" ] },
      { "delegate": "tz1S8MNvuFEUsWgjHvi3AxibRBf388NhT1q2",
        "reception_time": "2022-01-18T07:25:36.633-00:00",
        "included_in_blocks":
          [ "BMJJ9vNzeU2pYKGUvbJyMmvsRq8V9A6oB7Cah8p2pcUEzqMW68n" ] },
      { "delegate": "tz1V4qCyvPKZ5UeqdH14HN42rxvNPQfc9UZg",
        "reception_time": "2022-01-18T07:25:36.566-00:00",
        "included_in_blocks":
          [ "BMJJ9vNzeU2pYKGUvbJyMmvsRq8V9A6oB7Cah8p2pcUEzqMW68n" ] },
      { "delegate": "tz1ei4WtWEMEJekSv8qDnu9PExG6Q8HgRGr3",
        "reception_time": "2022-01-18T07:25:36.604-00:00",
        "included_in_blocks":
          [ "BMJJ9vNzeU2pYKGUvbJyMmvsRq8V9A6oB7Cah8p2pcUEzqMW68n" ] },
      { "delegate": "tz2FCNBrERXtaTtNX6iimR1UJ5JSDxvdHM93",
        "reception_time": "2022-01-18T07:25:36.436-00:00",
        "included_in_blocks":
          [ "BMJJ9vNzeU2pYKGUvbJyMmvsRq8V9A6oB7Cah8p2pcUEzqMW68n" ] },
      { "delegate": "tz1gfArv665EUkSg2ojMBzcbfwuPxAvqPvjo",
        "reception_time": "2022-01-18T07:25:36.434-00:00",
        "included_in_blocks":
          [ "BMJJ9vNzeU2pYKGUvbJyMmvsRq8V9A6oB7Cah8p2pcUEzqMW68n" ] },
      { "delegate": "tz3RB4aoyjov4KEVRbuhvQ1CKJgBJMWhaeB8",
        "reception_time": "2022-01-18T07:25:36.321-00:00",
        "included_in_blocks":
          [ "BMJJ9vNzeU2pYKGUvbJyMmvsRq8V9A6oB7Cah8p2pcUEzqMW68n" ] },
      { "delegate": "tz1MQMiZHV8q4tTwUMWmS5Y3kaP6J2136iXr",
        "reception_time": "2022-01-18T07:25:36.281-00:00",
        "included_in_blocks":
          [ "BMJJ9vNzeU2pYKGUvbJyMmvsRq8V9A6oB7Cah8p2pcUEzqMW68n" ] },
      { "delegate": "tz3bTdwZinP8U1JmSweNzVKhmwafqWmFWRfk",
        "reception_time": "2022-01-18T07:25:36.382-00:00",
        "included_in_blocks":
          [ "BMJJ9vNzeU2pYKGUvbJyMmvsRq8V9A6oB7Cah8p2pcUEzqMW68n" ] },
      { "delegate": "tz1fb7c66UwePkkfDXz4ajFaBP9hVNLdS7JJ",
        "reception_time": "2022-01-18T07:25:36.324-00:00",
        "included_in_blocks":
          [ "BMJJ9vNzeU2pYKGUvbJyMmvsRq8V9A6oB7Cah8p2pcUEzqMW68n" ] },
      { "delegate": "tz1NortRftucvAkD1J58L32EhSVrQEWJCEnB",
        "reception_time": "2022-01-18T07:25:36.330-00:00",
        "included_in_blocks":
          [ "BMJJ9vNzeU2pYKGUvbJyMmvsRq8V9A6oB7Cah8p2pcUEzqMW68n" ] },
      { "delegate": "tz3bvNMQ95vfAYtG8193ymshqjSvmxiCUuR5",
        "reception_time": "2022-01-18T07:25:36.170-00:00",
        "included_in_blocks":
          [ "BMJJ9vNzeU2pYKGUvbJyMmvsRq8V9A6oB7Cah8p2pcUEzqMW68n" ] },
      { "delegate": "tz1Ldzz6k1BHdhuKvAtMRX7h5kJSMHESMHLC",
        "reception_time": "2022-01-18T07:25:36.015-00:00",
        "included_in_blocks":
          [ "BMJJ9vNzeU2pYKGUvbJyMmvsRq8V9A6oB7Cah8p2pcUEzqMW68n" ] },
      { "delegate": "tz1WCd2jm4uSt4vntk4vSuUWoZQGhLcDuR9q",
        "reception_time": "2022-01-18T07:25:35.871-00:00",
        "included_in_blocks":
          [ "BMJJ9vNzeU2pYKGUvbJyMmvsRq8V9A6oB7Cah8p2pcUEzqMW68n" ] },
      { "delegate": "tz3Zhs2dygr55yHyQyKjntAtY9bgfhLZ4Xj1",
        "reception_time": "2022-01-18T07:25:35.728-00:00",
        "included_in_blocks":
          [ "BMJJ9vNzeU2pYKGUvbJyMmvsRq8V9A6oB7Cah8p2pcUEzqMW68n" ] },
      { "delegate": "tz3QT9dHYKDqh563chVa6za8526ys1UKfRfL",
        "reception_time": "2022-01-18T07:25:35.722-00:00",
        "included_in_blocks":
          [ "BMJJ9vNzeU2pYKGUvbJyMmvsRq8V9A6oB7Cah8p2pcUEzqMW68n" ] },
      { "delegate": "tz3S6BBeKgJGXxvLyZ1xzXzMPn11nnFtq5L9",
        "reception_time": "2022-01-18T07:25:35.743-00:00",
        "included_in_blocks":
          [ "BMJJ9vNzeU2pYKGUvbJyMmvsRq8V9A6oB7Cah8p2pcUEzqMW68n" ] },
      { "delegate": "tz3iJu5vrKZcsqRPs8yJ61UDoeEXZmtro4qh",
        "reception_time": "2022-01-18T07:25:35.737-00:00",
        "included_in_blocks":
          [ "BMJJ9vNzeU2pYKGUvbJyMmvsRq8V9A6oB7Cah8p2pcUEzqMW68n" ] },
      { "delegate": "tz3ZbP2pM3nwvXztbuMJwJnDvV5xdpU8UkkD",
        "reception_time": "2022-01-18T07:25:35.622-00:00",
        "included_in_blocks":
          [ "BMJJ9vNzeU2pYKGUvbJyMmvsRq8V9A6oB7Cah8p2pcUEzqMW68n" ] },
      { "delegate": "tz3hw2kqXhLUvY65ca1eety2oQTpAvd34R9Q",
        "reception_time": "2022-01-18T07:25:35.666-00:00",
        "included_in_blocks":
          [ "BMJJ9vNzeU2pYKGUvbJyMmvsRq8V9A6oB7Cah8p2pcUEzqMW68n" ] },
      { "delegate": "tz3RKYFsLuQzKBtmYuLNas7uMu3AsYd4QdsA",
        "reception_time": "2022-01-18T07:25:35.629-00:00",
        "included_in_blocks":
          [ "BMJJ9vNzeU2pYKGUvbJyMmvsRq8V9A6oB7Cah8p2pcUEzqMW68n" ] },
      { "delegate": "tz3QSGPoRp3Kn7n3vY24eYeu3Peuqo45LQ4D",
        "reception_time": "2022-01-18T07:25:35.655-00:00",
        "included_in_blocks":
          [ "BMJJ9vNzeU2pYKGUvbJyMmvsRq8V9A6oB7Cah8p2pcUEzqMW68n" ] },
      { "delegate": "tz3NxTnke1acr8o3h5y9ytf5awQBGNJUKzVU",
        "reception_time": "2022-01-18T07:25:35.677-00:00",
        "included_in_blocks":
          [ "BMJJ9vNzeU2pYKGUvbJyMmvsRq8V9A6oB7Cah8p2pcUEzqMW68n" ] },
      { "delegate": "tz3QCNyySViKHmeSr45kzDxzchys7NiXCWoa",
        "reception_time": "2022-01-18T07:25:35.597-00:00",
        "included_in_blocks":
          [ "BMJJ9vNzeU2pYKGUvbJyMmvsRq8V9A6oB7Cah8p2pcUEzqMW68n" ] },
      { "delegate": "tz1gUNyn3hmnEWqkusWPzxRaon1cs7ndWh7h",
        "reception_time": "2022-01-18T07:25:35.603-00:00",
        "included_in_blocks":
          [ "BMJJ9vNzeU2pYKGUvbJyMmvsRq8V9A6oB7Cah8p2pcUEzqMW68n" ] },
      { "delegate": "tz1RV1MBbZMR68tacosb7Mwj6LkbPSUS1er1",
        "reception_time": "2022-01-18T07:25:35.612-00:00",
        "included_in_blocks":
          [ "BMJJ9vNzeU2pYKGUvbJyMmvsRq8V9A6oB7Cah8p2pcUEzqMW68n" ] },
      { "delegate": "tz1VQnqCCqX4K5sP3FNkVSNKTdCAMJDd3E1n",
        "reception_time": "2022-01-18T07:25:35.580-00:00",
        "included_in_blocks":
          [ "BMJJ9vNzeU2pYKGUvbJyMmvsRq8V9A6oB7Cah8p2pcUEzqMW68n" ] },
      { "delegate": "tz3gtoUxdudfBRcNY7iVdKPHCYYX6xdPpoRS",
        "reception_time": "2022-01-18T07:25:35.612-00:00",
        "included_in_blocks":
          [ "BMJJ9vNzeU2pYKGUvbJyMmvsRq8V9A6oB7Cah8p2pcUEzqMW68n" ] },
      { "delegate": "tz1MJx9vhaNRSimcuXPK2rW4fLccQnDAnVKJ",
        "reception_time": "2022-01-18T07:25:35.586-00:00",
        "included_in_blocks":
          [ "BMJJ9vNzeU2pYKGUvbJyMmvsRq8V9A6oB7Cah8p2pcUEzqMW68n" ] },
      { "delegate": "tz1ZPh7XfUaJXUDvkrBxmS1BjEM1i62hiPpM",
        "reception_time": "2022-01-18T07:25:35.589-00:00",
        "included_in_blocks":
          [ "BMJJ9vNzeU2pYKGUvbJyMmvsRq8V9A6oB7Cah8p2pcUEzqMW68n" ] },
      { "delegate": "tz1NMdMmWZN8QPB8pY4ddncACDg1cHi1xD2e",
        "reception_time": "2022-01-18T07:25:35.586-00:00",
        "included_in_blocks":
          [ "BMJJ9vNzeU2pYKGUvbJyMmvsRq8V9A6oB7Cah8p2pcUEzqMW68n" ] },
      { "delegate": "tz1Scdr2HsZiQjc7bHMeBbmDRXYVvdhjJbBh",
        "reception_time": "2022-01-18T07:25:35.570-00:00",
        "included_in_blocks":
          [ "BMJJ9vNzeU2pYKGUvbJyMmvsRq8V9A6oB7Cah8p2pcUEzqMW68n" ] },
      { "delegate": "tz1irJKkXS2DBWkU1NnmFQx1c1L7pbGg4yhk",
        "reception_time": "2022-01-18T07:25:35.577-00:00",
        "included_in_blocks":
          [ "BMJJ9vNzeU2pYKGUvbJyMmvsRq8V9A6oB7Cah8p2pcUEzqMW68n" ] },
      { "delegate": "tz1eEnQhbwf6trb8Q8mPb2RaPkNk2rN7BKi8",
        "reception_time": "2022-01-18T07:25:35.549-00:00",
        "included_in_blocks":
          [ "BMJJ9vNzeU2pYKGUvbJyMmvsRq8V9A6oB7Cah8p2pcUEzqMW68n" ] },
      { "delegate": "tz1P2Po7YM526ughEsRbY4oR9zaUPDZjxFrb",
        "reception_time": "2022-01-18T07:25:35.541-00:00",
        "included_in_blocks":
          [ "BMJJ9vNzeU2pYKGUvbJyMmvsRq8V9A6oB7Cah8p2pcUEzqMW68n" ] },
      { "delegate": "tz1TXzyaKUA8wsWefdSnyaYFnV2M3vCV7er9",
        "reception_time": "2022-01-18T07:25:35.529-00:00",
        "included_in_blocks":
          [ "BMJJ9vNzeU2pYKGUvbJyMmvsRq8V9A6oB7Cah8p2pcUEzqMW68n" ] },
      { "delegate": "tz1aDiEJf9ztRrAJEXZfcG3CKimoKsGhwVAi",
        "reception_time": "2022-01-18T07:25:35.536-00:00",
        "included_in_blocks":
          [ "BMJJ9vNzeU2pYKGUvbJyMmvsRq8V9A6oB7Cah8p2pcUEzqMW68n" ] } ] }