{ "blocks":
    [ { "hash": "BLPkChebv7A9nTnU14S3isRdQwKVR56v6pGesm9FedXGfgjBKzn",
        "delegate": "tz3bvNMQ95vfAYtG8193ymshqjSvmxiCUuR5",
        "reception_time": "2022-01-18T01:18:59.315-00:00",
        "timestamp": "2022-01-18T01:18:50Z" } ],
  "endorsements":
    [ { "delegate": "tz1S8e9GgdZG78XJRB3NqabfWeM37GnhZMWQ",
        "reception_time": "2022-01-18T01:18:59.204-00:00",
        "errors":
          [ { "kind": "temporary",
              "id": "proto.011-PtHangz2.prefilter.outdated_endorsement" } ],
        "included_in_blocks":
          [ "BL5RKKierXU3S11TjgfVgV35XaPUHY3dnQ5Qnsgv86LSpb17N9i" ] },
      { "delegate": "tz1eEnQhbwf6trb8Q8mPb2RaPkNk2rN7BKi8",
        "reception_time": "2022-01-18T01:19:00.062-00:00",
        "included_in_blocks":
          [ "BL5RKKierXU3S11TjgfVgV35XaPUHY3dnQ5Qnsgv86LSpb17N9i" ] },
      { "delegate": "tz1Lhf4J9Qxoe3DZ2nfe8FGDnvVj7oKjnMY6",
        "reception_time": "2022-01-18T01:19:00.074-00:00",
        "included_in_blocks":
          [ "BL5RKKierXU3S11TjgfVgV35XaPUHY3dnQ5Qnsgv86LSpb17N9i" ] },
      { "delegate": "tz1P2Po7YM526ughEsRbY4oR9zaUPDZjxFrb",
        "reception_time": "2022-01-18T01:19:00.077-00:00",
        "included_in_blocks":
          [ "BL5RKKierXU3S11TjgfVgV35XaPUHY3dnQ5Qnsgv86LSpb17N9i" ] },
      { "delegate": "tz1XXayQohB8XRXN7kMoHbf2NFwNiH3oMRQQ",
        "reception_time": "2022-01-18T01:19:00.082-00:00",
        "included_in_blocks":
          [ "BL5RKKierXU3S11TjgfVgV35XaPUHY3dnQ5Qnsgv86LSpb17N9i" ] },
      { "delegate": "tz1aDiEJf9ztRrAJEXZfcG3CKimoKsGhwVAi",
        "reception_time": "2022-01-18T01:19:00.085-00:00",
        "included_in_blocks":
          [ "BL5RKKierXU3S11TjgfVgV35XaPUHY3dnQ5Qnsgv86LSpb17N9i" ] },
      { "delegate": "tz3NxTnke1acr8o3h5y9ytf5awQBGNJUKzVU",
        "reception_time": "2022-01-18T01:19:00.099-00:00",
        "included_in_blocks":
          [ "BL5RKKierXU3S11TjgfVgV35XaPUHY3dnQ5Qnsgv86LSpb17N9i" ] },
      { "delegate": "tz1dbfppLAAxXZNtf2SDps7rch3qfUznKSoK",
        "reception_time": "2022-01-18T01:19:00.099-00:00",
        "included_in_blocks":
          [ "BL5RKKierXU3S11TjgfVgV35XaPUHY3dnQ5Qnsgv86LSpb17N9i" ] },
      { "delegate": "tz1TXzyaKUA8wsWefdSnyaYFnV2M3vCV7er9",
        "reception_time": "2022-01-18T01:19:00.101-00:00",
        "included_in_blocks":
          [ "BL5RKKierXU3S11TjgfVgV35XaPUHY3dnQ5Qnsgv86LSpb17N9i" ] },
      { "delegate": "tz1TRspM5SeZpaQUhzByXbEvqKF1vnCM2YTK",
        "reception_time": "2022-01-18T01:19:00.104-00:00",
        "included_in_blocks":
          [ "BL5RKKierXU3S11TjgfVgV35XaPUHY3dnQ5Qnsgv86LSpb17N9i" ] },
      { "delegate": "tz1ZPh7XfUaJXUDvkrBxmS1BjEM1i62hiPpM",
        "reception_time": "2022-01-18T01:19:00.106-00:00",
        "included_in_blocks":
          [ "BL5RKKierXU3S11TjgfVgV35XaPUHY3dnQ5Qnsgv86LSpb17N9i" ] },
      { "delegate": "tz3ZbP2pM3nwvXztbuMJwJnDvV5xdpU8UkkD",
        "reception_time": "2022-01-18T01:19:00.114-00:00",
        "included_in_blocks":
          [ "BL5RKKierXU3S11TjgfVgV35XaPUHY3dnQ5Qnsgv86LSpb17N9i" ] },
      { "delegate": "tz3Zhs2dygr55yHyQyKjntAtY9bgfhLZ4Xj1",
        "reception_time": "2022-01-18T01:19:00.212-00:00",
        "included_in_blocks":
          [ "BL5RKKierXU3S11TjgfVgV35XaPUHY3dnQ5Qnsgv86LSpb17N9i" ] },
      { "delegate": "tz1irJKkXS2DBWkU1NnmFQx1c1L7pbGg4yhk",
        "reception_time": "2022-01-18T01:19:00.215-00:00",
        "included_in_blocks":
          [ "BL5RKKierXU3S11TjgfVgV35XaPUHY3dnQ5Qnsgv86LSpb17N9i" ] },
      { "delegate": "tz3S6BBeKgJGXxvLyZ1xzXzMPn11nnFtq5L9",
        "reception_time": "2022-01-18T01:19:00.221-00:00",
        "included_in_blocks":
          [ "BL5RKKierXU3S11TjgfVgV35XaPUHY3dnQ5Qnsgv86LSpb17N9i" ] },
      { "delegate": "tz3QSGPoRp3Kn7n3vY24eYeu3Peuqo45LQ4D",
        "reception_time": "2022-01-18T01:19:00.237-00:00",
        "included_in_blocks":
          [ "BL5RKKierXU3S11TjgfVgV35XaPUHY3dnQ5Qnsgv86LSpb17N9i" ] },
      { "delegate": "tz1gUNyn3hmnEWqkusWPzxRaon1cs7ndWh7h",
        "reception_time": "2022-01-18T01:19:00.247-00:00",
        "included_in_blocks":
          [ "BL5RKKierXU3S11TjgfVgV35XaPUHY3dnQ5Qnsgv86LSpb17N9i" ] },
      { "delegate": "tz3iJu5vrKZcsqRPs8yJ61UDoeEXZmtro4qh",
        "reception_time": "2022-01-18T01:19:00.247-00:00",
        "included_in_blocks":
          [ "BL5RKKierXU3S11TjgfVgV35XaPUHY3dnQ5Qnsgv86LSpb17N9i" ] },
      { "delegate": "tz3RKYFsLuQzKBtmYuLNas7uMu3AsYd4QdsA",
        "reception_time": "2022-01-18T01:19:00.254-00:00",
        "included_in_blocks":
          [ "BL5RKKierXU3S11TjgfVgV35XaPUHY3dnQ5Qnsgv86LSpb17N9i" ] },
      { "delegate": "tz3hw2kqXhLUvY65ca1eety2oQTpAvd34R9Q",
        "reception_time": "2022-01-18T01:19:00.262-00:00",
        "included_in_blocks":
          [ "BL5RKKierXU3S11TjgfVgV35XaPUHY3dnQ5Qnsgv86LSpb17N9i" ] },
      { "delegate": "tz3gtoUxdudfBRcNY7iVdKPHCYYX6xdPpoRS",
        "reception_time": "2022-01-18T01:19:00.333-00:00",
        "included_in_blocks":
          [ "BL5RKKierXU3S11TjgfVgV35XaPUHY3dnQ5Qnsgv86LSpb17N9i" ] },
      { "delegate": "tz1WCd2jm4uSt4vntk4vSuUWoZQGhLcDuR9q",
        "reception_time": "2022-01-18T01:19:00.361-00:00",
        "included_in_blocks":
          [ "BL5RKKierXU3S11TjgfVgV35XaPUHY3dnQ5Qnsgv86LSpb17N9i" ] },
      { "delegate": "tz1Ldzz6k1BHdhuKvAtMRX7h5kJSMHESMHLC",
        "reception_time": "2022-01-18T01:19:00.365-00:00",
        "included_in_blocks":
          [ "BL5RKKierXU3S11TjgfVgV35XaPUHY3dnQ5Qnsgv86LSpb17N9i" ] },
      { "delegate": "tz1VQnqCCqX4K5sP3FNkVSNKTdCAMJDd3E1n",
        "reception_time": "2022-01-18T01:19:00.390-00:00",
        "included_in_blocks":
          [ "BL5RKKierXU3S11TjgfVgV35XaPUHY3dnQ5Qnsgv86LSpb17N9i" ] },
      { "delegate": "tz3bTdwZinP8U1JmSweNzVKhmwafqWmFWRfk",
        "reception_time": "2022-01-18T01:19:00.507-00:00",
        "included_in_blocks":
          [ "BL5RKKierXU3S11TjgfVgV35XaPUHY3dnQ5Qnsgv86LSpb17N9i" ] },
      { "delegate": "tz3RDC3Jdn4j15J7bBHZd29EUee9gVB1CxD9",
        "reception_time": "2022-01-18T01:19:00.659-00:00",
        "included_in_blocks":
          [ "BL5RKKierXU3S11TjgfVgV35XaPUHY3dnQ5Qnsgv86LSpb17N9i" ] },
      { "delegate": "tz1RCFbB9GpALpsZtu6J58sb74dm8qe6XBzv",
        "reception_time": "2022-01-18T01:19:00.711-00:00",
        "included_in_blocks":
          [ "BL5RKKierXU3S11TjgfVgV35XaPUHY3dnQ5Qnsgv86LSpb17N9i" ] },
      { "delegate": "tz1MQMiZHV8q4tTwUMWmS5Y3kaP6J2136iXr",
        "reception_time": "2022-01-18T01:19:00.746-00:00",
        "included_in_blocks":
          [ "BL5RKKierXU3S11TjgfVgV35XaPUHY3dnQ5Qnsgv86LSpb17N9i" ] },
      { "delegate": "tz1SUgyRB8T5jXgXAwS33pgRHAKrafyg87Yc",
        "reception_time": "2022-01-18T01:19:00.833-00:00",
        "included_in_blocks":
          [ "BL5RKKierXU3S11TjgfVgV35XaPUHY3dnQ5Qnsgv86LSpb17N9i" ] },
      { "delegate": "tz1PWCDnz783NNGGQjEFFsHtrcK5yBW4E2rm",
        "reception_time": "2022-01-18T01:19:00.842-00:00",
        "included_in_blocks":
          [ "BL5RKKierXU3S11TjgfVgV35XaPUHY3dnQ5Qnsgv86LSpb17N9i" ] },
      { "delegate": "tz1VmiY38m3y95HqQLjMwqnMS7sdMfGomzKi",
        "reception_time": "2022-01-18T01:19:00.852-00:00",
        "included_in_blocks":
          [ "BL5RKKierXU3S11TjgfVgV35XaPUHY3dnQ5Qnsgv86LSpb17N9i" ] },
      { "delegate": "tz1bYemsZHPzL3qUkQ5Ao3bze5viTfd8v7Lj",
        "reception_time": "2022-01-18T01:19:00.857-00:00",
        "included_in_blocks":
          [ "BL5RKKierXU3S11TjgfVgV35XaPUHY3dnQ5Qnsgv86LSpb17N9i" ] },
      { "delegate": "tz3bvNMQ95vfAYtG8193ymshqjSvmxiCUuR5",
        "reception_time": "2022-01-18T01:19:00.875-00:00",
        "included_in_blocks":
          [ "BL5RKKierXU3S11TjgfVgV35XaPUHY3dnQ5Qnsgv86LSpb17N9i" ] },
      { "delegate": "tz1S8MNvuFEUsWgjHvi3AxibRBf388NhT1q2",
        "reception_time": "2022-01-18T01:19:00.924-00:00",
        "included_in_blocks":
          [ "BL5RKKierXU3S11TjgfVgV35XaPUHY3dnQ5Qnsgv86LSpb17N9i" ] },
      { "delegate": "tz1cSj7fTex3JPd1p1LN1fwek6AV1kH93Wwc",
        "reception_time": "2022-01-18T01:19:00.926-00:00",
        "included_in_blocks":
          [ "BL5RKKierXU3S11TjgfVgV35XaPUHY3dnQ5Qnsgv86LSpb17N9i" ] },
      { "delegate": "tz1abmz7jiCV2GH2u81LRrGgAFFgvQgiDiaf",
        "reception_time": "2022-01-18T01:19:01.038-00:00",
        "included_in_blocks":
          [ "BL5RKKierXU3S11TjgfVgV35XaPUHY3dnQ5Qnsgv86LSpb17N9i" ] },
      { "delegate": "tz1gfArv665EUkSg2ojMBzcbfwuPxAvqPvjo",
        "reception_time": "2022-01-18T01:19:01.228-00:00",
        "included_in_blocks":
          [ "BL5RKKierXU3S11TjgfVgV35XaPUHY3dnQ5Qnsgv86LSpb17N9i" ] },
      { "delegate": "tz1NortRftucvAkD1J58L32EhSVrQEWJCEnB",
        "reception_time": "2022-01-18T01:19:01.263-00:00",
        "included_in_blocks":
          [ "BL5RKKierXU3S11TjgfVgV35XaPUHY3dnQ5Qnsgv86LSpb17N9i" ] },
      { "delegate": "tz1RpeqCseogMpCPXpyGjhmLH9i9DhqJ8cUR",
        "reception_time": "2022-01-18T01:19:01.265-00:00",
        "included_in_blocks":
          [ "BL5RKKierXU3S11TjgfVgV35XaPUHY3dnQ5Qnsgv86LSpb17N9i" ] },
      { "delegate": "tz3NDpRj6WBrJPikcPVHRBEjWKxFw3c6eQPS",
        "reception_time": "2022-01-18T01:19:01.285-00:00",
        "included_in_blocks":
          [ "BL5RKKierXU3S11TjgfVgV35XaPUHY3dnQ5Qnsgv86LSpb17N9i" ] },
      { "delegate": "tz1V4qCyvPKZ5UeqdH14HN42rxvNPQfc9UZg",
        "reception_time": "2022-01-18T01:19:01.380-00:00",
        "included_in_blocks":
          [ "BL5RKKierXU3S11TjgfVgV35XaPUHY3dnQ5Qnsgv86LSpb17N9i" ] },
      { "delegate": "tz1WBfwbT66FC6BTLexc2BoyCCBM9LG7pnVW",
        "reception_time": "2022-01-18T01:19:01.385-00:00",
        "included_in_blocks":
          [ "BL5RKKierXU3S11TjgfVgV35XaPUHY3dnQ5Qnsgv86LSpb17N9i" ] },
      { "delegate": "tz2FCNBrERXtaTtNX6iimR1UJ5JSDxvdHM93",
        "reception_time": "2022-01-18T01:19:01.385-00:00",
        "included_in_blocks":
          [ "BL5RKKierXU3S11TjgfVgV35XaPUHY3dnQ5Qnsgv86LSpb17N9i" ] },
      { "delegate": "tz1ei4WtWEMEJekSv8qDnu9PExG6Q8HgRGr3",
        "reception_time": "2022-01-18T01:19:01.398-00:00",
        "included_in_blocks":
          [ "BL5RKKierXU3S11TjgfVgV35XaPUHY3dnQ5Qnsgv86LSpb17N9i" ] },
      { "delegate": "tz1Nf6tsK4G6bBqgSQERy4nUtkHNKUVdh7q1",
        "reception_time": "2022-01-18T01:19:01.462-00:00",
        "included_in_blocks":
          [ "BL5RKKierXU3S11TjgfVgV35XaPUHY3dnQ5Qnsgv86LSpb17N9i" ] },
      { "delegate": "tz1dNVDWPf3Q59SdJqnjdnu277iyvReiRS9M",
        "reception_time": "2022-01-18T01:19:01.657-00:00",
        "included_in_blocks":
          [ "BL5RKKierXU3S11TjgfVgV35XaPUHY3dnQ5Qnsgv86LSpb17N9i" ] },
      { "delegate": "tz3RB4aoyjov4KEVRbuhvQ1CKJgBJMWhaeB8",
        "reception_time": "2022-01-18T01:19:01.687-00:00",
        "included_in_blocks":
          [ "BL5RKKierXU3S11TjgfVgV35XaPUHY3dnQ5Qnsgv86LSpb17N9i" ] },
      { "delegate": "tz3VEZ4k6a4Wx42iyev6i2aVAptTRLEAivNN",
        "reception_time": "2022-01-18T01:19:01.749-00:00",
        "included_in_blocks":
          [ "BL5RKKierXU3S11TjgfVgV35XaPUHY3dnQ5Qnsgv86LSpb17N9i" ] },
      { "delegate": "tz1SohptP53wDPZhzTWzDUFAUcWF6DMBpaJV",
        "reception_time": "2022-01-18T01:19:01.878-00:00",
        "included_in_blocks":
          [ "BL5RKKierXU3S11TjgfVgV35XaPUHY3dnQ5Qnsgv86LSpb17N9i" ] },
      { "delegate": "tz1awXW7wuXy21c66vBudMXQVAPgRnqqwgTH",
        "reception_time": "2022-01-18T01:19:02.026-00:00",
        "included_in_blocks":
          [ "BL5RKKierXU3S11TjgfVgV35XaPUHY3dnQ5Qnsgv86LSpb17N9i" ] },
      { "delegate": "tz1NEKxGEHsFufk87CVZcrqWu8o22qh46GK6",
        "reception_time": "2022-01-18T01:19:02.080-00:00",
        "included_in_blocks":
          [ "BL5RKKierXU3S11TjgfVgV35XaPUHY3dnQ5Qnsgv86LSpb17N9i" ] },
      { "delegate": "tz1fwnfJNgiDACshK9avfRfFbMaXrs3ghoJa",
        "reception_time": "2022-01-18T01:19:02.084-00:00",
        "included_in_blocks":
          [ "BL5RKKierXU3S11TjgfVgV35XaPUHY3dnQ5Qnsgv86LSpb17N9i" ] },
      { "delegate": "tz1TRqbYbUf2GyrjErf3hBzgBJPzW8y36qEs",
        "reception_time": "2022-01-18T01:19:02.126-00:00",
        "included_in_blocks":
          [ "BL5RKKierXU3S11TjgfVgV35XaPUHY3dnQ5Qnsgv86LSpb17N9i" ] },
      { "delegate": "tz1UVFkBnZzy2WGzs7415DNwsbvuyvz4ZznB",
        "reception_time": "2022-01-18T01:19:02.225-00:00",
        "included_in_blocks":
          [ "BL5RKKierXU3S11TjgfVgV35XaPUHY3dnQ5Qnsgv86LSpb17N9i" ] },
      { "delegate": "tz1aRoaRhSpRYvFdyvgWLL6TGyRoGF51wDjM",
        "reception_time": "2022-01-18T01:19:02.315-00:00",
        "included_in_blocks":
          [ "BL5RKKierXU3S11TjgfVgV35XaPUHY3dnQ5Qnsgv86LSpb17N9i" ] },
      { "delegate": "tz3NExpXn9aPNZPorRE4SdjJ2RGrfbJgMAaV",
        "reception_time": "2022-01-18T01:19:02.394-00:00",
        "included_in_blocks":
          [ "BL5RKKierXU3S11TjgfVgV35XaPUHY3dnQ5Qnsgv86LSpb17N9i" ] },
      { "delegate": "tz3UoffC7FG7zfpmvmjUmUeAaHvzdcUvAj6r",
        "reception_time": "2022-01-18T01:19:02.405-00:00",
        "included_in_blocks":
          [ "BL5RKKierXU3S11TjgfVgV35XaPUHY3dnQ5Qnsgv86LSpb17N9i" ] },
      { "delegate": "tz1RjoHc98dBoqaH2jawF62XNKh7YsHwbkEv",
        "reception_time": "2022-01-18T01:19:02.430-00:00",
        "included_in_blocks":
          [ "BL5RKKierXU3S11TjgfVgV35XaPUHY3dnQ5Qnsgv86LSpb17N9i" ] },
      { "delegate": "tz3WMqdzXqRWXwyvj5Hp2H7QEepaUuS7vd9K",
        "reception_time": "2022-01-18T01:19:02.591-00:00",
        "included_in_blocks":
          [ "BL5RKKierXU3S11TjgfVgV35XaPUHY3dnQ5Qnsgv86LSpb17N9i" ] },
      { "delegate": "tz1eLbDXYceRsPZoPmaJXZgQ6pzgnTQvZtpo",
        "reception_time": "2022-01-18T01:19:02.640-00:00",
        "included_in_blocks":
          [ "BL5RKKierXU3S11TjgfVgV35XaPUHY3dnQ5Qnsgv86LSpb17N9i" ] },
      { "delegate": "tz1fJHFn6sWEd3NnBPngACuw2dggTv6nQZ7g",
        "reception_time": "2022-01-18T01:19:02.754-00:00",
        "included_in_blocks":
          [ "BL5RKKierXU3S11TjgfVgV35XaPUHY3dnQ5Qnsgv86LSpb17N9i" ] },
      { "delegate": "tz1T7duV5gZWSTq4YpBGbXNLTfznCLDrFxvs",
        "reception_time": "2022-01-18T01:19:02.836-00:00",
        "included_in_blocks":
          [ "BL5RKKierXU3S11TjgfVgV35XaPUHY3dnQ5Qnsgv86LSpb17N9i" ] },
      { "delegate": "tz1cM8Xc7ZP1TrjkTeKq4PeRhtbnwXSBR6Sw",
        "reception_time": "2022-01-18T01:19:03.542-00:00",
        "included_in_blocks":
          [ "BL5RKKierXU3S11TjgfVgV35XaPUHY3dnQ5Qnsgv86LSpb17N9i" ] },
      { "delegate": "tz1go7f6mEQfT2xX2LuHAqgnRGN6c2zHPf5c",
        "reception_time": "2022-01-18T01:19:04.177-00:00",
        "included_in_blocks":
          [ "BL5RKKierXU3S11TjgfVgV35XaPUHY3dnQ5Qnsgv86LSpb17N9i" ] },
      { "delegate": "tz1NpWrAyDL9k2Lmnyxcgr9xuJakbBxdq7FB",
        "reception_time": "2022-01-18T01:19:04.357-00:00",
        "included_in_blocks":
          [ "BL5RKKierXU3S11TjgfVgV35XaPUHY3dnQ5Qnsgv86LSpb17N9i" ] },
      { "delegate": "tz1eVaNx3gCmG1EsLjijkmgAxdLYVf6Bf5Sq",
        "reception_time": "2022-01-18T01:19:04.440-00:00",
        "included_in_blocks":
          [ "BL5RKKierXU3S11TjgfVgV35XaPUHY3dnQ5Qnsgv86LSpb17N9i" ] },
      { "delegate": "tz1dfg9PkvRLf7hKMmGdGRhXWCbd8QgbwBF7",
        "reception_time": "2022-01-18T01:19:04.587-00:00",
        "included_in_blocks":
          [ "BL5RKKierXU3S11TjgfVgV35XaPUHY3dnQ5Qnsgv86LSpb17N9i" ] } ] }