{ "blocks":
    [ { "hash": "BLBdJ3cshPepamhV5utAQkXzuP3RxJX4xsoNFtGkdinGGVZaPnu",
        "delegate": "tz3RDC3Jdn4j15J7bBHZd29EUee9gVB1CxD9",
        "reception_time": "2022-01-18T06:28:27.654-00:00",
        "timestamp": "2022-01-18T06:28:20Z" } ],
  "endorsements":
    [ { "delegate": "tz1S8e9GgdZG78XJRB3NqabfWeM37GnhZMWQ",
        "reception_time": "2022-01-18T06:28:27.542-00:00",
        "errors":
          [ { "kind": "temporary",
              "id": "proto.011-PtHangz2.prefilter.outdated_endorsement" } ],
        "included_in_blocks":
          [ "BLzbYJhydjGiHULxnDkZNLpeED1JxPKMzYR3N6HB2ndAca3oLWo" ] },
      { "delegate": "tz1THsLcunLo8CmDm9f2y1xHuXttXZCpyFnq",
        "reception_time": "2022-01-18T06:28:27.514-00:00",
        "errors":
          [ { "kind": "temporary",
              "id": "proto.011-PtHangz2.prefilter.outdated_endorsement" } ],
        "included_in_blocks":
          [ "BLzbYJhydjGiHULxnDkZNLpeED1JxPKMzYR3N6HB2ndAca3oLWo" ] },
      { "delegate": "tz1Vyuu4EJ5Nym4JcrfRLnp3hpaq1DSEp1Ke" },
      { "delegate": "tz1Z1WwoqgRFbLE3YNdYRpCx44NSfiMJzeAG" },
      { "delegate": "tz1P2Po7YM526ughEsRbY4oR9zaUPDZjxFrb",
        "reception_time": "2022-01-18T06:28:29.324-00:00",
        "included_in_blocks":
          [ "BLzbYJhydjGiHULxnDkZNLpeED1JxPKMzYR3N6HB2ndAca3oLWo" ] },
      { "delegate": "tz1eEnQhbwf6trb8Q8mPb2RaPkNk2rN7BKi8",
        "reception_time": "2022-01-18T06:28:29.324-00:00",
        "included_in_blocks":
          [ "BLzbYJhydjGiHULxnDkZNLpeED1JxPKMzYR3N6HB2ndAca3oLWo" ] },
      { "delegate": "tz1irJKkXS2DBWkU1NnmFQx1c1L7pbGg4yhk",
        "reception_time": "2022-01-18T06:28:29.332-00:00",
        "included_in_blocks":
          [ "BLzbYJhydjGiHULxnDkZNLpeED1JxPKMzYR3N6HB2ndAca3oLWo" ] },
      { "delegate": "tz1TXzyaKUA8wsWefdSnyaYFnV2M3vCV7er9",
        "reception_time": "2022-01-18T06:28:29.342-00:00",
        "included_in_blocks":
          [ "BLzbYJhydjGiHULxnDkZNLpeED1JxPKMzYR3N6HB2ndAca3oLWo" ] },
      { "delegate": "tz1dbfppLAAxXZNtf2SDps7rch3qfUznKSoK",
        "reception_time": "2022-01-18T06:28:29.342-00:00",
        "included_in_blocks":
          [ "BLzbYJhydjGiHULxnDkZNLpeED1JxPKMzYR3N6HB2ndAca3oLWo" ] },
      { "delegate": "tz1STeamwbp68THcny9zk3LsbG3H36DMvbRK",
        "reception_time": "2022-01-18T06:28:29.351-00:00",
        "included_in_blocks":
          [ "BLzbYJhydjGiHULxnDkZNLpeED1JxPKMzYR3N6HB2ndAca3oLWo" ] },
      { "delegate": "tz1QCgEy1GJntn7nrchb4FXLegr3Ue3ptasZ",
        "reception_time": "2022-01-18T06:28:29.374-00:00",
        "included_in_blocks":
          [ "BLzbYJhydjGiHULxnDkZNLpeED1JxPKMzYR3N6HB2ndAca3oLWo" ] },
      { "delegate": "tz1Ldzz6k1BHdhuKvAtMRX7h5kJSMHESMHLC",
        "reception_time": "2022-01-18T06:28:29.413-00:00",
        "included_in_blocks":
          [ "BLzbYJhydjGiHULxnDkZNLpeED1JxPKMzYR3N6HB2ndAca3oLWo" ] },
      { "delegate": "tz3QSGPoRp3Kn7n3vY24eYeu3Peuqo45LQ4D",
        "reception_time": "2022-01-18T06:28:29.413-00:00",
        "included_in_blocks":
          [ "BLzbYJhydjGiHULxnDkZNLpeED1JxPKMzYR3N6HB2ndAca3oLWo" ] },
      { "delegate": "tz1WCd2jm4uSt4vntk4vSuUWoZQGhLcDuR9q",
        "reception_time": "2022-01-18T06:28:29.440-00:00",
        "included_in_blocks":
          [ "BLzbYJhydjGiHULxnDkZNLpeED1JxPKMzYR3N6HB2ndAca3oLWo" ] },
      { "delegate": "tz3ZbP2pM3nwvXztbuMJwJnDvV5xdpU8UkkD",
        "reception_time": "2022-01-18T06:28:29.455-00:00",
        "included_in_blocks":
          [ "BLzbYJhydjGiHULxnDkZNLpeED1JxPKMzYR3N6HB2ndAca3oLWo" ] },
      { "delegate": "tz3gtoUxdudfBRcNY7iVdKPHCYYX6xdPpoRS",
        "reception_time": "2022-01-18T06:28:29.476-00:00",
        "included_in_blocks":
          [ "BLzbYJhydjGiHULxnDkZNLpeED1JxPKMzYR3N6HB2ndAca3oLWo" ] },
      { "delegate": "tz3NxTnke1acr8o3h5y9ytf5awQBGNJUKzVU",
        "reception_time": "2022-01-18T06:28:29.476-00:00",
        "included_in_blocks":
          [ "BLzbYJhydjGiHULxnDkZNLpeED1JxPKMzYR3N6HB2ndAca3oLWo" ] },
      { "delegate": "tz1ZPh7XfUaJXUDvkrBxmS1BjEM1i62hiPpM",
        "reception_time": "2022-01-18T06:28:29.479-00:00",
        "included_in_blocks":
          [ "BLzbYJhydjGiHULxnDkZNLpeED1JxPKMzYR3N6HB2ndAca3oLWo" ] },
      { "delegate": "tz1LLNkQK4UQV6QcFShiXJ2vT2ELw449MzAA",
        "reception_time": "2022-01-18T06:28:29.484-00:00",
        "included_in_blocks":
          [ "BLzbYJhydjGiHULxnDkZNLpeED1JxPKMzYR3N6HB2ndAca3oLWo" ] },
      { "delegate": "tz1TRspM5SeZpaQUhzByXbEvqKF1vnCM2YTK",
        "reception_time": "2022-01-18T06:28:29.491-00:00",
        "included_in_blocks":
          [ "BLzbYJhydjGiHULxnDkZNLpeED1JxPKMzYR3N6HB2ndAca3oLWo" ] },
      { "delegate": "tz1aqcYgG6NuViML5vdWhohHJBYxcDVLNUsE",
        "reception_time": "2022-01-18T06:28:29.504-00:00",
        "included_in_blocks":
          [ "BLzbYJhydjGiHULxnDkZNLpeED1JxPKMzYR3N6HB2ndAca3oLWo" ] },
      { "delegate": "tz3S6BBeKgJGXxvLyZ1xzXzMPn11nnFtq5L9",
        "reception_time": "2022-01-18T06:28:29.517-00:00",
        "included_in_blocks":
          [ "BLzbYJhydjGiHULxnDkZNLpeED1JxPKMzYR3N6HB2ndAca3oLWo" ] },
      { "delegate": "tz1TzaNn7wSQSP5gYPXCnNzBCpyMiidCq1PX",
        "reception_time": "2022-01-18T06:28:29.556-00:00",
        "included_in_blocks":
          [ "BLzbYJhydjGiHULxnDkZNLpeED1JxPKMzYR3N6HB2ndAca3oLWo" ] },
      { "delegate": "tz3iJu5vrKZcsqRPs8yJ61UDoeEXZmtro4qh",
        "reception_time": "2022-01-18T06:28:29.565-00:00",
        "included_in_blocks":
          [ "BLzbYJhydjGiHULxnDkZNLpeED1JxPKMzYR3N6HB2ndAca3oLWo" ] },
      { "delegate": "tz3Zhs2dygr55yHyQyKjntAtY9bgfhLZ4Xj1",
        "reception_time": "2022-01-18T06:28:29.583-00:00",
        "included_in_blocks":
          [ "BLzbYJhydjGiHULxnDkZNLpeED1JxPKMzYR3N6HB2ndAca3oLWo" ] },
      { "delegate": "tz3hw2kqXhLUvY65ca1eety2oQTpAvd34R9Q",
        "reception_time": "2022-01-18T06:28:29.594-00:00",
        "included_in_blocks":
          [ "BLzbYJhydjGiHULxnDkZNLpeED1JxPKMzYR3N6HB2ndAca3oLWo" ] },
      { "delegate": "tz1aXD7Jigrt3PBYSpHSg5Rr33SexMmmM5Ys",
        "reception_time": "2022-01-18T06:28:29.598-00:00",
        "included_in_blocks":
          [ "BLzbYJhydjGiHULxnDkZNLpeED1JxPKMzYR3N6HB2ndAca3oLWo" ] },
      { "delegate": "tz3RKYFsLuQzKBtmYuLNas7uMu3AsYd4QdsA",
        "reception_time": "2022-01-18T06:28:29.609-00:00",
        "included_in_blocks":
          [ "BLzbYJhydjGiHULxnDkZNLpeED1JxPKMzYR3N6HB2ndAca3oLWo" ] },
      { "delegate": "tz3QT9dHYKDqh563chVa6za8526ys1UKfRfL",
        "reception_time": "2022-01-18T06:28:29.621-00:00",
        "included_in_blocks":
          [ "BLzbYJhydjGiHULxnDkZNLpeED1JxPKMzYR3N6HB2ndAca3oLWo" ] },
      { "delegate": "tz3adcvQaKXTCg12zbninqo3q8ptKKtDFTLv",
        "reception_time": "2022-01-18T06:28:29.695-00:00",
        "included_in_blocks":
          [ "BLzbYJhydjGiHULxnDkZNLpeED1JxPKMzYR3N6HB2ndAca3oLWo" ] },
      { "delegate": "tz1fUyqYH7H4pRHN1roWY17giXhy1RvxjgUV",
        "reception_time": "2022-01-18T06:28:29.704-00:00",
        "included_in_blocks":
          [ "BLzbYJhydjGiHULxnDkZNLpeED1JxPKMzYR3N6HB2ndAca3oLWo" ] },
      { "delegate": "tz3RDC3Jdn4j15J7bBHZd29EUee9gVB1CxD9",
        "reception_time": "2022-01-18T06:28:29.713-00:00",
        "included_in_blocks":
          [ "BLzbYJhydjGiHULxnDkZNLpeED1JxPKMzYR3N6HB2ndAca3oLWo" ] },
      { "delegate": "tz1S8MNvuFEUsWgjHvi3AxibRBf388NhT1q2",
        "reception_time": "2022-01-18T06:28:29.728-00:00",
        "included_in_blocks":
          [ "BLzbYJhydjGiHULxnDkZNLpeED1JxPKMzYR3N6HB2ndAca3oLWo" ] },
      { "delegate": "tz1gfArv665EUkSg2ojMBzcbfwuPxAvqPvjo",
        "reception_time": "2022-01-18T06:28:29.734-00:00",
        "included_in_blocks":
          [ "BLzbYJhydjGiHULxnDkZNLpeED1JxPKMzYR3N6HB2ndAca3oLWo" ] },
      { "delegate": "tz3bTdwZinP8U1JmSweNzVKhmwafqWmFWRfk",
        "reception_time": "2022-01-18T06:28:29.754-00:00",
        "included_in_blocks":
          [ "BLzbYJhydjGiHULxnDkZNLpeED1JxPKMzYR3N6HB2ndAca3oLWo" ] },
      { "delegate": "tz3RB4aoyjov4KEVRbuhvQ1CKJgBJMWhaeB8",
        "reception_time": "2022-01-18T06:28:29.762-00:00",
        "included_in_blocks":
          [ "BLzbYJhydjGiHULxnDkZNLpeED1JxPKMzYR3N6HB2ndAca3oLWo" ] },
      { "delegate": "tz1PWCDnz783NNGGQjEFFsHtrcK5yBW4E2rm",
        "reception_time": "2022-01-18T06:28:29.766-00:00",
        "included_in_blocks":
          [ "BLzbYJhydjGiHULxnDkZNLpeED1JxPKMzYR3N6HB2ndAca3oLWo" ] },
      { "delegate": "tz1LmaFsWRkjr7QMCx5PtV6xTUz3AmEpKQiF",
        "reception_time": "2022-01-18T06:28:29.769-00:00",
        "included_in_blocks":
          [ "BLzbYJhydjGiHULxnDkZNLpeED1JxPKMzYR3N6HB2ndAca3oLWo" ] },
      { "delegate": "tz1d6Fx42mYgVFnHUW8T8A7WBfJ6nD9pVok8",
        "reception_time": "2022-01-18T06:28:29.777-00:00",
        "included_in_blocks":
          [ "BLzbYJhydjGiHULxnDkZNLpeED1JxPKMzYR3N6HB2ndAca3oLWo" ] },
      { "delegate": "tz1VQnqCCqX4K5sP3FNkVSNKTdCAMJDd3E1n",
        "reception_time": "2022-01-18T06:28:29.780-00:00",
        "included_in_blocks":
          [ "BLzbYJhydjGiHULxnDkZNLpeED1JxPKMzYR3N6HB2ndAca3oLWo" ] },
      { "delegate": "tz1MDSg9ycDZmRxDqymSmHsWUgozhTvYskPi",
        "reception_time": "2022-01-18T06:28:29.836-00:00",
        "included_in_blocks":
          [ "BLzbYJhydjGiHULxnDkZNLpeED1JxPKMzYR3N6HB2ndAca3oLWo" ] },
      { "delegate": "tz1gUNyn3hmnEWqkusWPzxRaon1cs7ndWh7h",
        "reception_time": "2022-01-18T06:28:29.840-00:00",
        "included_in_blocks":
          [ "BLzbYJhydjGiHULxnDkZNLpeED1JxPKMzYR3N6HB2ndAca3oLWo" ] },
      { "delegate": "tz1MGTFJXpQmtxLi8QJ7AuVRgM2L2Qfn9w9i",
        "reception_time": "2022-01-18T06:28:29.845-00:00",
        "included_in_blocks":
          [ "BLzbYJhydjGiHULxnDkZNLpeED1JxPKMzYR3N6HB2ndAca3oLWo" ] },
      { "delegate": "tz1WnfXMPaNTBmH7DBPwqCWs9cPDJdkGBTZ8",
        "reception_time": "2022-01-18T06:28:29.981-00:00",
        "included_in_blocks":
          [ "BLzbYJhydjGiHULxnDkZNLpeED1JxPKMzYR3N6HB2ndAca3oLWo" ] },
      { "delegate": "tz1Nf6tsK4G6bBqgSQERy4nUtkHNKUVdh7q1",
        "reception_time": "2022-01-18T06:28:29.989-00:00",
        "included_in_blocks":
          [ "BLzbYJhydjGiHULxnDkZNLpeED1JxPKMzYR3N6HB2ndAca3oLWo" ] },
      { "delegate": "tz1bxVgPCiveFHSand7zn22S8ZBtvNQbqgqU",
        "reception_time": "2022-01-18T06:28:30.015-00:00",
        "included_in_blocks":
          [ "BLzbYJhydjGiHULxnDkZNLpeED1JxPKMzYR3N6HB2ndAca3oLWo" ] },
      { "delegate": "tz1KfEsrtDaA1sX7vdM4qmEPWuSytuqCDp5j",
        "reception_time": "2022-01-18T06:28:30.061-00:00",
        "included_in_blocks":
          [ "BLzbYJhydjGiHULxnDkZNLpeED1JxPKMzYR3N6HB2ndAca3oLWo" ] },
      { "delegate": "tz1PeZx7FXy7QRuMREGXGxeipb24RsMMzUNe",
        "reception_time": "2022-01-18T06:28:30.079-00:00",
        "included_in_blocks":
          [ "BLzbYJhydjGiHULxnDkZNLpeED1JxPKMzYR3N6HB2ndAca3oLWo" ] },
      { "delegate": "tz1TEc75UKXv4W5cwi14Na3NtqFD51yKQi7h",
        "reception_time": "2022-01-18T06:28:30.140-00:00",
        "included_in_blocks":
          [ "BLzbYJhydjGiHULxnDkZNLpeED1JxPKMzYR3N6HB2ndAca3oLWo" ] },
      { "delegate": "tz2FCNBrERXtaTtNX6iimR1UJ5JSDxvdHM93",
        "reception_time": "2022-01-18T06:28:30.161-00:00",
        "included_in_blocks":
          [ "BLzbYJhydjGiHULxnDkZNLpeED1JxPKMzYR3N6HB2ndAca3oLWo" ] },
      { "delegate": "tz3VEZ4k6a4Wx42iyev6i2aVAptTRLEAivNN",
        "reception_time": "2022-01-18T06:28:30.175-00:00",
        "included_in_blocks":
          [ "BLzbYJhydjGiHULxnDkZNLpeED1JxPKMzYR3N6HB2ndAca3oLWo" ] },
      { "delegate": "tz3bvNMQ95vfAYtG8193ymshqjSvmxiCUuR5",
        "reception_time": "2022-01-18T06:28:30.203-00:00",
        "included_in_blocks":
          [ "BLzbYJhydjGiHULxnDkZNLpeED1JxPKMzYR3N6HB2ndAca3oLWo" ] },
      { "delegate": "tz1NEKxGEHsFufk87CVZcrqWu8o22qh46GK6",
        "reception_time": "2022-01-18T06:28:30.218-00:00",
        "included_in_blocks":
          [ "BLzbYJhydjGiHULxnDkZNLpeED1JxPKMzYR3N6HB2ndAca3oLWo" ] },
      { "delegate": "tz1abmz7jiCV2GH2u81LRrGgAFFgvQgiDiaf",
        "reception_time": "2022-01-18T06:28:30.220-00:00",
        "included_in_blocks":
          [ "BLzbYJhydjGiHULxnDkZNLpeED1JxPKMzYR3N6HB2ndAca3oLWo" ] },
      { "delegate": "tz1TRqbYbUf2GyrjErf3hBzgBJPzW8y36qEs",
        "reception_time": "2022-01-18T06:28:30.279-00:00",
        "included_in_blocks":
          [ "BLzbYJhydjGiHULxnDkZNLpeED1JxPKMzYR3N6HB2ndAca3oLWo" ] },
      { "delegate": "tz3gLTu4Yxj8tPAcriQVUdxv6BY9QyvzU1az",
        "reception_time": "2022-01-18T06:28:30.297-00:00",
        "included_in_blocks":
          [ "BLzbYJhydjGiHULxnDkZNLpeED1JxPKMzYR3N6HB2ndAca3oLWo" ] },
      { "delegate": "tz1RCFbB9GpALpsZtu6J58sb74dm8qe6XBzv",
        "reception_time": "2022-01-18T06:28:30.311-00:00",
        "included_in_blocks":
          [ "BLzbYJhydjGiHULxnDkZNLpeED1JxPKMzYR3N6HB2ndAca3oLWo" ] },
      { "delegate": "tz1axcnVN9tZnCe4sQQhC6f3tfSEXdjPaXPY",
        "reception_time": "2022-01-18T06:28:30.356-00:00",
        "included_in_blocks":
          [ "BLzbYJhydjGiHULxnDkZNLpeED1JxPKMzYR3N6HB2ndAca3oLWo" ] },
      { "delegate": "tz3WMqdzXqRWXwyvj5Hp2H7QEepaUuS7vd9K",
        "reception_time": "2022-01-18T06:28:30.510-00:00",
        "included_in_blocks":
          [ "BLzbYJhydjGiHULxnDkZNLpeED1JxPKMzYR3N6HB2ndAca3oLWo" ] },
      { "delegate": "tz1SYq214SCBy9naR6cvycQsYcUGpBqQAE8d",
        "reception_time": "2022-01-18T06:28:30.540-00:00",
        "included_in_blocks":
          [ "BLzbYJhydjGiHULxnDkZNLpeED1JxPKMzYR3N6HB2ndAca3oLWo" ] },
      { "delegate": "tz1SUgyRB8T5jXgXAwS33pgRHAKrafyg87Yc",
        "reception_time": "2022-01-18T06:28:30.645-00:00",
        "included_in_blocks":
          [ "BLzbYJhydjGiHULxnDkZNLpeED1JxPKMzYR3N6HB2ndAca3oLWo" ] },
      { "delegate": "tz1Zdk8q7wNasmv7VFeQ6QFwcw5fP2c7StoF",
        "reception_time": "2022-01-18T06:28:30.711-00:00",
        "included_in_blocks":
          [ "BLzbYJhydjGiHULxnDkZNLpeED1JxPKMzYR3N6HB2ndAca3oLWo" ] },
      { "delegate": "tz1RjoHc98dBoqaH2jawF62XNKh7YsHwbkEv",
        "reception_time": "2022-01-18T06:28:30.916-00:00",
        "included_in_blocks":
          [ "BLzbYJhydjGiHULxnDkZNLpeED1JxPKMzYR3N6HB2ndAca3oLWo" ] },
      { "delegate": "tz3NExpXn9aPNZPorRE4SdjJ2RGrfbJgMAaV",
        "reception_time": "2022-01-18T06:28:31.022-00:00",
        "included_in_blocks":
          [ "BLzbYJhydjGiHULxnDkZNLpeED1JxPKMzYR3N6HB2ndAca3oLWo" ] },
      { "delegate": "tz1T7duV5gZWSTq4YpBGbXNLTfznCLDrFxvs",
        "reception_time": "2022-01-18T06:28:31.148-00:00",
        "included_in_blocks":
          [ "BLzbYJhydjGiHULxnDkZNLpeED1JxPKMzYR3N6HB2ndAca3oLWo" ] },
      { "delegate": "tz1g8vkmcde6sWKaG2NN9WKzCkDM6Rziq194",
        "reception_time": "2022-01-18T06:28:31.199-00:00",
        "included_in_blocks":
          [ "BLzbYJhydjGiHULxnDkZNLpeED1JxPKMzYR3N6HB2ndAca3oLWo" ] },
      { "delegate": "tz1dRKU4FQ9QRRQPdaH4zCR6gmCmXfcvcgtB",
        "reception_time": "2022-01-18T06:28:31.243-00:00",
        "included_in_blocks":
          [ "BLzbYJhydjGiHULxnDkZNLpeED1JxPKMzYR3N6HB2ndAca3oLWo" ] },
      { "delegate": "tz1awXW7wuXy21c66vBudMXQVAPgRnqqwgTH",
        "reception_time": "2022-01-18T06:28:31.298-00:00",
        "included_in_blocks":
          [ "BLzbYJhydjGiHULxnDkZNLpeED1JxPKMzYR3N6HB2ndAca3oLWo" ] },
      { "delegate": "tz3UoffC7FG7zfpmvmjUmUeAaHvzdcUvAj6r",
        "reception_time": "2022-01-18T06:28:31.341-00:00",
        "included_in_blocks":
          [ "BLzbYJhydjGiHULxnDkZNLpeED1JxPKMzYR3N6HB2ndAca3oLWo" ] },
      { "delegate": "tz1TcH4Nb3aHNDJ7CGZhU7jgAK1BkSP4Lxds",
        "reception_time": "2022-01-18T06:28:32.057-00:00",
        "included_in_blocks":
          [ "BLzbYJhydjGiHULxnDkZNLpeED1JxPKMzYR3N6HB2ndAca3oLWo" ] },
      { "delegate": "tz1aRoaRhSpRYvFdyvgWLL6TGyRoGF51wDjM",
        "reception_time": "2022-01-18T06:28:32.174-00:00",
        "included_in_blocks":
          [ "BLzbYJhydjGiHULxnDkZNLpeED1JxPKMzYR3N6HB2ndAca3oLWo" ] },
      { "delegate": "tz1eVaNx3gCmG1EsLjijkmgAxdLYVf6Bf5Sq",
        "reception_time": "2022-01-18T06:28:33.214-00:00",
        "included_in_blocks":
          [ "BLzbYJhydjGiHULxnDkZNLpeED1JxPKMzYR3N6HB2ndAca3oLWo" ] },
      { "delegate": "tz1W5VkdB5s7ENMESVBtwyt9kyvLqPcUczRT",
        "reception_time": "2022-01-18T06:28:33.374-00:00",
        "included_in_blocks":
          [ "BLzbYJhydjGiHULxnDkZNLpeED1JxPKMzYR3N6HB2ndAca3oLWo" ] },
      { "delegate": "tz1cYufsxHXJcvANhvS55h3aY32a9BAFB494",
        "reception_time": "2022-01-18T06:28:33.934-00:00",
        "included_in_blocks":
          [ "BLzbYJhydjGiHULxnDkZNLpeED1JxPKMzYR3N6HB2ndAca3oLWo" ] } ] }