{ "blocks":
    [ { "hash": "BKqpFD8kshtz1tTbAWjBLAuhoMWApzS65wnXqpM4keKzmdHTgsf",
        "delegate": "tz1VQnqCCqX4K5sP3FNkVSNKTdCAMJDd3E1n",
        "reception_time": "2022-01-18T09:00:06.588-00:00",
        "timestamp": "2022-01-18T09:00:00Z" } ],
  "endorsements":
    [ { "delegate": "tz1dKRZVcmJBVNvaAueUmqX42vVEaLb2MbA6" },
      { "delegate": "tz1NdhRv643wLW6zCcRP3VfT24dvDnh7nuh9" },
      { "delegate": "tz3Zhs2dygr55yHyQyKjntAtY9bgfhLZ4Xj1",
        "reception_time": "2022-01-18T09:00:06.309-00:00",
        "errors":
          [ { "kind": "temporary",
              "id": "proto.011-PtHangz2.prefilter.outdated_endorsement" } ],
        "included_in_blocks":
          [ "BKoGbnN9F357Bk3sRTvp9gcquhaLMZNrzsz6DELUoZfAUHWWvg5" ] },
      { "delegate": "tz1fPKAtsYydh4f1wfWNfeNxWYu72TmM48fu",
        "reception_time": "2022-01-18T09:00:06.295-00:00",
        "errors":
          [ { "kind": "temporary",
              "id": "proto.011-PtHangz2.prefilter.outdated_endorsement" } ],
        "included_in_blocks":
          [ "BKoGbnN9F357Bk3sRTvp9gcquhaLMZNrzsz6DELUoZfAUHWWvg5" ] },
      { "delegate": "tz3S6BBeKgJGXxvLyZ1xzXzMPn11nnFtq5L9",
        "reception_time": "2022-01-18T09:00:06.290-00:00",
        "errors":
          [ { "kind": "temporary",
              "id": "proto.011-PtHangz2.prefilter.outdated_endorsement" } ],
        "included_in_blocks":
          [ "BKoGbnN9F357Bk3sRTvp9gcquhaLMZNrzsz6DELUoZfAUHWWvg5" ] },
      { "delegate": "tz3QT9dHYKDqh563chVa6za8526ys1UKfRfL",
        "reception_time": "2022-01-18T09:00:06.278-00:00",
        "errors":
          [ { "kind": "temporary",
              "id": "proto.011-PtHangz2.prefilter.outdated_endorsement" } ],
        "included_in_blocks":
          [ "BKoGbnN9F357Bk3sRTvp9gcquhaLMZNrzsz6DELUoZfAUHWWvg5" ] },
      { "delegate": "tz3iJu5vrKZcsqRPs8yJ61UDoeEXZmtro4qh",
        "reception_time": "2022-01-18T09:00:06.261-00:00",
        "errors":
          [ { "kind": "temporary",
              "id": "proto.011-PtHangz2.prefilter.outdated_endorsement" } ],
        "included_in_blocks":
          [ "BKoGbnN9F357Bk3sRTvp9gcquhaLMZNrzsz6DELUoZfAUHWWvg5" ] },
      { "delegate": "tz1TzaNn7wSQSP5gYPXCnNzBCpyMiidCq1PX",
        "reception_time": "2022-01-18T09:00:05.879-00:00",
        "errors":
          [ { "kind": "temporary",
              "id": "proto.011-PtHangz2.prefilter.outdated_endorsement" } ],
        "included_in_blocks":
          [ "BKoGbnN9F357Bk3sRTvp9gcquhaLMZNrzsz6DELUoZfAUHWWvg5" ] },
      { "delegate": "tz1aXD7Jigrt3PBYSpHSg5Rr33SexMmmM5Ys",
        "reception_time": "2022-01-18T09:00:05.770-00:00",
        "errors":
          [ { "kind": "temporary",
              "id": "proto.011-PtHangz2.prefilter.outdated_endorsement" } ],
        "included_in_blocks":
          [ "BKoGbnN9F357Bk3sRTvp9gcquhaLMZNrzsz6DELUoZfAUHWWvg5" ] },
      { "delegate": "tz3QSGPoRp3Kn7n3vY24eYeu3Peuqo45LQ4D",
        "reception_time": "2022-01-18T09:00:05.749-00:00",
        "errors":
          [ { "kind": "temporary",
              "id": "proto.011-PtHangz2.prefilter.outdated_endorsement" } ],
        "included_in_blocks":
          [ "BKoGbnN9F357Bk3sRTvp9gcquhaLMZNrzsz6DELUoZfAUHWWvg5" ] },
      { "delegate": "tz3gtoUxdudfBRcNY7iVdKPHCYYX6xdPpoRS",
        "reception_time": "2022-01-18T09:00:05.735-00:00",
        "errors":
          [ { "kind": "temporary",
              "id": "proto.011-PtHangz2.prefilter.outdated_endorsement" } ],
        "included_in_blocks":
          [ "BKoGbnN9F357Bk3sRTvp9gcquhaLMZNrzsz6DELUoZfAUHWWvg5" ] },
      { "delegate": "tz3hw2kqXhLUvY65ca1eety2oQTpAvd34R9Q",
        "reception_time": "2022-01-18T09:00:05.715-00:00",
        "errors":
          [ { "kind": "temporary",
              "id": "proto.011-PtHangz2.prefilter.outdated_endorsement" } ],
        "included_in_blocks":
          [ "BKoGbnN9F357Bk3sRTvp9gcquhaLMZNrzsz6DELUoZfAUHWWvg5" ] },
      { "delegate": "tz3RKYFsLuQzKBtmYuLNas7uMu3AsYd4QdsA",
        "reception_time": "2022-01-18T09:00:05.687-00:00",
        "errors":
          [ { "kind": "temporary",
              "id": "proto.011-PtHangz2.prefilter.outdated_endorsement" } ],
        "included_in_blocks":
          [ "BKoGbnN9F357Bk3sRTvp9gcquhaLMZNrzsz6DELUoZfAUHWWvg5" ] },
      { "delegate": "tz3NxTnke1acr8o3h5y9ytf5awQBGNJUKzVU",
        "reception_time": "2022-01-18T09:00:05.651-00:00",
        "errors":
          [ { "kind": "temporary",
              "id": "proto.011-PtHangz2.prefilter.outdated_endorsement" } ],
        "included_in_blocks":
          [ "BKoGbnN9F357Bk3sRTvp9gcquhaLMZNrzsz6DELUoZfAUHWWvg5" ] },
      { "delegate": "tz1irJKkXS2DBWkU1NnmFQx1c1L7pbGg4yhk",
        "reception_time": "2022-01-18T09:00:05.638-00:00",
        "errors":
          [ { "kind": "temporary",
              "id": "proto.011-PtHangz2.prefilter.outdated_endorsement" } ],
        "included_in_blocks":
          [ "BKoGbnN9F357Bk3sRTvp9gcquhaLMZNrzsz6DELUoZfAUHWWvg5" ] },
      { "delegate": "tz1Ldzz6k1BHdhuKvAtMRX7h5kJSMHESMHLC",
        "reception_time": "2022-01-18T09:00:05.626-00:00",
        "errors":
          [ { "kind": "temporary",
              "id": "proto.011-PtHangz2.prefilter.outdated_endorsement" } ],
        "included_in_blocks":
          [ "BKoGbnN9F357Bk3sRTvp9gcquhaLMZNrzsz6DELUoZfAUHWWvg5" ] },
      { "delegate": "tz1STeamwbp68THcny9zk3LsbG3H36DMvbRK",
        "reception_time": "2022-01-18T09:00:05.605-00:00",
        "errors":
          [ { "kind": "temporary",
              "id": "proto.011-PtHangz2.prefilter.outdated_endorsement" } ],
        "included_in_blocks":
          [ "BKoGbnN9F357Bk3sRTvp9gcquhaLMZNrzsz6DELUoZfAUHWWvg5" ] },
      { "delegate": "tz3ZbP2pM3nwvXztbuMJwJnDvV5xdpU8UkkD",
        "reception_time": "2022-01-18T09:00:05.594-00:00",
        "errors":
          [ { "kind": "temporary",
              "id": "proto.011-PtHangz2.prefilter.outdated_endorsement" } ],
        "included_in_blocks":
          [ "BKoGbnN9F357Bk3sRTvp9gcquhaLMZNrzsz6DELUoZfAUHWWvg5" ] },
      { "delegate": "tz1gUNyn3hmnEWqkusWPzxRaon1cs7ndWh7h",
        "reception_time": "2022-01-18T09:00:05.424-00:00",
        "errors":
          [ { "kind": "temporary",
              "id": "proto.011-PtHangz2.prefilter.outdated_endorsement" } ],
        "included_in_blocks":
          [ "BKoGbnN9F357Bk3sRTvp9gcquhaLMZNrzsz6DELUoZfAUHWWvg5" ] },
      { "delegate": "tz1VmiY38m3y95HqQLjMwqnMS7sdMfGomzKi",
        "reception_time": "2022-01-18T09:00:05.314-00:00",
        "errors":
          [ { "kind": "temporary",
              "id": "proto.011-PtHangz2.prefilter.outdated_endorsement" } ],
        "included_in_blocks":
          [ "BKoGbnN9F357Bk3sRTvp9gcquhaLMZNrzsz6DELUoZfAUHWWvg5" ] },
      { "delegate": "tz1eEnQhbwf6trb8Q8mPb2RaPkNk2rN7BKi8",
        "reception_time": "2022-01-18T09:00:05.313-00:00",
        "errors":
          [ { "kind": "temporary",
              "id": "proto.011-PtHangz2.prefilter.outdated_endorsement" } ],
        "included_in_blocks":
          [ "BKoGbnN9F357Bk3sRTvp9gcquhaLMZNrzsz6DELUoZfAUHWWvg5" ] },
      { "delegate": "tz1VQnqCCqX4K5sP3FNkVSNKTdCAMJDd3E1n",
        "reception_time": "2022-01-18T09:00:05.310-00:00",
        "errors":
          [ { "kind": "temporary",
              "id": "proto.011-PtHangz2.prefilter.outdated_endorsement" } ],
        "included_in_blocks":
          [ "BKoGbnN9F357Bk3sRTvp9gcquhaLMZNrzsz6DELUoZfAUHWWvg5" ] },
      { "delegate": "tz1MXFrtZoaXckE41bjUCSjAjAap3AFDSr3N",
        "reception_time": "2022-01-18T09:00:05.288-00:00",
        "errors":
          [ { "kind": "temporary",
              "id": "proto.011-PtHangz2.prefilter.outdated_endorsement" } ],
        "included_in_blocks":
          [ "BKoGbnN9F357Bk3sRTvp9gcquhaLMZNrzsz6DELUoZfAUHWWvg5" ] },
      { "delegate": "tz1P2Po7YM526ughEsRbY4oR9zaUPDZjxFrb",
        "reception_time": "2022-01-18T09:00:05.179-00:00",
        "errors":
          [ { "kind": "temporary",
              "id": "proto.011-PtHangz2.prefilter.outdated_endorsement" } ],
        "included_in_blocks":
          [ "BKoGbnN9F357Bk3sRTvp9gcquhaLMZNrzsz6DELUoZfAUHWWvg5" ] },
      { "delegate": "tz1Scdr2HsZiQjc7bHMeBbmDRXYVvdhjJbBh",
        "reception_time": "2022-01-18T09:00:05.163-00:00",
        "errors":
          [ { "kind": "temporary",
              "id": "proto.011-PtHangz2.prefilter.outdated_endorsement" } ],
        "included_in_blocks":
          [ "BKoGbnN9F357Bk3sRTvp9gcquhaLMZNrzsz6DELUoZfAUHWWvg5" ] },
      { "delegate": "tz1XXayQohB8XRXN7kMoHbf2NFwNiH3oMRQQ",
        "reception_time": "2022-01-18T09:00:04.896-00:00",
        "errors":
          [ { "kind": "temporary",
              "id": "proto.011-PtHangz2.prefilter.outdated_endorsement" } ],
        "included_in_blocks":
          [ "BKoGbnN9F357Bk3sRTvp9gcquhaLMZNrzsz6DELUoZfAUHWWvg5" ] },
      { "delegate": "tz1fJHFn6sWEd3NnBPngACuw2dggTv6nQZ7g",
        "reception_time": "2022-01-18T09:00:14.262-00:00",
        "included_in_blocks":
          [ "BKoGbnN9F357Bk3sRTvp9gcquhaLMZNrzsz6DELUoZfAUHWWvg5" ] },
      { "delegate": "tz1TRqbYbUf2GyrjErf3hBzgBJPzW8y36qEs",
        "reception_time": "2022-01-18T09:00:14.185-00:00",
        "included_in_blocks":
          [ "BKoGbnN9F357Bk3sRTvp9gcquhaLMZNrzsz6DELUoZfAUHWWvg5" ] },
      { "delegate": "tz1W5VkdB5s7ENMESVBtwyt9kyvLqPcUczRT",
        "reception_time": "2022-01-18T09:00:12.725-00:00",
        "included_in_blocks":
          [ "BKoGbnN9F357Bk3sRTvp9gcquhaLMZNrzsz6DELUoZfAUHWWvg5" ] },
      { "delegate": "tz1QJU1PuKUP5ZQxUr4pHZjCHGRvJSpcXv7G",
        "reception_time": "2022-01-18T09:00:11.616-00:00",
        "included_in_blocks":
          [ "BKoGbnN9F357Bk3sRTvp9gcquhaLMZNrzsz6DELUoZfAUHWWvg5" ] },
      { "delegate": "tz2FCNBrERXtaTtNX6iimR1UJ5JSDxvdHM93",
        "reception_time": "2022-01-18T09:00:11.379-00:00",
        "included_in_blocks":
          [ "BKoGbnN9F357Bk3sRTvp9gcquhaLMZNrzsz6DELUoZfAUHWWvg5" ] },
      { "delegate": "tz1RjoHc98dBoqaH2jawF62XNKh7YsHwbkEv",
        "reception_time": "2022-01-18T09:00:10.676-00:00",
        "included_in_blocks":
          [ "BKoGbnN9F357Bk3sRTvp9gcquhaLMZNrzsz6DELUoZfAUHWWvg5" ] },
      { "delegate": "tz1QccGQsmt7WMnbVX9inJQgEuQGeMXddfjp",
        "reception_time": "2022-01-18T09:00:10.641-00:00",
        "included_in_blocks":
          [ "BKoGbnN9F357Bk3sRTvp9gcquhaLMZNrzsz6DELUoZfAUHWWvg5" ] },
      { "delegate": "tz1TcH4Nb3aHNDJ7CGZhU7jgAK1BkSP4Lxds",
        "reception_time": "2022-01-18T09:00:10.487-00:00",
        "included_in_blocks":
          [ "BKoGbnN9F357Bk3sRTvp9gcquhaLMZNrzsz6DELUoZfAUHWWvg5" ] },
      { "delegate": "tz1PeZx7FXy7QRuMREGXGxeipb24RsMMzUNe",
        "reception_time": "2022-01-18T09:00:10.045-00:00",
        "included_in_blocks":
          [ "BKoGbnN9F357Bk3sRTvp9gcquhaLMZNrzsz6DELUoZfAUHWWvg5" ] },
      { "delegate": "tz1PFeoTuFen8jAMRHajBySNyCwLmY5RqF9M",
        "reception_time": "2022-01-18T09:00:09.500-00:00",
        "included_in_blocks":
          [ "BKoGbnN9F357Bk3sRTvp9gcquhaLMZNrzsz6DELUoZfAUHWWvg5" ] },
      { "delegate": "tz1ULYFhUY7Syao5NWr9jZ1pp3aw81QPiqjs",
        "reception_time": "2022-01-18T09:00:09.463-00:00",
        "included_in_blocks":
          [ "BKoGbnN9F357Bk3sRTvp9gcquhaLMZNrzsz6DELUoZfAUHWWvg5" ] },
      { "delegate": "tz1WctSwL49BZtdWAQ75NY6vr4xsAx6oKdah",
        "reception_time": "2022-01-18T09:00:08.876-00:00",
        "included_in_blocks":
          [ "BKoGbnN9F357Bk3sRTvp9gcquhaLMZNrzsz6DELUoZfAUHWWvg5" ] },
      { "delegate": "tz1RCFbB9GpALpsZtu6J58sb74dm8qe6XBzv",
        "reception_time": "2022-01-18T09:00:08.929-00:00",
        "included_in_blocks":
          [ "BKoGbnN9F357Bk3sRTvp9gcquhaLMZNrzsz6DELUoZfAUHWWvg5" ] },
      { "delegate": "tz1MQJPGNMijnXnVoBENFz9rUhaPt3S7rWoz",
        "reception_time": "2022-01-18T09:00:08.676-00:00",
        "included_in_blocks":
          [ "BKoGbnN9F357Bk3sRTvp9gcquhaLMZNrzsz6DELUoZfAUHWWvg5" ] },
      { "delegate": "tz3NExpXn9aPNZPorRE4SdjJ2RGrfbJgMAaV",
        "reception_time": "2022-01-18T09:00:08.835-00:00",
        "included_in_blocks":
          [ "BKoGbnN9F357Bk3sRTvp9gcquhaLMZNrzsz6DELUoZfAUHWWvg5" ] },
      { "delegate": "tz1fwnfJNgiDACshK9avfRfFbMaXrs3ghoJa",
        "reception_time": "2022-01-18T09:00:08.622-00:00",
        "included_in_blocks":
          [ "BKoGbnN9F357Bk3sRTvp9gcquhaLMZNrzsz6DELUoZfAUHWWvg5" ] },
      { "delegate": "tz3WMqdzXqRWXwyvj5Hp2H7QEepaUuS7vd9K",
        "reception_time": "2022-01-18T09:00:08.565-00:00",
        "included_in_blocks":
          [ "BKoGbnN9F357Bk3sRTvp9gcquhaLMZNrzsz6DELUoZfAUHWWvg5" ] },
      { "delegate": "tz1aRoaRhSpRYvFdyvgWLL6TGyRoGF51wDjM",
        "reception_time": "2022-01-18T09:00:08.499-00:00",
        "included_in_blocks":
          [ "BKoGbnN9F357Bk3sRTvp9gcquhaLMZNrzsz6DELUoZfAUHWWvg5" ] },
      { "delegate": "tz1WnfXMPaNTBmH7DBPwqCWs9cPDJdkGBTZ8",
        "reception_time": "2022-01-18T09:00:08.185-00:00",
        "included_in_blocks":
          [ "BKoGbnN9F357Bk3sRTvp9gcquhaLMZNrzsz6DELUoZfAUHWWvg5" ] },
      { "delegate": "tz1dRKU4FQ9QRRQPdaH4zCR6gmCmXfcvcgtB",
        "reception_time": "2022-01-18T09:00:08.357-00:00",
        "included_in_blocks":
          [ "BKoGbnN9F357Bk3sRTvp9gcquhaLMZNrzsz6DELUoZfAUHWWvg5" ] },
      { "delegate": "tz3bvNMQ95vfAYtG8193ymshqjSvmxiCUuR5",
        "reception_time": "2022-01-18T09:00:08.238-00:00",
        "included_in_blocks":
          [ "BKoGbnN9F357Bk3sRTvp9gcquhaLMZNrzsz6DELUoZfAUHWWvg5" ] },
      { "delegate": "tz1chefX9Lf2XcZ4BzPtHjV4Qed6BY2ci9GE",
        "reception_time": "2022-01-18T09:00:08.269-00:00",
        "included_in_blocks":
          [ "BKoGbnN9F357Bk3sRTvp9gcquhaLMZNrzsz6DELUoZfAUHWWvg5" ] },
      { "delegate": "tz3UoffC7FG7zfpmvmjUmUeAaHvzdcUvAj6r",
        "reception_time": "2022-01-18T09:00:08.217-00:00",
        "included_in_blocks":
          [ "BKoGbnN9F357Bk3sRTvp9gcquhaLMZNrzsz6DELUoZfAUHWWvg5" ] },
      { "delegate": "tz1iPHM2Xx2hwmzcr1EG1zzrV6oKafVoA91m",
        "reception_time": "2022-01-18T09:00:08.176-00:00",
        "included_in_blocks":
          [ "BKoGbnN9F357Bk3sRTvp9gcquhaLMZNrzsz6DELUoZfAUHWWvg5" ] },
      { "delegate": "tz3VEZ4k6a4Wx42iyev6i2aVAptTRLEAivNN",
        "reception_time": "2022-01-18T09:00:08.064-00:00",
        "included_in_blocks":
          [ "BKoGbnN9F357Bk3sRTvp9gcquhaLMZNrzsz6DELUoZfAUHWWvg5" ] },
      { "delegate": "tz1SYq214SCBy9naR6cvycQsYcUGpBqQAE8d",
        "reception_time": "2022-01-18T09:00:08.056-00:00",
        "included_in_blocks":
          [ "BKoGbnN9F357Bk3sRTvp9gcquhaLMZNrzsz6DELUoZfAUHWWvg5" ] },
      { "delegate": "tz3RDC3Jdn4j15J7bBHZd29EUee9gVB1CxD9",
        "reception_time": "2022-01-18T09:00:08.094-00:00",
        "included_in_blocks":
          [ "BKoGbnN9F357Bk3sRTvp9gcquhaLMZNrzsz6DELUoZfAUHWWvg5" ] },
      { "delegate": "tz3RB4aoyjov4KEVRbuhvQ1CKJgBJMWhaeB8",
        "reception_time": "2022-01-18T09:00:08.020-00:00",
        "included_in_blocks":
          [ "BKoGbnN9F357Bk3sRTvp9gcquhaLMZNrzsz6DELUoZfAUHWWvg5" ] },
      { "delegate": "tz1UMCB2AHSTwG7YcGNr31CqYCtGN873royv",
        "reception_time": "2022-01-18T09:00:07.965-00:00",
        "included_in_blocks":
          [ "BKoGbnN9F357Bk3sRTvp9gcquhaLMZNrzsz6DELUoZfAUHWWvg5" ] },
      { "delegate": "tz1NEKxGEHsFufk87CVZcrqWu8o22qh46GK6",
        "reception_time": "2022-01-18T09:00:07.918-00:00",
        "included_in_blocks":
          [ "BKoGbnN9F357Bk3sRTvp9gcquhaLMZNrzsz6DELUoZfAUHWWvg5" ] },
      { "delegate": "tz1TEc75UKXv4W5cwi14Na3NtqFD51yKQi7h",
        "reception_time": "2022-01-18T09:00:07.844-00:00",
        "included_in_blocks":
          [ "BKoGbnN9F357Bk3sRTvp9gcquhaLMZNrzsz6DELUoZfAUHWWvg5" ] },
      { "delegate": "tz1abmz7jiCV2GH2u81LRrGgAFFgvQgiDiaf",
        "reception_time": "2022-01-18T09:00:07.835-00:00",
        "included_in_blocks":
          [ "BKoGbnN9F357Bk3sRTvp9gcquhaLMZNrzsz6DELUoZfAUHWWvg5" ] },
      { "delegate": "tz3NDpRj6WBrJPikcPVHRBEjWKxFw3c6eQPS",
        "reception_time": "2022-01-18T09:00:07.803-00:00",
        "included_in_blocks":
          [ "BKoGbnN9F357Bk3sRTvp9gcquhaLMZNrzsz6DELUoZfAUHWWvg5" ] },
      { "delegate": "tz1KfEsrtDaA1sX7vdM4qmEPWuSytuqCDp5j",
        "reception_time": "2022-01-18T09:00:07.791-00:00",
        "included_in_blocks":
          [ "BKoGbnN9F357Bk3sRTvp9gcquhaLMZNrzsz6DELUoZfAUHWWvg5" ] },
      { "delegate": "tz1Tnjaxk6tbAeC2TmMApPh8UsrEVQvhHvx5",
        "reception_time": "2022-01-18T09:00:07.827-00:00",
        "included_in_blocks":
          [ "BKoGbnN9F357Bk3sRTvp9gcquhaLMZNrzsz6DELUoZfAUHWWvg5" ] },
      { "delegate": "tz1WBfwbT66FC6BTLexc2BoyCCBM9LG7pnVW",
        "reception_time": "2022-01-18T09:00:07.831-00:00",
        "included_in_blocks":
          [ "BKoGbnN9F357Bk3sRTvp9gcquhaLMZNrzsz6DELUoZfAUHWWvg5" ] },
      { "delegate": "tz1Nf6tsK4G6bBqgSQERy4nUtkHNKUVdh7q1",
        "reception_time": "2022-01-18T09:00:07.759-00:00",
        "included_in_blocks":
          [ "BKoGbnN9F357Bk3sRTvp9gcquhaLMZNrzsz6DELUoZfAUHWWvg5" ] },
      { "delegate": "tz1V4qCyvPKZ5UeqdH14HN42rxvNPQfc9UZg",
        "reception_time": "2022-01-18T09:00:07.794-00:00",
        "included_in_blocks":
          [ "BKoGbnN9F357Bk3sRTvp9gcquhaLMZNrzsz6DELUoZfAUHWWvg5" ] },
      { "delegate": "tz1iZEKy4LaAjnTmn2RuGDf2iqdAQKnRi8kY",
        "reception_time": "2022-01-18T09:00:07.780-00:00",
        "included_in_blocks":
          [ "BKoGbnN9F357Bk3sRTvp9gcquhaLMZNrzsz6DELUoZfAUHWWvg5" ] },
      { "delegate": "tz1S8MNvuFEUsWgjHvi3AxibRBf388NhT1q2",
        "reception_time": "2022-01-18T09:00:07.752-00:00",
        "included_in_blocks":
          [ "BKoGbnN9F357Bk3sRTvp9gcquhaLMZNrzsz6DELUoZfAUHWWvg5" ] },
      { "delegate": "tz1dNVDWPf3Q59SdJqnjdnu277iyvReiRS9M",
        "reception_time": "2022-01-18T09:00:07.745-00:00",
        "included_in_blocks":
          [ "BKoGbnN9F357Bk3sRTvp9gcquhaLMZNrzsz6DELUoZfAUHWWvg5" ] },
      { "delegate": "tz1gfArv665EUkSg2ojMBzcbfwuPxAvqPvjo",
        "reception_time": "2022-01-18T09:00:07.736-00:00",
        "included_in_blocks":
          [ "BKoGbnN9F357Bk3sRTvp9gcquhaLMZNrzsz6DELUoZfAUHWWvg5" ] },
      { "delegate": "tz3bTdwZinP8U1JmSweNzVKhmwafqWmFWRfk",
        "reception_time": "2022-01-18T09:00:07.728-00:00",
        "included_in_blocks":
          [ "BKoGbnN9F357Bk3sRTvp9gcquhaLMZNrzsz6DELUoZfAUHWWvg5" ] },
      { "delegate": "tz1bHzftcTKZMTZgLLtnrXydCm6UEqf4ivca",
        "reception_time": "2022-01-18T09:00:07.739-00:00",
        "included_in_blocks":
          [ "BKoGbnN9F357Bk3sRTvp9gcquhaLMZNrzsz6DELUoZfAUHWWvg5" ] },
      { "delegate": "tz1ei4WtWEMEJekSv8qDnu9PExG6Q8HgRGr3",
        "reception_time": "2022-01-18T09:00:07.733-00:00",
        "included_in_blocks":
          [ "BKoGbnN9F357Bk3sRTvp9gcquhaLMZNrzsz6DELUoZfAUHWWvg5" ] },
      { "delegate": "tz1WCd2jm4uSt4vntk4vSuUWoZQGhLcDuR9q",
        "reception_time": "2022-01-18T09:00:07.705-00:00",
        "included_in_blocks":
          [ "BKoGbnN9F357Bk3sRTvp9gcquhaLMZNrzsz6DELUoZfAUHWWvg5" ] },
      { "delegate": "tz1PWCDnz783NNGGQjEFFsHtrcK5yBW4E2rm",
        "reception_time": "2022-01-18T09:00:07.626-00:00",
        "included_in_blocks":
          [ "BKoGbnN9F357Bk3sRTvp9gcquhaLMZNrzsz6DELUoZfAUHWWvg5" ] } ] }