{ "blocks":
    [ { "hash": "BMCcCmc1rrKrVPw9NCjZaKgCm6UrhzXNsQwmkQ9F6GmxJjMrm7c",
        "delegate": "tz1gfArv665EUkSg2ojMBzcbfwuPxAvqPvjo",
        "reception_time": "2022-01-18T05:42:26.650-00:00",
        "timestamp": "2022-01-18T05:42:20Z" } ],
  "endorsements":
    [ { "delegate": "tz1ibcPVGK4Y8pcW4BYUsojiHoBKnZbyDGrX" },
      { "delegate": "tz1Scdr2HsZiQjc7bHMeBbmDRXYVvdhjJbBh",
        "reception_time": "2022-01-18T05:42:27.381-00:00",
        "included_in_blocks":
          [ "BMGKy1TdBF3UReDpEDJMmTwEx8kB45U8PvHXLs68xTfEhPpzmQL" ] },
      { "delegate": "tz1Lhf4J9Qxoe3DZ2nfe8FGDnvVj7oKjnMY6",
        "reception_time": "2022-01-18T05:42:27.385-00:00",
        "included_in_blocks":
          [ "BMGKy1TdBF3UReDpEDJMmTwEx8kB45U8PvHXLs68xTfEhPpzmQL" ] },
      { "delegate": "tz1eEnQhbwf6trb8Q8mPb2RaPkNk2rN7BKi8",
        "reception_time": "2022-01-18T05:42:27.388-00:00",
        "included_in_blocks":
          [ "BMGKy1TdBF3UReDpEDJMmTwEx8kB45U8PvHXLs68xTfEhPpzmQL" ] },
      { "delegate": "tz1beersuEDv8Z7ngQ825xfbaJNS2EhXnyHR",
        "reception_time": "2022-01-18T05:42:27.414-00:00",
        "included_in_blocks":
          [ "BMGKy1TdBF3UReDpEDJMmTwEx8kB45U8PvHXLs68xTfEhPpzmQL" ] },
      { "delegate": "tz1P2Po7YM526ughEsRbY4oR9zaUPDZjxFrb",
        "reception_time": "2022-01-18T05:42:27.418-00:00",
        "included_in_blocks":
          [ "BMGKy1TdBF3UReDpEDJMmTwEx8kB45U8PvHXLs68xTfEhPpzmQL" ] },
      { "delegate": "tz1TRspM5SeZpaQUhzByXbEvqKF1vnCM2YTK",
        "reception_time": "2022-01-18T05:42:27.421-00:00",
        "included_in_blocks":
          [ "BMGKy1TdBF3UReDpEDJMmTwEx8kB45U8PvHXLs68xTfEhPpzmQL" ] },
      { "delegate": "tz1Kt4P8BCaP93AEV4eA7gmpRryWt5hznjCP",
        "reception_time": "2022-01-18T05:42:27.426-00:00",
        "included_in_blocks":
          [ "BMGKy1TdBF3UReDpEDJMmTwEx8kB45U8PvHXLs68xTfEhPpzmQL" ] },
      { "delegate": "tz1cX93Q3KsiTADpCC4f12TBvAmS5tw7CW19",
        "reception_time": "2022-01-18T05:42:27.426-00:00",
        "included_in_blocks":
          [ "BMGKy1TdBF3UReDpEDJMmTwEx8kB45U8PvHXLs68xTfEhPpzmQL" ] },
      { "delegate": "tz1ZPh7XfUaJXUDvkrBxmS1BjEM1i62hiPpM",
        "reception_time": "2022-01-18T05:42:27.429-00:00",
        "included_in_blocks":
          [ "BMGKy1TdBF3UReDpEDJMmTwEx8kB45U8PvHXLs68xTfEhPpzmQL" ] },
      { "delegate": "tz1irJKkXS2DBWkU1NnmFQx1c1L7pbGg4yhk",
        "reception_time": "2022-01-18T05:42:27.436-00:00",
        "included_in_blocks":
          [ "BMGKy1TdBF3UReDpEDJMmTwEx8kB45U8PvHXLs68xTfEhPpzmQL" ] },
      { "delegate": "tz1MQMiZHV8q4tTwUMWmS5Y3kaP6J2136iXr",
        "reception_time": "2022-01-18T05:42:27.459-00:00",
        "included_in_blocks":
          [ "BMGKy1TdBF3UReDpEDJMmTwEx8kB45U8PvHXLs68xTfEhPpzmQL" ] },
      { "delegate": "tz3ZbP2pM3nwvXztbuMJwJnDvV5xdpU8UkkD",
        "reception_time": "2022-01-18T05:42:27.477-00:00",
        "included_in_blocks":
          [ "BMGKy1TdBF3UReDpEDJMmTwEx8kB45U8PvHXLs68xTfEhPpzmQL" ] },
      { "delegate": "tz3NxTnke1acr8o3h5y9ytf5awQBGNJUKzVU",
        "reception_time": "2022-01-18T05:42:27.484-00:00",
        "included_in_blocks":
          [ "BMGKy1TdBF3UReDpEDJMmTwEx8kB45U8PvHXLs68xTfEhPpzmQL" ] },
      { "delegate": "tz3iJu5vrKZcsqRPs8yJ61UDoeEXZmtro4qh",
        "reception_time": "2022-01-18T05:42:27.550-00:00",
        "included_in_blocks":
          [ "BMGKy1TdBF3UReDpEDJMmTwEx8kB45U8PvHXLs68xTfEhPpzmQL" ] },
      { "delegate": "tz3QSGPoRp3Kn7n3vY24eYeu3Peuqo45LQ4D",
        "reception_time": "2022-01-18T05:42:27.591-00:00",
        "included_in_blocks":
          [ "BMGKy1TdBF3UReDpEDJMmTwEx8kB45U8PvHXLs68xTfEhPpzmQL" ] },
      { "delegate": "tz1fUyqYH7H4pRHN1roWY17giXhy1RvxjgUV",
        "reception_time": "2022-01-18T05:42:27.594-00:00",
        "included_in_blocks":
          [ "BMGKy1TdBF3UReDpEDJMmTwEx8kB45U8PvHXLs68xTfEhPpzmQL" ] },
      { "delegate": "tz3Zhs2dygr55yHyQyKjntAtY9bgfhLZ4Xj1",
        "reception_time": "2022-01-18T05:42:27.605-00:00",
        "included_in_blocks":
          [ "BMGKy1TdBF3UReDpEDJMmTwEx8kB45U8PvHXLs68xTfEhPpzmQL" ] },
      { "delegate": "tz3gtoUxdudfBRcNY7iVdKPHCYYX6xdPpoRS",
        "reception_time": "2022-01-18T05:42:27.645-00:00",
        "included_in_blocks":
          [ "BMGKy1TdBF3UReDpEDJMmTwEx8kB45U8PvHXLs68xTfEhPpzmQL" ] },
      { "delegate": "tz1VmiY38m3y95HqQLjMwqnMS7sdMfGomzKi",
        "reception_time": "2022-01-18T05:42:27.701-00:00",
        "included_in_blocks":
          [ "BMGKy1TdBF3UReDpEDJMmTwEx8kB45U8PvHXLs68xTfEhPpzmQL" ] },
      { "delegate": "tz3QT9dHYKDqh563chVa6za8526ys1UKfRfL",
        "reception_time": "2022-01-18T05:42:27.728-00:00",
        "included_in_blocks":
          [ "BMGKy1TdBF3UReDpEDJMmTwEx8kB45U8PvHXLs68xTfEhPpzmQL" ] },
      { "delegate": "tz3S6BBeKgJGXxvLyZ1xzXzMPn11nnFtq5L9",
        "reception_time": "2022-01-18T05:42:27.736-00:00",
        "included_in_blocks":
          [ "BMGKy1TdBF3UReDpEDJMmTwEx8kB45U8PvHXLs68xTfEhPpzmQL" ] },
      { "delegate": "tz1Ldzz6k1BHdhuKvAtMRX7h5kJSMHESMHLC",
        "reception_time": "2022-01-18T05:42:27.746-00:00",
        "included_in_blocks":
          [ "BMGKy1TdBF3UReDpEDJMmTwEx8kB45U8PvHXLs68xTfEhPpzmQL" ] },
      { "delegate": "tz3RKYFsLuQzKBtmYuLNas7uMu3AsYd4QdsA",
        "reception_time": "2022-01-18T05:42:27.770-00:00",
        "included_in_blocks":
          [ "BMGKy1TdBF3UReDpEDJMmTwEx8kB45U8PvHXLs68xTfEhPpzmQL" ] },
      { "delegate": "tz1TzaNn7wSQSP5gYPXCnNzBCpyMiidCq1PX",
        "reception_time": "2022-01-18T05:42:27.851-00:00",
        "included_in_blocks":
          [ "BMGKy1TdBF3UReDpEDJMmTwEx8kB45U8PvHXLs68xTfEhPpzmQL" ] },
      { "delegate": "tz1gfArv665EUkSg2ojMBzcbfwuPxAvqPvjo",
        "reception_time": "2022-01-18T05:42:27.858-00:00",
        "included_in_blocks":
          [ "BMGKy1TdBF3UReDpEDJMmTwEx8kB45U8PvHXLs68xTfEhPpzmQL" ] },
      { "delegate": "tz3hw2kqXhLUvY65ca1eety2oQTpAvd34R9Q",
        "reception_time": "2022-01-18T05:42:27.876-00:00",
        "included_in_blocks":
          [ "BMGKy1TdBF3UReDpEDJMmTwEx8kB45U8PvHXLs68xTfEhPpzmQL" ] },
      { "delegate": "tz1ei4WtWEMEJekSv8qDnu9PExG6Q8HgRGr3",
        "reception_time": "2022-01-18T05:42:27.896-00:00",
        "included_in_blocks":
          [ "BMGKy1TdBF3UReDpEDJMmTwEx8kB45U8PvHXLs68xTfEhPpzmQL" ] },
      { "delegate": "tz1UJvHTgpVzcKWhTazGxVcn5wsHru5Gietg",
        "reception_time": "2022-01-18T05:42:27.968-00:00",
        "included_in_blocks":
          [ "BMGKy1TdBF3UReDpEDJMmTwEx8kB45U8PvHXLs68xTfEhPpzmQL" ] },
      { "delegate": "tz1V4qCyvPKZ5UeqdH14HN42rxvNPQfc9UZg",
        "reception_time": "2022-01-18T05:42:27.972-00:00",
        "included_in_blocks":
          [ "BMGKy1TdBF3UReDpEDJMmTwEx8kB45U8PvHXLs68xTfEhPpzmQL" ] },
      { "delegate": "tz1iPHM2Xx2hwmzcr1EG1zzrV6oKafVoA91m",
        "reception_time": "2022-01-18T05:42:28.008-00:00",
        "included_in_blocks":
          [ "BMGKy1TdBF3UReDpEDJMmTwEx8kB45U8PvHXLs68xTfEhPpzmQL" ] },
      { "delegate": "tz1fPKAtsYydh4f1wfWNfeNxWYu72TmM48fu",
        "reception_time": "2022-01-18T05:42:28.026-00:00",
        "included_in_blocks":
          [ "BMGKy1TdBF3UReDpEDJMmTwEx8kB45U8PvHXLs68xTfEhPpzmQL" ] },
      { "delegate": "tz1aqcYgG6NuViML5vdWhohHJBYxcDVLNUsE",
        "reception_time": "2022-01-18T05:42:28.033-00:00",
        "included_in_blocks":
          [ "BMGKy1TdBF3UReDpEDJMmTwEx8kB45U8PvHXLs68xTfEhPpzmQL" ] },
      { "delegate": "tz1WCd2jm4uSt4vntk4vSuUWoZQGhLcDuR9q",
        "reception_time": "2022-01-18T05:42:28.038-00:00",
        "included_in_blocks":
          [ "BMGKy1TdBF3UReDpEDJMmTwEx8kB45U8PvHXLs68xTfEhPpzmQL" ] },
      { "delegate": "tz1SFtJ3XwU1d6rWTRfJmwVDFpywcp4J743S",
        "reception_time": "2022-01-18T05:42:28.050-00:00",
        "included_in_blocks":
          [ "BMGKy1TdBF3UReDpEDJMmTwEx8kB45U8PvHXLs68xTfEhPpzmQL" ] },
      { "delegate": "tz1TEc75UKXv4W5cwi14Na3NtqFD51yKQi7h",
        "reception_time": "2022-01-18T05:42:28.088-00:00",
        "included_in_blocks":
          [ "BMGKy1TdBF3UReDpEDJMmTwEx8kB45U8PvHXLs68xTfEhPpzmQL" ] },
      { "delegate": "tz1S8MNvuFEUsWgjHvi3AxibRBf388NhT1q2",
        "reception_time": "2022-01-18T05:42:28.214-00:00",
        "included_in_blocks":
          [ "BMGKy1TdBF3UReDpEDJMmTwEx8kB45U8PvHXLs68xTfEhPpzmQL" ] },
      { "delegate": "tz1MQJPGNMijnXnVoBENFz9rUhaPt3S7rWoz",
        "reception_time": "2022-01-18T05:42:28.228-00:00",
        "included_in_blocks":
          [ "BMGKy1TdBF3UReDpEDJMmTwEx8kB45U8PvHXLs68xTfEhPpzmQL" ] },
      { "delegate": "tz3adcvQaKXTCg12zbninqo3q8ptKKtDFTLv",
        "reception_time": "2022-01-18T05:42:28.244-00:00",
        "included_in_blocks":
          [ "BMGKy1TdBF3UReDpEDJMmTwEx8kB45U8PvHXLs68xTfEhPpzmQL" ] },
      { "delegate": "tz1Tnjaxk6tbAeC2TmMApPh8UsrEVQvhHvx5",
        "reception_time": "2022-01-18T05:42:28.288-00:00",
        "included_in_blocks":
          [ "BMGKy1TdBF3UReDpEDJMmTwEx8kB45U8PvHXLs68xTfEhPpzmQL" ] },
      { "delegate": "tz1LmaFsWRkjr7QMCx5PtV6xTUz3AmEpKQiF",
        "reception_time": "2022-01-18T05:42:28.351-00:00",
        "included_in_blocks":
          [ "BMGKy1TdBF3UReDpEDJMmTwEx8kB45U8PvHXLs68xTfEhPpzmQL" ] },
      { "delegate": "tz1PWCDnz783NNGGQjEFFsHtrcK5yBW4E2rm",
        "reception_time": "2022-01-18T05:42:28.351-00:00",
        "included_in_blocks":
          [ "BMGKy1TdBF3UReDpEDJMmTwEx8kB45U8PvHXLs68xTfEhPpzmQL" ] },
      { "delegate": "tz1RCFbB9GpALpsZtu6J58sb74dm8qe6XBzv",
        "reception_time": "2022-01-18T05:42:28.427-00:00",
        "included_in_blocks":
          [ "BMGKy1TdBF3UReDpEDJMmTwEx8kB45U8PvHXLs68xTfEhPpzmQL" ] },
      { "delegate": "tz1gUNyn3hmnEWqkusWPzxRaon1cs7ndWh7h",
        "reception_time": "2022-01-18T05:42:28.441-00:00",
        "included_in_blocks":
          [ "BMGKy1TdBF3UReDpEDJMmTwEx8kB45U8PvHXLs68xTfEhPpzmQL" ] },
      { "delegate": "tz3RDC3Jdn4j15J7bBHZd29EUee9gVB1CxD9",
        "reception_time": "2022-01-18T05:42:28.558-00:00",
        "included_in_blocks":
          [ "BMGKy1TdBF3UReDpEDJMmTwEx8kB45U8PvHXLs68xTfEhPpzmQL" ] },
      { "delegate": "tz1VQnqCCqX4K5sP3FNkVSNKTdCAMJDd3E1n",
        "reception_time": "2022-01-18T05:42:28.558-00:00",
        "included_in_blocks":
          [ "BMGKy1TdBF3UReDpEDJMmTwEx8kB45U8PvHXLs68xTfEhPpzmQL" ] },
      { "delegate": "tz3RB4aoyjov4KEVRbuhvQ1CKJgBJMWhaeB8",
        "reception_time": "2022-01-18T05:42:28.566-00:00",
        "included_in_blocks":
          [ "BMGKy1TdBF3UReDpEDJMmTwEx8kB45U8PvHXLs68xTfEhPpzmQL" ] },
      { "delegate": "tz1R4PuhxUxBBZhfLJDx2nNjbr7WorAPX1oC",
        "reception_time": "2022-01-18T05:42:28.620-00:00",
        "included_in_blocks":
          [ "BMGKy1TdBF3UReDpEDJMmTwEx8kB45U8PvHXLs68xTfEhPpzmQL" ] },
      { "delegate": "tz1dwu9aYb7CRNq4Y2zAjipdjFuSVKhHS8vA",
        "reception_time": "2022-01-18T05:42:28.624-00:00",
        "included_in_blocks":
          [ "BMGKy1TdBF3UReDpEDJMmTwEx8kB45U8PvHXLs68xTfEhPpzmQL" ] },
      { "delegate": "tz3bTdwZinP8U1JmSweNzVKhmwafqWmFWRfk",
        "reception_time": "2022-01-18T05:42:28.642-00:00",
        "included_in_blocks":
          [ "BMGKy1TdBF3UReDpEDJMmTwEx8kB45U8PvHXLs68xTfEhPpzmQL" ] },
      { "delegate": "tz1WBfwbT66FC6BTLexc2BoyCCBM9LG7pnVW",
        "reception_time": "2022-01-18T05:42:28.671-00:00",
        "included_in_blocks":
          [ "BMGKy1TdBF3UReDpEDJMmTwEx8kB45U8PvHXLs68xTfEhPpzmQL" ] },
      { "delegate": "tz1TRqbYbUf2GyrjErf3hBzgBJPzW8y36qEs",
        "reception_time": "2022-01-18T05:42:28.724-00:00",
        "included_in_blocks":
          [ "BMGKy1TdBF3UReDpEDJMmTwEx8kB45U8PvHXLs68xTfEhPpzmQL" ] },
      { "delegate": "tz1NortRftucvAkD1J58L32EhSVrQEWJCEnB",
        "reception_time": "2022-01-18T05:42:28.759-00:00",
        "included_in_blocks":
          [ "BMGKy1TdBF3UReDpEDJMmTwEx8kB45U8PvHXLs68xTfEhPpzmQL" ] },
      { "delegate": "tz1SYq214SCBy9naR6cvycQsYcUGpBqQAE8d",
        "reception_time": "2022-01-18T05:42:28.814-00:00",
        "included_in_blocks":
          [ "BMGKy1TdBF3UReDpEDJMmTwEx8kB45U8PvHXLs68xTfEhPpzmQL" ] },
      { "delegate": "tz3NDpRj6WBrJPikcPVHRBEjWKxFw3c6eQPS",
        "reception_time": "2022-01-18T05:42:28.888-00:00",
        "included_in_blocks":
          [ "BMGKy1TdBF3UReDpEDJMmTwEx8kB45U8PvHXLs68xTfEhPpzmQL" ] },
      { "delegate": "tz1fwnfJNgiDACshK9avfRfFbMaXrs3ghoJa",
        "reception_time": "2022-01-18T05:42:28.975-00:00",
        "included_in_blocks":
          [ "BMGKy1TdBF3UReDpEDJMmTwEx8kB45U8PvHXLs68xTfEhPpzmQL" ] },
      { "delegate": "tz3WMqdzXqRWXwyvj5Hp2H7QEepaUuS7vd9K",
        "reception_time": "2022-01-18T05:42:28.982-00:00",
        "included_in_blocks":
          [ "BMGKy1TdBF3UReDpEDJMmTwEx8kB45U8PvHXLs68xTfEhPpzmQL" ] },
      { "delegate": "tz1Nf6tsK4G6bBqgSQERy4nUtkHNKUVdh7q1",
        "reception_time": "2022-01-18T05:42:29.008-00:00",
        "included_in_blocks":
          [ "BMGKy1TdBF3UReDpEDJMmTwEx8kB45U8PvHXLs68xTfEhPpzmQL" ] },
      { "delegate": "tz2FCNBrERXtaTtNX6iimR1UJ5JSDxvdHM93",
        "reception_time": "2022-01-18T05:42:29.021-00:00",
        "included_in_blocks":
          [ "BMGKy1TdBF3UReDpEDJMmTwEx8kB45U8PvHXLs68xTfEhPpzmQL" ] },
      { "delegate": "tz1KfEsrtDaA1sX7vdM4qmEPWuSytuqCDp5j",
        "reception_time": "2022-01-18T05:42:29.048-00:00",
        "included_in_blocks":
          [ "BMGKy1TdBF3UReDpEDJMmTwEx8kB45U8PvHXLs68xTfEhPpzmQL" ] },
      { "delegate": "tz1NEKxGEHsFufk87CVZcrqWu8o22qh46GK6",
        "reception_time": "2022-01-18T05:42:29.089-00:00",
        "included_in_blocks":
          [ "BMGKy1TdBF3UReDpEDJMmTwEx8kB45U8PvHXLs68xTfEhPpzmQL" ] },
      { "delegate": "tz3VEZ4k6a4Wx42iyev6i2aVAptTRLEAivNN",
        "reception_time": "2022-01-18T05:42:29.156-00:00",
        "included_in_blocks":
          [ "BMGKy1TdBF3UReDpEDJMmTwEx8kB45U8PvHXLs68xTfEhPpzmQL" ] },
      { "delegate": "tz1PeZx7FXy7QRuMREGXGxeipb24RsMMzUNe",
        "reception_time": "2022-01-18T05:42:29.188-00:00",
        "included_in_blocks":
          [ "BMGKy1TdBF3UReDpEDJMmTwEx8kB45U8PvHXLs68xTfEhPpzmQL" ] },
      { "delegate": "tz1WctSwL49BZtdWAQ75NY6vr4xsAx6oKdah",
        "reception_time": "2022-01-18T05:42:29.411-00:00",
        "included_in_blocks":
          [ "BMGKy1TdBF3UReDpEDJMmTwEx8kB45U8PvHXLs68xTfEhPpzmQL" ] },
      { "delegate": "tz1Q8QkSBS63ZQnH3fBTiAMPes9R666Rn6Sc",
        "reception_time": "2022-01-18T05:42:29.524-00:00",
        "included_in_blocks":
          [ "BMGKy1TdBF3UReDpEDJMmTwEx8kB45U8PvHXLs68xTfEhPpzmQL" ] },
      { "delegate": "tz1Z2jXfEXL7dXhs6bsLmyLFLfmAkXBzA9WE",
        "reception_time": "2022-01-18T05:42:29.567-00:00",
        "included_in_blocks":
          [ "BMGKy1TdBF3UReDpEDJMmTwEx8kB45U8PvHXLs68xTfEhPpzmQL" ] },
      { "delegate": "tz3bvNMQ95vfAYtG8193ymshqjSvmxiCUuR5",
        "reception_time": "2022-01-18T05:42:29.849-00:00",
        "included_in_blocks":
          [ "BMGKy1TdBF3UReDpEDJMmTwEx8kB45U8PvHXLs68xTfEhPpzmQL" ] },
      { "delegate": "tz1T7duV5gZWSTq4YpBGbXNLTfznCLDrFxvs",
        "reception_time": "2022-01-18T05:42:30.030-00:00",
        "included_in_blocks":
          [ "BMGKy1TdBF3UReDpEDJMmTwEx8kB45U8PvHXLs68xTfEhPpzmQL" ] },
      { "delegate": "tz1Uoy4PdQDDiHRRec77pJEQJ21tSyksarur",
        "reception_time": "2022-01-18T05:42:30.109-00:00",
        "included_in_blocks":
          [ "BMGKy1TdBF3UReDpEDJMmTwEx8kB45U8PvHXLs68xTfEhPpzmQL" ] },
      { "delegate": "tz3NExpXn9aPNZPorRE4SdjJ2RGrfbJgMAaV",
        "reception_time": "2022-01-18T05:42:30.219-00:00",
        "included_in_blocks":
          [ "BMGKy1TdBF3UReDpEDJMmTwEx8kB45U8PvHXLs68xTfEhPpzmQL" ] },
      { "delegate": "tz3UoffC7FG7zfpmvmjUmUeAaHvzdcUvAj6r",
        "reception_time": "2022-01-18T05:42:30.238-00:00",
        "included_in_blocks":
          [ "BMGKy1TdBF3UReDpEDJMmTwEx8kB45U8PvHXLs68xTfEhPpzmQL" ] },
      { "delegate": "tz1aRoaRhSpRYvFdyvgWLL6TGyRoGF51wDjM",
        "reception_time": "2022-01-18T05:42:30.697-00:00",
        "included_in_blocks":
          [ "BMGKy1TdBF3UReDpEDJMmTwEx8kB45U8PvHXLs68xTfEhPpzmQL" ] },
      { "delegate": "tz1cYufsxHXJcvANhvS55h3aY32a9BAFB494",
        "reception_time": "2022-01-18T05:42:30.703-00:00",
        "included_in_blocks":
          [ "BMGKy1TdBF3UReDpEDJMmTwEx8kB45U8PvHXLs68xTfEhPpzmQL" ] },
      { "delegate": "tz1g8vkmcde6sWKaG2NN9WKzCkDM6Rziq194",
        "reception_time": "2022-01-18T05:42:31.575-00:00",
        "included_in_blocks":
          [ "BMGKy1TdBF3UReDpEDJMmTwEx8kB45U8PvHXLs68xTfEhPpzmQL" ] },
      { "delegate": "tz1aJS7Pk9uWR3wWyFf1i3RwhYxN84G7stom",
        "reception_time": "2022-01-18T05:42:31.763-00:00",
        "included_in_blocks":
          [ "BMGKy1TdBF3UReDpEDJMmTwEx8kB45U8PvHXLs68xTfEhPpzmQL" ] },
      { "delegate": "tz1go7f6mEQfT2xX2LuHAqgnRGN6c2zHPf5c",
        "reception_time": "2022-01-18T05:42:33.108-00:00",
        "included_in_blocks":
          [ "BMGKy1TdBF3UReDpEDJMmTwEx8kB45U8PvHXLs68xTfEhPpzmQL" ] },
      { "delegate": "tz3e7LbZvUtoXhpUD1yb6wuFodZpfYRb9nWJ",
        "reception_time": "2022-01-18T05:42:35.887-00:00",
        "included_in_blocks":
          [ "BMGKy1TdBF3UReDpEDJMmTwEx8kB45U8PvHXLs68xTfEhPpzmQL" ] } ] }