{ "blocks":
    [ { "hash": "BLzDhjQCmyas96f5fJNwKnyhPpQxSUUyNciqvtomcV2LAyR6Bkb",
        "delegate": "tz1irJKkXS2DBWkU1NnmFQx1c1L7pbGg4yhk",
        "reception_time": "2022-01-18T08:50:38.056-00:00",
        "timestamp": "2022-01-18T08:50:30Z" } ],
  "endorsements":
    [ { "delegate": "tz3iJu5vrKZcsqRPs8yJ61UDoeEXZmtro4qh",
        "reception_time": "2022-01-18T08:50:38.060-00:00",
        "errors":
          [ { "kind": "temporary",
              "id": "proto.011-PtHangz2.prefilter.outdated_endorsement" } ],
        "included_in_blocks":
          [ "BLC9XvY1me9qEASGSwGpddZ6XmSANe9h9Zgws4x9CkdnknhH77w" ] },
      { "delegate": "tz3Zhs2dygr55yHyQyKjntAtY9bgfhLZ4Xj1",
        "reception_time": "2022-01-18T08:50:37.944-00:00",
        "errors":
          [ { "kind": "temporary",
              "id": "proto.011-PtHangz2.prefilter.outdated_endorsement" } ],
        "included_in_blocks":
          [ "BLC9XvY1me9qEASGSwGpddZ6XmSANe9h9Zgws4x9CkdnknhH77w" ] },
      { "delegate": "tz1aXD7Jigrt3PBYSpHSg5Rr33SexMmmM5Ys",
        "reception_time": "2022-01-18T08:50:37.746-00:00",
        "errors":
          [ { "kind": "temporary",
              "id": "proto.011-PtHangz2.prefilter.outdated_endorsement" } ],
        "included_in_blocks":
          [ "BLC9XvY1me9qEASGSwGpddZ6XmSANe9h9Zgws4x9CkdnknhH77w" ] },
      { "delegate": "tz1Ldzz6k1BHdhuKvAtMRX7h5kJSMHESMHLC",
        "reception_time": "2022-01-18T08:50:37.721-00:00",
        "errors":
          [ { "kind": "temporary",
              "id": "proto.011-PtHangz2.prefilter.outdated_endorsement" } ],
        "included_in_blocks":
          [ "BLC9XvY1me9qEASGSwGpddZ6XmSANe9h9Zgws4x9CkdnknhH77w" ] },
      { "delegate": "tz1ZPh7XfUaJXUDvkrBxmS1BjEM1i62hiPpM",
        "reception_time": "2022-01-18T08:50:37.680-00:00",
        "errors":
          [ { "kind": "temporary",
              "id": "proto.011-PtHangz2.prefilter.outdated_endorsement" } ],
        "included_in_blocks":
          [ "BLC9XvY1me9qEASGSwGpddZ6XmSANe9h9Zgws4x9CkdnknhH77w" ] },
      { "delegate": "tz3ZbP2pM3nwvXztbuMJwJnDvV5xdpU8UkkD",
        "reception_time": "2022-01-18T08:50:37.574-00:00",
        "errors":
          [ { "kind": "temporary",
              "id": "proto.011-PtHangz2.prefilter.outdated_endorsement" } ],
        "included_in_blocks":
          [ "BLC9XvY1me9qEASGSwGpddZ6XmSANe9h9Zgws4x9CkdnknhH77w" ] },
      { "delegate": "tz1VmiY38m3y95HqQLjMwqnMS7sdMfGomzKi",
        "reception_time": "2022-01-18T08:50:37.530-00:00",
        "errors":
          [ { "kind": "temporary",
              "id": "proto.011-PtHangz2.prefilter.outdated_endorsement" } ],
        "included_in_blocks":
          [ "BLC9XvY1me9qEASGSwGpddZ6XmSANe9h9Zgws4x9CkdnknhH77w" ] },
      { "delegate": "tz3NxTnke1acr8o3h5y9ytf5awQBGNJUKzVU",
        "reception_time": "2022-01-18T08:50:37.478-00:00",
        "errors":
          [ { "kind": "temporary",
              "id": "proto.011-PtHangz2.prefilter.outdated_endorsement" } ],
        "included_in_blocks":
          [ "BLC9XvY1me9qEASGSwGpddZ6XmSANe9h9Zgws4x9CkdnknhH77w" ] },
      { "delegate": "tz1RV1MBbZMR68tacosb7Mwj6LkbPSUS1er1",
        "reception_time": "2022-01-18T08:50:37.457-00:00",
        "errors":
          [ { "kind": "temporary",
              "id": "proto.011-PtHangz2.prefilter.outdated_endorsement" } ],
        "included_in_blocks":
          [ "BLC9XvY1me9qEASGSwGpddZ6XmSANe9h9Zgws4x9CkdnknhH77w" ] },
      { "delegate": "tz1STeamwbp68THcny9zk3LsbG3H36DMvbRK",
        "reception_time": "2022-01-18T08:50:37.453-00:00",
        "errors":
          [ { "kind": "temporary",
              "id": "proto.011-PtHangz2.prefilter.outdated_endorsement" } ],
        "included_in_blocks":
          [ "BLC9XvY1me9qEASGSwGpddZ6XmSANe9h9Zgws4x9CkdnknhH77w" ] },
      { "delegate": "tz1gUNyn3hmnEWqkusWPzxRaon1cs7ndWh7h",
        "reception_time": "2022-01-18T08:50:37.442-00:00",
        "errors":
          [ { "kind": "temporary",
              "id": "proto.011-PtHangz2.prefilter.outdated_endorsement" } ],
        "included_in_blocks":
          [ "BLC9XvY1me9qEASGSwGpddZ6XmSANe9h9Zgws4x9CkdnknhH77w" ] },
      { "delegate": "tz1VQnqCCqX4K5sP3FNkVSNKTdCAMJDd3E1n",
        "reception_time": "2022-01-18T08:50:37.432-00:00",
        "errors":
          [ { "kind": "temporary",
              "id": "proto.011-PtHangz2.prefilter.outdated_endorsement" } ],
        "included_in_blocks":
          [ "BLC9XvY1me9qEASGSwGpddZ6XmSANe9h9Zgws4x9CkdnknhH77w" ] },
      { "delegate": "tz1P2Po7YM526ughEsRbY4oR9zaUPDZjxFrb",
        "reception_time": "2022-01-18T08:50:36.998-00:00",
        "errors":
          [ { "kind": "temporary",
              "id": "proto.011-PtHangz2.prefilter.outdated_endorsement" } ],
        "included_in_blocks":
          [ "BLC9XvY1me9qEASGSwGpddZ6XmSANe9h9Zgws4x9CkdnknhH77w" ] },
      { "delegate": "tz1eEnQhbwf6trb8Q8mPb2RaPkNk2rN7BKi8",
        "reception_time": "2022-01-18T08:50:36.979-00:00",
        "errors":
          [ { "kind": "temporary",
              "id": "proto.011-PtHangz2.prefilter.outdated_endorsement" } ],
        "included_in_blocks":
          [ "BLC9XvY1me9qEASGSwGpddZ6XmSANe9h9Zgws4x9CkdnknhH77w" ] },
      { "delegate": "tz1QCgEy1GJntn7nrchb4FXLegr3Ue3ptasZ",
        "reception_time": "2022-01-18T08:50:36.963-00:00",
        "errors":
          [ { "kind": "temporary",
              "id": "proto.011-PtHangz2.prefilter.outdated_endorsement" } ],
        "included_in_blocks":
          [ "BLC9XvY1me9qEASGSwGpddZ6XmSANe9h9Zgws4x9CkdnknhH77w" ] },
      { "delegate": "tz1TXzyaKUA8wsWefdSnyaYFnV2M3vCV7er9",
        "reception_time": "2022-01-18T08:50:36.948-00:00",
        "errors":
          [ { "kind": "temporary",
              "id": "proto.011-PtHangz2.prefilter.outdated_endorsement" } ],
        "included_in_blocks":
          [ "BLC9XvY1me9qEASGSwGpddZ6XmSANe9h9Zgws4x9CkdnknhH77w" ] },
      { "delegate": "tz1irJKkXS2DBWkU1NnmFQx1c1L7pbGg4yhk",
        "reception_time": "2022-01-18T08:50:36.609-00:00",
        "errors":
          [ { "kind": "temporary",
              "id": "proto.011-PtHangz2.prefilter.outdated_endorsement" } ],
        "included_in_blocks":
          [ "BLC9XvY1me9qEASGSwGpddZ6XmSANe9h9Zgws4x9CkdnknhH77w" ] },
      { "delegate": "tz1dfg9PkvRLf7hKMmGdGRhXWCbd8QgbwBF7" },
      { "delegate": "tz3QSGPoRp3Kn7n3vY24eYeu3Peuqo45LQ4D",
        "reception_time": "2022-01-18T08:50:39.514-00:00",
        "included_in_blocks":
          [ "BLC9XvY1me9qEASGSwGpddZ6XmSANe9h9Zgws4x9CkdnknhH77w" ] },
      { "delegate": "tz3QT9dHYKDqh563chVa6za8526ys1UKfRfL",
        "reception_time": "2022-01-18T08:50:39.514-00:00",
        "included_in_blocks":
          [ "BLC9XvY1me9qEASGSwGpddZ6XmSANe9h9Zgws4x9CkdnknhH77w" ] },
      { "delegate": "tz3gtoUxdudfBRcNY7iVdKPHCYYX6xdPpoRS",
        "reception_time": "2022-01-18T08:50:39.514-00:00",
        "included_in_blocks":
          [ "BLC9XvY1me9qEASGSwGpddZ6XmSANe9h9Zgws4x9CkdnknhH77w" ] },
      { "delegate": "tz3S6BBeKgJGXxvLyZ1xzXzMPn11nnFtq5L9",
        "reception_time": "2022-01-18T08:50:39.514-00:00",
        "included_in_blocks":
          [ "BLC9XvY1me9qEASGSwGpddZ6XmSANe9h9Zgws4x9CkdnknhH77w" ] },
      { "delegate": "tz1WCd2jm4uSt4vntk4vSuUWoZQGhLcDuR9q",
        "reception_time": "2022-01-18T08:50:39.514-00:00",
        "included_in_blocks":
          [ "BLC9XvY1me9qEASGSwGpddZ6XmSANe9h9Zgws4x9CkdnknhH77w" ] },
      { "delegate": "tz1RSRhQCg3KYjr9QPFCLgGKciaB93oGTRh2",
        "reception_time": "2022-01-18T08:50:39.515-00:00",
        "included_in_blocks":
          [ "BLC9XvY1me9qEASGSwGpddZ6XmSANe9h9Zgws4x9CkdnknhH77w" ] },
      { "delegate": "tz1PWCDnz783NNGGQjEFFsHtrcK5yBW4E2rm",
        "reception_time": "2022-01-18T08:50:39.532-00:00",
        "included_in_blocks":
          [ "BLC9XvY1me9qEASGSwGpddZ6XmSANe9h9Zgws4x9CkdnknhH77w" ] },
      { "delegate": "tz1dwu9aYb7CRNq4Y2zAjipdjFuSVKhHS8vA",
        "reception_time": "2022-01-18T08:50:39.537-00:00",
        "included_in_blocks":
          [ "BLC9XvY1me9qEASGSwGpddZ6XmSANe9h9Zgws4x9CkdnknhH77w" ] },
      { "delegate": "tz3hw2kqXhLUvY65ca1eety2oQTpAvd34R9Q",
        "reception_time": "2022-01-18T08:50:39.562-00:00",
        "included_in_blocks":
          [ "BLC9XvY1me9qEASGSwGpddZ6XmSANe9h9Zgws4x9CkdnknhH77w" ] },
      { "delegate": "tz1ei4WtWEMEJekSv8qDnu9PExG6Q8HgRGr3",
        "reception_time": "2022-01-18T08:50:39.566-00:00",
        "included_in_blocks":
          [ "BLC9XvY1me9qEASGSwGpddZ6XmSANe9h9Zgws4x9CkdnknhH77w" ] },
      { "delegate": "tz3bTdwZinP8U1JmSweNzVKhmwafqWmFWRfk",
        "reception_time": "2022-01-18T08:50:39.576-00:00",
        "included_in_blocks":
          [ "BLC9XvY1me9qEASGSwGpddZ6XmSANe9h9Zgws4x9CkdnknhH77w" ] },
      { "delegate": "tz3RB4aoyjov4KEVRbuhvQ1CKJgBJMWhaeB8",
        "reception_time": "2022-01-18T08:50:39.583-00:00",
        "included_in_blocks":
          [ "BLC9XvY1me9qEASGSwGpddZ6XmSANe9h9Zgws4x9CkdnknhH77w" ] },
      { "delegate": "tz3RKYFsLuQzKBtmYuLNas7uMu3AsYd4QdsA",
        "reception_time": "2022-01-18T08:50:39.591-00:00",
        "included_in_blocks":
          [ "BLC9XvY1me9qEASGSwGpddZ6XmSANe9h9Zgws4x9CkdnknhH77w" ] },
      { "delegate": "tz3NDpRj6WBrJPikcPVHRBEjWKxFw3c6eQPS",
        "reception_time": "2022-01-18T08:50:39.599-00:00",
        "included_in_blocks":
          [ "BLC9XvY1me9qEASGSwGpddZ6XmSANe9h9Zgws4x9CkdnknhH77w" ] },
      { "delegate": "tz1gfArv665EUkSg2ojMBzcbfwuPxAvqPvjo",
        "reception_time": "2022-01-18T08:50:39.603-00:00",
        "included_in_blocks":
          [ "BLC9XvY1me9qEASGSwGpddZ6XmSANe9h9Zgws4x9CkdnknhH77w" ] },
      { "delegate": "tz1g8vkmcde6sWKaG2NN9WKzCkDM6Rziq194",
        "reception_time": "2022-01-18T08:50:39.606-00:00",
        "included_in_blocks":
          [ "BLC9XvY1me9qEASGSwGpddZ6XmSANe9h9Zgws4x9CkdnknhH77w" ] },
      { "delegate": "tz1dNVDWPf3Q59SdJqnjdnu277iyvReiRS9M",
        "reception_time": "2022-01-18T08:50:39.611-00:00",
        "included_in_blocks":
          [ "BLC9XvY1me9qEASGSwGpddZ6XmSANe9h9Zgws4x9CkdnknhH77w" ] },
      { "delegate": "tz1WBfwbT66FC6BTLexc2BoyCCBM9LG7pnVW",
        "reception_time": "2022-01-18T08:50:39.617-00:00",
        "included_in_blocks":
          [ "BLC9XvY1me9qEASGSwGpddZ6XmSANe9h9Zgws4x9CkdnknhH77w" ] },
      { "delegate": "tz3adcvQaKXTCg12zbninqo3q8ptKKtDFTLv",
        "reception_time": "2022-01-18T08:50:39.625-00:00",
        "included_in_blocks":
          [ "BLC9XvY1me9qEASGSwGpddZ6XmSANe9h9Zgws4x9CkdnknhH77w" ] },
      { "delegate": "tz1V4qCyvPKZ5UeqdH14HN42rxvNPQfc9UZg",
        "reception_time": "2022-01-18T08:50:39.630-00:00",
        "included_in_blocks":
          [ "BLC9XvY1me9qEASGSwGpddZ6XmSANe9h9Zgws4x9CkdnknhH77w" ] },
      { "delegate": "tz1MQMiZHV8q4tTwUMWmS5Y3kaP6J2136iXr",
        "reception_time": "2022-01-18T08:50:39.659-00:00",
        "included_in_blocks":
          [ "BLC9XvY1me9qEASGSwGpddZ6XmSANe9h9Zgws4x9CkdnknhH77w" ] },
      { "delegate": "tz1KfEsrtDaA1sX7vdM4qmEPWuSytuqCDp5j",
        "reception_time": "2022-01-18T08:50:39.665-00:00",
        "included_in_blocks":
          [ "BLC9XvY1me9qEASGSwGpddZ6XmSANe9h9Zgws4x9CkdnknhH77w" ] },
      { "delegate": "tz1iEWcNL383qiDJ3Q3qt5W2T4aSKUbEU4An",
        "reception_time": "2022-01-18T08:50:39.698-00:00",
        "included_in_blocks":
          [ "BLC9XvY1me9qEASGSwGpddZ6XmSANe9h9Zgws4x9CkdnknhH77w" ] },
      { "delegate": "tz1S8MNvuFEUsWgjHvi3AxibRBf388NhT1q2",
        "reception_time": "2022-01-18T08:50:39.707-00:00",
        "included_in_blocks":
          [ "BLC9XvY1me9qEASGSwGpddZ6XmSANe9h9Zgws4x9CkdnknhH77w" ] },
      { "delegate": "tz1WnfXMPaNTBmH7DBPwqCWs9cPDJdkGBTZ8",
        "reception_time": "2022-01-18T08:50:39.709-00:00",
        "included_in_blocks":
          [ "BLC9XvY1me9qEASGSwGpddZ6XmSANe9h9Zgws4x9CkdnknhH77w" ] },
      { "delegate": "tz1Nf6tsK4G6bBqgSQERy4nUtkHNKUVdh7q1",
        "reception_time": "2022-01-18T08:50:39.717-00:00",
        "included_in_blocks":
          [ "BLC9XvY1me9qEASGSwGpddZ6XmSANe9h9Zgws4x9CkdnknhH77w" ] },
      { "delegate": "tz1cSj7fTex3JPd1p1LN1fwek6AV1kH93Wwc",
        "reception_time": "2022-01-18T08:50:39.821-00:00",
        "included_in_blocks":
          [ "BLC9XvY1me9qEASGSwGpddZ6XmSANe9h9Zgws4x9CkdnknhH77w" ] },
      { "delegate": "tz1NEKxGEHsFufk87CVZcrqWu8o22qh46GK6",
        "reception_time": "2022-01-18T08:50:39.877-00:00",
        "included_in_blocks":
          [ "BLC9XvY1me9qEASGSwGpddZ6XmSANe9h9Zgws4x9CkdnknhH77w" ] },
      { "delegate": "tz3bvNMQ95vfAYtG8193ymshqjSvmxiCUuR5",
        "reception_time": "2022-01-18T08:50:39.906-00:00",
        "included_in_blocks":
          [ "BLC9XvY1me9qEASGSwGpddZ6XmSANe9h9Zgws4x9CkdnknhH77w" ] },
      { "delegate": "tz1LmaFsWRkjr7QMCx5PtV6xTUz3AmEpKQiF",
        "reception_time": "2022-01-18T08:50:39.942-00:00",
        "included_in_blocks":
          [ "BLC9XvY1me9qEASGSwGpddZ6XmSANe9h9Zgws4x9CkdnknhH77w" ] },
      { "delegate": "tz1cig1EHyvZd7J2k389moM9PxVgPQvmFkvi",
        "reception_time": "2022-01-18T08:50:39.973-00:00",
        "included_in_blocks":
          [ "BLC9XvY1me9qEASGSwGpddZ6XmSANe9h9Zgws4x9CkdnknhH77w" ] },
      { "delegate": "tz3VEZ4k6a4Wx42iyev6i2aVAptTRLEAivNN",
        "reception_time": "2022-01-18T08:50:40.037-00:00",
        "included_in_blocks":
          [ "BLC9XvY1me9qEASGSwGpddZ6XmSANe9h9Zgws4x9CkdnknhH77w" ] },
      { "delegate": "tz1aRoaRhSpRYvFdyvgWLL6TGyRoGF51wDjM",
        "reception_time": "2022-01-18T08:50:40.080-00:00",
        "included_in_blocks":
          [ "BLC9XvY1me9qEASGSwGpddZ6XmSANe9h9Zgws4x9CkdnknhH77w" ] },
      { "delegate": "tz3RDC3Jdn4j15J7bBHZd29EUee9gVB1CxD9",
        "reception_time": "2022-01-18T08:50:40.151-00:00",
        "included_in_blocks":
          [ "BLC9XvY1me9qEASGSwGpddZ6XmSANe9h9Zgws4x9CkdnknhH77w" ] },
      { "delegate": "tz1abmz7jiCV2GH2u81LRrGgAFFgvQgiDiaf",
        "reception_time": "2022-01-18T08:50:40.179-00:00",
        "included_in_blocks":
          [ "BLC9XvY1me9qEASGSwGpddZ6XmSANe9h9Zgws4x9CkdnknhH77w" ] },
      { "delegate": "tz1dRKU4FQ9QRRQPdaH4zCR6gmCmXfcvcgtB",
        "reception_time": "2022-01-18T08:50:40.210-00:00",
        "included_in_blocks":
          [ "BLC9XvY1me9qEASGSwGpddZ6XmSANe9h9Zgws4x9CkdnknhH77w" ] },
      { "delegate": "tz1eLbDXYceRsPZoPmaJXZgQ6pzgnTQvZtpo",
        "reception_time": "2022-01-18T08:50:40.392-00:00",
        "included_in_blocks":
          [ "BLC9XvY1me9qEASGSwGpddZ6XmSANe9h9Zgws4x9CkdnknhH77w" ] },
      { "delegate": "tz3WMqdzXqRWXwyvj5Hp2H7QEepaUuS7vd9K",
        "reception_time": "2022-01-18T08:50:40.423-00:00",
        "included_in_blocks":
          [ "BLC9XvY1me9qEASGSwGpddZ6XmSANe9h9Zgws4x9CkdnknhH77w" ] },
      { "delegate": "tz1SYq214SCBy9naR6cvycQsYcUGpBqQAE8d",
        "reception_time": "2022-01-18T08:50:40.462-00:00",
        "included_in_blocks":
          [ "BLC9XvY1me9qEASGSwGpddZ6XmSANe9h9Zgws4x9CkdnknhH77w" ] },
      { "delegate": "tz3NExpXn9aPNZPorRE4SdjJ2RGrfbJgMAaV",
        "reception_time": "2022-01-18T08:50:40.528-00:00",
        "included_in_blocks":
          [ "BLC9XvY1me9qEASGSwGpddZ6XmSANe9h9Zgws4x9CkdnknhH77w" ] },
      { "delegate": "tz1SpU2P8EBQTAjxkdiTz3JAzZBj32w9Sb2Q",
        "reception_time": "2022-01-18T08:50:40.824-00:00",
        "included_in_blocks":
          [ "BLC9XvY1me9qEASGSwGpddZ6XmSANe9h9Zgws4x9CkdnknhH77w" ] },
      { "delegate": "tz1RCFbB9GpALpsZtu6J58sb74dm8qe6XBzv",
        "reception_time": "2022-01-18T08:50:40.868-00:00",
        "included_in_blocks":
          [ "BLC9XvY1me9qEASGSwGpddZ6XmSANe9h9Zgws4x9CkdnknhH77w" ] },
      { "delegate": "tz1T7duV5gZWSTq4YpBGbXNLTfznCLDrFxvs",
        "reception_time": "2022-01-18T08:50:40.880-00:00",
        "included_in_blocks":
          [ "BLC9XvY1me9qEASGSwGpddZ6XmSANe9h9Zgws4x9CkdnknhH77w" ] },
      { "delegate": "tz3UoffC7FG7zfpmvmjUmUeAaHvzdcUvAj6r",
        "reception_time": "2022-01-18T08:50:40.997-00:00",
        "included_in_blocks":
          [ "BLC9XvY1me9qEASGSwGpddZ6XmSANe9h9Zgws4x9CkdnknhH77w" ] },
      { "delegate": "tz1MQJPGNMijnXnVoBENFz9rUhaPt3S7rWoz",
        "reception_time": "2022-01-18T08:50:41.311-00:00",
        "included_in_blocks":
          [ "BLC9XvY1me9qEASGSwGpddZ6XmSANe9h9Zgws4x9CkdnknhH77w" ] },
      { "delegate": "tz1X4Qb9NJ7JEuitX3jFpZptuAh7DUnCaLs1",
        "reception_time": "2022-01-18T08:50:41.836-00:00",
        "included_in_blocks":
          [ "BLC9XvY1me9qEASGSwGpddZ6XmSANe9h9Zgws4x9CkdnknhH77w" ] },
      { "delegate": "tz1V3yg82mcrPJbegqVCPn6bC8w1CSTRp3f8",
        "reception_time": "2022-01-18T08:50:41.896-00:00",
        "included_in_blocks":
          [ "BLC9XvY1me9qEASGSwGpddZ6XmSANe9h9Zgws4x9CkdnknhH77w" ] },
      { "delegate": "tz1LAJKyGRCheNiLAQQmJ8dXnoKbKgLzxNFp",
        "reception_time": "2022-01-18T08:50:42.534-00:00",
        "included_in_blocks":
          [ "BLC9XvY1me9qEASGSwGpddZ6XmSANe9h9Zgws4x9CkdnknhH77w" ] },
      { "delegate": "tz2FCNBrERXtaTtNX6iimR1UJ5JSDxvdHM93",
        "reception_time": "2022-01-18T08:50:42.613-00:00",
        "included_in_blocks":
          [ "BLC9XvY1me9qEASGSwGpddZ6XmSANe9h9Zgws4x9CkdnknhH77w" ] },
      { "delegate": "tz1QccGQsmt7WMnbVX9inJQgEuQGeMXddfjp",
        "reception_time": "2022-01-18T08:50:42.638-00:00",
        "included_in_blocks":
          [ "BLC9XvY1me9qEASGSwGpddZ6XmSANe9h9Zgws4x9CkdnknhH77w" ] },
      { "delegate": "tz1eVaNx3gCmG1EsLjijkmgAxdLYVf6Bf5Sq",
        "reception_time": "2022-01-18T08:50:42.810-00:00",
        "included_in_blocks":
          [ "BLC9XvY1me9qEASGSwGpddZ6XmSANe9h9Zgws4x9CkdnknhH77w" ] },
      { "delegate": "tz1W5VkdB5s7ENMESVBtwyt9kyvLqPcUczRT",
        "reception_time": "2022-01-18T08:50:44.582-00:00",
        "included_in_blocks":
          [ "BLC9XvY1me9qEASGSwGpddZ6XmSANe9h9Zgws4x9CkdnknhH77w" ] },
      { "delegate": "tz1RjoHc98dBoqaH2jawF62XNKh7YsHwbkEv",
        "reception_time": "2022-01-18T08:50:45.247-00:00",
        "included_in_blocks":
          [ "BLC9XvY1me9qEASGSwGpddZ6XmSANe9h9Zgws4x9CkdnknhH77w" ] },
      { "delegate": "tz1awXW7wuXy21c66vBudMXQVAPgRnqqwgTH",
        "reception_time": "2022-01-18T08:50:45.722-00:00",
        "included_in_blocks":
          [ "BLC9XvY1me9qEASGSwGpddZ6XmSANe9h9Zgws4x9CkdnknhH77w" ] },
      { "delegate": "tz1S5WxdZR5f9NzsPXhr7L9L1vrEb5spZFur",
        "reception_time": "2022-01-18T08:50:45.884-00:00",
        "included_in_blocks":
          [ "BLC9XvY1me9qEASGSwGpddZ6XmSANe9h9Zgws4x9CkdnknhH77w" ] },
      { "delegate": "tz1TRqbYbUf2GyrjErf3hBzgBJPzW8y36qEs",
        "reception_time": "2022-01-18T08:50:46.610-00:00",
        "included_in_blocks":
          [ "BLC9XvY1me9qEASGSwGpddZ6XmSANe9h9Zgws4x9CkdnknhH77w" ] },
      { "delegate": "tz1go7f6mEQfT2xX2LuHAqgnRGN6c2zHPf5c",
        "reception_time": "2022-01-18T08:50:49.147-00:00",
        "included_in_blocks":
          [ "BLC9XvY1me9qEASGSwGpddZ6XmSANe9h9Zgws4x9CkdnknhH77w" ] },
      { "delegate": "tz1cYufsxHXJcvANhvS55h3aY32a9BAFB494",
        "reception_time": "2022-01-18T08:50:50.844-00:00",
        "included_in_blocks":
          [ "BLC9XvY1me9qEASGSwGpddZ6XmSANe9h9Zgws4x9CkdnknhH77w" ] },
      { "delegate": "tz1NpWrAyDL9k2Lmnyxcgr9xuJakbBxdq7FB",
        "reception_time": "2022-01-18T08:50:53.999-00:00",
        "included_in_blocks":
          [ "BLC9XvY1me9qEASGSwGpddZ6XmSANe9h9Zgws4x9CkdnknhH77w" ] } ] }