{ "blocks":
    [ { "hash": "BL4cTH1ujZ2hUfk5Jtk4AyzPrS9GRdgQiKjpiB19Hq9Mr1XfLP5",
        "delegate": "tz1Nf6tsK4G6bBqgSQERy4nUtkHNKUVdh7q1",
        "reception_time": "2022-01-18T02:24:34.577-00:00",
        "timestamp": "2022-01-18T02:24:20Z" } ],
  "endorsements":
    [ { "delegate": "tz3e7LbZvUtoXhpUD1yb6wuFodZpfYRb9nWJ",
        "reception_time": "2022-01-18T02:24:41.731-00:00",
        "included_in_blocks":
          [ "BLMT2y3WwafkjkFPtfF1GNu8VYjbx2ZeaDU6CUgx6GAKic341EV" ] },
      { "delegate": "tz1dfg9PkvRLf7hKMmGdGRhXWCbd8QgbwBF7",
        "reception_time": "2022-01-18T02:24:39.580-00:00",
        "included_in_blocks":
          [ "BLMT2y3WwafkjkFPtfF1GNu8VYjbx2ZeaDU6CUgx6GAKic341EV" ] },
      { "delegate": "tz1W5VkdB5s7ENMESVBtwyt9kyvLqPcUczRT",
        "reception_time": "2022-01-18T02:24:39.330-00:00",
        "included_in_blocks":
          [ "BLMT2y3WwafkjkFPtfF1GNu8VYjbx2ZeaDU6CUgx6GAKic341EV" ] },
      { "delegate": "tz3bEQoFCZEEfZMskefZ8q8e4eiHH1pssRax",
        "reception_time": "2022-01-18T02:24:38.624-00:00",
        "included_in_blocks":
          [ "BLMT2y3WwafkjkFPtfF1GNu8VYjbx2ZeaDU6CUgx6GAKic341EV" ] },
      { "delegate": "tz3UoffC7FG7zfpmvmjUmUeAaHvzdcUvAj6r",
        "reception_time": "2022-01-18T02:24:38.017-00:00",
        "included_in_blocks":
          [ "BLMT2y3WwafkjkFPtfF1GNu8VYjbx2ZeaDU6CUgx6GAKic341EV" ] },
      { "delegate": "tz3NExpXn9aPNZPorRE4SdjJ2RGrfbJgMAaV",
        "reception_time": "2022-01-18T02:24:38.052-00:00",
        "included_in_blocks":
          [ "BLMT2y3WwafkjkFPtfF1GNu8VYjbx2ZeaDU6CUgx6GAKic341EV" ] },
      { "delegate": "tz1ZcTRk5uxD86EFEn1vvNffWWqJy7q5eVhc",
        "reception_time": "2022-01-18T02:24:38.072-00:00",
        "included_in_blocks":
          [ "BLMT2y3WwafkjkFPtfF1GNu8VYjbx2ZeaDU6CUgx6GAKic341EV" ] },
      { "delegate": "tz1aRoaRhSpRYvFdyvgWLL6TGyRoGF51wDjM",
        "reception_time": "2022-01-18T02:24:37.770-00:00",
        "included_in_blocks":
          [ "BLMT2y3WwafkjkFPtfF1GNu8VYjbx2ZeaDU6CUgx6GAKic341EV" ] },
      { "delegate": "tz3RDC3Jdn4j15J7bBHZd29EUee9gVB1CxD9",
        "reception_time": "2022-01-18T02:24:37.287-00:00",
        "included_in_blocks":
          [ "BLMT2y3WwafkjkFPtfF1GNu8VYjbx2ZeaDU6CUgx6GAKic341EV" ] },
      { "delegate": "tz1cYufsxHXJcvANhvS55h3aY32a9BAFB494",
        "reception_time": "2022-01-18T02:24:37.243-00:00",
        "included_in_blocks":
          [ "BLMT2y3WwafkjkFPtfF1GNu8VYjbx2ZeaDU6CUgx6GAKic341EV" ] },
      { "delegate": "tz1Vd1rXpV8hTHbFXCXN3c3qzCsgcU5BZw1e",
        "reception_time": "2022-01-18T02:24:37.148-00:00",
        "included_in_blocks":
          [ "BLMT2y3WwafkjkFPtfF1GNu8VYjbx2ZeaDU6CUgx6GAKic341EV" ] },
      { "delegate": "tz1NEKxGEHsFufk87CVZcrqWu8o22qh46GK6",
        "reception_time": "2022-01-18T02:24:37.313-00:00",
        "included_in_blocks":
          [ "BLMT2y3WwafkjkFPtfF1GNu8VYjbx2ZeaDU6CUgx6GAKic341EV" ] },
      { "delegate": "tz3VEZ4k6a4Wx42iyev6i2aVAptTRLEAivNN",
        "reception_time": "2022-01-18T02:24:37.107-00:00",
        "included_in_blocks":
          [ "BLMT2y3WwafkjkFPtfF1GNu8VYjbx2ZeaDU6CUgx6GAKic341EV" ] },
      { "delegate": "tz1T7duV5gZWSTq4YpBGbXNLTfznCLDrFxvs",
        "reception_time": "2022-01-18T02:24:37.440-00:00",
        "included_in_blocks":
          [ "BLMT2y3WwafkjkFPtfF1GNu8VYjbx2ZeaDU6CUgx6GAKic341EV" ] },
      { "delegate": "tz1RjoHc98dBoqaH2jawF62XNKh7YsHwbkEv",
        "reception_time": "2022-01-18T02:24:37.673-00:00",
        "included_in_blocks":
          [ "BLMT2y3WwafkjkFPtfF1GNu8VYjbx2ZeaDU6CUgx6GAKic341EV" ] },
      { "delegate": "tz3NDpRj6WBrJPikcPVHRBEjWKxFw3c6eQPS",
        "reception_time": "2022-01-18T02:24:36.982-00:00",
        "included_in_blocks":
          [ "BLMT2y3WwafkjkFPtfF1GNu8VYjbx2ZeaDU6CUgx6GAKic341EV" ] },
      { "delegate": "tz1awXW7wuXy21c66vBudMXQVAPgRnqqwgTH",
        "reception_time": "2022-01-18T02:24:37.186-00:00",
        "included_in_blocks":
          [ "BLMT2y3WwafkjkFPtfF1GNu8VYjbx2ZeaDU6CUgx6GAKic341EV" ] },
      { "delegate": "tz3WMqdzXqRWXwyvj5Hp2H7QEepaUuS7vd9K",
        "reception_time": "2022-01-18T02:24:37.226-00:00",
        "included_in_blocks":
          [ "BLMT2y3WwafkjkFPtfF1GNu8VYjbx2ZeaDU6CUgx6GAKic341EV" ] },
      { "delegate": "tz1RpeqCseogMpCPXpyGjhmLH9i9DhqJ8cUR",
        "reception_time": "2022-01-18T02:24:36.834-00:00",
        "included_in_blocks":
          [ "BLMT2y3WwafkjkFPtfF1GNu8VYjbx2ZeaDU6CUgx6GAKic341EV" ] },
      { "delegate": "tz1WctSwL49BZtdWAQ75NY6vr4xsAx6oKdah",
        "reception_time": "2022-01-18T02:24:37.109-00:00",
        "included_in_blocks":
          [ "BLMT2y3WwafkjkFPtfF1GNu8VYjbx2ZeaDU6CUgx6GAKic341EV" ] },
      { "delegate": "tz2FCNBrERXtaTtNX6iimR1UJ5JSDxvdHM93",
        "reception_time": "2022-01-18T02:24:36.717-00:00",
        "included_in_blocks":
          [ "BLMT2y3WwafkjkFPtfF1GNu8VYjbx2ZeaDU6CUgx6GAKic341EV" ] },
      { "delegate": "tz1SYq214SCBy9naR6cvycQsYcUGpBqQAE8d",
        "reception_time": "2022-01-18T02:24:36.728-00:00",
        "included_in_blocks":
          [ "BLMT2y3WwafkjkFPtfF1GNu8VYjbx2ZeaDU6CUgx6GAKic341EV" ] },
      { "delegate": "tz1dwu9aYb7CRNq4Y2zAjipdjFuSVKhHS8vA",
        "reception_time": "2022-01-18T02:24:36.817-00:00",
        "included_in_blocks":
          [ "BLMT2y3WwafkjkFPtfF1GNu8VYjbx2ZeaDU6CUgx6GAKic341EV" ] },
      { "delegate": "tz3bTdwZinP8U1JmSweNzVKhmwafqWmFWRfk",
        "reception_time": "2022-01-18T02:24:36.676-00:00",
        "included_in_blocks":
          [ "BLMT2y3WwafkjkFPtfF1GNu8VYjbx2ZeaDU6CUgx6GAKic341EV" ] },
      { "delegate": "tz1f3Re8iw6Pt3KMHAvyccHxDU3NuqL95axD",
        "reception_time": "2022-01-18T02:24:36.829-00:00",
        "included_in_blocks":
          [ "BLMT2y3WwafkjkFPtfF1GNu8VYjbx2ZeaDU6CUgx6GAKic341EV" ] },
      { "delegate": "tz3RB4aoyjov4KEVRbuhvQ1CKJgBJMWhaeB8",
        "reception_time": "2022-01-18T02:24:36.829-00:00",
        "included_in_blocks":
          [ "BLMT2y3WwafkjkFPtfF1GNu8VYjbx2ZeaDU6CUgx6GAKic341EV" ] },
      { "delegate": "tz1MivraUX9U6nmGAQkm7XkrNVmsPExEUT1W",
        "reception_time": "2022-01-18T02:24:36.700-00:00",
        "included_in_blocks":
          [ "BLMT2y3WwafkjkFPtfF1GNu8VYjbx2ZeaDU6CUgx6GAKic341EV" ] },
      { "delegate": "tz1d6Fx42mYgVFnHUW8T8A7WBfJ6nD9pVok8",
        "reception_time": "2022-01-18T02:24:36.734-00:00",
        "included_in_blocks":
          [ "BLMT2y3WwafkjkFPtfF1GNu8VYjbx2ZeaDU6CUgx6GAKic341EV" ] },
      { "delegate": "tz1WBfwbT66FC6BTLexc2BoyCCBM9LG7pnVW",
        "reception_time": "2022-01-18T02:24:36.704-00:00",
        "included_in_blocks":
          [ "BLMT2y3WwafkjkFPtfF1GNu8VYjbx2ZeaDU6CUgx6GAKic341EV" ] },
      { "delegate": "tz3bvNMQ95vfAYtG8193ymshqjSvmxiCUuR5",
        "reception_time": "2022-01-18T02:24:36.687-00:00",
        "included_in_blocks":
          [ "BLMT2y3WwafkjkFPtfF1GNu8VYjbx2ZeaDU6CUgx6GAKic341EV" ] },
      { "delegate": "tz1TRqbYbUf2GyrjErf3hBzgBJPzW8y36qEs",
        "reception_time": "2022-01-18T02:24:36.910-00:00",
        "included_in_blocks":
          [ "BLMT2y3WwafkjkFPtfF1GNu8VYjbx2ZeaDU6CUgx6GAKic341EV" ] },
      { "delegate": "tz1WCd2jm4uSt4vntk4vSuUWoZQGhLcDuR9q",
        "reception_time": "2022-01-18T02:24:36.545-00:00",
        "included_in_blocks":
          [ "BLMT2y3WwafkjkFPtfF1GNu8VYjbx2ZeaDU6CUgx6GAKic341EV" ] },
      { "delegate": "tz1XX67xSF2ou3aQZ6LhXaaxZWDR3YZ6hCMs",
        "reception_time": "2022-01-18T02:24:36.651-00:00",
        "included_in_blocks":
          [ "BLMT2y3WwafkjkFPtfF1GNu8VYjbx2ZeaDU6CUgx6GAKic341EV" ] },
      { "delegate": "tz3QT9dHYKDqh563chVa6za8526ys1UKfRfL",
        "reception_time": "2022-01-18T02:24:36.326-00:00",
        "included_in_blocks":
          [ "BLMT2y3WwafkjkFPtfF1GNu8VYjbx2ZeaDU6CUgx6GAKic341EV" ] },
      { "delegate": "tz1V4qCyvPKZ5UeqdH14HN42rxvNPQfc9UZg",
        "reception_time": "2022-01-18T02:24:36.721-00:00",
        "included_in_blocks":
          [ "BLMT2y3WwafkjkFPtfF1GNu8VYjbx2ZeaDU6CUgx6GAKic341EV" ] },
      { "delegate": "tz3S6BBeKgJGXxvLyZ1xzXzMPn11nnFtq5L9",
        "reception_time": "2022-01-18T02:24:36.540-00:00",
        "included_in_blocks":
          [ "BLMT2y3WwafkjkFPtfF1GNu8VYjbx2ZeaDU6CUgx6GAKic341EV" ] },
      { "delegate": "tz1abmz7jiCV2GH2u81LRrGgAFFgvQgiDiaf",
        "reception_time": "2022-01-18T02:24:36.772-00:00",
        "included_in_blocks":
          [ "BLMT2y3WwafkjkFPtfF1GNu8VYjbx2ZeaDU6CUgx6GAKic341EV" ] },
      { "delegate": "tz1Ldzz6k1BHdhuKvAtMRX7h5kJSMHESMHLC",
        "reception_time": "2022-01-18T02:24:36.549-00:00",
        "included_in_blocks":
          [ "BLMT2y3WwafkjkFPtfF1GNu8VYjbx2ZeaDU6CUgx6GAKic341EV" ] },
      { "delegate": "tz3iJu5vrKZcsqRPs8yJ61UDoeEXZmtro4qh",
        "reception_time": "2022-01-18T02:24:36.512-00:00",
        "included_in_blocks":
          [ "BLMT2y3WwafkjkFPtfF1GNu8VYjbx2ZeaDU6CUgx6GAKic341EV" ] },
      { "delegate": "tz1TzaNn7wSQSP5gYPXCnNzBCpyMiidCq1PX",
        "reception_time": "2022-01-18T02:24:36.525-00:00",
        "included_in_blocks":
          [ "BLMT2y3WwafkjkFPtfF1GNu8VYjbx2ZeaDU6CUgx6GAKic341EV" ] },
      { "delegate": "tz3ZbP2pM3nwvXztbuMJwJnDvV5xdpU8UkkD",
        "reception_time": "2022-01-18T02:24:36.348-00:00",
        "included_in_blocks":
          [ "BLMT2y3WwafkjkFPtfF1GNu8VYjbx2ZeaDU6CUgx6GAKic341EV" ] },
      { "delegate": "tz3NxTnke1acr8o3h5y9ytf5awQBGNJUKzVU",
        "reception_time": "2022-01-18T02:24:36.414-00:00",
        "included_in_blocks":
          [ "BLMT2y3WwafkjkFPtfF1GNu8VYjbx2ZeaDU6CUgx6GAKic341EV" ] },
      { "delegate": "tz1UJvHTgpVzcKWhTazGxVcn5wsHru5Gietg",
        "reception_time": "2022-01-18T02:24:36.421-00:00",
        "included_in_blocks":
          [ "BLMT2y3WwafkjkFPtfF1GNu8VYjbx2ZeaDU6CUgx6GAKic341EV" ] },
      { "delegate": "tz3adcvQaKXTCg12zbninqo3q8ptKKtDFTLv",
        "reception_time": "2022-01-18T02:24:36.783-00:00",
        "included_in_blocks":
          [ "BLMT2y3WwafkjkFPtfF1GNu8VYjbx2ZeaDU6CUgx6GAKic341EV" ] },
      { "delegate": "tz3QSGPoRp3Kn7n3vY24eYeu3Peuqo45LQ4D",
        "reception_time": "2022-01-18T02:24:36.402-00:00",
        "included_in_blocks":
          [ "BLMT2y3WwafkjkFPtfF1GNu8VYjbx2ZeaDU6CUgx6GAKic341EV" ] },
      { "delegate": "tz1ei4WtWEMEJekSv8qDnu9PExG6Q8HgRGr3",
        "reception_time": "2022-01-18T02:24:36.679-00:00",
        "included_in_blocks":
          [ "BLMT2y3WwafkjkFPtfF1GNu8VYjbx2ZeaDU6CUgx6GAKic341EV" ] },
      { "delegate": "tz3Zhs2dygr55yHyQyKjntAtY9bgfhLZ4Xj1",
        "reception_time": "2022-01-18T02:24:36.187-00:00",
        "included_in_blocks":
          [ "BLMT2y3WwafkjkFPtfF1GNu8VYjbx2ZeaDU6CUgx6GAKic341EV" ] },
      { "delegate": "tz3RKYFsLuQzKBtmYuLNas7uMu3AsYd4QdsA",
        "reception_time": "2022-01-18T02:24:36.436-00:00",
        "included_in_blocks":
          [ "BLMT2y3WwafkjkFPtfF1GNu8VYjbx2ZeaDU6CUgx6GAKic341EV" ] },
      { "delegate": "tz3hw2kqXhLUvY65ca1eety2oQTpAvd34R9Q",
        "reception_time": "2022-01-18T02:24:36.285-00:00",
        "included_in_blocks":
          [ "BLMT2y3WwafkjkFPtfF1GNu8VYjbx2ZeaDU6CUgx6GAKic341EV" ] },
      { "delegate": "tz3gtoUxdudfBRcNY7iVdKPHCYYX6xdPpoRS",
        "reception_time": "2022-01-18T02:24:36.452-00:00",
        "included_in_blocks":
          [ "BLMT2y3WwafkjkFPtfF1GNu8VYjbx2ZeaDU6CUgx6GAKic341EV" ] },
      { "delegate": "tz1gfArv665EUkSg2ojMBzcbfwuPxAvqPvjo",
        "reception_time": "2022-01-18T02:24:36.789-00:00",
        "included_in_blocks":
          [ "BLMT2y3WwafkjkFPtfF1GNu8VYjbx2ZeaDU6CUgx6GAKic341EV" ] },
      { "delegate": "tz1PWCDnz783NNGGQjEFFsHtrcK5yBW4E2rm",
        "reception_time": "2022-01-18T02:24:36.463-00:00",
        "included_in_blocks":
          [ "BLMT2y3WwafkjkFPtfF1GNu8VYjbx2ZeaDU6CUgx6GAKic341EV" ] },
      { "delegate": "tz1iMAHAVpkCVegF9FLGWUpQQeiAHh4ffdLQ",
        "reception_time": "2022-01-18T02:24:36.469-00:00",
        "included_in_blocks":
          [ "BLMT2y3WwafkjkFPtfF1GNu8VYjbx2ZeaDU6CUgx6GAKic341EV" ] },
      { "delegate": "tz1VQnqCCqX4K5sP3FNkVSNKTdCAMJDd3E1n",
        "reception_time": "2022-01-18T02:24:36.335-00:00",
        "included_in_blocks":
          [ "BLMT2y3WwafkjkFPtfF1GNu8VYjbx2ZeaDU6CUgx6GAKic341EV" ] },
      { "delegate": "tz1MJx9vhaNRSimcuXPK2rW4fLccQnDAnVKJ",
        "reception_time": "2022-01-18T02:24:36.212-00:00",
        "included_in_blocks":
          [ "BLMT2y3WwafkjkFPtfF1GNu8VYjbx2ZeaDU6CUgx6GAKic341EV" ] },
      { "delegate": "tz1VmiY38m3y95HqQLjMwqnMS7sdMfGomzKi",
        "reception_time": "2022-01-18T02:24:36.302-00:00",
        "included_in_blocks":
          [ "BLMT2y3WwafkjkFPtfF1GNu8VYjbx2ZeaDU6CUgx6GAKic341EV" ] },
      { "delegate": "tz1Nf6tsK4G6bBqgSQERy4nUtkHNKUVdh7q1",
        "reception_time": "2022-01-18T02:24:36.249-00:00",
        "included_in_blocks":
          [ "BLMT2y3WwafkjkFPtfF1GNu8VYjbx2ZeaDU6CUgx6GAKic341EV" ] },
      { "delegate": "tz1irJKkXS2DBWkU1NnmFQx1c1L7pbGg4yhk",
        "reception_time": "2022-01-18T02:24:36.209-00:00",
        "included_in_blocks":
          [ "BLMT2y3WwafkjkFPtfF1GNu8VYjbx2ZeaDU6CUgx6GAKic341EV" ] },
      { "delegate": "tz1S8MNvuFEUsWgjHvi3AxibRBf388NhT1q2",
        "reception_time": "2022-01-18T02:24:36.473-00:00",
        "included_in_blocks":
          [ "BLMT2y3WwafkjkFPtfF1GNu8VYjbx2ZeaDU6CUgx6GAKic341EV" ] },
      { "delegate": "tz1eEnQhbwf6trb8Q8mPb2RaPkNk2rN7BKi8",
        "reception_time": "2022-01-18T02:24:36.201-00:00",
        "included_in_blocks":
          [ "BLMT2y3WwafkjkFPtfF1GNu8VYjbx2ZeaDU6CUgx6GAKic341EV" ] },
      { "delegate": "tz1RCFbB9GpALpsZtu6J58sb74dm8qe6XBzv",
        "reception_time": "2022-01-18T02:24:36.309-00:00",
        "included_in_blocks":
          [ "BLMT2y3WwafkjkFPtfF1GNu8VYjbx2ZeaDU6CUgx6GAKic341EV" ] },
      { "delegate": "tz1P2Po7YM526ughEsRbY4oR9zaUPDZjxFrb",
        "reception_time": "2022-01-18T02:24:36.197-00:00",
        "included_in_blocks":
          [ "BLMT2y3WwafkjkFPtfF1GNu8VYjbx2ZeaDU6CUgx6GAKic341EV" ] },
      { "delegate": "tz1MQMiZHV8q4tTwUMWmS5Y3kaP6J2136iXr",
        "reception_time": "2022-01-18T02:24:36.270-00:00",
        "included_in_blocks":
          [ "BLMT2y3WwafkjkFPtfF1GNu8VYjbx2ZeaDU6CUgx6GAKic341EV" ] },
      { "delegate": "tz1Scdr2HsZiQjc7bHMeBbmDRXYVvdhjJbBh",
        "reception_time": "2022-01-18T02:24:36.123-00:00",
        "included_in_blocks":
          [ "BLMT2y3WwafkjkFPtfF1GNu8VYjbx2ZeaDU6CUgx6GAKic341EV" ] } ] }