{ "blocks":
    [ { "hash": "BKqP8xcrfR5ahKAsZB1ZGyJYGrNQDEhCs6uj8LAVKNTJLVYfjb1",
        "delegate": "tz1irJKkXS2DBWkU1NnmFQx1c1L7pbGg4yhk",
        "reception_time": "2022-01-18T07:35:35.407-00:00",
        "timestamp": "2022-01-18T07:35:30Z" } ],
  "endorsements":
    [ { "delegate": "tz1S8e9GgdZG78XJRB3NqabfWeM37GnhZMWQ",
        "reception_time": "2022-01-18T07:35:36.086-00:00",
        "included_in_blocks":
          [ "BMBe3rbfKD9bz5BfGeaZGFPshHkvzLUz7bSLKn2BEcJ99MQUm8s" ] },
      { "delegate": "tz1Zhv3RkfU2pHrmaiDyxp7kFZpZrUCu1CiF",
        "reception_time": "2022-01-18T07:35:36.110-00:00",
        "included_in_blocks":
          [ "BMBe3rbfKD9bz5BfGeaZGFPshHkvzLUz7bSLKn2BEcJ99MQUm8s" ] },
      { "delegate": "tz1STeamwbp68THcny9zk3LsbG3H36DMvbRK",
        "reception_time": "2022-01-18T07:35:36.110-00:00",
        "included_in_blocks":
          [ "BMBe3rbfKD9bz5BfGeaZGFPshHkvzLUz7bSLKn2BEcJ99MQUm8s" ] },
      { "delegate": "tz1P2Po7YM526ughEsRbY4oR9zaUPDZjxFrb",
        "reception_time": "2022-01-18T07:35:36.115-00:00",
        "included_in_blocks":
          [ "BMBe3rbfKD9bz5BfGeaZGFPshHkvzLUz7bSLKn2BEcJ99MQUm8s" ] },
      { "delegate": "tz1eEnQhbwf6trb8Q8mPb2RaPkNk2rN7BKi8",
        "reception_time": "2022-01-18T07:35:36.115-00:00",
        "included_in_blocks":
          [ "BMBe3rbfKD9bz5BfGeaZGFPshHkvzLUz7bSLKn2BEcJ99MQUm8s" ] },
      { "delegate": "tz1irJKkXS2DBWkU1NnmFQx1c1L7pbGg4yhk",
        "reception_time": "2022-01-18T07:35:36.119-00:00",
        "included_in_blocks":
          [ "BMBe3rbfKD9bz5BfGeaZGFPshHkvzLUz7bSLKn2BEcJ99MQUm8s" ] },
      { "delegate": "tz1RV1MBbZMR68tacosb7Mwj6LkbPSUS1er1",
        "reception_time": "2022-01-18T07:35:36.203-00:00",
        "included_in_blocks":
          [ "BMBe3rbfKD9bz5BfGeaZGFPshHkvzLUz7bSLKn2BEcJ99MQUm8s" ] },
      { "delegate": "tz3ZbP2pM3nwvXztbuMJwJnDvV5xdpU8UkkD",
        "reception_time": "2022-01-18T07:35:36.312-00:00",
        "included_in_blocks":
          [ "BMBe3rbfKD9bz5BfGeaZGFPshHkvzLUz7bSLKn2BEcJ99MQUm8s" ] },
      { "delegate": "tz3NxTnke1acr8o3h5y9ytf5awQBGNJUKzVU",
        "reception_time": "2022-01-18T07:35:36.379-00:00",
        "included_in_blocks":
          [ "BMBe3rbfKD9bz5BfGeaZGFPshHkvzLUz7bSLKn2BEcJ99MQUm8s" ] },
      { "delegate": "tz1gUNyn3hmnEWqkusWPzxRaon1cs7ndWh7h",
        "reception_time": "2022-01-18T07:35:36.386-00:00",
        "included_in_blocks":
          [ "BMBe3rbfKD9bz5BfGeaZGFPshHkvzLUz7bSLKn2BEcJ99MQUm8s" ] },
      { "delegate": "tz1VQnqCCqX4K5sP3FNkVSNKTdCAMJDd3E1n",
        "reception_time": "2022-01-18T07:35:36.390-00:00",
        "included_in_blocks":
          [ "BMBe3rbfKD9bz5BfGeaZGFPshHkvzLUz7bSLKn2BEcJ99MQUm8s" ] },
      { "delegate": "tz3iJu5vrKZcsqRPs8yJ61UDoeEXZmtro4qh",
        "reception_time": "2022-01-18T07:35:36.407-00:00",
        "included_in_blocks":
          [ "BMBe3rbfKD9bz5BfGeaZGFPshHkvzLUz7bSLKn2BEcJ99MQUm8s" ] },
      { "delegate": "tz3Zhs2dygr55yHyQyKjntAtY9bgfhLZ4Xj1",
        "reception_time": "2022-01-18T07:35:36.424-00:00",
        "included_in_blocks":
          [ "BMBe3rbfKD9bz5BfGeaZGFPshHkvzLUz7bSLKn2BEcJ99MQUm8s" ] },
      { "delegate": "tz1bsdrs36X5BTH83RHUBdUouKLJZK8d2oBa",
        "reception_time": "2022-01-18T07:35:36.437-00:00",
        "included_in_blocks":
          [ "BMBe3rbfKD9bz5BfGeaZGFPshHkvzLUz7bSLKn2BEcJ99MQUm8s" ] },
      { "delegate": "tz3QSGPoRp3Kn7n3vY24eYeu3Peuqo45LQ4D",
        "reception_time": "2022-01-18T07:35:36.478-00:00",
        "included_in_blocks":
          [ "BMBe3rbfKD9bz5BfGeaZGFPshHkvzLUz7bSLKn2BEcJ99MQUm8s" ] },
      { "delegate": "tz3gtoUxdudfBRcNY7iVdKPHCYYX6xdPpoRS",
        "reception_time": "2022-01-18T07:35:36.505-00:00",
        "included_in_blocks":
          [ "BMBe3rbfKD9bz5BfGeaZGFPshHkvzLUz7bSLKn2BEcJ99MQUm8s" ] },
      { "delegate": "tz1a51WYsAsoh4fs4A4x5aCN6Za26mpfDfTi",
        "reception_time": "2022-01-18T07:35:36.693-00:00",
        "included_in_blocks":
          [ "BMBe3rbfKD9bz5BfGeaZGFPshHkvzLUz7bSLKn2BEcJ99MQUm8s" ] },
      { "delegate": "tz3RKYFsLuQzKBtmYuLNas7uMu3AsYd4QdsA",
        "reception_time": "2022-01-18T07:35:36.699-00:00",
        "included_in_blocks":
          [ "BMBe3rbfKD9bz5BfGeaZGFPshHkvzLUz7bSLKn2BEcJ99MQUm8s" ] },
      { "delegate": "tz1ajgycuHmd2z2JbTSJxKv7x6cok2KuNSk1",
        "reception_time": "2022-01-18T07:35:36.706-00:00",
        "included_in_blocks":
          [ "BMBe3rbfKD9bz5BfGeaZGFPshHkvzLUz7bSLKn2BEcJ99MQUm8s" ] },
      { "delegate": "tz1Ldzz6k1BHdhuKvAtMRX7h5kJSMHESMHLC",
        "reception_time": "2022-01-18T07:35:36.706-00:00",
        "included_in_blocks":
          [ "BMBe3rbfKD9bz5BfGeaZGFPshHkvzLUz7bSLKn2BEcJ99MQUm8s" ] },
      { "delegate": "tz3S6BBeKgJGXxvLyZ1xzXzMPn11nnFtq5L9",
        "reception_time": "2022-01-18T07:35:36.712-00:00",
        "included_in_blocks":
          [ "BMBe3rbfKD9bz5BfGeaZGFPshHkvzLUz7bSLKn2BEcJ99MQUm8s" ] },
      { "delegate": "tz3QT9dHYKDqh563chVa6za8526ys1UKfRfL",
        "reception_time": "2022-01-18T07:35:36.719-00:00",
        "included_in_blocks":
          [ "BMBe3rbfKD9bz5BfGeaZGFPshHkvzLUz7bSLKn2BEcJ99MQUm8s" ] },
      { "delegate": "tz3hw2kqXhLUvY65ca1eety2oQTpAvd34R9Q",
        "reception_time": "2022-01-18T07:35:36.728-00:00",
        "included_in_blocks":
          [ "BMBe3rbfKD9bz5BfGeaZGFPshHkvzLUz7bSLKn2BEcJ99MQUm8s" ] },
      { "delegate": "tz1Kt4P8BCaP93AEV4eA7gmpRryWt5hznjCP",
        "reception_time": "2022-01-18T07:35:36.728-00:00",
        "included_in_blocks":
          [ "BMBe3rbfKD9bz5BfGeaZGFPshHkvzLUz7bSLKn2BEcJ99MQUm8s" ] },
      { "delegate": "tz1TzaNn7wSQSP5gYPXCnNzBCpyMiidCq1PX",
        "reception_time": "2022-01-18T07:35:36.731-00:00",
        "included_in_blocks":
          [ "BMBe3rbfKD9bz5BfGeaZGFPshHkvzLUz7bSLKn2BEcJ99MQUm8s" ] },
      { "delegate": "tz1UJvHTgpVzcKWhTazGxVcn5wsHru5Gietg",
        "reception_time": "2022-01-18T07:35:36.790-00:00",
        "included_in_blocks":
          [ "BMBe3rbfKD9bz5BfGeaZGFPshHkvzLUz7bSLKn2BEcJ99MQUm8s" ] },
      { "delegate": "tz1WCd2jm4uSt4vntk4vSuUWoZQGhLcDuR9q",
        "reception_time": "2022-01-18T07:35:36.890-00:00",
        "included_in_blocks":
          [ "BMBe3rbfKD9bz5BfGeaZGFPshHkvzLUz7bSLKn2BEcJ99MQUm8s" ] },
      { "delegate": "tz1cSj7fTex3JPd1p1LN1fwek6AV1kH93Wwc",
        "reception_time": "2022-01-18T07:35:36.893-00:00",
        "included_in_blocks":
          [ "BMBe3rbfKD9bz5BfGeaZGFPshHkvzLUz7bSLKn2BEcJ99MQUm8s" ] },
      { "delegate": "tz1d6Fx42mYgVFnHUW8T8A7WBfJ6nD9pVok8",
        "reception_time": "2022-01-18T07:35:36.906-00:00",
        "included_in_blocks":
          [ "BMBe3rbfKD9bz5BfGeaZGFPshHkvzLUz7bSLKn2BEcJ99MQUm8s" ] },
      { "delegate": "tz3adcvQaKXTCg12zbninqo3q8ptKKtDFTLv",
        "reception_time": "2022-01-18T07:35:36.957-00:00",
        "included_in_blocks":
          [ "BMBe3rbfKD9bz5BfGeaZGFPshHkvzLUz7bSLKn2BEcJ99MQUm8s" ] },
      { "delegate": "tz1S8MNvuFEUsWgjHvi3AxibRBf388NhT1q2",
        "reception_time": "2022-01-18T07:35:37.157-00:00",
        "included_in_blocks":
          [ "BMBe3rbfKD9bz5BfGeaZGFPshHkvzLUz7bSLKn2BEcJ99MQUm8s" ] },
      { "delegate": "tz3RB4aoyjov4KEVRbuhvQ1CKJgBJMWhaeB8",
        "reception_time": "2022-01-18T07:35:37.200-00:00",
        "included_in_blocks":
          [ "BMBe3rbfKD9bz5BfGeaZGFPshHkvzLUz7bSLKn2BEcJ99MQUm8s" ] },
      { "delegate": "tz1fPKAtsYydh4f1wfWNfeNxWYu72TmM48fu",
        "reception_time": "2022-01-18T07:35:37.223-00:00",
        "included_in_blocks":
          [ "BMBe3rbfKD9bz5BfGeaZGFPshHkvzLUz7bSLKn2BEcJ99MQUm8s" ] },
      { "delegate": "tz1XX67xSF2ou3aQZ6LhXaaxZWDR3YZ6hCMs",
        "reception_time": "2022-01-18T07:35:37.230-00:00",
        "included_in_blocks":
          [ "BMBe3rbfKD9bz5BfGeaZGFPshHkvzLUz7bSLKn2BEcJ99MQUm8s" ] },
      { "delegate": "tz1MQJPGNMijnXnVoBENFz9rUhaPt3S7rWoz",
        "reception_time": "2022-01-18T07:35:37.279-00:00",
        "included_in_blocks":
          [ "BMBe3rbfKD9bz5BfGeaZGFPshHkvzLUz7bSLKn2BEcJ99MQUm8s" ] },
      { "delegate": "tz1MGTFJXpQmtxLi8QJ7AuVRgM2L2Qfn9w9i",
        "reception_time": "2022-01-18T07:35:37.309-00:00",
        "included_in_blocks":
          [ "BMBe3rbfKD9bz5BfGeaZGFPshHkvzLUz7bSLKn2BEcJ99MQUm8s" ] },
      { "delegate": "tz3bvNMQ95vfAYtG8193ymshqjSvmxiCUuR5",
        "reception_time": "2022-01-18T07:35:37.317-00:00",
        "included_in_blocks":
          [ "BMBe3rbfKD9bz5BfGeaZGFPshHkvzLUz7bSLKn2BEcJ99MQUm8s" ] },
      { "delegate": "tz2FCNBrERXtaTtNX6iimR1UJ5JSDxvdHM93",
        "reception_time": "2022-01-18T07:35:37.327-00:00",
        "included_in_blocks":
          [ "BMBe3rbfKD9bz5BfGeaZGFPshHkvzLUz7bSLKn2BEcJ99MQUm8s" ] },
      { "delegate": "tz3RDC3Jdn4j15J7bBHZd29EUee9gVB1CxD9",
        "reception_time": "2022-01-18T07:35:37.334-00:00",
        "included_in_blocks":
          [ "BMBe3rbfKD9bz5BfGeaZGFPshHkvzLUz7bSLKn2BEcJ99MQUm8s" ] },
      { "delegate": "tz1gfArv665EUkSg2ojMBzcbfwuPxAvqPvjo",
        "reception_time": "2022-01-18T07:35:37.352-00:00",
        "included_in_blocks":
          [ "BMBe3rbfKD9bz5BfGeaZGFPshHkvzLUz7bSLKn2BEcJ99MQUm8s" ] },
      { "delegate": "tz1RCFbB9GpALpsZtu6J58sb74dm8qe6XBzv",
        "reception_time": "2022-01-18T07:35:37.395-00:00",
        "included_in_blocks":
          [ "BMBe3rbfKD9bz5BfGeaZGFPshHkvzLUz7bSLKn2BEcJ99MQUm8s" ] },
      { "delegate": "tz1LmaFsWRkjr7QMCx5PtV6xTUz3AmEpKQiF",
        "reception_time": "2022-01-18T07:35:37.466-00:00",
        "included_in_blocks":
          [ "BMBe3rbfKD9bz5BfGeaZGFPshHkvzLUz7bSLKn2BEcJ99MQUm8s" ] },
      { "delegate": "tz1ei4WtWEMEJekSv8qDnu9PExG6Q8HgRGr3",
        "reception_time": "2022-01-18T07:35:37.487-00:00",
        "included_in_blocks":
          [ "BMBe3rbfKD9bz5BfGeaZGFPshHkvzLUz7bSLKn2BEcJ99MQUm8s" ] },
      { "delegate": "tz3bTdwZinP8U1JmSweNzVKhmwafqWmFWRfk",
        "reception_time": "2022-01-18T07:35:37.528-00:00",
        "included_in_blocks":
          [ "BMBe3rbfKD9bz5BfGeaZGFPshHkvzLUz7bSLKn2BEcJ99MQUm8s" ] },
      { "delegate": "tz1dKRZVcmJBVNvaAueUmqX42vVEaLb2MbA6",
        "reception_time": "2022-01-18T07:35:37.577-00:00",
        "included_in_blocks":
          [ "BMBe3rbfKD9bz5BfGeaZGFPshHkvzLUz7bSLKn2BEcJ99MQUm8s" ] },
      { "delegate": "tz1SYq214SCBy9naR6cvycQsYcUGpBqQAE8d",
        "reception_time": "2022-01-18T07:35:37.582-00:00",
        "included_in_blocks":
          [ "BMBe3rbfKD9bz5BfGeaZGFPshHkvzLUz7bSLKn2BEcJ99MQUm8s" ] },
      { "delegate": "tz1UbFpJY5Hext38GisuaXQBkbzhaKJkxpEs",
        "reception_time": "2022-01-18T07:35:37.592-00:00",
        "included_in_blocks":
          [ "BMBe3rbfKD9bz5BfGeaZGFPshHkvzLUz7bSLKn2BEcJ99MQUm8s" ] },
      { "delegate": "tz1TRqbYbUf2GyrjErf3hBzgBJPzW8y36qEs",
        "reception_time": "2022-01-18T07:35:37.608-00:00",
        "included_in_blocks":
          [ "BMBe3rbfKD9bz5BfGeaZGFPshHkvzLUz7bSLKn2BEcJ99MQUm8s" ] },
      { "delegate": "tz1Nf6tsK4G6bBqgSQERy4nUtkHNKUVdh7q1",
        "reception_time": "2022-01-18T07:35:37.695-00:00",
        "included_in_blocks":
          [ "BMBe3rbfKD9bz5BfGeaZGFPshHkvzLUz7bSLKn2BEcJ99MQUm8s" ] },
      { "delegate": "tz1abmz7jiCV2GH2u81LRrGgAFFgvQgiDiaf",
        "reception_time": "2022-01-18T07:35:37.750-00:00",
        "included_in_blocks":
          [ "BMBe3rbfKD9bz5BfGeaZGFPshHkvzLUz7bSLKn2BEcJ99MQUm8s" ] },
      { "delegate": "tz1WBfwbT66FC6BTLexc2BoyCCBM9LG7pnVW",
        "reception_time": "2022-01-18T07:35:37.813-00:00",
        "included_in_blocks":
          [ "BMBe3rbfKD9bz5BfGeaZGFPshHkvzLUz7bSLKn2BEcJ99MQUm8s" ] },
      { "delegate": "tz1PeZx7FXy7QRuMREGXGxeipb24RsMMzUNe",
        "reception_time": "2022-01-18T07:35:37.893-00:00",
        "included_in_blocks":
          [ "BMBe3rbfKD9bz5BfGeaZGFPshHkvzLUz7bSLKn2BEcJ99MQUm8s" ] },
      { "delegate": "tz1RjoHc98dBoqaH2jawF62XNKh7YsHwbkEv",
        "reception_time": "2022-01-18T07:35:37.978-00:00",
        "included_in_blocks":
          [ "BMBe3rbfKD9bz5BfGeaZGFPshHkvzLUz7bSLKn2BEcJ99MQUm8s" ] },
      { "delegate": "tz3NDpRj6WBrJPikcPVHRBEjWKxFw3c6eQPS",
        "reception_time": "2022-01-18T07:35:38.187-00:00",
        "included_in_blocks":
          [ "BMBe3rbfKD9bz5BfGeaZGFPshHkvzLUz7bSLKn2BEcJ99MQUm8s" ] },
      { "delegate": "tz1KfEsrtDaA1sX7vdM4qmEPWuSytuqCDp5j",
        "reception_time": "2022-01-18T07:35:38.191-00:00",
        "included_in_blocks":
          [ "BMBe3rbfKD9bz5BfGeaZGFPshHkvzLUz7bSLKn2BEcJ99MQUm8s" ] },
      { "delegate": "tz1aRoaRhSpRYvFdyvgWLL6TGyRoGF51wDjM",
        "reception_time": "2022-01-18T07:35:38.256-00:00",
        "included_in_blocks":
          [ "BMBe3rbfKD9bz5BfGeaZGFPshHkvzLUz7bSLKn2BEcJ99MQUm8s" ] },
      { "delegate": "tz1awXW7wuXy21c66vBudMXQVAPgRnqqwgTH",
        "reception_time": "2022-01-18T07:35:38.272-00:00",
        "included_in_blocks":
          [ "BMBe3rbfKD9bz5BfGeaZGFPshHkvzLUz7bSLKn2BEcJ99MQUm8s" ] },
      { "delegate": "tz1f3Re8iw6Pt3KMHAvyccHxDU3NuqL95axD",
        "reception_time": "2022-01-18T07:35:38.280-00:00",
        "included_in_blocks":
          [ "BMBe3rbfKD9bz5BfGeaZGFPshHkvzLUz7bSLKn2BEcJ99MQUm8s" ] },
      { "delegate": "tz3WMqdzXqRWXwyvj5Hp2H7QEepaUuS7vd9K",
        "reception_time": "2022-01-18T07:35:38.308-00:00",
        "included_in_blocks":
          [ "BMBe3rbfKD9bz5BfGeaZGFPshHkvzLUz7bSLKn2BEcJ99MQUm8s" ] },
      { "delegate": "tz3VEZ4k6a4Wx42iyev6i2aVAptTRLEAivNN",
        "reception_time": "2022-01-18T07:35:38.429-00:00",
        "included_in_blocks":
          [ "BMBe3rbfKD9bz5BfGeaZGFPshHkvzLUz7bSLKn2BEcJ99MQUm8s" ] },
      { "delegate": "tz1T7duV5gZWSTq4YpBGbXNLTfznCLDrFxvs",
        "reception_time": "2022-01-18T07:35:38.498-00:00",
        "included_in_blocks":
          [ "BMBe3rbfKD9bz5BfGeaZGFPshHkvzLUz7bSLKn2BEcJ99MQUm8s" ] },
      { "delegate": "tz1fJHFn6sWEd3NnBPngACuw2dggTv6nQZ7g",
        "reception_time": "2022-01-18T07:35:38.658-00:00",
        "included_in_blocks":
          [ "BMBe3rbfKD9bz5BfGeaZGFPshHkvzLUz7bSLKn2BEcJ99MQUm8s" ] },
      { "delegate": "tz1dRKU4FQ9QRRQPdaH4zCR6gmCmXfcvcgtB",
        "reception_time": "2022-01-18T07:35:38.967-00:00",
        "included_in_blocks":
          [ "BMBe3rbfKD9bz5BfGeaZGFPshHkvzLUz7bSLKn2BEcJ99MQUm8s" ] },
      { "delegate": "tz1WctSwL49BZtdWAQ75NY6vr4xsAx6oKdah",
        "reception_time": "2022-01-18T07:35:38.971-00:00",
        "included_in_blocks":
          [ "BMBe3rbfKD9bz5BfGeaZGFPshHkvzLUz7bSLKn2BEcJ99MQUm8s" ] },
      { "delegate": "tz1Xsrfv6hn86fp88YfRs6xcKwt2nTqxVZYM",
        "reception_time": "2022-01-18T07:35:39.029-00:00",
        "included_in_blocks":
          [ "BMBe3rbfKD9bz5BfGeaZGFPshHkvzLUz7bSLKn2BEcJ99MQUm8s" ] },
      { "delegate": "tz3UoffC7FG7zfpmvmjUmUeAaHvzdcUvAj6r",
        "reception_time": "2022-01-18T07:35:39.087-00:00",
        "included_in_blocks":
          [ "BMBe3rbfKD9bz5BfGeaZGFPshHkvzLUz7bSLKn2BEcJ99MQUm8s" ] },
      { "delegate": "tz3NExpXn9aPNZPorRE4SdjJ2RGrfbJgMAaV",
        "reception_time": "2022-01-18T07:35:39.113-00:00",
        "included_in_blocks":
          [ "BMBe3rbfKD9bz5BfGeaZGFPshHkvzLUz7bSLKn2BEcJ99MQUm8s" ] },
      { "delegate": "tz1PFeoTuFen8jAMRHajBySNyCwLmY5RqF9M",
        "reception_time": "2022-01-18T07:35:39.401-00:00",
        "included_in_blocks":
          [ "BMBe3rbfKD9bz5BfGeaZGFPshHkvzLUz7bSLKn2BEcJ99MQUm8s" ] },
      { "delegate": "tz1ZcTRk5uxD86EFEn1vvNffWWqJy7q5eVhc",
        "reception_time": "2022-01-18T07:35:39.439-00:00",
        "included_in_blocks":
          [ "BMBe3rbfKD9bz5BfGeaZGFPshHkvzLUz7bSLKn2BEcJ99MQUm8s" ] },
      { "delegate": "tz1Y7939nK18ogD32jAkun8sCCH8Ab2tQfvv",
        "reception_time": "2022-01-18T07:35:40.076-00:00",
        "included_in_blocks":
          [ "BMBe3rbfKD9bz5BfGeaZGFPshHkvzLUz7bSLKn2BEcJ99MQUm8s" ] },
      { "delegate": "tz1W5VkdB5s7ENMESVBtwyt9kyvLqPcUczRT",
        "reception_time": "2022-01-18T07:35:40.778-00:00",
        "included_in_blocks":
          [ "BMBe3rbfKD9bz5BfGeaZGFPshHkvzLUz7bSLKn2BEcJ99MQUm8s" ] },
      { "delegate": "tz1NpWrAyDL9k2Lmnyxcgr9xuJakbBxdq7FB",
        "reception_time": "2022-01-18T07:35:41.054-00:00",
        "included_in_blocks":
          [ "BMBe3rbfKD9bz5BfGeaZGFPshHkvzLUz7bSLKn2BEcJ99MQUm8s" ] },
      { "delegate": "tz1cYufsxHXJcvANhvS55h3aY32a9BAFB494",
        "reception_time": "2022-01-18T07:35:42.699-00:00",
        "included_in_blocks":
          [ "BMBe3rbfKD9bz5BfGeaZGFPshHkvzLUz7bSLKn2BEcJ99MQUm8s" ] } ] }