{ "blocks":
    [ { "hash": "BKxoBVmE2hNW9Wrof7QCmQEVnnn73uqbSaU613UuMSi8AVbQDL7",
        "delegate": "tz1VQnqCCqX4K5sP3FNkVSNKTdCAMJDd3E1n",
        "reception_time": "2022-01-18T01:34:23.483-00:00",
        "timestamp": "2022-01-18T01:34:20Z" } ],
  "endorsements":
    [ { "delegate": "tz1Mc61yajNASzh5KWZFtYs4i7EJbzAxQC4K" },
      { "delegate": "tz3e7LbZvUtoXhpUD1yb6wuFodZpfYRb9nWJ",
        "reception_time": "2022-01-18T01:34:30.843-00:00",
        "included_in_blocks":
          [ "BLdy5sXd6LXDAgLMhKq4yQzzi3VfC6CfurBSEpFxXsxXpzijUNv" ] },
      { "delegate": "tz1NpWrAyDL9k2Lmnyxcgr9xuJakbBxdq7FB",
        "reception_time": "2022-01-18T01:34:28.526-00:00",
        "included_in_blocks":
          [ "BLdy5sXd6LXDAgLMhKq4yQzzi3VfC6CfurBSEpFxXsxXpzijUNv" ] },
      { "delegate": "tz1W5VkdB5s7ENMESVBtwyt9kyvLqPcUczRT",
        "reception_time": "2022-01-18T01:34:27.883-00:00",
        "included_in_blocks":
          [ "BLdy5sXd6LXDAgLMhKq4yQzzi3VfC6CfurBSEpFxXsxXpzijUNv" ] },
      { "delegate": "tz3NExpXn9aPNZPorRE4SdjJ2RGrfbJgMAaV",
        "reception_time": "2022-01-18T01:34:27.152-00:00",
        "included_in_blocks":
          [ "BLdy5sXd6LXDAgLMhKq4yQzzi3VfC6CfurBSEpFxXsxXpzijUNv" ] },
      { "delegate": "tz3UoffC7FG7zfpmvmjUmUeAaHvzdcUvAj6r",
        "reception_time": "2022-01-18T01:34:27.103-00:00",
        "included_in_blocks":
          [ "BLdy5sXd6LXDAgLMhKq4yQzzi3VfC6CfurBSEpFxXsxXpzijUNv" ] },
      { "delegate": "tz1ULYFhUY7Syao5NWr9jZ1pp3aw81QPiqjs",
        "reception_time": "2022-01-18T01:34:27.191-00:00",
        "included_in_blocks":
          [ "BLdy5sXd6LXDAgLMhKq4yQzzi3VfC6CfurBSEpFxXsxXpzijUNv" ] },
      { "delegate": "tz1Xsrfv6hn86fp88YfRs6xcKwt2nTqxVZYM",
        "reception_time": "2022-01-18T01:34:27.078-00:00",
        "included_in_blocks":
          [ "BLdy5sXd6LXDAgLMhKq4yQzzi3VfC6CfurBSEpFxXsxXpzijUNv" ] },
      { "delegate": "tz1eLbDXYceRsPZoPmaJXZgQ6pzgnTQvZtpo",
        "reception_time": "2022-01-18T01:34:26.939-00:00",
        "included_in_blocks":
          [ "BLdy5sXd6LXDAgLMhKq4yQzzi3VfC6CfurBSEpFxXsxXpzijUNv" ] },
      { "delegate": "tz3VEZ4k6a4Wx42iyev6i2aVAptTRLEAivNN",
        "reception_time": "2022-01-18T01:34:26.645-00:00",
        "included_in_blocks":
          [ "BLdy5sXd6LXDAgLMhKq4yQzzi3VfC6CfurBSEpFxXsxXpzijUNv" ] },
      { "delegate": "tz1fJHFn6sWEd3NnBPngACuw2dggTv6nQZ7g",
        "reception_time": "2022-01-18T01:34:26.664-00:00",
        "included_in_blocks":
          [ "BLdy5sXd6LXDAgLMhKq4yQzzi3VfC6CfurBSEpFxXsxXpzijUNv" ] },
      { "delegate": "tz1QXrzaHrGACVn15UiCg33aLCJ6npWdQb3J",
        "reception_time": "2022-01-18T01:34:26.648-00:00",
        "included_in_blocks":
          [ "BLdy5sXd6LXDAgLMhKq4yQzzi3VfC6CfurBSEpFxXsxXpzijUNv" ] },
      { "delegate": "tz1aRoaRhSpRYvFdyvgWLL6TGyRoGF51wDjM",
        "reception_time": "2022-01-18T01:34:26.554-00:00",
        "included_in_blocks":
          [ "BLdy5sXd6LXDAgLMhKq4yQzzi3VfC6CfurBSEpFxXsxXpzijUNv" ] },
      { "delegate": "tz3RDC3Jdn4j15J7bBHZd29EUee9gVB1CxD9",
        "reception_time": "2022-01-18T01:34:26.333-00:00",
        "included_in_blocks":
          [ "BLdy5sXd6LXDAgLMhKq4yQzzi3VfC6CfurBSEpFxXsxXpzijUNv" ] },
      { "delegate": "tz1NEKxGEHsFufk87CVZcrqWu8o22qh46GK6",
        "reception_time": "2022-01-18T01:34:26.157-00:00",
        "included_in_blocks":
          [ "BLdy5sXd6LXDAgLMhKq4yQzzi3VfC6CfurBSEpFxXsxXpzijUNv" ] },
      { "delegate": "tz1T7duV5gZWSTq4YpBGbXNLTfznCLDrFxvs",
        "reception_time": "2022-01-18T01:34:26.242-00:00",
        "included_in_blocks":
          [ "BLdy5sXd6LXDAgLMhKq4yQzzi3VfC6CfurBSEpFxXsxXpzijUNv" ] },
      { "delegate": "tz1WctSwL49BZtdWAQ75NY6vr4xsAx6oKdah",
        "reception_time": "2022-01-18T01:34:26.067-00:00",
        "included_in_blocks":
          [ "BLdy5sXd6LXDAgLMhKq4yQzzi3VfC6CfurBSEpFxXsxXpzijUNv" ] },
      { "delegate": "tz1KfEsrtDaA1sX7vdM4qmEPWuSytuqCDp5j",
        "reception_time": "2022-01-18T01:34:25.948-00:00",
        "included_in_blocks":
          [ "BLdy5sXd6LXDAgLMhKq4yQzzi3VfC6CfurBSEpFxXsxXpzijUNv" ] },
      { "delegate": "tz3WMqdzXqRWXwyvj5Hp2H7QEepaUuS7vd9K",
        "reception_time": "2022-01-18T01:34:26.028-00:00",
        "included_in_blocks":
          [ "BLdy5sXd6LXDAgLMhKq4yQzzi3VfC6CfurBSEpFxXsxXpzijUNv" ] },
      { "delegate": "tz1abmz7jiCV2GH2u81LRrGgAFFgvQgiDiaf",
        "reception_time": "2022-01-18T01:34:26.000-00:00",
        "included_in_blocks":
          [ "BLdy5sXd6LXDAgLMhKq4yQzzi3VfC6CfurBSEpFxXsxXpzijUNv" ] },
      { "delegate": "tz1PeZx7FXy7QRuMREGXGxeipb24RsMMzUNe",
        "reception_time": "2022-01-18T01:34:25.959-00:00",
        "included_in_blocks":
          [ "BLdy5sXd6LXDAgLMhKq4yQzzi3VfC6CfurBSEpFxXsxXpzijUNv" ] },
      { "delegate": "tz1VceyYUpq1gk5dtp6jXQRtCtY8hm5DKt72",
        "reception_time": "2022-01-18T01:34:25.876-00:00",
        "included_in_blocks":
          [ "BLdy5sXd6LXDAgLMhKq4yQzzi3VfC6CfurBSEpFxXsxXpzijUNv" ] },
      { "delegate": "tz1RjoHc98dBoqaH2jawF62XNKh7YsHwbkEv",
        "reception_time": "2022-01-18T01:34:25.900-00:00",
        "included_in_blocks":
          [ "BLdy5sXd6LXDAgLMhKq4yQzzi3VfC6CfurBSEpFxXsxXpzijUNv" ] },
      { "delegate": "tz1fwnfJNgiDACshK9avfRfFbMaXrs3ghoJa",
        "reception_time": "2022-01-18T01:34:25.658-00:00",
        "included_in_blocks":
          [ "BLdy5sXd6LXDAgLMhKq4yQzzi3VfC6CfurBSEpFxXsxXpzijUNv" ] },
      { "delegate": "tz1SYq214SCBy9naR6cvycQsYcUGpBqQAE8d",
        "reception_time": "2022-01-18T01:34:25.621-00:00",
        "included_in_blocks":
          [ "BLdy5sXd6LXDAgLMhKq4yQzzi3VfC6CfurBSEpFxXsxXpzijUNv" ] },
      { "delegate": "tz1Nf6tsK4G6bBqgSQERy4nUtkHNKUVdh7q1",
        "reception_time": "2022-01-18T01:34:25.636-00:00",
        "included_in_blocks":
          [ "BLdy5sXd6LXDAgLMhKq4yQzzi3VfC6CfurBSEpFxXsxXpzijUNv" ] },
      { "delegate": "tz1ei4WtWEMEJekSv8qDnu9PExG6Q8HgRGr3",
        "reception_time": "2022-01-18T01:34:25.653-00:00",
        "included_in_blocks":
          [ "BLdy5sXd6LXDAgLMhKq4yQzzi3VfC6CfurBSEpFxXsxXpzijUNv" ] },
      { "delegate": "tz3NDpRj6WBrJPikcPVHRBEjWKxFw3c6eQPS",
        "reception_time": "2022-01-18T01:34:25.582-00:00",
        "included_in_blocks":
          [ "BLdy5sXd6LXDAgLMhKq4yQzzi3VfC6CfurBSEpFxXsxXpzijUNv" ] },
      { "delegate": "tz3gLTu4Yxj8tPAcriQVUdxv6BY9QyvzU1az",
        "reception_time": "2022-01-18T01:34:25.629-00:00",
        "included_in_blocks":
          [ "BLdy5sXd6LXDAgLMhKq4yQzzi3VfC6CfurBSEpFxXsxXpzijUNv" ] },
      { "delegate": "tz1TEc75UKXv4W5cwi14Na3NtqFD51yKQi7h",
        "reception_time": "2022-01-18T01:34:25.611-00:00",
        "included_in_blocks":
          [ "BLdy5sXd6LXDAgLMhKq4yQzzi3VfC6CfurBSEpFxXsxXpzijUNv" ] },
      { "delegate": "tz1WBfwbT66FC6BTLexc2BoyCCBM9LG7pnVW",
        "reception_time": "2022-01-18T01:34:25.660-00:00",
        "included_in_blocks":
          [ "BLdy5sXd6LXDAgLMhKq4yQzzi3VfC6CfurBSEpFxXsxXpzijUNv" ] },
      { "delegate": "tz1gfArv665EUkSg2ojMBzcbfwuPxAvqPvjo",
        "reception_time": "2022-01-18T01:34:25.447-00:00",
        "included_in_blocks":
          [ "BLdy5sXd6LXDAgLMhKq4yQzzi3VfC6CfurBSEpFxXsxXpzijUNv" ] },
      { "delegate": "tz2FCNBrERXtaTtNX6iimR1UJ5JSDxvdHM93",
        "reception_time": "2022-01-18T01:34:25.332-00:00",
        "included_in_blocks":
          [ "BLdy5sXd6LXDAgLMhKq4yQzzi3VfC6CfurBSEpFxXsxXpzijUNv" ] },
      { "delegate": "tz1LmaFsWRkjr7QMCx5PtV6xTUz3AmEpKQiF",
        "reception_time": "2022-01-18T01:34:25.376-00:00",
        "included_in_blocks":
          [ "BLdy5sXd6LXDAgLMhKq4yQzzi3VfC6CfurBSEpFxXsxXpzijUNv" ] },
      { "delegate": "tz1fb7c66UwePkkfDXz4ajFaBP9hVNLdS7JJ",
        "reception_time": "2022-01-18T01:34:25.282-00:00",
        "included_in_blocks":
          [ "BLdy5sXd6LXDAgLMhKq4yQzzi3VfC6CfurBSEpFxXsxXpzijUNv" ] },
      { "delegate": "tz1V4qCyvPKZ5UeqdH14HN42rxvNPQfc9UZg",
        "reception_time": "2022-01-18T01:34:25.207-00:00",
        "included_in_blocks":
          [ "BLdy5sXd6LXDAgLMhKq4yQzzi3VfC6CfurBSEpFxXsxXpzijUNv" ] },
      { "delegate": "tz1S8MNvuFEUsWgjHvi3AxibRBf388NhT1q2",
        "reception_time": "2022-01-18T01:34:25.195-00:00",
        "included_in_blocks":
          [ "BLdy5sXd6LXDAgLMhKq4yQzzi3VfC6CfurBSEpFxXsxXpzijUNv" ] },
      { "delegate": "tz1TRqbYbUf2GyrjErf3hBzgBJPzW8y36qEs",
        "reception_time": "2022-01-18T01:34:25.128-00:00",
        "included_in_blocks":
          [ "BLdy5sXd6LXDAgLMhKq4yQzzi3VfC6CfurBSEpFxXsxXpzijUNv" ] },
      { "delegate": "tz1LnWa4AiFCjMezTgSNa65QFoo7DQGEWgEU",
        "reception_time": "2022-01-18T01:34:25.128-00:00",
        "included_in_blocks":
          [ "BLdy5sXd6LXDAgLMhKq4yQzzi3VfC6CfurBSEpFxXsxXpzijUNv" ] },
      { "delegate": "tz3bvNMQ95vfAYtG8193ymshqjSvmxiCUuR5",
        "reception_time": "2022-01-18T01:34:25.059-00:00",
        "included_in_blocks":
          [ "BLdy5sXd6LXDAgLMhKq4yQzzi3VfC6CfurBSEpFxXsxXpzijUNv" ] },
      { "delegate": "tz3bTdwZinP8U1JmSweNzVKhmwafqWmFWRfk",
        "reception_time": "2022-01-18T01:34:25.122-00:00",
        "included_in_blocks":
          [ "BLdy5sXd6LXDAgLMhKq4yQzzi3VfC6CfurBSEpFxXsxXpzijUNv" ] },
      { "delegate": "tz1dwu9aYb7CRNq4Y2zAjipdjFuSVKhHS8vA",
        "reception_time": "2022-01-18T01:34:24.960-00:00",
        "included_in_blocks":
          [ "BLdy5sXd6LXDAgLMhKq4yQzzi3VfC6CfurBSEpFxXsxXpzijUNv" ] },
      { "delegate": "tz1PWCDnz783NNGGQjEFFsHtrcK5yBW4E2rm",
        "reception_time": "2022-01-18T01:34:25.094-00:00",
        "included_in_blocks":
          [ "BLdy5sXd6LXDAgLMhKq4yQzzi3VfC6CfurBSEpFxXsxXpzijUNv" ] },
      { "delegate": "tz1bHzftcTKZMTZgLLtnrXydCm6UEqf4ivca",
        "reception_time": "2022-01-18T01:34:25.014-00:00",
        "included_in_blocks":
          [ "BLdy5sXd6LXDAgLMhKq4yQzzi3VfC6CfurBSEpFxXsxXpzijUNv" ] },
      { "delegate": "tz1RHgE6W7SnPdwqL1SAtGWEdynA7HeTbpbN",
        "reception_time": "2022-01-18T01:34:24.985-00:00",
        "included_in_blocks":
          [ "BLdy5sXd6LXDAgLMhKq4yQzzi3VfC6CfurBSEpFxXsxXpzijUNv" ] },
      { "delegate": "tz3RB4aoyjov4KEVRbuhvQ1CKJgBJMWhaeB8",
        "reception_time": "2022-01-18T01:34:25.039-00:00",
        "included_in_blocks":
          [ "BLdy5sXd6LXDAgLMhKq4yQzzi3VfC6CfurBSEpFxXsxXpzijUNv" ] },
      { "delegate": "tz3adcvQaKXTCg12zbninqo3q8ptKKtDFTLv",
        "reception_time": "2022-01-18T01:34:24.855-00:00",
        "included_in_blocks":
          [ "BLdy5sXd6LXDAgLMhKq4yQzzi3VfC6CfurBSEpFxXsxXpzijUNv" ] },
      { "delegate": "tz1VmiY38m3y95HqQLjMwqnMS7sdMfGomzKi",
        "reception_time": "2022-01-18T01:34:24.937-00:00",
        "included_in_blocks":
          [ "BLdy5sXd6LXDAgLMhKq4yQzzi3VfC6CfurBSEpFxXsxXpzijUNv" ] },
      { "delegate": "tz1SUgyRB8T5jXgXAwS33pgRHAKrafyg87Yc",
        "reception_time": "2022-01-18T01:34:24.920-00:00",
        "included_in_blocks":
          [ "BLdy5sXd6LXDAgLMhKq4yQzzi3VfC6CfurBSEpFxXsxXpzijUNv" ] },
      { "delegate": "tz1WCd2jm4uSt4vntk4vSuUWoZQGhLcDuR9q",
        "reception_time": "2022-01-18T01:34:24.758-00:00",
        "included_in_blocks":
          [ "BLdy5sXd6LXDAgLMhKq4yQzzi3VfC6CfurBSEpFxXsxXpzijUNv" ] },
      { "delegate": "tz1RCFbB9GpALpsZtu6J58sb74dm8qe6XBzv",
        "reception_time": "2022-01-18T01:34:24.803-00:00",
        "included_in_blocks":
          [ "BLdy5sXd6LXDAgLMhKq4yQzzi3VfC6CfurBSEpFxXsxXpzijUNv" ] },
      { "delegate": "tz1TwVimQy3BywXoSszdFXjT9bSTQrsZYo2u",
        "reception_time": "2022-01-18T01:34:24.628-00:00",
        "included_in_blocks":
          [ "BLdy5sXd6LXDAgLMhKq4yQzzi3VfC6CfurBSEpFxXsxXpzijUNv" ] },
      { "delegate": "tz1Ldzz6k1BHdhuKvAtMRX7h5kJSMHESMHLC",
        "reception_time": "2022-01-18T01:34:24.701-00:00",
        "included_in_blocks":
          [ "BLdy5sXd6LXDAgLMhKq4yQzzi3VfC6CfurBSEpFxXsxXpzijUNv" ] },
      { "delegate": "tz3S6BBeKgJGXxvLyZ1xzXzMPn11nnFtq5L9",
        "reception_time": "2022-01-18T01:34:24.612-00:00",
        "included_in_blocks":
          [ "BLdy5sXd6LXDAgLMhKq4yQzzi3VfC6CfurBSEpFxXsxXpzijUNv" ] },
      { "delegate": "tz3QT9dHYKDqh563chVa6za8526ys1UKfRfL",
        "reception_time": "2022-01-18T01:34:24.657-00:00",
        "included_in_blocks":
          [ "BLdy5sXd6LXDAgLMhKq4yQzzi3VfC6CfurBSEpFxXsxXpzijUNv" ] },
      { "delegate": "tz1eDDuQBEgwvc6tbnnCVrnr12tvrd6gBTpx",
        "reception_time": "2022-01-18T01:34:24.675-00:00",
        "included_in_blocks":
          [ "BLdy5sXd6LXDAgLMhKq4yQzzi3VfC6CfurBSEpFxXsxXpzijUNv" ] },
      { "delegate": "tz3iJu5vrKZcsqRPs8yJ61UDoeEXZmtro4qh",
        "reception_time": "2022-01-18T01:34:24.606-00:00",
        "included_in_blocks":
          [ "BLdy5sXd6LXDAgLMhKq4yQzzi3VfC6CfurBSEpFxXsxXpzijUNv" ] },
      { "delegate": "tz3Zhs2dygr55yHyQyKjntAtY9bgfhLZ4Xj1",
        "reception_time": "2022-01-18T01:34:24.553-00:00",
        "included_in_blocks":
          [ "BLdy5sXd6LXDAgLMhKq4yQzzi3VfC6CfurBSEpFxXsxXpzijUNv" ] },
      { "delegate": "tz3RKYFsLuQzKBtmYuLNas7uMu3AsYd4QdsA",
        "reception_time": "2022-01-18T01:34:24.637-00:00",
        "included_in_blocks":
          [ "BLdy5sXd6LXDAgLMhKq4yQzzi3VfC6CfurBSEpFxXsxXpzijUNv" ] },
      { "delegate": "tz1VQnqCCqX4K5sP3FNkVSNKTdCAMJDd3E1n",
        "reception_time": "2022-01-18T01:34:24.473-00:00",
        "included_in_blocks":
          [ "BLdy5sXd6LXDAgLMhKq4yQzzi3VfC6CfurBSEpFxXsxXpzijUNv" ] },
      { "delegate": "tz3QCNyySViKHmeSr45kzDxzchys7NiXCWoa",
        "reception_time": "2022-01-18T01:34:24.528-00:00",
        "included_in_blocks":
          [ "BLdy5sXd6LXDAgLMhKq4yQzzi3VfC6CfurBSEpFxXsxXpzijUNv" ] },
      { "delegate": "tz3QSGPoRp3Kn7n3vY24eYeu3Peuqo45LQ4D",
        "reception_time": "2022-01-18T01:34:24.507-00:00",
        "included_in_blocks":
          [ "BLdy5sXd6LXDAgLMhKq4yQzzi3VfC6CfurBSEpFxXsxXpzijUNv" ] },
      { "delegate": "tz3hw2kqXhLUvY65ca1eety2oQTpAvd34R9Q",
        "reception_time": "2022-01-18T01:34:24.573-00:00",
        "included_in_blocks":
          [ "BLdy5sXd6LXDAgLMhKq4yQzzi3VfC6CfurBSEpFxXsxXpzijUNv" ] },
      { "delegate": "tz3gtoUxdudfBRcNY7iVdKPHCYYX6xdPpoRS",
        "reception_time": "2022-01-18T01:34:24.500-00:00",
        "included_in_blocks":
          [ "BLdy5sXd6LXDAgLMhKq4yQzzi3VfC6CfurBSEpFxXsxXpzijUNv" ] },
      { "delegate": "tz1gUNyn3hmnEWqkusWPzxRaon1cs7ndWh7h",
        "reception_time": "2022-01-18T01:34:24.296-00:00",
        "included_in_blocks":
          [ "BLdy5sXd6LXDAgLMhKq4yQzzi3VfC6CfurBSEpFxXsxXpzijUNv" ] },
      { "delegate": "tz1MJx9vhaNRSimcuXPK2rW4fLccQnDAnVKJ",
        "reception_time": "2022-01-18T01:34:24.280-00:00",
        "included_in_blocks":
          [ "BLdy5sXd6LXDAgLMhKq4yQzzi3VfC6CfurBSEpFxXsxXpzijUNv" ] },
      { "delegate": "tz1TRspM5SeZpaQUhzByXbEvqKF1vnCM2YTK",
        "reception_time": "2022-01-18T01:34:24.289-00:00",
        "included_in_blocks":
          [ "BLdy5sXd6LXDAgLMhKq4yQzzi3VfC6CfurBSEpFxXsxXpzijUNv" ] },
      { "delegate": "tz1fUyqYH7H4pRHN1roWY17giXhy1RvxjgUV",
        "reception_time": "2022-01-18T01:34:24.294-00:00",
        "included_in_blocks":
          [ "BLdy5sXd6LXDAgLMhKq4yQzzi3VfC6CfurBSEpFxXsxXpzijUNv" ] },
      { "delegate": "tz3NxTnke1acr8o3h5y9ytf5awQBGNJUKzVU",
        "reception_time": "2022-01-18T01:34:24.255-00:00",
        "included_in_blocks":
          [ "BLdy5sXd6LXDAgLMhKq4yQzzi3VfC6CfurBSEpFxXsxXpzijUNv" ] },
      { "delegate": "tz3ZbP2pM3nwvXztbuMJwJnDvV5xdpU8UkkD",
        "reception_time": "2022-01-18T01:34:24.255-00:00",
        "included_in_blocks":
          [ "BLdy5sXd6LXDAgLMhKq4yQzzi3VfC6CfurBSEpFxXsxXpzijUNv" ] },
      { "delegate": "tz1dbfppLAAxXZNtf2SDps7rch3qfUznKSoK",
        "reception_time": "2022-01-18T01:34:24.232-00:00",
        "included_in_blocks":
          [ "BLdy5sXd6LXDAgLMhKq4yQzzi3VfC6CfurBSEpFxXsxXpzijUNv" ] },
      { "delegate": "tz1RV1MBbZMR68tacosb7Mwj6LkbPSUS1er1",
        "reception_time": "2022-01-18T01:34:24.227-00:00",
        "included_in_blocks":
          [ "BLdy5sXd6LXDAgLMhKq4yQzzi3VfC6CfurBSEpFxXsxXpzijUNv" ] },
      { "delegate": "tz1irJKkXS2DBWkU1NnmFQx1c1L7pbGg4yhk",
        "reception_time": "2022-01-18T01:34:24.283-00:00",
        "included_in_blocks":
          [ "BLdy5sXd6LXDAgLMhKq4yQzzi3VfC6CfurBSEpFxXsxXpzijUNv" ] },
      { "delegate": "tz1eEnQhbwf6trb8Q8mPb2RaPkNk2rN7BKi8",
        "reception_time": "2022-01-18T01:34:24.222-00:00",
        "included_in_blocks":
          [ "BLdy5sXd6LXDAgLMhKq4yQzzi3VfC6CfurBSEpFxXsxXpzijUNv" ] },
      { "delegate": "tz1Scdr2HsZiQjc7bHMeBbmDRXYVvdhjJbBh",
        "reception_time": "2022-01-18T01:34:24.219-00:00",
        "included_in_blocks":
          [ "BLdy5sXd6LXDAgLMhKq4yQzzi3VfC6CfurBSEpFxXsxXpzijUNv" ] },
      { "delegate": "tz1P2Po7YM526ughEsRbY4oR9zaUPDZjxFrb",
        "reception_time": "2022-01-18T01:34:24.219-00:00",
        "included_in_blocks":
          [ "BLdy5sXd6LXDAgLMhKq4yQzzi3VfC6CfurBSEpFxXsxXpzijUNv" ] },
      { "delegate": "tz1S8e9GgdZG78XJRB3NqabfWeM37GnhZMWQ",
        "reception_time": "2022-01-18T01:34:24.211-00:00",
        "included_in_blocks":
          [ "BLdy5sXd6LXDAgLMhKq4yQzzi3VfC6CfurBSEpFxXsxXpzijUNv" ] } ] }