{ "blocks":
    [ { "hash": "BLVcsHHK64hNAjSvEsL4pYBYJ45bKFEuDH5mtqqZWqV4p9D8nPe",
        "delegate": "tz3NxTnke1acr8o3h5y9ytf5awQBGNJUKzVU",
        "reception_time": "2022-01-18T09:06:09.412-00:00",
        "timestamp": "2022-01-18T09:06:00Z" } ],
  "endorsements":
    [ { "delegate": "tz1iZvYctCtV2oGvEeXCCgUseb4qtdKh3mrV" },
      { "delegate": "tz1Nf6tsK4G6bBqgSQERy4nUtkHNKUVdh7q1",
        "reception_time": "2022-01-18T09:06:09.358-00:00",
        "errors":
          [ { "kind": "temporary",
              "id": "proto.011-PtHangz2.prefilter.outdated_endorsement" } ],
        "included_in_blocks":
          [ "BMZqS5Y1wucNzEJqs8oM666Ft8xjJWQ388zwsYgiXAa3SdpjKHK" ] },
      { "delegate": "tz1a1J3AGjJTAyBqWWSqFuUazUDV2TtD6hMy",
        "reception_time": "2022-01-18T09:06:09.283-00:00",
        "errors":
          [ { "kind": "temporary",
              "id": "proto.011-PtHangz2.prefilter.outdated_endorsement" } ],
        "included_in_blocks":
          [ "BMZqS5Y1wucNzEJqs8oM666Ft8xjJWQ388zwsYgiXAa3SdpjKHK" ] },
      { "delegate": "tz1KfEsrtDaA1sX7vdM4qmEPWuSytuqCDp5j",
        "reception_time": "2022-01-18T09:06:09.279-00:00",
        "errors":
          [ { "kind": "temporary",
              "id": "proto.011-PtHangz2.prefilter.outdated_endorsement" } ],
        "included_in_blocks":
          [ "BMZqS5Y1wucNzEJqs8oM666Ft8xjJWQ388zwsYgiXAa3SdpjKHK" ] },
      { "delegate": "tz1iPHM2Xx2hwmzcr1EG1zzrV6oKafVoA91m",
        "reception_time": "2022-01-18T09:06:09.237-00:00",
        "errors":
          [ { "kind": "temporary",
              "id": "proto.011-PtHangz2.prefilter.outdated_endorsement" } ],
        "included_in_blocks":
          [ "BMZqS5Y1wucNzEJqs8oM666Ft8xjJWQ388zwsYgiXAa3SdpjKHK" ] },
      { "delegate": "tz3RB4aoyjov4KEVRbuhvQ1CKJgBJMWhaeB8",
        "reception_time": "2022-01-18T09:06:09.102-00:00",
        "errors":
          [ { "kind": "temporary",
              "id": "proto.011-PtHangz2.prefilter.outdated_endorsement" } ],
        "included_in_blocks":
          [ "BMZqS5Y1wucNzEJqs8oM666Ft8xjJWQ388zwsYgiXAa3SdpjKHK" ] },
      { "delegate": "tz3gLTu4Yxj8tPAcriQVUdxv6BY9QyvzU1az",
        "reception_time": "2022-01-18T09:06:09.075-00:00",
        "errors":
          [ { "kind": "temporary",
              "id": "proto.011-PtHangz2.prefilter.outdated_endorsement" } ],
        "included_in_blocks":
          [ "BMZqS5Y1wucNzEJqs8oM666Ft8xjJWQ388zwsYgiXAa3SdpjKHK" ] },
      { "delegate": "tz1S8MNvuFEUsWgjHvi3AxibRBf388NhT1q2",
        "reception_time": "2022-01-18T09:06:08.932-00:00",
        "errors":
          [ { "kind": "temporary",
              "id": "proto.011-PtHangz2.prefilter.outdated_endorsement" } ],
        "included_in_blocks":
          [ "BMZqS5Y1wucNzEJqs8oM666Ft8xjJWQ388zwsYgiXAa3SdpjKHK" ] },
      { "delegate": "tz1V4qCyvPKZ5UeqdH14HN42rxvNPQfc9UZg",
        "reception_time": "2022-01-18T09:06:08.774-00:00",
        "errors":
          [ { "kind": "temporary",
              "id": "proto.011-PtHangz2.prefilter.outdated_endorsement" } ],
        "included_in_blocks":
          [ "BMZqS5Y1wucNzEJqs8oM666Ft8xjJWQ388zwsYgiXAa3SdpjKHK" ] },
      { "delegate": "tz3bTdwZinP8U1JmSweNzVKhmwafqWmFWRfk",
        "reception_time": "2022-01-18T09:06:08.527-00:00",
        "errors":
          [ { "kind": "temporary",
              "id": "proto.011-PtHangz2.prefilter.outdated_endorsement" } ],
        "included_in_blocks":
          [ "BMZqS5Y1wucNzEJqs8oM666Ft8xjJWQ388zwsYgiXAa3SdpjKHK" ] },
      { "delegate": "tz1NortRftucvAkD1J58L32EhSVrQEWJCEnB",
        "reception_time": "2022-01-18T09:06:08.526-00:00",
        "errors":
          [ { "kind": "temporary",
              "id": "proto.011-PtHangz2.prefilter.outdated_endorsement" } ],
        "included_in_blocks":
          [ "BMZqS5Y1wucNzEJqs8oM666Ft8xjJWQ388zwsYgiXAa3SdpjKHK" ] },
      { "delegate": "tz1g8vkmcde6sWKaG2NN9WKzCkDM6Rziq194",
        "reception_time": "2022-01-18T09:06:08.504-00:00",
        "errors":
          [ { "kind": "temporary",
              "id": "proto.011-PtHangz2.prefilter.outdated_endorsement" } ],
        "included_in_blocks":
          [ "BMZqS5Y1wucNzEJqs8oM666Ft8xjJWQ388zwsYgiXAa3SdpjKHK" ] },
      { "delegate": "tz1WBfwbT66FC6BTLexc2BoyCCBM9LG7pnVW",
        "reception_time": "2022-01-18T09:06:08.466-00:00",
        "errors":
          [ { "kind": "temporary",
              "id": "proto.011-PtHangz2.prefilter.outdated_endorsement" } ],
        "included_in_blocks":
          [ "BMZqS5Y1wucNzEJqs8oM666Ft8xjJWQ388zwsYgiXAa3SdpjKHK" ] },
      { "delegate": "tz1ei4WtWEMEJekSv8qDnu9PExG6Q8HgRGr3",
        "reception_time": "2022-01-18T09:06:08.388-00:00",
        "errors":
          [ { "kind": "temporary",
              "id": "proto.011-PtHangz2.prefilter.outdated_endorsement" } ],
        "included_in_blocks":
          [ "BMZqS5Y1wucNzEJqs8oM666Ft8xjJWQ388zwsYgiXAa3SdpjKHK" ] },
      { "delegate": "tz1dwu9aYb7CRNq4Y2zAjipdjFuSVKhHS8vA",
        "reception_time": "2022-01-18T09:06:08.348-00:00",
        "errors":
          [ { "kind": "temporary",
              "id": "proto.011-PtHangz2.prefilter.outdated_endorsement" } ],
        "included_in_blocks":
          [ "BMZqS5Y1wucNzEJqs8oM666Ft8xjJWQ388zwsYgiXAa3SdpjKHK" ] },
      { "delegate": "tz1WCd2jm4uSt4vntk4vSuUWoZQGhLcDuR9q",
        "reception_time": "2022-01-18T09:06:08.096-00:00",
        "errors":
          [ { "kind": "temporary",
              "id": "proto.011-PtHangz2.prefilter.outdated_endorsement" } ],
        "included_in_blocks":
          [ "BMZqS5Y1wucNzEJqs8oM666Ft8xjJWQ388zwsYgiXAa3SdpjKHK" ] },
      { "delegate": "tz1PWCDnz783NNGGQjEFFsHtrcK5yBW4E2rm",
        "reception_time": "2022-01-18T09:06:08.074-00:00",
        "errors":
          [ { "kind": "temporary",
              "id": "proto.011-PtHangz2.prefilter.outdated_endorsement" } ],
        "included_in_blocks":
          [ "BMZqS5Y1wucNzEJqs8oM666Ft8xjJWQ388zwsYgiXAa3SdpjKHK" ] },
      { "delegate": "tz3S6BBeKgJGXxvLyZ1xzXzMPn11nnFtq5L9",
        "reception_time": "2022-01-18T09:06:08.068-00:00",
        "errors":
          [ { "kind": "temporary",
              "id": "proto.011-PtHangz2.prefilter.outdated_endorsement" } ],
        "included_in_blocks":
          [ "BMZqS5Y1wucNzEJqs8oM666Ft8xjJWQ388zwsYgiXAa3SdpjKHK" ] },
      { "delegate": "tz3QT9dHYKDqh563chVa6za8526ys1UKfRfL",
        "reception_time": "2022-01-18T09:06:07.923-00:00",
        "errors":
          [ { "kind": "temporary",
              "id": "proto.011-PtHangz2.prefilter.outdated_endorsement" } ],
        "included_in_blocks":
          [ "BMZqS5Y1wucNzEJqs8oM666Ft8xjJWQ388zwsYgiXAa3SdpjKHK" ] },
      { "delegate": "tz1UJvHTgpVzcKWhTazGxVcn5wsHru5Gietg",
        "reception_time": "2022-01-18T09:06:07.856-00:00",
        "errors":
          [ { "kind": "temporary",
              "id": "proto.011-PtHangz2.prefilter.outdated_endorsement" } ],
        "included_in_blocks":
          [ "BMZqS5Y1wucNzEJqs8oM666Ft8xjJWQ388zwsYgiXAa3SdpjKHK" ] },
      { "delegate": "tz1gfArv665EUkSg2ojMBzcbfwuPxAvqPvjo",
        "reception_time": "2022-01-18T09:06:07.838-00:00",
        "errors":
          [ { "kind": "temporary",
              "id": "proto.011-PtHangz2.prefilter.outdated_endorsement" } ],
        "included_in_blocks":
          [ "BMZqS5Y1wucNzEJqs8oM666Ft8xjJWQ388zwsYgiXAa3SdpjKHK" ] },
      { "delegate": "tz1cSj7fTex3JPd1p1LN1fwek6AV1kH93Wwc",
        "reception_time": "2022-01-18T09:06:07.808-00:00",
        "errors":
          [ { "kind": "temporary",
              "id": "proto.011-PtHangz2.prefilter.outdated_endorsement" } ],
        "included_in_blocks":
          [ "BMZqS5Y1wucNzEJqs8oM666Ft8xjJWQ388zwsYgiXAa3SdpjKHK" ] },
      { "delegate": "tz1aXD7Jigrt3PBYSpHSg5Rr33SexMmmM5Ys",
        "reception_time": "2022-01-18T09:06:07.626-00:00",
        "errors":
          [ { "kind": "temporary",
              "id": "proto.011-PtHangz2.prefilter.outdated_endorsement" } ],
        "included_in_blocks":
          [ "BMZqS5Y1wucNzEJqs8oM666Ft8xjJWQ388zwsYgiXAa3SdpjKHK" ] },
      { "delegate": "tz3iJu5vrKZcsqRPs8yJ61UDoeEXZmtro4qh",
        "reception_time": "2022-01-18T09:06:07.544-00:00",
        "errors":
          [ { "kind": "temporary",
              "id": "proto.011-PtHangz2.prefilter.outdated_endorsement" } ],
        "included_in_blocks":
          [ "BMZqS5Y1wucNzEJqs8oM666Ft8xjJWQ388zwsYgiXAa3SdpjKHK" ] },
      { "delegate": "tz3RKYFsLuQzKBtmYuLNas7uMu3AsYd4QdsA",
        "reception_time": "2022-01-18T09:06:07.543-00:00",
        "errors":
          [ { "kind": "temporary",
              "id": "proto.011-PtHangz2.prefilter.outdated_endorsement" } ],
        "included_in_blocks":
          [ "BMZqS5Y1wucNzEJqs8oM666Ft8xjJWQ388zwsYgiXAa3SdpjKHK" ] },
      { "delegate": "tz3hw2kqXhLUvY65ca1eety2oQTpAvd34R9Q",
        "reception_time": "2022-01-18T09:06:07.538-00:00",
        "errors":
          [ { "kind": "temporary",
              "id": "proto.011-PtHangz2.prefilter.outdated_endorsement" } ],
        "included_in_blocks":
          [ "BMZqS5Y1wucNzEJqs8oM666Ft8xjJWQ388zwsYgiXAa3SdpjKHK" ] },
      { "delegate": "tz1Kt4P8BCaP93AEV4eA7gmpRryWt5hznjCP",
        "reception_time": "2022-01-18T09:06:07.528-00:00",
        "errors":
          [ { "kind": "temporary",
              "id": "proto.011-PtHangz2.prefilter.outdated_endorsement" } ],
        "included_in_blocks":
          [ "BMZqS5Y1wucNzEJqs8oM666Ft8xjJWQ388zwsYgiXAa3SdpjKHK" ] },
      { "delegate": "tz1gUNyn3hmnEWqkusWPzxRaon1cs7ndWh7h",
        "reception_time": "2022-01-18T09:06:07.494-00:00",
        "errors":
          [ { "kind": "temporary",
              "id": "proto.011-PtHangz2.prefilter.outdated_endorsement" } ],
        "included_in_blocks":
          [ "BMZqS5Y1wucNzEJqs8oM666Ft8xjJWQ388zwsYgiXAa3SdpjKHK" ] },
      { "delegate": "tz1Scdr2HsZiQjc7bHMeBbmDRXYVvdhjJbBh",
        "reception_time": "2022-01-18T09:06:07.463-00:00",
        "errors":
          [ { "kind": "temporary",
              "id": "proto.011-PtHangz2.prefilter.outdated_endorsement" } ],
        "included_in_blocks":
          [ "BMZqS5Y1wucNzEJqs8oM666Ft8xjJWQ388zwsYgiXAa3SdpjKHK" ] },
      { "delegate": "tz1VQnqCCqX4K5sP3FNkVSNKTdCAMJDd3E1n",
        "reception_time": "2022-01-18T09:06:07.439-00:00",
        "errors":
          [ { "kind": "temporary",
              "id": "proto.011-PtHangz2.prefilter.outdated_endorsement" } ],
        "included_in_blocks":
          [ "BMZqS5Y1wucNzEJqs8oM666Ft8xjJWQ388zwsYgiXAa3SdpjKHK" ] },
      { "delegate": "tz1Kf25fX1VdmYGSEzwFy1wNmkbSEZ2V83sY",
        "reception_time": "2022-01-18T09:06:07.260-00:00",
        "errors":
          [ { "kind": "temporary",
              "id": "proto.011-PtHangz2.prefilter.outdated_endorsement" } ],
        "included_in_blocks":
          [ "BMZqS5Y1wucNzEJqs8oM666Ft8xjJWQ388zwsYgiXAa3SdpjKHK" ] },
      { "delegate": "tz3gtoUxdudfBRcNY7iVdKPHCYYX6xdPpoRS",
        "reception_time": "2022-01-18T09:06:07.180-00:00",
        "errors":
          [ { "kind": "temporary",
              "id": "proto.011-PtHangz2.prefilter.outdated_endorsement" } ],
        "included_in_blocks":
          [ "BMZqS5Y1wucNzEJqs8oM666Ft8xjJWQ388zwsYgiXAa3SdpjKHK" ] },
      { "delegate": "tz1Ldzz6k1BHdhuKvAtMRX7h5kJSMHESMHLC",
        "reception_time": "2022-01-18T09:06:07.166-00:00",
        "errors":
          [ { "kind": "temporary",
              "id": "proto.011-PtHangz2.prefilter.outdated_endorsement" } ],
        "included_in_blocks":
          [ "BMZqS5Y1wucNzEJqs8oM666Ft8xjJWQ388zwsYgiXAa3SdpjKHK" ] },
      { "delegate": "tz1eEnQhbwf6trb8Q8mPb2RaPkNk2rN7BKi8",
        "reception_time": "2022-01-18T09:06:07.073-00:00",
        "errors":
          [ { "kind": "temporary",
              "id": "proto.011-PtHangz2.prefilter.outdated_endorsement" } ],
        "included_in_blocks":
          [ "BMZqS5Y1wucNzEJqs8oM666Ft8xjJWQ388zwsYgiXAa3SdpjKHK" ] },
      { "delegate": "tz1NMdMmWZN8QPB8pY4ddncACDg1cHi1xD2e",
        "reception_time": "2022-01-18T09:06:07.073-00:00",
        "errors":
          [ { "kind": "temporary",
              "id": "proto.011-PtHangz2.prefilter.outdated_endorsement" } ],
        "included_in_blocks":
          [ "BMZqS5Y1wucNzEJqs8oM666Ft8xjJWQ388zwsYgiXAa3SdpjKHK" ] },
      { "delegate": "tz3QSGPoRp3Kn7n3vY24eYeu3Peuqo45LQ4D",
        "reception_time": "2022-01-18T09:06:07.020-00:00",
        "errors":
          [ { "kind": "temporary",
              "id": "proto.011-PtHangz2.prefilter.outdated_endorsement" } ],
        "included_in_blocks":
          [ "BMZqS5Y1wucNzEJqs8oM666Ft8xjJWQ388zwsYgiXAa3SdpjKHK" ] },
      { "delegate": "tz1aDiEJf9ztRrAJEXZfcG3CKimoKsGhwVAi",
        "reception_time": "2022-01-18T09:06:06.850-00:00",
        "errors":
          [ { "kind": "temporary",
              "id": "proto.011-PtHangz2.prefilter.outdated_endorsement" } ],
        "included_in_blocks":
          [ "BMZqS5Y1wucNzEJqs8oM666Ft8xjJWQ388zwsYgiXAa3SdpjKHK" ] },
      { "delegate": "tz1irJKkXS2DBWkU1NnmFQx1c1L7pbGg4yhk",
        "reception_time": "2022-01-18T09:06:06.838-00:00",
        "errors":
          [ { "kind": "temporary",
              "id": "proto.011-PtHangz2.prefilter.outdated_endorsement" } ],
        "included_in_blocks":
          [ "BMZqS5Y1wucNzEJqs8oM666Ft8xjJWQ388zwsYgiXAa3SdpjKHK" ] },
      { "delegate": "tz1dUpfvjmAX3HLYvYhAwb94qe7nJodJr51c",
        "reception_time": "2022-01-18T09:06:06.683-00:00",
        "errors":
          [ { "kind": "temporary",
              "id": "proto.011-PtHangz2.prefilter.outdated_endorsement" } ],
        "included_in_blocks":
          [ "BMZqS5Y1wucNzEJqs8oM666Ft8xjJWQ388zwsYgiXAa3SdpjKHK" ] },
      { "delegate": "tz1beersuEDv8Z7ngQ825xfbaJNS2EhXnyHR",
        "reception_time": "2022-01-18T09:06:06.606-00:00",
        "errors":
          [ { "kind": "temporary",
              "id": "proto.011-PtHangz2.prefilter.outdated_endorsement" } ],
        "included_in_blocks":
          [ "BMZqS5Y1wucNzEJqs8oM666Ft8xjJWQ388zwsYgiXAa3SdpjKHK" ] },
      { "delegate": "tz3ZbP2pM3nwvXztbuMJwJnDvV5xdpU8UkkD",
        "reception_time": "2022-01-18T09:06:06.566-00:00",
        "errors":
          [ { "kind": "temporary",
              "id": "proto.011-PtHangz2.prefilter.outdated_endorsement" } ],
        "included_in_blocks":
          [ "BMZqS5Y1wucNzEJqs8oM666Ft8xjJWQ388zwsYgiXAa3SdpjKHK" ] },
      { "delegate": "tz3NxTnke1acr8o3h5y9ytf5awQBGNJUKzVU",
        "reception_time": "2022-01-18T09:06:06.553-00:00",
        "errors":
          [ { "kind": "temporary",
              "id": "proto.011-PtHangz2.prefilter.outdated_endorsement" } ],
        "included_in_blocks":
          [ "BMZqS5Y1wucNzEJqs8oM666Ft8xjJWQ388zwsYgiXAa3SdpjKHK" ] },
      { "delegate": "tz1P2Po7YM526ughEsRbY4oR9zaUPDZjxFrb",
        "reception_time": "2022-01-18T09:06:06.451-00:00",
        "errors":
          [ { "kind": "temporary",
              "id": "proto.011-PtHangz2.prefilter.outdated_endorsement" } ],
        "included_in_blocks":
          [ "BMZqS5Y1wucNzEJqs8oM666Ft8xjJWQ388zwsYgiXAa3SdpjKHK" ] },
      { "delegate": "tz1Lhf4J9Qxoe3DZ2nfe8FGDnvVj7oKjnMY6",
        "reception_time": "2022-01-18T09:06:06.307-00:00",
        "errors":
          [ { "kind": "temporary",
              "id": "proto.011-PtHangz2.prefilter.outdated_endorsement" } ],
        "included_in_blocks":
          [ "BMZqS5Y1wucNzEJqs8oM666Ft8xjJWQ388zwsYgiXAa3SdpjKHK" ] },
      { "delegate": "tz1TRqbYbUf2GyrjErf3hBzgBJPzW8y36qEs",
        "reception_time": "2022-01-18T09:06:19.518-00:00",
        "included_in_blocks":
          [ "BMZqS5Y1wucNzEJqs8oM666Ft8xjJWQ388zwsYgiXAa3SdpjKHK" ] },
      { "delegate": "tz1W5VkdB5s7ENMESVBtwyt9kyvLqPcUczRT",
        "reception_time": "2022-01-18T09:06:18.134-00:00",
        "included_in_blocks":
          [ "BMZqS5Y1wucNzEJqs8oM666Ft8xjJWQ388zwsYgiXAa3SdpjKHK" ] },
      { "delegate": "tz1dfg9PkvRLf7hKMmGdGRhXWCbd8QgbwBF7",
        "reception_time": "2022-01-18T09:06:17.377-00:00",
        "included_in_blocks":
          [ "BMZqS5Y1wucNzEJqs8oM666Ft8xjJWQ388zwsYgiXAa3SdpjKHK" ] },
      { "delegate": "tz2FCNBrERXtaTtNX6iimR1UJ5JSDxvdHM93",
        "reception_time": "2022-01-18T09:06:16.445-00:00",
        "included_in_blocks":
          [ "BMZqS5Y1wucNzEJqs8oM666Ft8xjJWQ388zwsYgiXAa3SdpjKHK" ] },
      { "delegate": "tz1RjoHc98dBoqaH2jawF62XNKh7YsHwbkEv",
        "reception_time": "2022-01-18T09:06:16.602-00:00",
        "included_in_blocks":
          [ "BMZqS5Y1wucNzEJqs8oM666Ft8xjJWQ388zwsYgiXAa3SdpjKHK" ] },
      { "delegate": "tz1ZcTRk5uxD86EFEn1vvNffWWqJy7q5eVhc",
        "reception_time": "2022-01-18T09:06:13.741-00:00",
        "included_in_blocks":
          [ "BMZqS5Y1wucNzEJqs8oM666Ft8xjJWQ388zwsYgiXAa3SdpjKHK" ] },
      { "delegate": "tz1Vd1rXpV8hTHbFXCXN3c3qzCsgcU5BZw1e",
        "reception_time": "2022-01-18T09:06:12.929-00:00",
        "included_in_blocks":
          [ "BMZqS5Y1wucNzEJqs8oM666Ft8xjJWQ388zwsYgiXAa3SdpjKHK" ] },
      { "delegate": "tz1fZ767VDbqx4DeKiFswPSHh513f51mKEUZ",
        "reception_time": "2022-01-18T09:06:12.870-00:00",
        "included_in_blocks":
          [ "BMZqS5Y1wucNzEJqs8oM666Ft8xjJWQ388zwsYgiXAa3SdpjKHK" ] },
      { "delegate": "tz1d6Fx42mYgVFnHUW8T8A7WBfJ6nD9pVok8",
        "reception_time": "2022-01-18T09:06:11.861-00:00",
        "included_in_blocks":
          [ "BMZqS5Y1wucNzEJqs8oM666Ft8xjJWQ388zwsYgiXAa3SdpjKHK" ] },
      { "delegate": "tz1S6H83gugqK4dR5Had9jWR9M1ZdAAVgU5e",
        "reception_time": "2022-01-18T09:06:11.715-00:00",
        "included_in_blocks":
          [ "BMZqS5Y1wucNzEJqs8oM666Ft8xjJWQ388zwsYgiXAa3SdpjKHK" ] },
      { "delegate": "tz1aRoaRhSpRYvFdyvgWLL6TGyRoGF51wDjM",
        "reception_time": "2022-01-18T09:06:11.636-00:00",
        "included_in_blocks":
          [ "BMZqS5Y1wucNzEJqs8oM666Ft8xjJWQ388zwsYgiXAa3SdpjKHK" ] },
      { "delegate": "tz1eVaNx3gCmG1EsLjijkmgAxdLYVf6Bf5Sq",
        "reception_time": "2022-01-18T09:06:11.511-00:00",
        "included_in_blocks":
          [ "BMZqS5Y1wucNzEJqs8oM666Ft8xjJWQ388zwsYgiXAa3SdpjKHK" ] },
      { "delegate": "tz1RCFbB9GpALpsZtu6J58sb74dm8qe6XBzv",
        "reception_time": "2022-01-18T09:06:11.145-00:00",
        "included_in_blocks":
          [ "BMZqS5Y1wucNzEJqs8oM666Ft8xjJWQ388zwsYgiXAa3SdpjKHK" ] },
      { "delegate": "tz1LmaFsWRkjr7QMCx5PtV6xTUz3AmEpKQiF",
        "reception_time": "2022-01-18T09:06:11.678-00:00",
        "included_in_blocks":
          [ "BMZqS5Y1wucNzEJqs8oM666Ft8xjJWQ388zwsYgiXAa3SdpjKHK" ] },
      { "delegate": "tz1fwnfJNgiDACshK9avfRfFbMaXrs3ghoJa",
        "reception_time": "2022-01-18T09:06:10.901-00:00",
        "included_in_blocks":
          [ "BMZqS5Y1wucNzEJqs8oM666Ft8xjJWQ388zwsYgiXAa3SdpjKHK" ] },
      { "delegate": "tz1SYq214SCBy9naR6cvycQsYcUGpBqQAE8d",
        "reception_time": "2022-01-18T09:06:10.731-00:00",
        "included_in_blocks":
          [ "BMZqS5Y1wucNzEJqs8oM666Ft8xjJWQ388zwsYgiXAa3SdpjKHK" ] },
      { "delegate": "tz3UoffC7FG7zfpmvmjUmUeAaHvzdcUvAj6r",
        "reception_time": "2022-01-18T09:06:10.854-00:00",
        "included_in_blocks":
          [ "BMZqS5Y1wucNzEJqs8oM666Ft8xjJWQ388zwsYgiXAa3SdpjKHK" ] },
      { "delegate": "tz3NExpXn9aPNZPorRE4SdjJ2RGrfbJgMAaV",
        "reception_time": "2022-01-18T09:06:10.922-00:00",
        "included_in_blocks":
          [ "BMZqS5Y1wucNzEJqs8oM666Ft8xjJWQ388zwsYgiXAa3SdpjKHK" ] },
      { "delegate": "tz3RDC3Jdn4j15J7bBHZd29EUee9gVB1CxD9",
        "reception_time": "2022-01-18T09:06:10.731-00:00",
        "included_in_blocks":
          [ "BMZqS5Y1wucNzEJqs8oM666Ft8xjJWQ388zwsYgiXAa3SdpjKHK" ] },
      { "delegate": "tz1h4GUAMweP7SNWzDgvMk3yRCAZyaP1MxZq",
        "reception_time": "2022-01-18T09:06:10.731-00:00",
        "included_in_blocks":
          [ "BMZqS5Y1wucNzEJqs8oM666Ft8xjJWQ388zwsYgiXAa3SdpjKHK" ] },
      { "delegate": "tz3bvNMQ95vfAYtG8193ymshqjSvmxiCUuR5",
        "reception_time": "2022-01-18T09:06:10.731-00:00",
        "included_in_blocks":
          [ "BMZqS5Y1wucNzEJqs8oM666Ft8xjJWQ388zwsYgiXAa3SdpjKHK" ] },
      { "delegate": "tz1TEc75UKXv4W5cwi14Na3NtqFD51yKQi7h",
        "reception_time": "2022-01-18T09:06:10.731-00:00",
        "included_in_blocks":
          [ "BMZqS5Y1wucNzEJqs8oM666Ft8xjJWQ388zwsYgiXAa3SdpjKHK" ] },
      { "delegate": "tz1dRKU4FQ9QRRQPdaH4zCR6gmCmXfcvcgtB",
        "reception_time": "2022-01-18T09:06:10.731-00:00",
        "included_in_blocks":
          [ "BMZqS5Y1wucNzEJqs8oM666Ft8xjJWQ388zwsYgiXAa3SdpjKHK" ] },
      { "delegate": "tz3VEZ4k6a4Wx42iyev6i2aVAptTRLEAivNN",
        "reception_time": "2022-01-18T09:06:10.731-00:00",
        "included_in_blocks":
          [ "BMZqS5Y1wucNzEJqs8oM666Ft8xjJWQ388zwsYgiXAa3SdpjKHK" ] },
      { "delegate": "tz1UMCB2AHSTwG7YcGNr31CqYCtGN873royv",
        "reception_time": "2022-01-18T09:06:10.535-00:00",
        "included_in_blocks":
          [ "BMZqS5Y1wucNzEJqs8oM666Ft8xjJWQ388zwsYgiXAa3SdpjKHK" ] },
      { "delegate": "tz1NEKxGEHsFufk87CVZcrqWu8o22qh46GK6",
        "reception_time": "2022-01-18T09:06:10.535-00:00",
        "included_in_blocks":
          [ "BMZqS5Y1wucNzEJqs8oM666Ft8xjJWQ388zwsYgiXAa3SdpjKHK" ] },
      { "delegate": "tz3WMqdzXqRWXwyvj5Hp2H7QEepaUuS7vd9K",
        "reception_time": "2022-01-18T09:06:10.535-00:00",
        "included_in_blocks":
          [ "BMZqS5Y1wucNzEJqs8oM666Ft8xjJWQ388zwsYgiXAa3SdpjKHK" ] } ] }