{ "blocks":
    [ { "hash": "BLbWTqjPZ4jpUUkKnHDBts63RN8H4asAuj8GxKFhT45BkeXdVh9",
        "delegate": "tz1T7duV5gZWSTq4YpBGbXNLTfznCLDrFxvs",
        "reception_time": "2022-01-18T06:23:25.633-00:00",
        "timestamp": "2022-01-18T06:23:20Z" } ],
  "endorsements":
    [ { "delegate": "tz1S8e9GgdZG78XJRB3NqabfWeM37GnhZMWQ",
        "reception_time": "2022-01-18T06:23:25.526-00:00",
        "errors":
          [ { "kind": "temporary",
              "id": "proto.011-PtHangz2.prefilter.outdated_endorsement" } ],
        "included_in_blocks":
          [ "BLsmp6w2quKWqRmwdwMGgMXksVTskwnThQdFo84fCuDHUjGnEyw" ] },
      { "delegate": "tz1Vyuu4EJ5Nym4JcrfRLnp3hpaq1DSEp1Ke" },
      { "delegate": "tz1ibcPVGK4Y8pcW4BYUsojiHoBKnZbyDGrX" },
      { "delegate": "tz1TXzyaKUA8wsWefdSnyaYFnV2M3vCV7er9",
        "reception_time": "2022-01-18T06:23:26.491-00:00",
        "included_in_blocks":
          [ "BLsmp6w2quKWqRmwdwMGgMXksVTskwnThQdFo84fCuDHUjGnEyw" ] },
      { "delegate": "tz1P2Po7YM526ughEsRbY4oR9zaUPDZjxFrb",
        "reception_time": "2022-01-18T06:23:26.500-00:00",
        "included_in_blocks":
          [ "BLsmp6w2quKWqRmwdwMGgMXksVTskwnThQdFo84fCuDHUjGnEyw" ] },
      { "delegate": "tz1dbfppLAAxXZNtf2SDps7rch3qfUznKSoK",
        "reception_time": "2022-01-18T06:23:26.507-00:00",
        "included_in_blocks":
          [ "BLsmp6w2quKWqRmwdwMGgMXksVTskwnThQdFo84fCuDHUjGnEyw" ] },
      { "delegate": "tz1beersuEDv8Z7ngQ825xfbaJNS2EhXnyHR",
        "reception_time": "2022-01-18T06:23:26.510-00:00",
        "included_in_blocks":
          [ "BLsmp6w2quKWqRmwdwMGgMXksVTskwnThQdFo84fCuDHUjGnEyw" ] },
      { "delegate": "tz1eEnQhbwf6trb8Q8mPb2RaPkNk2rN7BKi8",
        "reception_time": "2022-01-18T06:23:26.514-00:00",
        "included_in_blocks":
          [ "BLsmp6w2quKWqRmwdwMGgMXksVTskwnThQdFo84fCuDHUjGnEyw" ] },
      { "delegate": "tz3NxTnke1acr8o3h5y9ytf5awQBGNJUKzVU",
        "reception_time": "2022-01-18T06:23:26.539-00:00",
        "included_in_blocks":
          [ "BLsmp6w2quKWqRmwdwMGgMXksVTskwnThQdFo84fCuDHUjGnEyw" ] },
      { "delegate": "tz1VmiY38m3y95HqQLjMwqnMS7sdMfGomzKi",
        "reception_time": "2022-01-18T06:23:26.549-00:00",
        "included_in_blocks":
          [ "BLsmp6w2quKWqRmwdwMGgMXksVTskwnThQdFo84fCuDHUjGnEyw" ] },
      { "delegate": "tz3ZbP2pM3nwvXztbuMJwJnDvV5xdpU8UkkD",
        "reception_time": "2022-01-18T06:23:26.549-00:00",
        "included_in_blocks":
          [ "BLsmp6w2quKWqRmwdwMGgMXksVTskwnThQdFo84fCuDHUjGnEyw" ] },
      { "delegate": "tz1irJKkXS2DBWkU1NnmFQx1c1L7pbGg4yhk",
        "reception_time": "2022-01-18T06:23:26.552-00:00",
        "included_in_blocks":
          [ "BLsmp6w2quKWqRmwdwMGgMXksVTskwnThQdFo84fCuDHUjGnEyw" ] },
      { "delegate": "tz1QLXqnfN51dkjeghXvKHkJfhvGiM5gK4tc",
        "reception_time": "2022-01-18T06:23:26.559-00:00",
        "included_in_blocks":
          [ "BLsmp6w2quKWqRmwdwMGgMXksVTskwnThQdFo84fCuDHUjGnEyw" ] },
      { "delegate": "tz1aXD7Jigrt3PBYSpHSg5Rr33SexMmmM5Ys",
        "reception_time": "2022-01-18T06:23:26.562-00:00",
        "included_in_blocks":
          [ "BLsmp6w2quKWqRmwdwMGgMXksVTskwnThQdFo84fCuDHUjGnEyw" ] },
      { "delegate": "tz3gtoUxdudfBRcNY7iVdKPHCYYX6xdPpoRS",
        "reception_time": "2022-01-18T06:23:26.617-00:00",
        "included_in_blocks":
          [ "BLsmp6w2quKWqRmwdwMGgMXksVTskwnThQdFo84fCuDHUjGnEyw" ] },
      { "delegate": "tz3QSGPoRp3Kn7n3vY24eYeu3Peuqo45LQ4D",
        "reception_time": "2022-01-18T06:23:26.626-00:00",
        "included_in_blocks":
          [ "BLsmp6w2quKWqRmwdwMGgMXksVTskwnThQdFo84fCuDHUjGnEyw" ] },
      { "delegate": "tz3QT9dHYKDqh563chVa6za8526ys1UKfRfL",
        "reception_time": "2022-01-18T06:23:26.632-00:00",
        "included_in_blocks":
          [ "BLsmp6w2quKWqRmwdwMGgMXksVTskwnThQdFo84fCuDHUjGnEyw" ] },
      { "delegate": "tz3S6BBeKgJGXxvLyZ1xzXzMPn11nnFtq5L9",
        "reception_time": "2022-01-18T06:23:26.673-00:00",
        "included_in_blocks":
          [ "BLsmp6w2quKWqRmwdwMGgMXksVTskwnThQdFo84fCuDHUjGnEyw" ] },
      { "delegate": "tz3iJu5vrKZcsqRPs8yJ61UDoeEXZmtro4qh",
        "reception_time": "2022-01-18T06:23:26.685-00:00",
        "included_in_blocks":
          [ "BLsmp6w2quKWqRmwdwMGgMXksVTskwnThQdFo84fCuDHUjGnEyw" ] },
      { "delegate": "tz1Ldzz6k1BHdhuKvAtMRX7h5kJSMHESMHLC",
        "reception_time": "2022-01-18T06:23:26.688-00:00",
        "included_in_blocks":
          [ "BLsmp6w2quKWqRmwdwMGgMXksVTskwnThQdFo84fCuDHUjGnEyw" ] },
      { "delegate": "tz3Zhs2dygr55yHyQyKjntAtY9bgfhLZ4Xj1",
        "reception_time": "2022-01-18T06:23:26.745-00:00",
        "included_in_blocks":
          [ "BLsmp6w2quKWqRmwdwMGgMXksVTskwnThQdFo84fCuDHUjGnEyw" ] },
      { "delegate": "tz1iPHM2Xx2hwmzcr1EG1zzrV6oKafVoA91m",
        "reception_time": "2022-01-18T06:23:26.765-00:00",
        "included_in_blocks":
          [ "BLsmp6w2quKWqRmwdwMGgMXksVTskwnThQdFo84fCuDHUjGnEyw" ] },
      { "delegate": "tz3RKYFsLuQzKBtmYuLNas7uMu3AsYd4QdsA",
        "reception_time": "2022-01-18T06:23:26.798-00:00",
        "included_in_blocks":
          [ "BLsmp6w2quKWqRmwdwMGgMXksVTskwnThQdFo84fCuDHUjGnEyw" ] },
      { "delegate": "tz1Kt4P8BCaP93AEV4eA7gmpRryWt5hznjCP",
        "reception_time": "2022-01-18T06:23:26.873-00:00",
        "included_in_blocks":
          [ "BLsmp6w2quKWqRmwdwMGgMXksVTskwnThQdFo84fCuDHUjGnEyw" ] },
      { "delegate": "tz3hw2kqXhLUvY65ca1eety2oQTpAvd34R9Q",
        "reception_time": "2022-01-18T06:23:26.903-00:00",
        "included_in_blocks":
          [ "BLsmp6w2quKWqRmwdwMGgMXksVTskwnThQdFo84fCuDHUjGnEyw" ] },
      { "delegate": "tz1WCd2jm4uSt4vntk4vSuUWoZQGhLcDuR9q",
        "reception_time": "2022-01-18T06:23:26.946-00:00",
        "included_in_blocks":
          [ "BLsmp6w2quKWqRmwdwMGgMXksVTskwnThQdFo84fCuDHUjGnEyw" ] },
      { "delegate": "tz1a51WYsAsoh4fs4A4x5aCN6Za26mpfDfTi",
        "reception_time": "2022-01-18T06:23:26.950-00:00",
        "included_in_blocks":
          [ "BLsmp6w2quKWqRmwdwMGgMXksVTskwnThQdFo84fCuDHUjGnEyw" ] },
      { "delegate": "tz1fPKAtsYydh4f1wfWNfeNxWYu72TmM48fu",
        "reception_time": "2022-01-18T06:23:26.967-00:00",
        "included_in_blocks":
          [ "BLsmp6w2quKWqRmwdwMGgMXksVTskwnThQdFo84fCuDHUjGnEyw" ] },
      { "delegate": "tz1hAYfexyzPGG6RhZZMpDvAHifubsbb6kgn",
        "reception_time": "2022-01-18T06:23:27.032-00:00",
        "included_in_blocks":
          [ "BLsmp6w2quKWqRmwdwMGgMXksVTskwnThQdFo84fCuDHUjGnEyw" ] },
      { "delegate": "tz1TRqbYbUf2GyrjErf3hBzgBJPzW8y36qEs",
        "reception_time": "2022-01-18T06:23:27.042-00:00",
        "included_in_blocks":
          [ "BLsmp6w2quKWqRmwdwMGgMXksVTskwnThQdFo84fCuDHUjGnEyw" ] },
      { "delegate": "tz1abmz7jiCV2GH2u81LRrGgAFFgvQgiDiaf",
        "reception_time": "2022-01-18T06:23:27.063-00:00",
        "included_in_blocks":
          [ "BLsmp6w2quKWqRmwdwMGgMXksVTskwnThQdFo84fCuDHUjGnEyw" ] },
      { "delegate": "tz1gfArv665EUkSg2ojMBzcbfwuPxAvqPvjo",
        "reception_time": "2022-01-18T06:23:27.182-00:00",
        "included_in_blocks":
          [ "BLsmp6w2quKWqRmwdwMGgMXksVTskwnThQdFo84fCuDHUjGnEyw" ] },
      { "delegate": "tz1MQJPGNMijnXnVoBENFz9rUhaPt3S7rWoz",
        "reception_time": "2022-01-18T06:23:27.190-00:00",
        "included_in_blocks":
          [ "BLsmp6w2quKWqRmwdwMGgMXksVTskwnThQdFo84fCuDHUjGnEyw" ] },
      { "delegate": "tz1PWCDnz783NNGGQjEFFsHtrcK5yBW4E2rm",
        "reception_time": "2022-01-18T06:23:27.194-00:00",
        "included_in_blocks":
          [ "BLsmp6w2quKWqRmwdwMGgMXksVTskwnThQdFo84fCuDHUjGnEyw" ] },
      { "delegate": "tz3bTdwZinP8U1JmSweNzVKhmwafqWmFWRfk",
        "reception_time": "2022-01-18T06:23:27.232-00:00",
        "included_in_blocks":
          [ "BLsmp6w2quKWqRmwdwMGgMXksVTskwnThQdFo84fCuDHUjGnEyw" ] },
      { "delegate": "tz1S8MNvuFEUsWgjHvi3AxibRBf388NhT1q2",
        "reception_time": "2022-01-18T06:23:27.298-00:00",
        "included_in_blocks":
          [ "BLsmp6w2quKWqRmwdwMGgMXksVTskwnThQdFo84fCuDHUjGnEyw" ] },
      { "delegate": "tz1VQnqCCqX4K5sP3FNkVSNKTdCAMJDd3E1n",
        "reception_time": "2022-01-18T06:23:27.345-00:00",
        "included_in_blocks":
          [ "BLsmp6w2quKWqRmwdwMGgMXksVTskwnThQdFo84fCuDHUjGnEyw" ] },
      { "delegate": "tz1dNVDWPf3Q59SdJqnjdnu277iyvReiRS9M",
        "reception_time": "2022-01-18T06:23:27.355-00:00",
        "included_in_blocks":
          [ "BLsmp6w2quKWqRmwdwMGgMXksVTskwnThQdFo84fCuDHUjGnEyw" ] },
      { "delegate": "tz1YiuvpfeVAHbnU8akcWErNfQGFHNQ7F45z",
        "reception_time": "2022-01-18T06:23:27.362-00:00",
        "included_in_blocks":
          [ "BLsmp6w2quKWqRmwdwMGgMXksVTskwnThQdFo84fCuDHUjGnEyw" ] },
      { "delegate": "tz1NortRftucvAkD1J58L32EhSVrQEWJCEnB",
        "reception_time": "2022-01-18T06:23:27.367-00:00",
        "included_in_blocks":
          [ "BLsmp6w2quKWqRmwdwMGgMXksVTskwnThQdFo84fCuDHUjGnEyw" ] },
      { "delegate": "tz1gUNyn3hmnEWqkusWPzxRaon1cs7ndWh7h",
        "reception_time": "2022-01-18T06:23:27.393-00:00",
        "included_in_blocks":
          [ "BLsmp6w2quKWqRmwdwMGgMXksVTskwnThQdFo84fCuDHUjGnEyw" ] },
      { "delegate": "tz1WBfwbT66FC6BTLexc2BoyCCBM9LG7pnVW",
        "reception_time": "2022-01-18T06:23:27.457-00:00",
        "included_in_blocks":
          [ "BLsmp6w2quKWqRmwdwMGgMXksVTskwnThQdFo84fCuDHUjGnEyw" ] },
      { "delegate": "tz1VceyYUpq1gk5dtp6jXQRtCtY8hm5DKt72",
        "reception_time": "2022-01-18T06:23:27.461-00:00",
        "included_in_blocks":
          [ "BLsmp6w2quKWqRmwdwMGgMXksVTskwnThQdFo84fCuDHUjGnEyw" ] },
      { "delegate": "tz3RB4aoyjov4KEVRbuhvQ1CKJgBJMWhaeB8",
        "reception_time": "2022-01-18T06:23:27.486-00:00",
        "included_in_blocks":
          [ "BLsmp6w2quKWqRmwdwMGgMXksVTskwnThQdFo84fCuDHUjGnEyw" ] },
      { "delegate": "tz1RCFbB9GpALpsZtu6J58sb74dm8qe6XBzv",
        "reception_time": "2022-01-18T06:23:27.492-00:00",
        "included_in_blocks":
          [ "BLsmp6w2quKWqRmwdwMGgMXksVTskwnThQdFo84fCuDHUjGnEyw" ] },
      { "delegate": "tz1LnWa4AiFCjMezTgSNa65QFoo7DQGEWgEU",
        "reception_time": "2022-01-18T06:23:27.494-00:00",
        "included_in_blocks":
          [ "BLsmp6w2quKWqRmwdwMGgMXksVTskwnThQdFo84fCuDHUjGnEyw" ] },
      { "delegate": "tz1fwnfJNgiDACshK9avfRfFbMaXrs3ghoJa",
        "reception_time": "2022-01-18T06:23:27.868-00:00",
        "included_in_blocks":
          [ "BLsmp6w2quKWqRmwdwMGgMXksVTskwnThQdFo84fCuDHUjGnEyw" ] },
      { "delegate": "tz1ei4WtWEMEJekSv8qDnu9PExG6Q8HgRGr3",
        "reception_time": "2022-01-18T06:23:27.871-00:00",
        "included_in_blocks":
          [ "BLsmp6w2quKWqRmwdwMGgMXksVTskwnThQdFo84fCuDHUjGnEyw" ] },
      { "delegate": "tz1SYq214SCBy9naR6cvycQsYcUGpBqQAE8d",
        "reception_time": "2022-01-18T06:23:28.061-00:00",
        "included_in_blocks":
          [ "BLsmp6w2quKWqRmwdwMGgMXksVTskwnThQdFo84fCuDHUjGnEyw" ] },
      { "delegate": "tz2FCNBrERXtaTtNX6iimR1UJ5JSDxvdHM93",
        "reception_time": "2022-01-18T06:23:28.079-00:00",
        "included_in_blocks":
          [ "BLsmp6w2quKWqRmwdwMGgMXksVTskwnThQdFo84fCuDHUjGnEyw" ] },
      { "delegate": "tz1cZfFQpcYhwDp7y1njZXDsZqCrn2NqmVof",
        "reception_time": "2022-01-18T06:23:28.084-00:00",
        "included_in_blocks":
          [ "BLsmp6w2quKWqRmwdwMGgMXksVTskwnThQdFo84fCuDHUjGnEyw" ] },
      { "delegate": "tz3UoffC7FG7zfpmvmjUmUeAaHvzdcUvAj6r",
        "reception_time": "2022-01-18T06:23:28.206-00:00",
        "included_in_blocks":
          [ "BLsmp6w2quKWqRmwdwMGgMXksVTskwnThQdFo84fCuDHUjGnEyw" ] },
      { "delegate": "tz1KfEsrtDaA1sX7vdM4qmEPWuSytuqCDp5j",
        "reception_time": "2022-01-18T06:23:28.367-00:00",
        "included_in_blocks":
          [ "BLsmp6w2quKWqRmwdwMGgMXksVTskwnThQdFo84fCuDHUjGnEyw" ] },
      { "delegate": "tz1RjoHc98dBoqaH2jawF62XNKh7YsHwbkEv",
        "reception_time": "2022-01-18T06:23:28.402-00:00",
        "included_in_blocks":
          [ "BLsmp6w2quKWqRmwdwMGgMXksVTskwnThQdFo84fCuDHUjGnEyw" ] },
      { "delegate": "tz1NEKxGEHsFufk87CVZcrqWu8o22qh46GK6",
        "reception_time": "2022-01-18T06:23:28.420-00:00",
        "included_in_blocks":
          [ "BLsmp6w2quKWqRmwdwMGgMXksVTskwnThQdFo84fCuDHUjGnEyw" ] },
      { "delegate": "tz1cig1EHyvZd7J2k389moM9PxVgPQvmFkvi",
        "reception_time": "2022-01-18T06:23:28.439-00:00",
        "included_in_blocks":
          [ "BLsmp6w2quKWqRmwdwMGgMXksVTskwnThQdFo84fCuDHUjGnEyw" ] },
      { "delegate": "tz1awXW7wuXy21c66vBudMXQVAPgRnqqwgTH",
        "reception_time": "2022-01-18T06:23:28.441-00:00",
        "included_in_blocks":
          [ "BLsmp6w2quKWqRmwdwMGgMXksVTskwnThQdFo84fCuDHUjGnEyw" ] },
      { "delegate": "tz3WMqdzXqRWXwyvj5Hp2H7QEepaUuS7vd9K",
        "reception_time": "2022-01-18T06:23:28.491-00:00",
        "included_in_blocks":
          [ "BLsmp6w2quKWqRmwdwMGgMXksVTskwnThQdFo84fCuDHUjGnEyw" ] },
      { "delegate": "tz3VEZ4k6a4Wx42iyev6i2aVAptTRLEAivNN",
        "reception_time": "2022-01-18T06:23:28.499-00:00",
        "included_in_blocks":
          [ "BLsmp6w2quKWqRmwdwMGgMXksVTskwnThQdFo84fCuDHUjGnEyw" ] },
      { "delegate": "tz3NDpRj6WBrJPikcPVHRBEjWKxFw3c6eQPS",
        "reception_time": "2022-01-18T06:23:28.624-00:00",
        "included_in_blocks":
          [ "BLsmp6w2quKWqRmwdwMGgMXksVTskwnThQdFo84fCuDHUjGnEyw" ] },
      { "delegate": "tz1PeZx7FXy7QRuMREGXGxeipb24RsMMzUNe",
        "reception_time": "2022-01-18T06:23:28.628-00:00",
        "included_in_blocks":
          [ "BLsmp6w2quKWqRmwdwMGgMXksVTskwnThQdFo84fCuDHUjGnEyw" ] },
      { "delegate": "tz1Nf6tsK4G6bBqgSQERy4nUtkHNKUVdh7q1",
        "reception_time": "2022-01-18T06:23:28.632-00:00",
        "included_in_blocks":
          [ "BLsmp6w2quKWqRmwdwMGgMXksVTskwnThQdFo84fCuDHUjGnEyw" ] },
      { "delegate": "tz1NuUu12WHdW3jHqvkujGHsiTi46Wvw1ci1",
        "reception_time": "2022-01-18T06:23:28.694-00:00",
        "included_in_blocks":
          [ "BLsmp6w2quKWqRmwdwMGgMXksVTskwnThQdFo84fCuDHUjGnEyw" ] },
      { "delegate": "tz3bvNMQ95vfAYtG8193ymshqjSvmxiCUuR5",
        "reception_time": "2022-01-18T06:23:28.832-00:00",
        "included_in_blocks":
          [ "BLsmp6w2quKWqRmwdwMGgMXksVTskwnThQdFo84fCuDHUjGnEyw" ] },
      { "delegate": "tz3RDC3Jdn4j15J7bBHZd29EUee9gVB1CxD9",
        "reception_time": "2022-01-18T06:23:28.838-00:00",
        "included_in_blocks":
          [ "BLsmp6w2quKWqRmwdwMGgMXksVTskwnThQdFo84fCuDHUjGnEyw" ] },
      { "delegate": "tz1dRKU4FQ9QRRQPdaH4zCR6gmCmXfcvcgtB",
        "reception_time": "2022-01-18T06:23:29.130-00:00",
        "included_in_blocks":
          [ "BLsmp6w2quKWqRmwdwMGgMXksVTskwnThQdFo84fCuDHUjGnEyw" ] },
      { "delegate": "tz1aRoaRhSpRYvFdyvgWLL6TGyRoGF51wDjM",
        "reception_time": "2022-01-18T06:23:29.141-00:00",
        "included_in_blocks":
          [ "BLsmp6w2quKWqRmwdwMGgMXksVTskwnThQdFo84fCuDHUjGnEyw" ] },
      { "delegate": "tz1ZcTRk5uxD86EFEn1vvNffWWqJy7q5eVhc",
        "reception_time": "2022-01-18T06:23:29.318-00:00",
        "included_in_blocks":
          [ "BLsmp6w2quKWqRmwdwMGgMXksVTskwnThQdFo84fCuDHUjGnEyw" ] },
      { "delegate": "tz3NExpXn9aPNZPorRE4SdjJ2RGrfbJgMAaV",
        "reception_time": "2022-01-18T06:23:29.552-00:00",
        "included_in_blocks":
          [ "BLsmp6w2quKWqRmwdwMGgMXksVTskwnThQdFo84fCuDHUjGnEyw" ] },
      { "delegate": "tz1W5VkdB5s7ENMESVBtwyt9kyvLqPcUczRT",
        "reception_time": "2022-01-18T06:23:30.052-00:00",
        "included_in_blocks":
          [ "BLsmp6w2quKWqRmwdwMGgMXksVTskwnThQdFo84fCuDHUjGnEyw" ] },
      { "delegate": "tz1cYufsxHXJcvANhvS55h3aY32a9BAFB494",
        "reception_time": "2022-01-18T06:23:30.346-00:00",
        "included_in_blocks":
          [ "BLsmp6w2quKWqRmwdwMGgMXksVTskwnThQdFo84fCuDHUjGnEyw" ] },
      { "delegate": "tz1g8vkmcde6sWKaG2NN9WKzCkDM6Rziq194",
        "reception_time": "2022-01-18T06:23:31.633-00:00",
        "included_in_blocks":
          [ "BLsmp6w2quKWqRmwdwMGgMXksVTskwnThQdFo84fCuDHUjGnEyw" ] },
      { "delegate": "tz1NpWrAyDL9k2Lmnyxcgr9xuJakbBxdq7FB",
        "reception_time": "2022-01-18T06:23:33.279-00:00",
        "included_in_blocks":
          [ "BLsmp6w2quKWqRmwdwMGgMXksVTskwnThQdFo84fCuDHUjGnEyw" ] },
      { "delegate": "tz3e7LbZvUtoXhpUD1yb6wuFodZpfYRb9nWJ",
        "reception_time": "2022-01-18T06:23:34.315-00:00",
        "included_in_blocks":
          [ "BLsmp6w2quKWqRmwdwMGgMXksVTskwnThQdFo84fCuDHUjGnEyw" ] } ] }