{ "blocks":
    [ { "hash": "BM6TbBiE83eUq3B1rvawWpf9nX5wNKWfGt8fRx6BFeKMnWHCBDh",
        "delegate": "tz1S8MNvuFEUsWgjHvi3AxibRBf388NhT1q2",
        "reception_time": "2022-01-18T05:07:27.601-00:00",
        "timestamp": "2022-01-18T05:07:20Z" } ],
  "endorsements":
    [ { "delegate": "tz1Nf6tsK4G6bBqgSQERy4nUtkHNKUVdh7q1",
        "reception_time": "2022-01-18T05:07:27.566-00:00",
        "errors":
          [ { "kind": "temporary",
              "id": "proto.011-PtHangz2.prefilter.outdated_endorsement" } ],
        "included_in_blocks":
          [ "BMUVRuaJmWNYrTSh4aTdnHJaPQt9fxCoJnTAkVEGAsaDSVSFUB2" ] },
      { "delegate": "tz1TRqbYbUf2GyrjErf3hBzgBJPzW8y36qEs",
        "reception_time": "2022-01-18T05:07:27.465-00:00",
        "errors":
          [ { "kind": "temporary",
              "id": "proto.011-PtHangz2.prefilter.outdated_endorsement" } ],
        "included_in_blocks":
          [ "BMUVRuaJmWNYrTSh4aTdnHJaPQt9fxCoJnTAkVEGAsaDSVSFUB2" ] },
      { "delegate": "tz1a1J3AGjJTAyBqWWSqFuUazUDV2TtD6hMy",
        "reception_time": "2022-01-18T05:07:27.407-00:00",
        "errors":
          [ { "kind": "temporary",
              "id": "proto.011-PtHangz2.prefilter.outdated_endorsement" } ],
        "included_in_blocks":
          [ "BMUVRuaJmWNYrTSh4aTdnHJaPQt9fxCoJnTAkVEGAsaDSVSFUB2" ] },
      { "delegate": "tz3RDC3Jdn4j15J7bBHZd29EUee9gVB1CxD9",
        "reception_time": "2022-01-18T05:07:27.397-00:00",
        "errors":
          [ { "kind": "temporary",
              "id": "proto.011-PtHangz2.prefilter.outdated_endorsement" } ],
        "included_in_blocks":
          [ "BMUVRuaJmWNYrTSh4aTdnHJaPQt9fxCoJnTAkVEGAsaDSVSFUB2" ] },
      { "delegate": "tz3RB4aoyjov4KEVRbuhvQ1CKJgBJMWhaeB8",
        "reception_time": "2022-01-18T05:07:27.387-00:00",
        "errors":
          [ { "kind": "temporary",
              "id": "proto.011-PtHangz2.prefilter.outdated_endorsement" } ],
        "included_in_blocks":
          [ "BMUVRuaJmWNYrTSh4aTdnHJaPQt9fxCoJnTAkVEGAsaDSVSFUB2" ] },
      { "delegate": "tz1WBfwbT66FC6BTLexc2BoyCCBM9LG7pnVW",
        "reception_time": "2022-01-18T05:07:27.359-00:00",
        "errors":
          [ { "kind": "temporary",
              "id": "proto.011-PtHangz2.prefilter.outdated_endorsement" } ],
        "included_in_blocks":
          [ "BMUVRuaJmWNYrTSh4aTdnHJaPQt9fxCoJnTAkVEGAsaDSVSFUB2" ] },
      { "delegate": "tz1abmz7jiCV2GH2u81LRrGgAFFgvQgiDiaf",
        "reception_time": "2022-01-18T05:07:27.327-00:00",
        "errors":
          [ { "kind": "temporary",
              "id": "proto.011-PtHangz2.prefilter.outdated_endorsement" } ],
        "included_in_blocks":
          [ "BMUVRuaJmWNYrTSh4aTdnHJaPQt9fxCoJnTAkVEGAsaDSVSFUB2" ] },
      { "delegate": "tz1NEKxGEHsFufk87CVZcrqWu8o22qh46GK6",
        "reception_time": "2022-01-18T05:07:27.276-00:00",
        "errors":
          [ { "kind": "temporary",
              "id": "proto.011-PtHangz2.prefilter.outdated_endorsement" } ],
        "included_in_blocks":
          [ "BMUVRuaJmWNYrTSh4aTdnHJaPQt9fxCoJnTAkVEGAsaDSVSFUB2" ] },
      { "delegate": "tz1MQJPGNMijnXnVoBENFz9rUhaPt3S7rWoz",
        "reception_time": "2022-01-18T05:07:27.160-00:00",
        "errors":
          [ { "kind": "temporary",
              "id": "proto.011-PtHangz2.prefilter.outdated_endorsement" } ],
        "included_in_blocks":
          [ "BMUVRuaJmWNYrTSh4aTdnHJaPQt9fxCoJnTAkVEGAsaDSVSFUB2" ] },
      { "delegate": "tz1RCFbB9GpALpsZtu6J58sb74dm8qe6XBzv",
        "reception_time": "2022-01-18T05:07:27.123-00:00",
        "errors":
          [ { "kind": "temporary",
              "id": "proto.011-PtHangz2.prefilter.outdated_endorsement" } ],
        "included_in_blocks":
          [ "BMUVRuaJmWNYrTSh4aTdnHJaPQt9fxCoJnTAkVEGAsaDSVSFUB2" ] },
      { "delegate": "tz1RQhNh7iB9CZA7i3ifTWNwiGYVffponfbB",
        "reception_time": "2022-01-18T05:07:27.049-00:00",
        "errors":
          [ { "kind": "temporary",
              "id": "proto.011-PtHangz2.prefilter.outdated_endorsement" } ],
        "included_in_blocks":
          [ "BMUVRuaJmWNYrTSh4aTdnHJaPQt9fxCoJnTAkVEGAsaDSVSFUB2" ] },
      { "delegate": "tz3WMqdzXqRWXwyvj5Hp2H7QEepaUuS7vd9K",
        "reception_time": "2022-01-18T05:07:26.967-00:00",
        "errors":
          [ { "kind": "temporary",
              "id": "proto.011-PtHangz2.prefilter.outdated_endorsement" } ],
        "included_in_blocks":
          [ "BMUVRuaJmWNYrTSh4aTdnHJaPQt9fxCoJnTAkVEGAsaDSVSFUB2" ] },
      { "delegate": "tz1h4GUAMweP7SNWzDgvMk3yRCAZyaP1MxZq",
        "reception_time": "2022-01-18T05:07:26.937-00:00",
        "errors":
          [ { "kind": "temporary",
              "id": "proto.011-PtHangz2.prefilter.outdated_endorsement" } ],
        "included_in_blocks":
          [ "BMUVRuaJmWNYrTSh4aTdnHJaPQt9fxCoJnTAkVEGAsaDSVSFUB2" ] },
      { "delegate": "tz1fb7c66UwePkkfDXz4ajFaBP9hVNLdS7JJ",
        "reception_time": "2022-01-18T05:07:26.905-00:00",
        "errors":
          [ { "kind": "temporary",
              "id": "proto.011-PtHangz2.prefilter.outdated_endorsement" } ],
        "included_in_blocks":
          [ "BMUVRuaJmWNYrTSh4aTdnHJaPQt9fxCoJnTAkVEGAsaDSVSFUB2" ] },
      { "delegate": "tz1Scdr2HsZiQjc7bHMeBbmDRXYVvdhjJbBh",
        "reception_time": "2022-01-18T05:07:26.882-00:00",
        "errors":
          [ { "kind": "temporary",
              "id": "proto.011-PtHangz2.prefilter.outdated_endorsement" } ],
        "included_in_blocks":
          [ "BMUVRuaJmWNYrTSh4aTdnHJaPQt9fxCoJnTAkVEGAsaDSVSFUB2" ] },
      { "delegate": "tz1cSj7fTex3JPd1p1LN1fwek6AV1kH93Wwc",
        "reception_time": "2022-01-18T05:07:26.879-00:00",
        "errors":
          [ { "kind": "temporary",
              "id": "proto.011-PtHangz2.prefilter.outdated_endorsement" } ],
        "included_in_blocks":
          [ "BMUVRuaJmWNYrTSh4aTdnHJaPQt9fxCoJnTAkVEGAsaDSVSFUB2" ] },
      { "delegate": "tz1MGTFJXpQmtxLi8QJ7AuVRgM2L2Qfn9w9i",
        "reception_time": "2022-01-18T05:07:26.862-00:00",
        "errors":
          [ { "kind": "temporary",
              "id": "proto.011-PtHangz2.prefilter.outdated_endorsement" } ],
        "included_in_blocks":
          [ "BMUVRuaJmWNYrTSh4aTdnHJaPQt9fxCoJnTAkVEGAsaDSVSFUB2" ] },
      { "delegate": "tz1ei4WtWEMEJekSv8qDnu9PExG6Q8HgRGr3",
        "reception_time": "2022-01-18T05:07:26.831-00:00",
        "errors":
          [ { "kind": "temporary",
              "id": "proto.011-PtHangz2.prefilter.outdated_endorsement" } ],
        "included_in_blocks":
          [ "BMUVRuaJmWNYrTSh4aTdnHJaPQt9fxCoJnTAkVEGAsaDSVSFUB2" ] },
      { "delegate": "tz1gfArv665EUkSg2ojMBzcbfwuPxAvqPvjo",
        "reception_time": "2022-01-18T05:07:26.623-00:00",
        "errors":
          [ { "kind": "temporary",
              "id": "proto.011-PtHangz2.prefilter.outdated_endorsement" } ],
        "included_in_blocks":
          [ "BMUVRuaJmWNYrTSh4aTdnHJaPQt9fxCoJnTAkVEGAsaDSVSFUB2" ] },
      { "delegate": "tz1SYq214SCBy9naR6cvycQsYcUGpBqQAE8d",
        "reception_time": "2022-01-18T05:07:26.610-00:00",
        "errors":
          [ { "kind": "temporary",
              "id": "proto.011-PtHangz2.prefilter.outdated_endorsement" } ],
        "included_in_blocks":
          [ "BMUVRuaJmWNYrTSh4aTdnHJaPQt9fxCoJnTAkVEGAsaDSVSFUB2" ] },
      { "delegate": "tz3QT9dHYKDqh563chVa6za8526ys1UKfRfL",
        "reception_time": "2022-01-18T05:07:26.544-00:00",
        "errors":
          [ { "kind": "temporary",
              "id": "proto.011-PtHangz2.prefilter.outdated_endorsement" } ],
        "included_in_blocks":
          [ "BMUVRuaJmWNYrTSh4aTdnHJaPQt9fxCoJnTAkVEGAsaDSVSFUB2" ] },
      { "delegate": "tz1WCd2jm4uSt4vntk4vSuUWoZQGhLcDuR9q",
        "reception_time": "2022-01-18T05:07:26.527-00:00",
        "errors":
          [ { "kind": "temporary",
              "id": "proto.011-PtHangz2.prefilter.outdated_endorsement" } ],
        "included_in_blocks":
          [ "BMUVRuaJmWNYrTSh4aTdnHJaPQt9fxCoJnTAkVEGAsaDSVSFUB2" ] },
      { "delegate": "tz3gtoUxdudfBRcNY7iVdKPHCYYX6xdPpoRS",
        "reception_time": "2022-01-18T05:07:26.512-00:00",
        "errors":
          [ { "kind": "temporary",
              "id": "proto.011-PtHangz2.prefilter.outdated_endorsement" } ],
        "included_in_blocks":
          [ "BMUVRuaJmWNYrTSh4aTdnHJaPQt9fxCoJnTAkVEGAsaDSVSFUB2" ] },
      { "delegate": "tz3iJu5vrKZcsqRPs8yJ61UDoeEXZmtro4qh",
        "reception_time": "2022-01-18T05:07:26.508-00:00",
        "errors":
          [ { "kind": "temporary",
              "id": "proto.011-PtHangz2.prefilter.outdated_endorsement" } ],
        "included_in_blocks":
          [ "BMUVRuaJmWNYrTSh4aTdnHJaPQt9fxCoJnTAkVEGAsaDSVSFUB2" ] },
      { "delegate": "tz1bZ8vsMAXmaWEV7FRnyhcuUs2fYMaQ6Hkk",
        "reception_time": "2022-01-18T05:07:26.480-00:00",
        "errors":
          [ { "kind": "temporary",
              "id": "proto.011-PtHangz2.prefilter.outdated_endorsement" } ],
        "included_in_blocks":
          [ "BMUVRuaJmWNYrTSh4aTdnHJaPQt9fxCoJnTAkVEGAsaDSVSFUB2" ] },
      { "delegate": "tz3Zhs2dygr55yHyQyKjntAtY9bgfhLZ4Xj1",
        "reception_time": "2022-01-18T05:07:26.415-00:00",
        "errors":
          [ { "kind": "temporary",
              "id": "proto.011-PtHangz2.prefilter.outdated_endorsement" } ],
        "included_in_blocks":
          [ "BMUVRuaJmWNYrTSh4aTdnHJaPQt9fxCoJnTAkVEGAsaDSVSFUB2" ] },
      { "delegate": "tz1PWCDnz783NNGGQjEFFsHtrcK5yBW4E2rm",
        "reception_time": "2022-01-18T05:07:26.408-00:00",
        "errors":
          [ { "kind": "temporary",
              "id": "proto.011-PtHangz2.prefilter.outdated_endorsement" } ],
        "included_in_blocks":
          [ "BMUVRuaJmWNYrTSh4aTdnHJaPQt9fxCoJnTAkVEGAsaDSVSFUB2" ] },
      { "delegate": "tz1gUNyn3hmnEWqkusWPzxRaon1cs7ndWh7h",
        "reception_time": "2022-01-18T05:07:26.400-00:00",
        "errors":
          [ { "kind": "temporary",
              "id": "proto.011-PtHangz2.prefilter.outdated_endorsement" } ],
        "included_in_blocks":
          [ "BMUVRuaJmWNYrTSh4aTdnHJaPQt9fxCoJnTAkVEGAsaDSVSFUB2" ] },
      { "delegate": "tz3hw2kqXhLUvY65ca1eety2oQTpAvd34R9Q",
        "reception_time": "2022-01-18T05:07:26.387-00:00",
        "errors":
          [ { "kind": "temporary",
              "id": "proto.011-PtHangz2.prefilter.outdated_endorsement" } ],
        "included_in_blocks":
          [ "BMUVRuaJmWNYrTSh4aTdnHJaPQt9fxCoJnTAkVEGAsaDSVSFUB2" ] },
      { "delegate": "tz1VQnqCCqX4K5sP3FNkVSNKTdCAMJDd3E1n",
        "reception_time": "2022-01-18T05:07:26.383-00:00",
        "errors":
          [ { "kind": "temporary",
              "id": "proto.011-PtHangz2.prefilter.outdated_endorsement" } ],
        "included_in_blocks":
          [ "BMUVRuaJmWNYrTSh4aTdnHJaPQt9fxCoJnTAkVEGAsaDSVSFUB2" ] },
      { "delegate": "tz3RKYFsLuQzKBtmYuLNas7uMu3AsYd4QdsA",
        "reception_time": "2022-01-18T05:07:26.347-00:00",
        "errors":
          [ { "kind": "temporary",
              "id": "proto.011-PtHangz2.prefilter.outdated_endorsement" } ],
        "included_in_blocks":
          [ "BMUVRuaJmWNYrTSh4aTdnHJaPQt9fxCoJnTAkVEGAsaDSVSFUB2" ] },
      { "delegate": "tz1Ldzz6k1BHdhuKvAtMRX7h5kJSMHESMHLC",
        "reception_time": "2022-01-18T05:07:26.261-00:00",
        "errors":
          [ { "kind": "temporary",
              "id": "proto.011-PtHangz2.prefilter.outdated_endorsement" } ],
        "included_in_blocks":
          [ "BMUVRuaJmWNYrTSh4aTdnHJaPQt9fxCoJnTAkVEGAsaDSVSFUB2" ] },
      { "delegate": "tz1ZPh7XfUaJXUDvkrBxmS1BjEM1i62hiPpM",
        "reception_time": "2022-01-18T05:07:26.244-00:00",
        "errors":
          [ { "kind": "temporary",
              "id": "proto.011-PtHangz2.prefilter.outdated_endorsement" } ],
        "included_in_blocks":
          [ "BMUVRuaJmWNYrTSh4aTdnHJaPQt9fxCoJnTAkVEGAsaDSVSFUB2" ] },
      { "delegate": "tz1fPKAtsYydh4f1wfWNfeNxWYu72TmM48fu",
        "reception_time": "2022-01-18T05:07:26.212-00:00",
        "errors":
          [ { "kind": "temporary",
              "id": "proto.011-PtHangz2.prefilter.outdated_endorsement" } ],
        "included_in_blocks":
          [ "BMUVRuaJmWNYrTSh4aTdnHJaPQt9fxCoJnTAkVEGAsaDSVSFUB2" ] },
      { "delegate": "tz3ZbP2pM3nwvXztbuMJwJnDvV5xdpU8UkkD",
        "reception_time": "2022-01-18T05:07:25.942-00:00",
        "errors":
          [ { "kind": "temporary",
              "id": "proto.011-PtHangz2.prefilter.outdated_endorsement" } ],
        "included_in_blocks":
          [ "BMUVRuaJmWNYrTSh4aTdnHJaPQt9fxCoJnTAkVEGAsaDSVSFUB2" ] },
      { "delegate": "tz1bsdrs36X5BTH83RHUBdUouKLJZK8d2oBa",
        "reception_time": "2022-01-18T05:07:25.857-00:00",
        "errors":
          [ { "kind": "temporary",
              "id": "proto.011-PtHangz2.prefilter.outdated_endorsement" } ],
        "included_in_blocks":
          [ "BMUVRuaJmWNYrTSh4aTdnHJaPQt9fxCoJnTAkVEGAsaDSVSFUB2" ] },
      { "delegate": "tz1beersuEDv8Z7ngQ825xfbaJNS2EhXnyHR",
        "reception_time": "2022-01-18T05:07:25.671-00:00",
        "errors":
          [ { "kind": "temporary",
              "id": "proto.011-PtHangz2.prefilter.outdated_endorsement" } ],
        "included_in_blocks":
          [ "BMUVRuaJmWNYrTSh4aTdnHJaPQt9fxCoJnTAkVEGAsaDSVSFUB2" ] },
      { "delegate": "tz1eEnQhbwf6trb8Q8mPb2RaPkNk2rN7BKi8",
        "reception_time": "2022-01-18T05:07:25.632-00:00",
        "errors":
          [ { "kind": "temporary",
              "id": "proto.011-PtHangz2.prefilter.outdated_endorsement" } ],
        "included_in_blocks":
          [ "BMUVRuaJmWNYrTSh4aTdnHJaPQt9fxCoJnTAkVEGAsaDSVSFUB2" ] },
      { "delegate": "tz1S8MNvuFEUsWgjHvi3AxibRBf388NhT1q2",
        "reception_time": "2022-01-18T05:07:25.483-00:00",
        "errors":
          [ { "kind": "temporary",
              "id": "proto.011-PtHangz2.prefilter.outdated_endorsement" } ],
        "included_in_blocks":
          [ "BMUVRuaJmWNYrTSh4aTdnHJaPQt9fxCoJnTAkVEGAsaDSVSFUB2" ] },
      { "delegate": "tz1irJKkXS2DBWkU1NnmFQx1c1L7pbGg4yhk",
        "reception_time": "2022-01-18T05:07:25.414-00:00",
        "errors":
          [ { "kind": "temporary",
              "id": "proto.011-PtHangz2.prefilter.outdated_endorsement" } ],
        "included_in_blocks":
          [ "BMUVRuaJmWNYrTSh4aTdnHJaPQt9fxCoJnTAkVEGAsaDSVSFUB2" ] },
      { "delegate": "tz1P2Po7YM526ughEsRbY4oR9zaUPDZjxFrb",
        "reception_time": "2022-01-18T05:07:25.374-00:00",
        "errors":
          [ { "kind": "temporary",
              "id": "proto.011-PtHangz2.prefilter.outdated_endorsement" } ],
        "included_in_blocks":
          [ "BMUVRuaJmWNYrTSh4aTdnHJaPQt9fxCoJnTAkVEGAsaDSVSFUB2" ] },
      { "delegate": "tz1Lhf4J9Qxoe3DZ2nfe8FGDnvVj7oKjnMY6",
        "reception_time": "2022-01-18T05:07:25.302-00:00",
        "errors":
          [ { "kind": "temporary",
              "id": "proto.011-PtHangz2.prefilter.outdated_endorsement" } ],
        "included_in_blocks":
          [ "BMUVRuaJmWNYrTSh4aTdnHJaPQt9fxCoJnTAkVEGAsaDSVSFUB2" ] },
      { "delegate": "tz1aXD7Jigrt3PBYSpHSg5Rr33SexMmmM5Ys",
        "reception_time": "2022-01-18T05:07:25.250-00:00",
        "errors":
          [ { "kind": "temporary",
              "id": "proto.011-PtHangz2.prefilter.outdated_endorsement" } ],
        "included_in_blocks":
          [ "BMUVRuaJmWNYrTSh4aTdnHJaPQt9fxCoJnTAkVEGAsaDSVSFUB2" ] },
      { "delegate": "tz1Kt4P8BCaP93AEV4eA7gmpRryWt5hznjCP",
        "reception_time": "2022-01-18T05:07:25.191-00:00",
        "errors":
          [ { "kind": "temporary",
              "id": "proto.011-PtHangz2.prefilter.outdated_endorsement" } ],
        "included_in_blocks":
          [ "BMUVRuaJmWNYrTSh4aTdnHJaPQt9fxCoJnTAkVEGAsaDSVSFUB2" ] },
      { "delegate": "tz1S8e9GgdZG78XJRB3NqabfWeM37GnhZMWQ",
        "reception_time": "2022-01-18T05:07:25.037-00:00",
        "errors":
          [ { "kind": "temporary",
              "id": "proto.011-PtHangz2.prefilter.outdated_endorsement" } ],
        "included_in_blocks":
          [ "BMUVRuaJmWNYrTSh4aTdnHJaPQt9fxCoJnTAkVEGAsaDSVSFUB2" ] },
      { "delegate": "tz1NpWrAyDL9k2Lmnyxcgr9xuJakbBxdq7FB",
        "reception_time": "2022-01-18T05:07:30.342-00:00",
        "included_in_blocks":
          [ "BMUVRuaJmWNYrTSh4aTdnHJaPQt9fxCoJnTAkVEGAsaDSVSFUB2" ] },
      { "delegate": "tz1Xsrfv6hn86fp88YfRs6xcKwt2nTqxVZYM",
        "reception_time": "2022-01-18T05:07:29.288-00:00",
        "included_in_blocks":
          [ "BMUVRuaJmWNYrTSh4aTdnHJaPQt9fxCoJnTAkVEGAsaDSVSFUB2" ] },
      { "delegate": "tz1aRoaRhSpRYvFdyvgWLL6TGyRoGF51wDjM",
        "reception_time": "2022-01-18T05:07:28.696-00:00",
        "included_in_blocks":
          [ "BMUVRuaJmWNYrTSh4aTdnHJaPQt9fxCoJnTAkVEGAsaDSVSFUB2" ] },
      { "delegate": "tz3bvNMQ95vfAYtG8193ymshqjSvmxiCUuR5",
        "reception_time": "2022-01-18T05:07:28.629-00:00",
        "included_in_blocks":
          [ "BMUVRuaJmWNYrTSh4aTdnHJaPQt9fxCoJnTAkVEGAsaDSVSFUB2" ] },
      { "delegate": "tz3NExpXn9aPNZPorRE4SdjJ2RGrfbJgMAaV",
        "reception_time": "2022-01-18T05:07:28.620-00:00",
        "included_in_blocks":
          [ "BMUVRuaJmWNYrTSh4aTdnHJaPQt9fxCoJnTAkVEGAsaDSVSFUB2" ] },
      { "delegate": "tz1cYufsxHXJcvANhvS55h3aY32a9BAFB494",
        "reception_time": "2022-01-18T05:07:28.643-00:00",
        "included_in_blocks":
          [ "BMUVRuaJmWNYrTSh4aTdnHJaPQt9fxCoJnTAkVEGAsaDSVSFUB2" ] },
      { "delegate": "tz3VEZ4k6a4Wx42iyev6i2aVAptTRLEAivNN",
        "reception_time": "2022-01-18T05:07:28.612-00:00",
        "included_in_blocks":
          [ "BMUVRuaJmWNYrTSh4aTdnHJaPQt9fxCoJnTAkVEGAsaDSVSFUB2" ] },
      { "delegate": "tz3UoffC7FG7zfpmvmjUmUeAaHvzdcUvAj6r",
        "reception_time": "2022-01-18T05:07:28.672-00:00",
        "included_in_blocks":
          [ "BMUVRuaJmWNYrTSh4aTdnHJaPQt9fxCoJnTAkVEGAsaDSVSFUB2" ] },
      { "delegate": "tz1MivraUX9U6nmGAQkm7XkrNVmsPExEUT1W",
        "reception_time": "2022-01-18T05:07:28.640-00:00",
        "included_in_blocks":
          [ "BMUVRuaJmWNYrTSh4aTdnHJaPQt9fxCoJnTAkVEGAsaDSVSFUB2" ] },
      { "delegate": "tz1eVaNx3gCmG1EsLjijkmgAxdLYVf6Bf5Sq",
        "reception_time": "2022-01-18T05:07:28.632-00:00",
        "included_in_blocks":
          [ "BMUVRuaJmWNYrTSh4aTdnHJaPQt9fxCoJnTAkVEGAsaDSVSFUB2" ] },
      { "delegate": "tz2FCNBrERXtaTtNX6iimR1UJ5JSDxvdHM93",
        "reception_time": "2022-01-18T05:07:28.549-00:00",
        "included_in_blocks":
          [ "BMUVRuaJmWNYrTSh4aTdnHJaPQt9fxCoJnTAkVEGAsaDSVSFUB2" ] },
      { "delegate": "tz1awXW7wuXy21c66vBudMXQVAPgRnqqwgTH",
        "reception_time": "2022-01-18T05:07:28.648-00:00",
        "included_in_blocks":
          [ "BMUVRuaJmWNYrTSh4aTdnHJaPQt9fxCoJnTAkVEGAsaDSVSFUB2" ] },
      { "delegate": "tz3NDpRj6WBrJPikcPVHRBEjWKxFw3c6eQPS",
        "reception_time": "2022-01-18T05:07:28.578-00:00",
        "included_in_blocks":
          [ "BMUVRuaJmWNYrTSh4aTdnHJaPQt9fxCoJnTAkVEGAsaDSVSFUB2" ] },
      { "delegate": "tz1Z2jXfEXL7dXhs6bsLmyLFLfmAkXBzA9WE",
        "reception_time": "2022-01-18T05:07:28.562-00:00",
        "included_in_blocks":
          [ "BMUVRuaJmWNYrTSh4aTdnHJaPQt9fxCoJnTAkVEGAsaDSVSFUB2" ] },
      { "delegate": "tz3bTdwZinP8U1JmSweNzVKhmwafqWmFWRfk",
        "reception_time": "2022-01-18T05:07:28.586-00:00",
        "included_in_blocks":
          [ "BMUVRuaJmWNYrTSh4aTdnHJaPQt9fxCoJnTAkVEGAsaDSVSFUB2" ] },
      { "delegate": "tz3gLTu4Yxj8tPAcriQVUdxv6BY9QyvzU1az",
        "reception_time": "2022-01-18T05:07:28.570-00:00",
        "included_in_blocks":
          [ "BMUVRuaJmWNYrTSh4aTdnHJaPQt9fxCoJnTAkVEGAsaDSVSFUB2" ] },
      { "delegate": "tz1WctSwL49BZtdWAQ75NY6vr4xsAx6oKdah",
        "reception_time": "2022-01-18T05:07:28.635-00:00",
        "included_in_blocks":
          [ "BMUVRuaJmWNYrTSh4aTdnHJaPQt9fxCoJnTAkVEGAsaDSVSFUB2" ] },
      { "delegate": "tz1UNkf4sWzC5vsKP7FnejSeJsXdc6z8Kzk4",
        "reception_time": "2022-01-18T05:07:28.436-00:00",
        "included_in_blocks":
          [ "BMUVRuaJmWNYrTSh4aTdnHJaPQt9fxCoJnTAkVEGAsaDSVSFUB2" ] } ] }