{ "blocks":
    [ { "hash": "BLqZEcXpMwMHfQgtHYpS9Vc5vHzJkYv32ZThnnL3Rce33H6weD5",
        "delegate": "tz3gtoUxdudfBRcNY7iVdKPHCYYX6xdPpoRS",
        "reception_time": "2022-01-18T04:57:25.701-00:00",
        "timestamp": "2022-01-18T04:57:20Z" } ],
  "endorsements":
    [ { "delegate": "tz1Vyuu4EJ5Nym4JcrfRLnp3hpaq1DSEp1Ke" },
      { "delegate": "tz1R664EP6wjcM1RSUVJ7nrJisTpBW9QyJzP" },
      { "delegate": "tz1P2Po7YM526ughEsRbY4oR9zaUPDZjxFrb",
        "reception_time": "2022-01-18T04:57:25.402-00:00",
        "errors":
          [ { "kind": "temporary",
              "id": "proto.011-PtHangz2.prefilter.outdated_endorsement" } ],
        "included_in_blocks":
          [ "BLYPCtBW4gufnbZgj1T3S6QaBdyVEQYqyu14Dpub1G15NUeFvgF" ] },
      { "delegate": "tz1g8vkmcde6sWKaG2NN9WKzCkDM6Rziq194",
        "reception_time": "2022-01-18T04:57:31.087-00:00",
        "included_in_blocks":
          [ "BLYPCtBW4gufnbZgj1T3S6QaBdyVEQYqyu14Dpub1G15NUeFvgF" ] },
      { "delegate": "tz3NExpXn9aPNZPorRE4SdjJ2RGrfbJgMAaV",
        "reception_time": "2022-01-18T04:57:29.602-00:00",
        "included_in_blocks":
          [ "BLYPCtBW4gufnbZgj1T3S6QaBdyVEQYqyu14Dpub1G15NUeFvgF" ] },
      { "delegate": "tz1ZcTRk5uxD86EFEn1vvNffWWqJy7q5eVhc",
        "reception_time": "2022-01-18T04:57:29.587-00:00",
        "included_in_blocks":
          [ "BLYPCtBW4gufnbZgj1T3S6QaBdyVEQYqyu14Dpub1G15NUeFvgF" ] },
      { "delegate": "tz3UoffC7FG7zfpmvmjUmUeAaHvzdcUvAj6r",
        "reception_time": "2022-01-18T04:57:29.554-00:00",
        "included_in_blocks":
          [ "BLYPCtBW4gufnbZgj1T3S6QaBdyVEQYqyu14Dpub1G15NUeFvgF" ] },
      { "delegate": "tz1hA2m6dTgvtgZPXmP6MEauqiYWpD3KXaRy",
        "reception_time": "2022-01-18T04:57:29.575-00:00",
        "included_in_blocks":
          [ "BLYPCtBW4gufnbZgj1T3S6QaBdyVEQYqyu14Dpub1G15NUeFvgF" ] },
      { "delegate": "tz1dRKU4FQ9QRRQPdaH4zCR6gmCmXfcvcgtB",
        "reception_time": "2022-01-18T04:57:28.933-00:00",
        "included_in_blocks":
          [ "BLYPCtBW4gufnbZgj1T3S6QaBdyVEQYqyu14Dpub1G15NUeFvgF" ] },
      { "delegate": "tz1RjoHc98dBoqaH2jawF62XNKh7YsHwbkEv",
        "reception_time": "2022-01-18T04:57:28.805-00:00",
        "included_in_blocks":
          [ "BLYPCtBW4gufnbZgj1T3S6QaBdyVEQYqyu14Dpub1G15NUeFvgF" ] },
      { "delegate": "tz1cYufsxHXJcvANhvS55h3aY32a9BAFB494",
        "reception_time": "2022-01-18T04:57:28.742-00:00",
        "included_in_blocks":
          [ "BLYPCtBW4gufnbZgj1T3S6QaBdyVEQYqyu14Dpub1G15NUeFvgF" ] },
      { "delegate": "tz1T7duV5gZWSTq4YpBGbXNLTfznCLDrFxvs",
        "reception_time": "2022-01-18T04:57:28.646-00:00",
        "included_in_blocks":
          [ "BLYPCtBW4gufnbZgj1T3S6QaBdyVEQYqyu14Dpub1G15NUeFvgF" ] },
      { "delegate": "tz1aRoaRhSpRYvFdyvgWLL6TGyRoGF51wDjM",
        "reception_time": "2022-01-18T04:57:28.532-00:00",
        "included_in_blocks":
          [ "BLYPCtBW4gufnbZgj1T3S6QaBdyVEQYqyu14Dpub1G15NUeFvgF" ] },
      { "delegate": "tz1UvkANVPWppVgMkLnvN7BwYZsCP7vm6NVd",
        "reception_time": "2022-01-18T04:57:28.486-00:00",
        "included_in_blocks":
          [ "BLYPCtBW4gufnbZgj1T3S6QaBdyVEQYqyu14Dpub1G15NUeFvgF" ] },
      { "delegate": "tz1awXW7wuXy21c66vBudMXQVAPgRnqqwgTH",
        "reception_time": "2022-01-18T04:57:28.419-00:00",
        "included_in_blocks":
          [ "BLYPCtBW4gufnbZgj1T3S6QaBdyVEQYqyu14Dpub1G15NUeFvgF" ] },
      { "delegate": "tz1NEKxGEHsFufk87CVZcrqWu8o22qh46GK6",
        "reception_time": "2022-01-18T04:57:28.324-00:00",
        "included_in_blocks":
          [ "BLYPCtBW4gufnbZgj1T3S6QaBdyVEQYqyu14Dpub1G15NUeFvgF" ] },
      { "delegate": "tz3WMqdzXqRWXwyvj5Hp2H7QEepaUuS7vd9K",
        "reception_time": "2022-01-18T04:57:28.318-00:00",
        "included_in_blocks":
          [ "BLYPCtBW4gufnbZgj1T3S6QaBdyVEQYqyu14Dpub1G15NUeFvgF" ] },
      { "delegate": "tz1NMNQYrYrfNpmUqQrMhJypf6ovnaDZhJHM",
        "reception_time": "2022-01-18T04:57:28.306-00:00",
        "included_in_blocks":
          [ "BLYPCtBW4gufnbZgj1T3S6QaBdyVEQYqyu14Dpub1G15NUeFvgF" ] },
      { "delegate": "tz3RDC3Jdn4j15J7bBHZd29EUee9gVB1CxD9",
        "reception_time": "2022-01-18T04:57:28.302-00:00",
        "included_in_blocks":
          [ "BLYPCtBW4gufnbZgj1T3S6QaBdyVEQYqyu14Dpub1G15NUeFvgF" ] },
      { "delegate": "tz1RCFbB9GpALpsZtu6J58sb74dm8qe6XBzv",
        "reception_time": "2022-01-18T04:57:28.120-00:00",
        "included_in_blocks":
          [ "BLYPCtBW4gufnbZgj1T3S6QaBdyVEQYqyu14Dpub1G15NUeFvgF" ] },
      { "delegate": "tz1KfEsrtDaA1sX7vdM4qmEPWuSytuqCDp5j",
        "reception_time": "2022-01-18T04:57:28.160-00:00",
        "included_in_blocks":
          [ "BLYPCtBW4gufnbZgj1T3S6QaBdyVEQYqyu14Dpub1G15NUeFvgF" ] },
      { "delegate": "tz1fwnfJNgiDACshK9avfRfFbMaXrs3ghoJa",
        "reception_time": "2022-01-18T04:57:28.156-00:00",
        "included_in_blocks":
          [ "BLYPCtBW4gufnbZgj1T3S6QaBdyVEQYqyu14Dpub1G15NUeFvgF" ] },
      { "delegate": "tz3NDpRj6WBrJPikcPVHRBEjWKxFw3c6eQPS",
        "reception_time": "2022-01-18T04:57:28.059-00:00",
        "included_in_blocks":
          [ "BLYPCtBW4gufnbZgj1T3S6QaBdyVEQYqyu14Dpub1G15NUeFvgF" ] },
      { "delegate": "tz1ei4WtWEMEJekSv8qDnu9PExG6Q8HgRGr3",
        "reception_time": "2022-01-18T04:57:27.999-00:00",
        "included_in_blocks":
          [ "BLYPCtBW4gufnbZgj1T3S6QaBdyVEQYqyu14Dpub1G15NUeFvgF" ] },
      { "delegate": "tz1TEc75UKXv4W5cwi14Na3NtqFD51yKQi7h",
        "reception_time": "2022-01-18T04:57:28.050-00:00",
        "included_in_blocks":
          [ "BLYPCtBW4gufnbZgj1T3S6QaBdyVEQYqyu14Dpub1G15NUeFvgF" ] },
      { "delegate": "tz1Y7tsDmwrJocSt81Nt8apH1h6LnehMLRiH",
        "reception_time": "2022-01-18T04:57:27.731-00:00",
        "included_in_blocks":
          [ "BLYPCtBW4gufnbZgj1T3S6QaBdyVEQYqyu14Dpub1G15NUeFvgF" ] },
      { "delegate": "tz1S6H83gugqK4dR5Had9jWR9M1ZdAAVgU5e",
        "reception_time": "2022-01-18T04:57:28.040-00:00",
        "included_in_blocks":
          [ "BLYPCtBW4gufnbZgj1T3S6QaBdyVEQYqyu14Dpub1G15NUeFvgF" ] },
      { "delegate": "tz1dNVDWPf3Q59SdJqnjdnu277iyvReiRS9M",
        "reception_time": "2022-01-18T04:57:28.028-00:00",
        "included_in_blocks":
          [ "BLYPCtBW4gufnbZgj1T3S6QaBdyVEQYqyu14Dpub1G15NUeFvgF" ] },
      { "delegate": "tz1abmz7jiCV2GH2u81LRrGgAFFgvQgiDiaf",
        "reception_time": "2022-01-18T04:57:27.991-00:00",
        "included_in_blocks":
          [ "BLYPCtBW4gufnbZgj1T3S6QaBdyVEQYqyu14Dpub1G15NUeFvgF" ] },
      { "delegate": "tz1TRqbYbUf2GyrjErf3hBzgBJPzW8y36qEs",
        "reception_time": "2022-01-18T04:57:28.019-00:00",
        "included_in_blocks":
          [ "BLYPCtBW4gufnbZgj1T3S6QaBdyVEQYqyu14Dpub1G15NUeFvgF" ] },
      { "delegate": "tz2FCNBrERXtaTtNX6iimR1UJ5JSDxvdHM93",
        "reception_time": "2022-01-18T04:57:27.986-00:00",
        "included_in_blocks":
          [ "BLYPCtBW4gufnbZgj1T3S6QaBdyVEQYqyu14Dpub1G15NUeFvgF" ] },
      { "delegate": "tz3bTdwZinP8U1JmSweNzVKhmwafqWmFWRfk",
        "reception_time": "2022-01-18T04:57:27.980-00:00",
        "included_in_blocks":
          [ "BLYPCtBW4gufnbZgj1T3S6QaBdyVEQYqyu14Dpub1G15NUeFvgF" ] },
      { "delegate": "tz1WBfwbT66FC6BTLexc2BoyCCBM9LG7pnVW",
        "reception_time": "2022-01-18T04:57:28.022-00:00",
        "included_in_blocks":
          [ "BLYPCtBW4gufnbZgj1T3S6QaBdyVEQYqyu14Dpub1G15NUeFvgF" ] },
      { "delegate": "tz3RB4aoyjov4KEVRbuhvQ1CKJgBJMWhaeB8",
        "reception_time": "2022-01-18T04:57:27.782-00:00",
        "included_in_blocks":
          [ "BLYPCtBW4gufnbZgj1T3S6QaBdyVEQYqyu14Dpub1G15NUeFvgF" ] },
      { "delegate": "tz1Nf6tsK4G6bBqgSQERy4nUtkHNKUVdh7q1",
        "reception_time": "2022-01-18T04:57:27.970-00:00",
        "included_in_blocks":
          [ "BLYPCtBW4gufnbZgj1T3S6QaBdyVEQYqyu14Dpub1G15NUeFvgF" ] },
      { "delegate": "tz1SohptP53wDPZhzTWzDUFAUcWF6DMBpaJV",
        "reception_time": "2022-01-18T04:57:27.638-00:00",
        "included_in_blocks":
          [ "BLYPCtBW4gufnbZgj1T3S6QaBdyVEQYqyu14Dpub1G15NUeFvgF" ] },
      { "delegate": "tz1S8MNvuFEUsWgjHvi3AxibRBf388NhT1q2",
        "reception_time": "2022-01-18T04:57:27.855-00:00",
        "included_in_blocks":
          [ "BLYPCtBW4gufnbZgj1T3S6QaBdyVEQYqyu14Dpub1G15NUeFvgF" ] },
      { "delegate": "tz1V4qCyvPKZ5UeqdH14HN42rxvNPQfc9UZg",
        "reception_time": "2022-01-18T04:57:27.531-00:00",
        "included_in_blocks":
          [ "BLYPCtBW4gufnbZgj1T3S6QaBdyVEQYqyu14Dpub1G15NUeFvgF" ] },
      { "delegate": "tz1YiuvpfeVAHbnU8akcWErNfQGFHNQ7F45z",
        "reception_time": "2022-01-18T04:57:27.552-00:00",
        "included_in_blocks":
          [ "BLYPCtBW4gufnbZgj1T3S6QaBdyVEQYqyu14Dpub1G15NUeFvgF" ] },
      { "delegate": "tz3bvNMQ95vfAYtG8193ymshqjSvmxiCUuR5",
        "reception_time": "2022-01-18T04:57:27.471-00:00",
        "included_in_blocks":
          [ "BLYPCtBW4gufnbZgj1T3S6QaBdyVEQYqyu14Dpub1G15NUeFvgF" ] },
      { "delegate": "tz1MDSg9ycDZmRxDqymSmHsWUgozhTvYskPi",
        "reception_time": "2022-01-18T04:57:27.923-00:00",
        "included_in_blocks":
          [ "BLYPCtBW4gufnbZgj1T3S6QaBdyVEQYqyu14Dpub1G15NUeFvgF" ] },
      { "delegate": "tz1MQMiZHV8q4tTwUMWmS5Y3kaP6J2136iXr",
        "reception_time": "2022-01-18T04:57:27.616-00:00",
        "included_in_blocks":
          [ "BLYPCtBW4gufnbZgj1T3S6QaBdyVEQYqyu14Dpub1G15NUeFvgF" ] },
      { "delegate": "tz1bHzftcTKZMTZgLLtnrXydCm6UEqf4ivca",
        "reception_time": "2022-01-18T04:57:27.752-00:00",
        "included_in_blocks":
          [ "BLYPCtBW4gufnbZgj1T3S6QaBdyVEQYqyu14Dpub1G15NUeFvgF" ] },
      { "delegate": "tz1SUgyRB8T5jXgXAwS33pgRHAKrafyg87Yc",
        "reception_time": "2022-01-18T04:57:27.941-00:00",
        "included_in_blocks":
          [ "BLYPCtBW4gufnbZgj1T3S6QaBdyVEQYqyu14Dpub1G15NUeFvgF" ] },
      { "delegate": "tz1fb7c66UwePkkfDXz4ajFaBP9hVNLdS7JJ",
        "reception_time": "2022-01-18T04:57:27.494-00:00",
        "included_in_blocks":
          [ "BLYPCtBW4gufnbZgj1T3S6QaBdyVEQYqyu14Dpub1G15NUeFvgF" ] },
      { "delegate": "tz1gfArv665EUkSg2ojMBzcbfwuPxAvqPvjo",
        "reception_time": "2022-01-18T04:57:27.346-00:00",
        "included_in_blocks":
          [ "BLYPCtBW4gufnbZgj1T3S6QaBdyVEQYqyu14Dpub1G15NUeFvgF" ] },
      { "delegate": "tz1VmiY38m3y95HqQLjMwqnMS7sdMfGomzKi",
        "reception_time": "2022-01-18T04:57:27.594-00:00",
        "included_in_blocks":
          [ "BLYPCtBW4gufnbZgj1T3S6QaBdyVEQYqyu14Dpub1G15NUeFvgF" ] },
      { "delegate": "tz1Kt4P8BCaP93AEV4eA7gmpRryWt5hznjCP",
        "reception_time": "2022-01-18T04:57:27.225-00:00",
        "included_in_blocks":
          [ "BLYPCtBW4gufnbZgj1T3S6QaBdyVEQYqyu14Dpub1G15NUeFvgF" ] },
      { "delegate": "tz1a51WYsAsoh4fs4A4x5aCN6Za26mpfDfTi",
        "reception_time": "2022-01-18T04:57:27.507-00:00",
        "included_in_blocks":
          [ "BLYPCtBW4gufnbZgj1T3S6QaBdyVEQYqyu14Dpub1G15NUeFvgF" ] },
      { "delegate": "tz1iPHM2Xx2hwmzcr1EG1zzrV6oKafVoA91m",
        "reception_time": "2022-01-18T04:57:27.263-00:00",
        "included_in_blocks":
          [ "BLYPCtBW4gufnbZgj1T3S6QaBdyVEQYqyu14Dpub1G15NUeFvgF" ] },
      { "delegate": "tz1WCd2jm4uSt4vntk4vSuUWoZQGhLcDuR9q",
        "reception_time": "2022-01-18T04:57:27.628-00:00",
        "included_in_blocks":
          [ "BLYPCtBW4gufnbZgj1T3S6QaBdyVEQYqyu14Dpub1G15NUeFvgF" ] },
      { "delegate": "tz1TzaNn7wSQSP5gYPXCnNzBCpyMiidCq1PX",
        "reception_time": "2022-01-18T04:57:27.174-00:00",
        "included_in_blocks":
          [ "BLYPCtBW4gufnbZgj1T3S6QaBdyVEQYqyu14Dpub1G15NUeFvgF" ] },
      { "delegate": "tz3Zhs2dygr55yHyQyKjntAtY9bgfhLZ4Xj1",
        "reception_time": "2022-01-18T04:57:27.220-00:00",
        "included_in_blocks":
          [ "BLYPCtBW4gufnbZgj1T3S6QaBdyVEQYqyu14Dpub1G15NUeFvgF" ] },
      { "delegate": "tz3iJu5vrKZcsqRPs8yJ61UDoeEXZmtro4qh",
        "reception_time": "2022-01-18T04:57:27.149-00:00",
        "included_in_blocks":
          [ "BLYPCtBW4gufnbZgj1T3S6QaBdyVEQYqyu14Dpub1G15NUeFvgF" ] },
      { "delegate": "tz3hw2kqXhLUvY65ca1eety2oQTpAvd34R9Q",
        "reception_time": "2022-01-18T04:57:27.073-00:00",
        "included_in_blocks":
          [ "BLYPCtBW4gufnbZgj1T3S6QaBdyVEQYqyu14Dpub1G15NUeFvgF" ] },
      { "delegate": "tz1Ldzz6k1BHdhuKvAtMRX7h5kJSMHESMHLC",
        "reception_time": "2022-01-18T04:57:27.013-00:00",
        "included_in_blocks":
          [ "BLYPCtBW4gufnbZgj1T3S6QaBdyVEQYqyu14Dpub1G15NUeFvgF" ] },
      { "delegate": "tz1ZPh7XfUaJXUDvkrBxmS1BjEM1i62hiPpM",
        "reception_time": "2022-01-18T04:57:27.061-00:00",
        "included_in_blocks":
          [ "BLYPCtBW4gufnbZgj1T3S6QaBdyVEQYqyu14Dpub1G15NUeFvgF" ] },
      { "delegate": "tz1gUNyn3hmnEWqkusWPzxRaon1cs7ndWh7h",
        "reception_time": "2022-01-18T04:57:27.055-00:00",
        "included_in_blocks":
          [ "BLYPCtBW4gufnbZgj1T3S6QaBdyVEQYqyu14Dpub1G15NUeFvgF" ] },
      { "delegate": "tz3RKYFsLuQzKBtmYuLNas7uMu3AsYd4QdsA",
        "reception_time": "2022-01-18T04:57:27.001-00:00",
        "included_in_blocks":
          [ "BLYPCtBW4gufnbZgj1T3S6QaBdyVEQYqyu14Dpub1G15NUeFvgF" ] },
      { "delegate": "tz1VQnqCCqX4K5sP3FNkVSNKTdCAMJDd3E1n",
        "reception_time": "2022-01-18T04:57:27.017-00:00",
        "included_in_blocks":
          [ "BLYPCtBW4gufnbZgj1T3S6QaBdyVEQYqyu14Dpub1G15NUeFvgF" ] },
      { "delegate": "tz1MJx9vhaNRSimcuXPK2rW4fLccQnDAnVKJ",
        "reception_time": "2022-01-18T04:57:26.881-00:00",
        "included_in_blocks":
          [ "BLYPCtBW4gufnbZgj1T3S6QaBdyVEQYqyu14Dpub1G15NUeFvgF" ] },
      { "delegate": "tz1TRspM5SeZpaQUhzByXbEvqKF1vnCM2YTK",
        "reception_time": "2022-01-18T04:57:26.815-00:00",
        "included_in_blocks":
          [ "BLYPCtBW4gufnbZgj1T3S6QaBdyVEQYqyu14Dpub1G15NUeFvgF" ] },
      { "delegate": "tz3S6BBeKgJGXxvLyZ1xzXzMPn11nnFtq5L9",
        "reception_time": "2022-01-18T04:57:27.346-00:00",
        "included_in_blocks":
          [ "BLYPCtBW4gufnbZgj1T3S6QaBdyVEQYqyu14Dpub1G15NUeFvgF" ] },
      { "delegate": "tz3QT9dHYKDqh563chVa6za8526ys1UKfRfL",
        "reception_time": "2022-01-18T04:57:27.098-00:00",
        "included_in_blocks":
          [ "BLYPCtBW4gufnbZgj1T3S6QaBdyVEQYqyu14Dpub1G15NUeFvgF" ] },
      { "delegate": "tz3ZbP2pM3nwvXztbuMJwJnDvV5xdpU8UkkD",
        "reception_time": "2022-01-18T04:57:26.831-00:00",
        "included_in_blocks":
          [ "BLYPCtBW4gufnbZgj1T3S6QaBdyVEQYqyu14Dpub1G15NUeFvgF" ] },
      { "delegate": "tz3QCNyySViKHmeSr45kzDxzchys7NiXCWoa",
        "reception_time": "2022-01-18T04:57:26.876-00:00",
        "included_in_blocks":
          [ "BLYPCtBW4gufnbZgj1T3S6QaBdyVEQYqyu14Dpub1G15NUeFvgF" ] },
      { "delegate": "tz1irJKkXS2DBWkU1NnmFQx1c1L7pbGg4yhk",
        "reception_time": "2022-01-18T04:57:26.815-00:00",
        "included_in_blocks":
          [ "BLYPCtBW4gufnbZgj1T3S6QaBdyVEQYqyu14Dpub1G15NUeFvgF" ] },
      { "delegate": "tz3NxTnke1acr8o3h5y9ytf5awQBGNJUKzVU",
        "reception_time": "2022-01-18T04:57:26.860-00:00",
        "included_in_blocks":
          [ "BLYPCtBW4gufnbZgj1T3S6QaBdyVEQYqyu14Dpub1G15NUeFvgF" ] },
      { "delegate": "tz1RV1MBbZMR68tacosb7Mwj6LkbPSUS1er1",
        "reception_time": "2022-01-18T04:57:26.730-00:00",
        "included_in_blocks":
          [ "BLYPCtBW4gufnbZgj1T3S6QaBdyVEQYqyu14Dpub1G15NUeFvgF" ] },
      { "delegate": "tz3gtoUxdudfBRcNY7iVdKPHCYYX6xdPpoRS",
        "reception_time": "2022-01-18T04:57:26.623-00:00",
        "included_in_blocks":
          [ "BLYPCtBW4gufnbZgj1T3S6QaBdyVEQYqyu14Dpub1G15NUeFvgF" ] },
      { "delegate": "tz1Lhf4J9Qxoe3DZ2nfe8FGDnvVj7oKjnMY6",
        "reception_time": "2022-01-18T04:57:26.646-00:00",
        "included_in_blocks":
          [ "BLYPCtBW4gufnbZgj1T3S6QaBdyVEQYqyu14Dpub1G15NUeFvgF" ] },
      { "delegate": "tz1LLNkQK4UQV6QcFShiXJ2vT2ELw449MzAA",
        "reception_time": "2022-01-18T04:57:26.667-00:00",
        "included_in_blocks":
          [ "BLYPCtBW4gufnbZgj1T3S6QaBdyVEQYqyu14Dpub1G15NUeFvgF" ] },
      { "delegate": "tz3QSGPoRp3Kn7n3vY24eYeu3Peuqo45LQ4D",
        "reception_time": "2022-01-18T04:57:26.667-00:00",
        "included_in_blocks":
          [ "BLYPCtBW4gufnbZgj1T3S6QaBdyVEQYqyu14Dpub1G15NUeFvgF" ] },
      { "delegate": "tz1beersuEDv8Z7ngQ825xfbaJNS2EhXnyHR",
        "reception_time": "2022-01-18T04:57:26.657-00:00",
        "included_in_blocks":
          [ "BLYPCtBW4gufnbZgj1T3S6QaBdyVEQYqyu14Dpub1G15NUeFvgF" ] },
      { "delegate": "tz1eEnQhbwf6trb8Q8mPb2RaPkNk2rN7BKi8",
        "reception_time": "2022-01-18T04:57:26.646-00:00",
        "included_in_blocks":
          [ "BLYPCtBW4gufnbZgj1T3S6QaBdyVEQYqyu14Dpub1G15NUeFvgF" ] },
      { "delegate": "tz1TXzyaKUA8wsWefdSnyaYFnV2M3vCV7er9",
        "reception_time": "2022-01-18T04:57:26.613-00:00",
        "included_in_blocks":
          [ "BLYPCtBW4gufnbZgj1T3S6QaBdyVEQYqyu14Dpub1G15NUeFvgF" ] },
      { "delegate": "tz1Scdr2HsZiQjc7bHMeBbmDRXYVvdhjJbBh",
        "reception_time": "2022-01-18T04:57:26.757-00:00",
        "included_in_blocks":
          [ "BLYPCtBW4gufnbZgj1T3S6QaBdyVEQYqyu14Dpub1G15NUeFvgF" ] } ] }