{ "blocks":
    [ { "hash": "BM9qkcdSqT5VKpMBPrCoAEse5fND5WFfoy9qQzYcVZzTY27PVTX",
        "delegate": "tz1aRoaRhSpRYvFdyvgWLL6TGyRoGF51wDjM",
        "reception_time": "2022-01-18T05:21:30.992-00:00",
        "timestamp": "2022-01-18T05:21:20Z" } ],
  "endorsements":
    [ { "delegate": "tz1ibcPVGK4Y8pcW4BYUsojiHoBKnZbyDGrX" },
      { "delegate": "tz1Vyuu4EJ5Nym4JcrfRLnp3hpaq1DSEp1Ke" },
      { "delegate": "tz1S8e9GgdZG78XJRB3NqabfWeM37GnhZMWQ",
        "reception_time": "2022-01-18T05:21:30.555-00:00",
        "errors":
          [ { "kind": "temporary",
              "id": "proto.011-PtHangz2.prefilter.outdated_endorsement" } ],
        "included_in_blocks":
          [ "BLH2it2eDQsxkhbCHtmrZCL3DFqFuJV98azL8jWdgWb5a7QyyEU" ] },
      { "delegate": "tz1NpWrAyDL9k2Lmnyxcgr9xuJakbBxdq7FB",
        "reception_time": "2022-01-18T05:21:38.163-00:00",
        "included_in_blocks":
          [ "BLH2it2eDQsxkhbCHtmrZCL3DFqFuJV98azL8jWdgWb5a7QyyEU" ] },
      { "delegate": "tz3NExpXn9aPNZPorRE4SdjJ2RGrfbJgMAaV",
        "reception_time": "2022-01-18T05:21:34.861-00:00",
        "included_in_blocks":
          [ "BLH2it2eDQsxkhbCHtmrZCL3DFqFuJV98azL8jWdgWb5a7QyyEU" ] },
      { "delegate": "tz1QccGQsmt7WMnbVX9inJQgEuQGeMXddfjp",
        "reception_time": "2022-01-18T05:21:34.912-00:00",
        "included_in_blocks":
          [ "BLH2it2eDQsxkhbCHtmrZCL3DFqFuJV98azL8jWdgWb5a7QyyEU" ] },
      { "delegate": "tz1ZcTRk5uxD86EFEn1vvNffWWqJy7q5eVhc",
        "reception_time": "2022-01-18T05:21:34.886-00:00",
        "included_in_blocks":
          [ "BLH2it2eDQsxkhbCHtmrZCL3DFqFuJV98azL8jWdgWb5a7QyyEU" ] },
      { "delegate": "tz1dRKU4FQ9QRRQPdaH4zCR6gmCmXfcvcgtB",
        "reception_time": "2022-01-18T05:21:34.612-00:00",
        "included_in_blocks":
          [ "BLH2it2eDQsxkhbCHtmrZCL3DFqFuJV98azL8jWdgWb5a7QyyEU" ] },
      { "delegate": "tz1PFeoTuFen8jAMRHajBySNyCwLmY5RqF9M",
        "reception_time": "2022-01-18T05:21:34.452-00:00",
        "included_in_blocks":
          [ "BLH2it2eDQsxkhbCHtmrZCL3DFqFuJV98azL8jWdgWb5a7QyyEU" ] },
      { "delegate": "tz1g8vkmcde6sWKaG2NN9WKzCkDM6Rziq194",
        "reception_time": "2022-01-18T05:21:33.860-00:00",
        "included_in_blocks":
          [ "BLH2it2eDQsxkhbCHtmrZCL3DFqFuJV98azL8jWdgWb5a7QyyEU" ] },
      { "delegate": "tz1cYufsxHXJcvANhvS55h3aY32a9BAFB494",
        "reception_time": "2022-01-18T05:21:33.919-00:00",
        "included_in_blocks":
          [ "BLH2it2eDQsxkhbCHtmrZCL3DFqFuJV98azL8jWdgWb5a7QyyEU" ] },
      { "delegate": "tz1T7duV5gZWSTq4YpBGbXNLTfznCLDrFxvs",
        "reception_time": "2022-01-18T05:21:34.339-00:00",
        "included_in_blocks":
          [ "BLH2it2eDQsxkhbCHtmrZCL3DFqFuJV98azL8jWdgWb5a7QyyEU" ] },
      { "delegate": "tz3RDC3Jdn4j15J7bBHZd29EUee9gVB1CxD9",
        "reception_time": "2022-01-18T05:21:33.914-00:00",
        "included_in_blocks":
          [ "BLH2it2eDQsxkhbCHtmrZCL3DFqFuJV98azL8jWdgWb5a7QyyEU" ] },
      { "delegate": "tz3UoffC7FG7zfpmvmjUmUeAaHvzdcUvAj6r",
        "reception_time": "2022-01-18T05:21:34.286-00:00",
        "included_in_blocks":
          [ "BLH2it2eDQsxkhbCHtmrZCL3DFqFuJV98azL8jWdgWb5a7QyyEU" ] },
      { "delegate": "tz3bvNMQ95vfAYtG8193ymshqjSvmxiCUuR5",
        "reception_time": "2022-01-18T05:21:33.705-00:00",
        "included_in_blocks":
          [ "BLH2it2eDQsxkhbCHtmrZCL3DFqFuJV98azL8jWdgWb5a7QyyEU" ] },
      { "delegate": "tz1Nf6tsK4G6bBqgSQERy4nUtkHNKUVdh7q1",
        "reception_time": "2022-01-18T05:21:33.596-00:00",
        "included_in_blocks":
          [ "BLH2it2eDQsxkhbCHtmrZCL3DFqFuJV98azL8jWdgWb5a7QyyEU" ] },
      { "delegate": "tz1aRoaRhSpRYvFdyvgWLL6TGyRoGF51wDjM",
        "reception_time": "2022-01-18T05:21:33.466-00:00",
        "included_in_blocks":
          [ "BLH2it2eDQsxkhbCHtmrZCL3DFqFuJV98azL8jWdgWb5a7QyyEU" ] },
      { "delegate": "tz3RB4aoyjov4KEVRbuhvQ1CKJgBJMWhaeB8",
        "reception_time": "2022-01-18T05:21:33.514-00:00",
        "included_in_blocks":
          [ "BLH2it2eDQsxkhbCHtmrZCL3DFqFuJV98azL8jWdgWb5a7QyyEU" ] },
      { "delegate": "tz1S8MNvuFEUsWgjHvi3AxibRBf388NhT1q2",
        "reception_time": "2022-01-18T05:21:34.033-00:00",
        "included_in_blocks":
          [ "BLH2it2eDQsxkhbCHtmrZCL3DFqFuJV98azL8jWdgWb5a7QyyEU" ] },
      { "delegate": "tz3VEZ4k6a4Wx42iyev6i2aVAptTRLEAivNN",
        "reception_time": "2022-01-18T05:21:33.596-00:00",
        "included_in_blocks":
          [ "BLH2it2eDQsxkhbCHtmrZCL3DFqFuJV98azL8jWdgWb5a7QyyEU" ] },
      { "delegate": "tz1RjoHc98dBoqaH2jawF62XNKh7YsHwbkEv",
        "reception_time": "2022-01-18T05:21:34.010-00:00",
        "included_in_blocks":
          [ "BLH2it2eDQsxkhbCHtmrZCL3DFqFuJV98azL8jWdgWb5a7QyyEU" ] },
      { "delegate": "tz1WctSwL49BZtdWAQ75NY6vr4xsAx6oKdah",
        "reception_time": "2022-01-18T05:21:33.501-00:00",
        "included_in_blocks":
          [ "BLH2it2eDQsxkhbCHtmrZCL3DFqFuJV98azL8jWdgWb5a7QyyEU" ] },
      { "delegate": "tz1NEKxGEHsFufk87CVZcrqWu8o22qh46GK6",
        "reception_time": "2022-01-18T05:21:33.533-00:00",
        "included_in_blocks":
          [ "BLH2it2eDQsxkhbCHtmrZCL3DFqFuJV98azL8jWdgWb5a7QyyEU" ] },
      { "delegate": "tz2FCNBrERXtaTtNX6iimR1UJ5JSDxvdHM93",
        "reception_time": "2022-01-18T05:21:33.413-00:00",
        "included_in_blocks":
          [ "BLH2it2eDQsxkhbCHtmrZCL3DFqFuJV98azL8jWdgWb5a7QyyEU" ] },
      { "delegate": "tz3WMqdzXqRWXwyvj5Hp2H7QEepaUuS7vd9K",
        "reception_time": "2022-01-18T05:21:33.891-00:00",
        "included_in_blocks":
          [ "BLH2it2eDQsxkhbCHtmrZCL3DFqFuJV98azL8jWdgWb5a7QyyEU" ] },
      { "delegate": "tz3NDpRj6WBrJPikcPVHRBEjWKxFw3c6eQPS",
        "reception_time": "2022-01-18T05:21:33.043-00:00",
        "included_in_blocks":
          [ "BLH2it2eDQsxkhbCHtmrZCL3DFqFuJV98azL8jWdgWb5a7QyyEU" ] },
      { "delegate": "tz1SohptP53wDPZhzTWzDUFAUcWF6DMBpaJV",
        "reception_time": "2022-01-18T05:21:33.259-00:00",
        "included_in_blocks":
          [ "BLH2it2eDQsxkhbCHtmrZCL3DFqFuJV98azL8jWdgWb5a7QyyEU" ] },
      { "delegate": "tz1TRqbYbUf2GyrjErf3hBzgBJPzW8y36qEs",
        "reception_time": "2022-01-18T05:21:33.114-00:00",
        "included_in_blocks":
          [ "BLH2it2eDQsxkhbCHtmrZCL3DFqFuJV98azL8jWdgWb5a7QyyEU" ] },
      { "delegate": "tz1KfEsrtDaA1sX7vdM4qmEPWuSytuqCDp5j",
        "reception_time": "2022-01-18T05:21:33.350-00:00",
        "included_in_blocks":
          [ "BLH2it2eDQsxkhbCHtmrZCL3DFqFuJV98azL8jWdgWb5a7QyyEU" ] },
      { "delegate": "tz1ci1ARnm8JoYV16Hbe4FoxX17yFEAQVytg",
        "reception_time": "2022-01-18T05:21:32.987-00:00",
        "included_in_blocks":
          [ "BLH2it2eDQsxkhbCHtmrZCL3DFqFuJV98azL8jWdgWb5a7QyyEU" ] },
      { "delegate": "tz1gUNyn3hmnEWqkusWPzxRaon1cs7ndWh7h",
        "reception_time": "2022-01-18T05:21:32.400-00:00",
        "included_in_blocks":
          [ "BLH2it2eDQsxkhbCHtmrZCL3DFqFuJV98azL8jWdgWb5a7QyyEU" ] },
      { "delegate": "tz3bTdwZinP8U1JmSweNzVKhmwafqWmFWRfk",
        "reception_time": "2022-01-18T05:21:32.285-00:00",
        "included_in_blocks":
          [ "BLH2it2eDQsxkhbCHtmrZCL3DFqFuJV98azL8jWdgWb5a7QyyEU" ] },
      { "delegate": "tz1VQnqCCqX4K5sP3FNkVSNKTdCAMJDd3E1n",
        "reception_time": "2022-01-18T05:21:32.266-00:00",
        "included_in_blocks":
          [ "BLH2it2eDQsxkhbCHtmrZCL3DFqFuJV98azL8jWdgWb5a7QyyEU" ] },
      { "delegate": "tz1RCFbB9GpALpsZtu6J58sb74dm8qe6XBzv",
        "reception_time": "2022-01-18T05:21:33.055-00:00",
        "included_in_blocks":
          [ "BLH2it2eDQsxkhbCHtmrZCL3DFqFuJV98azL8jWdgWb5a7QyyEU" ] },
      { "delegate": "tz1ei4WtWEMEJekSv8qDnu9PExG6Q8HgRGr3",
        "reception_time": "2022-01-18T05:21:32.982-00:00",
        "included_in_blocks":
          [ "BLH2it2eDQsxkhbCHtmrZCL3DFqFuJV98azL8jWdgWb5a7QyyEU" ] },
      { "delegate": "tz1WCd2jm4uSt4vntk4vSuUWoZQGhLcDuR9q",
        "reception_time": "2022-01-18T05:21:32.240-00:00",
        "included_in_blocks":
          [ "BLH2it2eDQsxkhbCHtmrZCL3DFqFuJV98azL8jWdgWb5a7QyyEU" ] },
      { "delegate": "tz1cSj7fTex3JPd1p1LN1fwek6AV1kH93Wwc",
        "reception_time": "2022-01-18T05:21:32.122-00:00",
        "included_in_blocks":
          [ "BLH2it2eDQsxkhbCHtmrZCL3DFqFuJV98azL8jWdgWb5a7QyyEU" ] },
      { "delegate": "tz3Zhs2dygr55yHyQyKjntAtY9bgfhLZ4Xj1",
        "reception_time": "2022-01-18T05:21:31.990-00:00",
        "included_in_blocks":
          [ "BLH2it2eDQsxkhbCHtmrZCL3DFqFuJV98azL8jWdgWb5a7QyyEU" ] },
      { "delegate": "tz1bsdrs36X5BTH83RHUBdUouKLJZK8d2oBa",
        "reception_time": "2022-01-18T05:21:32.460-00:00",
        "included_in_blocks":
          [ "BLH2it2eDQsxkhbCHtmrZCL3DFqFuJV98azL8jWdgWb5a7QyyEU" ] },
      { "delegate": "tz3iJu5vrKZcsqRPs8yJ61UDoeEXZmtro4qh",
        "reception_time": "2022-01-18T05:21:31.997-00:00",
        "included_in_blocks":
          [ "BLH2it2eDQsxkhbCHtmrZCL3DFqFuJV98azL8jWdgWb5a7QyyEU" ] },
      { "delegate": "tz1PWCDnz783NNGGQjEFFsHtrcK5yBW4E2rm",
        "reception_time": "2022-01-18T05:21:32.496-00:00",
        "included_in_blocks":
          [ "BLH2it2eDQsxkhbCHtmrZCL3DFqFuJV98azL8jWdgWb5a7QyyEU" ] },
      { "delegate": "tz3QSGPoRp3Kn7n3vY24eYeu3Peuqo45LQ4D",
        "reception_time": "2022-01-18T05:21:32.083-00:00",
        "included_in_blocks":
          [ "BLH2it2eDQsxkhbCHtmrZCL3DFqFuJV98azL8jWdgWb5a7QyyEU" ] },
      { "delegate": "tz1V4qCyvPKZ5UeqdH14HN42rxvNPQfc9UZg",
        "reception_time": "2022-01-18T05:21:32.587-00:00",
        "included_in_blocks":
          [ "BLH2it2eDQsxkhbCHtmrZCL3DFqFuJV98azL8jWdgWb5a7QyyEU" ] },
      { "delegate": "tz1Ldzz6k1BHdhuKvAtMRX7h5kJSMHESMHLC",
        "reception_time": "2022-01-18T05:21:32.122-00:00",
        "included_in_blocks":
          [ "BLH2it2eDQsxkhbCHtmrZCL3DFqFuJV98azL8jWdgWb5a7QyyEU" ] },
      { "delegate": "tz3S6BBeKgJGXxvLyZ1xzXzMPn11nnFtq5L9",
        "reception_time": "2022-01-18T05:21:32.146-00:00",
        "included_in_blocks":
          [ "BLH2it2eDQsxkhbCHtmrZCL3DFqFuJV98azL8jWdgWb5a7QyyEU" ] },
      { "delegate": "tz3QT9dHYKDqh563chVa6za8526ys1UKfRfL",
        "reception_time": "2022-01-18T05:21:32.117-00:00",
        "included_in_blocks":
          [ "BLH2it2eDQsxkhbCHtmrZCL3DFqFuJV98azL8jWdgWb5a7QyyEU" ] },
      { "delegate": "tz3gtoUxdudfBRcNY7iVdKPHCYYX6xdPpoRS",
        "reception_time": "2022-01-18T05:21:32.092-00:00",
        "included_in_blocks":
          [ "BLH2it2eDQsxkhbCHtmrZCL3DFqFuJV98azL8jWdgWb5a7QyyEU" ] },
      { "delegate": "tz3adcvQaKXTCg12zbninqo3q8ptKKtDFTLv",
        "reception_time": "2022-01-18T05:21:32.333-00:00",
        "included_in_blocks":
          [ "BLH2it2eDQsxkhbCHtmrZCL3DFqFuJV98azL8jWdgWb5a7QyyEU" ] },
      { "delegate": "tz1gfArv665EUkSg2ojMBzcbfwuPxAvqPvjo",
        "reception_time": "2022-01-18T05:21:32.458-00:00",
        "included_in_blocks":
          [ "BLH2it2eDQsxkhbCHtmrZCL3DFqFuJV98azL8jWdgWb5a7QyyEU" ] },
      { "delegate": "tz3RKYFsLuQzKBtmYuLNas7uMu3AsYd4QdsA",
        "reception_time": "2022-01-18T05:21:32.038-00:00",
        "included_in_blocks":
          [ "BLH2it2eDQsxkhbCHtmrZCL3DFqFuJV98azL8jWdgWb5a7QyyEU" ] },
      { "delegate": "tz1VmiY38m3y95HqQLjMwqnMS7sdMfGomzKi",
        "reception_time": "2022-01-18T05:21:32.181-00:00",
        "included_in_blocks":
          [ "BLH2it2eDQsxkhbCHtmrZCL3DFqFuJV98azL8jWdgWb5a7QyyEU" ] },
      { "delegate": "tz1WnfXMPaNTBmH7DBPwqCWs9cPDJdkGBTZ8",
        "reception_time": "2022-01-18T05:21:32.173-00:00",
        "included_in_blocks":
          [ "BLH2it2eDQsxkhbCHtmrZCL3DFqFuJV98azL8jWdgWb5a7QyyEU" ] },
      { "delegate": "tz3hw2kqXhLUvY65ca1eety2oQTpAvd34R9Q",
        "reception_time": "2022-01-18T05:21:31.962-00:00",
        "included_in_blocks":
          [ "BLH2it2eDQsxkhbCHtmrZCL3DFqFuJV98azL8jWdgWb5a7QyyEU" ] },
      { "delegate": "tz1Scdr2HsZiQjc7bHMeBbmDRXYVvdhjJbBh",
        "reception_time": "2022-01-18T05:21:31.943-00:00",
        "included_in_blocks":
          [ "BLH2it2eDQsxkhbCHtmrZCL3DFqFuJV98azL8jWdgWb5a7QyyEU" ] },
      { "delegate": "tz3ZbP2pM3nwvXztbuMJwJnDvV5xdpU8UkkD",
        "reception_time": "2022-01-18T05:21:32.022-00:00",
        "included_in_blocks":
          [ "BLH2it2eDQsxkhbCHtmrZCL3DFqFuJV98azL8jWdgWb5a7QyyEU" ] },
      { "delegate": "tz3NxTnke1acr8o3h5y9ytf5awQBGNJUKzVU",
        "reception_time": "2022-01-18T05:21:32.008-00:00",
        "included_in_blocks":
          [ "BLH2it2eDQsxkhbCHtmrZCL3DFqFuJV98azL8jWdgWb5a7QyyEU" ] },
      { "delegate": "tz1XXayQohB8XRXN7kMoHbf2NFwNiH3oMRQQ",
        "reception_time": "2022-01-18T05:21:32.028-00:00",
        "included_in_blocks":
          [ "BLH2it2eDQsxkhbCHtmrZCL3DFqFuJV98azL8jWdgWb5a7QyyEU" ] },
      { "delegate": "tz1TRspM5SeZpaQUhzByXbEvqKF1vnCM2YTK",
        "reception_time": "2022-01-18T05:21:32.001-00:00",
        "included_in_blocks":
          [ "BLH2it2eDQsxkhbCHtmrZCL3DFqFuJV98azL8jWdgWb5a7QyyEU" ] },
      { "delegate": "tz1fPKAtsYydh4f1wfWNfeNxWYu72TmM48fu",
        "reception_time": "2022-01-18T05:21:32.237-00:00",
        "included_in_blocks":
          [ "BLH2it2eDQsxkhbCHtmrZCL3DFqFuJV98azL8jWdgWb5a7QyyEU" ] },
      { "delegate": "tz1irJKkXS2DBWkU1NnmFQx1c1L7pbGg4yhk",
        "reception_time": "2022-01-18T05:21:31.950-00:00",
        "included_in_blocks":
          [ "BLH2it2eDQsxkhbCHtmrZCL3DFqFuJV98azL8jWdgWb5a7QyyEU" ] },
      { "delegate": "tz1beersuEDv8Z7ngQ825xfbaJNS2EhXnyHR",
        "reception_time": "2022-01-18T05:21:31.962-00:00",
        "included_in_blocks":
          [ "BLH2it2eDQsxkhbCHtmrZCL3DFqFuJV98azL8jWdgWb5a7QyyEU" ] },
      { "delegate": "tz1TXzyaKUA8wsWefdSnyaYFnV2M3vCV7er9",
        "reception_time": "2022-01-18T05:21:32.046-00:00",
        "included_in_blocks":
          [ "BLH2it2eDQsxkhbCHtmrZCL3DFqFuJV98azL8jWdgWb5a7QyyEU" ] },
      { "delegate": "tz1QLXqnfN51dkjeghXvKHkJfhvGiM5gK4tc",
        "reception_time": "2022-01-18T05:21:32.012-00:00",
        "included_in_blocks":
          [ "BLH2it2eDQsxkhbCHtmrZCL3DFqFuJV98azL8jWdgWb5a7QyyEU" ] },
      { "delegate": "tz1Kf25fX1VdmYGSEzwFy1wNmkbSEZ2V83sY",
        "reception_time": "2022-01-18T05:21:32.030-00:00",
        "included_in_blocks":
          [ "BLH2it2eDQsxkhbCHtmrZCL3DFqFuJV98azL8jWdgWb5a7QyyEU" ] },
      { "delegate": "tz1eEnQhbwf6trb8Q8mPb2RaPkNk2rN7BKi8",
        "reception_time": "2022-01-18T05:21:31.886-00:00",
        "included_in_blocks":
          [ "BLH2it2eDQsxkhbCHtmrZCL3DFqFuJV98azL8jWdgWb5a7QyyEU" ] },
      { "delegate": "tz1aKxnrzx5PXZJe7unufEswVRCMU9yafmfb",
        "reception_time": "2022-01-18T05:21:31.966-00:00",
        "included_in_blocks":
          [ "BLH2it2eDQsxkhbCHtmrZCL3DFqFuJV98azL8jWdgWb5a7QyyEU" ] },
      { "delegate": "tz1P2Po7YM526ughEsRbY4oR9zaUPDZjxFrb",
        "reception_time": "2022-01-18T05:21:31.869-00:00",
        "included_in_blocks":
          [ "BLH2it2eDQsxkhbCHtmrZCL3DFqFuJV98azL8jWdgWb5a7QyyEU" ] },
      { "delegate": "tz1aDiEJf9ztRrAJEXZfcG3CKimoKsGhwVAi",
        "reception_time": "2022-01-18T05:21:31.934-00:00",
        "included_in_blocks":
          [ "BLH2it2eDQsxkhbCHtmrZCL3DFqFuJV98azL8jWdgWb5a7QyyEU" ] },
      { "delegate": "tz1Kt4P8BCaP93AEV4eA7gmpRryWt5hznjCP",
        "reception_time": "2022-01-18T05:21:32.126-00:00",
        "included_in_blocks":
          [ "BLH2it2eDQsxkhbCHtmrZCL3DFqFuJV98azL8jWdgWb5a7QyyEU" ] },
      { "delegate": "tz1STeamwbp68THcny9zk3LsbG3H36DMvbRK",
        "reception_time": "2022-01-18T05:21:31.878-00:00",
        "included_in_blocks":
          [ "BLH2it2eDQsxkhbCHtmrZCL3DFqFuJV98azL8jWdgWb5a7QyyEU" ] } ] }