{ "blocks":
    [ { "hash": "BKpqDktQ7Vj8DUfMdcRskLb5P4L9yNeB6Q2chUQ2pKZcpYyXhfn",
        "delegate": "tz2FCNBrERXtaTtNX6iimR1UJ5JSDxvdHM93",
        "reception_time": "2022-01-18T05:29:55.784-00:00",
        "timestamp": "2022-01-18T05:29:50Z" } ],
  "endorsements":
    [ { "delegate": "tz1S8e9GgdZG78XJRB3NqabfWeM37GnhZMWQ",
        "reception_time": "2022-01-18T05:29:55.642-00:00",
        "errors":
          [ { "kind": "temporary",
              "id": "proto.011-PtHangz2.prefilter.outdated_endorsement" } ],
        "included_in_blocks":
          [ "BMPzFLzBtEnFzQtEkhiLfrm5iybQ6VMXC42cPZeqQuKxs1SSccD" ] },
      { "delegate": "tz1XXayQohB8XRXN7kMoHbf2NFwNiH3oMRQQ",
        "reception_time": "2022-01-18T05:29:55.513-00:00",
        "errors":
          [ { "kind": "temporary",
              "id": "proto.011-PtHangz2.prefilter.outdated_endorsement" } ],
        "included_in_blocks":
          [ "BMPzFLzBtEnFzQtEkhiLfrm5iybQ6VMXC42cPZeqQuKxs1SSccD" ] },
      { "delegate": "tz1a1J3AGjJTAyBqWWSqFuUazUDV2TtD6hMy",
        "reception_time": "2022-01-18T05:30:05.882-00:00",
        "included_in_blocks":
          [ "BMPzFLzBtEnFzQtEkhiLfrm5iybQ6VMXC42cPZeqQuKxs1SSccD" ] },
      { "delegate": "tz3UoffC7FG7zfpmvmjUmUeAaHvzdcUvAj6r",
        "reception_time": "2022-01-18T05:29:59.574-00:00",
        "included_in_blocks":
          [ "BMPzFLzBtEnFzQtEkhiLfrm5iybQ6VMXC42cPZeqQuKxs1SSccD" ] },
      { "delegate": "tz1ZcTRk5uxD86EFEn1vvNffWWqJy7q5eVhc",
        "reception_time": "2022-01-18T05:29:59.653-00:00",
        "included_in_blocks":
          [ "BMPzFLzBtEnFzQtEkhiLfrm5iybQ6VMXC42cPZeqQuKxs1SSccD" ] },
      { "delegate": "tz1dRKU4FQ9QRRQPdaH4zCR6gmCmXfcvcgtB",
        "reception_time": "2022-01-18T05:29:59.209-00:00",
        "included_in_blocks":
          [ "BMPzFLzBtEnFzQtEkhiLfrm5iybQ6VMXC42cPZeqQuKxs1SSccD" ] },
      { "delegate": "tz3NExpXn9aPNZPorRE4SdjJ2RGrfbJgMAaV",
        "reception_time": "2022-01-18T05:29:59.166-00:00",
        "included_in_blocks":
          [ "BMPzFLzBtEnFzQtEkhiLfrm5iybQ6VMXC42cPZeqQuKxs1SSccD" ] },
      { "delegate": "tz1T7duV5gZWSTq4YpBGbXNLTfznCLDrFxvs",
        "reception_time": "2022-01-18T05:29:58.887-00:00",
        "included_in_blocks":
          [ "BMPzFLzBtEnFzQtEkhiLfrm5iybQ6VMXC42cPZeqQuKxs1SSccD" ] },
      { "delegate": "tz1aRoaRhSpRYvFdyvgWLL6TGyRoGF51wDjM",
        "reception_time": "2022-01-18T05:29:58.627-00:00",
        "included_in_blocks":
          [ "BMPzFLzBtEnFzQtEkhiLfrm5iybQ6VMXC42cPZeqQuKxs1SSccD" ] },
      { "delegate": "tz3VEZ4k6a4Wx42iyev6i2aVAptTRLEAivNN",
        "reception_time": "2022-01-18T05:29:58.500-00:00",
        "included_in_blocks":
          [ "BMPzFLzBtEnFzQtEkhiLfrm5iybQ6VMXC42cPZeqQuKxs1SSccD" ] },
      { "delegate": "tz3WMqdzXqRWXwyvj5Hp2H7QEepaUuS7vd9K",
        "reception_time": "2022-01-18T05:29:58.490-00:00",
        "included_in_blocks":
          [ "BMPzFLzBtEnFzQtEkhiLfrm5iybQ6VMXC42cPZeqQuKxs1SSccD" ] },
      { "delegate": "tz1SohptP53wDPZhzTWzDUFAUcWF6DMBpaJV",
        "reception_time": "2022-01-18T05:29:58.473-00:00",
        "included_in_blocks":
          [ "BMPzFLzBtEnFzQtEkhiLfrm5iybQ6VMXC42cPZeqQuKxs1SSccD" ] },
      { "delegate": "tz1NEKxGEHsFufk87CVZcrqWu8o22qh46GK6",
        "reception_time": "2022-01-18T05:29:58.396-00:00",
        "included_in_blocks":
          [ "BMPzFLzBtEnFzQtEkhiLfrm5iybQ6VMXC42cPZeqQuKxs1SSccD" ] },
      { "delegate": "tz1RjoHc98dBoqaH2jawF62XNKh7YsHwbkEv",
        "reception_time": "2022-01-18T05:29:58.393-00:00",
        "included_in_blocks":
          [ "BMPzFLzBtEnFzQtEkhiLfrm5iybQ6VMXC42cPZeqQuKxs1SSccD" ] },
      { "delegate": "tz1KfEsrtDaA1sX7vdM4qmEPWuSytuqCDp5j",
        "reception_time": "2022-01-18T05:29:58.308-00:00",
        "included_in_blocks":
          [ "BMPzFLzBtEnFzQtEkhiLfrm5iybQ6VMXC42cPZeqQuKxs1SSccD" ] },
      { "delegate": "tz1PeZx7FXy7QRuMREGXGxeipb24RsMMzUNe",
        "reception_time": "2022-01-18T05:29:58.217-00:00",
        "included_in_blocks":
          [ "BMPzFLzBtEnFzQtEkhiLfrm5iybQ6VMXC42cPZeqQuKxs1SSccD" ] },
      { "delegate": "tz1axcnVN9tZnCe4sQQhC6f3tfSEXdjPaXPY",
        "reception_time": "2022-01-18T05:29:58.238-00:00",
        "included_in_blocks":
          [ "BMPzFLzBtEnFzQtEkhiLfrm5iybQ6VMXC42cPZeqQuKxs1SSccD" ] },
      { "delegate": "tz1f3Re8iw6Pt3KMHAvyccHxDU3NuqL95axD",
        "reception_time": "2022-01-18T05:29:58.191-00:00",
        "included_in_blocks":
          [ "BMPzFLzBtEnFzQtEkhiLfrm5iybQ6VMXC42cPZeqQuKxs1SSccD" ] },
      { "delegate": "tz1fwnfJNgiDACshK9avfRfFbMaXrs3ghoJa",
        "reception_time": "2022-01-18T05:29:58.251-00:00",
        "included_in_blocks":
          [ "BMPzFLzBtEnFzQtEkhiLfrm5iybQ6VMXC42cPZeqQuKxs1SSccD" ] },
      { "delegate": "tz1Tnjaxk6tbAeC2TmMApPh8UsrEVQvhHvx5",
        "reception_time": "2022-01-18T05:29:57.768-00:00",
        "included_in_blocks":
          [ "BMPzFLzBtEnFzQtEkhiLfrm5iybQ6VMXC42cPZeqQuKxs1SSccD" ] },
      { "delegate": "tz3NDpRj6WBrJPikcPVHRBEjWKxFw3c6eQPS",
        "reception_time": "2022-01-18T05:29:57.898-00:00",
        "included_in_blocks":
          [ "BMPzFLzBtEnFzQtEkhiLfrm5iybQ6VMXC42cPZeqQuKxs1SSccD" ] },
      { "delegate": "tz1ei4WtWEMEJekSv8qDnu9PExG6Q8HgRGr3",
        "reception_time": "2022-01-18T05:29:57.906-00:00",
        "included_in_blocks":
          [ "BMPzFLzBtEnFzQtEkhiLfrm5iybQ6VMXC42cPZeqQuKxs1SSccD" ] },
      { "delegate": "tz1RCFbB9GpALpsZtu6J58sb74dm8qe6XBzv",
        "reception_time": "2022-01-18T05:29:57.901-00:00",
        "included_in_blocks":
          [ "BMPzFLzBtEnFzQtEkhiLfrm5iybQ6VMXC42cPZeqQuKxs1SSccD" ] },
      { "delegate": "tz3gLTu4Yxj8tPAcriQVUdxv6BY9QyvzU1az",
        "reception_time": "2022-01-18T05:29:57.916-00:00",
        "included_in_blocks":
          [ "BMPzFLzBtEnFzQtEkhiLfrm5iybQ6VMXC42cPZeqQuKxs1SSccD" ] },
      { "delegate": "tz1Nf6tsK4G6bBqgSQERy4nUtkHNKUVdh7q1",
        "reception_time": "2022-01-18T05:29:57.879-00:00",
        "included_in_blocks":
          [ "BMPzFLzBtEnFzQtEkhiLfrm5iybQ6VMXC42cPZeqQuKxs1SSccD" ] },
      { "delegate": "tz1dNVDWPf3Q59SdJqnjdnu277iyvReiRS9M",
        "reception_time": "2022-01-18T05:29:57.706-00:00",
        "included_in_blocks":
          [ "BMPzFLzBtEnFzQtEkhiLfrm5iybQ6VMXC42cPZeqQuKxs1SSccD" ] },
      { "delegate": "tz1TEc75UKXv4W5cwi14Na3NtqFD51yKQi7h",
        "reception_time": "2022-01-18T05:29:57.726-00:00",
        "included_in_blocks":
          [ "BMPzFLzBtEnFzQtEkhiLfrm5iybQ6VMXC42cPZeqQuKxs1SSccD" ] },
      { "delegate": "tz1TRqbYbUf2GyrjErf3hBzgBJPzW8y36qEs",
        "reception_time": "2022-01-18T05:29:57.789-00:00",
        "included_in_blocks":
          [ "BMPzFLzBtEnFzQtEkhiLfrm5iybQ6VMXC42cPZeqQuKxs1SSccD" ] },
      { "delegate": "tz1g8vkmcde6sWKaG2NN9WKzCkDM6Rziq194",
        "reception_time": "2022-01-18T05:29:57.615-00:00",
        "included_in_blocks":
          [ "BMPzFLzBtEnFzQtEkhiLfrm5iybQ6VMXC42cPZeqQuKxs1SSccD" ] },
      { "delegate": "tz1S8MNvuFEUsWgjHvi3AxibRBf388NhT1q2",
        "reception_time": "2022-01-18T05:29:57.676-00:00",
        "included_in_blocks":
          [ "BMPzFLzBtEnFzQtEkhiLfrm5iybQ6VMXC42cPZeqQuKxs1SSccD" ] },
      { "delegate": "tz3RB4aoyjov4KEVRbuhvQ1CKJgBJMWhaeB8",
        "reception_time": "2022-01-18T05:29:57.578-00:00",
        "included_in_blocks":
          [ "BMPzFLzBtEnFzQtEkhiLfrm5iybQ6VMXC42cPZeqQuKxs1SSccD" ] },
      { "delegate": "tz1LmaFsWRkjr7QMCx5PtV6xTUz3AmEpKQiF",
        "reception_time": "2022-01-18T05:29:57.607-00:00",
        "included_in_blocks":
          [ "BMPzFLzBtEnFzQtEkhiLfrm5iybQ6VMXC42cPZeqQuKxs1SSccD" ] },
      { "delegate": "tz3bvNMQ95vfAYtG8193ymshqjSvmxiCUuR5",
        "reception_time": "2022-01-18T05:29:57.494-00:00",
        "included_in_blocks":
          [ "BMPzFLzBtEnFzQtEkhiLfrm5iybQ6VMXC42cPZeqQuKxs1SSccD" ] },
      { "delegate": "tz1PWCDnz783NNGGQjEFFsHtrcK5yBW4E2rm",
        "reception_time": "2022-01-18T05:29:57.507-00:00",
        "included_in_blocks":
          [ "BMPzFLzBtEnFzQtEkhiLfrm5iybQ6VMXC42cPZeqQuKxs1SSccD" ] },
      { "delegate": "tz3RDC3Jdn4j15J7bBHZd29EUee9gVB1CxD9",
        "reception_time": "2022-01-18T05:29:57.462-00:00",
        "included_in_blocks":
          [ "BMPzFLzBtEnFzQtEkhiLfrm5iybQ6VMXC42cPZeqQuKxs1SSccD" ] },
      { "delegate": "tz1gfArv665EUkSg2ojMBzcbfwuPxAvqPvjo",
        "reception_time": "2022-01-18T05:29:57.335-00:00",
        "included_in_blocks":
          [ "BMPzFLzBtEnFzQtEkhiLfrm5iybQ6VMXC42cPZeqQuKxs1SSccD" ] },
      { "delegate": "tz3bTdwZinP8U1JmSweNzVKhmwafqWmFWRfk",
        "reception_time": "2022-01-18T05:29:57.318-00:00",
        "included_in_blocks":
          [ "BMPzFLzBtEnFzQtEkhiLfrm5iybQ6VMXC42cPZeqQuKxs1SSccD" ] },
      { "delegate": "tz1MQMiZHV8q4tTwUMWmS5Y3kaP6J2136iXr",
        "reception_time": "2022-01-18T05:29:57.213-00:00",
        "included_in_blocks":
          [ "BMPzFLzBtEnFzQtEkhiLfrm5iybQ6VMXC42cPZeqQuKxs1SSccD" ] },
      { "delegate": "tz1dwu9aYb7CRNq4Y2zAjipdjFuSVKhHS8vA",
        "reception_time": "2022-01-18T05:29:57.218-00:00",
        "included_in_blocks":
          [ "BMPzFLzBtEnFzQtEkhiLfrm5iybQ6VMXC42cPZeqQuKxs1SSccD" ] },
      { "delegate": "tz1fPKAtsYydh4f1wfWNfeNxWYu72TmM48fu",
        "reception_time": "2022-01-18T05:29:57.224-00:00",
        "included_in_blocks":
          [ "BMPzFLzBtEnFzQtEkhiLfrm5iybQ6VMXC42cPZeqQuKxs1SSccD" ] },
      { "delegate": "tz2FCNBrERXtaTtNX6iimR1UJ5JSDxvdHM93",
        "reception_time": "2022-01-18T05:29:57.303-00:00",
        "included_in_blocks":
          [ "BMPzFLzBtEnFzQtEkhiLfrm5iybQ6VMXC42cPZeqQuKxs1SSccD" ] },
      { "delegate": "tz1UJvHTgpVzcKWhTazGxVcn5wsHru5Gietg",
        "reception_time": "2022-01-18T05:29:57.073-00:00",
        "included_in_blocks":
          [ "BMPzFLzBtEnFzQtEkhiLfrm5iybQ6VMXC42cPZeqQuKxs1SSccD" ] },
      { "delegate": "tz1VmiY38m3y95HqQLjMwqnMS7sdMfGomzKi",
        "reception_time": "2022-01-18T05:29:57.040-00:00",
        "included_in_blocks":
          [ "BMPzFLzBtEnFzQtEkhiLfrm5iybQ6VMXC42cPZeqQuKxs1SSccD" ] },
      { "delegate": "tz3QCNyySViKHmeSr45kzDxzchys7NiXCWoa",
        "reception_time": "2022-01-18T05:29:56.875-00:00",
        "included_in_blocks":
          [ "BMPzFLzBtEnFzQtEkhiLfrm5iybQ6VMXC42cPZeqQuKxs1SSccD" ] },
      { "delegate": "tz3hw2kqXhLUvY65ca1eety2oQTpAvd34R9Q",
        "reception_time": "2022-01-18T05:29:56.792-00:00",
        "included_in_blocks":
          [ "BMPzFLzBtEnFzQtEkhiLfrm5iybQ6VMXC42cPZeqQuKxs1SSccD" ] },
      { "delegate": "tz3RKYFsLuQzKBtmYuLNas7uMu3AsYd4QdsA",
        "reception_time": "2022-01-18T05:29:56.835-00:00",
        "included_in_blocks":
          [ "BMPzFLzBtEnFzQtEkhiLfrm5iybQ6VMXC42cPZeqQuKxs1SSccD" ] },
      { "delegate": "tz3QT9dHYKDqh563chVa6za8526ys1UKfRfL",
        "reception_time": "2022-01-18T05:29:56.826-00:00",
        "included_in_blocks":
          [ "BMPzFLzBtEnFzQtEkhiLfrm5iybQ6VMXC42cPZeqQuKxs1SSccD" ] },
      { "delegate": "tz1h4GUAMweP7SNWzDgvMk3yRCAZyaP1MxZq",
        "reception_time": "2022-01-18T05:29:56.797-00:00",
        "included_in_blocks":
          [ "BMPzFLzBtEnFzQtEkhiLfrm5iybQ6VMXC42cPZeqQuKxs1SSccD" ] },
      { "delegate": "tz3S6BBeKgJGXxvLyZ1xzXzMPn11nnFtq5L9",
        "reception_time": "2022-01-18T05:29:56.759-00:00",
        "included_in_blocks":
          [ "BMPzFLzBtEnFzQtEkhiLfrm5iybQ6VMXC42cPZeqQuKxs1SSccD" ] },
      { "delegate": "tz1TRspM5SeZpaQUhzByXbEvqKF1vnCM2YTK",
        "reception_time": "2022-01-18T05:29:56.736-00:00",
        "included_in_blocks":
          [ "BMPzFLzBtEnFzQtEkhiLfrm5iybQ6VMXC42cPZeqQuKxs1SSccD" ] },
      { "delegate": "tz3gtoUxdudfBRcNY7iVdKPHCYYX6xdPpoRS",
        "reception_time": "2022-01-18T05:29:56.773-00:00",
        "included_in_blocks":
          [ "BMPzFLzBtEnFzQtEkhiLfrm5iybQ6VMXC42cPZeqQuKxs1SSccD" ] },
      { "delegate": "tz1Ldzz6k1BHdhuKvAtMRX7h5kJSMHESMHLC",
        "reception_time": "2022-01-18T05:29:56.763-00:00",
        "included_in_blocks":
          [ "BMPzFLzBtEnFzQtEkhiLfrm5iybQ6VMXC42cPZeqQuKxs1SSccD" ] },
      { "delegate": "tz3Zhs2dygr55yHyQyKjntAtY9bgfhLZ4Xj1",
        "reception_time": "2022-01-18T05:29:56.713-00:00",
        "included_in_blocks":
          [ "BMPzFLzBtEnFzQtEkhiLfrm5iybQ6VMXC42cPZeqQuKxs1SSccD" ] },
      { "delegate": "tz1aXD7Jigrt3PBYSpHSg5Rr33SexMmmM5Ys",
        "reception_time": "2022-01-18T05:29:56.759-00:00",
        "included_in_blocks":
          [ "BMPzFLzBtEnFzQtEkhiLfrm5iybQ6VMXC42cPZeqQuKxs1SSccD" ] },
      { "delegate": "tz3QSGPoRp3Kn7n3vY24eYeu3Peuqo45LQ4D",
        "reception_time": "2022-01-18T05:29:56.730-00:00",
        "included_in_blocks":
          [ "BMPzFLzBtEnFzQtEkhiLfrm5iybQ6VMXC42cPZeqQuKxs1SSccD" ] },
      { "delegate": "tz1Kf25fX1VdmYGSEzwFy1wNmkbSEZ2V83sY",
        "reception_time": "2022-01-18T05:29:56.738-00:00",
        "included_in_blocks":
          [ "BMPzFLzBtEnFzQtEkhiLfrm5iybQ6VMXC42cPZeqQuKxs1SSccD" ] },
      { "delegate": "tz3iJu5vrKZcsqRPs8yJ61UDoeEXZmtro4qh",
        "reception_time": "2022-01-18T05:29:56.682-00:00",
        "included_in_blocks":
          [ "BMPzFLzBtEnFzQtEkhiLfrm5iybQ6VMXC42cPZeqQuKxs1SSccD" ] },
      { "delegate": "tz1VQnqCCqX4K5sP3FNkVSNKTdCAMJDd3E1n",
        "reception_time": "2022-01-18T05:29:56.628-00:00",
        "included_in_blocks":
          [ "BMPzFLzBtEnFzQtEkhiLfrm5iybQ6VMXC42cPZeqQuKxs1SSccD" ] },
      { "delegate": "tz3NxTnke1acr8o3h5y9ytf5awQBGNJUKzVU",
        "reception_time": "2022-01-18T05:29:56.721-00:00",
        "included_in_blocks":
          [ "BMPzFLzBtEnFzQtEkhiLfrm5iybQ6VMXC42cPZeqQuKxs1SSccD" ] },
      { "delegate": "tz1gUNyn3hmnEWqkusWPzxRaon1cs7ndWh7h",
        "reception_time": "2022-01-18T05:29:56.641-00:00",
        "included_in_blocks":
          [ "BMPzFLzBtEnFzQtEkhiLfrm5iybQ6VMXC42cPZeqQuKxs1SSccD" ] },
      { "delegate": "tz3ZbP2pM3nwvXztbuMJwJnDvV5xdpU8UkkD",
        "reception_time": "2022-01-18T05:29:56.673-00:00",
        "included_in_blocks":
          [ "BMPzFLzBtEnFzQtEkhiLfrm5iybQ6VMXC42cPZeqQuKxs1SSccD" ] },
      { "delegate": "tz1MJx9vhaNRSimcuXPK2rW4fLccQnDAnVKJ",
        "reception_time": "2022-01-18T05:29:56.704-00:00",
        "included_in_blocks":
          [ "BMPzFLzBtEnFzQtEkhiLfrm5iybQ6VMXC42cPZeqQuKxs1SSccD" ] },
      { "delegate": "tz1irJKkXS2DBWkU1NnmFQx1c1L7pbGg4yhk",
        "reception_time": "2022-01-18T05:29:56.634-00:00",
        "included_in_blocks":
          [ "BMPzFLzBtEnFzQtEkhiLfrm5iybQ6VMXC42cPZeqQuKxs1SSccD" ] },
      { "delegate": "tz1eEnQhbwf6trb8Q8mPb2RaPkNk2rN7BKi8",
        "reception_time": "2022-01-18T05:29:56.701-00:00",
        "included_in_blocks":
          [ "BMPzFLzBtEnFzQtEkhiLfrm5iybQ6VMXC42cPZeqQuKxs1SSccD" ] },
      { "delegate": "tz1dbfppLAAxXZNtf2SDps7rch3qfUznKSoK",
        "reception_time": "2022-01-18T05:29:56.644-00:00",
        "included_in_blocks":
          [ "BMPzFLzBtEnFzQtEkhiLfrm5iybQ6VMXC42cPZeqQuKxs1SSccD" ] },
      { "delegate": "tz1Lhf4J9Qxoe3DZ2nfe8FGDnvVj7oKjnMY6",
        "reception_time": "2022-01-18T05:29:56.637-00:00",
        "included_in_blocks":
          [ "BMPzFLzBtEnFzQtEkhiLfrm5iybQ6VMXC42cPZeqQuKxs1SSccD" ] },
      { "delegate": "tz1P2Po7YM526ughEsRbY4oR9zaUPDZjxFrb",
        "reception_time": "2022-01-18T05:29:56.621-00:00",
        "included_in_blocks":
          [ "BMPzFLzBtEnFzQtEkhiLfrm5iybQ6VMXC42cPZeqQuKxs1SSccD" ] },
      { "delegate": "tz1Scdr2HsZiQjc7bHMeBbmDRXYVvdhjJbBh",
        "reception_time": "2022-01-18T05:29:56.583-00:00",
        "included_in_blocks":
          [ "BMPzFLzBtEnFzQtEkhiLfrm5iybQ6VMXC42cPZeqQuKxs1SSccD" ] },
      { "delegate": "tz1beersuEDv8Z7ngQ825xfbaJNS2EhXnyHR",
        "reception_time": "2022-01-18T05:29:56.617-00:00",
        "included_in_blocks":
          [ "BMPzFLzBtEnFzQtEkhiLfrm5iybQ6VMXC42cPZeqQuKxs1SSccD" ] } ] }