{ "blocks":
    [ { "hash": "BMDe7YsNQEdDhFXR53ZcsXKE5717yBr8vssMrbAGga1bicdqvxV",
        "delegate": "tz3NExpXn9aPNZPorRE4SdjJ2RGrfbJgMAaV",
        "reception_time": "2022-01-18T01:12:28.288-00:00",
        "timestamp": "2022-01-18T01:12:20Z" } ],
  "endorsements":
    [ { "delegate": "tz1eEnQhbwf6trb8Q8mPb2RaPkNk2rN7BKi8",
        "reception_time": "2022-01-18T01:12:28.250-00:00",
        "errors":
          [ { "kind": "temporary",
              "id": "proto.011-PtHangz2.prefilter.outdated_endorsement" } ],
        "included_in_blocks":
          [ "BLE123WC6HrQXryNUjBGKC1vhM7q166YGjQRrJPtJtXUXt6mFB6" ] },
      { "delegate": "tz1Scdr2HsZiQjc7bHMeBbmDRXYVvdhjJbBh",
        "reception_time": "2022-01-18T01:12:28.204-00:00",
        "errors":
          [ { "kind": "temporary",
              "id": "proto.011-PtHangz2.prefilter.outdated_endorsement" } ],
        "included_in_blocks":
          [ "BLE123WC6HrQXryNUjBGKC1vhM7q166YGjQRrJPtJtXUXt6mFB6" ] },
      { "delegate": "tz1P2Po7YM526ughEsRbY4oR9zaUPDZjxFrb",
        "reception_time": "2022-01-18T01:12:28.197-00:00",
        "errors":
          [ { "kind": "temporary",
              "id": "proto.011-PtHangz2.prefilter.outdated_endorsement" } ],
        "included_in_blocks":
          [ "BLE123WC6HrQXryNUjBGKC1vhM7q166YGjQRrJPtJtXUXt6mFB6" ] },
      { "delegate": "tz1XXayQohB8XRXN7kMoHbf2NFwNiH3oMRQQ",
        "reception_time": "2022-01-18T01:12:28.162-00:00",
        "errors":
          [ { "kind": "temporary",
              "id": "proto.011-PtHangz2.prefilter.outdated_endorsement" } ],
        "included_in_blocks":
          [ "BLE123WC6HrQXryNUjBGKC1vhM7q166YGjQRrJPtJtXUXt6mFB6" ] },
      { "delegate": "tz1S8e9GgdZG78XJRB3NqabfWeM37GnhZMWQ",
        "reception_time": "2022-01-18T01:12:27.964-00:00",
        "errors":
          [ { "kind": "temporary",
              "id": "proto.011-PtHangz2.prefilter.outdated_endorsement" } ],
        "included_in_blocks":
          [ "BLE123WC6HrQXryNUjBGKC1vhM7q166YGjQRrJPtJtXUXt6mFB6" ] },
      { "delegate": "tz2BzJTyoQp8fNbfhWD4YQgH9JJHDgSGzpdG",
        "reception_time": "2022-01-18T01:12:37.376-00:00",
        "included_in_blocks":
          [ "BLE123WC6HrQXryNUjBGKC1vhM7q166YGjQRrJPtJtXUXt6mFB6" ] },
      { "delegate": "tz1NfwaFPNcQi3icf37Ybz7bbqDmVmarFWtP",
        "reception_time": "2022-01-18T01:12:32.716-00:00",
        "included_in_blocks":
          [ "BLE123WC6HrQXryNUjBGKC1vhM7q166YGjQRrJPtJtXUXt6mFB6" ] },
      { "delegate": "tz1ZcTRk5uxD86EFEn1vvNffWWqJy7q5eVhc",
        "reception_time": "2022-01-18T01:12:31.850-00:00",
        "included_in_blocks":
          [ "BLE123WC6HrQXryNUjBGKC1vhM7q166YGjQRrJPtJtXUXt6mFB6" ] },
      { "delegate": "tz1dRKU4FQ9QRRQPdaH4zCR6gmCmXfcvcgtB",
        "reception_time": "2022-01-18T01:12:31.699-00:00",
        "included_in_blocks":
          [ "BLE123WC6HrQXryNUjBGKC1vhM7q166YGjQRrJPtJtXUXt6mFB6" ] },
      { "delegate": "tz1Z2jXfEXL7dXhs6bsLmyLFLfmAkXBzA9WE",
        "reception_time": "2022-01-18T01:12:31.600-00:00",
        "included_in_blocks":
          [ "BLE123WC6HrQXryNUjBGKC1vhM7q166YGjQRrJPtJtXUXt6mFB6" ] },
      { "delegate": "tz1T7duV5gZWSTq4YpBGbXNLTfznCLDrFxvs",
        "reception_time": "2022-01-18T01:12:31.440-00:00",
        "included_in_blocks":
          [ "BLE123WC6HrQXryNUjBGKC1vhM7q166YGjQRrJPtJtXUXt6mFB6" ] },
      { "delegate": "tz1awXW7wuXy21c66vBudMXQVAPgRnqqwgTH",
        "reception_time": "2022-01-18T01:12:31.521-00:00",
        "included_in_blocks":
          [ "BLE123WC6HrQXryNUjBGKC1vhM7q166YGjQRrJPtJtXUXt6mFB6" ] },
      { "delegate": "tz1eLbDXYceRsPZoPmaJXZgQ6pzgnTQvZtpo",
        "reception_time": "2022-01-18T01:12:31.286-00:00",
        "included_in_blocks":
          [ "BLE123WC6HrQXryNUjBGKC1vhM7q166YGjQRrJPtJtXUXt6mFB6" ] },
      { "delegate": "tz1TRqbYbUf2GyrjErf3hBzgBJPzW8y36qEs",
        "reception_time": "2022-01-18T01:12:31.024-00:00",
        "included_in_blocks":
          [ "BLE123WC6HrQXryNUjBGKC1vhM7q166YGjQRrJPtJtXUXt6mFB6" ] },
      { "delegate": "tz1Zdk8q7wNasmv7VFeQ6QFwcw5fP2c7StoF",
        "reception_time": "2022-01-18T01:12:31.063-00:00",
        "included_in_blocks":
          [ "BLE123WC6HrQXryNUjBGKC1vhM7q166YGjQRrJPtJtXUXt6mFB6" ] },
      { "delegate": "tz1cYufsxHXJcvANhvS55h3aY32a9BAFB494",
        "reception_time": "2022-01-18T01:12:31.119-00:00",
        "included_in_blocks":
          [ "BLE123WC6HrQXryNUjBGKC1vhM7q166YGjQRrJPtJtXUXt6mFB6" ] },
      { "delegate": "tz1WctSwL49BZtdWAQ75NY6vr4xsAx6oKdah",
        "reception_time": "2022-01-18T01:12:30.982-00:00",
        "included_in_blocks":
          [ "BLE123WC6HrQXryNUjBGKC1vhM7q166YGjQRrJPtJtXUXt6mFB6" ] },
      { "delegate": "tz1aRoaRhSpRYvFdyvgWLL6TGyRoGF51wDjM",
        "reception_time": "2022-01-18T01:12:30.990-00:00",
        "included_in_blocks":
          [ "BLE123WC6HrQXryNUjBGKC1vhM7q166YGjQRrJPtJtXUXt6mFB6" ] },
      { "delegate": "tz1hAYfexyzPGG6RhZZMpDvAHifubsbb6kgn",
        "reception_time": "2022-01-18T01:12:30.635-00:00",
        "included_in_blocks":
          [ "BLE123WC6HrQXryNUjBGKC1vhM7q166YGjQRrJPtJtXUXt6mFB6" ] },
      { "delegate": "tz3NDpRj6WBrJPikcPVHRBEjWKxFw3c6eQPS",
        "reception_time": "2022-01-18T01:12:30.482-00:00",
        "included_in_blocks":
          [ "BLE123WC6HrQXryNUjBGKC1vhM7q166YGjQRrJPtJtXUXt6mFB6" ] },
      { "delegate": "tz3gLTu4Yxj8tPAcriQVUdxv6BY9QyvzU1az",
        "reception_time": "2022-01-18T01:12:30.550-00:00",
        "included_in_blocks":
          [ "BLE123WC6HrQXryNUjBGKC1vhM7q166YGjQRrJPtJtXUXt6mFB6" ] },
      { "delegate": "tz3RB4aoyjov4KEVRbuhvQ1CKJgBJMWhaeB8",
        "reception_time": "2022-01-18T01:12:30.582-00:00",
        "included_in_blocks":
          [ "BLE123WC6HrQXryNUjBGKC1vhM7q166YGjQRrJPtJtXUXt6mFB6" ] },
      { "delegate": "tz2FCNBrERXtaTtNX6iimR1UJ5JSDxvdHM93",
        "reception_time": "2022-01-18T01:12:30.382-00:00",
        "included_in_blocks":
          [ "BLE123WC6HrQXryNUjBGKC1vhM7q166YGjQRrJPtJtXUXt6mFB6" ] },
      { "delegate": "tz3UoffC7FG7zfpmvmjUmUeAaHvzdcUvAj6r",
        "reception_time": "2022-01-18T01:12:30.437-00:00",
        "included_in_blocks":
          [ "BLE123WC6HrQXryNUjBGKC1vhM7q166YGjQRrJPtJtXUXt6mFB6" ] },
      { "delegate": "tz1TEc75UKXv4W5cwi14Na3NtqFD51yKQi7h",
        "reception_time": "2022-01-18T01:12:30.257-00:00",
        "included_in_blocks":
          [ "BLE123WC6HrQXryNUjBGKC1vhM7q166YGjQRrJPtJtXUXt6mFB6" ] },
      { "delegate": "tz1KfEsrtDaA1sX7vdM4qmEPWuSytuqCDp5j",
        "reception_time": "2022-01-18T01:12:30.105-00:00",
        "included_in_blocks":
          [ "BLE123WC6HrQXryNUjBGKC1vhM7q166YGjQRrJPtJtXUXt6mFB6" ] },
      { "delegate": "tz1dNVDWPf3Q59SdJqnjdnu277iyvReiRS9M",
        "reception_time": "2022-01-18T01:12:30.215-00:00",
        "included_in_blocks":
          [ "BLE123WC6HrQXryNUjBGKC1vhM7q166YGjQRrJPtJtXUXt6mFB6" ] },
      { "delegate": "tz1PeZx7FXy7QRuMREGXGxeipb24RsMMzUNe",
        "reception_time": "2022-01-18T01:12:30.264-00:00",
        "included_in_blocks":
          [ "BLE123WC6HrQXryNUjBGKC1vhM7q166YGjQRrJPtJtXUXt6mFB6" ] },
      { "delegate": "tz1Nf6tsK4G6bBqgSQERy4nUtkHNKUVdh7q1",
        "reception_time": "2022-01-18T01:12:30.061-00:00",
        "included_in_blocks":
          [ "BLE123WC6HrQXryNUjBGKC1vhM7q166YGjQRrJPtJtXUXt6mFB6" ] },
      { "delegate": "tz1SYq214SCBy9naR6cvycQsYcUGpBqQAE8d",
        "reception_time": "2022-01-18T01:12:30.006-00:00",
        "included_in_blocks":
          [ "BLE123WC6HrQXryNUjBGKC1vhM7q166YGjQRrJPtJtXUXt6mFB6" ] },
      { "delegate": "tz1WBfwbT66FC6BTLexc2BoyCCBM9LG7pnVW",
        "reception_time": "2022-01-18T01:12:30.204-00:00",
        "included_in_blocks":
          [ "BLE123WC6HrQXryNUjBGKC1vhM7q166YGjQRrJPtJtXUXt6mFB6" ] },
      { "delegate": "tz1NEKxGEHsFufk87CVZcrqWu8o22qh46GK6",
        "reception_time": "2022-01-18T01:12:29.963-00:00",
        "included_in_blocks":
          [ "BLE123WC6HrQXryNUjBGKC1vhM7q166YGjQRrJPtJtXUXt6mFB6" ] },
      { "delegate": "tz1irJKkXS2DBWkU1NnmFQx1c1L7pbGg4yhk",
        "reception_time": "2022-01-18T01:12:29.934-00:00",
        "included_in_blocks":
          [ "BLE123WC6HrQXryNUjBGKC1vhM7q166YGjQRrJPtJtXUXt6mFB6" ] },
      { "delegate": "tz1PWCDnz783NNGGQjEFFsHtrcK5yBW4E2rm",
        "reception_time": "2022-01-18T01:12:29.803-00:00",
        "included_in_blocks":
          [ "BLE123WC6HrQXryNUjBGKC1vhM7q166YGjQRrJPtJtXUXt6mFB6" ] },
      { "delegate": "tz1abmz7jiCV2GH2u81LRrGgAFFgvQgiDiaf",
        "reception_time": "2022-01-18T01:12:29.827-00:00",
        "included_in_blocks":
          [ "BLE123WC6HrQXryNUjBGKC1vhM7q166YGjQRrJPtJtXUXt6mFB6" ] },
      { "delegate": "tz3NExpXn9aPNZPorRE4SdjJ2RGrfbJgMAaV",
        "reception_time": "2022-01-18T01:12:29.751-00:00",
        "included_in_blocks":
          [ "BLE123WC6HrQXryNUjBGKC1vhM7q166YGjQRrJPtJtXUXt6mFB6" ] },
      { "delegate": "tz1aJ8wxNeVRYbbx5YqzurmYzwKzkS96rHP4",
        "reception_time": "2022-01-18T01:12:29.832-00:00",
        "included_in_blocks":
          [ "BLE123WC6HrQXryNUjBGKC1vhM7q166YGjQRrJPtJtXUXt6mFB6" ] },
      { "delegate": "tz3VEZ4k6a4Wx42iyev6i2aVAptTRLEAivNN",
        "reception_time": "2022-01-18T01:12:29.675-00:00",
        "included_in_blocks":
          [ "BLE123WC6HrQXryNUjBGKC1vhM7q166YGjQRrJPtJtXUXt6mFB6" ] },
      { "delegate": "tz1ei4WtWEMEJekSv8qDnu9PExG6Q8HgRGr3",
        "reception_time": "2022-01-18T01:12:29.686-00:00",
        "included_in_blocks":
          [ "BLE123WC6HrQXryNUjBGKC1vhM7q166YGjQRrJPtJtXUXt6mFB6" ] },
      { "delegate": "tz3RDC3Jdn4j15J7bBHZd29EUee9gVB1CxD9",
        "reception_time": "2022-01-18T01:12:29.771-00:00",
        "included_in_blocks":
          [ "BLE123WC6HrQXryNUjBGKC1vhM7q166YGjQRrJPtJtXUXt6mFB6" ] },
      { "delegate": "tz1UJvHTgpVzcKWhTazGxVcn5wsHru5Gietg",
        "reception_time": "2022-01-18T01:12:29.563-00:00",
        "included_in_blocks":
          [ "BLE123WC6HrQXryNUjBGKC1vhM7q166YGjQRrJPtJtXUXt6mFB6" ] },
      { "delegate": "tz3WMqdzXqRWXwyvj5Hp2H7QEepaUuS7vd9K",
        "reception_time": "2022-01-18T01:12:29.799-00:00",
        "included_in_blocks":
          [ "BLE123WC6HrQXryNUjBGKC1vhM7q166YGjQRrJPtJtXUXt6mFB6" ] },
      { "delegate": "tz1SUgyRB8T5jXgXAwS33pgRHAKrafyg87Yc",
        "reception_time": "2022-01-18T01:12:29.471-00:00",
        "included_in_blocks":
          [ "BLE123WC6HrQXryNUjBGKC1vhM7q166YGjQRrJPtJtXUXt6mFB6" ] },
      { "delegate": "tz1RCFbB9GpALpsZtu6J58sb74dm8qe6XBzv",
        "reception_time": "2022-01-18T01:12:29.379-00:00",
        "included_in_blocks":
          [ "BLE123WC6HrQXryNUjBGKC1vhM7q166YGjQRrJPtJtXUXt6mFB6" ] },
      { "delegate": "tz3hw2kqXhLUvY65ca1eety2oQTpAvd34R9Q",
        "reception_time": "2022-01-18T01:12:29.338-00:00",
        "included_in_blocks":
          [ "BLE123WC6HrQXryNUjBGKC1vhM7q166YGjQRrJPtJtXUXt6mFB6" ] },
      { "delegate": "tz1VQnqCCqX4K5sP3FNkVSNKTdCAMJDd3E1n",
        "reception_time": "2022-01-18T01:12:29.394-00:00",
        "included_in_blocks":
          [ "BLE123WC6HrQXryNUjBGKC1vhM7q166YGjQRrJPtJtXUXt6mFB6" ] },
      { "delegate": "tz1WCd2jm4uSt4vntk4vSuUWoZQGhLcDuR9q",
        "reception_time": "2022-01-18T01:12:29.375-00:00",
        "included_in_blocks":
          [ "BLE123WC6HrQXryNUjBGKC1vhM7q166YGjQRrJPtJtXUXt6mFB6" ] },
      { "delegate": "tz1gfArv665EUkSg2ojMBzcbfwuPxAvqPvjo",
        "reception_time": "2022-01-18T01:12:29.392-00:00",
        "included_in_blocks":
          [ "BLE123WC6HrQXryNUjBGKC1vhM7q166YGjQRrJPtJtXUXt6mFB6" ] },
      { "delegate": "tz1gUNyn3hmnEWqkusWPzxRaon1cs7ndWh7h",
        "reception_time": "2022-01-18T01:12:29.356-00:00",
        "included_in_blocks":
          [ "BLE123WC6HrQXryNUjBGKC1vhM7q166YGjQRrJPtJtXUXt6mFB6" ] },
      { "delegate": "tz3adcvQaKXTCg12zbninqo3q8ptKKtDFTLv",
        "reception_time": "2022-01-18T01:12:29.287-00:00",
        "included_in_blocks":
          [ "BLE123WC6HrQXryNUjBGKC1vhM7q166YGjQRrJPtJtXUXt6mFB6" ] },
      { "delegate": "tz1S8MNvuFEUsWgjHvi3AxibRBf388NhT1q2",
        "reception_time": "2022-01-18T01:12:29.338-00:00",
        "included_in_blocks":
          [ "BLE123WC6HrQXryNUjBGKC1vhM7q166YGjQRrJPtJtXUXt6mFB6" ] },
      { "delegate": "tz1KzSC1J9aBxKp7u8TUnpN8L7S65PBRkgdF",
        "reception_time": "2022-01-18T01:12:29.371-00:00",
        "included_in_blocks":
          [ "BLE123WC6HrQXryNUjBGKC1vhM7q166YGjQRrJPtJtXUXt6mFB6" ] },
      { "delegate": "tz3bTdwZinP8U1JmSweNzVKhmwafqWmFWRfk",
        "reception_time": "2022-01-18T01:12:29.369-00:00",
        "included_in_blocks":
          [ "BLE123WC6HrQXryNUjBGKC1vhM7q166YGjQRrJPtJtXUXt6mFB6" ] },
      { "delegate": "tz3RKYFsLuQzKBtmYuLNas7uMu3AsYd4QdsA",
        "reception_time": "2022-01-18T01:12:29.279-00:00",
        "included_in_blocks":
          [ "BLE123WC6HrQXryNUjBGKC1vhM7q166YGjQRrJPtJtXUXt6mFB6" ] },
      { "delegate": "tz1Ldzz6k1BHdhuKvAtMRX7h5kJSMHESMHLC",
        "reception_time": "2022-01-18T01:12:29.143-00:00",
        "included_in_blocks":
          [ "BLE123WC6HrQXryNUjBGKC1vhM7q166YGjQRrJPtJtXUXt6mFB6" ] },
      { "delegate": "tz3gtoUxdudfBRcNY7iVdKPHCYYX6xdPpoRS",
        "reception_time": "2022-01-18T01:12:29.216-00:00",
        "included_in_blocks":
          [ "BLE123WC6HrQXryNUjBGKC1vhM7q166YGjQRrJPtJtXUXt6mFB6" ] },
      { "delegate": "tz3iJu5vrKZcsqRPs8yJ61UDoeEXZmtro4qh",
        "reception_time": "2022-01-18T01:12:29.140-00:00",
        "included_in_blocks":
          [ "BLE123WC6HrQXryNUjBGKC1vhM7q166YGjQRrJPtJtXUXt6mFB6" ] },
      { "delegate": "tz1VmiY38m3y95HqQLjMwqnMS7sdMfGomzKi",
        "reception_time": "2022-01-18T01:12:29.237-00:00",
        "included_in_blocks":
          [ "BLE123WC6HrQXryNUjBGKC1vhM7q166YGjQRrJPtJtXUXt6mFB6" ] },
      { "delegate": "tz3QSGPoRp3Kn7n3vY24eYeu3Peuqo45LQ4D",
        "reception_time": "2022-01-18T01:12:29.124-00:00",
        "included_in_blocks":
          [ "BLE123WC6HrQXryNUjBGKC1vhM7q166YGjQRrJPtJtXUXt6mFB6" ] },
      { "delegate": "tz3Zhs2dygr55yHyQyKjntAtY9bgfhLZ4Xj1",
        "reception_time": "2022-01-18T01:12:29.130-00:00",
        "included_in_blocks":
          [ "BLE123WC6HrQXryNUjBGKC1vhM7q166YGjQRrJPtJtXUXt6mFB6" ] },
      { "delegate": "tz1aXD7Jigrt3PBYSpHSg5Rr33SexMmmM5Ys",
        "reception_time": "2022-01-18T01:12:29.098-00:00",
        "included_in_blocks":
          [ "BLE123WC6HrQXryNUjBGKC1vhM7q166YGjQRrJPtJtXUXt6mFB6" ] },
      { "delegate": "tz1TzaNn7wSQSP5gYPXCnNzBCpyMiidCq1PX",
        "reception_time": "2022-01-18T01:12:29.092-00:00",
        "included_in_blocks":
          [ "BLE123WC6HrQXryNUjBGKC1vhM7q166YGjQRrJPtJtXUXt6mFB6" ] },
      { "delegate": "tz3bvNMQ95vfAYtG8193ymshqjSvmxiCUuR5",
        "reception_time": "2022-01-18T01:12:29.316-00:00",
        "included_in_blocks":
          [ "BLE123WC6HrQXryNUjBGKC1vhM7q166YGjQRrJPtJtXUXt6mFB6" ] },
      { "delegate": "tz3ZbP2pM3nwvXztbuMJwJnDvV5xdpU8UkkD",
        "reception_time": "2022-01-18T01:12:29.112-00:00",
        "included_in_blocks":
          [ "BLE123WC6HrQXryNUjBGKC1vhM7q166YGjQRrJPtJtXUXt6mFB6" ] },
      { "delegate": "tz1Kf25fX1VdmYGSEzwFy1wNmkbSEZ2V83sY",
        "reception_time": "2022-01-18T01:12:29.088-00:00",
        "included_in_blocks":
          [ "BLE123WC6HrQXryNUjBGKC1vhM7q166YGjQRrJPtJtXUXt6mFB6" ] },
      { "delegate": "tz3NxTnke1acr8o3h5y9ytf5awQBGNJUKzVU",
        "reception_time": "2022-01-18T01:12:29.085-00:00",
        "included_in_blocks":
          [ "BLE123WC6HrQXryNUjBGKC1vhM7q166YGjQRrJPtJtXUXt6mFB6" ] },
      { "delegate": "tz1aDiEJf9ztRrAJEXZfcG3CKimoKsGhwVAi",
        "reception_time": "2022-01-18T01:12:29.101-00:00",
        "included_in_blocks":
          [ "BLE123WC6HrQXryNUjBGKC1vhM7q166YGjQRrJPtJtXUXt6mFB6" ] },
      { "delegate": "tz1beersuEDv8Z7ngQ825xfbaJNS2EhXnyHR",
        "reception_time": "2022-01-18T01:12:29.104-00:00",
        "included_in_blocks":
          [ "BLE123WC6HrQXryNUjBGKC1vhM7q166YGjQRrJPtJtXUXt6mFB6" ] },
      { "delegate": "tz1TXzyaKUA8wsWefdSnyaYFnV2M3vCV7er9",
        "reception_time": "2022-01-18T01:12:29.092-00:00",
        "included_in_blocks":
          [ "BLE123WC6HrQXryNUjBGKC1vhM7q166YGjQRrJPtJtXUXt6mFB6" ] },
      { "delegate": "tz1a51WYsAsoh4fs4A4x5aCN6Za26mpfDfTi",
        "reception_time": "2022-01-18T01:12:29.098-00:00",
        "included_in_blocks":
          [ "BLE123WC6HrQXryNUjBGKC1vhM7q166YGjQRrJPtJtXUXt6mFB6" ] },
      { "delegate": "tz1STeamwbp68THcny9zk3LsbG3H36DMvbRK",
        "reception_time": "2022-01-18T01:12:29.070-00:00",
        "included_in_blocks":
          [ "BLE123WC6HrQXryNUjBGKC1vhM7q166YGjQRrJPtJtXUXt6mFB6" ] } ] }