{ "blocks":
    [ { "hash": "BLCB16UQowY1G4iypw1zWbrt2tHbrbo2XfnpQgSAjYJ9ovcHDBy",
        "delegate": "tz1eEnQhbwf6trb8Q8mPb2RaPkNk2rN7BKi8",
        "reception_time": "2022-01-18T05:33:55.474-00:00",
        "timestamp": "2022-01-18T05:33:50Z" } ],
  "endorsements":
    [ { "delegate": "tz1P2Po7YM526ughEsRbY4oR9zaUPDZjxFrb",
        "reception_time": "2022-01-18T05:33:55.377-00:00",
        "errors":
          [ { "kind": "temporary",
              "id": "proto.011-PtHangz2.prefilter.outdated_endorsement" } ],
        "included_in_blocks":
          [ "BLNv1xSgMakLJVMZEaPX2xsJCE2x9bGZogmhnquYad5VpEwDTZM" ] },
      { "delegate": "tz1Lhf4J9Qxoe3DZ2nfe8FGDnvVj7oKjnMY6",
        "reception_time": "2022-01-18T05:33:55.364-00:00",
        "errors":
          [ { "kind": "temporary",
              "id": "proto.011-PtHangz2.prefilter.outdated_endorsement" } ],
        "included_in_blocks":
          [ "BLNv1xSgMakLJVMZEaPX2xsJCE2x9bGZogmhnquYad5VpEwDTZM" ] },
      { "delegate": "tz1eEnQhbwf6trb8Q8mPb2RaPkNk2rN7BKi8",
        "reception_time": "2022-01-18T05:33:55.165-00:00",
        "errors":
          [ { "kind": "temporary",
              "id": "proto.011-PtHangz2.prefilter.outdated_endorsement" } ],
        "included_in_blocks":
          [ "BLNv1xSgMakLJVMZEaPX2xsJCE2x9bGZogmhnquYad5VpEwDTZM" ] },
      { "delegate": "tz1S8e9GgdZG78XJRB3NqabfWeM37GnhZMWQ",
        "reception_time": "2022-01-18T05:33:55.002-00:00",
        "errors":
          [ { "kind": "temporary",
              "id": "proto.011-PtHangz2.prefilter.outdated_endorsement" } ],
        "included_in_blocks":
          [ "BLNv1xSgMakLJVMZEaPX2xsJCE2x9bGZogmhnquYad5VpEwDTZM" ] },
      { "delegate": "tz2BzJTyoQp8fNbfhWD4YQgH9JJHDgSGzpdG",
        "reception_time": "2022-01-18T05:34:06.267-00:00",
        "included_in_blocks":
          [ "BLNv1xSgMakLJVMZEaPX2xsJCE2x9bGZogmhnquYad5VpEwDTZM" ] },
      { "delegate": "tz1NpWrAyDL9k2Lmnyxcgr9xuJakbBxdq7FB",
        "reception_time": "2022-01-18T05:34:03.636-00:00",
        "included_in_blocks":
          [ "BLNv1xSgMakLJVMZEaPX2xsJCE2x9bGZogmhnquYad5VpEwDTZM" ] },
      { "delegate": "tz3bEQoFCZEEfZMskefZ8q8e4eiHH1pssRax",
        "reception_time": "2022-01-18T05:34:00.816-00:00",
        "included_in_blocks":
          [ "BLNv1xSgMakLJVMZEaPX2xsJCE2x9bGZogmhnquYad5VpEwDTZM" ] },
      { "delegate": "tz1W5VkdB5s7ENMESVBtwyt9kyvLqPcUczRT",
        "reception_time": "2022-01-18T05:34:00.198-00:00",
        "included_in_blocks":
          [ "BLNv1xSgMakLJVMZEaPX2xsJCE2x9bGZogmhnquYad5VpEwDTZM" ] },
      { "delegate": "tz1ZcTRk5uxD86EFEn1vvNffWWqJy7q5eVhc",
        "reception_time": "2022-01-18T05:33:59.582-00:00",
        "included_in_blocks":
          [ "BLNv1xSgMakLJVMZEaPX2xsJCE2x9bGZogmhnquYad5VpEwDTZM" ] },
      { "delegate": "tz3WMqdzXqRWXwyvj5Hp2H7QEepaUuS7vd9K",
        "reception_time": "2022-01-18T05:33:59.087-00:00",
        "included_in_blocks":
          [ "BLNv1xSgMakLJVMZEaPX2xsJCE2x9bGZogmhnquYad5VpEwDTZM" ] },
      { "delegate": "tz3NExpXn9aPNZPorRE4SdjJ2RGrfbJgMAaV",
        "reception_time": "2022-01-18T05:33:58.975-00:00",
        "included_in_blocks":
          [ "BLNv1xSgMakLJVMZEaPX2xsJCE2x9bGZogmhnquYad5VpEwDTZM" ] },
      { "delegate": "tz1dRKU4FQ9QRRQPdaH4zCR6gmCmXfcvcgtB",
        "reception_time": "2022-01-18T05:33:58.886-00:00",
        "included_in_blocks":
          [ "BLNv1xSgMakLJVMZEaPX2xsJCE2x9bGZogmhnquYad5VpEwDTZM" ] },
      { "delegate": "tz1XhnCdVENzgko5x1MMswLHSoQbJ5NPwLZ6",
        "reception_time": "2022-01-18T05:33:58.849-00:00",
        "included_in_blocks":
          [ "BLNv1xSgMakLJVMZEaPX2xsJCE2x9bGZogmhnquYad5VpEwDTZM" ] },
      { "delegate": "tz1T7duV5gZWSTq4YpBGbXNLTfznCLDrFxvs",
        "reception_time": "2022-01-18T05:33:58.700-00:00",
        "included_in_blocks":
          [ "BLNv1xSgMakLJVMZEaPX2xsJCE2x9bGZogmhnquYad5VpEwDTZM" ] },
      { "delegate": "tz1g8vkmcde6sWKaG2NN9WKzCkDM6Rziq194",
        "reception_time": "2022-01-18T05:33:58.689-00:00",
        "included_in_blocks":
          [ "BLNv1xSgMakLJVMZEaPX2xsJCE2x9bGZogmhnquYad5VpEwDTZM" ] },
      { "delegate": "tz1awXW7wuXy21c66vBudMXQVAPgRnqqwgTH",
        "reception_time": "2022-01-18T05:33:58.617-00:00",
        "included_in_blocks":
          [ "BLNv1xSgMakLJVMZEaPX2xsJCE2x9bGZogmhnquYad5VpEwDTZM" ] },
      { "delegate": "tz1RjoHc98dBoqaH2jawF62XNKh7YsHwbkEv",
        "reception_time": "2022-01-18T05:33:58.524-00:00",
        "included_in_blocks":
          [ "BLNv1xSgMakLJVMZEaPX2xsJCE2x9bGZogmhnquYad5VpEwDTZM" ] },
      { "delegate": "tz3bvNMQ95vfAYtG8193ymshqjSvmxiCUuR5",
        "reception_time": "2022-01-18T05:33:58.405-00:00",
        "included_in_blocks":
          [ "BLNv1xSgMakLJVMZEaPX2xsJCE2x9bGZogmhnquYad5VpEwDTZM" ] },
      { "delegate": "tz1Vd1rXpV8hTHbFXCXN3c3qzCsgcU5BZw1e",
        "reception_time": "2022-01-18T05:33:58.128-00:00",
        "included_in_blocks":
          [ "BLNv1xSgMakLJVMZEaPX2xsJCE2x9bGZogmhnquYad5VpEwDTZM" ] },
      { "delegate": "tz1KfEsrtDaA1sX7vdM4qmEPWuSytuqCDp5j",
        "reception_time": "2022-01-18T05:33:58.243-00:00",
        "included_in_blocks":
          [ "BLNv1xSgMakLJVMZEaPX2xsJCE2x9bGZogmhnquYad5VpEwDTZM" ] },
      { "delegate": "tz1aRoaRhSpRYvFdyvgWLL6TGyRoGF51wDjM",
        "reception_time": "2022-01-18T05:33:58.075-00:00",
        "included_in_blocks":
          [ "BLNv1xSgMakLJVMZEaPX2xsJCE2x9bGZogmhnquYad5VpEwDTZM" ] },
      { "delegate": "tz1NEKxGEHsFufk87CVZcrqWu8o22qh46GK6",
        "reception_time": "2022-01-18T05:33:58.146-00:00",
        "included_in_blocks":
          [ "BLNv1xSgMakLJVMZEaPX2xsJCE2x9bGZogmhnquYad5VpEwDTZM" ] },
      { "delegate": "tz3RDC3Jdn4j15J7bBHZd29EUee9gVB1CxD9",
        "reception_time": "2022-01-18T05:33:58.111-00:00",
        "included_in_blocks":
          [ "BLNv1xSgMakLJVMZEaPX2xsJCE2x9bGZogmhnquYad5VpEwDTZM" ] },
      { "delegate": "tz1TRqbYbUf2GyrjErf3hBzgBJPzW8y36qEs",
        "reception_time": "2022-01-18T05:33:58.089-00:00",
        "included_in_blocks":
          [ "BLNv1xSgMakLJVMZEaPX2xsJCE2x9bGZogmhnquYad5VpEwDTZM" ] },
      { "delegate": "tz3VEZ4k6a4Wx42iyev6i2aVAptTRLEAivNN",
        "reception_time": "2022-01-18T05:33:57.948-00:00",
        "included_in_blocks":
          [ "BLNv1xSgMakLJVMZEaPX2xsJCE2x9bGZogmhnquYad5VpEwDTZM" ] },
      { "delegate": "tz2FCNBrERXtaTtNX6iimR1UJ5JSDxvdHM93",
        "reception_time": "2022-01-18T05:33:57.857-00:00",
        "included_in_blocks":
          [ "BLNv1xSgMakLJVMZEaPX2xsJCE2x9bGZogmhnquYad5VpEwDTZM" ] },
      { "delegate": "tz3UoffC7FG7zfpmvmjUmUeAaHvzdcUvAj6r",
        "reception_time": "2022-01-18T05:33:57.804-00:00",
        "included_in_blocks":
          [ "BLNv1xSgMakLJVMZEaPX2xsJCE2x9bGZogmhnquYad5VpEwDTZM" ] },
      { "delegate": "tz1Nf6tsK4G6bBqgSQERy4nUtkHNKUVdh7q1",
        "reception_time": "2022-01-18T05:33:57.762-00:00",
        "included_in_blocks":
          [ "BLNv1xSgMakLJVMZEaPX2xsJCE2x9bGZogmhnquYad5VpEwDTZM" ] },
      { "delegate": "tz1SohptP53wDPZhzTWzDUFAUcWF6DMBpaJV",
        "reception_time": "2022-01-18T05:33:57.709-00:00",
        "included_in_blocks":
          [ "BLNv1xSgMakLJVMZEaPX2xsJCE2x9bGZogmhnquYad5VpEwDTZM" ] },
      { "delegate": "tz1RCFbB9GpALpsZtu6J58sb74dm8qe6XBzv",
        "reception_time": "2022-01-18T05:33:57.593-00:00",
        "included_in_blocks":
          [ "BLNv1xSgMakLJVMZEaPX2xsJCE2x9bGZogmhnquYad5VpEwDTZM" ] },
      { "delegate": "tz1NoYvKjXTzTk54VpLxBfouJ33J8jwKPPvw",
        "reception_time": "2022-01-18T05:33:57.506-00:00",
        "included_in_blocks":
          [ "BLNv1xSgMakLJVMZEaPX2xsJCE2x9bGZogmhnquYad5VpEwDTZM" ] },
      { "delegate": "tz1dNVDWPf3Q59SdJqnjdnu277iyvReiRS9M",
        "reception_time": "2022-01-18T05:33:57.441-00:00",
        "included_in_blocks":
          [ "BLNv1xSgMakLJVMZEaPX2xsJCE2x9bGZogmhnquYad5VpEwDTZM" ] },
      { "delegate": "tz1MQJPGNMijnXnVoBENFz9rUhaPt3S7rWoz",
        "reception_time": "2022-01-18T05:33:57.386-00:00",
        "included_in_blocks":
          [ "BLNv1xSgMakLJVMZEaPX2xsJCE2x9bGZogmhnquYad5VpEwDTZM" ] },
      { "delegate": "tz1LmaFsWRkjr7QMCx5PtV6xTUz3AmEpKQiF",
        "reception_time": "2022-01-18T05:33:57.389-00:00",
        "included_in_blocks":
          [ "BLNv1xSgMakLJVMZEaPX2xsJCE2x9bGZogmhnquYad5VpEwDTZM" ] },
      { "delegate": "tz1Tnjaxk6tbAeC2TmMApPh8UsrEVQvhHvx5",
        "reception_time": "2022-01-18T05:33:57.486-00:00",
        "included_in_blocks":
          [ "BLNv1xSgMakLJVMZEaPX2xsJCE2x9bGZogmhnquYad5VpEwDTZM" ] },
      { "delegate": "tz1SYq214SCBy9naR6cvycQsYcUGpBqQAE8d",
        "reception_time": "2022-01-18T05:33:57.428-00:00",
        "included_in_blocks":
          [ "BLNv1xSgMakLJVMZEaPX2xsJCE2x9bGZogmhnquYad5VpEwDTZM" ] },
      { "delegate": "tz1V4qCyvPKZ5UeqdH14HN42rxvNPQfc9UZg",
        "reception_time": "2022-01-18T05:33:57.227-00:00",
        "included_in_blocks":
          [ "BLNv1xSgMakLJVMZEaPX2xsJCE2x9bGZogmhnquYad5VpEwDTZM" ] },
      { "delegate": "tz1cZfFQpcYhwDp7y1njZXDsZqCrn2NqmVof",
        "reception_time": "2022-01-18T05:33:57.293-00:00",
        "included_in_blocks":
          [ "BLNv1xSgMakLJVMZEaPX2xsJCE2x9bGZogmhnquYad5VpEwDTZM" ] },
      { "delegate": "tz1MQMiZHV8q4tTwUMWmS5Y3kaP6J2136iXr",
        "reception_time": "2022-01-18T05:33:57.088-00:00",
        "included_in_blocks":
          [ "BLNv1xSgMakLJVMZEaPX2xsJCE2x9bGZogmhnquYad5VpEwDTZM" ] },
      { "delegate": "tz3bTdwZinP8U1JmSweNzVKhmwafqWmFWRfk",
        "reception_time": "2022-01-18T05:33:57.176-00:00",
        "included_in_blocks":
          [ "BLNv1xSgMakLJVMZEaPX2xsJCE2x9bGZogmhnquYad5VpEwDTZM" ] },
      { "delegate": "tz1ei4WtWEMEJekSv8qDnu9PExG6Q8HgRGr3",
        "reception_time": "2022-01-18T05:33:57.222-00:00",
        "included_in_blocks":
          [ "BLNv1xSgMakLJVMZEaPX2xsJCE2x9bGZogmhnquYad5VpEwDTZM" ] },
      { "delegate": "tz1S8MNvuFEUsWgjHvi3AxibRBf388NhT1q2",
        "reception_time": "2022-01-18T05:33:57.151-00:00",
        "included_in_blocks":
          [ "BLNv1xSgMakLJVMZEaPX2xsJCE2x9bGZogmhnquYad5VpEwDTZM" ] },
      { "delegate": "tz1gfArv665EUkSg2ojMBzcbfwuPxAvqPvjo",
        "reception_time": "2022-01-18T05:33:57.063-00:00",
        "included_in_blocks":
          [ "BLNv1xSgMakLJVMZEaPX2xsJCE2x9bGZogmhnquYad5VpEwDTZM" ] },
      { "delegate": "tz1bZ8vsMAXmaWEV7FRnyhcuUs2fYMaQ6Hkk",
        "reception_time": "2022-01-18T05:33:57.055-00:00",
        "included_in_blocks":
          [ "BLNv1xSgMakLJVMZEaPX2xsJCE2x9bGZogmhnquYad5VpEwDTZM" ] },
      { "delegate": "tz1abmz7jiCV2GH2u81LRrGgAFFgvQgiDiaf",
        "reception_time": "2022-01-18T05:33:57.130-00:00",
        "included_in_blocks":
          [ "BLNv1xSgMakLJVMZEaPX2xsJCE2x9bGZogmhnquYad5VpEwDTZM" ] },
      { "delegate": "tz1Kf25fX1VdmYGSEzwFy1wNmkbSEZ2V83sY",
        "reception_time": "2022-01-18T05:33:57.182-00:00",
        "included_in_blocks":
          [ "BLNv1xSgMakLJVMZEaPX2xsJCE2x9bGZogmhnquYad5VpEwDTZM" ] },
      { "delegate": "tz3NxTnke1acr8o3h5y9ytf5awQBGNJUKzVU",
        "reception_time": "2022-01-18T05:33:56.966-00:00",
        "included_in_blocks":
          [ "BLNv1xSgMakLJVMZEaPX2xsJCE2x9bGZogmhnquYad5VpEwDTZM" ] },
      { "delegate": "tz3ZbP2pM3nwvXztbuMJwJnDvV5xdpU8UkkD",
        "reception_time": "2022-01-18T05:33:56.937-00:00",
        "included_in_blocks":
          [ "BLNv1xSgMakLJVMZEaPX2xsJCE2x9bGZogmhnquYad5VpEwDTZM" ] },
      { "delegate": "tz3adcvQaKXTCg12zbninqo3q8ptKKtDFTLv",
        "reception_time": "2022-01-18T05:33:57.033-00:00",
        "included_in_blocks":
          [ "BLNv1xSgMakLJVMZEaPX2xsJCE2x9bGZogmhnquYad5VpEwDTZM" ] },
      { "delegate": "tz3RB4aoyjov4KEVRbuhvQ1CKJgBJMWhaeB8",
        "reception_time": "2022-01-18T05:33:56.925-00:00",
        "included_in_blocks":
          [ "BLNv1xSgMakLJVMZEaPX2xsJCE2x9bGZogmhnquYad5VpEwDTZM" ] },
      { "delegate": "tz1ajgycuHmd2z2JbTSJxKv7x6cok2KuNSk1",
        "reception_time": "2022-01-18T05:33:56.898-00:00",
        "included_in_blocks":
          [ "BLNv1xSgMakLJVMZEaPX2xsJCE2x9bGZogmhnquYad5VpEwDTZM" ] },
      { "delegate": "tz1fPKAtsYydh4f1wfWNfeNxWYu72TmM48fu",
        "reception_time": "2022-01-18T05:33:56.839-00:00",
        "included_in_blocks":
          [ "BLNv1xSgMakLJVMZEaPX2xsJCE2x9bGZogmhnquYad5VpEwDTZM" ] },
      { "delegate": "tz1fUjvVhJrHLZCbhPNvDRckxApqbkievJHN",
        "reception_time": "2022-01-18T05:33:56.685-00:00",
        "included_in_blocks":
          [ "BLNv1xSgMakLJVMZEaPX2xsJCE2x9bGZogmhnquYad5VpEwDTZM" ] },
      { "delegate": "tz1WCd2jm4uSt4vntk4vSuUWoZQGhLcDuR9q",
        "reception_time": "2022-01-18T05:33:56.548-00:00",
        "included_in_blocks":
          [ "BLNv1xSgMakLJVMZEaPX2xsJCE2x9bGZogmhnquYad5VpEwDTZM" ] },
      { "delegate": "tz1VmiY38m3y95HqQLjMwqnMS7sdMfGomzKi",
        "reception_time": "2022-01-18T05:33:56.573-00:00",
        "included_in_blocks":
          [ "BLNv1xSgMakLJVMZEaPX2xsJCE2x9bGZogmhnquYad5VpEwDTZM" ] },
      { "delegate": "tz3S6BBeKgJGXxvLyZ1xzXzMPn11nnFtq5L9",
        "reception_time": "2022-01-18T05:33:56.510-00:00",
        "included_in_blocks":
          [ "BLNv1xSgMakLJVMZEaPX2xsJCE2x9bGZogmhnquYad5VpEwDTZM" ] },
      { "delegate": "tz3QT9dHYKDqh563chVa6za8526ys1UKfRfL",
        "reception_time": "2022-01-18T05:33:56.499-00:00",
        "included_in_blocks":
          [ "BLNv1xSgMakLJVMZEaPX2xsJCE2x9bGZogmhnquYad5VpEwDTZM" ] },
      { "delegate": "tz3Zhs2dygr55yHyQyKjntAtY9bgfhLZ4Xj1",
        "reception_time": "2022-01-18T05:33:56.398-00:00",
        "included_in_blocks":
          [ "BLNv1xSgMakLJVMZEaPX2xsJCE2x9bGZogmhnquYad5VpEwDTZM" ] },
      { "delegate": "tz3QSGPoRp3Kn7n3vY24eYeu3Peuqo45LQ4D",
        "reception_time": "2022-01-18T05:33:56.413-00:00",
        "included_in_blocks":
          [ "BLNv1xSgMakLJVMZEaPX2xsJCE2x9bGZogmhnquYad5VpEwDTZM" ] },
      { "delegate": "tz3gtoUxdudfBRcNY7iVdKPHCYYX6xdPpoRS",
        "reception_time": "2022-01-18T05:33:56.419-00:00",
        "included_in_blocks":
          [ "BLNv1xSgMakLJVMZEaPX2xsJCE2x9bGZogmhnquYad5VpEwDTZM" ] },
      { "delegate": "tz1Ldzz6k1BHdhuKvAtMRX7h5kJSMHESMHLC",
        "reception_time": "2022-01-18T05:33:56.437-00:00",
        "included_in_blocks":
          [ "BLNv1xSgMakLJVMZEaPX2xsJCE2x9bGZogmhnquYad5VpEwDTZM" ] },
      { "delegate": "tz1VQnqCCqX4K5sP3FNkVSNKTdCAMJDd3E1n",
        "reception_time": "2022-01-18T05:33:56.433-00:00",
        "included_in_blocks":
          [ "BLNv1xSgMakLJVMZEaPX2xsJCE2x9bGZogmhnquYad5VpEwDTZM" ] },
      { "delegate": "tz3iJu5vrKZcsqRPs8yJ61UDoeEXZmtro4qh",
        "reception_time": "2022-01-18T05:33:56.429-00:00",
        "included_in_blocks":
          [ "BLNv1xSgMakLJVMZEaPX2xsJCE2x9bGZogmhnquYad5VpEwDTZM" ] },
      { "delegate": "tz1aXD7Jigrt3PBYSpHSg5Rr33SexMmmM5Ys",
        "reception_time": "2022-01-18T05:33:56.460-00:00",
        "included_in_blocks":
          [ "BLNv1xSgMakLJVMZEaPX2xsJCE2x9bGZogmhnquYad5VpEwDTZM" ] },
      { "delegate": "tz3hw2kqXhLUvY65ca1eety2oQTpAvd34R9Q",
        "reception_time": "2022-01-18T05:33:56.404-00:00",
        "included_in_blocks":
          [ "BLNv1xSgMakLJVMZEaPX2xsJCE2x9bGZogmhnquYad5VpEwDTZM" ] },
      { "delegate": "tz3RKYFsLuQzKBtmYuLNas7uMu3AsYd4QdsA",
        "reception_time": "2022-01-18T05:33:56.385-00:00",
        "included_in_blocks":
          [ "BLNv1xSgMakLJVMZEaPX2xsJCE2x9bGZogmhnquYad5VpEwDTZM" ] },
      { "delegate": "tz1TRspM5SeZpaQUhzByXbEvqKF1vnCM2YTK",
        "reception_time": "2022-01-18T05:33:56.373-00:00",
        "included_in_blocks":
          [ "BLNv1xSgMakLJVMZEaPX2xsJCE2x9bGZogmhnquYad5VpEwDTZM" ] },
      { "delegate": "tz1Scdr2HsZiQjc7bHMeBbmDRXYVvdhjJbBh",
        "reception_time": "2022-01-18T05:33:56.388-00:00",
        "included_in_blocks":
          [ "BLNv1xSgMakLJVMZEaPX2xsJCE2x9bGZogmhnquYad5VpEwDTZM" ] },
      { "delegate": "tz1irJKkXS2DBWkU1NnmFQx1c1L7pbGg4yhk",
        "reception_time": "2022-01-18T05:33:56.391-00:00",
        "included_in_blocks":
          [ "BLNv1xSgMakLJVMZEaPX2xsJCE2x9bGZogmhnquYad5VpEwDTZM" ] } ] }