{ "blocks":
    [ { "hash": "BKnsxx4DfXEP1GZbF7EELALXvzKTVuYxCGZ84x61Worv1x69nSz",
        "delegate": "tz1TRspM5SeZpaQUhzByXbEvqKF1vnCM2YTK",
        "reception_time": "2022-01-18T05:22:24.991-00:00",
        "timestamp": "2022-01-18T05:22:20Z" } ],
  "endorsements":
    [ { "delegate": "tz1ibcPVGK4Y8pcW4BYUsojiHoBKnZbyDGrX" },
      { "delegate": "tz1MXFrtZoaXckE41bjUCSjAjAap3AFDSr3N",
        "reception_time": "2022-01-18T05:22:25.660-00:00",
        "included_in_blocks":
          [ "BLMaqjYYS5TjBvgqgUHmtrtpFQnp6B5J1PV9D4HwyDcedpEPrwi" ] },
      { "delegate": "tz1P2Po7YM526ughEsRbY4oR9zaUPDZjxFrb",
        "reception_time": "2022-01-18T05:22:25.666-00:00",
        "included_in_blocks":
          [ "BLMaqjYYS5TjBvgqgUHmtrtpFQnp6B5J1PV9D4HwyDcedpEPrwi" ] },
      { "delegate": "tz1STeamwbp68THcny9zk3LsbG3H36DMvbRK",
        "reception_time": "2022-01-18T05:22:25.668-00:00",
        "included_in_blocks":
          [ "BLMaqjYYS5TjBvgqgUHmtrtpFQnp6B5J1PV9D4HwyDcedpEPrwi" ] },
      { "delegate": "tz1eEnQhbwf6trb8Q8mPb2RaPkNk2rN7BKi8",
        "reception_time": "2022-01-18T05:22:25.678-00:00",
        "included_in_blocks":
          [ "BLMaqjYYS5TjBvgqgUHmtrtpFQnp6B5J1PV9D4HwyDcedpEPrwi" ] },
      { "delegate": "tz3NxTnke1acr8o3h5y9ytf5awQBGNJUKzVU",
        "reception_time": "2022-01-18T05:22:25.687-00:00",
        "included_in_blocks":
          [ "BLMaqjYYS5TjBvgqgUHmtrtpFQnp6B5J1PV9D4HwyDcedpEPrwi" ] },
      { "delegate": "tz3ZbP2pM3nwvXztbuMJwJnDvV5xdpU8UkkD",
        "reception_time": "2022-01-18T05:22:25.696-00:00",
        "included_in_blocks":
          [ "BLMaqjYYS5TjBvgqgUHmtrtpFQnp6B5J1PV9D4HwyDcedpEPrwi" ] },
      { "delegate": "tz1irJKkXS2DBWkU1NnmFQx1c1L7pbGg4yhk",
        "reception_time": "2022-01-18T05:22:25.696-00:00",
        "included_in_blocks":
          [ "BLMaqjYYS5TjBvgqgUHmtrtpFQnp6B5J1PV9D4HwyDcedpEPrwi" ] },
      { "delegate": "tz1iZEKy4LaAjnTmn2RuGDf2iqdAQKnRi8kY",
        "reception_time": "2022-01-18T05:22:25.700-00:00",
        "included_in_blocks":
          [ "BLMaqjYYS5TjBvgqgUHmtrtpFQnp6B5J1PV9D4HwyDcedpEPrwi" ] },
      { "delegate": "tz1beersuEDv8Z7ngQ825xfbaJNS2EhXnyHR",
        "reception_time": "2022-01-18T05:22:25.704-00:00",
        "included_in_blocks":
          [ "BLMaqjYYS5TjBvgqgUHmtrtpFQnp6B5J1PV9D4HwyDcedpEPrwi" ] },
      { "delegate": "tz3Zhs2dygr55yHyQyKjntAtY9bgfhLZ4Xj1",
        "reception_time": "2022-01-18T05:22:25.754-00:00",
        "included_in_blocks":
          [ "BLMaqjYYS5TjBvgqgUHmtrtpFQnp6B5J1PV9D4HwyDcedpEPrwi" ] },
      { "delegate": "tz3iJu5vrKZcsqRPs8yJ61UDoeEXZmtro4qh",
        "reception_time": "2022-01-18T05:22:25.800-00:00",
        "included_in_blocks":
          [ "BLMaqjYYS5TjBvgqgUHmtrtpFQnp6B5J1PV9D4HwyDcedpEPrwi" ] },
      { "delegate": "tz1Ldzz6k1BHdhuKvAtMRX7h5kJSMHESMHLC",
        "reception_time": "2022-01-18T05:22:25.891-00:00",
        "included_in_blocks":
          [ "BLMaqjYYS5TjBvgqgUHmtrtpFQnp6B5J1PV9D4HwyDcedpEPrwi" ] },
      { "delegate": "tz3QT9dHYKDqh563chVa6za8526ys1UKfRfL",
        "reception_time": "2022-01-18T05:22:25.928-00:00",
        "included_in_blocks":
          [ "BLMaqjYYS5TjBvgqgUHmtrtpFQnp6B5J1PV9D4HwyDcedpEPrwi" ] },
      { "delegate": "tz3S6BBeKgJGXxvLyZ1xzXzMPn11nnFtq5L9",
        "reception_time": "2022-01-18T05:22:25.950-00:00",
        "included_in_blocks":
          [ "BLMaqjYYS5TjBvgqgUHmtrtpFQnp6B5J1PV9D4HwyDcedpEPrwi" ] },
      { "delegate": "tz3hw2kqXhLUvY65ca1eety2oQTpAvd34R9Q",
        "reception_time": "2022-01-18T05:22:25.995-00:00",
        "included_in_blocks":
          [ "BLMaqjYYS5TjBvgqgUHmtrtpFQnp6B5J1PV9D4HwyDcedpEPrwi" ] },
      { "delegate": "tz3RKYFsLuQzKBtmYuLNas7uMu3AsYd4QdsA",
        "reception_time": "2022-01-18T05:22:26.003-00:00",
        "included_in_blocks":
          [ "BLMaqjYYS5TjBvgqgUHmtrtpFQnp6B5J1PV9D4HwyDcedpEPrwi" ] },
      { "delegate": "tz1TzaNn7wSQSP5gYPXCnNzBCpyMiidCq1PX",
        "reception_time": "2022-01-18T05:22:26.044-00:00",
        "included_in_blocks":
          [ "BLMaqjYYS5TjBvgqgUHmtrtpFQnp6B5J1PV9D4HwyDcedpEPrwi" ] },
      { "delegate": "tz3QSGPoRp3Kn7n3vY24eYeu3Peuqo45LQ4D",
        "reception_time": "2022-01-18T05:22:26.063-00:00",
        "included_in_blocks":
          [ "BLMaqjYYS5TjBvgqgUHmtrtpFQnp6B5J1PV9D4HwyDcedpEPrwi" ] },
      { "delegate": "tz1iPHM2Xx2hwmzcr1EG1zzrV6oKafVoA91m",
        "reception_time": "2022-01-18T05:22:26.087-00:00",
        "included_in_blocks":
          [ "BLMaqjYYS5TjBvgqgUHmtrtpFQnp6B5J1PV9D4HwyDcedpEPrwi" ] },
      { "delegate": "tz3gtoUxdudfBRcNY7iVdKPHCYYX6xdPpoRS",
        "reception_time": "2022-01-18T05:22:26.096-00:00",
        "included_in_blocks":
          [ "BLMaqjYYS5TjBvgqgUHmtrtpFQnp6B5J1PV9D4HwyDcedpEPrwi" ] },
      { "delegate": "tz1WCd2jm4uSt4vntk4vSuUWoZQGhLcDuR9q",
        "reception_time": "2022-01-18T05:22:26.175-00:00",
        "included_in_blocks":
          [ "BLMaqjYYS5TjBvgqgUHmtrtpFQnp6B5J1PV9D4HwyDcedpEPrwi" ] },
      { "delegate": "tz1S8MNvuFEUsWgjHvi3AxibRBf388NhT1q2",
        "reception_time": "2022-01-18T05:22:26.228-00:00",
        "included_in_blocks":
          [ "BLMaqjYYS5TjBvgqgUHmtrtpFQnp6B5J1PV9D4HwyDcedpEPrwi" ] },
      { "delegate": "tz1gfArv665EUkSg2ojMBzcbfwuPxAvqPvjo",
        "reception_time": "2022-01-18T05:22:26.232-00:00",
        "included_in_blocks":
          [ "BLMaqjYYS5TjBvgqgUHmtrtpFQnp6B5J1PV9D4HwyDcedpEPrwi" ] },
      { "delegate": "tz1MQJPGNMijnXnVoBENFz9rUhaPt3S7rWoz",
        "reception_time": "2022-01-18T05:22:26.290-00:00",
        "included_in_blocks":
          [ "BLMaqjYYS5TjBvgqgUHmtrtpFQnp6B5J1PV9D4HwyDcedpEPrwi" ] },
      { "delegate": "tz1VQnqCCqX4K5sP3FNkVSNKTdCAMJDd3E1n",
        "reception_time": "2022-01-18T05:22:26.308-00:00",
        "included_in_blocks":
          [ "BLMaqjYYS5TjBvgqgUHmtrtpFQnp6B5J1PV9D4HwyDcedpEPrwi" ] },
      { "delegate": "tz1h4GUAMweP7SNWzDgvMk3yRCAZyaP1MxZq",
        "reception_time": "2022-01-18T05:22:26.329-00:00",
        "included_in_blocks":
          [ "BLMaqjYYS5TjBvgqgUHmtrtpFQnp6B5J1PV9D4HwyDcedpEPrwi" ] },
      { "delegate": "tz1dNVDWPf3Q59SdJqnjdnu277iyvReiRS9M",
        "reception_time": "2022-01-18T05:22:26.336-00:00",
        "included_in_blocks":
          [ "BLMaqjYYS5TjBvgqgUHmtrtpFQnp6B5J1PV9D4HwyDcedpEPrwi" ] },
      { "delegate": "tz1gUNyn3hmnEWqkusWPzxRaon1cs7ndWh7h",
        "reception_time": "2022-01-18T05:22:26.357-00:00",
        "included_in_blocks":
          [ "BLMaqjYYS5TjBvgqgUHmtrtpFQnp6B5J1PV9D4HwyDcedpEPrwi" ] },
      { "delegate": "tz3bTdwZinP8U1JmSweNzVKhmwafqWmFWRfk",
        "reception_time": "2022-01-18T05:22:26.486-00:00",
        "included_in_blocks":
          [ "BLMaqjYYS5TjBvgqgUHmtrtpFQnp6B5J1PV9D4HwyDcedpEPrwi" ] },
      { "delegate": "tz1MDSg9ycDZmRxDqymSmHsWUgozhTvYskPi",
        "reception_time": "2022-01-18T05:22:26.656-00:00",
        "included_in_blocks":
          [ "BLMaqjYYS5TjBvgqgUHmtrtpFQnp6B5J1PV9D4HwyDcedpEPrwi" ] },
      { "delegate": "tz1WwnreQXXyfeqiffNoh3fkkczxZK51p16T",
        "reception_time": "2022-01-18T05:22:26.662-00:00",
        "included_in_blocks":
          [ "BLMaqjYYS5TjBvgqgUHmtrtpFQnp6B5J1PV9D4HwyDcedpEPrwi" ] },
      { "delegate": "tz1fb7c66UwePkkfDXz4ajFaBP9hVNLdS7JJ",
        "reception_time": "2022-01-18T05:22:26.687-00:00",
        "included_in_blocks":
          [ "BLMaqjYYS5TjBvgqgUHmtrtpFQnp6B5J1PV9D4HwyDcedpEPrwi" ] },
      { "delegate": "tz1c8JTzmA6c7cm6ZmUwR7WES6akdiMa1kwt",
        "reception_time": "2022-01-18T05:22:26.769-00:00",
        "included_in_blocks":
          [ "BLMaqjYYS5TjBvgqgUHmtrtpFQnp6B5J1PV9D4HwyDcedpEPrwi" ] },
      { "delegate": "tz1fwnfJNgiDACshK9avfRfFbMaXrs3ghoJa",
        "reception_time": "2022-01-18T05:22:26.806-00:00",
        "included_in_blocks":
          [ "BLMaqjYYS5TjBvgqgUHmtrtpFQnp6B5J1PV9D4HwyDcedpEPrwi" ] },
      { "delegate": "tz1ei4WtWEMEJekSv8qDnu9PExG6Q8HgRGr3",
        "reception_time": "2022-01-18T05:22:26.823-00:00",
        "included_in_blocks":
          [ "BLMaqjYYS5TjBvgqgUHmtrtpFQnp6B5J1PV9D4HwyDcedpEPrwi" ] },
      { "delegate": "tz1Tnjaxk6tbAeC2TmMApPh8UsrEVQvhHvx5",
        "reception_time": "2022-01-18T05:22:27.018-00:00",
        "included_in_blocks":
          [ "BLMaqjYYS5TjBvgqgUHmtrtpFQnp6B5J1PV9D4HwyDcedpEPrwi" ] },
      { "delegate": "tz1KfEsrtDaA1sX7vdM4qmEPWuSytuqCDp5j",
        "reception_time": "2022-01-18T05:22:27.025-00:00",
        "included_in_blocks":
          [ "BLMaqjYYS5TjBvgqgUHmtrtpFQnp6B5J1PV9D4HwyDcedpEPrwi" ] },
      { "delegate": "tz1SYq214SCBy9naR6cvycQsYcUGpBqQAE8d",
        "reception_time": "2022-01-18T05:22:27.059-00:00",
        "included_in_blocks":
          [ "BLMaqjYYS5TjBvgqgUHmtrtpFQnp6B5J1PV9D4HwyDcedpEPrwi" ] },
      { "delegate": "tz1RCFbB9GpALpsZtu6J58sb74dm8qe6XBzv",
        "reception_time": "2022-01-18T05:22:27.161-00:00",
        "included_in_blocks":
          [ "BLMaqjYYS5TjBvgqgUHmtrtpFQnp6B5J1PV9D4HwyDcedpEPrwi" ] },
      { "delegate": "tz1TRqbYbUf2GyrjErf3hBzgBJPzW8y36qEs",
        "reception_time": "2022-01-18T05:22:27.172-00:00",
        "included_in_blocks":
          [ "BLMaqjYYS5TjBvgqgUHmtrtpFQnp6B5J1PV9D4HwyDcedpEPrwi" ] },
      { "delegate": "tz1RQhNh7iB9CZA7i3ifTWNwiGYVffponfbB",
        "reception_time": "2022-01-18T05:22:27.176-00:00",
        "included_in_blocks":
          [ "BLMaqjYYS5TjBvgqgUHmtrtpFQnp6B5J1PV9D4HwyDcedpEPrwi" ] },
      { "delegate": "tz3gLTu4Yxj8tPAcriQVUdxv6BY9QyvzU1az",
        "reception_time": "2022-01-18T05:22:27.243-00:00",
        "included_in_blocks":
          [ "BLMaqjYYS5TjBvgqgUHmtrtpFQnp6B5J1PV9D4HwyDcedpEPrwi" ] },
      { "delegate": "tz2FCNBrERXtaTtNX6iimR1UJ5JSDxvdHM93",
        "reception_time": "2022-01-18T05:22:27.284-00:00",
        "included_in_blocks":
          [ "BLMaqjYYS5TjBvgqgUHmtrtpFQnp6B5J1PV9D4HwyDcedpEPrwi" ] },
      { "delegate": "tz1WctSwL49BZtdWAQ75NY6vr4xsAx6oKdah",
        "reception_time": "2022-01-18T05:22:27.339-00:00",
        "included_in_blocks":
          [ "BLMaqjYYS5TjBvgqgUHmtrtpFQnp6B5J1PV9D4HwyDcedpEPrwi" ] },
      { "delegate": "tz1cYufsxHXJcvANhvS55h3aY32a9BAFB494",
        "reception_time": "2022-01-18T05:22:27.468-00:00",
        "included_in_blocks":
          [ "BLMaqjYYS5TjBvgqgUHmtrtpFQnp6B5J1PV9D4HwyDcedpEPrwi" ] },
      { "delegate": "tz1NEKxGEHsFufk87CVZcrqWu8o22qh46GK6",
        "reception_time": "2022-01-18T05:22:27.496-00:00",
        "included_in_blocks":
          [ "BLMaqjYYS5TjBvgqgUHmtrtpFQnp6B5J1PV9D4HwyDcedpEPrwi" ] },
      { "delegate": "tz1aRoaRhSpRYvFdyvgWLL6TGyRoGF51wDjM",
        "reception_time": "2022-01-18T05:22:27.506-00:00",
        "included_in_blocks":
          [ "BLMaqjYYS5TjBvgqgUHmtrtpFQnp6B5J1PV9D4HwyDcedpEPrwi" ] },
      { "delegate": "tz3VEZ4k6a4Wx42iyev6i2aVAptTRLEAivNN",
        "reception_time": "2022-01-18T05:22:27.624-00:00",
        "included_in_blocks":
          [ "BLMaqjYYS5TjBvgqgUHmtrtpFQnp6B5J1PV9D4HwyDcedpEPrwi" ] },
      { "delegate": "tz1Nf6tsK4G6bBqgSQERy4nUtkHNKUVdh7q1",
        "reception_time": "2022-01-18T05:22:27.659-00:00",
        "included_in_blocks":
          [ "BLMaqjYYS5TjBvgqgUHmtrtpFQnp6B5J1PV9D4HwyDcedpEPrwi" ] },
      { "delegate": "tz3RB4aoyjov4KEVRbuhvQ1CKJgBJMWhaeB8",
        "reception_time": "2022-01-18T05:22:27.711-00:00",
        "included_in_blocks":
          [ "BLMaqjYYS5TjBvgqgUHmtrtpFQnp6B5J1PV9D4HwyDcedpEPrwi" ] },
      { "delegate": "tz3RDC3Jdn4j15J7bBHZd29EUee9gVB1CxD9",
        "reception_time": "2022-01-18T05:22:27.787-00:00",
        "included_in_blocks":
          [ "BLMaqjYYS5TjBvgqgUHmtrtpFQnp6B5J1PV9D4HwyDcedpEPrwi" ] },
      { "delegate": "tz3bvNMQ95vfAYtG8193ymshqjSvmxiCUuR5",
        "reception_time": "2022-01-18T05:22:27.795-00:00",
        "included_in_blocks":
          [ "BLMaqjYYS5TjBvgqgUHmtrtpFQnp6B5J1PV9D4HwyDcedpEPrwi" ] },
      { "delegate": "tz1dKRZVcmJBVNvaAueUmqX42vVEaLb2MbA6",
        "reception_time": "2022-01-18T05:22:27.800-00:00",
        "included_in_blocks":
          [ "BLMaqjYYS5TjBvgqgUHmtrtpFQnp6B5J1PV9D4HwyDcedpEPrwi" ] },
      { "delegate": "tz1awXW7wuXy21c66vBudMXQVAPgRnqqwgTH",
        "reception_time": "2022-01-18T05:22:27.804-00:00",
        "included_in_blocks":
          [ "BLMaqjYYS5TjBvgqgUHmtrtpFQnp6B5J1PV9D4HwyDcedpEPrwi" ] },
      { "delegate": "tz1RjoHc98dBoqaH2jawF62XNKh7YsHwbkEv",
        "reception_time": "2022-01-18T05:22:27.972-00:00",
        "included_in_blocks":
          [ "BLMaqjYYS5TjBvgqgUHmtrtpFQnp6B5J1PV9D4HwyDcedpEPrwi" ] },
      { "delegate": "tz3UoffC7FG7zfpmvmjUmUeAaHvzdcUvAj6r",
        "reception_time": "2022-01-18T05:22:28.459-00:00",
        "included_in_blocks":
          [ "BLMaqjYYS5TjBvgqgUHmtrtpFQnp6B5J1PV9D4HwyDcedpEPrwi" ] },
      { "delegate": "tz1T7duV5gZWSTq4YpBGbXNLTfznCLDrFxvs",
        "reception_time": "2022-01-18T05:22:28.463-00:00",
        "included_in_blocks":
          [ "BLMaqjYYS5TjBvgqgUHmtrtpFQnp6B5J1PV9D4HwyDcedpEPrwi" ] },
      { "delegate": "tz1dRKU4FQ9QRRQPdaH4zCR6gmCmXfcvcgtB",
        "reception_time": "2022-01-18T05:22:28.479-00:00",
        "included_in_blocks":
          [ "BLMaqjYYS5TjBvgqgUHmtrtpFQnp6B5J1PV9D4HwyDcedpEPrwi" ] },
      { "delegate": "tz3NExpXn9aPNZPorRE4SdjJ2RGrfbJgMAaV",
        "reception_time": "2022-01-18T05:22:28.496-00:00",
        "included_in_blocks":
          [ "BLMaqjYYS5TjBvgqgUHmtrtpFQnp6B5J1PV9D4HwyDcedpEPrwi" ] },
      { "delegate": "tz1acZQd7TdfoiUnD2czHnTHB2TaJQP6gdqo",
        "reception_time": "2022-01-18T05:22:29.134-00:00",
        "included_in_blocks":
          [ "BLMaqjYYS5TjBvgqgUHmtrtpFQnp6B5J1PV9D4HwyDcedpEPrwi" ] },
      { "delegate": "tz1eVaNx3gCmG1EsLjijkmgAxdLYVf6Bf5Sq",
        "reception_time": "2022-01-18T05:22:29.961-00:00",
        "included_in_blocks":
          [ "BLMaqjYYS5TjBvgqgUHmtrtpFQnp6B5J1PV9D4HwyDcedpEPrwi" ] },
      { "delegate": "tz1NpWrAyDL9k2Lmnyxcgr9xuJakbBxdq7FB",
        "reception_time": "2022-01-18T05:22:32.018-00:00",
        "included_in_blocks":
          [ "BLMaqjYYS5TjBvgqgUHmtrtpFQnp6B5J1PV9D4HwyDcedpEPrwi" ] } ] }