{ "blocks":
    [ { "hash": "BL3cBbi8Fv6KNiNanRMjDx6Lr3hN9ZAdQYWLsvBFkR2H7DW3tAZ",
        "delegate": "tz3gtoUxdudfBRcNY7iVdKPHCYYX6xdPpoRS",
        "reception_time": "2022-01-18T03:44:56.068-00:00",
        "timestamp": "2022-01-18T03:44:50Z" } ],
  "endorsements":
    [ { "delegate": "tz3QSGPoRp3Kn7n3vY24eYeu3Peuqo45LQ4D",
        "reception_time": "2022-01-18T03:44:55.980-00:00",
        "errors":
          [ { "kind": "temporary",
              "id": "proto.011-PtHangz2.prefilter.outdated_endorsement" } ],
        "included_in_blocks":
          [ "BM9MnU5PV4Q6YEQt2H2CoRhsgQ4rkWAktiwMeqX8WwXR2WmaAmm" ] },
      { "delegate": "tz1STeamwbp68THcny9zk3LsbG3H36DMvbRK",
        "reception_time": "2022-01-18T03:44:55.962-00:00",
        "errors":
          [ { "kind": "temporary",
              "id": "proto.011-PtHangz2.prefilter.outdated_endorsement" } ],
        "included_in_blocks":
          [ "BM9MnU5PV4Q6YEQt2H2CoRhsgQ4rkWAktiwMeqX8WwXR2WmaAmm" ] },
      { "delegate": "tz1TXzyaKUA8wsWefdSnyaYFnV2M3vCV7er9",
        "reception_time": "2022-01-18T03:44:55.819-00:00",
        "errors":
          [ { "kind": "temporary",
              "id": "proto.011-PtHangz2.prefilter.outdated_endorsement" } ],
        "included_in_blocks":
          [ "BM9MnU5PV4Q6YEQt2H2CoRhsgQ4rkWAktiwMeqX8WwXR2WmaAmm" ] },
      { "delegate": "tz1RV1MBbZMR68tacosb7Mwj6LkbPSUS1er1",
        "reception_time": "2022-01-18T03:44:55.814-00:00",
        "errors":
          [ { "kind": "temporary",
              "id": "proto.011-PtHangz2.prefilter.outdated_endorsement" } ],
        "included_in_blocks":
          [ "BM9MnU5PV4Q6YEQt2H2CoRhsgQ4rkWAktiwMeqX8WwXR2WmaAmm" ] },
      { "delegate": "tz1eEnQhbwf6trb8Q8mPb2RaPkNk2rN7BKi8",
        "reception_time": "2022-01-18T03:44:55.682-00:00",
        "errors":
          [ { "kind": "temporary",
              "id": "proto.011-PtHangz2.prefilter.outdated_endorsement" } ],
        "included_in_blocks":
          [ "BM9MnU5PV4Q6YEQt2H2CoRhsgQ4rkWAktiwMeqX8WwXR2WmaAmm" ] },
      { "delegate": "tz1P2Po7YM526ughEsRbY4oR9zaUPDZjxFrb",
        "reception_time": "2022-01-18T03:44:55.608-00:00",
        "errors":
          [ { "kind": "temporary",
              "id": "proto.011-PtHangz2.prefilter.outdated_endorsement" } ],
        "included_in_blocks":
          [ "BM9MnU5PV4Q6YEQt2H2CoRhsgQ4rkWAktiwMeqX8WwXR2WmaAmm" ] },
      { "delegate": "tz1Scdr2HsZiQjc7bHMeBbmDRXYVvdhjJbBh",
        "reception_time": "2022-01-18T03:44:55.599-00:00",
        "errors":
          [ { "kind": "temporary",
              "id": "proto.011-PtHangz2.prefilter.outdated_endorsement" } ],
        "included_in_blocks":
          [ "BM9MnU5PV4Q6YEQt2H2CoRhsgQ4rkWAktiwMeqX8WwXR2WmaAmm" ] },
      { "delegate": "tz1S8e9GgdZG78XJRB3NqabfWeM37GnhZMWQ",
        "reception_time": "2022-01-18T03:44:55.196-00:00",
        "errors":
          [ { "kind": "temporary",
              "id": "proto.011-PtHangz2.prefilter.outdated_endorsement" } ],
        "included_in_blocks":
          [ "BM9MnU5PV4Q6YEQt2H2CoRhsgQ4rkWAktiwMeqX8WwXR2WmaAmm" ] },
      { "delegate": "tz1ZdSQibskQwRdiaFUh7RUVm1Z6xudMedoj",
        "reception_time": "2022-01-18T03:45:02.504-00:00",
        "included_in_blocks":
          [ "BM9MnU5PV4Q6YEQt2H2CoRhsgQ4rkWAktiwMeqX8WwXR2WmaAmm" ] },
      { "delegate": "tz1NpWrAyDL9k2Lmnyxcgr9xuJakbBxdq7FB",
        "reception_time": "2022-01-18T03:45:01.991-00:00",
        "included_in_blocks":
          [ "BM9MnU5PV4Q6YEQt2H2CoRhsgQ4rkWAktiwMeqX8WwXR2WmaAmm" ] },
      { "delegate": "tz1dfg9PkvRLf7hKMmGdGRhXWCbd8QgbwBF7",
        "reception_time": "2022-01-18T03:45:01.811-00:00",
        "included_in_blocks":
          [ "BM9MnU5PV4Q6YEQt2H2CoRhsgQ4rkWAktiwMeqX8WwXR2WmaAmm" ] },
      { "delegate": "tz1ZcTRk5uxD86EFEn1vvNffWWqJy7q5eVhc",
        "reception_time": "2022-01-18T03:44:59.398-00:00",
        "included_in_blocks":
          [ "BM9MnU5PV4Q6YEQt2H2CoRhsgQ4rkWAktiwMeqX8WwXR2WmaAmm" ] },
      { "delegate": "tz3NExpXn9aPNZPorRE4SdjJ2RGrfbJgMAaV",
        "reception_time": "2022-01-18T03:44:59.350-00:00",
        "included_in_blocks":
          [ "BM9MnU5PV4Q6YEQt2H2CoRhsgQ4rkWAktiwMeqX8WwXR2WmaAmm" ] },
      { "delegate": "tz3UoffC7FG7zfpmvmjUmUeAaHvzdcUvAj6r",
        "reception_time": "2022-01-18T03:44:59.261-00:00",
        "included_in_blocks":
          [ "BM9MnU5PV4Q6YEQt2H2CoRhsgQ4rkWAktiwMeqX8WwXR2WmaAmm" ] },
      { "delegate": "tz3WMqdzXqRWXwyvj5Hp2H7QEepaUuS7vd9K",
        "reception_time": "2022-01-18T03:44:59.292-00:00",
        "included_in_blocks":
          [ "BM9MnU5PV4Q6YEQt2H2CoRhsgQ4rkWAktiwMeqX8WwXR2WmaAmm" ] },
      { "delegate": "tz1XhnCdVENzgko5x1MMswLHSoQbJ5NPwLZ6",
        "reception_time": "2022-01-18T03:44:59.096-00:00",
        "included_in_blocks":
          [ "BM9MnU5PV4Q6YEQt2H2CoRhsgQ4rkWAktiwMeqX8WwXR2WmaAmm" ] },
      { "delegate": "tz1RjoHc98dBoqaH2jawF62XNKh7YsHwbkEv",
        "reception_time": "2022-01-18T03:44:59.049-00:00",
        "included_in_blocks":
          [ "BM9MnU5PV4Q6YEQt2H2CoRhsgQ4rkWAktiwMeqX8WwXR2WmaAmm" ] },
      { "delegate": "tz3bvNMQ95vfAYtG8193ymshqjSvmxiCUuR5",
        "reception_time": "2022-01-18T03:44:58.796-00:00",
        "included_in_blocks":
          [ "BM9MnU5PV4Q6YEQt2H2CoRhsgQ4rkWAktiwMeqX8WwXR2WmaAmm" ] },
      { "delegate": "tz1dRKU4FQ9QRRQPdaH4zCR6gmCmXfcvcgtB",
        "reception_time": "2022-01-18T03:44:58.917-00:00",
        "included_in_blocks":
          [ "BM9MnU5PV4Q6YEQt2H2CoRhsgQ4rkWAktiwMeqX8WwXR2WmaAmm" ] },
      { "delegate": "tz1cYufsxHXJcvANhvS55h3aY32a9BAFB494",
        "reception_time": "2022-01-18T03:44:58.636-00:00",
        "included_in_blocks":
          [ "BM9MnU5PV4Q6YEQt2H2CoRhsgQ4rkWAktiwMeqX8WwXR2WmaAmm" ] },
      { "delegate": "tz1Q8QkSBS63ZQnH3fBTiAMPes9R666Rn6Sc",
        "reception_time": "2022-01-18T03:44:58.492-00:00",
        "included_in_blocks":
          [ "BM9MnU5PV4Q6YEQt2H2CoRhsgQ4rkWAktiwMeqX8WwXR2WmaAmm" ] },
      { "delegate": "tz3RB4aoyjov4KEVRbuhvQ1CKJgBJMWhaeB8",
        "reception_time": "2022-01-18T03:44:58.404-00:00",
        "included_in_blocks":
          [ "BM9MnU5PV4Q6YEQt2H2CoRhsgQ4rkWAktiwMeqX8WwXR2WmaAmm" ] },
      { "delegate": "tz3VEZ4k6a4Wx42iyev6i2aVAptTRLEAivNN",
        "reception_time": "2022-01-18T03:44:58.704-00:00",
        "included_in_blocks":
          [ "BM9MnU5PV4Q6YEQt2H2CoRhsgQ4rkWAktiwMeqX8WwXR2WmaAmm" ] },
      { "delegate": "tz1NEKxGEHsFufk87CVZcrqWu8o22qh46GK6",
        "reception_time": "2022-01-18T03:44:58.349-00:00",
        "included_in_blocks":
          [ "BM9MnU5PV4Q6YEQt2H2CoRhsgQ4rkWAktiwMeqX8WwXR2WmaAmm" ] },
      { "delegate": "tz3RDC3Jdn4j15J7bBHZd29EUee9gVB1CxD9",
        "reception_time": "2022-01-18T03:44:58.390-00:00",
        "included_in_blocks":
          [ "BM9MnU5PV4Q6YEQt2H2CoRhsgQ4rkWAktiwMeqX8WwXR2WmaAmm" ] },
      { "delegate": "tz1T7duV5gZWSTq4YpBGbXNLTfznCLDrFxvs",
        "reception_time": "2022-01-18T03:44:58.081-00:00",
        "included_in_blocks":
          [ "BM9MnU5PV4Q6YEQt2H2CoRhsgQ4rkWAktiwMeqX8WwXR2WmaAmm" ] },
      { "delegate": "tz1g8vkmcde6sWKaG2NN9WKzCkDM6Rziq194",
        "reception_time": "2022-01-18T03:44:58.064-00:00",
        "included_in_blocks":
          [ "BM9MnU5PV4Q6YEQt2H2CoRhsgQ4rkWAktiwMeqX8WwXR2WmaAmm" ] },
      { "delegate": "tz1Nf6tsK4G6bBqgSQERy4nUtkHNKUVdh7q1",
        "reception_time": "2022-01-18T03:44:57.963-00:00",
        "included_in_blocks":
          [ "BM9MnU5PV4Q6YEQt2H2CoRhsgQ4rkWAktiwMeqX8WwXR2WmaAmm" ] },
      { "delegate": "tz1SYq214SCBy9naR6cvycQsYcUGpBqQAE8d",
        "reception_time": "2022-01-18T03:44:58.117-00:00",
        "included_in_blocks":
          [ "BM9MnU5PV4Q6YEQt2H2CoRhsgQ4rkWAktiwMeqX8WwXR2WmaAmm" ] },
      { "delegate": "tz1WBfwbT66FC6BTLexc2BoyCCBM9LG7pnVW",
        "reception_time": "2022-01-18T03:44:57.925-00:00",
        "included_in_blocks":
          [ "BM9MnU5PV4Q6YEQt2H2CoRhsgQ4rkWAktiwMeqX8WwXR2WmaAmm" ] },
      { "delegate": "tz3NDpRj6WBrJPikcPVHRBEjWKxFw3c6eQPS",
        "reception_time": "2022-01-18T03:44:57.886-00:00",
        "included_in_blocks":
          [ "BM9MnU5PV4Q6YEQt2H2CoRhsgQ4rkWAktiwMeqX8WwXR2WmaAmm" ] },
      { "delegate": "tz1KfEsrtDaA1sX7vdM4qmEPWuSytuqCDp5j",
        "reception_time": "2022-01-18T03:44:58.068-00:00",
        "included_in_blocks":
          [ "BM9MnU5PV4Q6YEQt2H2CoRhsgQ4rkWAktiwMeqX8WwXR2WmaAmm" ] },
      { "delegate": "tz1TRqbYbUf2GyrjErf3hBzgBJPzW8y36qEs",
        "reception_time": "2022-01-18T03:44:57.915-00:00",
        "included_in_blocks":
          [ "BM9MnU5PV4Q6YEQt2H2CoRhsgQ4rkWAktiwMeqX8WwXR2WmaAmm" ] },
      { "delegate": "tz1gfArv665EUkSg2ojMBzcbfwuPxAvqPvjo",
        "reception_time": "2022-01-18T03:44:57.803-00:00",
        "included_in_blocks":
          [ "BM9MnU5PV4Q6YEQt2H2CoRhsgQ4rkWAktiwMeqX8WwXR2WmaAmm" ] },
      { "delegate": "tz1Tnjaxk6tbAeC2TmMApPh8UsrEVQvhHvx5",
        "reception_time": "2022-01-18T03:44:57.826-00:00",
        "included_in_blocks":
          [ "BM9MnU5PV4Q6YEQt2H2CoRhsgQ4rkWAktiwMeqX8WwXR2WmaAmm" ] },
      { "delegate": "tz1V4qCyvPKZ5UeqdH14HN42rxvNPQfc9UZg",
        "reception_time": "2022-01-18T03:44:57.718-00:00",
        "included_in_blocks":
          [ "BM9MnU5PV4Q6YEQt2H2CoRhsgQ4rkWAktiwMeqX8WwXR2WmaAmm" ] },
      { "delegate": "tz1aRoaRhSpRYvFdyvgWLL6TGyRoGF51wDjM",
        "reception_time": "2022-01-18T03:44:58.844-00:00",
        "included_in_blocks":
          [ "BM9MnU5PV4Q6YEQt2H2CoRhsgQ4rkWAktiwMeqX8WwXR2WmaAmm" ] },
      { "delegate": "tz1ei4WtWEMEJekSv8qDnu9PExG6Q8HgRGr3",
        "reception_time": "2022-01-18T03:44:57.722-00:00",
        "included_in_blocks":
          [ "BM9MnU5PV4Q6YEQt2H2CoRhsgQ4rkWAktiwMeqX8WwXR2WmaAmm" ] },
      { "delegate": "tz2FCNBrERXtaTtNX6iimR1UJ5JSDxvdHM93",
        "reception_time": "2022-01-18T03:44:57.775-00:00",
        "included_in_blocks":
          [ "BM9MnU5PV4Q6YEQt2H2CoRhsgQ4rkWAktiwMeqX8WwXR2WmaAmm" ] },
      { "delegate": "tz1hAYfexyzPGG6RhZZMpDvAHifubsbb6kgn",
        "reception_time": "2022-01-18T03:44:57.602-00:00",
        "included_in_blocks":
          [ "BM9MnU5PV4Q6YEQt2H2CoRhsgQ4rkWAktiwMeqX8WwXR2WmaAmm" ] },
      { "delegate": "tz1YhNsiRRU8aHNGg7NK3uuP6UDAyacJernB",
        "reception_time": "2022-01-18T03:44:57.712-00:00",
        "included_in_blocks":
          [ "BM9MnU5PV4Q6YEQt2H2CoRhsgQ4rkWAktiwMeqX8WwXR2WmaAmm" ] },
      { "delegate": "tz1MJx9vhaNRSimcuXPK2rW4fLccQnDAnVKJ",
        "reception_time": "2022-01-18T03:44:57.599-00:00",
        "included_in_blocks":
          [ "BM9MnU5PV4Q6YEQt2H2CoRhsgQ4rkWAktiwMeqX8WwXR2WmaAmm" ] },
      { "delegate": "tz1S8MNvuFEUsWgjHvi3AxibRBf388NhT1q2",
        "reception_time": "2022-01-18T03:44:57.769-00:00",
        "included_in_blocks":
          [ "BM9MnU5PV4Q6YEQt2H2CoRhsgQ4rkWAktiwMeqX8WwXR2WmaAmm" ] },
      { "delegate": "tz1W3VYi3gSt9Xgfw6WNV1aGZRPH2BsskMEY",
        "reception_time": "2022-01-18T03:44:57.671-00:00",
        "included_in_blocks":
          [ "BM9MnU5PV4Q6YEQt2H2CoRhsgQ4rkWAktiwMeqX8WwXR2WmaAmm" ] },
      { "delegate": "tz3bTdwZinP8U1JmSweNzVKhmwafqWmFWRfk",
        "reception_time": "2022-01-18T03:44:57.689-00:00",
        "included_in_blocks":
          [ "BM9MnU5PV4Q6YEQt2H2CoRhsgQ4rkWAktiwMeqX8WwXR2WmaAmm" ] },
      { "delegate": "tz1RCFbB9GpALpsZtu6J58sb74dm8qe6XBzv",
        "reception_time": "2022-01-18T03:44:57.643-00:00",
        "included_in_blocks":
          [ "BM9MnU5PV4Q6YEQt2H2CoRhsgQ4rkWAktiwMeqX8WwXR2WmaAmm" ] },
      { "delegate": "tz1dwu9aYb7CRNq4Y2zAjipdjFuSVKhHS8vA",
        "reception_time": "2022-01-18T03:44:57.590-00:00",
        "included_in_blocks":
          [ "BM9MnU5PV4Q6YEQt2H2CoRhsgQ4rkWAktiwMeqX8WwXR2WmaAmm" ] },
      { "delegate": "tz1d6Fx42mYgVFnHUW8T8A7WBfJ6nD9pVok8",
        "reception_time": "2022-01-18T03:44:57.636-00:00",
        "included_in_blocks":
          [ "BM9MnU5PV4Q6YEQt2H2CoRhsgQ4rkWAktiwMeqX8WwXR2WmaAmm" ] },
      { "delegate": "tz3iJu5vrKZcsqRPs8yJ61UDoeEXZmtro4qh",
        "reception_time": "2022-01-18T03:44:57.459-00:00",
        "included_in_blocks":
          [ "BM9MnU5PV4Q6YEQt2H2CoRhsgQ4rkWAktiwMeqX8WwXR2WmaAmm" ] },
      { "delegate": "tz1WCd2jm4uSt4vntk4vSuUWoZQGhLcDuR9q",
        "reception_time": "2022-01-18T03:44:57.538-00:00",
        "included_in_blocks":
          [ "BM9MnU5PV4Q6YEQt2H2CoRhsgQ4rkWAktiwMeqX8WwXR2WmaAmm" ] },
      { "delegate": "tz1VmiY38m3y95HqQLjMwqnMS7sdMfGomzKi",
        "reception_time": "2022-01-18T03:44:57.531-00:00",
        "included_in_blocks":
          [ "BM9MnU5PV4Q6YEQt2H2CoRhsgQ4rkWAktiwMeqX8WwXR2WmaAmm" ] },
      { "delegate": "tz1aXD7Jigrt3PBYSpHSg5Rr33SexMmmM5Ys",
        "reception_time": "2022-01-18T03:44:57.479-00:00",
        "included_in_blocks":
          [ "BM9MnU5PV4Q6YEQt2H2CoRhsgQ4rkWAktiwMeqX8WwXR2WmaAmm" ] },
      { "delegate": "tz3Zhs2dygr55yHyQyKjntAtY9bgfhLZ4Xj1",
        "reception_time": "2022-01-18T03:44:57.522-00:00",
        "included_in_blocks":
          [ "BM9MnU5PV4Q6YEQt2H2CoRhsgQ4rkWAktiwMeqX8WwXR2WmaAmm" ] },
      { "delegate": "tz3RKYFsLuQzKBtmYuLNas7uMu3AsYd4QdsA",
        "reception_time": "2022-01-18T03:44:57.429-00:00",
        "included_in_blocks":
          [ "BM9MnU5PV4Q6YEQt2H2CoRhsgQ4rkWAktiwMeqX8WwXR2WmaAmm" ] },
      { "delegate": "tz1Kt4P8BCaP93AEV4eA7gmpRryWt5hznjCP",
        "reception_time": "2022-01-18T03:44:57.507-00:00",
        "included_in_blocks":
          [ "BM9MnU5PV4Q6YEQt2H2CoRhsgQ4rkWAktiwMeqX8WwXR2WmaAmm" ] },
      { "delegate": "tz1NMdMmWZN8QPB8pY4ddncACDg1cHi1xD2e",
        "reception_time": "2022-01-18T03:44:57.437-00:00",
        "included_in_blocks":
          [ "BM9MnU5PV4Q6YEQt2H2CoRhsgQ4rkWAktiwMeqX8WwXR2WmaAmm" ] },
      { "delegate": "tz3hw2kqXhLUvY65ca1eety2oQTpAvd34R9Q",
        "reception_time": "2022-01-18T03:44:57.507-00:00",
        "included_in_blocks":
          [ "BM9MnU5PV4Q6YEQt2H2CoRhsgQ4rkWAktiwMeqX8WwXR2WmaAmm" ] },
      { "delegate": "tz1TzaNn7wSQSP5gYPXCnNzBCpyMiidCq1PX",
        "reception_time": "2022-01-18T03:44:57.531-00:00",
        "included_in_blocks":
          [ "BM9MnU5PV4Q6YEQt2H2CoRhsgQ4rkWAktiwMeqX8WwXR2WmaAmm" ] },
      { "delegate": "tz3S6BBeKgJGXxvLyZ1xzXzMPn11nnFtq5L9",
        "reception_time": "2022-01-18T03:44:57.473-00:00",
        "included_in_blocks":
          [ "BM9MnU5PV4Q6YEQt2H2CoRhsgQ4rkWAktiwMeqX8WwXR2WmaAmm" ] },
      { "delegate": "tz1Ldzz6k1BHdhuKvAtMRX7h5kJSMHESMHLC",
        "reception_time": "2022-01-18T03:44:57.493-00:00",
        "included_in_blocks":
          [ "BM9MnU5PV4Q6YEQt2H2CoRhsgQ4rkWAktiwMeqX8WwXR2WmaAmm" ] },
      { "delegate": "tz3QT9dHYKDqh563chVa6za8526ys1UKfRfL",
        "reception_time": "2022-01-18T03:44:57.391-00:00",
        "included_in_blocks":
          [ "BM9MnU5PV4Q6YEQt2H2CoRhsgQ4rkWAktiwMeqX8WwXR2WmaAmm" ] },
      { "delegate": "tz3ZbP2pM3nwvXztbuMJwJnDvV5xdpU8UkkD",
        "reception_time": "2022-01-18T03:44:57.413-00:00",
        "included_in_blocks":
          [ "BM9MnU5PV4Q6YEQt2H2CoRhsgQ4rkWAktiwMeqX8WwXR2WmaAmm" ] },
      { "delegate": "tz1VQnqCCqX4K5sP3FNkVSNKTdCAMJDd3E1n",
        "reception_time": "2022-01-18T03:44:57.479-00:00",
        "included_in_blocks":
          [ "BM9MnU5PV4Q6YEQt2H2CoRhsgQ4rkWAktiwMeqX8WwXR2WmaAmm" ] },
      { "delegate": "tz3gtoUxdudfBRcNY7iVdKPHCYYX6xdPpoRS",
        "reception_time": "2022-01-18T03:44:57.371-00:00",
        "included_in_blocks":
          [ "BM9MnU5PV4Q6YEQt2H2CoRhsgQ4rkWAktiwMeqX8WwXR2WmaAmm" ] },
      { "delegate": "tz1gUNyn3hmnEWqkusWPzxRaon1cs7ndWh7h",
        "reception_time": "2022-01-18T03:44:57.484-00:00",
        "included_in_blocks":
          [ "BM9MnU5PV4Q6YEQt2H2CoRhsgQ4rkWAktiwMeqX8WwXR2WmaAmm" ] },
      { "delegate": "tz3NxTnke1acr8o3h5y9ytf5awQBGNJUKzVU",
        "reception_time": "2022-01-18T03:44:57.402-00:00",
        "included_in_blocks":
          [ "BM9MnU5PV4Q6YEQt2H2CoRhsgQ4rkWAktiwMeqX8WwXR2WmaAmm" ] },
      { "delegate": "tz1TRspM5SeZpaQUhzByXbEvqKF1vnCM2YTK",
        "reception_time": "2022-01-18T03:44:57.514-00:00",
        "included_in_blocks":
          [ "BM9MnU5PV4Q6YEQt2H2CoRhsgQ4rkWAktiwMeqX8WwXR2WmaAmm" ] },
      { "delegate": "tz1irJKkXS2DBWkU1NnmFQx1c1L7pbGg4yhk",
        "reception_time": "2022-01-18T03:44:57.342-00:00",
        "included_in_blocks":
          [ "BM9MnU5PV4Q6YEQt2H2CoRhsgQ4rkWAktiwMeqX8WwXR2WmaAmm" ] } ] }