{ "blocks":
    [ { "hash": "BMEfdMh3iNYBTEFwF7V8z2nmuZ8citbcPodwqCcFeJM6897258n",
        "delegate": "tz1PWCDnz783NNGGQjEFFsHtrcK5yBW4E2rm",
        "reception_time": "2022-01-18T15:33:36.196-00:00",
        "timestamp": "2022-01-18T15:33:30Z" } ],
  "endorsements":
    [ { "delegate": "tz1RV1MBbZMR68tacosb7Mwj6LkbPSUS1er1",
        "reception_time": "2022-01-18T15:33:36.161-00:00",
        "errors":
          [ { "kind": "temporary",
              "id": "proto.011-PtHangz2.prefilter.outdated_endorsement" } ],
        "included_in_blocks":
          [ "BMCoM6FKitGHSnPBiHyAzfYfUmFdvxeq5y43RYCB6GMesP8JV6v" ] },
      { "delegate": "tz1aDiEJf9ztRrAJEXZfcG3CKimoKsGhwVAi",
        "reception_time": "2022-01-18T15:33:36.114-00:00",
        "errors":
          [ { "kind": "temporary",
              "id": "proto.011-PtHangz2.prefilter.outdated_endorsement" } ],
        "included_in_blocks":
          [ "BMCoM6FKitGHSnPBiHyAzfYfUmFdvxeq5y43RYCB6GMesP8JV6v" ] },
      { "delegate": "tz1Scdr2HsZiQjc7bHMeBbmDRXYVvdhjJbBh",
        "reception_time": "2022-01-18T15:33:36.098-00:00",
        "errors":
          [ { "kind": "temporary",
              "id": "proto.011-PtHangz2.prefilter.outdated_endorsement" } ],
        "included_in_blocks":
          [ "BMCoM6FKitGHSnPBiHyAzfYfUmFdvxeq5y43RYCB6GMesP8JV6v" ] },
      { "delegate": "tz1Sy81vSrRCLJrpnsyfVnn5BH6hhiK9vaBK",
        "reception_time": "2022-01-18T15:33:36.088-00:00",
        "errors":
          [ { "kind": "temporary",
              "id": "proto.011-PtHangz2.prefilter.outdated_endorsement" } ],
        "included_in_blocks":
          [ "BMCoM6FKitGHSnPBiHyAzfYfUmFdvxeq5y43RYCB6GMesP8JV6v" ] },
      { "delegate": "tz1eEnQhbwf6trb8Q8mPb2RaPkNk2rN7BKi8",
        "reception_time": "2022-01-18T15:33:36.064-00:00",
        "errors":
          [ { "kind": "temporary",
              "id": "proto.011-PtHangz2.prefilter.outdated_endorsement" } ],
        "included_in_blocks":
          [ "BMCoM6FKitGHSnPBiHyAzfYfUmFdvxeq5y43RYCB6GMesP8JV6v" ] },
      { "delegate": "tz1irJKkXS2DBWkU1NnmFQx1c1L7pbGg4yhk",
        "reception_time": "2022-01-18T15:33:36.041-00:00",
        "errors":
          [ { "kind": "temporary",
              "id": "proto.011-PtHangz2.prefilter.outdated_endorsement" } ],
        "included_in_blocks":
          [ "BMCoM6FKitGHSnPBiHyAzfYfUmFdvxeq5y43RYCB6GMesP8JV6v" ] },
      { "delegate": "tz1beersuEDv8Z7ngQ825xfbaJNS2EhXnyHR",
        "reception_time": "2022-01-18T15:33:36.039-00:00",
        "errors":
          [ { "kind": "temporary",
              "id": "proto.011-PtHangz2.prefilter.outdated_endorsement" } ],
        "included_in_blocks":
          [ "BMCoM6FKitGHSnPBiHyAzfYfUmFdvxeq5y43RYCB6GMesP8JV6v" ] },
      { "delegate": "tz1P2Po7YM526ughEsRbY4oR9zaUPDZjxFrb",
        "reception_time": "2022-01-18T15:33:35.928-00:00",
        "errors":
          [ { "kind": "temporary",
              "id": "proto.011-PtHangz2.prefilter.outdated_endorsement" } ],
        "included_in_blocks":
          [ "BMCoM6FKitGHSnPBiHyAzfYfUmFdvxeq5y43RYCB6GMesP8JV6v" ] },
      { "delegate": "tz1S8e9GgdZG78XJRB3NqabfWeM37GnhZMWQ",
        "reception_time": "2022-01-18T15:33:35.331-00:00",
        "errors":
          [ { "kind": "temporary",
              "id": "proto.011-PtHangz2.prefilter.outdated_endorsement" } ],
        "included_in_blocks":
          [ "BMCoM6FKitGHSnPBiHyAzfYfUmFdvxeq5y43RYCB6GMesP8JV6v" ] },
      { "delegate": "tz1P6WKJu2rcbxKiKRZHKQKmKrpC9TfW1AwM" },
      { "delegate": "tz1cYufsxHXJcvANhvS55h3aY32a9BAFB494" },
      { "delegate": "tz1gUNyn3hmnEWqkusWPzxRaon1cs7ndWh7h",
        "reception_time": "2022-01-18T15:33:37.543-00:00",
        "included_in_blocks":
          [ "BMCoM6FKitGHSnPBiHyAzfYfUmFdvxeq5y43RYCB6GMesP8JV6v" ] },
      { "delegate": "tz1cX93Q3KsiTADpCC4f12TBvAmS5tw7CW19",
        "reception_time": "2022-01-18T15:33:37.547-00:00",
        "included_in_blocks":
          [ "BMCoM6FKitGHSnPBiHyAzfYfUmFdvxeq5y43RYCB6GMesP8JV6v" ] },
      { "delegate": "tz1VQnqCCqX4K5sP3FNkVSNKTdCAMJDd3E1n",
        "reception_time": "2022-01-18T15:33:37.566-00:00",
        "included_in_blocks":
          [ "BMCoM6FKitGHSnPBiHyAzfYfUmFdvxeq5y43RYCB6GMesP8JV6v" ] },
      { "delegate": "tz3RKYFsLuQzKBtmYuLNas7uMu3AsYd4QdsA",
        "reception_time": "2022-01-18T15:33:37.566-00:00",
        "included_in_blocks":
          [ "BMCoM6FKitGHSnPBiHyAzfYfUmFdvxeq5y43RYCB6GMesP8JV6v" ] },
      { "delegate": "tz1Ldzz6k1BHdhuKvAtMRX7h5kJSMHESMHLC",
        "reception_time": "2022-01-18T15:33:37.566-00:00",
        "included_in_blocks":
          [ "BMCoM6FKitGHSnPBiHyAzfYfUmFdvxeq5y43RYCB6GMesP8JV6v" ] },
      { "delegate": "tz3NxTnke1acr8o3h5y9ytf5awQBGNJUKzVU",
        "reception_time": "2022-01-18T15:33:37.571-00:00",
        "included_in_blocks":
          [ "BMCoM6FKitGHSnPBiHyAzfYfUmFdvxeq5y43RYCB6GMesP8JV6v" ] },
      { "delegate": "tz1ZPh7XfUaJXUDvkrBxmS1BjEM1i62hiPpM",
        "reception_time": "2022-01-18T15:33:37.575-00:00",
        "included_in_blocks":
          [ "BMCoM6FKitGHSnPBiHyAzfYfUmFdvxeq5y43RYCB6GMesP8JV6v" ] },
      { "delegate": "tz3gtoUxdudfBRcNY7iVdKPHCYYX6xdPpoRS",
        "reception_time": "2022-01-18T15:33:37.585-00:00",
        "included_in_blocks":
          [ "BMCoM6FKitGHSnPBiHyAzfYfUmFdvxeq5y43RYCB6GMesP8JV6v" ] },
      { "delegate": "tz3hw2kqXhLUvY65ca1eety2oQTpAvd34R9Q",
        "reception_time": "2022-01-18T15:33:37.593-00:00",
        "included_in_blocks":
          [ "BMCoM6FKitGHSnPBiHyAzfYfUmFdvxeq5y43RYCB6GMesP8JV6v" ] },
      { "delegate": "tz3S6BBeKgJGXxvLyZ1xzXzMPn11nnFtq5L9",
        "reception_time": "2022-01-18T15:33:37.609-00:00",
        "included_in_blocks":
          [ "BMCoM6FKitGHSnPBiHyAzfYfUmFdvxeq5y43RYCB6GMesP8JV6v" ] },
      { "delegate": "tz3ZbP2pM3nwvXztbuMJwJnDvV5xdpU8UkkD",
        "reception_time": "2022-01-18T15:33:37.621-00:00",
        "included_in_blocks":
          [ "BMCoM6FKitGHSnPBiHyAzfYfUmFdvxeq5y43RYCB6GMesP8JV6v" ] },
      { "delegate": "tz3RB4aoyjov4KEVRbuhvQ1CKJgBJMWhaeB8",
        "reception_time": "2022-01-18T15:33:37.635-00:00",
        "included_in_blocks":
          [ "BMCoM6FKitGHSnPBiHyAzfYfUmFdvxeq5y43RYCB6GMesP8JV6v" ] },
      { "delegate": "tz1RCFbB9GpALpsZtu6J58sb74dm8qe6XBzv",
        "reception_time": "2022-01-18T15:33:37.661-00:00",
        "included_in_blocks":
          [ "BMCoM6FKitGHSnPBiHyAzfYfUmFdvxeq5y43RYCB6GMesP8JV6v" ] },
      { "delegate": "tz3iJu5vrKZcsqRPs8yJ61UDoeEXZmtro4qh",
        "reception_time": "2022-01-18T15:33:37.670-00:00",
        "included_in_blocks":
          [ "BMCoM6FKitGHSnPBiHyAzfYfUmFdvxeq5y43RYCB6GMesP8JV6v" ] },
      { "delegate": "tz1eDDuQBEgwvc6tbnnCVrnr12tvrd6gBTpx",
        "reception_time": "2022-01-18T15:33:37.679-00:00",
        "included_in_blocks":
          [ "BMCoM6FKitGHSnPBiHyAzfYfUmFdvxeq5y43RYCB6GMesP8JV6v" ] },
      { "delegate": "tz1aXD7Jigrt3PBYSpHSg5Rr33SexMmmM5Ys",
        "reception_time": "2022-01-18T15:33:37.683-00:00",
        "included_in_blocks":
          [ "BMCoM6FKitGHSnPBiHyAzfYfUmFdvxeq5y43RYCB6GMesP8JV6v" ] },
      { "delegate": "tz3QT9dHYKDqh563chVa6za8526ys1UKfRfL",
        "reception_time": "2022-01-18T15:33:37.698-00:00",
        "included_in_blocks":
          [ "BMCoM6FKitGHSnPBiHyAzfYfUmFdvxeq5y43RYCB6GMesP8JV6v" ] },
      { "delegate": "tz3QCNyySViKHmeSr45kzDxzchys7NiXCWoa",
        "reception_time": "2022-01-18T15:33:37.712-00:00",
        "included_in_blocks":
          [ "BMCoM6FKitGHSnPBiHyAzfYfUmFdvxeq5y43RYCB6GMesP8JV6v" ] },
      { "delegate": "tz1YhNsiRRU8aHNGg7NK3uuP6UDAyacJernB",
        "reception_time": "2022-01-18T15:33:37.718-00:00",
        "included_in_blocks":
          [ "BMCoM6FKitGHSnPBiHyAzfYfUmFdvxeq5y43RYCB6GMesP8JV6v" ] },
      { "delegate": "tz1Kf25fX1VdmYGSEzwFy1wNmkbSEZ2V83sY",
        "reception_time": "2022-01-18T15:33:37.734-00:00",
        "included_in_blocks":
          [ "BMCoM6FKitGHSnPBiHyAzfYfUmFdvxeq5y43RYCB6GMesP8JV6v" ] },
      { "delegate": "tz1fPKAtsYydh4f1wfWNfeNxWYu72TmM48fu",
        "reception_time": "2022-01-18T15:33:37.734-00:00",
        "included_in_blocks":
          [ "BMCoM6FKitGHSnPBiHyAzfYfUmFdvxeq5y43RYCB6GMesP8JV6v" ] },
      { "delegate": "tz1gfArv665EUkSg2ojMBzcbfwuPxAvqPvjo",
        "reception_time": "2022-01-18T15:33:37.750-00:00",
        "included_in_blocks":
          [ "BMCoM6FKitGHSnPBiHyAzfYfUmFdvxeq5y43RYCB6GMesP8JV6v" ] },
      { "delegate": "tz3Zhs2dygr55yHyQyKjntAtY9bgfhLZ4Xj1",
        "reception_time": "2022-01-18T15:33:37.759-00:00",
        "included_in_blocks":
          [ "BMCoM6FKitGHSnPBiHyAzfYfUmFdvxeq5y43RYCB6GMesP8JV6v" ] },
      { "delegate": "tz3bTdwZinP8U1JmSweNzVKhmwafqWmFWRfk",
        "reception_time": "2022-01-18T15:33:37.773-00:00",
        "included_in_blocks":
          [ "BMCoM6FKitGHSnPBiHyAzfYfUmFdvxeq5y43RYCB6GMesP8JV6v" ] },
      { "delegate": "tz1g8vkmcde6sWKaG2NN9WKzCkDM6Rziq194",
        "reception_time": "2022-01-18T15:33:37.801-00:00",
        "included_in_blocks":
          [ "BMCoM6FKitGHSnPBiHyAzfYfUmFdvxeq5y43RYCB6GMesP8JV6v" ] },
      { "delegate": "tz1dwu9aYb7CRNq4Y2zAjipdjFuSVKhHS8vA",
        "reception_time": "2022-01-18T15:33:37.805-00:00",
        "included_in_blocks":
          [ "BMCoM6FKitGHSnPBiHyAzfYfUmFdvxeq5y43RYCB6GMesP8JV6v" ] },
      { "delegate": "tz1ei4WtWEMEJekSv8qDnu9PExG6Q8HgRGr3",
        "reception_time": "2022-01-18T15:33:37.815-00:00",
        "included_in_blocks":
          [ "BMCoM6FKitGHSnPBiHyAzfYfUmFdvxeq5y43RYCB6GMesP8JV6v" ] },
      { "delegate": "tz1dNVDWPf3Q59SdJqnjdnu277iyvReiRS9M",
        "reception_time": "2022-01-18T15:33:37.824-00:00",
        "included_in_blocks":
          [ "BMCoM6FKitGHSnPBiHyAzfYfUmFdvxeq5y43RYCB6GMesP8JV6v" ] },
      { "delegate": "tz3RDC3Jdn4j15J7bBHZd29EUee9gVB1CxD9",
        "reception_time": "2022-01-18T15:33:37.835-00:00",
        "included_in_blocks":
          [ "BMCoM6FKitGHSnPBiHyAzfYfUmFdvxeq5y43RYCB6GMesP8JV6v" ] },
      { "delegate": "tz1S8MNvuFEUsWgjHvi3AxibRBf388NhT1q2",
        "reception_time": "2022-01-18T15:33:37.840-00:00",
        "included_in_blocks":
          [ "BMCoM6FKitGHSnPBiHyAzfYfUmFdvxeq5y43RYCB6GMesP8JV6v" ] },
      { "delegate": "tz1WBfwbT66FC6BTLexc2BoyCCBM9LG7pnVW",
        "reception_time": "2022-01-18T15:33:37.843-00:00",
        "included_in_blocks":
          [ "BMCoM6FKitGHSnPBiHyAzfYfUmFdvxeq5y43RYCB6GMesP8JV6v" ] },
      { "delegate": "tz1abmz7jiCV2GH2u81LRrGgAFFgvQgiDiaf",
        "reception_time": "2022-01-18T15:33:37.894-00:00",
        "included_in_blocks":
          [ "BMCoM6FKitGHSnPBiHyAzfYfUmFdvxeq5y43RYCB6GMesP8JV6v" ] },
      { "delegate": "tz1R4PuhxUxBBZhfLJDx2nNjbr7WorAPX1oC",
        "reception_time": "2022-01-18T15:33:37.959-00:00",
        "included_in_blocks":
          [ "BMCoM6FKitGHSnPBiHyAzfYfUmFdvxeq5y43RYCB6GMesP8JV6v" ] },
      { "delegate": "tz1NSDFKuRyzHxpfG1AMkyCwEiZ52cbR2mRW",
        "reception_time": "2022-01-18T15:33:38.030-00:00",
        "included_in_blocks":
          [ "BMCoM6FKitGHSnPBiHyAzfYfUmFdvxeq5y43RYCB6GMesP8JV6v" ] },
      { "delegate": "tz1Tnjaxk6tbAeC2TmMApPh8UsrEVQvhHvx5",
        "reception_time": "2022-01-18T15:33:38.032-00:00",
        "included_in_blocks":
          [ "BMCoM6FKitGHSnPBiHyAzfYfUmFdvxeq5y43RYCB6GMesP8JV6v" ] },
      { "delegate": "tz1axcnVN9tZnCe4sQQhC6f3tfSEXdjPaXPY",
        "reception_time": "2022-01-18T15:33:38.084-00:00",
        "included_in_blocks":
          [ "BMCoM6FKitGHSnPBiHyAzfYfUmFdvxeq5y43RYCB6GMesP8JV6v" ] },
      { "delegate": "tz1KfEsrtDaA1sX7vdM4qmEPWuSytuqCDp5j",
        "reception_time": "2022-01-18T15:33:38.291-00:00",
        "included_in_blocks":
          [ "BMCoM6FKitGHSnPBiHyAzfYfUmFdvxeq5y43RYCB6GMesP8JV6v" ] },
      { "delegate": "tz1Vd1rXpV8hTHbFXCXN3c3qzCsgcU5BZw1e",
        "reception_time": "2022-01-18T15:33:38.342-00:00",
        "included_in_blocks":
          [ "BMCoM6FKitGHSnPBiHyAzfYfUmFdvxeq5y43RYCB6GMesP8JV6v" ] },
      { "delegate": "tz1Nf6tsK4G6bBqgSQERy4nUtkHNKUVdh7q1",
        "reception_time": "2022-01-18T15:33:38.502-00:00",
        "included_in_blocks":
          [ "BMCoM6FKitGHSnPBiHyAzfYfUmFdvxeq5y43RYCB6GMesP8JV6v" ] },
      { "delegate": "tz3NDpRj6WBrJPikcPVHRBEjWKxFw3c6eQPS",
        "reception_time": "2022-01-18T15:33:38.541-00:00",
        "included_in_blocks":
          [ "BMCoM6FKitGHSnPBiHyAzfYfUmFdvxeq5y43RYCB6GMesP8JV6v" ] },
      { "delegate": "tz1RjoHc98dBoqaH2jawF62XNKh7YsHwbkEv",
        "reception_time": "2022-01-18T15:33:38.582-00:00",
        "included_in_blocks":
          [ "BMCoM6FKitGHSnPBiHyAzfYfUmFdvxeq5y43RYCB6GMesP8JV6v" ] },
      { "delegate": "tz1NEKxGEHsFufk87CVZcrqWu8o22qh46GK6",
        "reception_time": "2022-01-18T15:33:38.653-00:00",
        "included_in_blocks":
          [ "BMCoM6FKitGHSnPBiHyAzfYfUmFdvxeq5y43RYCB6GMesP8JV6v" ] },
      { "delegate": "tz1PeZx7FXy7QRuMREGXGxeipb24RsMMzUNe",
        "reception_time": "2022-01-18T15:33:38.676-00:00",
        "included_in_blocks":
          [ "BMCoM6FKitGHSnPBiHyAzfYfUmFdvxeq5y43RYCB6GMesP8JV6v" ] },
      { "delegate": "tz1RpeqCseogMpCPXpyGjhmLH9i9DhqJ8cUR",
        "reception_time": "2022-01-18T15:33:38.699-00:00",
        "included_in_blocks":
          [ "BMCoM6FKitGHSnPBiHyAzfYfUmFdvxeq5y43RYCB6GMesP8JV6v" ] },
      { "delegate": "tz3bvNMQ95vfAYtG8193ymshqjSvmxiCUuR5",
        "reception_time": "2022-01-18T15:33:38.732-00:00",
        "included_in_blocks":
          [ "BMCoM6FKitGHSnPBiHyAzfYfUmFdvxeq5y43RYCB6GMesP8JV6v" ] },
      { "delegate": "tz3VEZ4k6a4Wx42iyev6i2aVAptTRLEAivNN",
        "reception_time": "2022-01-18T15:33:38.852-00:00",
        "included_in_blocks":
          [ "BMCoM6FKitGHSnPBiHyAzfYfUmFdvxeq5y43RYCB6GMesP8JV6v" ] },
      { "delegate": "tz2FCNBrERXtaTtNX6iimR1UJ5JSDxvdHM93",
        "reception_time": "2022-01-18T15:33:38.880-00:00",
        "included_in_blocks":
          [ "BMCoM6FKitGHSnPBiHyAzfYfUmFdvxeq5y43RYCB6GMesP8JV6v" ] },
      { "delegate": "tz1dRKU4FQ9QRRQPdaH4zCR6gmCmXfcvcgtB",
        "reception_time": "2022-01-18T15:33:38.995-00:00",
        "included_in_blocks":
          [ "BMCoM6FKitGHSnPBiHyAzfYfUmFdvxeq5y43RYCB6GMesP8JV6v" ] },
      { "delegate": "tz3WMqdzXqRWXwyvj5Hp2H7QEepaUuS7vd9K",
        "reception_time": "2022-01-18T15:33:39.137-00:00",
        "included_in_blocks":
          [ "BMCoM6FKitGHSnPBiHyAzfYfUmFdvxeq5y43RYCB6GMesP8JV6v" ] },
      { "delegate": "tz1T7duV5gZWSTq4YpBGbXNLTfznCLDrFxvs",
        "reception_time": "2022-01-18T15:33:39.187-00:00",
        "included_in_blocks":
          [ "BMCoM6FKitGHSnPBiHyAzfYfUmFdvxeq5y43RYCB6GMesP8JV6v" ] },
      { "delegate": "tz3UoffC7FG7zfpmvmjUmUeAaHvzdcUvAj6r",
        "reception_time": "2022-01-18T15:33:39.411-00:00",
        "included_in_blocks":
          [ "BMCoM6FKitGHSnPBiHyAzfYfUmFdvxeq5y43RYCB6GMesP8JV6v" ] },
      { "delegate": "tz1ZcTRk5uxD86EFEn1vvNffWWqJy7q5eVhc",
        "reception_time": "2022-01-18T15:33:39.692-00:00",
        "included_in_blocks":
          [ "BMCoM6FKitGHSnPBiHyAzfYfUmFdvxeq5y43RYCB6GMesP8JV6v" ] },
      { "delegate": "tz1aRoaRhSpRYvFdyvgWLL6TGyRoGF51wDjM",
        "reception_time": "2022-01-18T15:33:39.696-00:00",
        "included_in_blocks":
          [ "BMCoM6FKitGHSnPBiHyAzfYfUmFdvxeq5y43RYCB6GMesP8JV6v" ] },
      { "delegate": "tz3NExpXn9aPNZPorRE4SdjJ2RGrfbJgMAaV",
        "reception_time": "2022-01-18T15:33:39.742-00:00",
        "included_in_blocks":
          [ "BMCoM6FKitGHSnPBiHyAzfYfUmFdvxeq5y43RYCB6GMesP8JV6v" ] },
      { "delegate": "tz1TcH4Nb3aHNDJ7CGZhU7jgAK1BkSP4Lxds",
        "reception_time": "2022-01-18T15:33:41.199-00:00",
        "included_in_blocks":
          [ "BMCoM6FKitGHSnPBiHyAzfYfUmFdvxeq5y43RYCB6GMesP8JV6v" ] },
      { "delegate": "tz1ULYFhUY7Syao5NWr9jZ1pp3aw81QPiqjs",
        "reception_time": "2022-01-18T15:33:42.057-00:00",
        "included_in_blocks":
          [ "BMCoM6FKitGHSnPBiHyAzfYfUmFdvxeq5y43RYCB6GMesP8JV6v" ] },
      { "delegate": "tz1NpWrAyDL9k2Lmnyxcgr9xuJakbBxdq7FB",
        "reception_time": "2022-01-18T15:33:44.997-00:00",
        "included_in_blocks":
          [ "BMCoM6FKitGHSnPBiHyAzfYfUmFdvxeq5y43RYCB6GMesP8JV6v" ] } ] }