{ "blocks":
    [ { "hash": "BMVbAqvSoxuo88AnEebv6qGpyvJUFg7r7AAJNREXzfuPBFP5wCY",
        "delegate": "tz3bvNMQ95vfAYtG8193ymshqjSvmxiCUuR5",
        "reception_time": "2022-01-18T17:24:00.197-00:00",
        "timestamp": "2022-01-18T17:23:50Z" } ],
  "endorsements":
    [ { "delegate": "tz1ibcPVGK4Y8pcW4BYUsojiHoBKnZbyDGrX" },
      { "delegate": "tz1NdhRv643wLW6zCcRP3VfT24dvDnh7nuh9" },
      { "delegate": "tz1XXayQohB8XRXN7kMoHbf2NFwNiH3oMRQQ",
        "reception_time": "2022-01-18T17:23:59.976-00:00",
        "errors":
          [ { "kind": "temporary",
              "id": "proto.011-PtHangz2.prefilter.outdated_endorsement" } ],
        "included_in_blocks":
          [ "BLYC7tMzgmPuyAGFtfSsqtvTp9JknJuaZ1pA1T8txdbieusvPh8" ] },
      { "delegate": "tz1P2Po7YM526ughEsRbY4oR9zaUPDZjxFrb",
        "reception_time": "2022-01-18T17:23:59.866-00:00",
        "errors":
          [ { "kind": "temporary",
              "id": "proto.011-PtHangz2.prefilter.outdated_endorsement" } ],
        "included_in_blocks":
          [ "BLYC7tMzgmPuyAGFtfSsqtvTp9JknJuaZ1pA1T8txdbieusvPh8" ] },
      { "delegate": "tz1S8e9GgdZG78XJRB3NqabfWeM37GnhZMWQ",
        "reception_time": "2022-01-18T17:23:59.796-00:00",
        "errors":
          [ { "kind": "temporary",
              "id": "proto.011-PtHangz2.prefilter.outdated_endorsement" } ],
        "included_in_blocks":
          [ "BLYC7tMzgmPuyAGFtfSsqtvTp9JknJuaZ1pA1T8txdbieusvPh8" ] },
      { "delegate": "tz1go7f6mEQfT2xX2LuHAqgnRGN6c2zHPf5c",
        "reception_time": "2022-01-18T17:24:11.013-00:00",
        "included_in_blocks":
          [ "BLYC7tMzgmPuyAGFtfSsqtvTp9JknJuaZ1pA1T8txdbieusvPh8" ] },
      { "delegate": "tz1W5VkdB5s7ENMESVBtwyt9kyvLqPcUczRT",
        "reception_time": "2022-01-18T17:24:06.341-00:00",
        "included_in_blocks":
          [ "BLYC7tMzgmPuyAGFtfSsqtvTp9JknJuaZ1pA1T8txdbieusvPh8" ] },
      { "delegate": "tz1QJU1PuKUP5ZQxUr4pHZjCHGRvJSpcXv7G",
        "reception_time": "2022-01-18T17:24:06.029-00:00",
        "included_in_blocks":
          [ "BLYC7tMzgmPuyAGFtfSsqtvTp9JknJuaZ1pA1T8txdbieusvPh8" ] },
      { "delegate": "tz1eVaNx3gCmG1EsLjijkmgAxdLYVf6Bf5Sq",
        "reception_time": "2022-01-18T17:24:05.488-00:00",
        "included_in_blocks":
          [ "BLYC7tMzgmPuyAGFtfSsqtvTp9JknJuaZ1pA1T8txdbieusvPh8" ] },
      { "delegate": "tz1awXW7wuXy21c66vBudMXQVAPgRnqqwgTH",
        "reception_time": "2022-01-18T17:24:05.662-00:00",
        "included_in_blocks":
          [ "BLYC7tMzgmPuyAGFtfSsqtvTp9JknJuaZ1pA1T8txdbieusvPh8" ] },
      { "delegate": "tz1ZcTRk5uxD86EFEn1vvNffWWqJy7q5eVhc",
        "reception_time": "2022-01-18T17:24:04.819-00:00",
        "included_in_blocks":
          [ "BLYC7tMzgmPuyAGFtfSsqtvTp9JknJuaZ1pA1T8txdbieusvPh8" ] },
      { "delegate": "tz3NExpXn9aPNZPorRE4SdjJ2RGrfbJgMAaV",
        "reception_time": "2022-01-18T17:24:04.812-00:00",
        "included_in_blocks":
          [ "BLYC7tMzgmPuyAGFtfSsqtvTp9JknJuaZ1pA1T8txdbieusvPh8" ] },
      { "delegate": "tz1aRoaRhSpRYvFdyvgWLL6TGyRoGF51wDjM",
        "reception_time": "2022-01-18T17:24:04.477-00:00",
        "included_in_blocks":
          [ "BLYC7tMzgmPuyAGFtfSsqtvTp9JknJuaZ1pA1T8txdbieusvPh8" ] },
      { "delegate": "tz1TRqbYbUf2GyrjErf3hBzgBJPzW8y36qEs",
        "reception_time": "2022-01-18T17:24:04.429-00:00",
        "included_in_blocks":
          [ "BLYC7tMzgmPuyAGFtfSsqtvTp9JknJuaZ1pA1T8txdbieusvPh8" ] },
      { "delegate": "tz3WMqdzXqRWXwyvj5Hp2H7QEepaUuS7vd9K",
        "reception_time": "2022-01-18T17:24:04.383-00:00",
        "included_in_blocks":
          [ "BLYC7tMzgmPuyAGFtfSsqtvTp9JknJuaZ1pA1T8txdbieusvPh8" ] },
      { "delegate": "tz1RjoHc98dBoqaH2jawF62XNKh7YsHwbkEv",
        "reception_time": "2022-01-18T17:24:04.172-00:00",
        "included_in_blocks":
          [ "BLYC7tMzgmPuyAGFtfSsqtvTp9JknJuaZ1pA1T8txdbieusvPh8" ] },
      { "delegate": "tz1UvkANVPWppVgMkLnvN7BwYZsCP7vm6NVd",
        "reception_time": "2022-01-18T17:24:04.020-00:00",
        "included_in_blocks":
          [ "BLYC7tMzgmPuyAGFtfSsqtvTp9JknJuaZ1pA1T8txdbieusvPh8" ] },
      { "delegate": "tz3RB4aoyjov4KEVRbuhvQ1CKJgBJMWhaeB8",
        "reception_time": "2022-01-18T17:24:03.961-00:00",
        "included_in_blocks":
          [ "BLYC7tMzgmPuyAGFtfSsqtvTp9JknJuaZ1pA1T8txdbieusvPh8" ] },
      { "delegate": "tz3UoffC7FG7zfpmvmjUmUeAaHvzdcUvAj6r",
        "reception_time": "2022-01-18T17:24:04.079-00:00",
        "included_in_blocks":
          [ "BLYC7tMzgmPuyAGFtfSsqtvTp9JknJuaZ1pA1T8txdbieusvPh8" ] },
      { "delegate": "tz1UbFpJY5Hext38GisuaXQBkbzhaKJkxpEs",
        "reception_time": "2022-01-18T17:24:03.925-00:00",
        "included_in_blocks":
          [ "BLYC7tMzgmPuyAGFtfSsqtvTp9JknJuaZ1pA1T8txdbieusvPh8" ] },
      { "delegate": "tz2FCNBrERXtaTtNX6iimR1UJ5JSDxvdHM93",
        "reception_time": "2022-01-18T17:24:03.910-00:00",
        "included_in_blocks":
          [ "BLYC7tMzgmPuyAGFtfSsqtvTp9JknJuaZ1pA1T8txdbieusvPh8" ] },
      { "delegate": "tz1SohptP53wDPZhzTWzDUFAUcWF6DMBpaJV",
        "reception_time": "2022-01-18T17:24:03.860-00:00",
        "included_in_blocks":
          [ "BLYC7tMzgmPuyAGFtfSsqtvTp9JknJuaZ1pA1T8txdbieusvPh8" ] },
      { "delegate": "tz1abmz7jiCV2GH2u81LRrGgAFFgvQgiDiaf",
        "reception_time": "2022-01-18T17:24:03.941-00:00",
        "included_in_blocks":
          [ "BLYC7tMzgmPuyAGFtfSsqtvTp9JknJuaZ1pA1T8txdbieusvPh8" ] },
      { "delegate": "tz1aJS7Pk9uWR3wWyFf1i3RwhYxN84G7stom",
        "reception_time": "2022-01-18T17:24:03.573-00:00",
        "included_in_blocks":
          [ "BLYC7tMzgmPuyAGFtfSsqtvTp9JknJuaZ1pA1T8txdbieusvPh8" ] },
      { "delegate": "tz1SYq214SCBy9naR6cvycQsYcUGpBqQAE8d",
        "reception_time": "2022-01-18T17:24:03.552-00:00",
        "included_in_blocks":
          [ "BLYC7tMzgmPuyAGFtfSsqtvTp9JknJuaZ1pA1T8txdbieusvPh8" ] },
      { "delegate": "tz3VEZ4k6a4Wx42iyev6i2aVAptTRLEAivNN",
        "reception_time": "2022-01-18T17:24:03.386-00:00",
        "included_in_blocks":
          [ "BLYC7tMzgmPuyAGFtfSsqtvTp9JknJuaZ1pA1T8txdbieusvPh8" ] },
      { "delegate": "tz1LwEsi8GVhtpCcxBHgQAgM4XrdjsJLmYc8",
        "reception_time": "2022-01-18T17:24:03.242-00:00",
        "included_in_blocks":
          [ "BLYC7tMzgmPuyAGFtfSsqtvTp9JknJuaZ1pA1T8txdbieusvPh8" ] },
      { "delegate": "tz3NDpRj6WBrJPikcPVHRBEjWKxFw3c6eQPS",
        "reception_time": "2022-01-18T17:24:03.216-00:00",
        "included_in_blocks":
          [ "BLYC7tMzgmPuyAGFtfSsqtvTp9JknJuaZ1pA1T8txdbieusvPh8" ] },
      { "delegate": "tz3gLTu4Yxj8tPAcriQVUdxv6BY9QyvzU1az",
        "reception_time": "2022-01-18T17:24:03.186-00:00",
        "included_in_blocks":
          [ "BLYC7tMzgmPuyAGFtfSsqtvTp9JknJuaZ1pA1T8txdbieusvPh8" ] },
      { "delegate": "tz1V4qCyvPKZ5UeqdH14HN42rxvNPQfc9UZg",
        "reception_time": "2022-01-18T17:24:02.671-00:00",
        "included_in_blocks":
          [ "BLYC7tMzgmPuyAGFtfSsqtvTp9JknJuaZ1pA1T8txdbieusvPh8" ] },
      { "delegate": "tz1axcnVN9tZnCe4sQQhC6f3tfSEXdjPaXPY",
        "reception_time": "2022-01-18T17:24:02.736-00:00",
        "included_in_blocks":
          [ "BLYC7tMzgmPuyAGFtfSsqtvTp9JknJuaZ1pA1T8txdbieusvPh8" ] },
      { "delegate": "tz1RCFbB9GpALpsZtu6J58sb74dm8qe6XBzv",
        "reception_time": "2022-01-18T17:24:02.666-00:00",
        "included_in_blocks":
          [ "BLYC7tMzgmPuyAGFtfSsqtvTp9JknJuaZ1pA1T8txdbieusvPh8" ] },
      { "delegate": "tz1gfArv665EUkSg2ojMBzcbfwuPxAvqPvjo",
        "reception_time": "2022-01-18T17:24:02.712-00:00",
        "included_in_blocks":
          [ "BLYC7tMzgmPuyAGFtfSsqtvTp9JknJuaZ1pA1T8txdbieusvPh8" ] },
      { "delegate": "tz1S8MNvuFEUsWgjHvi3AxibRBf388NhT1q2",
        "reception_time": "2022-01-18T17:24:02.663-00:00",
        "included_in_blocks":
          [ "BLYC7tMzgmPuyAGFtfSsqtvTp9JknJuaZ1pA1T8txdbieusvPh8" ] },
      { "delegate": "tz3RDC3Jdn4j15J7bBHZd29EUee9gVB1CxD9",
        "reception_time": "2022-01-18T17:24:02.640-00:00",
        "included_in_blocks":
          [ "BLYC7tMzgmPuyAGFtfSsqtvTp9JknJuaZ1pA1T8txdbieusvPh8" ] },
      { "delegate": "tz1fb7c66UwePkkfDXz4ajFaBP9hVNLdS7JJ",
        "reception_time": "2022-01-18T17:24:02.601-00:00",
        "included_in_blocks":
          [ "BLYC7tMzgmPuyAGFtfSsqtvTp9JknJuaZ1pA1T8txdbieusvPh8" ] },
      { "delegate": "tz1ei4WtWEMEJekSv8qDnu9PExG6Q8HgRGr3",
        "reception_time": "2022-01-18T17:24:02.485-00:00",
        "included_in_blocks":
          [ "BLYC7tMzgmPuyAGFtfSsqtvTp9JknJuaZ1pA1T8txdbieusvPh8" ] },
      { "delegate": "tz1TRspM5SeZpaQUhzByXbEvqKF1vnCM2YTK",
        "reception_time": "2022-01-18T17:24:02.488-00:00",
        "included_in_blocks":
          [ "BLYC7tMzgmPuyAGFtfSsqtvTp9JknJuaZ1pA1T8txdbieusvPh8" ] },
      { "delegate": "tz3bTdwZinP8U1JmSweNzVKhmwafqWmFWRfk",
        "reception_time": "2022-01-18T17:24:02.533-00:00",
        "included_in_blocks":
          [ "BLYC7tMzgmPuyAGFtfSsqtvTp9JknJuaZ1pA1T8txdbieusvPh8" ] },
      { "delegate": "tz1PWCDnz783NNGGQjEFFsHtrcK5yBW4E2rm",
        "reception_time": "2022-01-18T17:24:02.508-00:00",
        "included_in_blocks":
          [ "BLYC7tMzgmPuyAGFtfSsqtvTp9JknJuaZ1pA1T8txdbieusvPh8" ] },
      { "delegate": "tz3QT9dHYKDqh563chVa6za8526ys1UKfRfL",
        "reception_time": "2022-01-18T17:24:02.549-00:00",
        "included_in_blocks":
          [ "BLYC7tMzgmPuyAGFtfSsqtvTp9JknJuaZ1pA1T8txdbieusvPh8" ] },
      { "delegate": "tz3Zhs2dygr55yHyQyKjntAtY9bgfhLZ4Xj1",
        "reception_time": "2022-01-18T17:24:02.577-00:00",
        "included_in_blocks":
          [ "BLYC7tMzgmPuyAGFtfSsqtvTp9JknJuaZ1pA1T8txdbieusvPh8" ] },
      { "delegate": "tz3iJu5vrKZcsqRPs8yJ61UDoeEXZmtro4qh",
        "reception_time": "2022-01-18T17:24:02.481-00:00",
        "included_in_blocks":
          [ "BLYC7tMzgmPuyAGFtfSsqtvTp9JknJuaZ1pA1T8txdbieusvPh8" ] },
      { "delegate": "tz3S6BBeKgJGXxvLyZ1xzXzMPn11nnFtq5L9",
        "reception_time": "2022-01-18T17:24:02.541-00:00",
        "included_in_blocks":
          [ "BLYC7tMzgmPuyAGFtfSsqtvTp9JknJuaZ1pA1T8txdbieusvPh8" ] },
      { "delegate": "tz3hw2kqXhLUvY65ca1eety2oQTpAvd34R9Q",
        "reception_time": "2022-01-18T17:24:02.402-00:00",
        "included_in_blocks":
          [ "BLYC7tMzgmPuyAGFtfSsqtvTp9JknJuaZ1pA1T8txdbieusvPh8" ] },
      { "delegate": "tz3RKYFsLuQzKBtmYuLNas7uMu3AsYd4QdsA",
        "reception_time": "2022-01-18T17:24:02.443-00:00",
        "included_in_blocks":
          [ "BLYC7tMzgmPuyAGFtfSsqtvTp9JknJuaZ1pA1T8txdbieusvPh8" ] },
      { "delegate": "tz3ZbP2pM3nwvXztbuMJwJnDvV5xdpU8UkkD",
        "reception_time": "2022-01-18T17:24:02.471-00:00",
        "included_in_blocks":
          [ "BLYC7tMzgmPuyAGFtfSsqtvTp9JknJuaZ1pA1T8txdbieusvPh8" ] },
      { "delegate": "tz3gtoUxdudfBRcNY7iVdKPHCYYX6xdPpoRS",
        "reception_time": "2022-01-18T17:24:02.497-00:00",
        "included_in_blocks":
          [ "BLYC7tMzgmPuyAGFtfSsqtvTp9JknJuaZ1pA1T8txdbieusvPh8" ] },
      { "delegate": "tz3NxTnke1acr8o3h5y9ytf5awQBGNJUKzVU",
        "reception_time": "2022-01-18T17:24:02.395-00:00",
        "included_in_blocks":
          [ "BLYC7tMzgmPuyAGFtfSsqtvTp9JknJuaZ1pA1T8txdbieusvPh8" ] },
      { "delegate": "tz3QSGPoRp3Kn7n3vY24eYeu3Peuqo45LQ4D",
        "reception_time": "2022-01-18T17:24:02.520-00:00",
        "included_in_blocks":
          [ "BLYC7tMzgmPuyAGFtfSsqtvTp9JknJuaZ1pA1T8txdbieusvPh8" ] },
      { "delegate": "tz1VQnqCCqX4K5sP3FNkVSNKTdCAMJDd3E1n",
        "reception_time": "2022-01-18T17:24:02.405-00:00",
        "included_in_blocks":
          [ "BLYC7tMzgmPuyAGFtfSsqtvTp9JknJuaZ1pA1T8txdbieusvPh8" ] },
      { "delegate": "tz3e7LbZvUtoXhpUD1yb6wuFodZpfYRb9nWJ",
        "reception_time": "2022-01-18T17:24:02.461-00:00",
        "included_in_blocks":
          [ "BLYC7tMzgmPuyAGFtfSsqtvTp9JknJuaZ1pA1T8txdbieusvPh8" ] },
      { "delegate": "tz1VmiY38m3y95HqQLjMwqnMS7sdMfGomzKi",
        "reception_time": "2022-01-18T17:24:02.412-00:00",
        "included_in_blocks":
          [ "BLYC7tMzgmPuyAGFtfSsqtvTp9JknJuaZ1pA1T8txdbieusvPh8" ] },
      { "delegate": "tz1TzaNn7wSQSP5gYPXCnNzBCpyMiidCq1PX",
        "reception_time": "2022-01-18T17:24:02.463-00:00",
        "included_in_blocks":
          [ "BLYC7tMzgmPuyAGFtfSsqtvTp9JknJuaZ1pA1T8txdbieusvPh8" ] },
      { "delegate": "tz3bvNMQ95vfAYtG8193ymshqjSvmxiCUuR5",
        "reception_time": "2022-01-18T17:24:02.387-00:00",
        "included_in_blocks":
          [ "BLYC7tMzgmPuyAGFtfSsqtvTp9JknJuaZ1pA1T8txdbieusvPh8" ] },
      { "delegate": "tz1beersuEDv8Z7ngQ825xfbaJNS2EhXnyHR",
        "reception_time": "2022-01-18T17:24:02.378-00:00",
        "included_in_blocks":
          [ "BLYC7tMzgmPuyAGFtfSsqtvTp9JknJuaZ1pA1T8txdbieusvPh8" ] },
      { "delegate": "tz1gUNyn3hmnEWqkusWPzxRaon1cs7ndWh7h",
        "reception_time": "2022-01-18T17:24:02.451-00:00",
        "included_in_blocks":
          [ "BLYC7tMzgmPuyAGFtfSsqtvTp9JknJuaZ1pA1T8txdbieusvPh8" ] },
      { "delegate": "tz1WCd2jm4uSt4vntk4vSuUWoZQGhLcDuR9q",
        "reception_time": "2022-01-18T17:24:02.416-00:00",
        "included_in_blocks":
          [ "BLYC7tMzgmPuyAGFtfSsqtvTp9JknJuaZ1pA1T8txdbieusvPh8" ] },
      { "delegate": "tz1Ldzz6k1BHdhuKvAtMRX7h5kJSMHESMHLC",
        "reception_time": "2022-01-18T17:24:02.366-00:00",
        "included_in_blocks":
          [ "BLYC7tMzgmPuyAGFtfSsqtvTp9JknJuaZ1pA1T8txdbieusvPh8" ] },
      { "delegate": "tz1Mc61yajNASzh5KWZFtYs4i7EJbzAxQC4K",
        "reception_time": "2022-01-18T17:24:02.412-00:00",
        "included_in_blocks":
          [ "BLYC7tMzgmPuyAGFtfSsqtvTp9JknJuaZ1pA1T8txdbieusvPh8" ] },
      { "delegate": "tz1Nf6tsK4G6bBqgSQERy4nUtkHNKUVdh7q1",
        "reception_time": "2022-01-18T17:24:02.525-00:00",
        "included_in_blocks":
          [ "BLYC7tMzgmPuyAGFtfSsqtvTp9JknJuaZ1pA1T8txdbieusvPh8" ] },
      { "delegate": "tz1irJKkXS2DBWkU1NnmFQx1c1L7pbGg4yhk",
        "reception_time": "2022-01-18T17:24:02.369-00:00",
        "included_in_blocks":
          [ "BLYC7tMzgmPuyAGFtfSsqtvTp9JknJuaZ1pA1T8txdbieusvPh8" ] },
      { "delegate": "tz1XfAjZyaLdceHnZxbMYop7g7kWKPut4PR7",
        "reception_time": "2022-01-18T17:24:02.372-00:00",
        "included_in_blocks":
          [ "BLYC7tMzgmPuyAGFtfSsqtvTp9JknJuaZ1pA1T8txdbieusvPh8" ] },
      { "delegate": "tz1TXzyaKUA8wsWefdSnyaYFnV2M3vCV7er9",
        "reception_time": "2022-01-18T17:24:02.378-00:00",
        "included_in_blocks":
          [ "BLYC7tMzgmPuyAGFtfSsqtvTp9JknJuaZ1pA1T8txdbieusvPh8" ] },
      { "delegate": "tz1Lhf4J9Qxoe3DZ2nfe8FGDnvVj7oKjnMY6",
        "reception_time": "2022-01-18T17:24:02.362-00:00",
        "included_in_blocks":
          [ "BLYC7tMzgmPuyAGFtfSsqtvTp9JknJuaZ1pA1T8txdbieusvPh8" ] } ] }