{ "blocks":
    [ { "hash": "BLc8GfCGNd37DP3SduZYmW4DVuCqJejw6SR2cZQcsqnQyQGdBuA",
        "delegate": "tz1irJKkXS2DBWkU1NnmFQx1c1L7pbGg4yhk",
        "reception_time": "2022-01-18T13:56:54.433-00:00",
        "timestamp": "2022-01-18T13:56:50Z" } ],
  "endorsements":
    [ { "delegate": "tz1cYufsxHXJcvANhvS55h3aY32a9BAFB494",
        "reception_time": "2022-01-18T13:57:26.933-00:00" },
      { "delegate": "tz1NpWrAyDL9k2Lmnyxcgr9xuJakbBxdq7FB",
        "reception_time": "2022-01-18T13:57:01.160-00:00",
        "included_in_blocks":
          [ "BLSi1WhUAxGAP9UcD2e1pHSFDo98MgKRA7wauv1p9dMRdLPsy2q" ] },
      { "delegate": "tz1KwafrdmM8RwxUMxdbbtWyZuKLWSPVxe9u",
        "reception_time": "2022-01-18T13:57:00.203-00:00",
        "included_in_blocks":
          [ "BLSi1WhUAxGAP9UcD2e1pHSFDo98MgKRA7wauv1p9dMRdLPsy2q" ] },
      { "delegate": "tz1cM8Xc7ZP1TrjkTeKq4PeRhtbnwXSBR6Sw",
        "reception_time": "2022-01-18T13:56:59.241-00:00",
        "included_in_blocks":
          [ "BLSi1WhUAxGAP9UcD2e1pHSFDo98MgKRA7wauv1p9dMRdLPsy2q" ] },
      { "delegate": "tz1ZcTRk5uxD86EFEn1vvNffWWqJy7q5eVhc",
        "reception_time": "2022-01-18T13:56:58.735-00:00",
        "included_in_blocks":
          [ "BLSi1WhUAxGAP9UcD2e1pHSFDo98MgKRA7wauv1p9dMRdLPsy2q" ] },
      { "delegate": "tz1fJHFn6sWEd3NnBPngACuw2dggTv6nQZ7g",
        "reception_time": "2022-01-18T13:56:58.613-00:00",
        "included_in_blocks":
          [ "BLSi1WhUAxGAP9UcD2e1pHSFDo98MgKRA7wauv1p9dMRdLPsy2q" ] },
      { "delegate": "tz3NExpXn9aPNZPorRE4SdjJ2RGrfbJgMAaV",
        "reception_time": "2022-01-18T13:56:58.529-00:00",
        "included_in_blocks":
          [ "BLSi1WhUAxGAP9UcD2e1pHSFDo98MgKRA7wauv1p9dMRdLPsy2q" ] },
      { "delegate": "tz3bvNMQ95vfAYtG8193ymshqjSvmxiCUuR5",
        "reception_time": "2022-01-18T13:56:58.430-00:00",
        "included_in_blocks":
          [ "BLSi1WhUAxGAP9UcD2e1pHSFDo98MgKRA7wauv1p9dMRdLPsy2q" ] },
      { "delegate": "tz1dRKU4FQ9QRRQPdaH4zCR6gmCmXfcvcgtB",
        "reception_time": "2022-01-18T13:56:58.376-00:00",
        "included_in_blocks":
          [ "BLSi1WhUAxGAP9UcD2e1pHSFDo98MgKRA7wauv1p9dMRdLPsy2q" ] },
      { "delegate": "tz1aRoaRhSpRYvFdyvgWLL6TGyRoGF51wDjM",
        "reception_time": "2022-01-18T13:56:57.991-00:00",
        "included_in_blocks":
          [ "BLSi1WhUAxGAP9UcD2e1pHSFDo98MgKRA7wauv1p9dMRdLPsy2q" ] },
      { "delegate": "tz3NDpRj6WBrJPikcPVHRBEjWKxFw3c6eQPS",
        "reception_time": "2022-01-18T13:56:57.724-00:00",
        "included_in_blocks":
          [ "BLSi1WhUAxGAP9UcD2e1pHSFDo98MgKRA7wauv1p9dMRdLPsy2q" ] },
      { "delegate": "tz1RjoHc98dBoqaH2jawF62XNKh7YsHwbkEv",
        "reception_time": "2022-01-18T13:56:57.700-00:00",
        "included_in_blocks":
          [ "BLSi1WhUAxGAP9UcD2e1pHSFDo98MgKRA7wauv1p9dMRdLPsy2q" ] },
      { "delegate": "tz1g8vkmcde6sWKaG2NN9WKzCkDM6Rziq194",
        "reception_time": "2022-01-18T13:56:57.664-00:00",
        "included_in_blocks":
          [ "BLSi1WhUAxGAP9UcD2e1pHSFDo98MgKRA7wauv1p9dMRdLPsy2q" ] },
      { "delegate": "tz3VEZ4k6a4Wx42iyev6i2aVAptTRLEAivNN",
        "reception_time": "2022-01-18T13:56:57.659-00:00",
        "included_in_blocks":
          [ "BLSi1WhUAxGAP9UcD2e1pHSFDo98MgKRA7wauv1p9dMRdLPsy2q" ] },
      { "delegate": "tz3RB4aoyjov4KEVRbuhvQ1CKJgBJMWhaeB8",
        "reception_time": "2022-01-18T13:56:57.651-00:00",
        "included_in_blocks":
          [ "BLSi1WhUAxGAP9UcD2e1pHSFDo98MgKRA7wauv1p9dMRdLPsy2q" ] },
      { "delegate": "tz3RDC3Jdn4j15J7bBHZd29EUee9gVB1CxD9",
        "reception_time": "2022-01-18T13:56:57.640-00:00",
        "included_in_blocks":
          [ "BLSi1WhUAxGAP9UcD2e1pHSFDo98MgKRA7wauv1p9dMRdLPsy2q" ] },
      { "delegate": "tz1T7duV5gZWSTq4YpBGbXNLTfznCLDrFxvs",
        "reception_time": "2022-01-18T13:56:57.571-00:00",
        "included_in_blocks":
          [ "BLSi1WhUAxGAP9UcD2e1pHSFDo98MgKRA7wauv1p9dMRdLPsy2q" ] },
      { "delegate": "tz3WMqdzXqRWXwyvj5Hp2H7QEepaUuS7vd9K",
        "reception_time": "2022-01-18T13:56:57.558-00:00",
        "included_in_blocks":
          [ "BLSi1WhUAxGAP9UcD2e1pHSFDo98MgKRA7wauv1p9dMRdLPsy2q" ] },
      { "delegate": "tz1NEKxGEHsFufk87CVZcrqWu8o22qh46GK6",
        "reception_time": "2022-01-18T13:56:57.475-00:00",
        "included_in_blocks":
          [ "BLSi1WhUAxGAP9UcD2e1pHSFDo98MgKRA7wauv1p9dMRdLPsy2q" ] },
      { "delegate": "tz1Tnjaxk6tbAeC2TmMApPh8UsrEVQvhHvx5",
        "reception_time": "2022-01-18T13:56:57.335-00:00",
        "included_in_blocks":
          [ "BLSi1WhUAxGAP9UcD2e1pHSFDo98MgKRA7wauv1p9dMRdLPsy2q" ] },
      { "delegate": "tz1PeZx7FXy7QRuMREGXGxeipb24RsMMzUNe",
        "reception_time": "2022-01-18T13:56:57.323-00:00",
        "included_in_blocks":
          [ "BLSi1WhUAxGAP9UcD2e1pHSFDo98MgKRA7wauv1p9dMRdLPsy2q" ] },
      { "delegate": "tz3UoffC7FG7zfpmvmjUmUeAaHvzdcUvAj6r",
        "reception_time": "2022-01-18T13:56:57.318-00:00",
        "included_in_blocks":
          [ "BLSi1WhUAxGAP9UcD2e1pHSFDo98MgKRA7wauv1p9dMRdLPsy2q" ] },
      { "delegate": "tz1LmaFsWRkjr7QMCx5PtV6xTUz3AmEpKQiF",
        "reception_time": "2022-01-18T13:56:57.196-00:00",
        "included_in_blocks":
          [ "BLSi1WhUAxGAP9UcD2e1pHSFDo98MgKRA7wauv1p9dMRdLPsy2q" ] },
      { "delegate": "tz1ei4WtWEMEJekSv8qDnu9PExG6Q8HgRGr3",
        "reception_time": "2022-01-18T13:56:57.175-00:00",
        "included_in_blocks":
          [ "BLSi1WhUAxGAP9UcD2e1pHSFDo98MgKRA7wauv1p9dMRdLPsy2q" ] },
      { "delegate": "tz1dNVDWPf3Q59SdJqnjdnu277iyvReiRS9M",
        "reception_time": "2022-01-18T13:56:57.167-00:00",
        "included_in_blocks":
          [ "BLSi1WhUAxGAP9UcD2e1pHSFDo98MgKRA7wauv1p9dMRdLPsy2q" ] },
      { "delegate": "tz1KfEsrtDaA1sX7vdM4qmEPWuSytuqCDp5j",
        "reception_time": "2022-01-18T13:56:57.167-00:00",
        "included_in_blocks":
          [ "BLSi1WhUAxGAP9UcD2e1pHSFDo98MgKRA7wauv1p9dMRdLPsy2q" ] },
      { "delegate": "tz1TRqbYbUf2GyrjErf3hBzgBJPzW8y36qEs",
        "reception_time": "2022-01-18T13:56:57.144-00:00",
        "included_in_blocks":
          [ "BLSi1WhUAxGAP9UcD2e1pHSFDo98MgKRA7wauv1p9dMRdLPsy2q" ] },
      { "delegate": "tz1TEc75UKXv4W5cwi14Na3NtqFD51yKQi7h",
        "reception_time": "2022-01-18T13:56:57.075-00:00",
        "included_in_blocks":
          [ "BLSi1WhUAxGAP9UcD2e1pHSFDo98MgKRA7wauv1p9dMRdLPsy2q" ] },
      { "delegate": "tz1Nf6tsK4G6bBqgSQERy4nUtkHNKUVdh7q1",
        "reception_time": "2022-01-18T13:56:56.969-00:00",
        "included_in_blocks":
          [ "BLSi1WhUAxGAP9UcD2e1pHSFDo98MgKRA7wauv1p9dMRdLPsy2q" ] },
      { "delegate": "tz1YiuvpfeVAHbnU8akcWErNfQGFHNQ7F45z",
        "reception_time": "2022-01-18T13:56:56.964-00:00",
        "included_in_blocks":
          [ "BLSi1WhUAxGAP9UcD2e1pHSFDo98MgKRA7wauv1p9dMRdLPsy2q" ] },
      { "delegate": "tz1WBfwbT66FC6BTLexc2BoyCCBM9LG7pnVW",
        "reception_time": "2022-01-18T13:56:56.923-00:00",
        "included_in_blocks":
          [ "BLSi1WhUAxGAP9UcD2e1pHSFDo98MgKRA7wauv1p9dMRdLPsy2q" ] },
      { "delegate": "tz1abmz7jiCV2GH2u81LRrGgAFFgvQgiDiaf",
        "reception_time": "2022-01-18T13:56:56.902-00:00",
        "included_in_blocks":
          [ "BLSi1WhUAxGAP9UcD2e1pHSFDo98MgKRA7wauv1p9dMRdLPsy2q" ] },
      { "delegate": "tz1RQhNh7iB9CZA7i3ifTWNwiGYVffponfbB",
        "reception_time": "2022-01-18T13:56:56.814-00:00",
        "included_in_blocks":
          [ "BLSi1WhUAxGAP9UcD2e1pHSFDo98MgKRA7wauv1p9dMRdLPsy2q" ] },
      { "delegate": "tz1RpeqCseogMpCPXpyGjhmLH9i9DhqJ8cUR",
        "reception_time": "2022-01-18T13:56:56.763-00:00",
        "included_in_blocks":
          [ "BLSi1WhUAxGAP9UcD2e1pHSFDo98MgKRA7wauv1p9dMRdLPsy2q" ] },
      { "delegate": "tz1KzSC1J9aBxKp7u8TUnpN8L7S65PBRkgdF",
        "reception_time": "2022-01-18T13:56:56.746-00:00",
        "included_in_blocks":
          [ "BLSi1WhUAxGAP9UcD2e1pHSFDo98MgKRA7wauv1p9dMRdLPsy2q" ] },
      { "delegate": "tz2FCNBrERXtaTtNX6iimR1UJ5JSDxvdHM93",
        "reception_time": "2022-01-18T13:56:56.736-00:00",
        "included_in_blocks":
          [ "BLSi1WhUAxGAP9UcD2e1pHSFDo98MgKRA7wauv1p9dMRdLPsy2q" ] },
      { "delegate": "tz1PWCDnz783NNGGQjEFFsHtrcK5yBW4E2rm",
        "reception_time": "2022-01-18T13:56:56.726-00:00",
        "included_in_blocks":
          [ "BLSi1WhUAxGAP9UcD2e1pHSFDo98MgKRA7wauv1p9dMRdLPsy2q" ] },
      { "delegate": "tz1RCFbB9GpALpsZtu6J58sb74dm8qe6XBzv",
        "reception_time": "2022-01-18T13:56:56.702-00:00",
        "included_in_blocks":
          [ "BLSi1WhUAxGAP9UcD2e1pHSFDo98MgKRA7wauv1p9dMRdLPsy2q" ] },
      { "delegate": "tz1fPKAtsYydh4f1wfWNfeNxWYu72TmM48fu",
        "reception_time": "2022-01-18T13:56:56.659-00:00",
        "included_in_blocks":
          [ "BLSi1WhUAxGAP9UcD2e1pHSFDo98MgKRA7wauv1p9dMRdLPsy2q" ] },
      { "delegate": "tz1S8MNvuFEUsWgjHvi3AxibRBf388NhT1q2",
        "reception_time": "2022-01-18T13:56:56.444-00:00",
        "included_in_blocks":
          [ "BLSi1WhUAxGAP9UcD2e1pHSFDo98MgKRA7wauv1p9dMRdLPsy2q" ] },
      { "delegate": "tz1gfArv665EUkSg2ojMBzcbfwuPxAvqPvjo",
        "reception_time": "2022-01-18T13:56:56.436-00:00",
        "included_in_blocks":
          [ "BLSi1WhUAxGAP9UcD2e1pHSFDo98MgKRA7wauv1p9dMRdLPsy2q" ] },
      { "delegate": "tz3e7LbZvUtoXhpUD1yb6wuFodZpfYRb9nWJ",
        "reception_time": "2022-01-18T13:56:56.411-00:00",
        "included_in_blocks":
          [ "BLSi1WhUAxGAP9UcD2e1pHSFDo98MgKRA7wauv1p9dMRdLPsy2q" ] },
      { "delegate": "tz3bTdwZinP8U1JmSweNzVKhmwafqWmFWRfk",
        "reception_time": "2022-01-18T13:56:56.356-00:00",
        "included_in_blocks":
          [ "BLSi1WhUAxGAP9UcD2e1pHSFDo98MgKRA7wauv1p9dMRdLPsy2q" ] },
      { "delegate": "tz1dwu9aYb7CRNq4Y2zAjipdjFuSVKhHS8vA",
        "reception_time": "2022-01-18T13:56:56.313-00:00",
        "included_in_blocks":
          [ "BLSi1WhUAxGAP9UcD2e1pHSFDo98MgKRA7wauv1p9dMRdLPsy2q" ] },
      { "delegate": "tz1MivraUX9U6nmGAQkm7XkrNVmsPExEUT1W",
        "reception_time": "2022-01-18T13:56:56.216-00:00",
        "included_in_blocks":
          [ "BLSi1WhUAxGAP9UcD2e1pHSFDo98MgKRA7wauv1p9dMRdLPsy2q" ] },
      { "delegate": "tz1d6Fx42mYgVFnHUW8T8A7WBfJ6nD9pVok8",
        "reception_time": "2022-01-18T13:56:56.156-00:00",
        "included_in_blocks":
          [ "BLSi1WhUAxGAP9UcD2e1pHSFDo98MgKRA7wauv1p9dMRdLPsy2q" ] },
      { "delegate": "tz1WCd2jm4uSt4vntk4vSuUWoZQGhLcDuR9q",
        "reception_time": "2022-01-18T13:56:56.119-00:00",
        "included_in_blocks":
          [ "BLSi1WhUAxGAP9UcD2e1pHSFDo98MgKRA7wauv1p9dMRdLPsy2q" ] },
      { "delegate": "tz3QSGPoRp3Kn7n3vY24eYeu3Peuqo45LQ4D",
        "reception_time": "2022-01-18T13:56:56.043-00:00",
        "included_in_blocks":
          [ "BLSi1WhUAxGAP9UcD2e1pHSFDo98MgKRA7wauv1p9dMRdLPsy2q" ] },
      { "delegate": "tz3RKYFsLuQzKBtmYuLNas7uMu3AsYd4QdsA",
        "reception_time": "2022-01-18T13:56:56.028-00:00",
        "included_in_blocks":
          [ "BLSi1WhUAxGAP9UcD2e1pHSFDo98MgKRA7wauv1p9dMRdLPsy2q" ] },
      { "delegate": "tz3gtoUxdudfBRcNY7iVdKPHCYYX6xdPpoRS",
        "reception_time": "2022-01-18T13:56:56.019-00:00",
        "included_in_blocks":
          [ "BLSi1WhUAxGAP9UcD2e1pHSFDo98MgKRA7wauv1p9dMRdLPsy2q" ] },
      { "delegate": "tz3S6BBeKgJGXxvLyZ1xzXzMPn11nnFtq5L9",
        "reception_time": "2022-01-18T13:56:56.019-00:00",
        "included_in_blocks":
          [ "BLSi1WhUAxGAP9UcD2e1pHSFDo98MgKRA7wauv1p9dMRdLPsy2q" ] },
      { "delegate": "tz3NxTnke1acr8o3h5y9ytf5awQBGNJUKzVU",
        "reception_time": "2022-01-18T13:56:55.982-00:00",
        "included_in_blocks":
          [ "BLSi1WhUAxGAP9UcD2e1pHSFDo98MgKRA7wauv1p9dMRdLPsy2q" ] },
      { "delegate": "tz3hw2kqXhLUvY65ca1eety2oQTpAvd34R9Q",
        "reception_time": "2022-01-18T13:56:55.957-00:00",
        "included_in_blocks":
          [ "BLSi1WhUAxGAP9UcD2e1pHSFDo98MgKRA7wauv1p9dMRdLPsy2q" ] },
      { "delegate": "tz3TTPtexYio6PPT9M9WdYnM5xob1xvQPiUp",
        "reception_time": "2022-01-18T13:56:55.924-00:00",
        "included_in_blocks":
          [ "BLSi1WhUAxGAP9UcD2e1pHSFDo98MgKRA7wauv1p9dMRdLPsy2q" ] },
      { "delegate": "tz3ZbP2pM3nwvXztbuMJwJnDvV5xdpU8UkkD",
        "reception_time": "2022-01-18T13:56:55.916-00:00",
        "included_in_blocks":
          [ "BLSi1WhUAxGAP9UcD2e1pHSFDo98MgKRA7wauv1p9dMRdLPsy2q" ] },
      { "delegate": "tz1Kt4P8BCaP93AEV4eA7gmpRryWt5hznjCP",
        "reception_time": "2022-01-18T13:56:55.859-00:00",
        "included_in_blocks":
          [ "BLSi1WhUAxGAP9UcD2e1pHSFDo98MgKRA7wauv1p9dMRdLPsy2q" ] },
      { "delegate": "tz1Ldzz6k1BHdhuKvAtMRX7h5kJSMHESMHLC",
        "reception_time": "2022-01-18T13:56:55.741-00:00",
        "included_in_blocks":
          [ "BLSi1WhUAxGAP9UcD2e1pHSFDo98MgKRA7wauv1p9dMRdLPsy2q" ] },
      { "delegate": "tz3Zhs2dygr55yHyQyKjntAtY9bgfhLZ4Xj1",
        "reception_time": "2022-01-18T13:56:55.673-00:00",
        "included_in_blocks":
          [ "BLSi1WhUAxGAP9UcD2e1pHSFDo98MgKRA7wauv1p9dMRdLPsy2q" ] },
      { "delegate": "tz1TRspM5SeZpaQUhzByXbEvqKF1vnCM2YTK",
        "reception_time": "2022-01-18T13:56:55.662-00:00",
        "included_in_blocks":
          [ "BLSi1WhUAxGAP9UcD2e1pHSFDo98MgKRA7wauv1p9dMRdLPsy2q" ] },
      { "delegate": "tz3iJu5vrKZcsqRPs8yJ61UDoeEXZmtro4qh",
        "reception_time": "2022-01-18T13:56:55.641-00:00",
        "included_in_blocks":
          [ "BLSi1WhUAxGAP9UcD2e1pHSFDo98MgKRA7wauv1p9dMRdLPsy2q" ] },
      { "delegate": "tz3QCNyySViKHmeSr45kzDxzchys7NiXCWoa",
        "reception_time": "2022-01-18T13:56:55.532-00:00",
        "included_in_blocks":
          [ "BLSi1WhUAxGAP9UcD2e1pHSFDo98MgKRA7wauv1p9dMRdLPsy2q" ] },
      { "delegate": "tz1gUNyn3hmnEWqkusWPzxRaon1cs7ndWh7h",
        "reception_time": "2022-01-18T13:56:55.499-00:00",
        "included_in_blocks":
          [ "BLSi1WhUAxGAP9UcD2e1pHSFDo98MgKRA7wauv1p9dMRdLPsy2q" ] },
      { "delegate": "tz1VQnqCCqX4K5sP3FNkVSNKTdCAMJDd3E1n",
        "reception_time": "2022-01-18T13:56:55.483-00:00",
        "included_in_blocks":
          [ "BLSi1WhUAxGAP9UcD2e1pHSFDo98MgKRA7wauv1p9dMRdLPsy2q" ] },
      { "delegate": "tz1TXzyaKUA8wsWefdSnyaYFnV2M3vCV7er9",
        "reception_time": "2022-01-18T13:56:55.344-00:00",
        "included_in_blocks":
          [ "BLSi1WhUAxGAP9UcD2e1pHSFDo98MgKRA7wauv1p9dMRdLPsy2q" ] },
      { "delegate": "tz1beersuEDv8Z7ngQ825xfbaJNS2EhXnyHR",
        "reception_time": "2022-01-18T13:56:55.344-00:00",
        "included_in_blocks":
          [ "BLSi1WhUAxGAP9UcD2e1pHSFDo98MgKRA7wauv1p9dMRdLPsy2q" ] },
      { "delegate": "tz1Zhv3RkfU2pHrmaiDyxp7kFZpZrUCu1CiF",
        "reception_time": "2022-01-18T13:56:55.344-00:00",
        "included_in_blocks":
          [ "BLSi1WhUAxGAP9UcD2e1pHSFDo98MgKRA7wauv1p9dMRdLPsy2q" ] },
      { "delegate": "tz1Lhf4J9Qxoe3DZ2nfe8FGDnvVj7oKjnMY6",
        "reception_time": "2022-01-18T13:56:55.344-00:00",
        "included_in_blocks":
          [ "BLSi1WhUAxGAP9UcD2e1pHSFDo98MgKRA7wauv1p9dMRdLPsy2q" ] },
      { "delegate": "tz1STeamwbp68THcny9zk3LsbG3H36DMvbRK",
        "reception_time": "2022-01-18T13:56:55.344-00:00",
        "included_in_blocks":
          [ "BLSi1WhUAxGAP9UcD2e1pHSFDo98MgKRA7wauv1p9dMRdLPsy2q" ] },
      { "delegate": "tz1irJKkXS2DBWkU1NnmFQx1c1L7pbGg4yhk",
        "reception_time": "2022-01-18T13:56:55.344-00:00",
        "included_in_blocks":
          [ "BLSi1WhUAxGAP9UcD2e1pHSFDo98MgKRA7wauv1p9dMRdLPsy2q" ] },
      { "delegate": "tz1P2Po7YM526ughEsRbY4oR9zaUPDZjxFrb",
        "reception_time": "2022-01-18T13:56:55.344-00:00",
        "included_in_blocks":
          [ "BLSi1WhUAxGAP9UcD2e1pHSFDo98MgKRA7wauv1p9dMRdLPsy2q" ] },
      { "delegate": "tz1S8e9GgdZG78XJRB3NqabfWeM37GnhZMWQ",
        "reception_time": "2022-01-18T13:56:55.344-00:00",
        "included_in_blocks":
          [ "BLSi1WhUAxGAP9UcD2e1pHSFDo98MgKRA7wauv1p9dMRdLPsy2q" ] },
      { "delegate": "tz1ibcPVGK4Y8pcW4BYUsojiHoBKnZbyDGrX" },
      { "delegate": "tz1Vyuu4EJ5Nym4JcrfRLnp3hpaq1DSEp1Ke" } ] }