{ "blocks":
    [ { "hash": "BMKKyA3kdPKD7WEb53eHB9s4T6CsvRrswEnbXQpjgPjdkBSy9vE",
        "delegate": "tz1P2Po7YM526ughEsRbY4oR9zaUPDZjxFrb",
        "reception_time": "2022-01-18T15:55:13.189-00:00",
        "timestamp": "2022-01-18T15:55:00Z" } ],
  "endorsements":
    [ { "delegate": "tz1N3eWfNjfFEJUS77Ya5HX4Tv6dg5jPmhRh" },
      { "delegate": "tz1Zhv3RkfU2pHrmaiDyxp7kFZpZrUCu1CiF",
        "reception_time": "2022-01-18T15:55:13.119-00:00",
        "errors":
          [ { "kind": "temporary",
              "id": "proto.011-PtHangz2.prefilter.outdated_endorsement" } ],
        "included_in_blocks":
          [ "BKnmDFaj1AHVpSKcYgCeyJ41bPXFxUiLmdttQJPHXJ7DmMyBbyG" ] },
      { "delegate": "tz1aKxnrzx5PXZJe7unufEswVRCMU9yafmfb",
        "reception_time": "2022-01-18T15:55:13.107-00:00",
        "errors":
          [ { "kind": "temporary",
              "id": "proto.011-PtHangz2.prefilter.outdated_endorsement" } ],
        "included_in_blocks":
          [ "BKnmDFaj1AHVpSKcYgCeyJ41bPXFxUiLmdttQJPHXJ7DmMyBbyG" ] },
      { "delegate": "tz1S8e9GgdZG78XJRB3NqabfWeM37GnhZMWQ",
        "reception_time": "2022-01-18T15:55:12.524-00:00",
        "errors":
          [ { "kind": "temporary",
              "id": "proto.011-PtHangz2.prefilter.outdated_endorsement" } ],
        "included_in_blocks":
          [ "BKnmDFaj1AHVpSKcYgCeyJ41bPXFxUiLmdttQJPHXJ7DmMyBbyG" ] },
      { "delegate": "tz3bEQoFCZEEfZMskefZ8q8e4eiHH1pssRax",
        "reception_time": "2022-01-18T15:55:23.337-00:00",
        "included_in_blocks":
          [ "BKnmDFaj1AHVpSKcYgCeyJ41bPXFxUiLmdttQJPHXJ7DmMyBbyG" ] },
      { "delegate": "tz1gg5bjopPcr9agjamyu9BbXKLibNc2rbAq",
        "reception_time": "2022-01-18T15:55:18.999-00:00",
        "included_in_blocks":
          [ "BKnmDFaj1AHVpSKcYgCeyJ41bPXFxUiLmdttQJPHXJ7DmMyBbyG" ] },
      { "delegate": "tz1W5VkdB5s7ENMESVBtwyt9kyvLqPcUczRT",
        "reception_time": "2022-01-18T15:55:18.604-00:00",
        "included_in_blocks":
          [ "BKnmDFaj1AHVpSKcYgCeyJ41bPXFxUiLmdttQJPHXJ7DmMyBbyG" ] },
      { "delegate": "tz1awXW7wuXy21c66vBudMXQVAPgRnqqwgTH",
        "reception_time": "2022-01-18T15:55:18.279-00:00",
        "included_in_blocks":
          [ "BKnmDFaj1AHVpSKcYgCeyJ41bPXFxUiLmdttQJPHXJ7DmMyBbyG" ] },
      { "delegate": "tz1aRoaRhSpRYvFdyvgWLL6TGyRoGF51wDjM",
        "reception_time": "2022-01-18T15:55:17.550-00:00",
        "included_in_blocks":
          [ "BKnmDFaj1AHVpSKcYgCeyJ41bPXFxUiLmdttQJPHXJ7DmMyBbyG" ] },
      { "delegate": "tz1T7duV5gZWSTq4YpBGbXNLTfznCLDrFxvs",
        "reception_time": "2022-01-18T15:55:17.507-00:00",
        "included_in_blocks":
          [ "BKnmDFaj1AHVpSKcYgCeyJ41bPXFxUiLmdttQJPHXJ7DmMyBbyG" ] },
      { "delegate": "tz1dRKU4FQ9QRRQPdaH4zCR6gmCmXfcvcgtB",
        "reception_time": "2022-01-18T15:55:17.457-00:00",
        "included_in_blocks":
          [ "BKnmDFaj1AHVpSKcYgCeyJ41bPXFxUiLmdttQJPHXJ7DmMyBbyG" ] },
      { "delegate": "tz3NExpXn9aPNZPorRE4SdjJ2RGrfbJgMAaV",
        "reception_time": "2022-01-18T15:55:17.312-00:00",
        "included_in_blocks":
          [ "BKnmDFaj1AHVpSKcYgCeyJ41bPXFxUiLmdttQJPHXJ7DmMyBbyG" ] },
      { "delegate": "tz1RjoHc98dBoqaH2jawF62XNKh7YsHwbkEv",
        "reception_time": "2022-01-18T15:55:16.878-00:00",
        "included_in_blocks":
          [ "BKnmDFaj1AHVpSKcYgCeyJ41bPXFxUiLmdttQJPHXJ7DmMyBbyG" ] },
      { "delegate": "tz1SYq214SCBy9naR6cvycQsYcUGpBqQAE8d",
        "reception_time": "2022-01-18T15:55:16.704-00:00",
        "included_in_blocks":
          [ "BKnmDFaj1AHVpSKcYgCeyJ41bPXFxUiLmdttQJPHXJ7DmMyBbyG" ] },
      { "delegate": "tz1Z2jXfEXL7dXhs6bsLmyLFLfmAkXBzA9WE",
        "reception_time": "2022-01-18T15:55:16.532-00:00",
        "included_in_blocks":
          [ "BKnmDFaj1AHVpSKcYgCeyJ41bPXFxUiLmdttQJPHXJ7DmMyBbyG" ] },
      { "delegate": "tz1hAYfexyzPGG6RhZZMpDvAHifubsbb6kgn",
        "reception_time": "2022-01-18T15:55:16.314-00:00",
        "included_in_blocks":
          [ "BKnmDFaj1AHVpSKcYgCeyJ41bPXFxUiLmdttQJPHXJ7DmMyBbyG" ] },
      { "delegate": "tz2FCNBrERXtaTtNX6iimR1UJ5JSDxvdHM93",
        "reception_time": "2022-01-18T15:55:16.405-00:00",
        "included_in_blocks":
          [ "BKnmDFaj1AHVpSKcYgCeyJ41bPXFxUiLmdttQJPHXJ7DmMyBbyG" ] },
      { "delegate": "tz3VEZ4k6a4Wx42iyev6i2aVAptTRLEAivNN",
        "reception_time": "2022-01-18T15:55:16.438-00:00",
        "included_in_blocks":
          [ "BKnmDFaj1AHVpSKcYgCeyJ41bPXFxUiLmdttQJPHXJ7DmMyBbyG" ] },
      { "delegate": "tz3RDC3Jdn4j15J7bBHZd29EUee9gVB1CxD9",
        "reception_time": "2022-01-18T15:55:16.586-00:00",
        "included_in_blocks":
          [ "BKnmDFaj1AHVpSKcYgCeyJ41bPXFxUiLmdttQJPHXJ7DmMyBbyG" ] },
      { "delegate": "tz3NDpRj6WBrJPikcPVHRBEjWKxFw3c6eQPS",
        "reception_time": "2022-01-18T15:55:16.148-00:00",
        "included_in_blocks":
          [ "BKnmDFaj1AHVpSKcYgCeyJ41bPXFxUiLmdttQJPHXJ7DmMyBbyG" ] },
      { "delegate": "tz1Nf6tsK4G6bBqgSQERy4nUtkHNKUVdh7q1",
        "reception_time": "2022-01-18T15:55:16.162-00:00",
        "included_in_blocks":
          [ "BKnmDFaj1AHVpSKcYgCeyJ41bPXFxUiLmdttQJPHXJ7DmMyBbyG" ] },
      { "delegate": "tz3WMqdzXqRWXwyvj5Hp2H7QEepaUuS7vd9K",
        "reception_time": "2022-01-18T15:55:16.123-00:00",
        "included_in_blocks":
          [ "BKnmDFaj1AHVpSKcYgCeyJ41bPXFxUiLmdttQJPHXJ7DmMyBbyG" ] },
      { "delegate": "tz1NEKxGEHsFufk87CVZcrqWu8o22qh46GK6",
        "reception_time": "2022-01-18T15:55:15.950-00:00",
        "included_in_blocks":
          [ "BKnmDFaj1AHVpSKcYgCeyJ41bPXFxUiLmdttQJPHXJ7DmMyBbyG" ] },
      { "delegate": "tz1PeZx7FXy7QRuMREGXGxeipb24RsMMzUNe",
        "reception_time": "2022-01-18T15:55:16.045-00:00",
        "included_in_blocks":
          [ "BKnmDFaj1AHVpSKcYgCeyJ41bPXFxUiLmdttQJPHXJ7DmMyBbyG" ] },
      { "delegate": "tz3RB4aoyjov4KEVRbuhvQ1CKJgBJMWhaeB8",
        "reception_time": "2022-01-18T15:55:15.809-00:00",
        "included_in_blocks":
          [ "BKnmDFaj1AHVpSKcYgCeyJ41bPXFxUiLmdttQJPHXJ7DmMyBbyG" ] },
      { "delegate": "tz3UoffC7FG7zfpmvmjUmUeAaHvzdcUvAj6r",
        "reception_time": "2022-01-18T15:55:15.744-00:00",
        "included_in_blocks":
          [ "BKnmDFaj1AHVpSKcYgCeyJ41bPXFxUiLmdttQJPHXJ7DmMyBbyG" ] },
      { "delegate": "tz1V4qCyvPKZ5UeqdH14HN42rxvNPQfc9UZg",
        "reception_time": "2022-01-18T15:55:15.649-00:00",
        "included_in_blocks":
          [ "BKnmDFaj1AHVpSKcYgCeyJ41bPXFxUiLmdttQJPHXJ7DmMyBbyG" ] },
      { "delegate": "tz1KfEsrtDaA1sX7vdM4qmEPWuSytuqCDp5j",
        "reception_time": "2022-01-18T15:55:15.505-00:00",
        "included_in_blocks":
          [ "BKnmDFaj1AHVpSKcYgCeyJ41bPXFxUiLmdttQJPHXJ7DmMyBbyG" ] },
      { "delegate": "tz1WBfwbT66FC6BTLexc2BoyCCBM9LG7pnVW",
        "reception_time": "2022-01-18T15:55:15.578-00:00",
        "included_in_blocks":
          [ "BKnmDFaj1AHVpSKcYgCeyJ41bPXFxUiLmdttQJPHXJ7DmMyBbyG" ] },
      { "delegate": "tz1MQMiZHV8q4tTwUMWmS5Y3kaP6J2136iXr",
        "reception_time": "2022-01-18T15:55:15.502-00:00",
        "included_in_blocks":
          [ "BKnmDFaj1AHVpSKcYgCeyJ41bPXFxUiLmdttQJPHXJ7DmMyBbyG" ] },
      { "delegate": "tz1LUNAvfLp4xHUBTc1U8va7fVMNYudPq3d2",
        "reception_time": "2022-01-18T15:55:15.407-00:00",
        "included_in_blocks":
          [ "BKnmDFaj1AHVpSKcYgCeyJ41bPXFxUiLmdttQJPHXJ7DmMyBbyG" ] },
      { "delegate": "tz1h4GUAMweP7SNWzDgvMk3yRCAZyaP1MxZq",
        "reception_time": "2022-01-18T15:55:15.452-00:00",
        "included_in_blocks":
          [ "BKnmDFaj1AHVpSKcYgCeyJ41bPXFxUiLmdttQJPHXJ7DmMyBbyG" ] },
      { "delegate": "tz1Kf25fX1VdmYGSEzwFy1wNmkbSEZ2V83sY",
        "reception_time": "2022-01-18T15:55:15.452-00:00",
        "included_in_blocks":
          [ "BKnmDFaj1AHVpSKcYgCeyJ41bPXFxUiLmdttQJPHXJ7DmMyBbyG" ] },
      { "delegate": "tz1KzSC1J9aBxKp7u8TUnpN8L7S65PBRkgdF",
        "reception_time": "2022-01-18T15:55:15.483-00:00",
        "included_in_blocks":
          [ "BKnmDFaj1AHVpSKcYgCeyJ41bPXFxUiLmdttQJPHXJ7DmMyBbyG" ] },
      { "delegate": "tz1dwu9aYb7CRNq4Y2zAjipdjFuSVKhHS8vA",
        "reception_time": "2022-01-18T15:55:15.457-00:00",
        "included_in_blocks":
          [ "BKnmDFaj1AHVpSKcYgCeyJ41bPXFxUiLmdttQJPHXJ7DmMyBbyG" ] },
      { "delegate": "tz3bvNMQ95vfAYtG8193ymshqjSvmxiCUuR5",
        "reception_time": "2022-01-18T15:55:15.428-00:00",
        "included_in_blocks":
          [ "BKnmDFaj1AHVpSKcYgCeyJ41bPXFxUiLmdttQJPHXJ7DmMyBbyG" ] },
      { "delegate": "tz1gfArv665EUkSg2ojMBzcbfwuPxAvqPvjo",
        "reception_time": "2022-01-18T15:55:15.347-00:00",
        "included_in_blocks":
          [ "BKnmDFaj1AHVpSKcYgCeyJ41bPXFxUiLmdttQJPHXJ7DmMyBbyG" ] },
      { "delegate": "tz1RCFbB9GpALpsZtu6J58sb74dm8qe6XBzv",
        "reception_time": "2022-01-18T15:55:15.407-00:00",
        "included_in_blocks":
          [ "BKnmDFaj1AHVpSKcYgCeyJ41bPXFxUiLmdttQJPHXJ7DmMyBbyG" ] },
      { "delegate": "tz1ei4WtWEMEJekSv8qDnu9PExG6Q8HgRGr3",
        "reception_time": "2022-01-18T15:55:15.422-00:00",
        "included_in_blocks":
          [ "BKnmDFaj1AHVpSKcYgCeyJ41bPXFxUiLmdttQJPHXJ7DmMyBbyG" ] },
      { "delegate": "tz3bTdwZinP8U1JmSweNzVKhmwafqWmFWRfk",
        "reception_time": "2022-01-18T15:55:15.324-00:00",
        "included_in_blocks":
          [ "BKnmDFaj1AHVpSKcYgCeyJ41bPXFxUiLmdttQJPHXJ7DmMyBbyG" ] },
      { "delegate": "tz1S8MNvuFEUsWgjHvi3AxibRBf388NhT1q2",
        "reception_time": "2022-01-18T15:55:15.353-00:00",
        "included_in_blocks":
          [ "BKnmDFaj1AHVpSKcYgCeyJ41bPXFxUiLmdttQJPHXJ7DmMyBbyG" ] },
      { "delegate": "tz3S6BBeKgJGXxvLyZ1xzXzMPn11nnFtq5L9",
        "reception_time": "2022-01-18T15:55:15.390-00:00",
        "included_in_blocks":
          [ "BKnmDFaj1AHVpSKcYgCeyJ41bPXFxUiLmdttQJPHXJ7DmMyBbyG" ] },
      { "delegate": "tz3QT9dHYKDqh563chVa6za8526ys1UKfRfL",
        "reception_time": "2022-01-18T15:55:15.381-00:00",
        "included_in_blocks":
          [ "BKnmDFaj1AHVpSKcYgCeyJ41bPXFxUiLmdttQJPHXJ7DmMyBbyG" ] },
      { "delegate": "tz3iJu5vrKZcsqRPs8yJ61UDoeEXZmtro4qh",
        "reception_time": "2022-01-18T15:55:15.361-00:00",
        "included_in_blocks":
          [ "BKnmDFaj1AHVpSKcYgCeyJ41bPXFxUiLmdttQJPHXJ7DmMyBbyG" ] },
      { "delegate": "tz3Zhs2dygr55yHyQyKjntAtY9bgfhLZ4Xj1",
        "reception_time": "2022-01-18T15:55:15.415-00:00",
        "included_in_blocks":
          [ "BKnmDFaj1AHVpSKcYgCeyJ41bPXFxUiLmdttQJPHXJ7DmMyBbyG" ] },
      { "delegate": "tz1TRspM5SeZpaQUhzByXbEvqKF1vnCM2YTK",
        "reception_time": "2022-01-18T15:55:15.327-00:00",
        "included_in_blocks":
          [ "BKnmDFaj1AHVpSKcYgCeyJ41bPXFxUiLmdttQJPHXJ7DmMyBbyG" ] },
      { "delegate": "tz3e7LbZvUtoXhpUD1yb6wuFodZpfYRb9nWJ",
        "reception_time": "2022-01-18T15:55:15.398-00:00",
        "included_in_blocks":
          [ "BKnmDFaj1AHVpSKcYgCeyJ41bPXFxUiLmdttQJPHXJ7DmMyBbyG" ] },
      { "delegate": "tz1P2Po7YM526ughEsRbY4oR9zaUPDZjxFrb",
        "reception_time": "2022-01-18T15:55:15.337-00:00",
        "included_in_blocks":
          [ "BKnmDFaj1AHVpSKcYgCeyJ41bPXFxUiLmdttQJPHXJ7DmMyBbyG" ] },
      { "delegate": "tz1bkESY3QKVUwboioG5vSbGiS9GRwHdB4xB",
        "reception_time": "2022-01-18T15:55:15.229-00:00",
        "included_in_blocks":
          [ "BKnmDFaj1AHVpSKcYgCeyJ41bPXFxUiLmdttQJPHXJ7DmMyBbyG" ] },
      { "delegate": "tz1WCd2jm4uSt4vntk4vSuUWoZQGhLcDuR9q",
        "reception_time": "2022-01-18T15:55:15.339-00:00",
        "included_in_blocks":
          [ "BKnmDFaj1AHVpSKcYgCeyJ41bPXFxUiLmdttQJPHXJ7DmMyBbyG" ] },
      { "delegate": "tz1gUNyn3hmnEWqkusWPzxRaon1cs7ndWh7h",
        "reception_time": "2022-01-18T15:55:15.342-00:00",
        "included_in_blocks":
          [ "BKnmDFaj1AHVpSKcYgCeyJ41bPXFxUiLmdttQJPHXJ7DmMyBbyG" ] },
      { "delegate": "tz1VQnqCCqX4K5sP3FNkVSNKTdCAMJDd3E1n",
        "reception_time": "2022-01-18T15:55:15.316-00:00",
        "included_in_blocks":
          [ "BKnmDFaj1AHVpSKcYgCeyJ41bPXFxUiLmdttQJPHXJ7DmMyBbyG" ] },
      { "delegate": "tz3hw2kqXhLUvY65ca1eety2oQTpAvd34R9Q",
        "reception_time": "2022-01-18T15:55:15.284-00:00",
        "included_in_blocks":
          [ "BKnmDFaj1AHVpSKcYgCeyJ41bPXFxUiLmdttQJPHXJ7DmMyBbyG" ] },
      { "delegate": "tz3RKYFsLuQzKBtmYuLNas7uMu3AsYd4QdsA",
        "reception_time": "2022-01-18T15:55:15.249-00:00",
        "included_in_blocks":
          [ "BKnmDFaj1AHVpSKcYgCeyJ41bPXFxUiLmdttQJPHXJ7DmMyBbyG" ] },
      { "delegate": "tz3NxTnke1acr8o3h5y9ytf5awQBGNJUKzVU",
        "reception_time": "2022-01-18T15:55:15.271-00:00",
        "included_in_blocks":
          [ "BKnmDFaj1AHVpSKcYgCeyJ41bPXFxUiLmdttQJPHXJ7DmMyBbyG" ] },
      { "delegate": "tz1Ldzz6k1BHdhuKvAtMRX7h5kJSMHESMHLC",
        "reception_time": "2022-01-18T15:55:15.234-00:00",
        "included_in_blocks":
          [ "BKnmDFaj1AHVpSKcYgCeyJ41bPXFxUiLmdttQJPHXJ7DmMyBbyG" ] },
      { "delegate": "tz1irJKkXS2DBWkU1NnmFQx1c1L7pbGg4yhk",
        "reception_time": "2022-01-18T15:55:15.229-00:00",
        "included_in_blocks":
          [ "BKnmDFaj1AHVpSKcYgCeyJ41bPXFxUiLmdttQJPHXJ7DmMyBbyG" ] },
      { "delegate": "tz1VmiY38m3y95HqQLjMwqnMS7sdMfGomzKi",
        "reception_time": "2022-01-18T15:55:15.293-00:00",
        "included_in_blocks":
          [ "BKnmDFaj1AHVpSKcYgCeyJ41bPXFxUiLmdttQJPHXJ7DmMyBbyG" ] },
      { "delegate": "tz3QSGPoRp3Kn7n3vY24eYeu3Peuqo45LQ4D",
        "reception_time": "2022-01-18T15:55:15.242-00:00",
        "included_in_blocks":
          [ "BKnmDFaj1AHVpSKcYgCeyJ41bPXFxUiLmdttQJPHXJ7DmMyBbyG" ] },
      { "delegate": "tz1Scdr2HsZiQjc7bHMeBbmDRXYVvdhjJbBh",
        "reception_time": "2022-01-18T15:55:15.213-00:00",
        "included_in_blocks":
          [ "BKnmDFaj1AHVpSKcYgCeyJ41bPXFxUiLmdttQJPHXJ7DmMyBbyG" ] },
      { "delegate": "tz1Kt4P8BCaP93AEV4eA7gmpRryWt5hznjCP",
        "reception_time": "2022-01-18T15:55:15.263-00:00",
        "included_in_blocks":
          [ "BKnmDFaj1AHVpSKcYgCeyJ41bPXFxUiLmdttQJPHXJ7DmMyBbyG" ] },
      { "delegate": "tz1aDiEJf9ztRrAJEXZfcG3CKimoKsGhwVAi",
        "reception_time": "2022-01-18T15:55:15.230-00:00",
        "included_in_blocks":
          [ "BKnmDFaj1AHVpSKcYgCeyJ41bPXFxUiLmdttQJPHXJ7DmMyBbyG" ] },
      { "delegate": "tz1beersuEDv8Z7ngQ825xfbaJNS2EhXnyHR",
        "reception_time": "2022-01-18T15:55:15.229-00:00",
        "included_in_blocks":
          [ "BKnmDFaj1AHVpSKcYgCeyJ41bPXFxUiLmdttQJPHXJ7DmMyBbyG" ] },
      { "delegate": "tz1eEnQhbwf6trb8Q8mPb2RaPkNk2rN7BKi8",
        "reception_time": "2022-01-18T15:55:15.199-00:00",
        "included_in_blocks":
          [ "BKnmDFaj1AHVpSKcYgCeyJ41bPXFxUiLmdttQJPHXJ7DmMyBbyG" ] },
      { "delegate": "tz1TXzyaKUA8wsWefdSnyaYFnV2M3vCV7er9",
        "reception_time": "2022-01-18T15:55:15.253-00:00",
        "included_in_blocks":
          [ "BKnmDFaj1AHVpSKcYgCeyJ41bPXFxUiLmdttQJPHXJ7DmMyBbyG" ] } ] }