{ "blocks":
    [ { "hash": "BLNFjL7CTA5T6dLBEVxsFJwmEB3g3LWuNmhhZQLhKH2h9nXm2Ne",
        "delegate": "tz1irJKkXS2DBWkU1NnmFQx1c1L7pbGg4yhk",
        "reception_time": "2022-01-18T14:13:56.053-00:00",
        "timestamp": "2022-01-18T14:13:50Z" } ],
  "endorsements":
    [ { "delegate": "tz1TeWzSWBNZ7PB6Kb6xUpGCT7pu13PFv3cv" },
      { "delegate": "tz1cYufsxHXJcvANhvS55h3aY32a9BAFB494",
        "reception_time": "2022-01-18T14:14:16.486-00:00",
        "included_in_blocks":
          [ "BLADZV1rTx6bLocr9GCBJGJXGGv2fL2xPG6td68RzANqjuPEB6C" ] },
      { "delegate": "tz1MduLJ4AAR6g7CDjB77Jci3gvu3Xsvk6bJ",
        "reception_time": "2022-01-18T14:14:08.914-00:00",
        "included_in_blocks":
          [ "BLADZV1rTx6bLocr9GCBJGJXGGv2fL2xPG6td68RzANqjuPEB6C" ] },
      { "delegate": "tz1RAxW1rBTRumV9QEpFsw51QWPQmAKHGMei",
        "reception_time": "2022-01-18T14:14:06.477-00:00",
        "included_in_blocks":
          [ "BLADZV1rTx6bLocr9GCBJGJXGGv2fL2xPG6td68RzANqjuPEB6C" ] },
      { "delegate": "tz1W5VkdB5s7ENMESVBtwyt9kyvLqPcUczRT",
        "reception_time": "2022-01-18T14:14:01.199-00:00",
        "included_in_blocks":
          [ "BLADZV1rTx6bLocr9GCBJGJXGGv2fL2xPG6td68RzANqjuPEB6C" ] },
      { "delegate": "tz1awXW7wuXy21c66vBudMXQVAPgRnqqwgTH",
        "reception_time": "2022-01-18T14:14:00.520-00:00",
        "included_in_blocks":
          [ "BLADZV1rTx6bLocr9GCBJGJXGGv2fL2xPG6td68RzANqjuPEB6C" ] },
      { "delegate": "tz1SYq214SCBy9naR6cvycQsYcUGpBqQAE8d",
        "reception_time": "2022-01-18T14:14:00.189-00:00",
        "included_in_blocks":
          [ "BLADZV1rTx6bLocr9GCBJGJXGGv2fL2xPG6td68RzANqjuPEB6C" ] },
      { "delegate": "tz1TRqbYbUf2GyrjErf3hBzgBJPzW8y36qEs",
        "reception_time": "2022-01-18T14:13:59.979-00:00",
        "included_in_blocks":
          [ "BLADZV1rTx6bLocr9GCBJGJXGGv2fL2xPG6td68RzANqjuPEB6C" ] },
      { "delegate": "tz1aRoaRhSpRYvFdyvgWLL6TGyRoGF51wDjM",
        "reception_time": "2022-01-18T14:13:59.784-00:00",
        "included_in_blocks":
          [ "BLADZV1rTx6bLocr9GCBJGJXGGv2fL2xPG6td68RzANqjuPEB6C" ] },
      { "delegate": "tz1V3yg82mcrPJbegqVCPn6bC8w1CSTRp3f8",
        "reception_time": "2022-01-18T14:13:59.641-00:00",
        "included_in_blocks":
          [ "BLADZV1rTx6bLocr9GCBJGJXGGv2fL2xPG6td68RzANqjuPEB6C" ] },
      { "delegate": "tz3NExpXn9aPNZPorRE4SdjJ2RGrfbJgMAaV",
        "reception_time": "2022-01-18T14:13:59.499-00:00",
        "included_in_blocks":
          [ "BLADZV1rTx6bLocr9GCBJGJXGGv2fL2xPG6td68RzANqjuPEB6C" ] },
      { "delegate": "tz1T7duV5gZWSTq4YpBGbXNLTfznCLDrFxvs",
        "reception_time": "2022-01-18T14:13:59.624-00:00",
        "included_in_blocks":
          [ "BLADZV1rTx6bLocr9GCBJGJXGGv2fL2xPG6td68RzANqjuPEB6C" ] },
      { "delegate": "tz1dRKU4FQ9QRRQPdaH4zCR6gmCmXfcvcgtB",
        "reception_time": "2022-01-18T14:13:59.536-00:00",
        "included_in_blocks":
          [ "BLADZV1rTx6bLocr9GCBJGJXGGv2fL2xPG6td68RzANqjuPEB6C" ] },
      { "delegate": "tz1KfEsrtDaA1sX7vdM4qmEPWuSytuqCDp5j",
        "reception_time": "2022-01-18T14:13:59.253-00:00",
        "included_in_blocks":
          [ "BLADZV1rTx6bLocr9GCBJGJXGGv2fL2xPG6td68RzANqjuPEB6C" ] },
      { "delegate": "tz1SohptP53wDPZhzTWzDUFAUcWF6DMBpaJV",
        "reception_time": "2022-01-18T14:13:59.119-00:00",
        "included_in_blocks":
          [ "BLADZV1rTx6bLocr9GCBJGJXGGv2fL2xPG6td68RzANqjuPEB6C" ] },
      { "delegate": "tz1NEKxGEHsFufk87CVZcrqWu8o22qh46GK6",
        "reception_time": "2022-01-18T14:13:59.049-00:00",
        "included_in_blocks":
          [ "BLADZV1rTx6bLocr9GCBJGJXGGv2fL2xPG6td68RzANqjuPEB6C" ] },
      { "delegate": "tz3WMqdzXqRWXwyvj5Hp2H7QEepaUuS7vd9K",
        "reception_time": "2022-01-18T14:13:58.990-00:00",
        "included_in_blocks":
          [ "BLADZV1rTx6bLocr9GCBJGJXGGv2fL2xPG6td68RzANqjuPEB6C" ] },
      { "delegate": "tz3VEZ4k6a4Wx42iyev6i2aVAptTRLEAivNN",
        "reception_time": "2022-01-18T14:13:59.094-00:00",
        "included_in_blocks":
          [ "BLADZV1rTx6bLocr9GCBJGJXGGv2fL2xPG6td68RzANqjuPEB6C" ] },
      { "delegate": "tz3RDC3Jdn4j15J7bBHZd29EUee9gVB1CxD9",
        "reception_time": "2022-01-18T14:13:58.899-00:00",
        "included_in_blocks":
          [ "BLADZV1rTx6bLocr9GCBJGJXGGv2fL2xPG6td68RzANqjuPEB6C" ] },
      { "delegate": "tz3bvNMQ95vfAYtG8193ymshqjSvmxiCUuR5",
        "reception_time": "2022-01-18T14:13:58.759-00:00",
        "included_in_blocks":
          [ "BLADZV1rTx6bLocr9GCBJGJXGGv2fL2xPG6td68RzANqjuPEB6C" ] },
      { "delegate": "tz3NDpRj6WBrJPikcPVHRBEjWKxFw3c6eQPS",
        "reception_time": "2022-01-18T14:13:58.862-00:00",
        "included_in_blocks":
          [ "BLADZV1rTx6bLocr9GCBJGJXGGv2fL2xPG6td68RzANqjuPEB6C" ] },
      { "delegate": "tz1hAYfexyzPGG6RhZZMpDvAHifubsbb6kgn",
        "reception_time": "2022-01-18T14:13:58.583-00:00",
        "included_in_blocks":
          [ "BLADZV1rTx6bLocr9GCBJGJXGGv2fL2xPG6td68RzANqjuPEB6C" ] },
      { "delegate": "tz1UMCB2AHSTwG7YcGNr31CqYCtGN873royv",
        "reception_time": "2022-01-18T14:13:58.784-00:00",
        "included_in_blocks":
          [ "BLADZV1rTx6bLocr9GCBJGJXGGv2fL2xPG6td68RzANqjuPEB6C" ] },
      { "delegate": "tz2FCNBrERXtaTtNX6iimR1UJ5JSDxvdHM93",
        "reception_time": "2022-01-18T14:13:58.619-00:00",
        "included_in_blocks":
          [ "BLADZV1rTx6bLocr9GCBJGJXGGv2fL2xPG6td68RzANqjuPEB6C" ] },
      { "delegate": "tz3UoffC7FG7zfpmvmjUmUeAaHvzdcUvAj6r",
        "reception_time": "2022-01-18T14:13:58.491-00:00",
        "included_in_blocks":
          [ "BLADZV1rTx6bLocr9GCBJGJXGGv2fL2xPG6td68RzANqjuPEB6C" ] },
      { "delegate": "tz1cYqRcjRXSWcs3bjehN21VmBAH2aFMg6Ds",
        "reception_time": "2022-01-18T14:13:58.398-00:00",
        "included_in_blocks":
          [ "BLADZV1rTx6bLocr9GCBJGJXGGv2fL2xPG6td68RzANqjuPEB6C" ] },
      { "delegate": "tz1S8MNvuFEUsWgjHvi3AxibRBf388NhT1q2",
        "reception_time": "2022-01-18T14:13:58.238-00:00",
        "included_in_blocks":
          [ "BLADZV1rTx6bLocr9GCBJGJXGGv2fL2xPG6td68RzANqjuPEB6C" ] },
      { "delegate": "tz1MQJPGNMijnXnVoBENFz9rUhaPt3S7rWoz",
        "reception_time": "2022-01-18T14:13:58.235-00:00",
        "included_in_blocks":
          [ "BLADZV1rTx6bLocr9GCBJGJXGGv2fL2xPG6td68RzANqjuPEB6C" ] },
      { "delegate": "tz1dNVDWPf3Q59SdJqnjdnu277iyvReiRS9M",
        "reception_time": "2022-01-18T14:13:58.212-00:00",
        "included_in_blocks":
          [ "BLADZV1rTx6bLocr9GCBJGJXGGv2fL2xPG6td68RzANqjuPEB6C" ] },
      { "delegate": "tz1abmz7jiCV2GH2u81LRrGgAFFgvQgiDiaf",
        "reception_time": "2022-01-18T14:13:58.216-00:00",
        "included_in_blocks":
          [ "BLADZV1rTx6bLocr9GCBJGJXGGv2fL2xPG6td68RzANqjuPEB6C" ] },
      { "delegate": "tz1ei4WtWEMEJekSv8qDnu9PExG6Q8HgRGr3",
        "reception_time": "2022-01-18T14:13:58.045-00:00",
        "included_in_blocks":
          [ "BLADZV1rTx6bLocr9GCBJGJXGGv2fL2xPG6td68RzANqjuPEB6C" ] },
      { "delegate": "tz3RB4aoyjov4KEVRbuhvQ1CKJgBJMWhaeB8",
        "reception_time": "2022-01-18T14:13:57.941-00:00",
        "included_in_blocks":
          [ "BLADZV1rTx6bLocr9GCBJGJXGGv2fL2xPG6td68RzANqjuPEB6C" ] },
      { "delegate": "tz1fUyqYH7H4pRHN1roWY17giXhy1RvxjgUV",
        "reception_time": "2022-01-18T14:13:57.926-00:00",
        "included_in_blocks":
          [ "BLADZV1rTx6bLocr9GCBJGJXGGv2fL2xPG6td68RzANqjuPEB6C" ] },
      { "delegate": "tz1g8vkmcde6sWKaG2NN9WKzCkDM6Rziq194",
        "reception_time": "2022-01-18T14:13:57.790-00:00",
        "included_in_blocks":
          [ "BLADZV1rTx6bLocr9GCBJGJXGGv2fL2xPG6td68RzANqjuPEB6C" ] },
      { "delegate": "tz1RCFbB9GpALpsZtu6J58sb74dm8qe6XBzv",
        "reception_time": "2022-01-18T14:13:57.922-00:00",
        "included_in_blocks":
          [ "BLADZV1rTx6bLocr9GCBJGJXGGv2fL2xPG6td68RzANqjuPEB6C" ] },
      { "delegate": "tz1Nf6tsK4G6bBqgSQERy4nUtkHNKUVdh7q1",
        "reception_time": "2022-01-18T14:13:57.889-00:00",
        "included_in_blocks":
          [ "BLADZV1rTx6bLocr9GCBJGJXGGv2fL2xPG6td68RzANqjuPEB6C" ] },
      { "delegate": "tz1NortRftucvAkD1J58L32EhSVrQEWJCEnB",
        "reception_time": "2022-01-18T14:13:57.777-00:00",
        "included_in_blocks":
          [ "BLADZV1rTx6bLocr9GCBJGJXGGv2fL2xPG6td68RzANqjuPEB6C" ] },
      { "delegate": "tz3bTdwZinP8U1JmSweNzVKhmwafqWmFWRfk",
        "reception_time": "2022-01-18T14:13:57.772-00:00",
        "included_in_blocks":
          [ "BLADZV1rTx6bLocr9GCBJGJXGGv2fL2xPG6td68RzANqjuPEB6C" ] },
      { "delegate": "tz1NSDFKuRyzHxpfG1AMkyCwEiZ52cbR2mRW",
        "reception_time": "2022-01-18T14:13:57.591-00:00",
        "included_in_blocks":
          [ "BLADZV1rTx6bLocr9GCBJGJXGGv2fL2xPG6td68RzANqjuPEB6C" ] },
      { "delegate": "tz1gfArv665EUkSg2ojMBzcbfwuPxAvqPvjo",
        "reception_time": "2022-01-18T14:13:57.731-00:00",
        "included_in_blocks":
          [ "BLADZV1rTx6bLocr9GCBJGJXGGv2fL2xPG6td68RzANqjuPEB6C" ] },
      { "delegate": "tz1VQnqCCqX4K5sP3FNkVSNKTdCAMJDd3E1n",
        "reception_time": "2022-01-18T14:13:57.497-00:00",
        "included_in_blocks":
          [ "BLADZV1rTx6bLocr9GCBJGJXGGv2fL2xPG6td68RzANqjuPEB6C" ] },
      { "delegate": "tz1WCd2jm4uSt4vntk4vSuUWoZQGhLcDuR9q",
        "reception_time": "2022-01-18T14:13:57.485-00:00",
        "included_in_blocks":
          [ "BLADZV1rTx6bLocr9GCBJGJXGGv2fL2xPG6td68RzANqjuPEB6C" ] },
      { "delegate": "tz1gUNyn3hmnEWqkusWPzxRaon1cs7ndWh7h",
        "reception_time": "2022-01-18T14:13:57.500-00:00",
        "included_in_blocks":
          [ "BLADZV1rTx6bLocr9GCBJGJXGGv2fL2xPG6td68RzANqjuPEB6C" ] },
      { "delegate": "tz1W1f1JrE7VsqgpUpj1iiDobqP5TixgZhDk",
        "reception_time": "2022-01-18T14:13:57.494-00:00",
        "included_in_blocks":
          [ "BLADZV1rTx6bLocr9GCBJGJXGGv2fL2xPG6td68RzANqjuPEB6C" ] },
      { "delegate": "tz3QT9dHYKDqh563chVa6za8526ys1UKfRfL",
        "reception_time": "2022-01-18T14:13:57.433-00:00",
        "included_in_blocks":
          [ "BLADZV1rTx6bLocr9GCBJGJXGGv2fL2xPG6td68RzANqjuPEB6C" ] },
      { "delegate": "tz3S6BBeKgJGXxvLyZ1xzXzMPn11nnFtq5L9",
        "reception_time": "2022-01-18T14:13:57.426-00:00",
        "included_in_blocks":
          [ "BLADZV1rTx6bLocr9GCBJGJXGGv2fL2xPG6td68RzANqjuPEB6C" ] },
      { "delegate": "tz3hw2kqXhLUvY65ca1eety2oQTpAvd34R9Q",
        "reception_time": "2022-01-18T14:13:57.372-00:00",
        "included_in_blocks":
          [ "BLADZV1rTx6bLocr9GCBJGJXGGv2fL2xPG6td68RzANqjuPEB6C" ] },
      { "delegate": "tz3QSGPoRp3Kn7n3vY24eYeu3Peuqo45LQ4D",
        "reception_time": "2022-01-18T14:13:57.323-00:00",
        "included_in_blocks":
          [ "BLADZV1rTx6bLocr9GCBJGJXGGv2fL2xPG6td68RzANqjuPEB6C" ] },
      { "delegate": "tz1TRspM5SeZpaQUhzByXbEvqKF1vnCM2YTK",
        "reception_time": "2022-01-18T14:13:57.372-00:00",
        "included_in_blocks":
          [ "BLADZV1rTx6bLocr9GCBJGJXGGv2fL2xPG6td68RzANqjuPEB6C" ] },
      { "delegate": "tz3RKYFsLuQzKBtmYuLNas7uMu3AsYd4QdsA",
        "reception_time": "2022-01-18T14:13:57.354-00:00",
        "included_in_blocks":
          [ "BLADZV1rTx6bLocr9GCBJGJXGGv2fL2xPG6td68RzANqjuPEB6C" ] },
      { "delegate": "tz3gtoUxdudfBRcNY7iVdKPHCYYX6xdPpoRS",
        "reception_time": "2022-01-18T14:13:57.329-00:00",
        "included_in_blocks":
          [ "BLADZV1rTx6bLocr9GCBJGJXGGv2fL2xPG6td68RzANqjuPEB6C" ] },
      { "delegate": "tz3Zhs2dygr55yHyQyKjntAtY9bgfhLZ4Xj1",
        "reception_time": "2022-01-18T14:13:57.361-00:00",
        "included_in_blocks":
          [ "BLADZV1rTx6bLocr9GCBJGJXGGv2fL2xPG6td68RzANqjuPEB6C" ] },
      { "delegate": "tz3iJu5vrKZcsqRPs8yJ61UDoeEXZmtro4qh",
        "reception_time": "2022-01-18T14:13:57.406-00:00",
        "included_in_blocks":
          [ "BLADZV1rTx6bLocr9GCBJGJXGGv2fL2xPG6td68RzANqjuPEB6C" ] },
      { "delegate": "tz1VmiY38m3y95HqQLjMwqnMS7sdMfGomzKi",
        "reception_time": "2022-01-18T14:13:57.347-00:00",
        "included_in_blocks":
          [ "BLADZV1rTx6bLocr9GCBJGJXGGv2fL2xPG6td68RzANqjuPEB6C" ] },
      { "delegate": "tz3ZbP2pM3nwvXztbuMJwJnDvV5xdpU8UkkD",
        "reception_time": "2022-01-18T14:13:57.381-00:00",
        "included_in_blocks":
          [ "BLADZV1rTx6bLocr9GCBJGJXGGv2fL2xPG6td68RzANqjuPEB6C" ] },
      { "delegate": "tz1MJx9vhaNRSimcuXPK2rW4fLccQnDAnVKJ",
        "reception_time": "2022-01-18T14:13:57.306-00:00",
        "included_in_blocks":
          [ "BLADZV1rTx6bLocr9GCBJGJXGGv2fL2xPG6td68RzANqjuPEB6C" ] },
      { "delegate": "tz3NxTnke1acr8o3h5y9ytf5awQBGNJUKzVU",
        "reception_time": "2022-01-18T14:13:57.336-00:00",
        "included_in_blocks":
          [ "BLADZV1rTx6bLocr9GCBJGJXGGv2fL2xPG6td68RzANqjuPEB6C" ] },
      { "delegate": "tz1Ldzz6k1BHdhuKvAtMRX7h5kJSMHESMHLC",
        "reception_time": "2022-01-18T14:13:57.340-00:00",
        "included_in_blocks":
          [ "BLADZV1rTx6bLocr9GCBJGJXGGv2fL2xPG6td68RzANqjuPEB6C" ] },
      { "delegate": "tz1Kt4P8BCaP93AEV4eA7gmpRryWt5hznjCP",
        "reception_time": "2022-01-18T14:13:57.315-00:00",
        "included_in_blocks":
          [ "BLADZV1rTx6bLocr9GCBJGJXGGv2fL2xPG6td68RzANqjuPEB6C" ] },
      { "delegate": "tz1bsdrs36X5BTH83RHUBdUouKLJZK8d2oBa",
        "reception_time": "2022-01-18T14:13:57.343-00:00",
        "included_in_blocks":
          [ "BLADZV1rTx6bLocr9GCBJGJXGGv2fL2xPG6td68RzANqjuPEB6C" ] },
      { "delegate": "tz1TXzyaKUA8wsWefdSnyaYFnV2M3vCV7er9",
        "reception_time": "2022-01-18T14:13:57.303-00:00",
        "included_in_blocks":
          [ "BLADZV1rTx6bLocr9GCBJGJXGGv2fL2xPG6td68RzANqjuPEB6C" ] },
      { "delegate": "tz1eEnQhbwf6trb8Q8mPb2RaPkNk2rN7BKi8",
        "reception_time": "2022-01-18T14:13:57.303-00:00",
        "included_in_blocks":
          [ "BLADZV1rTx6bLocr9GCBJGJXGGv2fL2xPG6td68RzANqjuPEB6C" ] },
      { "delegate": "tz1aKxnrzx5PXZJe7unufEswVRCMU9yafmfb",
        "reception_time": "2022-01-18T14:13:57.303-00:00",
        "included_in_blocks":
          [ "BLADZV1rTx6bLocr9GCBJGJXGGv2fL2xPG6td68RzANqjuPEB6C" ] },
      { "delegate": "tz1STeamwbp68THcny9zk3LsbG3H36DMvbRK",
        "reception_time": "2022-01-18T14:13:57.303-00:00",
        "included_in_blocks":
          [ "BLADZV1rTx6bLocr9GCBJGJXGGv2fL2xPG6td68RzANqjuPEB6C" ] },
      { "delegate": "tz1P2Po7YM526ughEsRbY4oR9zaUPDZjxFrb",
        "reception_time": "2022-01-18T14:13:57.303-00:00",
        "included_in_blocks":
          [ "BLADZV1rTx6bLocr9GCBJGJXGGv2fL2xPG6td68RzANqjuPEB6C" ] },
      { "delegate": "tz1irJKkXS2DBWkU1NnmFQx1c1L7pbGg4yhk",
        "reception_time": "2022-01-18T14:13:57.303-00:00",
        "included_in_blocks":
          [ "BLADZV1rTx6bLocr9GCBJGJXGGv2fL2xPG6td68RzANqjuPEB6C" ] } ] }