{ "blocks":
    [ { "hash": "BL7k2pJer5kbwzffoQqtVsyKPGqYMUUyYPj4KeZzSkPGZz8Haj7",
        "delegate": "tz1irJKkXS2DBWkU1NnmFQx1c1L7pbGg4yhk",
        "reception_time": "2022-01-18T13:43:26.048-00:00",
        "timestamp": "2022-01-18T13:43:20Z" } ],
  "endorsements":
    [ { "delegate": "tz1eEnQhbwf6trb8Q8mPb2RaPkNk2rN7BKi8",
        "reception_time": "2022-01-18T13:43:25.971-00:00",
        "errors":
          [ { "kind": "temporary",
              "id": "proto.011-PtHangz2.prefilter.outdated_endorsement" } ],
        "included_in_blocks":
          [ "BLPH7zKqtUjMNzRNsaCizZ7c3XEVWCvLGWnPCQvMWxfYTtw1wg7" ] },
      { "delegate": "tz1Zhv3RkfU2pHrmaiDyxp7kFZpZrUCu1CiF",
        "reception_time": "2022-01-18T13:43:25.820-00:00",
        "errors":
          [ { "kind": "temporary",
              "id": "proto.011-PtHangz2.prefilter.outdated_endorsement" } ],
        "included_in_blocks":
          [ "BLPH7zKqtUjMNzRNsaCizZ7c3XEVWCvLGWnPCQvMWxfYTtw1wg7" ] },
      { "delegate": "tz1P2Po7YM526ughEsRbY4oR9zaUPDZjxFrb",
        "reception_time": "2022-01-18T13:43:25.745-00:00",
        "errors":
          [ { "kind": "temporary",
              "id": "proto.011-PtHangz2.prefilter.outdated_endorsement" } ],
        "included_in_blocks":
          [ "BLPH7zKqtUjMNzRNsaCizZ7c3XEVWCvLGWnPCQvMWxfYTtw1wg7" ] },
      { "delegate": "tz1MXFrtZoaXckE41bjUCSjAjAap3AFDSr3N",
        "reception_time": "2022-01-18T13:43:25.707-00:00",
        "errors":
          [ { "kind": "temporary",
              "id": "proto.011-PtHangz2.prefilter.outdated_endorsement" } ],
        "included_in_blocks":
          [ "BLPH7zKqtUjMNzRNsaCizZ7c3XEVWCvLGWnPCQvMWxfYTtw1wg7" ] },
      { "delegate": "tz1irJKkXS2DBWkU1NnmFQx1c1L7pbGg4yhk",
        "reception_time": "2022-01-18T13:43:25.605-00:00",
        "errors":
          [ { "kind": "temporary",
              "id": "proto.011-PtHangz2.prefilter.outdated_endorsement" } ],
        "included_in_blocks":
          [ "BLPH7zKqtUjMNzRNsaCizZ7c3XEVWCvLGWnPCQvMWxfYTtw1wg7" ] },
      { "delegate": "tz1S8e9GgdZG78XJRB3NqabfWeM37GnhZMWQ",
        "reception_time": "2022-01-18T13:43:25.235-00:00",
        "errors":
          [ { "kind": "temporary",
              "id": "proto.011-PtHangz2.prefilter.outdated_endorsement" } ],
        "included_in_blocks":
          [ "BLPH7zKqtUjMNzRNsaCizZ7c3XEVWCvLGWnPCQvMWxfYTtw1wg7" ] },
      { "delegate": "tz1NdhRv643wLW6zCcRP3VfT24dvDnh7nuh9" },
      { "delegate": "tz1TXzyaKUA8wsWefdSnyaYFnV2M3vCV7er9",
        "reception_time": "2022-01-18T13:43:27.276-00:00",
        "included_in_blocks":
          [ "BLPH7zKqtUjMNzRNsaCizZ7c3XEVWCvLGWnPCQvMWxfYTtw1wg7" ] },
      { "delegate": "tz3RKYFsLuQzKBtmYuLNas7uMu3AsYd4QdsA",
        "reception_time": "2022-01-18T13:43:27.311-00:00",
        "included_in_blocks":
          [ "BLPH7zKqtUjMNzRNsaCizZ7c3XEVWCvLGWnPCQvMWxfYTtw1wg7" ] },
      { "delegate": "tz1Ldzz6k1BHdhuKvAtMRX7h5kJSMHESMHLC",
        "reception_time": "2022-01-18T13:43:27.311-00:00",
        "included_in_blocks":
          [ "BLPH7zKqtUjMNzRNsaCizZ7c3XEVWCvLGWnPCQvMWxfYTtw1wg7" ] },
      { "delegate": "tz1VmiY38m3y95HqQLjMwqnMS7sdMfGomzKi",
        "reception_time": "2022-01-18T13:43:27.324-00:00",
        "included_in_blocks":
          [ "BLPH7zKqtUjMNzRNsaCizZ7c3XEVWCvLGWnPCQvMWxfYTtw1wg7" ] },
      { "delegate": "tz1VQnqCCqX4K5sP3FNkVSNKTdCAMJDd3E1n",
        "reception_time": "2022-01-18T13:43:27.335-00:00",
        "included_in_blocks":
          [ "BLPH7zKqtUjMNzRNsaCizZ7c3XEVWCvLGWnPCQvMWxfYTtw1wg7" ] },
      { "delegate": "tz1gUNyn3hmnEWqkusWPzxRaon1cs7ndWh7h",
        "reception_time": "2022-01-18T13:43:27.344-00:00",
        "included_in_blocks":
          [ "BLPH7zKqtUjMNzRNsaCizZ7c3XEVWCvLGWnPCQvMWxfYTtw1wg7" ] },
      { "delegate": "tz3iJu5vrKZcsqRPs8yJ61UDoeEXZmtro4qh",
        "reception_time": "2022-01-18T13:43:27.352-00:00",
        "included_in_blocks":
          [ "BLPH7zKqtUjMNzRNsaCizZ7c3XEVWCvLGWnPCQvMWxfYTtw1wg7" ] },
      { "delegate": "tz3gtoUxdudfBRcNY7iVdKPHCYYX6xdPpoRS",
        "reception_time": "2022-01-18T13:43:27.377-00:00",
        "included_in_blocks":
          [ "BLPH7zKqtUjMNzRNsaCizZ7c3XEVWCvLGWnPCQvMWxfYTtw1wg7" ] },
      { "delegate": "tz3QT9dHYKDqh563chVa6za8526ys1UKfRfL",
        "reception_time": "2022-01-18T13:43:27.400-00:00",
        "included_in_blocks":
          [ "BLPH7zKqtUjMNzRNsaCizZ7c3XEVWCvLGWnPCQvMWxfYTtw1wg7" ] },
      { "delegate": "tz1bsdrs36X5BTH83RHUBdUouKLJZK8d2oBa",
        "reception_time": "2022-01-18T13:43:27.400-00:00",
        "included_in_blocks":
          [ "BLPH7zKqtUjMNzRNsaCizZ7c3XEVWCvLGWnPCQvMWxfYTtw1wg7" ] },
      { "delegate": "tz3hw2kqXhLUvY65ca1eety2oQTpAvd34R9Q",
        "reception_time": "2022-01-18T13:43:27.412-00:00",
        "included_in_blocks":
          [ "BLPH7zKqtUjMNzRNsaCizZ7c3XEVWCvLGWnPCQvMWxfYTtw1wg7" ] },
      { "delegate": "tz3Zhs2dygr55yHyQyKjntAtY9bgfhLZ4Xj1",
        "reception_time": "2022-01-18T13:43:27.421-00:00",
        "included_in_blocks":
          [ "BLPH7zKqtUjMNzRNsaCizZ7c3XEVWCvLGWnPCQvMWxfYTtw1wg7" ] },
      { "delegate": "tz1YhNsiRRU8aHNGg7NK3uuP6UDAyacJernB",
        "reception_time": "2022-01-18T13:43:27.421-00:00",
        "included_in_blocks":
          [ "BLPH7zKqtUjMNzRNsaCizZ7c3XEVWCvLGWnPCQvMWxfYTtw1wg7" ] },
      { "delegate": "tz3ZbP2pM3nwvXztbuMJwJnDvV5xdpU8UkkD",
        "reception_time": "2022-01-18T13:43:27.433-00:00",
        "included_in_blocks":
          [ "BLPH7zKqtUjMNzRNsaCizZ7c3XEVWCvLGWnPCQvMWxfYTtw1wg7" ] },
      { "delegate": "tz1RV1MBbZMR68tacosb7Mwj6LkbPSUS1er1",
        "reception_time": "2022-01-18T13:43:27.453-00:00",
        "included_in_blocks":
          [ "BLPH7zKqtUjMNzRNsaCizZ7c3XEVWCvLGWnPCQvMWxfYTtw1wg7" ] },
      { "delegate": "tz1UJvHTgpVzcKWhTazGxVcn5wsHru5Gietg",
        "reception_time": "2022-01-18T13:43:27.467-00:00",
        "included_in_blocks":
          [ "BLPH7zKqtUjMNzRNsaCizZ7c3XEVWCvLGWnPCQvMWxfYTtw1wg7" ] },
      { "delegate": "tz1d6Fx42mYgVFnHUW8T8A7WBfJ6nD9pVok8",
        "reception_time": "2022-01-18T13:43:27.542-00:00",
        "included_in_blocks":
          [ "BLPH7zKqtUjMNzRNsaCizZ7c3XEVWCvLGWnPCQvMWxfYTtw1wg7" ] },
      { "delegate": "tz3QCNyySViKHmeSr45kzDxzchys7NiXCWoa",
        "reception_time": "2022-01-18T13:43:27.555-00:00",
        "included_in_blocks":
          [ "BLPH7zKqtUjMNzRNsaCizZ7c3XEVWCvLGWnPCQvMWxfYTtw1wg7" ] },
      { "delegate": "tz1aXD7Jigrt3PBYSpHSg5Rr33SexMmmM5Ys",
        "reception_time": "2022-01-18T13:43:27.558-00:00",
        "included_in_blocks":
          [ "BLPH7zKqtUjMNzRNsaCizZ7c3XEVWCvLGWnPCQvMWxfYTtw1wg7" ] },
      { "delegate": "tz3S6BBeKgJGXxvLyZ1xzXzMPn11nnFtq5L9",
        "reception_time": "2022-01-18T13:43:27.582-00:00",
        "included_in_blocks":
          [ "BLPH7zKqtUjMNzRNsaCizZ7c3XEVWCvLGWnPCQvMWxfYTtw1wg7" ] },
      { "delegate": "tz1S8MNvuFEUsWgjHvi3AxibRBf388NhT1q2",
        "reception_time": "2022-01-18T13:43:27.597-00:00",
        "included_in_blocks":
          [ "BLPH7zKqtUjMNzRNsaCizZ7c3XEVWCvLGWnPCQvMWxfYTtw1wg7" ] },
      { "delegate": "tz3NxTnke1acr8o3h5y9ytf5awQBGNJUKzVU",
        "reception_time": "2022-01-18T13:43:27.614-00:00",
        "included_in_blocks":
          [ "BLPH7zKqtUjMNzRNsaCizZ7c3XEVWCvLGWnPCQvMWxfYTtw1wg7" ] },
      { "delegate": "tz1WCd2jm4uSt4vntk4vSuUWoZQGhLcDuR9q",
        "reception_time": "2022-01-18T13:43:27.623-00:00",
        "included_in_blocks":
          [ "BLPH7zKqtUjMNzRNsaCizZ7c3XEVWCvLGWnPCQvMWxfYTtw1wg7" ] },
      { "delegate": "tz3bTdwZinP8U1JmSweNzVKhmwafqWmFWRfk",
        "reception_time": "2022-01-18T13:43:27.705-00:00",
        "included_in_blocks":
          [ "BLPH7zKqtUjMNzRNsaCizZ7c3XEVWCvLGWnPCQvMWxfYTtw1wg7" ] },
      { "delegate": "tz1gfArv665EUkSg2ojMBzcbfwuPxAvqPvjo",
        "reception_time": "2022-01-18T13:43:27.714-00:00",
        "included_in_blocks":
          [ "BLPH7zKqtUjMNzRNsaCizZ7c3XEVWCvLGWnPCQvMWxfYTtw1wg7" ] },
      { "delegate": "tz1PWCDnz783NNGGQjEFFsHtrcK5yBW4E2rm",
        "reception_time": "2022-01-18T13:43:27.743-00:00",
        "included_in_blocks":
          [ "BLPH7zKqtUjMNzRNsaCizZ7c3XEVWCvLGWnPCQvMWxfYTtw1wg7" ] },
      { "delegate": "tz1fPKAtsYydh4f1wfWNfeNxWYu72TmM48fu",
        "reception_time": "2022-01-18T13:43:27.751-00:00",
        "included_in_blocks":
          [ "BLPH7zKqtUjMNzRNsaCizZ7c3XEVWCvLGWnPCQvMWxfYTtw1wg7" ] },
      { "delegate": "tz1dNVDWPf3Q59SdJqnjdnu277iyvReiRS9M",
        "reception_time": "2022-01-18T13:43:27.791-00:00",
        "included_in_blocks":
          [ "BLPH7zKqtUjMNzRNsaCizZ7c3XEVWCvLGWnPCQvMWxfYTtw1wg7" ] },
      { "delegate": "tz1RCFbB9GpALpsZtu6J58sb74dm8qe6XBzv",
        "reception_time": "2022-01-18T13:43:27.802-00:00",
        "included_in_blocks":
          [ "BLPH7zKqtUjMNzRNsaCizZ7c3XEVWCvLGWnPCQvMWxfYTtw1wg7" ] },
      { "delegate": "tz1MQJPGNMijnXnVoBENFz9rUhaPt3S7rWoz",
        "reception_time": "2022-01-18T13:43:27.857-00:00",
        "included_in_blocks":
          [ "BLPH7zKqtUjMNzRNsaCizZ7c3XEVWCvLGWnPCQvMWxfYTtw1wg7" ] },
      { "delegate": "tz3bvNMQ95vfAYtG8193ymshqjSvmxiCUuR5",
        "reception_time": "2022-01-18T13:43:27.865-00:00",
        "included_in_blocks":
          [ "BLPH7zKqtUjMNzRNsaCizZ7c3XEVWCvLGWnPCQvMWxfYTtw1wg7" ] },
      { "delegate": "tz1SYq214SCBy9naR6cvycQsYcUGpBqQAE8d",
        "reception_time": "2022-01-18T13:43:27.941-00:00",
        "included_in_blocks":
          [ "BLPH7zKqtUjMNzRNsaCizZ7c3XEVWCvLGWnPCQvMWxfYTtw1wg7" ] },
      { "delegate": "tz1ei4WtWEMEJekSv8qDnu9PExG6Q8HgRGr3",
        "reception_time": "2022-01-18T13:43:27.978-00:00",
        "included_in_blocks":
          [ "BLPH7zKqtUjMNzRNsaCizZ7c3XEVWCvLGWnPCQvMWxfYTtw1wg7" ] },
      { "delegate": "tz1WBfwbT66FC6BTLexc2BoyCCBM9LG7pnVW",
        "reception_time": "2022-01-18T13:43:28.005-00:00",
        "included_in_blocks":
          [ "BLPH7zKqtUjMNzRNsaCizZ7c3XEVWCvLGWnPCQvMWxfYTtw1wg7" ] },
      { "delegate": "tz1LXpCpLNRhP7G9Yw8dRhWd8ZfH8929uvGo",
        "reception_time": "2022-01-18T13:43:28.062-00:00",
        "included_in_blocks":
          [ "BLPH7zKqtUjMNzRNsaCizZ7c3XEVWCvLGWnPCQvMWxfYTtw1wg7" ] },
      { "delegate": "tz2FCNBrERXtaTtNX6iimR1UJ5JSDxvdHM93",
        "reception_time": "2022-01-18T13:43:28.090-00:00",
        "included_in_blocks":
          [ "BLPH7zKqtUjMNzRNsaCizZ7c3XEVWCvLGWnPCQvMWxfYTtw1wg7" ] },
      { "delegate": "tz1abmz7jiCV2GH2u81LRrGgAFFgvQgiDiaf",
        "reception_time": "2022-01-18T13:43:28.094-00:00",
        "included_in_blocks":
          [ "BLPH7zKqtUjMNzRNsaCizZ7c3XEVWCvLGWnPCQvMWxfYTtw1wg7" ] },
      { "delegate": "tz1Tnjaxk6tbAeC2TmMApPh8UsrEVQvhHvx5",
        "reception_time": "2022-01-18T13:43:28.156-00:00",
        "included_in_blocks":
          [ "BLPH7zKqtUjMNzRNsaCizZ7c3XEVWCvLGWnPCQvMWxfYTtw1wg7" ] },
      { "delegate": "tz1Nf6tsK4G6bBqgSQERy4nUtkHNKUVdh7q1",
        "reception_time": "2022-01-18T13:43:28.237-00:00",
        "included_in_blocks":
          [ "BLPH7zKqtUjMNzRNsaCizZ7c3XEVWCvLGWnPCQvMWxfYTtw1wg7" ] },
      { "delegate": "tz1PeZx7FXy7QRuMREGXGxeipb24RsMMzUNe",
        "reception_time": "2022-01-18T13:43:28.250-00:00",
        "included_in_blocks":
          [ "BLPH7zKqtUjMNzRNsaCizZ7c3XEVWCvLGWnPCQvMWxfYTtw1wg7" ] },
      { "delegate": "tz3RB4aoyjov4KEVRbuhvQ1CKJgBJMWhaeB8",
        "reception_time": "2022-01-18T13:43:28.323-00:00",
        "included_in_blocks":
          [ "BLPH7zKqtUjMNzRNsaCizZ7c3XEVWCvLGWnPCQvMWxfYTtw1wg7" ] },
      { "delegate": "tz1fwnfJNgiDACshK9avfRfFbMaXrs3ghoJa",
        "reception_time": "2022-01-18T13:43:28.402-00:00",
        "included_in_blocks":
          [ "BLPH7zKqtUjMNzRNsaCizZ7c3XEVWCvLGWnPCQvMWxfYTtw1wg7" ] },
      { "delegate": "tz1KfEsrtDaA1sX7vdM4qmEPWuSytuqCDp5j",
        "reception_time": "2022-01-18T13:43:28.439-00:00",
        "included_in_blocks":
          [ "BLPH7zKqtUjMNzRNsaCizZ7c3XEVWCvLGWnPCQvMWxfYTtw1wg7" ] },
      { "delegate": "tz1g8vkmcde6sWKaG2NN9WKzCkDM6Rziq194",
        "reception_time": "2022-01-18T13:43:28.471-00:00",
        "included_in_blocks":
          [ "BLPH7zKqtUjMNzRNsaCizZ7c3XEVWCvLGWnPCQvMWxfYTtw1wg7" ] },
      { "delegate": "tz3VEZ4k6a4Wx42iyev6i2aVAptTRLEAivNN",
        "reception_time": "2022-01-18T13:43:28.481-00:00",
        "included_in_blocks":
          [ "BLPH7zKqtUjMNzRNsaCizZ7c3XEVWCvLGWnPCQvMWxfYTtw1wg7" ] },
      { "delegate": "tz1WctSwL49BZtdWAQ75NY6vr4xsAx6oKdah",
        "reception_time": "2022-01-18T13:43:28.497-00:00",
        "included_in_blocks":
          [ "BLPH7zKqtUjMNzRNsaCizZ7c3XEVWCvLGWnPCQvMWxfYTtw1wg7" ] },
      { "delegate": "tz3RDC3Jdn4j15J7bBHZd29EUee9gVB1CxD9",
        "reception_time": "2022-01-18T13:43:28.568-00:00",
        "included_in_blocks":
          [ "BLPH7zKqtUjMNzRNsaCizZ7c3XEVWCvLGWnPCQvMWxfYTtw1wg7" ] },
      { "delegate": "tz3WMqdzXqRWXwyvj5Hp2H7QEepaUuS7vd9K",
        "reception_time": "2022-01-18T13:43:28.584-00:00",
        "included_in_blocks":
          [ "BLPH7zKqtUjMNzRNsaCizZ7c3XEVWCvLGWnPCQvMWxfYTtw1wg7" ] },
      { "delegate": "tz1NEKxGEHsFufk87CVZcrqWu8o22qh46GK6",
        "reception_time": "2022-01-18T13:43:28.593-00:00",
        "included_in_blocks":
          [ "BLPH7zKqtUjMNzRNsaCizZ7c3XEVWCvLGWnPCQvMWxfYTtw1wg7" ] },
      { "delegate": "tz1RjoHc98dBoqaH2jawF62XNKh7YsHwbkEv",
        "reception_time": "2022-01-18T13:43:28.608-00:00",
        "included_in_blocks":
          [ "BLPH7zKqtUjMNzRNsaCizZ7c3XEVWCvLGWnPCQvMWxfYTtw1wg7" ] },
      { "delegate": "tz1TRqbYbUf2GyrjErf3hBzgBJPzW8y36qEs",
        "reception_time": "2022-01-18T13:43:28.797-00:00",
        "included_in_blocks":
          [ "BLPH7zKqtUjMNzRNsaCizZ7c3XEVWCvLGWnPCQvMWxfYTtw1wg7" ] },
      { "delegate": "tz1aRoaRhSpRYvFdyvgWLL6TGyRoGF51wDjM",
        "reception_time": "2022-01-18T13:43:28.874-00:00",
        "included_in_blocks":
          [ "BLPH7zKqtUjMNzRNsaCizZ7c3XEVWCvLGWnPCQvMWxfYTtw1wg7" ] },
      { "delegate": "tz1dRKU4FQ9QRRQPdaH4zCR6gmCmXfcvcgtB",
        "reception_time": "2022-01-18T13:43:28.958-00:00",
        "included_in_blocks":
          [ "BLPH7zKqtUjMNzRNsaCizZ7c3XEVWCvLGWnPCQvMWxfYTtw1wg7" ] },
      { "delegate": "tz1T7duV5gZWSTq4YpBGbXNLTfznCLDrFxvs",
        "reception_time": "2022-01-18T13:43:29.166-00:00",
        "included_in_blocks":
          [ "BLPH7zKqtUjMNzRNsaCizZ7c3XEVWCvLGWnPCQvMWxfYTtw1wg7" ] },
      { "delegate": "tz1awXW7wuXy21c66vBudMXQVAPgRnqqwgTH",
        "reception_time": "2022-01-18T13:43:29.210-00:00",
        "included_in_blocks":
          [ "BLPH7zKqtUjMNzRNsaCizZ7c3XEVWCvLGWnPCQvMWxfYTtw1wg7" ] },
      { "delegate": "tz3UoffC7FG7zfpmvmjUmUeAaHvzdcUvAj6r",
        "reception_time": "2022-01-18T13:43:29.275-00:00",
        "included_in_blocks":
          [ "BLPH7zKqtUjMNzRNsaCizZ7c3XEVWCvLGWnPCQvMWxfYTtw1wg7" ] },
      { "delegate": "tz3NExpXn9aPNZPorRE4SdjJ2RGrfbJgMAaV",
        "reception_time": "2022-01-18T13:43:29.312-00:00",
        "included_in_blocks":
          [ "BLPH7zKqtUjMNzRNsaCizZ7c3XEVWCvLGWnPCQvMWxfYTtw1wg7" ] },
      { "delegate": "tz1NuUu12WHdW3jHqvkujGHsiTi46Wvw1ci1",
        "reception_time": "2022-01-18T13:43:29.374-00:00",
        "included_in_blocks":
          [ "BLPH7zKqtUjMNzRNsaCizZ7c3XEVWCvLGWnPCQvMWxfYTtw1wg7" ] },
      { "delegate": "tz1i3mhawFAgcB8JHaHwoUF6hdncwTAkLEn2",
        "reception_time": "2022-01-18T13:43:29.484-00:00",
        "included_in_blocks":
          [ "BLPH7zKqtUjMNzRNsaCizZ7c3XEVWCvLGWnPCQvMWxfYTtw1wg7" ] },
      { "delegate": "tz1TcH4Nb3aHNDJ7CGZhU7jgAK1BkSP4Lxds",
        "reception_time": "2022-01-18T13:43:30.435-00:00",
        "included_in_blocks":
          [ "BLPH7zKqtUjMNzRNsaCizZ7c3XEVWCvLGWnPCQvMWxfYTtw1wg7" ] },
      { "delegate": "tz1aehDcppdSz7Af2PtXvNQtqpeMfvFFYFHf",
        "reception_time": "2022-01-18T13:43:32.289-00:00",
        "included_in_blocks":
          [ "BLPH7zKqtUjMNzRNsaCizZ7c3XEVWCvLGWnPCQvMWxfYTtw1wg7" ] } ] }