{ "blocks":
    [ { "hash": "BLTUddR7XL7zHigN67yjnMiKgKEFyHMZ7vrBaHbfsr3o9aa6kng",
        "delegate": "tz1Kf25fX1VdmYGSEzwFy1wNmkbSEZ2V83sY",
        "reception_time": "2022-01-18T11:15:56.950-00:00",
        "timestamp": "2022-01-18T11:15:50Z" } ],
  "endorsements":
    [ { "delegate": "tz1ibcPVGK4Y8pcW4BYUsojiHoBKnZbyDGrX" },
      { "delegate": "tz1NdhRv643wLW6zCcRP3VfT24dvDnh7nuh9" },
      { "delegate": "tz1S8e9GgdZG78XJRB3NqabfWeM37GnhZMWQ",
        "reception_time": "2022-01-18T11:15:56.763-00:00",
        "errors":
          [ { "kind": "temporary",
              "id": "proto.011-PtHangz2.prefilter.outdated_endorsement" } ],
        "included_in_blocks":
          [ "BMTvM4La6RxG18LpUqMg5LYq2E2yvCc4owfsgKqTmmVmmAukEwg" ] },
      { "delegate": "tz1MXFrtZoaXckE41bjUCSjAjAap3AFDSr3N",
        "reception_time": "2022-01-18T11:15:56.750-00:00",
        "errors":
          [ { "kind": "temporary",
              "id": "proto.011-PtHangz2.prefilter.outdated_endorsement" } ],
        "included_in_blocks":
          [ "BMTvM4La6RxG18LpUqMg5LYq2E2yvCc4owfsgKqTmmVmmAukEwg" ] },
      { "delegate": "tz1aJS7Pk9uWR3wWyFf1i3RwhYxN84G7stom",
        "reception_time": "2022-01-18T11:16:01.596-00:00",
        "included_in_blocks":
          [ "BMTvM4La6RxG18LpUqMg5LYq2E2yvCc4owfsgKqTmmVmmAukEwg" ] },
      { "delegate": "tz1gg5bjopPcr9agjamyu9BbXKLibNc2rbAq",
        "reception_time": "2022-01-18T11:16:00.758-00:00",
        "included_in_blocks":
          [ "BMTvM4La6RxG18LpUqMg5LYq2E2yvCc4owfsgKqTmmVmmAukEwg" ] },
      { "delegate": "tz1g8vkmcde6sWKaG2NN9WKzCkDM6Rziq194",
        "reception_time": "2022-01-18T11:16:00.682-00:00",
        "included_in_blocks":
          [ "BMTvM4La6RxG18LpUqMg5LYq2E2yvCc4owfsgKqTmmVmmAukEwg" ] },
      { "delegate": "tz3UoffC7FG7zfpmvmjUmUeAaHvzdcUvAj6r",
        "reception_time": "2022-01-18T11:16:00.741-00:00",
        "included_in_blocks":
          [ "BMTvM4La6RxG18LpUqMg5LYq2E2yvCc4owfsgKqTmmVmmAukEwg" ] },
      { "delegate": "tz1i3mhawFAgcB8JHaHwoUF6hdncwTAkLEn2",
        "reception_time": "2022-01-18T11:16:00.379-00:00",
        "included_in_blocks":
          [ "BMTvM4La6RxG18LpUqMg5LYq2E2yvCc4owfsgKqTmmVmmAukEwg" ] },
      { "delegate": "tz3NExpXn9aPNZPorRE4SdjJ2RGrfbJgMAaV",
        "reception_time": "2022-01-18T11:16:00.598-00:00",
        "included_in_blocks":
          [ "BMTvM4La6RxG18LpUqMg5LYq2E2yvCc4owfsgKqTmmVmmAukEwg" ] },
      { "delegate": "tz1NEKxGEHsFufk87CVZcrqWu8o22qh46GK6",
        "reception_time": "2022-01-18T11:16:00.124-00:00",
        "included_in_blocks":
          [ "BMTvM4La6RxG18LpUqMg5LYq2E2yvCc4owfsgKqTmmVmmAukEwg" ] },
      { "delegate": "tz1dRKU4FQ9QRRQPdaH4zCR6gmCmXfcvcgtB",
        "reception_time": "2022-01-18T11:16:00.390-00:00",
        "included_in_blocks":
          [ "BMTvM4La6RxG18LpUqMg5LYq2E2yvCc4owfsgKqTmmVmmAukEwg" ] },
      { "delegate": "tz3VEZ4k6a4Wx42iyev6i2aVAptTRLEAivNN",
        "reception_time": "2022-01-18T11:16:00.096-00:00",
        "included_in_blocks":
          [ "BMTvM4La6RxG18LpUqMg5LYq2E2yvCc4owfsgKqTmmVmmAukEwg" ] },
      { "delegate": "tz3bvNMQ95vfAYtG8193ymshqjSvmxiCUuR5",
        "reception_time": "2022-01-18T11:15:59.681-00:00",
        "included_in_blocks":
          [ "BMTvM4La6RxG18LpUqMg5LYq2E2yvCc4owfsgKqTmmVmmAukEwg" ] },
      { "delegate": "tz1aRoaRhSpRYvFdyvgWLL6TGyRoGF51wDjM",
        "reception_time": "2022-01-18T11:15:59.762-00:00",
        "included_in_blocks":
          [ "BMTvM4La6RxG18LpUqMg5LYq2E2yvCc4owfsgKqTmmVmmAukEwg" ] },
      { "delegate": "tz3adcvQaKXTCg12zbninqo3q8ptKKtDFTLv",
        "reception_time": "2022-01-18T11:16:00.200-00:00",
        "included_in_blocks":
          [ "BMTvM4La6RxG18LpUqMg5LYq2E2yvCc4owfsgKqTmmVmmAukEwg" ] },
      { "delegate": "tz1Z2jXfEXL7dXhs6bsLmyLFLfmAkXBzA9WE",
        "reception_time": "2022-01-18T11:15:59.628-00:00",
        "included_in_blocks":
          [ "BMTvM4La6RxG18LpUqMg5LYq2E2yvCc4owfsgKqTmmVmmAukEwg" ] },
      { "delegate": "tz1T7duV5gZWSTq4YpBGbXNLTfznCLDrFxvs",
        "reception_time": "2022-01-18T11:15:59.951-00:00",
        "included_in_blocks":
          [ "BMTvM4La6RxG18LpUqMg5LYq2E2yvCc4owfsgKqTmmVmmAukEwg" ] },
      { "delegate": "tz1PeZx7FXy7QRuMREGXGxeipb24RsMMzUNe",
        "reception_time": "2022-01-18T11:15:59.542-00:00",
        "included_in_blocks":
          [ "BMTvM4La6RxG18LpUqMg5LYq2E2yvCc4owfsgKqTmmVmmAukEwg" ] },
      { "delegate": "tz2FCNBrERXtaTtNX6iimR1UJ5JSDxvdHM93",
        "reception_time": "2022-01-18T11:15:59.523-00:00",
        "included_in_blocks":
          [ "BMTvM4La6RxG18LpUqMg5LYq2E2yvCc4owfsgKqTmmVmmAukEwg" ] },
      { "delegate": "tz1RpeqCseogMpCPXpyGjhmLH9i9DhqJ8cUR",
        "reception_time": "2022-01-18T11:15:59.136-00:00",
        "included_in_blocks":
          [ "BMTvM4La6RxG18LpUqMg5LYq2E2yvCc4owfsgKqTmmVmmAukEwg" ] },
      { "delegate": "tz1SYq214SCBy9naR6cvycQsYcUGpBqQAE8d",
        "reception_time": "2022-01-18T11:15:59.112-00:00",
        "included_in_blocks":
          [ "BMTvM4La6RxG18LpUqMg5LYq2E2yvCc4owfsgKqTmmVmmAukEwg" ] },
      { "delegate": "tz3WMqdzXqRWXwyvj5Hp2H7QEepaUuS7vd9K",
        "reception_time": "2022-01-18T11:15:59.719-00:00",
        "included_in_blocks":
          [ "BMTvM4La6RxG18LpUqMg5LYq2E2yvCc4owfsgKqTmmVmmAukEwg" ] },
      { "delegate": "tz1iZEKy4LaAjnTmn2RuGDf2iqdAQKnRi8kY",
        "reception_time": "2022-01-18T11:15:59.603-00:00",
        "included_in_blocks":
          [ "BMTvM4La6RxG18LpUqMg5LYq2E2yvCc4owfsgKqTmmVmmAukEwg" ] },
      { "delegate": "tz3NDpRj6WBrJPikcPVHRBEjWKxFw3c6eQPS",
        "reception_time": "2022-01-18T11:15:59.101-00:00",
        "included_in_blocks":
          [ "BMTvM4La6RxG18LpUqMg5LYq2E2yvCc4owfsgKqTmmVmmAukEwg" ] },
      { "delegate": "tz1fwnfJNgiDACshK9avfRfFbMaXrs3ghoJa",
        "reception_time": "2022-01-18T11:15:59.268-00:00",
        "included_in_blocks":
          [ "BMTvM4La6RxG18LpUqMg5LYq2E2yvCc4owfsgKqTmmVmmAukEwg" ] },
      { "delegate": "tz1Nf6tsK4G6bBqgSQERy4nUtkHNKUVdh7q1",
        "reception_time": "2022-01-18T11:15:58.771-00:00",
        "included_in_blocks":
          [ "BMTvM4La6RxG18LpUqMg5LYq2E2yvCc4owfsgKqTmmVmmAukEwg" ] },
      { "delegate": "tz1cig1EHyvZd7J2k389moM9PxVgPQvmFkvi",
        "reception_time": "2022-01-18T11:15:59.227-00:00",
        "included_in_blocks":
          [ "BMTvM4La6RxG18LpUqMg5LYq2E2yvCc4owfsgKqTmmVmmAukEwg" ] },
      { "delegate": "tz3bTdwZinP8U1JmSweNzVKhmwafqWmFWRfk",
        "reception_time": "2022-01-18T11:15:58.686-00:00",
        "included_in_blocks":
          [ "BMTvM4La6RxG18LpUqMg5LYq2E2yvCc4owfsgKqTmmVmmAukEwg" ] },
      { "delegate": "tz1KfEsrtDaA1sX7vdM4qmEPWuSytuqCDp5j",
        "reception_time": "2022-01-18T11:15:58.932-00:00",
        "included_in_blocks":
          [ "BMTvM4La6RxG18LpUqMg5LYq2E2yvCc4owfsgKqTmmVmmAukEwg" ] },
      { "delegate": "tz1fb7c66UwePkkfDXz4ajFaBP9hVNLdS7JJ",
        "reception_time": "2022-01-18T11:15:58.669-00:00",
        "included_in_blocks":
          [ "BMTvM4La6RxG18LpUqMg5LYq2E2yvCc4owfsgKqTmmVmmAukEwg" ] },
      { "delegate": "tz3RDC3Jdn4j15J7bBHZd29EUee9gVB1CxD9",
        "reception_time": "2022-01-18T11:15:58.611-00:00",
        "included_in_blocks":
          [ "BMTvM4La6RxG18LpUqMg5LYq2E2yvCc4owfsgKqTmmVmmAukEwg" ] },
      { "delegate": "tz1eCzNtidHvVgeRzQ38C81FPcYnxMsCEL6Z",
        "reception_time": "2022-01-18T11:15:59.213-00:00",
        "included_in_blocks":
          [ "BMTvM4La6RxG18LpUqMg5LYq2E2yvCc4owfsgKqTmmVmmAukEwg" ] },
      { "delegate": "tz1irJKkXS2DBWkU1NnmFQx1c1L7pbGg4yhk",
        "reception_time": "2022-01-18T11:15:58.569-00:00",
        "included_in_blocks":
          [ "BMTvM4La6RxG18LpUqMg5LYq2E2yvCc4owfsgKqTmmVmmAukEwg" ] },
      { "delegate": "tz1gUNyn3hmnEWqkusWPzxRaon1cs7ndWh7h",
        "reception_time": "2022-01-18T11:15:58.367-00:00",
        "included_in_blocks":
          [ "BMTvM4La6RxG18LpUqMg5LYq2E2yvCc4owfsgKqTmmVmmAukEwg" ] },
      { "delegate": "tz1RjoHc98dBoqaH2jawF62XNKh7YsHwbkEv",
        "reception_time": "2022-01-18T11:15:59.143-00:00",
        "included_in_blocks":
          [ "BMTvM4La6RxG18LpUqMg5LYq2E2yvCc4owfsgKqTmmVmmAukEwg" ] },
      { "delegate": "tz1SohptP53wDPZhzTWzDUFAUcWF6DMBpaJV",
        "reception_time": "2022-01-18T11:15:58.623-00:00",
        "included_in_blocks":
          [ "BMTvM4La6RxG18LpUqMg5LYq2E2yvCc4owfsgKqTmmVmmAukEwg" ] },
      { "delegate": "tz1WBfwbT66FC6BTLexc2BoyCCBM9LG7pnVW",
        "reception_time": "2022-01-18T11:15:58.548-00:00",
        "included_in_blocks":
          [ "BMTvM4La6RxG18LpUqMg5LYq2E2yvCc4owfsgKqTmmVmmAukEwg" ] },
      { "delegate": "tz1LmaFsWRkjr7QMCx5PtV6xTUz3AmEpKQiF",
        "reception_time": "2022-01-18T11:15:58.594-00:00",
        "included_in_blocks":
          [ "BMTvM4La6RxG18LpUqMg5LYq2E2yvCc4owfsgKqTmmVmmAukEwg" ] },
      { "delegate": "tz1VQnqCCqX4K5sP3FNkVSNKTdCAMJDd3E1n",
        "reception_time": "2022-01-18T11:15:58.316-00:00",
        "included_in_blocks":
          [ "BMTvM4La6RxG18LpUqMg5LYq2E2yvCc4owfsgKqTmmVmmAukEwg" ] },
      { "delegate": "tz1WCd2jm4uSt4vntk4vSuUWoZQGhLcDuR9q",
        "reception_time": "2022-01-18T11:15:58.191-00:00",
        "included_in_blocks":
          [ "BMTvM4La6RxG18LpUqMg5LYq2E2yvCc4owfsgKqTmmVmmAukEwg" ] },
      { "delegate": "tz1Ldzz6k1BHdhuKvAtMRX7h5kJSMHESMHLC",
        "reception_time": "2022-01-18T11:15:58.132-00:00",
        "included_in_blocks":
          [ "BMTvM4La6RxG18LpUqMg5LYq2E2yvCc4owfsgKqTmmVmmAukEwg" ] },
      { "delegate": "tz1XX67xSF2ou3aQZ6LhXaaxZWDR3YZ6hCMs",
        "reception_time": "2022-01-18T11:15:58.151-00:00",
        "included_in_blocks":
          [ "BMTvM4La6RxG18LpUqMg5LYq2E2yvCc4owfsgKqTmmVmmAukEwg" ] },
      { "delegate": "tz1V4qCyvPKZ5UeqdH14HN42rxvNPQfc9UZg",
        "reception_time": "2022-01-18T11:15:58.629-00:00",
        "included_in_blocks":
          [ "BMTvM4La6RxG18LpUqMg5LYq2E2yvCc4owfsgKqTmmVmmAukEwg" ] },
      { "delegate": "tz1PWCDnz783NNGGQjEFFsHtrcK5yBW4E2rm",
        "reception_time": "2022-01-18T11:15:58.613-00:00",
        "included_in_blocks":
          [ "BMTvM4La6RxG18LpUqMg5LYq2E2yvCc4owfsgKqTmmVmmAukEwg" ] },
      { "delegate": "tz1ei4WtWEMEJekSv8qDnu9PExG6Q8HgRGr3",
        "reception_time": "2022-01-18T11:15:58.906-00:00",
        "included_in_blocks":
          [ "BMTvM4La6RxG18LpUqMg5LYq2E2yvCc4owfsgKqTmmVmmAukEwg" ] },
      { "delegate": "tz3S6BBeKgJGXxvLyZ1xzXzMPn11nnFtq5L9",
        "reception_time": "2022-01-18T11:15:58.063-00:00",
        "included_in_blocks":
          [ "BMTvM4La6RxG18LpUqMg5LYq2E2yvCc4owfsgKqTmmVmmAukEwg" ] },
      { "delegate": "tz3Zhs2dygr55yHyQyKjntAtY9bgfhLZ4Xj1",
        "reception_time": "2022-01-18T11:15:58.055-00:00",
        "included_in_blocks":
          [ "BMTvM4La6RxG18LpUqMg5LYq2E2yvCc4owfsgKqTmmVmmAukEwg" ] },
      { "delegate": "tz3iJu5vrKZcsqRPs8yJ61UDoeEXZmtro4qh",
        "reception_time": "2022-01-18T11:15:58.030-00:00",
        "included_in_blocks":
          [ "BMTvM4La6RxG18LpUqMg5LYq2E2yvCc4owfsgKqTmmVmmAukEwg" ] },
      { "delegate": "tz3QT9dHYKDqh563chVa6za8526ys1UKfRfL",
        "reception_time": "2022-01-18T11:15:58.070-00:00",
        "included_in_blocks":
          [ "BMTvM4La6RxG18LpUqMg5LYq2E2yvCc4owfsgKqTmmVmmAukEwg" ] },
      { "delegate": "tz3hw2kqXhLUvY65ca1eety2oQTpAvd34R9Q",
        "reception_time": "2022-01-18T11:15:58.148-00:00",
        "included_in_blocks":
          [ "BMTvM4La6RxG18LpUqMg5LYq2E2yvCc4owfsgKqTmmVmmAukEwg" ] },
      { "delegate": "tz3QSGPoRp3Kn7n3vY24eYeu3Peuqo45LQ4D",
        "reception_time": "2022-01-18T11:15:58.013-00:00",
        "included_in_blocks":
          [ "BMTvM4La6RxG18LpUqMg5LYq2E2yvCc4owfsgKqTmmVmmAukEwg" ] },
      { "delegate": "tz3RKYFsLuQzKBtmYuLNas7uMu3AsYd4QdsA",
        "reception_time": "2022-01-18T11:15:58.085-00:00",
        "included_in_blocks":
          [ "BMTvM4La6RxG18LpUqMg5LYq2E2yvCc4owfsgKqTmmVmmAukEwg" ] },
      { "delegate": "tz3QCNyySViKHmeSr45kzDxzchys7NiXCWoa",
        "reception_time": "2022-01-18T11:15:58.030-00:00",
        "included_in_blocks":
          [ "BMTvM4La6RxG18LpUqMg5LYq2E2yvCc4owfsgKqTmmVmmAukEwg" ] },
      { "delegate": "tz3gtoUxdudfBRcNY7iVdKPHCYYX6xdPpoRS",
        "reception_time": "2022-01-18T11:15:57.960-00:00",
        "included_in_blocks":
          [ "BMTvM4La6RxG18LpUqMg5LYq2E2yvCc4owfsgKqTmmVmmAukEwg" ] },
      { "delegate": "tz1S8MNvuFEUsWgjHvi3AxibRBf388NhT1q2",
        "reception_time": "2022-01-18T11:15:58.170-00:00",
        "included_in_blocks":
          [ "BMTvM4La6RxG18LpUqMg5LYq2E2yvCc4owfsgKqTmmVmmAukEwg" ] },
      { "delegate": "tz1Tnjaxk6tbAeC2TmMApPh8UsrEVQvhHvx5",
        "reception_time": "2022-01-18T11:15:58.627-00:00",
        "included_in_blocks":
          [ "BMTvM4La6RxG18LpUqMg5LYq2E2yvCc4owfsgKqTmmVmmAukEwg" ] },
      { "delegate": "tz1iPHM2Xx2hwmzcr1EG1zzrV6oKafVoA91m",
        "reception_time": "2022-01-18T11:15:58.357-00:00",
        "included_in_blocks":
          [ "BMTvM4La6RxG18LpUqMg5LYq2E2yvCc4owfsgKqTmmVmmAukEwg" ] },
      { "delegate": "tz1RCFbB9GpALpsZtu6J58sb74dm8qe6XBzv",
        "reception_time": "2022-01-18T11:15:58.177-00:00",
        "included_in_blocks":
          [ "BMTvM4La6RxG18LpUqMg5LYq2E2yvCc4owfsgKqTmmVmmAukEwg" ] },
      { "delegate": "tz3ZbP2pM3nwvXztbuMJwJnDvV5xdpU8UkkD",
        "reception_time": "2022-01-18T11:15:57.991-00:00",
        "included_in_blocks":
          [ "BMTvM4La6RxG18LpUqMg5LYq2E2yvCc4owfsgKqTmmVmmAukEwg" ] },
      { "delegate": "tz3NxTnke1acr8o3h5y9ytf5awQBGNJUKzVU",
        "reception_time": "2022-01-18T11:15:57.968-00:00",
        "included_in_blocks":
          [ "BMTvM4La6RxG18LpUqMg5LYq2E2yvCc4owfsgKqTmmVmmAukEwg" ] },
      { "delegate": "tz1gfArv665EUkSg2ojMBzcbfwuPxAvqPvjo",
        "reception_time": "2022-01-18T11:15:58.405-00:00",
        "included_in_blocks":
          [ "BMTvM4La6RxG18LpUqMg5LYq2E2yvCc4owfsgKqTmmVmmAukEwg" ] },
      { "delegate": "tz1MQMiZHV8q4tTwUMWmS5Y3kaP6J2136iXr",
        "reception_time": "2022-01-18T11:15:58.174-00:00",
        "included_in_blocks":
          [ "BMTvM4La6RxG18LpUqMg5LYq2E2yvCc4owfsgKqTmmVmmAukEwg" ] },
      { "delegate": "tz1eEnQhbwf6trb8Q8mPb2RaPkNk2rN7BKi8",
        "reception_time": "2022-01-18T11:15:57.956-00:00",
        "included_in_blocks":
          [ "BMTvM4La6RxG18LpUqMg5LYq2E2yvCc4owfsgKqTmmVmmAukEwg" ] },
      { "delegate": "tz1VmiY38m3y95HqQLjMwqnMS7sdMfGomzKi",
        "reception_time": "2022-01-18T11:15:58.063-00:00",
        "included_in_blocks":
          [ "BMTvM4La6RxG18LpUqMg5LYq2E2yvCc4owfsgKqTmmVmmAukEwg" ] },
      { "delegate": "tz1ZPh7XfUaJXUDvkrBxmS1BjEM1i62hiPpM",
        "reception_time": "2022-01-18T11:15:58.001-00:00",
        "included_in_blocks":
          [ "BMTvM4La6RxG18LpUqMg5LYq2E2yvCc4owfsgKqTmmVmmAukEwg" ] },
      { "delegate": "tz1Kt4P8BCaP93AEV4eA7gmpRryWt5hznjCP",
        "reception_time": "2022-01-18T11:15:57.996-00:00",
        "included_in_blocks":
          [ "BMTvM4La6RxG18LpUqMg5LYq2E2yvCc4owfsgKqTmmVmmAukEwg" ] },
      { "delegate": "tz1fPKAtsYydh4f1wfWNfeNxWYu72TmM48fu",
        "reception_time": "2022-01-18T11:15:58.073-00:00",
        "included_in_blocks":
          [ "BMTvM4La6RxG18LpUqMg5LYq2E2yvCc4owfsgKqTmmVmmAukEwg" ] },
      { "delegate": "tz1Scdr2HsZiQjc7bHMeBbmDRXYVvdhjJbBh",
        "reception_time": "2022-01-18T11:15:57.956-00:00",
        "included_in_blocks":
          [ "BMTvM4La6RxG18LpUqMg5LYq2E2yvCc4owfsgKqTmmVmmAukEwg" ] },
      { "delegate": "tz1dbfppLAAxXZNtf2SDps7rch3qfUznKSoK",
        "reception_time": "2022-01-18T11:15:57.956-00:00",
        "included_in_blocks":
          [ "BMTvM4La6RxG18LpUqMg5LYq2E2yvCc4owfsgKqTmmVmmAukEwg" ] },
      { "delegate": "tz1P2Po7YM526ughEsRbY4oR9zaUPDZjxFrb",
        "reception_time": "2022-01-18T11:15:57.956-00:00",
        "included_in_blocks":
          [ "BMTvM4La6RxG18LpUqMg5LYq2E2yvCc4owfsgKqTmmVmmAukEwg" ] },
      { "delegate": "tz1STeamwbp68THcny9zk3LsbG3H36DMvbRK",
        "reception_time": "2022-01-18T11:15:57.956-00:00",
        "included_in_blocks":
          [ "BMTvM4La6RxG18LpUqMg5LYq2E2yvCc4owfsgKqTmmVmmAukEwg" ] },
      { "delegate": "tz1Lhf4J9Qxoe3DZ2nfe8FGDnvVj7oKjnMY6",
        "reception_time": "2022-01-18T11:15:57.960-00:00",
        "included_in_blocks":
          [ "BMTvM4La6RxG18LpUqMg5LYq2E2yvCc4owfsgKqTmmVmmAukEwg" ] } ] }