{ "blocks":
    [ { "hash": "BLpAtMHaTZD1zq71WhRpA1CvkqbDd4FDUodiqVbspxsGzDdKJtT",
        "delegate": "tz1VQnqCCqX4K5sP3FNkVSNKTdCAMJDd3E1n",
        "reception_time": "2022-01-18T10:29:17.851-00:00",
        "timestamp": "2022-01-18T10:29:10Z" } ],
  "endorsements":
    [ { "delegate": "tz1ibcPVGK4Y8pcW4BYUsojiHoBKnZbyDGrX" },
      { "delegate": "tz1NdhRv643wLW6zCcRP3VfT24dvDnh7nuh9" },
      { "delegate": "tz3bTdwZinP8U1JmSweNzVKhmwafqWmFWRfk",
        "reception_time": "2022-01-18T10:29:17.814-00:00",
        "errors":
          [ { "kind": "temporary",
              "id": "proto.011-PtHangz2.prefilter.outdated_endorsement" } ],
        "included_in_blocks":
          [ "BKysn1Bf1iTvmy4vSBy6mCMQEqDudHKiTcwM8DHdBNnPchV4XLz" ] },
      { "delegate": "tz1UMCB2AHSTwG7YcGNr31CqYCtGN873royv",
        "reception_time": "2022-01-18T10:29:17.804-00:00",
        "errors":
          [ { "kind": "temporary",
              "id": "proto.011-PtHangz2.prefilter.outdated_endorsement" } ],
        "included_in_blocks":
          [ "BKysn1Bf1iTvmy4vSBy6mCMQEqDudHKiTcwM8DHdBNnPchV4XLz" ] },
      { "delegate": "tz1iPHM2Xx2hwmzcr1EG1zzrV6oKafVoA91m",
        "reception_time": "2022-01-18T10:29:17.790-00:00",
        "errors":
          [ { "kind": "temporary",
              "id": "proto.011-PtHangz2.prefilter.outdated_endorsement" } ],
        "included_in_blocks":
          [ "BKysn1Bf1iTvmy4vSBy6mCMQEqDudHKiTcwM8DHdBNnPchV4XLz" ] },
      { "delegate": "tz1fwnfJNgiDACshK9avfRfFbMaXrs3ghoJa",
        "reception_time": "2022-01-18T10:29:17.709-00:00",
        "errors":
          [ { "kind": "temporary",
              "id": "proto.011-PtHangz2.prefilter.outdated_endorsement" } ],
        "included_in_blocks":
          [ "BKysn1Bf1iTvmy4vSBy6mCMQEqDudHKiTcwM8DHdBNnPchV4XLz" ] },
      { "delegate": "tz1S8MNvuFEUsWgjHvi3AxibRBf388NhT1q2",
        "reception_time": "2022-01-18T10:29:17.707-00:00",
        "errors":
          [ { "kind": "temporary",
              "id": "proto.011-PtHangz2.prefilter.outdated_endorsement" } ],
        "included_in_blocks":
          [ "BKysn1Bf1iTvmy4vSBy6mCMQEqDudHKiTcwM8DHdBNnPchV4XLz" ] },
      { "delegate": "tz2FCNBrERXtaTtNX6iimR1UJ5JSDxvdHM93",
        "reception_time": "2022-01-18T10:29:17.696-00:00",
        "errors":
          [ { "kind": "temporary",
              "id": "proto.011-PtHangz2.prefilter.outdated_endorsement" } ],
        "included_in_blocks":
          [ "BKysn1Bf1iTvmy4vSBy6mCMQEqDudHKiTcwM8DHdBNnPchV4XLz" ] },
      { "delegate": "tz3RDC3Jdn4j15J7bBHZd29EUee9gVB1CxD9",
        "reception_time": "2022-01-18T10:29:17.641-00:00",
        "errors":
          [ { "kind": "temporary",
              "id": "proto.011-PtHangz2.prefilter.outdated_endorsement" } ],
        "included_in_blocks":
          [ "BKysn1Bf1iTvmy4vSBy6mCMQEqDudHKiTcwM8DHdBNnPchV4XLz" ] },
      { "delegate": "tz3QCNyySViKHmeSr45kzDxzchys7NiXCWoa",
        "reception_time": "2022-01-18T10:29:17.459-00:00",
        "errors":
          [ { "kind": "temporary",
              "id": "proto.011-PtHangz2.prefilter.outdated_endorsement" } ],
        "included_in_blocks":
          [ "BKysn1Bf1iTvmy4vSBy6mCMQEqDudHKiTcwM8DHdBNnPchV4XLz" ] },
      { "delegate": "tz1gfArv665EUkSg2ojMBzcbfwuPxAvqPvjo",
        "reception_time": "2022-01-18T10:29:17.432-00:00",
        "errors":
          [ { "kind": "temporary",
              "id": "proto.011-PtHangz2.prefilter.outdated_endorsement" } ],
        "included_in_blocks":
          [ "BKysn1Bf1iTvmy4vSBy6mCMQEqDudHKiTcwM8DHdBNnPchV4XLz" ] },
      { "delegate": "tz1dNVDWPf3Q59SdJqnjdnu277iyvReiRS9M",
        "reception_time": "2022-01-18T10:29:17.378-00:00",
        "errors":
          [ { "kind": "temporary",
              "id": "proto.011-PtHangz2.prefilter.outdated_endorsement" } ],
        "included_in_blocks":
          [ "BKysn1Bf1iTvmy4vSBy6mCMQEqDudHKiTcwM8DHdBNnPchV4XLz" ] },
      { "delegate": "tz1RCFbB9GpALpsZtu6J58sb74dm8qe6XBzv",
        "reception_time": "2022-01-18T10:29:17.363-00:00",
        "errors":
          [ { "kind": "temporary",
              "id": "proto.011-PtHangz2.prefilter.outdated_endorsement" } ],
        "included_in_blocks":
          [ "BKysn1Bf1iTvmy4vSBy6mCMQEqDudHKiTcwM8DHdBNnPchV4XLz" ] },
      { "delegate": "tz3QT9dHYKDqh563chVa6za8526ys1UKfRfL",
        "reception_time": "2022-01-18T10:29:17.258-00:00",
        "errors":
          [ { "kind": "temporary",
              "id": "proto.011-PtHangz2.prefilter.outdated_endorsement" } ],
        "included_in_blocks":
          [ "BKysn1Bf1iTvmy4vSBy6mCMQEqDudHKiTcwM8DHdBNnPchV4XLz" ] },
      { "delegate": "tz3S6BBeKgJGXxvLyZ1xzXzMPn11nnFtq5L9",
        "reception_time": "2022-01-18T10:29:17.174-00:00",
        "errors":
          [ { "kind": "temporary",
              "id": "proto.011-PtHangz2.prefilter.outdated_endorsement" } ],
        "included_in_blocks":
          [ "BKysn1Bf1iTvmy4vSBy6mCMQEqDudHKiTcwM8DHdBNnPchV4XLz" ] },
      { "delegate": "tz1d4G4MdmfJWUzu8X4SJUTKjx4Ns6TUR9gR",
        "reception_time": "2022-01-18T10:29:17.166-00:00",
        "errors":
          [ { "kind": "temporary",
              "id": "proto.011-PtHangz2.prefilter.outdated_endorsement" } ],
        "included_in_blocks":
          [ "BKysn1Bf1iTvmy4vSBy6mCMQEqDudHKiTcwM8DHdBNnPchV4XLz" ] },
      { "delegate": "tz1ei4WtWEMEJekSv8qDnu9PExG6Q8HgRGr3",
        "reception_time": "2022-01-18T10:29:17.162-00:00",
        "errors":
          [ { "kind": "temporary",
              "id": "proto.011-PtHangz2.prefilter.outdated_endorsement" } ],
        "included_in_blocks":
          [ "BKysn1Bf1iTvmy4vSBy6mCMQEqDudHKiTcwM8DHdBNnPchV4XLz" ] },
      { "delegate": "tz1fb7c66UwePkkfDXz4ajFaBP9hVNLdS7JJ",
        "reception_time": "2022-01-18T10:29:17.153-00:00",
        "errors":
          [ { "kind": "temporary",
              "id": "proto.011-PtHangz2.prefilter.outdated_endorsement" } ],
        "included_in_blocks":
          [ "BKysn1Bf1iTvmy4vSBy6mCMQEqDudHKiTcwM8DHdBNnPchV4XLz" ] },
      { "delegate": "tz1Nf6tsK4G6bBqgSQERy4nUtkHNKUVdh7q1",
        "reception_time": "2022-01-18T10:29:17.125-00:00",
        "errors":
          [ { "kind": "temporary",
              "id": "proto.011-PtHangz2.prefilter.outdated_endorsement" } ],
        "included_in_blocks":
          [ "BKysn1Bf1iTvmy4vSBy6mCMQEqDudHKiTcwM8DHdBNnPchV4XLz" ] },
      { "delegate": "tz3Zhs2dygr55yHyQyKjntAtY9bgfhLZ4Xj1",
        "reception_time": "2022-01-18T10:29:17.067-00:00",
        "errors":
          [ { "kind": "temporary",
              "id": "proto.011-PtHangz2.prefilter.outdated_endorsement" } ],
        "included_in_blocks":
          [ "BKysn1Bf1iTvmy4vSBy6mCMQEqDudHKiTcwM8DHdBNnPchV4XLz" ] },
      { "delegate": "tz3iJu5vrKZcsqRPs8yJ61UDoeEXZmtro4qh",
        "reception_time": "2022-01-18T10:29:17.035-00:00",
        "errors":
          [ { "kind": "temporary",
              "id": "proto.011-PtHangz2.prefilter.outdated_endorsement" } ],
        "included_in_blocks":
          [ "BKysn1Bf1iTvmy4vSBy6mCMQEqDudHKiTcwM8DHdBNnPchV4XLz" ] },
      { "delegate": "tz1YhNsiRRU8aHNGg7NK3uuP6UDAyacJernB",
        "reception_time": "2022-01-18T10:29:16.921-00:00",
        "errors":
          [ { "kind": "temporary",
              "id": "proto.011-PtHangz2.prefilter.outdated_endorsement" } ],
        "included_in_blocks":
          [ "BKysn1Bf1iTvmy4vSBy6mCMQEqDudHKiTcwM8DHdBNnPchV4XLz" ] },
      { "delegate": "tz1PWCDnz783NNGGQjEFFsHtrcK5yBW4E2rm",
        "reception_time": "2022-01-18T10:29:16.915-00:00",
        "errors":
          [ { "kind": "temporary",
              "id": "proto.011-PtHangz2.prefilter.outdated_endorsement" } ],
        "included_in_blocks":
          [ "BKysn1Bf1iTvmy4vSBy6mCMQEqDudHKiTcwM8DHdBNnPchV4XLz" ] },
      { "delegate": "tz1V4qCyvPKZ5UeqdH14HN42rxvNPQfc9UZg",
        "reception_time": "2022-01-18T10:29:16.885-00:00",
        "errors":
          [ { "kind": "temporary",
              "id": "proto.011-PtHangz2.prefilter.outdated_endorsement" } ],
        "included_in_blocks":
          [ "BKysn1Bf1iTvmy4vSBy6mCMQEqDudHKiTcwM8DHdBNnPchV4XLz" ] },
      { "delegate": "tz3NxTnke1acr8o3h5y9ytf5awQBGNJUKzVU",
        "reception_time": "2022-01-18T10:29:16.881-00:00",
        "errors":
          [ { "kind": "temporary",
              "id": "proto.011-PtHangz2.prefilter.outdated_endorsement" } ],
        "included_in_blocks":
          [ "BKysn1Bf1iTvmy4vSBy6mCMQEqDudHKiTcwM8DHdBNnPchV4XLz" ] },
      { "delegate": "tz3RKYFsLuQzKBtmYuLNas7uMu3AsYd4QdsA",
        "reception_time": "2022-01-18T10:29:16.863-00:00",
        "errors":
          [ { "kind": "temporary",
              "id": "proto.011-PtHangz2.prefilter.outdated_endorsement" } ],
        "included_in_blocks":
          [ "BKysn1Bf1iTvmy4vSBy6mCMQEqDudHKiTcwM8DHdBNnPchV4XLz" ] },
      { "delegate": "tz3ZbP2pM3nwvXztbuMJwJnDvV5xdpU8UkkD",
        "reception_time": "2022-01-18T10:29:16.862-00:00",
        "errors":
          [ { "kind": "temporary",
              "id": "proto.011-PtHangz2.prefilter.outdated_endorsement" } ],
        "included_in_blocks":
          [ "BKysn1Bf1iTvmy4vSBy6mCMQEqDudHKiTcwM8DHdBNnPchV4XLz" ] },
      { "delegate": "tz3hw2kqXhLUvY65ca1eety2oQTpAvd34R9Q",
        "reception_time": "2022-01-18T10:29:16.837-00:00",
        "errors":
          [ { "kind": "temporary",
              "id": "proto.011-PtHangz2.prefilter.outdated_endorsement" } ],
        "included_in_blocks":
          [ "BKysn1Bf1iTvmy4vSBy6mCMQEqDudHKiTcwM8DHdBNnPchV4XLz" ] },
      { "delegate": "tz1TRspM5SeZpaQUhzByXbEvqKF1vnCM2YTK",
        "reception_time": "2022-01-18T10:29:16.714-00:00",
        "errors":
          [ { "kind": "temporary",
              "id": "proto.011-PtHangz2.prefilter.outdated_endorsement" } ],
        "included_in_blocks":
          [ "BKysn1Bf1iTvmy4vSBy6mCMQEqDudHKiTcwM8DHdBNnPchV4XLz" ] },
      { "delegate": "tz3QSGPoRp3Kn7n3vY24eYeu3Peuqo45LQ4D",
        "reception_time": "2022-01-18T10:29:16.604-00:00",
        "errors":
          [ { "kind": "temporary",
              "id": "proto.011-PtHangz2.prefilter.outdated_endorsement" } ],
        "included_in_blocks":
          [ "BKysn1Bf1iTvmy4vSBy6mCMQEqDudHKiTcwM8DHdBNnPchV4XLz" ] },
      { "delegate": "tz1WCd2jm4uSt4vntk4vSuUWoZQGhLcDuR9q",
        "reception_time": "2022-01-18T10:29:16.570-00:00",
        "errors":
          [ { "kind": "temporary",
              "id": "proto.011-PtHangz2.prefilter.outdated_endorsement" } ],
        "included_in_blocks":
          [ "BKysn1Bf1iTvmy4vSBy6mCMQEqDudHKiTcwM8DHdBNnPchV4XLz" ] },
      { "delegate": "tz3gtoUxdudfBRcNY7iVdKPHCYYX6xdPpoRS",
        "reception_time": "2022-01-18T10:29:16.550-00:00",
        "errors":
          [ { "kind": "temporary",
              "id": "proto.011-PtHangz2.prefilter.outdated_endorsement" } ],
        "included_in_blocks":
          [ "BKysn1Bf1iTvmy4vSBy6mCMQEqDudHKiTcwM8DHdBNnPchV4XLz" ] },
      { "delegate": "tz1TzaNn7wSQSP5gYPXCnNzBCpyMiidCq1PX",
        "reception_time": "2022-01-18T10:29:16.448-00:00",
        "errors":
          [ { "kind": "temporary",
              "id": "proto.011-PtHangz2.prefilter.outdated_endorsement" } ],
        "included_in_blocks":
          [ "BKysn1Bf1iTvmy4vSBy6mCMQEqDudHKiTcwM8DHdBNnPchV4XLz" ] },
      { "delegate": "tz1Kf25fX1VdmYGSEzwFy1wNmkbSEZ2V83sY",
        "reception_time": "2022-01-18T10:29:16.422-00:00",
        "errors":
          [ { "kind": "temporary",
              "id": "proto.011-PtHangz2.prefilter.outdated_endorsement" } ],
        "included_in_blocks":
          [ "BKysn1Bf1iTvmy4vSBy6mCMQEqDudHKiTcwM8DHdBNnPchV4XLz" ] },
      { "delegate": "tz1aXD7Jigrt3PBYSpHSg5Rr33SexMmmM5Ys",
        "reception_time": "2022-01-18T10:29:16.395-00:00",
        "errors":
          [ { "kind": "temporary",
              "id": "proto.011-PtHangz2.prefilter.outdated_endorsement" } ],
        "included_in_blocks":
          [ "BKysn1Bf1iTvmy4vSBy6mCMQEqDudHKiTcwM8DHdBNnPchV4XLz" ] },
      { "delegate": "tz1Ldzz6k1BHdhuKvAtMRX7h5kJSMHESMHLC",
        "reception_time": "2022-01-18T10:29:16.313-00:00",
        "errors":
          [ { "kind": "temporary",
              "id": "proto.011-PtHangz2.prefilter.outdated_endorsement" } ],
        "included_in_blocks":
          [ "BKysn1Bf1iTvmy4vSBy6mCMQEqDudHKiTcwM8DHdBNnPchV4XLz" ] },
      { "delegate": "tz1VmiY38m3y95HqQLjMwqnMS7sdMfGomzKi",
        "reception_time": "2022-01-18T10:29:16.270-00:00",
        "errors":
          [ { "kind": "temporary",
              "id": "proto.011-PtHangz2.prefilter.outdated_endorsement" } ],
        "included_in_blocks":
          [ "BKysn1Bf1iTvmy4vSBy6mCMQEqDudHKiTcwM8DHdBNnPchV4XLz" ] },
      { "delegate": "tz1eEnQhbwf6trb8Q8mPb2RaPkNk2rN7BKi8",
        "reception_time": "2022-01-18T10:29:16.069-00:00",
        "errors":
          [ { "kind": "temporary",
              "id": "proto.011-PtHangz2.prefilter.outdated_endorsement" } ],
        "included_in_blocks":
          [ "BKysn1Bf1iTvmy4vSBy6mCMQEqDudHKiTcwM8DHdBNnPchV4XLz" ] },
      { "delegate": "tz1irJKkXS2DBWkU1NnmFQx1c1L7pbGg4yhk",
        "reception_time": "2022-01-18T10:29:16.056-00:00",
        "errors":
          [ { "kind": "temporary",
              "id": "proto.011-PtHangz2.prefilter.outdated_endorsement" } ],
        "included_in_blocks":
          [ "BKysn1Bf1iTvmy4vSBy6mCMQEqDudHKiTcwM8DHdBNnPchV4XLz" ] },
      { "delegate": "tz1RV1MBbZMR68tacosb7Mwj6LkbPSUS1er1",
        "reception_time": "2022-01-18T10:29:15.845-00:00",
        "errors":
          [ { "kind": "temporary",
              "id": "proto.011-PtHangz2.prefilter.outdated_endorsement" } ],
        "included_in_blocks":
          [ "BKysn1Bf1iTvmy4vSBy6mCMQEqDudHKiTcwM8DHdBNnPchV4XLz" ] },
      { "delegate": "tz1TXzyaKUA8wsWefdSnyaYFnV2M3vCV7er9",
        "reception_time": "2022-01-18T10:29:15.681-00:00",
        "errors":
          [ { "kind": "temporary",
              "id": "proto.011-PtHangz2.prefilter.outdated_endorsement" } ],
        "included_in_blocks":
          [ "BKysn1Bf1iTvmy4vSBy6mCMQEqDudHKiTcwM8DHdBNnPchV4XLz" ] },
      { "delegate": "tz1gUNyn3hmnEWqkusWPzxRaon1cs7ndWh7h",
        "reception_time": "2022-01-18T10:29:15.441-00:00",
        "errors":
          [ { "kind": "temporary",
              "id": "proto.011-PtHangz2.prefilter.outdated_endorsement" } ],
        "included_in_blocks":
          [ "BKysn1Bf1iTvmy4vSBy6mCMQEqDudHKiTcwM8DHdBNnPchV4XLz" ] },
      { "delegate": "tz1VQnqCCqX4K5sP3FNkVSNKTdCAMJDd3E1n",
        "reception_time": "2022-01-18T10:29:15.437-00:00",
        "errors":
          [ { "kind": "temporary",
              "id": "proto.011-PtHangz2.prefilter.outdated_endorsement" } ],
        "included_in_blocks":
          [ "BKysn1Bf1iTvmy4vSBy6mCMQEqDudHKiTcwM8DHdBNnPchV4XLz" ] },
      { "delegate": "tz1Scdr2HsZiQjc7bHMeBbmDRXYVvdhjJbBh",
        "reception_time": "2022-01-18T10:29:15.380-00:00",
        "errors":
          [ { "kind": "temporary",
              "id": "proto.011-PtHangz2.prefilter.outdated_endorsement" } ],
        "included_in_blocks":
          [ "BKysn1Bf1iTvmy4vSBy6mCMQEqDudHKiTcwM8DHdBNnPchV4XLz" ] },
      { "delegate": "tz1P2Po7YM526ughEsRbY4oR9zaUPDZjxFrb",
        "reception_time": "2022-01-18T10:29:15.314-00:00",
        "errors":
          [ { "kind": "temporary",
              "id": "proto.011-PtHangz2.prefilter.outdated_endorsement" } ],
        "included_in_blocks":
          [ "BKysn1Bf1iTvmy4vSBy6mCMQEqDudHKiTcwM8DHdBNnPchV4XLz" ] },
      { "delegate": "tz3e7LbZvUtoXhpUD1yb6wuFodZpfYRb9nWJ",
        "reception_time": "2022-01-18T10:29:29.397-00:00",
        "included_in_blocks":
          [ "BKysn1Bf1iTvmy4vSBy6mCMQEqDudHKiTcwM8DHdBNnPchV4XLz" ] },
      { "delegate": "tz1NpWrAyDL9k2Lmnyxcgr9xuJakbBxdq7FB",
        "reception_time": "2022-01-18T10:29:25.328-00:00",
        "included_in_blocks":
          [ "BKysn1Bf1iTvmy4vSBy6mCMQEqDudHKiTcwM8DHdBNnPchV4XLz" ] },
      { "delegate": "tz1cYufsxHXJcvANhvS55h3aY32a9BAFB494",
        "reception_time": "2022-01-18T10:29:24.953-00:00",
        "included_in_blocks":
          [ "BKysn1Bf1iTvmy4vSBy6mCMQEqDudHKiTcwM8DHdBNnPchV4XLz" ] },
      { "delegate": "tz1aRoaRhSpRYvFdyvgWLL6TGyRoGF51wDjM",
        "reception_time": "2022-01-18T10:29:20.730-00:00",
        "included_in_blocks":
          [ "BKysn1Bf1iTvmy4vSBy6mCMQEqDudHKiTcwM8DHdBNnPchV4XLz" ] },
      { "delegate": "tz1W5VkdB5s7ENMESVBtwyt9kyvLqPcUczRT",
        "reception_time": "2022-01-18T10:29:20.570-00:00",
        "included_in_blocks":
          [ "BKysn1Bf1iTvmy4vSBy6mCMQEqDudHKiTcwM8DHdBNnPchV4XLz" ] },
      { "delegate": "tz1M1gA1hgmmLf8VvtAwupbWCkaciQZMFbvi",
        "reception_time": "2022-01-18T10:29:20.452-00:00",
        "included_in_blocks":
          [ "BKysn1Bf1iTvmy4vSBy6mCMQEqDudHKiTcwM8DHdBNnPchV4XLz" ] },
      { "delegate": "tz1ZcTRk5uxD86EFEn1vvNffWWqJy7q5eVhc",
        "reception_time": "2022-01-18T10:29:20.439-00:00",
        "included_in_blocks":
          [ "BKysn1Bf1iTvmy4vSBy6mCMQEqDudHKiTcwM8DHdBNnPchV4XLz" ] },
      { "delegate": "tz1Z2jXfEXL7dXhs6bsLmyLFLfmAkXBzA9WE",
        "reception_time": "2022-01-18T10:29:20.304-00:00",
        "included_in_blocks":
          [ "BKysn1Bf1iTvmy4vSBy6mCMQEqDudHKiTcwM8DHdBNnPchV4XLz" ] },
      { "delegate": "tz3bvNMQ95vfAYtG8193ymshqjSvmxiCUuR5",
        "reception_time": "2022-01-18T10:29:20.357-00:00",
        "included_in_blocks":
          [ "BKysn1Bf1iTvmy4vSBy6mCMQEqDudHKiTcwM8DHdBNnPchV4XLz" ] },
      { "delegate": "tz1NoYvKjXTzTk54VpLxBfouJ33J8jwKPPvw",
        "reception_time": "2022-01-18T10:29:20.477-00:00",
        "included_in_blocks":
          [ "BKysn1Bf1iTvmy4vSBy6mCMQEqDudHKiTcwM8DHdBNnPchV4XLz" ] },
      { "delegate": "tz1dRKU4FQ9QRRQPdaH4zCR6gmCmXfcvcgtB",
        "reception_time": "2022-01-18T10:29:20.330-00:00",
        "included_in_blocks":
          [ "BKysn1Bf1iTvmy4vSBy6mCMQEqDudHKiTcwM8DHdBNnPchV4XLz" ] },
      { "delegate": "tz3NExpXn9aPNZPorRE4SdjJ2RGrfbJgMAaV",
        "reception_time": "2022-01-18T10:29:20.473-00:00",
        "included_in_blocks":
          [ "BKysn1Bf1iTvmy4vSBy6mCMQEqDudHKiTcwM8DHdBNnPchV4XLz" ] },
      { "delegate": "tz3gLTu4Yxj8tPAcriQVUdxv6BY9QyvzU1az",
        "reception_time": "2022-01-18T10:29:20.368-00:00",
        "included_in_blocks":
          [ "BKysn1Bf1iTvmy4vSBy6mCMQEqDudHKiTcwM8DHdBNnPchV4XLz" ] },
      { "delegate": "tz1TRqbYbUf2GyrjErf3hBzgBJPzW8y36qEs",
        "reception_time": "2022-01-18T10:29:20.482-00:00",
        "included_in_blocks":
          [ "BKysn1Bf1iTvmy4vSBy6mCMQEqDudHKiTcwM8DHdBNnPchV4XLz" ] },
      { "delegate": "tz3NDpRj6WBrJPikcPVHRBEjWKxFw3c6eQPS",
        "reception_time": "2022-01-18T10:29:20.295-00:00",
        "included_in_blocks":
          [ "BKysn1Bf1iTvmy4vSBy6mCMQEqDudHKiTcwM8DHdBNnPchV4XLz" ] },
      { "delegate": "tz3VEZ4k6a4Wx42iyev6i2aVAptTRLEAivNN",
        "reception_time": "2022-01-18T10:29:20.304-00:00",
        "included_in_blocks":
          [ "BKysn1Bf1iTvmy4vSBy6mCMQEqDudHKiTcwM8DHdBNnPchV4XLz" ] },
      { "delegate": "tz1h4GUAMweP7SNWzDgvMk3yRCAZyaP1MxZq",
        "reception_time": "2022-01-18T10:29:20.318-00:00",
        "included_in_blocks":
          [ "BKysn1Bf1iTvmy4vSBy6mCMQEqDudHKiTcwM8DHdBNnPchV4XLz" ] },
      { "delegate": "tz3WMqdzXqRWXwyvj5Hp2H7QEepaUuS7vd9K",
        "reception_time": "2022-01-18T10:29:20.376-00:00",
        "included_in_blocks":
          [ "BKysn1Bf1iTvmy4vSBy6mCMQEqDudHKiTcwM8DHdBNnPchV4XLz" ] },
      { "delegate": "tz1SYq214SCBy9naR6cvycQsYcUGpBqQAE8d",
        "reception_time": "2022-01-18T10:29:20.341-00:00",
        "included_in_blocks":
          [ "BKysn1Bf1iTvmy4vSBy6mCMQEqDudHKiTcwM8DHdBNnPchV4XLz" ] },
      { "delegate": "tz1abmz7jiCV2GH2u81LRrGgAFFgvQgiDiaf",
        "reception_time": "2022-01-18T10:29:20.412-00:00",
        "included_in_blocks":
          [ "BKysn1Bf1iTvmy4vSBy6mCMQEqDudHKiTcwM8DHdBNnPchV4XLz" ] },
      { "delegate": "tz3RB4aoyjov4KEVRbuhvQ1CKJgBJMWhaeB8",
        "reception_time": "2022-01-18T10:29:20.327-00:00",
        "included_in_blocks":
          [ "BKysn1Bf1iTvmy4vSBy6mCMQEqDudHKiTcwM8DHdBNnPchV4XLz" ] },
      { "delegate": "tz1iEWcNL383qiDJ3Q3qt5W2T4aSKUbEU4An",
        "reception_time": "2022-01-18T10:29:20.318-00:00",
        "included_in_blocks":
          [ "BKysn1Bf1iTvmy4vSBy6mCMQEqDudHKiTcwM8DHdBNnPchV4XLz" ] },
      { "delegate": "tz1g8vkmcde6sWKaG2NN9WKzCkDM6Rziq194",
        "reception_time": "2022-01-18T10:29:20.285-00:00",
        "included_in_blocks":
          [ "BKysn1Bf1iTvmy4vSBy6mCMQEqDudHKiTcwM8DHdBNnPchV4XLz" ] },
      { "delegate": "tz1WBfwbT66FC6BTLexc2BoyCCBM9LG7pnVW",
        "reception_time": "2022-01-18T10:29:20.318-00:00",
        "included_in_blocks":
          [ "BKysn1Bf1iTvmy4vSBy6mCMQEqDudHKiTcwM8DHdBNnPchV4XLz" ] },
      { "delegate": "tz1T7duV5gZWSTq4YpBGbXNLTfznCLDrFxvs",
        "reception_time": "2022-01-18T10:29:20.327-00:00",
        "included_in_blocks":
          [ "BKysn1Bf1iTvmy4vSBy6mCMQEqDudHKiTcwM8DHdBNnPchV4XLz" ] },
      { "delegate": "tz1Tnjaxk6tbAeC2TmMApPh8UsrEVQvhHvx5",
        "reception_time": "2022-01-18T10:29:20.360-00:00",
        "included_in_blocks":
          [ "BKysn1Bf1iTvmy4vSBy6mCMQEqDudHKiTcwM8DHdBNnPchV4XLz" ] },
      { "delegate": "tz3UoffC7FG7zfpmvmjUmUeAaHvzdcUvAj6r",
        "reception_time": "2022-01-18T10:29:20.463-00:00",
        "included_in_blocks":
          [ "BKysn1Bf1iTvmy4vSBy6mCMQEqDudHKiTcwM8DHdBNnPchV4XLz" ] },
      { "delegate": "tz1LmaFsWRkjr7QMCx5PtV6xTUz3AmEpKQiF",
        "reception_time": "2022-01-18T10:29:20.445-00:00",
        "included_in_blocks":
          [ "BKysn1Bf1iTvmy4vSBy6mCMQEqDudHKiTcwM8DHdBNnPchV4XLz" ] },
      { "delegate": "tz1RjoHc98dBoqaH2jawF62XNKh7YsHwbkEv",
        "reception_time": "2022-01-18T10:29:20.455-00:00",
        "included_in_blocks":
          [ "BKysn1Bf1iTvmy4vSBy6mCMQEqDudHKiTcwM8DHdBNnPchV4XLz" ] },
      { "delegate": "tz1KfEsrtDaA1sX7vdM4qmEPWuSytuqCDp5j",
        "reception_time": "2022-01-18T10:29:20.335-00:00",
        "included_in_blocks":
          [ "BKysn1Bf1iTvmy4vSBy6mCMQEqDudHKiTcwM8DHdBNnPchV4XLz" ] } ] }