{ "blocks":
    [ { "hash": "BMVsq1ZLqTcNDQPN1KR3hFA3ZuQodMQCXpcD8RHF53CvuzYWKy9",
        "delegate": "tz3VEZ4k6a4Wx42iyev6i2aVAptTRLEAivNN",
        "reception_time": "2022-01-18T12:56:58.836-00:00",
        "timestamp": "2022-01-18T12:56:50Z" } ],
  "endorsements":
    [ { "delegate": "tz1P2Po7YM526ughEsRbY4oR9zaUPDZjxFrb",
        "reception_time": "2022-01-18T12:56:58.471-00:00",
        "errors":
          [ { "kind": "temporary",
              "id": "proto.011-PtHangz2.prefilter.outdated_endorsement" } ],
        "included_in_blocks":
          [ "BM42FTyK66cKhYJpeSVo2p1QqhReUy9VLciV3UWm5PXMCEguyRT" ] },
      { "delegate": "tz1S8e9GgdZG78XJRB3NqabfWeM37GnhZMWQ",
        "reception_time": "2022-01-18T12:56:58.060-00:00",
        "errors":
          [ { "kind": "temporary",
              "id": "proto.011-PtHangz2.prefilter.outdated_endorsement" } ],
        "included_in_blocks":
          [ "BM42FTyK66cKhYJpeSVo2p1QqhReUy9VLciV3UWm5PXMCEguyRT" ] },
      { "delegate": "tz1Vyuu4EJ5Nym4JcrfRLnp3hpaq1DSEp1Ke" },
      { "delegate": "tz1cYufsxHXJcvANhvS55h3aY32a9BAFB494" },
      { "delegate": "tz1STeamwbp68THcny9zk3LsbG3H36DMvbRK",
        "reception_time": "2022-01-18T12:56:59.459-00:00",
        "included_in_blocks":
          [ "BM42FTyK66cKhYJpeSVo2p1QqhReUy9VLciV3UWm5PXMCEguyRT" ] },
      { "delegate": "tz1MXFrtZoaXckE41bjUCSjAjAap3AFDSr3N",
        "reception_time": "2022-01-18T12:56:59.781-00:00",
        "included_in_blocks":
          [ "BM42FTyK66cKhYJpeSVo2p1QqhReUy9VLciV3UWm5PXMCEguyRT" ] },
      { "delegate": "tz1aKxnrzx5PXZJe7unufEswVRCMU9yafmfb",
        "reception_time": "2022-01-18T12:56:59.804-00:00",
        "included_in_blocks":
          [ "BM42FTyK66cKhYJpeSVo2p1QqhReUy9VLciV3UWm5PXMCEguyRT" ] },
      { "delegate": "tz1eEnQhbwf6trb8Q8mPb2RaPkNk2rN7BKi8",
        "reception_time": "2022-01-18T12:56:59.809-00:00",
        "included_in_blocks":
          [ "BM42FTyK66cKhYJpeSVo2p1QqhReUy9VLciV3UWm5PXMCEguyRT" ] },
      { "delegate": "tz3VEZ4k6a4Wx42iyev6i2aVAptTRLEAivNN",
        "reception_time": "2022-01-18T12:56:59.849-00:00",
        "included_in_blocks":
          [ "BM42FTyK66cKhYJpeSVo2p1QqhReUy9VLciV3UWm5PXMCEguyRT" ] },
      { "delegate": "tz1irJKkXS2DBWkU1NnmFQx1c1L7pbGg4yhk",
        "reception_time": "2022-01-18T12:56:59.877-00:00",
        "included_in_blocks":
          [ "BM42FTyK66cKhYJpeSVo2p1QqhReUy9VLciV3UWm5PXMCEguyRT" ] },
      { "delegate": "tz3Zhs2dygr55yHyQyKjntAtY9bgfhLZ4Xj1",
        "reception_time": "2022-01-18T12:57:00.066-00:00",
        "included_in_blocks":
          [ "BM42FTyK66cKhYJpeSVo2p1QqhReUy9VLciV3UWm5PXMCEguyRT" ] },
      { "delegate": "tz1R4D8nfepxHTDppGzsQqD5CMM4jjmk5o91",
        "reception_time": "2022-01-18T12:57:00.076-00:00",
        "included_in_blocks":
          [ "BM42FTyK66cKhYJpeSVo2p1QqhReUy9VLciV3UWm5PXMCEguyRT" ] },
      { "delegate": "tz3gtoUxdudfBRcNY7iVdKPHCYYX6xdPpoRS",
        "reception_time": "2022-01-18T12:57:00.083-00:00",
        "included_in_blocks":
          [ "BM42FTyK66cKhYJpeSVo2p1QqhReUy9VLciV3UWm5PXMCEguyRT" ] },
      { "delegate": "tz1aXD7Jigrt3PBYSpHSg5Rr33SexMmmM5Ys",
        "reception_time": "2022-01-18T12:57:00.091-00:00",
        "included_in_blocks":
          [ "BM42FTyK66cKhYJpeSVo2p1QqhReUy9VLciV3UWm5PXMCEguyRT" ] },
      { "delegate": "tz1MQJPGNMijnXnVoBENFz9rUhaPt3S7rWoz",
        "reception_time": "2022-01-18T12:57:00.097-00:00",
        "included_in_blocks":
          [ "BM42FTyK66cKhYJpeSVo2p1QqhReUy9VLciV3UWm5PXMCEguyRT" ] },
      { "delegate": "tz1S8MNvuFEUsWgjHvi3AxibRBf388NhT1q2",
        "reception_time": "2022-01-18T12:57:00.105-00:00",
        "included_in_blocks":
          [ "BM42FTyK66cKhYJpeSVo2p1QqhReUy9VLciV3UWm5PXMCEguyRT" ] },
      { "delegate": "tz3RKYFsLuQzKBtmYuLNas7uMu3AsYd4QdsA",
        "reception_time": "2022-01-18T12:57:00.114-00:00",
        "included_in_blocks":
          [ "BM42FTyK66cKhYJpeSVo2p1QqhReUy9VLciV3UWm5PXMCEguyRT" ] },
      { "delegate": "tz1gcna2xxZj2eNp1LaMyAhVJ49mEFj4FH26",
        "reception_time": "2022-01-18T12:57:00.118-00:00",
        "included_in_blocks":
          [ "BM42FTyK66cKhYJpeSVo2p1QqhReUy9VLciV3UWm5PXMCEguyRT" ] },
      { "delegate": "tz3ZbP2pM3nwvXztbuMJwJnDvV5xdpU8UkkD",
        "reception_time": "2022-01-18T12:57:00.129-00:00",
        "included_in_blocks":
          [ "BM42FTyK66cKhYJpeSVo2p1QqhReUy9VLciV3UWm5PXMCEguyRT" ] },
      { "delegate": "tz1MQMiZHV8q4tTwUMWmS5Y3kaP6J2136iXr",
        "reception_time": "2022-01-18T12:57:00.132-00:00",
        "included_in_blocks":
          [ "BM42FTyK66cKhYJpeSVo2p1QqhReUy9VLciV3UWm5PXMCEguyRT" ] },
      { "delegate": "tz3iJu5vrKZcsqRPs8yJ61UDoeEXZmtro4qh",
        "reception_time": "2022-01-18T12:57:00.139-00:00",
        "included_in_blocks":
          [ "BM42FTyK66cKhYJpeSVo2p1QqhReUy9VLciV3UWm5PXMCEguyRT" ] },
      { "delegate": "tz1VQnqCCqX4K5sP3FNkVSNKTdCAMJDd3E1n",
        "reception_time": "2022-01-18T12:57:00.142-00:00",
        "included_in_blocks":
          [ "BM42FTyK66cKhYJpeSVo2p1QqhReUy9VLciV3UWm5PXMCEguyRT" ] },
      { "delegate": "tz1MJx9vhaNRSimcuXPK2rW4fLccQnDAnVKJ",
        "reception_time": "2022-01-18T12:57:00.164-00:00",
        "included_in_blocks":
          [ "BM42FTyK66cKhYJpeSVo2p1QqhReUy9VLciV3UWm5PXMCEguyRT" ] },
      { "delegate": "tz1ZPh7XfUaJXUDvkrBxmS1BjEM1i62hiPpM",
        "reception_time": "2022-01-18T12:57:00.177-00:00",
        "included_in_blocks":
          [ "BM42FTyK66cKhYJpeSVo2p1QqhReUy9VLciV3UWm5PXMCEguyRT" ] },
      { "delegate": "tz1KzSC1J9aBxKp7u8TUnpN8L7S65PBRkgdF",
        "reception_time": "2022-01-18T12:57:00.199-00:00",
        "included_in_blocks":
          [ "BM42FTyK66cKhYJpeSVo2p1QqhReUy9VLciV3UWm5PXMCEguyRT" ] },
      { "delegate": "tz3NxTnke1acr8o3h5y9ytf5awQBGNJUKzVU",
        "reception_time": "2022-01-18T12:57:00.207-00:00",
        "included_in_blocks":
          [ "BM42FTyK66cKhYJpeSVo2p1QqhReUy9VLciV3UWm5PXMCEguyRT" ] },
      { "delegate": "tz3hw2kqXhLUvY65ca1eety2oQTpAvd34R9Q",
        "reception_time": "2022-01-18T12:57:00.218-00:00",
        "included_in_blocks":
          [ "BM42FTyK66cKhYJpeSVo2p1QqhReUy9VLciV3UWm5PXMCEguyRT" ] },
      { "delegate": "tz1Ldzz6k1BHdhuKvAtMRX7h5kJSMHESMHLC",
        "reception_time": "2022-01-18T12:57:00.226-00:00",
        "included_in_blocks":
          [ "BM42FTyK66cKhYJpeSVo2p1QqhReUy9VLciV3UWm5PXMCEguyRT" ] },
      { "delegate": "tz1RV1MBbZMR68tacosb7Mwj6LkbPSUS1er1",
        "reception_time": "2022-01-18T12:57:00.229-00:00",
        "included_in_blocks":
          [ "BM42FTyK66cKhYJpeSVo2p1QqhReUy9VLciV3UWm5PXMCEguyRT" ] },
      { "delegate": "tz3QSGPoRp3Kn7n3vY24eYeu3Peuqo45LQ4D",
        "reception_time": "2022-01-18T12:57:00.245-00:00",
        "included_in_blocks":
          [ "BM42FTyK66cKhYJpeSVo2p1QqhReUy9VLciV3UWm5PXMCEguyRT" ] },
      { "delegate": "tz3QT9dHYKDqh563chVa6za8526ys1UKfRfL",
        "reception_time": "2022-01-18T12:57:00.258-00:00",
        "included_in_blocks":
          [ "BM42FTyK66cKhYJpeSVo2p1QqhReUy9VLciV3UWm5PXMCEguyRT" ] },
      { "delegate": "tz3S6BBeKgJGXxvLyZ1xzXzMPn11nnFtq5L9",
        "reception_time": "2022-01-18T12:57:00.258-00:00",
        "included_in_blocks":
          [ "BM42FTyK66cKhYJpeSVo2p1QqhReUy9VLciV3UWm5PXMCEguyRT" ] },
      { "delegate": "tz1gUNyn3hmnEWqkusWPzxRaon1cs7ndWh7h",
        "reception_time": "2022-01-18T12:57:00.262-00:00",
        "included_in_blocks":
          [ "BM42FTyK66cKhYJpeSVo2p1QqhReUy9VLciV3UWm5PXMCEguyRT" ] },
      { "delegate": "tz1WCd2jm4uSt4vntk4vSuUWoZQGhLcDuR9q",
        "reception_time": "2022-01-18T12:57:00.291-00:00",
        "included_in_blocks":
          [ "BM42FTyK66cKhYJpeSVo2p1QqhReUy9VLciV3UWm5PXMCEguyRT" ] },
      { "delegate": "tz3QCNyySViKHmeSr45kzDxzchys7NiXCWoa",
        "reception_time": "2022-01-18T12:57:00.303-00:00",
        "included_in_blocks":
          [ "BM42FTyK66cKhYJpeSVo2p1QqhReUy9VLciV3UWm5PXMCEguyRT" ] },
      { "delegate": "tz1d6Fx42mYgVFnHUW8T8A7WBfJ6nD9pVok8",
        "reception_time": "2022-01-18T12:57:00.338-00:00",
        "included_in_blocks":
          [ "BM42FTyK66cKhYJpeSVo2p1QqhReUy9VLciV3UWm5PXMCEguyRT" ] },
      { "delegate": "tz3WMqdzXqRWXwyvj5Hp2H7QEepaUuS7vd9K",
        "reception_time": "2022-01-18T12:57:00.346-00:00",
        "included_in_blocks":
          [ "BM42FTyK66cKhYJpeSVo2p1QqhReUy9VLciV3UWm5PXMCEguyRT" ] },
      { "delegate": "tz1RCFbB9GpALpsZtu6J58sb74dm8qe6XBzv",
        "reception_time": "2022-01-18T12:57:00.357-00:00",
        "included_in_blocks":
          [ "BM42FTyK66cKhYJpeSVo2p1QqhReUy9VLciV3UWm5PXMCEguyRT" ] },
      { "delegate": "tz1LXpCpLNRhP7G9Yw8dRhWd8ZfH8929uvGo",
        "reception_time": "2022-01-18T12:57:00.392-00:00",
        "included_in_blocks":
          [ "BM42FTyK66cKhYJpeSVo2p1QqhReUy9VLciV3UWm5PXMCEguyRT" ] },
      { "delegate": "tz3bTdwZinP8U1JmSweNzVKhmwafqWmFWRfk",
        "reception_time": "2022-01-18T12:57:00.403-00:00",
        "included_in_blocks":
          [ "BM42FTyK66cKhYJpeSVo2p1QqhReUy9VLciV3UWm5PXMCEguyRT" ] },
      { "delegate": "tz3e7LbZvUtoXhpUD1yb6wuFodZpfYRb9nWJ",
        "reception_time": "2022-01-18T12:57:00.410-00:00",
        "included_in_blocks":
          [ "BM42FTyK66cKhYJpeSVo2p1QqhReUy9VLciV3UWm5PXMCEguyRT" ] },
      { "delegate": "tz1SYq214SCBy9naR6cvycQsYcUGpBqQAE8d",
        "reception_time": "2022-01-18T12:57:00.426-00:00",
        "included_in_blocks":
          [ "BM42FTyK66cKhYJpeSVo2p1QqhReUy9VLciV3UWm5PXMCEguyRT" ] },
      { "delegate": "tz1ei4WtWEMEJekSv8qDnu9PExG6Q8HgRGr3",
        "reception_time": "2022-01-18T12:57:00.429-00:00",
        "included_in_blocks":
          [ "BM42FTyK66cKhYJpeSVo2p1QqhReUy9VLciV3UWm5PXMCEguyRT" ] },
      { "delegate": "tz1RjoHc98dBoqaH2jawF62XNKh7YsHwbkEv",
        "reception_time": "2022-01-18T12:57:00.521-00:00",
        "included_in_blocks":
          [ "BM42FTyK66cKhYJpeSVo2p1QqhReUy9VLciV3UWm5PXMCEguyRT" ] },
      { "delegate": "tz1Nf6tsK4G6bBqgSQERy4nUtkHNKUVdh7q1",
        "reception_time": "2022-01-18T12:57:00.527-00:00",
        "included_in_blocks":
          [ "BM42FTyK66cKhYJpeSVo2p1QqhReUy9VLciV3UWm5PXMCEguyRT" ] },
      { "delegate": "tz2FCNBrERXtaTtNX6iimR1UJ5JSDxvdHM93",
        "reception_time": "2022-01-18T12:57:00.530-00:00",
        "included_in_blocks":
          [ "BM42FTyK66cKhYJpeSVo2p1QqhReUy9VLciV3UWm5PXMCEguyRT" ] },
      { "delegate": "tz1Tnjaxk6tbAeC2TmMApPh8UsrEVQvhHvx5",
        "reception_time": "2022-01-18T12:57:00.678-00:00",
        "included_in_blocks":
          [ "BM42FTyK66cKhYJpeSVo2p1QqhReUy9VLciV3UWm5PXMCEguyRT" ] },
      { "delegate": "tz3bvNMQ95vfAYtG8193ymshqjSvmxiCUuR5",
        "reception_time": "2022-01-18T12:57:00.834-00:00",
        "included_in_blocks":
          [ "BM42FTyK66cKhYJpeSVo2p1QqhReUy9VLciV3UWm5PXMCEguyRT" ] },
      { "delegate": "tz3RDC3Jdn4j15J7bBHZd29EUee9gVB1CxD9",
        "reception_time": "2022-01-18T12:57:00.841-00:00",
        "included_in_blocks":
          [ "BM42FTyK66cKhYJpeSVo2p1QqhReUy9VLciV3UWm5PXMCEguyRT" ] },
      { "delegate": "tz3NDpRj6WBrJPikcPVHRBEjWKxFw3c6eQPS",
        "reception_time": "2022-01-18T12:57:00.926-00:00",
        "included_in_blocks":
          [ "BM42FTyK66cKhYJpeSVo2p1QqhReUy9VLciV3UWm5PXMCEguyRT" ] },
      { "delegate": "tz1NEKxGEHsFufk87CVZcrqWu8o22qh46GK6",
        "reception_time": "2022-01-18T12:57:00.955-00:00",
        "included_in_blocks":
          [ "BM42FTyK66cKhYJpeSVo2p1QqhReUy9VLciV3UWm5PXMCEguyRT" ] },
      { "delegate": "tz1gfArv665EUkSg2ojMBzcbfwuPxAvqPvjo",
        "reception_time": "2022-01-18T12:57:00.959-00:00",
        "included_in_blocks":
          [ "BM42FTyK66cKhYJpeSVo2p1QqhReUy9VLciV3UWm5PXMCEguyRT" ] },
      { "delegate": "tz1fwnfJNgiDACshK9avfRfFbMaXrs3ghoJa",
        "reception_time": "2022-01-18T12:57:00.999-00:00",
        "included_in_blocks":
          [ "BM42FTyK66cKhYJpeSVo2p1QqhReUy9VLciV3UWm5PXMCEguyRT" ] },
      { "delegate": "tz3NExpXn9aPNZPorRE4SdjJ2RGrfbJgMAaV",
        "reception_time": "2022-01-18T12:57:01.057-00:00",
        "included_in_blocks":
          [ "BM42FTyK66cKhYJpeSVo2p1QqhReUy9VLciV3UWm5PXMCEguyRT" ] },
      { "delegate": "tz3UoffC7FG7zfpmvmjUmUeAaHvzdcUvAj6r",
        "reception_time": "2022-01-18T12:57:01.096-00:00",
        "included_in_blocks":
          [ "BM42FTyK66cKhYJpeSVo2p1QqhReUy9VLciV3UWm5PXMCEguyRT" ] },
      { "delegate": "tz1c8TSSGtVtg7ANrNVY7G4KnLn7iKdRnUVk",
        "reception_time": "2022-01-18T12:57:01.114-00:00",
        "included_in_blocks":
          [ "BM42FTyK66cKhYJpeSVo2p1QqhReUy9VLciV3UWm5PXMCEguyRT" ] },
      { "delegate": "tz1aRoaRhSpRYvFdyvgWLL6TGyRoGF51wDjM",
        "reception_time": "2022-01-18T12:57:01.149-00:00",
        "included_in_blocks":
          [ "BM42FTyK66cKhYJpeSVo2p1QqhReUy9VLciV3UWm5PXMCEguyRT" ] },
      { "delegate": "tz1TRqbYbUf2GyrjErf3hBzgBJPzW8y36qEs",
        "reception_time": "2022-01-18T12:57:01.326-00:00",
        "included_in_blocks":
          [ "BM42FTyK66cKhYJpeSVo2p1QqhReUy9VLciV3UWm5PXMCEguyRT" ] },
      { "delegate": "tz1fJHFn6sWEd3NnBPngACuw2dggTv6nQZ7g",
        "reception_time": "2022-01-18T12:57:01.491-00:00",
        "included_in_blocks":
          [ "BM42FTyK66cKhYJpeSVo2p1QqhReUy9VLciV3UWm5PXMCEguyRT" ] },
      { "delegate": "tz1dRKU4FQ9QRRQPdaH4zCR6gmCmXfcvcgtB",
        "reception_time": "2022-01-18T12:57:01.895-00:00",
        "included_in_blocks":
          [ "BM42FTyK66cKhYJpeSVo2p1QqhReUy9VLciV3UWm5PXMCEguyRT" ] },
      { "delegate": "tz1awXW7wuXy21c66vBudMXQVAPgRnqqwgTH",
        "reception_time": "2022-01-18T12:57:01.920-00:00",
        "included_in_blocks":
          [ "BM42FTyK66cKhYJpeSVo2p1QqhReUy9VLciV3UWm5PXMCEguyRT" ] },
      { "delegate": "tz3RB4aoyjov4KEVRbuhvQ1CKJgBJMWhaeB8",
        "reception_time": "2022-01-18T12:57:01.970-00:00",
        "included_in_blocks":
          [ "BM42FTyK66cKhYJpeSVo2p1QqhReUy9VLciV3UWm5PXMCEguyRT" ] },
      { "delegate": "tz1ZcTRk5uxD86EFEn1vvNffWWqJy7q5eVhc",
        "reception_time": "2022-01-18T12:57:01.980-00:00",
        "included_in_blocks":
          [ "BM42FTyK66cKhYJpeSVo2p1QqhReUy9VLciV3UWm5PXMCEguyRT" ] },
      { "delegate": "tz1TcH4Nb3aHNDJ7CGZhU7jgAK1BkSP4Lxds",
        "reception_time": "2022-01-18T12:57:02.088-00:00",
        "included_in_blocks":
          [ "BM42FTyK66cKhYJpeSVo2p1QqhReUy9VLciV3UWm5PXMCEguyRT" ] },
      { "delegate": "tz1T7duV5gZWSTq4YpBGbXNLTfznCLDrFxvs",
        "reception_time": "2022-01-18T12:57:02.558-00:00",
        "included_in_blocks":
          [ "BM42FTyK66cKhYJpeSVo2p1QqhReUy9VLciV3UWm5PXMCEguyRT" ] },
      { "delegate": "tz1W5VkdB5s7ENMESVBtwyt9kyvLqPcUczRT",
        "reception_time": "2022-01-18T12:57:03.396-00:00",
        "included_in_blocks":
          [ "BM42FTyK66cKhYJpeSVo2p1QqhReUy9VLciV3UWm5PXMCEguyRT" ] },
      { "delegate": "tz1eVaNx3gCmG1EsLjijkmgAxdLYVf6Bf5Sq",
        "reception_time": "2022-01-18T12:57:04.148-00:00",
        "included_in_blocks":
          [ "BM42FTyK66cKhYJpeSVo2p1QqhReUy9VLciV3UWm5PXMCEguyRT" ] } ] }