{ "blocks":
    [ { "hash": "BLLtRsR3QCZxaGsrVnmpnNfFwC8WSrNH2RTtr9S7kDD7X4MSeVH",
        "delegate": "tz1aRoaRhSpRYvFdyvgWLL6TGyRoGF51wDjM",
        "reception_time": "2022-01-18T09:45:45.408-00:00",
        "timestamp": "2022-01-18T09:45:30Z" } ],
  "endorsements":
    [ { "delegate": "tz1S8e9GgdZG78XJRB3NqabfWeM37GnhZMWQ",
        "reception_time": "2022-01-18T09:45:45.337-00:00",
        "errors":
          [ { "kind": "temporary",
              "id": "proto.011-PtHangz2.prefilter.outdated_endorsement" } ],
        "included_in_blocks":
          [ "BLDnT2vBNowBstrW2Rmf9LiuXZ66P6shP4oqAC2VSRqTj3h76Ac" ] },
      { "delegate": "tz1THsLcunLo8CmDm9f2y1xHuXttXZCpyFnq",
        "reception_time": "2022-01-18T09:45:45.276-00:00",
        "errors":
          [ { "kind": "temporary",
              "id": "proto.011-PtHangz2.prefilter.outdated_endorsement" } ],
        "included_in_blocks":
          [ "BLDnT2vBNowBstrW2Rmf9LiuXZ66P6shP4oqAC2VSRqTj3h76Ac" ] },
      { "delegate": "tz1aRoaRhSpRYvFdyvgWLL6TGyRoGF51wDjM",
        "reception_time": "2022-01-18T09:45:45.155-00:00",
        "errors":
          [ { "kind": "temporary",
              "id": "proto.011-PtHangz2.prefilter.outdated_endorsement" } ],
        "included_in_blocks":
          [ "BLDnT2vBNowBstrW2Rmf9LiuXZ66P6shP4oqAC2VSRqTj3h76Ac" ] },
      { "delegate": "tz1NpWrAyDL9k2Lmnyxcgr9xuJakbBxdq7FB",
        "reception_time": "2022-01-18T09:45:53.787-00:00",
        "included_in_blocks":
          [ "BLDnT2vBNowBstrW2Rmf9LiuXZ66P6shP4oqAC2VSRqTj3h76Ac" ] },
      { "delegate": "tz3UoffC7FG7zfpmvmjUmUeAaHvzdcUvAj6r",
        "reception_time": "2022-01-18T09:45:50.173-00:00",
        "included_in_blocks":
          [ "BLDnT2vBNowBstrW2Rmf9LiuXZ66P6shP4oqAC2VSRqTj3h76Ac" ] },
      { "delegate": "tz3NExpXn9aPNZPorRE4SdjJ2RGrfbJgMAaV",
        "reception_time": "2022-01-18T09:45:49.996-00:00",
        "included_in_blocks":
          [ "BLDnT2vBNowBstrW2Rmf9LiuXZ66P6shP4oqAC2VSRqTj3h76Ac" ] },
      { "delegate": "tz1ZcTRk5uxD86EFEn1vvNffWWqJy7q5eVhc",
        "reception_time": "2022-01-18T09:45:49.371-00:00",
        "included_in_blocks":
          [ "BLDnT2vBNowBstrW2Rmf9LiuXZ66P6shP4oqAC2VSRqTj3h76Ac" ] },
      { "delegate": "tz1fJHFn6sWEd3NnBPngACuw2dggTv6nQZ7g",
        "reception_time": "2022-01-18T09:45:49.106-00:00",
        "included_in_blocks":
          [ "BLDnT2vBNowBstrW2Rmf9LiuXZ66P6shP4oqAC2VSRqTj3h76Ac" ] },
      { "delegate": "tz3RDC3Jdn4j15J7bBHZd29EUee9gVB1CxD9",
        "reception_time": "2022-01-18T09:45:49.043-00:00",
        "included_in_blocks":
          [ "BLDnT2vBNowBstrW2Rmf9LiuXZ66P6shP4oqAC2VSRqTj3h76Ac" ] },
      { "delegate": "tz1dRKU4FQ9QRRQPdaH4zCR6gmCmXfcvcgtB",
        "reception_time": "2022-01-18T09:45:49.118-00:00",
        "included_in_blocks":
          [ "BLDnT2vBNowBstrW2Rmf9LiuXZ66P6shP4oqAC2VSRqTj3h76Ac" ] },
      { "delegate": "tz1QXrzaHrGACVn15UiCg33aLCJ6npWdQb3J",
        "reception_time": "2022-01-18T09:45:48.363-00:00",
        "included_in_blocks":
          [ "BLDnT2vBNowBstrW2Rmf9LiuXZ66P6shP4oqAC2VSRqTj3h76Ac" ] },
      { "delegate": "tz3VEZ4k6a4Wx42iyev6i2aVAptTRLEAivNN",
        "reception_time": "2022-01-18T09:45:48.351-00:00",
        "included_in_blocks":
          [ "BLDnT2vBNowBstrW2Rmf9LiuXZ66P6shP4oqAC2VSRqTj3h76Ac" ] },
      { "delegate": "tz3WMqdzXqRWXwyvj5Hp2H7QEepaUuS7vd9K",
        "reception_time": "2022-01-18T09:45:48.335-00:00",
        "included_in_blocks":
          [ "BLDnT2vBNowBstrW2Rmf9LiuXZ66P6shP4oqAC2VSRqTj3h76Ac" ] },
      { "delegate": "tz1NEKxGEHsFufk87CVZcrqWu8o22qh46GK6",
        "reception_time": "2022-01-18T09:45:48.360-00:00",
        "included_in_blocks":
          [ "BLDnT2vBNowBstrW2Rmf9LiuXZ66P6shP4oqAC2VSRqTj3h76Ac" ] },
      { "delegate": "tz1V3yg82mcrPJbegqVCPn6bC8w1CSTRp3f8",
        "reception_time": "2022-01-18T09:45:48.276-00:00",
        "included_in_blocks":
          [ "BLDnT2vBNowBstrW2Rmf9LiuXZ66P6shP4oqAC2VSRqTj3h76Ac" ] },
      { "delegate": "tz1KfEsrtDaA1sX7vdM4qmEPWuSytuqCDp5j",
        "reception_time": "2022-01-18T09:45:48.235-00:00",
        "included_in_blocks":
          [ "BLDnT2vBNowBstrW2Rmf9LiuXZ66P6shP4oqAC2VSRqTj3h76Ac" ] },
      { "delegate": "tz1T7duV5gZWSTq4YpBGbXNLTfznCLDrFxvs",
        "reception_time": "2022-01-18T09:45:48.165-00:00",
        "included_in_blocks":
          [ "BLDnT2vBNowBstrW2Rmf9LiuXZ66P6shP4oqAC2VSRqTj3h76Ac" ] },
      { "delegate": "tz1g8vkmcde6sWKaG2NN9WKzCkDM6Rziq194",
        "reception_time": "2022-01-18T09:45:48.135-00:00",
        "included_in_blocks":
          [ "BLDnT2vBNowBstrW2Rmf9LiuXZ66P6shP4oqAC2VSRqTj3h76Ac" ] },
      { "delegate": "tz1SYq214SCBy9naR6cvycQsYcUGpBqQAE8d",
        "reception_time": "2022-01-18T09:45:48.122-00:00",
        "included_in_blocks":
          [ "BLDnT2vBNowBstrW2Rmf9LiuXZ66P6shP4oqAC2VSRqTj3h76Ac" ] },
      { "delegate": "tz1fwnfJNgiDACshK9avfRfFbMaXrs3ghoJa",
        "reception_time": "2022-01-18T09:45:48.044-00:00",
        "included_in_blocks":
          [ "BLDnT2vBNowBstrW2Rmf9LiuXZ66P6shP4oqAC2VSRqTj3h76Ac" ] },
      { "delegate": "tz1axcnVN9tZnCe4sQQhC6f3tfSEXdjPaXPY",
        "reception_time": "2022-01-18T09:45:48.027-00:00",
        "included_in_blocks":
          [ "BLDnT2vBNowBstrW2Rmf9LiuXZ66P6shP4oqAC2VSRqTj3h76Ac" ] },
      { "delegate": "tz3gLTu4Yxj8tPAcriQVUdxv6BY9QyvzU1az",
        "reception_time": "2022-01-18T09:45:47.939-00:00",
        "included_in_blocks":
          [ "BLDnT2vBNowBstrW2Rmf9LiuXZ66P6shP4oqAC2VSRqTj3h76Ac" ] },
      { "delegate": "tz1Nf6tsK4G6bBqgSQERy4nUtkHNKUVdh7q1",
        "reception_time": "2022-01-18T09:45:47.996-00:00",
        "included_in_blocks":
          [ "BLDnT2vBNowBstrW2Rmf9LiuXZ66P6shP4oqAC2VSRqTj3h76Ac" ] },
      { "delegate": "tz3NDpRj6WBrJPikcPVHRBEjWKxFw3c6eQPS",
        "reception_time": "2022-01-18T09:45:47.954-00:00",
        "included_in_blocks":
          [ "BLDnT2vBNowBstrW2Rmf9LiuXZ66P6shP4oqAC2VSRqTj3h76Ac" ] },
      { "delegate": "tz1RjoHc98dBoqaH2jawF62XNKh7YsHwbkEv",
        "reception_time": "2022-01-18T09:45:47.976-00:00",
        "included_in_blocks":
          [ "BLDnT2vBNowBstrW2Rmf9LiuXZ66P6shP4oqAC2VSRqTj3h76Ac" ] },
      { "delegate": "tz1TRqbYbUf2GyrjErf3hBzgBJPzW8y36qEs",
        "reception_time": "2022-01-18T09:45:47.750-00:00",
        "included_in_blocks":
          [ "BLDnT2vBNowBstrW2Rmf9LiuXZ66P6shP4oqAC2VSRqTj3h76Ac" ] },
      { "delegate": "tz1P2Po7YM526ughEsRbY4oR9zaUPDZjxFrb",
        "reception_time": "2022-01-18T09:45:47.835-00:00",
        "included_in_blocks":
          [ "BLDnT2vBNowBstrW2Rmf9LiuXZ66P6shP4oqAC2VSRqTj3h76Ac" ] },
      { "delegate": "tz1S6H83gugqK4dR5Had9jWR9M1ZdAAVgU5e",
        "reception_time": "2022-01-18T09:45:47.738-00:00",
        "included_in_blocks":
          [ "BLDnT2vBNowBstrW2Rmf9LiuXZ66P6shP4oqAC2VSRqTj3h76Ac" ] },
      { "delegate": "tz1WBfwbT66FC6BTLexc2BoyCCBM9LG7pnVW",
        "reception_time": "2022-01-18T09:45:47.691-00:00",
        "included_in_blocks":
          [ "BLDnT2vBNowBstrW2Rmf9LiuXZ66P6shP4oqAC2VSRqTj3h76Ac" ] },
      { "delegate": "tz2FCNBrERXtaTtNX6iimR1UJ5JSDxvdHM93",
        "reception_time": "2022-01-18T09:45:47.693-00:00",
        "included_in_blocks":
          [ "BLDnT2vBNowBstrW2Rmf9LiuXZ66P6shP4oqAC2VSRqTj3h76Ac" ] },
      { "delegate": "tz1abmz7jiCV2GH2u81LRrGgAFFgvQgiDiaf",
        "reception_time": "2022-01-18T09:45:47.369-00:00",
        "included_in_blocks":
          [ "BLDnT2vBNowBstrW2Rmf9LiuXZ66P6shP4oqAC2VSRqTj3h76Ac" ] },
      { "delegate": "tz1ei4WtWEMEJekSv8qDnu9PExG6Q8HgRGr3",
        "reception_time": "2022-01-18T09:45:47.253-00:00",
        "included_in_blocks":
          [ "BLDnT2vBNowBstrW2Rmf9LiuXZ66P6shP4oqAC2VSRqTj3h76Ac" ] },
      { "delegate": "tz3RB4aoyjov4KEVRbuhvQ1CKJgBJMWhaeB8",
        "reception_time": "2022-01-18T09:45:47.234-00:00",
        "included_in_blocks":
          [ "BLDnT2vBNowBstrW2Rmf9LiuXZ66P6shP4oqAC2VSRqTj3h76Ac" ] },
      { "delegate": "tz1iPHM2Xx2hwmzcr1EG1zzrV6oKafVoA91m",
        "reception_time": "2022-01-18T09:45:47.305-00:00",
        "included_in_blocks":
          [ "BLDnT2vBNowBstrW2Rmf9LiuXZ66P6shP4oqAC2VSRqTj3h76Ac" ] },
      { "delegate": "tz3QCNyySViKHmeSr45kzDxzchys7NiXCWoa",
        "reception_time": "2022-01-18T09:45:47.191-00:00",
        "included_in_blocks":
          [ "BLDnT2vBNowBstrW2Rmf9LiuXZ66P6shP4oqAC2VSRqTj3h76Ac" ] },
      { "delegate": "tz3bvNMQ95vfAYtG8193ymshqjSvmxiCUuR5",
        "reception_time": "2022-01-18T09:45:47.199-00:00",
        "included_in_blocks":
          [ "BLDnT2vBNowBstrW2Rmf9LiuXZ66P6shP4oqAC2VSRqTj3h76Ac" ] },
      { "delegate": "tz1MQMiZHV8q4tTwUMWmS5Y3kaP6J2136iXr",
        "reception_time": "2022-01-18T09:45:47.207-00:00",
        "included_in_blocks":
          [ "BLDnT2vBNowBstrW2Rmf9LiuXZ66P6shP4oqAC2VSRqTj3h76Ac" ] },
      { "delegate": "tz1gfArv665EUkSg2ojMBzcbfwuPxAvqPvjo",
        "reception_time": "2022-01-18T09:45:47.213-00:00",
        "included_in_blocks":
          [ "BLDnT2vBNowBstrW2Rmf9LiuXZ66P6shP4oqAC2VSRqTj3h76Ac" ] },
      { "delegate": "tz1S8MNvuFEUsWgjHvi3AxibRBf388NhT1q2",
        "reception_time": "2022-01-18T09:45:47.185-00:00",
        "included_in_blocks":
          [ "BLDnT2vBNowBstrW2Rmf9LiuXZ66P6shP4oqAC2VSRqTj3h76Ac" ] },
      { "delegate": "tz3bTdwZinP8U1JmSweNzVKhmwafqWmFWRfk",
        "reception_time": "2022-01-18T09:45:47.157-00:00",
        "included_in_blocks":
          [ "BLDnT2vBNowBstrW2Rmf9LiuXZ66P6shP4oqAC2VSRqTj3h76Ac" ] },
      { "delegate": "tz1RCFbB9GpALpsZtu6J58sb74dm8qe6XBzv",
        "reception_time": "2022-01-18T09:45:47.167-00:00",
        "included_in_blocks":
          [ "BLDnT2vBNowBstrW2Rmf9LiuXZ66P6shP4oqAC2VSRqTj3h76Ac" ] },
      { "delegate": "tz1NSDFKuRyzHxpfG1AMkyCwEiZ52cbR2mRW",
        "reception_time": "2022-01-18T09:45:47.030-00:00",
        "included_in_blocks":
          [ "BLDnT2vBNowBstrW2Rmf9LiuXZ66P6shP4oqAC2VSRqTj3h76Ac" ] },
      { "delegate": "tz1d6Fx42mYgVFnHUW8T8A7WBfJ6nD9pVok8",
        "reception_time": "2022-01-18T09:45:47.135-00:00",
        "included_in_blocks":
          [ "BLDnT2vBNowBstrW2Rmf9LiuXZ66P6shP4oqAC2VSRqTj3h76Ac" ] },
      { "delegate": "tz3QT9dHYKDqh563chVa6za8526ys1UKfRfL",
        "reception_time": "2022-01-18T09:45:47.090-00:00",
        "included_in_blocks":
          [ "BLDnT2vBNowBstrW2Rmf9LiuXZ66P6shP4oqAC2VSRqTj3h76Ac" ] },
      { "delegate": "tz1VmiY38m3y95HqQLjMwqnMS7sdMfGomzKi",
        "reception_time": "2022-01-18T09:45:47.034-00:00",
        "included_in_blocks":
          [ "BLDnT2vBNowBstrW2Rmf9LiuXZ66P6shP4oqAC2VSRqTj3h76Ac" ] },
      { "delegate": "tz3S6BBeKgJGXxvLyZ1xzXzMPn11nnFtq5L9",
        "reception_time": "2022-01-18T09:45:47.076-00:00",
        "included_in_blocks":
          [ "BLDnT2vBNowBstrW2Rmf9LiuXZ66P6shP4oqAC2VSRqTj3h76Ac" ] },
      { "delegate": "tz1WCd2jm4uSt4vntk4vSuUWoZQGhLcDuR9q",
        "reception_time": "2022-01-18T09:45:47.076-00:00",
        "included_in_blocks":
          [ "BLDnT2vBNowBstrW2Rmf9LiuXZ66P6shP4oqAC2VSRqTj3h76Ac" ] },
      { "delegate": "tz1W1f1JrE7VsqgpUpj1iiDobqP5TixgZhDk",
        "reception_time": "2022-01-18T09:45:47.058-00:00",
        "included_in_blocks":
          [ "BLDnT2vBNowBstrW2Rmf9LiuXZ66P6shP4oqAC2VSRqTj3h76Ac" ] },
      { "delegate": "tz1UJvHTgpVzcKWhTazGxVcn5wsHru5Gietg",
        "reception_time": "2022-01-18T09:45:47.021-00:00",
        "included_in_blocks":
          [ "BLDnT2vBNowBstrW2Rmf9LiuXZ66P6shP4oqAC2VSRqTj3h76Ac" ] },
      { "delegate": "tz3Zhs2dygr55yHyQyKjntAtY9bgfhLZ4Xj1",
        "reception_time": "2022-01-18T09:45:47.004-00:00",
        "included_in_blocks":
          [ "BLDnT2vBNowBstrW2Rmf9LiuXZ66P6shP4oqAC2VSRqTj3h76Ac" ] },
      { "delegate": "tz3iJu5vrKZcsqRPs8yJ61UDoeEXZmtro4qh",
        "reception_time": "2022-01-18T09:45:47.045-00:00",
        "included_in_blocks":
          [ "BLDnT2vBNowBstrW2Rmf9LiuXZ66P6shP4oqAC2VSRqTj3h76Ac" ] },
      { "delegate": "tz1TzaNn7wSQSP5gYPXCnNzBCpyMiidCq1PX",
        "reception_time": "2022-01-18T09:45:46.954-00:00",
        "included_in_blocks":
          [ "BLDnT2vBNowBstrW2Rmf9LiuXZ66P6shP4oqAC2VSRqTj3h76Ac" ] },
      { "delegate": "tz1Kt4P8BCaP93AEV4eA7gmpRryWt5hznjCP",
        "reception_time": "2022-01-18T09:45:46.885-00:00",
        "included_in_blocks":
          [ "BLDnT2vBNowBstrW2Rmf9LiuXZ66P6shP4oqAC2VSRqTj3h76Ac" ] },
      { "delegate": "tz3gtoUxdudfBRcNY7iVdKPHCYYX6xdPpoRS",
        "reception_time": "2022-01-18T09:45:46.814-00:00",
        "included_in_blocks":
          [ "BLDnT2vBNowBstrW2Rmf9LiuXZ66P6shP4oqAC2VSRqTj3h76Ac" ] },
      { "delegate": "tz1Ldzz6k1BHdhuKvAtMRX7h5kJSMHESMHLC",
        "reception_time": "2022-01-18T09:45:46.950-00:00",
        "included_in_blocks":
          [ "BLDnT2vBNowBstrW2Rmf9LiuXZ66P6shP4oqAC2VSRqTj3h76Ac" ] },
      { "delegate": "tz1aXD7Jigrt3PBYSpHSg5Rr33SexMmmM5Ys",
        "reception_time": "2022-01-18T09:45:46.867-00:00",
        "included_in_blocks":
          [ "BLDnT2vBNowBstrW2Rmf9LiuXZ66P6shP4oqAC2VSRqTj3h76Ac" ] },
      { "delegate": "tz3hw2kqXhLUvY65ca1eety2oQTpAvd34R9Q",
        "reception_time": "2022-01-18T09:45:46.839-00:00",
        "included_in_blocks":
          [ "BLDnT2vBNowBstrW2Rmf9LiuXZ66P6shP4oqAC2VSRqTj3h76Ac" ] },
      { "delegate": "tz3QSGPoRp3Kn7n3vY24eYeu3Peuqo45LQ4D",
        "reception_time": "2022-01-18T09:45:46.941-00:00",
        "included_in_blocks":
          [ "BLDnT2vBNowBstrW2Rmf9LiuXZ66P6shP4oqAC2VSRqTj3h76Ac" ] },
      { "delegate": "tz1ajgycuHmd2z2JbTSJxKv7x6cok2KuNSk1",
        "reception_time": "2022-01-18T09:45:46.894-00:00",
        "included_in_blocks":
          [ "BLDnT2vBNowBstrW2Rmf9LiuXZ66P6shP4oqAC2VSRqTj3h76Ac" ] },
      { "delegate": "tz3RKYFsLuQzKBtmYuLNas7uMu3AsYd4QdsA",
        "reception_time": "2022-01-18T09:45:46.923-00:00",
        "included_in_blocks":
          [ "BLDnT2vBNowBstrW2Rmf9LiuXZ66P6shP4oqAC2VSRqTj3h76Ac" ] },
      { "delegate": "tz1gUNyn3hmnEWqkusWPzxRaon1cs7ndWh7h",
        "reception_time": "2022-01-18T09:45:46.890-00:00",
        "included_in_blocks":
          [ "BLDnT2vBNowBstrW2Rmf9LiuXZ66P6shP4oqAC2VSRqTj3h76Ac" ] },
      { "delegate": "tz1VQnqCCqX4K5sP3FNkVSNKTdCAMJDd3E1n",
        "reception_time": "2022-01-18T09:45:46.928-00:00",
        "included_in_blocks":
          [ "BLDnT2vBNowBstrW2Rmf9LiuXZ66P6shP4oqAC2VSRqTj3h76Ac" ] },
      { "delegate": "tz1Kf25fX1VdmYGSEzwFy1wNmkbSEZ2V83sY",
        "reception_time": "2022-01-18T09:45:46.805-00:00",
        "included_in_blocks":
          [ "BLDnT2vBNowBstrW2Rmf9LiuXZ66P6shP4oqAC2VSRqTj3h76Ac" ] },
      { "delegate": "tz1irJKkXS2DBWkU1NnmFQx1c1L7pbGg4yhk",
        "reception_time": "2022-01-18T09:45:46.805-00:00",
        "included_in_blocks":
          [ "BLDnT2vBNowBstrW2Rmf9LiuXZ66P6shP4oqAC2VSRqTj3h76Ac" ] },
      { "delegate": "tz1TXzyaKUA8wsWefdSnyaYFnV2M3vCV7er9",
        "reception_time": "2022-01-18T09:45:46.823-00:00",
        "included_in_blocks":
          [ "BLDnT2vBNowBstrW2Rmf9LiuXZ66P6shP4oqAC2VSRqTj3h76Ac" ] },
      { "delegate": "tz3ZbP2pM3nwvXztbuMJwJnDvV5xdpU8UkkD",
        "reception_time": "2022-01-18T09:45:46.848-00:00",
        "included_in_blocks":
          [ "BLDnT2vBNowBstrW2Rmf9LiuXZ66P6shP4oqAC2VSRqTj3h76Ac" ] },
      { "delegate": "tz3NxTnke1acr8o3h5y9ytf5awQBGNJUKzVU",
        "reception_time": "2022-01-18T09:45:46.794-00:00",
        "included_in_blocks":
          [ "BLDnT2vBNowBstrW2Rmf9LiuXZ66P6shP4oqAC2VSRqTj3h76Ac" ] },
      { "delegate": "tz1dbfppLAAxXZNtf2SDps7rch3qfUznKSoK",
        "reception_time": "2022-01-18T09:45:46.800-00:00",
        "included_in_blocks":
          [ "BLDnT2vBNowBstrW2Rmf9LiuXZ66P6shP4oqAC2VSRqTj3h76Ac" ] },
      { "delegate": "tz1eEnQhbwf6trb8Q8mPb2RaPkNk2rN7BKi8",
        "reception_time": "2022-01-18T09:45:46.750-00:00",
        "included_in_blocks":
          [ "BLDnT2vBNowBstrW2Rmf9LiuXZ66P6shP4oqAC2VSRqTj3h76Ac" ] } ] }