{ "blocks":
    [ { "hash": "BKsCFNrMk9YKkb2cwh9vYEgJ2h5ErZ4KvRodwJu84K33idCicXm",
        "delegate": "tz1aRoaRhSpRYvFdyvgWLL6TGyRoGF51wDjM",
        "reception_time": "2022-01-18T13:01:30.521-00:00",
        "timestamp": "2022-01-18T13:01:20Z" } ],
  "endorsements":
    [ { "delegate": "tz1eEnQhbwf6trb8Q8mPb2RaPkNk2rN7BKi8" },
      { "delegate": "tz1NdhRv643wLW6zCcRP3VfT24dvDnh7nuh9" },
      { "delegate": "tz1STeamwbp68THcny9zk3LsbG3H36DMvbRK",
        "reception_time": "2022-01-18T13:01:30.451-00:00",
        "errors":
          [ { "kind": "temporary",
              "id": "proto.011-PtHangz2.prefilter.outdated_endorsement" } ],
        "included_in_blocks":
          [ "BKvj9rk5xFvXMFFf2RiEa3n83bdGaBwTzSpwZxFEdGGVDaWrQ3P" ] },
      { "delegate": "tz1NpWrAyDL9k2Lmnyxcgr9xuJakbBxdq7FB",
        "reception_time": "2022-01-18T13:01:38.652-00:00",
        "included_in_blocks":
          [ "BKvj9rk5xFvXMFFf2RiEa3n83bdGaBwTzSpwZxFEdGGVDaWrQ3P" ] },
      { "delegate": "tz1go7f6mEQfT2xX2LuHAqgnRGN6c2zHPf5c",
        "reception_time": "2022-01-18T13:01:38.136-00:00",
        "included_in_blocks":
          [ "BKvj9rk5xFvXMFFf2RiEa3n83bdGaBwTzSpwZxFEdGGVDaWrQ3P" ] },
      { "delegate": "tz1f3Re8iw6Pt3KMHAvyccHxDU3NuqL95axD",
        "reception_time": "2022-01-18T13:01:35.405-00:00",
        "included_in_blocks":
          [ "BKvj9rk5xFvXMFFf2RiEa3n83bdGaBwTzSpwZxFEdGGVDaWrQ3P" ] },
      { "delegate": "tz1g8vkmcde6sWKaG2NN9WKzCkDM6Rziq194",
        "reception_time": "2022-01-18T13:01:34.806-00:00",
        "included_in_blocks":
          [ "BKvj9rk5xFvXMFFf2RiEa3n83bdGaBwTzSpwZxFEdGGVDaWrQ3P" ] },
      { "delegate": "tz1ZcTRk5uxD86EFEn1vvNffWWqJy7q5eVhc",
        "reception_time": "2022-01-18T13:01:34.657-00:00",
        "included_in_blocks":
          [ "BKvj9rk5xFvXMFFf2RiEa3n83bdGaBwTzSpwZxFEdGGVDaWrQ3P" ] },
      { "delegate": "tz1M1gA1hgmmLf8VvtAwupbWCkaciQZMFbvi",
        "reception_time": "2022-01-18T13:01:33.940-00:00",
        "included_in_blocks":
          [ "BKvj9rk5xFvXMFFf2RiEa3n83bdGaBwTzSpwZxFEdGGVDaWrQ3P" ] },
      { "delegate": "tz1PFeoTuFen8jAMRHajBySNyCwLmY5RqF9M",
        "reception_time": "2022-01-18T13:01:34.478-00:00",
        "included_in_blocks":
          [ "BKvj9rk5xFvXMFFf2RiEa3n83bdGaBwTzSpwZxFEdGGVDaWrQ3P" ] },
      { "delegate": "tz1eVaNx3gCmG1EsLjijkmgAxdLYVf6Bf5Sq",
        "reception_time": "2022-01-18T13:01:34.346-00:00",
        "included_in_blocks":
          [ "BKvj9rk5xFvXMFFf2RiEa3n83bdGaBwTzSpwZxFEdGGVDaWrQ3P" ] },
      { "delegate": "tz3NExpXn9aPNZPorRE4SdjJ2RGrfbJgMAaV",
        "reception_time": "2022-01-18T13:01:34.087-00:00",
        "included_in_blocks":
          [ "BKvj9rk5xFvXMFFf2RiEa3n83bdGaBwTzSpwZxFEdGGVDaWrQ3P" ] },
      { "delegate": "tz1aRoaRhSpRYvFdyvgWLL6TGyRoGF51wDjM",
        "reception_time": "2022-01-18T13:01:33.731-00:00",
        "included_in_blocks":
          [ "BKvj9rk5xFvXMFFf2RiEa3n83bdGaBwTzSpwZxFEdGGVDaWrQ3P" ] },
      { "delegate": "tz3UoffC7FG7zfpmvmjUmUeAaHvzdcUvAj6r",
        "reception_time": "2022-01-18T13:01:34.093-00:00",
        "included_in_blocks":
          [ "BKvj9rk5xFvXMFFf2RiEa3n83bdGaBwTzSpwZxFEdGGVDaWrQ3P" ] },
      { "delegate": "tz1RjoHc98dBoqaH2jawF62XNKh7YsHwbkEv",
        "reception_time": "2022-01-18T13:01:34.125-00:00",
        "included_in_blocks":
          [ "BKvj9rk5xFvXMFFf2RiEa3n83bdGaBwTzSpwZxFEdGGVDaWrQ3P" ] },
      { "delegate": "tz3RDC3Jdn4j15J7bBHZd29EUee9gVB1CxD9",
        "reception_time": "2022-01-18T13:01:33.558-00:00",
        "included_in_blocks":
          [ "BKvj9rk5xFvXMFFf2RiEa3n83bdGaBwTzSpwZxFEdGGVDaWrQ3P" ] },
      { "delegate": "tz1dRKU4FQ9QRRQPdaH4zCR6gmCmXfcvcgtB",
        "reception_time": "2022-01-18T13:01:33.942-00:00",
        "included_in_blocks":
          [ "BKvj9rk5xFvXMFFf2RiEa3n83bdGaBwTzSpwZxFEdGGVDaWrQ3P" ] },
      { "delegate": "tz3NDpRj6WBrJPikcPVHRBEjWKxFw3c6eQPS",
        "reception_time": "2022-01-18T13:01:33.363-00:00",
        "included_in_blocks":
          [ "BKvj9rk5xFvXMFFf2RiEa3n83bdGaBwTzSpwZxFEdGGVDaWrQ3P" ] },
      { "delegate": "tz1UvkANVPWppVgMkLnvN7BwYZsCP7vm6NVd",
        "reception_time": "2022-01-18T13:01:33.560-00:00",
        "included_in_blocks":
          [ "BKvj9rk5xFvXMFFf2RiEa3n83bdGaBwTzSpwZxFEdGGVDaWrQ3P" ] },
      { "delegate": "tz1TRqbYbUf2GyrjErf3hBzgBJPzW8y36qEs",
        "reception_time": "2022-01-18T13:01:33.630-00:00",
        "included_in_blocks":
          [ "BKvj9rk5xFvXMFFf2RiEa3n83bdGaBwTzSpwZxFEdGGVDaWrQ3P" ] },
      { "delegate": "tz1eE4ERseiJfLTy3ydsdiitpCMbRRHEGhqM",
        "delegate_alias": "boutiger",
        "reception_time": "2022-01-18T13:01:32.975-00:00",
        "included_in_blocks":
          [ "BKvj9rk5xFvXMFFf2RiEa3n83bdGaBwTzSpwZxFEdGGVDaWrQ3P" ] },
      { "delegate": "tz3VEZ4k6a4Wx42iyev6i2aVAptTRLEAivNN",
        "reception_time": "2022-01-18T13:01:33.370-00:00",
        "included_in_blocks":
          [ "BKvj9rk5xFvXMFFf2RiEa3n83bdGaBwTzSpwZxFEdGGVDaWrQ3P" ] },
      { "delegate": "tz3WMqdzXqRWXwyvj5Hp2H7QEepaUuS7vd9K",
        "reception_time": "2022-01-18T13:01:33.822-00:00",
        "included_in_blocks":
          [ "BKvj9rk5xFvXMFFf2RiEa3n83bdGaBwTzSpwZxFEdGGVDaWrQ3P" ] },
      { "delegate": "tz1PeZx7FXy7QRuMREGXGxeipb24RsMMzUNe",
        "reception_time": "2022-01-18T13:01:33.162-00:00",
        "included_in_blocks":
          [ "BKvj9rk5xFvXMFFf2RiEa3n83bdGaBwTzSpwZxFEdGGVDaWrQ3P" ] },
      { "delegate": "tz1NEKxGEHsFufk87CVZcrqWu8o22qh46GK6",
        "reception_time": "2022-01-18T13:01:32.975-00:00",
        "included_in_blocks":
          [ "BKvj9rk5xFvXMFFf2RiEa3n83bdGaBwTzSpwZxFEdGGVDaWrQ3P" ] },
      { "delegate": "tz1SohptP53wDPZhzTWzDUFAUcWF6DMBpaJV",
        "reception_time": "2022-01-18T13:01:33.309-00:00",
        "included_in_blocks":
          [ "BKvj9rk5xFvXMFFf2RiEa3n83bdGaBwTzSpwZxFEdGGVDaWrQ3P" ] },
      { "delegate": "tz2FCNBrERXtaTtNX6iimR1UJ5JSDxvdHM93",
        "reception_time": "2022-01-18T13:01:32.646-00:00",
        "included_in_blocks":
          [ "BKvj9rk5xFvXMFFf2RiEa3n83bdGaBwTzSpwZxFEdGGVDaWrQ3P" ] },
      { "delegate": "tz1Nf6tsK4G6bBqgSQERy4nUtkHNKUVdh7q1",
        "reception_time": "2022-01-18T13:01:32.504-00:00",
        "included_in_blocks":
          [ "BKvj9rk5xFvXMFFf2RiEa3n83bdGaBwTzSpwZxFEdGGVDaWrQ3P" ] },
      { "delegate": "tz3RB4aoyjov4KEVRbuhvQ1CKJgBJMWhaeB8",
        "reception_time": "2022-01-18T13:01:32.598-00:00",
        "included_in_blocks":
          [ "BKvj9rk5xFvXMFFf2RiEa3n83bdGaBwTzSpwZxFEdGGVDaWrQ3P" ] },
      { "delegate": "tz1SYq214SCBy9naR6cvycQsYcUGpBqQAE8d",
        "reception_time": "2022-01-18T13:01:32.416-00:00",
        "included_in_blocks":
          [ "BKvj9rk5xFvXMFFf2RiEa3n83bdGaBwTzSpwZxFEdGGVDaWrQ3P" ] },
      { "delegate": "tz1S8MNvuFEUsWgjHvi3AxibRBf388NhT1q2",
        "reception_time": "2022-01-18T13:01:32.824-00:00",
        "included_in_blocks":
          [ "BKvj9rk5xFvXMFFf2RiEa3n83bdGaBwTzSpwZxFEdGGVDaWrQ3P" ] },
      { "delegate": "tz3bvNMQ95vfAYtG8193ymshqjSvmxiCUuR5",
        "reception_time": "2022-01-18T13:01:32.301-00:00",
        "included_in_blocks":
          [ "BKvj9rk5xFvXMFFf2RiEa3n83bdGaBwTzSpwZxFEdGGVDaWrQ3P" ] },
      { "delegate": "tz1WBfwbT66FC6BTLexc2BoyCCBM9LG7pnVW",
        "reception_time": "2022-01-18T13:01:32.630-00:00",
        "included_in_blocks":
          [ "BKvj9rk5xFvXMFFf2RiEa3n83bdGaBwTzSpwZxFEdGGVDaWrQ3P" ] },
      { "delegate": "tz3bTdwZinP8U1JmSweNzVKhmwafqWmFWRfk",
        "reception_time": "2022-01-18T13:01:32.224-00:00",
        "included_in_blocks":
          [ "BKvj9rk5xFvXMFFf2RiEa3n83bdGaBwTzSpwZxFEdGGVDaWrQ3P" ] },
      { "delegate": "tz1iPHM2Xx2hwmzcr1EG1zzrV6oKafVoA91m",
        "reception_time": "2022-01-18T13:01:32.628-00:00",
        "included_in_blocks":
          [ "BKvj9rk5xFvXMFFf2RiEa3n83bdGaBwTzSpwZxFEdGGVDaWrQ3P" ] },
      { "delegate": "tz1d6Fx42mYgVFnHUW8T8A7WBfJ6nD9pVok8",
        "reception_time": "2022-01-18T13:01:32.116-00:00",
        "included_in_blocks":
          [ "BKvj9rk5xFvXMFFf2RiEa3n83bdGaBwTzSpwZxFEdGGVDaWrQ3P" ] },
      { "delegate": "tz1bHzftcTKZMTZgLLtnrXydCm6UEqf4ivca",
        "reception_time": "2022-01-18T13:01:32.181-00:00",
        "included_in_blocks":
          [ "BKvj9rk5xFvXMFFf2RiEa3n83bdGaBwTzSpwZxFEdGGVDaWrQ3P" ] },
      { "delegate": "tz3e7LbZvUtoXhpUD1yb6wuFodZpfYRb9nWJ",
        "reception_time": "2022-01-18T13:01:32.215-00:00",
        "included_in_blocks":
          [ "BKvj9rk5xFvXMFFf2RiEa3n83bdGaBwTzSpwZxFEdGGVDaWrQ3P" ] },
      { "delegate": "tz1MGTFJXpQmtxLi8QJ7AuVRgM2L2Qfn9w9i",
        "reception_time": "2022-01-18T13:01:32.280-00:00",
        "included_in_blocks":
          [ "BKvj9rk5xFvXMFFf2RiEa3n83bdGaBwTzSpwZxFEdGGVDaWrQ3P" ] },
      { "delegate": "tz1Tnjaxk6tbAeC2TmMApPh8UsrEVQvhHvx5",
        "reception_time": "2022-01-18T13:01:32.764-00:00",
        "included_in_blocks":
          [ "BKvj9rk5xFvXMFFf2RiEa3n83bdGaBwTzSpwZxFEdGGVDaWrQ3P" ] },
      { "delegate": "tz3iJu5vrKZcsqRPs8yJ61UDoeEXZmtro4qh",
        "reception_time": "2022-01-18T13:01:32.129-00:00",
        "included_in_blocks":
          [ "BKvj9rk5xFvXMFFf2RiEa3n83bdGaBwTzSpwZxFEdGGVDaWrQ3P" ] },
      { "delegate": "tz1RCFbB9GpALpsZtu6J58sb74dm8qe6XBzv",
        "reception_time": "2022-01-18T13:01:32.367-00:00",
        "included_in_blocks":
          [ "BKvj9rk5xFvXMFFf2RiEa3n83bdGaBwTzSpwZxFEdGGVDaWrQ3P" ] },
      { "delegate": "tz3Zhs2dygr55yHyQyKjntAtY9bgfhLZ4Xj1",
        "reception_time": "2022-01-18T13:01:32.045-00:00",
        "included_in_blocks":
          [ "BKvj9rk5xFvXMFFf2RiEa3n83bdGaBwTzSpwZxFEdGGVDaWrQ3P" ] },
      { "delegate": "tz1WCd2jm4uSt4vntk4vSuUWoZQGhLcDuR9q",
        "reception_time": "2022-01-18T13:01:32.034-00:00",
        "included_in_blocks":
          [ "BKvj9rk5xFvXMFFf2RiEa3n83bdGaBwTzSpwZxFEdGGVDaWrQ3P" ] },
      { "delegate": "tz1gfArv665EUkSg2ojMBzcbfwuPxAvqPvjo",
        "reception_time": "2022-01-18T13:01:32.605-00:00",
        "included_in_blocks":
          [ "BKvj9rk5xFvXMFFf2RiEa3n83bdGaBwTzSpwZxFEdGGVDaWrQ3P" ] },
      { "delegate": "tz3QT9dHYKDqh563chVa6za8526ys1UKfRfL",
        "reception_time": "2022-01-18T13:01:32.092-00:00",
        "included_in_blocks":
          [ "BKvj9rk5xFvXMFFf2RiEa3n83bdGaBwTzSpwZxFEdGGVDaWrQ3P" ] },
      { "delegate": "tz1NortRftucvAkD1J58L32EhSVrQEWJCEnB",
        "reception_time": "2022-01-18T13:01:32.102-00:00",
        "included_in_blocks":
          [ "BKvj9rk5xFvXMFFf2RiEa3n83bdGaBwTzSpwZxFEdGGVDaWrQ3P" ] },
      { "delegate": "tz1V4qCyvPKZ5UeqdH14HN42rxvNPQfc9UZg",
        "reception_time": "2022-01-18T13:01:32.384-00:00",
        "included_in_blocks":
          [ "BKvj9rk5xFvXMFFf2RiEa3n83bdGaBwTzSpwZxFEdGGVDaWrQ3P" ] },
      { "delegate": "tz3S6BBeKgJGXxvLyZ1xzXzMPn11nnFtq5L9",
        "reception_time": "2022-01-18T13:01:32.013-00:00",
        "included_in_blocks":
          [ "BKvj9rk5xFvXMFFf2RiEa3n83bdGaBwTzSpwZxFEdGGVDaWrQ3P" ] },
      { "delegate": "tz1LLNkQK4UQV6QcFShiXJ2vT2ELw449MzAA",
        "reception_time": "2022-01-18T13:01:32.013-00:00",
        "included_in_blocks":
          [ "BKvj9rk5xFvXMFFf2RiEa3n83bdGaBwTzSpwZxFEdGGVDaWrQ3P" ] },
      { "delegate": "tz3hw2kqXhLUvY65ca1eety2oQTpAvd34R9Q",
        "reception_time": "2022-01-18T13:01:32.002-00:00",
        "included_in_blocks":
          [ "BKvj9rk5xFvXMFFf2RiEa3n83bdGaBwTzSpwZxFEdGGVDaWrQ3P" ] },
      { "delegate": "tz1MQMiZHV8q4tTwUMWmS5Y3kaP6J2136iXr",
        "reception_time": "2022-01-18T13:01:32.353-00:00",
        "included_in_blocks":
          [ "BKvj9rk5xFvXMFFf2RiEa3n83bdGaBwTzSpwZxFEdGGVDaWrQ3P" ] },
      { "delegate": "tz3RKYFsLuQzKBtmYuLNas7uMu3AsYd4QdsA",
        "reception_time": "2022-01-18T13:01:31.976-00:00",
        "included_in_blocks":
          [ "BKvj9rk5xFvXMFFf2RiEa3n83bdGaBwTzSpwZxFEdGGVDaWrQ3P" ] },
      { "delegate": "tz1TzaNn7wSQSP5gYPXCnNzBCpyMiidCq1PX",
        "reception_time": "2022-01-18T13:01:31.986-00:00",
        "included_in_blocks":
          [ "BKvj9rk5xFvXMFFf2RiEa3n83bdGaBwTzSpwZxFEdGGVDaWrQ3P" ] },
      { "delegate": "tz1ei4WtWEMEJekSv8qDnu9PExG6Q8HgRGr3",
        "reception_time": "2022-01-18T13:01:32.388-00:00",
        "included_in_blocks":
          [ "BKvj9rk5xFvXMFFf2RiEa3n83bdGaBwTzSpwZxFEdGGVDaWrQ3P" ] },
      { "delegate": "tz1Ldzz6k1BHdhuKvAtMRX7h5kJSMHESMHLC",
        "reception_time": "2022-01-18T13:01:31.944-00:00",
        "included_in_blocks":
          [ "BKvj9rk5xFvXMFFf2RiEa3n83bdGaBwTzSpwZxFEdGGVDaWrQ3P" ] },
      { "delegate": "tz3QSGPoRp3Kn7n3vY24eYeu3Peuqo45LQ4D",
        "reception_time": "2022-01-18T13:01:31.965-00:00",
        "included_in_blocks":
          [ "BKvj9rk5xFvXMFFf2RiEa3n83bdGaBwTzSpwZxFEdGGVDaWrQ3P" ] },
      { "delegate": "tz3gtoUxdudfBRcNY7iVdKPHCYYX6xdPpoRS",
        "reception_time": "2022-01-18T13:01:31.921-00:00",
        "included_in_blocks":
          [ "BKvj9rk5xFvXMFFf2RiEa3n83bdGaBwTzSpwZxFEdGGVDaWrQ3P" ] },
      { "delegate": "tz1PWCDnz783NNGGQjEFFsHtrcK5yBW4E2rm",
        "reception_time": "2022-01-18T13:01:32.112-00:00",
        "included_in_blocks":
          [ "BKvj9rk5xFvXMFFf2RiEa3n83bdGaBwTzSpwZxFEdGGVDaWrQ3P" ] },
      { "delegate": "tz1gcna2xxZj2eNp1LaMyAhVJ49mEFj4FH26",
        "reception_time": "2022-01-18T13:01:31.865-00:00",
        "included_in_blocks":
          [ "BKvj9rk5xFvXMFFf2RiEa3n83bdGaBwTzSpwZxFEdGGVDaWrQ3P" ] },
      { "delegate": "tz3ZbP2pM3nwvXztbuMJwJnDvV5xdpU8UkkD",
        "reception_time": "2022-01-18T13:01:31.930-00:00",
        "included_in_blocks":
          [ "BKvj9rk5xFvXMFFf2RiEa3n83bdGaBwTzSpwZxFEdGGVDaWrQ3P" ] },
      { "delegate": "tz1VQnqCCqX4K5sP3FNkVSNKTdCAMJDd3E1n",
        "reception_time": "2022-01-18T13:01:31.835-00:00",
        "included_in_blocks":
          [ "BKvj9rk5xFvXMFFf2RiEa3n83bdGaBwTzSpwZxFEdGGVDaWrQ3P" ] },
      { "delegate": "tz1gUNyn3hmnEWqkusWPzxRaon1cs7ndWh7h",
        "reception_time": "2022-01-18T13:01:31.872-00:00",
        "included_in_blocks":
          [ "BKvj9rk5xFvXMFFf2RiEa3n83bdGaBwTzSpwZxFEdGGVDaWrQ3P" ] },
      { "delegate": "tz3NxTnke1acr8o3h5y9ytf5awQBGNJUKzVU",
        "reception_time": "2022-01-18T13:01:31.852-00:00",
        "included_in_blocks":
          [ "BKvj9rk5xFvXMFFf2RiEa3n83bdGaBwTzSpwZxFEdGGVDaWrQ3P" ] },
      { "delegate": "tz1P2Po7YM526ughEsRbY4oR9zaUPDZjxFrb",
        "reception_time": "2022-01-18T13:01:31.830-00:00",
        "included_in_blocks":
          [ "BKvj9rk5xFvXMFFf2RiEa3n83bdGaBwTzSpwZxFEdGGVDaWrQ3P" ] },
      { "delegate": "tz1NMdMmWZN8QPB8pY4ddncACDg1cHi1xD2e",
        "reception_time": "2022-01-18T13:01:31.909-00:00",
        "included_in_blocks":
          [ "BKvj9rk5xFvXMFFf2RiEa3n83bdGaBwTzSpwZxFEdGGVDaWrQ3P" ] },
      { "delegate": "tz1aXD7Jigrt3PBYSpHSg5Rr33SexMmmM5Ys",
        "reception_time": "2022-01-18T13:01:31.901-00:00",
        "included_in_blocks":
          [ "BKvj9rk5xFvXMFFf2RiEa3n83bdGaBwTzSpwZxFEdGGVDaWrQ3P" ] },
      { "delegate": "tz1irJKkXS2DBWkU1NnmFQx1c1L7pbGg4yhk",
        "reception_time": "2022-01-18T13:01:31.844-00:00",
        "included_in_blocks":
          [ "BKvj9rk5xFvXMFFf2RiEa3n83bdGaBwTzSpwZxFEdGGVDaWrQ3P" ] },
      { "delegate": "tz1dbfppLAAxXZNtf2SDps7rch3qfUznKSoK",
        "reception_time": "2022-01-18T13:01:31.800-00:00",
        "included_in_blocks":
          [ "BKvj9rk5xFvXMFFf2RiEa3n83bdGaBwTzSpwZxFEdGGVDaWrQ3P" ] },
      { "delegate": "tz1aDiEJf9ztRrAJEXZfcG3CKimoKsGhwVAi",
        "reception_time": "2022-01-18T13:01:31.787-00:00",
        "included_in_blocks":
          [ "BKvj9rk5xFvXMFFf2RiEa3n83bdGaBwTzSpwZxFEdGGVDaWrQ3P" ] },
      { "delegate": "tz1TRspM5SeZpaQUhzByXbEvqKF1vnCM2YTK",
        "reception_time": "2022-01-18T13:01:31.823-00:00",
        "included_in_blocks":
          [ "BKvj9rk5xFvXMFFf2RiEa3n83bdGaBwTzSpwZxFEdGGVDaWrQ3P" ] },
      { "delegate": "tz1Scdr2HsZiQjc7bHMeBbmDRXYVvdhjJbBh",
        "reception_time": "2022-01-18T13:01:31.792-00:00",
        "included_in_blocks":
          [ "BKvj9rk5xFvXMFFf2RiEa3n83bdGaBwTzSpwZxFEdGGVDaWrQ3P" ] },
      { "delegate": "tz1Lhf4J9Qxoe3DZ2nfe8FGDnvVj7oKjnMY6",
        "reception_time": "2022-01-18T13:01:31.797-00:00",
        "included_in_blocks":
          [ "BKvj9rk5xFvXMFFf2RiEa3n83bdGaBwTzSpwZxFEdGGVDaWrQ3P" ] } ] }