{ "blocks":
    [ { "hash": "BLhfANFpCCadhqDoypxfh6u97xmZE7agoKR9aG4Tnp8LiKPBimt",
        "delegate": "tz1VQnqCCqX4K5sP3FNkVSNKTdCAMJDd3E1n",
        "reception_time": "2022-01-18T17:33:54.460-00:00",
        "timestamp": "2022-01-18T17:33:50Z" } ],
  "endorsements":
    [ { "delegate": "tz1S8e9GgdZG78XJRB3NqabfWeM37GnhZMWQ",
        "reception_time": "2022-01-18T17:33:53.868-00:00",
        "errors":
          [ { "kind": "temporary",
              "id": "proto.011-PtHangz2.prefilter.outdated_endorsement" } ],
        "included_in_blocks":
          [ "BKrMLDcnSFYfbC1d9LJDjKSrCZDvGSEHPirc8cniibJGfhGghsL" ] },
      { "delegate": "tz1NpWrAyDL9k2Lmnyxcgr9xuJakbBxdq7FB",
        "reception_time": "2022-01-18T17:34:09.300-00:00",
        "included_in_blocks":
          [ "BKrMLDcnSFYfbC1d9LJDjKSrCZDvGSEHPirc8cniibJGfhGghsL" ] },
      { "delegate": "tz2BzJTyoQp8fNbfhWD4YQgH9JJHDgSGzpdG",
        "reception_time": "2022-01-18T17:34:07.099-00:00",
        "included_in_blocks":
          [ "BKrMLDcnSFYfbC1d9LJDjKSrCZDvGSEHPirc8cniibJGfhGghsL" ] },
      { "delegate": "tz1W5VkdB5s7ENMESVBtwyt9kyvLqPcUczRT",
        "reception_time": "2022-01-18T17:33:59.743-00:00",
        "included_in_blocks":
          [ "BKrMLDcnSFYfbC1d9LJDjKSrCZDvGSEHPirc8cniibJGfhGghsL" ] },
      { "delegate": "tz1aJS7Pk9uWR3wWyFf1i3RwhYxN84G7stom",
        "reception_time": "2022-01-18T17:33:59.464-00:00",
        "included_in_blocks":
          [ "BKrMLDcnSFYfbC1d9LJDjKSrCZDvGSEHPirc8cniibJGfhGghsL" ] },
      { "delegate": "tz1TRqbYbUf2GyrjErf3hBzgBJPzW8y36qEs",
        "reception_time": "2022-01-18T17:33:59.236-00:00",
        "included_in_blocks":
          [ "BKrMLDcnSFYfbC1d9LJDjKSrCZDvGSEHPirc8cniibJGfhGghsL" ] },
      { "delegate": "tz1awXW7wuXy21c66vBudMXQVAPgRnqqwgTH",
        "reception_time": "2022-01-18T17:33:59.367-00:00",
        "included_in_blocks":
          [ "BKrMLDcnSFYfbC1d9LJDjKSrCZDvGSEHPirc8cniibJGfhGghsL" ] },
      { "delegate": "tz1UvkANVPWppVgMkLnvN7BwYZsCP7vm6NVd",
        "reception_time": "2022-01-18T17:33:58.636-00:00",
        "included_in_blocks":
          [ "BKrMLDcnSFYfbC1d9LJDjKSrCZDvGSEHPirc8cniibJGfhGghsL" ] },
      { "delegate": "tz1RjoHc98dBoqaH2jawF62XNKh7YsHwbkEv",
        "reception_time": "2022-01-18T17:33:59.439-00:00",
        "included_in_blocks":
          [ "BKrMLDcnSFYfbC1d9LJDjKSrCZDvGSEHPirc8cniibJGfhGghsL" ] },
      { "delegate": "tz1g8vkmcde6sWKaG2NN9WKzCkDM6Rziq194",
        "reception_time": "2022-01-18T17:33:57.806-00:00",
        "included_in_blocks":
          [ "BKrMLDcnSFYfbC1d9LJDjKSrCZDvGSEHPirc8cniibJGfhGghsL" ] },
      { "delegate": "tz1iPHM2Xx2hwmzcr1EG1zzrV6oKafVoA91m",
        "reception_time": "2022-01-18T17:33:58.594-00:00",
        "included_in_blocks":
          [ "BKrMLDcnSFYfbC1d9LJDjKSrCZDvGSEHPirc8cniibJGfhGghsL" ] },
      { "delegate": "tz1ZcTRk5uxD86EFEn1vvNffWWqJy7q5eVhc",
        "reception_time": "2022-01-18T17:33:58.301-00:00",
        "included_in_blocks":
          [ "BKrMLDcnSFYfbC1d9LJDjKSrCZDvGSEHPirc8cniibJGfhGghsL" ] },
      { "delegate": "tz1aRoaRhSpRYvFdyvgWLL6TGyRoGF51wDjM",
        "reception_time": "2022-01-18T17:33:57.663-00:00",
        "included_in_blocks":
          [ "BKrMLDcnSFYfbC1d9LJDjKSrCZDvGSEHPirc8cniibJGfhGghsL" ] },
      { "delegate": "tz3UoffC7FG7zfpmvmjUmUeAaHvzdcUvAj6r",
        "reception_time": "2022-01-18T17:33:58.574-00:00",
        "included_in_blocks":
          [ "BKrMLDcnSFYfbC1d9LJDjKSrCZDvGSEHPirc8cniibJGfhGghsL" ] },
      { "delegate": "tz3bvNMQ95vfAYtG8193ymshqjSvmxiCUuR5",
        "reception_time": "2022-01-18T17:33:57.650-00:00",
        "included_in_blocks":
          [ "BKrMLDcnSFYfbC1d9LJDjKSrCZDvGSEHPirc8cniibJGfhGghsL" ] },
      { "delegate": "tz1T7duV5gZWSTq4YpBGbXNLTfznCLDrFxvs",
        "reception_time": "2022-01-18T17:33:57.586-00:00",
        "included_in_blocks":
          [ "BKrMLDcnSFYfbC1d9LJDjKSrCZDvGSEHPirc8cniibJGfhGghsL" ] },
      { "delegate": "tz1WnfXMPaNTBmH7DBPwqCWs9cPDJdkGBTZ8",
        "reception_time": "2022-01-18T17:33:57.656-00:00",
        "included_in_blocks":
          [ "BKrMLDcnSFYfbC1d9LJDjKSrCZDvGSEHPirc8cniibJGfhGghsL" ] },
      { "delegate": "tz1dRKU4FQ9QRRQPdaH4zCR6gmCmXfcvcgtB",
        "reception_time": "2022-01-18T17:33:57.694-00:00",
        "included_in_blocks":
          [ "BKrMLDcnSFYfbC1d9LJDjKSrCZDvGSEHPirc8cniibJGfhGghsL" ] },
      { "delegate": "tz3NExpXn9aPNZPorRE4SdjJ2RGrfbJgMAaV",
        "reception_time": "2022-01-18T17:33:58.389-00:00",
        "included_in_blocks":
          [ "BKrMLDcnSFYfbC1d9LJDjKSrCZDvGSEHPirc8cniibJGfhGghsL" ] },
      { "delegate": "tz3NDpRj6WBrJPikcPVHRBEjWKxFw3c6eQPS",
        "reception_time": "2022-01-18T17:33:57.310-00:00",
        "included_in_blocks":
          [ "BKrMLDcnSFYfbC1d9LJDjKSrCZDvGSEHPirc8cniibJGfhGghsL" ] },
      { "delegate": "tz2FCNBrERXtaTtNX6iimR1UJ5JSDxvdHM93",
        "reception_time": "2022-01-18T17:33:57.315-00:00",
        "included_in_blocks":
          [ "BKrMLDcnSFYfbC1d9LJDjKSrCZDvGSEHPirc8cniibJGfhGghsL" ] },
      { "delegate": "tz3VEZ4k6a4Wx42iyev6i2aVAptTRLEAivNN",
        "reception_time": "2022-01-18T17:33:57.865-00:00",
        "included_in_blocks":
          [ "BKrMLDcnSFYfbC1d9LJDjKSrCZDvGSEHPirc8cniibJGfhGghsL" ] },
      { "delegate": "tz1SYq214SCBy9naR6cvycQsYcUGpBqQAE8d",
        "reception_time": "2022-01-18T17:33:57.319-00:00",
        "included_in_blocks":
          [ "BKrMLDcnSFYfbC1d9LJDjKSrCZDvGSEHPirc8cniibJGfhGghsL" ] },
      { "delegate": "tz1abmz7jiCV2GH2u81LRrGgAFFgvQgiDiaf",
        "reception_time": "2022-01-18T17:33:57.347-00:00",
        "included_in_blocks":
          [ "BKrMLDcnSFYfbC1d9LJDjKSrCZDvGSEHPirc8cniibJGfhGghsL" ] },
      { "delegate": "tz3RDC3Jdn4j15J7bBHZd29EUee9gVB1CxD9",
        "reception_time": "2022-01-18T17:33:57.226-00:00",
        "included_in_blocks":
          [ "BKrMLDcnSFYfbC1d9LJDjKSrCZDvGSEHPirc8cniibJGfhGghsL" ] },
      { "delegate": "tz3RB4aoyjov4KEVRbuhvQ1CKJgBJMWhaeB8",
        "reception_time": "2022-01-18T17:33:57.066-00:00",
        "included_in_blocks":
          [ "BKrMLDcnSFYfbC1d9LJDjKSrCZDvGSEHPirc8cniibJGfhGghsL" ] },
      { "delegate": "tz3QCNyySViKHmeSr45kzDxzchys7NiXCWoa",
        "reception_time": "2022-01-18T17:33:57.113-00:00",
        "included_in_blocks":
          [ "BKrMLDcnSFYfbC1d9LJDjKSrCZDvGSEHPirc8cniibJGfhGghsL" ] },
      { "delegate": "tz1dNVDWPf3Q59SdJqnjdnu277iyvReiRS9M",
        "reception_time": "2022-01-18T17:33:57.258-00:00",
        "included_in_blocks":
          [ "BKrMLDcnSFYfbC1d9LJDjKSrCZDvGSEHPirc8cniibJGfhGghsL" ] },
      { "delegate": "tz1NEKxGEHsFufk87CVZcrqWu8o22qh46GK6",
        "reception_time": "2022-01-18T17:33:57.300-00:00",
        "included_in_blocks":
          [ "BKrMLDcnSFYfbC1d9LJDjKSrCZDvGSEHPirc8cniibJGfhGghsL" ] },
      { "delegate": "tz3bTdwZinP8U1JmSweNzVKhmwafqWmFWRfk",
        "reception_time": "2022-01-18T17:33:57.150-00:00",
        "included_in_blocks":
          [ "BKrMLDcnSFYfbC1d9LJDjKSrCZDvGSEHPirc8cniibJGfhGghsL" ] },
      { "delegate": "tz1MGTFJXpQmtxLi8QJ7AuVRgM2L2Qfn9w9i",
        "reception_time": "2022-01-18T17:33:56.998-00:00",
        "included_in_blocks":
          [ "BKrMLDcnSFYfbC1d9LJDjKSrCZDvGSEHPirc8cniibJGfhGghsL" ] },
      { "delegate": "tz1WBfwbT66FC6BTLexc2BoyCCBM9LG7pnVW",
        "reception_time": "2022-01-18T17:33:57.105-00:00",
        "included_in_blocks":
          [ "BKrMLDcnSFYfbC1d9LJDjKSrCZDvGSEHPirc8cniibJGfhGghsL" ] },
      { "delegate": "tz1Tnjaxk6tbAeC2TmMApPh8UsrEVQvhHvx5",
        "reception_time": "2022-01-18T17:33:57.289-00:00",
        "included_in_blocks":
          [ "BKrMLDcnSFYfbC1d9LJDjKSrCZDvGSEHPirc8cniibJGfhGghsL" ] },
      { "delegate": "tz1ei4WtWEMEJekSv8qDnu9PExG6Q8HgRGr3",
        "reception_time": "2022-01-18T17:33:57.192-00:00",
        "included_in_blocks":
          [ "BKrMLDcnSFYfbC1d9LJDjKSrCZDvGSEHPirc8cniibJGfhGghsL" ] },
      { "delegate": "tz1gfArv665EUkSg2ojMBzcbfwuPxAvqPvjo",
        "reception_time": "2022-01-18T17:33:57.187-00:00",
        "included_in_blocks":
          [ "BKrMLDcnSFYfbC1d9LJDjKSrCZDvGSEHPirc8cniibJGfhGghsL" ] },
      { "delegate": "tz3WMqdzXqRWXwyvj5Hp2H7QEepaUuS7vd9K",
        "reception_time": "2022-01-18T17:33:57.576-00:00",
        "included_in_blocks":
          [ "BKrMLDcnSFYfbC1d9LJDjKSrCZDvGSEHPirc8cniibJGfhGghsL" ] },
      { "delegate": "tz1S8MNvuFEUsWgjHvi3AxibRBf388NhT1q2",
        "reception_time": "2022-01-18T17:33:56.839-00:00",
        "included_in_blocks":
          [ "BKrMLDcnSFYfbC1d9LJDjKSrCZDvGSEHPirc8cniibJGfhGghsL" ] },
      { "delegate": "tz1RCFbB9GpALpsZtu6J58sb74dm8qe6XBzv",
        "reception_time": "2022-01-18T17:33:57.058-00:00",
        "included_in_blocks":
          [ "BKrMLDcnSFYfbC1d9LJDjKSrCZDvGSEHPirc8cniibJGfhGghsL" ] },
      { "delegate": "tz1PWCDnz783NNGGQjEFFsHtrcK5yBW4E2rm",
        "reception_time": "2022-01-18T17:33:57.165-00:00",
        "included_in_blocks":
          [ "BKrMLDcnSFYfbC1d9LJDjKSrCZDvGSEHPirc8cniibJGfhGghsL" ] },
      { "delegate": "tz1Nf6tsK4G6bBqgSQERy4nUtkHNKUVdh7q1",
        "reception_time": "2022-01-18T17:33:57.045-00:00",
        "included_in_blocks":
          [ "BKrMLDcnSFYfbC1d9LJDjKSrCZDvGSEHPirc8cniibJGfhGghsL" ] },
      { "delegate": "tz3QT9dHYKDqh563chVa6za8526ys1UKfRfL",
        "reception_time": "2022-01-18T17:33:57.058-00:00",
        "included_in_blocks":
          [ "BKrMLDcnSFYfbC1d9LJDjKSrCZDvGSEHPirc8cniibJGfhGghsL" ] },
      { "delegate": "tz1cSj7fTex3JPd1p1LN1fwek6AV1kH93Wwc",
        "reception_time": "2022-01-18T17:33:56.992-00:00",
        "included_in_blocks":
          [ "BKrMLDcnSFYfbC1d9LJDjKSrCZDvGSEHPirc8cniibJGfhGghsL" ] },
      { "delegate": "tz3Zhs2dygr55yHyQyKjntAtY9bgfhLZ4Xj1",
        "reception_time": "2022-01-18T17:33:56.971-00:00",
        "included_in_blocks":
          [ "BKrMLDcnSFYfbC1d9LJDjKSrCZDvGSEHPirc8cniibJGfhGghsL" ] },
      { "delegate": "tz3S6BBeKgJGXxvLyZ1xzXzMPn11nnFtq5L9",
        "reception_time": "2022-01-18T17:33:56.979-00:00",
        "included_in_blocks":
          [ "BKrMLDcnSFYfbC1d9LJDjKSrCZDvGSEHPirc8cniibJGfhGghsL" ] },
      { "delegate": "tz3adcvQaKXTCg12zbninqo3q8ptKKtDFTLv",
        "reception_time": "2022-01-18T17:33:56.835-00:00",
        "included_in_blocks":
          [ "BKrMLDcnSFYfbC1d9LJDjKSrCZDvGSEHPirc8cniibJGfhGghsL" ] },
      { "delegate": "tz3iJu5vrKZcsqRPs8yJ61UDoeEXZmtro4qh",
        "reception_time": "2022-01-18T17:33:57.016-00:00",
        "included_in_blocks":
          [ "BKrMLDcnSFYfbC1d9LJDjKSrCZDvGSEHPirc8cniibJGfhGghsL" ] },
      { "delegate": "tz1eEnQhbwf6trb8Q8mPb2RaPkNk2rN7BKi8",
        "reception_time": "2022-01-18T17:33:56.898-00:00",
        "included_in_blocks":
          [ "BKrMLDcnSFYfbC1d9LJDjKSrCZDvGSEHPirc8cniibJGfhGghsL" ] },
      { "delegate": "tz3NxTnke1acr8o3h5y9ytf5awQBGNJUKzVU",
        "reception_time": "2022-01-18T17:33:56.908-00:00",
        "included_in_blocks":
          [ "BKrMLDcnSFYfbC1d9LJDjKSrCZDvGSEHPirc8cniibJGfhGghsL" ] },
      { "delegate": "tz3ZbP2pM3nwvXztbuMJwJnDvV5xdpU8UkkD",
        "reception_time": "2022-01-18T17:33:56.939-00:00",
        "included_in_blocks":
          [ "BKrMLDcnSFYfbC1d9LJDjKSrCZDvGSEHPirc8cniibJGfhGghsL" ] },
      { "delegate": "tz1KfEsrtDaA1sX7vdM4qmEPWuSytuqCDp5j",
        "reception_time": "2022-01-18T17:33:57.282-00:00",
        "included_in_blocks":
          [ "BKrMLDcnSFYfbC1d9LJDjKSrCZDvGSEHPirc8cniibJGfhGghsL" ] },
      { "delegate": "tz1Ldzz6k1BHdhuKvAtMRX7h5kJSMHESMHLC",
        "reception_time": "2022-01-18T17:33:56.915-00:00",
        "included_in_blocks":
          [ "BKrMLDcnSFYfbC1d9LJDjKSrCZDvGSEHPirc8cniibJGfhGghsL" ] },
      { "delegate": "tz3RKYFsLuQzKBtmYuLNas7uMu3AsYd4QdsA",
        "reception_time": "2022-01-18T17:33:57.122-00:00",
        "included_in_blocks":
          [ "BKrMLDcnSFYfbC1d9LJDjKSrCZDvGSEHPirc8cniibJGfhGghsL" ] },
      { "delegate": "tz3gtoUxdudfBRcNY7iVdKPHCYYX6xdPpoRS",
        "reception_time": "2022-01-18T17:33:57.132-00:00",
        "included_in_blocks":
          [ "BKrMLDcnSFYfbC1d9LJDjKSrCZDvGSEHPirc8cniibJGfhGghsL" ] },
      { "delegate": "tz1VmiY38m3y95HqQLjMwqnMS7sdMfGomzKi",
        "reception_time": "2022-01-18T17:33:56.748-00:00",
        "included_in_blocks":
          [ "BKrMLDcnSFYfbC1d9LJDjKSrCZDvGSEHPirc8cniibJGfhGghsL" ] },
      { "delegate": "tz1MQJPGNMijnXnVoBENFz9rUhaPt3S7rWoz",
        "reception_time": "2022-01-18T17:33:57.161-00:00",
        "included_in_blocks":
          [ "BKrMLDcnSFYfbC1d9LJDjKSrCZDvGSEHPirc8cniibJGfhGghsL" ] },
      { "delegate": "tz1TRspM5SeZpaQUhzByXbEvqKF1vnCM2YTK",
        "reception_time": "2022-01-18T17:33:57.096-00:00",
        "included_in_blocks":
          [ "BKrMLDcnSFYfbC1d9LJDjKSrCZDvGSEHPirc8cniibJGfhGghsL" ] },
      { "delegate": "tz1ci1ARnm8JoYV16Hbe4FoxX17yFEAQVytg",
        "reception_time": "2022-01-18T17:33:56.992-00:00",
        "included_in_blocks":
          [ "BKrMLDcnSFYfbC1d9LJDjKSrCZDvGSEHPirc8cniibJGfhGghsL" ] },
      { "delegate": "tz3hw2kqXhLUvY65ca1eety2oQTpAvd34R9Q",
        "reception_time": "2022-01-18T17:33:57.007-00:00",
        "included_in_blocks":
          [ "BKrMLDcnSFYfbC1d9LJDjKSrCZDvGSEHPirc8cniibJGfhGghsL" ] },
      { "delegate": "tz3QSGPoRp3Kn7n3vY24eYeu3Peuqo45LQ4D",
        "reception_time": "2022-01-18T17:33:56.898-00:00",
        "included_in_blocks":
          [ "BKrMLDcnSFYfbC1d9LJDjKSrCZDvGSEHPirc8cniibJGfhGghsL" ] },
      { "delegate": "tz1LmaFsWRkjr7QMCx5PtV6xTUz3AmEpKQiF",
        "reception_time": "2022-01-18T17:33:57.007-00:00",
        "included_in_blocks":
          [ "BKrMLDcnSFYfbC1d9LJDjKSrCZDvGSEHPirc8cniibJGfhGghsL" ] },
      { "delegate": "tz1MQMiZHV8q4tTwUMWmS5Y3kaP6J2136iXr",
        "reception_time": "2022-01-18T17:33:57.135-00:00",
        "included_in_blocks":
          [ "BKrMLDcnSFYfbC1d9LJDjKSrCZDvGSEHPirc8cniibJGfhGghsL" ] },
      { "delegate": "tz1WCd2jm4uSt4vntk4vSuUWoZQGhLcDuR9q",
        "reception_time": "2022-01-18T17:33:56.911-00:00",
        "included_in_blocks":
          [ "BKrMLDcnSFYfbC1d9LJDjKSrCZDvGSEHPirc8cniibJGfhGghsL" ] },
      { "delegate": "tz1TzaNn7wSQSP5gYPXCnNzBCpyMiidCq1PX",
        "reception_time": "2022-01-18T17:33:56.939-00:00",
        "included_in_blocks":
          [ "BKrMLDcnSFYfbC1d9LJDjKSrCZDvGSEHPirc8cniibJGfhGghsL" ] },
      { "delegate": "tz1irJKkXS2DBWkU1NnmFQx1c1L7pbGg4yhk",
        "reception_time": "2022-01-18T17:33:57.091-00:00",
        "included_in_blocks":
          [ "BKrMLDcnSFYfbC1d9LJDjKSrCZDvGSEHPirc8cniibJGfhGghsL" ] },
      { "delegate": "tz1RV1MBbZMR68tacosb7Mwj6LkbPSUS1er1",
        "reception_time": "2022-01-18T17:33:56.888-00:00",
        "included_in_blocks":
          [ "BKrMLDcnSFYfbC1d9LJDjKSrCZDvGSEHPirc8cniibJGfhGghsL" ] },
      { "delegate": "tz1aXD7Jigrt3PBYSpHSg5Rr33SexMmmM5Ys",
        "reception_time": "2022-01-18T17:33:56.806-00:00",
        "included_in_blocks":
          [ "BKrMLDcnSFYfbC1d9LJDjKSrCZDvGSEHPirc8cniibJGfhGghsL" ] },
      { "delegate": "tz1Kt4P8BCaP93AEV4eA7gmpRryWt5hznjCP",
        "reception_time": "2022-01-18T17:33:56.791-00:00",
        "included_in_blocks":
          [ "BKrMLDcnSFYfbC1d9LJDjKSrCZDvGSEHPirc8cniibJGfhGghsL" ] },
      { "delegate": "tz1VQnqCCqX4K5sP3FNkVSNKTdCAMJDd3E1n",
        "reception_time": "2022-01-18T17:33:56.778-00:00",
        "included_in_blocks":
          [ "BKrMLDcnSFYfbC1d9LJDjKSrCZDvGSEHPirc8cniibJGfhGghsL" ] },
      { "delegate": "tz1TXzyaKUA8wsWefdSnyaYFnV2M3vCV7er9",
        "reception_time": "2022-01-18T17:33:56.803-00:00",
        "included_in_blocks":
          [ "BKrMLDcnSFYfbC1d9LJDjKSrCZDvGSEHPirc8cniibJGfhGghsL" ] },
      { "delegate": "tz1Lhf4J9Qxoe3DZ2nfe8FGDnvVj7oKjnMY6",
        "reception_time": "2022-01-18T17:33:56.781-00:00",
        "included_in_blocks":
          [ "BKrMLDcnSFYfbC1d9LJDjKSrCZDvGSEHPirc8cniibJGfhGghsL" ] },
      { "delegate": "tz1gUNyn3hmnEWqkusWPzxRaon1cs7ndWh7h",
        "reception_time": "2022-01-18T17:33:56.795-00:00",
        "included_in_blocks":
          [ "BKrMLDcnSFYfbC1d9LJDjKSrCZDvGSEHPirc8cniibJGfhGghsL" ] },
      { "delegate": "tz1P2Po7YM526ughEsRbY4oR9zaUPDZjxFrb",
        "reception_time": "2022-01-18T17:33:56.770-00:00",
        "included_in_blocks":
          [ "BKrMLDcnSFYfbC1d9LJDjKSrCZDvGSEHPirc8cniibJGfhGghsL" ] },
      { "delegate": "tz1Scdr2HsZiQjc7bHMeBbmDRXYVvdhjJbBh",
        "reception_time": "2022-01-18T17:33:56.712-00:00",
        "included_in_blocks":
          [ "BKrMLDcnSFYfbC1d9LJDjKSrCZDvGSEHPirc8cniibJGfhGghsL" ] } ] }