{ "blocks":
    [ { "hash": "BMM81uC3fmn25FuaAnmatVNTuEPTz8wmtBMHkcvWp3RP1QHtZqS",
        "delegate": "tz1aburfPdZGWDJFNY1D9sgsVWQAvQJYwiTB",
        "reception_time": "2022-01-18T09:32:27.103-00:00",
        "timestamp": "2022-01-18T09:32:00Z" } ],
  "endorsements":
    [ { "delegate": "tz1R664EP6wjcM1RSUVJ7nrJisTpBW9QyJzP",
        "reception_time": "2022-01-18T09:32:34.976-00:00" },
      { "delegate": "tz1aJS7Pk9uWR3wWyFf1i3RwhYxN84G7stom",
        "reception_time": "2022-01-18T09:32:32.103-00:00" },
      { "delegate": "tz1g8vkmcde6sWKaG2NN9WKzCkDM6Rziq194",
        "reception_time": "2022-01-18T09:32:31.356-00:00" },
      { "delegate": "tz3NExpXn9aPNZPorRE4SdjJ2RGrfbJgMAaV",
        "reception_time": "2022-01-18T09:32:31.332-00:00" },
      { "delegate": "tz1dRKU4FQ9QRRQPdaH4zCR6gmCmXfcvcgtB",
        "reception_time": "2022-01-18T09:32:31.005-00:00" },
      { "delegate": "tz1aRoaRhSpRYvFdyvgWLL6TGyRoGF51wDjM",
        "reception_time": "2022-01-18T09:32:30.927-00:00" },
      { "delegate": "tz1ZcTRk5uxD86EFEn1vvNffWWqJy7q5eVhc",
        "reception_time": "2022-01-18T09:32:30.757-00:00" },
      { "delegate": "tz1NEKxGEHsFufk87CVZcrqWu8o22qh46GK6",
        "reception_time": "2022-01-18T09:32:30.427-00:00" },
      { "delegate": "tz1T7duV5gZWSTq4YpBGbXNLTfznCLDrFxvs",
        "reception_time": "2022-01-18T09:32:30.419-00:00" },
      { "delegate": "tz3bvNMQ95vfAYtG8193ymshqjSvmxiCUuR5",
        "reception_time": "2022-01-18T09:32:30.404-00:00" },
      { "delegate": "tz1R6Ej25VSerE3MkSoEEeBjKHCDTFbpKuSX",
        "reception_time": "2022-01-18T09:32:30.342-00:00" },
      { "delegate": "tz3RDC3Jdn4j15J7bBHZd29EUee9gVB1CxD9",
        "reception_time": "2022-01-18T09:32:30.281-00:00" },
      { "delegate": "tz1KfEsrtDaA1sX7vdM4qmEPWuSytuqCDp5j",
        "reception_time": "2022-01-18T09:32:30.141-00:00" },
      { "delegate": "tz3VEZ4k6a4Wx42iyev6i2aVAptTRLEAivNN",
        "reception_time": "2022-01-18T09:32:30.045-00:00",
        "included_in_blocks":
          [ "BMFJpSVVzkECtt8XJS3MSEAAm3BjJ9f2GoxuaDE6RDMUg8ViGrr" ] },
      { "delegate": "tz1WctSwL49BZtdWAQ75NY6vr4xsAx6oKdah",
        "reception_time": "2022-01-18T09:32:30.021-00:00" },
      { "delegate": "tz1awXW7wuXy21c66vBudMXQVAPgRnqqwgTH",
        "reception_time": "2022-01-18T09:32:29.974-00:00",
        "included_in_blocks":
          [ "BMFJpSVVzkECtt8XJS3MSEAAm3BjJ9f2GoxuaDE6RDMUg8ViGrr" ] },
      { "delegate": "tz1PeZx7FXy7QRuMREGXGxeipb24RsMMzUNe",
        "reception_time": "2022-01-18T09:32:29.947-00:00" },
      { "delegate": "tz1RjoHc98dBoqaH2jawF62XNKh7YsHwbkEv",
        "reception_time": "2022-01-18T09:32:29.898-00:00",
        "included_in_blocks":
          [ "BMFJpSVVzkECtt8XJS3MSEAAm3BjJ9f2GoxuaDE6RDMUg8ViGrr" ] },
      { "delegate": "tz3WMqdzXqRWXwyvj5Hp2H7QEepaUuS7vd9K",
        "reception_time": "2022-01-18T09:32:29.882-00:00",
        "included_in_blocks":
          [ "BMFJpSVVzkECtt8XJS3MSEAAm3BjJ9f2GoxuaDE6RDMUg8ViGrr" ] },
      { "delegate": "tz3UoffC7FG7zfpmvmjUmUeAaHvzdcUvAj6r",
        "reception_time": "2022-01-18T09:32:29.861-00:00",
        "included_in_blocks":
          [ "BMFJpSVVzkECtt8XJS3MSEAAm3BjJ9f2GoxuaDE6RDMUg8ViGrr" ] },
      { "delegate": "tz1TEc75UKXv4W5cwi14Na3NtqFD51yKQi7h",
        "reception_time": "2022-01-18T09:32:29.699-00:00",
        "included_in_blocks":
          [ "BMFJpSVVzkECtt8XJS3MSEAAm3BjJ9f2GoxuaDE6RDMUg8ViGrr" ] },
      { "delegate": "tz1Nf6tsK4G6bBqgSQERy4nUtkHNKUVdh7q1",
        "reception_time": "2022-01-18T09:32:29.608-00:00",
        "included_in_blocks":
          [ "BMFJpSVVzkECtt8XJS3MSEAAm3BjJ9f2GoxuaDE6RDMUg8ViGrr" ] },
      { "delegate": "tz1RQhNh7iB9CZA7i3ifTWNwiGYVffponfbB",
        "reception_time": "2022-01-18T09:32:29.556-00:00",
        "included_in_blocks":
          [ "BMFJpSVVzkECtt8XJS3MSEAAm3BjJ9f2GoxuaDE6RDMUg8ViGrr" ] },
      { "delegate": "tz3gLTu4Yxj8tPAcriQVUdxv6BY9QyvzU1az",
        "reception_time": "2022-01-18T09:32:29.549-00:00",
        "included_in_blocks":
          [ "BMFJpSVVzkECtt8XJS3MSEAAm3BjJ9f2GoxuaDE6RDMUg8ViGrr" ] },
      { "delegate": "tz3NDpRj6WBrJPikcPVHRBEjWKxFw3c6eQPS",
        "reception_time": "2022-01-18T09:32:29.536-00:00",
        "included_in_blocks":
          [ "BMFJpSVVzkECtt8XJS3MSEAAm3BjJ9f2GoxuaDE6RDMUg8ViGrr" ] },
      { "delegate": "tz2FCNBrERXtaTtNX6iimR1UJ5JSDxvdHM93",
        "reception_time": "2022-01-18T09:32:29.508-00:00",
        "included_in_blocks":
          [ "BMFJpSVVzkECtt8XJS3MSEAAm3BjJ9f2GoxuaDE6RDMUg8ViGrr" ] },
      { "delegate": "tz1WBfwbT66FC6BTLexc2BoyCCBM9LG7pnVW",
        "reception_time": "2022-01-18T09:32:29.446-00:00",
        "included_in_blocks":
          [ "BMFJpSVVzkECtt8XJS3MSEAAm3BjJ9f2GoxuaDE6RDMUg8ViGrr" ] },
      { "delegate": "tz1TRqbYbUf2GyrjErf3hBzgBJPzW8y36qEs",
        "reception_time": "2022-01-18T09:32:29.407-00:00",
        "included_in_blocks":
          [ "BMFJpSVVzkECtt8XJS3MSEAAm3BjJ9f2GoxuaDE6RDMUg8ViGrr" ] },
      { "delegate": "tz1UMCB2AHSTwG7YcGNr31CqYCtGN873royv",
        "reception_time": "2022-01-18T09:32:29.375-00:00",
        "included_in_blocks":
          [ "BMFJpSVVzkECtt8XJS3MSEAAm3BjJ9f2GoxuaDE6RDMUg8ViGrr" ] },
      { "delegate": "tz1ei4WtWEMEJekSv8qDnu9PExG6Q8HgRGr3",
        "reception_time": "2022-01-18T09:32:29.293-00:00",
        "included_in_blocks":
          [ "BMFJpSVVzkECtt8XJS3MSEAAm3BjJ9f2GoxuaDE6RDMUg8ViGrr" ] },
      { "delegate": "tz1PWCDnz783NNGGQjEFFsHtrcK5yBW4E2rm",
        "reception_time": "2022-01-18T09:32:29.152-00:00",
        "included_in_blocks":
          [ "BMFJpSVVzkECtt8XJS3MSEAAm3BjJ9f2GoxuaDE6RDMUg8ViGrr" ] },
      { "delegate": "tz3bTdwZinP8U1JmSweNzVKhmwafqWmFWRfk",
        "reception_time": "2022-01-18T09:32:29.145-00:00",
        "included_in_blocks":
          [ "BMFJpSVVzkECtt8XJS3MSEAAm3BjJ9f2GoxuaDE6RDMUg8ViGrr" ] },
      { "delegate": "tz1UJvHTgpVzcKWhTazGxVcn5wsHru5Gietg",
        "reception_time": "2022-01-18T09:32:29.114-00:00",
        "included_in_blocks":
          [ "BMFJpSVVzkECtt8XJS3MSEAAm3BjJ9f2GoxuaDE6RDMUg8ViGrr" ] },
      { "delegate": "tz1irJKkXS2DBWkU1NnmFQx1c1L7pbGg4yhk",
        "reception_time": "2022-01-18T09:32:29.106-00:00",
        "included_in_blocks":
          [ "BMFJpSVVzkECtt8XJS3MSEAAm3BjJ9f2GoxuaDE6RDMUg8ViGrr" ] },
      { "delegate": "tz1dNVDWPf3Q59SdJqnjdnu277iyvReiRS9M",
        "reception_time": "2022-01-18T09:32:29.072-00:00",
        "included_in_blocks":
          [ "BMFJpSVVzkECtt8XJS3MSEAAm3BjJ9f2GoxuaDE6RDMUg8ViGrr" ] },
      { "delegate": "tz1fUyqYH7H4pRHN1roWY17giXhy1RvxjgUV",
        "reception_time": "2022-01-18T09:32:29.009-00:00",
        "included_in_blocks":
          [ "BMFJpSVVzkECtt8XJS3MSEAAm3BjJ9f2GoxuaDE6RDMUg8ViGrr" ] },
      { "delegate": "tz1V4qCyvPKZ5UeqdH14HN42rxvNPQfc9UZg",
        "reception_time": "2022-01-18T09:32:29.006-00:00",
        "included_in_blocks":
          [ "BMFJpSVVzkECtt8XJS3MSEAAm3BjJ9f2GoxuaDE6RDMUg8ViGrr" ] },
      { "delegate": "tz1S8MNvuFEUsWgjHvi3AxibRBf388NhT1q2",
        "reception_time": "2022-01-18T09:32:28.999-00:00",
        "included_in_blocks":
          [ "BMFJpSVVzkECtt8XJS3MSEAAm3BjJ9f2GoxuaDE6RDMUg8ViGrr" ] },
      { "delegate": "tz1WnfXMPaNTBmH7DBPwqCWs9cPDJdkGBTZ8",
        "reception_time": "2022-01-18T09:32:28.996-00:00",
        "included_in_blocks":
          [ "BMFJpSVVzkECtt8XJS3MSEAAm3BjJ9f2GoxuaDE6RDMUg8ViGrr" ] },
      { "delegate": "tz1abmz7jiCV2GH2u81LRrGgAFFgvQgiDiaf",
        "reception_time": "2022-01-18T09:32:28.989-00:00",
        "included_in_blocks":
          [ "BMFJpSVVzkECtt8XJS3MSEAAm3BjJ9f2GoxuaDE6RDMUg8ViGrr" ] },
      { "delegate": "tz1MQJPGNMijnXnVoBENFz9rUhaPt3S7rWoz",
        "reception_time": "2022-01-18T09:32:28.986-00:00",
        "included_in_blocks":
          [ "BMFJpSVVzkECtt8XJS3MSEAAm3BjJ9f2GoxuaDE6RDMUg8ViGrr" ] },
      { "delegate": "tz1gfArv665EUkSg2ojMBzcbfwuPxAvqPvjo",
        "reception_time": "2022-01-18T09:32:28.910-00:00",
        "included_in_blocks":
          [ "BMFJpSVVzkECtt8XJS3MSEAAm3BjJ9f2GoxuaDE6RDMUg8ViGrr" ] },
      { "delegate": "tz3RB4aoyjov4KEVRbuhvQ1CKJgBJMWhaeB8",
        "reception_time": "2022-01-18T09:32:28.840-00:00",
        "included_in_blocks":
          [ "BMFJpSVVzkECtt8XJS3MSEAAm3BjJ9f2GoxuaDE6RDMUg8ViGrr" ] },
      { "delegate": "tz1WCd2jm4uSt4vntk4vSuUWoZQGhLcDuR9q",
        "reception_time": "2022-01-18T09:32:28.677-00:00",
        "included_in_blocks":
          [ "BMFJpSVVzkECtt8XJS3MSEAAm3BjJ9f2GoxuaDE6RDMUg8ViGrr" ] },
      { "delegate": "tz1RCFbB9GpALpsZtu6J58sb74dm8qe6XBzv",
        "reception_time": "2022-01-18T09:32:28.666-00:00",
        "included_in_blocks":
          [ "BMFJpSVVzkECtt8XJS3MSEAAm3BjJ9f2GoxuaDE6RDMUg8ViGrr" ] },
      { "delegate": "tz1NSDFKuRyzHxpfG1AMkyCwEiZ52cbR2mRW",
        "reception_time": "2022-01-18T09:32:28.641-00:00",
        "included_in_blocks":
          [ "BMFJpSVVzkECtt8XJS3MSEAAm3BjJ9f2GoxuaDE6RDMUg8ViGrr" ] },
      { "delegate": "tz1TzaNn7wSQSP5gYPXCnNzBCpyMiidCq1PX",
        "reception_time": "2022-01-18T09:32:28.610-00:00",
        "included_in_blocks":
          [ "BMFJpSVVzkECtt8XJS3MSEAAm3BjJ9f2GoxuaDE6RDMUg8ViGrr" ] },
      { "delegate": "tz1Ldzz6k1BHdhuKvAtMRX7h5kJSMHESMHLC",
        "reception_time": "2022-01-18T09:32:28.608-00:00",
        "included_in_blocks":
          [ "BMFJpSVVzkECtt8XJS3MSEAAm3BjJ9f2GoxuaDE6RDMUg8ViGrr" ] },
      { "delegate": "tz3S6BBeKgJGXxvLyZ1xzXzMPn11nnFtq5L9",
        "reception_time": "2022-01-18T09:32:28.568-00:00",
        "included_in_blocks":
          [ "BMFJpSVVzkECtt8XJS3MSEAAm3BjJ9f2GoxuaDE6RDMUg8ViGrr" ] },
      { "delegate": "tz3QT9dHYKDqh563chVa6za8526ys1UKfRfL",
        "reception_time": "2022-01-18T09:32:28.553-00:00",
        "included_in_blocks":
          [ "BMFJpSVVzkECtt8XJS3MSEAAm3BjJ9f2GoxuaDE6RDMUg8ViGrr" ] },
      { "delegate": "tz3Zhs2dygr55yHyQyKjntAtY9bgfhLZ4Xj1",
        "reception_time": "2022-01-18T09:32:28.525-00:00",
        "included_in_blocks":
          [ "BMFJpSVVzkECtt8XJS3MSEAAm3BjJ9f2GoxuaDE6RDMUg8ViGrr" ] },
      { "delegate": "tz3iJu5vrKZcsqRPs8yJ61UDoeEXZmtro4qh",
        "reception_time": "2022-01-18T09:32:28.509-00:00",
        "included_in_blocks":
          [ "BMFJpSVVzkECtt8XJS3MSEAAm3BjJ9f2GoxuaDE6RDMUg8ViGrr" ] },
      { "delegate": "tz1gUNyn3hmnEWqkusWPzxRaon1cs7ndWh7h",
        "reception_time": "2022-01-18T09:32:28.493-00:00",
        "included_in_blocks":
          [ "BMFJpSVVzkECtt8XJS3MSEAAm3BjJ9f2GoxuaDE6RDMUg8ViGrr" ] },
      { "delegate": "tz1VQnqCCqX4K5sP3FNkVSNKTdCAMJDd3E1n",
        "reception_time": "2022-01-18T09:32:28.477-00:00",
        "included_in_blocks":
          [ "BMFJpSVVzkECtt8XJS3MSEAAm3BjJ9f2GoxuaDE6RDMUg8ViGrr" ] },
      { "delegate": "tz3NxTnke1acr8o3h5y9ytf5awQBGNJUKzVU",
        "reception_time": "2022-01-18T09:32:28.462-00:00",
        "included_in_blocks":
          [ "BMFJpSVVzkECtt8XJS3MSEAAm3BjJ9f2GoxuaDE6RDMUg8ViGrr" ] },
      { "delegate": "tz3QSGPoRp3Kn7n3vY24eYeu3Peuqo45LQ4D",
        "reception_time": "2022-01-18T09:32:28.440-00:00",
        "included_in_blocks":
          [ "BMFJpSVVzkECtt8XJS3MSEAAm3BjJ9f2GoxuaDE6RDMUg8ViGrr" ] },
      { "delegate": "tz3gtoUxdudfBRcNY7iVdKPHCYYX6xdPpoRS",
        "reception_time": "2022-01-18T09:32:28.433-00:00",
        "included_in_blocks":
          [ "BMFJpSVVzkECtt8XJS3MSEAAm3BjJ9f2GoxuaDE6RDMUg8ViGrr" ] },
      { "delegate": "tz3adcvQaKXTCg12zbninqo3q8ptKKtDFTLv",
        "reception_time": "2022-01-18T09:32:28.403-00:00",
        "included_in_blocks":
          [ "BMFJpSVVzkECtt8XJS3MSEAAm3BjJ9f2GoxuaDE6RDMUg8ViGrr" ] },
      { "delegate": "tz1MJx9vhaNRSimcuXPK2rW4fLccQnDAnVKJ",
        "reception_time": "2022-01-18T09:32:28.390-00:00",
        "included_in_blocks":
          [ "BMFJpSVVzkECtt8XJS3MSEAAm3BjJ9f2GoxuaDE6RDMUg8ViGrr" ] },
      { "delegate": "tz3ZbP2pM3nwvXztbuMJwJnDvV5xdpU8UkkD",
        "reception_time": "2022-01-18T09:32:28.382-00:00",
        "included_in_blocks":
          [ "BMFJpSVVzkECtt8XJS3MSEAAm3BjJ9f2GoxuaDE6RDMUg8ViGrr" ] },
      { "delegate": "tz3hw2kqXhLUvY65ca1eety2oQTpAvd34R9Q",
        "reception_time": "2022-01-18T09:32:28.376-00:00",
        "included_in_blocks":
          [ "BMFJpSVVzkECtt8XJS3MSEAAm3BjJ9f2GoxuaDE6RDMUg8ViGrr" ] },
      { "delegate": "tz3RKYFsLuQzKBtmYuLNas7uMu3AsYd4QdsA",
        "reception_time": "2022-01-18T09:32:28.366-00:00",
        "included_in_blocks":
          [ "BMFJpSVVzkECtt8XJS3MSEAAm3BjJ9f2GoxuaDE6RDMUg8ViGrr" ] },
      { "delegate": "tz1RV1MBbZMR68tacosb7Mwj6LkbPSUS1er1",
        "reception_time": "2022-01-18T09:32:28.305-00:00",
        "included_in_blocks":
          [ "BMFJpSVVzkECtt8XJS3MSEAAm3BjJ9f2GoxuaDE6RDMUg8ViGrr" ] },
      { "delegate": "tz1P2Po7YM526ughEsRbY4oR9zaUPDZjxFrb",
        "reception_time": "2022-01-18T09:32:28.282-00:00",
        "included_in_blocks":
          [ "BMFJpSVVzkECtt8XJS3MSEAAm3BjJ9f2GoxuaDE6RDMUg8ViGrr" ] },
      { "delegate": "tz1STeamwbp68THcny9zk3LsbG3H36DMvbRK",
        "reception_time": "2022-01-18T09:32:28.276-00:00",
        "included_in_blocks":
          [ "BMFJpSVVzkECtt8XJS3MSEAAm3BjJ9f2GoxuaDE6RDMUg8ViGrr" ] },
      { "delegate": "tz1bkESY3QKVUwboioG5vSbGiS9GRwHdB4xB",
        "reception_time": "2022-01-18T09:32:28.276-00:00",
        "included_in_blocks":
          [ "BMFJpSVVzkECtt8XJS3MSEAAm3BjJ9f2GoxuaDE6RDMUg8ViGrr" ] },
      { "delegate": "tz1Scdr2HsZiQjc7bHMeBbmDRXYVvdhjJbBh",
        "reception_time": "2022-01-18T09:32:28.271-00:00",
        "included_in_blocks":
          [ "BMFJpSVVzkECtt8XJS3MSEAAm3BjJ9f2GoxuaDE6RDMUg8ViGrr" ] },
      { "delegate": "tz1eEnQhbwf6trb8Q8mPb2RaPkNk2rN7BKi8",
        "reception_time": "2022-01-18T09:32:28.213-00:00",
        "included_in_blocks":
          [ "BMFJpSVVzkECtt8XJS3MSEAAm3BjJ9f2GoxuaDE6RDMUg8ViGrr" ] },
      { "delegate": "tz1S8e9GgdZG78XJRB3NqabfWeM37GnhZMWQ",
        "reception_time": "2022-01-18T09:32:28.202-00:00",
        "included_in_blocks":
          [ "BMFJpSVVzkECtt8XJS3MSEAAm3BjJ9f2GoxuaDE6RDMUg8ViGrr" ] },
      { "delegate": "tz1cYufsxHXJcvANhvS55h3aY32a9BAFB494" },
      { "delegate": "tz1NdhRv643wLW6zCcRP3VfT24dvDnh7nuh9" } ] }