{ "blocks":
    [ { "hash": "BMDqSd7V9EG2CapqitnAhbSM6Atr7BSqcrmtu4V7YmTW7TasSbD",
        "delegate": "tz1abmz7jiCV2GH2u81LRrGgAFFgvQgiDiaf",
        "reception_time": "2022-01-18T11:41:30.778-00:00",
        "timestamp": "2022-01-18T11:41:20Z" } ],
  "endorsements":
    [ { "delegate": "tz1XfAjZyaLdceHnZxbMYop7g7kWKPut4PR7",
        "reception_time": "2022-01-18T11:41:30.782-00:00",
        "errors":
          [ { "kind": "temporary",
              "id": "proto.011-PtHangz2.prefilter.outdated_endorsement" } ],
        "included_in_blocks":
          [ "BMa3FjzMrtnpHXsgcRZkdDbEGk27GtKs6SHGo9MF4nXQzGyjbqh" ] },
      { "delegate": "tz1Scdr2HsZiQjc7bHMeBbmDRXYVvdhjJbBh",
        "reception_time": "2022-01-18T11:41:30.646-00:00",
        "errors":
          [ { "kind": "temporary",
              "id": "proto.011-PtHangz2.prefilter.outdated_endorsement" } ],
        "included_in_blocks":
          [ "BMa3FjzMrtnpHXsgcRZkdDbEGk27GtKs6SHGo9MF4nXQzGyjbqh" ] },
      { "delegate": "tz1P2Po7YM526ughEsRbY4oR9zaUPDZjxFrb",
        "reception_time": "2022-01-18T11:41:30.508-00:00",
        "errors":
          [ { "kind": "temporary",
              "id": "proto.011-PtHangz2.prefilter.outdated_endorsement" } ],
        "included_in_blocks":
          [ "BMa3FjzMrtnpHXsgcRZkdDbEGk27GtKs6SHGo9MF4nXQzGyjbqh" ] },
      { "delegate": "tz1S8e9GgdZG78XJRB3NqabfWeM37GnhZMWQ",
        "reception_time": "2022-01-18T11:41:30.449-00:00",
        "errors":
          [ { "kind": "temporary",
              "id": "proto.011-PtHangz2.prefilter.outdated_endorsement" } ],
        "included_in_blocks":
          [ "BMa3FjzMrtnpHXsgcRZkdDbEGk27GtKs6SHGo9MF4nXQzGyjbqh" ] },
      { "delegate": "tz1cYufsxHXJcvANhvS55h3aY32a9BAFB494" },
      { "delegate": "tz1Lhf4J9Qxoe3DZ2nfe8FGDnvVj7oKjnMY6",
        "reception_time": "2022-01-18T11:41:31.835-00:00",
        "included_in_blocks":
          [ "BMa3FjzMrtnpHXsgcRZkdDbEGk27GtKs6SHGo9MF4nXQzGyjbqh" ] },
      { "delegate": "tz1eEnQhbwf6trb8Q8mPb2RaPkNk2rN7BKi8",
        "reception_time": "2022-01-18T11:41:31.835-00:00",
        "included_in_blocks":
          [ "BMa3FjzMrtnpHXsgcRZkdDbEGk27GtKs6SHGo9MF4nXQzGyjbqh" ] },
      { "delegate": "tz1irJKkXS2DBWkU1NnmFQx1c1L7pbGg4yhk",
        "reception_time": "2022-01-18T11:41:31.844-00:00",
        "included_in_blocks":
          [ "BMa3FjzMrtnpHXsgcRZkdDbEGk27GtKs6SHGo9MF4nXQzGyjbqh" ] },
      { "delegate": "tz1beersuEDv8Z7ngQ825xfbaJNS2EhXnyHR",
        "reception_time": "2022-01-18T11:41:31.847-00:00",
        "included_in_blocks":
          [ "BMa3FjzMrtnpHXsgcRZkdDbEGk27GtKs6SHGo9MF4nXQzGyjbqh" ] },
      { "delegate": "tz3ZbP2pM3nwvXztbuMJwJnDvV5xdpU8UkkD",
        "reception_time": "2022-01-18T11:41:31.857-00:00",
        "included_in_blocks":
          [ "BMa3FjzMrtnpHXsgcRZkdDbEGk27GtKs6SHGo9MF4nXQzGyjbqh" ] },
      { "delegate": "tz3RKYFsLuQzKBtmYuLNas7uMu3AsYd4QdsA",
        "reception_time": "2022-01-18T11:41:31.865-00:00",
        "included_in_blocks":
          [ "BMa3FjzMrtnpHXsgcRZkdDbEGk27GtKs6SHGo9MF4nXQzGyjbqh" ] },
      { "delegate": "tz1TRspM5SeZpaQUhzByXbEvqKF1vnCM2YTK",
        "reception_time": "2022-01-18T11:41:31.870-00:00",
        "included_in_blocks":
          [ "BMa3FjzMrtnpHXsgcRZkdDbEGk27GtKs6SHGo9MF4nXQzGyjbqh" ] },
      { "delegate": "tz1gUNyn3hmnEWqkusWPzxRaon1cs7ndWh7h",
        "reception_time": "2022-01-18T11:41:31.879-00:00",
        "included_in_blocks":
          [ "BMa3FjzMrtnpHXsgcRZkdDbEGk27GtKs6SHGo9MF4nXQzGyjbqh" ] },
      { "delegate": "tz3NxTnke1acr8o3h5y9ytf5awQBGNJUKzVU",
        "reception_time": "2022-01-18T11:41:31.879-00:00",
        "included_in_blocks":
          [ "BMa3FjzMrtnpHXsgcRZkdDbEGk27GtKs6SHGo9MF4nXQzGyjbqh" ] },
      { "delegate": "tz1VQnqCCqX4K5sP3FNkVSNKTdCAMJDd3E1n",
        "reception_time": "2022-01-18T11:41:31.882-00:00",
        "included_in_blocks":
          [ "BMa3FjzMrtnpHXsgcRZkdDbEGk27GtKs6SHGo9MF4nXQzGyjbqh" ] },
      { "delegate": "tz1TXzyaKUA8wsWefdSnyaYFnV2M3vCV7er9",
        "reception_time": "2022-01-18T11:41:31.886-00:00",
        "included_in_blocks":
          [ "BMa3FjzMrtnpHXsgcRZkdDbEGk27GtKs6SHGo9MF4nXQzGyjbqh" ] },
      { "delegate": "tz3Zhs2dygr55yHyQyKjntAtY9bgfhLZ4Xj1",
        "reception_time": "2022-01-18T11:41:31.894-00:00",
        "included_in_blocks":
          [ "BMa3FjzMrtnpHXsgcRZkdDbEGk27GtKs6SHGo9MF4nXQzGyjbqh" ] },
      { "delegate": "tz3hw2kqXhLUvY65ca1eety2oQTpAvd34R9Q",
        "reception_time": "2022-01-18T11:41:31.904-00:00",
        "included_in_blocks":
          [ "BMa3FjzMrtnpHXsgcRZkdDbEGk27GtKs6SHGo9MF4nXQzGyjbqh" ] },
      { "delegate": "tz1Ldzz6k1BHdhuKvAtMRX7h5kJSMHESMHLC",
        "reception_time": "2022-01-18T11:41:31.908-00:00",
        "included_in_blocks":
          [ "BMa3FjzMrtnpHXsgcRZkdDbEGk27GtKs6SHGo9MF4nXQzGyjbqh" ] },
      { "delegate": "tz3adcvQaKXTCg12zbninqo3q8ptKKtDFTLv",
        "reception_time": "2022-01-18T11:41:31.917-00:00",
        "included_in_blocks":
          [ "BMa3FjzMrtnpHXsgcRZkdDbEGk27GtKs6SHGo9MF4nXQzGyjbqh" ] },
      { "delegate": "tz3QSGPoRp3Kn7n3vY24eYeu3Peuqo45LQ4D",
        "reception_time": "2022-01-18T11:41:31.924-00:00",
        "included_in_blocks":
          [ "BMa3FjzMrtnpHXsgcRZkdDbEGk27GtKs6SHGo9MF4nXQzGyjbqh" ] },
      { "delegate": "tz1TzaNn7wSQSP5gYPXCnNzBCpyMiidCq1PX",
        "reception_time": "2022-01-18T11:41:31.928-00:00",
        "included_in_blocks":
          [ "BMa3FjzMrtnpHXsgcRZkdDbEGk27GtKs6SHGo9MF4nXQzGyjbqh" ] },
      { "delegate": "tz1Kt4P8BCaP93AEV4eA7gmpRryWt5hznjCP",
        "reception_time": "2022-01-18T11:41:31.931-00:00",
        "included_in_blocks":
          [ "BMa3FjzMrtnpHXsgcRZkdDbEGk27GtKs6SHGo9MF4nXQzGyjbqh" ] },
      { "delegate": "tz3gtoUxdudfBRcNY7iVdKPHCYYX6xdPpoRS",
        "reception_time": "2022-01-18T11:41:31.962-00:00",
        "included_in_blocks":
          [ "BMa3FjzMrtnpHXsgcRZkdDbEGk27GtKs6SHGo9MF4nXQzGyjbqh" ] },
      { "delegate": "tz1abmz7jiCV2GH2u81LRrGgAFFgvQgiDiaf",
        "reception_time": "2022-01-18T11:41:31.970-00:00",
        "included_in_blocks":
          [ "BMa3FjzMrtnpHXsgcRZkdDbEGk27GtKs6SHGo9MF4nXQzGyjbqh" ] },
      { "delegate": "tz1aXD7Jigrt3PBYSpHSg5Rr33SexMmmM5Ys",
        "reception_time": "2022-01-18T11:41:31.974-00:00",
        "included_in_blocks":
          [ "BMa3FjzMrtnpHXsgcRZkdDbEGk27GtKs6SHGo9MF4nXQzGyjbqh" ] },
      { "delegate": "tz3iJu5vrKZcsqRPs8yJ61UDoeEXZmtro4qh",
        "reception_time": "2022-01-18T11:41:31.982-00:00",
        "included_in_blocks":
          [ "BMa3FjzMrtnpHXsgcRZkdDbEGk27GtKs6SHGo9MF4nXQzGyjbqh" ] },
      { "delegate": "tz3QCNyySViKHmeSr45kzDxzchys7NiXCWoa",
        "reception_time": "2022-01-18T11:41:32.030-00:00",
        "included_in_blocks":
          [ "BMa3FjzMrtnpHXsgcRZkdDbEGk27GtKs6SHGo9MF4nXQzGyjbqh" ] },
      { "delegate": "tz1LmaFsWRkjr7QMCx5PtV6xTUz3AmEpKQiF",
        "reception_time": "2022-01-18T11:41:32.033-00:00",
        "included_in_blocks":
          [ "BMa3FjzMrtnpHXsgcRZkdDbEGk27GtKs6SHGo9MF4nXQzGyjbqh" ] },
      { "delegate": "tz1NSDFKuRyzHxpfG1AMkyCwEiZ52cbR2mRW",
        "reception_time": "2022-01-18T11:41:32.036-00:00",
        "included_in_blocks":
          [ "BMa3FjzMrtnpHXsgcRZkdDbEGk27GtKs6SHGo9MF4nXQzGyjbqh" ] },
      { "delegate": "tz3QT9dHYKDqh563chVa6za8526ys1UKfRfL",
        "reception_time": "2022-01-18T11:41:32.046-00:00",
        "included_in_blocks":
          [ "BMa3FjzMrtnpHXsgcRZkdDbEGk27GtKs6SHGo9MF4nXQzGyjbqh" ] },
      { "delegate": "tz1WCd2jm4uSt4vntk4vSuUWoZQGhLcDuR9q",
        "reception_time": "2022-01-18T11:41:32.054-00:00",
        "included_in_blocks":
          [ "BMa3FjzMrtnpHXsgcRZkdDbEGk27GtKs6SHGo9MF4nXQzGyjbqh" ] },
      { "delegate": "tz1aqcYgG6NuViML5vdWhohHJBYxcDVLNUsE",
        "reception_time": "2022-01-18T11:41:32.054-00:00",
        "included_in_blocks":
          [ "BMa3FjzMrtnpHXsgcRZkdDbEGk27GtKs6SHGo9MF4nXQzGyjbqh" ] },
      { "delegate": "tz3S6BBeKgJGXxvLyZ1xzXzMPn11nnFtq5L9",
        "reception_time": "2022-01-18T11:41:32.076-00:00",
        "included_in_blocks":
          [ "BMa3FjzMrtnpHXsgcRZkdDbEGk27GtKs6SHGo9MF4nXQzGyjbqh" ] },
      { "delegate": "tz1WnfXMPaNTBmH7DBPwqCWs9cPDJdkGBTZ8",
        "reception_time": "2022-01-18T11:41:32.113-00:00",
        "included_in_blocks":
          [ "BMa3FjzMrtnpHXsgcRZkdDbEGk27GtKs6SHGo9MF4nXQzGyjbqh" ] },
      { "delegate": "tz1PWCDnz783NNGGQjEFFsHtrcK5yBW4E2rm",
        "reception_time": "2022-01-18T11:41:32.151-00:00",
        "included_in_blocks":
          [ "BMa3FjzMrtnpHXsgcRZkdDbEGk27GtKs6SHGo9MF4nXQzGyjbqh" ] },
      { "delegate": "tz1d6Fx42mYgVFnHUW8T8A7WBfJ6nD9pVok8",
        "reception_time": "2022-01-18T11:41:32.161-00:00",
        "included_in_blocks":
          [ "BMa3FjzMrtnpHXsgcRZkdDbEGk27GtKs6SHGo9MF4nXQzGyjbqh" ] },
      { "delegate": "tz1RCFbB9GpALpsZtu6J58sb74dm8qe6XBzv",
        "reception_time": "2022-01-18T11:41:32.226-00:00",
        "included_in_blocks":
          [ "BMa3FjzMrtnpHXsgcRZkdDbEGk27GtKs6SHGo9MF4nXQzGyjbqh" ] },
      { "delegate": "tz1fPKAtsYydh4f1wfWNfeNxWYu72TmM48fu",
        "reception_time": "2022-01-18T11:41:32.235-00:00",
        "included_in_blocks":
          [ "BMa3FjzMrtnpHXsgcRZkdDbEGk27GtKs6SHGo9MF4nXQzGyjbqh" ] },
      { "delegate": "tz1S8MNvuFEUsWgjHvi3AxibRBf388NhT1q2",
        "reception_time": "2022-01-18T11:41:32.257-00:00",
        "included_in_blocks":
          [ "BMa3FjzMrtnpHXsgcRZkdDbEGk27GtKs6SHGo9MF4nXQzGyjbqh" ] },
      { "delegate": "tz3bvNMQ95vfAYtG8193ymshqjSvmxiCUuR5",
        "reception_time": "2022-01-18T11:41:32.266-00:00",
        "included_in_blocks":
          [ "BMa3FjzMrtnpHXsgcRZkdDbEGk27GtKs6SHGo9MF4nXQzGyjbqh" ] },
      { "delegate": "tz1Lc87p6zRaDwzJs9kHvdpm7XzeWE8QTwVB",
        "reception_time": "2022-01-18T11:41:32.307-00:00",
        "included_in_blocks":
          [ "BMa3FjzMrtnpHXsgcRZkdDbEGk27GtKs6SHGo9MF4nXQzGyjbqh" ] },
      { "delegate": "tz3bTdwZinP8U1JmSweNzVKhmwafqWmFWRfk",
        "reception_time": "2022-01-18T11:41:32.318-00:00",
        "included_in_blocks":
          [ "BMa3FjzMrtnpHXsgcRZkdDbEGk27GtKs6SHGo9MF4nXQzGyjbqh" ] },
      { "delegate": "tz1V4qCyvPKZ5UeqdH14HN42rxvNPQfc9UZg",
        "reception_time": "2022-01-18T11:41:32.428-00:00",
        "included_in_blocks":
          [ "BMa3FjzMrtnpHXsgcRZkdDbEGk27GtKs6SHGo9MF4nXQzGyjbqh" ] },
      { "delegate": "tz1gfArv665EUkSg2ojMBzcbfwuPxAvqPvjo",
        "reception_time": "2022-01-18T11:41:32.459-00:00",
        "included_in_blocks":
          [ "BMa3FjzMrtnpHXsgcRZkdDbEGk27GtKs6SHGo9MF4nXQzGyjbqh" ] },
      { "delegate": "tz1ei4WtWEMEJekSv8qDnu9PExG6Q8HgRGr3",
        "reception_time": "2022-01-18T11:41:32.469-00:00",
        "included_in_blocks":
          [ "BMa3FjzMrtnpHXsgcRZkdDbEGk27GtKs6SHGo9MF4nXQzGyjbqh" ] },
      { "delegate": "tz1Tnjaxk6tbAeC2TmMApPh8UsrEVQvhHvx5",
        "reception_time": "2022-01-18T11:41:32.599-00:00",
        "included_in_blocks":
          [ "BMa3FjzMrtnpHXsgcRZkdDbEGk27GtKs6SHGo9MF4nXQzGyjbqh" ] },
      { "delegate": "tz1iPHM2Xx2hwmzcr1EG1zzrV6oKafVoA91m",
        "reception_time": "2022-01-18T11:41:32.664-00:00",
        "included_in_blocks":
          [ "BMa3FjzMrtnpHXsgcRZkdDbEGk27GtKs6SHGo9MF4nXQzGyjbqh" ] },
      { "delegate": "tz1UNkf4sWzC5vsKP7FnejSeJsXdc6z8Kzk4",
        "reception_time": "2022-01-18T11:41:32.805-00:00",
        "included_in_blocks":
          [ "BMa3FjzMrtnpHXsgcRZkdDbEGk27GtKs6SHGo9MF4nXQzGyjbqh" ] },
      { "delegate": "tz1SYq214SCBy9naR6cvycQsYcUGpBqQAE8d",
        "reception_time": "2022-01-18T11:41:32.909-00:00",
        "included_in_blocks":
          [ "BMa3FjzMrtnpHXsgcRZkdDbEGk27GtKs6SHGo9MF4nXQzGyjbqh" ] },
      { "delegate": "tz1fwnfJNgiDACshK9avfRfFbMaXrs3ghoJa",
        "reception_time": "2022-01-18T11:41:32.935-00:00",
        "included_in_blocks":
          [ "BMa3FjzMrtnpHXsgcRZkdDbEGk27GtKs6SHGo9MF4nXQzGyjbqh" ] },
      { "delegate": "tz1Nf6tsK4G6bBqgSQERy4nUtkHNKUVdh7q1",
        "reception_time": "2022-01-18T11:41:32.986-00:00",
        "included_in_blocks":
          [ "BMa3FjzMrtnpHXsgcRZkdDbEGk27GtKs6SHGo9MF4nXQzGyjbqh" ] },
      { "delegate": "tz3NDpRj6WBrJPikcPVHRBEjWKxFw3c6eQPS",
        "reception_time": "2022-01-18T11:41:33.069-00:00",
        "included_in_blocks":
          [ "BMa3FjzMrtnpHXsgcRZkdDbEGk27GtKs6SHGo9MF4nXQzGyjbqh" ] },
      { "delegate": "tz1NEKxGEHsFufk87CVZcrqWu8o22qh46GK6",
        "reception_time": "2022-01-18T11:41:33.094-00:00",
        "included_in_blocks":
          [ "BMa3FjzMrtnpHXsgcRZkdDbEGk27GtKs6SHGo9MF4nXQzGyjbqh" ] },
      { "delegate": "tz2FCNBrERXtaTtNX6iimR1UJ5JSDxvdHM93",
        "reception_time": "2022-01-18T11:41:33.143-00:00",
        "included_in_blocks":
          [ "BMa3FjzMrtnpHXsgcRZkdDbEGk27GtKs6SHGo9MF4nXQzGyjbqh" ] },
      { "delegate": "tz1WctSwL49BZtdWAQ75NY6vr4xsAx6oKdah",
        "reception_time": "2022-01-18T11:41:33.150-00:00",
        "included_in_blocks":
          [ "BMa3FjzMrtnpHXsgcRZkdDbEGk27GtKs6SHGo9MF4nXQzGyjbqh" ] },
      { "delegate": "tz3RB4aoyjov4KEVRbuhvQ1CKJgBJMWhaeB8",
        "reception_time": "2022-01-18T11:41:33.483-00:00",
        "included_in_blocks":
          [ "BMa3FjzMrtnpHXsgcRZkdDbEGk27GtKs6SHGo9MF4nXQzGyjbqh" ] },
      { "delegate": "tz3RDC3Jdn4j15J7bBHZd29EUee9gVB1CxD9",
        "reception_time": "2022-01-18T11:41:33.519-00:00",
        "included_in_blocks":
          [ "BMa3FjzMrtnpHXsgcRZkdDbEGk27GtKs6SHGo9MF4nXQzGyjbqh" ] },
      { "delegate": "tz1aRoaRhSpRYvFdyvgWLL6TGyRoGF51wDjM",
        "reception_time": "2022-01-18T11:41:33.527-00:00",
        "included_in_blocks":
          [ "BMa3FjzMrtnpHXsgcRZkdDbEGk27GtKs6SHGo9MF4nXQzGyjbqh" ] },
      { "delegate": "tz3VEZ4k6a4Wx42iyev6i2aVAptTRLEAivNN",
        "reception_time": "2022-01-18T11:41:33.551-00:00",
        "included_in_blocks":
          [ "BMa3FjzMrtnpHXsgcRZkdDbEGk27GtKs6SHGo9MF4nXQzGyjbqh" ] },
      { "delegate": "tz1awXW7wuXy21c66vBudMXQVAPgRnqqwgTH",
        "reception_time": "2022-01-18T11:41:33.561-00:00",
        "included_in_blocks":
          [ "BMa3FjzMrtnpHXsgcRZkdDbEGk27GtKs6SHGo9MF4nXQzGyjbqh" ] },
      { "delegate": "tz3WMqdzXqRWXwyvj5Hp2H7QEepaUuS7vd9K",
        "reception_time": "2022-01-18T11:41:33.635-00:00",
        "included_in_blocks":
          [ "BMa3FjzMrtnpHXsgcRZkdDbEGk27GtKs6SHGo9MF4nXQzGyjbqh" ] },
      { "delegate": "tz1T7duV5gZWSTq4YpBGbXNLTfznCLDrFxvs",
        "reception_time": "2022-01-18T11:41:33.732-00:00",
        "included_in_blocks":
          [ "BMa3FjzMrtnpHXsgcRZkdDbEGk27GtKs6SHGo9MF4nXQzGyjbqh" ] },
      { "delegate": "tz1dRKU4FQ9QRRQPdaH4zCR6gmCmXfcvcgtB",
        "reception_time": "2022-01-18T11:41:33.986-00:00",
        "included_in_blocks":
          [ "BMa3FjzMrtnpHXsgcRZkdDbEGk27GtKs6SHGo9MF4nXQzGyjbqh" ] },
      { "delegate": "tz3NExpXn9aPNZPorRE4SdjJ2RGrfbJgMAaV",
        "reception_time": "2022-01-18T11:41:34.172-00:00",
        "included_in_blocks":
          [ "BMa3FjzMrtnpHXsgcRZkdDbEGk27GtKs6SHGo9MF4nXQzGyjbqh" ] },
      { "delegate": "tz1cM8Xc7ZP1TrjkTeKq4PeRhtbnwXSBR6Sw",
        "reception_time": "2022-01-18T11:41:34.794-00:00",
        "included_in_blocks":
          [ "BMa3FjzMrtnpHXsgcRZkdDbEGk27GtKs6SHGo9MF4nXQzGyjbqh" ] },
      { "delegate": "tz3UoffC7FG7zfpmvmjUmUeAaHvzdcUvAj6r",
        "reception_time": "2022-01-18T11:41:34.829-00:00",
        "included_in_blocks":
          [ "BMa3FjzMrtnpHXsgcRZkdDbEGk27GtKs6SHGo9MF4nXQzGyjbqh" ] },
      { "delegate": "tz1PFeoTuFen8jAMRHajBySNyCwLmY5RqF9M",
        "reception_time": "2022-01-18T11:41:35.110-00:00",
        "included_in_blocks":
          [ "BMa3FjzMrtnpHXsgcRZkdDbEGk27GtKs6SHGo9MF4nXQzGyjbqh" ] },
      { "delegate": "tz3bEQoFCZEEfZMskefZ8q8e4eiHH1pssRax",
        "reception_time": "2022-01-18T11:41:35.343-00:00",
        "included_in_blocks":
          [ "BMa3FjzMrtnpHXsgcRZkdDbEGk27GtKs6SHGo9MF4nXQzGyjbqh" ] },
      { "delegate": "tz1W5VkdB5s7ENMESVBtwyt9kyvLqPcUczRT",
        "reception_time": "2022-01-18T11:41:35.627-00:00",
        "included_in_blocks":
          [ "BMa3FjzMrtnpHXsgcRZkdDbEGk27GtKs6SHGo9MF4nXQzGyjbqh" ] },
      { "delegate": "tz1NpWrAyDL9k2Lmnyxcgr9xuJakbBxdq7FB",
        "reception_time": "2022-01-18T11:41:41.666-00:00",
        "included_in_blocks":
          [ "BMa3FjzMrtnpHXsgcRZkdDbEGk27GtKs6SHGo9MF4nXQzGyjbqh" ] } ] }