{ "blocks":
    [ { "hash": "BLjWbUzWpr18wLfeYmJYFxtDHrgLwetFt1A2YQj6PyWtLi4GtqH",
        "delegate": "tz1irJKkXS2DBWkU1NnmFQx1c1L7pbGg4yhk",
        "reception_time": "2022-01-18T13:32:55.020-00:00",
        "timestamp": "2022-01-18T13:32:50Z" } ],
  "endorsements":
    [ { "delegate": "tz1S8e9GgdZG78XJRB3NqabfWeM37GnhZMWQ",
        "reception_time": "2022-01-18T13:32:54.879-00:00",
        "errors":
          [ { "kind": "temporary",
              "id": "proto.011-PtHangz2.prefilter.outdated_endorsement" } ],
        "included_in_blocks":
          [ "BMRf4dZTiPbZd2NqjXzKwidSwTXNns7yVrusmxLmnaNzAnh1yUw" ] },
      { "delegate": "tz1NpWrAyDL9k2Lmnyxcgr9xuJakbBxdq7FB",
        "reception_time": "2022-01-18T13:33:04.795-00:00",
        "included_in_blocks":
          [ "BMRf4dZTiPbZd2NqjXzKwidSwTXNns7yVrusmxLmnaNzAnh1yUw" ] },
      { "delegate": "tz1W5VkdB5s7ENMESVBtwyt9kyvLqPcUczRT",
        "reception_time": "2022-01-18T13:33:00.350-00:00",
        "included_in_blocks":
          [ "BMRf4dZTiPbZd2NqjXzKwidSwTXNns7yVrusmxLmnaNzAnh1yUw" ] },
      { "delegate": "tz1cM8Xc7ZP1TrjkTeKq4PeRhtbnwXSBR6Sw",
        "reception_time": "2022-01-18T13:32:59.482-00:00",
        "included_in_blocks":
          [ "BMRf4dZTiPbZd2NqjXzKwidSwTXNns7yVrusmxLmnaNzAnh1yUw" ] },
      { "delegate": "tz1T7duV5gZWSTq4YpBGbXNLTfznCLDrFxvs",
        "reception_time": "2022-01-18T13:32:59.309-00:00",
        "included_in_blocks":
          [ "BMRf4dZTiPbZd2NqjXzKwidSwTXNns7yVrusmxLmnaNzAnh1yUw" ] },
      { "delegate": "tz1PFeoTuFen8jAMRHajBySNyCwLmY5RqF9M",
        "reception_time": "2022-01-18T13:32:58.938-00:00",
        "included_in_blocks":
          [ "BMRf4dZTiPbZd2NqjXzKwidSwTXNns7yVrusmxLmnaNzAnh1yUw" ] },
      { "delegate": "tz1ULYFhUY7Syao5NWr9jZ1pp3aw81QPiqjs",
        "reception_time": "2022-01-18T13:32:58.614-00:00",
        "included_in_blocks":
          [ "BMRf4dZTiPbZd2NqjXzKwidSwTXNns7yVrusmxLmnaNzAnh1yUw" ] },
      { "delegate": "tz3NExpXn9aPNZPorRE4SdjJ2RGrfbJgMAaV",
        "reception_time": "2022-01-18T13:32:58.789-00:00",
        "included_in_blocks":
          [ "BMRf4dZTiPbZd2NqjXzKwidSwTXNns7yVrusmxLmnaNzAnh1yUw" ] },
      { "delegate": "tz3UoffC7FG7zfpmvmjUmUeAaHvzdcUvAj6r",
        "reception_time": "2022-01-18T13:32:58.758-00:00",
        "included_in_blocks":
          [ "BMRf4dZTiPbZd2NqjXzKwidSwTXNns7yVrusmxLmnaNzAnh1yUw" ] },
      { "delegate": "tz3WMqdzXqRWXwyvj5Hp2H7QEepaUuS7vd9K",
        "reception_time": "2022-01-18T13:32:58.125-00:00",
        "included_in_blocks":
          [ "BMRf4dZTiPbZd2NqjXzKwidSwTXNns7yVrusmxLmnaNzAnh1yUw" ] },
      { "delegate": "tz3VEZ4k6a4Wx42iyev6i2aVAptTRLEAivNN",
        "reception_time": "2022-01-18T13:32:58.116-00:00",
        "included_in_blocks":
          [ "BMRf4dZTiPbZd2NqjXzKwidSwTXNns7yVrusmxLmnaNzAnh1yUw" ] },
      { "delegate": "tz1awXW7wuXy21c66vBudMXQVAPgRnqqwgTH",
        "reception_time": "2022-01-18T13:32:57.870-00:00",
        "included_in_blocks":
          [ "BMRf4dZTiPbZd2NqjXzKwidSwTXNns7yVrusmxLmnaNzAnh1yUw" ] },
      { "delegate": "tz1NEKxGEHsFufk87CVZcrqWu8o22qh46GK6",
        "reception_time": "2022-01-18T13:32:57.876-00:00",
        "included_in_blocks":
          [ "BMRf4dZTiPbZd2NqjXzKwidSwTXNns7yVrusmxLmnaNzAnh1yUw" ] },
      { "delegate": "tz1cig1EHyvZd7J2k389moM9PxVgPQvmFkvi",
        "reception_time": "2022-01-18T13:32:57.745-00:00",
        "included_in_blocks":
          [ "BMRf4dZTiPbZd2NqjXzKwidSwTXNns7yVrusmxLmnaNzAnh1yUw" ] },
      { "delegate": "tz3RB4aoyjov4KEVRbuhvQ1CKJgBJMWhaeB8",
        "reception_time": "2022-01-18T13:32:57.687-00:00",
        "included_in_blocks":
          [ "BMRf4dZTiPbZd2NqjXzKwidSwTXNns7yVrusmxLmnaNzAnh1yUw" ] },
      { "delegate": "tz1RjoHc98dBoqaH2jawF62XNKh7YsHwbkEv",
        "reception_time": "2022-01-18T13:32:57.695-00:00",
        "included_in_blocks":
          [ "BMRf4dZTiPbZd2NqjXzKwidSwTXNns7yVrusmxLmnaNzAnh1yUw" ] },
      { "delegate": "tz1aRoaRhSpRYvFdyvgWLL6TGyRoGF51wDjM",
        "reception_time": "2022-01-18T13:32:57.545-00:00",
        "included_in_blocks":
          [ "BMRf4dZTiPbZd2NqjXzKwidSwTXNns7yVrusmxLmnaNzAnh1yUw" ] },
      { "delegate": "tz1Nf6tsK4G6bBqgSQERy4nUtkHNKUVdh7q1",
        "reception_time": "2022-01-18T13:32:57.417-00:00",
        "included_in_blocks":
          [ "BMRf4dZTiPbZd2NqjXzKwidSwTXNns7yVrusmxLmnaNzAnh1yUw" ] },
      { "delegate": "tz1PeZx7FXy7QRuMREGXGxeipb24RsMMzUNe",
        "reception_time": "2022-01-18T13:32:57.441-00:00",
        "included_in_blocks":
          [ "BMRf4dZTiPbZd2NqjXzKwidSwTXNns7yVrusmxLmnaNzAnh1yUw" ] },
      { "delegate": "tz3gLTu4Yxj8tPAcriQVUdxv6BY9QyvzU1az",
        "reception_time": "2022-01-18T13:32:57.342-00:00",
        "included_in_blocks":
          [ "BMRf4dZTiPbZd2NqjXzKwidSwTXNns7yVrusmxLmnaNzAnh1yUw" ] },
      { "delegate": "tz1fwnfJNgiDACshK9avfRfFbMaXrs3ghoJa",
        "reception_time": "2022-01-18T13:32:57.346-00:00",
        "included_in_blocks":
          [ "BMRf4dZTiPbZd2NqjXzKwidSwTXNns7yVrusmxLmnaNzAnh1yUw" ] },
      { "delegate": "tz1KfEsrtDaA1sX7vdM4qmEPWuSytuqCDp5j",
        "reception_time": "2022-01-18T13:32:57.361-00:00",
        "included_in_blocks":
          [ "BMRf4dZTiPbZd2NqjXzKwidSwTXNns7yVrusmxLmnaNzAnh1yUw" ] },
      { "delegate": "tz1abmz7jiCV2GH2u81LRrGgAFFgvQgiDiaf",
        "reception_time": "2022-01-18T13:32:57.228-00:00",
        "included_in_blocks":
          [ "BMRf4dZTiPbZd2NqjXzKwidSwTXNns7yVrusmxLmnaNzAnh1yUw" ] },
      { "delegate": "tz1SUgyRB8T5jXgXAwS33pgRHAKrafyg87Yc",
        "reception_time": "2022-01-18T13:32:57.197-00:00",
        "included_in_blocks":
          [ "BMRf4dZTiPbZd2NqjXzKwidSwTXNns7yVrusmxLmnaNzAnh1yUw" ] },
      { "delegate": "tz1LmaFsWRkjr7QMCx5PtV6xTUz3AmEpKQiF",
        "reception_time": "2022-01-18T13:32:57.232-00:00",
        "included_in_blocks":
          [ "BMRf4dZTiPbZd2NqjXzKwidSwTXNns7yVrusmxLmnaNzAnh1yUw" ] },
      { "delegate": "tz2FCNBrERXtaTtNX6iimR1UJ5JSDxvdHM93",
        "reception_time": "2022-01-18T13:32:57.080-00:00",
        "included_in_blocks":
          [ "BMRf4dZTiPbZd2NqjXzKwidSwTXNns7yVrusmxLmnaNzAnh1yUw" ] },
      { "delegate": "tz1LYW7Yepo9qsQx2kjpek2RYVMCeGwBvDCQ",
        "reception_time": "2022-01-18T13:32:57.085-00:00",
        "included_in_blocks":
          [ "BMRf4dZTiPbZd2NqjXzKwidSwTXNns7yVrusmxLmnaNzAnh1yUw" ] },
      { "delegate": "tz1ei4WtWEMEJekSv8qDnu9PExG6Q8HgRGr3",
        "reception_time": "2022-01-18T13:32:57.071-00:00",
        "included_in_blocks":
          [ "BMRf4dZTiPbZd2NqjXzKwidSwTXNns7yVrusmxLmnaNzAnh1yUw" ] },
      { "delegate": "tz1MQJPGNMijnXnVoBENFz9rUhaPt3S7rWoz",
        "reception_time": "2022-01-18T13:32:57.027-00:00",
        "included_in_blocks":
          [ "BMRf4dZTiPbZd2NqjXzKwidSwTXNns7yVrusmxLmnaNzAnh1yUw" ] },
      { "delegate": "tz1SYq214SCBy9naR6cvycQsYcUGpBqQAE8d",
        "reception_time": "2022-01-18T13:32:57.042-00:00",
        "included_in_blocks":
          [ "BMRf4dZTiPbZd2NqjXzKwidSwTXNns7yVrusmxLmnaNzAnh1yUw" ] },
      { "delegate": "tz1NortRftucvAkD1J58L32EhSVrQEWJCEnB",
        "reception_time": "2022-01-18T13:32:56.908-00:00",
        "included_in_blocks":
          [ "BMRf4dZTiPbZd2NqjXzKwidSwTXNns7yVrusmxLmnaNzAnh1yUw" ] },
      { "delegate": "tz1dNVDWPf3Q59SdJqnjdnu277iyvReiRS9M",
        "reception_time": "2022-01-18T13:32:56.989-00:00",
        "included_in_blocks":
          [ "BMRf4dZTiPbZd2NqjXzKwidSwTXNns7yVrusmxLmnaNzAnh1yUw" ] },
      { "delegate": "tz1fPKAtsYydh4f1wfWNfeNxWYu72TmM48fu",
        "reception_time": "2022-01-18T13:32:56.754-00:00",
        "included_in_blocks":
          [ "BMRf4dZTiPbZd2NqjXzKwidSwTXNns7yVrusmxLmnaNzAnh1yUw" ] },
      { "delegate": "tz1fb7c66UwePkkfDXz4ajFaBP9hVNLdS7JJ",
        "reception_time": "2022-01-18T13:32:56.643-00:00",
        "included_in_blocks":
          [ "BMRf4dZTiPbZd2NqjXzKwidSwTXNns7yVrusmxLmnaNzAnh1yUw" ] },
      { "delegate": "tz1S8MNvuFEUsWgjHvi3AxibRBf388NhT1q2",
        "reception_time": "2022-01-18T13:32:56.613-00:00",
        "included_in_blocks":
          [ "BMRf4dZTiPbZd2NqjXzKwidSwTXNns7yVrusmxLmnaNzAnh1yUw" ] },
      { "delegate": "tz3bTdwZinP8U1JmSweNzVKhmwafqWmFWRfk",
        "reception_time": "2022-01-18T13:32:56.631-00:00",
        "included_in_blocks":
          [ "BMRf4dZTiPbZd2NqjXzKwidSwTXNns7yVrusmxLmnaNzAnh1yUw" ] },
      { "delegate": "tz1VmiY38m3y95HqQLjMwqnMS7sdMfGomzKi",
        "reception_time": "2022-01-18T13:32:56.639-00:00",
        "included_in_blocks":
          [ "BMRf4dZTiPbZd2NqjXzKwidSwTXNns7yVrusmxLmnaNzAnh1yUw" ] },
      { "delegate": "tz1RCFbB9GpALpsZtu6J58sb74dm8qe6XBzv",
        "reception_time": "2022-01-18T13:32:56.671-00:00",
        "included_in_blocks":
          [ "BMRf4dZTiPbZd2NqjXzKwidSwTXNns7yVrusmxLmnaNzAnh1yUw" ] },
      { "delegate": "tz1gfArv665EUkSg2ojMBzcbfwuPxAvqPvjo",
        "reception_time": "2022-01-18T13:32:56.428-00:00",
        "included_in_blocks":
          [ "BMRf4dZTiPbZd2NqjXzKwidSwTXNns7yVrusmxLmnaNzAnh1yUw" ] },
      { "delegate": "tz3bvNMQ95vfAYtG8193ymshqjSvmxiCUuR5",
        "reception_time": "2022-01-18T13:32:56.619-00:00",
        "included_in_blocks":
          [ "BMRf4dZTiPbZd2NqjXzKwidSwTXNns7yVrusmxLmnaNzAnh1yUw" ] },
      { "delegate": "tz3RDC3Jdn4j15J7bBHZd29EUee9gVB1CxD9",
        "reception_time": "2022-01-18T13:32:56.547-00:00",
        "included_in_blocks":
          [ "BMRf4dZTiPbZd2NqjXzKwidSwTXNns7yVrusmxLmnaNzAnh1yUw" ] },
      { "delegate": "tz1VQnqCCqX4K5sP3FNkVSNKTdCAMJDd3E1n",
        "reception_time": "2022-01-18T13:32:56.402-00:00",
        "included_in_blocks":
          [ "BMRf4dZTiPbZd2NqjXzKwidSwTXNns7yVrusmxLmnaNzAnh1yUw" ] },
      { "delegate": "tz1gUNyn3hmnEWqkusWPzxRaon1cs7ndWh7h",
        "reception_time": "2022-01-18T13:32:56.368-00:00",
        "included_in_blocks":
          [ "BMRf4dZTiPbZd2NqjXzKwidSwTXNns7yVrusmxLmnaNzAnh1yUw" ] },
      { "delegate": "tz1cSj7fTex3JPd1p1LN1fwek6AV1kH93Wwc",
        "reception_time": "2022-01-18T13:32:56.285-00:00",
        "included_in_blocks":
          [ "BMRf4dZTiPbZd2NqjXzKwidSwTXNns7yVrusmxLmnaNzAnh1yUw" ] },
      { "delegate": "tz1WnfXMPaNTBmH7DBPwqCWs9cPDJdkGBTZ8",
        "reception_time": "2022-01-18T13:32:56.321-00:00",
        "included_in_blocks":
          [ "BMRf4dZTiPbZd2NqjXzKwidSwTXNns7yVrusmxLmnaNzAnh1yUw" ] },
      { "delegate": "tz1WCd2jm4uSt4vntk4vSuUWoZQGhLcDuR9q",
        "reception_time": "2022-01-18T13:32:56.315-00:00",
        "included_in_blocks":
          [ "BMRf4dZTiPbZd2NqjXzKwidSwTXNns7yVrusmxLmnaNzAnh1yUw" ] },
      { "delegate": "tz3e7LbZvUtoXhpUD1yb6wuFodZpfYRb9nWJ",
        "reception_time": "2022-01-18T13:32:56.344-00:00",
        "included_in_blocks":
          [ "BMRf4dZTiPbZd2NqjXzKwidSwTXNns7yVrusmxLmnaNzAnh1yUw" ] },
      { "delegate": "tz3QT9dHYKDqh563chVa6za8526ys1UKfRfL",
        "reception_time": "2022-01-18T13:32:56.245-00:00",
        "included_in_blocks":
          [ "BMRf4dZTiPbZd2NqjXzKwidSwTXNns7yVrusmxLmnaNzAnh1yUw" ] },
      { "delegate": "tz3adcvQaKXTCg12zbninqo3q8ptKKtDFTLv",
        "reception_time": "2022-01-18T13:32:56.221-00:00",
        "included_in_blocks":
          [ "BMRf4dZTiPbZd2NqjXzKwidSwTXNns7yVrusmxLmnaNzAnh1yUw" ] },
      { "delegate": "tz3iJu5vrKZcsqRPs8yJ61UDoeEXZmtro4qh",
        "reception_time": "2022-01-18T13:32:56.182-00:00",
        "included_in_blocks":
          [ "BMRf4dZTiPbZd2NqjXzKwidSwTXNns7yVrusmxLmnaNzAnh1yUw" ] },
      { "delegate": "tz3S6BBeKgJGXxvLyZ1xzXzMPn11nnFtq5L9",
        "reception_time": "2022-01-18T13:32:56.267-00:00",
        "included_in_blocks":
          [ "BMRf4dZTiPbZd2NqjXzKwidSwTXNns7yVrusmxLmnaNzAnh1yUw" ] },
      { "delegate": "tz1h4GUAMweP7SNWzDgvMk3yRCAZyaP1MxZq",
        "reception_time": "2022-01-18T13:32:56.175-00:00",
        "included_in_blocks":
          [ "BMRf4dZTiPbZd2NqjXzKwidSwTXNns7yVrusmxLmnaNzAnh1yUw" ] },
      { "delegate": "tz3RKYFsLuQzKBtmYuLNas7uMu3AsYd4QdsA",
        "reception_time": "2022-01-18T13:32:56.118-00:00",
        "included_in_blocks":
          [ "BMRf4dZTiPbZd2NqjXzKwidSwTXNns7yVrusmxLmnaNzAnh1yUw" ] },
      { "delegate": "tz3hw2kqXhLUvY65ca1eety2oQTpAvd34R9Q",
        "reception_time": "2022-01-18T13:32:56.170-00:00",
        "included_in_blocks":
          [ "BMRf4dZTiPbZd2NqjXzKwidSwTXNns7yVrusmxLmnaNzAnh1yUw" ] },
      { "delegate": "tz3Zhs2dygr55yHyQyKjntAtY9bgfhLZ4Xj1",
        "reception_time": "2022-01-18T13:32:56.170-00:00",
        "included_in_blocks":
          [ "BMRf4dZTiPbZd2NqjXzKwidSwTXNns7yVrusmxLmnaNzAnh1yUw" ] },
      { "delegate": "tz1Ldzz6k1BHdhuKvAtMRX7h5kJSMHESMHLC",
        "reception_time": "2022-01-18T13:32:56.152-00:00",
        "included_in_blocks":
          [ "BMRf4dZTiPbZd2NqjXzKwidSwTXNns7yVrusmxLmnaNzAnh1yUw" ] },
      { "delegate": "tz1aXD7Jigrt3PBYSpHSg5Rr33SexMmmM5Ys",
        "reception_time": "2022-01-18T13:32:56.155-00:00",
        "included_in_blocks":
          [ "BMRf4dZTiPbZd2NqjXzKwidSwTXNns7yVrusmxLmnaNzAnh1yUw" ] },
      { "delegate": "tz3gtoUxdudfBRcNY7iVdKPHCYYX6xdPpoRS",
        "reception_time": "2022-01-18T13:32:56.027-00:00",
        "included_in_blocks":
          [ "BMRf4dZTiPbZd2NqjXzKwidSwTXNns7yVrusmxLmnaNzAnh1yUw" ] },
      { "delegate": "tz1ZPh7XfUaJXUDvkrBxmS1BjEM1i62hiPpM",
        "reception_time": "2022-01-18T13:32:56.039-00:00",
        "included_in_blocks":
          [ "BMRf4dZTiPbZd2NqjXzKwidSwTXNns7yVrusmxLmnaNzAnh1yUw" ] },
      { "delegate": "tz3NxTnke1acr8o3h5y9ytf5awQBGNJUKzVU",
        "reception_time": "2022-01-18T13:32:56.019-00:00",
        "included_in_blocks":
          [ "BMRf4dZTiPbZd2NqjXzKwidSwTXNns7yVrusmxLmnaNzAnh1yUw" ] },
      { "delegate": "tz3QSGPoRp3Kn7n3vY24eYeu3Peuqo45LQ4D",
        "reception_time": "2022-01-18T13:32:56.047-00:00",
        "included_in_blocks":
          [ "BMRf4dZTiPbZd2NqjXzKwidSwTXNns7yVrusmxLmnaNzAnh1yUw" ] },
      { "delegate": "tz3ZbP2pM3nwvXztbuMJwJnDvV5xdpU8UkkD",
        "reception_time": "2022-01-18T13:32:56.056-00:00",
        "included_in_blocks":
          [ "BMRf4dZTiPbZd2NqjXzKwidSwTXNns7yVrusmxLmnaNzAnh1yUw" ] },
      { "delegate": "tz1irJKkXS2DBWkU1NnmFQx1c1L7pbGg4yhk",
        "reception_time": "2022-01-18T13:32:56.188-00:00",
        "included_in_blocks":
          [ "BMRf4dZTiPbZd2NqjXzKwidSwTXNns7yVrusmxLmnaNzAnh1yUw" ] },
      { "delegate": "tz3QCNyySViKHmeSr45kzDxzchys7NiXCWoa",
        "reception_time": "2022-01-18T13:32:56.038-00:00",
        "included_in_blocks":
          [ "BMRf4dZTiPbZd2NqjXzKwidSwTXNns7yVrusmxLmnaNzAnh1yUw" ] },
      { "delegate": "tz1bsdrs36X5BTH83RHUBdUouKLJZK8d2oBa",
        "reception_time": "2022-01-18T13:32:56.059-00:00",
        "included_in_blocks":
          [ "BMRf4dZTiPbZd2NqjXzKwidSwTXNns7yVrusmxLmnaNzAnh1yUw" ] },
      { "delegate": "tz1TRspM5SeZpaQUhzByXbEvqKF1vnCM2YTK",
        "reception_time": "2022-01-18T13:32:56.067-00:00",
        "included_in_blocks":
          [ "BMRf4dZTiPbZd2NqjXzKwidSwTXNns7yVrusmxLmnaNzAnh1yUw" ] },
      { "delegate": "tz1dbfppLAAxXZNtf2SDps7rch3qfUznKSoK",
        "reception_time": "2022-01-18T13:32:56.030-00:00",
        "included_in_blocks":
          [ "BMRf4dZTiPbZd2NqjXzKwidSwTXNns7yVrusmxLmnaNzAnh1yUw" ] },
      { "delegate": "tz1LLNkQK4UQV6QcFShiXJ2vT2ELw449MzAA",
        "reception_time": "2022-01-18T13:32:56.097-00:00",
        "included_in_blocks":
          [ "BMRf4dZTiPbZd2NqjXzKwidSwTXNns7yVrusmxLmnaNzAnh1yUw" ] },
      { "delegate": "tz1eEnQhbwf6trb8Q8mPb2RaPkNk2rN7BKi8",
        "reception_time": "2022-01-18T13:32:55.977-00:00",
        "included_in_blocks":
          [ "BMRf4dZTiPbZd2NqjXzKwidSwTXNns7yVrusmxLmnaNzAnh1yUw" ] },
      { "delegate": "tz1STeamwbp68THcny9zk3LsbG3H36DMvbRK",
        "reception_time": "2022-01-18T13:32:55.987-00:00",
        "included_in_blocks":
          [ "BMRf4dZTiPbZd2NqjXzKwidSwTXNns7yVrusmxLmnaNzAnh1yUw" ] },
      { "delegate": "tz1P2Po7YM526ughEsRbY4oR9zaUPDZjxFrb",
        "reception_time": "2022-01-18T13:32:55.994-00:00",
        "included_in_blocks":
          [ "BMRf4dZTiPbZd2NqjXzKwidSwTXNns7yVrusmxLmnaNzAnh1yUw" ] } ] }