{ "blocks":
    [ { "hash": "BMSPWzHAfkDpHtpmPabYCsP1qg8AVDzJfMtwcj2LBFVnvPiTazk",
        "delegate": "tz1SohptP53wDPZhzTWzDUFAUcWF6DMBpaJV",
        "reception_time": "2022-01-18T14:08:03.558-00:00",
        "timestamp": "2022-01-18T14:07:50Z" } ],
  "endorsements":
    [ { "delegate": "tz1bTpviNnyx2PXsNmGpCQTMQsGoYordkUoA",
        "reception_time": "2022-01-18T14:08:08.072-00:00",
        "included_in_blocks":
          [ "BMG8ukG9fgYVtz7rHNBqQktrjf4p6tzrAGRw7me6DrM4hJqxfQf" ] },
      { "delegate": "tz1f3Re8iw6Pt3KMHAvyccHxDU3NuqL95axD",
        "reception_time": "2022-01-18T14:08:07.706-00:00",
        "included_in_blocks":
          [ "BMG8ukG9fgYVtz7rHNBqQktrjf4p6tzrAGRw7me6DrM4hJqxfQf" ] },
      { "delegate": "tz1inEhztXuPdCF81YHomPrFaAVa514HDZXH",
        "reception_time": "2022-01-18T14:08:07.661-00:00",
        "included_in_blocks":
          [ "BMG8ukG9fgYVtz7rHNBqQktrjf4p6tzrAGRw7me6DrM4hJqxfQf" ] },
      { "delegate": "tz1ZcTRk5uxD86EFEn1vvNffWWqJy7q5eVhc",
        "reception_time": "2022-01-18T14:08:07.469-00:00",
        "included_in_blocks":
          [ "BMG8ukG9fgYVtz7rHNBqQktrjf4p6tzrAGRw7me6DrM4hJqxfQf" ] },
      { "delegate": "tz1Q1GmjPwVxjxn81WMHmzdoFGjQDnw691b2",
        "reception_time": "2022-01-18T14:08:07.421-00:00",
        "included_in_blocks":
          [ "BMG8ukG9fgYVtz7rHNBqQktrjf4p6tzrAGRw7me6DrM4hJqxfQf" ] },
      { "delegate": "tz1awXW7wuXy21c66vBudMXQVAPgRnqqwgTH",
        "reception_time": "2022-01-18T14:08:07.415-00:00",
        "included_in_blocks":
          [ "BMG8ukG9fgYVtz7rHNBqQktrjf4p6tzrAGRw7me6DrM4hJqxfQf" ] },
      { "delegate": "tz3NExpXn9aPNZPorRE4SdjJ2RGrfbJgMAaV",
        "reception_time": "2022-01-18T14:08:07.329-00:00",
        "included_in_blocks":
          [ "BMG8ukG9fgYVtz7rHNBqQktrjf4p6tzrAGRw7me6DrM4hJqxfQf" ] },
      { "delegate": "tz1PFeoTuFen8jAMRHajBySNyCwLmY5RqF9M",
        "reception_time": "2022-01-18T14:08:07.092-00:00",
        "included_in_blocks":
          [ "BMG8ukG9fgYVtz7rHNBqQktrjf4p6tzrAGRw7me6DrM4hJqxfQf" ] },
      { "delegate": "tz1ivoFEvbfbUNav5FwLvmxzMGcNXWxY9qTD",
        "reception_time": "2022-01-18T14:08:06.964-00:00",
        "included_in_blocks":
          [ "BMG8ukG9fgYVtz7rHNBqQktrjf4p6tzrAGRw7me6DrM4hJqxfQf" ] },
      { "delegate": "tz3RB4aoyjov4KEVRbuhvQ1CKJgBJMWhaeB8",
        "reception_time": "2022-01-18T14:08:06.945-00:00",
        "included_in_blocks":
          [ "BMG8ukG9fgYVtz7rHNBqQktrjf4p6tzrAGRw7me6DrM4hJqxfQf" ] },
      { "delegate": "tz1Xsrfv6hn86fp88YfRs6xcKwt2nTqxVZYM",
        "reception_time": "2022-01-18T14:08:06.781-00:00",
        "included_in_blocks":
          [ "BMG8ukG9fgYVtz7rHNBqQktrjf4p6tzrAGRw7me6DrM4hJqxfQf" ] },
      { "delegate": "tz1dRKU4FQ9QRRQPdaH4zCR6gmCmXfcvcgtB",
        "reception_time": "2022-01-18T14:08:06.629-00:00",
        "included_in_blocks":
          [ "BMG8ukG9fgYVtz7rHNBqQktrjf4p6tzrAGRw7me6DrM4hJqxfQf" ] },
      { "delegate": "tz1SYq214SCBy9naR6cvycQsYcUGpBqQAE8d",
        "reception_time": "2022-01-18T14:08:06.465-00:00",
        "included_in_blocks":
          [ "BMG8ukG9fgYVtz7rHNBqQktrjf4p6tzrAGRw7me6DrM4hJqxfQf" ] },
      { "delegate": "tz1aRoaRhSpRYvFdyvgWLL6TGyRoGF51wDjM",
        "reception_time": "2022-01-18T14:08:06.290-00:00",
        "included_in_blocks":
          [ "BMG8ukG9fgYVtz7rHNBqQktrjf4p6tzrAGRw7me6DrM4hJqxfQf" ] },
      { "delegate": "tz3bvNMQ95vfAYtG8193ymshqjSvmxiCUuR5",
        "reception_time": "2022-01-18T14:08:06.318-00:00",
        "included_in_blocks":
          [ "BMG8ukG9fgYVtz7rHNBqQktrjf4p6tzrAGRw7me6DrM4hJqxfQf" ] },
      { "delegate": "tz2FCNBrERXtaTtNX6iimR1UJ5JSDxvdHM93",
        "reception_time": "2022-01-18T14:08:06.181-00:00",
        "included_in_blocks":
          [ "BMG8ukG9fgYVtz7rHNBqQktrjf4p6tzrAGRw7me6DrM4hJqxfQf" ] },
      { "delegate": "tz3UoffC7FG7zfpmvmjUmUeAaHvzdcUvAj6r",
        "reception_time": "2022-01-18T14:08:06.160-00:00",
        "included_in_blocks":
          [ "BMG8ukG9fgYVtz7rHNBqQktrjf4p6tzrAGRw7me6DrM4hJqxfQf" ] },
      { "delegate": "tz1fwnfJNgiDACshK9avfRfFbMaXrs3ghoJa",
        "reception_time": "2022-01-18T14:08:06.203-00:00",
        "included_in_blocks":
          [ "BMG8ukG9fgYVtz7rHNBqQktrjf4p6tzrAGRw7me6DrM4hJqxfQf" ] },
      { "delegate": "tz3VEZ4k6a4Wx42iyev6i2aVAptTRLEAivNN",
        "reception_time": "2022-01-18T14:08:06.169-00:00",
        "included_in_blocks":
          [ "BMG8ukG9fgYVtz7rHNBqQktrjf4p6tzrAGRw7me6DrM4hJqxfQf" ] },
      { "delegate": "tz3WMqdzXqRWXwyvj5Hp2H7QEepaUuS7vd9K",
        "reception_time": "2022-01-18T14:08:06.129-00:00",
        "included_in_blocks":
          [ "BMG8ukG9fgYVtz7rHNBqQktrjf4p6tzrAGRw7me6DrM4hJqxfQf" ] },
      { "delegate": "tz1T7duV5gZWSTq4YpBGbXNLTfznCLDrFxvs",
        "reception_time": "2022-01-18T14:08:06.187-00:00",
        "included_in_blocks":
          [ "BMG8ukG9fgYVtz7rHNBqQktrjf4p6tzrAGRw7me6DrM4hJqxfQf" ] },
      { "delegate": "tz1PeZx7FXy7QRuMREGXGxeipb24RsMMzUNe",
        "reception_time": "2022-01-18T14:08:06.065-00:00",
        "included_in_blocks":
          [ "BMG8ukG9fgYVtz7rHNBqQktrjf4p6tzrAGRw7me6DrM4hJqxfQf" ] },
      { "delegate": "tz1KfEsrtDaA1sX7vdM4qmEPWuSytuqCDp5j",
        "reception_time": "2022-01-18T14:08:06.209-00:00",
        "included_in_blocks":
          [ "BMG8ukG9fgYVtz7rHNBqQktrjf4p6tzrAGRw7me6DrM4hJqxfQf" ] },
      { "delegate": "tz1iEWcNL383qiDJ3Q3qt5W2T4aSKUbEU4An",
        "reception_time": "2022-01-18T14:08:06.103-00:00",
        "included_in_blocks":
          [ "BMG8ukG9fgYVtz7rHNBqQktrjf4p6tzrAGRw7me6DrM4hJqxfQf" ] },
      { "delegate": "tz1TRqbYbUf2GyrjErf3hBzgBJPzW8y36qEs",
        "reception_time": "2022-01-18T14:08:06.129-00:00",
        "included_in_blocks":
          [ "BMG8ukG9fgYVtz7rHNBqQktrjf4p6tzrAGRw7me6DrM4hJqxfQf" ] },
      { "delegate": "tz3gLTu4Yxj8tPAcriQVUdxv6BY9QyvzU1az",
        "reception_time": "2022-01-18T14:08:06.014-00:00",
        "included_in_blocks":
          [ "BMG8ukG9fgYVtz7rHNBqQktrjf4p6tzrAGRw7me6DrM4hJqxfQf" ] },
      { "delegate": "tz1NEKxGEHsFufk87CVZcrqWu8o22qh46GK6",
        "reception_time": "2022-01-18T14:08:06.019-00:00",
        "included_in_blocks":
          [ "BMG8ukG9fgYVtz7rHNBqQktrjf4p6tzrAGRw7me6DrM4hJqxfQf" ] },
      { "delegate": "tz3NDpRj6WBrJPikcPVHRBEjWKxFw3c6eQPS",
        "reception_time": "2022-01-18T14:08:05.876-00:00",
        "included_in_blocks":
          [ "BMG8ukG9fgYVtz7rHNBqQktrjf4p6tzrAGRw7me6DrM4hJqxfQf" ] },
      { "delegate": "tz1TEc75UKXv4W5cwi14Na3NtqFD51yKQi7h",
        "reception_time": "2022-01-18T14:08:05.706-00:00",
        "included_in_blocks":
          [ "BMG8ukG9fgYVtz7rHNBqQktrjf4p6tzrAGRw7me6DrM4hJqxfQf" ] },
      { "delegate": "tz1Nf6tsK4G6bBqgSQERy4nUtkHNKUVdh7q1",
        "reception_time": "2022-01-18T14:08:05.611-00:00",
        "included_in_blocks":
          [ "BMG8ukG9fgYVtz7rHNBqQktrjf4p6tzrAGRw7me6DrM4hJqxfQf" ] },
      { "delegate": "tz1ei4WtWEMEJekSv8qDnu9PExG6Q8HgRGr3",
        "reception_time": "2022-01-18T14:08:05.353-00:00",
        "included_in_blocks":
          [ "BMG8ukG9fgYVtz7rHNBqQktrjf4p6tzrAGRw7me6DrM4hJqxfQf" ] },
      { "delegate": "tz1dNVDWPf3Q59SdJqnjdnu277iyvReiRS9M",
        "reception_time": "2022-01-18T14:08:05.463-00:00",
        "included_in_blocks":
          [ "BMG8ukG9fgYVtz7rHNBqQktrjf4p6tzrAGRw7me6DrM4hJqxfQf" ] },
      { "delegate": "tz3RDC3Jdn4j15J7bBHZd29EUee9gVB1CxD9",
        "reception_time": "2022-01-18T14:08:05.303-00:00",
        "included_in_blocks":
          [ "BMG8ukG9fgYVtz7rHNBqQktrjf4p6tzrAGRw7me6DrM4hJqxfQf" ] },
      { "delegate": "tz1V4qCyvPKZ5UeqdH14HN42rxvNPQfc9UZg",
        "reception_time": "2022-01-18T14:08:05.198-00:00",
        "included_in_blocks":
          [ "BMG8ukG9fgYVtz7rHNBqQktrjf4p6tzrAGRw7me6DrM4hJqxfQf" ] },
      { "delegate": "tz1g8vkmcde6sWKaG2NN9WKzCkDM6Rziq194",
        "reception_time": "2022-01-18T14:08:05.200-00:00",
        "included_in_blocks":
          [ "BMG8ukG9fgYVtz7rHNBqQktrjf4p6tzrAGRw7me6DrM4hJqxfQf" ] },
      { "delegate": "tz3bTdwZinP8U1JmSweNzVKhmwafqWmFWRfk",
        "reception_time": "2022-01-18T14:08:05.181-00:00",
        "included_in_blocks":
          [ "BMG8ukG9fgYVtz7rHNBqQktrjf4p6tzrAGRw7me6DrM4hJqxfQf" ] },
      { "delegate": "tz1PWCDnz783NNGGQjEFFsHtrcK5yBW4E2rm",
        "reception_time": "2022-01-18T14:08:05.224-00:00",
        "included_in_blocks":
          [ "BMG8ukG9fgYVtz7rHNBqQktrjf4p6tzrAGRw7me6DrM4hJqxfQf" ] },
      { "delegate": "tz1S8MNvuFEUsWgjHvi3AxibRBf388NhT1q2",
        "reception_time": "2022-01-18T14:08:05.122-00:00",
        "included_in_blocks":
          [ "BMG8ukG9fgYVtz7rHNBqQktrjf4p6tzrAGRw7me6DrM4hJqxfQf" ] },
      { "delegate": "tz1SUgyRB8T5jXgXAwS33pgRHAKrafyg87Yc",
        "reception_time": "2022-01-18T14:08:05.190-00:00",
        "included_in_blocks":
          [ "BMG8ukG9fgYVtz7rHNBqQktrjf4p6tzrAGRw7me6DrM4hJqxfQf" ] },
      { "delegate": "tz1RCFbB9GpALpsZtu6J58sb74dm8qe6XBzv",
        "reception_time": "2022-01-18T14:08:05.111-00:00",
        "included_in_blocks":
          [ "BMG8ukG9fgYVtz7rHNBqQktrjf4p6tzrAGRw7me6DrM4hJqxfQf" ] },
      { "delegate": "tz1TzaNn7wSQSP5gYPXCnNzBCpyMiidCq1PX",
        "reception_time": "2022-01-18T14:08:05.103-00:00",
        "included_in_blocks":
          [ "BMG8ukG9fgYVtz7rHNBqQktrjf4p6tzrAGRw7me6DrM4hJqxfQf" ] },
      { "delegate": "tz1MQJPGNMijnXnVoBENFz9rUhaPt3S7rWoz",
        "reception_time": "2022-01-18T14:08:05.174-00:00",
        "included_in_blocks":
          [ "BMG8ukG9fgYVtz7rHNBqQktrjf4p6tzrAGRw7me6DrM4hJqxfQf" ] },
      { "delegate": "tz1cSj7fTex3JPd1p1LN1fwek6AV1kH93Wwc",
        "reception_time": "2022-01-18T14:08:05.008-00:00",
        "included_in_blocks":
          [ "BMG8ukG9fgYVtz7rHNBqQktrjf4p6tzrAGRw7me6DrM4hJqxfQf" ] },
      { "delegate": "tz1gfArv665EUkSg2ojMBzcbfwuPxAvqPvjo",
        "reception_time": "2022-01-18T14:08:05.114-00:00",
        "included_in_blocks":
          [ "BMG8ukG9fgYVtz7rHNBqQktrjf4p6tzrAGRw7me6DrM4hJqxfQf" ] },
      { "delegate": "tz1d6Fx42mYgVFnHUW8T8A7WBfJ6nD9pVok8",
        "reception_time": "2022-01-18T14:08:05.037-00:00",
        "included_in_blocks":
          [ "BMG8ukG9fgYVtz7rHNBqQktrjf4p6tzrAGRw7me6DrM4hJqxfQf" ] },
      { "delegate": "tz1WCd2jm4uSt4vntk4vSuUWoZQGhLcDuR9q",
        "reception_time": "2022-01-18T14:08:05.033-00:00",
        "included_in_blocks":
          [ "BMG8ukG9fgYVtz7rHNBqQktrjf4p6tzrAGRw7me6DrM4hJqxfQf" ] },
      { "delegate": "tz1QLXqnfN51dkjeghXvKHkJfhvGiM5gK4tc",
        "reception_time": "2022-01-18T14:08:05.022-00:00",
        "included_in_blocks":
          [ "BMG8ukG9fgYVtz7rHNBqQktrjf4p6tzrAGRw7me6DrM4hJqxfQf" ] },
      { "delegate": "tz3iJu5vrKZcsqRPs8yJ61UDoeEXZmtro4qh",
        "reception_time": "2022-01-18T14:08:04.894-00:00",
        "included_in_blocks":
          [ "BMG8ukG9fgYVtz7rHNBqQktrjf4p6tzrAGRw7me6DrM4hJqxfQf" ] },
      { "delegate": "tz3QSGPoRp3Kn7n3vY24eYeu3Peuqo45LQ4D",
        "reception_time": "2022-01-18T14:08:04.931-00:00",
        "included_in_blocks":
          [ "BMG8ukG9fgYVtz7rHNBqQktrjf4p6tzrAGRw7me6DrM4hJqxfQf" ] },
      { "delegate": "tz3hw2kqXhLUvY65ca1eety2oQTpAvd34R9Q",
        "reception_time": "2022-01-18T14:08:04.910-00:00",
        "included_in_blocks":
          [ "BMG8ukG9fgYVtz7rHNBqQktrjf4p6tzrAGRw7me6DrM4hJqxfQf" ] },
      { "delegate": "tz3gtoUxdudfBRcNY7iVdKPHCYYX6xdPpoRS",
        "reception_time": "2022-01-18T14:08:04.922-00:00",
        "included_in_blocks":
          [ "BMG8ukG9fgYVtz7rHNBqQktrjf4p6tzrAGRw7me6DrM4hJqxfQf" ] },
      { "delegate": "tz3Zhs2dygr55yHyQyKjntAtY9bgfhLZ4Xj1",
        "reception_time": "2022-01-18T14:08:04.887-00:00",
        "included_in_blocks":
          [ "BMG8ukG9fgYVtz7rHNBqQktrjf4p6tzrAGRw7me6DrM4hJqxfQf" ] },
      { "delegate": "tz3QT9dHYKDqh563chVa6za8526ys1UKfRfL",
        "reception_time": "2022-01-18T14:08:04.946-00:00",
        "included_in_blocks":
          [ "BMG8ukG9fgYVtz7rHNBqQktrjf4p6tzrAGRw7me6DrM4hJqxfQf" ] },
      { "delegate": "tz3RKYFsLuQzKBtmYuLNas7uMu3AsYd4QdsA",
        "reception_time": "2022-01-18T14:08:05.005-00:00",
        "included_in_blocks":
          [ "BMG8ukG9fgYVtz7rHNBqQktrjf4p6tzrAGRw7me6DrM4hJqxfQf" ] },
      { "delegate": "tz1gUNyn3hmnEWqkusWPzxRaon1cs7ndWh7h",
        "reception_time": "2022-01-18T14:08:04.913-00:00",
        "included_in_blocks":
          [ "BMG8ukG9fgYVtz7rHNBqQktrjf4p6tzrAGRw7me6DrM4hJqxfQf" ] },
      { "delegate": "tz1Ldzz6k1BHdhuKvAtMRX7h5kJSMHESMHLC",
        "reception_time": "2022-01-18T14:08:04.966-00:00",
        "included_in_blocks":
          [ "BMG8ukG9fgYVtz7rHNBqQktrjf4p6tzrAGRw7me6DrM4hJqxfQf" ] },
      { "delegate": "tz1VQnqCCqX4K5sP3FNkVSNKTdCAMJDd3E1n",
        "reception_time": "2022-01-18T14:08:05.026-00:00",
        "included_in_blocks":
          [ "BMG8ukG9fgYVtz7rHNBqQktrjf4p6tzrAGRw7me6DrM4hJqxfQf" ] },
      { "delegate": "tz3ZbP2pM3nwvXztbuMJwJnDvV5xdpU8UkkD",
        "reception_time": "2022-01-18T14:08:04.978-00:00",
        "included_in_blocks":
          [ "BMG8ukG9fgYVtz7rHNBqQktrjf4p6tzrAGRw7me6DrM4hJqxfQf" ] },
      { "delegate": "tz3NxTnke1acr8o3h5y9ytf5awQBGNJUKzVU",
        "reception_time": "2022-01-18T14:08:04.938-00:00",
        "included_in_blocks":
          [ "BMG8ukG9fgYVtz7rHNBqQktrjf4p6tzrAGRw7me6DrM4hJqxfQf" ] },
      { "delegate": "tz1Kt4P8BCaP93AEV4eA7gmpRryWt5hznjCP",
        "reception_time": "2022-01-18T14:08:04.986-00:00",
        "included_in_blocks":
          [ "BMG8ukG9fgYVtz7rHNBqQktrjf4p6tzrAGRw7me6DrM4hJqxfQf" ] },
      { "delegate": "tz1abmz7jiCV2GH2u81LRrGgAFFgvQgiDiaf",
        "reception_time": "2022-01-18T14:08:04.902-00:00",
        "included_in_blocks":
          [ "BMG8ukG9fgYVtz7rHNBqQktrjf4p6tzrAGRw7me6DrM4hJqxfQf" ] },
      { "delegate": "tz1irJKkXS2DBWkU1NnmFQx1c1L7pbGg4yhk",
        "reception_time": "2022-01-18T14:08:04.922-00:00",
        "included_in_blocks":
          [ "BMG8ukG9fgYVtz7rHNBqQktrjf4p6tzrAGRw7me6DrM4hJqxfQf" ] },
      { "delegate": "tz1Scdr2HsZiQjc7bHMeBbmDRXYVvdhjJbBh",
        "reception_time": "2022-01-18T14:08:04.872-00:00",
        "included_in_blocks":
          [ "BMG8ukG9fgYVtz7rHNBqQktrjf4p6tzrAGRw7me6DrM4hJqxfQf" ] },
      { "delegate": "tz1P2Po7YM526ughEsRbY4oR9zaUPDZjxFrb",
        "reception_time": "2022-01-18T14:08:04.849-00:00",
        "included_in_blocks":
          [ "BMG8ukG9fgYVtz7rHNBqQktrjf4p6tzrAGRw7me6DrM4hJqxfQf" ] },
      { "delegate": "tz1eEnQhbwf6trb8Q8mPb2RaPkNk2rN7BKi8",
        "reception_time": "2022-01-18T14:08:04.853-00:00",
        "included_in_blocks":
          [ "BMG8ukG9fgYVtz7rHNBqQktrjf4p6tzrAGRw7me6DrM4hJqxfQf" ] } ] }