{ "blocks":
    [ { "hash": "BLoT4jpqhr4cQny2NsPvXWYYbp9PMjwL8LNtCSduwLWevTNuYMq",
        "delegate": "tz1gfArv665EUkSg2ojMBzcbfwuPxAvqPvjo",
        "reception_time": "2022-01-18T12:41:55.619-00:00",
        "timestamp": "2022-01-18T12:41:50Z" } ],
  "endorsements":
    [ { "delegate": "tz1gfArv665EUkSg2ojMBzcbfwuPxAvqPvjo",
        "reception_time": "2022-01-18T12:41:55.621-00:00",
        "errors":
          [ { "kind": "temporary",
              "id": "proto.011-PtHangz2.prefilter.outdated_endorsement" } ],
        "included_in_blocks":
          [ "BMYU2YCHCubCafBagqHySLj6QkKa9DsdtvfFZtZfNX8ti8iQueG" ] },
      { "delegate": "tz1P2Po7YM526ughEsRbY4oR9zaUPDZjxFrb",
        "reception_time": "2022-01-18T12:41:56.421-00:00",
        "included_in_blocks":
          [ "BMYU2YCHCubCafBagqHySLj6QkKa9DsdtvfFZtZfNX8ti8iQueG" ] },
      { "delegate": "tz1TXzyaKUA8wsWefdSnyaYFnV2M3vCV7er9",
        "reception_time": "2022-01-18T12:41:56.464-00:00",
        "included_in_blocks":
          [ "BMYU2YCHCubCafBagqHySLj6QkKa9DsdtvfFZtZfNX8ti8iQueG" ] },
      { "delegate": "tz1Kt4P8BCaP93AEV4eA7gmpRryWt5hznjCP",
        "reception_time": "2022-01-18T12:41:56.467-00:00",
        "included_in_blocks":
          [ "BMYU2YCHCubCafBagqHySLj6QkKa9DsdtvfFZtZfNX8ti8iQueG" ] },
      { "delegate": "tz1STeamwbp68THcny9zk3LsbG3H36DMvbRK",
        "reception_time": "2022-01-18T12:41:56.474-00:00",
        "included_in_blocks":
          [ "BMYU2YCHCubCafBagqHySLj6QkKa9DsdtvfFZtZfNX8ti8iQueG" ] },
      { "delegate": "tz1eEnQhbwf6trb8Q8mPb2RaPkNk2rN7BKi8",
        "reception_time": "2022-01-18T12:41:56.481-00:00",
        "included_in_blocks":
          [ "BMYU2YCHCubCafBagqHySLj6QkKa9DsdtvfFZtZfNX8ti8iQueG" ] },
      { "delegate": "tz1TRspM5SeZpaQUhzByXbEvqKF1vnCM2YTK",
        "reception_time": "2022-01-18T12:41:56.487-00:00",
        "included_in_blocks":
          [ "BMYU2YCHCubCafBagqHySLj6QkKa9DsdtvfFZtZfNX8ti8iQueG" ] },
      { "delegate": "tz1irJKkXS2DBWkU1NnmFQx1c1L7pbGg4yhk",
        "reception_time": "2022-01-18T12:41:56.491-00:00",
        "included_in_blocks":
          [ "BMYU2YCHCubCafBagqHySLj6QkKa9DsdtvfFZtZfNX8ti8iQueG" ] },
      { "delegate": "tz1aXD7Jigrt3PBYSpHSg5Rr33SexMmmM5Ys",
        "reception_time": "2022-01-18T12:41:56.502-00:00",
        "included_in_blocks":
          [ "BMYU2YCHCubCafBagqHySLj6QkKa9DsdtvfFZtZfNX8ti8iQueG" ] },
      { "delegate": "tz1VQnqCCqX4K5sP3FNkVSNKTdCAMJDd3E1n",
        "reception_time": "2022-01-18T12:41:56.510-00:00",
        "included_in_blocks":
          [ "BMYU2YCHCubCafBagqHySLj6QkKa9DsdtvfFZtZfNX8ti8iQueG" ] },
      { "delegate": "tz1gUNyn3hmnEWqkusWPzxRaon1cs7ndWh7h",
        "reception_time": "2022-01-18T12:41:56.520-00:00",
        "included_in_blocks":
          [ "BMYU2YCHCubCafBagqHySLj6QkKa9DsdtvfFZtZfNX8ti8iQueG" ] },
      { "delegate": "tz1ZPh7XfUaJXUDvkrBxmS1BjEM1i62hiPpM",
        "reception_time": "2022-01-18T12:41:56.550-00:00",
        "included_in_blocks":
          [ "BMYU2YCHCubCafBagqHySLj6QkKa9DsdtvfFZtZfNX8ti8iQueG" ] },
      { "delegate": "tz1VmiY38m3y95HqQLjMwqnMS7sdMfGomzKi",
        "reception_time": "2022-01-18T12:41:56.554-00:00",
        "included_in_blocks":
          [ "BMYU2YCHCubCafBagqHySLj6QkKa9DsdtvfFZtZfNX8ti8iQueG" ] },
      { "delegate": "tz3hw2kqXhLUvY65ca1eety2oQTpAvd34R9Q",
        "reception_time": "2022-01-18T12:41:56.580-00:00",
        "included_in_blocks":
          [ "BMYU2YCHCubCafBagqHySLj6QkKa9DsdtvfFZtZfNX8ti8iQueG" ] },
      { "delegate": "tz1Ldzz6k1BHdhuKvAtMRX7h5kJSMHESMHLC",
        "reception_time": "2022-01-18T12:41:56.625-00:00",
        "included_in_blocks":
          [ "BMYU2YCHCubCafBagqHySLj6QkKa9DsdtvfFZtZfNX8ti8iQueG" ] },
      { "delegate": "tz3Zhs2dygr55yHyQyKjntAtY9bgfhLZ4Xj1",
        "reception_time": "2022-01-18T12:41:56.635-00:00",
        "included_in_blocks":
          [ "BMYU2YCHCubCafBagqHySLj6QkKa9DsdtvfFZtZfNX8ti8iQueG" ] },
      { "delegate": "tz3RKYFsLuQzKBtmYuLNas7uMu3AsYd4QdsA",
        "reception_time": "2022-01-18T12:41:56.643-00:00",
        "included_in_blocks":
          [ "BMYU2YCHCubCafBagqHySLj6QkKa9DsdtvfFZtZfNX8ti8iQueG" ] },
      { "delegate": "tz3QSGPoRp3Kn7n3vY24eYeu3Peuqo45LQ4D",
        "reception_time": "2022-01-18T12:41:56.651-00:00",
        "included_in_blocks":
          [ "BMYU2YCHCubCafBagqHySLj6QkKa9DsdtvfFZtZfNX8ti8iQueG" ] },
      { "delegate": "tz3NxTnke1acr8o3h5y9ytf5awQBGNJUKzVU",
        "reception_time": "2022-01-18T12:41:56.673-00:00",
        "included_in_blocks":
          [ "BMYU2YCHCubCafBagqHySLj6QkKa9DsdtvfFZtZfNX8ti8iQueG" ] },
      { "delegate": "tz1gcna2xxZj2eNp1LaMyAhVJ49mEFj4FH26",
        "reception_time": "2022-01-18T12:41:56.679-00:00",
        "included_in_blocks":
          [ "BMYU2YCHCubCafBagqHySLj6QkKa9DsdtvfFZtZfNX8ti8iQueG" ] },
      { "delegate": "tz3ZbP2pM3nwvXztbuMJwJnDvV5xdpU8UkkD",
        "reception_time": "2022-01-18T12:41:56.687-00:00",
        "included_in_blocks":
          [ "BMYU2YCHCubCafBagqHySLj6QkKa9DsdtvfFZtZfNX8ti8iQueG" ] },
      { "delegate": "tz3gtoUxdudfBRcNY7iVdKPHCYYX6xdPpoRS",
        "reception_time": "2022-01-18T12:41:56.695-00:00",
        "included_in_blocks":
          [ "BMYU2YCHCubCafBagqHySLj6QkKa9DsdtvfFZtZfNX8ti8iQueG" ] },
      { "delegate": "tz1RCFbB9GpALpsZtu6J58sb74dm8qe6XBzv",
        "reception_time": "2022-01-18T12:41:56.711-00:00",
        "included_in_blocks":
          [ "BMYU2YCHCubCafBagqHySLj6QkKa9DsdtvfFZtZfNX8ti8iQueG" ] },
      { "delegate": "tz3iJu5vrKZcsqRPs8yJ61UDoeEXZmtro4qh",
        "reception_time": "2022-01-18T12:41:56.711-00:00",
        "included_in_blocks":
          [ "BMYU2YCHCubCafBagqHySLj6QkKa9DsdtvfFZtZfNX8ti8iQueG" ] },
      { "delegate": "tz1dNVDWPf3Q59SdJqnjdnu277iyvReiRS9M",
        "reception_time": "2022-01-18T12:41:56.716-00:00",
        "included_in_blocks":
          [ "BMYU2YCHCubCafBagqHySLj6QkKa9DsdtvfFZtZfNX8ti8iQueG" ] },
      { "delegate": "tz3QT9dHYKDqh563chVa6za8526ys1UKfRfL",
        "reception_time": "2022-01-18T12:41:56.739-00:00",
        "included_in_blocks":
          [ "BMYU2YCHCubCafBagqHySLj6QkKa9DsdtvfFZtZfNX8ti8iQueG" ] },
      { "delegate": "tz3S6BBeKgJGXxvLyZ1xzXzMPn11nnFtq5L9",
        "reception_time": "2022-01-18T12:41:56.748-00:00",
        "included_in_blocks":
          [ "BMYU2YCHCubCafBagqHySLj6QkKa9DsdtvfFZtZfNX8ti8iQueG" ] },
      { "delegate": "tz1TzaNn7wSQSP5gYPXCnNzBCpyMiidCq1PX",
        "reception_time": "2022-01-18T12:41:56.761-00:00",
        "included_in_blocks":
          [ "BMYU2YCHCubCafBagqHySLj6QkKa9DsdtvfFZtZfNX8ti8iQueG" ] },
      { "delegate": "tz1SUgyRB8T5jXgXAwS33pgRHAKrafyg87Yc",
        "reception_time": "2022-01-18T12:41:56.764-00:00",
        "included_in_blocks":
          [ "BMYU2YCHCubCafBagqHySLj6QkKa9DsdtvfFZtZfNX8ti8iQueG" ] },
      { "delegate": "tz1UJvHTgpVzcKWhTazGxVcn5wsHru5Gietg",
        "reception_time": "2022-01-18T12:41:56.794-00:00",
        "included_in_blocks":
          [ "BMYU2YCHCubCafBagqHySLj6QkKa9DsdtvfFZtZfNX8ti8iQueG" ] },
      { "delegate": "tz1MQJPGNMijnXnVoBENFz9rUhaPt3S7rWoz",
        "reception_time": "2022-01-18T12:41:56.889-00:00",
        "included_in_blocks":
          [ "BMYU2YCHCubCafBagqHySLj6QkKa9DsdtvfFZtZfNX8ti8iQueG" ] },
      { "delegate": "tz1SpU2P8EBQTAjxkdiTz3JAzZBj32w9Sb2Q",
        "reception_time": "2022-01-18T12:41:56.893-00:00",
        "included_in_blocks":
          [ "BMYU2YCHCubCafBagqHySLj6QkKa9DsdtvfFZtZfNX8ti8iQueG" ] },
      { "delegate": "tz1ei4WtWEMEJekSv8qDnu9PExG6Q8HgRGr3",
        "reception_time": "2022-01-18T12:41:56.947-00:00",
        "included_in_blocks":
          [ "BMYU2YCHCubCafBagqHySLj6QkKa9DsdtvfFZtZfNX8ti8iQueG" ] },
      { "delegate": "tz1PWCDnz783NNGGQjEFFsHtrcK5yBW4E2rm",
        "reception_time": "2022-01-18T12:41:56.967-00:00",
        "included_in_blocks":
          [ "BMYU2YCHCubCafBagqHySLj6QkKa9DsdtvfFZtZfNX8ti8iQueG" ] },
      { "delegate": "tz1S8MNvuFEUsWgjHvi3AxibRBf388NhT1q2",
        "reception_time": "2022-01-18T12:41:57.024-00:00",
        "included_in_blocks":
          [ "BMYU2YCHCubCafBagqHySLj6QkKa9DsdtvfFZtZfNX8ti8iQueG" ] },
      { "delegate": "tz1bHzftcTKZMTZgLLtnrXydCm6UEqf4ivca",
        "reception_time": "2022-01-18T12:41:57.090-00:00",
        "included_in_blocks":
          [ "BMYU2YCHCubCafBagqHySLj6QkKa9DsdtvfFZtZfNX8ti8iQueG" ] },
      { "delegate": "tz3bTdwZinP8U1JmSweNzVKhmwafqWmFWRfk",
        "reception_time": "2022-01-18T12:41:57.175-00:00",
        "included_in_blocks":
          [ "BMYU2YCHCubCafBagqHySLj6QkKa9DsdtvfFZtZfNX8ti8iQueG" ] },
      { "delegate": "tz3RB4aoyjov4KEVRbuhvQ1CKJgBJMWhaeB8",
        "reception_time": "2022-01-18T12:41:57.256-00:00",
        "included_in_blocks":
          [ "BMYU2YCHCubCafBagqHySLj6QkKa9DsdtvfFZtZfNX8ti8iQueG" ] },
      { "delegate": "tz3adcvQaKXTCg12zbninqo3q8ptKKtDFTLv",
        "reception_time": "2022-01-18T12:41:57.294-00:00",
        "included_in_blocks":
          [ "BMYU2YCHCubCafBagqHySLj6QkKa9DsdtvfFZtZfNX8ti8iQueG" ] },
      { "delegate": "tz1WBfwbT66FC6BTLexc2BoyCCBM9LG7pnVW",
        "reception_time": "2022-01-18T12:41:57.393-00:00",
        "included_in_blocks":
          [ "BMYU2YCHCubCafBagqHySLj6QkKa9DsdtvfFZtZfNX8ti8iQueG" ] },
      { "delegate": "tz1SYq214SCBy9naR6cvycQsYcUGpBqQAE8d",
        "reception_time": "2022-01-18T12:41:57.429-00:00",
        "included_in_blocks":
          [ "BMYU2YCHCubCafBagqHySLj6QkKa9DsdtvfFZtZfNX8ti8iQueG" ] },
      { "delegate": "tz1VceyYUpq1gk5dtp6jXQRtCtY8hm5DKt72",
        "reception_time": "2022-01-18T12:41:57.496-00:00",
        "included_in_blocks":
          [ "BMYU2YCHCubCafBagqHySLj6QkKa9DsdtvfFZtZfNX8ti8iQueG" ] },
      { "delegate": "tz1TEc75UKXv4W5cwi14Na3NtqFD51yKQi7h",
        "reception_time": "2022-01-18T12:41:57.603-00:00",
        "included_in_blocks":
          [ "BMYU2YCHCubCafBagqHySLj6QkKa9DsdtvfFZtZfNX8ti8iQueG" ] },
      { "delegate": "tz1LmaFsWRkjr7QMCx5PtV6xTUz3AmEpKQiF",
        "reception_time": "2022-01-18T12:41:57.634-00:00",
        "included_in_blocks":
          [ "BMYU2YCHCubCafBagqHySLj6QkKa9DsdtvfFZtZfNX8ti8iQueG" ] },
      { "delegate": "tz1SohptP53wDPZhzTWzDUFAUcWF6DMBpaJV",
        "reception_time": "2022-01-18T12:41:57.655-00:00",
        "included_in_blocks":
          [ "BMYU2YCHCubCafBagqHySLj6QkKa9DsdtvfFZtZfNX8ti8iQueG" ] },
      { "delegate": "tz3WMqdzXqRWXwyvj5Hp2H7QEepaUuS7vd9K",
        "reception_time": "2022-01-18T12:41:57.779-00:00",
        "included_in_blocks":
          [ "BMYU2YCHCubCafBagqHySLj6QkKa9DsdtvfFZtZfNX8ti8iQueG" ] },
      { "delegate": "tz2FCNBrERXtaTtNX6iimR1UJ5JSDxvdHM93",
        "reception_time": "2022-01-18T12:41:57.879-00:00",
        "included_in_blocks":
          [ "BMYU2YCHCubCafBagqHySLj6QkKa9DsdtvfFZtZfNX8ti8iQueG" ] },
      { "delegate": "tz3NDpRj6WBrJPikcPVHRBEjWKxFw3c6eQPS",
        "reception_time": "2022-01-18T12:41:57.925-00:00",
        "included_in_blocks":
          [ "BMYU2YCHCubCafBagqHySLj6QkKa9DsdtvfFZtZfNX8ti8iQueG" ] },
      { "delegate": "tz3gLTu4Yxj8tPAcriQVUdxv6BY9QyvzU1az",
        "reception_time": "2022-01-18T12:41:57.999-00:00",
        "included_in_blocks":
          [ "BMYU2YCHCubCafBagqHySLj6QkKa9DsdtvfFZtZfNX8ti8iQueG" ] },
      { "delegate": "tz1KfEsrtDaA1sX7vdM4qmEPWuSytuqCDp5j",
        "reception_time": "2022-01-18T12:41:58.122-00:00",
        "included_in_blocks":
          [ "BMYU2YCHCubCafBagqHySLj6QkKa9DsdtvfFZtZfNX8ti8iQueG" ] },
      { "delegate": "tz1PeZx7FXy7QRuMREGXGxeipb24RsMMzUNe",
        "reception_time": "2022-01-18T12:41:58.135-00:00",
        "included_in_blocks":
          [ "BMYU2YCHCubCafBagqHySLj6QkKa9DsdtvfFZtZfNX8ti8iQueG" ] },
      { "delegate": "tz1Nf6tsK4G6bBqgSQERy4nUtkHNKUVdh7q1",
        "reception_time": "2022-01-18T12:41:58.189-00:00",
        "included_in_blocks":
          [ "BMYU2YCHCubCafBagqHySLj6QkKa9DsdtvfFZtZfNX8ti8iQueG" ] },
      { "delegate": "tz1aRoaRhSpRYvFdyvgWLL6TGyRoGF51wDjM",
        "reception_time": "2022-01-18T12:41:58.312-00:00",
        "included_in_blocks":
          [ "BMYU2YCHCubCafBagqHySLj6QkKa9DsdtvfFZtZfNX8ti8iQueG" ] },
      { "delegate": "tz3VEZ4k6a4Wx42iyev6i2aVAptTRLEAivNN",
        "reception_time": "2022-01-18T12:41:58.351-00:00",
        "included_in_blocks":
          [ "BMYU2YCHCubCafBagqHySLj6QkKa9DsdtvfFZtZfNX8ti8iQueG" ] },
      { "delegate": "tz1RjoHc98dBoqaH2jawF62XNKh7YsHwbkEv",
        "reception_time": "2022-01-18T12:41:58.370-00:00",
        "included_in_blocks":
          [ "BMYU2YCHCubCafBagqHySLj6QkKa9DsdtvfFZtZfNX8ti8iQueG" ] },
      { "delegate": "tz3RDC3Jdn4j15J7bBHZd29EUee9gVB1CxD9",
        "reception_time": "2022-01-18T12:41:58.482-00:00",
        "included_in_blocks":
          [ "BMYU2YCHCubCafBagqHySLj6QkKa9DsdtvfFZtZfNX8ti8iQueG" ] },
      { "delegate": "tz1NEKxGEHsFufk87CVZcrqWu8o22qh46GK6",
        "reception_time": "2022-01-18T12:41:58.482-00:00",
        "included_in_blocks":
          [ "BMYU2YCHCubCafBagqHySLj6QkKa9DsdtvfFZtZfNX8ti8iQueG" ] },
      { "delegate": "tz1T7duV5gZWSTq4YpBGbXNLTfznCLDrFxvs",
        "reception_time": "2022-01-18T12:41:58.526-00:00",
        "included_in_blocks":
          [ "BMYU2YCHCubCafBagqHySLj6QkKa9DsdtvfFZtZfNX8ti8iQueG" ] },
      { "delegate": "tz3bvNMQ95vfAYtG8193ymshqjSvmxiCUuR5",
        "reception_time": "2022-01-18T12:41:58.608-00:00",
        "included_in_blocks":
          [ "BMYU2YCHCubCafBagqHySLj6QkKa9DsdtvfFZtZfNX8ti8iQueG" ] },
      { "delegate": "tz1iEWcNL383qiDJ3Q3qt5W2T4aSKUbEU4An",
        "reception_time": "2022-01-18T12:41:58.679-00:00",
        "included_in_blocks":
          [ "BMYU2YCHCubCafBagqHySLj6QkKa9DsdtvfFZtZfNX8ti8iQueG" ] },
      { "delegate": "tz1dRKU4FQ9QRRQPdaH4zCR6gmCmXfcvcgtB",
        "reception_time": "2022-01-18T12:41:58.936-00:00",
        "included_in_blocks":
          [ "BMYU2YCHCubCafBagqHySLj6QkKa9DsdtvfFZtZfNX8ti8iQueG" ] },
      { "delegate": "tz1WvL7MKyCuUHfC3FxPFyiXcy8hHTBT3vjE",
        "reception_time": "2022-01-18T12:41:58.998-00:00",
        "included_in_blocks":
          [ "BMYU2YCHCubCafBagqHySLj6QkKa9DsdtvfFZtZfNX8ti8iQueG" ] },
      { "delegate": "tz3NExpXn9aPNZPorRE4SdjJ2RGrfbJgMAaV",
        "reception_time": "2022-01-18T12:41:59.235-00:00",
        "included_in_blocks":
          [ "BMYU2YCHCubCafBagqHySLj6QkKa9DsdtvfFZtZfNX8ti8iQueG" ] },
      { "delegate": "tz3UoffC7FG7zfpmvmjUmUeAaHvzdcUvAj6r",
        "reception_time": "2022-01-18T12:41:59.404-00:00",
        "included_in_blocks":
          [ "BMYU2YCHCubCafBagqHySLj6QkKa9DsdtvfFZtZfNX8ti8iQueG" ] },
      { "delegate": "tz1W5VkdB5s7ENMESVBtwyt9kyvLqPcUczRT",
        "reception_time": "2022-01-18T12:42:00.743-00:00",
        "included_in_blocks":
          [ "BMYU2YCHCubCafBagqHySLj6QkKa9DsdtvfFZtZfNX8ti8iQueG" ] },
      { "delegate": "tz1NpWrAyDL9k2Lmnyxcgr9xuJakbBxdq7FB",
        "reception_time": "2022-01-18T12:42:01.709-00:00",
        "included_in_blocks":
          [ "BMYU2YCHCubCafBagqHySLj6QkKa9DsdtvfFZtZfNX8ti8iQueG" ] },
      { "delegate": "tz1cYufsxHXJcvANhvS55h3aY32a9BAFB494",
        "reception_time": "2022-01-18T12:42:17.365-00:00",
        "included_in_blocks":
          [ "BMYU2YCHCubCafBagqHySLj6QkKa9DsdtvfFZtZfNX8ti8iQueG" ] } ] }