{ "blocks":
    [ { "hash": "BLgbUVcjAaS9PwYsfsXbWXJEa6KEWhv7R9TxjYNZzgRrbG7ghHh",
        "delegate": "tz1irJKkXS2DBWkU1NnmFQx1c1L7pbGg4yhk",
        "reception_time": "2022-01-18T11:01:55.506-00:00",
        "timestamp": "2022-01-18T11:01:50Z" } ],
  "endorsements":
    [ { "delegate": "tz1MXFrtZoaXckE41bjUCSjAjAap3AFDSr3N",
        "reception_time": "2022-01-18T11:01:55.476-00:00",
        "errors":
          [ { "kind": "temporary",
              "id": "proto.011-PtHangz2.prefilter.outdated_endorsement" } ],
        "included_in_blocks":
          [ "BLncf1Gi4q1QRSq66KQ4MFd2ULDhiqBLYpWxLmenXhwDh93WkN8" ] },
      { "delegate": "tz1P2Po7YM526ughEsRbY4oR9zaUPDZjxFrb",
        "reception_time": "2022-01-18T11:01:55.409-00:00",
        "errors":
          [ { "kind": "temporary",
              "id": "proto.011-PtHangz2.prefilter.outdated_endorsement" } ],
        "included_in_blocks":
          [ "BLncf1Gi4q1QRSq66KQ4MFd2ULDhiqBLYpWxLmenXhwDh93WkN8" ] },
      { "delegate": "tz1Scdr2HsZiQjc7bHMeBbmDRXYVvdhjJbBh",
        "reception_time": "2022-01-18T11:01:55.231-00:00",
        "errors":
          [ { "kind": "temporary",
              "id": "proto.011-PtHangz2.prefilter.outdated_endorsement" } ],
        "included_in_blocks":
          [ "BLncf1Gi4q1QRSq66KQ4MFd2ULDhiqBLYpWxLmenXhwDh93WkN8" ] },
      { "delegate": "tz1S8e9GgdZG78XJRB3NqabfWeM37GnhZMWQ",
        "reception_time": "2022-01-18T11:01:55.137-00:00",
        "errors":
          [ { "kind": "temporary",
              "id": "proto.011-PtHangz2.prefilter.outdated_endorsement" } ],
        "included_in_blocks":
          [ "BLncf1Gi4q1QRSq66KQ4MFd2ULDhiqBLYpWxLmenXhwDh93WkN8" ] },
      { "delegate": "tz1cYufsxHXJcvANhvS55h3aY32a9BAFB494" },
      { "delegate": "tz1irJKkXS2DBWkU1NnmFQx1c1L7pbGg4yhk",
        "reception_time": "2022-01-18T11:01:56.659-00:00",
        "included_in_blocks":
          [ "BLncf1Gi4q1QRSq66KQ4MFd2ULDhiqBLYpWxLmenXhwDh93WkN8" ] },
      { "delegate": "tz1TRspM5SeZpaQUhzByXbEvqKF1vnCM2YTK",
        "reception_time": "2022-01-18T11:01:56.723-00:00",
        "included_in_blocks":
          [ "BLncf1Gi4q1QRSq66KQ4MFd2ULDhiqBLYpWxLmenXhwDh93WkN8" ] },
      { "delegate": "tz1eEnQhbwf6trb8Q8mPb2RaPkNk2rN7BKi8",
        "reception_time": "2022-01-18T11:01:56.727-00:00",
        "included_in_blocks":
          [ "BLncf1Gi4q1QRSq66KQ4MFd2ULDhiqBLYpWxLmenXhwDh93WkN8" ] },
      { "delegate": "tz1STeamwbp68THcny9zk3LsbG3H36DMvbRK",
        "reception_time": "2022-01-18T11:01:56.743-00:00",
        "included_in_blocks":
          [ "BLncf1Gi4q1QRSq66KQ4MFd2ULDhiqBLYpWxLmenXhwDh93WkN8" ] },
      { "delegate": "tz1TXzyaKUA8wsWefdSnyaYFnV2M3vCV7er9",
        "reception_time": "2022-01-18T11:01:56.770-00:00",
        "included_in_blocks":
          [ "BLncf1Gi4q1QRSq66KQ4MFd2ULDhiqBLYpWxLmenXhwDh93WkN8" ] },
      { "delegate": "tz3QSGPoRp3Kn7n3vY24eYeu3Peuqo45LQ4D",
        "reception_time": "2022-01-18T11:01:56.790-00:00",
        "included_in_blocks":
          [ "BLncf1Gi4q1QRSq66KQ4MFd2ULDhiqBLYpWxLmenXhwDh93WkN8" ] },
      { "delegate": "tz3QT9dHYKDqh563chVa6za8526ys1UKfRfL",
        "reception_time": "2022-01-18T11:01:56.804-00:00",
        "included_in_blocks":
          [ "BLncf1Gi4q1QRSq66KQ4MFd2ULDhiqBLYpWxLmenXhwDh93WkN8" ] },
      { "delegate": "tz3ZbP2pM3nwvXztbuMJwJnDvV5xdpU8UkkD",
        "reception_time": "2022-01-18T11:01:56.822-00:00",
        "included_in_blocks":
          [ "BLncf1Gi4q1QRSq66KQ4MFd2ULDhiqBLYpWxLmenXhwDh93WkN8" ] },
      { "delegate": "tz3QCNyySViKHmeSr45kzDxzchys7NiXCWoa",
        "reception_time": "2022-01-18T11:01:56.866-00:00",
        "included_in_blocks":
          [ "BLncf1Gi4q1QRSq66KQ4MFd2ULDhiqBLYpWxLmenXhwDh93WkN8" ] },
      { "delegate": "tz1VQnqCCqX4K5sP3FNkVSNKTdCAMJDd3E1n",
        "reception_time": "2022-01-18T11:01:56.869-00:00",
        "included_in_blocks":
          [ "BLncf1Gi4q1QRSq66KQ4MFd2ULDhiqBLYpWxLmenXhwDh93WkN8" ] },
      { "delegate": "tz1Ldzz6k1BHdhuKvAtMRX7h5kJSMHESMHLC",
        "reception_time": "2022-01-18T11:01:56.890-00:00",
        "included_in_blocks":
          [ "BLncf1Gi4q1QRSq66KQ4MFd2ULDhiqBLYpWxLmenXhwDh93WkN8" ] },
      { "delegate": "tz3hw2kqXhLUvY65ca1eety2oQTpAvd34R9Q",
        "reception_time": "2022-01-18T11:01:56.916-00:00",
        "included_in_blocks":
          [ "BLncf1Gi4q1QRSq66KQ4MFd2ULDhiqBLYpWxLmenXhwDh93WkN8" ] },
      { "delegate": "tz1Kf25fX1VdmYGSEzwFy1wNmkbSEZ2V83sY",
        "reception_time": "2022-01-18T11:01:56.928-00:00",
        "included_in_blocks":
          [ "BLncf1Gi4q1QRSq66KQ4MFd2ULDhiqBLYpWxLmenXhwDh93WkN8" ] },
      { "delegate": "tz1NadALtM1Z4jWBxHbPUgvQrjqQoFJXTZz5",
        "reception_time": "2022-01-18T11:01:56.933-00:00",
        "included_in_blocks":
          [ "BLncf1Gi4q1QRSq66KQ4MFd2ULDhiqBLYpWxLmenXhwDh93WkN8" ] },
      { "delegate": "tz3NxTnke1acr8o3h5y9ytf5awQBGNJUKzVU",
        "reception_time": "2022-01-18T11:01:56.944-00:00",
        "included_in_blocks":
          [ "BLncf1Gi4q1QRSq66KQ4MFd2ULDhiqBLYpWxLmenXhwDh93WkN8" ] },
      { "delegate": "tz3iJu5vrKZcsqRPs8yJ61UDoeEXZmtro4qh",
        "reception_time": "2022-01-18T11:01:56.969-00:00",
        "included_in_blocks":
          [ "BLncf1Gi4q1QRSq66KQ4MFd2ULDhiqBLYpWxLmenXhwDh93WkN8" ] },
      { "delegate": "tz3Zhs2dygr55yHyQyKjntAtY9bgfhLZ4Xj1",
        "reception_time": "2022-01-18T11:01:56.983-00:00",
        "included_in_blocks":
          [ "BLncf1Gi4q1QRSq66KQ4MFd2ULDhiqBLYpWxLmenXhwDh93WkN8" ] },
      { "delegate": "tz3S6BBeKgJGXxvLyZ1xzXzMPn11nnFtq5L9",
        "reception_time": "2022-01-18T11:01:57.013-00:00",
        "included_in_blocks":
          [ "BLncf1Gi4q1QRSq66KQ4MFd2ULDhiqBLYpWxLmenXhwDh93WkN8" ] },
      { "delegate": "tz1TzaNn7wSQSP5gYPXCnNzBCpyMiidCq1PX",
        "reception_time": "2022-01-18T11:01:57.042-00:00",
        "included_in_blocks":
          [ "BLncf1Gi4q1QRSq66KQ4MFd2ULDhiqBLYpWxLmenXhwDh93WkN8" ] },
      { "delegate": "tz3gtoUxdudfBRcNY7iVdKPHCYYX6xdPpoRS",
        "reception_time": "2022-01-18T11:01:57.083-00:00",
        "included_in_blocks":
          [ "BLncf1Gi4q1QRSq66KQ4MFd2ULDhiqBLYpWxLmenXhwDh93WkN8" ] },
      { "delegate": "tz1WCd2jm4uSt4vntk4vSuUWoZQGhLcDuR9q",
        "reception_time": "2022-01-18T11:01:57.113-00:00",
        "included_in_blocks":
          [ "BLncf1Gi4q1QRSq66KQ4MFd2ULDhiqBLYpWxLmenXhwDh93WkN8" ] },
      { "delegate": "tz1h4GUAMweP7SNWzDgvMk3yRCAZyaP1MxZq",
        "reception_time": "2022-01-18T11:01:57.155-00:00",
        "included_in_blocks":
          [ "BLncf1Gi4q1QRSq66KQ4MFd2ULDhiqBLYpWxLmenXhwDh93WkN8" ] },
      { "delegate": "tz1MQMiZHV8q4tTwUMWmS5Y3kaP6J2136iXr",
        "reception_time": "2022-01-18T11:01:57.187-00:00",
        "included_in_blocks":
          [ "BLncf1Gi4q1QRSq66KQ4MFd2ULDhiqBLYpWxLmenXhwDh93WkN8" ] },
      { "delegate": "tz1gfArv665EUkSg2ojMBzcbfwuPxAvqPvjo",
        "reception_time": "2022-01-18T11:01:57.326-00:00",
        "included_in_blocks":
          [ "BLncf1Gi4q1QRSq66KQ4MFd2ULDhiqBLYpWxLmenXhwDh93WkN8" ] },
      { "delegate": "tz1S8MNvuFEUsWgjHvi3AxibRBf388NhT1q2",
        "reception_time": "2022-01-18T11:01:57.374-00:00",
        "included_in_blocks":
          [ "BLncf1Gi4q1QRSq66KQ4MFd2ULDhiqBLYpWxLmenXhwDh93WkN8" ] },
      { "delegate": "tz1RCFbB9GpALpsZtu6J58sb74dm8qe6XBzv",
        "reception_time": "2022-01-18T11:01:57.486-00:00",
        "included_in_blocks":
          [ "BLncf1Gi4q1QRSq66KQ4MFd2ULDhiqBLYpWxLmenXhwDh93WkN8" ] },
      { "delegate": "tz1gUNyn3hmnEWqkusWPzxRaon1cs7ndWh7h",
        "reception_time": "2022-01-18T11:01:57.503-00:00",
        "included_in_blocks":
          [ "BLncf1Gi4q1QRSq66KQ4MFd2ULDhiqBLYpWxLmenXhwDh93WkN8" ] },
      { "delegate": "tz3bTdwZinP8U1JmSweNzVKhmwafqWmFWRfk",
        "reception_time": "2022-01-18T11:01:57.535-00:00",
        "included_in_blocks":
          [ "BLncf1Gi4q1QRSq66KQ4MFd2ULDhiqBLYpWxLmenXhwDh93WkN8" ] },
      { "delegate": "tz2FCNBrERXtaTtNX6iimR1UJ5JSDxvdHM93",
        "reception_time": "2022-01-18T11:01:57.542-00:00",
        "included_in_blocks":
          [ "BLncf1Gi4q1QRSq66KQ4MFd2ULDhiqBLYpWxLmenXhwDh93WkN8" ] },
      { "delegate": "tz1Nf6tsK4G6bBqgSQERy4nUtkHNKUVdh7q1",
        "reception_time": "2022-01-18T11:01:57.546-00:00",
        "included_in_blocks":
          [ "BLncf1Gi4q1QRSq66KQ4MFd2ULDhiqBLYpWxLmenXhwDh93WkN8" ] },
      { "delegate": "tz1dNVDWPf3Q59SdJqnjdnu277iyvReiRS9M",
        "reception_time": "2022-01-18T11:01:57.548-00:00",
        "included_in_blocks":
          [ "BLncf1Gi4q1QRSq66KQ4MFd2ULDhiqBLYpWxLmenXhwDh93WkN8" ] },
      { "delegate": "tz1V4qCyvPKZ5UeqdH14HN42rxvNPQfc9UZg",
        "reception_time": "2022-01-18T11:01:57.551-00:00",
        "included_in_blocks":
          [ "BLncf1Gi4q1QRSq66KQ4MFd2ULDhiqBLYpWxLmenXhwDh93WkN8" ] },
      { "delegate": "tz3e7LbZvUtoXhpUD1yb6wuFodZpfYRb9nWJ",
        "reception_time": "2022-01-18T11:01:57.565-00:00",
        "included_in_blocks":
          [ "BLncf1Gi4q1QRSq66KQ4MFd2ULDhiqBLYpWxLmenXhwDh93WkN8" ] },
      { "delegate": "tz3RDC3Jdn4j15J7bBHZd29EUee9gVB1CxD9",
        "reception_time": "2022-01-18T11:01:57.577-00:00",
        "included_in_blocks":
          [ "BLncf1Gi4q1QRSq66KQ4MFd2ULDhiqBLYpWxLmenXhwDh93WkN8" ] },
      { "delegate": "tz1YiuvpfeVAHbnU8akcWErNfQGFHNQ7F45z",
        "reception_time": "2022-01-18T11:01:57.583-00:00",
        "included_in_blocks":
          [ "BLncf1Gi4q1QRSq66KQ4MFd2ULDhiqBLYpWxLmenXhwDh93WkN8" ] },
      { "delegate": "tz1MGTFJXpQmtxLi8QJ7AuVRgM2L2Qfn9w9i",
        "reception_time": "2022-01-18T11:01:57.583-00:00",
        "included_in_blocks":
          [ "BLncf1Gi4q1QRSq66KQ4MFd2ULDhiqBLYpWxLmenXhwDh93WkN8" ] },
      { "delegate": "tz1dwu9aYb7CRNq4Y2zAjipdjFuSVKhHS8vA",
        "reception_time": "2022-01-18T11:01:57.604-00:00",
        "included_in_blocks":
          [ "BLncf1Gi4q1QRSq66KQ4MFd2ULDhiqBLYpWxLmenXhwDh93WkN8" ] },
      { "delegate": "tz1TRqbYbUf2GyrjErf3hBzgBJPzW8y36qEs",
        "reception_time": "2022-01-18T11:01:57.617-00:00",
        "included_in_blocks":
          [ "BLncf1Gi4q1QRSq66KQ4MFd2ULDhiqBLYpWxLmenXhwDh93WkN8" ] },
      { "delegate": "tz1SRqg1KT7dJ5QxF9PWnWdfbXgh6HfKZxbd",
        "reception_time": "2022-01-18T11:01:57.623-00:00",
        "included_in_blocks":
          [ "BLncf1Gi4q1QRSq66KQ4MFd2ULDhiqBLYpWxLmenXhwDh93WkN8" ] },
      { "delegate": "tz3RB4aoyjov4KEVRbuhvQ1CKJgBJMWhaeB8",
        "reception_time": "2022-01-18T11:01:57.636-00:00",
        "included_in_blocks":
          [ "BLncf1Gi4q1QRSq66KQ4MFd2ULDhiqBLYpWxLmenXhwDh93WkN8" ] },
      { "delegate": "tz1VmiY38m3y95HqQLjMwqnMS7sdMfGomzKi",
        "reception_time": "2022-01-18T11:01:57.636-00:00",
        "included_in_blocks":
          [ "BLncf1Gi4q1QRSq66KQ4MFd2ULDhiqBLYpWxLmenXhwDh93WkN8" ] },
      { "delegate": "tz1PWCDnz783NNGGQjEFFsHtrcK5yBW4E2rm",
        "reception_time": "2022-01-18T11:01:57.669-00:00",
        "included_in_blocks":
          [ "BLncf1Gi4q1QRSq66KQ4MFd2ULDhiqBLYpWxLmenXhwDh93WkN8" ] },
      { "delegate": "tz3adcvQaKXTCg12zbninqo3q8ptKKtDFTLv",
        "reception_time": "2022-01-18T11:01:57.679-00:00",
        "included_in_blocks":
          [ "BLncf1Gi4q1QRSq66KQ4MFd2ULDhiqBLYpWxLmenXhwDh93WkN8" ] },
      { "delegate": "tz1LmaFsWRkjr7QMCx5PtV6xTUz3AmEpKQiF",
        "reception_time": "2022-01-18T11:01:57.682-00:00",
        "included_in_blocks":
          [ "BLncf1Gi4q1QRSq66KQ4MFd2ULDhiqBLYpWxLmenXhwDh93WkN8" ] },
      { "delegate": "tz1iPHM2Xx2hwmzcr1EG1zzrV6oKafVoA91m",
        "reception_time": "2022-01-18T11:01:57.699-00:00",
        "included_in_blocks":
          [ "BLncf1Gi4q1QRSq66KQ4MFd2ULDhiqBLYpWxLmenXhwDh93WkN8" ] },
      { "delegate": "tz1S6H83gugqK4dR5Had9jWR9M1ZdAAVgU5e",
        "reception_time": "2022-01-18T11:01:57.728-00:00",
        "included_in_blocks":
          [ "BLncf1Gi4q1QRSq66KQ4MFd2ULDhiqBLYpWxLmenXhwDh93WkN8" ] },
      { "delegate": "tz1Tnjaxk6tbAeC2TmMApPh8UsrEVQvhHvx5",
        "reception_time": "2022-01-18T11:01:57.739-00:00",
        "included_in_blocks":
          [ "BLncf1Gi4q1QRSq66KQ4MFd2ULDhiqBLYpWxLmenXhwDh93WkN8" ] },
      { "delegate": "tz1awXW7wuXy21c66vBudMXQVAPgRnqqwgTH",
        "reception_time": "2022-01-18T11:01:57.776-00:00",
        "included_in_blocks":
          [ "BLncf1Gi4q1QRSq66KQ4MFd2ULDhiqBLYpWxLmenXhwDh93WkN8" ] },
      { "delegate": "tz1abmz7jiCV2GH2u81LRrGgAFFgvQgiDiaf",
        "reception_time": "2022-01-18T11:01:57.779-00:00",
        "included_in_blocks":
          [ "BLncf1Gi4q1QRSq66KQ4MFd2ULDhiqBLYpWxLmenXhwDh93WkN8" ] },
      { "delegate": "tz3VEZ4k6a4Wx42iyev6i2aVAptTRLEAivNN",
        "reception_time": "2022-01-18T11:01:57.888-00:00",
        "included_in_blocks":
          [ "BLncf1Gi4q1QRSq66KQ4MFd2ULDhiqBLYpWxLmenXhwDh93WkN8" ] },
      { "delegate": "tz1KfEsrtDaA1sX7vdM4qmEPWuSytuqCDp5j",
        "reception_time": "2022-01-18T11:01:57.910-00:00",
        "included_in_blocks":
          [ "BLncf1Gi4q1QRSq66KQ4MFd2ULDhiqBLYpWxLmenXhwDh93WkN8" ] },
      { "delegate": "tz3UoffC7FG7zfpmvmjUmUeAaHvzdcUvAj6r",
        "reception_time": "2022-01-18T11:01:57.949-00:00",
        "included_in_blocks":
          [ "BLncf1Gi4q1QRSq66KQ4MFd2ULDhiqBLYpWxLmenXhwDh93WkN8" ] },
      { "delegate": "tz3NDpRj6WBrJPikcPVHRBEjWKxFw3c6eQPS",
        "reception_time": "2022-01-18T11:01:57.965-00:00",
        "included_in_blocks":
          [ "BLncf1Gi4q1QRSq66KQ4MFd2ULDhiqBLYpWxLmenXhwDh93WkN8" ] },
      { "delegate": "tz1RjoHc98dBoqaH2jawF62XNKh7YsHwbkEv",
        "reception_time": "2022-01-18T11:01:57.974-00:00",
        "included_in_blocks":
          [ "BLncf1Gi4q1QRSq66KQ4MFd2ULDhiqBLYpWxLmenXhwDh93WkN8" ] },
      { "delegate": "tz3bvNMQ95vfAYtG8193ymshqjSvmxiCUuR5",
        "reception_time": "2022-01-18T11:01:58.067-00:00",
        "included_in_blocks":
          [ "BLncf1Gi4q1QRSq66KQ4MFd2ULDhiqBLYpWxLmenXhwDh93WkN8" ] },
      { "delegate": "tz1T7duV5gZWSTq4YpBGbXNLTfznCLDrFxvs",
        "reception_time": "2022-01-18T11:01:58.070-00:00",
        "included_in_blocks":
          [ "BLncf1Gi4q1QRSq66KQ4MFd2ULDhiqBLYpWxLmenXhwDh93WkN8" ] },
      { "delegate": "tz1NRGxXV9h6SdNaZLcgmjuLx3hyy2f8YoGN",
        "reception_time": "2022-01-18T11:01:58.160-00:00",
        "included_in_blocks":
          [ "BLncf1Gi4q1QRSq66KQ4MFd2ULDhiqBLYpWxLmenXhwDh93WkN8" ] },
      { "delegate": "tz3WMqdzXqRWXwyvj5Hp2H7QEepaUuS7vd9K",
        "reception_time": "2022-01-18T11:01:58.297-00:00",
        "included_in_blocks":
          [ "BLncf1Gi4q1QRSq66KQ4MFd2ULDhiqBLYpWxLmenXhwDh93WkN8" ] },
      { "delegate": "tz1g8vkmcde6sWKaG2NN9WKzCkDM6Rziq194",
        "reception_time": "2022-01-18T11:01:58.685-00:00",
        "included_in_blocks":
          [ "BLncf1Gi4q1QRSq66KQ4MFd2ULDhiqBLYpWxLmenXhwDh93WkN8" ] },
      { "delegate": "tz1aRoaRhSpRYvFdyvgWLL6TGyRoGF51wDjM",
        "reception_time": "2022-01-18T11:01:58.781-00:00",
        "included_in_blocks":
          [ "BLncf1Gi4q1QRSq66KQ4MFd2ULDhiqBLYpWxLmenXhwDh93WkN8" ] },
      { "delegate": "tz1dRKU4FQ9QRRQPdaH4zCR6gmCmXfcvcgtB",
        "reception_time": "2022-01-18T11:01:58.879-00:00",
        "included_in_blocks":
          [ "BLncf1Gi4q1QRSq66KQ4MFd2ULDhiqBLYpWxLmenXhwDh93WkN8" ] },
      { "delegate": "tz1b9MYGrbN1NAxphLEsPPNT9JC7aNFc5nA4",
        "reception_time": "2022-01-18T11:01:58.921-00:00",
        "included_in_blocks":
          [ "BLncf1Gi4q1QRSq66KQ4MFd2ULDhiqBLYpWxLmenXhwDh93WkN8" ] },
      { "delegate": "tz3NExpXn9aPNZPorRE4SdjJ2RGrfbJgMAaV",
        "reception_time": "2022-01-18T11:01:59.020-00:00",
        "included_in_blocks":
          [ "BLncf1Gi4q1QRSq66KQ4MFd2ULDhiqBLYpWxLmenXhwDh93WkN8" ] },
      { "delegate": "tz1ZcTRk5uxD86EFEn1vvNffWWqJy7q5eVhc",
        "reception_time": "2022-01-18T11:01:59.065-00:00",
        "included_in_blocks":
          [ "BLncf1Gi4q1QRSq66KQ4MFd2ULDhiqBLYpWxLmenXhwDh93WkN8" ] },
      { "delegate": "tz1acZQd7TdfoiUnD2czHnTHB2TaJQP6gdqo",
        "reception_time": "2022-01-18T11:01:59.894-00:00",
        "included_in_blocks":
          [ "BLncf1Gi4q1QRSq66KQ4MFd2ULDhiqBLYpWxLmenXhwDh93WkN8" ] },
      { "delegate": "tz1SYq214SCBy9naR6cvycQsYcUGpBqQAE8d",
        "reception_time": "2022-01-18T11:02:00.535-00:00",
        "included_in_blocks":
          [ "BLncf1Gi4q1QRSq66KQ4MFd2ULDhiqBLYpWxLmenXhwDh93WkN8" ] },
      { "delegate": "tz1NpWrAyDL9k2Lmnyxcgr9xuJakbBxdq7FB",
        "reception_time": "2022-01-18T11:02:02.708-00:00",
        "included_in_blocks":
          [ "BLncf1Gi4q1QRSq66KQ4MFd2ULDhiqBLYpWxLmenXhwDh93WkN8" ] } ] }