{ "blocks":
    [ { "hash": "BL4RsuWxX6WP9TiawRGmyFEEy9k25eMLEozNUVL2Xpkn8NiwMts",
        "delegate": "tz1aRoaRhSpRYvFdyvgWLL6TGyRoGF51wDjM",
        "reception_time": "2022-01-18T15:34:44.364-00:00",
        "timestamp": "2022-01-18T15:34:30Z" } ],
  "endorsements":
    [ { "delegate": "tz1cYufsxHXJcvANhvS55h3aY32a9BAFB494" },
      { "delegate": "tz1eEnQhbwf6trb8Q8mPb2RaPkNk2rN7BKi8",
        "reception_time": "2022-01-18T15:34:44.018-00:00",
        "errors":
          [ { "kind": "temporary",
              "id": "proto.011-PtHangz2.prefilter.outdated_endorsement" } ],
        "included_in_blocks":
          [ "BLGVkq1n7u9ELSPJCEeN4GAmNwjDfxEFQnBSyMSho8WFACyziV2" ] },
      { "delegate": "tz1irJKkXS2DBWkU1NnmFQx1c1L7pbGg4yhk",
        "reception_time": "2022-01-18T15:34:43.995-00:00",
        "errors":
          [ { "kind": "temporary",
              "id": "proto.011-PtHangz2.prefilter.outdated_endorsement" } ],
        "included_in_blocks":
          [ "BLGVkq1n7u9ELSPJCEeN4GAmNwjDfxEFQnBSyMSho8WFACyziV2" ] },
      { "delegate": "tz1aKxnrzx5PXZJe7unufEswVRCMU9yafmfb",
        "reception_time": "2022-01-18T15:34:43.808-00:00",
        "errors":
          [ { "kind": "temporary",
              "id": "proto.011-PtHangz2.prefilter.outdated_endorsement" } ],
        "included_in_blocks":
          [ "BLGVkq1n7u9ELSPJCEeN4GAmNwjDfxEFQnBSyMSho8WFACyziV2" ] },
      { "delegate": "tz1TXzyaKUA8wsWefdSnyaYFnV2M3vCV7er9",
        "reception_time": "2022-01-18T15:34:43.779-00:00",
        "errors":
          [ { "kind": "temporary",
              "id": "proto.011-PtHangz2.prefilter.outdated_endorsement" } ],
        "included_in_blocks":
          [ "BLGVkq1n7u9ELSPJCEeN4GAmNwjDfxEFQnBSyMSho8WFACyziV2" ] },
      { "delegate": "tz1STeamwbp68THcny9zk3LsbG3H36DMvbRK",
        "reception_time": "2022-01-18T15:34:43.715-00:00",
        "errors":
          [ { "kind": "temporary",
              "id": "proto.011-PtHangz2.prefilter.outdated_endorsement" } ],
        "included_in_blocks":
          [ "BLGVkq1n7u9ELSPJCEeN4GAmNwjDfxEFQnBSyMSho8WFACyziV2" ] },
      { "delegate": "tz1P2Po7YM526ughEsRbY4oR9zaUPDZjxFrb",
        "reception_time": "2022-01-18T15:34:43.275-00:00",
        "errors":
          [ { "kind": "temporary",
              "id": "proto.011-PtHangz2.prefilter.outdated_endorsement" } ],
        "included_in_blocks":
          [ "BLGVkq1n7u9ELSPJCEeN4GAmNwjDfxEFQnBSyMSho8WFACyziV2" ] },
      { "delegate": "tz1S8e9GgdZG78XJRB3NqabfWeM37GnhZMWQ",
        "reception_time": "2022-01-18T15:34:43.092-00:00",
        "errors":
          [ { "kind": "temporary",
              "id": "proto.011-PtHangz2.prefilter.outdated_endorsement" } ],
        "included_in_blocks":
          [ "BLGVkq1n7u9ELSPJCEeN4GAmNwjDfxEFQnBSyMSho8WFACyziV2" ] },
      { "delegate": "tz2BzJTyoQp8fNbfhWD4YQgH9JJHDgSGzpdG",
        "reception_time": "2022-01-18T15:34:56.642-00:00",
        "included_in_blocks":
          [ "BLGVkq1n7u9ELSPJCEeN4GAmNwjDfxEFQnBSyMSho8WFACyziV2" ] },
      { "delegate": "tz3bEQoFCZEEfZMskefZ8q8e4eiHH1pssRax",
        "reception_time": "2022-01-18T15:34:53.875-00:00",
        "included_in_blocks":
          [ "BLGVkq1n7u9ELSPJCEeN4GAmNwjDfxEFQnBSyMSho8WFACyziV2" ] },
      { "delegate": "tz1S5WxdZR5f9NzsPXhr7L9L1vrEb5spZFur",
        "reception_time": "2022-01-18T15:34:49.772-00:00",
        "included_in_blocks":
          [ "BLGVkq1n7u9ELSPJCEeN4GAmNwjDfxEFQnBSyMSho8WFACyziV2" ] },
      { "delegate": "tz1aJS7Pk9uWR3wWyFf1i3RwhYxN84G7stom",
        "reception_time": "2022-01-18T15:34:49.927-00:00",
        "included_in_blocks":
          [ "BLGVkq1n7u9ELSPJCEeN4GAmNwjDfxEFQnBSyMSho8WFACyziV2" ] },
      { "delegate": "tz1awXW7wuXy21c66vBudMXQVAPgRnqqwgTH",
        "reception_time": "2022-01-18T15:34:48.428-00:00",
        "included_in_blocks":
          [ "BLGVkq1n7u9ELSPJCEeN4GAmNwjDfxEFQnBSyMSho8WFACyziV2" ] },
      { "delegate": "tz1TRqbYbUf2GyrjErf3hBzgBJPzW8y36qEs",
        "reception_time": "2022-01-18T15:34:48.385-00:00",
        "included_in_blocks":
          [ "BLGVkq1n7u9ELSPJCEeN4GAmNwjDfxEFQnBSyMSho8WFACyziV2" ] },
      { "delegate": "tz1T7duV5gZWSTq4YpBGbXNLTfznCLDrFxvs",
        "reception_time": "2022-01-18T15:34:48.265-00:00",
        "included_in_blocks":
          [ "BLGVkq1n7u9ELSPJCEeN4GAmNwjDfxEFQnBSyMSho8WFACyziV2" ] },
      { "delegate": "tz1QJU1PuKUP5ZQxUr4pHZjCHGRvJSpcXv7G",
        "reception_time": "2022-01-18T15:34:48.466-00:00",
        "included_in_blocks":
          [ "BLGVkq1n7u9ELSPJCEeN4GAmNwjDfxEFQnBSyMSho8WFACyziV2" ] },
      { "delegate": "tz1aRoaRhSpRYvFdyvgWLL6TGyRoGF51wDjM",
        "reception_time": "2022-01-18T15:34:47.665-00:00",
        "included_in_blocks":
          [ "BLGVkq1n7u9ELSPJCEeN4GAmNwjDfxEFQnBSyMSho8WFACyziV2" ] },
      { "delegate": "tz2FCNBrERXtaTtNX6iimR1UJ5JSDxvdHM93",
        "reception_time": "2022-01-18T15:34:47.025-00:00",
        "included_in_blocks":
          [ "BLGVkq1n7u9ELSPJCEeN4GAmNwjDfxEFQnBSyMSho8WFACyziV2" ] },
      { "delegate": "tz1SYq214SCBy9naR6cvycQsYcUGpBqQAE8d",
        "reception_time": "2022-01-18T15:34:46.938-00:00",
        "included_in_blocks":
          [ "BLGVkq1n7u9ELSPJCEeN4GAmNwjDfxEFQnBSyMSho8WFACyziV2" ] },
      { "delegate": "tz1Q8QkSBS63ZQnH3fBTiAMPes9R666Rn6Sc",
        "reception_time": "2022-01-18T15:34:47.821-00:00",
        "included_in_blocks":
          [ "BLGVkq1n7u9ELSPJCEeN4GAmNwjDfxEFQnBSyMSho8WFACyziV2" ] },
      { "delegate": "tz3bvNMQ95vfAYtG8193ymshqjSvmxiCUuR5",
        "reception_time": "2022-01-18T15:34:46.676-00:00",
        "included_in_blocks":
          [ "BLGVkq1n7u9ELSPJCEeN4GAmNwjDfxEFQnBSyMSho8WFACyziV2" ] },
      { "delegate": "tz3NDpRj6WBrJPikcPVHRBEjWKxFw3c6eQPS",
        "reception_time": "2022-01-18T15:34:46.668-00:00",
        "included_in_blocks":
          [ "BLGVkq1n7u9ELSPJCEeN4GAmNwjDfxEFQnBSyMSho8WFACyziV2" ] },
      { "delegate": "tz3gLTu4Yxj8tPAcriQVUdxv6BY9QyvzU1az",
        "reception_time": "2022-01-18T15:34:46.683-00:00",
        "included_in_blocks":
          [ "BLGVkq1n7u9ELSPJCEeN4GAmNwjDfxEFQnBSyMSho8WFACyziV2" ] },
      { "delegate": "tz1PeZx7FXy7QRuMREGXGxeipb24RsMMzUNe",
        "reception_time": "2022-01-18T15:34:46.639-00:00",
        "included_in_blocks":
          [ "BLGVkq1n7u9ELSPJCEeN4GAmNwjDfxEFQnBSyMSho8WFACyziV2" ] },
      { "delegate": "tz1NRGxXV9h6SdNaZLcgmjuLx3hyy2f8YoGN",
        "reception_time": "2022-01-18T15:34:47.126-00:00",
        "included_in_blocks":
          [ "BLGVkq1n7u9ELSPJCEeN4GAmNwjDfxEFQnBSyMSho8WFACyziV2" ] },
      { "delegate": "tz3NExpXn9aPNZPorRE4SdjJ2RGrfbJgMAaV",
        "reception_time": "2022-01-18T15:34:47.514-00:00",
        "included_in_blocks":
          [ "BLGVkq1n7u9ELSPJCEeN4GAmNwjDfxEFQnBSyMSho8WFACyziV2" ] },
      { "delegate": "tz3RDC3Jdn4j15J7bBHZd29EUee9gVB1CxD9",
        "reception_time": "2022-01-18T15:34:46.324-00:00",
        "included_in_blocks":
          [ "BLGVkq1n7u9ELSPJCEeN4GAmNwjDfxEFQnBSyMSho8WFACyziV2" ] },
      { "delegate": "tz1fwnfJNgiDACshK9avfRfFbMaXrs3ghoJa",
        "reception_time": "2022-01-18T15:34:46.590-00:00",
        "included_in_blocks":
          [ "BLGVkq1n7u9ELSPJCEeN4GAmNwjDfxEFQnBSyMSho8WFACyziV2" ] },
      { "delegate": "tz1WctSwL49BZtdWAQ75NY6vr4xsAx6oKdah",
        "reception_time": "2022-01-18T15:34:46.753-00:00",
        "included_in_blocks":
          [ "BLGVkq1n7u9ELSPJCEeN4GAmNwjDfxEFQnBSyMSho8WFACyziV2" ] },
      { "delegate": "tz3WMqdzXqRWXwyvj5Hp2H7QEepaUuS7vd9K",
        "reception_time": "2022-01-18T15:34:47.592-00:00",
        "included_in_blocks":
          [ "BLGVkq1n7u9ELSPJCEeN4GAmNwjDfxEFQnBSyMSho8WFACyziV2" ] },
      { "delegate": "tz3VEZ4k6a4Wx42iyev6i2aVAptTRLEAivNN",
        "reception_time": "2022-01-18T15:34:47.085-00:00",
        "included_in_blocks":
          [ "BLGVkq1n7u9ELSPJCEeN4GAmNwjDfxEFQnBSyMSho8WFACyziV2" ] },
      { "delegate": "tz1abmz7jiCV2GH2u81LRrGgAFFgvQgiDiaf",
        "reception_time": "2022-01-18T15:34:46.313-00:00",
        "included_in_blocks":
          [ "BLGVkq1n7u9ELSPJCEeN4GAmNwjDfxEFQnBSyMSho8WFACyziV2" ] },
      { "delegate": "tz1WBfwbT66FC6BTLexc2BoyCCBM9LG7pnVW",
        "reception_time": "2022-01-18T15:34:46.083-00:00",
        "included_in_blocks":
          [ "BLGVkq1n7u9ELSPJCEeN4GAmNwjDfxEFQnBSyMSho8WFACyziV2" ] },
      { "delegate": "tz1RQhNh7iB9CZA7i3ifTWNwiGYVffponfbB",
        "reception_time": "2022-01-18T15:34:46.029-00:00",
        "included_in_blocks":
          [ "BLGVkq1n7u9ELSPJCEeN4GAmNwjDfxEFQnBSyMSho8WFACyziV2" ] },
      { "delegate": "tz1WwDDoqA6h1wAnAoT5jiCYJz5CB43f3D78",
        "reception_time": "2022-01-18T15:34:46.261-00:00",
        "included_in_blocks":
          [ "BLGVkq1n7u9ELSPJCEeN4GAmNwjDfxEFQnBSyMSho8WFACyziV2" ] },
      { "delegate": "tz1NEKxGEHsFufk87CVZcrqWu8o22qh46GK6",
        "reception_time": "2022-01-18T15:34:46.405-00:00",
        "included_in_blocks":
          [ "BLGVkq1n7u9ELSPJCEeN4GAmNwjDfxEFQnBSyMSho8WFACyziV2" ] },
      { "delegate": "tz1RjoHc98dBoqaH2jawF62XNKh7YsHwbkEv",
        "reception_time": "2022-01-18T15:34:46.707-00:00",
        "included_in_blocks":
          [ "BLGVkq1n7u9ELSPJCEeN4GAmNwjDfxEFQnBSyMSho8WFACyziV2" ] },
      { "delegate": "tz1iZvYctCtV2oGvEeXCCgUseb4qtdKh3mrV",
        "reception_time": "2022-01-18T15:34:46.019-00:00",
        "included_in_blocks":
          [ "BLGVkq1n7u9ELSPJCEeN4GAmNwjDfxEFQnBSyMSho8WFACyziV2" ] },
      { "delegate": "tz1TEc75UKXv4W5cwi14Na3NtqFD51yKQi7h",
        "reception_time": "2022-01-18T15:34:46.111-00:00",
        "included_in_blocks":
          [ "BLGVkq1n7u9ELSPJCEeN4GAmNwjDfxEFQnBSyMSho8WFACyziV2" ] },
      { "delegate": "tz1KfEsrtDaA1sX7vdM4qmEPWuSytuqCDp5j",
        "reception_time": "2022-01-18T15:34:46.141-00:00",
        "included_in_blocks":
          [ "BLGVkq1n7u9ELSPJCEeN4GAmNwjDfxEFQnBSyMSho8WFACyziV2" ] },
      { "delegate": "tz3RB4aoyjov4KEVRbuhvQ1CKJgBJMWhaeB8",
        "reception_time": "2022-01-18T15:34:45.635-00:00",
        "included_in_blocks":
          [ "BLGVkq1n7u9ELSPJCEeN4GAmNwjDfxEFQnBSyMSho8WFACyziV2" ] },
      { "delegate": "tz3bTdwZinP8U1JmSweNzVKhmwafqWmFWRfk",
        "reception_time": "2022-01-18T15:34:45.994-00:00",
        "included_in_blocks":
          [ "BLGVkq1n7u9ELSPJCEeN4GAmNwjDfxEFQnBSyMSho8WFACyziV2" ] },
      { "delegate": "tz1fUjvVhJrHLZCbhPNvDRckxApqbkievJHN",
        "reception_time": "2022-01-18T15:34:45.635-00:00",
        "included_in_blocks":
          [ "BLGVkq1n7u9ELSPJCEeN4GAmNwjDfxEFQnBSyMSho8WFACyziV2" ] },
      { "delegate": "tz1fb7c66UwePkkfDXz4ajFaBP9hVNLdS7JJ",
        "reception_time": "2022-01-18T15:34:45.757-00:00",
        "included_in_blocks":
          [ "BLGVkq1n7u9ELSPJCEeN4GAmNwjDfxEFQnBSyMSho8WFACyziV2" ] },
      { "delegate": "tz3UoffC7FG7zfpmvmjUmUeAaHvzdcUvAj6r",
        "reception_time": "2022-01-18T15:34:46.119-00:00",
        "included_in_blocks":
          [ "BLGVkq1n7u9ELSPJCEeN4GAmNwjDfxEFQnBSyMSho8WFACyziV2" ] },
      { "delegate": "tz1LmaFsWRkjr7QMCx5PtV6xTUz3AmEpKQiF",
        "reception_time": "2022-01-18T15:34:46.100-00:00",
        "included_in_blocks":
          [ "BLGVkq1n7u9ELSPJCEeN4GAmNwjDfxEFQnBSyMSho8WFACyziV2" ] },
      { "delegate": "tz1V4qCyvPKZ5UeqdH14HN42rxvNPQfc9UZg",
        "reception_time": "2022-01-18T15:34:45.829-00:00",
        "included_in_blocks":
          [ "BLGVkq1n7u9ELSPJCEeN4GAmNwjDfxEFQnBSyMSho8WFACyziV2" ] },
      { "delegate": "tz1dNVDWPf3Q59SdJqnjdnu277iyvReiRS9M",
        "reception_time": "2022-01-18T15:34:46.015-00:00",
        "included_in_blocks":
          [ "BLGVkq1n7u9ELSPJCEeN4GAmNwjDfxEFQnBSyMSho8WFACyziV2" ] },
      { "delegate": "tz1Nf6tsK4G6bBqgSQERy4nUtkHNKUVdh7q1",
        "reception_time": "2022-01-18T15:34:46.034-00:00",
        "included_in_blocks":
          [ "BLGVkq1n7u9ELSPJCEeN4GAmNwjDfxEFQnBSyMSho8WFACyziV2" ] },
      { "delegate": "tz3S6BBeKgJGXxvLyZ1xzXzMPn11nnFtq5L9",
        "reception_time": "2022-01-18T15:34:45.683-00:00",
        "included_in_blocks":
          [ "BLGVkq1n7u9ELSPJCEeN4GAmNwjDfxEFQnBSyMSho8WFACyziV2" ] },
      { "delegate": "tz3Zhs2dygr55yHyQyKjntAtY9bgfhLZ4Xj1",
        "reception_time": "2022-01-18T15:34:45.593-00:00",
        "included_in_blocks":
          [ "BLGVkq1n7u9ELSPJCEeN4GAmNwjDfxEFQnBSyMSho8WFACyziV2" ] },
      { "delegate": "tz1WCd2jm4uSt4vntk4vSuUWoZQGhLcDuR9q",
        "reception_time": "2022-01-18T15:34:45.498-00:00",
        "included_in_blocks":
          [ "BLGVkq1n7u9ELSPJCEeN4GAmNwjDfxEFQnBSyMSho8WFACyziV2" ] },
      { "delegate": "tz3iJu5vrKZcsqRPs8yJ61UDoeEXZmtro4qh",
        "reception_time": "2022-01-18T15:34:45.602-00:00",
        "included_in_blocks":
          [ "BLGVkq1n7u9ELSPJCEeN4GAmNwjDfxEFQnBSyMSho8WFACyziV2" ] },
      { "delegate": "tz1ei4WtWEMEJekSv8qDnu9PExG6Q8HgRGr3",
        "reception_time": "2022-01-18T15:34:45.904-00:00",
        "included_in_blocks":
          [ "BLGVkq1n7u9ELSPJCEeN4GAmNwjDfxEFQnBSyMSho8WFACyziV2" ] },
      { "delegate": "tz3QSGPoRp3Kn7n3vY24eYeu3Peuqo45LQ4D",
        "reception_time": "2022-01-18T15:34:45.660-00:00",
        "included_in_blocks":
          [ "BLGVkq1n7u9ELSPJCEeN4GAmNwjDfxEFQnBSyMSho8WFACyziV2" ] },
      { "delegate": "tz1RCFbB9GpALpsZtu6J58sb74dm8qe6XBzv",
        "reception_time": "2022-01-18T15:34:45.771-00:00",
        "included_in_blocks":
          [ "BLGVkq1n7u9ELSPJCEeN4GAmNwjDfxEFQnBSyMSho8WFACyziV2" ] },
      { "delegate": "tz1PWCDnz783NNGGQjEFFsHtrcK5yBW4E2rm",
        "reception_time": "2022-01-18T15:34:45.760-00:00",
        "included_in_blocks":
          [ "BLGVkq1n7u9ELSPJCEeN4GAmNwjDfxEFQnBSyMSho8WFACyziV2" ] },
      { "delegate": "tz1fPKAtsYydh4f1wfWNfeNxWYu72TmM48fu",
        "reception_time": "2022-01-18T15:34:45.922-00:00",
        "included_in_blocks":
          [ "BLGVkq1n7u9ELSPJCEeN4GAmNwjDfxEFQnBSyMSho8WFACyziV2" ] },
      { "delegate": "tz3gtoUxdudfBRcNY7iVdKPHCYYX6xdPpoRS",
        "reception_time": "2022-01-18T15:34:45.529-00:00",
        "included_in_blocks":
          [ "BLGVkq1n7u9ELSPJCEeN4GAmNwjDfxEFQnBSyMSho8WFACyziV2" ] },
      { "delegate": "tz1Ldzz6k1BHdhuKvAtMRX7h5kJSMHESMHLC",
        "reception_time": "2022-01-18T15:34:45.495-00:00",
        "included_in_blocks":
          [ "BLGVkq1n7u9ELSPJCEeN4GAmNwjDfxEFQnBSyMSho8WFACyziV2" ] },
      { "delegate": "tz1YhNsiRRU8aHNGg7NK3uuP6UDAyacJernB",
        "reception_time": "2022-01-18T15:34:45.646-00:00",
        "included_in_blocks":
          [ "BLGVkq1n7u9ELSPJCEeN4GAmNwjDfxEFQnBSyMSho8WFACyziV2" ] },
      { "delegate": "tz3NxTnke1acr8o3h5y9ytf5awQBGNJUKzVU",
        "reception_time": "2022-01-18T15:34:45.463-00:00",
        "included_in_blocks":
          [ "BLGVkq1n7u9ELSPJCEeN4GAmNwjDfxEFQnBSyMSho8WFACyziV2" ] },
      { "delegate": "tz1gfArv665EUkSg2ojMBzcbfwuPxAvqPvjo",
        "reception_time": "2022-01-18T15:34:45.660-00:00",
        "included_in_blocks":
          [ "BLGVkq1n7u9ELSPJCEeN4GAmNwjDfxEFQnBSyMSho8WFACyziV2" ] },
      { "delegate": "tz3ZbP2pM3nwvXztbuMJwJnDvV5xdpU8UkkD",
        "reception_time": "2022-01-18T15:34:45.463-00:00",
        "included_in_blocks":
          [ "BLGVkq1n7u9ELSPJCEeN4GAmNwjDfxEFQnBSyMSho8WFACyziV2" ] },
      { "delegate": "tz3hw2kqXhLUvY65ca1eety2oQTpAvd34R9Q",
        "reception_time": "2022-01-18T15:34:45.509-00:00",
        "included_in_blocks":
          [ "BLGVkq1n7u9ELSPJCEeN4GAmNwjDfxEFQnBSyMSho8WFACyziV2" ] },
      { "delegate": "tz1VQnqCCqX4K5sP3FNkVSNKTdCAMJDd3E1n",
        "reception_time": "2022-01-18T15:34:45.445-00:00",
        "included_in_blocks":
          [ "BLGVkq1n7u9ELSPJCEeN4GAmNwjDfxEFQnBSyMSho8WFACyziV2" ] },
      { "delegate": "tz1gUNyn3hmnEWqkusWPzxRaon1cs7ndWh7h",
        "reception_time": "2022-01-18T15:34:45.467-00:00",
        "included_in_blocks":
          [ "BLGVkq1n7u9ELSPJCEeN4GAmNwjDfxEFQnBSyMSho8WFACyziV2" ] },
      { "delegate": "tz1TRspM5SeZpaQUhzByXbEvqKF1vnCM2YTK",
        "reception_time": "2022-01-18T15:34:45.646-00:00",
        "included_in_blocks":
          [ "BLGVkq1n7u9ELSPJCEeN4GAmNwjDfxEFQnBSyMSho8WFACyziV2" ] },
      { "delegate": "tz1S8MNvuFEUsWgjHvi3AxibRBf388NhT1q2",
        "reception_time": "2022-01-18T15:34:45.957-00:00",
        "included_in_blocks":
          [ "BLGVkq1n7u9ELSPJCEeN4GAmNwjDfxEFQnBSyMSho8WFACyziV2" ] },
      { "delegate": "tz1VmiY38m3y95HqQLjMwqnMS7sdMfGomzKi",
        "reception_time": "2022-01-18T15:34:45.486-00:00",
        "included_in_blocks":
          [ "BLGVkq1n7u9ELSPJCEeN4GAmNwjDfxEFQnBSyMSho8WFACyziV2" ] } ] }