{ "blocks":
    [ { "hash": "BM8frFQv1umhcTBGJHqoFh5sd13exK5zLWqFhkbciuXqymTHTaX",
        "delegate": "tz1irJKkXS2DBWkU1NnmFQx1c1L7pbGg4yhk",
        "reception_time": "2022-01-18T14:56:34.684-00:00",
        "timestamp": "2022-01-18T14:56:30Z" } ],
  "endorsements":
    [ { "delegate": "tz1ibcPVGK4Y8pcW4BYUsojiHoBKnZbyDGrX" },
      { "delegate": "tz1UXkfg971HYuvsZG5x66fnMjrGxHKeZWPU" },
      { "delegate": "tz1NdhRv643wLW6zCcRP3VfT24dvDnh7nuh9" },
      { "delegate": "tz1cYufsxHXJcvANhvS55h3aY32a9BAFB494",
        "reception_time": "2022-01-18T14:56:42.573-00:00",
        "included_in_blocks":
          [ "BMWAi8eqHPkDi7NwHi7m8rkYExw81a7UokjVwUqHfb5E8WQnCbN" ] },
      { "delegate": "tz1NpWrAyDL9k2Lmnyxcgr9xuJakbBxdq7FB",
        "reception_time": "2022-01-18T14:56:42.084-00:00",
        "included_in_blocks":
          [ "BMWAi8eqHPkDi7NwHi7m8rkYExw81a7UokjVwUqHfb5E8WQnCbN" ] },
      { "delegate": "tz3bEQoFCZEEfZMskefZ8q8e4eiHH1pssRax",
        "reception_time": "2022-01-18T14:56:41.343-00:00",
        "included_in_blocks":
          [ "BMWAi8eqHPkDi7NwHi7m8rkYExw81a7UokjVwUqHfb5E8WQnCbN" ] },
      { "delegate": "tz1YiuvpfeVAHbnU8akcWErNfQGFHNQ7F45z",
        "reception_time": "2022-01-18T14:56:40.578-00:00",
        "included_in_blocks":
          [ "BMWAi8eqHPkDi7NwHi7m8rkYExw81a7UokjVwUqHfb5E8WQnCbN" ] },
      { "delegate": "tz1g8vkmcde6sWKaG2NN9WKzCkDM6Rziq194",
        "reception_time": "2022-01-18T14:56:40.420-00:00",
        "included_in_blocks":
          [ "BMWAi8eqHPkDi7NwHi7m8rkYExw81a7UokjVwUqHfb5E8WQnCbN" ] },
      { "delegate": "tz1QJU1PuKUP5ZQxUr4pHZjCHGRvJSpcXv7G",
        "reception_time": "2022-01-18T14:56:39.189-00:00",
        "included_in_blocks":
          [ "BMWAi8eqHPkDi7NwHi7m8rkYExw81a7UokjVwUqHfb5E8WQnCbN" ] },
      { "delegate": "tz1acZQd7TdfoiUnD2czHnTHB2TaJQP6gdqo",
        "reception_time": "2022-01-18T14:56:39.099-00:00",
        "included_in_blocks":
          [ "BMWAi8eqHPkDi7NwHi7m8rkYExw81a7UokjVwUqHfb5E8WQnCbN" ] },
      { "delegate": "tz1ZcTRk5uxD86EFEn1vvNffWWqJy7q5eVhc",
        "reception_time": "2022-01-18T14:56:38.822-00:00",
        "included_in_blocks":
          [ "BMWAi8eqHPkDi7NwHi7m8rkYExw81a7UokjVwUqHfb5E8WQnCbN" ] },
      { "delegate": "tz1T7duV5gZWSTq4YpBGbXNLTfznCLDrFxvs",
        "reception_time": "2022-01-18T14:56:38.491-00:00",
        "included_in_blocks":
          [ "BMWAi8eqHPkDi7NwHi7m8rkYExw81a7UokjVwUqHfb5E8WQnCbN" ] },
      { "delegate": "tz1NuUu12WHdW3jHqvkujGHsiTi46Wvw1ci1",
        "reception_time": "2022-01-18T14:56:38.273-00:00",
        "included_in_blocks":
          [ "BMWAi8eqHPkDi7NwHi7m8rkYExw81a7UokjVwUqHfb5E8WQnCbN" ] },
      { "delegate": "tz3NExpXn9aPNZPorRE4SdjJ2RGrfbJgMAaV",
        "reception_time": "2022-01-18T14:56:38.301-00:00",
        "included_in_blocks":
          [ "BMWAi8eqHPkDi7NwHi7m8rkYExw81a7UokjVwUqHfb5E8WQnCbN" ] },
      { "delegate": "tz1awXW7wuXy21c66vBudMXQVAPgRnqqwgTH",
        "reception_time": "2022-01-18T14:56:38.257-00:00",
        "included_in_blocks":
          [ "BMWAi8eqHPkDi7NwHi7m8rkYExw81a7UokjVwUqHfb5E8WQnCbN" ] },
      { "delegate": "tz1fJHFn6sWEd3NnBPngACuw2dggTv6nQZ7g",
        "reception_time": "2022-01-18T14:56:37.817-00:00",
        "included_in_blocks":
          [ "BMWAi8eqHPkDi7NwHi7m8rkYExw81a7UokjVwUqHfb5E8WQnCbN" ] },
      { "delegate": "tz1WnfXMPaNTBmH7DBPwqCWs9cPDJdkGBTZ8",
        "reception_time": "2022-01-18T14:56:37.735-00:00",
        "included_in_blocks":
          [ "BMWAi8eqHPkDi7NwHi7m8rkYExw81a7UokjVwUqHfb5E8WQnCbN" ] },
      { "delegate": "tz1TRqbYbUf2GyrjErf3hBzgBJPzW8y36qEs",
        "reception_time": "2022-01-18T14:56:37.832-00:00",
        "included_in_blocks":
          [ "BMWAi8eqHPkDi7NwHi7m8rkYExw81a7UokjVwUqHfb5E8WQnCbN" ] },
      { "delegate": "tz1aRoaRhSpRYvFdyvgWLL6TGyRoGF51wDjM",
        "reception_time": "2022-01-18T14:56:37.608-00:00",
        "included_in_blocks":
          [ "BMWAi8eqHPkDi7NwHi7m8rkYExw81a7UokjVwUqHfb5E8WQnCbN" ] },
      { "delegate": "tz1SYq214SCBy9naR6cvycQsYcUGpBqQAE8d",
        "reception_time": "2022-01-18T14:56:37.638-00:00",
        "included_in_blocks":
          [ "BMWAi8eqHPkDi7NwHi7m8rkYExw81a7UokjVwUqHfb5E8WQnCbN" ] },
      { "delegate": "tz1NEKxGEHsFufk87CVZcrqWu8o22qh46GK6",
        "reception_time": "2022-01-18T14:56:37.471-00:00",
        "included_in_blocks":
          [ "BMWAi8eqHPkDi7NwHi7m8rkYExw81a7UokjVwUqHfb5E8WQnCbN" ] },
      { "delegate": "tz1MQMiZHV8q4tTwUMWmS5Y3kaP6J2136iXr",
        "reception_time": "2022-01-18T14:56:37.333-00:00",
        "included_in_blocks":
          [ "BMWAi8eqHPkDi7NwHi7m8rkYExw81a7UokjVwUqHfb5E8WQnCbN" ] },
      { "delegate": "tz1S8MNvuFEUsWgjHvi3AxibRBf388NhT1q2",
        "reception_time": "2022-01-18T14:56:37.393-00:00",
        "included_in_blocks":
          [ "BMWAi8eqHPkDi7NwHi7m8rkYExw81a7UokjVwUqHfb5E8WQnCbN" ] },
      { "delegate": "tz3WMqdzXqRWXwyvj5Hp2H7QEepaUuS7vd9K",
        "reception_time": "2022-01-18T14:56:37.221-00:00",
        "included_in_blocks":
          [ "BMWAi8eqHPkDi7NwHi7m8rkYExw81a7UokjVwUqHfb5E8WQnCbN" ] },
      { "delegate": "tz1Nf6tsK4G6bBqgSQERy4nUtkHNKUVdh7q1",
        "reception_time": "2022-01-18T14:56:37.443-00:00",
        "included_in_blocks":
          [ "BMWAi8eqHPkDi7NwHi7m8rkYExw81a7UokjVwUqHfb5E8WQnCbN" ] },
      { "delegate": "tz1fwnfJNgiDACshK9avfRfFbMaXrs3ghoJa",
        "reception_time": "2022-01-18T14:56:37.304-00:00",
        "included_in_blocks":
          [ "BMWAi8eqHPkDi7NwHi7m8rkYExw81a7UokjVwUqHfb5E8WQnCbN" ] },
      { "delegate": "tz1UMCB2AHSTwG7YcGNr31CqYCtGN873royv",
        "reception_time": "2022-01-18T14:56:37.294-00:00",
        "included_in_blocks":
          [ "BMWAi8eqHPkDi7NwHi7m8rkYExw81a7UokjVwUqHfb5E8WQnCbN" ] },
      { "delegate": "tz1RV1MBbZMR68tacosb7Mwj6LkbPSUS1er1",
        "reception_time": "2022-01-18T14:56:37.186-00:00",
        "included_in_blocks":
          [ "BMWAi8eqHPkDi7NwHi7m8rkYExw81a7UokjVwUqHfb5E8WQnCbN" ] },
      { "delegate": "tz3NDpRj6WBrJPikcPVHRBEjWKxFw3c6eQPS",
        "reception_time": "2022-01-18T14:56:37.262-00:00",
        "included_in_blocks":
          [ "BMWAi8eqHPkDi7NwHi7m8rkYExw81a7UokjVwUqHfb5E8WQnCbN" ] },
      { "delegate": "tz3gLTu4Yxj8tPAcriQVUdxv6BY9QyvzU1az",
        "reception_time": "2022-01-18T14:56:37.172-00:00",
        "included_in_blocks":
          [ "BMWAi8eqHPkDi7NwHi7m8rkYExw81a7UokjVwUqHfb5E8WQnCbN" ] },
      { "delegate": "tz1cZfFQpcYhwDp7y1njZXDsZqCrn2NqmVof",
        "reception_time": "2022-01-18T14:56:37.148-00:00",
        "included_in_blocks":
          [ "BMWAi8eqHPkDi7NwHi7m8rkYExw81a7UokjVwUqHfb5E8WQnCbN" ] },
      { "delegate": "tz1TEc75UKXv4W5cwi14Na3NtqFD51yKQi7h",
        "reception_time": "2022-01-18T14:56:37.087-00:00",
        "included_in_blocks":
          [ "BMWAi8eqHPkDi7NwHi7m8rkYExw81a7UokjVwUqHfb5E8WQnCbN" ] },
      { "delegate": "tz1NoYvKjXTzTk54VpLxBfouJ33J8jwKPPvw",
        "reception_time": "2022-01-18T14:56:37.114-00:00",
        "included_in_blocks":
          [ "BMWAi8eqHPkDi7NwHi7m8rkYExw81a7UokjVwUqHfb5E8WQnCbN" ] },
      { "delegate": "tz1KfEsrtDaA1sX7vdM4qmEPWuSytuqCDp5j",
        "reception_time": "2022-01-18T14:56:36.986-00:00",
        "included_in_blocks":
          [ "BMWAi8eqHPkDi7NwHi7m8rkYExw81a7UokjVwUqHfb5E8WQnCbN" ] },
      { "delegate": "tz1fPKAtsYydh4f1wfWNfeNxWYu72TmM48fu",
        "reception_time": "2022-01-18T14:56:36.952-00:00",
        "included_in_blocks":
          [ "BMWAi8eqHPkDi7NwHi7m8rkYExw81a7UokjVwUqHfb5E8WQnCbN" ] },
      { "delegate": "tz1PWCDnz783NNGGQjEFFsHtrcK5yBW4E2rm",
        "reception_time": "2022-01-18T14:56:36.932-00:00",
        "included_in_blocks":
          [ "BMWAi8eqHPkDi7NwHi7m8rkYExw81a7UokjVwUqHfb5E8WQnCbN" ] },
      { "delegate": "tz1WBfwbT66FC6BTLexc2BoyCCBM9LG7pnVW",
        "reception_time": "2022-01-18T14:56:36.949-00:00",
        "included_in_blocks":
          [ "BMWAi8eqHPkDi7NwHi7m8rkYExw81a7UokjVwUqHfb5E8WQnCbN" ] },
      { "delegate": "tz2FCNBrERXtaTtNX6iimR1UJ5JSDxvdHM93",
        "reception_time": "2022-01-18T14:56:36.945-00:00",
        "included_in_blocks":
          [ "BMWAi8eqHPkDi7NwHi7m8rkYExw81a7UokjVwUqHfb5E8WQnCbN" ] },
      { "delegate": "tz1LmaFsWRkjr7QMCx5PtV6xTUz3AmEpKQiF",
        "reception_time": "2022-01-18T14:56:36.936-00:00",
        "included_in_blocks":
          [ "BMWAi8eqHPkDi7NwHi7m8rkYExw81a7UokjVwUqHfb5E8WQnCbN" ] },
      { "delegate": "tz1ei4WtWEMEJekSv8qDnu9PExG6Q8HgRGr3",
        "reception_time": "2022-01-18T14:56:36.932-00:00",
        "included_in_blocks":
          [ "BMWAi8eqHPkDi7NwHi7m8rkYExw81a7UokjVwUqHfb5E8WQnCbN" ] },
      { "delegate": "tz3bTdwZinP8U1JmSweNzVKhmwafqWmFWRfk",
        "reception_time": "2022-01-18T14:56:36.837-00:00",
        "included_in_blocks":
          [ "BMWAi8eqHPkDi7NwHi7m8rkYExw81a7UokjVwUqHfb5E8WQnCbN" ] },
      { "delegate": "tz3RB4aoyjov4KEVRbuhvQ1CKJgBJMWhaeB8",
        "reception_time": "2022-01-18T14:56:36.860-00:00",
        "included_in_blocks":
          [ "BMWAi8eqHPkDi7NwHi7m8rkYExw81a7UokjVwUqHfb5E8WQnCbN" ] },
      { "delegate": "tz1gfArv665EUkSg2ojMBzcbfwuPxAvqPvjo",
        "reception_time": "2022-01-18T14:56:36.757-00:00",
        "included_in_blocks":
          [ "BMWAi8eqHPkDi7NwHi7m8rkYExw81a7UokjVwUqHfb5E8WQnCbN" ] },
      { "delegate": "tz1iPHM2Xx2hwmzcr1EG1zzrV6oKafVoA91m",
        "reception_time": "2022-01-18T14:56:36.679-00:00",
        "included_in_blocks":
          [ "BMWAi8eqHPkDi7NwHi7m8rkYExw81a7UokjVwUqHfb5E8WQnCbN" ] },
      { "delegate": "tz1RCFbB9GpALpsZtu6J58sb74dm8qe6XBzv",
        "reception_time": "2022-01-18T14:56:36.761-00:00",
        "included_in_blocks":
          [ "BMWAi8eqHPkDi7NwHi7m8rkYExw81a7UokjVwUqHfb5E8WQnCbN" ] },
      { "delegate": "tz1aqcYgG6NuViML5vdWhohHJBYxcDVLNUsE",
        "reception_time": "2022-01-18T14:56:36.721-00:00",
        "included_in_blocks":
          [ "BMWAi8eqHPkDi7NwHi7m8rkYExw81a7UokjVwUqHfb5E8WQnCbN" ] },
      { "delegate": "tz1cSj7fTex3JPd1p1LN1fwek6AV1kH93Wwc",
        "reception_time": "2022-01-18T14:56:36.795-00:00",
        "included_in_blocks":
          [ "BMWAi8eqHPkDi7NwHi7m8rkYExw81a7UokjVwUqHfb5E8WQnCbN" ] },
      { "delegate": "tz3bvNMQ95vfAYtG8193ymshqjSvmxiCUuR5",
        "reception_time": "2022-01-18T14:56:36.829-00:00",
        "included_in_blocks":
          [ "BMWAi8eqHPkDi7NwHi7m8rkYExw81a7UokjVwUqHfb5E8WQnCbN" ] },
      { "delegate": "tz3e7LbZvUtoXhpUD1yb6wuFodZpfYRb9nWJ",
        "reception_time": "2022-01-18T14:56:36.819-00:00",
        "included_in_blocks":
          [ "BMWAi8eqHPkDi7NwHi7m8rkYExw81a7UokjVwUqHfb5E8WQnCbN" ] },
      { "delegate": "tz3RDC3Jdn4j15J7bBHZd29EUee9gVB1CxD9",
        "reception_time": "2022-01-18T14:56:36.846-00:00",
        "included_in_blocks":
          [ "BMWAi8eqHPkDi7NwHi7m8rkYExw81a7UokjVwUqHfb5E8WQnCbN" ] },
      { "delegate": "tz1TzaNn7wSQSP5gYPXCnNzBCpyMiidCq1PX",
        "reception_time": "2022-01-18T14:56:36.709-00:00",
        "included_in_blocks":
          [ "BMWAi8eqHPkDi7NwHi7m8rkYExw81a7UokjVwUqHfb5E8WQnCbN" ] },
      { "delegate": "tz3S6BBeKgJGXxvLyZ1xzXzMPn11nnFtq5L9",
        "reception_time": "2022-01-18T14:56:36.679-00:00",
        "included_in_blocks":
          [ "BMWAi8eqHPkDi7NwHi7m8rkYExw81a7UokjVwUqHfb5E8WQnCbN" ] },
      { "delegate": "tz1WCd2jm4uSt4vntk4vSuUWoZQGhLcDuR9q",
        "reception_time": "2022-01-18T14:56:36.548-00:00",
        "included_in_blocks":
          [ "BMWAi8eqHPkDi7NwHi7m8rkYExw81a7UokjVwUqHfb5E8WQnCbN" ] },
      { "delegate": "tz1Ldzz6k1BHdhuKvAtMRX7h5kJSMHESMHLC",
        "reception_time": "2022-01-18T14:56:36.202-00:00",
        "included_in_blocks":
          [ "BMWAi8eqHPkDi7NwHi7m8rkYExw81a7UokjVwUqHfb5E8WQnCbN" ] },
      { "delegate": "tz1Kt4P8BCaP93AEV4eA7gmpRryWt5hznjCP",
        "reception_time": "2022-01-18T14:56:36.427-00:00",
        "included_in_blocks":
          [ "BMWAi8eqHPkDi7NwHi7m8rkYExw81a7UokjVwUqHfb5E8WQnCbN" ] },
      { "delegate": "tz3QSGPoRp3Kn7n3vY24eYeu3Peuqo45LQ4D",
        "reception_time": "2022-01-18T14:56:36.392-00:00",
        "included_in_blocks":
          [ "BMWAi8eqHPkDi7NwHi7m8rkYExw81a7UokjVwUqHfb5E8WQnCbN" ] },
      { "delegate": "tz3QT9dHYKDqh563chVa6za8526ys1UKfRfL",
        "reception_time": "2022-01-18T14:56:36.535-00:00",
        "included_in_blocks":
          [ "BMWAi8eqHPkDi7NwHi7m8rkYExw81a7UokjVwUqHfb5E8WQnCbN" ] },
      { "delegate": "tz3QCNyySViKHmeSr45kzDxzchys7NiXCWoa",
        "reception_time": "2022-01-18T14:56:36.450-00:00",
        "included_in_blocks":
          [ "BMWAi8eqHPkDi7NwHi7m8rkYExw81a7UokjVwUqHfb5E8WQnCbN" ] },
      { "delegate": "tz1gcna2xxZj2eNp1LaMyAhVJ49mEFj4FH26",
        "reception_time": "2022-01-18T14:56:36.199-00:00",
        "included_in_blocks":
          [ "BMWAi8eqHPkDi7NwHi7m8rkYExw81a7UokjVwUqHfb5E8WQnCbN" ] },
      { "delegate": "tz3iJu5vrKZcsqRPs8yJ61UDoeEXZmtro4qh",
        "reception_time": "2022-01-18T14:56:36.371-00:00",
        "included_in_blocks":
          [ "BMWAi8eqHPkDi7NwHi7m8rkYExw81a7UokjVwUqHfb5E8WQnCbN" ] },
      { "delegate": "tz1dUpfvjmAX3HLYvYhAwb94qe7nJodJr51c",
        "reception_time": "2022-01-18T14:56:36.291-00:00",
        "included_in_blocks":
          [ "BMWAi8eqHPkDi7NwHi7m8rkYExw81a7UokjVwUqHfb5E8WQnCbN" ] },
      { "delegate": "tz3gtoUxdudfBRcNY7iVdKPHCYYX6xdPpoRS",
        "reception_time": "2022-01-18T14:56:36.241-00:00",
        "included_in_blocks":
          [ "BMWAi8eqHPkDi7NwHi7m8rkYExw81a7UokjVwUqHfb5E8WQnCbN" ] },
      { "delegate": "tz1MJx9vhaNRSimcuXPK2rW4fLccQnDAnVKJ",
        "reception_time": "2022-01-18T14:56:36.278-00:00",
        "included_in_blocks":
          [ "BMWAi8eqHPkDi7NwHi7m8rkYExw81a7UokjVwUqHfb5E8WQnCbN" ] },
      { "delegate": "tz3RKYFsLuQzKBtmYuLNas7uMu3AsYd4QdsA",
        "reception_time": "2022-01-18T14:56:36.209-00:00",
        "included_in_blocks":
          [ "BMWAi8eqHPkDi7NwHi7m8rkYExw81a7UokjVwUqHfb5E8WQnCbN" ] },
      { "delegate": "tz3hw2kqXhLUvY65ca1eety2oQTpAvd34R9Q",
        "reception_time": "2022-01-18T14:56:36.272-00:00",
        "included_in_blocks":
          [ "BMWAi8eqHPkDi7NwHi7m8rkYExw81a7UokjVwUqHfb5E8WQnCbN" ] },
      { "delegate": "tz3NxTnke1acr8o3h5y9ytf5awQBGNJUKzVU",
        "reception_time": "2022-01-18T14:56:36.241-00:00",
        "included_in_blocks":
          [ "BMWAi8eqHPkDi7NwHi7m8rkYExw81a7UokjVwUqHfb5E8WQnCbN" ] },
      { "delegate": "tz3ZbP2pM3nwvXztbuMJwJnDvV5xdpU8UkkD",
        "reception_time": "2022-01-18T14:56:36.223-00:00",
        "included_in_blocks":
          [ "BMWAi8eqHPkDi7NwHi7m8rkYExw81a7UokjVwUqHfb5E8WQnCbN" ] },
      { "delegate": "tz1gUNyn3hmnEWqkusWPzxRaon1cs7ndWh7h",
        "reception_time": "2022-01-18T14:56:36.282-00:00",
        "included_in_blocks":
          [ "BMWAi8eqHPkDi7NwHi7m8rkYExw81a7UokjVwUqHfb5E8WQnCbN" ] },
      { "delegate": "tz1VQnqCCqX4K5sP3FNkVSNKTdCAMJDd3E1n",
        "reception_time": "2022-01-18T14:56:36.223-00:00",
        "included_in_blocks":
          [ "BMWAi8eqHPkDi7NwHi7m8rkYExw81a7UokjVwUqHfb5E8WQnCbN" ] },
      { "delegate": "tz1Scdr2HsZiQjc7bHMeBbmDRXYVvdhjJbBh",
        "reception_time": "2022-01-18T14:56:36.131-00:00",
        "included_in_blocks":
          [ "BMWAi8eqHPkDi7NwHi7m8rkYExw81a7UokjVwUqHfb5E8WQnCbN" ] },
      { "delegate": "tz1STeamwbp68THcny9zk3LsbG3H36DMvbRK",
        "reception_time": "2022-01-18T14:56:36.122-00:00",
        "included_in_blocks":
          [ "BMWAi8eqHPkDi7NwHi7m8rkYExw81a7UokjVwUqHfb5E8WQnCbN" ] },
      { "delegate": "tz1P2Po7YM526ughEsRbY4oR9zaUPDZjxFrb",
        "reception_time": "2022-01-18T14:56:36.140-00:00",
        "included_in_blocks":
          [ "BMWAi8eqHPkDi7NwHi7m8rkYExw81a7UokjVwUqHfb5E8WQnCbN" ] },
      { "delegate": "tz1eEnQhbwf6trb8Q8mPb2RaPkNk2rN7BKi8",
        "reception_time": "2022-01-18T14:56:36.189-00:00",
        "included_in_blocks":
          [ "BMWAi8eqHPkDi7NwHi7m8rkYExw81a7UokjVwUqHfb5E8WQnCbN" ] },
      { "delegate": "tz1irJKkXS2DBWkU1NnmFQx1c1L7pbGg4yhk",
        "reception_time": "2022-01-18T14:56:36.159-00:00",
        "included_in_blocks":
          [ "BMWAi8eqHPkDi7NwHi7m8rkYExw81a7UokjVwUqHfb5E8WQnCbN" ] },
      { "delegate": "tz1Lhf4J9Qxoe3DZ2nfe8FGDnvVj7oKjnMY6",
        "reception_time": "2022-01-18T14:56:36.140-00:00",
        "included_in_blocks":
          [ "BMWAi8eqHPkDi7NwHi7m8rkYExw81a7UokjVwUqHfb5E8WQnCbN" ] } ] }