{ "blocks":
    [ { "hash": "BLWN8nfKa5k3rtUKLuTfSe2weeBzJWe9tcqEUC25WbtVoM4t5ni",
        "delegate": "tz1S8MNvuFEUsWgjHvi3AxibRBf388NhT1q2",
        "reception_time": "2022-01-18T12:23:25.722-00:00",
        "timestamp": "2022-01-18T12:23:20Z" } ],
  "endorsements":
    [ { "delegate": "tz1ibcPVGK4Y8pcW4BYUsojiHoBKnZbyDGrX" },
      { "delegate": "tz1cYufsxHXJcvANhvS55h3aY32a9BAFB494" },
      { "delegate": "tz1eEnQhbwf6trb8Q8mPb2RaPkNk2rN7BKi8",
        "reception_time": "2022-01-18T12:23:25.617-00:00",
        "errors":
          [ { "kind": "temporary",
              "id": "proto.011-PtHangz2.prefilter.outdated_endorsement" } ],
        "included_in_blocks":
          [ "BLG9SKkAuggMoDWQDKBY6qTTdYvGGAWtb3yoZpsJtc75QAKj5uU" ] },
      { "delegate": "tz1P2Po7YM526ughEsRbY4oR9zaUPDZjxFrb",
        "reception_time": "2022-01-18T12:23:25.596-00:00",
        "errors":
          [ { "kind": "temporary",
              "id": "proto.011-PtHangz2.prefilter.outdated_endorsement" } ],
        "included_in_blocks":
          [ "BLG9SKkAuggMoDWQDKBY6qTTdYvGGAWtb3yoZpsJtc75QAKj5uU" ] },
      { "delegate": "tz1aXD7Jigrt3PBYSpHSg5Rr33SexMmmM5Ys",
        "reception_time": "2022-01-18T12:23:25.592-00:00",
        "errors":
          [ { "kind": "temporary",
              "id": "proto.011-PtHangz2.prefilter.outdated_endorsement" } ],
        "included_in_blocks":
          [ "BLG9SKkAuggMoDWQDKBY6qTTdYvGGAWtb3yoZpsJtc75QAKj5uU" ] },
      { "delegate": "tz1Lhf4J9Qxoe3DZ2nfe8FGDnvVj7oKjnMY6",
        "reception_time": "2022-01-18T12:23:25.588-00:00",
        "errors":
          [ { "kind": "temporary",
              "id": "proto.011-PtHangz2.prefilter.outdated_endorsement" } ],
        "included_in_blocks":
          [ "BLG9SKkAuggMoDWQDKBY6qTTdYvGGAWtb3yoZpsJtc75QAKj5uU" ] },
      { "delegate": "tz1Kt4P8BCaP93AEV4eA7gmpRryWt5hznjCP",
        "reception_time": "2022-01-18T12:23:25.506-00:00",
        "errors":
          [ { "kind": "temporary",
              "id": "proto.011-PtHangz2.prefilter.outdated_endorsement" } ],
        "included_in_blocks":
          [ "BLG9SKkAuggMoDWQDKBY6qTTdYvGGAWtb3yoZpsJtc75QAKj5uU" ] },
      { "delegate": "tz1S8MNvuFEUsWgjHvi3AxibRBf388NhT1q2",
        "reception_time": "2022-01-18T12:23:25.377-00:00",
        "errors":
          [ { "kind": "temporary",
              "id": "proto.011-PtHangz2.prefilter.outdated_endorsement" } ],
        "included_in_blocks":
          [ "BLG9SKkAuggMoDWQDKBY6qTTdYvGGAWtb3yoZpsJtc75QAKj5uU" ] },
      { "delegate": "tz1W5VkdB5s7ENMESVBtwyt9kyvLqPcUczRT",
        "reception_time": "2022-01-18T12:23:29.283-00:00",
        "included_in_blocks":
          [ "BLG9SKkAuggMoDWQDKBY6qTTdYvGGAWtb3yoZpsJtc75QAKj5uU" ] },
      { "delegate": "tz1ZcTRk5uxD86EFEn1vvNffWWqJy7q5eVhc",
        "reception_time": "2022-01-18T12:23:29.296-00:00",
        "included_in_blocks":
          [ "BLG9SKkAuggMoDWQDKBY6qTTdYvGGAWtb3yoZpsJtc75QAKj5uU" ] },
      { "delegate": "tz1T7duV5gZWSTq4YpBGbXNLTfznCLDrFxvs",
        "reception_time": "2022-01-18T12:23:28.767-00:00",
        "included_in_blocks":
          [ "BLG9SKkAuggMoDWQDKBY6qTTdYvGGAWtb3yoZpsJtc75QAKj5uU" ] },
      { "delegate": "tz3NExpXn9aPNZPorRE4SdjJ2RGrfbJgMAaV",
        "reception_time": "2022-01-18T12:23:28.452-00:00",
        "included_in_blocks":
          [ "BLG9SKkAuggMoDWQDKBY6qTTdYvGGAWtb3yoZpsJtc75QAKj5uU" ] },
      { "delegate": "tz1Zdk8q7wNasmv7VFeQ6QFwcw5fP2c7StoF",
        "reception_time": "2022-01-18T12:23:28.377-00:00",
        "included_in_blocks":
          [ "BLG9SKkAuggMoDWQDKBY6qTTdYvGGAWtb3yoZpsJtc75QAKj5uU" ] },
      { "delegate": "tz1aRoaRhSpRYvFdyvgWLL6TGyRoGF51wDjM",
        "reception_time": "2022-01-18T12:23:28.355-00:00",
        "included_in_blocks":
          [ "BLG9SKkAuggMoDWQDKBY6qTTdYvGGAWtb3yoZpsJtc75QAKj5uU" ] },
      { "delegate": "tz3RB4aoyjov4KEVRbuhvQ1CKJgBJMWhaeB8",
        "reception_time": "2022-01-18T12:23:28.300-00:00",
        "included_in_blocks":
          [ "BLG9SKkAuggMoDWQDKBY6qTTdYvGGAWtb3yoZpsJtc75QAKj5uU" ] },
      { "delegate": "tz3UoffC7FG7zfpmvmjUmUeAaHvzdcUvAj6r",
        "reception_time": "2022-01-18T12:23:28.348-00:00",
        "included_in_blocks":
          [ "BLG9SKkAuggMoDWQDKBY6qTTdYvGGAWtb3yoZpsJtc75QAKj5uU" ] },
      { "delegate": "tz1NEKxGEHsFufk87CVZcrqWu8o22qh46GK6",
        "reception_time": "2022-01-18T12:23:28.116-00:00",
        "included_in_blocks":
          [ "BLG9SKkAuggMoDWQDKBY6qTTdYvGGAWtb3yoZpsJtc75QAKj5uU" ] },
      { "delegate": "tz1QXrzaHrGACVn15UiCg33aLCJ6npWdQb3J",
        "reception_time": "2022-01-18T12:23:28.144-00:00",
        "included_in_blocks":
          [ "BLG9SKkAuggMoDWQDKBY6qTTdYvGGAWtb3yoZpsJtc75QAKj5uU" ] },
      { "delegate": "tz3NDpRj6WBrJPikcPVHRBEjWKxFw3c6eQPS",
        "reception_time": "2022-01-18T12:23:28.004-00:00",
        "included_in_blocks":
          [ "BLG9SKkAuggMoDWQDKBY6qTTdYvGGAWtb3yoZpsJtc75QAKj5uU" ] },
      { "delegate": "tz1c8TSSGtVtg7ANrNVY7G4KnLn7iKdRnUVk",
        "reception_time": "2022-01-18T12:23:27.966-00:00",
        "included_in_blocks":
          [ "BLG9SKkAuggMoDWQDKBY6qTTdYvGGAWtb3yoZpsJtc75QAKj5uU" ] },
      { "delegate": "tz3ZbP2pM3nwvXztbuMJwJnDvV5xdpU8UkkD",
        "reception_time": "2022-01-18T12:23:27.905-00:00",
        "included_in_blocks":
          [ "BLG9SKkAuggMoDWQDKBY6qTTdYvGGAWtb3yoZpsJtc75QAKj5uU" ] },
      { "delegate": "tz1SYq214SCBy9naR6cvycQsYcUGpBqQAE8d",
        "reception_time": "2022-01-18T12:23:27.723-00:00",
        "included_in_blocks":
          [ "BLG9SKkAuggMoDWQDKBY6qTTdYvGGAWtb3yoZpsJtc75QAKj5uU" ] },
      { "delegate": "tz3VEZ4k6a4Wx42iyev6i2aVAptTRLEAivNN",
        "reception_time": "2022-01-18T12:23:27.521-00:00",
        "included_in_blocks":
          [ "BLG9SKkAuggMoDWQDKBY6qTTdYvGGAWtb3yoZpsJtc75QAKj5uU" ] },
      { "delegate": "tz1Nf6tsK4G6bBqgSQERy4nUtkHNKUVdh7q1",
        "reception_time": "2022-01-18T12:23:27.494-00:00",
        "included_in_blocks":
          [ "BLG9SKkAuggMoDWQDKBY6qTTdYvGGAWtb3yoZpsJtc75QAKj5uU" ] },
      { "delegate": "tz1cig1EHyvZd7J2k389moM9PxVgPQvmFkvi",
        "reception_time": "2022-01-18T12:23:27.546-00:00",
        "included_in_blocks":
          [ "BLG9SKkAuggMoDWQDKBY6qTTdYvGGAWtb3yoZpsJtc75QAKj5uU" ] },
      { "delegate": "tz1g8vkmcde6sWKaG2NN9WKzCkDM6Rziq194",
        "reception_time": "2022-01-18T12:23:27.395-00:00",
        "included_in_blocks":
          [ "BLG9SKkAuggMoDWQDKBY6qTTdYvGGAWtb3yoZpsJtc75QAKj5uU" ] },
      { "delegate": "tz1RjoHc98dBoqaH2jawF62XNKh7YsHwbkEv",
        "reception_time": "2022-01-18T12:23:27.365-00:00",
        "included_in_blocks":
          [ "BLG9SKkAuggMoDWQDKBY6qTTdYvGGAWtb3yoZpsJtc75QAKj5uU" ] },
      { "delegate": "tz1awXW7wuXy21c66vBudMXQVAPgRnqqwgTH",
        "reception_time": "2022-01-18T12:23:27.309-00:00",
        "included_in_blocks":
          [ "BLG9SKkAuggMoDWQDKBY6qTTdYvGGAWtb3yoZpsJtc75QAKj5uU" ] },
      { "delegate": "tz2FCNBrERXtaTtNX6iimR1UJ5JSDxvdHM93",
        "reception_time": "2022-01-18T12:23:27.302-00:00",
        "included_in_blocks":
          [ "BLG9SKkAuggMoDWQDKBY6qTTdYvGGAWtb3yoZpsJtc75QAKj5uU" ] },
      { "delegate": "tz1VceyYUpq1gk5dtp6jXQRtCtY8hm5DKt72",
        "reception_time": "2022-01-18T12:23:27.326-00:00",
        "included_in_blocks":
          [ "BLG9SKkAuggMoDWQDKBY6qTTdYvGGAWtb3yoZpsJtc75QAKj5uU" ] },
      { "delegate": "tz3WMqdzXqRWXwyvj5Hp2H7QEepaUuS7vd9K",
        "reception_time": "2022-01-18T12:23:27.126-00:00",
        "included_in_blocks":
          [ "BLG9SKkAuggMoDWQDKBY6qTTdYvGGAWtb3yoZpsJtc75QAKj5uU" ] },
      { "delegate": "tz3RDC3Jdn4j15J7bBHZd29EUee9gVB1CxD9",
        "reception_time": "2022-01-18T12:23:27.180-00:00",
        "included_in_blocks":
          [ "BLG9SKkAuggMoDWQDKBY6qTTdYvGGAWtb3yoZpsJtc75QAKj5uU" ] },
      { "delegate": "tz1KfEsrtDaA1sX7vdM4qmEPWuSytuqCDp5j",
        "reception_time": "2022-01-18T12:23:27.196-00:00",
        "included_in_blocks":
          [ "BLG9SKkAuggMoDWQDKBY6qTTdYvGGAWtb3yoZpsJtc75QAKj5uU" ] },
      { "delegate": "tz3bvNMQ95vfAYtG8193ymshqjSvmxiCUuR5",
        "reception_time": "2022-01-18T12:23:27.132-00:00",
        "included_in_blocks":
          [ "BLG9SKkAuggMoDWQDKBY6qTTdYvGGAWtb3yoZpsJtc75QAKj5uU" ] },
      { "delegate": "tz3bTdwZinP8U1JmSweNzVKhmwafqWmFWRfk",
        "reception_time": "2022-01-18T12:23:27.140-00:00",
        "included_in_blocks":
          [ "BLG9SKkAuggMoDWQDKBY6qTTdYvGGAWtb3yoZpsJtc75QAKj5uU" ] },
      { "delegate": "tz1dNVDWPf3Q59SdJqnjdnu277iyvReiRS9M",
        "reception_time": "2022-01-18T12:23:26.985-00:00",
        "included_in_blocks":
          [ "BLG9SKkAuggMoDWQDKBY6qTTdYvGGAWtb3yoZpsJtc75QAKj5uU" ] },
      { "delegate": "tz1ei4WtWEMEJekSv8qDnu9PExG6Q8HgRGr3",
        "reception_time": "2022-01-18T12:23:27.012-00:00",
        "included_in_blocks":
          [ "BLG9SKkAuggMoDWQDKBY6qTTdYvGGAWtb3yoZpsJtc75QAKj5uU" ] },
      { "delegate": "tz1KzSC1J9aBxKp7u8TUnpN8L7S65PBRkgdF",
        "reception_time": "2022-01-18T12:23:26.951-00:00",
        "included_in_blocks":
          [ "BLG9SKkAuggMoDWQDKBY6qTTdYvGGAWtb3yoZpsJtc75QAKj5uU" ] },
      { "delegate": "tz1WCd2jm4uSt4vntk4vSuUWoZQGhLcDuR9q",
        "reception_time": "2022-01-18T12:23:26.863-00:00",
        "included_in_blocks":
          [ "BLG9SKkAuggMoDWQDKBY6qTTdYvGGAWtb3yoZpsJtc75QAKj5uU" ] },
      { "delegate": "tz1PWCDnz783NNGGQjEFFsHtrcK5yBW4E2rm",
        "reception_time": "2022-01-18T12:23:26.820-00:00",
        "included_in_blocks":
          [ "BLG9SKkAuggMoDWQDKBY6qTTdYvGGAWtb3yoZpsJtc75QAKj5uU" ] },
      { "delegate": "tz1gfArv665EUkSg2ojMBzcbfwuPxAvqPvjo",
        "reception_time": "2022-01-18T12:23:26.857-00:00",
        "included_in_blocks":
          [ "BLG9SKkAuggMoDWQDKBY6qTTdYvGGAWtb3yoZpsJtc75QAKj5uU" ] },
      { "delegate": "tz3S6BBeKgJGXxvLyZ1xzXzMPn11nnFtq5L9",
        "reception_time": "2022-01-18T12:23:26.870-00:00",
        "included_in_blocks":
          [ "BLG9SKkAuggMoDWQDKBY6qTTdYvGGAWtb3yoZpsJtc75QAKj5uU" ] },
      { "delegate": "tz3QT9dHYKDqh563chVa6za8526ys1UKfRfL",
        "reception_time": "2022-01-18T12:23:26.851-00:00",
        "included_in_blocks":
          [ "BLG9SKkAuggMoDWQDKBY6qTTdYvGGAWtb3yoZpsJtc75QAKj5uU" ] },
      { "delegate": "tz3adcvQaKXTCg12zbninqo3q8ptKKtDFTLv",
        "reception_time": "2022-01-18T12:23:26.844-00:00",
        "included_in_blocks":
          [ "BLG9SKkAuggMoDWQDKBY6qTTdYvGGAWtb3yoZpsJtc75QAKj5uU" ] },
      { "delegate": "tz1Ldzz6k1BHdhuKvAtMRX7h5kJSMHESMHLC",
        "reception_time": "2022-01-18T12:23:26.827-00:00",
        "included_in_blocks":
          [ "BLG9SKkAuggMoDWQDKBY6qTTdYvGGAWtb3yoZpsJtc75QAKj5uU" ] },
      { "delegate": "tz3RKYFsLuQzKBtmYuLNas7uMu3AsYd4QdsA",
        "reception_time": "2022-01-18T12:23:26.755-00:00",
        "included_in_blocks":
          [ "BLG9SKkAuggMoDWQDKBY6qTTdYvGGAWtb3yoZpsJtc75QAKj5uU" ] },
      { "delegate": "tz1RCFbB9GpALpsZtu6J58sb74dm8qe6XBzv",
        "reception_time": "2022-01-18T12:23:26.816-00:00",
        "included_in_blocks":
          [ "BLG9SKkAuggMoDWQDKBY6qTTdYvGGAWtb3yoZpsJtc75QAKj5uU" ] },
      { "delegate": "tz1gUNyn3hmnEWqkusWPzxRaon1cs7ndWh7h",
        "reception_time": "2022-01-18T12:23:26.727-00:00",
        "included_in_blocks":
          [ "BLG9SKkAuggMoDWQDKBY6qTTdYvGGAWtb3yoZpsJtc75QAKj5uU" ] },
      { "delegate": "tz1TzaNn7wSQSP5gYPXCnNzBCpyMiidCq1PX",
        "reception_time": "2022-01-18T12:23:26.755-00:00",
        "included_in_blocks":
          [ "BLG9SKkAuggMoDWQDKBY6qTTdYvGGAWtb3yoZpsJtc75QAKj5uU" ] },
      { "delegate": "tz1bZ8vsMAXmaWEV7FRnyhcuUs2fYMaQ6Hkk",
        "reception_time": "2022-01-18T12:23:26.745-00:00",
        "included_in_blocks":
          [ "BLG9SKkAuggMoDWQDKBY6qTTdYvGGAWtb3yoZpsJtc75QAKj5uU" ] },
      { "delegate": "tz1VQnqCCqX4K5sP3FNkVSNKTdCAMJDd3E1n",
        "reception_time": "2022-01-18T12:23:26.730-00:00",
        "included_in_blocks":
          [ "BLG9SKkAuggMoDWQDKBY6qTTdYvGGAWtb3yoZpsJtc75QAKj5uU" ] },
      { "delegate": "tz3iJu5vrKZcsqRPs8yJ61UDoeEXZmtro4qh",
        "reception_time": "2022-01-18T12:23:26.745-00:00",
        "included_in_blocks":
          [ "BLG9SKkAuggMoDWQDKBY6qTTdYvGGAWtb3yoZpsJtc75QAKj5uU" ] },
      { "delegate": "tz3hw2kqXhLUvY65ca1eety2oQTpAvd34R9Q",
        "reception_time": "2022-01-18T12:23:26.719-00:00",
        "included_in_blocks":
          [ "BLG9SKkAuggMoDWQDKBY6qTTdYvGGAWtb3yoZpsJtc75QAKj5uU" ] },
      { "delegate": "tz3NxTnke1acr8o3h5y9ytf5awQBGNJUKzVU",
        "reception_time": "2022-01-18T12:23:26.696-00:00",
        "included_in_blocks":
          [ "BLG9SKkAuggMoDWQDKBY6qTTdYvGGAWtb3yoZpsJtc75QAKj5uU" ] },
      { "delegate": "tz3Zhs2dygr55yHyQyKjntAtY9bgfhLZ4Xj1",
        "reception_time": "2022-01-18T12:23:26.686-00:00",
        "included_in_blocks":
          [ "BLG9SKkAuggMoDWQDKBY6qTTdYvGGAWtb3yoZpsJtc75QAKj5uU" ] },
      { "delegate": "tz3gtoUxdudfBRcNY7iVdKPHCYYX6xdPpoRS",
        "reception_time": "2022-01-18T12:23:26.737-00:00",
        "included_in_blocks":
          [ "BLG9SKkAuggMoDWQDKBY6qTTdYvGGAWtb3yoZpsJtc75QAKj5uU" ] },
      { "delegate": "tz1VmiY38m3y95HqQLjMwqnMS7sdMfGomzKi",
        "reception_time": "2022-01-18T12:23:26.709-00:00",
        "included_in_blocks":
          [ "BLG9SKkAuggMoDWQDKBY6qTTdYvGGAWtb3yoZpsJtc75QAKj5uU" ] },
      { "delegate": "tz3QSGPoRp3Kn7n3vY24eYeu3Peuqo45LQ4D",
        "reception_time": "2022-01-18T12:23:26.769-00:00",
        "included_in_blocks":
          [ "BLG9SKkAuggMoDWQDKBY6qTTdYvGGAWtb3yoZpsJtc75QAKj5uU" ] },
      { "delegate": "tz3QCNyySViKHmeSr45kzDxzchys7NiXCWoa",
        "reception_time": "2022-01-18T12:23:26.706-00:00",
        "included_in_blocks":
          [ "BLG9SKkAuggMoDWQDKBY6qTTdYvGGAWtb3yoZpsJtc75QAKj5uU" ] },
      { "delegate": "tz1MQMiZHV8q4tTwUMWmS5Y3kaP6J2136iXr",
        "reception_time": "2022-01-18T12:23:26.653-00:00",
        "included_in_blocks":
          [ "BLG9SKkAuggMoDWQDKBY6qTTdYvGGAWtb3yoZpsJtc75QAKj5uU" ] },
      { "delegate": "tz1irJKkXS2DBWkU1NnmFQx1c1L7pbGg4yhk",
        "reception_time": "2022-01-18T12:23:26.719-00:00",
        "included_in_blocks":
          [ "BLG9SKkAuggMoDWQDKBY6qTTdYvGGAWtb3yoZpsJtc75QAKj5uU" ] },
      { "delegate": "tz1NMdMmWZN8QPB8pY4ddncACDg1cHi1xD2e",
        "reception_time": "2022-01-18T12:23:26.670-00:00",
        "included_in_blocks":
          [ "BLG9SKkAuggMoDWQDKBY6qTTdYvGGAWtb3yoZpsJtc75QAKj5uU" ] },
      { "delegate": "tz1LLNkQK4UQV6QcFShiXJ2vT2ELw449MzAA",
        "reception_time": "2022-01-18T12:23:26.667-00:00",
        "included_in_blocks":
          [ "BLG9SKkAuggMoDWQDKBY6qTTdYvGGAWtb3yoZpsJtc75QAKj5uU" ] },
      { "delegate": "tz1ZPh7XfUaJXUDvkrBxmS1BjEM1i62hiPpM",
        "reception_time": "2022-01-18T12:23:26.696-00:00",
        "included_in_blocks":
          [ "BLG9SKkAuggMoDWQDKBY6qTTdYvGGAWtb3yoZpsJtc75QAKj5uU" ] },
      { "delegate": "tz1MQJPGNMijnXnVoBENFz9rUhaPt3S7rWoz",
        "reception_time": "2022-01-18T12:23:26.723-00:00",
        "included_in_blocks":
          [ "BLG9SKkAuggMoDWQDKBY6qTTdYvGGAWtb3yoZpsJtc75QAKj5uU" ] },
      { "delegate": "tz1beersuEDv8Z7ngQ825xfbaJNS2EhXnyHR",
        "reception_time": "2022-01-18T12:23:26.387-00:00",
        "included_in_blocks":
          [ "BLG9SKkAuggMoDWQDKBY6qTTdYvGGAWtb3yoZpsJtc75QAKj5uU" ] },
      { "delegate": "tz1Scdr2HsZiQjc7bHMeBbmDRXYVvdhjJbBh",
        "reception_time": "2022-01-18T12:23:26.387-00:00",
        "included_in_blocks":
          [ "BLG9SKkAuggMoDWQDKBY6qTTdYvGGAWtb3yoZpsJtc75QAKj5uU" ] } ] }