{ "blocks":
    [ { "hash": "BLi2uNaGWrwZFe6y3zLw7k4URrjooysK1aK5TN6ZrDZVmr2ZQrr",
        "delegate": "tz1VQnqCCqX4K5sP3FNkVSNKTdCAMJDd3E1n",
        "reception_time": "2022-01-18T17:01:56.533-00:00",
        "timestamp": "2022-01-18T17:01:50Z" } ],
  "endorsements":
    [ { "delegate": "tz3gtoUxdudfBRcNY7iVdKPHCYYX6xdPpoRS",
        "reception_time": "2022-01-18T17:01:56.463-00:00",
        "errors":
          [ { "kind": "temporary",
              "id": "proto.011-PtHangz2.prefilter.outdated_endorsement" } ],
        "included_in_blocks":
          [ "BKxFwPpJoqpkyH43m8HkxTji7vzR8a6aLuPMub4ZzXhyYaLfWyL" ] },
      { "delegate": "tz3QSGPoRp3Kn7n3vY24eYeu3Peuqo45LQ4D",
        "reception_time": "2022-01-18T17:01:56.362-00:00",
        "errors":
          [ { "kind": "temporary",
              "id": "proto.011-PtHangz2.prefilter.outdated_endorsement" } ],
        "included_in_blocks":
          [ "BKxFwPpJoqpkyH43m8HkxTji7vzR8a6aLuPMub4ZzXhyYaLfWyL" ] },
      { "delegate": "tz1VmiY38m3y95HqQLjMwqnMS7sdMfGomzKi",
        "reception_time": "2022-01-18T17:01:56.177-00:00",
        "errors":
          [ { "kind": "temporary",
              "id": "proto.011-PtHangz2.prefilter.outdated_endorsement" } ],
        "included_in_blocks":
          [ "BKxFwPpJoqpkyH43m8HkxTji7vzR8a6aLuPMub4ZzXhyYaLfWyL" ] },
      { "delegate": "tz3ZbP2pM3nwvXztbuMJwJnDvV5xdpU8UkkD",
        "reception_time": "2022-01-18T17:01:56.149-00:00",
        "errors":
          [ { "kind": "temporary",
              "id": "proto.011-PtHangz2.prefilter.outdated_endorsement" } ],
        "included_in_blocks":
          [ "BKxFwPpJoqpkyH43m8HkxTji7vzR8a6aLuPMub4ZzXhyYaLfWyL" ] },
      { "delegate": "tz1eEnQhbwf6trb8Q8mPb2RaPkNk2rN7BKi8",
        "reception_time": "2022-01-18T17:01:56.138-00:00",
        "errors":
          [ { "kind": "temporary",
              "id": "proto.011-PtHangz2.prefilter.outdated_endorsement" } ],
        "included_in_blocks":
          [ "BKxFwPpJoqpkyH43m8HkxTji7vzR8a6aLuPMub4ZzXhyYaLfWyL" ] },
      { "delegate": "tz1irJKkXS2DBWkU1NnmFQx1c1L7pbGg4yhk",
        "reception_time": "2022-01-18T17:01:56.138-00:00",
        "errors":
          [ { "kind": "temporary",
              "id": "proto.011-PtHangz2.prefilter.outdated_endorsement" } ],
        "included_in_blocks":
          [ "BKxFwPpJoqpkyH43m8HkxTji7vzR8a6aLuPMub4ZzXhyYaLfWyL" ] },
      { "delegate": "tz3NxTnke1acr8o3h5y9ytf5awQBGNJUKzVU",
        "reception_time": "2022-01-18T17:01:56.123-00:00",
        "errors":
          [ { "kind": "temporary",
              "id": "proto.011-PtHangz2.prefilter.outdated_endorsement" } ],
        "included_in_blocks":
          [ "BKxFwPpJoqpkyH43m8HkxTji7vzR8a6aLuPMub4ZzXhyYaLfWyL" ] },
      { "delegate": "tz1Ldzz6k1BHdhuKvAtMRX7h5kJSMHESMHLC",
        "reception_time": "2022-01-18T17:01:56.100-00:00",
        "errors":
          [ { "kind": "temporary",
              "id": "proto.011-PtHangz2.prefilter.outdated_endorsement" } ],
        "included_in_blocks":
          [ "BKxFwPpJoqpkyH43m8HkxTji7vzR8a6aLuPMub4ZzXhyYaLfWyL" ] },
      { "delegate": "tz1Lhf4J9Qxoe3DZ2nfe8FGDnvVj7oKjnMY6",
        "reception_time": "2022-01-18T17:01:55.703-00:00",
        "errors":
          [ { "kind": "temporary",
              "id": "proto.011-PtHangz2.prefilter.outdated_endorsement" } ],
        "included_in_blocks":
          [ "BKxFwPpJoqpkyH43m8HkxTji7vzR8a6aLuPMub4ZzXhyYaLfWyL" ] },
      { "delegate": "tz1Scdr2HsZiQjc7bHMeBbmDRXYVvdhjJbBh",
        "reception_time": "2022-01-18T17:01:55.676-00:00",
        "errors":
          [ { "kind": "temporary",
              "id": "proto.011-PtHangz2.prefilter.outdated_endorsement" } ],
        "included_in_blocks":
          [ "BKxFwPpJoqpkyH43m8HkxTji7vzR8a6aLuPMub4ZzXhyYaLfWyL" ] },
      { "delegate": "tz1dbfppLAAxXZNtf2SDps7rch3qfUznKSoK",
        "reception_time": "2022-01-18T17:01:55.604-00:00",
        "errors":
          [ { "kind": "temporary",
              "id": "proto.011-PtHangz2.prefilter.outdated_endorsement" } ],
        "included_in_blocks":
          [ "BKxFwPpJoqpkyH43m8HkxTji7vzR8a6aLuPMub4ZzXhyYaLfWyL" ] },
      { "delegate": "tz1P2Po7YM526ughEsRbY4oR9zaUPDZjxFrb",
        "reception_time": "2022-01-18T17:01:55.512-00:00",
        "errors":
          [ { "kind": "temporary",
              "id": "proto.011-PtHangz2.prefilter.outdated_endorsement" } ],
        "included_in_blocks":
          [ "BKxFwPpJoqpkyH43m8HkxTji7vzR8a6aLuPMub4ZzXhyYaLfWyL" ] },
      { "delegate": "tz1VQnqCCqX4K5sP3FNkVSNKTdCAMJDd3E1n",
        "reception_time": "2022-01-18T17:01:55.473-00:00",
        "errors":
          [ { "kind": "temporary",
              "id": "proto.011-PtHangz2.prefilter.outdated_endorsement" } ],
        "included_in_blocks":
          [ "BKxFwPpJoqpkyH43m8HkxTji7vzR8a6aLuPMub4ZzXhyYaLfWyL" ] },
      { "delegate": "tz1gUNyn3hmnEWqkusWPzxRaon1cs7ndWh7h",
        "reception_time": "2022-01-18T17:01:55.461-00:00",
        "errors":
          [ { "kind": "temporary",
              "id": "proto.011-PtHangz2.prefilter.outdated_endorsement" } ],
        "included_in_blocks":
          [ "BKxFwPpJoqpkyH43m8HkxTji7vzR8a6aLuPMub4ZzXhyYaLfWyL" ] },
      { "delegate": "tz1S8e9GgdZG78XJRB3NqabfWeM37GnhZMWQ",
        "reception_time": "2022-01-18T17:01:55.074-00:00",
        "errors":
          [ { "kind": "temporary",
              "id": "proto.011-PtHangz2.prefilter.outdated_endorsement" } ],
        "included_in_blocks":
          [ "BKxFwPpJoqpkyH43m8HkxTji7vzR8a6aLuPMub4ZzXhyYaLfWyL" ] },
      { "delegate": "tz1aXD7Jigrt3PBYSpHSg5Rr33SexMmmM5Ys",
        "reception_time": "2022-01-18T17:01:57.254-00:00",
        "included_in_blocks":
          [ "BKxFwPpJoqpkyH43m8HkxTji7vzR8a6aLuPMub4ZzXhyYaLfWyL" ] },
      { "delegate": "tz1bsdrs36X5BTH83RHUBdUouKLJZK8d2oBa",
        "reception_time": "2022-01-18T17:01:57.267-00:00",
        "included_in_blocks":
          [ "BKxFwPpJoqpkyH43m8HkxTji7vzR8a6aLuPMub4ZzXhyYaLfWyL" ] },
      { "delegate": "tz3Zhs2dygr55yHyQyKjntAtY9bgfhLZ4Xj1",
        "reception_time": "2022-01-18T17:01:57.535-00:00",
        "included_in_blocks":
          [ "BKxFwPpJoqpkyH43m8HkxTji7vzR8a6aLuPMub4ZzXhyYaLfWyL" ] },
      { "delegate": "tz3iJu5vrKZcsqRPs8yJ61UDoeEXZmtro4qh",
        "reception_time": "2022-01-18T17:01:57.546-00:00",
        "included_in_blocks":
          [ "BKxFwPpJoqpkyH43m8HkxTji7vzR8a6aLuPMub4ZzXhyYaLfWyL" ] },
      { "delegate": "tz1PMWrbSda1RvsRi8Xq7GRd3P7739jtyaM8",
        "reception_time": "2022-01-18T17:01:57.566-00:00",
        "included_in_blocks":
          [ "BKxFwPpJoqpkyH43m8HkxTji7vzR8a6aLuPMub4ZzXhyYaLfWyL" ] },
      { "delegate": "tz3RKYFsLuQzKBtmYuLNas7uMu3AsYd4QdsA",
        "reception_time": "2022-01-18T17:01:57.573-00:00",
        "included_in_blocks":
          [ "BKxFwPpJoqpkyH43m8HkxTji7vzR8a6aLuPMub4ZzXhyYaLfWyL" ] },
      { "delegate": "tz1beersuEDv8Z7ngQ825xfbaJNS2EhXnyHR",
        "reception_time": "2022-01-18T17:01:57.579-00:00",
        "included_in_blocks":
          [ "BKxFwPpJoqpkyH43m8HkxTji7vzR8a6aLuPMub4ZzXhyYaLfWyL" ] },
      { "delegate": "tz1WCd2jm4uSt4vntk4vSuUWoZQGhLcDuR9q",
        "reception_time": "2022-01-18T17:01:57.583-00:00",
        "included_in_blocks":
          [ "BKxFwPpJoqpkyH43m8HkxTji7vzR8a6aLuPMub4ZzXhyYaLfWyL" ] },
      { "delegate": "tz3hw2kqXhLUvY65ca1eety2oQTpAvd34R9Q",
        "reception_time": "2022-01-18T17:01:57.591-00:00",
        "included_in_blocks":
          [ "BKxFwPpJoqpkyH43m8HkxTji7vzR8a6aLuPMub4ZzXhyYaLfWyL" ] },
      { "delegate": "tz3S6BBeKgJGXxvLyZ1xzXzMPn11nnFtq5L9",
        "reception_time": "2022-01-18T17:01:57.598-00:00",
        "included_in_blocks":
          [ "BKxFwPpJoqpkyH43m8HkxTji7vzR8a6aLuPMub4ZzXhyYaLfWyL" ] },
      { "delegate": "tz1PWCDnz783NNGGQjEFFsHtrcK5yBW4E2rm",
        "reception_time": "2022-01-18T17:01:57.604-00:00",
        "included_in_blocks":
          [ "BKxFwPpJoqpkyH43m8HkxTji7vzR8a6aLuPMub4ZzXhyYaLfWyL" ] },
      { "delegate": "tz1RCFbB9GpALpsZtu6J58sb74dm8qe6XBzv",
        "reception_time": "2022-01-18T17:01:57.604-00:00",
        "included_in_blocks":
          [ "BKxFwPpJoqpkyH43m8HkxTji7vzR8a6aLuPMub4ZzXhyYaLfWyL" ] },
      { "delegate": "tz1ei4WtWEMEJekSv8qDnu9PExG6Q8HgRGr3",
        "reception_time": "2022-01-18T17:01:57.607-00:00",
        "included_in_blocks":
          [ "BKxFwPpJoqpkyH43m8HkxTji7vzR8a6aLuPMub4ZzXhyYaLfWyL" ] },
      { "delegate": "tz1gfArv665EUkSg2ojMBzcbfwuPxAvqPvjo",
        "reception_time": "2022-01-18T17:01:57.613-00:00",
        "included_in_blocks":
          [ "BKxFwPpJoqpkyH43m8HkxTji7vzR8a6aLuPMub4ZzXhyYaLfWyL" ] },
      { "delegate": "tz3adcvQaKXTCg12zbninqo3q8ptKKtDFTLv",
        "reception_time": "2022-01-18T17:01:57.620-00:00",
        "included_in_blocks":
          [ "BKxFwPpJoqpkyH43m8HkxTji7vzR8a6aLuPMub4ZzXhyYaLfWyL" ] },
      { "delegate": "tz1KfEsrtDaA1sX7vdM4qmEPWuSytuqCDp5j",
        "reception_time": "2022-01-18T17:01:57.623-00:00",
        "included_in_blocks":
          [ "BKxFwPpJoqpkyH43m8HkxTji7vzR8a6aLuPMub4ZzXhyYaLfWyL" ] },
      { "delegate": "tz3bTdwZinP8U1JmSweNzVKhmwafqWmFWRfk",
        "reception_time": "2022-01-18T17:01:57.652-00:00",
        "included_in_blocks":
          [ "BKxFwPpJoqpkyH43m8HkxTji7vzR8a6aLuPMub4ZzXhyYaLfWyL" ] },
      { "delegate": "tz1WBfwbT66FC6BTLexc2BoyCCBM9LG7pnVW",
        "reception_time": "2022-01-18T17:01:57.689-00:00",
        "included_in_blocks":
          [ "BKxFwPpJoqpkyH43m8HkxTji7vzR8a6aLuPMub4ZzXhyYaLfWyL" ] },
      { "delegate": "tz1MQJPGNMijnXnVoBENFz9rUhaPt3S7rWoz",
        "reception_time": "2022-01-18T17:01:57.795-00:00",
        "included_in_blocks":
          [ "BKxFwPpJoqpkyH43m8HkxTji7vzR8a6aLuPMub4ZzXhyYaLfWyL" ] },
      { "delegate": "tz1c8JTzmA6c7cm6ZmUwR7WES6akdiMa1kwt",
        "reception_time": "2022-01-18T17:01:57.875-00:00",
        "included_in_blocks":
          [ "BKxFwPpJoqpkyH43m8HkxTji7vzR8a6aLuPMub4ZzXhyYaLfWyL" ] },
      { "delegate": "tz3NDpRj6WBrJPikcPVHRBEjWKxFw3c6eQPS",
        "reception_time": "2022-01-18T17:01:57.953-00:00",
        "included_in_blocks":
          [ "BKxFwPpJoqpkyH43m8HkxTji7vzR8a6aLuPMub4ZzXhyYaLfWyL" ] },
      { "delegate": "tz1Tnjaxk6tbAeC2TmMApPh8UsrEVQvhHvx5",
        "reception_time": "2022-01-18T17:01:57.967-00:00",
        "included_in_blocks":
          [ "BKxFwPpJoqpkyH43m8HkxTji7vzR8a6aLuPMub4ZzXhyYaLfWyL" ] },
      { "delegate": "tz1RQhNh7iB9CZA7i3ifTWNwiGYVffponfbB",
        "reception_time": "2022-01-18T17:01:57.989-00:00",
        "included_in_blocks":
          [ "BKxFwPpJoqpkyH43m8HkxTji7vzR8a6aLuPMub4ZzXhyYaLfWyL" ] },
      { "delegate": "tz1dNVDWPf3Q59SdJqnjdnu277iyvReiRS9M",
        "reception_time": "2022-01-18T17:01:58.021-00:00",
        "included_in_blocks":
          [ "BKxFwPpJoqpkyH43m8HkxTji7vzR8a6aLuPMub4ZzXhyYaLfWyL" ] },
      { "delegate": "tz3gLTu4Yxj8tPAcriQVUdxv6BY9QyvzU1az",
        "reception_time": "2022-01-18T17:01:58.061-00:00",
        "included_in_blocks":
          [ "BKxFwPpJoqpkyH43m8HkxTji7vzR8a6aLuPMub4ZzXhyYaLfWyL" ] },
      { "delegate": "tz1SYq214SCBy9naR6cvycQsYcUGpBqQAE8d",
        "reception_time": "2022-01-18T17:01:58.083-00:00",
        "included_in_blocks":
          [ "BKxFwPpJoqpkyH43m8HkxTji7vzR8a6aLuPMub4ZzXhyYaLfWyL" ] },
      { "delegate": "tz3bvNMQ95vfAYtG8193ymshqjSvmxiCUuR5",
        "reception_time": "2022-01-18T17:01:58.123-00:00",
        "included_in_blocks":
          [ "BKxFwPpJoqpkyH43m8HkxTji7vzR8a6aLuPMub4ZzXhyYaLfWyL" ] },
      { "delegate": "tz1S8MNvuFEUsWgjHvi3AxibRBf388NhT1q2",
        "reception_time": "2022-01-18T17:01:58.132-00:00",
        "included_in_blocks":
          [ "BKxFwPpJoqpkyH43m8HkxTji7vzR8a6aLuPMub4ZzXhyYaLfWyL" ] },
      { "delegate": "tz1fPKAtsYydh4f1wfWNfeNxWYu72TmM48fu",
        "reception_time": "2022-01-18T17:01:58.151-00:00",
        "included_in_blocks":
          [ "BKxFwPpJoqpkyH43m8HkxTji7vzR8a6aLuPMub4ZzXhyYaLfWyL" ] },
      { "delegate": "tz1g8vkmcde6sWKaG2NN9WKzCkDM6Rziq194",
        "reception_time": "2022-01-18T17:01:58.233-00:00",
        "included_in_blocks":
          [ "BKxFwPpJoqpkyH43m8HkxTji7vzR8a6aLuPMub4ZzXhyYaLfWyL" ] },
      { "delegate": "tz1LmaFsWRkjr7QMCx5PtV6xTUz3AmEpKQiF",
        "reception_time": "2022-01-18T17:01:58.282-00:00",
        "included_in_blocks":
          [ "BKxFwPpJoqpkyH43m8HkxTji7vzR8a6aLuPMub4ZzXhyYaLfWyL" ] },
      { "delegate": "tz1h4GUAMweP7SNWzDgvMk3yRCAZyaP1MxZq",
        "reception_time": "2022-01-18T17:01:58.301-00:00",
        "included_in_blocks":
          [ "BKxFwPpJoqpkyH43m8HkxTji7vzR8a6aLuPMub4ZzXhyYaLfWyL" ] },
      { "delegate": "tz1dwu9aYb7CRNq4Y2zAjipdjFuSVKhHS8vA",
        "reception_time": "2022-01-18T17:01:58.401-00:00",
        "included_in_blocks":
          [ "BKxFwPpJoqpkyH43m8HkxTji7vzR8a6aLuPMub4ZzXhyYaLfWyL" ] },
      { "delegate": "tz1abmz7jiCV2GH2u81LRrGgAFFgvQgiDiaf",
        "reception_time": "2022-01-18T17:01:58.426-00:00",
        "included_in_blocks":
          [ "BKxFwPpJoqpkyH43m8HkxTji7vzR8a6aLuPMub4ZzXhyYaLfWyL" ] },
      { "delegate": "tz1NEKxGEHsFufk87CVZcrqWu8o22qh46GK6",
        "reception_time": "2022-01-18T17:01:58.442-00:00",
        "included_in_blocks":
          [ "BKxFwPpJoqpkyH43m8HkxTji7vzR8a6aLuPMub4ZzXhyYaLfWyL" ] },
      { "delegate": "tz3RDC3Jdn4j15J7bBHZd29EUee9gVB1CxD9",
        "reception_time": "2022-01-18T17:01:58.934-00:00",
        "included_in_blocks":
          [ "BKxFwPpJoqpkyH43m8HkxTji7vzR8a6aLuPMub4ZzXhyYaLfWyL" ] },
      { "delegate": "tz3VEZ4k6a4Wx42iyev6i2aVAptTRLEAivNN",
        "reception_time": "2022-01-18T17:01:58.951-00:00",
        "included_in_blocks":
          [ "BKxFwPpJoqpkyH43m8HkxTji7vzR8a6aLuPMub4ZzXhyYaLfWyL" ] },
      { "delegate": "tz3WMqdzXqRWXwyvj5Hp2H7QEepaUuS7vd9K",
        "reception_time": "2022-01-18T17:01:59.110-00:00",
        "included_in_blocks":
          [ "BKxFwPpJoqpkyH43m8HkxTji7vzR8a6aLuPMub4ZzXhyYaLfWyL" ] },
      { "delegate": "tz1T7duV5gZWSTq4YpBGbXNLTfznCLDrFxvs",
        "reception_time": "2022-01-18T17:01:59.330-00:00",
        "included_in_blocks":
          [ "BKxFwPpJoqpkyH43m8HkxTji7vzR8a6aLuPMub4ZzXhyYaLfWyL" ] },
      { "delegate": "tz3RB4aoyjov4KEVRbuhvQ1CKJgBJMWhaeB8",
        "reception_time": "2022-01-18T17:01:59.392-00:00",
        "included_in_blocks":
          [ "BKxFwPpJoqpkyH43m8HkxTji7vzR8a6aLuPMub4ZzXhyYaLfWyL" ] },
      { "delegate": "tz1PeZx7FXy7QRuMREGXGxeipb24RsMMzUNe",
        "reception_time": "2022-01-18T17:01:59.436-00:00",
        "included_in_blocks":
          [ "BKxFwPpJoqpkyH43m8HkxTji7vzR8a6aLuPMub4ZzXhyYaLfWyL" ] },
      { "delegate": "tz1Xsrfv6hn86fp88YfRs6xcKwt2nTqxVZYM",
        "reception_time": "2022-01-18T17:01:59.462-00:00",
        "included_in_blocks":
          [ "BKxFwPpJoqpkyH43m8HkxTji7vzR8a6aLuPMub4ZzXhyYaLfWyL" ] },
      { "delegate": "tz2FCNBrERXtaTtNX6iimR1UJ5JSDxvdHM93",
        "reception_time": "2022-01-18T17:01:59.691-00:00",
        "included_in_blocks":
          [ "BKxFwPpJoqpkyH43m8HkxTji7vzR8a6aLuPMub4ZzXhyYaLfWyL" ] },
      { "delegate": "tz3UoffC7FG7zfpmvmjUmUeAaHvzdcUvAj6r",
        "reception_time": "2022-01-18T17:01:59.783-00:00",
        "included_in_blocks":
          [ "BKxFwPpJoqpkyH43m8HkxTji7vzR8a6aLuPMub4ZzXhyYaLfWyL" ] },
      { "delegate": "tz1Nf6tsK4G6bBqgSQERy4nUtkHNKUVdh7q1",
        "reception_time": "2022-01-18T17:01:59.943-00:00",
        "included_in_blocks":
          [ "BKxFwPpJoqpkyH43m8HkxTji7vzR8a6aLuPMub4ZzXhyYaLfWyL" ] },
      { "delegate": "tz1hAYfexyzPGG6RhZZMpDvAHifubsbb6kgn",
        "reception_time": "2022-01-18T17:02:00.165-00:00",
        "included_in_blocks":
          [ "BKxFwPpJoqpkyH43m8HkxTji7vzR8a6aLuPMub4ZzXhyYaLfWyL" ] },
      { "delegate": "tz1ZcTRk5uxD86EFEn1vvNffWWqJy7q5eVhc",
        "reception_time": "2022-01-18T17:02:00.165-00:00",
        "included_in_blocks":
          [ "BKxFwPpJoqpkyH43m8HkxTji7vzR8a6aLuPMub4ZzXhyYaLfWyL" ] },
      { "delegate": "tz3NExpXn9aPNZPorRE4SdjJ2RGrfbJgMAaV",
        "reception_time": "2022-01-18T17:02:00.409-00:00",
        "included_in_blocks":
          [ "BKxFwPpJoqpkyH43m8HkxTji7vzR8a6aLuPMub4ZzXhyYaLfWyL" ] },
      { "delegate": "tz1aRoaRhSpRYvFdyvgWLL6TGyRoGF51wDjM",
        "reception_time": "2022-01-18T17:02:00.659-00:00",
        "included_in_blocks":
          [ "BKxFwPpJoqpkyH43m8HkxTji7vzR8a6aLuPMub4ZzXhyYaLfWyL" ] },
      { "delegate": "tz1Q8QkSBS63ZQnH3fBTiAMPes9R666Rn6Sc",
        "reception_time": "2022-01-18T17:02:01.794-00:00",
        "included_in_blocks":
          [ "BKxFwPpJoqpkyH43m8HkxTji7vzR8a6aLuPMub4ZzXhyYaLfWyL" ] },
      { "delegate": "tz1W5VkdB5s7ENMESVBtwyt9kyvLqPcUczRT",
        "reception_time": "2022-01-18T17:02:02.165-00:00",
        "included_in_blocks":
          [ "BKxFwPpJoqpkyH43m8HkxTji7vzR8a6aLuPMub4ZzXhyYaLfWyL" ] },
      { "delegate": "tz1NSDFKuRyzHxpfG1AMkyCwEiZ52cbR2mRW",
        "reception_time": "2022-01-18T17:02:02.738-00:00",
        "included_in_blocks":
          [ "BKxFwPpJoqpkyH43m8HkxTji7vzR8a6aLuPMub4ZzXhyYaLfWyL" ] },
      { "delegate": "tz1RjoHc98dBoqaH2jawF62XNKh7YsHwbkEv",
        "reception_time": "2022-01-18T17:02:03.260-00:00",
        "included_in_blocks":
          [ "BKxFwPpJoqpkyH43m8HkxTji7vzR8a6aLuPMub4ZzXhyYaLfWyL" ] } ] }