{ "blocks":
    [ { "hash": "BMYpGvbXEsQJufZo5VKJhtqLuJJWKMJMJFA5J3XkgSth4UdCCJK",
        "delegate": "tz3UoffC7FG7zfpmvmjUmUeAaHvzdcUvAj6r",
        "reception_time": "2022-01-18T13:27:59.717-00:00",
        "timestamp": "2022-01-18T13:27:50Z" } ],
  "endorsements":
    [ { "delegate": "tz1Scdr2HsZiQjc7bHMeBbmDRXYVvdhjJbBh",
        "reception_time": "2022-01-18T13:27:59.615-00:00",
        "errors":
          [ { "kind": "temporary",
              "id": "proto.011-PtHangz2.prefilter.outdated_endorsement" } ],
        "included_in_blocks":
          [ "BLxWWZttLgYLjNEjDjHZ1JDgSP5eQSqxB2epe3n54qQQNwvw2bo" ] },
      { "delegate": "tz1S8e9GgdZG78XJRB3NqabfWeM37GnhZMWQ",
        "reception_time": "2022-01-18T13:27:59.427-00:00",
        "errors":
          [ { "kind": "temporary",
              "id": "proto.011-PtHangz2.prefilter.outdated_endorsement" } ],
        "included_in_blocks":
          [ "BLxWWZttLgYLjNEjDjHZ1JDgSP5eQSqxB2epe3n54qQQNwvw2bo" ] },
      { "delegate": "tz1cYufsxHXJcvANhvS55h3aY32a9BAFB494",
        "reception_time": "2022-01-18T13:28:11.098-00:00",
        "included_in_blocks":
          [ "BLxWWZttLgYLjNEjDjHZ1JDgSP5eQSqxB2epe3n54qQQNwvw2bo" ] },
      { "delegate": "tz2KrmHRWu7b7Vr3GYQ3SJ41xaW64PiqWBYm",
        "reception_time": "2022-01-18T13:28:08.715-00:00",
        "included_in_blocks":
          [ "BLxWWZttLgYLjNEjDjHZ1JDgSP5eQSqxB2epe3n54qQQNwvw2bo" ] },
      { "delegate": "tz1eLbDXYceRsPZoPmaJXZgQ6pzgnTQvZtpo",
        "reception_time": "2022-01-18T13:28:08.585-00:00",
        "included_in_blocks":
          [ "BLxWWZttLgYLjNEjDjHZ1JDgSP5eQSqxB2epe3n54qQQNwvw2bo" ] },
      { "delegate": "tz1T7duV5gZWSTq4YpBGbXNLTfznCLDrFxvs",
        "reception_time": "2022-01-18T13:28:03.903-00:00",
        "included_in_blocks":
          [ "BLxWWZttLgYLjNEjDjHZ1JDgSP5eQSqxB2epe3n54qQQNwvw2bo" ] },
      { "delegate": "tz1PFeoTuFen8jAMRHajBySNyCwLmY5RqF9M",
        "reception_time": "2022-01-18T13:28:03.914-00:00",
        "included_in_blocks":
          [ "BLxWWZttLgYLjNEjDjHZ1JDgSP5eQSqxB2epe3n54qQQNwvw2bo" ] },
      { "delegate": "tz1ZcTRk5uxD86EFEn1vvNffWWqJy7q5eVhc",
        "reception_time": "2022-01-18T13:28:03.534-00:00",
        "included_in_blocks":
          [ "BLxWWZttLgYLjNEjDjHZ1JDgSP5eQSqxB2epe3n54qQQNwvw2bo" ] },
      { "delegate": "tz1awXW7wuXy21c66vBudMXQVAPgRnqqwgTH",
        "reception_time": "2022-01-18T13:28:03.115-00:00",
        "included_in_blocks":
          [ "BLxWWZttLgYLjNEjDjHZ1JDgSP5eQSqxB2epe3n54qQQNwvw2bo" ] },
      { "delegate": "tz1aRoaRhSpRYvFdyvgWLL6TGyRoGF51wDjM",
        "reception_time": "2022-01-18T13:28:03.028-00:00",
        "included_in_blocks":
          [ "BLxWWZttLgYLjNEjDjHZ1JDgSP5eQSqxB2epe3n54qQQNwvw2bo" ] },
      { "delegate": "tz1NL14EZjUmY9eEdk1ejyACEaTuwVGVKEeU",
        "reception_time": "2022-01-18T13:28:02.799-00:00",
        "included_in_blocks":
          [ "BLxWWZttLgYLjNEjDjHZ1JDgSP5eQSqxB2epe3n54qQQNwvw2bo" ] },
      { "delegate": "tz1Vd1rXpV8hTHbFXCXN3c3qzCsgcU5BZw1e",
        "reception_time": "2022-01-18T13:28:02.599-00:00",
        "included_in_blocks":
          [ "BLxWWZttLgYLjNEjDjHZ1JDgSP5eQSqxB2epe3n54qQQNwvw2bo" ] },
      { "delegate": "tz1SohptP53wDPZhzTWzDUFAUcWF6DMBpaJV",
        "reception_time": "2022-01-18T13:28:02.450-00:00",
        "included_in_blocks":
          [ "BLxWWZttLgYLjNEjDjHZ1JDgSP5eQSqxB2epe3n54qQQNwvw2bo" ] },
      { "delegate": "tz1fwnfJNgiDACshK9avfRfFbMaXrs3ghoJa",
        "reception_time": "2022-01-18T13:28:02.404-00:00",
        "included_in_blocks":
          [ "BLxWWZttLgYLjNEjDjHZ1JDgSP5eQSqxB2epe3n54qQQNwvw2bo" ] },
      { "delegate": "tz3NExpXn9aPNZPorRE4SdjJ2RGrfbJgMAaV",
        "reception_time": "2022-01-18T13:28:02.288-00:00",
        "included_in_blocks":
          [ "BLxWWZttLgYLjNEjDjHZ1JDgSP5eQSqxB2epe3n54qQQNwvw2bo" ] },
      { "delegate": "tz1WctSwL49BZtdWAQ75NY6vr4xsAx6oKdah",
        "reception_time": "2022-01-18T13:28:02.291-00:00",
        "included_in_blocks":
          [ "BLxWWZttLgYLjNEjDjHZ1JDgSP5eQSqxB2epe3n54qQQNwvw2bo" ] },
      { "delegate": "tz1TRqbYbUf2GyrjErf3hBzgBJPzW8y36qEs",
        "reception_time": "2022-01-18T13:28:02.334-00:00",
        "included_in_blocks":
          [ "BLxWWZttLgYLjNEjDjHZ1JDgSP5eQSqxB2epe3n54qQQNwvw2bo" ] },
      { "delegate": "tz3NDpRj6WBrJPikcPVHRBEjWKxFw3c6eQPS",
        "reception_time": "2022-01-18T13:28:02.253-00:00",
        "included_in_blocks":
          [ "BLxWWZttLgYLjNEjDjHZ1JDgSP5eQSqxB2epe3n54qQQNwvw2bo" ] },
      { "delegate": "tz2FCNBrERXtaTtNX6iimR1UJ5JSDxvdHM93",
        "reception_time": "2022-01-18T13:28:02.150-00:00",
        "included_in_blocks":
          [ "BLxWWZttLgYLjNEjDjHZ1JDgSP5eQSqxB2epe3n54qQQNwvw2bo" ] },
      { "delegate": "tz3RB4aoyjov4KEVRbuhvQ1CKJgBJMWhaeB8",
        "reception_time": "2022-01-18T13:28:02.262-00:00",
        "included_in_blocks":
          [ "BLxWWZttLgYLjNEjDjHZ1JDgSP5eQSqxB2epe3n54qQQNwvw2bo" ] },
      { "delegate": "tz1Nf6tsK4G6bBqgSQERy4nUtkHNKUVdh7q1",
        "reception_time": "2022-01-18T13:28:02.107-00:00",
        "included_in_blocks":
          [ "BLxWWZttLgYLjNEjDjHZ1JDgSP5eQSqxB2epe3n54qQQNwvw2bo" ] },
      { "delegate": "tz1RjoHc98dBoqaH2jawF62XNKh7YsHwbkEv",
        "reception_time": "2022-01-18T13:28:02.139-00:00",
        "included_in_blocks":
          [ "BLxWWZttLgYLjNEjDjHZ1JDgSP5eQSqxB2epe3n54qQQNwvw2bo" ] },
      { "delegate": "tz1cZfFQpcYhwDp7y1njZXDsZqCrn2NqmVof",
        "reception_time": "2022-01-18T13:28:01.994-00:00",
        "included_in_blocks":
          [ "BLxWWZttLgYLjNEjDjHZ1JDgSP5eQSqxB2epe3n54qQQNwvw2bo" ] },
      { "delegate": "tz1VceyYUpq1gk5dtp6jXQRtCtY8hm5DKt72",
        "reception_time": "2022-01-18T13:28:01.836-00:00",
        "included_in_blocks":
          [ "BLxWWZttLgYLjNEjDjHZ1JDgSP5eQSqxB2epe3n54qQQNwvw2bo" ] },
      { "delegate": "tz1V4qCyvPKZ5UeqdH14HN42rxvNPQfc9UZg",
        "reception_time": "2022-01-18T13:28:01.739-00:00",
        "included_in_blocks":
          [ "BLxWWZttLgYLjNEjDjHZ1JDgSP5eQSqxB2epe3n54qQQNwvw2bo" ] },
      { "delegate": "tz1WBfwbT66FC6BTLexc2BoyCCBM9LG7pnVW",
        "reception_time": "2022-01-18T13:28:01.680-00:00",
        "included_in_blocks":
          [ "BLxWWZttLgYLjNEjDjHZ1JDgSP5eQSqxB2epe3n54qQQNwvw2bo" ] },
      { "delegate": "tz1SYq214SCBy9naR6cvycQsYcUGpBqQAE8d",
        "reception_time": "2022-01-18T13:28:01.615-00:00",
        "included_in_blocks":
          [ "BLxWWZttLgYLjNEjDjHZ1JDgSP5eQSqxB2epe3n54qQQNwvw2bo" ] },
      { "delegate": "tz1WnfXMPaNTBmH7DBPwqCWs9cPDJdkGBTZ8",
        "reception_time": "2022-01-18T13:28:01.618-00:00",
        "included_in_blocks":
          [ "BLxWWZttLgYLjNEjDjHZ1JDgSP5eQSqxB2epe3n54qQQNwvw2bo" ] },
      { "delegate": "tz1ei4WtWEMEJekSv8qDnu9PExG6Q8HgRGr3",
        "reception_time": "2022-01-18T13:28:01.586-00:00",
        "included_in_blocks":
          [ "BLxWWZttLgYLjNEjDjHZ1JDgSP5eQSqxB2epe3n54qQQNwvw2bo" ] },
      { "delegate": "tz1dNVDWPf3Q59SdJqnjdnu277iyvReiRS9M",
        "reception_time": "2022-01-18T13:28:01.545-00:00",
        "included_in_blocks":
          [ "BLxWWZttLgYLjNEjDjHZ1JDgSP5eQSqxB2epe3n54qQQNwvw2bo" ] },
      { "delegate": "tz3WMqdzXqRWXwyvj5Hp2H7QEepaUuS7vd9K",
        "reception_time": "2022-01-18T13:28:01.470-00:00",
        "included_in_blocks":
          [ "BLxWWZttLgYLjNEjDjHZ1JDgSP5eQSqxB2epe3n54qQQNwvw2bo" ] },
      { "delegate": "tz3VEZ4k6a4Wx42iyev6i2aVAptTRLEAivNN",
        "reception_time": "2022-01-18T13:28:01.462-00:00",
        "included_in_blocks":
          [ "BLxWWZttLgYLjNEjDjHZ1JDgSP5eQSqxB2epe3n54qQQNwvw2bo" ] },
      { "delegate": "tz1KfEsrtDaA1sX7vdM4qmEPWuSytuqCDp5j",
        "reception_time": "2022-01-18T13:28:01.416-00:00",
        "included_in_blocks":
          [ "BLxWWZttLgYLjNEjDjHZ1JDgSP5eQSqxB2epe3n54qQQNwvw2bo" ] },
      { "delegate": "tz1bHzftcTKZMTZgLLtnrXydCm6UEqf4ivca",
        "reception_time": "2022-01-18T13:28:01.501-00:00",
        "included_in_blocks":
          [ "BLxWWZttLgYLjNEjDjHZ1JDgSP5eQSqxB2epe3n54qQQNwvw2bo" ] },
      { "delegate": "tz3RDC3Jdn4j15J7bBHZd29EUee9gVB1CxD9",
        "reception_time": "2022-01-18T13:28:01.497-00:00",
        "included_in_blocks":
          [ "BLxWWZttLgYLjNEjDjHZ1JDgSP5eQSqxB2epe3n54qQQNwvw2bo" ] },
      { "delegate": "tz3bvNMQ95vfAYtG8193ymshqjSvmxiCUuR5",
        "reception_time": "2022-01-18T13:28:01.232-00:00",
        "included_in_blocks":
          [ "BLxWWZttLgYLjNEjDjHZ1JDgSP5eQSqxB2epe3n54qQQNwvw2bo" ] },
      { "delegate": "tz1RCFbB9GpALpsZtu6J58sb74dm8qe6XBzv",
        "reception_time": "2022-01-18T13:28:01.303-00:00",
        "included_in_blocks":
          [ "BLxWWZttLgYLjNEjDjHZ1JDgSP5eQSqxB2epe3n54qQQNwvw2bo" ] },
      { "delegate": "tz1LmaFsWRkjr7QMCx5PtV6xTUz3AmEpKQiF",
        "reception_time": "2022-01-18T13:28:01.454-00:00",
        "included_in_blocks":
          [ "BLxWWZttLgYLjNEjDjHZ1JDgSP5eQSqxB2epe3n54qQQNwvw2bo" ] },
      { "delegate": "tz1VmiY38m3y95HqQLjMwqnMS7sdMfGomzKi",
        "reception_time": "2022-01-18T13:28:01.474-00:00",
        "included_in_blocks":
          [ "BLxWWZttLgYLjNEjDjHZ1JDgSP5eQSqxB2epe3n54qQQNwvw2bo" ] },
      { "delegate": "tz3e7LbZvUtoXhpUD1yb6wuFodZpfYRb9nWJ",
        "reception_time": "2022-01-18T13:28:01.257-00:00",
        "included_in_blocks":
          [ "BLxWWZttLgYLjNEjDjHZ1JDgSP5eQSqxB2epe3n54qQQNwvw2bo" ] },
      { "delegate": "tz1PWCDnz783NNGGQjEFFsHtrcK5yBW4E2rm",
        "reception_time": "2022-01-18T13:28:01.279-00:00",
        "included_in_blocks":
          [ "BLxWWZttLgYLjNEjDjHZ1JDgSP5eQSqxB2epe3n54qQQNwvw2bo" ] },
      { "delegate": "tz1gfArv665EUkSg2ojMBzcbfwuPxAvqPvjo",
        "reception_time": "2022-01-18T13:28:01.222-00:00",
        "included_in_blocks":
          [ "BLxWWZttLgYLjNEjDjHZ1JDgSP5eQSqxB2epe3n54qQQNwvw2bo" ] },
      { "delegate": "tz1TzaNn7wSQSP5gYPXCnNzBCpyMiidCq1PX",
        "reception_time": "2022-01-18T13:28:01.265-00:00",
        "included_in_blocks":
          [ "BLxWWZttLgYLjNEjDjHZ1JDgSP5eQSqxB2epe3n54qQQNwvw2bo" ] },
      { "delegate": "tz3bTdwZinP8U1JmSweNzVKhmwafqWmFWRfk",
        "reception_time": "2022-01-18T13:28:01.164-00:00",
        "included_in_blocks":
          [ "BLxWWZttLgYLjNEjDjHZ1JDgSP5eQSqxB2epe3n54qQQNwvw2bo" ] },
      { "delegate": "tz3QT9dHYKDqh563chVa6za8526ys1UKfRfL",
        "reception_time": "2022-01-18T13:28:01.134-00:00",
        "included_in_blocks":
          [ "BLxWWZttLgYLjNEjDjHZ1JDgSP5eQSqxB2epe3n54qQQNwvw2bo" ] },
      { "delegate": "tz3S6BBeKgJGXxvLyZ1xzXzMPn11nnFtq5L9",
        "reception_time": "2022-01-18T13:28:01.173-00:00",
        "included_in_blocks":
          [ "BLxWWZttLgYLjNEjDjHZ1JDgSP5eQSqxB2epe3n54qQQNwvw2bo" ] },
      { "delegate": "tz3Zhs2dygr55yHyQyKjntAtY9bgfhLZ4Xj1",
        "reception_time": "2022-01-18T13:28:01.093-00:00",
        "included_in_blocks":
          [ "BLxWWZttLgYLjNEjDjHZ1JDgSP5eQSqxB2epe3n54qQQNwvw2bo" ] },
      { "delegate": "tz3iJu5vrKZcsqRPs8yJ61UDoeEXZmtro4qh",
        "reception_time": "2022-01-18T13:28:01.205-00:00",
        "included_in_blocks":
          [ "BLxWWZttLgYLjNEjDjHZ1JDgSP5eQSqxB2epe3n54qQQNwvw2bo" ] },
      { "delegate": "tz1bsdrs36X5BTH83RHUBdUouKLJZK8d2oBa",
        "reception_time": "2022-01-18T13:28:00.927-00:00",
        "included_in_blocks":
          [ "BLxWWZttLgYLjNEjDjHZ1JDgSP5eQSqxB2epe3n54qQQNwvw2bo" ] },
      { "delegate": "tz1NMdMmWZN8QPB8pY4ddncACDg1cHi1xD2e",
        "reception_time": "2022-01-18T13:28:01.039-00:00",
        "included_in_blocks":
          [ "BLxWWZttLgYLjNEjDjHZ1JDgSP5eQSqxB2epe3n54qQQNwvw2bo" ] },
      { "delegate": "tz3QSGPoRp3Kn7n3vY24eYeu3Peuqo45LQ4D",
        "reception_time": "2022-01-18T13:28:00.901-00:00",
        "included_in_blocks":
          [ "BLxWWZttLgYLjNEjDjHZ1JDgSP5eQSqxB2epe3n54qQQNwvw2bo" ] },
      { "delegate": "tz1Ldzz6k1BHdhuKvAtMRX7h5kJSMHESMHLC",
        "reception_time": "2022-01-18T13:28:01.035-00:00",
        "included_in_blocks":
          [ "BLxWWZttLgYLjNEjDjHZ1JDgSP5eQSqxB2epe3n54qQQNwvw2bo" ] },
      { "delegate": "tz3gtoUxdudfBRcNY7iVdKPHCYYX6xdPpoRS",
        "reception_time": "2022-01-18T13:28:00.940-00:00",
        "included_in_blocks":
          [ "BLxWWZttLgYLjNEjDjHZ1JDgSP5eQSqxB2epe3n54qQQNwvw2bo" ] },
      { "delegate": "tz1Kf25fX1VdmYGSEzwFy1wNmkbSEZ2V83sY",
        "reception_time": "2022-01-18T13:28:01.007-00:00",
        "included_in_blocks":
          [ "BLxWWZttLgYLjNEjDjHZ1JDgSP5eQSqxB2epe3n54qQQNwvw2bo" ] },
      { "delegate": "tz1gUNyn3hmnEWqkusWPzxRaon1cs7ndWh7h",
        "reception_time": "2022-01-18T13:28:00.997-00:00",
        "included_in_blocks":
          [ "BLxWWZttLgYLjNEjDjHZ1JDgSP5eQSqxB2epe3n54qQQNwvw2bo" ] },
      { "delegate": "tz1aXD7Jigrt3PBYSpHSg5Rr33SexMmmM5Ys",
        "reception_time": "2022-01-18T13:28:00.961-00:00",
        "included_in_blocks":
          [ "BLxWWZttLgYLjNEjDjHZ1JDgSP5eQSqxB2epe3n54qQQNwvw2bo" ] },
      { "delegate": "tz1S8MNvuFEUsWgjHvi3AxibRBf388NhT1q2",
        "reception_time": "2022-01-18T13:28:00.906-00:00",
        "included_in_blocks":
          [ "BLxWWZttLgYLjNEjDjHZ1JDgSP5eQSqxB2epe3n54qQQNwvw2bo" ] },
      { "delegate": "tz3UoffC7FG7zfpmvmjUmUeAaHvzdcUvAj6r",
        "reception_time": "2022-01-18T13:28:00.915-00:00",
        "included_in_blocks":
          [ "BLxWWZttLgYLjNEjDjHZ1JDgSP5eQSqxB2epe3n54qQQNwvw2bo" ] },
      { "delegate": "tz1TRspM5SeZpaQUhzByXbEvqKF1vnCM2YTK",
        "reception_time": "2022-01-18T13:28:00.891-00:00",
        "included_in_blocks":
          [ "BLxWWZttLgYLjNEjDjHZ1JDgSP5eQSqxB2epe3n54qQQNwvw2bo" ] },
      { "delegate": "tz3ZbP2pM3nwvXztbuMJwJnDvV5xdpU8UkkD",
        "reception_time": "2022-01-18T13:28:00.867-00:00",
        "included_in_blocks":
          [ "BLxWWZttLgYLjNEjDjHZ1JDgSP5eQSqxB2epe3n54qQQNwvw2bo" ] },
      { "delegate": "tz3hw2kqXhLUvY65ca1eety2oQTpAvd34R9Q",
        "reception_time": "2022-01-18T13:28:01.083-00:00",
        "included_in_blocks":
          [ "BLxWWZttLgYLjNEjDjHZ1JDgSP5eQSqxB2epe3n54qQQNwvw2bo" ] },
      { "delegate": "tz1MJx9vhaNRSimcuXPK2rW4fLccQnDAnVKJ",
        "reception_time": "2022-01-18T13:28:00.930-00:00",
        "included_in_blocks":
          [ "BLxWWZttLgYLjNEjDjHZ1JDgSP5eQSqxB2epe3n54qQQNwvw2bo" ] },
      { "delegate": "tz1VQnqCCqX4K5sP3FNkVSNKTdCAMJDd3E1n",
        "reception_time": "2022-01-18T13:28:01.003-00:00",
        "included_in_blocks":
          [ "BLxWWZttLgYLjNEjDjHZ1JDgSP5eQSqxB2epe3n54qQQNwvw2bo" ] },
      { "delegate": "tz1irJKkXS2DBWkU1NnmFQx1c1L7pbGg4yhk",
        "reception_time": "2022-01-18T13:28:00.919-00:00",
        "included_in_blocks":
          [ "BLxWWZttLgYLjNEjDjHZ1JDgSP5eQSqxB2epe3n54qQQNwvw2bo" ] },
      { "delegate": "tz3RKYFsLuQzKBtmYuLNas7uMu3AsYd4QdsA",
        "reception_time": "2022-01-18T13:28:01.147-00:00",
        "included_in_blocks":
          [ "BLxWWZttLgYLjNEjDjHZ1JDgSP5eQSqxB2epe3n54qQQNwvw2bo" ] },
      { "delegate": "tz1Kt4P8BCaP93AEV4eA7gmpRryWt5hznjCP",
        "reception_time": "2022-01-18T13:28:00.878-00:00",
        "included_in_blocks":
          [ "BLxWWZttLgYLjNEjDjHZ1JDgSP5eQSqxB2epe3n54qQQNwvw2bo" ] },
      { "delegate": "tz1Lhf4J9Qxoe3DZ2nfe8FGDnvVj7oKjnMY6",
        "reception_time": "2022-01-18T13:28:00.742-00:00",
        "included_in_blocks":
          [ "BLxWWZttLgYLjNEjDjHZ1JDgSP5eQSqxB2epe3n54qQQNwvw2bo" ] },
      { "delegate": "tz1P2Po7YM526ughEsRbY4oR9zaUPDZjxFrb",
        "reception_time": "2022-01-18T13:28:00.794-00:00",
        "included_in_blocks":
          [ "BLxWWZttLgYLjNEjDjHZ1JDgSP5eQSqxB2epe3n54qQQNwvw2bo" ] },
      { "delegate": "tz1eEnQhbwf6trb8Q8mPb2RaPkNk2rN7BKi8",
        "reception_time": "2022-01-18T13:28:00.799-00:00",
        "included_in_blocks":
          [ "BLxWWZttLgYLjNEjDjHZ1JDgSP5eQSqxB2epe3n54qQQNwvw2bo" ] } ] }