{ "blocks":
    [ { "hash": "BKk2HShg41qdZ3Q5xDjWbmqYPxNo3tJzffSqQXvMDWo8Z5ACKd6",
        "delegate": "tz3adcvQaKXTCg12zbninqo3q8ptKKtDFTLv",
        "reception_time": "2022-01-18T15:48:41.394-00:00",
        "timestamp": "2022-01-18T15:48:30Z" } ],
  "endorsements":
    [ { "delegate": "tz1ibcPVGK4Y8pcW4BYUsojiHoBKnZbyDGrX" },
      { "delegate": "tz1aXD7Jigrt3PBYSpHSg5Rr33SexMmmM5Ys",
        "reception_time": "2022-01-18T15:48:41.179-00:00",
        "errors":
          [ { "kind": "temporary",
              "id": "proto.011-PtHangz2.prefilter.outdated_endorsement" } ],
        "included_in_blocks":
          [ "BL9bW1qwjaoYNuZHyqwQpCTGot1XwVemqy7vVx9vYw8fLkPtgZ9" ] },
      { "delegate": "tz1Ldzz6k1BHdhuKvAtMRX7h5kJSMHESMHLC",
        "reception_time": "2022-01-18T15:48:41.106-00:00",
        "errors":
          [ { "kind": "temporary",
              "id": "proto.011-PtHangz2.prefilter.outdated_endorsement" } ],
        "included_in_blocks":
          [ "BL9bW1qwjaoYNuZHyqwQpCTGot1XwVemqy7vVx9vYw8fLkPtgZ9" ] },
      { "delegate": "tz1eEnQhbwf6trb8Q8mPb2RaPkNk2rN7BKi8",
        "reception_time": "2022-01-18T15:48:41.056-00:00",
        "errors":
          [ { "kind": "temporary",
              "id": "proto.011-PtHangz2.prefilter.outdated_endorsement" } ],
        "included_in_blocks":
          [ "BL9bW1qwjaoYNuZHyqwQpCTGot1XwVemqy7vVx9vYw8fLkPtgZ9" ] },
      { "delegate": "tz1VmiY38m3y95HqQLjMwqnMS7sdMfGomzKi",
        "reception_time": "2022-01-18T15:48:40.697-00:00",
        "errors":
          [ { "kind": "temporary",
              "id": "proto.011-PtHangz2.prefilter.outdated_endorsement" } ],
        "included_in_blocks":
          [ "BL9bW1qwjaoYNuZHyqwQpCTGot1XwVemqy7vVx9vYw8fLkPtgZ9" ] },
      { "delegate": "tz1VQnqCCqX4K5sP3FNkVSNKTdCAMJDd3E1n",
        "reception_time": "2022-01-18T15:48:40.478-00:00",
        "errors":
          [ { "kind": "temporary",
              "id": "proto.011-PtHangz2.prefilter.outdated_endorsement" } ],
        "included_in_blocks":
          [ "BL9bW1qwjaoYNuZHyqwQpCTGot1XwVemqy7vVx9vYw8fLkPtgZ9" ] },
      { "delegate": "tz1irJKkXS2DBWkU1NnmFQx1c1L7pbGg4yhk",
        "reception_time": "2022-01-18T15:48:40.478-00:00",
        "errors":
          [ { "kind": "temporary",
              "id": "proto.011-PtHangz2.prefilter.outdated_endorsement" } ],
        "included_in_blocks":
          [ "BL9bW1qwjaoYNuZHyqwQpCTGot1XwVemqy7vVx9vYw8fLkPtgZ9" ] },
      { "delegate": "tz1gUNyn3hmnEWqkusWPzxRaon1cs7ndWh7h",
        "reception_time": "2022-01-18T15:48:40.434-00:00",
        "errors":
          [ { "kind": "temporary",
              "id": "proto.011-PtHangz2.prefilter.outdated_endorsement" } ],
        "included_in_blocks":
          [ "BL9bW1qwjaoYNuZHyqwQpCTGot1XwVemqy7vVx9vYw8fLkPtgZ9" ] },
      { "delegate": "tz1P2Po7YM526ughEsRbY4oR9zaUPDZjxFrb",
        "reception_time": "2022-01-18T15:48:40.313-00:00",
        "errors":
          [ { "kind": "temporary",
              "id": "proto.011-PtHangz2.prefilter.outdated_endorsement" } ],
        "included_in_blocks":
          [ "BL9bW1qwjaoYNuZHyqwQpCTGot1XwVemqy7vVx9vYw8fLkPtgZ9" ] },
      { "delegate": "tz1NpWrAyDL9k2Lmnyxcgr9xuJakbBxdq7FB",
        "reception_time": "2022-01-18T15:48:57.117-00:00",
        "included_in_blocks":
          [ "BL9bW1qwjaoYNuZHyqwQpCTGot1XwVemqy7vVx9vYw8fLkPtgZ9" ] },
      { "delegate": "tz1N6LjoaXdGNRsSxYseRCu5RNf1LfuAHBE9",
        "reception_time": "2022-01-18T15:48:50.463-00:00",
        "included_in_blocks":
          [ "BL9bW1qwjaoYNuZHyqwQpCTGot1XwVemqy7vVx9vYw8fLkPtgZ9" ] },
      { "delegate": "tz1SYq214SCBy9naR6cvycQsYcUGpBqQAE8d",
        "reception_time": "2022-01-18T15:48:47.851-00:00",
        "included_in_blocks":
          [ "BL9bW1qwjaoYNuZHyqwQpCTGot1XwVemqy7vVx9vYw8fLkPtgZ9" ] },
      { "delegate": "tz3VEZ4k6a4Wx42iyev6i2aVAptTRLEAivNN",
        "reception_time": "2022-01-18T15:48:47.061-00:00",
        "included_in_blocks":
          [ "BL9bW1qwjaoYNuZHyqwQpCTGot1XwVemqy7vVx9vYw8fLkPtgZ9" ] },
      { "delegate": "tz1aRoaRhSpRYvFdyvgWLL6TGyRoGF51wDjM",
        "reception_time": "2022-01-18T15:48:47.094-00:00",
        "included_in_blocks":
          [ "BL9bW1qwjaoYNuZHyqwQpCTGot1XwVemqy7vVx9vYw8fLkPtgZ9" ] },
      { "delegate": "tz3WMqdzXqRWXwyvj5Hp2H7QEepaUuS7vd9K",
        "reception_time": "2022-01-18T15:48:46.374-00:00",
        "included_in_blocks":
          [ "BL9bW1qwjaoYNuZHyqwQpCTGot1XwVemqy7vVx9vYw8fLkPtgZ9" ] },
      { "delegate": "tz1W5VkdB5s7ENMESVBtwyt9kyvLqPcUczRT",
        "reception_time": "2022-01-18T15:48:46.163-00:00",
        "included_in_blocks":
          [ "BL9bW1qwjaoYNuZHyqwQpCTGot1XwVemqy7vVx9vYw8fLkPtgZ9" ] },
      { "delegate": "tz3NExpXn9aPNZPorRE4SdjJ2RGrfbJgMAaV",
        "reception_time": "2022-01-18T15:48:46.028-00:00",
        "included_in_blocks":
          [ "BL9bW1qwjaoYNuZHyqwQpCTGot1XwVemqy7vVx9vYw8fLkPtgZ9" ] },
      { "delegate": "tz3UoffC7FG7zfpmvmjUmUeAaHvzdcUvAj6r",
        "reception_time": "2022-01-18T15:48:45.747-00:00",
        "included_in_blocks":
          [ "BL9bW1qwjaoYNuZHyqwQpCTGot1XwVemqy7vVx9vYw8fLkPtgZ9" ] },
      { "delegate": "tz3RDC3Jdn4j15J7bBHZd29EUee9gVB1CxD9",
        "reception_time": "2022-01-18T15:48:45.428-00:00",
        "included_in_blocks":
          [ "BL9bW1qwjaoYNuZHyqwQpCTGot1XwVemqy7vVx9vYw8fLkPtgZ9" ] },
      { "delegate": "tz1TRqbYbUf2GyrjErf3hBzgBJPzW8y36qEs",
        "reception_time": "2022-01-18T15:48:45.446-00:00",
        "included_in_blocks":
          [ "BL9bW1qwjaoYNuZHyqwQpCTGot1XwVemqy7vVx9vYw8fLkPtgZ9" ] },
      { "delegate": "tz2FCNBrERXtaTtNX6iimR1UJ5JSDxvdHM93",
        "reception_time": "2022-01-18T15:48:44.749-00:00",
        "included_in_blocks":
          [ "BL9bW1qwjaoYNuZHyqwQpCTGot1XwVemqy7vVx9vYw8fLkPtgZ9" ] },
      { "delegate": "tz3RB4aoyjov4KEVRbuhvQ1CKJgBJMWhaeB8",
        "reception_time": "2022-01-18T15:48:44.788-00:00",
        "included_in_blocks":
          [ "BL9bW1qwjaoYNuZHyqwQpCTGot1XwVemqy7vVx9vYw8fLkPtgZ9" ] },
      { "delegate": "tz3bvNMQ95vfAYtG8193ymshqjSvmxiCUuR5",
        "reception_time": "2022-01-18T15:48:44.697-00:00",
        "included_in_blocks":
          [ "BL9bW1qwjaoYNuZHyqwQpCTGot1XwVemqy7vVx9vYw8fLkPtgZ9" ] },
      { "delegate": "tz1ZcTRk5uxD86EFEn1vvNffWWqJy7q5eVhc",
        "reception_time": "2022-01-18T15:48:44.406-00:00",
        "included_in_blocks":
          [ "BL9bW1qwjaoYNuZHyqwQpCTGot1XwVemqy7vVx9vYw8fLkPtgZ9" ] },
      { "delegate": "tz1T7duV5gZWSTq4YpBGbXNLTfznCLDrFxvs",
        "reception_time": "2022-01-18T15:48:44.472-00:00",
        "included_in_blocks":
          [ "BL9bW1qwjaoYNuZHyqwQpCTGot1XwVemqy7vVx9vYw8fLkPtgZ9" ] },
      { "delegate": "tz3NDpRj6WBrJPikcPVHRBEjWKxFw3c6eQPS",
        "reception_time": "2022-01-18T15:48:44.331-00:00",
        "included_in_blocks":
          [ "BL9bW1qwjaoYNuZHyqwQpCTGot1XwVemqy7vVx9vYw8fLkPtgZ9" ] },
      { "delegate": "tz1PeZx7FXy7QRuMREGXGxeipb24RsMMzUNe",
        "reception_time": "2022-01-18T15:48:44.182-00:00",
        "included_in_blocks":
          [ "BL9bW1qwjaoYNuZHyqwQpCTGot1XwVemqy7vVx9vYw8fLkPtgZ9" ] },
      { "delegate": "tz1Vd1rXpV8hTHbFXCXN3c3qzCsgcU5BZw1e",
        "reception_time": "2022-01-18T15:48:44.112-00:00",
        "included_in_blocks":
          [ "BL9bW1qwjaoYNuZHyqwQpCTGot1XwVemqy7vVx9vYw8fLkPtgZ9" ] },
      { "delegate": "tz1LmaFsWRkjr7QMCx5PtV6xTUz3AmEpKQiF",
        "reception_time": "2022-01-18T15:48:43.941-00:00",
        "included_in_blocks":
          [ "BL9bW1qwjaoYNuZHyqwQpCTGot1XwVemqy7vVx9vYw8fLkPtgZ9" ] },
      { "delegate": "tz1S8MNvuFEUsWgjHvi3AxibRBf388NhT1q2",
        "reception_time": "2022-01-18T15:48:43.906-00:00",
        "included_in_blocks":
          [ "BL9bW1qwjaoYNuZHyqwQpCTGot1XwVemqy7vVx9vYw8fLkPtgZ9" ] },
      { "delegate": "tz1NortRftucvAkD1J58L32EhSVrQEWJCEnB",
        "reception_time": "2022-01-18T15:48:43.635-00:00",
        "included_in_blocks":
          [ "BL9bW1qwjaoYNuZHyqwQpCTGot1XwVemqy7vVx9vYw8fLkPtgZ9" ] },
      { "delegate": "tz1Z2jXfEXL7dXhs6bsLmyLFLfmAkXBzA9WE",
        "reception_time": "2022-01-18T15:48:43.630-00:00",
        "included_in_blocks":
          [ "BL9bW1qwjaoYNuZHyqwQpCTGot1XwVemqy7vVx9vYw8fLkPtgZ9" ] },
      { "delegate": "tz1cig1EHyvZd7J2k389moM9PxVgPQvmFkvi",
        "reception_time": "2022-01-18T15:48:43.626-00:00",
        "included_in_blocks":
          [ "BL9bW1qwjaoYNuZHyqwQpCTGot1XwVemqy7vVx9vYw8fLkPtgZ9" ] },
      { "delegate": "tz1fwnfJNgiDACshK9avfRfFbMaXrs3ghoJa",
        "reception_time": "2022-01-18T15:48:43.611-00:00",
        "included_in_blocks":
          [ "BL9bW1qwjaoYNuZHyqwQpCTGot1XwVemqy7vVx9vYw8fLkPtgZ9" ] },
      { "delegate": "tz1WnfXMPaNTBmH7DBPwqCWs9cPDJdkGBTZ8",
        "reception_time": "2022-01-18T15:48:43.490-00:00",
        "included_in_blocks":
          [ "BL9bW1qwjaoYNuZHyqwQpCTGot1XwVemqy7vVx9vYw8fLkPtgZ9" ] },
      { "delegate": "tz1WctSwL49BZtdWAQ75NY6vr4xsAx6oKdah",
        "reception_time": "2022-01-18T15:48:43.484-00:00",
        "included_in_blocks":
          [ "BL9bW1qwjaoYNuZHyqwQpCTGot1XwVemqy7vVx9vYw8fLkPtgZ9" ] },
      { "delegate": "tz3bTdwZinP8U1JmSweNzVKhmwafqWmFWRfk",
        "reception_time": "2022-01-18T15:48:43.473-00:00",
        "included_in_blocks":
          [ "BL9bW1qwjaoYNuZHyqwQpCTGot1XwVemqy7vVx9vYw8fLkPtgZ9" ] },
      { "delegate": "tz1fPKAtsYydh4f1wfWNfeNxWYu72TmM48fu",
        "reception_time": "2022-01-18T15:48:43.480-00:00",
        "included_in_blocks":
          [ "BL9bW1qwjaoYNuZHyqwQpCTGot1XwVemqy7vVx9vYw8fLkPtgZ9" ] },
      { "delegate": "tz1NEKxGEHsFufk87CVZcrqWu8o22qh46GK6",
        "reception_time": "2022-01-18T15:48:43.424-00:00",
        "included_in_blocks":
          [ "BL9bW1qwjaoYNuZHyqwQpCTGot1XwVemqy7vVx9vYw8fLkPtgZ9" ] },
      { "delegate": "tz3S6BBeKgJGXxvLyZ1xzXzMPn11nnFtq5L9",
        "reception_time": "2022-01-18T15:48:43.340-00:00",
        "included_in_blocks":
          [ "BL9bW1qwjaoYNuZHyqwQpCTGot1XwVemqy7vVx9vYw8fLkPtgZ9" ] },
      { "delegate": "tz3QT9dHYKDqh563chVa6za8526ys1UKfRfL",
        "reception_time": "2022-01-18T15:48:43.332-00:00",
        "included_in_blocks":
          [ "BL9bW1qwjaoYNuZHyqwQpCTGot1XwVemqy7vVx9vYw8fLkPtgZ9" ] },
      { "delegate": "tz1WBfwbT66FC6BTLexc2BoyCCBM9LG7pnVW",
        "reception_time": "2022-01-18T15:48:43.302-00:00",
        "included_in_blocks":
          [ "BL9bW1qwjaoYNuZHyqwQpCTGot1XwVemqy7vVx9vYw8fLkPtgZ9" ] },
      { "delegate": "tz3Zhs2dygr55yHyQyKjntAtY9bgfhLZ4Xj1",
        "reception_time": "2022-01-18T15:48:43.377-00:00",
        "included_in_blocks":
          [ "BL9bW1qwjaoYNuZHyqwQpCTGot1XwVemqy7vVx9vYw8fLkPtgZ9" ] },
      { "delegate": "tz3iJu5vrKZcsqRPs8yJ61UDoeEXZmtro4qh",
        "reception_time": "2022-01-18T15:48:43.403-00:00",
        "included_in_blocks":
          [ "BL9bW1qwjaoYNuZHyqwQpCTGot1XwVemqy7vVx9vYw8fLkPtgZ9" ] },
      { "delegate": "tz1RCFbB9GpALpsZtu6J58sb74dm8qe6XBzv",
        "reception_time": "2022-01-18T15:48:43.304-00:00",
        "included_in_blocks":
          [ "BL9bW1qwjaoYNuZHyqwQpCTGot1XwVemqy7vVx9vYw8fLkPtgZ9" ] },
      { "delegate": "tz1Nf6tsK4G6bBqgSQERy4nUtkHNKUVdh7q1",
        "reception_time": "2022-01-18T15:48:43.356-00:00",
        "included_in_blocks":
          [ "BL9bW1qwjaoYNuZHyqwQpCTGot1XwVemqy7vVx9vYw8fLkPtgZ9" ] },
      { "delegate": "tz1RQhNh7iB9CZA7i3ifTWNwiGYVffponfbB",
        "reception_time": "2022-01-18T15:48:43.366-00:00",
        "included_in_blocks":
          [ "BL9bW1qwjaoYNuZHyqwQpCTGot1XwVemqy7vVx9vYw8fLkPtgZ9" ] },
      { "delegate": "tz3gtoUxdudfBRcNY7iVdKPHCYYX6xdPpoRS",
        "reception_time": "2022-01-18T15:48:43.271-00:00",
        "included_in_blocks":
          [ "BL9bW1qwjaoYNuZHyqwQpCTGot1XwVemqy7vVx9vYw8fLkPtgZ9" ] },
      { "delegate": "tz3hw2kqXhLUvY65ca1eety2oQTpAvd34R9Q",
        "reception_time": "2022-01-18T15:48:43.291-00:00",
        "included_in_blocks":
          [ "BL9bW1qwjaoYNuZHyqwQpCTGot1XwVemqy7vVx9vYw8fLkPtgZ9" ] },
      { "delegate": "tz3QSGPoRp3Kn7n3vY24eYeu3Peuqo45LQ4D",
        "reception_time": "2022-01-18T15:48:43.353-00:00",
        "included_in_blocks":
          [ "BL9bW1qwjaoYNuZHyqwQpCTGot1XwVemqy7vVx9vYw8fLkPtgZ9" ] },
      { "delegate": "tz1gfArv665EUkSg2ojMBzcbfwuPxAvqPvjo",
        "reception_time": "2022-01-18T15:48:43.366-00:00",
        "included_in_blocks":
          [ "BL9bW1qwjaoYNuZHyqwQpCTGot1XwVemqy7vVx9vYw8fLkPtgZ9" ] },
      { "delegate": "tz1TRspM5SeZpaQUhzByXbEvqKF1vnCM2YTK",
        "reception_time": "2022-01-18T15:48:43.361-00:00",
        "included_in_blocks":
          [ "BL9bW1qwjaoYNuZHyqwQpCTGot1XwVemqy7vVx9vYw8fLkPtgZ9" ] },
      { "delegate": "tz1ZPh7XfUaJXUDvkrBxmS1BjEM1i62hiPpM",
        "reception_time": "2022-01-18T15:48:43.294-00:00",
        "included_in_blocks":
          [ "BL9bW1qwjaoYNuZHyqwQpCTGot1XwVemqy7vVx9vYw8fLkPtgZ9" ] },
      { "delegate": "tz1KfEsrtDaA1sX7vdM4qmEPWuSytuqCDp5j",
        "reception_time": "2022-01-18T15:48:43.241-00:00",
        "included_in_blocks":
          [ "BL9bW1qwjaoYNuZHyqwQpCTGot1XwVemqy7vVx9vYw8fLkPtgZ9" ] },
      { "delegate": "tz3RKYFsLuQzKBtmYuLNas7uMu3AsYd4QdsA",
        "reception_time": "2022-01-18T15:48:43.262-00:00",
        "included_in_blocks":
          [ "BL9bW1qwjaoYNuZHyqwQpCTGot1XwVemqy7vVx9vYw8fLkPtgZ9" ] },
      { "delegate": "tz1PWCDnz783NNGGQjEFFsHtrcK5yBW4E2rm",
        "reception_time": "2022-01-18T15:48:43.265-00:00",
        "included_in_blocks":
          [ "BL9bW1qwjaoYNuZHyqwQpCTGot1XwVemqy7vVx9vYw8fLkPtgZ9" ] },
      { "delegate": "tz1dNVDWPf3Q59SdJqnjdnu277iyvReiRS9M",
        "reception_time": "2022-01-18T15:48:43.291-00:00",
        "included_in_blocks":
          [ "BL9bW1qwjaoYNuZHyqwQpCTGot1XwVemqy7vVx9vYw8fLkPtgZ9" ] },
      { "delegate": "tz1WCd2jm4uSt4vntk4vSuUWoZQGhLcDuR9q",
        "reception_time": "2022-01-18T15:48:43.238-00:00",
        "included_in_blocks":
          [ "BL9bW1qwjaoYNuZHyqwQpCTGot1XwVemqy7vVx9vYw8fLkPtgZ9" ] },
      { "delegate": "tz1Kf25fX1VdmYGSEzwFy1wNmkbSEZ2V83sY",
        "reception_time": "2022-01-18T15:48:43.282-00:00",
        "included_in_blocks":
          [ "BL9bW1qwjaoYNuZHyqwQpCTGot1XwVemqy7vVx9vYw8fLkPtgZ9" ] },
      { "delegate": "tz3ZbP2pM3nwvXztbuMJwJnDvV5xdpU8UkkD",
        "reception_time": "2022-01-18T15:48:43.279-00:00",
        "included_in_blocks":
          [ "BL9bW1qwjaoYNuZHyqwQpCTGot1XwVemqy7vVx9vYw8fLkPtgZ9" ] },
      { "delegate": "tz3NxTnke1acr8o3h5y9ytf5awQBGNJUKzVU",
        "reception_time": "2022-01-18T15:48:43.225-00:00",
        "included_in_blocks":
          [ "BL9bW1qwjaoYNuZHyqwQpCTGot1XwVemqy7vVx9vYw8fLkPtgZ9" ] },
      { "delegate": "tz1TzaNn7wSQSP5gYPXCnNzBCpyMiidCq1PX",
        "reception_time": "2022-01-18T15:48:43.218-00:00",
        "included_in_blocks":
          [ "BL9bW1qwjaoYNuZHyqwQpCTGot1XwVemqy7vVx9vYw8fLkPtgZ9" ] },
      { "delegate": "tz1ei4WtWEMEJekSv8qDnu9PExG6Q8HgRGr3",
        "reception_time": "2022-01-18T15:48:43.248-00:00",
        "included_in_blocks":
          [ "BL9bW1qwjaoYNuZHyqwQpCTGot1XwVemqy7vVx9vYw8fLkPtgZ9" ] },
      { "delegate": "tz1cSj7fTex3JPd1p1LN1fwek6AV1kH93Wwc",
        "reception_time": "2022-01-18T15:48:43.229-00:00",
        "included_in_blocks":
          [ "BL9bW1qwjaoYNuZHyqwQpCTGot1XwVemqy7vVx9vYw8fLkPtgZ9" ] },
      { "delegate": "tz1bsdrs36X5BTH83RHUBdUouKLJZK8d2oBa",
        "reception_time": "2022-01-18T15:48:43.218-00:00",
        "included_in_blocks":
          [ "BL9bW1qwjaoYNuZHyqwQpCTGot1XwVemqy7vVx9vYw8fLkPtgZ9" ] },
      { "delegate": "tz1d6Fx42mYgVFnHUW8T8A7WBfJ6nD9pVok8",
        "reception_time": "2022-01-18T15:48:43.232-00:00",
        "included_in_blocks":
          [ "BL9bW1qwjaoYNuZHyqwQpCTGot1XwVemqy7vVx9vYw8fLkPtgZ9" ] },
      { "delegate": "tz1beersuEDv8Z7ngQ825xfbaJNS2EhXnyHR",
        "reception_time": "2022-01-18T15:48:43.234-00:00",
        "included_in_blocks":
          [ "BL9bW1qwjaoYNuZHyqwQpCTGot1XwVemqy7vVx9vYw8fLkPtgZ9" ] } ] }