{ "blocks":
    [ { "hash": "BMCwmcw4fW9NSS6z8HRWrMAwYRmUCnzSfuNMCYQbqvGE2PmxWA8",
        "delegate": "tz1Ldzz6k1BHdhuKvAtMRX7h5kJSMHESMHLC",
        "reception_time": "2022-01-18T19:18:05.794-00:00",
        "timestamp": "2022-01-18T19:18:00Z" } ],
  "endorsements":
    [ { "delegate": "tz1Ldzz6k1BHdhuKvAtMRX7h5kJSMHESMHLC",
        "reception_time": "2022-01-18T19:18:05.796-00:00",
        "errors":
          [ { "kind": "temporary",
              "id": "proto.011-PtHangz2.prefilter.outdated_endorsement" } ],
        "included_in_blocks":
          [ "BLuaie1EkaXkWtpbsPjuS9VLuCWb9VB9S26TmHdxVJm2qz3Zh33" ] },
      { "delegate": "tz1RV1MBbZMR68tacosb7Mwj6LkbPSUS1er1",
        "reception_time": "2022-01-18T19:18:05.708-00:00",
        "errors":
          [ { "kind": "temporary",
              "id": "proto.011-PtHangz2.prefilter.outdated_endorsement" } ],
        "included_in_blocks":
          [ "BLuaie1EkaXkWtpbsPjuS9VLuCWb9VB9S26TmHdxVJm2qz3Zh33" ] },
      { "delegate": "tz1Scdr2HsZiQjc7bHMeBbmDRXYVvdhjJbBh",
        "reception_time": "2022-01-18T19:18:05.559-00:00",
        "errors":
          [ { "kind": "temporary",
              "id": "proto.011-PtHangz2.prefilter.outdated_endorsement" } ],
        "included_in_blocks":
          [ "BLuaie1EkaXkWtpbsPjuS9VLuCWb9VB9S26TmHdxVJm2qz3Zh33" ] },
      { "delegate": "tz1S8e9GgdZG78XJRB3NqabfWeM37GnhZMWQ",
        "reception_time": "2022-01-18T19:18:05.393-00:00",
        "errors":
          [ { "kind": "temporary",
              "id": "proto.011-PtHangz2.prefilter.outdated_endorsement" } ],
        "included_in_blocks":
          [ "BLuaie1EkaXkWtpbsPjuS9VLuCWb9VB9S26TmHdxVJm2qz3Zh33" ] },
      { "delegate": "tz2BzJTyoQp8fNbfhWD4YQgH9JJHDgSGzpdG",
        "reception_time": "2022-01-18T19:18:15.819-00:00",
        "included_in_blocks":
          [ "BLuaie1EkaXkWtpbsPjuS9VLuCWb9VB9S26TmHdxVJm2qz3Zh33" ] },
      { "delegate": "tz1bTpviNnyx2PXsNmGpCQTMQsGoYordkUoA",
        "reception_time": "2022-01-18T19:18:12.054-00:00",
        "included_in_blocks":
          [ "BLuaie1EkaXkWtpbsPjuS9VLuCWb9VB9S26TmHdxVJm2qz3Zh33" ] },
      { "delegate": "tz1PFeoTuFen8jAMRHajBySNyCwLmY5RqF9M",
        "reception_time": "2022-01-18T19:18:11.890-00:00",
        "included_in_blocks":
          [ "BLuaie1EkaXkWtpbsPjuS9VLuCWb9VB9S26TmHdxVJm2qz3Zh33" ] },
      { "delegate": "tz1fJHFn6sWEd3NnBPngACuw2dggTv6nQZ7g",
        "reception_time": "2022-01-18T19:18:11.177-00:00",
        "included_in_blocks":
          [ "BLuaie1EkaXkWtpbsPjuS9VLuCWb9VB9S26TmHdxVJm2qz3Zh33" ] },
      { "delegate": "tz1awXW7wuXy21c66vBudMXQVAPgRnqqwgTH",
        "reception_time": "2022-01-18T19:18:10.918-00:00",
        "included_in_blocks":
          [ "BLuaie1EkaXkWtpbsPjuS9VLuCWb9VB9S26TmHdxVJm2qz3Zh33" ] },
      { "delegate": "tz1g8vkmcde6sWKaG2NN9WKzCkDM6Rziq194",
        "reception_time": "2022-01-18T19:18:10.943-00:00",
        "included_in_blocks":
          [ "BLuaie1EkaXkWtpbsPjuS9VLuCWb9VB9S26TmHdxVJm2qz3Zh33" ] },
      { "delegate": "tz1RCFbB9GpALpsZtu6J58sb74dm8qe6XBzv",
        "reception_time": "2022-01-18T19:18:10.036-00:00",
        "included_in_blocks":
          [ "BLuaie1EkaXkWtpbsPjuS9VLuCWb9VB9S26TmHdxVJm2qz3Zh33" ] },
      { "delegate": "tz3VEZ4k6a4Wx42iyev6i2aVAptTRLEAivNN",
        "reception_time": "2022-01-18T19:18:09.739-00:00",
        "included_in_blocks":
          [ "BLuaie1EkaXkWtpbsPjuS9VLuCWb9VB9S26TmHdxVJm2qz3Zh33" ] },
      { "delegate": "tz3UoffC7FG7zfpmvmjUmUeAaHvzdcUvAj6r",
        "reception_time": "2022-01-18T19:18:09.500-00:00",
        "included_in_blocks":
          [ "BLuaie1EkaXkWtpbsPjuS9VLuCWb9VB9S26TmHdxVJm2qz3Zh33" ] },
      { "delegate": "tz1aJS7Pk9uWR3wWyFf1i3RwhYxN84G7stom",
        "reception_time": "2022-01-18T19:18:09.308-00:00",
        "included_in_blocks":
          [ "BLuaie1EkaXkWtpbsPjuS9VLuCWb9VB9S26TmHdxVJm2qz3Zh33" ] },
      { "delegate": "tz1dDsLch7Ww1s5mfD1tjBtKWwCdrjuHWanV",
        "reception_time": "2022-01-18T19:18:09.314-00:00",
        "included_in_blocks":
          [ "BLuaie1EkaXkWtpbsPjuS9VLuCWb9VB9S26TmHdxVJm2qz3Zh33" ] },
      { "delegate": "tz1SohptP53wDPZhzTWzDUFAUcWF6DMBpaJV",
        "reception_time": "2022-01-18T19:18:09.248-00:00",
        "included_in_blocks":
          [ "BLuaie1EkaXkWtpbsPjuS9VLuCWb9VB9S26TmHdxVJm2qz3Zh33" ] },
      { "delegate": "tz1aRoaRhSpRYvFdyvgWLL6TGyRoGF51wDjM",
        "reception_time": "2022-01-18T19:18:09.384-00:00",
        "included_in_blocks":
          [ "BLuaie1EkaXkWtpbsPjuS9VLuCWb9VB9S26TmHdxVJm2qz3Zh33" ] },
      { "delegate": "tz1dRKU4FQ9QRRQPdaH4zCR6gmCmXfcvcgtB",
        "reception_time": "2022-01-18T19:18:09.180-00:00",
        "included_in_blocks":
          [ "BLuaie1EkaXkWtpbsPjuS9VLuCWb9VB9S26TmHdxVJm2qz3Zh33" ] },
      { "delegate": "tz3RDC3Jdn4j15J7bBHZd29EUee9gVB1CxD9",
        "reception_time": "2022-01-18T19:18:09.270-00:00",
        "included_in_blocks":
          [ "BLuaie1EkaXkWtpbsPjuS9VLuCWb9VB9S26TmHdxVJm2qz3Zh33" ] },
      { "delegate": "tz3WMqdzXqRWXwyvj5Hp2H7QEepaUuS7vd9K",
        "reception_time": "2022-01-18T19:18:09.051-00:00",
        "included_in_blocks":
          [ "BLuaie1EkaXkWtpbsPjuS9VLuCWb9VB9S26TmHdxVJm2qz3Zh33" ] },
      { "delegate": "tz1RjoHc98dBoqaH2jawF62XNKh7YsHwbkEv",
        "reception_time": "2022-01-18T19:18:08.824-00:00",
        "included_in_blocks":
          [ "BLuaie1EkaXkWtpbsPjuS9VLuCWb9VB9S26TmHdxVJm2qz3Zh33" ] },
      { "delegate": "tz1NEKxGEHsFufk87CVZcrqWu8o22qh46GK6",
        "reception_time": "2022-01-18T19:18:08.832-00:00",
        "included_in_blocks":
          [ "BLuaie1EkaXkWtpbsPjuS9VLuCWb9VB9S26TmHdxVJm2qz3Zh33" ] },
      { "delegate": "tz1fwnfJNgiDACshK9avfRfFbMaXrs3ghoJa",
        "reception_time": "2022-01-18T19:18:08.657-00:00",
        "included_in_blocks":
          [ "BLuaie1EkaXkWtpbsPjuS9VLuCWb9VB9S26TmHdxVJm2qz3Zh33" ] },
      { "delegate": "tz1Nf6tsK4G6bBqgSQERy4nUtkHNKUVdh7q1",
        "reception_time": "2022-01-18T19:18:08.806-00:00",
        "included_in_blocks":
          [ "BLuaie1EkaXkWtpbsPjuS9VLuCWb9VB9S26TmHdxVJm2qz3Zh33" ] },
      { "delegate": "tz3RB4aoyjov4KEVRbuhvQ1CKJgBJMWhaeB8",
        "reception_time": "2022-01-18T19:18:08.729-00:00",
        "included_in_blocks":
          [ "BLuaie1EkaXkWtpbsPjuS9VLuCWb9VB9S26TmHdxVJm2qz3Zh33" ] },
      { "delegate": "tz2FCNBrERXtaTtNX6iimR1UJ5JSDxvdHM93",
        "reception_time": "2022-01-18T19:18:08.386-00:00",
        "included_in_blocks":
          [ "BLuaie1EkaXkWtpbsPjuS9VLuCWb9VB9S26TmHdxVJm2qz3Zh33" ] },
      { "delegate": "tz3gLTu4Yxj8tPAcriQVUdxv6BY9QyvzU1az",
        "reception_time": "2022-01-18T19:18:08.440-00:00",
        "included_in_blocks":
          [ "BLuaie1EkaXkWtpbsPjuS9VLuCWb9VB9S26TmHdxVJm2qz3Zh33" ] },
      { "delegate": "tz3NDpRj6WBrJPikcPVHRBEjWKxFw3c6eQPS",
        "reception_time": "2022-01-18T19:18:08.446-00:00",
        "included_in_blocks":
          [ "BLuaie1EkaXkWtpbsPjuS9VLuCWb9VB9S26TmHdxVJm2qz3Zh33" ] },
      { "delegate": "tz1TEc75UKXv4W5cwi14Na3NtqFD51yKQi7h",
        "reception_time": "2022-01-18T19:18:08.347-00:00",
        "included_in_blocks":
          [ "BLuaie1EkaXkWtpbsPjuS9VLuCWb9VB9S26TmHdxVJm2qz3Zh33" ] },
      { "delegate": "tz1S8MNvuFEUsWgjHvi3AxibRBf388NhT1q2",
        "reception_time": "2022-01-18T19:18:08.315-00:00",
        "included_in_blocks":
          [ "BLuaie1EkaXkWtpbsPjuS9VLuCWb9VB9S26TmHdxVJm2qz3Zh33" ] },
      { "delegate": "tz1RQhNh7iB9CZA7i3ifTWNwiGYVffponfbB",
        "reception_time": "2022-01-18T19:18:08.296-00:00",
        "included_in_blocks":
          [ "BLuaie1EkaXkWtpbsPjuS9VLuCWb9VB9S26TmHdxVJm2qz3Zh33" ] },
      { "delegate": "tz1dNVDWPf3Q59SdJqnjdnu277iyvReiRS9M",
        "reception_time": "2022-01-18T19:18:08.290-00:00",
        "included_in_blocks":
          [ "BLuaie1EkaXkWtpbsPjuS9VLuCWb9VB9S26TmHdxVJm2qz3Zh33" ] },
      { "delegate": "tz3bvNMQ95vfAYtG8193ymshqjSvmxiCUuR5",
        "reception_time": "2022-01-18T19:18:08.328-00:00",
        "included_in_blocks":
          [ "BLuaie1EkaXkWtpbsPjuS9VLuCWb9VB9S26TmHdxVJm2qz3Zh33" ] },
      { "delegate": "tz1WBfwbT66FC6BTLexc2BoyCCBM9LG7pnVW",
        "reception_time": "2022-01-18T19:18:08.217-00:00",
        "included_in_blocks":
          [ "BLuaie1EkaXkWtpbsPjuS9VLuCWb9VB9S26TmHdxVJm2qz3Zh33" ] },
      { "delegate": "tz1YhNsiRRU8aHNGg7NK3uuP6UDAyacJernB",
        "reception_time": "2022-01-18T19:18:08.248-00:00",
        "included_in_blocks":
          [ "BLuaie1EkaXkWtpbsPjuS9VLuCWb9VB9S26TmHdxVJm2qz3Zh33" ] },
      { "delegate": "tz1V4qCyvPKZ5UeqdH14HN42rxvNPQfc9UZg",
        "reception_time": "2022-01-18T19:18:08.221-00:00",
        "included_in_blocks":
          [ "BLuaie1EkaXkWtpbsPjuS9VLuCWb9VB9S26TmHdxVJm2qz3Zh33" ] },
      { "delegate": "tz1dwu9aYb7CRNq4Y2zAjipdjFuSVKhHS8vA",
        "reception_time": "2022-01-18T19:18:08.286-00:00",
        "included_in_blocks":
          [ "BLuaie1EkaXkWtpbsPjuS9VLuCWb9VB9S26TmHdxVJm2qz3Zh33" ] },
      { "delegate": "tz1gfArv665EUkSg2ojMBzcbfwuPxAvqPvjo",
        "reception_time": "2022-01-18T19:18:08.217-00:00",
        "included_in_blocks":
          [ "BLuaie1EkaXkWtpbsPjuS9VLuCWb9VB9S26TmHdxVJm2qz3Zh33" ] },
      { "delegate": "tz1ei4WtWEMEJekSv8qDnu9PExG6Q8HgRGr3",
        "reception_time": "2022-01-18T19:18:08.223-00:00",
        "included_in_blocks":
          [ "BLuaie1EkaXkWtpbsPjuS9VLuCWb9VB9S26TmHdxVJm2qz3Zh33" ] },
      { "delegate": "tz1MQMiZHV8q4tTwUMWmS5Y3kaP6J2136iXr",
        "reception_time": "2022-01-18T19:18:08.257-00:00",
        "included_in_blocks":
          [ "BLuaie1EkaXkWtpbsPjuS9VLuCWb9VB9S26TmHdxVJm2qz3Zh33" ] },
      { "delegate": "tz1fPKAtsYydh4f1wfWNfeNxWYu72TmM48fu",
        "reception_time": "2022-01-18T19:18:08.243-00:00",
        "included_in_blocks":
          [ "BLuaie1EkaXkWtpbsPjuS9VLuCWb9VB9S26TmHdxVJm2qz3Zh33" ] },
      { "delegate": "tz3bTdwZinP8U1JmSweNzVKhmwafqWmFWRfk",
        "reception_time": "2022-01-18T19:18:08.095-00:00",
        "included_in_blocks":
          [ "BLuaie1EkaXkWtpbsPjuS9VLuCWb9VB9S26TmHdxVJm2qz3Zh33" ] },
      { "delegate": "tz1PWCDnz783NNGGQjEFFsHtrcK5yBW4E2rm",
        "reception_time": "2022-01-18T19:18:08.128-00:00",
        "included_in_blocks":
          [ "BLuaie1EkaXkWtpbsPjuS9VLuCWb9VB9S26TmHdxVJm2qz3Zh33" ] },
      { "delegate": "tz3S6BBeKgJGXxvLyZ1xzXzMPn11nnFtq5L9",
        "reception_time": "2022-01-18T19:18:08.128-00:00",
        "included_in_blocks":
          [ "BLuaie1EkaXkWtpbsPjuS9VLuCWb9VB9S26TmHdxVJm2qz3Zh33" ] },
      { "delegate": "tz3Zhs2dygr55yHyQyKjntAtY9bgfhLZ4Xj1",
        "reception_time": "2022-01-18T19:18:08.103-00:00",
        "included_in_blocks":
          [ "BLuaie1EkaXkWtpbsPjuS9VLuCWb9VB9S26TmHdxVJm2qz3Zh33" ] },
      { "delegate": "tz3iJu5vrKZcsqRPs8yJ61UDoeEXZmtro4qh",
        "reception_time": "2022-01-18T19:18:08.077-00:00",
        "included_in_blocks":
          [ "BLuaie1EkaXkWtpbsPjuS9VLuCWb9VB9S26TmHdxVJm2qz3Zh33" ] },
      { "delegate": "tz3QT9dHYKDqh563chVa6za8526ys1UKfRfL",
        "reception_time": "2022-01-18T19:18:08.084-00:00",
        "included_in_blocks":
          [ "BLuaie1EkaXkWtpbsPjuS9VLuCWb9VB9S26TmHdxVJm2qz3Zh33" ] },
      { "delegate": "tz1UJvHTgpVzcKWhTazGxVcn5wsHru5Gietg",
        "reception_time": "2022-01-18T19:18:08.203-00:00",
        "included_in_blocks":
          [ "BLuaie1EkaXkWtpbsPjuS9VLuCWb9VB9S26TmHdxVJm2qz3Zh33" ] },
      { "delegate": "tz1cSj7fTex3JPd1p1LN1fwek6AV1kH93Wwc",
        "reception_time": "2022-01-18T19:18:08.088-00:00",
        "included_in_blocks":
          [ "BLuaie1EkaXkWtpbsPjuS9VLuCWb9VB9S26TmHdxVJm2qz3Zh33" ] },
      { "delegate": "tz3gtoUxdudfBRcNY7iVdKPHCYYX6xdPpoRS",
        "reception_time": "2022-01-18T19:18:08.146-00:00",
        "included_in_blocks":
          [ "BLuaie1EkaXkWtpbsPjuS9VLuCWb9VB9S26TmHdxVJm2qz3Zh33" ] },
      { "delegate": "tz3QSGPoRp3Kn7n3vY24eYeu3Peuqo45LQ4D",
        "reception_time": "2022-01-18T19:18:08.199-00:00",
        "included_in_blocks":
          [ "BLuaie1EkaXkWtpbsPjuS9VLuCWb9VB9S26TmHdxVJm2qz3Zh33" ] },
      { "delegate": "tz1ia6jze3LrBGWJkaDmZ7ThJpPsYWh8D398",
        "reception_time": "2022-01-18T19:18:08.136-00:00",
        "included_in_blocks":
          [ "BLuaie1EkaXkWtpbsPjuS9VLuCWb9VB9S26TmHdxVJm2qz3Zh33" ] },
      { "delegate": "tz1WCd2jm4uSt4vntk4vSuUWoZQGhLcDuR9q",
        "reception_time": "2022-01-18T19:18:08.150-00:00",
        "included_in_blocks":
          [ "BLuaie1EkaXkWtpbsPjuS9VLuCWb9VB9S26TmHdxVJm2qz3Zh33" ] },
      { "delegate": "tz1TzaNn7wSQSP5gYPXCnNzBCpyMiidCq1PX",
        "reception_time": "2022-01-18T19:18:08.164-00:00",
        "included_in_blocks":
          [ "BLuaie1EkaXkWtpbsPjuS9VLuCWb9VB9S26TmHdxVJm2qz3Zh33" ] },
      { "delegate": "tz1VmiY38m3y95HqQLjMwqnMS7sdMfGomzKi",
        "reception_time": "2022-01-18T19:18:07.946-00:00",
        "included_in_blocks":
          [ "BLuaie1EkaXkWtpbsPjuS9VLuCWb9VB9S26TmHdxVJm2qz3Zh33" ] },
      { "delegate": "tz3hw2kqXhLUvY65ca1eety2oQTpAvd34R9Q",
        "reception_time": "2022-01-18T19:18:07.972-00:00",
        "included_in_blocks":
          [ "BLuaie1EkaXkWtpbsPjuS9VLuCWb9VB9S26TmHdxVJm2qz3Zh33" ] },
      { "delegate": "tz3ZbP2pM3nwvXztbuMJwJnDvV5xdpU8UkkD",
        "reception_time": "2022-01-18T19:18:07.982-00:00",
        "included_in_blocks":
          [ "BLuaie1EkaXkWtpbsPjuS9VLuCWb9VB9S26TmHdxVJm2qz3Zh33" ] },
      { "delegate": "tz3NxTnke1acr8o3h5y9ytf5awQBGNJUKzVU",
        "reception_time": "2022-01-18T19:18:07.932-00:00",
        "included_in_blocks":
          [ "BLuaie1EkaXkWtpbsPjuS9VLuCWb9VB9S26TmHdxVJm2qz3Zh33" ] },
      { "delegate": "tz1VQnqCCqX4K5sP3FNkVSNKTdCAMJDd3E1n",
        "reception_time": "2022-01-18T19:18:08.062-00:00",
        "included_in_blocks":
          [ "BLuaie1EkaXkWtpbsPjuS9VLuCWb9VB9S26TmHdxVJm2qz3Zh33" ] },
      { "delegate": "tz3RKYFsLuQzKBtmYuLNas7uMu3AsYd4QdsA",
        "reception_time": "2022-01-18T19:18:08.058-00:00",
        "included_in_blocks":
          [ "BLuaie1EkaXkWtpbsPjuS9VLuCWb9VB9S26TmHdxVJm2qz3Zh33" ] },
      { "delegate": "tz1gUNyn3hmnEWqkusWPzxRaon1cs7ndWh7h",
        "reception_time": "2022-01-18T19:18:07.957-00:00",
        "included_in_blocks":
          [ "BLuaie1EkaXkWtpbsPjuS9VLuCWb9VB9S26TmHdxVJm2qz3Zh33" ] },
      { "delegate": "tz1Kf25fX1VdmYGSEzwFy1wNmkbSEZ2V83sY",
        "reception_time": "2022-01-18T19:18:08.004-00:00",
        "included_in_blocks":
          [ "BLuaie1EkaXkWtpbsPjuS9VLuCWb9VB9S26TmHdxVJm2qz3Zh33" ] },
      { "delegate": "tz1TRspM5SeZpaQUhzByXbEvqKF1vnCM2YTK",
        "reception_time": "2022-01-18T19:18:07.953-00:00",
        "included_in_blocks":
          [ "BLuaie1EkaXkWtpbsPjuS9VLuCWb9VB9S26TmHdxVJm2qz3Zh33" ] },
      { "delegate": "tz1P2Po7YM526ughEsRbY4oR9zaUPDZjxFrb",
        "reception_time": "2022-01-18T19:18:07.936-00:00",
        "included_in_blocks":
          [ "BLuaie1EkaXkWtpbsPjuS9VLuCWb9VB9S26TmHdxVJm2qz3Zh33" ] },
      { "delegate": "tz1irJKkXS2DBWkU1NnmFQx1c1L7pbGg4yhk",
        "reception_time": "2022-01-18T19:18:08.034-00:00",
        "included_in_blocks":
          [ "BLuaie1EkaXkWtpbsPjuS9VLuCWb9VB9S26TmHdxVJm2qz3Zh33" ] },
      { "delegate": "tz1LLNkQK4UQV6QcFShiXJ2vT2ELw449MzAA",
        "reception_time": "2022-01-18T19:18:08.042-00:00",
        "included_in_blocks":
          [ "BLuaie1EkaXkWtpbsPjuS9VLuCWb9VB9S26TmHdxVJm2qz3Zh33" ] },
      { "delegate": "tz1aDiEJf9ztRrAJEXZfcG3CKimoKsGhwVAi",
        "reception_time": "2022-01-18T19:18:07.879-00:00",
        "included_in_blocks":
          [ "BLuaie1EkaXkWtpbsPjuS9VLuCWb9VB9S26TmHdxVJm2qz3Zh33" ] },
      { "delegate": "tz1eEnQhbwf6trb8Q8mPb2RaPkNk2rN7BKi8",
        "reception_time": "2022-01-18T19:18:07.964-00:00",
        "included_in_blocks":
          [ "BLuaie1EkaXkWtpbsPjuS9VLuCWb9VB9S26TmHdxVJm2qz3Zh33" ] } ] }