{ "blocks":
    [ { "hash": "BMcBzusMctMPQsFSQo9dBsFa9jXtPq4E1bBJrJmVx5a7ihpAi96",
        "delegate": "tz1S8MNvuFEUsWgjHvi3AxibRBf388NhT1q2",
        "reception_time": "2022-01-18T22:41:48.189-00:00",
        "timestamp": "2022-01-18T22:41:40Z" } ],
  "endorsements":
    [ { "delegate": "tz1beersuEDv8Z7ngQ825xfbaJNS2EhXnyHR",
        "reception_time": "2022-01-18T22:41:48.014-00:00",
        "errors":
          [ { "kind": "temporary",
              "id": "proto.011-PtHangz2.prefilter.outdated_endorsement" } ],
        "included_in_blocks":
          [ "BLoXmqEvrd4yLGrvSw6cTiuAUaprMMVP5uqdh6KXs8rYck8UdAB" ] },
      { "delegate": "tz1Ldzz6k1BHdhuKvAtMRX7h5kJSMHESMHLC",
        "reception_time": "2022-01-18T22:41:47.979-00:00",
        "errors":
          [ { "kind": "temporary",
              "id": "proto.011-PtHangz2.prefilter.outdated_endorsement" } ],
        "included_in_blocks":
          [ "BLoXmqEvrd4yLGrvSw6cTiuAUaprMMVP5uqdh6KXs8rYck8UdAB" ] },
      { "delegate": "tz1eEnQhbwf6trb8Q8mPb2RaPkNk2rN7BKi8",
        "reception_time": "2022-01-18T22:41:47.971-00:00",
        "errors":
          [ { "kind": "temporary",
              "id": "proto.011-PtHangz2.prefilter.outdated_endorsement" } ],
        "included_in_blocks":
          [ "BLoXmqEvrd4yLGrvSw6cTiuAUaprMMVP5uqdh6KXs8rYck8UdAB" ] },
      { "delegate": "tz1irJKkXS2DBWkU1NnmFQx1c1L7pbGg4yhk",
        "reception_time": "2022-01-18T22:41:47.934-00:00",
        "errors":
          [ { "kind": "temporary",
              "id": "proto.011-PtHangz2.prefilter.outdated_endorsement" } ],
        "included_in_blocks":
          [ "BLoXmqEvrd4yLGrvSw6cTiuAUaprMMVP5uqdh6KXs8rYck8UdAB" ] },
      { "delegate": "tz1aXD7Jigrt3PBYSpHSg5Rr33SexMmmM5Ys",
        "reception_time": "2022-01-18T22:41:47.849-00:00",
        "errors":
          [ { "kind": "temporary",
              "id": "proto.011-PtHangz2.prefilter.outdated_endorsement" } ],
        "included_in_blocks":
          [ "BLoXmqEvrd4yLGrvSw6cTiuAUaprMMVP5uqdh6KXs8rYck8UdAB" ] },
      { "delegate": "tz1P2Po7YM526ughEsRbY4oR9zaUPDZjxFrb",
        "reception_time": "2022-01-18T22:41:47.827-00:00",
        "errors":
          [ { "kind": "temporary",
              "id": "proto.011-PtHangz2.prefilter.outdated_endorsement" } ],
        "included_in_blocks":
          [ "BLoXmqEvrd4yLGrvSw6cTiuAUaprMMVP5uqdh6KXs8rYck8UdAB" ] },
      { "delegate": "tz1VmiY38m3y95HqQLjMwqnMS7sdMfGomzKi",
        "reception_time": "2022-01-18T22:41:47.716-00:00",
        "errors":
          [ { "kind": "temporary",
              "id": "proto.011-PtHangz2.prefilter.outdated_endorsement" } ],
        "included_in_blocks":
          [ "BLoXmqEvrd4yLGrvSw6cTiuAUaprMMVP5uqdh6KXs8rYck8UdAB" ] },
      { "delegate": "tz1TXzyaKUA8wsWefdSnyaYFnV2M3vCV7er9",
        "reception_time": "2022-01-18T22:41:47.657-00:00",
        "errors":
          [ { "kind": "temporary",
              "id": "proto.011-PtHangz2.prefilter.outdated_endorsement" } ],
        "included_in_blocks":
          [ "BLoXmqEvrd4yLGrvSw6cTiuAUaprMMVP5uqdh6KXs8rYck8UdAB" ] },
      { "delegate": "tz1Scdr2HsZiQjc7bHMeBbmDRXYVvdhjJbBh",
        "reception_time": "2022-01-18T22:41:47.564-00:00",
        "errors":
          [ { "kind": "temporary",
              "id": "proto.011-PtHangz2.prefilter.outdated_endorsement" } ],
        "included_in_blocks":
          [ "BLoXmqEvrd4yLGrvSw6cTiuAUaprMMVP5uqdh6KXs8rYck8UdAB" ] },
      { "delegate": "tz1MXFrtZoaXckE41bjUCSjAjAap3AFDSr3N",
        "reception_time": "2022-01-18T22:41:47.417-00:00",
        "errors":
          [ { "kind": "temporary",
              "id": "proto.011-PtHangz2.prefilter.outdated_endorsement" } ],
        "included_in_blocks":
          [ "BLoXmqEvrd4yLGrvSw6cTiuAUaprMMVP5uqdh6KXs8rYck8UdAB" ] },
      { "delegate": "tz1Z1WwoqgRFbLE3YNdYRpCx44NSfiMJzeAG" },
      { "delegate": "tz1dbfppLAAxXZNtf2SDps7rch3qfUznKSoK" },
      { "delegate": "tz1S8MNvuFEUsWgjHvi3AxibRBf388NhT1q2",
        "reception_time": "2022-01-18T22:41:50.715-00:00",
        "included_in_blocks":
          [ "BLoXmqEvrd4yLGrvSw6cTiuAUaprMMVP5uqdh6KXs8rYck8UdAB" ] },
      { "delegate": "tz1TRspM5SeZpaQUhzByXbEvqKF1vnCM2YTK",
        "reception_time": "2022-01-18T22:41:51.003-00:00",
        "included_in_blocks":
          [ "BLoXmqEvrd4yLGrvSw6cTiuAUaprMMVP5uqdh6KXs8rYck8UdAB" ] },
      { "delegate": "tz3NxTnke1acr8o3h5y9ytf5awQBGNJUKzVU",
        "reception_time": "2022-01-18T22:41:51.003-00:00",
        "included_in_blocks":
          [ "BLoXmqEvrd4yLGrvSw6cTiuAUaprMMVP5uqdh6KXs8rYck8UdAB" ] },
      { "delegate": "tz1aqcYgG6NuViML5vdWhohHJBYxcDVLNUsE",
        "reception_time": "2022-01-18T22:41:51.003-00:00",
        "included_in_blocks":
          [ "BLoXmqEvrd4yLGrvSw6cTiuAUaprMMVP5uqdh6KXs8rYck8UdAB" ] },
      { "delegate": "tz1gUNyn3hmnEWqkusWPzxRaon1cs7ndWh7h",
        "reception_time": "2022-01-18T22:41:51.003-00:00",
        "included_in_blocks":
          [ "BLoXmqEvrd4yLGrvSw6cTiuAUaprMMVP5uqdh6KXs8rYck8UdAB" ] },
      { "delegate": "tz1ei4WtWEMEJekSv8qDnu9PExG6Q8HgRGr3",
        "reception_time": "2022-01-18T22:41:51.003-00:00",
        "included_in_blocks":
          [ "BLoXmqEvrd4yLGrvSw6cTiuAUaprMMVP5uqdh6KXs8rYck8UdAB" ] },
      { "delegate": "tz1V4qCyvPKZ5UeqdH14HN42rxvNPQfc9UZg",
        "reception_time": "2022-01-18T22:41:51.003-00:00",
        "included_in_blocks":
          [ "BLoXmqEvrd4yLGrvSw6cTiuAUaprMMVP5uqdh6KXs8rYck8UdAB" ] },
      { "delegate": "tz1VQnqCCqX4K5sP3FNkVSNKTdCAMJDd3E1n",
        "reception_time": "2022-01-18T22:41:51.003-00:00",
        "included_in_blocks":
          [ "BLoXmqEvrd4yLGrvSw6cTiuAUaprMMVP5uqdh6KXs8rYck8UdAB" ] },
      { "delegate": "tz1WCd2jm4uSt4vntk4vSuUWoZQGhLcDuR9q",
        "reception_time": "2022-01-18T22:41:51.003-00:00",
        "included_in_blocks":
          [ "BLoXmqEvrd4yLGrvSw6cTiuAUaprMMVP5uqdh6KXs8rYck8UdAB" ] },
      { "delegate": "tz1TzaNn7wSQSP5gYPXCnNzBCpyMiidCq1PX",
        "reception_time": "2022-01-18T22:41:51.003-00:00",
        "included_in_blocks":
          [ "BLoXmqEvrd4yLGrvSw6cTiuAUaprMMVP5uqdh6KXs8rYck8UdAB" ] },
      { "delegate": "tz3QSGPoRp3Kn7n3vY24eYeu3Peuqo45LQ4D",
        "reception_time": "2022-01-18T22:41:51.003-00:00",
        "included_in_blocks":
          [ "BLoXmqEvrd4yLGrvSw6cTiuAUaprMMVP5uqdh6KXs8rYck8UdAB" ] },
      { "delegate": "tz3RKYFsLuQzKBtmYuLNas7uMu3AsYd4QdsA",
        "reception_time": "2022-01-18T22:41:51.003-00:00",
        "included_in_blocks":
          [ "BLoXmqEvrd4yLGrvSw6cTiuAUaprMMVP5uqdh6KXs8rYck8UdAB" ] },
      { "delegate": "tz1bZ8vsMAXmaWEV7FRnyhcuUs2fYMaQ6Hkk",
        "reception_time": "2022-01-18T22:41:51.003-00:00",
        "included_in_blocks":
          [ "BLoXmqEvrd4yLGrvSw6cTiuAUaprMMVP5uqdh6KXs8rYck8UdAB" ] },
      { "delegate": "tz1VE2VPQmCXpNQCUcigV1GSb5qEvofP1Xxr",
        "reception_time": "2022-01-18T22:41:51.003-00:00",
        "included_in_blocks":
          [ "BLoXmqEvrd4yLGrvSw6cTiuAUaprMMVP5uqdh6KXs8rYck8UdAB" ] },
      { "delegate": "tz3adcvQaKXTCg12zbninqo3q8ptKKtDFTLv",
        "reception_time": "2022-01-18T22:41:51.003-00:00",
        "included_in_blocks":
          [ "BLoXmqEvrd4yLGrvSw6cTiuAUaprMMVP5uqdh6KXs8rYck8UdAB" ] },
      { "delegate": "tz1NEKxGEHsFufk87CVZcrqWu8o22qh46GK6",
        "reception_time": "2022-01-18T22:41:51.003-00:00",
        "included_in_blocks":
          [ "BLoXmqEvrd4yLGrvSw6cTiuAUaprMMVP5uqdh6KXs8rYck8UdAB" ] },
      { "delegate": "tz3RB4aoyjov4KEVRbuhvQ1CKJgBJMWhaeB8",
        "reception_time": "2022-01-18T22:41:51.008-00:00",
        "included_in_blocks":
          [ "BLoXmqEvrd4yLGrvSw6cTiuAUaprMMVP5uqdh6KXs8rYck8UdAB" ] },
      { "delegate": "tz3hw2kqXhLUvY65ca1eety2oQTpAvd34R9Q",
        "reception_time": "2022-01-18T22:41:51.008-00:00",
        "included_in_blocks":
          [ "BLoXmqEvrd4yLGrvSw6cTiuAUaprMMVP5uqdh6KXs8rYck8UdAB" ] },
      { "delegate": "tz1KzSC1J9aBxKp7u8TUnpN8L7S65PBRkgdF",
        "reception_time": "2022-01-18T22:41:51.055-00:00",
        "included_in_blocks":
          [ "BLoXmqEvrd4yLGrvSw6cTiuAUaprMMVP5uqdh6KXs8rYck8UdAB" ] },
      { "delegate": "tz1c8JTzmA6c7cm6ZmUwR7WES6akdiMa1kwt",
        "reception_time": "2022-01-18T22:41:51.059-00:00",
        "included_in_blocks":
          [ "BLoXmqEvrd4yLGrvSw6cTiuAUaprMMVP5uqdh6KXs8rYck8UdAB" ] },
      { "delegate": "tz3ZbP2pM3nwvXztbuMJwJnDvV5xdpU8UkkD",
        "reception_time": "2022-01-18T22:41:51.067-00:00",
        "included_in_blocks":
          [ "BLoXmqEvrd4yLGrvSw6cTiuAUaprMMVP5uqdh6KXs8rYck8UdAB" ] },
      { "delegate": "tz1WBfwbT66FC6BTLexc2BoyCCBM9LG7pnVW",
        "reception_time": "2022-01-18T22:41:51.071-00:00",
        "included_in_blocks":
          [ "BLoXmqEvrd4yLGrvSw6cTiuAUaprMMVP5uqdh6KXs8rYck8UdAB" ] },
      { "delegate": "tz3S6BBeKgJGXxvLyZ1xzXzMPn11nnFtq5L9",
        "reception_time": "2022-01-18T22:41:51.078-00:00",
        "included_in_blocks":
          [ "BLoXmqEvrd4yLGrvSw6cTiuAUaprMMVP5uqdh6KXs8rYck8UdAB" ] },
      { "delegate": "tz3QT9dHYKDqh563chVa6za8526ys1UKfRfL",
        "reception_time": "2022-01-18T22:41:51.116-00:00",
        "included_in_blocks":
          [ "BLoXmqEvrd4yLGrvSw6cTiuAUaprMMVP5uqdh6KXs8rYck8UdAB" ] },
      { "delegate": "tz1MJx9vhaNRSimcuXPK2rW4fLccQnDAnVKJ",
        "reception_time": "2022-01-18T22:41:51.122-00:00",
        "included_in_blocks":
          [ "BLoXmqEvrd4yLGrvSw6cTiuAUaprMMVP5uqdh6KXs8rYck8UdAB" ] },
      { "delegate": "tz1cSj7fTex3JPd1p1LN1fwek6AV1kH93Wwc",
        "reception_time": "2022-01-18T22:41:51.122-00:00",
        "included_in_blocks":
          [ "BLoXmqEvrd4yLGrvSw6cTiuAUaprMMVP5uqdh6KXs8rYck8UdAB" ] },
      { "delegate": "tz3gtoUxdudfBRcNY7iVdKPHCYYX6xdPpoRS",
        "reception_time": "2022-01-18T22:41:51.131-00:00",
        "included_in_blocks":
          [ "BLoXmqEvrd4yLGrvSw6cTiuAUaprMMVP5uqdh6KXs8rYck8UdAB" ] },
      { "delegate": "tz1RCFbB9GpALpsZtu6J58sb74dm8qe6XBzv",
        "reception_time": "2022-01-18T22:41:51.147-00:00",
        "included_in_blocks":
          [ "BLoXmqEvrd4yLGrvSw6cTiuAUaprMMVP5uqdh6KXs8rYck8UdAB" ] },
      { "delegate": "tz1dNVDWPf3Q59SdJqnjdnu277iyvReiRS9M",
        "reception_time": "2022-01-18T22:41:51.154-00:00",
        "included_in_blocks":
          [ "BLoXmqEvrd4yLGrvSw6cTiuAUaprMMVP5uqdh6KXs8rYck8UdAB" ] },
      { "delegate": "tz3Zhs2dygr55yHyQyKjntAtY9bgfhLZ4Xj1",
        "reception_time": "2022-01-18T22:41:51.163-00:00",
        "included_in_blocks":
          [ "BLoXmqEvrd4yLGrvSw6cTiuAUaprMMVP5uqdh6KXs8rYck8UdAB" ] },
      { "delegate": "tz1fb7c66UwePkkfDXz4ajFaBP9hVNLdS7JJ",
        "reception_time": "2022-01-18T22:41:51.175-00:00",
        "included_in_blocks":
          [ "BLoXmqEvrd4yLGrvSw6cTiuAUaprMMVP5uqdh6KXs8rYck8UdAB" ] },
      { "delegate": "tz3iJu5vrKZcsqRPs8yJ61UDoeEXZmtro4qh",
        "reception_time": "2022-01-18T22:41:51.184-00:00",
        "included_in_blocks":
          [ "BLoXmqEvrd4yLGrvSw6cTiuAUaprMMVP5uqdh6KXs8rYck8UdAB" ] },
      { "delegate": "tz1PWCDnz783NNGGQjEFFsHtrcK5yBW4E2rm",
        "reception_time": "2022-01-18T22:41:51.189-00:00",
        "included_in_blocks":
          [ "BLoXmqEvrd4yLGrvSw6cTiuAUaprMMVP5uqdh6KXs8rYck8UdAB" ] },
      { "delegate": "tz1Nf6tsK4G6bBqgSQERy4nUtkHNKUVdh7q1",
        "reception_time": "2022-01-18T22:41:51.194-00:00",
        "included_in_blocks":
          [ "BLoXmqEvrd4yLGrvSw6cTiuAUaprMMVP5uqdh6KXs8rYck8UdAB" ] },
      { "delegate": "tz3bvNMQ95vfAYtG8193ymshqjSvmxiCUuR5",
        "reception_time": "2022-01-18T22:41:51.204-00:00",
        "included_in_blocks":
          [ "BLoXmqEvrd4yLGrvSw6cTiuAUaprMMVP5uqdh6KXs8rYck8UdAB" ] },
      { "delegate": "tz2FCNBrERXtaTtNX6iimR1UJ5JSDxvdHM93",
        "reception_time": "2022-01-18T22:41:51.204-00:00",
        "included_in_blocks":
          [ "BLoXmqEvrd4yLGrvSw6cTiuAUaprMMVP5uqdh6KXs8rYck8UdAB" ] },
      { "delegate": "tz1Z2jXfEXL7dXhs6bsLmyLFLfmAkXBzA9WE",
        "reception_time": "2022-01-18T22:41:51.207-00:00",
        "included_in_blocks":
          [ "BLoXmqEvrd4yLGrvSw6cTiuAUaprMMVP5uqdh6KXs8rYck8UdAB" ] },
      { "delegate": "tz1gfArv665EUkSg2ojMBzcbfwuPxAvqPvjo",
        "reception_time": "2022-01-18T22:41:51.211-00:00",
        "included_in_blocks":
          [ "BLoXmqEvrd4yLGrvSw6cTiuAUaprMMVP5uqdh6KXs8rYck8UdAB" ] },
      { "delegate": "tz1dRKU4FQ9QRRQPdaH4zCR6gmCmXfcvcgtB",
        "reception_time": "2022-01-18T22:41:51.224-00:00",
        "included_in_blocks":
          [ "BLoXmqEvrd4yLGrvSw6cTiuAUaprMMVP5uqdh6KXs8rYck8UdAB" ] },
      { "delegate": "tz3NExpXn9aPNZPorRE4SdjJ2RGrfbJgMAaV",
        "reception_time": "2022-01-18T22:41:51.238-00:00",
        "included_in_blocks":
          [ "BLoXmqEvrd4yLGrvSw6cTiuAUaprMMVP5uqdh6KXs8rYck8UdAB" ] },
      { "delegate": "tz1PeZx7FXy7QRuMREGXGxeipb24RsMMzUNe",
        "reception_time": "2022-01-18T22:41:51.240-00:00",
        "included_in_blocks":
          [ "BLoXmqEvrd4yLGrvSw6cTiuAUaprMMVP5uqdh6KXs8rYck8UdAB" ] },
      { "delegate": "tz3bTdwZinP8U1JmSweNzVKhmwafqWmFWRfk",
        "reception_time": "2022-01-18T22:41:51.247-00:00",
        "included_in_blocks":
          [ "BLoXmqEvrd4yLGrvSw6cTiuAUaprMMVP5uqdh6KXs8rYck8UdAB" ] },
      { "delegate": "tz1KfEsrtDaA1sX7vdM4qmEPWuSytuqCDp5j",
        "reception_time": "2022-01-18T22:41:51.274-00:00",
        "included_in_blocks":
          [ "BLoXmqEvrd4yLGrvSw6cTiuAUaprMMVP5uqdh6KXs8rYck8UdAB" ] },
      { "delegate": "tz3UoffC7FG7zfpmvmjUmUeAaHvzdcUvAj6r",
        "reception_time": "2022-01-18T22:41:51.284-00:00",
        "included_in_blocks":
          [ "BLoXmqEvrd4yLGrvSw6cTiuAUaprMMVP5uqdh6KXs8rYck8UdAB" ] },
      { "delegate": "tz1T7duV5gZWSTq4YpBGbXNLTfznCLDrFxvs",
        "reception_time": "2022-01-18T22:41:51.355-00:00",
        "included_in_blocks":
          [ "BLoXmqEvrd4yLGrvSw6cTiuAUaprMMVP5uqdh6KXs8rYck8UdAB" ] },
      { "delegate": "tz3QCNyySViKHmeSr45kzDxzchys7NiXCWoa",
        "reception_time": "2022-01-18T22:41:51.367-00:00",
        "included_in_blocks":
          [ "BLoXmqEvrd4yLGrvSw6cTiuAUaprMMVP5uqdh6KXs8rYck8UdAB" ] },
      { "delegate": "tz3RDC3Jdn4j15J7bBHZd29EUee9gVB1CxD9",
        "reception_time": "2022-01-18T22:41:51.375-00:00",
        "included_in_blocks":
          [ "BLoXmqEvrd4yLGrvSw6cTiuAUaprMMVP5uqdh6KXs8rYck8UdAB" ] },
      { "delegate": "tz3WMqdzXqRWXwyvj5Hp2H7QEepaUuS7vd9K",
        "reception_time": "2022-01-18T22:41:51.392-00:00",
        "included_in_blocks":
          [ "BLoXmqEvrd4yLGrvSw6cTiuAUaprMMVP5uqdh6KXs8rYck8UdAB" ] },
      { "delegate": "tz1abmz7jiCV2GH2u81LRrGgAFFgvQgiDiaf",
        "reception_time": "2022-01-18T22:41:51.399-00:00",
        "included_in_blocks":
          [ "BLoXmqEvrd4yLGrvSw6cTiuAUaprMMVP5uqdh6KXs8rYck8UdAB" ] },
      { "delegate": "tz1UMCB2AHSTwG7YcGNr31CqYCtGN873royv",
        "reception_time": "2022-01-18T22:41:51.405-00:00",
        "included_in_blocks":
          [ "BLoXmqEvrd4yLGrvSw6cTiuAUaprMMVP5uqdh6KXs8rYck8UdAB" ] },
      { "delegate": "tz1LmaFsWRkjr7QMCx5PtV6xTUz3AmEpKQiF",
        "reception_time": "2022-01-18T22:41:51.414-00:00",
        "included_in_blocks":
          [ "BLoXmqEvrd4yLGrvSw6cTiuAUaprMMVP5uqdh6KXs8rYck8UdAB" ] },
      { "delegate": "tz1RjoHc98dBoqaH2jawF62XNKh7YsHwbkEv",
        "reception_time": "2022-01-18T22:41:51.431-00:00",
        "included_in_blocks":
          [ "BLoXmqEvrd4yLGrvSw6cTiuAUaprMMVP5uqdh6KXs8rYck8UdAB" ] },
      { "delegate": "tz1ZcTRk5uxD86EFEn1vvNffWWqJy7q5eVhc",
        "reception_time": "2022-01-18T22:41:51.610-00:00",
        "included_in_blocks":
          [ "BLoXmqEvrd4yLGrvSw6cTiuAUaprMMVP5uqdh6KXs8rYck8UdAB" ] },
      { "delegate": "tz1cYufsxHXJcvANhvS55h3aY32a9BAFB494",
        "reception_time": "2022-01-18T22:41:51.823-00:00",
        "included_in_blocks":
          [ "BLoXmqEvrd4yLGrvSw6cTiuAUaprMMVP5uqdh6KXs8rYck8UdAB" ] },
      { "delegate": "tz1TRqbYbUf2GyrjErf3hBzgBJPzW8y36qEs",
        "reception_time": "2022-01-18T22:41:51.932-00:00",
        "included_in_blocks":
          [ "BLoXmqEvrd4yLGrvSw6cTiuAUaprMMVP5uqdh6KXs8rYck8UdAB" ] },
      { "delegate": "tz1awXW7wuXy21c66vBudMXQVAPgRnqqwgTH",
        "reception_time": "2022-01-18T22:41:52.940-00:00",
        "included_in_blocks":
          [ "BLoXmqEvrd4yLGrvSw6cTiuAUaprMMVP5uqdh6KXs8rYck8UdAB" ] },
      { "delegate": "tz1W5VkdB5s7ENMESVBtwyt9kyvLqPcUczRT",
        "reception_time": "2022-01-18T22:41:52.944-00:00",
        "included_in_blocks":
          [ "BLoXmqEvrd4yLGrvSw6cTiuAUaprMMVP5uqdh6KXs8rYck8UdAB" ] },
      { "delegate": "tz1aRoaRhSpRYvFdyvgWLL6TGyRoGF51wDjM",
        "reception_time": "2022-01-18T22:41:53.312-00:00",
        "included_in_blocks":
          [ "BLoXmqEvrd4yLGrvSw6cTiuAUaprMMVP5uqdh6KXs8rYck8UdAB" ] },
      { "delegate": "tz1g8vkmcde6sWKaG2NN9WKzCkDM6Rziq194",
        "reception_time": "2022-01-18T22:41:53.947-00:00",
        "included_in_blocks":
          [ "BLoXmqEvrd4yLGrvSw6cTiuAUaprMMVP5uqdh6KXs8rYck8UdAB" ] },
      { "delegate": "tz1QccGQsmt7WMnbVX9inJQgEuQGeMXddfjp",
        "reception_time": "2022-01-18T22:41:55.392-00:00",
        "included_in_blocks":
          [ "BLoXmqEvrd4yLGrvSw6cTiuAUaprMMVP5uqdh6KXs8rYck8UdAB" ] } ] }