{ "blocks":
    [ { "hash": "BKrE3fMH4ZHnrdHgcFG7HvnpymWoAXVNBWAn95YeJsmNv53xkTF",
        "delegate": "tz1eEnQhbwf6trb8Q8mPb2RaPkNk2rN7BKi8",
        "reception_time": "2022-01-18T22:35:17.985-00:00",
        "timestamp": "2022-01-18T22:35:10Z" } ],
  "endorsements":
    [ { "delegate": "tz1TXzyaKUA8wsWefdSnyaYFnV2M3vCV7er9",
        "reception_time": "2022-01-18T22:35:17.925-00:00",
        "errors":
          [ { "kind": "temporary",
              "id": "proto.011-PtHangz2.prefilter.outdated_endorsement" } ],
        "included_in_blocks":
          [ "BKmUAgeUCF59iz59qFZL4trhxLJRXrgUkBt9Ma1f1gEEjw7ERfL" ] },
      { "delegate": "tz1P2Po7YM526ughEsRbY4oR9zaUPDZjxFrb",
        "reception_time": "2022-01-18T22:35:17.895-00:00",
        "errors":
          [ { "kind": "temporary",
              "id": "proto.011-PtHangz2.prefilter.outdated_endorsement" } ],
        "included_in_blocks":
          [ "BKmUAgeUCF59iz59qFZL4trhxLJRXrgUkBt9Ma1f1gEEjw7ERfL" ] },
      { "delegate": "tz1Scdr2HsZiQjc7bHMeBbmDRXYVvdhjJbBh",
        "reception_time": "2022-01-18T22:35:17.556-00:00",
        "errors":
          [ { "kind": "temporary",
              "id": "proto.011-PtHangz2.prefilter.outdated_endorsement" } ],
        "included_in_blocks":
          [ "BKmUAgeUCF59iz59qFZL4trhxLJRXrgUkBt9Ma1f1gEEjw7ERfL" ] },
      { "delegate": "tz1eEnQhbwf6trb8Q8mPb2RaPkNk2rN7BKi8",
        "reception_time": "2022-01-18T22:35:17.530-00:00",
        "errors":
          [ { "kind": "temporary",
              "id": "proto.011-PtHangz2.prefilter.outdated_endorsement" } ],
        "included_in_blocks":
          [ "BKmUAgeUCF59iz59qFZL4trhxLJRXrgUkBt9Ma1f1gEEjw7ERfL" ] },
      { "delegate": "tz1SYq214SCBy9naR6cvycQsYcUGpBqQAE8d" },
      { "delegate": "tz1STeamwbp68THcny9zk3LsbG3H36DMvbRK",
        "reception_time": "2022-01-18T22:35:20.450-00:00",
        "included_in_blocks":
          [ "BKmUAgeUCF59iz59qFZL4trhxLJRXrgUkBt9Ma1f1gEEjw7ERfL" ] },
      { "delegate": "tz1gUNyn3hmnEWqkusWPzxRaon1cs7ndWh7h",
        "reception_time": "2022-01-18T22:35:20.462-00:00",
        "included_in_blocks":
          [ "BKmUAgeUCF59iz59qFZL4trhxLJRXrgUkBt9Ma1f1gEEjw7ERfL" ] },
      { "delegate": "tz1RV1MBbZMR68tacosb7Mwj6LkbPSUS1er1",
        "reception_time": "2022-01-18T22:35:20.473-00:00",
        "included_in_blocks":
          [ "BKmUAgeUCF59iz59qFZL4trhxLJRXrgUkBt9Ma1f1gEEjw7ERfL" ] },
      { "delegate": "tz1VQnqCCqX4K5sP3FNkVSNKTdCAMJDd3E1n",
        "reception_time": "2022-01-18T22:35:20.484-00:00",
        "included_in_blocks":
          [ "BKmUAgeUCF59iz59qFZL4trhxLJRXrgUkBt9Ma1f1gEEjw7ERfL" ] },
      { "delegate": "tz1Ldzz6k1BHdhuKvAtMRX7h5kJSMHESMHLC",
        "reception_time": "2022-01-18T22:35:20.489-00:00",
        "included_in_blocks":
          [ "BKmUAgeUCF59iz59qFZL4trhxLJRXrgUkBt9Ma1f1gEEjw7ERfL" ] },
      { "delegate": "tz1WCd2jm4uSt4vntk4vSuUWoZQGhLcDuR9q",
        "reception_time": "2022-01-18T22:35:20.492-00:00",
        "included_in_blocks":
          [ "BKmUAgeUCF59iz59qFZL4trhxLJRXrgUkBt9Ma1f1gEEjw7ERfL" ] },
      { "delegate": "tz1eDDuQBEgwvc6tbnnCVrnr12tvrd6gBTpx",
        "reception_time": "2022-01-18T22:35:20.497-00:00",
        "included_in_blocks":
          [ "BKmUAgeUCF59iz59qFZL4trhxLJRXrgUkBt9Ma1f1gEEjw7ERfL" ] },
      { "delegate": "tz1Kf25fX1VdmYGSEzwFy1wNmkbSEZ2V83sY",
        "reception_time": "2022-01-18T22:35:20.501-00:00",
        "included_in_blocks":
          [ "BKmUAgeUCF59iz59qFZL4trhxLJRXrgUkBt9Ma1f1gEEjw7ERfL" ] },
      { "delegate": "tz3QT9dHYKDqh563chVa6za8526ys1UKfRfL",
        "reception_time": "2022-01-18T22:35:20.510-00:00",
        "included_in_blocks":
          [ "BKmUAgeUCF59iz59qFZL4trhxLJRXrgUkBt9Ma1f1gEEjw7ERfL" ] },
      { "delegate": "tz3ZbP2pM3nwvXztbuMJwJnDvV5xdpU8UkkD",
        "reception_time": "2022-01-18T22:35:20.519-00:00",
        "included_in_blocks":
          [ "BKmUAgeUCF59iz59qFZL4trhxLJRXrgUkBt9Ma1f1gEEjw7ERfL" ] },
      { "delegate": "tz3S6BBeKgJGXxvLyZ1xzXzMPn11nnFtq5L9",
        "reception_time": "2022-01-18T22:35:20.527-00:00",
        "included_in_blocks":
          [ "BKmUAgeUCF59iz59qFZL4trhxLJRXrgUkBt9Ma1f1gEEjw7ERfL" ] },
      { "delegate": "tz3NxTnke1acr8o3h5y9ytf5awQBGNJUKzVU",
        "reception_time": "2022-01-18T22:35:20.537-00:00",
        "included_in_blocks":
          [ "BKmUAgeUCF59iz59qFZL4trhxLJRXrgUkBt9Ma1f1gEEjw7ERfL" ] },
      { "delegate": "tz3iJu5vrKZcsqRPs8yJ61UDoeEXZmtro4qh",
        "reception_time": "2022-01-18T22:35:20.549-00:00",
        "included_in_blocks":
          [ "BKmUAgeUCF59iz59qFZL4trhxLJRXrgUkBt9Ma1f1gEEjw7ERfL" ] },
      { "delegate": "tz1irJKkXS2DBWkU1NnmFQx1c1L7pbGg4yhk",
        "reception_time": "2022-01-18T22:35:20.577-00:00",
        "included_in_blocks":
          [ "BKmUAgeUCF59iz59qFZL4trhxLJRXrgUkBt9Ma1f1gEEjw7ERfL" ] },
      { "delegate": "tz3gtoUxdudfBRcNY7iVdKPHCYYX6xdPpoRS",
        "reception_time": "2022-01-18T22:35:20.587-00:00",
        "included_in_blocks":
          [ "BKmUAgeUCF59iz59qFZL4trhxLJRXrgUkBt9Ma1f1gEEjw7ERfL" ] },
      { "delegate": "tz3hw2kqXhLUvY65ca1eety2oQTpAvd34R9Q",
        "reception_time": "2022-01-18T22:35:20.594-00:00",
        "included_in_blocks":
          [ "BKmUAgeUCF59iz59qFZL4trhxLJRXrgUkBt9Ma1f1gEEjw7ERfL" ] },
      { "delegate": "tz1fUyqYH7H4pRHN1roWY17giXhy1RvxjgUV",
        "reception_time": "2022-01-18T22:35:20.606-00:00",
        "included_in_blocks":
          [ "BKmUAgeUCF59iz59qFZL4trhxLJRXrgUkBt9Ma1f1gEEjw7ERfL" ] },
      { "delegate": "tz1TRspM5SeZpaQUhzByXbEvqKF1vnCM2YTK",
        "reception_time": "2022-01-18T22:35:20.619-00:00",
        "included_in_blocks":
          [ "BKmUAgeUCF59iz59qFZL4trhxLJRXrgUkBt9Ma1f1gEEjw7ERfL" ] },
      { "delegate": "tz1ei4WtWEMEJekSv8qDnu9PExG6Q8HgRGr3",
        "reception_time": "2022-01-18T22:35:20.826-00:00",
        "included_in_blocks":
          [ "BKmUAgeUCF59iz59qFZL4trhxLJRXrgUkBt9Ma1f1gEEjw7ERfL" ] },
      { "delegate": "tz1gfArv665EUkSg2ojMBzcbfwuPxAvqPvjo",
        "reception_time": "2022-01-18T22:35:20.845-00:00",
        "included_in_blocks":
          [ "BKmUAgeUCF59iz59qFZL4trhxLJRXrgUkBt9Ma1f1gEEjw7ERfL" ] },
      { "delegate": "tz1NSDFKuRyzHxpfG1AMkyCwEiZ52cbR2mRW",
        "reception_time": "2022-01-18T22:35:20.851-00:00",
        "included_in_blocks":
          [ "BKmUAgeUCF59iz59qFZL4trhxLJRXrgUkBt9Ma1f1gEEjw7ERfL" ] },
      { "delegate": "tz3adcvQaKXTCg12zbninqo3q8ptKKtDFTLv",
        "reception_time": "2022-01-18T22:35:20.860-00:00",
        "included_in_blocks":
          [ "BKmUAgeUCF59iz59qFZL4trhxLJRXrgUkBt9Ma1f1gEEjw7ERfL" ] },
      { "delegate": "tz1dNVDWPf3Q59SdJqnjdnu277iyvReiRS9M",
        "reception_time": "2022-01-18T22:35:20.865-00:00",
        "included_in_blocks":
          [ "BKmUAgeUCF59iz59qFZL4trhxLJRXrgUkBt9Ma1f1gEEjw7ERfL" ] },
      { "delegate": "tz3Zhs2dygr55yHyQyKjntAtY9bgfhLZ4Xj1",
        "reception_time": "2022-01-18T22:35:20.875-00:00",
        "included_in_blocks":
          [ "BKmUAgeUCF59iz59qFZL4trhxLJRXrgUkBt9Ma1f1gEEjw7ERfL" ] },
      { "delegate": "tz1MQMiZHV8q4tTwUMWmS5Y3kaP6J2136iXr",
        "reception_time": "2022-01-18T22:35:20.875-00:00",
        "included_in_blocks":
          [ "BKmUAgeUCF59iz59qFZL4trhxLJRXrgUkBt9Ma1f1gEEjw7ERfL" ] },
      { "delegate": "tz3RB4aoyjov4KEVRbuhvQ1CKJgBJMWhaeB8",
        "reception_time": "2022-01-18T22:35:20.884-00:00",
        "included_in_blocks":
          [ "BKmUAgeUCF59iz59qFZL4trhxLJRXrgUkBt9Ma1f1gEEjw7ERfL" ] },
      { "delegate": "tz3QSGPoRp3Kn7n3vY24eYeu3Peuqo45LQ4D",
        "reception_time": "2022-01-18T22:35:20.896-00:00",
        "included_in_blocks":
          [ "BKmUAgeUCF59iz59qFZL4trhxLJRXrgUkBt9Ma1f1gEEjw7ERfL" ] },
      { "delegate": "tz3RKYFsLuQzKBtmYuLNas7uMu3AsYd4QdsA",
        "reception_time": "2022-01-18T22:35:20.908-00:00",
        "included_in_blocks":
          [ "BKmUAgeUCF59iz59qFZL4trhxLJRXrgUkBt9Ma1f1gEEjw7ERfL" ] },
      { "delegate": "tz1PWCDnz783NNGGQjEFFsHtrcK5yBW4E2rm",
        "reception_time": "2022-01-18T22:35:20.921-00:00",
        "included_in_blocks":
          [ "BKmUAgeUCF59iz59qFZL4trhxLJRXrgUkBt9Ma1f1gEEjw7ERfL" ] },
      { "delegate": "tz3e7LbZvUtoXhpUD1yb6wuFodZpfYRb9nWJ",
        "reception_time": "2022-01-18T22:35:20.952-00:00",
        "included_in_blocks":
          [ "BKmUAgeUCF59iz59qFZL4trhxLJRXrgUkBt9Ma1f1gEEjw7ERfL" ] },
      { "delegate": "tz1dwu9aYb7CRNq4Y2zAjipdjFuSVKhHS8vA",
        "reception_time": "2022-01-18T22:35:20.969-00:00",
        "included_in_blocks":
          [ "BKmUAgeUCF59iz59qFZL4trhxLJRXrgUkBt9Ma1f1gEEjw7ERfL" ] },
      { "delegate": "tz3bTdwZinP8U1JmSweNzVKhmwafqWmFWRfk",
        "reception_time": "2022-01-18T22:35:20.988-00:00",
        "included_in_blocks":
          [ "BKmUAgeUCF59iz59qFZL4trhxLJRXrgUkBt9Ma1f1gEEjw7ERfL" ] },
      { "delegate": "tz1TEc75UKXv4W5cwi14Na3NtqFD51yKQi7h",
        "reception_time": "2022-01-18T22:35:21.011-00:00",
        "included_in_blocks":
          [ "BKmUAgeUCF59iz59qFZL4trhxLJRXrgUkBt9Ma1f1gEEjw7ERfL" ] },
      { "delegate": "tz1S8MNvuFEUsWgjHvi3AxibRBf388NhT1q2",
        "reception_time": "2022-01-18T22:35:21.026-00:00",
        "included_in_blocks":
          [ "BKmUAgeUCF59iz59qFZL4trhxLJRXrgUkBt9Ma1f1gEEjw7ERfL" ] },
      { "delegate": "tz3RDC3Jdn4j15J7bBHZd29EUee9gVB1CxD9",
        "reception_time": "2022-01-18T22:35:21.034-00:00",
        "included_in_blocks":
          [ "BKmUAgeUCF59iz59qFZL4trhxLJRXrgUkBt9Ma1f1gEEjw7ERfL" ] },
      { "delegate": "tz2FCNBrERXtaTtNX6iimR1UJ5JSDxvdHM93",
        "reception_time": "2022-01-18T22:35:21.037-00:00",
        "included_in_blocks":
          [ "BKmUAgeUCF59iz59qFZL4trhxLJRXrgUkBt9Ma1f1gEEjw7ERfL" ] },
      { "delegate": "tz1RCFbB9GpALpsZtu6J58sb74dm8qe6XBzv",
        "reception_time": "2022-01-18T22:35:21.044-00:00",
        "included_in_blocks":
          [ "BKmUAgeUCF59iz59qFZL4trhxLJRXrgUkBt9Ma1f1gEEjw7ERfL" ] },
      { "delegate": "tz1UMCB2AHSTwG7YcGNr31CqYCtGN873royv",
        "reception_time": "2022-01-18T22:35:21.049-00:00",
        "included_in_blocks":
          [ "BKmUAgeUCF59iz59qFZL4trhxLJRXrgUkBt9Ma1f1gEEjw7ERfL" ] },
      { "delegate": "tz1axcnVN9tZnCe4sQQhC6f3tfSEXdjPaXPY",
        "reception_time": "2022-01-18T22:35:21.072-00:00",
        "included_in_blocks":
          [ "BKmUAgeUCF59iz59qFZL4trhxLJRXrgUkBt9Ma1f1gEEjw7ERfL" ] },
      { "delegate": "tz1MQJPGNMijnXnVoBENFz9rUhaPt3S7rWoz",
        "reception_time": "2022-01-18T22:35:21.077-00:00",
        "included_in_blocks":
          [ "BKmUAgeUCF59iz59qFZL4trhxLJRXrgUkBt9Ma1f1gEEjw7ERfL" ] },
      { "delegate": "tz1Tnjaxk6tbAeC2TmMApPh8UsrEVQvhHvx5",
        "reception_time": "2022-01-18T22:35:21.080-00:00",
        "included_in_blocks":
          [ "BKmUAgeUCF59iz59qFZL4trhxLJRXrgUkBt9Ma1f1gEEjw7ERfL" ] },
      { "delegate": "tz3bvNMQ95vfAYtG8193ymshqjSvmxiCUuR5",
        "reception_time": "2022-01-18T22:35:21.089-00:00",
        "included_in_blocks":
          [ "BKmUAgeUCF59iz59qFZL4trhxLJRXrgUkBt9Ma1f1gEEjw7ERfL" ] },
      { "delegate": "tz1LmaFsWRkjr7QMCx5PtV6xTUz3AmEpKQiF",
        "reception_time": "2022-01-18T22:35:21.099-00:00",
        "included_in_blocks":
          [ "BKmUAgeUCF59iz59qFZL4trhxLJRXrgUkBt9Ma1f1gEEjw7ERfL" ] },
      { "delegate": "tz3VEZ4k6a4Wx42iyev6i2aVAptTRLEAivNN",
        "reception_time": "2022-01-18T22:35:21.115-00:00",
        "included_in_blocks":
          [ "BKmUAgeUCF59iz59qFZL4trhxLJRXrgUkBt9Ma1f1gEEjw7ERfL" ] },
      { "delegate": "tz1Nf6tsK4G6bBqgSQERy4nUtkHNKUVdh7q1",
        "reception_time": "2022-01-18T22:35:21.124-00:00",
        "included_in_blocks":
          [ "BKmUAgeUCF59iz59qFZL4trhxLJRXrgUkBt9Ma1f1gEEjw7ERfL" ] },
      { "delegate": "tz1KfEsrtDaA1sX7vdM4qmEPWuSytuqCDp5j",
        "reception_time": "2022-01-18T22:35:21.129-00:00",
        "included_in_blocks":
          [ "BKmUAgeUCF59iz59qFZL4trhxLJRXrgUkBt9Ma1f1gEEjw7ERfL" ] },
      { "delegate": "tz3UoffC7FG7zfpmvmjUmUeAaHvzdcUvAj6r",
        "reception_time": "2022-01-18T22:35:21.171-00:00",
        "included_in_blocks":
          [ "BKmUAgeUCF59iz59qFZL4trhxLJRXrgUkBt9Ma1f1gEEjw7ERfL" ] },
      { "delegate": "tz1PeZx7FXy7QRuMREGXGxeipb24RsMMzUNe",
        "reception_time": "2022-01-18T22:35:21.192-00:00",
        "included_in_blocks":
          [ "BKmUAgeUCF59iz59qFZL4trhxLJRXrgUkBt9Ma1f1gEEjw7ERfL" ] },
      { "delegate": "tz1QXrzaHrGACVn15UiCg33aLCJ6npWdQb3J",
        "reception_time": "2022-01-18T22:35:21.195-00:00",
        "included_in_blocks":
          [ "BKmUAgeUCF59iz59qFZL4trhxLJRXrgUkBt9Ma1f1gEEjw7ERfL" ] },
      { "delegate": "tz1Vd1rXpV8hTHbFXCXN3c3qzCsgcU5BZw1e",
        "reception_time": "2022-01-18T22:35:21.200-00:00",
        "included_in_blocks":
          [ "BKmUAgeUCF59iz59qFZL4trhxLJRXrgUkBt9Ma1f1gEEjw7ERfL" ] },
      { "delegate": "tz1WnfXMPaNTBmH7DBPwqCWs9cPDJdkGBTZ8",
        "reception_time": "2022-01-18T22:35:21.203-00:00",
        "included_in_blocks":
          [ "BKmUAgeUCF59iz59qFZL4trhxLJRXrgUkBt9Ma1f1gEEjw7ERfL" ] },
      { "delegate": "tz3NDpRj6WBrJPikcPVHRBEjWKxFw3c6eQPS",
        "reception_time": "2022-01-18T22:35:21.214-00:00",
        "included_in_blocks":
          [ "BKmUAgeUCF59iz59qFZL4trhxLJRXrgUkBt9Ma1f1gEEjw7ERfL" ] },
      { "delegate": "tz1bxVgPCiveFHSand7zn22S8ZBtvNQbqgqU",
        "reception_time": "2022-01-18T22:35:21.214-00:00",
        "included_in_blocks":
          [ "BKmUAgeUCF59iz59qFZL4trhxLJRXrgUkBt9Ma1f1gEEjw7ERfL" ] },
      { "delegate": "tz1NEKxGEHsFufk87CVZcrqWu8o22qh46GK6",
        "reception_time": "2022-01-18T22:35:21.227-00:00",
        "included_in_blocks":
          [ "BKmUAgeUCF59iz59qFZL4trhxLJRXrgUkBt9Ma1f1gEEjw7ERfL" ] },
      { "delegate": "tz3NExpXn9aPNZPorRE4SdjJ2RGrfbJgMAaV",
        "reception_time": "2022-01-18T22:35:21.239-00:00",
        "included_in_blocks":
          [ "BKmUAgeUCF59iz59qFZL4trhxLJRXrgUkBt9Ma1f1gEEjw7ERfL" ] },
      { "delegate": "tz1cYufsxHXJcvANhvS55h3aY32a9BAFB494",
        "reception_time": "2022-01-18T22:35:21.260-00:00",
        "included_in_blocks":
          [ "BKmUAgeUCF59iz59qFZL4trhxLJRXrgUkBt9Ma1f1gEEjw7ERfL" ] },
      { "delegate": "tz3gLTu4Yxj8tPAcriQVUdxv6BY9QyvzU1az",
        "reception_time": "2022-01-18T22:35:21.268-00:00",
        "included_in_blocks":
          [ "BKmUAgeUCF59iz59qFZL4trhxLJRXrgUkBt9Ma1f1gEEjw7ERfL" ] },
      { "delegate": "tz3WMqdzXqRWXwyvj5Hp2H7QEepaUuS7vd9K",
        "reception_time": "2022-01-18T22:35:21.283-00:00",
        "included_in_blocks":
          [ "BKmUAgeUCF59iz59qFZL4trhxLJRXrgUkBt9Ma1f1gEEjw7ERfL" ] },
      { "delegate": "tz1a1J3AGjJTAyBqWWSqFuUazUDV2TtD6hMy",
        "reception_time": "2022-01-18T22:35:21.289-00:00",
        "included_in_blocks":
          [ "BKmUAgeUCF59iz59qFZL4trhxLJRXrgUkBt9Ma1f1gEEjw7ERfL" ] },
      { "delegate": "tz1WctSwL49BZtdWAQ75NY6vr4xsAx6oKdah",
        "reception_time": "2022-01-18T22:35:21.331-00:00",
        "included_in_blocks":
          [ "BKmUAgeUCF59iz59qFZL4trhxLJRXrgUkBt9Ma1f1gEEjw7ERfL" ] },
      { "delegate": "tz1TRqbYbUf2GyrjErf3hBzgBJPzW8y36qEs",
        "reception_time": "2022-01-18T22:35:21.335-00:00",
        "included_in_blocks":
          [ "BKmUAgeUCF59iz59qFZL4trhxLJRXrgUkBt9Ma1f1gEEjw7ERfL" ] },
      { "delegate": "tz1RjoHc98dBoqaH2jawF62XNKh7YsHwbkEv",
        "reception_time": "2022-01-18T22:35:21.340-00:00",
        "included_in_blocks":
          [ "BKmUAgeUCF59iz59qFZL4trhxLJRXrgUkBt9Ma1f1gEEjw7ERfL" ] },
      { "delegate": "tz1T7duV5gZWSTq4YpBGbXNLTfznCLDrFxvs",
        "reception_time": "2022-01-18T22:35:21.345-00:00",
        "included_in_blocks":
          [ "BKmUAgeUCF59iz59qFZL4trhxLJRXrgUkBt9Ma1f1gEEjw7ERfL" ] },
      { "delegate": "tz1Z2jXfEXL7dXhs6bsLmyLFLfmAkXBzA9WE",
        "reception_time": "2022-01-18T22:35:21.379-00:00",
        "included_in_blocks":
          [ "BKmUAgeUCF59iz59qFZL4trhxLJRXrgUkBt9Ma1f1gEEjw7ERfL" ] },
      { "delegate": "tz1X4Qb9NJ7JEuitX3jFpZptuAh7DUnCaLs1",
        "reception_time": "2022-01-18T22:35:21.394-00:00",
        "included_in_blocks":
          [ "BKmUAgeUCF59iz59qFZL4trhxLJRXrgUkBt9Ma1f1gEEjw7ERfL" ] },
      { "delegate": "tz1dRKU4FQ9QRRQPdaH4zCR6gmCmXfcvcgtB",
        "reception_time": "2022-01-18T22:35:21.449-00:00",
        "included_in_blocks":
          [ "BKmUAgeUCF59iz59qFZL4trhxLJRXrgUkBt9Ma1f1gEEjw7ERfL" ] },
      { "delegate": "tz1ivoFEvbfbUNav5FwLvmxzMGcNXWxY9qTD",
        "reception_time": "2022-01-18T22:35:21.458-00:00",
        "included_in_blocks":
          [ "BKmUAgeUCF59iz59qFZL4trhxLJRXrgUkBt9Ma1f1gEEjw7ERfL" ] },
      { "delegate": "tz1ZcTRk5uxD86EFEn1vvNffWWqJy7q5eVhc",
        "reception_time": "2022-01-18T22:35:21.567-00:00",
        "included_in_blocks":
          [ "BKmUAgeUCF59iz59qFZL4trhxLJRXrgUkBt9Ma1f1gEEjw7ERfL" ] },
      { "delegate": "tz1awXW7wuXy21c66vBudMXQVAPgRnqqwgTH",
        "reception_time": "2022-01-18T22:35:21.880-00:00",
        "included_in_blocks":
          [ "BKmUAgeUCF59iz59qFZL4trhxLJRXrgUkBt9Ma1f1gEEjw7ERfL" ] },
      { "delegate": "tz1eVaNx3gCmG1EsLjijkmgAxdLYVf6Bf5Sq",
        "reception_time": "2022-01-18T22:35:21.911-00:00",
        "included_in_blocks":
          [ "BKmUAgeUCF59iz59qFZL4trhxLJRXrgUkBt9Ma1f1gEEjw7ERfL" ] },
      { "delegate": "tz1TcH4Nb3aHNDJ7CGZhU7jgAK1BkSP4Lxds",
        "reception_time": "2022-01-18T22:35:22.031-00:00",
        "included_in_blocks":
          [ "BKmUAgeUCF59iz59qFZL4trhxLJRXrgUkBt9Ma1f1gEEjw7ERfL" ] },
      { "delegate": "tz1bTpviNnyx2PXsNmGpCQTMQsGoYordkUoA",
        "reception_time": "2022-01-18T22:35:22.045-00:00",
        "included_in_blocks":
          [ "BKmUAgeUCF59iz59qFZL4trhxLJRXrgUkBt9Ma1f1gEEjw7ERfL" ] },
      { "delegate": "tz1aRoaRhSpRYvFdyvgWLL6TGyRoGF51wDjM",
        "reception_time": "2022-01-18T22:35:22.521-00:00",
        "included_in_blocks":
          [ "BKmUAgeUCF59iz59qFZL4trhxLJRXrgUkBt9Ma1f1gEEjw7ERfL" ] },
      { "delegate": "tz3bEQoFCZEEfZMskefZ8q8e4eiHH1pssRax",
        "reception_time": "2022-01-18T22:35:24.758-00:00",
        "included_in_blocks":
          [ "BKmUAgeUCF59iz59qFZL4trhxLJRXrgUkBt9Ma1f1gEEjw7ERfL" ] },
      { "delegate": "tz1S5WxdZR5f9NzsPXhr7L9L1vrEb5spZFur",
        "reception_time": "2022-01-18T22:35:24.951-00:00",
        "included_in_blocks":
          [ "BKmUAgeUCF59iz59qFZL4trhxLJRXrgUkBt9Ma1f1gEEjw7ERfL" ] },
      { "delegate": "tz1WnyXakHZKotpQHxevTnLmomz5rTwdiccy",
        "reception_time": "2022-01-18T22:35:29.757-00:00",
        "included_in_blocks":
          [ "BKmUAgeUCF59iz59qFZL4trhxLJRXrgUkBt9Ma1f1gEEjw7ERfL" ] } ] }