{ "blocks":
    [ { "hash": "BLpZfcNs2P7gSGM2TLfs9X1uC2VwGqXVPQPvjhBmJ2GeKkYEu9K",
        "delegate": "tz1irJKkXS2DBWkU1NnmFQx1c1L7pbGg4yhk",
        "reception_time": "2022-01-18T18:04:26.432-00:00",
        "timestamp": "2022-01-18T18:04:20Z" } ],
  "endorsements":
    [ { "delegate": "tz1Zhv3RkfU2pHrmaiDyxp7kFZpZrUCu1CiF",
        "reception_time": "2022-01-18T18:04:26.375-00:00",
        "errors":
          [ { "kind": "temporary",
              "id": "proto.011-PtHangz2.prefilter.outdated_endorsement" } ],
        "included_in_blocks":
          [ "BMMiQPHarHcvQyu5KgFcKbt9M4Qmn9bfFMrNV22YWm1QKzyKBSM" ] },
      { "delegate": "tz1irJKkXS2DBWkU1NnmFQx1c1L7pbGg4yhk",
        "reception_time": "2022-01-18T18:04:26.375-00:00",
        "errors":
          [ { "kind": "temporary",
              "id": "proto.011-PtHangz2.prefilter.outdated_endorsement" } ],
        "included_in_blocks":
          [ "BMMiQPHarHcvQyu5KgFcKbt9M4Qmn9bfFMrNV22YWm1QKzyKBSM" ] },
      { "delegate": "tz1NdhRv643wLW6zCcRP3VfT24dvDnh7nuh9" },
      { "delegate": "tz1Ldzz6k1BHdhuKvAtMRX7h5kJSMHESMHLC",
        "reception_time": "2022-01-18T18:04:27.944-00:00",
        "included_in_blocks":
          [ "BMMiQPHarHcvQyu5KgFcKbt9M4Qmn9bfFMrNV22YWm1QKzyKBSM" ] },
      { "delegate": "tz1eEnQhbwf6trb8Q8mPb2RaPkNk2rN7BKi8",
        "reception_time": "2022-01-18T18:04:27.944-00:00",
        "included_in_blocks":
          [ "BMMiQPHarHcvQyu5KgFcKbt9M4Qmn9bfFMrNV22YWm1QKzyKBSM" ] },
      { "delegate": "tz1aXD7Jigrt3PBYSpHSg5Rr33SexMmmM5Ys",
        "reception_time": "2022-01-18T18:04:27.944-00:00",
        "included_in_blocks":
          [ "BMMiQPHarHcvQyu5KgFcKbt9M4Qmn9bfFMrNV22YWm1QKzyKBSM" ] },
      { "delegate": "tz1P2Po7YM526ughEsRbY4oR9zaUPDZjxFrb",
        "reception_time": "2022-01-18T18:04:27.944-00:00",
        "included_in_blocks":
          [ "BMMiQPHarHcvQyu5KgFcKbt9M4Qmn9bfFMrNV22YWm1QKzyKBSM" ] },
      { "delegate": "tz1ZPh7XfUaJXUDvkrBxmS1BjEM1i62hiPpM",
        "reception_time": "2022-01-18T18:04:27.944-00:00",
        "included_in_blocks":
          [ "BMMiQPHarHcvQyu5KgFcKbt9M4Qmn9bfFMrNV22YWm1QKzyKBSM" ] },
      { "delegate": "tz1dbfppLAAxXZNtf2SDps7rch3qfUznKSoK",
        "reception_time": "2022-01-18T18:04:27.944-00:00",
        "included_in_blocks":
          [ "BMMiQPHarHcvQyu5KgFcKbt9M4Qmn9bfFMrNV22YWm1QKzyKBSM" ] },
      { "delegate": "tz1STeamwbp68THcny9zk3LsbG3H36DMvbRK",
        "reception_time": "2022-01-18T18:04:27.944-00:00",
        "included_in_blocks":
          [ "BMMiQPHarHcvQyu5KgFcKbt9M4Qmn9bfFMrNV22YWm1QKzyKBSM" ] },
      { "delegate": "tz1MWhSr4oT8W67CKdxduqp4bkVyF32qsERK",
        "reception_time": "2022-01-18T18:04:27.944-00:00",
        "included_in_blocks":
          [ "BMMiQPHarHcvQyu5KgFcKbt9M4Qmn9bfFMrNV22YWm1QKzyKBSM" ] },
      { "delegate": "tz3ZbP2pM3nwvXztbuMJwJnDvV5xdpU8UkkD",
        "reception_time": "2022-01-18T18:04:27.944-00:00",
        "included_in_blocks":
          [ "BMMiQPHarHcvQyu5KgFcKbt9M4Qmn9bfFMrNV22YWm1QKzyKBSM" ] },
      { "delegate": "tz1VQnqCCqX4K5sP3FNkVSNKTdCAMJDd3E1n",
        "reception_time": "2022-01-18T18:04:27.944-00:00",
        "included_in_blocks":
          [ "BMMiQPHarHcvQyu5KgFcKbt9M4Qmn9bfFMrNV22YWm1QKzyKBSM" ] },
      { "delegate": "tz3QT9dHYKDqh563chVa6za8526ys1UKfRfL",
        "reception_time": "2022-01-18T18:04:27.950-00:00",
        "included_in_blocks":
          [ "BMMiQPHarHcvQyu5KgFcKbt9M4Qmn9bfFMrNV22YWm1QKzyKBSM" ] },
      { "delegate": "tz1Kt4P8BCaP93AEV4eA7gmpRryWt5hznjCP",
        "reception_time": "2022-01-18T18:04:27.950-00:00",
        "included_in_blocks":
          [ "BMMiQPHarHcvQyu5KgFcKbt9M4Qmn9bfFMrNV22YWm1QKzyKBSM" ] },
      { "delegate": "tz1gUNyn3hmnEWqkusWPzxRaon1cs7ndWh7h",
        "reception_time": "2022-01-18T18:04:28.100-00:00",
        "included_in_blocks":
          [ "BMMiQPHarHcvQyu5KgFcKbt9M4Qmn9bfFMrNV22YWm1QKzyKBSM" ] },
      { "delegate": "tz1WCd2jm4uSt4vntk4vSuUWoZQGhLcDuR9q",
        "reception_time": "2022-01-18T18:04:28.100-00:00",
        "included_in_blocks":
          [ "BMMiQPHarHcvQyu5KgFcKbt9M4Qmn9bfFMrNV22YWm1QKzyKBSM" ] },
      { "delegate": "tz3hw2kqXhLUvY65ca1eety2oQTpAvd34R9Q",
        "reception_time": "2022-01-18T18:04:28.100-00:00",
        "included_in_blocks":
          [ "BMMiQPHarHcvQyu5KgFcKbt9M4Qmn9bfFMrNV22YWm1QKzyKBSM" ] },
      { "delegate": "tz3NxTnke1acr8o3h5y9ytf5awQBGNJUKzVU",
        "reception_time": "2022-01-18T18:04:28.100-00:00",
        "included_in_blocks":
          [ "BMMiQPHarHcvQyu5KgFcKbt9M4Qmn9bfFMrNV22YWm1QKzyKBSM" ] },
      { "delegate": "tz3gtoUxdudfBRcNY7iVdKPHCYYX6xdPpoRS",
        "reception_time": "2022-01-18T18:04:28.100-00:00",
        "included_in_blocks":
          [ "BMMiQPHarHcvQyu5KgFcKbt9M4Qmn9bfFMrNV22YWm1QKzyKBSM" ] },
      { "delegate": "tz3S6BBeKgJGXxvLyZ1xzXzMPn11nnFtq5L9",
        "reception_time": "2022-01-18T18:04:28.100-00:00",
        "included_in_blocks":
          [ "BMMiQPHarHcvQyu5KgFcKbt9M4Qmn9bfFMrNV22YWm1QKzyKBSM" ] },
      { "delegate": "tz1MJx9vhaNRSimcuXPK2rW4fLccQnDAnVKJ",
        "reception_time": "2022-01-18T18:04:28.100-00:00",
        "included_in_blocks":
          [ "BMMiQPHarHcvQyu5KgFcKbt9M4Qmn9bfFMrNV22YWm1QKzyKBSM" ] },
      { "delegate": "tz3RKYFsLuQzKBtmYuLNas7uMu3AsYd4QdsA",
        "reception_time": "2022-01-18T18:04:28.100-00:00",
        "included_in_blocks":
          [ "BMMiQPHarHcvQyu5KgFcKbt9M4Qmn9bfFMrNV22YWm1QKzyKBSM" ] },
      { "delegate": "tz3QSGPoRp3Kn7n3vY24eYeu3Peuqo45LQ4D",
        "reception_time": "2022-01-18T18:04:28.100-00:00",
        "included_in_blocks":
          [ "BMMiQPHarHcvQyu5KgFcKbt9M4Qmn9bfFMrNV22YWm1QKzyKBSM" ] },
      { "delegate": "tz1Mc61yajNASzh5KWZFtYs4i7EJbzAxQC4K",
        "reception_time": "2022-01-18T18:04:28.100-00:00",
        "included_in_blocks":
          [ "BMMiQPHarHcvQyu5KgFcKbt9M4Qmn9bfFMrNV22YWm1QKzyKBSM" ] },
      { "delegate": "tz3Zhs2dygr55yHyQyKjntAtY9bgfhLZ4Xj1",
        "reception_time": "2022-01-18T18:04:28.218-00:00",
        "included_in_blocks":
          [ "BMMiQPHarHcvQyu5KgFcKbt9M4Qmn9bfFMrNV22YWm1QKzyKBSM" ] },
      { "delegate": "tz1VmiY38m3y95HqQLjMwqnMS7sdMfGomzKi",
        "reception_time": "2022-01-18T18:04:28.218-00:00",
        "included_in_blocks":
          [ "BMMiQPHarHcvQyu5KgFcKbt9M4Qmn9bfFMrNV22YWm1QKzyKBSM" ] },
      { "delegate": "tz1d6Fx42mYgVFnHUW8T8A7WBfJ6nD9pVok8",
        "reception_time": "2022-01-18T18:04:28.218-00:00",
        "included_in_blocks":
          [ "BMMiQPHarHcvQyu5KgFcKbt9M4Qmn9bfFMrNV22YWm1QKzyKBSM" ] },
      { "delegate": "tz3iJu5vrKZcsqRPs8yJ61UDoeEXZmtro4qh",
        "reception_time": "2022-01-18T18:04:28.218-00:00",
        "included_in_blocks":
          [ "BMMiQPHarHcvQyu5KgFcKbt9M4Qmn9bfFMrNV22YWm1QKzyKBSM" ] },
      { "delegate": "tz1PWCDnz783NNGGQjEFFsHtrcK5yBW4E2rm",
        "reception_time": "2022-01-18T18:04:28.218-00:00",
        "included_in_blocks":
          [ "BMMiQPHarHcvQyu5KgFcKbt9M4Qmn9bfFMrNV22YWm1QKzyKBSM" ] },
      { "delegate": "tz1ei4WtWEMEJekSv8qDnu9PExG6Q8HgRGr3",
        "reception_time": "2022-01-18T18:04:28.218-00:00",
        "included_in_blocks":
          [ "BMMiQPHarHcvQyu5KgFcKbt9M4Qmn9bfFMrNV22YWm1QKzyKBSM" ] },
      { "delegate": "tz1UJvHTgpVzcKWhTazGxVcn5wsHru5Gietg",
        "reception_time": "2022-01-18T18:04:28.218-00:00",
        "included_in_blocks":
          [ "BMMiQPHarHcvQyu5KgFcKbt9M4Qmn9bfFMrNV22YWm1QKzyKBSM" ] },
      { "delegate": "tz1h4GUAMweP7SNWzDgvMk3yRCAZyaP1MxZq",
        "reception_time": "2022-01-18T18:04:28.218-00:00",
        "included_in_blocks":
          [ "BMMiQPHarHcvQyu5KgFcKbt9M4Qmn9bfFMrNV22YWm1QKzyKBSM" ] },
      { "delegate": "tz1gfArv665EUkSg2ojMBzcbfwuPxAvqPvjo",
        "reception_time": "2022-01-18T18:04:28.344-00:00",
        "included_in_blocks":
          [ "BMMiQPHarHcvQyu5KgFcKbt9M4Qmn9bfFMrNV22YWm1QKzyKBSM" ] },
      { "delegate": "tz1RCFbB9GpALpsZtu6J58sb74dm8qe6XBzv",
        "reception_time": "2022-01-18T18:04:28.344-00:00",
        "included_in_blocks":
          [ "BMMiQPHarHcvQyu5KgFcKbt9M4Qmn9bfFMrNV22YWm1QKzyKBSM" ] },
      { "delegate": "tz3RB4aoyjov4KEVRbuhvQ1CKJgBJMWhaeB8",
        "reception_time": "2022-01-18T18:04:28.557-00:00",
        "included_in_blocks":
          [ "BMMiQPHarHcvQyu5KgFcKbt9M4Qmn9bfFMrNV22YWm1QKzyKBSM" ] },
      { "delegate": "tz1S8MNvuFEUsWgjHvi3AxibRBf388NhT1q2",
        "reception_time": "2022-01-18T18:04:28.557-00:00",
        "included_in_blocks":
          [ "BMMiQPHarHcvQyu5KgFcKbt9M4Qmn9bfFMrNV22YWm1QKzyKBSM" ] },
      { "delegate": "tz3bTdwZinP8U1JmSweNzVKhmwafqWmFWRfk",
        "reception_time": "2022-01-18T18:04:28.557-00:00",
        "included_in_blocks":
          [ "BMMiQPHarHcvQyu5KgFcKbt9M4Qmn9bfFMrNV22YWm1QKzyKBSM" ] },
      { "delegate": "tz1RQhNh7iB9CZA7i3ifTWNwiGYVffponfbB",
        "reception_time": "2022-01-18T18:04:28.557-00:00",
        "included_in_blocks":
          [ "BMMiQPHarHcvQyu5KgFcKbt9M4Qmn9bfFMrNV22YWm1QKzyKBSM" ] },
      { "delegate": "tz1SYq214SCBy9naR6cvycQsYcUGpBqQAE8d",
        "reception_time": "2022-01-18T18:04:28.557-00:00",
        "included_in_blocks":
          [ "BMMiQPHarHcvQyu5KgFcKbt9M4Qmn9bfFMrNV22YWm1QKzyKBSM" ] },
      { "delegate": "tz1WBfwbT66FC6BTLexc2BoyCCBM9LG7pnVW",
        "reception_time": "2022-01-18T18:04:28.686-00:00",
        "included_in_blocks":
          [ "BMMiQPHarHcvQyu5KgFcKbt9M4Qmn9bfFMrNV22YWm1QKzyKBSM" ] },
      { "delegate": "tz1KzSC1J9aBxKp7u8TUnpN8L7S65PBRkgdF",
        "reception_time": "2022-01-18T18:04:28.699-00:00",
        "included_in_blocks":
          [ "BMMiQPHarHcvQyu5KgFcKbt9M4Qmn9bfFMrNV22YWm1QKzyKBSM" ] },
      { "delegate": "tz1TEc75UKXv4W5cwi14Na3NtqFD51yKQi7h",
        "reception_time": "2022-01-18T18:04:28.743-00:00",
        "included_in_blocks":
          [ "BMMiQPHarHcvQyu5KgFcKbt9M4Qmn9bfFMrNV22YWm1QKzyKBSM" ] },
      { "delegate": "tz3bvNMQ95vfAYtG8193ymshqjSvmxiCUuR5",
        "reception_time": "2022-01-18T18:04:28.759-00:00",
        "included_in_blocks":
          [ "BMMiQPHarHcvQyu5KgFcKbt9M4Qmn9bfFMrNV22YWm1QKzyKBSM" ] },
      { "delegate": "tz1g8vkmcde6sWKaG2NN9WKzCkDM6Rziq194",
        "reception_time": "2022-01-18T18:04:28.774-00:00",
        "included_in_blocks":
          [ "BMMiQPHarHcvQyu5KgFcKbt9M4Qmn9bfFMrNV22YWm1QKzyKBSM" ] },
      { "delegate": "tz1dNVDWPf3Q59SdJqnjdnu277iyvReiRS9M",
        "reception_time": "2022-01-18T18:04:28.810-00:00",
        "included_in_blocks":
          [ "BMMiQPHarHcvQyu5KgFcKbt9M4Qmn9bfFMrNV22YWm1QKzyKBSM" ] },
      { "delegate": "tz2FCNBrERXtaTtNX6iimR1UJ5JSDxvdHM93",
        "reception_time": "2022-01-18T18:04:28.838-00:00",
        "included_in_blocks":
          [ "BMMiQPHarHcvQyu5KgFcKbt9M4Qmn9bfFMrNV22YWm1QKzyKBSM" ] },
      { "delegate": "tz1axcnVN9tZnCe4sQQhC6f3tfSEXdjPaXPY",
        "reception_time": "2022-01-18T18:04:28.920-00:00",
        "included_in_blocks":
          [ "BMMiQPHarHcvQyu5KgFcKbt9M4Qmn9bfFMrNV22YWm1QKzyKBSM" ] },
      { "delegate": "tz3NDpRj6WBrJPikcPVHRBEjWKxFw3c6eQPS",
        "reception_time": "2022-01-18T18:04:28.959-00:00",
        "included_in_blocks":
          [ "BMMiQPHarHcvQyu5KgFcKbt9M4Qmn9bfFMrNV22YWm1QKzyKBSM" ] },
      { "delegate": "tz1Nf6tsK4G6bBqgSQERy4nUtkHNKUVdh7q1",
        "reception_time": "2022-01-18T18:04:29.094-00:00",
        "included_in_blocks":
          [ "BMMiQPHarHcvQyu5KgFcKbt9M4Qmn9bfFMrNV22YWm1QKzyKBSM" ] },
      { "delegate": "tz1UNkf4sWzC5vsKP7FnejSeJsXdc6z8Kzk4",
        "reception_time": "2022-01-18T18:04:29.153-00:00",
        "included_in_blocks":
          [ "BMMiQPHarHcvQyu5KgFcKbt9M4Qmn9bfFMrNV22YWm1QKzyKBSM" ] },
      { "delegate": "tz3RDC3Jdn4j15J7bBHZd29EUee9gVB1CxD9",
        "reception_time": "2022-01-18T18:04:29.379-00:00",
        "included_in_blocks":
          [ "BMMiQPHarHcvQyu5KgFcKbt9M4Qmn9bfFMrNV22YWm1QKzyKBSM" ] },
      { "delegate": "tz1dRKU4FQ9QRRQPdaH4zCR6gmCmXfcvcgtB",
        "reception_time": "2022-01-18T18:04:29.503-00:00",
        "included_in_blocks":
          [ "BMMiQPHarHcvQyu5KgFcKbt9M4Qmn9bfFMrNV22YWm1QKzyKBSM" ] },
      { "delegate": "tz1gvrUnfTfEcRW6qcgB6FJdZnAxv4HG1rj9",
        "reception_time": "2022-01-18T18:04:29.507-00:00",
        "included_in_blocks":
          [ "BMMiQPHarHcvQyu5KgFcKbt9M4Qmn9bfFMrNV22YWm1QKzyKBSM" ] },
      { "delegate": "tz1RjoHc98dBoqaH2jawF62XNKh7YsHwbkEv",
        "reception_time": "2022-01-18T18:04:29.544-00:00",
        "included_in_blocks":
          [ "BMMiQPHarHcvQyu5KgFcKbt9M4Qmn9bfFMrNV22YWm1QKzyKBSM" ] },
      { "delegate": "tz3VEZ4k6a4Wx42iyev6i2aVAptTRLEAivNN",
        "reception_time": "2022-01-18T18:04:29.589-00:00",
        "included_in_blocks":
          [ "BMMiQPHarHcvQyu5KgFcKbt9M4Qmn9bfFMrNV22YWm1QKzyKBSM" ] },
      { "delegate": "tz1WctSwL49BZtdWAQ75NY6vr4xsAx6oKdah",
        "reception_time": "2022-01-18T18:04:29.599-00:00",
        "included_in_blocks":
          [ "BMMiQPHarHcvQyu5KgFcKbt9M4Qmn9bfFMrNV22YWm1QKzyKBSM" ] },
      { "delegate": "tz1T7duV5gZWSTq4YpBGbXNLTfznCLDrFxvs",
        "reception_time": "2022-01-18T18:04:29.791-00:00",
        "included_in_blocks":
          [ "BMMiQPHarHcvQyu5KgFcKbt9M4Qmn9bfFMrNV22YWm1QKzyKBSM" ] },
      { "delegate": "tz1YiuvpfeVAHbnU8akcWErNfQGFHNQ7F45z",
        "reception_time": "2022-01-18T18:04:29.907-00:00",
        "included_in_blocks":
          [ "BMMiQPHarHcvQyu5KgFcKbt9M4Qmn9bfFMrNV22YWm1QKzyKBSM" ] },
      { "delegate": "tz3WMqdzXqRWXwyvj5Hp2H7QEepaUuS7vd9K",
        "reception_time": "2022-01-18T18:04:30.303-00:00",
        "included_in_blocks":
          [ "BMMiQPHarHcvQyu5KgFcKbt9M4Qmn9bfFMrNV22YWm1QKzyKBSM" ] },
      { "delegate": "tz3UoffC7FG7zfpmvmjUmUeAaHvzdcUvAj6r",
        "reception_time": "2022-01-18T18:04:30.419-00:00",
        "included_in_blocks":
          [ "BMMiQPHarHcvQyu5KgFcKbt9M4Qmn9bfFMrNV22YWm1QKzyKBSM" ] },
      { "delegate": "tz1TcH4Nb3aHNDJ7CGZhU7jgAK1BkSP4Lxds",
        "reception_time": "2022-01-18T18:04:30.604-00:00",
        "included_in_blocks":
          [ "BMMiQPHarHcvQyu5KgFcKbt9M4Qmn9bfFMrNV22YWm1QKzyKBSM" ] },
      { "delegate": "tz3NExpXn9aPNZPorRE4SdjJ2RGrfbJgMAaV",
        "reception_time": "2022-01-18T18:04:30.615-00:00",
        "included_in_blocks":
          [ "BMMiQPHarHcvQyu5KgFcKbt9M4Qmn9bfFMrNV22YWm1QKzyKBSM" ] },
      { "delegate": "tz1TRqbYbUf2GyrjErf3hBzgBJPzW8y36qEs",
        "reception_time": "2022-01-18T18:04:30.810-00:00",
        "included_in_blocks":
          [ "BMMiQPHarHcvQyu5KgFcKbt9M4Qmn9bfFMrNV22YWm1QKzyKBSM" ] },
      { "delegate": "tz1aRoaRhSpRYvFdyvgWLL6TGyRoGF51wDjM",
        "reception_time": "2022-01-18T18:04:30.813-00:00",
        "included_in_blocks":
          [ "BMMiQPHarHcvQyu5KgFcKbt9M4Qmn9bfFMrNV22YWm1QKzyKBSM" ] },
      { "delegate": "tz1ZcTRk5uxD86EFEn1vvNffWWqJy7q5eVhc",
        "reception_time": "2022-01-18T18:04:31.437-00:00",
        "included_in_blocks":
          [ "BMMiQPHarHcvQyu5KgFcKbt9M4Qmn9bfFMrNV22YWm1QKzyKBSM" ] },
      { "delegate": "tz1Z9M4biBHSiH38k5ciRMjR5bgk89yEgLTz",
        "reception_time": "2022-01-18T18:04:31.475-00:00",
        "included_in_blocks":
          [ "BMMiQPHarHcvQyu5KgFcKbt9M4Qmn9bfFMrNV22YWm1QKzyKBSM" ] },
      { "delegate": "tz1W5VkdB5s7ENMESVBtwyt9kyvLqPcUczRT",
        "reception_time": "2022-01-18T18:04:31.667-00:00",
        "included_in_blocks":
          [ "BMMiQPHarHcvQyu5KgFcKbt9M4Qmn9bfFMrNV22YWm1QKzyKBSM" ] },
      { "delegate": "tz1awXW7wuXy21c66vBudMXQVAPgRnqqwgTH",
        "reception_time": "2022-01-18T18:04:31.952-00:00",
        "included_in_blocks":
          [ "BMMiQPHarHcvQyu5KgFcKbt9M4Qmn9bfFMrNV22YWm1QKzyKBSM" ] },
      { "delegate": "tz1SUgyRB8T5jXgXAwS33pgRHAKrafyg87Yc",
        "reception_time": "2022-01-18T18:04:33.714-00:00",
        "included_in_blocks":
          [ "BMMiQPHarHcvQyu5KgFcKbt9M4Qmn9bfFMrNV22YWm1QKzyKBSM" ] },
      { "delegate": "tz1NpWrAyDL9k2Lmnyxcgr9xuJakbBxdq7FB",
        "reception_time": "2022-01-18T18:04:37.307-00:00",
        "included_in_blocks":
          [ "BMMiQPHarHcvQyu5KgFcKbt9M4Qmn9bfFMrNV22YWm1QKzyKBSM" ] },
      { "delegate": "tz1S3ZahYq7fqZQ5bq4qCLsTWgPUzQhfAswy",
        "reception_time": "2022-01-18T18:04:39.627-00:00",
        "included_in_blocks":
          [ "BMMiQPHarHcvQyu5KgFcKbt9M4Qmn9bfFMrNV22YWm1QKzyKBSM" ] } ] }