{ "blocks":
    [ { "hash": "BKn9mXebp4X1QyVfGHzdouGRQVgjjfrbW3qj3YraXd2X2JFt4Nn",
        "delegate": "tz1aRoaRhSpRYvFdyvgWLL6TGyRoGF51wDjM",
        "reception_time": "2022-01-18T19:44:20.866-00:00",
        "timestamp": "2022-01-18T19:44:10Z" } ],
  "endorsements":
    [ { "delegate": "tz1SYq214SCBy9naR6cvycQsYcUGpBqQAE8d" },
      { "delegate": "tz1eEnQhbwf6trb8Q8mPb2RaPkNk2rN7BKi8",
        "reception_time": "2022-01-18T19:44:20.687-00:00",
        "errors":
          [ { "kind": "temporary",
              "id": "proto.011-PtHangz2.prefilter.outdated_endorsement" } ],
        "included_in_blocks":
          [ "BLEHk4rBuKmWKBj72ERVQkQHEwtLcqrNg4GpSSmrscPjKLWDn6Y" ] },
      { "delegate": "tz1P2Po7YM526ughEsRbY4oR9zaUPDZjxFrb",
        "reception_time": "2022-01-18T19:44:20.687-00:00",
        "errors":
          [ { "kind": "temporary",
              "id": "proto.011-PtHangz2.prefilter.outdated_endorsement" } ],
        "included_in_blocks":
          [ "BLEHk4rBuKmWKBj72ERVQkQHEwtLcqrNg4GpSSmrscPjKLWDn6Y" ] },
      { "delegate": "tz1bkESY3QKVUwboioG5vSbGiS9GRwHdB4xB",
        "reception_time": "2022-01-18T19:44:20.661-00:00",
        "errors":
          [ { "kind": "temporary",
              "id": "proto.011-PtHangz2.prefilter.outdated_endorsement" } ],
        "included_in_blocks":
          [ "BLEHk4rBuKmWKBj72ERVQkQHEwtLcqrNg4GpSSmrscPjKLWDn6Y" ] },
      { "delegate": "tz1S8e9GgdZG78XJRB3NqabfWeM37GnhZMWQ",
        "reception_time": "2022-01-18T19:44:20.349-00:00",
        "errors":
          [ { "kind": "temporary",
              "id": "proto.011-PtHangz2.prefilter.outdated_endorsement" } ],
        "included_in_blocks":
          [ "BLEHk4rBuKmWKBj72ERVQkQHEwtLcqrNg4GpSSmrscPjKLWDn6Y" ] },
      { "delegate": "tz1NpWrAyDL9k2Lmnyxcgr9xuJakbBxdq7FB",
        "reception_time": "2022-01-18T19:44:30.906-00:00",
        "included_in_blocks":
          [ "BLEHk4rBuKmWKBj72ERVQkQHEwtLcqrNg4GpSSmrscPjKLWDn6Y" ] },
      { "delegate": "tz1awXW7wuXy21c66vBudMXQVAPgRnqqwgTH",
        "reception_time": "2022-01-18T19:44:26.253-00:00",
        "included_in_blocks":
          [ "BLEHk4rBuKmWKBj72ERVQkQHEwtLcqrNg4GpSSmrscPjKLWDn6Y" ] },
      { "delegate": "tz1bTpviNnyx2PXsNmGpCQTMQsGoYordkUoA",
        "reception_time": "2022-01-18T19:44:26.256-00:00",
        "included_in_blocks":
          [ "BLEHk4rBuKmWKBj72ERVQkQHEwtLcqrNg4GpSSmrscPjKLWDn6Y" ] },
      { "delegate": "tz1W5VkdB5s7ENMESVBtwyt9kyvLqPcUczRT",
        "reception_time": "2022-01-18T19:44:26.267-00:00",
        "included_in_blocks":
          [ "BLEHk4rBuKmWKBj72ERVQkQHEwtLcqrNg4GpSSmrscPjKLWDn6Y" ] },
      { "delegate": "tz1cYufsxHXJcvANhvS55h3aY32a9BAFB494",
        "reception_time": "2022-01-18T19:44:24.585-00:00",
        "included_in_blocks":
          [ "BLEHk4rBuKmWKBj72ERVQkQHEwtLcqrNg4GpSSmrscPjKLWDn6Y" ] },
      { "delegate": "tz1PFeoTuFen8jAMRHajBySNyCwLmY5RqF9M",
        "reception_time": "2022-01-18T19:44:24.679-00:00",
        "included_in_blocks":
          [ "BLEHk4rBuKmWKBj72ERVQkQHEwtLcqrNg4GpSSmrscPjKLWDn6Y" ] },
      { "delegate": "tz1T7duV5gZWSTq4YpBGbXNLTfznCLDrFxvs",
        "reception_time": "2022-01-18T19:44:24.408-00:00",
        "included_in_blocks":
          [ "BLEHk4rBuKmWKBj72ERVQkQHEwtLcqrNg4GpSSmrscPjKLWDn6Y" ] },
      { "delegate": "tz3NExpXn9aPNZPorRE4SdjJ2RGrfbJgMAaV",
        "reception_time": "2022-01-18T19:44:24.598-00:00",
        "included_in_blocks":
          [ "BLEHk4rBuKmWKBj72ERVQkQHEwtLcqrNg4GpSSmrscPjKLWDn6Y" ] },
      { "delegate": "tz1TRqbYbUf2GyrjErf3hBzgBJPzW8y36qEs",
        "reception_time": "2022-01-18T19:44:24.270-00:00",
        "included_in_blocks":
          [ "BLEHk4rBuKmWKBj72ERVQkQHEwtLcqrNg4GpSSmrscPjKLWDn6Y" ] },
      { "delegate": "tz3VEZ4k6a4Wx42iyev6i2aVAptTRLEAivNN",
        "reception_time": "2022-01-18T19:44:23.688-00:00",
        "included_in_blocks":
          [ "BLEHk4rBuKmWKBj72ERVQkQHEwtLcqrNg4GpSSmrscPjKLWDn6Y" ] },
      { "delegate": "tz1NEKxGEHsFufk87CVZcrqWu8o22qh46GK6",
        "reception_time": "2022-01-18T19:44:23.370-00:00",
        "included_in_blocks":
          [ "BLEHk4rBuKmWKBj72ERVQkQHEwtLcqrNg4GpSSmrscPjKLWDn6Y" ] },
      { "delegate": "tz1dRKU4FQ9QRRQPdaH4zCR6gmCmXfcvcgtB",
        "reception_time": "2022-01-18T19:44:23.862-00:00",
        "included_in_blocks":
          [ "BLEHk4rBuKmWKBj72ERVQkQHEwtLcqrNg4GpSSmrscPjKLWDn6Y" ] },
      { "delegate": "tz3RDC3Jdn4j15J7bBHZd29EUee9gVB1CxD9",
        "reception_time": "2022-01-18T19:44:23.348-00:00",
        "included_in_blocks":
          [ "BLEHk4rBuKmWKBj72ERVQkQHEwtLcqrNg4GpSSmrscPjKLWDn6Y" ] },
      { "delegate": "tz2FCNBrERXtaTtNX6iimR1UJ5JSDxvdHM93",
        "reception_time": "2022-01-18T19:44:23.135-00:00",
        "included_in_blocks":
          [ "BLEHk4rBuKmWKBj72ERVQkQHEwtLcqrNg4GpSSmrscPjKLWDn6Y" ] },
      { "delegate": "tz1WctSwL49BZtdWAQ75NY6vr4xsAx6oKdah",
        "reception_time": "2022-01-18T19:44:23.652-00:00",
        "included_in_blocks":
          [ "BLEHk4rBuKmWKBj72ERVQkQHEwtLcqrNg4GpSSmrscPjKLWDn6Y" ] },
      { "delegate": "tz1aRoaRhSpRYvFdyvgWLL6TGyRoGF51wDjM",
        "reception_time": "2022-01-18T19:44:23.108-00:00",
        "included_in_blocks":
          [ "BLEHk4rBuKmWKBj72ERVQkQHEwtLcqrNg4GpSSmrscPjKLWDn6Y" ] },
      { "delegate": "tz1RCFbB9GpALpsZtu6J58sb74dm8qe6XBzv",
        "reception_time": "2022-01-18T19:44:23.409-00:00",
        "included_in_blocks":
          [ "BLEHk4rBuKmWKBj72ERVQkQHEwtLcqrNg4GpSSmrscPjKLWDn6Y" ] },
      { "delegate": "tz1fwnfJNgiDACshK9avfRfFbMaXrs3ghoJa",
        "reception_time": "2022-01-18T19:44:23.292-00:00",
        "included_in_blocks":
          [ "BLEHk4rBuKmWKBj72ERVQkQHEwtLcqrNg4GpSSmrscPjKLWDn6Y" ] },
      { "delegate": "tz3NDpRj6WBrJPikcPVHRBEjWKxFw3c6eQPS",
        "reception_time": "2022-01-18T19:44:22.859-00:00",
        "included_in_blocks":
          [ "BLEHk4rBuKmWKBj72ERVQkQHEwtLcqrNg4GpSSmrscPjKLWDn6Y" ] },
      { "delegate": "tz1Nf6tsK4G6bBqgSQERy4nUtkHNKUVdh7q1",
        "reception_time": "2022-01-18T19:44:22.859-00:00",
        "included_in_blocks":
          [ "BLEHk4rBuKmWKBj72ERVQkQHEwtLcqrNg4GpSSmrscPjKLWDn6Y" ] },
      { "delegate": "tz1KfEsrtDaA1sX7vdM4qmEPWuSytuqCDp5j",
        "reception_time": "2022-01-18T19:44:23.153-00:00",
        "included_in_blocks":
          [ "BLEHk4rBuKmWKBj72ERVQkQHEwtLcqrNg4GpSSmrscPjKLWDn6Y" ] },
      { "delegate": "tz3WMqdzXqRWXwyvj5Hp2H7QEepaUuS7vd9K",
        "reception_time": "2022-01-18T19:44:23.258-00:00",
        "included_in_blocks":
          [ "BLEHk4rBuKmWKBj72ERVQkQHEwtLcqrNg4GpSSmrscPjKLWDn6Y" ] },
      { "delegate": "tz3UoffC7FG7zfpmvmjUmUeAaHvzdcUvAj6r",
        "reception_time": "2022-01-18T19:44:22.859-00:00",
        "included_in_blocks":
          [ "BLEHk4rBuKmWKBj72ERVQkQHEwtLcqrNg4GpSSmrscPjKLWDn6Y" ] },
      { "delegate": "tz1NortRftucvAkD1J58L32EhSVrQEWJCEnB",
        "reception_time": "2022-01-18T19:44:22.311-00:00",
        "included_in_blocks":
          [ "BLEHk4rBuKmWKBj72ERVQkQHEwtLcqrNg4GpSSmrscPjKLWDn6Y" ] },
      { "delegate": "tz3RB4aoyjov4KEVRbuhvQ1CKJgBJMWhaeB8",
        "reception_time": "2022-01-18T19:44:22.311-00:00",
        "included_in_blocks":
          [ "BLEHk4rBuKmWKBj72ERVQkQHEwtLcqrNg4GpSSmrscPjKLWDn6Y" ] },
      { "delegate": "tz1MQJPGNMijnXnVoBENFz9rUhaPt3S7rWoz",
        "reception_time": "2022-01-18T19:44:22.859-00:00",
        "included_in_blocks":
          [ "BLEHk4rBuKmWKBj72ERVQkQHEwtLcqrNg4GpSSmrscPjKLWDn6Y" ] },
      { "delegate": "tz1KzSC1J9aBxKp7u8TUnpN8L7S65PBRkgdF",
        "reception_time": "2022-01-18T19:44:22.612-00:00",
        "included_in_blocks":
          [ "BLEHk4rBuKmWKBj72ERVQkQHEwtLcqrNg4GpSSmrscPjKLWDn6Y" ] },
      { "delegate": "tz1abmz7jiCV2GH2u81LRrGgAFFgvQgiDiaf",
        "reception_time": "2022-01-18T19:44:22.859-00:00",
        "included_in_blocks":
          [ "BLEHk4rBuKmWKBj72ERVQkQHEwtLcqrNg4GpSSmrscPjKLWDn6Y" ] },
      { "delegate": "tz1WBfwbT66FC6BTLexc2BoyCCBM9LG7pnVW",
        "reception_time": "2022-01-18T19:44:22.612-00:00",
        "included_in_blocks":
          [ "BLEHk4rBuKmWKBj72ERVQkQHEwtLcqrNg4GpSSmrscPjKLWDn6Y" ] },
      { "delegate": "tz3bvNMQ95vfAYtG8193ymshqjSvmxiCUuR5",
        "reception_time": "2022-01-18T19:44:22.168-00:00",
        "included_in_blocks":
          [ "BLEHk4rBuKmWKBj72ERVQkQHEwtLcqrNg4GpSSmrscPjKLWDn6Y" ] },
      { "delegate": "tz1irJKkXS2DBWkU1NnmFQx1c1L7pbGg4yhk",
        "reception_time": "2022-01-18T19:44:22.168-00:00",
        "included_in_blocks":
          [ "BLEHk4rBuKmWKBj72ERVQkQHEwtLcqrNg4GpSSmrscPjKLWDn6Y" ] },
      { "delegate": "tz3bTdwZinP8U1JmSweNzVKhmwafqWmFWRfk",
        "reception_time": "2022-01-18T19:44:22.168-00:00",
        "included_in_blocks":
          [ "BLEHk4rBuKmWKBj72ERVQkQHEwtLcqrNg4GpSSmrscPjKLWDn6Y" ] },
      { "delegate": "tz1dNVDWPf3Q59SdJqnjdnu277iyvReiRS9M",
        "reception_time": "2022-01-18T19:44:22.612-00:00",
        "included_in_blocks":
          [ "BLEHk4rBuKmWKBj72ERVQkQHEwtLcqrNg4GpSSmrscPjKLWDn6Y" ] },
      { "delegate": "tz1LmaFsWRkjr7QMCx5PtV6xTUz3AmEpKQiF",
        "reception_time": "2022-01-18T19:44:22.612-00:00",
        "included_in_blocks":
          [ "BLEHk4rBuKmWKBj72ERVQkQHEwtLcqrNg4GpSSmrscPjKLWDn6Y" ] },
      { "delegate": "tz1aqcYgG6NuViML5vdWhohHJBYxcDVLNUsE",
        "reception_time": "2022-01-18T19:44:22.168-00:00",
        "included_in_blocks":
          [ "BLEHk4rBuKmWKBj72ERVQkQHEwtLcqrNg4GpSSmrscPjKLWDn6Y" ] },
      { "delegate": "tz3adcvQaKXTCg12zbninqo3q8ptKKtDFTLv",
        "reception_time": "2022-01-18T19:44:22.478-00:00",
        "included_in_blocks":
          [ "BLEHk4rBuKmWKBj72ERVQkQHEwtLcqrNg4GpSSmrscPjKLWDn6Y" ] },
      { "delegate": "tz3S6BBeKgJGXxvLyZ1xzXzMPn11nnFtq5L9",
        "reception_time": "2022-01-18T19:44:22.168-00:00",
        "included_in_blocks":
          [ "BLEHk4rBuKmWKBj72ERVQkQHEwtLcqrNg4GpSSmrscPjKLWDn6Y" ] },
      { "delegate": "tz3QT9dHYKDqh563chVa6za8526ys1UKfRfL",
        "reception_time": "2022-01-18T19:44:22.168-00:00",
        "included_in_blocks":
          [ "BLEHk4rBuKmWKBj72ERVQkQHEwtLcqrNg4GpSSmrscPjKLWDn6Y" ] },
      { "delegate": "tz1V4qCyvPKZ5UeqdH14HN42rxvNPQfc9UZg",
        "reception_time": "2022-01-18T19:44:22.311-00:00",
        "included_in_blocks":
          [ "BLEHk4rBuKmWKBj72ERVQkQHEwtLcqrNg4GpSSmrscPjKLWDn6Y" ] },
      { "delegate": "tz1cSj7fTex3JPd1p1LN1fwek6AV1kH93Wwc",
        "reception_time": "2022-01-18T19:44:22.168-00:00",
        "included_in_blocks":
          [ "BLEHk4rBuKmWKBj72ERVQkQHEwtLcqrNg4GpSSmrscPjKLWDn6Y" ] },
      { "delegate": "tz1S8MNvuFEUsWgjHvi3AxibRBf388NhT1q2",
        "reception_time": "2022-01-18T19:44:22.311-00:00",
        "included_in_blocks":
          [ "BLEHk4rBuKmWKBj72ERVQkQHEwtLcqrNg4GpSSmrscPjKLWDn6Y" ] },
      { "delegate": "tz1MQMiZHV8q4tTwUMWmS5Y3kaP6J2136iXr",
        "reception_time": "2022-01-18T19:44:22.311-00:00",
        "included_in_blocks":
          [ "BLEHk4rBuKmWKBj72ERVQkQHEwtLcqrNg4GpSSmrscPjKLWDn6Y" ] },
      { "delegate": "tz1ei4WtWEMEJekSv8qDnu9PExG6Q8HgRGr3",
        "reception_time": "2022-01-18T19:44:22.478-00:00",
        "included_in_blocks":
          [ "BLEHk4rBuKmWKBj72ERVQkQHEwtLcqrNg4GpSSmrscPjKLWDn6Y" ] },
      { "delegate": "tz1RHgE6W7SnPdwqL1SAtGWEdynA7HeTbpbN",
        "reception_time": "2022-01-18T19:44:22.168-00:00",
        "included_in_blocks":
          [ "BLEHk4rBuKmWKBj72ERVQkQHEwtLcqrNg4GpSSmrscPjKLWDn6Y" ] },
      { "delegate": "tz1gUNyn3hmnEWqkusWPzxRaon1cs7ndWh7h",
        "reception_time": "2022-01-18T19:44:22.168-00:00",
        "included_in_blocks":
          [ "BLEHk4rBuKmWKBj72ERVQkQHEwtLcqrNg4GpSSmrscPjKLWDn6Y" ] },
      { "delegate": "tz1WCd2jm4uSt4vntk4vSuUWoZQGhLcDuR9q",
        "reception_time": "2022-01-18T19:44:22.168-00:00",
        "included_in_blocks":
          [ "BLEHk4rBuKmWKBj72ERVQkQHEwtLcqrNg4GpSSmrscPjKLWDn6Y" ] },
      { "delegate": "tz1PWCDnz783NNGGQjEFFsHtrcK5yBW4E2rm",
        "reception_time": "2022-01-18T19:44:22.168-00:00",
        "included_in_blocks":
          [ "BLEHk4rBuKmWKBj72ERVQkQHEwtLcqrNg4GpSSmrscPjKLWDn6Y" ] },
      { "delegate": "tz1ZPh7XfUaJXUDvkrBxmS1BjEM1i62hiPpM",
        "reception_time": "2022-01-18T19:44:22.168-00:00",
        "included_in_blocks":
          [ "BLEHk4rBuKmWKBj72ERVQkQHEwtLcqrNg4GpSSmrscPjKLWDn6Y" ] },
      { "delegate": "tz1MJx9vhaNRSimcuXPK2rW4fLccQnDAnVKJ",
        "reception_time": "2022-01-18T19:44:22.168-00:00",
        "included_in_blocks":
          [ "BLEHk4rBuKmWKBj72ERVQkQHEwtLcqrNg4GpSSmrscPjKLWDn6Y" ] },
      { "delegate": "tz1TzaNn7wSQSP5gYPXCnNzBCpyMiidCq1PX",
        "reception_time": "2022-01-18T19:44:22.168-00:00",
        "included_in_blocks":
          [ "BLEHk4rBuKmWKBj72ERVQkQHEwtLcqrNg4GpSSmrscPjKLWDn6Y" ] },
      { "delegate": "tz3RKYFsLuQzKBtmYuLNas7uMu3AsYd4QdsA",
        "reception_time": "2022-01-18T19:44:22.168-00:00",
        "included_in_blocks":
          [ "BLEHk4rBuKmWKBj72ERVQkQHEwtLcqrNg4GpSSmrscPjKLWDn6Y" ] },
      { "delegate": "tz3Zhs2dygr55yHyQyKjntAtY9bgfhLZ4Xj1",
        "reception_time": "2022-01-18T19:44:22.168-00:00",
        "included_in_blocks":
          [ "BLEHk4rBuKmWKBj72ERVQkQHEwtLcqrNg4GpSSmrscPjKLWDn6Y" ] },
      { "delegate": "tz3iJu5vrKZcsqRPs8yJ61UDoeEXZmtro4qh",
        "reception_time": "2022-01-18T19:44:22.168-00:00",
        "included_in_blocks":
          [ "BLEHk4rBuKmWKBj72ERVQkQHEwtLcqrNg4GpSSmrscPjKLWDn6Y" ] },
      { "delegate": "tz1Ldzz6k1BHdhuKvAtMRX7h5kJSMHESMHLC",
        "reception_time": "2022-01-18T19:44:22.168-00:00",
        "included_in_blocks":
          [ "BLEHk4rBuKmWKBj72ERVQkQHEwtLcqrNg4GpSSmrscPjKLWDn6Y" ] },
      { "delegate": "tz3hw2kqXhLUvY65ca1eety2oQTpAvd34R9Q",
        "reception_time": "2022-01-18T19:44:22.168-00:00",
        "included_in_blocks":
          [ "BLEHk4rBuKmWKBj72ERVQkQHEwtLcqrNg4GpSSmrscPjKLWDn6Y" ] },
      { "delegate": "tz1ajgycuHmd2z2JbTSJxKv7x6cok2KuNSk1",
        "reception_time": "2022-01-18T19:44:22.168-00:00",
        "included_in_blocks":
          [ "BLEHk4rBuKmWKBj72ERVQkQHEwtLcqrNg4GpSSmrscPjKLWDn6Y" ] },
      { "delegate": "tz1gfArv665EUkSg2ojMBzcbfwuPxAvqPvjo",
        "reception_time": "2022-01-18T19:44:22.311-00:00",
        "included_in_blocks":
          [ "BLEHk4rBuKmWKBj72ERVQkQHEwtLcqrNg4GpSSmrscPjKLWDn6Y" ] },
      { "delegate": "tz3ZbP2pM3nwvXztbuMJwJnDvV5xdpU8UkkD",
        "reception_time": "2022-01-18T19:44:21.916-00:00",
        "included_in_blocks":
          [ "BLEHk4rBuKmWKBj72ERVQkQHEwtLcqrNg4GpSSmrscPjKLWDn6Y" ] },
      { "delegate": "tz3NxTnke1acr8o3h5y9ytf5awQBGNJUKzVU",
        "reception_time": "2022-01-18T19:44:21.916-00:00",
        "included_in_blocks":
          [ "BLEHk4rBuKmWKBj72ERVQkQHEwtLcqrNg4GpSSmrscPjKLWDn6Y" ] },
      { "delegate": "tz1VQnqCCqX4K5sP3FNkVSNKTdCAMJDd3E1n",
        "reception_time": "2022-01-18T19:44:22.168-00:00",
        "included_in_blocks":
          [ "BLEHk4rBuKmWKBj72ERVQkQHEwtLcqrNg4GpSSmrscPjKLWDn6Y" ] },
      { "delegate": "tz3gtoUxdudfBRcNY7iVdKPHCYYX6xdPpoRS",
        "reception_time": "2022-01-18T19:44:21.916-00:00",
        "included_in_blocks":
          [ "BLEHk4rBuKmWKBj72ERVQkQHEwtLcqrNg4GpSSmrscPjKLWDn6Y" ] },
      { "delegate": "tz1Kt4P8BCaP93AEV4eA7gmpRryWt5hznjCP",
        "reception_time": "2022-01-18T19:44:22.168-00:00",
        "included_in_blocks":
          [ "BLEHk4rBuKmWKBj72ERVQkQHEwtLcqrNg4GpSSmrscPjKLWDn6Y" ] } ] }