{ "blocks":
    [ { "hash": "BKyuMuR9wFn5vsA57oLgCFkAW7iWf4haDRcg24QjJ9X14SyStSb",
        "delegate": "tz1g8vkmcde6sWKaG2NN9WKzCkDM6Rziq194",
        "reception_time": "2022-01-18T18:07:36.629-00:00",
        "timestamp": "2022-01-18T18:07:20Z" } ],
  "endorsements":
    [ { "delegate": "tz1NpWrAyDL9k2Lmnyxcgr9xuJakbBxdq7FB",
        "reception_time": "2022-01-18T18:07:51.298-00:00" },
      { "delegate": "tz3bEQoFCZEEfZMskefZ8q8e4eiHH1pssRax",
        "reception_time": "2022-01-18T18:07:46.764-00:00",
        "included_in_blocks":
          [ "BKrE3Y8xuBWvu4eFfkGGuwA6yM4U2gCCfUWU4JEzBKevYaELA8R" ] },
      { "delegate": "tz1Z9M4biBHSiH38k5ciRMjR5bgk89yEgLTz",
        "reception_time": "2022-01-18T18:07:43.587-00:00",
        "included_in_blocks":
          [ "BKrE3Y8xuBWvu4eFfkGGuwA6yM4U2gCCfUWU4JEzBKevYaELA8R" ] },
      { "delegate": "tz1PFeoTuFen8jAMRHajBySNyCwLmY5RqF9M",
        "reception_time": "2022-01-18T18:07:43.182-00:00",
        "included_in_blocks":
          [ "BKrE3Y8xuBWvu4eFfkGGuwA6yM4U2gCCfUWU4JEzBKevYaELA8R" ] },
      { "delegate": "tz1W5VkdB5s7ENMESVBtwyt9kyvLqPcUczRT",
        "reception_time": "2022-01-18T18:07:41.988-00:00",
        "included_in_blocks":
          [ "BKrE3Y8xuBWvu4eFfkGGuwA6yM4U2gCCfUWU4JEzBKevYaELA8R" ] },
      { "delegate": "tz1aRoaRhSpRYvFdyvgWLL6TGyRoGF51wDjM",
        "reception_time": "2022-01-18T18:07:41.933-00:00",
        "included_in_blocks":
          [ "BKrE3Y8xuBWvu4eFfkGGuwA6yM4U2gCCfUWU4JEzBKevYaELA8R" ] },
      { "delegate": "tz1V3yg82mcrPJbegqVCPn6bC8w1CSTRp3f8",
        "reception_time": "2022-01-18T18:07:41.808-00:00",
        "included_in_blocks":
          [ "BKrE3Y8xuBWvu4eFfkGGuwA6yM4U2gCCfUWU4JEzBKevYaELA8R" ] },
      { "delegate": "tz1NuUu12WHdW3jHqvkujGHsiTi46Wvw1ci1",
        "reception_time": "2022-01-18T18:07:41.767-00:00",
        "included_in_blocks":
          [ "BKrE3Y8xuBWvu4eFfkGGuwA6yM4U2gCCfUWU4JEzBKevYaELA8R" ] },
      { "delegate": "tz1eVaNx3gCmG1EsLjijkmgAxdLYVf6Bf5Sq",
        "reception_time": "2022-01-18T18:07:41.707-00:00",
        "included_in_blocks":
          [ "BKrE3Y8xuBWvu4eFfkGGuwA6yM4U2gCCfUWU4JEzBKevYaELA8R" ] },
      { "delegate": "tz1hAYfexyzPGG6RhZZMpDvAHifubsbb6kgn",
        "reception_time": "2022-01-18T18:07:41.469-00:00",
        "included_in_blocks":
          [ "BKrE3Y8xuBWvu4eFfkGGuwA6yM4U2gCCfUWU4JEzBKevYaELA8R" ] },
      { "delegate": "tz1UvkANVPWppVgMkLnvN7BwYZsCP7vm6NVd",
        "reception_time": "2022-01-18T18:07:41.160-00:00",
        "included_in_blocks":
          [ "BKrE3Y8xuBWvu4eFfkGGuwA6yM4U2gCCfUWU4JEzBKevYaELA8R" ] },
      { "delegate": "tz1RjoHc98dBoqaH2jawF62XNKh7YsHwbkEv",
        "reception_time": "2022-01-18T18:07:41.090-00:00",
        "included_in_blocks":
          [ "BKrE3Y8xuBWvu4eFfkGGuwA6yM4U2gCCfUWU4JEzBKevYaELA8R" ] },
      { "delegate": "tz1TRqbYbUf2GyrjErf3hBzgBJPzW8y36qEs",
        "reception_time": "2022-01-18T18:07:41.062-00:00",
        "included_in_blocks":
          [ "BKrE3Y8xuBWvu4eFfkGGuwA6yM4U2gCCfUWU4JEzBKevYaELA8R" ] },
      { "delegate": "tz3NExpXn9aPNZPorRE4SdjJ2RGrfbJgMAaV",
        "reception_time": "2022-01-18T18:07:40.666-00:00",
        "included_in_blocks":
          [ "BKrE3Y8xuBWvu4eFfkGGuwA6yM4U2gCCfUWU4JEzBKevYaELA8R" ] },
      { "delegate": "tz1fUyqYH7H4pRHN1roWY17giXhy1RvxjgUV",
        "reception_time": "2022-01-18T18:07:40.575-00:00",
        "included_in_blocks":
          [ "BKrE3Y8xuBWvu4eFfkGGuwA6yM4U2gCCfUWU4JEzBKevYaELA8R" ] },
      { "delegate": "tz1SohptP53wDPZhzTWzDUFAUcWF6DMBpaJV",
        "reception_time": "2022-01-18T18:07:40.328-00:00",
        "included_in_blocks":
          [ "BKrE3Y8xuBWvu4eFfkGGuwA6yM4U2gCCfUWU4JEzBKevYaELA8R" ] },
      { "delegate": "tz1dRKU4FQ9QRRQPdaH4zCR6gmCmXfcvcgtB",
        "reception_time": "2022-01-18T18:07:40.257-00:00",
        "included_in_blocks":
          [ "BKrE3Y8xuBWvu4eFfkGGuwA6yM4U2gCCfUWU4JEzBKevYaELA8R" ] },
      { "delegate": "tz3bvNMQ95vfAYtG8193ymshqjSvmxiCUuR5",
        "reception_time": "2022-01-18T18:07:40.207-00:00",
        "included_in_blocks":
          [ "BKrE3Y8xuBWvu4eFfkGGuwA6yM4U2gCCfUWU4JEzBKevYaELA8R" ] },
      { "delegate": "tz3WMqdzXqRWXwyvj5Hp2H7QEepaUuS7vd9K",
        "reception_time": "2022-01-18T18:07:40.063-00:00",
        "included_in_blocks":
          [ "BKrE3Y8xuBWvu4eFfkGGuwA6yM4U2gCCfUWU4JEzBKevYaELA8R" ] },
      { "delegate": "tz1T7duV5gZWSTq4YpBGbXNLTfznCLDrFxvs",
        "reception_time": "2022-01-18T18:07:40.043-00:00",
        "included_in_blocks":
          [ "BKrE3Y8xuBWvu4eFfkGGuwA6yM4U2gCCfUWU4JEzBKevYaELA8R" ] },
      { "delegate": "tz3VEZ4k6a4Wx42iyev6i2aVAptTRLEAivNN",
        "reception_time": "2022-01-18T18:07:39.910-00:00",
        "included_in_blocks":
          [ "BKrE3Y8xuBWvu4eFfkGGuwA6yM4U2gCCfUWU4JEzBKevYaELA8R" ] },
      { "delegate": "tz1fwnfJNgiDACshK9avfRfFbMaXrs3ghoJa",
        "reception_time": "2022-01-18T18:07:39.885-00:00",
        "included_in_blocks":
          [ "BKrE3Y8xuBWvu4eFfkGGuwA6yM4U2gCCfUWU4JEzBKevYaELA8R" ] },
      { "delegate": "tz1cig1EHyvZd7J2k389moM9PxVgPQvmFkvi",
        "reception_time": "2022-01-18T18:07:39.865-00:00",
        "included_in_blocks":
          [ "BKrE3Y8xuBWvu4eFfkGGuwA6yM4U2gCCfUWU4JEzBKevYaELA8R" ] },
      { "delegate": "tz1Tnjaxk6tbAeC2TmMApPh8UsrEVQvhHvx5",
        "reception_time": "2022-01-18T18:07:39.858-00:00",
        "included_in_blocks":
          [ "BKrE3Y8xuBWvu4eFfkGGuwA6yM4U2gCCfUWU4JEzBKevYaELA8R" ] },
      { "delegate": "tz2FCNBrERXtaTtNX6iimR1UJ5JSDxvdHM93",
        "reception_time": "2022-01-18T18:07:39.701-00:00",
        "included_in_blocks":
          [ "BKrE3Y8xuBWvu4eFfkGGuwA6yM4U2gCCfUWU4JEzBKevYaELA8R" ] },
      { "delegate": "tz3UoffC7FG7zfpmvmjUmUeAaHvzdcUvAj6r",
        "reception_time": "2022-01-18T18:07:39.547-00:00",
        "included_in_blocks":
          [ "BKrE3Y8xuBWvu4eFfkGGuwA6yM4U2gCCfUWU4JEzBKevYaELA8R" ] },
      { "delegate": "tz3RDC3Jdn4j15J7bBHZd29EUee9gVB1CxD9",
        "reception_time": "2022-01-18T18:07:39.455-00:00",
        "included_in_blocks":
          [ "BKrE3Y8xuBWvu4eFfkGGuwA6yM4U2gCCfUWU4JEzBKevYaELA8R" ] },
      { "delegate": "tz1NortRftucvAkD1J58L32EhSVrQEWJCEnB",
        "reception_time": "2022-01-18T18:07:39.425-00:00",
        "included_in_blocks":
          [ "BKrE3Y8xuBWvu4eFfkGGuwA6yM4U2gCCfUWU4JEzBKevYaELA8R" ] },
      { "delegate": "tz1WvL7MKyCuUHfC3FxPFyiXcy8hHTBT3vjE",
        "reception_time": "2022-01-18T18:07:39.323-00:00",
        "included_in_blocks":
          [ "BKrE3Y8xuBWvu4eFfkGGuwA6yM4U2gCCfUWU4JEzBKevYaELA8R" ] },
      { "delegate": "tz1Sm5iH2vfTtyPQdRHt4STaARTVqTHxJ6Ea",
        "reception_time": "2022-01-18T18:07:39.301-00:00",
        "included_in_blocks":
          [ "BKrE3Y8xuBWvu4eFfkGGuwA6yM4U2gCCfUWU4JEzBKevYaELA8R" ] },
      { "delegate": "tz1UMCB2AHSTwG7YcGNr31CqYCtGN873royv",
        "reception_time": "2022-01-18T18:07:39.298-00:00",
        "included_in_blocks":
          [ "BKrE3Y8xuBWvu4eFfkGGuwA6yM4U2gCCfUWU4JEzBKevYaELA8R" ] },
      { "delegate": "tz1SYq214SCBy9naR6cvycQsYcUGpBqQAE8d",
        "reception_time": "2022-01-18T18:07:39.226-00:00",
        "included_in_blocks":
          [ "BKrE3Y8xuBWvu4eFfkGGuwA6yM4U2gCCfUWU4JEzBKevYaELA8R" ] },
      { "delegate": "tz1WBfwbT66FC6BTLexc2BoyCCBM9LG7pnVW",
        "reception_time": "2022-01-18T18:07:39.134-00:00",
        "included_in_blocks":
          [ "BKrE3Y8xuBWvu4eFfkGGuwA6yM4U2gCCfUWU4JEzBKevYaELA8R" ] },
      { "delegate": "tz1LmaFsWRkjr7QMCx5PtV6xTUz3AmEpKQiF",
        "reception_time": "2022-01-18T18:07:39.109-00:00",
        "included_in_blocks":
          [ "BKrE3Y8xuBWvu4eFfkGGuwA6yM4U2gCCfUWU4JEzBKevYaELA8R" ] },
      { "delegate": "tz3RB4aoyjov4KEVRbuhvQ1CKJgBJMWhaeB8",
        "reception_time": "2022-01-18T18:07:39.072-00:00",
        "included_in_blocks":
          [ "BKrE3Y8xuBWvu4eFfkGGuwA6yM4U2gCCfUWU4JEzBKevYaELA8R" ] },
      { "delegate": "tz1gfArv665EUkSg2ojMBzcbfwuPxAvqPvjo",
        "reception_time": "2022-01-18T18:07:38.968-00:00",
        "included_in_blocks":
          [ "BKrE3Y8xuBWvu4eFfkGGuwA6yM4U2gCCfUWU4JEzBKevYaELA8R" ] },
      { "delegate": "tz3bTdwZinP8U1JmSweNzVKhmwafqWmFWRfk",
        "reception_time": "2022-01-18T18:07:38.949-00:00",
        "included_in_blocks":
          [ "BKrE3Y8xuBWvu4eFfkGGuwA6yM4U2gCCfUWU4JEzBKevYaELA8R" ] },
      { "delegate": "tz1abmz7jiCV2GH2u81LRrGgAFFgvQgiDiaf",
        "reception_time": "2022-01-18T18:07:38.932-00:00",
        "included_in_blocks":
          [ "BKrE3Y8xuBWvu4eFfkGGuwA6yM4U2gCCfUWU4JEzBKevYaELA8R" ] },
      { "delegate": "tz1S8MNvuFEUsWgjHvi3AxibRBf388NhT1q2",
        "reception_time": "2022-01-18T18:07:38.852-00:00",
        "included_in_blocks":
          [ "BKrE3Y8xuBWvu4eFfkGGuwA6yM4U2gCCfUWU4JEzBKevYaELA8R" ] },
      { "delegate": "tz1Nf6tsK4G6bBqgSQERy4nUtkHNKUVdh7q1",
        "reception_time": "2022-01-18T18:07:38.845-00:00",
        "included_in_blocks":
          [ "BKrE3Y8xuBWvu4eFfkGGuwA6yM4U2gCCfUWU4JEzBKevYaELA8R" ] },
      { "delegate": "tz1axcnVN9tZnCe4sQQhC6f3tfSEXdjPaXPY",
        "reception_time": "2022-01-18T18:07:38.828-00:00",
        "included_in_blocks":
          [ "BKrE3Y8xuBWvu4eFfkGGuwA6yM4U2gCCfUWU4JEzBKevYaELA8R" ] },
      { "delegate": "tz1dNVDWPf3Q59SdJqnjdnu277iyvReiRS9M",
        "reception_time": "2022-01-18T18:07:38.790-00:00",
        "included_in_blocks":
          [ "BKrE3Y8xuBWvu4eFfkGGuwA6yM4U2gCCfUWU4JEzBKevYaELA8R" ] },
      { "delegate": "tz3QCNyySViKHmeSr45kzDxzchys7NiXCWoa",
        "reception_time": "2022-01-18T18:07:38.783-00:00",
        "included_in_blocks":
          [ "BKrE3Y8xuBWvu4eFfkGGuwA6yM4U2gCCfUWU4JEzBKevYaELA8R" ] },
      { "delegate": "tz1TEc75UKXv4W5cwi14Na3NtqFD51yKQi7h",
        "reception_time": "2022-01-18T18:07:38.758-00:00",
        "included_in_blocks":
          [ "BKrE3Y8xuBWvu4eFfkGGuwA6yM4U2gCCfUWU4JEzBKevYaELA8R" ] },
      { "delegate": "tz1R4PuhxUxBBZhfLJDx2nNjbr7WorAPX1oC",
        "reception_time": "2022-01-18T18:07:38.705-00:00",
        "included_in_blocks":
          [ "BKrE3Y8xuBWvu4eFfkGGuwA6yM4U2gCCfUWU4JEzBKevYaELA8R" ] },
      { "delegate": "tz1RCFbB9GpALpsZtu6J58sb74dm8qe6XBzv",
        "reception_time": "2022-01-18T18:07:38.637-00:00",
        "included_in_blocks":
          [ "BKrE3Y8xuBWvu4eFfkGGuwA6yM4U2gCCfUWU4JEzBKevYaELA8R" ] },
      { "delegate": "tz1UJvHTgpVzcKWhTazGxVcn5wsHru5Gietg",
        "reception_time": "2022-01-18T18:07:38.447-00:00",
        "included_in_blocks":
          [ "BKrE3Y8xuBWvu4eFfkGGuwA6yM4U2gCCfUWU4JEzBKevYaELA8R" ] },
      { "delegate": "tz3iJu5vrKZcsqRPs8yJ61UDoeEXZmtro4qh",
        "reception_time": "2022-01-18T18:07:38.411-00:00",
        "included_in_blocks":
          [ "BKrE3Y8xuBWvu4eFfkGGuwA6yM4U2gCCfUWU4JEzBKevYaELA8R" ] },
      { "delegate": "tz3Zhs2dygr55yHyQyKjntAtY9bgfhLZ4Xj1",
        "reception_time": "2022-01-18T18:07:38.387-00:00",
        "included_in_blocks":
          [ "BKrE3Y8xuBWvu4eFfkGGuwA6yM4U2gCCfUWU4JEzBKevYaELA8R" ] },
      { "delegate": "tz1V4qCyvPKZ5UeqdH14HN42rxvNPQfc9UZg",
        "reception_time": "2022-01-18T18:07:38.387-00:00",
        "included_in_blocks":
          [ "BKrE3Y8xuBWvu4eFfkGGuwA6yM4U2gCCfUWU4JEzBKevYaELA8R" ] },
      { "delegate": "tz1MQMiZHV8q4tTwUMWmS5Y3kaP6J2136iXr",
        "reception_time": "2022-01-18T18:07:38.376-00:00",
        "included_in_blocks":
          [ "BKrE3Y8xuBWvu4eFfkGGuwA6yM4U2gCCfUWU4JEzBKevYaELA8R" ] },
      { "delegate": "tz3S6BBeKgJGXxvLyZ1xzXzMPn11nnFtq5L9",
        "reception_time": "2022-01-18T18:07:38.349-00:00",
        "included_in_blocks":
          [ "BKrE3Y8xuBWvu4eFfkGGuwA6yM4U2gCCfUWU4JEzBKevYaELA8R" ] },
      { "delegate": "tz1MJx9vhaNRSimcuXPK2rW4fLccQnDAnVKJ",
        "reception_time": "2022-01-18T18:07:38.325-00:00",
        "included_in_blocks":
          [ "BKrE3Y8xuBWvu4eFfkGGuwA6yM4U2gCCfUWU4JEzBKevYaELA8R" ] },
      { "delegate": "tz1d6Fx42mYgVFnHUW8T8A7WBfJ6nD9pVok8",
        "reception_time": "2022-01-18T18:07:38.297-00:00",
        "included_in_blocks":
          [ "BKrE3Y8xuBWvu4eFfkGGuwA6yM4U2gCCfUWU4JEzBKevYaELA8R" ] },
      { "delegate": "tz1VmiY38m3y95HqQLjMwqnMS7sdMfGomzKi",
        "reception_time": "2022-01-18T18:07:38.283-00:00",
        "included_in_blocks":
          [ "BKrE3Y8xuBWvu4eFfkGGuwA6yM4U2gCCfUWU4JEzBKevYaELA8R" ] },
      { "delegate": "tz1ei4WtWEMEJekSv8qDnu9PExG6Q8HgRGr3",
        "reception_time": "2022-01-18T18:07:38.279-00:00",
        "included_in_blocks":
          [ "BKrE3Y8xuBWvu4eFfkGGuwA6yM4U2gCCfUWU4JEzBKevYaELA8R" ] },
      { "delegate": "tz3ZbP2pM3nwvXztbuMJwJnDvV5xdpU8UkkD",
        "reception_time": "2022-01-18T18:07:38.277-00:00",
        "included_in_blocks":
          [ "BKrE3Y8xuBWvu4eFfkGGuwA6yM4U2gCCfUWU4JEzBKevYaELA8R" ] },
      { "delegate": "tz1PWCDnz783NNGGQjEFFsHtrcK5yBW4E2rm",
        "reception_time": "2022-01-18T18:07:38.277-00:00",
        "included_in_blocks":
          [ "BKrE3Y8xuBWvu4eFfkGGuwA6yM4U2gCCfUWU4JEzBKevYaELA8R" ] },
      { "delegate": "tz3RKYFsLuQzKBtmYuLNas7uMu3AsYd4QdsA",
        "reception_time": "2022-01-18T18:07:38.277-00:00",
        "included_in_blocks":
          [ "BKrE3Y8xuBWvu4eFfkGGuwA6yM4U2gCCfUWU4JEzBKevYaELA8R" ] },
      { "delegate": "tz3gtoUxdudfBRcNY7iVdKPHCYYX6xdPpoRS",
        "reception_time": "2022-01-18T18:07:38.277-00:00",
        "included_in_blocks":
          [ "BKrE3Y8xuBWvu4eFfkGGuwA6yM4U2gCCfUWU4JEzBKevYaELA8R" ] },
      { "delegate": "tz3NxTnke1acr8o3h5y9ytf5awQBGNJUKzVU",
        "reception_time": "2022-01-18T18:07:38.277-00:00",
        "included_in_blocks":
          [ "BKrE3Y8xuBWvu4eFfkGGuwA6yM4U2gCCfUWU4JEzBKevYaELA8R" ] },
      { "delegate": "tz3QSGPoRp3Kn7n3vY24eYeu3Peuqo45LQ4D",
        "reception_time": "2022-01-18T18:07:38.277-00:00",
        "included_in_blocks":
          [ "BKrE3Y8xuBWvu4eFfkGGuwA6yM4U2gCCfUWU4JEzBKevYaELA8R" ] },
      { "delegate": "tz1WCd2jm4uSt4vntk4vSuUWoZQGhLcDuR9q",
        "reception_time": "2022-01-18T18:07:38.277-00:00",
        "included_in_blocks":
          [ "BKrE3Y8xuBWvu4eFfkGGuwA6yM4U2gCCfUWU4JEzBKevYaELA8R" ] },
      { "delegate": "tz1Kf25fX1VdmYGSEzwFy1wNmkbSEZ2V83sY",
        "reception_time": "2022-01-18T18:07:38.277-00:00",
        "included_in_blocks":
          [ "BKrE3Y8xuBWvu4eFfkGGuwA6yM4U2gCCfUWU4JEzBKevYaELA8R" ] },
      { "delegate": "tz1gcna2xxZj2eNp1LaMyAhVJ49mEFj4FH26",
        "reception_time": "2022-01-18T18:07:38.277-00:00",
        "included_in_blocks":
          [ "BKrE3Y8xuBWvu4eFfkGGuwA6yM4U2gCCfUWU4JEzBKevYaELA8R" ] },
      { "delegate": "tz1aXD7Jigrt3PBYSpHSg5Rr33SexMmmM5Ys",
        "reception_time": "2022-01-18T18:07:38.277-00:00",
        "included_in_blocks":
          [ "BKrE3Y8xuBWvu4eFfkGGuwA6yM4U2gCCfUWU4JEzBKevYaELA8R" ] },
      { "delegate": "tz1irJKkXS2DBWkU1NnmFQx1c1L7pbGg4yhk",
        "reception_time": "2022-01-18T18:07:38.277-00:00",
        "included_in_blocks":
          [ "BKrE3Y8xuBWvu4eFfkGGuwA6yM4U2gCCfUWU4JEzBKevYaELA8R" ] },
      { "delegate": "tz1STeamwbp68THcny9zk3LsbG3H36DMvbRK",
        "reception_time": "2022-01-18T18:07:38.277-00:00",
        "included_in_blocks":
          [ "BKrE3Y8xuBWvu4eFfkGGuwA6yM4U2gCCfUWU4JEzBKevYaELA8R" ] },
      { "delegate": "tz1eEnQhbwf6trb8Q8mPb2RaPkNk2rN7BKi8",
        "reception_time": "2022-01-18T18:07:38.277-00:00",
        "included_in_blocks":
          [ "BKrE3Y8xuBWvu4eFfkGGuwA6yM4U2gCCfUWU4JEzBKevYaELA8R" ] },
      { "delegate": "tz1P2Po7YM526ughEsRbY4oR9zaUPDZjxFrb",
        "reception_time": "2022-01-18T18:07:38.277-00:00",
        "included_in_blocks":
          [ "BKrE3Y8xuBWvu4eFfkGGuwA6yM4U2gCCfUWU4JEzBKevYaELA8R" ] },
      { "delegate": "tz1g8vkmcde6sWKaG2NN9WKzCkDM6Rziq194",
        "reception_time": "2022-01-18T18:07:38.277-00:00",
        "included_in_blocks":
          [ "BKrE3Y8xuBWvu4eFfkGGuwA6yM4U2gCCfUWU4JEzBKevYaELA8R" ] },
      { "delegate": "tz1Ldzz6k1BHdhuKvAtMRX7h5kJSMHESMHLC",
        "reception_time": "2022-01-18T18:07:38.277-00:00",
        "included_in_blocks":
          [ "BKrE3Y8xuBWvu4eFfkGGuwA6yM4U2gCCfUWU4JEzBKevYaELA8R" ] },
      { "delegate": "tz1S8e9GgdZG78XJRB3NqabfWeM37GnhZMWQ",
        "reception_time": "2022-01-18T18:07:35.861-00:00",
        "errors":
          [ { "kind": "temporary",
              "id": "proto.011-PtHangz2.prefilter.outdated_endorsement" } ],
        "included_in_blocks":
          [ "BKrE3Y8xuBWvu4eFfkGGuwA6yM4U2gCCfUWU4JEzBKevYaELA8R" ] },
      { "delegate": "tz1VQnqCCqX4K5sP3FNkVSNKTdCAMJDd3E1n",
        "reception_time": "2022-01-18T18:07:36.344-00:00",
        "errors":
          [ { "kind": "temporary",
              "id": "proto.011-PtHangz2.prefilter.outdated_endorsement" } ],
        "included_in_blocks":
          [ "BKrE3Y8xuBWvu4eFfkGGuwA6yM4U2gCCfUWU4JEzBKevYaELA8R" ] },
      { "delegate": "tz1gUNyn3hmnEWqkusWPzxRaon1cs7ndWh7h",
        "reception_time": "2022-01-18T18:07:36.394-00:00",
        "errors":
          [ { "kind": "temporary",
              "id": "proto.011-PtHangz2.prefilter.outdated_endorsement" } ],
        "included_in_blocks":
          [ "BKrE3Y8xuBWvu4eFfkGGuwA6yM4U2gCCfUWU4JEzBKevYaELA8R" ] },
      { "delegate": "tz1RV1MBbZMR68tacosb7Mwj6LkbPSUS1er1",
        "reception_time": "2022-01-18T18:07:36.468-00:00",
        "errors":
          [ { "kind": "temporary",
              "id": "proto.011-PtHangz2.prefilter.outdated_endorsement" } ],
        "included_in_blocks":
          [ "BKrE3Y8xuBWvu4eFfkGGuwA6yM4U2gCCfUWU4JEzBKevYaELA8R" ] },
      { "delegate": "tz1Scdr2HsZiQjc7bHMeBbmDRXYVvdhjJbBh",
        "reception_time": "2022-01-18T18:07:36.508-00:00",
        "errors":
          [ { "kind": "temporary",
              "id": "proto.011-PtHangz2.prefilter.outdated_endorsement" } ],
        "included_in_blocks":
          [ "BKrE3Y8xuBWvu4eFfkGGuwA6yM4U2gCCfUWU4JEzBKevYaELA8R" ] } ] }