{ "blocks":
    [ { "hash": "BMTAmgiYxNoZri1fgjv8gUw3dnLGhkhoBXJ7CKpeD1VAt62mbN7",
        "delegate": "tz3NExpXn9aPNZPorRE4SdjJ2RGrfbJgMAaV",
        "reception_time": "2022-01-18T21:18:30.262-00:00",
        "timestamp": "2022-01-18T21:18:20Z" } ],
  "endorsements":
    [ { "delegate": "tz1SYq214SCBy9naR6cvycQsYcUGpBqQAE8d" },
      { "delegate": "tz3bEQoFCZEEfZMskefZ8q8e4eiHH1pssRax",
        "reception_time": "2022-01-18T21:18:38.380-00:00",
        "included_in_blocks":
          [ "BL5K2sQLF25uYhT3ggeBHCAGkjuj7D3DNa8NSZmcJBKNfdnbpyG" ] },
      { "delegate": "tz1eVaNx3gCmG1EsLjijkmgAxdLYVf6Bf5Sq",
        "reception_time": "2022-01-18T21:18:38.306-00:00",
        "included_in_blocks":
          [ "BL5K2sQLF25uYhT3ggeBHCAGkjuj7D3DNa8NSZmcJBKNfdnbpyG" ] },
      { "delegate": "tz1PFeoTuFen8jAMRHajBySNyCwLmY5RqF9M",
        "reception_time": "2022-01-18T21:18:36.906-00:00",
        "included_in_blocks":
          [ "BL5K2sQLF25uYhT3ggeBHCAGkjuj7D3DNa8NSZmcJBKNfdnbpyG" ] },
      { "delegate": "tz1g8vkmcde6sWKaG2NN9WKzCkDM6Rziq194",
        "reception_time": "2022-01-18T21:18:36.581-00:00",
        "included_in_blocks":
          [ "BL5K2sQLF25uYhT3ggeBHCAGkjuj7D3DNa8NSZmcJBKNfdnbpyG" ] },
      { "delegate": "tz1aJS7Pk9uWR3wWyFf1i3RwhYxN84G7stom",
        "reception_time": "2022-01-18T21:18:36.229-00:00",
        "included_in_blocks":
          [ "BL5K2sQLF25uYhT3ggeBHCAGkjuj7D3DNa8NSZmcJBKNfdnbpyG" ] },
      { "delegate": "tz1awXW7wuXy21c66vBudMXQVAPgRnqqwgTH",
        "reception_time": "2022-01-18T21:18:35.861-00:00",
        "included_in_blocks":
          [ "BL5K2sQLF25uYhT3ggeBHCAGkjuj7D3DNa8NSZmcJBKNfdnbpyG" ] },
      { "delegate": "tz1aRoaRhSpRYvFdyvgWLL6TGyRoGF51wDjM",
        "reception_time": "2022-01-18T21:18:35.454-00:00",
        "included_in_blocks":
          [ "BL5K2sQLF25uYhT3ggeBHCAGkjuj7D3DNa8NSZmcJBKNfdnbpyG" ] },
      { "delegate": "tz1TRqbYbUf2GyrjErf3hBzgBJPzW8y36qEs",
        "reception_time": "2022-01-18T21:18:34.610-00:00",
        "included_in_blocks":
          [ "BL5K2sQLF25uYhT3ggeBHCAGkjuj7D3DNa8NSZmcJBKNfdnbpyG" ] },
      { "delegate": "tz1SUgyRB8T5jXgXAwS33pgRHAKrafyg87Yc",
        "reception_time": "2022-01-18T21:18:34.550-00:00",
        "included_in_blocks":
          [ "BL5K2sQLF25uYhT3ggeBHCAGkjuj7D3DNa8NSZmcJBKNfdnbpyG" ] },
      { "delegate": "tz1T7duV5gZWSTq4YpBGbXNLTfznCLDrFxvs",
        "reception_time": "2022-01-18T21:18:34.381-00:00",
        "included_in_blocks":
          [ "BL5K2sQLF25uYhT3ggeBHCAGkjuj7D3DNa8NSZmcJBKNfdnbpyG" ] },
      { "delegate": "tz1cYufsxHXJcvANhvS55h3aY32a9BAFB494",
        "reception_time": "2022-01-18T21:18:34.423-00:00",
        "included_in_blocks":
          [ "BL5K2sQLF25uYhT3ggeBHCAGkjuj7D3DNa8NSZmcJBKNfdnbpyG" ] },
      { "delegate": "tz1eLdXTtJwdQw1b2ebNuZBF31mbxs1Ww4K8",
        "reception_time": "2022-01-18T21:18:34.373-00:00",
        "included_in_blocks":
          [ "BL5K2sQLF25uYhT3ggeBHCAGkjuj7D3DNa8NSZmcJBKNfdnbpyG" ] },
      { "delegate": "tz3RDC3Jdn4j15J7bBHZd29EUee9gVB1CxD9",
        "reception_time": "2022-01-18T21:18:33.865-00:00",
        "included_in_blocks":
          [ "BL5K2sQLF25uYhT3ggeBHCAGkjuj7D3DNa8NSZmcJBKNfdnbpyG" ] },
      { "delegate": "tz1abmz7jiCV2GH2u81LRrGgAFFgvQgiDiaf",
        "reception_time": "2022-01-18T21:18:33.954-00:00",
        "included_in_blocks":
          [ "BL5K2sQLF25uYhT3ggeBHCAGkjuj7D3DNa8NSZmcJBKNfdnbpyG" ] },
      { "delegate": "tz1dRKU4FQ9QRRQPdaH4zCR6gmCmXfcvcgtB",
        "reception_time": "2022-01-18T21:18:33.989-00:00",
        "included_in_blocks":
          [ "BL5K2sQLF25uYhT3ggeBHCAGkjuj7D3DNa8NSZmcJBKNfdnbpyG" ] },
      { "delegate": "tz1UvkANVPWppVgMkLnvN7BwYZsCP7vm6NVd",
        "reception_time": "2022-01-18T21:18:33.781-00:00",
        "included_in_blocks":
          [ "BL5K2sQLF25uYhT3ggeBHCAGkjuj7D3DNa8NSZmcJBKNfdnbpyG" ] },
      { "delegate": "tz3bvNMQ95vfAYtG8193ymshqjSvmxiCUuR5",
        "reception_time": "2022-01-18T21:18:33.743-00:00",
        "included_in_blocks":
          [ "BL5K2sQLF25uYhT3ggeBHCAGkjuj7D3DNa8NSZmcJBKNfdnbpyG" ] },
      { "delegate": "tz3RB4aoyjov4KEVRbuhvQ1CKJgBJMWhaeB8",
        "reception_time": "2022-01-18T21:18:33.567-00:00",
        "included_in_blocks":
          [ "BL5K2sQLF25uYhT3ggeBHCAGkjuj7D3DNa8NSZmcJBKNfdnbpyG" ] },
      { "delegate": "tz2FCNBrERXtaTtNX6iimR1UJ5JSDxvdHM93",
        "reception_time": "2022-01-18T21:18:33.417-00:00",
        "included_in_blocks":
          [ "BL5K2sQLF25uYhT3ggeBHCAGkjuj7D3DNa8NSZmcJBKNfdnbpyG" ] },
      { "delegate": "tz1NEKxGEHsFufk87CVZcrqWu8o22qh46GK6",
        "reception_time": "2022-01-18T21:18:33.402-00:00",
        "included_in_blocks":
          [ "BL5K2sQLF25uYhT3ggeBHCAGkjuj7D3DNa8NSZmcJBKNfdnbpyG" ] },
      { "delegate": "tz1bxVgPCiveFHSand7zn22S8ZBtvNQbqgqU",
        "reception_time": "2022-01-18T21:18:33.179-00:00",
        "included_in_blocks":
          [ "BL5K2sQLF25uYhT3ggeBHCAGkjuj7D3DNa8NSZmcJBKNfdnbpyG" ] },
      { "delegate": "tz1fwnfJNgiDACshK9avfRfFbMaXrs3ghoJa",
        "reception_time": "2022-01-18T21:18:33.394-00:00",
        "included_in_blocks":
          [ "BL5K2sQLF25uYhT3ggeBHCAGkjuj7D3DNa8NSZmcJBKNfdnbpyG" ] },
      { "delegate": "tz1RCFbB9GpALpsZtu6J58sb74dm8qe6XBzv",
        "reception_time": "2022-01-18T21:18:33.171-00:00",
        "included_in_blocks":
          [ "BL5K2sQLF25uYhT3ggeBHCAGkjuj7D3DNa8NSZmcJBKNfdnbpyG" ] },
      { "delegate": "tz1NSDFKuRyzHxpfG1AMkyCwEiZ52cbR2mRW",
        "reception_time": "2022-01-18T21:18:33.197-00:00",
        "included_in_blocks":
          [ "BL5K2sQLF25uYhT3ggeBHCAGkjuj7D3DNa8NSZmcJBKNfdnbpyG" ] },
      { "delegate": "tz1RjoHc98dBoqaH2jawF62XNKh7YsHwbkEv",
        "reception_time": "2022-01-18T21:18:33.642-00:00",
        "included_in_blocks":
          [ "BL5K2sQLF25uYhT3ggeBHCAGkjuj7D3DNa8NSZmcJBKNfdnbpyG" ] },
      { "delegate": "tz1ei4WtWEMEJekSv8qDnu9PExG6Q8HgRGr3",
        "reception_time": "2022-01-18T21:18:32.923-00:00",
        "included_in_blocks":
          [ "BL5K2sQLF25uYhT3ggeBHCAGkjuj7D3DNa8NSZmcJBKNfdnbpyG" ] },
      { "delegate": "tz1WBfwbT66FC6BTLexc2BoyCCBM9LG7pnVW",
        "reception_time": "2022-01-18T21:18:32.760-00:00",
        "included_in_blocks":
          [ "BL5K2sQLF25uYhT3ggeBHCAGkjuj7D3DNa8NSZmcJBKNfdnbpyG" ] },
      { "delegate": "tz1Nf6tsK4G6bBqgSQERy4nUtkHNKUVdh7q1",
        "reception_time": "2022-01-18T21:18:32.580-00:00",
        "included_in_blocks":
          [ "BL5K2sQLF25uYhT3ggeBHCAGkjuj7D3DNa8NSZmcJBKNfdnbpyG" ] },
      { "delegate": "tz1gfArv665EUkSg2ojMBzcbfwuPxAvqPvjo",
        "reception_time": "2022-01-18T21:18:32.704-00:00",
        "included_in_blocks":
          [ "BL5K2sQLF25uYhT3ggeBHCAGkjuj7D3DNa8NSZmcJBKNfdnbpyG" ] },
      { "delegate": "tz1KfEsrtDaA1sX7vdM4qmEPWuSytuqCDp5j",
        "reception_time": "2022-01-18T21:18:33.094-00:00",
        "included_in_blocks":
          [ "BL5K2sQLF25uYhT3ggeBHCAGkjuj7D3DNa8NSZmcJBKNfdnbpyG" ] },
      { "delegate": "tz3UoffC7FG7zfpmvmjUmUeAaHvzdcUvAj6r",
        "reception_time": "2022-01-18T21:18:33.777-00:00",
        "included_in_blocks":
          [ "BL5K2sQLF25uYhT3ggeBHCAGkjuj7D3DNa8NSZmcJBKNfdnbpyG" ] },
      { "delegate": "tz3QT9dHYKDqh563chVa6za8526ys1UKfRfL",
        "reception_time": "2022-01-18T21:18:32.596-00:00",
        "included_in_blocks":
          [ "BL5K2sQLF25uYhT3ggeBHCAGkjuj7D3DNa8NSZmcJBKNfdnbpyG" ] },
      { "delegate": "tz3S6BBeKgJGXxvLyZ1xzXzMPn11nnFtq5L9",
        "reception_time": "2022-01-18T21:18:32.587-00:00",
        "included_in_blocks":
          [ "BL5K2sQLF25uYhT3ggeBHCAGkjuj7D3DNa8NSZmcJBKNfdnbpyG" ] },
      { "delegate": "tz1dwu9aYb7CRNq4Y2zAjipdjFuSVKhHS8vA",
        "reception_time": "2022-01-18T21:18:32.612-00:00",
        "included_in_blocks":
          [ "BL5K2sQLF25uYhT3ggeBHCAGkjuj7D3DNa8NSZmcJBKNfdnbpyG" ] },
      { "delegate": "tz3QCNyySViKHmeSr45kzDxzchys7NiXCWoa",
        "reception_time": "2022-01-18T21:18:32.570-00:00",
        "included_in_blocks":
          [ "BL5K2sQLF25uYhT3ggeBHCAGkjuj7D3DNa8NSZmcJBKNfdnbpyG" ] },
      { "delegate": "tz1iPHM2Xx2hwmzcr1EG1zzrV6oKafVoA91m",
        "reception_time": "2022-01-18T21:18:32.616-00:00",
        "included_in_blocks":
          [ "BL5K2sQLF25uYhT3ggeBHCAGkjuj7D3DNa8NSZmcJBKNfdnbpyG" ] },
      { "delegate": "tz1dNVDWPf3Q59SdJqnjdnu277iyvReiRS9M",
        "reception_time": "2022-01-18T21:18:32.736-00:00",
        "included_in_blocks":
          [ "BL5K2sQLF25uYhT3ggeBHCAGkjuj7D3DNa8NSZmcJBKNfdnbpyG" ] },
      { "delegate": "tz1d6Fx42mYgVFnHUW8T8A7WBfJ6nD9pVok8",
        "reception_time": "2022-01-18T21:18:32.529-00:00",
        "included_in_blocks":
          [ "BL5K2sQLF25uYhT3ggeBHCAGkjuj7D3DNa8NSZmcJBKNfdnbpyG" ] },
      { "delegate": "tz1fUjvVhJrHLZCbhPNvDRckxApqbkievJHN",
        "reception_time": "2022-01-18T21:18:32.502-00:00",
        "included_in_blocks":
          [ "BL5K2sQLF25uYhT3ggeBHCAGkjuj7D3DNa8NSZmcJBKNfdnbpyG" ] },
      { "delegate": "tz1fb7c66UwePkkfDXz4ajFaBP9hVNLdS7JJ",
        "reception_time": "2022-01-18T21:18:32.483-00:00",
        "included_in_blocks":
          [ "BL5K2sQLF25uYhT3ggeBHCAGkjuj7D3DNa8NSZmcJBKNfdnbpyG" ] },
      { "delegate": "tz1LmaFsWRkjr7QMCx5PtV6xTUz3AmEpKQiF",
        "reception_time": "2022-01-18T21:18:32.685-00:00",
        "included_in_blocks":
          [ "BL5K2sQLF25uYhT3ggeBHCAGkjuj7D3DNa8NSZmcJBKNfdnbpyG" ] },
      { "delegate": "tz3QSGPoRp3Kn7n3vY24eYeu3Peuqo45LQ4D",
        "reception_time": "2022-01-18T21:18:32.454-00:00",
        "included_in_blocks":
          [ "BL5K2sQLF25uYhT3ggeBHCAGkjuj7D3DNa8NSZmcJBKNfdnbpyG" ] },
      { "delegate": "tz1TRspM5SeZpaQUhzByXbEvqKF1vnCM2YTK",
        "reception_time": "2022-01-18T21:18:32.464-00:00",
        "included_in_blocks":
          [ "BL5K2sQLF25uYhT3ggeBHCAGkjuj7D3DNa8NSZmcJBKNfdnbpyG" ] },
      { "delegate": "tz3iJu5vrKZcsqRPs8yJ61UDoeEXZmtro4qh",
        "reception_time": "2022-01-18T21:18:32.500-00:00",
        "included_in_blocks":
          [ "BL5K2sQLF25uYhT3ggeBHCAGkjuj7D3DNa8NSZmcJBKNfdnbpyG" ] },
      { "delegate": "tz3bTdwZinP8U1JmSweNzVKhmwafqWmFWRfk",
        "reception_time": "2022-01-18T21:18:32.520-00:00",
        "included_in_blocks":
          [ "BL5K2sQLF25uYhT3ggeBHCAGkjuj7D3DNa8NSZmcJBKNfdnbpyG" ] },
      { "delegate": "tz3WMqdzXqRWXwyvj5Hp2H7QEepaUuS7vd9K",
        "reception_time": "2022-01-18T21:18:32.766-00:00",
        "included_in_blocks":
          [ "BL5K2sQLF25uYhT3ggeBHCAGkjuj7D3DNa8NSZmcJBKNfdnbpyG" ] },
      { "delegate": "tz3gtoUxdudfBRcNY7iVdKPHCYYX6xdPpoRS",
        "reception_time": "2022-01-18T21:18:32.471-00:00",
        "included_in_blocks":
          [ "BL5K2sQLF25uYhT3ggeBHCAGkjuj7D3DNa8NSZmcJBKNfdnbpyG" ] },
      { "delegate": "tz3hw2kqXhLUvY65ca1eety2oQTpAvd34R9Q",
        "reception_time": "2022-01-18T21:18:32.406-00:00",
        "included_in_blocks":
          [ "BL5K2sQLF25uYhT3ggeBHCAGkjuj7D3DNa8NSZmcJBKNfdnbpyG" ] },
      { "delegate": "tz1aqcYgG6NuViML5vdWhohHJBYxcDVLNUsE",
        "reception_time": "2022-01-18T21:18:32.393-00:00",
        "included_in_blocks":
          [ "BL5K2sQLF25uYhT3ggeBHCAGkjuj7D3DNa8NSZmcJBKNfdnbpyG" ] },
      { "delegate": "tz3Zhs2dygr55yHyQyKjntAtY9bgfhLZ4Xj1",
        "reception_time": "2022-01-18T21:18:32.442-00:00",
        "included_in_blocks":
          [ "BL5K2sQLF25uYhT3ggeBHCAGkjuj7D3DNa8NSZmcJBKNfdnbpyG" ] },
      { "delegate": "tz1VmiY38m3y95HqQLjMwqnMS7sdMfGomzKi",
        "reception_time": "2022-01-18T21:18:32.442-00:00",
        "included_in_blocks":
          [ "BL5K2sQLF25uYhT3ggeBHCAGkjuj7D3DNa8NSZmcJBKNfdnbpyG" ] },
      { "delegate": "tz3RKYFsLuQzKBtmYuLNas7uMu3AsYd4QdsA",
        "reception_time": "2022-01-18T21:18:32.400-00:00",
        "included_in_blocks":
          [ "BL5K2sQLF25uYhT3ggeBHCAGkjuj7D3DNa8NSZmcJBKNfdnbpyG" ] },
      { "delegate": "tz1TzaNn7wSQSP5gYPXCnNzBCpyMiidCq1PX",
        "reception_time": "2022-01-18T21:18:32.385-00:00",
        "included_in_blocks":
          [ "BL5K2sQLF25uYhT3ggeBHCAGkjuj7D3DNa8NSZmcJBKNfdnbpyG" ] },
      { "delegate": "tz3VEZ4k6a4Wx42iyev6i2aVAptTRLEAivNN",
        "reception_time": "2022-01-18T21:18:32.733-00:00",
        "included_in_blocks":
          [ "BL5K2sQLF25uYhT3ggeBHCAGkjuj7D3DNa8NSZmcJBKNfdnbpyG" ] },
      { "delegate": "tz1S8MNvuFEUsWgjHvi3AxibRBf388NhT1q2",
        "reception_time": "2022-01-18T21:18:32.620-00:00",
        "included_in_blocks":
          [ "BL5K2sQLF25uYhT3ggeBHCAGkjuj7D3DNa8NSZmcJBKNfdnbpyG" ] },
      { "delegate": "tz3NxTnke1acr8o3h5y9ytf5awQBGNJUKzVU",
        "reception_time": "2022-01-18T21:18:32.377-00:00",
        "included_in_blocks":
          [ "BL5K2sQLF25uYhT3ggeBHCAGkjuj7D3DNa8NSZmcJBKNfdnbpyG" ] },
      { "delegate": "tz1irJKkXS2DBWkU1NnmFQx1c1L7pbGg4yhk",
        "reception_time": "2022-01-18T21:18:32.342-00:00",
        "included_in_blocks":
          [ "BL5K2sQLF25uYhT3ggeBHCAGkjuj7D3DNa8NSZmcJBKNfdnbpyG" ] },
      { "delegate": "tz3NExpXn9aPNZPorRE4SdjJ2RGrfbJgMAaV",
        "reception_time": "2022-01-18T21:18:32.609-00:00",
        "included_in_blocks":
          [ "BL5K2sQLF25uYhT3ggeBHCAGkjuj7D3DNa8NSZmcJBKNfdnbpyG" ] },
      { "delegate": "tz1Ldzz6k1BHdhuKvAtMRX7h5kJSMHESMHLC",
        "reception_time": "2022-01-18T21:18:32.182-00:00",
        "included_in_blocks":
          [ "BL5K2sQLF25uYhT3ggeBHCAGkjuj7D3DNa8NSZmcJBKNfdnbpyG" ] },
      { "delegate": "tz1gUNyn3hmnEWqkusWPzxRaon1cs7ndWh7h",
        "reception_time": "2022-01-18T21:18:32.351-00:00",
        "included_in_blocks":
          [ "BL5K2sQLF25uYhT3ggeBHCAGkjuj7D3DNa8NSZmcJBKNfdnbpyG" ] },
      { "delegate": "tz1WCd2jm4uSt4vntk4vSuUWoZQGhLcDuR9q",
        "reception_time": "2022-01-18T21:18:32.389-00:00",
        "included_in_blocks":
          [ "BL5K2sQLF25uYhT3ggeBHCAGkjuj7D3DNa8NSZmcJBKNfdnbpyG" ] },
      { "delegate": "tz1VQnqCCqX4K5sP3FNkVSNKTdCAMJDd3E1n",
        "reception_time": "2022-01-18T21:18:32.307-00:00",
        "included_in_blocks":
          [ "BL5K2sQLF25uYhT3ggeBHCAGkjuj7D3DNa8NSZmcJBKNfdnbpyG" ] },
      { "delegate": "tz1dbfppLAAxXZNtf2SDps7rch3qfUznKSoK",
        "reception_time": "2022-01-18T21:18:32.130-00:00",
        "included_in_blocks":
          [ "BL5K2sQLF25uYhT3ggeBHCAGkjuj7D3DNa8NSZmcJBKNfdnbpyG" ] },
      { "delegate": "tz1eEnQhbwf6trb8Q8mPb2RaPkNk2rN7BKi8",
        "reception_time": "2022-01-18T21:18:32.151-00:00",
        "included_in_blocks":
          [ "BL5K2sQLF25uYhT3ggeBHCAGkjuj7D3DNa8NSZmcJBKNfdnbpyG" ] },
      { "delegate": "tz1Scdr2HsZiQjc7bHMeBbmDRXYVvdhjJbBh",
        "reception_time": "2022-01-18T21:18:32.178-00:00",
        "included_in_blocks":
          [ "BL5K2sQLF25uYhT3ggeBHCAGkjuj7D3DNa8NSZmcJBKNfdnbpyG" ] },
      { "delegate": "tz1aDiEJf9ztRrAJEXZfcG3CKimoKsGhwVAi",
        "reception_time": "2022-01-18T21:18:32.161-00:00",
        "included_in_blocks":
          [ "BL5K2sQLF25uYhT3ggeBHCAGkjuj7D3DNa8NSZmcJBKNfdnbpyG" ] },
      { "delegate": "tz1fPKAtsYydh4f1wfWNfeNxWYu72TmM48fu",
        "reception_time": "2022-01-18T21:18:32.353-00:00",
        "included_in_blocks":
          [ "BL5K2sQLF25uYhT3ggeBHCAGkjuj7D3DNa8NSZmcJBKNfdnbpyG" ] },
      { "delegate": "tz1P2Po7YM526ughEsRbY4oR9zaUPDZjxFrb",
        "reception_time": "2022-01-18T21:18:32.142-00:00",
        "included_in_blocks":
          [ "BL5K2sQLF25uYhT3ggeBHCAGkjuj7D3DNa8NSZmcJBKNfdnbpyG" ] },
      { "delegate": "tz1TXzyaKUA8wsWefdSnyaYFnV2M3vCV7er9",
        "reception_time": "2022-01-18T21:18:32.158-00:00",
        "included_in_blocks":
          [ "BL5K2sQLF25uYhT3ggeBHCAGkjuj7D3DNa8NSZmcJBKNfdnbpyG" ] },
      { "delegate": "tz1aKxnrzx5PXZJe7unufEswVRCMU9yafmfb",
        "reception_time": "2022-01-18T21:18:32.139-00:00",
        "included_in_blocks":
          [ "BL5K2sQLF25uYhT3ggeBHCAGkjuj7D3DNa8NSZmcJBKNfdnbpyG" ] } ] }