{ "blocks":
    [ { "hash": "BLXSC8ajAzLHpML4zik3qMybX9SKWGwwjiiG27VJavEocCa5WKY",
        "delegate": "tz1irJKkXS2DBWkU1NnmFQx1c1L7pbGg4yhk",
        "reception_time": "2022-01-18T21:08:26.272-00:00",
        "timestamp": "2022-01-18T21:08:20Z" } ],
  "endorsements":
    [ { "delegate": "tz1SYq214SCBy9naR6cvycQsYcUGpBqQAE8d" },
      { "delegate": "tz1eEnQhbwf6trb8Q8mPb2RaPkNk2rN7BKi8",
        "reception_time": "2022-01-18T21:08:26.126-00:00",
        "errors":
          [ { "kind": "temporary",
              "id": "proto.011-PtHangz2.prefilter.outdated_endorsement" } ],
        "included_in_blocks":
          [ "BKioCZRhLS9dZgzDV62CLWw2tUTCc7Gur87mW85qCqbVKtAr7Zk" ] },
      { "delegate": "tz1Zhv3RkfU2pHrmaiDyxp7kFZpZrUCu1CiF",
        "reception_time": "2022-01-18T21:08:26.022-00:00",
        "errors":
          [ { "kind": "temporary",
              "id": "proto.011-PtHangz2.prefilter.outdated_endorsement" } ],
        "included_in_blocks":
          [ "BKioCZRhLS9dZgzDV62CLWw2tUTCc7Gur87mW85qCqbVKtAr7Zk" ] },
      { "delegate": "tz1P2Po7YM526ughEsRbY4oR9zaUPDZjxFrb",
        "reception_time": "2022-01-18T21:08:25.834-00:00",
        "errors":
          [ { "kind": "temporary",
              "id": "proto.011-PtHangz2.prefilter.outdated_endorsement" } ],
        "included_in_blocks":
          [ "BKioCZRhLS9dZgzDV62CLWw2tUTCc7Gur87mW85qCqbVKtAr7Zk" ] },
      { "delegate": "tz1irJKkXS2DBWkU1NnmFQx1c1L7pbGg4yhk",
        "reception_time": "2022-01-18T21:08:25.711-00:00",
        "errors":
          [ { "kind": "temporary",
              "id": "proto.011-PtHangz2.prefilter.outdated_endorsement" } ],
        "included_in_blocks":
          [ "BKioCZRhLS9dZgzDV62CLWw2tUTCc7Gur87mW85qCqbVKtAr7Zk" ] },
      { "delegate": "tz1S8e9GgdZG78XJRB3NqabfWeM37GnhZMWQ",
        "reception_time": "2022-01-18T21:08:25.686-00:00",
        "errors":
          [ { "kind": "temporary",
              "id": "proto.011-PtHangz2.prefilter.outdated_endorsement" } ],
        "included_in_blocks":
          [ "BKioCZRhLS9dZgzDV62CLWw2tUTCc7Gur87mW85qCqbVKtAr7Zk" ] },
      { "delegate": "tz1XXayQohB8XRXN7kMoHbf2NFwNiH3oMRQQ",
        "reception_time": "2022-01-18T21:08:25.667-00:00",
        "errors":
          [ { "kind": "temporary",
              "id": "proto.011-PtHangz2.prefilter.outdated_endorsement" } ],
        "included_in_blocks":
          [ "BKioCZRhLS9dZgzDV62CLWw2tUTCc7Gur87mW85qCqbVKtAr7Zk" ] },
      { "delegate": "tz1YiuvpfeVAHbnU8akcWErNfQGFHNQ7F45z",
        "reception_time": "2022-01-18T21:08:31.770-00:00",
        "included_in_blocks":
          [ "BKioCZRhLS9dZgzDV62CLWw2tUTCc7Gur87mW85qCqbVKtAr7Zk" ] },
      { "delegate": "tz1NMNQYrYrfNpmUqQrMhJypf6ovnaDZhJHM",
        "reception_time": "2022-01-18T21:08:31.552-00:00",
        "included_in_blocks":
          [ "BKioCZRhLS9dZgzDV62CLWw2tUTCc7Gur87mW85qCqbVKtAr7Zk" ] },
      { "delegate": "tz1TRqbYbUf2GyrjErf3hBzgBJPzW8y36qEs",
        "reception_time": "2022-01-18T21:08:31.346-00:00",
        "included_in_blocks":
          [ "BKioCZRhLS9dZgzDV62CLWw2tUTCc7Gur87mW85qCqbVKtAr7Zk" ] },
      { "delegate": "tz1TcH4Nb3aHNDJ7CGZhU7jgAK1BkSP4Lxds",
        "reception_time": "2022-01-18T21:08:30.526-00:00",
        "included_in_blocks":
          [ "BKioCZRhLS9dZgzDV62CLWw2tUTCc7Gur87mW85qCqbVKtAr7Zk" ] },
      { "delegate": "tz1ZcTRk5uxD86EFEn1vvNffWWqJy7q5eVhc",
        "reception_time": "2022-01-18T21:08:30.398-00:00",
        "included_in_blocks":
          [ "BKioCZRhLS9dZgzDV62CLWw2tUTCc7Gur87mW85qCqbVKtAr7Zk" ] },
      { "delegate": "tz1PFeoTuFen8jAMRHajBySNyCwLmY5RqF9M",
        "reception_time": "2022-01-18T21:08:30.208-00:00",
        "included_in_blocks":
          [ "BKioCZRhLS9dZgzDV62CLWw2tUTCc7Gur87mW85qCqbVKtAr7Zk" ] },
      { "delegate": "tz1cM8Xc7ZP1TrjkTeKq4PeRhtbnwXSBR6Sw",
        "reception_time": "2022-01-18T21:08:30.274-00:00",
        "included_in_blocks":
          [ "BKioCZRhLS9dZgzDV62CLWw2tUTCc7Gur87mW85qCqbVKtAr7Zk" ] },
      { "delegate": "tz3NExpXn9aPNZPorRE4SdjJ2RGrfbJgMAaV",
        "reception_time": "2022-01-18T21:08:29.981-00:00",
        "included_in_blocks":
          [ "BKioCZRhLS9dZgzDV62CLWw2tUTCc7Gur87mW85qCqbVKtAr7Zk" ] },
      { "delegate": "tz3UoffC7FG7zfpmvmjUmUeAaHvzdcUvAj6r",
        "reception_time": "2022-01-18T21:08:29.880-00:00",
        "included_in_blocks":
          [ "BKioCZRhLS9dZgzDV62CLWw2tUTCc7Gur87mW85qCqbVKtAr7Zk" ] },
      { "delegate": "tz3bvNMQ95vfAYtG8193ymshqjSvmxiCUuR5",
        "reception_time": "2022-01-18T21:08:29.652-00:00",
        "included_in_blocks":
          [ "BKioCZRhLS9dZgzDV62CLWw2tUTCc7Gur87mW85qCqbVKtAr7Zk" ] },
      { "delegate": "tz1aRoaRhSpRYvFdyvgWLL6TGyRoGF51wDjM",
        "reception_time": "2022-01-18T21:08:29.566-00:00",
        "included_in_blocks":
          [ "BKioCZRhLS9dZgzDV62CLWw2tUTCc7Gur87mW85qCqbVKtAr7Zk" ] },
      { "delegate": "tz1abmz7jiCV2GH2u81LRrGgAFFgvQgiDiaf",
        "reception_time": "2022-01-18T21:08:29.690-00:00",
        "included_in_blocks":
          [ "BKioCZRhLS9dZgzDV62CLWw2tUTCc7Gur87mW85qCqbVKtAr7Zk" ] },
      { "delegate": "tz1fwnfJNgiDACshK9avfRfFbMaXrs3ghoJa",
        "reception_time": "2022-01-18T21:08:29.675-00:00",
        "included_in_blocks":
          [ "BKioCZRhLS9dZgzDV62CLWw2tUTCc7Gur87mW85qCqbVKtAr7Zk" ] },
      { "delegate": "tz1RjoHc98dBoqaH2jawF62XNKh7YsHwbkEv",
        "reception_time": "2022-01-18T21:08:29.511-00:00",
        "included_in_blocks":
          [ "BKioCZRhLS9dZgzDV62CLWw2tUTCc7Gur87mW85qCqbVKtAr7Zk" ] },
      { "delegate": "tz3RDC3Jdn4j15J7bBHZd29EUee9gVB1CxD9",
        "reception_time": "2022-01-18T21:08:29.155-00:00",
        "included_in_blocks":
          [ "BKioCZRhLS9dZgzDV62CLWw2tUTCc7Gur87mW85qCqbVKtAr7Zk" ] },
      { "delegate": "tz2FCNBrERXtaTtNX6iimR1UJ5JSDxvdHM93",
        "reception_time": "2022-01-18T21:08:29.127-00:00",
        "included_in_blocks":
          [ "BKioCZRhLS9dZgzDV62CLWw2tUTCc7Gur87mW85qCqbVKtAr7Zk" ] },
      { "delegate": "tz3VEZ4k6a4Wx42iyev6i2aVAptTRLEAivNN",
        "reception_time": "2022-01-18T21:08:28.992-00:00",
        "included_in_blocks":
          [ "BKioCZRhLS9dZgzDV62CLWw2tUTCc7Gur87mW85qCqbVKtAr7Zk" ] },
      { "delegate": "tz1NEKxGEHsFufk87CVZcrqWu8o22qh46GK6",
        "reception_time": "2022-01-18T21:08:28.966-00:00",
        "included_in_blocks":
          [ "BKioCZRhLS9dZgzDV62CLWw2tUTCc7Gur87mW85qCqbVKtAr7Zk" ] },
      { "delegate": "tz3RB4aoyjov4KEVRbuhvQ1CKJgBJMWhaeB8",
        "reception_time": "2022-01-18T21:08:28.999-00:00",
        "included_in_blocks":
          [ "BKioCZRhLS9dZgzDV62CLWw2tUTCc7Gur87mW85qCqbVKtAr7Zk" ] },
      { "delegate": "tz3WMqdzXqRWXwyvj5Hp2H7QEepaUuS7vd9K",
        "reception_time": "2022-01-18T21:08:28.652-00:00",
        "included_in_blocks":
          [ "BKioCZRhLS9dZgzDV62CLWw2tUTCc7Gur87mW85qCqbVKtAr7Zk" ] },
      { "delegate": "tz1RCFbB9GpALpsZtu6J58sb74dm8qe6XBzv",
        "reception_time": "2022-01-18T21:08:28.699-00:00",
        "included_in_blocks":
          [ "BKioCZRhLS9dZgzDV62CLWw2tUTCc7Gur87mW85qCqbVKtAr7Zk" ] },
      { "delegate": "tz1S8MNvuFEUsWgjHvi3AxibRBf388NhT1q2",
        "reception_time": "2022-01-18T21:08:28.590-00:00",
        "included_in_blocks":
          [ "BKioCZRhLS9dZgzDV62CLWw2tUTCc7Gur87mW85qCqbVKtAr7Zk" ] },
      { "delegate": "tz1MH387oMRFco3kzz8t3wuqdbpAyTcKZtsg",
        "reception_time": "2022-01-18T21:08:28.501-00:00",
        "included_in_blocks":
          [ "BKioCZRhLS9dZgzDV62CLWw2tUTCc7Gur87mW85qCqbVKtAr7Zk" ] },
      { "delegate": "tz3NDpRj6WBrJPikcPVHRBEjWKxFw3c6eQPS",
        "reception_time": "2022-01-18T21:08:28.634-00:00",
        "included_in_blocks":
          [ "BKioCZRhLS9dZgzDV62CLWw2tUTCc7Gur87mW85qCqbVKtAr7Zk" ] },
      { "delegate": "tz1fZ767VDbqx4DeKiFswPSHh513f51mKEUZ",
        "reception_time": "2022-01-18T21:08:28.490-00:00",
        "included_in_blocks":
          [ "BKioCZRhLS9dZgzDV62CLWw2tUTCc7Gur87mW85qCqbVKtAr7Zk" ] },
      { "delegate": "tz1Nf6tsK4G6bBqgSQERy4nUtkHNKUVdh7q1",
        "reception_time": "2022-01-18T21:08:28.555-00:00",
        "included_in_blocks":
          [ "BKioCZRhLS9dZgzDV62CLWw2tUTCc7Gur87mW85qCqbVKtAr7Zk" ] },
      { "delegate": "tz1KfEsrtDaA1sX7vdM4qmEPWuSytuqCDp5j",
        "reception_time": "2022-01-18T21:08:28.400-00:00",
        "included_in_blocks":
          [ "BKioCZRhLS9dZgzDV62CLWw2tUTCc7Gur87mW85qCqbVKtAr7Zk" ] },
      { "delegate": "tz1TEc75UKXv4W5cwi14Na3NtqFD51yKQi7h",
        "reception_time": "2022-01-18T21:08:28.256-00:00",
        "included_in_blocks":
          [ "BKioCZRhLS9dZgzDV62CLWw2tUTCc7Gur87mW85qCqbVKtAr7Zk" ] },
      { "delegate": "tz1ci1ARnm8JoYV16Hbe4FoxX17yFEAQVytg",
        "reception_time": "2022-01-18T21:08:27.852-00:00",
        "included_in_blocks":
          [ "BKioCZRhLS9dZgzDV62CLWw2tUTCc7Gur87mW85qCqbVKtAr7Zk" ] },
      { "delegate": "tz3bTdwZinP8U1JmSweNzVKhmwafqWmFWRfk",
        "reception_time": "2022-01-18T21:08:27.665-00:00",
        "included_in_blocks":
          [ "BKioCZRhLS9dZgzDV62CLWw2tUTCc7Gur87mW85qCqbVKtAr7Zk" ] },
      { "delegate": "tz1ei4WtWEMEJekSv8qDnu9PExG6Q8HgRGr3",
        "reception_time": "2022-01-18T21:08:27.737-00:00",
        "included_in_blocks":
          [ "BKioCZRhLS9dZgzDV62CLWw2tUTCc7Gur87mW85qCqbVKtAr7Zk" ] },
      { "delegate": "tz3adcvQaKXTCg12zbninqo3q8ptKKtDFTLv",
        "reception_time": "2022-01-18T21:08:27.726-00:00",
        "included_in_blocks":
          [ "BKioCZRhLS9dZgzDV62CLWw2tUTCc7Gur87mW85qCqbVKtAr7Zk" ] },
      { "delegate": "tz1YhNsiRRU8aHNGg7NK3uuP6UDAyacJernB",
        "reception_time": "2022-01-18T21:08:27.842-00:00",
        "included_in_blocks":
          [ "BKioCZRhLS9dZgzDV62CLWw2tUTCc7Gur87mW85qCqbVKtAr7Zk" ] },
      { "delegate": "tz1bZ8vsMAXmaWEV7FRnyhcuUs2fYMaQ6Hkk",
        "reception_time": "2022-01-18T21:08:27.929-00:00",
        "included_in_blocks":
          [ "BKioCZRhLS9dZgzDV62CLWw2tUTCc7Gur87mW85qCqbVKtAr7Zk" ] },
      { "delegate": "tz3e7LbZvUtoXhpUD1yb6wuFodZpfYRb9nWJ",
        "reception_time": "2022-01-18T21:08:27.542-00:00",
        "included_in_blocks":
          [ "BKioCZRhLS9dZgzDV62CLWw2tUTCc7Gur87mW85qCqbVKtAr7Zk" ] },
      { "delegate": "tz1cSj7fTex3JPd1p1LN1fwek6AV1kH93Wwc",
        "reception_time": "2022-01-18T21:08:27.569-00:00",
        "included_in_blocks":
          [ "BKioCZRhLS9dZgzDV62CLWw2tUTCc7Gur87mW85qCqbVKtAr7Zk" ] },
      { "delegate": "tz3S6BBeKgJGXxvLyZ1xzXzMPn11nnFtq5L9",
        "reception_time": "2022-01-18T21:08:27.542-00:00",
        "included_in_blocks":
          [ "BKioCZRhLS9dZgzDV62CLWw2tUTCc7Gur87mW85qCqbVKtAr7Zk" ] },
      { "delegate": "tz3gtoUxdudfBRcNY7iVdKPHCYYX6xdPpoRS",
        "reception_time": "2022-01-18T21:08:27.542-00:00",
        "included_in_blocks":
          [ "BKioCZRhLS9dZgzDV62CLWw2tUTCc7Gur87mW85qCqbVKtAr7Zk" ] },
      { "delegate": "tz1gfArv665EUkSg2ojMBzcbfwuPxAvqPvjo",
        "reception_time": "2022-01-18T21:08:27.555-00:00",
        "included_in_blocks":
          [ "BKioCZRhLS9dZgzDV62CLWw2tUTCc7Gur87mW85qCqbVKtAr7Zk" ] },
      { "delegate": "tz3QSGPoRp3Kn7n3vY24eYeu3Peuqo45LQ4D",
        "reception_time": "2022-01-18T21:08:27.542-00:00",
        "included_in_blocks":
          [ "BKioCZRhLS9dZgzDV62CLWw2tUTCc7Gur87mW85qCqbVKtAr7Zk" ] },
      { "delegate": "tz3iJu5vrKZcsqRPs8yJ61UDoeEXZmtro4qh",
        "reception_time": "2022-01-18T21:08:27.542-00:00",
        "included_in_blocks":
          [ "BKioCZRhLS9dZgzDV62CLWw2tUTCc7Gur87mW85qCqbVKtAr7Zk" ] },
      { "delegate": "tz1QLXqnfN51dkjeghXvKHkJfhvGiM5gK4tc",
        "reception_time": "2022-01-18T21:08:27.542-00:00",
        "included_in_blocks":
          [ "BKioCZRhLS9dZgzDV62CLWw2tUTCc7Gur87mW85qCqbVKtAr7Zk" ] },
      { "delegate": "tz1Ldzz6k1BHdhuKvAtMRX7h5kJSMHESMHLC",
        "reception_time": "2022-01-18T21:08:27.542-00:00",
        "included_in_blocks":
          [ "BKioCZRhLS9dZgzDV62CLWw2tUTCc7Gur87mW85qCqbVKtAr7Zk" ] },
      { "delegate": "tz1ZPh7XfUaJXUDvkrBxmS1BjEM1i62hiPpM",
        "reception_time": "2022-01-18T21:08:27.542-00:00",
        "included_in_blocks":
          [ "BKioCZRhLS9dZgzDV62CLWw2tUTCc7Gur87mW85qCqbVKtAr7Zk" ] },
      { "delegate": "tz1VQnqCCqX4K5sP3FNkVSNKTdCAMJDd3E1n",
        "reception_time": "2022-01-18T21:08:27.267-00:00",
        "included_in_blocks":
          [ "BKioCZRhLS9dZgzDV62CLWw2tUTCc7Gur87mW85qCqbVKtAr7Zk" ] },
      { "delegate": "tz1iZEKy4LaAjnTmn2RuGDf2iqdAQKnRi8kY",
        "reception_time": "2022-01-18T21:08:27.542-00:00",
        "included_in_blocks":
          [ "BKioCZRhLS9dZgzDV62CLWw2tUTCc7Gur87mW85qCqbVKtAr7Zk" ] },
      { "delegate": "tz1gUNyn3hmnEWqkusWPzxRaon1cs7ndWh7h",
        "reception_time": "2022-01-18T21:08:27.267-00:00",
        "included_in_blocks":
          [ "BKioCZRhLS9dZgzDV62CLWw2tUTCc7Gur87mW85qCqbVKtAr7Zk" ] },
      { "delegate": "tz3hw2kqXhLUvY65ca1eety2oQTpAvd34R9Q",
        "reception_time": "2022-01-18T21:08:27.542-00:00",
        "included_in_blocks":
          [ "BKioCZRhLS9dZgzDV62CLWw2tUTCc7Gur87mW85qCqbVKtAr7Zk" ] },
      { "delegate": "tz1MJx9vhaNRSimcuXPK2rW4fLccQnDAnVKJ",
        "reception_time": "2022-01-18T21:08:27.542-00:00",
        "included_in_blocks":
          [ "BKioCZRhLS9dZgzDV62CLWw2tUTCc7Gur87mW85qCqbVKtAr7Zk" ] },
      { "delegate": "tz3ZbP2pM3nwvXztbuMJwJnDvV5xdpU8UkkD",
        "reception_time": "2022-01-18T21:08:27.542-00:00",
        "included_in_blocks":
          [ "BKioCZRhLS9dZgzDV62CLWw2tUTCc7Gur87mW85qCqbVKtAr7Zk" ] },
      { "delegate": "tz1VmiY38m3y95HqQLjMwqnMS7sdMfGomzKi",
        "reception_time": "2022-01-18T21:08:27.542-00:00",
        "included_in_blocks":
          [ "BKioCZRhLS9dZgzDV62CLWw2tUTCc7Gur87mW85qCqbVKtAr7Zk" ] },
      { "delegate": "tz3Zhs2dygr55yHyQyKjntAtY9bgfhLZ4Xj1",
        "reception_time": "2022-01-18T21:08:27.542-00:00",
        "included_in_blocks":
          [ "BKioCZRhLS9dZgzDV62CLWw2tUTCc7Gur87mW85qCqbVKtAr7Zk" ] },
      { "delegate": "tz3QT9dHYKDqh563chVa6za8526ys1UKfRfL",
        "reception_time": "2022-01-18T21:08:27.542-00:00",
        "included_in_blocks":
          [ "BKioCZRhLS9dZgzDV62CLWw2tUTCc7Gur87mW85qCqbVKtAr7Zk" ] },
      { "delegate": "tz3RKYFsLuQzKBtmYuLNas7uMu3AsYd4QdsA",
        "reception_time": "2022-01-18T21:08:27.542-00:00",
        "included_in_blocks":
          [ "BKioCZRhLS9dZgzDV62CLWw2tUTCc7Gur87mW85qCqbVKtAr7Zk" ] },
      { "delegate": "tz1RV1MBbZMR68tacosb7Mwj6LkbPSUS1er1",
        "reception_time": "2022-01-18T21:08:27.542-00:00",
        "included_in_blocks":
          [ "BKioCZRhLS9dZgzDV62CLWw2tUTCc7Gur87mW85qCqbVKtAr7Zk" ] },
      { "delegate": "tz1WCd2jm4uSt4vntk4vSuUWoZQGhLcDuR9q",
        "reception_time": "2022-01-18T21:08:27.542-00:00",
        "included_in_blocks":
          [ "BKioCZRhLS9dZgzDV62CLWw2tUTCc7Gur87mW85qCqbVKtAr7Zk" ] },
      { "delegate": "tz3NxTnke1acr8o3h5y9ytf5awQBGNJUKzVU",
        "reception_time": "2022-01-18T21:08:27.542-00:00",
        "included_in_blocks":
          [ "BKioCZRhLS9dZgzDV62CLWw2tUTCc7Gur87mW85qCqbVKtAr7Zk" ] },
      { "delegate": "tz1TzaNn7wSQSP5gYPXCnNzBCpyMiidCq1PX",
        "reception_time": "2022-01-18T21:08:27.542-00:00",
        "included_in_blocks":
          [ "BKioCZRhLS9dZgzDV62CLWw2tUTCc7Gur87mW85qCqbVKtAr7Zk" ] },
      { "delegate": "tz1Kt4P8BCaP93AEV4eA7gmpRryWt5hznjCP",
        "reception_time": "2022-01-18T21:08:27.542-00:00",
        "included_in_blocks":
          [ "BKioCZRhLS9dZgzDV62CLWw2tUTCc7Gur87mW85qCqbVKtAr7Zk" ] } ] }