{ "blocks":
    [ { "hash": "BMKQmHtdFo42TNTJ7M1apKFrWM1v2x4c8xhEwrmfAHHuSbWNSA8",
        "delegate": "tz1dRKU4FQ9QRRQPdaH4zCR6gmCmXfcvcgtB",
        "reception_time": "2022-01-19T00:39:08.867-00:00",
        "timestamp": "2022-01-19T00:39:00Z" } ],
  "endorsements":
    [ { "delegate": "tz1dbfppLAAxXZNtf2SDps7rch3qfUznKSoK" },
      { "delegate": "tz1SYq214SCBy9naR6cvycQsYcUGpBqQAE8d" },
      { "delegate": "tz1aRoaRhSpRYvFdyvgWLL6TGyRoGF51wDjM",
        "reception_time": "2022-01-19T00:39:13.703-00:00",
        "included_in_blocks":
          [ "BMPs5dMT6d1nz7Kz4wzUvLgoWTzzBB725kGWckGaxFfEWmVDidZ" ] },
      { "delegate": "tz1acZQd7TdfoiUnD2czHnTHB2TaJQP6gdqo",
        "reception_time": "2022-01-19T00:39:13.437-00:00",
        "included_in_blocks":
          [ "BMPs5dMT6d1nz7Kz4wzUvLgoWTzzBB725kGWckGaxFfEWmVDidZ" ] },
      { "delegate": "tz1SohptP53wDPZhzTWzDUFAUcWF6DMBpaJV",
        "reception_time": "2022-01-19T00:39:13.018-00:00",
        "included_in_blocks":
          [ "BMPs5dMT6d1nz7Kz4wzUvLgoWTzzBB725kGWckGaxFfEWmVDidZ" ] },
      { "delegate": "tz1UvkANVPWppVgMkLnvN7BwYZsCP7vm6NVd",
        "reception_time": "2022-01-19T00:39:12.677-00:00",
        "included_in_blocks":
          [ "BMPs5dMT6d1nz7Kz4wzUvLgoWTzzBB725kGWckGaxFfEWmVDidZ" ] },
      { "delegate": "tz1awXW7wuXy21c66vBudMXQVAPgRnqqwgTH",
        "reception_time": "2022-01-19T00:39:12.512-00:00",
        "included_in_blocks":
          [ "BMPs5dMT6d1nz7Kz4wzUvLgoWTzzBB725kGWckGaxFfEWmVDidZ" ] },
      { "delegate": "tz1Vd1rXpV8hTHbFXCXN3c3qzCsgcU5BZw1e",
        "reception_time": "2022-01-19T00:39:11.917-00:00",
        "included_in_blocks":
          [ "BMPs5dMT6d1nz7Kz4wzUvLgoWTzzBB725kGWckGaxFfEWmVDidZ" ] },
      { "delegate": "tz3NDpRj6WBrJPikcPVHRBEjWKxFw3c6eQPS",
        "reception_time": "2022-01-19T00:39:11.995-00:00",
        "included_in_blocks":
          [ "BMPs5dMT6d1nz7Kz4wzUvLgoWTzzBB725kGWckGaxFfEWmVDidZ" ] },
      { "delegate": "tz1NEKxGEHsFufk87CVZcrqWu8o22qh46GK6",
        "reception_time": "2022-01-19T00:39:12.369-00:00",
        "included_in_blocks":
          [ "BMPs5dMT6d1nz7Kz4wzUvLgoWTzzBB725kGWckGaxFfEWmVDidZ" ] },
      { "delegate": "tz1PeZx7FXy7QRuMREGXGxeipb24RsMMzUNe",
        "reception_time": "2022-01-19T00:39:11.724-00:00",
        "included_in_blocks":
          [ "BMPs5dMT6d1nz7Kz4wzUvLgoWTzzBB725kGWckGaxFfEWmVDidZ" ] },
      { "delegate": "tz3RDC3Jdn4j15J7bBHZd29EUee9gVB1CxD9",
        "reception_time": "2022-01-19T00:39:11.888-00:00",
        "included_in_blocks":
          [ "BMPs5dMT6d1nz7Kz4wzUvLgoWTzzBB725kGWckGaxFfEWmVDidZ" ] },
      { "delegate": "tz1TRqbYbUf2GyrjErf3hBzgBJPzW8y36qEs",
        "reception_time": "2022-01-19T00:39:11.793-00:00",
        "included_in_blocks":
          [ "BMPs5dMT6d1nz7Kz4wzUvLgoWTzzBB725kGWckGaxFfEWmVDidZ" ] },
      { "delegate": "tz1Nf6tsK4G6bBqgSQERy4nUtkHNKUVdh7q1",
        "reception_time": "2022-01-19T00:39:11.706-00:00",
        "included_in_blocks":
          [ "BMPs5dMT6d1nz7Kz4wzUvLgoWTzzBB725kGWckGaxFfEWmVDidZ" ] },
      { "delegate": "tz3bvNMQ95vfAYtG8193ymshqjSvmxiCUuR5",
        "reception_time": "2022-01-19T00:39:11.929-00:00",
        "included_in_blocks":
          [ "BMPs5dMT6d1nz7Kz4wzUvLgoWTzzBB725kGWckGaxFfEWmVDidZ" ] },
      { "delegate": "tz3UoffC7FG7zfpmvmjUmUeAaHvzdcUvAj6r",
        "reception_time": "2022-01-19T00:39:12.673-00:00",
        "included_in_blocks":
          [ "BMPs5dMT6d1nz7Kz4wzUvLgoWTzzBB725kGWckGaxFfEWmVDidZ" ] },
      { "delegate": "tz3NExpXn9aPNZPorRE4SdjJ2RGrfbJgMAaV",
        "reception_time": "2022-01-19T00:39:12.843-00:00",
        "included_in_blocks":
          [ "BMPs5dMT6d1nz7Kz4wzUvLgoWTzzBB725kGWckGaxFfEWmVDidZ" ] },
      { "delegate": "tz1dRKU4FQ9QRRQPdaH4zCR6gmCmXfcvcgtB",
        "reception_time": "2022-01-19T00:39:11.730-00:00",
        "included_in_blocks":
          [ "BMPs5dMT6d1nz7Kz4wzUvLgoWTzzBB725kGWckGaxFfEWmVDidZ" ] },
      { "delegate": "tz2FCNBrERXtaTtNX6iimR1UJ5JSDxvdHM93",
        "reception_time": "2022-01-19T00:39:11.374-00:00",
        "included_in_blocks":
          [ "BMPs5dMT6d1nz7Kz4wzUvLgoWTzzBB725kGWckGaxFfEWmVDidZ" ] },
      { "delegate": "tz1Xsrfv6hn86fp88YfRs6xcKwt2nTqxVZYM",
        "reception_time": "2022-01-19T00:39:12.318-00:00",
        "included_in_blocks":
          [ "BMPs5dMT6d1nz7Kz4wzUvLgoWTzzBB725kGWckGaxFfEWmVDidZ" ] },
      { "delegate": "tz1RjoHc98dBoqaH2jawF62XNKh7YsHwbkEv",
        "reception_time": "2022-01-19T00:39:12.074-00:00",
        "included_in_blocks":
          [ "BMPs5dMT6d1nz7Kz4wzUvLgoWTzzBB725kGWckGaxFfEWmVDidZ" ] },
      { "delegate": "tz1UMCB2AHSTwG7YcGNr31CqYCtGN873royv",
        "reception_time": "2022-01-19T00:39:11.245-00:00",
        "included_in_blocks":
          [ "BMPs5dMT6d1nz7Kz4wzUvLgoWTzzBB725kGWckGaxFfEWmVDidZ" ] },
      { "delegate": "tz1TEc75UKXv4W5cwi14Na3NtqFD51yKQi7h",
        "reception_time": "2022-01-19T00:39:11.225-00:00",
        "included_in_blocks":
          [ "BMPs5dMT6d1nz7Kz4wzUvLgoWTzzBB725kGWckGaxFfEWmVDidZ" ] },
      { "delegate": "tz3VEZ4k6a4Wx42iyev6i2aVAptTRLEAivNN",
        "reception_time": "2022-01-19T00:39:12.051-00:00",
        "included_in_blocks":
          [ "BMPs5dMT6d1nz7Kz4wzUvLgoWTzzBB725kGWckGaxFfEWmVDidZ" ] },
      { "delegate": "tz3WMqdzXqRWXwyvj5Hp2H7QEepaUuS7vd9K",
        "reception_time": "2022-01-19T00:39:11.914-00:00",
        "included_in_blocks":
          [ "BMPs5dMT6d1nz7Kz4wzUvLgoWTzzBB725kGWckGaxFfEWmVDidZ" ] },
      { "delegate": "tz1abmz7jiCV2GH2u81LRrGgAFFgvQgiDiaf",
        "reception_time": "2022-01-19T00:39:11.130-00:00",
        "included_in_blocks":
          [ "BMPs5dMT6d1nz7Kz4wzUvLgoWTzzBB725kGWckGaxFfEWmVDidZ" ] },
      { "delegate": "tz1gfArv665EUkSg2ojMBzcbfwuPxAvqPvjo",
        "reception_time": "2022-01-19T00:39:11.148-00:00",
        "included_in_blocks":
          [ "BMPs5dMT6d1nz7Kz4wzUvLgoWTzzBB725kGWckGaxFfEWmVDidZ" ] },
      { "delegate": "tz1cSj7fTex3JPd1p1LN1fwek6AV1kH93Wwc",
        "reception_time": "2022-01-19T00:39:11.126-00:00",
        "included_in_blocks":
          [ "BMPs5dMT6d1nz7Kz4wzUvLgoWTzzBB725kGWckGaxFfEWmVDidZ" ] },
      { "delegate": "tz1dwu9aYb7CRNq4Y2zAjipdjFuSVKhHS8vA",
        "reception_time": "2022-01-19T00:39:10.823-00:00",
        "included_in_blocks":
          [ "BMPs5dMT6d1nz7Kz4wzUvLgoWTzzBB725kGWckGaxFfEWmVDidZ" ] },
      { "delegate": "tz1Tnjaxk6tbAeC2TmMApPh8UsrEVQvhHvx5",
        "reception_time": "2022-01-19T00:39:11.083-00:00",
        "included_in_blocks":
          [ "BMPs5dMT6d1nz7Kz4wzUvLgoWTzzBB725kGWckGaxFfEWmVDidZ" ] },
      { "delegate": "tz1ei4WtWEMEJekSv8qDnu9PExG6Q8HgRGr3",
        "reception_time": "2022-01-19T00:39:11.096-00:00",
        "included_in_blocks":
          [ "BMPs5dMT6d1nz7Kz4wzUvLgoWTzzBB725kGWckGaxFfEWmVDidZ" ] },
      { "delegate": "tz3bTdwZinP8U1JmSweNzVKhmwafqWmFWRfk",
        "reception_time": "2022-01-19T00:39:10.919-00:00",
        "included_in_blocks":
          [ "BMPs5dMT6d1nz7Kz4wzUvLgoWTzzBB725kGWckGaxFfEWmVDidZ" ] },
      { "delegate": "tz1fb7c66UwePkkfDXz4ajFaBP9hVNLdS7JJ",
        "reception_time": "2022-01-19T00:39:10.848-00:00",
        "included_in_blocks":
          [ "BMPs5dMT6d1nz7Kz4wzUvLgoWTzzBB725kGWckGaxFfEWmVDidZ" ] },
      { "delegate": "tz3RB4aoyjov4KEVRbuhvQ1CKJgBJMWhaeB8",
        "reception_time": "2022-01-19T00:39:10.796-00:00",
        "included_in_blocks":
          [ "BMPs5dMT6d1nz7Kz4wzUvLgoWTzzBB725kGWckGaxFfEWmVDidZ" ] },
      { "delegate": "tz1fUyqYH7H4pRHN1roWY17giXhy1RvxjgUV",
        "reception_time": "2022-01-19T00:39:10.608-00:00",
        "included_in_blocks":
          [ "BMPs5dMT6d1nz7Kz4wzUvLgoWTzzBB725kGWckGaxFfEWmVDidZ" ] },
      { "delegate": "tz3Zhs2dygr55yHyQyKjntAtY9bgfhLZ4Xj1",
        "reception_time": "2022-01-19T00:39:10.497-00:00",
        "included_in_blocks":
          [ "BMPs5dMT6d1nz7Kz4wzUvLgoWTzzBB725kGWckGaxFfEWmVDidZ" ] },
      { "delegate": "tz1KfEsrtDaA1sX7vdM4qmEPWuSytuqCDp5j",
        "reception_time": "2022-01-19T00:39:11.114-00:00",
        "included_in_blocks":
          [ "BMPs5dMT6d1nz7Kz4wzUvLgoWTzzBB725kGWckGaxFfEWmVDidZ" ] },
      { "delegate": "tz1fUjvVhJrHLZCbhPNvDRckxApqbkievJHN",
        "reception_time": "2022-01-19T00:39:10.703-00:00",
        "included_in_blocks":
          [ "BMPs5dMT6d1nz7Kz4wzUvLgoWTzzBB725kGWckGaxFfEWmVDidZ" ] },
      { "delegate": "tz3iJu5vrKZcsqRPs8yJ61UDoeEXZmtro4qh",
        "reception_time": "2022-01-19T00:39:10.463-00:00",
        "included_in_blocks":
          [ "BMPs5dMT6d1nz7Kz4wzUvLgoWTzzBB725kGWckGaxFfEWmVDidZ" ] },
      { "delegate": "tz1VQnqCCqX4K5sP3FNkVSNKTdCAMJDd3E1n",
        "reception_time": "2022-01-19T00:39:10.426-00:00",
        "included_in_blocks":
          [ "BMPs5dMT6d1nz7Kz4wzUvLgoWTzzBB725kGWckGaxFfEWmVDidZ" ] },
      { "delegate": "tz3S6BBeKgJGXxvLyZ1xzXzMPn11nnFtq5L9",
        "reception_time": "2022-01-19T00:39:10.385-00:00",
        "included_in_blocks":
          [ "BMPs5dMT6d1nz7Kz4wzUvLgoWTzzBB725kGWckGaxFfEWmVDidZ" ] },
      { "delegate": "tz1gUNyn3hmnEWqkusWPzxRaon1cs7ndWh7h",
        "reception_time": "2022-01-19T00:39:10.404-00:00",
        "included_in_blocks":
          [ "BMPs5dMT6d1nz7Kz4wzUvLgoWTzzBB725kGWckGaxFfEWmVDidZ" ] },
      { "delegate": "tz1RCFbB9GpALpsZtu6J58sb74dm8qe6XBzv",
        "reception_time": "2022-01-19T00:39:10.476-00:00",
        "included_in_blocks":
          [ "BMPs5dMT6d1nz7Kz4wzUvLgoWTzzBB725kGWckGaxFfEWmVDidZ" ] },
      { "delegate": "tz3RKYFsLuQzKBtmYuLNas7uMu3AsYd4QdsA",
        "reception_time": "2022-01-19T00:39:10.311-00:00",
        "included_in_blocks":
          [ "BMPs5dMT6d1nz7Kz4wzUvLgoWTzzBB725kGWckGaxFfEWmVDidZ" ] },
      { "delegate": "tz3QSGPoRp3Kn7n3vY24eYeu3Peuqo45LQ4D",
        "reception_time": "2022-01-19T00:39:10.362-00:00",
        "included_in_blocks":
          [ "BMPs5dMT6d1nz7Kz4wzUvLgoWTzzBB725kGWckGaxFfEWmVDidZ" ] },
      { "delegate": "tz3gtoUxdudfBRcNY7iVdKPHCYYX6xdPpoRS",
        "reception_time": "2022-01-19T00:39:10.370-00:00",
        "included_in_blocks":
          [ "BMPs5dMT6d1nz7Kz4wzUvLgoWTzzBB725kGWckGaxFfEWmVDidZ" ] },
      { "delegate": "tz3NxTnke1acr8o3h5y9ytf5awQBGNJUKzVU",
        "reception_time": "2022-01-19T00:39:10.263-00:00",
        "included_in_blocks":
          [ "BMPs5dMT6d1nz7Kz4wzUvLgoWTzzBB725kGWckGaxFfEWmVDidZ" ] },
      { "delegate": "tz3hw2kqXhLUvY65ca1eety2oQTpAvd34R9Q",
        "reception_time": "2022-01-19T00:39:10.178-00:00",
        "included_in_blocks":
          [ "BMPs5dMT6d1nz7Kz4wzUvLgoWTzzBB725kGWckGaxFfEWmVDidZ" ] },
      { "delegate": "tz1WCd2jm4uSt4vntk4vSuUWoZQGhLcDuR9q",
        "reception_time": "2022-01-19T00:39:10.311-00:00",
        "included_in_blocks":
          [ "BMPs5dMT6d1nz7Kz4wzUvLgoWTzzBB725kGWckGaxFfEWmVDidZ" ] },
      { "delegate": "tz3adcvQaKXTCg12zbninqo3q8ptKKtDFTLv",
        "reception_time": "2022-01-19T00:39:10.251-00:00",
        "included_in_blocks":
          [ "BMPs5dMT6d1nz7Kz4wzUvLgoWTzzBB725kGWckGaxFfEWmVDidZ" ] },
      { "delegate": "tz1TRspM5SeZpaQUhzByXbEvqKF1vnCM2YTK",
        "reception_time": "2022-01-19T00:39:10.057-00:00",
        "included_in_blocks":
          [ "BMPs5dMT6d1nz7Kz4wzUvLgoWTzzBB725kGWckGaxFfEWmVDidZ" ] },
      { "delegate": "tz3QT9dHYKDqh563chVa6za8526ys1UKfRfL",
        "reception_time": "2022-01-19T00:39:10.299-00:00",
        "included_in_blocks":
          [ "BMPs5dMT6d1nz7Kz4wzUvLgoWTzzBB725kGWckGaxFfEWmVDidZ" ] },
      { "delegate": "tz1Ldzz6k1BHdhuKvAtMRX7h5kJSMHESMHLC",
        "reception_time": "2022-01-19T00:39:10.062-00:00",
        "included_in_blocks":
          [ "BMPs5dMT6d1nz7Kz4wzUvLgoWTzzBB725kGWckGaxFfEWmVDidZ" ] },
      { "delegate": "tz1TXzyaKUA8wsWefdSnyaYFnV2M3vCV7er9",
        "reception_time": "2022-01-19T00:39:09.900-00:00",
        "included_in_blocks":
          [ "BMPs5dMT6d1nz7Kz4wzUvLgoWTzzBB725kGWckGaxFfEWmVDidZ" ] },
      { "delegate": "tz1irJKkXS2DBWkU1NnmFQx1c1L7pbGg4yhk",
        "reception_time": "2022-01-19T00:39:09.912-00:00",
        "included_in_blocks":
          [ "BMPs5dMT6d1nz7Kz4wzUvLgoWTzzBB725kGWckGaxFfEWmVDidZ" ] },
      { "delegate": "tz3ZbP2pM3nwvXztbuMJwJnDvV5xdpU8UkkD",
        "reception_time": "2022-01-19T00:39:10.326-00:00",
        "included_in_blocks":
          [ "BMPs5dMT6d1nz7Kz4wzUvLgoWTzzBB725kGWckGaxFfEWmVDidZ" ] },
      { "delegate": "tz1ZPh7XfUaJXUDvkrBxmS1BjEM1i62hiPpM",
        "reception_time": "2022-01-19T00:39:09.922-00:00",
        "included_in_blocks":
          [ "BMPs5dMT6d1nz7Kz4wzUvLgoWTzzBB725kGWckGaxFfEWmVDidZ" ] },
      { "delegate": "tz3QCNyySViKHmeSr45kzDxzchys7NiXCWoa",
        "reception_time": "2022-01-19T00:39:10.141-00:00",
        "included_in_blocks":
          [ "BMPs5dMT6d1nz7Kz4wzUvLgoWTzzBB725kGWckGaxFfEWmVDidZ" ] },
      { "delegate": "tz1PWCDnz783NNGGQjEFFsHtrcK5yBW4E2rm",
        "reception_time": "2022-01-19T00:39:10.047-00:00",
        "included_in_blocks":
          [ "BMPs5dMT6d1nz7Kz4wzUvLgoWTzzBB725kGWckGaxFfEWmVDidZ" ] },
      { "delegate": "tz1Kt4P8BCaP93AEV4eA7gmpRryWt5hznjCP",
        "reception_time": "2022-01-19T00:39:09.871-00:00",
        "included_in_blocks":
          [ "BMPs5dMT6d1nz7Kz4wzUvLgoWTzzBB725kGWckGaxFfEWmVDidZ" ] },
      { "delegate": "tz1eEnQhbwf6trb8Q8mPb2RaPkNk2rN7BKi8",
        "reception_time": "2022-01-19T00:39:09.892-00:00",
        "included_in_blocks":
          [ "BMPs5dMT6d1nz7Kz4wzUvLgoWTzzBB725kGWckGaxFfEWmVDidZ" ] },
      { "delegate": "tz1Scdr2HsZiQjc7bHMeBbmDRXYVvdhjJbBh",
        "reception_time": "2022-01-19T00:39:09.885-00:00",
        "included_in_blocks":
          [ "BMPs5dMT6d1nz7Kz4wzUvLgoWTzzBB725kGWckGaxFfEWmVDidZ" ] },
      { "delegate": "tz1S8e9GgdZG78XJRB3NqabfWeM37GnhZMWQ",
        "reception_time": "2022-01-19T00:39:09.887-00:00",
        "included_in_blocks":
          [ "BMPs5dMT6d1nz7Kz4wzUvLgoWTzzBB725kGWckGaxFfEWmVDidZ" ] },
      { "delegate": "tz1VmiY38m3y95HqQLjMwqnMS7sdMfGomzKi",
        "reception_time": "2022-01-19T00:39:09.914-00:00",
        "included_in_blocks":
          [ "BMPs5dMT6d1nz7Kz4wzUvLgoWTzzBB725kGWckGaxFfEWmVDidZ" ] },
      { "delegate": "tz1S8MNvuFEUsWgjHvi3AxibRBf388NhT1q2",
        "reception_time": "2022-01-19T00:39:10.768-00:00",
        "included_in_blocks":
          [ "BMPs5dMT6d1nz7Kz4wzUvLgoWTzzBB725kGWckGaxFfEWmVDidZ" ] },
      { "delegate": "tz1Zhv3RkfU2pHrmaiDyxp7kFZpZrUCu1CiF",
        "reception_time": "2022-01-19T00:39:09.880-00:00",
        "included_in_blocks":
          [ "BMPs5dMT6d1nz7Kz4wzUvLgoWTzzBB725kGWckGaxFfEWmVDidZ" ] },
      { "delegate": "tz1Lhf4J9Qxoe3DZ2nfe8FGDnvVj7oKjnMY6",
        "reception_time": "2022-01-19T00:39:09.875-00:00",
        "included_in_blocks":
          [ "BMPs5dMT6d1nz7Kz4wzUvLgoWTzzBB725kGWckGaxFfEWmVDidZ" ] },
      { "delegate": "tz1fPKAtsYydh4f1wfWNfeNxWYu72TmM48fu",
        "reception_time": "2022-01-19T00:39:10.336-00:00",
        "included_in_blocks":
          [ "BMPs5dMT6d1nz7Kz4wzUvLgoWTzzBB725kGWckGaxFfEWmVDidZ" ] },
      { "delegate": "tz1STeamwbp68THcny9zk3LsbG3H36DMvbRK",
        "reception_time": "2022-01-19T00:39:09.883-00:00",
        "included_in_blocks":
          [ "BMPs5dMT6d1nz7Kz4wzUvLgoWTzzBB725kGWckGaxFfEWmVDidZ" ] },
      { "delegate": "tz1P2Po7YM526ughEsRbY4oR9zaUPDZjxFrb",
        "reception_time": "2022-01-19T00:39:09.866-00:00",
        "included_in_blocks":
          [ "BMPs5dMT6d1nz7Kz4wzUvLgoWTzzBB725kGWckGaxFfEWmVDidZ" ] },
      { "delegate": "tz1aXD7Jigrt3PBYSpHSg5Rr33SexMmmM5Ys",
        "reception_time": "2022-01-19T00:39:09.908-00:00",
        "included_in_blocks":
          [ "BMPs5dMT6d1nz7Kz4wzUvLgoWTzzBB725kGWckGaxFfEWmVDidZ" ] } ] }