{ "blocks":
    [ { "hash": "BMMY5ZZno2fgiVrJB7si8fHQtf8PtsbzbAH7xtbc3vXbrdAdBgj",
        "delegate": "tz1VQnqCCqX4K5sP3FNkVSNKTdCAMJDd3E1n",
        "reception_time": "2022-01-19T01:44:33.654-00:00",
        "timestamp": "2022-01-19T01:44:30Z" } ],
  "endorsements":
    [ { "delegate": "tz1dbfppLAAxXZNtf2SDps7rch3qfUznKSoK" },
      { "delegate": "tz1SYq214SCBy9naR6cvycQsYcUGpBqQAE8d" },
      { "delegate": "tz1NdhRv643wLW6zCcRP3VfT24dvDnh7nuh9" },
      { "delegate": "tz2BzJTyoQp8fNbfhWD4YQgH9JJHDgSGzpdG",
        "reception_time": "2022-01-19T01:44:50.156-00:00",
        "included_in_blocks":
          [ "BL45qTVRAN7mSfq4NQ4GuxHkvRGZSH6JmTYFTvGxdkdTrPXW77x" ] },
      { "delegate": "tz1WnyXakHZKotpQHxevTnLmomz5rTwdiccy",
        "reception_time": "2022-01-19T01:44:42.177-00:00",
        "included_in_blocks":
          [ "BL45qTVRAN7mSfq4NQ4GuxHkvRGZSH6JmTYFTvGxdkdTrPXW77x" ] },
      { "delegate": "tz1NpWrAyDL9k2Lmnyxcgr9xuJakbBxdq7FB",
        "reception_time": "2022-01-19T01:44:40.242-00:00",
        "included_in_blocks":
          [ "BL45qTVRAN7mSfq4NQ4GuxHkvRGZSH6JmTYFTvGxdkdTrPXW77x" ] },
      { "delegate": "tz1eVaNx3gCmG1EsLjijkmgAxdLYVf6Bf5Sq",
        "reception_time": "2022-01-19T01:44:38.562-00:00",
        "included_in_blocks":
          [ "BL45qTVRAN7mSfq4NQ4GuxHkvRGZSH6JmTYFTvGxdkdTrPXW77x" ] },
      { "delegate": "tz1PFeoTuFen8jAMRHajBySNyCwLmY5RqF9M",
        "reception_time": "2022-01-19T01:44:37.832-00:00",
        "included_in_blocks":
          [ "BL45qTVRAN7mSfq4NQ4GuxHkvRGZSH6JmTYFTvGxdkdTrPXW77x" ] },
      { "delegate": "tz3UoffC7FG7zfpmvmjUmUeAaHvzdcUvAj6r",
        "reception_time": "2022-01-19T01:44:37.434-00:00",
        "included_in_blocks":
          [ "BL45qTVRAN7mSfq4NQ4GuxHkvRGZSH6JmTYFTvGxdkdTrPXW77x" ] },
      { "delegate": "tz3NExpXn9aPNZPorRE4SdjJ2RGrfbJgMAaV",
        "reception_time": "2022-01-19T01:44:37.569-00:00",
        "included_in_blocks":
          [ "BL45qTVRAN7mSfq4NQ4GuxHkvRGZSH6JmTYFTvGxdkdTrPXW77x" ] },
      { "delegate": "tz1dRKU4FQ9QRRQPdaH4zCR6gmCmXfcvcgtB",
        "reception_time": "2022-01-19T01:44:37.276-00:00",
        "included_in_blocks":
          [ "BL45qTVRAN7mSfq4NQ4GuxHkvRGZSH6JmTYFTvGxdkdTrPXW77x" ] },
      { "delegate": "tz1T7duV5gZWSTq4YpBGbXNLTfznCLDrFxvs",
        "reception_time": "2022-01-19T01:44:36.953-00:00",
        "included_in_blocks":
          [ "BL45qTVRAN7mSfq4NQ4GuxHkvRGZSH6JmTYFTvGxdkdTrPXW77x" ] },
      { "delegate": "tz1aRoaRhSpRYvFdyvgWLL6TGyRoGF51wDjM",
        "reception_time": "2022-01-19T01:44:36.825-00:00",
        "included_in_blocks":
          [ "BL45qTVRAN7mSfq4NQ4GuxHkvRGZSH6JmTYFTvGxdkdTrPXW77x" ] },
      { "delegate": "tz3RDC3Jdn4j15J7bBHZd29EUee9gVB1CxD9",
        "reception_time": "2022-01-19T01:44:36.751-00:00",
        "included_in_blocks":
          [ "BL45qTVRAN7mSfq4NQ4GuxHkvRGZSH6JmTYFTvGxdkdTrPXW77x" ] },
      { "delegate": "tz2FCNBrERXtaTtNX6iimR1UJ5JSDxvdHM93",
        "reception_time": "2022-01-19T01:44:36.500-00:00",
        "included_in_blocks":
          [ "BL45qTVRAN7mSfq4NQ4GuxHkvRGZSH6JmTYFTvGxdkdTrPXW77x" ] },
      { "delegate": "tz3bvNMQ95vfAYtG8193ymshqjSvmxiCUuR5",
        "reception_time": "2022-01-19T01:44:36.817-00:00",
        "included_in_blocks":
          [ "BL45qTVRAN7mSfq4NQ4GuxHkvRGZSH6JmTYFTvGxdkdTrPXW77x" ] },
      { "delegate": "tz1RjoHc98dBoqaH2jawF62XNKh7YsHwbkEv",
        "reception_time": "2022-01-19T01:44:36.619-00:00",
        "included_in_blocks":
          [ "BL45qTVRAN7mSfq4NQ4GuxHkvRGZSH6JmTYFTvGxdkdTrPXW77x" ] },
      { "delegate": "tz3WMqdzXqRWXwyvj5Hp2H7QEepaUuS7vd9K",
        "reception_time": "2022-01-19T01:44:36.410-00:00",
        "included_in_blocks":
          [ "BL45qTVRAN7mSfq4NQ4GuxHkvRGZSH6JmTYFTvGxdkdTrPXW77x" ] },
      { "delegate": "tz1NEKxGEHsFufk87CVZcrqWu8o22qh46GK6",
        "reception_time": "2022-01-19T01:44:36.310-00:00",
        "included_in_blocks":
          [ "BL45qTVRAN7mSfq4NQ4GuxHkvRGZSH6JmTYFTvGxdkdTrPXW77x" ] },
      { "delegate": "tz3VEZ4k6a4Wx42iyev6i2aVAptTRLEAivNN",
        "reception_time": "2022-01-19T01:44:36.462-00:00",
        "included_in_blocks":
          [ "BL45qTVRAN7mSfq4NQ4GuxHkvRGZSH6JmTYFTvGxdkdTrPXW77x" ] },
      { "delegate": "tz3gLTu4Yxj8tPAcriQVUdxv6BY9QyvzU1az",
        "reception_time": "2022-01-19T01:44:36.297-00:00",
        "included_in_blocks":
          [ "BL45qTVRAN7mSfq4NQ4GuxHkvRGZSH6JmTYFTvGxdkdTrPXW77x" ] },
      { "delegate": "tz3NDpRj6WBrJPikcPVHRBEjWKxFw3c6eQPS",
        "reception_time": "2022-01-19T01:44:36.351-00:00",
        "included_in_blocks":
          [ "BL45qTVRAN7mSfq4NQ4GuxHkvRGZSH6JmTYFTvGxdkdTrPXW77x" ] },
      { "delegate": "tz1g8vkmcde6sWKaG2NN9WKzCkDM6Rziq194",
        "reception_time": "2022-01-19T01:44:36.359-00:00",
        "included_in_blocks":
          [ "BL45qTVRAN7mSfq4NQ4GuxHkvRGZSH6JmTYFTvGxdkdTrPXW77x" ] },
      { "delegate": "tz1Nf6tsK4G6bBqgSQERy4nUtkHNKUVdh7q1",
        "reception_time": "2022-01-19T01:44:36.278-00:00",
        "included_in_blocks":
          [ "BL45qTVRAN7mSfq4NQ4GuxHkvRGZSH6JmTYFTvGxdkdTrPXW77x" ] },
      { "delegate": "tz1R4PuhxUxBBZhfLJDx2nNjbr7WorAPX1oC",
        "reception_time": "2022-01-19T01:44:36.369-00:00",
        "included_in_blocks":
          [ "BL45qTVRAN7mSfq4NQ4GuxHkvRGZSH6JmTYFTvGxdkdTrPXW77x" ] },
      { "delegate": "tz1PeZx7FXy7QRuMREGXGxeipb24RsMMzUNe",
        "reception_time": "2022-01-19T01:44:36.324-00:00",
        "included_in_blocks":
          [ "BL45qTVRAN7mSfq4NQ4GuxHkvRGZSH6JmTYFTvGxdkdTrPXW77x" ] },
      { "delegate": "tz1KfEsrtDaA1sX7vdM4qmEPWuSytuqCDp5j",
        "reception_time": "2022-01-19T01:44:36.317-00:00",
        "included_in_blocks":
          [ "BL45qTVRAN7mSfq4NQ4GuxHkvRGZSH6JmTYFTvGxdkdTrPXW77x" ] },
      { "delegate": "tz1Tnjaxk6tbAeC2TmMApPh8UsrEVQvhHvx5",
        "reception_time": "2022-01-19T01:44:35.923-00:00",
        "included_in_blocks":
          [ "BL45qTVRAN7mSfq4NQ4GuxHkvRGZSH6JmTYFTvGxdkdTrPXW77x" ] },
      { "delegate": "tz1fwnfJNgiDACshK9avfRfFbMaXrs3ghoJa",
        "reception_time": "2022-01-19T01:44:35.926-00:00",
        "included_in_blocks":
          [ "BL45qTVRAN7mSfq4NQ4GuxHkvRGZSH6JmTYFTvGxdkdTrPXW77x" ] },
      { "delegate": "tz1ei4WtWEMEJekSv8qDnu9PExG6Q8HgRGr3",
        "reception_time": "2022-01-19T01:44:35.868-00:00",
        "included_in_blocks":
          [ "BL45qTVRAN7mSfq4NQ4GuxHkvRGZSH6JmTYFTvGxdkdTrPXW77x" ] },
      { "delegate": "tz1V4qCyvPKZ5UeqdH14HN42rxvNPQfc9UZg",
        "reception_time": "2022-01-19T01:44:35.888-00:00",
        "included_in_blocks":
          [ "BL45qTVRAN7mSfq4NQ4GuxHkvRGZSH6JmTYFTvGxdkdTrPXW77x" ] },
      { "delegate": "tz1dNVDWPf3Q59SdJqnjdnu277iyvReiRS9M",
        "reception_time": "2022-01-19T01:44:35.543-00:00",
        "included_in_blocks":
          [ "BL45qTVRAN7mSfq4NQ4GuxHkvRGZSH6JmTYFTvGxdkdTrPXW77x" ] },
      { "delegate": "tz1MQJPGNMijnXnVoBENFz9rUhaPt3S7rWoz",
        "reception_time": "2022-01-19T01:44:35.546-00:00",
        "included_in_blocks":
          [ "BL45qTVRAN7mSfq4NQ4GuxHkvRGZSH6JmTYFTvGxdkdTrPXW77x" ] },
      { "delegate": "tz1PWCDnz783NNGGQjEFFsHtrcK5yBW4E2rm",
        "reception_time": "2022-01-19T01:44:35.452-00:00",
        "included_in_blocks":
          [ "BL45qTVRAN7mSfq4NQ4GuxHkvRGZSH6JmTYFTvGxdkdTrPXW77x" ] },
      { "delegate": "tz1cYqRcjRXSWcs3bjehN21VmBAH2aFMg6Ds",
        "reception_time": "2022-01-19T01:44:35.478-00:00",
        "included_in_blocks":
          [ "BL45qTVRAN7mSfq4NQ4GuxHkvRGZSH6JmTYFTvGxdkdTrPXW77x" ] },
      { "delegate": "tz3adcvQaKXTCg12zbninqo3q8ptKKtDFTLv",
        "reception_time": "2022-01-19T01:44:35.419-00:00",
        "included_in_blocks":
          [ "BL45qTVRAN7mSfq4NQ4GuxHkvRGZSH6JmTYFTvGxdkdTrPXW77x" ] },
      { "delegate": "tz1RCFbB9GpALpsZtu6J58sb74dm8qe6XBzv",
        "reception_time": "2022-01-19T01:44:35.498-00:00",
        "included_in_blocks":
          [ "BL45qTVRAN7mSfq4NQ4GuxHkvRGZSH6JmTYFTvGxdkdTrPXW77x" ] },
      { "delegate": "tz1S8MNvuFEUsWgjHvi3AxibRBf388NhT1q2",
        "reception_time": "2022-01-19T01:44:35.336-00:00",
        "included_in_blocks":
          [ "BL45qTVRAN7mSfq4NQ4GuxHkvRGZSH6JmTYFTvGxdkdTrPXW77x" ] },
      { "delegate": "tz1WnfXMPaNTBmH7DBPwqCWs9cPDJdkGBTZ8",
        "reception_time": "2022-01-19T01:44:35.345-00:00",
        "included_in_blocks":
          [ "BL45qTVRAN7mSfq4NQ4GuxHkvRGZSH6JmTYFTvGxdkdTrPXW77x" ] },
      { "delegate": "tz1gfArv665EUkSg2ojMBzcbfwuPxAvqPvjo",
        "reception_time": "2022-01-19T01:44:35.216-00:00",
        "included_in_blocks":
          [ "BL45qTVRAN7mSfq4NQ4GuxHkvRGZSH6JmTYFTvGxdkdTrPXW77x" ] },
      { "delegate": "tz3bTdwZinP8U1JmSweNzVKhmwafqWmFWRfk",
        "reception_time": "2022-01-19T01:44:35.333-00:00",
        "included_in_blocks":
          [ "BL45qTVRAN7mSfq4NQ4GuxHkvRGZSH6JmTYFTvGxdkdTrPXW77x" ] },
      { "delegate": "tz3RB4aoyjov4KEVRbuhvQ1CKJgBJMWhaeB8",
        "reception_time": "2022-01-19T01:44:35.184-00:00",
        "included_in_blocks":
          [ "BL45qTVRAN7mSfq4NQ4GuxHkvRGZSH6JmTYFTvGxdkdTrPXW77x" ] },
      { "delegate": "tz1NSDFKuRyzHxpfG1AMkyCwEiZ52cbR2mRW",
        "reception_time": "2022-01-19T01:44:35.001-00:00",
        "included_in_blocks":
          [ "BL45qTVRAN7mSfq4NQ4GuxHkvRGZSH6JmTYFTvGxdkdTrPXW77x" ] },
      { "delegate": "tz1Kt4P8BCaP93AEV4eA7gmpRryWt5hznjCP",
        "reception_time": "2022-01-19T01:44:35.035-00:00",
        "included_in_blocks":
          [ "BL45qTVRAN7mSfq4NQ4GuxHkvRGZSH6JmTYFTvGxdkdTrPXW77x" ] },
      { "delegate": "tz3QT9dHYKDqh563chVa6za8526ys1UKfRfL",
        "reception_time": "2022-01-19T01:44:35.019-00:00",
        "included_in_blocks":
          [ "BL45qTVRAN7mSfq4NQ4GuxHkvRGZSH6JmTYFTvGxdkdTrPXW77x" ] },
      { "delegate": "tz3QCNyySViKHmeSr45kzDxzchys7NiXCWoa",
        "reception_time": "2022-01-19T01:44:34.982-00:00",
        "included_in_blocks":
          [ "BL45qTVRAN7mSfq4NQ4GuxHkvRGZSH6JmTYFTvGxdkdTrPXW77x" ] },
      { "delegate": "tz3Zhs2dygr55yHyQyKjntAtY9bgfhLZ4Xj1",
        "reception_time": "2022-01-19T01:44:34.898-00:00",
        "included_in_blocks":
          [ "BL45qTVRAN7mSfq4NQ4GuxHkvRGZSH6JmTYFTvGxdkdTrPXW77x" ] },
      { "delegate": "tz1VmiY38m3y95HqQLjMwqnMS7sdMfGomzKi",
        "reception_time": "2022-01-19T01:44:34.820-00:00",
        "included_in_blocks":
          [ "BL45qTVRAN7mSfq4NQ4GuxHkvRGZSH6JmTYFTvGxdkdTrPXW77x" ] },
      { "delegate": "tz3S6BBeKgJGXxvLyZ1xzXzMPn11nnFtq5L9",
        "reception_time": "2022-01-19T01:44:34.883-00:00",
        "included_in_blocks":
          [ "BL45qTVRAN7mSfq4NQ4GuxHkvRGZSH6JmTYFTvGxdkdTrPXW77x" ] },
      { "delegate": "tz3iJu5vrKZcsqRPs8yJ61UDoeEXZmtro4qh",
        "reception_time": "2022-01-19T01:44:34.850-00:00",
        "included_in_blocks":
          [ "BL45qTVRAN7mSfq4NQ4GuxHkvRGZSH6JmTYFTvGxdkdTrPXW77x" ] },
      { "delegate": "tz3QSGPoRp3Kn7n3vY24eYeu3Peuqo45LQ4D",
        "reception_time": "2022-01-19T01:44:34.773-00:00",
        "included_in_blocks":
          [ "BL45qTVRAN7mSfq4NQ4GuxHkvRGZSH6JmTYFTvGxdkdTrPXW77x" ] },
      { "delegate": "tz1WCd2jm4uSt4vntk4vSuUWoZQGhLcDuR9q",
        "reception_time": "2022-01-19T01:44:34.839-00:00",
        "included_in_blocks":
          [ "BL45qTVRAN7mSfq4NQ4GuxHkvRGZSH6JmTYFTvGxdkdTrPXW77x" ] },
      { "delegate": "tz3gtoUxdudfBRcNY7iVdKPHCYYX6xdPpoRS",
        "reception_time": "2022-01-19T01:44:34.725-00:00",
        "included_in_blocks":
          [ "BL45qTVRAN7mSfq4NQ4GuxHkvRGZSH6JmTYFTvGxdkdTrPXW77x" ] },
      { "delegate": "tz3RKYFsLuQzKBtmYuLNas7uMu3AsYd4QdsA",
        "reception_time": "2022-01-19T01:44:34.697-00:00",
        "included_in_blocks":
          [ "BL45qTVRAN7mSfq4NQ4GuxHkvRGZSH6JmTYFTvGxdkdTrPXW77x" ] },
      { "delegate": "tz1cX93Q3KsiTADpCC4f12TBvAmS5tw7CW19",
        "reception_time": "2022-01-19T01:44:34.460-00:00",
        "included_in_blocks":
          [ "BL45qTVRAN7mSfq4NQ4GuxHkvRGZSH6JmTYFTvGxdkdTrPXW77x" ] },
      { "delegate": "tz1Ldzz6k1BHdhuKvAtMRX7h5kJSMHESMHLC",
        "reception_time": "2022-01-19T01:44:34.577-00:00",
        "included_in_blocks":
          [ "BL45qTVRAN7mSfq4NQ4GuxHkvRGZSH6JmTYFTvGxdkdTrPXW77x" ] },
      { "delegate": "tz3hw2kqXhLUvY65ca1eety2oQTpAvd34R9Q",
        "reception_time": "2022-01-19T01:44:34.631-00:00",
        "included_in_blocks":
          [ "BL45qTVRAN7mSfq4NQ4GuxHkvRGZSH6JmTYFTvGxdkdTrPXW77x" ] },
      { "delegate": "tz3ZbP2pM3nwvXztbuMJwJnDvV5xdpU8UkkD",
        "reception_time": "2022-01-19T01:44:34.531-00:00",
        "included_in_blocks":
          [ "BL45qTVRAN7mSfq4NQ4GuxHkvRGZSH6JmTYFTvGxdkdTrPXW77x" ] },
      { "delegate": "tz1gUNyn3hmnEWqkusWPzxRaon1cs7ndWh7h",
        "reception_time": "2022-01-19T01:44:34.410-00:00",
        "included_in_blocks":
          [ "BL45qTVRAN7mSfq4NQ4GuxHkvRGZSH6JmTYFTvGxdkdTrPXW77x" ] },
      { "delegate": "tz3NxTnke1acr8o3h5y9ytf5awQBGNJUKzVU",
        "reception_time": "2022-01-19T01:44:34.516-00:00",
        "included_in_blocks":
          [ "BL45qTVRAN7mSfq4NQ4GuxHkvRGZSH6JmTYFTvGxdkdTrPXW77x" ] },
      { "delegate": "tz1VQnqCCqX4K5sP3FNkVSNKTdCAMJDd3E1n",
        "reception_time": "2022-01-19T01:44:34.430-00:00",
        "included_in_blocks":
          [ "BL45qTVRAN7mSfq4NQ4GuxHkvRGZSH6JmTYFTvGxdkdTrPXW77x" ] },
      { "delegate": "tz1TRspM5SeZpaQUhzByXbEvqKF1vnCM2YTK",
        "reception_time": "2022-01-19T01:44:34.416-00:00",
        "included_in_blocks":
          [ "BL45qTVRAN7mSfq4NQ4GuxHkvRGZSH6JmTYFTvGxdkdTrPXW77x" ] },
      { "delegate": "tz1TXzyaKUA8wsWefdSnyaYFnV2M3vCV7er9",
        "reception_time": "2022-01-19T01:44:34.360-00:00",
        "included_in_blocks":
          [ "BL45qTVRAN7mSfq4NQ4GuxHkvRGZSH6JmTYFTvGxdkdTrPXW77x" ] },
      { "delegate": "tz1irJKkXS2DBWkU1NnmFQx1c1L7pbGg4yhk",
        "reception_time": "2022-01-19T01:44:34.363-00:00",
        "included_in_blocks":
          [ "BL45qTVRAN7mSfq4NQ4GuxHkvRGZSH6JmTYFTvGxdkdTrPXW77x" ] },
      { "delegate": "tz1STeamwbp68THcny9zk3LsbG3H36DMvbRK",
        "reception_time": "2022-01-19T01:44:34.367-00:00",
        "included_in_blocks":
          [ "BL45qTVRAN7mSfq4NQ4GuxHkvRGZSH6JmTYFTvGxdkdTrPXW77x" ] },
      { "delegate": "tz1eEnQhbwf6trb8Q8mPb2RaPkNk2rN7BKi8",
        "reception_time": "2022-01-19T01:44:34.357-00:00",
        "included_in_blocks":
          [ "BL45qTVRAN7mSfq4NQ4GuxHkvRGZSH6JmTYFTvGxdkdTrPXW77x" ] },
      { "delegate": "tz1P2Po7YM526ughEsRbY4oR9zaUPDZjxFrb",
        "reception_time": "2022-01-19T01:44:34.349-00:00",
        "included_in_blocks":
          [ "BL45qTVRAN7mSfq4NQ4GuxHkvRGZSH6JmTYFTvGxdkdTrPXW77x" ] },
      { "delegate": "tz1MXFrtZoaXckE41bjUCSjAjAap3AFDSr3N",
        "reception_time": "2022-01-19T01:44:34.343-00:00",
        "included_in_blocks":
          [ "BL45qTVRAN7mSfq4NQ4GuxHkvRGZSH6JmTYFTvGxdkdTrPXW77x" ] },
      { "delegate": "tz1Lhf4J9Qxoe3DZ2nfe8FGDnvVj7oKjnMY6",
        "reception_time": "2022-01-19T01:44:34.349-00:00",
        "included_in_blocks":
          [ "BL45qTVRAN7mSfq4NQ4GuxHkvRGZSH6JmTYFTvGxdkdTrPXW77x" ] } ] }