{ "blocks":
    [ { "hash": "BLU89MSnunDDqmdhgXXCBD9Cvmv6TDnuAWQ4EzByvpHtQoBEpEE",
        "delegate": "tz1VQnqCCqX4K5sP3FNkVSNKTdCAMJDd3E1n",
        "reception_time": "2022-01-18T21:59:14.159-00:00",
        "timestamp": "2022-01-18T21:59:10Z" } ],
  "endorsements":
    [ { "delegate": "tz1SYq214SCBy9naR6cvycQsYcUGpBqQAE8d" },
      { "delegate": "tz1NdhRv643wLW6zCcRP3VfT24dvDnh7nuh9" },
      { "delegate": "tz1Lhf4J9Qxoe3DZ2nfe8FGDnvVj7oKjnMY6",
        "reception_time": "2022-01-18T21:59:14.036-00:00",
        "errors":
          [ { "kind": "temporary",
              "id": "proto.011-PtHangz2.prefilter.outdated_endorsement" } ],
        "included_in_blocks":
          [ "BLysSy2FQ136UqT9UH9vNHKydkZmvqrWCnXTHpRWgWbsi9mhHqY" ] },
      { "delegate": "tz1WL4xAAYsQ2GM9MCQGePYcbwwu6kvfqMWN",
        "reception_time": "2022-01-18T21:59:14.006-00:00",
        "errors":
          [ { "kind": "temporary",
              "id": "proto.011-PtHangz2.prefilter.outdated_endorsement" } ],
        "included_in_blocks":
          [ "BLysSy2FQ136UqT9UH9vNHKydkZmvqrWCnXTHpRWgWbsi9mhHqY" ] },
      { "delegate": "tz1S8e9GgdZG78XJRB3NqabfWeM37GnhZMWQ",
        "reception_time": "2022-01-18T21:59:13.966-00:00",
        "errors":
          [ { "kind": "temporary",
              "id": "proto.011-PtHangz2.prefilter.outdated_endorsement" } ],
        "included_in_blocks":
          [ "BLysSy2FQ136UqT9UH9vNHKydkZmvqrWCnXTHpRWgWbsi9mhHqY" ] },
      { "delegate": "tz1WVjz2DzE5Jekdt2WkmXpLeE6pq1SxnydQ",
        "reception_time": "2022-01-18T21:59:24.511-00:00",
        "included_in_blocks":
          [ "BLysSy2FQ136UqT9UH9vNHKydkZmvqrWCnXTHpRWgWbsi9mhHqY" ] },
      { "delegate": "tz1NpWrAyDL9k2Lmnyxcgr9xuJakbBxdq7FB",
        "reception_time": "2022-01-18T21:59:22.499-00:00",
        "included_in_blocks":
          [ "BLysSy2FQ136UqT9UH9vNHKydkZmvqrWCnXTHpRWgWbsi9mhHqY" ] },
      { "delegate": "tz1W5VkdB5s7ENMESVBtwyt9kyvLqPcUczRT",
        "reception_time": "2022-01-18T21:59:19.480-00:00",
        "included_in_blocks":
          [ "BLysSy2FQ136UqT9UH9vNHKydkZmvqrWCnXTHpRWgWbsi9mhHqY" ] },
      { "delegate": "tz1PFeoTuFen8jAMRHajBySNyCwLmY5RqF9M",
        "reception_time": "2022-01-18T21:59:19.162-00:00",
        "included_in_blocks":
          [ "BLysSy2FQ136UqT9UH9vNHKydkZmvqrWCnXTHpRWgWbsi9mhHqY" ] },
      { "delegate": "tz1aJS7Pk9uWR3wWyFf1i3RwhYxN84G7stom",
        "reception_time": "2022-01-18T21:59:18.646-00:00",
        "included_in_blocks":
          [ "BLysSy2FQ136UqT9UH9vNHKydkZmvqrWCnXTHpRWgWbsi9mhHqY" ] },
      { "delegate": "tz1cM8Xc7ZP1TrjkTeKq4PeRhtbnwXSBR6Sw",
        "reception_time": "2022-01-18T21:59:17.992-00:00",
        "included_in_blocks":
          [ "BLysSy2FQ136UqT9UH9vNHKydkZmvqrWCnXTHpRWgWbsi9mhHqY" ] },
      { "delegate": "tz3NExpXn9aPNZPorRE4SdjJ2RGrfbJgMAaV",
        "reception_time": "2022-01-18T21:59:17.705-00:00",
        "included_in_blocks":
          [ "BLysSy2FQ136UqT9UH9vNHKydkZmvqrWCnXTHpRWgWbsi9mhHqY" ] },
      { "delegate": "tz3WMqdzXqRWXwyvj5Hp2H7QEepaUuS7vd9K",
        "reception_time": "2022-01-18T21:59:17.719-00:00",
        "included_in_blocks":
          [ "BLysSy2FQ136UqT9UH9vNHKydkZmvqrWCnXTHpRWgWbsi9mhHqY" ] },
      { "delegate": "tz1ZcTRk5uxD86EFEn1vvNffWWqJy7q5eVhc",
        "reception_time": "2022-01-18T21:59:17.937-00:00",
        "included_in_blocks":
          [ "BLysSy2FQ136UqT9UH9vNHKydkZmvqrWCnXTHpRWgWbsi9mhHqY" ] },
      { "delegate": "tz1dRKU4FQ9QRRQPdaH4zCR6gmCmXfcvcgtB",
        "reception_time": "2022-01-18T21:59:17.562-00:00",
        "included_in_blocks":
          [ "BLysSy2FQ136UqT9UH9vNHKydkZmvqrWCnXTHpRWgWbsi9mhHqY" ] },
      { "delegate": "tz1awXW7wuXy21c66vBudMXQVAPgRnqqwgTH",
        "reception_time": "2022-01-18T21:59:17.409-00:00",
        "included_in_blocks":
          [ "BLysSy2FQ136UqT9UH9vNHKydkZmvqrWCnXTHpRWgWbsi9mhHqY" ] },
      { "delegate": "tz1T7duV5gZWSTq4YpBGbXNLTfznCLDrFxvs",
        "reception_time": "2022-01-18T21:59:17.303-00:00",
        "included_in_blocks":
          [ "BLysSy2FQ136UqT9UH9vNHKydkZmvqrWCnXTHpRWgWbsi9mhHqY" ] },
      { "delegate": "tz1aRoaRhSpRYvFdyvgWLL6TGyRoGF51wDjM",
        "reception_time": "2022-01-18T21:59:17.061-00:00",
        "included_in_blocks":
          [ "BLysSy2FQ136UqT9UH9vNHKydkZmvqrWCnXTHpRWgWbsi9mhHqY" ] },
      { "delegate": "tz1UVFkBnZzy2WGzs7415DNwsbvuyvz4ZznB",
        "reception_time": "2022-01-18T21:59:17.054-00:00",
        "included_in_blocks":
          [ "BLysSy2FQ136UqT9UH9vNHKydkZmvqrWCnXTHpRWgWbsi9mhHqY" ] },
      { "delegate": "tz3RB4aoyjov4KEVRbuhvQ1CKJgBJMWhaeB8",
        "reception_time": "2022-01-18T21:59:16.981-00:00",
        "included_in_blocks":
          [ "BLysSy2FQ136UqT9UH9vNHKydkZmvqrWCnXTHpRWgWbsi9mhHqY" ] },
      { "delegate": "tz3bvNMQ95vfAYtG8193ymshqjSvmxiCUuR5",
        "reception_time": "2022-01-18T21:59:16.995-00:00",
        "included_in_blocks":
          [ "BLysSy2FQ136UqT9UH9vNHKydkZmvqrWCnXTHpRWgWbsi9mhHqY" ] },
      { "delegate": "tz1cYufsxHXJcvANhvS55h3aY32a9BAFB494",
        "reception_time": "2022-01-18T21:59:17.000-00:00",
        "included_in_blocks":
          [ "BLysSy2FQ136UqT9UH9vNHKydkZmvqrWCnXTHpRWgWbsi9mhHqY" ] },
      { "delegate": "tz1TRqbYbUf2GyrjErf3hBzgBJPzW8y36qEs",
        "reception_time": "2022-01-18T21:59:16.795-00:00",
        "included_in_blocks":
          [ "BLysSy2FQ136UqT9UH9vNHKydkZmvqrWCnXTHpRWgWbsi9mhHqY" ] },
      { "delegate": "tz1abmz7jiCV2GH2u81LRrGgAFFgvQgiDiaf",
        "reception_time": "2022-01-18T21:59:16.876-00:00",
        "included_in_blocks":
          [ "BLysSy2FQ136UqT9UH9vNHKydkZmvqrWCnXTHpRWgWbsi9mhHqY" ] },
      { "delegate": "tz3VEZ4k6a4Wx42iyev6i2aVAptTRLEAivNN",
        "reception_time": "2022-01-18T21:59:16.572-00:00",
        "included_in_blocks":
          [ "BLysSy2FQ136UqT9UH9vNHKydkZmvqrWCnXTHpRWgWbsi9mhHqY" ] },
      { "delegate": "tz3UoffC7FG7zfpmvmjUmUeAaHvzdcUvAj6r",
        "reception_time": "2022-01-18T21:59:16.731-00:00",
        "included_in_blocks":
          [ "BLysSy2FQ136UqT9UH9vNHKydkZmvqrWCnXTHpRWgWbsi9mhHqY" ] },
      { "delegate": "tz3gLTu4Yxj8tPAcriQVUdxv6BY9QyvzU1az",
        "reception_time": "2022-01-18T21:59:16.724-00:00",
        "included_in_blocks":
          [ "BLysSy2FQ136UqT9UH9vNHKydkZmvqrWCnXTHpRWgWbsi9mhHqY" ] },
      { "delegate": "tz3NDpRj6WBrJPikcPVHRBEjWKxFw3c6eQPS",
        "reception_time": "2022-01-18T21:59:16.526-00:00",
        "included_in_blocks":
          [ "BLysSy2FQ136UqT9UH9vNHKydkZmvqrWCnXTHpRWgWbsi9mhHqY" ] },
      { "delegate": "tz1NEKxGEHsFufk87CVZcrqWu8o22qh46GK6",
        "reception_time": "2022-01-18T21:59:16.718-00:00",
        "included_in_blocks":
          [ "BLysSy2FQ136UqT9UH9vNHKydkZmvqrWCnXTHpRWgWbsi9mhHqY" ] },
      { "delegate": "tz1RjoHc98dBoqaH2jawF62XNKh7YsHwbkEv",
        "reception_time": "2022-01-18T21:59:16.563-00:00",
        "included_in_blocks":
          [ "BLysSy2FQ136UqT9UH9vNHKydkZmvqrWCnXTHpRWgWbsi9mhHqY" ] },
      { "delegate": "tz1UMCB2AHSTwG7YcGNr31CqYCtGN873royv",
        "reception_time": "2022-01-18T21:59:16.465-00:00",
        "included_in_blocks":
          [ "BLysSy2FQ136UqT9UH9vNHKydkZmvqrWCnXTHpRWgWbsi9mhHqY" ] },
      { "delegate": "tz1KfEsrtDaA1sX7vdM4qmEPWuSytuqCDp5j",
        "reception_time": "2022-01-18T21:59:16.309-00:00",
        "included_in_blocks":
          [ "BLysSy2FQ136UqT9UH9vNHKydkZmvqrWCnXTHpRWgWbsi9mhHqY" ] },
      { "delegate": "tz2FCNBrERXtaTtNX6iimR1UJ5JSDxvdHM93",
        "reception_time": "2022-01-18T21:59:16.402-00:00",
        "included_in_blocks":
          [ "BLysSy2FQ136UqT9UH9vNHKydkZmvqrWCnXTHpRWgWbsi9mhHqY" ] },
      { "delegate": "tz1N7fL6KvRzD5Umy7yeX5uBa5wFsC5veuN2",
        "reception_time": "2022-01-18T21:59:16.421-00:00",
        "included_in_blocks":
          [ "BLysSy2FQ136UqT9UH9vNHKydkZmvqrWCnXTHpRWgWbsi9mhHqY" ] },
      { "delegate": "tz1fwnfJNgiDACshK9avfRfFbMaXrs3ghoJa",
        "reception_time": "2022-01-18T21:59:16.406-00:00",
        "included_in_blocks":
          [ "BLysSy2FQ136UqT9UH9vNHKydkZmvqrWCnXTHpRWgWbsi9mhHqY" ] },
      { "delegate": "tz1g8vkmcde6sWKaG2NN9WKzCkDM6Rziq194",
        "reception_time": "2022-01-18T21:59:16.402-00:00",
        "included_in_blocks":
          [ "BLysSy2FQ136UqT9UH9vNHKydkZmvqrWCnXTHpRWgWbsi9mhHqY" ] },
      { "delegate": "tz1eibLoCDot2w2QWyR7kMoVDTto9fYs2mnJ",
        "reception_time": "2022-01-18T21:59:16.300-00:00",
        "included_in_blocks":
          [ "BLysSy2FQ136UqT9UH9vNHKydkZmvqrWCnXTHpRWgWbsi9mhHqY" ] },
      { "delegate": "tz1RCFbB9GpALpsZtu6J58sb74dm8qe6XBzv",
        "reception_time": "2022-01-18T21:59:16.201-00:00",
        "included_in_blocks":
          [ "BLysSy2FQ136UqT9UH9vNHKydkZmvqrWCnXTHpRWgWbsi9mhHqY" ] },
      { "delegate": "tz1RQhNh7iB9CZA7i3ifTWNwiGYVffponfbB",
        "reception_time": "2022-01-18T21:59:16.127-00:00",
        "included_in_blocks":
          [ "BLysSy2FQ136UqT9UH9vNHKydkZmvqrWCnXTHpRWgWbsi9mhHqY" ] },
      { "delegate": "tz1WnfXMPaNTBmH7DBPwqCWs9cPDJdkGBTZ8",
        "reception_time": "2022-01-18T21:59:16.051-00:00",
        "included_in_blocks":
          [ "BLysSy2FQ136UqT9UH9vNHKydkZmvqrWCnXTHpRWgWbsi9mhHqY" ] },
      { "delegate": "tz1ei4WtWEMEJekSv8qDnu9PExG6Q8HgRGr3",
        "reception_time": "2022-01-18T21:59:15.866-00:00",
        "included_in_blocks":
          [ "BLysSy2FQ136UqT9UH9vNHKydkZmvqrWCnXTHpRWgWbsi9mhHqY" ] },
      { "delegate": "tz1Nf6tsK4G6bBqgSQERy4nUtkHNKUVdh7q1",
        "reception_time": "2022-01-18T21:59:15.941-00:00",
        "included_in_blocks":
          [ "BLysSy2FQ136UqT9UH9vNHKydkZmvqrWCnXTHpRWgWbsi9mhHqY" ] },
      { "delegate": "tz3bTdwZinP8U1JmSweNzVKhmwafqWmFWRfk",
        "reception_time": "2022-01-18T21:59:15.921-00:00",
        "included_in_blocks":
          [ "BLysSy2FQ136UqT9UH9vNHKydkZmvqrWCnXTHpRWgWbsi9mhHqY" ] },
      { "delegate": "tz1TEc75UKXv4W5cwi14Na3NtqFD51yKQi7h",
        "reception_time": "2022-01-18T21:59:15.992-00:00",
        "included_in_blocks":
          [ "BLysSy2FQ136UqT9UH9vNHKydkZmvqrWCnXTHpRWgWbsi9mhHqY" ] },
      { "delegate": "tz1MQJPGNMijnXnVoBENFz9rUhaPt3S7rWoz",
        "reception_time": "2022-01-18T21:59:15.900-00:00",
        "included_in_blocks":
          [ "BLysSy2FQ136UqT9UH9vNHKydkZmvqrWCnXTHpRWgWbsi9mhHqY" ] },
      { "delegate": "tz1VHmaNfUC9BBcm851g2fhgSUq8NxFapuCA",
        "reception_time": "2022-01-18T21:59:15.713-00:00",
        "included_in_blocks":
          [ "BLysSy2FQ136UqT9UH9vNHKydkZmvqrWCnXTHpRWgWbsi9mhHqY" ] },
      { "delegate": "tz1gfArv665EUkSg2ojMBzcbfwuPxAvqPvjo",
        "reception_time": "2022-01-18T21:59:15.744-00:00",
        "included_in_blocks":
          [ "BLysSy2FQ136UqT9UH9vNHKydkZmvqrWCnXTHpRWgWbsi9mhHqY" ] },
      { "delegate": "tz1S8MNvuFEUsWgjHvi3AxibRBf388NhT1q2",
        "reception_time": "2022-01-18T21:59:15.785-00:00",
        "included_in_blocks":
          [ "BLysSy2FQ136UqT9UH9vNHKydkZmvqrWCnXTHpRWgWbsi9mhHqY" ] },
      { "delegate": "tz1LmaFsWRkjr7QMCx5PtV6xTUz3AmEpKQiF",
        "reception_time": "2022-01-18T21:59:15.706-00:00",
        "included_in_blocks":
          [ "BLysSy2FQ136UqT9UH9vNHKydkZmvqrWCnXTHpRWgWbsi9mhHqY" ] },
      { "delegate": "tz3RDC3Jdn4j15J7bBHZd29EUee9gVB1CxD9",
        "reception_time": "2022-01-18T21:59:15.600-00:00",
        "included_in_blocks":
          [ "BLysSy2FQ136UqT9UH9vNHKydkZmvqrWCnXTHpRWgWbsi9mhHqY" ] },
      { "delegate": "tz1PWCDnz783NNGGQjEFFsHtrcK5yBW4E2rm",
        "reception_time": "2022-01-18T21:59:15.569-00:00",
        "included_in_blocks":
          [ "BLysSy2FQ136UqT9UH9vNHKydkZmvqrWCnXTHpRWgWbsi9mhHqY" ] },
      { "delegate": "tz1UJvHTgpVzcKWhTazGxVcn5wsHru5Gietg",
        "reception_time": "2022-01-18T21:59:15.589-00:00",
        "included_in_blocks":
          [ "BLysSy2FQ136UqT9UH9vNHKydkZmvqrWCnXTHpRWgWbsi9mhHqY" ] },
      { "delegate": "tz1cSj7fTex3JPd1p1LN1fwek6AV1kH93Wwc",
        "reception_time": "2022-01-18T21:59:15.545-00:00",
        "included_in_blocks":
          [ "BLysSy2FQ136UqT9UH9vNHKydkZmvqrWCnXTHpRWgWbsi9mhHqY" ] },
      { "delegate": "tz1YhNsiRRU8aHNGg7NK3uuP6UDAyacJernB",
        "reception_time": "2022-01-18T21:59:15.533-00:00",
        "included_in_blocks":
          [ "BLysSy2FQ136UqT9UH9vNHKydkZmvqrWCnXTHpRWgWbsi9mhHqY" ] },
      { "delegate": "tz1gcna2xxZj2eNp1LaMyAhVJ49mEFj4FH26",
        "reception_time": "2022-01-18T21:59:15.533-00:00",
        "included_in_blocks":
          [ "BLysSy2FQ136UqT9UH9vNHKydkZmvqrWCnXTHpRWgWbsi9mhHqY" ] },
      { "delegate": "tz1WCd2jm4uSt4vntk4vSuUWoZQGhLcDuR9q",
        "reception_time": "2022-01-18T21:59:15.533-00:00",
        "included_in_blocks":
          [ "BLysSy2FQ136UqT9UH9vNHKydkZmvqrWCnXTHpRWgWbsi9mhHqY" ] },
      { "delegate": "tz1TzaNn7wSQSP5gYPXCnNzBCpyMiidCq1PX",
        "reception_time": "2022-01-18T21:59:15.533-00:00",
        "included_in_blocks":
          [ "BLysSy2FQ136UqT9UH9vNHKydkZmvqrWCnXTHpRWgWbsi9mhHqY" ] },
      { "delegate": "tz3QT9dHYKDqh563chVa6za8526ys1UKfRfL",
        "reception_time": "2022-01-18T21:59:15.533-00:00",
        "included_in_blocks":
          [ "BLysSy2FQ136UqT9UH9vNHKydkZmvqrWCnXTHpRWgWbsi9mhHqY" ] },
      { "delegate": "tz3S6BBeKgJGXxvLyZ1xzXzMPn11nnFtq5L9",
        "reception_time": "2022-01-18T21:59:15.533-00:00",
        "included_in_blocks":
          [ "BLysSy2FQ136UqT9UH9vNHKydkZmvqrWCnXTHpRWgWbsi9mhHqY" ] },
      { "delegate": "tz1VmiY38m3y95HqQLjMwqnMS7sdMfGomzKi",
        "reception_time": "2022-01-18T21:59:15.533-00:00",
        "included_in_blocks":
          [ "BLysSy2FQ136UqT9UH9vNHKydkZmvqrWCnXTHpRWgWbsi9mhHqY" ] },
      { "delegate": "tz1NadALtM1Z4jWBxHbPUgvQrjqQoFJXTZz5",
        "reception_time": "2022-01-18T21:59:15.533-00:00",
        "included_in_blocks":
          [ "BLysSy2FQ136UqT9UH9vNHKydkZmvqrWCnXTHpRWgWbsi9mhHqY" ] },
      { "delegate": "tz3iJu5vrKZcsqRPs8yJ61UDoeEXZmtro4qh",
        "reception_time": "2022-01-18T21:59:15.533-00:00",
        "included_in_blocks":
          [ "BLysSy2FQ136UqT9UH9vNHKydkZmvqrWCnXTHpRWgWbsi9mhHqY" ] },
      { "delegate": "tz3hw2kqXhLUvY65ca1eety2oQTpAvd34R9Q",
        "reception_time": "2022-01-18T21:59:15.533-00:00",
        "included_in_blocks":
          [ "BLysSy2FQ136UqT9UH9vNHKydkZmvqrWCnXTHpRWgWbsi9mhHqY" ] },
      { "delegate": "tz3RKYFsLuQzKBtmYuLNas7uMu3AsYd4QdsA",
        "reception_time": "2022-01-18T21:59:15.533-00:00",
        "included_in_blocks":
          [ "BLysSy2FQ136UqT9UH9vNHKydkZmvqrWCnXTHpRWgWbsi9mhHqY" ] },
      { "delegate": "tz3ZbP2pM3nwvXztbuMJwJnDvV5xdpU8UkkD",
        "reception_time": "2022-01-18T21:59:15.533-00:00",
        "included_in_blocks":
          [ "BLysSy2FQ136UqT9UH9vNHKydkZmvqrWCnXTHpRWgWbsi9mhHqY" ] },
      { "delegate": "tz3NxTnke1acr8o3h5y9ytf5awQBGNJUKzVU",
        "reception_time": "2022-01-18T21:59:15.533-00:00",
        "included_in_blocks":
          [ "BLysSy2FQ136UqT9UH9vNHKydkZmvqrWCnXTHpRWgWbsi9mhHqY" ] },
      { "delegate": "tz3gtoUxdudfBRcNY7iVdKPHCYYX6xdPpoRS",
        "reception_time": "2022-01-18T21:59:15.533-00:00",
        "included_in_blocks":
          [ "BLysSy2FQ136UqT9UH9vNHKydkZmvqrWCnXTHpRWgWbsi9mhHqY" ] },
      { "delegate": "tz3QSGPoRp3Kn7n3vY24eYeu3Peuqo45LQ4D",
        "reception_time": "2022-01-18T21:59:15.533-00:00",
        "included_in_blocks":
          [ "BLysSy2FQ136UqT9UH9vNHKydkZmvqrWCnXTHpRWgWbsi9mhHqY" ] },
      { "delegate": "tz1Ldzz6k1BHdhuKvAtMRX7h5kJSMHESMHLC",
        "reception_time": "2022-01-18T21:59:15.533-00:00",
        "included_in_blocks":
          [ "BLysSy2FQ136UqT9UH9vNHKydkZmvqrWCnXTHpRWgWbsi9mhHqY" ] },
      { "delegate": "tz1irJKkXS2DBWkU1NnmFQx1c1L7pbGg4yhk",
        "reception_time": "2022-01-18T21:59:15.533-00:00",
        "included_in_blocks":
          [ "BLysSy2FQ136UqT9UH9vNHKydkZmvqrWCnXTHpRWgWbsi9mhHqY" ] },
      { "delegate": "tz1TRspM5SeZpaQUhzByXbEvqKF1vnCM2YTK",
        "reception_time": "2022-01-18T21:59:15.214-00:00",
        "included_in_blocks":
          [ "BLysSy2FQ136UqT9UH9vNHKydkZmvqrWCnXTHpRWgWbsi9mhHqY" ] },
      { "delegate": "tz1ZPh7XfUaJXUDvkrBxmS1BjEM1i62hiPpM",
        "reception_time": "2022-01-18T21:59:15.214-00:00",
        "included_in_blocks":
          [ "BLysSy2FQ136UqT9UH9vNHKydkZmvqrWCnXTHpRWgWbsi9mhHqY" ] },
      { "delegate": "tz1P2Po7YM526ughEsRbY4oR9zaUPDZjxFrb",
        "reception_time": "2022-01-18T21:59:15.533-00:00",
        "included_in_blocks":
          [ "BLysSy2FQ136UqT9UH9vNHKydkZmvqrWCnXTHpRWgWbsi9mhHqY" ] },
      { "delegate": "tz1RV1MBbZMR68tacosb7Mwj6LkbPSUS1er1",
        "reception_time": "2022-01-18T21:59:15.533-00:00",
        "included_in_blocks":
          [ "BLysSy2FQ136UqT9UH9vNHKydkZmvqrWCnXTHpRWgWbsi9mhHqY" ] },
      { "delegate": "tz1eEnQhbwf6trb8Q8mPb2RaPkNk2rN7BKi8",
        "reception_time": "2022-01-18T21:59:15.533-00:00",
        "included_in_blocks":
          [ "BLysSy2FQ136UqT9UH9vNHKydkZmvqrWCnXTHpRWgWbsi9mhHqY" ] },
      { "delegate": "tz1MXFrtZoaXckE41bjUCSjAjAap3AFDSr3N",
        "reception_time": "2022-01-18T21:59:15.214-00:00",
        "included_in_blocks":
          [ "BLysSy2FQ136UqT9UH9vNHKydkZmvqrWCnXTHpRWgWbsi9mhHqY" ] },
      { "delegate": "tz1gUNyn3hmnEWqkusWPzxRaon1cs7ndWh7h",
        "reception_time": "2022-01-18T21:59:15.214-00:00",
        "included_in_blocks":
          [ "BLysSy2FQ136UqT9UH9vNHKydkZmvqrWCnXTHpRWgWbsi9mhHqY" ] },
      { "delegate": "tz1VQnqCCqX4K5sP3FNkVSNKTdCAMJDd3E1n",
        "reception_time": "2022-01-18T21:59:15.533-00:00",
        "included_in_blocks":
          [ "BLysSy2FQ136UqT9UH9vNHKydkZmvqrWCnXTHpRWgWbsi9mhHqY" ] } ] }