{ "blocks":
    [ { "hash": "BMXaMrdzUCtBDY9Q8Zf29A1gMHYQeB59f62KiZ1VdZeLLv5Fekz",
        "delegate": "tz3bTdwZinP8U1JmSweNzVKhmwafqWmFWRfk",
        "reception_time": "2022-01-18T17:44:31.585-00:00",
        "timestamp": "2022-01-18T17:44:20Z" } ],
  "endorsements":
    [ { "delegate": "tz1ibcPVGK4Y8pcW4BYUsojiHoBKnZbyDGrX" },
      { "delegate": "tz1aXD7Jigrt3PBYSpHSg5Rr33SexMmmM5Ys",
        "reception_time": "2022-01-18T17:44:31.527-00:00",
        "errors":
          [ { "kind": "temporary",
              "id": "proto.011-PtHangz2.prefilter.outdated_endorsement" } ],
        "included_in_blocks":
          [ "BM5RfrQV6RWsuQSEZTqz4A1UesJmoKAT5ZRur74bS51tY3wiqen" ] },
      { "delegate": "tz1irJKkXS2DBWkU1NnmFQx1c1L7pbGg4yhk",
        "reception_time": "2022-01-18T17:44:31.512-00:00",
        "errors":
          [ { "kind": "temporary",
              "id": "proto.011-PtHangz2.prefilter.outdated_endorsement" } ],
        "included_in_blocks":
          [ "BM5RfrQV6RWsuQSEZTqz4A1UesJmoKAT5ZRur74bS51tY3wiqen" ] },
      { "delegate": "tz1Kt4P8BCaP93AEV4eA7gmpRryWt5hznjCP",
        "reception_time": "2022-01-18T17:44:31.491-00:00",
        "errors":
          [ { "kind": "temporary",
              "id": "proto.011-PtHangz2.prefilter.outdated_endorsement" } ],
        "included_in_blocks":
          [ "BM5RfrQV6RWsuQSEZTqz4A1UesJmoKAT5ZRur74bS51tY3wiqen" ] },
      { "delegate": "tz1RV1MBbZMR68tacosb7Mwj6LkbPSUS1er1",
        "reception_time": "2022-01-18T17:44:31.400-00:00",
        "errors":
          [ { "kind": "temporary",
              "id": "proto.011-PtHangz2.prefilter.outdated_endorsement" } ],
        "included_in_blocks":
          [ "BM5RfrQV6RWsuQSEZTqz4A1UesJmoKAT5ZRur74bS51tY3wiqen" ] },
      { "delegate": "tz1P2Po7YM526ughEsRbY4oR9zaUPDZjxFrb",
        "reception_time": "2022-01-18T17:44:31.175-00:00",
        "errors":
          [ { "kind": "temporary",
              "id": "proto.011-PtHangz2.prefilter.outdated_endorsement" } ],
        "included_in_blocks":
          [ "BM5RfrQV6RWsuQSEZTqz4A1UesJmoKAT5ZRur74bS51tY3wiqen" ] },
      { "delegate": "tz1S8e9GgdZG78XJRB3NqabfWeM37GnhZMWQ",
        "reception_time": "2022-01-18T17:44:30.508-00:00",
        "errors":
          [ { "kind": "temporary",
              "id": "proto.011-PtHangz2.prefilter.outdated_endorsement" } ],
        "included_in_blocks":
          [ "BM5RfrQV6RWsuQSEZTqz4A1UesJmoKAT5ZRur74bS51tY3wiqen" ] },
      { "delegate": "tz1NpWrAyDL9k2Lmnyxcgr9xuJakbBxdq7FB",
        "reception_time": "2022-01-18T17:44:45.366-00:00",
        "included_in_blocks":
          [ "BM5RfrQV6RWsuQSEZTqz4A1UesJmoKAT5ZRur74bS51tY3wiqen" ] },
      { "delegate": "tz1g8vkmcde6sWKaG2NN9WKzCkDM6Rziq194",
        "reception_time": "2022-01-18T17:44:38.051-00:00",
        "included_in_blocks":
          [ "BM5RfrQV6RWsuQSEZTqz4A1UesJmoKAT5ZRur74bS51tY3wiqen" ] },
      { "delegate": "tz1W5VkdB5s7ENMESVBtwyt9kyvLqPcUczRT",
        "reception_time": "2022-01-18T17:44:38.004-00:00",
        "included_in_blocks":
          [ "BM5RfrQV6RWsuQSEZTqz4A1UesJmoKAT5ZRur74bS51tY3wiqen" ] },
      { "delegate": "tz1Z9M4biBHSiH38k5ciRMjR5bgk89yEgLTz",
        "reception_time": "2022-01-18T17:44:37.593-00:00",
        "included_in_blocks":
          [ "BM5RfrQV6RWsuQSEZTqz4A1UesJmoKAT5ZRur74bS51tY3wiqen" ] },
      { "delegate": "tz1fJHFn6sWEd3NnBPngACuw2dggTv6nQZ7g",
        "reception_time": "2022-01-18T17:44:37.338-00:00",
        "included_in_blocks":
          [ "BM5RfrQV6RWsuQSEZTqz4A1UesJmoKAT5ZRur74bS51tY3wiqen" ] },
      { "delegate": "tz1aRoaRhSpRYvFdyvgWLL6TGyRoGF51wDjM",
        "reception_time": "2022-01-18T17:44:36.286-00:00",
        "included_in_blocks":
          [ "BM5RfrQV6RWsuQSEZTqz4A1UesJmoKAT5ZRur74bS51tY3wiqen" ] },
      { "delegate": "tz1acZQd7TdfoiUnD2czHnTHB2TaJQP6gdqo",
        "reception_time": "2022-01-18T17:44:36.164-00:00",
        "included_in_blocks":
          [ "BM5RfrQV6RWsuQSEZTqz4A1UesJmoKAT5ZRur74bS51tY3wiqen" ] },
      { "delegate": "tz1cYufsxHXJcvANhvS55h3aY32a9BAFB494",
        "reception_time": "2022-01-18T17:44:36.076-00:00",
        "included_in_blocks":
          [ "BM5RfrQV6RWsuQSEZTqz4A1UesJmoKAT5ZRur74bS51tY3wiqen" ] },
      { "delegate": "tz1NRGxXV9h6SdNaZLcgmjuLx3hyy2f8YoGN",
        "reception_time": "2022-01-18T17:44:35.494-00:00",
        "included_in_blocks":
          [ "BM5RfrQV6RWsuQSEZTqz4A1UesJmoKAT5ZRur74bS51tY3wiqen" ] },
      { "delegate": "tz1ZcTRk5uxD86EFEn1vvNffWWqJy7q5eVhc",
        "reception_time": "2022-01-18T17:44:35.437-00:00",
        "included_in_blocks":
          [ "BM5RfrQV6RWsuQSEZTqz4A1UesJmoKAT5ZRur74bS51tY3wiqen" ] },
      { "delegate": "tz1RjoHc98dBoqaH2jawF62XNKh7YsHwbkEv",
        "reception_time": "2022-01-18T17:44:35.527-00:00",
        "included_in_blocks":
          [ "BM5RfrQV6RWsuQSEZTqz4A1UesJmoKAT5ZRur74bS51tY3wiqen" ] },
      { "delegate": "tz1WnfXMPaNTBmH7DBPwqCWs9cPDJdkGBTZ8",
        "reception_time": "2022-01-18T17:44:35.241-00:00",
        "included_in_blocks":
          [ "BM5RfrQV6RWsuQSEZTqz4A1UesJmoKAT5ZRur74bS51tY3wiqen" ] },
      { "delegate": "tz3NExpXn9aPNZPorRE4SdjJ2RGrfbJgMAaV",
        "reception_time": "2022-01-18T17:44:35.238-00:00",
        "included_in_blocks":
          [ "BM5RfrQV6RWsuQSEZTqz4A1UesJmoKAT5ZRur74bS51tY3wiqen" ] },
      { "delegate": "tz1T7duV5gZWSTq4YpBGbXNLTfznCLDrFxvs",
        "reception_time": "2022-01-18T17:44:34.850-00:00",
        "included_in_blocks":
          [ "BM5RfrQV6RWsuQSEZTqz4A1UesJmoKAT5ZRur74bS51tY3wiqen" ] },
      { "delegate": "tz3bvNMQ95vfAYtG8193ymshqjSvmxiCUuR5",
        "reception_time": "2022-01-18T17:44:34.888-00:00",
        "included_in_blocks":
          [ "BM5RfrQV6RWsuQSEZTqz4A1UesJmoKAT5ZRur74bS51tY3wiqen" ] },
      { "delegate": "tz3NDpRj6WBrJPikcPVHRBEjWKxFw3c6eQPS",
        "reception_time": "2022-01-18T17:44:34.792-00:00",
        "included_in_blocks":
          [ "BM5RfrQV6RWsuQSEZTqz4A1UesJmoKAT5ZRur74bS51tY3wiqen" ] },
      { "delegate": "tz1WctSwL49BZtdWAQ75NY6vr4xsAx6oKdah",
        "reception_time": "2022-01-18T17:44:34.768-00:00",
        "included_in_blocks":
          [ "BM5RfrQV6RWsuQSEZTqz4A1UesJmoKAT5ZRur74bS51tY3wiqen" ] },
      { "delegate": "tz1RzwaogUQ8zPntqrSn4yn5f3VquXfEH5Jo",
        "reception_time": "2022-01-18T17:44:34.826-00:00",
        "included_in_blocks":
          [ "BM5RfrQV6RWsuQSEZTqz4A1UesJmoKAT5ZRur74bS51tY3wiqen" ] },
      { "delegate": "tz2FCNBrERXtaTtNX6iimR1UJ5JSDxvdHM93",
        "reception_time": "2022-01-18T17:44:34.784-00:00",
        "included_in_blocks":
          [ "BM5RfrQV6RWsuQSEZTqz4A1UesJmoKAT5ZRur74bS51tY3wiqen" ] },
      { "delegate": "tz3RDC3Jdn4j15J7bBHZd29EUee9gVB1CxD9",
        "reception_time": "2022-01-18T17:44:34.929-00:00",
        "included_in_blocks":
          [ "BM5RfrQV6RWsuQSEZTqz4A1UesJmoKAT5ZRur74bS51tY3wiqen" ] },
      { "delegate": "tz1abmz7jiCV2GH2u81LRrGgAFFgvQgiDiaf",
        "reception_time": "2022-01-18T17:44:34.910-00:00",
        "included_in_blocks":
          [ "BM5RfrQV6RWsuQSEZTqz4A1UesJmoKAT5ZRur74bS51tY3wiqen" ] },
      { "delegate": "tz3RB4aoyjov4KEVRbuhvQ1CKJgBJMWhaeB8",
        "reception_time": "2022-01-18T17:44:34.709-00:00",
        "included_in_blocks":
          [ "BM5RfrQV6RWsuQSEZTqz4A1UesJmoKAT5ZRur74bS51tY3wiqen" ] },
      { "delegate": "tz3QCNyySViKHmeSr45kzDxzchys7NiXCWoa",
        "reception_time": "2022-01-18T17:44:34.761-00:00",
        "included_in_blocks":
          [ "BM5RfrQV6RWsuQSEZTqz4A1UesJmoKAT5ZRur74bS51tY3wiqen" ] },
      { "delegate": "tz1S8MNvuFEUsWgjHvi3AxibRBf388NhT1q2",
        "reception_time": "2022-01-18T17:44:34.745-00:00",
        "included_in_blocks":
          [ "BM5RfrQV6RWsuQSEZTqz4A1UesJmoKAT5ZRur74bS51tY3wiqen" ] },
      { "delegate": "tz1RCFbB9GpALpsZtu6J58sb74dm8qe6XBzv",
        "reception_time": "2022-01-18T17:44:34.719-00:00",
        "included_in_blocks":
          [ "BM5RfrQV6RWsuQSEZTqz4A1UesJmoKAT5ZRur74bS51tY3wiqen" ] },
      { "delegate": "tz1NortRftucvAkD1J58L32EhSVrQEWJCEnB",
        "reception_time": "2022-01-18T17:44:34.581-00:00",
        "included_in_blocks":
          [ "BM5RfrQV6RWsuQSEZTqz4A1UesJmoKAT5ZRur74bS51tY3wiqen" ] },
      { "delegate": "tz3VEZ4k6a4Wx42iyev6i2aVAptTRLEAivNN",
        "reception_time": "2022-01-18T17:44:34.651-00:00",
        "included_in_blocks":
          [ "BM5RfrQV6RWsuQSEZTqz4A1UesJmoKAT5ZRur74bS51tY3wiqen" ] },
      { "delegate": "tz1fZ767VDbqx4DeKiFswPSHh513f51mKEUZ",
        "reception_time": "2022-01-18T17:44:34.715-00:00",
        "included_in_blocks":
          [ "BM5RfrQV6RWsuQSEZTqz4A1UesJmoKAT5ZRur74bS51tY3wiqen" ] },
      { "delegate": "tz1MUbPBAH6jzhex85AW6MD9uJzXP58N1Dro",
        "reception_time": "2022-01-18T17:44:34.774-00:00",
        "included_in_blocks":
          [ "BM5RfrQV6RWsuQSEZTqz4A1UesJmoKAT5ZRur74bS51tY3wiqen" ] },
      { "delegate": "tz1TEc75UKXv4W5cwi14Na3NtqFD51yKQi7h",
        "reception_time": "2022-01-18T17:44:34.734-00:00",
        "included_in_blocks":
          [ "BM5RfrQV6RWsuQSEZTqz4A1UesJmoKAT5ZRur74bS51tY3wiqen" ] },
      { "delegate": "tz3UoffC7FG7zfpmvmjUmUeAaHvzdcUvAj6r",
        "reception_time": "2022-01-18T17:44:34.622-00:00",
        "included_in_blocks":
          [ "BM5RfrQV6RWsuQSEZTqz4A1UesJmoKAT5ZRur74bS51tY3wiqen" ] },
      { "delegate": "tz1NEKxGEHsFufk87CVZcrqWu8o22qh46GK6",
        "reception_time": "2022-01-18T17:44:34.730-00:00",
        "included_in_blocks":
          [ "BM5RfrQV6RWsuQSEZTqz4A1UesJmoKAT5ZRur74bS51tY3wiqen" ] },
      { "delegate": "tz1WBfwbT66FC6BTLexc2BoyCCBM9LG7pnVW",
        "reception_time": "2022-01-18T17:44:34.741-00:00",
        "included_in_blocks":
          [ "BM5RfrQV6RWsuQSEZTqz4A1UesJmoKAT5ZRur74bS51tY3wiqen" ] },
      { "delegate": "tz1KfEsrtDaA1sX7vdM4qmEPWuSytuqCDp5j",
        "reception_time": "2022-01-18T17:44:34.531-00:00",
        "included_in_blocks":
          [ "BM5RfrQV6RWsuQSEZTqz4A1UesJmoKAT5ZRur74bS51tY3wiqen" ] },
      { "delegate": "tz3WMqdzXqRWXwyvj5Hp2H7QEepaUuS7vd9K",
        "reception_time": "2022-01-18T17:44:34.753-00:00",
        "included_in_blocks":
          [ "BM5RfrQV6RWsuQSEZTqz4A1UesJmoKAT5ZRur74bS51tY3wiqen" ] },
      { "delegate": "tz1gfArv665EUkSg2ojMBzcbfwuPxAvqPvjo",
        "reception_time": "2022-01-18T17:44:34.499-00:00",
        "included_in_blocks":
          [ "BM5RfrQV6RWsuQSEZTqz4A1UesJmoKAT5ZRur74bS51tY3wiqen" ] },
      { "delegate": "tz1Nf6tsK4G6bBqgSQERy4nUtkHNKUVdh7q1",
        "reception_time": "2022-01-18T17:44:34.614-00:00",
        "included_in_blocks":
          [ "BM5RfrQV6RWsuQSEZTqz4A1UesJmoKAT5ZRur74bS51tY3wiqen" ] },
      { "delegate": "tz1ei4WtWEMEJekSv8qDnu9PExG6Q8HgRGr3",
        "reception_time": "2022-01-18T17:44:34.591-00:00",
        "included_in_blocks":
          [ "BM5RfrQV6RWsuQSEZTqz4A1UesJmoKAT5ZRur74bS51tY3wiqen" ] },
      { "delegate": "tz3iJu5vrKZcsqRPs8yJ61UDoeEXZmtro4qh",
        "reception_time": "2022-01-18T17:44:34.568-00:00",
        "included_in_blocks":
          [ "BM5RfrQV6RWsuQSEZTqz4A1UesJmoKAT5ZRur74bS51tY3wiqen" ] },
      { "delegate": "tz3Zhs2dygr55yHyQyKjntAtY9bgfhLZ4Xj1",
        "reception_time": "2022-01-18T17:44:34.693-00:00",
        "included_in_blocks":
          [ "BM5RfrQV6RWsuQSEZTqz4A1UesJmoKAT5ZRur74bS51tY3wiqen" ] },
      { "delegate": "tz1RSRhQCg3KYjr9QPFCLgGKciaB93oGTRh2",
        "reception_time": "2022-01-18T17:44:34.515-00:00",
        "included_in_blocks":
          [ "BM5RfrQV6RWsuQSEZTqz4A1UesJmoKAT5ZRur74bS51tY3wiqen" ] },
      { "delegate": "tz3e7LbZvUtoXhpUD1yb6wuFodZpfYRb9nWJ",
        "reception_time": "2022-01-18T17:44:34.531-00:00",
        "included_in_blocks":
          [ "BM5RfrQV6RWsuQSEZTqz4A1UesJmoKAT5ZRur74bS51tY3wiqen" ] },
      { "delegate": "tz1MQMiZHV8q4tTwUMWmS5Y3kaP6J2136iXr",
        "reception_time": "2022-01-18T17:44:34.669-00:00",
        "included_in_blocks":
          [ "BM5RfrQV6RWsuQSEZTqz4A1UesJmoKAT5ZRur74bS51tY3wiqen" ] },
      { "delegate": "tz3QT9dHYKDqh563chVa6za8526ys1UKfRfL",
        "reception_time": "2022-01-18T17:44:34.560-00:00",
        "included_in_blocks":
          [ "BM5RfrQV6RWsuQSEZTqz4A1UesJmoKAT5ZRur74bS51tY3wiqen" ] },
      { "delegate": "tz3S6BBeKgJGXxvLyZ1xzXzMPn11nnFtq5L9",
        "reception_time": "2022-01-18T17:44:34.630-00:00",
        "included_in_blocks":
          [ "BM5RfrQV6RWsuQSEZTqz4A1UesJmoKAT5ZRur74bS51tY3wiqen" ] },
      { "delegate": "tz1PWCDnz783NNGGQjEFFsHtrcK5yBW4E2rm",
        "reception_time": "2022-01-18T17:44:34.586-00:00",
        "included_in_blocks":
          [ "BM5RfrQV6RWsuQSEZTqz4A1UesJmoKAT5ZRur74bS51tY3wiqen" ] },
      { "delegate": "tz3QSGPoRp3Kn7n3vY24eYeu3Peuqo45LQ4D",
        "reception_time": "2022-01-18T17:44:34.643-00:00",
        "included_in_blocks":
          [ "BM5RfrQV6RWsuQSEZTqz4A1UesJmoKAT5ZRur74bS51tY3wiqen" ] },
      { "delegate": "tz3gtoUxdudfBRcNY7iVdKPHCYYX6xdPpoRS",
        "reception_time": "2022-01-18T17:44:34.507-00:00",
        "included_in_blocks":
          [ "BM5RfrQV6RWsuQSEZTqz4A1UesJmoKAT5ZRur74bS51tY3wiqen" ] },
      { "delegate": "tz1gUNyn3hmnEWqkusWPzxRaon1cs7ndWh7h",
        "reception_time": "2022-01-18T17:44:34.510-00:00",
        "included_in_blocks":
          [ "BM5RfrQV6RWsuQSEZTqz4A1UesJmoKAT5ZRur74bS51tY3wiqen" ] },
      { "delegate": "tz1TRspM5SeZpaQUhzByXbEvqKF1vnCM2YTK",
        "reception_time": "2022-01-18T17:44:34.576-00:00",
        "included_in_blocks":
          [ "BM5RfrQV6RWsuQSEZTqz4A1UesJmoKAT5ZRur74bS51tY3wiqen" ] },
      { "delegate": "tz1VmiY38m3y95HqQLjMwqnMS7sdMfGomzKi",
        "reception_time": "2022-01-18T17:44:34.520-00:00",
        "included_in_blocks":
          [ "BM5RfrQV6RWsuQSEZTqz4A1UesJmoKAT5ZRur74bS51tY3wiqen" ] },
      { "delegate": "tz1eEnQhbwf6trb8Q8mPb2RaPkNk2rN7BKi8",
        "reception_time": "2022-01-18T17:44:34.457-00:00",
        "included_in_blocks":
          [ "BM5RfrQV6RWsuQSEZTqz4A1UesJmoKAT5ZRur74bS51tY3wiqen" ] },
      { "delegate": "tz1TzaNn7wSQSP5gYPXCnNzBCpyMiidCq1PX",
        "reception_time": "2022-01-18T17:44:34.475-00:00",
        "included_in_blocks":
          [ "BM5RfrQV6RWsuQSEZTqz4A1UesJmoKAT5ZRur74bS51tY3wiqen" ] },
      { "delegate": "tz3RKYFsLuQzKBtmYuLNas7uMu3AsYd4QdsA",
        "reception_time": "2022-01-18T17:44:34.469-00:00",
        "included_in_blocks":
          [ "BM5RfrQV6RWsuQSEZTqz4A1UesJmoKAT5ZRur74bS51tY3wiqen" ] },
      { "delegate": "tz3hw2kqXhLUvY65ca1eety2oQTpAvd34R9Q",
        "reception_time": "2022-01-18T17:44:34.440-00:00",
        "included_in_blocks":
          [ "BM5RfrQV6RWsuQSEZTqz4A1UesJmoKAT5ZRur74bS51tY3wiqen" ] },
      { "delegate": "tz1Ldzz6k1BHdhuKvAtMRX7h5kJSMHESMHLC",
        "reception_time": "2022-01-18T17:44:34.463-00:00",
        "included_in_blocks":
          [ "BM5RfrQV6RWsuQSEZTqz4A1UesJmoKAT5ZRur74bS51tY3wiqen" ] },
      { "delegate": "tz1VQnqCCqX4K5sP3FNkVSNKTdCAMJDd3E1n",
        "reception_time": "2022-01-18T17:44:34.610-00:00",
        "included_in_blocks":
          [ "BM5RfrQV6RWsuQSEZTqz4A1UesJmoKAT5ZRur74bS51tY3wiqen" ] },
      { "delegate": "tz3NxTnke1acr8o3h5y9ytf5awQBGNJUKzVU",
        "reception_time": "2022-01-18T17:44:34.494-00:00",
        "included_in_blocks":
          [ "BM5RfrQV6RWsuQSEZTqz4A1UesJmoKAT5ZRur74bS51tY3wiqen" ] },
      { "delegate": "tz3bTdwZinP8U1JmSweNzVKhmwafqWmFWRfk",
        "reception_time": "2022-01-18T17:44:34.451-00:00",
        "included_in_blocks":
          [ "BM5RfrQV6RWsuQSEZTqz4A1UesJmoKAT5ZRur74bS51tY3wiqen" ] },
      { "delegate": "tz1XfAjZyaLdceHnZxbMYop7g7kWKPut4PR7",
        "reception_time": "2022-01-18T17:44:34.129-00:00",
        "included_in_blocks":
          [ "BM5RfrQV6RWsuQSEZTqz4A1UesJmoKAT5ZRur74bS51tY3wiqen" ] } ] }