{ "blocks":
    [ { "hash": "BLoGam4xGcc3Lrxg1Hifa5pVqynNAocsJd4Ngtqxf1qB9dnkmb7",
        "delegate": "tz1gfArv665EUkSg2ojMBzcbfwuPxAvqPvjo",
        "reception_time": "2022-01-18T20:37:02.326-00:00",
        "timestamp": "2022-01-18T20:36:50Z" } ],
  "endorsements":
    [ { "delegate": "tz1Kt4P8BCaP93AEV4eA7gmpRryWt5hznjCP",
        "reception_time": "2022-01-18T20:37:02.246-00:00",
        "errors":
          [ { "kind": "temporary",
              "id": "proto.011-PtHangz2.prefilter.outdated_endorsement" } ],
        "included_in_blocks":
          [ "BLApKLjp9j4QXZqfVfQSRTB4cwP1VCnwDN1Ut45FM95yYm4faYw" ] },
      { "delegate": "tz1P2Po7YM526ughEsRbY4oR9zaUPDZjxFrb",
        "reception_time": "2022-01-18T20:37:02.243-00:00",
        "errors":
          [ { "kind": "temporary",
              "id": "proto.011-PtHangz2.prefilter.outdated_endorsement" } ],
        "included_in_blocks":
          [ "BLApKLjp9j4QXZqfVfQSRTB4cwP1VCnwDN1Ut45FM95yYm4faYw" ] },
      { "delegate": "tz1bsdrs36X5BTH83RHUBdUouKLJZK8d2oBa",
        "reception_time": "2022-01-18T20:37:02.217-00:00",
        "errors":
          [ { "kind": "temporary",
              "id": "proto.011-PtHangz2.prefilter.outdated_endorsement" } ],
        "included_in_blocks":
          [ "BLApKLjp9j4QXZqfVfQSRTB4cwP1VCnwDN1Ut45FM95yYm4faYw" ] },
      { "delegate": "tz1Lhf4J9Qxoe3DZ2nfe8FGDnvVj7oKjnMY6",
        "reception_time": "2022-01-18T20:37:02.197-00:00",
        "errors":
          [ { "kind": "temporary",
              "id": "proto.011-PtHangz2.prefilter.outdated_endorsement" } ],
        "included_in_blocks":
          [ "BLApKLjp9j4QXZqfVfQSRTB4cwP1VCnwDN1Ut45FM95yYm4faYw" ] },
      { "delegate": "tz1S8e9GgdZG78XJRB3NqabfWeM37GnhZMWQ",
        "reception_time": "2022-01-18T20:37:01.773-00:00",
        "errors":
          [ { "kind": "temporary",
              "id": "proto.011-PtHangz2.prefilter.outdated_endorsement" } ],
        "included_in_blocks":
          [ "BLApKLjp9j4QXZqfVfQSRTB4cwP1VCnwDN1Ut45FM95yYm4faYw" ] },
      { "delegate": "tz1gfArv665EUkSg2ojMBzcbfwuPxAvqPvjo",
        "reception_time": "2022-01-18T20:37:01.456-00:00",
        "errors":
          [ { "kind": "temporary",
              "id": "proto.011-PtHangz2.prefilter.outdated_endorsement" } ],
        "included_in_blocks":
          [ "BLApKLjp9j4QXZqfVfQSRTB4cwP1VCnwDN1Ut45FM95yYm4faYw" ] },
      { "delegate": "tz1aDiEJf9ztRrAJEXZfcG3CKimoKsGhwVAi",
        "reception_time": "2022-01-18T20:37:04.826-00:00",
        "included_in_blocks":
          [ "BLApKLjp9j4QXZqfVfQSRTB4cwP1VCnwDN1Ut45FM95yYm4faYw" ] },
      { "delegate": "tz1VQnqCCqX4K5sP3FNkVSNKTdCAMJDd3E1n",
        "reception_time": "2022-01-18T20:37:04.826-00:00",
        "included_in_blocks":
          [ "BLApKLjp9j4QXZqfVfQSRTB4cwP1VCnwDN1Ut45FM95yYm4faYw" ] },
      { "delegate": "tz1Kf25fX1VdmYGSEzwFy1wNmkbSEZ2V83sY",
        "reception_time": "2022-01-18T20:37:04.826-00:00",
        "included_in_blocks":
          [ "BLApKLjp9j4QXZqfVfQSRTB4cwP1VCnwDN1Ut45FM95yYm4faYw" ] },
      { "delegate": "tz3NxTnke1acr8o3h5y9ytf5awQBGNJUKzVU",
        "reception_time": "2022-01-18T20:37:04.826-00:00",
        "included_in_blocks":
          [ "BLApKLjp9j4QXZqfVfQSRTB4cwP1VCnwDN1Ut45FM95yYm4faYw" ] },
      { "delegate": "tz1gUNyn3hmnEWqkusWPzxRaon1cs7ndWh7h",
        "reception_time": "2022-01-18T20:37:04.826-00:00",
        "included_in_blocks":
          [ "BLApKLjp9j4QXZqfVfQSRTB4cwP1VCnwDN1Ut45FM95yYm4faYw" ] },
      { "delegate": "tz1eDDuQBEgwvc6tbnnCVrnr12tvrd6gBTpx",
        "reception_time": "2022-01-18T20:37:04.826-00:00",
        "included_in_blocks":
          [ "BLApKLjp9j4QXZqfVfQSRTB4cwP1VCnwDN1Ut45FM95yYm4faYw" ] },
      { "delegate": "tz1eEnQhbwf6trb8Q8mPb2RaPkNk2rN7BKi8",
        "reception_time": "2022-01-18T20:37:04.826-00:00",
        "included_in_blocks":
          [ "BLApKLjp9j4QXZqfVfQSRTB4cwP1VCnwDN1Ut45FM95yYm4faYw" ] },
      { "delegate": "tz3S6BBeKgJGXxvLyZ1xzXzMPn11nnFtq5L9",
        "reception_time": "2022-01-18T20:37:04.826-00:00",
        "included_in_blocks":
          [ "BLApKLjp9j4QXZqfVfQSRTB4cwP1VCnwDN1Ut45FM95yYm4faYw" ] },
      { "delegate": "tz1ZPh7XfUaJXUDvkrBxmS1BjEM1i62hiPpM",
        "reception_time": "2022-01-18T20:37:04.826-00:00",
        "included_in_blocks":
          [ "BLApKLjp9j4QXZqfVfQSRTB4cwP1VCnwDN1Ut45FM95yYm4faYw" ] },
      { "delegate": "tz1YhNsiRRU8aHNGg7NK3uuP6UDAyacJernB",
        "reception_time": "2022-01-18T20:37:04.967-00:00",
        "included_in_blocks":
          [ "BLApKLjp9j4QXZqfVfQSRTB4cwP1VCnwDN1Ut45FM95yYm4faYw" ] },
      { "delegate": "tz3QT9dHYKDqh563chVa6za8526ys1UKfRfL",
        "reception_time": "2022-01-18T20:37:04.967-00:00",
        "included_in_blocks":
          [ "BLApKLjp9j4QXZqfVfQSRTB4cwP1VCnwDN1Ut45FM95yYm4faYw" ] },
      { "delegate": "tz1Ldzz6k1BHdhuKvAtMRX7h5kJSMHESMHLC",
        "reception_time": "2022-01-18T20:37:04.967-00:00",
        "included_in_blocks":
          [ "BLApKLjp9j4QXZqfVfQSRTB4cwP1VCnwDN1Ut45FM95yYm4faYw" ] },
      { "delegate": "tz1VmiY38m3y95HqQLjMwqnMS7sdMfGomzKi",
        "reception_time": "2022-01-18T20:37:04.967-00:00",
        "included_in_blocks":
          [ "BLApKLjp9j4QXZqfVfQSRTB4cwP1VCnwDN1Ut45FM95yYm4faYw" ] },
      { "delegate": "tz1STeamwbp68THcny9zk3LsbG3H36DMvbRK",
        "reception_time": "2022-01-18T20:37:04.967-00:00",
        "included_in_blocks":
          [ "BLApKLjp9j4QXZqfVfQSRTB4cwP1VCnwDN1Ut45FM95yYm4faYw" ] },
      { "delegate": "tz1ei4WtWEMEJekSv8qDnu9PExG6Q8HgRGr3",
        "reception_time": "2022-01-18T20:37:04.967-00:00",
        "included_in_blocks":
          [ "BLApKLjp9j4QXZqfVfQSRTB4cwP1VCnwDN1Ut45FM95yYm4faYw" ] },
      { "delegate": "tz1TRspM5SeZpaQUhzByXbEvqKF1vnCM2YTK",
        "reception_time": "2022-01-18T20:37:04.967-00:00",
        "included_in_blocks":
          [ "BLApKLjp9j4QXZqfVfQSRTB4cwP1VCnwDN1Ut45FM95yYm4faYw" ] },
      { "delegate": "tz1MQJPGNMijnXnVoBENFz9rUhaPt3S7rWoz",
        "reception_time": "2022-01-18T20:37:04.967-00:00",
        "included_in_blocks":
          [ "BLApKLjp9j4QXZqfVfQSRTB4cwP1VCnwDN1Ut45FM95yYm4faYw" ] },
      { "delegate": "tz3gtoUxdudfBRcNY7iVdKPHCYYX6xdPpoRS",
        "reception_time": "2022-01-18T20:37:04.967-00:00",
        "included_in_blocks":
          [ "BLApKLjp9j4QXZqfVfQSRTB4cwP1VCnwDN1Ut45FM95yYm4faYw" ] },
      { "delegate": "tz1WCd2jm4uSt4vntk4vSuUWoZQGhLcDuR9q",
        "reception_time": "2022-01-18T20:37:04.967-00:00",
        "included_in_blocks":
          [ "BLApKLjp9j4QXZqfVfQSRTB4cwP1VCnwDN1Ut45FM95yYm4faYw" ] },
      { "delegate": "tz1TzaNn7wSQSP5gYPXCnNzBCpyMiidCq1PX",
        "reception_time": "2022-01-18T20:37:04.967-00:00",
        "included_in_blocks":
          [ "BLApKLjp9j4QXZqfVfQSRTB4cwP1VCnwDN1Ut45FM95yYm4faYw" ] },
      { "delegate": "tz1SFtJ3XwU1d6rWTRfJmwVDFpywcp4J743S",
        "reception_time": "2022-01-18T20:37:04.967-00:00",
        "included_in_blocks":
          [ "BLApKLjp9j4QXZqfVfQSRTB4cwP1VCnwDN1Ut45FM95yYm4faYw" ] },
      { "delegate": "tz3ZbP2pM3nwvXztbuMJwJnDvV5xdpU8UkkD",
        "reception_time": "2022-01-18T20:37:04.967-00:00",
        "included_in_blocks":
          [ "BLApKLjp9j4QXZqfVfQSRTB4cwP1VCnwDN1Ut45FM95yYm4faYw" ] },
      { "delegate": "tz3QSGPoRp3Kn7n3vY24eYeu3Peuqo45LQ4D",
        "reception_time": "2022-01-18T20:37:05.121-00:00",
        "included_in_blocks":
          [ "BLApKLjp9j4QXZqfVfQSRTB4cwP1VCnwDN1Ut45FM95yYm4faYw" ] },
      { "delegate": "tz3hw2kqXhLUvY65ca1eety2oQTpAvd34R9Q",
        "reception_time": "2022-01-18T20:37:05.121-00:00",
        "included_in_blocks":
          [ "BLApKLjp9j4QXZqfVfQSRTB4cwP1VCnwDN1Ut45FM95yYm4faYw" ] },
      { "delegate": "tz1irJKkXS2DBWkU1NnmFQx1c1L7pbGg4yhk",
        "reception_time": "2022-01-18T20:37:05.121-00:00",
        "included_in_blocks":
          [ "BLApKLjp9j4QXZqfVfQSRTB4cwP1VCnwDN1Ut45FM95yYm4faYw" ] },
      { "delegate": "tz1ajgycuHmd2z2JbTSJxKv7x6cok2KuNSk1",
        "reception_time": "2022-01-18T20:37:05.121-00:00",
        "included_in_blocks":
          [ "BLApKLjp9j4QXZqfVfQSRTB4cwP1VCnwDN1Ut45FM95yYm4faYw" ] },
      { "delegate": "tz1MJx9vhaNRSimcuXPK2rW4fLccQnDAnVKJ",
        "reception_time": "2022-01-18T20:37:05.121-00:00",
        "included_in_blocks":
          [ "BLApKLjp9j4QXZqfVfQSRTB4cwP1VCnwDN1Ut45FM95yYm4faYw" ] },
      { "delegate": "tz3iJu5vrKZcsqRPs8yJ61UDoeEXZmtro4qh",
        "reception_time": "2022-01-18T20:37:05.121-00:00",
        "included_in_blocks":
          [ "BLApKLjp9j4QXZqfVfQSRTB4cwP1VCnwDN1Ut45FM95yYm4faYw" ] },
      { "delegate": "tz3RKYFsLuQzKBtmYuLNas7uMu3AsYd4QdsA",
        "reception_time": "2022-01-18T20:37:05.121-00:00",
        "included_in_blocks":
          [ "BLApKLjp9j4QXZqfVfQSRTB4cwP1VCnwDN1Ut45FM95yYm4faYw" ] },
      { "delegate": "tz3Zhs2dygr55yHyQyKjntAtY9bgfhLZ4Xj1",
        "reception_time": "2022-01-18T20:37:05.121-00:00",
        "included_in_blocks":
          [ "BLApKLjp9j4QXZqfVfQSRTB4cwP1VCnwDN1Ut45FM95yYm4faYw" ] },
      { "delegate": "tz1dNVDWPf3Q59SdJqnjdnu277iyvReiRS9M",
        "reception_time": "2022-01-18T20:37:05.121-00:00",
        "included_in_blocks":
          [ "BLApKLjp9j4QXZqfVfQSRTB4cwP1VCnwDN1Ut45FM95yYm4faYw" ] },
      { "delegate": "tz1WnfXMPaNTBmH7DBPwqCWs9cPDJdkGBTZ8",
        "reception_time": "2022-01-18T20:37:05.121-00:00",
        "included_in_blocks":
          [ "BLApKLjp9j4QXZqfVfQSRTB4cwP1VCnwDN1Ut45FM95yYm4faYw" ] },
      { "delegate": "tz3RDC3Jdn4j15J7bBHZd29EUee9gVB1CxD9",
        "reception_time": "2022-01-18T20:37:05.121-00:00",
        "included_in_blocks":
          [ "BLApKLjp9j4QXZqfVfQSRTB4cwP1VCnwDN1Ut45FM95yYm4faYw" ] },
      { "delegate": "tz1UMCB2AHSTwG7YcGNr31CqYCtGN873royv",
        "reception_time": "2022-01-18T20:37:05.121-00:00",
        "included_in_blocks":
          [ "BLApKLjp9j4QXZqfVfQSRTB4cwP1VCnwDN1Ut45FM95yYm4faYw" ] },
      { "delegate": "tz1Tnjaxk6tbAeC2TmMApPh8UsrEVQvhHvx5",
        "reception_time": "2022-01-18T20:37:05.388-00:00",
        "included_in_blocks":
          [ "BLApKLjp9j4QXZqfVfQSRTB4cwP1VCnwDN1Ut45FM95yYm4faYw" ] },
      { "delegate": "tz1S8MNvuFEUsWgjHvi3AxibRBf388NhT1q2",
        "reception_time": "2022-01-18T20:37:05.388-00:00",
        "included_in_blocks":
          [ "BLApKLjp9j4QXZqfVfQSRTB4cwP1VCnwDN1Ut45FM95yYm4faYw" ] },
      { "delegate": "tz1abmz7jiCV2GH2u81LRrGgAFFgvQgiDiaf",
        "reception_time": "2022-01-18T20:37:05.388-00:00",
        "included_in_blocks":
          [ "BLApKLjp9j4QXZqfVfQSRTB4cwP1VCnwDN1Ut45FM95yYm4faYw" ] },
      { "delegate": "tz1KfEsrtDaA1sX7vdM4qmEPWuSytuqCDp5j",
        "reception_time": "2022-01-18T20:37:05.388-00:00",
        "included_in_blocks":
          [ "BLApKLjp9j4QXZqfVfQSRTB4cwP1VCnwDN1Ut45FM95yYm4faYw" ] },
      { "delegate": "tz1dwu9aYb7CRNq4Y2zAjipdjFuSVKhHS8vA",
        "reception_time": "2022-01-18T20:37:05.388-00:00",
        "included_in_blocks":
          [ "BLApKLjp9j4QXZqfVfQSRTB4cwP1VCnwDN1Ut45FM95yYm4faYw" ] },
      { "delegate": "tz3bTdwZinP8U1JmSweNzVKhmwafqWmFWRfk",
        "reception_time": "2022-01-18T20:37:05.388-00:00",
        "included_in_blocks":
          [ "BLApKLjp9j4QXZqfVfQSRTB4cwP1VCnwDN1Ut45FM95yYm4faYw" ] },
      { "delegate": "tz1Nf6tsK4G6bBqgSQERy4nUtkHNKUVdh7q1",
        "reception_time": "2022-01-18T20:37:05.388-00:00",
        "included_in_blocks":
          [ "BLApKLjp9j4QXZqfVfQSRTB4cwP1VCnwDN1Ut45FM95yYm4faYw" ] },
      { "delegate": "tz1RQhNh7iB9CZA7i3ifTWNwiGYVffponfbB",
        "reception_time": "2022-01-18T20:37:05.388-00:00",
        "included_in_blocks":
          [ "BLApKLjp9j4QXZqfVfQSRTB4cwP1VCnwDN1Ut45FM95yYm4faYw" ] },
      { "delegate": "tz1WctSwL49BZtdWAQ75NY6vr4xsAx6oKdah",
        "reception_time": "2022-01-18T20:37:05.388-00:00",
        "included_in_blocks":
          [ "BLApKLjp9j4QXZqfVfQSRTB4cwP1VCnwDN1Ut45FM95yYm4faYw" ] },
      { "delegate": "tz1cSj7fTex3JPd1p1LN1fwek6AV1kH93Wwc",
        "reception_time": "2022-01-18T20:37:05.388-00:00",
        "included_in_blocks":
          [ "BLApKLjp9j4QXZqfVfQSRTB4cwP1VCnwDN1Ut45FM95yYm4faYw" ] },
      { "delegate": "tz1LmaFsWRkjr7QMCx5PtV6xTUz3AmEpKQiF",
        "reception_time": "2022-01-18T20:37:05.388-00:00",
        "included_in_blocks":
          [ "BLApKLjp9j4QXZqfVfQSRTB4cwP1VCnwDN1Ut45FM95yYm4faYw" ] },
      { "delegate": "tz1NortRftucvAkD1J58L32EhSVrQEWJCEnB",
        "reception_time": "2022-01-18T20:37:05.388-00:00",
        "included_in_blocks":
          [ "BLApKLjp9j4QXZqfVfQSRTB4cwP1VCnwDN1Ut45FM95yYm4faYw" ] },
      { "delegate": "tz3bvNMQ95vfAYtG8193ymshqjSvmxiCUuR5",
        "reception_time": "2022-01-18T20:37:05.388-00:00",
        "included_in_blocks":
          [ "BLApKLjp9j4QXZqfVfQSRTB4cwP1VCnwDN1Ut45FM95yYm4faYw" ] },
      { "delegate": "tz1fZ767VDbqx4DeKiFswPSHh513f51mKEUZ",
        "reception_time": "2022-01-18T20:37:05.388-00:00",
        "included_in_blocks":
          [ "BLApKLjp9j4QXZqfVfQSRTB4cwP1VCnwDN1Ut45FM95yYm4faYw" ] },
      { "delegate": "tz3NDpRj6WBrJPikcPVHRBEjWKxFw3c6eQPS",
        "reception_time": "2022-01-18T20:37:05.388-00:00",
        "included_in_blocks":
          [ "BLApKLjp9j4QXZqfVfQSRTB4cwP1VCnwDN1Ut45FM95yYm4faYw" ] },
      { "delegate": "tz3adcvQaKXTCg12zbninqo3q8ptKKtDFTLv",
        "reception_time": "2022-01-18T20:37:05.388-00:00",
        "included_in_blocks":
          [ "BLApKLjp9j4QXZqfVfQSRTB4cwP1VCnwDN1Ut45FM95yYm4faYw" ] },
      { "delegate": "tz1iPHM2Xx2hwmzcr1EG1zzrV6oKafVoA91m",
        "reception_time": "2022-01-18T20:37:05.388-00:00",
        "included_in_blocks":
          [ "BLApKLjp9j4QXZqfVfQSRTB4cwP1VCnwDN1Ut45FM95yYm4faYw" ] },
      { "delegate": "tz1fwnfJNgiDACshK9avfRfFbMaXrs3ghoJa",
        "reception_time": "2022-01-18T20:37:05.388-00:00",
        "included_in_blocks":
          [ "BLApKLjp9j4QXZqfVfQSRTB4cwP1VCnwDN1Ut45FM95yYm4faYw" ] },
      { "delegate": "tz3UoffC7FG7zfpmvmjUmUeAaHvzdcUvAj6r",
        "reception_time": "2022-01-18T20:37:05.388-00:00",
        "included_in_blocks":
          [ "BLApKLjp9j4QXZqfVfQSRTB4cwP1VCnwDN1Ut45FM95yYm4faYw" ] },
      { "delegate": "tz3RB4aoyjov4KEVRbuhvQ1CKJgBJMWhaeB8",
        "reception_time": "2022-01-18T20:37:05.418-00:00",
        "included_in_blocks":
          [ "BLApKLjp9j4QXZqfVfQSRTB4cwP1VCnwDN1Ut45FM95yYm4faYw" ] },
      { "delegate": "tz1dRKU4FQ9QRRQPdaH4zCR6gmCmXfcvcgtB",
        "reception_time": "2022-01-18T20:37:05.421-00:00",
        "included_in_blocks":
          [ "BLApKLjp9j4QXZqfVfQSRTB4cwP1VCnwDN1Ut45FM95yYm4faYw" ] },
      { "delegate": "tz1RCFbB9GpALpsZtu6J58sb74dm8qe6XBzv",
        "reception_time": "2022-01-18T20:37:05.429-00:00",
        "included_in_blocks":
          [ "BLApKLjp9j4QXZqfVfQSRTB4cwP1VCnwDN1Ut45FM95yYm4faYw" ] },
      { "delegate": "tz3WMqdzXqRWXwyvj5Hp2H7QEepaUuS7vd9K",
        "reception_time": "2022-01-18T20:37:05.446-00:00",
        "included_in_blocks":
          [ "BLApKLjp9j4QXZqfVfQSRTB4cwP1VCnwDN1Ut45FM95yYm4faYw" ] },
      { "delegate": "tz1RzwaogUQ8zPntqrSn4yn5f3VquXfEH5Jo",
        "reception_time": "2022-01-18T20:37:05.561-00:00",
        "included_in_blocks":
          [ "BLApKLjp9j4QXZqfVfQSRTB4cwP1VCnwDN1Ut45FM95yYm4faYw" ] },
      { "delegate": "tz3NExpXn9aPNZPorRE4SdjJ2RGrfbJgMAaV",
        "reception_time": "2022-01-18T20:37:05.570-00:00",
        "included_in_blocks":
          [ "BLApKLjp9j4QXZqfVfQSRTB4cwP1VCnwDN1Ut45FM95yYm4faYw" ] },
      { "delegate": "tz2FCNBrERXtaTtNX6iimR1UJ5JSDxvdHM93",
        "reception_time": "2022-01-18T20:37:06.035-00:00",
        "included_in_blocks":
          [ "BLApKLjp9j4QXZqfVfQSRTB4cwP1VCnwDN1Ut45FM95yYm4faYw" ] },
      { "delegate": "tz3VEZ4k6a4Wx42iyev6i2aVAptTRLEAivNN",
        "reception_time": "2022-01-18T20:37:06.043-00:00",
        "included_in_blocks":
          [ "BLApKLjp9j4QXZqfVfQSRTB4cwP1VCnwDN1Ut45FM95yYm4faYw" ] },
      { "delegate": "tz1RjoHc98dBoqaH2jawF62XNKh7YsHwbkEv",
        "reception_time": "2022-01-18T20:37:06.761-00:00",
        "included_in_blocks":
          [ "BLApKLjp9j4QXZqfVfQSRTB4cwP1VCnwDN1Ut45FM95yYm4faYw" ] },
      { "delegate": "tz1aRoaRhSpRYvFdyvgWLL6TGyRoGF51wDjM",
        "reception_time": "2022-01-18T20:37:06.942-00:00",
        "included_in_blocks":
          [ "BLApKLjp9j4QXZqfVfQSRTB4cwP1VCnwDN1Ut45FM95yYm4faYw" ] },
      { "delegate": "tz1g8vkmcde6sWKaG2NN9WKzCkDM6Rziq194",
        "reception_time": "2022-01-18T20:37:06.962-00:00",
        "included_in_blocks":
          [ "BLApKLjp9j4QXZqfVfQSRTB4cwP1VCnwDN1Ut45FM95yYm4faYw" ] },
      { "delegate": "tz1TRqbYbUf2GyrjErf3hBzgBJPzW8y36qEs",
        "reception_time": "2022-01-18T20:37:07.386-00:00",
        "included_in_blocks":
          [ "BLApKLjp9j4QXZqfVfQSRTB4cwP1VCnwDN1Ut45FM95yYm4faYw" ] },
      { "delegate": "tz1QJU1PuKUP5ZQxUr4pHZjCHGRvJSpcXv7G",
        "reception_time": "2022-01-18T20:37:07.531-00:00",
        "included_in_blocks":
          [ "BLApKLjp9j4QXZqfVfQSRTB4cwP1VCnwDN1Ut45FM95yYm4faYw" ] },
      { "delegate": "tz1Uoy4PdQDDiHRRec77pJEQJ21tSyksarur",
        "reception_time": "2022-01-18T20:37:09.290-00:00",
        "included_in_blocks":
          [ "BLApKLjp9j4QXZqfVfQSRTB4cwP1VCnwDN1Ut45FM95yYm4faYw" ] },
      { "delegate": "tz1awXW7wuXy21c66vBudMXQVAPgRnqqwgTH",
        "reception_time": "2022-01-18T20:37:10.318-00:00",
        "included_in_blocks":
          [ "BLApKLjp9j4QXZqfVfQSRTB4cwP1VCnwDN1Ut45FM95yYm4faYw" ] },
      { "delegate": "tz1dfg9PkvRLf7hKMmGdGRhXWCbd8QgbwBF7",
        "reception_time": "2022-01-18T20:37:12.407-00:00",
        "included_in_blocks":
          [ "BLApKLjp9j4QXZqfVfQSRTB4cwP1VCnwDN1Ut45FM95yYm4faYw" ] },
      { "delegate": "tz1NpWrAyDL9k2Lmnyxcgr9xuJakbBxdq7FB",
        "reception_time": "2022-01-18T20:37:18.856-00:00",
        "included_in_blocks":
          [ "BLApKLjp9j4QXZqfVfQSRTB4cwP1VCnwDN1Ut45FM95yYm4faYw" ] } ] }