{ "blocks":
    [ { "hash": "BKxsT3tmh5HuxEx2NPJcqC3ojDXgUAeMe1W8u7uo6KXRFf8MQhR",
        "delegate": "tz1irJKkXS2DBWkU1NnmFQx1c1L7pbGg4yhk",
        "reception_time": "2022-01-18T18:25:58.215-00:00",
        "timestamp": "2022-01-18T18:25:50Z" } ],
  "endorsements":
    [ { "delegate": "tz1SYq214SCBy9naR6cvycQsYcUGpBqQAE8d",
        "reception_time": "2022-01-18T18:25:58.148-00:00",
        "errors":
          [ { "kind": "temporary",
              "id": "proto.011-PtHangz2.prefilter.outdated_endorsement" } ],
        "included_in_blocks":
          [ "BMAevvHrEHRWVxz6nYv3WinGeyiZCBaku8ADbNnPytVRC6yKEh7" ] },
      { "delegate": "tz1Nf6tsK4G6bBqgSQERy4nUtkHNKUVdh7q1",
        "reception_time": "2022-01-18T18:25:58.132-00:00",
        "errors":
          [ { "kind": "temporary",
              "id": "proto.011-PtHangz2.prefilter.outdated_endorsement" } ],
        "included_in_blocks":
          [ "BMAevvHrEHRWVxz6nYv3WinGeyiZCBaku8ADbNnPytVRC6yKEh7" ] },
      { "delegate": "tz1WnfXMPaNTBmH7DBPwqCWs9cPDJdkGBTZ8",
        "reception_time": "2022-01-18T18:25:58.107-00:00",
        "errors":
          [ { "kind": "temporary",
              "id": "proto.011-PtHangz2.prefilter.outdated_endorsement" } ],
        "included_in_blocks":
          [ "BMAevvHrEHRWVxz6nYv3WinGeyiZCBaku8ADbNnPytVRC6yKEh7" ] },
      { "delegate": "tz1PeZx7FXy7QRuMREGXGxeipb24RsMMzUNe",
        "reception_time": "2022-01-18T18:25:58.070-00:00",
        "errors":
          [ { "kind": "temporary",
              "id": "proto.011-PtHangz2.prefilter.outdated_endorsement" } ],
        "included_in_blocks":
          [ "BMAevvHrEHRWVxz6nYv3WinGeyiZCBaku8ADbNnPytVRC6yKEh7" ] },
      { "delegate": "tz3gLTu4Yxj8tPAcriQVUdxv6BY9QyvzU1az",
        "reception_time": "2022-01-18T18:25:58.056-00:00",
        "errors":
          [ { "kind": "temporary",
              "id": "proto.011-PtHangz2.prefilter.outdated_endorsement" } ],
        "included_in_blocks":
          [ "BMAevvHrEHRWVxz6nYv3WinGeyiZCBaku8ADbNnPytVRC6yKEh7" ] },
      { "delegate": "tz3NDpRj6WBrJPikcPVHRBEjWKxFw3c6eQPS",
        "reception_time": "2022-01-18T18:25:58.055-00:00",
        "errors":
          [ { "kind": "temporary",
              "id": "proto.011-PtHangz2.prefilter.outdated_endorsement" } ],
        "included_in_blocks":
          [ "BMAevvHrEHRWVxz6nYv3WinGeyiZCBaku8ADbNnPytVRC6yKEh7" ] },
      { "delegate": "tz1a3T5mRR1XWM1JgydvAqxEwpNs7ktVZuXc",
        "reception_time": "2022-01-18T18:25:57.967-00:00",
        "errors":
          [ { "kind": "temporary",
              "id": "proto.011-PtHangz2.prefilter.outdated_endorsement" } ],
        "included_in_blocks":
          [ "BMAevvHrEHRWVxz6nYv3WinGeyiZCBaku8ADbNnPytVRC6yKEh7" ] },
      { "delegate": "tz1g8vkmcde6sWKaG2NN9WKzCkDM6Rziq194",
        "reception_time": "2022-01-18T18:25:57.961-00:00",
        "errors":
          [ { "kind": "temporary",
              "id": "proto.011-PtHangz2.prefilter.outdated_endorsement" } ],
        "included_in_blocks":
          [ "BMAevvHrEHRWVxz6nYv3WinGeyiZCBaku8ADbNnPytVRC6yKEh7" ] },
      { "delegate": "tz1ei4WtWEMEJekSv8qDnu9PExG6Q8HgRGr3",
        "reception_time": "2022-01-18T18:25:57.784-00:00",
        "errors":
          [ { "kind": "temporary",
              "id": "proto.011-PtHangz2.prefilter.outdated_endorsement" } ],
        "included_in_blocks":
          [ "BMAevvHrEHRWVxz6nYv3WinGeyiZCBaku8ADbNnPytVRC6yKEh7" ] },
      { "delegate": "tz1RQhNh7iB9CZA7i3ifTWNwiGYVffponfbB",
        "reception_time": "2022-01-18T18:25:57.761-00:00",
        "errors":
          [ { "kind": "temporary",
              "id": "proto.011-PtHangz2.prefilter.outdated_endorsement" } ],
        "included_in_blocks":
          [ "BMAevvHrEHRWVxz6nYv3WinGeyiZCBaku8ADbNnPytVRC6yKEh7" ] },
      { "delegate": "tz1abmz7jiCV2GH2u81LRrGgAFFgvQgiDiaf",
        "reception_time": "2022-01-18T18:25:57.726-00:00",
        "errors":
          [ { "kind": "temporary",
              "id": "proto.011-PtHangz2.prefilter.outdated_endorsement" } ],
        "included_in_blocks":
          [ "BMAevvHrEHRWVxz6nYv3WinGeyiZCBaku8ADbNnPytVRC6yKEh7" ] },
      { "delegate": "tz1gfArv665EUkSg2ojMBzcbfwuPxAvqPvjo",
        "reception_time": "2022-01-18T18:25:57.651-00:00",
        "errors":
          [ { "kind": "temporary",
              "id": "proto.011-PtHangz2.prefilter.outdated_endorsement" } ],
        "included_in_blocks":
          [ "BMAevvHrEHRWVxz6nYv3WinGeyiZCBaku8ADbNnPytVRC6yKEh7" ] },
      { "delegate": "tz1LmaFsWRkjr7QMCx5PtV6xTUz3AmEpKQiF",
        "reception_time": "2022-01-18T18:25:57.557-00:00",
        "errors":
          [ { "kind": "temporary",
              "id": "proto.011-PtHangz2.prefilter.outdated_endorsement" } ],
        "included_in_blocks":
          [ "BMAevvHrEHRWVxz6nYv3WinGeyiZCBaku8ADbNnPytVRC6yKEh7" ] },
      { "delegate": "tz1S8MNvuFEUsWgjHvi3AxibRBf388NhT1q2",
        "reception_time": "2022-01-18T18:25:57.369-00:00",
        "errors":
          [ { "kind": "temporary",
              "id": "proto.011-PtHangz2.prefilter.outdated_endorsement" } ],
        "included_in_blocks":
          [ "BMAevvHrEHRWVxz6nYv3WinGeyiZCBaku8ADbNnPytVRC6yKEh7" ] },
      { "delegate": "tz1MQMiZHV8q4tTwUMWmS5Y3kaP6J2136iXr",
        "reception_time": "2022-01-18T18:25:57.349-00:00",
        "errors":
          [ { "kind": "temporary",
              "id": "proto.011-PtHangz2.prefilter.outdated_endorsement" } ],
        "included_in_blocks":
          [ "BMAevvHrEHRWVxz6nYv3WinGeyiZCBaku8ADbNnPytVRC6yKEh7" ] },
      { "delegate": "tz1RCFbB9GpALpsZtu6J58sb74dm8qe6XBzv",
        "reception_time": "2022-01-18T18:25:57.232-00:00",
        "errors":
          [ { "kind": "temporary",
              "id": "proto.011-PtHangz2.prefilter.outdated_endorsement" } ],
        "included_in_blocks":
          [ "BMAevvHrEHRWVxz6nYv3WinGeyiZCBaku8ADbNnPytVRC6yKEh7" ] },
      { "delegate": "tz1V4qCyvPKZ5UeqdH14HN42rxvNPQfc9UZg",
        "reception_time": "2022-01-18T18:25:57.226-00:00",
        "errors":
          [ { "kind": "temporary",
              "id": "proto.011-PtHangz2.prefilter.outdated_endorsement" } ],
        "included_in_blocks":
          [ "BMAevvHrEHRWVxz6nYv3WinGeyiZCBaku8ADbNnPytVRC6yKEh7" ] },
      { "delegate": "tz3bTdwZinP8U1JmSweNzVKhmwafqWmFWRfk",
        "reception_time": "2022-01-18T18:25:57.224-00:00",
        "errors":
          [ { "kind": "temporary",
              "id": "proto.011-PtHangz2.prefilter.outdated_endorsement" } ],
        "included_in_blocks":
          [ "BMAevvHrEHRWVxz6nYv3WinGeyiZCBaku8ADbNnPytVRC6yKEh7" ] },
      { "delegate": "tz1YhNsiRRU8aHNGg7NK3uuP6UDAyacJernB",
        "reception_time": "2022-01-18T18:25:57.214-00:00",
        "errors":
          [ { "kind": "temporary",
              "id": "proto.011-PtHangz2.prefilter.outdated_endorsement" } ],
        "included_in_blocks":
          [ "BMAevvHrEHRWVxz6nYv3WinGeyiZCBaku8ADbNnPytVRC6yKEh7" ] },
      { "delegate": "tz1PWCDnz783NNGGQjEFFsHtrcK5yBW4E2rm",
        "reception_time": "2022-01-18T18:25:57.174-00:00",
        "errors":
          [ { "kind": "temporary",
              "id": "proto.011-PtHangz2.prefilter.outdated_endorsement" } ],
        "included_in_blocks":
          [ "BMAevvHrEHRWVxz6nYv3WinGeyiZCBaku8ADbNnPytVRC6yKEh7" ] },
      { "delegate": "tz1bHzftcTKZMTZgLLtnrXydCm6UEqf4ivca",
        "reception_time": "2022-01-18T18:25:57.003-00:00",
        "errors":
          [ { "kind": "temporary",
              "id": "proto.011-PtHangz2.prefilter.outdated_endorsement" } ],
        "included_in_blocks":
          [ "BMAevvHrEHRWVxz6nYv3WinGeyiZCBaku8ADbNnPytVRC6yKEh7" ] },
      { "delegate": "tz3iJu5vrKZcsqRPs8yJ61UDoeEXZmtro4qh",
        "reception_time": "2022-01-18T18:25:56.870-00:00",
        "errors":
          [ { "kind": "temporary",
              "id": "proto.011-PtHangz2.prefilter.outdated_endorsement" } ],
        "included_in_blocks":
          [ "BMAevvHrEHRWVxz6nYv3WinGeyiZCBaku8ADbNnPytVRC6yKEh7" ] },
      { "delegate": "tz3Zhs2dygr55yHyQyKjntAtY9bgfhLZ4Xj1",
        "reception_time": "2022-01-18T18:25:56.869-00:00",
        "errors":
          [ { "kind": "temporary",
              "id": "proto.011-PtHangz2.prefilter.outdated_endorsement" } ],
        "included_in_blocks":
          [ "BMAevvHrEHRWVxz6nYv3WinGeyiZCBaku8ADbNnPytVRC6yKEh7" ] },
      { "delegate": "tz3hw2kqXhLUvY65ca1eety2oQTpAvd34R9Q",
        "reception_time": "2022-01-18T18:25:56.797-00:00",
        "errors":
          [ { "kind": "temporary",
              "id": "proto.011-PtHangz2.prefilter.outdated_endorsement" } ],
        "included_in_blocks":
          [ "BMAevvHrEHRWVxz6nYv3WinGeyiZCBaku8ADbNnPytVRC6yKEh7" ] },
      { "delegate": "tz1WCd2jm4uSt4vntk4vSuUWoZQGhLcDuR9q",
        "reception_time": "2022-01-18T18:25:56.762-00:00",
        "errors":
          [ { "kind": "temporary",
              "id": "proto.011-PtHangz2.prefilter.outdated_endorsement" } ],
        "included_in_blocks":
          [ "BMAevvHrEHRWVxz6nYv3WinGeyiZCBaku8ADbNnPytVRC6yKEh7" ] },
      { "delegate": "tz3gtoUxdudfBRcNY7iVdKPHCYYX6xdPpoRS",
        "reception_time": "2022-01-18T18:25:56.754-00:00",
        "errors":
          [ { "kind": "temporary",
              "id": "proto.011-PtHangz2.prefilter.outdated_endorsement" } ],
        "included_in_blocks":
          [ "BMAevvHrEHRWVxz6nYv3WinGeyiZCBaku8ADbNnPytVRC6yKEh7" ] },
      { "delegate": "tz1aXD7Jigrt3PBYSpHSg5Rr33SexMmmM5Ys",
        "reception_time": "2022-01-18T18:25:56.721-00:00",
        "errors":
          [ { "kind": "temporary",
              "id": "proto.011-PtHangz2.prefilter.outdated_endorsement" } ],
        "included_in_blocks":
          [ "BMAevvHrEHRWVxz6nYv3WinGeyiZCBaku8ADbNnPytVRC6yKEh7" ] },
      { "delegate": "tz3QSGPoRp3Kn7n3vY24eYeu3Peuqo45LQ4D",
        "reception_time": "2022-01-18T18:25:56.700-00:00",
        "errors":
          [ { "kind": "temporary",
              "id": "proto.011-PtHangz2.prefilter.outdated_endorsement" } ],
        "included_in_blocks":
          [ "BMAevvHrEHRWVxz6nYv3WinGeyiZCBaku8ADbNnPytVRC6yKEh7" ] },
      { "delegate": "tz3RKYFsLuQzKBtmYuLNas7uMu3AsYd4QdsA",
        "reception_time": "2022-01-18T18:25:56.690-00:00",
        "errors":
          [ { "kind": "temporary",
              "id": "proto.011-PtHangz2.prefilter.outdated_endorsement" } ],
        "included_in_blocks":
          [ "BMAevvHrEHRWVxz6nYv3WinGeyiZCBaku8ADbNnPytVRC6yKEh7" ] },
      { "delegate": "tz3QCNyySViKHmeSr45kzDxzchys7NiXCWoa",
        "reception_time": "2022-01-18T18:25:56.664-00:00",
        "errors":
          [ { "kind": "temporary",
              "id": "proto.011-PtHangz2.prefilter.outdated_endorsement" } ],
        "included_in_blocks":
          [ "BMAevvHrEHRWVxz6nYv3WinGeyiZCBaku8ADbNnPytVRC6yKEh7" ] },
      { "delegate": "tz1VmiY38m3y95HqQLjMwqnMS7sdMfGomzKi",
        "reception_time": "2022-01-18T18:25:56.635-00:00",
        "errors":
          [ { "kind": "temporary",
              "id": "proto.011-PtHangz2.prefilter.outdated_endorsement" } ],
        "included_in_blocks":
          [ "BMAevvHrEHRWVxz6nYv3WinGeyiZCBaku8ADbNnPytVRC6yKEh7" ] },
      { "delegate": "tz1TzaNn7wSQSP5gYPXCnNzBCpyMiidCq1PX",
        "reception_time": "2022-01-18T18:25:56.557-00:00",
        "errors":
          [ { "kind": "temporary",
              "id": "proto.011-PtHangz2.prefilter.outdated_endorsement" } ],
        "included_in_blocks":
          [ "BMAevvHrEHRWVxz6nYv3WinGeyiZCBaku8ADbNnPytVRC6yKEh7" ] },
      { "delegate": "tz3QT9dHYKDqh563chVa6za8526ys1UKfRfL",
        "reception_time": "2022-01-18T18:25:56.507-00:00",
        "errors":
          [ { "kind": "temporary",
              "id": "proto.011-PtHangz2.prefilter.outdated_endorsement" } ],
        "included_in_blocks":
          [ "BMAevvHrEHRWVxz6nYv3WinGeyiZCBaku8ADbNnPytVRC6yKEh7" ] },
      { "delegate": "tz3S6BBeKgJGXxvLyZ1xzXzMPn11nnFtq5L9",
        "reception_time": "2022-01-18T18:25:56.494-00:00",
        "errors":
          [ { "kind": "temporary",
              "id": "proto.011-PtHangz2.prefilter.outdated_endorsement" } ],
        "included_in_blocks":
          [ "BMAevvHrEHRWVxz6nYv3WinGeyiZCBaku8ADbNnPytVRC6yKEh7" ] },
      { "delegate": "tz1NMdMmWZN8QPB8pY4ddncACDg1cHi1xD2e",
        "reception_time": "2022-01-18T18:25:56.421-00:00",
        "errors":
          [ { "kind": "temporary",
              "id": "proto.011-PtHangz2.prefilter.outdated_endorsement" } ],
        "included_in_blocks":
          [ "BMAevvHrEHRWVxz6nYv3WinGeyiZCBaku8ADbNnPytVRC6yKEh7" ] },
      { "delegate": "tz1Kt4P8BCaP93AEV4eA7gmpRryWt5hznjCP",
        "reception_time": "2022-01-18T18:25:56.399-00:00",
        "errors":
          [ { "kind": "temporary",
              "id": "proto.011-PtHangz2.prefilter.outdated_endorsement" } ],
        "included_in_blocks":
          [ "BMAevvHrEHRWVxz6nYv3WinGeyiZCBaku8ADbNnPytVRC6yKEh7" ] },
      { "delegate": "tz1TRspM5SeZpaQUhzByXbEvqKF1vnCM2YTK",
        "reception_time": "2022-01-18T18:25:56.367-00:00",
        "errors":
          [ { "kind": "temporary",
              "id": "proto.011-PtHangz2.prefilter.outdated_endorsement" } ],
        "included_in_blocks":
          [ "BMAevvHrEHRWVxz6nYv3WinGeyiZCBaku8ADbNnPytVRC6yKEh7" ] },
      { "delegate": "tz3ZbP2pM3nwvXztbuMJwJnDvV5xdpU8UkkD",
        "reception_time": "2022-01-18T18:25:56.304-00:00",
        "errors":
          [ { "kind": "temporary",
              "id": "proto.011-PtHangz2.prefilter.outdated_endorsement" } ],
        "included_in_blocks":
          [ "BMAevvHrEHRWVxz6nYv3WinGeyiZCBaku8ADbNnPytVRC6yKEh7" ] },
      { "delegate": "tz3NxTnke1acr8o3h5y9ytf5awQBGNJUKzVU",
        "reception_time": "2022-01-18T18:25:56.304-00:00",
        "errors":
          [ { "kind": "temporary",
              "id": "proto.011-PtHangz2.prefilter.outdated_endorsement" } ],
        "included_in_blocks":
          [ "BMAevvHrEHRWVxz6nYv3WinGeyiZCBaku8ADbNnPytVRC6yKEh7" ] },
      { "delegate": "tz1gUNyn3hmnEWqkusWPzxRaon1cs7ndWh7h",
        "reception_time": "2022-01-18T18:25:56.303-00:00",
        "errors":
          [ { "kind": "temporary",
              "id": "proto.011-PtHangz2.prefilter.outdated_endorsement" } ],
        "included_in_blocks":
          [ "BMAevvHrEHRWVxz6nYv3WinGeyiZCBaku8ADbNnPytVRC6yKEh7" ] },
      { "delegate": "tz1VQnqCCqX4K5sP3FNkVSNKTdCAMJDd3E1n",
        "reception_time": "2022-01-18T18:25:56.297-00:00",
        "errors":
          [ { "kind": "temporary",
              "id": "proto.011-PtHangz2.prefilter.outdated_endorsement" } ],
        "included_in_blocks":
          [ "BMAevvHrEHRWVxz6nYv3WinGeyiZCBaku8ADbNnPytVRC6yKEh7" ] },
      { "delegate": "tz1Ldzz6k1BHdhuKvAtMRX7h5kJSMHESMHLC",
        "reception_time": "2022-01-18T18:25:56.260-00:00",
        "errors":
          [ { "kind": "temporary",
              "id": "proto.011-PtHangz2.prefilter.outdated_endorsement" } ],
        "included_in_blocks":
          [ "BMAevvHrEHRWVxz6nYv3WinGeyiZCBaku8ADbNnPytVRC6yKEh7" ] },
      { "delegate": "tz1beersuEDv8Z7ngQ825xfbaJNS2EhXnyHR",
        "reception_time": "2022-01-18T18:25:56.100-00:00",
        "errors":
          [ { "kind": "temporary",
              "id": "proto.011-PtHangz2.prefilter.outdated_endorsement" } ],
        "included_in_blocks":
          [ "BMAevvHrEHRWVxz6nYv3WinGeyiZCBaku8ADbNnPytVRC6yKEh7" ] },
      { "delegate": "tz1P2Po7YM526ughEsRbY4oR9zaUPDZjxFrb",
        "reception_time": "2022-01-18T18:25:56.084-00:00",
        "errors":
          [ { "kind": "temporary",
              "id": "proto.011-PtHangz2.prefilter.outdated_endorsement" } ],
        "included_in_blocks":
          [ "BMAevvHrEHRWVxz6nYv3WinGeyiZCBaku8ADbNnPytVRC6yKEh7" ] },
      { "delegate": "tz1dbfppLAAxXZNtf2SDps7rch3qfUznKSoK",
        "reception_time": "2022-01-18T18:25:56.055-00:00",
        "errors":
          [ { "kind": "temporary",
              "id": "proto.011-PtHangz2.prefilter.outdated_endorsement" } ],
        "included_in_blocks":
          [ "BMAevvHrEHRWVxz6nYv3WinGeyiZCBaku8ADbNnPytVRC6yKEh7" ] },
      { "delegate": "tz1aDiEJf9ztRrAJEXZfcG3CKimoKsGhwVAi",
        "reception_time": "2022-01-18T18:25:55.917-00:00",
        "errors":
          [ { "kind": "temporary",
              "id": "proto.011-PtHangz2.prefilter.outdated_endorsement" } ],
        "included_in_blocks":
          [ "BMAevvHrEHRWVxz6nYv3WinGeyiZCBaku8ADbNnPytVRC6yKEh7" ] },
      { "delegate": "tz1eEnQhbwf6trb8Q8mPb2RaPkNk2rN7BKi8",
        "reception_time": "2022-01-18T18:25:55.878-00:00",
        "errors":
          [ { "kind": "temporary",
              "id": "proto.011-PtHangz2.prefilter.outdated_endorsement" } ],
        "included_in_blocks":
          [ "BMAevvHrEHRWVxz6nYv3WinGeyiZCBaku8ADbNnPytVRC6yKEh7" ] },
      { "delegate": "tz1TXzyaKUA8wsWefdSnyaYFnV2M3vCV7er9",
        "reception_time": "2022-01-18T18:25:55.695-00:00",
        "errors":
          [ { "kind": "temporary",
              "id": "proto.011-PtHangz2.prefilter.outdated_endorsement" } ],
        "included_in_blocks":
          [ "BMAevvHrEHRWVxz6nYv3WinGeyiZCBaku8ADbNnPytVRC6yKEh7" ] },
      { "delegate": "tz1MXFrtZoaXckE41bjUCSjAjAap3AFDSr3N",
        "reception_time": "2022-01-18T18:25:55.690-00:00",
        "errors":
          [ { "kind": "temporary",
              "id": "proto.011-PtHangz2.prefilter.outdated_endorsement" } ],
        "included_in_blocks":
          [ "BMAevvHrEHRWVxz6nYv3WinGeyiZCBaku8ADbNnPytVRC6yKEh7" ] },
      { "delegate": "tz1irJKkXS2DBWkU1NnmFQx1c1L7pbGg4yhk",
        "reception_time": "2022-01-18T18:25:55.642-00:00",
        "errors":
          [ { "kind": "temporary",
              "id": "proto.011-PtHangz2.prefilter.outdated_endorsement" } ],
        "included_in_blocks":
          [ "BMAevvHrEHRWVxz6nYv3WinGeyiZCBaku8ADbNnPytVRC6yKEh7" ] },
      { "delegate": "tz1S8e9GgdZG78XJRB3NqabfWeM37GnhZMWQ",
        "reception_time": "2022-01-18T18:25:55.627-00:00",
        "errors":
          [ { "kind": "temporary",
              "id": "proto.011-PtHangz2.prefilter.outdated_endorsement" } ],
        "included_in_blocks":
          [ "BMAevvHrEHRWVxz6nYv3WinGeyiZCBaku8ADbNnPytVRC6yKEh7" ] },
      { "delegate": "tz1ibcPVGK4Y8pcW4BYUsojiHoBKnZbyDGrX" },
      { "delegate": "tz3WMqdzXqRWXwyvj5Hp2H7QEepaUuS7vd9K",
        "reception_time": "2022-01-18T18:25:59.361-00:00",
        "included_in_blocks":
          [ "BMAevvHrEHRWVxz6nYv3WinGeyiZCBaku8ADbNnPytVRC6yKEh7" ] },
      { "delegate": "tz3RDC3Jdn4j15J7bBHZd29EUee9gVB1CxD9",
        "reception_time": "2022-01-18T18:25:59.384-00:00",
        "included_in_blocks":
          [ "BMAevvHrEHRWVxz6nYv3WinGeyiZCBaku8ADbNnPytVRC6yKEh7" ] },
      { "delegate": "tz3bvNMQ95vfAYtG8193ymshqjSvmxiCUuR5",
        "reception_time": "2022-01-18T18:25:59.556-00:00",
        "included_in_blocks":
          [ "BMAevvHrEHRWVxz6nYv3WinGeyiZCBaku8ADbNnPytVRC6yKEh7" ] },
      { "delegate": "tz1NoYvKjXTzTk54VpLxBfouJ33J8jwKPPvw",
        "reception_time": "2022-01-18T18:25:59.574-00:00",
        "included_in_blocks":
          [ "BMAevvHrEHRWVxz6nYv3WinGeyiZCBaku8ADbNnPytVRC6yKEh7" ] },
      { "delegate": "tz3VEZ4k6a4Wx42iyev6i2aVAptTRLEAivNN",
        "reception_time": "2022-01-18T18:25:59.574-00:00",
        "included_in_blocks":
          [ "BMAevvHrEHRWVxz6nYv3WinGeyiZCBaku8ADbNnPytVRC6yKEh7" ] },
      { "delegate": "tz3RB4aoyjov4KEVRbuhvQ1CKJgBJMWhaeB8",
        "reception_time": "2022-01-18T18:25:59.585-00:00",
        "included_in_blocks":
          [ "BMAevvHrEHRWVxz6nYv3WinGeyiZCBaku8ADbNnPytVRC6yKEh7" ] },
      { "delegate": "tz2FCNBrERXtaTtNX6iimR1UJ5JSDxvdHM93",
        "reception_time": "2022-01-18T18:25:59.585-00:00",
        "included_in_blocks":
          [ "BMAevvHrEHRWVxz6nYv3WinGeyiZCBaku8ADbNnPytVRC6yKEh7" ] },
      { "delegate": "tz1NEKxGEHsFufk87CVZcrqWu8o22qh46GK6",
        "reception_time": "2022-01-18T18:25:59.599-00:00",
        "included_in_blocks":
          [ "BMAevvHrEHRWVxz6nYv3WinGeyiZCBaku8ADbNnPytVRC6yKEh7" ] },
      { "delegate": "tz1LAJKyGRCheNiLAQQmJ8dXnoKbKgLzxNFp",
        "reception_time": "2022-01-18T18:25:59.599-00:00",
        "included_in_blocks":
          [ "BMAevvHrEHRWVxz6nYv3WinGeyiZCBaku8ADbNnPytVRC6yKEh7" ] },
      { "delegate": "tz1T7duV5gZWSTq4YpBGbXNLTfznCLDrFxvs",
        "reception_time": "2022-01-18T18:25:59.605-00:00",
        "included_in_blocks":
          [ "BMAevvHrEHRWVxz6nYv3WinGeyiZCBaku8ADbNnPytVRC6yKEh7" ] },
      { "delegate": "tz1TRqbYbUf2GyrjErf3hBzgBJPzW8y36qEs",
        "reception_time": "2022-01-18T18:25:59.609-00:00",
        "included_in_blocks":
          [ "BMAevvHrEHRWVxz6nYv3WinGeyiZCBaku8ADbNnPytVRC6yKEh7" ] },
      { "delegate": "tz1ULYFhUY7Syao5NWr9jZ1pp3aw81QPiqjs",
        "reception_time": "2022-01-18T18:25:59.618-00:00",
        "included_in_blocks":
          [ "BMAevvHrEHRWVxz6nYv3WinGeyiZCBaku8ADbNnPytVRC6yKEh7" ] },
      { "delegate": "tz1RjoHc98dBoqaH2jawF62XNKh7YsHwbkEv",
        "reception_time": "2022-01-18T18:25:59.625-00:00",
        "included_in_blocks":
          [ "BMAevvHrEHRWVxz6nYv3WinGeyiZCBaku8ADbNnPytVRC6yKEh7" ] },
      { "delegate": "tz3NExpXn9aPNZPorRE4SdjJ2RGrfbJgMAaV",
        "reception_time": "2022-01-18T18:25:59.634-00:00",
        "included_in_blocks":
          [ "BMAevvHrEHRWVxz6nYv3WinGeyiZCBaku8ADbNnPytVRC6yKEh7" ] },
      { "delegate": "tz1awXW7wuXy21c66vBudMXQVAPgRnqqwgTH",
        "reception_time": "2022-01-18T18:25:59.652-00:00",
        "included_in_blocks":
          [ "BMAevvHrEHRWVxz6nYv3WinGeyiZCBaku8ADbNnPytVRC6yKEh7" ] },
      { "delegate": "tz3UoffC7FG7zfpmvmjUmUeAaHvzdcUvAj6r",
        "reception_time": "2022-01-18T18:25:59.660-00:00",
        "included_in_blocks":
          [ "BMAevvHrEHRWVxz6nYv3WinGeyiZCBaku8ADbNnPytVRC6yKEh7" ] },
      { "delegate": "tz1aRoaRhSpRYvFdyvgWLL6TGyRoGF51wDjM",
        "reception_time": "2022-01-18T18:25:59.742-00:00",
        "included_in_blocks":
          [ "BMAevvHrEHRWVxz6nYv3WinGeyiZCBaku8ADbNnPytVRC6yKEh7" ] },
      { "delegate": "tz1ZcTRk5uxD86EFEn1vvNffWWqJy7q5eVhc",
        "reception_time": "2022-01-18T18:25:59.930-00:00",
        "included_in_blocks":
          [ "BMAevvHrEHRWVxz6nYv3WinGeyiZCBaku8ADbNnPytVRC6yKEh7" ] },
      { "delegate": "tz1eVaNx3gCmG1EsLjijkmgAxdLYVf6Bf5Sq",
        "reception_time": "2022-01-18T18:26:00.197-00:00",
        "included_in_blocks":
          [ "BMAevvHrEHRWVxz6nYv3WinGeyiZCBaku8ADbNnPytVRC6yKEh7" ] },
      { "delegate": "tz1W5VkdB5s7ENMESVBtwyt9kyvLqPcUczRT",
        "reception_time": "2022-01-18T18:26:00.706-00:00",
        "included_in_blocks":
          [ "BMAevvHrEHRWVxz6nYv3WinGeyiZCBaku8ADbNnPytVRC6yKEh7" ] },
      { "delegate": "tz2BzJTyoQp8fNbfhWD4YQgH9JJHDgSGzpdG",
        "reception_time": "2022-01-18T18:26:07.104-00:00",
        "included_in_blocks":
          [ "BMAevvHrEHRWVxz6nYv3WinGeyiZCBaku8ADbNnPytVRC6yKEh7" ] } ] }