{ "blocks":
    [ { "hash": "BLuNzyBz34SU3CY6ADrMEDTqhWNETdrek5As4jzBzwbLWB8n77M",
        "delegate": "tz1irJKkXS2DBWkU1NnmFQx1c1L7pbGg4yhk",
        "reception_time": "2022-01-19T01:16:56.107-00:00",
        "timestamp": "2022-01-19T01:16:50Z" } ],
  "endorsements":
    [ { "delegate": "tz1dbfppLAAxXZNtf2SDps7rch3qfUznKSoK" },
      { "delegate": "tz1SYq214SCBy9naR6cvycQsYcUGpBqQAE8d" },
      { "delegate": "tz1TXzyaKUA8wsWefdSnyaYFnV2M3vCV7er9",
        "reception_time": "2022-01-19T01:16:55.928-00:00",
        "errors":
          [ { "kind": "temporary",
              "id": "proto.011-PtHangz2.prefilter.outdated_endorsement" } ],
        "included_in_blocks":
          [ "BKuddM6m5gKB1mYVhLawUCSDd94GRsudnSctjFQQX1jzAjJ7kxx" ] },
      { "delegate": "tz1irJKkXS2DBWkU1NnmFQx1c1L7pbGg4yhk",
        "reception_time": "2022-01-19T01:16:55.867-00:00",
        "errors":
          [ { "kind": "temporary",
              "id": "proto.011-PtHangz2.prefilter.outdated_endorsement" } ],
        "included_in_blocks":
          [ "BKuddM6m5gKB1mYVhLawUCSDd94GRsudnSctjFQQX1jzAjJ7kxx" ] },
      { "delegate": "tz1eEnQhbwf6trb8Q8mPb2RaPkNk2rN7BKi8",
        "reception_time": "2022-01-19T01:16:55.773-00:00",
        "errors":
          [ { "kind": "temporary",
              "id": "proto.011-PtHangz2.prefilter.outdated_endorsement" } ],
        "included_in_blocks":
          [ "BKuddM6m5gKB1mYVhLawUCSDd94GRsudnSctjFQQX1jzAjJ7kxx" ] },
      { "delegate": "tz1Scdr2HsZiQjc7bHMeBbmDRXYVvdhjJbBh",
        "reception_time": "2022-01-19T01:16:55.571-00:00",
        "errors":
          [ { "kind": "temporary",
              "id": "proto.011-PtHangz2.prefilter.outdated_endorsement" } ],
        "included_in_blocks":
          [ "BKuddM6m5gKB1mYVhLawUCSDd94GRsudnSctjFQQX1jzAjJ7kxx" ] },
      { "delegate": "tz1NpWrAyDL9k2Lmnyxcgr9xuJakbBxdq7FB",
        "reception_time": "2022-01-19T01:17:02.809-00:00",
        "included_in_blocks":
          [ "BKuddM6m5gKB1mYVhLawUCSDd94GRsudnSctjFQQX1jzAjJ7kxx" ] },
      { "delegate": "tz1go7f6mEQfT2xX2LuHAqgnRGN6c2zHPf5c",
        "reception_time": "2022-01-19T01:17:02.788-00:00",
        "included_in_blocks":
          [ "BKuddM6m5gKB1mYVhLawUCSDd94GRsudnSctjFQQX1jzAjJ7kxx" ] },
      { "delegate": "tz3bEQoFCZEEfZMskefZ8q8e4eiHH1pssRax",
        "reception_time": "2022-01-19T01:17:01.387-00:00",
        "included_in_blocks":
          [ "BKuddM6m5gKB1mYVhLawUCSDd94GRsudnSctjFQQX1jzAjJ7kxx" ] },
      { "delegate": "tz1PFeoTuFen8jAMRHajBySNyCwLmY5RqF9M",
        "reception_time": "2022-01-19T01:17:00.483-00:00",
        "included_in_blocks":
          [ "BKuddM6m5gKB1mYVhLawUCSDd94GRsudnSctjFQQX1jzAjJ7kxx" ] },
      { "delegate": "tz1eVaNx3gCmG1EsLjijkmgAxdLYVf6Bf5Sq",
        "reception_time": "2022-01-19T01:17:00.258-00:00",
        "included_in_blocks":
          [ "BKuddM6m5gKB1mYVhLawUCSDd94GRsudnSctjFQQX1jzAjJ7kxx" ] },
      { "delegate": "tz3NExpXn9aPNZPorRE4SdjJ2RGrfbJgMAaV",
        "reception_time": "2022-01-19T01:16:59.591-00:00",
        "included_in_blocks":
          [ "BKuddM6m5gKB1mYVhLawUCSDd94GRsudnSctjFQQX1jzAjJ7kxx" ] },
      { "delegate": "tz3UoffC7FG7zfpmvmjUmUeAaHvzdcUvAj6r",
        "reception_time": "2022-01-19T01:16:59.508-00:00",
        "included_in_blocks":
          [ "BKuddM6m5gKB1mYVhLawUCSDd94GRsudnSctjFQQX1jzAjJ7kxx" ] },
      { "delegate": "tz3RDC3Jdn4j15J7bBHZd29EUee9gVB1CxD9",
        "reception_time": "2022-01-19T01:16:59.132-00:00",
        "included_in_blocks":
          [ "BKuddM6m5gKB1mYVhLawUCSDd94GRsudnSctjFQQX1jzAjJ7kxx" ] },
      { "delegate": "tz1aRoaRhSpRYvFdyvgWLL6TGyRoGF51wDjM",
        "reception_time": "2022-01-19T01:16:59.017-00:00",
        "included_in_blocks":
          [ "BKuddM6m5gKB1mYVhLawUCSDd94GRsudnSctjFQQX1jzAjJ7kxx" ] },
      { "delegate": "tz3VEZ4k6a4Wx42iyev6i2aVAptTRLEAivNN",
        "reception_time": "2022-01-19T01:16:59.024-00:00",
        "included_in_blocks":
          [ "BKuddM6m5gKB1mYVhLawUCSDd94GRsudnSctjFQQX1jzAjJ7kxx" ] },
      { "delegate": "tz1XhnCdVENzgko5x1MMswLHSoQbJ5NPwLZ6",
        "reception_time": "2022-01-19T01:16:59.005-00:00",
        "included_in_blocks":
          [ "BKuddM6m5gKB1mYVhLawUCSDd94GRsudnSctjFQQX1jzAjJ7kxx" ] },
      { "delegate": "tz1awXW7wuXy21c66vBudMXQVAPgRnqqwgTH",
        "reception_time": "2022-01-19T01:16:58.947-00:00",
        "included_in_blocks":
          [ "BKuddM6m5gKB1mYVhLawUCSDd94GRsudnSctjFQQX1jzAjJ7kxx" ] },
      { "delegate": "tz3bvNMQ95vfAYtG8193ymshqjSvmxiCUuR5",
        "reception_time": "2022-01-19T01:16:58.713-00:00",
        "included_in_blocks":
          [ "BKuddM6m5gKB1mYVhLawUCSDd94GRsudnSctjFQQX1jzAjJ7kxx" ] },
      { "delegate": "tz1dRKU4FQ9QRRQPdaH4zCR6gmCmXfcvcgtB",
        "reception_time": "2022-01-19T01:16:58.829-00:00",
        "included_in_blocks":
          [ "BKuddM6m5gKB1mYVhLawUCSDd94GRsudnSctjFQQX1jzAjJ7kxx" ] },
      { "delegate": "tz1Nf6tsK4G6bBqgSQERy4nUtkHNKUVdh7q1",
        "reception_time": "2022-01-19T01:16:58.308-00:00",
        "included_in_blocks":
          [ "BKuddM6m5gKB1mYVhLawUCSDd94GRsudnSctjFQQX1jzAjJ7kxx" ] },
      { "delegate": "tz1WctSwL49BZtdWAQ75NY6vr4xsAx6oKdah",
        "reception_time": "2022-01-19T01:16:58.577-00:00",
        "included_in_blocks":
          [ "BKuddM6m5gKB1mYVhLawUCSDd94GRsudnSctjFQQX1jzAjJ7kxx" ] },
      { "delegate": "tz3WMqdzXqRWXwyvj5Hp2H7QEepaUuS7vd9K",
        "reception_time": "2022-01-19T01:16:58.334-00:00",
        "included_in_blocks":
          [ "BKuddM6m5gKB1mYVhLawUCSDd94GRsudnSctjFQQX1jzAjJ7kxx" ] },
      { "delegate": "tz3NDpRj6WBrJPikcPVHRBEjWKxFw3c6eQPS",
        "reception_time": "2022-01-19T01:16:58.248-00:00",
        "included_in_blocks":
          [ "BKuddM6m5gKB1mYVhLawUCSDd94GRsudnSctjFQQX1jzAjJ7kxx" ] },
      { "delegate": "tz1T7duV5gZWSTq4YpBGbXNLTfznCLDrFxvs",
        "reception_time": "2022-01-19T01:16:58.537-00:00",
        "included_in_blocks":
          [ "BKuddM6m5gKB1mYVhLawUCSDd94GRsudnSctjFQQX1jzAjJ7kxx" ] },
      { "delegate": "tz1PeZx7FXy7QRuMREGXGxeipb24RsMMzUNe",
        "reception_time": "2022-01-19T01:16:58.239-00:00",
        "included_in_blocks":
          [ "BKuddM6m5gKB1mYVhLawUCSDd94GRsudnSctjFQQX1jzAjJ7kxx" ] },
      { "delegate": "tz1NoYvKjXTzTk54VpLxBfouJ33J8jwKPPvw",
        "reception_time": "2022-01-19T01:16:58.064-00:00",
        "included_in_blocks":
          [ "BKuddM6m5gKB1mYVhLawUCSDd94GRsudnSctjFQQX1jzAjJ7kxx" ] },
      { "delegate": "tz1RjoHc98dBoqaH2jawF62XNKh7YsHwbkEv",
        "reception_time": "2022-01-19T01:16:58.438-00:00",
        "included_in_blocks":
          [ "BKuddM6m5gKB1mYVhLawUCSDd94GRsudnSctjFQQX1jzAjJ7kxx" ] },
      { "delegate": "tz1eeArNKzpoGLrT8dR3ewRgZ4r3YQkY165n",
        "reception_time": "2022-01-19T01:16:58.001-00:00",
        "included_in_blocks":
          [ "BKuddM6m5gKB1mYVhLawUCSDd94GRsudnSctjFQQX1jzAjJ7kxx" ] },
      { "delegate": "tz1fwnfJNgiDACshK9avfRfFbMaXrs3ghoJa",
        "reception_time": "2022-01-19T01:16:58.112-00:00",
        "included_in_blocks":
          [ "BKuddM6m5gKB1mYVhLawUCSDd94GRsudnSctjFQQX1jzAjJ7kxx" ] },
      { "delegate": "tz1NEKxGEHsFufk87CVZcrqWu8o22qh46GK6",
        "reception_time": "2022-01-19T01:16:58.274-00:00",
        "included_in_blocks":
          [ "BKuddM6m5gKB1mYVhLawUCSDd94GRsudnSctjFQQX1jzAjJ7kxx" ] },
      { "delegate": "tz2FCNBrERXtaTtNX6iimR1UJ5JSDxvdHM93",
        "reception_time": "2022-01-19T01:16:57.830-00:00",
        "included_in_blocks":
          [ "BKuddM6m5gKB1mYVhLawUCSDd94GRsudnSctjFQQX1jzAjJ7kxx" ] },
      { "delegate": "tz3RB4aoyjov4KEVRbuhvQ1CKJgBJMWhaeB8",
        "reception_time": "2022-01-19T01:16:57.588-00:00",
        "included_in_blocks":
          [ "BKuddM6m5gKB1mYVhLawUCSDd94GRsudnSctjFQQX1jzAjJ7kxx" ] },
      { "delegate": "tz1TRqbYbUf2GyrjErf3hBzgBJPzW8y36qEs",
        "reception_time": "2022-01-19T01:16:58.064-00:00",
        "included_in_blocks":
          [ "BKuddM6m5gKB1mYVhLawUCSDd94GRsudnSctjFQQX1jzAjJ7kxx" ] },
      { "delegate": "tz1abmz7jiCV2GH2u81LRrGgAFFgvQgiDiaf",
        "reception_time": "2022-01-19T01:16:58.159-00:00",
        "included_in_blocks":
          [ "BKuddM6m5gKB1mYVhLawUCSDd94GRsudnSctjFQQX1jzAjJ7kxx" ] },
      { "delegate": "tz1KfEsrtDaA1sX7vdM4qmEPWuSytuqCDp5j",
        "reception_time": "2022-01-19T01:16:58.147-00:00",
        "included_in_blocks":
          [ "BKuddM6m5gKB1mYVhLawUCSDd94GRsudnSctjFQQX1jzAjJ7kxx" ] },
      { "delegate": "tz1axcnVN9tZnCe4sQQhC6f3tfSEXdjPaXPY",
        "reception_time": "2022-01-19T01:16:58.122-00:00",
        "included_in_blocks":
          [ "BKuddM6m5gKB1mYVhLawUCSDd94GRsudnSctjFQQX1jzAjJ7kxx" ] },
      { "delegate": "tz1LmaFsWRkjr7QMCx5PtV6xTUz3AmEpKQiF",
        "reception_time": "2022-01-19T01:16:57.876-00:00",
        "included_in_blocks":
          [ "BKuddM6m5gKB1mYVhLawUCSDd94GRsudnSctjFQQX1jzAjJ7kxx" ] },
      { "delegate": "tz3bTdwZinP8U1JmSweNzVKhmwafqWmFWRfk",
        "reception_time": "2022-01-19T01:16:57.595-00:00",
        "included_in_blocks":
          [ "BKuddM6m5gKB1mYVhLawUCSDd94GRsudnSctjFQQX1jzAjJ7kxx" ] },
      { "delegate": "tz3e75hU4EhDU3ukyJueh5v6UvEHzGwkg3yC",
        "reception_time": "2022-01-19T01:16:57.525-00:00",
        "included_in_blocks":
          [ "BKuddM6m5gKB1mYVhLawUCSDd94GRsudnSctjFQQX1jzAjJ7kxx" ] },
      { "delegate": "tz1WBfwbT66FC6BTLexc2BoyCCBM9LG7pnVW",
        "reception_time": "2022-01-19T01:16:57.934-00:00",
        "included_in_blocks":
          [ "BKuddM6m5gKB1mYVhLawUCSDd94GRsudnSctjFQQX1jzAjJ7kxx" ] },
      { "delegate": "tz1g8vkmcde6sWKaG2NN9WKzCkDM6Rziq194",
        "reception_time": "2022-01-19T01:16:57.502-00:00",
        "included_in_blocks":
          [ "BKuddM6m5gKB1mYVhLawUCSDd94GRsudnSctjFQQX1jzAjJ7kxx" ] },
      { "delegate": "tz1dwu9aYb7CRNq4Y2zAjipdjFuSVKhHS8vA",
        "reception_time": "2022-01-19T01:16:57.502-00:00",
        "included_in_blocks":
          [ "BKuddM6m5gKB1mYVhLawUCSDd94GRsudnSctjFQQX1jzAjJ7kxx" ] },
      { "delegate": "tz1f3Re8iw6Pt3KMHAvyccHxDU3NuqL95axD",
        "reception_time": "2022-01-19T01:16:57.740-00:00",
        "included_in_blocks":
          [ "BKuddM6m5gKB1mYVhLawUCSDd94GRsudnSctjFQQX1jzAjJ7kxx" ] },
      { "delegate": "tz1h4GUAMweP7SNWzDgvMk3yRCAZyaP1MxZq",
        "reception_time": "2022-01-19T01:16:57.502-00:00",
        "included_in_blocks":
          [ "BKuddM6m5gKB1mYVhLawUCSDd94GRsudnSctjFQQX1jzAjJ7kxx" ] },
      { "delegate": "tz1dNVDWPf3Q59SdJqnjdnu277iyvReiRS9M",
        "reception_time": "2022-01-19T01:16:57.612-00:00",
        "included_in_blocks":
          [ "BKuddM6m5gKB1mYVhLawUCSDd94GRsudnSctjFQQX1jzAjJ7kxx" ] },
      { "delegate": "tz1Tnjaxk6tbAeC2TmMApPh8UsrEVQvhHvx5",
        "reception_time": "2022-01-19T01:16:57.730-00:00",
        "included_in_blocks":
          [ "BKuddM6m5gKB1mYVhLawUCSDd94GRsudnSctjFQQX1jzAjJ7kxx" ] },
      { "delegate": "tz1PWCDnz783NNGGQjEFFsHtrcK5yBW4E2rm",
        "reception_time": "2022-01-19T01:16:57.502-00:00",
        "included_in_blocks":
          [ "BKuddM6m5gKB1mYVhLawUCSDd94GRsudnSctjFQQX1jzAjJ7kxx" ] },
      { "delegate": "tz1WCd2jm4uSt4vntk4vSuUWoZQGhLcDuR9q",
        "reception_time": "2022-01-19T01:16:57.502-00:00",
        "included_in_blocks":
          [ "BKuddM6m5gKB1mYVhLawUCSDd94GRsudnSctjFQQX1jzAjJ7kxx" ] },
      { "delegate": "tz3Zhs2dygr55yHyQyKjntAtY9bgfhLZ4Xj1",
        "reception_time": "2022-01-19T01:16:57.502-00:00",
        "included_in_blocks":
          [ "BKuddM6m5gKB1mYVhLawUCSDd94GRsudnSctjFQQX1jzAjJ7kxx" ] },
      { "delegate": "tz3QSGPoRp3Kn7n3vY24eYeu3Peuqo45LQ4D",
        "reception_time": "2022-01-19T01:16:57.502-00:00",
        "included_in_blocks":
          [ "BKuddM6m5gKB1mYVhLawUCSDd94GRsudnSctjFQQX1jzAjJ7kxx" ] },
      { "delegate": "tz3gtoUxdudfBRcNY7iVdKPHCYYX6xdPpoRS",
        "reception_time": "2022-01-19T01:16:57.502-00:00",
        "included_in_blocks":
          [ "BKuddM6m5gKB1mYVhLawUCSDd94GRsudnSctjFQQX1jzAjJ7kxx" ] },
      { "delegate": "tz3QT9dHYKDqh563chVa6za8526ys1UKfRfL",
        "reception_time": "2022-01-19T01:16:57.502-00:00",
        "included_in_blocks":
          [ "BKuddM6m5gKB1mYVhLawUCSDd94GRsudnSctjFQQX1jzAjJ7kxx" ] },
      { "delegate": "tz1gfArv665EUkSg2ojMBzcbfwuPxAvqPvjo",
        "reception_time": "2022-01-19T01:16:57.539-00:00",
        "included_in_blocks":
          [ "BKuddM6m5gKB1mYVhLawUCSDd94GRsudnSctjFQQX1jzAjJ7kxx" ] },
      { "delegate": "tz3S6BBeKgJGXxvLyZ1xzXzMPn11nnFtq5L9",
        "reception_time": "2022-01-19T01:16:57.502-00:00",
        "included_in_blocks":
          [ "BKuddM6m5gKB1mYVhLawUCSDd94GRsudnSctjFQQX1jzAjJ7kxx" ] },
      { "delegate": "tz1TwVimQy3BywXoSszdFXjT9bSTQrsZYo2u",
        "reception_time": "2022-01-19T01:16:57.502-00:00",
        "included_in_blocks":
          [ "BKuddM6m5gKB1mYVhLawUCSDd94GRsudnSctjFQQX1jzAjJ7kxx" ] },
      { "delegate": "tz3iJu5vrKZcsqRPs8yJ61UDoeEXZmtro4qh",
        "reception_time": "2022-01-19T01:16:57.502-00:00",
        "included_in_blocks":
          [ "BKuddM6m5gKB1mYVhLawUCSDd94GRsudnSctjFQQX1jzAjJ7kxx" ] },
      { "delegate": "tz1SUgyRB8T5jXgXAwS33pgRHAKrafyg87Yc",
        "reception_time": "2022-01-19T01:16:57.502-00:00",
        "included_in_blocks":
          [ "BKuddM6m5gKB1mYVhLawUCSDd94GRsudnSctjFQQX1jzAjJ7kxx" ] },
      { "delegate": "tz3hw2kqXhLUvY65ca1eety2oQTpAvd34R9Q",
        "reception_time": "2022-01-19T01:16:57.502-00:00",
        "included_in_blocks":
          [ "BKuddM6m5gKB1mYVhLawUCSDd94GRsudnSctjFQQX1jzAjJ7kxx" ] },
      { "delegate": "tz3RKYFsLuQzKBtmYuLNas7uMu3AsYd4QdsA",
        "reception_time": "2022-01-19T01:16:57.502-00:00",
        "included_in_blocks":
          [ "BKuddM6m5gKB1mYVhLawUCSDd94GRsudnSctjFQQX1jzAjJ7kxx" ] },
      { "delegate": "tz3NxTnke1acr8o3h5y9ytf5awQBGNJUKzVU",
        "reception_time": "2022-01-19T01:16:57.502-00:00",
        "included_in_blocks":
          [ "BKuddM6m5gKB1mYVhLawUCSDd94GRsudnSctjFQQX1jzAjJ7kxx" ] },
      { "delegate": "tz3ZbP2pM3nwvXztbuMJwJnDvV5xdpU8UkkD",
        "reception_time": "2022-01-19T01:16:57.502-00:00",
        "included_in_blocks":
          [ "BKuddM6m5gKB1mYVhLawUCSDd94GRsudnSctjFQQX1jzAjJ7kxx" ] },
      { "delegate": "tz1S8MNvuFEUsWgjHvi3AxibRBf388NhT1q2",
        "reception_time": "2022-01-19T01:16:57.502-00:00",
        "included_in_blocks":
          [ "BKuddM6m5gKB1mYVhLawUCSDd94GRsudnSctjFQQX1jzAjJ7kxx" ] },
      { "delegate": "tz1RCFbB9GpALpsZtu6J58sb74dm8qe6XBzv",
        "reception_time": "2022-01-19T01:16:57.502-00:00",
        "included_in_blocks":
          [ "BKuddM6m5gKB1mYVhLawUCSDd94GRsudnSctjFQQX1jzAjJ7kxx" ] },
      { "delegate": "tz3QCNyySViKHmeSr45kzDxzchys7NiXCWoa",
        "reception_time": "2022-01-19T01:16:57.502-00:00",
        "included_in_blocks":
          [ "BKuddM6m5gKB1mYVhLawUCSDd94GRsudnSctjFQQX1jzAjJ7kxx" ] },
      { "delegate": "tz1VmiY38m3y95HqQLjMwqnMS7sdMfGomzKi",
        "reception_time": "2022-01-19T01:16:57.502-00:00",
        "included_in_blocks":
          [ "BKuddM6m5gKB1mYVhLawUCSDd94GRsudnSctjFQQX1jzAjJ7kxx" ] },
      { "delegate": "tz1gUNyn3hmnEWqkusWPzxRaon1cs7ndWh7h",
        "reception_time": "2022-01-19T01:16:57.502-00:00",
        "included_in_blocks":
          [ "BKuddM6m5gKB1mYVhLawUCSDd94GRsudnSctjFQQX1jzAjJ7kxx" ] },
      { "delegate": "tz1MJx9vhaNRSimcuXPK2rW4fLccQnDAnVKJ",
        "reception_time": "2022-01-19T01:16:57.502-00:00",
        "included_in_blocks":
          [ "BKuddM6m5gKB1mYVhLawUCSDd94GRsudnSctjFQQX1jzAjJ7kxx" ] },
      { "delegate": "tz1Ldzz6k1BHdhuKvAtMRX7h5kJSMHESMHLC",
        "reception_time": "2022-01-19T01:16:57.502-00:00",
        "included_in_blocks":
          [ "BKuddM6m5gKB1mYVhLawUCSDd94GRsudnSctjFQQX1jzAjJ7kxx" ] },
      { "delegate": "tz1VQnqCCqX4K5sP3FNkVSNKTdCAMJDd3E1n",
        "reception_time": "2022-01-19T01:16:57.502-00:00",
        "included_in_blocks":
          [ "BKuddM6m5gKB1mYVhLawUCSDd94GRsudnSctjFQQX1jzAjJ7kxx" ] },
      { "delegate": "tz1Mc61yajNASzh5KWZFtYs4i7EJbzAxQC4K",
        "reception_time": "2022-01-19T01:16:57.502-00:00",
        "included_in_blocks":
          [ "BKuddM6m5gKB1mYVhLawUCSDd94GRsudnSctjFQQX1jzAjJ7kxx" ] },
      { "delegate": "tz1P2Po7YM526ughEsRbY4oR9zaUPDZjxFrb",
        "reception_time": "2022-01-19T01:16:57.502-00:00",
        "included_in_blocks":
          [ "BKuddM6m5gKB1mYVhLawUCSDd94GRsudnSctjFQQX1jzAjJ7kxx" ] },
      { "delegate": "tz1TRspM5SeZpaQUhzByXbEvqKF1vnCM2YTK",
        "reception_time": "2022-01-19T01:16:57.502-00:00",
        "included_in_blocks":
          [ "BKuddM6m5gKB1mYVhLawUCSDd94GRsudnSctjFQQX1jzAjJ7kxx" ] },
      { "delegate": "tz1aXD7Jigrt3PBYSpHSg5Rr33SexMmmM5Ys",
        "reception_time": "2022-01-19T01:16:57.502-00:00",
        "included_in_blocks":
          [ "BKuddM6m5gKB1mYVhLawUCSDd94GRsudnSctjFQQX1jzAjJ7kxx" ] } ] }