{ "blocks":
    [ { "hash": "BMdZUNKoG7mzZfwmCrohmRpKD49Azd7w4Jrw8VffC4em6zEH62Q",
        "delegate": "tz1S8MNvuFEUsWgjHvi3AxibRBf388NhT1q2",
        "reception_time": "2022-01-19T01:33:55.518-00:00",
        "timestamp": "2022-01-19T01:33:50Z" } ],
  "endorsements":
    [ { "delegate": "tz1SYq214SCBy9naR6cvycQsYcUGpBqQAE8d" },
      { "delegate": "tz1W5VkdB5s7ENMESVBtwyt9kyvLqPcUczRT",
        "reception_time": "2022-01-19T01:34:01.360-00:00",
        "included_in_blocks":
          [ "BLk4VADjVfs2eGGENTQJWsyBMCtpSFHjGdJgmPzmr6g9YYmyMR1" ] },
      { "delegate": "tz1PFeoTuFen8jAMRHajBySNyCwLmY5RqF9M",
        "reception_time": "2022-01-19T01:34:01.175-00:00",
        "included_in_blocks":
          [ "BLk4VADjVfs2eGGENTQJWsyBMCtpSFHjGdJgmPzmr6g9YYmyMR1" ] },
      { "delegate": "tz1acZQd7TdfoiUnD2czHnTHB2TaJQP6gdqo",
        "reception_time": "2022-01-19T01:34:00.353-00:00",
        "included_in_blocks":
          [ "BLk4VADjVfs2eGGENTQJWsyBMCtpSFHjGdJgmPzmr6g9YYmyMR1" ] },
      { "delegate": "tz1aRoaRhSpRYvFdyvgWLL6TGyRoGF51wDjM",
        "reception_time": "2022-01-19T01:33:59.972-00:00",
        "included_in_blocks":
          [ "BLk4VADjVfs2eGGENTQJWsyBMCtpSFHjGdJgmPzmr6g9YYmyMR1" ] },
      { "delegate": "tz3UoffC7FG7zfpmvmjUmUeAaHvzdcUvAj6r",
        "reception_time": "2022-01-19T01:33:59.319-00:00",
        "included_in_blocks":
          [ "BLk4VADjVfs2eGGENTQJWsyBMCtpSFHjGdJgmPzmr6g9YYmyMR1" ] },
      { "delegate": "tz1g8vkmcde6sWKaG2NN9WKzCkDM6Rziq194",
        "reception_time": "2022-01-19T01:33:59.011-00:00",
        "included_in_blocks":
          [ "BLk4VADjVfs2eGGENTQJWsyBMCtpSFHjGdJgmPzmr6g9YYmyMR1" ] },
      { "delegate": "tz1T7duV5gZWSTq4YpBGbXNLTfznCLDrFxvs",
        "reception_time": "2022-01-19T01:33:59.042-00:00",
        "included_in_blocks":
          [ "BLk4VADjVfs2eGGENTQJWsyBMCtpSFHjGdJgmPzmr6g9YYmyMR1" ] },
      { "delegate": "tz1ZcTRk5uxD86EFEn1vvNffWWqJy7q5eVhc",
        "reception_time": "2022-01-19T01:33:59.063-00:00",
        "included_in_blocks":
          [ "BLk4VADjVfs2eGGENTQJWsyBMCtpSFHjGdJgmPzmr6g9YYmyMR1" ] },
      { "delegate": "tz1WvL7MKyCuUHfC3FxPFyiXcy8hHTBT3vjE",
        "reception_time": "2022-01-19T01:33:58.944-00:00",
        "included_in_blocks":
          [ "BLk4VADjVfs2eGGENTQJWsyBMCtpSFHjGdJgmPzmr6g9YYmyMR1" ] },
      { "delegate": "tz3NExpXn9aPNZPorRE4SdjJ2RGrfbJgMAaV",
        "reception_time": "2022-01-19T01:33:58.864-00:00",
        "included_in_blocks":
          [ "BLk4VADjVfs2eGGENTQJWsyBMCtpSFHjGdJgmPzmr6g9YYmyMR1" ] },
      { "delegate": "tz1dRKU4FQ9QRRQPdaH4zCR6gmCmXfcvcgtB",
        "reception_time": "2022-01-19T01:33:59.016-00:00",
        "included_in_blocks":
          [ "BLk4VADjVfs2eGGENTQJWsyBMCtpSFHjGdJgmPzmr6g9YYmyMR1" ] },
      { "delegate": "tz1Z2jXfEXL7dXhs6bsLmyLFLfmAkXBzA9WE",
        "reception_time": "2022-01-19T01:33:58.516-00:00",
        "included_in_blocks":
          [ "BLk4VADjVfs2eGGENTQJWsyBMCtpSFHjGdJgmPzmr6g9YYmyMR1" ] },
      { "delegate": "tz1a3T5mRR1XWM1JgydvAqxEwpNs7ktVZuXc",
        "reception_time": "2022-01-19T01:33:58.359-00:00",
        "included_in_blocks":
          [ "BLk4VADjVfs2eGGENTQJWsyBMCtpSFHjGdJgmPzmr6g9YYmyMR1" ] },
      { "delegate": "tz1QXrzaHrGACVn15UiCg33aLCJ6npWdQb3J",
        "reception_time": "2022-01-19T01:33:58.454-00:00",
        "included_in_blocks":
          [ "BLk4VADjVfs2eGGENTQJWsyBMCtpSFHjGdJgmPzmr6g9YYmyMR1" ] },
      { "delegate": "tz3NDpRj6WBrJPikcPVHRBEjWKxFw3c6eQPS",
        "reception_time": "2022-01-19T01:33:58.302-00:00",
        "included_in_blocks":
          [ "BLk4VADjVfs2eGGENTQJWsyBMCtpSFHjGdJgmPzmr6g9YYmyMR1" ] },
      { "delegate": "tz3gLTu4Yxj8tPAcriQVUdxv6BY9QyvzU1az",
        "reception_time": "2022-01-19T01:33:58.332-00:00",
        "included_in_blocks":
          [ "BLk4VADjVfs2eGGENTQJWsyBMCtpSFHjGdJgmPzmr6g9YYmyMR1" ] },
      { "delegate": "tz1WctSwL49BZtdWAQ75NY6vr4xsAx6oKdah",
        "reception_time": "2022-01-19T01:33:57.918-00:00",
        "included_in_blocks":
          [ "BLk4VADjVfs2eGGENTQJWsyBMCtpSFHjGdJgmPzmr6g9YYmyMR1" ] },
      { "delegate": "tz2FCNBrERXtaTtNX6iimR1UJ5JSDxvdHM93",
        "reception_time": "2022-01-19T01:33:57.997-00:00",
        "included_in_blocks":
          [ "BLk4VADjVfs2eGGENTQJWsyBMCtpSFHjGdJgmPzmr6g9YYmyMR1" ] },
      { "delegate": "tz1TEc75UKXv4W5cwi14Na3NtqFD51yKQi7h",
        "reception_time": "2022-01-19T01:33:57.968-00:00",
        "included_in_blocks":
          [ "BLk4VADjVfs2eGGENTQJWsyBMCtpSFHjGdJgmPzmr6g9YYmyMR1" ] },
      { "delegate": "tz3VEZ4k6a4Wx42iyev6i2aVAptTRLEAivNN",
        "reception_time": "2022-01-19T01:33:57.884-00:00",
        "included_in_blocks":
          [ "BLk4VADjVfs2eGGENTQJWsyBMCtpSFHjGdJgmPzmr6g9YYmyMR1" ] },
      { "delegate": "tz1LmaFsWRkjr7QMCx5PtV6xTUz3AmEpKQiF",
        "reception_time": "2022-01-19T01:33:57.962-00:00",
        "included_in_blocks":
          [ "BLk4VADjVfs2eGGENTQJWsyBMCtpSFHjGdJgmPzmr6g9YYmyMR1" ] },
      { "delegate": "tz1Tnjaxk6tbAeC2TmMApPh8UsrEVQvhHvx5",
        "reception_time": "2022-01-19T01:33:57.843-00:00",
        "included_in_blocks":
          [ "BLk4VADjVfs2eGGENTQJWsyBMCtpSFHjGdJgmPzmr6g9YYmyMR1" ] },
      { "delegate": "tz1TRqbYbUf2GyrjErf3hBzgBJPzW8y36qEs",
        "reception_time": "2022-01-19T01:33:57.886-00:00",
        "included_in_blocks":
          [ "BLk4VADjVfs2eGGENTQJWsyBMCtpSFHjGdJgmPzmr6g9YYmyMR1" ] },
      { "delegate": "tz1WBfwbT66FC6BTLexc2BoyCCBM9LG7pnVW",
        "reception_time": "2022-01-19T01:33:57.804-00:00",
        "included_in_blocks":
          [ "BLk4VADjVfs2eGGENTQJWsyBMCtpSFHjGdJgmPzmr6g9YYmyMR1" ] },
      { "delegate": "tz1Nf6tsK4G6bBqgSQERy4nUtkHNKUVdh7q1",
        "reception_time": "2022-01-19T01:33:57.630-00:00",
        "included_in_blocks":
          [ "BLk4VADjVfs2eGGENTQJWsyBMCtpSFHjGdJgmPzmr6g9YYmyMR1" ] },
      { "delegate": "tz1RjoHc98dBoqaH2jawF62XNKh7YsHwbkEv",
        "reception_time": "2022-01-19T01:33:57.579-00:00",
        "included_in_blocks":
          [ "BLk4VADjVfs2eGGENTQJWsyBMCtpSFHjGdJgmPzmr6g9YYmyMR1" ] },
      { "delegate": "tz3WMqdzXqRWXwyvj5Hp2H7QEepaUuS7vd9K",
        "reception_time": "2022-01-19T01:33:57.617-00:00",
        "included_in_blocks":
          [ "BLk4VADjVfs2eGGENTQJWsyBMCtpSFHjGdJgmPzmr6g9YYmyMR1" ] },
      { "delegate": "tz1dwu9aYb7CRNq4Y2zAjipdjFuSVKhHS8vA",
        "reception_time": "2022-01-19T01:33:57.528-00:00",
        "included_in_blocks":
          [ "BLk4VADjVfs2eGGENTQJWsyBMCtpSFHjGdJgmPzmr6g9YYmyMR1" ] },
      { "delegate": "tz3bvNMQ95vfAYtG8193ymshqjSvmxiCUuR5",
        "reception_time": "2022-01-19T01:33:57.646-00:00",
        "included_in_blocks":
          [ "BLk4VADjVfs2eGGENTQJWsyBMCtpSFHjGdJgmPzmr6g9YYmyMR1" ] },
      { "delegate": "tz3RDC3Jdn4j15J7bBHZd29EUee9gVB1CxD9",
        "reception_time": "2022-01-19T01:33:57.449-00:00",
        "included_in_blocks":
          [ "BLk4VADjVfs2eGGENTQJWsyBMCtpSFHjGdJgmPzmr6g9YYmyMR1" ] },
      { "delegate": "tz3RB4aoyjov4KEVRbuhvQ1CKJgBJMWhaeB8",
        "reception_time": "2022-01-19T01:33:57.598-00:00",
        "included_in_blocks":
          [ "BLk4VADjVfs2eGGENTQJWsyBMCtpSFHjGdJgmPzmr6g9YYmyMR1" ] },
      { "delegate": "tz1KfEsrtDaA1sX7vdM4qmEPWuSytuqCDp5j",
        "reception_time": "2022-01-19T01:33:57.218-00:00",
        "included_in_blocks":
          [ "BLk4VADjVfs2eGGENTQJWsyBMCtpSFHjGdJgmPzmr6g9YYmyMR1" ] },
      { "delegate": "tz3QCNyySViKHmeSr45kzDxzchys7NiXCWoa",
        "reception_time": "2022-01-19T01:33:57.214-00:00",
        "included_in_blocks":
          [ "BLk4VADjVfs2eGGENTQJWsyBMCtpSFHjGdJgmPzmr6g9YYmyMR1" ] },
      { "delegate": "tz3Zhs2dygr55yHyQyKjntAtY9bgfhLZ4Xj1",
        "reception_time": "2022-01-19T01:33:57.135-00:00",
        "included_in_blocks":
          [ "BLk4VADjVfs2eGGENTQJWsyBMCtpSFHjGdJgmPzmr6g9YYmyMR1" ] },
      { "delegate": "tz3bTdwZinP8U1JmSweNzVKhmwafqWmFWRfk",
        "reception_time": "2022-01-19T01:33:57.309-00:00",
        "included_in_blocks":
          [ "BLk4VADjVfs2eGGENTQJWsyBMCtpSFHjGdJgmPzmr6g9YYmyMR1" ] },
      { "delegate": "tz3iJu5vrKZcsqRPs8yJ61UDoeEXZmtro4qh",
        "reception_time": "2022-01-19T01:33:57.094-00:00",
        "included_in_blocks":
          [ "BLk4VADjVfs2eGGENTQJWsyBMCtpSFHjGdJgmPzmr6g9YYmyMR1" ] },
      { "delegate": "tz3S6BBeKgJGXxvLyZ1xzXzMPn11nnFtq5L9",
        "reception_time": "2022-01-19T01:33:56.966-00:00",
        "included_in_blocks":
          [ "BLk4VADjVfs2eGGENTQJWsyBMCtpSFHjGdJgmPzmr6g9YYmyMR1" ] },
      { "delegate": "tz1ia6jze3LrBGWJkaDmZ7ThJpPsYWh8D398",
        "reception_time": "2022-01-19T01:33:56.956-00:00",
        "included_in_blocks":
          [ "BLk4VADjVfs2eGGENTQJWsyBMCtpSFHjGdJgmPzmr6g9YYmyMR1" ] },
      { "delegate": "tz1RCFbB9GpALpsZtu6J58sb74dm8qe6XBzv",
        "reception_time": "2022-01-19T01:33:57.099-00:00",
        "included_in_blocks":
          [ "BLk4VADjVfs2eGGENTQJWsyBMCtpSFHjGdJgmPzmr6g9YYmyMR1" ] },
      { "delegate": "tz1PWCDnz783NNGGQjEFFsHtrcK5yBW4E2rm",
        "reception_time": "2022-01-19T01:33:57.035-00:00",
        "included_in_blocks":
          [ "BLk4VADjVfs2eGGENTQJWsyBMCtpSFHjGdJgmPzmr6g9YYmyMR1" ] },
      { "delegate": "tz3QT9dHYKDqh563chVa6za8526ys1UKfRfL",
        "reception_time": "2022-01-19T01:33:57.066-00:00",
        "included_in_blocks":
          [ "BLk4VADjVfs2eGGENTQJWsyBMCtpSFHjGdJgmPzmr6g9YYmyMR1" ] },
      { "delegate": "tz1gfArv665EUkSg2ojMBzcbfwuPxAvqPvjo",
        "reception_time": "2022-01-19T01:33:56.925-00:00",
        "included_in_blocks":
          [ "BLk4VADjVfs2eGGENTQJWsyBMCtpSFHjGdJgmPzmr6g9YYmyMR1" ] },
      { "delegate": "tz3gtoUxdudfBRcNY7iVdKPHCYYX6xdPpoRS",
        "reception_time": "2022-01-19T01:33:56.997-00:00",
        "included_in_blocks":
          [ "BLk4VADjVfs2eGGENTQJWsyBMCtpSFHjGdJgmPzmr6g9YYmyMR1" ] },
      { "delegate": "tz3QSGPoRp3Kn7n3vY24eYeu3Peuqo45LQ4D",
        "reception_time": "2022-01-19T01:33:56.950-00:00",
        "included_in_blocks":
          [ "BLk4VADjVfs2eGGENTQJWsyBMCtpSFHjGdJgmPzmr6g9YYmyMR1" ] },
      { "delegate": "tz1fUyqYH7H4pRHN1roWY17giXhy1RvxjgUV",
        "reception_time": "2022-01-19T01:33:56.921-00:00",
        "included_in_blocks":
          [ "BLk4VADjVfs2eGGENTQJWsyBMCtpSFHjGdJgmPzmr6g9YYmyMR1" ] },
      { "delegate": "tz1MivraUX9U6nmGAQkm7XkrNVmsPExEUT1W",
        "reception_time": "2022-01-19T01:33:56.893-00:00",
        "included_in_blocks":
          [ "BLk4VADjVfs2eGGENTQJWsyBMCtpSFHjGdJgmPzmr6g9YYmyMR1" ] },
      { "delegate": "tz1MQMiZHV8q4tTwUMWmS5Y3kaP6J2136iXr",
        "reception_time": "2022-01-19T01:33:56.884-00:00",
        "included_in_blocks":
          [ "BLk4VADjVfs2eGGENTQJWsyBMCtpSFHjGdJgmPzmr6g9YYmyMR1" ] },
      { "delegate": "tz1bsdrs36X5BTH83RHUBdUouKLJZK8d2oBa",
        "reception_time": "2022-01-19T01:33:56.766-00:00",
        "included_in_blocks":
          [ "BLk4VADjVfs2eGGENTQJWsyBMCtpSFHjGdJgmPzmr6g9YYmyMR1" ] },
      { "delegate": "tz1WCd2jm4uSt4vntk4vSuUWoZQGhLcDuR9q",
        "reception_time": "2022-01-19T01:33:56.884-00:00",
        "included_in_blocks":
          [ "BLk4VADjVfs2eGGENTQJWsyBMCtpSFHjGdJgmPzmr6g9YYmyMR1" ] },
      { "delegate": "tz3RKYFsLuQzKBtmYuLNas7uMu3AsYd4QdsA",
        "reception_time": "2022-01-19T01:33:56.853-00:00",
        "included_in_blocks":
          [ "BLk4VADjVfs2eGGENTQJWsyBMCtpSFHjGdJgmPzmr6g9YYmyMR1" ] },
      { "delegate": "tz1TRspM5SeZpaQUhzByXbEvqKF1vnCM2YTK",
        "reception_time": "2022-01-19T01:33:56.861-00:00",
        "included_in_blocks":
          [ "BLk4VADjVfs2eGGENTQJWsyBMCtpSFHjGdJgmPzmr6g9YYmyMR1" ] },
      { "delegate": "tz1TXzyaKUA8wsWefdSnyaYFnV2M3vCV7er9",
        "reception_time": "2022-01-19T01:33:56.762-00:00",
        "included_in_blocks":
          [ "BLk4VADjVfs2eGGENTQJWsyBMCtpSFHjGdJgmPzmr6g9YYmyMR1" ] },
      { "delegate": "tz1VQnqCCqX4K5sP3FNkVSNKTdCAMJDd3E1n",
        "reception_time": "2022-01-19T01:33:56.798-00:00",
        "included_in_blocks":
          [ "BLk4VADjVfs2eGGENTQJWsyBMCtpSFHjGdJgmPzmr6g9YYmyMR1" ] },
      { "delegate": "tz3NxTnke1acr8o3h5y9ytf5awQBGNJUKzVU",
        "reception_time": "2022-01-19T01:33:56.819-00:00",
        "included_in_blocks":
          [ "BLk4VADjVfs2eGGENTQJWsyBMCtpSFHjGdJgmPzmr6g9YYmyMR1" ] },
      { "delegate": "tz1MJx9vhaNRSimcuXPK2rW4fLccQnDAnVKJ",
        "reception_time": "2022-01-19T01:33:56.770-00:00",
        "included_in_blocks":
          [ "BLk4VADjVfs2eGGENTQJWsyBMCtpSFHjGdJgmPzmr6g9YYmyMR1" ] },
      { "delegate": "tz3ZbP2pM3nwvXztbuMJwJnDvV5xdpU8UkkD",
        "reception_time": "2022-01-19T01:33:56.869-00:00",
        "included_in_blocks":
          [ "BLk4VADjVfs2eGGENTQJWsyBMCtpSFHjGdJgmPzmr6g9YYmyMR1" ] },
      { "delegate": "tz1VmiY38m3y95HqQLjMwqnMS7sdMfGomzKi",
        "reception_time": "2022-01-19T01:33:56.772-00:00",
        "included_in_blocks":
          [ "BLk4VADjVfs2eGGENTQJWsyBMCtpSFHjGdJgmPzmr6g9YYmyMR1" ] },
      { "delegate": "tz1Ldzz6k1BHdhuKvAtMRX7h5kJSMHESMHLC",
        "reception_time": "2022-01-19T01:33:56.874-00:00",
        "included_in_blocks":
          [ "BLk4VADjVfs2eGGENTQJWsyBMCtpSFHjGdJgmPzmr6g9YYmyMR1" ] },
      { "delegate": "tz1eEnQhbwf6trb8Q8mPb2RaPkNk2rN7BKi8",
        "reception_time": "2022-01-19T01:33:56.686-00:00",
        "included_in_blocks":
          [ "BLk4VADjVfs2eGGENTQJWsyBMCtpSFHjGdJgmPzmr6g9YYmyMR1" ] },
      { "delegate": "tz1irJKkXS2DBWkU1NnmFQx1c1L7pbGg4yhk",
        "reception_time": "2022-01-19T01:33:56.746-00:00",
        "included_in_blocks":
          [ "BLk4VADjVfs2eGGENTQJWsyBMCtpSFHjGdJgmPzmr6g9YYmyMR1" ] },
      { "delegate": "tz1Kf25fX1VdmYGSEzwFy1wNmkbSEZ2V83sY",
        "reception_time": "2022-01-19T01:33:56.740-00:00",
        "included_in_blocks":
          [ "BLk4VADjVfs2eGGENTQJWsyBMCtpSFHjGdJgmPzmr6g9YYmyMR1" ] },
      { "delegate": "tz1P2Po7YM526ughEsRbY4oR9zaUPDZjxFrb",
        "reception_time": "2022-01-19T01:33:56.690-00:00",
        "included_in_blocks":
          [ "BLk4VADjVfs2eGGENTQJWsyBMCtpSFHjGdJgmPzmr6g9YYmyMR1" ] },
      { "delegate": "tz1gUNyn3hmnEWqkusWPzxRaon1cs7ndWh7h",
        "reception_time": "2022-01-19T01:33:56.742-00:00",
        "included_in_blocks":
          [ "BLk4VADjVfs2eGGENTQJWsyBMCtpSFHjGdJgmPzmr6g9YYmyMR1" ] },
      { "delegate": "tz1bkESY3QKVUwboioG5vSbGiS9GRwHdB4xB",
        "reception_time": "2022-01-19T01:33:56.717-00:00",
        "included_in_blocks":
          [ "BLk4VADjVfs2eGGENTQJWsyBMCtpSFHjGdJgmPzmr6g9YYmyMR1" ] },
      { "delegate": "tz1WL4xAAYsQ2GM9MCQGePYcbwwu6kvfqMWN",
        "reception_time": "2022-01-19T01:33:56.727-00:00",
        "included_in_blocks":
          [ "BLk4VADjVfs2eGGENTQJWsyBMCtpSFHjGdJgmPzmr6g9YYmyMR1" ] },
      { "delegate": "tz1fPKAtsYydh4f1wfWNfeNxWYu72TmM48fu",
        "reception_time": "2022-01-19T01:33:56.721-00:00",
        "included_in_blocks":
          [ "BLk4VADjVfs2eGGENTQJWsyBMCtpSFHjGdJgmPzmr6g9YYmyMR1" ] },
      { "delegate": "tz1XfAjZyaLdceHnZxbMYop7g7kWKPut4PR7",
        "reception_time": "2022-01-19T01:33:56.710-00:00",
        "included_in_blocks":
          [ "BLk4VADjVfs2eGGENTQJWsyBMCtpSFHjGdJgmPzmr6g9YYmyMR1" ] },
      { "delegate": "tz1beersuEDv8Z7ngQ825xfbaJNS2EhXnyHR",
        "reception_time": "2022-01-19T01:33:56.677-00:00",
        "included_in_blocks":
          [ "BLk4VADjVfs2eGGENTQJWsyBMCtpSFHjGdJgmPzmr6g9YYmyMR1" ] },
      { "delegate": "tz1S8MNvuFEUsWgjHvi3AxibRBf388NhT1q2",
        "reception_time": "2022-01-19T01:33:56.677-00:00",
        "included_in_blocks":
          [ "BLk4VADjVfs2eGGENTQJWsyBMCtpSFHjGdJgmPzmr6g9YYmyMR1" ] },
      { "delegate": "tz1Kt4P8BCaP93AEV4eA7gmpRryWt5hznjCP",
        "reception_time": "2022-01-19T01:33:56.740-00:00",
        "included_in_blocks":
          [ "BLk4VADjVfs2eGGENTQJWsyBMCtpSFHjGdJgmPzmr6g9YYmyMR1" ] } ] }