{ "blocks":
    [ { "hash": "BMWoGis1F4Nhi5KMk1nW5sdCq3vdU7WCbVvtQbESovSn92dp4T6",
        "delegate": "tz3RDC3Jdn4j15J7bBHZd29EUee9gVB1CxD9",
        "reception_time": "2022-01-18T21:32:40.271-00:00",
        "timestamp": "2022-01-18T21:32:30Z" } ],
  "endorsements":
    [ { "delegate": "tz1SYq214SCBy9naR6cvycQsYcUGpBqQAE8d" },
      { "delegate": "tz1KmdpuJTaKV2J56hpDM6gP3VajfHmsv1pL" },
      { "delegate": "tz1ZLKMBbvgMFbSUnsddKFtUFav29fEB4mkx",
        "reception_time": "2022-01-18T21:32:54.020-00:00",
        "included_in_blocks":
          [ "BMF9SDskQuRkqSRRJLRxguNrQgBuhWoeSC6SZHv749L9GYNis59" ] },
      { "delegate": "tz1NpWrAyDL9k2Lmnyxcgr9xuJakbBxdq7FB",
        "reception_time": "2022-01-18T21:32:52.483-00:00",
        "included_in_blocks":
          [ "BMF9SDskQuRkqSRRJLRxguNrQgBuhWoeSC6SZHv749L9GYNis59" ] },
      { "delegate": "tz1go7f6mEQfT2xX2LuHAqgnRGN6c2zHPf5c",
        "reception_time": "2022-01-18T21:32:48.508-00:00",
        "included_in_blocks":
          [ "BMF9SDskQuRkqSRRJLRxguNrQgBuhWoeSC6SZHv749L9GYNis59" ] },
      { "delegate": "tz1ULYFhUY7Syao5NWr9jZ1pp3aw81QPiqjs",
        "reception_time": "2022-01-18T21:32:46.249-00:00",
        "included_in_blocks":
          [ "BMF9SDskQuRkqSRRJLRxguNrQgBuhWoeSC6SZHv749L9GYNis59" ] },
      { "delegate": "tz1aRoaRhSpRYvFdyvgWLL6TGyRoGF51wDjM",
        "reception_time": "2022-01-18T21:32:45.300-00:00",
        "included_in_blocks":
          [ "BMF9SDskQuRkqSRRJLRxguNrQgBuhWoeSC6SZHv749L9GYNis59" ] },
      { "delegate": "tz1dRKU4FQ9QRRQPdaH4zCR6gmCmXfcvcgtB",
        "reception_time": "2022-01-18T21:32:44.676-00:00",
        "included_in_blocks":
          [ "BMF9SDskQuRkqSRRJLRxguNrQgBuhWoeSC6SZHv749L9GYNis59" ] },
      { "delegate": "tz1awXW7wuXy21c66vBudMXQVAPgRnqqwgTH",
        "reception_time": "2022-01-18T21:32:44.921-00:00",
        "included_in_blocks":
          [ "BMF9SDskQuRkqSRRJLRxguNrQgBuhWoeSC6SZHv749L9GYNis59" ] },
      { "delegate": "tz1ZcTRk5uxD86EFEn1vvNffWWqJy7q5eVhc",
        "reception_time": "2022-01-18T21:32:44.498-00:00",
        "included_in_blocks":
          [ "BMF9SDskQuRkqSRRJLRxguNrQgBuhWoeSC6SZHv749L9GYNis59" ] },
      { "delegate": "tz1cYufsxHXJcvANhvS55h3aY32a9BAFB494",
        "reception_time": "2022-01-18T21:32:43.945-00:00",
        "included_in_blocks":
          [ "BMF9SDskQuRkqSRRJLRxguNrQgBuhWoeSC6SZHv749L9GYNis59" ] },
      { "delegate": "tz1NoYvKjXTzTk54VpLxBfouJ33J8jwKPPvw",
        "reception_time": "2022-01-18T21:32:43.808-00:00",
        "included_in_blocks":
          [ "BMF9SDskQuRkqSRRJLRxguNrQgBuhWoeSC6SZHv749L9GYNis59" ] },
      { "delegate": "tz3NExpXn9aPNZPorRE4SdjJ2RGrfbJgMAaV",
        "reception_time": "2022-01-18T21:32:44.242-00:00",
        "included_in_blocks":
          [ "BMF9SDskQuRkqSRRJLRxguNrQgBuhWoeSC6SZHv749L9GYNis59" ] },
      { "delegate": "tz1TRqbYbUf2GyrjErf3hBzgBJPzW8y36qEs",
        "reception_time": "2022-01-18T21:32:43.748-00:00",
        "included_in_blocks":
          [ "BMF9SDskQuRkqSRRJLRxguNrQgBuhWoeSC6SZHv749L9GYNis59" ] },
      { "delegate": "tz2FCNBrERXtaTtNX6iimR1UJ5JSDxvdHM93",
        "reception_time": "2022-01-18T21:32:43.171-00:00",
        "included_in_blocks":
          [ "BMF9SDskQuRkqSRRJLRxguNrQgBuhWoeSC6SZHv749L9GYNis59" ] },
      { "delegate": "tz3RB4aoyjov4KEVRbuhvQ1CKJgBJMWhaeB8",
        "reception_time": "2022-01-18T21:32:43.273-00:00",
        "included_in_blocks":
          [ "BMF9SDskQuRkqSRRJLRxguNrQgBuhWoeSC6SZHv749L9GYNis59" ] },
      { "delegate": "tz1T7duV5gZWSTq4YpBGbXNLTfznCLDrFxvs",
        "reception_time": "2022-01-18T21:32:43.103-00:00",
        "included_in_blocks":
          [ "BMF9SDskQuRkqSRRJLRxguNrQgBuhWoeSC6SZHv749L9GYNis59" ] },
      { "delegate": "tz1bxVgPCiveFHSand7zn22S8ZBtvNQbqgqU",
        "reception_time": "2022-01-18T21:32:42.860-00:00",
        "included_in_blocks":
          [ "BMF9SDskQuRkqSRRJLRxguNrQgBuhWoeSC6SZHv749L9GYNis59" ] },
      { "delegate": "tz1cig1EHyvZd7J2k389moM9PxVgPQvmFkvi",
        "reception_time": "2022-01-18T21:32:43.279-00:00",
        "included_in_blocks":
          [ "BMF9SDskQuRkqSRRJLRxguNrQgBuhWoeSC6SZHv749L9GYNis59" ] },
      { "delegate": "tz1RCFbB9GpALpsZtu6J58sb74dm8qe6XBzv",
        "reception_time": "2022-01-18T21:32:42.898-00:00",
        "included_in_blocks":
          [ "BMF9SDskQuRkqSRRJLRxguNrQgBuhWoeSC6SZHv749L9GYNis59" ] },
      { "delegate": "tz1WnfXMPaNTBmH7DBPwqCWs9cPDJdkGBTZ8",
        "reception_time": "2022-01-18T21:32:42.878-00:00",
        "included_in_blocks":
          [ "BMF9SDskQuRkqSRRJLRxguNrQgBuhWoeSC6SZHv749L9GYNis59" ] },
      { "delegate": "tz1fwnfJNgiDACshK9avfRfFbMaXrs3ghoJa",
        "reception_time": "2022-01-18T21:32:42.979-00:00",
        "included_in_blocks":
          [ "BMF9SDskQuRkqSRRJLRxguNrQgBuhWoeSC6SZHv749L9GYNis59" ] },
      { "delegate": "tz3VEZ4k6a4Wx42iyev6i2aVAptTRLEAivNN",
        "reception_time": "2022-01-18T21:32:43.260-00:00",
        "included_in_blocks":
          [ "BMF9SDskQuRkqSRRJLRxguNrQgBuhWoeSC6SZHv749L9GYNis59" ] },
      { "delegate": "tz1PeZx7FXy7QRuMREGXGxeipb24RsMMzUNe",
        "reception_time": "2022-01-18T21:32:42.858-00:00",
        "included_in_blocks":
          [ "BMF9SDskQuRkqSRRJLRxguNrQgBuhWoeSC6SZHv749L9GYNis59" ] },
      { "delegate": "tz3RDC3Jdn4j15J7bBHZd29EUee9gVB1CxD9",
        "reception_time": "2022-01-18T21:32:42.492-00:00",
        "included_in_blocks":
          [ "BMF9SDskQuRkqSRRJLRxguNrQgBuhWoeSC6SZHv749L9GYNis59" ] },
      { "delegate": "tz1LUNAvfLp4xHUBTc1U8va7fVMNYudPq3d2",
        "reception_time": "2022-01-18T21:32:42.537-00:00",
        "included_in_blocks":
          [ "BMF9SDskQuRkqSRRJLRxguNrQgBuhWoeSC6SZHv749L9GYNis59" ] },
      { "delegate": "tz1KfEsrtDaA1sX7vdM4qmEPWuSytuqCDp5j",
        "reception_time": "2022-01-18T21:32:43.096-00:00",
        "included_in_blocks":
          [ "BMF9SDskQuRkqSRRJLRxguNrQgBuhWoeSC6SZHv749L9GYNis59" ] },
      { "delegate": "tz1Tnjaxk6tbAeC2TmMApPh8UsrEVQvhHvx5",
        "reception_time": "2022-01-18T21:32:42.790-00:00",
        "included_in_blocks":
          [ "BMF9SDskQuRkqSRRJLRxguNrQgBuhWoeSC6SZHv749L9GYNis59" ] },
      { "delegate": "tz1UbFpJY5Hext38GisuaXQBkbzhaKJkxpEs",
        "reception_time": "2022-01-18T21:32:42.478-00:00",
        "included_in_blocks":
          [ "BMF9SDskQuRkqSRRJLRxguNrQgBuhWoeSC6SZHv749L9GYNis59" ] },
      { "delegate": "tz1fUyqYH7H4pRHN1roWY17giXhy1RvxjgUV",
        "reception_time": "2022-01-18T21:32:42.592-00:00",
        "included_in_blocks":
          [ "BMF9SDskQuRkqSRRJLRxguNrQgBuhWoeSC6SZHv749L9GYNis59" ] },
      { "delegate": "tz3WMqdzXqRWXwyvj5Hp2H7QEepaUuS7vd9K",
        "reception_time": "2022-01-18T21:32:43.229-00:00",
        "included_in_blocks":
          [ "BMF9SDskQuRkqSRRJLRxguNrQgBuhWoeSC6SZHv749L9GYNis59" ] },
      { "delegate": "tz3bTdwZinP8U1JmSweNzVKhmwafqWmFWRfk",
        "reception_time": "2022-01-18T21:32:42.140-00:00",
        "included_in_blocks":
          [ "BMF9SDskQuRkqSRRJLRxguNrQgBuhWoeSC6SZHv749L9GYNis59" ] },
      { "delegate": "tz1TRspM5SeZpaQUhzByXbEvqKF1vnCM2YTK",
        "reception_time": "2022-01-18T21:32:42.067-00:00",
        "included_in_blocks":
          [ "BMF9SDskQuRkqSRRJLRxguNrQgBuhWoeSC6SZHv749L9GYNis59" ] },
      { "delegate": "tz1Ldzz6k1BHdhuKvAtMRX7h5kJSMHESMHLC",
        "reception_time": "2022-01-18T21:32:42.067-00:00",
        "included_in_blocks":
          [ "BMF9SDskQuRkqSRRJLRxguNrQgBuhWoeSC6SZHv749L9GYNis59" ] },
      { "delegate": "tz1P2Po7YM526ughEsRbY4oR9zaUPDZjxFrb",
        "reception_time": "2022-01-18T21:32:41.317-00:00",
        "included_in_blocks":
          [ "BMF9SDskQuRkqSRRJLRxguNrQgBuhWoeSC6SZHv749L9GYNis59" ] },
      { "delegate": "tz1Nf6tsK4G6bBqgSQERy4nUtkHNKUVdh7q1",
        "reception_time": "2022-01-18T21:32:42.181-00:00",
        "included_in_blocks":
          [ "BMF9SDskQuRkqSRRJLRxguNrQgBuhWoeSC6SZHv749L9GYNis59" ] },
      { "delegate": "tz3ZbP2pM3nwvXztbuMJwJnDvV5xdpU8UkkD",
        "reception_time": "2022-01-18T21:32:42.067-00:00",
        "included_in_blocks":
          [ "BMF9SDskQuRkqSRRJLRxguNrQgBuhWoeSC6SZHv749L9GYNis59" ] },
      { "delegate": "tz3bvNMQ95vfAYtG8193ymshqjSvmxiCUuR5",
        "reception_time": "2022-01-18T21:32:42.154-00:00",
        "included_in_blocks":
          [ "BMF9SDskQuRkqSRRJLRxguNrQgBuhWoeSC6SZHv749L9GYNis59" ] },
      { "delegate": "tz1irJKkXS2DBWkU1NnmFQx1c1L7pbGg4yhk",
        "reception_time": "2022-01-18T21:32:42.067-00:00",
        "included_in_blocks":
          [ "BMF9SDskQuRkqSRRJLRxguNrQgBuhWoeSC6SZHv749L9GYNis59" ] },
      { "delegate": "tz1LLNkQK4UQV6QcFShiXJ2vT2ELw449MzAA",
        "reception_time": "2022-01-18T21:32:42.067-00:00",
        "included_in_blocks":
          [ "BMF9SDskQuRkqSRRJLRxguNrQgBuhWoeSC6SZHv749L9GYNis59" ] },
      { "delegate": "tz3iJu5vrKZcsqRPs8yJ61UDoeEXZmtro4qh",
        "reception_time": "2022-01-18T21:32:42.089-00:00",
        "included_in_blocks":
          [ "BMF9SDskQuRkqSRRJLRxguNrQgBuhWoeSC6SZHv749L9GYNis59" ] },
      { "delegate": "tz3gtoUxdudfBRcNY7iVdKPHCYYX6xdPpoRS",
        "reception_time": "2022-01-18T21:32:42.067-00:00",
        "included_in_blocks":
          [ "BMF9SDskQuRkqSRRJLRxguNrQgBuhWoeSC6SZHv749L9GYNis59" ] },
      { "delegate": "tz1MQMiZHV8q4tTwUMWmS5Y3kaP6J2136iXr",
        "reception_time": "2022-01-18T21:32:42.067-00:00",
        "included_in_blocks":
          [ "BMF9SDskQuRkqSRRJLRxguNrQgBuhWoeSC6SZHv749L9GYNis59" ] },
      { "delegate": "tz3RKYFsLuQzKBtmYuLNas7uMu3AsYd4QdsA",
        "reception_time": "2022-01-18T21:32:42.110-00:00",
        "included_in_blocks":
          [ "BMF9SDskQuRkqSRRJLRxguNrQgBuhWoeSC6SZHv749L9GYNis59" ] },
      { "delegate": "tz1STeamwbp68THcny9zk3LsbG3H36DMvbRK",
        "reception_time": "2022-01-18T21:32:42.067-00:00",
        "included_in_blocks":
          [ "BMF9SDskQuRkqSRRJLRxguNrQgBuhWoeSC6SZHv749L9GYNis59" ] },
      { "delegate": "tz1cSj7fTex3JPd1p1LN1fwek6AV1kH93Wwc",
        "reception_time": "2022-01-18T21:32:42.067-00:00",
        "included_in_blocks":
          [ "BMF9SDskQuRkqSRRJLRxguNrQgBuhWoeSC6SZHv749L9GYNis59" ] },
      { "delegate": "tz3NxTnke1acr8o3h5y9ytf5awQBGNJUKzVU",
        "reception_time": "2022-01-18T21:32:42.067-00:00",
        "included_in_blocks":
          [ "BMF9SDskQuRkqSRRJLRxguNrQgBuhWoeSC6SZHv749L9GYNis59" ] },
      { "delegate": "tz3S6BBeKgJGXxvLyZ1xzXzMPn11nnFtq5L9",
        "reception_time": "2022-01-18T21:32:42.067-00:00",
        "included_in_blocks":
          [ "BMF9SDskQuRkqSRRJLRxguNrQgBuhWoeSC6SZHv749L9GYNis59" ] },
      { "delegate": "tz3QCNyySViKHmeSr45kzDxzchys7NiXCWoa",
        "reception_time": "2022-01-18T21:32:42.067-00:00",
        "included_in_blocks":
          [ "BMF9SDskQuRkqSRRJLRxguNrQgBuhWoeSC6SZHv749L9GYNis59" ] },
      { "delegate": "tz1PWCDnz783NNGGQjEFFsHtrcK5yBW4E2rm",
        "reception_time": "2022-01-18T21:32:42.067-00:00",
        "included_in_blocks":
          [ "BMF9SDskQuRkqSRRJLRxguNrQgBuhWoeSC6SZHv749L9GYNis59" ] },
      { "delegate": "tz3QSGPoRp3Kn7n3vY24eYeu3Peuqo45LQ4D",
        "reception_time": "2022-01-18T21:32:42.067-00:00",
        "included_in_blocks":
          [ "BMF9SDskQuRkqSRRJLRxguNrQgBuhWoeSC6SZHv749L9GYNis59" ] },
      { "delegate": "tz3hw2kqXhLUvY65ca1eety2oQTpAvd34R9Q",
        "reception_time": "2022-01-18T21:32:42.067-00:00",
        "included_in_blocks":
          [ "BMF9SDskQuRkqSRRJLRxguNrQgBuhWoeSC6SZHv749L9GYNis59" ] },
      { "delegate": "tz1gUNyn3hmnEWqkusWPzxRaon1cs7ndWh7h",
        "reception_time": "2022-01-18T21:32:42.067-00:00",
        "included_in_blocks":
          [ "BMF9SDskQuRkqSRRJLRxguNrQgBuhWoeSC6SZHv749L9GYNis59" ] },
      { "delegate": "tz3QT9dHYKDqh563chVa6za8526ys1UKfRfL",
        "reception_time": "2022-01-18T21:32:42.067-00:00",
        "included_in_blocks":
          [ "BMF9SDskQuRkqSRRJLRxguNrQgBuhWoeSC6SZHv749L9GYNis59" ] },
      { "delegate": "tz1QLXqnfN51dkjeghXvKHkJfhvGiM5gK4tc",
        "reception_time": "2022-01-18T21:32:42.067-00:00",
        "included_in_blocks":
          [ "BMF9SDskQuRkqSRRJLRxguNrQgBuhWoeSC6SZHv749L9GYNis59" ] },
      { "delegate": "tz1eEnQhbwf6trb8Q8mPb2RaPkNk2rN7BKi8",
        "reception_time": "2022-01-18T21:32:42.067-00:00",
        "included_in_blocks":
          [ "BMF9SDskQuRkqSRRJLRxguNrQgBuhWoeSC6SZHv749L9GYNis59" ] },
      { "delegate": "tz1VmiY38m3y95HqQLjMwqnMS7sdMfGomzKi",
        "reception_time": "2022-01-18T21:32:42.096-00:00",
        "included_in_blocks":
          [ "BMF9SDskQuRkqSRRJLRxguNrQgBuhWoeSC6SZHv749L9GYNis59" ] },
      { "delegate": "tz1ei4WtWEMEJekSv8qDnu9PExG6Q8HgRGr3",
        "reception_time": "2022-01-18T21:32:42.133-00:00",
        "included_in_blocks":
          [ "BMF9SDskQuRkqSRRJLRxguNrQgBuhWoeSC6SZHv749L9GYNis59" ] },
      { "delegate": "tz1TzaNn7wSQSP5gYPXCnNzBCpyMiidCq1PX",
        "reception_time": "2022-01-18T21:32:42.067-00:00",
        "included_in_blocks":
          [ "BMF9SDskQuRkqSRRJLRxguNrQgBuhWoeSC6SZHv749L9GYNis59" ] },
      { "delegate": "tz1d6Fx42mYgVFnHUW8T8A7WBfJ6nD9pVok8",
        "reception_time": "2022-01-18T21:32:42.067-00:00",
        "included_in_blocks":
          [ "BMF9SDskQuRkqSRRJLRxguNrQgBuhWoeSC6SZHv749L9GYNis59" ] },
      { "delegate": "tz1S8MNvuFEUsWgjHvi3AxibRBf388NhT1q2",
        "reception_time": "2022-01-18T21:32:42.456-00:00",
        "included_in_blocks":
          [ "BMF9SDskQuRkqSRRJLRxguNrQgBuhWoeSC6SZHv749L9GYNis59" ] },
      { "delegate": "tz1VQnqCCqX4K5sP3FNkVSNKTdCAMJDd3E1n",
        "reception_time": "2022-01-18T21:32:42.067-00:00",
        "included_in_blocks":
          [ "BMF9SDskQuRkqSRRJLRxguNrQgBuhWoeSC6SZHv749L9GYNis59" ] },
      { "delegate": "tz1gfArv665EUkSg2ojMBzcbfwuPxAvqPvjo",
        "reception_time": "2022-01-18T21:32:42.475-00:00",
        "included_in_blocks":
          [ "BMF9SDskQuRkqSRRJLRxguNrQgBuhWoeSC6SZHv749L9GYNis59" ] },
      { "delegate": "tz3Zhs2dygr55yHyQyKjntAtY9bgfhLZ4Xj1",
        "reception_time": "2022-01-18T21:32:42.129-00:00",
        "included_in_blocks":
          [ "BMF9SDskQuRkqSRRJLRxguNrQgBuhWoeSC6SZHv749L9GYNis59" ] },
      { "delegate": "tz1Zhv3RkfU2pHrmaiDyxp7kFZpZrUCu1CiF",
        "reception_time": "2022-01-18T21:32:42.067-00:00",
        "included_in_blocks":
          [ "BMF9SDskQuRkqSRRJLRxguNrQgBuhWoeSC6SZHv749L9GYNis59" ] },
      { "delegate": "tz1fPKAtsYydh4f1wfWNfeNxWYu72TmM48fu",
        "reception_time": "2022-01-18T21:32:42.539-00:00",
        "included_in_blocks":
          [ "BMF9SDskQuRkqSRRJLRxguNrQgBuhWoeSC6SZHv749L9GYNis59" ] },
      { "delegate": "tz3UoffC7FG7zfpmvmjUmUeAaHvzdcUvAj6r",
        "reception_time": "2022-01-18T21:32:42.778-00:00",
        "included_in_blocks":
          [ "BMF9SDskQuRkqSRRJLRxguNrQgBuhWoeSC6SZHv749L9GYNis59" ] },
      { "delegate": "tz1UJvHTgpVzcKWhTazGxVcn5wsHru5Gietg",
        "reception_time": "2022-01-18T21:32:42.122-00:00",
        "included_in_blocks":
          [ "BMF9SDskQuRkqSRRJLRxguNrQgBuhWoeSC6SZHv749L9GYNis59" ] } ] }