{ "blocks":
    [ { "hash": "BMXBhrN3guG1YV5NtotWDMTSLisgdjDGs9qCDEopd4cveHW8Age",
        "delegate": "tz3VEZ4k6a4Wx42iyev6i2aVAptTRLEAivNN",
        "reception_time": "2022-01-18T22:28:19.085-00:00",
        "timestamp": "2022-01-18T22:28:10Z" } ],
  "endorsements":
    [ { "delegate": "tz1dbfppLAAxXZNtf2SDps7rch3qfUznKSoK" },
      { "delegate": "tz1MXFrtZoaXckE41bjUCSjAjAap3AFDSr3N",
        "reception_time": "2022-01-18T22:28:19.017-00:00",
        "errors":
          [ { "kind": "temporary",
              "id": "proto.011-PtHangz2.prefilter.outdated_endorsement" } ],
        "included_in_blocks":
          [ "BLxiVaCcfYF4XuRDg7Q5JL3d5jJwumc4yfRV2DW53EemNeAboBp" ] },
      { "delegate": "tz1NpWrAyDL9k2Lmnyxcgr9xuJakbBxdq7FB",
        "reception_time": "2022-01-18T22:28:34.892-00:00",
        "included_in_blocks":
          [ "BLxiVaCcfYF4XuRDg7Q5JL3d5jJwumc4yfRV2DW53EemNeAboBp" ] },
      { "delegate": "tz1fJHFn6sWEd3NnBPngACuw2dggTv6nQZ7g",
        "reception_time": "2022-01-18T22:28:28.405-00:00",
        "included_in_blocks":
          [ "BLxiVaCcfYF4XuRDg7Q5JL3d5jJwumc4yfRV2DW53EemNeAboBp" ] },
      { "delegate": "tz1eVaNx3gCmG1EsLjijkmgAxdLYVf6Bf5Sq",
        "reception_time": "2022-01-18T22:28:24.812-00:00",
        "included_in_blocks":
          [ "BLxiVaCcfYF4XuRDg7Q5JL3d5jJwumc4yfRV2DW53EemNeAboBp" ] },
      { "delegate": "tz1W5VkdB5s7ENMESVBtwyt9kyvLqPcUczRT",
        "reception_time": "2022-01-18T22:28:24.153-00:00",
        "included_in_blocks":
          [ "BLxiVaCcfYF4XuRDg7Q5JL3d5jJwumc4yfRV2DW53EemNeAboBp" ] },
      { "delegate": "tz1aRoaRhSpRYvFdyvgWLL6TGyRoGF51wDjM",
        "reception_time": "2022-01-18T22:28:23.314-00:00",
        "included_in_blocks":
          [ "BLxiVaCcfYF4XuRDg7Q5JL3d5jJwumc4yfRV2DW53EemNeAboBp" ] },
      { "delegate": "tz1ZcTRk5uxD86EFEn1vvNffWWqJy7q5eVhc",
        "reception_time": "2022-01-18T22:28:23.134-00:00",
        "included_in_blocks":
          [ "BLxiVaCcfYF4XuRDg7Q5JL3d5jJwumc4yfRV2DW53EemNeAboBp" ] },
      { "delegate": "tz1T7duV5gZWSTq4YpBGbXNLTfznCLDrFxvs",
        "reception_time": "2022-01-18T22:28:22.704-00:00",
        "included_in_blocks":
          [ "BLxiVaCcfYF4XuRDg7Q5JL3d5jJwumc4yfRV2DW53EemNeAboBp" ] },
      { "delegate": "tz1Z2jXfEXL7dXhs6bsLmyLFLfmAkXBzA9WE",
        "reception_time": "2022-01-18T22:28:22.562-00:00",
        "included_in_blocks":
          [ "BLxiVaCcfYF4XuRDg7Q5JL3d5jJwumc4yfRV2DW53EemNeAboBp" ] },
      { "delegate": "tz1UvkANVPWppVgMkLnvN7BwYZsCP7vm6NVd",
        "reception_time": "2022-01-18T22:28:22.392-00:00",
        "included_in_blocks":
          [ "BLxiVaCcfYF4XuRDg7Q5JL3d5jJwumc4yfRV2DW53EemNeAboBp" ] },
      { "delegate": "tz1TRqbYbUf2GyrjErf3hBzgBJPzW8y36qEs",
        "reception_time": "2022-01-18T22:28:22.505-00:00",
        "included_in_blocks":
          [ "BLxiVaCcfYF4XuRDg7Q5JL3d5jJwumc4yfRV2DW53EemNeAboBp" ] },
      { "delegate": "tz1abmz7jiCV2GH2u81LRrGgAFFgvQgiDiaf",
        "reception_time": "2022-01-18T22:28:22.185-00:00",
        "included_in_blocks":
          [ "BLxiVaCcfYF4XuRDg7Q5JL3d5jJwumc4yfRV2DW53EemNeAboBp" ] },
      { "delegate": "tz2FCNBrERXtaTtNX6iimR1UJ5JSDxvdHM93",
        "reception_time": "2022-01-18T22:28:22.235-00:00",
        "included_in_blocks":
          [ "BLxiVaCcfYF4XuRDg7Q5JL3d5jJwumc4yfRV2DW53EemNeAboBp" ] },
      { "delegate": "tz1hAYfexyzPGG6RhZZMpDvAHifubsbb6kgn",
        "reception_time": "2022-01-18T22:28:21.842-00:00",
        "included_in_blocks":
          [ "BLxiVaCcfYF4XuRDg7Q5JL3d5jJwumc4yfRV2DW53EemNeAboBp" ] },
      { "delegate": "tz3WMqdzXqRWXwyvj5Hp2H7QEepaUuS7vd9K",
        "reception_time": "2022-01-18T22:28:22.064-00:00",
        "included_in_blocks":
          [ "BLxiVaCcfYF4XuRDg7Q5JL3d5jJwumc4yfRV2DW53EemNeAboBp" ] },
      { "delegate": "tz1a3T5mRR1XWM1JgydvAqxEwpNs7ktVZuXc",
        "reception_time": "2022-01-18T22:28:21.940-00:00",
        "included_in_blocks":
          [ "BLxiVaCcfYF4XuRDg7Q5JL3d5jJwumc4yfRV2DW53EemNeAboBp" ] },
      { "delegate": "tz1RpeqCseogMpCPXpyGjhmLH9i9DhqJ8cUR",
        "reception_time": "2022-01-18T22:28:21.833-00:00",
        "included_in_blocks":
          [ "BLxiVaCcfYF4XuRDg7Q5JL3d5jJwumc4yfRV2DW53EemNeAboBp" ] },
      { "delegate": "tz3RDC3Jdn4j15J7bBHZd29EUee9gVB1CxD9",
        "reception_time": "2022-01-18T22:28:21.820-00:00",
        "included_in_blocks":
          [ "BLxiVaCcfYF4XuRDg7Q5JL3d5jJwumc4yfRV2DW53EemNeAboBp" ] },
      { "delegate": "tz3gLTu4Yxj8tPAcriQVUdxv6BY9QyvzU1az",
        "reception_time": "2022-01-18T22:28:21.879-00:00",
        "included_in_blocks":
          [ "BLxiVaCcfYF4XuRDg7Q5JL3d5jJwumc4yfRV2DW53EemNeAboBp" ] },
      { "delegate": "tz1RQhNh7iB9CZA7i3ifTWNwiGYVffponfbB",
        "reception_time": "2022-01-18T22:28:21.836-00:00",
        "included_in_blocks":
          [ "BLxiVaCcfYF4XuRDg7Q5JL3d5jJwumc4yfRV2DW53EemNeAboBp" ] },
      { "delegate": "tz1LmaFsWRkjr7QMCx5PtV6xTUz3AmEpKQiF",
        "reception_time": "2022-01-18T22:28:21.823-00:00",
        "included_in_blocks":
          [ "BLxiVaCcfYF4XuRDg7Q5JL3d5jJwumc4yfRV2DW53EemNeAboBp" ] },
      { "delegate": "tz3NDpRj6WBrJPikcPVHRBEjWKxFw3c6eQPS",
        "reception_time": "2022-01-18T22:28:21.830-00:00",
        "included_in_blocks":
          [ "BLxiVaCcfYF4XuRDg7Q5JL3d5jJwumc4yfRV2DW53EemNeAboBp" ] },
      { "delegate": "tz1c8TSSGtVtg7ANrNVY7G4KnLn7iKdRnUVk",
        "reception_time": "2022-01-18T22:28:21.952-00:00",
        "included_in_blocks":
          [ "BLxiVaCcfYF4XuRDg7Q5JL3d5jJwumc4yfRV2DW53EemNeAboBp" ] },
      { "delegate": "tz1RCFbB9GpALpsZtu6J58sb74dm8qe6XBzv",
        "reception_time": "2022-01-18T22:28:21.710-00:00",
        "included_in_blocks":
          [ "BLxiVaCcfYF4XuRDg7Q5JL3d5jJwumc4yfRV2DW53EemNeAboBp" ] },
      { "delegate": "tz3NExpXn9aPNZPorRE4SdjJ2RGrfbJgMAaV",
        "reception_time": "2022-01-18T22:28:21.781-00:00",
        "included_in_blocks":
          [ "BLxiVaCcfYF4XuRDg7Q5JL3d5jJwumc4yfRV2DW53EemNeAboBp" ] },
      { "delegate": "tz1TEc75UKXv4W5cwi14Na3NtqFD51yKQi7h",
        "reception_time": "2022-01-18T22:28:21.883-00:00",
        "included_in_blocks":
          [ "BLxiVaCcfYF4XuRDg7Q5JL3d5jJwumc4yfRV2DW53EemNeAboBp" ] },
      { "delegate": "tz1KfEsrtDaA1sX7vdM4qmEPWuSytuqCDp5j",
        "reception_time": "2022-01-18T22:28:21.686-00:00",
        "included_in_blocks":
          [ "BLxiVaCcfYF4XuRDg7Q5JL3d5jJwumc4yfRV2DW53EemNeAboBp" ] },
      { "delegate": "tz1WBfwbT66FC6BTLexc2BoyCCBM9LG7pnVW",
        "reception_time": "2022-01-18T22:28:21.714-00:00",
        "included_in_blocks":
          [ "BLxiVaCcfYF4XuRDg7Q5JL3d5jJwumc4yfRV2DW53EemNeAboBp" ] },
      { "delegate": "tz1V4qCyvPKZ5UeqdH14HN42rxvNPQfc9UZg",
        "reception_time": "2022-01-18T22:28:21.703-00:00",
        "included_in_blocks":
          [ "BLxiVaCcfYF4XuRDg7Q5JL3d5jJwumc4yfRV2DW53EemNeAboBp" ] },
      { "delegate": "tz1MJx9vhaNRSimcuXPK2rW4fLccQnDAnVKJ",
        "reception_time": "2022-01-18T22:28:21.703-00:00",
        "included_in_blocks":
          [ "BLxiVaCcfYF4XuRDg7Q5JL3d5jJwumc4yfRV2DW53EemNeAboBp" ] },
      { "delegate": "tz1RjoHc98dBoqaH2jawF62XNKh7YsHwbkEv",
        "reception_time": "2022-01-18T22:28:21.707-00:00",
        "included_in_blocks":
          [ "BLxiVaCcfYF4XuRDg7Q5JL3d5jJwumc4yfRV2DW53EemNeAboBp" ] },
      { "delegate": "tz1dNVDWPf3Q59SdJqnjdnu277iyvReiRS9M",
        "reception_time": "2022-01-18T22:28:21.658-00:00",
        "included_in_blocks":
          [ "BLxiVaCcfYF4XuRDg7Q5JL3d5jJwumc4yfRV2DW53EemNeAboBp" ] },
      { "delegate": "tz3RB4aoyjov4KEVRbuhvQ1CKJgBJMWhaeB8",
        "reception_time": "2022-01-18T22:28:21.653-00:00",
        "included_in_blocks":
          [ "BLxiVaCcfYF4XuRDg7Q5JL3d5jJwumc4yfRV2DW53EemNeAboBp" ] },
      { "delegate": "tz1ei4WtWEMEJekSv8qDnu9PExG6Q8HgRGr3",
        "reception_time": "2022-01-18T22:28:21.756-00:00",
        "included_in_blocks":
          [ "BLxiVaCcfYF4XuRDg7Q5JL3d5jJwumc4yfRV2DW53EemNeAboBp" ] },
      { "delegate": "tz1Tnjaxk6tbAeC2TmMApPh8UsrEVQvhHvx5",
        "reception_time": "2022-01-18T22:28:21.766-00:00",
        "included_in_blocks":
          [ "BLxiVaCcfYF4XuRDg7Q5JL3d5jJwumc4yfRV2DW53EemNeAboBp" ] },
      { "delegate": "tz3bvNMQ95vfAYtG8193ymshqjSvmxiCUuR5",
        "reception_time": "2022-01-18T22:28:21.644-00:00",
        "included_in_blocks":
          [ "BLxiVaCcfYF4XuRDg7Q5JL3d5jJwumc4yfRV2DW53EemNeAboBp" ] },
      { "delegate": "tz1Ldzz6k1BHdhuKvAtMRX7h5kJSMHESMHLC",
        "reception_time": "2022-01-18T22:28:21.644-00:00",
        "included_in_blocks":
          [ "BLxiVaCcfYF4XuRDg7Q5JL3d5jJwumc4yfRV2DW53EemNeAboBp" ] },
      { "delegate": "tz3e7LbZvUtoXhpUD1yb6wuFodZpfYRb9nWJ",
        "reception_time": "2022-01-18T22:28:21.625-00:00",
        "included_in_blocks":
          [ "BLxiVaCcfYF4XuRDg7Q5JL3d5jJwumc4yfRV2DW53EemNeAboBp" ] },
      { "delegate": "tz1Nf6tsK4G6bBqgSQERy4nUtkHNKUVdh7q1",
        "reception_time": "2022-01-18T22:28:21.950-00:00",
        "included_in_blocks":
          [ "BLxiVaCcfYF4XuRDg7Q5JL3d5jJwumc4yfRV2DW53EemNeAboBp" ] },
      { "delegate": "tz3QT9dHYKDqh563chVa6za8526ys1UKfRfL",
        "reception_time": "2022-01-18T22:28:21.635-00:00",
        "included_in_blocks":
          [ "BLxiVaCcfYF4XuRDg7Q5JL3d5jJwumc4yfRV2DW53EemNeAboBp" ] },
      { "delegate": "tz1gfArv665EUkSg2ojMBzcbfwuPxAvqPvjo",
        "reception_time": "2022-01-18T22:28:21.658-00:00",
        "included_in_blocks":
          [ "BLxiVaCcfYF4XuRDg7Q5JL3d5jJwumc4yfRV2DW53EemNeAboBp" ] },
      { "delegate": "tz1PWCDnz783NNGGQjEFFsHtrcK5yBW4E2rm",
        "reception_time": "2022-01-18T22:28:21.664-00:00",
        "included_in_blocks":
          [ "BLxiVaCcfYF4XuRDg7Q5JL3d5jJwumc4yfRV2DW53EemNeAboBp" ] },
      { "delegate": "tz3S6BBeKgJGXxvLyZ1xzXzMPn11nnFtq5L9",
        "reception_time": "2022-01-18T22:28:21.681-00:00",
        "included_in_blocks":
          [ "BLxiVaCcfYF4XuRDg7Q5JL3d5jJwumc4yfRV2DW53EemNeAboBp" ] },
      { "delegate": "tz1VQnqCCqX4K5sP3FNkVSNKTdCAMJDd3E1n",
        "reception_time": "2022-01-18T22:28:21.653-00:00",
        "included_in_blocks":
          [ "BLxiVaCcfYF4XuRDg7Q5JL3d5jJwumc4yfRV2DW53EemNeAboBp" ] },
      { "delegate": "tz1gUNyn3hmnEWqkusWPzxRaon1cs7ndWh7h",
        "reception_time": "2022-01-18T22:28:21.635-00:00",
        "included_in_blocks":
          [ "BLxiVaCcfYF4XuRDg7Q5JL3d5jJwumc4yfRV2DW53EemNeAboBp" ] },
      { "delegate": "tz3RKYFsLuQzKBtmYuLNas7uMu3AsYd4QdsA",
        "reception_time": "2022-01-18T22:28:21.444-00:00",
        "included_in_blocks":
          [ "BLxiVaCcfYF4XuRDg7Q5JL3d5jJwumc4yfRV2DW53EemNeAboBp" ] },
      { "delegate": "tz3bTdwZinP8U1JmSweNzVKhmwafqWmFWRfk",
        "reception_time": "2022-01-18T22:28:21.584-00:00",
        "included_in_blocks":
          [ "BLxiVaCcfYF4XuRDg7Q5JL3d5jJwumc4yfRV2DW53EemNeAboBp" ] },
      { "delegate": "tz3hw2kqXhLUvY65ca1eety2oQTpAvd34R9Q",
        "reception_time": "2022-01-18T22:28:21.426-00:00",
        "included_in_blocks":
          [ "BLxiVaCcfYF4XuRDg7Q5JL3d5jJwumc4yfRV2DW53EemNeAboBp" ] },
      { "delegate": "tz3Zhs2dygr55yHyQyKjntAtY9bgfhLZ4Xj1",
        "reception_time": "2022-01-18T22:28:21.673-00:00",
        "included_in_blocks":
          [ "BLxiVaCcfYF4XuRDg7Q5JL3d5jJwumc4yfRV2DW53EemNeAboBp" ] },
      { "delegate": "tz3iJu5vrKZcsqRPs8yJ61UDoeEXZmtro4qh",
        "reception_time": "2022-01-18T22:28:21.453-00:00",
        "included_in_blocks":
          [ "BLxiVaCcfYF4XuRDg7Q5JL3d5jJwumc4yfRV2DW53EemNeAboBp" ] },
      { "delegate": "tz3UoffC7FG7zfpmvmjUmUeAaHvzdcUvAj6r",
        "reception_time": "2022-01-18T22:28:21.606-00:00",
        "included_in_blocks":
          [ "BLxiVaCcfYF4XuRDg7Q5JL3d5jJwumc4yfRV2DW53EemNeAboBp" ] },
      { "delegate": "tz1VmiY38m3y95HqQLjMwqnMS7sdMfGomzKi",
        "reception_time": "2022-01-18T22:28:21.575-00:00",
        "included_in_blocks":
          [ "BLxiVaCcfYF4XuRDg7Q5JL3d5jJwumc4yfRV2DW53EemNeAboBp" ] },
      { "delegate": "tz1S8MNvuFEUsWgjHvi3AxibRBf388NhT1q2",
        "reception_time": "2022-01-18T22:28:21.664-00:00",
        "included_in_blocks":
          [ "BLxiVaCcfYF4XuRDg7Q5JL3d5jJwumc4yfRV2DW53EemNeAboBp" ] },
      { "delegate": "tz1TzaNn7wSQSP5gYPXCnNzBCpyMiidCq1PX",
        "reception_time": "2022-01-18T22:28:21.543-00:00",
        "included_in_blocks":
          [ "BLxiVaCcfYF4XuRDg7Q5JL3d5jJwumc4yfRV2DW53EemNeAboBp" ] },
      { "delegate": "tz1TRspM5SeZpaQUhzByXbEvqKF1vnCM2YTK",
        "reception_time": "2022-01-18T22:28:21.380-00:00",
        "included_in_blocks":
          [ "BLxiVaCcfYF4XuRDg7Q5JL3d5jJwumc4yfRV2DW53EemNeAboBp" ] },
      { "delegate": "tz3gtoUxdudfBRcNY7iVdKPHCYYX6xdPpoRS",
        "reception_time": "2022-01-18T22:28:21.436-00:00",
        "included_in_blocks":
          [ "BLxiVaCcfYF4XuRDg7Q5JL3d5jJwumc4yfRV2DW53EemNeAboBp" ] },
      { "delegate": "tz1irJKkXS2DBWkU1NnmFQx1c1L7pbGg4yhk",
        "reception_time": "2022-01-18T22:28:21.456-00:00",
        "included_in_blocks":
          [ "BLxiVaCcfYF4XuRDg7Q5JL3d5jJwumc4yfRV2DW53EemNeAboBp" ] },
      { "delegate": "tz1RV1MBbZMR68tacosb7Mwj6LkbPSUS1er1",
        "reception_time": "2022-01-18T22:28:21.396-00:00",
        "included_in_blocks":
          [ "BLxiVaCcfYF4XuRDg7Q5JL3d5jJwumc4yfRV2DW53EemNeAboBp" ] },
      { "delegate": "tz3QSGPoRp3Kn7n3vY24eYeu3Peuqo45LQ4D",
        "reception_time": "2022-01-18T22:28:21.410-00:00",
        "included_in_blocks":
          [ "BLxiVaCcfYF4XuRDg7Q5JL3d5jJwumc4yfRV2DW53EemNeAboBp" ] },
      { "delegate": "tz3ZbP2pM3nwvXztbuMJwJnDvV5xdpU8UkkD",
        "reception_time": "2022-01-18T22:28:21.396-00:00",
        "included_in_blocks":
          [ "BLxiVaCcfYF4XuRDg7Q5JL3d5jJwumc4yfRV2DW53EemNeAboBp" ] },
      { "delegate": "tz3NxTnke1acr8o3h5y9ytf5awQBGNJUKzVU",
        "reception_time": "2022-01-18T22:28:21.488-00:00",
        "included_in_blocks":
          [ "BLxiVaCcfYF4XuRDg7Q5JL3d5jJwumc4yfRV2DW53EemNeAboBp" ] },
      { "delegate": "tz1UtayNgAX8QEJ3NoLptPzoPr9JiH3Cskzz",
        "reception_time": "2022-01-18T22:28:21.429-00:00",
        "included_in_blocks":
          [ "BLxiVaCcfYF4XuRDg7Q5JL3d5jJwumc4yfRV2DW53EemNeAboBp" ] },
      { "delegate": "tz1beersuEDv8Z7ngQ825xfbaJNS2EhXnyHR",
        "reception_time": "2022-01-18T22:28:21.403-00:00",
        "included_in_blocks":
          [ "BLxiVaCcfYF4XuRDg7Q5JL3d5jJwumc4yfRV2DW53EemNeAboBp" ] },
      { "delegate": "tz1P2Po7YM526ughEsRbY4oR9zaUPDZjxFrb",
        "reception_time": "2022-01-18T22:28:21.413-00:00",
        "included_in_blocks":
          [ "BLxiVaCcfYF4XuRDg7Q5JL3d5jJwumc4yfRV2DW53EemNeAboBp" ] },
      { "delegate": "tz1eEnQhbwf6trb8Q8mPb2RaPkNk2rN7BKi8",
        "reception_time": "2022-01-18T22:28:21.399-00:00",
        "included_in_blocks":
          [ "BLxiVaCcfYF4XuRDg7Q5JL3d5jJwumc4yfRV2DW53EemNeAboBp" ] },
      { "delegate": "tz3VEZ4k6a4Wx42iyev6i2aVAptTRLEAivNN",
        "reception_time": "2022-01-18T22:28:20.942-00:00",
        "included_in_blocks":
          [ "BLxiVaCcfYF4XuRDg7Q5JL3d5jJwumc4yfRV2DW53EemNeAboBp" ] } ] }