{ "blocks":
    [ { "hash": "BMB38y6PAfUhrRnFS83fTTiSz2e56hqCcx2SvNLQ5ZtZCcnSft1",
        "delegate": "tz1Ldzz6k1BHdhuKvAtMRX7h5kJSMHESMHLC",
        "reception_time": "2022-01-19T05:10:25.673-00:00",
        "timestamp": "2022-01-19T05:10:20Z" } ],
  "endorsements":
    [ { "delegate": "tz1ibcPVGK4Y8pcW4BYUsojiHoBKnZbyDGrX" },
      { "delegate": "tz1Ldzz6k1BHdhuKvAtMRX7h5kJSMHESMHLC",
        "reception_time": "2022-01-19T05:10:25.674-00:00",
        "errors":
          [ { "kind": "temporary",
              "id": "proto.011-PtHangz2.prefilter.outdated_endorsement" } ],
        "included_in_blocks":
          [ "BLEZG7P9NoXZdrvJ6XFbPqjh4aEc5p8XovFLGRh2sxeTrRrnGo8" ] },
      { "delegate": "tz1XXayQohB8XRXN7kMoHbf2NFwNiH3oMRQQ",
        "reception_time": "2022-01-19T05:10:25.373-00:00",
        "errors":
          [ { "kind": "temporary",
              "id": "proto.011-PtHangz2.prefilter.outdated_endorsement" } ],
        "included_in_blocks":
          [ "BLEZG7P9NoXZdrvJ6XFbPqjh4aEc5p8XovFLGRh2sxeTrRrnGo8" ] },
      { "delegate": "tz1cYufsxHXJcvANhvS55h3aY32a9BAFB494",
        "reception_time": "2022-01-19T05:10:30.337-00:00",
        "included_in_blocks":
          [ "BLEZG7P9NoXZdrvJ6XFbPqjh4aEc5p8XovFLGRh2sxeTrRrnGo8" ] },
      { "delegate": "tz3NExpXn9aPNZPorRE4SdjJ2RGrfbJgMAaV",
        "reception_time": "2022-01-19T05:10:29.758-00:00",
        "included_in_blocks":
          [ "BLEZG7P9NoXZdrvJ6XFbPqjh4aEc5p8XovFLGRh2sxeTrRrnGo8" ] },
      { "delegate": "tz1aRoaRhSpRYvFdyvgWLL6TGyRoGF51wDjM",
        "reception_time": "2022-01-19T05:10:29.740-00:00",
        "included_in_blocks":
          [ "BLEZG7P9NoXZdrvJ6XFbPqjh4aEc5p8XovFLGRh2sxeTrRrnGo8" ] },
      { "delegate": "tz1dRKU4FQ9QRRQPdaH4zCR6gmCmXfcvcgtB",
        "reception_time": "2022-01-19T05:10:29.346-00:00",
        "included_in_blocks":
          [ "BLEZG7P9NoXZdrvJ6XFbPqjh4aEc5p8XovFLGRh2sxeTrRrnGo8" ] },
      { "delegate": "tz3RB4aoyjov4KEVRbuhvQ1CKJgBJMWhaeB8",
        "reception_time": "2022-01-19T05:10:29.217-00:00",
        "included_in_blocks":
          [ "BLEZG7P9NoXZdrvJ6XFbPqjh4aEc5p8XovFLGRh2sxeTrRrnGo8" ] },
      { "delegate": "tz1T7duV5gZWSTq4YpBGbXNLTfznCLDrFxvs",
        "reception_time": "2022-01-19T05:10:29.127-00:00",
        "included_in_blocks":
          [ "BLEZG7P9NoXZdrvJ6XFbPqjh4aEc5p8XovFLGRh2sxeTrRrnGo8" ] },
      { "delegate": "tz3gLTu4Yxj8tPAcriQVUdxv6BY9QyvzU1az",
        "reception_time": "2022-01-19T05:10:28.989-00:00",
        "included_in_blocks":
          [ "BLEZG7P9NoXZdrvJ6XFbPqjh4aEc5p8XovFLGRh2sxeTrRrnGo8" ] },
      { "delegate": "tz3NDpRj6WBrJPikcPVHRBEjWKxFw3c6eQPS",
        "reception_time": "2022-01-19T05:10:28.974-00:00",
        "included_in_blocks":
          [ "BLEZG7P9NoXZdrvJ6XFbPqjh4aEc5p8XovFLGRh2sxeTrRrnGo8" ] },
      { "delegate": "tz3VEZ4k6a4Wx42iyev6i2aVAptTRLEAivNN",
        "reception_time": "2022-01-19T05:10:28.778-00:00",
        "included_in_blocks":
          [ "BLEZG7P9NoXZdrvJ6XFbPqjh4aEc5p8XovFLGRh2sxeTrRrnGo8" ] },
      { "delegate": "tz1UvkANVPWppVgMkLnvN7BwYZsCP7vm6NVd",
        "reception_time": "2022-01-19T05:10:28.772-00:00",
        "included_in_blocks":
          [ "BLEZG7P9NoXZdrvJ6XFbPqjh4aEc5p8XovFLGRh2sxeTrRrnGo8" ] },
      { "delegate": "tz3WMqdzXqRWXwyvj5Hp2H7QEepaUuS7vd9K",
        "reception_time": "2022-01-19T05:10:28.765-00:00",
        "included_in_blocks":
          [ "BLEZG7P9NoXZdrvJ6XFbPqjh4aEc5p8XovFLGRh2sxeTrRrnGo8" ] },
      { "delegate": "tz3RDC3Jdn4j15J7bBHZd29EUee9gVB1CxD9",
        "reception_time": "2022-01-19T05:10:28.949-00:00",
        "included_in_blocks":
          [ "BLEZG7P9NoXZdrvJ6XFbPqjh4aEc5p8XovFLGRh2sxeTrRrnGo8" ] },
      { "delegate": "tz1eE4ERseiJfLTy3ydsdiitpCMbRRHEGhqM",
        "delegate_alias": "boutiger",
        "reception_time": "2022-01-19T05:10:28.490-00:00",
        "included_in_blocks":
          [ "BLEZG7P9NoXZdrvJ6XFbPqjh4aEc5p8XovFLGRh2sxeTrRrnGo8" ] },
      { "delegate": "tz1S8MNvuFEUsWgjHvi3AxibRBf388NhT1q2",
        "reception_time": "2022-01-19T05:10:28.701-00:00",
        "included_in_blocks":
          [ "BLEZG7P9NoXZdrvJ6XFbPqjh4aEc5p8XovFLGRh2sxeTrRrnGo8" ] },
      { "delegate": "tz3UoffC7FG7zfpmvmjUmUeAaHvzdcUvAj6r",
        "reception_time": "2022-01-19T05:10:28.594-00:00",
        "included_in_blocks":
          [ "BLEZG7P9NoXZdrvJ6XFbPqjh4aEc5p8XovFLGRh2sxeTrRrnGo8" ] },
      { "delegate": "tz1a3T5mRR1XWM1JgydvAqxEwpNs7ktVZuXc",
        "reception_time": "2022-01-19T05:10:28.538-00:00",
        "included_in_blocks":
          [ "BLEZG7P9NoXZdrvJ6XFbPqjh4aEc5p8XovFLGRh2sxeTrRrnGo8" ] },
      { "delegate": "tz1fwnfJNgiDACshK9avfRfFbMaXrs3ghoJa",
        "reception_time": "2022-01-19T05:10:28.498-00:00",
        "included_in_blocks":
          [ "BLEZG7P9NoXZdrvJ6XFbPqjh4aEc5p8XovFLGRh2sxeTrRrnGo8" ] },
      { "delegate": "tz1X4Qb9NJ7JEuitX3jFpZptuAh7DUnCaLs1",
        "reception_time": "2022-01-19T05:10:28.494-00:00",
        "included_in_blocks":
          [ "BLEZG7P9NoXZdrvJ6XFbPqjh4aEc5p8XovFLGRh2sxeTrRrnGo8" ] },
      { "delegate": "tz1NEKxGEHsFufk87CVZcrqWu8o22qh46GK6",
        "reception_time": "2022-01-19T05:10:28.386-00:00",
        "included_in_blocks":
          [ "BLEZG7P9NoXZdrvJ6XFbPqjh4aEc5p8XovFLGRh2sxeTrRrnGo8" ] },
      { "delegate": "tz1WctSwL49BZtdWAQ75NY6vr4xsAx6oKdah",
        "reception_time": "2022-01-19T05:10:28.389-00:00",
        "included_in_blocks":
          [ "BLEZG7P9NoXZdrvJ6XFbPqjh4aEc5p8XovFLGRh2sxeTrRrnGo8" ] },
      { "delegate": "tz1axcnVN9tZnCe4sQQhC6f3tfSEXdjPaXPY",
        "reception_time": "2022-01-19T05:10:28.238-00:00",
        "included_in_blocks":
          [ "BLEZG7P9NoXZdrvJ6XFbPqjh4aEc5p8XovFLGRh2sxeTrRrnGo8" ] },
      { "delegate": "tz1UMCB2AHSTwG7YcGNr31CqYCtGN873royv",
        "reception_time": "2022-01-19T05:10:28.350-00:00",
        "included_in_blocks":
          [ "BLEZG7P9NoXZdrvJ6XFbPqjh4aEc5p8XovFLGRh2sxeTrRrnGo8" ] },
      { "delegate": "tz1PeZx7FXy7QRuMREGXGxeipb24RsMMzUNe",
        "reception_time": "2022-01-19T05:10:28.350-00:00",
        "included_in_blocks":
          [ "BLEZG7P9NoXZdrvJ6XFbPqjh4aEc5p8XovFLGRh2sxeTrRrnGo8" ] },
      { "delegate": "tz1hAYfexyzPGG6RhZZMpDvAHifubsbb6kgn",
        "reception_time": "2022-01-19T05:10:27.991-00:00",
        "included_in_blocks":
          [ "BLEZG7P9NoXZdrvJ6XFbPqjh4aEc5p8XovFLGRh2sxeTrRrnGo8" ] },
      { "delegate": "tz1TRqbYbUf2GyrjErf3hBzgBJPzW8y36qEs",
        "reception_time": "2022-01-19T05:10:28.062-00:00",
        "included_in_blocks":
          [ "BLEZG7P9NoXZdrvJ6XFbPqjh4aEc5p8XovFLGRh2sxeTrRrnGo8" ] },
      { "delegate": "tz1LmaFsWRkjr7QMCx5PtV6xTUz3AmEpKQiF",
        "reception_time": "2022-01-19T05:10:28.081-00:00",
        "included_in_blocks":
          [ "BLEZG7P9NoXZdrvJ6XFbPqjh4aEc5p8XovFLGRh2sxeTrRrnGo8" ] },
      { "delegate": "tz1WBfwbT66FC6BTLexc2BoyCCBM9LG7pnVW",
        "reception_time": "2022-01-19T05:10:28.088-00:00",
        "included_in_blocks":
          [ "BLEZG7P9NoXZdrvJ6XFbPqjh4aEc5p8XovFLGRh2sxeTrRrnGo8" ] },
      { "delegate": "tz1MQMiZHV8q4tTwUMWmS5Y3kaP6J2136iXr",
        "reception_time": "2022-01-19T05:10:27.894-00:00",
        "included_in_blocks":
          [ "BLEZG7P9NoXZdrvJ6XFbPqjh4aEc5p8XovFLGRh2sxeTrRrnGo8" ] },
      { "delegate": "tz1LXpCpLNRhP7G9Yw8dRhWd8ZfH8929uvGo",
        "reception_time": "2022-01-19T05:10:27.903-00:00",
        "included_in_blocks":
          [ "BLEZG7P9NoXZdrvJ6XFbPqjh4aEc5p8XovFLGRh2sxeTrRrnGo8" ] },
      { "delegate": "tz1SYq214SCBy9naR6cvycQsYcUGpBqQAE8d",
        "reception_time": "2022-01-19T05:10:27.948-00:00",
        "included_in_blocks":
          [ "BLEZG7P9NoXZdrvJ6XFbPqjh4aEc5p8XovFLGRh2sxeTrRrnGo8" ] },
      { "delegate": "tz1TEc75UKXv4W5cwi14Na3NtqFD51yKQi7h",
        "reception_time": "2022-01-19T05:10:27.893-00:00",
        "included_in_blocks":
          [ "BLEZG7P9NoXZdrvJ6XFbPqjh4aEc5p8XovFLGRh2sxeTrRrnGo8" ] },
      { "delegate": "tz1abmz7jiCV2GH2u81LRrGgAFFgvQgiDiaf",
        "reception_time": "2022-01-19T05:10:27.893-00:00",
        "included_in_blocks":
          [ "BLEZG7P9NoXZdrvJ6XFbPqjh4aEc5p8XovFLGRh2sxeTrRrnGo8" ] },
      { "delegate": "tz1V4qCyvPKZ5UeqdH14HN42rxvNPQfc9UZg",
        "reception_time": "2022-01-19T05:10:27.796-00:00",
        "included_in_blocks":
          [ "BLEZG7P9NoXZdrvJ6XFbPqjh4aEc5p8XovFLGRh2sxeTrRrnGo8" ] },
      { "delegate": "tz1dNVDWPf3Q59SdJqnjdnu277iyvReiRS9M",
        "reception_time": "2022-01-19T05:10:27.821-00:00",
        "included_in_blocks":
          [ "BLEZG7P9NoXZdrvJ6XFbPqjh4aEc5p8XovFLGRh2sxeTrRrnGo8" ] },
      { "delegate": "tz1gfArv665EUkSg2ojMBzcbfwuPxAvqPvjo",
        "reception_time": "2022-01-19T05:10:27.833-00:00",
        "included_in_blocks":
          [ "BLEZG7P9NoXZdrvJ6XFbPqjh4aEc5p8XovFLGRh2sxeTrRrnGo8" ] },
      { "delegate": "tz1ei4WtWEMEJekSv8qDnu9PExG6Q8HgRGr3",
        "reception_time": "2022-01-19T05:10:27.810-00:00",
        "included_in_blocks":
          [ "BLEZG7P9NoXZdrvJ6XFbPqjh4aEc5p8XovFLGRh2sxeTrRrnGo8" ] },
      { "delegate": "tz3bTdwZinP8U1JmSweNzVKhmwafqWmFWRfk",
        "reception_time": "2022-01-19T05:10:27.753-00:00",
        "included_in_blocks":
          [ "BLEZG7P9NoXZdrvJ6XFbPqjh4aEc5p8XovFLGRh2sxeTrRrnGo8" ] },
      { "delegate": "tz2FCNBrERXtaTtNX6iimR1UJ5JSDxvdHM93",
        "reception_time": "2022-01-19T05:10:27.766-00:00",
        "included_in_blocks":
          [ "BLEZG7P9NoXZdrvJ6XFbPqjh4aEc5p8XovFLGRh2sxeTrRrnGo8" ] },
      { "delegate": "tz1MGTFJXpQmtxLi8QJ7AuVRgM2L2Qfn9w9i",
        "reception_time": "2022-01-19T05:10:27.780-00:00",
        "included_in_blocks":
          [ "BLEZG7P9NoXZdrvJ6XFbPqjh4aEc5p8XovFLGRh2sxeTrRrnGo8" ] },
      { "delegate": "tz1RQhNh7iB9CZA7i3ifTWNwiGYVffponfbB",
        "reception_time": "2022-01-19T05:10:27.803-00:00",
        "included_in_blocks":
          [ "BLEZG7P9NoXZdrvJ6XFbPqjh4aEc5p8XovFLGRh2sxeTrRrnGo8" ] },
      { "delegate": "tz3bvNMQ95vfAYtG8193ymshqjSvmxiCUuR5",
        "reception_time": "2022-01-19T05:10:27.721-00:00",
        "included_in_blocks":
          [ "BLEZG7P9NoXZdrvJ6XFbPqjh4aEc5p8XovFLGRh2sxeTrRrnGo8" ] },
      { "delegate": "tz1Nf6tsK4G6bBqgSQERy4nUtkHNKUVdh7q1",
        "reception_time": "2022-01-19T05:10:27.695-00:00",
        "included_in_blocks":
          [ "BLEZG7P9NoXZdrvJ6XFbPqjh4aEc5p8XovFLGRh2sxeTrRrnGo8" ] },
      { "delegate": "tz1RCFbB9GpALpsZtu6J58sb74dm8qe6XBzv",
        "reception_time": "2022-01-19T05:10:27.745-00:00",
        "included_in_blocks":
          [ "BLEZG7P9NoXZdrvJ6XFbPqjh4aEc5p8XovFLGRh2sxeTrRrnGo8" ] },
      { "delegate": "tz1MQJPGNMijnXnVoBENFz9rUhaPt3S7rWoz",
        "reception_time": "2022-01-19T05:10:27.791-00:00",
        "included_in_blocks":
          [ "BLEZG7P9NoXZdrvJ6XFbPqjh4aEc5p8XovFLGRh2sxeTrRrnGo8" ] },
      { "delegate": "tz1dwu9aYb7CRNq4Y2zAjipdjFuSVKhHS8vA",
        "reception_time": "2022-01-19T05:10:27.688-00:00",
        "included_in_blocks":
          [ "BLEZG7P9NoXZdrvJ6XFbPqjh4aEc5p8XovFLGRh2sxeTrRrnGo8" ] },
      { "delegate": "tz1PWCDnz783NNGGQjEFFsHtrcK5yBW4E2rm",
        "reception_time": "2022-01-19T05:10:27.699-00:00",
        "included_in_blocks":
          [ "BLEZG7P9NoXZdrvJ6XFbPqjh4aEc5p8XovFLGRh2sxeTrRrnGo8" ] },
      { "delegate": "tz3S6BBeKgJGXxvLyZ1xzXzMPn11nnFtq5L9",
        "reception_time": "2022-01-19T05:10:27.681-00:00",
        "included_in_blocks":
          [ "BLEZG7P9NoXZdrvJ6XFbPqjh4aEc5p8XovFLGRh2sxeTrRrnGo8" ] },
      { "delegate": "tz1aXD7Jigrt3PBYSpHSg5Rr33SexMmmM5Ys",
        "reception_time": "2022-01-19T05:10:27.549-00:00",
        "included_in_blocks":
          [ "BLEZG7P9NoXZdrvJ6XFbPqjh4aEc5p8XovFLGRh2sxeTrRrnGo8" ] },
      { "delegate": "tz3QT9dHYKDqh563chVa6za8526ys1UKfRfL",
        "reception_time": "2022-01-19T05:10:27.657-00:00",
        "included_in_blocks":
          [ "BLEZG7P9NoXZdrvJ6XFbPqjh4aEc5p8XovFLGRh2sxeTrRrnGo8" ] },
      { "delegate": "tz3QSGPoRp3Kn7n3vY24eYeu3Peuqo45LQ4D",
        "reception_time": "2022-01-19T05:10:27.511-00:00",
        "included_in_blocks":
          [ "BLEZG7P9NoXZdrvJ6XFbPqjh4aEc5p8XovFLGRh2sxeTrRrnGo8" ] },
      { "delegate": "tz3gtoUxdudfBRcNY7iVdKPHCYYX6xdPpoRS",
        "reception_time": "2022-01-19T05:10:27.523-00:00",
        "included_in_blocks":
          [ "BLEZG7P9NoXZdrvJ6XFbPqjh4aEc5p8XovFLGRh2sxeTrRrnGo8" ] },
      { "delegate": "tz3Zhs2dygr55yHyQyKjntAtY9bgfhLZ4Xj1",
        "reception_time": "2022-01-19T05:10:27.663-00:00",
        "included_in_blocks":
          [ "BLEZG7P9NoXZdrvJ6XFbPqjh4aEc5p8XovFLGRh2sxeTrRrnGo8" ] },
      { "delegate": "tz3iJu5vrKZcsqRPs8yJ61UDoeEXZmtro4qh",
        "reception_time": "2022-01-19T05:10:27.672-00:00",
        "included_in_blocks":
          [ "BLEZG7P9NoXZdrvJ6XFbPqjh4aEc5p8XovFLGRh2sxeTrRrnGo8" ] },
      { "delegate": "tz1VmiY38m3y95HqQLjMwqnMS7sdMfGomzKi",
        "reception_time": "2022-01-19T05:10:27.561-00:00",
        "included_in_blocks":
          [ "BLEZG7P9NoXZdrvJ6XFbPqjh4aEc5p8XovFLGRh2sxeTrRrnGo8" ] },
      { "delegate": "tz1TzaNn7wSQSP5gYPXCnNzBCpyMiidCq1PX",
        "reception_time": "2022-01-19T05:10:27.492-00:00",
        "included_in_blocks":
          [ "BLEZG7P9NoXZdrvJ6XFbPqjh4aEc5p8XovFLGRh2sxeTrRrnGo8" ] },
      { "delegate": "tz3RKYFsLuQzKBtmYuLNas7uMu3AsYd4QdsA",
        "reception_time": "2022-01-19T05:10:27.535-00:00",
        "included_in_blocks":
          [ "BLEZG7P9NoXZdrvJ6XFbPqjh4aEc5p8XovFLGRh2sxeTrRrnGo8" ] },
      { "delegate": "tz3hw2kqXhLUvY65ca1eety2oQTpAvd34R9Q",
        "reception_time": "2022-01-19T05:10:27.434-00:00",
        "included_in_blocks":
          [ "BLEZG7P9NoXZdrvJ6XFbPqjh4aEc5p8XovFLGRh2sxeTrRrnGo8" ] },
      { "delegate": "tz3ZbP2pM3nwvXztbuMJwJnDvV5xdpU8UkkD",
        "reception_time": "2022-01-19T05:10:27.504-00:00",
        "included_in_blocks":
          [ "BLEZG7P9NoXZdrvJ6XFbPqjh4aEc5p8XovFLGRh2sxeTrRrnGo8" ] },
      { "delegate": "tz3NxTnke1acr8o3h5y9ytf5awQBGNJUKzVU",
        "reception_time": "2022-01-19T05:10:27.649-00:00",
        "included_in_blocks":
          [ "BLEZG7P9NoXZdrvJ6XFbPqjh4aEc5p8XovFLGRh2sxeTrRrnGo8" ] },
      { "delegate": "tz1MJx9vhaNRSimcuXPK2rW4fLccQnDAnVKJ",
        "reception_time": "2022-01-19T05:10:27.358-00:00",
        "included_in_blocks":
          [ "BLEZG7P9NoXZdrvJ6XFbPqjh4aEc5p8XovFLGRh2sxeTrRrnGo8" ] },
      { "delegate": "tz1gUNyn3hmnEWqkusWPzxRaon1cs7ndWh7h",
        "reception_time": "2022-01-19T05:10:27.523-00:00",
        "included_in_blocks":
          [ "BLEZG7P9NoXZdrvJ6XFbPqjh4aEc5p8XovFLGRh2sxeTrRrnGo8" ] },
      { "delegate": "tz1TRspM5SeZpaQUhzByXbEvqKF1vnCM2YTK",
        "reception_time": "2022-01-19T05:10:27.471-00:00",
        "included_in_blocks":
          [ "BLEZG7P9NoXZdrvJ6XFbPqjh4aEc5p8XovFLGRh2sxeTrRrnGo8" ] },
      { "delegate": "tz1VQnqCCqX4K5sP3FNkVSNKTdCAMJDd3E1n",
        "reception_time": "2022-01-19T05:10:27.481-00:00",
        "included_in_blocks":
          [ "BLEZG7P9NoXZdrvJ6XFbPqjh4aEc5p8XovFLGRh2sxeTrRrnGo8" ] },
      { "delegate": "tz1RV1MBbZMR68tacosb7Mwj6LkbPSUS1er1",
        "reception_time": "2022-01-19T05:10:27.474-00:00",
        "included_in_blocks":
          [ "BLEZG7P9NoXZdrvJ6XFbPqjh4aEc5p8XovFLGRh2sxeTrRrnGo8" ] },
      { "delegate": "tz1ZPh7XfUaJXUDvkrBxmS1BjEM1i62hiPpM",
        "reception_time": "2022-01-19T05:10:27.374-00:00",
        "included_in_blocks":
          [ "BLEZG7P9NoXZdrvJ6XFbPqjh4aEc5p8XovFLGRh2sxeTrRrnGo8" ] },
      { "delegate": "tz1U638Z3xWRiXDDKx2S125MCCaAeGDdA896",
        "reception_time": "2022-01-19T05:10:27.492-00:00",
        "included_in_blocks":
          [ "BLEZG7P9NoXZdrvJ6XFbPqjh4aEc5p8XovFLGRh2sxeTrRrnGo8" ] },
      { "delegate": "tz1Lhf4J9Qxoe3DZ2nfe8FGDnvVj7oKjnMY6",
        "reception_time": "2022-01-19T05:10:27.405-00:00",
        "included_in_blocks":
          [ "BLEZG7P9NoXZdrvJ6XFbPqjh4aEc5p8XovFLGRh2sxeTrRrnGo8" ] },
      { "delegate": "tz1irJKkXS2DBWkU1NnmFQx1c1L7pbGg4yhk",
        "reception_time": "2022-01-19T05:10:27.346-00:00",
        "included_in_blocks":
          [ "BLEZG7P9NoXZdrvJ6XFbPqjh4aEc5p8XovFLGRh2sxeTrRrnGo8" ] },
      { "delegate": "tz1eEnQhbwf6trb8Q8mPb2RaPkNk2rN7BKi8",
        "reception_time": "2022-01-19T05:10:27.397-00:00",
        "included_in_blocks":
          [ "BLEZG7P9NoXZdrvJ6XFbPqjh4aEc5p8XovFLGRh2sxeTrRrnGo8" ] },
      { "delegate": "tz1P2Po7YM526ughEsRbY4oR9zaUPDZjxFrb",
        "reception_time": "2022-01-19T05:10:27.385-00:00",
        "included_in_blocks":
          [ "BLEZG7P9NoXZdrvJ6XFbPqjh4aEc5p8XovFLGRh2sxeTrRrnGo8" ] } ] }