{ "blocks":
    [ { "hash": "BMBB5duKXNxMNhR63uuBwhGhfYjVRiRAUmrAfGNUoKubJBegX7a",
        "delegate": "tz1LnWa4AiFCjMezTgSNa65QFoo7DQGEWgEU",
        "reception_time": "2022-01-19T05:40:41.453-00:00",
        "timestamp": "2022-01-19T05:40:30Z" } ],
  "endorsements":
    [ { "delegate": "tz1gUNyn3hmnEWqkusWPzxRaon1cs7ndWh7h",
        "reception_time": "2022-01-19T05:40:41.402-00:00",
        "errors":
          [ { "kind": "temporary",
              "id": "proto.011-PtHangz2.prefilter.outdated_endorsement" } ],
        "included_in_blocks":
          [ "BMKXUSq9aNoir6n75S9ouWqj8tZ2vuFiGM7NGsuqx5iEWHWJQjF" ] },
      { "delegate": "tz1STeamwbp68THcny9zk3LsbG3H36DMvbRK",
        "reception_time": "2022-01-19T05:40:41.125-00:00",
        "errors":
          [ { "kind": "temporary",
              "id": "proto.011-PtHangz2.prefilter.outdated_endorsement" } ],
        "included_in_blocks":
          [ "BMKXUSq9aNoir6n75S9ouWqj8tZ2vuFiGM7NGsuqx5iEWHWJQjF" ] },
      { "delegate": "tz1eEnQhbwf6trb8Q8mPb2RaPkNk2rN7BKi8",
        "reception_time": "2022-01-19T05:40:41.097-00:00",
        "errors":
          [ { "kind": "temporary",
              "id": "proto.011-PtHangz2.prefilter.outdated_endorsement" } ],
        "included_in_blocks":
          [ "BMKXUSq9aNoir6n75S9ouWqj8tZ2vuFiGM7NGsuqx5iEWHWJQjF" ] },
      { "delegate": "tz1TXzyaKUA8wsWefdSnyaYFnV2M3vCV7er9",
        "reception_time": "2022-01-19T05:40:40.955-00:00",
        "errors":
          [ { "kind": "temporary",
              "id": "proto.011-PtHangz2.prefilter.outdated_endorsement" } ],
        "included_in_blocks":
          [ "BMKXUSq9aNoir6n75S9ouWqj8tZ2vuFiGM7NGsuqx5iEWHWJQjF" ] },
      { "delegate": "tz1Scdr2HsZiQjc7bHMeBbmDRXYVvdhjJbBh",
        "reception_time": "2022-01-19T05:40:40.840-00:00",
        "errors":
          [ { "kind": "temporary",
              "id": "proto.011-PtHangz2.prefilter.outdated_endorsement" } ],
        "included_in_blocks":
          [ "BMKXUSq9aNoir6n75S9ouWqj8tZ2vuFiGM7NGsuqx5iEWHWJQjF" ] },
      { "delegate": "tz1S8e9GgdZG78XJRB3NqabfWeM37GnhZMWQ",
        "reception_time": "2022-01-19T05:40:40.443-00:00",
        "errors":
          [ { "kind": "temporary",
              "id": "proto.011-PtHangz2.prefilter.outdated_endorsement" } ],
        "included_in_blocks":
          [ "BMKXUSq9aNoir6n75S9ouWqj8tZ2vuFiGM7NGsuqx5iEWHWJQjF" ] },
      { "delegate": "tz1dbfppLAAxXZNtf2SDps7rch3qfUznKSoK" },
      { "delegate": "tz1VQnqCCqX4K5sP3FNkVSNKTdCAMJDd3E1n",
        "reception_time": "2022-01-19T05:40:42.462-00:00",
        "included_in_blocks":
          [ "BMKXUSq9aNoir6n75S9ouWqj8tZ2vuFiGM7NGsuqx5iEWHWJQjF" ] },
      { "delegate": "tz1P2Po7YM526ughEsRbY4oR9zaUPDZjxFrb",
        "reception_time": "2022-01-19T05:40:42.631-00:00",
        "included_in_blocks":
          [ "BMKXUSq9aNoir6n75S9ouWqj8tZ2vuFiGM7NGsuqx5iEWHWJQjF" ] },
      { "delegate": "tz1irJKkXS2DBWkU1NnmFQx1c1L7pbGg4yhk",
        "reception_time": "2022-01-19T05:40:42.636-00:00",
        "included_in_blocks":
          [ "BMKXUSq9aNoir6n75S9ouWqj8tZ2vuFiGM7NGsuqx5iEWHWJQjF" ] },
      { "delegate": "tz1bsdrs36X5BTH83RHUBdUouKLJZK8d2oBa",
        "reception_time": "2022-01-19T05:40:43.552-00:00",
        "included_in_blocks":
          [ "BMKXUSq9aNoir6n75S9ouWqj8tZ2vuFiGM7NGsuqx5iEWHWJQjF" ] },
      { "delegate": "tz3ZbP2pM3nwvXztbuMJwJnDvV5xdpU8UkkD",
        "reception_time": "2022-01-19T05:40:43.552-00:00",
        "included_in_blocks":
          [ "BMKXUSq9aNoir6n75S9ouWqj8tZ2vuFiGM7NGsuqx5iEWHWJQjF" ] },
      { "delegate": "tz1VmiY38m3y95HqQLjMwqnMS7sdMfGomzKi",
        "reception_time": "2022-01-19T05:40:43.552-00:00",
        "included_in_blocks":
          [ "BMKXUSq9aNoir6n75S9ouWqj8tZ2vuFiGM7NGsuqx5iEWHWJQjF" ] },
      { "delegate": "tz1Ldzz6k1BHdhuKvAtMRX7h5kJSMHESMHLC",
        "reception_time": "2022-01-19T05:40:43.552-00:00",
        "included_in_blocks":
          [ "BMKXUSq9aNoir6n75S9ouWqj8tZ2vuFiGM7NGsuqx5iEWHWJQjF" ] },
      { "delegate": "tz3Zhs2dygr55yHyQyKjntAtY9bgfhLZ4Xj1",
        "reception_time": "2022-01-19T05:40:43.552-00:00",
        "included_in_blocks":
          [ "BMKXUSq9aNoir6n75S9ouWqj8tZ2vuFiGM7NGsuqx5iEWHWJQjF" ] },
      { "delegate": "tz3gtoUxdudfBRcNY7iVdKPHCYYX6xdPpoRS",
        "reception_time": "2022-01-19T05:40:43.552-00:00",
        "included_in_blocks":
          [ "BMKXUSq9aNoir6n75S9ouWqj8tZ2vuFiGM7NGsuqx5iEWHWJQjF" ] },
      { "delegate": "tz3NxTnke1acr8o3h5y9ytf5awQBGNJUKzVU",
        "reception_time": "2022-01-19T05:40:43.552-00:00",
        "included_in_blocks":
          [ "BMKXUSq9aNoir6n75S9ouWqj8tZ2vuFiGM7NGsuqx5iEWHWJQjF" ] },
      { "delegate": "tz3S6BBeKgJGXxvLyZ1xzXzMPn11nnFtq5L9",
        "reception_time": "2022-01-19T05:40:43.552-00:00",
        "included_in_blocks":
          [ "BMKXUSq9aNoir6n75S9ouWqj8tZ2vuFiGM7NGsuqx5iEWHWJQjF" ] },
      { "delegate": "tz3QT9dHYKDqh563chVa6za8526ys1UKfRfL",
        "reception_time": "2022-01-19T05:40:43.552-00:00",
        "included_in_blocks":
          [ "BMKXUSq9aNoir6n75S9ouWqj8tZ2vuFiGM7NGsuqx5iEWHWJQjF" ] },
      { "delegate": "tz1UJvHTgpVzcKWhTazGxVcn5wsHru5Gietg",
        "reception_time": "2022-01-19T05:40:43.552-00:00",
        "included_in_blocks":
          [ "BMKXUSq9aNoir6n75S9ouWqj8tZ2vuFiGM7NGsuqx5iEWHWJQjF" ] },
      { "delegate": "tz3iJu5vrKZcsqRPs8yJ61UDoeEXZmtro4qh",
        "reception_time": "2022-01-19T05:40:43.552-00:00",
        "included_in_blocks":
          [ "BMKXUSq9aNoir6n75S9ouWqj8tZ2vuFiGM7NGsuqx5iEWHWJQjF" ] },
      { "delegate": "tz1TRspM5SeZpaQUhzByXbEvqKF1vnCM2YTK",
        "reception_time": "2022-01-19T05:40:43.552-00:00",
        "included_in_blocks":
          [ "BMKXUSq9aNoir6n75S9ouWqj8tZ2vuFiGM7NGsuqx5iEWHWJQjF" ] },
      { "delegate": "tz1SYq214SCBy9naR6cvycQsYcUGpBqQAE8d",
        "reception_time": "2022-01-19T05:40:43.552-00:00",
        "included_in_blocks":
          [ "BMKXUSq9aNoir6n75S9ouWqj8tZ2vuFiGM7NGsuqx5iEWHWJQjF" ] },
      { "delegate": "tz1WCd2jm4uSt4vntk4vSuUWoZQGhLcDuR9q",
        "reception_time": "2022-01-19T05:40:43.552-00:00",
        "included_in_blocks":
          [ "BMKXUSq9aNoir6n75S9ouWqj8tZ2vuFiGM7NGsuqx5iEWHWJQjF" ] },
      { "delegate": "tz1ei4WtWEMEJekSv8qDnu9PExG6Q8HgRGr3",
        "reception_time": "2022-01-19T05:40:43.552-00:00",
        "included_in_blocks":
          [ "BMKXUSq9aNoir6n75S9ouWqj8tZ2vuFiGM7NGsuqx5iEWHWJQjF" ] },
      { "delegate": "tz1aqcYgG6NuViML5vdWhohHJBYxcDVLNUsE",
        "reception_time": "2022-01-19T05:40:43.552-00:00",
        "included_in_blocks":
          [ "BMKXUSq9aNoir6n75S9ouWqj8tZ2vuFiGM7NGsuqx5iEWHWJQjF" ] },
      { "delegate": "tz3RKYFsLuQzKBtmYuLNas7uMu3AsYd4QdsA",
        "reception_time": "2022-01-19T05:40:43.552-00:00",
        "included_in_blocks":
          [ "BMKXUSq9aNoir6n75S9ouWqj8tZ2vuFiGM7NGsuqx5iEWHWJQjF" ] },
      { "delegate": "tz3hw2kqXhLUvY65ca1eety2oQTpAvd34R9Q",
        "reception_time": "2022-01-19T05:40:43.552-00:00",
        "included_in_blocks":
          [ "BMKXUSq9aNoir6n75S9ouWqj8tZ2vuFiGM7NGsuqx5iEWHWJQjF" ] },
      { "delegate": "tz1NortRftucvAkD1J58L32EhSVrQEWJCEnB",
        "reception_time": "2022-01-19T05:40:43.552-00:00",
        "included_in_blocks":
          [ "BMKXUSq9aNoir6n75S9ouWqj8tZ2vuFiGM7NGsuqx5iEWHWJQjF" ] },
      { "delegate": "tz1TEc75UKXv4W5cwi14Na3NtqFD51yKQi7h",
        "reception_time": "2022-01-19T05:40:43.552-00:00",
        "included_in_blocks":
          [ "BMKXUSq9aNoir6n75S9ouWqj8tZ2vuFiGM7NGsuqx5iEWHWJQjF" ] },
      { "delegate": "tz1g8vkmcde6sWKaG2NN9WKzCkDM6Rziq194",
        "reception_time": "2022-01-19T05:40:43.552-00:00",
        "included_in_blocks":
          [ "BMKXUSq9aNoir6n75S9ouWqj8tZ2vuFiGM7NGsuqx5iEWHWJQjF" ] },
      { "delegate": "tz1MH387oMRFco3kzz8t3wuqdbpAyTcKZtsg",
        "reception_time": "2022-01-19T05:40:43.564-00:00",
        "included_in_blocks":
          [ "BMKXUSq9aNoir6n75S9ouWqj8tZ2vuFiGM7NGsuqx5iEWHWJQjF" ] },
      { "delegate": "tz1iPHM2Xx2hwmzcr1EG1zzrV6oKafVoA91m",
        "reception_time": "2022-01-19T05:40:43.590-00:00",
        "included_in_blocks":
          [ "BMKXUSq9aNoir6n75S9ouWqj8tZ2vuFiGM7NGsuqx5iEWHWJQjF" ] },
      { "delegate": "tz1RCFbB9GpALpsZtu6J58sb74dm8qe6XBzv",
        "reception_time": "2022-01-19T05:40:43.594-00:00",
        "included_in_blocks":
          [ "BMKXUSq9aNoir6n75S9ouWqj8tZ2vuFiGM7NGsuqx5iEWHWJQjF" ] },
      { "delegate": "tz1UtayNgAX8QEJ3NoLptPzoPr9JiH3Cskzz",
        "reception_time": "2022-01-19T05:40:43.598-00:00",
        "included_in_blocks":
          [ "BMKXUSq9aNoir6n75S9ouWqj8tZ2vuFiGM7NGsuqx5iEWHWJQjF" ] },
      { "delegate": "tz1gfArv665EUkSg2ojMBzcbfwuPxAvqPvjo",
        "reception_time": "2022-01-19T05:40:43.601-00:00",
        "included_in_blocks":
          [ "BMKXUSq9aNoir6n75S9ouWqj8tZ2vuFiGM7NGsuqx5iEWHWJQjF" ] },
      { "delegate": "tz1PWCDnz783NNGGQjEFFsHtrcK5yBW4E2rm",
        "reception_time": "2022-01-19T05:40:43.611-00:00",
        "included_in_blocks":
          [ "BMKXUSq9aNoir6n75S9ouWqj8tZ2vuFiGM7NGsuqx5iEWHWJQjF" ] },
      { "delegate": "tz1WBfwbT66FC6BTLexc2BoyCCBM9LG7pnVW",
        "reception_time": "2022-01-19T05:40:43.614-00:00",
        "included_in_blocks":
          [ "BMKXUSq9aNoir6n75S9ouWqj8tZ2vuFiGM7NGsuqx5iEWHWJQjF" ] },
      { "delegate": "tz2FCNBrERXtaTtNX6iimR1UJ5JSDxvdHM93",
        "reception_time": "2022-01-19T05:40:43.617-00:00",
        "included_in_blocks":
          [ "BMKXUSq9aNoir6n75S9ouWqj8tZ2vuFiGM7NGsuqx5iEWHWJQjF" ] },
      { "delegate": "tz1Nf6tsK4G6bBqgSQERy4nUtkHNKUVdh7q1",
        "reception_time": "2022-01-19T05:40:43.621-00:00",
        "included_in_blocks":
          [ "BMKXUSq9aNoir6n75S9ouWqj8tZ2vuFiGM7NGsuqx5iEWHWJQjF" ] },
      { "delegate": "tz1dNVDWPf3Q59SdJqnjdnu277iyvReiRS9M",
        "reception_time": "2022-01-19T05:40:43.648-00:00",
        "included_in_blocks":
          [ "BMKXUSq9aNoir6n75S9ouWqj8tZ2vuFiGM7NGsuqx5iEWHWJQjF" ] },
      { "delegate": "tz1KfEsrtDaA1sX7vdM4qmEPWuSytuqCDp5j",
        "reception_time": "2022-01-19T05:40:43.651-00:00",
        "included_in_blocks":
          [ "BMKXUSq9aNoir6n75S9ouWqj8tZ2vuFiGM7NGsuqx5iEWHWJQjF" ] },
      { "delegate": "tz3UoffC7FG7zfpmvmjUmUeAaHvzdcUvAj6r",
        "reception_time": "2022-01-19T05:40:43.664-00:00",
        "included_in_blocks":
          [ "BMKXUSq9aNoir6n75S9ouWqj8tZ2vuFiGM7NGsuqx5iEWHWJQjF" ] },
      { "delegate": "tz3RB4aoyjov4KEVRbuhvQ1CKJgBJMWhaeB8",
        "reception_time": "2022-01-19T05:40:43.679-00:00",
        "included_in_blocks":
          [ "BMKXUSq9aNoir6n75S9ouWqj8tZ2vuFiGM7NGsuqx5iEWHWJQjF" ] },
      { "delegate": "tz1PeZx7FXy7QRuMREGXGxeipb24RsMMzUNe",
        "reception_time": "2022-01-19T05:40:43.710-00:00",
        "included_in_blocks":
          [ "BMKXUSq9aNoir6n75S9ouWqj8tZ2vuFiGM7NGsuqx5iEWHWJQjF" ] },
      { "delegate": "tz1ci1ARnm8JoYV16Hbe4FoxX17yFEAQVytg",
        "reception_time": "2022-01-19T05:40:43.725-00:00",
        "included_in_blocks":
          [ "BMKXUSq9aNoir6n75S9ouWqj8tZ2vuFiGM7NGsuqx5iEWHWJQjF" ] },
      { "delegate": "tz1abmz7jiCV2GH2u81LRrGgAFFgvQgiDiaf",
        "reception_time": "2022-01-19T05:40:43.731-00:00",
        "included_in_blocks":
          [ "BMKXUSq9aNoir6n75S9ouWqj8tZ2vuFiGM7NGsuqx5iEWHWJQjF" ] },
      { "delegate": "tz3bTdwZinP8U1JmSweNzVKhmwafqWmFWRfk",
        "reception_time": "2022-01-19T05:40:43.758-00:00",
        "included_in_blocks":
          [ "BMKXUSq9aNoir6n75S9ouWqj8tZ2vuFiGM7NGsuqx5iEWHWJQjF" ] },
      { "delegate": "tz1eCzNtidHvVgeRzQ38C81FPcYnxMsCEL6Z",
        "reception_time": "2022-01-19T05:40:43.802-00:00",
        "included_in_blocks":
          [ "BMKXUSq9aNoir6n75S9ouWqj8tZ2vuFiGM7NGsuqx5iEWHWJQjF" ] },
      { "delegate": "tz1S8MNvuFEUsWgjHvi3AxibRBf388NhT1q2",
        "reception_time": "2022-01-19T05:40:43.802-00:00",
        "included_in_blocks":
          [ "BMKXUSq9aNoir6n75S9ouWqj8tZ2vuFiGM7NGsuqx5iEWHWJQjF" ] },
      { "delegate": "tz1SohptP53wDPZhzTWzDUFAUcWF6DMBpaJV",
        "reception_time": "2022-01-19T05:40:43.809-00:00",
        "included_in_blocks":
          [ "BMKXUSq9aNoir6n75S9ouWqj8tZ2vuFiGM7NGsuqx5iEWHWJQjF" ] },
      { "delegate": "tz3VEZ4k6a4Wx42iyev6i2aVAptTRLEAivNN",
        "reception_time": "2022-01-19T05:40:43.836-00:00",
        "included_in_blocks":
          [ "BMKXUSq9aNoir6n75S9ouWqj8tZ2vuFiGM7NGsuqx5iEWHWJQjF" ] },
      { "delegate": "tz1c8TSSGtVtg7ANrNVY7G4KnLn7iKdRnUVk",
        "reception_time": "2022-01-19T05:40:43.852-00:00",
        "included_in_blocks":
          [ "BMKXUSq9aNoir6n75S9ouWqj8tZ2vuFiGM7NGsuqx5iEWHWJQjF" ] },
      { "delegate": "tz1T7duV5gZWSTq4YpBGbXNLTfznCLDrFxvs",
        "reception_time": "2022-01-19T05:40:43.857-00:00",
        "included_in_blocks":
          [ "BMKXUSq9aNoir6n75S9ouWqj8tZ2vuFiGM7NGsuqx5iEWHWJQjF" ] },
      { "delegate": "tz3WMqdzXqRWXwyvj5Hp2H7QEepaUuS7vd9K",
        "reception_time": "2022-01-19T05:40:43.897-00:00",
        "included_in_blocks":
          [ "BMKXUSq9aNoir6n75S9ouWqj8tZ2vuFiGM7NGsuqx5iEWHWJQjF" ] },
      { "delegate": "tz1awXW7wuXy21c66vBudMXQVAPgRnqqwgTH",
        "reception_time": "2022-01-19T05:40:43.915-00:00",
        "included_in_blocks":
          [ "BMKXUSq9aNoir6n75S9ouWqj8tZ2vuFiGM7NGsuqx5iEWHWJQjF" ] },
      { "delegate": "tz1NEKxGEHsFufk87CVZcrqWu8o22qh46GK6",
        "reception_time": "2022-01-19T05:40:43.920-00:00",
        "included_in_blocks":
          [ "BMKXUSq9aNoir6n75S9ouWqj8tZ2vuFiGM7NGsuqx5iEWHWJQjF" ] },
      { "delegate": "tz3NDpRj6WBrJPikcPVHRBEjWKxFw3c6eQPS",
        "reception_time": "2022-01-19T05:40:43.960-00:00",
        "included_in_blocks":
          [ "BMKXUSq9aNoir6n75S9ouWqj8tZ2vuFiGM7NGsuqx5iEWHWJQjF" ] },
      { "delegate": "tz1V3yg82mcrPJbegqVCPn6bC8w1CSTRp3f8",
        "reception_time": "2022-01-19T05:40:44.021-00:00",
        "included_in_blocks":
          [ "BMKXUSq9aNoir6n75S9ouWqj8tZ2vuFiGM7NGsuqx5iEWHWJQjF" ] },
      { "delegate": "tz3RDC3Jdn4j15J7bBHZd29EUee9gVB1CxD9",
        "reception_time": "2022-01-19T05:40:44.061-00:00",
        "included_in_blocks":
          [ "BMKXUSq9aNoir6n75S9ouWqj8tZ2vuFiGM7NGsuqx5iEWHWJQjF" ] },
      { "delegate": "tz3bvNMQ95vfAYtG8193ymshqjSvmxiCUuR5",
        "reception_time": "2022-01-19T05:40:44.078-00:00",
        "included_in_blocks":
          [ "BMKXUSq9aNoir6n75S9ouWqj8tZ2vuFiGM7NGsuqx5iEWHWJQjF" ] },
      { "delegate": "tz1Q8QkSBS63ZQnH3fBTiAMPes9R666Rn6Sc",
        "reception_time": "2022-01-19T05:40:44.127-00:00",
        "included_in_blocks":
          [ "BMKXUSq9aNoir6n75S9ouWqj8tZ2vuFiGM7NGsuqx5iEWHWJQjF" ] },
      { "delegate": "tz1WnfXMPaNTBmH7DBPwqCWs9cPDJdkGBTZ8",
        "reception_time": "2022-01-19T05:40:44.132-00:00",
        "included_in_blocks":
          [ "BMKXUSq9aNoir6n75S9ouWqj8tZ2vuFiGM7NGsuqx5iEWHWJQjF" ] },
      { "delegate": "tz1dRKU4FQ9QRRQPdaH4zCR6gmCmXfcvcgtB",
        "reception_time": "2022-01-19T05:40:44.562-00:00",
        "included_in_blocks":
          [ "BMKXUSq9aNoir6n75S9ouWqj8tZ2vuFiGM7NGsuqx5iEWHWJQjF" ] },
      { "delegate": "tz1ZcTRk5uxD86EFEn1vvNffWWqJy7q5eVhc",
        "reception_time": "2022-01-19T05:40:44.708-00:00",
        "included_in_blocks":
          [ "BMKXUSq9aNoir6n75S9ouWqj8tZ2vuFiGM7NGsuqx5iEWHWJQjF" ] },
      { "delegate": "tz1cM8Xc7ZP1TrjkTeKq4PeRhtbnwXSBR6Sw",
        "reception_time": "2022-01-19T05:40:44.806-00:00",
        "included_in_blocks":
          [ "BMKXUSq9aNoir6n75S9ouWqj8tZ2vuFiGM7NGsuqx5iEWHWJQjF" ] },
      { "delegate": "tz3NExpXn9aPNZPorRE4SdjJ2RGrfbJgMAaV",
        "reception_time": "2022-01-19T05:40:44.911-00:00",
        "included_in_blocks":
          [ "BMKXUSq9aNoir6n75S9ouWqj8tZ2vuFiGM7NGsuqx5iEWHWJQjF" ] },
      { "delegate": "tz1aRoaRhSpRYvFdyvgWLL6TGyRoGF51wDjM",
        "reception_time": "2022-01-19T05:40:45.162-00:00",
        "included_in_blocks":
          [ "BMKXUSq9aNoir6n75S9ouWqj8tZ2vuFiGM7NGsuqx5iEWHWJQjF" ] },
      { "delegate": "tz1W5VkdB5s7ENMESVBtwyt9kyvLqPcUczRT",
        "reception_time": "2022-01-19T05:40:46.232-00:00",
        "included_in_blocks":
          [ "BMKXUSq9aNoir6n75S9ouWqj8tZ2vuFiGM7NGsuqx5iEWHWJQjF" ] },
      { "delegate": "tz1cYufsxHXJcvANhvS55h3aY32a9BAFB494",
        "reception_time": "2022-01-19T05:40:46.303-00:00",
        "included_in_blocks":
          [ "BMKXUSq9aNoir6n75S9ouWqj8tZ2vuFiGM7NGsuqx5iEWHWJQjF" ] } ] }