{ "blocks":
    [ { "hash": "BMcWNS6XrFjHxNGoUU48VphMvrTyobK7nf5i8mGzqjE6EwXr85p",
        "delegate": "tz1VmiY38m3y95HqQLjMwqnMS7sdMfGomzKi",
        "reception_time": "2022-01-19T06:15:07.020-00:00",
        "timestamp": "2022-01-19T06:15:00Z" } ],
  "endorsements":
    [ { "delegate": "tz1NdhRv643wLW6zCcRP3VfT24dvDnh7nuh9" },
      { "delegate": "tz1eEnQhbwf6trb8Q8mPb2RaPkNk2rN7BKi8",
        "reception_time": "2022-01-19T06:15:06.656-00:00",
        "errors":
          [ { "kind": "temporary",
              "id": "proto.011-PtHangz2.prefilter.outdated_endorsement" } ],
        "included_in_blocks":
          [ "BMKCzCKm4yYV2zrykspGiPXcWY9ughLUjNpxECRs52hySodRGYW" ] },
      { "delegate": "tz1P2Po7YM526ughEsRbY4oR9zaUPDZjxFrb",
        "reception_time": "2022-01-19T06:15:06.533-00:00",
        "errors":
          [ { "kind": "temporary",
              "id": "proto.011-PtHangz2.prefilter.outdated_endorsement" } ],
        "included_in_blocks":
          [ "BMKCzCKm4yYV2zrykspGiPXcWY9ughLUjNpxECRs52hySodRGYW" ] },
      { "delegate": "tz1Scdr2HsZiQjc7bHMeBbmDRXYVvdhjJbBh",
        "reception_time": "2022-01-19T06:15:06.533-00:00",
        "errors":
          [ { "kind": "temporary",
              "id": "proto.011-PtHangz2.prefilter.outdated_endorsement" } ],
        "included_in_blocks":
          [ "BMKCzCKm4yYV2zrykspGiPXcWY9ughLUjNpxECRs52hySodRGYW" ] },
      { "delegate": "tz1RV1MBbZMR68tacosb7Mwj6LkbPSUS1er1",
        "reception_time": "2022-01-19T06:15:06.520-00:00",
        "errors":
          [ { "kind": "temporary",
              "id": "proto.011-PtHangz2.prefilter.outdated_endorsement" } ],
        "included_in_blocks":
          [ "BMKCzCKm4yYV2zrykspGiPXcWY9ughLUjNpxECRs52hySodRGYW" ] },
      { "delegate": "tz1TXzyaKUA8wsWefdSnyaYFnV2M3vCV7er9",
        "reception_time": "2022-01-19T06:15:06.489-00:00",
        "errors":
          [ { "kind": "temporary",
              "id": "proto.011-PtHangz2.prefilter.outdated_endorsement" } ],
        "included_in_blocks":
          [ "BMKCzCKm4yYV2zrykspGiPXcWY9ughLUjNpxECRs52hySodRGYW" ] },
      { "delegate": "tz1iZEKy4LaAjnTmn2RuGDf2iqdAQKnRi8kY",
        "reception_time": "2022-01-19T06:15:06.476-00:00",
        "errors":
          [ { "kind": "temporary",
              "id": "proto.011-PtHangz2.prefilter.outdated_endorsement" } ],
        "included_in_blocks":
          [ "BMKCzCKm4yYV2zrykspGiPXcWY9ughLUjNpxECRs52hySodRGYW" ] },
      { "delegate": "tz1S8e9GgdZG78XJRB3NqabfWeM37GnhZMWQ",
        "reception_time": "2022-01-19T06:15:06.061-00:00",
        "errors":
          [ { "kind": "temporary",
              "id": "proto.011-PtHangz2.prefilter.outdated_endorsement" } ],
        "included_in_blocks":
          [ "BMKCzCKm4yYV2zrykspGiPXcWY9ughLUjNpxECRs52hySodRGYW" ] },
      { "delegate": "tz1dfg9PkvRLf7hKMmGdGRhXWCbd8QgbwBF7",
        "reception_time": "2022-01-19T06:15:13.060-00:00",
        "included_in_blocks":
          [ "BMKCzCKm4yYV2zrykspGiPXcWY9ughLUjNpxECRs52hySodRGYW" ] },
      { "delegate": "tz1NpWrAyDL9k2Lmnyxcgr9xuJakbBxdq7FB",
        "reception_time": "2022-01-19T06:15:12.350-00:00",
        "included_in_blocks":
          [ "BMKCzCKm4yYV2zrykspGiPXcWY9ughLUjNpxECRs52hySodRGYW" ] },
      { "delegate": "tz1NMNQYrYrfNpmUqQrMhJypf6ovnaDZhJHM",
        "reception_time": "2022-01-19T06:15:11.820-00:00",
        "included_in_blocks":
          [ "BMKCzCKm4yYV2zrykspGiPXcWY9ughLUjNpxECRs52hySodRGYW" ] },
      { "delegate": "tz1eVaNx3gCmG1EsLjijkmgAxdLYVf6Bf5Sq",
        "reception_time": "2022-01-19T06:15:11.164-00:00",
        "included_in_blocks":
          [ "BMKCzCKm4yYV2zrykspGiPXcWY9ughLUjNpxECRs52hySodRGYW" ] },
      { "delegate": "tz1YiuvpfeVAHbnU8akcWErNfQGFHNQ7F45z",
        "reception_time": "2022-01-19T06:15:10.745-00:00",
        "included_in_blocks":
          [ "BMKCzCKm4yYV2zrykspGiPXcWY9ughLUjNpxECRs52hySodRGYW" ] },
      { "delegate": "tz1TcH4Nb3aHNDJ7CGZhU7jgAK1BkSP4Lxds",
        "reception_time": "2022-01-19T06:15:10.572-00:00",
        "included_in_blocks":
          [ "BMKCzCKm4yYV2zrykspGiPXcWY9ughLUjNpxECRs52hySodRGYW" ] },
      { "delegate": "tz3NExpXn9aPNZPorRE4SdjJ2RGrfbJgMAaV",
        "reception_time": "2022-01-19T06:15:10.308-00:00",
        "included_in_blocks":
          [ "BMKCzCKm4yYV2zrykspGiPXcWY9ughLUjNpxECRs52hySodRGYW" ] },
      { "delegate": "tz1aRoaRhSpRYvFdyvgWLL6TGyRoGF51wDjM",
        "reception_time": "2022-01-19T06:15:09.974-00:00",
        "included_in_blocks":
          [ "BMKCzCKm4yYV2zrykspGiPXcWY9ughLUjNpxECRs52hySodRGYW" ] },
      { "delegate": "tz3bvNMQ95vfAYtG8193ymshqjSvmxiCUuR5",
        "reception_time": "2022-01-19T06:15:10.059-00:00",
        "included_in_blocks":
          [ "BMKCzCKm4yYV2zrykspGiPXcWY9ughLUjNpxECRs52hySodRGYW" ] },
      { "delegate": "tz1Y42aKCk53vMbaJNpf1hBg1rznGdBxHJ5C",
        "reception_time": "2022-01-19T06:15:09.914-00:00",
        "included_in_blocks":
          [ "BMKCzCKm4yYV2zrykspGiPXcWY9ughLUjNpxECRs52hySodRGYW" ] },
      { "delegate": "tz1ULYFhUY7Syao5NWr9jZ1pp3aw81QPiqjs",
        "reception_time": "2022-01-19T06:15:09.736-00:00",
        "included_in_blocks":
          [ "BMKCzCKm4yYV2zrykspGiPXcWY9ughLUjNpxECRs52hySodRGYW" ] },
      { "delegate": "tz1XhnCdVENzgko5x1MMswLHSoQbJ5NPwLZ6",
        "reception_time": "2022-01-19T06:15:09.760-00:00",
        "included_in_blocks":
          [ "BMKCzCKm4yYV2zrykspGiPXcWY9ughLUjNpxECRs52hySodRGYW" ] },
      { "delegate": "tz1ZcTRk5uxD86EFEn1vvNffWWqJy7q5eVhc",
        "reception_time": "2022-01-19T06:15:10.155-00:00",
        "included_in_blocks":
          [ "BMKCzCKm4yYV2zrykspGiPXcWY9ughLUjNpxECRs52hySodRGYW" ] },
      { "delegate": "tz3NDpRj6WBrJPikcPVHRBEjWKxFw3c6eQPS",
        "reception_time": "2022-01-19T06:15:09.481-00:00",
        "included_in_blocks":
          [ "BMKCzCKm4yYV2zrykspGiPXcWY9ughLUjNpxECRs52hySodRGYW" ] },
      { "delegate": "tz1dRKU4FQ9QRRQPdaH4zCR6gmCmXfcvcgtB",
        "reception_time": "2022-01-19T06:15:09.887-00:00",
        "included_in_blocks":
          [ "BMKCzCKm4yYV2zrykspGiPXcWY9ughLUjNpxECRs52hySodRGYW" ] },
      { "delegate": "tz1RjoHc98dBoqaH2jawF62XNKh7YsHwbkEv",
        "reception_time": "2022-01-19T06:15:09.932-00:00",
        "included_in_blocks":
          [ "BMKCzCKm4yYV2zrykspGiPXcWY9ughLUjNpxECRs52hySodRGYW" ] },
      { "delegate": "tz3gLTu4Yxj8tPAcriQVUdxv6BY9QyvzU1az",
        "reception_time": "2022-01-19T06:15:09.458-00:00",
        "included_in_blocks":
          [ "BMKCzCKm4yYV2zrykspGiPXcWY9ughLUjNpxECRs52hySodRGYW" ] },
      { "delegate": "tz1V3yg82mcrPJbegqVCPn6bC8w1CSTRp3f8",
        "reception_time": "2022-01-19T06:15:09.495-00:00",
        "included_in_blocks":
          [ "BMKCzCKm4yYV2zrykspGiPXcWY9ughLUjNpxECRs52hySodRGYW" ] },
      { "delegate": "tz3WMqdzXqRWXwyvj5Hp2H7QEepaUuS7vd9K",
        "reception_time": "2022-01-19T06:15:09.505-00:00",
        "included_in_blocks":
          [ "BMKCzCKm4yYV2zrykspGiPXcWY9ughLUjNpxECRs52hySodRGYW" ] },
      { "delegate": "tz1UvkANVPWppVgMkLnvN7BwYZsCP7vm6NVd",
        "reception_time": "2022-01-19T06:15:09.323-00:00",
        "included_in_blocks":
          [ "BMKCzCKm4yYV2zrykspGiPXcWY9ughLUjNpxECRs52hySodRGYW" ] },
      { "delegate": "tz1cYufsxHXJcvANhvS55h3aY32a9BAFB494",
        "reception_time": "2022-01-19T06:15:09.363-00:00",
        "included_in_blocks":
          [ "BMKCzCKm4yYV2zrykspGiPXcWY9ughLUjNpxECRs52hySodRGYW" ] },
      { "delegate": "tz1T7duV5gZWSTq4YpBGbXNLTfznCLDrFxvs",
        "reception_time": "2022-01-19T06:15:09.728-00:00",
        "included_in_blocks":
          [ "BMKCzCKm4yYV2zrykspGiPXcWY9ughLUjNpxECRs52hySodRGYW" ] },
      { "delegate": "tz3RB4aoyjov4KEVRbuhvQ1CKJgBJMWhaeB8",
        "reception_time": "2022-01-19T06:15:09.231-00:00",
        "included_in_blocks":
          [ "BMKCzCKm4yYV2zrykspGiPXcWY9ughLUjNpxECRs52hySodRGYW" ] },
      { "delegate": "tz3VEZ4k6a4Wx42iyev6i2aVAptTRLEAivNN",
        "reception_time": "2022-01-19T06:15:09.256-00:00",
        "included_in_blocks":
          [ "BMKCzCKm4yYV2zrykspGiPXcWY9ughLUjNpxECRs52hySodRGYW" ] },
      { "delegate": "tz1NEKxGEHsFufk87CVZcrqWu8o22qh46GK6",
        "reception_time": "2022-01-19T06:15:09.001-00:00",
        "included_in_blocks":
          [ "BMKCzCKm4yYV2zrykspGiPXcWY9ughLUjNpxECRs52hySodRGYW" ] },
      { "delegate": "tz1Vd1rXpV8hTHbFXCXN3c3qzCsgcU5BZw1e",
        "reception_time": "2022-01-19T06:15:08.846-00:00",
        "included_in_blocks":
          [ "BMKCzCKm4yYV2zrykspGiPXcWY9ughLUjNpxECRs52hySodRGYW" ] },
      { "delegate": "tz1NortRftucvAkD1J58L32EhSVrQEWJCEnB",
        "reception_time": "2022-01-19T06:15:08.546-00:00",
        "included_in_blocks":
          [ "BMKCzCKm4yYV2zrykspGiPXcWY9ughLUjNpxECRs52hySodRGYW" ] },
      { "delegate": "tz2FCNBrERXtaTtNX6iimR1UJ5JSDxvdHM93",
        "reception_time": "2022-01-19T06:15:08.525-00:00",
        "included_in_blocks":
          [ "BMKCzCKm4yYV2zrykspGiPXcWY9ughLUjNpxECRs52hySodRGYW" ] },
      { "delegate": "tz3RDC3Jdn4j15J7bBHZd29EUee9gVB1CxD9",
        "reception_time": "2022-01-19T06:15:08.488-00:00",
        "included_in_blocks":
          [ "BMKCzCKm4yYV2zrykspGiPXcWY9ughLUjNpxECRs52hySodRGYW" ] },
      { "delegate": "tz3UoffC7FG7zfpmvmjUmUeAaHvzdcUvAj6r",
        "reception_time": "2022-01-19T06:15:08.639-00:00",
        "included_in_blocks":
          [ "BMKCzCKm4yYV2zrykspGiPXcWY9ughLUjNpxECRs52hySodRGYW" ] },
      { "delegate": "tz1KfEsrtDaA1sX7vdM4qmEPWuSytuqCDp5j",
        "reception_time": "2022-01-19T06:15:09.192-00:00",
        "included_in_blocks":
          [ "BMKCzCKm4yYV2zrykspGiPXcWY9ughLUjNpxECRs52hySodRGYW" ] },
      { "delegate": "tz1g8vkmcde6sWKaG2NN9WKzCkDM6Rziq194",
        "reception_time": "2022-01-19T06:15:08.504-00:00",
        "included_in_blocks":
          [ "BMKCzCKm4yYV2zrykspGiPXcWY9ughLUjNpxECRs52hySodRGYW" ] },
      { "delegate": "tz1Nf6tsK4G6bBqgSQERy4nUtkHNKUVdh7q1",
        "reception_time": "2022-01-19T06:15:08.433-00:00",
        "included_in_blocks":
          [ "BMKCzCKm4yYV2zrykspGiPXcWY9ughLUjNpxECRs52hySodRGYW" ] },
      { "delegate": "tz3bTdwZinP8U1JmSweNzVKhmwafqWmFWRfk",
        "reception_time": "2022-01-19T06:15:08.429-00:00",
        "included_in_blocks":
          [ "BMKCzCKm4yYV2zrykspGiPXcWY9ughLUjNpxECRs52hySodRGYW" ] },
      { "delegate": "tz1axcnVN9tZnCe4sQQhC6f3tfSEXdjPaXPY",
        "reception_time": "2022-01-19T06:15:08.732-00:00",
        "included_in_blocks":
          [ "BMKCzCKm4yYV2zrykspGiPXcWY9ughLUjNpxECRs52hySodRGYW" ] },
      { "delegate": "tz1WBfwbT66FC6BTLexc2BoyCCBM9LG7pnVW",
        "reception_time": "2022-01-19T06:15:08.794-00:00",
        "included_in_blocks":
          [ "BMKCzCKm4yYV2zrykspGiPXcWY9ughLUjNpxECRs52hySodRGYW" ] },
      { "delegate": "tz1RQhNh7iB9CZA7i3ifTWNwiGYVffponfbB",
        "reception_time": "2022-01-19T06:15:08.351-00:00",
        "included_in_blocks":
          [ "BMKCzCKm4yYV2zrykspGiPXcWY9ughLUjNpxECRs52hySodRGYW" ] },
      { "delegate": "tz1TRqbYbUf2GyrjErf3hBzgBJPzW8y36qEs",
        "reception_time": "2022-01-19T06:15:08.455-00:00",
        "included_in_blocks":
          [ "BMKCzCKm4yYV2zrykspGiPXcWY9ughLUjNpxECRs52hySodRGYW" ] },
      { "delegate": "tz1NRGxXV9h6SdNaZLcgmjuLx3hyy2f8YoGN",
        "reception_time": "2022-01-19T06:15:08.749-00:00",
        "included_in_blocks":
          [ "BMKCzCKm4yYV2zrykspGiPXcWY9ughLUjNpxECRs52hySodRGYW" ] },
      { "delegate": "tz1dwu9aYb7CRNq4Y2zAjipdjFuSVKhHS8vA",
        "reception_time": "2022-01-19T06:15:08.351-00:00",
        "included_in_blocks":
          [ "BMKCzCKm4yYV2zrykspGiPXcWY9ughLUjNpxECRs52hySodRGYW" ] },
      { "delegate": "tz1UMCB2AHSTwG7YcGNr31CqYCtGN873royv",
        "reception_time": "2022-01-19T06:15:08.608-00:00",
        "included_in_blocks":
          [ "BMKCzCKm4yYV2zrykspGiPXcWY9ughLUjNpxECRs52hySodRGYW" ] },
      { "delegate": "tz1XWjJDAUnjgrLqCBnvB6icFBy5CDFxMmdg",
        "reception_time": "2022-01-19T06:15:08.611-00:00",
        "included_in_blocks":
          [ "BMKCzCKm4yYV2zrykspGiPXcWY9ughLUjNpxECRs52hySodRGYW" ] },
      { "delegate": "tz1Tnjaxk6tbAeC2TmMApPh8UsrEVQvhHvx5",
        "reception_time": "2022-01-19T06:15:08.468-00:00",
        "included_in_blocks":
          [ "BMKCzCKm4yYV2zrykspGiPXcWY9ughLUjNpxECRs52hySodRGYW" ] },
      { "delegate": "tz1PWCDnz783NNGGQjEFFsHtrcK5yBW4E2rm",
        "reception_time": "2022-01-19T06:15:08.351-00:00",
        "included_in_blocks":
          [ "BMKCzCKm4yYV2zrykspGiPXcWY9ughLUjNpxECRs52hySodRGYW" ] },
      { "delegate": "tz3iJu5vrKZcsqRPs8yJ61UDoeEXZmtro4qh",
        "reception_time": "2022-01-19T06:15:08.351-00:00",
        "included_in_blocks":
          [ "BMKCzCKm4yYV2zrykspGiPXcWY9ughLUjNpxECRs52hySodRGYW" ] },
      { "delegate": "tz3Zhs2dygr55yHyQyKjntAtY9bgfhLZ4Xj1",
        "reception_time": "2022-01-19T06:15:08.351-00:00",
        "included_in_blocks":
          [ "BMKCzCKm4yYV2zrykspGiPXcWY9ughLUjNpxECRs52hySodRGYW" ] },
      { "delegate": "tz3e7LbZvUtoXhpUD1yb6wuFodZpfYRb9nWJ",
        "reception_time": "2022-01-19T06:15:08.351-00:00",
        "included_in_blocks":
          [ "BMKCzCKm4yYV2zrykspGiPXcWY9ughLUjNpxECRs52hySodRGYW" ] },
      { "delegate": "tz1dNVDWPf3Q59SdJqnjdnu277iyvReiRS9M",
        "reception_time": "2022-01-19T06:15:08.365-00:00",
        "included_in_blocks":
          [ "BMKCzCKm4yYV2zrykspGiPXcWY9ughLUjNpxECRs52hySodRGYW" ] },
      { "delegate": "tz3QT9dHYKDqh563chVa6za8526ys1UKfRfL",
        "reception_time": "2022-01-19T06:15:08.351-00:00",
        "included_in_blocks":
          [ "BMKCzCKm4yYV2zrykspGiPXcWY9ughLUjNpxECRs52hySodRGYW" ] },
      { "delegate": "tz1V4qCyvPKZ5UeqdH14HN42rxvNPQfc9UZg",
        "reception_time": "2022-01-19T06:15:08.461-00:00",
        "included_in_blocks":
          [ "BMKCzCKm4yYV2zrykspGiPXcWY9ughLUjNpxECRs52hySodRGYW" ] },
      { "delegate": "tz3S6BBeKgJGXxvLyZ1xzXzMPn11nnFtq5L9",
        "reception_time": "2022-01-19T06:15:08.351-00:00",
        "included_in_blocks":
          [ "BMKCzCKm4yYV2zrykspGiPXcWY9ughLUjNpxECRs52hySodRGYW" ] },
      { "delegate": "tz1abmz7jiCV2GH2u81LRrGgAFFgvQgiDiaf",
        "reception_time": "2022-01-19T06:15:08.351-00:00",
        "included_in_blocks":
          [ "BMKCzCKm4yYV2zrykspGiPXcWY9ughLUjNpxECRs52hySodRGYW" ] },
      { "delegate": "tz1S8MNvuFEUsWgjHvi3AxibRBf388NhT1q2",
        "reception_time": "2022-01-19T06:15:08.541-00:00",
        "included_in_blocks":
          [ "BMKCzCKm4yYV2zrykspGiPXcWY9ughLUjNpxECRs52hySodRGYW" ] },
      { "delegate": "tz1RCFbB9GpALpsZtu6J58sb74dm8qe6XBzv",
        "reception_time": "2022-01-19T06:15:08.351-00:00",
        "included_in_blocks":
          [ "BMKCzCKm4yYV2zrykspGiPXcWY9ughLUjNpxECRs52hySodRGYW" ] },
      { "delegate": "tz1Ldzz6k1BHdhuKvAtMRX7h5kJSMHESMHLC",
        "reception_time": "2022-01-19T06:15:08.027-00:00",
        "included_in_blocks":
          [ "BMKCzCKm4yYV2zrykspGiPXcWY9ughLUjNpxECRs52hySodRGYW" ] },
      { "delegate": "tz3hw2kqXhLUvY65ca1eety2oQTpAvd34R9Q",
        "reception_time": "2022-01-19T06:15:08.027-00:00",
        "included_in_blocks":
          [ "BMKCzCKm4yYV2zrykspGiPXcWY9ughLUjNpxECRs52hySodRGYW" ] },
      { "delegate": "tz1WCd2jm4uSt4vntk4vSuUWoZQGhLcDuR9q",
        "reception_time": "2022-01-19T06:15:08.027-00:00",
        "included_in_blocks":
          [ "BMKCzCKm4yYV2zrykspGiPXcWY9ughLUjNpxECRs52hySodRGYW" ] },
      { "delegate": "tz1gfArv665EUkSg2ojMBzcbfwuPxAvqPvjo",
        "reception_time": "2022-01-19T06:15:08.351-00:00",
        "included_in_blocks":
          [ "BMKCzCKm4yYV2zrykspGiPXcWY9ughLUjNpxECRs52hySodRGYW" ] },
      { "delegate": "tz3gtoUxdudfBRcNY7iVdKPHCYYX6xdPpoRS",
        "reception_time": "2022-01-19T06:15:08.027-00:00",
        "included_in_blocks":
          [ "BMKCzCKm4yYV2zrykspGiPXcWY9ughLUjNpxECRs52hySodRGYW" ] },
      { "delegate": "tz1irJKkXS2DBWkU1NnmFQx1c1L7pbGg4yhk",
        "reception_time": "2022-01-19T06:15:08.027-00:00",
        "included_in_blocks":
          [ "BMKCzCKm4yYV2zrykspGiPXcWY9ughLUjNpxECRs52hySodRGYW" ] },
      { "delegate": "tz3RKYFsLuQzKBtmYuLNas7uMu3AsYd4QdsA",
        "reception_time": "2022-01-19T06:15:08.351-00:00",
        "included_in_blocks":
          [ "BMKCzCKm4yYV2zrykspGiPXcWY9ughLUjNpxECRs52hySodRGYW" ] },
      { "delegate": "tz1VQnqCCqX4K5sP3FNkVSNKTdCAMJDd3E1n",
        "reception_time": "2022-01-19T06:15:08.351-00:00",
        "included_in_blocks":
          [ "BMKCzCKm4yYV2zrykspGiPXcWY9ughLUjNpxECRs52hySodRGYW" ] },
      { "delegate": "tz1gUNyn3hmnEWqkusWPzxRaon1cs7ndWh7h",
        "reception_time": "2022-01-19T06:15:08.027-00:00",
        "included_in_blocks":
          [ "BMKCzCKm4yYV2zrykspGiPXcWY9ughLUjNpxECRs52hySodRGYW" ] },
      { "delegate": "tz1ei4WtWEMEJekSv8qDnu9PExG6Q8HgRGr3",
        "reception_time": "2022-01-19T06:15:08.351-00:00",
        "included_in_blocks":
          [ "BMKCzCKm4yYV2zrykspGiPXcWY9ughLUjNpxECRs52hySodRGYW" ] },
      { "delegate": "tz1SYq214SCBy9naR6cvycQsYcUGpBqQAE8d",
        "reception_time": "2022-01-19T06:15:08.351-00:00",
        "included_in_blocks":
          [ "BMKCzCKm4yYV2zrykspGiPXcWY9ughLUjNpxECRs52hySodRGYW" ] },
      { "delegate": "tz3ZbP2pM3nwvXztbuMJwJnDvV5xdpU8UkkD",
        "reception_time": "2022-01-19T06:15:08.027-00:00",
        "included_in_blocks":
          [ "BMKCzCKm4yYV2zrykspGiPXcWY9ughLUjNpxECRs52hySodRGYW" ] },
      { "delegate": "tz3QSGPoRp3Kn7n3vY24eYeu3Peuqo45LQ4D",
        "reception_time": "2022-01-19T06:15:08.351-00:00",
        "included_in_blocks":
          [ "BMKCzCKm4yYV2zrykspGiPXcWY9ughLUjNpxECRs52hySodRGYW" ] },
      { "delegate": "tz1aXD7Jigrt3PBYSpHSg5Rr33SexMmmM5Ys",
        "reception_time": "2022-01-19T06:15:08.351-00:00",
        "included_in_blocks":
          [ "BMKCzCKm4yYV2zrykspGiPXcWY9ughLUjNpxECRs52hySodRGYW" ] } ] }