{ "blocks":
    [ { "hash": "BL2kX8WyQSpE7QeBfycukrPreKiAsT6C4hmEwwqgsvH8Ho6vD13",
        "delegate": "tz1irJKkXS2DBWkU1NnmFQx1c1L7pbGg4yhk",
        "reception_time": "2022-01-19T08:56:48.436-00:00",
        "timestamp": "2022-01-19T08:56:40Z" } ],
  "endorsements":
    [ { "delegate": "tz1VmiY38m3y95HqQLjMwqnMS7sdMfGomzKi",
        "reception_time": "2022-01-19T08:56:48.405-00:00",
        "errors":
          [ { "kind": "temporary",
              "id": "proto.011-PtHangz2.prefilter.outdated_endorsement" } ],
        "included_in_blocks":
          [ "BLj7Q2PpDdnqE7HpL9W6MuU3FNQpZb7hyBsnxCL8tgKwp7SM8cC" ] },
      { "delegate": "tz3adcvQaKXTCg12zbninqo3q8ptKKtDFTLv",
        "reception_time": "2022-01-19T08:56:48.356-00:00",
        "errors":
          [ { "kind": "temporary",
              "id": "proto.011-PtHangz2.prefilter.outdated_endorsement" } ],
        "included_in_blocks":
          [ "BLj7Q2PpDdnqE7HpL9W6MuU3FNQpZb7hyBsnxCL8tgKwp7SM8cC" ] },
      { "delegate": "tz1RV1MBbZMR68tacosb7Mwj6LkbPSUS1er1",
        "reception_time": "2022-01-19T08:56:48.340-00:00",
        "errors":
          [ { "kind": "temporary",
              "id": "proto.011-PtHangz2.prefilter.outdated_endorsement" } ],
        "included_in_blocks":
          [ "BLj7Q2PpDdnqE7HpL9W6MuU3FNQpZb7hyBsnxCL8tgKwp7SM8cC" ] },
      { "delegate": "tz1bsdrs36X5BTH83RHUBdUouKLJZK8d2oBa",
        "reception_time": "2022-01-19T08:56:48.256-00:00",
        "errors":
          [ { "kind": "temporary",
              "id": "proto.011-PtHangz2.prefilter.outdated_endorsement" } ],
        "included_in_blocks":
          [ "BLj7Q2PpDdnqE7HpL9W6MuU3FNQpZb7hyBsnxCL8tgKwp7SM8cC" ] },
      { "delegate": "tz1eEnQhbwf6trb8Q8mPb2RaPkNk2rN7BKi8",
        "reception_time": "2022-01-19T08:56:48.245-00:00",
        "errors":
          [ { "kind": "temporary",
              "id": "proto.011-PtHangz2.prefilter.outdated_endorsement" } ],
        "included_in_blocks":
          [ "BLj7Q2PpDdnqE7HpL9W6MuU3FNQpZb7hyBsnxCL8tgKwp7SM8cC" ] },
      { "delegate": "tz1irJKkXS2DBWkU1NnmFQx1c1L7pbGg4yhk",
        "reception_time": "2022-01-19T08:56:47.818-00:00",
        "errors":
          [ { "kind": "temporary",
              "id": "proto.011-PtHangz2.prefilter.outdated_endorsement" } ],
        "included_in_blocks":
          [ "BLj7Q2PpDdnqE7HpL9W6MuU3FNQpZb7hyBsnxCL8tgKwp7SM8cC" ] },
      { "delegate": "tz1P2Po7YM526ughEsRbY4oR9zaUPDZjxFrb",
        "reception_time": "2022-01-19T08:56:47.654-00:00",
        "errors":
          [ { "kind": "temporary",
              "id": "proto.011-PtHangz2.prefilter.outdated_endorsement" } ],
        "included_in_blocks":
          [ "BLj7Q2PpDdnqE7HpL9W6MuU3FNQpZb7hyBsnxCL8tgKwp7SM8cC" ] },
      { "delegate": "tz1Lhf4J9Qxoe3DZ2nfe8FGDnvVj7oKjnMY6",
        "reception_time": "2022-01-19T08:56:47.540-00:00",
        "errors":
          [ { "kind": "temporary",
              "id": "proto.011-PtHangz2.prefilter.outdated_endorsement" } ],
        "included_in_blocks":
          [ "BLj7Q2PpDdnqE7HpL9W6MuU3FNQpZb7hyBsnxCL8tgKwp7SM8cC" ] },
      { "delegate": "tz1TXzyaKUA8wsWefdSnyaYFnV2M3vCV7er9",
        "reception_time": "2022-01-19T08:56:47.531-00:00",
        "errors":
          [ { "kind": "temporary",
              "id": "proto.011-PtHangz2.prefilter.outdated_endorsement" } ],
        "included_in_blocks":
          [ "BLj7Q2PpDdnqE7HpL9W6MuU3FNQpZb7hyBsnxCL8tgKwp7SM8cC" ] },
      { "delegate": "tz1Zhv3RkfU2pHrmaiDyxp7kFZpZrUCu1CiF",
        "reception_time": "2022-01-19T08:56:47.305-00:00",
        "errors":
          [ { "kind": "temporary",
              "id": "proto.011-PtHangz2.prefilter.outdated_endorsement" } ],
        "included_in_blocks":
          [ "BLj7Q2PpDdnqE7HpL9W6MuU3FNQpZb7hyBsnxCL8tgKwp7SM8cC" ] },
      { "delegate": "tz1S8e9GgdZG78XJRB3NqabfWeM37GnhZMWQ",
        "reception_time": "2022-01-19T08:56:47.062-00:00",
        "errors":
          [ { "kind": "temporary",
              "id": "proto.011-PtHangz2.prefilter.outdated_endorsement" } ],
        "included_in_blocks":
          [ "BLj7Q2PpDdnqE7HpL9W6MuU3FNQpZb7hyBsnxCL8tgKwp7SM8cC" ] },
      { "delegate": "tz1W5VkdB5s7ENMESVBtwyt9kyvLqPcUczRT" },
      { "delegate": "tz1ibcPVGK4Y8pcW4BYUsojiHoBKnZbyDGrX" },
      { "delegate": "tz1gUNyn3hmnEWqkusWPzxRaon1cs7ndWh7h",
        "reception_time": "2022-01-19T08:56:49.124-00:00",
        "included_in_blocks":
          [ "BLj7Q2PpDdnqE7HpL9W6MuU3FNQpZb7hyBsnxCL8tgKwp7SM8cC" ] },
      { "delegate": "tz1Kt4P8BCaP93AEV4eA7gmpRryWt5hznjCP",
        "reception_time": "2022-01-19T08:56:49.848-00:00",
        "included_in_blocks":
          [ "BLj7Q2PpDdnqE7HpL9W6MuU3FNQpZb7hyBsnxCL8tgKwp7SM8cC" ] },
      { "delegate": "tz1ei4WtWEMEJekSv8qDnu9PExG6Q8HgRGr3",
        "reception_time": "2022-01-19T08:56:49.848-00:00",
        "included_in_blocks":
          [ "BLj7Q2PpDdnqE7HpL9W6MuU3FNQpZb7hyBsnxCL8tgKwp7SM8cC" ] },
      { "delegate": "tz1Ldzz6k1BHdhuKvAtMRX7h5kJSMHESMHLC",
        "reception_time": "2022-01-19T08:56:49.848-00:00",
        "included_in_blocks":
          [ "BLj7Q2PpDdnqE7HpL9W6MuU3FNQpZb7hyBsnxCL8tgKwp7SM8cC" ] },
      { "delegate": "tz3QT9dHYKDqh563chVa6za8526ys1UKfRfL",
        "reception_time": "2022-01-19T08:56:49.848-00:00",
        "included_in_blocks":
          [ "BLj7Q2PpDdnqE7HpL9W6MuU3FNQpZb7hyBsnxCL8tgKwp7SM8cC" ] },
      { "delegate": "tz1WCd2jm4uSt4vntk4vSuUWoZQGhLcDuR9q",
        "reception_time": "2022-01-19T08:56:50.194-00:00",
        "included_in_blocks":
          [ "BLj7Q2PpDdnqE7HpL9W6MuU3FNQpZb7hyBsnxCL8tgKwp7SM8cC" ] },
      { "delegate": "tz3iJu5vrKZcsqRPs8yJ61UDoeEXZmtro4qh",
        "reception_time": "2022-01-19T08:56:50.194-00:00",
        "included_in_blocks":
          [ "BLj7Q2PpDdnqE7HpL9W6MuU3FNQpZb7hyBsnxCL8tgKwp7SM8cC" ] },
      { "delegate": "tz1aqcYgG6NuViML5vdWhohHJBYxcDVLNUsE",
        "reception_time": "2022-01-19T08:56:50.194-00:00",
        "included_in_blocks":
          [ "BLj7Q2PpDdnqE7HpL9W6MuU3FNQpZb7hyBsnxCL8tgKwp7SM8cC" ] },
      { "delegate": "tz3S6BBeKgJGXxvLyZ1xzXzMPn11nnFtq5L9",
        "reception_time": "2022-01-19T08:56:50.194-00:00",
        "included_in_blocks":
          [ "BLj7Q2PpDdnqE7HpL9W6MuU3FNQpZb7hyBsnxCL8tgKwp7SM8cC" ] },
      { "delegate": "tz1VQnqCCqX4K5sP3FNkVSNKTdCAMJDd3E1n",
        "reception_time": "2022-01-19T08:56:50.194-00:00",
        "included_in_blocks":
          [ "BLj7Q2PpDdnqE7HpL9W6MuU3FNQpZb7hyBsnxCL8tgKwp7SM8cC" ] },
      { "delegate": "tz3QSGPoRp3Kn7n3vY24eYeu3Peuqo45LQ4D",
        "reception_time": "2022-01-19T08:56:50.194-00:00",
        "included_in_blocks":
          [ "BLj7Q2PpDdnqE7HpL9W6MuU3FNQpZb7hyBsnxCL8tgKwp7SM8cC" ] },
      { "delegate": "tz3NxTnke1acr8o3h5y9ytf5awQBGNJUKzVU",
        "reception_time": "2022-01-19T08:56:50.194-00:00",
        "included_in_blocks":
          [ "BLj7Q2PpDdnqE7HpL9W6MuU3FNQpZb7hyBsnxCL8tgKwp7SM8cC" ] },
      { "delegate": "tz1cZfFQpcYhwDp7y1njZXDsZqCrn2NqmVof",
        "reception_time": "2022-01-19T08:56:50.194-00:00",
        "included_in_blocks":
          [ "BLj7Q2PpDdnqE7HpL9W6MuU3FNQpZb7hyBsnxCL8tgKwp7SM8cC" ] },
      { "delegate": "tz1d6Fx42mYgVFnHUW8T8A7WBfJ6nD9pVok8",
        "reception_time": "2022-01-19T08:56:50.194-00:00",
        "included_in_blocks":
          [ "BLj7Q2PpDdnqE7HpL9W6MuU3FNQpZb7hyBsnxCL8tgKwp7SM8cC" ] },
      { "delegate": "tz3ZbP2pM3nwvXztbuMJwJnDvV5xdpU8UkkD",
        "reception_time": "2022-01-19T08:56:50.194-00:00",
        "included_in_blocks":
          [ "BLj7Q2PpDdnqE7HpL9W6MuU3FNQpZb7hyBsnxCL8tgKwp7SM8cC" ] },
      { "delegate": "tz3hw2kqXhLUvY65ca1eety2oQTpAvd34R9Q",
        "reception_time": "2022-01-19T08:56:50.194-00:00",
        "included_in_blocks":
          [ "BLj7Q2PpDdnqE7HpL9W6MuU3FNQpZb7hyBsnxCL8tgKwp7SM8cC" ] },
      { "delegate": "tz3gtoUxdudfBRcNY7iVdKPHCYYX6xdPpoRS",
        "reception_time": "2022-01-19T08:56:50.194-00:00",
        "included_in_blocks":
          [ "BLj7Q2PpDdnqE7HpL9W6MuU3FNQpZb7hyBsnxCL8tgKwp7SM8cC" ] },
      { "delegate": "tz3RKYFsLuQzKBtmYuLNas7uMu3AsYd4QdsA",
        "reception_time": "2022-01-19T08:56:50.194-00:00",
        "included_in_blocks":
          [ "BLj7Q2PpDdnqE7HpL9W6MuU3FNQpZb7hyBsnxCL8tgKwp7SM8cC" ] },
      { "delegate": "tz1beersuEDv8Z7ngQ825xfbaJNS2EhXnyHR",
        "reception_time": "2022-01-19T08:56:50.194-00:00",
        "included_in_blocks":
          [ "BLj7Q2PpDdnqE7HpL9W6MuU3FNQpZb7hyBsnxCL8tgKwp7SM8cC" ] },
      { "delegate": "tz1RCFbB9GpALpsZtu6J58sb74dm8qe6XBzv",
        "reception_time": "2022-01-19T08:56:50.194-00:00",
        "included_in_blocks":
          [ "BLj7Q2PpDdnqE7HpL9W6MuU3FNQpZb7hyBsnxCL8tgKwp7SM8cC" ] },
      { "delegate": "tz1Nf6tsK4G6bBqgSQERy4nUtkHNKUVdh7q1",
        "reception_time": "2022-01-19T08:56:50.194-00:00",
        "included_in_blocks":
          [ "BLj7Q2PpDdnqE7HpL9W6MuU3FNQpZb7hyBsnxCL8tgKwp7SM8cC" ] },
      { "delegate": "tz1MQJPGNMijnXnVoBENFz9rUhaPt3S7rWoz",
        "reception_time": "2022-01-19T08:56:50.194-00:00",
        "included_in_blocks":
          [ "BLj7Q2PpDdnqE7HpL9W6MuU3FNQpZb7hyBsnxCL8tgKwp7SM8cC" ] },
      { "delegate": "tz1gfArv665EUkSg2ojMBzcbfwuPxAvqPvjo",
        "reception_time": "2022-01-19T08:56:50.194-00:00",
        "included_in_blocks":
          [ "BLj7Q2PpDdnqE7HpL9W6MuU3FNQpZb7hyBsnxCL8tgKwp7SM8cC" ] },
      { "delegate": "tz1MQMiZHV8q4tTwUMWmS5Y3kaP6J2136iXr",
        "reception_time": "2022-01-19T08:56:50.194-00:00",
        "included_in_blocks":
          [ "BLj7Q2PpDdnqE7HpL9W6MuU3FNQpZb7hyBsnxCL8tgKwp7SM8cC" ] },
      { "delegate": "tz1h4GUAMweP7SNWzDgvMk3yRCAZyaP1MxZq",
        "reception_time": "2022-01-19T08:56:50.194-00:00",
        "included_in_blocks":
          [ "BLj7Q2PpDdnqE7HpL9W6MuU3FNQpZb7hyBsnxCL8tgKwp7SM8cC" ] },
      { "delegate": "tz1dNVDWPf3Q59SdJqnjdnu277iyvReiRS9M",
        "reception_time": "2022-01-19T08:56:50.194-00:00",
        "included_in_blocks":
          [ "BLj7Q2PpDdnqE7HpL9W6MuU3FNQpZb7hyBsnxCL8tgKwp7SM8cC" ] },
      { "delegate": "tz1TEc75UKXv4W5cwi14Na3NtqFD51yKQi7h",
        "reception_time": "2022-01-19T08:56:50.194-00:00",
        "included_in_blocks":
          [ "BLj7Q2PpDdnqE7HpL9W6MuU3FNQpZb7hyBsnxCL8tgKwp7SM8cC" ] },
      { "delegate": "tz3bTdwZinP8U1JmSweNzVKhmwafqWmFWRfk",
        "reception_time": "2022-01-19T08:56:50.194-00:00",
        "included_in_blocks":
          [ "BLj7Q2PpDdnqE7HpL9W6MuU3FNQpZb7hyBsnxCL8tgKwp7SM8cC" ] },
      { "delegate": "tz3RB4aoyjov4KEVRbuhvQ1CKJgBJMWhaeB8",
        "reception_time": "2022-01-19T08:56:50.194-00:00",
        "included_in_blocks":
          [ "BLj7Q2PpDdnqE7HpL9W6MuU3FNQpZb7hyBsnxCL8tgKwp7SM8cC" ] },
      { "delegate": "tz1SYq214SCBy9naR6cvycQsYcUGpBqQAE8d",
        "reception_time": "2022-01-19T08:56:50.194-00:00",
        "included_in_blocks":
          [ "BLj7Q2PpDdnqE7HpL9W6MuU3FNQpZb7hyBsnxCL8tgKwp7SM8cC" ] },
      { "delegate": "tz1S8MNvuFEUsWgjHvi3AxibRBf388NhT1q2",
        "reception_time": "2022-01-19T08:56:50.194-00:00",
        "included_in_blocks":
          [ "BLj7Q2PpDdnqE7HpL9W6MuU3FNQpZb7hyBsnxCL8tgKwp7SM8cC" ] },
      { "delegate": "tz1UMCB2AHSTwG7YcGNr31CqYCtGN873royv",
        "reception_time": "2022-01-19T08:56:50.194-00:00",
        "included_in_blocks":
          [ "BLj7Q2PpDdnqE7HpL9W6MuU3FNQpZb7hyBsnxCL8tgKwp7SM8cC" ] },
      { "delegate": "tz2FCNBrERXtaTtNX6iimR1UJ5JSDxvdHM93",
        "reception_time": "2022-01-19T08:56:50.194-00:00",
        "included_in_blocks":
          [ "BLj7Q2PpDdnqE7HpL9W6MuU3FNQpZb7hyBsnxCL8tgKwp7SM8cC" ] },
      { "delegate": "tz1WBfwbT66FC6BTLexc2BoyCCBM9LG7pnVW",
        "reception_time": "2022-01-19T08:56:50.198-00:00",
        "included_in_blocks":
          [ "BLj7Q2PpDdnqE7HpL9W6MuU3FNQpZb7hyBsnxCL8tgKwp7SM8cC" ] },
      { "delegate": "tz1KfEsrtDaA1sX7vdM4qmEPWuSytuqCDp5j",
        "reception_time": "2022-01-19T08:56:50.216-00:00",
        "included_in_blocks":
          [ "BLj7Q2PpDdnqE7HpL9W6MuU3FNQpZb7hyBsnxCL8tgKwp7SM8cC" ] },
      { "delegate": "tz1fqRos6byDAwP4aUWXy3vHnqGEGbWFRXb7",
        "reception_time": "2022-01-19T08:56:50.244-00:00",
        "included_in_blocks":
          [ "BLj7Q2PpDdnqE7HpL9W6MuU3FNQpZb7hyBsnxCL8tgKwp7SM8cC" ] },
      { "delegate": "tz1Tnjaxk6tbAeC2TmMApPh8UsrEVQvhHvx5",
        "reception_time": "2022-01-19T08:56:50.488-00:00",
        "included_in_blocks":
          [ "BLj7Q2PpDdnqE7HpL9W6MuU3FNQpZb7hyBsnxCL8tgKwp7SM8cC" ] },
      { "delegate": "tz1WctSwL49BZtdWAQ75NY6vr4xsAx6oKdah",
        "reception_time": "2022-01-19T08:56:50.648-00:00",
        "included_in_blocks":
          [ "BLj7Q2PpDdnqE7HpL9W6MuU3FNQpZb7hyBsnxCL8tgKwp7SM8cC" ] },
      { "delegate": "tz1RjoHc98dBoqaH2jawF62XNKh7YsHwbkEv",
        "reception_time": "2022-01-19T08:56:50.767-00:00",
        "included_in_blocks":
          [ "BLj7Q2PpDdnqE7HpL9W6MuU3FNQpZb7hyBsnxCL8tgKwp7SM8cC" ] },
      { "delegate": "tz1abmz7jiCV2GH2u81LRrGgAFFgvQgiDiaf",
        "reception_time": "2022-01-19T08:56:50.787-00:00",
        "included_in_blocks":
          [ "BLj7Q2PpDdnqE7HpL9W6MuU3FNQpZb7hyBsnxCL8tgKwp7SM8cC" ] },
      { "delegate": "tz1TRqbYbUf2GyrjErf3hBzgBJPzW8y36qEs",
        "reception_time": "2022-01-19T08:56:50.825-00:00",
        "included_in_blocks":
          [ "BLj7Q2PpDdnqE7HpL9W6MuU3FNQpZb7hyBsnxCL8tgKwp7SM8cC" ] },
      { "delegate": "tz1Zdk8q7wNasmv7VFeQ6QFwcw5fP2c7StoF",
        "reception_time": "2022-01-19T08:56:50.847-00:00",
        "included_in_blocks":
          [ "BLj7Q2PpDdnqE7HpL9W6MuU3FNQpZb7hyBsnxCL8tgKwp7SM8cC" ] },
      { "delegate": "tz3gLTu4Yxj8tPAcriQVUdxv6BY9QyvzU1az",
        "reception_time": "2022-01-19T08:56:50.917-00:00",
        "included_in_blocks":
          [ "BLj7Q2PpDdnqE7HpL9W6MuU3FNQpZb7hyBsnxCL8tgKwp7SM8cC" ] },
      { "delegate": "tz3bvNMQ95vfAYtG8193ymshqjSvmxiCUuR5",
        "reception_time": "2022-01-19T08:56:50.937-00:00",
        "included_in_blocks":
          [ "BLj7Q2PpDdnqE7HpL9W6MuU3FNQpZb7hyBsnxCL8tgKwp7SM8cC" ] },
      { "delegate": "tz1dRKU4FQ9QRRQPdaH4zCR6gmCmXfcvcgtB",
        "reception_time": "2022-01-19T08:56:50.941-00:00",
        "included_in_blocks":
          [ "BLj7Q2PpDdnqE7HpL9W6MuU3FNQpZb7hyBsnxCL8tgKwp7SM8cC" ] },
      { "delegate": "tz3NDpRj6WBrJPikcPVHRBEjWKxFw3c6eQPS",
        "reception_time": "2022-01-19T08:56:50.968-00:00",
        "included_in_blocks":
          [ "BLj7Q2PpDdnqE7HpL9W6MuU3FNQpZb7hyBsnxCL8tgKwp7SM8cC" ] },
      { "delegate": "tz1NSDFKuRyzHxpfG1AMkyCwEiZ52cbR2mRW",
        "reception_time": "2022-01-19T08:56:50.999-00:00",
        "included_in_blocks":
          [ "BLj7Q2PpDdnqE7HpL9W6MuU3FNQpZb7hyBsnxCL8tgKwp7SM8cC" ] },
      { "delegate": "tz3WMqdzXqRWXwyvj5Hp2H7QEepaUuS7vd9K",
        "reception_time": "2022-01-19T08:56:51.085-00:00",
        "included_in_blocks":
          [ "BLj7Q2PpDdnqE7HpL9W6MuU3FNQpZb7hyBsnxCL8tgKwp7SM8cC" ] },
      { "delegate": "tz1T7duV5gZWSTq4YpBGbXNLTfznCLDrFxvs",
        "reception_time": "2022-01-19T08:56:51.371-00:00",
        "included_in_blocks":
          [ "BLj7Q2PpDdnqE7HpL9W6MuU3FNQpZb7hyBsnxCL8tgKwp7SM8cC" ] },
      { "delegate": "tz3RDC3Jdn4j15J7bBHZd29EUee9gVB1CxD9",
        "reception_time": "2022-01-19T08:56:51.565-00:00",
        "included_in_blocks":
          [ "BLj7Q2PpDdnqE7HpL9W6MuU3FNQpZb7hyBsnxCL8tgKwp7SM8cC" ] },
      { "delegate": "tz1cYufsxHXJcvANhvS55h3aY32a9BAFB494",
        "reception_time": "2022-01-19T08:56:51.586-00:00",
        "included_in_blocks":
          [ "BLj7Q2PpDdnqE7HpL9W6MuU3FNQpZb7hyBsnxCL8tgKwp7SM8cC" ] },
      { "delegate": "tz3VEZ4k6a4Wx42iyev6i2aVAptTRLEAivNN",
        "reception_time": "2022-01-19T08:56:51.741-00:00",
        "included_in_blocks":
          [ "BLj7Q2PpDdnqE7HpL9W6MuU3FNQpZb7hyBsnxCL8tgKwp7SM8cC" ] },
      { "delegate": "tz3NExpXn9aPNZPorRE4SdjJ2RGrfbJgMAaV",
        "reception_time": "2022-01-19T08:56:52.078-00:00",
        "included_in_blocks":
          [ "BLj7Q2PpDdnqE7HpL9W6MuU3FNQpZb7hyBsnxCL8tgKwp7SM8cC" ] },
      { "delegate": "tz3UoffC7FG7zfpmvmjUmUeAaHvzdcUvAj6r",
        "reception_time": "2022-01-19T08:56:52.182-00:00",
        "included_in_blocks":
          [ "BLj7Q2PpDdnqE7HpL9W6MuU3FNQpZb7hyBsnxCL8tgKwp7SM8cC" ] },
      { "delegate": "tz1awXW7wuXy21c66vBudMXQVAPgRnqqwgTH",
        "reception_time": "2022-01-19T08:56:52.615-00:00",
        "included_in_blocks":
          [ "BLj7Q2PpDdnqE7HpL9W6MuU3FNQpZb7hyBsnxCL8tgKwp7SM8cC" ] },
      { "delegate": "tz1ivoFEvbfbUNav5FwLvmxzMGcNXWxY9qTD",
        "reception_time": "2022-01-19T08:56:52.668-00:00",
        "included_in_blocks":
          [ "BLj7Q2PpDdnqE7HpL9W6MuU3FNQpZb7hyBsnxCL8tgKwp7SM8cC" ] },
      { "delegate": "tz1aJS7Pk9uWR3wWyFf1i3RwhYxN84G7stom",
        "reception_time": "2022-01-19T08:56:53.599-00:00",
        "included_in_blocks":
          [ "BLj7Q2PpDdnqE7HpL9W6MuU3FNQpZb7hyBsnxCL8tgKwp7SM8cC" ] },
      { "delegate": "tz1aRoaRhSpRYvFdyvgWLL6TGyRoGF51wDjM",
        "reception_time": "2022-01-19T08:56:53.603-00:00",
        "included_in_blocks":
          [ "BLj7Q2PpDdnqE7HpL9W6MuU3FNQpZb7hyBsnxCL8tgKwp7SM8cC" ] },
      { "delegate": "tz3bEQoFCZEEfZMskefZ8q8e4eiHH1pssRax",
        "reception_time": "2022-01-19T08:56:55.546-00:00",
        "included_in_blocks":
          [ "BLj7Q2PpDdnqE7HpL9W6MuU3FNQpZb7hyBsnxCL8tgKwp7SM8cC" ] } ] }