{ "blocks":
    [ { "hash": "BLsV2r9e8jfBx9LifrHX5zXemykR9TLLJQfdqFa71kMPPBdw8Hf",
        "delegate": "tz1irJKkXS2DBWkU1NnmFQx1c1L7pbGg4yhk",
        "reception_time": "2022-01-19T02:48:15.774-00:00",
        "timestamp": "2022-01-19T02:48:10Z" } ],
  "endorsements":
    [ { "delegate": "tz1ibcPVGK4Y8pcW4BYUsojiHoBKnZbyDGrX" },
      { "delegate": "tz1Vyuu4EJ5Nym4JcrfRLnp3hpaq1DSEp1Ke" },
      { "delegate": "tz1SYq214SCBy9naR6cvycQsYcUGpBqQAE8d" },
      { "delegate": "tz1irJKkXS2DBWkU1NnmFQx1c1L7pbGg4yhk",
        "reception_time": "2022-01-19T02:48:15.691-00:00",
        "errors":
          [ { "kind": "temporary",
              "id": "proto.011-PtHangz2.prefilter.outdated_endorsement" } ],
        "included_in_blocks":
          [ "BKxojkStyDePxScBHCvYpdkrJPwnGrfdiNRqvXF9Yaa5nYU5ZxB" ] },
      { "delegate": "tz1TXzyaKUA8wsWefdSnyaYFnV2M3vCV7er9",
        "reception_time": "2022-01-19T02:48:15.669-00:00",
        "errors":
          [ { "kind": "temporary",
              "id": "proto.011-PtHangz2.prefilter.outdated_endorsement" } ],
        "included_in_blocks":
          [ "BKxojkStyDePxScBHCvYpdkrJPwnGrfdiNRqvXF9Yaa5nYU5ZxB" ] },
      { "delegate": "tz1eEnQhbwf6trb8Q8mPb2RaPkNk2rN7BKi8",
        "reception_time": "2022-01-19T02:48:15.590-00:00",
        "errors":
          [ { "kind": "temporary",
              "id": "proto.011-PtHangz2.prefilter.outdated_endorsement" } ],
        "included_in_blocks":
          [ "BKxojkStyDePxScBHCvYpdkrJPwnGrfdiNRqvXF9Yaa5nYU5ZxB" ] },
      { "delegate": "tz1Scdr2HsZiQjc7bHMeBbmDRXYVvdhjJbBh",
        "reception_time": "2022-01-19T02:48:15.445-00:00",
        "errors":
          [ { "kind": "temporary",
              "id": "proto.011-PtHangz2.prefilter.outdated_endorsement" } ],
        "included_in_blocks":
          [ "BKxojkStyDePxScBHCvYpdkrJPwnGrfdiNRqvXF9Yaa5nYU5ZxB" ] },
      { "delegate": "tz1beersuEDv8Z7ngQ825xfbaJNS2EhXnyHR",
        "reception_time": "2022-01-19T02:48:15.312-00:00",
        "errors":
          [ { "kind": "temporary",
              "id": "proto.011-PtHangz2.prefilter.outdated_endorsement" } ],
        "included_in_blocks":
          [ "BKxojkStyDePxScBHCvYpdkrJPwnGrfdiNRqvXF9Yaa5nYU5ZxB" ] },
      { "delegate": "tz1S8e9GgdZG78XJRB3NqabfWeM37GnhZMWQ",
        "reception_time": "2022-01-19T02:48:15.184-00:00",
        "errors":
          [ { "kind": "temporary",
              "id": "proto.011-PtHangz2.prefilter.outdated_endorsement" } ],
        "included_in_blocks":
          [ "BKxojkStyDePxScBHCvYpdkrJPwnGrfdiNRqvXF9Yaa5nYU5ZxB" ] },
      { "delegate": "tz1NpWrAyDL9k2Lmnyxcgr9xuJakbBxdq7FB",
        "reception_time": "2022-01-19T02:48:27.401-00:00",
        "included_in_blocks":
          [ "BKxojkStyDePxScBHCvYpdkrJPwnGrfdiNRqvXF9Yaa5nYU5ZxB" ] },
      { "delegate": "tz1Z9M4biBHSiH38k5ciRMjR5bgk89yEgLTz",
        "reception_time": "2022-01-19T02:48:20.643-00:00",
        "included_in_blocks":
          [ "BKxojkStyDePxScBHCvYpdkrJPwnGrfdiNRqvXF9Yaa5nYU5ZxB" ] },
      { "delegate": "tz1aRoaRhSpRYvFdyvgWLL6TGyRoGF51wDjM",
        "reception_time": "2022-01-19T02:48:19.536-00:00",
        "included_in_blocks":
          [ "BKxojkStyDePxScBHCvYpdkrJPwnGrfdiNRqvXF9Yaa5nYU5ZxB" ] },
      { "delegate": "tz1cM8Xc7ZP1TrjkTeKq4PeRhtbnwXSBR6Sw",
        "reception_time": "2022-01-19T02:48:19.560-00:00",
        "included_in_blocks":
          [ "BKxojkStyDePxScBHCvYpdkrJPwnGrfdiNRqvXF9Yaa5nYU5ZxB" ] },
      { "delegate": "tz3NExpXn9aPNZPorRE4SdjJ2RGrfbJgMAaV",
        "reception_time": "2022-01-19T02:48:19.263-00:00",
        "included_in_blocks":
          [ "BKxojkStyDePxScBHCvYpdkrJPwnGrfdiNRqvXF9Yaa5nYU5ZxB" ] },
      { "delegate": "tz1aNPWn5jgLBpEGFABKM161eeeLVVJxgYME",
        "reception_time": "2022-01-19T02:48:19.409-00:00",
        "included_in_blocks":
          [ "BKxojkStyDePxScBHCvYpdkrJPwnGrfdiNRqvXF9Yaa5nYU5ZxB" ] },
      { "delegate": "tz1P2Po7YM526ughEsRbY4oR9zaUPDZjxFrb",
        "reception_time": "2022-01-19T02:48:18.881-00:00",
        "included_in_blocks":
          [ "BKxojkStyDePxScBHCvYpdkrJPwnGrfdiNRqvXF9Yaa5nYU5ZxB" ] },
      { "delegate": "tz1fwnfJNgiDACshK9avfRfFbMaXrs3ghoJa",
        "reception_time": "2022-01-19T02:48:19.092-00:00",
        "included_in_blocks":
          [ "BKxojkStyDePxScBHCvYpdkrJPwnGrfdiNRqvXF9Yaa5nYU5ZxB" ] },
      { "delegate": "tz3bvNMQ95vfAYtG8193ymshqjSvmxiCUuR5",
        "reception_time": "2022-01-19T02:48:18.790-00:00",
        "included_in_blocks":
          [ "BKxojkStyDePxScBHCvYpdkrJPwnGrfdiNRqvXF9Yaa5nYU5ZxB" ] },
      { "delegate": "tz3WMqdzXqRWXwyvj5Hp2H7QEepaUuS7vd9K",
        "reception_time": "2022-01-19T02:48:18.670-00:00",
        "included_in_blocks":
          [ "BKxojkStyDePxScBHCvYpdkrJPwnGrfdiNRqvXF9Yaa5nYU5ZxB" ] },
      { "delegate": "tz1iEWcNL383qiDJ3Q3qt5W2T4aSKUbEU4An",
        "reception_time": "2022-01-19T02:48:19.133-00:00",
        "included_in_blocks":
          [ "BKxojkStyDePxScBHCvYpdkrJPwnGrfdiNRqvXF9Yaa5nYU5ZxB" ] },
      { "delegate": "tz1Z2jXfEXL7dXhs6bsLmyLFLfmAkXBzA9WE",
        "reception_time": "2022-01-19T02:48:18.473-00:00",
        "included_in_blocks":
          [ "BKxojkStyDePxScBHCvYpdkrJPwnGrfdiNRqvXF9Yaa5nYU5ZxB" ] },
      { "delegate": "tz1g8vkmcde6sWKaG2NN9WKzCkDM6Rziq194",
        "reception_time": "2022-01-19T02:48:18.468-00:00",
        "included_in_blocks":
          [ "BKxojkStyDePxScBHCvYpdkrJPwnGrfdiNRqvXF9Yaa5nYU5ZxB" ] },
      { "delegate": "tz1NuUu12WHdW3jHqvkujGHsiTi46Wvw1ci1",
        "reception_time": "2022-01-19T02:48:18.734-00:00",
        "included_in_blocks":
          [ "BKxojkStyDePxScBHCvYpdkrJPwnGrfdiNRqvXF9Yaa5nYU5ZxB" ] },
      { "delegate": "tz1cYufsxHXJcvANhvS55h3aY32a9BAFB494",
        "reception_time": "2022-01-19T02:48:18.477-00:00",
        "included_in_blocks":
          [ "BKxojkStyDePxScBHCvYpdkrJPwnGrfdiNRqvXF9Yaa5nYU5ZxB" ] },
      { "delegate": "tz3NDpRj6WBrJPikcPVHRBEjWKxFw3c6eQPS",
        "reception_time": "2022-01-19T02:48:18.326-00:00",
        "included_in_blocks":
          [ "BKxojkStyDePxScBHCvYpdkrJPwnGrfdiNRqvXF9Yaa5nYU5ZxB" ] },
      { "delegate": "tz3gLTu4Yxj8tPAcriQVUdxv6BY9QyvzU1az",
        "reception_time": "2022-01-19T02:48:18.310-00:00",
        "included_in_blocks":
          [ "BKxojkStyDePxScBHCvYpdkrJPwnGrfdiNRqvXF9Yaa5nYU5ZxB" ] },
      { "delegate": "tz1dRKU4FQ9QRRQPdaH4zCR6gmCmXfcvcgtB",
        "reception_time": "2022-01-19T02:48:18.495-00:00",
        "included_in_blocks":
          [ "BKxojkStyDePxScBHCvYpdkrJPwnGrfdiNRqvXF9Yaa5nYU5ZxB" ] },
      { "delegate": "tz1awXW7wuXy21c66vBudMXQVAPgRnqqwgTH",
        "reception_time": "2022-01-19T02:48:18.586-00:00",
        "included_in_blocks":
          [ "BKxojkStyDePxScBHCvYpdkrJPwnGrfdiNRqvXF9Yaa5nYU5ZxB" ] },
      { "delegate": "tz1UNkf4sWzC5vsKP7FnejSeJsXdc6z8Kzk4",
        "reception_time": "2022-01-19T02:48:18.350-00:00",
        "included_in_blocks":
          [ "BKxojkStyDePxScBHCvYpdkrJPwnGrfdiNRqvXF9Yaa5nYU5ZxB" ] },
      { "delegate": "tz1NEKxGEHsFufk87CVZcrqWu8o22qh46GK6",
        "reception_time": "2022-01-19T02:48:18.144-00:00",
        "included_in_blocks":
          [ "BKxojkStyDePxScBHCvYpdkrJPwnGrfdiNRqvXF9Yaa5nYU5ZxB" ] },
      { "delegate": "tz3VEZ4k6a4Wx42iyev6i2aVAptTRLEAivNN",
        "reception_time": "2022-01-19T02:48:18.137-00:00",
        "included_in_blocks":
          [ "BKxojkStyDePxScBHCvYpdkrJPwnGrfdiNRqvXF9Yaa5nYU5ZxB" ] },
      { "delegate": "tz1KfEsrtDaA1sX7vdM4qmEPWuSytuqCDp5j",
        "reception_time": "2022-01-19T02:48:18.043-00:00",
        "included_in_blocks":
          [ "BKxojkStyDePxScBHCvYpdkrJPwnGrfdiNRqvXF9Yaa5nYU5ZxB" ] },
      { "delegate": "tz1PeZx7FXy7QRuMREGXGxeipb24RsMMzUNe",
        "reception_time": "2022-01-19T02:48:17.910-00:00",
        "included_in_blocks":
          [ "BKxojkStyDePxScBHCvYpdkrJPwnGrfdiNRqvXF9Yaa5nYU5ZxB" ] },
      { "delegate": "tz1cb8xcmJWcdVU7cNAd93MfEReorvP52P8x",
        "reception_time": "2022-01-19T02:48:17.880-00:00",
        "included_in_blocks":
          [ "BKxojkStyDePxScBHCvYpdkrJPwnGrfdiNRqvXF9Yaa5nYU5ZxB" ] },
      { "delegate": "tz3RB4aoyjov4KEVRbuhvQ1CKJgBJMWhaeB8",
        "reception_time": "2022-01-19T02:48:17.872-00:00",
        "included_in_blocks":
          [ "BKxojkStyDePxScBHCvYpdkrJPwnGrfdiNRqvXF9Yaa5nYU5ZxB" ] },
      { "delegate": "tz1WctSwL49BZtdWAQ75NY6vr4xsAx6oKdah",
        "reception_time": "2022-01-19T02:48:17.938-00:00",
        "included_in_blocks":
          [ "BKxojkStyDePxScBHCvYpdkrJPwnGrfdiNRqvXF9Yaa5nYU5ZxB" ] },
      { "delegate": "tz2FCNBrERXtaTtNX6iimR1UJ5JSDxvdHM93",
        "reception_time": "2022-01-19T02:48:17.722-00:00",
        "included_in_blocks":
          [ "BKxojkStyDePxScBHCvYpdkrJPwnGrfdiNRqvXF9Yaa5nYU5ZxB" ] },
      { "delegate": "tz1Nf6tsK4G6bBqgSQERy4nUtkHNKUVdh7q1",
        "reception_time": "2022-01-19T02:48:17.839-00:00",
        "included_in_blocks":
          [ "BKxojkStyDePxScBHCvYpdkrJPwnGrfdiNRqvXF9Yaa5nYU5ZxB" ] },
      { "delegate": "tz1UMCB2AHSTwG7YcGNr31CqYCtGN873royv",
        "reception_time": "2022-01-19T02:48:17.919-00:00",
        "included_in_blocks":
          [ "BKxojkStyDePxScBHCvYpdkrJPwnGrfdiNRqvXF9Yaa5nYU5ZxB" ] },
      { "delegate": "tz1f3Re8iw6Pt3KMHAvyccHxDU3NuqL95axD",
        "reception_time": "2022-01-19T02:48:17.998-00:00",
        "included_in_blocks":
          [ "BKxojkStyDePxScBHCvYpdkrJPwnGrfdiNRqvXF9Yaa5nYU5ZxB" ] },
      { "delegate": "tz3bTdwZinP8U1JmSweNzVKhmwafqWmFWRfk",
        "reception_time": "2022-01-19T02:48:17.508-00:00",
        "included_in_blocks":
          [ "BKxojkStyDePxScBHCvYpdkrJPwnGrfdiNRqvXF9Yaa5nYU5ZxB" ] },
      { "delegate": "tz1RjoHc98dBoqaH2jawF62XNKh7YsHwbkEv",
        "reception_time": "2022-01-19T02:48:17.932-00:00",
        "included_in_blocks":
          [ "BKxojkStyDePxScBHCvYpdkrJPwnGrfdiNRqvXF9Yaa5nYU5ZxB" ] },
      { "delegate": "tz1TRqbYbUf2GyrjErf3hBzgBJPzW8y36qEs",
        "reception_time": "2022-01-19T02:48:17.756-00:00",
        "included_in_blocks":
          [ "BKxojkStyDePxScBHCvYpdkrJPwnGrfdiNRqvXF9Yaa5nYU5ZxB" ] },
      { "delegate": "tz1Tnjaxk6tbAeC2TmMApPh8UsrEVQvhHvx5",
        "reception_time": "2022-01-19T02:48:17.923-00:00",
        "included_in_blocks":
          [ "BKxojkStyDePxScBHCvYpdkrJPwnGrfdiNRqvXF9Yaa5nYU5ZxB" ] },
      { "delegate": "tz1WBfwbT66FC6BTLexc2BoyCCBM9LG7pnVW",
        "reception_time": "2022-01-19T02:48:17.803-00:00",
        "included_in_blocks":
          [ "BKxojkStyDePxScBHCvYpdkrJPwnGrfdiNRqvXF9Yaa5nYU5ZxB" ] },
      { "delegate": "tz1abmz7jiCV2GH2u81LRrGgAFFgvQgiDiaf",
        "reception_time": "2022-01-19T02:48:17.792-00:00",
        "included_in_blocks":
          [ "BKxojkStyDePxScBHCvYpdkrJPwnGrfdiNRqvXF9Yaa5nYU5ZxB" ] },
      { "delegate": "tz3RDC3Jdn4j15J7bBHZd29EUee9gVB1CxD9",
        "reception_time": "2022-01-19T02:48:17.454-00:00",
        "included_in_blocks":
          [ "BKxojkStyDePxScBHCvYpdkrJPwnGrfdiNRqvXF9Yaa5nYU5ZxB" ] },
      { "delegate": "tz1LmaFsWRkjr7QMCx5PtV6xTUz3AmEpKQiF",
        "reception_time": "2022-01-19T02:48:17.603-00:00",
        "included_in_blocks":
          [ "BKxojkStyDePxScBHCvYpdkrJPwnGrfdiNRqvXF9Yaa5nYU5ZxB" ] },
      { "delegate": "tz1RCFbB9GpALpsZtu6J58sb74dm8qe6XBzv",
        "reception_time": "2022-01-19T02:48:17.726-00:00",
        "included_in_blocks":
          [ "BKxojkStyDePxScBHCvYpdkrJPwnGrfdiNRqvXF9Yaa5nYU5ZxB" ] },
      { "delegate": "tz3S6BBeKgJGXxvLyZ1xzXzMPn11nnFtq5L9",
        "reception_time": "2022-01-19T02:48:17.550-00:00",
        "included_in_blocks":
          [ "BKxojkStyDePxScBHCvYpdkrJPwnGrfdiNRqvXF9Yaa5nYU5ZxB" ] },
      { "delegate": "tz1S8MNvuFEUsWgjHvi3AxibRBf388NhT1q2",
        "reception_time": "2022-01-19T02:48:17.528-00:00",
        "included_in_blocks":
          [ "BKxojkStyDePxScBHCvYpdkrJPwnGrfdiNRqvXF9Yaa5nYU5ZxB" ] },
      { "delegate": "tz1dNVDWPf3Q59SdJqnjdnu277iyvReiRS9M",
        "reception_time": "2022-01-19T02:48:17.637-00:00",
        "included_in_blocks":
          [ "BKxojkStyDePxScBHCvYpdkrJPwnGrfdiNRqvXF9Yaa5nYU5ZxB" ] },
      { "delegate": "tz3QT9dHYKDqh563chVa6za8526ys1UKfRfL",
        "reception_time": "2022-01-19T02:48:17.491-00:00",
        "included_in_blocks":
          [ "BKxojkStyDePxScBHCvYpdkrJPwnGrfdiNRqvXF9Yaa5nYU5ZxB" ] },
      { "delegate": "tz1ei4WtWEMEJekSv8qDnu9PExG6Q8HgRGr3",
        "reception_time": "2022-01-19T02:48:17.574-00:00",
        "included_in_blocks":
          [ "BKxojkStyDePxScBHCvYpdkrJPwnGrfdiNRqvXF9Yaa5nYU5ZxB" ] },
      { "delegate": "tz1gfArv665EUkSg2ojMBzcbfwuPxAvqPvjo",
        "reception_time": "2022-01-19T02:48:17.567-00:00",
        "included_in_blocks":
          [ "BKxojkStyDePxScBHCvYpdkrJPwnGrfdiNRqvXF9Yaa5nYU5ZxB" ] },
      { "delegate": "tz1h4GUAMweP7SNWzDgvMk3yRCAZyaP1MxZq",
        "reception_time": "2022-01-19T02:48:17.483-00:00",
        "included_in_blocks":
          [ "BKxojkStyDePxScBHCvYpdkrJPwnGrfdiNRqvXF9Yaa5nYU5ZxB" ] },
      { "delegate": "tz3e7LbZvUtoXhpUD1yb6wuFodZpfYRb9nWJ",
        "reception_time": "2022-01-19T02:48:17.563-00:00",
        "included_in_blocks":
          [ "BKxojkStyDePxScBHCvYpdkrJPwnGrfdiNRqvXF9Yaa5nYU5ZxB" ] },
      { "delegate": "tz3iJu5vrKZcsqRPs8yJ61UDoeEXZmtro4qh",
        "reception_time": "2022-01-19T02:48:17.359-00:00",
        "included_in_blocks":
          [ "BKxojkStyDePxScBHCvYpdkrJPwnGrfdiNRqvXF9Yaa5nYU5ZxB" ] },
      { "delegate": "tz3Zhs2dygr55yHyQyKjntAtY9bgfhLZ4Xj1",
        "reception_time": "2022-01-19T02:48:17.520-00:00",
        "included_in_blocks":
          [ "BKxojkStyDePxScBHCvYpdkrJPwnGrfdiNRqvXF9Yaa5nYU5ZxB" ] },
      { "delegate": "tz1WCd2jm4uSt4vntk4vSuUWoZQGhLcDuR9q",
        "reception_time": "2022-01-19T02:48:17.474-00:00",
        "included_in_blocks":
          [ "BKxojkStyDePxScBHCvYpdkrJPwnGrfdiNRqvXF9Yaa5nYU5ZxB" ] },
      { "delegate": "tz1Mc61yajNASzh5KWZFtYs4i7EJbzAxQC4K",
        "reception_time": "2022-01-19T02:48:17.483-00:00",
        "included_in_blocks":
          [ "BKxojkStyDePxScBHCvYpdkrJPwnGrfdiNRqvXF9Yaa5nYU5ZxB" ] },
      { "delegate": "tz1fPKAtsYydh4f1wfWNfeNxWYu72TmM48fu",
        "reception_time": "2022-01-19T02:48:17.500-00:00",
        "included_in_blocks":
          [ "BKxojkStyDePxScBHCvYpdkrJPwnGrfdiNRqvXF9Yaa5nYU5ZxB" ] },
      { "delegate": "tz3RKYFsLuQzKBtmYuLNas7uMu3AsYd4QdsA",
        "reception_time": "2022-01-19T02:48:17.294-00:00",
        "included_in_blocks":
          [ "BKxojkStyDePxScBHCvYpdkrJPwnGrfdiNRqvXF9Yaa5nYU5ZxB" ] },
      { "delegate": "tz3hw2kqXhLUvY65ca1eety2oQTpAvd34R9Q",
        "reception_time": "2022-01-19T02:48:17.294-00:00",
        "included_in_blocks":
          [ "BKxojkStyDePxScBHCvYpdkrJPwnGrfdiNRqvXF9Yaa5nYU5ZxB" ] },
      { "delegate": "tz1VQnqCCqX4K5sP3FNkVSNKTdCAMJDd3E1n",
        "reception_time": "2022-01-19T02:48:17.294-00:00",
        "included_in_blocks":
          [ "BKxojkStyDePxScBHCvYpdkrJPwnGrfdiNRqvXF9Yaa5nYU5ZxB" ] },
      { "delegate": "tz3gtoUxdudfBRcNY7iVdKPHCYYX6xdPpoRS",
        "reception_time": "2022-01-19T02:48:17.294-00:00",
        "included_in_blocks":
          [ "BKxojkStyDePxScBHCvYpdkrJPwnGrfdiNRqvXF9Yaa5nYU5ZxB" ] },
      { "delegate": "tz3ZbP2pM3nwvXztbuMJwJnDvV5xdpU8UkkD",
        "reception_time": "2022-01-19T02:48:17.294-00:00",
        "included_in_blocks":
          [ "BKxojkStyDePxScBHCvYpdkrJPwnGrfdiNRqvXF9Yaa5nYU5ZxB" ] },
      { "delegate": "tz1TzaNn7wSQSP5gYPXCnNzBCpyMiidCq1PX",
        "reception_time": "2022-01-19T02:48:17.294-00:00",
        "included_in_blocks":
          [ "BKxojkStyDePxScBHCvYpdkrJPwnGrfdiNRqvXF9Yaa5nYU5ZxB" ] },
      { "delegate": "tz1fUyqYH7H4pRHN1roWY17giXhy1RvxjgUV",
        "reception_time": "2022-01-19T02:48:17.294-00:00",
        "included_in_blocks":
          [ "BKxojkStyDePxScBHCvYpdkrJPwnGrfdiNRqvXF9Yaa5nYU5ZxB" ] },
      { "delegate": "tz1gUNyn3hmnEWqkusWPzxRaon1cs7ndWh7h",
        "reception_time": "2022-01-19T02:48:17.294-00:00",
        "included_in_blocks":
          [ "BKxojkStyDePxScBHCvYpdkrJPwnGrfdiNRqvXF9Yaa5nYU5ZxB" ] },
      { "delegate": "tz1PWCDnz783NNGGQjEFFsHtrcK5yBW4E2rm",
        "reception_time": "2022-01-19T02:48:17.300-00:00",
        "included_in_blocks":
          [ "BKxojkStyDePxScBHCvYpdkrJPwnGrfdiNRqvXF9Yaa5nYU5ZxB" ] },
      { "delegate": "tz3NxTnke1acr8o3h5y9ytf5awQBGNJUKzVU",
        "reception_time": "2022-01-19T02:48:17.294-00:00",
        "included_in_blocks":
          [ "BKxojkStyDePxScBHCvYpdkrJPwnGrfdiNRqvXF9Yaa5nYU5ZxB" ] },
      { "delegate": "tz3QSGPoRp3Kn7n3vY24eYeu3Peuqo45LQ4D",
        "reception_time": "2022-01-19T02:48:17.294-00:00",
        "included_in_blocks":
          [ "BKxojkStyDePxScBHCvYpdkrJPwnGrfdiNRqvXF9Yaa5nYU5ZxB" ] },
      { "delegate": "tz1VmiY38m3y95HqQLjMwqnMS7sdMfGomzKi",
        "reception_time": "2022-01-19T02:48:17.294-00:00",
        "included_in_blocks":
          [ "BKxojkStyDePxScBHCvYpdkrJPwnGrfdiNRqvXF9Yaa5nYU5ZxB" ] },
      { "delegate": "tz1Ldzz6k1BHdhuKvAtMRX7h5kJSMHESMHLC",
        "reception_time": "2022-01-19T02:48:17.294-00:00",
        "included_in_blocks":
          [ "BKxojkStyDePxScBHCvYpdkrJPwnGrfdiNRqvXF9Yaa5nYU5ZxB" ] },
      { "delegate": "tz1dUpfvjmAX3HLYvYhAwb94qe7nJodJr51c",
        "reception_time": "2022-01-19T02:48:16.780-00:00",
        "included_in_blocks":
          [ "BKxojkStyDePxScBHCvYpdkrJPwnGrfdiNRqvXF9Yaa5nYU5ZxB" ] },
      { "delegate": "tz1aXD7Jigrt3PBYSpHSg5Rr33SexMmmM5Ys",
        "reception_time": "2022-01-19T02:48:17.294-00:00",
        "included_in_blocks":
          [ "BKxojkStyDePxScBHCvYpdkrJPwnGrfdiNRqvXF9Yaa5nYU5ZxB" ] },
      { "delegate": "tz1Lhf4J9Qxoe3DZ2nfe8FGDnvVj7oKjnMY6",
        "reception_time": "2022-01-19T02:48:16.780-00:00",
        "included_in_blocks":
          [ "BKxojkStyDePxScBHCvYpdkrJPwnGrfdiNRqvXF9Yaa5nYU5ZxB" ] },
      { "delegate": "tz1TRspM5SeZpaQUhzByXbEvqKF1vnCM2YTK",
        "reception_time": "2022-01-19T02:48:17.294-00:00",
        "included_in_blocks":
          [ "BKxojkStyDePxScBHCvYpdkrJPwnGrfdiNRqvXF9Yaa5nYU5ZxB" ] } ] }