{ "blocks":
    [ { "hash": "BKiK3aNeKtJniQtzVN629yGgt5S2z387GhzreV366pyHT5SeJsL",
        "delegate": "tz1gfArv665EUkSg2ojMBzcbfwuPxAvqPvjo",
        "reception_time": "2022-01-19T09:42:24.163-00:00",
        "timestamp": "2022-01-19T09:42:10Z" } ],
  "endorsements":
    [ { "delegate": "tz1dbfppLAAxXZNtf2SDps7rch3qfUznKSoK" },
      { "delegate": "tz1cYufsxHXJcvANhvS55h3aY32a9BAFB494" },
      { "delegate": "tz1W5VkdB5s7ENMESVBtwyt9kyvLqPcUczRT" },
      { "delegate": "tz1Lhf4J9Qxoe3DZ2nfe8FGDnvVj7oKjnMY6",
        "reception_time": "2022-01-19T09:42:24.099-00:00",
        "errors":
          [ { "kind": "temporary",
              "id": "proto.011-PtHangz2.prefilter.outdated_endorsement" } ],
        "included_in_blocks":
          [ "BMV4ydgU3xmEdjxoQJ6aULscYy34SEjB4Y1dWKYesQK5VY6earf" ] },
      { "delegate": "tz1TXzyaKUA8wsWefdSnyaYFnV2M3vCV7er9",
        "reception_time": "2022-01-19T09:42:24.078-00:00",
        "errors":
          [ { "kind": "temporary",
              "id": "proto.011-PtHangz2.prefilter.outdated_endorsement" } ],
        "included_in_blocks":
          [ "BMV4ydgU3xmEdjxoQJ6aULscYy34SEjB4Y1dWKYesQK5VY6earf" ] },
      { "delegate": "tz1Kt4P8BCaP93AEV4eA7gmpRryWt5hznjCP",
        "reception_time": "2022-01-19T09:42:24.063-00:00",
        "errors":
          [ { "kind": "temporary",
              "id": "proto.011-PtHangz2.prefilter.outdated_endorsement" } ],
        "included_in_blocks":
          [ "BMV4ydgU3xmEdjxoQJ6aULscYy34SEjB4Y1dWKYesQK5VY6earf" ] },
      { "delegate": "tz1aKxnrzx5PXZJe7unufEswVRCMU9yafmfb",
        "reception_time": "2022-01-19T09:42:23.666-00:00",
        "errors":
          [ { "kind": "temporary",
              "id": "proto.011-PtHangz2.prefilter.outdated_endorsement" } ],
        "included_in_blocks":
          [ "BMV4ydgU3xmEdjxoQJ6aULscYy34SEjB4Y1dWKYesQK5VY6earf" ] },
      { "delegate": "tz1gfArv665EUkSg2ojMBzcbfwuPxAvqPvjo",
        "reception_time": "2022-01-19T09:42:22.418-00:00",
        "errors":
          [ { "kind": "temporary",
              "id": "proto.011-PtHangz2.prefilter.outdated_endorsement" } ],
        "included_in_blocks":
          [ "BMV4ydgU3xmEdjxoQJ6aULscYy34SEjB4Y1dWKYesQK5VY6earf" ] },
      { "delegate": "tz1NpWrAyDL9k2Lmnyxcgr9xuJakbBxdq7FB",
        "reception_time": "2022-01-19T09:42:36.266-00:00",
        "included_in_blocks":
          [ "BMV4ydgU3xmEdjxoQJ6aULscYy34SEjB4Y1dWKYesQK5VY6earf" ] },
      { "delegate": "tz1Z9M4biBHSiH38k5ciRMjR5bgk89yEgLTz",
        "reception_time": "2022-01-19T09:42:31.426-00:00",
        "included_in_blocks":
          [ "BMV4ydgU3xmEdjxoQJ6aULscYy34SEjB4Y1dWKYesQK5VY6earf" ] },
      { "delegate": "tz1aRoaRhSpRYvFdyvgWLL6TGyRoGF51wDjM",
        "reception_time": "2022-01-19T09:42:30.463-00:00",
        "included_in_blocks":
          [ "BMV4ydgU3xmEdjxoQJ6aULscYy34SEjB4Y1dWKYesQK5VY6earf" ] },
      { "delegate": "tz1g8vkmcde6sWKaG2NN9WKzCkDM6Rziq194",
        "reception_time": "2022-01-19T09:42:30.512-00:00",
        "included_in_blocks":
          [ "BMV4ydgU3xmEdjxoQJ6aULscYy34SEjB4Y1dWKYesQK5VY6earf" ] },
      { "delegate": "tz1awXW7wuXy21c66vBudMXQVAPgRnqqwgTH",
        "reception_time": "2022-01-19T09:42:29.092-00:00",
        "included_in_blocks":
          [ "BMV4ydgU3xmEdjxoQJ6aULscYy34SEjB4Y1dWKYesQK5VY6earf" ] },
      { "delegate": "tz1ivoFEvbfbUNav5FwLvmxzMGcNXWxY9qTD",
        "reception_time": "2022-01-19T09:42:29.593-00:00",
        "included_in_blocks":
          [ "BMV4ydgU3xmEdjxoQJ6aULscYy34SEjB4Y1dWKYesQK5VY6earf" ] },
      { "delegate": "tz3bvNMQ95vfAYtG8193ymshqjSvmxiCUuR5",
        "reception_time": "2022-01-19T09:42:28.316-00:00",
        "included_in_blocks":
          [ "BMV4ydgU3xmEdjxoQJ6aULscYy34SEjB4Y1dWKYesQK5VY6earf" ] },
      { "delegate": "tz3RDC3Jdn4j15J7bBHZd29EUee9gVB1CxD9",
        "reception_time": "2022-01-19T09:42:28.226-00:00",
        "included_in_blocks":
          [ "BMV4ydgU3xmEdjxoQJ6aULscYy34SEjB4Y1dWKYesQK5VY6earf" ] },
      { "delegate": "tz1NSDFKuRyzHxpfG1AMkyCwEiZ52cbR2mRW",
        "reception_time": "2022-01-19T09:42:28.334-00:00",
        "included_in_blocks":
          [ "BMV4ydgU3xmEdjxoQJ6aULscYy34SEjB4Y1dWKYesQK5VY6earf" ] },
      { "delegate": "tz3UoffC7FG7zfpmvmjUmUeAaHvzdcUvAj6r",
        "reception_time": "2022-01-19T09:42:28.805-00:00",
        "included_in_blocks":
          [ "BMV4ydgU3xmEdjxoQJ6aULscYy34SEjB4Y1dWKYesQK5VY6earf" ] },
      { "delegate": "tz3NDpRj6WBrJPikcPVHRBEjWKxFw3c6eQPS",
        "reception_time": "2022-01-19T09:42:27.898-00:00",
        "included_in_blocks":
          [ "BMV4ydgU3xmEdjxoQJ6aULscYy34SEjB4Y1dWKYesQK5VY6earf" ] },
      { "delegate": "tz1a3T5mRR1XWM1JgydvAqxEwpNs7ktVZuXc",
        "reception_time": "2022-01-19T09:42:27.917-00:00",
        "included_in_blocks":
          [ "BMV4ydgU3xmEdjxoQJ6aULscYy34SEjB4Y1dWKYesQK5VY6earf" ] },
      { "delegate": "tz3gLTu4Yxj8tPAcriQVUdxv6BY9QyvzU1az",
        "reception_time": "2022-01-19T09:42:27.914-00:00",
        "included_in_blocks":
          [ "BMV4ydgU3xmEdjxoQJ6aULscYy34SEjB4Y1dWKYesQK5VY6earf" ] },
      { "delegate": "tz1iPHM2Xx2hwmzcr1EG1zzrV6oKafVoA91m",
        "reception_time": "2022-01-19T09:42:28.239-00:00",
        "included_in_blocks":
          [ "BMV4ydgU3xmEdjxoQJ6aULscYy34SEjB4Y1dWKYesQK5VY6earf" ] },
      { "delegate": "tz1ZcTRk5uxD86EFEn1vvNffWWqJy7q5eVhc",
        "reception_time": "2022-01-19T09:42:28.127-00:00",
        "included_in_blocks":
          [ "BMV4ydgU3xmEdjxoQJ6aULscYy34SEjB4Y1dWKYesQK5VY6earf" ] },
      { "delegate": "tz3NExpXn9aPNZPorRE4SdjJ2RGrfbJgMAaV",
        "reception_time": "2022-01-19T09:42:28.308-00:00",
        "included_in_blocks":
          [ "BMV4ydgU3xmEdjxoQJ6aULscYy34SEjB4Y1dWKYesQK5VY6earf" ] },
      { "delegate": "tz3bTdwZinP8U1JmSweNzVKhmwafqWmFWRfk",
        "reception_time": "2022-01-19T09:42:27.476-00:00",
        "included_in_blocks":
          [ "BMV4ydgU3xmEdjxoQJ6aULscYy34SEjB4Y1dWKYesQK5VY6earf" ] },
      { "delegate": "tz1RjoHc98dBoqaH2jawF62XNKh7YsHwbkEv",
        "reception_time": "2022-01-19T09:42:28.152-00:00",
        "included_in_blocks":
          [ "BMV4ydgU3xmEdjxoQJ6aULscYy34SEjB4Y1dWKYesQK5VY6earf" ] },
      { "delegate": "tz3RB4aoyjov4KEVRbuhvQ1CKJgBJMWhaeB8",
        "reception_time": "2022-01-19T09:42:27.685-00:00",
        "included_in_blocks":
          [ "BMV4ydgU3xmEdjxoQJ6aULscYy34SEjB4Y1dWKYesQK5VY6earf" ] },
      { "delegate": "tz1abmz7jiCV2GH2u81LRrGgAFFgvQgiDiaf",
        "reception_time": "2022-01-19T09:42:27.692-00:00",
        "included_in_blocks":
          [ "BMV4ydgU3xmEdjxoQJ6aULscYy34SEjB4Y1dWKYesQK5VY6earf" ] },
      { "delegate": "tz1iEWcNL383qiDJ3Q3qt5W2T4aSKUbEU4An",
        "reception_time": "2022-01-19T09:42:27.938-00:00",
        "included_in_blocks":
          [ "BMV4ydgU3xmEdjxoQJ6aULscYy34SEjB4Y1dWKYesQK5VY6earf" ] },
      { "delegate": "tz1fwnfJNgiDACshK9avfRfFbMaXrs3ghoJa",
        "reception_time": "2022-01-19T09:42:27.857-00:00",
        "included_in_blocks":
          [ "BMV4ydgU3xmEdjxoQJ6aULscYy34SEjB4Y1dWKYesQK5VY6earf" ] },
      { "delegate": "tz1dRKU4FQ9QRRQPdaH4zCR6gmCmXfcvcgtB",
        "reception_time": "2022-01-19T09:42:27.678-00:00",
        "included_in_blocks":
          [ "BMV4ydgU3xmEdjxoQJ6aULscYy34SEjB4Y1dWKYesQK5VY6earf" ] },
      { "delegate": "tz3WMqdzXqRWXwyvj5Hp2H7QEepaUuS7vd9K",
        "reception_time": "2022-01-19T09:42:27.975-00:00",
        "included_in_blocks":
          [ "BMV4ydgU3xmEdjxoQJ6aULscYy34SEjB4Y1dWKYesQK5VY6earf" ] },
      { "delegate": "tz1LmaFsWRkjr7QMCx5PtV6xTUz3AmEpKQiF",
        "reception_time": "2022-01-19T09:42:27.929-00:00",
        "included_in_blocks":
          [ "BMV4ydgU3xmEdjxoQJ6aULscYy34SEjB4Y1dWKYesQK5VY6earf" ] },
      { "delegate": "tz1a1J3AGjJTAyBqWWSqFuUazUDV2TtD6hMy",
        "reception_time": "2022-01-19T09:42:27.634-00:00",
        "included_in_blocks":
          [ "BMV4ydgU3xmEdjxoQJ6aULscYy34SEjB4Y1dWKYesQK5VY6earf" ] },
      { "delegate": "tz3S6BBeKgJGXxvLyZ1xzXzMPn11nnFtq5L9",
        "reception_time": "2022-01-19T09:42:27.322-00:00",
        "included_in_blocks":
          [ "BMV4ydgU3xmEdjxoQJ6aULscYy34SEjB4Y1dWKYesQK5VY6earf" ] },
      { "delegate": "tz1T7duV5gZWSTq4YpBGbXNLTfznCLDrFxvs",
        "reception_time": "2022-01-19T09:42:27.326-00:00",
        "included_in_blocks":
          [ "BMV4ydgU3xmEdjxoQJ6aULscYy34SEjB4Y1dWKYesQK5VY6earf" ] },
      { "delegate": "tz2FCNBrERXtaTtNX6iimR1UJ5JSDxvdHM93",
        "reception_time": "2022-01-19T09:42:27.668-00:00",
        "included_in_blocks":
          [ "BMV4ydgU3xmEdjxoQJ6aULscYy34SEjB4Y1dWKYesQK5VY6earf" ] },
      { "delegate": "tz3QT9dHYKDqh563chVa6za8526ys1UKfRfL",
        "reception_time": "2022-01-19T09:42:27.618-00:00",
        "included_in_blocks":
          [ "BMV4ydgU3xmEdjxoQJ6aULscYy34SEjB4Y1dWKYesQK5VY6earf" ] },
      { "delegate": "tz1VceyYUpq1gk5dtp6jXQRtCtY8hm5DKt72",
        "reception_time": "2022-01-19T09:42:27.734-00:00",
        "included_in_blocks":
          [ "BMV4ydgU3xmEdjxoQJ6aULscYy34SEjB4Y1dWKYesQK5VY6earf" ] },
      { "delegate": "tz3Zhs2dygr55yHyQyKjntAtY9bgfhLZ4Xj1",
        "reception_time": "2022-01-19T09:42:27.725-00:00",
        "included_in_blocks":
          [ "BMV4ydgU3xmEdjxoQJ6aULscYy34SEjB4Y1dWKYesQK5VY6earf" ] },
      { "delegate": "tz1S8MNvuFEUsWgjHvi3AxibRBf388NhT1q2",
        "reception_time": "2022-01-19T09:42:27.987-00:00",
        "included_in_blocks":
          [ "BMV4ydgU3xmEdjxoQJ6aULscYy34SEjB4Y1dWKYesQK5VY6earf" ] },
      { "delegate": "tz1Nf6tsK4G6bBqgSQERy4nUtkHNKUVdh7q1",
        "reception_time": "2022-01-19T09:42:27.468-00:00",
        "included_in_blocks":
          [ "BMV4ydgU3xmEdjxoQJ6aULscYy34SEjB4Y1dWKYesQK5VY6earf" ] },
      { "delegate": "tz1NEKxGEHsFufk87CVZcrqWu8o22qh46GK6",
        "reception_time": "2022-01-19T09:42:27.668-00:00",
        "included_in_blocks":
          [ "BMV4ydgU3xmEdjxoQJ6aULscYy34SEjB4Y1dWKYesQK5VY6earf" ] },
      { "delegate": "tz3gtoUxdudfBRcNY7iVdKPHCYYX6xdPpoRS",
        "reception_time": "2022-01-19T09:42:27.249-00:00",
        "included_in_blocks":
          [ "BMV4ydgU3xmEdjxoQJ6aULscYy34SEjB4Y1dWKYesQK5VY6earf" ] },
      { "delegate": "tz3QSGPoRp3Kn7n3vY24eYeu3Peuqo45LQ4D",
        "reception_time": "2022-01-19T09:42:27.463-00:00",
        "included_in_blocks":
          [ "BMV4ydgU3xmEdjxoQJ6aULscYy34SEjB4Y1dWKYesQK5VY6earf" ] },
      { "delegate": "tz3hw2kqXhLUvY65ca1eety2oQTpAvd34R9Q",
        "reception_time": "2022-01-19T09:42:27.259-00:00",
        "included_in_blocks":
          [ "BMV4ydgU3xmEdjxoQJ6aULscYy34SEjB4Y1dWKYesQK5VY6earf" ] },
      { "delegate": "tz3RKYFsLuQzKBtmYuLNas7uMu3AsYd4QdsA",
        "reception_time": "2022-01-19T09:42:27.304-00:00",
        "included_in_blocks":
          [ "BMV4ydgU3xmEdjxoQJ6aULscYy34SEjB4Y1dWKYesQK5VY6earf" ] },
      { "delegate": "tz1fb7c66UwePkkfDXz4ajFaBP9hVNLdS7JJ",
        "reception_time": "2022-01-19T09:42:27.262-00:00",
        "included_in_blocks":
          [ "BMV4ydgU3xmEdjxoQJ6aULscYy34SEjB4Y1dWKYesQK5VY6earf" ] },
      { "delegate": "tz1d6Fx42mYgVFnHUW8T8A7WBfJ6nD9pVok8",
        "reception_time": "2022-01-19T09:42:27.286-00:00",
        "included_in_blocks":
          [ "BMV4ydgU3xmEdjxoQJ6aULscYy34SEjB4Y1dWKYesQK5VY6earf" ] },
      { "delegate": "tz1RCFbB9GpALpsZtu6J58sb74dm8qe6XBzv",
        "reception_time": "2022-01-19T09:42:27.297-00:00",
        "included_in_blocks":
          [ "BMV4ydgU3xmEdjxoQJ6aULscYy34SEjB4Y1dWKYesQK5VY6earf" ] },
      { "delegate": "tz1WCd2jm4uSt4vntk4vSuUWoZQGhLcDuR9q",
        "reception_time": "2022-01-19T09:42:27.148-00:00",
        "included_in_blocks":
          [ "BMV4ydgU3xmEdjxoQJ6aULscYy34SEjB4Y1dWKYesQK5VY6earf" ] },
      { "delegate": "tz3ZbP2pM3nwvXztbuMJwJnDvV5xdpU8UkkD",
        "reception_time": "2022-01-19T09:42:27.188-00:00",
        "included_in_blocks":
          [ "BMV4ydgU3xmEdjxoQJ6aULscYy34SEjB4Y1dWKYesQK5VY6earf" ] },
      { "delegate": "tz3NxTnke1acr8o3h5y9ytf5awQBGNJUKzVU",
        "reception_time": "2022-01-19T09:42:27.278-00:00",
        "included_in_blocks":
          [ "BMV4ydgU3xmEdjxoQJ6aULscYy34SEjB4Y1dWKYesQK5VY6earf" ] },
      { "delegate": "tz1TRspM5SeZpaQUhzByXbEvqKF1vnCM2YTK",
        "reception_time": "2022-01-19T09:42:27.119-00:00",
        "included_in_blocks":
          [ "BMV4ydgU3xmEdjxoQJ6aULscYy34SEjB4Y1dWKYesQK5VY6earf" ] },
      { "delegate": "tz1KfEsrtDaA1sX7vdM4qmEPWuSytuqCDp5j",
        "reception_time": "2022-01-19T09:42:27.634-00:00",
        "included_in_blocks":
          [ "BMV4ydgU3xmEdjxoQJ6aULscYy34SEjB4Y1dWKYesQK5VY6earf" ] },
      { "delegate": "tz1dNVDWPf3Q59SdJqnjdnu277iyvReiRS9M",
        "reception_time": "2022-01-19T09:42:27.451-00:00",
        "included_in_blocks":
          [ "BMV4ydgU3xmEdjxoQJ6aULscYy34SEjB4Y1dWKYesQK5VY6earf" ] },
      { "delegate": "tz1TzaNn7wSQSP5gYPXCnNzBCpyMiidCq1PX",
        "reception_time": "2022-01-19T09:42:27.174-00:00",
        "included_in_blocks":
          [ "BMV4ydgU3xmEdjxoQJ6aULscYy34SEjB4Y1dWKYesQK5VY6earf" ] },
      { "delegate": "tz1aqcYgG6NuViML5vdWhohHJBYxcDVLNUsE",
        "reception_time": "2022-01-19T09:42:27.170-00:00",
        "included_in_blocks":
          [ "BMV4ydgU3xmEdjxoQJ6aULscYy34SEjB4Y1dWKYesQK5VY6earf" ] },
      { "delegate": "tz1TEc75UKXv4W5cwi14Na3NtqFD51yKQi7h",
        "reception_time": "2022-01-19T09:42:27.270-00:00",
        "included_in_blocks":
          [ "BMV4ydgU3xmEdjxoQJ6aULscYy34SEjB4Y1dWKYesQK5VY6earf" ] },
      { "delegate": "tz1SYq214SCBy9naR6cvycQsYcUGpBqQAE8d",
        "reception_time": "2022-01-19T09:42:27.454-00:00",
        "included_in_blocks":
          [ "BMV4ydgU3xmEdjxoQJ6aULscYy34SEjB4Y1dWKYesQK5VY6earf" ] },
      { "delegate": "tz1SRqg1KT7dJ5QxF9PWnWdfbXgh6HfKZxbd",
        "reception_time": "2022-01-19T09:42:27.151-00:00",
        "included_in_blocks":
          [ "BMV4ydgU3xmEdjxoQJ6aULscYy34SEjB4Y1dWKYesQK5VY6earf" ] },
      { "delegate": "tz1ei4WtWEMEJekSv8qDnu9PExG6Q8HgRGr3",
        "reception_time": "2022-01-19T09:42:27.700-00:00",
        "included_in_blocks":
          [ "BMV4ydgU3xmEdjxoQJ6aULscYy34SEjB4Y1dWKYesQK5VY6earf" ] },
      { "delegate": "tz1QCgEy1GJntn7nrchb4FXLegr3Ue3ptasZ",
        "reception_time": "2022-01-19T09:42:27.143-00:00",
        "included_in_blocks":
          [ "BMV4ydgU3xmEdjxoQJ6aULscYy34SEjB4Y1dWKYesQK5VY6earf" ] },
      { "delegate": "tz1PWCDnz783NNGGQjEFFsHtrcK5yBW4E2rm",
        "reception_time": "2022-01-19T09:42:27.178-00:00",
        "included_in_blocks":
          [ "BMV4ydgU3xmEdjxoQJ6aULscYy34SEjB4Y1dWKYesQK5VY6earf" ] },
      { "delegate": "tz1eEnQhbwf6trb8Q8mPb2RaPkNk2rN7BKi8",
        "reception_time": "2022-01-19T09:42:27.242-00:00",
        "included_in_blocks":
          [ "BMV4ydgU3xmEdjxoQJ6aULscYy34SEjB4Y1dWKYesQK5VY6earf" ] },
      { "delegate": "tz1aDiEJf9ztRrAJEXZfcG3CKimoKsGhwVAi",
        "reception_time": "2022-01-19T09:42:27.199-00:00",
        "included_in_blocks":
          [ "BMV4ydgU3xmEdjxoQJ6aULscYy34SEjB4Y1dWKYesQK5VY6earf" ] },
      { "delegate": "tz1irJKkXS2DBWkU1NnmFQx1c1L7pbGg4yhk",
        "reception_time": "2022-01-19T09:42:27.115-00:00",
        "included_in_blocks":
          [ "BMV4ydgU3xmEdjxoQJ6aULscYy34SEjB4Y1dWKYesQK5VY6earf" ] },
      { "delegate": "tz1Ldzz6k1BHdhuKvAtMRX7h5kJSMHESMHLC",
        "reception_time": "2022-01-19T09:42:27.204-00:00",
        "included_in_blocks":
          [ "BMV4ydgU3xmEdjxoQJ6aULscYy34SEjB4Y1dWKYesQK5VY6earf" ] },
      { "delegate": "tz1LLNkQK4UQV6QcFShiXJ2vT2ELw449MzAA",
        "reception_time": "2022-01-19T09:42:27.165-00:00",
        "included_in_blocks":
          [ "BMV4ydgU3xmEdjxoQJ6aULscYy34SEjB4Y1dWKYesQK5VY6earf" ] },
      { "delegate": "tz1gUNyn3hmnEWqkusWPzxRaon1cs7ndWh7h",
        "reception_time": "2022-01-19T09:42:27.196-00:00",
        "included_in_blocks":
          [ "BMV4ydgU3xmEdjxoQJ6aULscYy34SEjB4Y1dWKYesQK5VY6earf" ] },
      { "delegate": "tz1VQnqCCqX4K5sP3FNkVSNKTdCAMJDd3E1n",
        "reception_time": "2022-01-19T09:42:27.181-00:00",
        "included_in_blocks":
          [ "BMV4ydgU3xmEdjxoQJ6aULscYy34SEjB4Y1dWKYesQK5VY6earf" ] },
      { "delegate": "tz1aXD7Jigrt3PBYSpHSg5Rr33SexMmmM5Ys",
        "reception_time": "2022-01-19T09:42:27.161-00:00",
        "included_in_blocks":
          [ "BMV4ydgU3xmEdjxoQJ6aULscYy34SEjB4Y1dWKYesQK5VY6earf" ] },
      { "delegate": "tz1VmiY38m3y95HqQLjMwqnMS7sdMfGomzKi",
        "reception_time": "2022-01-19T09:42:27.157-00:00",
        "included_in_blocks":
          [ "BMV4ydgU3xmEdjxoQJ6aULscYy34SEjB4Y1dWKYesQK5VY6earf" ] },
      { "delegate": "tz1P2Po7YM526ughEsRbY4oR9zaUPDZjxFrb",
        "reception_time": "2022-01-19T09:42:27.157-00:00",
        "included_in_blocks":
          [ "BMV4ydgU3xmEdjxoQJ6aULscYy34SEjB4Y1dWKYesQK5VY6earf" ] } ] }