{ "blocks":
    [ { "hash": "BKuftNwRRuLVX3Bp97rHX82wx1ttPAwjtM3Sh6hzao7pSy9z8bc",
        "delegate": "tz3bvNMQ95vfAYtG8193ymshqjSvmxiCUuR5",
        "reception_time": "2022-01-19T06:22:11.627-00:00",
        "timestamp": "2022-01-19T06:22:00Z" } ],
  "endorsements":
    [ { "delegate": "tz1P2Po7YM526ughEsRbY4oR9zaUPDZjxFrb",
        "reception_time": "2022-01-19T06:22:11.045-00:00",
        "errors":
          [ { "kind": "temporary",
              "id": "proto.011-PtHangz2.prefilter.outdated_endorsement" } ],
        "included_in_blocks":
          [ "BLv1M4tTjFqHvbt3jUUrjRXLobJ6e6AjToctSSw42QW67S913Jb" ] },
      { "delegate": "tz1S8e9GgdZG78XJRB3NqabfWeM37GnhZMWQ",
        "reception_time": "2022-01-19T06:22:10.923-00:00",
        "errors":
          [ { "kind": "temporary",
              "id": "proto.011-PtHangz2.prefilter.outdated_endorsement" } ],
        "included_in_blocks":
          [ "BLv1M4tTjFqHvbt3jUUrjRXLobJ6e6AjToctSSw42QW67S913Jb" ] },
      { "delegate": "tz1go7f6mEQfT2xX2LuHAqgnRGN6c2zHPf5c",
        "reception_time": "2022-01-19T06:22:17.927-00:00",
        "included_in_blocks":
          [ "BLv1M4tTjFqHvbt3jUUrjRXLobJ6e6AjToctSSw42QW67S913Jb" ] },
      { "delegate": "tz1aJS7Pk9uWR3wWyFf1i3RwhYxN84G7stom",
        "reception_time": "2022-01-19T06:22:17.184-00:00",
        "included_in_blocks":
          [ "BLv1M4tTjFqHvbt3jUUrjRXLobJ6e6AjToctSSw42QW67S913Jb" ] },
      { "delegate": "tz1PFeoTuFen8jAMRHajBySNyCwLmY5RqF9M",
        "reception_time": "2022-01-19T06:22:16.599-00:00",
        "included_in_blocks":
          [ "BLv1M4tTjFqHvbt3jUUrjRXLobJ6e6AjToctSSw42QW67S913Jb" ] },
      { "delegate": "tz1cM8Xc7ZP1TrjkTeKq4PeRhtbnwXSBR6Sw",
        "reception_time": "2022-01-19T06:22:15.703-00:00",
        "included_in_blocks":
          [ "BLv1M4tTjFqHvbt3jUUrjRXLobJ6e6AjToctSSw42QW67S913Jb" ] },
      { "delegate": "tz1T7duV5gZWSTq4YpBGbXNLTfznCLDrFxvs",
        "reception_time": "2022-01-19T06:22:15.323-00:00",
        "included_in_blocks":
          [ "BLv1M4tTjFqHvbt3jUUrjRXLobJ6e6AjToctSSw42QW67S913Jb" ] },
      { "delegate": "tz1awXW7wuXy21c66vBudMXQVAPgRnqqwgTH",
        "reception_time": "2022-01-19T06:22:15.353-00:00",
        "included_in_blocks":
          [ "BLv1M4tTjFqHvbt3jUUrjRXLobJ6e6AjToctSSw42QW67S913Jb" ] },
      { "delegate": "tz1aRoaRhSpRYvFdyvgWLL6TGyRoGF51wDjM",
        "reception_time": "2022-01-19T06:22:14.763-00:00",
        "included_in_blocks":
          [ "BLv1M4tTjFqHvbt3jUUrjRXLobJ6e6AjToctSSw42QW67S913Jb" ] },
      { "delegate": "tz1RjoHc98dBoqaH2jawF62XNKh7YsHwbkEv",
        "reception_time": "2022-01-19T06:22:14.760-00:00",
        "included_in_blocks":
          [ "BLv1M4tTjFqHvbt3jUUrjRXLobJ6e6AjToctSSw42QW67S913Jb" ] },
      { "delegate": "tz3NExpXn9aPNZPorRE4SdjJ2RGrfbJgMAaV",
        "reception_time": "2022-01-19T06:22:14.608-00:00",
        "included_in_blocks":
          [ "BLv1M4tTjFqHvbt3jUUrjRXLobJ6e6AjToctSSw42QW67S913Jb" ] },
      { "delegate": "tz1LmaFsWRkjr7QMCx5PtV6xTUz3AmEpKQiF",
        "reception_time": "2022-01-19T06:22:14.416-00:00",
        "included_in_blocks":
          [ "BLv1M4tTjFqHvbt3jUUrjRXLobJ6e6AjToctSSw42QW67S913Jb" ] },
      { "delegate": "tz3NDpRj6WBrJPikcPVHRBEjWKxFw3c6eQPS",
        "reception_time": "2022-01-19T06:22:14.370-00:00",
        "included_in_blocks":
          [ "BLv1M4tTjFqHvbt3jUUrjRXLobJ6e6AjToctSSw42QW67S913Jb" ] },
      { "delegate": "tz1NEKxGEHsFufk87CVZcrqWu8o22qh46GK6",
        "reception_time": "2022-01-19T06:22:14.255-00:00",
        "included_in_blocks":
          [ "BLv1M4tTjFqHvbt3jUUrjRXLobJ6e6AjToctSSw42QW67S913Jb" ] },
      { "delegate": "tz1cYufsxHXJcvANhvS55h3aY32a9BAFB494",
        "reception_time": "2022-01-19T06:22:14.316-00:00",
        "included_in_blocks":
          [ "BLv1M4tTjFqHvbt3jUUrjRXLobJ6e6AjToctSSw42QW67S913Jb" ] },
      { "delegate": "tz1NoYvKjXTzTk54VpLxBfouJ33J8jwKPPvw",
        "reception_time": "2022-01-19T06:22:14.327-00:00",
        "included_in_blocks":
          [ "BLv1M4tTjFqHvbt3jUUrjRXLobJ6e6AjToctSSw42QW67S913Jb" ] },
      { "delegate": "tz1S8MNvuFEUsWgjHvi3AxibRBf388NhT1q2",
        "reception_time": "2022-01-19T06:22:14.161-00:00",
        "included_in_blocks":
          [ "BLv1M4tTjFqHvbt3jUUrjRXLobJ6e6AjToctSSw42QW67S913Jb" ] },
      { "delegate": "tz3RDC3Jdn4j15J7bBHZd29EUee9gVB1CxD9",
        "reception_time": "2022-01-19T06:22:14.173-00:00",
        "included_in_blocks":
          [ "BLv1M4tTjFqHvbt3jUUrjRXLobJ6e6AjToctSSw42QW67S913Jb" ] },
      { "delegate": "tz1KfEsrtDaA1sX7vdM4qmEPWuSytuqCDp5j",
        "reception_time": "2022-01-19T06:22:14.106-00:00",
        "included_in_blocks":
          [ "BLv1M4tTjFqHvbt3jUUrjRXLobJ6e6AjToctSSw42QW67S913Jb" ] },
      { "delegate": "tz1TRqbYbUf2GyrjErf3hBzgBJPzW8y36qEs",
        "reception_time": "2022-01-19T06:22:13.978-00:00",
        "included_in_blocks":
          [ "BLv1M4tTjFqHvbt3jUUrjRXLobJ6e6AjToctSSw42QW67S913Jb" ] },
      { "delegate": "tz1cig1EHyvZd7J2k389moM9PxVgPQvmFkvi",
        "reception_time": "2022-01-19T06:22:14.129-00:00",
        "included_in_blocks":
          [ "BLv1M4tTjFqHvbt3jUUrjRXLobJ6e6AjToctSSw42QW67S913Jb" ] },
      { "delegate": "tz1Nf6tsK4G6bBqgSQERy4nUtkHNKUVdh7q1",
        "reception_time": "2022-01-19T06:22:13.876-00:00",
        "included_in_blocks":
          [ "BLv1M4tTjFqHvbt3jUUrjRXLobJ6e6AjToctSSw42QW67S913Jb" ] },
      { "delegate": "tz3VEZ4k6a4Wx42iyev6i2aVAptTRLEAivNN",
        "reception_time": "2022-01-19T06:22:13.858-00:00",
        "included_in_blocks":
          [ "BLv1M4tTjFqHvbt3jUUrjRXLobJ6e6AjToctSSw42QW67S913Jb" ] },
      { "delegate": "tz1S6H83gugqK4dR5Had9jWR9M1ZdAAVgU5e",
        "reception_time": "2022-01-19T06:22:13.960-00:00",
        "included_in_blocks":
          [ "BLv1M4tTjFqHvbt3jUUrjRXLobJ6e6AjToctSSw42QW67S913Jb" ] },
      { "delegate": "tz2FCNBrERXtaTtNX6iimR1UJ5JSDxvdHM93",
        "reception_time": "2022-01-19T06:22:14.115-00:00",
        "included_in_blocks":
          [ "BLv1M4tTjFqHvbt3jUUrjRXLobJ6e6AjToctSSw42QW67S913Jb" ] },
      { "delegate": "tz1R4PuhxUxBBZhfLJDx2nNjbr7WorAPX1oC",
        "reception_time": "2022-01-19T06:22:13.806-00:00",
        "included_in_blocks":
          [ "BLv1M4tTjFqHvbt3jUUrjRXLobJ6e6AjToctSSw42QW67S913Jb" ] },
      { "delegate": "tz3WMqdzXqRWXwyvj5Hp2H7QEepaUuS7vd9K",
        "reception_time": "2022-01-19T06:22:13.662-00:00",
        "included_in_blocks":
          [ "BLv1M4tTjFqHvbt3jUUrjRXLobJ6e6AjToctSSw42QW67S913Jb" ] },
      { "delegate": "tz1Tnjaxk6tbAeC2TmMApPh8UsrEVQvhHvx5",
        "reception_time": "2022-01-19T06:22:13.480-00:00",
        "included_in_blocks":
          [ "BLv1M4tTjFqHvbt3jUUrjRXLobJ6e6AjToctSSw42QW67S913Jb" ] },
      { "delegate": "tz1gfArv665EUkSg2ojMBzcbfwuPxAvqPvjo",
        "reception_time": "2022-01-19T06:22:13.513-00:00",
        "included_in_blocks":
          [ "BLv1M4tTjFqHvbt3jUUrjRXLobJ6e6AjToctSSw42QW67S913Jb" ] },
      { "delegate": "tz1iPHM2Xx2hwmzcr1EG1zzrV6oKafVoA91m",
        "reception_time": "2022-01-19T06:22:13.511-00:00",
        "included_in_blocks":
          [ "BLv1M4tTjFqHvbt3jUUrjRXLobJ6e6AjToctSSw42QW67S913Jb" ] },
      { "delegate": "tz1RQhNh7iB9CZA7i3ifTWNwiGYVffponfbB",
        "reception_time": "2022-01-19T06:22:13.400-00:00",
        "included_in_blocks":
          [ "BLv1M4tTjFqHvbt3jUUrjRXLobJ6e6AjToctSSw42QW67S913Jb" ] },
      { "delegate": "tz1g8vkmcde6sWKaG2NN9WKzCkDM6Rziq194",
        "reception_time": "2022-01-19T06:22:13.338-00:00",
        "included_in_blocks":
          [ "BLv1M4tTjFqHvbt3jUUrjRXLobJ6e6AjToctSSw42QW67S913Jb" ] },
      { "delegate": "tz1ei4WtWEMEJekSv8qDnu9PExG6Q8HgRGr3",
        "reception_time": "2022-01-19T06:22:13.306-00:00",
        "included_in_blocks":
          [ "BLv1M4tTjFqHvbt3jUUrjRXLobJ6e6AjToctSSw42QW67S913Jb" ] },
      { "delegate": "tz1RCFbB9GpALpsZtu6J58sb74dm8qe6XBzv",
        "reception_time": "2022-01-19T06:22:13.256-00:00",
        "included_in_blocks":
          [ "BLv1M4tTjFqHvbt3jUUrjRXLobJ6e6AjToctSSw42QW67S913Jb" ] },
      { "delegate": "tz1fb7c66UwePkkfDXz4ajFaBP9hVNLdS7JJ",
        "reception_time": "2022-01-19T06:22:13.229-00:00",
        "included_in_blocks":
          [ "BLv1M4tTjFqHvbt3jUUrjRXLobJ6e6AjToctSSw42QW67S913Jb" ] },
      { "delegate": "tz1SYq214SCBy9naR6cvycQsYcUGpBqQAE8d",
        "reception_time": "2022-01-19T06:22:13.313-00:00",
        "included_in_blocks":
          [ "BLv1M4tTjFqHvbt3jUUrjRXLobJ6e6AjToctSSw42QW67S913Jb" ] },
      { "delegate": "tz1PWCDnz783NNGGQjEFFsHtrcK5yBW4E2rm",
        "reception_time": "2022-01-19T06:22:13.293-00:00",
        "included_in_blocks":
          [ "BLv1M4tTjFqHvbt3jUUrjRXLobJ6e6AjToctSSw42QW67S913Jb" ] },
      { "delegate": "tz3RB4aoyjov4KEVRbuhvQ1CKJgBJMWhaeB8",
        "reception_time": "2022-01-19T06:22:13.194-00:00",
        "included_in_blocks":
          [ "BLv1M4tTjFqHvbt3jUUrjRXLobJ6e6AjToctSSw42QW67S913Jb" ] },
      { "delegate": "tz1d6Fx42mYgVFnHUW8T8A7WBfJ6nD9pVok8",
        "reception_time": "2022-01-19T06:22:13.278-00:00",
        "included_in_blocks":
          [ "BLv1M4tTjFqHvbt3jUUrjRXLobJ6e6AjToctSSw42QW67S913Jb" ] },
      { "delegate": "tz1YhNsiRRU8aHNGg7NK3uuP6UDAyacJernB",
        "reception_time": "2022-01-19T06:22:13.282-00:00",
        "included_in_blocks":
          [ "BLv1M4tTjFqHvbt3jUUrjRXLobJ6e6AjToctSSw42QW67S913Jb" ] },
      { "delegate": "tz1VmiY38m3y95HqQLjMwqnMS7sdMfGomzKi",
        "reception_time": "2022-01-19T06:22:13.274-00:00",
        "included_in_blocks":
          [ "BLv1M4tTjFqHvbt3jUUrjRXLobJ6e6AjToctSSw42QW67S913Jb" ] },
      { "delegate": "tz3S6BBeKgJGXxvLyZ1xzXzMPn11nnFtq5L9",
        "reception_time": "2022-01-19T06:22:13.270-00:00",
        "included_in_blocks":
          [ "BLv1M4tTjFqHvbt3jUUrjRXLobJ6e6AjToctSSw42QW67S913Jb" ] },
      { "delegate": "tz1cSj7fTex3JPd1p1LN1fwek6AV1kH93Wwc",
        "reception_time": "2022-01-19T06:22:13.241-00:00",
        "included_in_blocks":
          [ "BLv1M4tTjFqHvbt3jUUrjRXLobJ6e6AjToctSSw42QW67S913Jb" ] },
      { "delegate": "tz3QT9dHYKDqh563chVa6za8526ys1UKfRfL",
        "reception_time": "2022-01-19T06:22:13.224-00:00",
        "included_in_blocks":
          [ "BLv1M4tTjFqHvbt3jUUrjRXLobJ6e6AjToctSSw42QW67S913Jb" ] },
      { "delegate": "tz3hw2kqXhLUvY65ca1eety2oQTpAvd34R9Q",
        "reception_time": "2022-01-19T06:22:13.163-00:00",
        "included_in_blocks":
          [ "BLv1M4tTjFqHvbt3jUUrjRXLobJ6e6AjToctSSw42QW67S913Jb" ] },
      { "delegate": "tz3Zhs2dygr55yHyQyKjntAtY9bgfhLZ4Xj1",
        "reception_time": "2022-01-19T06:22:13.123-00:00",
        "included_in_blocks":
          [ "BLv1M4tTjFqHvbt3jUUrjRXLobJ6e6AjToctSSw42QW67S913Jb" ] },
      { "delegate": "tz1aqcYgG6NuViML5vdWhohHJBYxcDVLNUsE",
        "reception_time": "2022-01-19T06:22:13.238-00:00",
        "included_in_blocks":
          [ "BLv1M4tTjFqHvbt3jUUrjRXLobJ6e6AjToctSSw42QW67S913Jb" ] },
      { "delegate": "tz1WCd2jm4uSt4vntk4vSuUWoZQGhLcDuR9q",
        "reception_time": "2022-01-19T06:22:13.065-00:00",
        "included_in_blocks":
          [ "BLv1M4tTjFqHvbt3jUUrjRXLobJ6e6AjToctSSw42QW67S913Jb" ] },
      { "delegate": "tz1VQnqCCqX4K5sP3FNkVSNKTdCAMJDd3E1n",
        "reception_time": "2022-01-19T06:22:13.097-00:00",
        "included_in_blocks":
          [ "BLv1M4tTjFqHvbt3jUUrjRXLobJ6e6AjToctSSw42QW67S913Jb" ] },
      { "delegate": "tz1gUNyn3hmnEWqkusWPzxRaon1cs7ndWh7h",
        "reception_time": "2022-01-19T06:22:13.097-00:00",
        "included_in_blocks":
          [ "BLv1M4tTjFqHvbt3jUUrjRXLobJ6e6AjToctSSw42QW67S913Jb" ] },
      { "delegate": "tz3QSGPoRp3Kn7n3vY24eYeu3Peuqo45LQ4D",
        "reception_time": "2022-01-19T06:22:13.091-00:00",
        "included_in_blocks":
          [ "BLv1M4tTjFqHvbt3jUUrjRXLobJ6e6AjToctSSw42QW67S913Jb" ] },
      { "delegate": "tz1TzaNn7wSQSP5gYPXCnNzBCpyMiidCq1PX",
        "reception_time": "2022-01-19T06:22:13.054-00:00",
        "included_in_blocks":
          [ "BLv1M4tTjFqHvbt3jUUrjRXLobJ6e6AjToctSSw42QW67S913Jb" ] },
      { "delegate": "tz3bTdwZinP8U1JmSweNzVKhmwafqWmFWRfk",
        "reception_time": "2022-01-19T06:22:13.083-00:00",
        "included_in_blocks":
          [ "BLv1M4tTjFqHvbt3jUUrjRXLobJ6e6AjToctSSw42QW67S913Jb" ] },
      { "delegate": "tz3gtoUxdudfBRcNY7iVdKPHCYYX6xdPpoRS",
        "reception_time": "2022-01-19T06:22:13.050-00:00",
        "included_in_blocks":
          [ "BLv1M4tTjFqHvbt3jUUrjRXLobJ6e6AjToctSSw42QW67S913Jb" ] },
      { "delegate": "tz3NxTnke1acr8o3h5y9ytf5awQBGNJUKzVU",
        "reception_time": "2022-01-19T06:22:13.149-00:00",
        "included_in_blocks":
          [ "BLv1M4tTjFqHvbt3jUUrjRXLobJ6e6AjToctSSw42QW67S913Jb" ] },
      { "delegate": "tz3ZbP2pM3nwvXztbuMJwJnDvV5xdpU8UkkD",
        "reception_time": "2022-01-19T06:22:13.075-00:00",
        "included_in_blocks":
          [ "BLv1M4tTjFqHvbt3jUUrjRXLobJ6e6AjToctSSw42QW67S913Jb" ] },
      { "delegate": "tz1Ldzz6k1BHdhuKvAtMRX7h5kJSMHESMHLC",
        "reception_time": "2022-01-19T06:22:13.114-00:00",
        "included_in_blocks":
          [ "BLv1M4tTjFqHvbt3jUUrjRXLobJ6e6AjToctSSw42QW67S913Jb" ] },
      { "delegate": "tz1TRspM5SeZpaQUhzByXbEvqKF1vnCM2YTK",
        "reception_time": "2022-01-19T06:22:13.149-00:00",
        "included_in_blocks":
          [ "BLv1M4tTjFqHvbt3jUUrjRXLobJ6e6AjToctSSw42QW67S913Jb" ] },
      { "delegate": "tz1irJKkXS2DBWkU1NnmFQx1c1L7pbGg4yhk",
        "reception_time": "2022-01-19T06:22:13.009-00:00",
        "included_in_blocks":
          [ "BLv1M4tTjFqHvbt3jUUrjRXLobJ6e6AjToctSSw42QW67S913Jb" ] },
      { "delegate": "tz3bvNMQ95vfAYtG8193ymshqjSvmxiCUuR5",
        "reception_time": "2022-01-19T06:22:13.025-00:00",
        "included_in_blocks":
          [ "BLv1M4tTjFqHvbt3jUUrjRXLobJ6e6AjToctSSw42QW67S913Jb" ] },
      { "delegate": "tz1Lhf4J9Qxoe3DZ2nfe8FGDnvVj7oKjnMY6",
        "reception_time": "2022-01-19T06:22:13.050-00:00",
        "included_in_blocks":
          [ "BLv1M4tTjFqHvbt3jUUrjRXLobJ6e6AjToctSSw42QW67S913Jb" ] },
      { "delegate": "tz1eEnQhbwf6trb8Q8mPb2RaPkNk2rN7BKi8",
        "reception_time": "2022-01-19T06:22:12.843-00:00",
        "included_in_blocks":
          [ "BLv1M4tTjFqHvbt3jUUrjRXLobJ6e6AjToctSSw42QW67S913Jb" ] } ] }