{ "blocks":
    [ { "hash": "BM6aE9D7jWmSAHc86BQpaPmp8pXxquFuGtSeDoxCZKxWedtQd2D",
        "delegate": "tz1MJx9vhaNRSimcuXPK2rW4fLccQnDAnVKJ",
        "reception_time": "2022-01-19T08:22:50.418-00:00",
        "timestamp": "2022-01-19T08:22:40Z" } ],
  "endorsements":
    [ { "delegate": "tz1S8e9GgdZG78XJRB3NqabfWeM37GnhZMWQ",
        "reception_time": "2022-01-19T08:22:50.041-00:00",
        "errors":
          [ { "kind": "temporary",
              "id": "proto.011-PtHangz2.prefilter.outdated_endorsement" } ],
        "included_in_blocks":
          [ "BLnN4Jqx5moSeNZbxnwQykBzgRW8uuRSmPZnik1o2nWHQP3VDuY" ] },
      { "delegate": "tz1eEnQhbwf6trb8Q8mPb2RaPkNk2rN7BKi8",
        "reception_time": "2022-01-19T08:22:51.787-00:00",
        "included_in_blocks":
          [ "BLnN4Jqx5moSeNZbxnwQykBzgRW8uuRSmPZnik1o2nWHQP3VDuY" ] },
      { "delegate": "tz1P2Po7YM526ughEsRbY4oR9zaUPDZjxFrb",
        "reception_time": "2022-01-19T08:22:51.787-00:00",
        "included_in_blocks":
          [ "BLnN4Jqx5moSeNZbxnwQykBzgRW8uuRSmPZnik1o2nWHQP3VDuY" ] },
      { "delegate": "tz1Kt4P8BCaP93AEV4eA7gmpRryWt5hznjCP",
        "reception_time": "2022-01-19T08:22:51.787-00:00",
        "included_in_blocks":
          [ "BLnN4Jqx5moSeNZbxnwQykBzgRW8uuRSmPZnik1o2nWHQP3VDuY" ] },
      { "delegate": "tz1STeamwbp68THcny9zk3LsbG3H36DMvbRK",
        "reception_time": "2022-01-19T08:22:51.787-00:00",
        "included_in_blocks":
          [ "BLnN4Jqx5moSeNZbxnwQykBzgRW8uuRSmPZnik1o2nWHQP3VDuY" ] },
      { "delegate": "tz1TXzyaKUA8wsWefdSnyaYFnV2M3vCV7er9",
        "reception_time": "2022-01-19T08:22:51.787-00:00",
        "included_in_blocks":
          [ "BLnN4Jqx5moSeNZbxnwQykBzgRW8uuRSmPZnik1o2nWHQP3VDuY" ] },
      { "delegate": "tz1irJKkXS2DBWkU1NnmFQx1c1L7pbGg4yhk",
        "reception_time": "2022-01-19T08:22:51.787-00:00",
        "included_in_blocks":
          [ "BLnN4Jqx5moSeNZbxnwQykBzgRW8uuRSmPZnik1o2nWHQP3VDuY" ] },
      { "delegate": "tz1VmiY38m3y95HqQLjMwqnMS7sdMfGomzKi",
        "reception_time": "2022-01-19T08:22:51.787-00:00",
        "included_in_blocks":
          [ "BLnN4Jqx5moSeNZbxnwQykBzgRW8uuRSmPZnik1o2nWHQP3VDuY" ] },
      { "delegate": "tz1Ldzz6k1BHdhuKvAtMRX7h5kJSMHESMHLC",
        "reception_time": "2022-01-19T08:22:51.787-00:00",
        "included_in_blocks":
          [ "BLnN4Jqx5moSeNZbxnwQykBzgRW8uuRSmPZnik1o2nWHQP3VDuY" ] },
      { "delegate": "tz1VQnqCCqX4K5sP3FNkVSNKTdCAMJDd3E1n",
        "reception_time": "2022-01-19T08:22:51.787-00:00",
        "included_in_blocks":
          [ "BLnN4Jqx5moSeNZbxnwQykBzgRW8uuRSmPZnik1o2nWHQP3VDuY" ] },
      { "delegate": "tz1gUNyn3hmnEWqkusWPzxRaon1cs7ndWh7h",
        "reception_time": "2022-01-19T08:22:51.787-00:00",
        "included_in_blocks":
          [ "BLnN4Jqx5moSeNZbxnwQykBzgRW8uuRSmPZnik1o2nWHQP3VDuY" ] },
      { "delegate": "tz1TRspM5SeZpaQUhzByXbEvqKF1vnCM2YTK",
        "reception_time": "2022-01-19T08:22:51.787-00:00",
        "included_in_blocks":
          [ "BLnN4Jqx5moSeNZbxnwQykBzgRW8uuRSmPZnik1o2nWHQP3VDuY" ] },
      { "delegate": "tz3ZbP2pM3nwvXztbuMJwJnDvV5xdpU8UkkD",
        "reception_time": "2022-01-19T08:22:51.787-00:00",
        "included_in_blocks":
          [ "BLnN4Jqx5moSeNZbxnwQykBzgRW8uuRSmPZnik1o2nWHQP3VDuY" ] },
      { "delegate": "tz3NxTnke1acr8o3h5y9ytf5awQBGNJUKzVU",
        "reception_time": "2022-01-19T08:22:51.787-00:00",
        "included_in_blocks":
          [ "BLnN4Jqx5moSeNZbxnwQykBzgRW8uuRSmPZnik1o2nWHQP3VDuY" ] },
      { "delegate": "tz1TzaNn7wSQSP5gYPXCnNzBCpyMiidCq1PX",
        "reception_time": "2022-01-19T08:22:51.787-00:00",
        "included_in_blocks":
          [ "BLnN4Jqx5moSeNZbxnwQykBzgRW8uuRSmPZnik1o2nWHQP3VDuY" ] },
      { "delegate": "tz3RKYFsLuQzKBtmYuLNas7uMu3AsYd4QdsA",
        "reception_time": "2022-01-19T08:22:52.144-00:00",
        "included_in_blocks":
          [ "BLnN4Jqx5moSeNZbxnwQykBzgRW8uuRSmPZnik1o2nWHQP3VDuY" ] },
      { "delegate": "tz1WCd2jm4uSt4vntk4vSuUWoZQGhLcDuR9q",
        "reception_time": "2022-01-19T08:22:52.144-00:00",
        "included_in_blocks":
          [ "BLnN4Jqx5moSeNZbxnwQykBzgRW8uuRSmPZnik1o2nWHQP3VDuY" ] },
      { "delegate": "tz3hw2kqXhLUvY65ca1eety2oQTpAvd34R9Q",
        "reception_time": "2022-01-19T08:22:52.144-00:00",
        "included_in_blocks":
          [ "BLnN4Jqx5moSeNZbxnwQykBzgRW8uuRSmPZnik1o2nWHQP3VDuY" ] },
      { "delegate": "tz1aXD7Jigrt3PBYSpHSg5Rr33SexMmmM5Ys",
        "reception_time": "2022-01-19T08:22:52.144-00:00",
        "included_in_blocks":
          [ "BLnN4Jqx5moSeNZbxnwQykBzgRW8uuRSmPZnik1o2nWHQP3VDuY" ] },
      { "delegate": "tz3QSGPoRp3Kn7n3vY24eYeu3Peuqo45LQ4D",
        "reception_time": "2022-01-19T08:22:52.144-00:00",
        "included_in_blocks":
          [ "BLnN4Jqx5moSeNZbxnwQykBzgRW8uuRSmPZnik1o2nWHQP3VDuY" ] },
      { "delegate": "tz3gtoUxdudfBRcNY7iVdKPHCYYX6xdPpoRS",
        "reception_time": "2022-01-19T08:22:52.144-00:00",
        "included_in_blocks":
          [ "BLnN4Jqx5moSeNZbxnwQykBzgRW8uuRSmPZnik1o2nWHQP3VDuY" ] },
      { "delegate": "tz1PWCDnz783NNGGQjEFFsHtrcK5yBW4E2rm",
        "reception_time": "2022-01-19T08:22:52.309-00:00",
        "included_in_blocks":
          [ "BLnN4Jqx5moSeNZbxnwQykBzgRW8uuRSmPZnik1o2nWHQP3VDuY" ] },
      { "delegate": "tz1fPKAtsYydh4f1wfWNfeNxWYu72TmM48fu",
        "reception_time": "2022-01-19T08:22:52.438-00:00",
        "included_in_blocks":
          [ "BLnN4Jqx5moSeNZbxnwQykBzgRW8uuRSmPZnik1o2nWHQP3VDuY" ] },
      { "delegate": "tz1RpeqCseogMpCPXpyGjhmLH9i9DhqJ8cUR",
        "reception_time": "2022-01-19T08:22:52.446-00:00",
        "included_in_blocks":
          [ "BLnN4Jqx5moSeNZbxnwQykBzgRW8uuRSmPZnik1o2nWHQP3VDuY" ] },
      { "delegate": "tz1SYq214SCBy9naR6cvycQsYcUGpBqQAE8d",
        "reception_time": "2022-01-19T08:22:52.463-00:00",
        "included_in_blocks":
          [ "BLnN4Jqx5moSeNZbxnwQykBzgRW8uuRSmPZnik1o2nWHQP3VDuY" ] },
      { "delegate": "tz1ei4WtWEMEJekSv8qDnu9PExG6Q8HgRGr3",
        "reception_time": "2022-01-19T08:22:52.494-00:00",
        "included_in_blocks":
          [ "BLnN4Jqx5moSeNZbxnwQykBzgRW8uuRSmPZnik1o2nWHQP3VDuY" ] },
      { "delegate": "tz1gfArv665EUkSg2ojMBzcbfwuPxAvqPvjo",
        "reception_time": "2022-01-19T08:22:52.500-00:00",
        "included_in_blocks":
          [ "BLnN4Jqx5moSeNZbxnwQykBzgRW8uuRSmPZnik1o2nWHQP3VDuY" ] },
      { "delegate": "tz3Zhs2dygr55yHyQyKjntAtY9bgfhLZ4Xj1",
        "reception_time": "2022-01-19T08:22:52.513-00:00",
        "included_in_blocks":
          [ "BLnN4Jqx5moSeNZbxnwQykBzgRW8uuRSmPZnik1o2nWHQP3VDuY" ] },
      { "delegate": "tz3iJu5vrKZcsqRPs8yJ61UDoeEXZmtro4qh",
        "reception_time": "2022-01-19T08:22:52.527-00:00",
        "included_in_blocks":
          [ "BLnN4Jqx5moSeNZbxnwQykBzgRW8uuRSmPZnik1o2nWHQP3VDuY" ] },
      { "delegate": "tz1TEc75UKXv4W5cwi14Na3NtqFD51yKQi7h",
        "reception_time": "2022-01-19T08:22:52.565-00:00",
        "included_in_blocks":
          [ "BLnN4Jqx5moSeNZbxnwQykBzgRW8uuRSmPZnik1o2nWHQP3VDuY" ] },
      { "delegate": "tz3S6BBeKgJGXxvLyZ1xzXzMPn11nnFtq5L9",
        "reception_time": "2022-01-19T08:22:52.611-00:00",
        "included_in_blocks":
          [ "BLnN4Jqx5moSeNZbxnwQykBzgRW8uuRSmPZnik1o2nWHQP3VDuY" ] },
      { "delegate": "tz3RB4aoyjov4KEVRbuhvQ1CKJgBJMWhaeB8",
        "reception_time": "2022-01-19T08:22:52.626-00:00",
        "included_in_blocks":
          [ "BLnN4Jqx5moSeNZbxnwQykBzgRW8uuRSmPZnik1o2nWHQP3VDuY" ] },
      { "delegate": "tz3QT9dHYKDqh563chVa6za8526ys1UKfRfL",
        "reception_time": "2022-01-19T08:22:52.693-00:00",
        "included_in_blocks":
          [ "BLnN4Jqx5moSeNZbxnwQykBzgRW8uuRSmPZnik1o2nWHQP3VDuY" ] },
      { "delegate": "tz1LmaFsWRkjr7QMCx5PtV6xTUz3AmEpKQiF",
        "reception_time": "2022-01-19T08:22:52.693-00:00",
        "included_in_blocks":
          [ "BLnN4Jqx5moSeNZbxnwQykBzgRW8uuRSmPZnik1o2nWHQP3VDuY" ] },
      { "delegate": "tz1UJvHTgpVzcKWhTazGxVcn5wsHru5Gietg",
        "reception_time": "2022-01-19T08:22:52.696-00:00",
        "included_in_blocks":
          [ "BLnN4Jqx5moSeNZbxnwQykBzgRW8uuRSmPZnik1o2nWHQP3VDuY" ] },
      { "delegate": "tz1dwu9aYb7CRNq4Y2zAjipdjFuSVKhHS8vA",
        "reception_time": "2022-01-19T08:22:52.719-00:00",
        "included_in_blocks":
          [ "BLnN4Jqx5moSeNZbxnwQykBzgRW8uuRSmPZnik1o2nWHQP3VDuY" ] },
      { "delegate": "tz3QCNyySViKHmeSr45kzDxzchys7NiXCWoa",
        "reception_time": "2022-01-19T08:22:52.840-00:00",
        "included_in_blocks":
          [ "BLnN4Jqx5moSeNZbxnwQykBzgRW8uuRSmPZnik1o2nWHQP3VDuY" ] },
      { "delegate": "tz1TwVimQy3BywXoSszdFXjT9bSTQrsZYo2u",
        "reception_time": "2022-01-19T08:22:52.864-00:00",
        "included_in_blocks":
          [ "BLnN4Jqx5moSeNZbxnwQykBzgRW8uuRSmPZnik1o2nWHQP3VDuY" ] },
      { "delegate": "tz1S8MNvuFEUsWgjHvi3AxibRBf388NhT1q2",
        "reception_time": "2022-01-19T08:22:52.899-00:00",
        "included_in_blocks":
          [ "BLnN4Jqx5moSeNZbxnwQykBzgRW8uuRSmPZnik1o2nWHQP3VDuY" ] },
      { "delegate": "tz1KfEsrtDaA1sX7vdM4qmEPWuSytuqCDp5j",
        "reception_time": "2022-01-19T08:22:53.005-00:00",
        "included_in_blocks":
          [ "BLnN4Jqx5moSeNZbxnwQykBzgRW8uuRSmPZnik1o2nWHQP3VDuY" ] },
      { "delegate": "tz1NEKxGEHsFufk87CVZcrqWu8o22qh46GK6",
        "reception_time": "2022-01-19T08:22:53.166-00:00",
        "included_in_blocks":
          [ "BLnN4Jqx5moSeNZbxnwQykBzgRW8uuRSmPZnik1o2nWHQP3VDuY" ] },
      { "delegate": "tz1WctSwL49BZtdWAQ75NY6vr4xsAx6oKdah",
        "reception_time": "2022-01-19T08:22:53.195-00:00",
        "included_in_blocks":
          [ "BLnN4Jqx5moSeNZbxnwQykBzgRW8uuRSmPZnik1o2nWHQP3VDuY" ] },
      { "delegate": "tz1Nf6tsK4G6bBqgSQERy4nUtkHNKUVdh7q1",
        "reception_time": "2022-01-19T08:22:53.199-00:00",
        "included_in_blocks":
          [ "BLnN4Jqx5moSeNZbxnwQykBzgRW8uuRSmPZnik1o2nWHQP3VDuY" ] },
      { "delegate": "tz1NL14EZjUmY9eEdk1ejyACEaTuwVGVKEeU",
        "reception_time": "2022-01-19T08:22:53.305-00:00",
        "included_in_blocks":
          [ "BLnN4Jqx5moSeNZbxnwQykBzgRW8uuRSmPZnik1o2nWHQP3VDuY" ] },
      { "delegate": "tz1cig1EHyvZd7J2k389moM9PxVgPQvmFkvi",
        "reception_time": "2022-01-19T08:22:53.316-00:00",
        "included_in_blocks":
          [ "BLnN4Jqx5moSeNZbxnwQykBzgRW8uuRSmPZnik1o2nWHQP3VDuY" ] },
      { "delegate": "tz1hAYfexyzPGG6RhZZMpDvAHifubsbb6kgn",
        "reception_time": "2022-01-19T08:22:53.325-00:00",
        "included_in_blocks":
          [ "BLnN4Jqx5moSeNZbxnwQykBzgRW8uuRSmPZnik1o2nWHQP3VDuY" ] },
      { "delegate": "tz3UoffC7FG7zfpmvmjUmUeAaHvzdcUvAj6r",
        "reception_time": "2022-01-19T08:22:53.459-00:00",
        "included_in_blocks":
          [ "BLnN4Jqx5moSeNZbxnwQykBzgRW8uuRSmPZnik1o2nWHQP3VDuY" ] },
      { "delegate": "tz1g8vkmcde6sWKaG2NN9WKzCkDM6Rziq194",
        "reception_time": "2022-01-19T08:22:53.527-00:00",
        "included_in_blocks":
          [ "BLnN4Jqx5moSeNZbxnwQykBzgRW8uuRSmPZnik1o2nWHQP3VDuY" ] },
      { "delegate": "tz2FCNBrERXtaTtNX6iimR1UJ5JSDxvdHM93",
        "reception_time": "2022-01-19T08:22:53.558-00:00",
        "included_in_blocks":
          [ "BLnN4Jqx5moSeNZbxnwQykBzgRW8uuRSmPZnik1o2nWHQP3VDuY" ] },
      { "delegate": "tz1RjoHc98dBoqaH2jawF62XNKh7YsHwbkEv",
        "reception_time": "2022-01-19T08:22:53.581-00:00",
        "included_in_blocks":
          [ "BLnN4Jqx5moSeNZbxnwQykBzgRW8uuRSmPZnik1o2nWHQP3VDuY" ] },
      { "delegate": "tz1TRqbYbUf2GyrjErf3hBzgBJPzW8y36qEs",
        "reception_time": "2022-01-19T08:22:53.673-00:00",
        "included_in_blocks":
          [ "BLnN4Jqx5moSeNZbxnwQykBzgRW8uuRSmPZnik1o2nWHQP3VDuY" ] },
      { "delegate": "tz3VEZ4k6a4Wx42iyev6i2aVAptTRLEAivNN",
        "reception_time": "2022-01-19T08:22:53.719-00:00",
        "included_in_blocks":
          [ "BLnN4Jqx5moSeNZbxnwQykBzgRW8uuRSmPZnik1o2nWHQP3VDuY" ] },
      { "delegate": "tz1PeZx7FXy7QRuMREGXGxeipb24RsMMzUNe",
        "reception_time": "2022-01-19T08:22:53.773-00:00",
        "included_in_blocks":
          [ "BLnN4Jqx5moSeNZbxnwQykBzgRW8uuRSmPZnik1o2nWHQP3VDuY" ] },
      { "delegate": "tz1dRKU4FQ9QRRQPdaH4zCR6gmCmXfcvcgtB",
        "reception_time": "2022-01-19T08:22:54.112-00:00",
        "included_in_blocks":
          [ "BLnN4Jqx5moSeNZbxnwQykBzgRW8uuRSmPZnik1o2nWHQP3VDuY" ] },
      { "delegate": "tz3WMqdzXqRWXwyvj5Hp2H7QEepaUuS7vd9K",
        "reception_time": "2022-01-19T08:22:54.172-00:00",
        "included_in_blocks":
          [ "BLnN4Jqx5moSeNZbxnwQykBzgRW8uuRSmPZnik1o2nWHQP3VDuY" ] },
      { "delegate": "tz1fUyqYH7H4pRHN1roWY17giXhy1RvxjgUV",
        "reception_time": "2022-01-19T08:22:54.192-00:00",
        "included_in_blocks":
          [ "BLnN4Jqx5moSeNZbxnwQykBzgRW8uuRSmPZnik1o2nWHQP3VDuY" ] },
      { "delegate": "tz1T7duV5gZWSTq4YpBGbXNLTfznCLDrFxvs",
        "reception_time": "2022-01-19T08:22:54.212-00:00",
        "included_in_blocks":
          [ "BLnN4Jqx5moSeNZbxnwQykBzgRW8uuRSmPZnik1o2nWHQP3VDuY" ] },
      { "delegate": "tz3RDC3Jdn4j15J7bBHZd29EUee9gVB1CxD9",
        "reception_time": "2022-01-19T08:22:54.282-00:00",
        "included_in_blocks":
          [ "BLnN4Jqx5moSeNZbxnwQykBzgRW8uuRSmPZnik1o2nWHQP3VDuY" ] },
      { "delegate": "tz3NDpRj6WBrJPikcPVHRBEjWKxFw3c6eQPS",
        "reception_time": "2022-01-19T08:22:54.327-00:00",
        "included_in_blocks":
          [ "BLnN4Jqx5moSeNZbxnwQykBzgRW8uuRSmPZnik1o2nWHQP3VDuY" ] },
      { "delegate": "tz1aRoaRhSpRYvFdyvgWLL6TGyRoGF51wDjM",
        "reception_time": "2022-01-19T08:22:54.408-00:00",
        "included_in_blocks":
          [ "BLnN4Jqx5moSeNZbxnwQykBzgRW8uuRSmPZnik1o2nWHQP3VDuY" ] },
      { "delegate": "tz3bvNMQ95vfAYtG8193ymshqjSvmxiCUuR5",
        "reception_time": "2022-01-19T08:22:54.505-00:00",
        "included_in_blocks":
          [ "BLnN4Jqx5moSeNZbxnwQykBzgRW8uuRSmPZnik1o2nWHQP3VDuY" ] },
      { "delegate": "tz1Q8QkSBS63ZQnH3fBTiAMPes9R666Rn6Sc",
        "reception_time": "2022-01-19T08:22:54.594-00:00",
        "included_in_blocks":
          [ "BLnN4Jqx5moSeNZbxnwQykBzgRW8uuRSmPZnik1o2nWHQP3VDuY" ] },
      { "delegate": "tz3NExpXn9aPNZPorRE4SdjJ2RGrfbJgMAaV",
        "reception_time": "2022-01-19T08:22:54.794-00:00",
        "included_in_blocks":
          [ "BLnN4Jqx5moSeNZbxnwQykBzgRW8uuRSmPZnik1o2nWHQP3VDuY" ] },
      { "delegate": "tz1V3yg82mcrPJbegqVCPn6bC8w1CSTRp3f8",
        "reception_time": "2022-01-19T08:22:54.880-00:00",
        "included_in_blocks":
          [ "BLnN4Jqx5moSeNZbxnwQykBzgRW8uuRSmPZnik1o2nWHQP3VDuY" ] },
      { "delegate": "tz1awXW7wuXy21c66vBudMXQVAPgRnqqwgTH",
        "reception_time": "2022-01-19T08:22:54.980-00:00",
        "included_in_blocks":
          [ "BLnN4Jqx5moSeNZbxnwQykBzgRW8uuRSmPZnik1o2nWHQP3VDuY" ] },
      { "delegate": "tz1bTpviNnyx2PXsNmGpCQTMQsGoYordkUoA",
        "reception_time": "2022-01-19T08:22:55.010-00:00",
        "included_in_blocks":
          [ "BLnN4Jqx5moSeNZbxnwQykBzgRW8uuRSmPZnik1o2nWHQP3VDuY" ] },
      { "delegate": "tz1Qy1zwn1DSapdsHZSNYDqV5CscnUoSkXCo",
        "reception_time": "2022-01-19T08:22:55.393-00:00",
        "included_in_blocks":
          [ "BLnN4Jqx5moSeNZbxnwQykBzgRW8uuRSmPZnik1o2nWHQP3VDuY" ] },
      { "delegate": "tz1QdCydwfoU3Pvv2jq5TCsLTNm9Cgk7ptyk",
        "reception_time": "2022-01-19T08:22:55.414-00:00",
        "included_in_blocks":
          [ "BLnN4Jqx5moSeNZbxnwQykBzgRW8uuRSmPZnik1o2nWHQP3VDuY" ] },
      { "delegate": "tz1eVaNx3gCmG1EsLjijkmgAxdLYVf6Bf5Sq",
        "reception_time": "2022-01-19T08:22:55.614-00:00",
        "included_in_blocks":
          [ "BLnN4Jqx5moSeNZbxnwQykBzgRW8uuRSmPZnik1o2nWHQP3VDuY" ] },
      { "delegate": "tz1W5VkdB5s7ENMESVBtwyt9kyvLqPcUczRT",
        "reception_time": "2022-01-19T08:22:56.960-00:00",
        "included_in_blocks":
          [ "BLnN4Jqx5moSeNZbxnwQykBzgRW8uuRSmPZnik1o2nWHQP3VDuY" ] },
      { "delegate": "tz1NpWrAyDL9k2Lmnyxcgr9xuJakbBxdq7FB",
        "reception_time": "2022-01-19T08:22:59.397-00:00",
        "included_in_blocks":
          [ "BLnN4Jqx5moSeNZbxnwQykBzgRW8uuRSmPZnik1o2nWHQP3VDuY" ] },
      { "delegate": "tz1go7f6mEQfT2xX2LuHAqgnRGN6c2zHPf5c",
        "reception_time": "2022-01-19T08:22:59.727-00:00",
        "included_in_blocks":
          [ "BLnN4Jqx5moSeNZbxnwQykBzgRW8uuRSmPZnik1o2nWHQP3VDuY" ] } ] }