{ "blocks":
    [ { "hash": "BKjyeUeNk5aztANepU2RYz6SDXVr39tMGoX1scVBUYj3EWkqAgP",
        "delegate": "tz1Nf6tsK4G6bBqgSQERy4nUtkHNKUVdh7q1",
        "reception_time": "2022-01-19T03:16:26.185-00:00",
        "timestamp": "2022-01-19T03:16:20Z" } ],
  "endorsements":
    [ { "delegate": "tz1NdhRv643wLW6zCcRP3VfT24dvDnh7nuh9" },
      { "delegate": "tz1NpWrAyDL9k2Lmnyxcgr9xuJakbBxdq7FB",
        "reception_time": "2022-01-19T03:16:34.825-00:00",
        "included_in_blocks":
          [ "BKknLReAx6yHELYu2waE46gnPyyvd2iiRsYnC7sywYgocjg8F9w" ] },
      { "delegate": "tz1cYufsxHXJcvANhvS55h3aY32a9BAFB494",
        "reception_time": "2022-01-19T03:16:31.863-00:00",
        "included_in_blocks":
          [ "BKknLReAx6yHELYu2waE46gnPyyvd2iiRsYnC7sywYgocjg8F9w" ] },
      { "delegate": "tz1T7duV5gZWSTq4YpBGbXNLTfznCLDrFxvs",
        "reception_time": "2022-01-19T03:16:30.183-00:00",
        "included_in_blocks":
          [ "BKknLReAx6yHELYu2waE46gnPyyvd2iiRsYnC7sywYgocjg8F9w" ] },
      { "delegate": "tz1YiuvpfeVAHbnU8akcWErNfQGFHNQ7F45z",
        "reception_time": "2022-01-19T03:16:29.899-00:00",
        "included_in_blocks":
          [ "BKknLReAx6yHELYu2waE46gnPyyvd2iiRsYnC7sywYgocjg8F9w" ] },
      { "delegate": "tz1aRoaRhSpRYvFdyvgWLL6TGyRoGF51wDjM",
        "reception_time": "2022-01-19T03:16:29.918-00:00",
        "included_in_blocks":
          [ "BKknLReAx6yHELYu2waE46gnPyyvd2iiRsYnC7sywYgocjg8F9w" ] },
      { "delegate": "tz1dRKU4FQ9QRRQPdaH4zCR6gmCmXfcvcgtB",
        "reception_time": "2022-01-19T03:16:29.721-00:00",
        "included_in_blocks":
          [ "BKknLReAx6yHELYu2waE46gnPyyvd2iiRsYnC7sywYgocjg8F9w" ] },
      { "delegate": "tz3RDC3Jdn4j15J7bBHZd29EUee9gVB1CxD9",
        "reception_time": "2022-01-19T03:16:29.783-00:00",
        "included_in_blocks":
          [ "BKknLReAx6yHELYu2waE46gnPyyvd2iiRsYnC7sywYgocjg8F9w" ] },
      { "delegate": "tz3UoffC7FG7zfpmvmjUmUeAaHvzdcUvAj6r",
        "reception_time": "2022-01-19T03:16:30.442-00:00",
        "included_in_blocks":
          [ "BKknLReAx6yHELYu2waE46gnPyyvd2iiRsYnC7sywYgocjg8F9w" ] },
      { "delegate": "tz3NDpRj6WBrJPikcPVHRBEjWKxFw3c6eQPS",
        "reception_time": "2022-01-19T03:16:29.428-00:00",
        "included_in_blocks":
          [ "BKknLReAx6yHELYu2waE46gnPyyvd2iiRsYnC7sywYgocjg8F9w" ] },
      { "delegate": "tz3gLTu4Yxj8tPAcriQVUdxv6BY9QyvzU1az",
        "reception_time": "2022-01-19T03:16:29.439-00:00",
        "included_in_blocks":
          [ "BKknLReAx6yHELYu2waE46gnPyyvd2iiRsYnC7sywYgocjg8F9w" ] },
      { "delegate": "tz1cM8Xc7ZP1TrjkTeKq4PeRhtbnwXSBR6Sw",
        "reception_time": "2022-01-19T03:16:30.130-00:00",
        "included_in_blocks":
          [ "BKknLReAx6yHELYu2waE46gnPyyvd2iiRsYnC7sywYgocjg8F9w" ] },
      { "delegate": "tz3NExpXn9aPNZPorRE4SdjJ2RGrfbJgMAaV",
        "reception_time": "2022-01-19T03:16:30.201-00:00",
        "included_in_blocks":
          [ "BKknLReAx6yHELYu2waE46gnPyyvd2iiRsYnC7sywYgocjg8F9w" ] },
      { "delegate": "tz1fUyqYH7H4pRHN1roWY17giXhy1RvxjgUV",
        "reception_time": "2022-01-19T03:16:29.083-00:00",
        "included_in_blocks":
          [ "BKknLReAx6yHELYu2waE46gnPyyvd2iiRsYnC7sywYgocjg8F9w" ] },
      { "delegate": "tz3RB4aoyjov4KEVRbuhvQ1CKJgBJMWhaeB8",
        "reception_time": "2022-01-19T03:16:29.099-00:00",
        "included_in_blocks":
          [ "BKknLReAx6yHELYu2waE46gnPyyvd2iiRsYnC7sywYgocjg8F9w" ] },
      { "delegate": "tz1RjoHc98dBoqaH2jawF62XNKh7YsHwbkEv",
        "reception_time": "2022-01-19T03:16:29.851-00:00",
        "included_in_blocks":
          [ "BKknLReAx6yHELYu2waE46gnPyyvd2iiRsYnC7sywYgocjg8F9w" ] },
      { "delegate": "tz3VEZ4k6a4Wx42iyev6i2aVAptTRLEAivNN",
        "reception_time": "2022-01-19T03:16:29.892-00:00",
        "included_in_blocks":
          [ "BKknLReAx6yHELYu2waE46gnPyyvd2iiRsYnC7sywYgocjg8F9w" ] },
      { "delegate": "tz2FCNBrERXtaTtNX6iimR1UJ5JSDxvdHM93",
        "reception_time": "2022-01-19T03:16:28.685-00:00",
        "included_in_blocks":
          [ "BKknLReAx6yHELYu2waE46gnPyyvd2iiRsYnC7sywYgocjg8F9w" ] },
      { "delegate": "tz1TRqbYbUf2GyrjErf3hBzgBJPzW8y36qEs",
        "reception_time": "2022-01-19T03:16:28.885-00:00",
        "included_in_blocks":
          [ "BKknLReAx6yHELYu2waE46gnPyyvd2iiRsYnC7sywYgocjg8F9w" ] },
      { "delegate": "tz3bTdwZinP8U1JmSweNzVKhmwafqWmFWRfk",
        "reception_time": "2022-01-19T03:16:28.522-00:00",
        "included_in_blocks":
          [ "BKknLReAx6yHELYu2waE46gnPyyvd2iiRsYnC7sywYgocjg8F9w" ] },
      { "delegate": "tz1WBfwbT66FC6BTLexc2BoyCCBM9LG7pnVW",
        "reception_time": "2022-01-19T03:16:28.624-00:00",
        "included_in_blocks":
          [ "BKknLReAx6yHELYu2waE46gnPyyvd2iiRsYnC7sywYgocjg8F9w" ] },
      { "delegate": "tz1KfEsrtDaA1sX7vdM4qmEPWuSytuqCDp5j",
        "reception_time": "2022-01-19T03:16:28.852-00:00",
        "included_in_blocks":
          [ "BKknLReAx6yHELYu2waE46gnPyyvd2iiRsYnC7sywYgocjg8F9w" ] },
      { "delegate": "tz1gfArv665EUkSg2ojMBzcbfwuPxAvqPvjo",
        "reception_time": "2022-01-19T03:16:28.708-00:00",
        "included_in_blocks":
          [ "BKknLReAx6yHELYu2waE46gnPyyvd2iiRsYnC7sywYgocjg8F9w" ] },
      { "delegate": "tz1NEKxGEHsFufk87CVZcrqWu8o22qh46GK6",
        "reception_time": "2022-01-19T03:16:28.817-00:00",
        "included_in_blocks":
          [ "BKknLReAx6yHELYu2waE46gnPyyvd2iiRsYnC7sywYgocjg8F9w" ] },
      { "delegate": "tz1WnfXMPaNTBmH7DBPwqCWs9cPDJdkGBTZ8",
        "reception_time": "2022-01-19T03:16:28.637-00:00",
        "included_in_blocks":
          [ "BKknLReAx6yHELYu2waE46gnPyyvd2iiRsYnC7sywYgocjg8F9w" ] },
      { "delegate": "tz1KzSC1J9aBxKp7u8TUnpN8L7S65PBRkgdF",
        "reception_time": "2022-01-19T03:16:29.032-00:00",
        "included_in_blocks":
          [ "BKknLReAx6yHELYu2waE46gnPyyvd2iiRsYnC7sywYgocjg8F9w" ] },
      { "delegate": "tz1UMCB2AHSTwG7YcGNr31CqYCtGN873royv",
        "reception_time": "2022-01-19T03:16:28.544-00:00",
        "included_in_blocks":
          [ "BKknLReAx6yHELYu2waE46gnPyyvd2iiRsYnC7sywYgocjg8F9w" ] },
      { "delegate": "tz1SYq214SCBy9naR6cvycQsYcUGpBqQAE8d",
        "reception_time": "2022-01-19T03:16:28.933-00:00",
        "included_in_blocks":
          [ "BKknLReAx6yHELYu2waE46gnPyyvd2iiRsYnC7sywYgocjg8F9w" ] },
      { "delegate": "tz1Tnjaxk6tbAeC2TmMApPh8UsrEVQvhHvx5",
        "reception_time": "2022-01-19T03:16:28.680-00:00",
        "included_in_blocks":
          [ "BKknLReAx6yHELYu2waE46gnPyyvd2iiRsYnC7sywYgocjg8F9w" ] },
      { "delegate": "tz1d6Fx42mYgVFnHUW8T8A7WBfJ6nD9pVok8",
        "reception_time": "2022-01-19T03:16:28.081-00:00",
        "included_in_blocks":
          [ "BKknLReAx6yHELYu2waE46gnPyyvd2iiRsYnC7sywYgocjg8F9w" ] },
      { "delegate": "tz1ei4WtWEMEJekSv8qDnu9PExG6Q8HgRGr3",
        "reception_time": "2022-01-19T03:16:28.541-00:00",
        "included_in_blocks":
          [ "BKknLReAx6yHELYu2waE46gnPyyvd2iiRsYnC7sywYgocjg8F9w" ] },
      { "delegate": "tz1irJKkXS2DBWkU1NnmFQx1c1L7pbGg4yhk",
        "reception_time": "2022-01-19T03:16:27.999-00:00",
        "included_in_blocks":
          [ "BKknLReAx6yHELYu2waE46gnPyyvd2iiRsYnC7sywYgocjg8F9w" ] },
      { "delegate": "tz3S6BBeKgJGXxvLyZ1xzXzMPn11nnFtq5L9",
        "reception_time": "2022-01-19T03:16:28.189-00:00",
        "included_in_blocks":
          [ "BKknLReAx6yHELYu2waE46gnPyyvd2iiRsYnC7sywYgocjg8F9w" ] },
      { "delegate": "tz1fb7c66UwePkkfDXz4ajFaBP9hVNLdS7JJ",
        "reception_time": "2022-01-19T03:16:28.032-00:00",
        "included_in_blocks":
          [ "BKknLReAx6yHELYu2waE46gnPyyvd2iiRsYnC7sywYgocjg8F9w" ] },
      { "delegate": "tz3QT9dHYKDqh563chVa6za8526ys1UKfRfL",
        "reception_time": "2022-01-19T03:16:28.175-00:00",
        "included_in_blocks":
          [ "BKknLReAx6yHELYu2waE46gnPyyvd2iiRsYnC7sywYgocjg8F9w" ] },
      { "delegate": "tz1fPKAtsYydh4f1wfWNfeNxWYu72TmM48fu",
        "reception_time": "2022-01-19T03:16:28.545-00:00",
        "included_in_blocks":
          [ "BKknLReAx6yHELYu2waE46gnPyyvd2iiRsYnC7sywYgocjg8F9w" ] },
      { "delegate": "tz3bvNMQ95vfAYtG8193ymshqjSvmxiCUuR5",
        "reception_time": "2022-01-19T03:16:27.919-00:00",
        "included_in_blocks":
          [ "BKknLReAx6yHELYu2waE46gnPyyvd2iiRsYnC7sywYgocjg8F9w" ] },
      { "delegate": "tz3gtoUxdudfBRcNY7iVdKPHCYYX6xdPpoRS",
        "reception_time": "2022-01-19T03:16:27.851-00:00",
        "included_in_blocks":
          [ "BKknLReAx6yHELYu2waE46gnPyyvd2iiRsYnC7sywYgocjg8F9w" ] },
      { "delegate": "tz3e7LbZvUtoXhpUD1yb6wuFodZpfYRb9nWJ",
        "reception_time": "2022-01-19T03:16:27.802-00:00",
        "included_in_blocks":
          [ "BKknLReAx6yHELYu2waE46gnPyyvd2iiRsYnC7sywYgocjg8F9w" ] },
      { "delegate": "tz1cSj7fTex3JPd1p1LN1fwek6AV1kH93Wwc",
        "reception_time": "2022-01-19T03:16:27.777-00:00",
        "included_in_blocks":
          [ "BKknLReAx6yHELYu2waE46gnPyyvd2iiRsYnC7sywYgocjg8F9w" ] },
      { "delegate": "tz1V4qCyvPKZ5UeqdH14HN42rxvNPQfc9UZg",
        "reception_time": "2022-01-19T03:16:28.237-00:00",
        "included_in_blocks":
          [ "BKknLReAx6yHELYu2waE46gnPyyvd2iiRsYnC7sywYgocjg8F9w" ] },
      { "delegate": "tz1PWCDnz783NNGGQjEFFsHtrcK5yBW4E2rm",
        "reception_time": "2022-01-19T03:16:28.004-00:00",
        "included_in_blocks":
          [ "BKknLReAx6yHELYu2waE46gnPyyvd2iiRsYnC7sywYgocjg8F9w" ] },
      { "delegate": "tz3QSGPoRp3Kn7n3vY24eYeu3Peuqo45LQ4D",
        "reception_time": "2022-01-19T03:16:27.744-00:00",
        "included_in_blocks":
          [ "BKknLReAx6yHELYu2waE46gnPyyvd2iiRsYnC7sywYgocjg8F9w" ] },
      { "delegate": "tz3iJu5vrKZcsqRPs8yJ61UDoeEXZmtro4qh",
        "reception_time": "2022-01-19T03:16:27.647-00:00",
        "included_in_blocks":
          [ "BKknLReAx6yHELYu2waE46gnPyyvd2iiRsYnC7sywYgocjg8F9w" ] },
      { "delegate": "tz1YhNsiRRU8aHNGg7NK3uuP6UDAyacJernB",
        "reception_time": "2022-01-19T03:16:27.860-00:00",
        "included_in_blocks":
          [ "BKknLReAx6yHELYu2waE46gnPyyvd2iiRsYnC7sywYgocjg8F9w" ] },
      { "delegate": "tz3Zhs2dygr55yHyQyKjntAtY9bgfhLZ4Xj1",
        "reception_time": "2022-01-19T03:16:27.592-00:00",
        "included_in_blocks":
          [ "BKknLReAx6yHELYu2waE46gnPyyvd2iiRsYnC7sywYgocjg8F9w" ] },
      { "delegate": "tz1TzaNn7wSQSP5gYPXCnNzBCpyMiidCq1PX",
        "reception_time": "2022-01-19T03:16:27.473-00:00",
        "included_in_blocks":
          [ "BKknLReAx6yHELYu2waE46gnPyyvd2iiRsYnC7sywYgocjg8F9w" ] },
      { "delegate": "tz3WMqdzXqRWXwyvj5Hp2H7QEepaUuS7vd9K",
        "reception_time": "2022-01-19T03:16:28.866-00:00",
        "included_in_blocks":
          [ "BKknLReAx6yHELYu2waE46gnPyyvd2iiRsYnC7sywYgocjg8F9w" ] },
      { "delegate": "tz3adcvQaKXTCg12zbninqo3q8ptKKtDFTLv",
        "reception_time": "2022-01-19T03:16:27.453-00:00",
        "included_in_blocks":
          [ "BKknLReAx6yHELYu2waE46gnPyyvd2iiRsYnC7sywYgocjg8F9w" ] },
      { "delegate": "tz1RCFbB9GpALpsZtu6J58sb74dm8qe6XBzv",
        "reception_time": "2022-01-19T03:16:28.094-00:00",
        "included_in_blocks":
          [ "BKknLReAx6yHELYu2waE46gnPyyvd2iiRsYnC7sywYgocjg8F9w" ] },
      { "delegate": "tz1S8MNvuFEUsWgjHvi3AxibRBf388NhT1q2",
        "reception_time": "2022-01-19T03:16:28.156-00:00",
        "included_in_blocks":
          [ "BKknLReAx6yHELYu2waE46gnPyyvd2iiRsYnC7sywYgocjg8F9w" ] },
      { "delegate": "tz1VQnqCCqX4K5sP3FNkVSNKTdCAMJDd3E1n",
        "reception_time": "2022-01-19T03:16:27.408-00:00",
        "included_in_blocks":
          [ "BKknLReAx6yHELYu2waE46gnPyyvd2iiRsYnC7sywYgocjg8F9w" ] },
      { "delegate": "tz1WCd2jm4uSt4vntk4vSuUWoZQGhLcDuR9q",
        "reception_time": "2022-01-19T03:16:27.528-00:00",
        "included_in_blocks":
          [ "BKknLReAx6yHELYu2waE46gnPyyvd2iiRsYnC7sywYgocjg8F9w" ] },
      { "delegate": "tz1gUNyn3hmnEWqkusWPzxRaon1cs7ndWh7h",
        "reception_time": "2022-01-19T03:16:27.423-00:00",
        "included_in_blocks":
          [ "BKknLReAx6yHELYu2waE46gnPyyvd2iiRsYnC7sywYgocjg8F9w" ] },
      { "delegate": "tz1Mc61yajNASzh5KWZFtYs4i7EJbzAxQC4K",
        "reception_time": "2022-01-19T03:16:27.564-00:00",
        "included_in_blocks":
          [ "BKknLReAx6yHELYu2waE46gnPyyvd2iiRsYnC7sywYgocjg8F9w" ] },
      { "delegate": "tz3hw2kqXhLUvY65ca1eety2oQTpAvd34R9Q",
        "reception_time": "2022-01-19T03:16:27.231-00:00",
        "included_in_blocks":
          [ "BKknLReAx6yHELYu2waE46gnPyyvd2iiRsYnC7sywYgocjg8F9w" ] },
      { "delegate": "tz3NxTnke1acr8o3h5y9ytf5awQBGNJUKzVU",
        "reception_time": "2022-01-19T03:16:27.240-00:00",
        "included_in_blocks":
          [ "BKknLReAx6yHELYu2waE46gnPyyvd2iiRsYnC7sywYgocjg8F9w" ] },
      { "delegate": "tz3RKYFsLuQzKBtmYuLNas7uMu3AsYd4QdsA",
        "reception_time": "2022-01-19T03:16:27.293-00:00",
        "included_in_blocks":
          [ "BKknLReAx6yHELYu2waE46gnPyyvd2iiRsYnC7sywYgocjg8F9w" ] },
      { "delegate": "tz3ZbP2pM3nwvXztbuMJwJnDvV5xdpU8UkkD",
        "reception_time": "2022-01-19T03:16:27.247-00:00",
        "included_in_blocks":
          [ "BKknLReAx6yHELYu2waE46gnPyyvd2iiRsYnC7sywYgocjg8F9w" ] },
      { "delegate": "tz1Ldzz6k1BHdhuKvAtMRX7h5kJSMHESMHLC",
        "reception_time": "2022-01-19T03:16:27.189-00:00",
        "included_in_blocks":
          [ "BKknLReAx6yHELYu2waE46gnPyyvd2iiRsYnC7sywYgocjg8F9w" ] },
      { "delegate": "tz1Nf6tsK4G6bBqgSQERy4nUtkHNKUVdh7q1",
        "reception_time": "2022-01-19T03:16:27.340-00:00",
        "included_in_blocks":
          [ "BKknLReAx6yHELYu2waE46gnPyyvd2iiRsYnC7sywYgocjg8F9w" ] },
      { "delegate": "tz1TRspM5SeZpaQUhzByXbEvqKF1vnCM2YTK",
        "reception_time": "2022-01-19T03:16:27.322-00:00",
        "included_in_blocks":
          [ "BKknLReAx6yHELYu2waE46gnPyyvd2iiRsYnC7sywYgocjg8F9w" ] },
      { "delegate": "tz1LLNkQK4UQV6QcFShiXJ2vT2ELw449MzAA",
        "reception_time": "2022-01-19T03:16:27.197-00:00",
        "included_in_blocks":
          [ "BKknLReAx6yHELYu2waE46gnPyyvd2iiRsYnC7sywYgocjg8F9w" ] },
      { "delegate": "tz1MJx9vhaNRSimcuXPK2rW4fLccQnDAnVKJ",
        "reception_time": "2022-01-19T03:16:27.200-00:00",
        "included_in_blocks":
          [ "BKknLReAx6yHELYu2waE46gnPyyvd2iiRsYnC7sywYgocjg8F9w" ] },
      { "delegate": "tz1aXD7Jigrt3PBYSpHSg5Rr33SexMmmM5Ys",
        "reception_time": "2022-01-19T03:16:27.392-00:00",
        "included_in_blocks":
          [ "BKknLReAx6yHELYu2waE46gnPyyvd2iiRsYnC7sywYgocjg8F9w" ] },
      { "delegate": "tz1P2Po7YM526ughEsRbY4oR9zaUPDZjxFrb",
        "reception_time": "2022-01-19T03:16:27.175-00:00",
        "included_in_blocks":
          [ "BKknLReAx6yHELYu2waE46gnPyyvd2iiRsYnC7sywYgocjg8F9w" ] },
      { "delegate": "tz1MQMiZHV8q4tTwUMWmS5Y3kaP6J2136iXr",
        "reception_time": "2022-01-19T03:16:27.906-00:00",
        "included_in_blocks":
          [ "BKknLReAx6yHELYu2waE46gnPyyvd2iiRsYnC7sywYgocjg8F9w" ] },
      { "delegate": "tz1STeamwbp68THcny9zk3LsbG3H36DMvbRK",
        "reception_time": "2022-01-19T03:16:27.195-00:00",
        "included_in_blocks":
          [ "BKknLReAx6yHELYu2waE46gnPyyvd2iiRsYnC7sywYgocjg8F9w" ] },
      { "delegate": "tz1TXzyaKUA8wsWefdSnyaYFnV2M3vCV7er9",
        "reception_time": "2022-01-19T03:16:27.179-00:00",
        "included_in_blocks":
          [ "BKknLReAx6yHELYu2waE46gnPyyvd2iiRsYnC7sywYgocjg8F9w" ] },
      { "delegate": "tz1eEnQhbwf6trb8Q8mPb2RaPkNk2rN7BKi8",
        "reception_time": "2022-01-19T03:16:27.204-00:00",
        "included_in_blocks":
          [ "BKknLReAx6yHELYu2waE46gnPyyvd2iiRsYnC7sywYgocjg8F9w" ] },
      { "delegate": "tz1aDiEJf9ztRrAJEXZfcG3CKimoKsGhwVAi",
        "reception_time": "2022-01-19T03:16:27.182-00:00",
        "included_in_blocks":
          [ "BKknLReAx6yHELYu2waE46gnPyyvd2iiRsYnC7sywYgocjg8F9w" ] } ] }