{ "blocks":
    [ { "hash": "BKtQGpTsAUJGmnCzKMVBySSqx9MBR5WaK7bbhPHytnfdfAj9zLD",
        "delegate": "tz1VQnqCCqX4K5sP3FNkVSNKTdCAMJDd3E1n",
        "reception_time": "2022-01-19T10:09:44.807-00:00",
        "timestamp": "2022-01-19T10:09:40Z" } ],
  "endorsements":
    [ { "delegate": "tz1MXFrtZoaXckE41bjUCSjAjAap3AFDSr3N",
        "reception_time": "2022-01-19T10:09:44.808-00:00",
        "errors":
          [ { "kind": "temporary",
              "id": "proto.011-PtHangz2.prefilter.outdated_endorsement" } ],
        "included_in_blocks":
          [ "BLUWUo2Zac4h9u1vHrTpWiCCoJHNeyMnZX4QRg4BDj4Xo33ksR2" ] },
      { "delegate": "tz1S8e9GgdZG78XJRB3NqabfWeM37GnhZMWQ",
        "reception_time": "2022-01-19T10:09:44.529-00:00",
        "errors":
          [ { "kind": "temporary",
              "id": "proto.011-PtHangz2.prefilter.outdated_endorsement" } ],
        "included_in_blocks":
          [ "BLUWUo2Zac4h9u1vHrTpWiCCoJHNeyMnZX4QRg4BDj4Xo33ksR2" ] },
      { "delegate": "tz1W5VkdB5s7ENMESVBtwyt9kyvLqPcUczRT" },
      { "delegate": "tz1TXzyaKUA8wsWefdSnyaYFnV2M3vCV7er9",
        "reception_time": "2022-01-19T10:09:46.368-00:00",
        "included_in_blocks":
          [ "BLUWUo2Zac4h9u1vHrTpWiCCoJHNeyMnZX4QRg4BDj4Xo33ksR2" ] },
      { "delegate": "tz1P2Po7YM526ughEsRbY4oR9zaUPDZjxFrb",
        "reception_time": "2022-01-19T10:09:46.416-00:00",
        "included_in_blocks":
          [ "BLUWUo2Zac4h9u1vHrTpWiCCoJHNeyMnZX4QRg4BDj4Xo33ksR2" ] },
      { "delegate": "tz1irJKkXS2DBWkU1NnmFQx1c1L7pbGg4yhk",
        "reception_time": "2022-01-19T10:09:46.437-00:00",
        "included_in_blocks":
          [ "BLUWUo2Zac4h9u1vHrTpWiCCoJHNeyMnZX4QRg4BDj4Xo33ksR2" ] },
      { "delegate": "tz1ZPh7XfUaJXUDvkrBxmS1BjEM1i62hiPpM",
        "reception_time": "2022-01-19T10:09:46.445-00:00",
        "included_in_blocks":
          [ "BLUWUo2Zac4h9u1vHrTpWiCCoJHNeyMnZX4QRg4BDj4Xo33ksR2" ] },
      { "delegate": "tz1eEnQhbwf6trb8Q8mPb2RaPkNk2rN7BKi8",
        "reception_time": "2022-01-19T10:09:46.455-00:00",
        "included_in_blocks":
          [ "BLUWUo2Zac4h9u1vHrTpWiCCoJHNeyMnZX4QRg4BDj4Xo33ksR2" ] },
      { "delegate": "tz1VQnqCCqX4K5sP3FNkVSNKTdCAMJDd3E1n",
        "reception_time": "2022-01-19T10:09:46.480-00:00",
        "included_in_blocks":
          [ "BLUWUo2Zac4h9u1vHrTpWiCCoJHNeyMnZX4QRg4BDj4Xo33ksR2" ] },
      { "delegate": "tz3Zhs2dygr55yHyQyKjntAtY9bgfhLZ4Xj1",
        "reception_time": "2022-01-19T10:09:46.480-00:00",
        "included_in_blocks":
          [ "BLUWUo2Zac4h9u1vHrTpWiCCoJHNeyMnZX4QRg4BDj4Xo33ksR2" ] },
      { "delegate": "tz1beersuEDv8Z7ngQ825xfbaJNS2EhXnyHR",
        "reception_time": "2022-01-19T10:09:46.487-00:00",
        "included_in_blocks":
          [ "BLUWUo2Zac4h9u1vHrTpWiCCoJHNeyMnZX4QRg4BDj4Xo33ksR2" ] },
      { "delegate": "tz3iJu5vrKZcsqRPs8yJ61UDoeEXZmtro4qh",
        "reception_time": "2022-01-19T10:09:46.501-00:00",
        "included_in_blocks":
          [ "BLUWUo2Zac4h9u1vHrTpWiCCoJHNeyMnZX4QRg4BDj4Xo33ksR2" ] },
      { "delegate": "tz1gUNyn3hmnEWqkusWPzxRaon1cs7ndWh7h",
        "reception_time": "2022-01-19T10:09:46.513-00:00",
        "included_in_blocks":
          [ "BLUWUo2Zac4h9u1vHrTpWiCCoJHNeyMnZX4QRg4BDj4Xo33ksR2" ] },
      { "delegate": "tz3gtoUxdudfBRcNY7iVdKPHCYYX6xdPpoRS",
        "reception_time": "2022-01-19T10:09:46.527-00:00",
        "included_in_blocks":
          [ "BLUWUo2Zac4h9u1vHrTpWiCCoJHNeyMnZX4QRg4BDj4Xo33ksR2" ] },
      { "delegate": "tz1Ldzz6k1BHdhuKvAtMRX7h5kJSMHESMHLC",
        "reception_time": "2022-01-19T10:09:46.531-00:00",
        "included_in_blocks":
          [ "BLUWUo2Zac4h9u1vHrTpWiCCoJHNeyMnZX4QRg4BDj4Xo33ksR2" ] },
      { "delegate": "tz3NxTnke1acr8o3h5y9ytf5awQBGNJUKzVU",
        "reception_time": "2022-01-19T10:09:46.542-00:00",
        "included_in_blocks":
          [ "BLUWUo2Zac4h9u1vHrTpWiCCoJHNeyMnZX4QRg4BDj4Xo33ksR2" ] },
      { "delegate": "tz3QSGPoRp3Kn7n3vY24eYeu3Peuqo45LQ4D",
        "reception_time": "2022-01-19T10:09:46.548-00:00",
        "included_in_blocks":
          [ "BLUWUo2Zac4h9u1vHrTpWiCCoJHNeyMnZX4QRg4BDj4Xo33ksR2" ] },
      { "delegate": "tz3ZbP2pM3nwvXztbuMJwJnDvV5xdpU8UkkD",
        "reception_time": "2022-01-19T10:09:46.559-00:00",
        "included_in_blocks":
          [ "BLUWUo2Zac4h9u1vHrTpWiCCoJHNeyMnZX4QRg4BDj4Xo33ksR2" ] },
      { "delegate": "tz1aXD7Jigrt3PBYSpHSg5Rr33SexMmmM5Ys",
        "reception_time": "2022-01-19T10:09:46.570-00:00",
        "included_in_blocks":
          [ "BLUWUo2Zac4h9u1vHrTpWiCCoJHNeyMnZX4QRg4BDj4Xo33ksR2" ] },
      { "delegate": "tz1VmiY38m3y95HqQLjMwqnMS7sdMfGomzKi",
        "reception_time": "2022-01-19T10:09:46.574-00:00",
        "included_in_blocks":
          [ "BLUWUo2Zac4h9u1vHrTpWiCCoJHNeyMnZX4QRg4BDj4Xo33ksR2" ] },
      { "delegate": "tz1TzaNn7wSQSP5gYPXCnNzBCpyMiidCq1PX",
        "reception_time": "2022-01-19T10:09:46.605-00:00",
        "included_in_blocks":
          [ "BLUWUo2Zac4h9u1vHrTpWiCCoJHNeyMnZX4QRg4BDj4Xo33ksR2" ] },
      { "delegate": "tz3RKYFsLuQzKBtmYuLNas7uMu3AsYd4QdsA",
        "reception_time": "2022-01-19T10:09:46.613-00:00",
        "included_in_blocks":
          [ "BLUWUo2Zac4h9u1vHrTpWiCCoJHNeyMnZX4QRg4BDj4Xo33ksR2" ] },
      { "delegate": "tz3hw2kqXhLUvY65ca1eety2oQTpAvd34R9Q",
        "reception_time": "2022-01-19T10:09:46.674-00:00",
        "included_in_blocks":
          [ "BLUWUo2Zac4h9u1vHrTpWiCCoJHNeyMnZX4QRg4BDj4Xo33ksR2" ] },
      { "delegate": "tz1PWCDnz783NNGGQjEFFsHtrcK5yBW4E2rm",
        "reception_time": "2022-01-19T10:09:46.927-00:00",
        "included_in_blocks":
          [ "BLUWUo2Zac4h9u1vHrTpWiCCoJHNeyMnZX4QRg4BDj4Xo33ksR2" ] },
      { "delegate": "tz1SYq214SCBy9naR6cvycQsYcUGpBqQAE8d",
        "reception_time": "2022-01-19T10:09:46.960-00:00",
        "included_in_blocks":
          [ "BLUWUo2Zac4h9u1vHrTpWiCCoJHNeyMnZX4QRg4BDj4Xo33ksR2" ] },
      { "delegate": "tz1RCFbB9GpALpsZtu6J58sb74dm8qe6XBzv",
        "reception_time": "2022-01-19T10:09:46.967-00:00",
        "included_in_blocks":
          [ "BLUWUo2Zac4h9u1vHrTpWiCCoJHNeyMnZX4QRg4BDj4Xo33ksR2" ] },
      { "delegate": "tz3QT9dHYKDqh563chVa6za8526ys1UKfRfL",
        "reception_time": "2022-01-19T10:09:46.974-00:00",
        "included_in_blocks":
          [ "BLUWUo2Zac4h9u1vHrTpWiCCoJHNeyMnZX4QRg4BDj4Xo33ksR2" ] },
      { "delegate": "tz1cSj7fTex3JPd1p1LN1fwek6AV1kH93Wwc",
        "reception_time": "2022-01-19T10:09:46.978-00:00",
        "included_in_blocks":
          [ "BLUWUo2Zac4h9u1vHrTpWiCCoJHNeyMnZX4QRg4BDj4Xo33ksR2" ] },
      { "delegate": "tz1cYqRcjRXSWcs3bjehN21VmBAH2aFMg6Ds",
        "reception_time": "2022-01-19T10:09:46.985-00:00",
        "included_in_blocks":
          [ "BLUWUo2Zac4h9u1vHrTpWiCCoJHNeyMnZX4QRg4BDj4Xo33ksR2" ] },
      { "delegate": "tz3S6BBeKgJGXxvLyZ1xzXzMPn11nnFtq5L9",
        "reception_time": "2022-01-19T10:09:46.996-00:00",
        "included_in_blocks":
          [ "BLUWUo2Zac4h9u1vHrTpWiCCoJHNeyMnZX4QRg4BDj4Xo33ksR2" ] },
      { "delegate": "tz1ei4WtWEMEJekSv8qDnu9PExG6Q8HgRGr3",
        "reception_time": "2022-01-19T10:09:47.040-00:00",
        "included_in_blocks":
          [ "BLUWUo2Zac4h9u1vHrTpWiCCoJHNeyMnZX4QRg4BDj4Xo33ksR2" ] },
      { "delegate": "tz1gfArv665EUkSg2ojMBzcbfwuPxAvqPvjo",
        "reception_time": "2022-01-19T10:09:47.046-00:00",
        "included_in_blocks":
          [ "BLUWUo2Zac4h9u1vHrTpWiCCoJHNeyMnZX4QRg4BDj4Xo33ksR2" ] },
      { "delegate": "tz1bZ8vsMAXmaWEV7FRnyhcuUs2fYMaQ6Hkk",
        "reception_time": "2022-01-19T10:09:47.053-00:00",
        "included_in_blocks":
          [ "BLUWUo2Zac4h9u1vHrTpWiCCoJHNeyMnZX4QRg4BDj4Xo33ksR2" ] },
      { "delegate": "tz3bTdwZinP8U1JmSweNzVKhmwafqWmFWRfk",
        "reception_time": "2022-01-19T10:09:47.069-00:00",
        "included_in_blocks":
          [ "BLUWUo2Zac4h9u1vHrTpWiCCoJHNeyMnZX4QRg4BDj4Xo33ksR2" ] },
      { "delegate": "tz1V4qCyvPKZ5UeqdH14HN42rxvNPQfc9UZg",
        "reception_time": "2022-01-19T10:09:47.075-00:00",
        "included_in_blocks":
          [ "BLUWUo2Zac4h9u1vHrTpWiCCoJHNeyMnZX4QRg4BDj4Xo33ksR2" ] },
      { "delegate": "tz1abmz7jiCV2GH2u81LRrGgAFFgvQgiDiaf",
        "reception_time": "2022-01-19T10:09:47.089-00:00",
        "included_in_blocks":
          [ "BLUWUo2Zac4h9u1vHrTpWiCCoJHNeyMnZX4QRg4BDj4Xo33ksR2" ] },
      { "delegate": "tz1g8vkmcde6sWKaG2NN9WKzCkDM6Rziq194",
        "reception_time": "2022-01-19T10:09:47.137-00:00",
        "included_in_blocks":
          [ "BLUWUo2Zac4h9u1vHrTpWiCCoJHNeyMnZX4QRg4BDj4Xo33ksR2" ] },
      { "delegate": "tz1S8MNvuFEUsWgjHvi3AxibRBf388NhT1q2",
        "reception_time": "2022-01-19T10:09:47.250-00:00",
        "included_in_blocks":
          [ "BLUWUo2Zac4h9u1vHrTpWiCCoJHNeyMnZX4QRg4BDj4Xo33ksR2" ] },
      { "delegate": "tz1NEKxGEHsFufk87CVZcrqWu8o22qh46GK6",
        "reception_time": "2022-01-19T10:09:47.400-00:00",
        "included_in_blocks":
          [ "BLUWUo2Zac4h9u1vHrTpWiCCoJHNeyMnZX4QRg4BDj4Xo33ksR2" ] },
      { "delegate": "tz1KfEsrtDaA1sX7vdM4qmEPWuSytuqCDp5j",
        "reception_time": "2022-01-19T10:09:47.408-00:00",
        "included_in_blocks":
          [ "BLUWUo2Zac4h9u1vHrTpWiCCoJHNeyMnZX4QRg4BDj4Xo33ksR2" ] },
      { "delegate": "tz1Tnjaxk6tbAeC2TmMApPh8UsrEVQvhHvx5",
        "reception_time": "2022-01-19T10:09:47.512-00:00",
        "included_in_blocks":
          [ "BLUWUo2Zac4h9u1vHrTpWiCCoJHNeyMnZX4QRg4BDj4Xo33ksR2" ] },
      { "delegate": "tz1Nf6tsK4G6bBqgSQERy4nUtkHNKUVdh7q1",
        "reception_time": "2022-01-19T10:09:47.646-00:00",
        "included_in_blocks":
          [ "BLUWUo2Zac4h9u1vHrTpWiCCoJHNeyMnZX4QRg4BDj4Xo33ksR2" ] },
      { "delegate": "tz2FCNBrERXtaTtNX6iimR1UJ5JSDxvdHM93",
        "reception_time": "2022-01-19T10:09:47.656-00:00",
        "included_in_blocks":
          [ "BLUWUo2Zac4h9u1vHrTpWiCCoJHNeyMnZX4QRg4BDj4Xo33ksR2" ] },
      { "delegate": "tz1LmaFsWRkjr7QMCx5PtV6xTUz3AmEpKQiF",
        "reception_time": "2022-01-19T10:09:47.728-00:00",
        "included_in_blocks":
          [ "BLUWUo2Zac4h9u1vHrTpWiCCoJHNeyMnZX4QRg4BDj4Xo33ksR2" ] },
      { "delegate": "tz1TRqbYbUf2GyrjErf3hBzgBJPzW8y36qEs",
        "reception_time": "2022-01-19T10:09:47.807-00:00",
        "included_in_blocks":
          [ "BLUWUo2Zac4h9u1vHrTpWiCCoJHNeyMnZX4QRg4BDj4Xo33ksR2" ] },
      { "delegate": "tz1WctSwL49BZtdWAQ75NY6vr4xsAx6oKdah",
        "reception_time": "2022-01-19T10:09:47.815-00:00",
        "included_in_blocks":
          [ "BLUWUo2Zac4h9u1vHrTpWiCCoJHNeyMnZX4QRg4BDj4Xo33ksR2" ] },
      { "delegate": "tz3RDC3Jdn4j15J7bBHZd29EUee9gVB1CxD9",
        "reception_time": "2022-01-19T10:09:47.973-00:00",
        "included_in_blocks":
          [ "BLUWUo2Zac4h9u1vHrTpWiCCoJHNeyMnZX4QRg4BDj4Xo33ksR2" ] },
      { "delegate": "tz1NoYvKjXTzTk54VpLxBfouJ33J8jwKPPvw",
        "reception_time": "2022-01-19T10:09:48.074-00:00",
        "included_in_blocks":
          [ "BLUWUo2Zac4h9u1vHrTpWiCCoJHNeyMnZX4QRg4BDj4Xo33ksR2" ] },
      { "delegate": "tz1dRKU4FQ9QRRQPdaH4zCR6gmCmXfcvcgtB",
        "reception_time": "2022-01-19T10:09:48.135-00:00",
        "included_in_blocks":
          [ "BLUWUo2Zac4h9u1vHrTpWiCCoJHNeyMnZX4QRg4BDj4Xo33ksR2" ] },
      { "delegate": "tz1T7duV5gZWSTq4YpBGbXNLTfznCLDrFxvs",
        "reception_time": "2022-01-19T10:09:48.321-00:00",
        "included_in_blocks":
          [ "BLUWUo2Zac4h9u1vHrTpWiCCoJHNeyMnZX4QRg4BDj4Xo33ksR2" ] },
      { "delegate": "tz3NDpRj6WBrJPikcPVHRBEjWKxFw3c6eQPS",
        "reception_time": "2022-01-19T10:09:48.378-00:00",
        "included_in_blocks":
          [ "BLUWUo2Zac4h9u1vHrTpWiCCoJHNeyMnZX4QRg4BDj4Xo33ksR2" ] },
      { "delegate": "tz1RjoHc98dBoqaH2jawF62XNKh7YsHwbkEv",
        "reception_time": "2022-01-19T10:09:48.383-00:00",
        "included_in_blocks":
          [ "BLUWUo2Zac4h9u1vHrTpWiCCoJHNeyMnZX4QRg4BDj4Xo33ksR2" ] },
      { "delegate": "tz3bvNMQ95vfAYtG8193ymshqjSvmxiCUuR5",
        "reception_time": "2022-01-19T10:09:48.416-00:00",
        "included_in_blocks":
          [ "BLUWUo2Zac4h9u1vHrTpWiCCoJHNeyMnZX4QRg4BDj4Xo33ksR2" ] },
      { "delegate": "tz3WMqdzXqRWXwyvj5Hp2H7QEepaUuS7vd9K",
        "reception_time": "2022-01-19T10:09:48.506-00:00",
        "included_in_blocks":
          [ "BLUWUo2Zac4h9u1vHrTpWiCCoJHNeyMnZX4QRg4BDj4Xo33ksR2" ] },
      { "delegate": "tz3RB4aoyjov4KEVRbuhvQ1CKJgBJMWhaeB8",
        "reception_time": "2022-01-19T10:09:48.699-00:00",
        "included_in_blocks":
          [ "BLUWUo2Zac4h9u1vHrTpWiCCoJHNeyMnZX4QRg4BDj4Xo33ksR2" ] },
      { "delegate": "tz3VEZ4k6a4Wx42iyev6i2aVAptTRLEAivNN",
        "reception_time": "2022-01-19T10:09:48.725-00:00",
        "included_in_blocks":
          [ "BLUWUo2Zac4h9u1vHrTpWiCCoJHNeyMnZX4QRg4BDj4Xo33ksR2" ] },
      { "delegate": "tz1bTpviNnyx2PXsNmGpCQTMQsGoYordkUoA",
        "reception_time": "2022-01-19T10:09:48.833-00:00",
        "included_in_blocks":
          [ "BLUWUo2Zac4h9u1vHrTpWiCCoJHNeyMnZX4QRg4BDj4Xo33ksR2" ] },
      { "delegate": "tz3NExpXn9aPNZPorRE4SdjJ2RGrfbJgMAaV",
        "reception_time": "2022-01-19T10:09:49.146-00:00",
        "included_in_blocks":
          [ "BLUWUo2Zac4h9u1vHrTpWiCCoJHNeyMnZX4QRg4BDj4Xo33ksR2" ] },
      { "delegate": "tz3UoffC7FG7zfpmvmjUmUeAaHvzdcUvAj6r",
        "reception_time": "2022-01-19T10:09:49.253-00:00",
        "included_in_blocks":
          [ "BLUWUo2Zac4h9u1vHrTpWiCCoJHNeyMnZX4QRg4BDj4Xo33ksR2" ] },
      { "delegate": "tz1awXW7wuXy21c66vBudMXQVAPgRnqqwgTH",
        "reception_time": "2022-01-19T10:09:49.528-00:00",
        "included_in_blocks":
          [ "BLUWUo2Zac4h9u1vHrTpWiCCoJHNeyMnZX4QRg4BDj4Xo33ksR2" ] },
      { "delegate": "tz1aRoaRhSpRYvFdyvgWLL6TGyRoGF51wDjM",
        "reception_time": "2022-01-19T10:09:49.665-00:00",
        "included_in_blocks":
          [ "BLUWUo2Zac4h9u1vHrTpWiCCoJHNeyMnZX4QRg4BDj4Xo33ksR2" ] },
      { "delegate": "tz1NpWrAyDL9k2Lmnyxcgr9xuJakbBxdq7FB",
        "reception_time": "2022-01-19T10:09:55.088-00:00",
        "included_in_blocks":
          [ "BLUWUo2Zac4h9u1vHrTpWiCCoJHNeyMnZX4QRg4BDj4Xo33ksR2" ] },
      { "delegate": "tz1ZLKMBbvgMFbSUnsddKFtUFav29fEB4mkx",
        "reception_time": "2022-01-19T10:09:59.901-00:00",
        "included_in_blocks":
          [ "BLUWUo2Zac4h9u1vHrTpWiCCoJHNeyMnZX4QRg4BDj4Xo33ksR2" ] } ] }