{ "blocks":
    [ { "hash": "BLf2QtuTUH6Mhym291ushScxwd8jrWy55oiQCkx9qJRZj3wzrQ1",
        "delegate": "tz1TXzyaKUA8wsWefdSnyaYFnV2M3vCV7er9",
        "reception_time": "2022-01-19T05:31:36.564-00:00",
        "timestamp": "2022-01-19T05:31:30Z" } ],
  "endorsements":
    [ { "delegate": "tz1TXzyaKUA8wsWefdSnyaYFnV2M3vCV7er9",
        "reception_time": "2022-01-19T05:31:36.360-00:00",
        "errors":
          [ { "kind": "temporary",
              "id": "proto.011-PtHangz2.prefilter.outdated_endorsement" } ],
        "included_in_blocks":
          [ "BLaqCTAtmXs8eiX2yECv98fnbHJUq7Gbg6pZrm1hm2vfqhnmuW3" ] },
      { "delegate": "tz1beersuEDv8Z7ngQ825xfbaJNS2EhXnyHR",
        "reception_time": "2022-01-19T05:31:38.023-00:00",
        "included_in_blocks":
          [ "BLaqCTAtmXs8eiX2yECv98fnbHJUq7Gbg6pZrm1hm2vfqhnmuW3" ] },
      { "delegate": "tz1eEnQhbwf6trb8Q8mPb2RaPkNk2rN7BKi8",
        "reception_time": "2022-01-19T05:31:38.023-00:00",
        "included_in_blocks":
          [ "BLaqCTAtmXs8eiX2yECv98fnbHJUq7Gbg6pZrm1hm2vfqhnmuW3" ] },
      { "delegate": "tz1irJKkXS2DBWkU1NnmFQx1c1L7pbGg4yhk",
        "reception_time": "2022-01-19T05:31:38.023-00:00",
        "included_in_blocks":
          [ "BLaqCTAtmXs8eiX2yECv98fnbHJUq7Gbg6pZrm1hm2vfqhnmuW3" ] },
      { "delegate": "tz1Lhf4J9Qxoe3DZ2nfe8FGDnvVj7oKjnMY6",
        "reception_time": "2022-01-19T05:31:38.023-00:00",
        "included_in_blocks":
          [ "BLaqCTAtmXs8eiX2yECv98fnbHJUq7Gbg6pZrm1hm2vfqhnmuW3" ] },
      { "delegate": "tz3ZbP2pM3nwvXztbuMJwJnDvV5xdpU8UkkD",
        "reception_time": "2022-01-19T05:31:38.023-00:00",
        "included_in_blocks":
          [ "BLaqCTAtmXs8eiX2yECv98fnbHJUq7Gbg6pZrm1hm2vfqhnmuW3" ] },
      { "delegate": "tz1P2Po7YM526ughEsRbY4oR9zaUPDZjxFrb",
        "reception_time": "2022-01-19T05:31:38.023-00:00",
        "included_in_blocks":
          [ "BLaqCTAtmXs8eiX2yECv98fnbHJUq7Gbg6pZrm1hm2vfqhnmuW3" ] },
      { "delegate": "tz1gUNyn3hmnEWqkusWPzxRaon1cs7ndWh7h",
        "reception_time": "2022-01-19T05:31:38.023-00:00",
        "included_in_blocks":
          [ "BLaqCTAtmXs8eiX2yECv98fnbHJUq7Gbg6pZrm1hm2vfqhnmuW3" ] },
      { "delegate": "tz1VQnqCCqX4K5sP3FNkVSNKTdCAMJDd3E1n",
        "reception_time": "2022-01-19T05:31:38.023-00:00",
        "included_in_blocks":
          [ "BLaqCTAtmXs8eiX2yECv98fnbHJUq7Gbg6pZrm1hm2vfqhnmuW3" ] },
      { "delegate": "tz1ZPh7XfUaJXUDvkrBxmS1BjEM1i62hiPpM",
        "reception_time": "2022-01-19T05:31:38.023-00:00",
        "included_in_blocks":
          [ "BLaqCTAtmXs8eiX2yECv98fnbHJUq7Gbg6pZrm1hm2vfqhnmuW3" ] },
      { "delegate": "tz1Ldzz6k1BHdhuKvAtMRX7h5kJSMHESMHLC",
        "reception_time": "2022-01-19T05:31:38.023-00:00",
        "included_in_blocks":
          [ "BLaqCTAtmXs8eiX2yECv98fnbHJUq7Gbg6pZrm1hm2vfqhnmuW3" ] },
      { "delegate": "tz3NxTnke1acr8o3h5y9ytf5awQBGNJUKzVU",
        "reception_time": "2022-01-19T05:31:38.023-00:00",
        "included_in_blocks":
          [ "BLaqCTAtmXs8eiX2yECv98fnbHJUq7Gbg6pZrm1hm2vfqhnmuW3" ] },
      { "delegate": "tz1VmiY38m3y95HqQLjMwqnMS7sdMfGomzKi",
        "reception_time": "2022-01-19T05:31:38.023-00:00",
        "included_in_blocks":
          [ "BLaqCTAtmXs8eiX2yECv98fnbHJUq7Gbg6pZrm1hm2vfqhnmuW3" ] },
      { "delegate": "tz1bsdrs36X5BTH83RHUBdUouKLJZK8d2oBa",
        "reception_time": "2022-01-19T05:31:38.371-00:00",
        "included_in_blocks":
          [ "BLaqCTAtmXs8eiX2yECv98fnbHJUq7Gbg6pZrm1hm2vfqhnmuW3" ] },
      { "delegate": "tz1WCd2jm4uSt4vntk4vSuUWoZQGhLcDuR9q",
        "reception_time": "2022-01-19T05:31:38.371-00:00",
        "included_in_blocks":
          [ "BLaqCTAtmXs8eiX2yECv98fnbHJUq7Gbg6pZrm1hm2vfqhnmuW3" ] },
      { "delegate": "tz3adcvQaKXTCg12zbninqo3q8ptKKtDFTLv",
        "reception_time": "2022-01-19T05:31:38.371-00:00",
        "included_in_blocks":
          [ "BLaqCTAtmXs8eiX2yECv98fnbHJUq7Gbg6pZrm1hm2vfqhnmuW3" ] },
      { "delegate": "tz3RKYFsLuQzKBtmYuLNas7uMu3AsYd4QdsA",
        "reception_time": "2022-01-19T05:31:38.371-00:00",
        "included_in_blocks":
          [ "BLaqCTAtmXs8eiX2yECv98fnbHJUq7Gbg6pZrm1hm2vfqhnmuW3" ] },
      { "delegate": "tz3hw2kqXhLUvY65ca1eety2oQTpAvd34R9Q",
        "reception_time": "2022-01-19T05:31:38.371-00:00",
        "included_in_blocks":
          [ "BLaqCTAtmXs8eiX2yECv98fnbHJUq7Gbg6pZrm1hm2vfqhnmuW3" ] },
      { "delegate": "tz3QSGPoRp3Kn7n3vY24eYeu3Peuqo45LQ4D",
        "reception_time": "2022-01-19T05:31:38.371-00:00",
        "included_in_blocks":
          [ "BLaqCTAtmXs8eiX2yECv98fnbHJUq7Gbg6pZrm1hm2vfqhnmuW3" ] },
      { "delegate": "tz3gtoUxdudfBRcNY7iVdKPHCYYX6xdPpoRS",
        "reception_time": "2022-01-19T05:31:38.371-00:00",
        "included_in_blocks":
          [ "BLaqCTAtmXs8eiX2yECv98fnbHJUq7Gbg6pZrm1hm2vfqhnmuW3" ] },
      { "delegate": "tz1RCFbB9GpALpsZtu6J58sb74dm8qe6XBzv",
        "reception_time": "2022-01-19T05:31:38.371-00:00",
        "included_in_blocks":
          [ "BLaqCTAtmXs8eiX2yECv98fnbHJUq7Gbg6pZrm1hm2vfqhnmuW3" ] },
      { "delegate": "tz1h4GUAMweP7SNWzDgvMk3yRCAZyaP1MxZq",
        "reception_time": "2022-01-19T05:31:38.371-00:00",
        "included_in_blocks":
          [ "BLaqCTAtmXs8eiX2yECv98fnbHJUq7Gbg6pZrm1hm2vfqhnmuW3" ] },
      { "delegate": "tz1PWCDnz783NNGGQjEFFsHtrcK5yBW4E2rm",
        "reception_time": "2022-01-19T05:31:38.371-00:00",
        "included_in_blocks":
          [ "BLaqCTAtmXs8eiX2yECv98fnbHJUq7Gbg6pZrm1hm2vfqhnmuW3" ] },
      { "delegate": "tz1ei4WtWEMEJekSv8qDnu9PExG6Q8HgRGr3",
        "reception_time": "2022-01-19T05:31:38.401-00:00",
        "included_in_blocks":
          [ "BLaqCTAtmXs8eiX2yECv98fnbHJUq7Gbg6pZrm1hm2vfqhnmuW3" ] },
      { "delegate": "tz3S6BBeKgJGXxvLyZ1xzXzMPn11nnFtq5L9",
        "reception_time": "2022-01-19T05:31:38.428-00:00",
        "included_in_blocks":
          [ "BLaqCTAtmXs8eiX2yECv98fnbHJUq7Gbg6pZrm1hm2vfqhnmuW3" ] },
      { "delegate": "tz3QT9dHYKDqh563chVa6za8526ys1UKfRfL",
        "reception_time": "2022-01-19T05:31:38.526-00:00",
        "included_in_blocks":
          [ "BLaqCTAtmXs8eiX2yECv98fnbHJUq7Gbg6pZrm1hm2vfqhnmuW3" ] },
      { "delegate": "tz3Zhs2dygr55yHyQyKjntAtY9bgfhLZ4Xj1",
        "reception_time": "2022-01-19T05:31:38.549-00:00",
        "included_in_blocks":
          [ "BLaqCTAtmXs8eiX2yECv98fnbHJUq7Gbg6pZrm1hm2vfqhnmuW3" ] },
      { "delegate": "tz3iJu5vrKZcsqRPs8yJ61UDoeEXZmtro4qh",
        "reception_time": "2022-01-19T05:31:38.564-00:00",
        "included_in_blocks":
          [ "BLaqCTAtmXs8eiX2yECv98fnbHJUq7Gbg6pZrm1hm2vfqhnmuW3" ] },
      { "delegate": "tz1Nf6tsK4G6bBqgSQERy4nUtkHNKUVdh7q1",
        "reception_time": "2022-01-19T05:31:38.582-00:00",
        "included_in_blocks":
          [ "BLaqCTAtmXs8eiX2yECv98fnbHJUq7Gbg6pZrm1hm2vfqhnmuW3" ] },
      { "delegate": "tz1SYq214SCBy9naR6cvycQsYcUGpBqQAE8d",
        "reception_time": "2022-01-19T05:31:38.680-00:00",
        "included_in_blocks":
          [ "BLaqCTAtmXs8eiX2yECv98fnbHJUq7Gbg6pZrm1hm2vfqhnmuW3" ] },
      { "delegate": "tz1TEc75UKXv4W5cwi14Na3NtqFD51yKQi7h",
        "reception_time": "2022-01-19T05:31:38.683-00:00",
        "included_in_blocks":
          [ "BLaqCTAtmXs8eiX2yECv98fnbHJUq7Gbg6pZrm1hm2vfqhnmuW3" ] },
      { "delegate": "tz2FCNBrERXtaTtNX6iimR1UJ5JSDxvdHM93",
        "reception_time": "2022-01-19T05:31:38.726-00:00",
        "included_in_blocks":
          [ "BLaqCTAtmXs8eiX2yECv98fnbHJUq7Gbg6pZrm1hm2vfqhnmuW3" ] },
      { "delegate": "tz1dwu9aYb7CRNq4Y2zAjipdjFuSVKhHS8vA",
        "reception_time": "2022-01-19T05:31:38.857-00:00",
        "included_in_blocks":
          [ "BLaqCTAtmXs8eiX2yECv98fnbHJUq7Gbg6pZrm1hm2vfqhnmuW3" ] },
      { "delegate": "tz1iPHM2Xx2hwmzcr1EG1zzrV6oKafVoA91m",
        "reception_time": "2022-01-19T05:31:38.860-00:00",
        "included_in_blocks":
          [ "BLaqCTAtmXs8eiX2yECv98fnbHJUq7Gbg6pZrm1hm2vfqhnmuW3" ] },
      { "delegate": "tz1UJvHTgpVzcKWhTazGxVcn5wsHru5Gietg",
        "reception_time": "2022-01-19T05:31:38.924-00:00",
        "included_in_blocks":
          [ "BLaqCTAtmXs8eiX2yECv98fnbHJUq7Gbg6pZrm1hm2vfqhnmuW3" ] },
      { "delegate": "tz1dNVDWPf3Q59SdJqnjdnu277iyvReiRS9M",
        "reception_time": "2022-01-19T05:31:38.949-00:00",
        "included_in_blocks":
          [ "BLaqCTAtmXs8eiX2yECv98fnbHJUq7Gbg6pZrm1hm2vfqhnmuW3" ] },
      { "delegate": "tz1UMCB2AHSTwG7YcGNr31CqYCtGN873royv",
        "reception_time": "2022-01-19T05:31:38.954-00:00",
        "included_in_blocks":
          [ "BLaqCTAtmXs8eiX2yECv98fnbHJUq7Gbg6pZrm1hm2vfqhnmuW3" ] },
      { "delegate": "tz1NSDFKuRyzHxpfG1AMkyCwEiZ52cbR2mRW",
        "reception_time": "2022-01-19T05:31:38.957-00:00",
        "included_in_blocks":
          [ "BLaqCTAtmXs8eiX2yECv98fnbHJUq7Gbg6pZrm1hm2vfqhnmuW3" ] },
      { "delegate": "tz1gfArv665EUkSg2ojMBzcbfwuPxAvqPvjo",
        "reception_time": "2022-01-19T05:31:38.985-00:00",
        "included_in_blocks":
          [ "BLaqCTAtmXs8eiX2yECv98fnbHJUq7Gbg6pZrm1hm2vfqhnmuW3" ] },
      { "delegate": "tz1g8vkmcde6sWKaG2NN9WKzCkDM6Rziq194",
        "reception_time": "2022-01-19T05:31:39.016-00:00",
        "included_in_blocks":
          [ "BLaqCTAtmXs8eiX2yECv98fnbHJUq7Gbg6pZrm1hm2vfqhnmuW3" ] },
      { "delegate": "tz3bTdwZinP8U1JmSweNzVKhmwafqWmFWRfk",
        "reception_time": "2022-01-19T05:31:39.079-00:00",
        "included_in_blocks":
          [ "BLaqCTAtmXs8eiX2yECv98fnbHJUq7Gbg6pZrm1hm2vfqhnmuW3" ] },
      { "delegate": "tz3RB4aoyjov4KEVRbuhvQ1CKJgBJMWhaeB8",
        "reception_time": "2022-01-19T05:31:39.112-00:00",
        "included_in_blocks":
          [ "BLaqCTAtmXs8eiX2yECv98fnbHJUq7Gbg6pZrm1hm2vfqhnmuW3" ] },
      { "delegate": "tz1NortRftucvAkD1J58L32EhSVrQEWJCEnB",
        "reception_time": "2022-01-19T05:31:39.139-00:00",
        "included_in_blocks":
          [ "BLaqCTAtmXs8eiX2yECv98fnbHJUq7Gbg6pZrm1hm2vfqhnmuW3" ] },
      { "delegate": "tz3bvNMQ95vfAYtG8193ymshqjSvmxiCUuR5",
        "reception_time": "2022-01-19T05:31:39.159-00:00",
        "included_in_blocks":
          [ "BLaqCTAtmXs8eiX2yECv98fnbHJUq7Gbg6pZrm1hm2vfqhnmuW3" ] },
      { "delegate": "tz1KfEsrtDaA1sX7vdM4qmEPWuSytuqCDp5j",
        "reception_time": "2022-01-19T05:31:39.188-00:00",
        "included_in_blocks":
          [ "BLaqCTAtmXs8eiX2yECv98fnbHJUq7Gbg6pZrm1hm2vfqhnmuW3" ] },
      { "delegate": "tz1Tnjaxk6tbAeC2TmMApPh8UsrEVQvhHvx5",
        "reception_time": "2022-01-19T05:31:39.295-00:00",
        "included_in_blocks":
          [ "BLaqCTAtmXs8eiX2yECv98fnbHJUq7Gbg6pZrm1hm2vfqhnmuW3" ] },
      { "delegate": "tz1WctSwL49BZtdWAQ75NY6vr4xsAx6oKdah",
        "reception_time": "2022-01-19T05:31:39.392-00:00",
        "included_in_blocks":
          [ "BLaqCTAtmXs8eiX2yECv98fnbHJUq7Gbg6pZrm1hm2vfqhnmuW3" ] },
      { "delegate": "tz1LmaFsWRkjr7QMCx5PtV6xTUz3AmEpKQiF",
        "reception_time": "2022-01-19T05:31:39.436-00:00",
        "included_in_blocks":
          [ "BLaqCTAtmXs8eiX2yECv98fnbHJUq7Gbg6pZrm1hm2vfqhnmuW3" ] },
      { "delegate": "tz1S8MNvuFEUsWgjHvi3AxibRBf388NhT1q2",
        "reception_time": "2022-01-19T05:31:39.458-00:00",
        "included_in_blocks":
          [ "BLaqCTAtmXs8eiX2yECv98fnbHJUq7Gbg6pZrm1hm2vfqhnmuW3" ] },
      { "delegate": "tz3WMqdzXqRWXwyvj5Hp2H7QEepaUuS7vd9K",
        "reception_time": "2022-01-19T05:31:39.705-00:00",
        "included_in_blocks":
          [ "BLaqCTAtmXs8eiX2yECv98fnbHJUq7Gbg6pZrm1hm2vfqhnmuW3" ] },
      { "delegate": "tz1T7duV5gZWSTq4YpBGbXNLTfznCLDrFxvs",
        "reception_time": "2022-01-19T05:31:39.831-00:00",
        "included_in_blocks":
          [ "BLaqCTAtmXs8eiX2yECv98fnbHJUq7Gbg6pZrm1hm2vfqhnmuW3" ] },
      { "delegate": "tz3gLTu4Yxj8tPAcriQVUdxv6BY9QyvzU1az",
        "reception_time": "2022-01-19T05:31:39.992-00:00",
        "included_in_blocks":
          [ "BLaqCTAtmXs8eiX2yECv98fnbHJUq7Gbg6pZrm1hm2vfqhnmuW3" ] },
      { "delegate": "tz3NDpRj6WBrJPikcPVHRBEjWKxFw3c6eQPS",
        "reception_time": "2022-01-19T05:31:40.003-00:00",
        "included_in_blocks":
          [ "BLaqCTAtmXs8eiX2yECv98fnbHJUq7Gbg6pZrm1hm2vfqhnmuW3" ] },
      { "delegate": "tz1dDsLch7Ww1s5mfD1tjBtKWwCdrjuHWanV",
        "reception_time": "2022-01-19T05:31:40.035-00:00",
        "included_in_blocks":
          [ "BLaqCTAtmXs8eiX2yECv98fnbHJUq7Gbg6pZrm1hm2vfqhnmuW3" ] },
      { "delegate": "tz3RDC3Jdn4j15J7bBHZd29EUee9gVB1CxD9",
        "reception_time": "2022-01-19T05:31:40.111-00:00",
        "included_in_blocks":
          [ "BLaqCTAtmXs8eiX2yECv98fnbHJUq7Gbg6pZrm1hm2vfqhnmuW3" ] },
      { "delegate": "tz1dRKU4FQ9QRRQPdaH4zCR6gmCmXfcvcgtB",
        "reception_time": "2022-01-19T05:31:40.147-00:00",
        "included_in_blocks":
          [ "BLaqCTAtmXs8eiX2yECv98fnbHJUq7Gbg6pZrm1hm2vfqhnmuW3" ] },
      { "delegate": "tz3VEZ4k6a4Wx42iyev6i2aVAptTRLEAivNN",
        "reception_time": "2022-01-19T05:31:40.242-00:00",
        "included_in_blocks":
          [ "BLaqCTAtmXs8eiX2yECv98fnbHJUq7Gbg6pZrm1hm2vfqhnmuW3" ] },
      { "delegate": "tz1cM8Xc7ZP1TrjkTeKq4PeRhtbnwXSBR6Sw",
        "reception_time": "2022-01-19T05:31:40.563-00:00",
        "included_in_blocks":
          [ "BLaqCTAtmXs8eiX2yECv98fnbHJUq7Gbg6pZrm1hm2vfqhnmuW3" ] },
      { "delegate": "tz1V3yg82mcrPJbegqVCPn6bC8w1CSTRp3f8",
        "reception_time": "2022-01-19T05:31:40.785-00:00",
        "included_in_blocks":
          [ "BLaqCTAtmXs8eiX2yECv98fnbHJUq7Gbg6pZrm1hm2vfqhnmuW3" ] },
      { "delegate": "tz1cYufsxHXJcvANhvS55h3aY32a9BAFB494",
        "reception_time": "2022-01-19T05:31:40.811-00:00",
        "included_in_blocks":
          [ "BLaqCTAtmXs8eiX2yECv98fnbHJUq7Gbg6pZrm1hm2vfqhnmuW3" ] },
      { "delegate": "tz3NExpXn9aPNZPorRE4SdjJ2RGrfbJgMAaV",
        "reception_time": "2022-01-19T05:31:41.322-00:00",
        "included_in_blocks":
          [ "BLaqCTAtmXs8eiX2yECv98fnbHJUq7Gbg6pZrm1hm2vfqhnmuW3" ] },
      { "delegate": "tz3UoffC7FG7zfpmvmjUmUeAaHvzdcUvAj6r",
        "reception_time": "2022-01-19T05:31:41.467-00:00",
        "included_in_blocks":
          [ "BLaqCTAtmXs8eiX2yECv98fnbHJUq7Gbg6pZrm1hm2vfqhnmuW3" ] },
      { "delegate": "tz1aRoaRhSpRYvFdyvgWLL6TGyRoGF51wDjM",
        "reception_time": "2022-01-19T05:31:41.628-00:00",
        "included_in_blocks":
          [ "BLaqCTAtmXs8eiX2yECv98fnbHJUq7Gbg6pZrm1hm2vfqhnmuW3" ] },
      { "delegate": "tz1i3mhawFAgcB8JHaHwoUF6hdncwTAkLEn2",
        "reception_time": "2022-01-19T05:31:42.911-00:00",
        "included_in_blocks":
          [ "BLaqCTAtmXs8eiX2yECv98fnbHJUq7Gbg6pZrm1hm2vfqhnmuW3" ] },
      { "delegate": "tz1NpWrAyDL9k2Lmnyxcgr9xuJakbBxdq7FB",
        "reception_time": "2022-01-19T05:31:44.867-00:00",
        "included_in_blocks":
          [ "BLaqCTAtmXs8eiX2yECv98fnbHJUq7Gbg6pZrm1hm2vfqhnmuW3" ] } ] }