{ "blocks":
    [ { "hash": "BLDJXRa4WD6QsYqtX2eY7nAVpBNC1PizJqd8WPgTycf9EhBTnha",
        "delegate": "tz1irJKkXS2DBWkU1NnmFQx1c1L7pbGg4yhk",
        "reception_time": "2022-01-19T02:16:46.681-00:00",
        "timestamp": "2022-01-19T02:16:40Z" } ],
  "endorsements":
    [ { "delegate": "tz1SYq214SCBy9naR6cvycQsYcUGpBqQAE8d" },
      { "delegate": "tz1RV1MBbZMR68tacosb7Mwj6LkbPSUS1er1",
        "reception_time": "2022-01-19T02:16:47.419-00:00",
        "included_in_blocks":
          [ "BLWD3ks6PXkZCqd3moSuXa2tBqQSwgJXngqpp9UsndRicvJBKT9" ] },
      { "delegate": "tz1P2Po7YM526ughEsRbY4oR9zaUPDZjxFrb",
        "reception_time": "2022-01-19T02:16:47.424-00:00",
        "included_in_blocks":
          [ "BLWD3ks6PXkZCqd3moSuXa2tBqQSwgJXngqpp9UsndRicvJBKT9" ] },
      { "delegate": "tz1eEnQhbwf6trb8Q8mPb2RaPkNk2rN7BKi8",
        "reception_time": "2022-01-19T02:16:47.429-00:00",
        "included_in_blocks":
          [ "BLWD3ks6PXkZCqd3moSuXa2tBqQSwgJXngqpp9UsndRicvJBKT9" ] },
      { "delegate": "tz1Ldzz6k1BHdhuKvAtMRX7h5kJSMHESMHLC",
        "reception_time": "2022-01-19T02:16:47.429-00:00",
        "included_in_blocks":
          [ "BLWD3ks6PXkZCqd3moSuXa2tBqQSwgJXngqpp9UsndRicvJBKT9" ] },
      { "delegate": "tz1irJKkXS2DBWkU1NnmFQx1c1L7pbGg4yhk",
        "reception_time": "2022-01-19T02:16:47.434-00:00",
        "included_in_blocks":
          [ "BLWD3ks6PXkZCqd3moSuXa2tBqQSwgJXngqpp9UsndRicvJBKT9" ] },
      { "delegate": "tz1XfAjZyaLdceHnZxbMYop7g7kWKPut4PR7",
        "reception_time": "2022-01-19T02:16:47.434-00:00",
        "included_in_blocks":
          [ "BLWD3ks6PXkZCqd3moSuXa2tBqQSwgJXngqpp9UsndRicvJBKT9" ] },
      { "delegate": "tz1TXzyaKUA8wsWefdSnyaYFnV2M3vCV7er9",
        "reception_time": "2022-01-19T02:16:47.436-00:00",
        "included_in_blocks":
          [ "BLWD3ks6PXkZCqd3moSuXa2tBqQSwgJXngqpp9UsndRicvJBKT9" ] },
      { "delegate": "tz3NxTnke1acr8o3h5y9ytf5awQBGNJUKzVU",
        "reception_time": "2022-01-19T02:16:47.446-00:00",
        "included_in_blocks":
          [ "BLWD3ks6PXkZCqd3moSuXa2tBqQSwgJXngqpp9UsndRicvJBKT9" ] },
      { "delegate": "tz1gUNyn3hmnEWqkusWPzxRaon1cs7ndWh7h",
        "reception_time": "2022-01-19T02:16:47.455-00:00",
        "included_in_blocks":
          [ "BLWD3ks6PXkZCqd3moSuXa2tBqQSwgJXngqpp9UsndRicvJBKT9" ] },
      { "delegate": "tz3QSGPoRp3Kn7n3vY24eYeu3Peuqo45LQ4D",
        "reception_time": "2022-01-19T02:16:47.463-00:00",
        "included_in_blocks":
          [ "BLWD3ks6PXkZCqd3moSuXa2tBqQSwgJXngqpp9UsndRicvJBKT9" ] },
      { "delegate": "tz1ZPh7XfUaJXUDvkrBxmS1BjEM1i62hiPpM",
        "reception_time": "2022-01-19T02:16:47.467-00:00",
        "included_in_blocks":
          [ "BLWD3ks6PXkZCqd3moSuXa2tBqQSwgJXngqpp9UsndRicvJBKT9" ] },
      { "delegate": "tz1Kt4P8BCaP93AEV4eA7gmpRryWt5hznjCP",
        "reception_time": "2022-01-19T02:16:47.473-00:00",
        "included_in_blocks":
          [ "BLWD3ks6PXkZCqd3moSuXa2tBqQSwgJXngqpp9UsndRicvJBKT9" ] },
      { "delegate": "tz3ZbP2pM3nwvXztbuMJwJnDvV5xdpU8UkkD",
        "reception_time": "2022-01-19T02:16:47.486-00:00",
        "included_in_blocks":
          [ "BLWD3ks6PXkZCqd3moSuXa2tBqQSwgJXngqpp9UsndRicvJBKT9" ] },
      { "delegate": "tz1aXD7Jigrt3PBYSpHSg5Rr33SexMmmM5Ys",
        "reception_time": "2022-01-19T02:16:47.489-00:00",
        "included_in_blocks":
          [ "BLWD3ks6PXkZCqd3moSuXa2tBqQSwgJXngqpp9UsndRicvJBKT9" ] },
      { "delegate": "tz3gtoUxdudfBRcNY7iVdKPHCYYX6xdPpoRS",
        "reception_time": "2022-01-19T02:16:47.496-00:00",
        "included_in_blocks":
          [ "BLWD3ks6PXkZCqd3moSuXa2tBqQSwgJXngqpp9UsndRicvJBKT9" ] },
      { "delegate": "tz1VQnqCCqX4K5sP3FNkVSNKTdCAMJDd3E1n",
        "reception_time": "2022-01-19T02:16:47.502-00:00",
        "included_in_blocks":
          [ "BLWD3ks6PXkZCqd3moSuXa2tBqQSwgJXngqpp9UsndRicvJBKT9" ] },
      { "delegate": "tz3hw2kqXhLUvY65ca1eety2oQTpAvd34R9Q",
        "reception_time": "2022-01-19T02:16:47.575-00:00",
        "included_in_blocks":
          [ "BLWD3ks6PXkZCqd3moSuXa2tBqQSwgJXngqpp9UsndRicvJBKT9" ] },
      { "delegate": "tz1TzaNn7wSQSP5gYPXCnNzBCpyMiidCq1PX",
        "reception_time": "2022-01-19T02:16:47.614-00:00",
        "included_in_blocks":
          [ "BLWD3ks6PXkZCqd3moSuXa2tBqQSwgJXngqpp9UsndRicvJBKT9" ] },
      { "delegate": "tz3RKYFsLuQzKBtmYuLNas7uMu3AsYd4QdsA",
        "reception_time": "2022-01-19T02:16:47.633-00:00",
        "included_in_blocks":
          [ "BLWD3ks6PXkZCqd3moSuXa2tBqQSwgJXngqpp9UsndRicvJBKT9" ] },
      { "delegate": "tz1Kf25fX1VdmYGSEzwFy1wNmkbSEZ2V83sY",
        "reception_time": "2022-01-19T02:16:47.658-00:00",
        "included_in_blocks":
          [ "BLWD3ks6PXkZCqd3moSuXa2tBqQSwgJXngqpp9UsndRicvJBKT9" ] },
      { "delegate": "tz1VmiY38m3y95HqQLjMwqnMS7sdMfGomzKi",
        "reception_time": "2022-01-19T02:16:47.839-00:00",
        "included_in_blocks":
          [ "BLWD3ks6PXkZCqd3moSuXa2tBqQSwgJXngqpp9UsndRicvJBKT9" ] },
      { "delegate": "tz1WCd2jm4uSt4vntk4vSuUWoZQGhLcDuR9q",
        "reception_time": "2022-01-19T02:16:47.921-00:00",
        "included_in_blocks":
          [ "BLWD3ks6PXkZCqd3moSuXa2tBqQSwgJXngqpp9UsndRicvJBKT9" ] },
      { "delegate": "tz3e7LbZvUtoXhpUD1yb6wuFodZpfYRb9nWJ",
        "reception_time": "2022-01-19T02:16:47.941-00:00",
        "included_in_blocks":
          [ "BLWD3ks6PXkZCqd3moSuXa2tBqQSwgJXngqpp9UsndRicvJBKT9" ] },
      { "delegate": "tz3iJu5vrKZcsqRPs8yJ61UDoeEXZmtro4qh",
        "reception_time": "2022-01-19T02:16:47.963-00:00",
        "included_in_blocks":
          [ "BLWD3ks6PXkZCqd3moSuXa2tBqQSwgJXngqpp9UsndRicvJBKT9" ] },
      { "delegate": "tz1PWCDnz783NNGGQjEFFsHtrcK5yBW4E2rm",
        "reception_time": "2022-01-19T02:16:48.010-00:00",
        "included_in_blocks":
          [ "BLWD3ks6PXkZCqd3moSuXa2tBqQSwgJXngqpp9UsndRicvJBKT9" ] },
      { "delegate": "tz3Zhs2dygr55yHyQyKjntAtY9bgfhLZ4Xj1",
        "reception_time": "2022-01-19T02:16:48.018-00:00",
        "included_in_blocks":
          [ "BLWD3ks6PXkZCqd3moSuXa2tBqQSwgJXngqpp9UsndRicvJBKT9" ] },
      { "delegate": "tz3S6BBeKgJGXxvLyZ1xzXzMPn11nnFtq5L9",
        "reception_time": "2022-01-19T02:16:48.080-00:00",
        "included_in_blocks":
          [ "BLWD3ks6PXkZCqd3moSuXa2tBqQSwgJXngqpp9UsndRicvJBKT9" ] },
      { "delegate": "tz3QT9dHYKDqh563chVa6za8526ys1UKfRfL",
        "reception_time": "2022-01-19T02:16:48.113-00:00",
        "included_in_blocks":
          [ "BLWD3ks6PXkZCqd3moSuXa2tBqQSwgJXngqpp9UsndRicvJBKT9" ] },
      { "delegate": "tz1fPKAtsYydh4f1wfWNfeNxWYu72TmM48fu",
        "reception_time": "2022-01-19T02:16:48.154-00:00",
        "included_in_blocks":
          [ "BLWD3ks6PXkZCqd3moSuXa2tBqQSwgJXngqpp9UsndRicvJBKT9" ] },
      { "delegate": "tz1UbFpJY5Hext38GisuaXQBkbzhaKJkxpEs",
        "reception_time": "2022-01-19T02:16:48.340-00:00",
        "included_in_blocks":
          [ "BLWD3ks6PXkZCqd3moSuXa2tBqQSwgJXngqpp9UsndRicvJBKT9" ] },
      { "delegate": "tz1gfArv665EUkSg2ojMBzcbfwuPxAvqPvjo",
        "reception_time": "2022-01-19T02:16:48.389-00:00",
        "included_in_blocks":
          [ "BLWD3ks6PXkZCqd3moSuXa2tBqQSwgJXngqpp9UsndRicvJBKT9" ] },
      { "delegate": "tz1RCFbB9GpALpsZtu6J58sb74dm8qe6XBzv",
        "reception_time": "2022-01-19T02:16:48.422-00:00",
        "included_in_blocks":
          [ "BLWD3ks6PXkZCqd3moSuXa2tBqQSwgJXngqpp9UsndRicvJBKT9" ] },
      { "delegate": "tz1V4qCyvPKZ5UeqdH14HN42rxvNPQfc9UZg",
        "reception_time": "2022-01-19T02:16:48.510-00:00",
        "included_in_blocks":
          [ "BLWD3ks6PXkZCqd3moSuXa2tBqQSwgJXngqpp9UsndRicvJBKT9" ] },
      { "delegate": "tz1NSDFKuRyzHxpfG1AMkyCwEiZ52cbR2mRW",
        "reception_time": "2022-01-19T02:16:48.540-00:00",
        "included_in_blocks":
          [ "BLWD3ks6PXkZCqd3moSuXa2tBqQSwgJXngqpp9UsndRicvJBKT9" ] },
      { "delegate": "tz1ei4WtWEMEJekSv8qDnu9PExG6Q8HgRGr3",
        "reception_time": "2022-01-19T02:16:48.636-00:00",
        "included_in_blocks":
          [ "BLWD3ks6PXkZCqd3moSuXa2tBqQSwgJXngqpp9UsndRicvJBKT9" ] },
      { "delegate": "tz1Nf6tsK4G6bBqgSQERy4nUtkHNKUVdh7q1",
        "reception_time": "2022-01-19T02:16:48.666-00:00",
        "included_in_blocks":
          [ "BLWD3ks6PXkZCqd3moSuXa2tBqQSwgJXngqpp9UsndRicvJBKT9" ] },
      { "delegate": "tz1S8MNvuFEUsWgjHvi3AxibRBf388NhT1q2",
        "reception_time": "2022-01-19T02:16:48.670-00:00",
        "included_in_blocks":
          [ "BLWD3ks6PXkZCqd3moSuXa2tBqQSwgJXngqpp9UsndRicvJBKT9" ] },
      { "delegate": "tz3RB4aoyjov4KEVRbuhvQ1CKJgBJMWhaeB8",
        "reception_time": "2022-01-19T02:16:48.737-00:00",
        "included_in_blocks":
          [ "BLWD3ks6PXkZCqd3moSuXa2tBqQSwgJXngqpp9UsndRicvJBKT9" ] },
      { "delegate": "tz1KfEsrtDaA1sX7vdM4qmEPWuSytuqCDp5j",
        "reception_time": "2022-01-19T02:16:49.533-00:00",
        "included_in_blocks":
          [ "BLWD3ks6PXkZCqd3moSuXa2tBqQSwgJXngqpp9UsndRicvJBKT9" ] },
      { "delegate": "tz1YsFfbT76a69Co3CkmuvYsphKZuHCNksp7",
        "reception_time": "2022-01-19T02:16:49.621-00:00",
        "included_in_blocks":
          [ "BLWD3ks6PXkZCqd3moSuXa2tBqQSwgJXngqpp9UsndRicvJBKT9" ] },
      { "delegate": "tz3bTdwZinP8U1JmSweNzVKhmwafqWmFWRfk",
        "reception_time": "2022-01-19T02:16:49.637-00:00",
        "included_in_blocks":
          [ "BLWD3ks6PXkZCqd3moSuXa2tBqQSwgJXngqpp9UsndRicvJBKT9" ] },
      { "delegate": "tz1iPHM2Xx2hwmzcr1EG1zzrV6oKafVoA91m",
        "reception_time": "2022-01-19T02:16:49.637-00:00",
        "included_in_blocks":
          [ "BLWD3ks6PXkZCqd3moSuXa2tBqQSwgJXngqpp9UsndRicvJBKT9" ] },
      { "delegate": "tz1UMCB2AHSTwG7YcGNr31CqYCtGN873royv",
        "reception_time": "2022-01-19T02:16:49.645-00:00",
        "included_in_blocks":
          [ "BLWD3ks6PXkZCqd3moSuXa2tBqQSwgJXngqpp9UsndRicvJBKT9" ] },
      { "delegate": "tz2FCNBrERXtaTtNX6iimR1UJ5JSDxvdHM93",
        "reception_time": "2022-01-19T02:16:49.666-00:00",
        "included_in_blocks":
          [ "BLWD3ks6PXkZCqd3moSuXa2tBqQSwgJXngqpp9UsndRicvJBKT9" ] },
      { "delegate": "tz1dDsLch7Ww1s5mfD1tjBtKWwCdrjuHWanV",
        "reception_time": "2022-01-19T02:16:49.785-00:00",
        "included_in_blocks":
          [ "BLWD3ks6PXkZCqd3moSuXa2tBqQSwgJXngqpp9UsndRicvJBKT9" ] },
      { "delegate": "tz1NEKxGEHsFufk87CVZcrqWu8o22qh46GK6",
        "reception_time": "2022-01-19T02:16:49.788-00:00",
        "included_in_blocks":
          [ "BLWD3ks6PXkZCqd3moSuXa2tBqQSwgJXngqpp9UsndRicvJBKT9" ] },
      { "delegate": "tz1PeZx7FXy7QRuMREGXGxeipb24RsMMzUNe",
        "reception_time": "2022-01-19T02:16:49.800-00:00",
        "included_in_blocks":
          [ "BLWD3ks6PXkZCqd3moSuXa2tBqQSwgJXngqpp9UsndRicvJBKT9" ] },
      { "delegate": "tz3RDC3Jdn4j15J7bBHZd29EUee9gVB1CxD9",
        "reception_time": "2022-01-19T02:16:49.850-00:00",
        "included_in_blocks":
          [ "BLWD3ks6PXkZCqd3moSuXa2tBqQSwgJXngqpp9UsndRicvJBKT9" ] },
      { "delegate": "tz3WMqdzXqRWXwyvj5Hp2H7QEepaUuS7vd9K",
        "reception_time": "2022-01-19T02:16:49.900-00:00",
        "included_in_blocks":
          [ "BLWD3ks6PXkZCqd3moSuXa2tBqQSwgJXngqpp9UsndRicvJBKT9" ] },
      { "delegate": "tz3VEZ4k6a4Wx42iyev6i2aVAptTRLEAivNN",
        "reception_time": "2022-01-19T02:16:49.900-00:00",
        "included_in_blocks":
          [ "BLWD3ks6PXkZCqd3moSuXa2tBqQSwgJXngqpp9UsndRicvJBKT9" ] },
      { "delegate": "tz3NDpRj6WBrJPikcPVHRBEjWKxFw3c6eQPS",
        "reception_time": "2022-01-19T02:16:49.967-00:00",
        "included_in_blocks":
          [ "BLWD3ks6PXkZCqd3moSuXa2tBqQSwgJXngqpp9UsndRicvJBKT9" ] },
      { "delegate": "tz1UVFkBnZzy2WGzs7415DNwsbvuyvz4ZznB",
        "reception_time": "2022-01-19T02:16:49.999-00:00",
        "included_in_blocks":
          [ "BLWD3ks6PXkZCqd3moSuXa2tBqQSwgJXngqpp9UsndRicvJBKT9" ] },
      { "delegate": "tz3gLTu4Yxj8tPAcriQVUdxv6BY9QyvzU1az",
        "reception_time": "2022-01-19T02:16:50.040-00:00",
        "included_in_blocks":
          [ "BLWD3ks6PXkZCqd3moSuXa2tBqQSwgJXngqpp9UsndRicvJBKT9" ] },
      { "delegate": "tz3bvNMQ95vfAYtG8193ymshqjSvmxiCUuR5",
        "reception_time": "2022-01-19T02:16:50.055-00:00",
        "included_in_blocks":
          [ "BLWD3ks6PXkZCqd3moSuXa2tBqQSwgJXngqpp9UsndRicvJBKT9" ] },
      { "delegate": "tz1dRKU4FQ9QRRQPdaH4zCR6gmCmXfcvcgtB",
        "reception_time": "2022-01-19T02:16:50.156-00:00",
        "included_in_blocks":
          [ "BLWD3ks6PXkZCqd3moSuXa2tBqQSwgJXngqpp9UsndRicvJBKT9" ] },
      { "delegate": "tz1T7duV5gZWSTq4YpBGbXNLTfznCLDrFxvs",
        "reception_time": "2022-01-19T02:16:50.159-00:00",
        "included_in_blocks":
          [ "BLWD3ks6PXkZCqd3moSuXa2tBqQSwgJXngqpp9UsndRicvJBKT9" ] },
      { "delegate": "tz1TRqbYbUf2GyrjErf3hBzgBJPzW8y36qEs",
        "reception_time": "2022-01-19T02:16:50.169-00:00",
        "included_in_blocks":
          [ "BLWD3ks6PXkZCqd3moSuXa2tBqQSwgJXngqpp9UsndRicvJBKT9" ] },
      { "delegate": "tz3UoffC7FG7zfpmvmjUmUeAaHvzdcUvAj6r",
        "reception_time": "2022-01-19T02:16:50.365-00:00",
        "included_in_blocks":
          [ "BLWD3ks6PXkZCqd3moSuXa2tBqQSwgJXngqpp9UsndRicvJBKT9" ] },
      { "delegate": "tz1cYufsxHXJcvANhvS55h3aY32a9BAFB494",
        "reception_time": "2022-01-19T02:16:50.425-00:00",
        "included_in_blocks":
          [ "BLWD3ks6PXkZCqd3moSuXa2tBqQSwgJXngqpp9UsndRicvJBKT9" ] },
      { "delegate": "tz1b9MYGrbN1NAxphLEsPPNT9JC7aNFc5nA4",
        "reception_time": "2022-01-19T02:16:50.862-00:00",
        "included_in_blocks":
          [ "BLWD3ks6PXkZCqd3moSuXa2tBqQSwgJXngqpp9UsndRicvJBKT9" ] },
      { "delegate": "tz3NExpXn9aPNZPorRE4SdjJ2RGrfbJgMAaV",
        "reception_time": "2022-01-19T02:16:50.899-00:00",
        "included_in_blocks":
          [ "BLWD3ks6PXkZCqd3moSuXa2tBqQSwgJXngqpp9UsndRicvJBKT9" ] },
      { "delegate": "tz1awXW7wuXy21c66vBudMXQVAPgRnqqwgTH",
        "reception_time": "2022-01-19T02:16:51.398-00:00",
        "included_in_blocks":
          [ "BLWD3ks6PXkZCqd3moSuXa2tBqQSwgJXngqpp9UsndRicvJBKT9" ] },
      { "delegate": "tz1QJU1PuKUP5ZQxUr4pHZjCHGRvJSpcXv7G",
        "reception_time": "2022-01-19T02:16:51.448-00:00",
        "included_in_blocks":
          [ "BLWD3ks6PXkZCqd3moSuXa2tBqQSwgJXngqpp9UsndRicvJBKT9" ] },
      { "delegate": "tz1aRoaRhSpRYvFdyvgWLL6TGyRoGF51wDjM",
        "reception_time": "2022-01-19T02:16:51.560-00:00",
        "included_in_blocks":
          [ "BLWD3ks6PXkZCqd3moSuXa2tBqQSwgJXngqpp9UsndRicvJBKT9" ] },
      { "delegate": "tz1W5VkdB5s7ENMESVBtwyt9kyvLqPcUczRT",
        "reception_time": "2022-01-19T02:16:51.565-00:00",
        "included_in_blocks":
          [ "BLWD3ks6PXkZCqd3moSuXa2tBqQSwgJXngqpp9UsndRicvJBKT9" ] },
      { "delegate": "tz1eVaNx3gCmG1EsLjijkmgAxdLYVf6Bf5Sq",
        "reception_time": "2022-01-19T02:16:52.046-00:00",
        "included_in_blocks":
          [ "BLWD3ks6PXkZCqd3moSuXa2tBqQSwgJXngqpp9UsndRicvJBKT9" ] } ] }