{ "blocks":
    [ { "hash": "BKo6PcRzzBUhNdn8LJcojYC1bZDX9f5jwBac5PaRk3zwb6e49Ck",
        "delegate": "tz1VQnqCCqX4K5sP3FNkVSNKTdCAMJDd3E1n",
        "reception_time": "2022-01-19T03:43:54.613-00:00",
        "timestamp": "2022-01-19T03:43:50Z" } ],
  "endorsements":
    [ { "delegate": "tz1Lhf4J9Qxoe3DZ2nfe8FGDnvVj7oKjnMY6",
        "reception_time": "2022-01-19T03:43:54.583-00:00",
        "errors":
          [ { "kind": "temporary",
              "id": "proto.011-PtHangz2.prefilter.outdated_endorsement" } ],
        "included_in_blocks":
          [ "BLiuaFCRqCXZvnDYL1yMrvwLYFXvQiv9Bi5WfiV5ypeuJRkBC22" ] },
      { "delegate": "tz1P2Po7YM526ughEsRbY4oR9zaUPDZjxFrb",
        "reception_time": "2022-01-19T03:43:54.568-00:00",
        "errors":
          [ { "kind": "temporary",
              "id": "proto.011-PtHangz2.prefilter.outdated_endorsement" } ],
        "included_in_blocks":
          [ "BLiuaFCRqCXZvnDYL1yMrvwLYFXvQiv9Bi5WfiV5ypeuJRkBC22" ] },
      { "delegate": "tz1MXFrtZoaXckE41bjUCSjAjAap3AFDSr3N",
        "reception_time": "2022-01-19T03:43:54.554-00:00",
        "errors":
          [ { "kind": "temporary",
              "id": "proto.011-PtHangz2.prefilter.outdated_endorsement" } ],
        "included_in_blocks":
          [ "BLiuaFCRqCXZvnDYL1yMrvwLYFXvQiv9Bi5WfiV5ypeuJRkBC22" ] },
      { "delegate": "tz1S8e9GgdZG78XJRB3NqabfWeM37GnhZMWQ",
        "reception_time": "2022-01-19T03:43:54.307-00:00",
        "errors":
          [ { "kind": "temporary",
              "id": "proto.011-PtHangz2.prefilter.outdated_endorsement" } ],
        "included_in_blocks":
          [ "BLiuaFCRqCXZvnDYL1yMrvwLYFXvQiv9Bi5WfiV5ypeuJRkBC22" ] },
      { "delegate": "tz1beersuEDv8Z7ngQ825xfbaJNS2EhXnyHR",
        "reception_time": "2022-01-19T03:43:55.574-00:00",
        "included_in_blocks":
          [ "BLiuaFCRqCXZvnDYL1yMrvwLYFXvQiv9Bi5WfiV5ypeuJRkBC22" ] },
      { "delegate": "tz1TRspM5SeZpaQUhzByXbEvqKF1vnCM2YTK",
        "reception_time": "2022-01-19T03:43:55.588-00:00",
        "included_in_blocks":
          [ "BLiuaFCRqCXZvnDYL1yMrvwLYFXvQiv9Bi5WfiV5ypeuJRkBC22" ] },
      { "delegate": "tz1irJKkXS2DBWkU1NnmFQx1c1L7pbGg4yhk",
        "reception_time": "2022-01-19T03:43:55.592-00:00",
        "included_in_blocks":
          [ "BLiuaFCRqCXZvnDYL1yMrvwLYFXvQiv9Bi5WfiV5ypeuJRkBC22" ] },
      { "delegate": "tz1eEnQhbwf6trb8Q8mPb2RaPkNk2rN7BKi8",
        "reception_time": "2022-01-19T03:43:55.595-00:00",
        "included_in_blocks":
          [ "BLiuaFCRqCXZvnDYL1yMrvwLYFXvQiv9Bi5WfiV5ypeuJRkBC22" ] },
      { "delegate": "tz1Kt4P8BCaP93AEV4eA7gmpRryWt5hznjCP",
        "reception_time": "2022-01-19T03:43:55.595-00:00",
        "included_in_blocks":
          [ "BLiuaFCRqCXZvnDYL1yMrvwLYFXvQiv9Bi5WfiV5ypeuJRkBC22" ] },
      { "delegate": "tz1TXzyaKUA8wsWefdSnyaYFnV2M3vCV7er9",
        "reception_time": "2022-01-19T03:43:55.600-00:00",
        "included_in_blocks":
          [ "BLiuaFCRqCXZvnDYL1yMrvwLYFXvQiv9Bi5WfiV5ypeuJRkBC22" ] },
      { "delegate": "tz1Ldzz6k1BHdhuKvAtMRX7h5kJSMHESMHLC",
        "reception_time": "2022-01-19T03:43:55.600-00:00",
        "included_in_blocks":
          [ "BLiuaFCRqCXZvnDYL1yMrvwLYFXvQiv9Bi5WfiV5ypeuJRkBC22" ] },
      { "delegate": "tz1Scdr2HsZiQjc7bHMeBbmDRXYVvdhjJbBh",
        "reception_time": "2022-01-19T03:43:55.605-00:00",
        "included_in_blocks":
          [ "BLiuaFCRqCXZvnDYL1yMrvwLYFXvQiv9Bi5WfiV5ypeuJRkBC22" ] },
      { "delegate": "tz1STeamwbp68THcny9zk3LsbG3H36DMvbRK",
        "reception_time": "2022-01-19T03:43:55.605-00:00",
        "included_in_blocks":
          [ "BLiuaFCRqCXZvnDYL1yMrvwLYFXvQiv9Bi5WfiV5ypeuJRkBC22" ] },
      { "delegate": "tz1gUNyn3hmnEWqkusWPzxRaon1cs7ndWh7h",
        "reception_time": "2022-01-19T03:43:55.607-00:00",
        "included_in_blocks":
          [ "BLiuaFCRqCXZvnDYL1yMrvwLYFXvQiv9Bi5WfiV5ypeuJRkBC22" ] },
      { "delegate": "tz1VQnqCCqX4K5sP3FNkVSNKTdCAMJDd3E1n",
        "reception_time": "2022-01-19T03:43:55.610-00:00",
        "included_in_blocks":
          [ "BLiuaFCRqCXZvnDYL1yMrvwLYFXvQiv9Bi5WfiV5ypeuJRkBC22" ] },
      { "delegate": "tz1cX93Q3KsiTADpCC4f12TBvAmS5tw7CW19",
        "reception_time": "2022-01-19T03:43:55.615-00:00",
        "included_in_blocks":
          [ "BLiuaFCRqCXZvnDYL1yMrvwLYFXvQiv9Bi5WfiV5ypeuJRkBC22" ] },
      { "delegate": "tz1VmiY38m3y95HqQLjMwqnMS7sdMfGomzKi",
        "reception_time": "2022-01-19T03:43:55.618-00:00",
        "included_in_blocks":
          [ "BLiuaFCRqCXZvnDYL1yMrvwLYFXvQiv9Bi5WfiV5ypeuJRkBC22" ] },
      { "delegate": "tz1NadALtM1Z4jWBxHbPUgvQrjqQoFJXTZz5",
        "reception_time": "2022-01-19T03:43:55.623-00:00",
        "included_in_blocks":
          [ "BLiuaFCRqCXZvnDYL1yMrvwLYFXvQiv9Bi5WfiV5ypeuJRkBC22" ] },
      { "delegate": "tz3hw2kqXhLUvY65ca1eety2oQTpAvd34R9Q",
        "reception_time": "2022-01-19T03:43:55.631-00:00",
        "included_in_blocks":
          [ "BLiuaFCRqCXZvnDYL1yMrvwLYFXvQiv9Bi5WfiV5ypeuJRkBC22" ] },
      { "delegate": "tz3RKYFsLuQzKBtmYuLNas7uMu3AsYd4QdsA",
        "reception_time": "2022-01-19T03:43:55.654-00:00",
        "included_in_blocks":
          [ "BLiuaFCRqCXZvnDYL1yMrvwLYFXvQiv9Bi5WfiV5ypeuJRkBC22" ] },
      { "delegate": "tz1WCd2jm4uSt4vntk4vSuUWoZQGhLcDuR9q",
        "reception_time": "2022-01-19T03:43:55.675-00:00",
        "included_in_blocks":
          [ "BLiuaFCRqCXZvnDYL1yMrvwLYFXvQiv9Bi5WfiV5ypeuJRkBC22" ] },
      { "delegate": "tz3QCNyySViKHmeSr45kzDxzchys7NiXCWoa",
        "reception_time": "2022-01-19T03:43:55.702-00:00",
        "included_in_blocks":
          [ "BLiuaFCRqCXZvnDYL1yMrvwLYFXvQiv9Bi5WfiV5ypeuJRkBC22" ] },
      { "delegate": "tz3NxTnke1acr8o3h5y9ytf5awQBGNJUKzVU",
        "reception_time": "2022-01-19T03:43:55.724-00:00",
        "included_in_blocks":
          [ "BLiuaFCRqCXZvnDYL1yMrvwLYFXvQiv9Bi5WfiV5ypeuJRkBC22" ] },
      { "delegate": "tz1d6Fx42mYgVFnHUW8T8A7WBfJ6nD9pVok8",
        "reception_time": "2022-01-19T03:43:55.736-00:00",
        "included_in_blocks":
          [ "BLiuaFCRqCXZvnDYL1yMrvwLYFXvQiv9Bi5WfiV5ypeuJRkBC22" ] },
      { "delegate": "tz3QSGPoRp3Kn7n3vY24eYeu3Peuqo45LQ4D",
        "reception_time": "2022-01-19T03:43:55.752-00:00",
        "included_in_blocks":
          [ "BLiuaFCRqCXZvnDYL1yMrvwLYFXvQiv9Bi5WfiV5ypeuJRkBC22" ] },
      { "delegate": "tz3gtoUxdudfBRcNY7iVdKPHCYYX6xdPpoRS",
        "reception_time": "2022-01-19T03:43:55.844-00:00",
        "included_in_blocks":
          [ "BLiuaFCRqCXZvnDYL1yMrvwLYFXvQiv9Bi5WfiV5ypeuJRkBC22" ] },
      { "delegate": "tz3Zhs2dygr55yHyQyKjntAtY9bgfhLZ4Xj1",
        "reception_time": "2022-01-19T03:43:55.975-00:00",
        "included_in_blocks":
          [ "BLiuaFCRqCXZvnDYL1yMrvwLYFXvQiv9Bi5WfiV5ypeuJRkBC22" ] },
      { "delegate": "tz3iJu5vrKZcsqRPs8yJ61UDoeEXZmtro4qh",
        "reception_time": "2022-01-19T03:43:56.010-00:00",
        "included_in_blocks":
          [ "BLiuaFCRqCXZvnDYL1yMrvwLYFXvQiv9Bi5WfiV5ypeuJRkBC22" ] },
      { "delegate": "tz1UJvHTgpVzcKWhTazGxVcn5wsHru5Gietg",
        "reception_time": "2022-01-19T03:43:56.044-00:00",
        "included_in_blocks":
          [ "BLiuaFCRqCXZvnDYL1yMrvwLYFXvQiv9Bi5WfiV5ypeuJRkBC22" ] },
      { "delegate": "tz1fb7c66UwePkkfDXz4ajFaBP9hVNLdS7JJ",
        "reception_time": "2022-01-19T03:43:56.063-00:00",
        "included_in_blocks":
          [ "BLiuaFCRqCXZvnDYL1yMrvwLYFXvQiv9Bi5WfiV5ypeuJRkBC22" ] },
      { "delegate": "tz3S6BBeKgJGXxvLyZ1xzXzMPn11nnFtq5L9",
        "reception_time": "2022-01-19T03:43:56.088-00:00",
        "included_in_blocks":
          [ "BLiuaFCRqCXZvnDYL1yMrvwLYFXvQiv9Bi5WfiV5ypeuJRkBC22" ] },
      { "delegate": "tz3QT9dHYKDqh563chVa6za8526ys1UKfRfL",
        "reception_time": "2022-01-19T03:43:56.118-00:00",
        "included_in_blocks":
          [ "BLiuaFCRqCXZvnDYL1yMrvwLYFXvQiv9Bi5WfiV5ypeuJRkBC22" ] },
      { "delegate": "tz1PWCDnz783NNGGQjEFFsHtrcK5yBW4E2rm",
        "reception_time": "2022-01-19T03:43:56.180-00:00",
        "included_in_blocks":
          [ "BLiuaFCRqCXZvnDYL1yMrvwLYFXvQiv9Bi5WfiV5ypeuJRkBC22" ] },
      { "delegate": "tz1dwu9aYb7CRNq4Y2zAjipdjFuSVKhHS8vA",
        "reception_time": "2022-01-19T03:43:56.194-00:00",
        "included_in_blocks":
          [ "BLiuaFCRqCXZvnDYL1yMrvwLYFXvQiv9Bi5WfiV5ypeuJRkBC22" ] },
      { "delegate": "tz1Mc61yajNASzh5KWZFtYs4i7EJbzAxQC4K",
        "reception_time": "2022-01-19T03:43:56.299-00:00",
        "included_in_blocks":
          [ "BLiuaFCRqCXZvnDYL1yMrvwLYFXvQiv9Bi5WfiV5ypeuJRkBC22" ] },
      { "delegate": "tz1fUjvVhJrHLZCbhPNvDRckxApqbkievJHN",
        "reception_time": "2022-01-19T03:43:56.382-00:00",
        "included_in_blocks":
          [ "BLiuaFCRqCXZvnDYL1yMrvwLYFXvQiv9Bi5WfiV5ypeuJRkBC22" ] },
      { "delegate": "tz3bTdwZinP8U1JmSweNzVKhmwafqWmFWRfk",
        "reception_time": "2022-01-19T03:43:56.535-00:00",
        "included_in_blocks":
          [ "BLiuaFCRqCXZvnDYL1yMrvwLYFXvQiv9Bi5WfiV5ypeuJRkBC22" ] },
      { "delegate": "tz1ei4WtWEMEJekSv8qDnu9PExG6Q8HgRGr3",
        "reception_time": "2022-01-19T03:43:56.558-00:00",
        "included_in_blocks":
          [ "BLiuaFCRqCXZvnDYL1yMrvwLYFXvQiv9Bi5WfiV5ypeuJRkBC22" ] },
      { "delegate": "tz1Nf6tsK4G6bBqgSQERy4nUtkHNKUVdh7q1",
        "reception_time": "2022-01-19T03:43:56.567-00:00",
        "included_in_blocks":
          [ "BLiuaFCRqCXZvnDYL1yMrvwLYFXvQiv9Bi5WfiV5ypeuJRkBC22" ] },
      { "delegate": "tz1WnfXMPaNTBmH7DBPwqCWs9cPDJdkGBTZ8",
        "reception_time": "2022-01-19T03:43:56.618-00:00",
        "included_in_blocks":
          [ "BLiuaFCRqCXZvnDYL1yMrvwLYFXvQiv9Bi5WfiV5ypeuJRkBC22" ] },
      { "delegate": "tz1RCFbB9GpALpsZtu6J58sb74dm8qe6XBzv",
        "reception_time": "2022-01-19T03:43:56.622-00:00",
        "included_in_blocks":
          [ "BLiuaFCRqCXZvnDYL1yMrvwLYFXvQiv9Bi5WfiV5ypeuJRkBC22" ] },
      { "delegate": "tz1gfArv665EUkSg2ojMBzcbfwuPxAvqPvjo",
        "reception_time": "2022-01-19T03:43:56.711-00:00",
        "included_in_blocks":
          [ "BLiuaFCRqCXZvnDYL1yMrvwLYFXvQiv9Bi5WfiV5ypeuJRkBC22" ] },
      { "delegate": "tz1V4qCyvPKZ5UeqdH14HN42rxvNPQfc9UZg",
        "reception_time": "2022-01-19T03:43:56.739-00:00",
        "included_in_blocks":
          [ "BLiuaFCRqCXZvnDYL1yMrvwLYFXvQiv9Bi5WfiV5ypeuJRkBC22" ] },
      { "delegate": "tz1fUyqYH7H4pRHN1roWY17giXhy1RvxjgUV",
        "reception_time": "2022-01-19T03:43:56.892-00:00",
        "included_in_blocks":
          [ "BLiuaFCRqCXZvnDYL1yMrvwLYFXvQiv9Bi5WfiV5ypeuJRkBC22" ] },
      { "delegate": "tz1TEc75UKXv4W5cwi14Na3NtqFD51yKQi7h",
        "reception_time": "2022-01-19T03:43:56.966-00:00",
        "included_in_blocks":
          [ "BLiuaFCRqCXZvnDYL1yMrvwLYFXvQiv9Bi5WfiV5ypeuJRkBC22" ] },
      { "delegate": "tz1Tnjaxk6tbAeC2TmMApPh8UsrEVQvhHvx5",
        "reception_time": "2022-01-19T03:43:56.984-00:00",
        "included_in_blocks":
          [ "BLiuaFCRqCXZvnDYL1yMrvwLYFXvQiv9Bi5WfiV5ypeuJRkBC22" ] },
      { "delegate": "tz2FCNBrERXtaTtNX6iimR1UJ5JSDxvdHM93",
        "reception_time": "2022-01-19T03:43:57.035-00:00",
        "included_in_blocks":
          [ "BLiuaFCRqCXZvnDYL1yMrvwLYFXvQiv9Bi5WfiV5ypeuJRkBC22" ] },
      { "delegate": "tz1SYq214SCBy9naR6cvycQsYcUGpBqQAE8d",
        "reception_time": "2022-01-19T03:43:57.046-00:00",
        "included_in_blocks":
          [ "BLiuaFCRqCXZvnDYL1yMrvwLYFXvQiv9Bi5WfiV5ypeuJRkBC22" ] },
      { "delegate": "tz1TRqbYbUf2GyrjErf3hBzgBJPzW8y36qEs",
        "reception_time": "2022-01-19T03:43:57.052-00:00",
        "included_in_blocks":
          [ "BLiuaFCRqCXZvnDYL1yMrvwLYFXvQiv9Bi5WfiV5ypeuJRkBC22" ] },
      { "delegate": "tz1S8MNvuFEUsWgjHvi3AxibRBf388NhT1q2",
        "reception_time": "2022-01-19T03:43:57.056-00:00",
        "included_in_blocks":
          [ "BLiuaFCRqCXZvnDYL1yMrvwLYFXvQiv9Bi5WfiV5ypeuJRkBC22" ] },
      { "delegate": "tz1WBfwbT66FC6BTLexc2BoyCCBM9LG7pnVW",
        "reception_time": "2022-01-19T03:43:57.058-00:00",
        "included_in_blocks":
          [ "BLiuaFCRqCXZvnDYL1yMrvwLYFXvQiv9Bi5WfiV5ypeuJRkBC22" ] },
      { "delegate": "tz1g8vkmcde6sWKaG2NN9WKzCkDM6Rziq194",
        "reception_time": "2022-01-19T03:43:57.066-00:00",
        "included_in_blocks":
          [ "BLiuaFCRqCXZvnDYL1yMrvwLYFXvQiv9Bi5WfiV5ypeuJRkBC22" ] },
      { "delegate": "tz1abmz7jiCV2GH2u81LRrGgAFFgvQgiDiaf",
        "reception_time": "2022-01-19T03:43:57.069-00:00",
        "included_in_blocks":
          [ "BLiuaFCRqCXZvnDYL1yMrvwLYFXvQiv9Bi5WfiV5ypeuJRkBC22" ] },
      { "delegate": "tz1KfEsrtDaA1sX7vdM4qmEPWuSytuqCDp5j",
        "reception_time": "2022-01-19T03:43:57.116-00:00",
        "included_in_blocks":
          [ "BLiuaFCRqCXZvnDYL1yMrvwLYFXvQiv9Bi5WfiV5ypeuJRkBC22" ] },
      { "delegate": "tz3RDC3Jdn4j15J7bBHZd29EUee9gVB1CxD9",
        "reception_time": "2022-01-19T03:43:57.132-00:00",
        "included_in_blocks":
          [ "BLiuaFCRqCXZvnDYL1yMrvwLYFXvQiv9Bi5WfiV5ypeuJRkBC22" ] },
      { "delegate": "tz1PeZx7FXy7QRuMREGXGxeipb24RsMMzUNe",
        "reception_time": "2022-01-19T03:43:57.162-00:00",
        "included_in_blocks":
          [ "BLiuaFCRqCXZvnDYL1yMrvwLYFXvQiv9Bi5WfiV5ypeuJRkBC22" ] },
      { "delegate": "tz1a1J3AGjJTAyBqWWSqFuUazUDV2TtD6hMy",
        "reception_time": "2022-01-19T03:43:57.248-00:00",
        "included_in_blocks":
          [ "BLiuaFCRqCXZvnDYL1yMrvwLYFXvQiv9Bi5WfiV5ypeuJRkBC22" ] },
      { "delegate": "tz1WctSwL49BZtdWAQ75NY6vr4xsAx6oKdah",
        "reception_time": "2022-01-19T03:43:57.293-00:00",
        "included_in_blocks":
          [ "BLiuaFCRqCXZvnDYL1yMrvwLYFXvQiv9Bi5WfiV5ypeuJRkBC22" ] },
      { "delegate": "tz1RjoHc98dBoqaH2jawF62XNKh7YsHwbkEv",
        "reception_time": "2022-01-19T03:43:57.470-00:00",
        "included_in_blocks":
          [ "BLiuaFCRqCXZvnDYL1yMrvwLYFXvQiv9Bi5WfiV5ypeuJRkBC22" ] },
      { "delegate": "tz3gLTu4Yxj8tPAcriQVUdxv6BY9QyvzU1az",
        "reception_time": "2022-01-19T03:43:57.470-00:00",
        "included_in_blocks":
          [ "BLiuaFCRqCXZvnDYL1yMrvwLYFXvQiv9Bi5WfiV5ypeuJRkBC22" ] },
      { "delegate": "tz3NDpRj6WBrJPikcPVHRBEjWKxFw3c6eQPS",
        "reception_time": "2022-01-19T03:43:57.521-00:00",
        "included_in_blocks":
          [ "BLiuaFCRqCXZvnDYL1yMrvwLYFXvQiv9Bi5WfiV5ypeuJRkBC22" ] },
      { "delegate": "tz1NEKxGEHsFufk87CVZcrqWu8o22qh46GK6",
        "reception_time": "2022-01-19T03:43:57.559-00:00",
        "included_in_blocks":
          [ "BLiuaFCRqCXZvnDYL1yMrvwLYFXvQiv9Bi5WfiV5ypeuJRkBC22" ] },
      { "delegate": "tz1eVaNx3gCmG1EsLjijkmgAxdLYVf6Bf5Sq",
        "reception_time": "2022-01-19T03:43:57.630-00:00",
        "included_in_blocks":
          [ "BLiuaFCRqCXZvnDYL1yMrvwLYFXvQiv9Bi5WfiV5ypeuJRkBC22" ] },
      { "delegate": "tz1cYufsxHXJcvANhvS55h3aY32a9BAFB494",
        "reception_time": "2022-01-19T03:43:57.692-00:00",
        "included_in_blocks":
          [ "BLiuaFCRqCXZvnDYL1yMrvwLYFXvQiv9Bi5WfiV5ypeuJRkBC22" ] },
      { "delegate": "tz3RB4aoyjov4KEVRbuhvQ1CKJgBJMWhaeB8",
        "reception_time": "2022-01-19T03:43:57.959-00:00",
        "included_in_blocks":
          [ "BLiuaFCRqCXZvnDYL1yMrvwLYFXvQiv9Bi5WfiV5ypeuJRkBC22" ] },
      { "delegate": "tz3WMqdzXqRWXwyvj5Hp2H7QEepaUuS7vd9K",
        "reception_time": "2022-01-19T03:43:57.977-00:00",
        "included_in_blocks":
          [ "BLiuaFCRqCXZvnDYL1yMrvwLYFXvQiv9Bi5WfiV5ypeuJRkBC22" ] },
      { "delegate": "tz1eLbDXYceRsPZoPmaJXZgQ6pzgnTQvZtpo",
        "reception_time": "2022-01-19T03:43:58.012-00:00",
        "included_in_blocks":
          [ "BLiuaFCRqCXZvnDYL1yMrvwLYFXvQiv9Bi5WfiV5ypeuJRkBC22" ] },
      { "delegate": "tz1dRKU4FQ9QRRQPdaH4zCR6gmCmXfcvcgtB",
        "reception_time": "2022-01-19T03:43:58.021-00:00",
        "included_in_blocks":
          [ "BLiuaFCRqCXZvnDYL1yMrvwLYFXvQiv9Bi5WfiV5ypeuJRkBC22" ] },
      { "delegate": "tz1iEWcNL383qiDJ3Q3qt5W2T4aSKUbEU4An",
        "reception_time": "2022-01-19T03:43:58.083-00:00",
        "included_in_blocks":
          [ "BLiuaFCRqCXZvnDYL1yMrvwLYFXvQiv9Bi5WfiV5ypeuJRkBC22" ] },
      { "delegate": "tz3VEZ4k6a4Wx42iyev6i2aVAptTRLEAivNN",
        "reception_time": "2022-01-19T03:43:58.113-00:00",
        "included_in_blocks":
          [ "BLiuaFCRqCXZvnDYL1yMrvwLYFXvQiv9Bi5WfiV5ypeuJRkBC22" ] },
      { "delegate": "tz1YiuvpfeVAHbnU8akcWErNfQGFHNQ7F45z",
        "reception_time": "2022-01-19T03:43:58.440-00:00",
        "included_in_blocks":
          [ "BLiuaFCRqCXZvnDYL1yMrvwLYFXvQiv9Bi5WfiV5ypeuJRkBC22" ] },
      { "delegate": "tz3UoffC7FG7zfpmvmjUmUeAaHvzdcUvAj6r",
        "reception_time": "2022-01-19T03:43:58.453-00:00",
        "included_in_blocks":
          [ "BLiuaFCRqCXZvnDYL1yMrvwLYFXvQiv9Bi5WfiV5ypeuJRkBC22" ] },
      { "delegate": "tz3NExpXn9aPNZPorRE4SdjJ2RGrfbJgMAaV",
        "reception_time": "2022-01-19T03:43:58.549-00:00",
        "included_in_blocks":
          [ "BLiuaFCRqCXZvnDYL1yMrvwLYFXvQiv9Bi5WfiV5ypeuJRkBC22" ] },
      { "delegate": "tz1aRoaRhSpRYvFdyvgWLL6TGyRoGF51wDjM",
        "reception_time": "2022-01-19T03:43:58.605-00:00",
        "included_in_blocks":
          [ "BLiuaFCRqCXZvnDYL1yMrvwLYFXvQiv9Bi5WfiV5ypeuJRkBC22" ] },
      { "delegate": "tz1fPKAtsYydh4f1wfWNfeNxWYu72TmM48fu",
        "reception_time": "2022-01-19T03:43:58.610-00:00",
        "included_in_blocks":
          [ "BLiuaFCRqCXZvnDYL1yMrvwLYFXvQiv9Bi5WfiV5ypeuJRkBC22" ] },
      { "delegate": "tz1PFeoTuFen8jAMRHajBySNyCwLmY5RqF9M",
        "reception_time": "2022-01-19T03:43:59.741-00:00",
        "included_in_blocks":
          [ "BLiuaFCRqCXZvnDYL1yMrvwLYFXvQiv9Bi5WfiV5ypeuJRkBC22" ] },
      { "delegate": "tz1gg5bjopPcr9agjamyu9BbXKLibNc2rbAq",
        "reception_time": "2022-01-19T03:44:00.428-00:00",
        "included_in_blocks":
          [ "BLiuaFCRqCXZvnDYL1yMrvwLYFXvQiv9Bi5WfiV5ypeuJRkBC22" ] },
      { "delegate": "tz1S5WxdZR5f9NzsPXhr7L9L1vrEb5spZFur",
        "reception_time": "2022-01-19T03:44:02.006-00:00",
        "included_in_blocks":
          [ "BLiuaFCRqCXZvnDYL1yMrvwLYFXvQiv9Bi5WfiV5ypeuJRkBC22" ] },
      { "delegate": "tz1NpWrAyDL9k2Lmnyxcgr9xuJakbBxdq7FB",
        "reception_time": "2022-01-19T03:44:03.485-00:00",
        "included_in_blocks":
          [ "BLiuaFCRqCXZvnDYL1yMrvwLYFXvQiv9Bi5WfiV5ypeuJRkBC22" ] },
      { "delegate": "tz1i5PPsXa711EuZzped9jqPS8hGKsrCMB9f",
        "reception_time": "2022-01-19T03:44:11.830-00:00",
        "included_in_blocks":
          [ "BLiuaFCRqCXZvnDYL1yMrvwLYFXvQiv9Bi5WfiV5ypeuJRkBC22" ] } ] }