{ "blocks":
    [ { "hash": "BMH4QvCxWJ5UmAja4HpEnXqJbUbavytH3egRB387s7SyTvvrary",
        "delegate": "tz1gfArv665EUkSg2ojMBzcbfwuPxAvqPvjo",
        "reception_time": "2022-01-19T06:34:41.753-00:00",
        "timestamp": "2022-01-19T06:34:30Z" } ],
  "endorsements":
    [ { "delegate": "tz3adcvQaKXTCg12zbninqo3q8ptKKtDFTLv",
        "reception_time": "2022-01-19T06:34:41.476-00:00",
        "errors":
          [ { "kind": "temporary",
              "id": "proto.011-PtHangz2.prefilter.outdated_endorsement" } ],
        "included_in_blocks":
          [ "BM4EGeiQJWDFBctbRPrm7rKHVwaG1LHzkDrddZUeuJGY3MZkvAv" ] },
      { "delegate": "tz1Ldzz6k1BHdhuKvAtMRX7h5kJSMHESMHLC",
        "reception_time": "2022-01-19T06:34:41.443-00:00",
        "errors":
          [ { "kind": "temporary",
              "id": "proto.011-PtHangz2.prefilter.outdated_endorsement" } ],
        "included_in_blocks":
          [ "BM4EGeiQJWDFBctbRPrm7rKHVwaG1LHzkDrddZUeuJGY3MZkvAv" ] },
      { "delegate": "tz1gUNyn3hmnEWqkusWPzxRaon1cs7ndWh7h",
        "reception_time": "2022-01-19T06:34:41.382-00:00",
        "errors":
          [ { "kind": "temporary",
              "id": "proto.011-PtHangz2.prefilter.outdated_endorsement" } ],
        "included_in_blocks":
          [ "BM4EGeiQJWDFBctbRPrm7rKHVwaG1LHzkDrddZUeuJGY3MZkvAv" ] },
      { "delegate": "tz1eEnQhbwf6trb8Q8mPb2RaPkNk2rN7BKi8",
        "reception_time": "2022-01-19T06:34:41.382-00:00",
        "errors":
          [ { "kind": "temporary",
              "id": "proto.011-PtHangz2.prefilter.outdated_endorsement" } ],
        "included_in_blocks":
          [ "BM4EGeiQJWDFBctbRPrm7rKHVwaG1LHzkDrddZUeuJGY3MZkvAv" ] },
      { "delegate": "tz1VQnqCCqX4K5sP3FNkVSNKTdCAMJDd3E1n",
        "reception_time": "2022-01-19T06:34:41.382-00:00",
        "errors":
          [ { "kind": "temporary",
              "id": "proto.011-PtHangz2.prefilter.outdated_endorsement" } ],
        "included_in_blocks":
          [ "BM4EGeiQJWDFBctbRPrm7rKHVwaG1LHzkDrddZUeuJGY3MZkvAv" ] },
      { "delegate": "tz1VmiY38m3y95HqQLjMwqnMS7sdMfGomzKi",
        "reception_time": "2022-01-19T06:34:41.261-00:00",
        "errors":
          [ { "kind": "temporary",
              "id": "proto.011-PtHangz2.prefilter.outdated_endorsement" } ],
        "included_in_blocks":
          [ "BM4EGeiQJWDFBctbRPrm7rKHVwaG1LHzkDrddZUeuJGY3MZkvAv" ] },
      { "delegate": "tz1RV1MBbZMR68tacosb7Mwj6LkbPSUS1er1",
        "reception_time": "2022-01-19T06:34:41.227-00:00",
        "errors":
          [ { "kind": "temporary",
              "id": "proto.011-PtHangz2.prefilter.outdated_endorsement" } ],
        "included_in_blocks":
          [ "BM4EGeiQJWDFBctbRPrm7rKHVwaG1LHzkDrddZUeuJGY3MZkvAv" ] },
      { "delegate": "tz1irJKkXS2DBWkU1NnmFQx1c1L7pbGg4yhk",
        "reception_time": "2022-01-19T06:34:41.149-00:00",
        "errors":
          [ { "kind": "temporary",
              "id": "proto.011-PtHangz2.prefilter.outdated_endorsement" } ],
        "included_in_blocks":
          [ "BM4EGeiQJWDFBctbRPrm7rKHVwaG1LHzkDrddZUeuJGY3MZkvAv" ] },
      { "delegate": "tz1P2Po7YM526ughEsRbY4oR9zaUPDZjxFrb",
        "reception_time": "2022-01-19T06:34:41.042-00:00",
        "errors":
          [ { "kind": "temporary",
              "id": "proto.011-PtHangz2.prefilter.outdated_endorsement" } ],
        "included_in_blocks":
          [ "BM4EGeiQJWDFBctbRPrm7rKHVwaG1LHzkDrddZUeuJGY3MZkvAv" ] },
      { "delegate": "tz1iZEKy4LaAjnTmn2RuGDf2iqdAQKnRi8kY",
        "reception_time": "2022-01-19T06:34:40.952-00:00",
        "errors":
          [ { "kind": "temporary",
              "id": "proto.011-PtHangz2.prefilter.outdated_endorsement" } ],
        "included_in_blocks":
          [ "BM4EGeiQJWDFBctbRPrm7rKHVwaG1LHzkDrddZUeuJGY3MZkvAv" ] },
      { "delegate": "tz1TXzyaKUA8wsWefdSnyaYFnV2M3vCV7er9",
        "reception_time": "2022-01-19T06:34:40.895-00:00",
        "errors":
          [ { "kind": "temporary",
              "id": "proto.011-PtHangz2.prefilter.outdated_endorsement" } ],
        "included_in_blocks":
          [ "BM4EGeiQJWDFBctbRPrm7rKHVwaG1LHzkDrddZUeuJGY3MZkvAv" ] },
      { "delegate": "tz1gfArv665EUkSg2ojMBzcbfwuPxAvqPvjo",
        "reception_time": "2022-01-19T06:34:39.387-00:00",
        "errors":
          [ { "kind": "temporary",
              "id": "proto.011-PtHangz2.prefilter.outdated_endorsement" } ],
        "included_in_blocks":
          [ "BM4EGeiQJWDFBctbRPrm7rKHVwaG1LHzkDrddZUeuJGY3MZkvAv" ] },
      { "delegate": "tz1dbfppLAAxXZNtf2SDps7rch3qfUznKSoK" },
      { "delegate": "tz1d6Fx42mYgVFnHUW8T8A7WBfJ6nD9pVok8",
        "reception_time": "2022-01-19T06:34:43.650-00:00",
        "included_in_blocks":
          [ "BM4EGeiQJWDFBctbRPrm7rKHVwaG1LHzkDrddZUeuJGY3MZkvAv" ] },
      { "delegate": "tz1TEc75UKXv4W5cwi14Na3NtqFD51yKQi7h",
        "reception_time": "2022-01-19T06:34:43.650-00:00",
        "included_in_blocks":
          [ "BM4EGeiQJWDFBctbRPrm7rKHVwaG1LHzkDrddZUeuJGY3MZkvAv" ] },
      { "delegate": "tz3iJu5vrKZcsqRPs8yJ61UDoeEXZmtro4qh",
        "reception_time": "2022-01-19T06:34:43.650-00:00",
        "included_in_blocks":
          [ "BM4EGeiQJWDFBctbRPrm7rKHVwaG1LHzkDrddZUeuJGY3MZkvAv" ] },
      { "delegate": "tz1bHzftcTKZMTZgLLtnrXydCm6UEqf4ivca",
        "reception_time": "2022-01-19T06:34:43.650-00:00",
        "included_in_blocks":
          [ "BM4EGeiQJWDFBctbRPrm7rKHVwaG1LHzkDrddZUeuJGY3MZkvAv" ] },
      { "delegate": "tz1PWCDnz783NNGGQjEFFsHtrcK5yBW4E2rm",
        "reception_time": "2022-01-19T06:34:43.650-00:00",
        "included_in_blocks":
          [ "BM4EGeiQJWDFBctbRPrm7rKHVwaG1LHzkDrddZUeuJGY3MZkvAv" ] },
      { "delegate": "tz3Zhs2dygr55yHyQyKjntAtY9bgfhLZ4Xj1",
        "reception_time": "2022-01-19T06:34:43.650-00:00",
        "included_in_blocks":
          [ "BM4EGeiQJWDFBctbRPrm7rKHVwaG1LHzkDrddZUeuJGY3MZkvAv" ] },
      { "delegate": "tz1S8MNvuFEUsWgjHvi3AxibRBf388NhT1q2",
        "reception_time": "2022-01-19T06:34:43.650-00:00",
        "included_in_blocks":
          [ "BM4EGeiQJWDFBctbRPrm7rKHVwaG1LHzkDrddZUeuJGY3MZkvAv" ] },
      { "delegate": "tz1cSj7fTex3JPd1p1LN1fwek6AV1kH93Wwc",
        "reception_time": "2022-01-19T06:34:43.650-00:00",
        "included_in_blocks":
          [ "BM4EGeiQJWDFBctbRPrm7rKHVwaG1LHzkDrddZUeuJGY3MZkvAv" ] },
      { "delegate": "tz1MQJPGNMijnXnVoBENFz9rUhaPt3S7rWoz",
        "reception_time": "2022-01-19T06:34:43.650-00:00",
        "included_in_blocks":
          [ "BM4EGeiQJWDFBctbRPrm7rKHVwaG1LHzkDrddZUeuJGY3MZkvAv" ] },
      { "delegate": "tz3hw2kqXhLUvY65ca1eety2oQTpAvd34R9Q",
        "reception_time": "2022-01-19T06:34:43.650-00:00",
        "included_in_blocks":
          [ "BM4EGeiQJWDFBctbRPrm7rKHVwaG1LHzkDrddZUeuJGY3MZkvAv" ] },
      { "delegate": "tz1V4qCyvPKZ5UeqdH14HN42rxvNPQfc9UZg",
        "reception_time": "2022-01-19T06:34:43.650-00:00",
        "included_in_blocks":
          [ "BM4EGeiQJWDFBctbRPrm7rKHVwaG1LHzkDrddZUeuJGY3MZkvAv" ] },
      { "delegate": "tz1TRspM5SeZpaQUhzByXbEvqKF1vnCM2YTK",
        "reception_time": "2022-01-19T06:34:43.650-00:00",
        "included_in_blocks":
          [ "BM4EGeiQJWDFBctbRPrm7rKHVwaG1LHzkDrddZUeuJGY3MZkvAv" ] },
      { "delegate": "tz3S6BBeKgJGXxvLyZ1xzXzMPn11nnFtq5L9",
        "reception_time": "2022-01-19T06:34:43.650-00:00",
        "included_in_blocks":
          [ "BM4EGeiQJWDFBctbRPrm7rKHVwaG1LHzkDrddZUeuJGY3MZkvAv" ] },
      { "delegate": "tz3QT9dHYKDqh563chVa6za8526ys1UKfRfL",
        "reception_time": "2022-01-19T06:34:43.650-00:00",
        "included_in_blocks":
          [ "BM4EGeiQJWDFBctbRPrm7rKHVwaG1LHzkDrddZUeuJGY3MZkvAv" ] },
      { "delegate": "tz3QSGPoRp3Kn7n3vY24eYeu3Peuqo45LQ4D",
        "reception_time": "2022-01-19T06:34:43.650-00:00",
        "included_in_blocks":
          [ "BM4EGeiQJWDFBctbRPrm7rKHVwaG1LHzkDrddZUeuJGY3MZkvAv" ] },
      { "delegate": "tz1g8vkmcde6sWKaG2NN9WKzCkDM6Rziq194",
        "reception_time": "2022-01-19T06:34:43.650-00:00",
        "included_in_blocks":
          [ "BM4EGeiQJWDFBctbRPrm7rKHVwaG1LHzkDrddZUeuJGY3MZkvAv" ] },
      { "delegate": "tz3NxTnke1acr8o3h5y9ytf5awQBGNJUKzVU",
        "reception_time": "2022-01-19T06:34:43.650-00:00",
        "included_in_blocks":
          [ "BM4EGeiQJWDFBctbRPrm7rKHVwaG1LHzkDrddZUeuJGY3MZkvAv" ] },
      { "delegate": "tz3RKYFsLuQzKBtmYuLNas7uMu3AsYd4QdsA",
        "reception_time": "2022-01-19T06:34:43.650-00:00",
        "included_in_blocks":
          [ "BM4EGeiQJWDFBctbRPrm7rKHVwaG1LHzkDrddZUeuJGY3MZkvAv" ] },
      { "delegate": "tz1WCd2jm4uSt4vntk4vSuUWoZQGhLcDuR9q",
        "reception_time": "2022-01-19T06:34:43.650-00:00",
        "included_in_blocks":
          [ "BM4EGeiQJWDFBctbRPrm7rKHVwaG1LHzkDrddZUeuJGY3MZkvAv" ] },
      { "delegate": "tz1N7fL6KvRzD5Umy7yeX5uBa5wFsC5veuN2",
        "reception_time": "2022-01-19T06:34:43.650-00:00",
        "included_in_blocks":
          [ "BM4EGeiQJWDFBctbRPrm7rKHVwaG1LHzkDrddZUeuJGY3MZkvAv" ] },
      { "delegate": "tz1ei4WtWEMEJekSv8qDnu9PExG6Q8HgRGr3",
        "reception_time": "2022-01-19T06:34:43.650-00:00",
        "included_in_blocks":
          [ "BM4EGeiQJWDFBctbRPrm7rKHVwaG1LHzkDrddZUeuJGY3MZkvAv" ] },
      { "delegate": "tz3gtoUxdudfBRcNY7iVdKPHCYYX6xdPpoRS",
        "reception_time": "2022-01-19T06:34:43.650-00:00",
        "included_in_blocks":
          [ "BM4EGeiQJWDFBctbRPrm7rKHVwaG1LHzkDrddZUeuJGY3MZkvAv" ] },
      { "delegate": "tz1abmz7jiCV2GH2u81LRrGgAFFgvQgiDiaf",
        "reception_time": "2022-01-19T06:34:43.650-00:00",
        "included_in_blocks":
          [ "BM4EGeiQJWDFBctbRPrm7rKHVwaG1LHzkDrddZUeuJGY3MZkvAv" ] },
      { "delegate": "tz1SYq214SCBy9naR6cvycQsYcUGpBqQAE8d",
        "reception_time": "2022-01-19T06:34:43.650-00:00",
        "included_in_blocks":
          [ "BM4EGeiQJWDFBctbRPrm7rKHVwaG1LHzkDrddZUeuJGY3MZkvAv" ] },
      { "delegate": "tz1NSDFKuRyzHxpfG1AMkyCwEiZ52cbR2mRW",
        "reception_time": "2022-01-19T06:34:43.650-00:00",
        "included_in_blocks":
          [ "BM4EGeiQJWDFBctbRPrm7rKHVwaG1LHzkDrddZUeuJGY3MZkvAv" ] },
      { "delegate": "tz1YhNsiRRU8aHNGg7NK3uuP6UDAyacJernB",
        "reception_time": "2022-01-19T06:34:43.650-00:00",
        "included_in_blocks":
          [ "BM4EGeiQJWDFBctbRPrm7rKHVwaG1LHzkDrddZUeuJGY3MZkvAv" ] },
      { "delegate": "tz1bZ8vsMAXmaWEV7FRnyhcuUs2fYMaQ6Hkk",
        "reception_time": "2022-01-19T06:34:43.650-00:00",
        "included_in_blocks":
          [ "BM4EGeiQJWDFBctbRPrm7rKHVwaG1LHzkDrddZUeuJGY3MZkvAv" ] },
      { "delegate": "tz3bTdwZinP8U1JmSweNzVKhmwafqWmFWRfk",
        "reception_time": "2022-01-19T06:34:43.650-00:00",
        "included_in_blocks":
          [ "BM4EGeiQJWDFBctbRPrm7rKHVwaG1LHzkDrddZUeuJGY3MZkvAv" ] },
      { "delegate": "tz1Nf6tsK4G6bBqgSQERy4nUtkHNKUVdh7q1",
        "reception_time": "2022-01-19T06:34:43.650-00:00",
        "included_in_blocks":
          [ "BM4EGeiQJWDFBctbRPrm7rKHVwaG1LHzkDrddZUeuJGY3MZkvAv" ] },
      { "delegate": "tz1Tnjaxk6tbAeC2TmMApPh8UsrEVQvhHvx5",
        "reception_time": "2022-01-19T06:34:43.650-00:00",
        "included_in_blocks":
          [ "BM4EGeiQJWDFBctbRPrm7rKHVwaG1LHzkDrddZUeuJGY3MZkvAv" ] },
      { "delegate": "tz1KfEsrtDaA1sX7vdM4qmEPWuSytuqCDp5j",
        "reception_time": "2022-01-19T06:34:43.650-00:00",
        "included_in_blocks":
          [ "BM4EGeiQJWDFBctbRPrm7rKHVwaG1LHzkDrddZUeuJGY3MZkvAv" ] },
      { "delegate": "tz1LmaFsWRkjr7QMCx5PtV6xTUz3AmEpKQiF",
        "reception_time": "2022-01-19T06:34:43.650-00:00",
        "included_in_blocks":
          [ "BM4EGeiQJWDFBctbRPrm7rKHVwaG1LHzkDrddZUeuJGY3MZkvAv" ] },
      { "delegate": "tz1NEKxGEHsFufk87CVZcrqWu8o22qh46GK6",
        "reception_time": "2022-01-19T06:34:43.650-00:00",
        "included_in_blocks":
          [ "BM4EGeiQJWDFBctbRPrm7rKHVwaG1LHzkDrddZUeuJGY3MZkvAv" ] },
      { "delegate": "tz2FCNBrERXtaTtNX6iimR1UJ5JSDxvdHM93",
        "reception_time": "2022-01-19T06:34:43.650-00:00",
        "included_in_blocks":
          [ "BM4EGeiQJWDFBctbRPrm7rKHVwaG1LHzkDrddZUeuJGY3MZkvAv" ] },
      { "delegate": "tz1WnfXMPaNTBmH7DBPwqCWs9cPDJdkGBTZ8",
        "reception_time": "2022-01-19T06:34:43.673-00:00",
        "included_in_blocks":
          [ "BM4EGeiQJWDFBctbRPrm7rKHVwaG1LHzkDrddZUeuJGY3MZkvAv" ] },
      { "delegate": "tz1eeArNKzpoGLrT8dR3ewRgZ4r3YQkY165n",
        "reception_time": "2022-01-19T06:34:43.697-00:00",
        "included_in_blocks":
          [ "BM4EGeiQJWDFBctbRPrm7rKHVwaG1LHzkDrddZUeuJGY3MZkvAv" ] },
      { "delegate": "tz1PeZx7FXy7QRuMREGXGxeipb24RsMMzUNe",
        "reception_time": "2022-01-19T06:34:43.706-00:00",
        "included_in_blocks":
          [ "BM4EGeiQJWDFBctbRPrm7rKHVwaG1LHzkDrddZUeuJGY3MZkvAv" ] },
      { "delegate": "tz1Vd1rXpV8hTHbFXCXN3c3qzCsgcU5BZw1e",
        "reception_time": "2022-01-19T06:34:43.720-00:00",
        "included_in_blocks":
          [ "BM4EGeiQJWDFBctbRPrm7rKHVwaG1LHzkDrddZUeuJGY3MZkvAv" ] },
      { "delegate": "tz1WBfwbT66FC6BTLexc2BoyCCBM9LG7pnVW",
        "reception_time": "2022-01-19T06:34:43.796-00:00",
        "included_in_blocks":
          [ "BM4EGeiQJWDFBctbRPrm7rKHVwaG1LHzkDrddZUeuJGY3MZkvAv" ] },
      { "delegate": "tz3UoffC7FG7zfpmvmjUmUeAaHvzdcUvAj6r",
        "reception_time": "2022-01-19T06:34:43.832-00:00",
        "included_in_blocks":
          [ "BM4EGeiQJWDFBctbRPrm7rKHVwaG1LHzkDrddZUeuJGY3MZkvAv" ] },
      { "delegate": "tz3NDpRj6WBrJPikcPVHRBEjWKxFw3c6eQPS",
        "reception_time": "2022-01-19T06:34:43.911-00:00",
        "included_in_blocks":
          [ "BM4EGeiQJWDFBctbRPrm7rKHVwaG1LHzkDrddZUeuJGY3MZkvAv" ] },
      { "delegate": "tz3gLTu4Yxj8tPAcriQVUdxv6BY9QyvzU1az",
        "reception_time": "2022-01-19T06:34:43.927-00:00",
        "included_in_blocks":
          [ "BM4EGeiQJWDFBctbRPrm7rKHVwaG1LHzkDrddZUeuJGY3MZkvAv" ] },
      { "delegate": "tz3RDC3Jdn4j15J7bBHZd29EUee9gVB1CxD9",
        "reception_time": "2022-01-19T06:34:44.096-00:00",
        "included_in_blocks":
          [ "BM4EGeiQJWDFBctbRPrm7rKHVwaG1LHzkDrddZUeuJGY3MZkvAv" ] },
      { "delegate": "tz1RjoHc98dBoqaH2jawF62XNKh7YsHwbkEv",
        "reception_time": "2022-01-19T06:34:44.227-00:00",
        "included_in_blocks":
          [ "BM4EGeiQJWDFBctbRPrm7rKHVwaG1LHzkDrddZUeuJGY3MZkvAv" ] },
      { "delegate": "tz3WMqdzXqRWXwyvj5Hp2H7QEepaUuS7vd9K",
        "reception_time": "2022-01-19T06:34:44.285-00:00",
        "included_in_blocks":
          [ "BM4EGeiQJWDFBctbRPrm7rKHVwaG1LHzkDrddZUeuJGY3MZkvAv" ] },
      { "delegate": "tz3VEZ4k6a4Wx42iyev6i2aVAptTRLEAivNN",
        "reception_time": "2022-01-19T06:34:44.320-00:00",
        "included_in_blocks":
          [ "BM4EGeiQJWDFBctbRPrm7rKHVwaG1LHzkDrddZUeuJGY3MZkvAv" ] },
      { "delegate": "tz3RB4aoyjov4KEVRbuhvQ1CKJgBJMWhaeB8",
        "reception_time": "2022-01-19T06:34:44.320-00:00",
        "included_in_blocks":
          [ "BM4EGeiQJWDFBctbRPrm7rKHVwaG1LHzkDrddZUeuJGY3MZkvAv" ] },
      { "delegate": "tz1cYufsxHXJcvANhvS55h3aY32a9BAFB494",
        "reception_time": "2022-01-19T06:34:44.373-00:00",
        "included_in_blocks":
          [ "BM4EGeiQJWDFBctbRPrm7rKHVwaG1LHzkDrddZUeuJGY3MZkvAv" ] },
      { "delegate": "tz3bvNMQ95vfAYtG8193ymshqjSvmxiCUuR5",
        "reception_time": "2022-01-19T06:34:44.649-00:00",
        "included_in_blocks":
          [ "BM4EGeiQJWDFBctbRPrm7rKHVwaG1LHzkDrddZUeuJGY3MZkvAv" ] },
      { "delegate": "tz1TRqbYbUf2GyrjErf3hBzgBJPzW8y36qEs",
        "reception_time": "2022-01-19T06:34:44.896-00:00",
        "included_in_blocks":
          [ "BM4EGeiQJWDFBctbRPrm7rKHVwaG1LHzkDrddZUeuJGY3MZkvAv" ] },
      { "delegate": "tz3NExpXn9aPNZPorRE4SdjJ2RGrfbJgMAaV",
        "reception_time": "2022-01-19T06:34:44.945-00:00",
        "included_in_blocks":
          [ "BM4EGeiQJWDFBctbRPrm7rKHVwaG1LHzkDrddZUeuJGY3MZkvAv" ] },
      { "delegate": "tz1awXW7wuXy21c66vBudMXQVAPgRnqqwgTH",
        "reception_time": "2022-01-19T06:34:44.972-00:00",
        "included_in_blocks":
          [ "BM4EGeiQJWDFBctbRPrm7rKHVwaG1LHzkDrddZUeuJGY3MZkvAv" ] },
      { "delegate": "tz1aRoaRhSpRYvFdyvgWLL6TGyRoGF51wDjM",
        "reception_time": "2022-01-19T06:34:45.073-00:00",
        "included_in_blocks":
          [ "BM4EGeiQJWDFBctbRPrm7rKHVwaG1LHzkDrddZUeuJGY3MZkvAv" ] },
      { "delegate": "tz1Q8QkSBS63ZQnH3fBTiAMPes9R666Rn6Sc",
        "reception_time": "2022-01-19T06:34:45.186-00:00",
        "included_in_blocks":
          [ "BM4EGeiQJWDFBctbRPrm7rKHVwaG1LHzkDrddZUeuJGY3MZkvAv" ] },
      { "delegate": "tz1acZQd7TdfoiUnD2czHnTHB2TaJQP6gdqo",
        "reception_time": "2022-01-19T06:34:45.586-00:00",
        "included_in_blocks":
          [ "BM4EGeiQJWDFBctbRPrm7rKHVwaG1LHzkDrddZUeuJGY3MZkvAv" ] },
      { "delegate": "tz1W5VkdB5s7ENMESVBtwyt9kyvLqPcUczRT",
        "reception_time": "2022-01-19T06:34:45.882-00:00",
        "included_in_blocks":
          [ "BM4EGeiQJWDFBctbRPrm7rKHVwaG1LHzkDrddZUeuJGY3MZkvAv" ] },
      { "delegate": "tz1Z9M4biBHSiH38k5ciRMjR5bgk89yEgLTz",
        "reception_time": "2022-01-19T06:34:46.939-00:00",
        "included_in_blocks":
          [ "BM4EGeiQJWDFBctbRPrm7rKHVwaG1LHzkDrddZUeuJGY3MZkvAv" ] },
      { "delegate": "tz1go7f6mEQfT2xX2LuHAqgnRGN6c2zHPf5c",
        "reception_time": "2022-01-19T06:34:50.673-00:00",
        "included_in_blocks":
          [ "BM4EGeiQJWDFBctbRPrm7rKHVwaG1LHzkDrddZUeuJGY3MZkvAv" ] } ] }