{ "blocks":
    [ { "hash": "BL6SCHS8CWPVEUvxEUwdeU8uVc16XW5L4dFm73d6qibRQ2BAEiF",
        "delegate": "tz3RDC3Jdn4j15J7bBHZd29EUee9gVB1CxD9",
        "reception_time": "2022-01-19T02:59:29.766-00:00",
        "timestamp": "2022-01-19T02:59:20Z" } ],
  "endorsements":
    [ { "delegate": "tz1W5VkdB5s7ENMESVBtwyt9kyvLqPcUczRT",
        "reception_time": "2022-01-19T02:59:35.560-00:00",
        "included_in_blocks":
          [ "BLeHS4PtVnhRKZEaUQ82C64pcMz3Zq4Bx5KKs8mbFvaRmuKP47R" ] },
      { "delegate": "tz3WMqdzXqRWXwyvj5Hp2H7QEepaUuS7vd9K",
        "reception_time": "2022-01-19T02:59:33.654-00:00",
        "included_in_blocks":
          [ "BLeHS4PtVnhRKZEaUQ82C64pcMz3Zq4Bx5KKs8mbFvaRmuKP47R" ] },
      { "delegate": "tz1aRoaRhSpRYvFdyvgWLL6TGyRoGF51wDjM",
        "reception_time": "2022-01-19T02:59:33.430-00:00",
        "included_in_blocks":
          [ "BLeHS4PtVnhRKZEaUQ82C64pcMz3Zq4Bx5KKs8mbFvaRmuKP47R" ] },
      { "delegate": "tz1T7duV5gZWSTq4YpBGbXNLTfznCLDrFxvs",
        "reception_time": "2022-01-19T02:59:33.227-00:00",
        "included_in_blocks":
          [ "BLeHS4PtVnhRKZEaUQ82C64pcMz3Zq4Bx5KKs8mbFvaRmuKP47R" ] },
      { "delegate": "tz3NExpXn9aPNZPorRE4SdjJ2RGrfbJgMAaV",
        "reception_time": "2022-01-19T02:59:33.175-00:00",
        "included_in_blocks":
          [ "BLeHS4PtVnhRKZEaUQ82C64pcMz3Zq4Bx5KKs8mbFvaRmuKP47R" ] },
      { "delegate": "tz1fUyqYH7H4pRHN1roWY17giXhy1RvxjgUV",
        "reception_time": "2022-01-19T02:59:33.155-00:00",
        "included_in_blocks":
          [ "BLeHS4PtVnhRKZEaUQ82C64pcMz3Zq4Bx5KKs8mbFvaRmuKP47R" ] },
      { "delegate": "tz1dRKU4FQ9QRRQPdaH4zCR6gmCmXfcvcgtB",
        "reception_time": "2022-01-19T02:59:32.973-00:00",
        "included_in_blocks":
          [ "BLeHS4PtVnhRKZEaUQ82C64pcMz3Zq4Bx5KKs8mbFvaRmuKP47R" ] },
      { "delegate": "tz1cYufsxHXJcvANhvS55h3aY32a9BAFB494",
        "reception_time": "2022-01-19T02:59:32.531-00:00",
        "included_in_blocks":
          [ "BLeHS4PtVnhRKZEaUQ82C64pcMz3Zq4Bx5KKs8mbFvaRmuKP47R" ] },
      { "delegate": "tz3gLTu4Yxj8tPAcriQVUdxv6BY9QyvzU1az",
        "reception_time": "2022-01-19T02:59:32.442-00:00",
        "included_in_blocks":
          [ "BLeHS4PtVnhRKZEaUQ82C64pcMz3Zq4Bx5KKs8mbFvaRmuKP47R" ] },
      { "delegate": "tz1LmaFsWRkjr7QMCx5PtV6xTUz3AmEpKQiF",
        "reception_time": "2022-01-19T02:59:32.400-00:00",
        "included_in_blocks":
          [ "BLeHS4PtVnhRKZEaUQ82C64pcMz3Zq4Bx5KKs8mbFvaRmuKP47R" ] },
      { "delegate": "tz3UoffC7FG7zfpmvmjUmUeAaHvzdcUvAj6r",
        "reception_time": "2022-01-19T02:59:32.383-00:00",
        "included_in_blocks":
          [ "BLeHS4PtVnhRKZEaUQ82C64pcMz3Zq4Bx5KKs8mbFvaRmuKP47R" ] },
      { "delegate": "tz1Tnjaxk6tbAeC2TmMApPh8UsrEVQvhHvx5",
        "reception_time": "2022-01-19T02:59:32.277-00:00",
        "included_in_blocks":
          [ "BLeHS4PtVnhRKZEaUQ82C64pcMz3Zq4Bx5KKs8mbFvaRmuKP47R" ] },
      { "delegate": "tz1WctSwL49BZtdWAQ75NY6vr4xsAx6oKdah",
        "reception_time": "2022-01-19T02:59:32.269-00:00",
        "included_in_blocks":
          [ "BLeHS4PtVnhRKZEaUQ82C64pcMz3Zq4Bx5KKs8mbFvaRmuKP47R" ] },
      { "delegate": "tz1SUgyRB8T5jXgXAwS33pgRHAKrafyg87Yc",
        "reception_time": "2022-01-19T02:59:32.263-00:00",
        "included_in_blocks":
          [ "BLeHS4PtVnhRKZEaUQ82C64pcMz3Zq4Bx5KKs8mbFvaRmuKP47R" ] },
      { "delegate": "tz3VEZ4k6a4Wx42iyev6i2aVAptTRLEAivNN",
        "reception_time": "2022-01-19T02:59:32.259-00:00",
        "included_in_blocks":
          [ "BLeHS4PtVnhRKZEaUQ82C64pcMz3Zq4Bx5KKs8mbFvaRmuKP47R" ] },
      { "delegate": "tz1KfEsrtDaA1sX7vdM4qmEPWuSytuqCDp5j",
        "reception_time": "2022-01-19T02:59:32.245-00:00",
        "included_in_blocks":
          [ "BLeHS4PtVnhRKZEaUQ82C64pcMz3Zq4Bx5KKs8mbFvaRmuKP47R" ] },
      { "delegate": "tz1MH387oMRFco3kzz8t3wuqdbpAyTcKZtsg",
        "reception_time": "2022-01-19T02:59:32.198-00:00",
        "included_in_blocks":
          [ "BLeHS4PtVnhRKZEaUQ82C64pcMz3Zq4Bx5KKs8mbFvaRmuKP47R" ] },
      { "delegate": "tz2FCNBrERXtaTtNX6iimR1UJ5JSDxvdHM93",
        "reception_time": "2022-01-19T02:59:32.184-00:00",
        "included_in_blocks":
          [ "BLeHS4PtVnhRKZEaUQ82C64pcMz3Zq4Bx5KKs8mbFvaRmuKP47R" ] },
      { "delegate": "tz1WBfwbT66FC6BTLexc2BoyCCBM9LG7pnVW",
        "reception_time": "2022-01-19T02:59:32.181-00:00",
        "included_in_blocks":
          [ "BLeHS4PtVnhRKZEaUQ82C64pcMz3Zq4Bx5KKs8mbFvaRmuKP47R" ] },
      { "delegate": "tz3RB4aoyjov4KEVRbuhvQ1CKJgBJMWhaeB8",
        "reception_time": "2022-01-19T02:59:32.163-00:00",
        "included_in_blocks":
          [ "BLeHS4PtVnhRKZEaUQ82C64pcMz3Zq4Bx5KKs8mbFvaRmuKP47R" ] },
      { "delegate": "tz1RQhNh7iB9CZA7i3ifTWNwiGYVffponfbB",
        "reception_time": "2022-01-19T02:59:32.152-00:00",
        "included_in_blocks":
          [ "BLeHS4PtVnhRKZEaUQ82C64pcMz3Zq4Bx5KKs8mbFvaRmuKP47R" ] },
      { "delegate": "tz3RDC3Jdn4j15J7bBHZd29EUee9gVB1CxD9",
        "reception_time": "2022-01-19T02:59:32.146-00:00",
        "included_in_blocks":
          [ "BLeHS4PtVnhRKZEaUQ82C64pcMz3Zq4Bx5KKs8mbFvaRmuKP47R" ] },
      { "delegate": "tz1Nf6tsK4G6bBqgSQERy4nUtkHNKUVdh7q1",
        "reception_time": "2022-01-19T02:59:32.137-00:00",
        "included_in_blocks":
          [ "BLeHS4PtVnhRKZEaUQ82C64pcMz3Zq4Bx5KKs8mbFvaRmuKP47R" ] },
      { "delegate": "tz1NEKxGEHsFufk87CVZcrqWu8o22qh46GK6",
        "reception_time": "2022-01-19T02:59:32.114-00:00",
        "included_in_blocks":
          [ "BLeHS4PtVnhRKZEaUQ82C64pcMz3Zq4Bx5KKs8mbFvaRmuKP47R" ] },
      { "delegate": "tz1SYq214SCBy9naR6cvycQsYcUGpBqQAE8d",
        "reception_time": "2022-01-19T02:59:32.110-00:00",
        "included_in_blocks":
          [ "BLeHS4PtVnhRKZEaUQ82C64pcMz3Zq4Bx5KKs8mbFvaRmuKP47R" ] },
      { "delegate": "tz1fPKAtsYydh4f1wfWNfeNxWYu72TmM48fu",
        "reception_time": "2022-01-19T02:59:32.104-00:00",
        "included_in_blocks":
          [ "BLeHS4PtVnhRKZEaUQ82C64pcMz3Zq4Bx5KKs8mbFvaRmuKP47R" ] },
      { "delegate": "tz1abmz7jiCV2GH2u81LRrGgAFFgvQgiDiaf",
        "reception_time": "2022-01-19T02:59:32.060-00:00",
        "included_in_blocks":
          [ "BLeHS4PtVnhRKZEaUQ82C64pcMz3Zq4Bx5KKs8mbFvaRmuKP47R" ] },
      { "delegate": "tz1S8MNvuFEUsWgjHvi3AxibRBf388NhT1q2",
        "reception_time": "2022-01-19T02:59:32.056-00:00",
        "included_in_blocks":
          [ "BLeHS4PtVnhRKZEaUQ82C64pcMz3Zq4Bx5KKs8mbFvaRmuKP47R" ] },
      { "delegate": "tz1WnfXMPaNTBmH7DBPwqCWs9cPDJdkGBTZ8",
        "reception_time": "2022-01-19T02:59:32.045-00:00",
        "included_in_blocks":
          [ "BLeHS4PtVnhRKZEaUQ82C64pcMz3Zq4Bx5KKs8mbFvaRmuKP47R" ] },
      { "delegate": "tz1TEc75UKXv4W5cwi14Na3NtqFD51yKQi7h",
        "reception_time": "2022-01-19T02:59:32.021-00:00",
        "included_in_blocks":
          [ "BLeHS4PtVnhRKZEaUQ82C64pcMz3Zq4Bx5KKs8mbFvaRmuKP47R" ] },
      { "delegate": "tz1dNVDWPf3Q59SdJqnjdnu277iyvReiRS9M",
        "reception_time": "2022-01-19T02:59:32.010-00:00",
        "included_in_blocks":
          [ "BLeHS4PtVnhRKZEaUQ82C64pcMz3Zq4Bx5KKs8mbFvaRmuKP47R" ] },
      { "delegate": "tz3iJu5vrKZcsqRPs8yJ61UDoeEXZmtro4qh",
        "reception_time": "2022-01-19T02:59:31.995-00:00",
        "included_in_blocks":
          [ "BLeHS4PtVnhRKZEaUQ82C64pcMz3Zq4Bx5KKs8mbFvaRmuKP47R" ] },
      { "delegate": "tz1MGTFJXpQmtxLi8QJ7AuVRgM2L2Qfn9w9i",
        "reception_time": "2022-01-19T02:59:31.986-00:00",
        "included_in_blocks":
          [ "BLeHS4PtVnhRKZEaUQ82C64pcMz3Zq4Bx5KKs8mbFvaRmuKP47R" ] },
      { "delegate": "tz1TRqbYbUf2GyrjErf3hBzgBJPzW8y36qEs",
        "reception_time": "2022-01-19T02:59:31.982-00:00",
        "included_in_blocks":
          [ "BLeHS4PtVnhRKZEaUQ82C64pcMz3Zq4Bx5KKs8mbFvaRmuKP47R" ] },
      { "delegate": "tz1gfArv665EUkSg2ojMBzcbfwuPxAvqPvjo",
        "reception_time": "2022-01-19T02:59:31.975-00:00",
        "included_in_blocks":
          [ "BLeHS4PtVnhRKZEaUQ82C64pcMz3Zq4Bx5KKs8mbFvaRmuKP47R" ] },
      { "delegate": "tz1RCFbB9GpALpsZtu6J58sb74dm8qe6XBzv",
        "reception_time": "2022-01-19T02:59:31.971-00:00",
        "included_in_blocks":
          [ "BLeHS4PtVnhRKZEaUQ82C64pcMz3Zq4Bx5KKs8mbFvaRmuKP47R" ] },
      { "delegate": "tz1ei4WtWEMEJekSv8qDnu9PExG6Q8HgRGr3",
        "reception_time": "2022-01-19T02:59:31.964-00:00",
        "included_in_blocks":
          [ "BLeHS4PtVnhRKZEaUQ82C64pcMz3Zq4Bx5KKs8mbFvaRmuKP47R" ] },
      { "delegate": "tz3bvNMQ95vfAYtG8193ymshqjSvmxiCUuR5",
        "reception_time": "2022-01-19T02:59:31.960-00:00",
        "included_in_blocks":
          [ "BLeHS4PtVnhRKZEaUQ82C64pcMz3Zq4Bx5KKs8mbFvaRmuKP47R" ] },
      { "delegate": "tz1PWCDnz783NNGGQjEFFsHtrcK5yBW4E2rm",
        "reception_time": "2022-01-19T02:59:31.884-00:00",
        "included_in_blocks":
          [ "BLeHS4PtVnhRKZEaUQ82C64pcMz3Zq4Bx5KKs8mbFvaRmuKP47R" ] },
      { "delegate": "tz3Zhs2dygr55yHyQyKjntAtY9bgfhLZ4Xj1",
        "reception_time": "2022-01-19T02:59:31.875-00:00",
        "included_in_blocks":
          [ "BLeHS4PtVnhRKZEaUQ82C64pcMz3Zq4Bx5KKs8mbFvaRmuKP47R" ] },
      { "delegate": "tz1VmiY38m3y95HqQLjMwqnMS7sdMfGomzKi",
        "reception_time": "2022-01-19T02:59:31.757-00:00",
        "included_in_blocks":
          [ "BLeHS4PtVnhRKZEaUQ82C64pcMz3Zq4Bx5KKs8mbFvaRmuKP47R" ] },
      { "delegate": "tz1TzaNn7wSQSP5gYPXCnNzBCpyMiidCq1PX",
        "reception_time": "2022-01-19T02:59:31.742-00:00",
        "included_in_blocks":
          [ "BLeHS4PtVnhRKZEaUQ82C64pcMz3Zq4Bx5KKs8mbFvaRmuKP47R" ] },
      { "delegate": "tz3QT9dHYKDqh563chVa6za8526ys1UKfRfL",
        "reception_time": "2022-01-19T02:59:31.724-00:00",
        "included_in_blocks":
          [ "BLeHS4PtVnhRKZEaUQ82C64pcMz3Zq4Bx5KKs8mbFvaRmuKP47R" ] },
      { "delegate": "tz3e7LbZvUtoXhpUD1yb6wuFodZpfYRb9nWJ",
        "reception_time": "2022-01-19T02:59:31.713-00:00",
        "included_in_blocks":
          [ "BLeHS4PtVnhRKZEaUQ82C64pcMz3Zq4Bx5KKs8mbFvaRmuKP47R" ] },
      { "delegate": "tz1QLXqnfN51dkjeghXvKHkJfhvGiM5gK4tc",
        "reception_time": "2022-01-19T02:59:31.702-00:00",
        "included_in_blocks":
          [ "BLeHS4PtVnhRKZEaUQ82C64pcMz3Zq4Bx5KKs8mbFvaRmuKP47R" ] },
      { "delegate": "tz3ZbP2pM3nwvXztbuMJwJnDvV5xdpU8UkkD",
        "reception_time": "2022-01-19T02:59:31.702-00:00",
        "included_in_blocks":
          [ "BLeHS4PtVnhRKZEaUQ82C64pcMz3Zq4Bx5KKs8mbFvaRmuKP47R" ] },
      { "delegate": "tz3bTdwZinP8U1JmSweNzVKhmwafqWmFWRfk",
        "reception_time": "2022-01-19T02:59:31.690-00:00",
        "included_in_blocks":
          [ "BLeHS4PtVnhRKZEaUQ82C64pcMz3Zq4Bx5KKs8mbFvaRmuKP47R" ] },
      { "delegate": "tz1NSDFKuRyzHxpfG1AMkyCwEiZ52cbR2mRW",
        "reception_time": "2022-01-19T02:59:31.678-00:00",
        "included_in_blocks":
          [ "BLeHS4PtVnhRKZEaUQ82C64pcMz3Zq4Bx5KKs8mbFvaRmuKP47R" ] },
      { "delegate": "tz3S6BBeKgJGXxvLyZ1xzXzMPn11nnFtq5L9",
        "reception_time": "2022-01-19T02:59:31.673-00:00",
        "included_in_blocks":
          [ "BLeHS4PtVnhRKZEaUQ82C64pcMz3Zq4Bx5KKs8mbFvaRmuKP47R" ] },
      { "delegate": "tz3gtoUxdudfBRcNY7iVdKPHCYYX6xdPpoRS",
        "reception_time": "2022-01-19T02:59:31.671-00:00",
        "included_in_blocks":
          [ "BLeHS4PtVnhRKZEaUQ82C64pcMz3Zq4Bx5KKs8mbFvaRmuKP47R" ] },
      { "delegate": "tz3QSGPoRp3Kn7n3vY24eYeu3Peuqo45LQ4D",
        "reception_time": "2022-01-19T02:59:31.671-00:00",
        "included_in_blocks":
          [ "BLeHS4PtVnhRKZEaUQ82C64pcMz3Zq4Bx5KKs8mbFvaRmuKP47R" ] },
      { "delegate": "tz1Ldzz6k1BHdhuKvAtMRX7h5kJSMHESMHLC",
        "reception_time": "2022-01-19T02:59:31.671-00:00",
        "included_in_blocks":
          [ "BLeHS4PtVnhRKZEaUQ82C64pcMz3Zq4Bx5KKs8mbFvaRmuKP47R" ] },
      { "delegate": "tz1WCd2jm4uSt4vntk4vSuUWoZQGhLcDuR9q",
        "reception_time": "2022-01-19T02:59:31.671-00:00",
        "included_in_blocks":
          [ "BLeHS4PtVnhRKZEaUQ82C64pcMz3Zq4Bx5KKs8mbFvaRmuKP47R" ] },
      { "delegate": "tz3NxTnke1acr8o3h5y9ytf5awQBGNJUKzVU",
        "reception_time": "2022-01-19T02:59:31.671-00:00",
        "included_in_blocks":
          [ "BLeHS4PtVnhRKZEaUQ82C64pcMz3Zq4Bx5KKs8mbFvaRmuKP47R" ] },
      { "delegate": "tz3hw2kqXhLUvY65ca1eety2oQTpAvd34R9Q",
        "reception_time": "2022-01-19T02:59:31.671-00:00",
        "included_in_blocks":
          [ "BLeHS4PtVnhRKZEaUQ82C64pcMz3Zq4Bx5KKs8mbFvaRmuKP47R" ] },
      { "delegate": "tz1Kf25fX1VdmYGSEzwFy1wNmkbSEZ2V83sY",
        "reception_time": "2022-01-19T02:59:31.671-00:00",
        "included_in_blocks":
          [ "BLeHS4PtVnhRKZEaUQ82C64pcMz3Zq4Bx5KKs8mbFvaRmuKP47R" ] },
      { "delegate": "tz1gUNyn3hmnEWqkusWPzxRaon1cs7ndWh7h",
        "reception_time": "2022-01-19T02:59:31.671-00:00",
        "included_in_blocks":
          [ "BLeHS4PtVnhRKZEaUQ82C64pcMz3Zq4Bx5KKs8mbFvaRmuKP47R" ] },
      { "delegate": "tz1d9ek6HrScY6QRZ71NJdB85MNz8gKGBjrv",
        "reception_time": "2022-01-19T02:59:31.671-00:00",
        "included_in_blocks":
          [ "BLeHS4PtVnhRKZEaUQ82C64pcMz3Zq4Bx5KKs8mbFvaRmuKP47R" ] },
      { "delegate": "tz1Kt4P8BCaP93AEV4eA7gmpRryWt5hznjCP",
        "reception_time": "2022-01-19T02:59:31.671-00:00",
        "included_in_blocks":
          [ "BLeHS4PtVnhRKZEaUQ82C64pcMz3Zq4Bx5KKs8mbFvaRmuKP47R" ] },
      { "delegate": "tz3RKYFsLuQzKBtmYuLNas7uMu3AsYd4QdsA",
        "reception_time": "2022-01-19T02:59:31.671-00:00",
        "included_in_blocks":
          [ "BLeHS4PtVnhRKZEaUQ82C64pcMz3Zq4Bx5KKs8mbFvaRmuKP47R" ] },
      { "delegate": "tz3adcvQaKXTCg12zbninqo3q8ptKKtDFTLv",
        "reception_time": "2022-01-19T02:59:31.671-00:00",
        "included_in_blocks":
          [ "BLeHS4PtVnhRKZEaUQ82C64pcMz3Zq4Bx5KKs8mbFvaRmuKP47R" ] },
      { "delegate": "tz1VQnqCCqX4K5sP3FNkVSNKTdCAMJDd3E1n",
        "reception_time": "2022-01-19T02:59:31.671-00:00",
        "included_in_blocks":
          [ "BLeHS4PtVnhRKZEaUQ82C64pcMz3Zq4Bx5KKs8mbFvaRmuKP47R" ] },
      { "delegate": "tz1P2Po7YM526ughEsRbY4oR9zaUPDZjxFrb",
        "reception_time": "2022-01-19T02:59:31.671-00:00",
        "included_in_blocks":
          [ "BLeHS4PtVnhRKZEaUQ82C64pcMz3Zq4Bx5KKs8mbFvaRmuKP47R" ] },
      { "delegate": "tz1RV1MBbZMR68tacosb7Mwj6LkbPSUS1er1",
        "reception_time": "2022-01-19T02:59:31.671-00:00",
        "included_in_blocks":
          [ "BLeHS4PtVnhRKZEaUQ82C64pcMz3Zq4Bx5KKs8mbFvaRmuKP47R" ] },
      { "delegate": "tz1eEnQhbwf6trb8Q8mPb2RaPkNk2rN7BKi8",
        "reception_time": "2022-01-19T02:59:31.671-00:00",
        "included_in_blocks":
          [ "BLeHS4PtVnhRKZEaUQ82C64pcMz3Zq4Bx5KKs8mbFvaRmuKP47R" ] },
      { "delegate": "tz1TXzyaKUA8wsWefdSnyaYFnV2M3vCV7er9",
        "reception_time": "2022-01-19T02:59:31.671-00:00",
        "included_in_blocks":
          [ "BLeHS4PtVnhRKZEaUQ82C64pcMz3Zq4Bx5KKs8mbFvaRmuKP47R" ] },
      { "delegate": "tz1irJKkXS2DBWkU1NnmFQx1c1L7pbGg4yhk",
        "reception_time": "2022-01-19T02:59:31.671-00:00",
        "included_in_blocks":
          [ "BLeHS4PtVnhRKZEaUQ82C64pcMz3Zq4Bx5KKs8mbFvaRmuKP47R" ] },
      { "delegate": "tz1XfAjZyaLdceHnZxbMYop7g7kWKPut4PR7",
        "reception_time": "2022-01-19T02:59:31.671-00:00",
        "included_in_blocks":
          [ "BLeHS4PtVnhRKZEaUQ82C64pcMz3Zq4Bx5KKs8mbFvaRmuKP47R" ] },
      { "delegate": "tz1dbfppLAAxXZNtf2SDps7rch3qfUznKSoK" },
      { "delegate": "tz1bTpviNnyx2PXsNmGpCQTMQsGoYordkUoA",
        "reception_time": "2022-01-19T03:00:17.919-00:00",
        "errors":
          [ { "kind": "temporary",
              "id": "proto.011-PtHangz2.prefilter.outdated_endorsement" } ] },
      { "delegate": "tz1NdhRv643wLW6zCcRP3VfT24dvDnh7nuh9" } ] }