{ "blocks":
    [ { "hash": "BKz55LpUSShCK5rJLZATwLBqdMxFthNNoqWsTfzBt93LC54rHzw",
        "delegate": "tz1SYq214SCBy9naR6cvycQsYcUGpBqQAE8d",
        "reception_time": "2022-01-19T04:15:26.422-00:00",
        "timestamp": "2022-01-19T04:15:20Z" } ],
  "endorsements":
    [ { "delegate": "tz1dbfppLAAxXZNtf2SDps7rch3qfUznKSoK" },
      { "delegate": "tz1P2Po7YM526ughEsRbY4oR9zaUPDZjxFrb",
        "reception_time": "2022-01-19T04:15:26.391-00:00",
        "errors":
          [ { "kind": "temporary",
              "id": "proto.011-PtHangz2.prefilter.outdated_endorsement" } ],
        "included_in_blocks":
          [ "BLBJbncmebMvL6NadTMSodYf5H6WfvzZc2CtJK3XTPjzB5JUdAV" ] },
      { "delegate": "tz1S8e9GgdZG78XJRB3NqabfWeM37GnhZMWQ",
        "reception_time": "2022-01-19T04:15:26.014-00:00",
        "errors":
          [ { "kind": "temporary",
              "id": "proto.011-PtHangz2.prefilter.outdated_endorsement" } ],
        "included_in_blocks":
          [ "BLBJbncmebMvL6NadTMSodYf5H6WfvzZc2CtJK3XTPjzB5JUdAV" ] },
      { "delegate": "tz1NpWrAyDL9k2Lmnyxcgr9xuJakbBxdq7FB",
        "reception_time": "2022-01-19T04:15:35.298-00:00",
        "included_in_blocks":
          [ "BLBJbncmebMvL6NadTMSodYf5H6WfvzZc2CtJK3XTPjzB5JUdAV" ] },
      { "delegate": "tz1go7f6mEQfT2xX2LuHAqgnRGN6c2zHPf5c",
        "reception_time": "2022-01-19T04:15:34.568-00:00",
        "included_in_blocks":
          [ "BLBJbncmebMvL6NadTMSodYf5H6WfvzZc2CtJK3XTPjzB5JUdAV" ] },
      { "delegate": "tz1aRoaRhSpRYvFdyvgWLL6TGyRoGF51wDjM",
        "reception_time": "2022-01-19T04:15:30.453-00:00",
        "included_in_blocks":
          [ "BLBJbncmebMvL6NadTMSodYf5H6WfvzZc2CtJK3XTPjzB5JUdAV" ] },
      { "delegate": "tz1cYufsxHXJcvANhvS55h3aY32a9BAFB494",
        "reception_time": "2022-01-19T04:15:29.849-00:00",
        "included_in_blocks":
          [ "BLBJbncmebMvL6NadTMSodYf5H6WfvzZc2CtJK3XTPjzB5JUdAV" ] },
      { "delegate": "tz1Z2jXfEXL7dXhs6bsLmyLFLfmAkXBzA9WE",
        "reception_time": "2022-01-19T04:15:30.005-00:00",
        "included_in_blocks":
          [ "BLBJbncmebMvL6NadTMSodYf5H6WfvzZc2CtJK3XTPjzB5JUdAV" ] },
      { "delegate": "tz3RDC3Jdn4j15J7bBHZd29EUee9gVB1CxD9",
        "reception_time": "2022-01-19T04:15:29.727-00:00",
        "included_in_blocks":
          [ "BLBJbncmebMvL6NadTMSodYf5H6WfvzZc2CtJK3XTPjzB5JUdAV" ] },
      { "delegate": "tz1QJU1PuKUP5ZQxUr4pHZjCHGRvJSpcXv7G",
        "reception_time": "2022-01-19T04:15:30.366-00:00",
        "included_in_blocks":
          [ "BLBJbncmebMvL6NadTMSodYf5H6WfvzZc2CtJK3XTPjzB5JUdAV" ] },
      { "delegate": "tz1g8vkmcde6sWKaG2NN9WKzCkDM6Rziq194",
        "reception_time": "2022-01-19T04:15:29.332-00:00",
        "included_in_blocks":
          [ "BLBJbncmebMvL6NadTMSodYf5H6WfvzZc2CtJK3XTPjzB5JUdAV" ] },
      { "delegate": "tz3bvNMQ95vfAYtG8193ymshqjSvmxiCUuR5",
        "reception_time": "2022-01-19T04:15:29.377-00:00",
        "included_in_blocks":
          [ "BLBJbncmebMvL6NadTMSodYf5H6WfvzZc2CtJK3XTPjzB5JUdAV" ] },
      { "delegate": "tz3RB4aoyjov4KEVRbuhvQ1CKJgBJMWhaeB8",
        "reception_time": "2022-01-19T04:15:29.318-00:00",
        "included_in_blocks":
          [ "BLBJbncmebMvL6NadTMSodYf5H6WfvzZc2CtJK3XTPjzB5JUdAV" ] },
      { "delegate": "tz1T7duV5gZWSTq4YpBGbXNLTfznCLDrFxvs",
        "reception_time": "2022-01-19T04:15:29.532-00:00",
        "included_in_blocks":
          [ "BLBJbncmebMvL6NadTMSodYf5H6WfvzZc2CtJK3XTPjzB5JUdAV" ] },
      { "delegate": "tz1UvkANVPWppVgMkLnvN7BwYZsCP7vm6NVd",
        "reception_time": "2022-01-19T04:15:29.390-00:00",
        "included_in_blocks":
          [ "BLBJbncmebMvL6NadTMSodYf5H6WfvzZc2CtJK3XTPjzB5JUdAV" ] },
      { "delegate": "tz1dKRZVcmJBVNvaAueUmqX42vVEaLb2MbA6",
        "reception_time": "2022-01-19T04:15:29.069-00:00",
        "included_in_blocks":
          [ "BLBJbncmebMvL6NadTMSodYf5H6WfvzZc2CtJK3XTPjzB5JUdAV" ] },
      { "delegate": "tz3NDpRj6WBrJPikcPVHRBEjWKxFw3c6eQPS",
        "reception_time": "2022-01-19T04:15:29.183-00:00",
        "included_in_blocks":
          [ "BLBJbncmebMvL6NadTMSodYf5H6WfvzZc2CtJK3XTPjzB5JUdAV" ] },
      { "delegate": "tz1dRKU4FQ9QRRQPdaH4zCR6gmCmXfcvcgtB",
        "reception_time": "2022-01-19T04:15:29.215-00:00",
        "included_in_blocks":
          [ "BLBJbncmebMvL6NadTMSodYf5H6WfvzZc2CtJK3XTPjzB5JUdAV" ] },
      { "delegate": "tz1WBfwbT66FC6BTLexc2BoyCCBM9LG7pnVW",
        "reception_time": "2022-01-19T04:15:29.115-00:00",
        "included_in_blocks":
          [ "BLBJbncmebMvL6NadTMSodYf5H6WfvzZc2CtJK3XTPjzB5JUdAV" ] },
      { "delegate": "tz1TRqbYbUf2GyrjErf3hBzgBJPzW8y36qEs",
        "reception_time": "2022-01-19T04:15:29.063-00:00",
        "included_in_blocks":
          [ "BLBJbncmebMvL6NadTMSodYf5H6WfvzZc2CtJK3XTPjzB5JUdAV" ] },
      { "delegate": "tz1RpeqCseogMpCPXpyGjhmLH9i9DhqJ8cUR",
        "reception_time": "2022-01-19T04:15:28.472-00:00",
        "included_in_blocks":
          [ "BLBJbncmebMvL6NadTMSodYf5H6WfvzZc2CtJK3XTPjzB5JUdAV" ] },
      { "delegate": "tz1QXrzaHrGACVn15UiCg33aLCJ6npWdQb3J",
        "reception_time": "2022-01-19T04:15:28.890-00:00",
        "included_in_blocks":
          [ "BLBJbncmebMvL6NadTMSodYf5H6WfvzZc2CtJK3XTPjzB5JUdAV" ] },
      { "delegate": "tz3NExpXn9aPNZPorRE4SdjJ2RGrfbJgMAaV",
        "reception_time": "2022-01-19T04:15:29.292-00:00",
        "included_in_blocks":
          [ "BLBJbncmebMvL6NadTMSodYf5H6WfvzZc2CtJK3XTPjzB5JUdAV" ] },
      { "delegate": "tz1gfArv665EUkSg2ojMBzcbfwuPxAvqPvjo",
        "reception_time": "2022-01-19T04:15:29.077-00:00",
        "included_in_blocks":
          [ "BLBJbncmebMvL6NadTMSodYf5H6WfvzZc2CtJK3XTPjzB5JUdAV" ] },
      { "delegate": "tz3bTdwZinP8U1JmSweNzVKhmwafqWmFWRfk",
        "reception_time": "2022-01-19T04:15:28.245-00:00",
        "included_in_blocks":
          [ "BLBJbncmebMvL6NadTMSodYf5H6WfvzZc2CtJK3XTPjzB5JUdAV" ] },
      { "delegate": "tz1bHzftcTKZMTZgLLtnrXydCm6UEqf4ivca",
        "reception_time": "2022-01-19T04:15:28.238-00:00",
        "included_in_blocks":
          [ "BLBJbncmebMvL6NadTMSodYf5H6WfvzZc2CtJK3XTPjzB5JUdAV" ] },
      { "delegate": "tz2FCNBrERXtaTtNX6iimR1UJ5JSDxvdHM93",
        "reception_time": "2022-01-19T04:15:28.095-00:00",
        "included_in_blocks":
          [ "BLBJbncmebMvL6NadTMSodYf5H6WfvzZc2CtJK3XTPjzB5JUdAV" ] },
      { "delegate": "tz1cZfFQpcYhwDp7y1njZXDsZqCrn2NqmVof",
        "reception_time": "2022-01-19T04:15:28.345-00:00",
        "included_in_blocks":
          [ "BLBJbncmebMvL6NadTMSodYf5H6WfvzZc2CtJK3XTPjzB5JUdAV" ] },
      { "delegate": "tz1h4GUAMweP7SNWzDgvMk3yRCAZyaP1MxZq",
        "reception_time": "2022-01-19T04:15:28.234-00:00",
        "included_in_blocks":
          [ "BLBJbncmebMvL6NadTMSodYf5H6WfvzZc2CtJK3XTPjzB5JUdAV" ] },
      { "delegate": "tz1RQhNh7iB9CZA7i3ifTWNwiGYVffponfbB",
        "reception_time": "2022-01-19T04:15:28.183-00:00",
        "included_in_blocks":
          [ "BLBJbncmebMvL6NadTMSodYf5H6WfvzZc2CtJK3XTPjzB5JUdAV" ] },
      { "delegate": "tz1MGTFJXpQmtxLi8QJ7AuVRgM2L2Qfn9w9i",
        "reception_time": "2022-01-19T04:15:28.299-00:00",
        "included_in_blocks":
          [ "BLBJbncmebMvL6NadTMSodYf5H6WfvzZc2CtJK3XTPjzB5JUdAV" ] },
      { "delegate": "tz3iJu5vrKZcsqRPs8yJ61UDoeEXZmtro4qh",
        "reception_time": "2022-01-19T04:15:28.014-00:00",
        "included_in_blocks":
          [ "BLBJbncmebMvL6NadTMSodYf5H6WfvzZc2CtJK3XTPjzB5JUdAV" ] },
      { "delegate": "tz1fb7c66UwePkkfDXz4ajFaBP9hVNLdS7JJ",
        "reception_time": "2022-01-19T04:15:28.037-00:00",
        "included_in_blocks":
          [ "BLBJbncmebMvL6NadTMSodYf5H6WfvzZc2CtJK3XTPjzB5JUdAV" ] },
      { "delegate": "tz1NSDFKuRyzHxpfG1AMkyCwEiZ52cbR2mRW",
        "reception_time": "2022-01-19T04:15:28.342-00:00",
        "included_in_blocks":
          [ "BLBJbncmebMvL6NadTMSodYf5H6WfvzZc2CtJK3XTPjzB5JUdAV" ] },
      { "delegate": "tz3Zhs2dygr55yHyQyKjntAtY9bgfhLZ4Xj1",
        "reception_time": "2022-01-19T04:15:28.022-00:00",
        "included_in_blocks":
          [ "BLBJbncmebMvL6NadTMSodYf5H6WfvzZc2CtJK3XTPjzB5JUdAV" ] },
      { "delegate": "tz3e7LbZvUtoXhpUD1yb6wuFodZpfYRb9nWJ",
        "reception_time": "2022-01-19T04:15:28.007-00:00",
        "included_in_blocks":
          [ "BLBJbncmebMvL6NadTMSodYf5H6WfvzZc2CtJK3XTPjzB5JUdAV" ] },
      { "delegate": "tz1ei4WtWEMEJekSv8qDnu9PExG6Q8HgRGr3",
        "reception_time": "2022-01-19T04:15:28.257-00:00",
        "included_in_blocks":
          [ "BLBJbncmebMvL6NadTMSodYf5H6WfvzZc2CtJK3XTPjzB5JUdAV" ] },
      { "delegate": "tz1Nf6tsK4G6bBqgSQERy4nUtkHNKUVdh7q1",
        "reception_time": "2022-01-19T04:15:28.199-00:00",
        "included_in_blocks":
          [ "BLBJbncmebMvL6NadTMSodYf5H6WfvzZc2CtJK3XTPjzB5JUdAV" ] },
      { "delegate": "tz3VEZ4k6a4Wx42iyev6i2aVAptTRLEAivNN",
        "reception_time": "2022-01-19T04:15:28.397-00:00",
        "included_in_blocks":
          [ "BLBJbncmebMvL6NadTMSodYf5H6WfvzZc2CtJK3XTPjzB5JUdAV" ] },
      { "delegate": "tz1NEKxGEHsFufk87CVZcrqWu8o22qh46GK6",
        "reception_time": "2022-01-19T04:15:28.219-00:00",
        "included_in_blocks":
          [ "BLBJbncmebMvL6NadTMSodYf5H6WfvzZc2CtJK3XTPjzB5JUdAV" ] },
      { "delegate": "tz1dNVDWPf3Q59SdJqnjdnu277iyvReiRS9M",
        "reception_time": "2022-01-19T04:15:28.105-00:00",
        "included_in_blocks":
          [ "BLBJbncmebMvL6NadTMSodYf5H6WfvzZc2CtJK3XTPjzB5JUdAV" ] },
      { "delegate": "tz3QSGPoRp3Kn7n3vY24eYeu3Peuqo45LQ4D",
        "reception_time": "2022-01-19T04:15:27.689-00:00",
        "included_in_blocks":
          [ "BLBJbncmebMvL6NadTMSodYf5H6WfvzZc2CtJK3XTPjzB5JUdAV" ] },
      { "delegate": "tz3gtoUxdudfBRcNY7iVdKPHCYYX6xdPpoRS",
        "reception_time": "2022-01-19T04:15:27.673-00:00",
        "included_in_blocks":
          [ "BLBJbncmebMvL6NadTMSodYf5H6WfvzZc2CtJK3XTPjzB5JUdAV" ] },
      { "delegate": "tz1WCd2jm4uSt4vntk4vSuUWoZQGhLcDuR9q",
        "reception_time": "2022-01-19T04:15:27.758-00:00",
        "included_in_blocks":
          [ "BLBJbncmebMvL6NadTMSodYf5H6WfvzZc2CtJK3XTPjzB5JUdAV" ] },
      { "delegate": "tz3UoffC7FG7zfpmvmjUmUeAaHvzdcUvAj6r",
        "reception_time": "2022-01-19T04:15:28.251-00:00",
        "included_in_blocks":
          [ "BLBJbncmebMvL6NadTMSodYf5H6WfvzZc2CtJK3XTPjzB5JUdAV" ] },
      { "delegate": "tz3RKYFsLuQzKBtmYuLNas7uMu3AsYd4QdsA",
        "reception_time": "2022-01-19T04:15:27.933-00:00",
        "included_in_blocks":
          [ "BLBJbncmebMvL6NadTMSodYf5H6WfvzZc2CtJK3XTPjzB5JUdAV" ] },
      { "delegate": "tz3S6BBeKgJGXxvLyZ1xzXzMPn11nnFtq5L9",
        "reception_time": "2022-01-19T04:15:27.752-00:00",
        "included_in_blocks":
          [ "BLBJbncmebMvL6NadTMSodYf5H6WfvzZc2CtJK3XTPjzB5JUdAV" ] },
      { "delegate": "tz1Ldzz6k1BHdhuKvAtMRX7h5kJSMHESMHLC",
        "reception_time": "2022-01-19T04:15:27.711-00:00",
        "included_in_blocks":
          [ "BLBJbncmebMvL6NadTMSodYf5H6WfvzZc2CtJK3XTPjzB5JUdAV" ] },
      { "delegate": "tz3QT9dHYKDqh563chVa6za8526ys1UKfRfL",
        "reception_time": "2022-01-19T04:15:27.739-00:00",
        "included_in_blocks":
          [ "BLBJbncmebMvL6NadTMSodYf5H6WfvzZc2CtJK3XTPjzB5JUdAV" ] },
      { "delegate": "tz1Tnjaxk6tbAeC2TmMApPh8UsrEVQvhHvx5",
        "reception_time": "2022-01-19T04:15:28.075-00:00",
        "included_in_blocks":
          [ "BLBJbncmebMvL6NadTMSodYf5H6WfvzZc2CtJK3XTPjzB5JUdAV" ] },
      { "delegate": "tz3hw2kqXhLUvY65ca1eety2oQTpAvd34R9Q",
        "reception_time": "2022-01-19T04:15:27.924-00:00",
        "included_in_blocks":
          [ "BLBJbncmebMvL6NadTMSodYf5H6WfvzZc2CtJK3XTPjzB5JUdAV" ] },
      { "delegate": "tz1gUNyn3hmnEWqkusWPzxRaon1cs7ndWh7h",
        "reception_time": "2022-01-19T04:15:27.728-00:00",
        "included_in_blocks":
          [ "BLBJbncmebMvL6NadTMSodYf5H6WfvzZc2CtJK3XTPjzB5JUdAV" ] },
      { "delegate": "tz3WMqdzXqRWXwyvj5Hp2H7QEepaUuS7vd9K",
        "reception_time": "2022-01-19T04:15:28.415-00:00",
        "included_in_blocks":
          [ "BLBJbncmebMvL6NadTMSodYf5H6WfvzZc2CtJK3XTPjzB5JUdAV" ] },
      { "delegate": "tz1VQnqCCqX4K5sP3FNkVSNKTdCAMJDd3E1n",
        "reception_time": "2022-01-19T04:15:27.655-00:00",
        "included_in_blocks":
          [ "BLBJbncmebMvL6NadTMSodYf5H6WfvzZc2CtJK3XTPjzB5JUdAV" ] },
      { "delegate": "tz3ZbP2pM3nwvXztbuMJwJnDvV5xdpU8UkkD",
        "reception_time": "2022-01-19T04:15:27.673-00:00",
        "included_in_blocks":
          [ "BLBJbncmebMvL6NadTMSodYf5H6WfvzZc2CtJK3XTPjzB5JUdAV" ] },
      { "delegate": "tz3QCNyySViKHmeSr45kzDxzchys7NiXCWoa",
        "reception_time": "2022-01-19T04:15:27.653-00:00",
        "included_in_blocks":
          [ "BLBJbncmebMvL6NadTMSodYf5H6WfvzZc2CtJK3XTPjzB5JUdAV" ] },
      { "delegate": "tz3NxTnke1acr8o3h5y9ytf5awQBGNJUKzVU",
        "reception_time": "2022-01-19T04:15:27.689-00:00",
        "included_in_blocks":
          [ "BLBJbncmebMvL6NadTMSodYf5H6WfvzZc2CtJK3XTPjzB5JUdAV" ] },
      { "delegate": "tz1VmiY38m3y95HqQLjMwqnMS7sdMfGomzKi",
        "reception_time": "2022-01-19T04:15:27.658-00:00",
        "included_in_blocks":
          [ "BLBJbncmebMvL6NadTMSodYf5H6WfvzZc2CtJK3XTPjzB5JUdAV" ] },
      { "delegate": "tz1KfEsrtDaA1sX7vdM4qmEPWuSytuqCDp5j",
        "reception_time": "2022-01-19T04:15:27.744-00:00",
        "included_in_blocks":
          [ "BLBJbncmebMvL6NadTMSodYf5H6WfvzZc2CtJK3XTPjzB5JUdAV" ] },
      { "delegate": "tz1UJvHTgpVzcKWhTazGxVcn5wsHru5Gietg",
        "reception_time": "2022-01-19T04:15:27.723-00:00",
        "included_in_blocks":
          [ "BLBJbncmebMvL6NadTMSodYf5H6WfvzZc2CtJK3XTPjzB5JUdAV" ] },
      { "delegate": "tz1RCFbB9GpALpsZtu6J58sb74dm8qe6XBzv",
        "reception_time": "2022-01-19T04:15:27.676-00:00",
        "included_in_blocks":
          [ "BLBJbncmebMvL6NadTMSodYf5H6WfvzZc2CtJK3XTPjzB5JUdAV" ] },
      { "delegate": "tz1Kf25fX1VdmYGSEzwFy1wNmkbSEZ2V83sY",
        "reception_time": "2022-01-19T04:15:27.717-00:00",
        "included_in_blocks":
          [ "BLBJbncmebMvL6NadTMSodYf5H6WfvzZc2CtJK3XTPjzB5JUdAV" ] },
      { "delegate": "tz1Lhf4J9Qxoe3DZ2nfe8FGDnvVj7oKjnMY6",
        "reception_time": "2022-01-19T04:15:27.584-00:00",
        "included_in_blocks":
          [ "BLBJbncmebMvL6NadTMSodYf5H6WfvzZc2CtJK3XTPjzB5JUdAV" ] },
      { "delegate": "tz1W3VYi3gSt9Xgfw6WNV1aGZRPH2BsskMEY",
        "reception_time": "2022-01-19T04:15:27.717-00:00",
        "included_in_blocks":
          [ "BLBJbncmebMvL6NadTMSodYf5H6WfvzZc2CtJK3XTPjzB5JUdAV" ] },
      { "delegate": "tz1irJKkXS2DBWkU1NnmFQx1c1L7pbGg4yhk",
        "reception_time": "2022-01-19T04:15:27.592-00:00",
        "included_in_blocks":
          [ "BLBJbncmebMvL6NadTMSodYf5H6WfvzZc2CtJK3XTPjzB5JUdAV" ] },
      { "delegate": "tz1eEnQhbwf6trb8Q8mPb2RaPkNk2rN7BKi8",
        "reception_time": "2022-01-19T04:15:27.572-00:00",
        "included_in_blocks":
          [ "BLBJbncmebMvL6NadTMSodYf5H6WfvzZc2CtJK3XTPjzB5JUdAV" ] },
      { "delegate": "tz1TRspM5SeZpaQUhzByXbEvqKF1vnCM2YTK",
        "reception_time": "2022-01-19T04:15:27.606-00:00",
        "included_in_blocks":
          [ "BLBJbncmebMvL6NadTMSodYf5H6WfvzZc2CtJK3XTPjzB5JUdAV" ] },
      { "delegate": "tz1QLXqnfN51dkjeghXvKHkJfhvGiM5gK4tc",
        "reception_time": "2022-01-19T04:15:27.723-00:00",
        "included_in_blocks":
          [ "BLBJbncmebMvL6NadTMSodYf5H6WfvzZc2CtJK3XTPjzB5JUdAV" ] },
      { "delegate": "tz1bZ8vsMAXmaWEV7FRnyhcuUs2fYMaQ6Hkk",
        "reception_time": "2022-01-19T04:15:27.895-00:00",
        "included_in_blocks":
          [ "BLBJbncmebMvL6NadTMSodYf5H6WfvzZc2CtJK3XTPjzB5JUdAV" ] },
      { "delegate": "tz1MQJPGNMijnXnVoBENFz9rUhaPt3S7rWoz",
        "reception_time": "2022-01-19T04:15:27.711-00:00",
        "included_in_blocks":
          [ "BLBJbncmebMvL6NadTMSodYf5H6WfvzZc2CtJK3XTPjzB5JUdAV" ] },
      { "delegate": "tz1aXD7Jigrt3PBYSpHSg5Rr33SexMmmM5Ys",
        "reception_time": "2022-01-19T04:15:27.587-00:00",
        "included_in_blocks":
          [ "BLBJbncmebMvL6NadTMSodYf5H6WfvzZc2CtJK3XTPjzB5JUdAV" ] },
      { "delegate": "tz1cX93Q3KsiTADpCC4f12TBvAmS5tw7CW19",
        "reception_time": "2022-01-19T04:15:27.596-00:00",
        "included_in_blocks":
          [ "BLBJbncmebMvL6NadTMSodYf5H6WfvzZc2CtJK3XTPjzB5JUdAV" ] },
      { "delegate": "tz1eDDuQBEgwvc6tbnnCVrnr12tvrd6gBTpx",
        "reception_time": "2022-01-19T04:15:27.603-00:00",
        "included_in_blocks":
          [ "BLBJbncmebMvL6NadTMSodYf5H6WfvzZc2CtJK3XTPjzB5JUdAV" ] },
      { "delegate": "tz1S8MNvuFEUsWgjHvi3AxibRBf388NhT1q2",
        "reception_time": "2022-01-19T04:15:27.953-00:00",
        "included_in_blocks":
          [ "BLBJbncmebMvL6NadTMSodYf5H6WfvzZc2CtJK3XTPjzB5JUdAV" ] },
      { "delegate": "tz1MQMiZHV8q4tTwUMWmS5Y3kaP6J2136iXr",
        "reception_time": "2022-01-19T04:15:27.600-00:00",
        "included_in_blocks":
          [ "BLBJbncmebMvL6NadTMSodYf5H6WfvzZc2CtJK3XTPjzB5JUdAV" ] } ] }