{ "blocks":
    [ { "hash": "BLMCj9dpEv4apEZtEcTQM8ZcafUR7tVLPFT3iLTWTGguHSmriEP",
        "delegate": "tz3NExpXn9aPNZPorRE4SdjJ2RGrfbJgMAaV",
        "reception_time": "2022-01-19T03:35:32.113-00:00",
        "timestamp": "2022-01-19T03:35:20Z" } ],
  "endorsements":
    [ { "delegate": "tz1Ldzz6k1BHdhuKvAtMRX7h5kJSMHESMHLC",
        "reception_time": "2022-01-19T03:35:32.055-00:00",
        "errors":
          [ { "kind": "temporary",
              "id": "proto.011-PtHangz2.prefilter.outdated_endorsement" } ],
        "included_in_blocks":
          [ "BMXb2vmXmFSjh3LNY4DT5FB6PdBtCsb83vkxpeKZcXcqqkCqrfs" ] },
      { "delegate": "tz1P2Po7YM526ughEsRbY4oR9zaUPDZjxFrb",
        "reception_time": "2022-01-19T03:35:31.673-00:00",
        "errors":
          [ { "kind": "temporary",
              "id": "proto.011-PtHangz2.prefilter.outdated_endorsement" } ],
        "included_in_blocks":
          [ "BMXb2vmXmFSjh3LNY4DT5FB6PdBtCsb83vkxpeKZcXcqqkCqrfs" ] },
      { "delegate": "tz1TXzyaKUA8wsWefdSnyaYFnV2M3vCV7er9",
        "reception_time": "2022-01-19T03:35:31.549-00:00",
        "errors":
          [ { "kind": "temporary",
              "id": "proto.011-PtHangz2.prefilter.outdated_endorsement" } ],
        "included_in_blocks":
          [ "BMXb2vmXmFSjh3LNY4DT5FB6PdBtCsb83vkxpeKZcXcqqkCqrfs" ] },
      { "delegate": "tz1MXFrtZoaXckE41bjUCSjAjAap3AFDSr3N",
        "reception_time": "2022-01-19T03:35:31.543-00:00",
        "errors":
          [ { "kind": "temporary",
              "id": "proto.011-PtHangz2.prefilter.outdated_endorsement" } ],
        "included_in_blocks":
          [ "BMXb2vmXmFSjh3LNY4DT5FB6PdBtCsb83vkxpeKZcXcqqkCqrfs" ] },
      { "delegate": "tz1Scdr2HsZiQjc7bHMeBbmDRXYVvdhjJbBh",
        "reception_time": "2022-01-19T03:35:31.207-00:00",
        "errors":
          [ { "kind": "temporary",
              "id": "proto.011-PtHangz2.prefilter.outdated_endorsement" } ],
        "included_in_blocks":
          [ "BMXb2vmXmFSjh3LNY4DT5FB6PdBtCsb83vkxpeKZcXcqqkCqrfs" ] },
      { "delegate": "tz1S8e9GgdZG78XJRB3NqabfWeM37GnhZMWQ",
        "reception_time": "2022-01-19T03:35:31.034-00:00",
        "errors":
          [ { "kind": "temporary",
              "id": "proto.011-PtHangz2.prefilter.outdated_endorsement" } ],
        "included_in_blocks":
          [ "BMXb2vmXmFSjh3LNY4DT5FB6PdBtCsb83vkxpeKZcXcqqkCqrfs" ] },
      { "delegate": "tz1NpWrAyDL9k2Lmnyxcgr9xuJakbBxdq7FB",
        "reception_time": "2022-01-19T03:35:38.633-00:00",
        "included_in_blocks":
          [ "BMXb2vmXmFSjh3LNY4DT5FB6PdBtCsb83vkxpeKZcXcqqkCqrfs" ] },
      { "delegate": "tz1PFeoTuFen8jAMRHajBySNyCwLmY5RqF9M",
        "reception_time": "2022-01-19T03:35:38.436-00:00",
        "included_in_blocks":
          [ "BMXb2vmXmFSjh3LNY4DT5FB6PdBtCsb83vkxpeKZcXcqqkCqrfs" ] },
      { "delegate": "tz3bEQoFCZEEfZMskefZ8q8e4eiHH1pssRax",
        "reception_time": "2022-01-19T03:35:37.494-00:00",
        "included_in_blocks":
          [ "BMXb2vmXmFSjh3LNY4DT5FB6PdBtCsb83vkxpeKZcXcqqkCqrfs" ] },
      { "delegate": "tz1g8vkmcde6sWKaG2NN9WKzCkDM6Rziq194",
        "reception_time": "2022-01-19T03:35:37.207-00:00",
        "included_in_blocks":
          [ "BMXb2vmXmFSjh3LNY4DT5FB6PdBtCsb83vkxpeKZcXcqqkCqrfs" ] },
      { "delegate": "tz1W5VkdB5s7ENMESVBtwyt9kyvLqPcUczRT",
        "reception_time": "2022-01-19T03:35:37.244-00:00",
        "included_in_blocks":
          [ "BMXb2vmXmFSjh3LNY4DT5FB6PdBtCsb83vkxpeKZcXcqqkCqrfs" ] },
      { "delegate": "tz1S5WxdZR5f9NzsPXhr7L9L1vrEb5spZFur",
        "reception_time": "2022-01-19T03:35:37.172-00:00",
        "included_in_blocks":
          [ "BMXb2vmXmFSjh3LNY4DT5FB6PdBtCsb83vkxpeKZcXcqqkCqrfs" ] },
      { "delegate": "tz1aRoaRhSpRYvFdyvgWLL6TGyRoGF51wDjM",
        "reception_time": "2022-01-19T03:35:35.964-00:00",
        "included_in_blocks":
          [ "BMXb2vmXmFSjh3LNY4DT5FB6PdBtCsb83vkxpeKZcXcqqkCqrfs" ] },
      { "delegate": "tz1Xsrfv6hn86fp88YfRs6xcKwt2nTqxVZYM",
        "reception_time": "2022-01-19T03:35:35.805-00:00",
        "included_in_blocks":
          [ "BMXb2vmXmFSjh3LNY4DT5FB6PdBtCsb83vkxpeKZcXcqqkCqrfs" ] },
      { "delegate": "tz1ZcTRk5uxD86EFEn1vvNffWWqJy7q5eVhc",
        "reception_time": "2022-01-19T03:35:35.392-00:00",
        "included_in_blocks":
          [ "BMXb2vmXmFSjh3LNY4DT5FB6PdBtCsb83vkxpeKZcXcqqkCqrfs" ] },
      { "delegate": "tz3bvNMQ95vfAYtG8193ymshqjSvmxiCUuR5",
        "reception_time": "2022-01-19T03:35:35.134-00:00",
        "included_in_blocks":
          [ "BMXb2vmXmFSjh3LNY4DT5FB6PdBtCsb83vkxpeKZcXcqqkCqrfs" ] },
      { "delegate": "tz1SUgyRB8T5jXgXAwS33pgRHAKrafyg87Yc",
        "reception_time": "2022-01-19T03:35:35.046-00:00",
        "included_in_blocks":
          [ "BMXb2vmXmFSjh3LNY4DT5FB6PdBtCsb83vkxpeKZcXcqqkCqrfs" ] },
      { "delegate": "tz1T7duV5gZWSTq4YpBGbXNLTfznCLDrFxvs",
        "reception_time": "2022-01-19T03:35:34.951-00:00",
        "included_in_blocks":
          [ "BMXb2vmXmFSjh3LNY4DT5FB6PdBtCsb83vkxpeKZcXcqqkCqrfs" ] },
      { "delegate": "tz1dRKU4FQ9QRRQPdaH4zCR6gmCmXfcvcgtB",
        "reception_time": "2022-01-19T03:35:34.818-00:00",
        "included_in_blocks":
          [ "BMXb2vmXmFSjh3LNY4DT5FB6PdBtCsb83vkxpeKZcXcqqkCqrfs" ] },
      { "delegate": "tz1cYufsxHXJcvANhvS55h3aY32a9BAFB494",
        "reception_time": "2022-01-19T03:35:34.947-00:00",
        "included_in_blocks":
          [ "BMXb2vmXmFSjh3LNY4DT5FB6PdBtCsb83vkxpeKZcXcqqkCqrfs" ] },
      { "delegate": "tz1awXW7wuXy21c66vBudMXQVAPgRnqqwgTH",
        "reception_time": "2022-01-19T03:35:34.724-00:00",
        "included_in_blocks":
          [ "BMXb2vmXmFSjh3LNY4DT5FB6PdBtCsb83vkxpeKZcXcqqkCqrfs" ] },
      { "delegate": "tz3RDC3Jdn4j15J7bBHZd29EUee9gVB1CxD9",
        "reception_time": "2022-01-19T03:35:34.588-00:00",
        "included_in_blocks":
          [ "BMXb2vmXmFSjh3LNY4DT5FB6PdBtCsb83vkxpeKZcXcqqkCqrfs" ] },
      { "delegate": "tz3NDpRj6WBrJPikcPVHRBEjWKxFw3c6eQPS",
        "reception_time": "2022-01-19T03:35:34.568-00:00",
        "included_in_blocks":
          [ "BMXb2vmXmFSjh3LNY4DT5FB6PdBtCsb83vkxpeKZcXcqqkCqrfs" ] },
      { "delegate": "tz1TRqbYbUf2GyrjErf3hBzgBJPzW8y36qEs",
        "reception_time": "2022-01-19T03:35:34.322-00:00",
        "included_in_blocks":
          [ "BMXb2vmXmFSjh3LNY4DT5FB6PdBtCsb83vkxpeKZcXcqqkCqrfs" ] },
      { "delegate": "tz1NEKxGEHsFufk87CVZcrqWu8o22qh46GK6",
        "reception_time": "2022-01-19T03:35:34.327-00:00",
        "included_in_blocks":
          [ "BMXb2vmXmFSjh3LNY4DT5FB6PdBtCsb83vkxpeKZcXcqqkCqrfs" ] },
      { "delegate": "tz1Nf6tsK4G6bBqgSQERy4nUtkHNKUVdh7q1",
        "reception_time": "2022-01-19T03:35:34.375-00:00",
        "included_in_blocks":
          [ "BMXb2vmXmFSjh3LNY4DT5FB6PdBtCsb83vkxpeKZcXcqqkCqrfs" ] },
      { "delegate": "tz1WBfwbT66FC6BTLexc2BoyCCBM9LG7pnVW",
        "reception_time": "2022-01-19T03:35:34.450-00:00",
        "included_in_blocks":
          [ "BMXb2vmXmFSjh3LNY4DT5FB6PdBtCsb83vkxpeKZcXcqqkCqrfs" ] },
      { "delegate": "tz1Tnjaxk6tbAeC2TmMApPh8UsrEVQvhHvx5",
        "reception_time": "2022-01-19T03:35:34.398-00:00",
        "included_in_blocks":
          [ "BMXb2vmXmFSjh3LNY4DT5FB6PdBtCsb83vkxpeKZcXcqqkCqrfs" ] },
      { "delegate": "tz2FCNBrERXtaTtNX6iimR1UJ5JSDxvdHM93",
        "reception_time": "2022-01-19T03:35:34.461-00:00",
        "included_in_blocks":
          [ "BMXb2vmXmFSjh3LNY4DT5FB6PdBtCsb83vkxpeKZcXcqqkCqrfs" ] },
      { "delegate": "tz3VEZ4k6a4Wx42iyev6i2aVAptTRLEAivNN",
        "reception_time": "2022-01-19T03:35:34.507-00:00",
        "included_in_blocks":
          [ "BMXb2vmXmFSjh3LNY4DT5FB6PdBtCsb83vkxpeKZcXcqqkCqrfs" ] },
      { "delegate": "tz3NExpXn9aPNZPorRE4SdjJ2RGrfbJgMAaV",
        "reception_time": "2022-01-19T03:35:34.365-00:00",
        "included_in_blocks":
          [ "BMXb2vmXmFSjh3LNY4DT5FB6PdBtCsb83vkxpeKZcXcqqkCqrfs" ] },
      { "delegate": "tz1V4qCyvPKZ5UeqdH14HN42rxvNPQfc9UZg",
        "reception_time": "2022-01-19T03:35:34.501-00:00",
        "included_in_blocks":
          [ "BMXb2vmXmFSjh3LNY4DT5FB6PdBtCsb83vkxpeKZcXcqqkCqrfs" ] },
      { "delegate": "tz1abmz7jiCV2GH2u81LRrGgAFFgvQgiDiaf",
        "reception_time": "2022-01-19T03:35:34.368-00:00",
        "included_in_blocks":
          [ "BMXb2vmXmFSjh3LNY4DT5FB6PdBtCsb83vkxpeKZcXcqqkCqrfs" ] },
      { "delegate": "tz3UoffC7FG7zfpmvmjUmUeAaHvzdcUvAj6r",
        "reception_time": "2022-01-19T03:35:34.393-00:00",
        "included_in_blocks":
          [ "BMXb2vmXmFSjh3LNY4DT5FB6PdBtCsb83vkxpeKZcXcqqkCqrfs" ] },
      { "delegate": "tz1RjoHc98dBoqaH2jawF62XNKh7YsHwbkEv",
        "reception_time": "2022-01-19T03:35:34.357-00:00",
        "included_in_blocks":
          [ "BMXb2vmXmFSjh3LNY4DT5FB6PdBtCsb83vkxpeKZcXcqqkCqrfs" ] },
      { "delegate": "tz3bTdwZinP8U1JmSweNzVKhmwafqWmFWRfk",
        "reception_time": "2022-01-19T03:35:34.468-00:00",
        "included_in_blocks":
          [ "BMXb2vmXmFSjh3LNY4DT5FB6PdBtCsb83vkxpeKZcXcqqkCqrfs" ] },
      { "delegate": "tz1RCFbB9GpALpsZtu6J58sb74dm8qe6XBzv",
        "reception_time": "2022-01-19T03:35:34.493-00:00",
        "included_in_blocks":
          [ "BMXb2vmXmFSjh3LNY4DT5FB6PdBtCsb83vkxpeKZcXcqqkCqrfs" ] },
      { "delegate": "tz3WMqdzXqRWXwyvj5Hp2H7QEepaUuS7vd9K",
        "reception_time": "2022-01-19T03:35:34.406-00:00",
        "included_in_blocks":
          [ "BMXb2vmXmFSjh3LNY4DT5FB6PdBtCsb83vkxpeKZcXcqqkCqrfs" ] },
      { "delegate": "tz3iJu5vrKZcsqRPs8yJ61UDoeEXZmtro4qh",
        "reception_time": "2022-01-19T03:35:34.314-00:00",
        "included_in_blocks":
          [ "BMXb2vmXmFSjh3LNY4DT5FB6PdBtCsb83vkxpeKZcXcqqkCqrfs" ] },
      { "delegate": "tz3S6BBeKgJGXxvLyZ1xzXzMPn11nnFtq5L9",
        "reception_time": "2022-01-19T03:35:34.445-00:00",
        "included_in_blocks":
          [ "BMXb2vmXmFSjh3LNY4DT5FB6PdBtCsb83vkxpeKZcXcqqkCqrfs" ] },
      { "delegate": "tz3QT9dHYKDqh563chVa6za8526ys1UKfRfL",
        "reception_time": "2022-01-19T03:35:34.461-00:00",
        "included_in_blocks":
          [ "BMXb2vmXmFSjh3LNY4DT5FB6PdBtCsb83vkxpeKZcXcqqkCqrfs" ] },
      { "delegate": "tz3RB4aoyjov4KEVRbuhvQ1CKJgBJMWhaeB8",
        "reception_time": "2022-01-19T03:35:34.278-00:00",
        "included_in_blocks":
          [ "BMXb2vmXmFSjh3LNY4DT5FB6PdBtCsb83vkxpeKZcXcqqkCqrfs" ] },
      { "delegate": "tz1LmaFsWRkjr7QMCx5PtV6xTUz3AmEpKQiF",
        "reception_time": "2022-01-19T03:35:34.385-00:00",
        "included_in_blocks":
          [ "BMXb2vmXmFSjh3LNY4DT5FB6PdBtCsb83vkxpeKZcXcqqkCqrfs" ] },
      { "delegate": "tz1ei4WtWEMEJekSv8qDnu9PExG6Q8HgRGr3",
        "reception_time": "2022-01-19T03:35:34.322-00:00",
        "included_in_blocks":
          [ "BMXb2vmXmFSjh3LNY4DT5FB6PdBtCsb83vkxpeKZcXcqqkCqrfs" ] },
      { "delegate": "tz1KfEsrtDaA1sX7vdM4qmEPWuSytuqCDp5j",
        "reception_time": "2022-01-19T03:35:34.331-00:00",
        "included_in_blocks":
          [ "BMXb2vmXmFSjh3LNY4DT5FB6PdBtCsb83vkxpeKZcXcqqkCqrfs" ] },
      { "delegate": "tz1dNVDWPf3Q59SdJqnjdnu277iyvReiRS9M",
        "reception_time": "2022-01-19T03:35:34.317-00:00",
        "included_in_blocks":
          [ "BMXb2vmXmFSjh3LNY4DT5FB6PdBtCsb83vkxpeKZcXcqqkCqrfs" ] },
      { "delegate": "tz1fb7c66UwePkkfDXz4ajFaBP9hVNLdS7JJ",
        "reception_time": "2022-01-19T03:35:34.345-00:00",
        "included_in_blocks":
          [ "BMXb2vmXmFSjh3LNY4DT5FB6PdBtCsb83vkxpeKZcXcqqkCqrfs" ] },
      { "delegate": "tz3Zhs2dygr55yHyQyKjntAtY9bgfhLZ4Xj1",
        "reception_time": "2022-01-19T03:35:34.223-00:00",
        "included_in_blocks":
          [ "BMXb2vmXmFSjh3LNY4DT5FB6PdBtCsb83vkxpeKZcXcqqkCqrfs" ] },
      { "delegate": "tz1PWCDnz783NNGGQjEFFsHtrcK5yBW4E2rm",
        "reception_time": "2022-01-19T03:35:34.238-00:00",
        "included_in_blocks":
          [ "BMXb2vmXmFSjh3LNY4DT5FB6PdBtCsb83vkxpeKZcXcqqkCqrfs" ] },
      { "delegate": "tz1gfArv665EUkSg2ojMBzcbfwuPxAvqPvjo",
        "reception_time": "2022-01-19T03:35:34.341-00:00",
        "included_in_blocks":
          [ "BMXb2vmXmFSjh3LNY4DT5FB6PdBtCsb83vkxpeKZcXcqqkCqrfs" ] },
      { "delegate": "tz3QSGPoRp3Kn7n3vY24eYeu3Peuqo45LQ4D",
        "reception_time": "2022-01-19T03:35:34.215-00:00",
        "included_in_blocks":
          [ "BMXb2vmXmFSjh3LNY4DT5FB6PdBtCsb83vkxpeKZcXcqqkCqrfs" ] },
      { "delegate": "tz3gtoUxdudfBRcNY7iVdKPHCYYX6xdPpoRS",
        "reception_time": "2022-01-19T03:35:34.251-00:00",
        "included_in_blocks":
          [ "BMXb2vmXmFSjh3LNY4DT5FB6PdBtCsb83vkxpeKZcXcqqkCqrfs" ] },
      { "delegate": "tz1WCd2jm4uSt4vntk4vSuUWoZQGhLcDuR9q",
        "reception_time": "2022-01-19T03:35:34.233-00:00",
        "included_in_blocks":
          [ "BMXb2vmXmFSjh3LNY4DT5FB6PdBtCsb83vkxpeKZcXcqqkCqrfs" ] },
      { "delegate": "tz1S8MNvuFEUsWgjHvi3AxibRBf388NhT1q2",
        "reception_time": "2022-01-19T03:35:34.228-00:00",
        "included_in_blocks":
          [ "BMXb2vmXmFSjh3LNY4DT5FB6PdBtCsb83vkxpeKZcXcqqkCqrfs" ] },
      { "delegate": "tz3NxTnke1acr8o3h5y9ytf5awQBGNJUKzVU",
        "reception_time": "2022-01-19T03:35:34.251-00:00",
        "included_in_blocks":
          [ "BMXb2vmXmFSjh3LNY4DT5FB6PdBtCsb83vkxpeKZcXcqqkCqrfs" ] },
      { "delegate": "tz1SYq214SCBy9naR6cvycQsYcUGpBqQAE8d",
        "reception_time": "2022-01-19T03:35:34.307-00:00",
        "included_in_blocks":
          [ "BMXb2vmXmFSjh3LNY4DT5FB6PdBtCsb83vkxpeKZcXcqqkCqrfs" ] },
      { "delegate": "tz1iMAHAVpkCVegF9FLGWUpQQeiAHh4ffdLQ",
        "reception_time": "2022-01-19T03:35:34.205-00:00",
        "included_in_blocks":
          [ "BMXb2vmXmFSjh3LNY4DT5FB6PdBtCsb83vkxpeKZcXcqqkCqrfs" ] },
      { "delegate": "tz1gcna2xxZj2eNp1LaMyAhVJ49mEFj4FH26",
        "reception_time": "2022-01-19T03:35:34.194-00:00",
        "included_in_blocks":
          [ "BMXb2vmXmFSjh3LNY4DT5FB6PdBtCsb83vkxpeKZcXcqqkCqrfs" ] },
      { "delegate": "tz1MJx9vhaNRSimcuXPK2rW4fLccQnDAnVKJ",
        "reception_time": "2022-01-19T03:35:34.215-00:00",
        "included_in_blocks":
          [ "BMXb2vmXmFSjh3LNY4DT5FB6PdBtCsb83vkxpeKZcXcqqkCqrfs" ] },
      { "delegate": "tz3ZbP2pM3nwvXztbuMJwJnDvV5xdpU8UkkD",
        "reception_time": "2022-01-19T03:35:34.182-00:00",
        "included_in_blocks":
          [ "BMXb2vmXmFSjh3LNY4DT5FB6PdBtCsb83vkxpeKZcXcqqkCqrfs" ] },
      { "delegate": "tz3RKYFsLuQzKBtmYuLNas7uMu3AsYd4QdsA",
        "reception_time": "2022-01-19T03:35:34.341-00:00",
        "included_in_blocks":
          [ "BMXb2vmXmFSjh3LNY4DT5FB6PdBtCsb83vkxpeKZcXcqqkCqrfs" ] },
      { "delegate": "tz1irJKkXS2DBWkU1NnmFQx1c1L7pbGg4yhk",
        "reception_time": "2022-01-19T03:35:34.202-00:00",
        "included_in_blocks":
          [ "BMXb2vmXmFSjh3LNY4DT5FB6PdBtCsb83vkxpeKZcXcqqkCqrfs" ] },
      { "delegate": "tz3hw2kqXhLUvY65ca1eety2oQTpAvd34R9Q",
        "reception_time": "2022-01-19T03:35:34.190-00:00",
        "included_in_blocks":
          [ "BMXb2vmXmFSjh3LNY4DT5FB6PdBtCsb83vkxpeKZcXcqqkCqrfs" ] },
      { "delegate": "tz1TzaNn7wSQSP5gYPXCnNzBCpyMiidCq1PX",
        "reception_time": "2022-01-19T03:35:34.228-00:00",
        "included_in_blocks":
          [ "BMXb2vmXmFSjh3LNY4DT5FB6PdBtCsb83vkxpeKZcXcqqkCqrfs" ] },
      { "delegate": "tz1eEnQhbwf6trb8Q8mPb2RaPkNk2rN7BKi8",
        "reception_time": "2022-01-19T03:35:34.199-00:00",
        "included_in_blocks":
          [ "BMXb2vmXmFSjh3LNY4DT5FB6PdBtCsb83vkxpeKZcXcqqkCqrfs" ] },
      { "delegate": "tz1MQMiZHV8q4tTwUMWmS5Y3kaP6J2136iXr",
        "reception_time": "2022-01-19T03:35:33.858-00:00",
        "included_in_blocks":
          [ "BMXb2vmXmFSjh3LNY4DT5FB6PdBtCsb83vkxpeKZcXcqqkCqrfs" ] },
      { "delegate": "tz1VQnqCCqX4K5sP3FNkVSNKTdCAMJDd3E1n",
        "reception_time": "2022-01-19T03:35:34.238-00:00",
        "included_in_blocks":
          [ "BMXb2vmXmFSjh3LNY4DT5FB6PdBtCsb83vkxpeKZcXcqqkCqrfs" ] } ] }