{ "blocks":
    [ { "hash": "BLeHS4PtVnhRKZEaUQ82C64pcMz3Zq4Bx5KKs8mbFvaRmuKP47R",
        "delegate": "tz1awXW7wuXy21c66vBudMXQVAPgRnqqwgTH",
        "reception_time": "2022-01-19T03:00:02.326-00:00",
        "timestamp": "2022-01-19T02:59:50Z" } ],
  "endorsements":
    [ { "delegate": "tz1P2Po7YM526ughEsRbY4oR9zaUPDZjxFrb",
        "reception_time": "2022-01-19T03:00:02.103-00:00",
        "errors":
          [ { "kind": "temporary",
              "id": "proto.011-PtHangz2.prefilter.outdated_endorsement" } ],
        "included_in_blocks":
          [ "BLXi8QovY1X55qfyBPCQTnkYCd1PKRhmo6M9KVZwFQLuiV4MdGm" ] },
      { "delegate": "tz1hA2m6dTgvtgZPXmP6MEauqiYWpD3KXaRy",
        "reception_time": "2022-01-19T03:00:10.092-00:00",
        "included_in_blocks":
          [ "BLXi8QovY1X55qfyBPCQTnkYCd1PKRhmo6M9KVZwFQLuiV4MdGm" ] },
      { "delegate": "tz1PFeoTuFen8jAMRHajBySNyCwLmY5RqF9M",
        "reception_time": "2022-01-19T03:00:07.927-00:00",
        "included_in_blocks":
          [ "BLXi8QovY1X55qfyBPCQTnkYCd1PKRhmo6M9KVZwFQLuiV4MdGm" ] },
      { "delegate": "tz1aRoaRhSpRYvFdyvgWLL6TGyRoGF51wDjM",
        "reception_time": "2022-01-19T03:00:07.030-00:00",
        "included_in_blocks":
          [ "BLXi8QovY1X55qfyBPCQTnkYCd1PKRhmo6M9KVZwFQLuiV4MdGm" ] },
      { "delegate": "tz1SUgyRB8T5jXgXAwS33pgRHAKrafyg87Yc",
        "reception_time": "2022-01-19T03:00:07.105-00:00",
        "included_in_blocks":
          [ "BLXi8QovY1X55qfyBPCQTnkYCd1PKRhmo6M9KVZwFQLuiV4MdGm" ] },
      { "delegate": "tz1LmaFsWRkjr7QMCx5PtV6xTUz3AmEpKQiF",
        "reception_time": "2022-01-19T03:00:07.119-00:00",
        "included_in_blocks":
          [ "BLXi8QovY1X55qfyBPCQTnkYCd1PKRhmo6M9KVZwFQLuiV4MdGm" ] },
      { "delegate": "tz1fb7c66UwePkkfDXz4ajFaBP9hVNLdS7JJ",
        "reception_time": "2022-01-19T03:00:06.847-00:00",
        "included_in_blocks":
          [ "BLXi8QovY1X55qfyBPCQTnkYCd1PKRhmo6M9KVZwFQLuiV4MdGm" ] },
      { "delegate": "tz3NExpXn9aPNZPorRE4SdjJ2RGrfbJgMAaV",
        "reception_time": "2022-01-19T03:00:06.669-00:00",
        "included_in_blocks":
          [ "BLXi8QovY1X55qfyBPCQTnkYCd1PKRhmo6M9KVZwFQLuiV4MdGm" ] },
      { "delegate": "tz1ZcTRk5uxD86EFEn1vvNffWWqJy7q5eVhc",
        "reception_time": "2022-01-19T03:00:06.173-00:00",
        "included_in_blocks":
          [ "BLXi8QovY1X55qfyBPCQTnkYCd1PKRhmo6M9KVZwFQLuiV4MdGm" ] },
      { "delegate": "tz1Lc87p6zRaDwzJs9kHvdpm7XzeWE8QTwVB",
        "reception_time": "2022-01-19T03:00:06.010-00:00",
        "included_in_blocks":
          [ "BLXi8QovY1X55qfyBPCQTnkYCd1PKRhmo6M9KVZwFQLuiV4MdGm" ] },
      { "delegate": "tz1SohptP53wDPZhzTWzDUFAUcWF6DMBpaJV",
        "reception_time": "2022-01-19T03:00:05.781-00:00",
        "included_in_blocks":
          [ "BLXi8QovY1X55qfyBPCQTnkYCd1PKRhmo6M9KVZwFQLuiV4MdGm" ] },
      { "delegate": "tz1g8vkmcde6sWKaG2NN9WKzCkDM6Rziq194",
        "reception_time": "2022-01-19T03:00:05.739-00:00",
        "included_in_blocks":
          [ "BLXi8QovY1X55qfyBPCQTnkYCd1PKRhmo6M9KVZwFQLuiV4MdGm" ] },
      { "delegate": "tz3VEZ4k6a4Wx42iyev6i2aVAptTRLEAivNN",
        "reception_time": "2022-01-19T03:00:05.689-00:00",
        "included_in_blocks":
          [ "BLXi8QovY1X55qfyBPCQTnkYCd1PKRhmo6M9KVZwFQLuiV4MdGm" ] },
      { "delegate": "tz1eE4ERseiJfLTy3ydsdiitpCMbRRHEGhqM",
        "delegate_alias": "boutiger",
        "reception_time": "2022-01-19T03:00:05.131-00:00",
        "included_in_blocks":
          [ "BLXi8QovY1X55qfyBPCQTnkYCd1PKRhmo6M9KVZwFQLuiV4MdGm" ] },
      { "delegate": "tz1KfEsrtDaA1sX7vdM4qmEPWuSytuqCDp5j",
        "reception_time": "2022-01-19T03:00:05.401-00:00",
        "included_in_blocks":
          [ "BLXi8QovY1X55qfyBPCQTnkYCd1PKRhmo6M9KVZwFQLuiV4MdGm" ] },
      { "delegate": "tz1T7duV5gZWSTq4YpBGbXNLTfznCLDrFxvs",
        "reception_time": "2022-01-19T03:00:05.406-00:00",
        "included_in_blocks":
          [ "BLXi8QovY1X55qfyBPCQTnkYCd1PKRhmo6M9KVZwFQLuiV4MdGm" ] },
      { "delegate": "tz3WMqdzXqRWXwyvj5Hp2H7QEepaUuS7vd9K",
        "reception_time": "2022-01-19T03:00:05.418-00:00",
        "included_in_blocks":
          [ "BLXi8QovY1X55qfyBPCQTnkYCd1PKRhmo6M9KVZwFQLuiV4MdGm" ] },
      { "delegate": "tz1SYq214SCBy9naR6cvycQsYcUGpBqQAE8d",
        "reception_time": "2022-01-19T03:00:05.466-00:00",
        "included_in_blocks":
          [ "BLXi8QovY1X55qfyBPCQTnkYCd1PKRhmo6M9KVZwFQLuiV4MdGm" ] },
      { "delegate": "tz1WBfwbT66FC6BTLexc2BoyCCBM9LG7pnVW",
        "reception_time": "2022-01-19T03:00:05.341-00:00",
        "included_in_blocks":
          [ "BLXi8QovY1X55qfyBPCQTnkYCd1PKRhmo6M9KVZwFQLuiV4MdGm" ] },
      { "delegate": "tz1cig1EHyvZd7J2k389moM9PxVgPQvmFkvi",
        "reception_time": "2022-01-19T03:00:05.338-00:00",
        "included_in_blocks":
          [ "BLXi8QovY1X55qfyBPCQTnkYCd1PKRhmo6M9KVZwFQLuiV4MdGm" ] },
      { "delegate": "tz1NEKxGEHsFufk87CVZcrqWu8o22qh46GK6",
        "reception_time": "2022-01-19T03:00:05.368-00:00",
        "included_in_blocks":
          [ "BLXi8QovY1X55qfyBPCQTnkYCd1PKRhmo6M9KVZwFQLuiV4MdGm" ] },
      { "delegate": "tz1bxVgPCiveFHSand7zn22S8ZBtvNQbqgqU",
        "reception_time": "2022-01-19T03:00:05.361-00:00",
        "included_in_blocks":
          [ "BLXi8QovY1X55qfyBPCQTnkYCd1PKRhmo6M9KVZwFQLuiV4MdGm" ] },
      { "delegate": "tz1abmz7jiCV2GH2u81LRrGgAFFgvQgiDiaf",
        "reception_time": "2022-01-19T03:00:05.288-00:00",
        "included_in_blocks":
          [ "BLXi8QovY1X55qfyBPCQTnkYCd1PKRhmo6M9KVZwFQLuiV4MdGm" ] },
      { "delegate": "tz3bTdwZinP8U1JmSweNzVKhmwafqWmFWRfk",
        "reception_time": "2022-01-19T03:00:05.282-00:00",
        "included_in_blocks":
          [ "BLXi8QovY1X55qfyBPCQTnkYCd1PKRhmo6M9KVZwFQLuiV4MdGm" ] },
      { "delegate": "tz1fUyqYH7H4pRHN1roWY17giXhy1RvxjgUV",
        "reception_time": "2022-01-19T03:00:05.168-00:00",
        "included_in_blocks":
          [ "BLXi8QovY1X55qfyBPCQTnkYCd1PKRhmo6M9KVZwFQLuiV4MdGm" ] },
      { "delegate": "tz2FCNBrERXtaTtNX6iimR1UJ5JSDxvdHM93",
        "reception_time": "2022-01-19T03:00:05.274-00:00",
        "included_in_blocks":
          [ "BLXi8QovY1X55qfyBPCQTnkYCd1PKRhmo6M9KVZwFQLuiV4MdGm" ] },
      { "delegate": "tz1WctSwL49BZtdWAQ75NY6vr4xsAx6oKdah",
        "reception_time": "2022-01-19T03:00:05.131-00:00",
        "included_in_blocks":
          [ "BLXi8QovY1X55qfyBPCQTnkYCd1PKRhmo6M9KVZwFQLuiV4MdGm" ] },
      { "delegate": "tz1RjoHc98dBoqaH2jawF62XNKh7YsHwbkEv",
        "reception_time": "2022-01-19T03:00:05.172-00:00",
        "included_in_blocks":
          [ "BLXi8QovY1X55qfyBPCQTnkYCd1PKRhmo6M9KVZwFQLuiV4MdGm" ] },
      { "delegate": "tz1awXW7wuXy21c66vBudMXQVAPgRnqqwgTH",
        "reception_time": "2022-01-19T03:00:05.228-00:00",
        "included_in_blocks":
          [ "BLXi8QovY1X55qfyBPCQTnkYCd1PKRhmo6M9KVZwFQLuiV4MdGm" ] },
      { "delegate": "tz1Nf6tsK4G6bBqgSQERy4nUtkHNKUVdh7q1",
        "reception_time": "2022-01-19T03:00:05.292-00:00",
        "included_in_blocks":
          [ "BLXi8QovY1X55qfyBPCQTnkYCd1PKRhmo6M9KVZwFQLuiV4MdGm" ] },
      { "delegate": "tz3RDC3Jdn4j15J7bBHZd29EUee9gVB1CxD9",
        "reception_time": "2022-01-19T03:00:05.168-00:00",
        "included_in_blocks":
          [ "BLXi8QovY1X55qfyBPCQTnkYCd1PKRhmo6M9KVZwFQLuiV4MdGm" ] },
      { "delegate": "tz1TEc75UKXv4W5cwi14Na3NtqFD51yKQi7h",
        "reception_time": "2022-01-19T03:00:05.175-00:00",
        "included_in_blocks":
          [ "BLXi8QovY1X55qfyBPCQTnkYCd1PKRhmo6M9KVZwFQLuiV4MdGm" ] },
      { "delegate": "tz1cSj7fTex3JPd1p1LN1fwek6AV1kH93Wwc",
        "reception_time": "2022-01-19T03:00:05.156-00:00",
        "included_in_blocks":
          [ "BLXi8QovY1X55qfyBPCQTnkYCd1PKRhmo6M9KVZwFQLuiV4MdGm" ] },
      { "delegate": "tz1RpeqCseogMpCPXpyGjhmLH9i9DhqJ8cUR",
        "reception_time": "2022-01-19T03:00:05.159-00:00",
        "included_in_blocks":
          [ "BLXi8QovY1X55qfyBPCQTnkYCd1PKRhmo6M9KVZwFQLuiV4MdGm" ] },
      { "delegate": "tz1Tnjaxk6tbAeC2TmMApPh8UsrEVQvhHvx5",
        "reception_time": "2022-01-19T03:00:05.178-00:00",
        "included_in_blocks":
          [ "BLXi8QovY1X55qfyBPCQTnkYCd1PKRhmo6M9KVZwFQLuiV4MdGm" ] },
      { "delegate": "tz1WnfXMPaNTBmH7DBPwqCWs9cPDJdkGBTZ8",
        "reception_time": "2022-01-19T03:00:05.043-00:00",
        "included_in_blocks":
          [ "BLXi8QovY1X55qfyBPCQTnkYCd1PKRhmo6M9KVZwFQLuiV4MdGm" ] },
      { "delegate": "tz1TRqbYbUf2GyrjErf3hBzgBJPzW8y36qEs",
        "reception_time": "2022-01-19T03:00:05.193-00:00",
        "included_in_blocks":
          [ "BLXi8QovY1X55qfyBPCQTnkYCd1PKRhmo6M9KVZwFQLuiV4MdGm" ] },
      { "delegate": "tz1YhNsiRRU8aHNGg7NK3uuP6UDAyacJernB",
        "reception_time": "2022-01-19T03:00:05.116-00:00",
        "included_in_blocks":
          [ "BLXi8QovY1X55qfyBPCQTnkYCd1PKRhmo6M9KVZwFQLuiV4MdGm" ] },
      { "delegate": "tz3RB4aoyjov4KEVRbuhvQ1CKJgBJMWhaeB8",
        "reception_time": "2022-01-19T03:00:05.125-00:00",
        "included_in_blocks":
          [ "BLXi8QovY1X55qfyBPCQTnkYCd1PKRhmo6M9KVZwFQLuiV4MdGm" ] },
      { "delegate": "tz3QCNyySViKHmeSr45kzDxzchys7NiXCWoa",
        "reception_time": "2022-01-19T03:00:05.148-00:00",
        "included_in_blocks":
          [ "BLXi8QovY1X55qfyBPCQTnkYCd1PKRhmo6M9KVZwFQLuiV4MdGm" ] },
      { "delegate": "tz1dwu9aYb7CRNq4Y2zAjipdjFuSVKhHS8vA",
        "reception_time": "2022-01-19T03:00:05.270-00:00",
        "included_in_blocks":
          [ "BLXi8QovY1X55qfyBPCQTnkYCd1PKRhmo6M9KVZwFQLuiV4MdGm" ] },
      { "delegate": "tz1LYW7Yepo9qsQx2kjpek2RYVMCeGwBvDCQ",
        "reception_time": "2022-01-19T03:00:05.182-00:00",
        "included_in_blocks":
          [ "BLXi8QovY1X55qfyBPCQTnkYCd1PKRhmo6M9KVZwFQLuiV4MdGm" ] },
      { "delegate": "tz1S8MNvuFEUsWgjHvi3AxibRBf388NhT1q2",
        "reception_time": "2022-01-19T03:00:05.222-00:00",
        "included_in_blocks":
          [ "BLXi8QovY1X55qfyBPCQTnkYCd1PKRhmo6M9KVZwFQLuiV4MdGm" ] },
      { "delegate": "tz1RCFbB9GpALpsZtu6J58sb74dm8qe6XBzv",
        "reception_time": "2022-01-19T03:00:05.228-00:00",
        "included_in_blocks":
          [ "BLXi8QovY1X55qfyBPCQTnkYCd1PKRhmo6M9KVZwFQLuiV4MdGm" ] },
      { "delegate": "tz1bZ8vsMAXmaWEV7FRnyhcuUs2fYMaQ6Hkk",
        "reception_time": "2022-01-19T03:00:05.188-00:00",
        "included_in_blocks":
          [ "BLXi8QovY1X55qfyBPCQTnkYCd1PKRhmo6M9KVZwFQLuiV4MdGm" ] },
      { "delegate": "tz1ei4WtWEMEJekSv8qDnu9PExG6Q8HgRGr3",
        "reception_time": "2022-01-19T03:00:05.036-00:00",
        "included_in_blocks":
          [ "BLXi8QovY1X55qfyBPCQTnkYCd1PKRhmo6M9KVZwFQLuiV4MdGm" ] },
      { "delegate": "tz3gtoUxdudfBRcNY7iVdKPHCYYX6xdPpoRS",
        "reception_time": "2022-01-19T03:00:05.139-00:00",
        "included_in_blocks":
          [ "BLXi8QovY1X55qfyBPCQTnkYCd1PKRhmo6M9KVZwFQLuiV4MdGm" ] },
      { "delegate": "tz3QSGPoRp3Kn7n3vY24eYeu3Peuqo45LQ4D",
        "reception_time": "2022-01-19T03:00:05.028-00:00",
        "included_in_blocks":
          [ "BLXi8QovY1X55qfyBPCQTnkYCd1PKRhmo6M9KVZwFQLuiV4MdGm" ] },
      { "delegate": "tz1bHzftcTKZMTZgLLtnrXydCm6UEqf4ivca",
        "reception_time": "2022-01-19T03:00:05.110-00:00",
        "included_in_blocks":
          [ "BLXi8QovY1X55qfyBPCQTnkYCd1PKRhmo6M9KVZwFQLuiV4MdGm" ] },
      { "delegate": "tz1PWCDnz783NNGGQjEFFsHtrcK5yBW4E2rm",
        "reception_time": "2022-01-19T03:00:04.706-00:00",
        "included_in_blocks":
          [ "BLXi8QovY1X55qfyBPCQTnkYCd1PKRhmo6M9KVZwFQLuiV4MdGm" ] },
      { "delegate": "tz1gfArv665EUkSg2ojMBzcbfwuPxAvqPvjo",
        "reception_time": "2022-01-19T03:00:04.943-00:00",
        "included_in_blocks":
          [ "BLXi8QovY1X55qfyBPCQTnkYCd1PKRhmo6M9KVZwFQLuiV4MdGm" ] },
      { "delegate": "tz3QT9dHYKDqh563chVa6za8526ys1UKfRfL",
        "reception_time": "2022-01-19T03:00:05.003-00:00",
        "included_in_blocks":
          [ "BLXi8QovY1X55qfyBPCQTnkYCd1PKRhmo6M9KVZwFQLuiV4MdGm" ] },
      { "delegate": "tz3S6BBeKgJGXxvLyZ1xzXzMPn11nnFtq5L9",
        "reception_time": "2022-01-19T03:00:04.955-00:00",
        "included_in_blocks":
          [ "BLXi8QovY1X55qfyBPCQTnkYCd1PKRhmo6M9KVZwFQLuiV4MdGm" ] },
      { "delegate": "tz1irJKkXS2DBWkU1NnmFQx1c1L7pbGg4yhk",
        "reception_time": "2022-01-19T03:00:05.021-00:00",
        "included_in_blocks":
          [ "BLXi8QovY1X55qfyBPCQTnkYCd1PKRhmo6M9KVZwFQLuiV4MdGm" ] },
      { "delegate": "tz1aqcYgG6NuViML5vdWhohHJBYxcDVLNUsE",
        "reception_time": "2022-01-19T03:00:05.076-00:00",
        "included_in_blocks":
          [ "BLXi8QovY1X55qfyBPCQTnkYCd1PKRhmo6M9KVZwFQLuiV4MdGm" ] },
      { "delegate": "tz1h4GUAMweP7SNWzDgvMk3yRCAZyaP1MxZq",
        "reception_time": "2022-01-19T03:00:05.097-00:00",
        "included_in_blocks":
          [ "BLXi8QovY1X55qfyBPCQTnkYCd1PKRhmo6M9KVZwFQLuiV4MdGm" ] },
      { "delegate": "tz1ajgycuHmd2z2JbTSJxKv7x6cok2KuNSk1",
        "reception_time": "2022-01-19T03:00:05.030-00:00",
        "included_in_blocks":
          [ "BLXi8QovY1X55qfyBPCQTnkYCd1PKRhmo6M9KVZwFQLuiV4MdGm" ] },
      { "delegate": "tz1fPKAtsYydh4f1wfWNfeNxWYu72TmM48fu",
        "reception_time": "2022-01-19T03:00:04.938-00:00",
        "included_in_blocks":
          [ "BLXi8QovY1X55qfyBPCQTnkYCd1PKRhmo6M9KVZwFQLuiV4MdGm" ] },
      { "delegate": "tz3Zhs2dygr55yHyQyKjntAtY9bgfhLZ4Xj1",
        "reception_time": "2022-01-19T03:00:04.926-00:00",
        "included_in_blocks":
          [ "BLXi8QovY1X55qfyBPCQTnkYCd1PKRhmo6M9KVZwFQLuiV4MdGm" ] },
      { "delegate": "tz1VQnqCCqX4K5sP3FNkVSNKTdCAMJDd3E1n",
        "reception_time": "2022-01-19T03:00:05.012-00:00",
        "included_in_blocks":
          [ "BLXi8QovY1X55qfyBPCQTnkYCd1PKRhmo6M9KVZwFQLuiV4MdGm" ] },
      { "delegate": "tz1VmiY38m3y95HqQLjMwqnMS7sdMfGomzKi",
        "reception_time": "2022-01-19T03:00:04.728-00:00",
        "included_in_blocks":
          [ "BLXi8QovY1X55qfyBPCQTnkYCd1PKRhmo6M9KVZwFQLuiV4MdGm" ] },
      { "delegate": "tz3iJu5vrKZcsqRPs8yJ61UDoeEXZmtro4qh",
        "reception_time": "2022-01-19T03:00:05.054-00:00",
        "included_in_blocks":
          [ "BLXi8QovY1X55qfyBPCQTnkYCd1PKRhmo6M9KVZwFQLuiV4MdGm" ] },
      { "delegate": "tz1gUNyn3hmnEWqkusWPzxRaon1cs7ndWh7h",
        "reception_time": "2022-01-19T03:00:04.793-00:00",
        "included_in_blocks":
          [ "BLXi8QovY1X55qfyBPCQTnkYCd1PKRhmo6M9KVZwFQLuiV4MdGm" ] },
      { "delegate": "tz3adcvQaKXTCg12zbninqo3q8ptKKtDFTLv",
        "reception_time": "2022-01-19T03:00:04.872-00:00",
        "included_in_blocks":
          [ "BLXi8QovY1X55qfyBPCQTnkYCd1PKRhmo6M9KVZwFQLuiV4MdGm" ] },
      { "delegate": "tz1WCd2jm4uSt4vntk4vSuUWoZQGhLcDuR9q",
        "reception_time": "2022-01-19T03:00:04.762-00:00",
        "included_in_blocks":
          [ "BLXi8QovY1X55qfyBPCQTnkYCd1PKRhmo6M9KVZwFQLuiV4MdGm" ] },
      { "delegate": "tz3ZbP2pM3nwvXztbuMJwJnDvV5xdpU8UkkD",
        "reception_time": "2022-01-19T03:00:04.986-00:00",
        "included_in_blocks":
          [ "BLXi8QovY1X55qfyBPCQTnkYCd1PKRhmo6M9KVZwFQLuiV4MdGm" ] },
      { "delegate": "tz3RKYFsLuQzKBtmYuLNas7uMu3AsYd4QdsA",
        "reception_time": "2022-01-19T03:00:04.986-00:00",
        "included_in_blocks":
          [ "BLXi8QovY1X55qfyBPCQTnkYCd1PKRhmo6M9KVZwFQLuiV4MdGm" ] },
      { "delegate": "tz3hw2kqXhLUvY65ca1eety2oQTpAvd34R9Q",
        "reception_time": "2022-01-19T03:00:04.848-00:00",
        "included_in_blocks":
          [ "BLXi8QovY1X55qfyBPCQTnkYCd1PKRhmo6M9KVZwFQLuiV4MdGm" ] },
      { "delegate": "tz3NxTnke1acr8o3h5y9ytf5awQBGNJUKzVU",
        "reception_time": "2022-01-19T03:00:04.884-00:00",
        "included_in_blocks":
          [ "BLXi8QovY1X55qfyBPCQTnkYCd1PKRhmo6M9KVZwFQLuiV4MdGm" ] },
      { "delegate": "tz1Ldzz6k1BHdhuKvAtMRX7h5kJSMHESMHLC",
        "reception_time": "2022-01-19T03:00:04.864-00:00",
        "included_in_blocks":
          [ "BLXi8QovY1X55qfyBPCQTnkYCd1PKRhmo6M9KVZwFQLuiV4MdGm" ] },
      { "delegate": "tz1aXD7Jigrt3PBYSpHSg5Rr33SexMmmM5Ys",
        "reception_time": "2022-01-19T03:00:04.884-00:00",
        "included_in_blocks":
          [ "BLXi8QovY1X55qfyBPCQTnkYCd1PKRhmo6M9KVZwFQLuiV4MdGm" ] },
      { "delegate": "tz1eEnQhbwf6trb8Q8mPb2RaPkNk2rN7BKi8",
        "reception_time": "2022-01-19T03:00:04.896-00:00",
        "included_in_blocks":
          [ "BLXi8QovY1X55qfyBPCQTnkYCd1PKRhmo6M9KVZwFQLuiV4MdGm" ] } ] }