{ "blocks":
    [ { "hash": "BLByuNSpupGskLGAsv6hRgtZKXXcbXPnGPfbdg7MjqvUSDwLyYa",
        "delegate": "tz1V4qCyvPKZ5UeqdH14HN42rxvNPQfc9UZg",
        "reception_time": "2022-01-19T07:05:08.534-00:00",
        "timestamp": "2022-01-19T07:05:00Z" } ],
  "endorsements":
    [ { "delegate": "tz1iZEKy4LaAjnTmn2RuGDf2iqdAQKnRi8kY",
        "reception_time": "2022-01-19T07:05:08.445-00:00",
        "errors":
          [ { "kind": "temporary",
              "id": "proto.011-PtHangz2.prefilter.outdated_endorsement" } ],
        "included_in_blocks":
          [ "BLHUnf44YWFvaba97CHhErNPeVjp761J1Fwm4vT1qWbJjWdsZko" ] },
      { "delegate": "tz1aXD7Jigrt3PBYSpHSg5Rr33SexMmmM5Ys",
        "reception_time": "2022-01-19T07:05:08.319-00:00",
        "errors":
          [ { "kind": "temporary",
              "id": "proto.011-PtHangz2.prefilter.outdated_endorsement" } ],
        "included_in_blocks":
          [ "BLHUnf44YWFvaba97CHhErNPeVjp761J1Fwm4vT1qWbJjWdsZko" ] },
      { "delegate": "tz1S8e9GgdZG78XJRB3NqabfWeM37GnhZMWQ",
        "reception_time": "2022-01-19T07:05:08.074-00:00",
        "errors":
          [ { "kind": "temporary",
              "id": "proto.011-PtHangz2.prefilter.outdated_endorsement" } ],
        "included_in_blocks":
          [ "BLHUnf44YWFvaba97CHhErNPeVjp761J1Fwm4vT1qWbJjWdsZko" ] },
      { "delegate": "tz1NpWrAyDL9k2Lmnyxcgr9xuJakbBxdq7FB",
        "reception_time": "2022-01-19T07:05:19.266-00:00",
        "included_in_blocks":
          [ "BLHUnf44YWFvaba97CHhErNPeVjp761J1Fwm4vT1qWbJjWdsZko" ] },
      { "delegate": "tz1h4ar7F5wC6Ae2cfkrmrRP6nrPk9gGFaxg",
        "reception_time": "2022-01-19T07:05:14.735-00:00",
        "included_in_blocks":
          [ "BLHUnf44YWFvaba97CHhErNPeVjp761J1Fwm4vT1qWbJjWdsZko" ] },
      { "delegate": "tz1aRoaRhSpRYvFdyvgWLL6TGyRoGF51wDjM",
        "reception_time": "2022-01-19T07:05:13.820-00:00",
        "included_in_blocks":
          [ "BLHUnf44YWFvaba97CHhErNPeVjp761J1Fwm4vT1qWbJjWdsZko" ] },
      { "delegate": "tz1fJHFn6sWEd3NnBPngACuw2dggTv6nQZ7g",
        "reception_time": "2022-01-19T07:05:13.142-00:00",
        "included_in_blocks":
          [ "BLHUnf44YWFvaba97CHhErNPeVjp761J1Fwm4vT1qWbJjWdsZko" ] },
      { "delegate": "tz1V3yg82mcrPJbegqVCPn6bC8w1CSTRp3f8",
        "reception_time": "2022-01-19T07:05:13.100-00:00",
        "included_in_blocks":
          [ "BLHUnf44YWFvaba97CHhErNPeVjp761J1Fwm4vT1qWbJjWdsZko" ] },
      { "delegate": "tz1eVaNx3gCmG1EsLjijkmgAxdLYVf6Bf5Sq",
        "reception_time": "2022-01-19T07:05:12.898-00:00",
        "included_in_blocks":
          [ "BLHUnf44YWFvaba97CHhErNPeVjp761J1Fwm4vT1qWbJjWdsZko" ] },
      { "delegate": "tz3RDC3Jdn4j15J7bBHZd29EUee9gVB1CxD9",
        "reception_time": "2022-01-19T07:05:12.784-00:00",
        "included_in_blocks":
          [ "BLHUnf44YWFvaba97CHhErNPeVjp761J1Fwm4vT1qWbJjWdsZko" ] },
      { "delegate": "tz3NDpRj6WBrJPikcPVHRBEjWKxFw3c6eQPS",
        "reception_time": "2022-01-19T07:05:12.579-00:00",
        "included_in_blocks":
          [ "BLHUnf44YWFvaba97CHhErNPeVjp761J1Fwm4vT1qWbJjWdsZko" ] },
      { "delegate": "tz1SUgyRB8T5jXgXAwS33pgRHAKrafyg87Yc",
        "reception_time": "2022-01-19T07:05:12.262-00:00",
        "included_in_blocks":
          [ "BLHUnf44YWFvaba97CHhErNPeVjp761J1Fwm4vT1qWbJjWdsZko" ] },
      { "delegate": "tz1ZcTRk5uxD86EFEn1vvNffWWqJy7q5eVhc",
        "reception_time": "2022-01-19T07:05:12.412-00:00",
        "included_in_blocks":
          [ "BLHUnf44YWFvaba97CHhErNPeVjp761J1Fwm4vT1qWbJjWdsZko" ] },
      { "delegate": "tz1awXW7wuXy21c66vBudMXQVAPgRnqqwgTH",
        "reception_time": "2022-01-19T07:05:12.151-00:00",
        "included_in_blocks":
          [ "BLHUnf44YWFvaba97CHhErNPeVjp761J1Fwm4vT1qWbJjWdsZko" ] },
      { "delegate": "tz1cYufsxHXJcvANhvS55h3aY32a9BAFB494",
        "reception_time": "2022-01-19T07:05:12.158-00:00",
        "included_in_blocks":
          [ "BLHUnf44YWFvaba97CHhErNPeVjp761J1Fwm4vT1qWbJjWdsZko" ] },
      { "delegate": "tz1Z2jXfEXL7dXhs6bsLmyLFLfmAkXBzA9WE",
        "reception_time": "2022-01-19T07:05:12.146-00:00",
        "included_in_blocks":
          [ "BLHUnf44YWFvaba97CHhErNPeVjp761J1Fwm4vT1qWbJjWdsZko" ] },
      { "delegate": "tz1T7duV5gZWSTq4YpBGbXNLTfznCLDrFxvs",
        "reception_time": "2022-01-19T07:05:11.587-00:00",
        "included_in_blocks":
          [ "BLHUnf44YWFvaba97CHhErNPeVjp761J1Fwm4vT1qWbJjWdsZko" ] },
      { "delegate": "tz3NExpXn9aPNZPorRE4SdjJ2RGrfbJgMAaV",
        "reception_time": "2022-01-19T07:05:12.741-00:00",
        "included_in_blocks":
          [ "BLHUnf44YWFvaba97CHhErNPeVjp761J1Fwm4vT1qWbJjWdsZko" ] },
      { "delegate": "tz3bvNMQ95vfAYtG8193ymshqjSvmxiCUuR5",
        "reception_time": "2022-01-19T07:05:11.501-00:00",
        "included_in_blocks":
          [ "BLHUnf44YWFvaba97CHhErNPeVjp761J1Fwm4vT1qWbJjWdsZko" ] },
      { "delegate": "tz3VEZ4k6a4Wx42iyev6i2aVAptTRLEAivNN",
        "reception_time": "2022-01-19T07:05:12.407-00:00",
        "included_in_blocks":
          [ "BLHUnf44YWFvaba97CHhErNPeVjp761J1Fwm4vT1qWbJjWdsZko" ] },
      { "delegate": "tz1NMdMmWZN8QPB8pY4ddncACDg1cHi1xD2e",
        "reception_time": "2022-01-19T07:05:11.102-00:00",
        "included_in_blocks":
          [ "BLHUnf44YWFvaba97CHhErNPeVjp761J1Fwm4vT1qWbJjWdsZko" ] },
      { "delegate": "tz1PeZx7FXy7QRuMREGXGxeipb24RsMMzUNe",
        "reception_time": "2022-01-19T07:05:11.406-00:00",
        "included_in_blocks":
          [ "BLHUnf44YWFvaba97CHhErNPeVjp761J1Fwm4vT1qWbJjWdsZko" ] },
      { "delegate": "tz1NSDFKuRyzHxpfG1AMkyCwEiZ52cbR2mRW",
        "reception_time": "2022-01-19T07:05:11.180-00:00",
        "included_in_blocks":
          [ "BLHUnf44YWFvaba97CHhErNPeVjp761J1Fwm4vT1qWbJjWdsZko" ] },
      { "delegate": "tz1TRqbYbUf2GyrjErf3hBzgBJPzW8y36qEs",
        "reception_time": "2022-01-19T07:05:11.097-00:00",
        "included_in_blocks":
          [ "BLHUnf44YWFvaba97CHhErNPeVjp761J1Fwm4vT1qWbJjWdsZko" ] },
      { "delegate": "tz1TRspM5SeZpaQUhzByXbEvqKF1vnCM2YTK",
        "reception_time": "2022-01-19T07:05:11.021-00:00",
        "included_in_blocks":
          [ "BLHUnf44YWFvaba97CHhErNPeVjp761J1Fwm4vT1qWbJjWdsZko" ] },
      { "delegate": "tz1Tnjaxk6tbAeC2TmMApPh8UsrEVQvhHvx5",
        "reception_time": "2022-01-19T07:05:11.023-00:00",
        "included_in_blocks":
          [ "BLHUnf44YWFvaba97CHhErNPeVjp761J1Fwm4vT1qWbJjWdsZko" ] },
      { "delegate": "tz2FCNBrERXtaTtNX6iimR1UJ5JSDxvdHM93",
        "reception_time": "2022-01-19T07:05:11.027-00:00",
        "included_in_blocks":
          [ "BLHUnf44YWFvaba97CHhErNPeVjp761J1Fwm4vT1qWbJjWdsZko" ] },
      { "delegate": "tz3bTdwZinP8U1JmSweNzVKhmwafqWmFWRfk",
        "reception_time": "2022-01-19T07:05:11.081-00:00",
        "included_in_blocks":
          [ "BLHUnf44YWFvaba97CHhErNPeVjp761J1Fwm4vT1qWbJjWdsZko" ] },
      { "delegate": "tz3S6BBeKgJGXxvLyZ1xzXzMPn11nnFtq5L9",
        "reception_time": "2022-01-19T07:05:10.706-00:00",
        "included_in_blocks":
          [ "BLHUnf44YWFvaba97CHhErNPeVjp761J1Fwm4vT1qWbJjWdsZko" ] },
      { "delegate": "tz1LnWa4AiFCjMezTgSNa65QFoo7DQGEWgEU",
        "reception_time": "2022-01-19T07:05:10.849-00:00",
        "included_in_blocks":
          [ "BLHUnf44YWFvaba97CHhErNPeVjp761J1Fwm4vT1qWbJjWdsZko" ] },
      { "delegate": "tz3RB4aoyjov4KEVRbuhvQ1CKJgBJMWhaeB8",
        "reception_time": "2022-01-19T07:05:10.883-00:00",
        "included_in_blocks":
          [ "BLHUnf44YWFvaba97CHhErNPeVjp761J1Fwm4vT1qWbJjWdsZko" ] },
      { "delegate": "tz3QT9dHYKDqh563chVa6za8526ys1UKfRfL",
        "reception_time": "2022-01-19T07:05:10.722-00:00",
        "included_in_blocks":
          [ "BLHUnf44YWFvaba97CHhErNPeVjp761J1Fwm4vT1qWbJjWdsZko" ] },
      { "delegate": "tz1RQhNh7iB9CZA7i3ifTWNwiGYVffponfbB",
        "reception_time": "2022-01-19T07:05:10.585-00:00",
        "included_in_blocks":
          [ "BLHUnf44YWFvaba97CHhErNPeVjp761J1Fwm4vT1qWbJjWdsZko" ] },
      { "delegate": "tz3UoffC7FG7zfpmvmjUmUeAaHvzdcUvAj6r",
        "reception_time": "2022-01-19T07:05:12.180-00:00",
        "included_in_blocks":
          [ "BLHUnf44YWFvaba97CHhErNPeVjp761J1Fwm4vT1qWbJjWdsZko" ] },
      { "delegate": "tz1Nf6tsK4G6bBqgSQERy4nUtkHNKUVdh7q1",
        "reception_time": "2022-01-19T07:05:10.566-00:00",
        "included_in_blocks":
          [ "BLHUnf44YWFvaba97CHhErNPeVjp761J1Fwm4vT1qWbJjWdsZko" ] },
      { "delegate": "tz1gfArv665EUkSg2ojMBzcbfwuPxAvqPvjo",
        "reception_time": "2022-01-19T07:05:10.476-00:00",
        "included_in_blocks":
          [ "BLHUnf44YWFvaba97CHhErNPeVjp761J1Fwm4vT1qWbJjWdsZko" ] },
      { "delegate": "tz1WBfwbT66FC6BTLexc2BoyCCBM9LG7pnVW",
        "reception_time": "2022-01-19T07:05:10.651-00:00",
        "included_in_blocks":
          [ "BLHUnf44YWFvaba97CHhErNPeVjp761J1Fwm4vT1qWbJjWdsZko" ] },
      { "delegate": "tz3WMqdzXqRWXwyvj5Hp2H7QEepaUuS7vd9K",
        "reception_time": "2022-01-19T07:05:11.511-00:00",
        "included_in_blocks":
          [ "BLHUnf44YWFvaba97CHhErNPeVjp761J1Fwm4vT1qWbJjWdsZko" ] },
      { "delegate": "tz3iJu5vrKZcsqRPs8yJ61UDoeEXZmtro4qh",
        "reception_time": "2022-01-19T07:05:10.433-00:00",
        "included_in_blocks":
          [ "BLHUnf44YWFvaba97CHhErNPeVjp761J1Fwm4vT1qWbJjWdsZko" ] },
      { "delegate": "tz1h4GUAMweP7SNWzDgvMk3yRCAZyaP1MxZq",
        "reception_time": "2022-01-19T07:05:10.258-00:00",
        "included_in_blocks":
          [ "BLHUnf44YWFvaba97CHhErNPeVjp761J1Fwm4vT1qWbJjWdsZko" ] },
      { "delegate": "tz3Zhs2dygr55yHyQyKjntAtY9bgfhLZ4Xj1",
        "reception_time": "2022-01-19T07:05:10.449-00:00",
        "included_in_blocks":
          [ "BLHUnf44YWFvaba97CHhErNPeVjp761J1Fwm4vT1qWbJjWdsZko" ] },
      { "delegate": "tz3gtoUxdudfBRcNY7iVdKPHCYYX6xdPpoRS",
        "reception_time": "2022-01-19T07:05:10.279-00:00",
        "included_in_blocks":
          [ "BLHUnf44YWFvaba97CHhErNPeVjp761J1Fwm4vT1qWbJjWdsZko" ] },
      { "delegate": "tz3QSGPoRp3Kn7n3vY24eYeu3Peuqo45LQ4D",
        "reception_time": "2022-01-19T07:05:10.136-00:00",
        "included_in_blocks":
          [ "BLHUnf44YWFvaba97CHhErNPeVjp761J1Fwm4vT1qWbJjWdsZko" ] },
      { "delegate": "tz1WCd2jm4uSt4vntk4vSuUWoZQGhLcDuR9q",
        "reception_time": "2022-01-19T07:05:10.113-00:00",
        "included_in_blocks":
          [ "BLHUnf44YWFvaba97CHhErNPeVjp761J1Fwm4vT1qWbJjWdsZko" ] },
      { "delegate": "tz1gUNyn3hmnEWqkusWPzxRaon1cs7ndWh7h",
        "reception_time": "2022-01-19T07:05:09.998-00:00",
        "included_in_blocks":
          [ "BLHUnf44YWFvaba97CHhErNPeVjp761J1Fwm4vT1qWbJjWdsZko" ] },
      { "delegate": "tz3hw2kqXhLUvY65ca1eety2oQTpAvd34R9Q",
        "reception_time": "2022-01-19T07:05:10.009-00:00",
        "included_in_blocks":
          [ "BLHUnf44YWFvaba97CHhErNPeVjp761J1Fwm4vT1qWbJjWdsZko" ] },
      { "delegate": "tz1RjoHc98dBoqaH2jawF62XNKh7YsHwbkEv",
        "reception_time": "2022-01-19T07:05:10.579-00:00",
        "included_in_blocks":
          [ "BLHUnf44YWFvaba97CHhErNPeVjp761J1Fwm4vT1qWbJjWdsZko" ] },
      { "delegate": "tz3RKYFsLuQzKBtmYuLNas7uMu3AsYd4QdsA",
        "reception_time": "2022-01-19T07:05:10.021-00:00",
        "included_in_blocks":
          [ "BLHUnf44YWFvaba97CHhErNPeVjp761J1Fwm4vT1qWbJjWdsZko" ] },
      { "delegate": "tz3ZbP2pM3nwvXztbuMJwJnDvV5xdpU8UkkD",
        "reception_time": "2022-01-19T07:05:09.992-00:00",
        "included_in_blocks":
          [ "BLHUnf44YWFvaba97CHhErNPeVjp761J1Fwm4vT1qWbJjWdsZko" ] },
      { "delegate": "tz1KfEsrtDaA1sX7vdM4qmEPWuSytuqCDp5j",
        "reception_time": "2022-01-19T07:05:10.554-00:00",
        "included_in_blocks":
          [ "BLHUnf44YWFvaba97CHhErNPeVjp761J1Fwm4vT1qWbJjWdsZko" ] },
      { "delegate": "tz1bZ8vsMAXmaWEV7FRnyhcuUs2fYMaQ6Hkk",
        "reception_time": "2022-01-19T07:05:10.464-00:00",
        "included_in_blocks":
          [ "BLHUnf44YWFvaba97CHhErNPeVjp761J1Fwm4vT1qWbJjWdsZko" ] },
      { "delegate": "tz1S8MNvuFEUsWgjHvi3AxibRBf388NhT1q2",
        "reception_time": "2022-01-19T07:05:10.564-00:00",
        "included_in_blocks":
          [ "BLHUnf44YWFvaba97CHhErNPeVjp761J1Fwm4vT1qWbJjWdsZko" ] },
      { "delegate": "tz1fPKAtsYydh4f1wfWNfeNxWYu72TmM48fu",
        "reception_time": "2022-01-19T07:05:10.287-00:00",
        "included_in_blocks":
          [ "BLHUnf44YWFvaba97CHhErNPeVjp761J1Fwm4vT1qWbJjWdsZko" ] },
      { "delegate": "tz1ei4WtWEMEJekSv8qDnu9PExG6Q8HgRGr3",
        "reception_time": "2022-01-19T07:05:09.983-00:00",
        "included_in_blocks":
          [ "BLHUnf44YWFvaba97CHhErNPeVjp761J1Fwm4vT1qWbJjWdsZko" ] },
      { "delegate": "tz1Ldzz6k1BHdhuKvAtMRX7h5kJSMHESMHLC",
        "reception_time": "2022-01-19T07:05:09.940-00:00",
        "included_in_blocks":
          [ "BLHUnf44YWFvaba97CHhErNPeVjp761J1Fwm4vT1qWbJjWdsZko" ] },
      { "delegate": "tz1irJKkXS2DBWkU1NnmFQx1c1L7pbGg4yhk",
        "reception_time": "2022-01-19T07:05:09.955-00:00",
        "included_in_blocks":
          [ "BLHUnf44YWFvaba97CHhErNPeVjp761J1Fwm4vT1qWbJjWdsZko" ] },
      { "delegate": "tz3e7LbZvUtoXhpUD1yb6wuFodZpfYRb9nWJ",
        "reception_time": "2022-01-19T07:05:09.981-00:00",
        "included_in_blocks":
          [ "BLHUnf44YWFvaba97CHhErNPeVjp761J1Fwm4vT1qWbJjWdsZko" ] },
      { "delegate": "tz1MQJPGNMijnXnVoBENFz9rUhaPt3S7rWoz",
        "reception_time": "2022-01-19T07:05:10.480-00:00",
        "included_in_blocks":
          [ "BLHUnf44YWFvaba97CHhErNPeVjp761J1Fwm4vT1qWbJjWdsZko" ] },
      { "delegate": "tz1VQnqCCqX4K5sP3FNkVSNKTdCAMJDd3E1n",
        "reception_time": "2022-01-19T07:05:09.974-00:00",
        "included_in_blocks":
          [ "BLHUnf44YWFvaba97CHhErNPeVjp761J1Fwm4vT1qWbJjWdsZko" ] },
      { "delegate": "tz1beersuEDv8Z7ngQ825xfbaJNS2EhXnyHR",
        "reception_time": "2022-01-19T07:05:09.951-00:00",
        "included_in_blocks":
          [ "BLHUnf44YWFvaba97CHhErNPeVjp761J1Fwm4vT1qWbJjWdsZko" ] },
      { "delegate": "tz1SYq214SCBy9naR6cvycQsYcUGpBqQAE8d",
        "reception_time": "2022-01-19T07:05:10.470-00:00",
        "included_in_blocks":
          [ "BLHUnf44YWFvaba97CHhErNPeVjp761J1Fwm4vT1qWbJjWdsZko" ] },
      { "delegate": "tz1TEc75UKXv4W5cwi14Na3NtqFD51yKQi7h",
        "reception_time": "2022-01-19T07:05:10.001-00:00",
        "included_in_blocks":
          [ "BLHUnf44YWFvaba97CHhErNPeVjp761J1Fwm4vT1qWbJjWdsZko" ] },
      { "delegate": "tz1RCFbB9GpALpsZtu6J58sb74dm8qe6XBzv",
        "reception_time": "2022-01-19T07:05:10.013-00:00",
        "included_in_blocks":
          [ "BLHUnf44YWFvaba97CHhErNPeVjp761J1Fwm4vT1qWbJjWdsZko" ] },
      { "delegate": "tz1P2Po7YM526ughEsRbY4oR9zaUPDZjxFrb",
        "reception_time": "2022-01-19T07:05:09.916-00:00",
        "included_in_blocks":
          [ "BLHUnf44YWFvaba97CHhErNPeVjp761J1Fwm4vT1qWbJjWdsZko" ] },
      { "delegate": "tz1eEnQhbwf6trb8Q8mPb2RaPkNk2rN7BKi8",
        "reception_time": "2022-01-19T07:05:09.947-00:00",
        "included_in_blocks":
          [ "BLHUnf44YWFvaba97CHhErNPeVjp761J1Fwm4vT1qWbJjWdsZko" ] },
      { "delegate": "tz1V4qCyvPKZ5UeqdH14HN42rxvNPQfc9UZg",
        "reception_time": "2022-01-19T07:05:09.923-00:00",
        "included_in_blocks":
          [ "BLHUnf44YWFvaba97CHhErNPeVjp761J1Fwm4vT1qWbJjWdsZko" ] },
      { "delegate": "tz1Kt4P8BCaP93AEV4eA7gmpRryWt5hznjCP",
        "reception_time": "2022-01-19T07:05:09.958-00:00",
        "included_in_blocks":
          [ "BLHUnf44YWFvaba97CHhErNPeVjp761J1Fwm4vT1qWbJjWdsZko" ] },
      { "delegate": "tz1TXzyaKUA8wsWefdSnyaYFnV2M3vCV7er9",
        "reception_time": "2022-01-19T07:05:09.912-00:00",
        "included_in_blocks":
          [ "BLHUnf44YWFvaba97CHhErNPeVjp761J1Fwm4vT1qWbJjWdsZko" ] },
      { "delegate": "tz1Scdr2HsZiQjc7bHMeBbmDRXYVvdhjJbBh",
        "reception_time": "2022-01-19T07:05:09.828-00:00",
        "included_in_blocks":
          [ "BLHUnf44YWFvaba97CHhErNPeVjp761J1Fwm4vT1qWbJjWdsZko" ] } ] }