{ "blocks":
    [ { "hash": "BL9cwjU9k5fpu9Jvf3ywQZtJNAYrkKD8U6mWK4APZCmTjFXfrLD",
        "delegate": "tz3QT9dHYKDqh563chVa6za8526ys1UKfRfL",
        "reception_time": "2022-01-19T06:55:06.774-00:00",
        "timestamp": "2022-01-19T06:55:00Z" } ],
  "endorsements":
    [ { "delegate": "tz1NdhRv643wLW6zCcRP3VfT24dvDnh7nuh9" },
      { "delegate": "tz1S8e9GgdZG78XJRB3NqabfWeM37GnhZMWQ",
        "reception_time": "2022-01-19T06:55:06.503-00:00",
        "errors":
          [ { "kind": "temporary",
              "id": "proto.011-PtHangz2.prefilter.outdated_endorsement" } ],
        "included_in_blocks":
          [ "BM8gTb61GyER9JNMKvyzNqCUBQDBCGvcPE7a9uSnwvfwbJtytq8" ] },
      { "delegate": "tz1cM8Xc7ZP1TrjkTeKq4PeRhtbnwXSBR6Sw",
        "reception_time": "2022-01-19T06:55:11.701-00:00",
        "included_in_blocks":
          [ "BM8gTb61GyER9JNMKvyzNqCUBQDBCGvcPE7a9uSnwvfwbJtytq8" ] },
      { "delegate": "tz1Uoy4PdQDDiHRRec77pJEQJ21tSyksarur",
        "reception_time": "2022-01-19T06:55:11.510-00:00",
        "included_in_blocks":
          [ "BM8gTb61GyER9JNMKvyzNqCUBQDBCGvcPE7a9uSnwvfwbJtytq8" ] },
      { "delegate": "tz3NExpXn9aPNZPorRE4SdjJ2RGrfbJgMAaV",
        "reception_time": "2022-01-19T06:55:10.776-00:00",
        "included_in_blocks":
          [ "BM8gTb61GyER9JNMKvyzNqCUBQDBCGvcPE7a9uSnwvfwbJtytq8" ] },
      { "delegate": "tz1aRoaRhSpRYvFdyvgWLL6TGyRoGF51wDjM",
        "reception_time": "2022-01-19T06:55:10.701-00:00",
        "included_in_blocks":
          [ "BM8gTb61GyER9JNMKvyzNqCUBQDBCGvcPE7a9uSnwvfwbJtytq8" ] },
      { "delegate": "tz1dRKU4FQ9QRRQPdaH4zCR6gmCmXfcvcgtB",
        "reception_time": "2022-01-19T06:55:10.674-00:00",
        "included_in_blocks":
          [ "BM8gTb61GyER9JNMKvyzNqCUBQDBCGvcPE7a9uSnwvfwbJtytq8" ] },
      { "delegate": "tz1awXW7wuXy21c66vBudMXQVAPgRnqqwgTH",
        "reception_time": "2022-01-19T06:55:10.692-00:00",
        "included_in_blocks":
          [ "BM8gTb61GyER9JNMKvyzNqCUBQDBCGvcPE7a9uSnwvfwbJtytq8" ] },
      { "delegate": "tz1g8vkmcde6sWKaG2NN9WKzCkDM6Rziq194",
        "reception_time": "2022-01-19T06:55:10.472-00:00",
        "included_in_blocks":
          [ "BM8gTb61GyER9JNMKvyzNqCUBQDBCGvcPE7a9uSnwvfwbJtytq8" ] },
      { "delegate": "tz3VEZ4k6a4Wx42iyev6i2aVAptTRLEAivNN",
        "reception_time": "2022-01-19T06:55:10.458-00:00",
        "included_in_blocks":
          [ "BM8gTb61GyER9JNMKvyzNqCUBQDBCGvcPE7a9uSnwvfwbJtytq8" ] },
      { "delegate": "tz1T7duV5gZWSTq4YpBGbXNLTfznCLDrFxvs",
        "reception_time": "2022-01-19T06:55:10.416-00:00",
        "included_in_blocks":
          [ "BM8gTb61GyER9JNMKvyzNqCUBQDBCGvcPE7a9uSnwvfwbJtytq8" ] },
      { "delegate": "tz1cYufsxHXJcvANhvS55h3aY32a9BAFB494",
        "reception_time": "2022-01-19T06:55:10.379-00:00",
        "included_in_blocks":
          [ "BM8gTb61GyER9JNMKvyzNqCUBQDBCGvcPE7a9uSnwvfwbJtytq8" ] },
      { "delegate": "tz1LmaFsWRkjr7QMCx5PtV6xTUz3AmEpKQiF",
        "reception_time": "2022-01-19T06:55:10.335-00:00",
        "included_in_blocks":
          [ "BM8gTb61GyER9JNMKvyzNqCUBQDBCGvcPE7a9uSnwvfwbJtytq8" ] },
      { "delegate": "tz1R6Ej25VSerE3MkSoEEeBjKHCDTFbpKuSX",
        "reception_time": "2022-01-19T06:55:10.326-00:00",
        "included_in_blocks":
          [ "BM8gTb61GyER9JNMKvyzNqCUBQDBCGvcPE7a9uSnwvfwbJtytq8" ] },
      { "delegate": "tz1KfEsrtDaA1sX7vdM4qmEPWuSytuqCDp5j",
        "reception_time": "2022-01-19T06:55:10.385-00:00",
        "included_in_blocks":
          [ "BM8gTb61GyER9JNMKvyzNqCUBQDBCGvcPE7a9uSnwvfwbJtytq8" ] },
      { "delegate": "tz3WMqdzXqRWXwyvj5Hp2H7QEepaUuS7vd9K",
        "reception_time": "2022-01-19T06:55:10.269-00:00",
        "included_in_blocks":
          [ "BM8gTb61GyER9JNMKvyzNqCUBQDBCGvcPE7a9uSnwvfwbJtytq8" ] },
      { "delegate": "tz1NEKxGEHsFufk87CVZcrqWu8o22qh46GK6",
        "reception_time": "2022-01-19T06:55:10.161-00:00",
        "included_in_blocks":
          [ "BM8gTb61GyER9JNMKvyzNqCUBQDBCGvcPE7a9uSnwvfwbJtytq8" ] },
      { "delegate": "tz1RjoHc98dBoqaH2jawF62XNKh7YsHwbkEv",
        "reception_time": "2022-01-19T06:55:10.315-00:00",
        "included_in_blocks":
          [ "BM8gTb61GyER9JNMKvyzNqCUBQDBCGvcPE7a9uSnwvfwbJtytq8" ] },
      { "delegate": "tz1R4PuhxUxBBZhfLJDx2nNjbr7WorAPX1oC",
        "reception_time": "2022-01-19T06:55:10.002-00:00",
        "included_in_blocks":
          [ "BM8gTb61GyER9JNMKvyzNqCUBQDBCGvcPE7a9uSnwvfwbJtytq8" ] },
      { "delegate": "tz1cSj7fTex3JPd1p1LN1fwek6AV1kH93Wwc",
        "reception_time": "2022-01-19T06:55:09.955-00:00",
        "included_in_blocks":
          [ "BM8gTb61GyER9JNMKvyzNqCUBQDBCGvcPE7a9uSnwvfwbJtytq8" ] },
      { "delegate": "tz1Nf6tsK4G6bBqgSQERy4nUtkHNKUVdh7q1",
        "reception_time": "2022-01-19T06:55:09.932-00:00",
        "included_in_blocks":
          [ "BM8gTb61GyER9JNMKvyzNqCUBQDBCGvcPE7a9uSnwvfwbJtytq8" ] },
      { "delegate": "tz1WBfwbT66FC6BTLexc2BoyCCBM9LG7pnVW",
        "reception_time": "2022-01-19T06:55:09.926-00:00",
        "included_in_blocks":
          [ "BM8gTb61GyER9JNMKvyzNqCUBQDBCGvcPE7a9uSnwvfwbJtytq8" ] },
      { "delegate": "tz1Tnjaxk6tbAeC2TmMApPh8UsrEVQvhHvx5",
        "reception_time": "2022-01-19T06:55:09.934-00:00",
        "included_in_blocks":
          [ "BM8gTb61GyER9JNMKvyzNqCUBQDBCGvcPE7a9uSnwvfwbJtytq8" ] },
      { "delegate": "tz1fZ767VDbqx4DeKiFswPSHh513f51mKEUZ",
        "reception_time": "2022-01-19T06:55:09.921-00:00",
        "included_in_blocks":
          [ "BM8gTb61GyER9JNMKvyzNqCUBQDBCGvcPE7a9uSnwvfwbJtytq8" ] },
      { "delegate": "tz1MQMiZHV8q4tTwUMWmS5Y3kaP6J2136iXr",
        "reception_time": "2022-01-19T06:55:09.937-00:00",
        "included_in_blocks":
          [ "BM8gTb61GyER9JNMKvyzNqCUBQDBCGvcPE7a9uSnwvfwbJtytq8" ] },
      { "delegate": "tz1dNVDWPf3Q59SdJqnjdnu277iyvReiRS9M",
        "reception_time": "2022-01-19T06:55:09.941-00:00",
        "included_in_blocks":
          [ "BM8gTb61GyER9JNMKvyzNqCUBQDBCGvcPE7a9uSnwvfwbJtytq8" ] },
      { "delegate": "tz1cZfFQpcYhwDp7y1njZXDsZqCrn2NqmVof",
        "reception_time": "2022-01-19T06:55:09.529-00:00",
        "included_in_blocks":
          [ "BM8gTb61GyER9JNMKvyzNqCUBQDBCGvcPE7a9uSnwvfwbJtytq8" ] },
      { "delegate": "tz1SYq214SCBy9naR6cvycQsYcUGpBqQAE8d",
        "reception_time": "2022-01-19T06:55:09.881-00:00",
        "included_in_blocks":
          [ "BM8gTb61GyER9JNMKvyzNqCUBQDBCGvcPE7a9uSnwvfwbJtytq8" ] },
      { "delegate": "tz1S8MNvuFEUsWgjHvi3AxibRBf388NhT1q2",
        "reception_time": "2022-01-19T06:55:09.908-00:00",
        "included_in_blocks":
          [ "BM8gTb61GyER9JNMKvyzNqCUBQDBCGvcPE7a9uSnwvfwbJtytq8" ] },
      { "delegate": "tz1RQhNh7iB9CZA7i3ifTWNwiGYVffponfbB",
        "reception_time": "2022-01-19T06:55:09.898-00:00",
        "included_in_blocks":
          [ "BM8gTb61GyER9JNMKvyzNqCUBQDBCGvcPE7a9uSnwvfwbJtytq8" ] },
      { "delegate": "tz1ei4WtWEMEJekSv8qDnu9PExG6Q8HgRGr3",
        "reception_time": "2022-01-19T06:55:09.520-00:00",
        "included_in_blocks":
          [ "BM8gTb61GyER9JNMKvyzNqCUBQDBCGvcPE7a9uSnwvfwbJtytq8" ] },
      { "delegate": "tz2FCNBrERXtaTtNX6iimR1UJ5JSDxvdHM93",
        "reception_time": "2022-01-19T06:55:09.904-00:00",
        "included_in_blocks":
          [ "BM8gTb61GyER9JNMKvyzNqCUBQDBCGvcPE7a9uSnwvfwbJtytq8" ] },
      { "delegate": "tz1YhNsiRRU8aHNGg7NK3uuP6UDAyacJernB",
        "reception_time": "2022-01-19T06:55:09.508-00:00",
        "included_in_blocks":
          [ "BM8gTb61GyER9JNMKvyzNqCUBQDBCGvcPE7a9uSnwvfwbJtytq8" ] },
      { "delegate": "tz1gfArv665EUkSg2ojMBzcbfwuPxAvqPvjo",
        "reception_time": "2022-01-19T06:55:09.090-00:00",
        "included_in_blocks":
          [ "BM8gTb61GyER9JNMKvyzNqCUBQDBCGvcPE7a9uSnwvfwbJtytq8" ] },
      { "delegate": "tz1V4qCyvPKZ5UeqdH14HN42rxvNPQfc9UZg",
        "reception_time": "2022-01-19T06:55:09.537-00:00",
        "included_in_blocks":
          [ "BM8gTb61GyER9JNMKvyzNqCUBQDBCGvcPE7a9uSnwvfwbJtytq8" ] },
      { "delegate": "tz3RB4aoyjov4KEVRbuhvQ1CKJgBJMWhaeB8",
        "reception_time": "2022-01-19T06:55:09.120-00:00",
        "included_in_blocks":
          [ "BM8gTb61GyER9JNMKvyzNqCUBQDBCGvcPE7a9uSnwvfwbJtytq8" ] },
      { "delegate": "tz3bvNMQ95vfAYtG8193ymshqjSvmxiCUuR5",
        "reception_time": "2022-01-19T06:55:08.997-00:00",
        "included_in_blocks":
          [ "BM8gTb61GyER9JNMKvyzNqCUBQDBCGvcPE7a9uSnwvfwbJtytq8" ] },
      { "delegate": "tz3RDC3Jdn4j15J7bBHZd29EUee9gVB1CxD9",
        "reception_time": "2022-01-19T06:55:09.025-00:00",
        "included_in_blocks":
          [ "BM8gTb61GyER9JNMKvyzNqCUBQDBCGvcPE7a9uSnwvfwbJtytq8" ] },
      { "delegate": "tz1RCFbB9GpALpsZtu6J58sb74dm8qe6XBzv",
        "reception_time": "2022-01-19T06:55:08.940-00:00",
        "included_in_blocks":
          [ "BM8gTb61GyER9JNMKvyzNqCUBQDBCGvcPE7a9uSnwvfwbJtytq8" ] },
      { "delegate": "tz3bTdwZinP8U1JmSweNzVKhmwafqWmFWRfk",
        "reception_time": "2022-01-19T06:55:08.909-00:00",
        "included_in_blocks":
          [ "BM8gTb61GyER9JNMKvyzNqCUBQDBCGvcPE7a9uSnwvfwbJtytq8" ] },
      { "delegate": "tz1PWCDnz783NNGGQjEFFsHtrcK5yBW4E2rm",
        "reception_time": "2022-01-19T06:55:08.923-00:00",
        "included_in_blocks":
          [ "BM8gTb61GyER9JNMKvyzNqCUBQDBCGvcPE7a9uSnwvfwbJtytq8" ] },
      { "delegate": "tz1d6Fx42mYgVFnHUW8T8A7WBfJ6nD9pVok8",
        "reception_time": "2022-01-19T06:55:08.715-00:00",
        "included_in_blocks":
          [ "BM8gTb61GyER9JNMKvyzNqCUBQDBCGvcPE7a9uSnwvfwbJtytq8" ] },
      { "delegate": "tz1WCd2jm4uSt4vntk4vSuUWoZQGhLcDuR9q",
        "reception_time": "2022-01-19T06:55:08.596-00:00",
        "included_in_blocks":
          [ "BM8gTb61GyER9JNMKvyzNqCUBQDBCGvcPE7a9uSnwvfwbJtytq8" ] },
      { "delegate": "tz3adcvQaKXTCg12zbninqo3q8ptKKtDFTLv",
        "reception_time": "2022-01-19T06:55:08.541-00:00",
        "included_in_blocks":
          [ "BM8gTb61GyER9JNMKvyzNqCUBQDBCGvcPE7a9uSnwvfwbJtytq8" ] },
      { "delegate": "tz3RKYFsLuQzKBtmYuLNas7uMu3AsYd4QdsA",
        "reception_time": "2022-01-19T06:55:08.396-00:00",
        "included_in_blocks":
          [ "BM8gTb61GyER9JNMKvyzNqCUBQDBCGvcPE7a9uSnwvfwbJtytq8" ] },
      { "delegate": "tz1VmiY38m3y95HqQLjMwqnMS7sdMfGomzKi",
        "reception_time": "2022-01-19T06:55:08.403-00:00",
        "included_in_blocks":
          [ "BM8gTb61GyER9JNMKvyzNqCUBQDBCGvcPE7a9uSnwvfwbJtytq8" ] },
      { "delegate": "tz3iJu5vrKZcsqRPs8yJ61UDoeEXZmtro4qh",
        "reception_time": "2022-01-19T06:55:08.387-00:00",
        "included_in_blocks":
          [ "BM8gTb61GyER9JNMKvyzNqCUBQDBCGvcPE7a9uSnwvfwbJtytq8" ] },
      { "delegate": "tz3Zhs2dygr55yHyQyKjntAtY9bgfhLZ4Xj1",
        "reception_time": "2022-01-19T06:55:08.374-00:00",
        "included_in_blocks":
          [ "BM8gTb61GyER9JNMKvyzNqCUBQDBCGvcPE7a9uSnwvfwbJtytq8" ] },
      { "delegate": "tz3QSGPoRp3Kn7n3vY24eYeu3Peuqo45LQ4D",
        "reception_time": "2022-01-19T06:55:08.425-00:00",
        "included_in_blocks":
          [ "BM8gTb61GyER9JNMKvyzNqCUBQDBCGvcPE7a9uSnwvfwbJtytq8" ] },
      { "delegate": "tz3gtoUxdudfBRcNY7iVdKPHCYYX6xdPpoRS",
        "reception_time": "2022-01-19T06:55:08.324-00:00",
        "included_in_blocks":
          [ "BM8gTb61GyER9JNMKvyzNqCUBQDBCGvcPE7a9uSnwvfwbJtytq8" ] },
      { "delegate": "tz3hw2kqXhLUvY65ca1eety2oQTpAvd34R9Q",
        "reception_time": "2022-01-19T06:55:08.374-00:00",
        "included_in_blocks":
          [ "BM8gTb61GyER9JNMKvyzNqCUBQDBCGvcPE7a9uSnwvfwbJtytq8" ] },
      { "delegate": "tz1Kt4P8BCaP93AEV4eA7gmpRryWt5hznjCP",
        "reception_time": "2022-01-19T06:55:08.342-00:00",
        "included_in_blocks":
          [ "BM8gTb61GyER9JNMKvyzNqCUBQDBCGvcPE7a9uSnwvfwbJtytq8" ] },
      { "delegate": "tz1gUNyn3hmnEWqkusWPzxRaon1cs7ndWh7h",
        "reception_time": "2022-01-19T06:55:08.358-00:00",
        "included_in_blocks":
          [ "BM8gTb61GyER9JNMKvyzNqCUBQDBCGvcPE7a9uSnwvfwbJtytq8" ] },
      { "delegate": "tz1VQnqCCqX4K5sP3FNkVSNKTdCAMJDd3E1n",
        "reception_time": "2022-01-19T06:55:08.387-00:00",
        "included_in_blocks":
          [ "BM8gTb61GyER9JNMKvyzNqCUBQDBCGvcPE7a9uSnwvfwbJtytq8" ] },
      { "delegate": "tz3QT9dHYKDqh563chVa6za8526ys1UKfRfL",
        "reception_time": "2022-01-19T06:55:08.349-00:00",
        "included_in_blocks":
          [ "BM8gTb61GyER9JNMKvyzNqCUBQDBCGvcPE7a9uSnwvfwbJtytq8" ] },
      { "delegate": "tz3S6BBeKgJGXxvLyZ1xzXzMPn11nnFtq5L9",
        "reception_time": "2022-01-19T06:55:08.301-00:00",
        "included_in_blocks":
          [ "BM8gTb61GyER9JNMKvyzNqCUBQDBCGvcPE7a9uSnwvfwbJtytq8" ] },
      { "delegate": "tz1TzaNn7wSQSP5gYPXCnNzBCpyMiidCq1PX",
        "reception_time": "2022-01-19T06:55:08.317-00:00",
        "included_in_blocks":
          [ "BM8gTb61GyER9JNMKvyzNqCUBQDBCGvcPE7a9uSnwvfwbJtytq8" ] },
      { "delegate": "tz1Ldzz6k1BHdhuKvAtMRX7h5kJSMHESMHLC",
        "reception_time": "2022-01-19T06:55:08.354-00:00",
        "included_in_blocks":
          [ "BM8gTb61GyER9JNMKvyzNqCUBQDBCGvcPE7a9uSnwvfwbJtytq8" ] },
      { "delegate": "tz3ZbP2pM3nwvXztbuMJwJnDvV5xdpU8UkkD",
        "reception_time": "2022-01-19T06:55:08.308-00:00",
        "included_in_blocks":
          [ "BM8gTb61GyER9JNMKvyzNqCUBQDBCGvcPE7a9uSnwvfwbJtytq8" ] },
      { "delegate": "tz1d9ek6HrScY6QRZ71NJdB85MNz8gKGBjrv",
        "reception_time": "2022-01-19T06:55:08.292-00:00",
        "included_in_blocks":
          [ "BM8gTb61GyER9JNMKvyzNqCUBQDBCGvcPE7a9uSnwvfwbJtytq8" ] },
      { "delegate": "tz3NxTnke1acr8o3h5y9ytf5awQBGNJUKzVU",
        "reception_time": "2022-01-19T06:55:08.315-00:00",
        "included_in_blocks":
          [ "BM8gTb61GyER9JNMKvyzNqCUBQDBCGvcPE7a9uSnwvfwbJtytq8" ] },
      { "delegate": "tz1Kf25fX1VdmYGSEzwFy1wNmkbSEZ2V83sY",
        "reception_time": "2022-01-19T06:55:08.301-00:00",
        "included_in_blocks":
          [ "BM8gTb61GyER9JNMKvyzNqCUBQDBCGvcPE7a9uSnwvfwbJtytq8" ] },
      { "delegate": "tz1ZPh7XfUaJXUDvkrBxmS1BjEM1i62hiPpM",
        "reception_time": "2022-01-19T06:55:08.276-00:00",
        "included_in_blocks":
          [ "BM8gTb61GyER9JNMKvyzNqCUBQDBCGvcPE7a9uSnwvfwbJtytq8" ] },
      { "delegate": "tz1irJKkXS2DBWkU1NnmFQx1c1L7pbGg4yhk",
        "reception_time": "2022-01-19T06:55:08.396-00:00",
        "included_in_blocks":
          [ "BM8gTb61GyER9JNMKvyzNqCUBQDBCGvcPE7a9uSnwvfwbJtytq8" ] },
      { "delegate": "tz1P2Po7YM526ughEsRbY4oR9zaUPDZjxFrb",
        "reception_time": "2022-01-19T06:55:08.229-00:00",
        "included_in_blocks":
          [ "BM8gTb61GyER9JNMKvyzNqCUBQDBCGvcPE7a9uSnwvfwbJtytq8" ] },
      { "delegate": "tz1RV1MBbZMR68tacosb7Mwj6LkbPSUS1er1",
        "reception_time": "2022-01-19T06:55:08.272-00:00",
        "included_in_blocks":
          [ "BM8gTb61GyER9JNMKvyzNqCUBQDBCGvcPE7a9uSnwvfwbJtytq8" ] },
      { "delegate": "tz1eEnQhbwf6trb8Q8mPb2RaPkNk2rN7BKi8",
        "reception_time": "2022-01-19T06:55:08.224-00:00",
        "included_in_blocks":
          [ "BM8gTb61GyER9JNMKvyzNqCUBQDBCGvcPE7a9uSnwvfwbJtytq8" ] },
      { "delegate": "tz1TXzyaKUA8wsWefdSnyaYFnV2M3vCV7er9",
        "reception_time": "2022-01-19T06:55:08.235-00:00",
        "included_in_blocks":
          [ "BM8gTb61GyER9JNMKvyzNqCUBQDBCGvcPE7a9uSnwvfwbJtytq8" ] },
      { "delegate": "tz1Scdr2HsZiQjc7bHMeBbmDRXYVvdhjJbBh",
        "reception_time": "2022-01-19T06:55:08.254-00:00",
        "included_in_blocks":
          [ "BM8gTb61GyER9JNMKvyzNqCUBQDBCGvcPE7a9uSnwvfwbJtytq8" ] } ] }