{ "blocks":
    [ { "hash": "BLkYxyPRrT5KtgjagziEvRHU4XuCdsubYZ667Hc5zcMvso6F8xp",
        "delegate": "tz1gfArv665EUkSg2ojMBzcbfwuPxAvqPvjo",
        "reception_time": "2022-01-19T04:59:28.346-00:00",
        "timestamp": "2022-01-19T04:59:20Z" } ],
  "endorsements":
    [ { "delegate": "tz1dbfppLAAxXZNtf2SDps7rch3qfUznKSoK" },
      { "delegate": "tz1S8e9GgdZG78XJRB3NqabfWeM37GnhZMWQ",
        "reception_time": "2022-01-19T04:59:28.212-00:00",
        "errors":
          [ { "kind": "temporary",
              "id": "proto.011-PtHangz2.prefilter.outdated_endorsement" } ],
        "included_in_blocks":
          [ "BM9im7D65CsMf5DEQCG3Thog4XkaeTaWqududwKkotnqBGyEJ9m" ] },
      { "delegate": "tz1gfArv665EUkSg2ojMBzcbfwuPxAvqPvjo",
        "reception_time": "2022-01-19T04:59:28.180-00:00",
        "errors":
          [ { "kind": "temporary",
              "id": "proto.011-PtHangz2.prefilter.outdated_endorsement" } ],
        "included_in_blocks":
          [ "BM9im7D65CsMf5DEQCG3Thog4XkaeTaWqududwKkotnqBGyEJ9m" ] },
      { "delegate": "tz1Zhv3RkfU2pHrmaiDyxp7kFZpZrUCu1CiF",
        "reception_time": "2022-01-19T04:59:47.855-00:00",
        "included_in_blocks":
          [ "BM9im7D65CsMf5DEQCG3Thog4XkaeTaWqududwKkotnqBGyEJ9m" ] },
      { "delegate": "tz2BzJTyoQp8fNbfhWD4YQgH9JJHDgSGzpdG",
        "reception_time": "2022-01-19T04:59:42.390-00:00",
        "included_in_blocks":
          [ "BM9im7D65CsMf5DEQCG3Thog4XkaeTaWqududwKkotnqBGyEJ9m" ] },
      { "delegate": "tz1i5PPsXa711EuZzped9jqPS8hGKsrCMB9f",
        "reception_time": "2022-01-19T04:59:41.365-00:00",
        "included_in_blocks":
          [ "BM9im7D65CsMf5DEQCG3Thog4XkaeTaWqududwKkotnqBGyEJ9m" ] },
      { "delegate": "tz1fUyqYH7H4pRHN1roWY17giXhy1RvxjgUV",
        "reception_time": "2022-01-19T04:59:35.135-00:00",
        "included_in_blocks":
          [ "BM9im7D65CsMf5DEQCG3Thog4XkaeTaWqududwKkotnqBGyEJ9m" ] },
      { "delegate": "tz3bEQoFCZEEfZMskefZ8q8e4eiHH1pssRax",
        "reception_time": "2022-01-19T04:59:33.580-00:00",
        "included_in_blocks":
          [ "BM9im7D65CsMf5DEQCG3Thog4XkaeTaWqududwKkotnqBGyEJ9m" ] },
      { "delegate": "tz1cYufsxHXJcvANhvS55h3aY32a9BAFB494",
        "reception_time": "2022-01-19T04:59:33.249-00:00",
        "included_in_blocks":
          [ "BM9im7D65CsMf5DEQCG3Thog4XkaeTaWqududwKkotnqBGyEJ9m" ] },
      { "delegate": "tz3UoffC7FG7zfpmvmjUmUeAaHvzdcUvAj6r",
        "reception_time": "2022-01-19T04:59:32.374-00:00",
        "included_in_blocks":
          [ "BM9im7D65CsMf5DEQCG3Thog4XkaeTaWqududwKkotnqBGyEJ9m" ] },
      { "delegate": "tz1g8vkmcde6sWKaG2NN9WKzCkDM6Rziq194",
        "reception_time": "2022-01-19T04:59:32.354-00:00",
        "included_in_blocks":
          [ "BM9im7D65CsMf5DEQCG3Thog4XkaeTaWqududwKkotnqBGyEJ9m" ] },
      { "delegate": "tz3NExpXn9aPNZPorRE4SdjJ2RGrfbJgMAaV",
        "reception_time": "2022-01-19T04:59:32.329-00:00",
        "included_in_blocks":
          [ "BM9im7D65CsMf5DEQCG3Thog4XkaeTaWqududwKkotnqBGyEJ9m" ] },
      { "delegate": "tz1aRoaRhSpRYvFdyvgWLL6TGyRoGF51wDjM",
        "reception_time": "2022-01-19T04:59:32.150-00:00",
        "included_in_blocks":
          [ "BM9im7D65CsMf5DEQCG3Thog4XkaeTaWqududwKkotnqBGyEJ9m" ] },
      { "delegate": "tz3WMqdzXqRWXwyvj5Hp2H7QEepaUuS7vd9K",
        "reception_time": "2022-01-19T04:59:32.178-00:00",
        "included_in_blocks":
          [ "BM9im7D65CsMf5DEQCG3Thog4XkaeTaWqududwKkotnqBGyEJ9m" ] },
      { "delegate": "tz1ZcTRk5uxD86EFEn1vvNffWWqJy7q5eVhc",
        "reception_time": "2022-01-19T04:59:31.966-00:00",
        "included_in_blocks":
          [ "BM9im7D65CsMf5DEQCG3Thog4XkaeTaWqududwKkotnqBGyEJ9m" ] },
      { "delegate": "tz3VEZ4k6a4Wx42iyev6i2aVAptTRLEAivNN",
        "reception_time": "2022-01-19T04:59:31.427-00:00",
        "included_in_blocks":
          [ "BM9im7D65CsMf5DEQCG3Thog4XkaeTaWqududwKkotnqBGyEJ9m" ] },
      { "delegate": "tz1awXW7wuXy21c66vBudMXQVAPgRnqqwgTH",
        "reception_time": "2022-01-19T04:59:31.386-00:00",
        "included_in_blocks":
          [ "BM9im7D65CsMf5DEQCG3Thog4XkaeTaWqududwKkotnqBGyEJ9m" ] },
      { "delegate": "tz3gLTu4Yxj8tPAcriQVUdxv6BY9QyvzU1az",
        "reception_time": "2022-01-19T04:59:31.092-00:00",
        "included_in_blocks":
          [ "BM9im7D65CsMf5DEQCG3Thog4XkaeTaWqududwKkotnqBGyEJ9m" ] },
      { "delegate": "tz1WctSwL49BZtdWAQ75NY6vr4xsAx6oKdah",
        "reception_time": "2022-01-19T04:59:31.116-00:00",
        "included_in_blocks":
          [ "BM9im7D65CsMf5DEQCG3Thog4XkaeTaWqududwKkotnqBGyEJ9m" ] },
      { "delegate": "tz1SohptP53wDPZhzTWzDUFAUcWF6DMBpaJV",
        "reception_time": "2022-01-19T04:59:31.120-00:00",
        "included_in_blocks":
          [ "BM9im7D65CsMf5DEQCG3Thog4XkaeTaWqududwKkotnqBGyEJ9m" ] },
      { "delegate": "tz3NDpRj6WBrJPikcPVHRBEjWKxFw3c6eQPS",
        "reception_time": "2022-01-19T04:59:31.076-00:00",
        "included_in_blocks":
          [ "BM9im7D65CsMf5DEQCG3Thog4XkaeTaWqududwKkotnqBGyEJ9m" ] },
      { "delegate": "tz1Nf6tsK4G6bBqgSQERy4nUtkHNKUVdh7q1",
        "reception_time": "2022-01-19T04:59:31.031-00:00",
        "included_in_blocks":
          [ "BM9im7D65CsMf5DEQCG3Thog4XkaeTaWqududwKkotnqBGyEJ9m" ] },
      { "delegate": "tz1MQMiZHV8q4tTwUMWmS5Y3kaP6J2136iXr",
        "reception_time": "2022-01-19T04:59:31.006-00:00",
        "included_in_blocks":
          [ "BM9im7D65CsMf5DEQCG3Thog4XkaeTaWqududwKkotnqBGyEJ9m" ] },
      { "delegate": "tz1NEKxGEHsFufk87CVZcrqWu8o22qh46GK6",
        "reception_time": "2022-01-19T04:59:31.086-00:00",
        "included_in_blocks":
          [ "BM9im7D65CsMf5DEQCG3Thog4XkaeTaWqududwKkotnqBGyEJ9m" ] },
      { "delegate": "tz1WBfwbT66FC6BTLexc2BoyCCBM9LG7pnVW",
        "reception_time": "2022-01-19T04:59:30.826-00:00",
        "included_in_blocks":
          [ "BM9im7D65CsMf5DEQCG3Thog4XkaeTaWqududwKkotnqBGyEJ9m" ] },
      { "delegate": "tz1NRGxXV9h6SdNaZLcgmjuLx3hyy2f8YoGN",
        "reception_time": "2022-01-19T04:59:30.912-00:00",
        "included_in_blocks":
          [ "BM9im7D65CsMf5DEQCG3Thog4XkaeTaWqududwKkotnqBGyEJ9m" ] },
      { "delegate": "tz1RjoHc98dBoqaH2jawF62XNKh7YsHwbkEv",
        "reception_time": "2022-01-19T04:59:30.841-00:00",
        "included_in_blocks":
          [ "BM9im7D65CsMf5DEQCG3Thog4XkaeTaWqududwKkotnqBGyEJ9m" ] },
      { "delegate": "tz1S8MNvuFEUsWgjHvi3AxibRBf388NhT1q2",
        "reception_time": "2022-01-19T04:59:30.734-00:00",
        "included_in_blocks":
          [ "BM9im7D65CsMf5DEQCG3Thog4XkaeTaWqududwKkotnqBGyEJ9m" ] },
      { "delegate": "tz2FCNBrERXtaTtNX6iimR1UJ5JSDxvdHM93",
        "reception_time": "2022-01-19T04:59:30.764-00:00",
        "included_in_blocks":
          [ "BM9im7D65CsMf5DEQCG3Thog4XkaeTaWqududwKkotnqBGyEJ9m" ] },
      { "delegate": "tz1QXrzaHrGACVn15UiCg33aLCJ6npWdQb3J",
        "reception_time": "2022-01-19T04:59:30.700-00:00",
        "included_in_blocks":
          [ "BM9im7D65CsMf5DEQCG3Thog4XkaeTaWqududwKkotnqBGyEJ9m" ] },
      { "delegate": "tz1LmaFsWRkjr7QMCx5PtV6xTUz3AmEpKQiF",
        "reception_time": "2022-01-19T04:59:30.620-00:00",
        "included_in_blocks":
          [ "BM9im7D65CsMf5DEQCG3Thog4XkaeTaWqududwKkotnqBGyEJ9m" ] },
      { "delegate": "tz1RNoDLWUjbqqs6uCHtJKgSLAegutbD8cNe",
        "reception_time": "2022-01-19T04:59:30.469-00:00",
        "included_in_blocks":
          [ "BM9im7D65CsMf5DEQCG3Thog4XkaeTaWqududwKkotnqBGyEJ9m" ] },
      { "delegate": "tz1hYj2SDMv9UfagrUiaAhnCrzoF9RqFK7eM",
        "reception_time": "2022-01-19T04:59:30.642-00:00",
        "included_in_blocks":
          [ "BM9im7D65CsMf5DEQCG3Thog4XkaeTaWqududwKkotnqBGyEJ9m" ] },
      { "delegate": "tz3bTdwZinP8U1JmSweNzVKhmwafqWmFWRfk",
        "reception_time": "2022-01-19T04:59:30.573-00:00",
        "included_in_blocks":
          [ "BM9im7D65CsMf5DEQCG3Thog4XkaeTaWqududwKkotnqBGyEJ9m" ] },
      { "delegate": "tz3RDC3Jdn4j15J7bBHZd29EUee9gVB1CxD9",
        "reception_time": "2022-01-19T04:59:30.565-00:00",
        "included_in_blocks":
          [ "BM9im7D65CsMf5DEQCG3Thog4XkaeTaWqududwKkotnqBGyEJ9m" ] },
      { "delegate": "tz1KfEsrtDaA1sX7vdM4qmEPWuSytuqCDp5j",
        "reception_time": "2022-01-19T04:59:30.548-00:00",
        "included_in_blocks":
          [ "BM9im7D65CsMf5DEQCG3Thog4XkaeTaWqududwKkotnqBGyEJ9m" ] },
      { "delegate": "tz1fb7c66UwePkkfDXz4ajFaBP9hVNLdS7JJ",
        "reception_time": "2022-01-19T04:59:30.261-00:00",
        "included_in_blocks":
          [ "BM9im7D65CsMf5DEQCG3Thog4XkaeTaWqududwKkotnqBGyEJ9m" ] },
      { "delegate": "tz1V4qCyvPKZ5UeqdH14HN42rxvNPQfc9UZg",
        "reception_time": "2022-01-19T04:59:30.433-00:00",
        "included_in_blocks":
          [ "BM9im7D65CsMf5DEQCG3Thog4XkaeTaWqududwKkotnqBGyEJ9m" ] },
      { "delegate": "tz3bvNMQ95vfAYtG8193ymshqjSvmxiCUuR5",
        "reception_time": "2022-01-19T04:59:30.258-00:00",
        "included_in_blocks":
          [ "BM9im7D65CsMf5DEQCG3Thog4XkaeTaWqududwKkotnqBGyEJ9m" ] },
      { "delegate": "tz1dwu9aYb7CRNq4Y2zAjipdjFuSVKhHS8vA",
        "reception_time": "2022-01-19T04:59:30.198-00:00",
        "included_in_blocks":
          [ "BM9im7D65CsMf5DEQCG3Thog4XkaeTaWqududwKkotnqBGyEJ9m" ] },
      { "delegate": "tz3RB4aoyjov4KEVRbuhvQ1CKJgBJMWhaeB8",
        "reception_time": "2022-01-19T04:59:30.144-00:00",
        "included_in_blocks":
          [ "BM9im7D65CsMf5DEQCG3Thog4XkaeTaWqududwKkotnqBGyEJ9m" ] },
      { "delegate": "tz1cZfFQpcYhwDp7y1njZXDsZqCrn2NqmVof",
        "reception_time": "2022-01-19T04:59:30.062-00:00",
        "included_in_blocks":
          [ "BM9im7D65CsMf5DEQCG3Thog4XkaeTaWqududwKkotnqBGyEJ9m" ] },
      { "delegate": "tz3S6BBeKgJGXxvLyZ1xzXzMPn11nnFtq5L9",
        "reception_time": "2022-01-19T04:59:30.131-00:00",
        "included_in_blocks":
          [ "BM9im7D65CsMf5DEQCG3Thog4XkaeTaWqududwKkotnqBGyEJ9m" ] },
      { "delegate": "tz1PWCDnz783NNGGQjEFFsHtrcK5yBW4E2rm",
        "reception_time": "2022-01-19T04:59:30.011-00:00",
        "included_in_blocks":
          [ "BM9im7D65CsMf5DEQCG3Thog4XkaeTaWqududwKkotnqBGyEJ9m" ] },
      { "delegate": "tz3QT9dHYKDqh563chVa6za8526ys1UKfRfL",
        "reception_time": "2022-01-19T04:59:30.062-00:00",
        "included_in_blocks":
          [ "BM9im7D65CsMf5DEQCG3Thog4XkaeTaWqududwKkotnqBGyEJ9m" ] },
      { "delegate": "tz1cSj7fTex3JPd1p1LN1fwek6AV1kH93Wwc",
        "reception_time": "2022-01-19T04:59:30.003-00:00",
        "included_in_blocks":
          [ "BM9im7D65CsMf5DEQCG3Thog4XkaeTaWqududwKkotnqBGyEJ9m" ] },
      { "delegate": "tz1aqcYgG6NuViML5vdWhohHJBYxcDVLNUsE",
        "reception_time": "2022-01-19T04:59:30.048-00:00",
        "included_in_blocks":
          [ "BM9im7D65CsMf5DEQCG3Thog4XkaeTaWqududwKkotnqBGyEJ9m" ] },
      { "delegate": "tz1RCFbB9GpALpsZtu6J58sb74dm8qe6XBzv",
        "reception_time": "2022-01-19T04:59:30.036-00:00",
        "included_in_blocks":
          [ "BM9im7D65CsMf5DEQCG3Thog4XkaeTaWqududwKkotnqBGyEJ9m" ] },
      { "delegate": "tz1h4GUAMweP7SNWzDgvMk3yRCAZyaP1MxZq",
        "reception_time": "2022-01-19T04:59:29.958-00:00",
        "included_in_blocks":
          [ "BM9im7D65CsMf5DEQCG3Thog4XkaeTaWqududwKkotnqBGyEJ9m" ] },
      { "delegate": "tz1abmz7jiCV2GH2u81LRrGgAFFgvQgiDiaf",
        "reception_time": "2022-01-19T04:59:29.969-00:00",
        "included_in_blocks":
          [ "BM9im7D65CsMf5DEQCG3Thog4XkaeTaWqududwKkotnqBGyEJ9m" ] },
      { "delegate": "tz3Zhs2dygr55yHyQyKjntAtY9bgfhLZ4Xj1",
        "reception_time": "2022-01-19T04:59:29.909-00:00",
        "included_in_blocks":
          [ "BM9im7D65CsMf5DEQCG3Thog4XkaeTaWqududwKkotnqBGyEJ9m" ] },
      { "delegate": "tz3QSGPoRp3Kn7n3vY24eYeu3Peuqo45LQ4D",
        "reception_time": "2022-01-19T04:59:29.846-00:00",
        "included_in_blocks":
          [ "BM9im7D65CsMf5DEQCG3Thog4XkaeTaWqududwKkotnqBGyEJ9m" ] },
      { "delegate": "tz3iJu5vrKZcsqRPs8yJ61UDoeEXZmtro4qh",
        "reception_time": "2022-01-19T04:59:29.895-00:00",
        "included_in_blocks":
          [ "BM9im7D65CsMf5DEQCG3Thog4XkaeTaWqududwKkotnqBGyEJ9m" ] },
      { "delegate": "tz1TzaNn7wSQSP5gYPXCnNzBCpyMiidCq1PX",
        "reception_time": "2022-01-19T04:59:29.846-00:00",
        "included_in_blocks":
          [ "BM9im7D65CsMf5DEQCG3Thog4XkaeTaWqududwKkotnqBGyEJ9m" ] },
      { "delegate": "tz1Kt4P8BCaP93AEV4eA7gmpRryWt5hznjCP",
        "reception_time": "2022-01-19T04:59:29.846-00:00",
        "included_in_blocks":
          [ "BM9im7D65CsMf5DEQCG3Thog4XkaeTaWqududwKkotnqBGyEJ9m" ] },
      { "delegate": "tz3gtoUxdudfBRcNY7iVdKPHCYYX6xdPpoRS",
        "reception_time": "2022-01-19T04:59:29.846-00:00",
        "included_in_blocks":
          [ "BM9im7D65CsMf5DEQCG3Thog4XkaeTaWqududwKkotnqBGyEJ9m" ] },
      { "delegate": "tz3RKYFsLuQzKBtmYuLNas7uMu3AsYd4QdsA",
        "reception_time": "2022-01-19T04:59:29.846-00:00",
        "included_in_blocks":
          [ "BM9im7D65CsMf5DEQCG3Thog4XkaeTaWqududwKkotnqBGyEJ9m" ] },
      { "delegate": "tz1YhNsiRRU8aHNGg7NK3uuP6UDAyacJernB",
        "reception_time": "2022-01-19T04:59:29.846-00:00",
        "included_in_blocks":
          [ "BM9im7D65CsMf5DEQCG3Thog4XkaeTaWqududwKkotnqBGyEJ9m" ] },
      { "delegate": "tz1MQJPGNMijnXnVoBENFz9rUhaPt3S7rWoz",
        "reception_time": "2022-01-19T04:59:29.846-00:00",
        "included_in_blocks":
          [ "BM9im7D65CsMf5DEQCG3Thog4XkaeTaWqududwKkotnqBGyEJ9m" ] },
      { "delegate": "tz3hw2kqXhLUvY65ca1eety2oQTpAvd34R9Q",
        "reception_time": "2022-01-19T04:59:29.846-00:00",
        "included_in_blocks":
          [ "BM9im7D65CsMf5DEQCG3Thog4XkaeTaWqududwKkotnqBGyEJ9m" ] },
      { "delegate": "tz1W3VYi3gSt9Xgfw6WNV1aGZRPH2BsskMEY",
        "reception_time": "2022-01-19T04:59:29.846-00:00",
        "included_in_blocks":
          [ "BM9im7D65CsMf5DEQCG3Thog4XkaeTaWqududwKkotnqBGyEJ9m" ] },
      { "delegate": "tz1Ldzz6k1BHdhuKvAtMRX7h5kJSMHESMHLC",
        "reception_time": "2022-01-19T04:59:29.846-00:00",
        "included_in_blocks":
          [ "BM9im7D65CsMf5DEQCG3Thog4XkaeTaWqududwKkotnqBGyEJ9m" ] },
      { "delegate": "tz1VmiY38m3y95HqQLjMwqnMS7sdMfGomzKi",
        "reception_time": "2022-01-19T04:59:29.846-00:00",
        "included_in_blocks":
          [ "BM9im7D65CsMf5DEQCG3Thog4XkaeTaWqududwKkotnqBGyEJ9m" ] },
      { "delegate": "tz1ei4WtWEMEJekSv8qDnu9PExG6Q8HgRGr3",
        "reception_time": "2022-01-19T04:59:29.508-00:00",
        "included_in_blocks":
          [ "BM9im7D65CsMf5DEQCG3Thog4XkaeTaWqududwKkotnqBGyEJ9m" ] },
      { "delegate": "tz1VQnqCCqX4K5sP3FNkVSNKTdCAMJDd3E1n",
        "reception_time": "2022-01-19T04:59:29.508-00:00",
        "included_in_blocks":
          [ "BM9im7D65CsMf5DEQCG3Thog4XkaeTaWqududwKkotnqBGyEJ9m" ] },
      { "delegate": "tz3QCNyySViKHmeSr45kzDxzchys7NiXCWoa",
        "reception_time": "2022-01-19T04:59:29.508-00:00",
        "included_in_blocks":
          [ "BM9im7D65CsMf5DEQCG3Thog4XkaeTaWqududwKkotnqBGyEJ9m" ] },
      { "delegate": "tz1gUNyn3hmnEWqkusWPzxRaon1cs7ndWh7h",
        "reception_time": "2022-01-19T04:59:29.508-00:00",
        "included_in_blocks":
          [ "BM9im7D65CsMf5DEQCG3Thog4XkaeTaWqududwKkotnqBGyEJ9m" ] },
      { "delegate": "tz1Kf25fX1VdmYGSEzwFy1wNmkbSEZ2V83sY",
        "reception_time": "2022-01-19T04:59:29.508-00:00",
        "included_in_blocks":
          [ "BM9im7D65CsMf5DEQCG3Thog4XkaeTaWqududwKkotnqBGyEJ9m" ] },
      { "delegate": "tz3ZbP2pM3nwvXztbuMJwJnDvV5xdpU8UkkD",
        "reception_time": "2022-01-19T04:59:29.508-00:00",
        "included_in_blocks":
          [ "BM9im7D65CsMf5DEQCG3Thog4XkaeTaWqududwKkotnqBGyEJ9m" ] },
      { "delegate": "tz1RG86Gssra8y9CpQXQbThppLMiQmWSTHwv",
        "reception_time": "2022-01-19T04:59:29.508-00:00",
        "included_in_blocks":
          [ "BM9im7D65CsMf5DEQCG3Thog4XkaeTaWqududwKkotnqBGyEJ9m" ] },
      { "delegate": "tz1NMdMmWZN8QPB8pY4ddncACDg1cHi1xD2e",
        "reception_time": "2022-01-19T04:59:29.508-00:00",
        "included_in_blocks":
          [ "BM9im7D65CsMf5DEQCG3Thog4XkaeTaWqududwKkotnqBGyEJ9m" ] },
      { "delegate": "tz1eEnQhbwf6trb8Q8mPb2RaPkNk2rN7BKi8",
        "reception_time": "2022-01-19T04:59:29.508-00:00",
        "included_in_blocks":
          [ "BM9im7D65CsMf5DEQCG3Thog4XkaeTaWqududwKkotnqBGyEJ9m" ] },
      { "delegate": "tz1TRspM5SeZpaQUhzByXbEvqKF1vnCM2YTK",
        "reception_time": "2022-01-19T04:59:29.508-00:00",
        "included_in_blocks":
          [ "BM9im7D65CsMf5DEQCG3Thog4XkaeTaWqududwKkotnqBGyEJ9m" ] },
      { "delegate": "tz1beersuEDv8Z7ngQ825xfbaJNS2EhXnyHR",
        "reception_time": "2022-01-19T04:59:29.508-00:00",
        "included_in_blocks":
          [ "BM9im7D65CsMf5DEQCG3Thog4XkaeTaWqududwKkotnqBGyEJ9m" ] },
      { "delegate": "tz1TXzyaKUA8wsWefdSnyaYFnV2M3vCV7er9",
        "reception_time": "2022-01-19T04:59:29.508-00:00",
        "included_in_blocks":
          [ "BM9im7D65CsMf5DEQCG3Thog4XkaeTaWqududwKkotnqBGyEJ9m" ] },
      { "delegate": "tz1irJKkXS2DBWkU1NnmFQx1c1L7pbGg4yhk",
        "reception_time": "2022-01-19T04:59:29.508-00:00",
        "included_in_blocks":
          [ "BM9im7D65CsMf5DEQCG3Thog4XkaeTaWqududwKkotnqBGyEJ9m" ] },
      { "delegate": "tz1P2Po7YM526ughEsRbY4oR9zaUPDZjxFrb",
        "reception_time": "2022-01-19T04:59:29.508-00:00",
        "included_in_blocks":
          [ "BM9im7D65CsMf5DEQCG3Thog4XkaeTaWqududwKkotnqBGyEJ9m" ] } ] }