{ "blocks":
    [ { "hash": "BLJwRQJDd9bpoJzpAeKspNy8Ue3r4ZzTfkTJeufLxmR1rMjhdcD",
        "delegate": "tz3WMqdzXqRWXwyvj5Hp2H7QEepaUuS7vd9K",
        "reception_time": "2022-01-19T08:55:52.593-00:00",
        "timestamp": "2022-01-19T08:55:40Z" } ],
  "endorsements":
    [ { "delegate": "tz1gUNyn3hmnEWqkusWPzxRaon1cs7ndWh7h",
        "reception_time": "2022-01-19T08:55:52.298-00:00",
        "errors":
          [ { "kind": "temporary",
              "id": "proto.011-PtHangz2.prefilter.outdated_endorsement" } ],
        "included_in_blocks":
          [ "BLJrBhV4pRF6CHz8Mmq1AHie3ozS2AjxURMy8dso6otmyP8NiMS" ] },
      { "delegate": "tz1VQnqCCqX4K5sP3FNkVSNKTdCAMJDd3E1n",
        "reception_time": "2022-01-19T08:55:52.293-00:00",
        "errors":
          [ { "kind": "temporary",
              "id": "proto.011-PtHangz2.prefilter.outdated_endorsement" } ],
        "included_in_blocks":
          [ "BLJrBhV4pRF6CHz8Mmq1AHie3ozS2AjxURMy8dso6otmyP8NiMS" ] },
      { "delegate": "tz1P2Po7YM526ughEsRbY4oR9zaUPDZjxFrb",
        "reception_time": "2022-01-19T08:55:52.289-00:00",
        "errors":
          [ { "kind": "temporary",
              "id": "proto.011-PtHangz2.prefilter.outdated_endorsement" } ],
        "included_in_blocks":
          [ "BLJrBhV4pRF6CHz8Mmq1AHie3ozS2AjxURMy8dso6otmyP8NiMS" ] },
      { "delegate": "tz1dbfppLAAxXZNtf2SDps7rch3qfUznKSoK" },
      { "delegate": "tz1bZ8vsMAXmaWEV7FRnyhcuUs2fYMaQ6Hkk",
        "reception_time": "2022-01-19T08:55:54.931-00:00",
        "included_in_blocks":
          [ "BLJrBhV4pRF6CHz8Mmq1AHie3ozS2AjxURMy8dso6otmyP8NiMS" ] },
      { "delegate": "tz1SYq214SCBy9naR6cvycQsYcUGpBqQAE8d",
        "reception_time": "2022-01-19T08:55:55.206-00:00",
        "included_in_blocks":
          [ "BLJrBhV4pRF6CHz8Mmq1AHie3ozS2AjxURMy8dso6otmyP8NiMS" ] },
      { "delegate": "tz1Ldzz6k1BHdhuKvAtMRX7h5kJSMHESMHLC",
        "reception_time": "2022-01-19T08:55:55.214-00:00",
        "included_in_blocks":
          [ "BLJrBhV4pRF6CHz8Mmq1AHie3ozS2AjxURMy8dso6otmyP8NiMS" ] },
      { "delegate": "tz3WMqdzXqRWXwyvj5Hp2H7QEepaUuS7vd9K",
        "reception_time": "2022-01-19T08:55:55.222-00:00",
        "included_in_blocks":
          [ "BLJrBhV4pRF6CHz8Mmq1AHie3ozS2AjxURMy8dso6otmyP8NiMS" ] },
      { "delegate": "tz1axcnVN9tZnCe4sQQhC6f3tfSEXdjPaXPY",
        "reception_time": "2022-01-19T08:55:55.225-00:00",
        "included_in_blocks":
          [ "BLJrBhV4pRF6CHz8Mmq1AHie3ozS2AjxURMy8dso6otmyP8NiMS" ] },
      { "delegate": "tz1beersuEDv8Z7ngQ825xfbaJNS2EhXnyHR",
        "reception_time": "2022-01-19T08:55:55.228-00:00",
        "included_in_blocks":
          [ "BLJrBhV4pRF6CHz8Mmq1AHie3ozS2AjxURMy8dso6otmyP8NiMS" ] },
      { "delegate": "tz1eEnQhbwf6trb8Q8mPb2RaPkNk2rN7BKi8",
        "reception_time": "2022-01-19T08:55:55.233-00:00",
        "included_in_blocks":
          [ "BLJrBhV4pRF6CHz8Mmq1AHie3ozS2AjxURMy8dso6otmyP8NiMS" ] },
      { "delegate": "tz3Zhs2dygr55yHyQyKjntAtY9bgfhLZ4Xj1",
        "reception_time": "2022-01-19T08:55:55.240-00:00",
        "included_in_blocks":
          [ "BLJrBhV4pRF6CHz8Mmq1AHie3ozS2AjxURMy8dso6otmyP8NiMS" ] },
      { "delegate": "tz3VEZ4k6a4Wx42iyev6i2aVAptTRLEAivNN",
        "reception_time": "2022-01-19T08:55:55.246-00:00",
        "included_in_blocks":
          [ "BLJrBhV4pRF6CHz8Mmq1AHie3ozS2AjxURMy8dso6otmyP8NiMS" ] },
      { "delegate": "tz3iJu5vrKZcsqRPs8yJ61UDoeEXZmtro4qh",
        "reception_time": "2022-01-19T08:55:55.253-00:00",
        "included_in_blocks":
          [ "BLJrBhV4pRF6CHz8Mmq1AHie3ozS2AjxURMy8dso6otmyP8NiMS" ] },
      { "delegate": "tz1WCd2jm4uSt4vntk4vSuUWoZQGhLcDuR9q",
        "reception_time": "2022-01-19T08:55:55.256-00:00",
        "included_in_blocks":
          [ "BLJrBhV4pRF6CHz8Mmq1AHie3ozS2AjxURMy8dso6otmyP8NiMS" ] },
      { "delegate": "tz1irJKkXS2DBWkU1NnmFQx1c1L7pbGg4yhk",
        "reception_time": "2022-01-19T08:55:55.261-00:00",
        "included_in_blocks":
          [ "BLJrBhV4pRF6CHz8Mmq1AHie3ozS2AjxURMy8dso6otmyP8NiMS" ] },
      { "delegate": "tz1ei4WtWEMEJekSv8qDnu9PExG6Q8HgRGr3",
        "reception_time": "2022-01-19T08:55:55.261-00:00",
        "included_in_blocks":
          [ "BLJrBhV4pRF6CHz8Mmq1AHie3ozS2AjxURMy8dso6otmyP8NiMS" ] },
      { "delegate": "tz3ZbP2pM3nwvXztbuMJwJnDvV5xdpU8UkkD",
        "reception_time": "2022-01-19T08:55:55.267-00:00",
        "included_in_blocks":
          [ "BLJrBhV4pRF6CHz8Mmq1AHie3ozS2AjxURMy8dso6otmyP8NiMS" ] },
      { "delegate": "tz1iPHM2Xx2hwmzcr1EG1zzrV6oKafVoA91m",
        "reception_time": "2022-01-19T08:55:55.270-00:00",
        "included_in_blocks":
          [ "BLJrBhV4pRF6CHz8Mmq1AHie3ozS2AjxURMy8dso6otmyP8NiMS" ] },
      { "delegate": "tz1TEc75UKXv4W5cwi14Na3NtqFD51yKQi7h",
        "reception_time": "2022-01-19T08:55:55.274-00:00",
        "included_in_blocks":
          [ "BLJrBhV4pRF6CHz8Mmq1AHie3ozS2AjxURMy8dso6otmyP8NiMS" ] },
      { "delegate": "tz1V4qCyvPKZ5UeqdH14HN42rxvNPQfc9UZg",
        "reception_time": "2022-01-19T08:55:55.279-00:00",
        "included_in_blocks":
          [ "BLJrBhV4pRF6CHz8Mmq1AHie3ozS2AjxURMy8dso6otmyP8NiMS" ] },
      { "delegate": "tz1fPKAtsYydh4f1wfWNfeNxWYu72TmM48fu",
        "reception_time": "2022-01-19T08:55:55.281-00:00",
        "included_in_blocks":
          [ "BLJrBhV4pRF6CHz8Mmq1AHie3ozS2AjxURMy8dso6otmyP8NiMS" ] },
      { "delegate": "tz3NxTnke1acr8o3h5y9ytf5awQBGNJUKzVU",
        "reception_time": "2022-01-19T08:55:55.288-00:00",
        "included_in_blocks":
          [ "BLJrBhV4pRF6CHz8Mmq1AHie3ozS2AjxURMy8dso6otmyP8NiMS" ] },
      { "delegate": "tz3e7LbZvUtoXhpUD1yb6wuFodZpfYRb9nWJ",
        "reception_time": "2022-01-19T08:55:55.295-00:00",
        "included_in_blocks":
          [ "BLJrBhV4pRF6CHz8Mmq1AHie3ozS2AjxURMy8dso6otmyP8NiMS" ] },
      { "delegate": "tz1RCFbB9GpALpsZtu6J58sb74dm8qe6XBzv",
        "reception_time": "2022-01-19T08:55:55.298-00:00",
        "included_in_blocks":
          [ "BLJrBhV4pRF6CHz8Mmq1AHie3ozS2AjxURMy8dso6otmyP8NiMS" ] },
      { "delegate": "tz1TRqbYbUf2GyrjErf3hBzgBJPzW8y36qEs",
        "reception_time": "2022-01-19T08:55:55.305-00:00",
        "included_in_blocks":
          [ "BLJrBhV4pRF6CHz8Mmq1AHie3ozS2AjxURMy8dso6otmyP8NiMS" ] },
      { "delegate": "tz1YhNsiRRU8aHNGg7NK3uuP6UDAyacJernB",
        "reception_time": "2022-01-19T08:55:55.333-00:00",
        "included_in_blocks":
          [ "BLJrBhV4pRF6CHz8Mmq1AHie3ozS2AjxURMy8dso6otmyP8NiMS" ] },
      { "delegate": "tz3RKYFsLuQzKBtmYuLNas7uMu3AsYd4QdsA",
        "reception_time": "2022-01-19T08:55:55.342-00:00",
        "included_in_blocks":
          [ "BLJrBhV4pRF6CHz8Mmq1AHie3ozS2AjxURMy8dso6otmyP8NiMS" ] },
      { "delegate": "tz1KfEsrtDaA1sX7vdM4qmEPWuSytuqCDp5j",
        "reception_time": "2022-01-19T08:55:55.346-00:00",
        "included_in_blocks":
          [ "BLJrBhV4pRF6CHz8Mmq1AHie3ozS2AjxURMy8dso6otmyP8NiMS" ] },
      { "delegate": "tz1MQJPGNMijnXnVoBENFz9rUhaPt3S7rWoz",
        "reception_time": "2022-01-19T08:55:55.351-00:00",
        "included_in_blocks":
          [ "BLJrBhV4pRF6CHz8Mmq1AHie3ozS2AjxURMy8dso6otmyP8NiMS" ] },
      { "delegate": "tz1S8MNvuFEUsWgjHvi3AxibRBf388NhT1q2",
        "reception_time": "2022-01-19T08:55:55.356-00:00",
        "included_in_blocks":
          [ "BLJrBhV4pRF6CHz8Mmq1AHie3ozS2AjxURMy8dso6otmyP8NiMS" ] },
      { "delegate": "tz2FCNBrERXtaTtNX6iimR1UJ5JSDxvdHM93",
        "reception_time": "2022-01-19T08:55:55.360-00:00",
        "included_in_blocks":
          [ "BLJrBhV4pRF6CHz8Mmq1AHie3ozS2AjxURMy8dso6otmyP8NiMS" ] },
      { "delegate": "tz3QT9dHYKDqh563chVa6za8526ys1UKfRfL",
        "reception_time": "2022-01-19T08:55:55.367-00:00",
        "included_in_blocks":
          [ "BLJrBhV4pRF6CHz8Mmq1AHie3ozS2AjxURMy8dso6otmyP8NiMS" ] },
      { "delegate": "tz1WBfwbT66FC6BTLexc2BoyCCBM9LG7pnVW",
        "reception_time": "2022-01-19T08:55:55.370-00:00",
        "included_in_blocks":
          [ "BLJrBhV4pRF6CHz8Mmq1AHie3ozS2AjxURMy8dso6otmyP8NiMS" ] },
      { "delegate": "tz3bTdwZinP8U1JmSweNzVKhmwafqWmFWRfk",
        "reception_time": "2022-01-19T08:55:55.377-00:00",
        "included_in_blocks":
          [ "BLJrBhV4pRF6CHz8Mmq1AHie3ozS2AjxURMy8dso6otmyP8NiMS" ] },
      { "delegate": "tz1abmz7jiCV2GH2u81LRrGgAFFgvQgiDiaf",
        "reception_time": "2022-01-19T08:55:55.380-00:00",
        "included_in_blocks":
          [ "BLJrBhV4pRF6CHz8Mmq1AHie3ozS2AjxURMy8dso6otmyP8NiMS" ] },
      { "delegate": "tz1Tnjaxk6tbAeC2TmMApPh8UsrEVQvhHvx5",
        "reception_time": "2022-01-19T08:55:55.383-00:00",
        "included_in_blocks":
          [ "BLJrBhV4pRF6CHz8Mmq1AHie3ozS2AjxURMy8dso6otmyP8NiMS" ] },
      { "delegate": "tz3UoffC7FG7zfpmvmjUmUeAaHvzdcUvAj6r",
        "reception_time": "2022-01-19T08:55:55.389-00:00",
        "included_in_blocks":
          [ "BLJrBhV4pRF6CHz8Mmq1AHie3ozS2AjxURMy8dso6otmyP8NiMS" ] },
      { "delegate": "tz1Nf6tsK4G6bBqgSQERy4nUtkHNKUVdh7q1",
        "reception_time": "2022-01-19T08:55:55.392-00:00",
        "included_in_blocks":
          [ "BLJrBhV4pRF6CHz8Mmq1AHie3ozS2AjxURMy8dso6otmyP8NiMS" ] },
      { "delegate": "tz1PWCDnz783NNGGQjEFFsHtrcK5yBW4E2rm",
        "reception_time": "2022-01-19T08:55:55.397-00:00",
        "included_in_blocks":
          [ "BLJrBhV4pRF6CHz8Mmq1AHie3ozS2AjxURMy8dso6otmyP8NiMS" ] },
      { "delegate": "tz1gfArv665EUkSg2ojMBzcbfwuPxAvqPvjo",
        "reception_time": "2022-01-19T08:55:55.401-00:00",
        "included_in_blocks":
          [ "BLJrBhV4pRF6CHz8Mmq1AHie3ozS2AjxURMy8dso6otmyP8NiMS" ] },
      { "delegate": "tz1RjoHc98dBoqaH2jawF62XNKh7YsHwbkEv",
        "reception_time": "2022-01-19T08:55:55.405-00:00",
        "included_in_blocks":
          [ "BLJrBhV4pRF6CHz8Mmq1AHie3ozS2AjxURMy8dso6otmyP8NiMS" ] },
      { "delegate": "tz3QSGPoRp3Kn7n3vY24eYeu3Peuqo45LQ4D",
        "reception_time": "2022-01-19T08:55:55.413-00:00",
        "included_in_blocks":
          [ "BLJrBhV4pRF6CHz8Mmq1AHie3ozS2AjxURMy8dso6otmyP8NiMS" ] },
      { "delegate": "tz3S6BBeKgJGXxvLyZ1xzXzMPn11nnFtq5L9",
        "reception_time": "2022-01-19T08:55:55.427-00:00",
        "included_in_blocks":
          [ "BLJrBhV4pRF6CHz8Mmq1AHie3ozS2AjxURMy8dso6otmyP8NiMS" ] },
      { "delegate": "tz3QCNyySViKHmeSr45kzDxzchys7NiXCWoa",
        "reception_time": "2022-01-19T08:55:55.457-00:00",
        "included_in_blocks":
          [ "BLJrBhV4pRF6CHz8Mmq1AHie3ozS2AjxURMy8dso6otmyP8NiMS" ] },
      { "delegate": "tz3hw2kqXhLUvY65ca1eety2oQTpAvd34R9Q",
        "reception_time": "2022-01-19T08:55:55.465-00:00",
        "included_in_blocks":
          [ "BLJrBhV4pRF6CHz8Mmq1AHie3ozS2AjxURMy8dso6otmyP8NiMS" ] },
      { "delegate": "tz1dNVDWPf3Q59SdJqnjdnu277iyvReiRS9M",
        "reception_time": "2022-01-19T08:55:55.474-00:00",
        "included_in_blocks":
          [ "BLJrBhV4pRF6CHz8Mmq1AHie3ozS2AjxURMy8dso6otmyP8NiMS" ] },
      { "delegate": "tz1a51WYsAsoh4fs4A4x5aCN6Za26mpfDfTi",
        "reception_time": "2022-01-19T08:55:55.480-00:00",
        "included_in_blocks":
          [ "BLJrBhV4pRF6CHz8Mmq1AHie3ozS2AjxURMy8dso6otmyP8NiMS" ] },
      { "delegate": "tz3gtoUxdudfBRcNY7iVdKPHCYYX6xdPpoRS",
        "reception_time": "2022-01-19T08:55:55.488-00:00",
        "included_in_blocks":
          [ "BLJrBhV4pRF6CHz8Mmq1AHie3ozS2AjxURMy8dso6otmyP8NiMS" ] },
      { "delegate": "tz1NEKxGEHsFufk87CVZcrqWu8o22qh46GK6",
        "reception_time": "2022-01-19T08:55:55.499-00:00",
        "included_in_blocks":
          [ "BLJrBhV4pRF6CHz8Mmq1AHie3ozS2AjxURMy8dso6otmyP8NiMS" ] },
      { "delegate": "tz1awXW7wuXy21c66vBudMXQVAPgRnqqwgTH",
        "reception_time": "2022-01-19T08:55:55.553-00:00",
        "included_in_blocks":
          [ "BLJrBhV4pRF6CHz8Mmq1AHie3ozS2AjxURMy8dso6otmyP8NiMS" ] },
      { "delegate": "tz3NDpRj6WBrJPikcPVHRBEjWKxFw3c6eQPS",
        "reception_time": "2022-01-19T08:55:55.560-00:00",
        "included_in_blocks":
          [ "BLJrBhV4pRF6CHz8Mmq1AHie3ozS2AjxURMy8dso6otmyP8NiMS" ] },
      { "delegate": "tz3gLTu4Yxj8tPAcriQVUdxv6BY9QyvzU1az",
        "reception_time": "2022-01-19T08:55:55.585-00:00",
        "included_in_blocks":
          [ "BLJrBhV4pRF6CHz8Mmq1AHie3ozS2AjxURMy8dso6otmyP8NiMS" ] },
      { "delegate": "tz3RB4aoyjov4KEVRbuhvQ1CKJgBJMWhaeB8",
        "reception_time": "2022-01-19T08:55:55.594-00:00",
        "included_in_blocks":
          [ "BLJrBhV4pRF6CHz8Mmq1AHie3ozS2AjxURMy8dso6otmyP8NiMS" ] },
      { "delegate": "tz1T7duV5gZWSTq4YpBGbXNLTfznCLDrFxvs",
        "reception_time": "2022-01-19T08:55:55.599-00:00",
        "included_in_blocks":
          [ "BLJrBhV4pRF6CHz8Mmq1AHie3ozS2AjxURMy8dso6otmyP8NiMS" ] },
      { "delegate": "tz3bvNMQ95vfAYtG8193ymshqjSvmxiCUuR5",
        "reception_time": "2022-01-19T08:55:55.856-00:00",
        "included_in_blocks":
          [ "BLJrBhV4pRF6CHz8Mmq1AHie3ozS2AjxURMy8dso6otmyP8NiMS" ] },
      { "delegate": "tz3NExpXn9aPNZPorRE4SdjJ2RGrfbJgMAaV",
        "reception_time": "2022-01-19T08:55:55.970-00:00",
        "included_in_blocks":
          [ "BLJrBhV4pRF6CHz8Mmq1AHie3ozS2AjxURMy8dso6otmyP8NiMS" ] },
      { "delegate": "tz1ZcTRk5uxD86EFEn1vvNffWWqJy7q5eVhc",
        "reception_time": "2022-01-19T08:55:56.056-00:00",
        "included_in_blocks":
          [ "BLJrBhV4pRF6CHz8Mmq1AHie3ozS2AjxURMy8dso6otmyP8NiMS" ] },
      { "delegate": "tz3RDC3Jdn4j15J7bBHZd29EUee9gVB1CxD9",
        "reception_time": "2022-01-19T08:55:56.066-00:00",
        "included_in_blocks":
          [ "BLJrBhV4pRF6CHz8Mmq1AHie3ozS2AjxURMy8dso6otmyP8NiMS" ] },
      { "delegate": "tz1eE4ERseiJfLTy3ydsdiitpCMbRRHEGhqM",
        "delegate_alias": "boutiger",
        "reception_time": "2022-01-19T08:55:56.337-00:00",
        "included_in_blocks":
          [ "BLJrBhV4pRF6CHz8Mmq1AHie3ozS2AjxURMy8dso6otmyP8NiMS" ] },
      { "delegate": "tz1aJS7Pk9uWR3wWyFf1i3RwhYxN84G7stom",
        "reception_time": "2022-01-19T08:55:56.477-00:00",
        "included_in_blocks":
          [ "BLJrBhV4pRF6CHz8Mmq1AHie3ozS2AjxURMy8dso6otmyP8NiMS" ] },
      { "delegate": "tz1XhnCdVENzgko5x1MMswLHSoQbJ5NPwLZ6",
        "reception_time": "2022-01-19T08:55:57.294-00:00",
        "included_in_blocks":
          [ "BLJrBhV4pRF6CHz8Mmq1AHie3ozS2AjxURMy8dso6otmyP8NiMS" ] },
      { "delegate": "tz1NMNQYrYrfNpmUqQrMhJypf6ovnaDZhJHM",
        "reception_time": "2022-01-19T08:55:57.318-00:00",
        "included_in_blocks":
          [ "BLJrBhV4pRF6CHz8Mmq1AHie3ozS2AjxURMy8dso6otmyP8NiMS" ] },
      { "delegate": "tz1aRoaRhSpRYvFdyvgWLL6TGyRoGF51wDjM",
        "reception_time": "2022-01-19T08:55:57.430-00:00",
        "included_in_blocks":
          [ "BLJrBhV4pRF6CHz8Mmq1AHie3ozS2AjxURMy8dso6otmyP8NiMS" ] },
      { "delegate": "tz1NpWrAyDL9k2Lmnyxcgr9xuJakbBxdq7FB",
        "reception_time": "2022-01-19T08:55:58.702-00:00",
        "included_in_blocks":
          [ "BLJrBhV4pRF6CHz8Mmq1AHie3ozS2AjxURMy8dso6otmyP8NiMS" ] } ] }