{ "blocks":
    [ { "hash": "BLAME7oyzwQodVH2DSJDis3r57re7vjqvskKQSstZC3XRzrRnZL",
        "delegate": "tz3QT9dHYKDqh563chVa6za8526ys1UKfRfL",
        "reception_time": "2022-01-19T09:00:22.606-00:00",
        "timestamp": "2022-01-19T09:00:10Z" } ],
  "endorsements":
    [ { "delegate": "tz1NpWrAyDL9k2Lmnyxcgr9xuJakbBxdq7FB",
        "reception_time": "2022-01-19T09:00:46.861-00:00" },
      { "delegate": "tz3bEQoFCZEEfZMskefZ8q8e4eiHH1pssRax",
        "reception_time": "2022-01-19T09:00:40.190-00:00" },
      { "delegate": "tz1awXW7wuXy21c66vBudMXQVAPgRnqqwgTH",
        "reception_time": "2022-01-19T09:00:29.852-00:00",
        "included_in_blocks":
          [ "BLk86t6aW8fVpPFTZ8dwgiXuNEeh6uK7msZjCwBAHCDVzQ8EUL8" ] },
      { "delegate": "tz1TRqbYbUf2GyrjErf3hBzgBJPzW8y36qEs",
        "reception_time": "2022-01-19T09:00:29.378-00:00",
        "included_in_blocks":
          [ "BLk86t6aW8fVpPFTZ8dwgiXuNEeh6uK7msZjCwBAHCDVzQ8EUL8" ] },
      { "delegate": "tz1PFeoTuFen8jAMRHajBySNyCwLmY5RqF9M",
        "reception_time": "2022-01-19T09:00:28.170-00:00",
        "included_in_blocks":
          [ "BLk86t6aW8fVpPFTZ8dwgiXuNEeh6uK7msZjCwBAHCDVzQ8EUL8" ] },
      { "delegate": "tz1RjoHc98dBoqaH2jawF62XNKh7YsHwbkEv",
        "reception_time": "2022-01-19T09:00:28.082-00:00",
        "included_in_blocks":
          [ "BLk86t6aW8fVpPFTZ8dwgiXuNEeh6uK7msZjCwBAHCDVzQ8EUL8" ] },
      { "delegate": "tz2FCNBrERXtaTtNX6iimR1UJ5JSDxvdHM93",
        "reception_time": "2022-01-19T09:00:26.384-00:00",
        "included_in_blocks":
          [ "BLk86t6aW8fVpPFTZ8dwgiXuNEeh6uK7msZjCwBAHCDVzQ8EUL8" ] },
      { "delegate": "tz1hAYfexyzPGG6RhZZMpDvAHifubsbb6kgn",
        "reception_time": "2022-01-19T09:00:26.313-00:00",
        "included_in_blocks":
          [ "BLk86t6aW8fVpPFTZ8dwgiXuNEeh6uK7msZjCwBAHCDVzQ8EUL8" ] },
      { "delegate": "tz1aRoaRhSpRYvFdyvgWLL6TGyRoGF51wDjM",
        "reception_time": "2022-01-19T09:00:25.604-00:00",
        "included_in_blocks":
          [ "BLk86t6aW8fVpPFTZ8dwgiXuNEeh6uK7msZjCwBAHCDVzQ8EUL8" ] },
      { "delegate": "tz1T7duV5gZWSTq4YpBGbXNLTfznCLDrFxvs",
        "reception_time": "2022-01-19T09:00:25.361-00:00",
        "included_in_blocks":
          [ "BLk86t6aW8fVpPFTZ8dwgiXuNEeh6uK7msZjCwBAHCDVzQ8EUL8" ] },
      { "delegate": "tz1NdhRv643wLW6zCcRP3VfT24dvDnh7nuh9",
        "reception_time": "2022-01-19T09:00:25.250-00:00",
        "included_in_blocks":
          [ "BLk86t6aW8fVpPFTZ8dwgiXuNEeh6uK7msZjCwBAHCDVzQ8EUL8" ] },
      { "delegate": "tz1WctSwL49BZtdWAQ75NY6vr4xsAx6oKdah",
        "reception_time": "2022-01-19T09:00:25.244-00:00",
        "included_in_blocks":
          [ "BLk86t6aW8fVpPFTZ8dwgiXuNEeh6uK7msZjCwBAHCDVzQ8EUL8" ] },
      { "delegate": "tz3UoffC7FG7zfpmvmjUmUeAaHvzdcUvAj6r",
        "reception_time": "2022-01-19T09:00:25.234-00:00",
        "included_in_blocks":
          [ "BLk86t6aW8fVpPFTZ8dwgiXuNEeh6uK7msZjCwBAHCDVzQ8EUL8" ] },
      { "delegate": "tz1ZcTRk5uxD86EFEn1vvNffWWqJy7q5eVhc",
        "reception_time": "2022-01-19T09:00:25.227-00:00",
        "included_in_blocks":
          [ "BLk86t6aW8fVpPFTZ8dwgiXuNEeh6uK7msZjCwBAHCDVzQ8EUL8" ] },
      { "delegate": "tz1abmz7jiCV2GH2u81LRrGgAFFgvQgiDiaf",
        "reception_time": "2022-01-19T09:00:25.204-00:00",
        "included_in_blocks":
          [ "BLk86t6aW8fVpPFTZ8dwgiXuNEeh6uK7msZjCwBAHCDVzQ8EUL8" ] },
      { "delegate": "tz3NExpXn9aPNZPorRE4SdjJ2RGrfbJgMAaV",
        "reception_time": "2022-01-19T09:00:25.201-00:00",
        "included_in_blocks":
          [ "BLk86t6aW8fVpPFTZ8dwgiXuNEeh6uK7msZjCwBAHCDVzQ8EUL8" ] },
      { "delegate": "tz1LmaFsWRkjr7QMCx5PtV6xTUz3AmEpKQiF",
        "reception_time": "2022-01-19T09:00:25.192-00:00",
        "included_in_blocks":
          [ "BLk86t6aW8fVpPFTZ8dwgiXuNEeh6uK7msZjCwBAHCDVzQ8EUL8" ] },
      { "delegate": "tz3VEZ4k6a4Wx42iyev6i2aVAptTRLEAivNN",
        "reception_time": "2022-01-19T09:00:25.167-00:00",
        "included_in_blocks":
          [ "BLk86t6aW8fVpPFTZ8dwgiXuNEeh6uK7msZjCwBAHCDVzQ8EUL8" ] },
      { "delegate": "tz1Tnjaxk6tbAeC2TmMApPh8UsrEVQvhHvx5",
        "reception_time": "2022-01-19T09:00:25.158-00:00",
        "included_in_blocks":
          [ "BLk86t6aW8fVpPFTZ8dwgiXuNEeh6uK7msZjCwBAHCDVzQ8EUL8" ] },
      { "delegate": "tz1fPKAtsYydh4f1wfWNfeNxWYu72TmM48fu",
        "reception_time": "2022-01-19T09:00:25.155-00:00",
        "included_in_blocks":
          [ "BLk86t6aW8fVpPFTZ8dwgiXuNEeh6uK7msZjCwBAHCDVzQ8EUL8" ] },
      { "delegate": "tz1fwnfJNgiDACshK9avfRfFbMaXrs3ghoJa",
        "reception_time": "2022-01-19T09:00:25.151-00:00",
        "included_in_blocks":
          [ "BLk86t6aW8fVpPFTZ8dwgiXuNEeh6uK7msZjCwBAHCDVzQ8EUL8" ] },
      { "delegate": "tz1dRKU4FQ9QRRQPdaH4zCR6gmCmXfcvcgtB",
        "reception_time": "2022-01-19T09:00:25.148-00:00",
        "included_in_blocks":
          [ "BLk86t6aW8fVpPFTZ8dwgiXuNEeh6uK7msZjCwBAHCDVzQ8EUL8" ] },
      { "delegate": "tz3RB4aoyjov4KEVRbuhvQ1CKJgBJMWhaeB8",
        "reception_time": "2022-01-19T09:00:25.144-00:00",
        "included_in_blocks":
          [ "BLk86t6aW8fVpPFTZ8dwgiXuNEeh6uK7msZjCwBAHCDVzQ8EUL8" ] },
      { "delegate": "tz1RCFbB9GpALpsZtu6J58sb74dm8qe6XBzv",
        "reception_time": "2022-01-19T09:00:25.130-00:00",
        "included_in_blocks":
          [ "BLk86t6aW8fVpPFTZ8dwgiXuNEeh6uK7msZjCwBAHCDVzQ8EUL8" ] },
      { "delegate": "tz3NDpRj6WBrJPikcPVHRBEjWKxFw3c6eQPS",
        "reception_time": "2022-01-19T09:00:25.119-00:00",
        "included_in_blocks":
          [ "BLk86t6aW8fVpPFTZ8dwgiXuNEeh6uK7msZjCwBAHCDVzQ8EUL8" ] },
      { "delegate": "tz1MQMiZHV8q4tTwUMWmS5Y3kaP6J2136iXr",
        "reception_time": "2022-01-19T09:00:25.119-00:00",
        "included_in_blocks":
          [ "BLk86t6aW8fVpPFTZ8dwgiXuNEeh6uK7msZjCwBAHCDVzQ8EUL8" ] },
      { "delegate": "tz3bvNMQ95vfAYtG8193ymshqjSvmxiCUuR5",
        "reception_time": "2022-01-19T09:00:25.109-00:00",
        "included_in_blocks":
          [ "BLk86t6aW8fVpPFTZ8dwgiXuNEeh6uK7msZjCwBAHCDVzQ8EUL8" ] },
      { "delegate": "tz1RQhNh7iB9CZA7i3ifTWNwiGYVffponfbB",
        "reception_time": "2022-01-19T09:00:25.102-00:00",
        "included_in_blocks":
          [ "BLk86t6aW8fVpPFTZ8dwgiXuNEeh6uK7msZjCwBAHCDVzQ8EUL8" ] },
      { "delegate": "tz3bTdwZinP8U1JmSweNzVKhmwafqWmFWRfk",
        "reception_time": "2022-01-19T09:00:25.098-00:00",
        "included_in_blocks":
          [ "BLk86t6aW8fVpPFTZ8dwgiXuNEeh6uK7msZjCwBAHCDVzQ8EUL8" ] },
      { "delegate": "tz1MQJPGNMijnXnVoBENFz9rUhaPt3S7rWoz",
        "reception_time": "2022-01-19T09:00:25.091-00:00",
        "included_in_blocks":
          [ "BLk86t6aW8fVpPFTZ8dwgiXuNEeh6uK7msZjCwBAHCDVzQ8EUL8" ] },
      { "delegate": "tz1NEKxGEHsFufk87CVZcrqWu8o22qh46GK6",
        "reception_time": "2022-01-19T09:00:25.087-00:00",
        "included_in_blocks":
          [ "BLk86t6aW8fVpPFTZ8dwgiXuNEeh6uK7msZjCwBAHCDVzQ8EUL8" ] },
      { "delegate": "tz3WMqdzXqRWXwyvj5Hp2H7QEepaUuS7vd9K",
        "reception_time": "2022-01-19T09:00:25.084-00:00",
        "included_in_blocks":
          [ "BLk86t6aW8fVpPFTZ8dwgiXuNEeh6uK7msZjCwBAHCDVzQ8EUL8" ] },
      { "delegate": "tz3RDC3Jdn4j15J7bBHZd29EUee9gVB1CxD9",
        "reception_time": "2022-01-19T09:00:25.076-00:00",
        "included_in_blocks":
          [ "BLk86t6aW8fVpPFTZ8dwgiXuNEeh6uK7msZjCwBAHCDVzQ8EUL8" ] },
      { "delegate": "tz1S8MNvuFEUsWgjHvi3AxibRBf388NhT1q2",
        "reception_time": "2022-01-19T09:00:25.068-00:00",
        "included_in_blocks":
          [ "BLk86t6aW8fVpPFTZ8dwgiXuNEeh6uK7msZjCwBAHCDVzQ8EUL8" ] },
      { "delegate": "tz1h4GUAMweP7SNWzDgvMk3yRCAZyaP1MxZq",
        "reception_time": "2022-01-19T09:00:25.054-00:00",
        "included_in_blocks":
          [ "BLk86t6aW8fVpPFTZ8dwgiXuNEeh6uK7msZjCwBAHCDVzQ8EUL8" ] },
      { "delegate": "tz1Nf6tsK4G6bBqgSQERy4nUtkHNKUVdh7q1",
        "reception_time": "2022-01-19T09:00:25.037-00:00",
        "included_in_blocks":
          [ "BLk86t6aW8fVpPFTZ8dwgiXuNEeh6uK7msZjCwBAHCDVzQ8EUL8" ] },
      { "delegate": "tz3QSGPoRp3Kn7n3vY24eYeu3Peuqo45LQ4D",
        "reception_time": "2022-01-19T09:00:25.004-00:00",
        "included_in_blocks":
          [ "BLk86t6aW8fVpPFTZ8dwgiXuNEeh6uK7msZjCwBAHCDVzQ8EUL8" ] },
      { "delegate": "tz1TzaNn7wSQSP5gYPXCnNzBCpyMiidCq1PX",
        "reception_time": "2022-01-19T09:00:24.995-00:00",
        "included_in_blocks":
          [ "BLk86t6aW8fVpPFTZ8dwgiXuNEeh6uK7msZjCwBAHCDVzQ8EUL8" ] },
      { "delegate": "tz1Scdr2HsZiQjc7bHMeBbmDRXYVvdhjJbBh",
        "reception_time": "2022-01-19T09:00:24.981-00:00",
        "included_in_blocks":
          [ "BLk86t6aW8fVpPFTZ8dwgiXuNEeh6uK7msZjCwBAHCDVzQ8EUL8" ] },
      { "delegate": "tz3Zhs2dygr55yHyQyKjntAtY9bgfhLZ4Xj1",
        "reception_time": "2022-01-19T09:00:24.956-00:00",
        "included_in_blocks":
          [ "BLk86t6aW8fVpPFTZ8dwgiXuNEeh6uK7msZjCwBAHCDVzQ8EUL8" ] },
      { "delegate": "tz1eEnQhbwf6trb8Q8mPb2RaPkNk2rN7BKi8",
        "reception_time": "2022-01-19T09:00:24.939-00:00",
        "included_in_blocks":
          [ "BLk86t6aW8fVpPFTZ8dwgiXuNEeh6uK7msZjCwBAHCDVzQ8EUL8" ] },
      { "delegate": "tz1TRspM5SeZpaQUhzByXbEvqKF1vnCM2YTK",
        "reception_time": "2022-01-19T09:00:24.919-00:00",
        "included_in_blocks":
          [ "BLk86t6aW8fVpPFTZ8dwgiXuNEeh6uK7msZjCwBAHCDVzQ8EUL8" ] },
      { "delegate": "tz3ZbP2pM3nwvXztbuMJwJnDvV5xdpU8UkkD",
        "reception_time": "2022-01-19T09:00:24.913-00:00",
        "included_in_blocks":
          [ "BLk86t6aW8fVpPFTZ8dwgiXuNEeh6uK7msZjCwBAHCDVzQ8EUL8" ] },
      { "delegate": "tz1dNVDWPf3Q59SdJqnjdnu277iyvReiRS9M",
        "reception_time": "2022-01-19T09:00:24.896-00:00",
        "included_in_blocks":
          [ "BLk86t6aW8fVpPFTZ8dwgiXuNEeh6uK7msZjCwBAHCDVzQ8EUL8" ] },
      { "delegate": "tz3NxTnke1acr8o3h5y9ytf5awQBGNJUKzVU",
        "reception_time": "2022-01-19T09:00:24.896-00:00",
        "included_in_blocks":
          [ "BLk86t6aW8fVpPFTZ8dwgiXuNEeh6uK7msZjCwBAHCDVzQ8EUL8" ] },
      { "delegate": "tz3iJu5vrKZcsqRPs8yJ61UDoeEXZmtro4qh",
        "reception_time": "2022-01-19T09:00:24.884-00:00",
        "included_in_blocks":
          [ "BLk86t6aW8fVpPFTZ8dwgiXuNEeh6uK7msZjCwBAHCDVzQ8EUL8" ] },
      { "delegate": "tz3RKYFsLuQzKBtmYuLNas7uMu3AsYd4QdsA",
        "reception_time": "2022-01-19T09:00:24.848-00:00",
        "included_in_blocks":
          [ "BLk86t6aW8fVpPFTZ8dwgiXuNEeh6uK7msZjCwBAHCDVzQ8EUL8" ] },
      { "delegate": "tz1WCd2jm4uSt4vntk4vSuUWoZQGhLcDuR9q",
        "reception_time": "2022-01-19T09:00:24.838-00:00",
        "included_in_blocks":
          [ "BLk86t6aW8fVpPFTZ8dwgiXuNEeh6uK7msZjCwBAHCDVzQ8EUL8" ] },
      { "delegate": "tz1gcna2xxZj2eNp1LaMyAhVJ49mEFj4FH26",
        "reception_time": "2022-01-19T09:00:24.838-00:00",
        "included_in_blocks":
          [ "BLk86t6aW8fVpPFTZ8dwgiXuNEeh6uK7msZjCwBAHCDVzQ8EUL8" ] },
      { "delegate": "tz3QCNyySViKHmeSr45kzDxzchys7NiXCWoa",
        "reception_time": "2022-01-19T09:00:24.831-00:00",
        "included_in_blocks":
          [ "BLk86t6aW8fVpPFTZ8dwgiXuNEeh6uK7msZjCwBAHCDVzQ8EUL8" ] },
      { "delegate": "tz3QT9dHYKDqh563chVa6za8526ys1UKfRfL",
        "reception_time": "2022-01-19T09:00:24.820-00:00",
        "included_in_blocks":
          [ "BLk86t6aW8fVpPFTZ8dwgiXuNEeh6uK7msZjCwBAHCDVzQ8EUL8" ] },
      { "delegate": "tz1VmiY38m3y95HqQLjMwqnMS7sdMfGomzKi",
        "reception_time": "2022-01-19T09:00:24.763-00:00",
        "included_in_blocks":
          [ "BLk86t6aW8fVpPFTZ8dwgiXuNEeh6uK7msZjCwBAHCDVzQ8EUL8" ] },
      { "delegate": "tz3hw2kqXhLUvY65ca1eety2oQTpAvd34R9Q",
        "reception_time": "2022-01-19T09:00:24.758-00:00",
        "included_in_blocks":
          [ "BLk86t6aW8fVpPFTZ8dwgiXuNEeh6uK7msZjCwBAHCDVzQ8EUL8" ] },
      { "delegate": "tz1SYq214SCBy9naR6cvycQsYcUGpBqQAE8d",
        "reception_time": "2022-01-19T09:00:24.738-00:00",
        "included_in_blocks":
          [ "BLk86t6aW8fVpPFTZ8dwgiXuNEeh6uK7msZjCwBAHCDVzQ8EUL8" ] },
      { "delegate": "tz1VQnqCCqX4K5sP3FNkVSNKTdCAMJDd3E1n",
        "reception_time": "2022-01-19T09:00:24.721-00:00",
        "included_in_blocks":
          [ "BLk86t6aW8fVpPFTZ8dwgiXuNEeh6uK7msZjCwBAHCDVzQ8EUL8" ] },
      { "delegate": "tz1gUNyn3hmnEWqkusWPzxRaon1cs7ndWh7h",
        "reception_time": "2022-01-19T09:00:24.711-00:00",
        "included_in_blocks":
          [ "BLk86t6aW8fVpPFTZ8dwgiXuNEeh6uK7msZjCwBAHCDVzQ8EUL8" ] },
      { "delegate": "tz1KfEsrtDaA1sX7vdM4qmEPWuSytuqCDp5j",
        "reception_time": "2022-01-19T09:00:24.711-00:00",
        "included_in_blocks":
          [ "BLk86t6aW8fVpPFTZ8dwgiXuNEeh6uK7msZjCwBAHCDVzQ8EUL8" ] },
      { "delegate": "tz3S6BBeKgJGXxvLyZ1xzXzMPn11nnFtq5L9",
        "reception_time": "2022-01-19T09:00:24.702-00:00",
        "included_in_blocks":
          [ "BLk86t6aW8fVpPFTZ8dwgiXuNEeh6uK7msZjCwBAHCDVzQ8EUL8" ] },
      { "delegate": "tz1gfArv665EUkSg2ojMBzcbfwuPxAvqPvjo",
        "reception_time": "2022-01-19T09:00:24.693-00:00",
        "included_in_blocks":
          [ "BLk86t6aW8fVpPFTZ8dwgiXuNEeh6uK7msZjCwBAHCDVzQ8EUL8" ] },
      { "delegate": "tz1QLXqnfN51dkjeghXvKHkJfhvGiM5gK4tc",
        "reception_time": "2022-01-19T09:00:24.665-00:00",
        "included_in_blocks":
          [ "BLk86t6aW8fVpPFTZ8dwgiXuNEeh6uK7msZjCwBAHCDVzQ8EUL8" ] },
      { "delegate": "tz1RV1MBbZMR68tacosb7Mwj6LkbPSUS1er1",
        "reception_time": "2022-01-19T09:00:24.375-00:00",
        "included_in_blocks":
          [ "BLk86t6aW8fVpPFTZ8dwgiXuNEeh6uK7msZjCwBAHCDVzQ8EUL8" ] },
      { "delegate": "tz1aehDcppdSz7Af2PtXvNQtqpeMfvFFYFHf" },
      { "delegate": "tz1MXFrtZoaXckE41bjUCSjAjAap3AFDSr3N",
        "reception_time": "2022-01-19T09:00:20.205-00:00",
        "errors":
          [ { "kind": "temporary",
              "id": "proto.011-PtHangz2.prefilter.outdated_endorsement" } ],
        "included_in_blocks":
          [ "BLk86t6aW8fVpPFTZ8dwgiXuNEeh6uK7msZjCwBAHCDVzQ8EUL8" ] },
      { "delegate": "tz1P2Po7YM526ughEsRbY4oR9zaUPDZjxFrb",
        "reception_time": "2022-01-19T09:00:20.212-00:00",
        "errors":
          [ { "kind": "temporary",
              "id": "proto.011-PtHangz2.prefilter.outdated_endorsement" } ],
        "included_in_blocks":
          [ "BLk86t6aW8fVpPFTZ8dwgiXuNEeh6uK7msZjCwBAHCDVzQ8EUL8" ] },
      { "delegate": "tz1aKxnrzx5PXZJe7unufEswVRCMU9yafmfb",
        "reception_time": "2022-01-19T09:00:20.269-00:00",
        "errors":
          [ { "kind": "temporary",
              "id": "proto.011-PtHangz2.prefilter.outdated_endorsement" } ],
        "included_in_blocks":
          [ "BLk86t6aW8fVpPFTZ8dwgiXuNEeh6uK7msZjCwBAHCDVzQ8EUL8" ] },
      { "delegate": "tz1irJKkXS2DBWkU1NnmFQx1c1L7pbGg4yhk",
        "reception_time": "2022-01-19T09:00:20.408-00:00",
        "errors":
          [ { "kind": "temporary",
              "id": "proto.011-PtHangz2.prefilter.outdated_endorsement" } ],
        "included_in_blocks":
          [ "BLk86t6aW8fVpPFTZ8dwgiXuNEeh6uK7msZjCwBAHCDVzQ8EUL8" ] },
      { "delegate": "tz1TXzyaKUA8wsWefdSnyaYFnV2M3vCV7er9",
        "reception_time": "2022-01-19T09:00:20.456-00:00",
        "errors":
          [ { "kind": "temporary",
              "id": "proto.011-PtHangz2.prefilter.outdated_endorsement" } ],
        "included_in_blocks":
          [ "BLk86t6aW8fVpPFTZ8dwgiXuNEeh6uK7msZjCwBAHCDVzQ8EUL8" ] },
      { "delegate": "tz1Ldzz6k1BHdhuKvAtMRX7h5kJSMHESMHLC",
        "reception_time": "2022-01-19T09:00:20.779-00:00",
        "errors":
          [ { "kind": "temporary",
              "id": "proto.011-PtHangz2.prefilter.outdated_endorsement" } ],
        "included_in_blocks":
          [ "BLk86t6aW8fVpPFTZ8dwgiXuNEeh6uK7msZjCwBAHCDVzQ8EUL8" ] } ] }