{ "blocks":
    [ { "hash": "BMBBN33X6GEwCz7x1mijqfNyRkkpRPqEfcJjqnY8zyEBAEMCy1N",
        "delegate": "tz3adcvQaKXTCg12zbninqo3q8ptKKtDFTLv",
        "reception_time": "2022-01-19T09:53:18.548-00:00",
        "timestamp": "2022-01-19T09:53:10Z" } ],
  "endorsements":
    [ { "delegate": "tz1W5VkdB5s7ENMESVBtwyt9kyvLqPcUczRT" },
      { "delegate": "tz1Vyuu4EJ5Nym4JcrfRLnp3hpaq1DSEp1Ke" },
      { "delegate": "tz1Ldzz6k1BHdhuKvAtMRX7h5kJSMHESMHLC",
        "reception_time": "2022-01-19T09:53:18.549-00:00",
        "errors":
          [ { "kind": "temporary",
              "id": "proto.011-PtHangz2.prefilter.outdated_endorsement" } ],
        "included_in_blocks":
          [ "BLJzL1WcGGuoNE71BVpV9FRfdJ3Epffg1mCLL1emW46EdXwRt5H" ] },
      { "delegate": "tz1aDiEJf9ztRrAJEXZfcG3CKimoKsGhwVAi",
        "reception_time": "2022-01-19T09:53:18.489-00:00",
        "errors":
          [ { "kind": "temporary",
              "id": "proto.011-PtHangz2.prefilter.outdated_endorsement" } ],
        "included_in_blocks":
          [ "BLJzL1WcGGuoNE71BVpV9FRfdJ3Epffg1mCLL1emW46EdXwRt5H" ] },
      { "delegate": "tz1eEnQhbwf6trb8Q8mPb2RaPkNk2rN7BKi8",
        "reception_time": "2022-01-19T09:53:18.489-00:00",
        "errors":
          [ { "kind": "temporary",
              "id": "proto.011-PtHangz2.prefilter.outdated_endorsement" } ],
        "included_in_blocks":
          [ "BLJzL1WcGGuoNE71BVpV9FRfdJ3Epffg1mCLL1emW46EdXwRt5H" ] },
      { "delegate": "tz1TXzyaKUA8wsWefdSnyaYFnV2M3vCV7er9",
        "reception_time": "2022-01-19T09:53:18.474-00:00",
        "errors":
          [ { "kind": "temporary",
              "id": "proto.011-PtHangz2.prefilter.outdated_endorsement" } ],
        "included_in_blocks":
          [ "BLJzL1WcGGuoNE71BVpV9FRfdJ3Epffg1mCLL1emW46EdXwRt5H" ] },
      { "delegate": "tz1Kt4P8BCaP93AEV4eA7gmpRryWt5hznjCP",
        "reception_time": "2022-01-19T09:53:18.411-00:00",
        "errors":
          [ { "kind": "temporary",
              "id": "proto.011-PtHangz2.prefilter.outdated_endorsement" } ],
        "included_in_blocks":
          [ "BLJzL1WcGGuoNE71BVpV9FRfdJ3Epffg1mCLL1emW46EdXwRt5H" ] },
      { "delegate": "tz1gUNyn3hmnEWqkusWPzxRaon1cs7ndWh7h",
        "reception_time": "2022-01-19T09:53:18.337-00:00",
        "errors":
          [ { "kind": "temporary",
              "id": "proto.011-PtHangz2.prefilter.outdated_endorsement" } ],
        "included_in_blocks":
          [ "BLJzL1WcGGuoNE71BVpV9FRfdJ3Epffg1mCLL1emW46EdXwRt5H" ] },
      { "delegate": "tz1VQnqCCqX4K5sP3FNkVSNKTdCAMJDd3E1n",
        "reception_time": "2022-01-19T09:53:18.333-00:00",
        "errors":
          [ { "kind": "temporary",
              "id": "proto.011-PtHangz2.prefilter.outdated_endorsement" } ],
        "included_in_blocks":
          [ "BLJzL1WcGGuoNE71BVpV9FRfdJ3Epffg1mCLL1emW46EdXwRt5H" ] },
      { "delegate": "tz1VmiY38m3y95HqQLjMwqnMS7sdMfGomzKi",
        "reception_time": "2022-01-19T09:53:18.160-00:00",
        "errors":
          [ { "kind": "temporary",
              "id": "proto.011-PtHangz2.prefilter.outdated_endorsement" } ],
        "included_in_blocks":
          [ "BLJzL1WcGGuoNE71BVpV9FRfdJ3Epffg1mCLL1emW46EdXwRt5H" ] },
      { "delegate": "tz1Scdr2HsZiQjc7bHMeBbmDRXYVvdhjJbBh",
        "reception_time": "2022-01-19T09:53:18.065-00:00",
        "errors":
          [ { "kind": "temporary",
              "id": "proto.011-PtHangz2.prefilter.outdated_endorsement" } ],
        "included_in_blocks":
          [ "BLJzL1WcGGuoNE71BVpV9FRfdJ3Epffg1mCLL1emW46EdXwRt5H" ] },
      { "delegate": "tz1RV1MBbZMR68tacosb7Mwj6LkbPSUS1er1",
        "reception_time": "2022-01-19T09:53:18.010-00:00",
        "errors":
          [ { "kind": "temporary",
              "id": "proto.011-PtHangz2.prefilter.outdated_endorsement" } ],
        "included_in_blocks":
          [ "BLJzL1WcGGuoNE71BVpV9FRfdJ3Epffg1mCLL1emW46EdXwRt5H" ] },
      { "delegate": "tz1S3ZahYq7fqZQ5bq4qCLsTWgPUzQhfAswy",
        "reception_time": "2022-01-19T09:53:27.431-00:00",
        "included_in_blocks":
          [ "BLJzL1WcGGuoNE71BVpV9FRfdJ3Epffg1mCLL1emW46EdXwRt5H" ] },
      { "delegate": "tz1PFeoTuFen8jAMRHajBySNyCwLmY5RqF9M",
        "reception_time": "2022-01-19T09:53:27.138-00:00",
        "included_in_blocks":
          [ "BLJzL1WcGGuoNE71BVpV9FRfdJ3Epffg1mCLL1emW46EdXwRt5H" ] },
      { "delegate": "tz1g8vkmcde6sWKaG2NN9WKzCkDM6Rziq194",
        "reception_time": "2022-01-19T09:53:25.449-00:00",
        "included_in_blocks":
          [ "BLJzL1WcGGuoNE71BVpV9FRfdJ3Epffg1mCLL1emW46EdXwRt5H" ] },
      { "delegate": "tz1aRoaRhSpRYvFdyvgWLL6TGyRoGF51wDjM",
        "reception_time": "2022-01-19T09:53:24.552-00:00",
        "included_in_blocks":
          [ "BLJzL1WcGGuoNE71BVpV9FRfdJ3Epffg1mCLL1emW46EdXwRt5H" ] },
      { "delegate": "tz1fJHFn6sWEd3NnBPngACuw2dggTv6nQZ7g",
        "reception_time": "2022-01-19T09:53:22.921-00:00",
        "included_in_blocks":
          [ "BLJzL1WcGGuoNE71BVpV9FRfdJ3Epffg1mCLL1emW46EdXwRt5H" ] },
      { "delegate": "tz3RDC3Jdn4j15J7bBHZd29EUee9gVB1CxD9",
        "reception_time": "2022-01-19T09:53:22.765-00:00",
        "included_in_blocks":
          [ "BLJzL1WcGGuoNE71BVpV9FRfdJ3Epffg1mCLL1emW46EdXwRt5H" ] },
      { "delegate": "tz1awXW7wuXy21c66vBudMXQVAPgRnqqwgTH",
        "reception_time": "2022-01-19T09:53:22.784-00:00",
        "included_in_blocks":
          [ "BLJzL1WcGGuoNE71BVpV9FRfdJ3Epffg1mCLL1emW46EdXwRt5H" ] },
      { "delegate": "tz3NExpXn9aPNZPorRE4SdjJ2RGrfbJgMAaV",
        "reception_time": "2022-01-19T09:53:22.473-00:00",
        "included_in_blocks":
          [ "BLJzL1WcGGuoNE71BVpV9FRfdJ3Epffg1mCLL1emW46EdXwRt5H" ] },
      { "delegate": "tz1SohptP53wDPZhzTWzDUFAUcWF6DMBpaJV",
        "reception_time": "2022-01-19T09:53:22.632-00:00",
        "included_in_blocks":
          [ "BLJzL1WcGGuoNE71BVpV9FRfdJ3Epffg1mCLL1emW46EdXwRt5H" ] },
      { "delegate": "tz3WMqdzXqRWXwyvj5Hp2H7QEepaUuS7vd9K",
        "reception_time": "2022-01-19T09:53:22.491-00:00",
        "included_in_blocks":
          [ "BLJzL1WcGGuoNE71BVpV9FRfdJ3Epffg1mCLL1emW46EdXwRt5H" ] },
      { "delegate": "tz1aJS7Pk9uWR3wWyFf1i3RwhYxN84G7stom",
        "reception_time": "2022-01-19T09:53:22.337-00:00",
        "included_in_blocks":
          [ "BLJzL1WcGGuoNE71BVpV9FRfdJ3Epffg1mCLL1emW46EdXwRt5H" ] },
      { "delegate": "tz3VEZ4k6a4Wx42iyev6i2aVAptTRLEAivNN",
        "reception_time": "2022-01-19T09:53:21.979-00:00",
        "included_in_blocks":
          [ "BLJzL1WcGGuoNE71BVpV9FRfdJ3Epffg1mCLL1emW46EdXwRt5H" ] },
      { "delegate": "tz3UoffC7FG7zfpmvmjUmUeAaHvzdcUvAj6r",
        "reception_time": "2022-01-19T09:53:21.776-00:00",
        "included_in_blocks":
          [ "BLJzL1WcGGuoNE71BVpV9FRfdJ3Epffg1mCLL1emW46EdXwRt5H" ] },
      { "delegate": "tz1cYufsxHXJcvANhvS55h3aY32a9BAFB494",
        "reception_time": "2022-01-19T09:53:21.538-00:00",
        "included_in_blocks":
          [ "BLJzL1WcGGuoNE71BVpV9FRfdJ3Epffg1mCLL1emW46EdXwRt5H" ] },
      { "delegate": "tz3NDpRj6WBrJPikcPVHRBEjWKxFw3c6eQPS",
        "reception_time": "2022-01-19T09:53:21.607-00:00",
        "included_in_blocks":
          [ "BLJzL1WcGGuoNE71BVpV9FRfdJ3Epffg1mCLL1emW46EdXwRt5H" ] },
      { "delegate": "tz1PeZx7FXy7QRuMREGXGxeipb24RsMMzUNe",
        "reception_time": "2022-01-19T09:53:21.330-00:00",
        "included_in_blocks":
          [ "BLJzL1WcGGuoNE71BVpV9FRfdJ3Epffg1mCLL1emW46EdXwRt5H" ] },
      { "delegate": "tz3bvNMQ95vfAYtG8193ymshqjSvmxiCUuR5",
        "reception_time": "2022-01-19T09:53:21.168-00:00",
        "included_in_blocks":
          [ "BLJzL1WcGGuoNE71BVpV9FRfdJ3Epffg1mCLL1emW46EdXwRt5H" ] },
      { "delegate": "tz1WBfwbT66FC6BTLexc2BoyCCBM9LG7pnVW",
        "reception_time": "2022-01-19T09:53:20.860-00:00",
        "included_in_blocks":
          [ "BLJzL1WcGGuoNE71BVpV9FRfdJ3Epffg1mCLL1emW46EdXwRt5H" ] },
      { "delegate": "tz1axcnVN9tZnCe4sQQhC6f3tfSEXdjPaXPY",
        "reception_time": "2022-01-19T09:53:20.867-00:00",
        "included_in_blocks":
          [ "BLJzL1WcGGuoNE71BVpV9FRfdJ3Epffg1mCLL1emW46EdXwRt5H" ] },
      { "delegate": "tz1hAYfexyzPGG6RhZZMpDvAHifubsbb6kgn",
        "reception_time": "2022-01-19T09:53:21.027-00:00",
        "included_in_blocks":
          [ "BLJzL1WcGGuoNE71BVpV9FRfdJ3Epffg1mCLL1emW46EdXwRt5H" ] },
      { "delegate": "tz1gfArv665EUkSg2ojMBzcbfwuPxAvqPvjo",
        "reception_time": "2022-01-19T09:53:21.013-00:00",
        "included_in_blocks":
          [ "BLJzL1WcGGuoNE71BVpV9FRfdJ3Epffg1mCLL1emW46EdXwRt5H" ] },
      { "delegate": "tz1RjoHc98dBoqaH2jawF62XNKh7YsHwbkEv",
        "reception_time": "2022-01-19T09:53:20.836-00:00",
        "included_in_blocks":
          [ "BLJzL1WcGGuoNE71BVpV9FRfdJ3Epffg1mCLL1emW46EdXwRt5H" ] },
      { "delegate": "tz1abmz7jiCV2GH2u81LRrGgAFFgvQgiDiaf",
        "reception_time": "2022-01-19T09:53:21.006-00:00",
        "included_in_blocks":
          [ "BLJzL1WcGGuoNE71BVpV9FRfdJ3Epffg1mCLL1emW46EdXwRt5H" ] },
      { "delegate": "tz2FCNBrERXtaTtNX6iimR1UJ5JSDxvdHM93",
        "reception_time": "2022-01-19T09:53:21.245-00:00",
        "included_in_blocks":
          [ "BLJzL1WcGGuoNE71BVpV9FRfdJ3Epffg1mCLL1emW46EdXwRt5H" ] },
      { "delegate": "tz3bTdwZinP8U1JmSweNzVKhmwafqWmFWRfk",
        "reception_time": "2022-01-19T09:53:20.842-00:00",
        "included_in_blocks":
          [ "BLJzL1WcGGuoNE71BVpV9FRfdJ3Epffg1mCLL1emW46EdXwRt5H" ] },
      { "delegate": "tz1LmaFsWRkjr7QMCx5PtV6xTUz3AmEpKQiF",
        "reception_time": "2022-01-19T09:53:20.731-00:00",
        "included_in_blocks":
          [ "BLJzL1WcGGuoNE71BVpV9FRfdJ3Epffg1mCLL1emW46EdXwRt5H" ] },
      { "delegate": "tz3RB4aoyjov4KEVRbuhvQ1CKJgBJMWhaeB8",
        "reception_time": "2022-01-19T09:53:20.705-00:00",
        "included_in_blocks":
          [ "BLJzL1WcGGuoNE71BVpV9FRfdJ3Epffg1mCLL1emW46EdXwRt5H" ] },
      { "delegate": "tz3QCNyySViKHmeSr45kzDxzchys7NiXCWoa",
        "reception_time": "2022-01-19T09:53:20.694-00:00",
        "included_in_blocks":
          [ "BLJzL1WcGGuoNE71BVpV9FRfdJ3Epffg1mCLL1emW46EdXwRt5H" ] },
      { "delegate": "tz1NEKxGEHsFufk87CVZcrqWu8o22qh46GK6",
        "reception_time": "2022-01-19T09:53:20.680-00:00",
        "included_in_blocks":
          [ "BLJzL1WcGGuoNE71BVpV9FRfdJ3Epffg1mCLL1emW46EdXwRt5H" ] },
      { "delegate": "tz1Tnjaxk6tbAeC2TmMApPh8UsrEVQvhHvx5",
        "reception_time": "2022-01-19T09:53:20.698-00:00",
        "included_in_blocks":
          [ "BLJzL1WcGGuoNE71BVpV9FRfdJ3Epffg1mCLL1emW46EdXwRt5H" ] },
      { "delegate": "tz3S6BBeKgJGXxvLyZ1xzXzMPn11nnFtq5L9",
        "reception_time": "2022-01-19T09:53:20.579-00:00",
        "included_in_blocks":
          [ "BLJzL1WcGGuoNE71BVpV9FRfdJ3Epffg1mCLL1emW46EdXwRt5H" ] },
      { "delegate": "tz3QT9dHYKDqh563chVa6za8526ys1UKfRfL",
        "reception_time": "2022-01-19T09:53:20.564-00:00",
        "included_in_blocks":
          [ "BLJzL1WcGGuoNE71BVpV9FRfdJ3Epffg1mCLL1emW46EdXwRt5H" ] },
      { "delegate": "tz1S8MNvuFEUsWgjHvi3AxibRBf388NhT1q2",
        "reception_time": "2022-01-19T09:53:20.537-00:00",
        "included_in_blocks":
          [ "BLJzL1WcGGuoNE71BVpV9FRfdJ3Epffg1mCLL1emW46EdXwRt5H" ] },
      { "delegate": "tz1T7duV5gZWSTq4YpBGbXNLTfznCLDrFxvs",
        "reception_time": "2022-01-19T09:53:20.551-00:00",
        "included_in_blocks":
          [ "BLJzL1WcGGuoNE71BVpV9FRfdJ3Epffg1mCLL1emW46EdXwRt5H" ] },
      { "delegate": "tz1TRqbYbUf2GyrjErf3hBzgBJPzW8y36qEs",
        "reception_time": "2022-01-19T09:53:20.518-00:00",
        "included_in_blocks":
          [ "BLJzL1WcGGuoNE71BVpV9FRfdJ3Epffg1mCLL1emW46EdXwRt5H" ] },
      { "delegate": "tz1MQMiZHV8q4tTwUMWmS5Y3kaP6J2136iXr",
        "reception_time": "2022-01-19T09:53:20.510-00:00",
        "included_in_blocks":
          [ "BLJzL1WcGGuoNE71BVpV9FRfdJ3Epffg1mCLL1emW46EdXwRt5H" ] },
      { "delegate": "tz1LnWa4AiFCjMezTgSNa65QFoo7DQGEWgEU",
        "reception_time": "2022-01-19T09:53:20.499-00:00",
        "included_in_blocks":
          [ "BLJzL1WcGGuoNE71BVpV9FRfdJ3Epffg1mCLL1emW46EdXwRt5H" ] },
      { "delegate": "tz1dNVDWPf3Q59SdJqnjdnu277iyvReiRS9M",
        "reception_time": "2022-01-19T09:53:20.504-00:00",
        "included_in_blocks":
          [ "BLJzL1WcGGuoNE71BVpV9FRfdJ3Epffg1mCLL1emW46EdXwRt5H" ] },
      { "delegate": "tz1KfEsrtDaA1sX7vdM4qmEPWuSytuqCDp5j",
        "reception_time": "2022-01-19T09:53:20.452-00:00",
        "included_in_blocks":
          [ "BLJzL1WcGGuoNE71BVpV9FRfdJ3Epffg1mCLL1emW46EdXwRt5H" ] },
      { "delegate": "tz1RQhNh7iB9CZA7i3ifTWNwiGYVffponfbB",
        "reception_time": "2022-01-19T09:53:20.420-00:00",
        "included_in_blocks":
          [ "BLJzL1WcGGuoNE71BVpV9FRfdJ3Epffg1mCLL1emW46EdXwRt5H" ] },
      { "delegate": "tz3hw2kqXhLUvY65ca1eety2oQTpAvd34R9Q",
        "reception_time": "2022-01-19T09:53:20.369-00:00",
        "included_in_blocks":
          [ "BLJzL1WcGGuoNE71BVpV9FRfdJ3Epffg1mCLL1emW46EdXwRt5H" ] },
      { "delegate": "tz3QSGPoRp3Kn7n3vY24eYeu3Peuqo45LQ4D",
        "reception_time": "2022-01-19T09:53:20.434-00:00",
        "included_in_blocks":
          [ "BLJzL1WcGGuoNE71BVpV9FRfdJ3Epffg1mCLL1emW46EdXwRt5H" ] },
      { "delegate": "tz3RKYFsLuQzKBtmYuLNas7uMu3AsYd4QdsA",
        "reception_time": "2022-01-19T09:53:20.409-00:00",
        "included_in_blocks":
          [ "BLJzL1WcGGuoNE71BVpV9FRfdJ3Epffg1mCLL1emW46EdXwRt5H" ] },
      { "delegate": "tz1V4qCyvPKZ5UeqdH14HN42rxvNPQfc9UZg",
        "reception_time": "2022-01-19T09:53:20.440-00:00",
        "included_in_blocks":
          [ "BLJzL1WcGGuoNE71BVpV9FRfdJ3Epffg1mCLL1emW46EdXwRt5H" ] },
      { "delegate": "tz3gtoUxdudfBRcNY7iVdKPHCYYX6xdPpoRS",
        "reception_time": "2022-01-19T09:53:20.460-00:00",
        "included_in_blocks":
          [ "BLJzL1WcGGuoNE71BVpV9FRfdJ3Epffg1mCLL1emW46EdXwRt5H" ] },
      { "delegate": "tz3NxTnke1acr8o3h5y9ytf5awQBGNJUKzVU",
        "reception_time": "2022-01-19T09:53:20.427-00:00",
        "included_in_blocks":
          [ "BLJzL1WcGGuoNE71BVpV9FRfdJ3Epffg1mCLL1emW46EdXwRt5H" ] },
      { "delegate": "tz1P2Po7YM526ughEsRbY4oR9zaUPDZjxFrb",
        "reception_time": "2022-01-19T09:53:20.417-00:00",
        "included_in_blocks":
          [ "BLJzL1WcGGuoNE71BVpV9FRfdJ3Epffg1mCLL1emW46EdXwRt5H" ] },
      { "delegate": "tz1RCFbB9GpALpsZtu6J58sb74dm8qe6XBzv",
        "reception_time": "2022-01-19T09:53:20.344-00:00",
        "included_in_blocks":
          [ "BLJzL1WcGGuoNE71BVpV9FRfdJ3Epffg1mCLL1emW46EdXwRt5H" ] },
      { "delegate": "tz1PWCDnz783NNGGQjEFFsHtrcK5yBW4E2rm",
        "reception_time": "2022-01-19T09:53:20.344-00:00",
        "included_in_blocks":
          [ "BLJzL1WcGGuoNE71BVpV9FRfdJ3Epffg1mCLL1emW46EdXwRt5H" ] },
      { "delegate": "tz1Nf6tsK4G6bBqgSQERy4nUtkHNKUVdh7q1",
        "reception_time": "2022-01-19T09:53:20.417-00:00",
        "included_in_blocks":
          [ "BLJzL1WcGGuoNE71BVpV9FRfdJ3Epffg1mCLL1emW46EdXwRt5H" ] },
      { "delegate": "tz3Zhs2dygr55yHyQyKjntAtY9bgfhLZ4Xj1",
        "reception_time": "2022-01-19T09:53:20.379-00:00",
        "included_in_blocks":
          [ "BLJzL1WcGGuoNE71BVpV9FRfdJ3Epffg1mCLL1emW46EdXwRt5H" ] },
      { "delegate": "tz1SYq214SCBy9naR6cvycQsYcUGpBqQAE8d",
        "reception_time": "2022-01-19T09:53:20.437-00:00",
        "included_in_blocks":
          [ "BLJzL1WcGGuoNE71BVpV9FRfdJ3Epffg1mCLL1emW46EdXwRt5H" ] },
      { "delegate": "tz3ZbP2pM3nwvXztbuMJwJnDvV5xdpU8UkkD",
        "reception_time": "2022-01-19T09:53:20.336-00:00",
        "included_in_blocks":
          [ "BLJzL1WcGGuoNE71BVpV9FRfdJ3Epffg1mCLL1emW46EdXwRt5H" ] },
      { "delegate": "tz1WCd2jm4uSt4vntk4vSuUWoZQGhLcDuR9q",
        "reception_time": "2022-01-19T09:53:20.409-00:00",
        "included_in_blocks":
          [ "BLJzL1WcGGuoNE71BVpV9FRfdJ3Epffg1mCLL1emW46EdXwRt5H" ] },
      { "delegate": "tz1beersuEDv8Z7ngQ825xfbaJNS2EhXnyHR",
        "reception_time": "2022-01-19T09:53:20.350-00:00",
        "included_in_blocks":
          [ "BLJzL1WcGGuoNE71BVpV9FRfdJ3Epffg1mCLL1emW46EdXwRt5H" ] },
      { "delegate": "tz1Sy81vSrRCLJrpnsyfVnn5BH6hhiK9vaBK",
        "reception_time": "2022-01-19T09:53:20.387-00:00",
        "included_in_blocks":
          [ "BLJzL1WcGGuoNE71BVpV9FRfdJ3Epffg1mCLL1emW46EdXwRt5H" ] },
      { "delegate": "tz1aXD7Jigrt3PBYSpHSg5Rr33SexMmmM5Ys",
        "reception_time": "2022-01-19T09:53:20.328-00:00",
        "included_in_blocks":
          [ "BLJzL1WcGGuoNE71BVpV9FRfdJ3Epffg1mCLL1emW46EdXwRt5H" ] },
      { "delegate": "tz1irJKkXS2DBWkU1NnmFQx1c1L7pbGg4yhk",
        "reception_time": "2022-01-19T09:53:20.309-00:00",
        "included_in_blocks":
          [ "BLJzL1WcGGuoNE71BVpV9FRfdJ3Epffg1mCLL1emW46EdXwRt5H" ] },
      { "delegate": "tz1ei4WtWEMEJekSv8qDnu9PExG6Q8HgRGr3",
        "reception_time": "2022-01-19T09:53:20.464-00:00",
        "included_in_blocks":
          [ "BLJzL1WcGGuoNE71BVpV9FRfdJ3Epffg1mCLL1emW46EdXwRt5H" ] } ] }