{ "blocks":
    [ { "hash": "BLA5nHruoRJPozPAHxHQ3nLWFM1QdVDvKkWSiSyRfiM6FGNZCyE",
        "delegate": "tz1irJKkXS2DBWkU1NnmFQx1c1L7pbGg4yhk",
        "reception_time": "2022-01-19T06:04:05.406-00:00",
        "timestamp": "2022-01-19T06:04:00Z" } ],
  "endorsements":
    [ { "delegate": "tz1Scdr2HsZiQjc7bHMeBbmDRXYVvdhjJbBh",
        "reception_time": "2022-01-19T06:04:05.367-00:00",
        "errors":
          [ { "kind": "temporary",
              "id": "proto.011-PtHangz2.prefilter.outdated_endorsement" } ],
        "included_in_blocks":
          [ "BLKCDZYsSsJcyfWcqB2iaDm6mDGg6S3jQ6jbccrPkiv4WT5tRj8" ] },
      { "delegate": "tz1eEnQhbwf6trb8Q8mPb2RaPkNk2rN7BKi8",
        "reception_time": "2022-01-19T06:04:05.303-00:00",
        "errors":
          [ { "kind": "temporary",
              "id": "proto.011-PtHangz2.prefilter.outdated_endorsement" } ],
        "included_in_blocks":
          [ "BLKCDZYsSsJcyfWcqB2iaDm6mDGg6S3jQ6jbccrPkiv4WT5tRj8" ] },
      { "delegate": "tz1S8e9GgdZG78XJRB3NqabfWeM37GnhZMWQ",
        "reception_time": "2022-01-19T06:04:05.121-00:00",
        "errors":
          [ { "kind": "temporary",
              "id": "proto.011-PtHangz2.prefilter.outdated_endorsement" } ],
        "included_in_blocks":
          [ "BLKCDZYsSsJcyfWcqB2iaDm6mDGg6S3jQ6jbccrPkiv4WT5tRj8" ] },
      { "delegate": "tz3UoffC7FG7zfpmvmjUmUeAaHvzdcUvAj6r",
        "reception_time": "2022-01-19T06:04:09.454-00:00",
        "included_in_blocks":
          [ "BLKCDZYsSsJcyfWcqB2iaDm6mDGg6S3jQ6jbccrPkiv4WT5tRj8" ] },
      { "delegate": "tz1fUyqYH7H4pRHN1roWY17giXhy1RvxjgUV",
        "reception_time": "2022-01-19T06:04:09.404-00:00",
        "included_in_blocks":
          [ "BLKCDZYsSsJcyfWcqB2iaDm6mDGg6S3jQ6jbccrPkiv4WT5tRj8" ] },
      { "delegate": "tz3WMqdzXqRWXwyvj5Hp2H7QEepaUuS7vd9K",
        "reception_time": "2022-01-19T06:04:09.081-00:00",
        "included_in_blocks":
          [ "BLKCDZYsSsJcyfWcqB2iaDm6mDGg6S3jQ6jbccrPkiv4WT5tRj8" ] },
      { "delegate": "tz1RAQJ6mcKiG6odfM3RH7iJYR1aRWRAuf5T",
        "reception_time": "2022-01-19T06:04:08.735-00:00",
        "included_in_blocks":
          [ "BLKCDZYsSsJcyfWcqB2iaDm6mDGg6S3jQ6jbccrPkiv4WT5tRj8" ] },
      { "delegate": "tz3NExpXn9aPNZPorRE4SdjJ2RGrfbJgMAaV",
        "reception_time": "2022-01-19T06:04:08.982-00:00",
        "included_in_blocks":
          [ "BLKCDZYsSsJcyfWcqB2iaDm6mDGg6S3jQ6jbccrPkiv4WT5tRj8" ] },
      { "delegate": "tz1aRoaRhSpRYvFdyvgWLL6TGyRoGF51wDjM",
        "reception_time": "2022-01-19T06:04:08.564-00:00",
        "included_in_blocks":
          [ "BLKCDZYsSsJcyfWcqB2iaDm6mDGg6S3jQ6jbccrPkiv4WT5tRj8" ] },
      { "delegate": "tz3RDC3Jdn4j15J7bBHZd29EUee9gVB1CxD9",
        "reception_time": "2022-01-19T06:04:08.425-00:00",
        "included_in_blocks":
          [ "BLKCDZYsSsJcyfWcqB2iaDm6mDGg6S3jQ6jbccrPkiv4WT5tRj8" ] },
      { "delegate": "tz1UvkANVPWppVgMkLnvN7BwYZsCP7vm6NVd",
        "reception_time": "2022-01-19T06:04:08.265-00:00",
        "included_in_blocks":
          [ "BLKCDZYsSsJcyfWcqB2iaDm6mDGg6S3jQ6jbccrPkiv4WT5tRj8" ] },
      { "delegate": "tz1TRqbYbUf2GyrjErf3hBzgBJPzW8y36qEs",
        "reception_time": "2022-01-19T06:04:08.329-00:00",
        "included_in_blocks":
          [ "BLKCDZYsSsJcyfWcqB2iaDm6mDGg6S3jQ6jbccrPkiv4WT5tRj8" ] },
      { "delegate": "tz1T7duV5gZWSTq4YpBGbXNLTfznCLDrFxvs",
        "reception_time": "2022-01-19T06:04:08.260-00:00",
        "included_in_blocks":
          [ "BLKCDZYsSsJcyfWcqB2iaDm6mDGg6S3jQ6jbccrPkiv4WT5tRj8" ] },
      { "delegate": "tz3VEZ4k6a4Wx42iyev6i2aVAptTRLEAivNN",
        "reception_time": "2022-01-19T06:04:08.243-00:00",
        "included_in_blocks":
          [ "BLKCDZYsSsJcyfWcqB2iaDm6mDGg6S3jQ6jbccrPkiv4WT5tRj8" ] },
      { "delegate": "tz1awXW7wuXy21c66vBudMXQVAPgRnqqwgTH",
        "reception_time": "2022-01-19T06:04:08.186-00:00",
        "included_in_blocks":
          [ "BLKCDZYsSsJcyfWcqB2iaDm6mDGg6S3jQ6jbccrPkiv4WT5tRj8" ] },
      { "delegate": "tz1Tnjaxk6tbAeC2TmMApPh8UsrEVQvhHvx5",
        "reception_time": "2022-01-19T06:04:07.989-00:00",
        "included_in_blocks":
          [ "BLKCDZYsSsJcyfWcqB2iaDm6mDGg6S3jQ6jbccrPkiv4WT5tRj8" ] },
      { "delegate": "tz1NEKxGEHsFufk87CVZcrqWu8o22qh46GK6",
        "reception_time": "2022-01-19T06:04:07.888-00:00",
        "included_in_blocks":
          [ "BLKCDZYsSsJcyfWcqB2iaDm6mDGg6S3jQ6jbccrPkiv4WT5tRj8" ] },
      { "delegate": "tz1UMCB2AHSTwG7YcGNr31CqYCtGN873royv",
        "reception_time": "2022-01-19T06:04:07.849-00:00",
        "included_in_blocks":
          [ "BLKCDZYsSsJcyfWcqB2iaDm6mDGg6S3jQ6jbccrPkiv4WT5tRj8" ] },
      { "delegate": "tz2FCNBrERXtaTtNX6iimR1UJ5JSDxvdHM93",
        "reception_time": "2022-01-19T06:04:07.785-00:00",
        "included_in_blocks":
          [ "BLKCDZYsSsJcyfWcqB2iaDm6mDGg6S3jQ6jbccrPkiv4WT5tRj8" ] },
      { "delegate": "tz1Nf6tsK4G6bBqgSQERy4nUtkHNKUVdh7q1",
        "reception_time": "2022-01-19T06:04:07.856-00:00",
        "included_in_blocks":
          [ "BLKCDZYsSsJcyfWcqB2iaDm6mDGg6S3jQ6jbccrPkiv4WT5tRj8" ] },
      { "delegate": "tz1S6H83gugqK4dR5Had9jWR9M1ZdAAVgU5e",
        "reception_time": "2022-01-19T06:04:07.863-00:00",
        "included_in_blocks":
          [ "BLKCDZYsSsJcyfWcqB2iaDm6mDGg6S3jQ6jbccrPkiv4WT5tRj8" ] },
      { "delegate": "tz1WBfwbT66FC6BTLexc2BoyCCBM9LG7pnVW",
        "reception_time": "2022-01-19T06:04:07.819-00:00",
        "included_in_blocks":
          [ "BLKCDZYsSsJcyfWcqB2iaDm6mDGg6S3jQ6jbccrPkiv4WT5tRj8" ] },
      { "delegate": "tz1abmz7jiCV2GH2u81LRrGgAFFgvQgiDiaf",
        "reception_time": "2022-01-19T06:04:07.797-00:00",
        "included_in_blocks":
          [ "BLKCDZYsSsJcyfWcqB2iaDm6mDGg6S3jQ6jbccrPkiv4WT5tRj8" ] },
      { "delegate": "tz1S8MNvuFEUsWgjHvi3AxibRBf388NhT1q2",
        "reception_time": "2022-01-19T06:04:07.724-00:00",
        "included_in_blocks":
          [ "BLKCDZYsSsJcyfWcqB2iaDm6mDGg6S3jQ6jbccrPkiv4WT5tRj8" ] },
      { "delegate": "tz1hAYfexyzPGG6RhZZMpDvAHifubsbb6kgn",
        "reception_time": "2022-01-19T06:04:07.667-00:00",
        "included_in_blocks":
          [ "BLKCDZYsSsJcyfWcqB2iaDm6mDGg6S3jQ6jbccrPkiv4WT5tRj8" ] },
      { "delegate": "tz1VceyYUpq1gk5dtp6jXQRtCtY8hm5DKt72",
        "reception_time": "2022-01-19T06:04:07.738-00:00",
        "included_in_blocks":
          [ "BLKCDZYsSsJcyfWcqB2iaDm6mDGg6S3jQ6jbccrPkiv4WT5tRj8" ] },
      { "delegate": "tz1fb7c66UwePkkfDXz4ajFaBP9hVNLdS7JJ",
        "reception_time": "2022-01-19T06:04:07.709-00:00",
        "included_in_blocks":
          [ "BLKCDZYsSsJcyfWcqB2iaDm6mDGg6S3jQ6jbccrPkiv4WT5tRj8" ] },
      { "delegate": "tz1gfArv665EUkSg2ojMBzcbfwuPxAvqPvjo",
        "reception_time": "2022-01-19T06:04:07.671-00:00",
        "included_in_blocks":
          [ "BLKCDZYsSsJcyfWcqB2iaDm6mDGg6S3jQ6jbccrPkiv4WT5tRj8" ] },
      { "delegate": "tz1g8vkmcde6sWKaG2NN9WKzCkDM6Rziq194",
        "reception_time": "2022-01-19T06:04:07.686-00:00",
        "included_in_blocks":
          [ "BLKCDZYsSsJcyfWcqB2iaDm6mDGg6S3jQ6jbccrPkiv4WT5tRj8" ] },
      { "delegate": "tz1LmaFsWRkjr7QMCx5PtV6xTUz3AmEpKQiF",
        "reception_time": "2022-01-19T06:04:07.664-00:00",
        "included_in_blocks":
          [ "BLKCDZYsSsJcyfWcqB2iaDm6mDGg6S3jQ6jbccrPkiv4WT5tRj8" ] },
      { "delegate": "tz1KfEsrtDaA1sX7vdM4qmEPWuSytuqCDp5j",
        "reception_time": "2022-01-19T06:04:07.718-00:00",
        "included_in_blocks":
          [ "BLKCDZYsSsJcyfWcqB2iaDm6mDGg6S3jQ6jbccrPkiv4WT5tRj8" ] },
      { "delegate": "tz1RQhNh7iB9CZA7i3ifTWNwiGYVffponfbB",
        "reception_time": "2022-01-19T06:04:07.659-00:00",
        "included_in_blocks":
          [ "BLKCDZYsSsJcyfWcqB2iaDm6mDGg6S3jQ6jbccrPkiv4WT5tRj8" ] },
      { "delegate": "tz1ei4WtWEMEJekSv8qDnu9PExG6Q8HgRGr3",
        "reception_time": "2022-01-19T06:04:07.721-00:00",
        "included_in_blocks":
          [ "BLKCDZYsSsJcyfWcqB2iaDm6mDGg6S3jQ6jbccrPkiv4WT5tRj8" ] },
      { "delegate": "tz3RB4aoyjov4KEVRbuhvQ1CKJgBJMWhaeB8",
        "reception_time": "2022-01-19T06:04:07.681-00:00",
        "included_in_blocks":
          [ "BLKCDZYsSsJcyfWcqB2iaDm6mDGg6S3jQ6jbccrPkiv4WT5tRj8" ] },
      { "delegate": "tz1V4qCyvPKZ5UeqdH14HN42rxvNPQfc9UZg",
        "reception_time": "2022-01-19T06:04:07.588-00:00",
        "included_in_blocks":
          [ "BLKCDZYsSsJcyfWcqB2iaDm6mDGg6S3jQ6jbccrPkiv4WT5tRj8" ] },
      { "delegate": "tz1MQJPGNMijnXnVoBENFz9rUhaPt3S7rWoz",
        "reception_time": "2022-01-19T06:04:07.627-00:00",
        "included_in_blocks":
          [ "BLKCDZYsSsJcyfWcqB2iaDm6mDGg6S3jQ6jbccrPkiv4WT5tRj8" ] },
      { "delegate": "tz1SYq214SCBy9naR6cvycQsYcUGpBqQAE8d",
        "reception_time": "2022-01-19T06:04:07.705-00:00",
        "included_in_blocks":
          [ "BLKCDZYsSsJcyfWcqB2iaDm6mDGg6S3jQ6jbccrPkiv4WT5tRj8" ] },
      { "delegate": "tz1dwu9aYb7CRNq4Y2zAjipdjFuSVKhHS8vA",
        "reception_time": "2022-01-19T06:04:07.584-00:00",
        "included_in_blocks":
          [ "BLKCDZYsSsJcyfWcqB2iaDm6mDGg6S3jQ6jbccrPkiv4WT5tRj8" ] },
      { "delegate": "tz1PWCDnz783NNGGQjEFFsHtrcK5yBW4E2rm",
        "reception_time": "2022-01-19T06:04:07.654-00:00",
        "included_in_blocks":
          [ "BLKCDZYsSsJcyfWcqB2iaDm6mDGg6S3jQ6jbccrPkiv4WT5tRj8" ] },
      { "delegate": "tz3bvNMQ95vfAYtG8193ymshqjSvmxiCUuR5",
        "reception_time": "2022-01-19T06:04:07.596-00:00",
        "included_in_blocks":
          [ "BLKCDZYsSsJcyfWcqB2iaDm6mDGg6S3jQ6jbccrPkiv4WT5tRj8" ] },
      { "delegate": "tz1fPKAtsYydh4f1wfWNfeNxWYu72TmM48fu",
        "reception_time": "2022-01-19T06:04:07.276-00:00",
        "included_in_blocks":
          [ "BLKCDZYsSsJcyfWcqB2iaDm6mDGg6S3jQ6jbccrPkiv4WT5tRj8" ] },
      { "delegate": "tz3bTdwZinP8U1JmSweNzVKhmwafqWmFWRfk",
        "reception_time": "2022-01-19T06:04:07.570-00:00",
        "included_in_blocks":
          [ "BLKCDZYsSsJcyfWcqB2iaDm6mDGg6S3jQ6jbccrPkiv4WT5tRj8" ] },
      { "delegate": "tz1RCFbB9GpALpsZtu6J58sb74dm8qe6XBzv",
        "reception_time": "2022-01-19T06:04:07.402-00:00",
        "included_in_blocks":
          [ "BLKCDZYsSsJcyfWcqB2iaDm6mDGg6S3jQ6jbccrPkiv4WT5tRj8" ] },
      { "delegate": "tz1MUbPBAH6jzhex85AW6MD9uJzXP58N1Dro",
        "reception_time": "2022-01-19T06:04:07.465-00:00",
        "included_in_blocks":
          [ "BLKCDZYsSsJcyfWcqB2iaDm6mDGg6S3jQ6jbccrPkiv4WT5tRj8" ] },
      { "delegate": "tz1ajgycuHmd2z2JbTSJxKv7x6cok2KuNSk1",
        "reception_time": "2022-01-19T06:04:07.526-00:00",
        "included_in_blocks":
          [ "BLKCDZYsSsJcyfWcqB2iaDm6mDGg6S3jQ6jbccrPkiv4WT5tRj8" ] },
      { "delegate": "tz3QT9dHYKDqh563chVa6za8526ys1UKfRfL",
        "reception_time": "2022-01-19T06:04:07.548-00:00",
        "included_in_blocks":
          [ "BLKCDZYsSsJcyfWcqB2iaDm6mDGg6S3jQ6jbccrPkiv4WT5tRj8" ] },
      { "delegate": "tz3S6BBeKgJGXxvLyZ1xzXzMPn11nnFtq5L9",
        "reception_time": "2022-01-19T06:04:07.533-00:00",
        "included_in_blocks":
          [ "BLKCDZYsSsJcyfWcqB2iaDm6mDGg6S3jQ6jbccrPkiv4WT5tRj8" ] },
      { "delegate": "tz1TzaNn7wSQSP5gYPXCnNzBCpyMiidCq1PX",
        "reception_time": "2022-01-19T06:04:07.373-00:00",
        "included_in_blocks":
          [ "BLKCDZYsSsJcyfWcqB2iaDm6mDGg6S3jQ6jbccrPkiv4WT5tRj8" ] },
      { "delegate": "tz1WCd2jm4uSt4vntk4vSuUWoZQGhLcDuR9q",
        "reception_time": "2022-01-19T06:04:07.347-00:00",
        "included_in_blocks":
          [ "BLKCDZYsSsJcyfWcqB2iaDm6mDGg6S3jQ6jbccrPkiv4WT5tRj8" ] },
      { "delegate": "tz1Kf25fX1VdmYGSEzwFy1wNmkbSEZ2V83sY",
        "reception_time": "2022-01-19T06:04:07.325-00:00",
        "included_in_blocks":
          [ "BLKCDZYsSsJcyfWcqB2iaDm6mDGg6S3jQ6jbccrPkiv4WT5tRj8" ] },
      { "delegate": "tz1Ldzz6k1BHdhuKvAtMRX7h5kJSMHESMHLC",
        "reception_time": "2022-01-19T06:04:07.350-00:00",
        "included_in_blocks":
          [ "BLKCDZYsSsJcyfWcqB2iaDm6mDGg6S3jQ6jbccrPkiv4WT5tRj8" ] },
      { "delegate": "tz1gUNyn3hmnEWqkusWPzxRaon1cs7ndWh7h",
        "reception_time": "2022-01-19T06:04:07.305-00:00",
        "included_in_blocks":
          [ "BLKCDZYsSsJcyfWcqB2iaDm6mDGg6S3jQ6jbccrPkiv4WT5tRj8" ] },
      { "delegate": "tz1VQnqCCqX4K5sP3FNkVSNKTdCAMJDd3E1n",
        "reception_time": "2022-01-19T06:04:07.329-00:00",
        "included_in_blocks":
          [ "BLKCDZYsSsJcyfWcqB2iaDm6mDGg6S3jQ6jbccrPkiv4WT5tRj8" ] },
      { "delegate": "tz3gtoUxdudfBRcNY7iVdKPHCYYX6xdPpoRS",
        "reception_time": "2022-01-19T06:04:07.368-00:00",
        "included_in_blocks":
          [ "BLKCDZYsSsJcyfWcqB2iaDm6mDGg6S3jQ6jbccrPkiv4WT5tRj8" ] },
      { "delegate": "tz3QSGPoRp3Kn7n3vY24eYeu3Peuqo45LQ4D",
        "reception_time": "2022-01-19T06:04:07.358-00:00",
        "included_in_blocks":
          [ "BLKCDZYsSsJcyfWcqB2iaDm6mDGg6S3jQ6jbccrPkiv4WT5tRj8" ] },
      { "delegate": "tz3RKYFsLuQzKBtmYuLNas7uMu3AsYd4QdsA",
        "reception_time": "2022-01-19T06:04:07.341-00:00",
        "included_in_blocks":
          [ "BLKCDZYsSsJcyfWcqB2iaDm6mDGg6S3jQ6jbccrPkiv4WT5tRj8" ] },
      { "delegate": "tz3hw2kqXhLUvY65ca1eety2oQTpAvd34R9Q",
        "reception_time": "2022-01-19T06:04:07.287-00:00",
        "included_in_blocks":
          [ "BLKCDZYsSsJcyfWcqB2iaDm6mDGg6S3jQ6jbccrPkiv4WT5tRj8" ] },
      { "delegate": "tz3QCNyySViKHmeSr45kzDxzchys7NiXCWoa",
        "reception_time": "2022-01-19T06:04:07.412-00:00",
        "included_in_blocks":
          [ "BLKCDZYsSsJcyfWcqB2iaDm6mDGg6S3jQ6jbccrPkiv4WT5tRj8" ] },
      { "delegate": "tz3ZbP2pM3nwvXztbuMJwJnDvV5xdpU8UkkD",
        "reception_time": "2022-01-19T06:04:07.325-00:00",
        "included_in_blocks":
          [ "BLKCDZYsSsJcyfWcqB2iaDm6mDGg6S3jQ6jbccrPkiv4WT5tRj8" ] },
      { "delegate": "tz3NxTnke1acr8o3h5y9ytf5awQBGNJUKzVU",
        "reception_time": "2022-01-19T06:04:07.481-00:00",
        "included_in_blocks":
          [ "BLKCDZYsSsJcyfWcqB2iaDm6mDGg6S3jQ6jbccrPkiv4WT5tRj8" ] },
      { "delegate": "tz3Zhs2dygr55yHyQyKjntAtY9bgfhLZ4Xj1",
        "reception_time": "2022-01-19T06:04:07.314-00:00",
        "included_in_blocks":
          [ "BLKCDZYsSsJcyfWcqB2iaDm6mDGg6S3jQ6jbccrPkiv4WT5tRj8" ] },
      { "delegate": "tz1PMWrbSda1RvsRi8Xq7GRd3P7739jtyaM8",
        "reception_time": "2022-01-19T06:04:07.223-00:00",
        "included_in_blocks":
          [ "BLKCDZYsSsJcyfWcqB2iaDm6mDGg6S3jQ6jbccrPkiv4WT5tRj8" ] },
      { "delegate": "tz1TRspM5SeZpaQUhzByXbEvqKF1vnCM2YTK",
        "reception_time": "2022-01-19T06:04:07.332-00:00",
        "included_in_blocks":
          [ "BLKCDZYsSsJcyfWcqB2iaDm6mDGg6S3jQ6jbccrPkiv4WT5tRj8" ] },
      { "delegate": "tz1RV1MBbZMR68tacosb7Mwj6LkbPSUS1er1",
        "reception_time": "2022-01-19T06:04:07.223-00:00",
        "included_in_blocks":
          [ "BLKCDZYsSsJcyfWcqB2iaDm6mDGg6S3jQ6jbccrPkiv4WT5tRj8" ] },
      { "delegate": "tz1P2Po7YM526ughEsRbY4oR9zaUPDZjxFrb",
        "reception_time": "2022-01-19T06:04:07.223-00:00",
        "included_in_blocks":
          [ "BLKCDZYsSsJcyfWcqB2iaDm6mDGg6S3jQ6jbccrPkiv4WT5tRj8" ] },
      { "delegate": "tz1irJKkXS2DBWkU1NnmFQx1c1L7pbGg4yhk",
        "reception_time": "2022-01-19T06:04:07.230-00:00",
        "included_in_blocks":
          [ "BLKCDZYsSsJcyfWcqB2iaDm6mDGg6S3jQ6jbccrPkiv4WT5tRj8" ] },
      { "delegate": "tz1aDiEJf9ztRrAJEXZfcG3CKimoKsGhwVAi",
        "reception_time": "2022-01-19T06:04:07.223-00:00",
        "included_in_blocks":
          [ "BLKCDZYsSsJcyfWcqB2iaDm6mDGg6S3jQ6jbccrPkiv4WT5tRj8" ] },
      { "delegate": "tz1beersuEDv8Z7ngQ825xfbaJNS2EhXnyHR",
        "reception_time": "2022-01-19T06:04:07.223-00:00",
        "included_in_blocks":
          [ "BLKCDZYsSsJcyfWcqB2iaDm6mDGg6S3jQ6jbccrPkiv4WT5tRj8" ] } ] }