{ "blocks":
    [ { "hash": "BMJL9bQCAiNafHBpRvJeczEjk947a6i2CfGoeVLhUzjDD1QbPCH",
        "delegate": "tz3NxTnke1acr8o3h5y9ytf5awQBGNJUKzVU",
        "reception_time": "2022-01-19T06:52:37.977-00:00",
        "timestamp": "2022-01-19T06:52:30Z" } ],
  "endorsements":
    [ { "delegate": "tz1RV1MBbZMR68tacosb7Mwj6LkbPSUS1er1",
        "reception_time": "2022-01-19T06:52:37.979-00:00",
        "errors":
          [ { "kind": "temporary",
              "id": "proto.011-PtHangz2.prefilter.outdated_endorsement" } ],
        "included_in_blocks":
          [ "BLrDvsnSphif698jJo53j3BBvzTgEbDmemFkZv2FYQpANo3x6t7" ] },
      { "delegate": "tz3ZbP2pM3nwvXztbuMJwJnDvV5xdpU8UkkD",
        "reception_time": "2022-01-19T06:52:37.922-00:00",
        "errors":
          [ { "kind": "temporary",
              "id": "proto.011-PtHangz2.prefilter.outdated_endorsement" } ],
        "included_in_blocks":
          [ "BLrDvsnSphif698jJo53j3BBvzTgEbDmemFkZv2FYQpANo3x6t7" ] },
      { "delegate": "tz3NxTnke1acr8o3h5y9ytf5awQBGNJUKzVU",
        "reception_time": "2022-01-19T06:52:37.904-00:00",
        "errors":
          [ { "kind": "temporary",
              "id": "proto.011-PtHangz2.prefilter.outdated_endorsement" } ],
        "included_in_blocks":
          [ "BLrDvsnSphif698jJo53j3BBvzTgEbDmemFkZv2FYQpANo3x6t7" ] },
      { "delegate": "tz1MJx9vhaNRSimcuXPK2rW4fLccQnDAnVKJ",
        "reception_time": "2022-01-19T06:52:37.852-00:00",
        "errors":
          [ { "kind": "temporary",
              "id": "proto.011-PtHangz2.prefilter.outdated_endorsement" } ],
        "included_in_blocks":
          [ "BLrDvsnSphif698jJo53j3BBvzTgEbDmemFkZv2FYQpANo3x6t7" ] },
      { "delegate": "tz1Ldzz6k1BHdhuKvAtMRX7h5kJSMHESMHLC",
        "reception_time": "2022-01-19T06:52:37.809-00:00",
        "errors":
          [ { "kind": "temporary",
              "id": "proto.011-PtHangz2.prefilter.outdated_endorsement" } ],
        "included_in_blocks":
          [ "BLrDvsnSphif698jJo53j3BBvzTgEbDmemFkZv2FYQpANo3x6t7" ] },
      { "delegate": "tz1P2Po7YM526ughEsRbY4oR9zaUPDZjxFrb",
        "reception_time": "2022-01-19T06:52:37.440-00:00",
        "errors":
          [ { "kind": "temporary",
              "id": "proto.011-PtHangz2.prefilter.outdated_endorsement" } ],
        "included_in_blocks":
          [ "BLrDvsnSphif698jJo53j3BBvzTgEbDmemFkZv2FYQpANo3x6t7" ] },
      { "delegate": "tz1VQnqCCqX4K5sP3FNkVSNKTdCAMJDd3E1n",
        "reception_time": "2022-01-19T06:52:37.410-00:00",
        "errors":
          [ { "kind": "temporary",
              "id": "proto.011-PtHangz2.prefilter.outdated_endorsement" } ],
        "included_in_blocks":
          [ "BLrDvsnSphif698jJo53j3BBvzTgEbDmemFkZv2FYQpANo3x6t7" ] },
      { "delegate": "tz1STeamwbp68THcny9zk3LsbG3H36DMvbRK",
        "reception_time": "2022-01-19T06:52:37.354-00:00",
        "errors":
          [ { "kind": "temporary",
              "id": "proto.011-PtHangz2.prefilter.outdated_endorsement" } ],
        "included_in_blocks":
          [ "BLrDvsnSphif698jJo53j3BBvzTgEbDmemFkZv2FYQpANo3x6t7" ] },
      { "delegate": "tz1gUNyn3hmnEWqkusWPzxRaon1cs7ndWh7h",
        "reception_time": "2022-01-19T06:52:37.305-00:00",
        "errors":
          [ { "kind": "temporary",
              "id": "proto.011-PtHangz2.prefilter.outdated_endorsement" } ],
        "included_in_blocks":
          [ "BLrDvsnSphif698jJo53j3BBvzTgEbDmemFkZv2FYQpANo3x6t7" ] },
      { "delegate": "tz1TXzyaKUA8wsWefdSnyaYFnV2M3vCV7er9",
        "reception_time": "2022-01-19T06:52:37.260-00:00",
        "errors":
          [ { "kind": "temporary",
              "id": "proto.011-PtHangz2.prefilter.outdated_endorsement" } ],
        "included_in_blocks":
          [ "BLrDvsnSphif698jJo53j3BBvzTgEbDmemFkZv2FYQpANo3x6t7" ] },
      { "delegate": "tz1Scdr2HsZiQjc7bHMeBbmDRXYVvdhjJbBh",
        "reception_time": "2022-01-19T06:52:37.188-00:00",
        "errors":
          [ { "kind": "temporary",
              "id": "proto.011-PtHangz2.prefilter.outdated_endorsement" } ],
        "included_in_blocks":
          [ "BLrDvsnSphif698jJo53j3BBvzTgEbDmemFkZv2FYQpANo3x6t7" ] },
      { "delegate": "tz1S8e9GgdZG78XJRB3NqabfWeM37GnhZMWQ",
        "reception_time": "2022-01-19T06:52:36.814-00:00",
        "errors":
          [ { "kind": "temporary",
              "id": "proto.011-PtHangz2.prefilter.outdated_endorsement" } ],
        "included_in_blocks":
          [ "BLrDvsnSphif698jJo53j3BBvzTgEbDmemFkZv2FYQpANo3x6t7" ] },
      { "delegate": "tz1dbfppLAAxXZNtf2SDps7rch3qfUznKSoK" },
      { "delegate": "tz1Kt4P8BCaP93AEV4eA7gmpRryWt5hznjCP",
        "reception_time": "2022-01-19T06:52:39.716-00:00",
        "included_in_blocks":
          [ "BLrDvsnSphif698jJo53j3BBvzTgEbDmemFkZv2FYQpANo3x6t7" ] },
      { "delegate": "tz1TRspM5SeZpaQUhzByXbEvqKF1vnCM2YTK",
        "reception_time": "2022-01-19T06:52:40.242-00:00",
        "included_in_blocks":
          [ "BLrDvsnSphif698jJo53j3BBvzTgEbDmemFkZv2FYQpANo3x6t7" ] },
      { "delegate": "tz3hw2kqXhLUvY65ca1eety2oQTpAvd34R9Q",
        "reception_time": "2022-01-19T06:52:40.366-00:00",
        "included_in_blocks":
          [ "BLrDvsnSphif698jJo53j3BBvzTgEbDmemFkZv2FYQpANo3x6t7" ] },
      { "delegate": "tz3iJu5vrKZcsqRPs8yJ61UDoeEXZmtro4qh",
        "reception_time": "2022-01-19T06:52:40.387-00:00",
        "included_in_blocks":
          [ "BLrDvsnSphif698jJo53j3BBvzTgEbDmemFkZv2FYQpANo3x6t7" ] },
      { "delegate": "tz3S6BBeKgJGXxvLyZ1xzXzMPn11nnFtq5L9",
        "reception_time": "2022-01-19T06:52:40.387-00:00",
        "included_in_blocks":
          [ "BLrDvsnSphif698jJo53j3BBvzTgEbDmemFkZv2FYQpANo3x6t7" ] },
      { "delegate": "tz1irJKkXS2DBWkU1NnmFQx1c1L7pbGg4yhk",
        "reception_time": "2022-01-19T06:52:40.395-00:00",
        "included_in_blocks":
          [ "BLrDvsnSphif698jJo53j3BBvzTgEbDmemFkZv2FYQpANo3x6t7" ] },
      { "delegate": "tz3RKYFsLuQzKBtmYuLNas7uMu3AsYd4QdsA",
        "reception_time": "2022-01-19T06:52:40.406-00:00",
        "included_in_blocks":
          [ "BLrDvsnSphif698jJo53j3BBvzTgEbDmemFkZv2FYQpANo3x6t7" ] },
      { "delegate": "tz1VmiY38m3y95HqQLjMwqnMS7sdMfGomzKi",
        "reception_time": "2022-01-19T06:52:40.411-00:00",
        "included_in_blocks":
          [ "BLrDvsnSphif698jJo53j3BBvzTgEbDmemFkZv2FYQpANo3x6t7" ] },
      { "delegate": "tz3QSGPoRp3Kn7n3vY24eYeu3Peuqo45LQ4D",
        "reception_time": "2022-01-19T06:52:40.432-00:00",
        "included_in_blocks":
          [ "BLrDvsnSphif698jJo53j3BBvzTgEbDmemFkZv2FYQpANo3x6t7" ] },
      { "delegate": "tz3QT9dHYKDqh563chVa6za8526ys1UKfRfL",
        "reception_time": "2022-01-19T06:52:40.446-00:00",
        "included_in_blocks":
          [ "BLrDvsnSphif698jJo53j3BBvzTgEbDmemFkZv2FYQpANo3x6t7" ] },
      { "delegate": "tz1WCd2jm4uSt4vntk4vSuUWoZQGhLcDuR9q",
        "reception_time": "2022-01-19T06:52:40.456-00:00",
        "included_in_blocks":
          [ "BLrDvsnSphif698jJo53j3BBvzTgEbDmemFkZv2FYQpANo3x6t7" ] },
      { "delegate": "tz3gtoUxdudfBRcNY7iVdKPHCYYX6xdPpoRS",
        "reception_time": "2022-01-19T06:52:40.493-00:00",
        "included_in_blocks":
          [ "BLrDvsnSphif698jJo53j3BBvzTgEbDmemFkZv2FYQpANo3x6t7" ] },
      { "delegate": "tz3Zhs2dygr55yHyQyKjntAtY9bgfhLZ4Xj1",
        "reception_time": "2022-01-19T06:52:40.509-00:00",
        "included_in_blocks":
          [ "BLrDvsnSphif698jJo53j3BBvzTgEbDmemFkZv2FYQpANo3x6t7" ] },
      { "delegate": "tz1TEc75UKXv4W5cwi14Na3NtqFD51yKQi7h",
        "reception_time": "2022-01-19T06:52:40.530-00:00",
        "included_in_blocks":
          [ "BLrDvsnSphif698jJo53j3BBvzTgEbDmemFkZv2FYQpANo3x6t7" ] },
      { "delegate": "tz3QCNyySViKHmeSr45kzDxzchys7NiXCWoa",
        "reception_time": "2022-01-19T06:52:40.544-00:00",
        "included_in_blocks":
          [ "BLrDvsnSphif698jJo53j3BBvzTgEbDmemFkZv2FYQpANo3x6t7" ] },
      { "delegate": "tz1SYq214SCBy9naR6cvycQsYcUGpBqQAE8d",
        "reception_time": "2022-01-19T06:52:40.556-00:00",
        "included_in_blocks":
          [ "BLrDvsnSphif698jJo53j3BBvzTgEbDmemFkZv2FYQpANo3x6t7" ] },
      { "delegate": "tz1aXD7Jigrt3PBYSpHSg5Rr33SexMmmM5Ys",
        "reception_time": "2022-01-19T06:52:40.576-00:00",
        "included_in_blocks":
          [ "BLrDvsnSphif698jJo53j3BBvzTgEbDmemFkZv2FYQpANo3x6t7" ] },
      { "delegate": "tz1PWCDnz783NNGGQjEFFsHtrcK5yBW4E2rm",
        "reception_time": "2022-01-19T06:52:40.611-00:00",
        "included_in_blocks":
          [ "BLrDvsnSphif698jJo53j3BBvzTgEbDmemFkZv2FYQpANo3x6t7" ] },
      { "delegate": "tz1RCFbB9GpALpsZtu6J58sb74dm8qe6XBzv",
        "reception_time": "2022-01-19T06:52:40.635-00:00",
        "included_in_blocks":
          [ "BLrDvsnSphif698jJo53j3BBvzTgEbDmemFkZv2FYQpANo3x6t7" ] },
      { "delegate": "tz1ei4WtWEMEJekSv8qDnu9PExG6Q8HgRGr3",
        "reception_time": "2022-01-19T06:52:40.639-00:00",
        "included_in_blocks":
          [ "BLrDvsnSphif698jJo53j3BBvzTgEbDmemFkZv2FYQpANo3x6t7" ] },
      { "delegate": "tz1gfArv665EUkSg2ojMBzcbfwuPxAvqPvjo",
        "reception_time": "2022-01-19T06:52:40.642-00:00",
        "included_in_blocks":
          [ "BLrDvsnSphif698jJo53j3BBvzTgEbDmemFkZv2FYQpANo3x6t7" ] },
      { "delegate": "tz3bvNMQ95vfAYtG8193ymshqjSvmxiCUuR5",
        "reception_time": "2022-01-19T06:52:40.651-00:00",
        "included_in_blocks":
          [ "BLrDvsnSphif698jJo53j3BBvzTgEbDmemFkZv2FYQpANo3x6t7" ] },
      { "delegate": "tz3bTdwZinP8U1JmSweNzVKhmwafqWmFWRfk",
        "reception_time": "2022-01-19T06:52:40.664-00:00",
        "included_in_blocks":
          [ "BLrDvsnSphif698jJo53j3BBvzTgEbDmemFkZv2FYQpANo3x6t7" ] },
      { "delegate": "tz1dwu9aYb7CRNq4Y2zAjipdjFuSVKhHS8vA",
        "reception_time": "2022-01-19T06:52:40.668-00:00",
        "included_in_blocks":
          [ "BLrDvsnSphif698jJo53j3BBvzTgEbDmemFkZv2FYQpANo3x6t7" ] },
      { "delegate": "tz1TRqbYbUf2GyrjErf3hBzgBJPzW8y36qEs",
        "reception_time": "2022-01-19T06:52:40.681-00:00",
        "included_in_blocks":
          [ "BLrDvsnSphif698jJo53j3BBvzTgEbDmemFkZv2FYQpANo3x6t7" ] },
      { "delegate": "tz1awXW7wuXy21c66vBudMXQVAPgRnqqwgTH",
        "reception_time": "2022-01-19T06:52:40.684-00:00",
        "included_in_blocks":
          [ "BLrDvsnSphif698jJo53j3BBvzTgEbDmemFkZv2FYQpANo3x6t7" ] },
      { "delegate": "tz1Nf6tsK4G6bBqgSQERy4nUtkHNKUVdh7q1",
        "reception_time": "2022-01-19T06:52:40.695-00:00",
        "included_in_blocks":
          [ "BLrDvsnSphif698jJo53j3BBvzTgEbDmemFkZv2FYQpANo3x6t7" ] },
      { "delegate": "tz1fZ767VDbqx4DeKiFswPSHh513f51mKEUZ",
        "reception_time": "2022-01-19T06:52:40.699-00:00",
        "included_in_blocks":
          [ "BLrDvsnSphif698jJo53j3BBvzTgEbDmemFkZv2FYQpANo3x6t7" ] },
      { "delegate": "tz1KfEsrtDaA1sX7vdM4qmEPWuSytuqCDp5j",
        "reception_time": "2022-01-19T06:52:40.708-00:00",
        "included_in_blocks":
          [ "BLrDvsnSphif698jJo53j3BBvzTgEbDmemFkZv2FYQpANo3x6t7" ] },
      { "delegate": "tz1S8MNvuFEUsWgjHvi3AxibRBf388NhT1q2",
        "reception_time": "2022-01-19T06:52:40.714-00:00",
        "included_in_blocks":
          [ "BLrDvsnSphif698jJo53j3BBvzTgEbDmemFkZv2FYQpANo3x6t7" ] },
      { "delegate": "tz1Tnjaxk6tbAeC2TmMApPh8UsrEVQvhHvx5",
        "reception_time": "2022-01-19T06:52:40.721-00:00",
        "included_in_blocks":
          [ "BLrDvsnSphif698jJo53j3BBvzTgEbDmemFkZv2FYQpANo3x6t7" ] },
      { "delegate": "tz1MQMiZHV8q4tTwUMWmS5Y3kaP6J2136iXr",
        "reception_time": "2022-01-19T06:52:40.727-00:00",
        "included_in_blocks":
          [ "BLrDvsnSphif698jJo53j3BBvzTgEbDmemFkZv2FYQpANo3x6t7" ] },
      { "delegate": "tz1PeZx7FXy7QRuMREGXGxeipb24RsMMzUNe",
        "reception_time": "2022-01-19T06:52:40.734-00:00",
        "included_in_blocks":
          [ "BLrDvsnSphif698jJo53j3BBvzTgEbDmemFkZv2FYQpANo3x6t7" ] },
      { "delegate": "tz1YhNsiRRU8aHNGg7NK3uuP6UDAyacJernB",
        "reception_time": "2022-01-19T06:52:40.734-00:00",
        "included_in_blocks":
          [ "BLrDvsnSphif698jJo53j3BBvzTgEbDmemFkZv2FYQpANo3x6t7" ] },
      { "delegate": "tz1Y7tsDmwrJocSt81Nt8apH1h6LnehMLRiH",
        "reception_time": "2022-01-19T06:52:40.756-00:00",
        "included_in_blocks":
          [ "BLrDvsnSphif698jJo53j3BBvzTgEbDmemFkZv2FYQpANo3x6t7" ] },
      { "delegate": "tz2FCNBrERXtaTtNX6iimR1UJ5JSDxvdHM93",
        "reception_time": "2022-01-19T06:52:40.760-00:00",
        "included_in_blocks":
          [ "BLrDvsnSphif698jJo53j3BBvzTgEbDmemFkZv2FYQpANo3x6t7" ] },
      { "delegate": "tz3NDpRj6WBrJPikcPVHRBEjWKxFw3c6eQPS",
        "reception_time": "2022-01-19T06:52:40.768-00:00",
        "included_in_blocks":
          [ "BLrDvsnSphif698jJo53j3BBvzTgEbDmemFkZv2FYQpANo3x6t7" ] },
      { "delegate": "tz1abmz7jiCV2GH2u81LRrGgAFFgvQgiDiaf",
        "reception_time": "2022-01-19T06:52:40.771-00:00",
        "included_in_blocks":
          [ "BLrDvsnSphif698jJo53j3BBvzTgEbDmemFkZv2FYQpANo3x6t7" ] },
      { "delegate": "tz1LmaFsWRkjr7QMCx5PtV6xTUz3AmEpKQiF",
        "reception_time": "2022-01-19T06:52:40.781-00:00",
        "included_in_blocks":
          [ "BLrDvsnSphif698jJo53j3BBvzTgEbDmemFkZv2FYQpANo3x6t7" ] },
      { "delegate": "tz1NEKxGEHsFufk87CVZcrqWu8o22qh46GK6",
        "reception_time": "2022-01-19T06:52:40.825-00:00",
        "included_in_blocks":
          [ "BLrDvsnSphif698jJo53j3BBvzTgEbDmemFkZv2FYQpANo3x6t7" ] },
      { "delegate": "tz1eVaNx3gCmG1EsLjijkmgAxdLYVf6Bf5Sq",
        "reception_time": "2022-01-19T06:52:40.828-00:00",
        "included_in_blocks":
          [ "BLrDvsnSphif698jJo53j3BBvzTgEbDmemFkZv2FYQpANo3x6t7" ] },
      { "delegate": "tz1NuUu12WHdW3jHqvkujGHsiTi46Wvw1ci1",
        "reception_time": "2022-01-19T06:52:40.837-00:00",
        "included_in_blocks":
          [ "BLrDvsnSphif698jJo53j3BBvzTgEbDmemFkZv2FYQpANo3x6t7" ] },
      { "delegate": "tz3UoffC7FG7zfpmvmjUmUeAaHvzdcUvAj6r",
        "reception_time": "2022-01-19T06:52:40.849-00:00",
        "included_in_blocks":
          [ "BLrDvsnSphif698jJo53j3BBvzTgEbDmemFkZv2FYQpANo3x6t7" ] },
      { "delegate": "tz3WMqdzXqRWXwyvj5Hp2H7QEepaUuS7vd9K",
        "reception_time": "2022-01-19T06:52:40.907-00:00",
        "included_in_blocks":
          [ "BLrDvsnSphif698jJo53j3BBvzTgEbDmemFkZv2FYQpANo3x6t7" ] },
      { "delegate": "tz3gLTu4Yxj8tPAcriQVUdxv6BY9QyvzU1az",
        "reception_time": "2022-01-19T06:52:40.917-00:00",
        "included_in_blocks":
          [ "BLrDvsnSphif698jJo53j3BBvzTgEbDmemFkZv2FYQpANo3x6t7" ] },
      { "delegate": "tz1fUyqYH7H4pRHN1roWY17giXhy1RvxjgUV",
        "reception_time": "2022-01-19T06:52:40.950-00:00",
        "included_in_blocks":
          [ "BLrDvsnSphif698jJo53j3BBvzTgEbDmemFkZv2FYQpANo3x6t7" ] },
      { "delegate": "tz1cYufsxHXJcvANhvS55h3aY32a9BAFB494",
        "reception_time": "2022-01-19T06:52:40.959-00:00",
        "included_in_blocks":
          [ "BLrDvsnSphif698jJo53j3BBvzTgEbDmemFkZv2FYQpANo3x6t7" ] },
      { "delegate": "tz3RDC3Jdn4j15J7bBHZd29EUee9gVB1CxD9",
        "reception_time": "2022-01-19T06:52:40.968-00:00",
        "included_in_blocks":
          [ "BLrDvsnSphif698jJo53j3BBvzTgEbDmemFkZv2FYQpANo3x6t7" ] },
      { "delegate": "tz3VEZ4k6a4Wx42iyev6i2aVAptTRLEAivNN",
        "reception_time": "2022-01-19T06:52:40.979-00:00",
        "included_in_blocks":
          [ "BLrDvsnSphif698jJo53j3BBvzTgEbDmemFkZv2FYQpANo3x6t7" ] },
      { "delegate": "tz3RB4aoyjov4KEVRbuhvQ1CKJgBJMWhaeB8",
        "reception_time": "2022-01-19T06:52:40.993-00:00",
        "included_in_blocks":
          [ "BLrDvsnSphif698jJo53j3BBvzTgEbDmemFkZv2FYQpANo3x6t7" ] },
      { "delegate": "tz1Z2jXfEXL7dXhs6bsLmyLFLfmAkXBzA9WE",
        "reception_time": "2022-01-19T06:52:41.001-00:00",
        "included_in_blocks":
          [ "BLrDvsnSphif698jJo53j3BBvzTgEbDmemFkZv2FYQpANo3x6t7" ] },
      { "delegate": "tz3NExpXn9aPNZPorRE4SdjJ2RGrfbJgMAaV",
        "reception_time": "2022-01-19T06:52:41.040-00:00",
        "included_in_blocks":
          [ "BLrDvsnSphif698jJo53j3BBvzTgEbDmemFkZv2FYQpANo3x6t7" ] },
      { "delegate": "tz1ZcTRk5uxD86EFEn1vvNffWWqJy7q5eVhc",
        "reception_time": "2022-01-19T06:52:41.271-00:00",
        "included_in_blocks":
          [ "BLrDvsnSphif698jJo53j3BBvzTgEbDmemFkZv2FYQpANo3x6t7" ] },
      { "delegate": "tz1cM8Xc7ZP1TrjkTeKq4PeRhtbnwXSBR6Sw",
        "reception_time": "2022-01-19T06:52:41.338-00:00",
        "included_in_blocks":
          [ "BLrDvsnSphif698jJo53j3BBvzTgEbDmemFkZv2FYQpANo3x6t7" ] },
      { "delegate": "tz1aRoaRhSpRYvFdyvgWLL6TGyRoGF51wDjM",
        "reception_time": "2022-01-19T06:52:41.428-00:00",
        "included_in_blocks":
          [ "BLrDvsnSphif698jJo53j3BBvzTgEbDmemFkZv2FYQpANo3x6t7" ] },
      { "delegate": "tz1QJU1PuKUP5ZQxUr4pHZjCHGRvJSpcXv7G",
        "reception_time": "2022-01-19T06:52:41.911-00:00",
        "included_in_blocks":
          [ "BLrDvsnSphif698jJo53j3BBvzTgEbDmemFkZv2FYQpANo3x6t7" ] },
      { "delegate": "tz1PFeoTuFen8jAMRHajBySNyCwLmY5RqF9M",
        "reception_time": "2022-01-19T06:52:43.115-00:00",
        "included_in_blocks":
          [ "BLrDvsnSphif698jJo53j3BBvzTgEbDmemFkZv2FYQpANo3x6t7" ] },
      { "delegate": "tz3bEQoFCZEEfZMskefZ8q8e4eiHH1pssRax",
        "reception_time": "2022-01-19T06:52:43.389-00:00",
        "included_in_blocks":
          [ "BLrDvsnSphif698jJo53j3BBvzTgEbDmemFkZv2FYQpANo3x6t7" ] },
      { "delegate": "tz1g8vkmcde6sWKaG2NN9WKzCkDM6Rziq194",
        "reception_time": "2022-01-19T06:52:43.890-00:00",
        "included_in_blocks":
          [ "BLrDvsnSphif698jJo53j3BBvzTgEbDmemFkZv2FYQpANo3x6t7" ] } ] }