{ "blocks":
    [ { "hash": "BLHphamPJqiBF5JdKzXL9qtwfnypUkUoUPfcgZWQh3ZnVoJyzDn",
        "delegate": "tz3RDC3Jdn4j15J7bBHZd29EUee9gVB1CxD9",
        "reception_time": "2022-01-19T11:29:32.588-00:00",
        "timestamp": "2022-01-19T11:29:20Z" } ],
  "endorsements":
    [ { "delegate": "tz1TXzyaKUA8wsWefdSnyaYFnV2M3vCV7er9",
        "reception_time": "2022-01-19T11:29:32.593-00:00",
        "errors":
          [ { "kind": "temporary",
              "id": "proto.011-PtHangz2.prefilter.outdated_endorsement" } ],
        "included_in_blocks":
          [ "BLYQF3D34h6W3qb1UgPqA8FjCJ85KG4NhDxurKdMK97yjFB4XbM" ] },
      { "delegate": "tz1irJKkXS2DBWkU1NnmFQx1c1L7pbGg4yhk",
        "reception_time": "2022-01-19T11:29:32.451-00:00",
        "errors":
          [ { "kind": "temporary",
              "id": "proto.011-PtHangz2.prefilter.outdated_endorsement" } ],
        "included_in_blocks":
          [ "BLYQF3D34h6W3qb1UgPqA8FjCJ85KG4NhDxurKdMK97yjFB4XbM" ] },
      { "delegate": "tz1P2Po7YM526ughEsRbY4oR9zaUPDZjxFrb",
        "reception_time": "2022-01-19T11:29:32.447-00:00",
        "errors":
          [ { "kind": "temporary",
              "id": "proto.011-PtHangz2.prefilter.outdated_endorsement" } ],
        "included_in_blocks":
          [ "BLYQF3D34h6W3qb1UgPqA8FjCJ85KG4NhDxurKdMK97yjFB4XbM" ] },
      { "delegate": "tz1VQnqCCqX4K5sP3FNkVSNKTdCAMJDd3E1n",
        "reception_time": "2022-01-19T11:29:32.320-00:00",
        "errors":
          [ { "kind": "temporary",
              "id": "proto.011-PtHangz2.prefilter.outdated_endorsement" } ],
        "included_in_blocks":
          [ "BLYQF3D34h6W3qb1UgPqA8FjCJ85KG4NhDxurKdMK97yjFB4XbM" ] },
      { "delegate": "tz1gUNyn3hmnEWqkusWPzxRaon1cs7ndWh7h",
        "reception_time": "2022-01-19T11:29:32.222-00:00",
        "errors":
          [ { "kind": "temporary",
              "id": "proto.011-PtHangz2.prefilter.outdated_endorsement" } ],
        "included_in_blocks":
          [ "BLYQF3D34h6W3qb1UgPqA8FjCJ85KG4NhDxurKdMK97yjFB4XbM" ] },
      { "delegate": "tz1MXFrtZoaXckE41bjUCSjAjAap3AFDSr3N",
        "reception_time": "2022-01-19T11:29:32.059-00:00",
        "errors":
          [ { "kind": "temporary",
              "id": "proto.011-PtHangz2.prefilter.outdated_endorsement" } ],
        "included_in_blocks":
          [ "BLYQF3D34h6W3qb1UgPqA8FjCJ85KG4NhDxurKdMK97yjFB4XbM" ] },
      { "delegate": "tz1XXayQohB8XRXN7kMoHbf2NFwNiH3oMRQQ",
        "reception_time": "2022-01-19T11:29:31.755-00:00",
        "errors":
          [ { "kind": "temporary",
              "id": "proto.011-PtHangz2.prefilter.outdated_endorsement" } ],
        "included_in_blocks":
          [ "BLYQF3D34h6W3qb1UgPqA8FjCJ85KG4NhDxurKdMK97yjFB4XbM" ] },
      { "delegate": "tz1S8e9GgdZG78XJRB3NqabfWeM37GnhZMWQ",
        "reception_time": "2022-01-19T11:29:31.334-00:00",
        "errors":
          [ { "kind": "temporary",
              "id": "proto.011-PtHangz2.prefilter.outdated_endorsement" } ],
        "included_in_blocks":
          [ "BLYQF3D34h6W3qb1UgPqA8FjCJ85KG4NhDxurKdMK97yjFB4XbM" ] },
      { "delegate": "tz1eLbDXYceRsPZoPmaJXZgQ6pzgnTQvZtpo" },
      { "delegate": "tz1Ldzz6k1BHdhuKvAtMRX7h5kJSMHESMHLC",
        "reception_time": "2022-01-19T11:29:34.407-00:00",
        "included_in_blocks":
          [ "BLYQF3D34h6W3qb1UgPqA8FjCJ85KG4NhDxurKdMK97yjFB4XbM" ] },
      { "delegate": "tz1eEnQhbwf6trb8Q8mPb2RaPkNk2rN7BKi8",
        "reception_time": "2022-01-19T11:29:35.740-00:00",
        "included_in_blocks":
          [ "BLYQF3D34h6W3qb1UgPqA8FjCJ85KG4NhDxurKdMK97yjFB4XbM" ] },
      { "delegate": "tz3hw2kqXhLUvY65ca1eety2oQTpAvd34R9Q",
        "reception_time": "2022-01-19T11:29:35.932-00:00",
        "included_in_blocks":
          [ "BLYQF3D34h6W3qb1UgPqA8FjCJ85KG4NhDxurKdMK97yjFB4XbM" ] },
      { "delegate": "tz1WCd2jm4uSt4vntk4vSuUWoZQGhLcDuR9q",
        "reception_time": "2022-01-19T11:29:35.996-00:00",
        "included_in_blocks":
          [ "BLYQF3D34h6W3qb1UgPqA8FjCJ85KG4NhDxurKdMK97yjFB4XbM" ] },
      { "delegate": "tz1eDDuQBEgwvc6tbnnCVrnr12tvrd6gBTpx",
        "reception_time": "2022-01-19T11:29:35.996-00:00",
        "included_in_blocks":
          [ "BLYQF3D34h6W3qb1UgPqA8FjCJ85KG4NhDxurKdMK97yjFB4XbM" ] },
      { "delegate": "tz1VmiY38m3y95HqQLjMwqnMS7sdMfGomzKi",
        "reception_time": "2022-01-19T11:29:36.064-00:00",
        "included_in_blocks":
          [ "BLYQF3D34h6W3qb1UgPqA8FjCJ85KG4NhDxurKdMK97yjFB4XbM" ] },
      { "delegate": "tz3e7LbZvUtoXhpUD1yb6wuFodZpfYRb9nWJ",
        "reception_time": "2022-01-19T11:29:36.132-00:00",
        "included_in_blocks":
          [ "BLYQF3D34h6W3qb1UgPqA8FjCJ85KG4NhDxurKdMK97yjFB4XbM" ] },
      { "delegate": "tz3QSGPoRp3Kn7n3vY24eYeu3Peuqo45LQ4D",
        "reception_time": "2022-01-19T11:29:36.132-00:00",
        "included_in_blocks":
          [ "BLYQF3D34h6W3qb1UgPqA8FjCJ85KG4NhDxurKdMK97yjFB4XbM" ] },
      { "delegate": "tz1ci1ARnm8JoYV16Hbe4FoxX17yFEAQVytg",
        "reception_time": "2022-01-19T11:29:36.259-00:00",
        "included_in_blocks":
          [ "BLYQF3D34h6W3qb1UgPqA8FjCJ85KG4NhDxurKdMK97yjFB4XbM" ] },
      { "delegate": "tz1aqcYgG6NuViML5vdWhohHJBYxcDVLNUsE",
        "reception_time": "2022-01-19T11:29:36.264-00:00",
        "included_in_blocks":
          [ "BLYQF3D34h6W3qb1UgPqA8FjCJ85KG4NhDxurKdMK97yjFB4XbM" ] },
      { "delegate": "tz3adcvQaKXTCg12zbninqo3q8ptKKtDFTLv",
        "reception_time": "2022-01-19T11:29:36.336-00:00",
        "included_in_blocks":
          [ "BLYQF3D34h6W3qb1UgPqA8FjCJ85KG4NhDxurKdMK97yjFB4XbM" ] },
      { "delegate": "tz1MJx9vhaNRSimcuXPK2rW4fLccQnDAnVKJ",
        "reception_time": "2022-01-19T11:29:36.418-00:00",
        "included_in_blocks":
          [ "BLYQF3D34h6W3qb1UgPqA8FjCJ85KG4NhDxurKdMK97yjFB4XbM" ] },
      { "delegate": "tz1Kf25fX1VdmYGSEzwFy1wNmkbSEZ2V83sY",
        "reception_time": "2022-01-19T11:29:36.427-00:00",
        "included_in_blocks":
          [ "BLYQF3D34h6W3qb1UgPqA8FjCJ85KG4NhDxurKdMK97yjFB4XbM" ] },
      { "delegate": "tz1KfEsrtDaA1sX7vdM4qmEPWuSytuqCDp5j",
        "reception_time": "2022-01-19T11:29:36.433-00:00",
        "included_in_blocks":
          [ "BLYQF3D34h6W3qb1UgPqA8FjCJ85KG4NhDxurKdMK97yjFB4XbM" ] },
      { "delegate": "tz1TRspM5SeZpaQUhzByXbEvqKF1vnCM2YTK",
        "reception_time": "2022-01-19T11:29:36.442-00:00",
        "included_in_blocks":
          [ "BLYQF3D34h6W3qb1UgPqA8FjCJ85KG4NhDxurKdMK97yjFB4XbM" ] },
      { "delegate": "tz3RKYFsLuQzKBtmYuLNas7uMu3AsYd4QdsA",
        "reception_time": "2022-01-19T11:29:36.442-00:00",
        "included_in_blocks":
          [ "BLYQF3D34h6W3qb1UgPqA8FjCJ85KG4NhDxurKdMK97yjFB4XbM" ] },
      { "delegate": "tz1UtayNgAX8QEJ3NoLptPzoPr9JiH3Cskzz",
        "reception_time": "2022-01-19T11:29:36.458-00:00",
        "included_in_blocks":
          [ "BLYQF3D34h6W3qb1UgPqA8FjCJ85KG4NhDxurKdMK97yjFB4XbM" ] },
      { "delegate": "tz3ZbP2pM3nwvXztbuMJwJnDvV5xdpU8UkkD",
        "reception_time": "2022-01-19T11:29:36.466-00:00",
        "included_in_blocks":
          [ "BLYQF3D34h6W3qb1UgPqA8FjCJ85KG4NhDxurKdMK97yjFB4XbM" ] },
      { "delegate": "tz3gtoUxdudfBRcNY7iVdKPHCYYX6xdPpoRS",
        "reception_time": "2022-01-19T11:29:36.506-00:00",
        "included_in_blocks":
          [ "BLYQF3D34h6W3qb1UgPqA8FjCJ85KG4NhDxurKdMK97yjFB4XbM" ] },
      { "delegate": "tz3NxTnke1acr8o3h5y9ytf5awQBGNJUKzVU",
        "reception_time": "2022-01-19T11:29:36.545-00:00",
        "included_in_blocks":
          [ "BLYQF3D34h6W3qb1UgPqA8FjCJ85KG4NhDxurKdMK97yjFB4XbM" ] },
      { "delegate": "tz3RDC3Jdn4j15J7bBHZd29EUee9gVB1CxD9",
        "reception_time": "2022-01-19T11:29:36.559-00:00",
        "included_in_blocks":
          [ "BLYQF3D34h6W3qb1UgPqA8FjCJ85KG4NhDxurKdMK97yjFB4XbM" ] },
      { "delegate": "tz1dwu9aYb7CRNq4Y2zAjipdjFuSVKhHS8vA",
        "reception_time": "2022-01-19T11:29:36.575-00:00",
        "included_in_blocks":
          [ "BLYQF3D34h6W3qb1UgPqA8FjCJ85KG4NhDxurKdMK97yjFB4XbM" ] },
      { "delegate": "tz3iJu5vrKZcsqRPs8yJ61UDoeEXZmtro4qh",
        "reception_time": "2022-01-19T11:29:36.583-00:00",
        "included_in_blocks":
          [ "BLYQF3D34h6W3qb1UgPqA8FjCJ85KG4NhDxurKdMK97yjFB4XbM" ] },
      { "delegate": "tz1Nf6tsK4G6bBqgSQERy4nUtkHNKUVdh7q1",
        "reception_time": "2022-01-19T11:29:36.598-00:00",
        "included_in_blocks":
          [ "BLYQF3D34h6W3qb1UgPqA8FjCJ85KG4NhDxurKdMK97yjFB4XbM" ] },
      { "delegate": "tz1ei4WtWEMEJekSv8qDnu9PExG6Q8HgRGr3",
        "reception_time": "2022-01-19T11:29:36.601-00:00",
        "included_in_blocks":
          [ "BLYQF3D34h6W3qb1UgPqA8FjCJ85KG4NhDxurKdMK97yjFB4XbM" ] },
      { "delegate": "tz1NEKxGEHsFufk87CVZcrqWu8o22qh46GK6",
        "reception_time": "2022-01-19T11:29:36.606-00:00",
        "included_in_blocks":
          [ "BLYQF3D34h6W3qb1UgPqA8FjCJ85KG4NhDxurKdMK97yjFB4XbM" ] },
      { "delegate": "tz3S6BBeKgJGXxvLyZ1xzXzMPn11nnFtq5L9",
        "reception_time": "2022-01-19T11:29:36.623-00:00",
        "included_in_blocks":
          [ "BLYQF3D34h6W3qb1UgPqA8FjCJ85KG4NhDxurKdMK97yjFB4XbM" ] },
      { "delegate": "tz1RQhNh7iB9CZA7i3ifTWNwiGYVffponfbB",
        "reception_time": "2022-01-19T11:29:36.628-00:00",
        "included_in_blocks":
          [ "BLYQF3D34h6W3qb1UgPqA8FjCJ85KG4NhDxurKdMK97yjFB4XbM" ] },
      { "delegate": "tz3RB4aoyjov4KEVRbuhvQ1CKJgBJMWhaeB8",
        "reception_time": "2022-01-19T11:29:36.635-00:00",
        "included_in_blocks":
          [ "BLYQF3D34h6W3qb1UgPqA8FjCJ85KG4NhDxurKdMK97yjFB4XbM" ] },
      { "delegate": "tz1gfArv665EUkSg2ojMBzcbfwuPxAvqPvjo",
        "reception_time": "2022-01-19T11:29:36.641-00:00",
        "included_in_blocks":
          [ "BLYQF3D34h6W3qb1UgPqA8FjCJ85KG4NhDxurKdMK97yjFB4XbM" ] },
      { "delegate": "tz1RNoDLWUjbqqs6uCHtJKgSLAegutbD8cNe",
        "reception_time": "2022-01-19T11:29:36.646-00:00",
        "included_in_blocks":
          [ "BLYQF3D34h6W3qb1UgPqA8FjCJ85KG4NhDxurKdMK97yjFB4XbM" ] },
      { "delegate": "tz1hAYfexyzPGG6RhZZMpDvAHifubsbb6kgn",
        "reception_time": "2022-01-19T11:29:36.658-00:00",
        "included_in_blocks":
          [ "BLYQF3D34h6W3qb1UgPqA8FjCJ85KG4NhDxurKdMK97yjFB4XbM" ] },
      { "delegate": "tz3QCNyySViKHmeSr45kzDxzchys7NiXCWoa",
        "reception_time": "2022-01-19T11:29:36.658-00:00",
        "included_in_blocks":
          [ "BLYQF3D34h6W3qb1UgPqA8FjCJ85KG4NhDxurKdMK97yjFB4XbM" ] },
      { "delegate": "tz3Zhs2dygr55yHyQyKjntAtY9bgfhLZ4Xj1",
        "reception_time": "2022-01-19T11:29:36.666-00:00",
        "included_in_blocks":
          [ "BLYQF3D34h6W3qb1UgPqA8FjCJ85KG4NhDxurKdMK97yjFB4XbM" ] },
      { "delegate": "tz1WBfwbT66FC6BTLexc2BoyCCBM9LG7pnVW",
        "reception_time": "2022-01-19T11:29:36.669-00:00",
        "included_in_blocks":
          [ "BLYQF3D34h6W3qb1UgPqA8FjCJ85KG4NhDxurKdMK97yjFB4XbM" ] },
      { "delegate": "tz1RCFbB9GpALpsZtu6J58sb74dm8qe6XBzv",
        "reception_time": "2022-01-19T11:29:36.672-00:00",
        "included_in_blocks":
          [ "BLYQF3D34h6W3qb1UgPqA8FjCJ85KG4NhDxurKdMK97yjFB4XbM" ] },
      { "delegate": "tz1LnWa4AiFCjMezTgSNa65QFoo7DQGEWgEU",
        "reception_time": "2022-01-19T11:29:36.824-00:00",
        "included_in_blocks":
          [ "BLYQF3D34h6W3qb1UgPqA8FjCJ85KG4NhDxurKdMK97yjFB4XbM" ] },
      { "delegate": "tz1S8MNvuFEUsWgjHvi3AxibRBf388NhT1q2",
        "reception_time": "2022-01-19T11:29:36.849-00:00",
        "included_in_blocks":
          [ "BLYQF3D34h6W3qb1UgPqA8FjCJ85KG4NhDxurKdMK97yjFB4XbM" ] },
      { "delegate": "tz3bTdwZinP8U1JmSweNzVKhmwafqWmFWRfk",
        "reception_time": "2022-01-19T11:29:36.894-00:00",
        "included_in_blocks":
          [ "BLYQF3D34h6W3qb1UgPqA8FjCJ85KG4NhDxurKdMK97yjFB4XbM" ] },
      { "delegate": "tz1MGTFJXpQmtxLi8QJ7AuVRgM2L2Qfn9w9i",
        "reception_time": "2022-01-19T11:29:36.903-00:00",
        "included_in_blocks":
          [ "BLYQF3D34h6W3qb1UgPqA8FjCJ85KG4NhDxurKdMK97yjFB4XbM" ] },
      { "delegate": "tz1T7duV5gZWSTq4YpBGbXNLTfznCLDrFxvs",
        "reception_time": "2022-01-19T11:29:36.964-00:00",
        "included_in_blocks":
          [ "BLYQF3D34h6W3qb1UgPqA8FjCJ85KG4NhDxurKdMK97yjFB4XbM" ] },
      { "delegate": "tz1Xsrfv6hn86fp88YfRs6xcKwt2nTqxVZYM",
        "reception_time": "2022-01-19T11:29:37.008-00:00",
        "included_in_blocks":
          [ "BLYQF3D34h6W3qb1UgPqA8FjCJ85KG4NhDxurKdMK97yjFB4XbM" ] },
      { "delegate": "tz1NuUu12WHdW3jHqvkujGHsiTi46Wvw1ci1",
        "reception_time": "2022-01-19T11:29:37.031-00:00",
        "included_in_blocks":
          [ "BLYQF3D34h6W3qb1UgPqA8FjCJ85KG4NhDxurKdMK97yjFB4XbM" ] },
      { "delegate": "tz1RjoHc98dBoqaH2jawF62XNKh7YsHwbkEv",
        "reception_time": "2022-01-19T11:29:37.056-00:00",
        "included_in_blocks":
          [ "BLYQF3D34h6W3qb1UgPqA8FjCJ85KG4NhDxurKdMK97yjFB4XbM" ] },
      { "delegate": "tz3WMqdzXqRWXwyvj5Hp2H7QEepaUuS7vd9K",
        "reception_time": "2022-01-19T11:29:37.092-00:00",
        "included_in_blocks":
          [ "BLYQF3D34h6W3qb1UgPqA8FjCJ85KG4NhDxurKdMK97yjFB4XbM" ] },
      { "delegate": "tz1SUgyRB8T5jXgXAwS33pgRHAKrafyg87Yc",
        "reception_time": "2022-01-19T11:29:37.116-00:00",
        "included_in_blocks":
          [ "BLYQF3D34h6W3qb1UgPqA8FjCJ85KG4NhDxurKdMK97yjFB4XbM" ] },
      { "delegate": "tz1fwnfJNgiDACshK9avfRfFbMaXrs3ghoJa",
        "reception_time": "2022-01-19T11:29:37.156-00:00",
        "included_in_blocks":
          [ "BLYQF3D34h6W3qb1UgPqA8FjCJ85KG4NhDxurKdMK97yjFB4XbM" ] },
      { "delegate": "tz3UoffC7FG7zfpmvmjUmUeAaHvzdcUvAj6r",
        "reception_time": "2022-01-19T11:29:37.156-00:00",
        "included_in_blocks":
          [ "BLYQF3D34h6W3qb1UgPqA8FjCJ85KG4NhDxurKdMK97yjFB4XbM" ] },
      { "delegate": "tz1ZcTRk5uxD86EFEn1vvNffWWqJy7q5eVhc",
        "reception_time": "2022-01-19T11:29:37.161-00:00",
        "included_in_blocks":
          [ "BLYQF3D34h6W3qb1UgPqA8FjCJ85KG4NhDxurKdMK97yjFB4XbM" ] },
      { "delegate": "tz1cYufsxHXJcvANhvS55h3aY32a9BAFB494",
        "reception_time": "2022-01-19T11:29:37.170-00:00",
        "included_in_blocks":
          [ "BLYQF3D34h6W3qb1UgPqA8FjCJ85KG4NhDxurKdMK97yjFB4XbM" ] },
      { "delegate": "tz3bvNMQ95vfAYtG8193ymshqjSvmxiCUuR5",
        "reception_time": "2022-01-19T11:29:37.181-00:00",
        "included_in_blocks":
          [ "BLYQF3D34h6W3qb1UgPqA8FjCJ85KG4NhDxurKdMK97yjFB4XbM" ] },
      { "delegate": "tz1TRqbYbUf2GyrjErf3hBzgBJPzW8y36qEs",
        "reception_time": "2022-01-19T11:29:37.187-00:00",
        "included_in_blocks":
          [ "BLYQF3D34h6W3qb1UgPqA8FjCJ85KG4NhDxurKdMK97yjFB4XbM" ] },
      { "delegate": "tz1cM8Xc7ZP1TrjkTeKq4PeRhtbnwXSBR6Sw",
        "reception_time": "2022-01-19T11:29:37.210-00:00",
        "included_in_blocks":
          [ "BLYQF3D34h6W3qb1UgPqA8FjCJ85KG4NhDxurKdMK97yjFB4XbM" ] },
      { "delegate": "tz3VEZ4k6a4Wx42iyev6i2aVAptTRLEAivNN",
        "reception_time": "2022-01-19T11:29:37.235-00:00",
        "included_in_blocks":
          [ "BLYQF3D34h6W3qb1UgPqA8FjCJ85KG4NhDxurKdMK97yjFB4XbM" ] },
      { "delegate": "tz3NExpXn9aPNZPorRE4SdjJ2RGrfbJgMAaV",
        "reception_time": "2022-01-19T11:29:37.250-00:00",
        "included_in_blocks":
          [ "BLYQF3D34h6W3qb1UgPqA8FjCJ85KG4NhDxurKdMK97yjFB4XbM" ] },
      { "delegate": "tz1dRKU4FQ9QRRQPdaH4zCR6gmCmXfcvcgtB",
        "reception_time": "2022-01-19T11:29:37.256-00:00",
        "included_in_blocks":
          [ "BLYQF3D34h6W3qb1UgPqA8FjCJ85KG4NhDxurKdMK97yjFB4XbM" ] },
      { "delegate": "tz3NDpRj6WBrJPikcPVHRBEjWKxFw3c6eQPS",
        "reception_time": "2022-01-19T11:29:37.264-00:00",
        "included_in_blocks":
          [ "BLYQF3D34h6W3qb1UgPqA8FjCJ85KG4NhDxurKdMK97yjFB4XbM" ] },
      { "delegate": "tz2FCNBrERXtaTtNX6iimR1UJ5JSDxvdHM93",
        "reception_time": "2022-01-19T11:29:37.353-00:00",
        "included_in_blocks":
          [ "BLYQF3D34h6W3qb1UgPqA8FjCJ85KG4NhDxurKdMK97yjFB4XbM" ] },
      { "delegate": "tz1SohptP53wDPZhzTWzDUFAUcWF6DMBpaJV",
        "reception_time": "2022-01-19T11:29:37.404-00:00",
        "included_in_blocks":
          [ "BLYQF3D34h6W3qb1UgPqA8FjCJ85KG4NhDxurKdMK97yjFB4XbM" ] },
      { "delegate": "tz1awXW7wuXy21c66vBudMXQVAPgRnqqwgTH",
        "reception_time": "2022-01-19T11:29:37.480-00:00",
        "included_in_blocks":
          [ "BLYQF3D34h6W3qb1UgPqA8FjCJ85KG4NhDxurKdMK97yjFB4XbM" ] },
      { "delegate": "tz1M1gA1hgmmLf8VvtAwupbWCkaciQZMFbvi",
        "reception_time": "2022-01-19T11:29:37.573-00:00",
        "included_in_blocks":
          [ "BLYQF3D34h6W3qb1UgPqA8FjCJ85KG4NhDxurKdMK97yjFB4XbM" ] },
      { "delegate": "tz1aRoaRhSpRYvFdyvgWLL6TGyRoGF51wDjM",
        "reception_time": "2022-01-19T11:29:37.622-00:00",
        "included_in_blocks":
          [ "BLYQF3D34h6W3qb1UgPqA8FjCJ85KG4NhDxurKdMK97yjFB4XbM" ] },
      { "delegate": "tz1g8vkmcde6sWKaG2NN9WKzCkDM6Rziq194",
        "reception_time": "2022-01-19T11:29:38.484-00:00",
        "included_in_blocks":
          [ "BLYQF3D34h6W3qb1UgPqA8FjCJ85KG4NhDxurKdMK97yjFB4XbM" ] },
      { "delegate": "tz1Z9M4biBHSiH38k5ciRMjR5bgk89yEgLTz",
        "reception_time": "2022-01-19T11:29:39.569-00:00",
        "included_in_blocks":
          [ "BLYQF3D34h6W3qb1UgPqA8FjCJ85KG4NhDxurKdMK97yjFB4XbM" ] },
      { "delegate": "tz1NpWrAyDL9k2Lmnyxcgr9xuJakbBxdq7FB",
        "reception_time": "2022-01-19T11:29:48.686-00:00",
        "included_in_blocks":
          [ "BLYQF3D34h6W3qb1UgPqA8FjCJ85KG4NhDxurKdMK97yjFB4XbM" ] } ] }