{ "blocks":
    [ { "hash": "BMQn8uNvaJx2kLDvpv7W2n1o8FwMkwrUTVeUTznzSq8eUPvzy9Y",
        "delegate": "tz3bvNMQ95vfAYtG8193ymshqjSvmxiCUuR5",
        "reception_time": "2022-01-19T18:11:07.331-00:00",
        "timestamp": "2022-01-19T18:10:50Z" } ],
  "endorsements":
    [ { "delegate": "tz1VQnqCCqX4K5sP3FNkVSNKTdCAMJDd3E1n",
        "reception_time": "2022-01-19T18:11:12.692-00:00",
        "included_in_blocks":
          [ "BLQu5y2oJfeg4yh5PUPrPQsC5byfvBWGxnBscoWEVXQ4nJNU9oo" ] },
      { "delegate": "tz1WCd2jm4uSt4vntk4vSuUWoZQGhLcDuR9q",
        "reception_time": "2022-01-19T18:11:12.402-00:00",
        "included_in_blocks":
          [ "BLQu5y2oJfeg4yh5PUPrPQsC5byfvBWGxnBscoWEVXQ4nJNU9oo" ] },
      { "delegate": "tz1P2Po7YM526ughEsRbY4oR9zaUPDZjxFrb",
        "reception_time": "2022-01-19T18:11:12.402-00:00",
        "included_in_blocks":
          [ "BLQu5y2oJfeg4yh5PUPrPQsC5byfvBWGxnBscoWEVXQ4nJNU9oo" ] },
      { "delegate": "tz1Kt4P8BCaP93AEV4eA7gmpRryWt5hznjCP",
        "reception_time": "2022-01-19T18:11:12.402-00:00",
        "included_in_blocks":
          [ "BLQu5y2oJfeg4yh5PUPrPQsC5byfvBWGxnBscoWEVXQ4nJNU9oo" ] },
      { "delegate": "tz1TzaNn7wSQSP5gYPXCnNzBCpyMiidCq1PX",
        "reception_time": "2022-01-19T18:11:12.402-00:00",
        "included_in_blocks":
          [ "BLQu5y2oJfeg4yh5PUPrPQsC5byfvBWGxnBscoWEVXQ4nJNU9oo" ] },
      { "delegate": "tz1irJKkXS2DBWkU1NnmFQx1c1L7pbGg4yhk",
        "reception_time": "2022-01-19T18:11:12.402-00:00",
        "included_in_blocks":
          [ "BLQu5y2oJfeg4yh5PUPrPQsC5byfvBWGxnBscoWEVXQ4nJNU9oo" ] },
      { "delegate": "tz1ei4WtWEMEJekSv8qDnu9PExG6Q8HgRGr3",
        "reception_time": "2022-01-19T18:11:12.402-00:00",
        "included_in_blocks":
          [ "BLQu5y2oJfeg4yh5PUPrPQsC5byfvBWGxnBscoWEVXQ4nJNU9oo" ] },
      { "delegate": "tz1dNVDWPf3Q59SdJqnjdnu277iyvReiRS9M",
        "reception_time": "2022-01-19T18:11:12.402-00:00",
        "included_in_blocks":
          [ "BLQu5y2oJfeg4yh5PUPrPQsC5byfvBWGxnBscoWEVXQ4nJNU9oo" ] },
      { "delegate": "tz1VmiY38m3y95HqQLjMwqnMS7sdMfGomzKi",
        "reception_time": "2022-01-19T18:11:12.227-00:00",
        "included_in_blocks":
          [ "BLQu5y2oJfeg4yh5PUPrPQsC5byfvBWGxnBscoWEVXQ4nJNU9oo" ] },
      { "delegate": "tz3e7LbZvUtoXhpUD1yb6wuFodZpfYRb9nWJ",
        "reception_time": "2022-01-19T18:11:12.402-00:00",
        "included_in_blocks":
          [ "BLQu5y2oJfeg4yh5PUPrPQsC5byfvBWGxnBscoWEVXQ4nJNU9oo" ] },
      { "delegate": "tz1eDDuQBEgwvc6tbnnCVrnr12tvrd6gBTpx",
        "reception_time": "2022-01-19T18:11:12.402-00:00",
        "included_in_blocks":
          [ "BLQu5y2oJfeg4yh5PUPrPQsC5byfvBWGxnBscoWEVXQ4nJNU9oo" ] },
      { "delegate": "tz1PWCDnz783NNGGQjEFFsHtrcK5yBW4E2rm",
        "reception_time": "2022-01-19T18:11:12.402-00:00",
        "included_in_blocks":
          [ "BLQu5y2oJfeg4yh5PUPrPQsC5byfvBWGxnBscoWEVXQ4nJNU9oo" ] },
      { "delegate": "tz1eEnQhbwf6trb8Q8mPb2RaPkNk2rN7BKi8",
        "reception_time": "2022-01-19T18:11:12.402-00:00",
        "included_in_blocks":
          [ "BLQu5y2oJfeg4yh5PUPrPQsC5byfvBWGxnBscoWEVXQ4nJNU9oo" ] },
      { "delegate": "tz1Nf6tsK4G6bBqgSQERy4nUtkHNKUVdh7q1",
        "reception_time": "2022-01-19T18:11:12.402-00:00",
        "included_in_blocks":
          [ "BLQu5y2oJfeg4yh5PUPrPQsC5byfvBWGxnBscoWEVXQ4nJNU9oo" ] },
      { "delegate": "tz1TRspM5SeZpaQUhzByXbEvqKF1vnCM2YTK",
        "reception_time": "2022-01-19T18:11:12.402-00:00",
        "included_in_blocks":
          [ "BLQu5y2oJfeg4yh5PUPrPQsC5byfvBWGxnBscoWEVXQ4nJNU9oo" ] },
      { "delegate": "tz3RKYFsLuQzKBtmYuLNas7uMu3AsYd4QdsA",
        "reception_time": "2022-01-19T18:11:12.732-00:00",
        "included_in_blocks":
          [ "BLQu5y2oJfeg4yh5PUPrPQsC5byfvBWGxnBscoWEVXQ4nJNU9oo" ] },
      { "delegate": "tz3ZbP2pM3nwvXztbuMJwJnDvV5xdpU8UkkD",
        "reception_time": "2022-01-19T18:11:12.754-00:00",
        "included_in_blocks":
          [ "BLQu5y2oJfeg4yh5PUPrPQsC5byfvBWGxnBscoWEVXQ4nJNU9oo" ] },
      { "delegate": "tz3NxTnke1acr8o3h5y9ytf5awQBGNJUKzVU",
        "reception_time": "2022-01-19T18:11:12.724-00:00",
        "included_in_blocks":
          [ "BLQu5y2oJfeg4yh5PUPrPQsC5byfvBWGxnBscoWEVXQ4nJNU9oo" ] },
      { "delegate": "tz1SYq214SCBy9naR6cvycQsYcUGpBqQAE8d",
        "reception_time": "2022-01-19T18:11:12.402-00:00",
        "included_in_blocks":
          [ "BLQu5y2oJfeg4yh5PUPrPQsC5byfvBWGxnBscoWEVXQ4nJNU9oo" ] },
      { "delegate": "tz3QSGPoRp3Kn7n3vY24eYeu3Peuqo45LQ4D",
        "reception_time": "2022-01-19T18:11:12.402-00:00",
        "included_in_blocks":
          [ "BLQu5y2oJfeg4yh5PUPrPQsC5byfvBWGxnBscoWEVXQ4nJNU9oo" ] },
      { "delegate": "tz3Zhs2dygr55yHyQyKjntAtY9bgfhLZ4Xj1",
        "reception_time": "2022-01-19T18:11:12.873-00:00",
        "included_in_blocks":
          [ "BLQu5y2oJfeg4yh5PUPrPQsC5byfvBWGxnBscoWEVXQ4nJNU9oo" ] },
      { "delegate": "tz1axcnVN9tZnCe4sQQhC6f3tfSEXdjPaXPY",
        "reception_time": "2022-01-19T18:11:12.843-00:00",
        "included_in_blocks":
          [ "BLQu5y2oJfeg4yh5PUPrPQsC5byfvBWGxnBscoWEVXQ4nJNU9oo" ] },
      { "delegate": "tz3iJu5vrKZcsqRPs8yJ61UDoeEXZmtro4qh",
        "reception_time": "2022-01-19T18:11:12.865-00:00",
        "included_in_blocks":
          [ "BLQu5y2oJfeg4yh5PUPrPQsC5byfvBWGxnBscoWEVXQ4nJNU9oo" ] },
      { "delegate": "tz3gtoUxdudfBRcNY7iVdKPHCYYX6xdPpoRS",
        "reception_time": "2022-01-19T18:11:12.886-00:00",
        "included_in_blocks":
          [ "BLQu5y2oJfeg4yh5PUPrPQsC5byfvBWGxnBscoWEVXQ4nJNU9oo" ] },
      { "delegate": "tz1UMCB2AHSTwG7YcGNr31CqYCtGN873royv",
        "reception_time": "2022-01-19T18:11:12.919-00:00",
        "included_in_blocks":
          [ "BLQu5y2oJfeg4yh5PUPrPQsC5byfvBWGxnBscoWEVXQ4nJNU9oo" ] },
      { "delegate": "tz3QT9dHYKDqh563chVa6za8526ys1UKfRfL",
        "reception_time": "2022-01-19T18:11:12.885-00:00",
        "included_in_blocks":
          [ "BLQu5y2oJfeg4yh5PUPrPQsC5byfvBWGxnBscoWEVXQ4nJNU9oo" ] },
      { "delegate": "tz3S6BBeKgJGXxvLyZ1xzXzMPn11nnFtq5L9",
        "reception_time": "2022-01-19T18:11:13.218-00:00",
        "included_in_blocks":
          [ "BLQu5y2oJfeg4yh5PUPrPQsC5byfvBWGxnBscoWEVXQ4nJNU9oo" ] },
      { "delegate": "tz1RCFbB9GpALpsZtu6J58sb74dm8qe6XBzv",
        "reception_time": "2022-01-19T18:11:13.198-00:00",
        "included_in_blocks":
          [ "BLQu5y2oJfeg4yh5PUPrPQsC5byfvBWGxnBscoWEVXQ4nJNU9oo" ] },
      { "delegate": "tz1S8MNvuFEUsWgjHvi3AxibRBf388NhT1q2",
        "reception_time": "2022-01-19T18:11:13.242-00:00",
        "included_in_blocks":
          [ "BLQu5y2oJfeg4yh5PUPrPQsC5byfvBWGxnBscoWEVXQ4nJNU9oo" ] },
      { "delegate": "tz3bTdwZinP8U1JmSweNzVKhmwafqWmFWRfk",
        "reception_time": "2022-01-19T18:11:12.901-00:00",
        "included_in_blocks":
          [ "BLQu5y2oJfeg4yh5PUPrPQsC5byfvBWGxnBscoWEVXQ4nJNU9oo" ] },
      { "delegate": "tz1gfArv665EUkSg2ojMBzcbfwuPxAvqPvjo",
        "reception_time": "2022-01-19T18:11:12.742-00:00",
        "included_in_blocks":
          [ "BLQu5y2oJfeg4yh5PUPrPQsC5byfvBWGxnBscoWEVXQ4nJNU9oo" ] },
      { "delegate": "tz1Vd1rXpV8hTHbFXCXN3c3qzCsgcU5BZw1e",
        "reception_time": "2022-01-19T18:11:12.754-00:00",
        "included_in_blocks":
          [ "BLQu5y2oJfeg4yh5PUPrPQsC5byfvBWGxnBscoWEVXQ4nJNU9oo" ] },
      { "delegate": "tz1WBfwbT66FC6BTLexc2BoyCCBM9LG7pnVW",
        "reception_time": "2022-01-19T18:11:12.740-00:00",
        "included_in_blocks":
          [ "BLQu5y2oJfeg4yh5PUPrPQsC5byfvBWGxnBscoWEVXQ4nJNU9oo" ] },
      { "delegate": "tz1cM8Xc7ZP1TrjkTeKq4PeRhtbnwXSBR6Sw",
        "reception_time": "2022-01-19T18:11:13.257-00:00",
        "included_in_blocks":
          [ "BLQu5y2oJfeg4yh5PUPrPQsC5byfvBWGxnBscoWEVXQ4nJNU9oo" ] },
      { "delegate": "tz1PeZx7FXy7QRuMREGXGxeipb24RsMMzUNe",
        "reception_time": "2022-01-19T18:11:13.271-00:00",
        "included_in_blocks":
          [ "BLQu5y2oJfeg4yh5PUPrPQsC5byfvBWGxnBscoWEVXQ4nJNU9oo" ] },
      { "delegate": "tz3bvNMQ95vfAYtG8193ymshqjSvmxiCUuR5",
        "reception_time": "2022-01-19T18:11:13.283-00:00",
        "included_in_blocks":
          [ "BLQu5y2oJfeg4yh5PUPrPQsC5byfvBWGxnBscoWEVXQ4nJNU9oo" ] },
      { "delegate": "tz1dRKU4FQ9QRRQPdaH4zCR6gmCmXfcvcgtB",
        "reception_time": "2022-01-19T18:11:13.263-00:00",
        "included_in_blocks":
          [ "BLQu5y2oJfeg4yh5PUPrPQsC5byfvBWGxnBscoWEVXQ4nJNU9oo" ] },
      { "delegate": "tz3NDpRj6WBrJPikcPVHRBEjWKxFw3c6eQPS",
        "reception_time": "2022-01-19T18:11:12.919-00:00",
        "included_in_blocks":
          [ "BLQu5y2oJfeg4yh5PUPrPQsC5byfvBWGxnBscoWEVXQ4nJNU9oo" ] },
      { "delegate": "tz1MXFrtZoaXckE41bjUCSjAjAap3AFDSr3N",
        "reception_time": "2022-01-19T18:11:12.804-00:00",
        "included_in_blocks":
          [ "BLQu5y2oJfeg4yh5PUPrPQsC5byfvBWGxnBscoWEVXQ4nJNU9oo" ] },
      { "delegate": "tz2FCNBrERXtaTtNX6iimR1UJ5JSDxvdHM93",
        "reception_time": "2022-01-19T18:11:13.211-00:00",
        "included_in_blocks":
          [ "BLQu5y2oJfeg4yh5PUPrPQsC5byfvBWGxnBscoWEVXQ4nJNU9oo" ] },
      { "delegate": "tz3UoffC7FG7zfpmvmjUmUeAaHvzdcUvAj6r",
        "reception_time": "2022-01-19T18:11:12.865-00:00",
        "included_in_blocks":
          [ "BLQu5y2oJfeg4yh5PUPrPQsC5byfvBWGxnBscoWEVXQ4nJNU9oo" ] },
      { "delegate": "tz1RzwaogUQ8zPntqrSn4yn5f3VquXfEH5Jo",
        "reception_time": "2022-01-19T18:11:13.298-00:00",
        "included_in_blocks":
          [ "BLQu5y2oJfeg4yh5PUPrPQsC5byfvBWGxnBscoWEVXQ4nJNU9oo" ] },
      { "delegate": "tz1a3T5mRR1XWM1JgydvAqxEwpNs7ktVZuXc",
        "reception_time": "2022-01-19T18:11:12.894-00:00",
        "included_in_blocks":
          [ "BLQu5y2oJfeg4yh5PUPrPQsC5byfvBWGxnBscoWEVXQ4nJNU9oo" ] },
      { "delegate": "tz3WMqdzXqRWXwyvj5Hp2H7QEepaUuS7vd9K",
        "reception_time": "2022-01-19T18:11:13.234-00:00",
        "included_in_blocks":
          [ "BLQu5y2oJfeg4yh5PUPrPQsC5byfvBWGxnBscoWEVXQ4nJNU9oo" ] },
      { "delegate": "tz1RjoHc98dBoqaH2jawF62XNKh7YsHwbkEv",
        "reception_time": "2022-01-19T18:11:13.221-00:00",
        "included_in_blocks":
          [ "BLQu5y2oJfeg4yh5PUPrPQsC5byfvBWGxnBscoWEVXQ4nJNU9oo" ] },
      { "delegate": "tz3VEZ4k6a4Wx42iyev6i2aVAptTRLEAivNN",
        "reception_time": "2022-01-19T18:11:13.317-00:00",
        "included_in_blocks":
          [ "BLQu5y2oJfeg4yh5PUPrPQsC5byfvBWGxnBscoWEVXQ4nJNU9oo" ] },
      { "delegate": "tz3RDC3Jdn4j15J7bBHZd29EUee9gVB1CxD9",
        "reception_time": "2022-01-19T18:11:13.254-00:00",
        "included_in_blocks":
          [ "BLQu5y2oJfeg4yh5PUPrPQsC5byfvBWGxnBscoWEVXQ4nJNU9oo" ] },
      { "delegate": "tz1abmz7jiCV2GH2u81LRrGgAFFgvQgiDiaf",
        "reception_time": "2022-01-19T18:11:13.344-00:00",
        "included_in_blocks":
          [ "BLQu5y2oJfeg4yh5PUPrPQsC5byfvBWGxnBscoWEVXQ4nJNU9oo" ] },
      { "delegate": "tz1Z2jXfEXL7dXhs6bsLmyLFLfmAkXBzA9WE",
        "reception_time": "2022-01-19T18:11:13.308-00:00",
        "included_in_blocks":
          [ "BLQu5y2oJfeg4yh5PUPrPQsC5byfvBWGxnBscoWEVXQ4nJNU9oo" ] },
      { "delegate": "tz1YhNsiRRU8aHNGg7NK3uuP6UDAyacJernB",
        "reception_time": "2022-01-19T18:11:13.355-00:00",
        "included_in_blocks":
          [ "BLQu5y2oJfeg4yh5PUPrPQsC5byfvBWGxnBscoWEVXQ4nJNU9oo" ] },
      { "delegate": "tz3NExpXn9aPNZPorRE4SdjJ2RGrfbJgMAaV",
        "reception_time": "2022-01-19T18:11:13.338-00:00",
        "included_in_blocks":
          [ "BLQu5y2oJfeg4yh5PUPrPQsC5byfvBWGxnBscoWEVXQ4nJNU9oo" ] },
      { "delegate": "tz3RB4aoyjov4KEVRbuhvQ1CKJgBJMWhaeB8",
        "reception_time": "2022-01-19T18:11:13.350-00:00",
        "included_in_blocks":
          [ "BLQu5y2oJfeg4yh5PUPrPQsC5byfvBWGxnBscoWEVXQ4nJNU9oo" ] },
      { "delegate": "tz1eE4ERseiJfLTy3ydsdiitpCMbRRHEGhqM",
        "delegate_alias": "boutiger",
        "reception_time": "2022-01-19T18:11:13.585-00:00",
        "included_in_blocks":
          [ "BLQu5y2oJfeg4yh5PUPrPQsC5byfvBWGxnBscoWEVXQ4nJNU9oo" ] },
      { "delegate": "tz1TRqbYbUf2GyrjErf3hBzgBJPzW8y36qEs",
        "reception_time": "2022-01-19T18:11:14.075-00:00",
        "included_in_blocks":
          [ "BLQu5y2oJfeg4yh5PUPrPQsC5byfvBWGxnBscoWEVXQ4nJNU9oo" ] },
      { "delegate": "tz1SUgyRB8T5jXgXAwS33pgRHAKrafyg87Yc",
        "reception_time": "2022-01-19T18:11:16.338-00:00",
        "included_in_blocks":
          [ "BLQu5y2oJfeg4yh5PUPrPQsC5byfvBWGxnBscoWEVXQ4nJNU9oo" ] },
      { "delegate": "tz1aRoaRhSpRYvFdyvgWLL6TGyRoGF51wDjM",
        "reception_time": "2022-01-19T18:11:18.792-00:00",
        "included_in_blocks":
          [ "BLQu5y2oJfeg4yh5PUPrPQsC5byfvBWGxnBscoWEVXQ4nJNU9oo" ] },
      { "delegate": "tz1NMNQYrYrfNpmUqQrMhJypf6ovnaDZhJHM",
        "reception_time": "2022-01-19T18:11:19.658-00:00",
        "included_in_blocks":
          [ "BLQu5y2oJfeg4yh5PUPrPQsC5byfvBWGxnBscoWEVXQ4nJNU9oo" ] },
      { "delegate": "tz1S8e9GgdZG78XJRB3NqabfWeM37GnhZMWQ",
        "reception_time": "2022-01-19T18:11:06.177-00:00",
        "errors":
          [ { "kind": "temporary",
              "id": "proto.011-PtHangz2.prefilter.outdated_endorsement" } ],
        "included_in_blocks":
          [ "BLQu5y2oJfeg4yh5PUPrPQsC5byfvBWGxnBscoWEVXQ4nJNU9oo" ] },
      { "delegate": "tz1Ldzz6k1BHdhuKvAtMRX7h5kJSMHESMHLC",
        "reception_time": "2022-01-19T18:11:07.331-00:00",
        "errors":
          [ { "kind": "temporary",
              "id": "proto.011-PtHangz2.prefilter.outdated_endorsement" } ],
        "included_in_blocks":
          [ "BLQu5y2oJfeg4yh5PUPrPQsC5byfvBWGxnBscoWEVXQ4nJNU9oo" ] },
      { "delegate": "tz1gUNyn3hmnEWqkusWPzxRaon1cs7ndWh7h",
        "reception_time": "2022-01-19T18:11:07.332-00:00",
        "errors":
          [ { "kind": "temporary",
              "id": "proto.011-PtHangz2.prefilter.outdated_endorsement" } ],
        "included_in_blocks":
          [ "BLQu5y2oJfeg4yh5PUPrPQsC5byfvBWGxnBscoWEVXQ4nJNU9oo" ] },
      { "delegate": "tz1NpWrAyDL9k2Lmnyxcgr9xuJakbBxdq7FB" },
      { "delegate": "tz1S3ZahYq7fqZQ5bq4qCLsTWgPUzQhfAswy" },
      { "delegate": "tz1Z1WwoqgRFbLE3YNdYRpCx44NSfiMJzeAG" },
      { "delegate": "tz1awXW7wuXy21c66vBudMXQVAPgRnqqwgTH" },
      { "delegate": "tz1go7f6mEQfT2xX2LuHAqgnRGN6c2zHPf5c" },
      { "delegate": "tz1QccGQsmt7WMnbVX9inJQgEuQGeMXddfjp",
        "reception_time": "2022-01-19T18:11:20.703-00:00" },
      { "delegate": "tz1PFeoTuFen8jAMRHajBySNyCwLmY5RqF9M",
        "reception_time": "2022-01-19T18:11:24.548-00:00" },
      { "delegate": "tz1dfg9PkvRLf7hKMmGdGRhXWCbd8QgbwBF7",
        "reception_time": "2022-01-19T18:11:24.582-00:00" } ] }