{ "blocks":
    [ { "hash": "BLsxmT4jeMsgiFy3T21SiZRxzcfxXEc5hgMWG1m64TCoWYadGTL",
        "delegate": "tz3ZbP2pM3nwvXztbuMJwJnDvV5xdpU8UkkD",
        "reception_time": "2022-01-19T19:01:44.884-00:00",
        "timestamp": "2022-01-19T19:01:30Z" } ],
  "endorsements":
    [ { "delegate": "tz1go7f6mEQfT2xX2LuHAqgnRGN6c2zHPf5c",
        "reception_time": "2022-01-19T19:02:08.725-00:00" },
      { "delegate": "tz1QccGQsmt7WMnbVX9inJQgEuQGeMXddfjp",
        "reception_time": "2022-01-19T19:01:57.582-00:00",
        "included_in_blocks":
          [ "BLh8UHckPJpJrSDMiET3ZG6fSydkLbpcwjHyGCmEhr3QNFz9gJe" ] },
      { "delegate": "tz1ZdSQibskQwRdiaFUh7RUVm1Z6xudMedoj",
        "reception_time": "2022-01-19T19:01:55.401-00:00",
        "included_in_blocks":
          [ "BLh8UHckPJpJrSDMiET3ZG6fSydkLbpcwjHyGCmEhr3QNFz9gJe" ] },
      { "delegate": "tz1aRoaRhSpRYvFdyvgWLL6TGyRoGF51wDjM",
        "reception_time": "2022-01-19T19:01:53.614-00:00",
        "included_in_blocks":
          [ "BLh8UHckPJpJrSDMiET3ZG6fSydkLbpcwjHyGCmEhr3QNFz9gJe" ] },
      { "delegate": "tz1V3yg82mcrPJbegqVCPn6bC8w1CSTRp3f8",
        "reception_time": "2022-01-19T19:01:52.894-00:00",
        "included_in_blocks":
          [ "BLh8UHckPJpJrSDMiET3ZG6fSydkLbpcwjHyGCmEhr3QNFz9gJe" ] },
      { "delegate": "tz1SUgyRB8T5jXgXAwS33pgRHAKrafyg87Yc",
        "reception_time": "2022-01-19T19:01:52.780-00:00",
        "included_in_blocks":
          [ "BLh8UHckPJpJrSDMiET3ZG6fSydkLbpcwjHyGCmEhr3QNFz9gJe" ] },
      { "delegate": "tz1RjoHc98dBoqaH2jawF62XNKh7YsHwbkEv",
        "reception_time": "2022-01-19T19:01:52.639-00:00",
        "included_in_blocks":
          [ "BLh8UHckPJpJrSDMiET3ZG6fSydkLbpcwjHyGCmEhr3QNFz9gJe" ] },
      { "delegate": "tz1TRqbYbUf2GyrjErf3hBzgBJPzW8y36qEs",
        "reception_time": "2022-01-19T19:01:51.494-00:00",
        "included_in_blocks":
          [ "BLh8UHckPJpJrSDMiET3ZG6fSydkLbpcwjHyGCmEhr3QNFz9gJe" ] },
      { "delegate": "tz1UvkANVPWppVgMkLnvN7BwYZsCP7vm6NVd",
        "reception_time": "2022-01-19T19:01:50.676-00:00",
        "included_in_blocks":
          [ "BLh8UHckPJpJrSDMiET3ZG6fSydkLbpcwjHyGCmEhr3QNFz9gJe" ] },
      { "delegate": "tz1NSDFKuRyzHxpfG1AMkyCwEiZ52cbR2mRW",
        "reception_time": "2022-01-19T19:01:49.930-00:00",
        "included_in_blocks":
          [ "BLh8UHckPJpJrSDMiET3ZG6fSydkLbpcwjHyGCmEhr3QNFz9gJe" ] },
      { "delegate": "tz1fPKAtsYydh4f1wfWNfeNxWYu72TmM48fu",
        "reception_time": "2022-01-19T19:01:49.510-00:00",
        "included_in_blocks":
          [ "BLh8UHckPJpJrSDMiET3ZG6fSydkLbpcwjHyGCmEhr3QNFz9gJe" ] },
      { "delegate": "tz1WnfXMPaNTBmH7DBPwqCWs9cPDJdkGBTZ8",
        "reception_time": "2022-01-19T19:01:49.463-00:00",
        "included_in_blocks":
          [ "BLh8UHckPJpJrSDMiET3ZG6fSydkLbpcwjHyGCmEhr3QNFz9gJe" ] },
      { "delegate": "tz3UoffC7FG7zfpmvmjUmUeAaHvzdcUvAj6r",
        "reception_time": "2022-01-19T19:01:49.418-00:00",
        "included_in_blocks":
          [ "BLh8UHckPJpJrSDMiET3ZG6fSydkLbpcwjHyGCmEhr3QNFz9gJe" ] },
      { "delegate": "tz1dDsLch7Ww1s5mfD1tjBtKWwCdrjuHWanV",
        "reception_time": "2022-01-19T19:01:49.222-00:00",
        "included_in_blocks":
          [ "BLh8UHckPJpJrSDMiET3ZG6fSydkLbpcwjHyGCmEhr3QNFz9gJe" ] },
      { "delegate": "tz3RDC3Jdn4j15J7bBHZd29EUee9gVB1CxD9",
        "reception_time": "2022-01-19T19:01:49.222-00:00",
        "included_in_blocks":
          [ "BLh8UHckPJpJrSDMiET3ZG6fSydkLbpcwjHyGCmEhr3QNFz9gJe" ] },
      { "delegate": "tz1LmaFsWRkjr7QMCx5PtV6xTUz3AmEpKQiF",
        "reception_time": "2022-01-19T19:01:49.222-00:00",
        "included_in_blocks":
          [ "BLh8UHckPJpJrSDMiET3ZG6fSydkLbpcwjHyGCmEhr3QNFz9gJe" ] },
      { "delegate": "tz1ZcTRk5uxD86EFEn1vvNffWWqJy7q5eVhc",
        "reception_time": "2022-01-19T19:01:48.908-00:00",
        "included_in_blocks":
          [ "BLh8UHckPJpJrSDMiET3ZG6fSydkLbpcwjHyGCmEhr3QNFz9gJe" ] },
      { "delegate": "tz1fwnfJNgiDACshK9avfRfFbMaXrs3ghoJa",
        "reception_time": "2022-01-19T19:01:48.908-00:00",
        "included_in_blocks":
          [ "BLh8UHckPJpJrSDMiET3ZG6fSydkLbpcwjHyGCmEhr3QNFz9gJe" ] },
      { "delegate": "tz1S8MNvuFEUsWgjHvi3AxibRBf388NhT1q2",
        "reception_time": "2022-01-19T19:01:48.908-00:00",
        "included_in_blocks":
          [ "BLh8UHckPJpJrSDMiET3ZG6fSydkLbpcwjHyGCmEhr3QNFz9gJe" ] },
      { "delegate": "tz1T7duV5gZWSTq4YpBGbXNLTfznCLDrFxvs",
        "reception_time": "2022-01-19T19:01:48.908-00:00",
        "included_in_blocks":
          [ "BLh8UHckPJpJrSDMiET3ZG6fSydkLbpcwjHyGCmEhr3QNFz9gJe" ] },
      { "delegate": "tz1UJvHTgpVzcKWhTazGxVcn5wsHru5Gietg",
        "reception_time": "2022-01-19T19:01:48.908-00:00",
        "included_in_blocks":
          [ "BLh8UHckPJpJrSDMiET3ZG6fSydkLbpcwjHyGCmEhr3QNFz9gJe" ] },
      { "delegate": "tz3VEZ4k6a4Wx42iyev6i2aVAptTRLEAivNN",
        "reception_time": "2022-01-19T19:01:48.908-00:00",
        "included_in_blocks":
          [ "BLh8UHckPJpJrSDMiET3ZG6fSydkLbpcwjHyGCmEhr3QNFz9gJe" ] },
      { "delegate": "tz3NDpRj6WBrJPikcPVHRBEjWKxFw3c6eQPS",
        "reception_time": "2022-01-19T19:01:48.908-00:00",
        "included_in_blocks":
          [ "BLh8UHckPJpJrSDMiET3ZG6fSydkLbpcwjHyGCmEhr3QNFz9gJe" ] },
      { "delegate": "tz1WBfwbT66FC6BTLexc2BoyCCBM9LG7pnVW",
        "reception_time": "2022-01-19T19:01:48.908-00:00",
        "included_in_blocks":
          [ "BLh8UHckPJpJrSDMiET3ZG6fSydkLbpcwjHyGCmEhr3QNFz9gJe" ] },
      { "delegate": "tz3NExpXn9aPNZPorRE4SdjJ2RGrfbJgMAaV",
        "reception_time": "2022-01-19T19:01:48.908-00:00",
        "included_in_blocks":
          [ "BLh8UHckPJpJrSDMiET3ZG6fSydkLbpcwjHyGCmEhr3QNFz9gJe" ] },
      { "delegate": "tz1abmz7jiCV2GH2u81LRrGgAFFgvQgiDiaf",
        "reception_time": "2022-01-19T19:01:48.908-00:00",
        "included_in_blocks":
          [ "BLh8UHckPJpJrSDMiET3ZG6fSydkLbpcwjHyGCmEhr3QNFz9gJe" ] },
      { "delegate": "tz2FCNBrERXtaTtNX6iimR1UJ5JSDxvdHM93",
        "reception_time": "2022-01-19T19:01:48.908-00:00",
        "included_in_blocks":
          [ "BLh8UHckPJpJrSDMiET3ZG6fSydkLbpcwjHyGCmEhr3QNFz9gJe" ] },
      { "delegate": "tz3WMqdzXqRWXwyvj5Hp2H7QEepaUuS7vd9K",
        "reception_time": "2022-01-19T19:01:48.908-00:00",
        "included_in_blocks":
          [ "BLh8UHckPJpJrSDMiET3ZG6fSydkLbpcwjHyGCmEhr3QNFz9gJe" ] },
      { "delegate": "tz3bvNMQ95vfAYtG8193ymshqjSvmxiCUuR5",
        "reception_time": "2022-01-19T19:01:48.908-00:00",
        "included_in_blocks":
          [ "BLh8UHckPJpJrSDMiET3ZG6fSydkLbpcwjHyGCmEhr3QNFz9gJe" ] },
      { "delegate": "tz3iJu5vrKZcsqRPs8yJ61UDoeEXZmtro4qh",
        "reception_time": "2022-01-19T19:01:48.908-00:00",
        "included_in_blocks":
          [ "BLh8UHckPJpJrSDMiET3ZG6fSydkLbpcwjHyGCmEhr3QNFz9gJe" ] },
      { "delegate": "tz3QSGPoRp3Kn7n3vY24eYeu3Peuqo45LQ4D",
        "reception_time": "2022-01-19T19:01:48.908-00:00",
        "included_in_blocks":
          [ "BLh8UHckPJpJrSDMiET3ZG6fSydkLbpcwjHyGCmEhr3QNFz9gJe" ] },
      { "delegate": "tz3gLTu4Yxj8tPAcriQVUdxv6BY9QyvzU1az",
        "reception_time": "2022-01-19T19:01:48.908-00:00",
        "included_in_blocks":
          [ "BLh8UHckPJpJrSDMiET3ZG6fSydkLbpcwjHyGCmEhr3QNFz9gJe" ] },
      { "delegate": "tz3bTdwZinP8U1JmSweNzVKhmwafqWmFWRfk",
        "reception_time": "2022-01-19T19:01:48.908-00:00",
        "included_in_blocks":
          [ "BLh8UHckPJpJrSDMiET3ZG6fSydkLbpcwjHyGCmEhr3QNFz9gJe" ] },
      { "delegate": "tz3RB4aoyjov4KEVRbuhvQ1CKJgBJMWhaeB8",
        "reception_time": "2022-01-19T19:01:48.908-00:00",
        "included_in_blocks":
          [ "BLh8UHckPJpJrSDMiET3ZG6fSydkLbpcwjHyGCmEhr3QNFz9gJe" ] },
      { "delegate": "tz3gtoUxdudfBRcNY7iVdKPHCYYX6xdPpoRS",
        "reception_time": "2022-01-19T19:01:48.908-00:00",
        "included_in_blocks":
          [ "BLh8UHckPJpJrSDMiET3ZG6fSydkLbpcwjHyGCmEhr3QNFz9gJe" ] },
      { "delegate": "tz1MJx9vhaNRSimcuXPK2rW4fLccQnDAnVKJ",
        "reception_time": "2022-01-19T19:01:48.908-00:00",
        "included_in_blocks":
          [ "BLh8UHckPJpJrSDMiET3ZG6fSydkLbpcwjHyGCmEhr3QNFz9gJe" ] },
      { "delegate": "tz3S6BBeKgJGXxvLyZ1xzXzMPn11nnFtq5L9",
        "reception_time": "2022-01-19T19:01:48.908-00:00",
        "included_in_blocks":
          [ "BLh8UHckPJpJrSDMiET3ZG6fSydkLbpcwjHyGCmEhr3QNFz9gJe" ] },
      { "delegate": "tz1bHzftcTKZMTZgLLtnrXydCm6UEqf4ivca",
        "reception_time": "2022-01-19T19:01:48.908-00:00",
        "included_in_blocks":
          [ "BLh8UHckPJpJrSDMiET3ZG6fSydkLbpcwjHyGCmEhr3QNFz9gJe" ] },
      { "delegate": "tz1RCFbB9GpALpsZtu6J58sb74dm8qe6XBzv",
        "reception_time": "2022-01-19T19:01:48.908-00:00",
        "included_in_blocks":
          [ "BLh8UHckPJpJrSDMiET3ZG6fSydkLbpcwjHyGCmEhr3QNFz9gJe" ] },
      { "delegate": "tz3Zhs2dygr55yHyQyKjntAtY9bgfhLZ4Xj1",
        "reception_time": "2022-01-19T19:01:48.773-00:00",
        "included_in_blocks":
          [ "BLh8UHckPJpJrSDMiET3ZG6fSydkLbpcwjHyGCmEhr3QNFz9gJe" ] },
      { "delegate": "tz1gfArv665EUkSg2ojMBzcbfwuPxAvqPvjo",
        "reception_time": "2022-01-19T19:01:48.773-00:00",
        "included_in_blocks":
          [ "BLh8UHckPJpJrSDMiET3ZG6fSydkLbpcwjHyGCmEhr3QNFz9gJe" ] },
      { "delegate": "tz3QT9dHYKDqh563chVa6za8526ys1UKfRfL",
        "reception_time": "2022-01-19T19:01:48.773-00:00",
        "included_in_blocks":
          [ "BLh8UHckPJpJrSDMiET3ZG6fSydkLbpcwjHyGCmEhr3QNFz9gJe" ] },
      { "delegate": "tz1MQMiZHV8q4tTwUMWmS5Y3kaP6J2136iXr",
        "reception_time": "2022-01-19T19:01:48.773-00:00",
        "included_in_blocks":
          [ "BLh8UHckPJpJrSDMiET3ZG6fSydkLbpcwjHyGCmEhr3QNFz9gJe" ] },
      { "delegate": "tz1SYq214SCBy9naR6cvycQsYcUGpBqQAE8d",
        "reception_time": "2022-01-19T19:01:48.657-00:00",
        "included_in_blocks":
          [ "BLh8UHckPJpJrSDMiET3ZG6fSydkLbpcwjHyGCmEhr3QNFz9gJe" ] },
      { "delegate": "tz1NEKxGEHsFufk87CVZcrqWu8o22qh46GK6",
        "reception_time": "2022-01-19T19:01:48.657-00:00",
        "included_in_blocks":
          [ "BLh8UHckPJpJrSDMiET3ZG6fSydkLbpcwjHyGCmEhr3QNFz9gJe" ] },
      { "delegate": "tz1UMCB2AHSTwG7YcGNr31CqYCtGN873royv",
        "reception_time": "2022-01-19T19:01:48.657-00:00",
        "included_in_blocks":
          [ "BLh8UHckPJpJrSDMiET3ZG6fSydkLbpcwjHyGCmEhr3QNFz9gJe" ] },
      { "delegate": "tz3hw2kqXhLUvY65ca1eety2oQTpAvd34R9Q",
        "reception_time": "2022-01-19T19:01:48.657-00:00",
        "included_in_blocks":
          [ "BLh8UHckPJpJrSDMiET3ZG6fSydkLbpcwjHyGCmEhr3QNFz9gJe" ] },
      { "delegate": "tz1ZPh7XfUaJXUDvkrBxmS1BjEM1i62hiPpM",
        "reception_time": "2022-01-19T19:01:48.657-00:00",
        "included_in_blocks":
          [ "BLh8UHckPJpJrSDMiET3ZG6fSydkLbpcwjHyGCmEhr3QNFz9gJe" ] },
      { "delegate": "tz1Nf6tsK4G6bBqgSQERy4nUtkHNKUVdh7q1",
        "reception_time": "2022-01-19T19:01:48.657-00:00",
        "included_in_blocks":
          [ "BLh8UHckPJpJrSDMiET3ZG6fSydkLbpcwjHyGCmEhr3QNFz9gJe" ] },
      { "delegate": "tz1SRqg1KT7dJ5QxF9PWnWdfbXgh6HfKZxbd",
        "reception_time": "2022-01-19T19:01:48.657-00:00",
        "included_in_blocks":
          [ "BLh8UHckPJpJrSDMiET3ZG6fSydkLbpcwjHyGCmEhr3QNFz9gJe" ] },
      { "delegate": "tz1TEc75UKXv4W5cwi14Na3NtqFD51yKQi7h",
        "reception_time": "2022-01-19T19:01:48.657-00:00",
        "included_in_blocks":
          [ "BLh8UHckPJpJrSDMiET3ZG6fSydkLbpcwjHyGCmEhr3QNFz9gJe" ] },
      { "delegate": "tz1dbfppLAAxXZNtf2SDps7rch3qfUznKSoK" },
      { "delegate": "tz1awXW7wuXy21c66vBudMXQVAPgRnqqwgTH" },
      { "delegate": "tz1NpWrAyDL9k2Lmnyxcgr9xuJakbBxdq7FB" },
      { "delegate": "tz1N6LjoaXdGNRsSxYseRCu5RNf1LfuAHBE9" },
      { "delegate": "tz1gUNyn3hmnEWqkusWPzxRaon1cs7ndWh7h",
        "reception_time": "2022-01-19T19:01:42.493-00:00",
        "errors":
          [ { "kind": "temporary",
              "id": "proto.011-PtHangz2.prefilter.outdated_endorsement" } ],
        "included_in_blocks":
          [ "BLh8UHckPJpJrSDMiET3ZG6fSydkLbpcwjHyGCmEhr3QNFz9gJe" ] },
      { "delegate": "tz1VQnqCCqX4K5sP3FNkVSNKTdCAMJDd3E1n",
        "reception_time": "2022-01-19T19:01:42.508-00:00",
        "errors":
          [ { "kind": "temporary",
              "id": "proto.011-PtHangz2.prefilter.outdated_endorsement" } ],
        "included_in_blocks":
          [ "BLh8UHckPJpJrSDMiET3ZG6fSydkLbpcwjHyGCmEhr3QNFz9gJe" ] },
      { "delegate": "tz1VmiY38m3y95HqQLjMwqnMS7sdMfGomzKi",
        "reception_time": "2022-01-19T19:01:42.646-00:00",
        "errors":
          [ { "kind": "temporary",
              "id": "proto.011-PtHangz2.prefilter.outdated_endorsement" } ],
        "included_in_blocks":
          [ "BLh8UHckPJpJrSDMiET3ZG6fSydkLbpcwjHyGCmEhr3QNFz9gJe" ] },
      { "delegate": "tz1Ldzz6k1BHdhuKvAtMRX7h5kJSMHESMHLC",
        "reception_time": "2022-01-19T19:01:42.934-00:00",
        "errors":
          [ { "kind": "temporary",
              "id": "proto.011-PtHangz2.prefilter.outdated_endorsement" } ],
        "included_in_blocks":
          [ "BLh8UHckPJpJrSDMiET3ZG6fSydkLbpcwjHyGCmEhr3QNFz9gJe" ] },
      { "delegate": "tz1Kt4P8BCaP93AEV4eA7gmpRryWt5hznjCP",
        "reception_time": "2022-01-19T19:01:42.964-00:00",
        "errors":
          [ { "kind": "temporary",
              "id": "proto.011-PtHangz2.prefilter.outdated_endorsement" } ],
        "included_in_blocks":
          [ "BLh8UHckPJpJrSDMiET3ZG6fSydkLbpcwjHyGCmEhr3QNFz9gJe" ] },
      { "delegate": "tz1P2Po7YM526ughEsRbY4oR9zaUPDZjxFrb",
        "reception_time": "2022-01-19T19:01:43.239-00:00",
        "errors":
          [ { "kind": "temporary",
              "id": "proto.011-PtHangz2.prefilter.outdated_endorsement" } ],
        "included_in_blocks":
          [ "BLh8UHckPJpJrSDMiET3ZG6fSydkLbpcwjHyGCmEhr3QNFz9gJe" ] },
      { "delegate": "tz1STeamwbp68THcny9zk3LsbG3H36DMvbRK",
        "reception_time": "2022-01-19T19:01:43.487-00:00",
        "errors":
          [ { "kind": "temporary",
              "id": "proto.011-PtHangz2.prefilter.outdated_endorsement" } ],
        "included_in_blocks":
          [ "BLh8UHckPJpJrSDMiET3ZG6fSydkLbpcwjHyGCmEhr3QNFz9gJe" ] },
      { "delegate": "tz1Lhf4J9Qxoe3DZ2nfe8FGDnvVj7oKjnMY6",
        "reception_time": "2022-01-19T19:01:43.495-00:00",
        "errors":
          [ { "kind": "temporary",
              "id": "proto.011-PtHangz2.prefilter.outdated_endorsement" } ],
        "included_in_blocks":
          [ "BLh8UHckPJpJrSDMiET3ZG6fSydkLbpcwjHyGCmEhr3QNFz9gJe" ] },
      { "delegate": "tz1TXzyaKUA8wsWefdSnyaYFnV2M3vCV7er9",
        "reception_time": "2022-01-19T19:01:43.784-00:00",
        "errors":
          [ { "kind": "temporary",
              "id": "proto.011-PtHangz2.prefilter.outdated_endorsement" } ],
        "included_in_blocks":
          [ "BLh8UHckPJpJrSDMiET3ZG6fSydkLbpcwjHyGCmEhr3QNFz9gJe" ] },
      { "delegate": "tz1ei4WtWEMEJekSv8qDnu9PExG6Q8HgRGr3",
        "reception_time": "2022-01-19T19:01:43.785-00:00",
        "errors":
          [ { "kind": "temporary",
              "id": "proto.011-PtHangz2.prefilter.outdated_endorsement" } ],
        "included_in_blocks":
          [ "BLh8UHckPJpJrSDMiET3ZG6fSydkLbpcwjHyGCmEhr3QNFz9gJe" ] },
      { "delegate": "tz1iZEKy4LaAjnTmn2RuGDf2iqdAQKnRi8kY",
        "reception_time": "2022-01-19T19:01:43.787-00:00",
        "errors":
          [ { "kind": "temporary",
              "id": "proto.011-PtHangz2.prefilter.outdated_endorsement" } ],
        "included_in_blocks":
          [ "BLh8UHckPJpJrSDMiET3ZG6fSydkLbpcwjHyGCmEhr3QNFz9gJe" ] },
      { "delegate": "tz1WCd2jm4uSt4vntk4vSuUWoZQGhLcDuR9q",
        "reception_time": "2022-01-19T19:01:43.943-00:00",
        "errors":
          [ { "kind": "temporary",
              "id": "proto.011-PtHangz2.prefilter.outdated_endorsement" } ],
        "included_in_blocks":
          [ "BLh8UHckPJpJrSDMiET3ZG6fSydkLbpcwjHyGCmEhr3QNFz9gJe" ] },
      { "delegate": "tz1irJKkXS2DBWkU1NnmFQx1c1L7pbGg4yhk",
        "reception_time": "2022-01-19T19:01:43.999-00:00",
        "errors":
          [ { "kind": "temporary",
              "id": "proto.011-PtHangz2.prefilter.outdated_endorsement" } ],
        "included_in_blocks":
          [ "BLh8UHckPJpJrSDMiET3ZG6fSydkLbpcwjHyGCmEhr3QNFz9gJe" ] },
      { "delegate": "tz1PWCDnz783NNGGQjEFFsHtrcK5yBW4E2rm",
        "reception_time": "2022-01-19T19:01:44.220-00:00",
        "errors":
          [ { "kind": "temporary",
              "id": "proto.011-PtHangz2.prefilter.outdated_endorsement" } ],
        "included_in_blocks":
          [ "BLh8UHckPJpJrSDMiET3ZG6fSydkLbpcwjHyGCmEhr3QNFz9gJe" ] },
      { "delegate": "tz3e7LbZvUtoXhpUD1yb6wuFodZpfYRb9nWJ",
        "reception_time": "2022-01-19T19:01:44.271-00:00",
        "errors":
          [ { "kind": "temporary",
              "id": "proto.011-PtHangz2.prefilter.outdated_endorsement" } ],
        "included_in_blocks":
          [ "BLh8UHckPJpJrSDMiET3ZG6fSydkLbpcwjHyGCmEhr3QNFz9gJe" ] },
      { "delegate": "tz1TzaNn7wSQSP5gYPXCnNzBCpyMiidCq1PX",
        "reception_time": "2022-01-19T19:01:44.492-00:00",
        "errors":
          [ { "kind": "temporary",
              "id": "proto.011-PtHangz2.prefilter.outdated_endorsement" } ],
        "included_in_blocks":
          [ "BLh8UHckPJpJrSDMiET3ZG6fSydkLbpcwjHyGCmEhr3QNFz9gJe" ] },
      { "delegate": "tz3NxTnke1acr8o3h5y9ytf5awQBGNJUKzVU",
        "reception_time": "2022-01-19T19:01:44.496-00:00",
        "errors":
          [ { "kind": "temporary",
              "id": "proto.011-PtHangz2.prefilter.outdated_endorsement" } ],
        "included_in_blocks":
          [ "BLh8UHckPJpJrSDMiET3ZG6fSydkLbpcwjHyGCmEhr3QNFz9gJe" ] },
      { "delegate": "tz3ZbP2pM3nwvXztbuMJwJnDvV5xdpU8UkkD",
        "reception_time": "2022-01-19T19:01:44.511-00:00",
        "errors":
          [ { "kind": "temporary",
              "id": "proto.011-PtHangz2.prefilter.outdated_endorsement" } ],
        "included_in_blocks":
          [ "BLh8UHckPJpJrSDMiET3ZG6fSydkLbpcwjHyGCmEhr3QNFz9gJe" ] },
      { "delegate": "tz1eEnQhbwf6trb8Q8mPb2RaPkNk2rN7BKi8",
        "reception_time": "2022-01-19T19:01:44.528-00:00",
        "errors":
          [ { "kind": "temporary",
              "id": "proto.011-PtHangz2.prefilter.outdated_endorsement" } ],
        "included_in_blocks":
          [ "BLh8UHckPJpJrSDMiET3ZG6fSydkLbpcwjHyGCmEhr3QNFz9gJe" ] },
      { "delegate": "tz1d6Fx42mYgVFnHUW8T8A7WBfJ6nD9pVok8",
        "reception_time": "2022-01-19T19:01:44.604-00:00",
        "errors":
          [ { "kind": "temporary",
              "id": "proto.011-PtHangz2.prefilter.outdated_endorsement" } ],
        "included_in_blocks":
          [ "BLh8UHckPJpJrSDMiET3ZG6fSydkLbpcwjHyGCmEhr3QNFz9gJe" ] },
      { "delegate": "tz1KfEsrtDaA1sX7vdM4qmEPWuSytuqCDp5j",
        "reception_time": "2022-01-19T19:01:44.651-00:00",
        "errors":
          [ { "kind": "temporary",
              "id": "proto.011-PtHangz2.prefilter.outdated_endorsement" } ],
        "included_in_blocks":
          [ "BLh8UHckPJpJrSDMiET3ZG6fSydkLbpcwjHyGCmEhr3QNFz9gJe" ] },
      { "delegate": "tz1beersuEDv8Z7ngQ825xfbaJNS2EhXnyHR",
        "reception_time": "2022-01-19T19:01:44.790-00:00",
        "errors":
          [ { "kind": "temporary",
              "id": "proto.011-PtHangz2.prefilter.outdated_endorsement" } ],
        "included_in_blocks":
          [ "BLh8UHckPJpJrSDMiET3ZG6fSydkLbpcwjHyGCmEhr3QNFz9gJe" ] } ] }