{ "blocks":
    [ { "hash": "BLwPYaLpCVb6qs2GMcKhoV8yKaH25pmoiPwKyA1BN5ErzUJpeJt",
        "delegate": "tz2FCNBrERXtaTtNX6iimR1UJ5JSDxvdHM93",
        "reception_time": "2022-01-19T18:53:45.631-00:00",
        "timestamp": "2022-01-19T18:53:30Z" } ],
  "endorsements":
    [ { "delegate": "tz1ibcPVGK4Y8pcW4BYUsojiHoBKnZbyDGrX" },
      { "delegate": "tz1dbfppLAAxXZNtf2SDps7rch3qfUznKSoK" },
      { "delegate": "tz1awXW7wuXy21c66vBudMXQVAPgRnqqwgTH" },
      { "delegate": "tz1W5VkdB5s7ENMESVBtwyt9kyvLqPcUczRT" },
      { "delegate": "tz1P6WKJu2rcbxKiKRZHKQKmKrpC9TfW1AwM" },
      { "delegate": "tz1TzaNn7wSQSP5gYPXCnNzBCpyMiidCq1PX",
        "reception_time": "2022-01-19T18:53:45.631-00:00",
        "errors":
          [ { "kind": "temporary",
              "id": "proto.011-PtHangz2.prefilter.outdated_endorsement" } ],
        "included_in_blocks":
          [ "BLqwuricvCZTCyL8FKDKVKCc45XYTbHB553edohQhMXV2GMit3X" ] },
      { "delegate": "tz1ei4WtWEMEJekSv8qDnu9PExG6Q8HgRGr3",
        "reception_time": "2022-01-19T18:53:45.357-00:00",
        "errors":
          [ { "kind": "temporary",
              "id": "proto.011-PtHangz2.prefilter.outdated_endorsement" } ],
        "included_in_blocks":
          [ "BLqwuricvCZTCyL8FKDKVKCc45XYTbHB553edohQhMXV2GMit3X" ] },
      { "delegate": "tz1PWCDnz783NNGGQjEFFsHtrcK5yBW4E2rm",
        "reception_time": "2022-01-19T18:53:45.313-00:00",
        "errors":
          [ { "kind": "temporary",
              "id": "proto.011-PtHangz2.prefilter.outdated_endorsement" } ],
        "included_in_blocks":
          [ "BLqwuricvCZTCyL8FKDKVKCc45XYTbHB553edohQhMXV2GMit3X" ] },
      { "delegate": "tz3e7LbZvUtoXhpUD1yb6wuFodZpfYRb9nWJ",
        "reception_time": "2022-01-19T18:53:45.226-00:00",
        "errors":
          [ { "kind": "temporary",
              "id": "proto.011-PtHangz2.prefilter.outdated_endorsement" } ],
        "included_in_blocks":
          [ "BLqwuricvCZTCyL8FKDKVKCc45XYTbHB553edohQhMXV2GMit3X" ] },
      { "delegate": "tz1eEnQhbwf6trb8Q8mPb2RaPkNk2rN7BKi8",
        "reception_time": "2022-01-19T18:53:45.068-00:00",
        "errors":
          [ { "kind": "temporary",
              "id": "proto.011-PtHangz2.prefilter.outdated_endorsement" } ],
        "included_in_blocks":
          [ "BLqwuricvCZTCyL8FKDKVKCc45XYTbHB553edohQhMXV2GMit3X" ] },
      { "delegate": "tz1WCd2jm4uSt4vntk4vSuUWoZQGhLcDuR9q",
        "reception_time": "2022-01-19T18:53:44.911-00:00",
        "errors":
          [ { "kind": "temporary",
              "id": "proto.011-PtHangz2.prefilter.outdated_endorsement" } ],
        "included_in_blocks":
          [ "BLqwuricvCZTCyL8FKDKVKCc45XYTbHB553edohQhMXV2GMit3X" ] },
      { "delegate": "tz1TXzyaKUA8wsWefdSnyaYFnV2M3vCV7er9",
        "reception_time": "2022-01-19T18:53:44.630-00:00",
        "errors":
          [ { "kind": "temporary",
              "id": "proto.011-PtHangz2.prefilter.outdated_endorsement" } ],
        "included_in_blocks":
          [ "BLqwuricvCZTCyL8FKDKVKCc45XYTbHB553edohQhMXV2GMit3X" ] },
      { "delegate": "tz1aXD7Jigrt3PBYSpHSg5Rr33SexMmmM5Ys",
        "reception_time": "2022-01-19T18:53:44.592-00:00",
        "errors":
          [ { "kind": "temporary",
              "id": "proto.011-PtHangz2.prefilter.outdated_endorsement" } ],
        "included_in_blocks":
          [ "BLqwuricvCZTCyL8FKDKVKCc45XYTbHB553edohQhMXV2GMit3X" ] },
      { "delegate": "tz1RV1MBbZMR68tacosb7Mwj6LkbPSUS1er1",
        "reception_time": "2022-01-19T18:53:44.584-00:00",
        "errors":
          [ { "kind": "temporary",
              "id": "proto.011-PtHangz2.prefilter.outdated_endorsement" } ],
        "included_in_blocks":
          [ "BLqwuricvCZTCyL8FKDKVKCc45XYTbHB553edohQhMXV2GMit3X" ] },
      { "delegate": "tz1VQnqCCqX4K5sP3FNkVSNKTdCAMJDd3E1n",
        "reception_time": "2022-01-19T18:53:44.453-00:00",
        "errors":
          [ { "kind": "temporary",
              "id": "proto.011-PtHangz2.prefilter.outdated_endorsement" } ],
        "included_in_blocks":
          [ "BLqwuricvCZTCyL8FKDKVKCc45XYTbHB553edohQhMXV2GMit3X" ] },
      { "delegate": "tz1gUNyn3hmnEWqkusWPzxRaon1cs7ndWh7h",
        "reception_time": "2022-01-19T18:53:44.386-00:00",
        "errors":
          [ { "kind": "temporary",
              "id": "proto.011-PtHangz2.prefilter.outdated_endorsement" } ],
        "included_in_blocks":
          [ "BLqwuricvCZTCyL8FKDKVKCc45XYTbHB553edohQhMXV2GMit3X" ] },
      { "delegate": "tz1irJKkXS2DBWkU1NnmFQx1c1L7pbGg4yhk",
        "reception_time": "2022-01-19T18:53:44.378-00:00",
        "errors":
          [ { "kind": "temporary",
              "id": "proto.011-PtHangz2.prefilter.outdated_endorsement" } ],
        "included_in_blocks":
          [ "BLqwuricvCZTCyL8FKDKVKCc45XYTbHB553edohQhMXV2GMit3X" ] },
      { "delegate": "tz1Lhf4J9Qxoe3DZ2nfe8FGDnvVj7oKjnMY6",
        "reception_time": "2022-01-19T18:53:44.272-00:00",
        "errors":
          [ { "kind": "temporary",
              "id": "proto.011-PtHangz2.prefilter.outdated_endorsement" } ],
        "included_in_blocks":
          [ "BLqwuricvCZTCyL8FKDKVKCc45XYTbHB553edohQhMXV2GMit3X" ] },
      { "delegate": "tz1Ldzz6k1BHdhuKvAtMRX7h5kJSMHESMHLC",
        "reception_time": "2022-01-19T18:53:44.025-00:00",
        "errors":
          [ { "kind": "temporary",
              "id": "proto.011-PtHangz2.prefilter.outdated_endorsement" } ],
        "included_in_blocks":
          [ "BLqwuricvCZTCyL8FKDKVKCc45XYTbHB553edohQhMXV2GMit3X" ] },
      { "delegate": "tz1VmiY38m3y95HqQLjMwqnMS7sdMfGomzKi",
        "reception_time": "2022-01-19T18:53:43.982-00:00",
        "errors":
          [ { "kind": "temporary",
              "id": "proto.011-PtHangz2.prefilter.outdated_endorsement" } ],
        "included_in_blocks":
          [ "BLqwuricvCZTCyL8FKDKVKCc45XYTbHB553edohQhMXV2GMit3X" ] },
      { "delegate": "tz1P2Po7YM526ughEsRbY4oR9zaUPDZjxFrb",
        "reception_time": "2022-01-19T18:53:43.956-00:00",
        "errors":
          [ { "kind": "temporary",
              "id": "proto.011-PtHangz2.prefilter.outdated_endorsement" } ],
        "included_in_blocks":
          [ "BLqwuricvCZTCyL8FKDKVKCc45XYTbHB553edohQhMXV2GMit3X" ] },
      { "delegate": "tz1Z9M4biBHSiH38k5ciRMjR5bgk89yEgLTz",
        "reception_time": "2022-01-19T18:53:59.218-00:00",
        "included_in_blocks":
          [ "BLqwuricvCZTCyL8FKDKVKCc45XYTbHB553edohQhMXV2GMit3X" ] },
      { "delegate": "tz1Xj13rZahD37z6vahm632quvWB7gLeNfgn",
        "reception_time": "2022-01-19T18:53:57.591-00:00",
        "included_in_blocks":
          [ "BLqwuricvCZTCyL8FKDKVKCc45XYTbHB553edohQhMXV2GMit3X" ] },
      { "delegate": "tz1fPKAtsYydh4f1wfWNfeNxWYu72TmM48fu",
        "reception_time": "2022-01-19T18:53:56.491-00:00",
        "included_in_blocks":
          [ "BLqwuricvCZTCyL8FKDKVKCc45XYTbHB553edohQhMXV2GMit3X" ] },
      { "delegate": "tz1aRoaRhSpRYvFdyvgWLL6TGyRoGF51wDjM",
        "reception_time": "2022-01-19T18:53:54.624-00:00",
        "included_in_blocks":
          [ "BLqwuricvCZTCyL8FKDKVKCc45XYTbHB553edohQhMXV2GMit3X" ] },
      { "delegate": "tz1fJHFn6sWEd3NnBPngACuw2dggTv6nQZ7g",
        "reception_time": "2022-01-19T18:53:53.941-00:00",
        "included_in_blocks":
          [ "BLqwuricvCZTCyL8FKDKVKCc45XYTbHB553edohQhMXV2GMit3X" ] },
      { "delegate": "tz1bTpviNnyx2PXsNmGpCQTMQsGoYordkUoA",
        "reception_time": "2022-01-19T18:53:53.072-00:00",
        "included_in_blocks":
          [ "BLqwuricvCZTCyL8FKDKVKCc45XYTbHB553edohQhMXV2GMit3X" ] },
      { "delegate": "tz1h4GUAMweP7SNWzDgvMk3yRCAZyaP1MxZq",
        "reception_time": "2022-01-19T18:53:52.019-00:00",
        "included_in_blocks":
          [ "BLqwuricvCZTCyL8FKDKVKCc45XYTbHB553edohQhMXV2GMit3X" ] },
      { "delegate": "tz1XX67xSF2ou3aQZ6LhXaaxZWDR3YZ6hCMs",
        "reception_time": "2022-01-19T18:53:51.768-00:00",
        "included_in_blocks":
          [ "BLqwuricvCZTCyL8FKDKVKCc45XYTbHB553edohQhMXV2GMit3X" ] },
      { "delegate": "tz1fUyqYH7H4pRHN1roWY17giXhy1RvxjgUV",
        "reception_time": "2022-01-19T18:53:50.150-00:00",
        "included_in_blocks":
          [ "BLqwuricvCZTCyL8FKDKVKCc45XYTbHB553edohQhMXV2GMit3X" ] },
      { "delegate": "tz3bvNMQ95vfAYtG8193ymshqjSvmxiCUuR5",
        "reception_time": "2022-01-19T18:53:50.164-00:00",
        "included_in_blocks":
          [ "BLqwuricvCZTCyL8FKDKVKCc45XYTbHB553edohQhMXV2GMit3X" ] },
      { "delegate": "tz1aJS7Pk9uWR3wWyFf1i3RwhYxN84G7stom",
        "reception_time": "2022-01-19T18:53:50.136-00:00",
        "included_in_blocks":
          [ "BLqwuricvCZTCyL8FKDKVKCc45XYTbHB553edohQhMXV2GMit3X" ] },
      { "delegate": "tz1VHmaNfUC9BBcm851g2fhgSUq8NxFapuCA",
        "reception_time": "2022-01-19T18:53:50.130-00:00",
        "included_in_blocks":
          [ "BLqwuricvCZTCyL8FKDKVKCc45XYTbHB553edohQhMXV2GMit3X" ] },
      { "delegate": "tz3RB4aoyjov4KEVRbuhvQ1CKJgBJMWhaeB8",
        "reception_time": "2022-01-19T18:53:50.110-00:00",
        "included_in_blocks":
          [ "BLqwuricvCZTCyL8FKDKVKCc45XYTbHB553edohQhMXV2GMit3X" ] },
      { "delegate": "tz1NSDFKuRyzHxpfG1AMkyCwEiZ52cbR2mRW",
        "reception_time": "2022-01-19T18:53:50.104-00:00",
        "included_in_blocks":
          [ "BLqwuricvCZTCyL8FKDKVKCc45XYTbHB553edohQhMXV2GMit3X" ] },
      { "delegate": "tz1cYufsxHXJcvANhvS55h3aY32a9BAFB494",
        "reception_time": "2022-01-19T18:53:49.069-00:00",
        "included_in_blocks":
          [ "BLqwuricvCZTCyL8FKDKVKCc45XYTbHB553edohQhMXV2GMit3X" ] },
      { "delegate": "tz1NdhRv643wLW6zCcRP3VfT24dvDnh7nuh9",
        "reception_time": "2022-01-19T18:53:49.654-00:00",
        "included_in_blocks":
          [ "BLqwuricvCZTCyL8FKDKVKCc45XYTbHB553edohQhMXV2GMit3X" ] },
      { "delegate": "tz3WMqdzXqRWXwyvj5Hp2H7QEepaUuS7vd9K",
        "reception_time": "2022-01-19T18:53:50.143-00:00",
        "included_in_blocks":
          [ "BLqwuricvCZTCyL8FKDKVKCc45XYTbHB553edohQhMXV2GMit3X" ] },
      { "delegate": "tz1Xsrfv6hn86fp88YfRs6xcKwt2nTqxVZYM",
        "reception_time": "2022-01-19T18:53:49.065-00:00",
        "included_in_blocks":
          [ "BLqwuricvCZTCyL8FKDKVKCc45XYTbHB553edohQhMXV2GMit3X" ] },
      { "delegate": "tz3RDC3Jdn4j15J7bBHZd29EUee9gVB1CxD9",
        "reception_time": "2022-01-19T18:53:49.646-00:00",
        "included_in_blocks":
          [ "BLqwuricvCZTCyL8FKDKVKCc45XYTbHB553edohQhMXV2GMit3X" ] },
      { "delegate": "tz3NExpXn9aPNZPorRE4SdjJ2RGrfbJgMAaV",
        "reception_time": "2022-01-19T18:53:50.178-00:00",
        "included_in_blocks":
          [ "BLqwuricvCZTCyL8FKDKVKCc45XYTbHB553edohQhMXV2GMit3X" ] },
      { "delegate": "tz3VEZ4k6a4Wx42iyev6i2aVAptTRLEAivNN",
        "reception_time": "2022-01-19T18:53:50.127-00:00",
        "included_in_blocks":
          [ "BLqwuricvCZTCyL8FKDKVKCc45XYTbHB553edohQhMXV2GMit3X" ] },
      { "delegate": "tz1RjoHc98dBoqaH2jawF62XNKh7YsHwbkEv",
        "reception_time": "2022-01-19T18:53:50.127-00:00",
        "included_in_blocks":
          [ "BLqwuricvCZTCyL8FKDKVKCc45XYTbHB553edohQhMXV2GMit3X" ] },
      { "delegate": "tz3UoffC7FG7zfpmvmjUmUeAaHvzdcUvAj6r",
        "reception_time": "2022-01-19T18:53:50.116-00:00",
        "included_in_blocks":
          [ "BLqwuricvCZTCyL8FKDKVKCc45XYTbHB553edohQhMXV2GMit3X" ] },
      { "delegate": "tz1ZcTRk5uxD86EFEn1vvNffWWqJy7q5eVhc",
        "reception_time": "2022-01-19T18:53:49.050-00:00",
        "included_in_blocks":
          [ "BLqwuricvCZTCyL8FKDKVKCc45XYTbHB553edohQhMXV2GMit3X" ] },
      { "delegate": "tz1T7duV5gZWSTq4YpBGbXNLTfznCLDrFxvs",
        "reception_time": "2022-01-19T18:53:49.658-00:00",
        "included_in_blocks":
          [ "BLqwuricvCZTCyL8FKDKVKCc45XYTbHB553edohQhMXV2GMit3X" ] },
      { "delegate": "tz2FCNBrERXtaTtNX6iimR1UJ5JSDxvdHM93",
        "reception_time": "2022-01-19T18:53:49.424-00:00",
        "included_in_blocks":
          [ "BLqwuricvCZTCyL8FKDKVKCc45XYTbHB553edohQhMXV2GMit3X" ] },
      { "delegate": "tz1WBfwbT66FC6BTLexc2BoyCCBM9LG7pnVW",
        "reception_time": "2022-01-19T18:53:50.050-00:00",
        "included_in_blocks":
          [ "BLqwuricvCZTCyL8FKDKVKCc45XYTbHB553edohQhMXV2GMit3X" ] },
      { "delegate": "tz3bTdwZinP8U1JmSweNzVKhmwafqWmFWRfk",
        "reception_time": "2022-01-19T18:53:49.433-00:00",
        "included_in_blocks":
          [ "BLqwuricvCZTCyL8FKDKVKCc45XYTbHB553edohQhMXV2GMit3X" ] },
      { "delegate": "tz1R4PuhxUxBBZhfLJDx2nNjbr7WorAPX1oC",
        "reception_time": "2022-01-19T18:53:49.072-00:00",
        "included_in_blocks":
          [ "BLqwuricvCZTCyL8FKDKVKCc45XYTbHB553edohQhMXV2GMit3X" ] },
      { "delegate": "tz3QT9dHYKDqh563chVa6za8526ys1UKfRfL",
        "reception_time": "2022-01-19T18:53:49.037-00:00",
        "included_in_blocks":
          [ "BLqwuricvCZTCyL8FKDKVKCc45XYTbHB553edohQhMXV2GMit3X" ] },
      { "delegate": "tz1cig1EHyvZd7J2k389moM9PxVgPQvmFkvi",
        "reception_time": "2022-01-19T18:53:49.677-00:00",
        "included_in_blocks":
          [ "BLqwuricvCZTCyL8FKDKVKCc45XYTbHB553edohQhMXV2GMit3X" ] },
      { "delegate": "tz1dRKU4FQ9QRRQPdaH4zCR6gmCmXfcvcgtB",
        "reception_time": "2022-01-19T18:53:49.069-00:00",
        "included_in_blocks":
          [ "BLqwuricvCZTCyL8FKDKVKCc45XYTbHB553edohQhMXV2GMit3X" ] },
      { "delegate": "tz1gfArv665EUkSg2ojMBzcbfwuPxAvqPvjo",
        "reception_time": "2022-01-19T18:53:49.065-00:00",
        "included_in_blocks":
          [ "BLqwuricvCZTCyL8FKDKVKCc45XYTbHB553edohQhMXV2GMit3X" ] },
      { "delegate": "tz3Zhs2dygr55yHyQyKjntAtY9bgfhLZ4Xj1",
        "reception_time": "2022-01-19T18:53:49.189-00:00",
        "included_in_blocks":
          [ "BLqwuricvCZTCyL8FKDKVKCc45XYTbHB553edohQhMXV2GMit3X" ] },
      { "delegate": "tz1WvL7MKyCuUHfC3FxPFyiXcy8hHTBT3vjE",
        "reception_time": "2022-01-19T18:53:49.016-00:00",
        "included_in_blocks":
          [ "BLqwuricvCZTCyL8FKDKVKCc45XYTbHB553edohQhMXV2GMit3X" ] },
      { "delegate": "tz1dwu9aYb7CRNq4Y2zAjipdjFuSVKhHS8vA",
        "reception_time": "2022-01-19T18:53:49.002-00:00",
        "included_in_blocks":
          [ "BLqwuricvCZTCyL8FKDKVKCc45XYTbHB553edohQhMXV2GMit3X" ] },
      { "delegate": "tz1gcna2xxZj2eNp1LaMyAhVJ49mEFj4FH26",
        "reception_time": "2022-01-19T18:53:49.076-00:00",
        "included_in_blocks":
          [ "BLqwuricvCZTCyL8FKDKVKCc45XYTbHB553edohQhMXV2GMit3X" ] },
      { "delegate": "tz1axcnVN9tZnCe4sQQhC6f3tfSEXdjPaXPY",
        "reception_time": "2022-01-19T18:53:49.006-00:00",
        "included_in_blocks":
          [ "BLqwuricvCZTCyL8FKDKVKCc45XYTbHB553edohQhMXV2GMit3X" ] },
      { "delegate": "tz1WeKH4iJ4PVxKeVYwCoRUZNW9f9vFq1QXq",
        "reception_time": "2022-01-19T18:53:49.666-00:00",
        "included_in_blocks":
          [ "BLqwuricvCZTCyL8FKDKVKCc45XYTbHB553edohQhMXV2GMit3X" ] },
      { "delegate": "tz1RCFbB9GpALpsZtu6J58sb74dm8qe6XBzv",
        "reception_time": "2022-01-19T18:53:49.668-00:00",
        "included_in_blocks":
          [ "BLqwuricvCZTCyL8FKDKVKCc45XYTbHB553edohQhMXV2GMit3X" ] },
      { "delegate": "tz3gtoUxdudfBRcNY7iVdKPHCYYX6xdPpoRS",
        "reception_time": "2022-01-19T18:53:49.028-00:00",
        "included_in_blocks":
          [ "BLqwuricvCZTCyL8FKDKVKCc45XYTbHB553edohQhMXV2GMit3X" ] },
      { "delegate": "tz3QSGPoRp3Kn7n3vY24eYeu3Peuqo45LQ4D",
        "reception_time": "2022-01-19T18:53:49.014-00:00",
        "included_in_blocks":
          [ "BLqwuricvCZTCyL8FKDKVKCc45XYTbHB553edohQhMXV2GMit3X" ] },
      { "delegate": "tz1Tnjaxk6tbAeC2TmMApPh8UsrEVQvhHvx5",
        "reception_time": "2022-01-19T18:53:49.059-00:00",
        "included_in_blocks":
          [ "BLqwuricvCZTCyL8FKDKVKCc45XYTbHB553edohQhMXV2GMit3X" ] },
      { "delegate": "tz1S8MNvuFEUsWgjHvi3AxibRBf388NhT1q2",
        "reception_time": "2022-01-19T18:53:49.042-00:00",
        "included_in_blocks":
          [ "BLqwuricvCZTCyL8FKDKVKCc45XYTbHB553edohQhMXV2GMit3X" ] },
      { "delegate": "tz3iJu5vrKZcsqRPs8yJ61UDoeEXZmtro4qh",
        "reception_time": "2022-01-19T18:53:49.057-00:00",
        "included_in_blocks":
          [ "BLqwuricvCZTCyL8FKDKVKCc45XYTbHB553edohQhMXV2GMit3X" ] },
      { "delegate": "tz1dNVDWPf3Q59SdJqnjdnu277iyvReiRS9M",
        "reception_time": "2022-01-19T18:53:49.076-00:00",
        "included_in_blocks":
          [ "BLqwuricvCZTCyL8FKDKVKCc45XYTbHB553edohQhMXV2GMit3X" ] },
      { "delegate": "tz1beersuEDv8Z7ngQ825xfbaJNS2EhXnyHR",
        "reception_time": "2022-01-19T18:53:48.731-00:00",
        "included_in_blocks":
          [ "BLqwuricvCZTCyL8FKDKVKCc45XYTbHB553edohQhMXV2GMit3X" ] },
      { "delegate": "tz1Nf6tsK4G6bBqgSQERy4nUtkHNKUVdh7q1",
        "reception_time": "2022-01-19T18:53:49.004-00:00",
        "included_in_blocks":
          [ "BLqwuricvCZTCyL8FKDKVKCc45XYTbHB553edohQhMXV2GMit3X" ] },
      { "delegate": "tz1ZPh7XfUaJXUDvkrBxmS1BjEM1i62hiPpM",
        "reception_time": "2022-01-19T18:53:48.731-00:00",
        "included_in_blocks":
          [ "BLqwuricvCZTCyL8FKDKVKCc45XYTbHB553edohQhMXV2GMit3X" ] },
      { "delegate": "tz3NxTnke1acr8o3h5y9ytf5awQBGNJUKzVU",
        "reception_time": "2022-01-19T18:53:48.969-00:00",
        "included_in_blocks":
          [ "BLqwuricvCZTCyL8FKDKVKCc45XYTbHB553edohQhMXV2GMit3X" ] },
      { "delegate": "tz3RKYFsLuQzKBtmYuLNas7uMu3AsYd4QdsA",
        "reception_time": "2022-01-19T18:53:49.028-00:00",
        "included_in_blocks":
          [ "BLqwuricvCZTCyL8FKDKVKCc45XYTbHB553edohQhMXV2GMit3X" ] },
      { "delegate": "tz3ZbP2pM3nwvXztbuMJwJnDvV5xdpU8UkkD",
        "reception_time": "2022-01-19T18:53:48.943-00:00",
        "included_in_blocks":
          [ "BLqwuricvCZTCyL8FKDKVKCc45XYTbHB553edohQhMXV2GMit3X" ] },
      { "delegate": "tz3hw2kqXhLUvY65ca1eety2oQTpAvd34R9Q",
        "reception_time": "2022-01-19T18:53:49.000-00:00",
        "included_in_blocks":
          [ "BLqwuricvCZTCyL8FKDKVKCc45XYTbHB553edohQhMXV2GMit3X" ] },
      { "delegate": "tz1eLbDXYceRsPZoPmaJXZgQ6pzgnTQvZtpo",
        "reception_time": "2022-01-19T18:53:48.958-00:00",
        "included_in_blocks":
          [ "BLqwuricvCZTCyL8FKDKVKCc45XYTbHB553edohQhMXV2GMit3X" ] },
      { "delegate": "tz1KfEsrtDaA1sX7vdM4qmEPWuSytuqCDp5j",
        "reception_time": "2022-01-19T18:53:49.042-00:00",
        "included_in_blocks":
          [ "BLqwuricvCZTCyL8FKDKVKCc45XYTbHB553edohQhMXV2GMit3X" ] },
      { "delegate": "tz1NEKxGEHsFufk87CVZcrqWu8o22qh46GK6",
        "reception_time": "2022-01-19T18:53:49.037-00:00",
        "included_in_blocks":
          [ "BLqwuricvCZTCyL8FKDKVKCc45XYTbHB553edohQhMXV2GMit3X" ] },
      { "delegate": "tz1RQhNh7iB9CZA7i3ifTWNwiGYVffponfbB",
        "reception_time": "2022-01-19T18:53:49.008-00:00",
        "included_in_blocks":
          [ "BLqwuricvCZTCyL8FKDKVKCc45XYTbHB553edohQhMXV2GMit3X" ] } ] }