{ "blocks":
    [ { "hash": "BLM39S9VPN7ndcyYDt57HFoXgqgf4iRXm2cSug37sotoStt5UYV",
        "delegate": "tz1VQnqCCqX4K5sP3FNkVSNKTdCAMJDd3E1n",
        "reception_time": "2022-01-19T14:03:28.939-00:00",
        "timestamp": "2022-01-19T14:03:20Z" } ],
  "endorsements":
    [ { "delegate": "tz1ibcPVGK4Y8pcW4BYUsojiHoBKnZbyDGrX" },
      { "delegate": "tz1dbfppLAAxXZNtf2SDps7rch3qfUznKSoK" },
      { "delegate": "tz1cSj7fTex3JPd1p1LN1fwek6AV1kH93Wwc",
        "reception_time": "2022-01-19T14:03:28.863-00:00",
        "errors":
          [ { "kind": "temporary",
              "id": "proto.011-PtHangz2.prefilter.outdated_endorsement" } ],
        "included_in_blocks":
          [ "BLEqMhdSZAuKpYniN3kvnYURLGKyMBsbGWMKffyRgC5Cf6hF9Ax" ] },
      { "delegate": "tz1beersuEDv8Z7ngQ825xfbaJNS2EhXnyHR",
        "reception_time": "2022-01-19T14:03:28.860-00:00",
        "errors":
          [ { "kind": "temporary",
              "id": "proto.011-PtHangz2.prefilter.outdated_endorsement" } ],
        "included_in_blocks":
          [ "BLEqMhdSZAuKpYniN3kvnYURLGKyMBsbGWMKffyRgC5Cf6hF9Ax" ] },
      { "delegate": "tz1TzaNn7wSQSP5gYPXCnNzBCpyMiidCq1PX",
        "reception_time": "2022-01-19T14:03:28.860-00:00",
        "errors":
          [ { "kind": "temporary",
              "id": "proto.011-PtHangz2.prefilter.outdated_endorsement" } ],
        "included_in_blocks":
          [ "BLEqMhdSZAuKpYniN3kvnYURLGKyMBsbGWMKffyRgC5Cf6hF9Ax" ] },
      { "delegate": "tz1eEnQhbwf6trb8Q8mPb2RaPkNk2rN7BKi8",
        "reception_time": "2022-01-19T14:03:28.630-00:00",
        "errors":
          [ { "kind": "temporary",
              "id": "proto.011-PtHangz2.prefilter.outdated_endorsement" } ],
        "included_in_blocks":
          [ "BLEqMhdSZAuKpYniN3kvnYURLGKyMBsbGWMKffyRgC5Cf6hF9Ax" ] },
      { "delegate": "tz1WCd2jm4uSt4vntk4vSuUWoZQGhLcDuR9q",
        "reception_time": "2022-01-19T14:03:28.534-00:00",
        "errors":
          [ { "kind": "temporary",
              "id": "proto.011-PtHangz2.prefilter.outdated_endorsement" } ],
        "included_in_blocks":
          [ "BLEqMhdSZAuKpYniN3kvnYURLGKyMBsbGWMKffyRgC5Cf6hF9Ax" ] },
      { "delegate": "tz1Kt4P8BCaP93AEV4eA7gmpRryWt5hznjCP",
        "reception_time": "2022-01-19T14:03:28.370-00:00",
        "errors":
          [ { "kind": "temporary",
              "id": "proto.011-PtHangz2.prefilter.outdated_endorsement" } ],
        "included_in_blocks":
          [ "BLEqMhdSZAuKpYniN3kvnYURLGKyMBsbGWMKffyRgC5Cf6hF9Ax" ] },
      { "delegate": "tz1irJKkXS2DBWkU1NnmFQx1c1L7pbGg4yhk",
        "reception_time": "2022-01-19T14:03:28.368-00:00",
        "errors":
          [ { "kind": "temporary",
              "id": "proto.011-PtHangz2.prefilter.outdated_endorsement" } ],
        "included_in_blocks":
          [ "BLEqMhdSZAuKpYniN3kvnYURLGKyMBsbGWMKffyRgC5Cf6hF9Ax" ] },
      { "delegate": "tz1bsdrs36X5BTH83RHUBdUouKLJZK8d2oBa",
        "reception_time": "2022-01-19T14:03:28.322-00:00",
        "errors":
          [ { "kind": "temporary",
              "id": "proto.011-PtHangz2.prefilter.outdated_endorsement" } ],
        "included_in_blocks":
          [ "BLEqMhdSZAuKpYniN3kvnYURLGKyMBsbGWMKffyRgC5Cf6hF9Ax" ] },
      { "delegate": "tz1STeamwbp68THcny9zk3LsbG3H36DMvbRK",
        "reception_time": "2022-01-19T14:03:28.308-00:00",
        "errors":
          [ { "kind": "temporary",
              "id": "proto.011-PtHangz2.prefilter.outdated_endorsement" } ],
        "included_in_blocks":
          [ "BLEqMhdSZAuKpYniN3kvnYURLGKyMBsbGWMKffyRgC5Cf6hF9Ax" ] },
      { "delegate": "tz1RV1MBbZMR68tacosb7Mwj6LkbPSUS1er1",
        "reception_time": "2022-01-19T14:03:28.231-00:00",
        "errors":
          [ { "kind": "temporary",
              "id": "proto.011-PtHangz2.prefilter.outdated_endorsement" } ],
        "included_in_blocks":
          [ "BLEqMhdSZAuKpYniN3kvnYURLGKyMBsbGWMKffyRgC5Cf6hF9Ax" ] },
      { "delegate": "tz1P2Po7YM526ughEsRbY4oR9zaUPDZjxFrb",
        "reception_time": "2022-01-19T14:03:27.973-00:00",
        "errors":
          [ { "kind": "temporary",
              "id": "proto.011-PtHangz2.prefilter.outdated_endorsement" } ],
        "included_in_blocks":
          [ "BLEqMhdSZAuKpYniN3kvnYURLGKyMBsbGWMKffyRgC5Cf6hF9Ax" ] },
      { "delegate": "tz1Ldzz6k1BHdhuKvAtMRX7h5kJSMHESMHLC",
        "reception_time": "2022-01-19T14:03:27.956-00:00",
        "errors":
          [ { "kind": "temporary",
              "id": "proto.011-PtHangz2.prefilter.outdated_endorsement" } ],
        "included_in_blocks":
          [ "BLEqMhdSZAuKpYniN3kvnYURLGKyMBsbGWMKffyRgC5Cf6hF9Ax" ] },
      { "delegate": "tz1VQnqCCqX4K5sP3FNkVSNKTdCAMJDd3E1n",
        "reception_time": "2022-01-19T14:03:27.587-00:00",
        "errors":
          [ { "kind": "temporary",
              "id": "proto.011-PtHangz2.prefilter.outdated_endorsement" } ],
        "included_in_blocks":
          [ "BLEqMhdSZAuKpYniN3kvnYURLGKyMBsbGWMKffyRgC5Cf6hF9Ax" ] },
      { "delegate": "tz1gUNyn3hmnEWqkusWPzxRaon1cs7ndWh7h",
        "reception_time": "2022-01-19T14:03:27.573-00:00",
        "errors":
          [ { "kind": "temporary",
              "id": "proto.011-PtHangz2.prefilter.outdated_endorsement" } ],
        "included_in_blocks":
          [ "BLEqMhdSZAuKpYniN3kvnYURLGKyMBsbGWMKffyRgC5Cf6hF9Ax" ] },
      { "delegate": "tz1TXzyaKUA8wsWefdSnyaYFnV2M3vCV7er9",
        "reception_time": "2022-01-19T14:03:27.527-00:00",
        "errors":
          [ { "kind": "temporary",
              "id": "proto.011-PtHangz2.prefilter.outdated_endorsement" } ],
        "included_in_blocks":
          [ "BLEqMhdSZAuKpYniN3kvnYURLGKyMBsbGWMKffyRgC5Cf6hF9Ax" ] },
      { "delegate": "tz1S8e9GgdZG78XJRB3NqabfWeM37GnhZMWQ",
        "reception_time": "2022-01-19T14:03:26.866-00:00",
        "errors":
          [ { "kind": "temporary",
              "id": "proto.011-PtHangz2.prefilter.outdated_endorsement" } ],
        "included_in_blocks":
          [ "BLEqMhdSZAuKpYniN3kvnYURLGKyMBsbGWMKffyRgC5Cf6hF9Ax" ] },
      { "delegate": "tz1g8vkmcde6sWKaG2NN9WKzCkDM6Rziq194",
        "reception_time": "2022-01-19T14:03:40.716-00:00",
        "included_in_blocks":
          [ "BLEqMhdSZAuKpYniN3kvnYURLGKyMBsbGWMKffyRgC5Cf6hF9Ax" ] },
      { "delegate": "tz1aRoaRhSpRYvFdyvgWLL6TGyRoGF51wDjM",
        "reception_time": "2022-01-19T14:03:39.811-00:00",
        "included_in_blocks":
          [ "BLEqMhdSZAuKpYniN3kvnYURLGKyMBsbGWMKffyRgC5Cf6hF9Ax" ] },
      { "delegate": "tz1Wp9DASxBnuiZTXHTBACtQ69kp8YL4bzLz",
        "reception_time": "2022-01-19T14:03:37.807-00:00",
        "included_in_blocks":
          [ "BLEqMhdSZAuKpYniN3kvnYURLGKyMBsbGWMKffyRgC5Cf6hF9Ax" ] },
      { "delegate": "tz1awXW7wuXy21c66vBudMXQVAPgRnqqwgTH",
        "reception_time": "2022-01-19T14:03:35.639-00:00",
        "included_in_blocks":
          [ "BLEqMhdSZAuKpYniN3kvnYURLGKyMBsbGWMKffyRgC5Cf6hF9Ax" ] },
      { "delegate": "tz1SohptP53wDPZhzTWzDUFAUcWF6DMBpaJV",
        "reception_time": "2022-01-19T14:03:34.625-00:00",
        "included_in_blocks":
          [ "BLEqMhdSZAuKpYniN3kvnYURLGKyMBsbGWMKffyRgC5Cf6hF9Ax" ] },
      { "delegate": "tz3UoffC7FG7zfpmvmjUmUeAaHvzdcUvAj6r",
        "reception_time": "2022-01-19T14:03:33.043-00:00",
        "included_in_blocks":
          [ "BLEqMhdSZAuKpYniN3kvnYURLGKyMBsbGWMKffyRgC5Cf6hF9Ax" ] },
      { "delegate": "tz3RDC3Jdn4j15J7bBHZd29EUee9gVB1CxD9",
        "reception_time": "2022-01-19T14:03:32.919-00:00",
        "included_in_blocks":
          [ "BLEqMhdSZAuKpYniN3kvnYURLGKyMBsbGWMKffyRgC5Cf6hF9Ax" ] },
      { "delegate": "tz3bvNMQ95vfAYtG8193ymshqjSvmxiCUuR5",
        "reception_time": "2022-01-19T14:03:32.911-00:00",
        "included_in_blocks":
          [ "BLEqMhdSZAuKpYniN3kvnYURLGKyMBsbGWMKffyRgC5Cf6hF9Ax" ] },
      { "delegate": "tz3VEZ4k6a4Wx42iyev6i2aVAptTRLEAivNN",
        "reception_time": "2022-01-19T14:03:32.900-00:00",
        "included_in_blocks":
          [ "BLEqMhdSZAuKpYniN3kvnYURLGKyMBsbGWMKffyRgC5Cf6hF9Ax" ] },
      { "delegate": "tz1TRqbYbUf2GyrjErf3hBzgBJPzW8y36qEs",
        "reception_time": "2022-01-19T14:03:32.925-00:00",
        "included_in_blocks":
          [ "BLEqMhdSZAuKpYniN3kvnYURLGKyMBsbGWMKffyRgC5Cf6hF9Ax" ] },
      { "delegate": "tz3NExpXn9aPNZPorRE4SdjJ2RGrfbJgMAaV",
        "reception_time": "2022-01-19T14:03:32.931-00:00",
        "included_in_blocks":
          [ "BLEqMhdSZAuKpYniN3kvnYURLGKyMBsbGWMKffyRgC5Cf6hF9Ax" ] },
      { "delegate": "tz3NDpRj6WBrJPikcPVHRBEjWKxFw3c6eQPS",
        "reception_time": "2022-01-19T14:03:32.869-00:00",
        "included_in_blocks":
          [ "BLEqMhdSZAuKpYniN3kvnYURLGKyMBsbGWMKffyRgC5Cf6hF9Ax" ] },
      { "delegate": "tz1NSDFKuRyzHxpfG1AMkyCwEiZ52cbR2mRW",
        "reception_time": "2022-01-19T14:03:32.905-00:00",
        "included_in_blocks":
          [ "BLEqMhdSZAuKpYniN3kvnYURLGKyMBsbGWMKffyRgC5Cf6hF9Ax" ] },
      { "delegate": "tz1RjoHc98dBoqaH2jawF62XNKh7YsHwbkEv",
        "reception_time": "2022-01-19T14:03:32.547-00:00",
        "included_in_blocks":
          [ "BLEqMhdSZAuKpYniN3kvnYURLGKyMBsbGWMKffyRgC5Cf6hF9Ax" ] },
      { "delegate": "tz1PeZx7FXy7QRuMREGXGxeipb24RsMMzUNe",
        "reception_time": "2022-01-19T14:03:31.748-00:00",
        "included_in_blocks":
          [ "BLEqMhdSZAuKpYniN3kvnYURLGKyMBsbGWMKffyRgC5Cf6hF9Ax" ] },
      { "delegate": "tz1cYufsxHXJcvANhvS55h3aY32a9BAFB494",
        "reception_time": "2022-01-19T14:03:31.827-00:00",
        "included_in_blocks":
          [ "BLEqMhdSZAuKpYniN3kvnYURLGKyMBsbGWMKffyRgC5Cf6hF9Ax" ] },
      { "delegate": "tz3WMqdzXqRWXwyvj5Hp2H7QEepaUuS7vd9K",
        "reception_time": "2022-01-19T14:03:32.522-00:00",
        "included_in_blocks":
          [ "BLEqMhdSZAuKpYniN3kvnYURLGKyMBsbGWMKffyRgC5Cf6hF9Ax" ] },
      { "delegate": "tz2FCNBrERXtaTtNX6iimR1UJ5JSDxvdHM93",
        "reception_time": "2022-01-19T14:03:31.580-00:00",
        "included_in_blocks":
          [ "BLEqMhdSZAuKpYniN3kvnYURLGKyMBsbGWMKffyRgC5Cf6hF9Ax" ] },
      { "delegate": "tz1LmaFsWRkjr7QMCx5PtV6xTUz3AmEpKQiF",
        "reception_time": "2022-01-19T14:03:31.614-00:00",
        "included_in_blocks":
          [ "BLEqMhdSZAuKpYniN3kvnYURLGKyMBsbGWMKffyRgC5Cf6hF9Ax" ] },
      { "delegate": "tz1SYq214SCBy9naR6cvycQsYcUGpBqQAE8d",
        "reception_time": "2022-01-19T14:03:31.401-00:00",
        "included_in_blocks":
          [ "BLEqMhdSZAuKpYniN3kvnYURLGKyMBsbGWMKffyRgC5Cf6hF9Ax" ] },
      { "delegate": "tz3QCNyySViKHmeSr45kzDxzchys7NiXCWoa",
        "reception_time": "2022-01-19T14:03:31.449-00:00",
        "included_in_blocks":
          [ "BLEqMhdSZAuKpYniN3kvnYURLGKyMBsbGWMKffyRgC5Cf6hF9Ax" ] },
      { "delegate": "tz1WBfwbT66FC6BTLexc2BoyCCBM9LG7pnVW",
        "reception_time": "2022-01-19T14:03:31.442-00:00",
        "included_in_blocks":
          [ "BLEqMhdSZAuKpYniN3kvnYURLGKyMBsbGWMKffyRgC5Cf6hF9Ax" ] },
      { "delegate": "tz3bTdwZinP8U1JmSweNzVKhmwafqWmFWRfk",
        "reception_time": "2022-01-19T14:03:31.426-00:00",
        "included_in_blocks":
          [ "BLEqMhdSZAuKpYniN3kvnYURLGKyMBsbGWMKffyRgC5Cf6hF9Ax" ] },
      { "delegate": "tz3S6BBeKgJGXxvLyZ1xzXzMPn11nnFtq5L9",
        "reception_time": "2022-01-19T14:03:31.387-00:00",
        "included_in_blocks":
          [ "BLEqMhdSZAuKpYniN3kvnYURLGKyMBsbGWMKffyRgC5Cf6hF9Ax" ] },
      { "delegate": "tz1iEWcNL383qiDJ3Q3qt5W2T4aSKUbEU4An",
        "reception_time": "2022-01-19T14:03:31.583-00:00",
        "included_in_blocks":
          [ "BLEqMhdSZAuKpYniN3kvnYURLGKyMBsbGWMKffyRgC5Cf6hF9Ax" ] },
      { "delegate": "tz1bZ8vsMAXmaWEV7FRnyhcuUs2fYMaQ6Hkk",
        "reception_time": "2022-01-19T14:03:31.396-00:00",
        "included_in_blocks":
          [ "BLEqMhdSZAuKpYniN3kvnYURLGKyMBsbGWMKffyRgC5Cf6hF9Ax" ] },
      { "delegate": "tz3QT9dHYKDqh563chVa6za8526ys1UKfRfL",
        "reception_time": "2022-01-19T14:03:31.433-00:00",
        "included_in_blocks":
          [ "BLEqMhdSZAuKpYniN3kvnYURLGKyMBsbGWMKffyRgC5Cf6hF9Ax" ] },
      { "delegate": "tz1Tnjaxk6tbAeC2TmMApPh8UsrEVQvhHvx5",
        "reception_time": "2022-01-19T14:03:31.559-00:00",
        "included_in_blocks":
          [ "BLEqMhdSZAuKpYniN3kvnYURLGKyMBsbGWMKffyRgC5Cf6hF9Ax" ] },
      { "delegate": "tz1S8MNvuFEUsWgjHvi3AxibRBf388NhT1q2",
        "reception_time": "2022-01-19T14:03:31.439-00:00",
        "included_in_blocks":
          [ "BLEqMhdSZAuKpYniN3kvnYURLGKyMBsbGWMKffyRgC5Cf6hF9Ax" ] },
      { "delegate": "tz1dRKU4FQ9QRRQPdaH4zCR6gmCmXfcvcgtB",
        "reception_time": "2022-01-19T14:03:31.401-00:00",
        "included_in_blocks":
          [ "BLEqMhdSZAuKpYniN3kvnYURLGKyMBsbGWMKffyRgC5Cf6hF9Ax" ] },
      { "delegate": "tz1RCFbB9GpALpsZtu6J58sb74dm8qe6XBzv",
        "reception_time": "2022-01-19T14:03:31.605-00:00",
        "included_in_blocks":
          [ "BLEqMhdSZAuKpYniN3kvnYURLGKyMBsbGWMKffyRgC5Cf6hF9Ax" ] },
      { "delegate": "tz3iJu5vrKZcsqRPs8yJ61UDoeEXZmtro4qh",
        "reception_time": "2022-01-19T14:03:31.302-00:00",
        "included_in_blocks":
          [ "BLEqMhdSZAuKpYniN3kvnYURLGKyMBsbGWMKffyRgC5Cf6hF9Ax" ] },
      { "delegate": "tz3Zhs2dygr55yHyQyKjntAtY9bgfhLZ4Xj1",
        "reception_time": "2022-01-19T14:03:31.339-00:00",
        "included_in_blocks":
          [ "BLEqMhdSZAuKpYniN3kvnYURLGKyMBsbGWMKffyRgC5Cf6hF9Ax" ] },
      { "delegate": "tz1T7duV5gZWSTq4YpBGbXNLTfznCLDrFxvs",
        "reception_time": "2022-01-19T14:03:31.377-00:00",
        "included_in_blocks":
          [ "BLEqMhdSZAuKpYniN3kvnYURLGKyMBsbGWMKffyRgC5Cf6hF9Ax" ] },
      { "delegate": "tz1NEKxGEHsFufk87CVZcrqWu8o22qh46GK6",
        "reception_time": "2022-01-19T14:03:31.392-00:00",
        "included_in_blocks":
          [ "BLEqMhdSZAuKpYniN3kvnYURLGKyMBsbGWMKffyRgC5Cf6hF9Ax" ] },
      { "delegate": "tz1gfArv665EUkSg2ojMBzcbfwuPxAvqPvjo",
        "reception_time": "2022-01-19T14:03:31.374-00:00",
        "included_in_blocks":
          [ "BLEqMhdSZAuKpYniN3kvnYURLGKyMBsbGWMKffyRgC5Cf6hF9Ax" ] },
      { "delegate": "tz1WvL7MKyCuUHfC3FxPFyiXcy8hHTBT3vjE",
        "reception_time": "2022-01-19T14:03:31.294-00:00",
        "included_in_blocks":
          [ "BLEqMhdSZAuKpYniN3kvnYURLGKyMBsbGWMKffyRgC5Cf6hF9Ax" ] },
      { "delegate": "tz3NxTnke1acr8o3h5y9ytf5awQBGNJUKzVU",
        "reception_time": "2022-01-19T14:03:31.356-00:00",
        "included_in_blocks":
          [ "BLEqMhdSZAuKpYniN3kvnYURLGKyMBsbGWMKffyRgC5Cf6hF9Ax" ] },
      { "delegate": "tz3gtoUxdudfBRcNY7iVdKPHCYYX6xdPpoRS",
        "reception_time": "2022-01-19T14:03:31.291-00:00",
        "included_in_blocks":
          [ "BLEqMhdSZAuKpYniN3kvnYURLGKyMBsbGWMKffyRgC5Cf6hF9Ax" ] },
      { "delegate": "tz1MQMiZHV8q4tTwUMWmS5Y3kaP6J2136iXr",
        "reception_time": "2022-01-19T14:03:31.389-00:00",
        "included_in_blocks":
          [ "BLEqMhdSZAuKpYniN3kvnYURLGKyMBsbGWMKffyRgC5Cf6hF9Ax" ] },
      { "delegate": "tz3RKYFsLuQzKBtmYuLNas7uMu3AsYd4QdsA",
        "reception_time": "2022-01-19T14:03:31.255-00:00",
        "included_in_blocks":
          [ "BLEqMhdSZAuKpYniN3kvnYURLGKyMBsbGWMKffyRgC5Cf6hF9Ax" ] },
      { "delegate": "tz3ZbP2pM3nwvXztbuMJwJnDvV5xdpU8UkkD",
        "reception_time": "2022-01-19T14:03:31.284-00:00",
        "included_in_blocks":
          [ "BLEqMhdSZAuKpYniN3kvnYURLGKyMBsbGWMKffyRgC5Cf6hF9Ax" ] },
      { "delegate": "tz3hw2kqXhLUvY65ca1eety2oQTpAvd34R9Q",
        "reception_time": "2022-01-19T14:03:31.269-00:00",
        "included_in_blocks":
          [ "BLEqMhdSZAuKpYniN3kvnYURLGKyMBsbGWMKffyRgC5Cf6hF9Ax" ] },
      { "delegate": "tz1Nf6tsK4G6bBqgSQERy4nUtkHNKUVdh7q1",
        "reception_time": "2022-01-19T14:03:31.356-00:00",
        "included_in_blocks":
          [ "BLEqMhdSZAuKpYniN3kvnYURLGKyMBsbGWMKffyRgC5Cf6hF9Ax" ] },
      { "delegate": "tz1ei4WtWEMEJekSv8qDnu9PExG6Q8HgRGr3",
        "reception_time": "2022-01-19T14:03:31.259-00:00",
        "included_in_blocks":
          [ "BLEqMhdSZAuKpYniN3kvnYURLGKyMBsbGWMKffyRgC5Cf6hF9Ax" ] },
      { "delegate": "tz1TRspM5SeZpaQUhzByXbEvqKF1vnCM2YTK",
        "reception_time": "2022-01-19T14:03:31.367-00:00",
        "included_in_blocks":
          [ "BLEqMhdSZAuKpYniN3kvnYURLGKyMBsbGWMKffyRgC5Cf6hF9Ax" ] },
      { "delegate": "tz1QLXqnfN51dkjeghXvKHkJfhvGiM5gK4tc",
        "reception_time": "2022-01-19T14:03:31.361-00:00",
        "included_in_blocks":
          [ "BLEqMhdSZAuKpYniN3kvnYURLGKyMBsbGWMKffyRgC5Cf6hF9Ax" ] },
      { "delegate": "tz1KfEsrtDaA1sX7vdM4qmEPWuSytuqCDp5j",
        "reception_time": "2022-01-19T14:03:31.245-00:00",
        "included_in_blocks":
          [ "BLEqMhdSZAuKpYniN3kvnYURLGKyMBsbGWMKffyRgC5Cf6hF9Ax" ] },
      { "delegate": "tz1aXD7Jigrt3PBYSpHSg5Rr33SexMmmM5Ys",
        "reception_time": "2022-01-19T14:03:30.943-00:00",
        "included_in_blocks":
          [ "BLEqMhdSZAuKpYniN3kvnYURLGKyMBsbGWMKffyRgC5Cf6hF9Ax" ] } ] }