{ "blocks":
    [ { "hash": "BL2cqZMUKs2Ayvagu71LBvJ6PC5iHQAe69j3vY4JtieozVyPWpt",
        "delegate": "tz1Tnjaxk6tbAeC2TmMApPh8UsrEVQvhHvx5",
        "reception_time": "2022-01-19T18:25:07.809-00:00",
        "timestamp": "2022-01-19T18:24:50Z" } ],
  "endorsements":
    [ { "delegate": "tz1VmiY38m3y95HqQLjMwqnMS7sdMfGomzKi",
        "reception_time": "2022-01-19T18:25:07.810-00:00",
        "errors":
          [ { "kind": "temporary",
              "id": "proto.011-PtHangz2.prefilter.outdated_endorsement" } ],
        "included_in_blocks":
          [ "BLkcg44PuGEkjo6LZdBco45Ru11VM1e6iswpg8vEEZYMNJG1Mxe" ] },
      { "delegate": "tz1VQnqCCqX4K5sP3FNkVSNKTdCAMJDd3E1n",
        "reception_time": "2022-01-19T18:25:07.557-00:00",
        "errors":
          [ { "kind": "temporary",
              "id": "proto.011-PtHangz2.prefilter.outdated_endorsement" } ],
        "included_in_blocks":
          [ "BLkcg44PuGEkjo6LZdBco45Ru11VM1e6iswpg8vEEZYMNJG1Mxe" ] },
      { "delegate": "tz1gUNyn3hmnEWqkusWPzxRaon1cs7ndWh7h",
        "reception_time": "2022-01-19T18:25:07.424-00:00",
        "errors":
          [ { "kind": "temporary",
              "id": "proto.011-PtHangz2.prefilter.outdated_endorsement" } ],
        "included_in_blocks":
          [ "BLkcg44PuGEkjo6LZdBco45Ru11VM1e6iswpg8vEEZYMNJG1Mxe" ] },
      { "delegate": "tz1S8e9GgdZG78XJRB3NqabfWeM37GnhZMWQ",
        "reception_time": "2022-01-19T18:25:07.018-00:00",
        "errors":
          [ { "kind": "temporary",
              "id": "proto.011-PtHangz2.prefilter.outdated_endorsement" } ],
        "included_in_blocks":
          [ "BLkcg44PuGEkjo6LZdBco45Ru11VM1e6iswpg8vEEZYMNJG1Mxe" ] },
      { "delegate": "tz1W5VkdB5s7ENMESVBtwyt9kyvLqPcUczRT" },
      { "delegate": "tz1awXW7wuXy21c66vBudMXQVAPgRnqqwgTH" },
      { "delegate": "tz1ibcPVGK4Y8pcW4BYUsojiHoBKnZbyDGrX" },
      { "delegate": "tz1aXD7Jigrt3PBYSpHSg5Rr33SexMmmM5Ys",
        "reception_time": "2022-01-19T18:25:12.871-00:00",
        "included_in_blocks":
          [ "BLkcg44PuGEkjo6LZdBco45Ru11VM1e6iswpg8vEEZYMNJG1Mxe" ] },
      { "delegate": "tz1P2Po7YM526ughEsRbY4oR9zaUPDZjxFrb",
        "reception_time": "2022-01-19T18:25:12.882-00:00",
        "included_in_blocks":
          [ "BLkcg44PuGEkjo6LZdBco45Ru11VM1e6iswpg8vEEZYMNJG1Mxe" ] },
      { "delegate": "tz1Ldzz6k1BHdhuKvAtMRX7h5kJSMHESMHLC",
        "reception_time": "2022-01-19T18:25:12.890-00:00",
        "included_in_blocks":
          [ "BLkcg44PuGEkjo6LZdBco45Ru11VM1e6iswpg8vEEZYMNJG1Mxe" ] },
      { "delegate": "tz1TXzyaKUA8wsWefdSnyaYFnV2M3vCV7er9",
        "reception_time": "2022-01-19T18:25:12.898-00:00",
        "included_in_blocks":
          [ "BLkcg44PuGEkjo6LZdBco45Ru11VM1e6iswpg8vEEZYMNJG1Mxe" ] },
      { "delegate": "tz3adcvQaKXTCg12zbninqo3q8ptKKtDFTLv",
        "reception_time": "2022-01-19T18:25:12.917-00:00",
        "included_in_blocks":
          [ "BLkcg44PuGEkjo6LZdBco45Ru11VM1e6iswpg8vEEZYMNJG1Mxe" ] },
      { "delegate": "tz1TEc75UKXv4W5cwi14Na3NtqFD51yKQi7h",
        "reception_time": "2022-01-19T18:25:13.028-00:00",
        "included_in_blocks":
          [ "BLkcg44PuGEkjo6LZdBco45Ru11VM1e6iswpg8vEEZYMNJG1Mxe" ] },
      { "delegate": "tz3QSGPoRp3Kn7n3vY24eYeu3Peuqo45LQ4D",
        "reception_time": "2022-01-19T18:25:13.035-00:00",
        "included_in_blocks":
          [ "BLkcg44PuGEkjo6LZdBco45Ru11VM1e6iswpg8vEEZYMNJG1Mxe" ] },
      { "delegate": "tz1beersuEDv8Z7ngQ825xfbaJNS2EhXnyHR",
        "reception_time": "2022-01-19T18:25:13.038-00:00",
        "included_in_blocks":
          [ "BLkcg44PuGEkjo6LZdBco45Ru11VM1e6iswpg8vEEZYMNJG1Mxe" ] },
      { "delegate": "tz1Lhf4J9Qxoe3DZ2nfe8FGDnvVj7oKjnMY6",
        "reception_time": "2022-01-19T18:25:13.043-00:00",
        "included_in_blocks":
          [ "BLkcg44PuGEkjo6LZdBco45Ru11VM1e6iswpg8vEEZYMNJG1Mxe" ] },
      { "delegate": "tz1WCd2jm4uSt4vntk4vSuUWoZQGhLcDuR9q",
        "reception_time": "2022-01-19T18:25:13.052-00:00",
        "included_in_blocks":
          [ "BLkcg44PuGEkjo6LZdBco45Ru11VM1e6iswpg8vEEZYMNJG1Mxe" ] },
      { "delegate": "tz3NxTnke1acr8o3h5y9ytf5awQBGNJUKzVU",
        "reception_time": "2022-01-19T18:25:13.052-00:00",
        "included_in_blocks":
          [ "BLkcg44PuGEkjo6LZdBco45Ru11VM1e6iswpg8vEEZYMNJG1Mxe" ] },
      { "delegate": "tz1eEnQhbwf6trb8Q8mPb2RaPkNk2rN7BKi8",
        "reception_time": "2022-01-19T18:25:13.063-00:00",
        "included_in_blocks":
          [ "BLkcg44PuGEkjo6LZdBco45Ru11VM1e6iswpg8vEEZYMNJG1Mxe" ] },
      { "delegate": "tz1LLNkQK4UQV6QcFShiXJ2vT2ELw449MzAA",
        "reception_time": "2022-01-19T18:25:13.068-00:00",
        "included_in_blocks":
          [ "BLkcg44PuGEkjo6LZdBco45Ru11VM1e6iswpg8vEEZYMNJG1Mxe" ] },
      { "delegate": "tz1TzaNn7wSQSP5gYPXCnNzBCpyMiidCq1PX",
        "reception_time": "2022-01-19T18:25:13.068-00:00",
        "included_in_blocks":
          [ "BLkcg44PuGEkjo6LZdBco45Ru11VM1e6iswpg8vEEZYMNJG1Mxe" ] },
      { "delegate": "tz3e7LbZvUtoXhpUD1yb6wuFodZpfYRb9nWJ",
        "reception_time": "2022-01-19T18:25:13.092-00:00",
        "included_in_blocks":
          [ "BLkcg44PuGEkjo6LZdBco45Ru11VM1e6iswpg8vEEZYMNJG1Mxe" ] },
      { "delegate": "tz1dNVDWPf3Q59SdJqnjdnu277iyvReiRS9M",
        "reception_time": "2022-01-19T18:25:13.196-00:00",
        "included_in_blocks":
          [ "BLkcg44PuGEkjo6LZdBco45Ru11VM1e6iswpg8vEEZYMNJG1Mxe" ] },
      { "delegate": "tz1TRspM5SeZpaQUhzByXbEvqKF1vnCM2YTK",
        "reception_time": "2022-01-19T18:25:13.204-00:00",
        "included_in_blocks":
          [ "BLkcg44PuGEkjo6LZdBco45Ru11VM1e6iswpg8vEEZYMNJG1Mxe" ] },
      { "delegate": "tz3ZbP2pM3nwvXztbuMJwJnDvV5xdpU8UkkD",
        "reception_time": "2022-01-19T18:25:13.204-00:00",
        "included_in_blocks":
          [ "BLkcg44PuGEkjo6LZdBco45Ru11VM1e6iswpg8vEEZYMNJG1Mxe" ] },
      { "delegate": "tz1V4qCyvPKZ5UeqdH14HN42rxvNPQfc9UZg",
        "reception_time": "2022-01-19T18:25:13.209-00:00",
        "included_in_blocks":
          [ "BLkcg44PuGEkjo6LZdBco45Ru11VM1e6iswpg8vEEZYMNJG1Mxe" ] },
      { "delegate": "tz1MJx9vhaNRSimcuXPK2rW4fLccQnDAnVKJ",
        "reception_time": "2022-01-19T18:25:13.209-00:00",
        "included_in_blocks":
          [ "BLkcg44PuGEkjo6LZdBco45Ru11VM1e6iswpg8vEEZYMNJG1Mxe" ] },
      { "delegate": "tz3gtoUxdudfBRcNY7iVdKPHCYYX6xdPpoRS",
        "reception_time": "2022-01-19T18:25:13.228-00:00",
        "included_in_blocks":
          [ "BLkcg44PuGEkjo6LZdBco45Ru11VM1e6iswpg8vEEZYMNJG1Mxe" ] },
      { "delegate": "tz1SYq214SCBy9naR6cvycQsYcUGpBqQAE8d",
        "reception_time": "2022-01-19T18:25:13.228-00:00",
        "included_in_blocks":
          [ "BLkcg44PuGEkjo6LZdBco45Ru11VM1e6iswpg8vEEZYMNJG1Mxe" ] },
      { "delegate": "tz1gfArv665EUkSg2ojMBzcbfwuPxAvqPvjo",
        "reception_time": "2022-01-19T18:25:13.236-00:00",
        "included_in_blocks":
          [ "BLkcg44PuGEkjo6LZdBco45Ru11VM1e6iswpg8vEEZYMNJG1Mxe" ] },
      { "delegate": "tz3RKYFsLuQzKBtmYuLNas7uMu3AsYd4QdsA",
        "reception_time": "2022-01-19T18:25:13.236-00:00",
        "included_in_blocks":
          [ "BLkcg44PuGEkjo6LZdBco45Ru11VM1e6iswpg8vEEZYMNJG1Mxe" ] },
      { "delegate": "tz1dRKU4FQ9QRRQPdaH4zCR6gmCmXfcvcgtB",
        "reception_time": "2022-01-19T18:25:13.263-00:00",
        "included_in_blocks":
          [ "BLkcg44PuGEkjo6LZdBco45Ru11VM1e6iswpg8vEEZYMNJG1Mxe" ] },
      { "delegate": "tz1ei4WtWEMEJekSv8qDnu9PExG6Q8HgRGr3",
        "reception_time": "2022-01-19T18:25:13.267-00:00",
        "included_in_blocks":
          [ "BLkcg44PuGEkjo6LZdBco45Ru11VM1e6iswpg8vEEZYMNJG1Mxe" ] },
      { "delegate": "tz1WctSwL49BZtdWAQ75NY6vr4xsAx6oKdah",
        "reception_time": "2022-01-19T18:25:13.267-00:00",
        "included_in_blocks":
          [ "BLkcg44PuGEkjo6LZdBco45Ru11VM1e6iswpg8vEEZYMNJG1Mxe" ] },
      { "delegate": "tz3iJu5vrKZcsqRPs8yJ61UDoeEXZmtro4qh",
        "reception_time": "2022-01-19T18:25:13.276-00:00",
        "included_in_blocks":
          [ "BLkcg44PuGEkjo6LZdBco45Ru11VM1e6iswpg8vEEZYMNJG1Mxe" ] },
      { "delegate": "tz1ajgycuHmd2z2JbTSJxKv7x6cok2KuNSk1",
        "reception_time": "2022-01-19T18:25:13.276-00:00",
        "included_in_blocks":
          [ "BLkcg44PuGEkjo6LZdBco45Ru11VM1e6iswpg8vEEZYMNJG1Mxe" ] },
      { "delegate": "tz1Nf6tsK4G6bBqgSQERy4nUtkHNKUVdh7q1",
        "reception_time": "2022-01-19T18:25:13.281-00:00",
        "included_in_blocks":
          [ "BLkcg44PuGEkjo6LZdBco45Ru11VM1e6iswpg8vEEZYMNJG1Mxe" ] },
      { "delegate": "tz1S8MNvuFEUsWgjHvi3AxibRBf388NhT1q2",
        "reception_time": "2022-01-19T18:25:13.281-00:00",
        "included_in_blocks":
          [ "BLkcg44PuGEkjo6LZdBco45Ru11VM1e6iswpg8vEEZYMNJG1Mxe" ] },
      { "delegate": "tz3hw2kqXhLUvY65ca1eety2oQTpAvd34R9Q",
        "reception_time": "2022-01-19T18:25:13.488-00:00",
        "included_in_blocks":
          [ "BLkcg44PuGEkjo6LZdBco45Ru11VM1e6iswpg8vEEZYMNJG1Mxe" ] },
      { "delegate": "tz1UJvHTgpVzcKWhTazGxVcn5wsHru5Gietg",
        "reception_time": "2022-01-19T18:25:13.488-00:00",
        "included_in_blocks":
          [ "BLkcg44PuGEkjo6LZdBco45Ru11VM1e6iswpg8vEEZYMNJG1Mxe" ] },
      { "delegate": "tz3NDpRj6WBrJPikcPVHRBEjWKxFw3c6eQPS",
        "reception_time": "2022-01-19T18:25:13.496-00:00",
        "included_in_blocks":
          [ "BLkcg44PuGEkjo6LZdBco45Ru11VM1e6iswpg8vEEZYMNJG1Mxe" ] },
      { "delegate": "tz1irJKkXS2DBWkU1NnmFQx1c1L7pbGg4yhk",
        "reception_time": "2022-01-19T18:25:13.496-00:00",
        "included_in_blocks":
          [ "BLkcg44PuGEkjo6LZdBco45Ru11VM1e6iswpg8vEEZYMNJG1Mxe" ] },
      { "delegate": "tz1cYufsxHXJcvANhvS55h3aY32a9BAFB494",
        "reception_time": "2022-01-19T18:25:13.913-00:00",
        "included_in_blocks":
          [ "BLkcg44PuGEkjo6LZdBco45Ru11VM1e6iswpg8vEEZYMNJG1Mxe" ] },
      { "delegate": "tz3VEZ4k6a4Wx42iyev6i2aVAptTRLEAivNN",
        "reception_time": "2022-01-19T18:25:14.085-00:00",
        "included_in_blocks":
          [ "BLkcg44PuGEkjo6LZdBco45Ru11VM1e6iswpg8vEEZYMNJG1Mxe" ] },
      { "delegate": "tz1cig1EHyvZd7J2k389moM9PxVgPQvmFkvi",
        "reception_time": "2022-01-19T18:25:14.106-00:00",
        "included_in_blocks":
          [ "BLkcg44PuGEkjo6LZdBco45Ru11VM1e6iswpg8vEEZYMNJG1Mxe" ] },
      { "delegate": "tz3bTdwZinP8U1JmSweNzVKhmwafqWmFWRfk",
        "reception_time": "2022-01-19T18:25:14.106-00:00",
        "included_in_blocks":
          [ "BLkcg44PuGEkjo6LZdBco45Ru11VM1e6iswpg8vEEZYMNJG1Mxe" ] },
      { "delegate": "tz3S6BBeKgJGXxvLyZ1xzXzMPn11nnFtq5L9",
        "reception_time": "2022-01-19T18:25:14.116-00:00",
        "included_in_blocks":
          [ "BLkcg44PuGEkjo6LZdBco45Ru11VM1e6iswpg8vEEZYMNJG1Mxe" ] },
      { "delegate": "tz1WBfwbT66FC6BTLexc2BoyCCBM9LG7pnVW",
        "reception_time": "2022-01-19T18:25:14.116-00:00",
        "included_in_blocks":
          [ "BLkcg44PuGEkjo6LZdBco45Ru11VM1e6iswpg8vEEZYMNJG1Mxe" ] },
      { "delegate": "tz1ZcTRk5uxD86EFEn1vvNffWWqJy7q5eVhc",
        "reception_time": "2022-01-19T18:25:14.126-00:00",
        "included_in_blocks":
          [ "BLkcg44PuGEkjo6LZdBco45Ru11VM1e6iswpg8vEEZYMNJG1Mxe" ] },
      { "delegate": "tz3QT9dHYKDqh563chVa6za8526ys1UKfRfL",
        "reception_time": "2022-01-19T18:25:14.126-00:00",
        "included_in_blocks":
          [ "BLkcg44PuGEkjo6LZdBco45Ru11VM1e6iswpg8vEEZYMNJG1Mxe" ] },
      { "delegate": "tz1KfEsrtDaA1sX7vdM4qmEPWuSytuqCDp5j",
        "reception_time": "2022-01-19T18:25:14.131-00:00",
        "included_in_blocks":
          [ "BLkcg44PuGEkjo6LZdBco45Ru11VM1e6iswpg8vEEZYMNJG1Mxe" ] },
      { "delegate": "tz2FCNBrERXtaTtNX6iimR1UJ5JSDxvdHM93",
        "reception_time": "2022-01-19T18:25:14.131-00:00",
        "included_in_blocks":
          [ "BLkcg44PuGEkjo6LZdBco45Ru11VM1e6iswpg8vEEZYMNJG1Mxe" ] },
      { "delegate": "tz3bvNMQ95vfAYtG8193ymshqjSvmxiCUuR5",
        "reception_time": "2022-01-19T18:25:14.141-00:00",
        "included_in_blocks":
          [ "BLkcg44PuGEkjo6LZdBco45Ru11VM1e6iswpg8vEEZYMNJG1Mxe" ] },
      { "delegate": "tz1KzSC1J9aBxKp7u8TUnpN8L7S65PBRkgdF",
        "reception_time": "2022-01-19T18:25:14.141-00:00",
        "included_in_blocks":
          [ "BLkcg44PuGEkjo6LZdBco45Ru11VM1e6iswpg8vEEZYMNJG1Mxe" ] },
      { "delegate": "tz1RCFbB9GpALpsZtu6J58sb74dm8qe6XBzv",
        "reception_time": "2022-01-19T18:25:14.156-00:00",
        "included_in_blocks":
          [ "BLkcg44PuGEkjo6LZdBco45Ru11VM1e6iswpg8vEEZYMNJG1Mxe" ] },
      { "delegate": "tz3WMqdzXqRWXwyvj5Hp2H7QEepaUuS7vd9K",
        "reception_time": "2022-01-19T18:25:14.166-00:00",
        "included_in_blocks":
          [ "BLkcg44PuGEkjo6LZdBco45Ru11VM1e6iswpg8vEEZYMNJG1Mxe" ] },
      { "delegate": "tz3RB4aoyjov4KEVRbuhvQ1CKJgBJMWhaeB8",
        "reception_time": "2022-01-19T18:25:14.182-00:00",
        "included_in_blocks":
          [ "BLkcg44PuGEkjo6LZdBco45Ru11VM1e6iswpg8vEEZYMNJG1Mxe" ] },
      { "delegate": "tz3UoffC7FG7zfpmvmjUmUeAaHvzdcUvAj6r",
        "reception_time": "2022-01-19T18:25:14.182-00:00",
        "included_in_blocks":
          [ "BLkcg44PuGEkjo6LZdBco45Ru11VM1e6iswpg8vEEZYMNJG1Mxe" ] },
      { "delegate": "tz1NEKxGEHsFufk87CVZcrqWu8o22qh46GK6",
        "reception_time": "2022-01-19T18:25:14.185-00:00",
        "included_in_blocks":
          [ "BLkcg44PuGEkjo6LZdBco45Ru11VM1e6iswpg8vEEZYMNJG1Mxe" ] },
      { "delegate": "tz1TcH4Nb3aHNDJ7CGZhU7jgAK1BkSP4Lxds",
        "reception_time": "2022-01-19T18:25:14.239-00:00",
        "included_in_blocks":
          [ "BLkcg44PuGEkjo6LZdBco45Ru11VM1e6iswpg8vEEZYMNJG1Mxe" ] },
      { "delegate": "tz1S6H83gugqK4dR5Had9jWR9M1ZdAAVgU5e",
        "reception_time": "2022-01-19T18:25:14.372-00:00",
        "included_in_blocks":
          [ "BLkcg44PuGEkjo6LZdBco45Ru11VM1e6iswpg8vEEZYMNJG1Mxe" ] },
      { "delegate": "tz1RjoHc98dBoqaH2jawF62XNKh7YsHwbkEv",
        "reception_time": "2022-01-19T18:25:14.397-00:00",
        "included_in_blocks":
          [ "BLkcg44PuGEkjo6LZdBco45Ru11VM1e6iswpg8vEEZYMNJG1Mxe" ] },
      { "delegate": "tz3NExpXn9aPNZPorRE4SdjJ2RGrfbJgMAaV",
        "reception_time": "2022-01-19T18:25:14.408-00:00",
        "included_in_blocks":
          [ "BLkcg44PuGEkjo6LZdBco45Ru11VM1e6iswpg8vEEZYMNJG1Mxe" ] },
      { "delegate": "tz1TRqbYbUf2GyrjErf3hBzgBJPzW8y36qEs",
        "reception_time": "2022-01-19T18:25:14.411-00:00",
        "included_in_blocks":
          [ "BLkcg44PuGEkjo6LZdBco45Ru11VM1e6iswpg8vEEZYMNJG1Mxe" ] },
      { "delegate": "tz1SCmznQQrawNcGcdinKVwZSS7QBUUed3BP",
        "reception_time": "2022-01-19T18:25:14.413-00:00",
        "included_in_blocks":
          [ "BLkcg44PuGEkjo6LZdBco45Ru11VM1e6iswpg8vEEZYMNJG1Mxe" ] },
      { "delegate": "tz3RDC3Jdn4j15J7bBHZd29EUee9gVB1CxD9",
        "reception_time": "2022-01-19T18:25:14.420-00:00",
        "included_in_blocks":
          [ "BLkcg44PuGEkjo6LZdBco45Ru11VM1e6iswpg8vEEZYMNJG1Mxe" ] },
      { "delegate": "tz1UvkANVPWppVgMkLnvN7BwYZsCP7vm6NVd",
        "reception_time": "2022-01-19T18:25:14.424-00:00",
        "included_in_blocks":
          [ "BLkcg44PuGEkjo6LZdBco45Ru11VM1e6iswpg8vEEZYMNJG1Mxe" ] },
      { "delegate": "tz1chefX9Lf2XcZ4BzPtHjV4Qed6BY2ci9GE",
        "reception_time": "2022-01-19T18:25:14.899-00:00",
        "included_in_blocks":
          [ "BLkcg44PuGEkjo6LZdBco45Ru11VM1e6iswpg8vEEZYMNJG1Mxe" ] },
      { "delegate": "tz1LmaFsWRkjr7QMCx5PtV6xTUz3AmEpKQiF",
        "reception_time": "2022-01-19T18:25:15.694-00:00",
        "included_in_blocks":
          [ "BLkcg44PuGEkjo6LZdBco45Ru11VM1e6iswpg8vEEZYMNJG1Mxe" ] },
      { "delegate": "tz1fUyqYH7H4pRHN1roWY17giXhy1RvxjgUV",
        "reception_time": "2022-01-19T18:25:15.859-00:00",
        "included_in_blocks":
          [ "BLkcg44PuGEkjo6LZdBco45Ru11VM1e6iswpg8vEEZYMNJG1Mxe" ] },
      { "delegate": "tz1g8vkmcde6sWKaG2NN9WKzCkDM6Rziq194",
        "reception_time": "2022-01-19T18:25:16.515-00:00",
        "included_in_blocks":
          [ "BLkcg44PuGEkjo6LZdBco45Ru11VM1e6iswpg8vEEZYMNJG1Mxe" ] },
      { "delegate": "tz1fJHFn6sWEd3NnBPngACuw2dggTv6nQZ7g",
        "reception_time": "2022-01-19T18:25:18.094-00:00",
        "included_in_blocks":
          [ "BLkcg44PuGEkjo6LZdBco45Ru11VM1e6iswpg8vEEZYMNJG1Mxe" ] },
      { "delegate": "tz1aRoaRhSpRYvFdyvgWLL6TGyRoGF51wDjM",
        "reception_time": "2022-01-19T18:25:18.934-00:00",
        "included_in_blocks":
          [ "BLkcg44PuGEkjo6LZdBco45Ru11VM1e6iswpg8vEEZYMNJG1Mxe" ] } ] }