{ "blocks":
    [ { "hash": "BLdpV9Kg2gKFPvjxAPnQqvAT1YVRaLkwFUF6pMRoKhNX5grvFXR",
        "delegate": "tz1VQnqCCqX4K5sP3FNkVSNKTdCAMJDd3E1n",
        "reception_time": "2022-01-19T17:25:08.864-00:00",
        "timestamp": "2022-01-19T17:25:00Z" } ],
  "endorsements":
    [ { "delegate": "tz1irJKkXS2DBWkU1NnmFQx1c1L7pbGg4yhk",
        "reception_time": "2022-01-19T17:25:10.898-00:00",
        "included_in_blocks":
          [ "BLARmZZP2B28YLQMduy6eqY7AxVMbCSExB52sMHzDxtoBZZjdr9" ] },
      { "delegate": "tz1eEnQhbwf6trb8Q8mPb2RaPkNk2rN7BKi8",
        "reception_time": "2022-01-19T17:25:10.895-00:00",
        "included_in_blocks":
          [ "BLARmZZP2B28YLQMduy6eqY7AxVMbCSExB52sMHzDxtoBZZjdr9" ] },
      { "delegate": "tz3e7LbZvUtoXhpUD1yb6wuFodZpfYRb9nWJ",
        "reception_time": "2022-01-19T17:25:10.880-00:00",
        "included_in_blocks":
          [ "BLARmZZP2B28YLQMduy6eqY7AxVMbCSExB52sMHzDxtoBZZjdr9" ] },
      { "delegate": "tz1ei4WtWEMEJekSv8qDnu9PExG6Q8HgRGr3",
        "reception_time": "2022-01-19T17:25:10.891-00:00",
        "included_in_blocks":
          [ "BLARmZZP2B28YLQMduy6eqY7AxVMbCSExB52sMHzDxtoBZZjdr9" ] },
      { "delegate": "tz1aXD7Jigrt3PBYSpHSg5Rr33SexMmmM5Ys",
        "reception_time": "2022-01-19T17:25:10.906-00:00",
        "included_in_blocks":
          [ "BLARmZZP2B28YLQMduy6eqY7AxVMbCSExB52sMHzDxtoBZZjdr9" ] },
      { "delegate": "tz1MJx9vhaNRSimcuXPK2rW4fLccQnDAnVKJ",
        "reception_time": "2022-01-19T17:25:10.903-00:00",
        "included_in_blocks":
          [ "BLARmZZP2B28YLQMduy6eqY7AxVMbCSExB52sMHzDxtoBZZjdr9" ] },
      { "delegate": "tz1fb7c66UwePkkfDXz4ajFaBP9hVNLdS7JJ",
        "reception_time": "2022-01-19T17:25:10.903-00:00",
        "included_in_blocks":
          [ "BLARmZZP2B28YLQMduy6eqY7AxVMbCSExB52sMHzDxtoBZZjdr9" ] },
      { "delegate": "tz1dNVDWPf3Q59SdJqnjdnu277iyvReiRS9M",
        "reception_time": "2022-01-19T17:25:10.930-00:00",
        "included_in_blocks":
          [ "BLARmZZP2B28YLQMduy6eqY7AxVMbCSExB52sMHzDxtoBZZjdr9" ] },
      { "delegate": "tz3NxTnke1acr8o3h5y9ytf5awQBGNJUKzVU",
        "reception_time": "2022-01-19T17:25:10.997-00:00",
        "included_in_blocks":
          [ "BLARmZZP2B28YLQMduy6eqY7AxVMbCSExB52sMHzDxtoBZZjdr9" ] },
      { "delegate": "tz3hw2kqXhLUvY65ca1eety2oQTpAvd34R9Q",
        "reception_time": "2022-01-19T17:25:10.920-00:00",
        "included_in_blocks":
          [ "BLARmZZP2B28YLQMduy6eqY7AxVMbCSExB52sMHzDxtoBZZjdr9" ] },
      { "delegate": "tz3ZbP2pM3nwvXztbuMJwJnDvV5xdpU8UkkD",
        "reception_time": "2022-01-19T17:25:11.204-00:00",
        "included_in_blocks":
          [ "BLARmZZP2B28YLQMduy6eqY7AxVMbCSExB52sMHzDxtoBZZjdr9" ] },
      { "delegate": "tz1WkFWDQXsHahmXtbrTVuEF2B7urEkxRsxG",
        "reception_time": "2022-01-19T17:25:10.938-00:00",
        "included_in_blocks":
          [ "BLARmZZP2B28YLQMduy6eqY7AxVMbCSExB52sMHzDxtoBZZjdr9" ] },
      { "delegate": "tz1Nf6tsK4G6bBqgSQERy4nUtkHNKUVdh7q1",
        "reception_time": "2022-01-19T17:25:11.209-00:00",
        "included_in_blocks":
          [ "BLARmZZP2B28YLQMduy6eqY7AxVMbCSExB52sMHzDxtoBZZjdr9" ] },
      { "delegate": "tz3iJu5vrKZcsqRPs8yJ61UDoeEXZmtro4qh",
        "reception_time": "2022-01-19T17:25:11.013-00:00",
        "included_in_blocks":
          [ "BLARmZZP2B28YLQMduy6eqY7AxVMbCSExB52sMHzDxtoBZZjdr9" ] },
      { "delegate": "tz3gtoUxdudfBRcNY7iVdKPHCYYX6xdPpoRS",
        "reception_time": "2022-01-19T17:25:10.914-00:00",
        "included_in_blocks":
          [ "BLARmZZP2B28YLQMduy6eqY7AxVMbCSExB52sMHzDxtoBZZjdr9" ] },
      { "delegate": "tz1TRspM5SeZpaQUhzByXbEvqKF1vnCM2YTK",
        "reception_time": "2022-01-19T17:25:11.204-00:00",
        "included_in_blocks":
          [ "BLARmZZP2B28YLQMduy6eqY7AxVMbCSExB52sMHzDxtoBZZjdr9" ] },
      { "delegate": "tz1TEc75UKXv4W5cwi14Na3NtqFD51yKQi7h",
        "reception_time": "2022-01-19T17:25:10.990-00:00",
        "included_in_blocks":
          [ "BLARmZZP2B28YLQMduy6eqY7AxVMbCSExB52sMHzDxtoBZZjdr9" ] },
      { "delegate": "tz3RKYFsLuQzKBtmYuLNas7uMu3AsYd4QdsA",
        "reception_time": "2022-01-19T17:25:10.888-00:00",
        "included_in_blocks":
          [ "BLARmZZP2B28YLQMduy6eqY7AxVMbCSExB52sMHzDxtoBZZjdr9" ] },
      { "delegate": "tz3Zhs2dygr55yHyQyKjntAtY9bgfhLZ4Xj1",
        "reception_time": "2022-01-19T17:25:11.077-00:00",
        "included_in_blocks":
          [ "BLARmZZP2B28YLQMduy6eqY7AxVMbCSExB52sMHzDxtoBZZjdr9" ] },
      { "delegate": "tz3QSGPoRp3Kn7n3vY24eYeu3Peuqo45LQ4D",
        "reception_time": "2022-01-19T17:25:10.926-00:00",
        "included_in_blocks":
          [ "BLARmZZP2B28YLQMduy6eqY7AxVMbCSExB52sMHzDxtoBZZjdr9" ] },
      { "delegate": "tz1bHzftcTKZMTZgLLtnrXydCm6UEqf4ivca",
        "reception_time": "2022-01-19T17:25:11.016-00:00",
        "included_in_blocks":
          [ "BLARmZZP2B28YLQMduy6eqY7AxVMbCSExB52sMHzDxtoBZZjdr9" ] },
      { "delegate": "tz1V4qCyvPKZ5UeqdH14HN42rxvNPQfc9UZg",
        "reception_time": "2022-01-19T17:25:11.077-00:00",
        "included_in_blocks":
          [ "BLARmZZP2B28YLQMduy6eqY7AxVMbCSExB52sMHzDxtoBZZjdr9" ] },
      { "delegate": "tz1gfArv665EUkSg2ojMBzcbfwuPxAvqPvjo",
        "reception_time": "2022-01-19T17:25:11.018-00:00",
        "included_in_blocks":
          [ "BLARmZZP2B28YLQMduy6eqY7AxVMbCSExB52sMHzDxtoBZZjdr9" ] },
      { "delegate": "tz3S6BBeKgJGXxvLyZ1xzXzMPn11nnFtq5L9",
        "reception_time": "2022-01-19T17:25:11.187-00:00",
        "included_in_blocks":
          [ "BLARmZZP2B28YLQMduy6eqY7AxVMbCSExB52sMHzDxtoBZZjdr9" ] },
      { "delegate": "tz1MQMiZHV8q4tTwUMWmS5Y3kaP6J2136iXr",
        "reception_time": "2022-01-19T17:25:11.020-00:00",
        "included_in_blocks":
          [ "BLARmZZP2B28YLQMduy6eqY7AxVMbCSExB52sMHzDxtoBZZjdr9" ] },
      { "delegate": "tz1NEKxGEHsFufk87CVZcrqWu8o22qh46GK6",
        "reception_time": "2022-01-19T17:25:11.206-00:00",
        "included_in_blocks":
          [ "BLARmZZP2B28YLQMduy6eqY7AxVMbCSExB52sMHzDxtoBZZjdr9" ] },
      { "delegate": "tz1fPKAtsYydh4f1wfWNfeNxWYu72TmM48fu",
        "reception_time": "2022-01-19T17:25:11.237-00:00",
        "included_in_blocks":
          [ "BLARmZZP2B28YLQMduy6eqY7AxVMbCSExB52sMHzDxtoBZZjdr9" ] },
      { "delegate": "tz1RCFbB9GpALpsZtu6J58sb74dm8qe6XBzv",
        "reception_time": "2022-01-19T17:25:11.220-00:00",
        "included_in_blocks":
          [ "BLARmZZP2B28YLQMduy6eqY7AxVMbCSExB52sMHzDxtoBZZjdr9" ] },
      { "delegate": "tz1T7duV5gZWSTq4YpBGbXNLTfznCLDrFxvs",
        "reception_time": "2022-01-19T17:25:11.234-00:00",
        "included_in_blocks":
          [ "BLARmZZP2B28YLQMduy6eqY7AxVMbCSExB52sMHzDxtoBZZjdr9" ] },
      { "delegate": "tz3bTdwZinP8U1JmSweNzVKhmwafqWmFWRfk",
        "reception_time": "2022-01-19T17:25:11.231-00:00",
        "included_in_blocks":
          [ "BLARmZZP2B28YLQMduy6eqY7AxVMbCSExB52sMHzDxtoBZZjdr9" ] },
      { "delegate": "tz1fwnfJNgiDACshK9avfRfFbMaXrs3ghoJa",
        "reception_time": "2022-01-19T17:25:11.222-00:00",
        "included_in_blocks":
          [ "BLARmZZP2B28YLQMduy6eqY7AxVMbCSExB52sMHzDxtoBZZjdr9" ] },
      { "delegate": "tz3bvNMQ95vfAYtG8193ymshqjSvmxiCUuR5",
        "reception_time": "2022-01-19T17:25:11.460-00:00",
        "included_in_blocks":
          [ "BLARmZZP2B28YLQMduy6eqY7AxVMbCSExB52sMHzDxtoBZZjdr9" ] },
      { "delegate": "tz1S8MNvuFEUsWgjHvi3AxibRBf388NhT1q2",
        "reception_time": "2022-01-19T17:25:11.225-00:00",
        "included_in_blocks":
          [ "BLARmZZP2B28YLQMduy6eqY7AxVMbCSExB52sMHzDxtoBZZjdr9" ] },
      { "delegate": "tz1YhNsiRRU8aHNGg7NK3uuP6UDAyacJernB",
        "reception_time": "2022-01-19T17:25:11.817-00:00",
        "included_in_blocks":
          [ "BLARmZZP2B28YLQMduy6eqY7AxVMbCSExB52sMHzDxtoBZZjdr9" ] },
      { "delegate": "tz3VEZ4k6a4Wx42iyev6i2aVAptTRLEAivNN",
        "reception_time": "2022-01-19T17:25:12.013-00:00",
        "included_in_blocks":
          [ "BLARmZZP2B28YLQMduy6eqY7AxVMbCSExB52sMHzDxtoBZZjdr9" ] },
      { "delegate": "tz1dRKU4FQ9QRRQPdaH4zCR6gmCmXfcvcgtB",
        "reception_time": "2022-01-19T17:25:11.956-00:00",
        "included_in_blocks":
          [ "BLARmZZP2B28YLQMduy6eqY7AxVMbCSExB52sMHzDxtoBZZjdr9" ] },
      { "delegate": "tz1cYufsxHXJcvANhvS55h3aY32a9BAFB494",
        "reception_time": "2022-01-19T17:25:12.029-00:00",
        "included_in_blocks":
          [ "BLARmZZP2B28YLQMduy6eqY7AxVMbCSExB52sMHzDxtoBZZjdr9" ] },
      { "delegate": "tz3gLTu4Yxj8tPAcriQVUdxv6BY9QyvzU1az",
        "reception_time": "2022-01-19T17:25:12.086-00:00",
        "included_in_blocks":
          [ "BLARmZZP2B28YLQMduy6eqY7AxVMbCSExB52sMHzDxtoBZZjdr9" ] },
      { "delegate": "tz3NDpRj6WBrJPikcPVHRBEjWKxFw3c6eQPS",
        "reception_time": "2022-01-19T17:25:12.143-00:00",
        "included_in_blocks":
          [ "BLARmZZP2B28YLQMduy6eqY7AxVMbCSExB52sMHzDxtoBZZjdr9" ] },
      { "delegate": "tz3RB4aoyjov4KEVRbuhvQ1CKJgBJMWhaeB8",
        "reception_time": "2022-01-19T17:25:12.170-00:00",
        "included_in_blocks":
          [ "BLARmZZP2B28YLQMduy6eqY7AxVMbCSExB52sMHzDxtoBZZjdr9" ] },
      { "delegate": "tz3RDC3Jdn4j15J7bBHZd29EUee9gVB1CxD9",
        "reception_time": "2022-01-19T17:25:12.437-00:00",
        "included_in_blocks":
          [ "BLARmZZP2B28YLQMduy6eqY7AxVMbCSExB52sMHzDxtoBZZjdr9" ] },
      { "delegate": "tz1WnfXMPaNTBmH7DBPwqCWs9cPDJdkGBTZ8",
        "reception_time": "2022-01-19T17:25:12.153-00:00",
        "included_in_blocks":
          [ "BLARmZZP2B28YLQMduy6eqY7AxVMbCSExB52sMHzDxtoBZZjdr9" ] },
      { "delegate": "tz3WMqdzXqRWXwyvj5Hp2H7QEepaUuS7vd9K",
        "reception_time": "2022-01-19T17:25:12.056-00:00",
        "included_in_blocks":
          [ "BLARmZZP2B28YLQMduy6eqY7AxVMbCSExB52sMHzDxtoBZZjdr9" ] },
      { "delegate": "tz1abmz7jiCV2GH2u81LRrGgAFFgvQgiDiaf",
        "reception_time": "2022-01-19T17:25:12.528-00:00",
        "included_in_blocks":
          [ "BLARmZZP2B28YLQMduy6eqY7AxVMbCSExB52sMHzDxtoBZZjdr9" ] },
      { "delegate": "tz1aJS7Pk9uWR3wWyFf1i3RwhYxN84G7stom",
        "reception_time": "2022-01-19T17:25:12.948-00:00",
        "included_in_blocks":
          [ "BLARmZZP2B28YLQMduy6eqY7AxVMbCSExB52sMHzDxtoBZZjdr9" ] },
      { "delegate": "tz3UoffC7FG7zfpmvmjUmUeAaHvzdcUvAj6r",
        "reception_time": "2022-01-19T17:25:13.007-00:00",
        "included_in_blocks":
          [ "BLARmZZP2B28YLQMduy6eqY7AxVMbCSExB52sMHzDxtoBZZjdr9" ] },
      { "delegate": "tz3NExpXn9aPNZPorRE4SdjJ2RGrfbJgMAaV",
        "reception_time": "2022-01-19T17:25:13.155-00:00",
        "included_in_blocks":
          [ "BLARmZZP2B28YLQMduy6eqY7AxVMbCSExB52sMHzDxtoBZZjdr9" ] },
      { "delegate": "tz2FCNBrERXtaTtNX6iimR1UJ5JSDxvdHM93",
        "reception_time": "2022-01-19T17:25:13.201-00:00",
        "included_in_blocks":
          [ "BLARmZZP2B28YLQMduy6eqY7AxVMbCSExB52sMHzDxtoBZZjdr9" ] },
      { "delegate": "tz1TRqbYbUf2GyrjErf3hBzgBJPzW8y36qEs",
        "reception_time": "2022-01-19T17:25:13.851-00:00",
        "included_in_blocks":
          [ "BLARmZZP2B28YLQMduy6eqY7AxVMbCSExB52sMHzDxtoBZZjdr9" ] },
      { "delegate": "tz1SohptP53wDPZhzTWzDUFAUcWF6DMBpaJV",
        "reception_time": "2022-01-19T17:25:13.868-00:00",
        "included_in_blocks":
          [ "BLARmZZP2B28YLQMduy6eqY7AxVMbCSExB52sMHzDxtoBZZjdr9" ] },
      { "delegate": "tz1acZQd7TdfoiUnD2czHnTHB2TaJQP6gdqo",
        "reception_time": "2022-01-19T17:25:14.050-00:00",
        "included_in_blocks":
          [ "BLARmZZP2B28YLQMduy6eqY7AxVMbCSExB52sMHzDxtoBZZjdr9" ] },
      { "delegate": "tz1awXW7wuXy21c66vBudMXQVAPgRnqqwgTH",
        "reception_time": "2022-01-19T17:25:15.439-00:00",
        "included_in_blocks":
          [ "BLARmZZP2B28YLQMduy6eqY7AxVMbCSExB52sMHzDxtoBZZjdr9" ] },
      { "delegate": "tz1aRoaRhSpRYvFdyvgWLL6TGyRoGF51wDjM",
        "reception_time": "2022-01-19T17:25:19.316-00:00",
        "included_in_blocks":
          [ "BLARmZZP2B28YLQMduy6eqY7AxVMbCSExB52sMHzDxtoBZZjdr9" ] },
      { "delegate": "tz1g8vkmcde6sWKaG2NN9WKzCkDM6Rziq194",
        "reception_time": "2022-01-19T17:25:24.157-00:00",
        "included_in_blocks":
          [ "BLARmZZP2B28YLQMduy6eqY7AxVMbCSExB52sMHzDxtoBZZjdr9" ] },
      { "delegate": "tz1THsLcunLo8CmDm9f2y1xHuXttXZCpyFnq",
        "reception_time": "2022-01-19T17:25:07.257-00:00",
        "errors":
          [ { "kind": "temporary",
              "id": "proto.011-PtHangz2.prefilter.outdated_endorsement" } ],
        "included_in_blocks":
          [ "BLARmZZP2B28YLQMduy6eqY7AxVMbCSExB52sMHzDxtoBZZjdr9" ] },
      { "delegate": "tz1gUNyn3hmnEWqkusWPzxRaon1cs7ndWh7h",
        "reception_time": "2022-01-19T17:25:07.479-00:00",
        "errors":
          [ { "kind": "temporary",
              "id": "proto.011-PtHangz2.prefilter.outdated_endorsement" } ],
        "included_in_blocks":
          [ "BLARmZZP2B28YLQMduy6eqY7AxVMbCSExB52sMHzDxtoBZZjdr9" ] },
      { "delegate": "tz1VQnqCCqX4K5sP3FNkVSNKTdCAMJDd3E1n",
        "reception_time": "2022-01-19T17:25:07.494-00:00",
        "errors":
          [ { "kind": "temporary",
              "id": "proto.011-PtHangz2.prefilter.outdated_endorsement" } ],
        "included_in_blocks":
          [ "BLARmZZP2B28YLQMduy6eqY7AxVMbCSExB52sMHzDxtoBZZjdr9" ] },
      { "delegate": "tz1Ldzz6k1BHdhuKvAtMRX7h5kJSMHESMHLC",
        "reception_time": "2022-01-19T17:25:08.019-00:00",
        "errors":
          [ { "kind": "temporary",
              "id": "proto.011-PtHangz2.prefilter.outdated_endorsement" } ],
        "included_in_blocks":
          [ "BLARmZZP2B28YLQMduy6eqY7AxVMbCSExB52sMHzDxtoBZZjdr9" ] },
      { "delegate": "tz1P2Po7YM526ughEsRbY4oR9zaUPDZjxFrb",
        "reception_time": "2022-01-19T17:25:08.192-00:00",
        "errors":
          [ { "kind": "temporary",
              "id": "proto.011-PtHangz2.prefilter.outdated_endorsement" } ],
        "included_in_blocks":
          [ "BLARmZZP2B28YLQMduy6eqY7AxVMbCSExB52sMHzDxtoBZZjdr9" ] },
      { "delegate": "tz1Lhf4J9Qxoe3DZ2nfe8FGDnvVj7oKjnMY6",
        "reception_time": "2022-01-19T17:25:08.284-00:00",
        "errors":
          [ { "kind": "temporary",
              "id": "proto.011-PtHangz2.prefilter.outdated_endorsement" } ],
        "included_in_blocks":
          [ "BLARmZZP2B28YLQMduy6eqY7AxVMbCSExB52sMHzDxtoBZZjdr9" ] },
      { "delegate": "tz1VmiY38m3y95HqQLjMwqnMS7sdMfGomzKi",
        "reception_time": "2022-01-19T17:25:08.314-00:00",
        "errors":
          [ { "kind": "temporary",
              "id": "proto.011-PtHangz2.prefilter.outdated_endorsement" } ],
        "included_in_blocks":
          [ "BLARmZZP2B28YLQMduy6eqY7AxVMbCSExB52sMHzDxtoBZZjdr9" ] },
      { "delegate": "tz1XfAjZyaLdceHnZxbMYop7g7kWKPut4PR7",
        "reception_time": "2022-01-19T17:25:08.328-00:00",
        "errors":
          [ { "kind": "temporary",
              "id": "proto.011-PtHangz2.prefilter.outdated_endorsement" } ],
        "included_in_blocks":
          [ "BLARmZZP2B28YLQMduy6eqY7AxVMbCSExB52sMHzDxtoBZZjdr9" ] },
      { "delegate": "tz1TzaNn7wSQSP5gYPXCnNzBCpyMiidCq1PX",
        "reception_time": "2022-01-19T17:25:08.578-00:00",
        "errors":
          [ { "kind": "temporary",
              "id": "proto.011-PtHangz2.prefilter.outdated_endorsement" } ],
        "included_in_blocks":
          [ "BLARmZZP2B28YLQMduy6eqY7AxVMbCSExB52sMHzDxtoBZZjdr9" ] },
      { "delegate": "tz1WCd2jm4uSt4vntk4vSuUWoZQGhLcDuR9q",
        "reception_time": "2022-01-19T17:25:08.598-00:00",
        "errors":
          [ { "kind": "temporary",
              "id": "proto.011-PtHangz2.prefilter.outdated_endorsement" } ],
        "included_in_blocks":
          [ "BLARmZZP2B28YLQMduy6eqY7AxVMbCSExB52sMHzDxtoBZZjdr9" ] },
      { "delegate": "tz1W5VkdB5s7ENMESVBtwyt9kyvLqPcUczRT" },
      { "delegate": "tz1NpWrAyDL9k2Lmnyxcgr9xuJakbBxdq7FB",
        "reception_time": "2022-01-19T17:25:35.882-00:00" } ] }