{ "blocks":
    [ { "hash": "BLCQjZhWKyDEtxZvb86JfERo5HShcy9xBmN5rkLrxD8Q3V8CyZ3",
        "delegate": "tz1ZcTRk5uxD86EFEn1vvNffWWqJy7q5eVhc",
        "reception_time": "2022-01-19T11:55:36.759-00:00",
        "timestamp": "2022-01-19T11:55:20Z" } ],
  "endorsements":
    [ { "delegate": "tz1ibcPVGK4Y8pcW4BYUsojiHoBKnZbyDGrX" },
      { "delegate": "tz1P2Po7YM526ughEsRbY4oR9zaUPDZjxFrb",
        "reception_time": "2022-01-19T11:55:36.598-00:00",
        "errors":
          [ { "kind": "temporary",
              "id": "proto.011-PtHangz2.prefilter.outdated_endorsement" } ],
        "included_in_blocks":
          [ "BLPSm9Bq4fBVMJxQv2LeuHmympqSXodhBNm9wveAhaw6WDwgGBT" ] },
      { "delegate": "tz1VmiY38m3y95HqQLjMwqnMS7sdMfGomzKi",
        "reception_time": "2022-01-19T11:55:36.591-00:00",
        "errors":
          [ { "kind": "temporary",
              "id": "proto.011-PtHangz2.prefilter.outdated_endorsement" } ],
        "included_in_blocks":
          [ "BLPSm9Bq4fBVMJxQv2LeuHmympqSXodhBNm9wveAhaw6WDwgGBT" ] },
      { "delegate": "tz1ei4WtWEMEJekSv8qDnu9PExG6Q8HgRGr3",
        "reception_time": "2022-01-19T11:55:36.575-00:00",
        "errors":
          [ { "kind": "temporary",
              "id": "proto.011-PtHangz2.prefilter.outdated_endorsement" } ],
        "included_in_blocks":
          [ "BLPSm9Bq4fBVMJxQv2LeuHmympqSXodhBNm9wveAhaw6WDwgGBT" ] },
      { "delegate": "tz1bsdrs36X5BTH83RHUBdUouKLJZK8d2oBa",
        "reception_time": "2022-01-19T11:55:36.534-00:00",
        "errors":
          [ { "kind": "temporary",
              "id": "proto.011-PtHangz2.prefilter.outdated_endorsement" } ],
        "included_in_blocks":
          [ "BLPSm9Bq4fBVMJxQv2LeuHmympqSXodhBNm9wveAhaw6WDwgGBT" ] },
      { "delegate": "tz1Ldzz6k1BHdhuKvAtMRX7h5kJSMHESMHLC",
        "reception_time": "2022-01-19T11:55:36.502-00:00",
        "errors":
          [ { "kind": "temporary",
              "id": "proto.011-PtHangz2.prefilter.outdated_endorsement" } ],
        "included_in_blocks":
          [ "BLPSm9Bq4fBVMJxQv2LeuHmympqSXodhBNm9wveAhaw6WDwgGBT" ] },
      { "delegate": "tz1gUNyn3hmnEWqkusWPzxRaon1cs7ndWh7h",
        "reception_time": "2022-01-19T11:55:36.465-00:00",
        "errors":
          [ { "kind": "temporary",
              "id": "proto.011-PtHangz2.prefilter.outdated_endorsement" } ],
        "included_in_blocks":
          [ "BLPSm9Bq4fBVMJxQv2LeuHmympqSXodhBNm9wveAhaw6WDwgGBT" ] },
      { "delegate": "tz1Kt4P8BCaP93AEV4eA7gmpRryWt5hznjCP",
        "reception_time": "2022-01-19T11:55:36.421-00:00",
        "errors":
          [ { "kind": "temporary",
              "id": "proto.011-PtHangz2.prefilter.outdated_endorsement" } ],
        "included_in_blocks":
          [ "BLPSm9Bq4fBVMJxQv2LeuHmympqSXodhBNm9wveAhaw6WDwgGBT" ] },
      { "delegate": "tz1VQnqCCqX4K5sP3FNkVSNKTdCAMJDd3E1n",
        "reception_time": "2022-01-19T11:55:36.407-00:00",
        "errors":
          [ { "kind": "temporary",
              "id": "proto.011-PtHangz2.prefilter.outdated_endorsement" } ],
        "included_in_blocks":
          [ "BLPSm9Bq4fBVMJxQv2LeuHmympqSXodhBNm9wveAhaw6WDwgGBT" ] },
      { "delegate": "tz1RV1MBbZMR68tacosb7Mwj6LkbPSUS1er1",
        "reception_time": "2022-01-19T11:55:36.303-00:00",
        "errors":
          [ { "kind": "temporary",
              "id": "proto.011-PtHangz2.prefilter.outdated_endorsement" } ],
        "included_in_blocks":
          [ "BLPSm9Bq4fBVMJxQv2LeuHmympqSXodhBNm9wveAhaw6WDwgGBT" ] },
      { "delegate": "tz1iZEKy4LaAjnTmn2RuGDf2iqdAQKnRi8kY",
        "reception_time": "2022-01-19T11:55:35.975-00:00",
        "errors":
          [ { "kind": "temporary",
              "id": "proto.011-PtHangz2.prefilter.outdated_endorsement" } ],
        "included_in_blocks":
          [ "BLPSm9Bq4fBVMJxQv2LeuHmympqSXodhBNm9wveAhaw6WDwgGBT" ] },
      { "delegate": "tz1Scdr2HsZiQjc7bHMeBbmDRXYVvdhjJbBh",
        "reception_time": "2022-01-19T11:55:35.931-00:00",
        "errors":
          [ { "kind": "temporary",
              "id": "proto.011-PtHangz2.prefilter.outdated_endorsement" } ],
        "included_in_blocks":
          [ "BLPSm9Bq4fBVMJxQv2LeuHmympqSXodhBNm9wveAhaw6WDwgGBT" ] },
      { "delegate": "tz1S8e9GgdZG78XJRB3NqabfWeM37GnhZMWQ",
        "reception_time": "2022-01-19T11:55:35.173-00:00",
        "errors":
          [ { "kind": "temporary",
              "id": "proto.011-PtHangz2.prefilter.outdated_endorsement" } ],
        "included_in_blocks":
          [ "BLPSm9Bq4fBVMJxQv2LeuHmympqSXodhBNm9wveAhaw6WDwgGBT" ] },
      { "delegate": "tz1PFeoTuFen8jAMRHajBySNyCwLmY5RqF9M",
        "reception_time": "2022-01-19T11:55:49.206-00:00",
        "included_in_blocks":
          [ "BLPSm9Bq4fBVMJxQv2LeuHmympqSXodhBNm9wveAhaw6WDwgGBT" ] },
      { "delegate": "tz1aRoaRhSpRYvFdyvgWLL6TGyRoGF51wDjM",
        "reception_time": "2022-01-19T11:55:44.472-00:00",
        "included_in_blocks":
          [ "BLPSm9Bq4fBVMJxQv2LeuHmympqSXodhBNm9wveAhaw6WDwgGBT" ] },
      { "delegate": "tz1TRqbYbUf2GyrjErf3hBzgBJPzW8y36qEs",
        "reception_time": "2022-01-19T11:55:40.749-00:00",
        "included_in_blocks":
          [ "BLPSm9Bq4fBVMJxQv2LeuHmympqSXodhBNm9wveAhaw6WDwgGBT" ] },
      { "delegate": "tz3VEZ4k6a4Wx42iyev6i2aVAptTRLEAivNN",
        "reception_time": "2022-01-19T11:55:40.771-00:00",
        "included_in_blocks":
          [ "BLPSm9Bq4fBVMJxQv2LeuHmympqSXodhBNm9wveAhaw6WDwgGBT" ] },
      { "delegate": "tz1abmz7jiCV2GH2u81LRrGgAFFgvQgiDiaf",
        "reception_time": "2022-01-19T11:55:40.917-00:00",
        "included_in_blocks":
          [ "BLPSm9Bq4fBVMJxQv2LeuHmympqSXodhBNm9wveAhaw6WDwgGBT" ] },
      { "delegate": "tz1KfEsrtDaA1sX7vdM4qmEPWuSytuqCDp5j",
        "reception_time": "2022-01-19T11:55:40.775-00:00",
        "included_in_blocks":
          [ "BLPSm9Bq4fBVMJxQv2LeuHmympqSXodhBNm9wveAhaw6WDwgGBT" ] },
      { "delegate": "tz3NDpRj6WBrJPikcPVHRBEjWKxFw3c6eQPS",
        "reception_time": "2022-01-19T11:55:40.726-00:00",
        "included_in_blocks":
          [ "BLPSm9Bq4fBVMJxQv2LeuHmympqSXodhBNm9wveAhaw6WDwgGBT" ] },
      { "delegate": "tz1RjoHc98dBoqaH2jawF62XNKh7YsHwbkEv",
        "reception_time": "2022-01-19T11:55:40.609-00:00",
        "included_in_blocks":
          [ "BLPSm9Bq4fBVMJxQv2LeuHmympqSXodhBNm9wveAhaw6WDwgGBT" ] },
      { "delegate": "tz1cYufsxHXJcvANhvS55h3aY32a9BAFB494",
        "reception_time": "2022-01-19T11:55:40.763-00:00",
        "included_in_blocks":
          [ "BLPSm9Bq4fBVMJxQv2LeuHmympqSXodhBNm9wveAhaw6WDwgGBT" ] },
      { "delegate": "tz1LmaFsWRkjr7QMCx5PtV6xTUz3AmEpKQiF",
        "reception_time": "2022-01-19T11:55:40.741-00:00",
        "included_in_blocks":
          [ "BLPSm9Bq4fBVMJxQv2LeuHmympqSXodhBNm9wveAhaw6WDwgGBT" ] },
      { "delegate": "tz3bvNMQ95vfAYtG8193ymshqjSvmxiCUuR5",
        "reception_time": "2022-01-19T11:55:40.957-00:00",
        "included_in_blocks":
          [ "BLPSm9Bq4fBVMJxQv2LeuHmympqSXodhBNm9wveAhaw6WDwgGBT" ] },
      { "delegate": "tz1UMCB2AHSTwG7YcGNr31CqYCtGN873royv",
        "reception_time": "2022-01-19T11:55:40.250-00:00",
        "included_in_blocks":
          [ "BLPSm9Bq4fBVMJxQv2LeuHmympqSXodhBNm9wveAhaw6WDwgGBT" ] },
      { "delegate": "tz3RDC3Jdn4j15J7bBHZd29EUee9gVB1CxD9",
        "reception_time": "2022-01-19T11:55:40.948-00:00",
        "included_in_blocks":
          [ "BLPSm9Bq4fBVMJxQv2LeuHmympqSXodhBNm9wveAhaw6WDwgGBT" ] },
      { "delegate": "tz1NL14EZjUmY9eEdk1ejyACEaTuwVGVKEeU",
        "reception_time": "2022-01-19T11:55:40.621-00:00",
        "included_in_blocks":
          [ "BLPSm9Bq4fBVMJxQv2LeuHmympqSXodhBNm9wveAhaw6WDwgGBT" ] },
      { "delegate": "tz1WBfwbT66FC6BTLexc2BoyCCBM9LG7pnVW",
        "reception_time": "2022-01-19T11:55:40.653-00:00",
        "included_in_blocks":
          [ "BLPSm9Bq4fBVMJxQv2LeuHmympqSXodhBNm9wveAhaw6WDwgGBT" ] },
      { "delegate": "tz1NortRftucvAkD1J58L32EhSVrQEWJCEnB",
        "reception_time": "2022-01-19T11:55:40.802-00:00",
        "included_in_blocks":
          [ "BLPSm9Bq4fBVMJxQv2LeuHmympqSXodhBNm9wveAhaw6WDwgGBT" ] },
      { "delegate": "tz1S8MNvuFEUsWgjHvi3AxibRBf388NhT1q2",
        "reception_time": "2022-01-19T11:55:40.452-00:00",
        "included_in_blocks":
          [ "BLPSm9Bq4fBVMJxQv2LeuHmympqSXodhBNm9wveAhaw6WDwgGBT" ] },
      { "delegate": "tz1fPKAtsYydh4f1wfWNfeNxWYu72TmM48fu",
        "reception_time": "2022-01-19T11:55:40.625-00:00",
        "included_in_blocks":
          [ "BLPSm9Bq4fBVMJxQv2LeuHmympqSXodhBNm9wveAhaw6WDwgGBT" ] },
      { "delegate": "tz1UJvHTgpVzcKWhTazGxVcn5wsHru5Gietg",
        "reception_time": "2022-01-19T11:55:40.705-00:00",
        "included_in_blocks":
          [ "BLPSm9Bq4fBVMJxQv2LeuHmympqSXodhBNm9wveAhaw6WDwgGBT" ] },
      { "delegate": "tz1YhNsiRRU8aHNGg7NK3uuP6UDAyacJernB",
        "reception_time": "2022-01-19T11:55:40.749-00:00",
        "included_in_blocks":
          [ "BLPSm9Bq4fBVMJxQv2LeuHmympqSXodhBNm9wveAhaw6WDwgGBT" ] },
      { "delegate": "tz1dRKU4FQ9QRRQPdaH4zCR6gmCmXfcvcgtB",
        "reception_time": "2022-01-19T11:55:40.444-00:00",
        "included_in_blocks":
          [ "BLPSm9Bq4fBVMJxQv2LeuHmympqSXodhBNm9wveAhaw6WDwgGBT" ] },
      { "delegate": "tz2FCNBrERXtaTtNX6iimR1UJ5JSDxvdHM93",
        "reception_time": "2022-01-19T11:55:40.292-00:00",
        "included_in_blocks":
          [ "BLPSm9Bq4fBVMJxQv2LeuHmympqSXodhBNm9wveAhaw6WDwgGBT" ] },
      { "delegate": "tz3S6BBeKgJGXxvLyZ1xzXzMPn11nnFtq5L9",
        "reception_time": "2022-01-19T11:55:40.635-00:00",
        "included_in_blocks":
          [ "BLPSm9Bq4fBVMJxQv2LeuHmympqSXodhBNm9wveAhaw6WDwgGBT" ] },
      { "delegate": "tz1gfArv665EUkSg2ojMBzcbfwuPxAvqPvjo",
        "reception_time": "2022-01-19T11:55:40.450-00:00",
        "included_in_blocks":
          [ "BLPSm9Bq4fBVMJxQv2LeuHmympqSXodhBNm9wveAhaw6WDwgGBT" ] },
      { "delegate": "tz1fwnfJNgiDACshK9avfRfFbMaXrs3ghoJa",
        "reception_time": "2022-01-19T11:55:40.467-00:00",
        "included_in_blocks":
          [ "BLPSm9Bq4fBVMJxQv2LeuHmympqSXodhBNm9wveAhaw6WDwgGBT" ] },
      { "delegate": "tz1T7duV5gZWSTq4YpBGbXNLTfznCLDrFxvs",
        "reception_time": "2022-01-19T11:55:40.244-00:00",
        "included_in_blocks":
          [ "BLPSm9Bq4fBVMJxQv2LeuHmympqSXodhBNm9wveAhaw6WDwgGBT" ] },
      { "delegate": "tz1fWJaG5uj6bQZ19bCSLjELJz6g2J6inUL1",
        "reception_time": "2022-01-19T11:55:40.462-00:00",
        "included_in_blocks":
          [ "BLPSm9Bq4fBVMJxQv2LeuHmympqSXodhBNm9wveAhaw6WDwgGBT" ] },
      { "delegate": "tz3iJu5vrKZcsqRPs8yJ61UDoeEXZmtro4qh",
        "reception_time": "2022-01-19T11:55:40.260-00:00",
        "included_in_blocks":
          [ "BLPSm9Bq4fBVMJxQv2LeuHmympqSXodhBNm9wveAhaw6WDwgGBT" ] },
      { "delegate": "tz3QCNyySViKHmeSr45kzDxzchys7NiXCWoa",
        "reception_time": "2022-01-19T11:55:40.792-00:00",
        "included_in_blocks":
          [ "BLPSm9Bq4fBVMJxQv2LeuHmympqSXodhBNm9wveAhaw6WDwgGBT" ] },
      { "delegate": "tz3NExpXn9aPNZPorRE4SdjJ2RGrfbJgMAaV",
        "reception_time": "2022-01-19T11:55:41.448-00:00",
        "included_in_blocks":
          [ "BLPSm9Bq4fBVMJxQv2LeuHmympqSXodhBNm9wveAhaw6WDwgGBT" ] },
      { "delegate": "tz1awXW7wuXy21c66vBudMXQVAPgRnqqwgTH",
        "reception_time": "2022-01-19T11:55:41.654-00:00",
        "included_in_blocks":
          [ "BLPSm9Bq4fBVMJxQv2LeuHmympqSXodhBNm9wveAhaw6WDwgGBT" ] },
      { "delegate": "tz3UoffC7FG7zfpmvmjUmUeAaHvzdcUvAj6r",
        "reception_time": "2022-01-19T11:55:41.797-00:00",
        "included_in_blocks":
          [ "BLPSm9Bq4fBVMJxQv2LeuHmympqSXodhBNm9wveAhaw6WDwgGBT" ] },
      { "delegate": "tz3hw2kqXhLUvY65ca1eety2oQTpAvd34R9Q",
        "reception_time": "2022-01-19T11:55:40.156-00:00",
        "included_in_blocks":
          [ "BLPSm9Bq4fBVMJxQv2LeuHmympqSXodhBNm9wveAhaw6WDwgGBT" ] },
      { "delegate": "tz1RCFbB9GpALpsZtu6J58sb74dm8qe6XBzv",
        "reception_time": "2022-01-19T11:55:40.705-00:00",
        "included_in_blocks":
          [ "BLPSm9Bq4fBVMJxQv2LeuHmympqSXodhBNm9wveAhaw6WDwgGBT" ] },
      { "delegate": "tz1TcH4Nb3aHNDJ7CGZhU7jgAK1BkSP4Lxds",
        "reception_time": "2022-01-19T11:55:40.950-00:00",
        "included_in_blocks":
          [ "BLPSm9Bq4fBVMJxQv2LeuHmympqSXodhBNm9wveAhaw6WDwgGBT" ] },
      { "delegate": "tz3bTdwZinP8U1JmSweNzVKhmwafqWmFWRfk",
        "reception_time": "2022-01-19T11:55:40.792-00:00",
        "included_in_blocks":
          [ "BLPSm9Bq4fBVMJxQv2LeuHmympqSXodhBNm9wveAhaw6WDwgGBT" ] },
      { "delegate": "tz3WMqdzXqRWXwyvj5Hp2H7QEepaUuS7vd9K",
        "reception_time": "2022-01-19T11:55:40.759-00:00",
        "included_in_blocks":
          [ "BLPSm9Bq4fBVMJxQv2LeuHmympqSXodhBNm9wveAhaw6WDwgGBT" ] },
      { "delegate": "tz3QSGPoRp3Kn7n3vY24eYeu3Peuqo45LQ4D",
        "reception_time": "2022-01-19T11:55:40.017-00:00",
        "included_in_blocks":
          [ "BLPSm9Bq4fBVMJxQv2LeuHmympqSXodhBNm9wveAhaw6WDwgGBT" ] },
      { "delegate": "tz1W3VYi3gSt9Xgfw6WNV1aGZRPH2BsskMEY",
        "reception_time": "2022-01-19T11:55:40.260-00:00",
        "included_in_blocks":
          [ "BLPSm9Bq4fBVMJxQv2LeuHmympqSXodhBNm9wveAhaw6WDwgGBT" ] },
      { "delegate": "tz3gtoUxdudfBRcNY7iVdKPHCYYX6xdPpoRS",
        "reception_time": "2022-01-19T11:55:40.229-00:00",
        "included_in_blocks":
          [ "BLPSm9Bq4fBVMJxQv2LeuHmympqSXodhBNm9wveAhaw6WDwgGBT" ] },
      { "delegate": "tz3RKYFsLuQzKBtmYuLNas7uMu3AsYd4QdsA",
        "reception_time": "2022-01-19T11:55:40.174-00:00",
        "included_in_blocks":
          [ "BLPSm9Bq4fBVMJxQv2LeuHmympqSXodhBNm9wveAhaw6WDwgGBT" ] },
      { "delegate": "tz3Zhs2dygr55yHyQyKjntAtY9bgfhLZ4Xj1",
        "reception_time": "2022-01-19T11:55:40.462-00:00",
        "included_in_blocks":
          [ "BLPSm9Bq4fBVMJxQv2LeuHmympqSXodhBNm9wveAhaw6WDwgGBT" ] },
      { "delegate": "tz1irJKkXS2DBWkU1NnmFQx1c1L7pbGg4yhk",
        "reception_time": "2022-01-19T11:55:39.985-00:00",
        "included_in_blocks":
          [ "BLPSm9Bq4fBVMJxQv2LeuHmympqSXodhBNm9wveAhaw6WDwgGBT" ] },
      { "delegate": "tz1RQhNh7iB9CZA7i3ifTWNwiGYVffponfbB",
        "reception_time": "2022-01-19T11:55:40.221-00:00",
        "included_in_blocks":
          [ "BLPSm9Bq4fBVMJxQv2LeuHmympqSXodhBNm9wveAhaw6WDwgGBT" ] },
      { "delegate": "tz1V4qCyvPKZ5UeqdH14HN42rxvNPQfc9UZg",
        "reception_time": "2022-01-19T11:55:40.287-00:00",
        "included_in_blocks":
          [ "BLPSm9Bq4fBVMJxQv2LeuHmympqSXodhBNm9wveAhaw6WDwgGBT" ] },
      { "delegate": "tz1NMdMmWZN8QPB8pY4ddncACDg1cHi1xD2e",
        "reception_time": "2022-01-19T11:55:40.282-00:00",
        "included_in_blocks":
          [ "BLPSm9Bq4fBVMJxQv2LeuHmympqSXodhBNm9wveAhaw6WDwgGBT" ] },
      { "delegate": "tz1WCd2jm4uSt4vntk4vSuUWoZQGhLcDuR9q",
        "reception_time": "2022-01-19T11:55:39.989-00:00",
        "included_in_blocks":
          [ "BLPSm9Bq4fBVMJxQv2LeuHmympqSXodhBNm9wveAhaw6WDwgGBT" ] },
      { "delegate": "tz1eEnQhbwf6trb8Q8mPb2RaPkNk2rN7BKi8",
        "reception_time": "2022-01-19T11:55:39.996-00:00",
        "included_in_blocks":
          [ "BLPSm9Bq4fBVMJxQv2LeuHmympqSXodhBNm9wveAhaw6WDwgGBT" ] },
      { "delegate": "tz3NxTnke1acr8o3h5y9ytf5awQBGNJUKzVU",
        "reception_time": "2022-01-19T11:55:40.244-00:00",
        "included_in_blocks":
          [ "BLPSm9Bq4fBVMJxQv2LeuHmympqSXodhBNm9wveAhaw6WDwgGBT" ] },
      { "delegate": "tz3adcvQaKXTCg12zbninqo3q8ptKKtDFTLv",
        "reception_time": "2022-01-19T11:55:40.008-00:00",
        "included_in_blocks":
          [ "BLPSm9Bq4fBVMJxQv2LeuHmympqSXodhBNm9wveAhaw6WDwgGBT" ] },
      { "delegate": "tz1PWCDnz783NNGGQjEFFsHtrcK5yBW4E2rm",
        "reception_time": "2022-01-19T11:55:39.993-00:00",
        "included_in_blocks":
          [ "BLPSm9Bq4fBVMJxQv2LeuHmympqSXodhBNm9wveAhaw6WDwgGBT" ] },
      { "delegate": "tz1Lhf4J9Qxoe3DZ2nfe8FGDnvVj7oKjnMY6",
        "reception_time": "2022-01-19T11:55:39.979-00:00",
        "included_in_blocks":
          [ "BLPSm9Bq4fBVMJxQv2LeuHmympqSXodhBNm9wveAhaw6WDwgGBT" ] },
      { "delegate": "tz1Nf6tsK4G6bBqgSQERy4nUtkHNKUVdh7q1",
        "reception_time": "2022-01-19T11:55:40.605-00:00",
        "included_in_blocks":
          [ "BLPSm9Bq4fBVMJxQv2LeuHmympqSXodhBNm9wveAhaw6WDwgGBT" ] },
      { "delegate": "tz1TzaNn7wSQSP5gYPXCnNzBCpyMiidCq1PX",
        "reception_time": "2022-01-19T11:55:39.999-00:00",
        "included_in_blocks":
          [ "BLPSm9Bq4fBVMJxQv2LeuHmympqSXodhBNm9wveAhaw6WDwgGBT" ] },
      { "delegate": "tz3ZbP2pM3nwvXztbuMJwJnDvV5xdpU8UkkD",
        "reception_time": "2022-01-19T11:55:40.164-00:00",
        "included_in_blocks":
          [ "BLPSm9Bq4fBVMJxQv2LeuHmympqSXodhBNm9wveAhaw6WDwgGBT" ] },
      { "delegate": "tz1TEc75UKXv4W5cwi14Na3NtqFD51yKQi7h",
        "reception_time": "2022-01-19T11:55:40.250-00:00",
        "included_in_blocks":
          [ "BLPSm9Bq4fBVMJxQv2LeuHmympqSXodhBNm9wveAhaw6WDwgGBT" ] } ] }