{ "blocks":
    [ { "hash": "BLt2o3QWncQhzfXddqW1nNkfeQ4Vt5syY1soiW9TaAMTwGWCPuK",
        "delegate": "tz3RB4aoyjov4KEVRbuhvQ1CKJgBJMWhaeB8",
        "reception_time": "2022-01-19T11:57:04.273-00:00",
        "timestamp": "2022-01-19T11:56:50Z" } ],
  "endorsements":
    [ { "delegate": "tz1S8e9GgdZG78XJRB3NqabfWeM37GnhZMWQ",
        "reception_time": "2022-01-19T11:57:03.337-00:00",
        "errors":
          [ { "kind": "temporary",
              "id": "proto.011-PtHangz2.prefilter.outdated_endorsement" } ],
        "included_in_blocks":
          [ "BLwx8SujiAJTBQYhYMCFdMnssBJvfugKyxdGEYzA57QtS5sYVXs" ] },
      { "delegate": "tz1RAxW1rBTRumV9QEpFsw51QWPQmAKHGMei" },
      { "delegate": "tz1TzaNn7wSQSP5gYPXCnNzBCpyMiidCq1PX",
        "reception_time": "2022-01-19T11:57:06.390-00:00",
        "included_in_blocks":
          [ "BLwx8SujiAJTBQYhYMCFdMnssBJvfugKyxdGEYzA57QtS5sYVXs" ] },
      { "delegate": "tz3e7LbZvUtoXhpUD1yb6wuFodZpfYRb9nWJ",
        "reception_time": "2022-01-19T11:57:06.402-00:00",
        "included_in_blocks":
          [ "BLwx8SujiAJTBQYhYMCFdMnssBJvfugKyxdGEYzA57QtS5sYVXs" ] },
      { "delegate": "tz1Ldzz6k1BHdhuKvAtMRX7h5kJSMHESMHLC",
        "reception_time": "2022-01-19T11:57:06.411-00:00",
        "included_in_blocks":
          [ "BLwx8SujiAJTBQYhYMCFdMnssBJvfugKyxdGEYzA57QtS5sYVXs" ] },
      { "delegate": "tz3adcvQaKXTCg12zbninqo3q8ptKKtDFTLv",
        "reception_time": "2022-01-19T11:57:06.422-00:00",
        "included_in_blocks":
          [ "BLwx8SujiAJTBQYhYMCFdMnssBJvfugKyxdGEYzA57QtS5sYVXs" ] },
      { "delegate": "tz1RV1MBbZMR68tacosb7Mwj6LkbPSUS1er1",
        "reception_time": "2022-01-19T11:57:06.428-00:00",
        "included_in_blocks":
          [ "BLwx8SujiAJTBQYhYMCFdMnssBJvfugKyxdGEYzA57QtS5sYVXs" ] },
      { "delegate": "tz1TXzyaKUA8wsWefdSnyaYFnV2M3vCV7er9",
        "reception_time": "2022-01-19T11:57:06.428-00:00",
        "included_in_blocks":
          [ "BLwx8SujiAJTBQYhYMCFdMnssBJvfugKyxdGEYzA57QtS5sYVXs" ] },
      { "delegate": "tz1eEnQhbwf6trb8Q8mPb2RaPkNk2rN7BKi8",
        "reception_time": "2022-01-19T11:57:06.667-00:00",
        "included_in_blocks":
          [ "BLwx8SujiAJTBQYhYMCFdMnssBJvfugKyxdGEYzA57QtS5sYVXs" ] },
      { "delegate": "tz1PWCDnz783NNGGQjEFFsHtrcK5yBW4E2rm",
        "reception_time": "2022-01-19T11:57:06.688-00:00",
        "included_in_blocks":
          [ "BLwx8SujiAJTBQYhYMCFdMnssBJvfugKyxdGEYzA57QtS5sYVXs" ] },
      { "delegate": "tz1P2Po7YM526ughEsRbY4oR9zaUPDZjxFrb",
        "reception_time": "2022-01-19T11:57:06.693-00:00",
        "included_in_blocks":
          [ "BLwx8SujiAJTBQYhYMCFdMnssBJvfugKyxdGEYzA57QtS5sYVXs" ] },
      { "delegate": "tz1irJKkXS2DBWkU1NnmFQx1c1L7pbGg4yhk",
        "reception_time": "2022-01-19T11:57:06.706-00:00",
        "included_in_blocks":
          [ "BLwx8SujiAJTBQYhYMCFdMnssBJvfugKyxdGEYzA57QtS5sYVXs" ] },
      { "delegate": "tz1Lhf4J9Qxoe3DZ2nfe8FGDnvVj7oKjnMY6",
        "reception_time": "2022-01-19T11:57:06.716-00:00",
        "included_in_blocks":
          [ "BLwx8SujiAJTBQYhYMCFdMnssBJvfugKyxdGEYzA57QtS5sYVXs" ] },
      { "delegate": "tz1beersuEDv8Z7ngQ825xfbaJNS2EhXnyHR",
        "reception_time": "2022-01-19T11:57:06.749-00:00",
        "included_in_blocks":
          [ "BLwx8SujiAJTBQYhYMCFdMnssBJvfugKyxdGEYzA57QtS5sYVXs" ] },
      { "delegate": "tz1VQnqCCqX4K5sP3FNkVSNKTdCAMJDd3E1n",
        "reception_time": "2022-01-19T11:57:06.785-00:00",
        "included_in_blocks":
          [ "BLwx8SujiAJTBQYhYMCFdMnssBJvfugKyxdGEYzA57QtS5sYVXs" ] },
      { "delegate": "tz1MJx9vhaNRSimcuXPK2rW4fLccQnDAnVKJ",
        "reception_time": "2022-01-19T11:57:06.810-00:00",
        "included_in_blocks":
          [ "BLwx8SujiAJTBQYhYMCFdMnssBJvfugKyxdGEYzA57QtS5sYVXs" ] },
      { "delegate": "tz1gUNyn3hmnEWqkusWPzxRaon1cs7ndWh7h",
        "reception_time": "2022-01-19T11:57:06.850-00:00",
        "included_in_blocks":
          [ "BLwx8SujiAJTBQYhYMCFdMnssBJvfugKyxdGEYzA57QtS5sYVXs" ] },
      { "delegate": "tz1SFtJ3XwU1d6rWTRfJmwVDFpywcp4J743S",
        "reception_time": "2022-01-19T11:57:06.863-00:00",
        "included_in_blocks":
          [ "BLwx8SujiAJTBQYhYMCFdMnssBJvfugKyxdGEYzA57QtS5sYVXs" ] },
      { "delegate": "tz3QSGPoRp3Kn7n3vY24eYeu3Peuqo45LQ4D",
        "reception_time": "2022-01-19T11:57:06.887-00:00",
        "included_in_blocks":
          [ "BLwx8SujiAJTBQYhYMCFdMnssBJvfugKyxdGEYzA57QtS5sYVXs" ] },
      { "delegate": "tz3hw2kqXhLUvY65ca1eety2oQTpAvd34R9Q",
        "reception_time": "2022-01-19T11:57:06.901-00:00",
        "included_in_blocks":
          [ "BLwx8SujiAJTBQYhYMCFdMnssBJvfugKyxdGEYzA57QtS5sYVXs" ] },
      { "delegate": "tz3RB4aoyjov4KEVRbuhvQ1CKJgBJMWhaeB8",
        "reception_time": "2022-01-19T11:57:06.909-00:00",
        "included_in_blocks":
          [ "BLwx8SujiAJTBQYhYMCFdMnssBJvfugKyxdGEYzA57QtS5sYVXs" ] },
      { "delegate": "tz1ei4WtWEMEJekSv8qDnu9PExG6Q8HgRGr3",
        "reception_time": "2022-01-19T11:57:06.929-00:00",
        "included_in_blocks":
          [ "BLwx8SujiAJTBQYhYMCFdMnssBJvfugKyxdGEYzA57QtS5sYVXs" ] },
      { "delegate": "tz1S8MNvuFEUsWgjHvi3AxibRBf388NhT1q2",
        "reception_time": "2022-01-19T11:57:06.961-00:00",
        "included_in_blocks":
          [ "BLwx8SujiAJTBQYhYMCFdMnssBJvfugKyxdGEYzA57QtS5sYVXs" ] },
      { "delegate": "tz3gtoUxdudfBRcNY7iVdKPHCYYX6xdPpoRS",
        "reception_time": "2022-01-19T11:57:07.011-00:00",
        "included_in_blocks":
          [ "BLwx8SujiAJTBQYhYMCFdMnssBJvfugKyxdGEYzA57QtS5sYVXs" ] },
      { "delegate": "tz3NxTnke1acr8o3h5y9ytf5awQBGNJUKzVU",
        "reception_time": "2022-01-19T11:57:07.025-00:00",
        "included_in_blocks":
          [ "BLwx8SujiAJTBQYhYMCFdMnssBJvfugKyxdGEYzA57QtS5sYVXs" ] },
      { "delegate": "tz3ZbP2pM3nwvXztbuMJwJnDvV5xdpU8UkkD",
        "reception_time": "2022-01-19T11:57:07.060-00:00",
        "included_in_blocks":
          [ "BLwx8SujiAJTBQYhYMCFdMnssBJvfugKyxdGEYzA57QtS5sYVXs" ] },
      { "delegate": "tz3iJu5vrKZcsqRPs8yJ61UDoeEXZmtro4qh",
        "reception_time": "2022-01-19T11:57:07.075-00:00",
        "included_in_blocks":
          [ "BLwx8SujiAJTBQYhYMCFdMnssBJvfugKyxdGEYzA57QtS5sYVXs" ] },
      { "delegate": "tz1d6Fx42mYgVFnHUW8T8A7WBfJ6nD9pVok8",
        "reception_time": "2022-01-19T11:57:07.084-00:00",
        "included_in_blocks":
          [ "BLwx8SujiAJTBQYhYMCFdMnssBJvfugKyxdGEYzA57QtS5sYVXs" ] },
      { "delegate": "tz1UMCB2AHSTwG7YcGNr31CqYCtGN873royv",
        "reception_time": "2022-01-19T11:57:07.105-00:00",
        "included_in_blocks":
          [ "BLwx8SujiAJTBQYhYMCFdMnssBJvfugKyxdGEYzA57QtS5sYVXs" ] },
      { "delegate": "tz1NEKxGEHsFufk87CVZcrqWu8o22qh46GK6",
        "reception_time": "2022-01-19T11:57:07.108-00:00",
        "included_in_blocks":
          [ "BLwx8SujiAJTBQYhYMCFdMnssBJvfugKyxdGEYzA57QtS5sYVXs" ] },
      { "delegate": "tz3RKYFsLuQzKBtmYuLNas7uMu3AsYd4QdsA",
        "reception_time": "2022-01-19T11:57:07.123-00:00",
        "included_in_blocks":
          [ "BLwx8SujiAJTBQYhYMCFdMnssBJvfugKyxdGEYzA57QtS5sYVXs" ] },
      { "delegate": "tz3S6BBeKgJGXxvLyZ1xzXzMPn11nnFtq5L9",
        "reception_time": "2022-01-19T11:57:07.241-00:00",
        "included_in_blocks":
          [ "BLwx8SujiAJTBQYhYMCFdMnssBJvfugKyxdGEYzA57QtS5sYVXs" ] },
      { "delegate": "tz1Nf6tsK4G6bBqgSQERy4nUtkHNKUVdh7q1",
        "reception_time": "2022-01-19T11:57:07.264-00:00",
        "included_in_blocks":
          [ "BLwx8SujiAJTBQYhYMCFdMnssBJvfugKyxdGEYzA57QtS5sYVXs" ] },
      { "delegate": "tz3Zhs2dygr55yHyQyKjntAtY9bgfhLZ4Xj1",
        "reception_time": "2022-01-19T11:57:07.264-00:00",
        "included_in_blocks":
          [ "BLwx8SujiAJTBQYhYMCFdMnssBJvfugKyxdGEYzA57QtS5sYVXs" ] },
      { "delegate": "tz1axcnVN9tZnCe4sQQhC6f3tfSEXdjPaXPY",
        "reception_time": "2022-01-19T11:57:07.268-00:00",
        "included_in_blocks":
          [ "BLwx8SujiAJTBQYhYMCFdMnssBJvfugKyxdGEYzA57QtS5sYVXs" ] },
      { "delegate": "tz3QT9dHYKDqh563chVa6za8526ys1UKfRfL",
        "reception_time": "2022-01-19T11:57:07.283-00:00",
        "included_in_blocks":
          [ "BLwx8SujiAJTBQYhYMCFdMnssBJvfugKyxdGEYzA57QtS5sYVXs" ] },
      { "delegate": "tz3bTdwZinP8U1JmSweNzVKhmwafqWmFWRfk",
        "reception_time": "2022-01-19T11:57:07.697-00:00",
        "included_in_blocks":
          [ "BLwx8SujiAJTBQYhYMCFdMnssBJvfugKyxdGEYzA57QtS5sYVXs" ] },
      { "delegate": "tz1gcna2xxZj2eNp1LaMyAhVJ49mEFj4FH26",
        "reception_time": "2022-01-19T11:57:07.720-00:00",
        "included_in_blocks":
          [ "BLwx8SujiAJTBQYhYMCFdMnssBJvfugKyxdGEYzA57QtS5sYVXs" ] },
      { "delegate": "tz1UJvHTgpVzcKWhTazGxVcn5wsHru5Gietg",
        "reception_time": "2022-01-19T11:57:07.737-00:00",
        "included_in_blocks":
          [ "BLwx8SujiAJTBQYhYMCFdMnssBJvfugKyxdGEYzA57QtS5sYVXs" ] },
      { "delegate": "tz1RCFbB9GpALpsZtu6J58sb74dm8qe6XBzv",
        "reception_time": "2022-01-19T11:57:07.741-00:00",
        "included_in_blocks":
          [ "BLwx8SujiAJTBQYhYMCFdMnssBJvfugKyxdGEYzA57QtS5sYVXs" ] },
      { "delegate": "tz1YhNsiRRU8aHNGg7NK3uuP6UDAyacJernB",
        "reception_time": "2022-01-19T11:57:07.750-00:00",
        "included_in_blocks":
          [ "BLwx8SujiAJTBQYhYMCFdMnssBJvfugKyxdGEYzA57QtS5sYVXs" ] },
      { "delegate": "tz1gfArv665EUkSg2ojMBzcbfwuPxAvqPvjo",
        "reception_time": "2022-01-19T11:57:07.750-00:00",
        "included_in_blocks":
          [ "BLwx8SujiAJTBQYhYMCFdMnssBJvfugKyxdGEYzA57QtS5sYVXs" ] },
      { "delegate": "tz2FCNBrERXtaTtNX6iimR1UJ5JSDxvdHM93",
        "reception_time": "2022-01-19T11:57:07.756-00:00",
        "included_in_blocks":
          [ "BLwx8SujiAJTBQYhYMCFdMnssBJvfugKyxdGEYzA57QtS5sYVXs" ] },
      { "delegate": "tz1NRGxXV9h6SdNaZLcgmjuLx3hyy2f8YoGN",
        "reception_time": "2022-01-19T11:57:07.772-00:00",
        "included_in_blocks":
          [ "BLwx8SujiAJTBQYhYMCFdMnssBJvfugKyxdGEYzA57QtS5sYVXs" ] },
      { "delegate": "tz1RjoHc98dBoqaH2jawF62XNKh7YsHwbkEv",
        "reception_time": "2022-01-19T11:57:07.772-00:00",
        "included_in_blocks":
          [ "BLwx8SujiAJTBQYhYMCFdMnssBJvfugKyxdGEYzA57QtS5sYVXs" ] },
      { "delegate": "tz1cYufsxHXJcvANhvS55h3aY32a9BAFB494",
        "reception_time": "2022-01-19T11:57:07.929-00:00",
        "included_in_blocks":
          [ "BLwx8SujiAJTBQYhYMCFdMnssBJvfugKyxdGEYzA57QtS5sYVXs" ] },
      { "delegate": "tz1fwnfJNgiDACshK9avfRfFbMaXrs3ghoJa",
        "reception_time": "2022-01-19T11:57:07.935-00:00",
        "included_in_blocks":
          [ "BLwx8SujiAJTBQYhYMCFdMnssBJvfugKyxdGEYzA57QtS5sYVXs" ] },
      { "delegate": "tz1LmaFsWRkjr7QMCx5PtV6xTUz3AmEpKQiF",
        "reception_time": "2022-01-19T11:57:07.963-00:00",
        "included_in_blocks":
          [ "BLwx8SujiAJTBQYhYMCFdMnssBJvfugKyxdGEYzA57QtS5sYVXs" ] },
      { "delegate": "tz3WMqdzXqRWXwyvj5Hp2H7QEepaUuS7vd9K",
        "reception_time": "2022-01-19T11:57:07.980-00:00",
        "included_in_blocks":
          [ "BLwx8SujiAJTBQYhYMCFdMnssBJvfugKyxdGEYzA57QtS5sYVXs" ] },
      { "delegate": "tz3VEZ4k6a4Wx42iyev6i2aVAptTRLEAivNN",
        "reception_time": "2022-01-19T11:57:07.993-00:00",
        "included_in_blocks":
          [ "BLwx8SujiAJTBQYhYMCFdMnssBJvfugKyxdGEYzA57QtS5sYVXs" ] },
      { "delegate": "tz1dRKU4FQ9QRRQPdaH4zCR6gmCmXfcvcgtB",
        "reception_time": "2022-01-19T11:57:08.095-00:00",
        "included_in_blocks":
          [ "BLwx8SujiAJTBQYhYMCFdMnssBJvfugKyxdGEYzA57QtS5sYVXs" ] },
      { "delegate": "tz1TRqbYbUf2GyrjErf3hBzgBJPzW8y36qEs",
        "reception_time": "2022-01-19T11:57:08.111-00:00",
        "included_in_blocks":
          [ "BLwx8SujiAJTBQYhYMCFdMnssBJvfugKyxdGEYzA57QtS5sYVXs" ] },
      { "delegate": "tz3bvNMQ95vfAYtG8193ymshqjSvmxiCUuR5",
        "reception_time": "2022-01-19T11:57:08.120-00:00",
        "included_in_blocks":
          [ "BLwx8SujiAJTBQYhYMCFdMnssBJvfugKyxdGEYzA57QtS5sYVXs" ] },
      { "delegate": "tz1iPHM2Xx2hwmzcr1EG1zzrV6oKafVoA91m",
        "reception_time": "2022-01-19T11:57:08.124-00:00",
        "included_in_blocks":
          [ "BLwx8SujiAJTBQYhYMCFdMnssBJvfugKyxdGEYzA57QtS5sYVXs" ] },
      { "delegate": "tz1ZcTRk5uxD86EFEn1vvNffWWqJy7q5eVhc",
        "reception_time": "2022-01-19T11:57:08.163-00:00",
        "included_in_blocks":
          [ "BLwx8SujiAJTBQYhYMCFdMnssBJvfugKyxdGEYzA57QtS5sYVXs" ] },
      { "delegate": "tz3NDpRj6WBrJPikcPVHRBEjWKxFw3c6eQPS",
        "reception_time": "2022-01-19T11:57:08.190-00:00",
        "included_in_blocks":
          [ "BLwx8SujiAJTBQYhYMCFdMnssBJvfugKyxdGEYzA57QtS5sYVXs" ] },
      { "delegate": "tz3gLTu4Yxj8tPAcriQVUdxv6BY9QyvzU1az",
        "reception_time": "2022-01-19T11:57:08.201-00:00",
        "included_in_blocks":
          [ "BLwx8SujiAJTBQYhYMCFdMnssBJvfugKyxdGEYzA57QtS5sYVXs" ] },
      { "delegate": "tz3NExpXn9aPNZPorRE4SdjJ2RGrfbJgMAaV",
        "reception_time": "2022-01-19T11:57:08.216-00:00",
        "included_in_blocks":
          [ "BLwx8SujiAJTBQYhYMCFdMnssBJvfugKyxdGEYzA57QtS5sYVXs" ] },
      { "delegate": "tz3RDC3Jdn4j15J7bBHZd29EUee9gVB1CxD9",
        "reception_time": "2022-01-19T11:57:08.236-00:00",
        "included_in_blocks":
          [ "BLwx8SujiAJTBQYhYMCFdMnssBJvfugKyxdGEYzA57QtS5sYVXs" ] },
      { "delegate": "tz1KfEsrtDaA1sX7vdM4qmEPWuSytuqCDp5j",
        "reception_time": "2022-01-19T11:57:08.292-00:00",
        "included_in_blocks":
          [ "BLwx8SujiAJTBQYhYMCFdMnssBJvfugKyxdGEYzA57QtS5sYVXs" ] },
      { "delegate": "tz3UoffC7FG7zfpmvmjUmUeAaHvzdcUvAj6r",
        "reception_time": "2022-01-19T11:57:08.303-00:00",
        "included_in_blocks":
          [ "BLwx8SujiAJTBQYhYMCFdMnssBJvfugKyxdGEYzA57QtS5sYVXs" ] },
      { "delegate": "tz1MGTFJXpQmtxLi8QJ7AuVRgM2L2Qfn9w9i",
        "reception_time": "2022-01-19T11:57:08.336-00:00",
        "included_in_blocks":
          [ "BLwx8SujiAJTBQYhYMCFdMnssBJvfugKyxdGEYzA57QtS5sYVXs" ] },
      { "delegate": "tz1awXW7wuXy21c66vBudMXQVAPgRnqqwgTH",
        "reception_time": "2022-01-19T11:57:08.469-00:00",
        "included_in_blocks":
          [ "BLwx8SujiAJTBQYhYMCFdMnssBJvfugKyxdGEYzA57QtS5sYVXs" ] },
      { "delegate": "tz1bTpviNnyx2PXsNmGpCQTMQsGoYordkUoA",
        "reception_time": "2022-01-19T11:57:08.748-00:00",
        "included_in_blocks":
          [ "BLwx8SujiAJTBQYhYMCFdMnssBJvfugKyxdGEYzA57QtS5sYVXs" ] },
      { "delegate": "tz1SohptP53wDPZhzTWzDUFAUcWF6DMBpaJV",
        "reception_time": "2022-01-19T11:57:09.532-00:00",
        "included_in_blocks":
          [ "BLwx8SujiAJTBQYhYMCFdMnssBJvfugKyxdGEYzA57QtS5sYVXs" ] },
      { "delegate": "tz3bEQoFCZEEfZMskefZ8q8e4eiHH1pssRax",
        "reception_time": "2022-01-19T11:57:10.451-00:00",
        "included_in_blocks":
          [ "BLwx8SujiAJTBQYhYMCFdMnssBJvfugKyxdGEYzA57QtS5sYVXs" ] },
      { "delegate": "tz1aRoaRhSpRYvFdyvgWLL6TGyRoGF51wDjM",
        "reception_time": "2022-01-19T11:57:11.081-00:00",
        "included_in_blocks":
          [ "BLwx8SujiAJTBQYhYMCFdMnssBJvfugKyxdGEYzA57QtS5sYVXs" ] } ] }