{ "blocks":
    [ { "hash": "BLwv6wCbEcPGWcr4vBdt2N3wWXefp95voD144yxqcYkoCPbL5W9",
        "delegate": "tz1Ldzz6k1BHdhuKvAtMRX7h5kJSMHESMHLC",
        "reception_time": "2022-01-19T11:02:57.506-00:00",
        "timestamp": "2022-01-19T11:02:50Z" } ],
  "endorsements":
    [ { "delegate": "tz1aDiEJf9ztRrAJEXZfcG3CKimoKsGhwVAi",
        "reception_time": "2022-01-19T11:02:57.479-00:00",
        "errors":
          [ { "kind": "temporary",
              "id": "proto.011-PtHangz2.prefilter.outdated_endorsement" } ],
        "included_in_blocks":
          [ "BLixU2KroYLTGwbJeJ8wHJfh4MgjmWueFHh4eqQpjEmZ1SmuAfX" ] },
      { "delegate": "tz1gUNyn3hmnEWqkusWPzxRaon1cs7ndWh7h",
        "reception_time": "2022-01-19T11:02:57.403-00:00",
        "errors":
          [ { "kind": "temporary",
              "id": "proto.011-PtHangz2.prefilter.outdated_endorsement" } ],
        "included_in_blocks":
          [ "BLixU2KroYLTGwbJeJ8wHJfh4MgjmWueFHh4eqQpjEmZ1SmuAfX" ] },
      { "delegate": "tz1VQnqCCqX4K5sP3FNkVSNKTdCAMJDd3E1n",
        "reception_time": "2022-01-19T11:02:57.295-00:00",
        "errors":
          [ { "kind": "temporary",
              "id": "proto.011-PtHangz2.prefilter.outdated_endorsement" } ],
        "included_in_blocks":
          [ "BLixU2KroYLTGwbJeJ8wHJfh4MgjmWueFHh4eqQpjEmZ1SmuAfX" ] },
      { "delegate": "tz1P2Po7YM526ughEsRbY4oR9zaUPDZjxFrb",
        "reception_time": "2022-01-19T11:02:57.231-00:00",
        "errors":
          [ { "kind": "temporary",
              "id": "proto.011-PtHangz2.prefilter.outdated_endorsement" } ],
        "included_in_blocks":
          [ "BLixU2KroYLTGwbJeJ8wHJfh4MgjmWueFHh4eqQpjEmZ1SmuAfX" ] },
      { "delegate": "tz1TXzyaKUA8wsWefdSnyaYFnV2M3vCV7er9",
        "reception_time": "2022-01-19T11:02:57.171-00:00",
        "errors":
          [ { "kind": "temporary",
              "id": "proto.011-PtHangz2.prefilter.outdated_endorsement" } ],
        "included_in_blocks":
          [ "BLixU2KroYLTGwbJeJ8wHJfh4MgjmWueFHh4eqQpjEmZ1SmuAfX" ] },
      { "delegate": "tz1Zhv3RkfU2pHrmaiDyxp7kFZpZrUCu1CiF",
        "reception_time": "2022-01-19T11:02:57.002-00:00",
        "errors":
          [ { "kind": "temporary",
              "id": "proto.011-PtHangz2.prefilter.outdated_endorsement" } ],
        "included_in_blocks":
          [ "BLixU2KroYLTGwbJeJ8wHJfh4MgjmWueFHh4eqQpjEmZ1SmuAfX" ] },
      { "delegate": "tz1Ldzz6k1BHdhuKvAtMRX7h5kJSMHESMHLC",
        "reception_time": "2022-01-19T11:02:56.941-00:00",
        "errors":
          [ { "kind": "temporary",
              "id": "proto.011-PtHangz2.prefilter.outdated_endorsement" } ],
        "included_in_blocks":
          [ "BLixU2KroYLTGwbJeJ8wHJfh4MgjmWueFHh4eqQpjEmZ1SmuAfX" ] },
      { "delegate": "tz1WnyXakHZKotpQHxevTnLmomz5rTwdiccy" },
      { "delegate": "tz1dbfppLAAxXZNtf2SDps7rch3qfUznKSoK" },
      { "delegate": "tz1XfAjZyaLdceHnZxbMYop7g7kWKPut4PR7",
        "reception_time": "2022-01-19T11:02:58.872-00:00",
        "included_in_blocks":
          [ "BLixU2KroYLTGwbJeJ8wHJfh4MgjmWueFHh4eqQpjEmZ1SmuAfX" ] },
      { "delegate": "tz1irJKkXS2DBWkU1NnmFQx1c1L7pbGg4yhk",
        "reception_time": "2022-01-19T11:02:58.946-00:00",
        "included_in_blocks":
          [ "BLixU2KroYLTGwbJeJ8wHJfh4MgjmWueFHh4eqQpjEmZ1SmuAfX" ] },
      { "delegate": "tz1eEnQhbwf6trb8Q8mPb2RaPkNk2rN7BKi8",
        "reception_time": "2022-01-19T11:02:58.950-00:00",
        "included_in_blocks":
          [ "BLixU2KroYLTGwbJeJ8wHJfh4MgjmWueFHh4eqQpjEmZ1SmuAfX" ] },
      { "delegate": "tz3QT9dHYKDqh563chVa6za8526ys1UKfRfL",
        "reception_time": "2022-01-19T11:02:58.964-00:00",
        "included_in_blocks":
          [ "BLixU2KroYLTGwbJeJ8wHJfh4MgjmWueFHh4eqQpjEmZ1SmuAfX" ] },
      { "delegate": "tz3adcvQaKXTCg12zbninqo3q8ptKKtDFTLv",
        "reception_time": "2022-01-19T11:02:58.964-00:00",
        "included_in_blocks":
          [ "BLixU2KroYLTGwbJeJ8wHJfh4MgjmWueFHh4eqQpjEmZ1SmuAfX" ] },
      { "delegate": "tz1dwu9aYb7CRNq4Y2zAjipdjFuSVKhHS8vA",
        "reception_time": "2022-01-19T11:02:58.967-00:00",
        "included_in_blocks":
          [ "BLixU2KroYLTGwbJeJ8wHJfh4MgjmWueFHh4eqQpjEmZ1SmuAfX" ] },
      { "delegate": "tz1PWCDnz783NNGGQjEFFsHtrcK5yBW4E2rm",
        "reception_time": "2022-01-19T11:02:58.980-00:00",
        "included_in_blocks":
          [ "BLixU2KroYLTGwbJeJ8wHJfh4MgjmWueFHh4eqQpjEmZ1SmuAfX" ] },
      { "delegate": "tz3QSGPoRp3Kn7n3vY24eYeu3Peuqo45LQ4D",
        "reception_time": "2022-01-19T11:02:58.980-00:00",
        "included_in_blocks":
          [ "BLixU2KroYLTGwbJeJ8wHJfh4MgjmWueFHh4eqQpjEmZ1SmuAfX" ] },
      { "delegate": "tz3RKYFsLuQzKBtmYuLNas7uMu3AsYd4QdsA",
        "reception_time": "2022-01-19T11:02:59.005-00:00",
        "included_in_blocks":
          [ "BLixU2KroYLTGwbJeJ8wHJfh4MgjmWueFHh4eqQpjEmZ1SmuAfX" ] },
      { "delegate": "tz1MJx9vhaNRSimcuXPK2rW4fLccQnDAnVKJ",
        "reception_time": "2022-01-19T11:02:59.005-00:00",
        "included_in_blocks":
          [ "BLixU2KroYLTGwbJeJ8wHJfh4MgjmWueFHh4eqQpjEmZ1SmuAfX" ] },
      { "delegate": "tz1fb7c66UwePkkfDXz4ajFaBP9hVNLdS7JJ",
        "reception_time": "2022-01-19T11:02:59.009-00:00",
        "included_in_blocks":
          [ "BLixU2KroYLTGwbJeJ8wHJfh4MgjmWueFHh4eqQpjEmZ1SmuAfX" ] },
      { "delegate": "tz1WCd2jm4uSt4vntk4vSuUWoZQGhLcDuR9q",
        "reception_time": "2022-01-19T11:02:59.020-00:00",
        "included_in_blocks":
          [ "BLixU2KroYLTGwbJeJ8wHJfh4MgjmWueFHh4eqQpjEmZ1SmuAfX" ] },
      { "delegate": "tz3hw2kqXhLUvY65ca1eety2oQTpAvd34R9Q",
        "reception_time": "2022-01-19T11:02:59.037-00:00",
        "included_in_blocks":
          [ "BLixU2KroYLTGwbJeJ8wHJfh4MgjmWueFHh4eqQpjEmZ1SmuAfX" ] },
      { "delegate": "tz3gtoUxdudfBRcNY7iVdKPHCYYX6xdPpoRS",
        "reception_time": "2022-01-19T11:02:59.037-00:00",
        "included_in_blocks":
          [ "BLixU2KroYLTGwbJeJ8wHJfh4MgjmWueFHh4eqQpjEmZ1SmuAfX" ] },
      { "delegate": "tz3S6BBeKgJGXxvLyZ1xzXzMPn11nnFtq5L9",
        "reception_time": "2022-01-19T11:02:59.045-00:00",
        "included_in_blocks":
          [ "BLixU2KroYLTGwbJeJ8wHJfh4MgjmWueFHh4eqQpjEmZ1SmuAfX" ] },
      { "delegate": "tz1cYqRcjRXSWcs3bjehN21VmBAH2aFMg6Ds",
        "reception_time": "2022-01-19T11:02:59.054-00:00",
        "included_in_blocks":
          [ "BLixU2KroYLTGwbJeJ8wHJfh4MgjmWueFHh4eqQpjEmZ1SmuAfX" ] },
      { "delegate": "tz3ZbP2pM3nwvXztbuMJwJnDvV5xdpU8UkkD",
        "reception_time": "2022-01-19T11:02:59.071-00:00",
        "included_in_blocks":
          [ "BLixU2KroYLTGwbJeJ8wHJfh4MgjmWueFHh4eqQpjEmZ1SmuAfX" ] },
      { "delegate": "tz1V4qCyvPKZ5UeqdH14HN42rxvNPQfc9UZg",
        "reception_time": "2022-01-19T11:02:59.187-00:00",
        "included_in_blocks":
          [ "BLixU2KroYLTGwbJeJ8wHJfh4MgjmWueFHh4eqQpjEmZ1SmuAfX" ] },
      { "delegate": "tz1MQMiZHV8q4tTwUMWmS5Y3kaP6J2136iXr",
        "reception_time": "2022-01-19T11:02:59.197-00:00",
        "included_in_blocks":
          [ "BLixU2KroYLTGwbJeJ8wHJfh4MgjmWueFHh4eqQpjEmZ1SmuAfX" ] },
      { "delegate": "tz1ei4WtWEMEJekSv8qDnu9PExG6Q8HgRGr3",
        "reception_time": "2022-01-19T11:02:59.226-00:00",
        "included_in_blocks":
          [ "BLixU2KroYLTGwbJeJ8wHJfh4MgjmWueFHh4eqQpjEmZ1SmuAfX" ] },
      { "delegate": "tz1TEc75UKXv4W5cwi14Na3NtqFD51yKQi7h",
        "reception_time": "2022-01-19T11:02:59.309-00:00",
        "included_in_blocks":
          [ "BLixU2KroYLTGwbJeJ8wHJfh4MgjmWueFHh4eqQpjEmZ1SmuAfX" ] },
      { "delegate": "tz3Zhs2dygr55yHyQyKjntAtY9bgfhLZ4Xj1",
        "reception_time": "2022-01-19T11:02:59.349-00:00",
        "included_in_blocks":
          [ "BLixU2KroYLTGwbJeJ8wHJfh4MgjmWueFHh4eqQpjEmZ1SmuAfX" ] },
      { "delegate": "tz1dNVDWPf3Q59SdJqnjdnu277iyvReiRS9M",
        "reception_time": "2022-01-19T11:02:59.363-00:00",
        "included_in_blocks":
          [ "BLixU2KroYLTGwbJeJ8wHJfh4MgjmWueFHh4eqQpjEmZ1SmuAfX" ] },
      { "delegate": "tz3iJu5vrKZcsqRPs8yJ61UDoeEXZmtro4qh",
        "reception_time": "2022-01-19T11:02:59.391-00:00",
        "included_in_blocks":
          [ "BLixU2KroYLTGwbJeJ8wHJfh4MgjmWueFHh4eqQpjEmZ1SmuAfX" ] },
      { "delegate": "tz3QCNyySViKHmeSr45kzDxzchys7NiXCWoa",
        "reception_time": "2022-01-19T11:02:59.408-00:00",
        "included_in_blocks":
          [ "BLixU2KroYLTGwbJeJ8wHJfh4MgjmWueFHh4eqQpjEmZ1SmuAfX" ] },
      { "delegate": "tz1Nf6tsK4G6bBqgSQERy4nUtkHNKUVdh7q1",
        "reception_time": "2022-01-19T11:02:59.431-00:00",
        "included_in_blocks":
          [ "BLixU2KroYLTGwbJeJ8wHJfh4MgjmWueFHh4eqQpjEmZ1SmuAfX" ] },
      { "delegate": "tz1SYq214SCBy9naR6cvycQsYcUGpBqQAE8d",
        "reception_time": "2022-01-19T11:02:59.446-00:00",
        "included_in_blocks":
          [ "BLixU2KroYLTGwbJeJ8wHJfh4MgjmWueFHh4eqQpjEmZ1SmuAfX" ] },
      { "delegate": "tz1S8MNvuFEUsWgjHvi3AxibRBf388NhT1q2",
        "reception_time": "2022-01-19T11:02:59.545-00:00",
        "included_in_blocks":
          [ "BLixU2KroYLTGwbJeJ8wHJfh4MgjmWueFHh4eqQpjEmZ1SmuAfX" ] },
      { "delegate": "tz1RCFbB9GpALpsZtu6J58sb74dm8qe6XBzv",
        "reception_time": "2022-01-19T11:02:59.553-00:00",
        "included_in_blocks":
          [ "BLixU2KroYLTGwbJeJ8wHJfh4MgjmWueFHh4eqQpjEmZ1SmuAfX" ] },
      { "delegate": "tz1bZ8vsMAXmaWEV7FRnyhcuUs2fYMaQ6Hkk",
        "reception_time": "2022-01-19T11:02:59.617-00:00",
        "included_in_blocks":
          [ "BLixU2KroYLTGwbJeJ8wHJfh4MgjmWueFHh4eqQpjEmZ1SmuAfX" ] },
      { "delegate": "tz1UMCB2AHSTwG7YcGNr31CqYCtGN873royv",
        "reception_time": "2022-01-19T11:02:59.643-00:00",
        "included_in_blocks":
          [ "BLixU2KroYLTGwbJeJ8wHJfh4MgjmWueFHh4eqQpjEmZ1SmuAfX" ] },
      { "delegate": "tz1NEKxGEHsFufk87CVZcrqWu8o22qh46GK6",
        "reception_time": "2022-01-19T11:02:59.647-00:00",
        "included_in_blocks":
          [ "BLixU2KroYLTGwbJeJ8wHJfh4MgjmWueFHh4eqQpjEmZ1SmuAfX" ] },
      { "delegate": "tz3bTdwZinP8U1JmSweNzVKhmwafqWmFWRfk",
        "reception_time": "2022-01-19T11:02:59.881-00:00",
        "included_in_blocks":
          [ "BLixU2KroYLTGwbJeJ8wHJfh4MgjmWueFHh4eqQpjEmZ1SmuAfX" ] },
      { "delegate": "tz1Tnjaxk6tbAeC2TmMApPh8UsrEVQvhHvx5",
        "reception_time": "2022-01-19T11:03:00.119-00:00",
        "included_in_blocks":
          [ "BLixU2KroYLTGwbJeJ8wHJfh4MgjmWueFHh4eqQpjEmZ1SmuAfX" ] },
      { "delegate": "tz1gfArv665EUkSg2ojMBzcbfwuPxAvqPvjo",
        "reception_time": "2022-01-19T11:03:00.122-00:00",
        "included_in_blocks":
          [ "BLixU2KroYLTGwbJeJ8wHJfh4MgjmWueFHh4eqQpjEmZ1SmuAfX" ] },
      { "delegate": "tz1NortRftucvAkD1J58L32EhSVrQEWJCEnB",
        "reception_time": "2022-01-19T11:03:00.385-00:00",
        "included_in_blocks":
          [ "BLixU2KroYLTGwbJeJ8wHJfh4MgjmWueFHh4eqQpjEmZ1SmuAfX" ] },
      { "delegate": "tz1dRKU4FQ9QRRQPdaH4zCR6gmCmXfcvcgtB",
        "reception_time": "2022-01-19T11:03:00.508-00:00",
        "included_in_blocks":
          [ "BLixU2KroYLTGwbJeJ8wHJfh4MgjmWueFHh4eqQpjEmZ1SmuAfX" ] },
      { "delegate": "tz1T7duV5gZWSTq4YpBGbXNLTfznCLDrFxvs",
        "reception_time": "2022-01-19T11:03:00.551-00:00",
        "included_in_blocks":
          [ "BLixU2KroYLTGwbJeJ8wHJfh4MgjmWueFHh4eqQpjEmZ1SmuAfX" ] },
      { "delegate": "tz1RjoHc98dBoqaH2jawF62XNKh7YsHwbkEv",
        "reception_time": "2022-01-19T11:03:00.558-00:00",
        "included_in_blocks":
          [ "BLixU2KroYLTGwbJeJ8wHJfh4MgjmWueFHh4eqQpjEmZ1SmuAfX" ] },
      { "delegate": "tz2FCNBrERXtaTtNX6iimR1UJ5JSDxvdHM93",
        "reception_time": "2022-01-19T11:03:00.562-00:00",
        "included_in_blocks":
          [ "BLixU2KroYLTGwbJeJ8wHJfh4MgjmWueFHh4eqQpjEmZ1SmuAfX" ] },
      { "delegate": "tz3gLTu4Yxj8tPAcriQVUdxv6BY9QyvzU1az",
        "reception_time": "2022-01-19T11:03:00.581-00:00",
        "included_in_blocks":
          [ "BLixU2KroYLTGwbJeJ8wHJfh4MgjmWueFHh4eqQpjEmZ1SmuAfX" ] },
      { "delegate": "tz1KzSC1J9aBxKp7u8TUnpN8L7S65PBRkgdF",
        "reception_time": "2022-01-19T11:03:00.584-00:00",
        "included_in_blocks":
          [ "BLixU2KroYLTGwbJeJ8wHJfh4MgjmWueFHh4eqQpjEmZ1SmuAfX" ] },
      { "delegate": "tz3NDpRj6WBrJPikcPVHRBEjWKxFw3c6eQPS",
        "reception_time": "2022-01-19T11:03:00.607-00:00",
        "included_in_blocks":
          [ "BLixU2KroYLTGwbJeJ8wHJfh4MgjmWueFHh4eqQpjEmZ1SmuAfX" ] },
      { "delegate": "tz1TwVimQy3BywXoSszdFXjT9bSTQrsZYo2u",
        "reception_time": "2022-01-19T11:03:00.628-00:00",
        "included_in_blocks":
          [ "BLixU2KroYLTGwbJeJ8wHJfh4MgjmWueFHh4eqQpjEmZ1SmuAfX" ] },
      { "delegate": "tz3VEZ4k6a4Wx42iyev6i2aVAptTRLEAivNN",
        "reception_time": "2022-01-19T11:03:00.670-00:00",
        "included_in_blocks":
          [ "BLixU2KroYLTGwbJeJ8wHJfh4MgjmWueFHh4eqQpjEmZ1SmuAfX" ] },
      { "delegate": "tz3RB4aoyjov4KEVRbuhvQ1CKJgBJMWhaeB8",
        "reception_time": "2022-01-19T11:03:00.837-00:00",
        "included_in_blocks":
          [ "BLixU2KroYLTGwbJeJ8wHJfh4MgjmWueFHh4eqQpjEmZ1SmuAfX" ] },
      { "delegate": "tz1abmz7jiCV2GH2u81LRrGgAFFgvQgiDiaf",
        "reception_time": "2022-01-19T11:03:00.864-00:00",
        "included_in_blocks":
          [ "BLixU2KroYLTGwbJeJ8wHJfh4MgjmWueFHh4eqQpjEmZ1SmuAfX" ] },
      { "delegate": "tz3RDC3Jdn4j15J7bBHZd29EUee9gVB1CxD9",
        "reception_time": "2022-01-19T11:03:01.035-00:00",
        "included_in_blocks":
          [ "BLixU2KroYLTGwbJeJ8wHJfh4MgjmWueFHh4eqQpjEmZ1SmuAfX" ] },
      { "delegate": "tz3WMqdzXqRWXwyvj5Hp2H7QEepaUuS7vd9K",
        "reception_time": "2022-01-19T11:03:01.064-00:00",
        "included_in_blocks":
          [ "BLixU2KroYLTGwbJeJ8wHJfh4MgjmWueFHh4eqQpjEmZ1SmuAfX" ] },
      { "delegate": "tz3bvNMQ95vfAYtG8193ymshqjSvmxiCUuR5",
        "reception_time": "2022-01-19T11:03:01.098-00:00",
        "included_in_blocks":
          [ "BLixU2KroYLTGwbJeJ8wHJfh4MgjmWueFHh4eqQpjEmZ1SmuAfX" ] },
      { "delegate": "tz1ZcTRk5uxD86EFEn1vvNffWWqJy7q5eVhc",
        "reception_time": "2022-01-19T11:03:01.430-00:00",
        "included_in_blocks":
          [ "BLixU2KroYLTGwbJeJ8wHJfh4MgjmWueFHh4eqQpjEmZ1SmuAfX" ] },
      { "delegate": "tz1awXW7wuXy21c66vBudMXQVAPgRnqqwgTH",
        "reception_time": "2022-01-19T11:03:01.629-00:00",
        "included_in_blocks":
          [ "BLixU2KroYLTGwbJeJ8wHJfh4MgjmWueFHh4eqQpjEmZ1SmuAfX" ] },
      { "delegate": "tz3NExpXn9aPNZPorRE4SdjJ2RGrfbJgMAaV",
        "reception_time": "2022-01-19T11:03:01.815-00:00",
        "included_in_blocks":
          [ "BLixU2KroYLTGwbJeJ8wHJfh4MgjmWueFHh4eqQpjEmZ1SmuAfX" ] },
      { "delegate": "tz3UoffC7FG7zfpmvmjUmUeAaHvzdcUvAj6r",
        "reception_time": "2022-01-19T11:03:01.849-00:00",
        "included_in_blocks":
          [ "BLixU2KroYLTGwbJeJ8wHJfh4MgjmWueFHh4eqQpjEmZ1SmuAfX" ] },
      { "delegate": "tz1SohptP53wDPZhzTWzDUFAUcWF6DMBpaJV",
        "reception_time": "2022-01-19T11:03:02.032-00:00",
        "included_in_blocks":
          [ "BLixU2KroYLTGwbJeJ8wHJfh4MgjmWueFHh4eqQpjEmZ1SmuAfX" ] },
      { "delegate": "tz1aRoaRhSpRYvFdyvgWLL6TGyRoGF51wDjM",
        "reception_time": "2022-01-19T11:03:02.456-00:00",
        "included_in_blocks":
          [ "BLixU2KroYLTGwbJeJ8wHJfh4MgjmWueFHh4eqQpjEmZ1SmuAfX" ] },
      { "delegate": "tz1g8vkmcde6sWKaG2NN9WKzCkDM6Rziq194",
        "reception_time": "2022-01-19T11:03:03.673-00:00",
        "included_in_blocks":
          [ "BLixU2KroYLTGwbJeJ8wHJfh4MgjmWueFHh4eqQpjEmZ1SmuAfX" ] },
      { "delegate": "tz1S5WxdZR5f9NzsPXhr7L9L1vrEb5spZFur",
        "reception_time": "2022-01-19T11:03:03.892-00:00",
        "included_in_blocks":
          [ "BLixU2KroYLTGwbJeJ8wHJfh4MgjmWueFHh4eqQpjEmZ1SmuAfX" ] },
      { "delegate": "tz2BzJTyoQp8fNbfhWD4YQgH9JJHDgSGzpdG",
        "reception_time": "2022-01-19T11:03:08.240-00:00",
        "included_in_blocks":
          [ "BLixU2KroYLTGwbJeJ8wHJfh4MgjmWueFHh4eqQpjEmZ1SmuAfX" ] } ] }