{ "blocks":
    [ { "hash": "BLxRj8qvAGFcMB6ksNN35WUiheTX62U1bi8gREXCriWV7DxcDLD",
        "delegate": "tz3NxTnke1acr8o3h5y9ytf5awQBGNJUKzVU",
        "reception_time": "2022-01-19T17:42:35.589-00:00",
        "timestamp": "2022-01-19T17:42:10Z" } ],
  "endorsements":
    [ { "delegate": "tz1aRoaRhSpRYvFdyvgWLL6TGyRoGF51wDjM",
        "reception_time": "2022-01-19T17:42:49.411-00:00" },
      { "delegate": "tz1bTpviNnyx2PXsNmGpCQTMQsGoYordkUoA",
        "reception_time": "2022-01-19T17:42:44.960-00:00" },
      { "delegate": "tz3NExpXn9aPNZPorRE4SdjJ2RGrfbJgMAaV",
        "reception_time": "2022-01-19T17:42:41.612-00:00" },
      { "delegate": "tz1TRqbYbUf2GyrjErf3hBzgBJPzW8y36qEs",
        "reception_time": "2022-01-19T17:42:41.598-00:00" },
      { "delegate": "tz3UoffC7FG7zfpmvmjUmUeAaHvzdcUvAj6r",
        "reception_time": "2022-01-19T17:42:41.565-00:00" },
      { "delegate": "tz3VEZ4k6a4Wx42iyev6i2aVAptTRLEAivNN",
        "reception_time": "2022-01-19T17:42:41.140-00:00" },
      { "delegate": "tz1ZcTRk5uxD86EFEn1vvNffWWqJy7q5eVhc",
        "reception_time": "2022-01-19T17:42:41.130-00:00",
        "included_in_blocks":
          [ "BMdhR9t1pthDmT3Y4DaVudoSfkuq3ccyA4BXbCbN2ZjCYG6G4c5" ] },
      { "delegate": "tz3RDC3Jdn4j15J7bBHZd29EUee9gVB1CxD9",
        "reception_time": "2022-01-19T17:42:41.127-00:00" },
      { "delegate": "tz2FCNBrERXtaTtNX6iimR1UJ5JSDxvdHM93",
        "reception_time": "2022-01-19T17:42:41.121-00:00" },
      { "delegate": "tz3WMqdzXqRWXwyvj5Hp2H7QEepaUuS7vd9K",
        "reception_time": "2022-01-19T17:42:41.109-00:00" },
      { "delegate": "tz1RCFbB9GpALpsZtu6J58sb74dm8qe6XBzv",
        "reception_time": "2022-01-19T17:42:41.103-00:00",
        "included_in_blocks":
          [ "BMdhR9t1pthDmT3Y4DaVudoSfkuq3ccyA4BXbCbN2ZjCYG6G4c5" ] },
      { "delegate": "tz3RB4aoyjov4KEVRbuhvQ1CKJgBJMWhaeB8",
        "reception_time": "2022-01-19T17:42:41.101-00:00",
        "included_in_blocks":
          [ "BMdhR9t1pthDmT3Y4DaVudoSfkuq3ccyA4BXbCbN2ZjCYG6G4c5" ] },
      { "delegate": "tz3bTdwZinP8U1JmSweNzVKhmwafqWmFWRfk",
        "reception_time": "2022-01-19T17:42:41.095-00:00",
        "included_in_blocks":
          [ "BMdhR9t1pthDmT3Y4DaVudoSfkuq3ccyA4BXbCbN2ZjCYG6G4c5" ] },
      { "delegate": "tz1S8MNvuFEUsWgjHvi3AxibRBf388NhT1q2",
        "reception_time": "2022-01-19T17:42:41.089-00:00",
        "included_in_blocks":
          [ "BMdhR9t1pthDmT3Y4DaVudoSfkuq3ccyA4BXbCbN2ZjCYG6G4c5" ] },
      { "delegate": "tz3S6BBeKgJGXxvLyZ1xzXzMPn11nnFtq5L9",
        "reception_time": "2022-01-19T17:42:41.087-00:00",
        "included_in_blocks":
          [ "BMdhR9t1pthDmT3Y4DaVudoSfkuq3ccyA4BXbCbN2ZjCYG6G4c5" ] },
      { "delegate": "tz1NdhRv643wLW6zCcRP3VfT24dvDnh7nuh9",
        "reception_time": "2022-01-19T17:42:41.081-00:00" },
      { "delegate": "tz1WBfwbT66FC6BTLexc2BoyCCBM9LG7pnVW",
        "reception_time": "2022-01-19T17:42:41.078-00:00",
        "included_in_blocks":
          [ "BMdhR9t1pthDmT3Y4DaVudoSfkuq3ccyA4BXbCbN2ZjCYG6G4c5" ] },
      { "delegate": "tz3QT9dHYKDqh563chVa6za8526ys1UKfRfL",
        "reception_time": "2022-01-19T17:42:41.066-00:00",
        "included_in_blocks":
          [ "BMdhR9t1pthDmT3Y4DaVudoSfkuq3ccyA4BXbCbN2ZjCYG6G4c5" ] },
      { "delegate": "tz1NEKxGEHsFufk87CVZcrqWu8o22qh46GK6",
        "reception_time": "2022-01-19T17:42:41.059-00:00",
        "included_in_blocks":
          [ "BMdhR9t1pthDmT3Y4DaVudoSfkuq3ccyA4BXbCbN2ZjCYG6G4c5" ] },
      { "delegate": "tz1eLbDXYceRsPZoPmaJXZgQ6pzgnTQvZtpo",
        "reception_time": "2022-01-19T17:42:41.056-00:00",
        "included_in_blocks":
          [ "BMdhR9t1pthDmT3Y4DaVudoSfkuq3ccyA4BXbCbN2ZjCYG6G4c5" ] },
      { "delegate": "tz1eCzNtidHvVgeRzQ38C81FPcYnxMsCEL6Z",
        "reception_time": "2022-01-19T17:42:41.056-00:00",
        "included_in_blocks":
          [ "BMdhR9t1pthDmT3Y4DaVudoSfkuq3ccyA4BXbCbN2ZjCYG6G4c5" ] },
      { "delegate": "tz1TEc75UKXv4W5cwi14Na3NtqFD51yKQi7h",
        "reception_time": "2022-01-19T17:42:41.050-00:00",
        "included_in_blocks":
          [ "BMdhR9t1pthDmT3Y4DaVudoSfkuq3ccyA4BXbCbN2ZjCYG6G4c5" ] },
      { "delegate": "tz1dwu9aYb7CRNq4Y2zAjipdjFuSVKhHS8vA",
        "reception_time": "2022-01-19T17:42:41.050-00:00",
        "included_in_blocks":
          [ "BMdhR9t1pthDmT3Y4DaVudoSfkuq3ccyA4BXbCbN2ZjCYG6G4c5" ] },
      { "delegate": "tz3adcvQaKXTCg12zbninqo3q8ptKKtDFTLv",
        "reception_time": "2022-01-19T17:42:41.028-00:00",
        "included_in_blocks":
          [ "BMdhR9t1pthDmT3Y4DaVudoSfkuq3ccyA4BXbCbN2ZjCYG6G4c5" ] },
      { "delegate": "tz1Nf6tsK4G6bBqgSQERy4nUtkHNKUVdh7q1",
        "reception_time": "2022-01-19T17:42:41.011-00:00",
        "included_in_blocks":
          [ "BMdhR9t1pthDmT3Y4DaVudoSfkuq3ccyA4BXbCbN2ZjCYG6G4c5" ] },
      { "delegate": "tz3e7LbZvUtoXhpUD1yb6wuFodZpfYRb9nWJ",
        "reception_time": "2022-01-19T17:42:41.011-00:00",
        "included_in_blocks":
          [ "BMdhR9t1pthDmT3Y4DaVudoSfkuq3ccyA4BXbCbN2ZjCYG6G4c5" ] },
      { "delegate": "tz1NMdMmWZN8QPB8pY4ddncACDg1cHi1xD2e",
        "reception_time": "2022-01-19T17:42:40.994-00:00",
        "included_in_blocks":
          [ "BMdhR9t1pthDmT3Y4DaVudoSfkuq3ccyA4BXbCbN2ZjCYG6G4c5" ] },
      { "delegate": "tz3bvNMQ95vfAYtG8193ymshqjSvmxiCUuR5",
        "reception_time": "2022-01-19T17:42:40.888-00:00" },
      { "delegate": "tz1abmz7jiCV2GH2u81LRrGgAFFgvQgiDiaf",
        "reception_time": "2022-01-19T17:42:40.873-00:00" },
      { "delegate": "tz1NSDFKuRyzHxpfG1AMkyCwEiZ52cbR2mRW",
        "reception_time": "2022-01-19T17:42:40.873-00:00" },
      { "delegate": "tz3QSGPoRp3Kn7n3vY24eYeu3Peuqo45LQ4D",
        "reception_time": "2022-01-19T17:42:40.870-00:00",
        "included_in_blocks":
          [ "BMdhR9t1pthDmT3Y4DaVudoSfkuq3ccyA4BXbCbN2ZjCYG6G4c5" ] },
      { "delegate": "tz1TRspM5SeZpaQUhzByXbEvqKF1vnCM2YTK",
        "reception_time": "2022-01-19T17:42:40.863-00:00",
        "included_in_blocks":
          [ "BMdhR9t1pthDmT3Y4DaVudoSfkuq3ccyA4BXbCbN2ZjCYG6G4c5" ] },
      { "delegate": "tz3NDpRj6WBrJPikcPVHRBEjWKxFw3c6eQPS",
        "reception_time": "2022-01-19T17:42:40.863-00:00" },
      { "delegate": "tz3Zhs2dygr55yHyQyKjntAtY9bgfhLZ4Xj1",
        "reception_time": "2022-01-19T17:42:40.856-00:00",
        "included_in_blocks":
          [ "BMdhR9t1pthDmT3Y4DaVudoSfkuq3ccyA4BXbCbN2ZjCYG6G4c5" ] },
      { "delegate": "tz1PeZx7FXy7QRuMREGXGxeipb24RsMMzUNe",
        "reception_time": "2022-01-19T17:42:40.856-00:00",
        "included_in_blocks":
          [ "BMdhR9t1pthDmT3Y4DaVudoSfkuq3ccyA4BXbCbN2ZjCYG6G4c5" ] },
      { "delegate": "tz3iJu5vrKZcsqRPs8yJ61UDoeEXZmtro4qh",
        "reception_time": "2022-01-19T17:42:40.847-00:00",
        "included_in_blocks":
          [ "BMdhR9t1pthDmT3Y4DaVudoSfkuq3ccyA4BXbCbN2ZjCYG6G4c5" ] },
      { "delegate": "tz1gfArv665EUkSg2ojMBzcbfwuPxAvqPvjo",
        "reception_time": "2022-01-19T17:42:40.847-00:00",
        "included_in_blocks":
          [ "BMdhR9t1pthDmT3Y4DaVudoSfkuq3ccyA4BXbCbN2ZjCYG6G4c5" ] },
      { "delegate": "tz3RKYFsLuQzKBtmYuLNas7uMu3AsYd4QdsA",
        "reception_time": "2022-01-19T17:42:40.839-00:00",
        "included_in_blocks":
          [ "BMdhR9t1pthDmT3Y4DaVudoSfkuq3ccyA4BXbCbN2ZjCYG6G4c5" ] },
      { "delegate": "tz3hw2kqXhLUvY65ca1eety2oQTpAvd34R9Q",
        "reception_time": "2022-01-19T17:42:40.826-00:00",
        "included_in_blocks":
          [ "BMdhR9t1pthDmT3Y4DaVudoSfkuq3ccyA4BXbCbN2ZjCYG6G4c5" ] },
      { "delegate": "tz1PWCDnz783NNGGQjEFFsHtrcK5yBW4E2rm",
        "reception_time": "2022-01-19T17:42:40.697-00:00",
        "included_in_blocks":
          [ "BMdhR9t1pthDmT3Y4DaVudoSfkuq3ccyA4BXbCbN2ZjCYG6G4c5" ] },
      { "delegate": "tz1fwnfJNgiDACshK9avfRfFbMaXrs3ghoJa",
        "reception_time": "2022-01-19T17:42:40.694-00:00",
        "included_in_blocks":
          [ "BMdhR9t1pthDmT3Y4DaVudoSfkuq3ccyA4BXbCbN2ZjCYG6G4c5" ] },
      { "delegate": "tz3gtoUxdudfBRcNY7iVdKPHCYYX6xdPpoRS",
        "reception_time": "2022-01-19T17:42:40.694-00:00",
        "included_in_blocks":
          [ "BMdhR9t1pthDmT3Y4DaVudoSfkuq3ccyA4BXbCbN2ZjCYG6G4c5" ] },
      { "delegate": "tz1ei4WtWEMEJekSv8qDnu9PExG6Q8HgRGr3",
        "reception_time": "2022-01-19T17:42:40.681-00:00",
        "included_in_blocks":
          [ "BMdhR9t1pthDmT3Y4DaVudoSfkuq3ccyA4BXbCbN2ZjCYG6G4c5" ] },
      { "delegate": "tz1d6Fx42mYgVFnHUW8T8A7WBfJ6nD9pVok8",
        "reception_time": "2022-01-19T17:42:40.652-00:00",
        "included_in_blocks":
          [ "BMdhR9t1pthDmT3Y4DaVudoSfkuq3ccyA4BXbCbN2ZjCYG6G4c5" ] },
      { "delegate": "tz1eEnQhbwf6trb8Q8mPb2RaPkNk2rN7BKi8",
        "reception_time": "2022-01-19T17:42:40.650-00:00",
        "included_in_blocks":
          [ "BMdhR9t1pthDmT3Y4DaVudoSfkuq3ccyA4BXbCbN2ZjCYG6G4c5" ] },
      { "delegate": "tz1P2Po7YM526ughEsRbY4oR9zaUPDZjxFrb",
        "reception_time": "2022-01-19T17:42:40.636-00:00",
        "included_in_blocks":
          [ "BMdhR9t1pthDmT3Y4DaVudoSfkuq3ccyA4BXbCbN2ZjCYG6G4c5" ] },
      { "delegate": "tz1TzaNn7wSQSP5gYPXCnNzBCpyMiidCq1PX",
        "reception_time": "2022-01-19T17:42:40.634-00:00",
        "included_in_blocks":
          [ "BMdhR9t1pthDmT3Y4DaVudoSfkuq3ccyA4BXbCbN2ZjCYG6G4c5" ] },
      { "delegate": "tz1TXzyaKUA8wsWefdSnyaYFnV2M3vCV7er9",
        "reception_time": "2022-01-19T17:42:40.630-00:00",
        "included_in_blocks":
          [ "BMdhR9t1pthDmT3Y4DaVudoSfkuq3ccyA4BXbCbN2ZjCYG6G4c5" ] },
      { "delegate": "tz1WCd2jm4uSt4vntk4vSuUWoZQGhLcDuR9q",
        "reception_time": "2022-01-19T17:42:40.630-00:00",
        "included_in_blocks":
          [ "BMdhR9t1pthDmT3Y4DaVudoSfkuq3ccyA4BXbCbN2ZjCYG6G4c5" ] },
      { "delegate": "tz1aqcYgG6NuViML5vdWhohHJBYxcDVLNUsE",
        "reception_time": "2022-01-19T17:42:40.630-00:00",
        "included_in_blocks":
          [ "BMdhR9t1pthDmT3Y4DaVudoSfkuq3ccyA4BXbCbN2ZjCYG6G4c5" ] },
      { "delegate": "tz3ZbP2pM3nwvXztbuMJwJnDvV5xdpU8UkkD",
        "reception_time": "2022-01-19T17:42:40.583-00:00",
        "included_in_blocks":
          [ "BMdhR9t1pthDmT3Y4DaVudoSfkuq3ccyA4BXbCbN2ZjCYG6G4c5" ] },
      { "delegate": "tz1STeamwbp68THcny9zk3LsbG3H36DMvbRK",
        "reception_time": "2022-01-19T17:42:40.564-00:00",
        "included_in_blocks":
          [ "BMdhR9t1pthDmT3Y4DaVudoSfkuq3ccyA4BXbCbN2ZjCYG6G4c5" ] },
      { "delegate": "tz1irJKkXS2DBWkU1NnmFQx1c1L7pbGg4yhk",
        "reception_time": "2022-01-19T17:42:40.562-00:00",
        "included_in_blocks":
          [ "BMdhR9t1pthDmT3Y4DaVudoSfkuq3ccyA4BXbCbN2ZjCYG6G4c5" ] },
      { "delegate": "tz1gUNyn3hmnEWqkusWPzxRaon1cs7ndWh7h",
        "reception_time": "2022-01-19T17:42:39.866-00:00",
        "included_in_blocks":
          [ "BMdhR9t1pthDmT3Y4DaVudoSfkuq3ccyA4BXbCbN2ZjCYG6G4c5" ] },
      { "delegate": "tz1awXW7wuXy21c66vBudMXQVAPgRnqqwgTH" },
      { "delegate": "tz1NpWrAyDL9k2Lmnyxcgr9xuJakbBxdq7FB" },
      { "delegate": "tz1Zhv3RkfU2pHrmaiDyxp7kFZpZrUCu1CiF",
        "reception_time": "2022-01-19T17:42:35.137-00:00",
        "errors":
          [ { "kind": "temporary",
              "id": "proto.011-PtHangz2.prefilter.outdated_endorsement" } ],
        "included_in_blocks":
          [ "BMdhR9t1pthDmT3Y4DaVudoSfkuq3ccyA4BXbCbN2ZjCYG6G4c5" ] },
      { "delegate": "tz1VmiY38m3y95HqQLjMwqnMS7sdMfGomzKi",
        "reception_time": "2022-01-19T17:42:35.453-00:00",
        "errors":
          [ { "kind": "temporary",
              "id": "proto.011-PtHangz2.prefilter.outdated_endorsement" } ],
        "included_in_blocks":
          [ "BMdhR9t1pthDmT3Y4DaVudoSfkuq3ccyA4BXbCbN2ZjCYG6G4c5" ] },
      { "delegate": "tz1Ldzz6k1BHdhuKvAtMRX7h5kJSMHESMHLC",
        "reception_time": "2022-01-19T17:42:35.509-00:00",
        "errors":
          [ { "kind": "temporary",
              "id": "proto.011-PtHangz2.prefilter.outdated_endorsement" } ],
        "included_in_blocks":
          [ "BMdhR9t1pthDmT3Y4DaVudoSfkuq3ccyA4BXbCbN2ZjCYG6G4c5" ] },
      { "delegate": "tz1VQnqCCqX4K5sP3FNkVSNKTdCAMJDd3E1n",
        "reception_time": "2022-01-19T17:42:35.524-00:00",
        "errors":
          [ { "kind": "temporary",
              "id": "proto.011-PtHangz2.prefilter.outdated_endorsement" } ],
        "included_in_blocks":
          [ "BMdhR9t1pthDmT3Y4DaVudoSfkuq3ccyA4BXbCbN2ZjCYG6G4c5" ] } ] }