{ "blocks":
    [ { "hash": "BLwPCGsBDqeGUczhYS9ymobHBEPKTqaTgYYGWZNHY43ufVracra",
        "delegate": "tz1irJKkXS2DBWkU1NnmFQx1c1L7pbGg4yhk",
        "reception_time": "2022-01-19T17:27:42.090-00:00",
        "timestamp": "2022-01-19T17:27:30Z" } ],
  "endorsements":
    [ { "delegate": "tz1NpWrAyDL9k2Lmnyxcgr9xuJakbBxdq7FB" },
      { "delegate": "tz1PWCDnz783NNGGQjEFFsHtrcK5yBW4E2rm",
        "reception_time": "2022-01-19T17:27:41.969-00:00",
        "errors":
          [ { "kind": "temporary",
              "id": "proto.011-PtHangz2.prefilter.outdated_endorsement" } ],
        "included_in_blocks":
          [ "BLUsPD8XYRoCTbwpM9VPPYgUS3j2SWva1FuayEJNvaBioqbrk9j" ] },
      { "delegate": "tz1eEnQhbwf6trb8Q8mPb2RaPkNk2rN7BKi8",
        "reception_time": "2022-01-19T17:27:41.768-00:00",
        "errors":
          [ { "kind": "temporary",
              "id": "proto.011-PtHangz2.prefilter.outdated_endorsement" } ],
        "included_in_blocks":
          [ "BLUsPD8XYRoCTbwpM9VPPYgUS3j2SWva1FuayEJNvaBioqbrk9j" ] },
      { "delegate": "tz1ei4WtWEMEJekSv8qDnu9PExG6Q8HgRGr3",
        "reception_time": "2022-01-19T17:27:41.757-00:00",
        "errors":
          [ { "kind": "temporary",
              "id": "proto.011-PtHangz2.prefilter.outdated_endorsement" } ],
        "included_in_blocks":
          [ "BLUsPD8XYRoCTbwpM9VPPYgUS3j2SWva1FuayEJNvaBioqbrk9j" ] },
      { "delegate": "tz3e7LbZvUtoXhpUD1yb6wuFodZpfYRb9nWJ",
        "reception_time": "2022-01-19T17:27:41.712-00:00",
        "errors":
          [ { "kind": "temporary",
              "id": "proto.011-PtHangz2.prefilter.outdated_endorsement" } ],
        "included_in_blocks":
          [ "BLUsPD8XYRoCTbwpM9VPPYgUS3j2SWva1FuayEJNvaBioqbrk9j" ] },
      { "delegate": "tz1beersuEDv8Z7ngQ825xfbaJNS2EhXnyHR",
        "reception_time": "2022-01-19T17:27:41.671-00:00",
        "errors":
          [ { "kind": "temporary",
              "id": "proto.011-PtHangz2.prefilter.outdated_endorsement" } ],
        "included_in_blocks":
          [ "BLUsPD8XYRoCTbwpM9VPPYgUS3j2SWva1FuayEJNvaBioqbrk9j" ] },
      { "delegate": "tz1WCd2jm4uSt4vntk4vSuUWoZQGhLcDuR9q",
        "reception_time": "2022-01-19T17:27:41.451-00:00",
        "errors":
          [ { "kind": "temporary",
              "id": "proto.011-PtHangz2.prefilter.outdated_endorsement" } ],
        "included_in_blocks":
          [ "BLUsPD8XYRoCTbwpM9VPPYgUS3j2SWva1FuayEJNvaBioqbrk9j" ] },
      { "delegate": "tz1Ldzz6k1BHdhuKvAtMRX7h5kJSMHESMHLC",
        "reception_time": "2022-01-19T17:27:41.343-00:00",
        "errors":
          [ { "kind": "temporary",
              "id": "proto.011-PtHangz2.prefilter.outdated_endorsement" } ],
        "included_in_blocks":
          [ "BLUsPD8XYRoCTbwpM9VPPYgUS3j2SWva1FuayEJNvaBioqbrk9j" ] },
      { "delegate": "tz1VmiY38m3y95HqQLjMwqnMS7sdMfGomzKi",
        "reception_time": "2022-01-19T17:27:40.629-00:00",
        "errors":
          [ { "kind": "temporary",
              "id": "proto.011-PtHangz2.prefilter.outdated_endorsement" } ],
        "included_in_blocks":
          [ "BLUsPD8XYRoCTbwpM9VPPYgUS3j2SWva1FuayEJNvaBioqbrk9j" ] },
      { "delegate": "tz1P2Po7YM526ughEsRbY4oR9zaUPDZjxFrb",
        "reception_time": "2022-01-19T17:27:40.603-00:00",
        "errors":
          [ { "kind": "temporary",
              "id": "proto.011-PtHangz2.prefilter.outdated_endorsement" } ],
        "included_in_blocks":
          [ "BLUsPD8XYRoCTbwpM9VPPYgUS3j2SWva1FuayEJNvaBioqbrk9j" ] },
      { "delegate": "tz1Kt4P8BCaP93AEV4eA7gmpRryWt5hznjCP",
        "reception_time": "2022-01-19T17:27:40.481-00:00",
        "errors":
          [ { "kind": "temporary",
              "id": "proto.011-PtHangz2.prefilter.outdated_endorsement" } ],
        "included_in_blocks":
          [ "BLUsPD8XYRoCTbwpM9VPPYgUS3j2SWva1FuayEJNvaBioqbrk9j" ] },
      { "delegate": "tz1irJKkXS2DBWkU1NnmFQx1c1L7pbGg4yhk",
        "reception_time": "2022-01-19T17:27:40.459-00:00",
        "errors":
          [ { "kind": "temporary",
              "id": "proto.011-PtHangz2.prefilter.outdated_endorsement" } ],
        "included_in_blocks":
          [ "BLUsPD8XYRoCTbwpM9VPPYgUS3j2SWva1FuayEJNvaBioqbrk9j" ] },
      { "delegate": "tz1VQnqCCqX4K5sP3FNkVSNKTdCAMJDd3E1n",
        "reception_time": "2022-01-19T17:27:40.403-00:00",
        "errors":
          [ { "kind": "temporary",
              "id": "proto.011-PtHangz2.prefilter.outdated_endorsement" } ],
        "included_in_blocks":
          [ "BLUsPD8XYRoCTbwpM9VPPYgUS3j2SWva1FuayEJNvaBioqbrk9j" ] },
      { "delegate": "tz1gUNyn3hmnEWqkusWPzxRaon1cs7ndWh7h",
        "reception_time": "2022-01-19T17:27:40.384-00:00",
        "errors":
          [ { "kind": "temporary",
              "id": "proto.011-PtHangz2.prefilter.outdated_endorsement" } ],
        "included_in_blocks":
          [ "BLUsPD8XYRoCTbwpM9VPPYgUS3j2SWva1FuayEJNvaBioqbrk9j" ] },
      { "delegate": "tz1S8e9GgdZG78XJRB3NqabfWeM37GnhZMWQ",
        "reception_time": "2022-01-19T17:27:39.600-00:00",
        "errors":
          [ { "kind": "temporary",
              "id": "proto.011-PtHangz2.prefilter.outdated_endorsement" } ],
        "included_in_blocks":
          [ "BLUsPD8XYRoCTbwpM9VPPYgUS3j2SWva1FuayEJNvaBioqbrk9j" ] },
      { "delegate": "tz1aRoaRhSpRYvFdyvgWLL6TGyRoGF51wDjM",
        "reception_time": "2022-01-19T17:27:51.768-00:00",
        "included_in_blocks":
          [ "BLUsPD8XYRoCTbwpM9VPPYgUS3j2SWva1FuayEJNvaBioqbrk9j" ] },
      { "delegate": "tz1Wp9DASxBnuiZTXHTBACtQ69kp8YL4bzLz",
        "reception_time": "2022-01-19T17:27:50.476-00:00",
        "included_in_blocks":
          [ "BLUsPD8XYRoCTbwpM9VPPYgUS3j2SWva1FuayEJNvaBioqbrk9j" ] },
      { "delegate": "tz1g8vkmcde6sWKaG2NN9WKzCkDM6Rziq194",
        "reception_time": "2022-01-19T17:27:49.704-00:00",
        "included_in_blocks":
          [ "BLUsPD8XYRoCTbwpM9VPPYgUS3j2SWva1FuayEJNvaBioqbrk9j" ] },
      { "delegate": "tz1fJHFn6sWEd3NnBPngACuw2dggTv6nQZ7g",
        "reception_time": "2022-01-19T17:27:48.794-00:00",
        "included_in_blocks":
          [ "BLUsPD8XYRoCTbwpM9VPPYgUS3j2SWva1FuayEJNvaBioqbrk9j" ] },
      { "delegate": "tz1bTpviNnyx2PXsNmGpCQTMQsGoYordkUoA",
        "reception_time": "2022-01-19T17:27:48.364-00:00",
        "included_in_blocks":
          [ "BLUsPD8XYRoCTbwpM9VPPYgUS3j2SWva1FuayEJNvaBioqbrk9j" ] },
      { "delegate": "tz1awXW7wuXy21c66vBudMXQVAPgRnqqwgTH",
        "reception_time": "2022-01-19T17:27:47.936-00:00",
        "included_in_blocks":
          [ "BLUsPD8XYRoCTbwpM9VPPYgUS3j2SWva1FuayEJNvaBioqbrk9j" ] },
      { "delegate": "tz1SohptP53wDPZhzTWzDUFAUcWF6DMBpaJV",
        "reception_time": "2022-01-19T17:27:47.279-00:00",
        "included_in_blocks":
          [ "BLUsPD8XYRoCTbwpM9VPPYgUS3j2SWva1FuayEJNvaBioqbrk9j" ] },
      { "delegate": "tz2FCNBrERXtaTtNX6iimR1UJ5JSDxvdHM93",
        "reception_time": "2022-01-19T17:27:47.133-00:00",
        "included_in_blocks":
          [ "BLUsPD8XYRoCTbwpM9VPPYgUS3j2SWva1FuayEJNvaBioqbrk9j" ] },
      { "delegate": "tz3NExpXn9aPNZPorRE4SdjJ2RGrfbJgMAaV",
        "reception_time": "2022-01-19T17:27:46.737-00:00",
        "included_in_blocks":
          [ "BLUsPD8XYRoCTbwpM9VPPYgUS3j2SWva1FuayEJNvaBioqbrk9j" ] },
      { "delegate": "tz1TRqbYbUf2GyrjErf3hBzgBJPzW8y36qEs",
        "reception_time": "2022-01-19T17:27:46.679-00:00",
        "included_in_blocks":
          [ "BLUsPD8XYRoCTbwpM9VPPYgUS3j2SWva1FuayEJNvaBioqbrk9j" ] },
      { "delegate": "tz3UoffC7FG7zfpmvmjUmUeAaHvzdcUvAj6r",
        "reception_time": "2022-01-19T17:27:46.258-00:00",
        "included_in_blocks":
          [ "BLUsPD8XYRoCTbwpM9VPPYgUS3j2SWva1FuayEJNvaBioqbrk9j" ] },
      { "delegate": "tz3RDC3Jdn4j15J7bBHZd29EUee9gVB1CxD9",
        "reception_time": "2022-01-19T17:27:45.957-00:00",
        "included_in_blocks":
          [ "BLUsPD8XYRoCTbwpM9VPPYgUS3j2SWva1FuayEJNvaBioqbrk9j" ] },
      { "delegate": "tz3VEZ4k6a4Wx42iyev6i2aVAptTRLEAivNN",
        "reception_time": "2022-01-19T17:27:45.400-00:00",
        "included_in_blocks":
          [ "BLUsPD8XYRoCTbwpM9VPPYgUS3j2SWva1FuayEJNvaBioqbrk9j" ] },
      { "delegate": "tz3bvNMQ95vfAYtG8193ymshqjSvmxiCUuR5",
        "reception_time": "2022-01-19T17:27:45.316-00:00",
        "included_in_blocks":
          [ "BLUsPD8XYRoCTbwpM9VPPYgUS3j2SWva1FuayEJNvaBioqbrk9j" ] },
      { "delegate": "tz3NDpRj6WBrJPikcPVHRBEjWKxFw3c6eQPS",
        "reception_time": "2022-01-19T17:27:45.001-00:00",
        "included_in_blocks":
          [ "BLUsPD8XYRoCTbwpM9VPPYgUS3j2SWva1FuayEJNvaBioqbrk9j" ] },
      { "delegate": "tz1eVaNx3gCmG1EsLjijkmgAxdLYVf6Bf5Sq",
        "reception_time": "2022-01-19T17:27:45.152-00:00",
        "included_in_blocks":
          [ "BLUsPD8XYRoCTbwpM9VPPYgUS3j2SWva1FuayEJNvaBioqbrk9j" ] },
      { "delegate": "tz3gLTu4Yxj8tPAcriQVUdxv6BY9QyvzU1az",
        "reception_time": "2022-01-19T17:27:45.008-00:00",
        "included_in_blocks":
          [ "BLUsPD8XYRoCTbwpM9VPPYgUS3j2SWva1FuayEJNvaBioqbrk9j" ] },
      { "delegate": "tz3RB4aoyjov4KEVRbuhvQ1CKJgBJMWhaeB8",
        "reception_time": "2022-01-19T17:27:45.001-00:00",
        "included_in_blocks":
          [ "BLUsPD8XYRoCTbwpM9VPPYgUS3j2SWva1FuayEJNvaBioqbrk9j" ] },
      { "delegate": "tz1RjoHc98dBoqaH2jawF62XNKh7YsHwbkEv",
        "reception_time": "2022-01-19T17:27:45.013-00:00",
        "included_in_blocks":
          [ "BLUsPD8XYRoCTbwpM9VPPYgUS3j2SWva1FuayEJNvaBioqbrk9j" ] },
      { "delegate": "tz1ZcTRk5uxD86EFEn1vvNffWWqJy7q5eVhc",
        "reception_time": "2022-01-19T17:27:44.989-00:00",
        "included_in_blocks":
          [ "BLUsPD8XYRoCTbwpM9VPPYgUS3j2SWva1FuayEJNvaBioqbrk9j" ] },
      { "delegate": "tz1cM8Xc7ZP1TrjkTeKq4PeRhtbnwXSBR6Sw",
        "reception_time": "2022-01-19T17:27:44.955-00:00",
        "included_in_blocks":
          [ "BLUsPD8XYRoCTbwpM9VPPYgUS3j2SWva1FuayEJNvaBioqbrk9j" ] },
      { "delegate": "tz3WMqdzXqRWXwyvj5Hp2H7QEepaUuS7vd9K",
        "reception_time": "2022-01-19T17:27:44.836-00:00",
        "included_in_blocks":
          [ "BLUsPD8XYRoCTbwpM9VPPYgUS3j2SWva1FuayEJNvaBioqbrk9j" ] },
      { "delegate": "tz1S8MNvuFEUsWgjHvi3AxibRBf388NhT1q2",
        "reception_time": "2022-01-19T17:27:44.948-00:00",
        "included_in_blocks":
          [ "BLUsPD8XYRoCTbwpM9VPPYgUS3j2SWva1FuayEJNvaBioqbrk9j" ] },
      { "delegate": "tz1NL14EZjUmY9eEdk1ejyACEaTuwVGVKEeU",
        "reception_time": "2022-01-19T17:27:44.355-00:00",
        "included_in_blocks":
          [ "BLUsPD8XYRoCTbwpM9VPPYgUS3j2SWva1FuayEJNvaBioqbrk9j" ] },
      { "delegate": "tz1LmaFsWRkjr7QMCx5PtV6xTUz3AmEpKQiF",
        "reception_time": "2022-01-19T17:27:44.355-00:00",
        "included_in_blocks":
          [ "BLUsPD8XYRoCTbwpM9VPPYgUS3j2SWva1FuayEJNvaBioqbrk9j" ] },
      { "delegate": "tz1QXrzaHrGACVn15UiCg33aLCJ6npWdQb3J",
        "reception_time": "2022-01-19T17:27:44.213-00:00",
        "included_in_blocks":
          [ "BLUsPD8XYRoCTbwpM9VPPYgUS3j2SWva1FuayEJNvaBioqbrk9j" ] },
      { "delegate": "tz3bTdwZinP8U1JmSweNzVKhmwafqWmFWRfk",
        "reception_time": "2022-01-19T17:27:44.213-00:00",
        "included_in_blocks":
          [ "BLUsPD8XYRoCTbwpM9VPPYgUS3j2SWva1FuayEJNvaBioqbrk9j" ] },
      { "delegate": "tz1bZ8vsMAXmaWEV7FRnyhcuUs2fYMaQ6Hkk",
        "reception_time": "2022-01-19T17:27:44.213-00:00",
        "included_in_blocks":
          [ "BLUsPD8XYRoCTbwpM9VPPYgUS3j2SWva1FuayEJNvaBioqbrk9j" ] },
      { "delegate": "tz1WBfwbT66FC6BTLexc2BoyCCBM9LG7pnVW",
        "reception_time": "2022-01-19T17:27:44.213-00:00",
        "included_in_blocks":
          [ "BLUsPD8XYRoCTbwpM9VPPYgUS3j2SWva1FuayEJNvaBioqbrk9j" ] },
      { "delegate": "tz1abmz7jiCV2GH2u81LRrGgAFFgvQgiDiaf",
        "reception_time": "2022-01-19T17:27:44.213-00:00",
        "included_in_blocks":
          [ "BLUsPD8XYRoCTbwpM9VPPYgUS3j2SWva1FuayEJNvaBioqbrk9j" ] },
      { "delegate": "tz1gfArv665EUkSg2ojMBzcbfwuPxAvqPvjo",
        "reception_time": "2022-01-19T17:27:44.213-00:00",
        "included_in_blocks":
          [ "BLUsPD8XYRoCTbwpM9VPPYgUS3j2SWva1FuayEJNvaBioqbrk9j" ] },
      { "delegate": "tz1Vd1rXpV8hTHbFXCXN3c3qzCsgcU5BZw1e",
        "reception_time": "2022-01-19T17:27:44.213-00:00",
        "included_in_blocks":
          [ "BLUsPD8XYRoCTbwpM9VPPYgUS3j2SWva1FuayEJNvaBioqbrk9j" ] },
      { "delegate": "tz1Tnjaxk6tbAeC2TmMApPh8UsrEVQvhHvx5",
        "reception_time": "2022-01-19T17:27:44.213-00:00",
        "included_in_blocks":
          [ "BLUsPD8XYRoCTbwpM9VPPYgUS3j2SWva1FuayEJNvaBioqbrk9j" ] },
      { "delegate": "tz1T7duV5gZWSTq4YpBGbXNLTfznCLDrFxvs",
        "reception_time": "2022-01-19T17:27:44.213-00:00",
        "included_in_blocks":
          [ "BLUsPD8XYRoCTbwpM9VPPYgUS3j2SWva1FuayEJNvaBioqbrk9j" ] },
      { "delegate": "tz3QT9dHYKDqh563chVa6za8526ys1UKfRfL",
        "reception_time": "2022-01-19T17:27:44.105-00:00",
        "included_in_blocks":
          [ "BLUsPD8XYRoCTbwpM9VPPYgUS3j2SWva1FuayEJNvaBioqbrk9j" ] },
      { "delegate": "tz3S6BBeKgJGXxvLyZ1xzXzMPn11nnFtq5L9",
        "reception_time": "2022-01-19T17:27:44.105-00:00",
        "included_in_blocks":
          [ "BLUsPD8XYRoCTbwpM9VPPYgUS3j2SWva1FuayEJNvaBioqbrk9j" ] },
      { "delegate": "tz1NEKxGEHsFufk87CVZcrqWu8o22qh46GK6",
        "reception_time": "2022-01-19T17:27:44.213-00:00",
        "included_in_blocks":
          [ "BLUsPD8XYRoCTbwpM9VPPYgUS3j2SWva1FuayEJNvaBioqbrk9j" ] },
      { "delegate": "tz3Zhs2dygr55yHyQyKjntAtY9bgfhLZ4Xj1",
        "reception_time": "2022-01-19T17:27:44.105-00:00",
        "included_in_blocks":
          [ "BLUsPD8XYRoCTbwpM9VPPYgUS3j2SWva1FuayEJNvaBioqbrk9j" ] },
      { "delegate": "tz3iJu5vrKZcsqRPs8yJ61UDoeEXZmtro4qh",
        "reception_time": "2022-01-19T17:27:44.105-00:00",
        "included_in_blocks":
          [ "BLUsPD8XYRoCTbwpM9VPPYgUS3j2SWva1FuayEJNvaBioqbrk9j" ] },
      { "delegate": "tz1dRKU4FQ9QRRQPdaH4zCR6gmCmXfcvcgtB",
        "reception_time": "2022-01-19T17:27:44.213-00:00",
        "included_in_blocks":
          [ "BLUsPD8XYRoCTbwpM9VPPYgUS3j2SWva1FuayEJNvaBioqbrk9j" ] },
      { "delegate": "tz1WctSwL49BZtdWAQ75NY6vr4xsAx6oKdah",
        "reception_time": "2022-01-19T17:27:44.213-00:00",
        "included_in_blocks":
          [ "BLUsPD8XYRoCTbwpM9VPPYgUS3j2SWva1FuayEJNvaBioqbrk9j" ] },
      { "delegate": "tz1RCFbB9GpALpsZtu6J58sb74dm8qe6XBzv",
        "reception_time": "2022-01-19T17:27:44.213-00:00",
        "included_in_blocks":
          [ "BLUsPD8XYRoCTbwpM9VPPYgUS3j2SWva1FuayEJNvaBioqbrk9j" ] },
      { "delegate": "tz1Nf6tsK4G6bBqgSQERy4nUtkHNKUVdh7q1",
        "reception_time": "2022-01-19T17:27:44.213-00:00",
        "included_in_blocks":
          [ "BLUsPD8XYRoCTbwpM9VPPYgUS3j2SWva1FuayEJNvaBioqbrk9j" ] },
      { "delegate": "tz3RKYFsLuQzKBtmYuLNas7uMu3AsYd4QdsA",
        "reception_time": "2022-01-19T17:27:44.025-00:00",
        "included_in_blocks":
          [ "BLUsPD8XYRoCTbwpM9VPPYgUS3j2SWva1FuayEJNvaBioqbrk9j" ] },
      { "delegate": "tz3hw2kqXhLUvY65ca1eety2oQTpAvd34R9Q",
        "reception_time": "2022-01-19T17:27:44.105-00:00",
        "included_in_blocks":
          [ "BLUsPD8XYRoCTbwpM9VPPYgUS3j2SWva1FuayEJNvaBioqbrk9j" ] },
      { "delegate": "tz3gtoUxdudfBRcNY7iVdKPHCYYX6xdPpoRS",
        "reception_time": "2022-01-19T17:27:44.105-00:00",
        "included_in_blocks":
          [ "BLUsPD8XYRoCTbwpM9VPPYgUS3j2SWva1FuayEJNvaBioqbrk9j" ] },
      { "delegate": "tz1MQMiZHV8q4tTwUMWmS5Y3kaP6J2136iXr",
        "reception_time": "2022-01-19T17:27:44.213-00:00",
        "included_in_blocks":
          [ "BLUsPD8XYRoCTbwpM9VPPYgUS3j2SWva1FuayEJNvaBioqbrk9j" ] },
      { "delegate": "tz3QSGPoRp3Kn7n3vY24eYeu3Peuqo45LQ4D",
        "reception_time": "2022-01-19T17:27:44.105-00:00",
        "included_in_blocks":
          [ "BLUsPD8XYRoCTbwpM9VPPYgUS3j2SWva1FuayEJNvaBioqbrk9j" ] },
      { "delegate": "tz1SYq214SCBy9naR6cvycQsYcUGpBqQAE8d",
        "reception_time": "2022-01-19T17:27:44.213-00:00",
        "included_in_blocks":
          [ "BLUsPD8XYRoCTbwpM9VPPYgUS3j2SWva1FuayEJNvaBioqbrk9j" ] },
      { "delegate": "tz1TEc75UKXv4W5cwi14Na3NtqFD51yKQi7h",
        "reception_time": "2022-01-19T17:27:44.025-00:00",
        "included_in_blocks":
          [ "BLUsPD8XYRoCTbwpM9VPPYgUS3j2SWva1FuayEJNvaBioqbrk9j" ] },
      { "delegate": "tz3NxTnke1acr8o3h5y9ytf5awQBGNJUKzVU",
        "reception_time": "2022-01-19T17:27:44.025-00:00",
        "included_in_blocks":
          [ "BLUsPD8XYRoCTbwpM9VPPYgUS3j2SWva1FuayEJNvaBioqbrk9j" ] },
      { "delegate": "tz1dwu9aYb7CRNq4Y2zAjipdjFuSVKhHS8vA",
        "reception_time": "2022-01-19T17:27:44.025-00:00",
        "included_in_blocks":
          [ "BLUsPD8XYRoCTbwpM9VPPYgUS3j2SWva1FuayEJNvaBioqbrk9j" ] },
      { "delegate": "tz3ZbP2pM3nwvXztbuMJwJnDvV5xdpU8UkkD",
        "reception_time": "2022-01-19T17:27:44.105-00:00",
        "included_in_blocks":
          [ "BLUsPD8XYRoCTbwpM9VPPYgUS3j2SWva1FuayEJNvaBioqbrk9j" ] },
      { "delegate": "tz1LYW7Yepo9qsQx2kjpek2RYVMCeGwBvDCQ",
        "reception_time": "2022-01-19T17:27:44.105-00:00",
        "included_in_blocks":
          [ "BLUsPD8XYRoCTbwpM9VPPYgUS3j2SWva1FuayEJNvaBioqbrk9j" ] } ] }