{ "blocks":
    [ { "hash": "BMHzUkK6TeUnGRegt6nmRSWQa6g6RFpD3hXFYqWh75fdpwfzvSf",
        "delegate": "tz3Zhs2dygr55yHyQyKjntAtY9bgfhLZ4Xj1",
        "reception_time": "2022-01-19T15:15:11.359-00:00",
        "timestamp": "2022-01-19T15:15:00Z" } ],
  "endorsements":
    [ { "delegate": "tz3adcvQaKXTCg12zbninqo3q8ptKKtDFTLv",
        "reception_time": "2022-01-19T15:15:11.342-00:00",
        "errors":
          [ { "kind": "temporary",
              "id": "proto.011-PtHangz2.prefilter.outdated_endorsement" } ],
        "included_in_blocks":
          [ "BLisnYrMsAtHqCPvtMieZNof75rQQaF3cCkv9k15TUrJzaA2tPG" ] },
      { "delegate": "tz1VmiY38m3y95HqQLjMwqnMS7sdMfGomzKi",
        "reception_time": "2022-01-19T15:15:11.302-00:00",
        "errors":
          [ { "kind": "temporary",
              "id": "proto.011-PtHangz2.prefilter.outdated_endorsement" } ],
        "included_in_blocks":
          [ "BLisnYrMsAtHqCPvtMieZNof75rQQaF3cCkv9k15TUrJzaA2tPG" ] },
      { "delegate": "tz1irJKkXS2DBWkU1NnmFQx1c1L7pbGg4yhk",
        "reception_time": "2022-01-19T15:15:11.283-00:00",
        "errors":
          [ { "kind": "temporary",
              "id": "proto.011-PtHangz2.prefilter.outdated_endorsement" } ],
        "included_in_blocks":
          [ "BLisnYrMsAtHqCPvtMieZNof75rQQaF3cCkv9k15TUrJzaA2tPG" ] },
      { "delegate": "tz1eEnQhbwf6trb8Q8mPb2RaPkNk2rN7BKi8",
        "reception_time": "2022-01-19T15:15:11.227-00:00",
        "errors":
          [ { "kind": "temporary",
              "id": "proto.011-PtHangz2.prefilter.outdated_endorsement" } ],
        "included_in_blocks":
          [ "BLisnYrMsAtHqCPvtMieZNof75rQQaF3cCkv9k15TUrJzaA2tPG" ] },
      { "delegate": "tz1Lhf4J9Qxoe3DZ2nfe8FGDnvVj7oKjnMY6",
        "reception_time": "2022-01-19T15:15:11.201-00:00",
        "errors":
          [ { "kind": "temporary",
              "id": "proto.011-PtHangz2.prefilter.outdated_endorsement" } ],
        "included_in_blocks":
          [ "BLisnYrMsAtHqCPvtMieZNof75rQQaF3cCkv9k15TUrJzaA2tPG" ] },
      { "delegate": "tz1P2Po7YM526ughEsRbY4oR9zaUPDZjxFrb",
        "reception_time": "2022-01-19T15:15:11.189-00:00",
        "errors":
          [ { "kind": "temporary",
              "id": "proto.011-PtHangz2.prefilter.outdated_endorsement" } ],
        "included_in_blocks":
          [ "BLisnYrMsAtHqCPvtMieZNof75rQQaF3cCkv9k15TUrJzaA2tPG" ] },
      { "delegate": "tz1Ldzz6k1BHdhuKvAtMRX7h5kJSMHESMHLC",
        "reception_time": "2022-01-19T15:15:11.162-00:00",
        "errors":
          [ { "kind": "temporary",
              "id": "proto.011-PtHangz2.prefilter.outdated_endorsement" } ],
        "included_in_blocks":
          [ "BLisnYrMsAtHqCPvtMieZNof75rQQaF3cCkv9k15TUrJzaA2tPG" ] },
      { "delegate": "tz1MXFrtZoaXckE41bjUCSjAjAap3AFDSr3N",
        "reception_time": "2022-01-19T15:15:10.647-00:00",
        "errors":
          [ { "kind": "temporary",
              "id": "proto.011-PtHangz2.prefilter.outdated_endorsement" } ],
        "included_in_blocks":
          [ "BLisnYrMsAtHqCPvtMieZNof75rQQaF3cCkv9k15TUrJzaA2tPG" ] },
      { "delegate": "tz1TXzyaKUA8wsWefdSnyaYFnV2M3vCV7er9",
        "reception_time": "2022-01-19T15:15:10.603-00:00",
        "errors":
          [ { "kind": "temporary",
              "id": "proto.011-PtHangz2.prefilter.outdated_endorsement" } ],
        "included_in_blocks":
          [ "BLisnYrMsAtHqCPvtMieZNof75rQQaF3cCkv9k15TUrJzaA2tPG" ] },
      { "delegate": "tz1gUNyn3hmnEWqkusWPzxRaon1cs7ndWh7h",
        "reception_time": "2022-01-19T15:15:10.416-00:00",
        "errors":
          [ { "kind": "temporary",
              "id": "proto.011-PtHangz2.prefilter.outdated_endorsement" } ],
        "included_in_blocks":
          [ "BLisnYrMsAtHqCPvtMieZNof75rQQaF3cCkv9k15TUrJzaA2tPG" ] },
      { "delegate": "tz1VQnqCCqX4K5sP3FNkVSNKTdCAMJDd3E1n",
        "reception_time": "2022-01-19T15:15:10.397-00:00",
        "errors":
          [ { "kind": "temporary",
              "id": "proto.011-PtHangz2.prefilter.outdated_endorsement" } ],
        "included_in_blocks":
          [ "BLisnYrMsAtHqCPvtMieZNof75rQQaF3cCkv9k15TUrJzaA2tPG" ] },
      { "delegate": "tz1S8e9GgdZG78XJRB3NqabfWeM37GnhZMWQ",
        "reception_time": "2022-01-19T15:15:09.672-00:00",
        "errors":
          [ { "kind": "temporary",
              "id": "proto.011-PtHangz2.prefilter.outdated_endorsement" } ],
        "included_in_blocks":
          [ "BLisnYrMsAtHqCPvtMieZNof75rQQaF3cCkv9k15TUrJzaA2tPG" ] },
      { "delegate": "tz1a1J3AGjJTAyBqWWSqFuUazUDV2TtD6hMy",
        "reception_time": "2022-01-19T15:15:23.562-00:00",
        "included_in_blocks":
          [ "BLisnYrMsAtHqCPvtMieZNof75rQQaF3cCkv9k15TUrJzaA2tPG" ] },
      { "delegate": "tz1aRoaRhSpRYvFdyvgWLL6TGyRoGF51wDjM",
        "reception_time": "2022-01-19T15:15:21.598-00:00",
        "included_in_blocks":
          [ "BLisnYrMsAtHqCPvtMieZNof75rQQaF3cCkv9k15TUrJzaA2tPG" ] },
      { "delegate": "tz1SUgyRB8T5jXgXAwS33pgRHAKrafyg87Yc",
        "reception_time": "2022-01-19T15:15:20.498-00:00",
        "included_in_blocks":
          [ "BLisnYrMsAtHqCPvtMieZNof75rQQaF3cCkv9k15TUrJzaA2tPG" ] },
      { "delegate": "tz1NoYvKjXTzTk54VpLxBfouJ33J8jwKPPvw",
        "reception_time": "2022-01-19T15:15:16.898-00:00",
        "included_in_blocks":
          [ "BLisnYrMsAtHqCPvtMieZNof75rQQaF3cCkv9k15TUrJzaA2tPG" ] },
      { "delegate": "tz3UoffC7FG7zfpmvmjUmUeAaHvzdcUvAj6r",
        "reception_time": "2022-01-19T15:15:16.096-00:00",
        "included_in_blocks":
          [ "BLisnYrMsAtHqCPvtMieZNof75rQQaF3cCkv9k15TUrJzaA2tPG" ] },
      { "delegate": "tz3NExpXn9aPNZPorRE4SdjJ2RGrfbJgMAaV",
        "reception_time": "2022-01-19T15:15:15.960-00:00",
        "included_in_blocks":
          [ "BLisnYrMsAtHqCPvtMieZNof75rQQaF3cCkv9k15TUrJzaA2tPG" ] },
      { "delegate": "tz1aJS7Pk9uWR3wWyFf1i3RwhYxN84G7stom",
        "reception_time": "2022-01-19T15:15:15.932-00:00",
        "included_in_blocks":
          [ "BLisnYrMsAtHqCPvtMieZNof75rQQaF3cCkv9k15TUrJzaA2tPG" ] },
      { "delegate": "tz1fUyqYH7H4pRHN1roWY17giXhy1RvxjgUV",
        "reception_time": "2022-01-19T15:15:15.719-00:00",
        "included_in_blocks":
          [ "BLisnYrMsAtHqCPvtMieZNof75rQQaF3cCkv9k15TUrJzaA2tPG" ] },
      { "delegate": "tz1TRqbYbUf2GyrjErf3hBzgBJPzW8y36qEs",
        "reception_time": "2022-01-19T15:15:15.820-00:00",
        "included_in_blocks":
          [ "BLisnYrMsAtHqCPvtMieZNof75rQQaF3cCkv9k15TUrJzaA2tPG" ] },
      { "delegate": "tz3VEZ4k6a4Wx42iyev6i2aVAptTRLEAivNN",
        "reception_time": "2022-01-19T15:15:15.535-00:00",
        "included_in_blocks":
          [ "BLisnYrMsAtHqCPvtMieZNof75rQQaF3cCkv9k15TUrJzaA2tPG" ] },
      { "delegate": "tz1YhNsiRRU8aHNGg7NK3uuP6UDAyacJernB",
        "reception_time": "2022-01-19T15:15:15.126-00:00",
        "included_in_blocks":
          [ "BLisnYrMsAtHqCPvtMieZNof75rQQaF3cCkv9k15TUrJzaA2tPG" ] },
      { "delegate": "tz1g8vkmcde6sWKaG2NN9WKzCkDM6Rziq194",
        "reception_time": "2022-01-19T15:15:15.202-00:00",
        "included_in_blocks":
          [ "BLisnYrMsAtHqCPvtMieZNof75rQQaF3cCkv9k15TUrJzaA2tPG" ] },
      { "delegate": "tz1abmz7jiCV2GH2u81LRrGgAFFgvQgiDiaf",
        "reception_time": "2022-01-19T15:15:14.849-00:00",
        "included_in_blocks":
          [ "BLisnYrMsAtHqCPvtMieZNof75rQQaF3cCkv9k15TUrJzaA2tPG" ] },
      { "delegate": "tz3WMqdzXqRWXwyvj5Hp2H7QEepaUuS7vd9K",
        "reception_time": "2022-01-19T15:15:14.874-00:00",
        "included_in_blocks":
          [ "BLisnYrMsAtHqCPvtMieZNof75rQQaF3cCkv9k15TUrJzaA2tPG" ] },
      { "delegate": "tz1cYufsxHXJcvANhvS55h3aY32a9BAFB494",
        "reception_time": "2022-01-19T15:15:14.706-00:00",
        "included_in_blocks":
          [ "BLisnYrMsAtHqCPvtMieZNof75rQQaF3cCkv9k15TUrJzaA2tPG" ] },
      { "delegate": "tz1cM8Xc7ZP1TrjkTeKq4PeRhtbnwXSBR6Sw",
        "reception_time": "2022-01-19T15:15:14.502-00:00",
        "included_in_blocks":
          [ "BLisnYrMsAtHqCPvtMieZNof75rQQaF3cCkv9k15TUrJzaA2tPG" ] },
      { "delegate": "tz2FCNBrERXtaTtNX6iimR1UJ5JSDxvdHM93",
        "reception_time": "2022-01-19T15:15:14.471-00:00",
        "included_in_blocks":
          [ "BLisnYrMsAtHqCPvtMieZNof75rQQaF3cCkv9k15TUrJzaA2tPG" ] },
      { "delegate": "tz1MH387oMRFco3kzz8t3wuqdbpAyTcKZtsg",
        "reception_time": "2022-01-19T15:15:14.331-00:00",
        "included_in_blocks":
          [ "BLisnYrMsAtHqCPvtMieZNof75rQQaF3cCkv9k15TUrJzaA2tPG" ] },
      { "delegate": "tz3NDpRj6WBrJPikcPVHRBEjWKxFw3c6eQPS",
        "reception_time": "2022-01-19T15:15:14.390-00:00",
        "included_in_blocks":
          [ "BLisnYrMsAtHqCPvtMieZNof75rQQaF3cCkv9k15TUrJzaA2tPG" ] },
      { "delegate": "tz3RDC3Jdn4j15J7bBHZd29EUee9gVB1CxD9",
        "reception_time": "2022-01-19T15:15:14.346-00:00",
        "included_in_blocks":
          [ "BLisnYrMsAtHqCPvtMieZNof75rQQaF3cCkv9k15TUrJzaA2tPG" ] },
      { "delegate": "tz1S8MNvuFEUsWgjHvi3AxibRBf388NhT1q2",
        "reception_time": "2022-01-19T15:15:14.348-00:00",
        "included_in_blocks":
          [ "BLisnYrMsAtHqCPvtMieZNof75rQQaF3cCkv9k15TUrJzaA2tPG" ] },
      { "delegate": "tz3bvNMQ95vfAYtG8193ymshqjSvmxiCUuR5",
        "reception_time": "2022-01-19T15:15:14.337-00:00",
        "included_in_blocks":
          [ "BLisnYrMsAtHqCPvtMieZNof75rQQaF3cCkv9k15TUrJzaA2tPG" ] },
      { "delegate": "tz1T7duV5gZWSTq4YpBGbXNLTfznCLDrFxvs",
        "reception_time": "2022-01-19T15:15:14.329-00:00",
        "included_in_blocks":
          [ "BLisnYrMsAtHqCPvtMieZNof75rQQaF3cCkv9k15TUrJzaA2tPG" ] },
      { "delegate": "tz1PeZx7FXy7QRuMREGXGxeipb24RsMMzUNe",
        "reception_time": "2022-01-19T15:15:14.323-00:00",
        "included_in_blocks":
          [ "BLisnYrMsAtHqCPvtMieZNof75rQQaF3cCkv9k15TUrJzaA2tPG" ] },
      { "delegate": "tz1WctSwL49BZtdWAQ75NY6vr4xsAx6oKdah",
        "reception_time": "2022-01-19T15:15:14.287-00:00",
        "included_in_blocks":
          [ "BLisnYrMsAtHqCPvtMieZNof75rQQaF3cCkv9k15TUrJzaA2tPG" ] },
      { "delegate": "tz1NdhRv643wLW6zCcRP3VfT24dvDnh7nuh9",
        "reception_time": "2022-01-19T15:15:14.327-00:00",
        "included_in_blocks":
          [ "BLisnYrMsAtHqCPvtMieZNof75rQQaF3cCkv9k15TUrJzaA2tPG" ] },
      { "delegate": "tz3RB4aoyjov4KEVRbuhvQ1CKJgBJMWhaeB8",
        "reception_time": "2022-01-19T15:15:14.301-00:00",
        "included_in_blocks":
          [ "BLisnYrMsAtHqCPvtMieZNof75rQQaF3cCkv9k15TUrJzaA2tPG" ] },
      { "delegate": "tz3bTdwZinP8U1JmSweNzVKhmwafqWmFWRfk",
        "reception_time": "2022-01-19T15:15:14.267-00:00",
        "included_in_blocks":
          [ "BLisnYrMsAtHqCPvtMieZNof75rQQaF3cCkv9k15TUrJzaA2tPG" ] },
      { "delegate": "tz1RCFbB9GpALpsZtu6J58sb74dm8qe6XBzv",
        "reception_time": "2022-01-19T15:15:14.213-00:00",
        "included_in_blocks":
          [ "BLisnYrMsAtHqCPvtMieZNof75rQQaF3cCkv9k15TUrJzaA2tPG" ] },
      { "delegate": "tz1LnWa4AiFCjMezTgSNa65QFoo7DQGEWgEU",
        "reception_time": "2022-01-19T15:15:14.223-00:00",
        "included_in_blocks":
          [ "BLisnYrMsAtHqCPvtMieZNof75rQQaF3cCkv9k15TUrJzaA2tPG" ] },
      { "delegate": "tz3S6BBeKgJGXxvLyZ1xzXzMPn11nnFtq5L9",
        "reception_time": "2022-01-19T15:15:14.249-00:00",
        "included_in_blocks":
          [ "BLisnYrMsAtHqCPvtMieZNof75rQQaF3cCkv9k15TUrJzaA2tPG" ] },
      { "delegate": "tz3QT9dHYKDqh563chVa6za8526ys1UKfRfL",
        "reception_time": "2022-01-19T15:15:14.204-00:00",
        "included_in_blocks":
          [ "BLisnYrMsAtHqCPvtMieZNof75rQQaF3cCkv9k15TUrJzaA2tPG" ] },
      { "delegate": "tz1R4PuhxUxBBZhfLJDx2nNjbr7WorAPX1oC",
        "reception_time": "2022-01-19T15:15:14.204-00:00",
        "included_in_blocks":
          [ "BLisnYrMsAtHqCPvtMieZNof75rQQaF3cCkv9k15TUrJzaA2tPG" ] },
      { "delegate": "tz1KfEsrtDaA1sX7vdM4qmEPWuSytuqCDp5j",
        "reception_time": "2022-01-19T15:15:14.213-00:00",
        "included_in_blocks":
          [ "BLisnYrMsAtHqCPvtMieZNof75rQQaF3cCkv9k15TUrJzaA2tPG" ] },
      { "delegate": "tz1gfArv665EUkSg2ojMBzcbfwuPxAvqPvjo",
        "reception_time": "2022-01-19T15:15:14.241-00:00",
        "included_in_blocks":
          [ "BLisnYrMsAtHqCPvtMieZNof75rQQaF3cCkv9k15TUrJzaA2tPG" ] },
      { "delegate": "tz1dRKU4FQ9QRRQPdaH4zCR6gmCmXfcvcgtB",
        "reception_time": "2022-01-19T15:15:14.278-00:00",
        "included_in_blocks":
          [ "BLisnYrMsAtHqCPvtMieZNof75rQQaF3cCkv9k15TUrJzaA2tPG" ] },
      { "delegate": "tz1V4qCyvPKZ5UeqdH14HN42rxvNPQfc9UZg",
        "reception_time": "2022-01-19T15:15:14.235-00:00",
        "included_in_blocks":
          [ "BLisnYrMsAtHqCPvtMieZNof75rQQaF3cCkv9k15TUrJzaA2tPG" ] },
      { "delegate": "tz3gtoUxdudfBRcNY7iVdKPHCYYX6xdPpoRS",
        "reception_time": "2022-01-19T15:15:14.235-00:00",
        "included_in_blocks":
          [ "BLisnYrMsAtHqCPvtMieZNof75rQQaF3cCkv9k15TUrJzaA2tPG" ] },
      { "delegate": "tz3RKYFsLuQzKBtmYuLNas7uMu3AsYd4QdsA",
        "reception_time": "2022-01-19T15:15:14.191-00:00",
        "included_in_blocks":
          [ "BLisnYrMsAtHqCPvtMieZNof75rQQaF3cCkv9k15TUrJzaA2tPG" ] },
      { "delegate": "tz3hw2kqXhLUvY65ca1eety2oQTpAvd34R9Q",
        "reception_time": "2022-01-19T15:15:14.185-00:00",
        "included_in_blocks":
          [ "BLisnYrMsAtHqCPvtMieZNof75rQQaF3cCkv9k15TUrJzaA2tPG" ] },
      { "delegate": "tz3QSGPoRp3Kn7n3vY24eYeu3Peuqo45LQ4D",
        "reception_time": "2022-01-19T15:15:14.223-00:00",
        "included_in_blocks":
          [ "BLisnYrMsAtHqCPvtMieZNof75rQQaF3cCkv9k15TUrJzaA2tPG" ] },
      { "delegate": "tz3ZbP2pM3nwvXztbuMJwJnDvV5xdpU8UkkD",
        "reception_time": "2022-01-19T15:15:14.163-00:00",
        "included_in_blocks":
          [ "BLisnYrMsAtHqCPvtMieZNof75rQQaF3cCkv9k15TUrJzaA2tPG" ] },
      { "delegate": "tz3NxTnke1acr8o3h5y9ytf5awQBGNJUKzVU",
        "reception_time": "2022-01-19T15:15:14.173-00:00",
        "included_in_blocks":
          [ "BLisnYrMsAtHqCPvtMieZNof75rQQaF3cCkv9k15TUrJzaA2tPG" ] },
      { "delegate": "tz1TEc75UKXv4W5cwi14Na3NtqFD51yKQi7h",
        "reception_time": "2022-01-19T15:15:14.166-00:00",
        "included_in_blocks":
          [ "BLisnYrMsAtHqCPvtMieZNof75rQQaF3cCkv9k15TUrJzaA2tPG" ] },
      { "delegate": "tz1NMdMmWZN8QPB8pY4ddncACDg1cHi1xD2e",
        "reception_time": "2022-01-19T15:15:14.163-00:00",
        "included_in_blocks":
          [ "BLisnYrMsAtHqCPvtMieZNof75rQQaF3cCkv9k15TUrJzaA2tPG" ] },
      { "delegate": "tz3Zhs2dygr55yHyQyKjntAtY9bgfhLZ4Xj1",
        "reception_time": "2022-01-19T15:15:13.830-00:00",
        "included_in_blocks":
          [ "BLisnYrMsAtHqCPvtMieZNof75rQQaF3cCkv9k15TUrJzaA2tPG" ] },
      { "delegate": "tz3iJu5vrKZcsqRPs8yJ61UDoeEXZmtro4qh",
        "reception_time": "2022-01-19T15:15:13.830-00:00",
        "included_in_blocks":
          [ "BLisnYrMsAtHqCPvtMieZNof75rQQaF3cCkv9k15TUrJzaA2tPG" ] },
      { "delegate": "tz1Nf6tsK4G6bBqgSQERy4nUtkHNKUVdh7q1",
        "reception_time": "2022-01-19T15:15:13.778-00:00",
        "included_in_blocks":
          [ "BLisnYrMsAtHqCPvtMieZNof75rQQaF3cCkv9k15TUrJzaA2tPG" ] },
      { "delegate": "tz1fb7c66UwePkkfDXz4ajFaBP9hVNLdS7JJ",
        "reception_time": "2022-01-19T15:15:13.830-00:00",
        "included_in_blocks":
          [ "BLisnYrMsAtHqCPvtMieZNof75rQQaF3cCkv9k15TUrJzaA2tPG" ] },
      { "delegate": "tz1ZPh7XfUaJXUDvkrBxmS1BjEM1i62hiPpM",
        "reception_time": "2022-01-19T15:15:13.778-00:00",
        "included_in_blocks":
          [ "BLisnYrMsAtHqCPvtMieZNof75rQQaF3cCkv9k15TUrJzaA2tPG" ] },
      { "delegate": "tz1ei4WtWEMEJekSv8qDnu9PExG6Q8HgRGr3",
        "reception_time": "2022-01-19T15:15:13.830-00:00",
        "included_in_blocks":
          [ "BLisnYrMsAtHqCPvtMieZNof75rQQaF3cCkv9k15TUrJzaA2tPG" ] },
      { "delegate": "tz1WCd2jm4uSt4vntk4vSuUWoZQGhLcDuR9q",
        "reception_time": "2022-01-19T15:15:13.778-00:00",
        "included_in_blocks":
          [ "BLisnYrMsAtHqCPvtMieZNof75rQQaF3cCkv9k15TUrJzaA2tPG" ] },
      { "delegate": "tz1PWCDnz783NNGGQjEFFsHtrcK5yBW4E2rm",
        "reception_time": "2022-01-19T15:15:13.830-00:00",
        "included_in_blocks":
          [ "BLisnYrMsAtHqCPvtMieZNof75rQQaF3cCkv9k15TUrJzaA2tPG" ] },
      { "delegate": "tz1beersuEDv8Z7ngQ825xfbaJNS2EhXnyHR",
        "reception_time": "2022-01-19T15:15:13.778-00:00",
        "included_in_blocks":
          [ "BLisnYrMsAtHqCPvtMieZNof75rQQaF3cCkv9k15TUrJzaA2tPG" ] },
      { "delegate": "tz1SYq214SCBy9naR6cvycQsYcUGpBqQAE8d",
        "reception_time": "2022-01-19T15:15:14.281-00:00",
        "included_in_blocks":
          [ "BLisnYrMsAtHqCPvtMieZNof75rQQaF3cCkv9k15TUrJzaA2tPG" ] } ] }