{ "blocks":
    [ { "hash": "BL68r2fgpEFwZmNJjodWLKHgLAdVdxyY5TAvq5XbCg1qntkcT1Y",
        "delegate": "tz1TRqbYbUf2GyrjErf3hBzgBJPzW8y36qEs",
        "reception_time": "2022-01-19T12:37:33.345-00:00",
        "timestamp": "2022-01-19T12:37:20Z" } ],
  "endorsements":
    [ { "delegate": "tz1WCd2jm4uSt4vntk4vSuUWoZQGhLcDuR9q",
        "reception_time": "2022-01-19T12:37:33.154-00:00",
        "errors":
          [ { "kind": "temporary",
              "id": "proto.011-PtHangz2.prefilter.outdated_endorsement" } ],
        "included_in_blocks":
          [ "BL4Sj8666ndXVFeMTaTJ4E7RFGizgTUr5xfN1LfvhamEixEstni" ] },
      { "delegate": "tz1Ldzz6k1BHdhuKvAtMRX7h5kJSMHESMHLC",
        "reception_time": "2022-01-19T12:37:32.993-00:00",
        "errors":
          [ { "kind": "temporary",
              "id": "proto.011-PtHangz2.prefilter.outdated_endorsement" } ],
        "included_in_blocks":
          [ "BL4Sj8666ndXVFeMTaTJ4E7RFGizgTUr5xfN1LfvhamEixEstni" ] },
      { "delegate": "tz1irJKkXS2DBWkU1NnmFQx1c1L7pbGg4yhk",
        "reception_time": "2022-01-19T12:37:32.854-00:00",
        "errors":
          [ { "kind": "temporary",
              "id": "proto.011-PtHangz2.prefilter.outdated_endorsement" } ],
        "included_in_blocks":
          [ "BL4Sj8666ndXVFeMTaTJ4E7RFGizgTUr5xfN1LfvhamEixEstni" ] },
      { "delegate": "tz1STeamwbp68THcny9zk3LsbG3H36DMvbRK",
        "reception_time": "2022-01-19T12:37:32.743-00:00",
        "errors":
          [ { "kind": "temporary",
              "id": "proto.011-PtHangz2.prefilter.outdated_endorsement" } ],
        "included_in_blocks":
          [ "BL4Sj8666ndXVFeMTaTJ4E7RFGizgTUr5xfN1LfvhamEixEstni" ] },
      { "delegate": "tz1eEnQhbwf6trb8Q8mPb2RaPkNk2rN7BKi8",
        "reception_time": "2022-01-19T12:37:32.719-00:00",
        "errors":
          [ { "kind": "temporary",
              "id": "proto.011-PtHangz2.prefilter.outdated_endorsement" } ],
        "included_in_blocks":
          [ "BL4Sj8666ndXVFeMTaTJ4E7RFGizgTUr5xfN1LfvhamEixEstni" ] },
      { "delegate": "tz1RV1MBbZMR68tacosb7Mwj6LkbPSUS1er1",
        "reception_time": "2022-01-19T12:37:32.712-00:00",
        "errors":
          [ { "kind": "temporary",
              "id": "proto.011-PtHangz2.prefilter.outdated_endorsement" } ],
        "included_in_blocks":
          [ "BL4Sj8666ndXVFeMTaTJ4E7RFGizgTUr5xfN1LfvhamEixEstni" ] },
      { "delegate": "tz1Scdr2HsZiQjc7bHMeBbmDRXYVvdhjJbBh",
        "reception_time": "2022-01-19T12:37:32.705-00:00",
        "errors":
          [ { "kind": "temporary",
              "id": "proto.011-PtHangz2.prefilter.outdated_endorsement" } ],
        "included_in_blocks":
          [ "BL4Sj8666ndXVFeMTaTJ4E7RFGizgTUr5xfN1LfvhamEixEstni" ] },
      { "delegate": "tz1TXzyaKUA8wsWefdSnyaYFnV2M3vCV7er9",
        "reception_time": "2022-01-19T12:37:32.591-00:00",
        "errors":
          [ { "kind": "temporary",
              "id": "proto.011-PtHangz2.prefilter.outdated_endorsement" } ],
        "included_in_blocks":
          [ "BL4Sj8666ndXVFeMTaTJ4E7RFGizgTUr5xfN1LfvhamEixEstni" ] },
      { "delegate": "tz1XfAjZyaLdceHnZxbMYop7g7kWKPut4PR7",
        "reception_time": "2022-01-19T12:37:32.544-00:00",
        "errors":
          [ { "kind": "temporary",
              "id": "proto.011-PtHangz2.prefilter.outdated_endorsement" } ],
        "included_in_blocks":
          [ "BL4Sj8666ndXVFeMTaTJ4E7RFGizgTUr5xfN1LfvhamEixEstni" ] },
      { "delegate": "tz1P2Po7YM526ughEsRbY4oR9zaUPDZjxFrb",
        "reception_time": "2022-01-19T12:37:32.498-00:00",
        "errors":
          [ { "kind": "temporary",
              "id": "proto.011-PtHangz2.prefilter.outdated_endorsement" } ],
        "included_in_blocks":
          [ "BL4Sj8666ndXVFeMTaTJ4E7RFGizgTUr5xfN1LfvhamEixEstni" ] },
      { "delegate": "tz1Lhf4J9Qxoe3DZ2nfe8FGDnvVj7oKjnMY6",
        "reception_time": "2022-01-19T12:37:32.484-00:00",
        "errors":
          [ { "kind": "temporary",
              "id": "proto.011-PtHangz2.prefilter.outdated_endorsement" } ],
        "included_in_blocks":
          [ "BL4Sj8666ndXVFeMTaTJ4E7RFGizgTUr5xfN1LfvhamEixEstni" ] },
      { "delegate": "tz1gUNyn3hmnEWqkusWPzxRaon1cs7ndWh7h",
        "reception_time": "2022-01-19T12:37:32.478-00:00",
        "errors":
          [ { "kind": "temporary",
              "id": "proto.011-PtHangz2.prefilter.outdated_endorsement" } ],
        "included_in_blocks":
          [ "BL4Sj8666ndXVFeMTaTJ4E7RFGizgTUr5xfN1LfvhamEixEstni" ] },
      { "delegate": "tz1VQnqCCqX4K5sP3FNkVSNKTdCAMJDd3E1n",
        "reception_time": "2022-01-19T12:37:32.461-00:00",
        "errors":
          [ { "kind": "temporary",
              "id": "proto.011-PtHangz2.prefilter.outdated_endorsement" } ],
        "included_in_blocks":
          [ "BL4Sj8666ndXVFeMTaTJ4E7RFGizgTUr5xfN1LfvhamEixEstni" ] },
      { "delegate": "tz1TeWzSWBNZ7PB6Kb6xUpGCT7pu13PFv3cv" },
      { "delegate": "tz1W5VkdB5s7ENMESVBtwyt9kyvLqPcUczRT" },
      { "delegate": "tz1aXD7Jigrt3PBYSpHSg5Rr33SexMmmM5Ys",
        "reception_time": "2022-01-19T12:37:35.408-00:00",
        "included_in_blocks":
          [ "BL4Sj8666ndXVFeMTaTJ4E7RFGizgTUr5xfN1LfvhamEixEstni" ] },
      { "delegate": "tz1ajgycuHmd2z2JbTSJxKv7x6cok2KuNSk1",
        "reception_time": "2022-01-19T12:37:35.451-00:00",
        "included_in_blocks":
          [ "BL4Sj8666ndXVFeMTaTJ4E7RFGizgTUr5xfN1LfvhamEixEstni" ] },
      { "delegate": "tz1MJx9vhaNRSimcuXPK2rW4fLccQnDAnVKJ",
        "reception_time": "2022-01-19T12:37:35.626-00:00",
        "included_in_blocks":
          [ "BL4Sj8666ndXVFeMTaTJ4E7RFGizgTUr5xfN1LfvhamEixEstni" ] },
      { "delegate": "tz1ei4WtWEMEJekSv8qDnu9PExG6Q8HgRGr3",
        "reception_time": "2022-01-19T12:37:35.630-00:00",
        "included_in_blocks":
          [ "BL4Sj8666ndXVFeMTaTJ4E7RFGizgTUr5xfN1LfvhamEixEstni" ] },
      { "delegate": "tz1PWCDnz783NNGGQjEFFsHtrcK5yBW4E2rm",
        "reception_time": "2022-01-19T12:37:35.633-00:00",
        "included_in_blocks":
          [ "BL4Sj8666ndXVFeMTaTJ4E7RFGizgTUr5xfN1LfvhamEixEstni" ] },
      { "delegate": "tz3hw2kqXhLUvY65ca1eety2oQTpAvd34R9Q",
        "reception_time": "2022-01-19T12:37:35.640-00:00",
        "included_in_blocks":
          [ "BL4Sj8666ndXVFeMTaTJ4E7RFGizgTUr5xfN1LfvhamEixEstni" ] },
      { "delegate": "tz3RKYFsLuQzKBtmYuLNas7uMu3AsYd4QdsA",
        "reception_time": "2022-01-19T12:37:35.654-00:00",
        "included_in_blocks":
          [ "BL4Sj8666ndXVFeMTaTJ4E7RFGizgTUr5xfN1LfvhamEixEstni" ] },
      { "delegate": "tz3gtoUxdudfBRcNY7iVdKPHCYYX6xdPpoRS",
        "reception_time": "2022-01-19T12:37:35.660-00:00",
        "included_in_blocks":
          [ "BL4Sj8666ndXVFeMTaTJ4E7RFGizgTUr5xfN1LfvhamEixEstni" ] },
      { "delegate": "tz3NxTnke1acr8o3h5y9ytf5awQBGNJUKzVU",
        "reception_time": "2022-01-19T12:37:35.668-00:00",
        "included_in_blocks":
          [ "BL4Sj8666ndXVFeMTaTJ4E7RFGizgTUr5xfN1LfvhamEixEstni" ] },
      { "delegate": "tz3iJu5vrKZcsqRPs8yJ61UDoeEXZmtro4qh",
        "reception_time": "2022-01-19T12:37:35.675-00:00",
        "included_in_blocks":
          [ "BL4Sj8666ndXVFeMTaTJ4E7RFGizgTUr5xfN1LfvhamEixEstni" ] },
      { "delegate": "tz3ZbP2pM3nwvXztbuMJwJnDvV5xdpU8UkkD",
        "reception_time": "2022-01-19T12:37:35.682-00:00",
        "included_in_blocks":
          [ "BL4Sj8666ndXVFeMTaTJ4E7RFGizgTUr5xfN1LfvhamEixEstni" ] },
      { "delegate": "tz3QSGPoRp3Kn7n3vY24eYeu3Peuqo45LQ4D",
        "reception_time": "2022-01-19T12:37:35.689-00:00",
        "included_in_blocks":
          [ "BL4Sj8666ndXVFeMTaTJ4E7RFGizgTUr5xfN1LfvhamEixEstni" ] },
      { "delegate": "tz3Zhs2dygr55yHyQyKjntAtY9bgfhLZ4Xj1",
        "reception_time": "2022-01-19T12:37:35.725-00:00",
        "included_in_blocks":
          [ "BL4Sj8666ndXVFeMTaTJ4E7RFGizgTUr5xfN1LfvhamEixEstni" ] },
      { "delegate": "tz1TRspM5SeZpaQUhzByXbEvqKF1vnCM2YTK",
        "reception_time": "2022-01-19T12:37:35.745-00:00",
        "included_in_blocks":
          [ "BL4Sj8666ndXVFeMTaTJ4E7RFGizgTUr5xfN1LfvhamEixEstni" ] },
      { "delegate": "tz1cSoWttzYi9taqyHfcKS86b5M31SoaTQdg",
        "reception_time": "2022-01-19T12:37:35.752-00:00",
        "included_in_blocks":
          [ "BL4Sj8666ndXVFeMTaTJ4E7RFGizgTUr5xfN1LfvhamEixEstni" ] },
      { "delegate": "tz1NdhRv643wLW6zCcRP3VfT24dvDnh7nuh9",
        "reception_time": "2022-01-19T12:37:35.752-00:00",
        "included_in_blocks":
          [ "BL4Sj8666ndXVFeMTaTJ4E7RFGizgTUr5xfN1LfvhamEixEstni" ] },
      { "delegate": "tz2FCNBrERXtaTtNX6iimR1UJ5JSDxvdHM93",
        "reception_time": "2022-01-19T12:37:35.757-00:00",
        "included_in_blocks":
          [ "BL4Sj8666ndXVFeMTaTJ4E7RFGizgTUr5xfN1LfvhamEixEstni" ] },
      { "delegate": "tz1g8vkmcde6sWKaG2NN9WKzCkDM6Rziq194",
        "reception_time": "2022-01-19T12:37:35.757-00:00",
        "included_in_blocks":
          [ "BL4Sj8666ndXVFeMTaTJ4E7RFGizgTUr5xfN1LfvhamEixEstni" ] },
      { "delegate": "tz1cYqRcjRXSWcs3bjehN21VmBAH2aFMg6Ds",
        "reception_time": "2022-01-19T12:37:35.765-00:00",
        "included_in_blocks":
          [ "BL4Sj8666ndXVFeMTaTJ4E7RFGizgTUr5xfN1LfvhamEixEstni" ] },
      { "delegate": "tz1WBfwbT66FC6BTLexc2BoyCCBM9LG7pnVW",
        "reception_time": "2022-01-19T12:37:35.770-00:00",
        "included_in_blocks":
          [ "BL4Sj8666ndXVFeMTaTJ4E7RFGizgTUr5xfN1LfvhamEixEstni" ] },
      { "delegate": "tz3QT9dHYKDqh563chVa6za8526ys1UKfRfL",
        "reception_time": "2022-01-19T12:37:35.779-00:00",
        "included_in_blocks":
          [ "BL4Sj8666ndXVFeMTaTJ4E7RFGizgTUr5xfN1LfvhamEixEstni" ] },
      { "delegate": "tz1axcnVN9tZnCe4sQQhC6f3tfSEXdjPaXPY",
        "reception_time": "2022-01-19T12:37:35.779-00:00",
        "included_in_blocks":
          [ "BL4Sj8666ndXVFeMTaTJ4E7RFGizgTUr5xfN1LfvhamEixEstni" ] },
      { "delegate": "tz3bTdwZinP8U1JmSweNzVKhmwafqWmFWRfk",
        "reception_time": "2022-01-19T12:37:35.789-00:00",
        "included_in_blocks":
          [ "BL4Sj8666ndXVFeMTaTJ4E7RFGizgTUr5xfN1LfvhamEixEstni" ] },
      { "delegate": "tz1NEKxGEHsFufk87CVZcrqWu8o22qh46GK6",
        "reception_time": "2022-01-19T12:37:35.789-00:00",
        "included_in_blocks":
          [ "BL4Sj8666ndXVFeMTaTJ4E7RFGizgTUr5xfN1LfvhamEixEstni" ] },
      { "delegate": "tz1Tnjaxk6tbAeC2TmMApPh8UsrEVQvhHvx5",
        "reception_time": "2022-01-19T12:37:35.795-00:00",
        "included_in_blocks":
          [ "BL4Sj8666ndXVFeMTaTJ4E7RFGizgTUr5xfN1LfvhamEixEstni" ] },
      { "delegate": "tz1TEc75UKXv4W5cwi14Na3NtqFD51yKQi7h",
        "reception_time": "2022-01-19T12:37:35.795-00:00",
        "included_in_blocks":
          [ "BL4Sj8666ndXVFeMTaTJ4E7RFGizgTUr5xfN1LfvhamEixEstni" ] },
      { "delegate": "tz1MQMiZHV8q4tTwUMWmS5Y3kaP6J2136iXr",
        "reception_time": "2022-01-19T12:37:35.798-00:00",
        "included_in_blocks":
          [ "BL4Sj8666ndXVFeMTaTJ4E7RFGizgTUr5xfN1LfvhamEixEstni" ] },
      { "delegate": "tz1dNVDWPf3Q59SdJqnjdnu277iyvReiRS9M",
        "reception_time": "2022-01-19T12:37:35.804-00:00",
        "included_in_blocks":
          [ "BL4Sj8666ndXVFeMTaTJ4E7RFGizgTUr5xfN1LfvhamEixEstni" ] },
      { "delegate": "tz1abmz7jiCV2GH2u81LRrGgAFFgvQgiDiaf",
        "reception_time": "2022-01-19T12:37:35.811-00:00",
        "included_in_blocks":
          [ "BL4Sj8666ndXVFeMTaTJ4E7RFGizgTUr5xfN1LfvhamEixEstni" ] },
      { "delegate": "tz1UMCB2AHSTwG7YcGNr31CqYCtGN873royv",
        "reception_time": "2022-01-19T12:37:35.830-00:00",
        "included_in_blocks":
          [ "BL4Sj8666ndXVFeMTaTJ4E7RFGizgTUr5xfN1LfvhamEixEstni" ] },
      { "delegate": "tz1T7duV5gZWSTq4YpBGbXNLTfznCLDrFxvs",
        "reception_time": "2022-01-19T12:37:35.841-00:00",
        "included_in_blocks":
          [ "BL4Sj8666ndXVFeMTaTJ4E7RFGizgTUr5xfN1LfvhamEixEstni" ] },
      { "delegate": "tz1Nf6tsK4G6bBqgSQERy4nUtkHNKUVdh7q1",
        "reception_time": "2022-01-19T12:37:35.843-00:00",
        "included_in_blocks":
          [ "BL4Sj8666ndXVFeMTaTJ4E7RFGizgTUr5xfN1LfvhamEixEstni" ] },
      { "delegate": "tz3S6BBeKgJGXxvLyZ1xzXzMPn11nnFtq5L9",
        "reception_time": "2022-01-19T12:37:35.874-00:00",
        "included_in_blocks":
          [ "BL4Sj8666ndXVFeMTaTJ4E7RFGizgTUr5xfN1LfvhamEixEstni" ] },
      { "delegate": "tz1gfArv665EUkSg2ojMBzcbfwuPxAvqPvjo",
        "reception_time": "2022-01-19T12:37:35.878-00:00",
        "included_in_blocks":
          [ "BL4Sj8666ndXVFeMTaTJ4E7RFGizgTUr5xfN1LfvhamEixEstni" ] },
      { "delegate": "tz1KfEsrtDaA1sX7vdM4qmEPWuSytuqCDp5j",
        "reception_time": "2022-01-19T12:37:35.891-00:00",
        "included_in_blocks":
          [ "BL4Sj8666ndXVFeMTaTJ4E7RFGizgTUr5xfN1LfvhamEixEstni" ] },
      { "delegate": "tz1KzSC1J9aBxKp7u8TUnpN8L7S65PBRkgdF",
        "reception_time": "2022-01-19T12:37:35.897-00:00",
        "included_in_blocks":
          [ "BL4Sj8666ndXVFeMTaTJ4E7RFGizgTUr5xfN1LfvhamEixEstni" ] },
      { "delegate": "tz3gLTu4Yxj8tPAcriQVUdxv6BY9QyvzU1az",
        "reception_time": "2022-01-19T12:37:35.908-00:00",
        "included_in_blocks":
          [ "BL4Sj8666ndXVFeMTaTJ4E7RFGizgTUr5xfN1LfvhamEixEstni" ] },
      { "delegate": "tz1LmaFsWRkjr7QMCx5PtV6xTUz3AmEpKQiF",
        "reception_time": "2022-01-19T12:37:36.045-00:00",
        "included_in_blocks":
          [ "BL4Sj8666ndXVFeMTaTJ4E7RFGizgTUr5xfN1LfvhamEixEstni" ] },
      { "delegate": "tz3NDpRj6WBrJPikcPVHRBEjWKxFw3c6eQPS",
        "reception_time": "2022-01-19T12:37:36.053-00:00",
        "included_in_blocks":
          [ "BL4Sj8666ndXVFeMTaTJ4E7RFGizgTUr5xfN1LfvhamEixEstni" ] },
      { "delegate": "tz1RCFbB9GpALpsZtu6J58sb74dm8qe6XBzv",
        "reception_time": "2022-01-19T12:37:36.420-00:00",
        "included_in_blocks":
          [ "BL4Sj8666ndXVFeMTaTJ4E7RFGizgTUr5xfN1LfvhamEixEstni" ] },
      { "delegate": "tz1RjoHc98dBoqaH2jawF62XNKh7YsHwbkEv",
        "reception_time": "2022-01-19T12:37:36.463-00:00",
        "included_in_blocks":
          [ "BL4Sj8666ndXVFeMTaTJ4E7RFGizgTUr5xfN1LfvhamEixEstni" ] },
      { "delegate": "tz1h4GUAMweP7SNWzDgvMk3yRCAZyaP1MxZq",
        "reception_time": "2022-01-19T12:37:36.623-00:00",
        "included_in_blocks":
          [ "BL4Sj8666ndXVFeMTaTJ4E7RFGizgTUr5xfN1LfvhamEixEstni" ] },
      { "delegate": "tz1PeZx7FXy7QRuMREGXGxeipb24RsMMzUNe",
        "reception_time": "2022-01-19T12:37:36.628-00:00",
        "included_in_blocks":
          [ "BL4Sj8666ndXVFeMTaTJ4E7RFGizgTUr5xfN1LfvhamEixEstni" ] },
      { "delegate": "tz1S8MNvuFEUsWgjHvi3AxibRBf388NhT1q2",
        "reception_time": "2022-01-19T12:37:36.638-00:00",
        "included_in_blocks":
          [ "BL4Sj8666ndXVFeMTaTJ4E7RFGizgTUr5xfN1LfvhamEixEstni" ] },
      { "delegate": "tz3VEZ4k6a4Wx42iyev6i2aVAptTRLEAivNN",
        "reception_time": "2022-01-19T12:37:36.691-00:00",
        "included_in_blocks":
          [ "BL4Sj8666ndXVFeMTaTJ4E7RFGizgTUr5xfN1LfvhamEixEstni" ] },
      { "delegate": "tz1Xsrfv6hn86fp88YfRs6xcKwt2nTqxVZYM",
        "reception_time": "2022-01-19T12:37:36.701-00:00",
        "included_in_blocks":
          [ "BL4Sj8666ndXVFeMTaTJ4E7RFGizgTUr5xfN1LfvhamEixEstni" ] },
      { "delegate": "tz3bvNMQ95vfAYtG8193ymshqjSvmxiCUuR5",
        "reception_time": "2022-01-19T12:37:36.715-00:00",
        "included_in_blocks":
          [ "BL4Sj8666ndXVFeMTaTJ4E7RFGizgTUr5xfN1LfvhamEixEstni" ] },
      { "delegate": "tz3WMqdzXqRWXwyvj5Hp2H7QEepaUuS7vd9K",
        "reception_time": "2022-01-19T12:37:36.722-00:00",
        "included_in_blocks":
          [ "BL4Sj8666ndXVFeMTaTJ4E7RFGizgTUr5xfN1LfvhamEixEstni" ] },
      { "delegate": "tz3RB4aoyjov4KEVRbuhvQ1CKJgBJMWhaeB8",
        "reception_time": "2022-01-19T12:37:36.756-00:00",
        "included_in_blocks":
          [ "BL4Sj8666ndXVFeMTaTJ4E7RFGizgTUr5xfN1LfvhamEixEstni" ] },
      { "delegate": "tz3RDC3Jdn4j15J7bBHZd29EUee9gVB1CxD9",
        "reception_time": "2022-01-19T12:37:36.816-00:00",
        "included_in_blocks":
          [ "BL4Sj8666ndXVFeMTaTJ4E7RFGizgTUr5xfN1LfvhamEixEstni" ] },
      { "delegate": "tz1b9MYGrbN1NAxphLEsPPNT9JC7aNFc5nA4",
        "reception_time": "2022-01-19T12:37:36.821-00:00",
        "included_in_blocks":
          [ "BL4Sj8666ndXVFeMTaTJ4E7RFGizgTUr5xfN1LfvhamEixEstni" ] },
      { "delegate": "tz1fUyqYH7H4pRHN1roWY17giXhy1RvxjgUV",
        "reception_time": "2022-01-19T12:37:36.833-00:00",
        "included_in_blocks":
          [ "BL4Sj8666ndXVFeMTaTJ4E7RFGizgTUr5xfN1LfvhamEixEstni" ] },
      { "delegate": "tz1NoYvKjXTzTk54VpLxBfouJ33J8jwKPPvw",
        "reception_time": "2022-01-19T12:37:36.961-00:00",
        "included_in_blocks":
          [ "BL4Sj8666ndXVFeMTaTJ4E7RFGizgTUr5xfN1LfvhamEixEstni" ] },
      { "delegate": "tz1cYufsxHXJcvANhvS55h3aY32a9BAFB494",
        "reception_time": "2022-01-19T12:37:37.079-00:00",
        "included_in_blocks":
          [ "BL4Sj8666ndXVFeMTaTJ4E7RFGizgTUr5xfN1LfvhamEixEstni" ] },
      { "delegate": "tz3NExpXn9aPNZPorRE4SdjJ2RGrfbJgMAaV",
        "reception_time": "2022-01-19T12:37:37.375-00:00",
        "included_in_blocks":
          [ "BL4Sj8666ndXVFeMTaTJ4E7RFGizgTUr5xfN1LfvhamEixEstni" ] },
      { "delegate": "tz3UoffC7FG7zfpmvmjUmUeAaHvzdcUvAj6r",
        "reception_time": "2022-01-19T12:37:37.540-00:00",
        "included_in_blocks":
          [ "BL4Sj8666ndXVFeMTaTJ4E7RFGizgTUr5xfN1LfvhamEixEstni" ] },
      { "delegate": "tz1bTpviNnyx2PXsNmGpCQTMQsGoYordkUoA",
        "reception_time": "2022-01-19T12:37:37.754-00:00",
        "included_in_blocks":
          [ "BL4Sj8666ndXVFeMTaTJ4E7RFGizgTUr5xfN1LfvhamEixEstni" ] },
      { "delegate": "tz1Q8QkSBS63ZQnH3fBTiAMPes9R666Rn6Sc",
        "reception_time": "2022-01-19T12:37:37.769-00:00",
        "included_in_blocks":
          [ "BL4Sj8666ndXVFeMTaTJ4E7RFGizgTUr5xfN1LfvhamEixEstni" ] },
      { "delegate": "tz1aRoaRhSpRYvFdyvgWLL6TGyRoGF51wDjM",
        "reception_time": "2022-01-19T12:37:38.908-00:00",
        "included_in_blocks":
          [ "BL4Sj8666ndXVFeMTaTJ4E7RFGizgTUr5xfN1LfvhamEixEstni" ] },
      { "delegate": "tz1gg5bjopPcr9agjamyu9BbXKLibNc2rbAq",
        "reception_time": "2022-01-19T12:37:39.780-00:00",
        "included_in_blocks":
          [ "BL4Sj8666ndXVFeMTaTJ4E7RFGizgTUr5xfN1LfvhamEixEstni" ] },
      { "delegate": "tz1NpWrAyDL9k2Lmnyxcgr9xuJakbBxdq7FB",
        "reception_time": "2022-01-19T12:37:43.093-00:00",
        "included_in_blocks":
          [ "BL4Sj8666ndXVFeMTaTJ4E7RFGizgTUr5xfN1LfvhamEixEstni" ] },
      { "delegate": "tz1awXW7wuXy21c66vBudMXQVAPgRnqqwgTH",
        "reception_time": "2022-01-19T12:37:46.655-00:00",
        "included_in_blocks":
          [ "BL4Sj8666ndXVFeMTaTJ4E7RFGizgTUr5xfN1LfvhamEixEstni" ] } ] }