{ "blocks":
    [ { "hash": "BLYSkJewp6rb3VCFc7UJGZzoQXJenM46fNDGD2k4XS7jPwPDx31",
        "delegate": "tz1gfArv665EUkSg2ojMBzcbfwuPxAvqPvjo",
        "reception_time": "2022-01-19T13:40:33.494-00:00",
        "timestamp": "2022-01-19T13:40:10Z" } ],
  "endorsements":
    [ { "delegate": "tz1gUNyn3hmnEWqkusWPzxRaon1cs7ndWh7h",
        "reception_time": "2022-01-19T13:40:40.673-00:00",
        "included_in_blocks":
          [ "BL7ZuwPpuXiQGCHzYDaLQTsuKeX7MpnU7YH8vBz9gYDKBdMYDCL" ] },
      { "delegate": "tz1P2Po7YM526ughEsRbY4oR9zaUPDZjxFrb",
        "reception_time": "2022-01-19T13:40:40.900-00:00",
        "included_in_blocks":
          [ "BL7ZuwPpuXiQGCHzYDaLQTsuKeX7MpnU7YH8vBz9gYDKBdMYDCL" ] },
      { "delegate": "tz1bsdrs36X5BTH83RHUBdUouKLJZK8d2oBa",
        "reception_time": "2022-01-19T13:40:40.956-00:00",
        "included_in_blocks":
          [ "BL7ZuwPpuXiQGCHzYDaLQTsuKeX7MpnU7YH8vBz9gYDKBdMYDCL" ] },
      { "delegate": "tz1STeamwbp68THcny9zk3LsbG3H36DMvbRK",
        "reception_time": "2022-01-19T13:40:40.968-00:00",
        "included_in_blocks":
          [ "BL7ZuwPpuXiQGCHzYDaLQTsuKeX7MpnU7YH8vBz9gYDKBdMYDCL" ] },
      { "delegate": "tz1eEnQhbwf6trb8Q8mPb2RaPkNk2rN7BKi8",
        "reception_time": "2022-01-19T13:40:41.076-00:00",
        "included_in_blocks":
          [ "BL7ZuwPpuXiQGCHzYDaLQTsuKeX7MpnU7YH8vBz9gYDKBdMYDCL" ] },
      { "delegate": "tz1PWCDnz783NNGGQjEFFsHtrcK5yBW4E2rm",
        "reception_time": "2022-01-19T13:40:40.962-00:00",
        "included_in_blocks":
          [ "BL7ZuwPpuXiQGCHzYDaLQTsuKeX7MpnU7YH8vBz9gYDKBdMYDCL" ] },
      { "delegate": "tz1cSj7fTex3JPd1p1LN1fwek6AV1kH93Wwc",
        "reception_time": "2022-01-19T13:40:41.374-00:00",
        "included_in_blocks":
          [ "BL7ZuwPpuXiQGCHzYDaLQTsuKeX7MpnU7YH8vBz9gYDKBdMYDCL" ] },
      { "delegate": "tz1WctSwL49BZtdWAQ75NY6vr4xsAx6oKdah",
        "reception_time": "2022-01-19T13:40:40.883-00:00",
        "included_in_blocks":
          [ "BL7ZuwPpuXiQGCHzYDaLQTsuKeX7MpnU7YH8vBz9gYDKBdMYDCL" ] },
      { "delegate": "tz1TzaNn7wSQSP5gYPXCnNzBCpyMiidCq1PX",
        "reception_time": "2022-01-19T13:40:41.076-00:00",
        "included_in_blocks":
          [ "BL7ZuwPpuXiQGCHzYDaLQTsuKeX7MpnU7YH8vBz9gYDKBdMYDCL" ] },
      { "delegate": "tz1MQMiZHV8q4tTwUMWmS5Y3kaP6J2136iXr",
        "reception_time": "2022-01-19T13:40:40.954-00:00",
        "included_in_blocks":
          [ "BL7ZuwPpuXiQGCHzYDaLQTsuKeX7MpnU7YH8vBz9gYDKBdMYDCL" ] },
      { "delegate": "tz1WCd2jm4uSt4vntk4vSuUWoZQGhLcDuR9q",
        "reception_time": "2022-01-19T13:40:40.911-00:00",
        "included_in_blocks":
          [ "BL7ZuwPpuXiQGCHzYDaLQTsuKeX7MpnU7YH8vBz9gYDKBdMYDCL" ] },
      { "delegate": "tz1KfEsrtDaA1sX7vdM4qmEPWuSytuqCDp5j",
        "reception_time": "2022-01-19T13:40:40.911-00:00",
        "included_in_blocks":
          [ "BL7ZuwPpuXiQGCHzYDaLQTsuKeX7MpnU7YH8vBz9gYDKBdMYDCL" ] },
      { "delegate": "tz1ajgycuHmd2z2JbTSJxKv7x6cok2KuNSk1",
        "reception_time": "2022-01-19T13:40:40.948-00:00",
        "included_in_blocks":
          [ "BL7ZuwPpuXiQGCHzYDaLQTsuKeX7MpnU7YH8vBz9gYDKBdMYDCL" ] },
      { "delegate": "tz1LnWa4AiFCjMezTgSNa65QFoo7DQGEWgEU",
        "reception_time": "2022-01-19T13:40:41.088-00:00",
        "included_in_blocks":
          [ "BL7ZuwPpuXiQGCHzYDaLQTsuKeX7MpnU7YH8vBz9gYDKBdMYDCL" ] },
      { "delegate": "tz1dwu9aYb7CRNq4Y2zAjipdjFuSVKhHS8vA",
        "reception_time": "2022-01-19T13:40:40.951-00:00",
        "included_in_blocks":
          [ "BL7ZuwPpuXiQGCHzYDaLQTsuKeX7MpnU7YH8vBz9gYDKBdMYDCL" ] },
      { "delegate": "tz1dRKU4FQ9QRRQPdaH4zCR6gmCmXfcvcgtB",
        "reception_time": "2022-01-19T13:40:41.069-00:00",
        "included_in_blocks":
          [ "BL7ZuwPpuXiQGCHzYDaLQTsuKeX7MpnU7YH8vBz9gYDKBdMYDCL" ] },
      { "delegate": "tz1axcnVN9tZnCe4sQQhC6f3tfSEXdjPaXPY",
        "reception_time": "2022-01-19T13:40:41.131-00:00",
        "included_in_blocks":
          [ "BL7ZuwPpuXiQGCHzYDaLQTsuKeX7MpnU7YH8vBz9gYDKBdMYDCL" ] },
      { "delegate": "tz1T7duV5gZWSTq4YpBGbXNLTfznCLDrFxvs",
        "reception_time": "2022-01-19T13:40:40.968-00:00",
        "included_in_blocks":
          [ "BL7ZuwPpuXiQGCHzYDaLQTsuKeX7MpnU7YH8vBz9gYDKBdMYDCL" ] },
      { "delegate": "tz1Nf6tsK4G6bBqgSQERy4nUtkHNKUVdh7q1",
        "reception_time": "2022-01-19T13:40:41.261-00:00",
        "included_in_blocks":
          [ "BL7ZuwPpuXiQGCHzYDaLQTsuKeX7MpnU7YH8vBz9gYDKBdMYDCL" ] },
      { "delegate": "tz1MJx9vhaNRSimcuXPK2rW4fLccQnDAnVKJ",
        "reception_time": "2022-01-19T13:40:41.683-00:00",
        "included_in_blocks":
          [ "BL7ZuwPpuXiQGCHzYDaLQTsuKeX7MpnU7YH8vBz9gYDKBdMYDCL" ] },
      { "delegate": "tz1bHzftcTKZMTZgLLtnrXydCm6UEqf4ivca",
        "reception_time": "2022-01-19T13:40:41.261-00:00",
        "included_in_blocks":
          [ "BL7ZuwPpuXiQGCHzYDaLQTsuKeX7MpnU7YH8vBz9gYDKBdMYDCL" ] },
      { "delegate": "tz1Tnjaxk6tbAeC2TmMApPh8UsrEVQvhHvx5",
        "reception_time": "2022-01-19T13:40:40.962-00:00",
        "included_in_blocks":
          [ "BL7ZuwPpuXiQGCHzYDaLQTsuKeX7MpnU7YH8vBz9gYDKBdMYDCL" ] },
      { "delegate": "tz1fwnfJNgiDACshK9avfRfFbMaXrs3ghoJa",
        "reception_time": "2022-01-19T13:40:42.362-00:00",
        "included_in_blocks":
          [ "BL7ZuwPpuXiQGCHzYDaLQTsuKeX7MpnU7YH8vBz9gYDKBdMYDCL" ] },
      { "delegate": "tz3gtoUxdudfBRcNY7iVdKPHCYYX6xdPpoRS",
        "reception_time": "2022-01-19T13:40:42.376-00:00",
        "included_in_blocks":
          [ "BL7ZuwPpuXiQGCHzYDaLQTsuKeX7MpnU7YH8vBz9gYDKBdMYDCL" ] },
      { "delegate": "tz3hw2kqXhLUvY65ca1eety2oQTpAvd34R9Q",
        "reception_time": "2022-01-19T13:40:42.328-00:00",
        "included_in_blocks":
          [ "BL7ZuwPpuXiQGCHzYDaLQTsuKeX7MpnU7YH8vBz9gYDKBdMYDCL" ] },
      { "delegate": "tz3ZbP2pM3nwvXztbuMJwJnDvV5xdpU8UkkD",
        "reception_time": "2022-01-19T13:40:41.253-00:00",
        "included_in_blocks":
          [ "BL7ZuwPpuXiQGCHzYDaLQTsuKeX7MpnU7YH8vBz9gYDKBdMYDCL" ] },
      { "delegate": "tz3QSGPoRp3Kn7n3vY24eYeu3Peuqo45LQ4D",
        "reception_time": "2022-01-19T13:40:42.343-00:00",
        "included_in_blocks":
          [ "BL7ZuwPpuXiQGCHzYDaLQTsuKeX7MpnU7YH8vBz9gYDKBdMYDCL" ] },
      { "delegate": "tz3NxTnke1acr8o3h5y9ytf5awQBGNJUKzVU",
        "reception_time": "2022-01-19T13:40:42.678-00:00",
        "included_in_blocks":
          [ "BL7ZuwPpuXiQGCHzYDaLQTsuKeX7MpnU7YH8vBz9gYDKBdMYDCL" ] },
      { "delegate": "tz1ZcTRk5uxD86EFEn1vvNffWWqJy7q5eVhc",
        "reception_time": "2022-01-19T13:40:42.382-00:00",
        "included_in_blocks":
          [ "BL7ZuwPpuXiQGCHzYDaLQTsuKeX7MpnU7YH8vBz9gYDKBdMYDCL" ] },
      { "delegate": "tz1WBfwbT66FC6BTLexc2BoyCCBM9LG7pnVW",
        "reception_time": "2022-01-19T13:40:42.409-00:00",
        "included_in_blocks":
          [ "BL7ZuwPpuXiQGCHzYDaLQTsuKeX7MpnU7YH8vBz9gYDKBdMYDCL" ] },
      { "delegate": "tz3RKYFsLuQzKBtmYuLNas7uMu3AsYd4QdsA",
        "reception_time": "2022-01-19T13:40:41.088-00:00",
        "included_in_blocks":
          [ "BL7ZuwPpuXiQGCHzYDaLQTsuKeX7MpnU7YH8vBz9gYDKBdMYDCL" ] },
      { "delegate": "tz3iJu5vrKZcsqRPs8yJ61UDoeEXZmtro4qh",
        "reception_time": "2022-01-19T13:40:42.537-00:00",
        "included_in_blocks":
          [ "BL7ZuwPpuXiQGCHzYDaLQTsuKeX7MpnU7YH8vBz9gYDKBdMYDCL" ] },
      { "delegate": "tz1RCFbB9GpALpsZtu6J58sb74dm8qe6XBzv",
        "reception_time": "2022-01-19T13:40:42.712-00:00",
        "included_in_blocks":
          [ "BL7ZuwPpuXiQGCHzYDaLQTsuKeX7MpnU7YH8vBz9gYDKBdMYDCL" ] },
      { "delegate": "tz3Zhs2dygr55yHyQyKjntAtY9bgfhLZ4Xj1",
        "reception_time": "2022-01-19T13:40:41.487-00:00",
        "included_in_blocks":
          [ "BL7ZuwPpuXiQGCHzYDaLQTsuKeX7MpnU7YH8vBz9gYDKBdMYDCL" ] },
      { "delegate": "tz2FCNBrERXtaTtNX6iimR1UJ5JSDxvdHM93",
        "reception_time": "2022-01-19T13:40:42.362-00:00",
        "included_in_blocks":
          [ "BL7ZuwPpuXiQGCHzYDaLQTsuKeX7MpnU7YH8vBz9gYDKBdMYDCL" ] },
      { "delegate": "tz1MQJPGNMijnXnVoBENFz9rUhaPt3S7rWoz",
        "reception_time": "2022-01-19T13:40:42.684-00:00",
        "included_in_blocks":
          [ "BL7ZuwPpuXiQGCHzYDaLQTsuKeX7MpnU7YH8vBz9gYDKBdMYDCL" ] },
      { "delegate": "tz3WMqdzXqRWXwyvj5Hp2H7QEepaUuS7vd9K",
        "reception_time": "2022-01-19T13:40:42.704-00:00",
        "included_in_blocks":
          [ "BL7ZuwPpuXiQGCHzYDaLQTsuKeX7MpnU7YH8vBz9gYDKBdMYDCL" ] },
      { "delegate": "tz1cYufsxHXJcvANhvS55h3aY32a9BAFB494",
        "reception_time": "2022-01-19T13:40:42.652-00:00",
        "included_in_blocks":
          [ "BL7ZuwPpuXiQGCHzYDaLQTsuKeX7MpnU7YH8vBz9gYDKBdMYDCL" ] },
      { "delegate": "tz3S6BBeKgJGXxvLyZ1xzXzMPn11nnFtq5L9",
        "reception_time": "2022-01-19T13:40:42.758-00:00",
        "included_in_blocks":
          [ "BL7ZuwPpuXiQGCHzYDaLQTsuKeX7MpnU7YH8vBz9gYDKBdMYDCL" ] },
      { "delegate": "tz3bTdwZinP8U1JmSweNzVKhmwafqWmFWRfk",
        "reception_time": "2022-01-19T13:40:42.694-00:00",
        "included_in_blocks":
          [ "BL7ZuwPpuXiQGCHzYDaLQTsuKeX7MpnU7YH8vBz9gYDKBdMYDCL" ] },
      { "delegate": "tz3QT9dHYKDqh563chVa6za8526ys1UKfRfL",
        "reception_time": "2022-01-19T13:40:42.376-00:00",
        "included_in_blocks":
          [ "BL7ZuwPpuXiQGCHzYDaLQTsuKeX7MpnU7YH8vBz9gYDKBdMYDCL" ] },
      { "delegate": "tz1PeZx7FXy7QRuMREGXGxeipb24RsMMzUNe",
        "reception_time": "2022-01-19T13:40:42.382-00:00",
        "included_in_blocks":
          [ "BL7ZuwPpuXiQGCHzYDaLQTsuKeX7MpnU7YH8vBz9gYDKBdMYDCL" ] },
      { "delegate": "tz1S8MNvuFEUsWgjHvi3AxibRBf388NhT1q2",
        "reception_time": "2022-01-19T13:40:42.414-00:00",
        "included_in_blocks":
          [ "BL7ZuwPpuXiQGCHzYDaLQTsuKeX7MpnU7YH8vBz9gYDKBdMYDCL" ] },
      { "delegate": "tz3RB4aoyjov4KEVRbuhvQ1CKJgBJMWhaeB8",
        "reception_time": "2022-01-19T13:40:42.059-00:00",
        "included_in_blocks":
          [ "BL7ZuwPpuXiQGCHzYDaLQTsuKeX7MpnU7YH8vBz9gYDKBdMYDCL" ] },
      { "delegate": "tz1SYq214SCBy9naR6cvycQsYcUGpBqQAE8d",
        "reception_time": "2022-01-19T13:40:42.684-00:00",
        "included_in_blocks":
          [ "BL7ZuwPpuXiQGCHzYDaLQTsuKeX7MpnU7YH8vBz9gYDKBdMYDCL" ] },
      { "delegate": "tz1LmaFsWRkjr7QMCx5PtV6xTUz3AmEpKQiF",
        "reception_time": "2022-01-19T13:40:42.712-00:00",
        "included_in_blocks":
          [ "BL7ZuwPpuXiQGCHzYDaLQTsuKeX7MpnU7YH8vBz9gYDKBdMYDCL" ] },
      { "delegate": "tz3bvNMQ95vfAYtG8193ymshqjSvmxiCUuR5",
        "reception_time": "2022-01-19T13:40:42.343-00:00",
        "included_in_blocks":
          [ "BL7ZuwPpuXiQGCHzYDaLQTsuKeX7MpnU7YH8vBz9gYDKBdMYDCL" ] },
      { "delegate": "tz3VEZ4k6a4Wx42iyev6i2aVAptTRLEAivNN",
        "reception_time": "2022-01-19T13:40:42.724-00:00",
        "included_in_blocks":
          [ "BL7ZuwPpuXiQGCHzYDaLQTsuKeX7MpnU7YH8vBz9gYDKBdMYDCL" ] },
      { "delegate": "tz3UoffC7FG7zfpmvmjUmUeAaHvzdcUvAj6r",
        "reception_time": "2022-01-19T13:40:42.546-00:00",
        "included_in_blocks":
          [ "BL7ZuwPpuXiQGCHzYDaLQTsuKeX7MpnU7YH8vBz9gYDKBdMYDCL" ] },
      { "delegate": "tz1gfArv665EUkSg2ojMBzcbfwuPxAvqPvjo",
        "reception_time": "2022-01-19T13:40:31.509-00:00",
        "errors":
          [ { "kind": "temporary",
              "id": "proto.011-PtHangz2.prefilter.outdated_endorsement" } ],
        "included_in_blocks":
          [ "BL7ZuwPpuXiQGCHzYDaLQTsuKeX7MpnU7YH8vBz9gYDKBdMYDCL" ] },
      { "delegate": "tz1RV1MBbZMR68tacosb7Mwj6LkbPSUS1er1",
        "reception_time": "2022-01-19T13:40:32.736-00:00",
        "errors":
          [ { "kind": "temporary",
              "id": "proto.011-PtHangz2.prefilter.outdated_endorsement" } ],
        "included_in_blocks":
          [ "BL7ZuwPpuXiQGCHzYDaLQTsuKeX7MpnU7YH8vBz9gYDKBdMYDCL" ] },
      { "delegate": "tz1Ldzz6k1BHdhuKvAtMRX7h5kJSMHESMHLC",
        "reception_time": "2022-01-19T13:40:33.106-00:00",
        "errors":
          [ { "kind": "temporary",
              "id": "proto.011-PtHangz2.prefilter.outdated_endorsement" } ],
        "included_in_blocks":
          [ "BL7ZuwPpuXiQGCHzYDaLQTsuKeX7MpnU7YH8vBz9gYDKBdMYDCL" ] },
      { "delegate": "tz1TXzyaKUA8wsWefdSnyaYFnV2M3vCV7er9",
        "reception_time": "2022-01-19T13:40:33.125-00:00",
        "errors":
          [ { "kind": "temporary",
              "id": "proto.011-PtHangz2.prefilter.outdated_endorsement" } ],
        "included_in_blocks":
          [ "BL7ZuwPpuXiQGCHzYDaLQTsuKeX7MpnU7YH8vBz9gYDKBdMYDCL" ] },
      { "delegate": "tz1Scdr2HsZiQjc7bHMeBbmDRXYVvdhjJbBh",
        "reception_time": "2022-01-19T13:40:33.133-00:00",
        "errors":
          [ { "kind": "temporary",
              "id": "proto.011-PtHangz2.prefilter.outdated_endorsement" } ],
        "included_in_blocks":
          [ "BL7ZuwPpuXiQGCHzYDaLQTsuKeX7MpnU7YH8vBz9gYDKBdMYDCL" ] },
      { "delegate": "tz1irJKkXS2DBWkU1NnmFQx1c1L7pbGg4yhk",
        "reception_time": "2022-01-19T13:40:33.246-00:00",
        "errors":
          [ { "kind": "temporary",
              "id": "proto.011-PtHangz2.prefilter.outdated_endorsement" } ],
        "included_in_blocks":
          [ "BL7ZuwPpuXiQGCHzYDaLQTsuKeX7MpnU7YH8vBz9gYDKBdMYDCL" ] },
      { "delegate": "tz1VmiY38m3y95HqQLjMwqnMS7sdMfGomzKi",
        "reception_time": "2022-01-19T13:40:33.246-00:00",
        "errors":
          [ { "kind": "temporary",
              "id": "proto.011-PtHangz2.prefilter.outdated_endorsement" } ],
        "included_in_blocks":
          [ "BL7ZuwPpuXiQGCHzYDaLQTsuKeX7MpnU7YH8vBz9gYDKBdMYDCL" ] },
      { "delegate": "tz1VQnqCCqX4K5sP3FNkVSNKTdCAMJDd3E1n",
        "reception_time": "2022-01-19T13:40:33.401-00:00",
        "errors":
          [ { "kind": "temporary",
              "id": "proto.011-PtHangz2.prefilter.outdated_endorsement" } ],
        "included_in_blocks":
          [ "BL7ZuwPpuXiQGCHzYDaLQTsuKeX7MpnU7YH8vBz9gYDKBdMYDCL" ] },
      { "delegate": "tz1LBgHhYP4JbYUWB9kPLgpri8STz5bD58EB" },
      { "delegate": "tz1W5VkdB5s7ENMESVBtwyt9kyvLqPcUczRT" },
      { "delegate": "tz1go7f6mEQfT2xX2LuHAqgnRGN6c2zHPf5c",
        "reception_time": "2022-01-19T13:41:02.501-00:00",
        "errors":
          [ { "kind": "temporary",
              "id": "proto.011-PtHangz2.prefilter.outdated_endorsement" } ] },
      { "delegate": "tz1abmz7jiCV2GH2u81LRrGgAFFgvQgiDiaf",
        "reception_time": "2022-01-19T13:40:42.414-00:00" },
      { "delegate": "tz3QCNyySViKHmeSr45kzDxzchys7NiXCWoa",
        "reception_time": "2022-01-19T13:40:42.524-00:00" },
      { "delegate": "tz3NDpRj6WBrJPikcPVHRBEjWKxFw3c6eQPS",
        "reception_time": "2022-01-19T13:40:42.537-00:00" },
      { "delegate": "tz1TRqbYbUf2GyrjErf3hBzgBJPzW8y36qEs",
        "reception_time": "2022-01-19T13:40:42.546-00:00" },
      { "delegate": "tz3gLTu4Yxj8tPAcriQVUdxv6BY9QyvzU1az",
        "reception_time": "2022-01-19T13:40:42.678-00:00" },
      { "delegate": "tz3NExpXn9aPNZPorRE4SdjJ2RGrfbJgMAaV",
        "reception_time": "2022-01-19T13:40:42.776-00:00" },
      { "delegate": "tz3RDC3Jdn4j15J7bBHZd29EUee9gVB1CxD9",
        "reception_time": "2022-01-19T13:40:42.841-00:00" },
      { "delegate": "tz1Q8QkSBS63ZQnH3fBTiAMPes9R666Rn6Sc",
        "reception_time": "2022-01-19T13:40:43.456-00:00" },
      { "delegate": "tz1awXW7wuXy21c66vBudMXQVAPgRnqqwgTH",
        "reception_time": "2022-01-19T13:40:43.576-00:00" },
      { "delegate": "tz1g8vkmcde6sWKaG2NN9WKzCkDM6Rziq194",
        "reception_time": "2022-01-19T13:40:43.700-00:00" },
      { "delegate": "tz1aRoaRhSpRYvFdyvgWLL6TGyRoGF51wDjM",
        "reception_time": "2022-01-19T13:40:48.272-00:00" } ] }