{ "blocks":
    [ { "hash": "BKuBRcCZdQrEbx7tmyx4JPFn1588LXAHiw6Q2EkP33kpmdo65Cv",
        "delegate": "tz1ei4WtWEMEJekSv8qDnu9PExG6Q8HgRGr3",
        "reception_time": "2022-01-19T13:17:49.000-00:00",
        "timestamp": "2022-01-19T13:17:40Z" } ],
  "endorsements":
    [ { "delegate": "tz1W5VkdB5s7ENMESVBtwyt9kyvLqPcUczRT" },
      { "delegate": "tz1iZEKy4LaAjnTmn2RuGDf2iqdAQKnRi8kY",
        "reception_time": "2022-01-19T13:17:48.425-00:00",
        "errors":
          [ { "kind": "temporary",
              "id": "proto.011-PtHangz2.prefilter.outdated_endorsement" } ],
        "included_in_blocks":
          [ "BKwn6A9LGDvH332y7McXXA4pqLvsp5RH4i4xV2y9wKCUuxmjnrW" ] },
      { "delegate": "tz1WL4xAAYsQ2GM9MCQGePYcbwwu6kvfqMWN",
        "reception_time": "2022-01-19T13:17:48.333-00:00",
        "errors":
          [ { "kind": "temporary",
              "id": "proto.011-PtHangz2.prefilter.outdated_endorsement" } ],
        "included_in_blocks":
          [ "BKwn6A9LGDvH332y7McXXA4pqLvsp5RH4i4xV2y9wKCUuxmjnrW" ] },
      { "delegate": "tz1TXzyaKUA8wsWefdSnyaYFnV2M3vCV7er9",
        "reception_time": "2022-01-19T13:17:48.301-00:00",
        "errors":
          [ { "kind": "temporary",
              "id": "proto.011-PtHangz2.prefilter.outdated_endorsement" } ],
        "included_in_blocks":
          [ "BKwn6A9LGDvH332y7McXXA4pqLvsp5RH4i4xV2y9wKCUuxmjnrW" ] },
      { "delegate": "tz1Scdr2HsZiQjc7bHMeBbmDRXYVvdhjJbBh",
        "reception_time": "2022-01-19T13:17:48.246-00:00",
        "errors":
          [ { "kind": "temporary",
              "id": "proto.011-PtHangz2.prefilter.outdated_endorsement" } ],
        "included_in_blocks":
          [ "BKwn6A9LGDvH332y7McXXA4pqLvsp5RH4i4xV2y9wKCUuxmjnrW" ] },
      { "delegate": "tz1Zhv3RkfU2pHrmaiDyxp7kFZpZrUCu1CiF",
        "reception_time": "2022-01-19T13:17:48.230-00:00",
        "errors":
          [ { "kind": "temporary",
              "id": "proto.011-PtHangz2.prefilter.outdated_endorsement" } ],
        "included_in_blocks":
          [ "BKwn6A9LGDvH332y7McXXA4pqLvsp5RH4i4xV2y9wKCUuxmjnrW" ] },
      { "delegate": "tz1S8e9GgdZG78XJRB3NqabfWeM37GnhZMWQ",
        "reception_time": "2022-01-19T13:17:47.684-00:00",
        "errors":
          [ { "kind": "temporary",
              "id": "proto.011-PtHangz2.prefilter.outdated_endorsement" } ],
        "included_in_blocks":
          [ "BKwn6A9LGDvH332y7McXXA4pqLvsp5RH4i4xV2y9wKCUuxmjnrW" ] },
      { "delegate": "tz1NpWrAyDL9k2Lmnyxcgr9xuJakbBxdq7FB",
        "reception_time": "2022-01-19T13:18:00.448-00:00",
        "included_in_blocks":
          [ "BKwn6A9LGDvH332y7McXXA4pqLvsp5RH4i4xV2y9wKCUuxmjnrW" ] },
      { "delegate": "tz1aRoaRhSpRYvFdyvgWLL6TGyRoGF51wDjM",
        "reception_time": "2022-01-19T13:17:58.518-00:00",
        "included_in_blocks":
          [ "BKwn6A9LGDvH332y7McXXA4pqLvsp5RH4i4xV2y9wKCUuxmjnrW" ] },
      { "delegate": "tz1S5WxdZR5f9NzsPXhr7L9L1vrEb5spZFur",
        "reception_time": "2022-01-19T13:17:55.181-00:00",
        "included_in_blocks":
          [ "BKwn6A9LGDvH332y7McXXA4pqLvsp5RH4i4xV2y9wKCUuxmjnrW" ] },
      { "delegate": "tz1KfEsrtDaA1sX7vdM4qmEPWuSytuqCDp5j",
        "reception_time": "2022-01-19T13:17:54.265-00:00",
        "included_in_blocks":
          [ "BKwn6A9LGDvH332y7McXXA4pqLvsp5RH4i4xV2y9wKCUuxmjnrW" ] },
      { "delegate": "tz1SUgyRB8T5jXgXAwS33pgRHAKrafyg87Yc",
        "reception_time": "2022-01-19T13:17:53.535-00:00",
        "included_in_blocks":
          [ "BKwn6A9LGDvH332y7McXXA4pqLvsp5RH4i4xV2y9wKCUuxmjnrW" ] },
      { "delegate": "tz1M1gA1hgmmLf8VvtAwupbWCkaciQZMFbvi",
        "reception_time": "2022-01-19T13:17:53.556-00:00",
        "included_in_blocks":
          [ "BKwn6A9LGDvH332y7McXXA4pqLvsp5RH4i4xV2y9wKCUuxmjnrW" ] },
      { "delegate": "tz1acZQd7TdfoiUnD2czHnTHB2TaJQP6gdqo",
        "reception_time": "2022-01-19T13:17:53.223-00:00",
        "included_in_blocks":
          [ "BKwn6A9LGDvH332y7McXXA4pqLvsp5RH4i4xV2y9wKCUuxmjnrW" ] },
      { "delegate": "tz1fUyqYH7H4pRHN1roWY17giXhy1RvxjgUV",
        "reception_time": "2022-01-19T13:17:52.694-00:00",
        "included_in_blocks":
          [ "BKwn6A9LGDvH332y7McXXA4pqLvsp5RH4i4xV2y9wKCUuxmjnrW" ] },
      { "delegate": "tz1cYufsxHXJcvANhvS55h3aY32a9BAFB494",
        "reception_time": "2022-01-19T13:17:52.699-00:00",
        "included_in_blocks":
          [ "BKwn6A9LGDvH332y7McXXA4pqLvsp5RH4i4xV2y9wKCUuxmjnrW" ] },
      { "delegate": "tz1ULYFhUY7Syao5NWr9jZ1pp3aw81QPiqjs",
        "reception_time": "2022-01-19T13:17:52.393-00:00",
        "included_in_blocks":
          [ "BKwn6A9LGDvH332y7McXXA4pqLvsp5RH4i4xV2y9wKCUuxmjnrW" ] },
      { "delegate": "tz3NExpXn9aPNZPorRE4SdjJ2RGrfbJgMAaV",
        "reception_time": "2022-01-19T13:17:52.649-00:00",
        "included_in_blocks":
          [ "BKwn6A9LGDvH332y7McXXA4pqLvsp5RH4i4xV2y9wKCUuxmjnrW" ] },
      { "delegate": "tz1ZcTRk5uxD86EFEn1vvNffWWqJy7q5eVhc",
        "reception_time": "2022-01-19T13:17:52.517-00:00",
        "included_in_blocks":
          [ "BKwn6A9LGDvH332y7McXXA4pqLvsp5RH4i4xV2y9wKCUuxmjnrW" ] },
      { "delegate": "tz3gLTu4Yxj8tPAcriQVUdxv6BY9QyvzU1az",
        "reception_time": "2022-01-19T13:17:51.929-00:00",
        "included_in_blocks":
          [ "BKwn6A9LGDvH332y7McXXA4pqLvsp5RH4i4xV2y9wKCUuxmjnrW" ] },
      { "delegate": "tz3NDpRj6WBrJPikcPVHRBEjWKxFw3c6eQPS",
        "reception_time": "2022-01-19T13:17:51.942-00:00",
        "included_in_blocks":
          [ "BKwn6A9LGDvH332y7McXXA4pqLvsp5RH4i4xV2y9wKCUuxmjnrW" ] },
      { "delegate": "tz3RB4aoyjov4KEVRbuhvQ1CKJgBJMWhaeB8",
        "reception_time": "2022-01-19T13:17:51.934-00:00",
        "included_in_blocks":
          [ "BKwn6A9LGDvH332y7McXXA4pqLvsp5RH4i4xV2y9wKCUuxmjnrW" ] },
      { "delegate": "tz1T7duV5gZWSTq4YpBGbXNLTfznCLDrFxvs",
        "reception_time": "2022-01-19T13:17:52.679-00:00",
        "included_in_blocks":
          [ "BKwn6A9LGDvH332y7McXXA4pqLvsp5RH4i4xV2y9wKCUuxmjnrW" ] },
      { "delegate": "tz3VEZ4k6a4Wx42iyev6i2aVAptTRLEAivNN",
        "reception_time": "2022-01-19T13:17:51.879-00:00",
        "included_in_blocks":
          [ "BKwn6A9LGDvH332y7McXXA4pqLvsp5RH4i4xV2y9wKCUuxmjnrW" ] },
      { "delegate": "tz3WMqdzXqRWXwyvj5Hp2H7QEepaUuS7vd9K",
        "reception_time": "2022-01-19T13:17:52.279-00:00",
        "included_in_blocks":
          [ "BKwn6A9LGDvH332y7McXXA4pqLvsp5RH4i4xV2y9wKCUuxmjnrW" ] },
      { "delegate": "tz3UoffC7FG7zfpmvmjUmUeAaHvzdcUvAj6r",
        "reception_time": "2022-01-19T13:17:51.862-00:00",
        "included_in_blocks":
          [ "BKwn6A9LGDvH332y7McXXA4pqLvsp5RH4i4xV2y9wKCUuxmjnrW" ] },
      { "delegate": "tz2FCNBrERXtaTtNX6iimR1UJ5JSDxvdHM93",
        "reception_time": "2022-01-19T13:17:51.814-00:00",
        "included_in_blocks":
          [ "BKwn6A9LGDvH332y7McXXA4pqLvsp5RH4i4xV2y9wKCUuxmjnrW" ] },
      { "delegate": "tz1TRqbYbUf2GyrjErf3hBzgBJPzW8y36qEs",
        "reception_time": "2022-01-19T13:17:51.899-00:00",
        "included_in_blocks":
          [ "BKwn6A9LGDvH332y7McXXA4pqLvsp5RH4i4xV2y9wKCUuxmjnrW" ] },
      { "delegate": "tz1RjoHc98dBoqaH2jawF62XNKh7YsHwbkEv",
        "reception_time": "2022-01-19T13:17:52.193-00:00",
        "included_in_blocks":
          [ "BKwn6A9LGDvH332y7McXXA4pqLvsp5RH4i4xV2y9wKCUuxmjnrW" ] },
      { "delegate": "tz3RDC3Jdn4j15J7bBHZd29EUee9gVB1CxD9",
        "reception_time": "2022-01-19T13:17:51.713-00:00",
        "included_in_blocks":
          [ "BKwn6A9LGDvH332y7McXXA4pqLvsp5RH4i4xV2y9wKCUuxmjnrW" ] },
      { "delegate": "tz1Vd1rXpV8hTHbFXCXN3c3qzCsgcU5BZw1e",
        "reception_time": "2022-01-19T13:17:51.732-00:00",
        "included_in_blocks":
          [ "BKwn6A9LGDvH332y7McXXA4pqLvsp5RH4i4xV2y9wKCUuxmjnrW" ] },
      { "delegate": "tz1S8MNvuFEUsWgjHvi3AxibRBf388NhT1q2",
        "reception_time": "2022-01-19T13:17:51.736-00:00",
        "included_in_blocks":
          [ "BKwn6A9LGDvH332y7McXXA4pqLvsp5RH4i4xV2y9wKCUuxmjnrW" ] },
      { "delegate": "tz1WnfXMPaNTBmH7DBPwqCWs9cPDJdkGBTZ8",
        "reception_time": "2022-01-19T13:17:51.727-00:00",
        "included_in_blocks":
          [ "BKwn6A9LGDvH332y7McXXA4pqLvsp5RH4i4xV2y9wKCUuxmjnrW" ] },
      { "delegate": "tz1dRKU4FQ9QRRQPdaH4zCR6gmCmXfcvcgtB",
        "reception_time": "2022-01-19T13:17:51.706-00:00",
        "included_in_blocks":
          [ "BKwn6A9LGDvH332y7McXXA4pqLvsp5RH4i4xV2y9wKCUuxmjnrW" ] },
      { "delegate": "tz1RzwaogUQ8zPntqrSn4yn5f3VquXfEH5Jo",
        "reception_time": "2022-01-19T13:17:51.716-00:00",
        "included_in_blocks":
          [ "BKwn6A9LGDvH332y7McXXA4pqLvsp5RH4i4xV2y9wKCUuxmjnrW" ] },
      { "delegate": "tz3bTdwZinP8U1JmSweNzVKhmwafqWmFWRfk",
        "reception_time": "2022-01-19T13:17:51.682-00:00",
        "included_in_blocks":
          [ "BKwn6A9LGDvH332y7McXXA4pqLvsp5RH4i4xV2y9wKCUuxmjnrW" ] },
      { "delegate": "tz3bvNMQ95vfAYtG8193ymshqjSvmxiCUuR5",
        "reception_time": "2022-01-19T13:17:51.689-00:00",
        "included_in_blocks":
          [ "BKwn6A9LGDvH332y7McXXA4pqLvsp5RH4i4xV2y9wKCUuxmjnrW" ] },
      { "delegate": "tz3QCNyySViKHmeSr45kzDxzchys7NiXCWoa",
        "reception_time": "2022-01-19T13:17:51.696-00:00",
        "included_in_blocks":
          [ "BKwn6A9LGDvH332y7McXXA4pqLvsp5RH4i4xV2y9wKCUuxmjnrW" ] },
      { "delegate": "tz1NEKxGEHsFufk87CVZcrqWu8o22qh46GK6",
        "reception_time": "2022-01-19T13:17:51.702-00:00",
        "included_in_blocks":
          [ "BKwn6A9LGDvH332y7McXXA4pqLvsp5RH4i4xV2y9wKCUuxmjnrW" ] },
      { "delegate": "tz1NSDFKuRyzHxpfG1AMkyCwEiZ52cbR2mRW",
        "reception_time": "2022-01-19T13:17:51.702-00:00",
        "included_in_blocks":
          [ "BKwn6A9LGDvH332y7McXXA4pqLvsp5RH4i4xV2y9wKCUuxmjnrW" ] },
      { "delegate": "tz1RCFbB9GpALpsZtu6J58sb74dm8qe6XBzv",
        "reception_time": "2022-01-19T13:17:51.499-00:00",
        "included_in_blocks":
          [ "BKwn6A9LGDvH332y7McXXA4pqLvsp5RH4i4xV2y9wKCUuxmjnrW" ] },
      { "delegate": "tz1Nf6tsK4G6bBqgSQERy4nUtkHNKUVdh7q1",
        "reception_time": "2022-01-19T13:17:51.598-00:00",
        "included_in_blocks":
          [ "BKwn6A9LGDvH332y7McXXA4pqLvsp5RH4i4xV2y9wKCUuxmjnrW" ] },
      { "delegate": "tz1WBfwbT66FC6BTLexc2BoyCCBM9LG7pnVW",
        "reception_time": "2022-01-19T13:17:51.704-00:00",
        "included_in_blocks":
          [ "BKwn6A9LGDvH332y7McXXA4pqLvsp5RH4i4xV2y9wKCUuxmjnrW" ] },
      { "delegate": "tz1Tnjaxk6tbAeC2TmMApPh8UsrEVQvhHvx5",
        "reception_time": "2022-01-19T13:17:51.488-00:00",
        "included_in_blocks":
          [ "BKwn6A9LGDvH332y7McXXA4pqLvsp5RH4i4xV2y9wKCUuxmjnrW" ] },
      { "delegate": "tz1RQhNh7iB9CZA7i3ifTWNwiGYVffponfbB",
        "reception_time": "2022-01-19T13:17:51.610-00:00",
        "included_in_blocks":
          [ "BKwn6A9LGDvH332y7McXXA4pqLvsp5RH4i4xV2y9wKCUuxmjnrW" ] },
      { "delegate": "tz3S6BBeKgJGXxvLyZ1xzXzMPn11nnFtq5L9",
        "reception_time": "2022-01-19T13:17:51.553-00:00",
        "included_in_blocks":
          [ "BKwn6A9LGDvH332y7McXXA4pqLvsp5RH4i4xV2y9wKCUuxmjnrW" ] },
      { "delegate": "tz3iJu5vrKZcsqRPs8yJ61UDoeEXZmtro4qh",
        "reception_time": "2022-01-19T13:17:51.461-00:00",
        "included_in_blocks":
          [ "BKwn6A9LGDvH332y7McXXA4pqLvsp5RH4i4xV2y9wKCUuxmjnrW" ] },
      { "delegate": "tz3Zhs2dygr55yHyQyKjntAtY9bgfhLZ4Xj1",
        "reception_time": "2022-01-19T13:17:51.574-00:00",
        "included_in_blocks":
          [ "BKwn6A9LGDvH332y7McXXA4pqLvsp5RH4i4xV2y9wKCUuxmjnrW" ] },
      { "delegate": "tz1bHzftcTKZMTZgLLtnrXydCm6UEqf4ivca",
        "reception_time": "2022-01-19T13:17:51.605-00:00",
        "included_in_blocks":
          [ "BKwn6A9LGDvH332y7McXXA4pqLvsp5RH4i4xV2y9wKCUuxmjnrW" ] },
      { "delegate": "tz1dNVDWPf3Q59SdJqnjdnu277iyvReiRS9M",
        "reception_time": "2022-01-19T13:17:51.472-00:00",
        "included_in_blocks":
          [ "BKwn6A9LGDvH332y7McXXA4pqLvsp5RH4i4xV2y9wKCUuxmjnrW" ] },
      { "delegate": "tz1bZ8vsMAXmaWEV7FRnyhcuUs2fYMaQ6Hkk",
        "reception_time": "2022-01-19T13:17:51.488-00:00",
        "included_in_blocks":
          [ "BKwn6A9LGDvH332y7McXXA4pqLvsp5RH4i4xV2y9wKCUuxmjnrW" ] },
      { "delegate": "tz3QT9dHYKDqh563chVa6za8526ys1UKfRfL",
        "reception_time": "2022-01-19T13:17:51.589-00:00",
        "included_in_blocks":
          [ "BKwn6A9LGDvH332y7McXXA4pqLvsp5RH4i4xV2y9wKCUuxmjnrW" ] },
      { "delegate": "tz3QSGPoRp3Kn7n3vY24eYeu3Peuqo45LQ4D",
        "reception_time": "2022-01-19T13:17:51.509-00:00",
        "included_in_blocks":
          [ "BKwn6A9LGDvH332y7McXXA4pqLvsp5RH4i4xV2y9wKCUuxmjnrW" ] },
      { "delegate": "tz1fb7c66UwePkkfDXz4ajFaBP9hVNLdS7JJ",
        "reception_time": "2022-01-19T13:17:51.605-00:00",
        "included_in_blocks":
          [ "BKwn6A9LGDvH332y7McXXA4pqLvsp5RH4i4xV2y9wKCUuxmjnrW" ] },
      { "delegate": "tz1d6Fx42mYgVFnHUW8T8A7WBfJ6nD9pVok8",
        "reception_time": "2022-01-19T13:17:51.574-00:00",
        "included_in_blocks":
          [ "BKwn6A9LGDvH332y7McXXA4pqLvsp5RH4i4xV2y9wKCUuxmjnrW" ] },
      { "delegate": "tz1V4qCyvPKZ5UeqdH14HN42rxvNPQfc9UZg",
        "reception_time": "2022-01-19T13:17:51.563-00:00",
        "included_in_blocks":
          [ "BKwn6A9LGDvH332y7McXXA4pqLvsp5RH4i4xV2y9wKCUuxmjnrW" ] },
      { "delegate": "tz1MQJPGNMijnXnVoBENFz9rUhaPt3S7rWoz",
        "reception_time": "2022-01-19T13:17:51.447-00:00",
        "included_in_blocks":
          [ "BKwn6A9LGDvH332y7McXXA4pqLvsp5RH4i4xV2y9wKCUuxmjnrW" ] },
      { "delegate": "tz3gtoUxdudfBRcNY7iVdKPHCYYX6xdPpoRS",
        "reception_time": "2022-01-19T13:17:51.563-00:00",
        "included_in_blocks":
          [ "BKwn6A9LGDvH332y7McXXA4pqLvsp5RH4i4xV2y9wKCUuxmjnrW" ] },
      { "delegate": "tz3hw2kqXhLUvY65ca1eety2oQTpAvd34R9Q",
        "reception_time": "2022-01-19T13:17:51.536-00:00",
        "included_in_blocks":
          [ "BKwn6A9LGDvH332y7McXXA4pqLvsp5RH4i4xV2y9wKCUuxmjnrW" ] },
      { "delegate": "tz1TEc75UKXv4W5cwi14Na3NtqFD51yKQi7h",
        "reception_time": "2022-01-19T13:17:51.580-00:00",
        "included_in_blocks":
          [ "BKwn6A9LGDvH332y7McXXA4pqLvsp5RH4i4xV2y9wKCUuxmjnrW" ] },
      { "delegate": "tz3RKYFsLuQzKBtmYuLNas7uMu3AsYd4QdsA",
        "reception_time": "2022-01-19T13:17:51.598-00:00",
        "included_in_blocks":
          [ "BKwn6A9LGDvH332y7McXXA4pqLvsp5RH4i4xV2y9wKCUuxmjnrW" ] },
      { "delegate": "tz1PWCDnz783NNGGQjEFFsHtrcK5yBW4E2rm",
        "reception_time": "2022-01-19T13:17:51.509-00:00",
        "included_in_blocks":
          [ "BKwn6A9LGDvH332y7McXXA4pqLvsp5RH4i4xV2y9wKCUuxmjnrW" ] },
      { "delegate": "tz1VQnqCCqX4K5sP3FNkVSNKTdCAMJDd3E1n",
        "reception_time": "2022-01-19T13:17:51.114-00:00",
        "included_in_blocks":
          [ "BKwn6A9LGDvH332y7McXXA4pqLvsp5RH4i4xV2y9wKCUuxmjnrW" ] },
      { "delegate": "tz3ZbP2pM3nwvXztbuMJwJnDvV5xdpU8UkkD",
        "reception_time": "2022-01-19T13:17:51.553-00:00",
        "included_in_blocks":
          [ "BKwn6A9LGDvH332y7McXXA4pqLvsp5RH4i4xV2y9wKCUuxmjnrW" ] },
      { "delegate": "tz1gUNyn3hmnEWqkusWPzxRaon1cs7ndWh7h",
        "reception_time": "2022-01-19T13:17:51.447-00:00",
        "included_in_blocks":
          [ "BKwn6A9LGDvH332y7McXXA4pqLvsp5RH4i4xV2y9wKCUuxmjnrW" ] },
      { "delegate": "tz3NxTnke1acr8o3h5y9ytf5awQBGNJUKzVU",
        "reception_time": "2022-01-19T13:17:51.437-00:00",
        "included_in_blocks":
          [ "BKwn6A9LGDvH332y7McXXA4pqLvsp5RH4i4xV2y9wKCUuxmjnrW" ] },
      { "delegate": "tz1TRspM5SeZpaQUhzByXbEvqKF1vnCM2YTK",
        "reception_time": "2022-01-19T13:17:51.437-00:00",
        "included_in_blocks":
          [ "BKwn6A9LGDvH332y7McXXA4pqLvsp5RH4i4xV2y9wKCUuxmjnrW" ] },
      { "delegate": "tz1gfArv665EUkSg2ojMBzcbfwuPxAvqPvjo",
        "reception_time": "2022-01-19T13:17:51.472-00:00",
        "included_in_blocks":
          [ "BKwn6A9LGDvH332y7McXXA4pqLvsp5RH4i4xV2y9wKCUuxmjnrW" ] },
      { "delegate": "tz1VmiY38m3y95HqQLjMwqnMS7sdMfGomzKi",
        "reception_time": "2022-01-19T13:17:51.106-00:00",
        "included_in_blocks":
          [ "BKwn6A9LGDvH332y7McXXA4pqLvsp5RH4i4xV2y9wKCUuxmjnrW" ] },
      { "delegate": "tz1irJKkXS2DBWkU1NnmFQx1c1L7pbGg4yhk",
        "reception_time": "2022-01-19T13:17:51.421-00:00",
        "included_in_blocks":
          [ "BKwn6A9LGDvH332y7McXXA4pqLvsp5RH4i4xV2y9wKCUuxmjnrW" ] },
      { "delegate": "tz1eEnQhbwf6trb8Q8mPb2RaPkNk2rN7BKi8",
        "reception_time": "2022-01-19T13:17:51.499-00:00",
        "included_in_blocks":
          [ "BKwn6A9LGDvH332y7McXXA4pqLvsp5RH4i4xV2y9wKCUuxmjnrW" ] },
      { "delegate": "tz1aXD7Jigrt3PBYSpHSg5Rr33SexMmmM5Ys",
        "reception_time": "2022-01-19T13:17:51.461-00:00",
        "included_in_blocks":
          [ "BKwn6A9LGDvH332y7McXXA4pqLvsp5RH4i4xV2y9wKCUuxmjnrW" ] },
      { "delegate": "tz1Ldzz6k1BHdhuKvAtMRX7h5kJSMHESMHLC",
        "reception_time": "2022-01-19T13:17:51.103-00:00",
        "included_in_blocks":
          [ "BKwn6A9LGDvH332y7McXXA4pqLvsp5RH4i4xV2y9wKCUuxmjnrW" ] },
      { "delegate": "tz1ei4WtWEMEJekSv8qDnu9PExG6Q8HgRGr3",
        "reception_time": "2022-01-19T13:17:51.410-00:00",
        "included_in_blocks":
          [ "BKwn6A9LGDvH332y7McXXA4pqLvsp5RH4i4xV2y9wKCUuxmjnrW" ] },
      { "delegate": "tz1P2Po7YM526ughEsRbY4oR9zaUPDZjxFrb",
        "reception_time": "2022-01-19T13:17:51.114-00:00",
        "included_in_blocks":
          [ "BKwn6A9LGDvH332y7McXXA4pqLvsp5RH4i4xV2y9wKCUuxmjnrW" ] },
      { "delegate": "tz1Lhf4J9Qxoe3DZ2nfe8FGDnvVj7oKjnMY6",
        "reception_time": "2022-01-19T13:17:50.388-00:00",
        "included_in_blocks":
          [ "BKwn6A9LGDvH332y7McXXA4pqLvsp5RH4i4xV2y9wKCUuxmjnrW" ] },
      { "delegate": "tz1beersuEDv8Z7ngQ825xfbaJNS2EhXnyHR",
        "reception_time": "2022-01-19T13:17:50.873-00:00",
        "included_in_blocks":
          [ "BKwn6A9LGDvH332y7McXXA4pqLvsp5RH4i4xV2y9wKCUuxmjnrW" ] } ] }