{ "blocks":
    [ { "hash": "BKzcbTfC3LfHkjaxBHnyb855Mnw8iiyE8fEotAjW1n26oXR5EUc",
        "delegate": "tz1VmiY38m3y95HqQLjMwqnMS7sdMfGomzKi",
        "reception_time": "2022-01-19T13:04:20.090-00:00",
        "timestamp": "2022-01-19T13:04:10Z" } ],
  "endorsements":
    [ { "delegate": "tz1aXD7Jigrt3PBYSpHSg5Rr33SexMmmM5Ys",
        "reception_time": "2022-01-19T13:04:20.065-00:00",
        "errors":
          [ { "kind": "temporary",
              "id": "proto.011-PtHangz2.prefilter.outdated_endorsement" } ],
        "included_in_blocks":
          [ "BMGa6T2HWTm33BcUgjXfURSxx6dh2FEVcLDPdQaAdoSgyiR9oML" ] },
      { "delegate": "tz1irJKkXS2DBWkU1NnmFQx1c1L7pbGg4yhk",
        "reception_time": "2022-01-19T13:04:19.958-00:00",
        "errors":
          [ { "kind": "temporary",
              "id": "proto.011-PtHangz2.prefilter.outdated_endorsement" } ],
        "included_in_blocks":
          [ "BMGa6T2HWTm33BcUgjXfURSxx6dh2FEVcLDPdQaAdoSgyiR9oML" ] },
      { "delegate": "tz1MXFrtZoaXckE41bjUCSjAjAap3AFDSr3N",
        "reception_time": "2022-01-19T13:04:19.808-00:00",
        "errors":
          [ { "kind": "temporary",
              "id": "proto.011-PtHangz2.prefilter.outdated_endorsement" } ],
        "included_in_blocks":
          [ "BMGa6T2HWTm33BcUgjXfURSxx6dh2FEVcLDPdQaAdoSgyiR9oML" ] },
      { "delegate": "tz1aDiEJf9ztRrAJEXZfcG3CKimoKsGhwVAi",
        "reception_time": "2022-01-19T13:04:19.792-00:00",
        "errors":
          [ { "kind": "temporary",
              "id": "proto.011-PtHangz2.prefilter.outdated_endorsement" } ],
        "included_in_blocks":
          [ "BMGa6T2HWTm33BcUgjXfURSxx6dh2FEVcLDPdQaAdoSgyiR9oML" ] },
      { "delegate": "tz1Mc61yajNASzh5KWZFtYs4i7EJbzAxQC4K",
        "reception_time": "2022-01-19T13:04:19.774-00:00",
        "errors":
          [ { "kind": "temporary",
              "id": "proto.011-PtHangz2.prefilter.outdated_endorsement" } ],
        "included_in_blocks":
          [ "BMGa6T2HWTm33BcUgjXfURSxx6dh2FEVcLDPdQaAdoSgyiR9oML" ] },
      { "delegate": "tz1STeamwbp68THcny9zk3LsbG3H36DMvbRK",
        "reception_time": "2022-01-19T13:04:19.741-00:00",
        "errors":
          [ { "kind": "temporary",
              "id": "proto.011-PtHangz2.prefilter.outdated_endorsement" } ],
        "included_in_blocks":
          [ "BMGa6T2HWTm33BcUgjXfURSxx6dh2FEVcLDPdQaAdoSgyiR9oML" ] },
      { "delegate": "tz1P2Po7YM526ughEsRbY4oR9zaUPDZjxFrb",
        "reception_time": "2022-01-19T13:04:19.685-00:00",
        "errors":
          [ { "kind": "temporary",
              "id": "proto.011-PtHangz2.prefilter.outdated_endorsement" } ],
        "included_in_blocks":
          [ "BMGa6T2HWTm33BcUgjXfURSxx6dh2FEVcLDPdQaAdoSgyiR9oML" ] },
      { "delegate": "tz1Ldzz6k1BHdhuKvAtMRX7h5kJSMHESMHLC",
        "reception_time": "2022-01-19T13:04:19.576-00:00",
        "errors":
          [ { "kind": "temporary",
              "id": "proto.011-PtHangz2.prefilter.outdated_endorsement" } ],
        "included_in_blocks":
          [ "BMGa6T2HWTm33BcUgjXfURSxx6dh2FEVcLDPdQaAdoSgyiR9oML" ] },
      { "delegate": "tz1VQnqCCqX4K5sP3FNkVSNKTdCAMJDd3E1n",
        "reception_time": "2022-01-19T13:04:19.546-00:00",
        "errors":
          [ { "kind": "temporary",
              "id": "proto.011-PtHangz2.prefilter.outdated_endorsement" } ],
        "included_in_blocks":
          [ "BMGa6T2HWTm33BcUgjXfURSxx6dh2FEVcLDPdQaAdoSgyiR9oML" ] },
      { "delegate": "tz1gUNyn3hmnEWqkusWPzxRaon1cs7ndWh7h",
        "reception_time": "2022-01-19T13:04:19.528-00:00",
        "errors":
          [ { "kind": "temporary",
              "id": "proto.011-PtHangz2.prefilter.outdated_endorsement" } ],
        "included_in_blocks":
          [ "BMGa6T2HWTm33BcUgjXfURSxx6dh2FEVcLDPdQaAdoSgyiR9oML" ] },
      { "delegate": "tz1Scdr2HsZiQjc7bHMeBbmDRXYVvdhjJbBh",
        "reception_time": "2022-01-19T13:04:19.129-00:00",
        "errors":
          [ { "kind": "temporary",
              "id": "proto.011-PtHangz2.prefilter.outdated_endorsement" } ],
        "included_in_blocks":
          [ "BMGa6T2HWTm33BcUgjXfURSxx6dh2FEVcLDPdQaAdoSgyiR9oML" ] },
      { "delegate": "tz1VmiY38m3y95HqQLjMwqnMS7sdMfGomzKi",
        "reception_time": "2022-01-19T13:04:18.737-00:00",
        "errors":
          [ { "kind": "temporary",
              "id": "proto.011-PtHangz2.prefilter.outdated_endorsement" } ],
        "included_in_blocks":
          [ "BMGa6T2HWTm33BcUgjXfURSxx6dh2FEVcLDPdQaAdoSgyiR9oML" ] },
      { "delegate": "tz1ibcPVGK4Y8pcW4BYUsojiHoBKnZbyDGrX" },
      { "delegate": "tz1PWCDnz783NNGGQjEFFsHtrcK5yBW4E2rm",
        "reception_time": "2022-01-19T13:04:22.809-00:00",
        "included_in_blocks":
          [ "BMGa6T2HWTm33BcUgjXfURSxx6dh2FEVcLDPdQaAdoSgyiR9oML" ] },
      { "delegate": "tz1fb7c66UwePkkfDXz4ajFaBP9hVNLdS7JJ",
        "reception_time": "2022-01-19T13:04:22.813-00:00",
        "included_in_blocks":
          [ "BMGa6T2HWTm33BcUgjXfURSxx6dh2FEVcLDPdQaAdoSgyiR9oML" ] },
      { "delegate": "tz1TzaNn7wSQSP5gYPXCnNzBCpyMiidCq1PX",
        "reception_time": "2022-01-19T13:04:22.815-00:00",
        "included_in_blocks":
          [ "BMGa6T2HWTm33BcUgjXfURSxx6dh2FEVcLDPdQaAdoSgyiR9oML" ] },
      { "delegate": "tz1dUpfvjmAX3HLYvYhAwb94qe7nJodJr51c",
        "reception_time": "2022-01-19T13:04:22.828-00:00",
        "included_in_blocks":
          [ "BMGa6T2HWTm33BcUgjXfURSxx6dh2FEVcLDPdQaAdoSgyiR9oML" ] },
      { "delegate": "tz1Nf6tsK4G6bBqgSQERy4nUtkHNKUVdh7q1",
        "reception_time": "2022-01-19T13:04:22.828-00:00",
        "included_in_blocks":
          [ "BMGa6T2HWTm33BcUgjXfURSxx6dh2FEVcLDPdQaAdoSgyiR9oML" ] },
      { "delegate": "tz3hw2kqXhLUvY65ca1eety2oQTpAvd34R9Q",
        "reception_time": "2022-01-19T13:04:22.841-00:00",
        "included_in_blocks":
          [ "BMGa6T2HWTm33BcUgjXfURSxx6dh2FEVcLDPdQaAdoSgyiR9oML" ] },
      { "delegate": "tz3RKYFsLuQzKBtmYuLNas7uMu3AsYd4QdsA",
        "reception_time": "2022-01-19T13:04:22.845-00:00",
        "included_in_blocks":
          [ "BMGa6T2HWTm33BcUgjXfURSxx6dh2FEVcLDPdQaAdoSgyiR9oML" ] },
      { "delegate": "tz1beersuEDv8Z7ngQ825xfbaJNS2EhXnyHR",
        "reception_time": "2022-01-19T13:04:22.851-00:00",
        "included_in_blocks":
          [ "BMGa6T2HWTm33BcUgjXfURSxx6dh2FEVcLDPdQaAdoSgyiR9oML" ] },
      { "delegate": "tz1dNVDWPf3Q59SdJqnjdnu277iyvReiRS9M",
        "reception_time": "2022-01-19T13:04:22.851-00:00",
        "included_in_blocks":
          [ "BMGa6T2HWTm33BcUgjXfURSxx6dh2FEVcLDPdQaAdoSgyiR9oML" ] },
      { "delegate": "tz1WCd2jm4uSt4vntk4vSuUWoZQGhLcDuR9q",
        "reception_time": "2022-01-19T13:04:22.856-00:00",
        "included_in_blocks":
          [ "BMGa6T2HWTm33BcUgjXfURSxx6dh2FEVcLDPdQaAdoSgyiR9oML" ] },
      { "delegate": "tz1dRKU4FQ9QRRQPdaH4zCR6gmCmXfcvcgtB",
        "reception_time": "2022-01-19T13:04:22.856-00:00",
        "included_in_blocks":
          [ "BMGa6T2HWTm33BcUgjXfURSxx6dh2FEVcLDPdQaAdoSgyiR9oML" ] },
      { "delegate": "tz1TEc75UKXv4W5cwi14Na3NtqFD51yKQi7h",
        "reception_time": "2022-01-19T13:04:22.866-00:00",
        "included_in_blocks":
          [ "BMGa6T2HWTm33BcUgjXfURSxx6dh2FEVcLDPdQaAdoSgyiR9oML" ] },
      { "delegate": "tz3NxTnke1acr8o3h5y9ytf5awQBGNJUKzVU",
        "reception_time": "2022-01-19T13:04:22.866-00:00",
        "included_in_blocks":
          [ "BMGa6T2HWTm33BcUgjXfURSxx6dh2FEVcLDPdQaAdoSgyiR9oML" ] },
      { "delegate": "tz1gfArv665EUkSg2ojMBzcbfwuPxAvqPvjo",
        "reception_time": "2022-01-19T13:04:22.871-00:00",
        "included_in_blocks":
          [ "BMGa6T2HWTm33BcUgjXfURSxx6dh2FEVcLDPdQaAdoSgyiR9oML" ] },
      { "delegate": "tz1a1J3AGjJTAyBqWWSqFuUazUDV2TtD6hMy",
        "reception_time": "2022-01-19T13:04:22.871-00:00",
        "included_in_blocks":
          [ "BMGa6T2HWTm33BcUgjXfURSxx6dh2FEVcLDPdQaAdoSgyiR9oML" ] },
      { "delegate": "tz3QT9dHYKDqh563chVa6za8526ys1UKfRfL",
        "reception_time": "2022-01-19T13:04:22.884-00:00",
        "included_in_blocks":
          [ "BMGa6T2HWTm33BcUgjXfURSxx6dh2FEVcLDPdQaAdoSgyiR9oML" ] },
      { "delegate": "tz3S6BBeKgJGXxvLyZ1xzXzMPn11nnFtq5L9",
        "reception_time": "2022-01-19T13:04:22.884-00:00",
        "included_in_blocks":
          [ "BMGa6T2HWTm33BcUgjXfURSxx6dh2FEVcLDPdQaAdoSgyiR9oML" ] },
      { "delegate": "tz3ZbP2pM3nwvXztbuMJwJnDvV5xdpU8UkkD",
        "reception_time": "2022-01-19T13:04:22.893-00:00",
        "included_in_blocks":
          [ "BMGa6T2HWTm33BcUgjXfURSxx6dh2FEVcLDPdQaAdoSgyiR9oML" ] },
      { "delegate": "tz1TRspM5SeZpaQUhzByXbEvqKF1vnCM2YTK",
        "reception_time": "2022-01-19T13:04:22.893-00:00",
        "included_in_blocks":
          [ "BMGa6T2HWTm33BcUgjXfURSxx6dh2FEVcLDPdQaAdoSgyiR9oML" ] },
      { "delegate": "tz3Zhs2dygr55yHyQyKjntAtY9bgfhLZ4Xj1",
        "reception_time": "2022-01-19T13:04:23.001-00:00",
        "included_in_blocks":
          [ "BMGa6T2HWTm33BcUgjXfURSxx6dh2FEVcLDPdQaAdoSgyiR9oML" ] },
      { "delegate": "tz1NEKxGEHsFufk87CVZcrqWu8o22qh46GK6",
        "reception_time": "2022-01-19T13:04:23.007-00:00",
        "included_in_blocks":
          [ "BMGa6T2HWTm33BcUgjXfURSxx6dh2FEVcLDPdQaAdoSgyiR9oML" ] },
      { "delegate": "tz1ei4WtWEMEJekSv8qDnu9PExG6Q8HgRGr3",
        "reception_time": "2022-01-19T13:04:23.007-00:00",
        "included_in_blocks":
          [ "BMGa6T2HWTm33BcUgjXfURSxx6dh2FEVcLDPdQaAdoSgyiR9oML" ] },
      { "delegate": "tz2FCNBrERXtaTtNX6iimR1UJ5JSDxvdHM93",
        "reception_time": "2022-01-19T13:04:23.112-00:00",
        "included_in_blocks":
          [ "BMGa6T2HWTm33BcUgjXfURSxx6dh2FEVcLDPdQaAdoSgyiR9oML" ] },
      { "delegate": "tz3iJu5vrKZcsqRPs8yJ61UDoeEXZmtro4qh",
        "reception_time": "2022-01-19T13:04:23.151-00:00",
        "included_in_blocks":
          [ "BMGa6T2HWTm33BcUgjXfURSxx6dh2FEVcLDPdQaAdoSgyiR9oML" ] },
      { "delegate": "tz1RCFbB9GpALpsZtu6J58sb74dm8qe6XBzv",
        "reception_time": "2022-01-19T13:04:23.160-00:00",
        "included_in_blocks":
          [ "BMGa6T2HWTm33BcUgjXfURSxx6dh2FEVcLDPdQaAdoSgyiR9oML" ] },
      { "delegate": "tz3QSGPoRp3Kn7n3vY24eYeu3Peuqo45LQ4D",
        "reception_time": "2022-01-19T13:04:23.160-00:00",
        "included_in_blocks":
          [ "BMGa6T2HWTm33BcUgjXfURSxx6dh2FEVcLDPdQaAdoSgyiR9oML" ] },
      { "delegate": "tz3gtoUxdudfBRcNY7iVdKPHCYYX6xdPpoRS",
        "reception_time": "2022-01-19T13:04:23.170-00:00",
        "included_in_blocks":
          [ "BMGa6T2HWTm33BcUgjXfURSxx6dh2FEVcLDPdQaAdoSgyiR9oML" ] },
      { "delegate": "tz1V4qCyvPKZ5UeqdH14HN42rxvNPQfc9UZg",
        "reception_time": "2022-01-19T13:04:23.170-00:00",
        "included_in_blocks":
          [ "BMGa6T2HWTm33BcUgjXfURSxx6dh2FEVcLDPdQaAdoSgyiR9oML" ] },
      { "delegate": "tz1hAYfexyzPGG6RhZZMpDvAHifubsbb6kgn",
        "reception_time": "2022-01-19T13:04:23.182-00:00",
        "included_in_blocks":
          [ "BMGa6T2HWTm33BcUgjXfURSxx6dh2FEVcLDPdQaAdoSgyiR9oML" ] },
      { "delegate": "tz1WnfXMPaNTBmH7DBPwqCWs9cPDJdkGBTZ8",
        "reception_time": "2022-01-19T13:04:23.185-00:00",
        "included_in_blocks":
          [ "BMGa6T2HWTm33BcUgjXfURSxx6dh2FEVcLDPdQaAdoSgyiR9oML" ] },
      { "delegate": "tz1UMCB2AHSTwG7YcGNr31CqYCtGN873royv",
        "reception_time": "2022-01-19T13:04:23.188-00:00",
        "included_in_blocks":
          [ "BMGa6T2HWTm33BcUgjXfURSxx6dh2FEVcLDPdQaAdoSgyiR9oML" ] },
      { "delegate": "tz1RjoHc98dBoqaH2jawF62XNKh7YsHwbkEv",
        "reception_time": "2022-01-19T13:04:23.207-00:00",
        "included_in_blocks":
          [ "BMGa6T2HWTm33BcUgjXfURSxx6dh2FEVcLDPdQaAdoSgyiR9oML" ] },
      { "delegate": "tz3bTdwZinP8U1JmSweNzVKhmwafqWmFWRfk",
        "reception_time": "2022-01-19T13:04:23.279-00:00",
        "included_in_blocks":
          [ "BMGa6T2HWTm33BcUgjXfURSxx6dh2FEVcLDPdQaAdoSgyiR9oML" ] },
      { "delegate": "tz1LmaFsWRkjr7QMCx5PtV6xTUz3AmEpKQiF",
        "reception_time": "2022-01-19T13:04:23.281-00:00",
        "included_in_blocks":
          [ "BMGa6T2HWTm33BcUgjXfURSxx6dh2FEVcLDPdQaAdoSgyiR9oML" ] },
      { "delegate": "tz1SYq214SCBy9naR6cvycQsYcUGpBqQAE8d",
        "reception_time": "2022-01-19T13:04:23.291-00:00",
        "included_in_blocks":
          [ "BMGa6T2HWTm33BcUgjXfURSxx6dh2FEVcLDPdQaAdoSgyiR9oML" ] },
      { "delegate": "tz3NDpRj6WBrJPikcPVHRBEjWKxFw3c6eQPS",
        "reception_time": "2022-01-19T13:04:23.299-00:00",
        "included_in_blocks":
          [ "BMGa6T2HWTm33BcUgjXfURSxx6dh2FEVcLDPdQaAdoSgyiR9oML" ] },
      { "delegate": "tz1X4Qb9NJ7JEuitX3jFpZptuAh7DUnCaLs1",
        "reception_time": "2022-01-19T13:04:23.302-00:00",
        "included_in_blocks":
          [ "BMGa6T2HWTm33BcUgjXfURSxx6dh2FEVcLDPdQaAdoSgyiR9oML" ] },
      { "delegate": "tz1S8MNvuFEUsWgjHvi3AxibRBf388NhT1q2",
        "reception_time": "2022-01-19T13:04:23.305-00:00",
        "included_in_blocks":
          [ "BMGa6T2HWTm33BcUgjXfURSxx6dh2FEVcLDPdQaAdoSgyiR9oML" ] },
      { "delegate": "tz1PeZx7FXy7QRuMREGXGxeipb24RsMMzUNe",
        "reception_time": "2022-01-19T13:04:23.309-00:00",
        "included_in_blocks":
          [ "BMGa6T2HWTm33BcUgjXfURSxx6dh2FEVcLDPdQaAdoSgyiR9oML" ] },
      { "delegate": "tz3WMqdzXqRWXwyvj5Hp2H7QEepaUuS7vd9K",
        "reception_time": "2022-01-19T13:04:23.518-00:00",
        "included_in_blocks":
          [ "BMGa6T2HWTm33BcUgjXfURSxx6dh2FEVcLDPdQaAdoSgyiR9oML" ] },
      { "delegate": "tz1ZcTRk5uxD86EFEn1vvNffWWqJy7q5eVhc",
        "reception_time": "2022-01-19T13:04:23.533-00:00",
        "included_in_blocks":
          [ "BMGa6T2HWTm33BcUgjXfURSxx6dh2FEVcLDPdQaAdoSgyiR9oML" ] },
      { "delegate": "tz1Xsrfv6hn86fp88YfRs6xcKwt2nTqxVZYM",
        "reception_time": "2022-01-19T13:04:23.927-00:00",
        "included_in_blocks":
          [ "BMGa6T2HWTm33BcUgjXfURSxx6dh2FEVcLDPdQaAdoSgyiR9oML" ] },
      { "delegate": "tz3RB4aoyjov4KEVRbuhvQ1CKJgBJMWhaeB8",
        "reception_time": "2022-01-19T13:04:23.954-00:00",
        "included_in_blocks":
          [ "BMGa6T2HWTm33BcUgjXfURSxx6dh2FEVcLDPdQaAdoSgyiR9oML" ] },
      { "delegate": "tz1fwnfJNgiDACshK9avfRfFbMaXrs3ghoJa",
        "reception_time": "2022-01-19T13:04:23.954-00:00",
        "included_in_blocks":
          [ "BMGa6T2HWTm33BcUgjXfURSxx6dh2FEVcLDPdQaAdoSgyiR9oML" ] },
      { "delegate": "tz1TRqbYbUf2GyrjErf3hBzgBJPzW8y36qEs",
        "reception_time": "2022-01-19T13:04:23.964-00:00",
        "included_in_blocks":
          [ "BMGa6T2HWTm33BcUgjXfURSxx6dh2FEVcLDPdQaAdoSgyiR9oML" ] },
      { "delegate": "tz3VEZ4k6a4Wx42iyev6i2aVAptTRLEAivNN",
        "reception_time": "2022-01-19T13:04:23.964-00:00",
        "included_in_blocks":
          [ "BMGa6T2HWTm33BcUgjXfURSxx6dh2FEVcLDPdQaAdoSgyiR9oML" ] },
      { "delegate": "tz1cYufsxHXJcvANhvS55h3aY32a9BAFB494",
        "reception_time": "2022-01-19T13:04:23.968-00:00",
        "included_in_blocks":
          [ "BMGa6T2HWTm33BcUgjXfURSxx6dh2FEVcLDPdQaAdoSgyiR9oML" ] },
      { "delegate": "tz3NExpXn9aPNZPorRE4SdjJ2RGrfbJgMAaV",
        "reception_time": "2022-01-19T13:04:24.113-00:00",
        "included_in_blocks":
          [ "BMGa6T2HWTm33BcUgjXfURSxx6dh2FEVcLDPdQaAdoSgyiR9oML" ] },
      { "delegate": "tz3RDC3Jdn4j15J7bBHZd29EUee9gVB1CxD9",
        "reception_time": "2022-01-19T13:04:24.362-00:00",
        "included_in_blocks":
          [ "BMGa6T2HWTm33BcUgjXfURSxx6dh2FEVcLDPdQaAdoSgyiR9oML" ] },
      { "delegate": "tz3bvNMQ95vfAYtG8193ymshqjSvmxiCUuR5",
        "reception_time": "2022-01-19T13:04:24.434-00:00",
        "included_in_blocks":
          [ "BMGa6T2HWTm33BcUgjXfURSxx6dh2FEVcLDPdQaAdoSgyiR9oML" ] },
      { "delegate": "tz3UoffC7FG7zfpmvmjUmUeAaHvzdcUvAj6r",
        "reception_time": "2022-01-19T13:04:25.068-00:00",
        "included_in_blocks":
          [ "BMGa6T2HWTm33BcUgjXfURSxx6dh2FEVcLDPdQaAdoSgyiR9oML" ] },
      { "delegate": "tz1h4GUAMweP7SNWzDgvMk3yRCAZyaP1MxZq",
        "reception_time": "2022-01-19T13:04:25.144-00:00",
        "included_in_blocks":
          [ "BMGa6T2HWTm33BcUgjXfURSxx6dh2FEVcLDPdQaAdoSgyiR9oML" ] },
      { "delegate": "tz1SohptP53wDPZhzTWzDUFAUcWF6DMBpaJV",
        "reception_time": "2022-01-19T13:04:25.270-00:00",
        "included_in_blocks":
          [ "BMGa6T2HWTm33BcUgjXfURSxx6dh2FEVcLDPdQaAdoSgyiR9oML" ] },
      { "delegate": "tz1SUgyRB8T5jXgXAwS33pgRHAKrafyg87Yc",
        "reception_time": "2022-01-19T13:04:26.045-00:00",
        "included_in_blocks":
          [ "BMGa6T2HWTm33BcUgjXfURSxx6dh2FEVcLDPdQaAdoSgyiR9oML" ] },
      { "delegate": "tz1aRoaRhSpRYvFdyvgWLL6TGyRoGF51wDjM",
        "reception_time": "2022-01-19T13:04:27.849-00:00",
        "included_in_blocks":
          [ "BMGa6T2HWTm33BcUgjXfURSxx6dh2FEVcLDPdQaAdoSgyiR9oML" ] },
      { "delegate": "tz1g8vkmcde6sWKaG2NN9WKzCkDM6Rziq194",
        "reception_time": "2022-01-19T13:04:28.477-00:00",
        "included_in_blocks":
          [ "BMGa6T2HWTm33BcUgjXfURSxx6dh2FEVcLDPdQaAdoSgyiR9oML" ] },
      { "delegate": "tz1Wp9DASxBnuiZTXHTBACtQ69kp8YL4bzLz",
        "reception_time": "2022-01-19T13:04:28.903-00:00",
        "included_in_blocks":
          [ "BMGa6T2HWTm33BcUgjXfURSxx6dh2FEVcLDPdQaAdoSgyiR9oML" ] },
      { "delegate": "tz1go7f6mEQfT2xX2LuHAqgnRGN6c2zHPf5c",
        "reception_time": "2022-01-19T13:04:37.435-00:00",
        "included_in_blocks":
          [ "BMGa6T2HWTm33BcUgjXfURSxx6dh2FEVcLDPdQaAdoSgyiR9oML" ] },
      { "delegate": "tz1dfg9PkvRLf7hKMmGdGRhXWCbd8QgbwBF7",
        "reception_time": "2022-01-19T13:04:37.782-00:00",
        "included_in_blocks":
          [ "BMGa6T2HWTm33BcUgjXfURSxx6dh2FEVcLDPdQaAdoSgyiR9oML" ] },
      { "delegate": "tz1QccGQsmt7WMnbVX9inJQgEuQGeMXddfjp",
        "reception_time": "2022-01-19T13:04:38.984-00:00",
        "included_in_blocks":
          [ "BMGa6T2HWTm33BcUgjXfURSxx6dh2FEVcLDPdQaAdoSgyiR9oML" ] } ] }