{ "blocks":
    [ { "hash": "BKoN1MVWg2GJMj3DrvoVdYKxzEpVUVVsfn7PsdeHJiG6g9mjCGh",
        "delegate": "tz1Ldzz6k1BHdhuKvAtMRX7h5kJSMHESMHLC",
        "reception_time": "2022-01-19T12:56:50.160-00:00",
        "timestamp": "2022-01-19T12:56:40Z" } ],
  "endorsements":
    [ { "delegate": "tz1W5VkdB5s7ENMESVBtwyt9kyvLqPcUczRT" },
      { "delegate": "tz1Kt4P8BCaP93AEV4eA7gmpRryWt5hznjCP",
        "reception_time": "2022-01-19T12:56:50.161-00:00",
        "errors":
          [ { "kind": "temporary",
              "id": "proto.011-PtHangz2.prefilter.outdated_endorsement" } ],
        "included_in_blocks":
          [ "BMMjoWauKrhEDL2AebctZ4z9QhBtyF8NPukX78yuwYDz7VooUN7" ] },
      { "delegate": "tz1Lhf4J9Qxoe3DZ2nfe8FGDnvVj7oKjnMY6",
        "reception_time": "2022-01-19T12:56:49.915-00:00",
        "errors":
          [ { "kind": "temporary",
              "id": "proto.011-PtHangz2.prefilter.outdated_endorsement" } ],
        "included_in_blocks":
          [ "BMMjoWauKrhEDL2AebctZ4z9QhBtyF8NPukX78yuwYDz7VooUN7" ] },
      { "delegate": "tz1MXFrtZoaXckE41bjUCSjAjAap3AFDSr3N",
        "reception_time": "2022-01-19T12:56:49.839-00:00",
        "errors":
          [ { "kind": "temporary",
              "id": "proto.011-PtHangz2.prefilter.outdated_endorsement" } ],
        "included_in_blocks":
          [ "BMMjoWauKrhEDL2AebctZ4z9QhBtyF8NPukX78yuwYDz7VooUN7" ] },
      { "delegate": "tz1RV1MBbZMR68tacosb7Mwj6LkbPSUS1er1",
        "reception_time": "2022-01-19T12:56:49.732-00:00",
        "errors":
          [ { "kind": "temporary",
              "id": "proto.011-PtHangz2.prefilter.outdated_endorsement" } ],
        "included_in_blocks":
          [ "BMMjoWauKrhEDL2AebctZ4z9QhBtyF8NPukX78yuwYDz7VooUN7" ] },
      { "delegate": "tz1VQnqCCqX4K5sP3FNkVSNKTdCAMJDd3E1n",
        "reception_time": "2022-01-19T12:56:49.680-00:00",
        "errors":
          [ { "kind": "temporary",
              "id": "proto.011-PtHangz2.prefilter.outdated_endorsement" } ],
        "included_in_blocks":
          [ "BMMjoWauKrhEDL2AebctZ4z9QhBtyF8NPukX78yuwYDz7VooUN7" ] },
      { "delegate": "tz1gUNyn3hmnEWqkusWPzxRaon1cs7ndWh7h",
        "reception_time": "2022-01-19T12:56:49.420-00:00",
        "errors":
          [ { "kind": "temporary",
              "id": "proto.011-PtHangz2.prefilter.outdated_endorsement" } ],
        "included_in_blocks":
          [ "BMMjoWauKrhEDL2AebctZ4z9QhBtyF8NPukX78yuwYDz7VooUN7" ] },
      { "delegate": "tz1Zhv3RkfU2pHrmaiDyxp7kFZpZrUCu1CiF",
        "reception_time": "2022-01-19T12:56:49.389-00:00",
        "errors":
          [ { "kind": "temporary",
              "id": "proto.011-PtHangz2.prefilter.outdated_endorsement" } ],
        "included_in_blocks":
          [ "BMMjoWauKrhEDL2AebctZ4z9QhBtyF8NPukX78yuwYDz7VooUN7" ] },
      { "delegate": "tz1P2Po7YM526ughEsRbY4oR9zaUPDZjxFrb",
        "reception_time": "2022-01-19T12:56:49.283-00:00",
        "errors":
          [ { "kind": "temporary",
              "id": "proto.011-PtHangz2.prefilter.outdated_endorsement" } ],
        "included_in_blocks":
          [ "BMMjoWauKrhEDL2AebctZ4z9QhBtyF8NPukX78yuwYDz7VooUN7" ] },
      { "delegate": "tz1Scdr2HsZiQjc7bHMeBbmDRXYVvdhjJbBh",
        "reception_time": "2022-01-19T12:56:49.200-00:00",
        "errors":
          [ { "kind": "temporary",
              "id": "proto.011-PtHangz2.prefilter.outdated_endorsement" } ],
        "included_in_blocks":
          [ "BMMjoWauKrhEDL2AebctZ4z9QhBtyF8NPukX78yuwYDz7VooUN7" ] },
      { "delegate": "tz1Ldzz6k1BHdhuKvAtMRX7h5kJSMHESMHLC",
        "reception_time": "2022-01-19T12:56:49.192-00:00",
        "errors":
          [ { "kind": "temporary",
              "id": "proto.011-PtHangz2.prefilter.outdated_endorsement" } ],
        "included_in_blocks":
          [ "BMMjoWauKrhEDL2AebctZ4z9QhBtyF8NPukX78yuwYDz7VooUN7" ] },
      { "delegate": "tz2BzJTyoQp8fNbfhWD4YQgH9JJHDgSGzpdG",
        "reception_time": "2022-01-19T12:57:04.882-00:00",
        "included_in_blocks":
          [ "BMMjoWauKrhEDL2AebctZ4z9QhBtyF8NPukX78yuwYDz7VooUN7" ] },
      { "delegate": "tz1NpWrAyDL9k2Lmnyxcgr9xuJakbBxdq7FB",
        "reception_time": "2022-01-19T12:57:02.672-00:00",
        "included_in_blocks":
          [ "BMMjoWauKrhEDL2AebctZ4z9QhBtyF8NPukX78yuwYDz7VooUN7" ] },
      { "delegate": "tz1QccGQsmt7WMnbVX9inJQgEuQGeMXddfjp",
        "reception_time": "2022-01-19T12:57:00.864-00:00",
        "included_in_blocks":
          [ "BMMjoWauKrhEDL2AebctZ4z9QhBtyF8NPukX78yuwYDz7VooUN7" ] },
      { "delegate": "tz1h4ar7F5wC6Ae2cfkrmrRP6nrPk9gGFaxg",
        "reception_time": "2022-01-19T12:56:59.179-00:00",
        "included_in_blocks":
          [ "BMMjoWauKrhEDL2AebctZ4z9QhBtyF8NPukX78yuwYDz7VooUN7" ] },
      { "delegate": "tz1aRoaRhSpRYvFdyvgWLL6TGyRoGF51wDjM",
        "reception_time": "2022-01-19T12:56:57.366-00:00",
        "included_in_blocks":
          [ "BMMjoWauKrhEDL2AebctZ4z9QhBtyF8NPukX78yuwYDz7VooUN7" ] },
      { "delegate": "tz1TcH4Nb3aHNDJ7CGZhU7jgAK1BkSP4Lxds",
        "reception_time": "2022-01-19T12:56:56.242-00:00",
        "included_in_blocks":
          [ "BMMjoWauKrhEDL2AebctZ4z9QhBtyF8NPukX78yuwYDz7VooUN7" ] },
      { "delegate": "tz3NExpXn9aPNZPorRE4SdjJ2RGrfbJgMAaV",
        "reception_time": "2022-01-19T12:56:54.683-00:00",
        "included_in_blocks":
          [ "BMMjoWauKrhEDL2AebctZ4z9QhBtyF8NPukX78yuwYDz7VooUN7" ] },
      { "delegate": "tz1awXW7wuXy21c66vBudMXQVAPgRnqqwgTH",
        "reception_time": "2022-01-19T12:56:54.739-00:00",
        "included_in_blocks":
          [ "BMMjoWauKrhEDL2AebctZ4z9QhBtyF8NPukX78yuwYDz7VooUN7" ] },
      { "delegate": "tz3RDC3Jdn4j15J7bBHZd29EUee9gVB1CxD9",
        "reception_time": "2022-01-19T12:56:54.195-00:00",
        "included_in_blocks":
          [ "BMMjoWauKrhEDL2AebctZ4z9QhBtyF8NPukX78yuwYDz7VooUN7" ] },
      { "delegate": "tz3VEZ4k6a4Wx42iyev6i2aVAptTRLEAivNN",
        "reception_time": "2022-01-19T12:56:53.985-00:00",
        "included_in_blocks":
          [ "BMMjoWauKrhEDL2AebctZ4z9QhBtyF8NPukX78yuwYDz7VooUN7" ] },
      { "delegate": "tz3NDpRj6WBrJPikcPVHRBEjWKxFw3c6eQPS",
        "reception_time": "2022-01-19T12:56:53.580-00:00",
        "included_in_blocks":
          [ "BMMjoWauKrhEDL2AebctZ4z9QhBtyF8NPukX78yuwYDz7VooUN7" ] },
      { "delegate": "tz1PeZx7FXy7QRuMREGXGxeipb24RsMMzUNe",
        "reception_time": "2022-01-19T12:56:53.646-00:00",
        "included_in_blocks":
          [ "BMMjoWauKrhEDL2AebctZ4z9QhBtyF8NPukX78yuwYDz7VooUN7" ] },
      { "delegate": "tz1fwnfJNgiDACshK9avfRfFbMaXrs3ghoJa",
        "reception_time": "2022-01-19T12:56:53.593-00:00",
        "included_in_blocks":
          [ "BMMjoWauKrhEDL2AebctZ4z9QhBtyF8NPukX78yuwYDz7VooUN7" ] },
      { "delegate": "tz1aJ8wxNeVRYbbx5YqzurmYzwKzkS96rHP4",
        "reception_time": "2022-01-19T12:56:53.747-00:00",
        "included_in_blocks":
          [ "BMMjoWauKrhEDL2AebctZ4z9QhBtyF8NPukX78yuwYDz7VooUN7" ] },
      { "delegate": "tz1NortRftucvAkD1J58L32EhSVrQEWJCEnB",
        "reception_time": "2022-01-19T12:56:53.510-00:00",
        "included_in_blocks":
          [ "BMMjoWauKrhEDL2AebctZ4z9QhBtyF8NPukX78yuwYDz7VooUN7" ] },
      { "delegate": "tz3WMqdzXqRWXwyvj5Hp2H7QEepaUuS7vd9K",
        "reception_time": "2022-01-19T12:56:53.811-00:00",
        "included_in_blocks":
          [ "BMMjoWauKrhEDL2AebctZ4z9QhBtyF8NPukX78yuwYDz7VooUN7" ] },
      { "delegate": "tz3UoffC7FG7zfpmvmjUmUeAaHvzdcUvAj6r",
        "reception_time": "2022-01-19T12:56:53.660-00:00",
        "included_in_blocks":
          [ "BMMjoWauKrhEDL2AebctZ4z9QhBtyF8NPukX78yuwYDz7VooUN7" ] },
      { "delegate": "tz1iPHM2Xx2hwmzcr1EG1zzrV6oKafVoA91m",
        "reception_time": "2022-01-19T12:56:53.642-00:00",
        "included_in_blocks":
          [ "BMMjoWauKrhEDL2AebctZ4z9QhBtyF8NPukX78yuwYDz7VooUN7" ] },
      { "delegate": "tz3bvNMQ95vfAYtG8193ymshqjSvmxiCUuR5",
        "reception_time": "2022-01-19T12:56:53.261-00:00",
        "included_in_blocks":
          [ "BMMjoWauKrhEDL2AebctZ4z9QhBtyF8NPukX78yuwYDz7VooUN7" ] },
      { "delegate": "tz1TRqbYbUf2GyrjErf3hBzgBJPzW8y36qEs",
        "reception_time": "2022-01-19T12:56:53.503-00:00",
        "included_in_blocks":
          [ "BMMjoWauKrhEDL2AebctZ4z9QhBtyF8NPukX78yuwYDz7VooUN7" ] },
      { "delegate": "tz1LmaFsWRkjr7QMCx5PtV6xTUz3AmEpKQiF",
        "reception_time": "2022-01-19T12:56:53.525-00:00",
        "included_in_blocks":
          [ "BMMjoWauKrhEDL2AebctZ4z9QhBtyF8NPukX78yuwYDz7VooUN7" ] },
      { "delegate": "tz3QCNyySViKHmeSr45kzDxzchys7NiXCWoa",
        "reception_time": "2022-01-19T12:56:53.499-00:00",
        "included_in_blocks":
          [ "BMMjoWauKrhEDL2AebctZ4z9QhBtyF8NPukX78yuwYDz7VooUN7" ] },
      { "delegate": "tz1RjoHc98dBoqaH2jawF62XNKh7YsHwbkEv",
        "reception_time": "2022-01-19T12:56:53.635-00:00",
        "included_in_blocks":
          [ "BMMjoWauKrhEDL2AebctZ4z9QhBtyF8NPukX78yuwYDz7VooUN7" ] },
      { "delegate": "tz1RCFbB9GpALpsZtu6J58sb74dm8qe6XBzv",
        "reception_time": "2022-01-19T12:56:53.529-00:00",
        "included_in_blocks":
          [ "BMMjoWauKrhEDL2AebctZ4z9QhBtyF8NPukX78yuwYDz7VooUN7" ] },
      { "delegate": "tz3RB4aoyjov4KEVRbuhvQ1CKJgBJMWhaeB8",
        "reception_time": "2022-01-19T12:56:53.486-00:00",
        "included_in_blocks":
          [ "BMMjoWauKrhEDL2AebctZ4z9QhBtyF8NPukX78yuwYDz7VooUN7" ] },
      { "delegate": "tz3bTdwZinP8U1JmSweNzVKhmwafqWmFWRfk",
        "reception_time": "2022-01-19T12:56:53.470-00:00",
        "included_in_blocks":
          [ "BMMjoWauKrhEDL2AebctZ4z9QhBtyF8NPukX78yuwYDz7VooUN7" ] },
      { "delegate": "tz2FCNBrERXtaTtNX6iimR1UJ5JSDxvdHM93",
        "reception_time": "2022-01-19T12:56:53.476-00:00",
        "included_in_blocks":
          [ "BMMjoWauKrhEDL2AebctZ4z9QhBtyF8NPukX78yuwYDz7VooUN7" ] },
      { "delegate": "tz1dRKU4FQ9QRRQPdaH4zCR6gmCmXfcvcgtB",
        "reception_time": "2022-01-19T12:56:53.491-00:00",
        "included_in_blocks":
          [ "BMMjoWauKrhEDL2AebctZ4z9QhBtyF8NPukX78yuwYDz7VooUN7" ] },
      { "delegate": "tz1T7duV5gZWSTq4YpBGbXNLTfznCLDrFxvs",
        "reception_time": "2022-01-19T12:56:53.476-00:00",
        "included_in_blocks":
          [ "BMMjoWauKrhEDL2AebctZ4z9QhBtyF8NPukX78yuwYDz7VooUN7" ] },
      { "delegate": "tz1S8MNvuFEUsWgjHvi3AxibRBf388NhT1q2",
        "reception_time": "2022-01-19T12:56:53.514-00:00",
        "included_in_blocks":
          [ "BMMjoWauKrhEDL2AebctZ4z9QhBtyF8NPukX78yuwYDz7VooUN7" ] },
      { "delegate": "tz1WctSwL49BZtdWAQ75NY6vr4xsAx6oKdah",
        "reception_time": "2022-01-19T12:56:53.462-00:00",
        "included_in_blocks":
          [ "BMMjoWauKrhEDL2AebctZ4z9QhBtyF8NPukX78yuwYDz7VooUN7" ] },
      { "delegate": "tz3S6BBeKgJGXxvLyZ1xzXzMPn11nnFtq5L9",
        "reception_time": "2022-01-19T12:56:53.447-00:00",
        "included_in_blocks":
          [ "BMMjoWauKrhEDL2AebctZ4z9QhBtyF8NPukX78yuwYDz7VooUN7" ] },
      { "delegate": "tz1RpeqCseogMpCPXpyGjhmLH9i9DhqJ8cUR",
        "reception_time": "2022-01-19T12:56:53.453-00:00",
        "included_in_blocks":
          [ "BMMjoWauKrhEDL2AebctZ4z9QhBtyF8NPukX78yuwYDz7VooUN7" ] },
      { "delegate": "tz3QT9dHYKDqh563chVa6za8526ys1UKfRfL",
        "reception_time": "2022-01-19T12:56:53.242-00:00",
        "included_in_blocks":
          [ "BMMjoWauKrhEDL2AebctZ4z9QhBtyF8NPukX78yuwYDz7VooUN7" ] },
      { "delegate": "tz1KfEsrtDaA1sX7vdM4qmEPWuSytuqCDp5j",
        "reception_time": "2022-01-19T12:56:53.451-00:00",
        "included_in_blocks":
          [ "BMMjoWauKrhEDL2AebctZ4z9QhBtyF8NPukX78yuwYDz7VooUN7" ] },
      { "delegate": "tz3iJu5vrKZcsqRPs8yJ61UDoeEXZmtro4qh",
        "reception_time": "2022-01-19T12:56:53.324-00:00",
        "included_in_blocks":
          [ "BMMjoWauKrhEDL2AebctZ4z9QhBtyF8NPukX78yuwYDz7VooUN7" ] },
      { "delegate": "tz1dwu9aYb7CRNq4Y2zAjipdjFuSVKhHS8vA",
        "reception_time": "2022-01-19T12:56:53.318-00:00",
        "included_in_blocks":
          [ "BMMjoWauKrhEDL2AebctZ4z9QhBtyF8NPukX78yuwYDz7VooUN7" ] },
      { "delegate": "tz3Zhs2dygr55yHyQyKjntAtY9bgfhLZ4Xj1",
        "reception_time": "2022-01-19T12:56:53.436-00:00",
        "included_in_blocks":
          [ "BMMjoWauKrhEDL2AebctZ4z9QhBtyF8NPukX78yuwYDz7VooUN7" ] },
      { "delegate": "tz1eLbDXYceRsPZoPmaJXZgQ6pzgnTQvZtpo",
        "reception_time": "2022-01-19T12:56:53.458-00:00",
        "included_in_blocks":
          [ "BMMjoWauKrhEDL2AebctZ4z9QhBtyF8NPukX78yuwYDz7VooUN7" ] },
      { "delegate": "tz1MQJPGNMijnXnVoBENFz9rUhaPt3S7rWoz",
        "reception_time": "2022-01-19T12:56:53.486-00:00",
        "included_in_blocks":
          [ "BMMjoWauKrhEDL2AebctZ4z9QhBtyF8NPukX78yuwYDz7VooUN7" ] },
      { "delegate": "tz1NEKxGEHsFufk87CVZcrqWu8o22qh46GK6",
        "reception_time": "2022-01-19T12:56:53.297-00:00",
        "included_in_blocks":
          [ "BMMjoWauKrhEDL2AebctZ4z9QhBtyF8NPukX78yuwYDz7VooUN7" ] },
      { "delegate": "tz1Nf6tsK4G6bBqgSQERy4nUtkHNKUVdh7q1",
        "reception_time": "2022-01-19T12:56:53.302-00:00",
        "included_in_blocks":
          [ "BMMjoWauKrhEDL2AebctZ4z9QhBtyF8NPukX78yuwYDz7VooUN7" ] },
      { "delegate": "tz3NxTnke1acr8o3h5y9ytf5awQBGNJUKzVU",
        "reception_time": "2022-01-19T12:56:53.196-00:00",
        "included_in_blocks":
          [ "BMMjoWauKrhEDL2AebctZ4z9QhBtyF8NPukX78yuwYDz7VooUN7" ] },
      { "delegate": "tz3gtoUxdudfBRcNY7iVdKPHCYYX6xdPpoRS",
        "reception_time": "2022-01-19T12:56:53.252-00:00",
        "included_in_blocks":
          [ "BMMjoWauKrhEDL2AebctZ4z9QhBtyF8NPukX78yuwYDz7VooUN7" ] },
      { "delegate": "tz3ZbP2pM3nwvXztbuMJwJnDvV5xdpU8UkkD",
        "reception_time": "2022-01-19T12:56:53.219-00:00",
        "included_in_blocks":
          [ "BMMjoWauKrhEDL2AebctZ4z9QhBtyF8NPukX78yuwYDz7VooUN7" ] },
      { "delegate": "tz1TEc75UKXv4W5cwi14Na3NtqFD51yKQi7h",
        "reception_time": "2022-01-19T12:56:53.327-00:00",
        "included_in_blocks":
          [ "BMMjoWauKrhEDL2AebctZ4z9QhBtyF8NPukX78yuwYDz7VooUN7" ] },
      { "delegate": "tz3RKYFsLuQzKBtmYuLNas7uMu3AsYd4QdsA",
        "reception_time": "2022-01-19T12:56:53.209-00:00",
        "included_in_blocks":
          [ "BMMjoWauKrhEDL2AebctZ4z9QhBtyF8NPukX78yuwYDz7VooUN7" ] },
      { "delegate": "tz3hw2kqXhLUvY65ca1eety2oQTpAvd34R9Q",
        "reception_time": "2022-01-19T12:56:53.187-00:00",
        "included_in_blocks":
          [ "BMMjoWauKrhEDL2AebctZ4z9QhBtyF8NPukX78yuwYDz7VooUN7" ] },
      { "delegate": "tz3QSGPoRp3Kn7n3vY24eYeu3Peuqo45LQ4D",
        "reception_time": "2022-01-19T12:56:53.179-00:00",
        "included_in_blocks":
          [ "BMMjoWauKrhEDL2AebctZ4z9QhBtyF8NPukX78yuwYDz7VooUN7" ] },
      { "delegate": "tz1gfArv665EUkSg2ojMBzcbfwuPxAvqPvjo",
        "reception_time": "2022-01-19T12:56:53.510-00:00",
        "included_in_blocks":
          [ "BMMjoWauKrhEDL2AebctZ4z9QhBtyF8NPukX78yuwYDz7VooUN7" ] },
      { "delegate": "tz1ei4WtWEMEJekSv8qDnu9PExG6Q8HgRGr3",
        "reception_time": "2022-01-19T12:56:53.222-00:00",
        "included_in_blocks":
          [ "BMMjoWauKrhEDL2AebctZ4z9QhBtyF8NPukX78yuwYDz7VooUN7" ] },
      { "delegate": "tz1beersuEDv8Z7ngQ825xfbaJNS2EhXnyHR",
        "reception_time": "2022-01-19T12:56:53.219-00:00",
        "included_in_blocks":
          [ "BMMjoWauKrhEDL2AebctZ4z9QhBtyF8NPukX78yuwYDz7VooUN7" ] },
      { "delegate": "tz1irJKkXS2DBWkU1NnmFQx1c1L7pbGg4yhk",
        "reception_time": "2022-01-19T12:56:53.165-00:00",
        "included_in_blocks":
          [ "BMMjoWauKrhEDL2AebctZ4z9QhBtyF8NPukX78yuwYDz7VooUN7" ] },
      { "delegate": "tz1eEnQhbwf6trb8Q8mPb2RaPkNk2rN7BKi8",
        "reception_time": "2022-01-19T12:56:53.165-00:00",
        "included_in_blocks":
          [ "BMMjoWauKrhEDL2AebctZ4z9QhBtyF8NPukX78yuwYDz7VooUN7" ] },
      { "delegate": "tz1TzaNn7wSQSP5gYPXCnNzBCpyMiidCq1PX",
        "reception_time": "2022-01-19T12:56:53.179-00:00",
        "included_in_blocks":
          [ "BMMjoWauKrhEDL2AebctZ4z9QhBtyF8NPukX78yuwYDz7VooUN7" ] },
      { "delegate": "tz1PWCDnz783NNGGQjEFFsHtrcK5yBW4E2rm",
        "reception_time": "2022-01-19T12:56:53.196-00:00",
        "included_in_blocks":
          [ "BMMjoWauKrhEDL2AebctZ4z9QhBtyF8NPukX78yuwYDz7VooUN7" ] },
      { "delegate": "tz1aXD7Jigrt3PBYSpHSg5Rr33SexMmmM5Ys",
        "reception_time": "2022-01-19T12:56:53.226-00:00",
        "included_in_blocks":
          [ "BMMjoWauKrhEDL2AebctZ4z9QhBtyF8NPukX78yuwYDz7VooUN7" ] },
      { "delegate": "tz3adcvQaKXTCg12zbninqo3q8ptKKtDFTLv",
        "reception_time": "2022-01-19T12:56:53.209-00:00",
        "included_in_blocks":
          [ "BMMjoWauKrhEDL2AebctZ4z9QhBtyF8NPukX78yuwYDz7VooUN7" ] } ] }