{ "blocks":
    [ { "hash": "BLqmsM3ovUSssrdstEYRWVR3jbU2SeaA2GvD3bqXkpppcHJ1NBC",
        "delegate": "tz1gfArv665EUkSg2ojMBzcbfwuPxAvqPvjo",
        "reception_time": "2022-01-20T01:12:55.160-00:00",
        "timestamp": "2022-01-20T01:12:40Z" } ],
  "endorsements":
    [ { "delegate": "tz1NpWrAyDL9k2Lmnyxcgr9xuJakbBxdq7FB",
        "reception_time": "2022-01-20T01:13:18.497-00:00" },
      { "delegate": "tz1go7f6mEQfT2xX2LuHAqgnRGN6c2zHPf5c",
        "reception_time": "2022-01-20T01:13:09.847-00:00",
        "included_in_blocks":
          [ "BLfchCSZ646Mj7P1WGBiCujG96P8B7jvd7NLWXpQP1eZ5Jf14Eh" ] },
      { "delegate": "tz1aRoaRhSpRYvFdyvgWLL6TGyRoGF51wDjM",
        "reception_time": "2022-01-20T01:13:02.022-00:00",
        "included_in_blocks":
          [ "BLfchCSZ646Mj7P1WGBiCujG96P8B7jvd7NLWXpQP1eZ5Jf14Eh" ] },
      { "delegate": "tz1Wp9DASxBnuiZTXHTBACtQ69kp8YL4bzLz",
        "reception_time": "2022-01-20T01:13:02.021-00:00",
        "included_in_blocks":
          [ "BLfchCSZ646Mj7P1WGBiCujG96P8B7jvd7NLWXpQP1eZ5Jf14Eh" ] },
      { "delegate": "tz1g8vkmcde6sWKaG2NN9WKzCkDM6Rziq194",
        "reception_time": "2022-01-20T01:13:00.736-00:00",
        "included_in_blocks":
          [ "BLfchCSZ646Mj7P1WGBiCujG96P8B7jvd7NLWXpQP1eZ5Jf14Eh" ] },
      { "delegate": "tz3NExpXn9aPNZPorRE4SdjJ2RGrfbJgMAaV",
        "reception_time": "2022-01-20T01:12:59.146-00:00",
        "included_in_blocks":
          [ "BLfchCSZ646Mj7P1WGBiCujG96P8B7jvd7NLWXpQP1eZ5Jf14Eh" ] },
      { "delegate": "tz1RCFbB9GpALpsZtu6J58sb74dm8qe6XBzv",
        "reception_time": "2022-01-20T01:12:59.014-00:00",
        "included_in_blocks":
          [ "BLfchCSZ646Mj7P1WGBiCujG96P8B7jvd7NLWXpQP1eZ5Jf14Eh" ] },
      { "delegate": "tz1TcH4Nb3aHNDJ7CGZhU7jgAK1BkSP4Lxds",
        "reception_time": "2022-01-20T01:12:59.001-00:00",
        "included_in_blocks":
          [ "BLfchCSZ646Mj7P1WGBiCujG96P8B7jvd7NLWXpQP1eZ5Jf14Eh" ] },
      { "delegate": "tz1TRqbYbUf2GyrjErf3hBzgBJPzW8y36qEs",
        "reception_time": "2022-01-20T01:12:58.808-00:00",
        "included_in_blocks":
          [ "BLfchCSZ646Mj7P1WGBiCujG96P8B7jvd7NLWXpQP1eZ5Jf14Eh" ] },
      { "delegate": "tz3RDC3Jdn4j15J7bBHZd29EUee9gVB1CxD9",
        "reception_time": "2022-01-20T01:12:58.715-00:00",
        "included_in_blocks":
          [ "BLfchCSZ646Mj7P1WGBiCujG96P8B7jvd7NLWXpQP1eZ5Jf14Eh" ] },
      { "delegate": "tz3bvNMQ95vfAYtG8193ymshqjSvmxiCUuR5",
        "reception_time": "2022-01-20T01:12:58.361-00:00",
        "included_in_blocks":
          [ "BLfchCSZ646Mj7P1WGBiCujG96P8B7jvd7NLWXpQP1eZ5Jf14Eh" ] },
      { "delegate": "tz3NDpRj6WBrJPikcPVHRBEjWKxFw3c6eQPS",
        "reception_time": "2022-01-20T01:12:58.361-00:00",
        "included_in_blocks":
          [ "BLfchCSZ646Mj7P1WGBiCujG96P8B7jvd7NLWXpQP1eZ5Jf14Eh" ] },
      { "delegate": "tz1cYufsxHXJcvANhvS55h3aY32a9BAFB494",
        "reception_time": "2022-01-20T01:12:58.361-00:00",
        "included_in_blocks":
          [ "BLfchCSZ646Mj7P1WGBiCujG96P8B7jvd7NLWXpQP1eZ5Jf14Eh" ] },
      { "delegate": "tz3WMqdzXqRWXwyvj5Hp2H7QEepaUuS7vd9K",
        "reception_time": "2022-01-20T01:12:58.361-00:00",
        "included_in_blocks":
          [ "BLfchCSZ646Mj7P1WGBiCujG96P8B7jvd7NLWXpQP1eZ5Jf14Eh" ] },
      { "delegate": "tz1YhNsiRRU8aHNGg7NK3uuP6UDAyacJernB",
        "reception_time": "2022-01-20T01:12:58.361-00:00",
        "included_in_blocks":
          [ "BLfchCSZ646Mj7P1WGBiCujG96P8B7jvd7NLWXpQP1eZ5Jf14Eh" ] },
      { "delegate": "tz3VEZ4k6a4Wx42iyev6i2aVAptTRLEAivNN",
        "reception_time": "2022-01-20T01:12:58.361-00:00",
        "included_in_blocks":
          [ "BLfchCSZ646Mj7P1WGBiCujG96P8B7jvd7NLWXpQP1eZ5Jf14Eh" ] },
      { "delegate": "tz3UoffC7FG7zfpmvmjUmUeAaHvzdcUvAj6r",
        "reception_time": "2022-01-20T01:12:58.361-00:00",
        "included_in_blocks":
          [ "BLfchCSZ646Mj7P1WGBiCujG96P8B7jvd7NLWXpQP1eZ5Jf14Eh" ] },
      { "delegate": "tz1dRKU4FQ9QRRQPdaH4zCR6gmCmXfcvcgtB",
        "reception_time": "2022-01-20T01:12:58.361-00:00",
        "included_in_blocks":
          [ "BLfchCSZ646Mj7P1WGBiCujG96P8B7jvd7NLWXpQP1eZ5Jf14Eh" ] },
      { "delegate": "tz1fwnfJNgiDACshK9avfRfFbMaXrs3ghoJa",
        "reception_time": "2022-01-20T01:12:58.361-00:00",
        "included_in_blocks":
          [ "BLfchCSZ646Mj7P1WGBiCujG96P8B7jvd7NLWXpQP1eZ5Jf14Eh" ] },
      { "delegate": "tz1LmaFsWRkjr7QMCx5PtV6xTUz3AmEpKQiF",
        "reception_time": "2022-01-20T01:12:58.361-00:00",
        "included_in_blocks":
          [ "BLfchCSZ646Mj7P1WGBiCujG96P8B7jvd7NLWXpQP1eZ5Jf14Eh" ] },
      { "delegate": "tz3RB4aoyjov4KEVRbuhvQ1CKJgBJMWhaeB8",
        "reception_time": "2022-01-20T01:12:58.361-00:00",
        "included_in_blocks":
          [ "BLfchCSZ646Mj7P1WGBiCujG96P8B7jvd7NLWXpQP1eZ5Jf14Eh" ] },
      { "delegate": "tz1T7duV5gZWSTq4YpBGbXNLTfznCLDrFxvs",
        "reception_time": "2022-01-20T01:12:58.361-00:00",
        "included_in_blocks":
          [ "BLfchCSZ646Mj7P1WGBiCujG96P8B7jvd7NLWXpQP1eZ5Jf14Eh" ] },
      { "delegate": "tz1S8MNvuFEUsWgjHvi3AxibRBf388NhT1q2",
        "reception_time": "2022-01-20T01:12:58.361-00:00",
        "included_in_blocks":
          [ "BLfchCSZ646Mj7P1WGBiCujG96P8B7jvd7NLWXpQP1eZ5Jf14Eh" ] },
      { "delegate": "tz1WctSwL49BZtdWAQ75NY6vr4xsAx6oKdah",
        "reception_time": "2022-01-20T01:12:58.361-00:00",
        "included_in_blocks":
          [ "BLfchCSZ646Mj7P1WGBiCujG96P8B7jvd7NLWXpQP1eZ5Jf14Eh" ] },
      { "delegate": "tz3bTdwZinP8U1JmSweNzVKhmwafqWmFWRfk",
        "reception_time": "2022-01-20T01:12:58.361-00:00",
        "included_in_blocks":
          [ "BLfchCSZ646Mj7P1WGBiCujG96P8B7jvd7NLWXpQP1eZ5Jf14Eh" ] },
      { "delegate": "tz1abmz7jiCV2GH2u81LRrGgAFFgvQgiDiaf",
        "reception_time": "2022-01-20T01:12:58.361-00:00",
        "included_in_blocks":
          [ "BLfchCSZ646Mj7P1WGBiCujG96P8B7jvd7NLWXpQP1eZ5Jf14Eh" ] },
      { "delegate": "tz1UMCB2AHSTwG7YcGNr31CqYCtGN873royv",
        "reception_time": "2022-01-20T01:12:58.361-00:00",
        "included_in_blocks":
          [ "BLfchCSZ646Mj7P1WGBiCujG96P8B7jvd7NLWXpQP1eZ5Jf14Eh" ] },
      { "delegate": "tz1Tnjaxk6tbAeC2TmMApPh8UsrEVQvhHvx5",
        "reception_time": "2022-01-20T01:12:58.361-00:00",
        "included_in_blocks":
          [ "BLfchCSZ646Mj7P1WGBiCujG96P8B7jvd7NLWXpQP1eZ5Jf14Eh" ] },
      { "delegate": "tz1iMAHAVpkCVegF9FLGWUpQQeiAHh4ffdLQ",
        "reception_time": "2022-01-20T01:12:58.361-00:00",
        "included_in_blocks":
          [ "BLfchCSZ646Mj7P1WGBiCujG96P8B7jvd7NLWXpQP1eZ5Jf14Eh" ] },
      { "delegate": "tz3gtoUxdudfBRcNY7iVdKPHCYYX6xdPpoRS",
        "reception_time": "2022-01-20T01:12:58.361-00:00",
        "included_in_blocks":
          [ "BLfchCSZ646Mj7P1WGBiCujG96P8B7jvd7NLWXpQP1eZ5Jf14Eh" ] },
      { "delegate": "tz2FCNBrERXtaTtNX6iimR1UJ5JSDxvdHM93",
        "reception_time": "2022-01-20T01:12:58.361-00:00",
        "included_in_blocks":
          [ "BLfchCSZ646Mj7P1WGBiCujG96P8B7jvd7NLWXpQP1eZ5Jf14Eh" ] },
      { "delegate": "tz3iJu5vrKZcsqRPs8yJ61UDoeEXZmtro4qh",
        "reception_time": "2022-01-20T01:12:58.361-00:00",
        "included_in_blocks":
          [ "BLfchCSZ646Mj7P1WGBiCujG96P8B7jvd7NLWXpQP1eZ5Jf14Eh" ] },
      { "delegate": "tz1WBfwbT66FC6BTLexc2BoyCCBM9LG7pnVW",
        "reception_time": "2022-01-20T01:12:57.970-00:00",
        "included_in_blocks":
          [ "BLfchCSZ646Mj7P1WGBiCujG96P8B7jvd7NLWXpQP1eZ5Jf14Eh" ] },
      { "delegate": "tz3S6BBeKgJGXxvLyZ1xzXzMPn11nnFtq5L9",
        "reception_time": "2022-01-20T01:12:57.970-00:00",
        "included_in_blocks":
          [ "BLfchCSZ646Mj7P1WGBiCujG96P8B7jvd7NLWXpQP1eZ5Jf14Eh" ] },
      { "delegate": "tz3QT9dHYKDqh563chVa6za8526ys1UKfRfL",
        "reception_time": "2022-01-20T01:12:57.970-00:00",
        "included_in_blocks":
          [ "BLfchCSZ646Mj7P1WGBiCujG96P8B7jvd7NLWXpQP1eZ5Jf14Eh" ] },
      { "delegate": "tz1fb7c66UwePkkfDXz4ajFaBP9hVNLdS7JJ",
        "reception_time": "2022-01-20T01:12:57.970-00:00",
        "included_in_blocks":
          [ "BLfchCSZ646Mj7P1WGBiCujG96P8B7jvd7NLWXpQP1eZ5Jf14Eh" ] },
      { "delegate": "tz1NEKxGEHsFufk87CVZcrqWu8o22qh46GK6",
        "reception_time": "2022-01-20T01:12:57.970-00:00",
        "included_in_blocks":
          [ "BLfchCSZ646Mj7P1WGBiCujG96P8B7jvd7NLWXpQP1eZ5Jf14Eh" ] },
      { "delegate": "tz1KfEsrtDaA1sX7vdM4qmEPWuSytuqCDp5j",
        "reception_time": "2022-01-20T01:12:57.970-00:00",
        "included_in_blocks":
          [ "BLfchCSZ646Mj7P1WGBiCujG96P8B7jvd7NLWXpQP1eZ5Jf14Eh" ] },
      { "delegate": "tz1Nf6tsK4G6bBqgSQERy4nUtkHNKUVdh7q1",
        "reception_time": "2022-01-20T01:12:57.970-00:00",
        "included_in_blocks":
          [ "BLfchCSZ646Mj7P1WGBiCujG96P8B7jvd7NLWXpQP1eZ5Jf14Eh" ] },
      { "delegate": "tz1SYq214SCBy9naR6cvycQsYcUGpBqQAE8d",
        "reception_time": "2022-01-20T01:12:57.970-00:00",
        "included_in_blocks":
          [ "BLfchCSZ646Mj7P1WGBiCujG96P8B7jvd7NLWXpQP1eZ5Jf14Eh" ] },
      { "delegate": "tz3ZbP2pM3nwvXztbuMJwJnDvV5xdpU8UkkD",
        "reception_time": "2022-01-20T01:12:57.970-00:00",
        "included_in_blocks":
          [ "BLfchCSZ646Mj7P1WGBiCujG96P8B7jvd7NLWXpQP1eZ5Jf14Eh" ] },
      { "delegate": "tz1LnWa4AiFCjMezTgSNa65QFoo7DQGEWgEU",
        "reception_time": "2022-01-20T01:12:57.970-00:00",
        "included_in_blocks":
          [ "BLfchCSZ646Mj7P1WGBiCujG96P8B7jvd7NLWXpQP1eZ5Jf14Eh" ] },
      { "delegate": "tz1ei4WtWEMEJekSv8qDnu9PExG6Q8HgRGr3",
        "reception_time": "2022-01-20T01:12:57.970-00:00",
        "included_in_blocks":
          [ "BLfchCSZ646Mj7P1WGBiCujG96P8B7jvd7NLWXpQP1eZ5Jf14Eh" ] },
      { "delegate": "tz3QSGPoRp3Kn7n3vY24eYeu3Peuqo45LQ4D",
        "reception_time": "2022-01-20T01:12:57.970-00:00",
        "included_in_blocks":
          [ "BLfchCSZ646Mj7P1WGBiCujG96P8B7jvd7NLWXpQP1eZ5Jf14Eh" ] },
      { "delegate": "tz3NxTnke1acr8o3h5y9ytf5awQBGNJUKzVU",
        "reception_time": "2022-01-20T01:12:57.970-00:00",
        "included_in_blocks":
          [ "BLfchCSZ646Mj7P1WGBiCujG96P8B7jvd7NLWXpQP1eZ5Jf14Eh" ] },
      { "delegate": "tz1d6Fx42mYgVFnHUW8T8A7WBfJ6nD9pVok8",
        "reception_time": "2022-01-20T01:12:57.970-00:00",
        "included_in_blocks":
          [ "BLfchCSZ646Mj7P1WGBiCujG96P8B7jvd7NLWXpQP1eZ5Jf14Eh" ] },
      { "delegate": "tz1TEc75UKXv4W5cwi14Na3NtqFD51yKQi7h",
        "reception_time": "2022-01-20T01:12:57.970-00:00",
        "included_in_blocks":
          [ "BLfchCSZ646Mj7P1WGBiCujG96P8B7jvd7NLWXpQP1eZ5Jf14Eh" ] },
      { "delegate": "tz1beersuEDv8Z7ngQ825xfbaJNS2EhXnyHR",
        "reception_time": "2022-01-20T01:12:57.970-00:00",
        "included_in_blocks":
          [ "BLfchCSZ646Mj7P1WGBiCujG96P8B7jvd7NLWXpQP1eZ5Jf14Eh" ] },
      { "delegate": "tz1WCd2jm4uSt4vntk4vSuUWoZQGhLcDuR9q",
        "reception_time": "2022-01-20T01:12:57.970-00:00",
        "included_in_blocks":
          [ "BLfchCSZ646Mj7P1WGBiCujG96P8B7jvd7NLWXpQP1eZ5Jf14Eh" ] },
      { "delegate": "tz1dNVDWPf3Q59SdJqnjdnu277iyvReiRS9M",
        "reception_time": "2022-01-20T01:12:57.970-00:00",
        "included_in_blocks":
          [ "BLfchCSZ646Mj7P1WGBiCujG96P8B7jvd7NLWXpQP1eZ5Jf14Eh" ] },
      { "delegate": "tz1eEnQhbwf6trb8Q8mPb2RaPkNk2rN7BKi8",
        "reception_time": "2022-01-20T01:12:57.970-00:00",
        "included_in_blocks":
          [ "BLfchCSZ646Mj7P1WGBiCujG96P8B7jvd7NLWXpQP1eZ5Jf14Eh" ] },
      { "delegate": "tz1PWCDnz783NNGGQjEFFsHtrcK5yBW4E2rm",
        "reception_time": "2022-01-20T01:12:57.970-00:00",
        "included_in_blocks":
          [ "BLfchCSZ646Mj7P1WGBiCujG96P8B7jvd7NLWXpQP1eZ5Jf14Eh" ] },
      { "delegate": "tz3RKYFsLuQzKBtmYuLNas7uMu3AsYd4QdsA",
        "reception_time": "2022-01-20T01:12:57.970-00:00",
        "included_in_blocks":
          [ "BLfchCSZ646Mj7P1WGBiCujG96P8B7jvd7NLWXpQP1eZ5Jf14Eh" ] },
      { "delegate": "tz3hw2kqXhLUvY65ca1eety2oQTpAvd34R9Q",
        "reception_time": "2022-01-20T01:12:57.970-00:00",
        "included_in_blocks":
          [ "BLfchCSZ646Mj7P1WGBiCujG96P8B7jvd7NLWXpQP1eZ5Jf14Eh" ] },
      { "delegate": "tz1irJKkXS2DBWkU1NnmFQx1c1L7pbGg4yhk",
        "reception_time": "2022-01-20T01:12:57.970-00:00",
        "included_in_blocks":
          [ "BLfchCSZ646Mj7P1WGBiCujG96P8B7jvd7NLWXpQP1eZ5Jf14Eh" ] },
      { "delegate": "tz1TzaNn7wSQSP5gYPXCnNzBCpyMiidCq1PX",
        "reception_time": "2022-01-20T01:12:57.761-00:00",
        "included_in_blocks":
          [ "BLfchCSZ646Mj7P1WGBiCujG96P8B7jvd7NLWXpQP1eZ5Jf14Eh" ] },
      { "delegate": "tz1awXW7wuXy21c66vBudMXQVAPgRnqqwgTH" },
      { "delegate": "tz1gfArv665EUkSg2ojMBzcbfwuPxAvqPvjo",
        "reception_time": "2022-01-20T01:12:53.342-00:00",
        "errors":
          [ { "kind": "temporary",
              "id": "proto.011-PtHangz2.prefilter.outdated_endorsement" } ],
        "included_in_blocks":
          [ "BLfchCSZ646Mj7P1WGBiCujG96P8B7jvd7NLWXpQP1eZ5Jf14Eh" ] },
      { "delegate": "tz1THsLcunLo8CmDm9f2y1xHuXttXZCpyFnq",
        "reception_time": "2022-01-20T01:12:53.706-00:00",
        "errors":
          [ { "kind": "temporary",
              "id": "proto.011-PtHangz2.prefilter.outdated_endorsement" } ],
        "included_in_blocks":
          [ "BLfchCSZ646Mj7P1WGBiCujG96P8B7jvd7NLWXpQP1eZ5Jf14Eh" ] },
      { "delegate": "tz1VmiY38m3y95HqQLjMwqnMS7sdMfGomzKi",
        "reception_time": "2022-01-20T01:12:54.098-00:00",
        "errors":
          [ { "kind": "temporary",
              "id": "proto.011-PtHangz2.prefilter.outdated_endorsement" } ],
        "included_in_blocks":
          [ "BLfchCSZ646Mj7P1WGBiCujG96P8B7jvd7NLWXpQP1eZ5Jf14Eh" ] },
      { "delegate": "tz1TXzyaKUA8wsWefdSnyaYFnV2M3vCV7er9",
        "reception_time": "2022-01-20T01:12:54.213-00:00",
        "errors":
          [ { "kind": "temporary",
              "id": "proto.011-PtHangz2.prefilter.outdated_endorsement" } ],
        "included_in_blocks":
          [ "BLfchCSZ646Mj7P1WGBiCujG96P8B7jvd7NLWXpQP1eZ5Jf14Eh" ] },
      { "delegate": "tz1Scdr2HsZiQjc7bHMeBbmDRXYVvdhjJbBh",
        "reception_time": "2022-01-20T01:12:54.230-00:00",
        "errors":
          [ { "kind": "temporary",
              "id": "proto.011-PtHangz2.prefilter.outdated_endorsement" } ],
        "included_in_blocks":
          [ "BLfchCSZ646Mj7P1WGBiCujG96P8B7jvd7NLWXpQP1eZ5Jf14Eh" ] },
      { "delegate": "tz1Kt4P8BCaP93AEV4eA7gmpRryWt5hznjCP",
        "reception_time": "2022-01-20T01:12:54.311-00:00",
        "errors":
          [ { "kind": "temporary",
              "id": "proto.011-PtHangz2.prefilter.outdated_endorsement" } ],
        "included_in_blocks":
          [ "BLfchCSZ646Mj7P1WGBiCujG96P8B7jvd7NLWXpQP1eZ5Jf14Eh" ] },
      { "delegate": "tz1gUNyn3hmnEWqkusWPzxRaon1cs7ndWh7h",
        "reception_time": "2022-01-20T01:12:54.480-00:00",
        "errors":
          [ { "kind": "temporary",
              "id": "proto.011-PtHangz2.prefilter.outdated_endorsement" } ],
        "included_in_blocks":
          [ "BLfchCSZ646Mj7P1WGBiCujG96P8B7jvd7NLWXpQP1eZ5Jf14Eh" ] },
      { "delegate": "tz1RV1MBbZMR68tacosb7Mwj6LkbPSUS1er1",
        "reception_time": "2022-01-20T01:12:54.494-00:00",
        "errors":
          [ { "kind": "temporary",
              "id": "proto.011-PtHangz2.prefilter.outdated_endorsement" } ],
        "included_in_blocks":
          [ "BLfchCSZ646Mj7P1WGBiCujG96P8B7jvd7NLWXpQP1eZ5Jf14Eh" ] },
      { "delegate": "tz1VQnqCCqX4K5sP3FNkVSNKTdCAMJDd3E1n",
        "reception_time": "2022-01-20T01:12:54.494-00:00",
        "errors":
          [ { "kind": "temporary",
              "id": "proto.011-PtHangz2.prefilter.outdated_endorsement" } ],
        "included_in_blocks":
          [ "BLfchCSZ646Mj7P1WGBiCujG96P8B7jvd7NLWXpQP1eZ5Jf14Eh" ] },
      { "delegate": "tz1Ldzz6k1BHdhuKvAtMRX7h5kJSMHESMHLC",
        "reception_time": "2022-01-20T01:12:54.600-00:00",
        "errors":
          [ { "kind": "temporary",
              "id": "proto.011-PtHangz2.prefilter.outdated_endorsement" } ],
        "included_in_blocks":
          [ "BLfchCSZ646Mj7P1WGBiCujG96P8B7jvd7NLWXpQP1eZ5Jf14Eh" ] },
      { "delegate": "tz1Lhf4J9Qxoe3DZ2nfe8FGDnvVj7oKjnMY6",
        "reception_time": "2022-01-20T01:12:54.659-00:00",
        "errors":
          [ { "kind": "temporary",
              "id": "proto.011-PtHangz2.prefilter.outdated_endorsement" } ],
        "included_in_blocks":
          [ "BLfchCSZ646Mj7P1WGBiCujG96P8B7jvd7NLWXpQP1eZ5Jf14Eh" ] },
      { "delegate": "tz1P2Po7YM526ughEsRbY4oR9zaUPDZjxFrb",
        "reception_time": "2022-01-20T01:12:54.709-00:00",
        "errors":
          [ { "kind": "temporary",
              "id": "proto.011-PtHangz2.prefilter.outdated_endorsement" } ],
        "included_in_blocks":
          [ "BLfchCSZ646Mj7P1WGBiCujG96P8B7jvd7NLWXpQP1eZ5Jf14Eh" ] },
      { "delegate": "tz1STeamwbp68THcny9zk3LsbG3H36DMvbRK",
        "reception_time": "2022-01-20T01:12:54.836-00:00",
        "errors":
          [ { "kind": "temporary",
              "id": "proto.011-PtHangz2.prefilter.outdated_endorsement" } ],
        "included_in_blocks":
          [ "BLfchCSZ646Mj7P1WGBiCujG96P8B7jvd7NLWXpQP1eZ5Jf14Eh" ] },
      { "delegate": "tz3adcvQaKXTCg12zbninqo3q8ptKKtDFTLv",
        "reception_time": "2022-01-20T01:12:54.880-00:00",
        "errors":
          [ { "kind": "temporary",
              "id": "proto.011-PtHangz2.prefilter.outdated_endorsement" } ],
        "included_in_blocks":
          [ "BLfchCSZ646Mj7P1WGBiCujG96P8B7jvd7NLWXpQP1eZ5Jf14Eh" ] } ] }