{ "blocks":
    [ { "hash": "BLZy4E4FeP68eAvjE9Hf5G2s8Tw5YnxqHM5DVMRQjSNVbBVMt8R",
        "delegate": "tz3S6BBeKgJGXxvLyZ1xzXzMPn11nnFtq5L9",
        "reception_time": "2022-01-20T00:27:14.715-00:00",
        "timestamp": "2022-01-20T00:27:00Z" } ],
  "endorsements":
    [ { "delegate": "tz1ibcPVGK4Y8pcW4BYUsojiHoBKnZbyDGrX" },
      { "delegate": "tz1awXW7wuXy21c66vBudMXQVAPgRnqqwgTH" },
      { "delegate": "tz1WnyXakHZKotpQHxevTnLmomz5rTwdiccy" },
      { "delegate": "tz1RjoHc98dBoqaH2jawF62XNKh7YsHwbkEv" },
      { "delegate": "tz1PWCDnz783NNGGQjEFFsHtrcK5yBW4E2rm",
        "reception_time": "2022-01-20T00:27:14.718-00:00",
        "errors":
          [ { "kind": "temporary",
              "id": "proto.011-PtHangz2.prefilter.outdated_endorsement" } ],
        "included_in_blocks":
          [ "BMA4kq1uSb7H5JQo5Q4Jiid2YQFFYYMKu8FXjSfsVLgGr8ghYHz" ] },
      { "delegate": "tz1eEnQhbwf6trb8Q8mPb2RaPkNk2rN7BKi8",
        "reception_time": "2022-01-20T00:27:14.541-00:00",
        "errors":
          [ { "kind": "temporary",
              "id": "proto.011-PtHangz2.prefilter.outdated_endorsement" } ],
        "included_in_blocks":
          [ "BMA4kq1uSb7H5JQo5Q4Jiid2YQFFYYMKu8FXjSfsVLgGr8ghYHz" ] },
      { "delegate": "tz1irJKkXS2DBWkU1NnmFQx1c1L7pbGg4yhk",
        "reception_time": "2022-01-20T00:27:14.291-00:00",
        "errors":
          [ { "kind": "temporary",
              "id": "proto.011-PtHangz2.prefilter.outdated_endorsement" } ],
        "included_in_blocks":
          [ "BMA4kq1uSb7H5JQo5Q4Jiid2YQFFYYMKu8FXjSfsVLgGr8ghYHz" ] },
      { "delegate": "tz1STeamwbp68THcny9zk3LsbG3H36DMvbRK",
        "reception_time": "2022-01-20T00:27:14.194-00:00",
        "errors":
          [ { "kind": "temporary",
              "id": "proto.011-PtHangz2.prefilter.outdated_endorsement" } ],
        "included_in_blocks":
          [ "BMA4kq1uSb7H5JQo5Q4Jiid2YQFFYYMKu8FXjSfsVLgGr8ghYHz" ] },
      { "delegate": "tz1aDiEJf9ztRrAJEXZfcG3CKimoKsGhwVAi",
        "reception_time": "2022-01-20T00:27:14.088-00:00",
        "errors":
          [ { "kind": "temporary",
              "id": "proto.011-PtHangz2.prefilter.outdated_endorsement" } ],
        "included_in_blocks":
          [ "BMA4kq1uSb7H5JQo5Q4Jiid2YQFFYYMKu8FXjSfsVLgGr8ghYHz" ] },
      { "delegate": "tz1P2Po7YM526ughEsRbY4oR9zaUPDZjxFrb",
        "reception_time": "2022-01-20T00:27:13.999-00:00",
        "errors":
          [ { "kind": "temporary",
              "id": "proto.011-PtHangz2.prefilter.outdated_endorsement" } ],
        "included_in_blocks":
          [ "BMA4kq1uSb7H5JQo5Q4Jiid2YQFFYYMKu8FXjSfsVLgGr8ghYHz" ] },
      { "delegate": "tz1cX93Q3KsiTADpCC4f12TBvAmS5tw7CW19",
        "reception_time": "2022-01-20T00:27:13.772-00:00",
        "errors":
          [ { "kind": "temporary",
              "id": "proto.011-PtHangz2.prefilter.outdated_endorsement" } ],
        "included_in_blocks":
          [ "BMA4kq1uSb7H5JQo5Q4Jiid2YQFFYYMKu8FXjSfsVLgGr8ghYHz" ] },
      { "delegate": "tz1Ldzz6k1BHdhuKvAtMRX7h5kJSMHESMHLC",
        "reception_time": "2022-01-20T00:27:13.659-00:00",
        "errors":
          [ { "kind": "temporary",
              "id": "proto.011-PtHangz2.prefilter.outdated_endorsement" } ],
        "included_in_blocks":
          [ "BMA4kq1uSb7H5JQo5Q4Jiid2YQFFYYMKu8FXjSfsVLgGr8ghYHz" ] },
      { "delegate": "tz1gUNyn3hmnEWqkusWPzxRaon1cs7ndWh7h",
        "reception_time": "2022-01-20T00:27:13.403-00:00",
        "errors":
          [ { "kind": "temporary",
              "id": "proto.011-PtHangz2.prefilter.outdated_endorsement" } ],
        "included_in_blocks":
          [ "BMA4kq1uSb7H5JQo5Q4Jiid2YQFFYYMKu8FXjSfsVLgGr8ghYHz" ] },
      { "delegate": "tz1VQnqCCqX4K5sP3FNkVSNKTdCAMJDd3E1n",
        "reception_time": "2022-01-20T00:27:13.398-00:00",
        "errors":
          [ { "kind": "temporary",
              "id": "proto.011-PtHangz2.prefilter.outdated_endorsement" } ],
        "included_in_blocks":
          [ "BMA4kq1uSb7H5JQo5Q4Jiid2YQFFYYMKu8FXjSfsVLgGr8ghYHz" ] },
      { "delegate": "tz1XXayQohB8XRXN7kMoHbf2NFwNiH3oMRQQ",
        "reception_time": "2022-01-20T00:27:12.418-00:00",
        "errors":
          [ { "kind": "temporary",
              "id": "proto.011-PtHangz2.prefilter.outdated_endorsement" } ],
        "included_in_blocks":
          [ "BMA4kq1uSb7H5JQo5Q4Jiid2YQFFYYMKu8FXjSfsVLgGr8ghYHz" ] },
      { "delegate": "tz1S8e9GgdZG78XJRB3NqabfWeM37GnhZMWQ",
        "reception_time": "2022-01-20T00:27:12.350-00:00",
        "errors":
          [ { "kind": "temporary",
              "id": "proto.011-PtHangz2.prefilter.outdated_endorsement" } ],
        "included_in_blocks":
          [ "BMA4kq1uSb7H5JQo5Q4Jiid2YQFFYYMKu8FXjSfsVLgGr8ghYHz" ] },
      { "delegate": "tz1aRoaRhSpRYvFdyvgWLL6TGyRoGF51wDjM",
        "reception_time": "2022-01-20T00:27:21.824-00:00",
        "included_in_blocks":
          [ "BMA4kq1uSb7H5JQo5Q4Jiid2YQFFYYMKu8FXjSfsVLgGr8ghYHz" ] },
      { "delegate": "tz1g8vkmcde6sWKaG2NN9WKzCkDM6Rziq194",
        "reception_time": "2022-01-20T00:27:20.911-00:00",
        "included_in_blocks":
          [ "BMA4kq1uSb7H5JQo5Q4Jiid2YQFFYYMKu8FXjSfsVLgGr8ghYHz" ] },
      { "delegate": "tz1SUgyRB8T5jXgXAwS33pgRHAKrafyg87Yc",
        "reception_time": "2022-01-20T00:27:20.690-00:00",
        "included_in_blocks":
          [ "BMA4kq1uSb7H5JQo5Q4Jiid2YQFFYYMKu8FXjSfsVLgGr8ghYHz" ] },
      { "delegate": "tz3bvNMQ95vfAYtG8193ymshqjSvmxiCUuR5",
        "reception_time": "2022-01-20T00:27:19.131-00:00",
        "included_in_blocks":
          [ "BMA4kq1uSb7H5JQo5Q4Jiid2YQFFYYMKu8FXjSfsVLgGr8ghYHz" ] },
      { "delegate": "tz1aJS7Pk9uWR3wWyFf1i3RwhYxN84G7stom",
        "reception_time": "2022-01-20T00:27:19.085-00:00",
        "included_in_blocks":
          [ "BMA4kq1uSb7H5JQo5Q4Jiid2YQFFYYMKu8FXjSfsVLgGr8ghYHz" ] },
      { "delegate": "tz1abmz7jiCV2GH2u81LRrGgAFFgvQgiDiaf",
        "reception_time": "2022-01-20T00:27:19.085-00:00",
        "included_in_blocks":
          [ "BMA4kq1uSb7H5JQo5Q4Jiid2YQFFYYMKu8FXjSfsVLgGr8ghYHz" ] },
      { "delegate": "tz1TRqbYbUf2GyrjErf3hBzgBJPzW8y36qEs",
        "reception_time": "2022-01-20T00:27:19.068-00:00",
        "included_in_blocks":
          [ "BMA4kq1uSb7H5JQo5Q4Jiid2YQFFYYMKu8FXjSfsVLgGr8ghYHz" ] },
      { "delegate": "tz1ZcTRk5uxD86EFEn1vvNffWWqJy7q5eVhc",
        "reception_time": "2022-01-20T00:27:18.786-00:00",
        "included_in_blocks":
          [ "BMA4kq1uSb7H5JQo5Q4Jiid2YQFFYYMKu8FXjSfsVLgGr8ghYHz" ] },
      { "delegate": "tz3NDpRj6WBrJPikcPVHRBEjWKxFw3c6eQPS",
        "reception_time": "2022-01-20T00:27:18.865-00:00",
        "included_in_blocks":
          [ "BMA4kq1uSb7H5JQo5Q4Jiid2YQFFYYMKu8FXjSfsVLgGr8ghYHz" ] },
      { "delegate": "tz3bTdwZinP8U1JmSweNzVKhmwafqWmFWRfk",
        "reception_time": "2022-01-20T00:27:18.851-00:00",
        "included_in_blocks":
          [ "BMA4kq1uSb7H5JQo5Q4Jiid2YQFFYYMKu8FXjSfsVLgGr8ghYHz" ] },
      { "delegate": "tz3NExpXn9aPNZPorRE4SdjJ2RGrfbJgMAaV",
        "reception_time": "2022-01-20T00:27:19.139-00:00",
        "included_in_blocks":
          [ "BMA4kq1uSb7H5JQo5Q4Jiid2YQFFYYMKu8FXjSfsVLgGr8ghYHz" ] },
      { "delegate": "tz3VEZ4k6a4Wx42iyev6i2aVAptTRLEAivNN",
        "reception_time": "2022-01-20T00:27:18.890-00:00",
        "included_in_blocks":
          [ "BMA4kq1uSb7H5JQo5Q4Jiid2YQFFYYMKu8FXjSfsVLgGr8ghYHz" ] },
      { "delegate": "tz3WMqdzXqRWXwyvj5Hp2H7QEepaUuS7vd9K",
        "reception_time": "2022-01-20T00:27:19.156-00:00",
        "included_in_blocks":
          [ "BMA4kq1uSb7H5JQo5Q4Jiid2YQFFYYMKu8FXjSfsVLgGr8ghYHz" ] },
      { "delegate": "tz2FCNBrERXtaTtNX6iimR1UJ5JSDxvdHM93",
        "reception_time": "2022-01-20T00:27:19.094-00:00",
        "included_in_blocks":
          [ "BMA4kq1uSb7H5JQo5Q4Jiid2YQFFYYMKu8FXjSfsVLgGr8ghYHz" ] },
      { "delegate": "tz3RDC3Jdn4j15J7bBHZd29EUee9gVB1CxD9",
        "reception_time": "2022-01-20T00:27:18.872-00:00",
        "included_in_blocks":
          [ "BMA4kq1uSb7H5JQo5Q4Jiid2YQFFYYMKu8FXjSfsVLgGr8ghYHz" ] },
      { "delegate": "tz3RB4aoyjov4KEVRbuhvQ1CKJgBJMWhaeB8",
        "reception_time": "2022-01-20T00:27:19.114-00:00",
        "included_in_blocks":
          [ "BMA4kq1uSb7H5JQo5Q4Jiid2YQFFYYMKu8FXjSfsVLgGr8ghYHz" ] },
      { "delegate": "tz1cYufsxHXJcvANhvS55h3aY32a9BAFB494",
        "reception_time": "2022-01-20T00:27:18.985-00:00",
        "included_in_blocks":
          [ "BMA4kq1uSb7H5JQo5Q4Jiid2YQFFYYMKu8FXjSfsVLgGr8ghYHz" ] },
      { "delegate": "tz1PMWrbSda1RvsRi8Xq7GRd3P7739jtyaM8",
        "reception_time": "2022-01-20T00:27:19.063-00:00",
        "included_in_blocks":
          [ "BMA4kq1uSb7H5JQo5Q4Jiid2YQFFYYMKu8FXjSfsVLgGr8ghYHz" ] },
      { "delegate": "tz1T7duV5gZWSTq4YpBGbXNLTfznCLDrFxvs",
        "reception_time": "2022-01-20T00:27:18.985-00:00",
        "included_in_blocks":
          [ "BMA4kq1uSb7H5JQo5Q4Jiid2YQFFYYMKu8FXjSfsVLgGr8ghYHz" ] },
      { "delegate": "tz1UJvHTgpVzcKWhTazGxVcn5wsHru5Gietg",
        "reception_time": "2022-01-20T00:27:19.010-00:00",
        "included_in_blocks":
          [ "BMA4kq1uSb7H5JQo5Q4Jiid2YQFFYYMKu8FXjSfsVLgGr8ghYHz" ] },
      { "delegate": "tz3UoffC7FG7zfpmvmjUmUeAaHvzdcUvAj6r",
        "reception_time": "2022-01-20T00:27:19.147-00:00",
        "included_in_blocks":
          [ "BMA4kq1uSb7H5JQo5Q4Jiid2YQFFYYMKu8FXjSfsVLgGr8ghYHz" ] },
      { "delegate": "tz1LmaFsWRkjr7QMCx5PtV6xTUz3AmEpKQiF",
        "reception_time": "2022-01-20T00:27:19.074-00:00",
        "included_in_blocks":
          [ "BMA4kq1uSb7H5JQo5Q4Jiid2YQFFYYMKu8FXjSfsVLgGr8ghYHz" ] },
      { "delegate": "tz1dRKU4FQ9QRRQPdaH4zCR6gmCmXfcvcgtB",
        "reception_time": "2022-01-20T00:27:19.034-00:00",
        "included_in_blocks":
          [ "BMA4kq1uSb7H5JQo5Q4Jiid2YQFFYYMKu8FXjSfsVLgGr8ghYHz" ] },
      { "delegate": "tz1RCFbB9GpALpsZtu6J58sb74dm8qe6XBzv",
        "reception_time": "2022-01-20T00:27:18.839-00:00",
        "included_in_blocks":
          [ "BMA4kq1uSb7H5JQo5Q4Jiid2YQFFYYMKu8FXjSfsVLgGr8ghYHz" ] },
      { "delegate": "tz3Zhs2dygr55yHyQyKjntAtY9bgfhLZ4Xj1",
        "reception_time": "2022-01-20T00:27:19.028-00:00",
        "included_in_blocks":
          [ "BMA4kq1uSb7H5JQo5Q4Jiid2YQFFYYMKu8FXjSfsVLgGr8ghYHz" ] },
      { "delegate": "tz1axcnVN9tZnCe4sQQhC6f3tfSEXdjPaXPY",
        "reception_time": "2022-01-20T00:27:19.014-00:00",
        "included_in_blocks":
          [ "BMA4kq1uSb7H5JQo5Q4Jiid2YQFFYYMKu8FXjSfsVLgGr8ghYHz" ] },
      { "delegate": "tz3S6BBeKgJGXxvLyZ1xzXzMPn11nnFtq5L9",
        "reception_time": "2022-01-20T00:27:19.042-00:00",
        "included_in_blocks":
          [ "BMA4kq1uSb7H5JQo5Q4Jiid2YQFFYYMKu8FXjSfsVLgGr8ghYHz" ] },
      { "delegate": "tz3QT9dHYKDqh563chVa6za8526ys1UKfRfL",
        "reception_time": "2022-01-20T00:27:18.998-00:00",
        "included_in_blocks":
          [ "BMA4kq1uSb7H5JQo5Q4Jiid2YQFFYYMKu8FXjSfsVLgGr8ghYHz" ] },
      { "delegate": "tz1S8MNvuFEUsWgjHvi3AxibRBf388NhT1q2",
        "reception_time": "2022-01-20T00:27:19.094-00:00",
        "included_in_blocks":
          [ "BMA4kq1uSb7H5JQo5Q4Jiid2YQFFYYMKu8FXjSfsVLgGr8ghYHz" ] },
      { "delegate": "tz3iJu5vrKZcsqRPs8yJ61UDoeEXZmtro4qh",
        "reception_time": "2022-01-20T00:27:18.998-00:00",
        "included_in_blocks":
          [ "BMA4kq1uSb7H5JQo5Q4Jiid2YQFFYYMKu8FXjSfsVLgGr8ghYHz" ] },
      { "delegate": "tz1SYq214SCBy9naR6cvycQsYcUGpBqQAE8d",
        "reception_time": "2022-01-20T00:27:19.019-00:00",
        "included_in_blocks":
          [ "BMA4kq1uSb7H5JQo5Q4Jiid2YQFFYYMKu8FXjSfsVLgGr8ghYHz" ] },
      { "delegate": "tz1gfArv665EUkSg2ojMBzcbfwuPxAvqPvjo",
        "reception_time": "2022-01-20T00:27:18.940-00:00",
        "included_in_blocks":
          [ "BMA4kq1uSb7H5JQo5Q4Jiid2YQFFYYMKu8FXjSfsVLgGr8ghYHz" ] },
      { "delegate": "tz1iMAHAVpkCVegF9FLGWUpQQeiAHh4ffdLQ",
        "reception_time": "2022-01-20T00:27:19.019-00:00",
        "included_in_blocks":
          [ "BMA4kq1uSb7H5JQo5Q4Jiid2YQFFYYMKu8FXjSfsVLgGr8ghYHz" ] },
      { "delegate": "tz1RQhNh7iB9CZA7i3ifTWNwiGYVffponfbB",
        "reception_time": "2022-01-20T00:27:18.798-00:00",
        "included_in_blocks":
          [ "BMA4kq1uSb7H5JQo5Q4Jiid2YQFFYYMKu8FXjSfsVLgGr8ghYHz" ] },
      { "delegate": "tz1TEc75UKXv4W5cwi14Na3NtqFD51yKQi7h",
        "reception_time": "2022-01-20T00:27:18.814-00:00",
        "included_in_blocks":
          [ "BMA4kq1uSb7H5JQo5Q4Jiid2YQFFYYMKu8FXjSfsVLgGr8ghYHz" ] },
      { "delegate": "tz3QSGPoRp3Kn7n3vY24eYeu3Peuqo45LQ4D",
        "reception_time": "2022-01-20T00:27:18.865-00:00",
        "included_in_blocks":
          [ "BMA4kq1uSb7H5JQo5Q4Jiid2YQFFYYMKu8FXjSfsVLgGr8ghYHz" ] },
      { "delegate": "tz3NxTnke1acr8o3h5y9ytf5awQBGNJUKzVU",
        "reception_time": "2022-01-20T00:27:18.824-00:00",
        "included_in_blocks":
          [ "BMA4kq1uSb7H5JQo5Q4Jiid2YQFFYYMKu8FXjSfsVLgGr8ghYHz" ] },
      { "delegate": "tz3ZbP2pM3nwvXztbuMJwJnDvV5xdpU8UkkD",
        "reception_time": "2022-01-20T00:27:18.814-00:00",
        "included_in_blocks":
          [ "BMA4kq1uSb7H5JQo5Q4Jiid2YQFFYYMKu8FXjSfsVLgGr8ghYHz" ] },
      { "delegate": "tz1Nf6tsK4G6bBqgSQERy4nUtkHNKUVdh7q1",
        "reception_time": "2022-01-20T00:27:18.786-00:00",
        "included_in_blocks":
          [ "BMA4kq1uSb7H5JQo5Q4Jiid2YQFFYYMKu8FXjSfsVLgGr8ghYHz" ] },
      { "delegate": "tz3RKYFsLuQzKBtmYuLNas7uMu3AsYd4QdsA",
        "reception_time": "2022-01-20T00:27:18.780-00:00",
        "included_in_blocks":
          [ "BMA4kq1uSb7H5JQo5Q4Jiid2YQFFYYMKu8FXjSfsVLgGr8ghYHz" ] },
      { "delegate": "tz1KfEsrtDaA1sX7vdM4qmEPWuSytuqCDp5j",
        "reception_time": "2022-01-20T00:27:18.833-00:00",
        "included_in_blocks":
          [ "BMA4kq1uSb7H5JQo5Q4Jiid2YQFFYYMKu8FXjSfsVLgGr8ghYHz" ] },
      { "delegate": "tz3gtoUxdudfBRcNY7iVdKPHCYYX6xdPpoRS",
        "reception_time": "2022-01-20T00:27:18.769-00:00",
        "included_in_blocks":
          [ "BMA4kq1uSb7H5JQo5Q4Jiid2YQFFYYMKu8FXjSfsVLgGr8ghYHz" ] },
      { "delegate": "tz3hw2kqXhLUvY65ca1eety2oQTpAvd34R9Q",
        "reception_time": "2022-01-20T00:27:18.795-00:00",
        "included_in_blocks":
          [ "BMA4kq1uSb7H5JQo5Q4Jiid2YQFFYYMKu8FXjSfsVLgGr8ghYHz" ] },
      { "delegate": "tz1V4qCyvPKZ5UeqdH14HN42rxvNPQfc9UZg",
        "reception_time": "2022-01-20T00:27:18.632-00:00",
        "included_in_blocks":
          [ "BMA4kq1uSb7H5JQo5Q4Jiid2YQFFYYMKu8FXjSfsVLgGr8ghYHz" ] },
      { "delegate": "tz1NEKxGEHsFufk87CVZcrqWu8o22qh46GK6",
        "reception_time": "2022-01-20T00:27:18.844-00:00",
        "included_in_blocks":
          [ "BMA4kq1uSb7H5JQo5Q4Jiid2YQFFYYMKu8FXjSfsVLgGr8ghYHz" ] },
      { "delegate": "tz1d6Fx42mYgVFnHUW8T8A7WBfJ6nD9pVok8",
        "reception_time": "2022-01-20T00:27:18.501-00:00",
        "included_in_blocks":
          [ "BMA4kq1uSb7H5JQo5Q4Jiid2YQFFYYMKu8FXjSfsVLgGr8ghYHz" ] } ] }