{ "blocks":
    [ { "hash": "BLXqEUv6qvqpxEzFHsWrFdmTccjbfLSFqi5ykA5mZfptwJyNBb1",
        "delegate": "tz1Ldzz6k1BHdhuKvAtMRX7h5kJSMHESMHLC",
        "reception_time": "2022-01-20T02:39:38.074-00:00",
        "timestamp": "2022-01-20T02:39:30Z" } ],
  "endorsements":
    [ { "delegate": "tz1VmiY38m3y95HqQLjMwqnMS7sdMfGomzKi",
        "reception_time": "2022-01-20T02:39:37.977-00:00",
        "errors":
          [ { "kind": "temporary",
              "id": "proto.011-PtHangz2.prefilter.outdated_endorsement" } ],
        "included_in_blocks":
          [ "BKn6jL8qPLjFXo2qYDyxN6m2qnSTUNYwWtc9G9cYXvmJeLw6hG1" ] },
      { "delegate": "tz1RV1MBbZMR68tacosb7Mwj6LkbPSUS1er1",
        "reception_time": "2022-01-20T02:39:37.942-00:00",
        "errors":
          [ { "kind": "temporary",
              "id": "proto.011-PtHangz2.prefilter.outdated_endorsement" } ],
        "included_in_blocks":
          [ "BKn6jL8qPLjFXo2qYDyxN6m2qnSTUNYwWtc9G9cYXvmJeLw6hG1" ] },
      { "delegate": "tz1beersuEDv8Z7ngQ825xfbaJNS2EhXnyHR",
        "reception_time": "2022-01-20T02:39:37.893-00:00",
        "errors":
          [ { "kind": "temporary",
              "id": "proto.011-PtHangz2.prefilter.outdated_endorsement" } ],
        "included_in_blocks":
          [ "BKn6jL8qPLjFXo2qYDyxN6m2qnSTUNYwWtc9G9cYXvmJeLw6hG1" ] },
      { "delegate": "tz1irJKkXS2DBWkU1NnmFQx1c1L7pbGg4yhk",
        "reception_time": "2022-01-20T02:39:37.891-00:00",
        "errors":
          [ { "kind": "temporary",
              "id": "proto.011-PtHangz2.prefilter.outdated_endorsement" } ],
        "included_in_blocks":
          [ "BKn6jL8qPLjFXo2qYDyxN6m2qnSTUNYwWtc9G9cYXvmJeLw6hG1" ] },
      { "delegate": "tz1eEnQhbwf6trb8Q8mPb2RaPkNk2rN7BKi8",
        "reception_time": "2022-01-20T02:39:37.872-00:00",
        "errors":
          [ { "kind": "temporary",
              "id": "proto.011-PtHangz2.prefilter.outdated_endorsement" } ],
        "included_in_blocks":
          [ "BKn6jL8qPLjFXo2qYDyxN6m2qnSTUNYwWtc9G9cYXvmJeLw6hG1" ] },
      { "delegate": "tz1STeamwbp68THcny9zk3LsbG3H36DMvbRK",
        "reception_time": "2022-01-20T02:39:37.862-00:00",
        "errors":
          [ { "kind": "temporary",
              "id": "proto.011-PtHangz2.prefilter.outdated_endorsement" } ],
        "included_in_blocks":
          [ "BKn6jL8qPLjFXo2qYDyxN6m2qnSTUNYwWtc9G9cYXvmJeLw6hG1" ] },
      { "delegate": "tz1P2Po7YM526ughEsRbY4oR9zaUPDZjxFrb",
        "reception_time": "2022-01-20T02:39:37.498-00:00",
        "errors":
          [ { "kind": "temporary",
              "id": "proto.011-PtHangz2.prefilter.outdated_endorsement" } ],
        "included_in_blocks":
          [ "BKn6jL8qPLjFXo2qYDyxN6m2qnSTUNYwWtc9G9cYXvmJeLw6hG1" ] },
      { "delegate": "tz1gUNyn3hmnEWqkusWPzxRaon1cs7ndWh7h",
        "reception_time": "2022-01-20T02:39:37.483-00:00",
        "errors":
          [ { "kind": "temporary",
              "id": "proto.011-PtHangz2.prefilter.outdated_endorsement" } ],
        "included_in_blocks":
          [ "BKn6jL8qPLjFXo2qYDyxN6m2qnSTUNYwWtc9G9cYXvmJeLw6hG1" ] },
      { "delegate": "tz1VQnqCCqX4K5sP3FNkVSNKTdCAMJDd3E1n",
        "reception_time": "2022-01-20T02:39:37.477-00:00",
        "errors":
          [ { "kind": "temporary",
              "id": "proto.011-PtHangz2.prefilter.outdated_endorsement" } ],
        "included_in_blocks":
          [ "BKn6jL8qPLjFXo2qYDyxN6m2qnSTUNYwWtc9G9cYXvmJeLw6hG1" ] },
      { "delegate": "tz1Ldzz6k1BHdhuKvAtMRX7h5kJSMHESMHLC",
        "reception_time": "2022-01-20T02:39:37.341-00:00",
        "errors":
          [ { "kind": "temporary",
              "id": "proto.011-PtHangz2.prefilter.outdated_endorsement" } ],
        "included_in_blocks":
          [ "BKn6jL8qPLjFXo2qYDyxN6m2qnSTUNYwWtc9G9cYXvmJeLw6hG1" ] },
      { "delegate": "tz1S8e9GgdZG78XJRB3NqabfWeM37GnhZMWQ",
        "reception_time": "2022-01-20T02:39:36.527-00:00",
        "errors":
          [ { "kind": "temporary",
              "id": "proto.011-PtHangz2.prefilter.outdated_endorsement" } ],
        "included_in_blocks":
          [ "BKn6jL8qPLjFXo2qYDyxN6m2qnSTUNYwWtc9G9cYXvmJeLw6hG1" ] },
      { "delegate": "tz1XXayQohB8XRXN7kMoHbf2NFwNiH3oMRQQ",
        "reception_time": "2022-01-20T02:39:36.358-00:00",
        "errors":
          [ { "kind": "temporary",
              "id": "proto.011-PtHangz2.prefilter.outdated_endorsement" } ],
        "included_in_blocks":
          [ "BKn6jL8qPLjFXo2qYDyxN6m2qnSTUNYwWtc9G9cYXvmJeLw6hG1" ] },
      { "delegate": "tz1RjoHc98dBoqaH2jawF62XNKh7YsHwbkEv" },
      { "delegate": "tz1awXW7wuXy21c66vBudMXQVAPgRnqqwgTH" },
      { "delegate": "tz1dbfppLAAxXZNtf2SDps7rch3qfUznKSoK" },
      { "delegate": "tz1ei4WtWEMEJekSv8qDnu9PExG6Q8HgRGr3",
        "reception_time": "2022-01-20T02:39:40.240-00:00",
        "included_in_blocks":
          [ "BKn6jL8qPLjFXo2qYDyxN6m2qnSTUNYwWtc9G9cYXvmJeLw6hG1" ] },
      { "delegate": "tz1TzaNn7wSQSP5gYPXCnNzBCpyMiidCq1PX",
        "reception_time": "2022-01-20T02:39:40.240-00:00",
        "included_in_blocks":
          [ "BKn6jL8qPLjFXo2qYDyxN6m2qnSTUNYwWtc9G9cYXvmJeLw6hG1" ] },
      { "delegate": "tz1WCd2jm4uSt4vntk4vSuUWoZQGhLcDuR9q",
        "reception_time": "2022-01-20T02:39:40.240-00:00",
        "included_in_blocks":
          [ "BKn6jL8qPLjFXo2qYDyxN6m2qnSTUNYwWtc9G9cYXvmJeLw6hG1" ] },
      { "delegate": "tz1RQhNh7iB9CZA7i3ifTWNwiGYVffponfbB",
        "reception_time": "2022-01-20T02:39:40.240-00:00",
        "included_in_blocks":
          [ "BKn6jL8qPLjFXo2qYDyxN6m2qnSTUNYwWtc9G9cYXvmJeLw6hG1" ] },
      { "delegate": "tz3QSGPoRp3Kn7n3vY24eYeu3Peuqo45LQ4D",
        "reception_time": "2022-01-20T02:39:40.240-00:00",
        "included_in_blocks":
          [ "BKn6jL8qPLjFXo2qYDyxN6m2qnSTUNYwWtc9G9cYXvmJeLw6hG1" ] },
      { "delegate": "tz1d6Fx42mYgVFnHUW8T8A7WBfJ6nD9pVok8",
        "reception_time": "2022-01-20T02:39:40.240-00:00",
        "included_in_blocks":
          [ "BKn6jL8qPLjFXo2qYDyxN6m2qnSTUNYwWtc9G9cYXvmJeLw6hG1" ] },
      { "delegate": "tz3gtoUxdudfBRcNY7iVdKPHCYYX6xdPpoRS",
        "reception_time": "2022-01-20T02:39:40.240-00:00",
        "included_in_blocks":
          [ "BKn6jL8qPLjFXo2qYDyxN6m2qnSTUNYwWtc9G9cYXvmJeLw6hG1" ] },
      { "delegate": "tz3hw2kqXhLUvY65ca1eety2oQTpAvd34R9Q",
        "reception_time": "2022-01-20T02:39:40.240-00:00",
        "included_in_blocks":
          [ "BKn6jL8qPLjFXo2qYDyxN6m2qnSTUNYwWtc9G9cYXvmJeLw6hG1" ] },
      { "delegate": "tz3ZbP2pM3nwvXztbuMJwJnDvV5xdpU8UkkD",
        "reception_time": "2022-01-20T02:39:40.240-00:00",
        "included_in_blocks":
          [ "BKn6jL8qPLjFXo2qYDyxN6m2qnSTUNYwWtc9G9cYXvmJeLw6hG1" ] },
      { "delegate": "tz1Nf6tsK4G6bBqgSQERy4nUtkHNKUVdh7q1",
        "reception_time": "2022-01-20T02:39:40.240-00:00",
        "included_in_blocks":
          [ "BKn6jL8qPLjFXo2qYDyxN6m2qnSTUNYwWtc9G9cYXvmJeLw6hG1" ] },
      { "delegate": "tz3S6BBeKgJGXxvLyZ1xzXzMPn11nnFtq5L9",
        "reception_time": "2022-01-20T02:39:40.240-00:00",
        "included_in_blocks":
          [ "BKn6jL8qPLjFXo2qYDyxN6m2qnSTUNYwWtc9G9cYXvmJeLw6hG1" ] },
      { "delegate": "tz3NxTnke1acr8o3h5y9ytf5awQBGNJUKzVU",
        "reception_time": "2022-01-20T02:39:40.240-00:00",
        "included_in_blocks":
          [ "BKn6jL8qPLjFXo2qYDyxN6m2qnSTUNYwWtc9G9cYXvmJeLw6hG1" ] },
      { "delegate": "tz3Zhs2dygr55yHyQyKjntAtY9bgfhLZ4Xj1",
        "reception_time": "2022-01-20T02:39:40.240-00:00",
        "included_in_blocks":
          [ "BKn6jL8qPLjFXo2qYDyxN6m2qnSTUNYwWtc9G9cYXvmJeLw6hG1" ] },
      { "delegate": "tz3iJu5vrKZcsqRPs8yJ61UDoeEXZmtro4qh",
        "reception_time": "2022-01-20T02:39:40.240-00:00",
        "included_in_blocks":
          [ "BKn6jL8qPLjFXo2qYDyxN6m2qnSTUNYwWtc9G9cYXvmJeLw6hG1" ] },
      { "delegate": "tz3QT9dHYKDqh563chVa6za8526ys1UKfRfL",
        "reception_time": "2022-01-20T02:39:40.240-00:00",
        "included_in_blocks":
          [ "BKn6jL8qPLjFXo2qYDyxN6m2qnSTUNYwWtc9G9cYXvmJeLw6hG1" ] },
      { "delegate": "tz1SYq214SCBy9naR6cvycQsYcUGpBqQAE8d",
        "reception_time": "2022-01-20T02:39:40.240-00:00",
        "included_in_blocks":
          [ "BKn6jL8qPLjFXo2qYDyxN6m2qnSTUNYwWtc9G9cYXvmJeLw6hG1" ] },
      { "delegate": "tz1Tnjaxk6tbAeC2TmMApPh8UsrEVQvhHvx5",
        "reception_time": "2022-01-20T02:39:40.240-00:00",
        "included_in_blocks":
          [ "BKn6jL8qPLjFXo2qYDyxN6m2qnSTUNYwWtc9G9cYXvmJeLw6hG1" ] },
      { "delegate": "tz1V4qCyvPKZ5UeqdH14HN42rxvNPQfc9UZg",
        "reception_time": "2022-01-20T02:39:40.240-00:00",
        "included_in_blocks":
          [ "BKn6jL8qPLjFXo2qYDyxN6m2qnSTUNYwWtc9G9cYXvmJeLw6hG1" ] },
      { "delegate": "tz1fPKAtsYydh4f1wfWNfeNxWYu72TmM48fu",
        "reception_time": "2022-01-20T02:39:40.240-00:00",
        "included_in_blocks":
          [ "BKn6jL8qPLjFXo2qYDyxN6m2qnSTUNYwWtc9G9cYXvmJeLw6hG1" ] },
      { "delegate": "tz3QCNyySViKHmeSr45kzDxzchys7NiXCWoa",
        "reception_time": "2022-01-20T02:39:40.240-00:00",
        "included_in_blocks":
          [ "BKn6jL8qPLjFXo2qYDyxN6m2qnSTUNYwWtc9G9cYXvmJeLw6hG1" ] },
      { "delegate": "tz1gfArv665EUkSg2ojMBzcbfwuPxAvqPvjo",
        "reception_time": "2022-01-20T02:39:40.240-00:00",
        "included_in_blocks":
          [ "BKn6jL8qPLjFXo2qYDyxN6m2qnSTUNYwWtc9G9cYXvmJeLw6hG1" ] },
      { "delegate": "tz1TEc75UKXv4W5cwi14Na3NtqFD51yKQi7h",
        "reception_time": "2022-01-20T02:39:40.463-00:00",
        "included_in_blocks":
          [ "BKn6jL8qPLjFXo2qYDyxN6m2qnSTUNYwWtc9G9cYXvmJeLw6hG1" ] },
      { "delegate": "tz1axcnVN9tZnCe4sQQhC6f3tfSEXdjPaXPY",
        "reception_time": "2022-01-20T02:39:40.463-00:00",
        "included_in_blocks":
          [ "BKn6jL8qPLjFXo2qYDyxN6m2qnSTUNYwWtc9G9cYXvmJeLw6hG1" ] },
      { "delegate": "tz1g8vkmcde6sWKaG2NN9WKzCkDM6Rziq194",
        "reception_time": "2022-01-20T02:39:40.463-00:00",
        "included_in_blocks":
          [ "BKn6jL8qPLjFXo2qYDyxN6m2qnSTUNYwWtc9G9cYXvmJeLw6hG1" ] },
      { "delegate": "tz3bTdwZinP8U1JmSweNzVKhmwafqWmFWRfk",
        "reception_time": "2022-01-20T02:39:40.463-00:00",
        "included_in_blocks":
          [ "BKn6jL8qPLjFXo2qYDyxN6m2qnSTUNYwWtc9G9cYXvmJeLw6hG1" ] },
      { "delegate": "tz1S8MNvuFEUsWgjHvi3AxibRBf388NhT1q2",
        "reception_time": "2022-01-20T02:39:40.463-00:00",
        "included_in_blocks":
          [ "BKn6jL8qPLjFXo2qYDyxN6m2qnSTUNYwWtc9G9cYXvmJeLw6hG1" ] },
      { "delegate": "tz1LmaFsWRkjr7QMCx5PtV6xTUz3AmEpKQiF",
        "reception_time": "2022-01-20T02:39:40.463-00:00",
        "included_in_blocks":
          [ "BKn6jL8qPLjFXo2qYDyxN6m2qnSTUNYwWtc9G9cYXvmJeLw6hG1" ] },
      { "delegate": "tz2FCNBrERXtaTtNX6iimR1UJ5JSDxvdHM93",
        "reception_time": "2022-01-20T02:39:40.463-00:00",
        "included_in_blocks":
          [ "BKn6jL8qPLjFXo2qYDyxN6m2qnSTUNYwWtc9G9cYXvmJeLw6hG1" ] },
      { "delegate": "tz1WBfwbT66FC6BTLexc2BoyCCBM9LG7pnVW",
        "reception_time": "2022-01-20T02:39:40.463-00:00",
        "included_in_blocks":
          [ "BKn6jL8qPLjFXo2qYDyxN6m2qnSTUNYwWtc9G9cYXvmJeLw6hG1" ] },
      { "delegate": "tz1KfEsrtDaA1sX7vdM4qmEPWuSytuqCDp5j",
        "reception_time": "2022-01-20T02:39:40.463-00:00",
        "included_in_blocks":
          [ "BKn6jL8qPLjFXo2qYDyxN6m2qnSTUNYwWtc9G9cYXvmJeLw6hG1" ] },
      { "delegate": "tz1RCFbB9GpALpsZtu6J58sb74dm8qe6XBzv",
        "reception_time": "2022-01-20T02:39:40.463-00:00",
        "included_in_blocks":
          [ "BKn6jL8qPLjFXo2qYDyxN6m2qnSTUNYwWtc9G9cYXvmJeLw6hG1" ] },
      { "delegate": "tz1NSDFKuRyzHxpfG1AMkyCwEiZ52cbR2mRW",
        "reception_time": "2022-01-20T02:39:40.463-00:00",
        "included_in_blocks":
          [ "BKn6jL8qPLjFXo2qYDyxN6m2qnSTUNYwWtc9G9cYXvmJeLw6hG1" ] },
      { "delegate": "tz1aJS7Pk9uWR3wWyFf1i3RwhYxN84G7stom",
        "reception_time": "2022-01-20T02:39:40.463-00:00",
        "included_in_blocks":
          [ "BKn6jL8qPLjFXo2qYDyxN6m2qnSTUNYwWtc9G9cYXvmJeLw6hG1" ] },
      { "delegate": "tz1PeZx7FXy7QRuMREGXGxeipb24RsMMzUNe",
        "reception_time": "2022-01-20T02:39:40.679-00:00",
        "included_in_blocks":
          [ "BKn6jL8qPLjFXo2qYDyxN6m2qnSTUNYwWtc9G9cYXvmJeLw6hG1" ] },
      { "delegate": "tz1NdhRv643wLW6zCcRP3VfT24dvDnh7nuh9",
        "reception_time": "2022-01-20T02:39:40.679-00:00",
        "included_in_blocks":
          [ "BKn6jL8qPLjFXo2qYDyxN6m2qnSTUNYwWtc9G9cYXvmJeLw6hG1" ] },
      { "delegate": "tz1cYufsxHXJcvANhvS55h3aY32a9BAFB494",
        "reception_time": "2022-01-20T02:39:40.679-00:00",
        "included_in_blocks":
          [ "BKn6jL8qPLjFXo2qYDyxN6m2qnSTUNYwWtc9G9cYXvmJeLw6hG1" ] },
      { "delegate": "tz1abmz7jiCV2GH2u81LRrGgAFFgvQgiDiaf",
        "reception_time": "2022-01-20T02:39:40.679-00:00",
        "included_in_blocks":
          [ "BKn6jL8qPLjFXo2qYDyxN6m2qnSTUNYwWtc9G9cYXvmJeLw6hG1" ] },
      { "delegate": "tz3gLTu4Yxj8tPAcriQVUdxv6BY9QyvzU1az",
        "reception_time": "2022-01-20T02:39:40.679-00:00",
        "included_in_blocks":
          [ "BKn6jL8qPLjFXo2qYDyxN6m2qnSTUNYwWtc9G9cYXvmJeLw6hG1" ] },
      { "delegate": "tz3NDpRj6WBrJPikcPVHRBEjWKxFw3c6eQPS",
        "reception_time": "2022-01-20T02:39:40.679-00:00",
        "included_in_blocks":
          [ "BKn6jL8qPLjFXo2qYDyxN6m2qnSTUNYwWtc9G9cYXvmJeLw6hG1" ] },
      { "delegate": "tz1dRKU4FQ9QRRQPdaH4zCR6gmCmXfcvcgtB",
        "reception_time": "2022-01-20T02:39:40.679-00:00",
        "included_in_blocks":
          [ "BKn6jL8qPLjFXo2qYDyxN6m2qnSTUNYwWtc9G9cYXvmJeLw6hG1" ] },
      { "delegate": "tz3VEZ4k6a4Wx42iyev6i2aVAptTRLEAivNN",
        "reception_time": "2022-01-20T02:39:41.092-00:00",
        "included_in_blocks":
          [ "BKn6jL8qPLjFXo2qYDyxN6m2qnSTUNYwWtc9G9cYXvmJeLw6hG1" ] },
      { "delegate": "tz3RB4aoyjov4KEVRbuhvQ1CKJgBJMWhaeB8",
        "reception_time": "2022-01-20T02:39:41.092-00:00",
        "included_in_blocks":
          [ "BKn6jL8qPLjFXo2qYDyxN6m2qnSTUNYwWtc9G9cYXvmJeLw6hG1" ] },
      { "delegate": "tz3WMqdzXqRWXwyvj5Hp2H7QEepaUuS7vd9K",
        "reception_time": "2022-01-20T02:39:41.092-00:00",
        "included_in_blocks":
          [ "BKn6jL8qPLjFXo2qYDyxN6m2qnSTUNYwWtc9G9cYXvmJeLw6hG1" ] },
      { "delegate": "tz1WnfXMPaNTBmH7DBPwqCWs9cPDJdkGBTZ8",
        "reception_time": "2022-01-20T02:39:41.092-00:00",
        "included_in_blocks":
          [ "BKn6jL8qPLjFXo2qYDyxN6m2qnSTUNYwWtc9G9cYXvmJeLw6hG1" ] },
      { "delegate": "tz1b9MYGrbN1NAxphLEsPPNT9JC7aNFc5nA4",
        "reception_time": "2022-01-20T02:39:41.092-00:00",
        "included_in_blocks":
          [ "BKn6jL8qPLjFXo2qYDyxN6m2qnSTUNYwWtc9G9cYXvmJeLw6hG1" ] },
      { "delegate": "tz3RDC3Jdn4j15J7bBHZd29EUee9gVB1CxD9",
        "reception_time": "2022-01-20T02:39:41.218-00:00",
        "included_in_blocks":
          [ "BKn6jL8qPLjFXo2qYDyxN6m2qnSTUNYwWtc9G9cYXvmJeLw6hG1" ] },
      { "delegate": "tz3bvNMQ95vfAYtG8193ymshqjSvmxiCUuR5",
        "reception_time": "2022-01-20T02:39:41.252-00:00",
        "included_in_blocks":
          [ "BKn6jL8qPLjFXo2qYDyxN6m2qnSTUNYwWtc9G9cYXvmJeLw6hG1" ] },
      { "delegate": "tz3UoffC7FG7zfpmvmjUmUeAaHvzdcUvAj6r",
        "reception_time": "2022-01-20T02:39:41.801-00:00",
        "included_in_blocks":
          [ "BKn6jL8qPLjFXo2qYDyxN6m2qnSTUNYwWtc9G9cYXvmJeLw6hG1" ] },
      { "delegate": "tz3NExpXn9aPNZPorRE4SdjJ2RGrfbJgMAaV",
        "reception_time": "2022-01-20T02:39:41.911-00:00",
        "included_in_blocks":
          [ "BKn6jL8qPLjFXo2qYDyxN6m2qnSTUNYwWtc9G9cYXvmJeLw6hG1" ] },
      { "delegate": "tz1TcH4Nb3aHNDJ7CGZhU7jgAK1BkSP4Lxds",
        "reception_time": "2022-01-20T02:39:42.600-00:00",
        "included_in_blocks":
          [ "BKn6jL8qPLjFXo2qYDyxN6m2qnSTUNYwWtc9G9cYXvmJeLw6hG1" ] },
      { "delegate": "tz1aRoaRhSpRYvFdyvgWLL6TGyRoGF51wDjM",
        "reception_time": "2022-01-20T02:39:45.219-00:00",
        "included_in_blocks":
          [ "BKn6jL8qPLjFXo2qYDyxN6m2qnSTUNYwWtc9G9cYXvmJeLw6hG1" ] },
      { "delegate": "tz1NpWrAyDL9k2Lmnyxcgr9xuJakbBxdq7FB",
        "reception_time": "2022-01-20T02:39:47.447-00:00",
        "included_in_blocks":
          [ "BKn6jL8qPLjFXo2qYDyxN6m2qnSTUNYwWtc9G9cYXvmJeLw6hG1" ] },
      { "delegate": "tz1go7f6mEQfT2xX2LuHAqgnRGN6c2zHPf5c",
        "reception_time": "2022-01-20T02:39:52.966-00:00",
        "included_in_blocks":
          [ "BKn6jL8qPLjFXo2qYDyxN6m2qnSTUNYwWtc9G9cYXvmJeLw6hG1" ] } ] }