{ "blocks":
    [ { "hash": "BKz68M7y7uJ4iw7yHFHsrw6bYWSWsnEZGGdLqNCQsMtnSZmkRVx",
        "delegate": "tz1Nf6tsK4G6bBqgSQERy4nUtkHNKUVdh7q1",
        "reception_time": "2022-01-19T23:46:30.051-00:00",
        "timestamp": "2022-01-19T23:46:20Z" } ],
  "endorsements":
    [ { "delegate": "tz1P2Po7YM526ughEsRbY4oR9zaUPDZjxFrb",
        "reception_time": "2022-01-19T23:46:30.012-00:00",
        "errors":
          [ { "kind": "temporary",
              "id": "proto.011-PtHangz2.prefilter.outdated_endorsement" } ],
        "included_in_blocks":
          [ "BLcRXNekaTsWXdgkNdaY9jMjFnmpM6A9Aut4fMtQQCRPKruGG3Q" ] },
      { "delegate": "tz1TXzyaKUA8wsWefdSnyaYFnV2M3vCV7er9",
        "reception_time": "2022-01-19T23:46:30.011-00:00",
        "errors":
          [ { "kind": "temporary",
              "id": "proto.011-PtHangz2.prefilter.outdated_endorsement" } ],
        "included_in_blocks":
          [ "BLcRXNekaTsWXdgkNdaY9jMjFnmpM6A9Aut4fMtQQCRPKruGG3Q" ] },
      { "delegate": "tz1MXFrtZoaXckE41bjUCSjAjAap3AFDSr3N",
        "reception_time": "2022-01-19T23:46:29.979-00:00",
        "errors":
          [ { "kind": "temporary",
              "id": "proto.011-PtHangz2.prefilter.outdated_endorsement" } ],
        "included_in_blocks":
          [ "BLcRXNekaTsWXdgkNdaY9jMjFnmpM6A9Aut4fMtQQCRPKruGG3Q" ] },
      { "delegate": "tz1RV1MBbZMR68tacosb7Mwj6LkbPSUS1er1",
        "reception_time": "2022-01-19T23:46:29.739-00:00",
        "errors":
          [ { "kind": "temporary",
              "id": "proto.011-PtHangz2.prefilter.outdated_endorsement" } ],
        "included_in_blocks":
          [ "BLcRXNekaTsWXdgkNdaY9jMjFnmpM6A9Aut4fMtQQCRPKruGG3Q" ] },
      { "delegate": "tz1S8e9GgdZG78XJRB3NqabfWeM37GnhZMWQ",
        "reception_time": "2022-01-19T23:46:29.019-00:00",
        "errors":
          [ { "kind": "temporary",
              "id": "proto.011-PtHangz2.prefilter.outdated_endorsement" } ],
        "included_in_blocks":
          [ "BLcRXNekaTsWXdgkNdaY9jMjFnmpM6A9Aut4fMtQQCRPKruGG3Q" ] },
      { "delegate": "tz1RjoHc98dBoqaH2jawF62XNKh7YsHwbkEv" },
      { "delegate": "tz1awXW7wuXy21c66vBudMXQVAPgRnqqwgTH" },
      { "delegate": "tz1go7f6mEQfT2xX2LuHAqgnRGN6c2zHPf5c" },
      { "delegate": "tz1VmiY38m3y95HqQLjMwqnMS7sdMfGomzKi",
        "reception_time": "2022-01-19T23:46:32.226-00:00",
        "included_in_blocks":
          [ "BLcRXNekaTsWXdgkNdaY9jMjFnmpM6A9Aut4fMtQQCRPKruGG3Q" ] },
      { "delegate": "tz1Ldzz6k1BHdhuKvAtMRX7h5kJSMHESMHLC",
        "reception_time": "2022-01-19T23:46:32.596-00:00",
        "included_in_blocks":
          [ "BLcRXNekaTsWXdgkNdaY9jMjFnmpM6A9Aut4fMtQQCRPKruGG3Q" ] },
      { "delegate": "tz1irJKkXS2DBWkU1NnmFQx1c1L7pbGg4yhk",
        "reception_time": "2022-01-19T23:46:32.596-00:00",
        "included_in_blocks":
          [ "BLcRXNekaTsWXdgkNdaY9jMjFnmpM6A9Aut4fMtQQCRPKruGG3Q" ] },
      { "delegate": "tz1Kt4P8BCaP93AEV4eA7gmpRryWt5hznjCP",
        "reception_time": "2022-01-19T23:46:32.596-00:00",
        "included_in_blocks":
          [ "BLcRXNekaTsWXdgkNdaY9jMjFnmpM6A9Aut4fMtQQCRPKruGG3Q" ] },
      { "delegate": "tz1eEnQhbwf6trb8Q8mPb2RaPkNk2rN7BKi8",
        "reception_time": "2022-01-19T23:46:32.596-00:00",
        "included_in_blocks":
          [ "BLcRXNekaTsWXdgkNdaY9jMjFnmpM6A9Aut4fMtQQCRPKruGG3Q" ] },
      { "delegate": "tz1TzaNn7wSQSP5gYPXCnNzBCpyMiidCq1PX",
        "reception_time": "2022-01-19T23:46:32.596-00:00",
        "included_in_blocks":
          [ "BLcRXNekaTsWXdgkNdaY9jMjFnmpM6A9Aut4fMtQQCRPKruGG3Q" ] },
      { "delegate": "tz1beersuEDv8Z7ngQ825xfbaJNS2EhXnyHR",
        "reception_time": "2022-01-19T23:46:32.596-00:00",
        "included_in_blocks":
          [ "BLcRXNekaTsWXdgkNdaY9jMjFnmpM6A9Aut4fMtQQCRPKruGG3Q" ] },
      { "delegate": "tz1Nf6tsK4G6bBqgSQERy4nUtkHNKUVdh7q1",
        "reception_time": "2022-01-19T23:46:32.596-00:00",
        "included_in_blocks":
          [ "BLcRXNekaTsWXdgkNdaY9jMjFnmpM6A9Aut4fMtQQCRPKruGG3Q" ] },
      { "delegate": "tz1VQnqCCqX4K5sP3FNkVSNKTdCAMJDd3E1n",
        "reception_time": "2022-01-19T23:46:32.596-00:00",
        "included_in_blocks":
          [ "BLcRXNekaTsWXdgkNdaY9jMjFnmpM6A9Aut4fMtQQCRPKruGG3Q" ] },
      { "delegate": "tz3gtoUxdudfBRcNY7iVdKPHCYYX6xdPpoRS",
        "reception_time": "2022-01-19T23:46:32.596-00:00",
        "included_in_blocks":
          [ "BLcRXNekaTsWXdgkNdaY9jMjFnmpM6A9Aut4fMtQQCRPKruGG3Q" ] },
      { "delegate": "tz1bsdrs36X5BTH83RHUBdUouKLJZK8d2oBa",
        "reception_time": "2022-01-19T23:46:32.596-00:00",
        "included_in_blocks":
          [ "BLcRXNekaTsWXdgkNdaY9jMjFnmpM6A9Aut4fMtQQCRPKruGG3Q" ] },
      { "delegate": "tz3QSGPoRp3Kn7n3vY24eYeu3Peuqo45LQ4D",
        "reception_time": "2022-01-19T23:46:32.596-00:00",
        "included_in_blocks":
          [ "BLcRXNekaTsWXdgkNdaY9jMjFnmpM6A9Aut4fMtQQCRPKruGG3Q" ] },
      { "delegate": "tz3hw2kqXhLUvY65ca1eety2oQTpAvd34R9Q",
        "reception_time": "2022-01-19T23:46:32.596-00:00",
        "included_in_blocks":
          [ "BLcRXNekaTsWXdgkNdaY9jMjFnmpM6A9Aut4fMtQQCRPKruGG3Q" ] },
      { "delegate": "tz3iJu5vrKZcsqRPs8yJ61UDoeEXZmtro4qh",
        "reception_time": "2022-01-19T23:46:32.596-00:00",
        "included_in_blocks":
          [ "BLcRXNekaTsWXdgkNdaY9jMjFnmpM6A9Aut4fMtQQCRPKruGG3Q" ] },
      { "delegate": "tz1MJx9vhaNRSimcuXPK2rW4fLccQnDAnVKJ",
        "reception_time": "2022-01-19T23:46:32.596-00:00",
        "included_in_blocks":
          [ "BLcRXNekaTsWXdgkNdaY9jMjFnmpM6A9Aut4fMtQQCRPKruGG3Q" ] },
      { "delegate": "tz1fb7c66UwePkkfDXz4ajFaBP9hVNLdS7JJ",
        "reception_time": "2022-01-19T23:46:32.596-00:00",
        "included_in_blocks":
          [ "BLcRXNekaTsWXdgkNdaY9jMjFnmpM6A9Aut4fMtQQCRPKruGG3Q" ] },
      { "delegate": "tz3NxTnke1acr8o3h5y9ytf5awQBGNJUKzVU",
        "reception_time": "2022-01-19T23:46:32.596-00:00",
        "included_in_blocks":
          [ "BLcRXNekaTsWXdgkNdaY9jMjFnmpM6A9Aut4fMtQQCRPKruGG3Q" ] },
      { "delegate": "tz3ZbP2pM3nwvXztbuMJwJnDvV5xdpU8UkkD",
        "reception_time": "2022-01-19T23:46:32.596-00:00",
        "included_in_blocks":
          [ "BLcRXNekaTsWXdgkNdaY9jMjFnmpM6A9Aut4fMtQQCRPKruGG3Q" ] },
      { "delegate": "tz1gUNyn3hmnEWqkusWPzxRaon1cs7ndWh7h",
        "reception_time": "2022-01-19T23:46:32.596-00:00",
        "included_in_blocks":
          [ "BLcRXNekaTsWXdgkNdaY9jMjFnmpM6A9Aut4fMtQQCRPKruGG3Q" ] },
      { "delegate": "tz1cSoWttzYi9taqyHfcKS86b5M31SoaTQdg",
        "reception_time": "2022-01-19T23:46:32.596-00:00",
        "included_in_blocks":
          [ "BLcRXNekaTsWXdgkNdaY9jMjFnmpM6A9Aut4fMtQQCRPKruGG3Q" ] },
      { "delegate": "tz3RKYFsLuQzKBtmYuLNas7uMu3AsYd4QdsA",
        "reception_time": "2022-01-19T23:46:32.596-00:00",
        "included_in_blocks":
          [ "BLcRXNekaTsWXdgkNdaY9jMjFnmpM6A9Aut4fMtQQCRPKruGG3Q" ] },
      { "delegate": "tz1ajgycuHmd2z2JbTSJxKv7x6cok2KuNSk1",
        "reception_time": "2022-01-19T23:46:32.596-00:00",
        "included_in_blocks":
          [ "BLcRXNekaTsWXdgkNdaY9jMjFnmpM6A9Aut4fMtQQCRPKruGG3Q" ] },
      { "delegate": "tz1PWCDnz783NNGGQjEFFsHtrcK5yBW4E2rm",
        "reception_time": "2022-01-19T23:46:32.596-00:00",
        "included_in_blocks":
          [ "BLcRXNekaTsWXdgkNdaY9jMjFnmpM6A9Aut4fMtQQCRPKruGG3Q" ] },
      { "delegate": "tz1ei4WtWEMEJekSv8qDnu9PExG6Q8HgRGr3",
        "reception_time": "2022-01-19T23:46:32.596-00:00",
        "included_in_blocks":
          [ "BLcRXNekaTsWXdgkNdaY9jMjFnmpM6A9Aut4fMtQQCRPKruGG3Q" ] },
      { "delegate": "tz1MQMiZHV8q4tTwUMWmS5Y3kaP6J2136iXr",
        "reception_time": "2022-01-19T23:46:32.596-00:00",
        "included_in_blocks":
          [ "BLcRXNekaTsWXdgkNdaY9jMjFnmpM6A9Aut4fMtQQCRPKruGG3Q" ] },
      { "delegate": "tz3Zhs2dygr55yHyQyKjntAtY9bgfhLZ4Xj1",
        "reception_time": "2022-01-19T23:46:32.932-00:00",
        "included_in_blocks":
          [ "BLcRXNekaTsWXdgkNdaY9jMjFnmpM6A9Aut4fMtQQCRPKruGG3Q" ] },
      { "delegate": "tz3S6BBeKgJGXxvLyZ1xzXzMPn11nnFtq5L9",
        "reception_time": "2022-01-19T23:46:32.932-00:00",
        "included_in_blocks":
          [ "BLcRXNekaTsWXdgkNdaY9jMjFnmpM6A9Aut4fMtQQCRPKruGG3Q" ] },
      { "delegate": "tz1WCd2jm4uSt4vntk4vSuUWoZQGhLcDuR9q",
        "reception_time": "2022-01-19T23:46:32.932-00:00",
        "included_in_blocks":
          [ "BLcRXNekaTsWXdgkNdaY9jMjFnmpM6A9Aut4fMtQQCRPKruGG3Q" ] },
      { "delegate": "tz1SYq214SCBy9naR6cvycQsYcUGpBqQAE8d",
        "reception_time": "2022-01-19T23:46:32.932-00:00",
        "included_in_blocks":
          [ "BLcRXNekaTsWXdgkNdaY9jMjFnmpM6A9Aut4fMtQQCRPKruGG3Q" ] },
      { "delegate": "tz3QT9dHYKDqh563chVa6za8526ys1UKfRfL",
        "reception_time": "2022-01-19T23:46:32.932-00:00",
        "included_in_blocks":
          [ "BLcRXNekaTsWXdgkNdaY9jMjFnmpM6A9Aut4fMtQQCRPKruGG3Q" ] },
      { "delegate": "tz1KfEsrtDaA1sX7vdM4qmEPWuSytuqCDp5j",
        "reception_time": "2022-01-19T23:46:32.932-00:00",
        "included_in_blocks":
          [ "BLcRXNekaTsWXdgkNdaY9jMjFnmpM6A9Aut4fMtQQCRPKruGG3Q" ] },
      { "delegate": "tz1gfArv665EUkSg2ojMBzcbfwuPxAvqPvjo",
        "reception_time": "2022-01-19T23:46:32.932-00:00",
        "included_in_blocks":
          [ "BLcRXNekaTsWXdgkNdaY9jMjFnmpM6A9Aut4fMtQQCRPKruGG3Q" ] },
      { "delegate": "tz3RB4aoyjov4KEVRbuhvQ1CKJgBJMWhaeB8",
        "reception_time": "2022-01-19T23:46:32.932-00:00",
        "included_in_blocks":
          [ "BLcRXNekaTsWXdgkNdaY9jMjFnmpM6A9Aut4fMtQQCRPKruGG3Q" ] },
      { "delegate": "tz1WBfwbT66FC6BTLexc2BoyCCBM9LG7pnVW",
        "reception_time": "2022-01-19T23:46:32.932-00:00",
        "included_in_blocks":
          [ "BLcRXNekaTsWXdgkNdaY9jMjFnmpM6A9Aut4fMtQQCRPKruGG3Q" ] },
      { "delegate": "tz1S8MNvuFEUsWgjHvi3AxibRBf388NhT1q2",
        "reception_time": "2022-01-19T23:46:32.932-00:00",
        "included_in_blocks":
          [ "BLcRXNekaTsWXdgkNdaY9jMjFnmpM6A9Aut4fMtQQCRPKruGG3Q" ] },
      { "delegate": "tz2FCNBrERXtaTtNX6iimR1UJ5JSDxvdHM93",
        "reception_time": "2022-01-19T23:46:32.932-00:00",
        "included_in_blocks":
          [ "BLcRXNekaTsWXdgkNdaY9jMjFnmpM6A9Aut4fMtQQCRPKruGG3Q" ] },
      { "delegate": "tz1RQhNh7iB9CZA7i3ifTWNwiGYVffponfbB",
        "reception_time": "2022-01-19T23:46:32.932-00:00",
        "included_in_blocks":
          [ "BLcRXNekaTsWXdgkNdaY9jMjFnmpM6A9Aut4fMtQQCRPKruGG3Q" ] },
      { "delegate": "tz1NEKxGEHsFufk87CVZcrqWu8o22qh46GK6",
        "reception_time": "2022-01-19T23:46:32.932-00:00",
        "included_in_blocks":
          [ "BLcRXNekaTsWXdgkNdaY9jMjFnmpM6A9Aut4fMtQQCRPKruGG3Q" ] },
      { "delegate": "tz1iPHM2Xx2hwmzcr1EG1zzrV6oKafVoA91m",
        "reception_time": "2022-01-19T23:46:32.932-00:00",
        "included_in_blocks":
          [ "BLcRXNekaTsWXdgkNdaY9jMjFnmpM6A9Aut4fMtQQCRPKruGG3Q" ] },
      { "delegate": "tz1Tnjaxk6tbAeC2TmMApPh8UsrEVQvhHvx5",
        "reception_time": "2022-01-19T23:46:32.932-00:00",
        "included_in_blocks":
          [ "BLcRXNekaTsWXdgkNdaY9jMjFnmpM6A9Aut4fMtQQCRPKruGG3Q" ] },
      { "delegate": "tz3bTdwZinP8U1JmSweNzVKhmwafqWmFWRfk",
        "reception_time": "2022-01-19T23:46:32.932-00:00",
        "included_in_blocks":
          [ "BLcRXNekaTsWXdgkNdaY9jMjFnmpM6A9Aut4fMtQQCRPKruGG3Q" ] },
      { "delegate": "tz3bvNMQ95vfAYtG8193ymshqjSvmxiCUuR5",
        "reception_time": "2022-01-19T23:46:32.932-00:00",
        "included_in_blocks":
          [ "BLcRXNekaTsWXdgkNdaY9jMjFnmpM6A9Aut4fMtQQCRPKruGG3Q" ] },
      { "delegate": "tz1a1J3AGjJTAyBqWWSqFuUazUDV2TtD6hMy",
        "reception_time": "2022-01-19T23:46:32.932-00:00",
        "included_in_blocks":
          [ "BLcRXNekaTsWXdgkNdaY9jMjFnmpM6A9Aut4fMtQQCRPKruGG3Q" ] },
      { "delegate": "tz1dRKU4FQ9QRRQPdaH4zCR6gmCmXfcvcgtB",
        "reception_time": "2022-01-19T23:46:32.932-00:00",
        "included_in_blocks":
          [ "BLcRXNekaTsWXdgkNdaY9jMjFnmpM6A9Aut4fMtQQCRPKruGG3Q" ] },
      { "delegate": "tz1TRqbYbUf2GyrjErf3hBzgBJPzW8y36qEs",
        "reception_time": "2022-01-19T23:46:32.973-00:00",
        "included_in_blocks":
          [ "BLcRXNekaTsWXdgkNdaY9jMjFnmpM6A9Aut4fMtQQCRPKruGG3Q" ] },
      { "delegate": "tz1cYufsxHXJcvANhvS55h3aY32a9BAFB494",
        "reception_time": "2022-01-19T23:46:33.129-00:00",
        "included_in_blocks":
          [ "BLcRXNekaTsWXdgkNdaY9jMjFnmpM6A9Aut4fMtQQCRPKruGG3Q" ] },
      { "delegate": "tz1abmz7jiCV2GH2u81LRrGgAFFgvQgiDiaf",
        "reception_time": "2022-01-19T23:46:33.297-00:00",
        "included_in_blocks":
          [ "BLcRXNekaTsWXdgkNdaY9jMjFnmpM6A9Aut4fMtQQCRPKruGG3Q" ] },
      { "delegate": "tz3gLTu4Yxj8tPAcriQVUdxv6BY9QyvzU1az",
        "reception_time": "2022-01-19T23:46:33.297-00:00",
        "included_in_blocks":
          [ "BLcRXNekaTsWXdgkNdaY9jMjFnmpM6A9Aut4fMtQQCRPKruGG3Q" ] },
      { "delegate": "tz3NDpRj6WBrJPikcPVHRBEjWKxFw3c6eQPS",
        "reception_time": "2022-01-19T23:46:33.297-00:00",
        "included_in_blocks":
          [ "BLcRXNekaTsWXdgkNdaY9jMjFnmpM6A9Aut4fMtQQCRPKruGG3Q" ] },
      { "delegate": "tz1h4GUAMweP7SNWzDgvMk3yRCAZyaP1MxZq",
        "reception_time": "2022-01-19T23:46:33.465-00:00",
        "included_in_blocks":
          [ "BLcRXNekaTsWXdgkNdaY9jMjFnmpM6A9Aut4fMtQQCRPKruGG3Q" ] },
      { "delegate": "tz1NoYvKjXTzTk54VpLxBfouJ33J8jwKPPvw",
        "reception_time": "2022-01-19T23:46:33.465-00:00",
        "included_in_blocks":
          [ "BLcRXNekaTsWXdgkNdaY9jMjFnmpM6A9Aut4fMtQQCRPKruGG3Q" ] },
      { "delegate": "tz3VEZ4k6a4Wx42iyev6i2aVAptTRLEAivNN",
        "reception_time": "2022-01-19T23:46:33.465-00:00",
        "included_in_blocks":
          [ "BLcRXNekaTsWXdgkNdaY9jMjFnmpM6A9Aut4fMtQQCRPKruGG3Q" ] },
      { "delegate": "tz1ZcTRk5uxD86EFEn1vvNffWWqJy7q5eVhc",
        "reception_time": "2022-01-19T23:46:33.752-00:00",
        "included_in_blocks":
          [ "BLcRXNekaTsWXdgkNdaY9jMjFnmpM6A9Aut4fMtQQCRPKruGG3Q" ] },
      { "delegate": "tz3RDC3Jdn4j15J7bBHZd29EUee9gVB1CxD9",
        "reception_time": "2022-01-19T23:46:33.752-00:00",
        "included_in_blocks":
          [ "BLcRXNekaTsWXdgkNdaY9jMjFnmpM6A9Aut4fMtQQCRPKruGG3Q" ] },
      { "delegate": "tz3WMqdzXqRWXwyvj5Hp2H7QEepaUuS7vd9K",
        "reception_time": "2022-01-19T23:46:33.752-00:00",
        "included_in_blocks":
          [ "BLcRXNekaTsWXdgkNdaY9jMjFnmpM6A9Aut4fMtQQCRPKruGG3Q" ] },
      { "delegate": "tz3NExpXn9aPNZPorRE4SdjJ2RGrfbJgMAaV",
        "reception_time": "2022-01-19T23:46:34.115-00:00",
        "included_in_blocks":
          [ "BLcRXNekaTsWXdgkNdaY9jMjFnmpM6A9Aut4fMtQQCRPKruGG3Q" ] },
      { "delegate": "tz3UoffC7FG7zfpmvmjUmUeAaHvzdcUvAj6r",
        "reception_time": "2022-01-19T23:46:34.545-00:00",
        "included_in_blocks":
          [ "BLcRXNekaTsWXdgkNdaY9jMjFnmpM6A9Aut4fMtQQCRPKruGG3Q" ] },
      { "delegate": "tz1UNkf4sWzC5vsKP7FnejSeJsXdc6z8Kzk4",
        "reception_time": "2022-01-19T23:46:34.965-00:00",
        "included_in_blocks":
          [ "BLcRXNekaTsWXdgkNdaY9jMjFnmpM6A9Aut4fMtQQCRPKruGG3Q" ] },
      { "delegate": "tz1TcH4Nb3aHNDJ7CGZhU7jgAK1BkSP4Lxds",
        "reception_time": "2022-01-19T23:46:35.577-00:00",
        "included_in_blocks":
          [ "BLcRXNekaTsWXdgkNdaY9jMjFnmpM6A9Aut4fMtQQCRPKruGG3Q" ] },
      { "delegate": "tz1NMNQYrYrfNpmUqQrMhJypf6ovnaDZhJHM",
        "reception_time": "2022-01-19T23:46:35.592-00:00",
        "included_in_blocks":
          [ "BLcRXNekaTsWXdgkNdaY9jMjFnmpM6A9Aut4fMtQQCRPKruGG3Q" ] },
      { "delegate": "tz1aRoaRhSpRYvFdyvgWLL6TGyRoGF51wDjM",
        "reception_time": "2022-01-19T23:46:35.855-00:00",
        "included_in_blocks":
          [ "BLcRXNekaTsWXdgkNdaY9jMjFnmpM6A9Aut4fMtQQCRPKruGG3Q" ] },
      { "delegate": "tz1g8vkmcde6sWKaG2NN9WKzCkDM6Rziq194",
        "reception_time": "2022-01-19T23:46:36.989-00:00",
        "included_in_blocks":
          [ "BLcRXNekaTsWXdgkNdaY9jMjFnmpM6A9Aut4fMtQQCRPKruGG3Q" ] },
      { "delegate": "tz2BzJTyoQp8fNbfhWD4YQgH9JJHDgSGzpdG",
        "reception_time": "2022-01-19T23:46:42.353-00:00",
        "included_in_blocks":
          [ "BLcRXNekaTsWXdgkNdaY9jMjFnmpM6A9Aut4fMtQQCRPKruGG3Q" ] } ] }