{ "blocks":
    [ { "hash": "BL8QShCvTvKN3kGmEPn8AFgZoHPNBu5L8yGgXkWr3VnamGm6DGt",
        "delegate": "tz1VQnqCCqX4K5sP3FNkVSNKTdCAMJDd3E1n",
        "reception_time": "2022-01-20T00:16:57.565-00:00",
        "timestamp": "2022-01-20T00:16:50Z" } ],
  "endorsements":
    [ { "delegate": "tz1dbfppLAAxXZNtf2SDps7rch3qfUznKSoK" },
      { "delegate": "tz1awXW7wuXy21c66vBudMXQVAPgRnqqwgTH" },
      { "delegate": "tz1RjoHc98dBoqaH2jawF62XNKh7YsHwbkEv" },
      { "delegate": "tz1Ldzz6k1BHdhuKvAtMRX7h5kJSMHESMHLC",
        "reception_time": "2022-01-20T00:16:57.460-00:00",
        "errors":
          [ { "kind": "temporary",
              "id": "proto.011-PtHangz2.prefilter.outdated_endorsement" } ],
        "included_in_blocks":
          [ "BKzBb5WH2XxnvDMebwajEJ4xupY3VtUZdCNnRfCyy2GaSfPUgNr" ] },
      { "delegate": "tz1Kt4P8BCaP93AEV4eA7gmpRryWt5hznjCP",
        "reception_time": "2022-01-20T00:16:57.459-00:00",
        "errors":
          [ { "kind": "temporary",
              "id": "proto.011-PtHangz2.prefilter.outdated_endorsement" } ],
        "included_in_blocks":
          [ "BKzBb5WH2XxnvDMebwajEJ4xupY3VtUZdCNnRfCyy2GaSfPUgNr" ] },
      { "delegate": "tz1P2Po7YM526ughEsRbY4oR9zaUPDZjxFrb",
        "reception_time": "2022-01-20T00:16:57.371-00:00",
        "errors":
          [ { "kind": "temporary",
              "id": "proto.011-PtHangz2.prefilter.outdated_endorsement" } ],
        "included_in_blocks":
          [ "BKzBb5WH2XxnvDMebwajEJ4xupY3VtUZdCNnRfCyy2GaSfPUgNr" ] },
      { "delegate": "tz1XfAjZyaLdceHnZxbMYop7g7kWKPut4PR7",
        "reception_time": "2022-01-20T00:16:57.246-00:00",
        "errors":
          [ { "kind": "temporary",
              "id": "proto.011-PtHangz2.prefilter.outdated_endorsement" } ],
        "included_in_blocks":
          [ "BKzBb5WH2XxnvDMebwajEJ4xupY3VtUZdCNnRfCyy2GaSfPUgNr" ] },
      { "delegate": "tz1aKxnrzx5PXZJe7unufEswVRCMU9yafmfb",
        "reception_time": "2022-01-20T00:16:56.780-00:00",
        "errors":
          [ { "kind": "temporary",
              "id": "proto.011-PtHangz2.prefilter.outdated_endorsement" } ],
        "included_in_blocks":
          [ "BKzBb5WH2XxnvDMebwajEJ4xupY3VtUZdCNnRfCyy2GaSfPUgNr" ] },
      { "delegate": "tz1gUNyn3hmnEWqkusWPzxRaon1cs7ndWh7h",
        "reception_time": "2022-01-20T00:16:56.502-00:00",
        "errors":
          [ { "kind": "temporary",
              "id": "proto.011-PtHangz2.prefilter.outdated_endorsement" } ],
        "included_in_blocks":
          [ "BKzBb5WH2XxnvDMebwajEJ4xupY3VtUZdCNnRfCyy2GaSfPUgNr" ] },
      { "delegate": "tz1VQnqCCqX4K5sP3FNkVSNKTdCAMJDd3E1n",
        "reception_time": "2022-01-20T00:16:56.461-00:00",
        "errors":
          [ { "kind": "temporary",
              "id": "proto.011-PtHangz2.prefilter.outdated_endorsement" } ],
        "included_in_blocks":
          [ "BKzBb5WH2XxnvDMebwajEJ4xupY3VtUZdCNnRfCyy2GaSfPUgNr" ] },
      { "delegate": "tz1NpWrAyDL9k2Lmnyxcgr9xuJakbBxdq7FB",
        "reception_time": "2022-01-20T00:17:18.683-00:00",
        "included_in_blocks":
          [ "BKzBb5WH2XxnvDMebwajEJ4xupY3VtUZdCNnRfCyy2GaSfPUgNr" ] },
      { "delegate": "tz1N6LjoaXdGNRsSxYseRCu5RNf1LfuAHBE9",
        "reception_time": "2022-01-20T00:17:18.100-00:00",
        "included_in_blocks":
          [ "BKzBb5WH2XxnvDMebwajEJ4xupY3VtUZdCNnRfCyy2GaSfPUgNr" ] },
      { "delegate": "tz1aRoaRhSpRYvFdyvgWLL6TGyRoGF51wDjM",
        "reception_time": "2022-01-20T00:17:03.845-00:00",
        "included_in_blocks":
          [ "BKzBb5WH2XxnvDMebwajEJ4xupY3VtUZdCNnRfCyy2GaSfPUgNr" ] },
      { "delegate": "tz1PMWrbSda1RvsRi8Xq7GRd3P7739jtyaM8",
        "reception_time": "2022-01-20T00:17:02.987-00:00",
        "included_in_blocks":
          [ "BKzBb5WH2XxnvDMebwajEJ4xupY3VtUZdCNnRfCyy2GaSfPUgNr" ] },
      { "delegate": "tz1Zcxkfa5jKrRbBThG765GP29bUCU3C4ok5",
        "reception_time": "2022-01-20T00:17:02.668-00:00",
        "included_in_blocks":
          [ "BKzBb5WH2XxnvDMebwajEJ4xupY3VtUZdCNnRfCyy2GaSfPUgNr" ] },
      { "delegate": "tz1UbFpJY5Hext38GisuaXQBkbzhaKJkxpEs",
        "reception_time": "2022-01-20T00:17:02.364-00:00",
        "included_in_blocks":
          [ "BKzBb5WH2XxnvDMebwajEJ4xupY3VtUZdCNnRfCyy2GaSfPUgNr" ] },
      { "delegate": "tz1Xsrfv6hn86fp88YfRs6xcKwt2nTqxVZYM",
        "reception_time": "2022-01-20T00:17:01.822-00:00",
        "included_in_blocks":
          [ "BKzBb5WH2XxnvDMebwajEJ4xupY3VtUZdCNnRfCyy2GaSfPUgNr" ] },
      { "delegate": "tz3bvNMQ95vfAYtG8193ymshqjSvmxiCUuR5",
        "reception_time": "2022-01-20T00:17:01.406-00:00",
        "included_in_blocks":
          [ "BKzBb5WH2XxnvDMebwajEJ4xupY3VtUZdCNnRfCyy2GaSfPUgNr" ] },
      { "delegate": "tz3NExpXn9aPNZPorRE4SdjJ2RGrfbJgMAaV",
        "reception_time": "2022-01-20T00:17:02.148-00:00",
        "included_in_blocks":
          [ "BKzBb5WH2XxnvDMebwajEJ4xupY3VtUZdCNnRfCyy2GaSfPUgNr" ] },
      { "delegate": "tz3RDC3Jdn4j15J7bBHZd29EUee9gVB1CxD9",
        "reception_time": "2022-01-20T00:17:01.415-00:00",
        "included_in_blocks":
          [ "BKzBb5WH2XxnvDMebwajEJ4xupY3VtUZdCNnRfCyy2GaSfPUgNr" ] },
      { "delegate": "tz3UoffC7FG7zfpmvmjUmUeAaHvzdcUvAj6r",
        "reception_time": "2022-01-20T00:17:01.732-00:00",
        "included_in_blocks":
          [ "BKzBb5WH2XxnvDMebwajEJ4xupY3VtUZdCNnRfCyy2GaSfPUgNr" ] },
      { "delegate": "tz3WMqdzXqRWXwyvj5Hp2H7QEepaUuS7vd9K",
        "reception_time": "2022-01-20T00:17:01.325-00:00",
        "included_in_blocks":
          [ "BKzBb5WH2XxnvDMebwajEJ4xupY3VtUZdCNnRfCyy2GaSfPUgNr" ] },
      { "delegate": "tz3NDpRj6WBrJPikcPVHRBEjWKxFw3c6eQPS",
        "reception_time": "2022-01-20T00:17:00.687-00:00",
        "included_in_blocks":
          [ "BKzBb5WH2XxnvDMebwajEJ4xupY3VtUZdCNnRfCyy2GaSfPUgNr" ] },
      { "delegate": "tz3VEZ4k6a4Wx42iyev6i2aVAptTRLEAivNN",
        "reception_time": "2022-01-20T00:17:01.301-00:00",
        "included_in_blocks":
          [ "BKzBb5WH2XxnvDMebwajEJ4xupY3VtUZdCNnRfCyy2GaSfPUgNr" ] },
      { "delegate": "tz3gLTu4Yxj8tPAcriQVUdxv6BY9QyvzU1az",
        "reception_time": "2022-01-20T00:17:00.702-00:00",
        "included_in_blocks":
          [ "BKzBb5WH2XxnvDMebwajEJ4xupY3VtUZdCNnRfCyy2GaSfPUgNr" ] },
      { "delegate": "tz1T7duV5gZWSTq4YpBGbXNLTfznCLDrFxvs",
        "reception_time": "2022-01-20T00:17:00.528-00:00",
        "included_in_blocks":
          [ "BKzBb5WH2XxnvDMebwajEJ4xupY3VtUZdCNnRfCyy2GaSfPUgNr" ] },
      { "delegate": "tz1NortRftucvAkD1J58L32EhSVrQEWJCEnB",
        "reception_time": "2022-01-20T00:17:00.483-00:00",
        "included_in_blocks":
          [ "BKzBb5WH2XxnvDMebwajEJ4xupY3VtUZdCNnRfCyy2GaSfPUgNr" ] },
      { "delegate": "tz1PeZx7FXy7QRuMREGXGxeipb24RsMMzUNe",
        "reception_time": "2022-01-20T00:17:00.476-00:00",
        "included_in_blocks":
          [ "BKzBb5WH2XxnvDMebwajEJ4xupY3VtUZdCNnRfCyy2GaSfPUgNr" ] },
      { "delegate": "tz3RB4aoyjov4KEVRbuhvQ1CKJgBJMWhaeB8",
        "reception_time": "2022-01-20T00:17:00.493-00:00",
        "included_in_blocks":
          [ "BKzBb5WH2XxnvDMebwajEJ4xupY3VtUZdCNnRfCyy2GaSfPUgNr" ] },
      { "delegate": "tz1VceyYUpq1gk5dtp6jXQRtCtY8hm5DKt72",
        "reception_time": "2022-01-20T00:16:59.915-00:00",
        "included_in_blocks":
          [ "BKzBb5WH2XxnvDMebwajEJ4xupY3VtUZdCNnRfCyy2GaSfPUgNr" ] },
      { "delegate": "tz1dRKU4FQ9QRRQPdaH4zCR6gmCmXfcvcgtB",
        "reception_time": "2022-01-20T00:17:00.494-00:00",
        "included_in_blocks":
          [ "BKzBb5WH2XxnvDMebwajEJ4xupY3VtUZdCNnRfCyy2GaSfPUgNr" ] },
      { "delegate": "tz2FCNBrERXtaTtNX6iimR1UJ5JSDxvdHM93",
        "reception_time": "2022-01-20T00:17:00.454-00:00",
        "included_in_blocks":
          [ "BKzBb5WH2XxnvDMebwajEJ4xupY3VtUZdCNnRfCyy2GaSfPUgNr" ] },
      { "delegate": "tz3bTdwZinP8U1JmSweNzVKhmwafqWmFWRfk",
        "reception_time": "2022-01-20T00:17:00.001-00:00",
        "included_in_blocks":
          [ "BKzBb5WH2XxnvDMebwajEJ4xupY3VtUZdCNnRfCyy2GaSfPUgNr" ] },
      { "delegate": "tz1NSDFKuRyzHxpfG1AMkyCwEiZ52cbR2mRW",
        "reception_time": "2022-01-20T00:17:00.486-00:00",
        "included_in_blocks":
          [ "BKzBb5WH2XxnvDMebwajEJ4xupY3VtUZdCNnRfCyy2GaSfPUgNr" ] },
      { "delegate": "tz1ij5pB6JRSk3TNbMuX8JBa3vUAnWMWnnr8",
        "reception_time": "2022-01-20T00:16:59.933-00:00",
        "included_in_blocks":
          [ "BKzBb5WH2XxnvDMebwajEJ4xupY3VtUZdCNnRfCyy2GaSfPUgNr" ] },
      { "delegate": "tz1TRqbYbUf2GyrjErf3hBzgBJPzW8y36qEs",
        "reception_time": "2022-01-20T00:17:00.478-00:00",
        "included_in_blocks":
          [ "BKzBb5WH2XxnvDMebwajEJ4xupY3VtUZdCNnRfCyy2GaSfPUgNr" ] },
      { "delegate": "tz1WBfwbT66FC6BTLexc2BoyCCBM9LG7pnVW",
        "reception_time": "2022-01-20T00:16:59.936-00:00",
        "included_in_blocks":
          [ "BKzBb5WH2XxnvDMebwajEJ4xupY3VtUZdCNnRfCyy2GaSfPUgNr" ] },
      { "delegate": "tz1fUyqYH7H4pRHN1roWY17giXhy1RvxjgUV",
        "reception_time": "2022-01-20T00:16:59.945-00:00",
        "included_in_blocks":
          [ "BKzBb5WH2XxnvDMebwajEJ4xupY3VtUZdCNnRfCyy2GaSfPUgNr" ] },
      { "delegate": "tz1UJvHTgpVzcKWhTazGxVcn5wsHru5Gietg",
        "reception_time": "2022-01-20T00:16:59.911-00:00",
        "included_in_blocks":
          [ "BKzBb5WH2XxnvDMebwajEJ4xupY3VtUZdCNnRfCyy2GaSfPUgNr" ] },
      { "delegate": "tz1RCFbB9GpALpsZtu6J58sb74dm8qe6XBzv",
        "reception_time": "2022-01-20T00:16:59.900-00:00",
        "included_in_blocks":
          [ "BKzBb5WH2XxnvDMebwajEJ4xupY3VtUZdCNnRfCyy2GaSfPUgNr" ] },
      { "delegate": "tz3S6BBeKgJGXxvLyZ1xzXzMPn11nnFtq5L9",
        "reception_time": "2022-01-20T00:16:59.346-00:00",
        "included_in_blocks":
          [ "BKzBb5WH2XxnvDMebwajEJ4xupY3VtUZdCNnRfCyy2GaSfPUgNr" ] },
      { "delegate": "tz3QCNyySViKHmeSr45kzDxzchys7NiXCWoa",
        "reception_time": "2022-01-20T00:16:59.331-00:00",
        "included_in_blocks":
          [ "BKzBb5WH2XxnvDMebwajEJ4xupY3VtUZdCNnRfCyy2GaSfPUgNr" ] },
      { "delegate": "tz3QT9dHYKDqh563chVa6za8526ys1UKfRfL",
        "reception_time": "2022-01-20T00:16:59.339-00:00",
        "included_in_blocks":
          [ "BKzBb5WH2XxnvDMebwajEJ4xupY3VtUZdCNnRfCyy2GaSfPUgNr" ] },
      { "delegate": "tz1W3VYi3gSt9Xgfw6WNV1aGZRPH2BsskMEY",
        "reception_time": "2022-01-20T00:16:59.347-00:00",
        "included_in_blocks":
          [ "BKzBb5WH2XxnvDMebwajEJ4xupY3VtUZdCNnRfCyy2GaSfPUgNr" ] },
      { "delegate": "tz1NEKxGEHsFufk87CVZcrqWu8o22qh46GK6",
        "reception_time": "2022-01-20T00:16:59.913-00:00",
        "included_in_blocks":
          [ "BKzBb5WH2XxnvDMebwajEJ4xupY3VtUZdCNnRfCyy2GaSfPUgNr" ] },
      { "delegate": "tz1ei4WtWEMEJekSv8qDnu9PExG6Q8HgRGr3",
        "reception_time": "2022-01-20T00:16:59.383-00:00",
        "included_in_blocks":
          [ "BKzBb5WH2XxnvDMebwajEJ4xupY3VtUZdCNnRfCyy2GaSfPUgNr" ] },
      { "delegate": "tz1Nf6tsK4G6bBqgSQERy4nUtkHNKUVdh7q1",
        "reception_time": "2022-01-20T00:16:59.300-00:00",
        "included_in_blocks":
          [ "BKzBb5WH2XxnvDMebwajEJ4xupY3VtUZdCNnRfCyy2GaSfPUgNr" ] },
      { "delegate": "tz3iJu5vrKZcsqRPs8yJ61UDoeEXZmtro4qh",
        "reception_time": "2022-01-20T00:16:59.307-00:00",
        "included_in_blocks":
          [ "BKzBb5WH2XxnvDMebwajEJ4xupY3VtUZdCNnRfCyy2GaSfPUgNr" ] },
      { "delegate": "tz3Zhs2dygr55yHyQyKjntAtY9bgfhLZ4Xj1",
        "reception_time": "2022-01-20T00:16:59.316-00:00",
        "included_in_blocks":
          [ "BKzBb5WH2XxnvDMebwajEJ4xupY3VtUZdCNnRfCyy2GaSfPUgNr" ] },
      { "delegate": "tz1gcna2xxZj2eNp1LaMyAhVJ49mEFj4FH26",
        "reception_time": "2022-01-20T00:16:59.257-00:00",
        "included_in_blocks":
          [ "BKzBb5WH2XxnvDMebwajEJ4xupY3VtUZdCNnRfCyy2GaSfPUgNr" ] },
      { "delegate": "tz1gfArv665EUkSg2ojMBzcbfwuPxAvqPvjo",
        "reception_time": "2022-01-20T00:16:59.332-00:00",
        "included_in_blocks":
          [ "BKzBb5WH2XxnvDMebwajEJ4xupY3VtUZdCNnRfCyy2GaSfPUgNr" ] },
      { "delegate": "tz3NxTnke1acr8o3h5y9ytf5awQBGNJUKzVU",
        "reception_time": "2022-01-20T00:16:59.264-00:00",
        "included_in_blocks":
          [ "BKzBb5WH2XxnvDMebwajEJ4xupY3VtUZdCNnRfCyy2GaSfPUgNr" ] },
      { "delegate": "tz3gtoUxdudfBRcNY7iVdKPHCYYX6xdPpoRS",
        "reception_time": "2022-01-20T00:16:59.270-00:00",
        "included_in_blocks":
          [ "BKzBb5WH2XxnvDMebwajEJ4xupY3VtUZdCNnRfCyy2GaSfPUgNr" ] },
      { "delegate": "tz1KfEsrtDaA1sX7vdM4qmEPWuSytuqCDp5j",
        "reception_time": "2022-01-20T00:16:59.351-00:00",
        "included_in_blocks":
          [ "BKzBb5WH2XxnvDMebwajEJ4xupY3VtUZdCNnRfCyy2GaSfPUgNr" ] },
      { "delegate": "tz1d6Fx42mYgVFnHUW8T8A7WBfJ6nD9pVok8",
        "reception_time": "2022-01-20T00:16:59.296-00:00",
        "included_in_blocks":
          [ "BKzBb5WH2XxnvDMebwajEJ4xupY3VtUZdCNnRfCyy2GaSfPUgNr" ] },
      { "delegate": "tz1MQJPGNMijnXnVoBENFz9rUhaPt3S7rWoz",
        "reception_time": "2022-01-20T00:16:59.390-00:00",
        "included_in_blocks":
          [ "BKzBb5WH2XxnvDMebwajEJ4xupY3VtUZdCNnRfCyy2GaSfPUgNr" ] },
      { "delegate": "tz3RKYFsLuQzKBtmYuLNas7uMu3AsYd4QdsA",
        "reception_time": "2022-01-20T00:16:59.283-00:00",
        "included_in_blocks":
          [ "BKzBb5WH2XxnvDMebwajEJ4xupY3VtUZdCNnRfCyy2GaSfPUgNr" ] },
      { "delegate": "tz3ZbP2pM3nwvXztbuMJwJnDvV5xdpU8UkkD",
        "reception_time": "2022-01-20T00:16:59.283-00:00",
        "included_in_blocks":
          [ "BKzBb5WH2XxnvDMebwajEJ4xupY3VtUZdCNnRfCyy2GaSfPUgNr" ] },
      { "delegate": "tz3QSGPoRp3Kn7n3vY24eYeu3Peuqo45LQ4D",
        "reception_time": "2022-01-20T00:16:59.252-00:00",
        "included_in_blocks":
          [ "BKzBb5WH2XxnvDMebwajEJ4xupY3VtUZdCNnRfCyy2GaSfPUgNr" ] },
      { "delegate": "tz3hw2kqXhLUvY65ca1eety2oQTpAvd34R9Q",
        "reception_time": "2022-01-20T00:16:59.289-00:00",
        "included_in_blocks":
          [ "BKzBb5WH2XxnvDMebwajEJ4xupY3VtUZdCNnRfCyy2GaSfPUgNr" ] },
      { "delegate": "tz1TRspM5SeZpaQUhzByXbEvqKF1vnCM2YTK",
        "reception_time": "2022-01-20T00:16:59.298-00:00",
        "included_in_blocks":
          [ "BKzBb5WH2XxnvDMebwajEJ4xupY3VtUZdCNnRfCyy2GaSfPUgNr" ] },
      { "delegate": "tz1Kf25fX1VdmYGSEzwFy1wNmkbSEZ2V83sY",
        "reception_time": "2022-01-20T00:16:59.244-00:00",
        "included_in_blocks":
          [ "BKzBb5WH2XxnvDMebwajEJ4xupY3VtUZdCNnRfCyy2GaSfPUgNr" ] },
      { "delegate": "tz1PWCDnz783NNGGQjEFFsHtrcK5yBW4E2rm",
        "reception_time": "2022-01-20T00:16:59.296-00:00",
        "included_in_blocks":
          [ "BKzBb5WH2XxnvDMebwajEJ4xupY3VtUZdCNnRfCyy2GaSfPUgNr" ] },
      { "delegate": "tz1SYq214SCBy9naR6cvycQsYcUGpBqQAE8d",
        "reception_time": "2022-01-20T00:16:59.488-00:00",
        "included_in_blocks":
          [ "BKzBb5WH2XxnvDMebwajEJ4xupY3VtUZdCNnRfCyy2GaSfPUgNr" ] },
      { "delegate": "tz1ZPh7XfUaJXUDvkrBxmS1BjEM1i62hiPpM",
        "reception_time": "2022-01-20T00:16:59.227-00:00",
        "included_in_blocks":
          [ "BKzBb5WH2XxnvDMebwajEJ4xupY3VtUZdCNnRfCyy2GaSfPUgNr" ] },
      { "delegate": "tz1S8MNvuFEUsWgjHvi3AxibRBf388NhT1q2",
        "reception_time": "2022-01-20T00:16:59.935-00:00",
        "included_in_blocks":
          [ "BKzBb5WH2XxnvDMebwajEJ4xupY3VtUZdCNnRfCyy2GaSfPUgNr" ] },
      { "delegate": "tz1eEnQhbwf6trb8Q8mPb2RaPkNk2rN7BKi8",
        "reception_time": "2022-01-20T00:16:59.232-00:00",
        "included_in_blocks":
          [ "BKzBb5WH2XxnvDMebwajEJ4xupY3VtUZdCNnRfCyy2GaSfPUgNr" ] },
      { "delegate": "tz1MQMiZHV8q4tTwUMWmS5Y3kaP6J2136iXr",
        "reception_time": "2022-01-20T00:16:59.292-00:00",
        "included_in_blocks":
          [ "BKzBb5WH2XxnvDMebwajEJ4xupY3VtUZdCNnRfCyy2GaSfPUgNr" ] },
      { "delegate": "tz1TzaNn7wSQSP5gYPXCnNzBCpyMiidCq1PX",
        "reception_time": "2022-01-20T00:16:59.232-00:00",
        "included_in_blocks":
          [ "BKzBb5WH2XxnvDMebwajEJ4xupY3VtUZdCNnRfCyy2GaSfPUgNr" ] },
      { "delegate": "tz1beersuEDv8Z7ngQ825xfbaJNS2EhXnyHR",
        "reception_time": "2022-01-20T00:16:59.241-00:00",
        "included_in_blocks":
          [ "BKzBb5WH2XxnvDMebwajEJ4xupY3VtUZdCNnRfCyy2GaSfPUgNr" ] },
      { "delegate": "tz1irJKkXS2DBWkU1NnmFQx1c1L7pbGg4yhk",
        "reception_time": "2022-01-20T00:16:59.219-00:00",
        "included_in_blocks":
          [ "BKzBb5WH2XxnvDMebwajEJ4xupY3VtUZdCNnRfCyy2GaSfPUgNr" ] },
      { "delegate": "tz1VmiY38m3y95HqQLjMwqnMS7sdMfGomzKi",
        "reception_time": "2022-01-20T00:16:59.227-00:00",
        "included_in_blocks":
          [ "BKzBb5WH2XxnvDMebwajEJ4xupY3VtUZdCNnRfCyy2GaSfPUgNr" ] } ] }