{ "blocks":
    [ { "hash": "BLX2YpcW7FaLWL3ArcGbrdW7SQiSitLjdpDtWTHU2D2Q9zxrcpU",
        "delegate": "tz3ZbP2pM3nwvXztbuMJwJnDvV5xdpU8UkkD",
        "reception_time": "2022-01-19T21:50:07.590-00:00",
        "timestamp": "2022-01-19T21:50:00Z" } ],
  "endorsements":
    [ { "delegate": "tz1RjoHc98dBoqaH2jawF62XNKh7YsHwbkEv" },
      { "delegate": "tz1TXzyaKUA8wsWefdSnyaYFnV2M3vCV7er9",
        "reception_time": "2022-01-19T21:50:07.132-00:00",
        "errors":
          [ { "kind": "temporary",
              "id": "proto.011-PtHangz2.prefilter.outdated_endorsement" } ],
        "included_in_blocks":
          [ "BLTTnhGdeKKSJqxq9ZuBU5VW5udikRVr5KAZ3st3yShZUWMd2TC" ] },
      { "delegate": "tz1S8e9GgdZG78XJRB3NqabfWeM37GnhZMWQ",
        "reception_time": "2022-01-19T21:50:06.648-00:00",
        "errors":
          [ { "kind": "temporary",
              "id": "proto.011-PtHangz2.prefilter.outdated_endorsement" } ],
        "included_in_blocks":
          [ "BLTTnhGdeKKSJqxq9ZuBU5VW5udikRVr5KAZ3st3yShZUWMd2TC" ] },
      { "delegate": "tz1NpWrAyDL9k2Lmnyxcgr9xuJakbBxdq7FB",
        "reception_time": "2022-01-19T21:50:17.529-00:00",
        "included_in_blocks":
          [ "BLTTnhGdeKKSJqxq9ZuBU5VW5udikRVr5KAZ3st3yShZUWMd2TC" ] },
      { "delegate": "tz1PFeoTuFen8jAMRHajBySNyCwLmY5RqF9M",
        "reception_time": "2022-01-19T21:50:16.779-00:00",
        "included_in_blocks":
          [ "BLTTnhGdeKKSJqxq9ZuBU5VW5udikRVr5KAZ3st3yShZUWMd2TC" ] },
      { "delegate": "tz1QccGQsmt7WMnbVX9inJQgEuQGeMXddfjp",
        "reception_time": "2022-01-19T21:50:14.939-00:00",
        "included_in_blocks":
          [ "BLTTnhGdeKKSJqxq9ZuBU5VW5udikRVr5KAZ3st3yShZUWMd2TC" ] },
      { "delegate": "tz1aRoaRhSpRYvFdyvgWLL6TGyRoGF51wDjM",
        "reception_time": "2022-01-19T21:50:13.658-00:00",
        "included_in_blocks":
          [ "BLTTnhGdeKKSJqxq9ZuBU5VW5udikRVr5KAZ3st3yShZUWMd2TC" ] },
      { "delegate": "tz1TcH4Nb3aHNDJ7CGZhU7jgAK1BkSP4Lxds",
        "reception_time": "2022-01-19T21:50:12.733-00:00",
        "included_in_blocks":
          [ "BLTTnhGdeKKSJqxq9ZuBU5VW5udikRVr5KAZ3st3yShZUWMd2TC" ] },
      { "delegate": "tz1ULYFhUY7Syao5NWr9jZ1pp3aw81QPiqjs",
        "reception_time": "2022-01-19T21:50:12.891-00:00",
        "included_in_blocks":
          [ "BLTTnhGdeKKSJqxq9ZuBU5VW5udikRVr5KAZ3st3yShZUWMd2TC" ] },
      { "delegate": "tz1h4GUAMweP7SNWzDgvMk3yRCAZyaP1MxZq",
        "reception_time": "2022-01-19T21:50:12.887-00:00",
        "included_in_blocks":
          [ "BLTTnhGdeKKSJqxq9ZuBU5VW5udikRVr5KAZ3st3yShZUWMd2TC" ] },
      { "delegate": "tz3NExpXn9aPNZPorRE4SdjJ2RGrfbJgMAaV",
        "reception_time": "2022-01-19T21:50:12.104-00:00",
        "included_in_blocks":
          [ "BLTTnhGdeKKSJqxq9ZuBU5VW5udikRVr5KAZ3st3yShZUWMd2TC" ] },
      { "delegate": "tz1Xsrfv6hn86fp88YfRs6xcKwt2nTqxVZYM",
        "reception_time": "2022-01-19T21:50:11.598-00:00",
        "included_in_blocks":
          [ "BLTTnhGdeKKSJqxq9ZuBU5VW5udikRVr5KAZ3st3yShZUWMd2TC" ] },
      { "delegate": "tz1NoYvKjXTzTk54VpLxBfouJ33J8jwKPPvw",
        "reception_time": "2022-01-19T21:50:11.493-00:00",
        "included_in_blocks":
          [ "BLTTnhGdeKKSJqxq9ZuBU5VW5udikRVr5KAZ3st3yShZUWMd2TC" ] },
      { "delegate": "tz1ZcTRk5uxD86EFEn1vvNffWWqJy7q5eVhc",
        "reception_time": "2022-01-19T21:50:11.630-00:00",
        "included_in_blocks":
          [ "BLTTnhGdeKKSJqxq9ZuBU5VW5udikRVr5KAZ3st3yShZUWMd2TC" ] },
      { "delegate": "tz3RDC3Jdn4j15J7bBHZd29EUee9gVB1CxD9",
        "reception_time": "2022-01-19T21:50:11.426-00:00",
        "included_in_blocks":
          [ "BLTTnhGdeKKSJqxq9ZuBU5VW5udikRVr5KAZ3st3yShZUWMd2TC" ] },
      { "delegate": "tz3WMqdzXqRWXwyvj5Hp2H7QEepaUuS7vd9K",
        "reception_time": "2022-01-19T21:50:11.270-00:00",
        "included_in_blocks":
          [ "BLTTnhGdeKKSJqxq9ZuBU5VW5udikRVr5KAZ3st3yShZUWMd2TC" ] },
      { "delegate": "tz3bvNMQ95vfAYtG8193ymshqjSvmxiCUuR5",
        "reception_time": "2022-01-19T21:50:11.202-00:00",
        "included_in_blocks":
          [ "BLTTnhGdeKKSJqxq9ZuBU5VW5udikRVr5KAZ3st3yShZUWMd2TC" ] },
      { "delegate": "tz3VEZ4k6a4Wx42iyev6i2aVAptTRLEAivNN",
        "reception_time": "2022-01-19T21:50:11.255-00:00",
        "included_in_blocks":
          [ "BLTTnhGdeKKSJqxq9ZuBU5VW5udikRVr5KAZ3st3yShZUWMd2TC" ] },
      { "delegate": "tz1LmaFsWRkjr7QMCx5PtV6xTUz3AmEpKQiF",
        "reception_time": "2022-01-19T21:50:11.286-00:00",
        "included_in_blocks":
          [ "BLTTnhGdeKKSJqxq9ZuBU5VW5udikRVr5KAZ3st3yShZUWMd2TC" ] },
      { "delegate": "tz1Tnjaxk6tbAeC2TmMApPh8UsrEVQvhHvx5",
        "reception_time": "2022-01-19T21:50:11.190-00:00",
        "included_in_blocks":
          [ "BLTTnhGdeKKSJqxq9ZuBU5VW5udikRVr5KAZ3st3yShZUWMd2TC" ] },
      { "delegate": "tz1a51WYsAsoh4fs4A4x5aCN6Za26mpfDfTi",
        "reception_time": "2022-01-19T21:50:11.190-00:00",
        "included_in_blocks":
          [ "BLTTnhGdeKKSJqxq9ZuBU5VW5udikRVr5KAZ3st3yShZUWMd2TC" ] },
      { "delegate": "tz1TRqbYbUf2GyrjErf3hBzgBJPzW8y36qEs",
        "reception_time": "2022-01-19T21:50:11.192-00:00",
        "included_in_blocks":
          [ "BLTTnhGdeKKSJqxq9ZuBU5VW5udikRVr5KAZ3st3yShZUWMd2TC" ] },
      { "delegate": "tz3UoffC7FG7zfpmvmjUmUeAaHvzdcUvAj6r",
        "reception_time": "2022-01-19T21:50:11.168-00:00",
        "included_in_blocks":
          [ "BLTTnhGdeKKSJqxq9ZuBU5VW5udikRVr5KAZ3st3yShZUWMd2TC" ] },
      { "delegate": "tz1ij5pB6JRSk3TNbMuX8JBa3vUAnWMWnnr8",
        "reception_time": "2022-01-19T21:50:11.168-00:00",
        "included_in_blocks":
          [ "BLTTnhGdeKKSJqxq9ZuBU5VW5udikRVr5KAZ3st3yShZUWMd2TC" ] },
      { "delegate": "tz1iPHM2Xx2hwmzcr1EG1zzrV6oKafVoA91m",
        "reception_time": "2022-01-19T21:50:11.181-00:00",
        "included_in_blocks":
          [ "BLTTnhGdeKKSJqxq9ZuBU5VW5udikRVr5KAZ3st3yShZUWMd2TC" ] },
      { "delegate": "tz1dRKU4FQ9QRRQPdaH4zCR6gmCmXfcvcgtB",
        "reception_time": "2022-01-19T21:50:11.155-00:00",
        "included_in_blocks":
          [ "BLTTnhGdeKKSJqxq9ZuBU5VW5udikRVr5KAZ3st3yShZUWMd2TC" ] },
      { "delegate": "tz1NdhRv643wLW6zCcRP3VfT24dvDnh7nuh9",
        "reception_time": "2022-01-19T21:50:11.160-00:00",
        "included_in_blocks":
          [ "BLTTnhGdeKKSJqxq9ZuBU5VW5udikRVr5KAZ3st3yShZUWMd2TC" ] },
      { "delegate": "tz1fwnfJNgiDACshK9avfRfFbMaXrs3ghoJa",
        "reception_time": "2022-01-19T21:50:11.157-00:00",
        "included_in_blocks":
          [ "BLTTnhGdeKKSJqxq9ZuBU5VW5udikRVr5KAZ3st3yShZUWMd2TC" ] },
      { "delegate": "tz1WBfwbT66FC6BTLexc2BoyCCBM9LG7pnVW",
        "reception_time": "2022-01-19T21:50:11.194-00:00",
        "included_in_blocks":
          [ "BLTTnhGdeKKSJqxq9ZuBU5VW5udikRVr5KAZ3st3yShZUWMd2TC" ] },
      { "delegate": "tz1S8MNvuFEUsWgjHvi3AxibRBf388NhT1q2",
        "reception_time": "2022-01-19T21:50:11.185-00:00",
        "included_in_blocks":
          [ "BLTTnhGdeKKSJqxq9ZuBU5VW5udikRVr5KAZ3st3yShZUWMd2TC" ] },
      { "delegate": "tz1MQMiZHV8q4tTwUMWmS5Y3kaP6J2136iXr",
        "reception_time": "2022-01-19T21:50:11.185-00:00",
        "included_in_blocks":
          [ "BLTTnhGdeKKSJqxq9ZuBU5VW5udikRVr5KAZ3st3yShZUWMd2TC" ] },
      { "delegate": "tz3bTdwZinP8U1JmSweNzVKhmwafqWmFWRfk",
        "reception_time": "2022-01-19T21:50:11.176-00:00",
        "included_in_blocks":
          [ "BLTTnhGdeKKSJqxq9ZuBU5VW5udikRVr5KAZ3st3yShZUWMd2TC" ] },
      { "delegate": "tz3TTPtexYio6PPT9M9WdYnM5xob1xvQPiUp",
        "reception_time": "2022-01-19T21:50:11.144-00:00",
        "included_in_blocks":
          [ "BLTTnhGdeKKSJqxq9ZuBU5VW5udikRVr5KAZ3st3yShZUWMd2TC" ] },
      { "delegate": "tz1NEKxGEHsFufk87CVZcrqWu8o22qh46GK6",
        "reception_time": "2022-01-19T21:50:11.181-00:00",
        "included_in_blocks":
          [ "BLTTnhGdeKKSJqxq9ZuBU5VW5udikRVr5KAZ3st3yShZUWMd2TC" ] },
      { "delegate": "tz1Nf6tsK4G6bBqgSQERy4nUtkHNKUVdh7q1",
        "reception_time": "2022-01-19T21:50:11.065-00:00",
        "included_in_blocks":
          [ "BLTTnhGdeKKSJqxq9ZuBU5VW5udikRVr5KAZ3st3yShZUWMd2TC" ] },
      { "delegate": "tz1axcnVN9tZnCe4sQQhC6f3tfSEXdjPaXPY",
        "reception_time": "2022-01-19T21:50:11.176-00:00",
        "included_in_blocks":
          [ "BLTTnhGdeKKSJqxq9ZuBU5VW5udikRVr5KAZ3st3yShZUWMd2TC" ] },
      { "delegate": "tz3RB4aoyjov4KEVRbuhvQ1CKJgBJMWhaeB8",
        "reception_time": "2022-01-19T21:50:11.130-00:00",
        "included_in_blocks":
          [ "BLTTnhGdeKKSJqxq9ZuBU5VW5udikRVr5KAZ3st3yShZUWMd2TC" ] },
      { "delegate": "tz1gfArv665EUkSg2ojMBzcbfwuPxAvqPvjo",
        "reception_time": "2022-01-19T21:50:11.029-00:00",
        "included_in_blocks":
          [ "BLTTnhGdeKKSJqxq9ZuBU5VW5udikRVr5KAZ3st3yShZUWMd2TC" ] },
      { "delegate": "tz1dNVDWPf3Q59SdJqnjdnu277iyvReiRS9M",
        "reception_time": "2022-01-19T21:50:11.058-00:00",
        "included_in_blocks":
          [ "BLTTnhGdeKKSJqxq9ZuBU5VW5udikRVr5KAZ3st3yShZUWMd2TC" ] },
      { "delegate": "tz3bEQoFCZEEfZMskefZ8q8e4eiHH1pssRax",
        "reception_time": "2022-01-19T21:50:11.103-00:00",
        "included_in_blocks":
          [ "BLTTnhGdeKKSJqxq9ZuBU5VW5udikRVr5KAZ3st3yShZUWMd2TC" ] },
      { "delegate": "tz1UJvHTgpVzcKWhTazGxVcn5wsHru5Gietg",
        "reception_time": "2022-01-19T21:50:11.040-00:00",
        "included_in_blocks":
          [ "BLTTnhGdeKKSJqxq9ZuBU5VW5udikRVr5KAZ3st3yShZUWMd2TC" ] },
      { "delegate": "tz1SYq214SCBy9naR6cvycQsYcUGpBqQAE8d",
        "reception_time": "2022-01-19T21:50:11.077-00:00",
        "included_in_blocks":
          [ "BLTTnhGdeKKSJqxq9ZuBU5VW5udikRVr5KAZ3st3yShZUWMd2TC" ] },
      { "delegate": "tz1RCFbB9GpALpsZtu6J58sb74dm8qe6XBzv",
        "reception_time": "2022-01-19T21:50:11.081-00:00",
        "included_in_blocks":
          [ "BLTTnhGdeKKSJqxq9ZuBU5VW5udikRVr5KAZ3st3yShZUWMd2TC" ] },
      { "delegate": "tz1KfEsrtDaA1sX7vdM4qmEPWuSytuqCDp5j",
        "reception_time": "2022-01-19T21:50:11.053-00:00",
        "included_in_blocks":
          [ "BLTTnhGdeKKSJqxq9ZuBU5VW5udikRVr5KAZ3st3yShZUWMd2TC" ] },
      { "delegate": "tz3Zhs2dygr55yHyQyKjntAtY9bgfhLZ4Xj1",
        "reception_time": "2022-01-19T21:50:11.053-00:00",
        "included_in_blocks":
          [ "BLTTnhGdeKKSJqxq9ZuBU5VW5udikRVr5KAZ3st3yShZUWMd2TC" ] },
      { "delegate": "tz3iJu5vrKZcsqRPs8yJ61UDoeEXZmtro4qh",
        "reception_time": "2022-01-19T21:50:11.040-00:00",
        "included_in_blocks":
          [ "BLTTnhGdeKKSJqxq9ZuBU5VW5udikRVr5KAZ3st3yShZUWMd2TC" ] },
      { "delegate": "tz2FCNBrERXtaTtNX6iimR1UJ5JSDxvdHM93",
        "reception_time": "2022-01-19T21:50:10.689-00:00",
        "included_in_blocks":
          [ "BLTTnhGdeKKSJqxq9ZuBU5VW5udikRVr5KAZ3st3yShZUWMd2TC" ] },
      { "delegate": "tz1V4qCyvPKZ5UeqdH14HN42rxvNPQfc9UZg",
        "reception_time": "2022-01-19T21:50:10.689-00:00",
        "included_in_blocks":
          [ "BLTTnhGdeKKSJqxq9ZuBU5VW5udikRVr5KAZ3st3yShZUWMd2TC" ] },
      { "delegate": "tz1PWCDnz783NNGGQjEFFsHtrcK5yBW4E2rm",
        "reception_time": "2022-01-19T21:50:11.058-00:00",
        "included_in_blocks":
          [ "BLTTnhGdeKKSJqxq9ZuBU5VW5udikRVr5KAZ3st3yShZUWMd2TC" ] },
      { "delegate": "tz3S6BBeKgJGXxvLyZ1xzXzMPn11nnFtq5L9",
        "reception_time": "2022-01-19T21:50:10.689-00:00",
        "included_in_blocks":
          [ "BLTTnhGdeKKSJqxq9ZuBU5VW5udikRVr5KAZ3st3yShZUWMd2TC" ] },
      { "delegate": "tz1ei4WtWEMEJekSv8qDnu9PExG6Q8HgRGr3",
        "reception_time": "2022-01-19T21:50:10.269-00:00",
        "included_in_blocks":
          [ "BLTTnhGdeKKSJqxq9ZuBU5VW5udikRVr5KAZ3st3yShZUWMd2TC" ] },
      { "delegate": "tz1L6UDJ4EEvhpY84YjJpBg51bKMG1Usyrgz",
        "reception_time": "2022-01-19T21:50:09.919-00:00",
        "included_in_blocks":
          [ "BLTTnhGdeKKSJqxq9ZuBU5VW5udikRVr5KAZ3st3yShZUWMd2TC" ] },
      { "delegate": "tz1fR5e22cR7fTSMHm1ZTMRqK38sRwk9U148",
        "reception_time": "2022-01-19T21:50:10.269-00:00",
        "included_in_blocks":
          [ "BLTTnhGdeKKSJqxq9ZuBU5VW5udikRVr5KAZ3st3yShZUWMd2TC" ] },
      { "delegate": "tz3hw2kqXhLUvY65ca1eety2oQTpAvd34R9Q",
        "reception_time": "2022-01-19T21:50:09.919-00:00",
        "included_in_blocks":
          [ "BLTTnhGdeKKSJqxq9ZuBU5VW5udikRVr5KAZ3st3yShZUWMd2TC" ] },
      { "delegate": "tz3e7LbZvUtoXhpUD1yb6wuFodZpfYRb9nWJ",
        "reception_time": "2022-01-19T21:50:09.919-00:00",
        "included_in_blocks":
          [ "BLTTnhGdeKKSJqxq9ZuBU5VW5udikRVr5KAZ3st3yShZUWMd2TC" ] },
      { "delegate": "tz3RKYFsLuQzKBtmYuLNas7uMu3AsYd4QdsA",
        "reception_time": "2022-01-19T21:50:10.421-00:00",
        "included_in_blocks":
          [ "BLTTnhGdeKKSJqxq9ZuBU5VW5udikRVr5KAZ3st3yShZUWMd2TC" ] },
      { "delegate": "tz1WCd2jm4uSt4vntk4vSuUWoZQGhLcDuR9q",
        "reception_time": "2022-01-19T21:50:09.919-00:00",
        "included_in_blocks":
          [ "BLTTnhGdeKKSJqxq9ZuBU5VW5udikRVr5KAZ3st3yShZUWMd2TC" ] },
      { "delegate": "tz1TRspM5SeZpaQUhzByXbEvqKF1vnCM2YTK",
        "reception_time": "2022-01-19T21:50:10.421-00:00",
        "included_in_blocks":
          [ "BLTTnhGdeKKSJqxq9ZuBU5VW5udikRVr5KAZ3st3yShZUWMd2TC" ] },
      { "delegate": "tz1TzaNn7wSQSP5gYPXCnNzBCpyMiidCq1PX",
        "reception_time": "2022-01-19T21:50:09.641-00:00",
        "included_in_blocks":
          [ "BLTTnhGdeKKSJqxq9ZuBU5VW5udikRVr5KAZ3st3yShZUWMd2TC" ] },
      { "delegate": "tz1irJKkXS2DBWkU1NnmFQx1c1L7pbGg4yhk",
        "reception_time": "2022-01-19T21:50:09.641-00:00",
        "included_in_blocks":
          [ "BLTTnhGdeKKSJqxq9ZuBU5VW5udikRVr5KAZ3st3yShZUWMd2TC" ] },
      { "delegate": "tz1VQnqCCqX4K5sP3FNkVSNKTdCAMJDd3E1n",
        "reception_time": "2022-01-19T21:50:09.919-00:00",
        "included_in_blocks":
          [ "BLTTnhGdeKKSJqxq9ZuBU5VW5udikRVr5KAZ3st3yShZUWMd2TC" ] },
      { "delegate": "tz1VmiY38m3y95HqQLjMwqnMS7sdMfGomzKi",
        "reception_time": "2022-01-19T21:50:09.641-00:00",
        "included_in_blocks":
          [ "BLTTnhGdeKKSJqxq9ZuBU5VW5udikRVr5KAZ3st3yShZUWMd2TC" ] },
      { "delegate": "tz1ZPh7XfUaJXUDvkrBxmS1BjEM1i62hiPpM",
        "reception_time": "2022-01-19T21:50:09.641-00:00",
        "included_in_blocks":
          [ "BLTTnhGdeKKSJqxq9ZuBU5VW5udikRVr5KAZ3st3yShZUWMd2TC" ] },
      { "delegate": "tz3QSGPoRp3Kn7n3vY24eYeu3Peuqo45LQ4D",
        "reception_time": "2022-01-19T21:50:09.919-00:00",
        "included_in_blocks":
          [ "BLTTnhGdeKKSJqxq9ZuBU5VW5udikRVr5KAZ3st3yShZUWMd2TC" ] },
      { "delegate": "tz3gtoUxdudfBRcNY7iVdKPHCYYX6xdPpoRS",
        "reception_time": "2022-01-19T21:50:09.641-00:00",
        "included_in_blocks":
          [ "BLTTnhGdeKKSJqxq9ZuBU5VW5udikRVr5KAZ3st3yShZUWMd2TC" ] },
      { "delegate": "tz1LLNkQK4UQV6QcFShiXJ2vT2ELw449MzAA",
        "reception_time": "2022-01-19T21:50:09.641-00:00",
        "included_in_blocks":
          [ "BLTTnhGdeKKSJqxq9ZuBU5VW5udikRVr5KAZ3st3yShZUWMd2TC" ] },
      { "delegate": "tz1Ldzz6k1BHdhuKvAtMRX7h5kJSMHESMHLC",
        "reception_time": "2022-01-19T21:50:09.641-00:00",
        "included_in_blocks":
          [ "BLTTnhGdeKKSJqxq9ZuBU5VW5udikRVr5KAZ3st3yShZUWMd2TC" ] },
      { "delegate": "tz3NxTnke1acr8o3h5y9ytf5awQBGNJUKzVU",
        "reception_time": "2022-01-19T21:50:09.641-00:00",
        "included_in_blocks":
          [ "BLTTnhGdeKKSJqxq9ZuBU5VW5udikRVr5KAZ3st3yShZUWMd2TC" ] },
      { "delegate": "tz1Kt4P8BCaP93AEV4eA7gmpRryWt5hznjCP",
        "reception_time": "2022-01-19T21:50:09.641-00:00",
        "included_in_blocks":
          [ "BLTTnhGdeKKSJqxq9ZuBU5VW5udikRVr5KAZ3st3yShZUWMd2TC" ] },
      { "delegate": "tz1eEnQhbwf6trb8Q8mPb2RaPkNk2rN7BKi8",
        "reception_time": "2022-01-19T21:50:09.331-00:00",
        "included_in_blocks":
          [ "BLTTnhGdeKKSJqxq9ZuBU5VW5udikRVr5KAZ3st3yShZUWMd2TC" ] },
      { "delegate": "tz1P2Po7YM526ughEsRbY4oR9zaUPDZjxFrb",
        "reception_time": "2022-01-19T21:50:09.331-00:00",
        "included_in_blocks":
          [ "BLTTnhGdeKKSJqxq9ZuBU5VW5udikRVr5KAZ3st3yShZUWMd2TC" ] } ] }