{ "blocks":
    [ { "hash": "BM3ovzx2KxoaFhtGxeCgRBvDY8sSpaUcnmhZVDcrY8S44BLSzTU",
        "delegate": "tz1aRoaRhSpRYvFdyvgWLL6TGyRoGF51wDjM",
        "reception_time": "2022-01-20T02:43:58.473-00:00",
        "timestamp": "2022-01-20T02:43:40Z" } ],
  "endorsements":
    [ { "delegate": "tz2BzJTyoQp8fNbfhWD4YQgH9JJHDgSGzpdG",
        "reception_time": "2022-01-20T02:44:12.148-00:00" },
      { "delegate": "tz1i3mhawFAgcB8JHaHwoUF6hdncwTAkLEn2",
        "reception_time": "2022-01-20T02:44:04.663-00:00",
        "included_in_blocks":
          [ "BL8UezRpyYuiE73ErhmEKGiqdCMoC6UCKmiiF4qc6R62Ya12Ef4" ] },
      { "delegate": "tz1aRoaRhSpRYvFdyvgWLL6TGyRoGF51wDjM",
        "reception_time": "2022-01-20T02:44:04.592-00:00",
        "included_in_blocks":
          [ "BL8UezRpyYuiE73ErhmEKGiqdCMoC6UCKmiiF4qc6R62Ya12Ef4" ] },
      { "delegate": "tz1acZQd7TdfoiUnD2czHnTHB2TaJQP6gdqo",
        "reception_time": "2022-01-20T02:44:04.478-00:00",
        "included_in_blocks":
          [ "BL8UezRpyYuiE73ErhmEKGiqdCMoC6UCKmiiF4qc6R62Ya12Ef4" ] },
      { "delegate": "tz3UoffC7FG7zfpmvmjUmUeAaHvzdcUvAj6r",
        "reception_time": "2022-01-20T02:44:04.447-00:00",
        "included_in_blocks":
          [ "BL8UezRpyYuiE73ErhmEKGiqdCMoC6UCKmiiF4qc6R62Ya12Ef4" ] },
      { "delegate": "tz3NExpXn9aPNZPorRE4SdjJ2RGrfbJgMAaV",
        "reception_time": "2022-01-20T02:44:04.433-00:00",
        "included_in_blocks":
          [ "BL8UezRpyYuiE73ErhmEKGiqdCMoC6UCKmiiF4qc6R62Ya12Ef4" ] },
      { "delegate": "tz1Z9M4biBHSiH38k5ciRMjR5bgk89yEgLTz",
        "reception_time": "2022-01-20T02:44:04.312-00:00",
        "included_in_blocks":
          [ "BL8UezRpyYuiE73ErhmEKGiqdCMoC6UCKmiiF4qc6R62Ya12Ef4" ] },
      { "delegate": "tz3WMqdzXqRWXwyvj5Hp2H7QEepaUuS7vd9K",
        "reception_time": "2022-01-20T02:44:04.273-00:00",
        "included_in_blocks":
          [ "BL8UezRpyYuiE73ErhmEKGiqdCMoC6UCKmiiF4qc6R62Ya12Ef4" ] },
      { "delegate": "tz3bvNMQ95vfAYtG8193ymshqjSvmxiCUuR5",
        "reception_time": "2022-01-20T02:44:03.916-00:00",
        "included_in_blocks":
          [ "BL8UezRpyYuiE73ErhmEKGiqdCMoC6UCKmiiF4qc6R62Ya12Ef4" ] },
      { "delegate": "tz3RB4aoyjov4KEVRbuhvQ1CKJgBJMWhaeB8",
        "reception_time": "2022-01-20T02:44:03.460-00:00",
        "included_in_blocks":
          [ "BL8UezRpyYuiE73ErhmEKGiqdCMoC6UCKmiiF4qc6R62Ya12Ef4" ] },
      { "delegate": "tz3VEZ4k6a4Wx42iyev6i2aVAptTRLEAivNN",
        "reception_time": "2022-01-20T02:44:03.137-00:00",
        "included_in_blocks":
          [ "BL8UezRpyYuiE73ErhmEKGiqdCMoC6UCKmiiF4qc6R62Ya12Ef4" ] },
      { "delegate": "tz3NDpRj6WBrJPikcPVHRBEjWKxFw3c6eQPS",
        "reception_time": "2022-01-20T02:44:02.855-00:00",
        "included_in_blocks":
          [ "BL8UezRpyYuiE73ErhmEKGiqdCMoC6UCKmiiF4qc6R62Ya12Ef4" ] },
      { "delegate": "tz3gLTu4Yxj8tPAcriQVUdxv6BY9QyvzU1az",
        "reception_time": "2022-01-20T02:44:02.800-00:00",
        "included_in_blocks":
          [ "BL8UezRpyYuiE73ErhmEKGiqdCMoC6UCKmiiF4qc6R62Ya12Ef4" ] },
      { "delegate": "tz1dRKU4FQ9QRRQPdaH4zCR6gmCmXfcvcgtB",
        "reception_time": "2022-01-20T02:44:02.643-00:00",
        "included_in_blocks":
          [ "BL8UezRpyYuiE73ErhmEKGiqdCMoC6UCKmiiF4qc6R62Ya12Ef4" ] },
      { "delegate": "tz1cYufsxHXJcvANhvS55h3aY32a9BAFB494",
        "reception_time": "2022-01-20T02:44:02.512-00:00",
        "included_in_blocks":
          [ "BL8UezRpyYuiE73ErhmEKGiqdCMoC6UCKmiiF4qc6R62Ya12Ef4" ] },
      { "delegate": "tz1eE4ERseiJfLTy3ydsdiitpCMbRRHEGhqM",
        "delegate_alias": "boutiger",
        "reception_time": "2022-01-20T02:44:02.510-00:00",
        "included_in_blocks":
          [ "BL8UezRpyYuiE73ErhmEKGiqdCMoC6UCKmiiF4qc6R62Ya12Ef4" ] },
      { "delegate": "tz1WctSwL49BZtdWAQ75NY6vr4xsAx6oKdah",
        "reception_time": "2022-01-20T02:44:02.359-00:00",
        "included_in_blocks":
          [ "BL8UezRpyYuiE73ErhmEKGiqdCMoC6UCKmiiF4qc6R62Ya12Ef4" ] },
      { "delegate": "tz2FCNBrERXtaTtNX6iimR1UJ5JSDxvdHM93",
        "reception_time": "2022-01-20T02:44:02.306-00:00",
        "included_in_blocks":
          [ "BL8UezRpyYuiE73ErhmEKGiqdCMoC6UCKmiiF4qc6R62Ya12Ef4" ] },
      { "delegate": "tz1T7duV5gZWSTq4YpBGbXNLTfznCLDrFxvs",
        "reception_time": "2022-01-20T02:44:02.290-00:00",
        "included_in_blocks":
          [ "BL8UezRpyYuiE73ErhmEKGiqdCMoC6UCKmiiF4qc6R62Ya12Ef4" ] },
      { "delegate": "tz1axcnVN9tZnCe4sQQhC6f3tfSEXdjPaXPY",
        "reception_time": "2022-01-20T02:44:02.245-00:00",
        "included_in_blocks":
          [ "BL8UezRpyYuiE73ErhmEKGiqdCMoC6UCKmiiF4qc6R62Ya12Ef4" ] },
      { "delegate": "tz1KfEsrtDaA1sX7vdM4qmEPWuSytuqCDp5j",
        "reception_time": "2022-01-20T02:44:02.189-00:00",
        "included_in_blocks":
          [ "BL8UezRpyYuiE73ErhmEKGiqdCMoC6UCKmiiF4qc6R62Ya12Ef4" ] },
      { "delegate": "tz1Nf6tsK4G6bBqgSQERy4nUtkHNKUVdh7q1",
        "reception_time": "2022-01-20T02:44:02.185-00:00",
        "included_in_blocks":
          [ "BL8UezRpyYuiE73ErhmEKGiqdCMoC6UCKmiiF4qc6R62Ya12Ef4" ] },
      { "delegate": "tz1Tnjaxk6tbAeC2TmMApPh8UsrEVQvhHvx5",
        "reception_time": "2022-01-20T02:44:02.137-00:00",
        "included_in_blocks":
          [ "BL8UezRpyYuiE73ErhmEKGiqdCMoC6UCKmiiF4qc6R62Ya12Ef4" ] },
      { "delegate": "tz1gfArv665EUkSg2ojMBzcbfwuPxAvqPvjo",
        "reception_time": "2022-01-20T02:44:02.103-00:00",
        "included_in_blocks":
          [ "BL8UezRpyYuiE73ErhmEKGiqdCMoC6UCKmiiF4qc6R62Ya12Ef4" ] },
      { "delegate": "tz1RCFbB9GpALpsZtu6J58sb74dm8qe6XBzv",
        "reception_time": "2022-01-20T02:44:02.103-00:00",
        "included_in_blocks":
          [ "BL8UezRpyYuiE73ErhmEKGiqdCMoC6UCKmiiF4qc6R62Ya12Ef4" ] },
      { "delegate": "tz1XCJBHkDn2D9wjgXEJHMi2jTxg563XUunQ",
        "reception_time": "2022-01-20T02:44:02.103-00:00",
        "included_in_blocks":
          [ "BL8UezRpyYuiE73ErhmEKGiqdCMoC6UCKmiiF4qc6R62Ya12Ef4" ] },
      { "delegate": "tz1UMCB2AHSTwG7YcGNr31CqYCtGN873royv",
        "reception_time": "2022-01-20T02:44:02.103-00:00",
        "included_in_blocks":
          [ "BL8UezRpyYuiE73ErhmEKGiqdCMoC6UCKmiiF4qc6R62Ya12Ef4" ] },
      { "delegate": "tz3bTdwZinP8U1JmSweNzVKhmwafqWmFWRfk",
        "reception_time": "2022-01-20T02:44:02.103-00:00",
        "included_in_blocks":
          [ "BL8UezRpyYuiE73ErhmEKGiqdCMoC6UCKmiiF4qc6R62Ya12Ef4" ] },
      { "delegate": "tz1dNVDWPf3Q59SdJqnjdnu277iyvReiRS9M",
        "reception_time": "2022-01-20T02:44:02.103-00:00",
        "included_in_blocks":
          [ "BL8UezRpyYuiE73ErhmEKGiqdCMoC6UCKmiiF4qc6R62Ya12Ef4" ] },
      { "delegate": "tz1S8MNvuFEUsWgjHvi3AxibRBf388NhT1q2",
        "reception_time": "2022-01-20T02:44:02.103-00:00",
        "included_in_blocks":
          [ "BL8UezRpyYuiE73ErhmEKGiqdCMoC6UCKmiiF4qc6R62Ya12Ef4" ] },
      { "delegate": "tz1WBfwbT66FC6BTLexc2BoyCCBM9LG7pnVW",
        "reception_time": "2022-01-20T02:44:02.103-00:00",
        "included_in_blocks":
          [ "BL8UezRpyYuiE73ErhmEKGiqdCMoC6UCKmiiF4qc6R62Ya12Ef4" ] },
      { "delegate": "tz1NEKxGEHsFufk87CVZcrqWu8o22qh46GK6",
        "reception_time": "2022-01-20T02:44:02.103-00:00",
        "included_in_blocks":
          [ "BL8UezRpyYuiE73ErhmEKGiqdCMoC6UCKmiiF4qc6R62Ya12Ef4" ] },
      { "delegate": "tz1LmaFsWRkjr7QMCx5PtV6xTUz3AmEpKQiF",
        "reception_time": "2022-01-20T02:44:02.103-00:00",
        "included_in_blocks":
          [ "BL8UezRpyYuiE73ErhmEKGiqdCMoC6UCKmiiF4qc6R62Ya12Ef4" ] },
      { "delegate": "tz3QCNyySViKHmeSr45kzDxzchys7NiXCWoa",
        "reception_time": "2022-01-20T02:44:02.103-00:00",
        "included_in_blocks":
          [ "BL8UezRpyYuiE73ErhmEKGiqdCMoC6UCKmiiF4qc6R62Ya12Ef4" ] },
      { "delegate": "tz1RpeqCseogMpCPXpyGjhmLH9i9DhqJ8cUR",
        "reception_time": "2022-01-20T02:44:01.712-00:00",
        "included_in_blocks":
          [ "BL8UezRpyYuiE73ErhmEKGiqdCMoC6UCKmiiF4qc6R62Ya12Ef4" ] },
      { "delegate": "tz1SYq214SCBy9naR6cvycQsYcUGpBqQAE8d",
        "reception_time": "2022-01-20T02:44:01.712-00:00",
        "included_in_blocks":
          [ "BL8UezRpyYuiE73ErhmEKGiqdCMoC6UCKmiiF4qc6R62Ya12Ef4" ] },
      { "delegate": "tz3RDC3Jdn4j15J7bBHZd29EUee9gVB1CxD9",
        "reception_time": "2022-01-20T02:44:01.712-00:00",
        "included_in_blocks":
          [ "BL8UezRpyYuiE73ErhmEKGiqdCMoC6UCKmiiF4qc6R62Ya12Ef4" ] },
      { "delegate": "tz1TEc75UKXv4W5cwi14Na3NtqFD51yKQi7h",
        "reception_time": "2022-01-20T02:44:01.491-00:00",
        "included_in_blocks":
          [ "BL8UezRpyYuiE73ErhmEKGiqdCMoC6UCKmiiF4qc6R62Ya12Ef4" ] },
      { "delegate": "tz3iJu5vrKZcsqRPs8yJ61UDoeEXZmtro4qh",
        "reception_time": "2022-01-20T02:44:01.491-00:00",
        "included_in_blocks":
          [ "BL8UezRpyYuiE73ErhmEKGiqdCMoC6UCKmiiF4qc6R62Ya12Ef4" ] },
      { "delegate": "tz1UJvHTgpVzcKWhTazGxVcn5wsHru5Gietg",
        "reception_time": "2022-01-20T02:44:01.491-00:00",
        "included_in_blocks":
          [ "BL8UezRpyYuiE73ErhmEKGiqdCMoC6UCKmiiF4qc6R62Ya12Ef4" ] },
      { "delegate": "tz1ei4WtWEMEJekSv8qDnu9PExG6Q8HgRGr3",
        "reception_time": "2022-01-20T02:44:01.491-00:00",
        "included_in_blocks":
          [ "BL8UezRpyYuiE73ErhmEKGiqdCMoC6UCKmiiF4qc6R62Ya12Ef4" ] },
      { "delegate": "tz3Zhs2dygr55yHyQyKjntAtY9bgfhLZ4Xj1",
        "reception_time": "2022-01-20T02:44:01.491-00:00",
        "included_in_blocks":
          [ "BL8UezRpyYuiE73ErhmEKGiqdCMoC6UCKmiiF4qc6R62Ya12Ef4" ] },
      { "delegate": "tz3S6BBeKgJGXxvLyZ1xzXzMPn11nnFtq5L9",
        "reception_time": "2022-01-20T02:44:01.491-00:00",
        "included_in_blocks":
          [ "BL8UezRpyYuiE73ErhmEKGiqdCMoC6UCKmiiF4qc6R62Ya12Ef4" ] },
      { "delegate": "tz3QT9dHYKDqh563chVa6za8526ys1UKfRfL",
        "reception_time": "2022-01-20T02:44:01.491-00:00",
        "included_in_blocks":
          [ "BL8UezRpyYuiE73ErhmEKGiqdCMoC6UCKmiiF4qc6R62Ya12Ef4" ] },
      { "delegate": "tz1LnWa4AiFCjMezTgSNa65QFoo7DQGEWgEU",
        "reception_time": "2022-01-20T02:44:01.288-00:00",
        "included_in_blocks":
          [ "BL8UezRpyYuiE73ErhmEKGiqdCMoC6UCKmiiF4qc6R62Ya12Ef4" ] },
      { "delegate": "tz1VQnqCCqX4K5sP3FNkVSNKTdCAMJDd3E1n",
        "reception_time": "2022-01-20T02:44:01.288-00:00",
        "included_in_blocks":
          [ "BL8UezRpyYuiE73ErhmEKGiqdCMoC6UCKmiiF4qc6R62Ya12Ef4" ] },
      { "delegate": "tz1irmXkTwtz89pxmUFXvQuitz1vkdJQE9oq",
        "reception_time": "2022-01-20T02:44:01.288-00:00",
        "included_in_blocks":
          [ "BL8UezRpyYuiE73ErhmEKGiqdCMoC6UCKmiiF4qc6R62Ya12Ef4" ] },
      { "delegate": "tz3RKYFsLuQzKBtmYuLNas7uMu3AsYd4QdsA",
        "reception_time": "2022-01-20T02:44:01.288-00:00",
        "included_in_blocks":
          [ "BL8UezRpyYuiE73ErhmEKGiqdCMoC6UCKmiiF4qc6R62Ya12Ef4" ] },
      { "delegate": "tz1PWCDnz783NNGGQjEFFsHtrcK5yBW4E2rm",
        "reception_time": "2022-01-20T02:44:01.288-00:00",
        "included_in_blocks":
          [ "BL8UezRpyYuiE73ErhmEKGiqdCMoC6UCKmiiF4qc6R62Ya12Ef4" ] },
      { "delegate": "tz1Ldzz6k1BHdhuKvAtMRX7h5kJSMHESMHLC",
        "reception_time": "2022-01-20T02:44:01.288-00:00",
        "included_in_blocks":
          [ "BL8UezRpyYuiE73ErhmEKGiqdCMoC6UCKmiiF4qc6R62Ya12Ef4" ] },
      { "delegate": "tz3gtoUxdudfBRcNY7iVdKPHCYYX6xdPpoRS",
        "reception_time": "2022-01-20T02:44:01.288-00:00",
        "included_in_blocks":
          [ "BL8UezRpyYuiE73ErhmEKGiqdCMoC6UCKmiiF4qc6R62Ya12Ef4" ] },
      { "delegate": "tz1eEnQhbwf6trb8Q8mPb2RaPkNk2rN7BKi8",
        "reception_time": "2022-01-20T02:44:01.288-00:00",
        "included_in_blocks":
          [ "BL8UezRpyYuiE73ErhmEKGiqdCMoC6UCKmiiF4qc6R62Ya12Ef4" ] },
      { "delegate": "tz1Lhf4J9Qxoe3DZ2nfe8FGDnvVj7oKjnMY6",
        "reception_time": "2022-01-20T02:44:01.288-00:00",
        "included_in_blocks":
          [ "BL8UezRpyYuiE73ErhmEKGiqdCMoC6UCKmiiF4qc6R62Ya12Ef4" ] },
      { "delegate": "tz1cSj7fTex3JPd1p1LN1fwek6AV1kH93Wwc",
        "reception_time": "2022-01-20T02:44:01.288-00:00",
        "included_in_blocks":
          [ "BL8UezRpyYuiE73ErhmEKGiqdCMoC6UCKmiiF4qc6R62Ya12Ef4" ] },
      { "delegate": "tz1irJKkXS2DBWkU1NnmFQx1c1L7pbGg4yhk",
        "reception_time": "2022-01-20T02:44:01.288-00:00",
        "included_in_blocks":
          [ "BL8UezRpyYuiE73ErhmEKGiqdCMoC6UCKmiiF4qc6R62Ya12Ef4" ] },
      { "delegate": "tz3QSGPoRp3Kn7n3vY24eYeu3Peuqo45LQ4D",
        "reception_time": "2022-01-20T02:44:01.288-00:00",
        "included_in_blocks":
          [ "BL8UezRpyYuiE73ErhmEKGiqdCMoC6UCKmiiF4qc6R62Ya12Ef4" ] },
      { "delegate": "tz1Kt4P8BCaP93AEV4eA7gmpRryWt5hznjCP",
        "reception_time": "2022-01-20T02:44:01.288-00:00",
        "included_in_blocks":
          [ "BL8UezRpyYuiE73ErhmEKGiqdCMoC6UCKmiiF4qc6R62Ya12Ef4" ] },
      { "delegate": "tz3hw2kqXhLUvY65ca1eety2oQTpAvd34R9Q",
        "reception_time": "2022-01-20T02:44:01.288-00:00",
        "included_in_blocks":
          [ "BL8UezRpyYuiE73ErhmEKGiqdCMoC6UCKmiiF4qc6R62Ya12Ef4" ] },
      { "delegate": "tz3ZbP2pM3nwvXztbuMJwJnDvV5xdpU8UkkD",
        "reception_time": "2022-01-20T02:44:01.288-00:00",
        "included_in_blocks":
          [ "BL8UezRpyYuiE73ErhmEKGiqdCMoC6UCKmiiF4qc6R62Ya12Ef4" ] },
      { "delegate": "tz3NxTnke1acr8o3h5y9ytf5awQBGNJUKzVU",
        "reception_time": "2022-01-20T02:44:01.288-00:00",
        "included_in_blocks":
          [ "BL8UezRpyYuiE73ErhmEKGiqdCMoC6UCKmiiF4qc6R62Ya12Ef4" ] },
      { "delegate": "tz1W1f1JrE7VsqgpUpj1iiDobqP5TixgZhDk",
        "reception_time": "2022-01-20T02:44:01.288-00:00",
        "included_in_blocks":
          [ "BL8UezRpyYuiE73ErhmEKGiqdCMoC6UCKmiiF4qc6R62Ya12Ef4" ] },
      { "delegate": "tz1beersuEDv8Z7ngQ825xfbaJNS2EhXnyHR",
        "reception_time": "2022-01-20T02:44:01.288-00:00",
        "included_in_blocks":
          [ "BL8UezRpyYuiE73ErhmEKGiqdCMoC6UCKmiiF4qc6R62Ya12Ef4" ] },
      { "delegate": "tz1gUNyn3hmnEWqkusWPzxRaon1cs7ndWh7h",
        "reception_time": "2022-01-20T02:44:01.288-00:00",
        "included_in_blocks":
          [ "BL8UezRpyYuiE73ErhmEKGiqdCMoC6UCKmiiF4qc6R62Ya12Ef4" ] },
      { "delegate": "tz1RG86Gssra8y9CpQXQbThppLMiQmWSTHwv",
        "reception_time": "2022-01-20T02:44:01.288-00:00",
        "included_in_blocks":
          [ "BL8UezRpyYuiE73ErhmEKGiqdCMoC6UCKmiiF4qc6R62Ya12Ef4" ] },
      { "delegate": "tz1WCd2jm4uSt4vntk4vSuUWoZQGhLcDuR9q",
        "reception_time": "2022-01-20T02:44:01.288-00:00",
        "included_in_blocks":
          [ "BL8UezRpyYuiE73ErhmEKGiqdCMoC6UCKmiiF4qc6R62Ya12Ef4" ] },
      { "delegate": "tz1VmiY38m3y95HqQLjMwqnMS7sdMfGomzKi",
        "reception_time": "2022-01-20T02:44:01.288-00:00",
        "included_in_blocks":
          [ "BL8UezRpyYuiE73ErhmEKGiqdCMoC6UCKmiiF4qc6R62Ya12Ef4" ] },
      { "delegate": "tz1P2Po7YM526ughEsRbY4oR9zaUPDZjxFrb",
        "reception_time": "2022-01-20T02:44:01.288-00:00",
        "included_in_blocks":
          [ "BL8UezRpyYuiE73ErhmEKGiqdCMoC6UCKmiiF4qc6R62Ya12Ef4" ] },
      { "delegate": "tz1STeamwbp68THcny9zk3LsbG3H36DMvbRK",
        "reception_time": "2022-01-20T02:44:01.288-00:00",
        "included_in_blocks":
          [ "BL8UezRpyYuiE73ErhmEKGiqdCMoC6UCKmiiF4qc6R62Ya12Ef4" ] },
      { "delegate": "tz1RV1MBbZMR68tacosb7Mwj6LkbPSUS1er1",
        "reception_time": "2022-01-20T02:44:01.059-00:00",
        "included_in_blocks":
          [ "BL8UezRpyYuiE73ErhmEKGiqdCMoC6UCKmiiF4qc6R62Ya12Ef4" ] },
      { "delegate": "tz1ibcPVGK4Y8pcW4BYUsojiHoBKnZbyDGrX" },
      { "delegate": "tz1RjoHc98dBoqaH2jawF62XNKh7YsHwbkEv" },
      { "delegate": "tz1P6WKJu2rcbxKiKRZHKQKmKrpC9TfW1AwM" } ] }