{ "blocks":
    [ { "hash": "BLEMU2XiPLsobWXdY9q6aNyRXrHhwRkggwQjoR1h7RGHtkQ6UQq",
        "delegate": "tz3S6BBeKgJGXxvLyZ1xzXzMPn11nnFtq5L9",
        "reception_time": "2022-01-19T19:13:42.197-00:00",
        "timestamp": "2022-01-19T19:13:30Z" } ],
  "endorsements":
    [ { "delegate": "tz1aPodrKJn2YbrvXgYqnM5o3QFoUt9n4nr5" },
      { "delegate": "tz1VmiY38m3y95HqQLjMwqnMS7sdMfGomzKi",
        "reception_time": "2022-01-19T19:13:42.117-00:00",
        "errors":
          [ { "kind": "temporary",
              "id": "proto.011-PtHangz2.prefilter.outdated_endorsement" } ],
        "included_in_blocks":
          [ "BLQ4zHTgwH4SB1j4kPaEpsx27FWnLjuKfHtQLXSnLezawn8SmRk" ] },
      { "delegate": "tz1irJKkXS2DBWkU1NnmFQx1c1L7pbGg4yhk",
        "reception_time": "2022-01-19T19:13:42.091-00:00",
        "errors":
          [ { "kind": "temporary",
              "id": "proto.011-PtHangz2.prefilter.outdated_endorsement" } ],
        "included_in_blocks":
          [ "BLQ4zHTgwH4SB1j4kPaEpsx27FWnLjuKfHtQLXSnLezawn8SmRk" ] },
      { "delegate": "tz1eEnQhbwf6trb8Q8mPb2RaPkNk2rN7BKi8",
        "reception_time": "2022-01-19T19:13:41.976-00:00",
        "errors":
          [ { "kind": "temporary",
              "id": "proto.011-PtHangz2.prefilter.outdated_endorsement" } ],
        "included_in_blocks":
          [ "BLQ4zHTgwH4SB1j4kPaEpsx27FWnLjuKfHtQLXSnLezawn8SmRk" ] },
      { "delegate": "tz1STeamwbp68THcny9zk3LsbG3H36DMvbRK",
        "reception_time": "2022-01-19T19:13:41.866-00:00",
        "errors":
          [ { "kind": "temporary",
              "id": "proto.011-PtHangz2.prefilter.outdated_endorsement" } ],
        "included_in_blocks":
          [ "BLQ4zHTgwH4SB1j4kPaEpsx27FWnLjuKfHtQLXSnLezawn8SmRk" ] },
      { "delegate": "tz1Ldzz6k1BHdhuKvAtMRX7h5kJSMHESMHLC",
        "reception_time": "2022-01-19T19:13:41.851-00:00",
        "errors":
          [ { "kind": "temporary",
              "id": "proto.011-PtHangz2.prefilter.outdated_endorsement" } ],
        "included_in_blocks":
          [ "BLQ4zHTgwH4SB1j4kPaEpsx27FWnLjuKfHtQLXSnLezawn8SmRk" ] },
      { "delegate": "tz1TXzyaKUA8wsWefdSnyaYFnV2M3vCV7er9",
        "reception_time": "2022-01-19T19:13:41.821-00:00",
        "errors":
          [ { "kind": "temporary",
              "id": "proto.011-PtHangz2.prefilter.outdated_endorsement" } ],
        "included_in_blocks":
          [ "BLQ4zHTgwH4SB1j4kPaEpsx27FWnLjuKfHtQLXSnLezawn8SmRk" ] },
      { "delegate": "tz1P2Po7YM526ughEsRbY4oR9zaUPDZjxFrb",
        "reception_time": "2022-01-19T19:13:41.520-00:00",
        "errors":
          [ { "kind": "temporary",
              "id": "proto.011-PtHangz2.prefilter.outdated_endorsement" } ],
        "included_in_blocks":
          [ "BLQ4zHTgwH4SB1j4kPaEpsx27FWnLjuKfHtQLXSnLezawn8SmRk" ] },
      { "delegate": "tz1Scdr2HsZiQjc7bHMeBbmDRXYVvdhjJbBh",
        "reception_time": "2022-01-19T19:13:41.323-00:00",
        "errors":
          [ { "kind": "temporary",
              "id": "proto.011-PtHangz2.prefilter.outdated_endorsement" } ],
        "included_in_blocks":
          [ "BLQ4zHTgwH4SB1j4kPaEpsx27FWnLjuKfHtQLXSnLezawn8SmRk" ] },
      { "delegate": "tz1VQnqCCqX4K5sP3FNkVSNKTdCAMJDd3E1n",
        "reception_time": "2022-01-19T19:13:41.323-00:00",
        "errors":
          [ { "kind": "temporary",
              "id": "proto.011-PtHangz2.prefilter.outdated_endorsement" } ],
        "included_in_blocks":
          [ "BLQ4zHTgwH4SB1j4kPaEpsx27FWnLjuKfHtQLXSnLezawn8SmRk" ] },
      { "delegate": "tz1gUNyn3hmnEWqkusWPzxRaon1cs7ndWh7h",
        "reception_time": "2022-01-19T19:13:41.319-00:00",
        "errors":
          [ { "kind": "temporary",
              "id": "proto.011-PtHangz2.prefilter.outdated_endorsement" } ],
        "included_in_blocks":
          [ "BLQ4zHTgwH4SB1j4kPaEpsx27FWnLjuKfHtQLXSnLezawn8SmRk" ] },
      { "delegate": "tz1S8e9GgdZG78XJRB3NqabfWeM37GnhZMWQ",
        "reception_time": "2022-01-19T19:13:40.382-00:00",
        "errors":
          [ { "kind": "temporary",
              "id": "proto.011-PtHangz2.prefilter.outdated_endorsement" } ],
        "included_in_blocks":
          [ "BLQ4zHTgwH4SB1j4kPaEpsx27FWnLjuKfHtQLXSnLezawn8SmRk" ] },
      { "delegate": "tz1aRoaRhSpRYvFdyvgWLL6TGyRoGF51wDjM",
        "reception_time": "2022-01-19T19:13:50.596-00:00",
        "included_in_blocks":
          [ "BLQ4zHTgwH4SB1j4kPaEpsx27FWnLjuKfHtQLXSnLezawn8SmRk" ] },
      { "delegate": "tz1SUgyRB8T5jXgXAwS33pgRHAKrafyg87Yc",
        "reception_time": "2022-01-19T19:13:46.657-00:00",
        "included_in_blocks":
          [ "BLQ4zHTgwH4SB1j4kPaEpsx27FWnLjuKfHtQLXSnLezawn8SmRk" ] },
      { "delegate": "tz3NExpXn9aPNZPorRE4SdjJ2RGrfbJgMAaV",
        "reception_time": "2022-01-19T19:13:46.739-00:00",
        "included_in_blocks":
          [ "BLQ4zHTgwH4SB1j4kPaEpsx27FWnLjuKfHtQLXSnLezawn8SmRk" ] },
      { "delegate": "tz1bTpviNnyx2PXsNmGpCQTMQsGoYordkUoA",
        "reception_time": "2022-01-19T19:13:47.085-00:00",
        "included_in_blocks":
          [ "BLQ4zHTgwH4SB1j4kPaEpsx27FWnLjuKfHtQLXSnLezawn8SmRk" ] },
      { "delegate": "tz3UoffC7FG7zfpmvmjUmUeAaHvzdcUvAj6r",
        "reception_time": "2022-01-19T19:13:46.178-00:00",
        "included_in_blocks":
          [ "BLQ4zHTgwH4SB1j4kPaEpsx27FWnLjuKfHtQLXSnLezawn8SmRk" ] },
      { "delegate": "tz3bvNMQ95vfAYtG8193ymshqjSvmxiCUuR5",
        "reception_time": "2022-01-19T19:13:46.160-00:00",
        "included_in_blocks":
          [ "BLQ4zHTgwH4SB1j4kPaEpsx27FWnLjuKfHtQLXSnLezawn8SmRk" ] },
      { "delegate": "tz1SohptP53wDPZhzTWzDUFAUcWF6DMBpaJV",
        "reception_time": "2022-01-19T19:13:46.226-00:00",
        "included_in_blocks":
          [ "BLQ4zHTgwH4SB1j4kPaEpsx27FWnLjuKfHtQLXSnLezawn8SmRk" ] },
      { "delegate": "tz3RDC3Jdn4j15J7bBHZd29EUee9gVB1CxD9",
        "reception_time": "2022-01-19T19:13:45.868-00:00",
        "included_in_blocks":
          [ "BLQ4zHTgwH4SB1j4kPaEpsx27FWnLjuKfHtQLXSnLezawn8SmRk" ] },
      { "delegate": "tz1Xsrfv6hn86fp88YfRs6xcKwt2nTqxVZYM",
        "reception_time": "2022-01-19T19:13:45.928-00:00",
        "included_in_blocks":
          [ "BLQ4zHTgwH4SB1j4kPaEpsx27FWnLjuKfHtQLXSnLezawn8SmRk" ] },
      { "delegate": "tz3WMqdzXqRWXwyvj5Hp2H7QEepaUuS7vd9K",
        "reception_time": "2022-01-19T19:13:45.478-00:00",
        "included_in_blocks":
          [ "BLQ4zHTgwH4SB1j4kPaEpsx27FWnLjuKfHtQLXSnLezawn8SmRk" ] },
      { "delegate": "tz3VEZ4k6a4Wx42iyev6i2aVAptTRLEAivNN",
        "reception_time": "2022-01-19T19:13:45.568-00:00",
        "included_in_blocks":
          [ "BLQ4zHTgwH4SB1j4kPaEpsx27FWnLjuKfHtQLXSnLezawn8SmRk" ] },
      { "delegate": "tz1ZcTRk5uxD86EFEn1vvNffWWqJy7q5eVhc",
        "reception_time": "2022-01-19T19:13:45.375-00:00",
        "included_in_blocks":
          [ "BLQ4zHTgwH4SB1j4kPaEpsx27FWnLjuKfHtQLXSnLezawn8SmRk" ] },
      { "delegate": "tz1RzwaogUQ8zPntqrSn4yn5f3VquXfEH5Jo",
        "reception_time": "2022-01-19T19:13:45.380-00:00",
        "included_in_blocks":
          [ "BLQ4zHTgwH4SB1j4kPaEpsx27FWnLjuKfHtQLXSnLezawn8SmRk" ] },
      { "delegate": "tz1cM8Xc7ZP1TrjkTeKq4PeRhtbnwXSBR6Sw",
        "reception_time": "2022-01-19T19:13:45.468-00:00",
        "included_in_blocks":
          [ "BLQ4zHTgwH4SB1j4kPaEpsx27FWnLjuKfHtQLXSnLezawn8SmRk" ] },
      { "delegate": "tz1WBfwbT66FC6BTLexc2BoyCCBM9LG7pnVW",
        "reception_time": "2022-01-19T19:13:44.920-00:00",
        "included_in_blocks":
          [ "BLQ4zHTgwH4SB1j4kPaEpsx27FWnLjuKfHtQLXSnLezawn8SmRk" ] },
      { "delegate": "tz1NSDFKuRyzHxpfG1AMkyCwEiZ52cbR2mRW",
        "reception_time": "2022-01-19T19:13:45.013-00:00",
        "included_in_blocks":
          [ "BLQ4zHTgwH4SB1j4kPaEpsx27FWnLjuKfHtQLXSnLezawn8SmRk" ] },
      { "delegate": "tz1dRKU4FQ9QRRQPdaH4zCR6gmCmXfcvcgtB",
        "reception_time": "2022-01-19T19:13:44.618-00:00",
        "included_in_blocks":
          [ "BLQ4zHTgwH4SB1j4kPaEpsx27FWnLjuKfHtQLXSnLezawn8SmRk" ] },
      { "delegate": "tz1Qy1zwn1DSapdsHZSNYDqV5CscnUoSkXCo",
        "reception_time": "2022-01-19T19:13:44.653-00:00",
        "included_in_blocks":
          [ "BLQ4zHTgwH4SB1j4kPaEpsx27FWnLjuKfHtQLXSnLezawn8SmRk" ] },
      { "delegate": "tz3bTdwZinP8U1JmSweNzVKhmwafqWmFWRfk",
        "reception_time": "2022-01-19T19:13:44.479-00:00",
        "included_in_blocks":
          [ "BLQ4zHTgwH4SB1j4kPaEpsx27FWnLjuKfHtQLXSnLezawn8SmRk" ] },
      { "delegate": "tz3RB4aoyjov4KEVRbuhvQ1CKJgBJMWhaeB8",
        "reception_time": "2022-01-19T19:13:44.426-00:00",
        "included_in_blocks":
          [ "BLQ4zHTgwH4SB1j4kPaEpsx27FWnLjuKfHtQLXSnLezawn8SmRk" ] },
      { "delegate": "tz1Tnjaxk6tbAeC2TmMApPh8UsrEVQvhHvx5",
        "reception_time": "2022-01-19T19:13:44.384-00:00",
        "included_in_blocks":
          [ "BLQ4zHTgwH4SB1j4kPaEpsx27FWnLjuKfHtQLXSnLezawn8SmRk" ] },
      { "delegate": "tz1c8JTzmA6c7cm6ZmUwR7WES6akdiMa1kwt",
        "reception_time": "2022-01-19T19:13:44.400-00:00",
        "included_in_blocks":
          [ "BLQ4zHTgwH4SB1j4kPaEpsx27FWnLjuKfHtQLXSnLezawn8SmRk" ] },
      { "delegate": "tz1RCFbB9GpALpsZtu6J58sb74dm8qe6XBzv",
        "reception_time": "2022-01-19T19:13:44.404-00:00",
        "included_in_blocks":
          [ "BLQ4zHTgwH4SB1j4kPaEpsx27FWnLjuKfHtQLXSnLezawn8SmRk" ] },
      { "delegate": "tz1UMCB2AHSTwG7YcGNr31CqYCtGN873royv",
        "reception_time": "2022-01-19T19:13:44.392-00:00",
        "included_in_blocks":
          [ "BLQ4zHTgwH4SB1j4kPaEpsx27FWnLjuKfHtQLXSnLezawn8SmRk" ] },
      { "delegate": "tz1NEKxGEHsFufk87CVZcrqWu8o22qh46GK6",
        "reception_time": "2022-01-19T19:13:44.397-00:00",
        "included_in_blocks":
          [ "BLQ4zHTgwH4SB1j4kPaEpsx27FWnLjuKfHtQLXSnLezawn8SmRk" ] },
      { "delegate": "tz1S8MNvuFEUsWgjHvi3AxibRBf388NhT1q2",
        "reception_time": "2022-01-19T19:13:44.325-00:00",
        "included_in_blocks":
          [ "BLQ4zHTgwH4SB1j4kPaEpsx27FWnLjuKfHtQLXSnLezawn8SmRk" ] },
      { "delegate": "tz2FCNBrERXtaTtNX6iimR1UJ5JSDxvdHM93",
        "reception_time": "2022-01-19T19:13:44.354-00:00",
        "included_in_blocks":
          [ "BLQ4zHTgwH4SB1j4kPaEpsx27FWnLjuKfHtQLXSnLezawn8SmRk" ] },
      { "delegate": "tz1gfArv665EUkSg2ojMBzcbfwuPxAvqPvjo",
        "reception_time": "2022-01-19T19:13:44.369-00:00",
        "included_in_blocks":
          [ "BLQ4zHTgwH4SB1j4kPaEpsx27FWnLjuKfHtQLXSnLezawn8SmRk" ] },
      { "delegate": "tz1PWCDnz783NNGGQjEFFsHtrcK5yBW4E2rm",
        "reception_time": "2022-01-19T19:13:44.341-00:00",
        "included_in_blocks":
          [ "BLQ4zHTgwH4SB1j4kPaEpsx27FWnLjuKfHtQLXSnLezawn8SmRk" ] },
      { "delegate": "tz1MDSg9ycDZmRxDqymSmHsWUgozhTvYskPi",
        "reception_time": "2022-01-19T19:13:44.358-00:00",
        "included_in_blocks":
          [ "BLQ4zHTgwH4SB1j4kPaEpsx27FWnLjuKfHtQLXSnLezawn8SmRk" ] },
      { "delegate": "tz1UJvHTgpVzcKWhTazGxVcn5wsHru5Gietg",
        "reception_time": "2022-01-19T19:13:44.338-00:00",
        "included_in_blocks":
          [ "BLQ4zHTgwH4SB1j4kPaEpsx27FWnLjuKfHtQLXSnLezawn8SmRk" ] },
      { "delegate": "tz3hw2kqXhLUvY65ca1eety2oQTpAvd34R9Q",
        "reception_time": "2022-01-19T19:13:44.334-00:00",
        "included_in_blocks":
          [ "BLQ4zHTgwH4SB1j4kPaEpsx27FWnLjuKfHtQLXSnLezawn8SmRk" ] },
      { "delegate": "tz1KfEsrtDaA1sX7vdM4qmEPWuSytuqCDp5j",
        "reception_time": "2022-01-19T19:13:44.298-00:00",
        "included_in_blocks":
          [ "BLQ4zHTgwH4SB1j4kPaEpsx27FWnLjuKfHtQLXSnLezawn8SmRk" ] },
      { "delegate": "tz3RKYFsLuQzKBtmYuLNas7uMu3AsYd4QdsA",
        "reception_time": "2022-01-19T19:13:44.298-00:00",
        "included_in_blocks":
          [ "BLQ4zHTgwH4SB1j4kPaEpsx27FWnLjuKfHtQLXSnLezawn8SmRk" ] },
      { "delegate": "tz1LnWa4AiFCjMezTgSNa65QFoo7DQGEWgEU",
        "reception_time": "2022-01-19T19:13:44.345-00:00",
        "included_in_blocks":
          [ "BLQ4zHTgwH4SB1j4kPaEpsx27FWnLjuKfHtQLXSnLezawn8SmRk" ] },
      { "delegate": "tz1SYq214SCBy9naR6cvycQsYcUGpBqQAE8d",
        "reception_time": "2022-01-19T19:13:44.352-00:00",
        "included_in_blocks":
          [ "BLQ4zHTgwH4SB1j4kPaEpsx27FWnLjuKfHtQLXSnLezawn8SmRk" ] },
      { "delegate": "tz1Nf6tsK4G6bBqgSQERy4nUtkHNKUVdh7q1",
        "reception_time": "2022-01-19T19:13:44.309-00:00",
        "included_in_blocks":
          [ "BLQ4zHTgwH4SB1j4kPaEpsx27FWnLjuKfHtQLXSnLezawn8SmRk" ] },
      { "delegate": "tz3S6BBeKgJGXxvLyZ1xzXzMPn11nnFtq5L9",
        "reception_time": "2022-01-19T19:13:44.317-00:00",
        "included_in_blocks":
          [ "BLQ4zHTgwH4SB1j4kPaEpsx27FWnLjuKfHtQLXSnLezawn8SmRk" ] },
      { "delegate": "tz1TEc75UKXv4W5cwi14Na3NtqFD51yKQi7h",
        "reception_time": "2022-01-19T19:13:44.288-00:00",
        "included_in_blocks":
          [ "BLQ4zHTgwH4SB1j4kPaEpsx27FWnLjuKfHtQLXSnLezawn8SmRk" ] },
      { "delegate": "tz3QT9dHYKDqh563chVa6za8526ys1UKfRfL",
        "reception_time": "2022-01-19T19:13:44.270-00:00",
        "included_in_blocks":
          [ "BLQ4zHTgwH4SB1j4kPaEpsx27FWnLjuKfHtQLXSnLezawn8SmRk" ] },
      { "delegate": "tz3Zhs2dygr55yHyQyKjntAtY9bgfhLZ4Xj1",
        "reception_time": "2022-01-19T19:13:44.309-00:00",
        "included_in_blocks":
          [ "BLQ4zHTgwH4SB1j4kPaEpsx27FWnLjuKfHtQLXSnLezawn8SmRk" ] },
      { "delegate": "tz3iJu5vrKZcsqRPs8yJ61UDoeEXZmtro4qh",
        "reception_time": "2022-01-19T19:13:44.285-00:00",
        "included_in_blocks":
          [ "BLQ4zHTgwH4SB1j4kPaEpsx27FWnLjuKfHtQLXSnLezawn8SmRk" ] },
      { "delegate": "tz3QSGPoRp3Kn7n3vY24eYeu3Peuqo45LQ4D",
        "reception_time": "2022-01-19T19:13:44.285-00:00",
        "included_in_blocks":
          [ "BLQ4zHTgwH4SB1j4kPaEpsx27FWnLjuKfHtQLXSnLezawn8SmRk" ] },
      { "delegate": "tz1MQMiZHV8q4tTwUMWmS5Y3kaP6J2136iXr",
        "reception_time": "2022-01-19T19:13:44.322-00:00",
        "included_in_blocks":
          [ "BLQ4zHTgwH4SB1j4kPaEpsx27FWnLjuKfHtQLXSnLezawn8SmRk" ] },
      { "delegate": "tz3gtoUxdudfBRcNY7iVdKPHCYYX6xdPpoRS",
        "reception_time": "2022-01-19T19:13:44.262-00:00",
        "included_in_blocks":
          [ "BLQ4zHTgwH4SB1j4kPaEpsx27FWnLjuKfHtQLXSnLezawn8SmRk" ] },
      { "delegate": "tz1fb7c66UwePkkfDXz4ajFaBP9hVNLdS7JJ",
        "reception_time": "2022-01-19T19:13:44.262-00:00",
        "included_in_blocks":
          [ "BLQ4zHTgwH4SB1j4kPaEpsx27FWnLjuKfHtQLXSnLezawn8SmRk" ] },
      { "delegate": "tz1TRspM5SeZpaQUhzByXbEvqKF1vnCM2YTK",
        "reception_time": "2022-01-19T19:13:44.270-00:00",
        "included_in_blocks":
          [ "BLQ4zHTgwH4SB1j4kPaEpsx27FWnLjuKfHtQLXSnLezawn8SmRk" ] },
      { "delegate": "tz3ZbP2pM3nwvXztbuMJwJnDvV5xdpU8UkkD",
        "reception_time": "2022-01-19T19:13:44.262-00:00",
        "included_in_blocks":
          [ "BLQ4zHTgwH4SB1j4kPaEpsx27FWnLjuKfHtQLXSnLezawn8SmRk" ] },
      { "delegate": "tz1ei4WtWEMEJekSv8qDnu9PExG6Q8HgRGr3",
        "reception_time": "2022-01-19T19:13:44.262-00:00",
        "included_in_blocks":
          [ "BLQ4zHTgwH4SB1j4kPaEpsx27FWnLjuKfHtQLXSnLezawn8SmRk" ] },
      { "delegate": "tz1beersuEDv8Z7ngQ825xfbaJNS2EhXnyHR",
        "reception_time": "2022-01-19T19:13:44.262-00:00",
        "included_in_blocks":
          [ "BLQ4zHTgwH4SB1j4kPaEpsx27FWnLjuKfHtQLXSnLezawn8SmRk" ] },
      { "delegate": "tz3NxTnke1acr8o3h5y9ytf5awQBGNJUKzVU",
        "reception_time": "2022-01-19T19:13:44.262-00:00",
        "included_in_blocks":
          [ "BLQ4zHTgwH4SB1j4kPaEpsx27FWnLjuKfHtQLXSnLezawn8SmRk" ] },
      { "delegate": "tz1TzaNn7wSQSP5gYPXCnNzBCpyMiidCq1PX",
        "reception_time": "2022-01-19T19:13:44.262-00:00",
        "included_in_blocks":
          [ "BLQ4zHTgwH4SB1j4kPaEpsx27FWnLjuKfHtQLXSnLezawn8SmRk" ] },
      { "delegate": "tz1aXD7Jigrt3PBYSpHSg5Rr33SexMmmM5Ys",
        "reception_time": "2022-01-19T19:13:43.703-00:00",
        "included_in_blocks":
          [ "BLQ4zHTgwH4SB1j4kPaEpsx27FWnLjuKfHtQLXSnLezawn8SmRk" ] } ] }