{ "blocks":
    [ { "hash": "BLdW1wxsNJgYtKkqyuKkmhEbaSwcwxJBGrrZhhmLt59ExFC7QSE",
        "delegate": "tz1aRoaRhSpRYvFdyvgWLL6TGyRoGF51wDjM",
        "reception_time": "2022-01-19T20:56:32.453-00:00",
        "timestamp": "2022-01-19T20:56:10Z" } ],
  "endorsements":
    [ { "delegate": "tz1dUpfvjmAX3HLYvYhAwb94qe7nJodJr51c",
        "reception_time": "2022-01-19T20:56:35.462-00:00",
        "included_in_blocks":
          [ "BLvSAGYbttUPrTz5m6NEagD6La4Td8yQ8fUmTQ2TAUbvz1iwgqU" ] },
      { "delegate": "tz1eEnQhbwf6trb8Q8mPb2RaPkNk2rN7BKi8",
        "reception_time": "2022-01-19T20:56:36.131-00:00",
        "included_in_blocks":
          [ "BLvSAGYbttUPrTz5m6NEagD6La4Td8yQ8fUmTQ2TAUbvz1iwgqU" ] },
      { "delegate": "tz1beersuEDv8Z7ngQ825xfbaJNS2EhXnyHR",
        "reception_time": "2022-01-19T20:56:36.131-00:00",
        "included_in_blocks":
          [ "BLvSAGYbttUPrTz5m6NEagD6La4Td8yQ8fUmTQ2TAUbvz1iwgqU" ] },
      { "delegate": "tz1ei4WtWEMEJekSv8qDnu9PExG6Q8HgRGr3",
        "reception_time": "2022-01-19T20:56:36.131-00:00",
        "included_in_blocks":
          [ "BLvSAGYbttUPrTz5m6NEagD6La4Td8yQ8fUmTQ2TAUbvz1iwgqU" ] },
      { "delegate": "tz1TzaNn7wSQSP5gYPXCnNzBCpyMiidCq1PX",
        "reception_time": "2022-01-19T20:56:36.131-00:00",
        "included_in_blocks":
          [ "BLvSAGYbttUPrTz5m6NEagD6La4Td8yQ8fUmTQ2TAUbvz1iwgqU" ] },
      { "delegate": "tz1PWCDnz783NNGGQjEFFsHtrcK5yBW4E2rm",
        "reception_time": "2022-01-19T20:56:36.131-00:00",
        "included_in_blocks":
          [ "BLvSAGYbttUPrTz5m6NEagD6La4Td8yQ8fUmTQ2TAUbvz1iwgqU" ] },
      { "delegate": "tz1YsFfbT76a69Co3CkmuvYsphKZuHCNksp7",
        "reception_time": "2022-01-19T20:56:36.267-00:00",
        "included_in_blocks":
          [ "BLvSAGYbttUPrTz5m6NEagD6La4Td8yQ8fUmTQ2TAUbvz1iwgqU" ] },
      { "delegate": "tz1Nf6tsK4G6bBqgSQERy4nUtkHNKUVdh7q1",
        "reception_time": "2022-01-19T20:56:36.131-00:00",
        "included_in_blocks":
          [ "BLvSAGYbttUPrTz5m6NEagD6La4Td8yQ8fUmTQ2TAUbvz1iwgqU" ] },
      { "delegate": "tz1TEc75UKXv4W5cwi14Na3NtqFD51yKQi7h",
        "reception_time": "2022-01-19T20:56:36.267-00:00",
        "included_in_blocks":
          [ "BLvSAGYbttUPrTz5m6NEagD6La4Td8yQ8fUmTQ2TAUbvz1iwgqU" ] },
      { "delegate": "tz1fb7c66UwePkkfDXz4ajFaBP9hVNLdS7JJ",
        "reception_time": "2022-01-19T20:56:36.131-00:00",
        "included_in_blocks":
          [ "BLvSAGYbttUPrTz5m6NEagD6La4Td8yQ8fUmTQ2TAUbvz1iwgqU" ] },
      { "delegate": "tz1KfEsrtDaA1sX7vdM4qmEPWuSytuqCDp5j",
        "reception_time": "2022-01-19T20:56:36.267-00:00",
        "included_in_blocks":
          [ "BLvSAGYbttUPrTz5m6NEagD6La4Td8yQ8fUmTQ2TAUbvz1iwgqU" ] },
      { "delegate": "tz1Kf25fX1VdmYGSEzwFy1wNmkbSEZ2V83sY",
        "reception_time": "2022-01-19T20:56:36.131-00:00",
        "included_in_blocks":
          [ "BLvSAGYbttUPrTz5m6NEagD6La4Td8yQ8fUmTQ2TAUbvz1iwgqU" ] },
      { "delegate": "tz3NxTnke1acr8o3h5y9ytf5awQBGNJUKzVU",
        "reception_time": "2022-01-19T20:56:36.541-00:00",
        "included_in_blocks":
          [ "BLvSAGYbttUPrTz5m6NEagD6La4Td8yQ8fUmTQ2TAUbvz1iwgqU" ] },
      { "delegate": "tz1RQhNh7iB9CZA7i3ifTWNwiGYVffponfbB",
        "reception_time": "2022-01-19T20:56:36.131-00:00",
        "included_in_blocks":
          [ "BLvSAGYbttUPrTz5m6NEagD6La4Td8yQ8fUmTQ2TAUbvz1iwgqU" ] },
      { "delegate": "tz3ZbP2pM3nwvXztbuMJwJnDvV5xdpU8UkkD",
        "reception_time": "2022-01-19T20:56:36.541-00:00",
        "included_in_blocks":
          [ "BLvSAGYbttUPrTz5m6NEagD6La4Td8yQ8fUmTQ2TAUbvz1iwgqU" ] },
      { "delegate": "tz1QLXqnfN51dkjeghXvKHkJfhvGiM5gK4tc",
        "reception_time": "2022-01-19T20:56:36.267-00:00",
        "included_in_blocks":
          [ "BLvSAGYbttUPrTz5m6NEagD6La4Td8yQ8fUmTQ2TAUbvz1iwgqU" ] },
      { "delegate": "tz1gfArv665EUkSg2ojMBzcbfwuPxAvqPvjo",
        "reception_time": "2022-01-19T20:56:36.541-00:00",
        "included_in_blocks":
          [ "BLvSAGYbttUPrTz5m6NEagD6La4Td8yQ8fUmTQ2TAUbvz1iwgqU" ] },
      { "delegate": "tz1MJx9vhaNRSimcuXPK2rW4fLccQnDAnVKJ",
        "reception_time": "2022-01-19T20:56:36.267-00:00",
        "included_in_blocks":
          [ "BLvSAGYbttUPrTz5m6NEagD6La4Td8yQ8fUmTQ2TAUbvz1iwgqU" ] },
      { "delegate": "tz1V4qCyvPKZ5UeqdH14HN42rxvNPQfc9UZg",
        "reception_time": "2022-01-19T20:56:36.267-00:00",
        "included_in_blocks":
          [ "BLvSAGYbttUPrTz5m6NEagD6La4Td8yQ8fUmTQ2TAUbvz1iwgqU" ] },
      { "delegate": "tz1dwu9aYb7CRNq4Y2zAjipdjFuSVKhHS8vA",
        "reception_time": "2022-01-19T20:56:36.267-00:00",
        "included_in_blocks":
          [ "BLvSAGYbttUPrTz5m6NEagD6La4Td8yQ8fUmTQ2TAUbvz1iwgqU" ] },
      { "delegate": "tz3iJu5vrKZcsqRPs8yJ61UDoeEXZmtro4qh",
        "reception_time": "2022-01-19T20:56:36.405-00:00",
        "included_in_blocks":
          [ "BLvSAGYbttUPrTz5m6NEagD6La4Td8yQ8fUmTQ2TAUbvz1iwgqU" ] },
      { "delegate": "tz3RKYFsLuQzKBtmYuLNas7uMu3AsYd4QdsA",
        "reception_time": "2022-01-19T20:56:36.795-00:00",
        "included_in_blocks":
          [ "BLvSAGYbttUPrTz5m6NEagD6La4Td8yQ8fUmTQ2TAUbvz1iwgqU" ] },
      { "delegate": "tz1g8vkmcde6sWKaG2NN9WKzCkDM6Rziq194",
        "reception_time": "2022-01-19T20:56:36.541-00:00",
        "included_in_blocks":
          [ "BLvSAGYbttUPrTz5m6NEagD6La4Td8yQ8fUmTQ2TAUbvz1iwgqU" ] },
      { "delegate": "tz1fwnfJNgiDACshK9avfRfFbMaXrs3ghoJa",
        "reception_time": "2022-01-19T20:56:36.541-00:00",
        "included_in_blocks":
          [ "BLvSAGYbttUPrTz5m6NEagD6La4Td8yQ8fUmTQ2TAUbvz1iwgqU" ] },
      { "delegate": "tz1T7duV5gZWSTq4YpBGbXNLTfznCLDrFxvs",
        "reception_time": "2022-01-19T20:56:36.267-00:00",
        "included_in_blocks":
          [ "BLvSAGYbttUPrTz5m6NEagD6La4Td8yQ8fUmTQ2TAUbvz1iwgqU" ] },
      { "delegate": "tz1UtayNgAX8QEJ3NoLptPzoPr9JiH3Cskzz",
        "reception_time": "2022-01-19T20:56:36.541-00:00",
        "included_in_blocks":
          [ "BLvSAGYbttUPrTz5m6NEagD6La4Td8yQ8fUmTQ2TAUbvz1iwgqU" ] },
      { "delegate": "tz3gtoUxdudfBRcNY7iVdKPHCYYX6xdPpoRS",
        "reception_time": "2022-01-19T20:56:36.795-00:00",
        "included_in_blocks":
          [ "BLvSAGYbttUPrTz5m6NEagD6La4Td8yQ8fUmTQ2TAUbvz1iwgqU" ] },
      { "delegate": "tz1Tnjaxk6tbAeC2TmMApPh8UsrEVQvhHvx5",
        "reception_time": "2022-01-19T20:56:36.541-00:00",
        "included_in_blocks":
          [ "BLvSAGYbttUPrTz5m6NEagD6La4Td8yQ8fUmTQ2TAUbvz1iwgqU" ] },
      { "delegate": "tz3QSGPoRp3Kn7n3vY24eYeu3Peuqo45LQ4D",
        "reception_time": "2022-01-19T20:56:36.795-00:00",
        "included_in_blocks":
          [ "BLvSAGYbttUPrTz5m6NEagD6La4Td8yQ8fUmTQ2TAUbvz1iwgqU" ] },
      { "delegate": "tz3Zhs2dygr55yHyQyKjntAtY9bgfhLZ4Xj1",
        "reception_time": "2022-01-19T20:56:36.541-00:00",
        "included_in_blocks":
          [ "BLvSAGYbttUPrTz5m6NEagD6La4Td8yQ8fUmTQ2TAUbvz1iwgqU" ] },
      { "delegate": "tz3hw2kqXhLUvY65ca1eety2oQTpAvd34R9Q",
        "reception_time": "2022-01-19T20:56:36.541-00:00",
        "included_in_blocks":
          [ "BLvSAGYbttUPrTz5m6NEagD6La4Td8yQ8fUmTQ2TAUbvz1iwgqU" ] },
      { "delegate": "tz1cYufsxHXJcvANhvS55h3aY32a9BAFB494",
        "reception_time": "2022-01-19T20:56:36.795-00:00",
        "included_in_blocks":
          [ "BLvSAGYbttUPrTz5m6NEagD6La4Td8yQ8fUmTQ2TAUbvz1iwgqU" ] },
      { "delegate": "tz3QT9dHYKDqh563chVa6za8526ys1UKfRfL",
        "reception_time": "2022-01-19T20:56:36.795-00:00",
        "included_in_blocks":
          [ "BLvSAGYbttUPrTz5m6NEagD6La4Td8yQ8fUmTQ2TAUbvz1iwgqU" ] },
      { "delegate": "tz1WBfwbT66FC6BTLexc2BoyCCBM9LG7pnVW",
        "reception_time": "2022-01-19T20:56:36.795-00:00",
        "included_in_blocks":
          [ "BLvSAGYbttUPrTz5m6NEagD6La4Td8yQ8fUmTQ2TAUbvz1iwgqU" ] },
      { "delegate": "tz3e7LbZvUtoXhpUD1yb6wuFodZpfYRb9nWJ",
        "reception_time": "2022-01-19T20:56:36.795-00:00",
        "included_in_blocks":
          [ "BLvSAGYbttUPrTz5m6NEagD6La4Td8yQ8fUmTQ2TAUbvz1iwgqU" ] },
      { "delegate": "tz1RCFbB9GpALpsZtu6J58sb74dm8qe6XBzv",
        "reception_time": "2022-01-19T20:56:36.795-00:00",
        "included_in_blocks":
          [ "BLvSAGYbttUPrTz5m6NEagD6La4Td8yQ8fUmTQ2TAUbvz1iwgqU" ] },
      { "delegate": "tz1PeZx7FXy7QRuMREGXGxeipb24RsMMzUNe",
        "reception_time": "2022-01-19T20:56:36.795-00:00",
        "included_in_blocks":
          [ "BLvSAGYbttUPrTz5m6NEagD6La4Td8yQ8fUmTQ2TAUbvz1iwgqU" ] },
      { "delegate": "tz1hAYfexyzPGG6RhZZMpDvAHifubsbb6kgn",
        "reception_time": "2022-01-19T20:56:36.795-00:00",
        "included_in_blocks":
          [ "BLvSAGYbttUPrTz5m6NEagD6La4Td8yQ8fUmTQ2TAUbvz1iwgqU" ] },
      { "delegate": "tz2FCNBrERXtaTtNX6iimR1UJ5JSDxvdHM93",
        "reception_time": "2022-01-19T20:56:36.795-00:00",
        "included_in_blocks":
          [ "BLvSAGYbttUPrTz5m6NEagD6La4Td8yQ8fUmTQ2TAUbvz1iwgqU" ] },
      { "delegate": "tz3S6BBeKgJGXxvLyZ1xzXzMPn11nnFtq5L9",
        "reception_time": "2022-01-19T20:56:36.795-00:00",
        "included_in_blocks":
          [ "BLvSAGYbttUPrTz5m6NEagD6La4Td8yQ8fUmTQ2TAUbvz1iwgqU" ] },
      { "delegate": "tz1UJvHTgpVzcKWhTazGxVcn5wsHru5Gietg",
        "reception_time": "2022-01-19T20:56:36.795-00:00",
        "included_in_blocks":
          [ "BLvSAGYbttUPrTz5m6NEagD6La4Td8yQ8fUmTQ2TAUbvz1iwgqU" ] },
      { "delegate": "tz1fPKAtsYydh4f1wfWNfeNxWYu72TmM48fu",
        "reception_time": "2022-01-19T20:56:36.795-00:00",
        "included_in_blocks":
          [ "BLvSAGYbttUPrTz5m6NEagD6La4Td8yQ8fUmTQ2TAUbvz1iwgqU" ] },
      { "delegate": "tz3bTdwZinP8U1JmSweNzVKhmwafqWmFWRfk",
        "reception_time": "2022-01-19T20:56:36.795-00:00",
        "included_in_blocks":
          [ "BLvSAGYbttUPrTz5m6NEagD6La4Td8yQ8fUmTQ2TAUbvz1iwgqU" ] },
      { "delegate": "tz1S8MNvuFEUsWgjHvi3AxibRBf388NhT1q2",
        "reception_time": "2022-01-19T20:56:36.795-00:00",
        "included_in_blocks":
          [ "BLvSAGYbttUPrTz5m6NEagD6La4Td8yQ8fUmTQ2TAUbvz1iwgqU" ] },
      { "delegate": "tz3RB4aoyjov4KEVRbuhvQ1CKJgBJMWhaeB8",
        "reception_time": "2022-01-19T20:56:36.795-00:00",
        "included_in_blocks":
          [ "BLvSAGYbttUPrTz5m6NEagD6La4Td8yQ8fUmTQ2TAUbvz1iwgqU" ] },
      { "delegate": "tz1NdhRv643wLW6zCcRP3VfT24dvDnh7nuh9",
        "reception_time": "2022-01-19T20:56:36.795-00:00",
        "included_in_blocks":
          [ "BLvSAGYbttUPrTz5m6NEagD6La4Td8yQ8fUmTQ2TAUbvz1iwgqU" ] },
      { "delegate": "tz1TRqbYbUf2GyrjErf3hBzgBJPzW8y36qEs",
        "reception_time": "2022-01-19T20:56:36.795-00:00",
        "included_in_blocks":
          [ "BLvSAGYbttUPrTz5m6NEagD6La4Td8yQ8fUmTQ2TAUbvz1iwgqU" ] },
      { "delegate": "tz3UoffC7FG7zfpmvmjUmUeAaHvzdcUvAj6r",
        "reception_time": "2022-01-19T20:56:36.845-00:00",
        "included_in_blocks":
          [ "BLvSAGYbttUPrTz5m6NEagD6La4Td8yQ8fUmTQ2TAUbvz1iwgqU" ] },
      { "delegate": "tz1LmaFsWRkjr7QMCx5PtV6xTUz3AmEpKQiF",
        "reception_time": "2022-01-19T20:56:36.839-00:00",
        "included_in_blocks":
          [ "BLvSAGYbttUPrTz5m6NEagD6La4Td8yQ8fUmTQ2TAUbvz1iwgqU" ] },
      { "delegate": "tz3gLTu4Yxj8tPAcriQVUdxv6BY9QyvzU1az",
        "reception_time": "2022-01-19T20:56:36.862-00:00",
        "included_in_blocks":
          [ "BLvSAGYbttUPrTz5m6NEagD6La4Td8yQ8fUmTQ2TAUbvz1iwgqU" ] },
      { "delegate": "tz3WMqdzXqRWXwyvj5Hp2H7QEepaUuS7vd9K",
        "reception_time": "2022-01-19T20:56:36.940-00:00",
        "included_in_blocks":
          [ "BLvSAGYbttUPrTz5m6NEagD6La4Td8yQ8fUmTQ2TAUbvz1iwgqU" ] },
      { "delegate": "tz3NDpRj6WBrJPikcPVHRBEjWKxFw3c6eQPS",
        "reception_time": "2022-01-19T20:56:36.884-00:00",
        "included_in_blocks":
          [ "BLvSAGYbttUPrTz5m6NEagD6La4Td8yQ8fUmTQ2TAUbvz1iwgqU" ] },
      { "delegate": "tz3VEZ4k6a4Wx42iyev6i2aVAptTRLEAivNN",
        "reception_time": "2022-01-19T20:56:36.991-00:00",
        "included_in_blocks":
          [ "BLvSAGYbttUPrTz5m6NEagD6La4Td8yQ8fUmTQ2TAUbvz1iwgqU" ] },
      { "delegate": "tz3RDC3Jdn4j15J7bBHZd29EUee9gVB1CxD9",
        "reception_time": "2022-01-19T20:56:37.609-00:00",
        "included_in_blocks":
          [ "BLvSAGYbttUPrTz5m6NEagD6La4Td8yQ8fUmTQ2TAUbvz1iwgqU" ] },
      { "delegate": "tz3bvNMQ95vfAYtG8193ymshqjSvmxiCUuR5",
        "reception_time": "2022-01-19T20:56:37.809-00:00",
        "included_in_blocks":
          [ "BLvSAGYbttUPrTz5m6NEagD6La4Td8yQ8fUmTQ2TAUbvz1iwgqU" ] },
      { "delegate": "tz3NExpXn9aPNZPorRE4SdjJ2RGrfbJgMAaV",
        "reception_time": "2022-01-19T20:56:37.844-00:00",
        "included_in_blocks":
          [ "BLvSAGYbttUPrTz5m6NEagD6La4Td8yQ8fUmTQ2TAUbvz1iwgqU" ] },
      { "delegate": "tz1Q8QkSBS63ZQnH3fBTiAMPes9R666Rn6Sc",
        "reception_time": "2022-01-19T20:56:38.666-00:00",
        "included_in_blocks":
          [ "BLvSAGYbttUPrTz5m6NEagD6La4Td8yQ8fUmTQ2TAUbvz1iwgqU" ] },
      { "delegate": "tz1iZEKy4LaAjnTmn2RuGDf2iqdAQKnRi8kY",
        "reception_time": "2022-01-19T20:56:30.314-00:00",
        "errors":
          [ { "kind": "temporary",
              "id": "proto.011-PtHangz2.prefilter.outdated_endorsement" } ],
        "included_in_blocks":
          [ "BLvSAGYbttUPrTz5m6NEagD6La4Td8yQ8fUmTQ2TAUbvz1iwgqU" ] },
      { "delegate": "tz1Scdr2HsZiQjc7bHMeBbmDRXYVvdhjJbBh",
        "reception_time": "2022-01-19T20:56:30.961-00:00",
        "errors":
          [ { "kind": "temporary",
              "id": "proto.011-PtHangz2.prefilter.outdated_endorsement" } ],
        "included_in_blocks":
          [ "BLvSAGYbttUPrTz5m6NEagD6La4Td8yQ8fUmTQ2TAUbvz1iwgqU" ] },
      { "delegate": "tz1Kt4P8BCaP93AEV4eA7gmpRryWt5hznjCP",
        "reception_time": "2022-01-19T20:56:31.201-00:00",
        "errors":
          [ { "kind": "temporary",
              "id": "proto.011-PtHangz2.prefilter.outdated_endorsement" } ],
        "included_in_blocks":
          [ "BLvSAGYbttUPrTz5m6NEagD6La4Td8yQ8fUmTQ2TAUbvz1iwgqU" ] },
      { "delegate": "tz1P2Po7YM526ughEsRbY4oR9zaUPDZjxFrb",
        "reception_time": "2022-01-19T20:56:31.322-00:00",
        "errors":
          [ { "kind": "temporary",
              "id": "proto.011-PtHangz2.prefilter.outdated_endorsement" } ],
        "included_in_blocks":
          [ "BLvSAGYbttUPrTz5m6NEagD6La4Td8yQ8fUmTQ2TAUbvz1iwgqU" ] },
      { "delegate": "tz1gUNyn3hmnEWqkusWPzxRaon1cs7ndWh7h",
        "reception_time": "2022-01-19T20:56:31.366-00:00",
        "errors":
          [ { "kind": "temporary",
              "id": "proto.011-PtHangz2.prefilter.outdated_endorsement" } ],
        "included_in_blocks":
          [ "BLvSAGYbttUPrTz5m6NEagD6La4Td8yQ8fUmTQ2TAUbvz1iwgqU" ] },
      { "delegate": "tz1VQnqCCqX4K5sP3FNkVSNKTdCAMJDd3E1n",
        "reception_time": "2022-01-19T20:56:31.416-00:00",
        "errors":
          [ { "kind": "temporary",
              "id": "proto.011-PtHangz2.prefilter.outdated_endorsement" } ],
        "included_in_blocks":
          [ "BLvSAGYbttUPrTz5m6NEagD6La4Td8yQ8fUmTQ2TAUbvz1iwgqU" ] },
      { "delegate": "tz1VmiY38m3y95HqQLjMwqnMS7sdMfGomzKi",
        "reception_time": "2022-01-19T20:56:31.519-00:00",
        "errors":
          [ { "kind": "temporary",
              "id": "proto.011-PtHangz2.prefilter.outdated_endorsement" } ],
        "included_in_blocks":
          [ "BLvSAGYbttUPrTz5m6NEagD6La4Td8yQ8fUmTQ2TAUbvz1iwgqU" ] },
      { "delegate": "tz1irJKkXS2DBWkU1NnmFQx1c1L7pbGg4yhk",
        "reception_time": "2022-01-19T20:56:31.569-00:00",
        "errors":
          [ { "kind": "temporary",
              "id": "proto.011-PtHangz2.prefilter.outdated_endorsement" } ],
        "included_in_blocks":
          [ "BLvSAGYbttUPrTz5m6NEagD6La4Td8yQ8fUmTQ2TAUbvz1iwgqU" ] },
      { "delegate": "tz1Ldzz6k1BHdhuKvAtMRX7h5kJSMHESMHLC",
        "reception_time": "2022-01-19T20:56:31.624-00:00",
        "errors":
          [ { "kind": "temporary",
              "id": "proto.011-PtHangz2.prefilter.outdated_endorsement" } ],
        "included_in_blocks":
          [ "BLvSAGYbttUPrTz5m6NEagD6La4Td8yQ8fUmTQ2TAUbvz1iwgqU" ] },
      { "delegate": "tz1Lhf4J9Qxoe3DZ2nfe8FGDnvVj7oKjnMY6",
        "reception_time": "2022-01-19T20:56:31.845-00:00",
        "errors":
          [ { "kind": "temporary",
              "id": "proto.011-PtHangz2.prefilter.outdated_endorsement" } ],
        "included_in_blocks":
          [ "BLvSAGYbttUPrTz5m6NEagD6La4Td8yQ8fUmTQ2TAUbvz1iwgqU" ] },
      { "delegate": "tz1aXD7Jigrt3PBYSpHSg5Rr33SexMmmM5Ys",
        "reception_time": "2022-01-19T20:56:31.873-00:00",
        "errors":
          [ { "kind": "temporary",
              "id": "proto.011-PtHangz2.prefilter.outdated_endorsement" } ],
        "included_in_blocks":
          [ "BLvSAGYbttUPrTz5m6NEagD6La4Td8yQ8fUmTQ2TAUbvz1iwgqU" ] },
      { "delegate": "tz1MXFrtZoaXckE41bjUCSjAjAap3AFDSr3N",
        "reception_time": "2022-01-19T20:56:32.039-00:00",
        "errors":
          [ { "kind": "temporary",
              "id": "proto.011-PtHangz2.prefilter.outdated_endorsement" } ],
        "included_in_blocks":
          [ "BLvSAGYbttUPrTz5m6NEagD6La4Td8yQ8fUmTQ2TAUbvz1iwgqU" ] },
      { "delegate": "tz1W5VkdB5s7ENMESVBtwyt9kyvLqPcUczRT" },
      { "delegate": "tz1awXW7wuXy21c66vBudMXQVAPgRnqqwgTH" },
      { "delegate": "tz1dbfppLAAxXZNtf2SDps7rch3qfUznKSoK" },
      { "delegate": "tz1gg5bjopPcr9agjamyu9BbXKLibNc2rbAq",
        "reception_time": "2022-01-19T20:56:43.245-00:00" },
      { "delegate": "tz1aRoaRhSpRYvFdyvgWLL6TGyRoGF51wDjM",
        "reception_time": "2022-01-19T20:56:44.204-00:00" } ] }