{ "blocks":
    [ { "hash": "BKydwC94Kgmrzo4fRRFNbh4zzcCceYNHX2o3DmyRzYxeMSsnqHb",
        "delegate": "tz1RCFbB9GpALpsZtu6J58sb74dm8qe6XBzv",
        "reception_time": "2022-01-19T19:21:42.939-00:00",
        "timestamp": "2022-01-19T19:21:30Z" } ],
  "endorsements":
    [ { "delegate": "tz1MXFrtZoaXckE41bjUCSjAjAap3AFDSr3N",
        "reception_time": "2022-01-19T19:21:42.647-00:00",
        "errors":
          [ { "kind": "temporary",
              "id": "proto.011-PtHangz2.prefilter.outdated_endorsement" } ],
        "included_in_blocks":
          [ "BLMyUB3C8tXqrK62u7dwecNWDGm16wrtV4ctXpWreF1tUajcvZe" ] },
      { "delegate": "tz1Lhf4J9Qxoe3DZ2nfe8FGDnvVj7oKjnMY6",
        "reception_time": "2022-01-19T19:21:42.565-00:00",
        "errors":
          [ { "kind": "temporary",
              "id": "proto.011-PtHangz2.prefilter.outdated_endorsement" } ],
        "included_in_blocks":
          [ "BLMyUB3C8tXqrK62u7dwecNWDGm16wrtV4ctXpWreF1tUajcvZe" ] },
      { "delegate": "tz3adcvQaKXTCg12zbninqo3q8ptKKtDFTLv",
        "reception_time": "2022-01-19T19:21:42.425-00:00",
        "errors":
          [ { "kind": "temporary",
              "id": "proto.011-PtHangz2.prefilter.outdated_endorsement" } ],
        "included_in_blocks":
          [ "BLMyUB3C8tXqrK62u7dwecNWDGm16wrtV4ctXpWreF1tUajcvZe" ] },
      { "delegate": "tz1irJKkXS2DBWkU1NnmFQx1c1L7pbGg4yhk",
        "reception_time": "2022-01-19T19:21:42.413-00:00",
        "errors":
          [ { "kind": "temporary",
              "id": "proto.011-PtHangz2.prefilter.outdated_endorsement" } ],
        "included_in_blocks":
          [ "BLMyUB3C8tXqrK62u7dwecNWDGm16wrtV4ctXpWreF1tUajcvZe" ] },
      { "delegate": "tz1gUNyn3hmnEWqkusWPzxRaon1cs7ndWh7h",
        "reception_time": "2022-01-19T19:21:42.277-00:00",
        "errors":
          [ { "kind": "temporary",
              "id": "proto.011-PtHangz2.prefilter.outdated_endorsement" } ],
        "included_in_blocks":
          [ "BLMyUB3C8tXqrK62u7dwecNWDGm16wrtV4ctXpWreF1tUajcvZe" ] },
      { "delegate": "tz1TXzyaKUA8wsWefdSnyaYFnV2M3vCV7er9",
        "reception_time": "2022-01-19T19:21:42.276-00:00",
        "errors":
          [ { "kind": "temporary",
              "id": "proto.011-PtHangz2.prefilter.outdated_endorsement" } ],
        "included_in_blocks":
          [ "BLMyUB3C8tXqrK62u7dwecNWDGm16wrtV4ctXpWreF1tUajcvZe" ] },
      { "delegate": "tz1Ldzz6k1BHdhuKvAtMRX7h5kJSMHESMHLC",
        "reception_time": "2022-01-19T19:21:42.234-00:00",
        "errors":
          [ { "kind": "temporary",
              "id": "proto.011-PtHangz2.prefilter.outdated_endorsement" } ],
        "included_in_blocks":
          [ "BLMyUB3C8tXqrK62u7dwecNWDGm16wrtV4ctXpWreF1tUajcvZe" ] },
      { "delegate": "tz1VQnqCCqX4K5sP3FNkVSNKTdCAMJDd3E1n",
        "reception_time": "2022-01-19T19:21:42.163-00:00",
        "errors":
          [ { "kind": "temporary",
              "id": "proto.011-PtHangz2.prefilter.outdated_endorsement" } ],
        "included_in_blocks":
          [ "BLMyUB3C8tXqrK62u7dwecNWDGm16wrtV4ctXpWreF1tUajcvZe" ] },
      { "delegate": "tz1bsdrs36X5BTH83RHUBdUouKLJZK8d2oBa",
        "reception_time": "2022-01-19T19:21:42.102-00:00",
        "errors":
          [ { "kind": "temporary",
              "id": "proto.011-PtHangz2.prefilter.outdated_endorsement" } ],
        "included_in_blocks":
          [ "BLMyUB3C8tXqrK62u7dwecNWDGm16wrtV4ctXpWreF1tUajcvZe" ] },
      { "delegate": "tz1P2Po7YM526ughEsRbY4oR9zaUPDZjxFrb",
        "reception_time": "2022-01-19T19:21:42.088-00:00",
        "errors":
          [ { "kind": "temporary",
              "id": "proto.011-PtHangz2.prefilter.outdated_endorsement" } ],
        "included_in_blocks":
          [ "BLMyUB3C8tXqrK62u7dwecNWDGm16wrtV4ctXpWreF1tUajcvZe" ] },
      { "delegate": "tz1ei4WtWEMEJekSv8qDnu9PExG6Q8HgRGr3",
        "reception_time": "2022-01-19T19:21:41.923-00:00",
        "errors":
          [ { "kind": "temporary",
              "id": "proto.011-PtHangz2.prefilter.outdated_endorsement" } ],
        "included_in_blocks":
          [ "BLMyUB3C8tXqrK62u7dwecNWDGm16wrtV4ctXpWreF1tUajcvZe" ] },
      { "delegate": "tz1RV1MBbZMR68tacosb7Mwj6LkbPSUS1er1",
        "reception_time": "2022-01-19T19:21:41.868-00:00",
        "errors":
          [ { "kind": "temporary",
              "id": "proto.011-PtHangz2.prefilter.outdated_endorsement" } ],
        "included_in_blocks":
          [ "BLMyUB3C8tXqrK62u7dwecNWDGm16wrtV4ctXpWreF1tUajcvZe" ] },
      { "delegate": "tz1Kt4P8BCaP93AEV4eA7gmpRryWt5hznjCP",
        "reception_time": "2022-01-19T19:21:41.588-00:00",
        "errors":
          [ { "kind": "temporary",
              "id": "proto.011-PtHangz2.prefilter.outdated_endorsement" } ],
        "included_in_blocks":
          [ "BLMyUB3C8tXqrK62u7dwecNWDGm16wrtV4ctXpWreF1tUajcvZe" ] },
      { "delegate": "tz1XfAjZyaLdceHnZxbMYop7g7kWKPut4PR7",
        "reception_time": "2022-01-19T19:21:41.436-00:00",
        "errors":
          [ { "kind": "temporary",
              "id": "proto.011-PtHangz2.prefilter.outdated_endorsement" } ],
        "included_in_blocks":
          [ "BLMyUB3C8tXqrK62u7dwecNWDGm16wrtV4ctXpWreF1tUajcvZe" ] },
      { "delegate": "tz1beersuEDv8Z7ngQ825xfbaJNS2EhXnyHR",
        "reception_time": "2022-01-19T19:21:46.672-00:00",
        "included_in_blocks":
          [ "BLMyUB3C8tXqrK62u7dwecNWDGm16wrtV4ctXpWreF1tUajcvZe" ] },
      { "delegate": "tz1WCd2jm4uSt4vntk4vSuUWoZQGhLcDuR9q",
        "reception_time": "2022-01-19T19:21:46.672-00:00",
        "included_in_blocks":
          [ "BLMyUB3C8tXqrK62u7dwecNWDGm16wrtV4ctXpWreF1tUajcvZe" ] },
      { "delegate": "tz1eEnQhbwf6trb8Q8mPb2RaPkNk2rN7BKi8",
        "reception_time": "2022-01-19T19:21:46.672-00:00",
        "included_in_blocks":
          [ "BLMyUB3C8tXqrK62u7dwecNWDGm16wrtV4ctXpWreF1tUajcvZe" ] },
      { "delegate": "tz1fb7c66UwePkkfDXz4ajFaBP9hVNLdS7JJ",
        "reception_time": "2022-01-19T19:21:46.810-00:00",
        "included_in_blocks":
          [ "BLMyUB3C8tXqrK62u7dwecNWDGm16wrtV4ctXpWreF1tUajcvZe" ] },
      { "delegate": "tz1PWCDnz783NNGGQjEFFsHtrcK5yBW4E2rm",
        "reception_time": "2022-01-19T19:21:46.810-00:00",
        "included_in_blocks":
          [ "BLMyUB3C8tXqrK62u7dwecNWDGm16wrtV4ctXpWreF1tUajcvZe" ] },
      { "delegate": "tz1SYq214SCBy9naR6cvycQsYcUGpBqQAE8d",
        "reception_time": "2022-01-19T19:21:46.810-00:00",
        "included_in_blocks":
          [ "BLMyUB3C8tXqrK62u7dwecNWDGm16wrtV4ctXpWreF1tUajcvZe" ] },
      { "delegate": "tz1gfArv665EUkSg2ojMBzcbfwuPxAvqPvjo",
        "reception_time": "2022-01-19T19:21:46.810-00:00",
        "included_in_blocks":
          [ "BLMyUB3C8tXqrK62u7dwecNWDGm16wrtV4ctXpWreF1tUajcvZe" ] },
      { "delegate": "tz1Nf6tsK4G6bBqgSQERy4nUtkHNKUVdh7q1",
        "reception_time": "2022-01-19T19:21:46.810-00:00",
        "included_in_blocks":
          [ "BLMyUB3C8tXqrK62u7dwecNWDGm16wrtV4ctXpWreF1tUajcvZe" ] },
      { "delegate": "tz1RCFbB9GpALpsZtu6J58sb74dm8qe6XBzv",
        "reception_time": "2022-01-19T19:21:46.810-00:00",
        "included_in_blocks":
          [ "BLMyUB3C8tXqrK62u7dwecNWDGm16wrtV4ctXpWreF1tUajcvZe" ] },
      { "delegate": "tz1KfEsrtDaA1sX7vdM4qmEPWuSytuqCDp5j",
        "reception_time": "2022-01-19T19:21:47.040-00:00",
        "included_in_blocks":
          [ "BLMyUB3C8tXqrK62u7dwecNWDGm16wrtV4ctXpWreF1tUajcvZe" ] },
      { "delegate": "tz3ZbP2pM3nwvXztbuMJwJnDvV5xdpU8UkkD",
        "reception_time": "2022-01-19T19:21:47.040-00:00",
        "included_in_blocks":
          [ "BLMyUB3C8tXqrK62u7dwecNWDGm16wrtV4ctXpWreF1tUajcvZe" ] },
      { "delegate": "tz3NxTnke1acr8o3h5y9ytf5awQBGNJUKzVU",
        "reception_time": "2022-01-19T19:21:47.040-00:00",
        "included_in_blocks":
          [ "BLMyUB3C8tXqrK62u7dwecNWDGm16wrtV4ctXpWreF1tUajcvZe" ] },
      { "delegate": "tz3RKYFsLuQzKBtmYuLNas7uMu3AsYd4QdsA",
        "reception_time": "2022-01-19T19:21:47.040-00:00",
        "included_in_blocks":
          [ "BLMyUB3C8tXqrK62u7dwecNWDGm16wrtV4ctXpWreF1tUajcvZe" ] },
      { "delegate": "tz3hw2kqXhLUvY65ca1eety2oQTpAvd34R9Q",
        "reception_time": "2022-01-19T19:21:47.040-00:00",
        "included_in_blocks":
          [ "BLMyUB3C8tXqrK62u7dwecNWDGm16wrtV4ctXpWreF1tUajcvZe" ] },
      { "delegate": "tz1MJx9vhaNRSimcuXPK2rW4fLccQnDAnVKJ",
        "reception_time": "2022-01-19T19:21:47.040-00:00",
        "included_in_blocks":
          [ "BLMyUB3C8tXqrK62u7dwecNWDGm16wrtV4ctXpWreF1tUajcvZe" ] },
      { "delegate": "tz3Zhs2dygr55yHyQyKjntAtY9bgfhLZ4Xj1",
        "reception_time": "2022-01-19T19:21:47.040-00:00",
        "included_in_blocks":
          [ "BLMyUB3C8tXqrK62u7dwecNWDGm16wrtV4ctXpWreF1tUajcvZe" ] },
      { "delegate": "tz1dwu9aYb7CRNq4Y2zAjipdjFuSVKhHS8vA",
        "reception_time": "2022-01-19T19:21:47.040-00:00",
        "included_in_blocks":
          [ "BLMyUB3C8tXqrK62u7dwecNWDGm16wrtV4ctXpWreF1tUajcvZe" ] },
      { "delegate": "tz3QSGPoRp3Kn7n3vY24eYeu3Peuqo45LQ4D",
        "reception_time": "2022-01-19T19:21:47.040-00:00",
        "included_in_blocks":
          [ "BLMyUB3C8tXqrK62u7dwecNWDGm16wrtV4ctXpWreF1tUajcvZe" ] },
      { "delegate": "tz1NEKxGEHsFufk87CVZcrqWu8o22qh46GK6",
        "reception_time": "2022-01-19T19:21:47.040-00:00",
        "included_in_blocks":
          [ "BLMyUB3C8tXqrK62u7dwecNWDGm16wrtV4ctXpWreF1tUajcvZe" ] },
      { "delegate": "tz1bZ8vsMAXmaWEV7FRnyhcuUs2fYMaQ6Hkk",
        "reception_time": "2022-01-19T19:21:47.249-00:00",
        "included_in_blocks":
          [ "BLMyUB3C8tXqrK62u7dwecNWDGm16wrtV4ctXpWreF1tUajcvZe" ] },
      { "delegate": "tz3iJu5vrKZcsqRPs8yJ61UDoeEXZmtro4qh",
        "reception_time": "2022-01-19T19:21:47.249-00:00",
        "included_in_blocks":
          [ "BLMyUB3C8tXqrK62u7dwecNWDGm16wrtV4ctXpWreF1tUajcvZe" ] },
      { "delegate": "tz1UMCB2AHSTwG7YcGNr31CqYCtGN873royv",
        "reception_time": "2022-01-19T19:21:47.249-00:00",
        "included_in_blocks":
          [ "BLMyUB3C8tXqrK62u7dwecNWDGm16wrtV4ctXpWreF1tUajcvZe" ] },
      { "delegate": "tz3S6BBeKgJGXxvLyZ1xzXzMPn11nnFtq5L9",
        "reception_time": "2022-01-19T19:21:47.249-00:00",
        "included_in_blocks":
          [ "BLMyUB3C8tXqrK62u7dwecNWDGm16wrtV4ctXpWreF1tUajcvZe" ] },
      { "delegate": "tz1WBfwbT66FC6BTLexc2BoyCCBM9LG7pnVW",
        "reception_time": "2022-01-19T19:21:47.249-00:00",
        "included_in_blocks":
          [ "BLMyUB3C8tXqrK62u7dwecNWDGm16wrtV4ctXpWreF1tUajcvZe" ] },
      { "delegate": "tz3gtoUxdudfBRcNY7iVdKPHCYYX6xdPpoRS",
        "reception_time": "2022-01-19T19:21:47.249-00:00",
        "included_in_blocks":
          [ "BLMyUB3C8tXqrK62u7dwecNWDGm16wrtV4ctXpWreF1tUajcvZe" ] },
      { "delegate": "tz2FCNBrERXtaTtNX6iimR1UJ5JSDxvdHM93",
        "reception_time": "2022-01-19T19:21:47.249-00:00",
        "included_in_blocks":
          [ "BLMyUB3C8tXqrK62u7dwecNWDGm16wrtV4ctXpWreF1tUajcvZe" ] },
      { "delegate": "tz1ULYFhUY7Syao5NWr9jZ1pp3aw81QPiqjs",
        "reception_time": "2022-01-19T19:21:47.251-00:00",
        "included_in_blocks":
          [ "BLMyUB3C8tXqrK62u7dwecNWDGm16wrtV4ctXpWreF1tUajcvZe" ] },
      { "delegate": "tz3gLTu4Yxj8tPAcriQVUdxv6BY9QyvzU1az",
        "reception_time": "2022-01-19T19:21:47.265-00:00",
        "included_in_blocks":
          [ "BLMyUB3C8tXqrK62u7dwecNWDGm16wrtV4ctXpWreF1tUajcvZe" ] },
      { "delegate": "tz3NDpRj6WBrJPikcPVHRBEjWKxFw3c6eQPS",
        "reception_time": "2022-01-19T19:21:47.267-00:00",
        "included_in_blocks":
          [ "BLMyUB3C8tXqrK62u7dwecNWDGm16wrtV4ctXpWreF1tUajcvZe" ] },
      { "delegate": "tz3QT9dHYKDqh563chVa6za8526ys1UKfRfL",
        "reception_time": "2022-01-19T19:21:47.276-00:00",
        "included_in_blocks":
          [ "BLMyUB3C8tXqrK62u7dwecNWDGm16wrtV4ctXpWreF1tUajcvZe" ] },
      { "delegate": "tz1ZcTRk5uxD86EFEn1vvNffWWqJy7q5eVhc",
        "reception_time": "2022-01-19T19:21:47.283-00:00",
        "included_in_blocks":
          [ "BLMyUB3C8tXqrK62u7dwecNWDGm16wrtV4ctXpWreF1tUajcvZe" ] },
      { "delegate": "tz1fwnfJNgiDACshK9avfRfFbMaXrs3ghoJa",
        "reception_time": "2022-01-19T19:21:47.283-00:00",
        "included_in_blocks":
          [ "BLMyUB3C8tXqrK62u7dwecNWDGm16wrtV4ctXpWreF1tUajcvZe" ] },
      { "delegate": "tz1S8MNvuFEUsWgjHvi3AxibRBf388NhT1q2",
        "reception_time": "2022-01-19T19:21:47.288-00:00",
        "included_in_blocks":
          [ "BLMyUB3C8tXqrK62u7dwecNWDGm16wrtV4ctXpWreF1tUajcvZe" ] },
      { "delegate": "tz1T7duV5gZWSTq4YpBGbXNLTfznCLDrFxvs",
        "reception_time": "2022-01-19T19:21:47.288-00:00",
        "included_in_blocks":
          [ "BLMyUB3C8tXqrK62u7dwecNWDGm16wrtV4ctXpWreF1tUajcvZe" ] },
      { "delegate": "tz1Zdk8q7wNasmv7VFeQ6QFwcw5fP2c7StoF",
        "reception_time": "2022-01-19T19:21:47.313-00:00",
        "included_in_blocks":
          [ "BLMyUB3C8tXqrK62u7dwecNWDGm16wrtV4ctXpWreF1tUajcvZe" ] },
      { "delegate": "tz3WMqdzXqRWXwyvj5Hp2H7QEepaUuS7vd9K",
        "reception_time": "2022-01-19T19:21:47.327-00:00",
        "included_in_blocks":
          [ "BLMyUB3C8tXqrK62u7dwecNWDGm16wrtV4ctXpWreF1tUajcvZe" ] },
      { "delegate": "tz3RDC3Jdn4j15J7bBHZd29EUee9gVB1CxD9",
        "reception_time": "2022-01-19T19:21:47.340-00:00",
        "included_in_blocks":
          [ "BLMyUB3C8tXqrK62u7dwecNWDGm16wrtV4ctXpWreF1tUajcvZe" ] },
      { "delegate": "tz3bvNMQ95vfAYtG8193ymshqjSvmxiCUuR5",
        "reception_time": "2022-01-19T19:21:47.340-00:00",
        "included_in_blocks":
          [ "BLMyUB3C8tXqrK62u7dwecNWDGm16wrtV4ctXpWreF1tUajcvZe" ] },
      { "delegate": "tz1abmz7jiCV2GH2u81LRrGgAFFgvQgiDiaf",
        "reception_time": "2022-01-19T19:21:47.345-00:00",
        "included_in_blocks":
          [ "BLMyUB3C8tXqrK62u7dwecNWDGm16wrtV4ctXpWreF1tUajcvZe" ] },
      { "delegate": "tz3VEZ4k6a4Wx42iyev6i2aVAptTRLEAivNN",
        "reception_time": "2022-01-19T19:21:47.371-00:00",
        "included_in_blocks":
          [ "BLMyUB3C8tXqrK62u7dwecNWDGm16wrtV4ctXpWreF1tUajcvZe" ] },
      { "delegate": "tz1PeZx7FXy7QRuMREGXGxeipb24RsMMzUNe",
        "reception_time": "2022-01-19T19:21:47.390-00:00",
        "included_in_blocks":
          [ "BLMyUB3C8tXqrK62u7dwecNWDGm16wrtV4ctXpWreF1tUajcvZe" ] },
      { "delegate": "tz1RjoHc98dBoqaH2jawF62XNKh7YsHwbkEv",
        "reception_time": "2022-01-19T19:21:47.394-00:00",
        "included_in_blocks":
          [ "BLMyUB3C8tXqrK62u7dwecNWDGm16wrtV4ctXpWreF1tUajcvZe" ] },
      { "delegate": "tz1TRqbYbUf2GyrjErf3hBzgBJPzW8y36qEs",
        "reception_time": "2022-01-19T19:21:47.396-00:00",
        "included_in_blocks":
          [ "BLMyUB3C8tXqrK62u7dwecNWDGm16wrtV4ctXpWreF1tUajcvZe" ] },
      { "delegate": "tz3bTdwZinP8U1JmSweNzVKhmwafqWmFWRfk",
        "reception_time": "2022-01-19T19:21:47.405-00:00",
        "included_in_blocks":
          [ "BLMyUB3C8tXqrK62u7dwecNWDGm16wrtV4ctXpWreF1tUajcvZe" ] },
      { "delegate": "tz1LmaFsWRkjr7QMCx5PtV6xTUz3AmEpKQiF",
        "reception_time": "2022-01-19T19:21:47.508-00:00",
        "included_in_blocks":
          [ "BLMyUB3C8tXqrK62u7dwecNWDGm16wrtV4ctXpWreF1tUajcvZe" ] },
      { "delegate": "tz3RB4aoyjov4KEVRbuhvQ1CKJgBJMWhaeB8",
        "reception_time": "2022-01-19T19:21:47.613-00:00",
        "included_in_blocks":
          [ "BLMyUB3C8tXqrK62u7dwecNWDGm16wrtV4ctXpWreF1tUajcvZe" ] },
      { "delegate": "tz3NExpXn9aPNZPorRE4SdjJ2RGrfbJgMAaV",
        "reception_time": "2022-01-19T19:21:48.048-00:00",
        "included_in_blocks":
          [ "BLMyUB3C8tXqrK62u7dwecNWDGm16wrtV4ctXpWreF1tUajcvZe" ] },
      { "delegate": "tz1WnfXMPaNTBmH7DBPwqCWs9cPDJdkGBTZ8",
        "reception_time": "2022-01-19T19:21:48.235-00:00",
        "included_in_blocks":
          [ "BLMyUB3C8tXqrK62u7dwecNWDGm16wrtV4ctXpWreF1tUajcvZe" ] },
      { "delegate": "tz3UoffC7FG7zfpmvmjUmUeAaHvzdcUvAj6r",
        "reception_time": "2022-01-19T19:21:48.293-00:00",
        "included_in_blocks":
          [ "BLMyUB3C8tXqrK62u7dwecNWDGm16wrtV4ctXpWreF1tUajcvZe" ] },
      { "delegate": "tz1UvkANVPWppVgMkLnvN7BwYZsCP7vm6NVd",
        "reception_time": "2022-01-19T19:21:48.569-00:00",
        "included_in_blocks":
          [ "BLMyUB3C8tXqrK62u7dwecNWDGm16wrtV4ctXpWreF1tUajcvZe" ] },
      { "delegate": "tz1Q8QkSBS63ZQnH3fBTiAMPes9R666Rn6Sc",
        "reception_time": "2022-01-19T19:21:49.806-00:00",
        "included_in_blocks":
          [ "BLMyUB3C8tXqrK62u7dwecNWDGm16wrtV4ctXpWreF1tUajcvZe" ] },
      { "delegate": "tz1i3mhawFAgcB8JHaHwoUF6hdncwTAkLEn2",
        "reception_time": "2022-01-19T19:21:51.485-00:00",
        "included_in_blocks":
          [ "BLMyUB3C8tXqrK62u7dwecNWDGm16wrtV4ctXpWreF1tUajcvZe" ] },
      { "delegate": "tz1aRoaRhSpRYvFdyvgWLL6TGyRoGF51wDjM",
        "reception_time": "2022-01-19T19:21:52.653-00:00",
        "included_in_blocks":
          [ "BLMyUB3C8tXqrK62u7dwecNWDGm16wrtV4ctXpWreF1tUajcvZe" ] },
      { "delegate": "tz1V3yg82mcrPJbegqVCPn6bC8w1CSTRp3f8",
        "reception_time": "2022-01-19T19:21:53.559-00:00",
        "included_in_blocks":
          [ "BLMyUB3C8tXqrK62u7dwecNWDGm16wrtV4ctXpWreF1tUajcvZe" ] } ] }