{ "blocks":
    [ { "hash": "BKyJfS5RD2n2xJHwUuqz12GBkzNzQq49txHoCpSWXdf8v4dceEg",
        "delegate": "tz1aRoaRhSpRYvFdyvgWLL6TGyRoGF51wDjM",
        "reception_time": "2022-01-20T01:51:37.344-00:00",
        "timestamp": "2022-01-20T01:51:20Z" } ],
  "endorsements":
    [ { "delegate": "tz1Scdr2HsZiQjc7bHMeBbmDRXYVvdhjJbBh",
        "reception_time": "2022-01-20T01:51:37.025-00:00",
        "errors":
          [ { "kind": "temporary",
              "id": "proto.011-PtHangz2.prefilter.outdated_endorsement" } ],
        "included_in_blocks":
          [ "BLTuKxQd8Cagu7DQ4kfcUnJZg7NT43Dg1Ebfguy9YDvVd9ThGHY" ] },
      { "delegate": "tz1S8e9GgdZG78XJRB3NqabfWeM37GnhZMWQ",
        "reception_time": "2022-01-20T01:51:36.340-00:00",
        "errors":
          [ { "kind": "temporary",
              "id": "proto.011-PtHangz2.prefilter.outdated_endorsement" } ],
        "included_in_blocks":
          [ "BLTuKxQd8Cagu7DQ4kfcUnJZg7NT43Dg1Ebfguy9YDvVd9ThGHY" ] },
      { "delegate": "tz1RjoHc98dBoqaH2jawF62XNKh7YsHwbkEv" },
      { "delegate": "tz1W5VkdB5s7ENMESVBtwyt9kyvLqPcUczRT" },
      { "delegate": "tz1awXW7wuXy21c66vBudMXQVAPgRnqqwgTH" },
      { "delegate": "tz1dbfppLAAxXZNtf2SDps7rch3qfUznKSoK" },
      { "delegate": "tz1VQnqCCqX4K5sP3FNkVSNKTdCAMJDd3E1n",
        "reception_time": "2022-01-20T01:51:40.025-00:00",
        "included_in_blocks":
          [ "BLTuKxQd8Cagu7DQ4kfcUnJZg7NT43Dg1Ebfguy9YDvVd9ThGHY" ] },
      { "delegate": "tz1P2Po7YM526ughEsRbY4oR9zaUPDZjxFrb",
        "reception_time": "2022-01-20T01:51:40.025-00:00",
        "included_in_blocks":
          [ "BLTuKxQd8Cagu7DQ4kfcUnJZg7NT43Dg1Ebfguy9YDvVd9ThGHY" ] },
      { "delegate": "tz1Ldzz6k1BHdhuKvAtMRX7h5kJSMHESMHLC",
        "reception_time": "2022-01-20T01:51:40.246-00:00",
        "included_in_blocks":
          [ "BLTuKxQd8Cagu7DQ4kfcUnJZg7NT43Dg1Ebfguy9YDvVd9ThGHY" ] },
      { "delegate": "tz1VmiY38m3y95HqQLjMwqnMS7sdMfGomzKi",
        "reception_time": "2022-01-20T01:51:40.246-00:00",
        "included_in_blocks":
          [ "BLTuKxQd8Cagu7DQ4kfcUnJZg7NT43Dg1Ebfguy9YDvVd9ThGHY" ] },
      { "delegate": "tz1eEnQhbwf6trb8Q8mPb2RaPkNk2rN7BKi8",
        "reception_time": "2022-01-20T01:51:40.246-00:00",
        "included_in_blocks":
          [ "BLTuKxQd8Cagu7DQ4kfcUnJZg7NT43Dg1Ebfguy9YDvVd9ThGHY" ] },
      { "delegate": "tz3NxTnke1acr8o3h5y9ytf5awQBGNJUKzVU",
        "reception_time": "2022-01-20T01:51:40.246-00:00",
        "included_in_blocks":
          [ "BLTuKxQd8Cagu7DQ4kfcUnJZg7NT43Dg1Ebfguy9YDvVd9ThGHY" ] },
      { "delegate": "tz1aDiEJf9ztRrAJEXZfcG3CKimoKsGhwVAi",
        "reception_time": "2022-01-20T01:51:40.246-00:00",
        "included_in_blocks":
          [ "BLTuKxQd8Cagu7DQ4kfcUnJZg7NT43Dg1Ebfguy9YDvVd9ThGHY" ] },
      { "delegate": "tz1aXD7Jigrt3PBYSpHSg5Rr33SexMmmM5Ys",
        "reception_time": "2022-01-20T01:51:40.246-00:00",
        "included_in_blocks":
          [ "BLTuKxQd8Cagu7DQ4kfcUnJZg7NT43Dg1Ebfguy9YDvVd9ThGHY" ] },
      { "delegate": "tz1TzaNn7wSQSP5gYPXCnNzBCpyMiidCq1PX",
        "reception_time": "2022-01-20T01:51:40.246-00:00",
        "included_in_blocks":
          [ "BLTuKxQd8Cagu7DQ4kfcUnJZg7NT43Dg1Ebfguy9YDvVd9ThGHY" ] },
      { "delegate": "tz1irJKkXS2DBWkU1NnmFQx1c1L7pbGg4yhk",
        "reception_time": "2022-01-20T01:51:40.246-00:00",
        "included_in_blocks":
          [ "BLTuKxQd8Cagu7DQ4kfcUnJZg7NT43Dg1Ebfguy9YDvVd9ThGHY" ] },
      { "delegate": "tz1eDDuQBEgwvc6tbnnCVrnr12tvrd6gBTpx",
        "reception_time": "2022-01-20T01:51:40.246-00:00",
        "included_in_blocks":
          [ "BLTuKxQd8Cagu7DQ4kfcUnJZg7NT43Dg1Ebfguy9YDvVd9ThGHY" ] },
      { "delegate": "tz3ZbP2pM3nwvXztbuMJwJnDvV5xdpU8UkkD",
        "reception_time": "2022-01-20T01:51:40.246-00:00",
        "included_in_blocks":
          [ "BLTuKxQd8Cagu7DQ4kfcUnJZg7NT43Dg1Ebfguy9YDvVd9ThGHY" ] },
      { "delegate": "tz3RKYFsLuQzKBtmYuLNas7uMu3AsYd4QdsA",
        "reception_time": "2022-01-20T01:51:40.246-00:00",
        "included_in_blocks":
          [ "BLTuKxQd8Cagu7DQ4kfcUnJZg7NT43Dg1Ebfguy9YDvVd9ThGHY" ] },
      { "delegate": "tz3hw2kqXhLUvY65ca1eety2oQTpAvd34R9Q",
        "reception_time": "2022-01-20T01:51:40.246-00:00",
        "included_in_blocks":
          [ "BLTuKxQd8Cagu7DQ4kfcUnJZg7NT43Dg1Ebfguy9YDvVd9ThGHY" ] },
      { "delegate": "tz1PWCDnz783NNGGQjEFFsHtrcK5yBW4E2rm",
        "reception_time": "2022-01-20T01:51:40.246-00:00",
        "included_in_blocks":
          [ "BLTuKxQd8Cagu7DQ4kfcUnJZg7NT43Dg1Ebfguy9YDvVd9ThGHY" ] },
      { "delegate": "tz3S6BBeKgJGXxvLyZ1xzXzMPn11nnFtq5L9",
        "reception_time": "2022-01-20T01:51:40.635-00:00",
        "included_in_blocks":
          [ "BLTuKxQd8Cagu7DQ4kfcUnJZg7NT43Dg1Ebfguy9YDvVd9ThGHY" ] },
      { "delegate": "tz2FCNBrERXtaTtNX6iimR1UJ5JSDxvdHM93",
        "reception_time": "2022-01-20T01:51:40.635-00:00",
        "included_in_blocks":
          [ "BLTuKxQd8Cagu7DQ4kfcUnJZg7NT43Dg1Ebfguy9YDvVd9ThGHY" ] },
      { "delegate": "tz1hAYfexyzPGG6RhZZMpDvAHifubsbb6kgn",
        "reception_time": "2022-01-20T01:51:40.635-00:00",
        "included_in_blocks":
          [ "BLTuKxQd8Cagu7DQ4kfcUnJZg7NT43Dg1Ebfguy9YDvVd9ThGHY" ] },
      { "delegate": "tz1dNVDWPf3Q59SdJqnjdnu277iyvReiRS9M",
        "reception_time": "2022-01-20T01:51:40.635-00:00",
        "included_in_blocks":
          [ "BLTuKxQd8Cagu7DQ4kfcUnJZg7NT43Dg1Ebfguy9YDvVd9ThGHY" ] },
      { "delegate": "tz1ei4WtWEMEJekSv8qDnu9PExG6Q8HgRGr3",
        "reception_time": "2022-01-20T01:51:40.635-00:00",
        "included_in_blocks":
          [ "BLTuKxQd8Cagu7DQ4kfcUnJZg7NT43Dg1Ebfguy9YDvVd9ThGHY" ] },
      { "delegate": "tz3iJu5vrKZcsqRPs8yJ61UDoeEXZmtro4qh",
        "reception_time": "2022-01-20T01:51:40.635-00:00",
        "included_in_blocks":
          [ "BLTuKxQd8Cagu7DQ4kfcUnJZg7NT43Dg1Ebfguy9YDvVd9ThGHY" ] },
      { "delegate": "tz1SYq214SCBy9naR6cvycQsYcUGpBqQAE8d",
        "reception_time": "2022-01-20T01:51:40.635-00:00",
        "included_in_blocks":
          [ "BLTuKxQd8Cagu7DQ4kfcUnJZg7NT43Dg1Ebfguy9YDvVd9ThGHY" ] },
      { "delegate": "tz1fPKAtsYydh4f1wfWNfeNxWYu72TmM48fu",
        "reception_time": "2022-01-20T01:51:40.635-00:00",
        "included_in_blocks":
          [ "BLTuKxQd8Cagu7DQ4kfcUnJZg7NT43Dg1Ebfguy9YDvVd9ThGHY" ] },
      { "delegate": "tz1dwu9aYb7CRNq4Y2zAjipdjFuSVKhHS8vA",
        "reception_time": "2022-01-20T01:51:40.635-00:00",
        "included_in_blocks":
          [ "BLTuKxQd8Cagu7DQ4kfcUnJZg7NT43Dg1Ebfguy9YDvVd9ThGHY" ] },
      { "delegate": "tz1XCJBHkDn2D9wjgXEJHMi2jTxg563XUunQ",
        "reception_time": "2022-01-20T01:51:40.635-00:00",
        "included_in_blocks":
          [ "BLTuKxQd8Cagu7DQ4kfcUnJZg7NT43Dg1Ebfguy9YDvVd9ThGHY" ] },
      { "delegate": "tz1MQJPGNMijnXnVoBENFz9rUhaPt3S7rWoz",
        "reception_time": "2022-01-20T01:51:40.635-00:00",
        "included_in_blocks":
          [ "BLTuKxQd8Cagu7DQ4kfcUnJZg7NT43Dg1Ebfguy9YDvVd9ThGHY" ] },
      { "delegate": "tz3QSGPoRp3Kn7n3vY24eYeu3Peuqo45LQ4D",
        "reception_time": "2022-01-20T01:51:40.635-00:00",
        "included_in_blocks":
          [ "BLTuKxQd8Cagu7DQ4kfcUnJZg7NT43Dg1Ebfguy9YDvVd9ThGHY" ] },
      { "delegate": "tz1S8MNvuFEUsWgjHvi3AxibRBf388NhT1q2",
        "reception_time": "2022-01-20T01:51:40.635-00:00",
        "included_in_blocks":
          [ "BLTuKxQd8Cagu7DQ4kfcUnJZg7NT43Dg1Ebfguy9YDvVd9ThGHY" ] },
      { "delegate": "tz1RQhNh7iB9CZA7i3ifTWNwiGYVffponfbB",
        "reception_time": "2022-01-20T01:51:40.635-00:00",
        "included_in_blocks":
          [ "BLTuKxQd8Cagu7DQ4kfcUnJZg7NT43Dg1Ebfguy9YDvVd9ThGHY" ] },
      { "delegate": "tz3gtoUxdudfBRcNY7iVdKPHCYYX6xdPpoRS",
        "reception_time": "2022-01-20T01:51:40.635-00:00",
        "included_in_blocks":
          [ "BLTuKxQd8Cagu7DQ4kfcUnJZg7NT43Dg1Ebfguy9YDvVd9ThGHY" ] },
      { "delegate": "tz1TEc75UKXv4W5cwi14Na3NtqFD51yKQi7h",
        "reception_time": "2022-01-20T01:51:40.635-00:00",
        "included_in_blocks":
          [ "BLTuKxQd8Cagu7DQ4kfcUnJZg7NT43Dg1Ebfguy9YDvVd9ThGHY" ] },
      { "delegate": "tz1Vd1rXpV8hTHbFXCXN3c3qzCsgcU5BZw1e",
        "reception_time": "2022-01-20T01:51:40.635-00:00",
        "included_in_blocks":
          [ "BLTuKxQd8Cagu7DQ4kfcUnJZg7NT43Dg1Ebfguy9YDvVd9ThGHY" ] },
      { "delegate": "tz1MQMiZHV8q4tTwUMWmS5Y3kaP6J2136iXr",
        "reception_time": "2022-01-20T01:51:40.635-00:00",
        "included_in_blocks":
          [ "BLTuKxQd8Cagu7DQ4kfcUnJZg7NT43Dg1Ebfguy9YDvVd9ThGHY" ] },
      { "delegate": "tz3Zhs2dygr55yHyQyKjntAtY9bgfhLZ4Xj1",
        "reception_time": "2022-01-20T01:51:40.635-00:00",
        "included_in_blocks":
          [ "BLTuKxQd8Cagu7DQ4kfcUnJZg7NT43Dg1Ebfguy9YDvVd9ThGHY" ] },
      { "delegate": "tz1TRqbYbUf2GyrjErf3hBzgBJPzW8y36qEs",
        "reception_time": "2022-01-20T01:51:40.635-00:00",
        "included_in_blocks":
          [ "BLTuKxQd8Cagu7DQ4kfcUnJZg7NT43Dg1Ebfguy9YDvVd9ThGHY" ] },
      { "delegate": "tz1gfArv665EUkSg2ojMBzcbfwuPxAvqPvjo",
        "reception_time": "2022-01-20T01:51:40.636-00:00",
        "included_in_blocks":
          [ "BLTuKxQd8Cagu7DQ4kfcUnJZg7NT43Dg1Ebfguy9YDvVd9ThGHY" ] },
      { "delegate": "tz1Nf6tsK4G6bBqgSQERy4nUtkHNKUVdh7q1",
        "reception_time": "2022-01-20T01:51:40.639-00:00",
        "included_in_blocks":
          [ "BLTuKxQd8Cagu7DQ4kfcUnJZg7NT43Dg1Ebfguy9YDvVd9ThGHY" ] },
      { "delegate": "tz3QT9dHYKDqh563chVa6za8526ys1UKfRfL",
        "reception_time": "2022-01-20T01:51:40.648-00:00",
        "included_in_blocks":
          [ "BLTuKxQd8Cagu7DQ4kfcUnJZg7NT43Dg1Ebfguy9YDvVd9ThGHY" ] },
      { "delegate": "tz1KfEsrtDaA1sX7vdM4qmEPWuSytuqCDp5j",
        "reception_time": "2022-01-20T01:51:40.648-00:00",
        "included_in_blocks":
          [ "BLTuKxQd8Cagu7DQ4kfcUnJZg7NT43Dg1Ebfguy9YDvVd9ThGHY" ] },
      { "delegate": "tz3RDC3Jdn4j15J7bBHZd29EUee9gVB1CxD9",
        "reception_time": "2022-01-20T01:51:40.657-00:00",
        "included_in_blocks":
          [ "BLTuKxQd8Cagu7DQ4kfcUnJZg7NT43Dg1Ebfguy9YDvVd9ThGHY" ] },
      { "delegate": "tz1R6Ej25VSerE3MkSoEEeBjKHCDTFbpKuSX",
        "reception_time": "2022-01-20T01:51:40.659-00:00",
        "included_in_blocks":
          [ "BLTuKxQd8Cagu7DQ4kfcUnJZg7NT43Dg1Ebfguy9YDvVd9ThGHY" ] },
      { "delegate": "tz3bTdwZinP8U1JmSweNzVKhmwafqWmFWRfk",
        "reception_time": "2022-01-20T01:51:40.675-00:00",
        "included_in_blocks":
          [ "BLTuKxQd8Cagu7DQ4kfcUnJZg7NT43Dg1Ebfguy9YDvVd9ThGHY" ] },
      { "delegate": "tz1cYufsxHXJcvANhvS55h3aY32a9BAFB494",
        "reception_time": "2022-01-20T01:51:40.675-00:00",
        "included_in_blocks":
          [ "BLTuKxQd8Cagu7DQ4kfcUnJZg7NT43Dg1Ebfguy9YDvVd9ThGHY" ] },
      { "delegate": "tz1WBfwbT66FC6BTLexc2BoyCCBM9LG7pnVW",
        "reception_time": "2022-01-20T01:51:40.677-00:00",
        "included_in_blocks":
          [ "BLTuKxQd8Cagu7DQ4kfcUnJZg7NT43Dg1Ebfguy9YDvVd9ThGHY" ] },
      { "delegate": "tz3bvNMQ95vfAYtG8193ymshqjSvmxiCUuR5",
        "reception_time": "2022-01-20T01:51:40.711-00:00",
        "included_in_blocks":
          [ "BLTuKxQd8Cagu7DQ4kfcUnJZg7NT43Dg1Ebfguy9YDvVd9ThGHY" ] },
      { "delegate": "tz1abmz7jiCV2GH2u81LRrGgAFFgvQgiDiaf",
        "reception_time": "2022-01-20T01:51:40.715-00:00",
        "included_in_blocks":
          [ "BLTuKxQd8Cagu7DQ4kfcUnJZg7NT43Dg1Ebfguy9YDvVd9ThGHY" ] },
      { "delegate": "tz1fwnfJNgiDACshK9avfRfFbMaXrs3ghoJa",
        "reception_time": "2022-01-20T01:51:40.715-00:00",
        "included_in_blocks":
          [ "BLTuKxQd8Cagu7DQ4kfcUnJZg7NT43Dg1Ebfguy9YDvVd9ThGHY" ] },
      { "delegate": "tz1RCFbB9GpALpsZtu6J58sb74dm8qe6XBzv",
        "reception_time": "2022-01-20T01:51:40.718-00:00",
        "included_in_blocks":
          [ "BLTuKxQd8Cagu7DQ4kfcUnJZg7NT43Dg1Ebfguy9YDvVd9ThGHY" ] },
      { "delegate": "tz1cZfFQpcYhwDp7y1njZXDsZqCrn2NqmVof",
        "reception_time": "2022-01-20T01:51:40.722-00:00",
        "included_in_blocks":
          [ "BLTuKxQd8Cagu7DQ4kfcUnJZg7NT43Dg1Ebfguy9YDvVd9ThGHY" ] },
      { "delegate": "tz1Tnjaxk6tbAeC2TmMApPh8UsrEVQvhHvx5",
        "reception_time": "2022-01-20T01:51:40.724-00:00",
        "included_in_blocks":
          [ "BLTuKxQd8Cagu7DQ4kfcUnJZg7NT43Dg1Ebfguy9YDvVd9ThGHY" ] },
      { "delegate": "tz1ZcTRk5uxD86EFEn1vvNffWWqJy7q5eVhc",
        "reception_time": "2022-01-20T01:51:41.075-00:00",
        "included_in_blocks":
          [ "BLTuKxQd8Cagu7DQ4kfcUnJZg7NT43Dg1Ebfguy9YDvVd9ThGHY" ] },
      { "delegate": "tz3WMqdzXqRWXwyvj5Hp2H7QEepaUuS7vd9K",
        "reception_time": "2022-01-20T01:51:41.098-00:00",
        "included_in_blocks":
          [ "BLTuKxQd8Cagu7DQ4kfcUnJZg7NT43Dg1Ebfguy9YDvVd9ThGHY" ] },
      { "delegate": "tz3NDpRj6WBrJPikcPVHRBEjWKxFw3c6eQPS",
        "reception_time": "2022-01-20T01:51:41.137-00:00",
        "included_in_blocks":
          [ "BLTuKxQd8Cagu7DQ4kfcUnJZg7NT43Dg1Ebfguy9YDvVd9ThGHY" ] },
      { "delegate": "tz3gLTu4Yxj8tPAcriQVUdxv6BY9QyvzU1az",
        "reception_time": "2022-01-20T01:51:41.159-00:00",
        "included_in_blocks":
          [ "BLTuKxQd8Cagu7DQ4kfcUnJZg7NT43Dg1Ebfguy9YDvVd9ThGHY" ] },
      { "delegate": "tz1WnfXMPaNTBmH7DBPwqCWs9cPDJdkGBTZ8",
        "reception_time": "2022-01-20T01:51:41.194-00:00",
        "included_in_blocks":
          [ "BLTuKxQd8Cagu7DQ4kfcUnJZg7NT43Dg1Ebfguy9YDvVd9ThGHY" ] },
      { "delegate": "tz3VEZ4k6a4Wx42iyev6i2aVAptTRLEAivNN",
        "reception_time": "2022-01-20T01:51:41.480-00:00",
        "included_in_blocks":
          [ "BLTuKxQd8Cagu7DQ4kfcUnJZg7NT43Dg1Ebfguy9YDvVd9ThGHY" ] },
      { "delegate": "tz3NExpXn9aPNZPorRE4SdjJ2RGrfbJgMAaV",
        "reception_time": "2022-01-20T01:51:41.635-00:00",
        "included_in_blocks":
          [ "BLTuKxQd8Cagu7DQ4kfcUnJZg7NT43Dg1Ebfguy9YDvVd9ThGHY" ] },
      { "delegate": "tz3RB4aoyjov4KEVRbuhvQ1CKJgBJMWhaeB8",
        "reception_time": "2022-01-20T01:51:41.695-00:00",
        "included_in_blocks":
          [ "BLTuKxQd8Cagu7DQ4kfcUnJZg7NT43Dg1Ebfguy9YDvVd9ThGHY" ] },
      { "delegate": "tz3UoffC7FG7zfpmvmjUmUeAaHvzdcUvAj6r",
        "reception_time": "2022-01-20T01:51:42.144-00:00",
        "included_in_blocks":
          [ "BLTuKxQd8Cagu7DQ4kfcUnJZg7NT43Dg1Ebfguy9YDvVd9ThGHY" ] },
      { "delegate": "tz1aRoaRhSpRYvFdyvgWLL6TGyRoGF51wDjM",
        "reception_time": "2022-01-20T01:51:43.017-00:00",
        "included_in_blocks":
          [ "BLTuKxQd8Cagu7DQ4kfcUnJZg7NT43Dg1Ebfguy9YDvVd9ThGHY" ] },
      { "delegate": "tz1SohptP53wDPZhzTWzDUFAUcWF6DMBpaJV",
        "reception_time": "2022-01-20T01:51:43.556-00:00",
        "included_in_blocks":
          [ "BLTuKxQd8Cagu7DQ4kfcUnJZg7NT43Dg1Ebfguy9YDvVd9ThGHY" ] },
      { "delegate": "tz1Zcxkfa5jKrRbBThG765GP29bUCU3C4ok5",
        "reception_time": "2022-01-20T01:51:44.694-00:00",
        "included_in_blocks":
          [ "BLTuKxQd8Cagu7DQ4kfcUnJZg7NT43Dg1Ebfguy9YDvVd9ThGHY" ] },
      { "delegate": "tz1NpWrAyDL9k2Lmnyxcgr9xuJakbBxdq7FB",
        "reception_time": "2022-01-20T01:51:45.775-00:00",
        "included_in_blocks":
          [ "BLTuKxQd8Cagu7DQ4kfcUnJZg7NT43Dg1Ebfguy9YDvVd9ThGHY" ] } ] }