{ "blocks":
    [ { "hash": "BLYPnFzCxZUXWpRzc8g6bNFgsfaXsafzkfr1epW45g1DY8nNNaa",
        "delegate": "tz3VEZ4k6a4Wx42iyev6i2aVAptTRLEAivNN",
        "reception_time": "2022-01-19T19:56:56.189-00:00",
        "timestamp": "2022-01-19T19:56:40Z" } ],
  "endorsements":
    [ { "delegate": "tz1fUyqYH7H4pRHN1roWY17giXhy1RvxjgUV",
        "reception_time": "2022-01-19T19:57:12.426-00:00" },
      { "delegate": "tz1g8vkmcde6sWKaG2NN9WKzCkDM6Rziq194",
        "reception_time": "2022-01-19T19:57:08.073-00:00",
        "included_in_blocks":
          [ "BM41Fhv9PwsaRuEUj2X2KYS9dH2ypqA5zdxQjW36qFHoC5x7reP" ] },
      { "delegate": "tz1aRoaRhSpRYvFdyvgWLL6TGyRoGF51wDjM",
        "reception_time": "2022-01-19T19:57:06.136-00:00",
        "included_in_blocks":
          [ "BM41Fhv9PwsaRuEUj2X2KYS9dH2ypqA5zdxQjW36qFHoC5x7reP" ] },
      { "delegate": "tz1TRqbYbUf2GyrjErf3hBzgBJPzW8y36qEs",
        "reception_time": "2022-01-19T19:57:05.907-00:00",
        "included_in_blocks":
          [ "BM41Fhv9PwsaRuEUj2X2KYS9dH2ypqA5zdxQjW36qFHoC5x7reP" ] },
      { "delegate": "tz1NdhRv643wLW6zCcRP3VfT24dvDnh7nuh9",
        "reception_time": "2022-01-19T19:57:04.779-00:00",
        "included_in_blocks":
          [ "BM41Fhv9PwsaRuEUj2X2KYS9dH2ypqA5zdxQjW36qFHoC5x7reP" ] },
      { "delegate": "tz1S8MNvuFEUsWgjHvi3AxibRBf388NhT1q2",
        "reception_time": "2022-01-19T19:57:03.107-00:00",
        "included_in_blocks":
          [ "BM41Fhv9PwsaRuEUj2X2KYS9dH2ypqA5zdxQjW36qFHoC5x7reP" ] },
      { "delegate": "tz1NoYvKjXTzTk54VpLxBfouJ33J8jwKPPvw",
        "reception_time": "2022-01-19T19:57:03.057-00:00",
        "included_in_blocks":
          [ "BM41Fhv9PwsaRuEUj2X2KYS9dH2ypqA5zdxQjW36qFHoC5x7reP" ] },
      { "delegate": "tz1UvkANVPWppVgMkLnvN7BwYZsCP7vm6NVd",
        "reception_time": "2022-01-19T19:57:02.170-00:00",
        "included_in_blocks":
          [ "BM41Fhv9PwsaRuEUj2X2KYS9dH2ypqA5zdxQjW36qFHoC5x7reP" ] },
      { "delegate": "tz1MQMiZHV8q4tTwUMWmS5Y3kaP6J2136iXr",
        "reception_time": "2022-01-19T19:57:01.840-00:00",
        "included_in_blocks":
          [ "BM41Fhv9PwsaRuEUj2X2KYS9dH2ypqA5zdxQjW36qFHoC5x7reP" ] },
      { "delegate": "tz1Z2jXfEXL7dXhs6bsLmyLFLfmAkXBzA9WE",
        "reception_time": "2022-01-19T19:57:01.838-00:00",
        "included_in_blocks":
          [ "BM41Fhv9PwsaRuEUj2X2KYS9dH2ypqA5zdxQjW36qFHoC5x7reP" ] },
      { "delegate": "tz2FCNBrERXtaTtNX6iimR1UJ5JSDxvdHM93",
        "reception_time": "2022-01-19T19:57:01.835-00:00",
        "included_in_blocks":
          [ "BM41Fhv9PwsaRuEUj2X2KYS9dH2ypqA5zdxQjW36qFHoC5x7reP" ] },
      { "delegate": "tz3bvNMQ95vfAYtG8193ymshqjSvmxiCUuR5",
        "reception_time": "2022-01-19T19:57:01.835-00:00",
        "included_in_blocks":
          [ "BM41Fhv9PwsaRuEUj2X2KYS9dH2ypqA5zdxQjW36qFHoC5x7reP" ] },
      { "delegate": "tz1eeArNKzpoGLrT8dR3ewRgZ4r3YQkY165n",
        "reception_time": "2022-01-19T19:57:01.827-00:00",
        "included_in_blocks":
          [ "BM41Fhv9PwsaRuEUj2X2KYS9dH2ypqA5zdxQjW36qFHoC5x7reP" ] },
      { "delegate": "tz1iPHM2Xx2hwmzcr1EG1zzrV6oKafVoA91m",
        "reception_time": "2022-01-19T19:57:01.825-00:00",
        "included_in_blocks":
          [ "BM41Fhv9PwsaRuEUj2X2KYS9dH2ypqA5zdxQjW36qFHoC5x7reP" ] },
      { "delegate": "tz1RjoHc98dBoqaH2jawF62XNKh7YsHwbkEv",
        "reception_time": "2022-01-19T19:57:01.825-00:00",
        "included_in_blocks":
          [ "BM41Fhv9PwsaRuEUj2X2KYS9dH2ypqA5zdxQjW36qFHoC5x7reP" ] },
      { "delegate": "tz1cYufsxHXJcvANhvS55h3aY32a9BAFB494",
        "reception_time": "2022-01-19T19:57:01.819-00:00",
        "included_in_blocks":
          [ "BM41Fhv9PwsaRuEUj2X2KYS9dH2ypqA5zdxQjW36qFHoC5x7reP" ] },
      { "delegate": "tz1RCFbB9GpALpsZtu6J58sb74dm8qe6XBzv",
        "reception_time": "2022-01-19T19:57:01.719-00:00",
        "included_in_blocks":
          [ "BM41Fhv9PwsaRuEUj2X2KYS9dH2ypqA5zdxQjW36qFHoC5x7reP" ] },
      { "delegate": "tz3bTdwZinP8U1JmSweNzVKhmwafqWmFWRfk",
        "reception_time": "2022-01-19T19:57:01.713-00:00",
        "included_in_blocks":
          [ "BM41Fhv9PwsaRuEUj2X2KYS9dH2ypqA5zdxQjW36qFHoC5x7reP" ] },
      { "delegate": "tz1NuUu12WHdW3jHqvkujGHsiTi46Wvw1ci1",
        "reception_time": "2022-01-19T19:57:01.705-00:00",
        "included_in_blocks":
          [ "BM41Fhv9PwsaRuEUj2X2KYS9dH2ypqA5zdxQjW36qFHoC5x7reP" ] },
      { "delegate": "tz3RDC3Jdn4j15J7bBHZd29EUee9gVB1CxD9",
        "reception_time": "2022-01-19T19:57:01.701-00:00",
        "included_in_blocks":
          [ "BM41Fhv9PwsaRuEUj2X2KYS9dH2ypqA5zdxQjW36qFHoC5x7reP" ] },
      { "delegate": "tz1UJvHTgpVzcKWhTazGxVcn5wsHru5Gietg",
        "reception_time": "2022-01-19T19:57:01.546-00:00",
        "included_in_blocks":
          [ "BM41Fhv9PwsaRuEUj2X2KYS9dH2ypqA5zdxQjW36qFHoC5x7reP" ] },
      { "delegate": "tz1a3T5mRR1XWM1JgydvAqxEwpNs7ktVZuXc",
        "reception_time": "2022-01-19T19:57:01.536-00:00",
        "included_in_blocks":
          [ "BM41Fhv9PwsaRuEUj2X2KYS9dH2ypqA5zdxQjW36qFHoC5x7reP" ] },
      { "delegate": "tz3QCNyySViKHmeSr45kzDxzchys7NiXCWoa",
        "reception_time": "2022-01-19T19:57:01.533-00:00",
        "included_in_blocks":
          [ "BM41Fhv9PwsaRuEUj2X2KYS9dH2ypqA5zdxQjW36qFHoC5x7reP" ] },
      { "delegate": "tz3gLTu4Yxj8tPAcriQVUdxv6BY9QyvzU1az",
        "reception_time": "2022-01-19T19:57:01.524-00:00",
        "included_in_blocks":
          [ "BM41Fhv9PwsaRuEUj2X2KYS9dH2ypqA5zdxQjW36qFHoC5x7reP" ] },
      { "delegate": "tz3S6BBeKgJGXxvLyZ1xzXzMPn11nnFtq5L9",
        "reception_time": "2022-01-19T19:57:01.500-00:00",
        "included_in_blocks":
          [ "BM41Fhv9PwsaRuEUj2X2KYS9dH2ypqA5zdxQjW36qFHoC5x7reP" ] },
      { "delegate": "tz1VceyYUpq1gk5dtp6jXQRtCtY8hm5DKt72",
        "reception_time": "2022-01-19T19:57:01.500-00:00",
        "included_in_blocks":
          [ "BM41Fhv9PwsaRuEUj2X2KYS9dH2ypqA5zdxQjW36qFHoC5x7reP" ] },
      { "delegate": "tz1PeZx7FXy7QRuMREGXGxeipb24RsMMzUNe",
        "reception_time": "2022-01-19T19:57:01.486-00:00",
        "included_in_blocks":
          [ "BM41Fhv9PwsaRuEUj2X2KYS9dH2ypqA5zdxQjW36qFHoC5x7reP" ] },
      { "delegate": "tz1eVaNx3gCmG1EsLjijkmgAxdLYVf6Bf5Sq",
        "reception_time": "2022-01-19T19:57:01.486-00:00",
        "included_in_blocks":
          [ "BM41Fhv9PwsaRuEUj2X2KYS9dH2ypqA5zdxQjW36qFHoC5x7reP" ] },
      { "delegate": "tz1gfArv665EUkSg2ojMBzcbfwuPxAvqPvjo",
        "reception_time": "2022-01-19T19:57:01.480-00:00",
        "included_in_blocks":
          [ "BM41Fhv9PwsaRuEUj2X2KYS9dH2ypqA5zdxQjW36qFHoC5x7reP" ] },
      { "delegate": "tz3NExpXn9aPNZPorRE4SdjJ2RGrfbJgMAaV",
        "reception_time": "2022-01-19T19:57:01.480-00:00",
        "included_in_blocks":
          [ "BM41Fhv9PwsaRuEUj2X2KYS9dH2ypqA5zdxQjW36qFHoC5x7reP" ] },
      { "delegate": "tz1Tnjaxk6tbAeC2TmMApPh8UsrEVQvhHvx5",
        "reception_time": "2022-01-19T19:57:01.467-00:00",
        "included_in_blocks":
          [ "BM41Fhv9PwsaRuEUj2X2KYS9dH2ypqA5zdxQjW36qFHoC5x7reP" ] },
      { "delegate": "tz1LmaFsWRkjr7QMCx5PtV6xTUz3AmEpKQiF",
        "reception_time": "2022-01-19T19:57:01.467-00:00",
        "included_in_blocks":
          [ "BM41Fhv9PwsaRuEUj2X2KYS9dH2ypqA5zdxQjW36qFHoC5x7reP" ] },
      { "delegate": "tz3UoffC7FG7zfpmvmjUmUeAaHvzdcUvAj6r",
        "reception_time": "2022-01-19T19:57:01.458-00:00",
        "included_in_blocks":
          [ "BM41Fhv9PwsaRuEUj2X2KYS9dH2ypqA5zdxQjW36qFHoC5x7reP" ] },
      { "delegate": "tz1fPKAtsYydh4f1wfWNfeNxWYu72TmM48fu",
        "reception_time": "2022-01-19T19:57:01.458-00:00",
        "included_in_blocks":
          [ "BM41Fhv9PwsaRuEUj2X2KYS9dH2ypqA5zdxQjW36qFHoC5x7reP" ] },
      { "delegate": "tz1WBfwbT66FC6BTLexc2BoyCCBM9LG7pnVW",
        "reception_time": "2022-01-19T19:57:01.443-00:00",
        "included_in_blocks":
          [ "BM41Fhv9PwsaRuEUj2X2KYS9dH2ypqA5zdxQjW36qFHoC5x7reP" ] },
      { "delegate": "tz1fUjvVhJrHLZCbhPNvDRckxApqbkievJHN",
        "reception_time": "2022-01-19T19:57:01.443-00:00",
        "included_in_blocks":
          [ "BM41Fhv9PwsaRuEUj2X2KYS9dH2ypqA5zdxQjW36qFHoC5x7reP" ] },
      { "delegate": "tz3WMqdzXqRWXwyvj5Hp2H7QEepaUuS7vd9K",
        "reception_time": "2022-01-19T19:57:01.438-00:00",
        "included_in_blocks":
          [ "BM41Fhv9PwsaRuEUj2X2KYS9dH2ypqA5zdxQjW36qFHoC5x7reP" ] },
      { "delegate": "tz3hw2kqXhLUvY65ca1eety2oQTpAvd34R9Q",
        "reception_time": "2022-01-19T19:57:01.438-00:00",
        "included_in_blocks":
          [ "BM41Fhv9PwsaRuEUj2X2KYS9dH2ypqA5zdxQjW36qFHoC5x7reP" ] },
      { "delegate": "tz3RB4aoyjov4KEVRbuhvQ1CKJgBJMWhaeB8",
        "reception_time": "2022-01-19T19:57:01.419-00:00",
        "included_in_blocks":
          [ "BM41Fhv9PwsaRuEUj2X2KYS9dH2ypqA5zdxQjW36qFHoC5x7reP" ] },
      { "delegate": "tz3QT9dHYKDqh563chVa6za8526ys1UKfRfL",
        "reception_time": "2022-01-19T19:57:01.419-00:00",
        "included_in_blocks":
          [ "BM41Fhv9PwsaRuEUj2X2KYS9dH2ypqA5zdxQjW36qFHoC5x7reP" ] },
      { "delegate": "tz1TRspM5SeZpaQUhzByXbEvqKF1vnCM2YTK",
        "reception_time": "2022-01-19T19:57:01.398-00:00",
        "included_in_blocks":
          [ "BM41Fhv9PwsaRuEUj2X2KYS9dH2ypqA5zdxQjW36qFHoC5x7reP" ] },
      { "delegate": "tz1SYq214SCBy9naR6cvycQsYcUGpBqQAE8d",
        "reception_time": "2022-01-19T19:57:01.268-00:00",
        "included_in_blocks":
          [ "BM41Fhv9PwsaRuEUj2X2KYS9dH2ypqA5zdxQjW36qFHoC5x7reP" ] },
      { "delegate": "tz1WkFWDQXsHahmXtbrTVuEF2B7urEkxRsxG",
        "reception_time": "2022-01-19T19:57:01.268-00:00",
        "included_in_blocks":
          [ "BM41Fhv9PwsaRuEUj2X2KYS9dH2ypqA5zdxQjW36qFHoC5x7reP" ] },
      { "delegate": "tz1MQJPGNMijnXnVoBENFz9rUhaPt3S7rWoz",
        "reception_time": "2022-01-19T19:57:01.255-00:00",
        "included_in_blocks":
          [ "BM41Fhv9PwsaRuEUj2X2KYS9dH2ypqA5zdxQjW36qFHoC5x7reP" ] },
      { "delegate": "tz3RKYFsLuQzKBtmYuLNas7uMu3AsYd4QdsA",
        "reception_time": "2022-01-19T19:57:00.956-00:00",
        "included_in_blocks":
          [ "BM41Fhv9PwsaRuEUj2X2KYS9dH2ypqA5zdxQjW36qFHoC5x7reP" ] },
      { "delegate": "tz1UtayNgAX8QEJ3NoLptPzoPr9JiH3Cskzz",
        "reception_time": "2022-01-19T19:57:00.956-00:00",
        "included_in_blocks":
          [ "BM41Fhv9PwsaRuEUj2X2KYS9dH2ypqA5zdxQjW36qFHoC5x7reP" ] },
      { "delegate": "tz3gtoUxdudfBRcNY7iVdKPHCYYX6xdPpoRS",
        "reception_time": "2022-01-19T19:57:00.946-00:00",
        "included_in_blocks":
          [ "BM41Fhv9PwsaRuEUj2X2KYS9dH2ypqA5zdxQjW36qFHoC5x7reP" ] },
      { "delegate": "tz3Zhs2dygr55yHyQyKjntAtY9bgfhLZ4Xj1",
        "reception_time": "2022-01-19T19:57:00.933-00:00",
        "included_in_blocks":
          [ "BM41Fhv9PwsaRuEUj2X2KYS9dH2ypqA5zdxQjW36qFHoC5x7reP" ] },
      { "delegate": "tz3iJu5vrKZcsqRPs8yJ61UDoeEXZmtro4qh",
        "reception_time": "2022-01-19T19:57:00.933-00:00",
        "included_in_blocks":
          [ "BM41Fhv9PwsaRuEUj2X2KYS9dH2ypqA5zdxQjW36qFHoC5x7reP" ] },
      { "delegate": "tz1V4qCyvPKZ5UeqdH14HN42rxvNPQfc9UZg",
        "reception_time": "2022-01-19T19:57:00.467-00:00",
        "included_in_blocks":
          [ "BM41Fhv9PwsaRuEUj2X2KYS9dH2ypqA5zdxQjW36qFHoC5x7reP" ] },
      { "delegate": "tz3VEZ4k6a4Wx42iyev6i2aVAptTRLEAivNN",
        "reception_time": "2022-01-19T19:57:00.467-00:00",
        "included_in_blocks":
          [ "BM41Fhv9PwsaRuEUj2X2KYS9dH2ypqA5zdxQjW36qFHoC5x7reP" ] },
      { "delegate": "tz3QSGPoRp3Kn7n3vY24eYeu3Peuqo45LQ4D",
        "reception_time": "2022-01-19T19:57:00.467-00:00",
        "included_in_blocks":
          [ "BM41Fhv9PwsaRuEUj2X2KYS9dH2ypqA5zdxQjW36qFHoC5x7reP" ] },
      { "delegate": "tz1RQhNh7iB9CZA7i3ifTWNwiGYVffponfbB",
        "reception_time": "2022-01-19T19:57:00.467-00:00",
        "included_in_blocks":
          [ "BM41Fhv9PwsaRuEUj2X2KYS9dH2ypqA5zdxQjW36qFHoC5x7reP" ] },
      { "delegate": "tz3ZbP2pM3nwvXztbuMJwJnDvV5xdpU8UkkD",
        "reception_time": "2022-01-19T19:57:00.231-00:00",
        "included_in_blocks":
          [ "BM41Fhv9PwsaRuEUj2X2KYS9dH2ypqA5zdxQjW36qFHoC5x7reP" ] },
      { "delegate": "tz1ZPh7XfUaJXUDvkrBxmS1BjEM1i62hiPpM",
        "reception_time": "2022-01-19T19:57:00.231-00:00",
        "included_in_blocks":
          [ "BM41Fhv9PwsaRuEUj2X2KYS9dH2ypqA5zdxQjW36qFHoC5x7reP" ] },
      { "delegate": "tz3NxTnke1acr8o3h5y9ytf5awQBGNJUKzVU",
        "reception_time": "2022-01-19T19:57:00.231-00:00",
        "included_in_blocks":
          [ "BM41Fhv9PwsaRuEUj2X2KYS9dH2ypqA5zdxQjW36qFHoC5x7reP" ] },
      { "delegate": "tz1eEnQhbwf6trb8Q8mPb2RaPkNk2rN7BKi8",
        "reception_time": "2022-01-19T19:56:59.877-00:00",
        "included_in_blocks":
          [ "BM41Fhv9PwsaRuEUj2X2KYS9dH2ypqA5zdxQjW36qFHoC5x7reP" ] },
      { "delegate": "tz1d6Fx42mYgVFnHUW8T8A7WBfJ6nD9pVok8",
        "reception_time": "2022-01-19T19:56:59.877-00:00",
        "included_in_blocks":
          [ "BM41Fhv9PwsaRuEUj2X2KYS9dH2ypqA5zdxQjW36qFHoC5x7reP" ] },
      { "delegate": "tz1aXD7Jigrt3PBYSpHSg5Rr33SexMmmM5Ys",
        "reception_time": "2022-01-19T19:56:59.877-00:00",
        "included_in_blocks":
          [ "BM41Fhv9PwsaRuEUj2X2KYS9dH2ypqA5zdxQjW36qFHoC5x7reP" ] },
      { "delegate": "tz1PWCDnz783NNGGQjEFFsHtrcK5yBW4E2rm",
        "reception_time": "2022-01-19T19:56:59.877-00:00",
        "included_in_blocks":
          [ "BM41Fhv9PwsaRuEUj2X2KYS9dH2ypqA5zdxQjW36qFHoC5x7reP" ] },
      { "delegate": "tz1Nf6tsK4G6bBqgSQERy4nUtkHNKUVdh7q1",
        "reception_time": "2022-01-19T19:56:59.877-00:00",
        "included_in_blocks":
          [ "BM41Fhv9PwsaRuEUj2X2KYS9dH2ypqA5zdxQjW36qFHoC5x7reP" ] },
      { "delegate": "tz1MGTFJXpQmtxLi8QJ7AuVRgM2L2Qfn9w9i",
        "reception_time": "2022-01-19T19:56:59.877-00:00",
        "included_in_blocks":
          [ "BM41Fhv9PwsaRuEUj2X2KYS9dH2ypqA5zdxQjW36qFHoC5x7reP" ] },
      { "delegate": "tz1awXW7wuXy21c66vBudMXQVAPgRnqqwgTH" },
      { "delegate": "tz1NpWrAyDL9k2Lmnyxcgr9xuJakbBxdq7FB" },
      { "delegate": "tz1S8e9GgdZG78XJRB3NqabfWeM37GnhZMWQ",
        "reception_time": "2022-01-19T19:56:53.486-00:00",
        "errors":
          [ { "kind": "temporary",
              "id": "proto.011-PtHangz2.prefilter.outdated_endorsement" } ],
        "included_in_blocks":
          [ "BM41Fhv9PwsaRuEUj2X2KYS9dH2ypqA5zdxQjW36qFHoC5x7reP" ] },
      { "delegate": "tz1VmiY38m3y95HqQLjMwqnMS7sdMfGomzKi",
        "reception_time": "2022-01-19T19:56:54.356-00:00",
        "errors":
          [ { "kind": "temporary",
              "id": "proto.011-PtHangz2.prefilter.outdated_endorsement" } ],
        "included_in_blocks":
          [ "BM41Fhv9PwsaRuEUj2X2KYS9dH2ypqA5zdxQjW36qFHoC5x7reP" ] },
      { "delegate": "tz1VQnqCCqX4K5sP3FNkVSNKTdCAMJDd3E1n",
        "reception_time": "2022-01-19T19:56:54.549-00:00",
        "errors":
          [ { "kind": "temporary",
              "id": "proto.011-PtHangz2.prefilter.outdated_endorsement" } ],
        "included_in_blocks":
          [ "BM41Fhv9PwsaRuEUj2X2KYS9dH2ypqA5zdxQjW36qFHoC5x7reP" ] },
      { "delegate": "tz1gUNyn3hmnEWqkusWPzxRaon1cs7ndWh7h",
        "reception_time": "2022-01-19T19:56:54.607-00:00",
        "errors":
          [ { "kind": "temporary",
              "id": "proto.011-PtHangz2.prefilter.outdated_endorsement" } ],
        "included_in_blocks":
          [ "BM41Fhv9PwsaRuEUj2X2KYS9dH2ypqA5zdxQjW36qFHoC5x7reP" ] },
      { "delegate": "tz1Ldzz6k1BHdhuKvAtMRX7h5kJSMHESMHLC",
        "reception_time": "2022-01-19T19:56:54.607-00:00",
        "errors":
          [ { "kind": "temporary",
              "id": "proto.011-PtHangz2.prefilter.outdated_endorsement" } ],
        "included_in_blocks":
          [ "BM41Fhv9PwsaRuEUj2X2KYS9dH2ypqA5zdxQjW36qFHoC5x7reP" ] },
      { "delegate": "tz1P2Po7YM526ughEsRbY4oR9zaUPDZjxFrb",
        "reception_time": "2022-01-19T19:56:54.667-00:00",
        "errors":
          [ { "kind": "temporary",
              "id": "proto.011-PtHangz2.prefilter.outdated_endorsement" } ],
        "included_in_blocks":
          [ "BM41Fhv9PwsaRuEUj2X2KYS9dH2ypqA5zdxQjW36qFHoC5x7reP" ] },
      { "delegate": "tz1irJKkXS2DBWkU1NnmFQx1c1L7pbGg4yhk",
        "reception_time": "2022-01-19T19:56:55.102-00:00",
        "errors":
          [ { "kind": "temporary",
              "id": "proto.011-PtHangz2.prefilter.outdated_endorsement" } ],
        "included_in_blocks":
          [ "BM41Fhv9PwsaRuEUj2X2KYS9dH2ypqA5zdxQjW36qFHoC5x7reP" ] },
      { "delegate": "tz1RV1MBbZMR68tacosb7Mwj6LkbPSUS1er1",
        "reception_time": "2022-01-19T19:56:55.117-00:00",
        "errors":
          [ { "kind": "temporary",
              "id": "proto.011-PtHangz2.prefilter.outdated_endorsement" } ],
        "included_in_blocks":
          [ "BM41Fhv9PwsaRuEUj2X2KYS9dH2ypqA5zdxQjW36qFHoC5x7reP" ] },
      { "delegate": "tz1aqcYgG6NuViML5vdWhohHJBYxcDVLNUsE",
        "reception_time": "2022-01-19T19:56:55.232-00:00",
        "errors":
          [ { "kind": "temporary",
              "id": "proto.011-PtHangz2.prefilter.outdated_endorsement" } ],
        "included_in_blocks":
          [ "BM41Fhv9PwsaRuEUj2X2KYS9dH2ypqA5zdxQjW36qFHoC5x7reP" ] },
      { "delegate": "tz1STeamwbp68THcny9zk3LsbG3H36DMvbRK",
        "reception_time": "2022-01-19T19:56:55.665-00:00",
        "errors":
          [ { "kind": "temporary",
              "id": "proto.011-PtHangz2.prefilter.outdated_endorsement" } ],
        "included_in_blocks":
          [ "BM41Fhv9PwsaRuEUj2X2KYS9dH2ypqA5zdxQjW36qFHoC5x7reP" ] },
      { "delegate": "tz1ei4WtWEMEJekSv8qDnu9PExG6Q8HgRGr3",
        "reception_time": "2022-01-19T19:56:55.752-00:00",
        "errors":
          [ { "kind": "temporary",
              "id": "proto.011-PtHangz2.prefilter.outdated_endorsement" } ],
        "included_in_blocks":
          [ "BM41Fhv9PwsaRuEUj2X2KYS9dH2ypqA5zdxQjW36qFHoC5x7reP" ] },
      { "delegate": "tz1WCd2jm4uSt4vntk4vSuUWoZQGhLcDuR9q",
        "reception_time": "2022-01-19T19:56:55.891-00:00",
        "errors":
          [ { "kind": "temporary",
              "id": "proto.011-PtHangz2.prefilter.outdated_endorsement" } ],
        "included_in_blocks":
          [ "BM41Fhv9PwsaRuEUj2X2KYS9dH2ypqA5zdxQjW36qFHoC5x7reP" ] },
      { "delegate": "tz1TzaNn7wSQSP5gYPXCnNzBCpyMiidCq1PX",
        "reception_time": "2022-01-19T19:56:56.191-00:00",
        "errors":
          [ { "kind": "temporary",
              "id": "proto.011-PtHangz2.prefilter.outdated_endorsement" } ],
        "included_in_blocks":
          [ "BM41Fhv9PwsaRuEUj2X2KYS9dH2ypqA5zdxQjW36qFHoC5x7reP" ] } ] }