{ "blocks":
    [ { "hash": "BLY6TA3oxS33RwKJeEVSspgNKw33NPCKjNSDxY4a1k3NLb67vaG",
        "delegate": "tz1irJKkXS2DBWkU1NnmFQx1c1L7pbGg4yhk",
        "reception_time": "2022-01-19T20:43:33.096-00:00",
        "timestamp": "2022-01-19T20:43:20Z" } ],
  "endorsements":
    [ { "delegate": "tz1LLNkQK4UQV6QcFShiXJ2vT2ELw449MzAA",
        "reception_time": "2022-01-19T20:43:32.882-00:00",
        "errors":
          [ { "kind": "temporary",
              "id": "proto.011-PtHangz2.prefilter.outdated_endorsement" } ],
        "included_in_blocks":
          [ "BL5PewG9n2PCcNThKgHRNJk4vXgDB3fLZHT2QYUqNVM2tH3F6a3" ] },
      { "delegate": "tz1RV1MBbZMR68tacosb7Mwj6LkbPSUS1er1",
        "reception_time": "2022-01-19T20:43:32.775-00:00",
        "errors":
          [ { "kind": "temporary",
              "id": "proto.011-PtHangz2.prefilter.outdated_endorsement" } ],
        "included_in_blocks":
          [ "BL5PewG9n2PCcNThKgHRNJk4vXgDB3fLZHT2QYUqNVM2tH3F6a3" ] },
      { "delegate": "tz1P2Po7YM526ughEsRbY4oR9zaUPDZjxFrb",
        "reception_time": "2022-01-19T20:43:32.700-00:00",
        "errors":
          [ { "kind": "temporary",
              "id": "proto.011-PtHangz2.prefilter.outdated_endorsement" } ],
        "included_in_blocks":
          [ "BL5PewG9n2PCcNThKgHRNJk4vXgDB3fLZHT2QYUqNVM2tH3F6a3" ] },
      { "delegate": "tz1bsdrs36X5BTH83RHUBdUouKLJZK8d2oBa",
        "reception_time": "2022-01-19T20:43:32.634-00:00",
        "errors":
          [ { "kind": "temporary",
              "id": "proto.011-PtHangz2.prefilter.outdated_endorsement" } ],
        "included_in_blocks":
          [ "BL5PewG9n2PCcNThKgHRNJk4vXgDB3fLZHT2QYUqNVM2tH3F6a3" ] },
      { "delegate": "tz1VQnqCCqX4K5sP3FNkVSNKTdCAMJDd3E1n",
        "reception_time": "2022-01-19T20:43:32.521-00:00",
        "errors":
          [ { "kind": "temporary",
              "id": "proto.011-PtHangz2.prefilter.outdated_endorsement" } ],
        "included_in_blocks":
          [ "BL5PewG9n2PCcNThKgHRNJk4vXgDB3fLZHT2QYUqNVM2tH3F6a3" ] },
      { "delegate": "tz1gUNyn3hmnEWqkusWPzxRaon1cs7ndWh7h",
        "reception_time": "2022-01-19T20:43:32.520-00:00",
        "errors":
          [ { "kind": "temporary",
              "id": "proto.011-PtHangz2.prefilter.outdated_endorsement" } ],
        "included_in_blocks":
          [ "BL5PewG9n2PCcNThKgHRNJk4vXgDB3fLZHT2QYUqNVM2tH3F6a3" ] },
      { "delegate": "tz1irJKkXS2DBWkU1NnmFQx1c1L7pbGg4yhk",
        "reception_time": "2022-01-19T20:43:32.506-00:00",
        "errors":
          [ { "kind": "temporary",
              "id": "proto.011-PtHangz2.prefilter.outdated_endorsement" } ],
        "included_in_blocks":
          [ "BL5PewG9n2PCcNThKgHRNJk4vXgDB3fLZHT2QYUqNVM2tH3F6a3" ] },
      { "delegate": "tz1Scdr2HsZiQjc7bHMeBbmDRXYVvdhjJbBh",
        "reception_time": "2022-01-19T20:43:32.392-00:00",
        "errors":
          [ { "kind": "temporary",
              "id": "proto.011-PtHangz2.prefilter.outdated_endorsement" } ],
        "included_in_blocks":
          [ "BL5PewG9n2PCcNThKgHRNJk4vXgDB3fLZHT2QYUqNVM2tH3F6a3" ] },
      { "delegate": "tz1Ldzz6k1BHdhuKvAtMRX7h5kJSMHESMHLC",
        "reception_time": "2022-01-19T20:43:32.378-00:00",
        "errors":
          [ { "kind": "temporary",
              "id": "proto.011-PtHangz2.prefilter.outdated_endorsement" } ],
        "included_in_blocks":
          [ "BL5PewG9n2PCcNThKgHRNJk4vXgDB3fLZHT2QYUqNVM2tH3F6a3" ] },
      { "delegate": "tz1VmiY38m3y95HqQLjMwqnMS7sdMfGomzKi",
        "reception_time": "2022-01-19T20:43:32.026-00:00",
        "errors":
          [ { "kind": "temporary",
              "id": "proto.011-PtHangz2.prefilter.outdated_endorsement" } ],
        "included_in_blocks":
          [ "BL5PewG9n2PCcNThKgHRNJk4vXgDB3fLZHT2QYUqNVM2tH3F6a3" ] },
      { "delegate": "tz1S8e9GgdZG78XJRB3NqabfWeM37GnhZMWQ",
        "reception_time": "2022-01-19T20:43:31.037-00:00",
        "errors":
          [ { "kind": "temporary",
              "id": "proto.011-PtHangz2.prefilter.outdated_endorsement" } ],
        "included_in_blocks":
          [ "BL5PewG9n2PCcNThKgHRNJk4vXgDB3fLZHT2QYUqNVM2tH3F6a3" ] },
      { "delegate": "tz1go7f6mEQfT2xX2LuHAqgnRGN6c2zHPf5c" },
      { "delegate": "tz1aXD7Jigrt3PBYSpHSg5Rr33SexMmmM5Ys",
        "reception_time": "2022-01-19T20:43:36.704-00:00",
        "included_in_blocks":
          [ "BL5PewG9n2PCcNThKgHRNJk4vXgDB3fLZHT2QYUqNVM2tH3F6a3" ] },
      { "delegate": "tz1WCd2jm4uSt4vntk4vSuUWoZQGhLcDuR9q",
        "reception_time": "2022-01-19T20:43:37.320-00:00",
        "included_in_blocks":
          [ "BL5PewG9n2PCcNThKgHRNJk4vXgDB3fLZHT2QYUqNVM2tH3F6a3" ] },
      { "delegate": "tz1TzaNn7wSQSP5gYPXCnNzBCpyMiidCq1PX",
        "reception_time": "2022-01-19T20:43:37.320-00:00",
        "included_in_blocks":
          [ "BL5PewG9n2PCcNThKgHRNJk4vXgDB3fLZHT2QYUqNVM2tH3F6a3" ] },
      { "delegate": "tz3e7LbZvUtoXhpUD1yb6wuFodZpfYRb9nWJ",
        "reception_time": "2022-01-19T20:43:37.320-00:00",
        "included_in_blocks":
          [ "BL5PewG9n2PCcNThKgHRNJk4vXgDB3fLZHT2QYUqNVM2tH3F6a3" ] },
      { "delegate": "tz3adcvQaKXTCg12zbninqo3q8ptKKtDFTLv",
        "reception_time": "2022-01-19T20:43:37.320-00:00",
        "included_in_blocks":
          [ "BL5PewG9n2PCcNThKgHRNJk4vXgDB3fLZHT2QYUqNVM2tH3F6a3" ] },
      { "delegate": "tz3Zhs2dygr55yHyQyKjntAtY9bgfhLZ4Xj1",
        "reception_time": "2022-01-19T20:43:37.320-00:00",
        "included_in_blocks":
          [ "BL5PewG9n2PCcNThKgHRNJk4vXgDB3fLZHT2QYUqNVM2tH3F6a3" ] },
      { "delegate": "tz1eEnQhbwf6trb8Q8mPb2RaPkNk2rN7BKi8",
        "reception_time": "2022-01-19T20:43:37.320-00:00",
        "included_in_blocks":
          [ "BL5PewG9n2PCcNThKgHRNJk4vXgDB3fLZHT2QYUqNVM2tH3F6a3" ] },
      { "delegate": "tz1Nf6tsK4G6bBqgSQERy4nUtkHNKUVdh7q1",
        "reception_time": "2022-01-19T20:43:37.320-00:00",
        "included_in_blocks":
          [ "BL5PewG9n2PCcNThKgHRNJk4vXgDB3fLZHT2QYUqNVM2tH3F6a3" ] },
      { "delegate": "tz1ZcTRk5uxD86EFEn1vvNffWWqJy7q5eVhc",
        "reception_time": "2022-01-19T20:43:37.320-00:00",
        "included_in_blocks":
          [ "BL5PewG9n2PCcNThKgHRNJk4vXgDB3fLZHT2QYUqNVM2tH3F6a3" ] },
      { "delegate": "tz1beersuEDv8Z7ngQ825xfbaJNS2EhXnyHR",
        "reception_time": "2022-01-19T20:43:37.320-00:00",
        "included_in_blocks":
          [ "BL5PewG9n2PCcNThKgHRNJk4vXgDB3fLZHT2QYUqNVM2tH3F6a3" ] },
      { "delegate": "tz1cYufsxHXJcvANhvS55h3aY32a9BAFB494",
        "reception_time": "2022-01-19T20:43:37.320-00:00",
        "included_in_blocks":
          [ "BL5PewG9n2PCcNThKgHRNJk4vXgDB3fLZHT2QYUqNVM2tH3F6a3" ] },
      { "delegate": "tz1ei4WtWEMEJekSv8qDnu9PExG6Q8HgRGr3",
        "reception_time": "2022-01-19T20:43:37.320-00:00",
        "included_in_blocks":
          [ "BL5PewG9n2PCcNThKgHRNJk4vXgDB3fLZHT2QYUqNVM2tH3F6a3" ] },
      { "delegate": "tz1RjoHc98dBoqaH2jawF62XNKh7YsHwbkEv",
        "reception_time": "2022-01-19T20:43:37.320-00:00",
        "included_in_blocks":
          [ "BL5PewG9n2PCcNThKgHRNJk4vXgDB3fLZHT2QYUqNVM2tH3F6a3" ] },
      { "delegate": "tz1NEKxGEHsFufk87CVZcrqWu8o22qh46GK6",
        "reception_time": "2022-01-19T20:43:37.320-00:00",
        "included_in_blocks":
          [ "BL5PewG9n2PCcNThKgHRNJk4vXgDB3fLZHT2QYUqNVM2tH3F6a3" ] },
      { "delegate": "tz3QSGPoRp3Kn7n3vY24eYeu3Peuqo45LQ4D",
        "reception_time": "2022-01-19T20:43:37.353-00:00",
        "included_in_blocks":
          [ "BL5PewG9n2PCcNThKgHRNJk4vXgDB3fLZHT2QYUqNVM2tH3F6a3" ] },
      { "delegate": "tz3iJu5vrKZcsqRPs8yJ61UDoeEXZmtro4qh",
        "reception_time": "2022-01-19T20:43:37.463-00:00",
        "included_in_blocks":
          [ "BL5PewG9n2PCcNThKgHRNJk4vXgDB3fLZHT2QYUqNVM2tH3F6a3" ] },
      { "delegate": "tz3ZbP2pM3nwvXztbuMJwJnDvV5xdpU8UkkD",
        "reception_time": "2022-01-19T20:43:37.463-00:00",
        "included_in_blocks":
          [ "BL5PewG9n2PCcNThKgHRNJk4vXgDB3fLZHT2QYUqNVM2tH3F6a3" ] },
      { "delegate": "tz1Vd1rXpV8hTHbFXCXN3c3qzCsgcU5BZw1e",
        "reception_time": "2022-01-19T20:43:37.463-00:00",
        "included_in_blocks":
          [ "BL5PewG9n2PCcNThKgHRNJk4vXgDB3fLZHT2QYUqNVM2tH3F6a3" ] },
      { "delegate": "tz3hw2kqXhLUvY65ca1eety2oQTpAvd34R9Q",
        "reception_time": "2022-01-19T20:43:37.463-00:00",
        "included_in_blocks":
          [ "BL5PewG9n2PCcNThKgHRNJk4vXgDB3fLZHT2QYUqNVM2tH3F6a3" ] },
      { "delegate": "tz1dRKU4FQ9QRRQPdaH4zCR6gmCmXfcvcgtB",
        "reception_time": "2022-01-19T20:43:37.463-00:00",
        "included_in_blocks":
          [ "BL5PewG9n2PCcNThKgHRNJk4vXgDB3fLZHT2QYUqNVM2tH3F6a3" ] },
      { "delegate": "tz1TRspM5SeZpaQUhzByXbEvqKF1vnCM2YTK",
        "reception_time": "2022-01-19T20:43:37.463-00:00",
        "included_in_blocks":
          [ "BL5PewG9n2PCcNThKgHRNJk4vXgDB3fLZHT2QYUqNVM2tH3F6a3" ] },
      { "delegate": "tz3gtoUxdudfBRcNY7iVdKPHCYYX6xdPpoRS",
        "reception_time": "2022-01-19T20:43:37.463-00:00",
        "included_in_blocks":
          [ "BL5PewG9n2PCcNThKgHRNJk4vXgDB3fLZHT2QYUqNVM2tH3F6a3" ] },
      { "delegate": "tz1MivraUX9U6nmGAQkm7XkrNVmsPExEUT1W",
        "reception_time": "2022-01-19T20:43:37.463-00:00",
        "included_in_blocks":
          [ "BL5PewG9n2PCcNThKgHRNJk4vXgDB3fLZHT2QYUqNVM2tH3F6a3" ] },
      { "delegate": "tz1RCFbB9GpALpsZtu6J58sb74dm8qe6XBzv",
        "reception_time": "2022-01-19T20:43:37.463-00:00",
        "included_in_blocks":
          [ "BL5PewG9n2PCcNThKgHRNJk4vXgDB3fLZHT2QYUqNVM2tH3F6a3" ] },
      { "delegate": "tz1MJx9vhaNRSimcuXPK2rW4fLccQnDAnVKJ",
        "reception_time": "2022-01-19T20:43:37.463-00:00",
        "included_in_blocks":
          [ "BL5PewG9n2PCcNThKgHRNJk4vXgDB3fLZHT2QYUqNVM2tH3F6a3" ] },
      { "delegate": "tz1KfEsrtDaA1sX7vdM4qmEPWuSytuqCDp5j",
        "reception_time": "2022-01-19T20:43:37.730-00:00",
        "included_in_blocks":
          [ "BL5PewG9n2PCcNThKgHRNJk4vXgDB3fLZHT2QYUqNVM2tH3F6a3" ] },
      { "delegate": "tz2FCNBrERXtaTtNX6iimR1UJ5JSDxvdHM93",
        "reception_time": "2022-01-19T20:43:37.730-00:00",
        "included_in_blocks":
          [ "BL5PewG9n2PCcNThKgHRNJk4vXgDB3fLZHT2QYUqNVM2tH3F6a3" ] },
      { "delegate": "tz1V4qCyvPKZ5UeqdH14HN42rxvNPQfc9UZg",
        "reception_time": "2022-01-19T20:43:37.730-00:00",
        "included_in_blocks":
          [ "BL5PewG9n2PCcNThKgHRNJk4vXgDB3fLZHT2QYUqNVM2tH3F6a3" ] },
      { "delegate": "tz1fWJaG5uj6bQZ19bCSLjELJz6g2J6inUL1",
        "reception_time": "2022-01-19T20:43:37.730-00:00",
        "included_in_blocks":
          [ "BL5PewG9n2PCcNThKgHRNJk4vXgDB3fLZHT2QYUqNVM2tH3F6a3" ] },
      { "delegate": "tz3RKYFsLuQzKBtmYuLNas7uMu3AsYd4QdsA",
        "reception_time": "2022-01-19T20:43:37.730-00:00",
        "included_in_blocks":
          [ "BL5PewG9n2PCcNThKgHRNJk4vXgDB3fLZHT2QYUqNVM2tH3F6a3" ] },
      { "delegate": "tz1gfArv665EUkSg2ojMBzcbfwuPxAvqPvjo",
        "reception_time": "2022-01-19T20:43:37.730-00:00",
        "included_in_blocks":
          [ "BL5PewG9n2PCcNThKgHRNJk4vXgDB3fLZHT2QYUqNVM2tH3F6a3" ] },
      { "delegate": "tz1SYq214SCBy9naR6cvycQsYcUGpBqQAE8d",
        "reception_time": "2022-01-19T20:43:37.730-00:00",
        "included_in_blocks":
          [ "BL5PewG9n2PCcNThKgHRNJk4vXgDB3fLZHT2QYUqNVM2tH3F6a3" ] },
      { "delegate": "tz1g8vkmcde6sWKaG2NN9WKzCkDM6Rziq194",
        "reception_time": "2022-01-19T20:43:37.730-00:00",
        "included_in_blocks":
          [ "BL5PewG9n2PCcNThKgHRNJk4vXgDB3fLZHT2QYUqNVM2tH3F6a3" ] },
      { "delegate": "tz1NuUu12WHdW3jHqvkujGHsiTi46Wvw1ci1",
        "reception_time": "2022-01-19T20:43:37.730-00:00",
        "included_in_blocks":
          [ "BL5PewG9n2PCcNThKgHRNJk4vXgDB3fLZHT2QYUqNVM2tH3F6a3" ] },
      { "delegate": "tz3S6BBeKgJGXxvLyZ1xzXzMPn11nnFtq5L9",
        "reception_time": "2022-01-19T20:43:37.730-00:00",
        "included_in_blocks":
          [ "BL5PewG9n2PCcNThKgHRNJk4vXgDB3fLZHT2QYUqNVM2tH3F6a3" ] },
      { "delegate": "tz1T7duV5gZWSTq4YpBGbXNLTfznCLDrFxvs",
        "reception_time": "2022-01-19T20:43:37.730-00:00",
        "included_in_blocks":
          [ "BL5PewG9n2PCcNThKgHRNJk4vXgDB3fLZHT2QYUqNVM2tH3F6a3" ] },
      { "delegate": "tz3QT9dHYKDqh563chVa6za8526ys1UKfRfL",
        "reception_time": "2022-01-19T20:43:37.730-00:00",
        "included_in_blocks":
          [ "BL5PewG9n2PCcNThKgHRNJk4vXgDB3fLZHT2QYUqNVM2tH3F6a3" ] },
      { "delegate": "tz1WBfwbT66FC6BTLexc2BoyCCBM9LG7pnVW",
        "reception_time": "2022-01-19T20:43:37.730-00:00",
        "included_in_blocks":
          [ "BL5PewG9n2PCcNThKgHRNJk4vXgDB3fLZHT2QYUqNVM2tH3F6a3" ] },
      { "delegate": "tz1WctSwL49BZtdWAQ75NY6vr4xsAx6oKdah",
        "reception_time": "2022-01-19T20:43:37.730-00:00",
        "included_in_blocks":
          [ "BL5PewG9n2PCcNThKgHRNJk4vXgDB3fLZHT2QYUqNVM2tH3F6a3" ] },
      { "delegate": "tz1abmz7jiCV2GH2u81LRrGgAFFgvQgiDiaf",
        "reception_time": "2022-01-19T20:43:37.730-00:00",
        "included_in_blocks":
          [ "BL5PewG9n2PCcNThKgHRNJk4vXgDB3fLZHT2QYUqNVM2tH3F6a3" ] },
      { "delegate": "tz3NDpRj6WBrJPikcPVHRBEjWKxFw3c6eQPS",
        "reception_time": "2022-01-19T20:43:37.730-00:00",
        "included_in_blocks":
          [ "BL5PewG9n2PCcNThKgHRNJk4vXgDB3fLZHT2QYUqNVM2tH3F6a3" ] },
      { "delegate": "tz1MQJPGNMijnXnVoBENFz9rUhaPt3S7rWoz",
        "reception_time": "2022-01-19T20:43:37.730-00:00",
        "included_in_blocks":
          [ "BL5PewG9n2PCcNThKgHRNJk4vXgDB3fLZHT2QYUqNVM2tH3F6a3" ] },
      { "delegate": "tz1UJvHTgpVzcKWhTazGxVcn5wsHru5Gietg",
        "reception_time": "2022-01-19T20:43:37.953-00:00",
        "included_in_blocks":
          [ "BL5PewG9n2PCcNThKgHRNJk4vXgDB3fLZHT2QYUqNVM2tH3F6a3" ] },
      { "delegate": "tz3QCNyySViKHmeSr45kzDxzchys7NiXCWoa",
        "reception_time": "2022-01-19T20:43:37.953-00:00",
        "included_in_blocks":
          [ "BL5PewG9n2PCcNThKgHRNJk4vXgDB3fLZHT2QYUqNVM2tH3F6a3" ] },
      { "delegate": "tz1S6H83gugqK4dR5Had9jWR9M1ZdAAVgU5e",
        "reception_time": "2022-01-19T20:43:37.953-00:00",
        "included_in_blocks":
          [ "BL5PewG9n2PCcNThKgHRNJk4vXgDB3fLZHT2QYUqNVM2tH3F6a3" ] },
      { "delegate": "tz1TRqbYbUf2GyrjErf3hBzgBJPzW8y36qEs",
        "reception_time": "2022-01-19T20:43:37.953-00:00",
        "included_in_blocks":
          [ "BL5PewG9n2PCcNThKgHRNJk4vXgDB3fLZHT2QYUqNVM2tH3F6a3" ] },
      { "delegate": "tz1S8MNvuFEUsWgjHvi3AxibRBf388NhT1q2",
        "reception_time": "2022-01-19T20:43:38.145-00:00",
        "included_in_blocks":
          [ "BL5PewG9n2PCcNThKgHRNJk4vXgDB3fLZHT2QYUqNVM2tH3F6a3" ] },
      { "delegate": "tz2BzJTyoQp8fNbfhWD4YQgH9JJHDgSGzpdG",
        "reception_time": "2022-01-19T20:43:38.527-00:00",
        "included_in_blocks":
          [ "BL5PewG9n2PCcNThKgHRNJk4vXgDB3fLZHT2QYUqNVM2tH3F6a3" ] },
      { "delegate": "tz3bTdwZinP8U1JmSweNzVKhmwafqWmFWRfk",
        "reception_time": "2022-01-19T20:43:38.551-00:00",
        "included_in_blocks":
          [ "BL5PewG9n2PCcNThKgHRNJk4vXgDB3fLZHT2QYUqNVM2tH3F6a3" ] },
      { "delegate": "tz3RDC3Jdn4j15J7bBHZd29EUee9gVB1CxD9",
        "reception_time": "2022-01-19T20:43:39.131-00:00",
        "included_in_blocks":
          [ "BL5PewG9n2PCcNThKgHRNJk4vXgDB3fLZHT2QYUqNVM2tH3F6a3" ] },
      { "delegate": "tz3VEZ4k6a4Wx42iyev6i2aVAptTRLEAivNN",
        "reception_time": "2022-01-19T20:43:39.680-00:00",
        "included_in_blocks":
          [ "BL5PewG9n2PCcNThKgHRNJk4vXgDB3fLZHT2QYUqNVM2tH3F6a3" ] },
      { "delegate": "tz3bvNMQ95vfAYtG8193ymshqjSvmxiCUuR5",
        "reception_time": "2022-01-19T20:43:39.905-00:00",
        "included_in_blocks":
          [ "BL5PewG9n2PCcNThKgHRNJk4vXgDB3fLZHT2QYUqNVM2tH3F6a3" ] },
      { "delegate": "tz3RB4aoyjov4KEVRbuhvQ1CKJgBJMWhaeB8",
        "reception_time": "2022-01-19T20:43:39.920-00:00",
        "included_in_blocks":
          [ "BL5PewG9n2PCcNThKgHRNJk4vXgDB3fLZHT2QYUqNVM2tH3F6a3" ] },
      { "delegate": "tz3WMqdzXqRWXwyvj5Hp2H7QEepaUuS7vd9K",
        "reception_time": "2022-01-19T20:43:40.027-00:00",
        "included_in_blocks":
          [ "BL5PewG9n2PCcNThKgHRNJk4vXgDB3fLZHT2QYUqNVM2tH3F6a3" ] },
      { "delegate": "tz3NExpXn9aPNZPorRE4SdjJ2RGrfbJgMAaV",
        "reception_time": "2022-01-19T20:43:40.420-00:00",
        "included_in_blocks":
          [ "BL5PewG9n2PCcNThKgHRNJk4vXgDB3fLZHT2QYUqNVM2tH3F6a3" ] },
      { "delegate": "tz3UoffC7FG7zfpmvmjUmUeAaHvzdcUvAj6r",
        "reception_time": "2022-01-19T20:43:41.062-00:00",
        "included_in_blocks":
          [ "BL5PewG9n2PCcNThKgHRNJk4vXgDB3fLZHT2QYUqNVM2tH3F6a3" ] },
      { "delegate": "tz1SUgyRB8T5jXgXAwS33pgRHAKrafyg87Yc",
        "reception_time": "2022-01-19T20:43:41.699-00:00",
        "included_in_blocks":
          [ "BL5PewG9n2PCcNThKgHRNJk4vXgDB3fLZHT2QYUqNVM2tH3F6a3" ] },
      { "delegate": "tz1aRoaRhSpRYvFdyvgWLL6TGyRoGF51wDjM",
        "reception_time": "2022-01-19T20:43:45.280-00:00",
        "included_in_blocks":
          [ "BL5PewG9n2PCcNThKgHRNJk4vXgDB3fLZHT2QYUqNVM2tH3F6a3" ] },
      { "delegate": "tz1NpWrAyDL9k2Lmnyxcgr9xuJakbBxdq7FB",
        "reception_time": "2022-01-19T20:43:48.751-00:00",
        "included_in_blocks":
          [ "BL5PewG9n2PCcNThKgHRNJk4vXgDB3fLZHT2QYUqNVM2tH3F6a3" ] } ] }