{ "blocks":
    [ { "hash": "BMJQNupSyHUr8s6Ha6N1idqukd8iUaq9xr455VWE7wHyYGfEUB4",
        "delegate": "tz1RQhNh7iB9CZA7i3ifTWNwiGYVffponfbB",
        "reception_time": "2022-01-20T01:15:50.743-00:00",
        "timestamp": "2022-01-20T01:15:40Z" } ],
  "endorsements":
    [ { "delegate": "tz1ibcPVGK4Y8pcW4BYUsojiHoBKnZbyDGrX" },
      { "delegate": "tz1W5VkdB5s7ENMESVBtwyt9kyvLqPcUczRT" },
      { "delegate": "tz1Vyuu4EJ5Nym4JcrfRLnp3hpaq1DSEp1Ke" },
      { "delegate": "tz1RjoHc98dBoqaH2jawF62XNKh7YsHwbkEv" },
      { "delegate": "tz1TzaNn7wSQSP5gYPXCnNzBCpyMiidCq1PX",
        "reception_time": "2022-01-20T01:15:50.744-00:00",
        "errors":
          [ { "kind": "temporary",
              "id": "proto.011-PtHangz2.prefilter.outdated_endorsement" } ],
        "included_in_blocks":
          [ "BKsqZer831yJAmVPV1YNVwqiT2QRixjFr8z5ZtCRgJcAiiMKEdy" ] },
      { "delegate": "tz1VmiY38m3y95HqQLjMwqnMS7sdMfGomzKi",
        "reception_time": "2022-01-20T01:15:50.365-00:00",
        "errors":
          [ { "kind": "temporary",
              "id": "proto.011-PtHangz2.prefilter.outdated_endorsement" } ],
        "included_in_blocks":
          [ "BKsqZer831yJAmVPV1YNVwqiT2QRixjFr8z5ZtCRgJcAiiMKEdy" ] },
      { "delegate": "tz1eEnQhbwf6trb8Q8mPb2RaPkNk2rN7BKi8",
        "reception_time": "2022-01-20T01:15:50.223-00:00",
        "errors":
          [ { "kind": "temporary",
              "id": "proto.011-PtHangz2.prefilter.outdated_endorsement" } ],
        "included_in_blocks":
          [ "BKsqZer831yJAmVPV1YNVwqiT2QRixjFr8z5ZtCRgJcAiiMKEdy" ] },
      { "delegate": "tz1irJKkXS2DBWkU1NnmFQx1c1L7pbGg4yhk",
        "reception_time": "2022-01-20T01:15:50.175-00:00",
        "errors":
          [ { "kind": "temporary",
              "id": "proto.011-PtHangz2.prefilter.outdated_endorsement" } ],
        "included_in_blocks":
          [ "BKsqZer831yJAmVPV1YNVwqiT2QRixjFr8z5ZtCRgJcAiiMKEdy" ] },
      { "delegate": "tz1P2Po7YM526ughEsRbY4oR9zaUPDZjxFrb",
        "reception_time": "2022-01-20T01:15:50.001-00:00",
        "errors":
          [ { "kind": "temporary",
              "id": "proto.011-PtHangz2.prefilter.outdated_endorsement" } ],
        "included_in_blocks":
          [ "BKsqZer831yJAmVPV1YNVwqiT2QRixjFr8z5ZtCRgJcAiiMKEdy" ] },
      { "delegate": "tz1Ldzz6k1BHdhuKvAtMRX7h5kJSMHESMHLC",
        "reception_time": "2022-01-20T01:15:49.982-00:00",
        "errors":
          [ { "kind": "temporary",
              "id": "proto.011-PtHangz2.prefilter.outdated_endorsement" } ],
        "included_in_blocks":
          [ "BKsqZer831yJAmVPV1YNVwqiT2QRixjFr8z5ZtCRgJcAiiMKEdy" ] },
      { "delegate": "tz1STeamwbp68THcny9zk3LsbG3H36DMvbRK",
        "reception_time": "2022-01-20T01:15:49.947-00:00",
        "errors":
          [ { "kind": "temporary",
              "id": "proto.011-PtHangz2.prefilter.outdated_endorsement" } ],
        "included_in_blocks":
          [ "BKsqZer831yJAmVPV1YNVwqiT2QRixjFr8z5ZtCRgJcAiiMKEdy" ] },
      { "delegate": "tz1gUNyn3hmnEWqkusWPzxRaon1cs7ndWh7h",
        "reception_time": "2022-01-20T01:15:49.495-00:00",
        "errors":
          [ { "kind": "temporary",
              "id": "proto.011-PtHangz2.prefilter.outdated_endorsement" } ],
        "included_in_blocks":
          [ "BKsqZer831yJAmVPV1YNVwqiT2QRixjFr8z5ZtCRgJcAiiMKEdy" ] },
      { "delegate": "tz1Scdr2HsZiQjc7bHMeBbmDRXYVvdhjJbBh",
        "reception_time": "2022-01-20T01:15:49.465-00:00",
        "errors":
          [ { "kind": "temporary",
              "id": "proto.011-PtHangz2.prefilter.outdated_endorsement" } ],
        "included_in_blocks":
          [ "BKsqZer831yJAmVPV1YNVwqiT2QRixjFr8z5ZtCRgJcAiiMKEdy" ] },
      { "delegate": "tz1VQnqCCqX4K5sP3FNkVSNKTdCAMJDd3E1n",
        "reception_time": "2022-01-20T01:15:49.372-00:00",
        "errors":
          [ { "kind": "temporary",
              "id": "proto.011-PtHangz2.prefilter.outdated_endorsement" } ],
        "included_in_blocks":
          [ "BKsqZer831yJAmVPV1YNVwqiT2QRixjFr8z5ZtCRgJcAiiMKEdy" ] },
      { "delegate": "tz1S8e9GgdZG78XJRB3NqabfWeM37GnhZMWQ",
        "reception_time": "2022-01-20T01:15:48.864-00:00",
        "errors":
          [ { "kind": "temporary",
              "id": "proto.011-PtHangz2.prefilter.outdated_endorsement" } ],
        "included_in_blocks":
          [ "BKsqZer831yJAmVPV1YNVwqiT2QRixjFr8z5ZtCRgJcAiiMKEdy" ] },
      { "delegate": "tz1NpWrAyDL9k2Lmnyxcgr9xuJakbBxdq7FB",
        "reception_time": "2022-01-20T01:16:09.559-00:00",
        "included_in_blocks":
          [ "BKsqZer831yJAmVPV1YNVwqiT2QRixjFr8z5ZtCRgJcAiiMKEdy" ] },
      { "delegate": "tz2BzJTyoQp8fNbfhWD4YQgH9JJHDgSGzpdG",
        "reception_time": "2022-01-20T01:16:00.466-00:00",
        "included_in_blocks":
          [ "BKsqZer831yJAmVPV1YNVwqiT2QRixjFr8z5ZtCRgJcAiiMKEdy" ] },
      { "delegate": "tz1i3mhawFAgcB8JHaHwoUF6hdncwTAkLEn2",
        "reception_time": "2022-01-20T01:15:57.947-00:00",
        "included_in_blocks":
          [ "BKsqZer831yJAmVPV1YNVwqiT2QRixjFr8z5ZtCRgJcAiiMKEdy" ] },
      { "delegate": "tz1aRoaRhSpRYvFdyvgWLL6TGyRoGF51wDjM",
        "reception_time": "2022-01-20T01:15:55.996-00:00",
        "included_in_blocks":
          [ "BKsqZer831yJAmVPV1YNVwqiT2QRixjFr8z5ZtCRgJcAiiMKEdy" ] },
      { "delegate": "tz1V3yg82mcrPJbegqVCPn6bC8w1CSTRp3f8",
        "reception_time": "2022-01-20T01:15:55.440-00:00",
        "included_in_blocks":
          [ "BKsqZer831yJAmVPV1YNVwqiT2QRixjFr8z5ZtCRgJcAiiMKEdy" ] },
      { "delegate": "tz1bTpviNnyx2PXsNmGpCQTMQsGoYordkUoA",
        "reception_time": "2022-01-20T01:15:54.840-00:00",
        "included_in_blocks":
          [ "BKsqZer831yJAmVPV1YNVwqiT2QRixjFr8z5ZtCRgJcAiiMKEdy" ] },
      { "delegate": "tz1aJS7Pk9uWR3wWyFf1i3RwhYxN84G7stom",
        "reception_time": "2022-01-20T01:15:54.377-00:00",
        "included_in_blocks":
          [ "BKsqZer831yJAmVPV1YNVwqiT2QRixjFr8z5ZtCRgJcAiiMKEdy" ] },
      { "delegate": "tz3bvNMQ95vfAYtG8193ymshqjSvmxiCUuR5",
        "reception_time": "2022-01-20T01:15:53.847-00:00",
        "included_in_blocks":
          [ "BKsqZer831yJAmVPV1YNVwqiT2QRixjFr8z5ZtCRgJcAiiMKEdy" ] },
      { "delegate": "tz1chefX9Lf2XcZ4BzPtHjV4Qed6BY2ci9GE",
        "reception_time": "2022-01-20T01:15:53.832-00:00",
        "included_in_blocks":
          [ "BKsqZer831yJAmVPV1YNVwqiT2QRixjFr8z5ZtCRgJcAiiMKEdy" ] },
      { "delegate": "tz3RDC3Jdn4j15J7bBHZd29EUee9gVB1CxD9",
        "reception_time": "2022-01-20T01:15:54.087-00:00",
        "included_in_blocks":
          [ "BKsqZer831yJAmVPV1YNVwqiT2QRixjFr8z5ZtCRgJcAiiMKEdy" ] },
      { "delegate": "tz3UoffC7FG7zfpmvmjUmUeAaHvzdcUvAj6r",
        "reception_time": "2022-01-20T01:15:54.460-00:00",
        "included_in_blocks":
          [ "BKsqZer831yJAmVPV1YNVwqiT2QRixjFr8z5ZtCRgJcAiiMKEdy" ] },
      { "delegate": "tz3NExpXn9aPNZPorRE4SdjJ2RGrfbJgMAaV",
        "reception_time": "2022-01-20T01:15:54.537-00:00",
        "included_in_blocks":
          [ "BKsqZer831yJAmVPV1YNVwqiT2QRixjFr8z5ZtCRgJcAiiMKEdy" ] },
      { "delegate": "tz3NDpRj6WBrJPikcPVHRBEjWKxFw3c6eQPS",
        "reception_time": "2022-01-20T01:15:53.527-00:00",
        "included_in_blocks":
          [ "BKsqZer831yJAmVPV1YNVwqiT2QRixjFr8z5ZtCRgJcAiiMKEdy" ] },
      { "delegate": "tz3gLTu4Yxj8tPAcriQVUdxv6BY9QyvzU1az",
        "reception_time": "2022-01-20T01:15:53.464-00:00",
        "included_in_blocks":
          [ "BKsqZer831yJAmVPV1YNVwqiT2QRixjFr8z5ZtCRgJcAiiMKEdy" ] },
      { "delegate": "tz1Q8QkSBS63ZQnH3fBTiAMPes9R666Rn6Sc",
        "reception_time": "2022-01-20T01:15:54.125-00:00",
        "included_in_blocks":
          [ "BKsqZer831yJAmVPV1YNVwqiT2QRixjFr8z5ZtCRgJcAiiMKEdy" ] },
      { "delegate": "tz1cYufsxHXJcvANhvS55h3aY32a9BAFB494",
        "reception_time": "2022-01-20T01:15:53.530-00:00",
        "included_in_blocks":
          [ "BKsqZer831yJAmVPV1YNVwqiT2QRixjFr8z5ZtCRgJcAiiMKEdy" ] },
      { "delegate": "tz1TRqbYbUf2GyrjErf3hBzgBJPzW8y36qEs",
        "reception_time": "2022-01-20T01:15:53.395-00:00",
        "included_in_blocks":
          [ "BKsqZer831yJAmVPV1YNVwqiT2QRixjFr8z5ZtCRgJcAiiMKEdy" ] },
      { "delegate": "tz1ZcTRk5uxD86EFEn1vvNffWWqJy7q5eVhc",
        "reception_time": "2022-01-20T01:15:53.669-00:00",
        "included_in_blocks":
          [ "BKsqZer831yJAmVPV1YNVwqiT2QRixjFr8z5ZtCRgJcAiiMKEdy" ] },
      { "delegate": "tz1Zdk8q7wNasmv7VFeQ6QFwcw5fP2c7StoF",
        "reception_time": "2022-01-20T01:15:53.116-00:00",
        "included_in_blocks":
          [ "BKsqZer831yJAmVPV1YNVwqiT2QRixjFr8z5ZtCRgJcAiiMKEdy" ] },
      { "delegate": "tz3VEZ4k6a4Wx42iyev6i2aVAptTRLEAivNN",
        "reception_time": "2022-01-20T01:15:53.687-00:00",
        "included_in_blocks":
          [ "BKsqZer831yJAmVPV1YNVwqiT2QRixjFr8z5ZtCRgJcAiiMKEdy" ] },
      { "delegate": "tz1PeZx7FXy7QRuMREGXGxeipb24RsMMzUNe",
        "reception_time": "2022-01-20T01:15:53.116-00:00",
        "included_in_blocks":
          [ "BKsqZer831yJAmVPV1YNVwqiT2QRixjFr8z5ZtCRgJcAiiMKEdy" ] },
      { "delegate": "tz3WMqdzXqRWXwyvj5Hp2H7QEepaUuS7vd9K",
        "reception_time": "2022-01-20T01:15:53.642-00:00",
        "included_in_blocks":
          [ "BKsqZer831yJAmVPV1YNVwqiT2QRixjFr8z5ZtCRgJcAiiMKEdy" ] },
      { "delegate": "tz1fwnfJNgiDACshK9avfRfFbMaXrs3ghoJa",
        "reception_time": "2022-01-20T01:15:53.116-00:00",
        "included_in_blocks":
          [ "BKsqZer831yJAmVPV1YNVwqiT2QRixjFr8z5ZtCRgJcAiiMKEdy" ] },
      { "delegate": "tz1RCFbB9GpALpsZtu6J58sb74dm8qe6XBzv",
        "reception_time": "2022-01-20T01:15:53.135-00:00",
        "included_in_blocks":
          [ "BKsqZer831yJAmVPV1YNVwqiT2QRixjFr8z5ZtCRgJcAiiMKEdy" ] },
      { "delegate": "tz3QCNyySViKHmeSr45kzDxzchys7NiXCWoa",
        "reception_time": "2022-01-20T01:15:53.116-00:00",
        "included_in_blocks":
          [ "BKsqZer831yJAmVPV1YNVwqiT2QRixjFr8z5ZtCRgJcAiiMKEdy" ] },
      { "delegate": "tz2FCNBrERXtaTtNX6iimR1UJ5JSDxvdHM93",
        "reception_time": "2022-01-20T01:15:53.116-00:00",
        "included_in_blocks":
          [ "BKsqZer831yJAmVPV1YNVwqiT2QRixjFr8z5ZtCRgJcAiiMKEdy" ] },
      { "delegate": "tz3RB4aoyjov4KEVRbuhvQ1CKJgBJMWhaeB8",
        "reception_time": "2022-01-20T01:15:53.116-00:00",
        "included_in_blocks":
          [ "BKsqZer831yJAmVPV1YNVwqiT2QRixjFr8z5ZtCRgJcAiiMKEdy" ] },
      { "delegate": "tz1g8vkmcde6sWKaG2NN9WKzCkDM6Rziq194",
        "reception_time": "2022-01-20T01:15:53.116-00:00",
        "included_in_blocks":
          [ "BKsqZer831yJAmVPV1YNVwqiT2QRixjFr8z5ZtCRgJcAiiMKEdy" ] },
      { "delegate": "tz3bEQoFCZEEfZMskefZ8q8e4eiHH1pssRax",
        "reception_time": "2022-01-20T01:15:53.116-00:00",
        "included_in_blocks":
          [ "BKsqZer831yJAmVPV1YNVwqiT2QRixjFr8z5ZtCRgJcAiiMKEdy" ] },
      { "delegate": "tz3bTdwZinP8U1JmSweNzVKhmwafqWmFWRfk",
        "reception_time": "2022-01-20T01:15:53.116-00:00",
        "included_in_blocks":
          [ "BKsqZer831yJAmVPV1YNVwqiT2QRixjFr8z5ZtCRgJcAiiMKEdy" ] },
      { "delegate": "tz1dRKU4FQ9QRRQPdaH4zCR6gmCmXfcvcgtB",
        "reception_time": "2022-01-20T01:15:53.116-00:00",
        "included_in_blocks":
          [ "BKsqZer831yJAmVPV1YNVwqiT2QRixjFr8z5ZtCRgJcAiiMKEdy" ] },
      { "delegate": "tz1T7duV5gZWSTq4YpBGbXNLTfznCLDrFxvs",
        "reception_time": "2022-01-20T01:15:53.116-00:00",
        "included_in_blocks":
          [ "BKsqZer831yJAmVPV1YNVwqiT2QRixjFr8z5ZtCRgJcAiiMKEdy" ] },
      { "delegate": "tz1WBfwbT66FC6BTLexc2BoyCCBM9LG7pnVW",
        "reception_time": "2022-01-20T01:15:53.116-00:00",
        "included_in_blocks":
          [ "BKsqZer831yJAmVPV1YNVwqiT2QRixjFr8z5ZtCRgJcAiiMKEdy" ] },
      { "delegate": "tz1UJvHTgpVzcKWhTazGxVcn5wsHru5Gietg",
        "reception_time": "2022-01-20T01:15:53.116-00:00",
        "included_in_blocks":
          [ "BKsqZer831yJAmVPV1YNVwqiT2QRixjFr8z5ZtCRgJcAiiMKEdy" ] },
      { "delegate": "tz3QT9dHYKDqh563chVa6za8526ys1UKfRfL",
        "reception_time": "2022-01-20T01:15:53.116-00:00",
        "included_in_blocks":
          [ "BKsqZer831yJAmVPV1YNVwqiT2QRixjFr8z5ZtCRgJcAiiMKEdy" ] },
      { "delegate": "tz1Nf6tsK4G6bBqgSQERy4nUtkHNKUVdh7q1",
        "reception_time": "2022-01-20T01:15:53.116-00:00",
        "included_in_blocks":
          [ "BKsqZer831yJAmVPV1YNVwqiT2QRixjFr8z5ZtCRgJcAiiMKEdy" ] },
      { "delegate": "tz3S6BBeKgJGXxvLyZ1xzXzMPn11nnFtq5L9",
        "reception_time": "2022-01-20T01:15:53.116-00:00",
        "included_in_blocks":
          [ "BKsqZer831yJAmVPV1YNVwqiT2QRixjFr8z5ZtCRgJcAiiMKEdy" ] },
      { "delegate": "tz1Tnjaxk6tbAeC2TmMApPh8UsrEVQvhHvx5",
        "reception_time": "2022-01-20T01:15:53.116-00:00",
        "included_in_blocks":
          [ "BKsqZer831yJAmVPV1YNVwqiT2QRixjFr8z5ZtCRgJcAiiMKEdy" ] },
      { "delegate": "tz3Zhs2dygr55yHyQyKjntAtY9bgfhLZ4Xj1",
        "reception_time": "2022-01-20T01:15:52.724-00:00",
        "included_in_blocks":
          [ "BKsqZer831yJAmVPV1YNVwqiT2QRixjFr8z5ZtCRgJcAiiMKEdy" ] },
      { "delegate": "tz1bHzftcTKZMTZgLLtnrXydCm6UEqf4ivca",
        "reception_time": "2022-01-20T01:15:52.724-00:00",
        "included_in_blocks":
          [ "BKsqZer831yJAmVPV1YNVwqiT2QRixjFr8z5ZtCRgJcAiiMKEdy" ] },
      { "delegate": "tz3iJu5vrKZcsqRPs8yJ61UDoeEXZmtro4qh",
        "reception_time": "2022-01-20T01:15:52.724-00:00",
        "included_in_blocks":
          [ "BKsqZer831yJAmVPV1YNVwqiT2QRixjFr8z5ZtCRgJcAiiMKEdy" ] },
      { "delegate": "tz3QSGPoRp3Kn7n3vY24eYeu3Peuqo45LQ4D",
        "reception_time": "2022-01-20T01:15:52.724-00:00",
        "included_in_blocks":
          [ "BKsqZer831yJAmVPV1YNVwqiT2QRixjFr8z5ZtCRgJcAiiMKEdy" ] },
      { "delegate": "tz3gtoUxdudfBRcNY7iVdKPHCYYX6xdPpoRS",
        "reception_time": "2022-01-20T01:15:52.724-00:00",
        "included_in_blocks":
          [ "BKsqZer831yJAmVPV1YNVwqiT2QRixjFr8z5ZtCRgJcAiiMKEdy" ] },
      { "delegate": "tz1SYq214SCBy9naR6cvycQsYcUGpBqQAE8d",
        "reception_time": "2022-01-20T01:15:53.116-00:00",
        "included_in_blocks":
          [ "BKsqZer831yJAmVPV1YNVwqiT2QRixjFr8z5ZtCRgJcAiiMKEdy" ] },
      { "delegate": "tz3RKYFsLuQzKBtmYuLNas7uMu3AsYd4QdsA",
        "reception_time": "2022-01-20T01:15:52.724-00:00",
        "included_in_blocks":
          [ "BKsqZer831yJAmVPV1YNVwqiT2QRixjFr8z5ZtCRgJcAiiMKEdy" ] },
      { "delegate": "tz1MQJPGNMijnXnVoBENFz9rUhaPt3S7rWoz",
        "reception_time": "2022-01-20T01:15:53.116-00:00",
        "included_in_blocks":
          [ "BKsqZer831yJAmVPV1YNVwqiT2QRixjFr8z5ZtCRgJcAiiMKEdy" ] },
      { "delegate": "tz1a1J3AGjJTAyBqWWSqFuUazUDV2TtD6hMy",
        "reception_time": "2022-01-20T01:15:53.116-00:00",
        "included_in_blocks":
          [ "BKsqZer831yJAmVPV1YNVwqiT2QRixjFr8z5ZtCRgJcAiiMKEdy" ] },
      { "delegate": "tz3ZbP2pM3nwvXztbuMJwJnDvV5xdpU8UkkD",
        "reception_time": "2022-01-20T01:15:52.724-00:00",
        "included_in_blocks":
          [ "BKsqZer831yJAmVPV1YNVwqiT2QRixjFr8z5ZtCRgJcAiiMKEdy" ] },
      { "delegate": "tz1NEKxGEHsFufk87CVZcrqWu8o22qh46GK6",
        "reception_time": "2022-01-20T01:15:53.116-00:00",
        "included_in_blocks":
          [ "BKsqZer831yJAmVPV1YNVwqiT2QRixjFr8z5ZtCRgJcAiiMKEdy" ] },
      { "delegate": "tz1gfArv665EUkSg2ojMBzcbfwuPxAvqPvjo",
        "reception_time": "2022-01-20T01:15:53.116-00:00",
        "included_in_blocks":
          [ "BKsqZer831yJAmVPV1YNVwqiT2QRixjFr8z5ZtCRgJcAiiMKEdy" ] },
      { "delegate": "tz1TRspM5SeZpaQUhzByXbEvqKF1vnCM2YTK",
        "reception_time": "2022-01-20T01:15:52.724-00:00",
        "included_in_blocks":
          [ "BKsqZer831yJAmVPV1YNVwqiT2QRixjFr8z5ZtCRgJcAiiMKEdy" ] },
      { "delegate": "tz3NxTnke1acr8o3h5y9ytf5awQBGNJUKzVU",
        "reception_time": "2022-01-20T01:15:52.724-00:00",
        "included_in_blocks":
          [ "BKsqZer831yJAmVPV1YNVwqiT2QRixjFr8z5ZtCRgJcAiiMKEdy" ] },
      { "delegate": "tz1TEc75UKXv4W5cwi14Na3NtqFD51yKQi7h",
        "reception_time": "2022-01-20T01:15:52.724-00:00",
        "included_in_blocks":
          [ "BKsqZer831yJAmVPV1YNVwqiT2QRixjFr8z5ZtCRgJcAiiMKEdy" ] },
      { "delegate": "tz1S8MNvuFEUsWgjHvi3AxibRBf388NhT1q2",
        "reception_time": "2022-01-20T01:15:53.116-00:00",
        "included_in_blocks":
          [ "BKsqZer831yJAmVPV1YNVwqiT2QRixjFr8z5ZtCRgJcAiiMKEdy" ] },
      { "delegate": "tz1W1f1JrE7VsqgpUpj1iiDobqP5TixgZhDk",
        "reception_time": "2022-01-20T01:15:52.509-00:00",
        "included_in_blocks":
          [ "BKsqZer831yJAmVPV1YNVwqiT2QRixjFr8z5ZtCRgJcAiiMKEdy" ] },
      { "delegate": "tz1PWCDnz783NNGGQjEFFsHtrcK5yBW4E2rm",
        "reception_time": "2022-01-20T01:15:52.509-00:00",
        "included_in_blocks":
          [ "BKsqZer831yJAmVPV1YNVwqiT2QRixjFr8z5ZtCRgJcAiiMKEdy" ] },
      { "delegate": "tz1ei4WtWEMEJekSv8qDnu9PExG6Q8HgRGr3",
        "reception_time": "2022-01-20T01:15:52.509-00:00",
        "included_in_blocks":
          [ "BKsqZer831yJAmVPV1YNVwqiT2QRixjFr8z5ZtCRgJcAiiMKEdy" ] } ] }