{ "blocks":
    [ { "hash": "BLyxJGasHs7L7GdbjpD7Ke6FxPAPmtpN7hdxVKk6YPPyeraryyq",
        "delegate": "tz3QSGPoRp3Kn7n3vY24eYeu3Peuqo45LQ4D",
        "reception_time": "2022-01-19T23:20:20.475-00:00",
        "timestamp": "2022-01-19T23:20:10Z" } ],
  "endorsements":
    [ { "delegate": "tz1dbfppLAAxXZNtf2SDps7rch3qfUznKSoK" },
      { "delegate": "tz1awXW7wuXy21c66vBudMXQVAPgRnqqwgTH" },
      { "delegate": "tz1RjoHc98dBoqaH2jawF62XNKh7YsHwbkEv" },
      { "delegate": "tz1aXD7Jigrt3PBYSpHSg5Rr33SexMmmM5Ys",
        "reception_time": "2022-01-19T23:20:20.101-00:00",
        "errors":
          [ { "kind": "temporary",
              "id": "proto.011-PtHangz2.prefilter.outdated_endorsement" } ],
        "included_in_blocks":
          [ "BMdufhxc8hBPiwbGghG4sM7FF4XA8L6LumhJELYBZR8uzDctw2m" ] },
      { "delegate": "tz1MXFrtZoaXckE41bjUCSjAjAap3AFDSr3N",
        "reception_time": "2022-01-19T23:20:19.995-00:00",
        "errors":
          [ { "kind": "temporary",
              "id": "proto.011-PtHangz2.prefilter.outdated_endorsement" } ],
        "included_in_blocks":
          [ "BMdufhxc8hBPiwbGghG4sM7FF4XA8L6LumhJELYBZR8uzDctw2m" ] },
      { "delegate": "tz1eEnQhbwf6trb8Q8mPb2RaPkNk2rN7BKi8",
        "reception_time": "2022-01-19T23:20:19.969-00:00",
        "errors":
          [ { "kind": "temporary",
              "id": "proto.011-PtHangz2.prefilter.outdated_endorsement" } ],
        "included_in_blocks":
          [ "BMdufhxc8hBPiwbGghG4sM7FF4XA8L6LumhJELYBZR8uzDctw2m" ] },
      { "delegate": "tz1Ldzz6k1BHdhuKvAtMRX7h5kJSMHESMHLC",
        "reception_time": "2022-01-19T23:20:19.962-00:00",
        "errors":
          [ { "kind": "temporary",
              "id": "proto.011-PtHangz2.prefilter.outdated_endorsement" } ],
        "included_in_blocks":
          [ "BMdufhxc8hBPiwbGghG4sM7FF4XA8L6LumhJELYBZR8uzDctw2m" ] },
      { "delegate": "tz1VmiY38m3y95HqQLjMwqnMS7sdMfGomzKi",
        "reception_time": "2022-01-19T23:20:19.768-00:00",
        "errors":
          [ { "kind": "temporary",
              "id": "proto.011-PtHangz2.prefilter.outdated_endorsement" } ],
        "included_in_blocks":
          [ "BMdufhxc8hBPiwbGghG4sM7FF4XA8L6LumhJELYBZR8uzDctw2m" ] },
      { "delegate": "tz1RV1MBbZMR68tacosb7Mwj6LkbPSUS1er1",
        "reception_time": "2022-01-19T23:20:19.622-00:00",
        "errors":
          [ { "kind": "temporary",
              "id": "proto.011-PtHangz2.prefilter.outdated_endorsement" } ],
        "included_in_blocks":
          [ "BMdufhxc8hBPiwbGghG4sM7FF4XA8L6LumhJELYBZR8uzDctw2m" ] },
      { "delegate": "tz1P2Po7YM526ughEsRbY4oR9zaUPDZjxFrb",
        "reception_time": "2022-01-19T23:20:19.434-00:00",
        "errors":
          [ { "kind": "temporary",
              "id": "proto.011-PtHangz2.prefilter.outdated_endorsement" } ],
        "included_in_blocks":
          [ "BMdufhxc8hBPiwbGghG4sM7FF4XA8L6LumhJELYBZR8uzDctw2m" ] },
      { "delegate": "tz1VQnqCCqX4K5sP3FNkVSNKTdCAMJDd3E1n",
        "reception_time": "2022-01-19T23:20:19.434-00:00",
        "errors":
          [ { "kind": "temporary",
              "id": "proto.011-PtHangz2.prefilter.outdated_endorsement" } ],
        "included_in_blocks":
          [ "BMdufhxc8hBPiwbGghG4sM7FF4XA8L6LumhJELYBZR8uzDctw2m" ] },
      { "delegate": "tz1gUNyn3hmnEWqkusWPzxRaon1cs7ndWh7h",
        "reception_time": "2022-01-19T23:20:19.420-00:00",
        "errors":
          [ { "kind": "temporary",
              "id": "proto.011-PtHangz2.prefilter.outdated_endorsement" } ],
        "included_in_blocks":
          [ "BMdufhxc8hBPiwbGghG4sM7FF4XA8L6LumhJELYBZR8uzDctw2m" ] },
      { "delegate": "tz1NpWrAyDL9k2Lmnyxcgr9xuJakbBxdq7FB",
        "reception_time": "2022-01-19T23:20:32.916-00:00",
        "included_in_blocks":
          [ "BMdufhxc8hBPiwbGghG4sM7FF4XA8L6LumhJELYBZR8uzDctw2m" ] },
      { "delegate": "tz1XassDDt6zEcMKLDAoE81ktJmNK28PVEST",
        "reception_time": "2022-01-19T23:20:31.891-00:00",
        "included_in_blocks":
          [ "BMdufhxc8hBPiwbGghG4sM7FF4XA8L6LumhJELYBZR8uzDctw2m" ] },
      { "delegate": "tz1gg5bjopPcr9agjamyu9BbXKLibNc2rbAq",
        "reception_time": "2022-01-19T23:20:27.090-00:00",
        "included_in_blocks":
          [ "BMdufhxc8hBPiwbGghG4sM7FF4XA8L6LumhJELYBZR8uzDctw2m" ] },
      { "delegate": "tz1Y42aKCk53vMbaJNpf1hBg1rznGdBxHJ5C",
        "reception_time": "2022-01-19T23:20:25.808-00:00",
        "included_in_blocks":
          [ "BMdufhxc8hBPiwbGghG4sM7FF4XA8L6LumhJELYBZR8uzDctw2m" ] },
      { "delegate": "tz1aRoaRhSpRYvFdyvgWLL6TGyRoGF51wDjM",
        "reception_time": "2022-01-19T23:20:25.875-00:00",
        "included_in_blocks":
          [ "BMdufhxc8hBPiwbGghG4sM7FF4XA8L6LumhJELYBZR8uzDctw2m" ] },
      { "delegate": "tz1Q8QkSBS63ZQnH3fBTiAMPes9R666Rn6Sc",
        "reception_time": "2022-01-19T23:20:25.097-00:00",
        "included_in_blocks":
          [ "BMdufhxc8hBPiwbGghG4sM7FF4XA8L6LumhJELYBZR8uzDctw2m" ] },
      { "delegate": "tz3NExpXn9aPNZPorRE4SdjJ2RGrfbJgMAaV",
        "reception_time": "2022-01-19T23:20:24.452-00:00",
        "included_in_blocks":
          [ "BMdufhxc8hBPiwbGghG4sM7FF4XA8L6LumhJELYBZR8uzDctw2m" ] },
      { "delegate": "tz1TcH4Nb3aHNDJ7CGZhU7jgAK1BkSP4Lxds",
        "reception_time": "2022-01-19T23:20:24.473-00:00",
        "included_in_blocks":
          [ "BMdufhxc8hBPiwbGghG4sM7FF4XA8L6LumhJELYBZR8uzDctw2m" ] },
      { "delegate": "tz3UoffC7FG7zfpmvmjUmUeAaHvzdcUvAj6r",
        "reception_time": "2022-01-19T23:20:24.403-00:00",
        "included_in_blocks":
          [ "BMdufhxc8hBPiwbGghG4sM7FF4XA8L6LumhJELYBZR8uzDctw2m" ] },
      { "delegate": "tz3RDC3Jdn4j15J7bBHZd29EUee9gVB1CxD9",
        "reception_time": "2022-01-19T23:20:24.258-00:00",
        "included_in_blocks":
          [ "BMdufhxc8hBPiwbGghG4sM7FF4XA8L6LumhJELYBZR8uzDctw2m" ] },
      { "delegate": "tz3bvNMQ95vfAYtG8193ymshqjSvmxiCUuR5",
        "reception_time": "2022-01-19T23:20:24.318-00:00",
        "included_in_blocks":
          [ "BMdufhxc8hBPiwbGghG4sM7FF4XA8L6LumhJELYBZR8uzDctw2m" ] },
      { "delegate": "tz1Xsrfv6hn86fp88YfRs6xcKwt2nTqxVZYM",
        "reception_time": "2022-01-19T23:20:23.740-00:00",
        "included_in_blocks":
          [ "BMdufhxc8hBPiwbGghG4sM7FF4XA8L6LumhJELYBZR8uzDctw2m" ] },
      { "delegate": "tz1TRqbYbUf2GyrjErf3hBzgBJPzW8y36qEs",
        "reception_time": "2022-01-19T23:20:23.761-00:00",
        "included_in_blocks":
          [ "BMdufhxc8hBPiwbGghG4sM7FF4XA8L6LumhJELYBZR8uzDctw2m" ] },
      { "delegate": "tz1ZcTRk5uxD86EFEn1vvNffWWqJy7q5eVhc",
        "reception_time": "2022-01-19T23:20:23.445-00:00",
        "included_in_blocks":
          [ "BMdufhxc8hBPiwbGghG4sM7FF4XA8L6LumhJELYBZR8uzDctw2m" ] },
      { "delegate": "tz3WMqdzXqRWXwyvj5Hp2H7QEepaUuS7vd9K",
        "reception_time": "2022-01-19T23:20:23.598-00:00",
        "included_in_blocks":
          [ "BMdufhxc8hBPiwbGghG4sM7FF4XA8L6LumhJELYBZR8uzDctw2m" ] },
      { "delegate": "tz3gLTu4Yxj8tPAcriQVUdxv6BY9QyvzU1az",
        "reception_time": "2022-01-19T23:20:23.376-00:00",
        "included_in_blocks":
          [ "BMdufhxc8hBPiwbGghG4sM7FF4XA8L6LumhJELYBZR8uzDctw2m" ] },
      { "delegate": "tz3VEZ4k6a4Wx42iyev6i2aVAptTRLEAivNN",
        "reception_time": "2022-01-19T23:20:23.271-00:00",
        "included_in_blocks":
          [ "BMdufhxc8hBPiwbGghG4sM7FF4XA8L6LumhJELYBZR8uzDctw2m" ] },
      { "delegate": "tz1LAJKyGRCheNiLAQQmJ8dXnoKbKgLzxNFp",
        "reception_time": "2022-01-19T23:20:23.355-00:00",
        "included_in_blocks":
          [ "BMdufhxc8hBPiwbGghG4sM7FF4XA8L6LumhJELYBZR8uzDctw2m" ] },
      { "delegate": "tz3NDpRj6WBrJPikcPVHRBEjWKxFw3c6eQPS",
        "reception_time": "2022-01-19T23:20:23.292-00:00",
        "included_in_blocks":
          [ "BMdufhxc8hBPiwbGghG4sM7FF4XA8L6LumhJELYBZR8uzDctw2m" ] },
      { "delegate": "tz1eeArNKzpoGLrT8dR3ewRgZ4r3YQkY165n",
        "reception_time": "2022-01-19T23:20:23.151-00:00",
        "included_in_blocks":
          [ "BMdufhxc8hBPiwbGghG4sM7FF4XA8L6LumhJELYBZR8uzDctw2m" ] },
      { "delegate": "tz1PeZx7FXy7QRuMREGXGxeipb24RsMMzUNe",
        "reception_time": "2022-01-19T23:20:23.110-00:00",
        "included_in_blocks":
          [ "BMdufhxc8hBPiwbGghG4sM7FF4XA8L6LumhJELYBZR8uzDctw2m" ] },
      { "delegate": "tz1S8MNvuFEUsWgjHvi3AxibRBf388NhT1q2",
        "reception_time": "2022-01-19T23:20:22.788-00:00",
        "included_in_blocks":
          [ "BMdufhxc8hBPiwbGghG4sM7FF4XA8L6LumhJELYBZR8uzDctw2m" ] },
      { "delegate": "tz1T7duV5gZWSTq4YpBGbXNLTfznCLDrFxvs",
        "reception_time": "2022-01-19T23:20:22.909-00:00",
        "included_in_blocks":
          [ "BMdufhxc8hBPiwbGghG4sM7FF4XA8L6LumhJELYBZR8uzDctw2m" ] },
      { "delegate": "tz3bTdwZinP8U1JmSweNzVKhmwafqWmFWRfk",
        "reception_time": "2022-01-19T23:20:22.769-00:00",
        "included_in_blocks":
          [ "BMdufhxc8hBPiwbGghG4sM7FF4XA8L6LumhJELYBZR8uzDctw2m" ] },
      { "delegate": "tz1g8vkmcde6sWKaG2NN9WKzCkDM6Rziq194",
        "reception_time": "2022-01-19T23:20:22.888-00:00",
        "included_in_blocks":
          [ "BMdufhxc8hBPiwbGghG4sM7FF4XA8L6LumhJELYBZR8uzDctw2m" ] },
      { "delegate": "tz3RB4aoyjov4KEVRbuhvQ1CKJgBJMWhaeB8",
        "reception_time": "2022-01-19T23:20:22.854-00:00",
        "included_in_blocks":
          [ "BMdufhxc8hBPiwbGghG4sM7FF4XA8L6LumhJELYBZR8uzDctw2m" ] },
      { "delegate": "tz1NortRftucvAkD1J58L32EhSVrQEWJCEnB",
        "reception_time": "2022-01-19T23:20:22.758-00:00",
        "included_in_blocks":
          [ "BMdufhxc8hBPiwbGghG4sM7FF4XA8L6LumhJELYBZR8uzDctw2m" ] },
      { "delegate": "tz1Tnjaxk6tbAeC2TmMApPh8UsrEVQvhHvx5",
        "reception_time": "2022-01-19T23:20:22.758-00:00",
        "included_in_blocks":
          [ "BMdufhxc8hBPiwbGghG4sM7FF4XA8L6LumhJELYBZR8uzDctw2m" ] },
      { "delegate": "tz2FCNBrERXtaTtNX6iimR1UJ5JSDxvdHM93",
        "reception_time": "2022-01-19T23:20:22.758-00:00",
        "included_in_blocks":
          [ "BMdufhxc8hBPiwbGghG4sM7FF4XA8L6LumhJELYBZR8uzDctw2m" ] },
      { "delegate": "tz1WBfwbT66FC6BTLexc2BoyCCBM9LG7pnVW",
        "reception_time": "2022-01-19T23:20:22.758-00:00",
        "included_in_blocks":
          [ "BMdufhxc8hBPiwbGghG4sM7FF4XA8L6LumhJELYBZR8uzDctw2m" ] },
      { "delegate": "tz3QT9dHYKDqh563chVa6za8526ys1UKfRfL",
        "reception_time": "2022-01-19T23:20:22.758-00:00",
        "included_in_blocks":
          [ "BMdufhxc8hBPiwbGghG4sM7FF4XA8L6LumhJELYBZR8uzDctw2m" ] },
      { "delegate": "tz1UJvHTgpVzcKWhTazGxVcn5wsHru5Gietg",
        "reception_time": "2022-01-19T23:20:22.758-00:00",
        "included_in_blocks":
          [ "BMdufhxc8hBPiwbGghG4sM7FF4XA8L6LumhJELYBZR8uzDctw2m" ] },
      { "delegate": "tz3S6BBeKgJGXxvLyZ1xzXzMPn11nnFtq5L9",
        "reception_time": "2022-01-19T23:20:22.758-00:00",
        "included_in_blocks":
          [ "BMdufhxc8hBPiwbGghG4sM7FF4XA8L6LumhJELYBZR8uzDctw2m" ] },
      { "delegate": "tz1RCFbB9GpALpsZtu6J58sb74dm8qe6XBzv",
        "reception_time": "2022-01-19T23:20:22.758-00:00",
        "included_in_blocks":
          [ "BMdufhxc8hBPiwbGghG4sM7FF4XA8L6LumhJELYBZR8uzDctw2m" ] },
      { "delegate": "tz1SYq214SCBy9naR6cvycQsYcUGpBqQAE8d",
        "reception_time": "2022-01-19T23:20:22.758-00:00",
        "included_in_blocks":
          [ "BMdufhxc8hBPiwbGghG4sM7FF4XA8L6LumhJELYBZR8uzDctw2m" ] },
      { "delegate": "tz1gfArv665EUkSg2ojMBzcbfwuPxAvqPvjo",
        "reception_time": "2022-01-19T23:20:22.758-00:00",
        "included_in_blocks":
          [ "BMdufhxc8hBPiwbGghG4sM7FF4XA8L6LumhJELYBZR8uzDctw2m" ] },
      { "delegate": "tz3hw2kqXhLUvY65ca1eety2oQTpAvd34R9Q",
        "reception_time": "2022-01-19T23:20:22.758-00:00",
        "included_in_blocks":
          [ "BMdufhxc8hBPiwbGghG4sM7FF4XA8L6LumhJELYBZR8uzDctw2m" ] },
      { "delegate": "tz1Nf6tsK4G6bBqgSQERy4nUtkHNKUVdh7q1",
        "reception_time": "2022-01-19T23:20:22.758-00:00",
        "included_in_blocks":
          [ "BMdufhxc8hBPiwbGghG4sM7FF4XA8L6LumhJELYBZR8uzDctw2m" ] },
      { "delegate": "tz3RKYFsLuQzKBtmYuLNas7uMu3AsYd4QdsA",
        "reception_time": "2022-01-19T23:20:22.758-00:00",
        "included_in_blocks":
          [ "BMdufhxc8hBPiwbGghG4sM7FF4XA8L6LumhJELYBZR8uzDctw2m" ] },
      { "delegate": "tz1dNVDWPf3Q59SdJqnjdnu277iyvReiRS9M",
        "reception_time": "2022-01-19T23:20:22.758-00:00",
        "included_in_blocks":
          [ "BMdufhxc8hBPiwbGghG4sM7FF4XA8L6LumhJELYBZR8uzDctw2m" ] },
      { "delegate": "tz1TRspM5SeZpaQUhzByXbEvqKF1vnCM2YTK",
        "reception_time": "2022-01-19T23:20:22.758-00:00",
        "included_in_blocks":
          [ "BMdufhxc8hBPiwbGghG4sM7FF4XA8L6LumhJELYBZR8uzDctw2m" ] },
      { "delegate": "tz3iJu5vrKZcsqRPs8yJ61UDoeEXZmtro4qh",
        "reception_time": "2022-01-19T23:20:22.758-00:00",
        "included_in_blocks":
          [ "BMdufhxc8hBPiwbGghG4sM7FF4XA8L6LumhJELYBZR8uzDctw2m" ] },
      { "delegate": "tz3Zhs2dygr55yHyQyKjntAtY9bgfhLZ4Xj1",
        "reception_time": "2022-01-19T23:20:22.758-00:00",
        "included_in_blocks":
          [ "BMdufhxc8hBPiwbGghG4sM7FF4XA8L6LumhJELYBZR8uzDctw2m" ] },
      { "delegate": "tz1irmXkTwtz89pxmUFXvQuitz1vkdJQE9oq",
        "reception_time": "2022-01-19T23:20:22.758-00:00",
        "included_in_blocks":
          [ "BMdufhxc8hBPiwbGghG4sM7FF4XA8L6LumhJELYBZR8uzDctw2m" ] },
      { "delegate": "tz1ei4WtWEMEJekSv8qDnu9PExG6Q8HgRGr3",
        "reception_time": "2022-01-19T23:20:22.758-00:00",
        "included_in_blocks":
          [ "BMdufhxc8hBPiwbGghG4sM7FF4XA8L6LumhJELYBZR8uzDctw2m" ] },
      { "delegate": "tz1TEc75UKXv4W5cwi14Na3NtqFD51yKQi7h",
        "reception_time": "2022-01-19T23:20:22.758-00:00",
        "included_in_blocks":
          [ "BMdufhxc8hBPiwbGghG4sM7FF4XA8L6LumhJELYBZR8uzDctw2m" ] },
      { "delegate": "tz3ZbP2pM3nwvXztbuMJwJnDvV5xdpU8UkkD",
        "reception_time": "2022-01-19T23:20:22.758-00:00",
        "included_in_blocks":
          [ "BMdufhxc8hBPiwbGghG4sM7FF4XA8L6LumhJELYBZR8uzDctw2m" ] },
      { "delegate": "tz1fb7c66UwePkkfDXz4ajFaBP9hVNLdS7JJ",
        "reception_time": "2022-01-19T23:20:22.758-00:00",
        "included_in_blocks":
          [ "BMdufhxc8hBPiwbGghG4sM7FF4XA8L6LumhJELYBZR8uzDctw2m" ] },
      { "delegate": "tz3NxTnke1acr8o3h5y9ytf5awQBGNJUKzVU",
        "reception_time": "2022-01-19T23:20:22.758-00:00",
        "included_in_blocks":
          [ "BMdufhxc8hBPiwbGghG4sM7FF4XA8L6LumhJELYBZR8uzDctw2m" ] },
      { "delegate": "tz1ZPh7XfUaJXUDvkrBxmS1BjEM1i62hiPpM",
        "reception_time": "2022-01-19T23:20:22.758-00:00",
        "included_in_blocks":
          [ "BMdufhxc8hBPiwbGghG4sM7FF4XA8L6LumhJELYBZR8uzDctw2m" ] },
      { "delegate": "tz1WCd2jm4uSt4vntk4vSuUWoZQGhLcDuR9q",
        "reception_time": "2022-01-19T23:20:22.758-00:00",
        "included_in_blocks":
          [ "BMdufhxc8hBPiwbGghG4sM7FF4XA8L6LumhJELYBZR8uzDctw2m" ] },
      { "delegate": "tz1MGTFJXpQmtxLi8QJ7AuVRgM2L2Qfn9w9i",
        "reception_time": "2022-01-19T23:20:22.758-00:00",
        "included_in_blocks":
          [ "BMdufhxc8hBPiwbGghG4sM7FF4XA8L6LumhJELYBZR8uzDctw2m" ] },
      { "delegate": "tz1beersuEDv8Z7ngQ825xfbaJNS2EhXnyHR",
        "reception_time": "2022-01-19T23:20:22.758-00:00",
        "included_in_blocks":
          [ "BMdufhxc8hBPiwbGghG4sM7FF4XA8L6LumhJELYBZR8uzDctw2m" ] },
      { "delegate": "tz3QSGPoRp3Kn7n3vY24eYeu3Peuqo45LQ4D",
        "reception_time": "2022-01-19T23:20:22.758-00:00",
        "included_in_blocks":
          [ "BMdufhxc8hBPiwbGghG4sM7FF4XA8L6LumhJELYBZR8uzDctw2m" ] },
      { "delegate": "tz3gtoUxdudfBRcNY7iVdKPHCYYX6xdPpoRS",
        "reception_time": "2022-01-19T23:20:22.758-00:00",
        "included_in_blocks":
          [ "BMdufhxc8hBPiwbGghG4sM7FF4XA8L6LumhJELYBZR8uzDctw2m" ] },
      { "delegate": "tz1irJKkXS2DBWkU1NnmFQx1c1L7pbGg4yhk",
        "reception_time": "2022-01-19T23:20:22.758-00:00",
        "included_in_blocks":
          [ "BMdufhxc8hBPiwbGghG4sM7FF4XA8L6LumhJELYBZR8uzDctw2m" ] },
      { "delegate": "tz1cSj7fTex3JPd1p1LN1fwek6AV1kH93Wwc",
        "reception_time": "2022-01-19T23:20:22.437-00:00",
        "included_in_blocks":
          [ "BMdufhxc8hBPiwbGghG4sM7FF4XA8L6LumhJELYBZR8uzDctw2m" ] } ] }