{ "blocks":
    [ { "hash": "BKkxXPFEPtz9t6WxQgPzXFUvxsZ5MAU7HE2JbVkt2Thq9XqcUJW",
        "delegate": "tz1VQnqCCqX4K5sP3FNkVSNKTdCAMJDd3E1n",
        "reception_time": "2022-01-19T20:23:03.006-00:00",
        "timestamp": "2022-01-19T20:22:50Z" } ],
  "endorsements":
    [ { "delegate": "tz1g8vkmcde6sWKaG2NN9WKzCkDM6Rziq194" },
      { "delegate": "tz1awXW7wuXy21c66vBudMXQVAPgRnqqwgTH" },
      { "delegate": "tz1Kf25fX1VdmYGSEzwFy1wNmkbSEZ2V83sY",
        "reception_time": "2022-01-19T20:23:02.833-00:00",
        "errors":
          [ { "kind": "temporary",
              "id": "proto.011-PtHangz2.prefilter.outdated_endorsement" } ],
        "included_in_blocks":
          [ "BMJ2jkpnhznQiWjTbJLHuXFzkoLwFpwwvpjV1Jsins8FqwWBzE6" ] },
      { "delegate": "tz1d6Fx42mYgVFnHUW8T8A7WBfJ6nD9pVok8",
        "reception_time": "2022-01-19T20:23:02.575-00:00",
        "errors":
          [ { "kind": "temporary",
              "id": "proto.011-PtHangz2.prefilter.outdated_endorsement" } ],
        "included_in_blocks":
          [ "BMJ2jkpnhznQiWjTbJLHuXFzkoLwFpwwvpjV1Jsins8FqwWBzE6" ] },
      { "delegate": "tz1PWCDnz783NNGGQjEFFsHtrcK5yBW4E2rm",
        "reception_time": "2022-01-19T20:23:02.565-00:00",
        "errors":
          [ { "kind": "temporary",
              "id": "proto.011-PtHangz2.prefilter.outdated_endorsement" } ],
        "included_in_blocks":
          [ "BMJ2jkpnhznQiWjTbJLHuXFzkoLwFpwwvpjV1Jsins8FqwWBzE6" ] },
      { "delegate": "tz1TEc75UKXv4W5cwi14Na3NtqFD51yKQi7h",
        "reception_time": "2022-01-19T20:23:02.485-00:00",
        "errors":
          [ { "kind": "temporary",
              "id": "proto.011-PtHangz2.prefilter.outdated_endorsement" } ],
        "included_in_blocks":
          [ "BMJ2jkpnhznQiWjTbJLHuXFzkoLwFpwwvpjV1Jsins8FqwWBzE6" ] },
      { "delegate": "tz1eEnQhbwf6trb8Q8mPb2RaPkNk2rN7BKi8",
        "reception_time": "2022-01-19T20:23:02.407-00:00",
        "errors":
          [ { "kind": "temporary",
              "id": "proto.011-PtHangz2.prefilter.outdated_endorsement" } ],
        "included_in_blocks":
          [ "BMJ2jkpnhznQiWjTbJLHuXFzkoLwFpwwvpjV1Jsins8FqwWBzE6" ] },
      { "delegate": "tz1irJKkXS2DBWkU1NnmFQx1c1L7pbGg4yhk",
        "reception_time": "2022-01-19T20:23:02.297-00:00",
        "errors":
          [ { "kind": "temporary",
              "id": "proto.011-PtHangz2.prefilter.outdated_endorsement" } ],
        "included_in_blocks":
          [ "BMJ2jkpnhznQiWjTbJLHuXFzkoLwFpwwvpjV1Jsins8FqwWBzE6" ] },
      { "delegate": "tz1WCd2jm4uSt4vntk4vSuUWoZQGhLcDuR9q",
        "reception_time": "2022-01-19T20:23:02.281-00:00",
        "errors":
          [ { "kind": "temporary",
              "id": "proto.011-PtHangz2.prefilter.outdated_endorsement" } ],
        "included_in_blocks":
          [ "BMJ2jkpnhznQiWjTbJLHuXFzkoLwFpwwvpjV1Jsins8FqwWBzE6" ] },
      { "delegate": "tz1aXD7Jigrt3PBYSpHSg5Rr33SexMmmM5Ys",
        "reception_time": "2022-01-19T20:23:02.266-00:00",
        "errors":
          [ { "kind": "temporary",
              "id": "proto.011-PtHangz2.prefilter.outdated_endorsement" } ],
        "included_in_blocks":
          [ "BMJ2jkpnhznQiWjTbJLHuXFzkoLwFpwwvpjV1Jsins8FqwWBzE6" ] },
      { "delegate": "tz1STeamwbp68THcny9zk3LsbG3H36DMvbRK",
        "reception_time": "2022-01-19T20:23:02.086-00:00",
        "errors":
          [ { "kind": "temporary",
              "id": "proto.011-PtHangz2.prefilter.outdated_endorsement" } ],
        "included_in_blocks":
          [ "BMJ2jkpnhznQiWjTbJLHuXFzkoLwFpwwvpjV1Jsins8FqwWBzE6" ] },
      { "delegate": "tz1TXzyaKUA8wsWefdSnyaYFnV2M3vCV7er9",
        "reception_time": "2022-01-19T20:23:01.635-00:00",
        "errors":
          [ { "kind": "temporary",
              "id": "proto.011-PtHangz2.prefilter.outdated_endorsement" } ],
        "included_in_blocks":
          [ "BMJ2jkpnhznQiWjTbJLHuXFzkoLwFpwwvpjV1Jsins8FqwWBzE6" ] },
      { "delegate": "tz1Ldzz6k1BHdhuKvAtMRX7h5kJSMHESMHLC",
        "reception_time": "2022-01-19T20:23:01.619-00:00",
        "errors":
          [ { "kind": "temporary",
              "id": "proto.011-PtHangz2.prefilter.outdated_endorsement" } ],
        "included_in_blocks":
          [ "BMJ2jkpnhznQiWjTbJLHuXFzkoLwFpwwvpjV1Jsins8FqwWBzE6" ] },
      { "delegate": "tz1P2Po7YM526ughEsRbY4oR9zaUPDZjxFrb",
        "reception_time": "2022-01-19T20:23:01.602-00:00",
        "errors":
          [ { "kind": "temporary",
              "id": "proto.011-PtHangz2.prefilter.outdated_endorsement" } ],
        "included_in_blocks":
          [ "BMJ2jkpnhznQiWjTbJLHuXFzkoLwFpwwvpjV1Jsins8FqwWBzE6" ] },
      { "delegate": "tz1VmiY38m3y95HqQLjMwqnMS7sdMfGomzKi",
        "reception_time": "2022-01-19T20:23:01.400-00:00",
        "errors":
          [ { "kind": "temporary",
              "id": "proto.011-PtHangz2.prefilter.outdated_endorsement" } ],
        "included_in_blocks":
          [ "BMJ2jkpnhznQiWjTbJLHuXFzkoLwFpwwvpjV1Jsins8FqwWBzE6" ] },
      { "delegate": "tz1cSj7fTex3JPd1p1LN1fwek6AV1kH93Wwc",
        "reception_time": "2022-01-19T20:23:01.080-00:00",
        "errors":
          [ { "kind": "temporary",
              "id": "proto.011-PtHangz2.prefilter.outdated_endorsement" } ],
        "included_in_blocks":
          [ "BMJ2jkpnhznQiWjTbJLHuXFzkoLwFpwwvpjV1Jsins8FqwWBzE6" ] },
      { "delegate": "tz1VQnqCCqX4K5sP3FNkVSNKTdCAMJDd3E1n",
        "reception_time": "2022-01-19T20:23:00.572-00:00",
        "errors":
          [ { "kind": "temporary",
              "id": "proto.011-PtHangz2.prefilter.outdated_endorsement" } ],
        "included_in_blocks":
          [ "BMJ2jkpnhznQiWjTbJLHuXFzkoLwFpwwvpjV1Jsins8FqwWBzE6" ] },
      { "delegate": "tz1gUNyn3hmnEWqkusWPzxRaon1cs7ndWh7h",
        "reception_time": "2022-01-19T20:23:00.542-00:00",
        "errors":
          [ { "kind": "temporary",
              "id": "proto.011-PtHangz2.prefilter.outdated_endorsement" } ],
        "included_in_blocks":
          [ "BMJ2jkpnhznQiWjTbJLHuXFzkoLwFpwwvpjV1Jsins8FqwWBzE6" ] },
      { "delegate": "tz1S8e9GgdZG78XJRB3NqabfWeM37GnhZMWQ",
        "reception_time": "2022-01-19T20:22:59.607-00:00",
        "errors":
          [ { "kind": "temporary",
              "id": "proto.011-PtHangz2.prefilter.outdated_endorsement" } ],
        "included_in_blocks":
          [ "BMJ2jkpnhznQiWjTbJLHuXFzkoLwFpwwvpjV1Jsins8FqwWBzE6" ] },
      { "delegate": "tz1aRoaRhSpRYvFdyvgWLL6TGyRoGF51wDjM",
        "reception_time": "2022-01-19T20:23:16.839-00:00",
        "included_in_blocks":
          [ "BMJ2jkpnhznQiWjTbJLHuXFzkoLwFpwwvpjV1Jsins8FqwWBzE6" ] },
      { "delegate": "tz1Z9M4biBHSiH38k5ciRMjR5bgk89yEgLTz",
        "reception_time": "2022-01-19T20:23:12.643-00:00",
        "included_in_blocks":
          [ "BMJ2jkpnhznQiWjTbJLHuXFzkoLwFpwwvpjV1Jsins8FqwWBzE6" ] },
      { "delegate": "tz1XX67xSF2ou3aQZ6LhXaaxZWDR3YZ6hCMs",
        "reception_time": "2022-01-19T20:23:08.888-00:00",
        "included_in_blocks":
          [ "BMJ2jkpnhznQiWjTbJLHuXFzkoLwFpwwvpjV1Jsins8FqwWBzE6" ] },
      { "delegate": "tz1NoYvKjXTzTk54VpLxBfouJ33J8jwKPPvw",
        "reception_time": "2022-01-19T20:23:08.405-00:00",
        "included_in_blocks":
          [ "BMJ2jkpnhznQiWjTbJLHuXFzkoLwFpwwvpjV1Jsins8FqwWBzE6" ] },
      { "delegate": "tz3NExpXn9aPNZPorRE4SdjJ2RGrfbJgMAaV",
        "reception_time": "2022-01-19T20:23:08.107-00:00",
        "included_in_blocks":
          [ "BMJ2jkpnhznQiWjTbJLHuXFzkoLwFpwwvpjV1Jsins8FqwWBzE6" ] },
      { "delegate": "tz3bvNMQ95vfAYtG8193ymshqjSvmxiCUuR5",
        "reception_time": "2022-01-19T20:23:08.010-00:00",
        "included_in_blocks":
          [ "BMJ2jkpnhznQiWjTbJLHuXFzkoLwFpwwvpjV1Jsins8FqwWBzE6" ] },
      { "delegate": "tz1TRqbYbUf2GyrjErf3hBzgBJPzW8y36qEs",
        "reception_time": "2022-01-19T20:23:07.903-00:00",
        "included_in_blocks":
          [ "BMJ2jkpnhznQiWjTbJLHuXFzkoLwFpwwvpjV1Jsins8FqwWBzE6" ] },
      { "delegate": "tz3RDC3Jdn4j15J7bBHZd29EUee9gVB1CxD9",
        "reception_time": "2022-01-19T20:23:07.941-00:00",
        "included_in_blocks":
          [ "BMJ2jkpnhznQiWjTbJLHuXFzkoLwFpwwvpjV1Jsins8FqwWBzE6" ] },
      { "delegate": "tz3UoffC7FG7zfpmvmjUmUeAaHvzdcUvAj6r",
        "reception_time": "2022-01-19T20:23:07.895-00:00",
        "included_in_blocks":
          [ "BMJ2jkpnhznQiWjTbJLHuXFzkoLwFpwwvpjV1Jsins8FqwWBzE6" ] },
      { "delegate": "tz1abmz7jiCV2GH2u81LRrGgAFFgvQgiDiaf",
        "reception_time": "2022-01-19T20:23:07.885-00:00",
        "included_in_blocks":
          [ "BMJ2jkpnhznQiWjTbJLHuXFzkoLwFpwwvpjV1Jsins8FqwWBzE6" ] },
      { "delegate": "tz3VEZ4k6a4Wx42iyev6i2aVAptTRLEAivNN",
        "reception_time": "2022-01-19T20:23:07.903-00:00",
        "included_in_blocks":
          [ "BMJ2jkpnhznQiWjTbJLHuXFzkoLwFpwwvpjV1Jsins8FqwWBzE6" ] },
      { "delegate": "tz3WMqdzXqRWXwyvj5Hp2H7QEepaUuS7vd9K",
        "reception_time": "2022-01-19T20:23:07.879-00:00",
        "included_in_blocks":
          [ "BMJ2jkpnhznQiWjTbJLHuXFzkoLwFpwwvpjV1Jsins8FqwWBzE6" ] },
      { "delegate": "tz1NSDFKuRyzHxpfG1AMkyCwEiZ52cbR2mRW",
        "reception_time": "2022-01-19T20:23:07.879-00:00",
        "included_in_blocks":
          [ "BMJ2jkpnhznQiWjTbJLHuXFzkoLwFpwwvpjV1Jsins8FqwWBzE6" ] },
      { "delegate": "tz1RjoHc98dBoqaH2jawF62XNKh7YsHwbkEv",
        "reception_time": "2022-01-19T20:23:07.870-00:00",
        "included_in_blocks":
          [ "BMJ2jkpnhznQiWjTbJLHuXFzkoLwFpwwvpjV1Jsins8FqwWBzE6" ] },
      { "delegate": "tz1S8MNvuFEUsWgjHvi3AxibRBf388NhT1q2",
        "reception_time": "2022-01-19T20:23:07.490-00:00",
        "included_in_blocks":
          [ "BMJ2jkpnhznQiWjTbJLHuXFzkoLwFpwwvpjV1Jsins8FqwWBzE6" ] },
      { "delegate": "tz3gLTu4Yxj8tPAcriQVUdxv6BY9QyvzU1az",
        "reception_time": "2022-01-19T20:23:07.545-00:00",
        "included_in_blocks":
          [ "BMJ2jkpnhznQiWjTbJLHuXFzkoLwFpwwvpjV1Jsins8FqwWBzE6" ] },
      { "delegate": "tz3QCNyySViKHmeSr45kzDxzchys7NiXCWoa",
        "reception_time": "2022-01-19T20:23:07.286-00:00",
        "included_in_blocks":
          [ "BMJ2jkpnhznQiWjTbJLHuXFzkoLwFpwwvpjV1Jsins8FqwWBzE6" ] },
      { "delegate": "tz1Zdk8q7wNasmv7VFeQ6QFwcw5fP2c7StoF",
        "reception_time": "2022-01-19T20:23:07.493-00:00",
        "included_in_blocks":
          [ "BMJ2jkpnhznQiWjTbJLHuXFzkoLwFpwwvpjV1Jsins8FqwWBzE6" ] },
      { "delegate": "tz3RB4aoyjov4KEVRbuhvQ1CKJgBJMWhaeB8",
        "reception_time": "2022-01-19T20:23:07.539-00:00",
        "included_in_blocks":
          [ "BMJ2jkpnhznQiWjTbJLHuXFzkoLwFpwwvpjV1Jsins8FqwWBzE6" ] },
      { "delegate": "tz3bTdwZinP8U1JmSweNzVKhmwafqWmFWRfk",
        "reception_time": "2022-01-19T20:23:07.532-00:00",
        "included_in_blocks":
          [ "BMJ2jkpnhznQiWjTbJLHuXFzkoLwFpwwvpjV1Jsins8FqwWBzE6" ] },
      { "delegate": "tz1cYufsxHXJcvANhvS55h3aY32a9BAFB494",
        "reception_time": "2022-01-19T20:23:07.375-00:00",
        "included_in_blocks":
          [ "BMJ2jkpnhznQiWjTbJLHuXFzkoLwFpwwvpjV1Jsins8FqwWBzE6" ] },
      { "delegate": "tz1PeZx7FXy7QRuMREGXGxeipb24RsMMzUNe",
        "reception_time": "2022-01-19T20:23:07.443-00:00",
        "included_in_blocks":
          [ "BMJ2jkpnhznQiWjTbJLHuXFzkoLwFpwwvpjV1Jsins8FqwWBzE6" ] },
      { "delegate": "tz1bZ8vsMAXmaWEV7FRnyhcuUs2fYMaQ6Hkk",
        "reception_time": "2022-01-19T20:23:07.478-00:00",
        "included_in_blocks":
          [ "BMJ2jkpnhznQiWjTbJLHuXFzkoLwFpwwvpjV1Jsins8FqwWBzE6" ] },
      { "delegate": "tz1UJvHTgpVzcKWhTazGxVcn5wsHru5Gietg",
        "reception_time": "2022-01-19T20:23:07.481-00:00",
        "included_in_blocks":
          [ "BMJ2jkpnhznQiWjTbJLHuXFzkoLwFpwwvpjV1Jsins8FqwWBzE6" ] },
      { "delegate": "tz1hAYfexyzPGG6RhZZMpDvAHifubsbb6kgn",
        "reception_time": "2022-01-19T20:23:07.370-00:00",
        "included_in_blocks":
          [ "BMJ2jkpnhznQiWjTbJLHuXFzkoLwFpwwvpjV1Jsins8FqwWBzE6" ] },
      { "delegate": "tz1LmaFsWRkjr7QMCx5PtV6xTUz3AmEpKQiF",
        "reception_time": "2022-01-19T20:23:07.447-00:00",
        "included_in_blocks":
          [ "BMJ2jkpnhznQiWjTbJLHuXFzkoLwFpwwvpjV1Jsins8FqwWBzE6" ] },
      { "delegate": "tz1fwnfJNgiDACshK9avfRfFbMaXrs3ghoJa",
        "reception_time": "2022-01-19T20:23:07.384-00:00",
        "included_in_blocks":
          [ "BMJ2jkpnhznQiWjTbJLHuXFzkoLwFpwwvpjV1Jsins8FqwWBzE6" ] },
      { "delegate": "tz2FCNBrERXtaTtNX6iimR1UJ5JSDxvdHM93",
        "reception_time": "2022-01-19T20:23:07.447-00:00",
        "included_in_blocks":
          [ "BMJ2jkpnhznQiWjTbJLHuXFzkoLwFpwwvpjV1Jsins8FqwWBzE6" ] },
      { "delegate": "tz3S6BBeKgJGXxvLyZ1xzXzMPn11nnFtq5L9",
        "reception_time": "2022-01-19T20:23:07.384-00:00",
        "included_in_blocks":
          [ "BMJ2jkpnhznQiWjTbJLHuXFzkoLwFpwwvpjV1Jsins8FqwWBzE6" ] },
      { "delegate": "tz3QT9dHYKDqh563chVa6za8526ys1UKfRfL",
        "reception_time": "2022-01-19T20:23:07.433-00:00",
        "included_in_blocks":
          [ "BMJ2jkpnhznQiWjTbJLHuXFzkoLwFpwwvpjV1Jsins8FqwWBzE6" ] },
      { "delegate": "tz1MQJPGNMijnXnVoBENFz9rUhaPt3S7rWoz",
        "reception_time": "2022-01-19T20:23:07.341-00:00",
        "included_in_blocks":
          [ "BMJ2jkpnhznQiWjTbJLHuXFzkoLwFpwwvpjV1Jsins8FqwWBzE6" ] },
      { "delegate": "tz1KfEsrtDaA1sX7vdM4qmEPWuSytuqCDp5j",
        "reception_time": "2022-01-19T20:23:07.361-00:00",
        "included_in_blocks":
          [ "BMJ2jkpnhznQiWjTbJLHuXFzkoLwFpwwvpjV1Jsins8FqwWBzE6" ] },
      { "delegate": "tz1SYq214SCBy9naR6cvycQsYcUGpBqQAE8d",
        "reception_time": "2022-01-19T20:23:07.473-00:00",
        "included_in_blocks":
          [ "BMJ2jkpnhznQiWjTbJLHuXFzkoLwFpwwvpjV1Jsins8FqwWBzE6" ] },
      { "delegate": "tz3gtoUxdudfBRcNY7iVdKPHCYYX6xdPpoRS",
        "reception_time": "2022-01-19T20:23:07.355-00:00",
        "included_in_blocks":
          [ "BMJ2jkpnhznQiWjTbJLHuXFzkoLwFpwwvpjV1Jsins8FqwWBzE6" ] },
      { "delegate": "tz3QSGPoRp3Kn7n3vY24eYeu3Peuqo45LQ4D",
        "reception_time": "2022-01-19T20:23:07.327-00:00",
        "included_in_blocks":
          [ "BMJ2jkpnhznQiWjTbJLHuXFzkoLwFpwwvpjV1Jsins8FqwWBzE6" ] },
      { "delegate": "tz1MQMiZHV8q4tTwUMWmS5Y3kaP6J2136iXr",
        "reception_time": "2022-01-19T20:23:07.478-00:00",
        "included_in_blocks":
          [ "BMJ2jkpnhznQiWjTbJLHuXFzkoLwFpwwvpjV1Jsins8FqwWBzE6" ] },
      { "delegate": "tz3NxTnke1acr8o3h5y9ytf5awQBGNJUKzVU",
        "reception_time": "2022-01-19T20:23:07.286-00:00",
        "included_in_blocks":
          [ "BMJ2jkpnhznQiWjTbJLHuXFzkoLwFpwwvpjV1Jsins8FqwWBzE6" ] },
      { "delegate": "tz1T7duV5gZWSTq4YpBGbXNLTfznCLDrFxvs",
        "reception_time": "2022-01-19T20:23:07.457-00:00",
        "included_in_blocks":
          [ "BMJ2jkpnhznQiWjTbJLHuXFzkoLwFpwwvpjV1Jsins8FqwWBzE6" ] },
      { "delegate": "tz1dNVDWPf3Q59SdJqnjdnu277iyvReiRS9M",
        "reception_time": "2022-01-19T20:23:07.286-00:00",
        "included_in_blocks":
          [ "BMJ2jkpnhznQiWjTbJLHuXFzkoLwFpwwvpjV1Jsins8FqwWBzE6" ] },
      { "delegate": "tz1RCFbB9GpALpsZtu6J58sb74dm8qe6XBzv",
        "reception_time": "2022-01-19T20:23:07.473-00:00",
        "included_in_blocks":
          [ "BMJ2jkpnhznQiWjTbJLHuXFzkoLwFpwwvpjV1Jsins8FqwWBzE6" ] },
      { "delegate": "tz3adcvQaKXTCg12zbninqo3q8ptKKtDFTLv",
        "reception_time": "2022-01-19T20:23:07.402-00:00",
        "included_in_blocks":
          [ "BMJ2jkpnhznQiWjTbJLHuXFzkoLwFpwwvpjV1Jsins8FqwWBzE6" ] },
      { "delegate": "tz1Nf6tsK4G6bBqgSQERy4nUtkHNKUVdh7q1",
        "reception_time": "2022-01-19T20:23:07.286-00:00",
        "included_in_blocks":
          [ "BMJ2jkpnhznQiWjTbJLHuXFzkoLwFpwwvpjV1Jsins8FqwWBzE6" ] },
      { "delegate": "tz3ZbP2pM3nwvXztbuMJwJnDvV5xdpU8UkkD",
        "reception_time": "2022-01-19T20:23:07.286-00:00",
        "included_in_blocks":
          [ "BMJ2jkpnhznQiWjTbJLHuXFzkoLwFpwwvpjV1Jsins8FqwWBzE6" ] },
      { "delegate": "tz1TRspM5SeZpaQUhzByXbEvqKF1vnCM2YTK",
        "reception_time": "2022-01-19T20:23:07.375-00:00",
        "included_in_blocks":
          [ "BMJ2jkpnhznQiWjTbJLHuXFzkoLwFpwwvpjV1Jsins8FqwWBzE6" ] },
      { "delegate": "tz3Zhs2dygr55yHyQyKjntAtY9bgfhLZ4Xj1",
        "reception_time": "2022-01-19T20:23:07.443-00:00",
        "included_in_blocks":
          [ "BMJ2jkpnhznQiWjTbJLHuXFzkoLwFpwwvpjV1Jsins8FqwWBzE6" ] },
      { "delegate": "tz1gfArv665EUkSg2ojMBzcbfwuPxAvqPvjo",
        "reception_time": "2022-01-19T20:23:07.286-00:00",
        "included_in_blocks":
          [ "BMJ2jkpnhznQiWjTbJLHuXFzkoLwFpwwvpjV1Jsins8FqwWBzE6" ] },
      { "delegate": "tz3hw2kqXhLUvY65ca1eety2oQTpAvd34R9Q",
        "reception_time": "2022-01-19T20:23:07.355-00:00",
        "included_in_blocks":
          [ "BMJ2jkpnhznQiWjTbJLHuXFzkoLwFpwwvpjV1Jsins8FqwWBzE6" ] },
      { "delegate": "tz3iJu5vrKZcsqRPs8yJ61UDoeEXZmtro4qh",
        "reception_time": "2022-01-19T20:23:07.457-00:00",
        "included_in_blocks":
          [ "BMJ2jkpnhznQiWjTbJLHuXFzkoLwFpwwvpjV1Jsins8FqwWBzE6" ] },
      { "delegate": "tz1MJx9vhaNRSimcuXPK2rW4fLccQnDAnVKJ",
        "reception_time": "2022-01-19T20:23:07.361-00:00",
        "included_in_blocks":
          [ "BMJ2jkpnhznQiWjTbJLHuXFzkoLwFpwwvpjV1Jsins8FqwWBzE6" ] },
      { "delegate": "tz1Tnjaxk6tbAeC2TmMApPh8UsrEVQvhHvx5",
        "reception_time": "2022-01-19T20:23:07.485-00:00",
        "included_in_blocks":
          [ "BMJ2jkpnhznQiWjTbJLHuXFzkoLwFpwwvpjV1Jsins8FqwWBzE6" ] },
      { "delegate": "tz1dRKU4FQ9QRRQPdaH4zCR6gmCmXfcvcgtB",
        "reception_time": "2022-01-19T20:23:07.338-00:00",
        "included_in_blocks":
          [ "BMJ2jkpnhznQiWjTbJLHuXFzkoLwFpwwvpjV1Jsins8FqwWBzE6" ] },
      { "delegate": "tz3RKYFsLuQzKBtmYuLNas7uMu3AsYd4QdsA",
        "reception_time": "2022-01-19T20:23:07.370-00:00",
        "included_in_blocks":
          [ "BMJ2jkpnhznQiWjTbJLHuXFzkoLwFpwwvpjV1Jsins8FqwWBzE6" ] },
      { "delegate": "tz1NEKxGEHsFufk87CVZcrqWu8o22qh46GK6",
        "reception_time": "2022-01-19T20:23:07.335-00:00",
        "included_in_blocks":
          [ "BMJ2jkpnhznQiWjTbJLHuXFzkoLwFpwwvpjV1Jsins8FqwWBzE6" ] } ] }