{ "blocks":
    [ { "hash": "BLdicDEMYmUV5m76BB2UPKRNCZxHnmiHx1GEi4fSBRTaJToTpCG",
        "delegate": "tz1VQnqCCqX4K5sP3FNkVSNKTdCAMJDd3E1n",
        "reception_time": "2022-01-19T19:43:50.743-00:00",
        "timestamp": "2022-01-19T19:43:40Z" } ],
  "endorsements":
    [ { "delegate": "tz1NpWrAyDL9k2Lmnyxcgr9xuJakbBxdq7FB" },
      { "delegate": "tz1PWCDnz783NNGGQjEFFsHtrcK5yBW4E2rm",
        "reception_time": "2022-01-19T19:43:50.684-00:00",
        "errors":
          [ { "kind": "temporary",
              "id": "proto.011-PtHangz2.prefilter.outdated_endorsement" } ],
        "included_in_blocks":
          [ "BMSEmUMAhFXtdie44coxEV4vrxgsYwPWnjw6TLzuJRZ3NSMH4jH" ] },
      { "delegate": "tz1TzaNn7wSQSP5gYPXCnNzBCpyMiidCq1PX",
        "reception_time": "2022-01-19T19:43:50.651-00:00",
        "errors":
          [ { "kind": "temporary",
              "id": "proto.011-PtHangz2.prefilter.outdated_endorsement" } ],
        "included_in_blocks":
          [ "BMSEmUMAhFXtdie44coxEV4vrxgsYwPWnjw6TLzuJRZ3NSMH4jH" ] },
      { "delegate": "tz1ei4WtWEMEJekSv8qDnu9PExG6Q8HgRGr3",
        "reception_time": "2022-01-19T19:43:50.638-00:00",
        "errors":
          [ { "kind": "temporary",
              "id": "proto.011-PtHangz2.prefilter.outdated_endorsement" } ],
        "included_in_blocks":
          [ "BMSEmUMAhFXtdie44coxEV4vrxgsYwPWnjw6TLzuJRZ3NSMH4jH" ] },
      { "delegate": "tz1eEnQhbwf6trb8Q8mPb2RaPkNk2rN7BKi8",
        "reception_time": "2022-01-19T19:43:50.541-00:00",
        "errors":
          [ { "kind": "temporary",
              "id": "proto.011-PtHangz2.prefilter.outdated_endorsement" } ],
        "included_in_blocks":
          [ "BMSEmUMAhFXtdie44coxEV4vrxgsYwPWnjw6TLzuJRZ3NSMH4jH" ] },
      { "delegate": "tz1WCd2jm4uSt4vntk4vSuUWoZQGhLcDuR9q",
        "reception_time": "2022-01-19T19:43:50.524-00:00",
        "errors":
          [ { "kind": "temporary",
              "id": "proto.011-PtHangz2.prefilter.outdated_endorsement" } ],
        "included_in_blocks":
          [ "BMSEmUMAhFXtdie44coxEV4vrxgsYwPWnjw6TLzuJRZ3NSMH4jH" ] },
      { "delegate": "tz1RV1MBbZMR68tacosb7Mwj6LkbPSUS1er1",
        "reception_time": "2022-01-19T19:43:50.111-00:00",
        "errors":
          [ { "kind": "temporary",
              "id": "proto.011-PtHangz2.prefilter.outdated_endorsement" } ],
        "included_in_blocks":
          [ "BMSEmUMAhFXtdie44coxEV4vrxgsYwPWnjw6TLzuJRZ3NSMH4jH" ] },
      { "delegate": "tz1STeamwbp68THcny9zk3LsbG3H36DMvbRK",
        "reception_time": "2022-01-19T19:43:49.869-00:00",
        "errors":
          [ { "kind": "temporary",
              "id": "proto.011-PtHangz2.prefilter.outdated_endorsement" } ],
        "included_in_blocks":
          [ "BMSEmUMAhFXtdie44coxEV4vrxgsYwPWnjw6TLzuJRZ3NSMH4jH" ] },
      { "delegate": "tz1irJKkXS2DBWkU1NnmFQx1c1L7pbGg4yhk",
        "reception_time": "2022-01-19T19:43:49.825-00:00",
        "errors":
          [ { "kind": "temporary",
              "id": "proto.011-PtHangz2.prefilter.outdated_endorsement" } ],
        "included_in_blocks":
          [ "BMSEmUMAhFXtdie44coxEV4vrxgsYwPWnjw6TLzuJRZ3NSMH4jH" ] },
      { "delegate": "tz1Lhf4J9Qxoe3DZ2nfe8FGDnvVj7oKjnMY6",
        "reception_time": "2022-01-19T19:43:49.445-00:00",
        "errors":
          [ { "kind": "temporary",
              "id": "proto.011-PtHangz2.prefilter.outdated_endorsement" } ],
        "included_in_blocks":
          [ "BMSEmUMAhFXtdie44coxEV4vrxgsYwPWnjw6TLzuJRZ3NSMH4jH" ] },
      { "delegate": "tz1Ldzz6k1BHdhuKvAtMRX7h5kJSMHESMHLC",
        "reception_time": "2022-01-19T19:43:49.398-00:00",
        "errors":
          [ { "kind": "temporary",
              "id": "proto.011-PtHangz2.prefilter.outdated_endorsement" } ],
        "included_in_blocks":
          [ "BMSEmUMAhFXtdie44coxEV4vrxgsYwPWnjw6TLzuJRZ3NSMH4jH" ] },
      { "delegate": "tz1P2Po7YM526ughEsRbY4oR9zaUPDZjxFrb",
        "reception_time": "2022-01-19T19:43:49.383-00:00",
        "errors":
          [ { "kind": "temporary",
              "id": "proto.011-PtHangz2.prefilter.outdated_endorsement" } ],
        "included_in_blocks":
          [ "BMSEmUMAhFXtdie44coxEV4vrxgsYwPWnjw6TLzuJRZ3NSMH4jH" ] },
      { "delegate": "tz1iZEKy4LaAjnTmn2RuGDf2iqdAQKnRi8kY",
        "reception_time": "2022-01-19T19:43:49.292-00:00",
        "errors":
          [ { "kind": "temporary",
              "id": "proto.011-PtHangz2.prefilter.outdated_endorsement" } ],
        "included_in_blocks":
          [ "BMSEmUMAhFXtdie44coxEV4vrxgsYwPWnjw6TLzuJRZ3NSMH4jH" ] },
      { "delegate": "tz1Scdr2HsZiQjc7bHMeBbmDRXYVvdhjJbBh",
        "reception_time": "2022-01-19T19:43:49.264-00:00",
        "errors":
          [ { "kind": "temporary",
              "id": "proto.011-PtHangz2.prefilter.outdated_endorsement" } ],
        "included_in_blocks":
          [ "BMSEmUMAhFXtdie44coxEV4vrxgsYwPWnjw6TLzuJRZ3NSMH4jH" ] },
      { "delegate": "tz1VQnqCCqX4K5sP3FNkVSNKTdCAMJDd3E1n",
        "reception_time": "2022-01-19T19:43:48.644-00:00",
        "errors":
          [ { "kind": "temporary",
              "id": "proto.011-PtHangz2.prefilter.outdated_endorsement" } ],
        "included_in_blocks":
          [ "BMSEmUMAhFXtdie44coxEV4vrxgsYwPWnjw6TLzuJRZ3NSMH4jH" ] },
      { "delegate": "tz1gUNyn3hmnEWqkusWPzxRaon1cs7ndWh7h",
        "reception_time": "2022-01-19T19:43:48.495-00:00",
        "errors":
          [ { "kind": "temporary",
              "id": "proto.011-PtHangz2.prefilter.outdated_endorsement" } ],
        "included_in_blocks":
          [ "BMSEmUMAhFXtdie44coxEV4vrxgsYwPWnjw6TLzuJRZ3NSMH4jH" ] },
      { "delegate": "tz1S8e9GgdZG78XJRB3NqabfWeM37GnhZMWQ",
        "reception_time": "2022-01-19T19:43:48.113-00:00",
        "errors":
          [ { "kind": "temporary",
              "id": "proto.011-PtHangz2.prefilter.outdated_endorsement" } ],
        "included_in_blocks":
          [ "BMSEmUMAhFXtdie44coxEV4vrxgsYwPWnjw6TLzuJRZ3NSMH4jH" ] },
      { "delegate": "tz2BzJTyoQp8fNbfhWD4YQgH9JJHDgSGzpdG",
        "reception_time": "2022-01-19T19:44:04.546-00:00",
        "included_in_blocks":
          [ "BMSEmUMAhFXtdie44coxEV4vrxgsYwPWnjw6TLzuJRZ3NSMH4jH" ] },
      { "delegate": "tz1S5WxdZR5f9NzsPXhr7L9L1vrEb5spZFur",
        "reception_time": "2022-01-19T19:44:02.655-00:00",
        "included_in_blocks":
          [ "BMSEmUMAhFXtdie44coxEV4vrxgsYwPWnjw6TLzuJRZ3NSMH4jH" ] },
      { "delegate": "tz1TcH4Nb3aHNDJ7CGZhU7jgAK1BkSP4Lxds",
        "reception_time": "2022-01-19T19:43:59.827-00:00",
        "included_in_blocks":
          [ "BMSEmUMAhFXtdie44coxEV4vrxgsYwPWnjw6TLzuJRZ3NSMH4jH" ] },
      { "delegate": "tz1NdhRv643wLW6zCcRP3VfT24dvDnh7nuh9",
        "reception_time": "2022-01-19T19:43:59.315-00:00",
        "included_in_blocks":
          [ "BMSEmUMAhFXtdie44coxEV4vrxgsYwPWnjw6TLzuJRZ3NSMH4jH" ] },
      { "delegate": "tz1aRoaRhSpRYvFdyvgWLL6TGyRoGF51wDjM",
        "reception_time": "2022-01-19T19:43:58.450-00:00",
        "included_in_blocks":
          [ "BMSEmUMAhFXtdie44coxEV4vrxgsYwPWnjw6TLzuJRZ3NSMH4jH" ] },
      { "delegate": "tz1bTpviNnyx2PXsNmGpCQTMQsGoYordkUoA",
        "reception_time": "2022-01-19T19:43:57.976-00:00",
        "included_in_blocks":
          [ "BMSEmUMAhFXtdie44coxEV4vrxgsYwPWnjw6TLzuJRZ3NSMH4jH" ] },
      { "delegate": "tz1TRqbYbUf2GyrjErf3hBzgBJPzW8y36qEs",
        "reception_time": "2022-01-19T19:43:57.520-00:00",
        "included_in_blocks":
          [ "BMSEmUMAhFXtdie44coxEV4vrxgsYwPWnjw6TLzuJRZ3NSMH4jH" ] },
      { "delegate": "tz1SohptP53wDPZhzTWzDUFAUcWF6DMBpaJV",
        "reception_time": "2022-01-19T19:43:56.374-00:00",
        "included_in_blocks":
          [ "BMSEmUMAhFXtdie44coxEV4vrxgsYwPWnjw6TLzuJRZ3NSMH4jH" ] },
      { "delegate": "tz1S8MNvuFEUsWgjHvi3AxibRBf388NhT1q2",
        "reception_time": "2022-01-19T19:43:55.811-00:00",
        "included_in_blocks":
          [ "BMSEmUMAhFXtdie44coxEV4vrxgsYwPWnjw6TLzuJRZ3NSMH4jH" ] },
      { "delegate": "tz3RDC3Jdn4j15J7bBHZd29EUee9gVB1CxD9",
        "reception_time": "2022-01-19T19:43:55.678-00:00",
        "included_in_blocks":
          [ "BMSEmUMAhFXtdie44coxEV4vrxgsYwPWnjw6TLzuJRZ3NSMH4jH" ] },
      { "delegate": "tz1MQMiZHV8q4tTwUMWmS5Y3kaP6J2136iXr",
        "reception_time": "2022-01-19T19:43:55.656-00:00",
        "included_in_blocks":
          [ "BMSEmUMAhFXtdie44coxEV4vrxgsYwPWnjw6TLzuJRZ3NSMH4jH" ] },
      { "delegate": "tz3WMqdzXqRWXwyvj5Hp2H7QEepaUuS7vd9K",
        "reception_time": "2022-01-19T19:43:55.273-00:00",
        "included_in_blocks":
          [ "BMSEmUMAhFXtdie44coxEV4vrxgsYwPWnjw6TLzuJRZ3NSMH4jH" ] },
      { "delegate": "tz3NExpXn9aPNZPorRE4SdjJ2RGrfbJgMAaV",
        "reception_time": "2022-01-19T19:43:55.399-00:00",
        "included_in_blocks":
          [ "BMSEmUMAhFXtdie44coxEV4vrxgsYwPWnjw6TLzuJRZ3NSMH4jH" ] },
      { "delegate": "tz3VEZ4k6a4Wx42iyev6i2aVAptTRLEAivNN",
        "reception_time": "2022-01-19T19:43:54.999-00:00",
        "included_in_blocks":
          [ "BMSEmUMAhFXtdie44coxEV4vrxgsYwPWnjw6TLzuJRZ3NSMH4jH" ] },
      { "delegate": "tz1b9MYGrbN1NAxphLEsPPNT9JC7aNFc5nA4",
        "reception_time": "2022-01-19T19:43:54.890-00:00",
        "included_in_blocks":
          [ "BMSEmUMAhFXtdie44coxEV4vrxgsYwPWnjw6TLzuJRZ3NSMH4jH" ] },
      { "delegate": "tz3bvNMQ95vfAYtG8193ymshqjSvmxiCUuR5",
        "reception_time": "2022-01-19T19:43:54.972-00:00",
        "included_in_blocks":
          [ "BMSEmUMAhFXtdie44coxEV4vrxgsYwPWnjw6TLzuJRZ3NSMH4jH" ] },
      { "delegate": "tz1a3T5mRR1XWM1JgydvAqxEwpNs7ktVZuXc",
        "reception_time": "2022-01-19T19:43:54.518-00:00",
        "included_in_blocks":
          [ "BMSEmUMAhFXtdie44coxEV4vrxgsYwPWnjw6TLzuJRZ3NSMH4jH" ] },
      { "delegate": "tz3UoffC7FG7zfpmvmjUmUeAaHvzdcUvAj6r",
        "reception_time": "2022-01-19T19:43:54.492-00:00",
        "included_in_blocks":
          [ "BMSEmUMAhFXtdie44coxEV4vrxgsYwPWnjw6TLzuJRZ3NSMH4jH" ] },
      { "delegate": "tz3NDpRj6WBrJPikcPVHRBEjWKxFw3c6eQPS",
        "reception_time": "2022-01-19T19:43:54.501-00:00",
        "included_in_blocks":
          [ "BMSEmUMAhFXtdie44coxEV4vrxgsYwPWnjw6TLzuJRZ3NSMH4jH" ] },
      { "delegate": "tz1abmz7jiCV2GH2u81LRrGgAFFgvQgiDiaf",
        "reception_time": "2022-01-19T19:43:54.453-00:00",
        "included_in_blocks":
          [ "BMSEmUMAhFXtdie44coxEV4vrxgsYwPWnjw6TLzuJRZ3NSMH4jH" ] },
      { "delegate": "tz2FCNBrERXtaTtNX6iimR1UJ5JSDxvdHM93",
        "reception_time": "2022-01-19T19:43:54.470-00:00",
        "included_in_blocks":
          [ "BMSEmUMAhFXtdie44coxEV4vrxgsYwPWnjw6TLzuJRZ3NSMH4jH" ] },
      { "delegate": "tz1ZcTRk5uxD86EFEn1vvNffWWqJy7q5eVhc",
        "reception_time": "2022-01-19T19:43:54.453-00:00",
        "included_in_blocks":
          [ "BMSEmUMAhFXtdie44coxEV4vrxgsYwPWnjw6TLzuJRZ3NSMH4jH" ] },
      { "delegate": "tz1LmaFsWRkjr7QMCx5PtV6xTUz3AmEpKQiF",
        "reception_time": "2022-01-19T19:43:54.447-00:00",
        "included_in_blocks":
          [ "BMSEmUMAhFXtdie44coxEV4vrxgsYwPWnjw6TLzuJRZ3NSMH4jH" ] },
      { "delegate": "tz3RB4aoyjov4KEVRbuhvQ1CKJgBJMWhaeB8",
        "reception_time": "2022-01-19T19:43:54.421-00:00",
        "included_in_blocks":
          [ "BMSEmUMAhFXtdie44coxEV4vrxgsYwPWnjw6TLzuJRZ3NSMH4jH" ] },
      { "delegate": "tz3bTdwZinP8U1JmSweNzVKhmwafqWmFWRfk",
        "reception_time": "2022-01-19T19:43:54.408-00:00",
        "included_in_blocks":
          [ "BMSEmUMAhFXtdie44coxEV4vrxgsYwPWnjw6TLzuJRZ3NSMH4jH" ] },
      { "delegate": "tz1WBfwbT66FC6BTLexc2BoyCCBM9LG7pnVW",
        "reception_time": "2022-01-19T19:43:54.390-00:00",
        "included_in_blocks":
          [ "BMSEmUMAhFXtdie44coxEV4vrxgsYwPWnjw6TLzuJRZ3NSMH4jH" ] },
      { "delegate": "tz1bZ8vsMAXmaWEV7FRnyhcuUs2fYMaQ6Hkk",
        "reception_time": "2022-01-19T19:43:54.442-00:00",
        "included_in_blocks":
          [ "BMSEmUMAhFXtdie44coxEV4vrxgsYwPWnjw6TLzuJRZ3NSMH4jH" ] },
      { "delegate": "tz1RCFbB9GpALpsZtu6J58sb74dm8qe6XBzv",
        "reception_time": "2022-01-19T19:43:54.447-00:00",
        "included_in_blocks":
          [ "BMSEmUMAhFXtdie44coxEV4vrxgsYwPWnjw6TLzuJRZ3NSMH4jH" ] },
      { "delegate": "tz1Tnjaxk6tbAeC2TmMApPh8UsrEVQvhHvx5",
        "reception_time": "2022-01-19T19:43:54.376-00:00",
        "included_in_blocks":
          [ "BMSEmUMAhFXtdie44coxEV4vrxgsYwPWnjw6TLzuJRZ3NSMH4jH" ] },
      { "delegate": "tz3S6BBeKgJGXxvLyZ1xzXzMPn11nnFtq5L9",
        "reception_time": "2022-01-19T19:43:54.385-00:00",
        "included_in_blocks":
          [ "BMSEmUMAhFXtdie44coxEV4vrxgsYwPWnjw6TLzuJRZ3NSMH4jH" ] },
      { "delegate": "tz3QT9dHYKDqh563chVa6za8526ys1UKfRfL",
        "reception_time": "2022-01-19T19:43:54.408-00:00",
        "included_in_blocks":
          [ "BMSEmUMAhFXtdie44coxEV4vrxgsYwPWnjw6TLzuJRZ3NSMH4jH" ] },
      { "delegate": "tz1dRKU4FQ9QRRQPdaH4zCR6gmCmXfcvcgtB",
        "reception_time": "2022-01-19T19:43:54.371-00:00",
        "included_in_blocks":
          [ "BMSEmUMAhFXtdie44coxEV4vrxgsYwPWnjw6TLzuJRZ3NSMH4jH" ] },
      { "delegate": "tz1aXD7Jigrt3PBYSpHSg5Rr33SexMmmM5Ys",
        "reception_time": "2022-01-19T19:43:54.395-00:00",
        "included_in_blocks":
          [ "BMSEmUMAhFXtdie44coxEV4vrxgsYwPWnjw6TLzuJRZ3NSMH4jH" ] },
      { "delegate": "tz1gfArv665EUkSg2ojMBzcbfwuPxAvqPvjo",
        "reception_time": "2022-01-19T19:43:54.395-00:00",
        "included_in_blocks":
          [ "BMSEmUMAhFXtdie44coxEV4vrxgsYwPWnjw6TLzuJRZ3NSMH4jH" ] },
      { "delegate": "tz1SYq214SCBy9naR6cvycQsYcUGpBqQAE8d",
        "reception_time": "2022-01-19T19:43:54.350-00:00",
        "included_in_blocks":
          [ "BMSEmUMAhFXtdie44coxEV4vrxgsYwPWnjw6TLzuJRZ3NSMH4jH" ] },
      { "delegate": "tz1KfEsrtDaA1sX7vdM4qmEPWuSytuqCDp5j",
        "reception_time": "2022-01-19T19:43:54.385-00:00",
        "included_in_blocks":
          [ "BMSEmUMAhFXtdie44coxEV4vrxgsYwPWnjw6TLzuJRZ3NSMH4jH" ] },
      { "delegate": "tz3Zhs2dygr55yHyQyKjntAtY9bgfhLZ4Xj1",
        "reception_time": "2022-01-19T19:43:54.442-00:00",
        "included_in_blocks":
          [ "BMSEmUMAhFXtdie44coxEV4vrxgsYwPWnjw6TLzuJRZ3NSMH4jH" ] },
      { "delegate": "tz3iJu5vrKZcsqRPs8yJ61UDoeEXZmtro4qh",
        "reception_time": "2022-01-19T19:43:54.465-00:00",
        "included_in_blocks":
          [ "BMSEmUMAhFXtdie44coxEV4vrxgsYwPWnjw6TLzuJRZ3NSMH4jH" ] },
      { "delegate": "tz1T7duV5gZWSTq4YpBGbXNLTfznCLDrFxvs",
        "reception_time": "2022-01-19T19:43:54.309-00:00",
        "included_in_blocks":
          [ "BMSEmUMAhFXtdie44coxEV4vrxgsYwPWnjw6TLzuJRZ3NSMH4jH" ] },
      { "delegate": "tz1Nf6tsK4G6bBqgSQERy4nUtkHNKUVdh7q1",
        "reception_time": "2022-01-19T19:43:54.304-00:00",
        "included_in_blocks":
          [ "BMSEmUMAhFXtdie44coxEV4vrxgsYwPWnjw6TLzuJRZ3NSMH4jH" ] },
      { "delegate": "tz1NMdMmWZN8QPB8pY4ddncACDg1cHi1xD2e",
        "reception_time": "2022-01-19T19:43:54.376-00:00",
        "included_in_blocks":
          [ "BMSEmUMAhFXtdie44coxEV4vrxgsYwPWnjw6TLzuJRZ3NSMH4jH" ] },
      { "delegate": "tz3gtoUxdudfBRcNY7iVdKPHCYYX6xdPpoRS",
        "reception_time": "2022-01-19T19:43:54.341-00:00",
        "included_in_blocks":
          [ "BMSEmUMAhFXtdie44coxEV4vrxgsYwPWnjw6TLzuJRZ3NSMH4jH" ] },
      { "delegate": "tz3RKYFsLuQzKBtmYuLNas7uMu3AsYd4QdsA",
        "reception_time": "2022-01-19T19:43:54.358-00:00",
        "included_in_blocks":
          [ "BMSEmUMAhFXtdie44coxEV4vrxgsYwPWnjw6TLzuJRZ3NSMH4jH" ] },
      { "delegate": "tz3hw2kqXhLUvY65ca1eety2oQTpAvd34R9Q",
        "reception_time": "2022-01-19T19:43:54.421-00:00",
        "included_in_blocks":
          [ "BMSEmUMAhFXtdie44coxEV4vrxgsYwPWnjw6TLzuJRZ3NSMH4jH" ] },
      { "delegate": "tz3QSGPoRp3Kn7n3vY24eYeu3Peuqo45LQ4D",
        "reception_time": "2022-01-19T19:43:54.301-00:00",
        "included_in_blocks":
          [ "BMSEmUMAhFXtdie44coxEV4vrxgsYwPWnjw6TLzuJRZ3NSMH4jH" ] },
      { "delegate": "tz1NEKxGEHsFufk87CVZcrqWu8o22qh46GK6",
        "reception_time": "2022-01-19T19:43:54.390-00:00",
        "included_in_blocks":
          [ "BMSEmUMAhFXtdie44coxEV4vrxgsYwPWnjw6TLzuJRZ3NSMH4jH" ] },
      { "delegate": "tz1bsdrs36X5BTH83RHUBdUouKLJZK8d2oBa",
        "reception_time": "2022-01-19T19:43:54.358-00:00",
        "included_in_blocks":
          [ "BMSEmUMAhFXtdie44coxEV4vrxgsYwPWnjw6TLzuJRZ3NSMH4jH" ] },
      { "delegate": "tz3NxTnke1acr8o3h5y9ytf5awQBGNJUKzVU",
        "reception_time": "2022-01-19T19:43:54.322-00:00",
        "included_in_blocks":
          [ "BMSEmUMAhFXtdie44coxEV4vrxgsYwPWnjw6TLzuJRZ3NSMH4jH" ] },
      { "delegate": "tz3ZbP2pM3nwvXztbuMJwJnDvV5xdpU8UkkD",
        "reception_time": "2022-01-19T19:43:54.322-00:00",
        "included_in_blocks":
          [ "BMSEmUMAhFXtdie44coxEV4vrxgsYwPWnjw6TLzuJRZ3NSMH4jH" ] },
      { "delegate": "tz1beersuEDv8Z7ngQ825xfbaJNS2EhXnyHR",
        "reception_time": "2022-01-19T19:43:54.164-00:00",
        "included_in_blocks":
          [ "BMSEmUMAhFXtdie44coxEV4vrxgsYwPWnjw6TLzuJRZ3NSMH4jH" ] },
      { "delegate": "tz1TEc75UKXv4W5cwi14Na3NtqFD51yKQi7h",
        "reception_time": "2022-01-19T19:43:54.309-00:00",
        "included_in_blocks":
          [ "BMSEmUMAhFXtdie44coxEV4vrxgsYwPWnjw6TLzuJRZ3NSMH4jH" ] } ] }