{ "blocks":
    [ { "hash": "BMPPZDMmV7dnYqn6XVyHiW7tsDTnpUz8JqrkXSXHCyrzdpAEATi",
        "delegate": "tz1RCFbB9GpALpsZtu6J58sb74dm8qe6XBzv",
        "reception_time": "2022-01-20T00:36:10.818-00:00",
        "timestamp": "2022-01-20T00:36:00Z" } ],
  "endorsements":
    [ { "delegate": "tz1ZPh7XfUaJXUDvkrBxmS1BjEM1i62hiPpM",
        "reception_time": "2022-01-20T00:36:10.819-00:00",
        "errors":
          [ { "kind": "temporary",
              "id": "proto.011-PtHangz2.prefilter.outdated_endorsement" } ],
        "included_in_blocks":
          [ "BM18168arJuowNirb11FarcmwVAndrimdfnmqRW2EaNKWSCqmN9" ] },
      { "delegate": "tz1TzaNn7wSQSP5gYPXCnNzBCpyMiidCq1PX",
        "reception_time": "2022-01-20T00:36:10.685-00:00",
        "errors":
          [ { "kind": "temporary",
              "id": "proto.011-PtHangz2.prefilter.outdated_endorsement" } ],
        "included_in_blocks":
          [ "BM18168arJuowNirb11FarcmwVAndrimdfnmqRW2EaNKWSCqmN9" ] },
      { "delegate": "tz1beersuEDv8Z7ngQ825xfbaJNS2EhXnyHR",
        "reception_time": "2022-01-20T00:36:10.672-00:00",
        "errors":
          [ { "kind": "temporary",
              "id": "proto.011-PtHangz2.prefilter.outdated_endorsement" } ],
        "included_in_blocks":
          [ "BM18168arJuowNirb11FarcmwVAndrimdfnmqRW2EaNKWSCqmN9" ] },
      { "delegate": "tz1PWCDnz783NNGGQjEFFsHtrcK5yBW4E2rm",
        "reception_time": "2022-01-20T00:36:10.652-00:00",
        "errors":
          [ { "kind": "temporary",
              "id": "proto.011-PtHangz2.prefilter.outdated_endorsement" } ],
        "included_in_blocks":
          [ "BM18168arJuowNirb11FarcmwVAndrimdfnmqRW2EaNKWSCqmN9" ] },
      { "delegate": "tz1eEnQhbwf6trb8Q8mPb2RaPkNk2rN7BKi8",
        "reception_time": "2022-01-20T00:36:10.471-00:00",
        "errors":
          [ { "kind": "temporary",
              "id": "proto.011-PtHangz2.prefilter.outdated_endorsement" } ],
        "included_in_blocks":
          [ "BM18168arJuowNirb11FarcmwVAndrimdfnmqRW2EaNKWSCqmN9" ] },
      { "delegate": "tz1irJKkXS2DBWkU1NnmFQx1c1L7pbGg4yhk",
        "reception_time": "2022-01-20T00:36:10.259-00:00",
        "errors":
          [ { "kind": "temporary",
              "id": "proto.011-PtHangz2.prefilter.outdated_endorsement" } ],
        "included_in_blocks":
          [ "BM18168arJuowNirb11FarcmwVAndrimdfnmqRW2EaNKWSCqmN9" ] },
      { "delegate": "tz1aDiEJf9ztRrAJEXZfcG3CKimoKsGhwVAi",
        "reception_time": "2022-01-20T00:36:10.106-00:00",
        "errors":
          [ { "kind": "temporary",
              "id": "proto.011-PtHangz2.prefilter.outdated_endorsement" } ],
        "included_in_blocks":
          [ "BM18168arJuowNirb11FarcmwVAndrimdfnmqRW2EaNKWSCqmN9" ] },
      { "delegate": "tz1Ldzz6k1BHdhuKvAtMRX7h5kJSMHESMHLC",
        "reception_time": "2022-01-20T00:36:10.104-00:00",
        "errors":
          [ { "kind": "temporary",
              "id": "proto.011-PtHangz2.prefilter.outdated_endorsement" } ],
        "included_in_blocks":
          [ "BM18168arJuowNirb11FarcmwVAndrimdfnmqRW2EaNKWSCqmN9" ] },
      { "delegate": "tz1VmiY38m3y95HqQLjMwqnMS7sdMfGomzKi",
        "reception_time": "2022-01-20T00:36:10.083-00:00",
        "errors":
          [ { "kind": "temporary",
              "id": "proto.011-PtHangz2.prefilter.outdated_endorsement" } ],
        "included_in_blocks":
          [ "BM18168arJuowNirb11FarcmwVAndrimdfnmqRW2EaNKWSCqmN9" ] },
      { "delegate": "tz1P2Po7YM526ughEsRbY4oR9zaUPDZjxFrb",
        "reception_time": "2022-01-20T00:36:10.079-00:00",
        "errors":
          [ { "kind": "temporary",
              "id": "proto.011-PtHangz2.prefilter.outdated_endorsement" } ],
        "included_in_blocks":
          [ "BM18168arJuowNirb11FarcmwVAndrimdfnmqRW2EaNKWSCqmN9" ] },
      { "delegate": "tz1Lhf4J9Qxoe3DZ2nfe8FGDnvVj7oKjnMY6",
        "reception_time": "2022-01-20T00:36:10.074-00:00",
        "errors":
          [ { "kind": "temporary",
              "id": "proto.011-PtHangz2.prefilter.outdated_endorsement" } ],
        "included_in_blocks":
          [ "BM18168arJuowNirb11FarcmwVAndrimdfnmqRW2EaNKWSCqmN9" ] },
      { "delegate": "tz1bsdrs36X5BTH83RHUBdUouKLJZK8d2oBa",
        "reception_time": "2022-01-20T00:36:10.064-00:00",
        "errors":
          [ { "kind": "temporary",
              "id": "proto.011-PtHangz2.prefilter.outdated_endorsement" } ],
        "included_in_blocks":
          [ "BM18168arJuowNirb11FarcmwVAndrimdfnmqRW2EaNKWSCqmN9" ] },
      { "delegate": "tz1VQnqCCqX4K5sP3FNkVSNKTdCAMJDd3E1n",
        "reception_time": "2022-01-20T00:36:09.413-00:00",
        "errors":
          [ { "kind": "temporary",
              "id": "proto.011-PtHangz2.prefilter.outdated_endorsement" } ],
        "included_in_blocks":
          [ "BM18168arJuowNirb11FarcmwVAndrimdfnmqRW2EaNKWSCqmN9" ] },
      { "delegate": "tz1gUNyn3hmnEWqkusWPzxRaon1cs7ndWh7h",
        "reception_time": "2022-01-20T00:36:09.406-00:00",
        "errors":
          [ { "kind": "temporary",
              "id": "proto.011-PtHangz2.prefilter.outdated_endorsement" } ],
        "included_in_blocks":
          [ "BM18168arJuowNirb11FarcmwVAndrimdfnmqRW2EaNKWSCqmN9" ] },
      { "delegate": "tz1awXW7wuXy21c66vBudMXQVAPgRnqqwgTH" },
      { "delegate": "tz1fJHFn6sWEd3NnBPngACuw2dggTv6nQZ7g" },
      { "delegate": "tz1KfEsrtDaA1sX7vdM4qmEPWuSytuqCDp5j",
        "reception_time": "2022-01-20T00:36:13.389-00:00",
        "included_in_blocks":
          [ "BM18168arJuowNirb11FarcmwVAndrimdfnmqRW2EaNKWSCqmN9" ] },
      { "delegate": "tz1WCd2jm4uSt4vntk4vSuUWoZQGhLcDuR9q",
        "reception_time": "2022-01-20T00:36:14.339-00:00",
        "included_in_blocks":
          [ "BM18168arJuowNirb11FarcmwVAndrimdfnmqRW2EaNKWSCqmN9" ] },
      { "delegate": "tz1RCFbB9GpALpsZtu6J58sb74dm8qe6XBzv",
        "reception_time": "2022-01-20T00:36:14.339-00:00",
        "included_in_blocks":
          [ "BM18168arJuowNirb11FarcmwVAndrimdfnmqRW2EaNKWSCqmN9" ] },
      { "delegate": "tz1TEc75UKXv4W5cwi14Na3NtqFD51yKQi7h",
        "reception_time": "2022-01-20T00:36:14.339-00:00",
        "included_in_blocks":
          [ "BM18168arJuowNirb11FarcmwVAndrimdfnmqRW2EaNKWSCqmN9" ] },
      { "delegate": "tz3NxTnke1acr8o3h5y9ytf5awQBGNJUKzVU",
        "reception_time": "2022-01-20T00:36:14.339-00:00",
        "included_in_blocks":
          [ "BM18168arJuowNirb11FarcmwVAndrimdfnmqRW2EaNKWSCqmN9" ] },
      { "delegate": "tz1ei4WtWEMEJekSv8qDnu9PExG6Q8HgRGr3",
        "reception_time": "2022-01-20T00:36:14.339-00:00",
        "included_in_blocks":
          [ "BM18168arJuowNirb11FarcmwVAndrimdfnmqRW2EaNKWSCqmN9" ] },
      { "delegate": "tz3ZbP2pM3nwvXztbuMJwJnDvV5xdpU8UkkD",
        "reception_time": "2022-01-20T00:36:14.339-00:00",
        "included_in_blocks":
          [ "BM18168arJuowNirb11FarcmwVAndrimdfnmqRW2EaNKWSCqmN9" ] },
      { "delegate": "tz3RKYFsLuQzKBtmYuLNas7uMu3AsYd4QdsA",
        "reception_time": "2022-01-20T00:36:14.370-00:00",
        "included_in_blocks":
          [ "BM18168arJuowNirb11FarcmwVAndrimdfnmqRW2EaNKWSCqmN9" ] },
      { "delegate": "tz3e7LbZvUtoXhpUD1yb6wuFodZpfYRb9nWJ",
        "reception_time": "2022-01-20T00:36:14.370-00:00",
        "included_in_blocks":
          [ "BM18168arJuowNirb11FarcmwVAndrimdfnmqRW2EaNKWSCqmN9" ] },
      { "delegate": "tz3hw2kqXhLUvY65ca1eety2oQTpAvd34R9Q",
        "reception_time": "2022-01-20T00:36:14.386-00:00",
        "included_in_blocks":
          [ "BM18168arJuowNirb11FarcmwVAndrimdfnmqRW2EaNKWSCqmN9" ] },
      { "delegate": "tz1d6Fx42mYgVFnHUW8T8A7WBfJ6nD9pVok8",
        "reception_time": "2022-01-20T00:36:14.390-00:00",
        "included_in_blocks":
          [ "BM18168arJuowNirb11FarcmwVAndrimdfnmqRW2EaNKWSCqmN9" ] },
      { "delegate": "tz1MQJPGNMijnXnVoBENFz9rUhaPt3S7rWoz",
        "reception_time": "2022-01-20T00:36:14.400-00:00",
        "included_in_blocks":
          [ "BM18168arJuowNirb11FarcmwVAndrimdfnmqRW2EaNKWSCqmN9" ] },
      { "delegate": "tz1MJx9vhaNRSimcuXPK2rW4fLccQnDAnVKJ",
        "reception_time": "2022-01-20T00:36:14.400-00:00",
        "included_in_blocks":
          [ "BM18168arJuowNirb11FarcmwVAndrimdfnmqRW2EaNKWSCqmN9" ] },
      { "delegate": "tz1Nf6tsK4G6bBqgSQERy4nUtkHNKUVdh7q1",
        "reception_time": "2022-01-20T00:36:14.555-00:00",
        "included_in_blocks":
          [ "BM18168arJuowNirb11FarcmwVAndrimdfnmqRW2EaNKWSCqmN9" ] },
      { "delegate": "tz3QSGPoRp3Kn7n3vY24eYeu3Peuqo45LQ4D",
        "reception_time": "2022-01-20T00:36:14.555-00:00",
        "included_in_blocks":
          [ "BM18168arJuowNirb11FarcmwVAndrimdfnmqRW2EaNKWSCqmN9" ] },
      { "delegate": "tz3iJu5vrKZcsqRPs8yJ61UDoeEXZmtro4qh",
        "reception_time": "2022-01-20T00:36:14.555-00:00",
        "included_in_blocks":
          [ "BM18168arJuowNirb11FarcmwVAndrimdfnmqRW2EaNKWSCqmN9" ] },
      { "delegate": "tz1SYq214SCBy9naR6cvycQsYcUGpBqQAE8d",
        "reception_time": "2022-01-20T00:36:14.555-00:00",
        "included_in_blocks":
          [ "BM18168arJuowNirb11FarcmwVAndrimdfnmqRW2EaNKWSCqmN9" ] },
      { "delegate": "tz1S8MNvuFEUsWgjHvi3AxibRBf388NhT1q2",
        "reception_time": "2022-01-20T00:36:14.555-00:00",
        "included_in_blocks":
          [ "BM18168arJuowNirb11FarcmwVAndrimdfnmqRW2EaNKWSCqmN9" ] },
      { "delegate": "tz3RB4aoyjov4KEVRbuhvQ1CKJgBJMWhaeB8",
        "reception_time": "2022-01-20T00:36:14.555-00:00",
        "included_in_blocks":
          [ "BM18168arJuowNirb11FarcmwVAndrimdfnmqRW2EaNKWSCqmN9" ] },
      { "delegate": "tz1gfArv665EUkSg2ojMBzcbfwuPxAvqPvjo",
        "reception_time": "2022-01-20T00:36:14.986-00:00",
        "included_in_blocks":
          [ "BM18168arJuowNirb11FarcmwVAndrimdfnmqRW2EaNKWSCqmN9" ] },
      { "delegate": "tz3bTdwZinP8U1JmSweNzVKhmwafqWmFWRfk",
        "reception_time": "2022-01-20T00:36:14.986-00:00",
        "included_in_blocks":
          [ "BM18168arJuowNirb11FarcmwVAndrimdfnmqRW2EaNKWSCqmN9" ] },
      { "delegate": "tz1V4qCyvPKZ5UeqdH14HN42rxvNPQfc9UZg",
        "reception_time": "2022-01-20T00:36:14.986-00:00",
        "included_in_blocks":
          [ "BM18168arJuowNirb11FarcmwVAndrimdfnmqRW2EaNKWSCqmN9" ] },
      { "delegate": "tz3adcvQaKXTCg12zbninqo3q8ptKKtDFTLv",
        "reception_time": "2022-01-20T00:36:14.986-00:00",
        "included_in_blocks":
          [ "BM18168arJuowNirb11FarcmwVAndrimdfnmqRW2EaNKWSCqmN9" ] },
      { "delegate": "tz1RzwaogUQ8zPntqrSn4yn5f3VquXfEH5Jo",
        "reception_time": "2022-01-20T00:36:14.986-00:00",
        "included_in_blocks":
          [ "BM18168arJuowNirb11FarcmwVAndrimdfnmqRW2EaNKWSCqmN9" ] },
      { "delegate": "tz3UoffC7FG7zfpmvmjUmUeAaHvzdcUvAj6r",
        "reception_time": "2022-01-20T00:36:14.986-00:00",
        "included_in_blocks":
          [ "BM18168arJuowNirb11FarcmwVAndrimdfnmqRW2EaNKWSCqmN9" ] },
      { "delegate": "tz1dRKU4FQ9QRRQPdaH4zCR6gmCmXfcvcgtB",
        "reception_time": "2022-01-20T00:36:14.986-00:00",
        "included_in_blocks":
          [ "BM18168arJuowNirb11FarcmwVAndrimdfnmqRW2EaNKWSCqmN9" ] },
      { "delegate": "tz1Z2jXfEXL7dXhs6bsLmyLFLfmAkXBzA9WE",
        "reception_time": "2022-01-20T00:36:14.986-00:00",
        "included_in_blocks":
          [ "BM18168arJuowNirb11FarcmwVAndrimdfnmqRW2EaNKWSCqmN9" ] },
      { "delegate": "tz3gtoUxdudfBRcNY7iVdKPHCYYX6xdPpoRS",
        "reception_time": "2022-01-20T00:36:15.333-00:00",
        "included_in_blocks":
          [ "BM18168arJuowNirb11FarcmwVAndrimdfnmqRW2EaNKWSCqmN9" ] },
      { "delegate": "tz1cYufsxHXJcvANhvS55h3aY32a9BAFB494",
        "reception_time": "2022-01-20T00:36:15.333-00:00",
        "included_in_blocks":
          [ "BM18168arJuowNirb11FarcmwVAndrimdfnmqRW2EaNKWSCqmN9" ] },
      { "delegate": "tz1dNVDWPf3Q59SdJqnjdnu277iyvReiRS9M",
        "reception_time": "2022-01-20T00:36:15.333-00:00",
        "included_in_blocks":
          [ "BM18168arJuowNirb11FarcmwVAndrimdfnmqRW2EaNKWSCqmN9" ] },
      { "delegate": "tz1fPKAtsYydh4f1wfWNfeNxWYu72TmM48fu",
        "reception_time": "2022-01-20T00:36:15.333-00:00",
        "included_in_blocks":
          [ "BM18168arJuowNirb11FarcmwVAndrimdfnmqRW2EaNKWSCqmN9" ] },
      { "delegate": "tz3QT9dHYKDqh563chVa6za8526ys1UKfRfL",
        "reception_time": "2022-01-20T00:36:15.390-00:00",
        "included_in_blocks":
          [ "BM18168arJuowNirb11FarcmwVAndrimdfnmqRW2EaNKWSCqmN9" ] },
      { "delegate": "tz1WBfwbT66FC6BTLexc2BoyCCBM9LG7pnVW",
        "reception_time": "2022-01-20T00:36:15.413-00:00",
        "included_in_blocks":
          [ "BM18168arJuowNirb11FarcmwVAndrimdfnmqRW2EaNKWSCqmN9" ] },
      { "delegate": "tz3Zhs2dygr55yHyQyKjntAtY9bgfhLZ4Xj1",
        "reception_time": "2022-01-20T00:36:15.715-00:00",
        "included_in_blocks":
          [ "BM18168arJuowNirb11FarcmwVAndrimdfnmqRW2EaNKWSCqmN9" ] },
      { "delegate": "tz3WMqdzXqRWXwyvj5Hp2H7QEepaUuS7vd9K",
        "reception_time": "2022-01-20T00:36:15.729-00:00",
        "included_in_blocks":
          [ "BM18168arJuowNirb11FarcmwVAndrimdfnmqRW2EaNKWSCqmN9" ] },
      { "delegate": "tz1LmaFsWRkjr7QMCx5PtV6xTUz3AmEpKQiF",
        "reception_time": "2022-01-20T00:36:15.740-00:00",
        "included_in_blocks":
          [ "BM18168arJuowNirb11FarcmwVAndrimdfnmqRW2EaNKWSCqmN9" ] },
      { "delegate": "tz1TRqbYbUf2GyrjErf3hBzgBJPzW8y36qEs",
        "reception_time": "2022-01-20T00:36:15.740-00:00",
        "included_in_blocks":
          [ "BM18168arJuowNirb11FarcmwVAndrimdfnmqRW2EaNKWSCqmN9" ] },
      { "delegate": "tz2FCNBrERXtaTtNX6iimR1UJ5JSDxvdHM93",
        "reception_time": "2022-01-20T00:36:15.754-00:00",
        "included_in_blocks":
          [ "BM18168arJuowNirb11FarcmwVAndrimdfnmqRW2EaNKWSCqmN9" ] },
      { "delegate": "tz3QCNyySViKHmeSr45kzDxzchys7NiXCWoa",
        "reception_time": "2022-01-20T00:36:15.754-00:00",
        "included_in_blocks":
          [ "BM18168arJuowNirb11FarcmwVAndrimdfnmqRW2EaNKWSCqmN9" ] },
      { "delegate": "tz3bvNMQ95vfAYtG8193ymshqjSvmxiCUuR5",
        "reception_time": "2022-01-20T00:36:15.767-00:00",
        "included_in_blocks":
          [ "BM18168arJuowNirb11FarcmwVAndrimdfnmqRW2EaNKWSCqmN9" ] },
      { "delegate": "tz3S6BBeKgJGXxvLyZ1xzXzMPn11nnFtq5L9",
        "reception_time": "2022-01-20T00:36:15.818-00:00",
        "included_in_blocks":
          [ "BM18168arJuowNirb11FarcmwVAndrimdfnmqRW2EaNKWSCqmN9" ] },
      { "delegate": "tz1abmz7jiCV2GH2u81LRrGgAFFgvQgiDiaf",
        "reception_time": "2022-01-20T00:36:15.834-00:00",
        "included_in_blocks":
          [ "BM18168arJuowNirb11FarcmwVAndrimdfnmqRW2EaNKWSCqmN9" ] },
      { "delegate": "tz1fwnfJNgiDACshK9avfRfFbMaXrs3ghoJa",
        "reception_time": "2022-01-20T00:36:15.845-00:00",
        "included_in_blocks":
          [ "BM18168arJuowNirb11FarcmwVAndrimdfnmqRW2EaNKWSCqmN9" ] },
      { "delegate": "tz1fUyqYH7H4pRHN1roWY17giXhy1RvxjgUV",
        "reception_time": "2022-01-20T00:36:15.892-00:00",
        "included_in_blocks":
          [ "BM18168arJuowNirb11FarcmwVAndrimdfnmqRW2EaNKWSCqmN9" ] },
      { "delegate": "tz1d4G4MdmfJWUzu8X4SJUTKjx4Ns6TUR9gR",
        "reception_time": "2022-01-20T00:36:15.900-00:00",
        "included_in_blocks":
          [ "BM18168arJuowNirb11FarcmwVAndrimdfnmqRW2EaNKWSCqmN9" ] },
      { "delegate": "tz3RDC3Jdn4j15J7bBHZd29EUee9gVB1CxD9",
        "reception_time": "2022-01-20T00:36:15.908-00:00",
        "included_in_blocks":
          [ "BM18168arJuowNirb11FarcmwVAndrimdfnmqRW2EaNKWSCqmN9" ] },
      { "delegate": "tz3NDpRj6WBrJPikcPVHRBEjWKxFw3c6eQPS",
        "reception_time": "2022-01-20T00:36:15.922-00:00",
        "included_in_blocks":
          [ "BM18168arJuowNirb11FarcmwVAndrimdfnmqRW2EaNKWSCqmN9" ] },
      { "delegate": "tz3VEZ4k6a4Wx42iyev6i2aVAptTRLEAivNN",
        "reception_time": "2022-01-20T00:36:15.922-00:00",
        "included_in_blocks":
          [ "BM18168arJuowNirb11FarcmwVAndrimdfnmqRW2EaNKWSCqmN9" ] },
      { "delegate": "tz3NExpXn9aPNZPorRE4SdjJ2RGrfbJgMAaV",
        "reception_time": "2022-01-20T00:36:15.965-00:00",
        "included_in_blocks":
          [ "BM18168arJuowNirb11FarcmwVAndrimdfnmqRW2EaNKWSCqmN9" ] },
      { "delegate": "tz1bTpviNnyx2PXsNmGpCQTMQsGoYordkUoA",
        "reception_time": "2022-01-20T00:36:16.105-00:00",
        "included_in_blocks":
          [ "BM18168arJuowNirb11FarcmwVAndrimdfnmqRW2EaNKWSCqmN9" ] },
      { "delegate": "tz1YiuvpfeVAHbnU8akcWErNfQGFHNQ7F45z",
        "reception_time": "2022-01-20T00:36:16.391-00:00",
        "included_in_blocks":
          [ "BM18168arJuowNirb11FarcmwVAndrimdfnmqRW2EaNKWSCqmN9" ] },
      { "delegate": "tz1i3mhawFAgcB8JHaHwoUF6hdncwTAkLEn2",
        "reception_time": "2022-01-20T00:36:17.769-00:00",
        "included_in_blocks":
          [ "BM18168arJuowNirb11FarcmwVAndrimdfnmqRW2EaNKWSCqmN9" ] },
      { "delegate": "tz1g8vkmcde6sWKaG2NN9WKzCkDM6Rziq194",
        "reception_time": "2022-01-20T00:36:17.979-00:00",
        "included_in_blocks":
          [ "BM18168arJuowNirb11FarcmwVAndrimdfnmqRW2EaNKWSCqmN9" ] },
      { "delegate": "tz1aRoaRhSpRYvFdyvgWLL6TGyRoGF51wDjM",
        "reception_time": "2022-01-20T00:36:18.032-00:00",
        "included_in_blocks":
          [ "BM18168arJuowNirb11FarcmwVAndrimdfnmqRW2EaNKWSCqmN9" ] } ] }