{ "blocks":
    [ { "hash": "BMZxKUxTb3gohhaeEqmwyJqXNx8XqpiR33Nind4c9RBydn7Lwc5",
        "delegate": "tz1aRoaRhSpRYvFdyvgWLL6TGyRoGF51wDjM",
        "reception_time": "2022-01-19T23:42:37.680-00:00",
        "timestamp": "2022-01-19T23:42:20Z" } ],
  "endorsements":
    [ { "delegate": "tz1Kt4P8BCaP93AEV4eA7gmpRryWt5hznjCP",
        "reception_time": "2022-01-19T23:42:37.594-00:00",
        "errors":
          [ { "kind": "temporary",
              "id": "proto.011-PtHangz2.prefilter.outdated_endorsement" } ],
        "included_in_blocks":
          [ "BMZahGgdv8ieUiYfQys6Y9M4qgi67S6Z5SMy9CirxK5DgjK6Bwb" ] },
      { "delegate": "tz1gUNyn3hmnEWqkusWPzxRaon1cs7ndWh7h",
        "reception_time": "2022-01-19T23:42:37.573-00:00",
        "errors":
          [ { "kind": "temporary",
              "id": "proto.011-PtHangz2.prefilter.outdated_endorsement" } ],
        "included_in_blocks":
          [ "BMZahGgdv8ieUiYfQys6Y9M4qgi67S6Z5SMy9CirxK5DgjK6Bwb" ] },
      { "delegate": "tz1VQnqCCqX4K5sP3FNkVSNKTdCAMJDd3E1n",
        "reception_time": "2022-01-19T23:42:37.573-00:00",
        "errors":
          [ { "kind": "temporary",
              "id": "proto.011-PtHangz2.prefilter.outdated_endorsement" } ],
        "included_in_blocks":
          [ "BMZahGgdv8ieUiYfQys6Y9M4qgi67S6Z5SMy9CirxK5DgjK6Bwb" ] },
      { "delegate": "tz1irJKkXS2DBWkU1NnmFQx1c1L7pbGg4yhk",
        "reception_time": "2022-01-19T23:42:37.558-00:00",
        "errors":
          [ { "kind": "temporary",
              "id": "proto.011-PtHangz2.prefilter.outdated_endorsement" } ],
        "included_in_blocks":
          [ "BMZahGgdv8ieUiYfQys6Y9M4qgi67S6Z5SMy9CirxK5DgjK6Bwb" ] },
      { "delegate": "tz1Lhf4J9Qxoe3DZ2nfe8FGDnvVj7oKjnMY6",
        "reception_time": "2022-01-19T23:42:37.491-00:00",
        "errors":
          [ { "kind": "temporary",
              "id": "proto.011-PtHangz2.prefilter.outdated_endorsement" } ],
        "included_in_blocks":
          [ "BMZahGgdv8ieUiYfQys6Y9M4qgi67S6Z5SMy9CirxK5DgjK6Bwb" ] },
      { "delegate": "tz1Ldzz6k1BHdhuKvAtMRX7h5kJSMHESMHLC",
        "reception_time": "2022-01-19T23:42:37.190-00:00",
        "errors":
          [ { "kind": "temporary",
              "id": "proto.011-PtHangz2.prefilter.outdated_endorsement" } ],
        "included_in_blocks":
          [ "BMZahGgdv8ieUiYfQys6Y9M4qgi67S6Z5SMy9CirxK5DgjK6Bwb" ] },
      { "delegate": "tz1VmiY38m3y95HqQLjMwqnMS7sdMfGomzKi",
        "reception_time": "2022-01-19T23:42:37.176-00:00",
        "errors":
          [ { "kind": "temporary",
              "id": "proto.011-PtHangz2.prefilter.outdated_endorsement" } ],
        "included_in_blocks":
          [ "BMZahGgdv8ieUiYfQys6Y9M4qgi67S6Z5SMy9CirxK5DgjK6Bwb" ] },
      { "delegate": "tz1P2Po7YM526ughEsRbY4oR9zaUPDZjxFrb",
        "reception_time": "2022-01-19T23:42:37.097-00:00",
        "errors":
          [ { "kind": "temporary",
              "id": "proto.011-PtHangz2.prefilter.outdated_endorsement" } ],
        "included_in_blocks":
          [ "BMZahGgdv8ieUiYfQys6Y9M4qgi67S6Z5SMy9CirxK5DgjK6Bwb" ] },
      { "delegate": "tz1RjoHc98dBoqaH2jawF62XNKh7YsHwbkEv" },
      { "delegate": "tz1awXW7wuXy21c66vBudMXQVAPgRnqqwgTH" },
      { "delegate": "tz1TzaNn7wSQSP5gYPXCnNzBCpyMiidCq1PX",
        "reception_time": "2022-01-19T23:42:40.011-00:00",
        "included_in_blocks":
          [ "BMZahGgdv8ieUiYfQys6Y9M4qgi67S6Z5SMy9CirxK5DgjK6Bwb" ] },
      { "delegate": "tz1aDiEJf9ztRrAJEXZfcG3CKimoKsGhwVAi",
        "reception_time": "2022-01-19T23:42:40.011-00:00",
        "included_in_blocks":
          [ "BMZahGgdv8ieUiYfQys6Y9M4qgi67S6Z5SMy9CirxK5DgjK6Bwb" ] },
      { "delegate": "tz1dNVDWPf3Q59SdJqnjdnu277iyvReiRS9M",
        "reception_time": "2022-01-19T23:42:40.011-00:00",
        "included_in_blocks":
          [ "BMZahGgdv8ieUiYfQys6Y9M4qgi67S6Z5SMy9CirxK5DgjK6Bwb" ] },
      { "delegate": "tz1beersuEDv8Z7ngQ825xfbaJNS2EhXnyHR",
        "reception_time": "2022-01-19T23:42:40.011-00:00",
        "included_in_blocks":
          [ "BMZahGgdv8ieUiYfQys6Y9M4qgi67S6Z5SMy9CirxK5DgjK6Bwb" ] },
      { "delegate": "tz1LUNAvfLp4xHUBTc1U8va7fVMNYudPq3d2",
        "reception_time": "2022-01-19T23:42:40.011-00:00",
        "included_in_blocks":
          [ "BMZahGgdv8ieUiYfQys6Y9M4qgi67S6Z5SMy9CirxK5DgjK6Bwb" ] },
      { "delegate": "tz1PWCDnz783NNGGQjEFFsHtrcK5yBW4E2rm",
        "reception_time": "2022-01-19T23:42:40.011-00:00",
        "included_in_blocks":
          [ "BMZahGgdv8ieUiYfQys6Y9M4qgi67S6Z5SMy9CirxK5DgjK6Bwb" ] },
      { "delegate": "tz1WCd2jm4uSt4vntk4vSuUWoZQGhLcDuR9q",
        "reception_time": "2022-01-19T23:42:40.011-00:00",
        "included_in_blocks":
          [ "BMZahGgdv8ieUiYfQys6Y9M4qgi67S6Z5SMy9CirxK5DgjK6Bwb" ] },
      { "delegate": "tz3gtoUxdudfBRcNY7iVdKPHCYYX6xdPpoRS",
        "reception_time": "2022-01-19T23:42:40.011-00:00",
        "included_in_blocks":
          [ "BMZahGgdv8ieUiYfQys6Y9M4qgi67S6Z5SMy9CirxK5DgjK6Bwb" ] },
      { "delegate": "tz3NxTnke1acr8o3h5y9ytf5awQBGNJUKzVU",
        "reception_time": "2022-01-19T23:42:40.011-00:00",
        "included_in_blocks":
          [ "BMZahGgdv8ieUiYfQys6Y9M4qgi67S6Z5SMy9CirxK5DgjK6Bwb" ] },
      { "delegate": "tz3e7LbZvUtoXhpUD1yb6wuFodZpfYRb9nWJ",
        "reception_time": "2022-01-19T23:42:40.011-00:00",
        "included_in_blocks":
          [ "BMZahGgdv8ieUiYfQys6Y9M4qgi67S6Z5SMy9CirxK5DgjK6Bwb" ] },
      { "delegate": "tz3QSGPoRp3Kn7n3vY24eYeu3Peuqo45LQ4D",
        "reception_time": "2022-01-19T23:42:40.011-00:00",
        "included_in_blocks":
          [ "BMZahGgdv8ieUiYfQys6Y9M4qgi67S6Z5SMy9CirxK5DgjK6Bwb" ] },
      { "delegate": "tz3ZbP2pM3nwvXztbuMJwJnDvV5xdpU8UkkD",
        "reception_time": "2022-01-19T23:42:40.011-00:00",
        "included_in_blocks":
          [ "BMZahGgdv8ieUiYfQys6Y9M4qgi67S6Z5SMy9CirxK5DgjK6Bwb" ] },
      { "delegate": "tz1ei4WtWEMEJekSv8qDnu9PExG6Q8HgRGr3",
        "reception_time": "2022-01-19T23:42:40.011-00:00",
        "included_in_blocks":
          [ "BMZahGgdv8ieUiYfQys6Y9M4qgi67S6Z5SMy9CirxK5DgjK6Bwb" ] },
      { "delegate": "tz1MivraUX9U6nmGAQkm7XkrNVmsPExEUT1W",
        "reception_time": "2022-01-19T23:42:40.197-00:00",
        "included_in_blocks":
          [ "BMZahGgdv8ieUiYfQys6Y9M4qgi67S6Z5SMy9CirxK5DgjK6Bwb" ] },
      { "delegate": "tz3hw2kqXhLUvY65ca1eety2oQTpAvd34R9Q",
        "reception_time": "2022-01-19T23:42:40.197-00:00",
        "included_in_blocks":
          [ "BMZahGgdv8ieUiYfQys6Y9M4qgi67S6Z5SMy9CirxK5DgjK6Bwb" ] },
      { "delegate": "tz3RKYFsLuQzKBtmYuLNas7uMu3AsYd4QdsA",
        "reception_time": "2022-01-19T23:42:40.197-00:00",
        "included_in_blocks":
          [ "BMZahGgdv8ieUiYfQys6Y9M4qgi67S6Z5SMy9CirxK5DgjK6Bwb" ] },
      { "delegate": "tz3iJu5vrKZcsqRPs8yJ61UDoeEXZmtro4qh",
        "reception_time": "2022-01-19T23:42:40.197-00:00",
        "included_in_blocks":
          [ "BMZahGgdv8ieUiYfQys6Y9M4qgi67S6Z5SMy9CirxK5DgjK6Bwb" ] },
      { "delegate": "tz3Zhs2dygr55yHyQyKjntAtY9bgfhLZ4Xj1",
        "reception_time": "2022-01-19T23:42:40.197-00:00",
        "included_in_blocks":
          [ "BMZahGgdv8ieUiYfQys6Y9M4qgi67S6Z5SMy9CirxK5DgjK6Bwb" ] },
      { "delegate": "tz1KfEsrtDaA1sX7vdM4qmEPWuSytuqCDp5j",
        "reception_time": "2022-01-19T23:42:40.197-00:00",
        "included_in_blocks":
          [ "BMZahGgdv8ieUiYfQys6Y9M4qgi67S6Z5SMy9CirxK5DgjK6Bwb" ] },
      { "delegate": "tz1MQMiZHV8q4tTwUMWmS5Y3kaP6J2136iXr",
        "reception_time": "2022-01-19T23:42:40.197-00:00",
        "included_in_blocks":
          [ "BMZahGgdv8ieUiYfQys6Y9M4qgi67S6Z5SMy9CirxK5DgjK6Bwb" ] },
      { "delegate": "tz1eEnQhbwf6trb8Q8mPb2RaPkNk2rN7BKi8",
        "reception_time": "2022-01-19T23:42:40.197-00:00",
        "included_in_blocks":
          [ "BMZahGgdv8ieUiYfQys6Y9M4qgi67S6Z5SMy9CirxK5DgjK6Bwb" ] },
      { "delegate": "tz1TEc75UKXv4W5cwi14Na3NtqFD51yKQi7h",
        "reception_time": "2022-01-19T23:42:40.197-00:00",
        "included_in_blocks":
          [ "BMZahGgdv8ieUiYfQys6Y9M4qgi67S6Z5SMy9CirxK5DgjK6Bwb" ] },
      { "delegate": "tz1Nf6tsK4G6bBqgSQERy4nUtkHNKUVdh7q1",
        "reception_time": "2022-01-19T23:42:40.197-00:00",
        "included_in_blocks":
          [ "BMZahGgdv8ieUiYfQys6Y9M4qgi67S6Z5SMy9CirxK5DgjK6Bwb" ] },
      { "delegate": "tz1SYq214SCBy9naR6cvycQsYcUGpBqQAE8d",
        "reception_time": "2022-01-19T23:42:40.375-00:00",
        "included_in_blocks":
          [ "BMZahGgdv8ieUiYfQys6Y9M4qgi67S6Z5SMy9CirxK5DgjK6Bwb" ] },
      { "delegate": "tz1NEKxGEHsFufk87CVZcrqWu8o22qh46GK6",
        "reception_time": "2022-01-19T23:42:40.375-00:00",
        "included_in_blocks":
          [ "BMZahGgdv8ieUiYfQys6Y9M4qgi67S6Z5SMy9CirxK5DgjK6Bwb" ] },
      { "delegate": "tz3S6BBeKgJGXxvLyZ1xzXzMPn11nnFtq5L9",
        "reception_time": "2022-01-19T23:42:40.375-00:00",
        "included_in_blocks":
          [ "BMZahGgdv8ieUiYfQys6Y9M4qgi67S6Z5SMy9CirxK5DgjK6Bwb" ] },
      { "delegate": "tz1gfArv665EUkSg2ojMBzcbfwuPxAvqPvjo",
        "reception_time": "2022-01-19T23:42:40.375-00:00",
        "included_in_blocks":
          [ "BMZahGgdv8ieUiYfQys6Y9M4qgi67S6Z5SMy9CirxK5DgjK6Bwb" ] },
      { "delegate": "tz3QCNyySViKHmeSr45kzDxzchys7NiXCWoa",
        "reception_time": "2022-01-19T23:42:40.375-00:00",
        "included_in_blocks":
          [ "BMZahGgdv8ieUiYfQys6Y9M4qgi67S6Z5SMy9CirxK5DgjK6Bwb" ] },
      { "delegate": "tz1Tnjaxk6tbAeC2TmMApPh8UsrEVQvhHvx5",
        "reception_time": "2022-01-19T23:42:40.375-00:00",
        "included_in_blocks":
          [ "BMZahGgdv8ieUiYfQys6Y9M4qgi67S6Z5SMy9CirxK5DgjK6Bwb" ] },
      { "delegate": "tz1RCFbB9GpALpsZtu6J58sb74dm8qe6XBzv",
        "reception_time": "2022-01-19T23:42:40.375-00:00",
        "included_in_blocks":
          [ "BMZahGgdv8ieUiYfQys6Y9M4qgi67S6Z5SMy9CirxK5DgjK6Bwb" ] },
      { "delegate": "tz3QT9dHYKDqh563chVa6za8526ys1UKfRfL",
        "reception_time": "2022-01-19T23:42:40.375-00:00",
        "included_in_blocks":
          [ "BMZahGgdv8ieUiYfQys6Y9M4qgi67S6Z5SMy9CirxK5DgjK6Bwb" ] },
      { "delegate": "tz1WBfwbT66FC6BTLexc2BoyCCBM9LG7pnVW",
        "reception_time": "2022-01-19T23:42:40.375-00:00",
        "included_in_blocks":
          [ "BMZahGgdv8ieUiYfQys6Y9M4qgi67S6Z5SMy9CirxK5DgjK6Bwb" ] },
      { "delegate": "tz3RB4aoyjov4KEVRbuhvQ1CKJgBJMWhaeB8",
        "reception_time": "2022-01-19T23:42:40.375-00:00",
        "included_in_blocks":
          [ "BMZahGgdv8ieUiYfQys6Y9M4qgi67S6Z5SMy9CirxK5DgjK6Bwb" ] },
      { "delegate": "tz1S8MNvuFEUsWgjHvi3AxibRBf388NhT1q2",
        "reception_time": "2022-01-19T23:42:40.375-00:00",
        "included_in_blocks":
          [ "BMZahGgdv8ieUiYfQys6Y9M4qgi67S6Z5SMy9CirxK5DgjK6Bwb" ] },
      { "delegate": "tz1eCzNtidHvVgeRzQ38C81FPcYnxMsCEL6Z",
        "reception_time": "2022-01-19T23:42:40.375-00:00",
        "included_in_blocks":
          [ "BMZahGgdv8ieUiYfQys6Y9M4qgi67S6Z5SMy9CirxK5DgjK6Bwb" ] },
      { "delegate": "tz1dRKU4FQ9QRRQPdaH4zCR6gmCmXfcvcgtB",
        "reception_time": "2022-01-19T23:42:40.375-00:00",
        "included_in_blocks":
          [ "BMZahGgdv8ieUiYfQys6Y9M4qgi67S6Z5SMy9CirxK5DgjK6Bwb" ] },
      { "delegate": "tz1WctSwL49BZtdWAQ75NY6vr4xsAx6oKdah",
        "reception_time": "2022-01-19T23:42:40.677-00:00",
        "included_in_blocks":
          [ "BMZahGgdv8ieUiYfQys6Y9M4qgi67S6Z5SMy9CirxK5DgjK6Bwb" ] },
      { "delegate": "tz2FCNBrERXtaTtNX6iimR1UJ5JSDxvdHM93",
        "reception_time": "2022-01-19T23:42:40.677-00:00",
        "included_in_blocks":
          [ "BMZahGgdv8ieUiYfQys6Y9M4qgi67S6Z5SMy9CirxK5DgjK6Bwb" ] },
      { "delegate": "tz1cig1EHyvZd7J2k389moM9PxVgPQvmFkvi",
        "reception_time": "2022-01-19T23:42:40.677-00:00",
        "included_in_blocks":
          [ "BMZahGgdv8ieUiYfQys6Y9M4qgi67S6Z5SMy9CirxK5DgjK6Bwb" ] },
      { "delegate": "tz3bTdwZinP8U1JmSweNzVKhmwafqWmFWRfk",
        "reception_time": "2022-01-19T23:42:40.677-00:00",
        "included_in_blocks":
          [ "BMZahGgdv8ieUiYfQys6Y9M4qgi67S6Z5SMy9CirxK5DgjK6Bwb" ] },
      { "delegate": "tz1T7duV5gZWSTq4YpBGbXNLTfznCLDrFxvs",
        "reception_time": "2022-01-19T23:42:40.677-00:00",
        "included_in_blocks":
          [ "BMZahGgdv8ieUiYfQys6Y9M4qgi67S6Z5SMy9CirxK5DgjK6Bwb" ] },
      { "delegate": "tz1fUyqYH7H4pRHN1roWY17giXhy1RvxjgUV",
        "reception_time": "2022-01-19T23:42:40.693-00:00",
        "included_in_blocks":
          [ "BMZahGgdv8ieUiYfQys6Y9M4qgi67S6Z5SMy9CirxK5DgjK6Bwb" ] },
      { "delegate": "tz1PeZx7FXy7QRuMREGXGxeipb24RsMMzUNe",
        "reception_time": "2022-01-19T23:42:40.693-00:00",
        "included_in_blocks":
          [ "BMZahGgdv8ieUiYfQys6Y9M4qgi67S6Z5SMy9CirxK5DgjK6Bwb" ] },
      { "delegate": "tz3RDC3Jdn4j15J7bBHZd29EUee9gVB1CxD9",
        "reception_time": "2022-01-19T23:42:40.777-00:00",
        "included_in_blocks":
          [ "BMZahGgdv8ieUiYfQys6Y9M4qgi67S6Z5SMy9CirxK5DgjK6Bwb" ] },
      { "delegate": "tz3NDpRj6WBrJPikcPVHRBEjWKxFw3c6eQPS",
        "reception_time": "2022-01-19T23:42:40.883-00:00",
        "included_in_blocks":
          [ "BMZahGgdv8ieUiYfQys6Y9M4qgi67S6Z5SMy9CirxK5DgjK6Bwb" ] },
      { "delegate": "tz3gLTu4Yxj8tPAcriQVUdxv6BY9QyvzU1az",
        "reception_time": "2022-01-19T23:42:41.012-00:00",
        "included_in_blocks":
          [ "BMZahGgdv8ieUiYfQys6Y9M4qgi67S6Z5SMy9CirxK5DgjK6Bwb" ] },
      { "delegate": "tz1TRqbYbUf2GyrjErf3hBzgBJPzW8y36qEs",
        "reception_time": "2022-01-19T23:42:41.206-00:00",
        "included_in_blocks":
          [ "BMZahGgdv8ieUiYfQys6Y9M4qgi67S6Z5SMy9CirxK5DgjK6Bwb" ] },
      { "delegate": "tz1ZcTRk5uxD86EFEn1vvNffWWqJy7q5eVhc",
        "reception_time": "2022-01-19T23:42:41.256-00:00",
        "included_in_blocks":
          [ "BMZahGgdv8ieUiYfQys6Y9M4qgi67S6Z5SMy9CirxK5DgjK6Bwb" ] },
      { "delegate": "tz1NSDFKuRyzHxpfG1AMkyCwEiZ52cbR2mRW",
        "reception_time": "2022-01-19T23:42:41.319-00:00",
        "included_in_blocks":
          [ "BMZahGgdv8ieUiYfQys6Y9M4qgi67S6Z5SMy9CirxK5DgjK6Bwb" ] },
      { "delegate": "tz1YhNsiRRU8aHNGg7NK3uuP6UDAyacJernB",
        "reception_time": "2022-01-19T23:42:41.357-00:00",
        "included_in_blocks":
          [ "BMZahGgdv8ieUiYfQys6Y9M4qgi67S6Z5SMy9CirxK5DgjK6Bwb" ] },
      { "delegate": "tz3UoffC7FG7zfpmvmjUmUeAaHvzdcUvAj6r",
        "reception_time": "2022-01-19T23:42:41.410-00:00",
        "included_in_blocks":
          [ "BMZahGgdv8ieUiYfQys6Y9M4qgi67S6Z5SMy9CirxK5DgjK6Bwb" ] },
      { "delegate": "tz3WMqdzXqRWXwyvj5Hp2H7QEepaUuS7vd9K",
        "reception_time": "2022-01-19T23:42:41.463-00:00",
        "included_in_blocks":
          [ "BMZahGgdv8ieUiYfQys6Y9M4qgi67S6Z5SMy9CirxK5DgjK6Bwb" ] },
      { "delegate": "tz1eVaNx3gCmG1EsLjijkmgAxdLYVf6Bf5Sq",
        "reception_time": "2022-01-19T23:42:41.961-00:00",
        "included_in_blocks":
          [ "BMZahGgdv8ieUiYfQys6Y9M4qgi67S6Z5SMy9CirxK5DgjK6Bwb" ] },
      { "delegate": "tz3bvNMQ95vfAYtG8193ymshqjSvmxiCUuR5",
        "reception_time": "2022-01-19T23:42:41.992-00:00",
        "included_in_blocks":
          [ "BMZahGgdv8ieUiYfQys6Y9M4qgi67S6Z5SMy9CirxK5DgjK6Bwb" ] },
      { "delegate": "tz3NExpXn9aPNZPorRE4SdjJ2RGrfbJgMAaV",
        "reception_time": "2022-01-19T23:42:42.018-00:00",
        "included_in_blocks":
          [ "BMZahGgdv8ieUiYfQys6Y9M4qgi67S6Z5SMy9CirxK5DgjK6Bwb" ] },
      { "delegate": "tz1g8vkmcde6sWKaG2NN9WKzCkDM6Rziq194",
        "reception_time": "2022-01-19T23:42:43.393-00:00",
        "included_in_blocks":
          [ "BMZahGgdv8ieUiYfQys6Y9M4qgi67S6Z5SMy9CirxK5DgjK6Bwb" ] },
      { "delegate": "tz1aRoaRhSpRYvFdyvgWLL6TGyRoGF51wDjM",
        "reception_time": "2022-01-19T23:42:44.078-00:00",
        "included_in_blocks":
          [ "BMZahGgdv8ieUiYfQys6Y9M4qgi67S6Z5SMy9CirxK5DgjK6Bwb" ] },
      { "delegate": "tz1S7GgVV4FPEGUVzepKBwx22DyNikdpa4X6",
        "reception_time": "2022-01-19T23:42:49.541-00:00",
        "included_in_blocks":
          [ "BMZahGgdv8ieUiYfQys6Y9M4qgi67S6Z5SMy9CirxK5DgjK6Bwb" ] },
      { "delegate": "tz1PFeoTuFen8jAMRHajBySNyCwLmY5RqF9M",
        "reception_time": "2022-01-19T23:42:49.632-00:00",
        "included_in_blocks":
          [ "BMZahGgdv8ieUiYfQys6Y9M4qgi67S6Z5SMy9CirxK5DgjK6Bwb" ] },
      { "delegate": "tz1dfg9PkvRLf7hKMmGdGRhXWCbd8QgbwBF7",
        "reception_time": "2022-01-19T23:42:49.824-00:00",
        "included_in_blocks":
          [ "BMZahGgdv8ieUiYfQys6Y9M4qgi67S6Z5SMy9CirxK5DgjK6Bwb" ] } ] }