{ "blocks":
    [ { "hash": "BMEo3ydzMc5FLPz5mcCNdojivK8XivMm99TPuTEu4c4v3vrdxu9",
        "delegate": "tz1S8MNvuFEUsWgjHvi3AxibRBf388NhT1q2",
        "reception_time": "2022-01-20T03:14:28.779-00:00",
        "timestamp": "2022-01-20T03:14:20Z" } ],
  "endorsements":
    [ { "delegate": "tz1VmiY38m3y95HqQLjMwqnMS7sdMfGomzKi",
        "reception_time": "2022-01-20T03:14:28.526-00:00",
        "errors":
          [ { "kind": "temporary",
              "id": "proto.011-PtHangz2.prefilter.outdated_endorsement" } ],
        "included_in_blocks":
          [ "BMGZHnzzthwVkiY5YjsJJatybhgLMcKdn2KSnQq8S36zBMcJgQq" ] },
      { "delegate": "tz1VQnqCCqX4K5sP3FNkVSNKTdCAMJDd3E1n",
        "reception_time": "2022-01-20T03:14:28.499-00:00",
        "errors":
          [ { "kind": "temporary",
              "id": "proto.011-PtHangz2.prefilter.outdated_endorsement" } ],
        "included_in_blocks":
          [ "BMGZHnzzthwVkiY5YjsJJatybhgLMcKdn2KSnQq8S36zBMcJgQq" ] },
      { "delegate": "tz1gUNyn3hmnEWqkusWPzxRaon1cs7ndWh7h",
        "reception_time": "2022-01-20T03:14:28.485-00:00",
        "errors":
          [ { "kind": "temporary",
              "id": "proto.011-PtHangz2.prefilter.outdated_endorsement" } ],
        "included_in_blocks":
          [ "BMGZHnzzthwVkiY5YjsJJatybhgLMcKdn2KSnQq8S36zBMcJgQq" ] },
      { "delegate": "tz1P2Po7YM526ughEsRbY4oR9zaUPDZjxFrb",
        "reception_time": "2022-01-20T03:14:28.482-00:00",
        "errors":
          [ { "kind": "temporary",
              "id": "proto.011-PtHangz2.prefilter.outdated_endorsement" } ],
        "included_in_blocks":
          [ "BMGZHnzzthwVkiY5YjsJJatybhgLMcKdn2KSnQq8S36zBMcJgQq" ] },
      { "delegate": "tz1Kt4P8BCaP93AEV4eA7gmpRryWt5hznjCP",
        "reception_time": "2022-01-20T03:14:28.470-00:00",
        "errors":
          [ { "kind": "temporary",
              "id": "proto.011-PtHangz2.prefilter.outdated_endorsement" } ],
        "included_in_blocks":
          [ "BMGZHnzzthwVkiY5YjsJJatybhgLMcKdn2KSnQq8S36zBMcJgQq" ] },
      { "delegate": "tz1Scdr2HsZiQjc7bHMeBbmDRXYVvdhjJbBh",
        "reception_time": "2022-01-20T03:14:28.172-00:00",
        "errors":
          [ { "kind": "temporary",
              "id": "proto.011-PtHangz2.prefilter.outdated_endorsement" } ],
        "included_in_blocks":
          [ "BMGZHnzzthwVkiY5YjsJJatybhgLMcKdn2KSnQq8S36zBMcJgQq" ] },
      { "delegate": "tz1S8e9GgdZG78XJRB3NqabfWeM37GnhZMWQ",
        "reception_time": "2022-01-20T03:14:27.679-00:00",
        "errors":
          [ { "kind": "temporary",
              "id": "proto.011-PtHangz2.prefilter.outdated_endorsement" } ],
        "included_in_blocks":
          [ "BMGZHnzzthwVkiY5YjsJJatybhgLMcKdn2KSnQq8S36zBMcJgQq" ] },
      { "delegate": "tz1dbfppLAAxXZNtf2SDps7rch3qfUznKSoK" },
      { "delegate": "tz1S8MNvuFEUsWgjHvi3AxibRBf388NhT1q2",
        "reception_time": "2022-01-20T03:14:30.439-00:00",
        "included_in_blocks":
          [ "BMGZHnzzthwVkiY5YjsJJatybhgLMcKdn2KSnQq8S36zBMcJgQq" ] },
      { "delegate": "tz1Lhf4J9Qxoe3DZ2nfe8FGDnvVj7oKjnMY6",
        "reception_time": "2022-01-20T03:14:30.442-00:00",
        "included_in_blocks":
          [ "BMGZHnzzthwVkiY5YjsJJatybhgLMcKdn2KSnQq8S36zBMcJgQq" ] },
      { "delegate": "tz1SYq214SCBy9naR6cvycQsYcUGpBqQAE8d",
        "reception_time": "2022-01-20T03:14:30.445-00:00",
        "included_in_blocks":
          [ "BMGZHnzzthwVkiY5YjsJJatybhgLMcKdn2KSnQq8S36zBMcJgQq" ] },
      { "delegate": "tz1irJKkXS2DBWkU1NnmFQx1c1L7pbGg4yhk",
        "reception_time": "2022-01-20T03:14:30.450-00:00",
        "included_in_blocks":
          [ "BMGZHnzzthwVkiY5YjsJJatybhgLMcKdn2KSnQq8S36zBMcJgQq" ] },
      { "delegate": "tz1Ldzz6k1BHdhuKvAtMRX7h5kJSMHESMHLC",
        "reception_time": "2022-01-20T03:14:30.454-00:00",
        "included_in_blocks":
          [ "BMGZHnzzthwVkiY5YjsJJatybhgLMcKdn2KSnQq8S36zBMcJgQq" ] },
      { "delegate": "tz3adcvQaKXTCg12zbninqo3q8ptKKtDFTLv",
        "reception_time": "2022-01-20T03:14:30.463-00:00",
        "included_in_blocks":
          [ "BMGZHnzzthwVkiY5YjsJJatybhgLMcKdn2KSnQq8S36zBMcJgQq" ] },
      { "delegate": "tz1cSj7fTex3JPd1p1LN1fwek6AV1kH93Wwc",
        "reception_time": "2022-01-20T03:14:30.465-00:00",
        "included_in_blocks":
          [ "BMGZHnzzthwVkiY5YjsJJatybhgLMcKdn2KSnQq8S36zBMcJgQq" ] },
      { "delegate": "tz1eEnQhbwf6trb8Q8mPb2RaPkNk2rN7BKi8",
        "reception_time": "2022-01-20T03:14:30.468-00:00",
        "included_in_blocks":
          [ "BMGZHnzzthwVkiY5YjsJJatybhgLMcKdn2KSnQq8S36zBMcJgQq" ] },
      { "delegate": "tz1Nf6tsK4G6bBqgSQERy4nUtkHNKUVdh7q1",
        "reception_time": "2022-01-20T03:14:30.469-00:00",
        "included_in_blocks":
          [ "BMGZHnzzthwVkiY5YjsJJatybhgLMcKdn2KSnQq8S36zBMcJgQq" ] },
      { "delegate": "tz3ZbP2pM3nwvXztbuMJwJnDvV5xdpU8UkkD",
        "reception_time": "2022-01-20T03:14:30.476-00:00",
        "included_in_blocks":
          [ "BMGZHnzzthwVkiY5YjsJJatybhgLMcKdn2KSnQq8S36zBMcJgQq" ] },
      { "delegate": "tz1TzaNn7wSQSP5gYPXCnNzBCpyMiidCq1PX",
        "reception_time": "2022-01-20T03:14:30.480-00:00",
        "included_in_blocks":
          [ "BMGZHnzzthwVkiY5YjsJJatybhgLMcKdn2KSnQq8S36zBMcJgQq" ] },
      { "delegate": "tz1aXD7Jigrt3PBYSpHSg5Rr33SexMmmM5Ys",
        "reception_time": "2022-01-20T03:14:30.480-00:00",
        "included_in_blocks":
          [ "BMGZHnzzthwVkiY5YjsJJatybhgLMcKdn2KSnQq8S36zBMcJgQq" ] },
      { "delegate": "tz3NxTnke1acr8o3h5y9ytf5awQBGNJUKzVU",
        "reception_time": "2022-01-20T03:14:30.487-00:00",
        "included_in_blocks":
          [ "BMGZHnzzthwVkiY5YjsJJatybhgLMcKdn2KSnQq8S36zBMcJgQq" ] },
      { "delegate": "tz1WCd2jm4uSt4vntk4vSuUWoZQGhLcDuR9q",
        "reception_time": "2022-01-20T03:14:30.491-00:00",
        "included_in_blocks":
          [ "BMGZHnzzthwVkiY5YjsJJatybhgLMcKdn2KSnQq8S36zBMcJgQq" ] },
      { "delegate": "tz1gfArv665EUkSg2ojMBzcbfwuPxAvqPvjo",
        "reception_time": "2022-01-20T03:14:30.491-00:00",
        "included_in_blocks":
          [ "BMGZHnzzthwVkiY5YjsJJatybhgLMcKdn2KSnQq8S36zBMcJgQq" ] },
      { "delegate": "tz1PWCDnz783NNGGQjEFFsHtrcK5yBW4E2rm",
        "reception_time": "2022-01-20T03:14:30.492-00:00",
        "included_in_blocks":
          [ "BMGZHnzzthwVkiY5YjsJJatybhgLMcKdn2KSnQq8S36zBMcJgQq" ] },
      { "delegate": "tz3hw2kqXhLUvY65ca1eety2oQTpAvd34R9Q",
        "reception_time": "2022-01-20T03:14:30.499-00:00",
        "included_in_blocks":
          [ "BMGZHnzzthwVkiY5YjsJJatybhgLMcKdn2KSnQq8S36zBMcJgQq" ] },
      { "delegate": "tz1ei4WtWEMEJekSv8qDnu9PExG6Q8HgRGr3",
        "reception_time": "2022-01-20T03:14:30.501-00:00",
        "included_in_blocks":
          [ "BMGZHnzzthwVkiY5YjsJJatybhgLMcKdn2KSnQq8S36zBMcJgQq" ] },
      { "delegate": "tz3Zhs2dygr55yHyQyKjntAtY9bgfhLZ4Xj1",
        "reception_time": "2022-01-20T03:14:30.507-00:00",
        "included_in_blocks":
          [ "BMGZHnzzthwVkiY5YjsJJatybhgLMcKdn2KSnQq8S36zBMcJgQq" ] },
      { "delegate": "tz3RKYFsLuQzKBtmYuLNas7uMu3AsYd4QdsA",
        "reception_time": "2022-01-20T03:14:30.513-00:00",
        "included_in_blocks":
          [ "BMGZHnzzthwVkiY5YjsJJatybhgLMcKdn2KSnQq8S36zBMcJgQq" ] },
      { "delegate": "tz1KfEsrtDaA1sX7vdM4qmEPWuSytuqCDp5j",
        "reception_time": "2022-01-20T03:14:30.566-00:00",
        "included_in_blocks":
          [ "BMGZHnzzthwVkiY5YjsJJatybhgLMcKdn2KSnQq8S36zBMcJgQq" ] },
      { "delegate": "tz1NEKxGEHsFufk87CVZcrqWu8o22qh46GK6",
        "reception_time": "2022-01-20T03:14:30.583-00:00",
        "included_in_blocks":
          [ "BMGZHnzzthwVkiY5YjsJJatybhgLMcKdn2KSnQq8S36zBMcJgQq" ] },
      { "delegate": "tz3gtoUxdudfBRcNY7iVdKPHCYYX6xdPpoRS",
        "reception_time": "2022-01-20T03:14:30.590-00:00",
        "included_in_blocks":
          [ "BMGZHnzzthwVkiY5YjsJJatybhgLMcKdn2KSnQq8S36zBMcJgQq" ] },
      { "delegate": "tz3QSGPoRp3Kn7n3vY24eYeu3Peuqo45LQ4D",
        "reception_time": "2022-01-20T03:14:30.596-00:00",
        "included_in_blocks":
          [ "BMGZHnzzthwVkiY5YjsJJatybhgLMcKdn2KSnQq8S36zBMcJgQq" ] },
      { "delegate": "tz1a51WYsAsoh4fs4A4x5aCN6Za26mpfDfTi",
        "reception_time": "2022-01-20T03:14:30.629-00:00",
        "included_in_blocks":
          [ "BMGZHnzzthwVkiY5YjsJJatybhgLMcKdn2KSnQq8S36zBMcJgQq" ] },
      { "delegate": "tz1UMCB2AHSTwG7YcGNr31CqYCtGN873royv",
        "reception_time": "2022-01-20T03:14:30.641-00:00",
        "included_in_blocks":
          [ "BMGZHnzzthwVkiY5YjsJJatybhgLMcKdn2KSnQq8S36zBMcJgQq" ] },
      { "delegate": "tz1RQhNh7iB9CZA7i3ifTWNwiGYVffponfbB",
        "reception_time": "2022-01-20T03:14:30.660-00:00",
        "included_in_blocks":
          [ "BMGZHnzzthwVkiY5YjsJJatybhgLMcKdn2KSnQq8S36zBMcJgQq" ] },
      { "delegate": "tz1hAYfexyzPGG6RhZZMpDvAHifubsbb6kgn",
        "reception_time": "2022-01-20T03:14:30.772-00:00",
        "included_in_blocks":
          [ "BMGZHnzzthwVkiY5YjsJJatybhgLMcKdn2KSnQq8S36zBMcJgQq" ] },
      { "delegate": "tz3QT9dHYKDqh563chVa6za8526ys1UKfRfL",
        "reception_time": "2022-01-20T03:14:30.791-00:00",
        "included_in_blocks":
          [ "BMGZHnzzthwVkiY5YjsJJatybhgLMcKdn2KSnQq8S36zBMcJgQq" ] },
      { "delegate": "tz3S6BBeKgJGXxvLyZ1xzXzMPn11nnFtq5L9",
        "reception_time": "2022-01-20T03:14:30.865-00:00",
        "included_in_blocks":
          [ "BMGZHnzzthwVkiY5YjsJJatybhgLMcKdn2KSnQq8S36zBMcJgQq" ] },
      { "delegate": "tz1Tnjaxk6tbAeC2TmMApPh8UsrEVQvhHvx5",
        "reception_time": "2022-01-20T03:14:30.954-00:00",
        "included_in_blocks":
          [ "BMGZHnzzthwVkiY5YjsJJatybhgLMcKdn2KSnQq8S36zBMcJgQq" ] },
      { "delegate": "tz1WctSwL49BZtdWAQ75NY6vr4xsAx6oKdah",
        "reception_time": "2022-01-20T03:14:31.014-00:00",
        "included_in_blocks":
          [ "BMGZHnzzthwVkiY5YjsJJatybhgLMcKdn2KSnQq8S36zBMcJgQq" ] },
      { "delegate": "tz1RCFbB9GpALpsZtu6J58sb74dm8qe6XBzv",
        "reception_time": "2022-01-20T03:14:31.036-00:00",
        "included_in_blocks":
          [ "BMGZHnzzthwVkiY5YjsJJatybhgLMcKdn2KSnQq8S36zBMcJgQq" ] },
      { "delegate": "tz1UJvHTgpVzcKWhTazGxVcn5wsHru5Gietg",
        "reception_time": "2022-01-20T03:14:31.086-00:00",
        "included_in_blocks":
          [ "BMGZHnzzthwVkiY5YjsJJatybhgLMcKdn2KSnQq8S36zBMcJgQq" ] },
      { "delegate": "tz3bTdwZinP8U1JmSweNzVKhmwafqWmFWRfk",
        "reception_time": "2022-01-20T03:14:31.264-00:00",
        "included_in_blocks":
          [ "BMGZHnzzthwVkiY5YjsJJatybhgLMcKdn2KSnQq8S36zBMcJgQq" ] },
      { "delegate": "tz2FCNBrERXtaTtNX6iimR1UJ5JSDxvdHM93",
        "reception_time": "2022-01-20T03:14:31.307-00:00",
        "included_in_blocks":
          [ "BMGZHnzzthwVkiY5YjsJJatybhgLMcKdn2KSnQq8S36zBMcJgQq" ] },
      { "delegate": "tz3bvNMQ95vfAYtG8193ymshqjSvmxiCUuR5",
        "reception_time": "2022-01-20T03:14:31.334-00:00",
        "included_in_blocks":
          [ "BMGZHnzzthwVkiY5YjsJJatybhgLMcKdn2KSnQq8S36zBMcJgQq" ] },
      { "delegate": "tz3RDC3Jdn4j15J7bBHZd29EUee9gVB1CxD9",
        "reception_time": "2022-01-20T03:14:31.463-00:00",
        "included_in_blocks":
          [ "BMGZHnzzthwVkiY5YjsJJatybhgLMcKdn2KSnQq8S36zBMcJgQq" ] },
      { "delegate": "tz1PeZx7FXy7QRuMREGXGxeipb24RsMMzUNe",
        "reception_time": "2022-01-20T03:14:31.572-00:00",
        "included_in_blocks":
          [ "BMGZHnzzthwVkiY5YjsJJatybhgLMcKdn2KSnQq8S36zBMcJgQq" ] },
      { "delegate": "tz1WnfXMPaNTBmH7DBPwqCWs9cPDJdkGBTZ8",
        "reception_time": "2022-01-20T03:14:31.693-00:00",
        "included_in_blocks":
          [ "BMGZHnzzthwVkiY5YjsJJatybhgLMcKdn2KSnQq8S36zBMcJgQq" ] },
      { "delegate": "tz3VEZ4k6a4Wx42iyev6i2aVAptTRLEAivNN",
        "reception_time": "2022-01-20T03:14:31.786-00:00",
        "included_in_blocks":
          [ "BMGZHnzzthwVkiY5YjsJJatybhgLMcKdn2KSnQq8S36zBMcJgQq" ] },
      { "delegate": "tz1Vd1rXpV8hTHbFXCXN3c3qzCsgcU5BZw1e",
        "reception_time": "2022-01-20T03:14:31.828-00:00",
        "included_in_blocks":
          [ "BMGZHnzzthwVkiY5YjsJJatybhgLMcKdn2KSnQq8S36zBMcJgQq" ] },
      { "delegate": "tz3WMqdzXqRWXwyvj5Hp2H7QEepaUuS7vd9K",
        "reception_time": "2022-01-20T03:14:31.845-00:00",
        "included_in_blocks":
          [ "BMGZHnzzthwVkiY5YjsJJatybhgLMcKdn2KSnQq8S36zBMcJgQq" ] },
      { "delegate": "tz1TRqbYbUf2GyrjErf3hBzgBJPzW8y36qEs",
        "reception_time": "2022-01-20T03:14:31.977-00:00",
        "included_in_blocks":
          [ "BMGZHnzzthwVkiY5YjsJJatybhgLMcKdn2KSnQq8S36zBMcJgQq" ] },
      { "delegate": "tz1cYufsxHXJcvANhvS55h3aY32a9BAFB494",
        "reception_time": "2022-01-20T03:14:32.129-00:00",
        "included_in_blocks":
          [ "BMGZHnzzthwVkiY5YjsJJatybhgLMcKdn2KSnQq8S36zBMcJgQq" ] },
      { "delegate": "tz3gLTu4Yxj8tPAcriQVUdxv6BY9QyvzU1az",
        "reception_time": "2022-01-20T03:14:32.229-00:00",
        "included_in_blocks":
          [ "BMGZHnzzthwVkiY5YjsJJatybhgLMcKdn2KSnQq8S36zBMcJgQq" ] },
      { "delegate": "tz3NDpRj6WBrJPikcPVHRBEjWKxFw3c6eQPS",
        "reception_time": "2022-01-20T03:14:32.264-00:00",
        "included_in_blocks":
          [ "BMGZHnzzthwVkiY5YjsJJatybhgLMcKdn2KSnQq8S36zBMcJgQq" ] },
      { "delegate": "tz3RB4aoyjov4KEVRbuhvQ1CKJgBJMWhaeB8",
        "reception_time": "2022-01-20T03:14:32.617-00:00",
        "included_in_blocks":
          [ "BMGZHnzzthwVkiY5YjsJJatybhgLMcKdn2KSnQq8S36zBMcJgQq" ] },
      { "delegate": "tz3NExpXn9aPNZPorRE4SdjJ2RGrfbJgMAaV",
        "reception_time": "2022-01-20T03:14:32.855-00:00",
        "included_in_blocks":
          [ "BMGZHnzzthwVkiY5YjsJJatybhgLMcKdn2KSnQq8S36zBMcJgQq" ] },
      { "delegate": "tz3UoffC7FG7zfpmvmjUmUeAaHvzdcUvAj6r",
        "reception_time": "2022-01-20T03:14:32.878-00:00",
        "included_in_blocks":
          [ "BMGZHnzzthwVkiY5YjsJJatybhgLMcKdn2KSnQq8S36zBMcJgQq" ] },
      { "delegate": "tz1abmz7jiCV2GH2u81LRrGgAFFgvQgiDiaf",
        "reception_time": "2022-01-20T03:14:33.427-00:00",
        "included_in_blocks":
          [ "BMGZHnzzthwVkiY5YjsJJatybhgLMcKdn2KSnQq8S36zBMcJgQq" ] },
      { "delegate": "tz1aRoaRhSpRYvFdyvgWLL6TGyRoGF51wDjM",
        "reception_time": "2022-01-20T03:14:34.608-00:00",
        "included_in_blocks":
          [ "BMGZHnzzthwVkiY5YjsJJatybhgLMcKdn2KSnQq8S36zBMcJgQq" ] },
      { "delegate": "tz1go7f6mEQfT2xX2LuHAqgnRGN6c2zHPf5c",
        "reception_time": "2022-01-20T03:14:43.275-00:00",
        "included_in_blocks":
          [ "BMGZHnzzthwVkiY5YjsJJatybhgLMcKdn2KSnQq8S36zBMcJgQq" ] } ] }