{ "blocks":
    [ { "hash": "BLukWKyzjBnWvxvybNUMzrCi4JSymcaxyAemgBuYVQhhNLVeq6d",
        "delegate": "tz1VQnqCCqX4K5sP3FNkVSNKTdCAMJDd3E1n",
        "reception_time": "2022-01-19T20:31:30.455-00:00",
        "timestamp": "2022-01-19T20:31:20Z" } ],
  "endorsements":
    [ { "delegate": "tz1TzaNn7wSQSP5gYPXCnNzBCpyMiidCq1PX",
        "reception_time": "2022-01-19T20:31:30.437-00:00",
        "errors":
          [ { "kind": "temporary",
              "id": "proto.011-PtHangz2.prefilter.outdated_endorsement" } ],
        "included_in_blocks":
          [ "BLPZtkBLRhwhJ85QoE58ZRfkZ9564nEeaYog9CZohGAp7kPv3X1" ] },
      { "delegate": "tz1STeamwbp68THcny9zk3LsbG3H36DMvbRK",
        "reception_time": "2022-01-19T20:31:30.414-00:00",
        "errors":
          [ { "kind": "temporary",
              "id": "proto.011-PtHangz2.prefilter.outdated_endorsement" } ],
        "included_in_blocks":
          [ "BLPZtkBLRhwhJ85QoE58ZRfkZ9564nEeaYog9CZohGAp7kPv3X1" ] },
      { "delegate": "tz1MXFrtZoaXckE41bjUCSjAjAap3AFDSr3N",
        "reception_time": "2022-01-19T20:31:30.299-00:00",
        "errors":
          [ { "kind": "temporary",
              "id": "proto.011-PtHangz2.prefilter.outdated_endorsement" } ],
        "included_in_blocks":
          [ "BLPZtkBLRhwhJ85QoE58ZRfkZ9564nEeaYog9CZohGAp7kPv3X1" ] },
      { "delegate": "tz1Lhf4J9Qxoe3DZ2nfe8FGDnvVj7oKjnMY6",
        "reception_time": "2022-01-19T20:31:30.261-00:00",
        "errors":
          [ { "kind": "temporary",
              "id": "proto.011-PtHangz2.prefilter.outdated_endorsement" } ],
        "included_in_blocks":
          [ "BLPZtkBLRhwhJ85QoE58ZRfkZ9564nEeaYog9CZohGAp7kPv3X1" ] },
      { "delegate": "tz1RV1MBbZMR68tacosb7Mwj6LkbPSUS1er1",
        "reception_time": "2022-01-19T20:31:30.246-00:00",
        "errors":
          [ { "kind": "temporary",
              "id": "proto.011-PtHangz2.prefilter.outdated_endorsement" } ],
        "included_in_blocks":
          [ "BLPZtkBLRhwhJ85QoE58ZRfkZ9564nEeaYog9CZohGAp7kPv3X1" ] },
      { "delegate": "tz1Kt4P8BCaP93AEV4eA7gmpRryWt5hznjCP",
        "reception_time": "2022-01-19T20:31:30.110-00:00",
        "errors":
          [ { "kind": "temporary",
              "id": "proto.011-PtHangz2.prefilter.outdated_endorsement" } ],
        "included_in_blocks":
          [ "BLPZtkBLRhwhJ85QoE58ZRfkZ9564nEeaYog9CZohGAp7kPv3X1" ] },
      { "delegate": "tz1hMUEDYTUFrsayTT2hTE13A6uJMXMbPQgx",
        "reception_time": "2022-01-19T20:31:30.095-00:00",
        "errors":
          [ { "kind": "temporary",
              "id": "proto.011-PtHangz2.prefilter.outdated_endorsement" } ],
        "included_in_blocks":
          [ "BLPZtkBLRhwhJ85QoE58ZRfkZ9564nEeaYog9CZohGAp7kPv3X1" ] },
      { "delegate": "tz1P2Po7YM526ughEsRbY4oR9zaUPDZjxFrb",
        "reception_time": "2022-01-19T20:31:29.841-00:00",
        "errors":
          [ { "kind": "temporary",
              "id": "proto.011-PtHangz2.prefilter.outdated_endorsement" } ],
        "included_in_blocks":
          [ "BLPZtkBLRhwhJ85QoE58ZRfkZ9564nEeaYog9CZohGAp7kPv3X1" ] },
      { "delegate": "tz1Ldzz6k1BHdhuKvAtMRX7h5kJSMHESMHLC",
        "reception_time": "2022-01-19T20:31:29.628-00:00",
        "errors":
          [ { "kind": "temporary",
              "id": "proto.011-PtHangz2.prefilter.outdated_endorsement" } ],
        "included_in_blocks":
          [ "BLPZtkBLRhwhJ85QoE58ZRfkZ9564nEeaYog9CZohGAp7kPv3X1" ] },
      { "delegate": "tz1iZEKy4LaAjnTmn2RuGDf2iqdAQKnRi8kY",
        "reception_time": "2022-01-19T20:31:29.627-00:00",
        "errors":
          [ { "kind": "temporary",
              "id": "proto.011-PtHangz2.prefilter.outdated_endorsement" } ],
        "included_in_blocks":
          [ "BLPZtkBLRhwhJ85QoE58ZRfkZ9564nEeaYog9CZohGAp7kPv3X1" ] },
      { "delegate": "tz1cSj7fTex3JPd1p1LN1fwek6AV1kH93Wwc",
        "reception_time": "2022-01-19T20:31:29.613-00:00",
        "errors":
          [ { "kind": "temporary",
              "id": "proto.011-PtHangz2.prefilter.outdated_endorsement" } ],
        "included_in_blocks":
          [ "BLPZtkBLRhwhJ85QoE58ZRfkZ9564nEeaYog9CZohGAp7kPv3X1" ] },
      { "delegate": "tz1XfAjZyaLdceHnZxbMYop7g7kWKPut4PR7",
        "reception_time": "2022-01-19T20:31:29.410-00:00",
        "errors":
          [ { "kind": "temporary",
              "id": "proto.011-PtHangz2.prefilter.outdated_endorsement" } ],
        "included_in_blocks":
          [ "BLPZtkBLRhwhJ85QoE58ZRfkZ9564nEeaYog9CZohGAp7kPv3X1" ] },
      { "delegate": "tz1Scdr2HsZiQjc7bHMeBbmDRXYVvdhjJbBh",
        "reception_time": "2022-01-19T20:31:29.396-00:00",
        "errors":
          [ { "kind": "temporary",
              "id": "proto.011-PtHangz2.prefilter.outdated_endorsement" } ],
        "included_in_blocks":
          [ "BLPZtkBLRhwhJ85QoE58ZRfkZ9564nEeaYog9CZohGAp7kPv3X1" ] },
      { "delegate": "tz1VmiY38m3y95HqQLjMwqnMS7sdMfGomzKi",
        "reception_time": "2022-01-19T20:31:29.296-00:00",
        "errors":
          [ { "kind": "temporary",
              "id": "proto.011-PtHangz2.prefilter.outdated_endorsement" } ],
        "included_in_blocks":
          [ "BLPZtkBLRhwhJ85QoE58ZRfkZ9564nEeaYog9CZohGAp7kPv3X1" ] },
      { "delegate": "tz1gUNyn3hmnEWqkusWPzxRaon1cs7ndWh7h",
        "reception_time": "2022-01-19T20:31:28.532-00:00",
        "errors":
          [ { "kind": "temporary",
              "id": "proto.011-PtHangz2.prefilter.outdated_endorsement" } ],
        "included_in_blocks":
          [ "BLPZtkBLRhwhJ85QoE58ZRfkZ9564nEeaYog9CZohGAp7kPv3X1" ] },
      { "delegate": "tz1VQnqCCqX4K5sP3FNkVSNKTdCAMJDd3E1n",
        "reception_time": "2022-01-19T20:31:28.503-00:00",
        "errors":
          [ { "kind": "temporary",
              "id": "proto.011-PtHangz2.prefilter.outdated_endorsement" } ],
        "included_in_blocks":
          [ "BLPZtkBLRhwhJ85QoE58ZRfkZ9564nEeaYog9CZohGAp7kPv3X1" ] },
      { "delegate": "tz1NpWrAyDL9k2Lmnyxcgr9xuJakbBxdq7FB" },
      { "delegate": "tz1P6WKJu2rcbxKiKRZHKQKmKrpC9TfW1AwM" },
      { "delegate": "tz1TeWzSWBNZ7PB6Kb6xUpGCT7pu13PFv3cv" },
      { "delegate": "tz1W5VkdB5s7ENMESVBtwyt9kyvLqPcUczRT" },
      { "delegate": "tz1aehDcppdSz7Af2PtXvNQtqpeMfvFFYFHf" },
      { "delegate": "tz3QSGPoRp3Kn7n3vY24eYeu3Peuqo45LQ4D",
        "reception_time": "2022-01-19T20:31:34.691-00:00",
        "included_in_blocks":
          [ "BLPZtkBLRhwhJ85QoE58ZRfkZ9564nEeaYog9CZohGAp7kPv3X1" ] },
      { "delegate": "tz1dNVDWPf3Q59SdJqnjdnu277iyvReiRS9M",
        "reception_time": "2022-01-19T20:31:34.691-00:00",
        "included_in_blocks":
          [ "BLPZtkBLRhwhJ85QoE58ZRfkZ9564nEeaYog9CZohGAp7kPv3X1" ] },
      { "delegate": "tz1ei4WtWEMEJekSv8qDnu9PExG6Q8HgRGr3",
        "reception_time": "2022-01-19T20:31:34.691-00:00",
        "included_in_blocks":
          [ "BLPZtkBLRhwhJ85QoE58ZRfkZ9564nEeaYog9CZohGAp7kPv3X1" ] },
      { "delegate": "tz1ZPh7XfUaJXUDvkrBxmS1BjEM1i62hiPpM",
        "reception_time": "2022-01-19T20:31:34.691-00:00",
        "included_in_blocks":
          [ "BLPZtkBLRhwhJ85QoE58ZRfkZ9564nEeaYog9CZohGAp7kPv3X1" ] },
      { "delegate": "tz1PWCDnz783NNGGQjEFFsHtrcK5yBW4E2rm",
        "reception_time": "2022-01-19T20:31:34.691-00:00",
        "included_in_blocks":
          [ "BLPZtkBLRhwhJ85QoE58ZRfkZ9564nEeaYog9CZohGAp7kPv3X1" ] },
      { "delegate": "tz1eEnQhbwf6trb8Q8mPb2RaPkNk2rN7BKi8",
        "reception_time": "2022-01-19T20:31:34.691-00:00",
        "included_in_blocks":
          [ "BLPZtkBLRhwhJ85QoE58ZRfkZ9564nEeaYog9CZohGAp7kPv3X1" ] },
      { "delegate": "tz1WCd2jm4uSt4vntk4vSuUWoZQGhLcDuR9q",
        "reception_time": "2022-01-19T20:31:34.691-00:00",
        "included_in_blocks":
          [ "BLPZtkBLRhwhJ85QoE58ZRfkZ9564nEeaYog9CZohGAp7kPv3X1" ] },
      { "delegate": "tz3NxTnke1acr8o3h5y9ytf5awQBGNJUKzVU",
        "reception_time": "2022-01-19T20:31:34.854-00:00",
        "included_in_blocks":
          [ "BLPZtkBLRhwhJ85QoE58ZRfkZ9564nEeaYog9CZohGAp7kPv3X1" ] },
      { "delegate": "tz3ZbP2pM3nwvXztbuMJwJnDvV5xdpU8UkkD",
        "reception_time": "2022-01-19T20:31:34.854-00:00",
        "included_in_blocks":
          [ "BLPZtkBLRhwhJ85QoE58ZRfkZ9564nEeaYog9CZohGAp7kPv3X1" ] },
      { "delegate": "tz1TEc75UKXv4W5cwi14Na3NtqFD51yKQi7h",
        "reception_time": "2022-01-19T20:31:34.854-00:00",
        "included_in_blocks":
          [ "BLPZtkBLRhwhJ85QoE58ZRfkZ9564nEeaYog9CZohGAp7kPv3X1" ] },
      { "delegate": "tz1NEKxGEHsFufk87CVZcrqWu8o22qh46GK6",
        "reception_time": "2022-01-19T20:31:34.854-00:00",
        "included_in_blocks":
          [ "BLPZtkBLRhwhJ85QoE58ZRfkZ9564nEeaYog9CZohGAp7kPv3X1" ] },
      { "delegate": "tz1MGTFJXpQmtxLi8QJ7AuVRgM2L2Qfn9w9i",
        "reception_time": "2022-01-19T20:31:34.854-00:00",
        "included_in_blocks":
          [ "BLPZtkBLRhwhJ85QoE58ZRfkZ9564nEeaYog9CZohGAp7kPv3X1" ] },
      { "delegate": "tz1T7duV5gZWSTq4YpBGbXNLTfznCLDrFxvs",
        "reception_time": "2022-01-19T20:31:34.854-00:00",
        "included_in_blocks":
          [ "BLPZtkBLRhwhJ85QoE58ZRfkZ9564nEeaYog9CZohGAp7kPv3X1" ] },
      { "delegate": "tz3QT9dHYKDqh563chVa6za8526ys1UKfRfL",
        "reception_time": "2022-01-19T20:31:34.854-00:00",
        "included_in_blocks":
          [ "BLPZtkBLRhwhJ85QoE58ZRfkZ9564nEeaYog9CZohGAp7kPv3X1" ] },
      { "delegate": "tz1Sm5iH2vfTtyPQdRHt4STaARTVqTHxJ6Ea",
        "reception_time": "2022-01-19T20:31:34.854-00:00",
        "included_in_blocks":
          [ "BLPZtkBLRhwhJ85QoE58ZRfkZ9564nEeaYog9CZohGAp7kPv3X1" ] },
      { "delegate": "tz1KfEsrtDaA1sX7vdM4qmEPWuSytuqCDp5j",
        "reception_time": "2022-01-19T20:31:34.854-00:00",
        "included_in_blocks":
          [ "BLPZtkBLRhwhJ85QoE58ZRfkZ9564nEeaYog9CZohGAp7kPv3X1" ] },
      { "delegate": "tz3bTdwZinP8U1JmSweNzVKhmwafqWmFWRfk",
        "reception_time": "2022-01-19T20:31:34.854-00:00",
        "included_in_blocks":
          [ "BLPZtkBLRhwhJ85QoE58ZRfkZ9564nEeaYog9CZohGAp7kPv3X1" ] },
      { "delegate": "tz3QCNyySViKHmeSr45kzDxzchys7NiXCWoa",
        "reception_time": "2022-01-19T20:31:34.854-00:00",
        "included_in_blocks":
          [ "BLPZtkBLRhwhJ85QoE58ZRfkZ9564nEeaYog9CZohGAp7kPv3X1" ] },
      { "delegate": "tz3RKYFsLuQzKBtmYuLNas7uMu3AsYd4QdsA",
        "reception_time": "2022-01-19T20:31:34.854-00:00",
        "included_in_blocks":
          [ "BLPZtkBLRhwhJ85QoE58ZRfkZ9564nEeaYog9CZohGAp7kPv3X1" ] },
      { "delegate": "tz1irJKkXS2DBWkU1NnmFQx1c1L7pbGg4yhk",
        "reception_time": "2022-01-19T20:31:34.854-00:00",
        "included_in_blocks":
          [ "BLPZtkBLRhwhJ85QoE58ZRfkZ9564nEeaYog9CZohGAp7kPv3X1" ] },
      { "delegate": "tz1dRKU4FQ9QRRQPdaH4zCR6gmCmXfcvcgtB",
        "reception_time": "2022-01-19T20:31:34.854-00:00",
        "included_in_blocks":
          [ "BLPZtkBLRhwhJ85QoE58ZRfkZ9564nEeaYog9CZohGAp7kPv3X1" ] },
      { "delegate": "tz3gtoUxdudfBRcNY7iVdKPHCYYX6xdPpoRS",
        "reception_time": "2022-01-19T20:31:34.854-00:00",
        "included_in_blocks":
          [ "BLPZtkBLRhwhJ85QoE58ZRfkZ9564nEeaYog9CZohGAp7kPv3X1" ] },
      { "delegate": "tz1beersuEDv8Z7ngQ825xfbaJNS2EhXnyHR",
        "reception_time": "2022-01-19T20:31:34.854-00:00",
        "included_in_blocks":
          [ "BLPZtkBLRhwhJ85QoE58ZRfkZ9564nEeaYog9CZohGAp7kPv3X1" ] },
      { "delegate": "tz1WBfwbT66FC6BTLexc2BoyCCBM9LG7pnVW",
        "reception_time": "2022-01-19T20:31:34.854-00:00",
        "included_in_blocks":
          [ "BLPZtkBLRhwhJ85QoE58ZRfkZ9564nEeaYog9CZohGAp7kPv3X1" ] },
      { "delegate": "tz3Zhs2dygr55yHyQyKjntAtY9bgfhLZ4Xj1",
        "reception_time": "2022-01-19T20:31:34.854-00:00",
        "included_in_blocks":
          [ "BLPZtkBLRhwhJ85QoE58ZRfkZ9564nEeaYog9CZohGAp7kPv3X1" ] },
      { "delegate": "tz1Nf6tsK4G6bBqgSQERy4nUtkHNKUVdh7q1",
        "reception_time": "2022-01-19T20:31:34.982-00:00",
        "included_in_blocks":
          [ "BLPZtkBLRhwhJ85QoE58ZRfkZ9564nEeaYog9CZohGAp7kPv3X1" ] },
      { "delegate": "tz1UJvHTgpVzcKWhTazGxVcn5wsHru5Gietg",
        "reception_time": "2022-01-19T20:31:34.982-00:00",
        "included_in_blocks":
          [ "BLPZtkBLRhwhJ85QoE58ZRfkZ9564nEeaYog9CZohGAp7kPv3X1" ] },
      { "delegate": "tz1fPKAtsYydh4f1wfWNfeNxWYu72TmM48fu",
        "reception_time": "2022-01-19T20:31:34.982-00:00",
        "included_in_blocks":
          [ "BLPZtkBLRhwhJ85QoE58ZRfkZ9564nEeaYog9CZohGAp7kPv3X1" ] },
      { "delegate": "tz1TRspM5SeZpaQUhzByXbEvqKF1vnCM2YTK",
        "reception_time": "2022-01-19T20:31:34.982-00:00",
        "included_in_blocks":
          [ "BLPZtkBLRhwhJ85QoE58ZRfkZ9564nEeaYog9CZohGAp7kPv3X1" ] },
      { "delegate": "tz3S6BBeKgJGXxvLyZ1xzXzMPn11nnFtq5L9",
        "reception_time": "2022-01-19T20:31:34.982-00:00",
        "included_in_blocks":
          [ "BLPZtkBLRhwhJ85QoE58ZRfkZ9564nEeaYog9CZohGAp7kPv3X1" ] },
      { "delegate": "tz1SYq214SCBy9naR6cvycQsYcUGpBqQAE8d",
        "reception_time": "2022-01-19T20:31:34.982-00:00",
        "included_in_blocks":
          [ "BLPZtkBLRhwhJ85QoE58ZRfkZ9564nEeaYog9CZohGAp7kPv3X1" ] },
      { "delegate": "tz3iJu5vrKZcsqRPs8yJ61UDoeEXZmtro4qh",
        "reception_time": "2022-01-19T20:31:34.982-00:00",
        "included_in_blocks":
          [ "BLPZtkBLRhwhJ85QoE58ZRfkZ9564nEeaYog9CZohGAp7kPv3X1" ] },
      { "delegate": "tz3RB4aoyjov4KEVRbuhvQ1CKJgBJMWhaeB8",
        "reception_time": "2022-01-19T20:31:34.982-00:00",
        "included_in_blocks":
          [ "BLPZtkBLRhwhJ85QoE58ZRfkZ9564nEeaYog9CZohGAp7kPv3X1" ] },
      { "delegate": "tz1LmaFsWRkjr7QMCx5PtV6xTUz3AmEpKQiF",
        "reception_time": "2022-01-19T20:31:34.982-00:00",
        "included_in_blocks":
          [ "BLPZtkBLRhwhJ85QoE58ZRfkZ9564nEeaYog9CZohGAp7kPv3X1" ] },
      { "delegate": "tz1RjoHc98dBoqaH2jawF62XNKh7YsHwbkEv",
        "reception_time": "2022-01-19T20:31:34.982-00:00",
        "included_in_blocks":
          [ "BLPZtkBLRhwhJ85QoE58ZRfkZ9564nEeaYog9CZohGAp7kPv3X1" ] },
      { "delegate": "tz2FCNBrERXtaTtNX6iimR1UJ5JSDxvdHM93",
        "reception_time": "2022-01-19T20:31:34.982-00:00",
        "included_in_blocks":
          [ "BLPZtkBLRhwhJ85QoE58ZRfkZ9564nEeaYog9CZohGAp7kPv3X1" ] },
      { "delegate": "tz3hw2kqXhLUvY65ca1eety2oQTpAvd34R9Q",
        "reception_time": "2022-01-19T20:31:34.982-00:00",
        "included_in_blocks":
          [ "BLPZtkBLRhwhJ85QoE58ZRfkZ9564nEeaYog9CZohGAp7kPv3X1" ] },
      { "delegate": "tz3gLTu4Yxj8tPAcriQVUdxv6BY9QyvzU1az",
        "reception_time": "2022-01-19T20:31:34.982-00:00",
        "included_in_blocks":
          [ "BLPZtkBLRhwhJ85QoE58ZRfkZ9564nEeaYog9CZohGAp7kPv3X1" ] },
      { "delegate": "tz3NDpRj6WBrJPikcPVHRBEjWKxFw3c6eQPS",
        "reception_time": "2022-01-19T20:31:34.982-00:00",
        "included_in_blocks":
          [ "BLPZtkBLRhwhJ85QoE58ZRfkZ9564nEeaYog9CZohGAp7kPv3X1" ] },
      { "delegate": "tz1a3T5mRR1XWM1JgydvAqxEwpNs7ktVZuXc",
        "reception_time": "2022-01-19T20:31:34.982-00:00",
        "included_in_blocks":
          [ "BLPZtkBLRhwhJ85QoE58ZRfkZ9564nEeaYog9CZohGAp7kPv3X1" ] },
      { "delegate": "tz1RCFbB9GpALpsZtu6J58sb74dm8qe6XBzv",
        "reception_time": "2022-01-19T20:31:34.982-00:00",
        "included_in_blocks":
          [ "BLPZtkBLRhwhJ85QoE58ZRfkZ9564nEeaYog9CZohGAp7kPv3X1" ] },
      { "delegate": "tz3RDC3Jdn4j15J7bBHZd29EUee9gVB1CxD9",
        "reception_time": "2022-01-19T20:31:34.982-00:00",
        "included_in_blocks":
          [ "BLPZtkBLRhwhJ85QoE58ZRfkZ9564nEeaYog9CZohGAp7kPv3X1" ] },
      { "delegate": "tz3WMqdzXqRWXwyvj5Hp2H7QEepaUuS7vd9K",
        "reception_time": "2022-01-19T20:31:35.205-00:00",
        "included_in_blocks":
          [ "BLPZtkBLRhwhJ85QoE58ZRfkZ9564nEeaYog9CZohGAp7kPv3X1" ] },
      { "delegate": "tz1YhNsiRRU8aHNGg7NK3uuP6UDAyacJernB",
        "reception_time": "2022-01-19T20:31:35.205-00:00",
        "included_in_blocks":
          [ "BLPZtkBLRhwhJ85QoE58ZRfkZ9564nEeaYog9CZohGAp7kPv3X1" ] },
      { "delegate": "tz3UoffC7FG7zfpmvmjUmUeAaHvzdcUvAj6r",
        "reception_time": "2022-01-19T20:31:35.277-00:00",
        "included_in_blocks":
          [ "BLPZtkBLRhwhJ85QoE58ZRfkZ9564nEeaYog9CZohGAp7kPv3X1" ] },
      { "delegate": "tz3VEZ4k6a4Wx42iyev6i2aVAptTRLEAivNN",
        "reception_time": "2022-01-19T20:31:35.350-00:00",
        "included_in_blocks":
          [ "BLPZtkBLRhwhJ85QoE58ZRfkZ9564nEeaYog9CZohGAp7kPv3X1" ] },
      { "delegate": "tz3bvNMQ95vfAYtG8193ymshqjSvmxiCUuR5",
        "reception_time": "2022-01-19T20:31:36.321-00:00",
        "included_in_blocks":
          [ "BLPZtkBLRhwhJ85QoE58ZRfkZ9564nEeaYog9CZohGAp7kPv3X1" ] },
      { "delegate": "tz3NExpXn9aPNZPorRE4SdjJ2RGrfbJgMAaV",
        "reception_time": "2022-01-19T20:31:36.350-00:00",
        "included_in_blocks":
          [ "BLPZtkBLRhwhJ85QoE58ZRfkZ9564nEeaYog9CZohGAp7kPv3X1" ] },
      { "delegate": "tz1TwVimQy3BywXoSszdFXjT9bSTQrsZYo2u",
        "reception_time": "2022-01-19T20:31:36.361-00:00",
        "included_in_blocks":
          [ "BLPZtkBLRhwhJ85QoE58ZRfkZ9564nEeaYog9CZohGAp7kPv3X1" ] },
      { "delegate": "tz1bTpviNnyx2PXsNmGpCQTMQsGoYordkUoA",
        "reception_time": "2022-01-19T20:31:36.611-00:00",
        "included_in_blocks":
          [ "BLPZtkBLRhwhJ85QoE58ZRfkZ9564nEeaYog9CZohGAp7kPv3X1" ] },
      { "delegate": "tz1gfArv665EUkSg2ojMBzcbfwuPxAvqPvjo",
        "reception_time": "2022-01-19T20:31:37.287-00:00",
        "included_in_blocks":
          [ "BLPZtkBLRhwhJ85QoE58ZRfkZ9564nEeaYog9CZohGAp7kPv3X1" ] },
      { "delegate": "tz1TcH4Nb3aHNDJ7CGZhU7jgAK1BkSP4Lxds",
        "reception_time": "2022-01-19T20:31:37.302-00:00",
        "included_in_blocks":
          [ "BLPZtkBLRhwhJ85QoE58ZRfkZ9564nEeaYog9CZohGAp7kPv3X1" ] },
      { "delegate": "tz1NL14EZjUmY9eEdk1ejyACEaTuwVGVKEeU",
        "reception_time": "2022-01-19T20:31:37.499-00:00",
        "included_in_blocks":
          [ "BLPZtkBLRhwhJ85QoE58ZRfkZ9564nEeaYog9CZohGAp7kPv3X1" ] },
      { "delegate": "tz1WnfXMPaNTBmH7DBPwqCWs9cPDJdkGBTZ8",
        "reception_time": "2022-01-19T20:31:37.823-00:00",
        "included_in_blocks":
          [ "BLPZtkBLRhwhJ85QoE58ZRfkZ9564nEeaYog9CZohGAp7kPv3X1" ] },
      { "delegate": "tz1QJU1PuKUP5ZQxUr4pHZjCHGRvJSpcXv7G",
        "reception_time": "2022-01-19T20:31:39.562-00:00",
        "included_in_blocks":
          [ "BLPZtkBLRhwhJ85QoE58ZRfkZ9564nEeaYog9CZohGAp7kPv3X1" ] },
      { "delegate": "tz1abmz7jiCV2GH2u81LRrGgAFFgvQgiDiaf",
        "reception_time": "2022-01-19T20:31:39.610-00:00",
        "included_in_blocks":
          [ "BLPZtkBLRhwhJ85QoE58ZRfkZ9564nEeaYog9CZohGAp7kPv3X1" ] },
      { "delegate": "tz1Y42aKCk53vMbaJNpf1hBg1rznGdBxHJ5C",
        "reception_time": "2022-01-19T20:31:41.956-00:00",
        "included_in_blocks":
          [ "BLPZtkBLRhwhJ85QoE58ZRfkZ9564nEeaYog9CZohGAp7kPv3X1" ] },
      { "delegate": "tz1aRoaRhSpRYvFdyvgWLL6TGyRoGF51wDjM",
        "reception_time": "2022-01-19T20:31:43.377-00:00",
        "included_in_blocks":
          [ "BLPZtkBLRhwhJ85QoE58ZRfkZ9564nEeaYog9CZohGAp7kPv3X1" ] },
      { "delegate": "tz1S8MNvuFEUsWgjHvi3AxibRBf388NhT1q2",
        "reception_time": "2022-01-19T20:31:47.800-00:00",
        "included_in_blocks":
          [ "BLPZtkBLRhwhJ85QoE58ZRfkZ9564nEeaYog9CZohGAp7kPv3X1" ] } ] }