{ "blocks":
    [ { "hash": "BLJADkJ38rHaFLxhFwLZZ2TSWeme9yBrdBsFKPqzxF5zidiG2N7",
        "delegate": "tz3gtoUxdudfBRcNY7iVdKPHCYYX6xdPpoRS",
        "reception_time": "2022-01-20T00:05:19.920-00:00",
        "timestamp": "2022-01-20T00:05:10Z" } ],
  "endorsements":
    [ { "delegate": "tz3NxTnke1acr8o3h5y9ytf5awQBGNJUKzVU",
        "reception_time": "2022-01-20T00:05:19.921-00:00",
        "errors":
          [ { "kind": "temporary",
              "id": "proto.011-PtHangz2.prefilter.outdated_endorsement" } ],
        "included_in_blocks":
          [ "BMbdG4mAJLZYv5EzXUWm9n9Fnnp7N9Ko8M5NTPDsEKDG9w9iygg" ] },
      { "delegate": "tz3ZbP2pM3nwvXztbuMJwJnDvV5xdpU8UkkD",
        "reception_time": "2022-01-20T00:05:19.862-00:00",
        "errors":
          [ { "kind": "temporary",
              "id": "proto.011-PtHangz2.prefilter.outdated_endorsement" } ],
        "included_in_blocks":
          [ "BMbdG4mAJLZYv5EzXUWm9n9Fnnp7N9Ko8M5NTPDsEKDG9w9iygg" ] },
      { "delegate": "tz3gtoUxdudfBRcNY7iVdKPHCYYX6xdPpoRS",
        "reception_time": "2022-01-20T00:05:19.828-00:00",
        "errors":
          [ { "kind": "temporary",
              "id": "proto.011-PtHangz2.prefilter.outdated_endorsement" } ],
        "included_in_blocks":
          [ "BMbdG4mAJLZYv5EzXUWm9n9Fnnp7N9Ko8M5NTPDsEKDG9w9iygg" ] },
      { "delegate": "tz3QSGPoRp3Kn7n3vY24eYeu3Peuqo45LQ4D",
        "reception_time": "2022-01-20T00:05:19.777-00:00",
        "errors":
          [ { "kind": "temporary",
              "id": "proto.011-PtHangz2.prefilter.outdated_endorsement" } ],
        "included_in_blocks":
          [ "BMbdG4mAJLZYv5EzXUWm9n9Fnnp7N9Ko8M5NTPDsEKDG9w9iygg" ] },
      { "delegate": "tz1beersuEDv8Z7ngQ825xfbaJNS2EhXnyHR",
        "reception_time": "2022-01-20T00:05:19.668-00:00",
        "errors":
          [ { "kind": "temporary",
              "id": "proto.011-PtHangz2.prefilter.outdated_endorsement" } ],
        "included_in_blocks":
          [ "BMbdG4mAJLZYv5EzXUWm9n9Fnnp7N9Ko8M5NTPDsEKDG9w9iygg" ] },
      { "delegate": "tz1Ldzz6k1BHdhuKvAtMRX7h5kJSMHESMHLC",
        "reception_time": "2022-01-20T00:05:19.630-00:00",
        "errors":
          [ { "kind": "temporary",
              "id": "proto.011-PtHangz2.prefilter.outdated_endorsement" } ],
        "included_in_blocks":
          [ "BMbdG4mAJLZYv5EzXUWm9n9Fnnp7N9Ko8M5NTPDsEKDG9w9iygg" ] },
      { "delegate": "tz1irJKkXS2DBWkU1NnmFQx1c1L7pbGg4yhk",
        "reception_time": "2022-01-20T00:05:19.627-00:00",
        "errors":
          [ { "kind": "temporary",
              "id": "proto.011-PtHangz2.prefilter.outdated_endorsement" } ],
        "included_in_blocks":
          [ "BMbdG4mAJLZYv5EzXUWm9n9Fnnp7N9Ko8M5NTPDsEKDG9w9iygg" ] },
      { "delegate": "tz1eEnQhbwf6trb8Q8mPb2RaPkNk2rN7BKi8",
        "reception_time": "2022-01-20T00:05:19.556-00:00",
        "errors":
          [ { "kind": "temporary",
              "id": "proto.011-PtHangz2.prefilter.outdated_endorsement" } ],
        "included_in_blocks":
          [ "BMbdG4mAJLZYv5EzXUWm9n9Fnnp7N9Ko8M5NTPDsEKDG9w9iygg" ] },
      { "delegate": "tz1TzaNn7wSQSP5gYPXCnNzBCpyMiidCq1PX",
        "reception_time": "2022-01-20T00:05:19.526-00:00",
        "errors":
          [ { "kind": "temporary",
              "id": "proto.011-PtHangz2.prefilter.outdated_endorsement" } ],
        "included_in_blocks":
          [ "BMbdG4mAJLZYv5EzXUWm9n9Fnnp7N9Ko8M5NTPDsEKDG9w9iygg" ] },
      { "delegate": "tz1VmiY38m3y95HqQLjMwqnMS7sdMfGomzKi",
        "reception_time": "2022-01-20T00:05:19.518-00:00",
        "errors":
          [ { "kind": "temporary",
              "id": "proto.011-PtHangz2.prefilter.outdated_endorsement" } ],
        "included_in_blocks":
          [ "BMbdG4mAJLZYv5EzXUWm9n9Fnnp7N9Ko8M5NTPDsEKDG9w9iygg" ] },
      { "delegate": "tz1VQnqCCqX4K5sP3FNkVSNKTdCAMJDd3E1n",
        "reception_time": "2022-01-20T00:05:19.464-00:00",
        "errors":
          [ { "kind": "temporary",
              "id": "proto.011-PtHangz2.prefilter.outdated_endorsement" } ],
        "included_in_blocks":
          [ "BMbdG4mAJLZYv5EzXUWm9n9Fnnp7N9Ko8M5NTPDsEKDG9w9iygg" ] },
      { "delegate": "tz1gUNyn3hmnEWqkusWPzxRaon1cs7ndWh7h",
        "reception_time": "2022-01-20T00:05:19.456-00:00",
        "errors":
          [ { "kind": "temporary",
              "id": "proto.011-PtHangz2.prefilter.outdated_endorsement" } ],
        "included_in_blocks":
          [ "BMbdG4mAJLZYv5EzXUWm9n9Fnnp7N9Ko8M5NTPDsEKDG9w9iygg" ] },
      { "delegate": "tz1TXzyaKUA8wsWefdSnyaYFnV2M3vCV7er9",
        "reception_time": "2022-01-20T00:05:19.281-00:00",
        "errors":
          [ { "kind": "temporary",
              "id": "proto.011-PtHangz2.prefilter.outdated_endorsement" } ],
        "included_in_blocks":
          [ "BMbdG4mAJLZYv5EzXUWm9n9Fnnp7N9Ko8M5NTPDsEKDG9w9iygg" ] },
      { "delegate": "tz1Scdr2HsZiQjc7bHMeBbmDRXYVvdhjJbBh",
        "reception_time": "2022-01-20T00:05:18.917-00:00",
        "errors":
          [ { "kind": "temporary",
              "id": "proto.011-PtHangz2.prefilter.outdated_endorsement" } ],
        "included_in_blocks":
          [ "BMbdG4mAJLZYv5EzXUWm9n9Fnnp7N9Ko8M5NTPDsEKDG9w9iygg" ] },
      { "delegate": "tz1P2Po7YM526ughEsRbY4oR9zaUPDZjxFrb",
        "reception_time": "2022-01-20T00:05:18.834-00:00",
        "errors":
          [ { "kind": "temporary",
              "id": "proto.011-PtHangz2.prefilter.outdated_endorsement" } ],
        "included_in_blocks":
          [ "BMbdG4mAJLZYv5EzXUWm9n9Fnnp7N9Ko8M5NTPDsEKDG9w9iygg" ] },
      { "delegate": "tz1S8e9GgdZG78XJRB3NqabfWeM37GnhZMWQ",
        "reception_time": "2022-01-20T00:05:18.110-00:00",
        "errors":
          [ { "kind": "temporary",
              "id": "proto.011-PtHangz2.prefilter.outdated_endorsement" } ],
        "included_in_blocks":
          [ "BMbdG4mAJLZYv5EzXUWm9n9Fnnp7N9Ko8M5NTPDsEKDG9w9iygg" ] },
      { "delegate": "tz1NpWrAyDL9k2Lmnyxcgr9xuJakbBxdq7FB" },
      { "delegate": "tz1RjoHc98dBoqaH2jawF62XNKh7YsHwbkEv" },
      { "delegate": "tz1awXW7wuXy21c66vBudMXQVAPgRnqqwgTH" },
      { "delegate": "tz1hQR8t76HwYLUahpnNoe5azcePC6bkrMnn" },
      { "delegate": "tz1MQMiZHV8q4tTwUMWmS5Y3kaP6J2136iXr",
        "reception_time": "2022-01-20T00:05:21.695-00:00",
        "included_in_blocks":
          [ "BMbdG4mAJLZYv5EzXUWm9n9Fnnp7N9Ko8M5NTPDsEKDG9w9iygg" ] },
      { "delegate": "tz1ei4WtWEMEJekSv8qDnu9PExG6Q8HgRGr3",
        "reception_time": "2022-01-20T00:05:21.695-00:00",
        "included_in_blocks":
          [ "BMbdG4mAJLZYv5EzXUWm9n9Fnnp7N9Ko8M5NTPDsEKDG9w9iygg" ] },
      { "delegate": "tz1cSj7fTex3JPd1p1LN1fwek6AV1kH93Wwc",
        "reception_time": "2022-01-20T00:05:21.695-00:00",
        "included_in_blocks":
          [ "BMbdG4mAJLZYv5EzXUWm9n9Fnnp7N9Ko8M5NTPDsEKDG9w9iygg" ] },
      { "delegate": "tz1PWCDnz783NNGGQjEFFsHtrcK5yBW4E2rm",
        "reception_time": "2022-01-20T00:05:21.695-00:00",
        "included_in_blocks":
          [ "BMbdG4mAJLZYv5EzXUWm9n9Fnnp7N9Ko8M5NTPDsEKDG9w9iygg" ] },
      { "delegate": "tz3RKYFsLuQzKBtmYuLNas7uMu3AsYd4QdsA",
        "reception_time": "2022-01-20T00:05:21.695-00:00",
        "included_in_blocks":
          [ "BMbdG4mAJLZYv5EzXUWm9n9Fnnp7N9Ko8M5NTPDsEKDG9w9iygg" ] },
      { "delegate": "tz3hw2kqXhLUvY65ca1eety2oQTpAvd34R9Q",
        "reception_time": "2022-01-20T00:05:21.883-00:00",
        "included_in_blocks":
          [ "BMbdG4mAJLZYv5EzXUWm9n9Fnnp7N9Ko8M5NTPDsEKDG9w9iygg" ] },
      { "delegate": "tz1RCFbB9GpALpsZtu6J58sb74dm8qe6XBzv",
        "reception_time": "2022-01-20T00:05:21.883-00:00",
        "included_in_blocks":
          [ "BMbdG4mAJLZYv5EzXUWm9n9Fnnp7N9Ko8M5NTPDsEKDG9w9iygg" ] },
      { "delegate": "tz1TRspM5SeZpaQUhzByXbEvqKF1vnCM2YTK",
        "reception_time": "2022-01-20T00:05:21.883-00:00",
        "included_in_blocks":
          [ "BMbdG4mAJLZYv5EzXUWm9n9Fnnp7N9Ko8M5NTPDsEKDG9w9iygg" ] },
      { "delegate": "tz1NortRftucvAkD1J58L32EhSVrQEWJCEnB",
        "reception_time": "2022-01-20T00:05:21.883-00:00",
        "included_in_blocks":
          [ "BMbdG4mAJLZYv5EzXUWm9n9Fnnp7N9Ko8M5NTPDsEKDG9w9iygg" ] },
      { "delegate": "tz3S6BBeKgJGXxvLyZ1xzXzMPn11nnFtq5L9",
        "reception_time": "2022-01-20T00:05:21.883-00:00",
        "included_in_blocks":
          [ "BMbdG4mAJLZYv5EzXUWm9n9Fnnp7N9Ko8M5NTPDsEKDG9w9iygg" ] },
      { "delegate": "tz1Nf6tsK4G6bBqgSQERy4nUtkHNKUVdh7q1",
        "reception_time": "2022-01-20T00:05:21.883-00:00",
        "included_in_blocks":
          [ "BMbdG4mAJLZYv5EzXUWm9n9Fnnp7N9Ko8M5NTPDsEKDG9w9iygg" ] },
      { "delegate": "tz3QCNyySViKHmeSr45kzDxzchys7NiXCWoa",
        "reception_time": "2022-01-20T00:05:21.883-00:00",
        "included_in_blocks":
          [ "BMbdG4mAJLZYv5EzXUWm9n9Fnnp7N9Ko8M5NTPDsEKDG9w9iygg" ] },
      { "delegate": "tz1SYq214SCBy9naR6cvycQsYcUGpBqQAE8d",
        "reception_time": "2022-01-20T00:05:21.883-00:00",
        "included_in_blocks":
          [ "BMbdG4mAJLZYv5EzXUWm9n9Fnnp7N9Ko8M5NTPDsEKDG9w9iygg" ] },
      { "delegate": "tz3QT9dHYKDqh563chVa6za8526ys1UKfRfL",
        "reception_time": "2022-01-20T00:05:21.883-00:00",
        "included_in_blocks":
          [ "BMbdG4mAJLZYv5EzXUWm9n9Fnnp7N9Ko8M5NTPDsEKDG9w9iygg" ] },
      { "delegate": "tz1fPKAtsYydh4f1wfWNfeNxWYu72TmM48fu",
        "reception_time": "2022-01-20T00:05:21.883-00:00",
        "included_in_blocks":
          [ "BMbdG4mAJLZYv5EzXUWm9n9Fnnp7N9Ko8M5NTPDsEKDG9w9iygg" ] },
      { "delegate": "tz1bZ8vsMAXmaWEV7FRnyhcuUs2fYMaQ6Hkk",
        "reception_time": "2022-01-20T00:05:21.883-00:00",
        "included_in_blocks":
          [ "BMbdG4mAJLZYv5EzXUWm9n9Fnnp7N9Ko8M5NTPDsEKDG9w9iygg" ] },
      { "delegate": "tz2FCNBrERXtaTtNX6iimR1UJ5JSDxvdHM93",
        "reception_time": "2022-01-20T00:05:22.213-00:00",
        "included_in_blocks":
          [ "BMbdG4mAJLZYv5EzXUWm9n9Fnnp7N9Ko8M5NTPDsEKDG9w9iygg" ] },
      { "delegate": "tz1c8JTzmA6c7cm6ZmUwR7WES6akdiMa1kwt",
        "reception_time": "2022-01-20T00:05:22.213-00:00",
        "included_in_blocks":
          [ "BMbdG4mAJLZYv5EzXUWm9n9Fnnp7N9Ko8M5NTPDsEKDG9w9iygg" ] },
      { "delegate": "tz1UJvHTgpVzcKWhTazGxVcn5wsHru5Gietg",
        "reception_time": "2022-01-20T00:05:22.213-00:00",
        "included_in_blocks":
          [ "BMbdG4mAJLZYv5EzXUWm9n9Fnnp7N9Ko8M5NTPDsEKDG9w9iygg" ] },
      { "delegate": "tz1V4qCyvPKZ5UeqdH14HN42rxvNPQfc9UZg",
        "reception_time": "2022-01-20T00:05:22.213-00:00",
        "included_in_blocks":
          [ "BMbdG4mAJLZYv5EzXUWm9n9Fnnp7N9Ko8M5NTPDsEKDG9w9iygg" ] },
      { "delegate": "tz1UMCB2AHSTwG7YcGNr31CqYCtGN873royv",
        "reception_time": "2022-01-20T00:05:22.213-00:00",
        "included_in_blocks":
          [ "BMbdG4mAJLZYv5EzXUWm9n9Fnnp7N9Ko8M5NTPDsEKDG9w9iygg" ] },
      { "delegate": "tz3bTdwZinP8U1JmSweNzVKhmwafqWmFWRfk",
        "reception_time": "2022-01-20T00:05:22.213-00:00",
        "included_in_blocks":
          [ "BMbdG4mAJLZYv5EzXUWm9n9Fnnp7N9Ko8M5NTPDsEKDG9w9iygg" ] },
      { "delegate": "tz3RB4aoyjov4KEVRbuhvQ1CKJgBJMWhaeB8",
        "reception_time": "2022-01-20T00:05:22.213-00:00",
        "included_in_blocks":
          [ "BMbdG4mAJLZYv5EzXUWm9n9Fnnp7N9Ko8M5NTPDsEKDG9w9iygg" ] },
      { "delegate": "tz1NEKxGEHsFufk87CVZcrqWu8o22qh46GK6",
        "reception_time": "2022-01-20T00:05:22.213-00:00",
        "included_in_blocks":
          [ "BMbdG4mAJLZYv5EzXUWm9n9Fnnp7N9Ko8M5NTPDsEKDG9w9iygg" ] },
      { "delegate": "tz1gfArv665EUkSg2ojMBzcbfwuPxAvqPvjo",
        "reception_time": "2022-01-20T00:05:22.213-00:00",
        "included_in_blocks":
          [ "BMbdG4mAJLZYv5EzXUWm9n9Fnnp7N9Ko8M5NTPDsEKDG9w9iygg" ] },
      { "delegate": "tz3iJu5vrKZcsqRPs8yJ61UDoeEXZmtro4qh",
        "reception_time": "2022-01-20T00:05:22.213-00:00",
        "included_in_blocks":
          [ "BMbdG4mAJLZYv5EzXUWm9n9Fnnp7N9Ko8M5NTPDsEKDG9w9iygg" ] },
      { "delegate": "tz3Zhs2dygr55yHyQyKjntAtY9bgfhLZ4Xj1",
        "reception_time": "2022-01-20T00:05:22.213-00:00",
        "included_in_blocks":
          [ "BMbdG4mAJLZYv5EzXUWm9n9Fnnp7N9Ko8M5NTPDsEKDG9w9iygg" ] },
      { "delegate": "tz1WctSwL49BZtdWAQ75NY6vr4xsAx6oKdah",
        "reception_time": "2022-01-20T00:05:22.230-00:00",
        "included_in_blocks":
          [ "BMbdG4mAJLZYv5EzXUWm9n9Fnnp7N9Ko8M5NTPDsEKDG9w9iygg" ] },
      { "delegate": "tz1S8MNvuFEUsWgjHvi3AxibRBf388NhT1q2",
        "reception_time": "2022-01-20T00:05:22.248-00:00",
        "included_in_blocks":
          [ "BMbdG4mAJLZYv5EzXUWm9n9Fnnp7N9Ko8M5NTPDsEKDG9w9iygg" ] },
      { "delegate": "tz1WBfwbT66FC6BTLexc2BoyCCBM9LG7pnVW",
        "reception_time": "2022-01-20T00:05:22.248-00:00",
        "included_in_blocks":
          [ "BMbdG4mAJLZYv5EzXUWm9n9Fnnp7N9Ko8M5NTPDsEKDG9w9iygg" ] },
      { "delegate": "tz1LmaFsWRkjr7QMCx5PtV6xTUz3AmEpKQiF",
        "reception_time": "2022-01-20T00:05:22.275-00:00",
        "included_in_blocks":
          [ "BMbdG4mAJLZYv5EzXUWm9n9Fnnp7N9Ko8M5NTPDsEKDG9w9iygg" ] },
      { "delegate": "tz1fwnfJNgiDACshK9avfRfFbMaXrs3ghoJa",
        "reception_time": "2022-01-20T00:05:22.275-00:00",
        "included_in_blocks":
          [ "BMbdG4mAJLZYv5EzXUWm9n9Fnnp7N9Ko8M5NTPDsEKDG9w9iygg" ] },
      { "delegate": "tz1abmz7jiCV2GH2u81LRrGgAFFgvQgiDiaf",
        "reception_time": "2022-01-20T00:05:22.277-00:00",
        "included_in_blocks":
          [ "BMbdG4mAJLZYv5EzXUWm9n9Fnnp7N9Ko8M5NTPDsEKDG9w9iygg" ] },
      { "delegate": "tz1PeZx7FXy7QRuMREGXGxeipb24RsMMzUNe",
        "reception_time": "2022-01-20T00:05:22.292-00:00",
        "included_in_blocks":
          [ "BMbdG4mAJLZYv5EzXUWm9n9Fnnp7N9Ko8M5NTPDsEKDG9w9iygg" ] },
      { "delegate": "tz1YhNsiRRU8aHNGg7NK3uuP6UDAyacJernB",
        "reception_time": "2022-01-20T00:05:22.293-00:00",
        "included_in_blocks":
          [ "BMbdG4mAJLZYv5EzXUWm9n9Fnnp7N9Ko8M5NTPDsEKDG9w9iygg" ] },
      { "delegate": "tz1cYufsxHXJcvANhvS55h3aY32a9BAFB494",
        "reception_time": "2022-01-20T00:05:22.303-00:00",
        "included_in_blocks":
          [ "BMbdG4mAJLZYv5EzXUWm9n9Fnnp7N9Ko8M5NTPDsEKDG9w9iygg" ] },
      { "delegate": "tz1dRKU4FQ9QRRQPdaH4zCR6gmCmXfcvcgtB",
        "reception_time": "2022-01-20T00:05:22.305-00:00",
        "included_in_blocks":
          [ "BMbdG4mAJLZYv5EzXUWm9n9Fnnp7N9Ko8M5NTPDsEKDG9w9iygg" ] },
      { "delegate": "tz3VEZ4k6a4Wx42iyev6i2aVAptTRLEAivNN",
        "reception_time": "2022-01-20T00:05:22.341-00:00",
        "included_in_blocks":
          [ "BMbdG4mAJLZYv5EzXUWm9n9Fnnp7N9Ko8M5NTPDsEKDG9w9iygg" ] },
      { "delegate": "tz1T7duV5gZWSTq4YpBGbXNLTfznCLDrFxvs",
        "reception_time": "2022-01-20T00:05:22.374-00:00",
        "included_in_blocks":
          [ "BMbdG4mAJLZYv5EzXUWm9n9Fnnp7N9Ko8M5NTPDsEKDG9w9iygg" ] },
      { "delegate": "tz1iEWcNL383qiDJ3Q3qt5W2T4aSKUbEU4An",
        "reception_time": "2022-01-20T00:05:22.890-00:00",
        "included_in_blocks":
          [ "BMbdG4mAJLZYv5EzXUWm9n9Fnnp7N9Ko8M5NTPDsEKDG9w9iygg" ] },
      { "delegate": "tz3WMqdzXqRWXwyvj5Hp2H7QEepaUuS7vd9K",
        "reception_time": "2022-01-20T00:05:22.902-00:00",
        "included_in_blocks":
          [ "BMbdG4mAJLZYv5EzXUWm9n9Fnnp7N9Ko8M5NTPDsEKDG9w9iygg" ] },
      { "delegate": "tz3NDpRj6WBrJPikcPVHRBEjWKxFw3c6eQPS",
        "reception_time": "2022-01-20T00:05:23.486-00:00",
        "included_in_blocks":
          [ "BMbdG4mAJLZYv5EzXUWm9n9Fnnp7N9Ko8M5NTPDsEKDG9w9iygg" ] },
      { "delegate": "tz3gLTu4Yxj8tPAcriQVUdxv6BY9QyvzU1az",
        "reception_time": "2022-01-20T00:05:23.499-00:00",
        "included_in_blocks":
          [ "BMbdG4mAJLZYv5EzXUWm9n9Fnnp7N9Ko8M5NTPDsEKDG9w9iygg" ] },
      { "delegate": "tz1TRqbYbUf2GyrjErf3hBzgBJPzW8y36qEs",
        "reception_time": "2022-01-20T00:05:23.501-00:00",
        "included_in_blocks":
          [ "BMbdG4mAJLZYv5EzXUWm9n9Fnnp7N9Ko8M5NTPDsEKDG9w9iygg" ] },
      { "delegate": "tz1fUyqYH7H4pRHN1roWY17giXhy1RvxjgUV",
        "reception_time": "2022-01-20T00:05:23.509-00:00",
        "included_in_blocks":
          [ "BMbdG4mAJLZYv5EzXUWm9n9Fnnp7N9Ko8M5NTPDsEKDG9w9iygg" ] },
      { "delegate": "tz3bvNMQ95vfAYtG8193ymshqjSvmxiCUuR5",
        "reception_time": "2022-01-20T00:05:23.527-00:00",
        "included_in_blocks":
          [ "BMbdG4mAJLZYv5EzXUWm9n9Fnnp7N9Ko8M5NTPDsEKDG9w9iygg" ] },
      { "delegate": "tz3NExpXn9aPNZPorRE4SdjJ2RGrfbJgMAaV",
        "reception_time": "2022-01-20T00:05:23.533-00:00",
        "included_in_blocks":
          [ "BMbdG4mAJLZYv5EzXUWm9n9Fnnp7N9Ko8M5NTPDsEKDG9w9iygg" ] },
      { "delegate": "tz3UoffC7FG7zfpmvmjUmUeAaHvzdcUvAj6r",
        "reception_time": "2022-01-20T00:05:23.577-00:00",
        "included_in_blocks":
          [ "BMbdG4mAJLZYv5EzXUWm9n9Fnnp7N9Ko8M5NTPDsEKDG9w9iygg" ] },
      { "delegate": "tz1eVaNx3gCmG1EsLjijkmgAxdLYVf6Bf5Sq",
        "reception_time": "2022-01-20T00:05:23.648-00:00",
        "included_in_blocks":
          [ "BMbdG4mAJLZYv5EzXUWm9n9Fnnp7N9Ko8M5NTPDsEKDG9w9iygg" ] },
      { "delegate": "tz3RDC3Jdn4j15J7bBHZd29EUee9gVB1CxD9",
        "reception_time": "2022-01-20T00:05:23.675-00:00",
        "included_in_blocks":
          [ "BMbdG4mAJLZYv5EzXUWm9n9Fnnp7N9Ko8M5NTPDsEKDG9w9iygg" ] },
      { "delegate": "tz1SohptP53wDPZhzTWzDUFAUcWF6DMBpaJV",
        "reception_time": "2022-01-20T00:05:24.084-00:00",
        "included_in_blocks":
          [ "BMbdG4mAJLZYv5EzXUWm9n9Fnnp7N9Ko8M5NTPDsEKDG9w9iygg" ] },
      { "delegate": "tz1bTpviNnyx2PXsNmGpCQTMQsGoYordkUoA",
        "reception_time": "2022-01-20T00:05:25.237-00:00",
        "included_in_blocks":
          [ "BMbdG4mAJLZYv5EzXUWm9n9Fnnp7N9Ko8M5NTPDsEKDG9w9iygg" ] },
      { "delegate": "tz1aRoaRhSpRYvFdyvgWLL6TGyRoGF51wDjM",
        "reception_time": "2022-01-20T00:05:26.369-00:00",
        "included_in_blocks":
          [ "BMbdG4mAJLZYv5EzXUWm9n9Fnnp7N9Ko8M5NTPDsEKDG9w9iygg" ] },
      { "delegate": "tz2BzJTyoQp8fNbfhWD4YQgH9JJHDgSGzpdG",
        "reception_time": "2022-01-20T00:05:30.793-00:00",
        "included_in_blocks":
          [ "BMbdG4mAJLZYv5EzXUWm9n9Fnnp7N9Ko8M5NTPDsEKDG9w9iygg" ] } ] }