{ "blocks":
    [ { "hash": "BM816fzkPt8LSkEAbh1PfGTBDjrSdkpRD8ZzwVZNxksmdk6uKo9",
        "delegate": "tz1WCd2jm4uSt4vntk4vSuUWoZQGhLcDuR9q",
        "reception_time": "2022-01-20T00:30:09.639-00:00",
        "timestamp": "2022-01-20T00:30:00Z" } ],
  "endorsements":
    [ { "delegate": "tz1cSj7fTex3JPd1p1LN1fwek6AV1kH93Wwc",
        "reception_time": "2022-01-20T00:30:09.556-00:00",
        "errors":
          [ { "kind": "temporary",
              "id": "proto.011-PtHangz2.prefilter.outdated_endorsement" } ],
        "included_in_blocks":
          [ "BMGa1zQ8BeZpvPFEJCf3f5cKfamuSjbEaRDp6NE4woF2HqPGeuo" ] },
      { "delegate": "tz1RV1MBbZMR68tacosb7Mwj6LkbPSUS1er1",
        "reception_time": "2022-01-20T00:30:09.401-00:00",
        "errors":
          [ { "kind": "temporary",
              "id": "proto.011-PtHangz2.prefilter.outdated_endorsement" } ],
        "included_in_blocks":
          [ "BMGa1zQ8BeZpvPFEJCf3f5cKfamuSjbEaRDp6NE4woF2HqPGeuo" ] },
      { "delegate": "tz1VQnqCCqX4K5sP3FNkVSNKTdCAMJDd3E1n",
        "reception_time": "2022-01-20T00:30:09.401-00:00",
        "errors":
          [ { "kind": "temporary",
              "id": "proto.011-PtHangz2.prefilter.outdated_endorsement" } ],
        "included_in_blocks":
          [ "BMGa1zQ8BeZpvPFEJCf3f5cKfamuSjbEaRDp6NE4woF2HqPGeuo" ] },
      { "delegate": "tz1gUNyn3hmnEWqkusWPzxRaon1cs7ndWh7h",
        "reception_time": "2022-01-20T00:30:09.387-00:00",
        "errors":
          [ { "kind": "temporary",
              "id": "proto.011-PtHangz2.prefilter.outdated_endorsement" } ],
        "included_in_blocks":
          [ "BMGa1zQ8BeZpvPFEJCf3f5cKfamuSjbEaRDp6NE4woF2HqPGeuo" ] },
      { "delegate": "tz1Kt4P8BCaP93AEV4eA7gmpRryWt5hznjCP",
        "reception_time": "2022-01-20T00:30:09.310-00:00",
        "errors":
          [ { "kind": "temporary",
              "id": "proto.011-PtHangz2.prefilter.outdated_endorsement" } ],
        "included_in_blocks":
          [ "BMGa1zQ8BeZpvPFEJCf3f5cKfamuSjbEaRDp6NE4woF2HqPGeuo" ] },
      { "delegate": "tz1WCd2jm4uSt4vntk4vSuUWoZQGhLcDuR9q",
        "reception_time": "2022-01-20T00:30:09.268-00:00",
        "errors":
          [ { "kind": "temporary",
              "id": "proto.011-PtHangz2.prefilter.outdated_endorsement" } ],
        "included_in_blocks":
          [ "BMGa1zQ8BeZpvPFEJCf3f5cKfamuSjbEaRDp6NE4woF2HqPGeuo" ] },
      { "delegate": "tz1P2Po7YM526ughEsRbY4oR9zaUPDZjxFrb",
        "reception_time": "2022-01-20T00:30:09.154-00:00",
        "errors":
          [ { "kind": "temporary",
              "id": "proto.011-PtHangz2.prefilter.outdated_endorsement" } ],
        "included_in_blocks":
          [ "BMGa1zQ8BeZpvPFEJCf3f5cKfamuSjbEaRDp6NE4woF2HqPGeuo" ] },
      { "delegate": "tz1Lhf4J9Qxoe3DZ2nfe8FGDnvVj7oKjnMY6",
        "reception_time": "2022-01-20T00:30:09.140-00:00",
        "errors":
          [ { "kind": "temporary",
              "id": "proto.011-PtHangz2.prefilter.outdated_endorsement" } ],
        "included_in_blocks":
          [ "BMGa1zQ8BeZpvPFEJCf3f5cKfamuSjbEaRDp6NE4woF2HqPGeuo" ] },
      { "delegate": "tz1Ldzz6k1BHdhuKvAtMRX7h5kJSMHESMHLC",
        "reception_time": "2022-01-20T00:30:09.134-00:00",
        "errors":
          [ { "kind": "temporary",
              "id": "proto.011-PtHangz2.prefilter.outdated_endorsement" } ],
        "included_in_blocks":
          [ "BMGa1zQ8BeZpvPFEJCf3f5cKfamuSjbEaRDp6NE4woF2HqPGeuo" ] },
      { "delegate": "tz1TXzyaKUA8wsWefdSnyaYFnV2M3vCV7er9",
        "reception_time": "2022-01-20T00:30:08.639-00:00",
        "errors":
          [ { "kind": "temporary",
              "id": "proto.011-PtHangz2.prefilter.outdated_endorsement" } ],
        "included_in_blocks":
          [ "BMGa1zQ8BeZpvPFEJCf3f5cKfamuSjbEaRDp6NE4woF2HqPGeuo" ] },
      { "delegate": "tz1WL4xAAYsQ2GM9MCQGePYcbwwu6kvfqMWN",
        "reception_time": "2022-01-20T00:30:08.414-00:00",
        "errors":
          [ { "kind": "temporary",
              "id": "proto.011-PtHangz2.prefilter.outdated_endorsement" } ],
        "included_in_blocks":
          [ "BMGa1zQ8BeZpvPFEJCf3f5cKfamuSjbEaRDp6NE4woF2HqPGeuo" ] },
      { "delegate": "tz1awXW7wuXy21c66vBudMXQVAPgRnqqwgTH" },
      { "delegate": "tz1eEnQhbwf6trb8Q8mPb2RaPkNk2rN7BKi8",
        "reception_time": "2022-01-20T00:30:12.081-00:00",
        "included_in_blocks":
          [ "BMGa1zQ8BeZpvPFEJCf3f5cKfamuSjbEaRDp6NE4woF2HqPGeuo" ] },
      { "delegate": "tz1irJKkXS2DBWkU1NnmFQx1c1L7pbGg4yhk",
        "reception_time": "2022-01-20T00:30:12.081-00:00",
        "included_in_blocks":
          [ "BMGa1zQ8BeZpvPFEJCf3f5cKfamuSjbEaRDp6NE4woF2HqPGeuo" ] },
      { "delegate": "tz1d6Fx42mYgVFnHUW8T8A7WBfJ6nD9pVok8",
        "reception_time": "2022-01-20T00:30:12.081-00:00",
        "included_in_blocks":
          [ "BMGa1zQ8BeZpvPFEJCf3f5cKfamuSjbEaRDp6NE4woF2HqPGeuo" ] },
      { "delegate": "tz1PWCDnz783NNGGQjEFFsHtrcK5yBW4E2rm",
        "reception_time": "2022-01-20T00:30:12.081-00:00",
        "included_in_blocks":
          [ "BMGa1zQ8BeZpvPFEJCf3f5cKfamuSjbEaRDp6NE4woF2HqPGeuo" ] },
      { "delegate": "tz3adcvQaKXTCg12zbninqo3q8ptKKtDFTLv",
        "reception_time": "2022-01-20T00:30:12.289-00:00",
        "included_in_blocks":
          [ "BMGa1zQ8BeZpvPFEJCf3f5cKfamuSjbEaRDp6NE4woF2HqPGeuo" ] },
      { "delegate": "tz1ei4WtWEMEJekSv8qDnu9PExG6Q8HgRGr3",
        "reception_time": "2022-01-20T00:30:12.289-00:00",
        "included_in_blocks":
          [ "BMGa1zQ8BeZpvPFEJCf3f5cKfamuSjbEaRDp6NE4woF2HqPGeuo" ] },
      { "delegate": "tz1TEc75UKXv4W5cwi14Na3NtqFD51yKQi7h",
        "reception_time": "2022-01-20T00:30:12.289-00:00",
        "included_in_blocks":
          [ "BMGa1zQ8BeZpvPFEJCf3f5cKfamuSjbEaRDp6NE4woF2HqPGeuo" ] },
      { "delegate": "tz3e7LbZvUtoXhpUD1yb6wuFodZpfYRb9nWJ",
        "reception_time": "2022-01-20T00:30:12.289-00:00",
        "included_in_blocks":
          [ "BMGa1zQ8BeZpvPFEJCf3f5cKfamuSjbEaRDp6NE4woF2HqPGeuo" ] },
      { "delegate": "tz3QCNyySViKHmeSr45kzDxzchys7NiXCWoa",
        "reception_time": "2022-01-20T00:30:12.289-00:00",
        "included_in_blocks":
          [ "BMGa1zQ8BeZpvPFEJCf3f5cKfamuSjbEaRDp6NE4woF2HqPGeuo" ] },
      { "delegate": "tz3RKYFsLuQzKBtmYuLNas7uMu3AsYd4QdsA",
        "reception_time": "2022-01-20T00:30:12.289-00:00",
        "included_in_blocks":
          [ "BMGa1zQ8BeZpvPFEJCf3f5cKfamuSjbEaRDp6NE4woF2HqPGeuo" ] },
      { "delegate": "tz3NxTnke1acr8o3h5y9ytf5awQBGNJUKzVU",
        "reception_time": "2022-01-20T00:30:12.289-00:00",
        "included_in_blocks":
          [ "BMGa1zQ8BeZpvPFEJCf3f5cKfamuSjbEaRDp6NE4woF2HqPGeuo" ] },
      { "delegate": "tz3hw2kqXhLUvY65ca1eety2oQTpAvd34R9Q",
        "reception_time": "2022-01-20T00:30:12.289-00:00",
        "included_in_blocks":
          [ "BMGa1zQ8BeZpvPFEJCf3f5cKfamuSjbEaRDp6NE4woF2HqPGeuo" ] },
      { "delegate": "tz3QSGPoRp3Kn7n3vY24eYeu3Peuqo45LQ4D",
        "reception_time": "2022-01-20T00:30:12.289-00:00",
        "included_in_blocks":
          [ "BMGa1zQ8BeZpvPFEJCf3f5cKfamuSjbEaRDp6NE4woF2HqPGeuo" ] },
      { "delegate": "tz1MQJPGNMijnXnVoBENFz9rUhaPt3S7rWoz",
        "reception_time": "2022-01-20T00:30:12.289-00:00",
        "included_in_blocks":
          [ "BMGa1zQ8BeZpvPFEJCf3f5cKfamuSjbEaRDp6NE4woF2HqPGeuo" ] },
      { "delegate": "tz1NEKxGEHsFufk87CVZcrqWu8o22qh46GK6",
        "reception_time": "2022-01-20T00:30:12.289-00:00",
        "included_in_blocks":
          [ "BMGa1zQ8BeZpvPFEJCf3f5cKfamuSjbEaRDp6NE4woF2HqPGeuo" ] },
      { "delegate": "tz3Zhs2dygr55yHyQyKjntAtY9bgfhLZ4Xj1",
        "reception_time": "2022-01-20T00:30:12.289-00:00",
        "included_in_blocks":
          [ "BMGa1zQ8BeZpvPFEJCf3f5cKfamuSjbEaRDp6NE4woF2HqPGeuo" ] },
      { "delegate": "tz1RCFbB9GpALpsZtu6J58sb74dm8qe6XBzv",
        "reception_time": "2022-01-20T00:30:12.289-00:00",
        "included_in_blocks":
          [ "BMGa1zQ8BeZpvPFEJCf3f5cKfamuSjbEaRDp6NE4woF2HqPGeuo" ] },
      { "delegate": "tz1V4qCyvPKZ5UeqdH14HN42rxvNPQfc9UZg",
        "reception_time": "2022-01-20T00:30:12.659-00:00",
        "included_in_blocks":
          [ "BMGa1zQ8BeZpvPFEJCf3f5cKfamuSjbEaRDp6NE4woF2HqPGeuo" ] },
      { "delegate": "tz3gtoUxdudfBRcNY7iVdKPHCYYX6xdPpoRS",
        "reception_time": "2022-01-20T00:30:12.659-00:00",
        "included_in_blocks":
          [ "BMGa1zQ8BeZpvPFEJCf3f5cKfamuSjbEaRDp6NE4woF2HqPGeuo" ] },
      { "delegate": "tz1S8MNvuFEUsWgjHvi3AxibRBf388NhT1q2",
        "reception_time": "2022-01-20T00:30:12.659-00:00",
        "included_in_blocks":
          [ "BMGa1zQ8BeZpvPFEJCf3f5cKfamuSjbEaRDp6NE4woF2HqPGeuo" ] },
      { "delegate": "tz3QT9dHYKDqh563chVa6za8526ys1UKfRfL",
        "reception_time": "2022-01-20T00:30:12.659-00:00",
        "included_in_blocks":
          [ "BMGa1zQ8BeZpvPFEJCf3f5cKfamuSjbEaRDp6NE4woF2HqPGeuo" ] },
      { "delegate": "tz3iJu5vrKZcsqRPs8yJ61UDoeEXZmtro4qh",
        "reception_time": "2022-01-20T00:30:12.659-00:00",
        "included_in_blocks":
          [ "BMGa1zQ8BeZpvPFEJCf3f5cKfamuSjbEaRDp6NE4woF2HqPGeuo" ] },
      { "delegate": "tz3ZbP2pM3nwvXztbuMJwJnDvV5xdpU8UkkD",
        "reception_time": "2022-01-20T00:30:12.659-00:00",
        "included_in_blocks":
          [ "BMGa1zQ8BeZpvPFEJCf3f5cKfamuSjbEaRDp6NE4woF2HqPGeuo" ] },
      { "delegate": "tz1Nf6tsK4G6bBqgSQERy4nUtkHNKUVdh7q1",
        "reception_time": "2022-01-20T00:30:12.659-00:00",
        "included_in_blocks":
          [ "BMGa1zQ8BeZpvPFEJCf3f5cKfamuSjbEaRDp6NE4woF2HqPGeuo" ] },
      { "delegate": "tz3S6BBeKgJGXxvLyZ1xzXzMPn11nnFtq5L9",
        "reception_time": "2022-01-20T00:30:12.659-00:00",
        "included_in_blocks":
          [ "BMGa1zQ8BeZpvPFEJCf3f5cKfamuSjbEaRDp6NE4woF2HqPGeuo" ] },
      { "delegate": "tz1dNVDWPf3Q59SdJqnjdnu277iyvReiRS9M",
        "reception_time": "2022-01-20T00:30:12.659-00:00",
        "included_in_blocks":
          [ "BMGa1zQ8BeZpvPFEJCf3f5cKfamuSjbEaRDp6NE4woF2HqPGeuo" ] },
      { "delegate": "tz3RB4aoyjov4KEVRbuhvQ1CKJgBJMWhaeB8",
        "reception_time": "2022-01-20T00:30:12.659-00:00",
        "included_in_blocks":
          [ "BMGa1zQ8BeZpvPFEJCf3f5cKfamuSjbEaRDp6NE4woF2HqPGeuo" ] },
      { "delegate": "tz1TRspM5SeZpaQUhzByXbEvqKF1vnCM2YTK",
        "reception_time": "2022-01-20T00:30:12.659-00:00",
        "included_in_blocks":
          [ "BMGa1zQ8BeZpvPFEJCf3f5cKfamuSjbEaRDp6NE4woF2HqPGeuo" ] },
      { "delegate": "tz1SYq214SCBy9naR6cvycQsYcUGpBqQAE8d",
        "reception_time": "2022-01-20T00:30:12.659-00:00",
        "included_in_blocks":
          [ "BMGa1zQ8BeZpvPFEJCf3f5cKfamuSjbEaRDp6NE4woF2HqPGeuo" ] },
      { "delegate": "tz1gfArv665EUkSg2ojMBzcbfwuPxAvqPvjo",
        "reception_time": "2022-01-20T00:30:12.659-00:00",
        "included_in_blocks":
          [ "BMGa1zQ8BeZpvPFEJCf3f5cKfamuSjbEaRDp6NE4woF2HqPGeuo" ] },
      { "delegate": "tz1T7duV5gZWSTq4YpBGbXNLTfznCLDrFxvs",
        "reception_time": "2022-01-20T00:30:12.659-00:00",
        "included_in_blocks":
          [ "BMGa1zQ8BeZpvPFEJCf3f5cKfamuSjbEaRDp6NE4woF2HqPGeuo" ] },
      { "delegate": "tz1dRKU4FQ9QRRQPdaH4zCR6gmCmXfcvcgtB",
        "reception_time": "2022-01-20T00:30:12.659-00:00",
        "included_in_blocks":
          [ "BMGa1zQ8BeZpvPFEJCf3f5cKfamuSjbEaRDp6NE4woF2HqPGeuo" ] },
      { "delegate": "tz3bTdwZinP8U1JmSweNzVKhmwafqWmFWRfk",
        "reception_time": "2022-01-20T00:30:12.659-00:00",
        "included_in_blocks":
          [ "BMGa1zQ8BeZpvPFEJCf3f5cKfamuSjbEaRDp6NE4woF2HqPGeuo" ] },
      { "delegate": "tz2FCNBrERXtaTtNX6iimR1UJ5JSDxvdHM93",
        "reception_time": "2022-01-20T00:30:12.659-00:00",
        "included_in_blocks":
          [ "BMGa1zQ8BeZpvPFEJCf3f5cKfamuSjbEaRDp6NE4woF2HqPGeuo" ] },
      { "delegate": "tz1cb8xcmJWcdVU7cNAd93MfEReorvP52P8x",
        "reception_time": "2022-01-20T00:30:12.659-00:00",
        "included_in_blocks":
          [ "BMGa1zQ8BeZpvPFEJCf3f5cKfamuSjbEaRDp6NE4woF2HqPGeuo" ] },
      { "delegate": "tz3bvNMQ95vfAYtG8193ymshqjSvmxiCUuR5",
        "reception_time": "2022-01-20T00:30:12.659-00:00",
        "included_in_blocks":
          [ "BMGa1zQ8BeZpvPFEJCf3f5cKfamuSjbEaRDp6NE4woF2HqPGeuo" ] },
      { "delegate": "tz3RDC3Jdn4j15J7bBHZd29EUee9gVB1CxD9",
        "reception_time": "2022-01-20T00:30:12.659-00:00",
        "included_in_blocks":
          [ "BMGa1zQ8BeZpvPFEJCf3f5cKfamuSjbEaRDp6NE4woF2HqPGeuo" ] },
      { "delegate": "tz1NdhRv643wLW6zCcRP3VfT24dvDnh7nuh9",
        "reception_time": "2022-01-20T00:30:12.659-00:00",
        "included_in_blocks":
          [ "BMGa1zQ8BeZpvPFEJCf3f5cKfamuSjbEaRDp6NE4woF2HqPGeuo" ] },
      { "delegate": "tz1WBfwbT66FC6BTLexc2BoyCCBM9LG7pnVW",
        "reception_time": "2022-01-20T00:30:12.659-00:00",
        "included_in_blocks":
          [ "BMGa1zQ8BeZpvPFEJCf3f5cKfamuSjbEaRDp6NE4woF2HqPGeuo" ] },
      { "delegate": "tz3gLTu4Yxj8tPAcriQVUdxv6BY9QyvzU1az",
        "reception_time": "2022-01-20T00:30:12.727-00:00",
        "included_in_blocks":
          [ "BMGa1zQ8BeZpvPFEJCf3f5cKfamuSjbEaRDp6NE4woF2HqPGeuo" ] },
      { "delegate": "tz1NSDFKuRyzHxpfG1AMkyCwEiZ52cbR2mRW",
        "reception_time": "2022-01-20T00:30:12.732-00:00",
        "included_in_blocks":
          [ "BMGa1zQ8BeZpvPFEJCf3f5cKfamuSjbEaRDp6NE4woF2HqPGeuo" ] },
      { "delegate": "tz1TRqbYbUf2GyrjErf3hBzgBJPzW8y36qEs",
        "reception_time": "2022-01-20T00:30:12.747-00:00",
        "included_in_blocks":
          [ "BMGa1zQ8BeZpvPFEJCf3f5cKfamuSjbEaRDp6NE4woF2HqPGeuo" ] },
      { "delegate": "tz3WMqdzXqRWXwyvj5Hp2H7QEepaUuS7vd9K",
        "reception_time": "2022-01-20T00:30:12.837-00:00",
        "included_in_blocks":
          [ "BMGa1zQ8BeZpvPFEJCf3f5cKfamuSjbEaRDp6NE4woF2HqPGeuo" ] },
      { "delegate": "tz1WnfXMPaNTBmH7DBPwqCWs9cPDJdkGBTZ8",
        "reception_time": "2022-01-20T00:30:12.882-00:00",
        "included_in_blocks":
          [ "BMGa1zQ8BeZpvPFEJCf3f5cKfamuSjbEaRDp6NE4woF2HqPGeuo" ] },
      { "delegate": "tz1iPHM2Xx2hwmzcr1EG1zzrV6oKafVoA91m",
        "reception_time": "2022-01-20T00:30:12.930-00:00",
        "included_in_blocks":
          [ "BMGa1zQ8BeZpvPFEJCf3f5cKfamuSjbEaRDp6NE4woF2HqPGeuo" ] },
      { "delegate": "tz3NExpXn9aPNZPorRE4SdjJ2RGrfbJgMAaV",
        "reception_time": "2022-01-20T00:30:12.936-00:00",
        "included_in_blocks":
          [ "BMGa1zQ8BeZpvPFEJCf3f5cKfamuSjbEaRDp6NE4woF2HqPGeuo" ] },
      { "delegate": "tz3VEZ4k6a4Wx42iyev6i2aVAptTRLEAivNN",
        "reception_time": "2022-01-20T00:30:13.109-00:00",
        "included_in_blocks":
          [ "BMGa1zQ8BeZpvPFEJCf3f5cKfamuSjbEaRDp6NE4woF2HqPGeuo" ] },
      { "delegate": "tz1Zdk8q7wNasmv7VFeQ6QFwcw5fP2c7StoF",
        "reception_time": "2022-01-20T00:30:13.265-00:00",
        "included_in_blocks":
          [ "BMGa1zQ8BeZpvPFEJCf3f5cKfamuSjbEaRDp6NE4woF2HqPGeuo" ] },
      { "delegate": "tz1f3Re8iw6Pt3KMHAvyccHxDU3NuqL95axD",
        "reception_time": "2022-01-20T00:30:13.694-00:00",
        "included_in_blocks":
          [ "BMGa1zQ8BeZpvPFEJCf3f5cKfamuSjbEaRDp6NE4woF2HqPGeuo" ] },
      { "delegate": "tz1LmaFsWRkjr7QMCx5PtV6xTUz3AmEpKQiF",
        "reception_time": "2022-01-20T00:30:13.727-00:00",
        "included_in_blocks":
          [ "BMGa1zQ8BeZpvPFEJCf3f5cKfamuSjbEaRDp6NE4woF2HqPGeuo" ] },
      { "delegate": "tz1M1gA1hgmmLf8VvtAwupbWCkaciQZMFbvi",
        "reception_time": "2022-01-20T00:30:14.437-00:00",
        "included_in_blocks":
          [ "BMGa1zQ8BeZpvPFEJCf3f5cKfamuSjbEaRDp6NE4woF2HqPGeuo" ] },
      { "delegate": "tz1aNPWn5jgLBpEGFABKM161eeeLVVJxgYME",
        "reception_time": "2022-01-20T00:30:14.457-00:00",
        "included_in_blocks":
          [ "BMGa1zQ8BeZpvPFEJCf3f5cKfamuSjbEaRDp6NE4woF2HqPGeuo" ] },
      { "delegate": "tz1bTpviNnyx2PXsNmGpCQTMQsGoYordkUoA",
        "reception_time": "2022-01-20T00:30:14.748-00:00",
        "included_in_blocks":
          [ "BMGa1zQ8BeZpvPFEJCf3f5cKfamuSjbEaRDp6NE4woF2HqPGeuo" ] },
      { "delegate": "tz3UoffC7FG7zfpmvmjUmUeAaHvzdcUvAj6r",
        "reception_time": "2022-01-20T00:30:14.956-00:00",
        "included_in_blocks":
          [ "BMGa1zQ8BeZpvPFEJCf3f5cKfamuSjbEaRDp6NE4woF2HqPGeuo" ] },
      { "delegate": "tz1SUgyRB8T5jXgXAwS33pgRHAKrafyg87Yc",
        "reception_time": "2022-01-20T00:30:15.412-00:00",
        "included_in_blocks":
          [ "BMGa1zQ8BeZpvPFEJCf3f5cKfamuSjbEaRDp6NE4woF2HqPGeuo" ] },
      { "delegate": "tz1g8vkmcde6sWKaG2NN9WKzCkDM6Rziq194",
        "reception_time": "2022-01-20T00:30:16.510-00:00",
        "included_in_blocks":
          [ "BMGa1zQ8BeZpvPFEJCf3f5cKfamuSjbEaRDp6NE4woF2HqPGeuo" ] },
      { "delegate": "tz1aRoaRhSpRYvFdyvgWLL6TGyRoGF51wDjM",
        "reception_time": "2022-01-20T00:30:16.530-00:00",
        "included_in_blocks":
          [ "BMGa1zQ8BeZpvPFEJCf3f5cKfamuSjbEaRDp6NE4woF2HqPGeuo" ] } ] }