{ "blocks":
    [ { "hash": "BLcoNPiU9H4HkAw2d5rwPDBWZ8YcXNBz1m9jnPb65WW9NxWpKC7",
        "delegate": "tz1Nf6tsK4G6bBqgSQERy4nUtkHNKUVdh7q1",
        "reception_time": "2022-01-20T09:40:21.151-00:00",
        "timestamp": "2022-01-20T09:40:10Z" } ],
  "endorsements":
    [ { "delegate": "tz1RV1MBbZMR68tacosb7Mwj6LkbPSUS1er1" },
      { "delegate": "tz1RjoHc98dBoqaH2jawF62XNKh7YsHwbkEv" },
      { "delegate": "tz1W5VkdB5s7ENMESVBtwyt9kyvLqPcUczRT" },
      { "delegate": "tz1awXW7wuXy21c66vBudMXQVAPgRnqqwgTH" },
      { "delegate": "tz1fJHFn6sWEd3NnBPngACuw2dggTv6nQZ7g" },
      { "delegate": "tz1WCd2jm4uSt4vntk4vSuUWoZQGhLcDuR9q",
        "reception_time": "2022-01-20T09:40:24.462-00:00",
        "included_in_blocks":
          [ "BMeB2KHzwcHK3rPYsJnbfiF3U27P1MfUcsUnrWnWNqrLT8tuv2m" ] },
      { "delegate": "tz1VQnqCCqX4K5sP3FNkVSNKTdCAMJDd3E1n",
        "reception_time": "2022-01-20T09:40:24.462-00:00",
        "included_in_blocks":
          [ "BMeB2KHzwcHK3rPYsJnbfiF3U27P1MfUcsUnrWnWNqrLT8tuv2m" ] },
      { "delegate": "tz1irJKkXS2DBWkU1NnmFQx1c1L7pbGg4yhk",
        "reception_time": "2022-01-20T09:40:24.466-00:00",
        "included_in_blocks":
          [ "BMeB2KHzwcHK3rPYsJnbfiF3U27P1MfUcsUnrWnWNqrLT8tuv2m" ] },
      { "delegate": "tz1Lhf4J9Qxoe3DZ2nfe8FGDnvVj7oKjnMY6",
        "reception_time": "2022-01-20T09:40:24.469-00:00",
        "included_in_blocks":
          [ "BMeB2KHzwcHK3rPYsJnbfiF3U27P1MfUcsUnrWnWNqrLT8tuv2m" ] },
      { "delegate": "tz1gUNyn3hmnEWqkusWPzxRaon1cs7ndWh7h",
        "reception_time": "2022-01-20T09:40:24.473-00:00",
        "included_in_blocks":
          [ "BMeB2KHzwcHK3rPYsJnbfiF3U27P1MfUcsUnrWnWNqrLT8tuv2m" ] },
      { "delegate": "tz1eEnQhbwf6trb8Q8mPb2RaPkNk2rN7BKi8",
        "reception_time": "2022-01-20T09:40:24.476-00:00",
        "included_in_blocks":
          [ "BMeB2KHzwcHK3rPYsJnbfiF3U27P1MfUcsUnrWnWNqrLT8tuv2m" ] },
      { "delegate": "tz1aXD7Jigrt3PBYSpHSg5Rr33SexMmmM5Ys",
        "reception_time": "2022-01-20T09:40:24.480-00:00",
        "included_in_blocks":
          [ "BMeB2KHzwcHK3rPYsJnbfiF3U27P1MfUcsUnrWnWNqrLT8tuv2m" ] },
      { "delegate": "tz1Scdr2HsZiQjc7bHMeBbmDRXYVvdhjJbBh",
        "reception_time": "2022-01-20T09:40:24.483-00:00",
        "included_in_blocks":
          [ "BMeB2KHzwcHK3rPYsJnbfiF3U27P1MfUcsUnrWnWNqrLT8tuv2m" ] },
      { "delegate": "tz1TEc75UKXv4W5cwi14Na3NtqFD51yKQi7h",
        "reception_time": "2022-01-20T09:40:24.487-00:00",
        "included_in_blocks":
          [ "BMeB2KHzwcHK3rPYsJnbfiF3U27P1MfUcsUnrWnWNqrLT8tuv2m" ] },
      { "delegate": "tz1beersuEDv8Z7ngQ825xfbaJNS2EhXnyHR",
        "reception_time": "2022-01-20T09:40:24.489-00:00",
        "included_in_blocks":
          [ "BMeB2KHzwcHK3rPYsJnbfiF3U27P1MfUcsUnrWnWNqrLT8tuv2m" ] },
      { "delegate": "tz1P2Po7YM526ughEsRbY4oR9zaUPDZjxFrb",
        "reception_time": "2022-01-20T09:40:24.491-00:00",
        "included_in_blocks":
          [ "BMeB2KHzwcHK3rPYsJnbfiF3U27P1MfUcsUnrWnWNqrLT8tuv2m" ] },
      { "delegate": "tz1aDiEJf9ztRrAJEXZfcG3CKimoKsGhwVAi",
        "reception_time": "2022-01-20T09:40:24.494-00:00",
        "included_in_blocks":
          [ "BMeB2KHzwcHK3rPYsJnbfiF3U27P1MfUcsUnrWnWNqrLT8tuv2m" ] },
      { "delegate": "tz1Nf6tsK4G6bBqgSQERy4nUtkHNKUVdh7q1",
        "reception_time": "2022-01-20T09:40:24.496-00:00",
        "included_in_blocks":
          [ "BMeB2KHzwcHK3rPYsJnbfiF3U27P1MfUcsUnrWnWNqrLT8tuv2m" ] },
      { "delegate": "tz1ei4WtWEMEJekSv8qDnu9PExG6Q8HgRGr3",
        "reception_time": "2022-01-20T09:40:24.514-00:00",
        "included_in_blocks":
          [ "BMeB2KHzwcHK3rPYsJnbfiF3U27P1MfUcsUnrWnWNqrLT8tuv2m" ] },
      { "delegate": "tz1Ldzz6k1BHdhuKvAtMRX7h5kJSMHESMHLC",
        "reception_time": "2022-01-20T09:40:24.517-00:00",
        "included_in_blocks":
          [ "BMeB2KHzwcHK3rPYsJnbfiF3U27P1MfUcsUnrWnWNqrLT8tuv2m" ] },
      { "delegate": "tz3gtoUxdudfBRcNY7iVdKPHCYYX6xdPpoRS",
        "reception_time": "2022-01-20T09:40:24.523-00:00",
        "included_in_blocks":
          [ "BMeB2KHzwcHK3rPYsJnbfiF3U27P1MfUcsUnrWnWNqrLT8tuv2m" ] },
      { "delegate": "tz1KfEsrtDaA1sX7vdM4qmEPWuSytuqCDp5j",
        "reception_time": "2022-01-20T09:40:24.646-00:00",
        "included_in_blocks":
          [ "BMeB2KHzwcHK3rPYsJnbfiF3U27P1MfUcsUnrWnWNqrLT8tuv2m" ] },
      { "delegate": "tz3iJu5vrKZcsqRPs8yJ61UDoeEXZmtro4qh",
        "reception_time": "2022-01-20T09:40:24.657-00:00",
        "included_in_blocks":
          [ "BMeB2KHzwcHK3rPYsJnbfiF3U27P1MfUcsUnrWnWNqrLT8tuv2m" ] },
      { "delegate": "tz3hw2kqXhLUvY65ca1eety2oQTpAvd34R9Q",
        "reception_time": "2022-01-20T09:40:24.667-00:00",
        "included_in_blocks":
          [ "BMeB2KHzwcHK3rPYsJnbfiF3U27P1MfUcsUnrWnWNqrLT8tuv2m" ] },
      { "delegate": "tz1ajgycuHmd2z2JbTSJxKv7x6cok2KuNSk1",
        "reception_time": "2022-01-20T09:40:24.667-00:00",
        "included_in_blocks":
          [ "BMeB2KHzwcHK3rPYsJnbfiF3U27P1MfUcsUnrWnWNqrLT8tuv2m" ] },
      { "delegate": "tz3S6BBeKgJGXxvLyZ1xzXzMPn11nnFtq5L9",
        "reception_time": "2022-01-20T09:40:24.679-00:00",
        "included_in_blocks":
          [ "BMeB2KHzwcHK3rPYsJnbfiF3U27P1MfUcsUnrWnWNqrLT8tuv2m" ] },
      { "delegate": "tz3NxTnke1acr8o3h5y9ytf5awQBGNJUKzVU",
        "reception_time": "2022-01-20T09:40:24.679-00:00",
        "included_in_blocks":
          [ "BMeB2KHzwcHK3rPYsJnbfiF3U27P1MfUcsUnrWnWNqrLT8tuv2m" ] },
      { "delegate": "tz3ZbP2pM3nwvXztbuMJwJnDvV5xdpU8UkkD",
        "reception_time": "2022-01-20T09:40:24.693-00:00",
        "included_in_blocks":
          [ "BMeB2KHzwcHK3rPYsJnbfiF3U27P1MfUcsUnrWnWNqrLT8tuv2m" ] },
      { "delegate": "tz3QT9dHYKDqh563chVa6za8526ys1UKfRfL",
        "reception_time": "2022-01-20T09:40:24.693-00:00",
        "included_in_blocks":
          [ "BMeB2KHzwcHK3rPYsJnbfiF3U27P1MfUcsUnrWnWNqrLT8tuv2m" ] },
      { "delegate": "tz1SYq214SCBy9naR6cvycQsYcUGpBqQAE8d",
        "reception_time": "2022-01-20T09:40:24.695-00:00",
        "included_in_blocks":
          [ "BMeB2KHzwcHK3rPYsJnbfiF3U27P1MfUcsUnrWnWNqrLT8tuv2m" ] },
      { "delegate": "tz3RKYFsLuQzKBtmYuLNas7uMu3AsYd4QdsA",
        "reception_time": "2022-01-20T09:40:24.703-00:00",
        "included_in_blocks":
          [ "BMeB2KHzwcHK3rPYsJnbfiF3U27P1MfUcsUnrWnWNqrLT8tuv2m" ] },
      { "delegate": "tz1gfArv665EUkSg2ojMBzcbfwuPxAvqPvjo",
        "reception_time": "2022-01-20T09:40:24.703-00:00",
        "included_in_blocks":
          [ "BMeB2KHzwcHK3rPYsJnbfiF3U27P1MfUcsUnrWnWNqrLT8tuv2m" ] },
      { "delegate": "tz1NEKxGEHsFufk87CVZcrqWu8o22qh46GK6",
        "reception_time": "2022-01-20T09:40:24.708-00:00",
        "included_in_blocks":
          [ "BMeB2KHzwcHK3rPYsJnbfiF3U27P1MfUcsUnrWnWNqrLT8tuv2m" ] },
      { "delegate": "tz1TRspM5SeZpaQUhzByXbEvqKF1vnCM2YTK",
        "reception_time": "2022-01-20T09:40:24.708-00:00",
        "included_in_blocks":
          [ "BMeB2KHzwcHK3rPYsJnbfiF3U27P1MfUcsUnrWnWNqrLT8tuv2m" ] },
      { "delegate": "tz1RCFbB9GpALpsZtu6J58sb74dm8qe6XBzv",
        "reception_time": "2022-01-20T09:40:24.711-00:00",
        "included_in_blocks":
          [ "BMeB2KHzwcHK3rPYsJnbfiF3U27P1MfUcsUnrWnWNqrLT8tuv2m" ] },
      { "delegate": "tz3Zhs2dygr55yHyQyKjntAtY9bgfhLZ4Xj1",
        "reception_time": "2022-01-20T09:40:24.718-00:00",
        "included_in_blocks":
          [ "BMeB2KHzwcHK3rPYsJnbfiF3U27P1MfUcsUnrWnWNqrLT8tuv2m" ] },
      { "delegate": "tz3QSGPoRp3Kn7n3vY24eYeu3Peuqo45LQ4D",
        "reception_time": "2022-01-20T09:40:24.725-00:00",
        "included_in_blocks":
          [ "BMeB2KHzwcHK3rPYsJnbfiF3U27P1MfUcsUnrWnWNqrLT8tuv2m" ] },
      { "delegate": "tz2FCNBrERXtaTtNX6iimR1UJ5JSDxvdHM93",
        "reception_time": "2022-01-20T09:40:24.735-00:00",
        "included_in_blocks":
          [ "BMeB2KHzwcHK3rPYsJnbfiF3U27P1MfUcsUnrWnWNqrLT8tuv2m" ] },
      { "delegate": "tz1Tnjaxk6tbAeC2TmMApPh8UsrEVQvhHvx5",
        "reception_time": "2022-01-20T09:40:24.785-00:00",
        "included_in_blocks":
          [ "BMeB2KHzwcHK3rPYsJnbfiF3U27P1MfUcsUnrWnWNqrLT8tuv2m" ] },
      { "delegate": "tz1dRKU4FQ9QRRQPdaH4zCR6gmCmXfcvcgtB",
        "reception_time": "2022-01-20T09:40:24.807-00:00",
        "included_in_blocks":
          [ "BMeB2KHzwcHK3rPYsJnbfiF3U27P1MfUcsUnrWnWNqrLT8tuv2m" ] },
      { "delegate": "tz1fPKAtsYydh4f1wfWNfeNxWYu72TmM48fu",
        "reception_time": "2022-01-20T09:40:24.860-00:00",
        "included_in_blocks":
          [ "BMeB2KHzwcHK3rPYsJnbfiF3U27P1MfUcsUnrWnWNqrLT8tuv2m" ] },
      { "delegate": "tz3RB4aoyjov4KEVRbuhvQ1CKJgBJMWhaeB8",
        "reception_time": "2022-01-20T09:40:24.954-00:00",
        "included_in_blocks":
          [ "BMeB2KHzwcHK3rPYsJnbfiF3U27P1MfUcsUnrWnWNqrLT8tuv2m" ] },
      { "delegate": "tz3bTdwZinP8U1JmSweNzVKhmwafqWmFWRfk",
        "reception_time": "2022-01-20T09:40:24.992-00:00",
        "included_in_blocks":
          [ "BMeB2KHzwcHK3rPYsJnbfiF3U27P1MfUcsUnrWnWNqrLT8tuv2m" ] },
      { "delegate": "tz1S8MNvuFEUsWgjHvi3AxibRBf388NhT1q2",
        "reception_time": "2022-01-20T09:40:25.082-00:00",
        "included_in_blocks":
          [ "BMeB2KHzwcHK3rPYsJnbfiF3U27P1MfUcsUnrWnWNqrLT8tuv2m" ] },
      { "delegate": "tz1iPHM2Xx2hwmzcr1EG1zzrV6oKafVoA91m",
        "reception_time": "2022-01-20T09:40:25.097-00:00",
        "included_in_blocks":
          [ "BMeB2KHzwcHK3rPYsJnbfiF3U27P1MfUcsUnrWnWNqrLT8tuv2m" ] },
      { "delegate": "tz1NdhRv643wLW6zCcRP3VfT24dvDnh7nuh9",
        "reception_time": "2022-01-20T09:40:25.134-00:00",
        "included_in_blocks":
          [ "BMeB2KHzwcHK3rPYsJnbfiF3U27P1MfUcsUnrWnWNqrLT8tuv2m" ] },
      { "delegate": "tz1T7duV5gZWSTq4YpBGbXNLTfznCLDrFxvs",
        "reception_time": "2022-01-20T09:40:25.140-00:00",
        "included_in_blocks":
          [ "BMeB2KHzwcHK3rPYsJnbfiF3U27P1MfUcsUnrWnWNqrLT8tuv2m" ] },
      { "delegate": "tz3RDC3Jdn4j15J7bBHZd29EUee9gVB1CxD9",
        "reception_time": "2022-01-20T09:40:25.170-00:00",
        "included_in_blocks":
          [ "BMeB2KHzwcHK3rPYsJnbfiF3U27P1MfUcsUnrWnWNqrLT8tuv2m" ] },
      { "delegate": "tz1TRqbYbUf2GyrjErf3hBzgBJPzW8y36qEs",
        "reception_time": "2022-01-20T09:40:25.225-00:00",
        "included_in_blocks":
          [ "BMeB2KHzwcHK3rPYsJnbfiF3U27P1MfUcsUnrWnWNqrLT8tuv2m" ] },
      { "delegate": "tz1cYufsxHXJcvANhvS55h3aY32a9BAFB494",
        "reception_time": "2022-01-20T09:40:25.452-00:00",
        "included_in_blocks":
          [ "BMeB2KHzwcHK3rPYsJnbfiF3U27P1MfUcsUnrWnWNqrLT8tuv2m" ] },
      { "delegate": "tz1WctSwL49BZtdWAQ75NY6vr4xsAx6oKdah",
        "reception_time": "2022-01-20T09:40:25.646-00:00",
        "included_in_blocks":
          [ "BMeB2KHzwcHK3rPYsJnbfiF3U27P1MfUcsUnrWnWNqrLT8tuv2m" ] },
      { "delegate": "tz3VEZ4k6a4Wx42iyev6i2aVAptTRLEAivNN",
        "reception_time": "2022-01-20T09:40:25.673-00:00",
        "included_in_blocks":
          [ "BMeB2KHzwcHK3rPYsJnbfiF3U27P1MfUcsUnrWnWNqrLT8tuv2m" ] },
      { "delegate": "tz1abmz7jiCV2GH2u81LRrGgAFFgvQgiDiaf",
        "reception_time": "2022-01-20T09:40:25.694-00:00",
        "included_in_blocks":
          [ "BMeB2KHzwcHK3rPYsJnbfiF3U27P1MfUcsUnrWnWNqrLT8tuv2m" ] },
      { "delegate": "tz3bvNMQ95vfAYtG8193ymshqjSvmxiCUuR5",
        "reception_time": "2022-01-20T09:40:25.748-00:00",
        "included_in_blocks":
          [ "BMeB2KHzwcHK3rPYsJnbfiF3U27P1MfUcsUnrWnWNqrLT8tuv2m" ] },
      { "delegate": "tz3WMqdzXqRWXwyvj5Hp2H7QEepaUuS7vd9K",
        "reception_time": "2022-01-20T09:40:25.764-00:00",
        "included_in_blocks":
          [ "BMeB2KHzwcHK3rPYsJnbfiF3U27P1MfUcsUnrWnWNqrLT8tuv2m" ] },
      { "delegate": "tz1ZcTRk5uxD86EFEn1vvNffWWqJy7q5eVhc",
        "reception_time": "2022-01-20T09:40:25.780-00:00",
        "included_in_blocks":
          [ "BMeB2KHzwcHK3rPYsJnbfiF3U27P1MfUcsUnrWnWNqrLT8tuv2m" ] },
      { "delegate": "tz1g8vkmcde6sWKaG2NN9WKzCkDM6Rziq194",
        "reception_time": "2022-01-20T09:40:25.804-00:00",
        "included_in_blocks":
          [ "BMeB2KHzwcHK3rPYsJnbfiF3U27P1MfUcsUnrWnWNqrLT8tuv2m" ] },
      { "delegate": "tz3gLTu4Yxj8tPAcriQVUdxv6BY9QyvzU1az",
        "reception_time": "2022-01-20T09:40:26.171-00:00",
        "included_in_blocks":
          [ "BMeB2KHzwcHK3rPYsJnbfiF3U27P1MfUcsUnrWnWNqrLT8tuv2m" ] },
      { "delegate": "tz3NDpRj6WBrJPikcPVHRBEjWKxFw3c6eQPS",
        "reception_time": "2022-01-20T09:40:26.198-00:00",
        "included_in_blocks":
          [ "BMeB2KHzwcHK3rPYsJnbfiF3U27P1MfUcsUnrWnWNqrLT8tuv2m" ] },
      { "delegate": "tz1TcH4Nb3aHNDJ7CGZhU7jgAK1BkSP4Lxds",
        "reception_time": "2022-01-20T09:40:26.254-00:00",
        "included_in_blocks":
          [ "BMeB2KHzwcHK3rPYsJnbfiF3U27P1MfUcsUnrWnWNqrLT8tuv2m" ] },
      { "delegate": "tz3UoffC7FG7zfpmvmjUmUeAaHvzdcUvAj6r",
        "reception_time": "2022-01-20T09:40:26.553-00:00",
        "included_in_blocks":
          [ "BMeB2KHzwcHK3rPYsJnbfiF3U27P1MfUcsUnrWnWNqrLT8tuv2m" ] },
      { "delegate": "tz1LmaFsWRkjr7QMCx5PtV6xTUz3AmEpKQiF",
        "reception_time": "2022-01-20T09:40:26.558-00:00",
        "included_in_blocks":
          [ "BMeB2KHzwcHK3rPYsJnbfiF3U27P1MfUcsUnrWnWNqrLT8tuv2m" ] },
      { "delegate": "tz3NExpXn9aPNZPorRE4SdjJ2RGrfbJgMAaV",
        "reception_time": "2022-01-20T09:40:27.082-00:00",
        "included_in_blocks":
          [ "BMeB2KHzwcHK3rPYsJnbfiF3U27P1MfUcsUnrWnWNqrLT8tuv2m" ] },
      { "delegate": "tz1UbFpJY5Hext38GisuaXQBkbzhaKJkxpEs",
        "reception_time": "2022-01-20T09:40:27.642-00:00",
        "included_in_blocks":
          [ "BMeB2KHzwcHK3rPYsJnbfiF3U27P1MfUcsUnrWnWNqrLT8tuv2m" ] },
      { "delegate": "tz1h4GUAMweP7SNWzDgvMk3yRCAZyaP1MxZq",
        "reception_time": "2022-01-20T09:40:27.933-00:00",
        "included_in_blocks":
          [ "BMeB2KHzwcHK3rPYsJnbfiF3U27P1MfUcsUnrWnWNqrLT8tuv2m" ] },
      { "delegate": "tz1aNPWn5jgLBpEGFABKM161eeeLVVJxgYME",
        "reception_time": "2022-01-20T09:40:28.679-00:00",
        "included_in_blocks":
          [ "BMeB2KHzwcHK3rPYsJnbfiF3U27P1MfUcsUnrWnWNqrLT8tuv2m" ] },
      { "delegate": "tz1aRoaRhSpRYvFdyvgWLL6TGyRoGF51wDjM",
        "reception_time": "2022-01-20T09:40:28.817-00:00",
        "included_in_blocks":
          [ "BMeB2KHzwcHK3rPYsJnbfiF3U27P1MfUcsUnrWnWNqrLT8tuv2m" ] },
      { "delegate": "tz1NpWrAyDL9k2Lmnyxcgr9xuJakbBxdq7FB",
        "reception_time": "2022-01-20T09:40:32.923-00:00",
        "included_in_blocks":
          [ "BMeB2KHzwcHK3rPYsJnbfiF3U27P1MfUcsUnrWnWNqrLT8tuv2m" ] } ] }