{ "blocks":
    [ { "hash": "BKjGcV8jhobPisHu8xVhCwqCSLVyX12DfDBS95dk1BWPivMTDVE",
        "delegate": "tz1gfArv665EUkSg2ojMBzcbfwuPxAvqPvjo",
        "reception_time": "2022-01-20T11:55:42.792-00:00",
        "timestamp": "2022-01-20T11:55:30Z" } ],
  "endorsements":
    [ { "delegate": "tz1TXzyaKUA8wsWefdSnyaYFnV2M3vCV7er9",
        "reception_time": "2022-01-20T11:55:42.611-00:00",
        "errors":
          [ { "kind": "temporary",
              "id": "proto.011-PtHangz2.prefilter.outdated_endorsement" } ],
        "included_in_blocks":
          [ "BLSUtvfoPx5GfZQ7P4iZRwMX1qHZSHyv7pzgAVfozePd9xs6naJ" ] },
      { "delegate": "tz1irJKkXS2DBWkU1NnmFQx1c1L7pbGg4yhk",
        "reception_time": "2022-01-20T11:55:42.578-00:00",
        "errors":
          [ { "kind": "temporary",
              "id": "proto.011-PtHangz2.prefilter.outdated_endorsement" } ],
        "included_in_blocks":
          [ "BLSUtvfoPx5GfZQ7P4iZRwMX1qHZSHyv7pzgAVfozePd9xs6naJ" ] },
      { "delegate": "tz1XfAjZyaLdceHnZxbMYop7g7kWKPut4PR7",
        "reception_time": "2022-01-20T11:55:42.562-00:00",
        "errors":
          [ { "kind": "temporary",
              "id": "proto.011-PtHangz2.prefilter.outdated_endorsement" } ],
        "included_in_blocks":
          [ "BLSUtvfoPx5GfZQ7P4iZRwMX1qHZSHyv7pzgAVfozePd9xs6naJ" ] },
      { "delegate": "tz1P2Po7YM526ughEsRbY4oR9zaUPDZjxFrb",
        "reception_time": "2022-01-20T11:55:42.517-00:00",
        "errors":
          [ { "kind": "temporary",
              "id": "proto.011-PtHangz2.prefilter.outdated_endorsement" } ],
        "included_in_blocks":
          [ "BLSUtvfoPx5GfZQ7P4iZRwMX1qHZSHyv7pzgAVfozePd9xs6naJ" ] },
      { "delegate": "tz1gUNyn3hmnEWqkusWPzxRaon1cs7ndWh7h",
        "reception_time": "2022-01-20T11:55:42.306-00:00",
        "errors":
          [ { "kind": "temporary",
              "id": "proto.011-PtHangz2.prefilter.outdated_endorsement" } ],
        "included_in_blocks":
          [ "BLSUtvfoPx5GfZQ7P4iZRwMX1qHZSHyv7pzgAVfozePd9xs6naJ" ] },
      { "delegate": "tz1VQnqCCqX4K5sP3FNkVSNKTdCAMJDd3E1n",
        "reception_time": "2022-01-20T11:55:42.301-00:00",
        "errors":
          [ { "kind": "temporary",
              "id": "proto.011-PtHangz2.prefilter.outdated_endorsement" } ],
        "included_in_blocks":
          [ "BLSUtvfoPx5GfZQ7P4iZRwMX1qHZSHyv7pzgAVfozePd9xs6naJ" ] },
      { "delegate": "tz1VmiY38m3y95HqQLjMwqnMS7sdMfGomzKi",
        "reception_time": "2022-01-20T11:55:42.255-00:00",
        "errors":
          [ { "kind": "temporary",
              "id": "proto.011-PtHangz2.prefilter.outdated_endorsement" } ],
        "included_in_blocks":
          [ "BLSUtvfoPx5GfZQ7P4iZRwMX1qHZSHyv7pzgAVfozePd9xs6naJ" ] },
      { "delegate": "tz1aKxnrzx5PXZJe7unufEswVRCMU9yafmfb",
        "reception_time": "2022-01-20T11:55:42.048-00:00",
        "errors":
          [ { "kind": "temporary",
              "id": "proto.011-PtHangz2.prefilter.outdated_endorsement" } ],
        "included_in_blocks":
          [ "BLSUtvfoPx5GfZQ7P4iZRwMX1qHZSHyv7pzgAVfozePd9xs6naJ" ] },
      { "delegate": "tz1gfArv665EUkSg2ojMBzcbfwuPxAvqPvjo",
        "reception_time": "2022-01-20T11:55:41.201-00:00",
        "errors":
          [ { "kind": "temporary",
              "id": "proto.011-PtHangz2.prefilter.outdated_endorsement" } ],
        "included_in_blocks":
          [ "BLSUtvfoPx5GfZQ7P4iZRwMX1qHZSHyv7pzgAVfozePd9xs6naJ" ] },
      { "delegate": "tz1RjoHc98dBoqaH2jawF62XNKh7YsHwbkEv" },
      { "delegate": "tz1UXkfg971HYuvsZG5x66fnMjrGxHKeZWPU" },
      { "delegate": "tz1awXW7wuXy21c66vBudMXQVAPgRnqqwgTH" },
      { "delegate": "tz1fJHFn6sWEd3NnBPngACuw2dggTv6nQZ7g" },
      { "delegate": "tz1ibcPVGK4Y8pcW4BYUsojiHoBKnZbyDGrX" },
      { "delegate": "tz3adcvQaKXTCg12zbninqo3q8ptKKtDFTLv",
        "reception_time": "2022-01-20T11:55:45.221-00:00",
        "included_in_blocks":
          [ "BLSUtvfoPx5GfZQ7P4iZRwMX1qHZSHyv7pzgAVfozePd9xs6naJ" ] },
      { "delegate": "tz1Mc61yajNASzh5KWZFtYs4i7EJbzAxQC4K",
        "reception_time": "2022-01-20T11:55:45.221-00:00",
        "included_in_blocks":
          [ "BLSUtvfoPx5GfZQ7P4iZRwMX1qHZSHyv7pzgAVfozePd9xs6naJ" ] },
      { "delegate": "tz1WCd2jm4uSt4vntk4vSuUWoZQGhLcDuR9q",
        "reception_time": "2022-01-20T11:55:45.221-00:00",
        "included_in_blocks":
          [ "BLSUtvfoPx5GfZQ7P4iZRwMX1qHZSHyv7pzgAVfozePd9xs6naJ" ] },
      { "delegate": "tz1STeamwbp68THcny9zk3LsbG3H36DMvbRK",
        "reception_time": "2022-01-20T11:55:45.221-00:00",
        "included_in_blocks":
          [ "BLSUtvfoPx5GfZQ7P4iZRwMX1qHZSHyv7pzgAVfozePd9xs6naJ" ] },
      { "delegate": "tz1eEnQhbwf6trb8Q8mPb2RaPkNk2rN7BKi8",
        "reception_time": "2022-01-20T11:55:45.221-00:00",
        "included_in_blocks":
          [ "BLSUtvfoPx5GfZQ7P4iZRwMX1qHZSHyv7pzgAVfozePd9xs6naJ" ] },
      { "delegate": "tz1Ldzz6k1BHdhuKvAtMRX7h5kJSMHESMHLC",
        "reception_time": "2022-01-20T11:55:45.221-00:00",
        "included_in_blocks":
          [ "BLSUtvfoPx5GfZQ7P4iZRwMX1qHZSHyv7pzgAVfozePd9xs6naJ" ] },
      { "delegate": "tz1PWCDnz783NNGGQjEFFsHtrcK5yBW4E2rm",
        "reception_time": "2022-01-20T11:55:45.512-00:00",
        "included_in_blocks":
          [ "BLSUtvfoPx5GfZQ7P4iZRwMX1qHZSHyv7pzgAVfozePd9xs6naJ" ] },
      { "delegate": "tz1Kt4P8BCaP93AEV4eA7gmpRryWt5hznjCP",
        "reception_time": "2022-01-20T11:55:45.512-00:00",
        "included_in_blocks":
          [ "BLSUtvfoPx5GfZQ7P4iZRwMX1qHZSHyv7pzgAVfozePd9xs6naJ" ] },
      { "delegate": "tz1ei4WtWEMEJekSv8qDnu9PExG6Q8HgRGr3",
        "reception_time": "2022-01-20T11:55:45.512-00:00",
        "included_in_blocks":
          [ "BLSUtvfoPx5GfZQ7P4iZRwMX1qHZSHyv7pzgAVfozePd9xs6naJ" ] },
      { "delegate": "tz3hw2kqXhLUvY65ca1eety2oQTpAvd34R9Q",
        "reception_time": "2022-01-20T11:55:46.022-00:00",
        "included_in_blocks":
          [ "BLSUtvfoPx5GfZQ7P4iZRwMX1qHZSHyv7pzgAVfozePd9xs6naJ" ] },
      { "delegate": "tz1Nf6tsK4G6bBqgSQERy4nUtkHNKUVdh7q1",
        "reception_time": "2022-01-20T11:55:46.022-00:00",
        "included_in_blocks":
          [ "BLSUtvfoPx5GfZQ7P4iZRwMX1qHZSHyv7pzgAVfozePd9xs6naJ" ] },
      { "delegate": "tz1KfEsrtDaA1sX7vdM4qmEPWuSytuqCDp5j",
        "reception_time": "2022-01-20T11:55:46.022-00:00",
        "included_in_blocks":
          [ "BLSUtvfoPx5GfZQ7P4iZRwMX1qHZSHyv7pzgAVfozePd9xs6naJ" ] },
      { "delegate": "tz3iJu5vrKZcsqRPs8yJ61UDoeEXZmtro4qh",
        "reception_time": "2022-01-20T11:55:46.022-00:00",
        "included_in_blocks":
          [ "BLSUtvfoPx5GfZQ7P4iZRwMX1qHZSHyv7pzgAVfozePd9xs6naJ" ] },
      { "delegate": "tz3gtoUxdudfBRcNY7iVdKPHCYYX6xdPpoRS",
        "reception_time": "2022-01-20T11:55:46.022-00:00",
        "included_in_blocks":
          [ "BLSUtvfoPx5GfZQ7P4iZRwMX1qHZSHyv7pzgAVfozePd9xs6naJ" ] },
      { "delegate": "tz3ZbP2pM3nwvXztbuMJwJnDvV5xdpU8UkkD",
        "reception_time": "2022-01-20T11:55:46.022-00:00",
        "included_in_blocks":
          [ "BLSUtvfoPx5GfZQ7P4iZRwMX1qHZSHyv7pzgAVfozePd9xs6naJ" ] },
      { "delegate": "tz3NxTnke1acr8o3h5y9ytf5awQBGNJUKzVU",
        "reception_time": "2022-01-20T11:55:46.022-00:00",
        "included_in_blocks":
          [ "BLSUtvfoPx5GfZQ7P4iZRwMX1qHZSHyv7pzgAVfozePd9xs6naJ" ] },
      { "delegate": "tz1TRspM5SeZpaQUhzByXbEvqKF1vnCM2YTK",
        "reception_time": "2022-01-20T11:55:46.022-00:00",
        "included_in_blocks":
          [ "BLSUtvfoPx5GfZQ7P4iZRwMX1qHZSHyv7pzgAVfozePd9xs6naJ" ] },
      { "delegate": "tz1TKdBNQTFf3DqMga3z2h4MfYv1tPxdDMm4",
        "reception_time": "2022-01-20T11:55:46.022-00:00",
        "included_in_blocks":
          [ "BLSUtvfoPx5GfZQ7P4iZRwMX1qHZSHyv7pzgAVfozePd9xs6naJ" ] },
      { "delegate": "tz3QSGPoRp3Kn7n3vY24eYeu3Peuqo45LQ4D",
        "reception_time": "2022-01-20T11:55:46.022-00:00",
        "included_in_blocks":
          [ "BLSUtvfoPx5GfZQ7P4iZRwMX1qHZSHyv7pzgAVfozePd9xs6naJ" ] },
      { "delegate": "tz2FCNBrERXtaTtNX6iimR1UJ5JSDxvdHM93",
        "reception_time": "2022-01-20T11:55:46.022-00:00",
        "included_in_blocks":
          [ "BLSUtvfoPx5GfZQ7P4iZRwMX1qHZSHyv7pzgAVfozePd9xs6naJ" ] },
      { "delegate": "tz1UMCB2AHSTwG7YcGNr31CqYCtGN873royv",
        "reception_time": "2022-01-20T11:55:46.022-00:00",
        "included_in_blocks":
          [ "BLSUtvfoPx5GfZQ7P4iZRwMX1qHZSHyv7pzgAVfozePd9xs6naJ" ] },
      { "delegate": "tz3RKYFsLuQzKBtmYuLNas7uMu3AsYd4QdsA",
        "reception_time": "2022-01-20T11:55:46.022-00:00",
        "included_in_blocks":
          [ "BLSUtvfoPx5GfZQ7P4iZRwMX1qHZSHyv7pzgAVfozePd9xs6naJ" ] },
      { "delegate": "tz1KzSC1J9aBxKp7u8TUnpN8L7S65PBRkgdF",
        "reception_time": "2022-01-20T11:55:46.022-00:00",
        "included_in_blocks":
          [ "BLSUtvfoPx5GfZQ7P4iZRwMX1qHZSHyv7pzgAVfozePd9xs6naJ" ] },
      { "delegate": "tz3Zhs2dygr55yHyQyKjntAtY9bgfhLZ4Xj1",
        "reception_time": "2022-01-20T11:55:46.022-00:00",
        "included_in_blocks":
          [ "BLSUtvfoPx5GfZQ7P4iZRwMX1qHZSHyv7pzgAVfozePd9xs6naJ" ] },
      { "delegate": "tz1S8MNvuFEUsWgjHvi3AxibRBf388NhT1q2",
        "reception_time": "2022-01-20T11:55:46.022-00:00",
        "included_in_blocks":
          [ "BLSUtvfoPx5GfZQ7P4iZRwMX1qHZSHyv7pzgAVfozePd9xs6naJ" ] },
      { "delegate": "tz1dNVDWPf3Q59SdJqnjdnu277iyvReiRS9M",
        "reception_time": "2022-01-20T11:55:46.022-00:00",
        "included_in_blocks":
          [ "BLSUtvfoPx5GfZQ7P4iZRwMX1qHZSHyv7pzgAVfozePd9xs6naJ" ] },
      { "delegate": "tz1MQMiZHV8q4tTwUMWmS5Y3kaP6J2136iXr",
        "reception_time": "2022-01-20T11:55:46.022-00:00",
        "included_in_blocks":
          [ "BLSUtvfoPx5GfZQ7P4iZRwMX1qHZSHyv7pzgAVfozePd9xs6naJ" ] },
      { "delegate": "tz1fwnfJNgiDACshK9avfRfFbMaXrs3ghoJa",
        "reception_time": "2022-01-20T11:55:46.022-00:00",
        "included_in_blocks":
          [ "BLSUtvfoPx5GfZQ7P4iZRwMX1qHZSHyv7pzgAVfozePd9xs6naJ" ] },
      { "delegate": "tz1NEKxGEHsFufk87CVZcrqWu8o22qh46GK6",
        "reception_time": "2022-01-20T11:55:46.022-00:00",
        "included_in_blocks":
          [ "BLSUtvfoPx5GfZQ7P4iZRwMX1qHZSHyv7pzgAVfozePd9xs6naJ" ] },
      { "delegate": "tz1RCFbB9GpALpsZtu6J58sb74dm8qe6XBzv",
        "reception_time": "2022-01-20T11:55:46.022-00:00",
        "included_in_blocks":
          [ "BLSUtvfoPx5GfZQ7P4iZRwMX1qHZSHyv7pzgAVfozePd9xs6naJ" ] },
      { "delegate": "tz1T7duV5gZWSTq4YpBGbXNLTfznCLDrFxvs",
        "reception_time": "2022-01-20T11:55:46.022-00:00",
        "included_in_blocks":
          [ "BLSUtvfoPx5GfZQ7P4iZRwMX1qHZSHyv7pzgAVfozePd9xs6naJ" ] },
      { "delegate": "tz1Tnjaxk6tbAeC2TmMApPh8UsrEVQvhHvx5",
        "reception_time": "2022-01-20T11:55:46.022-00:00",
        "included_in_blocks":
          [ "BLSUtvfoPx5GfZQ7P4iZRwMX1qHZSHyv7pzgAVfozePd9xs6naJ" ] },
      { "delegate": "tz1SYq214SCBy9naR6cvycQsYcUGpBqQAE8d",
        "reception_time": "2022-01-20T11:55:46.022-00:00",
        "included_in_blocks":
          [ "BLSUtvfoPx5GfZQ7P4iZRwMX1qHZSHyv7pzgAVfozePd9xs6naJ" ] },
      { "delegate": "tz3bTdwZinP8U1JmSweNzVKhmwafqWmFWRfk",
        "reception_time": "2022-01-20T11:55:46.022-00:00",
        "included_in_blocks":
          [ "BLSUtvfoPx5GfZQ7P4iZRwMX1qHZSHyv7pzgAVfozePd9xs6naJ" ] },
      { "delegate": "tz1TRqbYbUf2GyrjErf3hBzgBJPzW8y36qEs",
        "reception_time": "2022-01-20T11:55:46.022-00:00",
        "included_in_blocks":
          [ "BLSUtvfoPx5GfZQ7P4iZRwMX1qHZSHyv7pzgAVfozePd9xs6naJ" ] },
      { "delegate": "tz1cM8Xc7ZP1TrjkTeKq4PeRhtbnwXSBR6Sw",
        "reception_time": "2022-01-20T11:55:46.022-00:00",
        "included_in_blocks":
          [ "BLSUtvfoPx5GfZQ7P4iZRwMX1qHZSHyv7pzgAVfozePd9xs6naJ" ] },
      { "delegate": "tz1NSDFKuRyzHxpfG1AMkyCwEiZ52cbR2mRW",
        "reception_time": "2022-01-20T11:55:46.022-00:00",
        "included_in_blocks":
          [ "BLSUtvfoPx5GfZQ7P4iZRwMX1qHZSHyv7pzgAVfozePd9xs6naJ" ] },
      { "delegate": "tz1abmz7jiCV2GH2u81LRrGgAFFgvQgiDiaf",
        "reception_time": "2022-01-20T11:55:46.022-00:00",
        "included_in_blocks":
          [ "BLSUtvfoPx5GfZQ7P4iZRwMX1qHZSHyv7pzgAVfozePd9xs6naJ" ] },
      { "delegate": "tz1PeZx7FXy7QRuMREGXGxeipb24RsMMzUNe",
        "reception_time": "2022-01-20T11:55:46.022-00:00",
        "included_in_blocks":
          [ "BLSUtvfoPx5GfZQ7P4iZRwMX1qHZSHyv7pzgAVfozePd9xs6naJ" ] },
      { "delegate": "tz1LmaFsWRkjr7QMCx5PtV6xTUz3AmEpKQiF",
        "reception_time": "2022-01-20T11:55:46.327-00:00",
        "included_in_blocks":
          [ "BLSUtvfoPx5GfZQ7P4iZRwMX1qHZSHyv7pzgAVfozePd9xs6naJ" ] },
      { "delegate": "tz1Zdk8q7wNasmv7VFeQ6QFwcw5fP2c7StoF",
        "reception_time": "2022-01-20T11:55:46.342-00:00",
        "included_in_blocks":
          [ "BLSUtvfoPx5GfZQ7P4iZRwMX1qHZSHyv7pzgAVfozePd9xs6naJ" ] },
      { "delegate": "tz3NDpRj6WBrJPikcPVHRBEjWKxFw3c6eQPS",
        "reception_time": "2022-01-20T11:55:46.349-00:00",
        "included_in_blocks":
          [ "BLSUtvfoPx5GfZQ7P4iZRwMX1qHZSHyv7pzgAVfozePd9xs6naJ" ] },
      { "delegate": "tz1aNPWn5jgLBpEGFABKM161eeeLVVJxgYME",
        "reception_time": "2022-01-20T11:55:46.407-00:00",
        "included_in_blocks":
          [ "BLSUtvfoPx5GfZQ7P4iZRwMX1qHZSHyv7pzgAVfozePd9xs6naJ" ] },
      { "delegate": "tz1aJS7Pk9uWR3wWyFf1i3RwhYxN84G7stom",
        "reception_time": "2022-01-20T11:55:46.409-00:00",
        "included_in_blocks":
          [ "BLSUtvfoPx5GfZQ7P4iZRwMX1qHZSHyv7pzgAVfozePd9xs6naJ" ] },
      { "delegate": "tz1ZcTRk5uxD86EFEn1vvNffWWqJy7q5eVhc",
        "reception_time": "2022-01-20T11:55:46.436-00:00",
        "included_in_blocks":
          [ "BLSUtvfoPx5GfZQ7P4iZRwMX1qHZSHyv7pzgAVfozePd9xs6naJ" ] },
      { "delegate": "tz3RDC3Jdn4j15J7bBHZd29EUee9gVB1CxD9",
        "reception_time": "2022-01-20T11:55:46.563-00:00",
        "included_in_blocks":
          [ "BLSUtvfoPx5GfZQ7P4iZRwMX1qHZSHyv7pzgAVfozePd9xs6naJ" ] },
      { "delegate": "tz1bxVgPCiveFHSand7zn22S8ZBtvNQbqgqU",
        "reception_time": "2022-01-20T11:55:46.597-00:00",
        "included_in_blocks":
          [ "BLSUtvfoPx5GfZQ7P4iZRwMX1qHZSHyv7pzgAVfozePd9xs6naJ" ] },
      { "delegate": "tz3bvNMQ95vfAYtG8193ymshqjSvmxiCUuR5",
        "reception_time": "2022-01-20T11:55:46.614-00:00",
        "included_in_blocks":
          [ "BLSUtvfoPx5GfZQ7P4iZRwMX1qHZSHyv7pzgAVfozePd9xs6naJ" ] },
      { "delegate": "tz3WMqdzXqRWXwyvj5Hp2H7QEepaUuS7vd9K",
        "reception_time": "2022-01-20T11:55:46.691-00:00",
        "included_in_blocks":
          [ "BLSUtvfoPx5GfZQ7P4iZRwMX1qHZSHyv7pzgAVfozePd9xs6naJ" ] },
      { "delegate": "tz1SohptP53wDPZhzTWzDUFAUcWF6DMBpaJV",
        "reception_time": "2022-01-20T11:55:46.725-00:00",
        "included_in_blocks":
          [ "BLSUtvfoPx5GfZQ7P4iZRwMX1qHZSHyv7pzgAVfozePd9xs6naJ" ] },
      { "delegate": "tz3RB4aoyjov4KEVRbuhvQ1CKJgBJMWhaeB8",
        "reception_time": "2022-01-20T11:55:46.858-00:00",
        "included_in_blocks":
          [ "BLSUtvfoPx5GfZQ7P4iZRwMX1qHZSHyv7pzgAVfozePd9xs6naJ" ] },
      { "delegate": "tz1NoYvKjXTzTk54VpLxBfouJ33J8jwKPPvw",
        "reception_time": "2022-01-20T11:55:47.043-00:00",
        "included_in_blocks":
          [ "BLSUtvfoPx5GfZQ7P4iZRwMX1qHZSHyv7pzgAVfozePd9xs6naJ" ] },
      { "delegate": "tz1WnfXMPaNTBmH7DBPwqCWs9cPDJdkGBTZ8",
        "reception_time": "2022-01-20T11:55:47.328-00:00",
        "included_in_blocks":
          [ "BLSUtvfoPx5GfZQ7P4iZRwMX1qHZSHyv7pzgAVfozePd9xs6naJ" ] },
      { "delegate": "tz3UoffC7FG7zfpmvmjUmUeAaHvzdcUvAj6r",
        "reception_time": "2022-01-20T11:55:47.376-00:00",
        "included_in_blocks":
          [ "BLSUtvfoPx5GfZQ7P4iZRwMX1qHZSHyv7pzgAVfozePd9xs6naJ" ] },
      { "delegate": "tz3NExpXn9aPNZPorRE4SdjJ2RGrfbJgMAaV",
        "reception_time": "2022-01-20T11:55:47.797-00:00",
        "included_in_blocks":
          [ "BLSUtvfoPx5GfZQ7P4iZRwMX1qHZSHyv7pzgAVfozePd9xs6naJ" ] },
      { "delegate": "tz1g8vkmcde6sWKaG2NN9WKzCkDM6Rziq194",
        "reception_time": "2022-01-20T11:55:47.802-00:00",
        "included_in_blocks":
          [ "BLSUtvfoPx5GfZQ7P4iZRwMX1qHZSHyv7pzgAVfozePd9xs6naJ" ] },
      { "delegate": "tz1aRoaRhSpRYvFdyvgWLL6TGyRoGF51wDjM",
        "reception_time": "2022-01-20T11:55:49.166-00:00",
        "included_in_blocks":
          [ "BLSUtvfoPx5GfZQ7P4iZRwMX1qHZSHyv7pzgAVfozePd9xs6naJ" ] },
      { "delegate": "tz1h4ar7F5wC6Ae2cfkrmrRP6nrPk9gGFaxg",
        "reception_time": "2022-01-20T11:55:49.717-00:00",
        "included_in_blocks":
          [ "BLSUtvfoPx5GfZQ7P4iZRwMX1qHZSHyv7pzgAVfozePd9xs6naJ" ] },
      { "delegate": "tz1YiuvpfeVAHbnU8akcWErNfQGFHNQ7F45z",
        "reception_time": "2022-01-20T11:55:50.455-00:00",
        "included_in_blocks":
          [ "BLSUtvfoPx5GfZQ7P4iZRwMX1qHZSHyv7pzgAVfozePd9xs6naJ" ] },
      { "delegate": "tz1a1J3AGjJTAyBqWWSqFuUazUDV2TtD6hMy",
        "reception_time": "2022-01-20T11:55:51.004-00:00",
        "included_in_blocks":
          [ "BLSUtvfoPx5GfZQ7P4iZRwMX1qHZSHyv7pzgAVfozePd9xs6naJ" ] },
      { "delegate": "tz1NpWrAyDL9k2Lmnyxcgr9xuJakbBxdq7FB",
        "reception_time": "2022-01-20T11:55:56.362-00:00",
        "included_in_blocks":
          [ "BLSUtvfoPx5GfZQ7P4iZRwMX1qHZSHyv7pzgAVfozePd9xs6naJ" ] } ] }