{ "blocks":
    [ { "hash": "BKpmRPwV38oAHfJuuc7YaWayK5mc8NAJwcNVKhruWtXrC3PPaAp",
        "delegate": "tz1VQnqCCqX4K5sP3FNkVSNKTdCAMJDd3E1n",
        "reception_time": "2022-01-20T09:20:06.117-00:00",
        "timestamp": "2022-01-20T09:20:00Z" } ],
  "endorsements":
    [ { "delegate": "tz1dbfppLAAxXZNtf2SDps7rch3qfUznKSoK" },
      { "delegate": "tz1awXW7wuXy21c66vBudMXQVAPgRnqqwgTH" },
      { "delegate": "tz1TeWzSWBNZ7PB6Kb6xUpGCT7pu13PFv3cv" },
      { "delegate": "tz1TEc75UKXv4W5cwi14Na3NtqFD51yKQi7h" },
      { "delegate": "tz1RjoHc98dBoqaH2jawF62XNKh7YsHwbkEv" },
      { "delegate": "tz1P2Po7YM526ughEsRbY4oR9zaUPDZjxFrb",
        "reception_time": "2022-01-20T09:20:05.846-00:00",
        "errors":
          [ { "kind": "temporary",
              "id": "proto.011-PtHangz2.prefilter.outdated_endorsement" } ],
        "included_in_blocks":
          [ "BMW5otr99NGFekugQiohuVPXWECgCmCuf7qUHJoXwYBk5brh9kG" ] },
      { "delegate": "tz1S8e9GgdZG78XJRB3NqabfWeM37GnhZMWQ",
        "reception_time": "2022-01-20T09:20:05.230-00:00",
        "errors":
          [ { "kind": "temporary",
              "id": "proto.011-PtHangz2.prefilter.outdated_endorsement" } ],
        "included_in_blocks":
          [ "BMW5otr99NGFekugQiohuVPXWECgCmCuf7qUHJoXwYBk5brh9kG" ] },
      { "delegate": "tz1LmaFsWRkjr7QMCx5PtV6xTUz3AmEpKQiF",
        "reception_time": "2022-01-20T09:20:15.041-00:00",
        "included_in_blocks":
          [ "BMW5otr99NGFekugQiohuVPXWECgCmCuf7qUHJoXwYBk5brh9kG" ] },
      { "delegate": "tz1aRoaRhSpRYvFdyvgWLL6TGyRoGF51wDjM",
        "reception_time": "2022-01-20T09:20:13.395-00:00",
        "included_in_blocks":
          [ "BMW5otr99NGFekugQiohuVPXWECgCmCuf7qUHJoXwYBk5brh9kG" ] },
      { "delegate": "tz3UoffC7FG7zfpmvmjUmUeAaHvzdcUvAj6r",
        "reception_time": "2022-01-20T09:20:11.484-00:00",
        "included_in_blocks":
          [ "BMW5otr99NGFekugQiohuVPXWECgCmCuf7qUHJoXwYBk5brh9kG" ] },
      { "delegate": "tz3NExpXn9aPNZPorRE4SdjJ2RGrfbJgMAaV",
        "reception_time": "2022-01-20T09:20:10.962-00:00",
        "included_in_blocks":
          [ "BMW5otr99NGFekugQiohuVPXWECgCmCuf7qUHJoXwYBk5brh9kG" ] },
      { "delegate": "tz1ZcTRk5uxD86EFEn1vvNffWWqJy7q5eVhc",
        "reception_time": "2022-01-20T09:20:10.011-00:00",
        "included_in_blocks":
          [ "BMW5otr99NGFekugQiohuVPXWECgCmCuf7qUHJoXwYBk5brh9kG" ] },
      { "delegate": "tz1f3Re8iw6Pt3KMHAvyccHxDU3NuqL95axD",
        "reception_time": "2022-01-20T09:20:10.537-00:00",
        "included_in_blocks":
          [ "BMW5otr99NGFekugQiohuVPXWECgCmCuf7qUHJoXwYBk5brh9kG" ] },
      { "delegate": "tz3RDC3Jdn4j15J7bBHZd29EUee9gVB1CxD9",
        "reception_time": "2022-01-20T09:20:09.977-00:00",
        "included_in_blocks":
          [ "BMW5otr99NGFekugQiohuVPXWECgCmCuf7qUHJoXwYBk5brh9kG" ] },
      { "delegate": "tz3gLTu4Yxj8tPAcriQVUdxv6BY9QyvzU1az",
        "reception_time": "2022-01-20T09:20:09.897-00:00",
        "included_in_blocks":
          [ "BMW5otr99NGFekugQiohuVPXWECgCmCuf7qUHJoXwYBk5brh9kG" ] },
      { "delegate": "tz3bvNMQ95vfAYtG8193ymshqjSvmxiCUuR5",
        "reception_time": "2022-01-20T09:20:09.996-00:00",
        "included_in_blocks":
          [ "BMW5otr99NGFekugQiohuVPXWECgCmCuf7qUHJoXwYBk5brh9kG" ] },
      { "delegate": "tz1cYufsxHXJcvANhvS55h3aY32a9BAFB494",
        "reception_time": "2022-01-20T09:20:09.375-00:00",
        "included_in_blocks":
          [ "BMW5otr99NGFekugQiohuVPXWECgCmCuf7qUHJoXwYBk5brh9kG" ] },
      { "delegate": "tz3WMqdzXqRWXwyvj5Hp2H7QEepaUuS7vd9K",
        "reception_time": "2022-01-20T09:20:09.929-00:00",
        "included_in_blocks":
          [ "BMW5otr99NGFekugQiohuVPXWECgCmCuf7qUHJoXwYBk5brh9kG" ] },
      { "delegate": "tz1abmz7jiCV2GH2u81LRrGgAFFgvQgiDiaf",
        "reception_time": "2022-01-20T09:20:09.229-00:00",
        "included_in_blocks":
          [ "BMW5otr99NGFekugQiohuVPXWECgCmCuf7qUHJoXwYBk5brh9kG" ] },
      { "delegate": "tz3VEZ4k6a4Wx42iyev6i2aVAptTRLEAivNN",
        "reception_time": "2022-01-20T09:20:09.948-00:00",
        "included_in_blocks":
          [ "BMW5otr99NGFekugQiohuVPXWECgCmCuf7qUHJoXwYBk5brh9kG" ] },
      { "delegate": "tz1bxVgPCiveFHSand7zn22S8ZBtvNQbqgqU",
        "reception_time": "2022-01-20T09:20:09.034-00:00",
        "included_in_blocks":
          [ "BMW5otr99NGFekugQiohuVPXWECgCmCuf7qUHJoXwYBk5brh9kG" ] },
      { "delegate": "tz3RB4aoyjov4KEVRbuhvQ1CKJgBJMWhaeB8",
        "reception_time": "2022-01-20T09:20:08.983-00:00",
        "included_in_blocks":
          [ "BMW5otr99NGFekugQiohuVPXWECgCmCuf7qUHJoXwYBk5brh9kG" ] },
      { "delegate": "tz1fZ767VDbqx4DeKiFswPSHh513f51mKEUZ",
        "reception_time": "2022-01-20T09:20:09.158-00:00",
        "included_in_blocks":
          [ "BMW5otr99NGFekugQiohuVPXWECgCmCuf7qUHJoXwYBk5brh9kG" ] },
      { "delegate": "tz1WBfwbT66FC6BTLexc2BoyCCBM9LG7pnVW",
        "reception_time": "2022-01-20T09:20:09.083-00:00",
        "included_in_blocks":
          [ "BMW5otr99NGFekugQiohuVPXWECgCmCuf7qUHJoXwYBk5brh9kG" ] },
      { "delegate": "tz1gfArv665EUkSg2ojMBzcbfwuPxAvqPvjo",
        "reception_time": "2022-01-20T09:20:09.165-00:00",
        "included_in_blocks":
          [ "BMW5otr99NGFekugQiohuVPXWECgCmCuf7qUHJoXwYBk5brh9kG" ] },
      { "delegate": "tz1fwnfJNgiDACshK9avfRfFbMaXrs3ghoJa",
        "reception_time": "2022-01-20T09:20:08.842-00:00",
        "included_in_blocks":
          [ "BMW5otr99NGFekugQiohuVPXWECgCmCuf7qUHJoXwYBk5brh9kG" ] },
      { "delegate": "tz1NdhRv643wLW6zCcRP3VfT24dvDnh7nuh9",
        "reception_time": "2022-01-20T09:20:08.908-00:00",
        "included_in_blocks":
          [ "BMW5otr99NGFekugQiohuVPXWECgCmCuf7qUHJoXwYBk5brh9kG" ] },
      { "delegate": "tz3bEQoFCZEEfZMskefZ8q8e4eiHH1pssRax",
        "reception_time": "2022-01-20T09:20:08.763-00:00",
        "included_in_blocks":
          [ "BMW5otr99NGFekugQiohuVPXWECgCmCuf7qUHJoXwYBk5brh9kG" ] },
      { "delegate": "tz1dRKU4FQ9QRRQPdaH4zCR6gmCmXfcvcgtB",
        "reception_time": "2022-01-20T09:20:08.719-00:00",
        "included_in_blocks":
          [ "BMW5otr99NGFekugQiohuVPXWECgCmCuf7qUHJoXwYBk5brh9kG" ] },
      { "delegate": "tz1WnfXMPaNTBmH7DBPwqCWs9cPDJdkGBTZ8",
        "reception_time": "2022-01-20T09:20:08.660-00:00",
        "included_in_blocks":
          [ "BMW5otr99NGFekugQiohuVPXWECgCmCuf7qUHJoXwYBk5brh9kG" ] },
      { "delegate": "tz2FCNBrERXtaTtNX6iimR1UJ5JSDxvdHM93",
        "reception_time": "2022-01-20T09:20:08.710-00:00",
        "included_in_blocks":
          [ "BMW5otr99NGFekugQiohuVPXWECgCmCuf7qUHJoXwYBk5brh9kG" ] },
      { "delegate": "tz3bTdwZinP8U1JmSweNzVKhmwafqWmFWRfk",
        "reception_time": "2022-01-20T09:20:08.564-00:00",
        "included_in_blocks":
          [ "BMW5otr99NGFekugQiohuVPXWECgCmCuf7qUHJoXwYBk5brh9kG" ] },
      { "delegate": "tz1aJS7Pk9uWR3wWyFf1i3RwhYxN84G7stom",
        "reception_time": "2022-01-20T09:20:08.698-00:00",
        "included_in_blocks":
          [ "BMW5otr99NGFekugQiohuVPXWECgCmCuf7qUHJoXwYBk5brh9kG" ] },
      { "delegate": "tz1SYq214SCBy9naR6cvycQsYcUGpBqQAE8d",
        "reception_time": "2022-01-20T09:20:08.647-00:00",
        "included_in_blocks":
          [ "BMW5otr99NGFekugQiohuVPXWECgCmCuf7qUHJoXwYBk5brh9kG" ] },
      { "delegate": "tz1UJvHTgpVzcKWhTazGxVcn5wsHru5Gietg",
        "reception_time": "2022-01-20T09:20:08.647-00:00",
        "included_in_blocks":
          [ "BMW5otr99NGFekugQiohuVPXWECgCmCuf7qUHJoXwYBk5brh9kG" ] },
      { "delegate": "tz1RCFbB9GpALpsZtu6J58sb74dm8qe6XBzv",
        "reception_time": "2022-01-20T09:20:08.564-00:00",
        "included_in_blocks":
          [ "BMW5otr99NGFekugQiohuVPXWECgCmCuf7qUHJoXwYBk5brh9kG" ] },
      { "delegate": "tz1S8MNvuFEUsWgjHvi3AxibRBf388NhT1q2",
        "reception_time": "2022-01-20T09:20:08.818-00:00",
        "included_in_blocks":
          [ "BMW5otr99NGFekugQiohuVPXWECgCmCuf7qUHJoXwYBk5brh9kG" ] },
      { "delegate": "tz3S6BBeKgJGXxvLyZ1xzXzMPn11nnFtq5L9",
        "reception_time": "2022-01-20T09:20:07.982-00:00",
        "included_in_blocks":
          [ "BMW5otr99NGFekugQiohuVPXWECgCmCuf7qUHJoXwYBk5brh9kG" ] },
      { "delegate": "tz1V4qCyvPKZ5UeqdH14HN42rxvNPQfc9UZg",
        "reception_time": "2022-01-20T09:20:08.170-00:00",
        "included_in_blocks":
          [ "BMW5otr99NGFekugQiohuVPXWECgCmCuf7qUHJoXwYBk5brh9kG" ] },
      { "delegate": "tz1ci1ARnm8JoYV16Hbe4FoxX17yFEAQVytg",
        "reception_time": "2022-01-20T09:20:07.808-00:00",
        "included_in_blocks":
          [ "BMW5otr99NGFekugQiohuVPXWECgCmCuf7qUHJoXwYBk5brh9kG" ] },
      { "delegate": "tz3QT9dHYKDqh563chVa6za8526ys1UKfRfL",
        "reception_time": "2022-01-20T09:20:07.939-00:00",
        "included_in_blocks":
          [ "BMW5otr99NGFekugQiohuVPXWECgCmCuf7qUHJoXwYBk5brh9kG" ] },
      { "delegate": "tz1bZ8vsMAXmaWEV7FRnyhcuUs2fYMaQ6Hkk",
        "reception_time": "2022-01-20T09:20:08.556-00:00",
        "included_in_blocks":
          [ "BMW5otr99NGFekugQiohuVPXWECgCmCuf7qUHJoXwYBk5brh9kG" ] },
      { "delegate": "tz3hw2kqXhLUvY65ca1eety2oQTpAvd34R9Q",
        "reception_time": "2022-01-20T09:20:07.609-00:00",
        "included_in_blocks":
          [ "BMW5otr99NGFekugQiohuVPXWECgCmCuf7qUHJoXwYBk5brh9kG" ] },
      { "delegate": "tz3Zhs2dygr55yHyQyKjntAtY9bgfhLZ4Xj1",
        "reception_time": "2022-01-20T09:20:07.650-00:00",
        "included_in_blocks":
          [ "BMW5otr99NGFekugQiohuVPXWECgCmCuf7qUHJoXwYBk5brh9kG" ] },
      { "delegate": "tz3iJu5vrKZcsqRPs8yJ61UDoeEXZmtro4qh",
        "reception_time": "2022-01-20T09:20:07.619-00:00",
        "included_in_blocks":
          [ "BMW5otr99NGFekugQiohuVPXWECgCmCuf7qUHJoXwYBk5brh9kG" ] },
      { "delegate": "tz1MGTFJXpQmtxLi8QJ7AuVRgM2L2Qfn9w9i",
        "reception_time": "2022-01-20T09:20:07.766-00:00",
        "included_in_blocks":
          [ "BMW5otr99NGFekugQiohuVPXWECgCmCuf7qUHJoXwYBk5brh9kG" ] },
      { "delegate": "tz3RKYFsLuQzKBtmYuLNas7uMu3AsYd4QdsA",
        "reception_time": "2022-01-20T09:20:07.584-00:00",
        "included_in_blocks":
          [ "BMW5otr99NGFekugQiohuVPXWECgCmCuf7qUHJoXwYBk5brh9kG" ] },
      { "delegate": "tz1ei4WtWEMEJekSv8qDnu9PExG6Q8HgRGr3",
        "reception_time": "2022-01-20T09:20:07.642-00:00",
        "included_in_blocks":
          [ "BMW5otr99NGFekugQiohuVPXWECgCmCuf7qUHJoXwYBk5brh9kG" ] },
      { "delegate": "tz1PWCDnz783NNGGQjEFFsHtrcK5yBW4E2rm",
        "reception_time": "2022-01-20T09:20:07.586-00:00",
        "included_in_blocks":
          [ "BMW5otr99NGFekugQiohuVPXWECgCmCuf7qUHJoXwYBk5brh9kG" ] },
      { "delegate": "tz1dNVDWPf3Q59SdJqnjdnu277iyvReiRS9M",
        "reception_time": "2022-01-20T09:20:07.859-00:00",
        "included_in_blocks":
          [ "BMW5otr99NGFekugQiohuVPXWECgCmCuf7qUHJoXwYBk5brh9kG" ] },
      { "delegate": "tz1d6Fx42mYgVFnHUW8T8A7WBfJ6nD9pVok8",
        "reception_time": "2022-01-20T09:20:07.584-00:00",
        "included_in_blocks":
          [ "BMW5otr99NGFekugQiohuVPXWECgCmCuf7qUHJoXwYBk5brh9kG" ] },
      { "delegate": "tz1Nf6tsK4G6bBqgSQERy4nUtkHNKUVdh7q1",
        "reception_time": "2022-01-20T09:20:07.501-00:00",
        "included_in_blocks":
          [ "BMW5otr99NGFekugQiohuVPXWECgCmCuf7qUHJoXwYBk5brh9kG" ] },
      { "delegate": "tz3QSGPoRp3Kn7n3vY24eYeu3Peuqo45LQ4D",
        "reception_time": "2022-01-20T09:20:07.463-00:00",
        "included_in_blocks":
          [ "BMW5otr99NGFekugQiohuVPXWECgCmCuf7qUHJoXwYBk5brh9kG" ] },
      { "delegate": "tz3ZbP2pM3nwvXztbuMJwJnDvV5xdpU8UkkD",
        "reception_time": "2022-01-20T09:20:07.501-00:00",
        "included_in_blocks":
          [ "BMW5otr99NGFekugQiohuVPXWECgCmCuf7qUHJoXwYBk5brh9kG" ] },
      { "delegate": "tz3NxTnke1acr8o3h5y9ytf5awQBGNJUKzVU",
        "reception_time": "2022-01-20T09:20:07.480-00:00",
        "included_in_blocks":
          [ "BMW5otr99NGFekugQiohuVPXWECgCmCuf7qUHJoXwYBk5brh9kG" ] },
      { "delegate": "tz1MQJPGNMijnXnVoBENFz9rUhaPt3S7rWoz",
        "reception_time": "2022-01-20T09:20:08.016-00:00",
        "included_in_blocks":
          [ "BMW5otr99NGFekugQiohuVPXWECgCmCuf7qUHJoXwYBk5brh9kG" ] },
      { "delegate": "tz1aXD7Jigrt3PBYSpHSg5Rr33SexMmmM5Ys",
        "reception_time": "2022-01-20T09:20:07.469-00:00",
        "included_in_blocks":
          [ "BMW5otr99NGFekugQiohuVPXWECgCmCuf7qUHJoXwYBk5brh9kG" ] },
      { "delegate": "tz1NEKxGEHsFufk87CVZcrqWu8o22qh46GK6",
        "reception_time": "2022-01-20T09:20:08.178-00:00",
        "included_in_blocks":
          [ "BMW5otr99NGFekugQiohuVPXWECgCmCuf7qUHJoXwYBk5brh9kG" ] },
      { "delegate": "tz1WCd2jm4uSt4vntk4vSuUWoZQGhLcDuR9q",
        "reception_time": "2022-01-20T09:20:07.473-00:00",
        "included_in_blocks":
          [ "BMW5otr99NGFekugQiohuVPXWECgCmCuf7qUHJoXwYBk5brh9kG" ] },
      { "delegate": "tz1MJx9vhaNRSimcuXPK2rW4fLccQnDAnVKJ",
        "reception_time": "2022-01-20T09:20:07.492-00:00",
        "included_in_blocks":
          [ "BMW5otr99NGFekugQiohuVPXWECgCmCuf7qUHJoXwYBk5brh9kG" ] },
      { "delegate": "tz1eDDuQBEgwvc6tbnnCVrnr12tvrd6gBTpx",
        "reception_time": "2022-01-20T09:20:07.569-00:00",
        "included_in_blocks":
          [ "BMW5otr99NGFekugQiohuVPXWECgCmCuf7qUHJoXwYBk5brh9kG" ] },
      { "delegate": "tz1MQMiZHV8q4tTwUMWmS5Y3kaP6J2136iXr",
        "reception_time": "2022-01-20T09:20:07.677-00:00",
        "included_in_blocks":
          [ "BMW5otr99NGFekugQiohuVPXWECgCmCuf7qUHJoXwYBk5brh9kG" ] },
      { "delegate": "tz1VmiY38m3y95HqQLjMwqnMS7sdMfGomzKi",
        "reception_time": "2022-01-20T09:20:07.450-00:00",
        "included_in_blocks":
          [ "BMW5otr99NGFekugQiohuVPXWECgCmCuf7qUHJoXwYBk5brh9kG" ] },
      { "delegate": "tz1TzaNn7wSQSP5gYPXCnNzBCpyMiidCq1PX",
        "reception_time": "2022-01-20T09:20:07.463-00:00",
        "included_in_blocks":
          [ "BMW5otr99NGFekugQiohuVPXWECgCmCuf7qUHJoXwYBk5brh9kG" ] },
      { "delegate": "tz1Ldzz6k1BHdhuKvAtMRX7h5kJSMHESMHLC",
        "reception_time": "2022-01-20T09:20:07.447-00:00",
        "included_in_blocks":
          [ "BMW5otr99NGFekugQiohuVPXWECgCmCuf7qUHJoXwYBk5brh9kG" ] },
      { "delegate": "tz1irJKkXS2DBWkU1NnmFQx1c1L7pbGg4yhk",
        "reception_time": "2022-01-20T09:20:07.545-00:00",
        "included_in_blocks":
          [ "BMW5otr99NGFekugQiohuVPXWECgCmCuf7qUHJoXwYBk5brh9kG" ] },
      { "delegate": "tz1VQnqCCqX4K5sP3FNkVSNKTdCAMJDd3E1n",
        "reception_time": "2022-01-20T09:20:07.473-00:00",
        "included_in_blocks":
          [ "BMW5otr99NGFekugQiohuVPXWECgCmCuf7qUHJoXwYBk5brh9kG" ] },
      { "delegate": "tz1eEnQhbwf6trb8Q8mPb2RaPkNk2rN7BKi8",
        "reception_time": "2022-01-20T09:20:07.452-00:00",
        "included_in_blocks":
          [ "BMW5otr99NGFekugQiohuVPXWECgCmCuf7qUHJoXwYBk5brh9kG" ] },
      { "delegate": "tz1gUNyn3hmnEWqkusWPzxRaon1cs7ndWh7h",
        "reception_time": "2022-01-20T09:20:07.454-00:00",
        "included_in_blocks":
          [ "BMW5otr99NGFekugQiohuVPXWECgCmCuf7qUHJoXwYBk5brh9kG" ] },
      { "delegate": "tz1Kt4P8BCaP93AEV4eA7gmpRryWt5hznjCP",
        "reception_time": "2022-01-20T09:20:07.469-00:00",
        "included_in_blocks":
          [ "BMW5otr99NGFekugQiohuVPXWECgCmCuf7qUHJoXwYBk5brh9kG" ] },
      { "delegate": "tz1Lhf4J9Qxoe3DZ2nfe8FGDnvVj7oKjnMY6",
        "reception_time": "2022-01-20T09:20:07.438-00:00",
        "included_in_blocks":
          [ "BMW5otr99NGFekugQiohuVPXWECgCmCuf7qUHJoXwYBk5brh9kG" ] } ] }