{ "blocks":
    [ { "hash": "BLjm4W4uqxWWwpS7spjaHpVzBN2i8McYStiDnpP5UabjE9ESDqA",
        "delegate": "tz1aRoaRhSpRYvFdyvgWLL6TGyRoGF51wDjM",
        "reception_time": "2022-01-20T09:08:21.730-00:00",
        "timestamp": "2022-01-20T09:08:00Z" } ],
  "endorsements":
    [ { "delegate": "tz1QJU1PuKUP5ZQxUr4pHZjCHGRvJSpcXv7G",
        "reception_time": "2022-01-20T09:08:29.768-00:00" },
      { "delegate": "tz1aRoaRhSpRYvFdyvgWLL6TGyRoGF51wDjM",
        "reception_time": "2022-01-20T09:08:28.514-00:00",
        "included_in_blocks":
          [ "BKnCEyvJkKY9FP7q24xB5mq2FX4sa1Z9KXuxXKpENSCHm9LD8gU" ] },
      { "delegate": "tz1bTpviNnyx2PXsNmGpCQTMQsGoYordkUoA",
        "reception_time": "2022-01-20T09:08:27.928-00:00",
        "included_in_blocks":
          [ "BKnCEyvJkKY9FP7q24xB5mq2FX4sa1Z9KXuxXKpENSCHm9LD8gU" ] },
      { "delegate": "tz3UoffC7FG7zfpmvmjUmUeAaHvzdcUvAj6r",
        "reception_time": "2022-01-20T09:08:27.593-00:00",
        "included_in_blocks":
          [ "BKnCEyvJkKY9FP7q24xB5mq2FX4sa1Z9KXuxXKpENSCHm9LD8gU" ] },
      { "delegate": "tz1abmz7jiCV2GH2u81LRrGgAFFgvQgiDiaf",
        "reception_time": "2022-01-20T09:08:27.180-00:00",
        "included_in_blocks":
          [ "BKnCEyvJkKY9FP7q24xB5mq2FX4sa1Z9KXuxXKpENSCHm9LD8gU" ] },
      { "delegate": "tz3NExpXn9aPNZPorRE4SdjJ2RGrfbJgMAaV",
        "reception_time": "2022-01-20T09:08:27.124-00:00",
        "included_in_blocks":
          [ "BKnCEyvJkKY9FP7q24xB5mq2FX4sa1Z9KXuxXKpENSCHm9LD8gU" ] },
      { "delegate": "tz1Xsrfv6hn86fp88YfRs6xcKwt2nTqxVZYM",
        "reception_time": "2022-01-20T09:08:27.053-00:00",
        "included_in_blocks":
          [ "BKnCEyvJkKY9FP7q24xB5mq2FX4sa1Z9KXuxXKpENSCHm9LD8gU" ] },
      { "delegate": "tz3bvNMQ95vfAYtG8193ymshqjSvmxiCUuR5",
        "reception_time": "2022-01-20T09:08:27.013-00:00",
        "included_in_blocks":
          [ "BKnCEyvJkKY9FP7q24xB5mq2FX4sa1Z9KXuxXKpENSCHm9LD8gU" ] },
      { "delegate": "tz3WMqdzXqRWXwyvj5Hp2H7QEepaUuS7vd9K",
        "reception_time": "2022-01-20T09:08:26.980-00:00",
        "included_in_blocks":
          [ "BKnCEyvJkKY9FP7q24xB5mq2FX4sa1Z9KXuxXKpENSCHm9LD8gU" ] },
      { "delegate": "tz1TwVimQy3BywXoSszdFXjT9bSTQrsZYo2u",
        "reception_time": "2022-01-20T09:08:26.964-00:00",
        "included_in_blocks":
          [ "BKnCEyvJkKY9FP7q24xB5mq2FX4sa1Z9KXuxXKpENSCHm9LD8gU" ] },
      { "delegate": "tz1LmaFsWRkjr7QMCx5PtV6xTUz3AmEpKQiF",
        "reception_time": "2022-01-20T09:08:26.954-00:00",
        "included_in_blocks":
          [ "BKnCEyvJkKY9FP7q24xB5mq2FX4sa1Z9KXuxXKpENSCHm9LD8gU" ] },
      { "delegate": "tz3gLTu4Yxj8tPAcriQVUdxv6BY9QyvzU1az",
        "reception_time": "2022-01-20T09:08:26.921-00:00",
        "included_in_blocks":
          [ "BKnCEyvJkKY9FP7q24xB5mq2FX4sa1Z9KXuxXKpENSCHm9LD8gU" ] },
      { "delegate": "tz3NDpRj6WBrJPikcPVHRBEjWKxFw3c6eQPS",
        "reception_time": "2022-01-20T09:08:26.895-00:00",
        "included_in_blocks":
          [ "BKnCEyvJkKY9FP7q24xB5mq2FX4sa1Z9KXuxXKpENSCHm9LD8gU" ] },
      { "delegate": "tz1ZcTRk5uxD86EFEn1vvNffWWqJy7q5eVhc",
        "reception_time": "2022-01-20T09:08:26.472-00:00",
        "included_in_blocks":
          [ "BKnCEyvJkKY9FP7q24xB5mq2FX4sa1Z9KXuxXKpENSCHm9LD8gU" ] },
      { "delegate": "tz3VEZ4k6a4Wx42iyev6i2aVAptTRLEAivNN",
        "reception_time": "2022-01-20T09:08:26.370-00:00",
        "included_in_blocks":
          [ "BKnCEyvJkKY9FP7q24xB5mq2FX4sa1Z9KXuxXKpENSCHm9LD8gU" ] },
      { "delegate": "tz1eCzNtidHvVgeRzQ38C81FPcYnxMsCEL6Z",
        "reception_time": "2022-01-20T09:08:26.316-00:00",
        "included_in_blocks":
          [ "BKnCEyvJkKY9FP7q24xB5mq2FX4sa1Z9KXuxXKpENSCHm9LD8gU" ] },
      { "delegate": "tz1g8vkmcde6sWKaG2NN9WKzCkDM6Rziq194",
        "reception_time": "2022-01-20T09:08:26.233-00:00",
        "included_in_blocks":
          [ "BKnCEyvJkKY9FP7q24xB5mq2FX4sa1Z9KXuxXKpENSCHm9LD8gU" ] },
      { "delegate": "tz1iPHM2Xx2hwmzcr1EG1zzrV6oKafVoA91m",
        "reception_time": "2022-01-20T09:08:26.227-00:00",
        "included_in_blocks":
          [ "BKnCEyvJkKY9FP7q24xB5mq2FX4sa1Z9KXuxXKpENSCHm9LD8gU" ] },
      { "delegate": "tz2FCNBrERXtaTtNX6iimR1UJ5JSDxvdHM93",
        "reception_time": "2022-01-20T09:08:26.194-00:00",
        "included_in_blocks":
          [ "BKnCEyvJkKY9FP7q24xB5mq2FX4sa1Z9KXuxXKpENSCHm9LD8gU" ] },
      { "delegate": "tz1cYufsxHXJcvANhvS55h3aY32a9BAFB494",
        "reception_time": "2022-01-20T09:08:26.169-00:00",
        "included_in_blocks":
          [ "BKnCEyvJkKY9FP7q24xB5mq2FX4sa1Z9KXuxXKpENSCHm9LD8gU" ] },
      { "delegate": "tz1TRqbYbUf2GyrjErf3hBzgBJPzW8y36qEs",
        "reception_time": "2022-01-20T09:08:26.144-00:00",
        "included_in_blocks":
          [ "BKnCEyvJkKY9FP7q24xB5mq2FX4sa1Z9KXuxXKpENSCHm9LD8gU" ] },
      { "delegate": "tz3RDC3Jdn4j15J7bBHZd29EUee9gVB1CxD9",
        "reception_time": "2022-01-20T09:08:26.110-00:00",
        "included_in_blocks":
          [ "BKnCEyvJkKY9FP7q24xB5mq2FX4sa1Z9KXuxXKpENSCHm9LD8gU" ] },
      { "delegate": "tz3bTdwZinP8U1JmSweNzVKhmwafqWmFWRfk",
        "reception_time": "2022-01-20T09:08:26.069-00:00",
        "included_in_blocks":
          [ "BKnCEyvJkKY9FP7q24xB5mq2FX4sa1Z9KXuxXKpENSCHm9LD8gU" ] },
      { "delegate": "tz1Tnjaxk6tbAeC2TmMApPh8UsrEVQvhHvx5",
        "reception_time": "2022-01-20T09:08:25.714-00:00",
        "included_in_blocks":
          [ "BKnCEyvJkKY9FP7q24xB5mq2FX4sa1Z9KXuxXKpENSCHm9LD8gU" ] },
      { "delegate": "tz3iJu5vrKZcsqRPs8yJ61UDoeEXZmtro4qh",
        "reception_time": "2022-01-20T09:08:25.706-00:00",
        "included_in_blocks":
          [ "BKnCEyvJkKY9FP7q24xB5mq2FX4sa1Z9KXuxXKpENSCHm9LD8gU" ] },
      { "delegate": "tz1gfArv665EUkSg2ojMBzcbfwuPxAvqPvjo",
        "reception_time": "2022-01-20T09:08:25.696-00:00",
        "included_in_blocks":
          [ "BKnCEyvJkKY9FP7q24xB5mq2FX4sa1Z9KXuxXKpENSCHm9LD8gU" ] },
      { "delegate": "tz1VceyYUpq1gk5dtp6jXQRtCtY8hm5DKt72",
        "reception_time": "2022-01-20T09:08:25.692-00:00",
        "included_in_blocks":
          [ "BKnCEyvJkKY9FP7q24xB5mq2FX4sa1Z9KXuxXKpENSCHm9LD8gU" ] },
      { "delegate": "tz1UJvHTgpVzcKWhTazGxVcn5wsHru5Gietg",
        "reception_time": "2022-01-20T09:08:25.687-00:00",
        "included_in_blocks":
          [ "BKnCEyvJkKY9FP7q24xB5mq2FX4sa1Z9KXuxXKpENSCHm9LD8gU" ] },
      { "delegate": "tz1SYq214SCBy9naR6cvycQsYcUGpBqQAE8d",
        "reception_time": "2022-01-20T09:08:25.678-00:00",
        "included_in_blocks":
          [ "BKnCEyvJkKY9FP7q24xB5mq2FX4sa1Z9KXuxXKpENSCHm9LD8gU" ] },
      { "delegate": "tz3QT9dHYKDqh563chVa6za8526ys1UKfRfL",
        "reception_time": "2022-01-20T09:08:25.642-00:00",
        "included_in_blocks":
          [ "BKnCEyvJkKY9FP7q24xB5mq2FX4sa1Z9KXuxXKpENSCHm9LD8gU" ] },
      { "delegate": "tz1MQMiZHV8q4tTwUMWmS5Y3kaP6J2136iXr",
        "reception_time": "2022-01-20T09:08:25.634-00:00",
        "included_in_blocks":
          [ "BKnCEyvJkKY9FP7q24xB5mq2FX4sa1Z9KXuxXKpENSCHm9LD8gU" ] },
      { "delegate": "tz1NEKxGEHsFufk87CVZcrqWu8o22qh46GK6",
        "reception_time": "2022-01-20T09:08:25.624-00:00",
        "included_in_blocks":
          [ "BKnCEyvJkKY9FP7q24xB5mq2FX4sa1Z9KXuxXKpENSCHm9LD8gU" ] },
      { "delegate": "tz1dNVDWPf3Q59SdJqnjdnu277iyvReiRS9M",
        "reception_time": "2022-01-20T09:08:25.602-00:00",
        "included_in_blocks":
          [ "BKnCEyvJkKY9FP7q24xB5mq2FX4sa1Z9KXuxXKpENSCHm9LD8gU" ] },
      { "delegate": "tz1T7duV5gZWSTq4YpBGbXNLTfznCLDrFxvs",
        "reception_time": "2022-01-20T09:08:25.602-00:00",
        "included_in_blocks":
          [ "BKnCEyvJkKY9FP7q24xB5mq2FX4sa1Z9KXuxXKpENSCHm9LD8gU" ] },
      { "delegate": "tz3QCNyySViKHmeSr45kzDxzchys7NiXCWoa",
        "reception_time": "2022-01-20T09:08:25.598-00:00",
        "included_in_blocks":
          [ "BKnCEyvJkKY9FP7q24xB5mq2FX4sa1Z9KXuxXKpENSCHm9LD8gU" ] },
      { "delegate": "tz1S8MNvuFEUsWgjHvi3AxibRBf388NhT1q2",
        "reception_time": "2022-01-20T09:08:25.598-00:00",
        "included_in_blocks":
          [ "BKnCEyvJkKY9FP7q24xB5mq2FX4sa1Z9KXuxXKpENSCHm9LD8gU" ] },
      { "delegate": "tz3S6BBeKgJGXxvLyZ1xzXzMPn11nnFtq5L9",
        "reception_time": "2022-01-20T09:08:25.586-00:00",
        "included_in_blocks":
          [ "BKnCEyvJkKY9FP7q24xB5mq2FX4sa1Z9KXuxXKpENSCHm9LD8gU" ] },
      { "delegate": "tz1Nf6tsK4G6bBqgSQERy4nUtkHNKUVdh7q1",
        "reception_time": "2022-01-20T09:08:25.579-00:00",
        "included_in_blocks":
          [ "BKnCEyvJkKY9FP7q24xB5mq2FX4sa1Z9KXuxXKpENSCHm9LD8gU" ] },
      { "delegate": "tz1RCFbB9GpALpsZtu6J58sb74dm8qe6XBzv",
        "reception_time": "2022-01-20T09:08:25.579-00:00",
        "included_in_blocks":
          [ "BKnCEyvJkKY9FP7q24xB5mq2FX4sa1Z9KXuxXKpENSCHm9LD8gU" ] },
      { "delegate": "tz1KfEsrtDaA1sX7vdM4qmEPWuSytuqCDp5j",
        "reception_time": "2022-01-20T09:08:25.571-00:00",
        "included_in_blocks":
          [ "BKnCEyvJkKY9FP7q24xB5mq2FX4sa1Z9KXuxXKpENSCHm9LD8gU" ] },
      { "delegate": "tz3gtoUxdudfBRcNY7iVdKPHCYYX6xdPpoRS",
        "reception_time": "2022-01-20T09:08:25.569-00:00",
        "included_in_blocks":
          [ "BKnCEyvJkKY9FP7q24xB5mq2FX4sa1Z9KXuxXKpENSCHm9LD8gU" ] },
      { "delegate": "tz1dwu9aYb7CRNq4Y2zAjipdjFuSVKhHS8vA",
        "reception_time": "2022-01-20T09:08:25.558-00:00",
        "included_in_blocks":
          [ "BKnCEyvJkKY9FP7q24xB5mq2FX4sa1Z9KXuxXKpENSCHm9LD8gU" ] },
      { "delegate": "tz1ajgycuHmd2z2JbTSJxKv7x6cok2KuNSk1",
        "reception_time": "2022-01-20T09:08:25.556-00:00",
        "included_in_blocks":
          [ "BKnCEyvJkKY9FP7q24xB5mq2FX4sa1Z9KXuxXKpENSCHm9LD8gU" ] },
      { "delegate": "tz3Zhs2dygr55yHyQyKjntAtY9bgfhLZ4Xj1",
        "reception_time": "2022-01-20T09:08:25.552-00:00",
        "included_in_blocks":
          [ "BKnCEyvJkKY9FP7q24xB5mq2FX4sa1Z9KXuxXKpENSCHm9LD8gU" ] },
      { "delegate": "tz1irJKkXS2DBWkU1NnmFQx1c1L7pbGg4yhk",
        "reception_time": "2022-01-20T09:08:25.519-00:00",
        "included_in_blocks":
          [ "BKnCEyvJkKY9FP7q24xB5mq2FX4sa1Z9KXuxXKpENSCHm9LD8gU" ] },
      { "delegate": "tz3QSGPoRp3Kn7n3vY24eYeu3Peuqo45LQ4D",
        "reception_time": "2022-01-20T09:08:25.512-00:00",
        "included_in_blocks":
          [ "BKnCEyvJkKY9FP7q24xB5mq2FX4sa1Z9KXuxXKpENSCHm9LD8gU" ] },
      { "delegate": "tz1TRspM5SeZpaQUhzByXbEvqKF1vnCM2YTK",
        "reception_time": "2022-01-20T09:08:25.505-00:00",
        "included_in_blocks":
          [ "BKnCEyvJkKY9FP7q24xB5mq2FX4sa1Z9KXuxXKpENSCHm9LD8gU" ] },
      { "delegate": "tz3ZbP2pM3nwvXztbuMJwJnDvV5xdpU8UkkD",
        "reception_time": "2022-01-20T09:08:25.505-00:00",
        "included_in_blocks":
          [ "BKnCEyvJkKY9FP7q24xB5mq2FX4sa1Z9KXuxXKpENSCHm9LD8gU" ] },
      { "delegate": "tz3RKYFsLuQzKBtmYuLNas7uMu3AsYd4QdsA",
        "reception_time": "2022-01-20T09:08:25.494-00:00",
        "included_in_blocks":
          [ "BKnCEyvJkKY9FP7q24xB5mq2FX4sa1Z9KXuxXKpENSCHm9LD8gU" ] },
      { "delegate": "tz1aDiEJf9ztRrAJEXZfcG3CKimoKsGhwVAi",
        "reception_time": "2022-01-20T09:08:25.472-00:00",
        "included_in_blocks":
          [ "BKnCEyvJkKY9FP7q24xB5mq2FX4sa1Z9KXuxXKpENSCHm9LD8gU" ] },
      { "delegate": "tz3hw2kqXhLUvY65ca1eety2oQTpAvd34R9Q",
        "reception_time": "2022-01-20T09:08:25.472-00:00",
        "included_in_blocks":
          [ "BKnCEyvJkKY9FP7q24xB5mq2FX4sa1Z9KXuxXKpENSCHm9LD8gU" ] },
      { "delegate": "tz1MGTFJXpQmtxLi8QJ7AuVRgM2L2Qfn9w9i",
        "reception_time": "2022-01-20T09:08:25.455-00:00",
        "included_in_blocks":
          [ "BKnCEyvJkKY9FP7q24xB5mq2FX4sa1Z9KXuxXKpENSCHm9LD8gU" ] },
      { "delegate": "tz1Kt4P8BCaP93AEV4eA7gmpRryWt5hznjCP",
        "reception_time": "2022-01-20T09:08:25.446-00:00",
        "included_in_blocks":
          [ "BKnCEyvJkKY9FP7q24xB5mq2FX4sa1Z9KXuxXKpENSCHm9LD8gU" ] },
      { "delegate": "tz1WCd2jm4uSt4vntk4vSuUWoZQGhLcDuR9q",
        "reception_time": "2022-01-20T09:08:25.446-00:00",
        "included_in_blocks":
          [ "BKnCEyvJkKY9FP7q24xB5mq2FX4sa1Z9KXuxXKpENSCHm9LD8gU" ] },
      { "delegate": "tz1eEnQhbwf6trb8Q8mPb2RaPkNk2rN7BKi8",
        "reception_time": "2022-01-20T09:08:25.437-00:00",
        "included_in_blocks":
          [ "BKnCEyvJkKY9FP7q24xB5mq2FX4sa1Z9KXuxXKpENSCHm9LD8gU" ] },
      { "delegate": "tz1ZPh7XfUaJXUDvkrBxmS1BjEM1i62hiPpM",
        "reception_time": "2022-01-20T09:08:25.428-00:00",
        "included_in_blocks":
          [ "BKnCEyvJkKY9FP7q24xB5mq2FX4sa1Z9KXuxXKpENSCHm9LD8gU" ] },
      { "delegate": "tz1VQnqCCqX4K5sP3FNkVSNKTdCAMJDd3E1n",
        "reception_time": "2022-01-20T09:08:25.425-00:00",
        "included_in_blocks":
          [ "BKnCEyvJkKY9FP7q24xB5mq2FX4sa1Z9KXuxXKpENSCHm9LD8gU" ] },
      { "delegate": "tz1aXD7Jigrt3PBYSpHSg5Rr33SexMmmM5Ys",
        "reception_time": "2022-01-20T09:08:25.425-00:00",
        "included_in_blocks":
          [ "BKnCEyvJkKY9FP7q24xB5mq2FX4sa1Z9KXuxXKpENSCHm9LD8gU" ] },
      { "delegate": "tz1TzaNn7wSQSP5gYPXCnNzBCpyMiidCq1PX",
        "reception_time": "2022-01-20T09:08:25.414-00:00",
        "included_in_blocks":
          [ "BKnCEyvJkKY9FP7q24xB5mq2FX4sa1Z9KXuxXKpENSCHm9LD8gU" ] },
      { "delegate": "tz1P2Po7YM526ughEsRbY4oR9zaUPDZjxFrb",
        "reception_time": "2022-01-20T09:08:25.408-00:00",
        "included_in_blocks":
          [ "BKnCEyvJkKY9FP7q24xB5mq2FX4sa1Z9KXuxXKpENSCHm9LD8gU" ] },
      { "delegate": "tz1gUNyn3hmnEWqkusWPzxRaon1cs7ndWh7h",
        "reception_time": "2022-01-20T09:08:25.408-00:00",
        "included_in_blocks":
          [ "BKnCEyvJkKY9FP7q24xB5mq2FX4sa1Z9KXuxXKpENSCHm9LD8gU" ] },
      { "delegate": "tz1Ldzz6k1BHdhuKvAtMRX7h5kJSMHESMHLC",
        "reception_time": "2022-01-20T09:08:25.398-00:00",
        "included_in_blocks":
          [ "BKnCEyvJkKY9FP7q24xB5mq2FX4sa1Z9KXuxXKpENSCHm9LD8gU" ] },
      { "delegate": "tz1VmiY38m3y95HqQLjMwqnMS7sdMfGomzKi",
        "reception_time": "2022-01-20T09:08:25.398-00:00",
        "included_in_blocks":
          [ "BKnCEyvJkKY9FP7q24xB5mq2FX4sa1Z9KXuxXKpENSCHm9LD8gU" ] },
      { "delegate": "tz1cSj7fTex3JPd1p1LN1fwek6AV1kH93Wwc",
        "reception_time": "2022-01-20T09:08:25.393-00:00",
        "included_in_blocks":
          [ "BKnCEyvJkKY9FP7q24xB5mq2FX4sa1Z9KXuxXKpENSCHm9LD8gU" ] },
      { "delegate": "tz3NxTnke1acr8o3h5y9ytf5awQBGNJUKzVU",
        "reception_time": "2022-01-20T09:08:25.385-00:00",
        "included_in_blocks":
          [ "BKnCEyvJkKY9FP7q24xB5mq2FX4sa1Z9KXuxXKpENSCHm9LD8gU" ] },
      { "delegate": "tz1MJx9vhaNRSimcuXPK2rW4fLccQnDAnVKJ",
        "reception_time": "2022-01-20T09:08:25.373-00:00",
        "included_in_blocks":
          [ "BKnCEyvJkKY9FP7q24xB5mq2FX4sa1Z9KXuxXKpENSCHm9LD8gU" ] },
      { "delegate": "tz1Mc61yajNASzh5KWZFtYs4i7EJbzAxQC4K",
        "reception_time": "2022-01-20T09:08:25.369-00:00",
        "included_in_blocks":
          [ "BKnCEyvJkKY9FP7q24xB5mq2FX4sa1Z9KXuxXKpENSCHm9LD8gU" ] },
      { "delegate": "tz1PWCDnz783NNGGQjEFFsHtrcK5yBW4E2rm",
        "reception_time": "2022-01-20T09:08:25.256-00:00",
        "included_in_blocks":
          [ "BKnCEyvJkKY9FP7q24xB5mq2FX4sa1Z9KXuxXKpENSCHm9LD8gU" ] },
      { "delegate": "tz1TXzyaKUA8wsWefdSnyaYFnV2M3vCV7er9",
        "reception_time": "2022-01-20T09:08:25.242-00:00",
        "included_in_blocks":
          [ "BKnCEyvJkKY9FP7q24xB5mq2FX4sa1Z9KXuxXKpENSCHm9LD8gU" ] },
      { "delegate": "tz1ibcPVGK4Y8pcW4BYUsojiHoBKnZbyDGrX" },
      { "delegate": "tz1dbfppLAAxXZNtf2SDps7rch3qfUznKSoK" },
      { "delegate": "tz1awXW7wuXy21c66vBudMXQVAPgRnqqwgTH" },
      { "delegate": "tz1Yjryh3tpFHQG73dofJNatR21KUdRDu7mH" },
      { "delegate": "tz1RjoHc98dBoqaH2jawF62XNKh7YsHwbkEv" },
      { "delegate": "tz1RV1MBbZMR68tacosb7Mwj6LkbPSUS1er1" },
      { "delegate": "tz1NpWrAyDL9k2Lmnyxcgr9xuJakbBxdq7FB" } ] }