{ "blocks":
    [ { "hash": "BLZrybdvT76BjPwHzCpubPDgsWiumkSiKdZEu61LHZZk5rJ5stE",
        "delegate": "tz3iJu5vrKZcsqRPs8yJ61UDoeEXZmtro4qh",
        "reception_time": "2022-01-20T12:08:11.369-00:00",
        "timestamp": "2022-01-20T12:08:00Z" } ],
  "endorsements":
    [ { "delegate": "tz1Kt4P8BCaP93AEV4eA7gmpRryWt5hznjCP",
        "reception_time": "2022-01-20T12:08:12.846-00:00",
        "included_in_blocks":
          [ "BKwrqVfNunkCkLgUdCuG8KwsnquHajYHbpFM6jqyTdQXpWYhZRF" ] },
      { "delegate": "tz1WCd2jm4uSt4vntk4vSuUWoZQGhLcDuR9q",
        "reception_time": "2022-01-20T12:08:13.436-00:00",
        "included_in_blocks":
          [ "BKwrqVfNunkCkLgUdCuG8KwsnquHajYHbpFM6jqyTdQXpWYhZRF" ] },
      { "delegate": "tz1TzaNn7wSQSP5gYPXCnNzBCpyMiidCq1PX",
        "reception_time": "2022-01-20T12:08:13.436-00:00",
        "included_in_blocks":
          [ "BKwrqVfNunkCkLgUdCuG8KwsnquHajYHbpFM6jqyTdQXpWYhZRF" ] },
      { "delegate": "tz1Nf6tsK4G6bBqgSQERy4nUtkHNKUVdh7q1",
        "reception_time": "2022-01-20T12:08:13.730-00:00",
        "included_in_blocks":
          [ "BKwrqVfNunkCkLgUdCuG8KwsnquHajYHbpFM6jqyTdQXpWYhZRF" ] },
      { "delegate": "tz1VmiY38m3y95HqQLjMwqnMS7sdMfGomzKi",
        "reception_time": "2022-01-20T12:08:13.435-00:00",
        "included_in_blocks":
          [ "BKwrqVfNunkCkLgUdCuG8KwsnquHajYHbpFM6jqyTdQXpWYhZRF" ] },
      { "delegate": "tz1eEnQhbwf6trb8Q8mPb2RaPkNk2rN7BKi8",
        "reception_time": "2022-01-20T12:08:13.436-00:00",
        "included_in_blocks":
          [ "BKwrqVfNunkCkLgUdCuG8KwsnquHajYHbpFM6jqyTdQXpWYhZRF" ] },
      { "delegate": "tz3ZbP2pM3nwvXztbuMJwJnDvV5xdpU8UkkD",
        "reception_time": "2022-01-20T12:08:13.730-00:00",
        "included_in_blocks":
          [ "BKwrqVfNunkCkLgUdCuG8KwsnquHajYHbpFM6jqyTdQXpWYhZRF" ] },
      { "delegate": "tz1PWCDnz783NNGGQjEFFsHtrcK5yBW4E2rm",
        "reception_time": "2022-01-20T12:08:13.730-00:00",
        "included_in_blocks":
          [ "BKwrqVfNunkCkLgUdCuG8KwsnquHajYHbpFM6jqyTdQXpWYhZRF" ] },
      { "delegate": "tz1d6Fx42mYgVFnHUW8T8A7WBfJ6nD9pVok8",
        "reception_time": "2022-01-20T12:08:13.730-00:00",
        "included_in_blocks":
          [ "BKwrqVfNunkCkLgUdCuG8KwsnquHajYHbpFM6jqyTdQXpWYhZRF" ] },
      { "delegate": "tz3RKYFsLuQzKBtmYuLNas7uMu3AsYd4QdsA",
        "reception_time": "2022-01-20T12:08:13.730-00:00",
        "included_in_blocks":
          [ "BKwrqVfNunkCkLgUdCuG8KwsnquHajYHbpFM6jqyTdQXpWYhZRF" ] },
      { "delegate": "tz3QSGPoRp3Kn7n3vY24eYeu3Peuqo45LQ4D",
        "reception_time": "2022-01-20T12:08:13.730-00:00",
        "included_in_blocks":
          [ "BKwrqVfNunkCkLgUdCuG8KwsnquHajYHbpFM6jqyTdQXpWYhZRF" ] },
      { "delegate": "tz1aXD7Jigrt3PBYSpHSg5Rr33SexMmmM5Ys",
        "reception_time": "2022-01-20T12:08:13.436-00:00",
        "included_in_blocks":
          [ "BKwrqVfNunkCkLgUdCuG8KwsnquHajYHbpFM6jqyTdQXpWYhZRF" ] },
      { "delegate": "tz1ei4WtWEMEJekSv8qDnu9PExG6Q8HgRGr3",
        "reception_time": "2022-01-20T12:08:13.730-00:00",
        "included_in_blocks":
          [ "BKwrqVfNunkCkLgUdCuG8KwsnquHajYHbpFM6jqyTdQXpWYhZRF" ] },
      { "delegate": "tz3iJu5vrKZcsqRPs8yJ61UDoeEXZmtro4qh",
        "reception_time": "2022-01-20T12:08:13.730-00:00",
        "included_in_blocks":
          [ "BKwrqVfNunkCkLgUdCuG8KwsnquHajYHbpFM6jqyTdQXpWYhZRF" ] },
      { "delegate": "tz1YsFfbT76a69Co3CkmuvYsphKZuHCNksp7",
        "reception_time": "2022-01-20T12:08:13.730-00:00",
        "included_in_blocks":
          [ "BKwrqVfNunkCkLgUdCuG8KwsnquHajYHbpFM6jqyTdQXpWYhZRF" ] },
      { "delegate": "tz3NxTnke1acr8o3h5y9ytf5awQBGNJUKzVU",
        "reception_time": "2022-01-20T12:08:13.730-00:00",
        "included_in_blocks":
          [ "BKwrqVfNunkCkLgUdCuG8KwsnquHajYHbpFM6jqyTdQXpWYhZRF" ] },
      { "delegate": "tz3hw2kqXhLUvY65ca1eety2oQTpAvd34R9Q",
        "reception_time": "2022-01-20T12:08:13.730-00:00",
        "included_in_blocks":
          [ "BKwrqVfNunkCkLgUdCuG8KwsnquHajYHbpFM6jqyTdQXpWYhZRF" ] },
      { "delegate": "tz3gtoUxdudfBRcNY7iVdKPHCYYX6xdPpoRS",
        "reception_time": "2022-01-20T12:08:13.730-00:00",
        "included_in_blocks":
          [ "BKwrqVfNunkCkLgUdCuG8KwsnquHajYHbpFM6jqyTdQXpWYhZRF" ] },
      { "delegate": "tz3Zhs2dygr55yHyQyKjntAtY9bgfhLZ4Xj1",
        "reception_time": "2022-01-20T12:08:13.730-00:00",
        "included_in_blocks":
          [ "BKwrqVfNunkCkLgUdCuG8KwsnquHajYHbpFM6jqyTdQXpWYhZRF" ] },
      { "delegate": "tz3S6BBeKgJGXxvLyZ1xzXzMPn11nnFtq5L9",
        "reception_time": "2022-01-20T12:08:13.730-00:00",
        "included_in_blocks":
          [ "BKwrqVfNunkCkLgUdCuG8KwsnquHajYHbpFM6jqyTdQXpWYhZRF" ] },
      { "delegate": "tz3QT9dHYKDqh563chVa6za8526ys1UKfRfL",
        "reception_time": "2022-01-20T12:08:13.730-00:00",
        "included_in_blocks":
          [ "BKwrqVfNunkCkLgUdCuG8KwsnquHajYHbpFM6jqyTdQXpWYhZRF" ] },
      { "delegate": "tz1V4qCyvPKZ5UeqdH14HN42rxvNPQfc9UZg",
        "reception_time": "2022-01-20T12:08:13.730-00:00",
        "included_in_blocks":
          [ "BKwrqVfNunkCkLgUdCuG8KwsnquHajYHbpFM6jqyTdQXpWYhZRF" ] },
      { "delegate": "tz1MQJPGNMijnXnVoBENFz9rUhaPt3S7rWoz",
        "reception_time": "2022-01-20T12:08:13.730-00:00",
        "included_in_blocks":
          [ "BKwrqVfNunkCkLgUdCuG8KwsnquHajYHbpFM6jqyTdQXpWYhZRF" ] },
      { "delegate": "tz1gfArv665EUkSg2ojMBzcbfwuPxAvqPvjo",
        "reception_time": "2022-01-20T12:08:13.730-00:00",
        "included_in_blocks":
          [ "BKwrqVfNunkCkLgUdCuG8KwsnquHajYHbpFM6jqyTdQXpWYhZRF" ] },
      { "delegate": "tz1MQMiZHV8q4tTwUMWmS5Y3kaP6J2136iXr",
        "reception_time": "2022-01-20T12:08:13.730-00:00",
        "included_in_blocks":
          [ "BKwrqVfNunkCkLgUdCuG8KwsnquHajYHbpFM6jqyTdQXpWYhZRF" ] },
      { "delegate": "tz1SYq214SCBy9naR6cvycQsYcUGpBqQAE8d",
        "reception_time": "2022-01-20T12:08:13.730-00:00",
        "included_in_blocks":
          [ "BKwrqVfNunkCkLgUdCuG8KwsnquHajYHbpFM6jqyTdQXpWYhZRF" ] },
      { "delegate": "tz1RCFbB9GpALpsZtu6J58sb74dm8qe6XBzv",
        "reception_time": "2022-01-20T12:08:13.730-00:00",
        "included_in_blocks":
          [ "BKwrqVfNunkCkLgUdCuG8KwsnquHajYHbpFM6jqyTdQXpWYhZRF" ] },
      { "delegate": "tz1T7duV5gZWSTq4YpBGbXNLTfznCLDrFxvs",
        "reception_time": "2022-01-20T12:08:13.730-00:00",
        "included_in_blocks":
          [ "BKwrqVfNunkCkLgUdCuG8KwsnquHajYHbpFM6jqyTdQXpWYhZRF" ] },
      { "delegate": "tz1WBfwbT66FC6BTLexc2BoyCCBM9LG7pnVW",
        "reception_time": "2022-01-20T12:08:13.730-00:00",
        "included_in_blocks":
          [ "BKwrqVfNunkCkLgUdCuG8KwsnquHajYHbpFM6jqyTdQXpWYhZRF" ] },
      { "delegate": "tz3bTdwZinP8U1JmSweNzVKhmwafqWmFWRfk",
        "reception_time": "2022-01-20T12:08:14.210-00:00",
        "included_in_blocks":
          [ "BKwrqVfNunkCkLgUdCuG8KwsnquHajYHbpFM6jqyTdQXpWYhZRF" ] },
      { "delegate": "tz1S8MNvuFEUsWgjHvi3AxibRBf388NhT1q2",
        "reception_time": "2022-01-20T12:08:14.210-00:00",
        "included_in_blocks":
          [ "BKwrqVfNunkCkLgUdCuG8KwsnquHajYHbpFM6jqyTdQXpWYhZRF" ] },
      { "delegate": "tz3RB4aoyjov4KEVRbuhvQ1CKJgBJMWhaeB8",
        "reception_time": "2022-01-20T12:08:14.210-00:00",
        "included_in_blocks":
          [ "BKwrqVfNunkCkLgUdCuG8KwsnquHajYHbpFM6jqyTdQXpWYhZRF" ] },
      { "delegate": "tz1fwnfJNgiDACshK9avfRfFbMaXrs3ghoJa",
        "reception_time": "2022-01-20T12:08:14.210-00:00",
        "included_in_blocks":
          [ "BKwrqVfNunkCkLgUdCuG8KwsnquHajYHbpFM6jqyTdQXpWYhZRF" ] },
      { "delegate": "tz1TRqbYbUf2GyrjErf3hBzgBJPzW8y36qEs",
        "reception_time": "2022-01-20T12:08:14.210-00:00",
        "included_in_blocks":
          [ "BKwrqVfNunkCkLgUdCuG8KwsnquHajYHbpFM6jqyTdQXpWYhZRF" ] },
      { "delegate": "tz2FCNBrERXtaTtNX6iimR1UJ5JSDxvdHM93",
        "reception_time": "2022-01-20T12:08:14.332-00:00",
        "included_in_blocks":
          [ "BKwrqVfNunkCkLgUdCuG8KwsnquHajYHbpFM6jqyTdQXpWYhZRF" ] },
      { "delegate": "tz1PeZx7FXy7QRuMREGXGxeipb24RsMMzUNe",
        "reception_time": "2022-01-20T12:08:14.245-00:00",
        "included_in_blocks":
          [ "BKwrqVfNunkCkLgUdCuG8KwsnquHajYHbpFM6jqyTdQXpWYhZRF" ] },
      { "delegate": "tz3bvNMQ95vfAYtG8193ymshqjSvmxiCUuR5",
        "reception_time": "2022-01-20T12:08:14.484-00:00",
        "included_in_blocks":
          [ "BKwrqVfNunkCkLgUdCuG8KwsnquHajYHbpFM6jqyTdQXpWYhZRF" ] },
      { "delegate": "tz1LmaFsWRkjr7QMCx5PtV6xTUz3AmEpKQiF",
        "reception_time": "2022-01-20T12:08:14.582-00:00",
        "included_in_blocks":
          [ "BKwrqVfNunkCkLgUdCuG8KwsnquHajYHbpFM6jqyTdQXpWYhZRF" ] },
      { "delegate": "tz1ZcTRk5uxD86EFEn1vvNffWWqJy7q5eVhc",
        "reception_time": "2022-01-20T12:08:14.761-00:00",
        "included_in_blocks":
          [ "BKwrqVfNunkCkLgUdCuG8KwsnquHajYHbpFM6jqyTdQXpWYhZRF" ] },
      { "delegate": "tz3gLTu4Yxj8tPAcriQVUdxv6BY9QyvzU1az",
        "reception_time": "2022-01-20T12:08:14.823-00:00",
        "included_in_blocks":
          [ "BKwrqVfNunkCkLgUdCuG8KwsnquHajYHbpFM6jqyTdQXpWYhZRF" ] },
      { "delegate": "tz3WMqdzXqRWXwyvj5Hp2H7QEepaUuS7vd9K",
        "reception_time": "2022-01-20T12:08:14.918-00:00",
        "included_in_blocks":
          [ "BKwrqVfNunkCkLgUdCuG8KwsnquHajYHbpFM6jqyTdQXpWYhZRF" ] },
      { "delegate": "tz3VEZ4k6a4Wx42iyev6i2aVAptTRLEAivNN",
        "reception_time": "2022-01-20T12:08:15.051-00:00",
        "included_in_blocks":
          [ "BKwrqVfNunkCkLgUdCuG8KwsnquHajYHbpFM6jqyTdQXpWYhZRF" ] },
      { "delegate": "tz3UoffC7FG7zfpmvmjUmUeAaHvzdcUvAj6r",
        "reception_time": "2022-01-20T12:08:15.044-00:00",
        "included_in_blocks":
          [ "BKwrqVfNunkCkLgUdCuG8KwsnquHajYHbpFM6jqyTdQXpWYhZRF" ] },
      { "delegate": "tz1g8vkmcde6sWKaG2NN9WKzCkDM6Rziq194",
        "reception_time": "2022-01-20T12:08:15.358-00:00",
        "included_in_blocks":
          [ "BKwrqVfNunkCkLgUdCuG8KwsnquHajYHbpFM6jqyTdQXpWYhZRF" ] },
      { "delegate": "tz3RDC3Jdn4j15J7bBHZd29EUee9gVB1CxD9",
        "reception_time": "2022-01-20T12:08:15.885-00:00",
        "included_in_blocks":
          [ "BKwrqVfNunkCkLgUdCuG8KwsnquHajYHbpFM6jqyTdQXpWYhZRF" ] },
      { "delegate": "tz3NExpXn9aPNZPorRE4SdjJ2RGrfbJgMAaV",
        "reception_time": "2022-01-20T12:08:16.288-00:00",
        "included_in_blocks":
          [ "BKwrqVfNunkCkLgUdCuG8KwsnquHajYHbpFM6jqyTdQXpWYhZRF" ] },
      { "delegate": "tz1WnfXMPaNTBmH7DBPwqCWs9cPDJdkGBTZ8",
        "reception_time": "2022-01-20T12:08:16.519-00:00",
        "included_in_blocks":
          [ "BKwrqVfNunkCkLgUdCuG8KwsnquHajYHbpFM6jqyTdQXpWYhZRF" ] },
      { "delegate": "tz1aRoaRhSpRYvFdyvgWLL6TGyRoGF51wDjM",
        "reception_time": "2022-01-20T12:08:17.079-00:00",
        "included_in_blocks":
          [ "BKwrqVfNunkCkLgUdCuG8KwsnquHajYHbpFM6jqyTdQXpWYhZRF" ] },
      { "delegate": "tz1cYufsxHXJcvANhvS55h3aY32a9BAFB494",
        "reception_time": "2022-01-20T12:08:17.913-00:00",
        "included_in_blocks":
          [ "BKwrqVfNunkCkLgUdCuG8KwsnquHajYHbpFM6jqyTdQXpWYhZRF" ] },
      { "delegate": "tz1Z9M4biBHSiH38k5ciRMjR5bgk89yEgLTz",
        "reception_time": "2022-01-20T12:08:18.260-00:00",
        "included_in_blocks":
          [ "BKwrqVfNunkCkLgUdCuG8KwsnquHajYHbpFM6jqyTdQXpWYhZRF" ] },
      { "delegate": "tz1inhpLat1tg2R6upJMmHNfWfRzu5d6ZxKJ",
        "reception_time": "2022-01-20T12:08:20.331-00:00",
        "included_in_blocks":
          [ "BKwrqVfNunkCkLgUdCuG8KwsnquHajYHbpFM6jqyTdQXpWYhZRF" ] },
      { "delegate": "tz1NMNQYrYrfNpmUqQrMhJypf6ovnaDZhJHM",
        "reception_time": "2022-01-20T12:08:20.580-00:00",
        "included_in_blocks":
          [ "BKwrqVfNunkCkLgUdCuG8KwsnquHajYHbpFM6jqyTdQXpWYhZRF" ] },
      { "delegate": "tz1a1J3AGjJTAyBqWWSqFuUazUDV2TtD6hMy",
        "reception_time": "2022-01-20T12:08:22.313-00:00",
        "included_in_blocks":
          [ "BKwrqVfNunkCkLgUdCuG8KwsnquHajYHbpFM6jqyTdQXpWYhZRF" ] },
      { "delegate": "tz1S8e9GgdZG78XJRB3NqabfWeM37GnhZMWQ",
        "reception_time": "2022-01-20T12:08:09.529-00:00",
        "errors":
          [ { "kind": "temporary",
              "id": "proto.011-PtHangz2.prefilter.outdated_endorsement" } ],
        "included_in_blocks":
          [ "BKwrqVfNunkCkLgUdCuG8KwsnquHajYHbpFM6jqyTdQXpWYhZRF" ] },
      { "delegate": "tz1VQnqCCqX4K5sP3FNkVSNKTdCAMJDd3E1n",
        "reception_time": "2022-01-20T12:08:10.341-00:00",
        "errors":
          [ { "kind": "temporary",
              "id": "proto.011-PtHangz2.prefilter.outdated_endorsement" } ],
        "included_in_blocks":
          [ "BKwrqVfNunkCkLgUdCuG8KwsnquHajYHbpFM6jqyTdQXpWYhZRF" ] },
      { "delegate": "tz1gUNyn3hmnEWqkusWPzxRaon1cs7ndWh7h",
        "reception_time": "2022-01-20T12:08:10.346-00:00",
        "errors":
          [ { "kind": "temporary",
              "id": "proto.011-PtHangz2.prefilter.outdated_endorsement" } ],
        "included_in_blocks":
          [ "BKwrqVfNunkCkLgUdCuG8KwsnquHajYHbpFM6jqyTdQXpWYhZRF" ] },
      { "delegate": "tz1Zhv3RkfU2pHrmaiDyxp7kFZpZrUCu1CiF",
        "reception_time": "2022-01-20T12:08:10.437-00:00",
        "errors":
          [ { "kind": "temporary",
              "id": "proto.011-PtHangz2.prefilter.outdated_endorsement" } ],
        "included_in_blocks":
          [ "BKwrqVfNunkCkLgUdCuG8KwsnquHajYHbpFM6jqyTdQXpWYhZRF" ] },
      { "delegate": "tz1iZEKy4LaAjnTmn2RuGDf2iqdAQKnRi8kY",
        "reception_time": "2022-01-20T12:08:10.617-00:00",
        "errors":
          [ { "kind": "temporary",
              "id": "proto.011-PtHangz2.prefilter.outdated_endorsement" } ],
        "included_in_blocks":
          [ "BKwrqVfNunkCkLgUdCuG8KwsnquHajYHbpFM6jqyTdQXpWYhZRF" ] },
      { "delegate": "tz1P2Po7YM526ughEsRbY4oR9zaUPDZjxFrb",
        "reception_time": "2022-01-20T12:08:10.701-00:00",
        "errors":
          [ { "kind": "temporary",
              "id": "proto.011-PtHangz2.prefilter.outdated_endorsement" } ],
        "included_in_blocks":
          [ "BKwrqVfNunkCkLgUdCuG8KwsnquHajYHbpFM6jqyTdQXpWYhZRF" ] },
      { "delegate": "tz1Scdr2HsZiQjc7bHMeBbmDRXYVvdhjJbBh",
        "reception_time": "2022-01-20T12:08:10.730-00:00",
        "errors":
          [ { "kind": "temporary",
              "id": "proto.011-PtHangz2.prefilter.outdated_endorsement" } ],
        "included_in_blocks":
          [ "BKwrqVfNunkCkLgUdCuG8KwsnquHajYHbpFM6jqyTdQXpWYhZRF" ] },
      { "delegate": "tz1TXzyaKUA8wsWefdSnyaYFnV2M3vCV7er9",
        "reception_time": "2022-01-20T12:08:10.766-00:00",
        "errors":
          [ { "kind": "temporary",
              "id": "proto.011-PtHangz2.prefilter.outdated_endorsement" } ],
        "included_in_blocks":
          [ "BKwrqVfNunkCkLgUdCuG8KwsnquHajYHbpFM6jqyTdQXpWYhZRF" ] },
      { "delegate": "tz1STeamwbp68THcny9zk3LsbG3H36DMvbRK",
        "reception_time": "2022-01-20T12:08:11.009-00:00",
        "errors":
          [ { "kind": "temporary",
              "id": "proto.011-PtHangz2.prefilter.outdated_endorsement" } ],
        "included_in_blocks":
          [ "BKwrqVfNunkCkLgUdCuG8KwsnquHajYHbpFM6jqyTdQXpWYhZRF" ] },
      { "delegate": "tz1Lhf4J9Qxoe3DZ2nfe8FGDnvVj7oKjnMY6",
        "reception_time": "2022-01-20T12:08:11.035-00:00",
        "errors":
          [ { "kind": "temporary",
              "id": "proto.011-PtHangz2.prefilter.outdated_endorsement" } ],
        "included_in_blocks":
          [ "BKwrqVfNunkCkLgUdCuG8KwsnquHajYHbpFM6jqyTdQXpWYhZRF" ] },
      { "delegate": "tz3adcvQaKXTCg12zbninqo3q8ptKKtDFTLv",
        "reception_time": "2022-01-20T12:08:11.050-00:00",
        "errors":
          [ { "kind": "temporary",
              "id": "proto.011-PtHangz2.prefilter.outdated_endorsement" } ],
        "included_in_blocks":
          [ "BKwrqVfNunkCkLgUdCuG8KwsnquHajYHbpFM6jqyTdQXpWYhZRF" ] },
      { "delegate": "tz1Ldzz6k1BHdhuKvAtMRX7h5kJSMHESMHLC",
        "reception_time": "2022-01-20T12:08:11.185-00:00",
        "errors":
          [ { "kind": "temporary",
              "id": "proto.011-PtHangz2.prefilter.outdated_endorsement" } ],
        "included_in_blocks":
          [ "BKwrqVfNunkCkLgUdCuG8KwsnquHajYHbpFM6jqyTdQXpWYhZRF" ] },
      { "delegate": "tz1irJKkXS2DBWkU1NnmFQx1c1L7pbGg4yhk",
        "reception_time": "2022-01-20T12:08:11.204-00:00",
        "errors":
          [ { "kind": "temporary",
              "id": "proto.011-PtHangz2.prefilter.outdated_endorsement" } ],
        "included_in_blocks":
          [ "BKwrqVfNunkCkLgUdCuG8KwsnquHajYHbpFM6jqyTdQXpWYhZRF" ] },
      { "delegate": "tz1RjoHc98dBoqaH2jawF62XNKh7YsHwbkEv" },
      { "delegate": "tz1V3yg82mcrPJbegqVCPn6bC8w1CSTRp3f8" },
      { "delegate": "tz1awXW7wuXy21c66vBudMXQVAPgRnqqwgTH" },
      { "delegate": "tz1dbfppLAAxXZNtf2SDps7rch3qfUznKSoK" },
      { "delegate": "tz1NpWrAyDL9k2Lmnyxcgr9xuJakbBxdq7FB",
        "reception_time": "2022-01-20T12:08:30.654-00:00" },
      { "delegate": "tz1LBgHhYP4JbYUWB9kPLgpri8STz5bD58EB",
        "reception_time": "2022-01-20T12:08:39.748-00:00" } ] }