{ "blocks":
    [ { "hash": "BKrdFiahn9dZUhTspX95Hh6KsnBVfxYhUcRzevSEEvDaUomhjeW",
        "delegate": "tz1aRoaRhSpRYvFdyvgWLL6TGyRoGF51wDjM",
        "reception_time": "2022-01-20T05:28:40.959-00:00",
        "timestamp": "2022-01-20T05:28:20Z" } ],
  "endorsements":
    [ { "delegate": "tz1PFeoTuFen8jAMRHajBySNyCwLmY5RqF9M",
        "reception_time": "2022-01-20T05:28:53.833-00:00" },
      { "delegate": "tz1aRoaRhSpRYvFdyvgWLL6TGyRoGF51wDjM",
        "reception_time": "2022-01-20T05:28:48.541-00:00",
        "included_in_blocks":
          [ "BKr5k7NxixNqQgoBxDHnzToiu4eu1VGpMDjzjws3d1NAoDYN6Vo" ] },
      { "delegate": "tz1SohptP53wDPZhzTWzDUFAUcWF6DMBpaJV",
        "reception_time": "2022-01-20T05:28:46.864-00:00",
        "included_in_blocks":
          [ "BKr5k7NxixNqQgoBxDHnzToiu4eu1VGpMDjzjws3d1NAoDYN6Vo" ] },
      { "delegate": "tz1TRspM5SeZpaQUhzByXbEvqKF1vnCM2YTK",
        "reception_time": "2022-01-20T05:28:45.847-00:00",
        "included_in_blocks":
          [ "BKr5k7NxixNqQgoBxDHnzToiu4eu1VGpMDjzjws3d1NAoDYN6Vo" ] },
      { "delegate": "tz3UoffC7FG7zfpmvmjUmUeAaHvzdcUvAj6r",
        "reception_time": "2022-01-20T05:28:45.815-00:00",
        "included_in_blocks":
          [ "BKr5k7NxixNqQgoBxDHnzToiu4eu1VGpMDjzjws3d1NAoDYN6Vo" ] },
      { "delegate": "tz3NExpXn9aPNZPorRE4SdjJ2RGrfbJgMAaV",
        "reception_time": "2022-01-20T05:28:45.550-00:00",
        "included_in_blocks":
          [ "BKr5k7NxixNqQgoBxDHnzToiu4eu1VGpMDjzjws3d1NAoDYN6Vo" ] },
      { "delegate": "tz1UNkf4sWzC5vsKP7FnejSeJsXdc6z8Kzk4",
        "reception_time": "2022-01-20T05:28:45.541-00:00",
        "included_in_blocks":
          [ "BKr5k7NxixNqQgoBxDHnzToiu4eu1VGpMDjzjws3d1NAoDYN6Vo" ] },
      { "delegate": "tz3WMqdzXqRWXwyvj5Hp2H7QEepaUuS7vd9K",
        "reception_time": "2022-01-20T05:28:45.419-00:00",
        "included_in_blocks":
          [ "BKr5k7NxixNqQgoBxDHnzToiu4eu1VGpMDjzjws3d1NAoDYN6Vo" ] },
      { "delegate": "tz3RDC3Jdn4j15J7bBHZd29EUee9gVB1CxD9",
        "reception_time": "2022-01-20T05:28:44.761-00:00",
        "included_in_blocks":
          [ "BKr5k7NxixNqQgoBxDHnzToiu4eu1VGpMDjzjws3d1NAoDYN6Vo" ] },
      { "delegate": "tz1abmz7jiCV2GH2u81LRrGgAFFgvQgiDiaf",
        "reception_time": "2022-01-20T05:28:44.761-00:00",
        "included_in_blocks":
          [ "BKr5k7NxixNqQgoBxDHnzToiu4eu1VGpMDjzjws3d1NAoDYN6Vo" ] },
      { "delegate": "tz3VEZ4k6a4Wx42iyev6i2aVAptTRLEAivNN",
        "reception_time": "2022-01-20T05:28:44.761-00:00",
        "included_in_blocks":
          [ "BKr5k7NxixNqQgoBxDHnzToiu4eu1VGpMDjzjws3d1NAoDYN6Vo" ] },
      { "delegate": "tz1YhNsiRRU8aHNGg7NK3uuP6UDAyacJernB",
        "reception_time": "2022-01-20T05:28:44.761-00:00",
        "included_in_blocks":
          [ "BKr5k7NxixNqQgoBxDHnzToiu4eu1VGpMDjzjws3d1NAoDYN6Vo" ] },
      { "delegate": "tz3NDpRj6WBrJPikcPVHRBEjWKxFw3c6eQPS",
        "reception_time": "2022-01-20T05:28:44.524-00:00",
        "included_in_blocks":
          [ "BKr5k7NxixNqQgoBxDHnzToiu4eu1VGpMDjzjws3d1NAoDYN6Vo" ] },
      { "delegate": "tz1LmaFsWRkjr7QMCx5PtV6xTUz3AmEpKQiF",
        "reception_time": "2022-01-20T05:28:44.524-00:00",
        "included_in_blocks":
          [ "BKr5k7NxixNqQgoBxDHnzToiu4eu1VGpMDjzjws3d1NAoDYN6Vo" ] },
      { "delegate": "tz1dDsLch7Ww1s5mfD1tjBtKWwCdrjuHWanV",
        "reception_time": "2022-01-20T05:28:44.239-00:00",
        "included_in_blocks":
          [ "BKr5k7NxixNqQgoBxDHnzToiu4eu1VGpMDjzjws3d1NAoDYN6Vo" ] },
      { "delegate": "tz1TRqbYbUf2GyrjErf3hBzgBJPzW8y36qEs",
        "reception_time": "2022-01-20T05:28:44.239-00:00",
        "included_in_blocks":
          [ "BKr5k7NxixNqQgoBxDHnzToiu4eu1VGpMDjzjws3d1NAoDYN6Vo" ] },
      { "delegate": "tz1S8MNvuFEUsWgjHvi3AxibRBf388NhT1q2",
        "reception_time": "2022-01-20T05:28:43.767-00:00",
        "included_in_blocks":
          [ "BKr5k7NxixNqQgoBxDHnzToiu4eu1VGpMDjzjws3d1NAoDYN6Vo" ] },
      { "delegate": "tz1NdhRv643wLW6zCcRP3VfT24dvDnh7nuh9",
        "reception_time": "2022-01-20T05:28:43.767-00:00",
        "included_in_blocks":
          [ "BKr5k7NxixNqQgoBxDHnzToiu4eu1VGpMDjzjws3d1NAoDYN6Vo" ] },
      { "delegate": "tz1RCFbB9GpALpsZtu6J58sb74dm8qe6XBzv",
        "reception_time": "2022-01-20T05:28:43.767-00:00",
        "included_in_blocks":
          [ "BKr5k7NxixNqQgoBxDHnzToiu4eu1VGpMDjzjws3d1NAoDYN6Vo" ] },
      { "delegate": "tz3RB4aoyjov4KEVRbuhvQ1CKJgBJMWhaeB8",
        "reception_time": "2022-01-20T05:28:43.767-00:00",
        "included_in_blocks":
          [ "BKr5k7NxixNqQgoBxDHnzToiu4eu1VGpMDjzjws3d1NAoDYN6Vo" ] },
      { "delegate": "tz3bvNMQ95vfAYtG8193ymshqjSvmxiCUuR5",
        "reception_time": "2022-01-20T05:28:43.767-00:00",
        "included_in_blocks":
          [ "BKr5k7NxixNqQgoBxDHnzToiu4eu1VGpMDjzjws3d1NAoDYN6Vo" ] },
      { "delegate": "tz3bTdwZinP8U1JmSweNzVKhmwafqWmFWRfk",
        "reception_time": "2022-01-20T05:28:43.767-00:00",
        "included_in_blocks":
          [ "BKr5k7NxixNqQgoBxDHnzToiu4eu1VGpMDjzjws3d1NAoDYN6Vo" ] },
      { "delegate": "tz1cYufsxHXJcvANhvS55h3aY32a9BAFB494",
        "reception_time": "2022-01-20T05:28:43.767-00:00",
        "included_in_blocks":
          [ "BKr5k7NxixNqQgoBxDHnzToiu4eu1VGpMDjzjws3d1NAoDYN6Vo" ] },
      { "delegate": "tz1dRKU4FQ9QRRQPdaH4zCR6gmCmXfcvcgtB",
        "reception_time": "2022-01-20T05:28:43.767-00:00",
        "included_in_blocks":
          [ "BKr5k7NxixNqQgoBxDHnzToiu4eu1VGpMDjzjws3d1NAoDYN6Vo" ] },
      { "delegate": "tz1SYq214SCBy9naR6cvycQsYcUGpBqQAE8d",
        "reception_time": "2022-01-20T05:28:43.767-00:00",
        "included_in_blocks":
          [ "BKr5k7NxixNqQgoBxDHnzToiu4eu1VGpMDjzjws3d1NAoDYN6Vo" ] },
      { "delegate": "tz1g8vkmcde6sWKaG2NN9WKzCkDM6Rziq194",
        "reception_time": "2022-01-20T05:28:43.767-00:00",
        "included_in_blocks":
          [ "BKr5k7NxixNqQgoBxDHnzToiu4eu1VGpMDjzjws3d1NAoDYN6Vo" ] },
      { "delegate": "tz3iJu5vrKZcsqRPs8yJ61UDoeEXZmtro4qh",
        "reception_time": "2022-01-20T05:28:43.767-00:00",
        "included_in_blocks":
          [ "BKr5k7NxixNqQgoBxDHnzToiu4eu1VGpMDjzjws3d1NAoDYN6Vo" ] },
      { "delegate": "tz2FCNBrERXtaTtNX6iimR1UJ5JSDxvdHM93",
        "reception_time": "2022-01-20T05:28:43.767-00:00",
        "included_in_blocks":
          [ "BKr5k7NxixNqQgoBxDHnzToiu4eu1VGpMDjzjws3d1NAoDYN6Vo" ] },
      { "delegate": "tz1Tnjaxk6tbAeC2TmMApPh8UsrEVQvhHvx5",
        "reception_time": "2022-01-20T05:28:43.767-00:00",
        "included_in_blocks":
          [ "BKr5k7NxixNqQgoBxDHnzToiu4eu1VGpMDjzjws3d1NAoDYN6Vo" ] },
      { "delegate": "tz1fwnfJNgiDACshK9avfRfFbMaXrs3ghoJa",
        "reception_time": "2022-01-20T05:28:43.767-00:00",
        "included_in_blocks":
          [ "BKr5k7NxixNqQgoBxDHnzToiu4eu1VGpMDjzjws3d1NAoDYN6Vo" ] },
      { "delegate": "tz1hAYfexyzPGG6RhZZMpDvAHifubsbb6kgn",
        "reception_time": "2022-01-20T05:28:43.767-00:00",
        "included_in_blocks":
          [ "BKr5k7NxixNqQgoBxDHnzToiu4eu1VGpMDjzjws3d1NAoDYN6Vo" ] },
      { "delegate": "tz3S6BBeKgJGXxvLyZ1xzXzMPn11nnFtq5L9",
        "reception_time": "2022-01-20T05:28:43.767-00:00",
        "included_in_blocks":
          [ "BKr5k7NxixNqQgoBxDHnzToiu4eu1VGpMDjzjws3d1NAoDYN6Vo" ] },
      { "delegate": "tz3QT9dHYKDqh563chVa6za8526ys1UKfRfL",
        "reception_time": "2022-01-20T05:28:43.767-00:00",
        "included_in_blocks":
          [ "BKr5k7NxixNqQgoBxDHnzToiu4eu1VGpMDjzjws3d1NAoDYN6Vo" ] },
      { "delegate": "tz1fPKAtsYydh4f1wfWNfeNxWYu72TmM48fu",
        "reception_time": "2022-01-20T05:28:43.767-00:00",
        "included_in_blocks":
          [ "BKr5k7NxixNqQgoBxDHnzToiu4eu1VGpMDjzjws3d1NAoDYN6Vo" ] },
      { "delegate": "tz1gfArv665EUkSg2ojMBzcbfwuPxAvqPvjo",
        "reception_time": "2022-01-20T05:28:43.767-00:00",
        "included_in_blocks":
          [ "BKr5k7NxixNqQgoBxDHnzToiu4eu1VGpMDjzjws3d1NAoDYN6Vo" ] },
      { "delegate": "tz1T7duV5gZWSTq4YpBGbXNLTfznCLDrFxvs",
        "reception_time": "2022-01-20T05:28:43.767-00:00",
        "included_in_blocks":
          [ "BKr5k7NxixNqQgoBxDHnzToiu4eu1VGpMDjzjws3d1NAoDYN6Vo" ] },
      { "delegate": "tz1WvL7MKyCuUHfC3FxPFyiXcy8hHTBT3vjE",
        "reception_time": "2022-01-20T05:28:43.767-00:00",
        "included_in_blocks":
          [ "BKr5k7NxixNqQgoBxDHnzToiu4eu1VGpMDjzjws3d1NAoDYN6Vo" ] },
      { "delegate": "tz3Zhs2dygr55yHyQyKjntAtY9bgfhLZ4Xj1",
        "reception_time": "2022-01-20T05:28:43.767-00:00",
        "included_in_blocks":
          [ "BKr5k7NxixNqQgoBxDHnzToiu4eu1VGpMDjzjws3d1NAoDYN6Vo" ] },
      { "delegate": "tz1V4qCyvPKZ5UeqdH14HN42rxvNPQfc9UZg",
        "reception_time": "2022-01-20T05:28:43.767-00:00",
        "included_in_blocks":
          [ "BKr5k7NxixNqQgoBxDHnzToiu4eu1VGpMDjzjws3d1NAoDYN6Vo" ] },
      { "delegate": "tz1dwu9aYb7CRNq4Y2zAjipdjFuSVKhHS8vA",
        "reception_time": "2022-01-20T05:28:43.767-00:00",
        "included_in_blocks":
          [ "BKr5k7NxixNqQgoBxDHnzToiu4eu1VGpMDjzjws3d1NAoDYN6Vo" ] },
      { "delegate": "tz1KfEsrtDaA1sX7vdM4qmEPWuSytuqCDp5j",
        "reception_time": "2022-01-20T05:28:43.767-00:00",
        "included_in_blocks":
          [ "BKr5k7NxixNqQgoBxDHnzToiu4eu1VGpMDjzjws3d1NAoDYN6Vo" ] },
      { "delegate": "tz3hw2kqXhLUvY65ca1eety2oQTpAvd34R9Q",
        "reception_time": "2022-01-20T05:28:43.767-00:00",
        "included_in_blocks":
          [ "BKr5k7NxixNqQgoBxDHnzToiu4eu1VGpMDjzjws3d1NAoDYN6Vo" ] },
      { "delegate": "tz3RKYFsLuQzKBtmYuLNas7uMu3AsYd4QdsA",
        "reception_time": "2022-01-20T05:28:43.767-00:00",
        "included_in_blocks":
          [ "BKr5k7NxixNqQgoBxDHnzToiu4eu1VGpMDjzjws3d1NAoDYN6Vo" ] },
      { "delegate": "tz1ajgycuHmd2z2JbTSJxKv7x6cok2KuNSk1",
        "reception_time": "2022-01-20T05:28:43.502-00:00",
        "included_in_blocks":
          [ "BKr5k7NxixNqQgoBxDHnzToiu4eu1VGpMDjzjws3d1NAoDYN6Vo" ] },
      { "delegate": "tz1ZPh7XfUaJXUDvkrBxmS1BjEM1i62hiPpM",
        "reception_time": "2022-01-20T05:28:43.502-00:00",
        "included_in_blocks":
          [ "BKr5k7NxixNqQgoBxDHnzToiu4eu1VGpMDjzjws3d1NAoDYN6Vo" ] },
      { "delegate": "tz1TEc75UKXv4W5cwi14Na3NtqFD51yKQi7h",
        "reception_time": "2022-01-20T05:28:43.502-00:00",
        "included_in_blocks":
          [ "BKr5k7NxixNqQgoBxDHnzToiu4eu1VGpMDjzjws3d1NAoDYN6Vo" ] },
      { "delegate": "tz1dNVDWPf3Q59SdJqnjdnu277iyvReiRS9M",
        "reception_time": "2022-01-20T05:28:43.502-00:00",
        "included_in_blocks":
          [ "BKr5k7NxixNqQgoBxDHnzToiu4eu1VGpMDjzjws3d1NAoDYN6Vo" ] },
      { "delegate": "tz3ZbP2pM3nwvXztbuMJwJnDvV5xdpU8UkkD",
        "reception_time": "2022-01-20T05:28:43.502-00:00",
        "included_in_blocks":
          [ "BKr5k7NxixNqQgoBxDHnzToiu4eu1VGpMDjzjws3d1NAoDYN6Vo" ] },
      { "delegate": "tz1fb7c66UwePkkfDXz4ajFaBP9hVNLdS7JJ",
        "reception_time": "2022-01-20T05:28:43.502-00:00",
        "included_in_blocks":
          [ "BKr5k7NxixNqQgoBxDHnzToiu4eu1VGpMDjzjws3d1NAoDYN6Vo" ] },
      { "delegate": "tz1Nf6tsK4G6bBqgSQERy4nUtkHNKUVdh7q1",
        "reception_time": "2022-01-20T05:28:43.502-00:00",
        "included_in_blocks":
          [ "BKr5k7NxixNqQgoBxDHnzToiu4eu1VGpMDjzjws3d1NAoDYN6Vo" ] },
      { "delegate": "tz3gtoUxdudfBRcNY7iVdKPHCYYX6xdPpoRS",
        "reception_time": "2022-01-20T05:28:43.502-00:00",
        "included_in_blocks":
          [ "BKr5k7NxixNqQgoBxDHnzToiu4eu1VGpMDjzjws3d1NAoDYN6Vo" ] },
      { "delegate": "tz3QSGPoRp3Kn7n3vY24eYeu3Peuqo45LQ4D",
        "reception_time": "2022-01-20T05:28:43.502-00:00",
        "included_in_blocks":
          [ "BKr5k7NxixNqQgoBxDHnzToiu4eu1VGpMDjzjws3d1NAoDYN6Vo" ] },
      { "delegate": "tz1NEKxGEHsFufk87CVZcrqWu8o22qh46GK6",
        "reception_time": "2022-01-20T05:28:43.502-00:00",
        "included_in_blocks":
          [ "BKr5k7NxixNqQgoBxDHnzToiu4eu1VGpMDjzjws3d1NAoDYN6Vo" ] },
      { "delegate": "tz3NxTnke1acr8o3h5y9ytf5awQBGNJUKzVU",
        "reception_time": "2022-01-20T05:28:43.502-00:00",
        "included_in_blocks":
          [ "BKr5k7NxixNqQgoBxDHnzToiu4eu1VGpMDjzjws3d1NAoDYN6Vo" ] },
      { "delegate": "tz1eEnQhbwf6trb8Q8mPb2RaPkNk2rN7BKi8",
        "reception_time": "2022-01-20T05:28:43.502-00:00",
        "included_in_blocks":
          [ "BKr5k7NxixNqQgoBxDHnzToiu4eu1VGpMDjzjws3d1NAoDYN6Vo" ] },
      { "delegate": "tz3e7LbZvUtoXhpUD1yb6wuFodZpfYRb9nWJ",
        "reception_time": "2022-01-20T05:28:43.502-00:00",
        "included_in_blocks":
          [ "BKr5k7NxixNqQgoBxDHnzToiu4eu1VGpMDjzjws3d1NAoDYN6Vo" ] },
      { "delegate": "tz1awXW7wuXy21c66vBudMXQVAPgRnqqwgTH" },
      { "delegate": "tz1aehDcppdSz7Af2PtXvNQtqpeMfvFFYFHf" },
      { "delegate": "tz1RjoHc98dBoqaH2jawF62XNKh7YsHwbkEv" },
      { "delegate": "tz1NpWrAyDL9k2Lmnyxcgr9xuJakbBxdq7FB",
        "reception_time": "2022-01-20T05:29:07.029-00:00",
        "errors":
          [ { "kind": "temporary",
              "id": "proto.011-PtHangz2.prefilter.outdated_endorsement" } ] },
      { "delegate": "tz1gUNyn3hmnEWqkusWPzxRaon1cs7ndWh7h",
        "reception_time": "2022-01-20T05:28:39.557-00:00",
        "errors":
          [ { "kind": "temporary",
              "id": "proto.011-PtHangz2.prefilter.outdated_endorsement" } ],
        "included_in_blocks":
          [ "BKr5k7NxixNqQgoBxDHnzToiu4eu1VGpMDjzjws3d1NAoDYN6Vo" ] },
      { "delegate": "tz1VQnqCCqX4K5sP3FNkVSNKTdCAMJDd3E1n",
        "reception_time": "2022-01-20T05:28:39.569-00:00",
        "errors":
          [ { "kind": "temporary",
              "id": "proto.011-PtHangz2.prefilter.outdated_endorsement" } ],
        "included_in_blocks":
          [ "BKr5k7NxixNqQgoBxDHnzToiu4eu1VGpMDjzjws3d1NAoDYN6Vo" ] },
      { "delegate": "tz1Scdr2HsZiQjc7bHMeBbmDRXYVvdhjJbBh",
        "reception_time": "2022-01-20T05:28:39.569-00:00",
        "errors":
          [ { "kind": "temporary",
              "id": "proto.011-PtHangz2.prefilter.outdated_endorsement" } ],
        "included_in_blocks":
          [ "BKr5k7NxixNqQgoBxDHnzToiu4eu1VGpMDjzjws3d1NAoDYN6Vo" ] },
      { "delegate": "tz1P2Po7YM526ughEsRbY4oR9zaUPDZjxFrb",
        "reception_time": "2022-01-20T05:28:39.997-00:00",
        "errors":
          [ { "kind": "temporary",
              "id": "proto.011-PtHangz2.prefilter.outdated_endorsement" } ],
        "included_in_blocks":
          [ "BKr5k7NxixNqQgoBxDHnzToiu4eu1VGpMDjzjws3d1NAoDYN6Vo" ] },
      { "delegate": "tz3adcvQaKXTCg12zbninqo3q8ptKKtDFTLv",
        "reception_time": "2022-01-20T05:28:40.006-00:00",
        "errors":
          [ { "kind": "temporary",
              "id": "proto.011-PtHangz2.prefilter.outdated_endorsement" } ],
        "included_in_blocks":
          [ "BKr5k7NxixNqQgoBxDHnzToiu4eu1VGpMDjzjws3d1NAoDYN6Vo" ] },
      { "delegate": "tz1Ldzz6k1BHdhuKvAtMRX7h5kJSMHESMHLC",
        "reception_time": "2022-01-20T05:28:40.056-00:00",
        "errors":
          [ { "kind": "temporary",
              "id": "proto.011-PtHangz2.prefilter.outdated_endorsement" } ],
        "included_in_blocks":
          [ "BKr5k7NxixNqQgoBxDHnzToiu4eu1VGpMDjzjws3d1NAoDYN6Vo" ] },
      { "delegate": "tz1RV1MBbZMR68tacosb7Mwj6LkbPSUS1er1",
        "reception_time": "2022-01-20T05:28:40.186-00:00",
        "errors":
          [ { "kind": "temporary",
              "id": "proto.011-PtHangz2.prefilter.outdated_endorsement" } ],
        "included_in_blocks":
          [ "BKr5k7NxixNqQgoBxDHnzToiu4eu1VGpMDjzjws3d1NAoDYN6Vo" ] },
      { "delegate": "tz1STeamwbp68THcny9zk3LsbG3H36DMvbRK",
        "reception_time": "2022-01-20T05:28:40.434-00:00",
        "errors":
          [ { "kind": "temporary",
              "id": "proto.011-PtHangz2.prefilter.outdated_endorsement" } ],
        "included_in_blocks":
          [ "BKr5k7NxixNqQgoBxDHnzToiu4eu1VGpMDjzjws3d1NAoDYN6Vo" ] },
      { "delegate": "tz1irJKkXS2DBWkU1NnmFQx1c1L7pbGg4yhk",
        "reception_time": "2022-01-20T05:28:40.750-00:00",
        "errors":
          [ { "kind": "temporary",
              "id": "proto.011-PtHangz2.prefilter.outdated_endorsement" } ],
        "included_in_blocks":
          [ "BKr5k7NxixNqQgoBxDHnzToiu4eu1VGpMDjzjws3d1NAoDYN6Vo" ] },
      { "delegate": "tz1ei4WtWEMEJekSv8qDnu9PExG6Q8HgRGr3",
        "reception_time": "2022-01-20T05:28:40.895-00:00",
        "errors":
          [ { "kind": "temporary",
              "id": "proto.011-PtHangz2.prefilter.outdated_endorsement" } ],
        "included_in_blocks":
          [ "BKr5k7NxixNqQgoBxDHnzToiu4eu1VGpMDjzjws3d1NAoDYN6Vo" ] } ] }