{ "blocks":
    [ { "hash": "BMG9Ge44SW3Gh2jASsCuCFtg5QnK4ALVgiTNAah9Lp3eJCWzfHE",
        "delegate": "tz3WMqdzXqRWXwyvj5Hp2H7QEepaUuS7vd9K",
        "reception_time": "2022-01-20T06:06:20.239-00:00",
        "timestamp": "2022-01-20T06:06:10Z" } ],
  "endorsements":
    [ { "delegate": "tz1Kt4P8BCaP93AEV4eA7gmpRryWt5hznjCP",
        "reception_time": "2022-01-20T06:06:20.138-00:00",
        "errors":
          [ { "kind": "temporary",
              "id": "proto.011-PtHangz2.prefilter.outdated_endorsement" } ],
        "included_in_blocks":
          [ "BMXaTmnEN7nkRxae27Uidt4xbjbj7jcxZPtLxq5eJVMwKnJMsUL" ] },
      { "delegate": "tz1P2Po7YM526ughEsRbY4oR9zaUPDZjxFrb",
        "reception_time": "2022-01-20T06:06:20.055-00:00",
        "errors":
          [ { "kind": "temporary",
              "id": "proto.011-PtHangz2.prefilter.outdated_endorsement" } ],
        "included_in_blocks":
          [ "BMXaTmnEN7nkRxae27Uidt4xbjbj7jcxZPtLxq5eJVMwKnJMsUL" ] },
      { "delegate": "tz1Scdr2HsZiQjc7bHMeBbmDRXYVvdhjJbBh",
        "reception_time": "2022-01-20T06:06:19.992-00:00",
        "errors":
          [ { "kind": "temporary",
              "id": "proto.011-PtHangz2.prefilter.outdated_endorsement" } ],
        "included_in_blocks":
          [ "BMXaTmnEN7nkRxae27Uidt4xbjbj7jcxZPtLxq5eJVMwKnJMsUL" ] },
      { "delegate": "tz1S8e9GgdZG78XJRB3NqabfWeM37GnhZMWQ",
        "reception_time": "2022-01-20T06:06:19.806-00:00",
        "errors":
          [ { "kind": "temporary",
              "id": "proto.011-PtHangz2.prefilter.outdated_endorsement" } ],
        "included_in_blocks":
          [ "BMXaTmnEN7nkRxae27Uidt4xbjbj7jcxZPtLxq5eJVMwKnJMsUL" ] },
      { "delegate": "tz1RjoHc98dBoqaH2jawF62XNKh7YsHwbkEv" },
      { "delegate": "tz1W5VkdB5s7ENMESVBtwyt9kyvLqPcUczRT" },
      { "delegate": "tz1awXW7wuXy21c66vBudMXQVAPgRnqqwgTH" },
      { "delegate": "tz1gUNyn3hmnEWqkusWPzxRaon1cs7ndWh7h",
        "reception_time": "2022-01-20T06:06:21.413-00:00",
        "included_in_blocks":
          [ "BMXaTmnEN7nkRxae27Uidt4xbjbj7jcxZPtLxq5eJVMwKnJMsUL" ] },
      { "delegate": "tz1VQnqCCqX4K5sP3FNkVSNKTdCAMJDd3E1n",
        "reception_time": "2022-01-20T06:06:21.418-00:00",
        "included_in_blocks":
          [ "BMXaTmnEN7nkRxae27Uidt4xbjbj7jcxZPtLxq5eJVMwKnJMsUL" ] },
      { "delegate": "tz1aDiEJf9ztRrAJEXZfcG3CKimoKsGhwVAi",
        "reception_time": "2022-01-20T06:06:21.418-00:00",
        "included_in_blocks":
          [ "BMXaTmnEN7nkRxae27Uidt4xbjbj7jcxZPtLxq5eJVMwKnJMsUL" ] },
      { "delegate": "tz1aXD7Jigrt3PBYSpHSg5Rr33SexMmmM5Ys",
        "reception_time": "2022-01-20T06:06:21.428-00:00",
        "included_in_blocks":
          [ "BMXaTmnEN7nkRxae27Uidt4xbjbj7jcxZPtLxq5eJVMwKnJMsUL" ] },
      { "delegate": "tz3adcvQaKXTCg12zbninqo3q8ptKKtDFTLv",
        "reception_time": "2022-01-20T06:06:21.472-00:00",
        "included_in_blocks":
          [ "BMXaTmnEN7nkRxae27Uidt4xbjbj7jcxZPtLxq5eJVMwKnJMsUL" ] },
      { "delegate": "tz1eEnQhbwf6trb8Q8mPb2RaPkNk2rN7BKi8",
        "reception_time": "2022-01-20T06:06:21.477-00:00",
        "included_in_blocks":
          [ "BMXaTmnEN7nkRxae27Uidt4xbjbj7jcxZPtLxq5eJVMwKnJMsUL" ] },
      { "delegate": "tz1Ldzz6k1BHdhuKvAtMRX7h5kJSMHESMHLC",
        "reception_time": "2022-01-20T06:06:21.495-00:00",
        "included_in_blocks":
          [ "BMXaTmnEN7nkRxae27Uidt4xbjbj7jcxZPtLxq5eJVMwKnJMsUL" ] },
      { "delegate": "tz1TzaNn7wSQSP5gYPXCnNzBCpyMiidCq1PX",
        "reception_time": "2022-01-20T06:06:21.497-00:00",
        "included_in_blocks":
          [ "BMXaTmnEN7nkRxae27Uidt4xbjbj7jcxZPtLxq5eJVMwKnJMsUL" ] },
      { "delegate": "tz1irJKkXS2DBWkU1NnmFQx1c1L7pbGg4yhk",
        "reception_time": "2022-01-20T06:06:21.506-00:00",
        "included_in_blocks":
          [ "BMXaTmnEN7nkRxae27Uidt4xbjbj7jcxZPtLxq5eJVMwKnJMsUL" ] },
      { "delegate": "tz3WMqdzXqRWXwyvj5Hp2H7QEepaUuS7vd9K",
        "reception_time": "2022-01-20T06:06:21.506-00:00",
        "included_in_blocks":
          [ "BMXaTmnEN7nkRxae27Uidt4xbjbj7jcxZPtLxq5eJVMwKnJMsUL" ] },
      { "delegate": "tz1WCd2jm4uSt4vntk4vSuUWoZQGhLcDuR9q",
        "reception_time": "2022-01-20T06:06:21.510-00:00",
        "included_in_blocks":
          [ "BMXaTmnEN7nkRxae27Uidt4xbjbj7jcxZPtLxq5eJVMwKnJMsUL" ] },
      { "delegate": "tz1VmiY38m3y95HqQLjMwqnMS7sdMfGomzKi",
        "reception_time": "2022-01-20T06:06:21.521-00:00",
        "included_in_blocks":
          [ "BMXaTmnEN7nkRxae27Uidt4xbjbj7jcxZPtLxq5eJVMwKnJMsUL" ] },
      { "delegate": "tz1ZPh7XfUaJXUDvkrBxmS1BjEM1i62hiPpM",
        "reception_time": "2022-01-20T06:06:21.523-00:00",
        "included_in_blocks":
          [ "BMXaTmnEN7nkRxae27Uidt4xbjbj7jcxZPtLxq5eJVMwKnJMsUL" ] },
      { "delegate": "tz1Kf25fX1VdmYGSEzwFy1wNmkbSEZ2V83sY",
        "reception_time": "2022-01-20T06:06:21.526-00:00",
        "included_in_blocks":
          [ "BMXaTmnEN7nkRxae27Uidt4xbjbj7jcxZPtLxq5eJVMwKnJMsUL" ] },
      { "delegate": "tz1PWCDnz783NNGGQjEFFsHtrcK5yBW4E2rm",
        "reception_time": "2022-01-20T06:06:21.553-00:00",
        "included_in_blocks":
          [ "BMXaTmnEN7nkRxae27Uidt4xbjbj7jcxZPtLxq5eJVMwKnJMsUL" ] },
      { "delegate": "tz1ei4WtWEMEJekSv8qDnu9PExG6Q8HgRGr3",
        "reception_time": "2022-01-20T06:06:21.571-00:00",
        "included_in_blocks":
          [ "BMXaTmnEN7nkRxae27Uidt4xbjbj7jcxZPtLxq5eJVMwKnJMsUL" ] },
      { "delegate": "tz1cSoWttzYi9taqyHfcKS86b5M31SoaTQdg",
        "reception_time": "2022-01-20T06:06:21.673-00:00",
        "included_in_blocks":
          [ "BMXaTmnEN7nkRxae27Uidt4xbjbj7jcxZPtLxq5eJVMwKnJMsUL" ] },
      { "delegate": "tz3NxTnke1acr8o3h5y9ytf5awQBGNJUKzVU",
        "reception_time": "2022-01-20T06:06:21.691-00:00",
        "included_in_blocks":
          [ "BMXaTmnEN7nkRxae27Uidt4xbjbj7jcxZPtLxq5eJVMwKnJMsUL" ] },
      { "delegate": "tz3ZbP2pM3nwvXztbuMJwJnDvV5xdpU8UkkD",
        "reception_time": "2022-01-20T06:06:21.705-00:00",
        "included_in_blocks":
          [ "BMXaTmnEN7nkRxae27Uidt4xbjbj7jcxZPtLxq5eJVMwKnJMsUL" ] },
      { "delegate": "tz1fPKAtsYydh4f1wfWNfeNxWYu72TmM48fu",
        "reception_time": "2022-01-20T06:06:21.710-00:00",
        "included_in_blocks":
          [ "BMXaTmnEN7nkRxae27Uidt4xbjbj7jcxZPtLxq5eJVMwKnJMsUL" ] },
      { "delegate": "tz3iJu5vrKZcsqRPs8yJ61UDoeEXZmtro4qh",
        "reception_time": "2022-01-20T06:06:21.723-00:00",
        "included_in_blocks":
          [ "BMXaTmnEN7nkRxae27Uidt4xbjbj7jcxZPtLxq5eJVMwKnJMsUL" ] },
      { "delegate": "tz3QSGPoRp3Kn7n3vY24eYeu3Peuqo45LQ4D",
        "reception_time": "2022-01-20T06:06:21.792-00:00",
        "included_in_blocks":
          [ "BMXaTmnEN7nkRxae27Uidt4xbjbj7jcxZPtLxq5eJVMwKnJMsUL" ] },
      { "delegate": "tz3hw2kqXhLUvY65ca1eety2oQTpAvd34R9Q",
        "reception_time": "2022-01-20T06:06:21.807-00:00",
        "included_in_blocks":
          [ "BMXaTmnEN7nkRxae27Uidt4xbjbj7jcxZPtLxq5eJVMwKnJMsUL" ] },
      { "delegate": "tz3gtoUxdudfBRcNY7iVdKPHCYYX6xdPpoRS",
        "reception_time": "2022-01-20T06:06:21.818-00:00",
        "included_in_blocks":
          [ "BMXaTmnEN7nkRxae27Uidt4xbjbj7jcxZPtLxq5eJVMwKnJMsUL" ] },
      { "delegate": "tz3RKYFsLuQzKBtmYuLNas7uMu3AsYd4QdsA",
        "reception_time": "2022-01-20T06:06:21.841-00:00",
        "included_in_blocks":
          [ "BMXaTmnEN7nkRxae27Uidt4xbjbj7jcxZPtLxq5eJVMwKnJMsUL" ] },
      { "delegate": "tz3bTdwZinP8U1JmSweNzVKhmwafqWmFWRfk",
        "reception_time": "2022-01-20T06:06:21.871-00:00",
        "included_in_blocks":
          [ "BMXaTmnEN7nkRxae27Uidt4xbjbj7jcxZPtLxq5eJVMwKnJMsUL" ] },
      { "delegate": "tz1dNVDWPf3Q59SdJqnjdnu277iyvReiRS9M",
        "reception_time": "2022-01-20T06:06:21.931-00:00",
        "included_in_blocks":
          [ "BMXaTmnEN7nkRxae27Uidt4xbjbj7jcxZPtLxq5eJVMwKnJMsUL" ] },
      { "delegate": "tz1fb7c66UwePkkfDXz4ajFaBP9hVNLdS7JJ",
        "reception_time": "2022-01-20T06:06:21.976-00:00",
        "included_in_blocks":
          [ "BMXaTmnEN7nkRxae27Uidt4xbjbj7jcxZPtLxq5eJVMwKnJMsUL" ] },
      { "delegate": "tz1gfArv665EUkSg2ojMBzcbfwuPxAvqPvjo",
        "reception_time": "2022-01-20T06:06:22.068-00:00",
        "included_in_blocks":
          [ "BMXaTmnEN7nkRxae27Uidt4xbjbj7jcxZPtLxq5eJVMwKnJMsUL" ] },
      { "delegate": "tz1MGTFJXpQmtxLi8QJ7AuVRgM2L2Qfn9w9i",
        "reception_time": "2022-01-20T06:06:22.112-00:00",
        "included_in_blocks":
          [ "BMXaTmnEN7nkRxae27Uidt4xbjbj7jcxZPtLxq5eJVMwKnJMsUL" ] },
      { "delegate": "tz1TRspM5SeZpaQUhzByXbEvqKF1vnCM2YTK",
        "reception_time": "2022-01-20T06:06:22.167-00:00",
        "included_in_blocks":
          [ "BMXaTmnEN7nkRxae27Uidt4xbjbj7jcxZPtLxq5eJVMwKnJMsUL" ] },
      { "delegate": "tz1cUTyvZAs9ExrK8Fq88UvaaBrb72bseicE",
        "reception_time": "2022-01-20T06:06:22.181-00:00",
        "included_in_blocks":
          [ "BMXaTmnEN7nkRxae27Uidt4xbjbj7jcxZPtLxq5eJVMwKnJMsUL" ] },
      { "delegate": "tz1NEKxGEHsFufk87CVZcrqWu8o22qh46GK6",
        "reception_time": "2022-01-20T06:06:22.247-00:00",
        "included_in_blocks":
          [ "BMXaTmnEN7nkRxae27Uidt4xbjbj7jcxZPtLxq5eJVMwKnJMsUL" ] },
      { "delegate": "tz1TEc75UKXv4W5cwi14Na3NtqFD51yKQi7h",
        "reception_time": "2022-01-20T06:06:22.276-00:00",
        "included_in_blocks":
          [ "BMXaTmnEN7nkRxae27Uidt4xbjbj7jcxZPtLxq5eJVMwKnJMsUL" ] },
      { "delegate": "tz3S6BBeKgJGXxvLyZ1xzXzMPn11nnFtq5L9",
        "reception_time": "2022-01-20T06:06:22.351-00:00",
        "included_in_blocks":
          [ "BMXaTmnEN7nkRxae27Uidt4xbjbj7jcxZPtLxq5eJVMwKnJMsUL" ] },
      { "delegate": "tz3QT9dHYKDqh563chVa6za8526ys1UKfRfL",
        "reception_time": "2022-01-20T06:06:22.400-00:00",
        "included_in_blocks":
          [ "BMXaTmnEN7nkRxae27Uidt4xbjbj7jcxZPtLxq5eJVMwKnJMsUL" ] },
      { "delegate": "tz1KfEsrtDaA1sX7vdM4qmEPWuSytuqCDp5j",
        "reception_time": "2022-01-20T06:06:22.404-00:00",
        "included_in_blocks":
          [ "BMXaTmnEN7nkRxae27Uidt4xbjbj7jcxZPtLxq5eJVMwKnJMsUL" ] },
      { "delegate": "tz1Sm5iH2vfTtyPQdRHt4STaARTVqTHxJ6Ea",
        "reception_time": "2022-01-20T06:06:22.422-00:00",
        "included_in_blocks":
          [ "BMXaTmnEN7nkRxae27Uidt4xbjbj7jcxZPtLxq5eJVMwKnJMsUL" ] },
      { "delegate": "tz1UMCB2AHSTwG7YcGNr31CqYCtGN873royv",
        "reception_time": "2022-01-20T06:06:22.463-00:00",
        "included_in_blocks":
          [ "BMXaTmnEN7nkRxae27Uidt4xbjbj7jcxZPtLxq5eJVMwKnJMsUL" ] },
      { "delegate": "tz1Nf6tsK4G6bBqgSQERy4nUtkHNKUVdh7q1",
        "reception_time": "2022-01-20T06:06:22.606-00:00",
        "included_in_blocks":
          [ "BMXaTmnEN7nkRxae27Uidt4xbjbj7jcxZPtLxq5eJVMwKnJMsUL" ] },
      { "delegate": "tz3RB4aoyjov4KEVRbuhvQ1CKJgBJMWhaeB8",
        "reception_time": "2022-01-20T06:06:22.620-00:00",
        "included_in_blocks":
          [ "BMXaTmnEN7nkRxae27Uidt4xbjbj7jcxZPtLxq5eJVMwKnJMsUL" ] },
      { "delegate": "tz3RDC3Jdn4j15J7bBHZd29EUee9gVB1CxD9",
        "reception_time": "2022-01-20T06:06:22.638-00:00",
        "included_in_blocks":
          [ "BMXaTmnEN7nkRxae27Uidt4xbjbj7jcxZPtLxq5eJVMwKnJMsUL" ] },
      { "delegate": "tz1S8MNvuFEUsWgjHvi3AxibRBf388NhT1q2",
        "reception_time": "2022-01-20T06:06:22.638-00:00",
        "included_in_blocks":
          [ "BMXaTmnEN7nkRxae27Uidt4xbjbj7jcxZPtLxq5eJVMwKnJMsUL" ] },
      { "delegate": "tz1MQJPGNMijnXnVoBENFz9rUhaPt3S7rWoz",
        "reception_time": "2022-01-20T06:06:22.650-00:00",
        "included_in_blocks":
          [ "BMXaTmnEN7nkRxae27Uidt4xbjbj7jcxZPtLxq5eJVMwKnJMsUL" ] },
      { "delegate": "tz1RCFbB9GpALpsZtu6J58sb74dm8qe6XBzv",
        "reception_time": "2022-01-20T06:06:22.766-00:00",
        "included_in_blocks":
          [ "BMXaTmnEN7nkRxae27Uidt4xbjbj7jcxZPtLxq5eJVMwKnJMsUL" ] },
      { "delegate": "tz3VEZ4k6a4Wx42iyev6i2aVAptTRLEAivNN",
        "reception_time": "2022-01-20T06:06:22.921-00:00",
        "included_in_blocks":
          [ "BMXaTmnEN7nkRxae27Uidt4xbjbj7jcxZPtLxq5eJVMwKnJMsUL" ] },
      { "delegate": "tz1PeZx7FXy7QRuMREGXGxeipb24RsMMzUNe",
        "reception_time": "2022-01-20T06:06:22.927-00:00",
        "included_in_blocks":
          [ "BMXaTmnEN7nkRxae27Uidt4xbjbj7jcxZPtLxq5eJVMwKnJMsUL" ] },
      { "delegate": "tz2FCNBrERXtaTtNX6iimR1UJ5JSDxvdHM93",
        "reception_time": "2022-01-20T06:06:22.958-00:00",
        "included_in_blocks":
          [ "BMXaTmnEN7nkRxae27Uidt4xbjbj7jcxZPtLxq5eJVMwKnJMsUL" ] },
      { "delegate": "tz1WBfwbT66FC6BTLexc2BoyCCBM9LG7pnVW",
        "reception_time": "2022-01-20T06:06:22.975-00:00",
        "included_in_blocks":
          [ "BMXaTmnEN7nkRxae27Uidt4xbjbj7jcxZPtLxq5eJVMwKnJMsUL" ] },
      { "delegate": "tz1VceyYUpq1gk5dtp6jXQRtCtY8hm5DKt72",
        "reception_time": "2022-01-20T06:06:23.020-00:00",
        "included_in_blocks":
          [ "BMXaTmnEN7nkRxae27Uidt4xbjbj7jcxZPtLxq5eJVMwKnJMsUL" ] },
      { "delegate": "tz1Tnjaxk6tbAeC2TmMApPh8UsrEVQvhHvx5",
        "reception_time": "2022-01-20T06:06:23.045-00:00",
        "included_in_blocks":
          [ "BMXaTmnEN7nkRxae27Uidt4xbjbj7jcxZPtLxq5eJVMwKnJMsUL" ] },
      { "delegate": "tz1dRKU4FQ9QRRQPdaH4zCR6gmCmXfcvcgtB",
        "reception_time": "2022-01-20T06:06:23.402-00:00",
        "included_in_blocks":
          [ "BMXaTmnEN7nkRxae27Uidt4xbjbj7jcxZPtLxq5eJVMwKnJMsUL" ] },
      { "delegate": "tz1fwnfJNgiDACshK9avfRfFbMaXrs3ghoJa",
        "reception_time": "2022-01-20T06:06:23.569-00:00",
        "included_in_blocks":
          [ "BMXaTmnEN7nkRxae27Uidt4xbjbj7jcxZPtLxq5eJVMwKnJMsUL" ] },
      { "delegate": "tz3NExpXn9aPNZPorRE4SdjJ2RGrfbJgMAaV",
        "reception_time": "2022-01-20T06:06:23.607-00:00",
        "included_in_blocks":
          [ "BMXaTmnEN7nkRxae27Uidt4xbjbj7jcxZPtLxq5eJVMwKnJMsUL" ] },
      { "delegate": "tz1WnfXMPaNTBmH7DBPwqCWs9cPDJdkGBTZ8",
        "reception_time": "2022-01-20T06:06:23.611-00:00",
        "included_in_blocks":
          [ "BMXaTmnEN7nkRxae27Uidt4xbjbj7jcxZPtLxq5eJVMwKnJMsUL" ] },
      { "delegate": "tz3bEQoFCZEEfZMskefZ8q8e4eiHH1pssRax",
        "reception_time": "2022-01-20T06:06:23.638-00:00",
        "included_in_blocks":
          [ "BMXaTmnEN7nkRxae27Uidt4xbjbj7jcxZPtLxq5eJVMwKnJMsUL" ] },
      { "delegate": "tz1TRqbYbUf2GyrjErf3hBzgBJPzW8y36qEs",
        "reception_time": "2022-01-20T06:06:23.874-00:00",
        "included_in_blocks":
          [ "BMXaTmnEN7nkRxae27Uidt4xbjbj7jcxZPtLxq5eJVMwKnJMsUL" ] },
      { "delegate": "tz1b9MYGrbN1NAxphLEsPPNT9JC7aNFc5nA4",
        "reception_time": "2022-01-20T06:06:24.010-00:00",
        "included_in_blocks":
          [ "BMXaTmnEN7nkRxae27Uidt4xbjbj7jcxZPtLxq5eJVMwKnJMsUL" ] },
      { "delegate": "tz3gLTu4Yxj8tPAcriQVUdxv6BY9QyvzU1az",
        "reception_time": "2022-01-20T06:06:24.073-00:00",
        "included_in_blocks":
          [ "BMXaTmnEN7nkRxae27Uidt4xbjbj7jcxZPtLxq5eJVMwKnJMsUL" ] },
      { "delegate": "tz3NDpRj6WBrJPikcPVHRBEjWKxFw3c6eQPS",
        "reception_time": "2022-01-20T06:06:24.093-00:00",
        "included_in_blocks":
          [ "BMXaTmnEN7nkRxae27Uidt4xbjbj7jcxZPtLxq5eJVMwKnJMsUL" ] },
      { "delegate": "tz1T7duV5gZWSTq4YpBGbXNLTfznCLDrFxvs",
        "reception_time": "2022-01-20T06:06:24.125-00:00",
        "included_in_blocks":
          [ "BMXaTmnEN7nkRxae27Uidt4xbjbj7jcxZPtLxq5eJVMwKnJMsUL" ] },
      { "delegate": "tz1LnWa4AiFCjMezTgSNa65QFoo7DQGEWgEU",
        "reception_time": "2022-01-20T06:06:24.162-00:00",
        "included_in_blocks":
          [ "BMXaTmnEN7nkRxae27Uidt4xbjbj7jcxZPtLxq5eJVMwKnJMsUL" ] },
      { "delegate": "tz3bvNMQ95vfAYtG8193ymshqjSvmxiCUuR5",
        "reception_time": "2022-01-20T06:06:24.189-00:00",
        "included_in_blocks":
          [ "BMXaTmnEN7nkRxae27Uidt4xbjbj7jcxZPtLxq5eJVMwKnJMsUL" ] },
      { "delegate": "tz3UoffC7FG7zfpmvmjUmUeAaHvzdcUvAj6r",
        "reception_time": "2022-01-20T06:06:24.623-00:00",
        "included_in_blocks":
          [ "BMXaTmnEN7nkRxae27Uidt4xbjbj7jcxZPtLxq5eJVMwKnJMsUL" ] },
      { "delegate": "tz1aJS7Pk9uWR3wWyFf1i3RwhYxN84G7stom",
        "reception_time": "2022-01-20T06:06:25.307-00:00",
        "included_in_blocks":
          [ "BMXaTmnEN7nkRxae27Uidt4xbjbj7jcxZPtLxq5eJVMwKnJMsUL" ] },
      { "delegate": "tz1g8vkmcde6sWKaG2NN9WKzCkDM6Rziq194",
        "reception_time": "2022-01-20T06:06:26.015-00:00",
        "included_in_blocks":
          [ "BMXaTmnEN7nkRxae27Uidt4xbjbj7jcxZPtLxq5eJVMwKnJMsUL" ] },
      { "delegate": "tz1aRoaRhSpRYvFdyvgWLL6TGyRoGF51wDjM",
        "reception_time": "2022-01-20T06:06:26.088-00:00",
        "included_in_blocks":
          [ "BMXaTmnEN7nkRxae27Uidt4xbjbj7jcxZPtLxq5eJVMwKnJMsUL" ] },
      { "delegate": "tz1NpWrAyDL9k2Lmnyxcgr9xuJakbBxdq7FB",
        "reception_time": "2022-01-20T06:06:30.073-00:00",
        "included_in_blocks":
          [ "BMXaTmnEN7nkRxae27Uidt4xbjbj7jcxZPtLxq5eJVMwKnJMsUL" ] } ] }