{ "blocks":
    [ { "hash": "BKkKAdGcAV1VEm3DF12Qu4Q72MtBbtdhPtCiNcgEeFK4LJSvja8",
        "delegate": "tz1gfArv665EUkSg2ojMBzcbfwuPxAvqPvjo",
        "reception_time": "2022-01-20T09:21:11.989-00:00",
        "timestamp": "2022-01-20T09:21:00Z" } ],
  "endorsements":
    [ { "delegate": "tz1bTpviNnyx2PXsNmGpCQTMQsGoYordkUoA" },
      { "delegate": "tz1awXW7wuXy21c66vBudMXQVAPgRnqqwgTH" },
      { "delegate": "tz1W5VkdB5s7ENMESVBtwyt9kyvLqPcUczRT" },
      { "delegate": "tz1TeWzSWBNZ7PB6Kb6xUpGCT7pu13PFv3cv" },
      { "delegate": "tz1RjoHc98dBoqaH2jawF62XNKh7YsHwbkEv" },
      { "delegate": "tz1RV1MBbZMR68tacosb7Mwj6LkbPSUS1er1" },
      { "delegate": "tz1gfArv665EUkSg2ojMBzcbfwuPxAvqPvjo",
        "reception_time": "2022-01-20T09:21:11.833-00:00",
        "errors":
          [ { "kind": "temporary",
              "id": "proto.011-PtHangz2.prefilter.outdated_endorsement" } ],
        "included_in_blocks":
          [ "BLngKbg7jJty78fLsdwqtx42VSc5yu5eae3LB4AfeuBCZS8mkQK" ] },
      { "delegate": "tz1S8e9GgdZG78XJRB3NqabfWeM37GnhZMWQ",
        "reception_time": "2022-01-20T09:21:11.818-00:00",
        "errors":
          [ { "kind": "temporary",
              "id": "proto.011-PtHangz2.prefilter.outdated_endorsement" } ],
        "included_in_blocks":
          [ "BLngKbg7jJty78fLsdwqtx42VSc5yu5eae3LB4AfeuBCZS8mkQK" ] },
      { "delegate": "tz1NpWrAyDL9k2Lmnyxcgr9xuJakbBxdq7FB",
        "reception_time": "2022-01-20T09:21:24.874-00:00",
        "included_in_blocks":
          [ "BLngKbg7jJty78fLsdwqtx42VSc5yu5eae3LB4AfeuBCZS8mkQK" ] },
      { "delegate": "tz1S5WxdZR5f9NzsPXhr7L9L1vrEb5spZFur",
        "reception_time": "2022-01-20T09:21:19.835-00:00",
        "included_in_blocks":
          [ "BLngKbg7jJty78fLsdwqtx42VSc5yu5eae3LB4AfeuBCZS8mkQK" ] },
      { "delegate": "tz1g8vkmcde6sWKaG2NN9WKzCkDM6Rziq194",
        "reception_time": "2022-01-20T09:21:19.262-00:00",
        "included_in_blocks":
          [ "BLngKbg7jJty78fLsdwqtx42VSc5yu5eae3LB4AfeuBCZS8mkQK" ] },
      { "delegate": "tz1aRoaRhSpRYvFdyvgWLL6TGyRoGF51wDjM",
        "reception_time": "2022-01-20T09:21:19.246-00:00",
        "included_in_blocks":
          [ "BLngKbg7jJty78fLsdwqtx42VSc5yu5eae3LB4AfeuBCZS8mkQK" ] },
      { "delegate": "tz1Q8QkSBS63ZQnH3fBTiAMPes9R666Rn6Sc",
        "reception_time": "2022-01-20T09:21:17.593-00:00",
        "included_in_blocks":
          [ "BLngKbg7jJty78fLsdwqtx42VSc5yu5eae3LB4AfeuBCZS8mkQK" ] },
      { "delegate": "tz3bvNMQ95vfAYtG8193ymshqjSvmxiCUuR5",
        "reception_time": "2022-01-20T09:21:17.173-00:00",
        "included_in_blocks":
          [ "BLngKbg7jJty78fLsdwqtx42VSc5yu5eae3LB4AfeuBCZS8mkQK" ] },
      { "delegate": "tz3NExpXn9aPNZPorRE4SdjJ2RGrfbJgMAaV",
        "reception_time": "2022-01-20T09:21:17.156-00:00",
        "included_in_blocks":
          [ "BLngKbg7jJty78fLsdwqtx42VSc5yu5eae3LB4AfeuBCZS8mkQK" ] },
      { "delegate": "tz1LmaFsWRkjr7QMCx5PtV6xTUz3AmEpKQiF",
        "reception_time": "2022-01-20T09:21:17.049-00:00",
        "included_in_blocks":
          [ "BLngKbg7jJty78fLsdwqtx42VSc5yu5eae3LB4AfeuBCZS8mkQK" ] },
      { "delegate": "tz1UvkANVPWppVgMkLnvN7BwYZsCP7vm6NVd",
        "reception_time": "2022-01-20T09:21:17.045-00:00",
        "included_in_blocks":
          [ "BLngKbg7jJty78fLsdwqtx42VSc5yu5eae3LB4AfeuBCZS8mkQK" ] },
      { "delegate": "tz3VEZ4k6a4Wx42iyev6i2aVAptTRLEAivNN",
        "reception_time": "2022-01-20T09:21:17.027-00:00",
        "included_in_blocks":
          [ "BLngKbg7jJty78fLsdwqtx42VSc5yu5eae3LB4AfeuBCZS8mkQK" ] },
      { "delegate": "tz3UoffC7FG7zfpmvmjUmUeAaHvzdcUvAj6r",
        "reception_time": "2022-01-20T09:21:16.827-00:00",
        "included_in_blocks":
          [ "BLngKbg7jJty78fLsdwqtx42VSc5yu5eae3LB4AfeuBCZS8mkQK" ] },
      { "delegate": "tz3RDC3Jdn4j15J7bBHZd29EUee9gVB1CxD9",
        "reception_time": "2022-01-20T09:21:16.469-00:00",
        "included_in_blocks":
          [ "BLngKbg7jJty78fLsdwqtx42VSc5yu5eae3LB4AfeuBCZS8mkQK" ] },
      { "delegate": "tz3NDpRj6WBrJPikcPVHRBEjWKxFw3c6eQPS",
        "reception_time": "2022-01-20T09:21:16.380-00:00",
        "included_in_blocks":
          [ "BLngKbg7jJty78fLsdwqtx42VSc5yu5eae3LB4AfeuBCZS8mkQK" ] },
      { "delegate": "tz3gLTu4Yxj8tPAcriQVUdxv6BY9QyvzU1az",
        "reception_time": "2022-01-20T09:21:16.436-00:00",
        "included_in_blocks":
          [ "BLngKbg7jJty78fLsdwqtx42VSc5yu5eae3LB4AfeuBCZS8mkQK" ] },
      { "delegate": "tz1S6H83gugqK4dR5Had9jWR9M1ZdAAVgU5e",
        "reception_time": "2022-01-20T09:21:16.248-00:00",
        "included_in_blocks":
          [ "BLngKbg7jJty78fLsdwqtx42VSc5yu5eae3LB4AfeuBCZS8mkQK" ] },
      { "delegate": "tz1ZcTRk5uxD86EFEn1vvNffWWqJy7q5eVhc",
        "reception_time": "2022-01-20T09:21:16.243-00:00",
        "included_in_blocks":
          [ "BLngKbg7jJty78fLsdwqtx42VSc5yu5eae3LB4AfeuBCZS8mkQK" ] },
      { "delegate": "tz1b9MYGrbN1NAxphLEsPPNT9JC7aNFc5nA4",
        "reception_time": "2022-01-20T09:21:15.916-00:00",
        "included_in_blocks":
          [ "BLngKbg7jJty78fLsdwqtx42VSc5yu5eae3LB4AfeuBCZS8mkQK" ] },
      { "delegate": "tz1PeZx7FXy7QRuMREGXGxeipb24RsMMzUNe",
        "reception_time": "2022-01-20T09:21:15.797-00:00",
        "included_in_blocks":
          [ "BLngKbg7jJty78fLsdwqtx42VSc5yu5eae3LB4AfeuBCZS8mkQK" ] },
      { "delegate": "tz1cYufsxHXJcvANhvS55h3aY32a9BAFB494",
        "reception_time": "2022-01-20T09:21:15.799-00:00",
        "included_in_blocks":
          [ "BLngKbg7jJty78fLsdwqtx42VSc5yu5eae3LB4AfeuBCZS8mkQK" ] },
      { "delegate": "tz1TRqbYbUf2GyrjErf3hBzgBJPzW8y36qEs",
        "reception_time": "2022-01-20T09:21:15.697-00:00",
        "included_in_blocks":
          [ "BLngKbg7jJty78fLsdwqtx42VSc5yu5eae3LB4AfeuBCZS8mkQK" ] },
      { "delegate": "tz3bTdwZinP8U1JmSweNzVKhmwafqWmFWRfk",
        "reception_time": "2022-01-20T09:21:15.734-00:00",
        "included_in_blocks":
          [ "BLngKbg7jJty78fLsdwqtx42VSc5yu5eae3LB4AfeuBCZS8mkQK" ] },
      { "delegate": "tz3WMqdzXqRWXwyvj5Hp2H7QEepaUuS7vd9K",
        "reception_time": "2022-01-20T09:21:15.779-00:00",
        "included_in_blocks":
          [ "BLngKbg7jJty78fLsdwqtx42VSc5yu5eae3LB4AfeuBCZS8mkQK" ] },
      { "delegate": "tz1SYq214SCBy9naR6cvycQsYcUGpBqQAE8d",
        "reception_time": "2022-01-20T09:21:15.621-00:00",
        "included_in_blocks":
          [ "BLngKbg7jJty78fLsdwqtx42VSc5yu5eae3LB4AfeuBCZS8mkQK" ] },
      { "delegate": "tz1QXrzaHrGACVn15UiCg33aLCJ6npWdQb3J",
        "reception_time": "2022-01-20T09:21:15.655-00:00",
        "included_in_blocks":
          [ "BLngKbg7jJty78fLsdwqtx42VSc5yu5eae3LB4AfeuBCZS8mkQK" ] },
      { "delegate": "tz1dRKU4FQ9QRRQPdaH4zCR6gmCmXfcvcgtB",
        "reception_time": "2022-01-20T09:21:15.642-00:00",
        "included_in_blocks":
          [ "BLngKbg7jJty78fLsdwqtx42VSc5yu5eae3LB4AfeuBCZS8mkQK" ] },
      { "delegate": "tz1NortRftucvAkD1J58L32EhSVrQEWJCEnB",
        "reception_time": "2022-01-20T09:21:15.614-00:00",
        "included_in_blocks":
          [ "BLngKbg7jJty78fLsdwqtx42VSc5yu5eae3LB4AfeuBCZS8mkQK" ] },
      { "delegate": "tz3RB4aoyjov4KEVRbuhvQ1CKJgBJMWhaeB8",
        "reception_time": "2022-01-20T09:21:15.174-00:00",
        "included_in_blocks":
          [ "BLngKbg7jJty78fLsdwqtx42VSc5yu5eae3LB4AfeuBCZS8mkQK" ] },
      { "delegate": "tz1fUyqYH7H4pRHN1roWY17giXhy1RvxjgUV",
        "reception_time": "2022-01-20T09:21:15.046-00:00",
        "included_in_blocks":
          [ "BLngKbg7jJty78fLsdwqtx42VSc5yu5eae3LB4AfeuBCZS8mkQK" ] },
      { "delegate": "tz1RpeqCseogMpCPXpyGjhmLH9i9DhqJ8cUR",
        "reception_time": "2022-01-20T09:21:15.025-00:00",
        "included_in_blocks":
          [ "BLngKbg7jJty78fLsdwqtx42VSc5yu5eae3LB4AfeuBCZS8mkQK" ] },
      { "delegate": "tz1hAYfexyzPGG6RhZZMpDvAHifubsbb6kgn",
        "reception_time": "2022-01-20T09:21:15.039-00:00",
        "included_in_blocks":
          [ "BLngKbg7jJty78fLsdwqtx42VSc5yu5eae3LB4AfeuBCZS8mkQK" ] },
      { "delegate": "tz1TEc75UKXv4W5cwi14Na3NtqFD51yKQi7h",
        "reception_time": "2022-01-20T09:21:15.021-00:00",
        "included_in_blocks":
          [ "BLngKbg7jJty78fLsdwqtx42VSc5yu5eae3LB4AfeuBCZS8mkQK" ] },
      { "delegate": "tz1fPKAtsYydh4f1wfWNfeNxWYu72TmM48fu",
        "reception_time": "2022-01-20T09:21:14.988-00:00",
        "included_in_blocks":
          [ "BLngKbg7jJty78fLsdwqtx42VSc5yu5eae3LB4AfeuBCZS8mkQK" ] },
      { "delegate": "tz1KfEsrtDaA1sX7vdM4qmEPWuSytuqCDp5j",
        "reception_time": "2022-01-20T09:21:15.008-00:00",
        "included_in_blocks":
          [ "BLngKbg7jJty78fLsdwqtx42VSc5yu5eae3LB4AfeuBCZS8mkQK" ] },
      { "delegate": "tz3S6BBeKgJGXxvLyZ1xzXzMPn11nnFtq5L9",
        "reception_time": "2022-01-20T09:21:15.057-00:00",
        "included_in_blocks":
          [ "BLngKbg7jJty78fLsdwqtx42VSc5yu5eae3LB4AfeuBCZS8mkQK" ] },
      { "delegate": "tz3RKYFsLuQzKBtmYuLNas7uMu3AsYd4QdsA",
        "reception_time": "2022-01-20T09:21:14.841-00:00",
        "included_in_blocks":
          [ "BLngKbg7jJty78fLsdwqtx42VSc5yu5eae3LB4AfeuBCZS8mkQK" ] },
      { "delegate": "tz3hw2kqXhLUvY65ca1eety2oQTpAvd34R9Q",
        "reception_time": "2022-01-20T09:21:14.998-00:00",
        "included_in_blocks":
          [ "BLngKbg7jJty78fLsdwqtx42VSc5yu5eae3LB4AfeuBCZS8mkQK" ] },
      { "delegate": "tz1Nf6tsK4G6bBqgSQERy4nUtkHNKUVdh7q1",
        "reception_time": "2022-01-20T09:21:15.005-00:00",
        "included_in_blocks":
          [ "BLngKbg7jJty78fLsdwqtx42VSc5yu5eae3LB4AfeuBCZS8mkQK" ] },
      { "delegate": "tz3Zhs2dygr55yHyQyKjntAtY9bgfhLZ4Xj1",
        "reception_time": "2022-01-20T09:21:15.015-00:00",
        "included_in_blocks":
          [ "BLngKbg7jJty78fLsdwqtx42VSc5yu5eae3LB4AfeuBCZS8mkQK" ] },
      { "delegate": "tz3QT9dHYKDqh563chVa6za8526ys1UKfRfL",
        "reception_time": "2022-01-20T09:21:15.032-00:00",
        "included_in_blocks":
          [ "BLngKbg7jJty78fLsdwqtx42VSc5yu5eae3LB4AfeuBCZS8mkQK" ] },
      { "delegate": "tz3QSGPoRp3Kn7n3vY24eYeu3Peuqo45LQ4D",
        "reception_time": "2022-01-20T09:21:14.964-00:00",
        "included_in_blocks":
          [ "BLngKbg7jJty78fLsdwqtx42VSc5yu5eae3LB4AfeuBCZS8mkQK" ] },
      { "delegate": "tz1S8MNvuFEUsWgjHvi3AxibRBf388NhT1q2",
        "reception_time": "2022-01-20T09:21:14.985-00:00",
        "included_in_blocks":
          [ "BLngKbg7jJty78fLsdwqtx42VSc5yu5eae3LB4AfeuBCZS8mkQK" ] },
      { "delegate": "tz1MQMiZHV8q4tTwUMWmS5Y3kaP6J2136iXr",
        "reception_time": "2022-01-20T09:21:14.820-00:00",
        "included_in_blocks":
          [ "BLngKbg7jJty78fLsdwqtx42VSc5yu5eae3LB4AfeuBCZS8mkQK" ] },
      { "delegate": "tz1RCFbB9GpALpsZtu6J58sb74dm8qe6XBzv",
        "reception_time": "2022-01-20T09:21:14.967-00:00",
        "included_in_blocks":
          [ "BLngKbg7jJty78fLsdwqtx42VSc5yu5eae3LB4AfeuBCZS8mkQK" ] },
      { "delegate": "tz1cUTyvZAs9ExrK8Fq88UvaaBrb72bseicE",
        "reception_time": "2022-01-20T09:21:15.000-00:00",
        "included_in_blocks":
          [ "BLngKbg7jJty78fLsdwqtx42VSc5yu5eae3LB4AfeuBCZS8mkQK" ] },
      { "delegate": "tz1fb7c66UwePkkfDXz4ajFaBP9hVNLdS7JJ",
        "reception_time": "2022-01-20T09:21:14.778-00:00",
        "included_in_blocks":
          [ "BLngKbg7jJty78fLsdwqtx42VSc5yu5eae3LB4AfeuBCZS8mkQK" ] },
      { "delegate": "tz2FCNBrERXtaTtNX6iimR1UJ5JSDxvdHM93",
        "reception_time": "2022-01-20T09:21:14.822-00:00",
        "included_in_blocks":
          [ "BLngKbg7jJty78fLsdwqtx42VSc5yu5eae3LB4AfeuBCZS8mkQK" ] },
      { "delegate": "tz1RQhNh7iB9CZA7i3ifTWNwiGYVffponfbB",
        "reception_time": "2022-01-20T09:21:14.978-00:00",
        "included_in_blocks":
          [ "BLngKbg7jJty78fLsdwqtx42VSc5yu5eae3LB4AfeuBCZS8mkQK" ] },
      { "delegate": "tz1d6Fx42mYgVFnHUW8T8A7WBfJ6nD9pVok8",
        "reception_time": "2022-01-20T09:21:14.809-00:00",
        "included_in_blocks":
          [ "BLngKbg7jJty78fLsdwqtx42VSc5yu5eae3LB4AfeuBCZS8mkQK" ] },
      { "delegate": "tz3gtoUxdudfBRcNY7iVdKPHCYYX6xdPpoRS",
        "reception_time": "2022-01-20T09:21:14.974-00:00",
        "included_in_blocks":
          [ "BLngKbg7jJty78fLsdwqtx42VSc5yu5eae3LB4AfeuBCZS8mkQK" ] },
      { "delegate": "tz1ei4WtWEMEJekSv8qDnu9PExG6Q8HgRGr3",
        "reception_time": "2022-01-20T09:21:14.764-00:00",
        "included_in_blocks":
          [ "BLngKbg7jJty78fLsdwqtx42VSc5yu5eae3LB4AfeuBCZS8mkQK" ] },
      { "delegate": "tz3ZbP2pM3nwvXztbuMJwJnDvV5xdpU8UkkD",
        "reception_time": "2022-01-20T09:21:14.799-00:00",
        "included_in_blocks":
          [ "BLngKbg7jJty78fLsdwqtx42VSc5yu5eae3LB4AfeuBCZS8mkQK" ] },
      { "delegate": "tz3NxTnke1acr8o3h5y9ytf5awQBGNJUKzVU",
        "reception_time": "2022-01-20T09:21:14.787-00:00",
        "included_in_blocks":
          [ "BLngKbg7jJty78fLsdwqtx42VSc5yu5eae3LB4AfeuBCZS8mkQK" ] },
      { "delegate": "tz1TzaNn7wSQSP5gYPXCnNzBCpyMiidCq1PX",
        "reception_time": "2022-01-20T09:21:14.778-00:00",
        "included_in_blocks":
          [ "BLngKbg7jJty78fLsdwqtx42VSc5yu5eae3LB4AfeuBCZS8mkQK" ] },
      { "delegate": "tz1PWCDnz783NNGGQjEFFsHtrcK5yBW4E2rm",
        "reception_time": "2022-01-20T09:21:14.735-00:00",
        "included_in_blocks":
          [ "BLngKbg7jJty78fLsdwqtx42VSc5yu5eae3LB4AfeuBCZS8mkQK" ] },
      { "delegate": "tz1TRspM5SeZpaQUhzByXbEvqKF1vnCM2YTK",
        "reception_time": "2022-01-20T09:21:14.805-00:00",
        "included_in_blocks":
          [ "BLngKbg7jJty78fLsdwqtx42VSc5yu5eae3LB4AfeuBCZS8mkQK" ] },
      { "delegate": "tz1MJx9vhaNRSimcuXPK2rW4fLccQnDAnVKJ",
        "reception_time": "2022-01-20T09:21:14.769-00:00",
        "included_in_blocks":
          [ "BLngKbg7jJty78fLsdwqtx42VSc5yu5eae3LB4AfeuBCZS8mkQK" ] },
      { "delegate": "tz1cSj7fTex3JPd1p1LN1fwek6AV1kH93Wwc",
        "reception_time": "2022-01-20T09:21:14.761-00:00",
        "included_in_blocks":
          [ "BLngKbg7jJty78fLsdwqtx42VSc5yu5eae3LB4AfeuBCZS8mkQK" ] },
      { "delegate": "tz1gUNyn3hmnEWqkusWPzxRaon1cs7ndWh7h",
        "reception_time": "2022-01-20T09:21:14.805-00:00",
        "included_in_blocks":
          [ "BLngKbg7jJty78fLsdwqtx42VSc5yu5eae3LB4AfeuBCZS8mkQK" ] },
      { "delegate": "tz1VQnqCCqX4K5sP3FNkVSNKTdCAMJDd3E1n",
        "reception_time": "2022-01-20T09:21:14.756-00:00",
        "included_in_blocks":
          [ "BLngKbg7jJty78fLsdwqtx42VSc5yu5eae3LB4AfeuBCZS8mkQK" ] },
      { "delegate": "tz1eDDuQBEgwvc6tbnnCVrnr12tvrd6gBTpx",
        "reception_time": "2022-01-20T09:21:14.761-00:00",
        "included_in_blocks":
          [ "BLngKbg7jJty78fLsdwqtx42VSc5yu5eae3LB4AfeuBCZS8mkQK" ] },
      { "delegate": "tz1aXD7Jigrt3PBYSpHSg5Rr33SexMmmM5Ys",
        "reception_time": "2022-01-20T09:21:14.787-00:00",
        "included_in_blocks":
          [ "BLngKbg7jJty78fLsdwqtx42VSc5yu5eae3LB4AfeuBCZS8mkQK" ] },
      { "delegate": "tz1irJKkXS2DBWkU1NnmFQx1c1L7pbGg4yhk",
        "reception_time": "2022-01-20T09:21:14.789-00:00",
        "included_in_blocks":
          [ "BLngKbg7jJty78fLsdwqtx42VSc5yu5eae3LB4AfeuBCZS8mkQK" ] },
      { "delegate": "tz1WCd2jm4uSt4vntk4vSuUWoZQGhLcDuR9q",
        "reception_time": "2022-01-20T09:21:14.766-00:00",
        "included_in_blocks":
          [ "BLngKbg7jJty78fLsdwqtx42VSc5yu5eae3LB4AfeuBCZS8mkQK" ] },
      { "delegate": "tz1eEnQhbwf6trb8Q8mPb2RaPkNk2rN7BKi8",
        "reception_time": "2022-01-20T09:21:14.774-00:00",
        "included_in_blocks":
          [ "BLngKbg7jJty78fLsdwqtx42VSc5yu5eae3LB4AfeuBCZS8mkQK" ] },
      { "delegate": "tz1Lhf4J9Qxoe3DZ2nfe8FGDnvVj7oKjnMY6",
        "reception_time": "2022-01-20T09:21:14.727-00:00",
        "included_in_blocks":
          [ "BLngKbg7jJty78fLsdwqtx42VSc5yu5eae3LB4AfeuBCZS8mkQK" ] },
      { "delegate": "tz1STeamwbp68THcny9zk3LsbG3H36DMvbRK",
        "reception_time": "2022-01-20T09:21:14.756-00:00",
        "included_in_blocks":
          [ "BLngKbg7jJty78fLsdwqtx42VSc5yu5eae3LB4AfeuBCZS8mkQK" ] },
      { "delegate": "tz1P2Po7YM526ughEsRbY4oR9zaUPDZjxFrb",
        "reception_time": "2022-01-20T09:21:14.735-00:00",
        "included_in_blocks":
          [ "BLngKbg7jJty78fLsdwqtx42VSc5yu5eae3LB4AfeuBCZS8mkQK" ] },
      { "delegate": "tz1beersuEDv8Z7ngQ825xfbaJNS2EhXnyHR",
        "reception_time": "2022-01-20T09:21:14.774-00:00",
        "included_in_blocks":
          [ "BLngKbg7jJty78fLsdwqtx42VSc5yu5eae3LB4AfeuBCZS8mkQK" ] },
      { "delegate": "tz1Ldzz6k1BHdhuKvAtMRX7h5kJSMHESMHLC",
        "reception_time": "2022-01-20T09:21:14.792-00:00",
        "included_in_blocks":
          [ "BLngKbg7jJty78fLsdwqtx42VSc5yu5eae3LB4AfeuBCZS8mkQK" ] } ] }