{ "blocks":
    [ { "hash": "BKjMdsksgeyTGPmpoCxsUKXrniSfr2HNTQxPAhpQPTHqNjqJ9uA",
        "delegate": "tz1Nf6tsK4G6bBqgSQERy4nUtkHNKUVdh7q1",
        "reception_time": "2022-01-20T10:08:28.947-00:00",
        "timestamp": "2022-01-20T10:08:20Z" } ],
  "endorsements":
    [ { "delegate": "tz1fJHFn6sWEd3NnBPngACuw2dggTv6nQZ7g" },
      { "delegate": "tz1awXW7wuXy21c66vBudMXQVAPgRnqqwgTH" },
      { "delegate": "tz1RjoHc98dBoqaH2jawF62XNKh7YsHwbkEv" },
      { "delegate": "tz1P2Po7YM526ughEsRbY4oR9zaUPDZjxFrb",
        "reception_time": "2022-01-20T10:08:28.778-00:00",
        "errors":
          [ { "kind": "temporary",
              "id": "proto.011-PtHangz2.prefilter.outdated_endorsement" } ],
        "included_in_blocks":
          [ "BL8ewYic2PuP2bSP5J2wrh2JNfN15bx6rcLsq3NfLJ6y5X7BmT7" ] },
      { "delegate": "tz1S8e9GgdZG78XJRB3NqabfWeM37GnhZMWQ",
        "reception_time": "2022-01-20T10:08:28.438-00:00",
        "errors":
          [ { "kind": "temporary",
              "id": "proto.011-PtHangz2.prefilter.outdated_endorsement" } ],
        "included_in_blocks":
          [ "BL8ewYic2PuP2bSP5J2wrh2JNfN15bx6rcLsq3NfLJ6y5X7BmT7" ] },
      { "delegate": "tz1NpWrAyDL9k2Lmnyxcgr9xuJakbBxdq7FB",
        "reception_time": "2022-01-20T10:08:44.347-00:00",
        "included_in_blocks":
          [ "BL8ewYic2PuP2bSP5J2wrh2JNfN15bx6rcLsq3NfLJ6y5X7BmT7" ] },
      { "delegate": "tz1aRoaRhSpRYvFdyvgWLL6TGyRoGF51wDjM",
        "reception_time": "2022-01-20T10:08:34.250-00:00",
        "included_in_blocks":
          [ "BL8ewYic2PuP2bSP5J2wrh2JNfN15bx6rcLsq3NfLJ6y5X7BmT7" ] },
      { "delegate": "tz1dKRZVcmJBVNvaAueUmqX42vVEaLb2MbA6",
        "reception_time": "2022-01-20T10:08:33.751-00:00",
        "included_in_blocks":
          [ "BL8ewYic2PuP2bSP5J2wrh2JNfN15bx6rcLsq3NfLJ6y5X7BmT7" ] },
      { "delegate": "tz1acZQd7TdfoiUnD2czHnTHB2TaJQP6gdqo",
        "reception_time": "2022-01-20T10:08:33.612-00:00",
        "included_in_blocks":
          [ "BL8ewYic2PuP2bSP5J2wrh2JNfN15bx6rcLsq3NfLJ6y5X7BmT7" ] },
      { "delegate": "tz3RB4aoyjov4KEVRbuhvQ1CKJgBJMWhaeB8",
        "reception_time": "2022-01-20T10:08:33.311-00:00",
        "included_in_blocks":
          [ "BL8ewYic2PuP2bSP5J2wrh2JNfN15bx6rcLsq3NfLJ6y5X7BmT7" ] },
      { "delegate": "tz3bvNMQ95vfAYtG8193ymshqjSvmxiCUuR5",
        "reception_time": "2022-01-20T10:08:33.057-00:00",
        "included_in_blocks":
          [ "BL8ewYic2PuP2bSP5J2wrh2JNfN15bx6rcLsq3NfLJ6y5X7BmT7" ] },
      { "delegate": "tz3NExpXn9aPNZPorRE4SdjJ2RGrfbJgMAaV",
        "reception_time": "2022-01-20T10:08:33.557-00:00",
        "included_in_blocks":
          [ "BL8ewYic2PuP2bSP5J2wrh2JNfN15bx6rcLsq3NfLJ6y5X7BmT7" ] },
      { "delegate": "tz1cYufsxHXJcvANhvS55h3aY32a9BAFB494",
        "reception_time": "2022-01-20T10:08:32.461-00:00",
        "included_in_blocks":
          [ "BL8ewYic2PuP2bSP5J2wrh2JNfN15bx6rcLsq3NfLJ6y5X7BmT7" ] },
      { "delegate": "tz1ZcTRk5uxD86EFEn1vvNffWWqJy7q5eVhc",
        "reception_time": "2022-01-20T10:08:32.927-00:00",
        "included_in_blocks":
          [ "BL8ewYic2PuP2bSP5J2wrh2JNfN15bx6rcLsq3NfLJ6y5X7BmT7" ] },
      { "delegate": "tz3RDC3Jdn4j15J7bBHZd29EUee9gVB1CxD9",
        "reception_time": "2022-01-20T10:08:32.347-00:00",
        "included_in_blocks":
          [ "BL8ewYic2PuP2bSP5J2wrh2JNfN15bx6rcLsq3NfLJ6y5X7BmT7" ] },
      { "delegate": "tz1LmaFsWRkjr7QMCx5PtV6xTUz3AmEpKQiF",
        "reception_time": "2022-01-20T10:08:32.963-00:00",
        "included_in_blocks":
          [ "BL8ewYic2PuP2bSP5J2wrh2JNfN15bx6rcLsq3NfLJ6y5X7BmT7" ] },
      { "delegate": "tz3NDpRj6WBrJPikcPVHRBEjWKxFw3c6eQPS",
        "reception_time": "2022-01-20T10:08:32.262-00:00",
        "included_in_blocks":
          [ "BL8ewYic2PuP2bSP5J2wrh2JNfN15bx6rcLsq3NfLJ6y5X7BmT7" ] },
      { "delegate": "tz1h4GUAMweP7SNWzDgvMk3yRCAZyaP1MxZq",
        "reception_time": "2022-01-20T10:08:32.354-00:00",
        "included_in_blocks":
          [ "BL8ewYic2PuP2bSP5J2wrh2JNfN15bx6rcLsq3NfLJ6y5X7BmT7" ] },
      { "delegate": "tz1hAYfexyzPGG6RhZZMpDvAHifubsbb6kgn",
        "reception_time": "2022-01-20T10:08:32.027-00:00",
        "included_in_blocks":
          [ "BL8ewYic2PuP2bSP5J2wrh2JNfN15bx6rcLsq3NfLJ6y5X7BmT7" ] },
      { "delegate": "tz1TRqbYbUf2GyrjErf3hBzgBJPzW8y36qEs",
        "reception_time": "2022-01-20T10:08:32.158-00:00",
        "included_in_blocks":
          [ "BL8ewYic2PuP2bSP5J2wrh2JNfN15bx6rcLsq3NfLJ6y5X7BmT7" ] },
      { "delegate": "tz1T7duV5gZWSTq4YpBGbXNLTfznCLDrFxvs",
        "reception_time": "2022-01-20T10:08:31.964-00:00",
        "included_in_blocks":
          [ "BL8ewYic2PuP2bSP5J2wrh2JNfN15bx6rcLsq3NfLJ6y5X7BmT7" ] },
      { "delegate": "tz1PeZx7FXy7QRuMREGXGxeipb24RsMMzUNe",
        "reception_time": "2022-01-20T10:08:31.927-00:00",
        "included_in_blocks":
          [ "BL8ewYic2PuP2bSP5J2wrh2JNfN15bx6rcLsq3NfLJ6y5X7BmT7" ] },
      { "delegate": "tz3WMqdzXqRWXwyvj5Hp2H7QEepaUuS7vd9K",
        "reception_time": "2022-01-20T10:08:32.242-00:00",
        "included_in_blocks":
          [ "BL8ewYic2PuP2bSP5J2wrh2JNfN15bx6rcLsq3NfLJ6y5X7BmT7" ] },
      { "delegate": "tz2FCNBrERXtaTtNX6iimR1UJ5JSDxvdHM93",
        "reception_time": "2022-01-20T10:08:31.629-00:00",
        "included_in_blocks":
          [ "BL8ewYic2PuP2bSP5J2wrh2JNfN15bx6rcLsq3NfLJ6y5X7BmT7" ] },
      { "delegate": "tz1Qy1zwn1DSapdsHZSNYDqV5CscnUoSkXCo",
        "reception_time": "2022-01-20T10:08:31.762-00:00",
        "included_in_blocks":
          [ "BL8ewYic2PuP2bSP5J2wrh2JNfN15bx6rcLsq3NfLJ6y5X7BmT7" ] },
      { "delegate": "tz3UoffC7FG7zfpmvmjUmUeAaHvzdcUvAj6r",
        "reception_time": "2022-01-20T10:08:32.202-00:00",
        "included_in_blocks":
          [ "BL8ewYic2PuP2bSP5J2wrh2JNfN15bx6rcLsq3NfLJ6y5X7BmT7" ] },
      { "delegate": "tz3bTdwZinP8U1JmSweNzVKhmwafqWmFWRfk",
        "reception_time": "2022-01-20T10:08:31.312-00:00",
        "included_in_blocks":
          [ "BL8ewYic2PuP2bSP5J2wrh2JNfN15bx6rcLsq3NfLJ6y5X7BmT7" ] },
      { "delegate": "tz1g8vkmcde6sWKaG2NN9WKzCkDM6Rziq194",
        "reception_time": "2022-01-20T10:08:31.261-00:00",
        "included_in_blocks":
          [ "BL8ewYic2PuP2bSP5J2wrh2JNfN15bx6rcLsq3NfLJ6y5X7BmT7" ] },
      { "delegate": "tz1abmz7jiCV2GH2u81LRrGgAFFgvQgiDiaf",
        "reception_time": "2022-01-20T10:08:31.586-00:00",
        "included_in_blocks":
          [ "BL8ewYic2PuP2bSP5J2wrh2JNfN15bx6rcLsq3NfLJ6y5X7BmT7" ] },
      { "delegate": "tz1SYq214SCBy9naR6cvycQsYcUGpBqQAE8d",
        "reception_time": "2022-01-20T10:08:31.076-00:00",
        "included_in_blocks":
          [ "BL8ewYic2PuP2bSP5J2wrh2JNfN15bx6rcLsq3NfLJ6y5X7BmT7" ] },
      { "delegate": "tz1WctSwL49BZtdWAQ75NY6vr4xsAx6oKdah",
        "reception_time": "2022-01-20T10:08:31.471-00:00",
        "included_in_blocks":
          [ "BL8ewYic2PuP2bSP5J2wrh2JNfN15bx6rcLsq3NfLJ6y5X7BmT7" ] },
      { "delegate": "tz1NEKxGEHsFufk87CVZcrqWu8o22qh46GK6",
        "reception_time": "2022-01-20T10:08:31.691-00:00",
        "included_in_blocks":
          [ "BL8ewYic2PuP2bSP5J2wrh2JNfN15bx6rcLsq3NfLJ6y5X7BmT7" ] },
      { "delegate": "tz1gfArv665EUkSg2ojMBzcbfwuPxAvqPvjo",
        "reception_time": "2022-01-20T10:08:31.366-00:00",
        "included_in_blocks":
          [ "BL8ewYic2PuP2bSP5J2wrh2JNfN15bx6rcLsq3NfLJ6y5X7BmT7" ] },
      { "delegate": "tz3VEZ4k6a4Wx42iyev6i2aVAptTRLEAivNN",
        "reception_time": "2022-01-20T10:08:31.664-00:00",
        "included_in_blocks":
          [ "BL8ewYic2PuP2bSP5J2wrh2JNfN15bx6rcLsq3NfLJ6y5X7BmT7" ] },
      { "delegate": "tz1KzSC1J9aBxKp7u8TUnpN8L7S65PBRkgdF",
        "reception_time": "2022-01-20T10:08:31.849-00:00",
        "included_in_blocks":
          [ "BL8ewYic2PuP2bSP5J2wrh2JNfN15bx6rcLsq3NfLJ6y5X7BmT7" ] },
      { "delegate": "tz1RCFbB9GpALpsZtu6J58sb74dm8qe6XBzv",
        "reception_time": "2022-01-20T10:08:31.214-00:00",
        "included_in_blocks":
          [ "BL8ewYic2PuP2bSP5J2wrh2JNfN15bx6rcLsq3NfLJ6y5X7BmT7" ] },
      { "delegate": "tz1fPKAtsYydh4f1wfWNfeNxWYu72TmM48fu",
        "reception_time": "2022-01-20T10:08:31.735-00:00",
        "included_in_blocks":
          [ "BL8ewYic2PuP2bSP5J2wrh2JNfN15bx6rcLsq3NfLJ6y5X7BmT7" ] },
      { "delegate": "tz1RQhNh7iB9CZA7i3ifTWNwiGYVffponfbB",
        "reception_time": "2022-01-20T10:08:30.715-00:00",
        "included_in_blocks":
          [ "BL8ewYic2PuP2bSP5J2wrh2JNfN15bx6rcLsq3NfLJ6y5X7BmT7" ] },
      { "delegate": "tz1V4qCyvPKZ5UeqdH14HN42rxvNPQfc9UZg",
        "reception_time": "2022-01-20T10:08:31.218-00:00",
        "included_in_blocks":
          [ "BL8ewYic2PuP2bSP5J2wrh2JNfN15bx6rcLsq3NfLJ6y5X7BmT7" ] },
      { "delegate": "tz1YhNsiRRU8aHNGg7NK3uuP6UDAyacJernB",
        "reception_time": "2022-01-20T10:08:31.094-00:00",
        "included_in_blocks":
          [ "BL8ewYic2PuP2bSP5J2wrh2JNfN15bx6rcLsq3NfLJ6y5X7BmT7" ] },
      { "delegate": "tz1S8MNvuFEUsWgjHvi3AxibRBf388NhT1q2",
        "reception_time": "2022-01-20T10:08:31.568-00:00",
        "included_in_blocks":
          [ "BL8ewYic2PuP2bSP5J2wrh2JNfN15bx6rcLsq3NfLJ6y5X7BmT7" ] },
      { "delegate": "tz3S6BBeKgJGXxvLyZ1xzXzMPn11nnFtq5L9",
        "reception_time": "2022-01-20T10:08:30.611-00:00",
        "included_in_blocks":
          [ "BL8ewYic2PuP2bSP5J2wrh2JNfN15bx6rcLsq3NfLJ6y5X7BmT7" ] },
      { "delegate": "tz3QT9dHYKDqh563chVa6za8526ys1UKfRfL",
        "reception_time": "2022-01-20T10:08:30.644-00:00",
        "included_in_blocks":
          [ "BL8ewYic2PuP2bSP5J2wrh2JNfN15bx6rcLsq3NfLJ6y5X7BmT7" ] },
      { "delegate": "tz1TzaNn7wSQSP5gYPXCnNzBCpyMiidCq1PX",
        "reception_time": "2022-01-20T10:08:30.501-00:00",
        "included_in_blocks":
          [ "BL8ewYic2PuP2bSP5J2wrh2JNfN15bx6rcLsq3NfLJ6y5X7BmT7" ] },
      { "delegate": "tz1ei4WtWEMEJekSv8qDnu9PExG6Q8HgRGr3",
        "reception_time": "2022-01-20T10:08:30.650-00:00",
        "included_in_blocks":
          [ "BL8ewYic2PuP2bSP5J2wrh2JNfN15bx6rcLsq3NfLJ6y5X7BmT7" ] },
      { "delegate": "tz3QSGPoRp3Kn7n3vY24eYeu3Peuqo45LQ4D",
        "reception_time": "2022-01-20T10:08:30.322-00:00",
        "included_in_blocks":
          [ "BL8ewYic2PuP2bSP5J2wrh2JNfN15bx6rcLsq3NfLJ6y5X7BmT7" ] },
      { "delegate": "tz3Zhs2dygr55yHyQyKjntAtY9bgfhLZ4Xj1",
        "reception_time": "2022-01-20T10:08:30.484-00:00",
        "included_in_blocks":
          [ "BL8ewYic2PuP2bSP5J2wrh2JNfN15bx6rcLsq3NfLJ6y5X7BmT7" ] },
      { "delegate": "tz3iJu5vrKZcsqRPs8yJ61UDoeEXZmtro4qh",
        "reception_time": "2022-01-20T10:08:30.461-00:00",
        "included_in_blocks":
          [ "BL8ewYic2PuP2bSP5J2wrh2JNfN15bx6rcLsq3NfLJ6y5X7BmT7" ] },
      { "delegate": "tz3hw2kqXhLUvY65ca1eety2oQTpAvd34R9Q",
        "reception_time": "2022-01-20T10:08:30.461-00:00",
        "included_in_blocks":
          [ "BL8ewYic2PuP2bSP5J2wrh2JNfN15bx6rcLsq3NfLJ6y5X7BmT7" ] },
      { "delegate": "tz1XGftJC11NAanLMkn69FRaEC5rmxcYrJj7",
        "reception_time": "2022-01-20T10:08:30.508-00:00",
        "included_in_blocks":
          [ "BL8ewYic2PuP2bSP5J2wrh2JNfN15bx6rcLsq3NfLJ6y5X7BmT7" ] },
      { "delegate": "tz1dNVDWPf3Q59SdJqnjdnu277iyvReiRS9M",
        "reception_time": "2022-01-20T10:08:30.669-00:00",
        "included_in_blocks":
          [ "BL8ewYic2PuP2bSP5J2wrh2JNfN15bx6rcLsq3NfLJ6y5X7BmT7" ] },
      { "delegate": "tz3QCNyySViKHmeSr45kzDxzchys7NiXCWoa",
        "reception_time": "2022-01-20T10:08:30.498-00:00",
        "included_in_blocks":
          [ "BL8ewYic2PuP2bSP5J2wrh2JNfN15bx6rcLsq3NfLJ6y5X7BmT7" ] },
      { "delegate": "tz3gtoUxdudfBRcNY7iVdKPHCYYX6xdPpoRS",
        "reception_time": "2022-01-20T10:08:30.331-00:00",
        "included_in_blocks":
          [ "BL8ewYic2PuP2bSP5J2wrh2JNfN15bx6rcLsq3NfLJ6y5X7BmT7" ] },
      { "delegate": "tz3RKYFsLuQzKBtmYuLNas7uMu3AsYd4QdsA",
        "reception_time": "2022-01-20T10:08:30.468-00:00",
        "included_in_blocks":
          [ "BL8ewYic2PuP2bSP5J2wrh2JNfN15bx6rcLsq3NfLJ6y5X7BmT7" ] },
      { "delegate": "tz1WCd2jm4uSt4vntk4vSuUWoZQGhLcDuR9q",
        "reception_time": "2022-01-20T10:08:30.331-00:00",
        "included_in_blocks":
          [ "BL8ewYic2PuP2bSP5J2wrh2JNfN15bx6rcLsq3NfLJ6y5X7BmT7" ] },
      { "delegate": "tz1PWCDnz783NNGGQjEFFsHtrcK5yBW4E2rm",
        "reception_time": "2022-01-20T10:08:30.437-00:00",
        "included_in_blocks":
          [ "BL8ewYic2PuP2bSP5J2wrh2JNfN15bx6rcLsq3NfLJ6y5X7BmT7" ] },
      { "delegate": "tz1d6Fx42mYgVFnHUW8T8A7WBfJ6nD9pVok8",
        "reception_time": "2022-01-20T10:08:30.315-00:00",
        "included_in_blocks":
          [ "BL8ewYic2PuP2bSP5J2wrh2JNfN15bx6rcLsq3NfLJ6y5X7BmT7" ] },
      { "delegate": "tz1MJx9vhaNRSimcuXPK2rW4fLccQnDAnVKJ",
        "reception_time": "2022-01-20T10:08:30.290-00:00",
        "included_in_blocks":
          [ "BL8ewYic2PuP2bSP5J2wrh2JNfN15bx6rcLsq3NfLJ6y5X7BmT7" ] },
      { "delegate": "tz3ZbP2pM3nwvXztbuMJwJnDvV5xdpU8UkkD",
        "reception_time": "2022-01-20T10:08:30.296-00:00",
        "included_in_blocks":
          [ "BL8ewYic2PuP2bSP5J2wrh2JNfN15bx6rcLsq3NfLJ6y5X7BmT7" ] },
      { "delegate": "tz1KfEsrtDaA1sX7vdM4qmEPWuSytuqCDp5j",
        "reception_time": "2022-01-20T10:08:30.629-00:00",
        "included_in_blocks":
          [ "BL8ewYic2PuP2bSP5J2wrh2JNfN15bx6rcLsq3NfLJ6y5X7BmT7" ] },
      { "delegate": "tz3NxTnke1acr8o3h5y9ytf5awQBGNJUKzVU",
        "reception_time": "2022-01-20T10:08:30.315-00:00",
        "included_in_blocks":
          [ "BL8ewYic2PuP2bSP5J2wrh2JNfN15bx6rcLsq3NfLJ6y5X7BmT7" ] },
      { "delegate": "tz1Kf25fX1VdmYGSEzwFy1wNmkbSEZ2V83sY",
        "reception_time": "2022-01-20T10:08:30.306-00:00",
        "included_in_blocks":
          [ "BL8ewYic2PuP2bSP5J2wrh2JNfN15bx6rcLsq3NfLJ6y5X7BmT7" ] },
      { "delegate": "tz3adcvQaKXTCg12zbninqo3q8ptKKtDFTLv",
        "reception_time": "2022-01-20T10:08:30.303-00:00",
        "included_in_blocks":
          [ "BL8ewYic2PuP2bSP5J2wrh2JNfN15bx6rcLsq3NfLJ6y5X7BmT7" ] },
      { "delegate": "tz1ZPh7XfUaJXUDvkrBxmS1BjEM1i62hiPpM",
        "reception_time": "2022-01-20T10:08:30.245-00:00",
        "included_in_blocks":
          [ "BL8ewYic2PuP2bSP5J2wrh2JNfN15bx6rcLsq3NfLJ6y5X7BmT7" ] },
      { "delegate": "tz1Nf6tsK4G6bBqgSQERy4nUtkHNKUVdh7q1",
        "reception_time": "2022-01-20T10:08:30.224-00:00",
        "included_in_blocks":
          [ "BL8ewYic2PuP2bSP5J2wrh2JNfN15bx6rcLsq3NfLJ6y5X7BmT7" ] },
      { "delegate": "tz1VQnqCCqX4K5sP3FNkVSNKTdCAMJDd3E1n",
        "reception_time": "2022-01-20T10:08:30.269-00:00",
        "included_in_blocks":
          [ "BL8ewYic2PuP2bSP5J2wrh2JNfN15bx6rcLsq3NfLJ6y5X7BmT7" ] },
      { "delegate": "tz1VmiY38m3y95HqQLjMwqnMS7sdMfGomzKi",
        "reception_time": "2022-01-20T10:08:30.287-00:00",
        "included_in_blocks":
          [ "BL8ewYic2PuP2bSP5J2wrh2JNfN15bx6rcLsq3NfLJ6y5X7BmT7" ] },
      { "delegate": "tz1gUNyn3hmnEWqkusWPzxRaon1cs7ndWh7h",
        "reception_time": "2022-01-20T10:08:30.258-00:00",
        "included_in_blocks":
          [ "BL8ewYic2PuP2bSP5J2wrh2JNfN15bx6rcLsq3NfLJ6y5X7BmT7" ] },
      { "delegate": "tz1Ldzz6k1BHdhuKvAtMRX7h5kJSMHESMHLC",
        "reception_time": "2022-01-20T10:08:30.237-00:00",
        "included_in_blocks":
          [ "BL8ewYic2PuP2bSP5J2wrh2JNfN15bx6rcLsq3NfLJ6y5X7BmT7" ] },
      { "delegate": "tz1irJKkXS2DBWkU1NnmFQx1c1L7pbGg4yhk",
        "reception_time": "2022-01-20T10:08:30.264-00:00",
        "included_in_blocks":
          [ "BL8ewYic2PuP2bSP5J2wrh2JNfN15bx6rcLsq3NfLJ6y5X7BmT7" ] },
      { "delegate": "tz1XfAjZyaLdceHnZxbMYop7g7kWKPut4PR7",
        "reception_time": "2022-01-20T10:08:30.248-00:00",
        "included_in_blocks":
          [ "BL8ewYic2PuP2bSP5J2wrh2JNfN15bx6rcLsq3NfLJ6y5X7BmT7" ] },
      { "delegate": "tz1STeamwbp68THcny9zk3LsbG3H36DMvbRK",
        "reception_time": "2022-01-20T10:08:30.258-00:00",
        "included_in_blocks":
          [ "BL8ewYic2PuP2bSP5J2wrh2JNfN15bx6rcLsq3NfLJ6y5X7BmT7" ] },
      { "delegate": "tz1Kt4P8BCaP93AEV4eA7gmpRryWt5hznjCP",
        "reception_time": "2022-01-20T10:08:30.237-00:00",
        "included_in_blocks":
          [ "BL8ewYic2PuP2bSP5J2wrh2JNfN15bx6rcLsq3NfLJ6y5X7BmT7" ] } ] }