{ "blocks":
    [ { "hash": "BMMne5p9BTxWbBhdKMorcFZVDcUDwVVsMRtpv7Kih9WvebHQ2cX",
        "delegate": "tz1irJKkXS2DBWkU1NnmFQx1c1L7pbGg4yhk",
        "reception_time": "2022-01-20T10:36:07.643-00:00",
        "timestamp": "2022-01-20T10:36:00Z" } ],
  "endorsements":
    [ { "delegate": "tz1awXW7wuXy21c66vBudMXQVAPgRnqqwgTH" },
      { "delegate": "tz1W5VkdB5s7ENMESVBtwyt9kyvLqPcUczRT" },
      { "delegate": "tz1V3yg82mcrPJbegqVCPn6bC8w1CSTRp3f8" },
      { "delegate": "tz1RjoHc98dBoqaH2jawF62XNKh7YsHwbkEv" },
      { "delegate": "tz1RV1MBbZMR68tacosb7Mwj6LkbPSUS1er1" },
      { "delegate": "tz1S8e9GgdZG78XJRB3NqabfWeM37GnhZMWQ",
        "reception_time": "2022-01-20T10:36:07.430-00:00",
        "errors":
          [ { "kind": "temporary",
              "id": "proto.011-PtHangz2.prefilter.outdated_endorsement" } ],
        "included_in_blocks":
          [ "BLhBtU5TAsNX5QA5jAZLuawWE4X9MALGAH3h7yGNUEw3EqSG7xd" ] },
      { "delegate": "tz1P2Po7YM526ughEsRbY4oR9zaUPDZjxFrb",
        "reception_time": "2022-01-20T10:36:07.306-00:00",
        "errors":
          [ { "kind": "temporary",
              "id": "proto.011-PtHangz2.prefilter.outdated_endorsement" } ],
        "included_in_blocks":
          [ "BLhBtU5TAsNX5QA5jAZLuawWE4X9MALGAH3h7yGNUEw3EqSG7xd" ] },
      { "delegate": "tz1NpWrAyDL9k2Lmnyxcgr9xuJakbBxdq7FB",
        "reception_time": "2022-01-20T10:36:20.585-00:00",
        "included_in_blocks":
          [ "BLhBtU5TAsNX5QA5jAZLuawWE4X9MALGAH3h7yGNUEw3EqSG7xd" ] },
      { "delegate": "tz1go7f6mEQfT2xX2LuHAqgnRGN6c2zHPf5c",
        "reception_time": "2022-01-20T10:36:19.868-00:00",
        "included_in_blocks":
          [ "BLhBtU5TAsNX5QA5jAZLuawWE4X9MALGAH3h7yGNUEw3EqSG7xd" ] },
      { "delegate": "tz1aRoaRhSpRYvFdyvgWLL6TGyRoGF51wDjM",
        "reception_time": "2022-01-20T10:36:14.055-00:00",
        "included_in_blocks":
          [ "BLhBtU5TAsNX5QA5jAZLuawWE4X9MALGAH3h7yGNUEw3EqSG7xd" ] },
      { "delegate": "tz1LmaFsWRkjr7QMCx5PtV6xTUz3AmEpKQiF",
        "reception_time": "2022-01-20T10:36:13.067-00:00",
        "included_in_blocks":
          [ "BLhBtU5TAsNX5QA5jAZLuawWE4X9MALGAH3h7yGNUEw3EqSG7xd" ] },
      { "delegate": "tz1f3Re8iw6Pt3KMHAvyccHxDU3NuqL95axD",
        "reception_time": "2022-01-20T10:36:12.559-00:00",
        "included_in_blocks":
          [ "BLhBtU5TAsNX5QA5jAZLuawWE4X9MALGAH3h7yGNUEw3EqSG7xd" ] },
      { "delegate": "tz3UoffC7FG7zfpmvmjUmUeAaHvzdcUvAj6r",
        "reception_time": "2022-01-20T10:36:12.468-00:00",
        "included_in_blocks":
          [ "BLhBtU5TAsNX5QA5jAZLuawWE4X9MALGAH3h7yGNUEw3EqSG7xd" ] },
      { "delegate": "tz3NExpXn9aPNZPorRE4SdjJ2RGrfbJgMAaV",
        "reception_time": "2022-01-20T10:36:12.516-00:00",
        "included_in_blocks":
          [ "BLhBtU5TAsNX5QA5jAZLuawWE4X9MALGAH3h7yGNUEw3EqSG7xd" ] },
      { "delegate": "tz1cM8Xc7ZP1TrjkTeKq4PeRhtbnwXSBR6Sw",
        "reception_time": "2022-01-20T10:36:11.889-00:00",
        "included_in_blocks":
          [ "BLhBtU5TAsNX5QA5jAZLuawWE4X9MALGAH3h7yGNUEw3EqSG7xd" ] },
      { "delegate": "tz1ZcTRk5uxD86EFEn1vvNffWWqJy7q5eVhc",
        "reception_time": "2022-01-20T10:36:11.801-00:00",
        "included_in_blocks":
          [ "BLhBtU5TAsNX5QA5jAZLuawWE4X9MALGAH3h7yGNUEw3EqSG7xd" ] },
      { "delegate": "tz3VEZ4k6a4Wx42iyev6i2aVAptTRLEAivNN",
        "reception_time": "2022-01-20T10:36:11.765-00:00",
        "included_in_blocks":
          [ "BLhBtU5TAsNX5QA5jAZLuawWE4X9MALGAH3h7yGNUEw3EqSG7xd" ] },
      { "delegate": "tz1WctSwL49BZtdWAQ75NY6vr4xsAx6oKdah",
        "reception_time": "2022-01-20T10:36:11.665-00:00",
        "included_in_blocks":
          [ "BLhBtU5TAsNX5QA5jAZLuawWE4X9MALGAH3h7yGNUEw3EqSG7xd" ] },
      { "delegate": "tz1TRqbYbUf2GyrjErf3hBzgBJPzW8y36qEs",
        "reception_time": "2022-01-20T10:36:11.607-00:00",
        "included_in_blocks":
          [ "BLhBtU5TAsNX5QA5jAZLuawWE4X9MALGAH3h7yGNUEw3EqSG7xd" ] },
      { "delegate": "tz3WMqdzXqRWXwyvj5Hp2H7QEepaUuS7vd9K",
        "reception_time": "2022-01-20T10:36:11.462-00:00",
        "included_in_blocks":
          [ "BLhBtU5TAsNX5QA5jAZLuawWE4X9MALGAH3h7yGNUEw3EqSG7xd" ] },
      { "delegate": "tz1cYufsxHXJcvANhvS55h3aY32a9BAFB494",
        "reception_time": "2022-01-20T10:36:11.597-00:00",
        "included_in_blocks":
          [ "BLhBtU5TAsNX5QA5jAZLuawWE4X9MALGAH3h7yGNUEw3EqSG7xd" ] },
      { "delegate": "tz1NSDFKuRyzHxpfG1AMkyCwEiZ52cbR2mRW",
        "reception_time": "2022-01-20T10:36:11.440-00:00",
        "included_in_blocks":
          [ "BLhBtU5TAsNX5QA5jAZLuawWE4X9MALGAH3h7yGNUEw3EqSG7xd" ] },
      { "delegate": "tz1WnfXMPaNTBmH7DBPwqCWs9cPDJdkGBTZ8",
        "reception_time": "2022-01-20T10:36:11.279-00:00",
        "included_in_blocks":
          [ "BLhBtU5TAsNX5QA5jAZLuawWE4X9MALGAH3h7yGNUEw3EqSG7xd" ] },
      { "delegate": "tz1h4GUAMweP7SNWzDgvMk3yRCAZyaP1MxZq",
        "reception_time": "2022-01-20T10:36:11.265-00:00",
        "included_in_blocks":
          [ "BLhBtU5TAsNX5QA5jAZLuawWE4X9MALGAH3h7yGNUEw3EqSG7xd" ] },
      { "delegate": "tz1abmz7jiCV2GH2u81LRrGgAFFgvQgiDiaf",
        "reception_time": "2022-01-20T10:36:11.293-00:00",
        "included_in_blocks":
          [ "BLhBtU5TAsNX5QA5jAZLuawWE4X9MALGAH3h7yGNUEw3EqSG7xd" ] },
      { "delegate": "tz1WBfwbT66FC6BTLexc2BoyCCBM9LG7pnVW",
        "reception_time": "2022-01-20T10:36:11.038-00:00",
        "included_in_blocks":
          [ "BLhBtU5TAsNX5QA5jAZLuawWE4X9MALGAH3h7yGNUEw3EqSG7xd" ] },
      { "delegate": "tz2FCNBrERXtaTtNX6iimR1UJ5JSDxvdHM93",
        "reception_time": "2022-01-20T10:36:11.071-00:00",
        "included_in_blocks":
          [ "BLhBtU5TAsNX5QA5jAZLuawWE4X9MALGAH3h7yGNUEw3EqSG7xd" ] },
      { "delegate": "tz1NRGxXV9h6SdNaZLcgmjuLx3hyy2f8YoGN",
        "reception_time": "2022-01-20T10:36:11.083-00:00",
        "included_in_blocks":
          [ "BLhBtU5TAsNX5QA5jAZLuawWE4X9MALGAH3h7yGNUEw3EqSG7xd" ] },
      { "delegate": "tz3RB4aoyjov4KEVRbuhvQ1CKJgBJMWhaeB8",
        "reception_time": "2022-01-20T10:36:11.019-00:00",
        "included_in_blocks":
          [ "BLhBtU5TAsNX5QA5jAZLuawWE4X9MALGAH3h7yGNUEw3EqSG7xd" ] },
      { "delegate": "tz3bTdwZinP8U1JmSweNzVKhmwafqWmFWRfk",
        "reception_time": "2022-01-20T10:36:11.049-00:00",
        "included_in_blocks":
          [ "BLhBtU5TAsNX5QA5jAZLuawWE4X9MALGAH3h7yGNUEw3EqSG7xd" ] },
      { "delegate": "tz1NEKxGEHsFufk87CVZcrqWu8o22qh46GK6",
        "reception_time": "2022-01-20T10:36:11.035-00:00",
        "included_in_blocks":
          [ "BLhBtU5TAsNX5QA5jAZLuawWE4X9MALGAH3h7yGNUEw3EqSG7xd" ] },
      { "delegate": "tz1S8MNvuFEUsWgjHvi3AxibRBf388NhT1q2",
        "reception_time": "2022-01-20T10:36:11.007-00:00",
        "included_in_blocks":
          [ "BLhBtU5TAsNX5QA5jAZLuawWE4X9MALGAH3h7yGNUEw3EqSG7xd" ] },
      { "delegate": "tz1T7duV5gZWSTq4YpBGbXNLTfznCLDrFxvs",
        "reception_time": "2022-01-20T10:36:10.510-00:00",
        "included_in_blocks":
          [ "BLhBtU5TAsNX5QA5jAZLuawWE4X9MALGAH3h7yGNUEw3EqSG7xd" ] },
      { "delegate": "tz1Tnjaxk6tbAeC2TmMApPh8UsrEVQvhHvx5",
        "reception_time": "2022-01-20T10:36:10.927-00:00",
        "included_in_blocks":
          [ "BLhBtU5TAsNX5QA5jAZLuawWE4X9MALGAH3h7yGNUEw3EqSG7xd" ] },
      { "delegate": "tz1SYq214SCBy9naR6cvycQsYcUGpBqQAE8d",
        "reception_time": "2022-01-20T10:36:10.510-00:00",
        "included_in_blocks":
          [ "BLhBtU5TAsNX5QA5jAZLuawWE4X9MALGAH3h7yGNUEw3EqSG7xd" ] },
      { "delegate": "tz3bvNMQ95vfAYtG8193ymshqjSvmxiCUuR5",
        "reception_time": "2022-01-20T10:36:10.500-00:00",
        "included_in_blocks":
          [ "BLhBtU5TAsNX5QA5jAZLuawWE4X9MALGAH3h7yGNUEw3EqSG7xd" ] },
      { "delegate": "tz1KfEsrtDaA1sX7vdM4qmEPWuSytuqCDp5j",
        "reception_time": "2022-01-20T10:36:10.333-00:00",
        "included_in_blocks":
          [ "BLhBtU5TAsNX5QA5jAZLuawWE4X9MALGAH3h7yGNUEw3EqSG7xd" ] },
      { "delegate": "tz3RDC3Jdn4j15J7bBHZd29EUee9gVB1CxD9",
        "reception_time": "2022-01-20T10:36:10.348-00:00",
        "included_in_blocks":
          [ "BLhBtU5TAsNX5QA5jAZLuawWE4X9MALGAH3h7yGNUEw3EqSG7xd" ] },
      { "delegate": "tz1aJ8wxNeVRYbbx5YqzurmYzwKzkS96rHP4",
        "reception_time": "2022-01-20T10:36:10.064-00:00",
        "included_in_blocks":
          [ "BLhBtU5TAsNX5QA5jAZLuawWE4X9MALGAH3h7yGNUEw3EqSG7xd" ] },
      { "delegate": "tz3S6BBeKgJGXxvLyZ1xzXzMPn11nnFtq5L9",
        "reception_time": "2022-01-20T10:36:10.052-00:00",
        "included_in_blocks":
          [ "BLhBtU5TAsNX5QA5jAZLuawWE4X9MALGAH3h7yGNUEw3EqSG7xd" ] },
      { "delegate": "tz3QT9dHYKDqh563chVa6za8526ys1UKfRfL",
        "reception_time": "2022-01-20T10:36:10.017-00:00",
        "included_in_blocks":
          [ "BLhBtU5TAsNX5QA5jAZLuawWE4X9MALGAH3h7yGNUEw3EqSG7xd" ] },
      { "delegate": "tz1UtayNgAX8QEJ3NoLptPzoPr9JiH3Cskzz",
        "reception_time": "2022-01-20T10:36:10.374-00:00",
        "included_in_blocks":
          [ "BLhBtU5TAsNX5QA5jAZLuawWE4X9MALGAH3h7yGNUEw3EqSG7xd" ] },
      { "delegate": "tz1gfArv665EUkSg2ojMBzcbfwuPxAvqPvjo",
        "reception_time": "2022-01-20T10:36:10.318-00:00",
        "included_in_blocks":
          [ "BLhBtU5TAsNX5QA5jAZLuawWE4X9MALGAH3h7yGNUEw3EqSG7xd" ] },
      { "delegate": "tz1fR5e22cR7fTSMHm1ZTMRqK38sRwk9U148",
        "reception_time": "2022-01-20T10:36:09.839-00:00",
        "included_in_blocks":
          [ "BLhBtU5TAsNX5QA5jAZLuawWE4X9MALGAH3h7yGNUEw3EqSG7xd" ] },
      { "delegate": "tz1RCFbB9GpALpsZtu6J58sb74dm8qe6XBzv",
        "reception_time": "2022-01-20T10:36:09.930-00:00",
        "included_in_blocks":
          [ "BLhBtU5TAsNX5QA5jAZLuawWE4X9MALGAH3h7yGNUEw3EqSG7xd" ] },
      { "delegate": "tz1V4qCyvPKZ5UeqdH14HN42rxvNPQfc9UZg",
        "reception_time": "2022-01-20T10:36:09.875-00:00",
        "included_in_blocks":
          [ "BLhBtU5TAsNX5QA5jAZLuawWE4X9MALGAH3h7yGNUEw3EqSG7xd" ] },
      { "delegate": "tz1dNVDWPf3Q59SdJqnjdnu277iyvReiRS9M",
        "reception_time": "2022-01-20T10:36:09.776-00:00",
        "included_in_blocks":
          [ "BLhBtU5TAsNX5QA5jAZLuawWE4X9MALGAH3h7yGNUEw3EqSG7xd" ] },
      { "delegate": "tz1Nf6tsK4G6bBqgSQERy4nUtkHNKUVdh7q1",
        "reception_time": "2022-01-20T10:36:09.776-00:00",
        "included_in_blocks":
          [ "BLhBtU5TAsNX5QA5jAZLuawWE4X9MALGAH3h7yGNUEw3EqSG7xd" ] },
      { "delegate": "tz1RQhNh7iB9CZA7i3ifTWNwiGYVffponfbB",
        "reception_time": "2022-01-20T10:36:09.776-00:00",
        "included_in_blocks":
          [ "BLhBtU5TAsNX5QA5jAZLuawWE4X9MALGAH3h7yGNUEw3EqSG7xd" ] },
      { "delegate": "tz3QSGPoRp3Kn7n3vY24eYeu3Peuqo45LQ4D",
        "reception_time": "2022-01-20T10:36:09.776-00:00",
        "included_in_blocks":
          [ "BLhBtU5TAsNX5QA5jAZLuawWE4X9MALGAH3h7yGNUEw3EqSG7xd" ] },
      { "delegate": "tz1PWCDnz783NNGGQjEFFsHtrcK5yBW4E2rm",
        "reception_time": "2022-01-20T10:36:09.776-00:00",
        "included_in_blocks":
          [ "BLhBtU5TAsNX5QA5jAZLuawWE4X9MALGAH3h7yGNUEw3EqSG7xd" ] },
      { "delegate": "tz3NxTnke1acr8o3h5y9ytf5awQBGNJUKzVU",
        "reception_time": "2022-01-20T10:36:09.776-00:00",
        "included_in_blocks":
          [ "BLhBtU5TAsNX5QA5jAZLuawWE4X9MALGAH3h7yGNUEw3EqSG7xd" ] },
      { "delegate": "tz3gtoUxdudfBRcNY7iVdKPHCYYX6xdPpoRS",
        "reception_time": "2022-01-20T10:36:09.776-00:00",
        "included_in_blocks":
          [ "BLhBtU5TAsNX5QA5jAZLuawWE4X9MALGAH3h7yGNUEw3EqSG7xd" ] },
      { "delegate": "tz3iJu5vrKZcsqRPs8yJ61UDoeEXZmtro4qh",
        "reception_time": "2022-01-20T10:36:09.861-00:00",
        "included_in_blocks":
          [ "BLhBtU5TAsNX5QA5jAZLuawWE4X9MALGAH3h7yGNUEw3EqSG7xd" ] },
      { "delegate": "tz3Zhs2dygr55yHyQyKjntAtY9bgfhLZ4Xj1",
        "reception_time": "2022-01-20T10:36:09.835-00:00",
        "included_in_blocks":
          [ "BLhBtU5TAsNX5QA5jAZLuawWE4X9MALGAH3h7yGNUEw3EqSG7xd" ] },
      { "delegate": "tz3ZbP2pM3nwvXztbuMJwJnDvV5xdpU8UkkD",
        "reception_time": "2022-01-20T10:36:09.776-00:00",
        "included_in_blocks":
          [ "BLhBtU5TAsNX5QA5jAZLuawWE4X9MALGAH3h7yGNUEw3EqSG7xd" ] },
      { "delegate": "tz1W3VYi3gSt9Xgfw6WNV1aGZRPH2BsskMEY",
        "reception_time": "2022-01-20T10:36:09.299-00:00",
        "included_in_blocks":
          [ "BLhBtU5TAsNX5QA5jAZLuawWE4X9MALGAH3h7yGNUEw3EqSG7xd" ] },
      { "delegate": "tz1ei4WtWEMEJekSv8qDnu9PExG6Q8HgRGr3",
        "reception_time": "2022-01-20T10:36:09.299-00:00",
        "included_in_blocks":
          [ "BLhBtU5TAsNX5QA5jAZLuawWE4X9MALGAH3h7yGNUEw3EqSG7xd" ] },
      { "delegate": "tz1TRspM5SeZpaQUhzByXbEvqKF1vnCM2YTK",
        "reception_time": "2022-01-20T10:36:09.299-00:00",
        "included_in_blocks":
          [ "BLhBtU5TAsNX5QA5jAZLuawWE4X9MALGAH3h7yGNUEw3EqSG7xd" ] },
      { "delegate": "tz3RKYFsLuQzKBtmYuLNas7uMu3AsYd4QdsA",
        "reception_time": "2022-01-20T10:36:09.299-00:00",
        "included_in_blocks":
          [ "BLhBtU5TAsNX5QA5jAZLuawWE4X9MALGAH3h7yGNUEw3EqSG7xd" ] },
      { "delegate": "tz1WCd2jm4uSt4vntk4vSuUWoZQGhLcDuR9q",
        "reception_time": "2022-01-20T10:36:09.034-00:00",
        "included_in_blocks":
          [ "BLhBtU5TAsNX5QA5jAZLuawWE4X9MALGAH3h7yGNUEw3EqSG7xd" ] },
      { "delegate": "tz1MJx9vhaNRSimcuXPK2rW4fLccQnDAnVKJ",
        "reception_time": "2022-01-20T10:36:09.034-00:00",
        "included_in_blocks":
          [ "BLhBtU5TAsNX5QA5jAZLuawWE4X9MALGAH3h7yGNUEw3EqSG7xd" ] },
      { "delegate": "tz1Kf25fX1VdmYGSEzwFy1wNmkbSEZ2V83sY",
        "reception_time": "2022-01-20T10:36:09.034-00:00",
        "included_in_blocks":
          [ "BLhBtU5TAsNX5QA5jAZLuawWE4X9MALGAH3h7yGNUEw3EqSG7xd" ] },
      { "delegate": "tz1TzaNn7wSQSP5gYPXCnNzBCpyMiidCq1PX",
        "reception_time": "2022-01-20T10:36:09.034-00:00",
        "included_in_blocks":
          [ "BLhBtU5TAsNX5QA5jAZLuawWE4X9MALGAH3h7yGNUEw3EqSG7xd" ] },
      { "delegate": "tz1VmiY38m3y95HqQLjMwqnMS7sdMfGomzKi",
        "reception_time": "2022-01-20T10:36:09.034-00:00",
        "included_in_blocks":
          [ "BLhBtU5TAsNX5QA5jAZLuawWE4X9MALGAH3h7yGNUEw3EqSG7xd" ] },
      { "delegate": "tz1Ldzz6k1BHdhuKvAtMRX7h5kJSMHESMHLC",
        "reception_time": "2022-01-20T10:36:09.034-00:00",
        "included_in_blocks":
          [ "BLhBtU5TAsNX5QA5jAZLuawWE4X9MALGAH3h7yGNUEw3EqSG7xd" ] },
      { "delegate": "tz1beersuEDv8Z7ngQ825xfbaJNS2EhXnyHR",
        "reception_time": "2022-01-20T10:36:09.034-00:00",
        "included_in_blocks":
          [ "BLhBtU5TAsNX5QA5jAZLuawWE4X9MALGAH3h7yGNUEw3EqSG7xd" ] },
      { "delegate": "tz1gUNyn3hmnEWqkusWPzxRaon1cs7ndWh7h",
        "reception_time": "2022-01-20T10:36:09.034-00:00",
        "included_in_blocks":
          [ "BLhBtU5TAsNX5QA5jAZLuawWE4X9MALGAH3h7yGNUEw3EqSG7xd" ] },
      { "delegate": "tz1VQnqCCqX4K5sP3FNkVSNKTdCAMJDd3E1n",
        "reception_time": "2022-01-20T10:36:09.034-00:00",
        "included_in_blocks":
          [ "BLhBtU5TAsNX5QA5jAZLuawWE4X9MALGAH3h7yGNUEw3EqSG7xd" ] },
      { "delegate": "tz1eEnQhbwf6trb8Q8mPb2RaPkNk2rN7BKi8",
        "reception_time": "2022-01-20T10:36:09.034-00:00",
        "included_in_blocks":
          [ "BLhBtU5TAsNX5QA5jAZLuawWE4X9MALGAH3h7yGNUEw3EqSG7xd" ] },
      { "delegate": "tz1irJKkXS2DBWkU1NnmFQx1c1L7pbGg4yhk",
        "reception_time": "2022-01-20T10:36:08.462-00:00",
        "included_in_blocks":
          [ "BLhBtU5TAsNX5QA5jAZLuawWE4X9MALGAH3h7yGNUEw3EqSG7xd" ] },
      { "delegate": "tz1STeamwbp68THcny9zk3LsbG3H36DMvbRK",
        "reception_time": "2022-01-20T10:36:08.755-00:00",
        "included_in_blocks":
          [ "BLhBtU5TAsNX5QA5jAZLuawWE4X9MALGAH3h7yGNUEw3EqSG7xd" ] } ] }