{ "blocks":
    [ { "hash": "BLweuCHrzWU3wFFD1RHsw3dQL9W2eCKpGDoZQTsGHaY1ame5VJw",
        "delegate": "tz1gfArv665EUkSg2ojMBzcbfwuPxAvqPvjo",
        "reception_time": "2022-01-20T09:51:36.494-00:00",
        "timestamp": "2022-01-20T09:51:20Z" } ],
  "endorsements":
    [ { "delegate": "tz1go7f6mEQfT2xX2LuHAqgnRGN6c2zHPf5c",
        "reception_time": "2022-01-20T09:51:58.875-00:00" },
      { "delegate": "tz1gg5bjopPcr9agjamyu9BbXKLibNc2rbAq",
        "reception_time": "2022-01-20T09:51:54.801-00:00" },
      { "delegate": "tz1TRqbYbUf2GyrjErf3hBzgBJPzW8y36qEs",
        "reception_time": "2022-01-20T09:51:44.612-00:00",
        "included_in_blocks":
          [ "BKorpdai4DYqbsFbZHHXcTQ6o1DxDrjnqKRddKaZzAbru9ocu1k" ] },
      { "delegate": "tz1eVaNx3gCmG1EsLjijkmgAxdLYVf6Bf5Sq",
        "reception_time": "2022-01-20T09:51:42.014-00:00",
        "included_in_blocks":
          [ "BKorpdai4DYqbsFbZHHXcTQ6o1DxDrjnqKRddKaZzAbru9ocu1k" ] },
      { "delegate": "tz2FCNBrERXtaTtNX6iimR1UJ5JSDxvdHM93",
        "reception_time": "2022-01-20T09:51:41.298-00:00",
        "included_in_blocks":
          [ "BKorpdai4DYqbsFbZHHXcTQ6o1DxDrjnqKRddKaZzAbru9ocu1k" ] },
      { "delegate": "tz1T7duV5gZWSTq4YpBGbXNLTfznCLDrFxvs",
        "reception_time": "2022-01-20T09:51:40.145-00:00",
        "included_in_blocks":
          [ "BKorpdai4DYqbsFbZHHXcTQ6o1DxDrjnqKRddKaZzAbru9ocu1k" ] },
      { "delegate": "tz1NuUu12WHdW3jHqvkujGHsiTi46Wvw1ci1",
        "reception_time": "2022-01-20T09:51:39.891-00:00",
        "included_in_blocks":
          [ "BKorpdai4DYqbsFbZHHXcTQ6o1DxDrjnqKRddKaZzAbru9ocu1k" ] },
      { "delegate": "tz1aRoaRhSpRYvFdyvgWLL6TGyRoGF51wDjM",
        "reception_time": "2022-01-20T09:51:39.609-00:00",
        "included_in_blocks":
          [ "BKorpdai4DYqbsFbZHHXcTQ6o1DxDrjnqKRddKaZzAbru9ocu1k" ] },
      { "delegate": "tz1PeZx7FXy7QRuMREGXGxeipb24RsMMzUNe",
        "reception_time": "2022-01-20T09:51:39.607-00:00",
        "included_in_blocks":
          [ "BKorpdai4DYqbsFbZHHXcTQ6o1DxDrjnqKRddKaZzAbru9ocu1k" ] },
      { "delegate": "tz1ZcTRk5uxD86EFEn1vvNffWWqJy7q5eVhc",
        "reception_time": "2022-01-20T09:51:39.604-00:00",
        "included_in_blocks":
          [ "BKorpdai4DYqbsFbZHHXcTQ6o1DxDrjnqKRddKaZzAbru9ocu1k" ] },
      { "delegate": "tz1RCFbB9GpALpsZtu6J58sb74dm8qe6XBzv",
        "reception_time": "2022-01-20T09:51:39.586-00:00",
        "included_in_blocks":
          [ "BKorpdai4DYqbsFbZHHXcTQ6o1DxDrjnqKRddKaZzAbru9ocu1k" ] },
      { "delegate": "tz1S8MNvuFEUsWgjHvi3AxibRBf388NhT1q2",
        "reception_time": "2022-01-20T09:51:39.586-00:00",
        "included_in_blocks":
          [ "BKorpdai4DYqbsFbZHHXcTQ6o1DxDrjnqKRddKaZzAbru9ocu1k" ] },
      { "delegate": "tz3NDpRj6WBrJPikcPVHRBEjWKxFw3c6eQPS",
        "reception_time": "2022-01-20T09:51:39.586-00:00",
        "included_in_blocks":
          [ "BKorpdai4DYqbsFbZHHXcTQ6o1DxDrjnqKRddKaZzAbru9ocu1k" ] },
      { "delegate": "tz1SohptP53wDPZhzTWzDUFAUcWF6DMBpaJV",
        "reception_time": "2022-01-20T09:51:39.586-00:00",
        "included_in_blocks":
          [ "BKorpdai4DYqbsFbZHHXcTQ6o1DxDrjnqKRddKaZzAbru9ocu1k" ] },
      { "delegate": "tz3NExpXn9aPNZPorRE4SdjJ2RGrfbJgMAaV",
        "reception_time": "2022-01-20T09:51:39.586-00:00",
        "included_in_blocks":
          [ "BKorpdai4DYqbsFbZHHXcTQ6o1DxDrjnqKRddKaZzAbru9ocu1k" ] },
      { "delegate": "tz3VEZ4k6a4Wx42iyev6i2aVAptTRLEAivNN",
        "reception_time": "2022-01-20T09:51:39.586-00:00",
        "included_in_blocks":
          [ "BKorpdai4DYqbsFbZHHXcTQ6o1DxDrjnqKRddKaZzAbru9ocu1k" ] },
      { "delegate": "tz1SYq214SCBy9naR6cvycQsYcUGpBqQAE8d",
        "reception_time": "2022-01-20T09:51:39.047-00:00",
        "included_in_blocks":
          [ "BKorpdai4DYqbsFbZHHXcTQ6o1DxDrjnqKRddKaZzAbru9ocu1k" ] },
      { "delegate": "tz3RDC3Jdn4j15J7bBHZd29EUee9gVB1CxD9",
        "reception_time": "2022-01-20T09:51:39.047-00:00",
        "included_in_blocks":
          [ "BKorpdai4DYqbsFbZHHXcTQ6o1DxDrjnqKRddKaZzAbru9ocu1k" ] },
      { "delegate": "tz3bvNMQ95vfAYtG8193ymshqjSvmxiCUuR5",
        "reception_time": "2022-01-20T09:51:39.047-00:00",
        "included_in_blocks":
          [ "BKorpdai4DYqbsFbZHHXcTQ6o1DxDrjnqKRddKaZzAbru9ocu1k" ] },
      { "delegate": "tz1QXrzaHrGACVn15UiCg33aLCJ6npWdQb3J",
        "reception_time": "2022-01-20T09:51:39.047-00:00",
        "included_in_blocks":
          [ "BKorpdai4DYqbsFbZHHXcTQ6o1DxDrjnqKRddKaZzAbru9ocu1k" ] },
      { "delegate": "tz3bTdwZinP8U1JmSweNzVKhmwafqWmFWRfk",
        "reception_time": "2022-01-20T09:51:39.047-00:00",
        "included_in_blocks":
          [ "BKorpdai4DYqbsFbZHHXcTQ6o1DxDrjnqKRddKaZzAbru9ocu1k" ] },
      { "delegate": "tz1Nf6tsK4G6bBqgSQERy4nUtkHNKUVdh7q1",
        "reception_time": "2022-01-20T09:51:39.047-00:00",
        "included_in_blocks":
          [ "BKorpdai4DYqbsFbZHHXcTQ6o1DxDrjnqKRddKaZzAbru9ocu1k" ] },
      { "delegate": "tz3WMqdzXqRWXwyvj5Hp2H7QEepaUuS7vd9K",
        "reception_time": "2022-01-20T09:51:39.047-00:00",
        "included_in_blocks":
          [ "BKorpdai4DYqbsFbZHHXcTQ6o1DxDrjnqKRddKaZzAbru9ocu1k" ] },
      { "delegate": "tz3RB4aoyjov4KEVRbuhvQ1CKJgBJMWhaeB8",
        "reception_time": "2022-01-20T09:51:39.047-00:00",
        "included_in_blocks":
          [ "BKorpdai4DYqbsFbZHHXcTQ6o1DxDrjnqKRddKaZzAbru9ocu1k" ] },
      { "delegate": "tz1iPHM2Xx2hwmzcr1EG1zzrV6oKafVoA91m",
        "reception_time": "2022-01-20T09:51:39.047-00:00",
        "included_in_blocks":
          [ "BKorpdai4DYqbsFbZHHXcTQ6o1DxDrjnqKRddKaZzAbru9ocu1k" ] },
      { "delegate": "tz1NEKxGEHsFufk87CVZcrqWu8o22qh46GK6",
        "reception_time": "2022-01-20T09:51:39.047-00:00",
        "included_in_blocks":
          [ "BKorpdai4DYqbsFbZHHXcTQ6o1DxDrjnqKRddKaZzAbru9ocu1k" ] },
      { "delegate": "tz1YhNsiRRU8aHNGg7NK3uuP6UDAyacJernB",
        "reception_time": "2022-01-20T09:51:39.047-00:00",
        "included_in_blocks":
          [ "BKorpdai4DYqbsFbZHHXcTQ6o1DxDrjnqKRddKaZzAbru9ocu1k" ] },
      { "delegate": "tz3adcvQaKXTCg12zbninqo3q8ptKKtDFTLv",
        "reception_time": "2022-01-20T09:51:39.047-00:00",
        "included_in_blocks":
          [ "BKorpdai4DYqbsFbZHHXcTQ6o1DxDrjnqKRddKaZzAbru9ocu1k" ] },
      { "delegate": "tz3UoffC7FG7zfpmvmjUmUeAaHvzdcUvAj6r",
        "reception_time": "2022-01-20T09:51:39.047-00:00",
        "included_in_blocks":
          [ "BKorpdai4DYqbsFbZHHXcTQ6o1DxDrjnqKRddKaZzAbru9ocu1k" ] },
      { "delegate": "tz1MJx9vhaNRSimcuXPK2rW4fLccQnDAnVKJ",
        "reception_time": "2022-01-20T09:51:39.047-00:00",
        "included_in_blocks":
          [ "BKorpdai4DYqbsFbZHHXcTQ6o1DxDrjnqKRddKaZzAbru9ocu1k" ] },
      { "delegate": "tz1g8vkmcde6sWKaG2NN9WKzCkDM6Rziq194",
        "reception_time": "2022-01-20T09:51:39.047-00:00",
        "included_in_blocks":
          [ "BKorpdai4DYqbsFbZHHXcTQ6o1DxDrjnqKRddKaZzAbru9ocu1k" ] },
      { "delegate": "tz1abmz7jiCV2GH2u81LRrGgAFFgvQgiDiaf",
        "reception_time": "2022-01-20T09:51:39.047-00:00",
        "included_in_blocks":
          [ "BKorpdai4DYqbsFbZHHXcTQ6o1DxDrjnqKRddKaZzAbru9ocu1k" ] },
      { "delegate": "tz1d6Fx42mYgVFnHUW8T8A7WBfJ6nD9pVok8",
        "reception_time": "2022-01-20T09:51:39.047-00:00",
        "included_in_blocks":
          [ "BKorpdai4DYqbsFbZHHXcTQ6o1DxDrjnqKRddKaZzAbru9ocu1k" ] },
      { "delegate": "tz1WBfwbT66FC6BTLexc2BoyCCBM9LG7pnVW",
        "reception_time": "2022-01-20T09:51:38.472-00:00",
        "included_in_blocks":
          [ "BKorpdai4DYqbsFbZHHXcTQ6o1DxDrjnqKRddKaZzAbru9ocu1k" ] },
      { "delegate": "tz1ibcPVGK4Y8pcW4BYUsojiHoBKnZbyDGrX" },
      { "delegate": "tz1fJHFn6sWEd3NnBPngACuw2dggTv6nQZ7g" },
      { "delegate": "tz1awXW7wuXy21c66vBudMXQVAPgRnqqwgTH" },
      { "delegate": "tz1W5VkdB5s7ENMESVBtwyt9kyvLqPcUczRT" },
      { "delegate": "tz1Vyuu4EJ5Nym4JcrfRLnp3hpaq1DSEp1Ke" },
      { "delegate": "tz1RjoHc98dBoqaH2jawF62XNKh7YsHwbkEv" },
      { "delegate": "tz1NpWrAyDL9k2Lmnyxcgr9xuJakbBxdq7FB" },
      { "delegate": "tz1gfArv665EUkSg2ojMBzcbfwuPxAvqPvjo",
        "reception_time": "2022-01-20T09:51:32.858-00:00",
        "errors":
          [ { "kind": "temporary",
              "id": "proto.011-PtHangz2.prefilter.outdated_endorsement" } ],
        "included_in_blocks":
          [ "BKorpdai4DYqbsFbZHHXcTQ6o1DxDrjnqKRddKaZzAbru9ocu1k" ] },
      { "delegate": "tz1P2Po7YM526ughEsRbY4oR9zaUPDZjxFrb",
        "reception_time": "2022-01-20T09:51:33.772-00:00",
        "errors":
          [ { "kind": "temporary",
              "id": "proto.011-PtHangz2.prefilter.outdated_endorsement" } ],
        "included_in_blocks":
          [ "BKorpdai4DYqbsFbZHHXcTQ6o1DxDrjnqKRddKaZzAbru9ocu1k" ] },
      { "delegate": "tz1VmiY38m3y95HqQLjMwqnMS7sdMfGomzKi",
        "reception_time": "2022-01-20T09:51:33.921-00:00",
        "errors":
          [ { "kind": "temporary",
              "id": "proto.011-PtHangz2.prefilter.outdated_endorsement" } ],
        "included_in_blocks":
          [ "BKorpdai4DYqbsFbZHHXcTQ6o1DxDrjnqKRddKaZzAbru9ocu1k" ] },
      { "delegate": "tz1gUNyn3hmnEWqkusWPzxRaon1cs7ndWh7h",
        "reception_time": "2022-01-20T09:51:34.411-00:00",
        "errors":
          [ { "kind": "temporary",
              "id": "proto.011-PtHangz2.prefilter.outdated_endorsement" } ],
        "included_in_blocks":
          [ "BKorpdai4DYqbsFbZHHXcTQ6o1DxDrjnqKRddKaZzAbru9ocu1k" ] },
      { "delegate": "tz1Ldzz6k1BHdhuKvAtMRX7h5kJSMHESMHLC",
        "reception_time": "2022-01-20T09:51:34.456-00:00",
        "errors":
          [ { "kind": "temporary",
              "id": "proto.011-PtHangz2.prefilter.outdated_endorsement" } ],
        "included_in_blocks":
          [ "BKorpdai4DYqbsFbZHHXcTQ6o1DxDrjnqKRddKaZzAbru9ocu1k" ] },
      { "delegate": "tz1VQnqCCqX4K5sP3FNkVSNKTdCAMJDd3E1n",
        "reception_time": "2022-01-20T09:51:34.467-00:00",
        "errors":
          [ { "kind": "temporary",
              "id": "proto.011-PtHangz2.prefilter.outdated_endorsement" } ],
        "included_in_blocks":
          [ "BKorpdai4DYqbsFbZHHXcTQ6o1DxDrjnqKRddKaZzAbru9ocu1k" ] },
      { "delegate": "tz1Scdr2HsZiQjc7bHMeBbmDRXYVvdhjJbBh",
        "reception_time": "2022-01-20T09:51:34.653-00:00",
        "errors":
          [ { "kind": "temporary",
              "id": "proto.011-PtHangz2.prefilter.outdated_endorsement" } ],
        "included_in_blocks":
          [ "BKorpdai4DYqbsFbZHHXcTQ6o1DxDrjnqKRddKaZzAbru9ocu1k" ] },
      { "delegate": "tz1STeamwbp68THcny9zk3LsbG3H36DMvbRK",
        "reception_time": "2022-01-20T09:51:34.863-00:00",
        "errors":
          [ { "kind": "temporary",
              "id": "proto.011-PtHangz2.prefilter.outdated_endorsement" } ],
        "included_in_blocks":
          [ "BKorpdai4DYqbsFbZHHXcTQ6o1DxDrjnqKRddKaZzAbru9ocu1k" ] },
      { "delegate": "tz1irJKkXS2DBWkU1NnmFQx1c1L7pbGg4yhk",
        "reception_time": "2022-01-20T09:51:34.990-00:00",
        "errors":
          [ { "kind": "temporary",
              "id": "proto.011-PtHangz2.prefilter.outdated_endorsement" } ],
        "included_in_blocks":
          [ "BKorpdai4DYqbsFbZHHXcTQ6o1DxDrjnqKRddKaZzAbru9ocu1k" ] },
      { "delegate": "tz1ei4WtWEMEJekSv8qDnu9PExG6Q8HgRGr3",
        "reception_time": "2022-01-20T09:51:35.027-00:00",
        "errors":
          [ { "kind": "temporary",
              "id": "proto.011-PtHangz2.prefilter.outdated_endorsement" } ],
        "included_in_blocks":
          [ "BKorpdai4DYqbsFbZHHXcTQ6o1DxDrjnqKRddKaZzAbru9ocu1k" ] },
      { "delegate": "tz1PWCDnz783NNGGQjEFFsHtrcK5yBW4E2rm",
        "reception_time": "2022-01-20T09:51:35.038-00:00",
        "errors":
          [ { "kind": "temporary",
              "id": "proto.011-PtHangz2.prefilter.outdated_endorsement" } ],
        "included_in_blocks":
          [ "BKorpdai4DYqbsFbZHHXcTQ6o1DxDrjnqKRddKaZzAbru9ocu1k" ] },
      { "delegate": "tz3NxTnke1acr8o3h5y9ytf5awQBGNJUKzVU",
        "reception_time": "2022-01-20T09:51:35.075-00:00",
        "errors":
          [ { "kind": "temporary",
              "id": "proto.011-PtHangz2.prefilter.outdated_endorsement" } ],
        "included_in_blocks":
          [ "BKorpdai4DYqbsFbZHHXcTQ6o1DxDrjnqKRddKaZzAbru9ocu1k" ] },
      { "delegate": "tz1eDDuQBEgwvc6tbnnCVrnr12tvrd6gBTpx",
        "reception_time": "2022-01-20T09:51:35.105-00:00",
        "errors":
          [ { "kind": "temporary",
              "id": "proto.011-PtHangz2.prefilter.outdated_endorsement" } ],
        "included_in_blocks":
          [ "BKorpdai4DYqbsFbZHHXcTQ6o1DxDrjnqKRddKaZzAbru9ocu1k" ] },
      { "delegate": "tz1eEnQhbwf6trb8Q8mPb2RaPkNk2rN7BKi8",
        "reception_time": "2022-01-20T09:51:35.120-00:00",
        "errors":
          [ { "kind": "temporary",
              "id": "proto.011-PtHangz2.prefilter.outdated_endorsement" } ],
        "included_in_blocks":
          [ "BKorpdai4DYqbsFbZHHXcTQ6o1DxDrjnqKRddKaZzAbru9ocu1k" ] },
      { "delegate": "tz3ZbP2pM3nwvXztbuMJwJnDvV5xdpU8UkkD",
        "reception_time": "2022-01-20T09:51:35.120-00:00",
        "errors":
          [ { "kind": "temporary",
              "id": "proto.011-PtHangz2.prefilter.outdated_endorsement" } ],
        "included_in_blocks":
          [ "BKorpdai4DYqbsFbZHHXcTQ6o1DxDrjnqKRddKaZzAbru9ocu1k" ] },
      { "delegate": "tz1WCd2jm4uSt4vntk4vSuUWoZQGhLcDuR9q",
        "reception_time": "2022-01-20T09:51:35.262-00:00",
        "errors":
          [ { "kind": "temporary",
              "id": "proto.011-PtHangz2.prefilter.outdated_endorsement" } ],
        "included_in_blocks":
          [ "BKorpdai4DYqbsFbZHHXcTQ6o1DxDrjnqKRddKaZzAbru9ocu1k" ] },
      { "delegate": "tz1ZPh7XfUaJXUDvkrBxmS1BjEM1i62hiPpM",
        "reception_time": "2022-01-20T09:51:35.494-00:00",
        "errors":
          [ { "kind": "temporary",
              "id": "proto.011-PtHangz2.prefilter.outdated_endorsement" } ],
        "included_in_blocks":
          [ "BKorpdai4DYqbsFbZHHXcTQ6o1DxDrjnqKRddKaZzAbru9ocu1k" ] },
      { "delegate": "tz1RNoDLWUjbqqs6uCHtJKgSLAegutbD8cNe",
        "reception_time": "2022-01-20T09:51:35.656-00:00",
        "errors":
          [ { "kind": "temporary",
              "id": "proto.011-PtHangz2.prefilter.outdated_endorsement" } ],
        "included_in_blocks":
          [ "BKorpdai4DYqbsFbZHHXcTQ6o1DxDrjnqKRddKaZzAbru9ocu1k" ] },
      { "delegate": "tz3gtoUxdudfBRcNY7iVdKPHCYYX6xdPpoRS",
        "reception_time": "2022-01-20T09:51:35.674-00:00",
        "errors":
          [ { "kind": "temporary",
              "id": "proto.011-PtHangz2.prefilter.outdated_endorsement" } ],
        "included_in_blocks":
          [ "BKorpdai4DYqbsFbZHHXcTQ6o1DxDrjnqKRddKaZzAbru9ocu1k" ] },
      { "delegate": "tz1bHzftcTKZMTZgLLtnrXydCm6UEqf4ivca",
        "reception_time": "2022-01-20T09:51:35.684-00:00",
        "errors":
          [ { "kind": "temporary",
              "id": "proto.011-PtHangz2.prefilter.outdated_endorsement" } ],
        "included_in_blocks":
          [ "BKorpdai4DYqbsFbZHHXcTQ6o1DxDrjnqKRddKaZzAbru9ocu1k" ] },
      { "delegate": "tz3QSGPoRp3Kn7n3vY24eYeu3Peuqo45LQ4D",
        "reception_time": "2022-01-20T09:51:35.708-00:00",
        "errors":
          [ { "kind": "temporary",
              "id": "proto.011-PtHangz2.prefilter.outdated_endorsement" } ],
        "included_in_blocks":
          [ "BKorpdai4DYqbsFbZHHXcTQ6o1DxDrjnqKRddKaZzAbru9ocu1k" ] },
      { "delegate": "tz1W1f1JrE7VsqgpUpj1iiDobqP5TixgZhDk",
        "reception_time": "2022-01-20T09:51:35.780-00:00",
        "errors":
          [ { "kind": "temporary",
              "id": "proto.011-PtHangz2.prefilter.outdated_endorsement" } ],
        "included_in_blocks":
          [ "BKorpdai4DYqbsFbZHHXcTQ6o1DxDrjnqKRddKaZzAbru9ocu1k" ] },
      { "delegate": "tz1UJvHTgpVzcKWhTazGxVcn5wsHru5Gietg",
        "reception_time": "2022-01-20T09:51:35.862-00:00",
        "errors":
          [ { "kind": "temporary",
              "id": "proto.011-PtHangz2.prefilter.outdated_endorsement" } ],
        "included_in_blocks":
          [ "BKorpdai4DYqbsFbZHHXcTQ6o1DxDrjnqKRddKaZzAbru9ocu1k" ] },
      { "delegate": "tz1V4qCyvPKZ5UeqdH14HN42rxvNPQfc9UZg",
        "reception_time": "2022-01-20T09:51:35.957-00:00",
        "errors":
          [ { "kind": "temporary",
              "id": "proto.011-PtHangz2.prefilter.outdated_endorsement" } ],
        "included_in_blocks":
          [ "BKorpdai4DYqbsFbZHHXcTQ6o1DxDrjnqKRddKaZzAbru9ocu1k" ] },
      { "delegate": "tz1TRspM5SeZpaQUhzByXbEvqKF1vnCM2YTK",
        "reception_time": "2022-01-20T09:51:35.966-00:00",
        "errors":
          [ { "kind": "temporary",
              "id": "proto.011-PtHangz2.prefilter.outdated_endorsement" } ],
        "included_in_blocks":
          [ "BKorpdai4DYqbsFbZHHXcTQ6o1DxDrjnqKRddKaZzAbru9ocu1k" ] },
      { "delegate": "tz3iJu5vrKZcsqRPs8yJ61UDoeEXZmtro4qh",
        "reception_time": "2022-01-20T09:51:35.989-00:00",
        "errors":
          [ { "kind": "temporary",
              "id": "proto.011-PtHangz2.prefilter.outdated_endorsement" } ],
        "included_in_blocks":
          [ "BKorpdai4DYqbsFbZHHXcTQ6o1DxDrjnqKRddKaZzAbru9ocu1k" ] },
      { "delegate": "tz3RKYFsLuQzKBtmYuLNas7uMu3AsYd4QdsA",
        "reception_time": "2022-01-20T09:51:36.058-00:00",
        "errors":
          [ { "kind": "temporary",
              "id": "proto.011-PtHangz2.prefilter.outdated_endorsement" } ],
        "included_in_blocks":
          [ "BKorpdai4DYqbsFbZHHXcTQ6o1DxDrjnqKRddKaZzAbru9ocu1k" ] },
      { "delegate": "tz3hw2kqXhLUvY65ca1eety2oQTpAvd34R9Q",
        "reception_time": "2022-01-20T09:51:36.074-00:00",
        "errors":
          [ { "kind": "temporary",
              "id": "proto.011-PtHangz2.prefilter.outdated_endorsement" } ],
        "included_in_blocks":
          [ "BKorpdai4DYqbsFbZHHXcTQ6o1DxDrjnqKRddKaZzAbru9ocu1k" ] },
      { "delegate": "tz3Zhs2dygr55yHyQyKjntAtY9bgfhLZ4Xj1",
        "reception_time": "2022-01-20T09:51:36.085-00:00",
        "errors":
          [ { "kind": "temporary",
              "id": "proto.011-PtHangz2.prefilter.outdated_endorsement" } ],
        "included_in_blocks":
          [ "BKorpdai4DYqbsFbZHHXcTQ6o1DxDrjnqKRddKaZzAbru9ocu1k" ] },
      { "delegate": "tz3QT9dHYKDqh563chVa6za8526ys1UKfRfL",
        "reception_time": "2022-01-20T09:51:36.125-00:00",
        "errors":
          [ { "kind": "temporary",
              "id": "proto.011-PtHangz2.prefilter.outdated_endorsement" } ],
        "included_in_blocks":
          [ "BKorpdai4DYqbsFbZHHXcTQ6o1DxDrjnqKRddKaZzAbru9ocu1k" ] },
      { "delegate": "tz1KfEsrtDaA1sX7vdM4qmEPWuSytuqCDp5j",
        "reception_time": "2022-01-20T09:51:36.152-00:00",
        "errors":
          [ { "kind": "temporary",
              "id": "proto.011-PtHangz2.prefilter.outdated_endorsement" } ],
        "included_in_blocks":
          [ "BKorpdai4DYqbsFbZHHXcTQ6o1DxDrjnqKRddKaZzAbru9ocu1k" ] },
      { "delegate": "tz1gcna2xxZj2eNp1LaMyAhVJ49mEFj4FH26",
        "reception_time": "2022-01-20T09:51:36.187-00:00",
        "errors":
          [ { "kind": "temporary",
              "id": "proto.011-PtHangz2.prefilter.outdated_endorsement" } ],
        "included_in_blocks":
          [ "BKorpdai4DYqbsFbZHHXcTQ6o1DxDrjnqKRddKaZzAbru9ocu1k" ] },
      { "delegate": "tz1RNFBuv3iqriqVbobB8yAeUpTKLdzMQ4Aq",
        "reception_time": "2022-01-20T09:51:36.317-00:00",
        "errors":
          [ { "kind": "temporary",
              "id": "proto.011-PtHangz2.prefilter.outdated_endorsement" } ],
        "included_in_blocks":
          [ "BKorpdai4DYqbsFbZHHXcTQ6o1DxDrjnqKRddKaZzAbru9ocu1k" ] } ] }