{ "blocks":
    [ { "hash": "BLMrxNcz6iuM2iP5FZQ7SAsNXcRU2umuqGnRRdGNrGefbfMcDRF",
        "delegate": "tz1aRoaRhSpRYvFdyvgWLL6TGyRoGF51wDjM",
        "reception_time": "2022-01-20T06:40:47.357-00:00",
        "timestamp": "2022-01-20T06:40:30Z" } ],
  "endorsements":
    [ { "delegate": "tz1ZLKMBbvgMFbSUnsddKFtUFav29fEB4mkx",
        "reception_time": "2022-01-20T06:41:01.512-00:00" },
      { "delegate": "tz1QccGQsmt7WMnbVX9inJQgEuQGeMXddfjp",
        "reception_time": "2022-01-20T06:40:54.057-00:00",
        "included_in_blocks":
          [ "BLSLtVRhSUdNCKMnaoVQQctJYvvnGFzkVsCk7tCtfSpDVjQ9Lvc" ] },
      { "delegate": "tz1aRoaRhSpRYvFdyvgWLL6TGyRoGF51wDjM",
        "reception_time": "2022-01-20T06:40:52.008-00:00",
        "included_in_blocks":
          [ "BLSLtVRhSUdNCKMnaoVQQctJYvvnGFzkVsCk7tCtfSpDVjQ9Lvc" ] },
      { "delegate": "tz1V3yg82mcrPJbegqVCPn6bC8w1CSTRp3f8",
        "reception_time": "2022-01-20T06:40:51.772-00:00",
        "included_in_blocks":
          [ "BLSLtVRhSUdNCKMnaoVQQctJYvvnGFzkVsCk7tCtfSpDVjQ9Lvc" ] },
      { "delegate": "tz3NExpXn9aPNZPorRE4SdjJ2RGrfbJgMAaV",
        "reception_time": "2022-01-20T06:40:51.404-00:00",
        "included_in_blocks":
          [ "BLSLtVRhSUdNCKMnaoVQQctJYvvnGFzkVsCk7tCtfSpDVjQ9Lvc" ] },
      { "delegate": "tz3UoffC7FG7zfpmvmjUmUeAaHvzdcUvAj6r",
        "reception_time": "2022-01-20T06:40:51.351-00:00",
        "included_in_blocks":
          [ "BLSLtVRhSUdNCKMnaoVQQctJYvvnGFzkVsCk7tCtfSpDVjQ9Lvc" ] },
      { "delegate": "tz1ZcTRk5uxD86EFEn1vvNffWWqJy7q5eVhc",
        "reception_time": "2022-01-20T06:40:50.984-00:00",
        "included_in_blocks":
          [ "BLSLtVRhSUdNCKMnaoVQQctJYvvnGFzkVsCk7tCtfSpDVjQ9Lvc" ] },
      { "delegate": "tz1cM8Xc7ZP1TrjkTeKq4PeRhtbnwXSBR6Sw",
        "reception_time": "2022-01-20T06:40:50.865-00:00",
        "included_in_blocks":
          [ "BLSLtVRhSUdNCKMnaoVQQctJYvvnGFzkVsCk7tCtfSpDVjQ9Lvc" ] },
      { "delegate": "tz3VEZ4k6a4Wx42iyev6i2aVAptTRLEAivNN",
        "reception_time": "2022-01-20T06:40:50.587-00:00",
        "included_in_blocks":
          [ "BLSLtVRhSUdNCKMnaoVQQctJYvvnGFzkVsCk7tCtfSpDVjQ9Lvc" ] },
      { "delegate": "tz1abmz7jiCV2GH2u81LRrGgAFFgvQgiDiaf",
        "reception_time": "2022-01-20T06:40:50.552-00:00",
        "included_in_blocks":
          [ "BLSLtVRhSUdNCKMnaoVQQctJYvvnGFzkVsCk7tCtfSpDVjQ9Lvc" ] },
      { "delegate": "tz3WMqdzXqRWXwyvj5Hp2H7QEepaUuS7vd9K",
        "reception_time": "2022-01-20T06:40:50.393-00:00",
        "included_in_blocks":
          [ "BLSLtVRhSUdNCKMnaoVQQctJYvvnGFzkVsCk7tCtfSpDVjQ9Lvc" ] },
      { "delegate": "tz1Xsrfv6hn86fp88YfRs6xcKwt2nTqxVZYM",
        "reception_time": "2022-01-20T06:40:50.264-00:00",
        "included_in_blocks":
          [ "BLSLtVRhSUdNCKMnaoVQQctJYvvnGFzkVsCk7tCtfSpDVjQ9Lvc" ] },
      { "delegate": "tz1cYufsxHXJcvANhvS55h3aY32a9BAFB494",
        "reception_time": "2022-01-20T06:40:50.180-00:00",
        "included_in_blocks":
          [ "BLSLtVRhSUdNCKMnaoVQQctJYvvnGFzkVsCk7tCtfSpDVjQ9Lvc" ] },
      { "delegate": "tz1T7duV5gZWSTq4YpBGbXNLTfznCLDrFxvs",
        "reception_time": "2022-01-20T06:40:50.168-00:00",
        "included_in_blocks":
          [ "BLSLtVRhSUdNCKMnaoVQQctJYvvnGFzkVsCk7tCtfSpDVjQ9Lvc" ] },
      { "delegate": "tz1dRKU4FQ9QRRQPdaH4zCR6gmCmXfcvcgtB",
        "reception_time": "2022-01-20T06:40:50.089-00:00",
        "included_in_blocks":
          [ "BLSLtVRhSUdNCKMnaoVQQctJYvvnGFzkVsCk7tCtfSpDVjQ9Lvc" ] },
      { "delegate": "tz1R6Ej25VSerE3MkSoEEeBjKHCDTFbpKuSX",
        "reception_time": "2022-01-20T06:40:50.049-00:00",
        "included_in_blocks":
          [ "BLSLtVRhSUdNCKMnaoVQQctJYvvnGFzkVsCk7tCtfSpDVjQ9Lvc" ] },
      { "delegate": "tz3NDpRj6WBrJPikcPVHRBEjWKxFw3c6eQPS",
        "reception_time": "2022-01-20T06:40:49.976-00:00",
        "included_in_blocks":
          [ "BLSLtVRhSUdNCKMnaoVQQctJYvvnGFzkVsCk7tCtfSpDVjQ9Lvc" ] },
      { "delegate": "tz1TRqbYbUf2GyrjErf3hBzgBJPzW8y36qEs",
        "reception_time": "2022-01-20T06:40:49.964-00:00",
        "included_in_blocks":
          [ "BLSLtVRhSUdNCKMnaoVQQctJYvvnGFzkVsCk7tCtfSpDVjQ9Lvc" ] },
      { "delegate": "tz1NEKxGEHsFufk87CVZcrqWu8o22qh46GK6",
        "reception_time": "2022-01-20T06:40:49.940-00:00",
        "included_in_blocks":
          [ "BLSLtVRhSUdNCKMnaoVQQctJYvvnGFzkVsCk7tCtfSpDVjQ9Lvc" ] },
      { "delegate": "tz1R4PuhxUxBBZhfLJDx2nNjbr7WorAPX1oC",
        "reception_time": "2022-01-20T06:40:49.743-00:00",
        "included_in_blocks":
          [ "BLSLtVRhSUdNCKMnaoVQQctJYvvnGFzkVsCk7tCtfSpDVjQ9Lvc" ] },
      { "delegate": "tz2FCNBrERXtaTtNX6iimR1UJ5JSDxvdHM93",
        "reception_time": "2022-01-20T06:40:49.743-00:00",
        "included_in_blocks":
          [ "BLSLtVRhSUdNCKMnaoVQQctJYvvnGFzkVsCk7tCtfSpDVjQ9Lvc" ] },
      { "delegate": "tz1PeZx7FXy7QRuMREGXGxeipb24RsMMzUNe",
        "reception_time": "2022-01-20T06:40:49.743-00:00",
        "included_in_blocks":
          [ "BLSLtVRhSUdNCKMnaoVQQctJYvvnGFzkVsCk7tCtfSpDVjQ9Lvc" ] },
      { "delegate": "tz3RB4aoyjov4KEVRbuhvQ1CKJgBJMWhaeB8",
        "reception_time": "2022-01-20T06:40:49.743-00:00",
        "included_in_blocks":
          [ "BLSLtVRhSUdNCKMnaoVQQctJYvvnGFzkVsCk7tCtfSpDVjQ9Lvc" ] },
      { "delegate": "tz1WBfwbT66FC6BTLexc2BoyCCBM9LG7pnVW",
        "reception_time": "2022-01-20T06:40:49.743-00:00",
        "included_in_blocks":
          [ "BLSLtVRhSUdNCKMnaoVQQctJYvvnGFzkVsCk7tCtfSpDVjQ9Lvc" ] },
      { "delegate": "tz1S8MNvuFEUsWgjHvi3AxibRBf388NhT1q2",
        "reception_time": "2022-01-20T06:40:49.313-00:00",
        "included_in_blocks":
          [ "BLSLtVRhSUdNCKMnaoVQQctJYvvnGFzkVsCk7tCtfSpDVjQ9Lvc" ] },
      { "delegate": "tz1gfArv665EUkSg2ojMBzcbfwuPxAvqPvjo",
        "reception_time": "2022-01-20T06:40:49.313-00:00",
        "included_in_blocks":
          [ "BLSLtVRhSUdNCKMnaoVQQctJYvvnGFzkVsCk7tCtfSpDVjQ9Lvc" ] },
      { "delegate": "tz1fPKAtsYydh4f1wfWNfeNxWYu72TmM48fu",
        "reception_time": "2022-01-20T06:40:49.313-00:00",
        "included_in_blocks":
          [ "BLSLtVRhSUdNCKMnaoVQQctJYvvnGFzkVsCk7tCtfSpDVjQ9Lvc" ] },
      { "delegate": "tz1KfEsrtDaA1sX7vdM4qmEPWuSytuqCDp5j",
        "reception_time": "2022-01-20T06:40:49.313-00:00",
        "included_in_blocks":
          [ "BLSLtVRhSUdNCKMnaoVQQctJYvvnGFzkVsCk7tCtfSpDVjQ9Lvc" ] },
      { "delegate": "tz3RDC3Jdn4j15J7bBHZd29EUee9gVB1CxD9",
        "reception_time": "2022-01-20T06:40:49.313-00:00",
        "included_in_blocks":
          [ "BLSLtVRhSUdNCKMnaoVQQctJYvvnGFzkVsCk7tCtfSpDVjQ9Lvc" ] },
      { "delegate": "tz3bvNMQ95vfAYtG8193ymshqjSvmxiCUuR5",
        "reception_time": "2022-01-20T06:40:49.313-00:00",
        "included_in_blocks":
          [ "BLSLtVRhSUdNCKMnaoVQQctJYvvnGFzkVsCk7tCtfSpDVjQ9Lvc" ] },
      { "delegate": "tz1iPHM2Xx2hwmzcr1EG1zzrV6oKafVoA91m",
        "reception_time": "2022-01-20T06:40:49.313-00:00",
        "included_in_blocks":
          [ "BLSLtVRhSUdNCKMnaoVQQctJYvvnGFzkVsCk7tCtfSpDVjQ9Lvc" ] },
      { "delegate": "tz1TEc75UKXv4W5cwi14Na3NtqFD51yKQi7h",
        "reception_time": "2022-01-20T06:40:49.313-00:00",
        "included_in_blocks":
          [ "BLSLtVRhSUdNCKMnaoVQQctJYvvnGFzkVsCk7tCtfSpDVjQ9Lvc" ] },
      { "delegate": "tz3QCNyySViKHmeSr45kzDxzchys7NiXCWoa",
        "reception_time": "2022-01-20T06:40:49.313-00:00",
        "included_in_blocks":
          [ "BLSLtVRhSUdNCKMnaoVQQctJYvvnGFzkVsCk7tCtfSpDVjQ9Lvc" ] },
      { "delegate": "tz3bTdwZinP8U1JmSweNzVKhmwafqWmFWRfk",
        "reception_time": "2022-01-20T06:40:49.313-00:00",
        "included_in_blocks":
          [ "BLSLtVRhSUdNCKMnaoVQQctJYvvnGFzkVsCk7tCtfSpDVjQ9Lvc" ] },
      { "delegate": "tz3QT9dHYKDqh563chVa6za8526ys1UKfRfL",
        "reception_time": "2022-01-20T06:40:49.313-00:00",
        "included_in_blocks":
          [ "BLSLtVRhSUdNCKMnaoVQQctJYvvnGFzkVsCk7tCtfSpDVjQ9Lvc" ] },
      { "delegate": "tz3S6BBeKgJGXxvLyZ1xzXzMPn11nnFtq5L9",
        "reception_time": "2022-01-20T06:40:49.313-00:00",
        "included_in_blocks":
          [ "BLSLtVRhSUdNCKMnaoVQQctJYvvnGFzkVsCk7tCtfSpDVjQ9Lvc" ] },
      { "delegate": "tz1Nf6tsK4G6bBqgSQERy4nUtkHNKUVdh7q1",
        "reception_time": "2022-01-20T06:40:49.313-00:00",
        "included_in_blocks":
          [ "BLSLtVRhSUdNCKMnaoVQQctJYvvnGFzkVsCk7tCtfSpDVjQ9Lvc" ] },
      { "delegate": "tz1PWCDnz783NNGGQjEFFsHtrcK5yBW4E2rm",
        "reception_time": "2022-01-20T06:40:49.313-00:00",
        "included_in_blocks":
          [ "BLSLtVRhSUdNCKMnaoVQQctJYvvnGFzkVsCk7tCtfSpDVjQ9Lvc" ] },
      { "delegate": "tz1RCFbB9GpALpsZtu6J58sb74dm8qe6XBzv",
        "reception_time": "2022-01-20T06:40:49.313-00:00",
        "included_in_blocks":
          [ "BLSLtVRhSUdNCKMnaoVQQctJYvvnGFzkVsCk7tCtfSpDVjQ9Lvc" ] },
      { "delegate": "tz1TRspM5SeZpaQUhzByXbEvqKF1vnCM2YTK",
        "reception_time": "2022-01-20T06:40:49.313-00:00",
        "included_in_blocks":
          [ "BLSLtVRhSUdNCKMnaoVQQctJYvvnGFzkVsCk7tCtfSpDVjQ9Lvc" ] },
      { "delegate": "tz3NxTnke1acr8o3h5y9ytf5awQBGNJUKzVU",
        "reception_time": "2022-01-20T06:40:49.313-00:00",
        "included_in_blocks":
          [ "BLSLtVRhSUdNCKMnaoVQQctJYvvnGFzkVsCk7tCtfSpDVjQ9Lvc" ] },
      { "delegate": "tz3Zhs2dygr55yHyQyKjntAtY9bgfhLZ4Xj1",
        "reception_time": "2022-01-20T06:40:49.313-00:00",
        "included_in_blocks":
          [ "BLSLtVRhSUdNCKMnaoVQQctJYvvnGFzkVsCk7tCtfSpDVjQ9Lvc" ] },
      { "delegate": "tz3gtoUxdudfBRcNY7iVdKPHCYYX6xdPpoRS",
        "reception_time": "2022-01-20T06:40:49.313-00:00",
        "included_in_blocks":
          [ "BLSLtVRhSUdNCKMnaoVQQctJYvvnGFzkVsCk7tCtfSpDVjQ9Lvc" ] },
      { "delegate": "tz3iJu5vrKZcsqRPs8yJ61UDoeEXZmtro4qh",
        "reception_time": "2022-01-20T06:40:49.313-00:00",
        "included_in_blocks":
          [ "BLSLtVRhSUdNCKMnaoVQQctJYvvnGFzkVsCk7tCtfSpDVjQ9Lvc" ] },
      { "delegate": "tz1UJvHTgpVzcKWhTazGxVcn5wsHru5Gietg",
        "reception_time": "2022-01-20T06:40:49.313-00:00",
        "included_in_blocks":
          [ "BLSLtVRhSUdNCKMnaoVQQctJYvvnGFzkVsCk7tCtfSpDVjQ9Lvc" ] },
      { "delegate": "tz3RKYFsLuQzKBtmYuLNas7uMu3AsYd4QdsA",
        "reception_time": "2022-01-20T06:40:49.313-00:00",
        "included_in_blocks":
          [ "BLSLtVRhSUdNCKMnaoVQQctJYvvnGFzkVsCk7tCtfSpDVjQ9Lvc" ] },
      { "delegate": "tz1P2Po7YM526ughEsRbY4oR9zaUPDZjxFrb",
        "reception_time": "2022-01-20T06:40:49.313-00:00",
        "included_in_blocks":
          [ "BLSLtVRhSUdNCKMnaoVQQctJYvvnGFzkVsCk7tCtfSpDVjQ9Lvc" ] },
      { "delegate": "tz1MJx9vhaNRSimcuXPK2rW4fLccQnDAnVKJ",
        "reception_time": "2022-01-20T06:40:49.051-00:00",
        "included_in_blocks":
          [ "BLSLtVRhSUdNCKMnaoVQQctJYvvnGFzkVsCk7tCtfSpDVjQ9Lvc" ] },
      { "delegate": "tz1ei4WtWEMEJekSv8qDnu9PExG6Q8HgRGr3",
        "reception_time": "2022-01-20T06:40:49.051-00:00",
        "included_in_blocks":
          [ "BLSLtVRhSUdNCKMnaoVQQctJYvvnGFzkVsCk7tCtfSpDVjQ9Lvc" ] },
      { "delegate": "tz3QSGPoRp3Kn7n3vY24eYeu3Peuqo45LQ4D",
        "reception_time": "2022-01-20T06:40:49.051-00:00",
        "included_in_blocks":
          [ "BLSLtVRhSUdNCKMnaoVQQctJYvvnGFzkVsCk7tCtfSpDVjQ9Lvc" ] },
      { "delegate": "tz3hw2kqXhLUvY65ca1eety2oQTpAvd34R9Q",
        "reception_time": "2022-01-20T06:40:49.051-00:00",
        "included_in_blocks":
          [ "BLSLtVRhSUdNCKMnaoVQQctJYvvnGFzkVsCk7tCtfSpDVjQ9Lvc" ] },
      { "delegate": "tz3ZbP2pM3nwvXztbuMJwJnDvV5xdpU8UkkD",
        "reception_time": "2022-01-20T06:40:49.051-00:00",
        "included_in_blocks":
          [ "BLSLtVRhSUdNCKMnaoVQQctJYvvnGFzkVsCk7tCtfSpDVjQ9Lvc" ] },
      { "delegate": "tz1cSj7fTex3JPd1p1LN1fwek6AV1kH93Wwc",
        "reception_time": "2022-01-20T06:40:49.051-00:00",
        "included_in_blocks":
          [ "BLSLtVRhSUdNCKMnaoVQQctJYvvnGFzkVsCk7tCtfSpDVjQ9Lvc" ] },
      { "delegate": "tz1irJKkXS2DBWkU1NnmFQx1c1L7pbGg4yhk",
        "reception_time": "2022-01-20T06:40:49.051-00:00",
        "included_in_blocks":
          [ "BLSLtVRhSUdNCKMnaoVQQctJYvvnGFzkVsCk7tCtfSpDVjQ9Lvc" ] },
      { "delegate": "tz1WCd2jm4uSt4vntk4vSuUWoZQGhLcDuR9q",
        "reception_time": "2022-01-20T06:40:49.051-00:00",
        "included_in_blocks":
          [ "BLSLtVRhSUdNCKMnaoVQQctJYvvnGFzkVsCk7tCtfSpDVjQ9Lvc" ] },
      { "delegate": "tz1VmiY38m3y95HqQLjMwqnMS7sdMfGomzKi",
        "reception_time": "2022-01-20T06:40:49.051-00:00",
        "included_in_blocks":
          [ "BLSLtVRhSUdNCKMnaoVQQctJYvvnGFzkVsCk7tCtfSpDVjQ9Lvc" ] },
      { "delegate": "tz1eDDuQBEgwvc6tbnnCVrnr12tvrd6gBTpx",
        "reception_time": "2022-01-20T06:40:49.051-00:00",
        "included_in_blocks":
          [ "BLSLtVRhSUdNCKMnaoVQQctJYvvnGFzkVsCk7tCtfSpDVjQ9Lvc" ] },
      { "delegate": "tz1VQnqCCqX4K5sP3FNkVSNKTdCAMJDd3E1n",
        "reception_time": "2022-01-20T06:40:49.051-00:00",
        "included_in_blocks":
          [ "BLSLtVRhSUdNCKMnaoVQQctJYvvnGFzkVsCk7tCtfSpDVjQ9Lvc" ] },
      { "delegate": "tz1gUNyn3hmnEWqkusWPzxRaon1cs7ndWh7h",
        "reception_time": "2022-01-20T06:40:49.051-00:00",
        "included_in_blocks":
          [ "BLSLtVRhSUdNCKMnaoVQQctJYvvnGFzkVsCk7tCtfSpDVjQ9Lvc" ] },
      { "delegate": "tz1Kt4P8BCaP93AEV4eA7gmpRryWt5hznjCP",
        "reception_time": "2022-01-20T06:40:48.547-00:00",
        "included_in_blocks":
          [ "BLSLtVRhSUdNCKMnaoVQQctJYvvnGFzkVsCk7tCtfSpDVjQ9Lvc" ] },
      { "delegate": "tz1awXW7wuXy21c66vBudMXQVAPgRnqqwgTH" },
      { "delegate": "tz1TeWzSWBNZ7PB6Kb6xUpGCT7pu13PFv3cv" },
      { "delegate": "tz1RjoHc98dBoqaH2jawF62XNKh7YsHwbkEv" },
      { "delegate": "tz1S8e9GgdZG78XJRB3NqabfWeM37GnhZMWQ",
        "reception_time": "2022-01-20T06:40:45.896-00:00",
        "errors":
          [ { "kind": "temporary",
              "id": "proto.011-PtHangz2.prefilter.outdated_endorsement" } ],
        "included_in_blocks":
          [ "BLSLtVRhSUdNCKMnaoVQQctJYvvnGFzkVsCk7tCtfSpDVjQ9Lvc" ] },
      { "delegate": "tz1Scdr2HsZiQjc7bHMeBbmDRXYVvdhjJbBh",
        "reception_time": "2022-01-20T06:40:46.495-00:00",
        "errors":
          [ { "kind": "temporary",
              "id": "proto.011-PtHangz2.prefilter.outdated_endorsement" } ],
        "included_in_blocks":
          [ "BLSLtVRhSUdNCKMnaoVQQctJYvvnGFzkVsCk7tCtfSpDVjQ9Lvc" ] },
      { "delegate": "tz1Lhf4J9Qxoe3DZ2nfe8FGDnvVj7oKjnMY6",
        "reception_time": "2022-01-20T06:40:46.659-00:00",
        "errors":
          [ { "kind": "temporary",
              "id": "proto.011-PtHangz2.prefilter.outdated_endorsement" } ],
        "included_in_blocks":
          [ "BLSLtVRhSUdNCKMnaoVQQctJYvvnGFzkVsCk7tCtfSpDVjQ9Lvc" ] },
      { "delegate": "tz1cX93Q3KsiTADpCC4f12TBvAmS5tw7CW19",
        "reception_time": "2022-01-20T06:40:46.981-00:00",
        "errors":
          [ { "kind": "temporary",
              "id": "proto.011-PtHangz2.prefilter.outdated_endorsement" } ],
        "included_in_blocks":
          [ "BLSLtVRhSUdNCKMnaoVQQctJYvvnGFzkVsCk7tCtfSpDVjQ9Lvc" ] },
      { "delegate": "tz1iZEKy4LaAjnTmn2RuGDf2iqdAQKnRi8kY",
        "reception_time": "2022-01-20T06:40:47.150-00:00",
        "errors":
          [ { "kind": "temporary",
              "id": "proto.011-PtHangz2.prefilter.outdated_endorsement" } ],
        "included_in_blocks":
          [ "BLSLtVRhSUdNCKMnaoVQQctJYvvnGFzkVsCk7tCtfSpDVjQ9Lvc" ] },
      { "delegate": "tz1eEnQhbwf6trb8Q8mPb2RaPkNk2rN7BKi8",
        "reception_time": "2022-01-20T06:40:47.169-00:00",
        "errors":
          [ { "kind": "temporary",
              "id": "proto.011-PtHangz2.prefilter.outdated_endorsement" } ],
        "included_in_blocks":
          [ "BLSLtVRhSUdNCKMnaoVQQctJYvvnGFzkVsCk7tCtfSpDVjQ9Lvc" ] },
      { "delegate": "tz1Ldzz6k1BHdhuKvAtMRX7h5kJSMHESMHLC",
        "reception_time": "2022-01-20T06:40:47.282-00:00",
        "errors":
          [ { "kind": "temporary",
              "id": "proto.011-PtHangz2.prefilter.outdated_endorsement" } ],
        "included_in_blocks":
          [ "BLSLtVRhSUdNCKMnaoVQQctJYvvnGFzkVsCk7tCtfSpDVjQ9Lvc" ] } ] }