{ "blocks":
    [ { "hash": "BMTSgH4k57PpQe7UdxYiqpeLxAAktmNwu4TZJDJ3J3zFLjxfLB5",
        "delegate": "tz1irJKkXS2DBWkU1NnmFQx1c1L7pbGg4yhk",
        "reception_time": "2022-01-20T06:32:08.248-00:00",
        "timestamp": "2022-01-20T06:32:00Z" } ],
  "endorsements":
    [ { "delegate": "tz1P2Po7YM526ughEsRbY4oR9zaUPDZjxFrb",
        "reception_time": "2022-01-20T06:32:08.190-00:00",
        "errors":
          [ { "kind": "temporary",
              "id": "proto.011-PtHangz2.prefilter.outdated_endorsement" } ],
        "included_in_blocks":
          [ "BMJf1M1KHQVpgXHvGimFTW5XepbL8qYgspPm7rxXv6FzKzXn67D" ] },
      { "delegate": "tz1awXW7wuXy21c66vBudMXQVAPgRnqqwgTH" },
      { "delegate": "tz1fJHFn6sWEd3NnBPngACuw2dggTv6nQZ7g" },
      { "delegate": "tz1gUNyn3hmnEWqkusWPzxRaon1cs7ndWh7h",
        "reception_time": "2022-01-20T06:32:09.309-00:00",
        "included_in_blocks":
          [ "BMJf1M1KHQVpgXHvGimFTW5XepbL8qYgspPm7rxXv6FzKzXn67D" ] },
      { "delegate": "tz1VQnqCCqX4K5sP3FNkVSNKTdCAMJDd3E1n",
        "reception_time": "2022-01-20T06:32:09.309-00:00",
        "included_in_blocks":
          [ "BMJf1M1KHQVpgXHvGimFTW5XepbL8qYgspPm7rxXv6FzKzXn67D" ] },
      { "delegate": "tz1ZPh7XfUaJXUDvkrBxmS1BjEM1i62hiPpM",
        "reception_time": "2022-01-20T06:32:09.563-00:00",
        "included_in_blocks":
          [ "BMJf1M1KHQVpgXHvGimFTW5XepbL8qYgspPm7rxXv6FzKzXn67D" ] },
      { "delegate": "tz1irJKkXS2DBWkU1NnmFQx1c1L7pbGg4yhk",
        "reception_time": "2022-01-20T06:32:09.563-00:00",
        "included_in_blocks":
          [ "BMJf1M1KHQVpgXHvGimFTW5XepbL8qYgspPm7rxXv6FzKzXn67D" ] },
      { "delegate": "tz1LLNkQK4UQV6QcFShiXJ2vT2ELw449MzAA",
        "reception_time": "2022-01-20T06:32:09.563-00:00",
        "included_in_blocks":
          [ "BMJf1M1KHQVpgXHvGimFTW5XepbL8qYgspPm7rxXv6FzKzXn67D" ] },
      { "delegate": "tz1eEnQhbwf6trb8Q8mPb2RaPkNk2rN7BKi8",
        "reception_time": "2022-01-20T06:32:09.563-00:00",
        "included_in_blocks":
          [ "BMJf1M1KHQVpgXHvGimFTW5XepbL8qYgspPm7rxXv6FzKzXn67D" ] },
      { "delegate": "tz1Ldzz6k1BHdhuKvAtMRX7h5kJSMHESMHLC",
        "reception_time": "2022-01-20T06:32:09.821-00:00",
        "included_in_blocks":
          [ "BMJf1M1KHQVpgXHvGimFTW5XepbL8qYgspPm7rxXv6FzKzXn67D" ] },
      { "delegate": "tz1VmiY38m3y95HqQLjMwqnMS7sdMfGomzKi",
        "reception_time": "2022-01-20T06:32:09.821-00:00",
        "included_in_blocks":
          [ "BMJf1M1KHQVpgXHvGimFTW5XepbL8qYgspPm7rxXv6FzKzXn67D" ] },
      { "delegate": "tz3hw2kqXhLUvY65ca1eety2oQTpAvd34R9Q",
        "reception_time": "2022-01-20T06:32:09.821-00:00",
        "included_in_blocks":
          [ "BMJf1M1KHQVpgXHvGimFTW5XepbL8qYgspPm7rxXv6FzKzXn67D" ] },
      { "delegate": "tz1TzaNn7wSQSP5gYPXCnNzBCpyMiidCq1PX",
        "reception_time": "2022-01-20T06:32:09.821-00:00",
        "included_in_blocks":
          [ "BMJf1M1KHQVpgXHvGimFTW5XepbL8qYgspPm7rxXv6FzKzXn67D" ] },
      { "delegate": "tz1aXD7Jigrt3PBYSpHSg5Rr33SexMmmM5Ys",
        "reception_time": "2022-01-20T06:32:09.821-00:00",
        "included_in_blocks":
          [ "BMJf1M1KHQVpgXHvGimFTW5XepbL8qYgspPm7rxXv6FzKzXn67D" ] },
      { "delegate": "tz3RKYFsLuQzKBtmYuLNas7uMu3AsYd4QdsA",
        "reception_time": "2022-01-20T06:32:09.821-00:00",
        "included_in_blocks":
          [ "BMJf1M1KHQVpgXHvGimFTW5XepbL8qYgspPm7rxXv6FzKzXn67D" ] },
      { "delegate": "tz1WCd2jm4uSt4vntk4vSuUWoZQGhLcDuR9q",
        "reception_time": "2022-01-20T06:32:09.821-00:00",
        "included_in_blocks":
          [ "BMJf1M1KHQVpgXHvGimFTW5XepbL8qYgspPm7rxXv6FzKzXn67D" ] },
      { "delegate": "tz3QSGPoRp3Kn7n3vY24eYeu3Peuqo45LQ4D",
        "reception_time": "2022-01-20T06:32:09.821-00:00",
        "included_in_blocks":
          [ "BMJf1M1KHQVpgXHvGimFTW5XepbL8qYgspPm7rxXv6FzKzXn67D" ] },
      { "delegate": "tz1PWCDnz783NNGGQjEFFsHtrcK5yBW4E2rm",
        "reception_time": "2022-01-20T06:32:09.821-00:00",
        "included_in_blocks":
          [ "BMJf1M1KHQVpgXHvGimFTW5XepbL8qYgspPm7rxXv6FzKzXn67D" ] },
      { "delegate": "tz3gtoUxdudfBRcNY7iVdKPHCYYX6xdPpoRS",
        "reception_time": "2022-01-20T06:32:09.821-00:00",
        "included_in_blocks":
          [ "BMJf1M1KHQVpgXHvGimFTW5XepbL8qYgspPm7rxXv6FzKzXn67D" ] },
      { "delegate": "tz1TRspM5SeZpaQUhzByXbEvqKF1vnCM2YTK",
        "reception_time": "2022-01-20T06:32:09.821-00:00",
        "included_in_blocks":
          [ "BMJf1M1KHQVpgXHvGimFTW5XepbL8qYgspPm7rxXv6FzKzXn67D" ] },
      { "delegate": "tz1d6Fx42mYgVFnHUW8T8A7WBfJ6nD9pVok8",
        "reception_time": "2022-01-20T06:32:09.821-00:00",
        "included_in_blocks":
          [ "BMJf1M1KHQVpgXHvGimFTW5XepbL8qYgspPm7rxXv6FzKzXn67D" ] },
      { "delegate": "tz3ZbP2pM3nwvXztbuMJwJnDvV5xdpU8UkkD",
        "reception_time": "2022-01-20T06:32:09.821-00:00",
        "included_in_blocks":
          [ "BMJf1M1KHQVpgXHvGimFTW5XepbL8qYgspPm7rxXv6FzKzXn67D" ] },
      { "delegate": "tz3NxTnke1acr8o3h5y9ytf5awQBGNJUKzVU",
        "reception_time": "2022-01-20T06:32:10.298-00:00",
        "included_in_blocks":
          [ "BMJf1M1KHQVpgXHvGimFTW5XepbL8qYgspPm7rxXv6FzKzXn67D" ] },
      { "delegate": "tz1ei4WtWEMEJekSv8qDnu9PExG6Q8HgRGr3",
        "reception_time": "2022-01-20T06:32:10.298-00:00",
        "included_in_blocks":
          [ "BMJf1M1KHQVpgXHvGimFTW5XepbL8qYgspPm7rxXv6FzKzXn67D" ] },
      { "delegate": "tz1MQMiZHV8q4tTwUMWmS5Y3kaP6J2136iXr",
        "reception_time": "2022-01-20T06:32:10.298-00:00",
        "included_in_blocks":
          [ "BMJf1M1KHQVpgXHvGimFTW5XepbL8qYgspPm7rxXv6FzKzXn67D" ] },
      { "delegate": "tz3S6BBeKgJGXxvLyZ1xzXzMPn11nnFtq5L9",
        "reception_time": "2022-01-20T06:32:10.298-00:00",
        "included_in_blocks":
          [ "BMJf1M1KHQVpgXHvGimFTW5XepbL8qYgspPm7rxXv6FzKzXn67D" ] },
      { "delegate": "tz3QT9dHYKDqh563chVa6za8526ys1UKfRfL",
        "reception_time": "2022-01-20T06:32:10.298-00:00",
        "included_in_blocks":
          [ "BMJf1M1KHQVpgXHvGimFTW5XepbL8qYgspPm7rxXv6FzKzXn67D" ] },
      { "delegate": "tz1RCFbB9GpALpsZtu6J58sb74dm8qe6XBzv",
        "reception_time": "2022-01-20T06:32:10.298-00:00",
        "included_in_blocks":
          [ "BMJf1M1KHQVpgXHvGimFTW5XepbL8qYgspPm7rxXv6FzKzXn67D" ] },
      { "delegate": "tz3bTdwZinP8U1JmSweNzVKhmwafqWmFWRfk",
        "reception_time": "2022-01-20T06:32:10.298-00:00",
        "included_in_blocks":
          [ "BMJf1M1KHQVpgXHvGimFTW5XepbL8qYgspPm7rxXv6FzKzXn67D" ] },
      { "delegate": "tz3iJu5vrKZcsqRPs8yJ61UDoeEXZmtro4qh",
        "reception_time": "2022-01-20T06:32:10.298-00:00",
        "included_in_blocks":
          [ "BMJf1M1KHQVpgXHvGimFTW5XepbL8qYgspPm7rxXv6FzKzXn67D" ] },
      { "delegate": "tz3Zhs2dygr55yHyQyKjntAtY9bgfhLZ4Xj1",
        "reception_time": "2022-01-20T06:32:10.298-00:00",
        "included_in_blocks":
          [ "BMJf1M1KHQVpgXHvGimFTW5XepbL8qYgspPm7rxXv6FzKzXn67D" ] },
      { "delegate": "tz1gfArv665EUkSg2ojMBzcbfwuPxAvqPvjo",
        "reception_time": "2022-01-20T06:32:10.298-00:00",
        "included_in_blocks":
          [ "BMJf1M1KHQVpgXHvGimFTW5XepbL8qYgspPm7rxXv6FzKzXn67D" ] },
      { "delegate": "tz1MQJPGNMijnXnVoBENFz9rUhaPt3S7rWoz",
        "reception_time": "2022-01-20T06:32:10.298-00:00",
        "included_in_blocks":
          [ "BMJf1M1KHQVpgXHvGimFTW5XepbL8qYgspPm7rxXv6FzKzXn67D" ] },
      { "delegate": "tz1S8MNvuFEUsWgjHvi3AxibRBf388NhT1q2",
        "reception_time": "2022-01-20T06:32:10.305-00:00",
        "included_in_blocks":
          [ "BMJf1M1KHQVpgXHvGimFTW5XepbL8qYgspPm7rxXv6FzKzXn67D" ] },
      { "delegate": "tz2FCNBrERXtaTtNX6iimR1UJ5JSDxvdHM93",
        "reception_time": "2022-01-20T06:32:10.345-00:00",
        "included_in_blocks":
          [ "BMJf1M1KHQVpgXHvGimFTW5XepbL8qYgspPm7rxXv6FzKzXn67D" ] },
      { "delegate": "tz1TRqbYbUf2GyrjErf3hBzgBJPzW8y36qEs",
        "reception_time": "2022-01-20T06:32:10.506-00:00",
        "included_in_blocks":
          [ "BMJf1M1KHQVpgXHvGimFTW5XepbL8qYgspPm7rxXv6FzKzXn67D" ] },
      { "delegate": "tz1Nf6tsK4G6bBqgSQERy4nUtkHNKUVdh7q1",
        "reception_time": "2022-01-20T06:32:10.561-00:00",
        "included_in_blocks":
          [ "BMJf1M1KHQVpgXHvGimFTW5XepbL8qYgspPm7rxXv6FzKzXn67D" ] },
      { "delegate": "tz1PeZx7FXy7QRuMREGXGxeipb24RsMMzUNe",
        "reception_time": "2022-01-20T06:32:10.581-00:00",
        "included_in_blocks":
          [ "BMJf1M1KHQVpgXHvGimFTW5XepbL8qYgspPm7rxXv6FzKzXn67D" ] },
      { "delegate": "tz1aJS7Pk9uWR3wWyFf1i3RwhYxN84G7stom",
        "reception_time": "2022-01-20T06:32:10.651-00:00",
        "included_in_blocks":
          [ "BMJf1M1KHQVpgXHvGimFTW5XepbL8qYgspPm7rxXv6FzKzXn67D" ] },
      { "delegate": "tz3RDC3Jdn4j15J7bBHZd29EUee9gVB1CxD9",
        "reception_time": "2022-01-20T06:32:10.678-00:00",
        "included_in_blocks":
          [ "BMJf1M1KHQVpgXHvGimFTW5XepbL8qYgspPm7rxXv6FzKzXn67D" ] },
      { "delegate": "tz1NdhRv643wLW6zCcRP3VfT24dvDnh7nuh9",
        "reception_time": "2022-01-20T06:32:10.910-00:00",
        "included_in_blocks":
          [ "BMJf1M1KHQVpgXHvGimFTW5XepbL8qYgspPm7rxXv6FzKzXn67D" ] },
      { "delegate": "tz1Tnjaxk6tbAeC2TmMApPh8UsrEVQvhHvx5",
        "reception_time": "2022-01-20T06:32:10.922-00:00",
        "included_in_blocks":
          [ "BMJf1M1KHQVpgXHvGimFTW5XepbL8qYgspPm7rxXv6FzKzXn67D" ] },
      { "delegate": "tz1UMCB2AHSTwG7YcGNr31CqYCtGN873royv",
        "reception_time": "2022-01-20T06:32:11.011-00:00",
        "included_in_blocks":
          [ "BMJf1M1KHQVpgXHvGimFTW5XepbL8qYgspPm7rxXv6FzKzXn67D" ] },
      { "delegate": "tz1KfEsrtDaA1sX7vdM4qmEPWuSytuqCDp5j",
        "reception_time": "2022-01-20T06:32:11.151-00:00",
        "included_in_blocks":
          [ "BMJf1M1KHQVpgXHvGimFTW5XepbL8qYgspPm7rxXv6FzKzXn67D" ] },
      { "delegate": "tz1SYq214SCBy9naR6cvycQsYcUGpBqQAE8d",
        "reception_time": "2022-01-20T06:32:11.294-00:00",
        "included_in_blocks":
          [ "BMJf1M1KHQVpgXHvGimFTW5XepbL8qYgspPm7rxXv6FzKzXn67D" ] },
      { "delegate": "tz3bvNMQ95vfAYtG8193ymshqjSvmxiCUuR5",
        "reception_time": "2022-01-20T06:32:11.395-00:00",
        "included_in_blocks":
          [ "BMJf1M1KHQVpgXHvGimFTW5XepbL8qYgspPm7rxXv6FzKzXn67D" ] },
      { "delegate": "tz1LmaFsWRkjr7QMCx5PtV6xTUz3AmEpKQiF",
        "reception_time": "2022-01-20T06:32:11.653-00:00",
        "included_in_blocks":
          [ "BMJf1M1KHQVpgXHvGimFTW5XepbL8qYgspPm7rxXv6FzKzXn67D" ] },
      { "delegate": "tz3VEZ4k6a4Wx42iyev6i2aVAptTRLEAivNN",
        "reception_time": "2022-01-20T06:32:11.693-00:00",
        "included_in_blocks":
          [ "BMJf1M1KHQVpgXHvGimFTW5XepbL8qYgspPm7rxXv6FzKzXn67D" ] },
      { "delegate": "tz1dRKU4FQ9QRRQPdaH4zCR6gmCmXfcvcgtB",
        "reception_time": "2022-01-20T06:32:11.704-00:00",
        "included_in_blocks":
          [ "BMJf1M1KHQVpgXHvGimFTW5XepbL8qYgspPm7rxXv6FzKzXn67D" ] },
      { "delegate": "tz3WMqdzXqRWXwyvj5Hp2H7QEepaUuS7vd9K",
        "reception_time": "2022-01-20T06:32:11.873-00:00",
        "included_in_blocks":
          [ "BMJf1M1KHQVpgXHvGimFTW5XepbL8qYgspPm7rxXv6FzKzXn67D" ] },
      { "delegate": "tz1g8vkmcde6sWKaG2NN9WKzCkDM6Rziq194",
        "reception_time": "2022-01-20T06:32:11.902-00:00",
        "included_in_blocks":
          [ "BMJf1M1KHQVpgXHvGimFTW5XepbL8qYgspPm7rxXv6FzKzXn67D" ] },
      { "delegate": "tz1chefX9Lf2XcZ4BzPtHjV4Qed6BY2ci9GE",
        "reception_time": "2022-01-20T06:32:11.925-00:00",
        "included_in_blocks":
          [ "BMJf1M1KHQVpgXHvGimFTW5XepbL8qYgspPm7rxXv6FzKzXn67D" ] },
      { "delegate": "tz1WctSwL49BZtdWAQ75NY6vr4xsAx6oKdah",
        "reception_time": "2022-01-20T06:32:11.946-00:00",
        "included_in_blocks":
          [ "BMJf1M1KHQVpgXHvGimFTW5XepbL8qYgspPm7rxXv6FzKzXn67D" ] },
      { "delegate": "tz3RB4aoyjov4KEVRbuhvQ1CKJgBJMWhaeB8",
        "reception_time": "2022-01-20T06:32:12.056-00:00",
        "included_in_blocks":
          [ "BMJf1M1KHQVpgXHvGimFTW5XepbL8qYgspPm7rxXv6FzKzXn67D" ] },
      { "delegate": "tz3NDpRj6WBrJPikcPVHRBEjWKxFw3c6eQPS",
        "reception_time": "2022-01-20T06:32:12.075-00:00",
        "included_in_blocks":
          [ "BMJf1M1KHQVpgXHvGimFTW5XepbL8qYgspPm7rxXv6FzKzXn67D" ] },
      { "delegate": "tz3NExpXn9aPNZPorRE4SdjJ2RGrfbJgMAaV",
        "reception_time": "2022-01-20T06:32:12.704-00:00",
        "included_in_blocks":
          [ "BMJf1M1KHQVpgXHvGimFTW5XepbL8qYgspPm7rxXv6FzKzXn67D" ] },
      { "delegate": "tz3UoffC7FG7zfpmvmjUmUeAaHvzdcUvAj6r",
        "reception_time": "2022-01-20T06:32:13.064-00:00",
        "included_in_blocks":
          [ "BMJf1M1KHQVpgXHvGimFTW5XepbL8qYgspPm7rxXv6FzKzXn67D" ] },
      { "delegate": "tz1aRoaRhSpRYvFdyvgWLL6TGyRoGF51wDjM",
        "reception_time": "2022-01-20T06:32:13.085-00:00",
        "included_in_blocks":
          [ "BMJf1M1KHQVpgXHvGimFTW5XepbL8qYgspPm7rxXv6FzKzXn67D" ] },
      { "delegate": "tz1NpWrAyDL9k2Lmnyxcgr9xuJakbBxdq7FB",
        "reception_time": "2022-01-20T06:32:19.601-00:00",
        "included_in_blocks":
          [ "BMJf1M1KHQVpgXHvGimFTW5XepbL8qYgspPm7rxXv6FzKzXn67D" ] },
      { "delegate": "tz2BzJTyoQp8fNbfhWD4YQgH9JJHDgSGzpdG",
        "reception_time": "2022-01-20T06:32:20.090-00:00",
        "included_in_blocks":
          [ "BMJf1M1KHQVpgXHvGimFTW5XepbL8qYgspPm7rxXv6FzKzXn67D" ] } ] }