{ "blocks":
    [ { "hash": "BLS9jqHb9rUWKNvPJMgUi2TbVMGiCd7eHgPcpU4h7572ydmEQ95",
        "delegate": "tz3WMqdzXqRWXwyvj5Hp2H7QEepaUuS7vd9K",
        "reception_time": "2022-01-20T08:01:41.864-00:00",
        "timestamp": "2022-01-20T08:01:30Z" } ],
  "endorsements":
    [ { "delegate": "tz1P2Po7YM526ughEsRbY4oR9zaUPDZjxFrb",
        "reception_time": "2022-01-20T08:01:41.741-00:00",
        "errors":
          [ { "kind": "temporary",
              "id": "proto.011-PtHangz2.prefilter.outdated_endorsement" } ],
        "included_in_blocks":
          [ "BMbvmgkuzSVaHXVnTwrPcYME43YCNmcpdKeA2dhv9sZwJzRhanN" ] },
      { "delegate": "tz1RV1MBbZMR68tacosb7Mwj6LkbPSUS1er1",
        "reception_time": "2022-01-20T08:01:41.723-00:00",
        "errors":
          [ { "kind": "temporary",
              "id": "proto.011-PtHangz2.prefilter.outdated_endorsement" } ],
        "included_in_blocks":
          [ "BMbvmgkuzSVaHXVnTwrPcYME43YCNmcpdKeA2dhv9sZwJzRhanN" ] },
      { "delegate": "tz1STeamwbp68THcny9zk3LsbG3H36DMvbRK",
        "reception_time": "2022-01-20T08:01:41.714-00:00",
        "errors":
          [ { "kind": "temporary",
              "id": "proto.011-PtHangz2.prefilter.outdated_endorsement" } ],
        "included_in_blocks":
          [ "BMbvmgkuzSVaHXVnTwrPcYME43YCNmcpdKeA2dhv9sZwJzRhanN" ] },
      { "delegate": "tz1Lhf4J9Qxoe3DZ2nfe8FGDnvVj7oKjnMY6",
        "reception_time": "2022-01-20T08:01:41.671-00:00",
        "errors":
          [ { "kind": "temporary",
              "id": "proto.011-PtHangz2.prefilter.outdated_endorsement" } ],
        "included_in_blocks":
          [ "BMbvmgkuzSVaHXVnTwrPcYME43YCNmcpdKeA2dhv9sZwJzRhanN" ] },
      { "delegate": "tz1Scdr2HsZiQjc7bHMeBbmDRXYVvdhjJbBh",
        "reception_time": "2022-01-20T08:01:41.461-00:00",
        "errors":
          [ { "kind": "temporary",
              "id": "proto.011-PtHangz2.prefilter.outdated_endorsement" } ],
        "included_in_blocks":
          [ "BMbvmgkuzSVaHXVnTwrPcYME43YCNmcpdKeA2dhv9sZwJzRhanN" ] },
      { "delegate": "tz1RjoHc98dBoqaH2jawF62XNKh7YsHwbkEv" },
      { "delegate": "tz1W5VkdB5s7ENMESVBtwyt9kyvLqPcUczRT" },
      { "delegate": "tz1awXW7wuXy21c66vBudMXQVAPgRnqqwgTH" },
      { "delegate": "tz1fJHFn6sWEd3NnBPngACuw2dggTv6nQZ7g" },
      { "delegate": "tz1eEnQhbwf6trb8Q8mPb2RaPkNk2rN7BKi8",
        "reception_time": "2022-01-20T08:01:42.946-00:00",
        "included_in_blocks":
          [ "BMbvmgkuzSVaHXVnTwrPcYME43YCNmcpdKeA2dhv9sZwJzRhanN" ] },
      { "delegate": "tz3adcvQaKXTCg12zbninqo3q8ptKKtDFTLv",
        "reception_time": "2022-01-20T08:01:42.946-00:00",
        "included_in_blocks":
          [ "BMbvmgkuzSVaHXVnTwrPcYME43YCNmcpdKeA2dhv9sZwJzRhanN" ] },
      { "delegate": "tz1TXzyaKUA8wsWefdSnyaYFnV2M3vCV7er9",
        "reception_time": "2022-01-20T08:01:42.946-00:00",
        "included_in_blocks":
          [ "BMbvmgkuzSVaHXVnTwrPcYME43YCNmcpdKeA2dhv9sZwJzRhanN" ] },
      { "delegate": "tz1irJKkXS2DBWkU1NnmFQx1c1L7pbGg4yhk",
        "reception_time": "2022-01-20T08:01:43.221-00:00",
        "included_in_blocks":
          [ "BMbvmgkuzSVaHXVnTwrPcYME43YCNmcpdKeA2dhv9sZwJzRhanN" ] },
      { "delegate": "tz1Ldzz6k1BHdhuKvAtMRX7h5kJSMHESMHLC",
        "reception_time": "2022-01-20T08:01:43.221-00:00",
        "included_in_blocks":
          [ "BMbvmgkuzSVaHXVnTwrPcYME43YCNmcpdKeA2dhv9sZwJzRhanN" ] },
      { "delegate": "tz1VmiY38m3y95HqQLjMwqnMS7sdMfGomzKi",
        "reception_time": "2022-01-20T08:01:43.221-00:00",
        "included_in_blocks":
          [ "BMbvmgkuzSVaHXVnTwrPcYME43YCNmcpdKeA2dhv9sZwJzRhanN" ] },
      { "delegate": "tz1VQnqCCqX4K5sP3FNkVSNKTdCAMJDd3E1n",
        "reception_time": "2022-01-20T08:01:43.221-00:00",
        "included_in_blocks":
          [ "BMbvmgkuzSVaHXVnTwrPcYME43YCNmcpdKeA2dhv9sZwJzRhanN" ] },
      { "delegate": "tz1gUNyn3hmnEWqkusWPzxRaon1cs7ndWh7h",
        "reception_time": "2022-01-20T08:01:43.221-00:00",
        "included_in_blocks":
          [ "BMbvmgkuzSVaHXVnTwrPcYME43YCNmcpdKeA2dhv9sZwJzRhanN" ] },
      { "delegate": "tz1TRspM5SeZpaQUhzByXbEvqKF1vnCM2YTK",
        "reception_time": "2022-01-20T08:01:43.221-00:00",
        "included_in_blocks":
          [ "BMbvmgkuzSVaHXVnTwrPcYME43YCNmcpdKeA2dhv9sZwJzRhanN" ] },
      { "delegate": "tz3NxTnke1acr8o3h5y9ytf5awQBGNJUKzVU",
        "reception_time": "2022-01-20T08:01:43.222-00:00",
        "included_in_blocks":
          [ "BMbvmgkuzSVaHXVnTwrPcYME43YCNmcpdKeA2dhv9sZwJzRhanN" ] },
      { "delegate": "tz3WMqdzXqRWXwyvj5Hp2H7QEepaUuS7vd9K",
        "reception_time": "2022-01-20T08:01:43.222-00:00",
        "included_in_blocks":
          [ "BMbvmgkuzSVaHXVnTwrPcYME43YCNmcpdKeA2dhv9sZwJzRhanN" ] },
      { "delegate": "tz1beersuEDv8Z7ngQ825xfbaJNS2EhXnyHR",
        "reception_time": "2022-01-20T08:01:43.222-00:00",
        "included_in_blocks":
          [ "BMbvmgkuzSVaHXVnTwrPcYME43YCNmcpdKeA2dhv9sZwJzRhanN" ] },
      { "delegate": "tz1W1f1JrE7VsqgpUpj1iiDobqP5TixgZhDk",
        "reception_time": "2022-01-20T08:01:43.222-00:00",
        "included_in_blocks":
          [ "BMbvmgkuzSVaHXVnTwrPcYME43YCNmcpdKeA2dhv9sZwJzRhanN" ] },
      { "delegate": "tz3ZbP2pM3nwvXztbuMJwJnDvV5xdpU8UkkD",
        "reception_time": "2022-01-20T08:01:43.222-00:00",
        "included_in_blocks":
          [ "BMbvmgkuzSVaHXVnTwrPcYME43YCNmcpdKeA2dhv9sZwJzRhanN" ] },
      { "delegate": "tz1gfArv665EUkSg2ojMBzcbfwuPxAvqPvjo",
        "reception_time": "2022-01-20T08:01:43.222-00:00",
        "included_in_blocks":
          [ "BMbvmgkuzSVaHXVnTwrPcYME43YCNmcpdKeA2dhv9sZwJzRhanN" ] },
      { "delegate": "tz1S8MNvuFEUsWgjHvi3AxibRBf388NhT1q2",
        "reception_time": "2022-01-20T08:01:43.222-00:00",
        "included_in_blocks":
          [ "BMbvmgkuzSVaHXVnTwrPcYME43YCNmcpdKeA2dhv9sZwJzRhanN" ] },
      { "delegate": "tz1RCFbB9GpALpsZtu6J58sb74dm8qe6XBzv",
        "reception_time": "2022-01-20T08:01:43.222-00:00",
        "included_in_blocks":
          [ "BMbvmgkuzSVaHXVnTwrPcYME43YCNmcpdKeA2dhv9sZwJzRhanN" ] },
      { "delegate": "tz3hw2kqXhLUvY65ca1eety2oQTpAvd34R9Q",
        "reception_time": "2022-01-20T08:01:43.222-00:00",
        "included_in_blocks":
          [ "BMbvmgkuzSVaHXVnTwrPcYME43YCNmcpdKeA2dhv9sZwJzRhanN" ] },
      { "delegate": "tz1MQJPGNMijnXnVoBENFz9rUhaPt3S7rWoz",
        "reception_time": "2022-01-20T08:01:43.222-00:00",
        "included_in_blocks":
          [ "BMbvmgkuzSVaHXVnTwrPcYME43YCNmcpdKeA2dhv9sZwJzRhanN" ] },
      { "delegate": "tz3RKYFsLuQzKBtmYuLNas7uMu3AsYd4QdsA",
        "reception_time": "2022-01-20T08:01:43.222-00:00",
        "included_in_blocks":
          [ "BMbvmgkuzSVaHXVnTwrPcYME43YCNmcpdKeA2dhv9sZwJzRhanN" ] },
      { "delegate": "tz1V4qCyvPKZ5UeqdH14HN42rxvNPQfc9UZg",
        "reception_time": "2022-01-20T08:01:43.222-00:00",
        "included_in_blocks":
          [ "BMbvmgkuzSVaHXVnTwrPcYME43YCNmcpdKeA2dhv9sZwJzRhanN" ] },
      { "delegate": "tz1gcna2xxZj2eNp1LaMyAhVJ49mEFj4FH26",
        "reception_time": "2022-01-20T08:01:43.222-00:00",
        "included_in_blocks":
          [ "BMbvmgkuzSVaHXVnTwrPcYME43YCNmcpdKeA2dhv9sZwJzRhanN" ] },
      { "delegate": "tz3gtoUxdudfBRcNY7iVdKPHCYYX6xdPpoRS",
        "reception_time": "2022-01-20T08:01:43.222-00:00",
        "included_in_blocks":
          [ "BMbvmgkuzSVaHXVnTwrPcYME43YCNmcpdKeA2dhv9sZwJzRhanN" ] },
      { "delegate": "tz3QSGPoRp3Kn7n3vY24eYeu3Peuqo45LQ4D",
        "reception_time": "2022-01-20T08:01:43.222-00:00",
        "included_in_blocks":
          [ "BMbvmgkuzSVaHXVnTwrPcYME43YCNmcpdKeA2dhv9sZwJzRhanN" ] },
      { "delegate": "tz1KfEsrtDaA1sX7vdM4qmEPWuSytuqCDp5j",
        "reception_time": "2022-01-20T08:01:43.222-00:00",
        "included_in_blocks":
          [ "BMbvmgkuzSVaHXVnTwrPcYME43YCNmcpdKeA2dhv9sZwJzRhanN" ] },
      { "delegate": "tz3QT9dHYKDqh563chVa6za8526ys1UKfRfL",
        "reception_time": "2022-01-20T08:01:43.222-00:00",
        "included_in_blocks":
          [ "BMbvmgkuzSVaHXVnTwrPcYME43YCNmcpdKeA2dhv9sZwJzRhanN" ] },
      { "delegate": "tz1ei4WtWEMEJekSv8qDnu9PExG6Q8HgRGr3",
        "reception_time": "2022-01-20T08:01:43.222-00:00",
        "included_in_blocks":
          [ "BMbvmgkuzSVaHXVnTwrPcYME43YCNmcpdKeA2dhv9sZwJzRhanN" ] },
      { "delegate": "tz3iJu5vrKZcsqRPs8yJ61UDoeEXZmtro4qh",
        "reception_time": "2022-01-20T08:01:43.222-00:00",
        "included_in_blocks":
          [ "BMbvmgkuzSVaHXVnTwrPcYME43YCNmcpdKeA2dhv9sZwJzRhanN" ] },
      { "delegate": "tz3S6BBeKgJGXxvLyZ1xzXzMPn11nnFtq5L9",
        "reception_time": "2022-01-20T08:01:43.663-00:00",
        "included_in_blocks":
          [ "BMbvmgkuzSVaHXVnTwrPcYME43YCNmcpdKeA2dhv9sZwJzRhanN" ] },
      { "delegate": "tz3Zhs2dygr55yHyQyKjntAtY9bgfhLZ4Xj1",
        "reception_time": "2022-01-20T08:01:43.663-00:00",
        "included_in_blocks":
          [ "BMbvmgkuzSVaHXVnTwrPcYME43YCNmcpdKeA2dhv9sZwJzRhanN" ] },
      { "delegate": "tz1Nf6tsK4G6bBqgSQERy4nUtkHNKUVdh7q1",
        "reception_time": "2022-01-20T08:01:43.664-00:00",
        "included_in_blocks":
          [ "BMbvmgkuzSVaHXVnTwrPcYME43YCNmcpdKeA2dhv9sZwJzRhanN" ] },
      { "delegate": "tz1KzSC1J9aBxKp7u8TUnpN8L7S65PBRkgdF",
        "reception_time": "2022-01-20T08:01:43.664-00:00",
        "included_in_blocks":
          [ "BMbvmgkuzSVaHXVnTwrPcYME43YCNmcpdKeA2dhv9sZwJzRhanN" ] },
      { "delegate": "tz1UJvHTgpVzcKWhTazGxVcn5wsHru5Gietg",
        "reception_time": "2022-01-20T08:01:43.664-00:00",
        "included_in_blocks":
          [ "BMbvmgkuzSVaHXVnTwrPcYME43YCNmcpdKeA2dhv9sZwJzRhanN" ] },
      { "delegate": "tz3bTdwZinP8U1JmSweNzVKhmwafqWmFWRfk",
        "reception_time": "2022-01-20T08:01:43.664-00:00",
        "included_in_blocks":
          [ "BMbvmgkuzSVaHXVnTwrPcYME43YCNmcpdKeA2dhv9sZwJzRhanN" ] },
      { "delegate": "tz3RB4aoyjov4KEVRbuhvQ1CKJgBJMWhaeB8",
        "reception_time": "2022-01-20T08:01:43.664-00:00",
        "included_in_blocks":
          [ "BMbvmgkuzSVaHXVnTwrPcYME43YCNmcpdKeA2dhv9sZwJzRhanN" ] },
      { "delegate": "tz1UMCB2AHSTwG7YcGNr31CqYCtGN873royv",
        "reception_time": "2022-01-20T08:01:43.671-00:00",
        "included_in_blocks":
          [ "BMbvmgkuzSVaHXVnTwrPcYME43YCNmcpdKeA2dhv9sZwJzRhanN" ] },
      { "delegate": "tz1WBfwbT66FC6BTLexc2BoyCCBM9LG7pnVW",
        "reception_time": "2022-01-20T08:01:43.693-00:00",
        "included_in_blocks":
          [ "BMbvmgkuzSVaHXVnTwrPcYME43YCNmcpdKeA2dhv9sZwJzRhanN" ] },
      { "delegate": "tz1TRqbYbUf2GyrjErf3hBzgBJPzW8y36qEs",
        "reception_time": "2022-01-20T08:01:43.811-00:00",
        "included_in_blocks":
          [ "BMbvmgkuzSVaHXVnTwrPcYME43YCNmcpdKeA2dhv9sZwJzRhanN" ] },
      { "delegate": "tz1R6Ej25VSerE3MkSoEEeBjKHCDTFbpKuSX",
        "reception_time": "2022-01-20T08:01:43.858-00:00",
        "included_in_blocks":
          [ "BMbvmgkuzSVaHXVnTwrPcYME43YCNmcpdKeA2dhv9sZwJzRhanN" ] },
      { "delegate": "tz2FCNBrERXtaTtNX6iimR1UJ5JSDxvdHM93",
        "reception_time": "2022-01-20T08:01:44.076-00:00",
        "included_in_blocks":
          [ "BMbvmgkuzSVaHXVnTwrPcYME43YCNmcpdKeA2dhv9sZwJzRhanN" ] },
      { "delegate": "tz1SUgyRB8T5jXgXAwS33pgRHAKrafyg87Yc",
        "reception_time": "2022-01-20T08:01:44.159-00:00",
        "included_in_blocks":
          [ "BMbvmgkuzSVaHXVnTwrPcYME43YCNmcpdKeA2dhv9sZwJzRhanN" ] },
      { "delegate": "tz1abmz7jiCV2GH2u81LRrGgAFFgvQgiDiaf",
        "reception_time": "2022-01-20T08:01:44.223-00:00",
        "included_in_blocks":
          [ "BMbvmgkuzSVaHXVnTwrPcYME43YCNmcpdKeA2dhv9sZwJzRhanN" ] },
      { "delegate": "tz2KrmHRWu7b7Vr3GYQ3SJ41xaW64PiqWBYm",
        "reception_time": "2022-01-20T08:01:44.344-00:00",
        "included_in_blocks":
          [ "BMbvmgkuzSVaHXVnTwrPcYME43YCNmcpdKeA2dhv9sZwJzRhanN" ] },
      { "delegate": "tz3VEZ4k6a4Wx42iyev6i2aVAptTRLEAivNN",
        "reception_time": "2022-01-20T08:01:44.420-00:00",
        "included_in_blocks":
          [ "BMbvmgkuzSVaHXVnTwrPcYME43YCNmcpdKeA2dhv9sZwJzRhanN" ] },
      { "delegate": "tz1g8vkmcde6sWKaG2NN9WKzCkDM6Rziq194",
        "reception_time": "2022-01-20T08:01:44.582-00:00",
        "included_in_blocks":
          [ "BMbvmgkuzSVaHXVnTwrPcYME43YCNmcpdKeA2dhv9sZwJzRhanN" ] },
      { "delegate": "tz3UoffC7FG7zfpmvmjUmUeAaHvzdcUvAj6r",
        "reception_time": "2022-01-20T08:01:44.598-00:00",
        "included_in_blocks":
          [ "BMbvmgkuzSVaHXVnTwrPcYME43YCNmcpdKeA2dhv9sZwJzRhanN" ] },
      { "delegate": "tz1a3T5mRR1XWM1JgydvAqxEwpNs7ktVZuXc",
        "reception_time": "2022-01-20T08:01:44.669-00:00",
        "included_in_blocks":
          [ "BMbvmgkuzSVaHXVnTwrPcYME43YCNmcpdKeA2dhv9sZwJzRhanN" ] },
      { "delegate": "tz3bvNMQ95vfAYtG8193ymshqjSvmxiCUuR5",
        "reception_time": "2022-01-20T08:01:44.745-00:00",
        "included_in_blocks":
          [ "BMbvmgkuzSVaHXVnTwrPcYME43YCNmcpdKeA2dhv9sZwJzRhanN" ] },
      { "delegate": "tz1T7duV5gZWSTq4YpBGbXNLTfznCLDrFxvs",
        "reception_time": "2022-01-20T08:01:44.855-00:00",
        "included_in_blocks":
          [ "BMbvmgkuzSVaHXVnTwrPcYME43YCNmcpdKeA2dhv9sZwJzRhanN" ] },
      { "delegate": "tz1TcH4Nb3aHNDJ7CGZhU7jgAK1BkSP4Lxds",
        "reception_time": "2022-01-20T08:01:45.103-00:00",
        "included_in_blocks":
          [ "BMbvmgkuzSVaHXVnTwrPcYME43YCNmcpdKeA2dhv9sZwJzRhanN" ] },
      { "delegate": "tz3gLTu4Yxj8tPAcriQVUdxv6BY9QyvzU1az",
        "reception_time": "2022-01-20T08:01:45.273-00:00",
        "included_in_blocks":
          [ "BMbvmgkuzSVaHXVnTwrPcYME43YCNmcpdKeA2dhv9sZwJzRhanN" ] },
      { "delegate": "tz1NSDFKuRyzHxpfG1AMkyCwEiZ52cbR2mRW",
        "reception_time": "2022-01-20T08:01:45.297-00:00",
        "included_in_blocks":
          [ "BMbvmgkuzSVaHXVnTwrPcYME43YCNmcpdKeA2dhv9sZwJzRhanN" ] },
      { "delegate": "tz3NDpRj6WBrJPikcPVHRBEjWKxFw3c6eQPS",
        "reception_time": "2022-01-20T08:01:45.329-00:00",
        "included_in_blocks":
          [ "BMbvmgkuzSVaHXVnTwrPcYME43YCNmcpdKeA2dhv9sZwJzRhanN" ] },
      { "delegate": "tz1ZcTRk5uxD86EFEn1vvNffWWqJy7q5eVhc",
        "reception_time": "2022-01-20T08:01:45.342-00:00",
        "included_in_blocks":
          [ "BMbvmgkuzSVaHXVnTwrPcYME43YCNmcpdKeA2dhv9sZwJzRhanN" ] },
      { "delegate": "tz3RDC3Jdn4j15J7bBHZd29EUee9gVB1CxD9",
        "reception_time": "2022-01-20T08:01:45.359-00:00",
        "included_in_blocks":
          [ "BMbvmgkuzSVaHXVnTwrPcYME43YCNmcpdKeA2dhv9sZwJzRhanN" ] },
      { "delegate": "tz3NExpXn9aPNZPorRE4SdjJ2RGrfbJgMAaV",
        "reception_time": "2022-01-20T08:01:45.503-00:00",
        "included_in_blocks":
          [ "BMbvmgkuzSVaHXVnTwrPcYME43YCNmcpdKeA2dhv9sZwJzRhanN" ] },
      { "delegate": "tz1QJU1PuKUP5ZQxUr4pHZjCHGRvJSpcXv7G",
        "reception_time": "2022-01-20T08:01:46.318-00:00",
        "included_in_blocks":
          [ "BMbvmgkuzSVaHXVnTwrPcYME43YCNmcpdKeA2dhv9sZwJzRhanN" ] },
      { "delegate": "tz1Z9M4biBHSiH38k5ciRMjR5bgk89yEgLTz",
        "reception_time": "2022-01-20T08:01:46.957-00:00",
        "included_in_blocks":
          [ "BMbvmgkuzSVaHXVnTwrPcYME43YCNmcpdKeA2dhv9sZwJzRhanN" ] },
      { "delegate": "tz1aRoaRhSpRYvFdyvgWLL6TGyRoGF51wDjM",
        "reception_time": "2022-01-20T08:01:46.961-00:00",
        "included_in_blocks":
          [ "BMbvmgkuzSVaHXVnTwrPcYME43YCNmcpdKeA2dhv9sZwJzRhanN" ] },
      { "delegate": "tz1gg5bjopPcr9agjamyu9BbXKLibNc2rbAq",
        "reception_time": "2022-01-20T08:01:49.030-00:00",
        "included_in_blocks":
          [ "BMbvmgkuzSVaHXVnTwrPcYME43YCNmcpdKeA2dhv9sZwJzRhanN" ] },
      { "delegate": "tz1NpWrAyDL9k2Lmnyxcgr9xuJakbBxdq7FB",
        "reception_time": "2022-01-20T08:01:50.867-00:00",
        "included_in_blocks":
          [ "BMbvmgkuzSVaHXVnTwrPcYME43YCNmcpdKeA2dhv9sZwJzRhanN" ] },
      { "delegate": "tz1RAxW1rBTRumV9QEpFsw51QWPQmAKHGMei",
        "reception_time": "2022-01-20T08:01:54.206-00:00",
        "included_in_blocks":
          [ "BMbvmgkuzSVaHXVnTwrPcYME43YCNmcpdKeA2dhv9sZwJzRhanN" ] },
      { "delegate": "tz1WnyXakHZKotpQHxevTnLmomz5rTwdiccy",
        "reception_time": "2022-01-20T08:01:57.458-00:00",
        "included_in_blocks":
          [ "BMbvmgkuzSVaHXVnTwrPcYME43YCNmcpdKeA2dhv9sZwJzRhanN" ] } ] }