{ "blocks":
    [ { "hash": "BLX2MZFQUqkxPweAYP9ZxWRDdNoUDDVepJygJQz6kgn6z8KTfLA",
        "delegate": "tz1cSoWttzYi9taqyHfcKS86b5M31SoaTQdg",
        "reception_time": "2022-01-20T07:27:59.406-00:00",
        "timestamp": "2022-01-20T07:27:50Z" } ],
  "endorsements":
    [ { "delegate": "tz1Scdr2HsZiQjc7bHMeBbmDRXYVvdhjJbBh",
        "reception_time": "2022-01-20T07:27:59.276-00:00",
        "errors":
          [ { "kind": "temporary",
              "id": "proto.011-PtHangz2.prefilter.outdated_endorsement" } ],
        "included_in_blocks":
          [ "BLbcHaeZoqHa7GmGzEV56UNgrqdf2msxeKHoUM2DBYA7Yg3YFrT" ] },
      { "delegate": "tz1S8e9GgdZG78XJRB3NqabfWeM37GnhZMWQ",
        "reception_time": "2022-01-20T07:27:58.957-00:00",
        "errors":
          [ { "kind": "temporary",
              "id": "proto.011-PtHangz2.prefilter.outdated_endorsement" } ],
        "included_in_blocks":
          [ "BLbcHaeZoqHa7GmGzEV56UNgrqdf2msxeKHoUM2DBYA7Yg3YFrT" ] },
      { "delegate": "tz1RjoHc98dBoqaH2jawF62XNKh7YsHwbkEv" },
      { "delegate": "tz1W5VkdB5s7ENMESVBtwyt9kyvLqPcUczRT" },
      { "delegate": "tz1cYufsxHXJcvANhvS55h3aY32a9BAFB494" },
      { "delegate": "tz1VmiY38m3y95HqQLjMwqnMS7sdMfGomzKi",
        "reception_time": "2022-01-20T07:28:00.726-00:00",
        "included_in_blocks":
          [ "BLbcHaeZoqHa7GmGzEV56UNgrqdf2msxeKHoUM2DBYA7Yg3YFrT" ] },
      { "delegate": "tz1STeamwbp68THcny9zk3LsbG3H36DMvbRK",
        "reception_time": "2022-01-20T07:28:00.726-00:00",
        "included_in_blocks":
          [ "BLbcHaeZoqHa7GmGzEV56UNgrqdf2msxeKHoUM2DBYA7Yg3YFrT" ] },
      { "delegate": "tz1Lhf4J9Qxoe3DZ2nfe8FGDnvVj7oKjnMY6",
        "reception_time": "2022-01-20T07:28:01.005-00:00",
        "included_in_blocks":
          [ "BLbcHaeZoqHa7GmGzEV56UNgrqdf2msxeKHoUM2DBYA7Yg3YFrT" ] },
      { "delegate": "tz1P2Po7YM526ughEsRbY4oR9zaUPDZjxFrb",
        "reception_time": "2022-01-20T07:28:01.005-00:00",
        "included_in_blocks":
          [ "BLbcHaeZoqHa7GmGzEV56UNgrqdf2msxeKHoUM2DBYA7Yg3YFrT" ] },
      { "delegate": "tz1beersuEDv8Z7ngQ825xfbaJNS2EhXnyHR",
        "reception_time": "2022-01-20T07:28:01.005-00:00",
        "included_in_blocks":
          [ "BLbcHaeZoqHa7GmGzEV56UNgrqdf2msxeKHoUM2DBYA7Yg3YFrT" ] },
      { "delegate": "tz1TXzyaKUA8wsWefdSnyaYFnV2M3vCV7er9",
        "reception_time": "2022-01-20T07:28:01.005-00:00",
        "included_in_blocks":
          [ "BLbcHaeZoqHa7GmGzEV56UNgrqdf2msxeKHoUM2DBYA7Yg3YFrT" ] },
      { "delegate": "tz1irJKkXS2DBWkU1NnmFQx1c1L7pbGg4yhk",
        "reception_time": "2022-01-20T07:28:01.005-00:00",
        "included_in_blocks":
          [ "BLbcHaeZoqHa7GmGzEV56UNgrqdf2msxeKHoUM2DBYA7Yg3YFrT" ] },
      { "delegate": "tz1Ldzz6k1BHdhuKvAtMRX7h5kJSMHESMHLC",
        "reception_time": "2022-01-20T07:28:01.005-00:00",
        "included_in_blocks":
          [ "BLbcHaeZoqHa7GmGzEV56UNgrqdf2msxeKHoUM2DBYA7Yg3YFrT" ] },
      { "delegate": "tz1VQnqCCqX4K5sP3FNkVSNKTdCAMJDd3E1n",
        "reception_time": "2022-01-20T07:28:01.005-00:00",
        "included_in_blocks":
          [ "BLbcHaeZoqHa7GmGzEV56UNgrqdf2msxeKHoUM2DBYA7Yg3YFrT" ] },
      { "delegate": "tz1MXFrtZoaXckE41bjUCSjAjAap3AFDSr3N",
        "reception_time": "2022-01-20T07:28:01.005-00:00",
        "included_in_blocks":
          [ "BLbcHaeZoqHa7GmGzEV56UNgrqdf2msxeKHoUM2DBYA7Yg3YFrT" ] },
      { "delegate": "tz1MJx9vhaNRSimcuXPK2rW4fLccQnDAnVKJ",
        "reception_time": "2022-01-20T07:28:01.005-00:00",
        "included_in_blocks":
          [ "BLbcHaeZoqHa7GmGzEV56UNgrqdf2msxeKHoUM2DBYA7Yg3YFrT" ] },
      { "delegate": "tz1gUNyn3hmnEWqkusWPzxRaon1cs7ndWh7h",
        "reception_time": "2022-01-20T07:28:01.005-00:00",
        "included_in_blocks":
          [ "BLbcHaeZoqHa7GmGzEV56UNgrqdf2msxeKHoUM2DBYA7Yg3YFrT" ] },
      { "delegate": "tz3adcvQaKXTCg12zbninqo3q8ptKKtDFTLv",
        "reception_time": "2022-01-20T07:28:01.005-00:00",
        "included_in_blocks":
          [ "BLbcHaeZoqHa7GmGzEV56UNgrqdf2msxeKHoUM2DBYA7Yg3YFrT" ] },
      { "delegate": "tz3e7LbZvUtoXhpUD1yb6wuFodZpfYRb9nWJ",
        "reception_time": "2022-01-20T07:28:01.005-00:00",
        "included_in_blocks":
          [ "BLbcHaeZoqHa7GmGzEV56UNgrqdf2msxeKHoUM2DBYA7Yg3YFrT" ] },
      { "delegate": "tz3ZbP2pM3nwvXztbuMJwJnDvV5xdpU8UkkD",
        "reception_time": "2022-01-20T07:28:01.005-00:00",
        "included_in_blocks":
          [ "BLbcHaeZoqHa7GmGzEV56UNgrqdf2msxeKHoUM2DBYA7Yg3YFrT" ] },
      { "delegate": "tz3S6BBeKgJGXxvLyZ1xzXzMPn11nnFtq5L9",
        "reception_time": "2022-01-20T07:28:01.005-00:00",
        "included_in_blocks":
          [ "BLbcHaeZoqHa7GmGzEV56UNgrqdf2msxeKHoUM2DBYA7Yg3YFrT" ] },
      { "delegate": "tz1eEnQhbwf6trb8Q8mPb2RaPkNk2rN7BKi8",
        "reception_time": "2022-01-20T07:28:01.005-00:00",
        "included_in_blocks":
          [ "BLbcHaeZoqHa7GmGzEV56UNgrqdf2msxeKHoUM2DBYA7Yg3YFrT" ] },
      { "delegate": "tz1PWCDnz783NNGGQjEFFsHtrcK5yBW4E2rm",
        "reception_time": "2022-01-20T07:28:01.005-00:00",
        "included_in_blocks":
          [ "BLbcHaeZoqHa7GmGzEV56UNgrqdf2msxeKHoUM2DBYA7Yg3YFrT" ] },
      { "delegate": "tz1TRspM5SeZpaQUhzByXbEvqKF1vnCM2YTK",
        "reception_time": "2022-01-20T07:28:01.005-00:00",
        "included_in_blocks":
          [ "BLbcHaeZoqHa7GmGzEV56UNgrqdf2msxeKHoUM2DBYA7Yg3YFrT" ] },
      { "delegate": "tz1MQMiZHV8q4tTwUMWmS5Y3kaP6J2136iXr",
        "reception_time": "2022-01-20T07:28:01.005-00:00",
        "included_in_blocks":
          [ "BLbcHaeZoqHa7GmGzEV56UNgrqdf2msxeKHoUM2DBYA7Yg3YFrT" ] },
      { "delegate": "tz3NxTnke1acr8o3h5y9ytf5awQBGNJUKzVU",
        "reception_time": "2022-01-20T07:28:01.005-00:00",
        "included_in_blocks":
          [ "BLbcHaeZoqHa7GmGzEV56UNgrqdf2msxeKHoUM2DBYA7Yg3YFrT" ] },
      { "delegate": "tz1TEc75UKXv4W5cwi14Na3NtqFD51yKQi7h",
        "reception_time": "2022-01-20T07:28:01.005-00:00",
        "included_in_blocks":
          [ "BLbcHaeZoqHa7GmGzEV56UNgrqdf2msxeKHoUM2DBYA7Yg3YFrT" ] },
      { "delegate": "tz3RKYFsLuQzKBtmYuLNas7uMu3AsYd4QdsA",
        "reception_time": "2022-01-20T07:28:01.005-00:00",
        "included_in_blocks":
          [ "BLbcHaeZoqHa7GmGzEV56UNgrqdf2msxeKHoUM2DBYA7Yg3YFrT" ] },
      { "delegate": "tz1ajgycuHmd2z2JbTSJxKv7x6cok2KuNSk1",
        "reception_time": "2022-01-20T07:28:01.005-00:00",
        "included_in_blocks":
          [ "BLbcHaeZoqHa7GmGzEV56UNgrqdf2msxeKHoUM2DBYA7Yg3YFrT" ] },
      { "delegate": "tz3hw2kqXhLUvY65ca1eety2oQTpAvd34R9Q",
        "reception_time": "2022-01-20T07:28:01.005-00:00",
        "included_in_blocks":
          [ "BLbcHaeZoqHa7GmGzEV56UNgrqdf2msxeKHoUM2DBYA7Yg3YFrT" ] },
      { "delegate": "tz1RCFbB9GpALpsZtu6J58sb74dm8qe6XBzv",
        "reception_time": "2022-01-20T07:28:01.005-00:00",
        "included_in_blocks":
          [ "BLbcHaeZoqHa7GmGzEV56UNgrqdf2msxeKHoUM2DBYA7Yg3YFrT" ] },
      { "delegate": "tz1fPKAtsYydh4f1wfWNfeNxWYu72TmM48fu",
        "reception_time": "2022-01-20T07:28:01.484-00:00",
        "included_in_blocks":
          [ "BLbcHaeZoqHa7GmGzEV56UNgrqdf2msxeKHoUM2DBYA7Yg3YFrT" ] },
      { "delegate": "tz1d6Fx42mYgVFnHUW8T8A7WBfJ6nD9pVok8",
        "reception_time": "2022-01-20T07:28:01.484-00:00",
        "included_in_blocks":
          [ "BLbcHaeZoqHa7GmGzEV56UNgrqdf2msxeKHoUM2DBYA7Yg3YFrT" ] },
      { "delegate": "tz1ei4WtWEMEJekSv8qDnu9PExG6Q8HgRGr3",
        "reception_time": "2022-01-20T07:28:01.484-00:00",
        "included_in_blocks":
          [ "BLbcHaeZoqHa7GmGzEV56UNgrqdf2msxeKHoUM2DBYA7Yg3YFrT" ] },
      { "delegate": "tz1R4PuhxUxBBZhfLJDx2nNjbr7WorAPX1oC",
        "reception_time": "2022-01-20T07:28:01.484-00:00",
        "included_in_blocks":
          [ "BLbcHaeZoqHa7GmGzEV56UNgrqdf2msxeKHoUM2DBYA7Yg3YFrT" ] },
      { "delegate": "tz1gfArv665EUkSg2ojMBzcbfwuPxAvqPvjo",
        "reception_time": "2022-01-20T07:28:01.484-00:00",
        "included_in_blocks":
          [ "BLbcHaeZoqHa7GmGzEV56UNgrqdf2msxeKHoUM2DBYA7Yg3YFrT" ] },
      { "delegate": "tz3QSGPoRp3Kn7n3vY24eYeu3Peuqo45LQ4D",
        "reception_time": "2022-01-20T07:28:01.484-00:00",
        "included_in_blocks":
          [ "BLbcHaeZoqHa7GmGzEV56UNgrqdf2msxeKHoUM2DBYA7Yg3YFrT" ] },
      { "delegate": "tz1Nf6tsK4G6bBqgSQERy4nUtkHNKUVdh7q1",
        "reception_time": "2022-01-20T07:28:01.484-00:00",
        "included_in_blocks":
          [ "BLbcHaeZoqHa7GmGzEV56UNgrqdf2msxeKHoUM2DBYA7Yg3YFrT" ] },
      { "delegate": "tz3Zhs2dygr55yHyQyKjntAtY9bgfhLZ4Xj1",
        "reception_time": "2022-01-20T07:28:01.484-00:00",
        "included_in_blocks":
          [ "BLbcHaeZoqHa7GmGzEV56UNgrqdf2msxeKHoUM2DBYA7Yg3YFrT" ] },
      { "delegate": "tz1S8MNvuFEUsWgjHvi3AxibRBf388NhT1q2",
        "reception_time": "2022-01-20T07:28:01.484-00:00",
        "included_in_blocks":
          [ "BLbcHaeZoqHa7GmGzEV56UNgrqdf2msxeKHoUM2DBYA7Yg3YFrT" ] },
      { "delegate": "tz3iJu5vrKZcsqRPs8yJ61UDoeEXZmtro4qh",
        "reception_time": "2022-01-20T07:28:01.484-00:00",
        "included_in_blocks":
          [ "BLbcHaeZoqHa7GmGzEV56UNgrqdf2msxeKHoUM2DBYA7Yg3YFrT" ] },
      { "delegate": "tz1KfEsrtDaA1sX7vdM4qmEPWuSytuqCDp5j",
        "reception_time": "2022-01-20T07:28:01.484-00:00",
        "included_in_blocks":
          [ "BLbcHaeZoqHa7GmGzEV56UNgrqdf2msxeKHoUM2DBYA7Yg3YFrT" ] },
      { "delegate": "tz3gtoUxdudfBRcNY7iVdKPHCYYX6xdPpoRS",
        "reception_time": "2022-01-20T07:28:01.484-00:00",
        "included_in_blocks":
          [ "BLbcHaeZoqHa7GmGzEV56UNgrqdf2msxeKHoUM2DBYA7Yg3YFrT" ] },
      { "delegate": "tz3RDC3Jdn4j15J7bBHZd29EUee9gVB1CxD9",
        "reception_time": "2022-01-20T07:28:01.484-00:00",
        "included_in_blocks":
          [ "BLbcHaeZoqHa7GmGzEV56UNgrqdf2msxeKHoUM2DBYA7Yg3YFrT" ] },
      { "delegate": "tz1fb7c66UwePkkfDXz4ajFaBP9hVNLdS7JJ",
        "reception_time": "2022-01-20T07:28:01.484-00:00",
        "included_in_blocks":
          [ "BLbcHaeZoqHa7GmGzEV56UNgrqdf2msxeKHoUM2DBYA7Yg3YFrT" ] },
      { "delegate": "tz3e75hU4EhDU3ukyJueh5v6UvEHzGwkg3yC",
        "reception_time": "2022-01-20T07:28:01.484-00:00",
        "included_in_blocks":
          [ "BLbcHaeZoqHa7GmGzEV56UNgrqdf2msxeKHoUM2DBYA7Yg3YFrT" ] },
      { "delegate": "tz1SYq214SCBy9naR6cvycQsYcUGpBqQAE8d",
        "reception_time": "2022-01-20T07:28:01.502-00:00",
        "included_in_blocks":
          [ "BLbcHaeZoqHa7GmGzEV56UNgrqdf2msxeKHoUM2DBYA7Yg3YFrT" ] },
      { "delegate": "tz1WBfwbT66FC6BTLexc2BoyCCBM9LG7pnVW",
        "reception_time": "2022-01-20T07:28:01.554-00:00",
        "included_in_blocks":
          [ "BLbcHaeZoqHa7GmGzEV56UNgrqdf2msxeKHoUM2DBYA7Yg3YFrT" ] },
      { "delegate": "tz1NSDFKuRyzHxpfG1AMkyCwEiZ52cbR2mRW",
        "reception_time": "2022-01-20T07:28:01.582-00:00",
        "included_in_blocks":
          [ "BLbcHaeZoqHa7GmGzEV56UNgrqdf2msxeKHoUM2DBYA7Yg3YFrT" ] },
      { "delegate": "tz3bvNMQ95vfAYtG8193ymshqjSvmxiCUuR5",
        "reception_time": "2022-01-20T07:28:01.700-00:00",
        "included_in_blocks":
          [ "BLbcHaeZoqHa7GmGzEV56UNgrqdf2msxeKHoUM2DBYA7Yg3YFrT" ] },
      { "delegate": "tz2KrmHRWu7b7Vr3GYQ3SJ41xaW64PiqWBYm",
        "reception_time": "2022-01-20T07:28:01.787-00:00",
        "included_in_blocks":
          [ "BLbcHaeZoqHa7GmGzEV56UNgrqdf2msxeKHoUM2DBYA7Yg3YFrT" ] },
      { "delegate": "tz3RB4aoyjov4KEVRbuhvQ1CKJgBJMWhaeB8",
        "reception_time": "2022-01-20T07:28:01.825-00:00",
        "included_in_blocks":
          [ "BLbcHaeZoqHa7GmGzEV56UNgrqdf2msxeKHoUM2DBYA7Yg3YFrT" ] },
      { "delegate": "tz1R6Ej25VSerE3MkSoEEeBjKHCDTFbpKuSX",
        "reception_time": "2022-01-20T07:28:01.890-00:00",
        "included_in_blocks":
          [ "BLbcHaeZoqHa7GmGzEV56UNgrqdf2msxeKHoUM2DBYA7Yg3YFrT" ] },
      { "delegate": "tz1NortRftucvAkD1J58L32EhSVrQEWJCEnB",
        "reception_time": "2022-01-20T07:28:01.915-00:00",
        "included_in_blocks":
          [ "BLbcHaeZoqHa7GmGzEV56UNgrqdf2msxeKHoUM2DBYA7Yg3YFrT" ] },
      { "delegate": "tz2FCNBrERXtaTtNX6iimR1UJ5JSDxvdHM93",
        "reception_time": "2022-01-20T07:28:01.936-00:00",
        "included_in_blocks":
          [ "BLbcHaeZoqHa7GmGzEV56UNgrqdf2msxeKHoUM2DBYA7Yg3YFrT" ] },
      { "delegate": "tz1NEKxGEHsFufk87CVZcrqWu8o22qh46GK6",
        "reception_time": "2022-01-20T07:28:01.947-00:00",
        "included_in_blocks":
          [ "BLbcHaeZoqHa7GmGzEV56UNgrqdf2msxeKHoUM2DBYA7Yg3YFrT" ] },
      { "delegate": "tz3bTdwZinP8U1JmSweNzVKhmwafqWmFWRfk",
        "reception_time": "2022-01-20T07:28:01.982-00:00",
        "included_in_blocks":
          [ "BLbcHaeZoqHa7GmGzEV56UNgrqdf2msxeKHoUM2DBYA7Yg3YFrT" ] },
      { "delegate": "tz1SUgyRB8T5jXgXAwS33pgRHAKrafyg87Yc",
        "reception_time": "2022-01-20T07:28:01.996-00:00",
        "included_in_blocks":
          [ "BLbcHaeZoqHa7GmGzEV56UNgrqdf2msxeKHoUM2DBYA7Yg3YFrT" ] },
      { "delegate": "tz1TRqbYbUf2GyrjErf3hBzgBJPzW8y36qEs",
        "reception_time": "2022-01-20T07:28:02.292-00:00",
        "included_in_blocks":
          [ "BLbcHaeZoqHa7GmGzEV56UNgrqdf2msxeKHoUM2DBYA7Yg3YFrT" ] },
      { "delegate": "tz1PeZx7FXy7QRuMREGXGxeipb24RsMMzUNe",
        "reception_time": "2022-01-20T07:28:02.380-00:00",
        "included_in_blocks":
          [ "BLbcHaeZoqHa7GmGzEV56UNgrqdf2msxeKHoUM2DBYA7Yg3YFrT" ] },
      { "delegate": "tz1NdhRv643wLW6zCcRP3VfT24dvDnh7nuh9",
        "reception_time": "2022-01-20T07:28:02.384-00:00",
        "included_in_blocks":
          [ "BLbcHaeZoqHa7GmGzEV56UNgrqdf2msxeKHoUM2DBYA7Yg3YFrT" ] },
      { "delegate": "tz3WMqdzXqRWXwyvj5Hp2H7QEepaUuS7vd9K",
        "reception_time": "2022-01-20T07:28:02.432-00:00",
        "included_in_blocks":
          [ "BLbcHaeZoqHa7GmGzEV56UNgrqdf2msxeKHoUM2DBYA7Yg3YFrT" ] },
      { "delegate": "tz1XhnCdVENzgko5x1MMswLHSoQbJ5NPwLZ6",
        "reception_time": "2022-01-20T07:28:02.601-00:00",
        "included_in_blocks":
          [ "BLbcHaeZoqHa7GmGzEV56UNgrqdf2msxeKHoUM2DBYA7Yg3YFrT" ] },
      { "delegate": "tz1LmaFsWRkjr7QMCx5PtV6xTUz3AmEpKQiF",
        "reception_time": "2022-01-20T07:28:02.686-00:00",
        "included_in_blocks":
          [ "BLbcHaeZoqHa7GmGzEV56UNgrqdf2msxeKHoUM2DBYA7Yg3YFrT" ] },
      { "delegate": "tz3VEZ4k6a4Wx42iyev6i2aVAptTRLEAivNN",
        "reception_time": "2022-01-20T07:28:03.051-00:00",
        "included_in_blocks":
          [ "BLbcHaeZoqHa7GmGzEV56UNgrqdf2msxeKHoUM2DBYA7Yg3YFrT" ] },
      { "delegate": "tz1UbFpJY5Hext38GisuaXQBkbzhaKJkxpEs",
        "reception_time": "2022-01-20T07:28:03.450-00:00",
        "included_in_blocks":
          [ "BLbcHaeZoqHa7GmGzEV56UNgrqdf2msxeKHoUM2DBYA7Yg3YFrT" ] },
      { "delegate": "tz1UvkANVPWppVgMkLnvN7BwYZsCP7vm6NVd",
        "reception_time": "2022-01-20T07:28:03.455-00:00",
        "included_in_blocks":
          [ "BLbcHaeZoqHa7GmGzEV56UNgrqdf2msxeKHoUM2DBYA7Yg3YFrT" ] },
      { "delegate": "tz1ZcTRk5uxD86EFEn1vvNffWWqJy7q5eVhc",
        "reception_time": "2022-01-20T07:28:03.457-00:00",
        "included_in_blocks":
          [ "BLbcHaeZoqHa7GmGzEV56UNgrqdf2msxeKHoUM2DBYA7Yg3YFrT" ] },
      { "delegate": "tz1Zdk8q7wNasmv7VFeQ6QFwcw5fP2c7StoF",
        "reception_time": "2022-01-20T07:28:03.503-00:00",
        "included_in_blocks":
          [ "BLbcHaeZoqHa7GmGzEV56UNgrqdf2msxeKHoUM2DBYA7Yg3YFrT" ] },
      { "delegate": "tz3NExpXn9aPNZPorRE4SdjJ2RGrfbJgMAaV",
        "reception_time": "2022-01-20T07:28:03.973-00:00",
        "included_in_blocks":
          [ "BLbcHaeZoqHa7GmGzEV56UNgrqdf2msxeKHoUM2DBYA7Yg3YFrT" ] },
      { "delegate": "tz3UoffC7FG7zfpmvmjUmUeAaHvzdcUvAj6r",
        "reception_time": "2022-01-20T07:28:04.190-00:00",
        "included_in_blocks":
          [ "BLbcHaeZoqHa7GmGzEV56UNgrqdf2msxeKHoUM2DBYA7Yg3YFrT" ] },
      { "delegate": "tz3NDpRj6WBrJPikcPVHRBEjWKxFw3c6eQPS",
        "reception_time": "2022-01-20T07:28:04.222-00:00",
        "included_in_blocks":
          [ "BLbcHaeZoqHa7GmGzEV56UNgrqdf2msxeKHoUM2DBYA7Yg3YFrT" ] },
      { "delegate": "tz1aRoaRhSpRYvFdyvgWLL6TGyRoGF51wDjM",
        "reception_time": "2022-01-20T07:28:05.003-00:00",
        "included_in_blocks":
          [ "BLbcHaeZoqHa7GmGzEV56UNgrqdf2msxeKHoUM2DBYA7Yg3YFrT" ] },
      { "delegate": "tz1g8vkmcde6sWKaG2NN9WKzCkDM6Rziq194",
        "reception_time": "2022-01-20T07:28:05.015-00:00",
        "included_in_blocks":
          [ "BLbcHaeZoqHa7GmGzEV56UNgrqdf2msxeKHoUM2DBYA7Yg3YFrT" ] },
      { "delegate": "tz1NpWrAyDL9k2Lmnyxcgr9xuJakbBxdq7FB",
        "reception_time": "2022-01-20T07:28:10.638-00:00",
        "included_in_blocks":
          [ "BLbcHaeZoqHa7GmGzEV56UNgrqdf2msxeKHoUM2DBYA7Yg3YFrT" ] },
      { "delegate": "tz1Z1WwoqgRFbLE3YNdYRpCx44NSfiMJzeAG",
        "reception_time": "2022-01-20T07:28:15.200-00:00",
        "included_in_blocks":
          [ "BLbcHaeZoqHa7GmGzEV56UNgrqdf2msxeKHoUM2DBYA7Yg3YFrT" ] } ] }