{ "blocks":
    [ { "hash": "BLWLTac8w95AcaeUHab7nEUjsLpfhuqqFK9iTZ78PaETdRw4jPD",
        "delegate": "tz1ei4WtWEMEJekSv8qDnu9PExG6Q8HgRGr3",
        "reception_time": "2022-01-20T12:21:49.064-00:00",
        "timestamp": "2022-01-20T12:21:40Z" } ],
  "endorsements":
    [ { "delegate": "tz1dbfppLAAxXZNtf2SDps7rch3qfUznKSoK" },
      { "delegate": "tz1awXW7wuXy21c66vBudMXQVAPgRnqqwgTH" },
      { "delegate": "tz1W5VkdB5s7ENMESVBtwyt9kyvLqPcUczRT" },
      { "delegate": "tz1Vyuu4EJ5Nym4JcrfRLnp3hpaq1DSEp1Ke" },
      { "delegate": "tz1TEc75UKXv4W5cwi14Na3NtqFD51yKQi7h" },
      { "delegate": "tz1RjoHc98dBoqaH2jawF62XNKh7YsHwbkEv" },
      { "delegate": "tz1RV1MBbZMR68tacosb7Mwj6LkbPSUS1er1" },
      { "delegate": "tz1Kt4P8BCaP93AEV4eA7gmpRryWt5hznjCP",
        "reception_time": "2022-01-20T12:21:49.002-00:00",
        "errors":
          [ { "kind": "temporary",
              "id": "proto.011-PtHangz2.prefilter.outdated_endorsement" } ],
        "included_in_blocks":
          [ "BMNrjyNLppgg1EAeGAwTnECqTyv3J2FRasnmkQwojEcxNC7MjW9" ] },
      { "delegate": "tz1Lhf4J9Qxoe3DZ2nfe8FGDnvVj7oKjnMY6",
        "reception_time": "2022-01-20T12:21:49.002-00:00",
        "errors":
          [ { "kind": "temporary",
              "id": "proto.011-PtHangz2.prefilter.outdated_endorsement" } ],
        "included_in_blocks":
          [ "BMNrjyNLppgg1EAeGAwTnECqTyv3J2FRasnmkQwojEcxNC7MjW9" ] },
      { "delegate": "tz1VmiY38m3y95HqQLjMwqnMS7sdMfGomzKi",
        "reception_time": "2022-01-20T12:21:48.869-00:00",
        "errors":
          [ { "kind": "temporary",
              "id": "proto.011-PtHangz2.prefilter.outdated_endorsement" } ],
        "included_in_blocks":
          [ "BMNrjyNLppgg1EAeGAwTnECqTyv3J2FRasnmkQwojEcxNC7MjW9" ] },
      { "delegate": "tz1MXFrtZoaXckE41bjUCSjAjAap3AFDSr3N",
        "reception_time": "2022-01-20T12:21:48.863-00:00",
        "errors":
          [ { "kind": "temporary",
              "id": "proto.011-PtHangz2.prefilter.outdated_endorsement" } ],
        "included_in_blocks":
          [ "BMNrjyNLppgg1EAeGAwTnECqTyv3J2FRasnmkQwojEcxNC7MjW9" ] },
      { "delegate": "tz1Scdr2HsZiQjc7bHMeBbmDRXYVvdhjJbBh",
        "reception_time": "2022-01-20T12:21:48.598-00:00",
        "errors":
          [ { "kind": "temporary",
              "id": "proto.011-PtHangz2.prefilter.outdated_endorsement" } ],
        "included_in_blocks":
          [ "BMNrjyNLppgg1EAeGAwTnECqTyv3J2FRasnmkQwojEcxNC7MjW9" ] },
      { "delegate": "tz1Zhv3RkfU2pHrmaiDyxp7kFZpZrUCu1CiF",
        "reception_time": "2022-01-20T12:21:48.585-00:00",
        "errors":
          [ { "kind": "temporary",
              "id": "proto.011-PtHangz2.prefilter.outdated_endorsement" } ],
        "included_in_blocks":
          [ "BMNrjyNLppgg1EAeGAwTnECqTyv3J2FRasnmkQwojEcxNC7MjW9" ] },
      { "delegate": "tz1go7f6mEQfT2xX2LuHAqgnRGN6c2zHPf5c",
        "reception_time": "2022-01-20T12:22:03.145-00:00",
        "included_in_blocks":
          [ "BMNrjyNLppgg1EAeGAwTnECqTyv3J2FRasnmkQwojEcxNC7MjW9" ] },
      { "delegate": "tz1PFeoTuFen8jAMRHajBySNyCwLmY5RqF9M",
        "reception_time": "2022-01-20T12:21:59.546-00:00",
        "included_in_blocks":
          [ "BMNrjyNLppgg1EAeGAwTnECqTyv3J2FRasnmkQwojEcxNC7MjW9" ] },
      { "delegate": "tz1UvkANVPWppVgMkLnvN7BwYZsCP7vm6NVd",
        "reception_time": "2022-01-20T12:21:58.699-00:00",
        "included_in_blocks":
          [ "BMNrjyNLppgg1EAeGAwTnECqTyv3J2FRasnmkQwojEcxNC7MjW9" ] },
      { "delegate": "tz1aRoaRhSpRYvFdyvgWLL6TGyRoGF51wDjM",
        "reception_time": "2022-01-20T12:21:55.313-00:00",
        "included_in_blocks":
          [ "BMNrjyNLppgg1EAeGAwTnECqTyv3J2FRasnmkQwojEcxNC7MjW9" ] },
      { "delegate": "tz1g8vkmcde6sWKaG2NN9WKzCkDM6Rziq194",
        "reception_time": "2022-01-20T12:21:55.326-00:00",
        "included_in_blocks":
          [ "BMNrjyNLppgg1EAeGAwTnECqTyv3J2FRasnmkQwojEcxNC7MjW9" ] },
      { "delegate": "tz1TcH4Nb3aHNDJ7CGZhU7jgAK1BkSP4Lxds",
        "reception_time": "2022-01-20T12:21:54.477-00:00",
        "included_in_blocks":
          [ "BMNrjyNLppgg1EAeGAwTnECqTyv3J2FRasnmkQwojEcxNC7MjW9" ] },
      { "delegate": "tz3bvNMQ95vfAYtG8193ymshqjSvmxiCUuR5",
        "reception_time": "2022-01-20T12:21:53.188-00:00",
        "included_in_blocks":
          [ "BMNrjyNLppgg1EAeGAwTnECqTyv3J2FRasnmkQwojEcxNC7MjW9" ] },
      { "delegate": "tz1ivoFEvbfbUNav5FwLvmxzMGcNXWxY9qTD",
        "reception_time": "2022-01-20T12:21:53.683-00:00",
        "included_in_blocks":
          [ "BMNrjyNLppgg1EAeGAwTnECqTyv3J2FRasnmkQwojEcxNC7MjW9" ] },
      { "delegate": "tz3NDpRj6WBrJPikcPVHRBEjWKxFw3c6eQPS",
        "reception_time": "2022-01-20T12:21:52.988-00:00",
        "included_in_blocks":
          [ "BMNrjyNLppgg1EAeGAwTnECqTyv3J2FRasnmkQwojEcxNC7MjW9" ] },
      { "delegate": "tz1NdhRv643wLW6zCcRP3VfT24dvDnh7nuh9",
        "reception_time": "2022-01-20T12:21:52.851-00:00",
        "included_in_blocks":
          [ "BMNrjyNLppgg1EAeGAwTnECqTyv3J2FRasnmkQwojEcxNC7MjW9" ] },
      { "delegate": "tz3RDC3Jdn4j15J7bBHZd29EUee9gVB1CxD9",
        "reception_time": "2022-01-20T12:21:52.779-00:00",
        "included_in_blocks":
          [ "BMNrjyNLppgg1EAeGAwTnECqTyv3J2FRasnmkQwojEcxNC7MjW9" ] },
      { "delegate": "tz1SYq214SCBy9naR6cvycQsYcUGpBqQAE8d",
        "reception_time": "2022-01-20T12:21:52.730-00:00",
        "included_in_blocks":
          [ "BMNrjyNLppgg1EAeGAwTnECqTyv3J2FRasnmkQwojEcxNC7MjW9" ] },
      { "delegate": "tz1cYufsxHXJcvANhvS55h3aY32a9BAFB494",
        "reception_time": "2022-01-20T12:21:52.730-00:00",
        "included_in_blocks":
          [ "BMNrjyNLppgg1EAeGAwTnECqTyv3J2FRasnmkQwojEcxNC7MjW9" ] },
      { "delegate": "tz1fwnfJNgiDACshK9avfRfFbMaXrs3ghoJa",
        "reception_time": "2022-01-20T12:21:52.730-00:00",
        "included_in_blocks":
          [ "BMNrjyNLppgg1EAeGAwTnECqTyv3J2FRasnmkQwojEcxNC7MjW9" ] },
      { "delegate": "tz3NExpXn9aPNZPorRE4SdjJ2RGrfbJgMAaV",
        "reception_time": "2022-01-20T12:21:52.960-00:00",
        "included_in_blocks":
          [ "BMNrjyNLppgg1EAeGAwTnECqTyv3J2FRasnmkQwojEcxNC7MjW9" ] },
      { "delegate": "tz3VEZ4k6a4Wx42iyev6i2aVAptTRLEAivNN",
        "reception_time": "2022-01-20T12:21:52.761-00:00",
        "included_in_blocks":
          [ "BMNrjyNLppgg1EAeGAwTnECqTyv3J2FRasnmkQwojEcxNC7MjW9" ] },
      { "delegate": "tz1WctSwL49BZtdWAQ75NY6vr4xsAx6oKdah",
        "reception_time": "2022-01-20T12:21:52.730-00:00",
        "included_in_blocks":
          [ "BMNrjyNLppgg1EAeGAwTnECqTyv3J2FRasnmkQwojEcxNC7MjW9" ] },
      { "delegate": "tz2FCNBrERXtaTtNX6iimR1UJ5JSDxvdHM93",
        "reception_time": "2022-01-20T12:21:52.730-00:00",
        "included_in_blocks":
          [ "BMNrjyNLppgg1EAeGAwTnECqTyv3J2FRasnmkQwojEcxNC7MjW9" ] },
      { "delegate": "tz1cM8Xc7ZP1TrjkTeKq4PeRhtbnwXSBR6Sw",
        "reception_time": "2022-01-20T12:21:52.730-00:00",
        "included_in_blocks":
          [ "BMNrjyNLppgg1EAeGAwTnECqTyv3J2FRasnmkQwojEcxNC7MjW9" ] },
      { "delegate": "tz1Vd1rXpV8hTHbFXCXN3c3qzCsgcU5BZw1e",
        "reception_time": "2022-01-20T12:21:52.229-00:00",
        "included_in_blocks":
          [ "BMNrjyNLppgg1EAeGAwTnECqTyv3J2FRasnmkQwojEcxNC7MjW9" ] },
      { "delegate": "tz1PeZx7FXy7QRuMREGXGxeipb24RsMMzUNe",
        "reception_time": "2022-01-20T12:21:52.730-00:00",
        "included_in_blocks":
          [ "BMNrjyNLppgg1EAeGAwTnECqTyv3J2FRasnmkQwojEcxNC7MjW9" ] },
      { "delegate": "tz1LmaFsWRkjr7QMCx5PtV6xTUz3AmEpKQiF",
        "reception_time": "2022-01-20T12:21:52.730-00:00",
        "included_in_blocks":
          [ "BMNrjyNLppgg1EAeGAwTnECqTyv3J2FRasnmkQwojEcxNC7MjW9" ] },
      { "delegate": "tz1dRKU4FQ9QRRQPdaH4zCR6gmCmXfcvcgtB",
        "reception_time": "2022-01-20T12:21:52.229-00:00",
        "included_in_blocks":
          [ "BMNrjyNLppgg1EAeGAwTnECqTyv3J2FRasnmkQwojEcxNC7MjW9" ] },
      { "delegate": "tz3UoffC7FG7zfpmvmjUmUeAaHvzdcUvAj6r",
        "reception_time": "2022-01-20T12:21:52.730-00:00",
        "included_in_blocks":
          [ "BMNrjyNLppgg1EAeGAwTnECqTyv3J2FRasnmkQwojEcxNC7MjW9" ] },
      { "delegate": "tz3bTdwZinP8U1JmSweNzVKhmwafqWmFWRfk",
        "reception_time": "2022-01-20T12:21:52.229-00:00",
        "included_in_blocks":
          [ "BMNrjyNLppgg1EAeGAwTnECqTyv3J2FRasnmkQwojEcxNC7MjW9" ] },
      { "delegate": "tz3RB4aoyjov4KEVRbuhvQ1CKJgBJMWhaeB8",
        "reception_time": "2022-01-20T12:21:52.730-00:00",
        "included_in_blocks":
          [ "BMNrjyNLppgg1EAeGAwTnECqTyv3J2FRasnmkQwojEcxNC7MjW9" ] },
      { "delegate": "tz1WBfwbT66FC6BTLexc2BoyCCBM9LG7pnVW",
        "reception_time": "2022-01-20T12:21:52.730-00:00",
        "included_in_blocks":
          [ "BMNrjyNLppgg1EAeGAwTnECqTyv3J2FRasnmkQwojEcxNC7MjW9" ] },
      { "delegate": "tz1eVaNx3gCmG1EsLjijkmgAxdLYVf6Bf5Sq",
        "reception_time": "2022-01-20T12:21:52.229-00:00",
        "included_in_blocks":
          [ "BMNrjyNLppgg1EAeGAwTnECqTyv3J2FRasnmkQwojEcxNC7MjW9" ] },
      { "delegate": "tz1Tnjaxk6tbAeC2TmMApPh8UsrEVQvhHvx5",
        "reception_time": "2022-01-20T12:21:52.229-00:00",
        "included_in_blocks":
          [ "BMNrjyNLppgg1EAeGAwTnECqTyv3J2FRasnmkQwojEcxNC7MjW9" ] },
      { "delegate": "tz1R4PuhxUxBBZhfLJDx2nNjbr7WorAPX1oC",
        "reception_time": "2022-01-20T12:21:52.229-00:00",
        "included_in_blocks":
          [ "BMNrjyNLppgg1EAeGAwTnECqTyv3J2FRasnmkQwojEcxNC7MjW9" ] },
      { "delegate": "tz1RCFbB9GpALpsZtu6J58sb74dm8qe6XBzv",
        "reception_time": "2022-01-20T12:21:52.229-00:00",
        "included_in_blocks":
          [ "BMNrjyNLppgg1EAeGAwTnECqTyv3J2FRasnmkQwojEcxNC7MjW9" ] },
      { "delegate": "tz1gcna2xxZj2eNp1LaMyAhVJ49mEFj4FH26",
        "reception_time": "2022-01-20T12:21:52.229-00:00",
        "included_in_blocks":
          [ "BMNrjyNLppgg1EAeGAwTnECqTyv3J2FRasnmkQwojEcxNC7MjW9" ] },
      { "delegate": "tz3S6BBeKgJGXxvLyZ1xzXzMPn11nnFtq5L9",
        "reception_time": "2022-01-20T12:21:52.229-00:00",
        "included_in_blocks":
          [ "BMNrjyNLppgg1EAeGAwTnECqTyv3J2FRasnmkQwojEcxNC7MjW9" ] },
      { "delegate": "tz3QT9dHYKDqh563chVa6za8526ys1UKfRfL",
        "reception_time": "2022-01-20T12:21:52.229-00:00",
        "included_in_blocks":
          [ "BMNrjyNLppgg1EAeGAwTnECqTyv3J2FRasnmkQwojEcxNC7MjW9" ] },
      { "delegate": "tz1PMWrbSda1RvsRi8Xq7GRd3P7739jtyaM8",
        "reception_time": "2022-01-20T12:21:52.229-00:00",
        "included_in_blocks":
          [ "BMNrjyNLppgg1EAeGAwTnECqTyv3J2FRasnmkQwojEcxNC7MjW9" ] },
      { "delegate": "tz1S8MNvuFEUsWgjHvi3AxibRBf388NhT1q2",
        "reception_time": "2022-01-20T12:21:52.229-00:00",
        "included_in_blocks":
          [ "BMNrjyNLppgg1EAeGAwTnECqTyv3J2FRasnmkQwojEcxNC7MjW9" ] },
      { "delegate": "tz1gfArv665EUkSg2ojMBzcbfwuPxAvqPvjo",
        "reception_time": "2022-01-20T12:21:52.229-00:00",
        "included_in_blocks":
          [ "BMNrjyNLppgg1EAeGAwTnECqTyv3J2FRasnmkQwojEcxNC7MjW9" ] },
      { "delegate": "tz1RQhNh7iB9CZA7i3ifTWNwiGYVffponfbB",
        "reception_time": "2022-01-20T12:21:52.229-00:00",
        "included_in_blocks":
          [ "BMNrjyNLppgg1EAeGAwTnECqTyv3J2FRasnmkQwojEcxNC7MjW9" ] },
      { "delegate": "tz1MQMiZHV8q4tTwUMWmS5Y3kaP6J2136iXr",
        "reception_time": "2022-01-20T12:21:52.229-00:00",
        "included_in_blocks":
          [ "BMNrjyNLppgg1EAeGAwTnECqTyv3J2FRasnmkQwojEcxNC7MjW9" ] },
      { "delegate": "tz3RKYFsLuQzKBtmYuLNas7uMu3AsYd4QdsA",
        "reception_time": "2022-01-20T12:21:52.229-00:00",
        "included_in_blocks":
          [ "BMNrjyNLppgg1EAeGAwTnECqTyv3J2FRasnmkQwojEcxNC7MjW9" ] },
      { "delegate": "tz1LnWa4AiFCjMezTgSNa65QFoo7DQGEWgEU",
        "reception_time": "2022-01-20T12:21:52.229-00:00",
        "included_in_blocks":
          [ "BMNrjyNLppgg1EAeGAwTnECqTyv3J2FRasnmkQwojEcxNC7MjW9" ] },
      { "delegate": "tz1Nf6tsK4G6bBqgSQERy4nUtkHNKUVdh7q1",
        "reception_time": "2022-01-20T12:21:52.229-00:00",
        "included_in_blocks":
          [ "BMNrjyNLppgg1EAeGAwTnECqTyv3J2FRasnmkQwojEcxNC7MjW9" ] },
      { "delegate": "tz3hw2kqXhLUvY65ca1eety2oQTpAvd34R9Q",
        "reception_time": "2022-01-20T12:21:52.229-00:00",
        "included_in_blocks":
          [ "BMNrjyNLppgg1EAeGAwTnECqTyv3J2FRasnmkQwojEcxNC7MjW9" ] },
      { "delegate": "tz1NEKxGEHsFufk87CVZcrqWu8o22qh46GK6",
        "reception_time": "2022-01-20T12:21:52.229-00:00",
        "included_in_blocks":
          [ "BMNrjyNLppgg1EAeGAwTnECqTyv3J2FRasnmkQwojEcxNC7MjW9" ] },
      { "delegate": "tz3gtoUxdudfBRcNY7iVdKPHCYYX6xdPpoRS",
        "reception_time": "2022-01-20T12:21:52.229-00:00",
        "included_in_blocks":
          [ "BMNrjyNLppgg1EAeGAwTnECqTyv3J2FRasnmkQwojEcxNC7MjW9" ] },
      { "delegate": "tz3QSGPoRp3Kn7n3vY24eYeu3Peuqo45LQ4D",
        "reception_time": "2022-01-20T12:21:52.229-00:00",
        "included_in_blocks":
          [ "BMNrjyNLppgg1EAeGAwTnECqTyv3J2FRasnmkQwojEcxNC7MjW9" ] },
      { "delegate": "tz3WMqdzXqRWXwyvj5Hp2H7QEepaUuS7vd9K",
        "reception_time": "2022-01-20T12:21:52.229-00:00",
        "included_in_blocks":
          [ "BMNrjyNLppgg1EAeGAwTnECqTyv3J2FRasnmkQwojEcxNC7MjW9" ] },
      { "delegate": "tz3Zhs2dygr55yHyQyKjntAtY9bgfhLZ4Xj1",
        "reception_time": "2022-01-20T12:21:52.229-00:00",
        "included_in_blocks":
          [ "BMNrjyNLppgg1EAeGAwTnECqTyv3J2FRasnmkQwojEcxNC7MjW9" ] },
      { "delegate": "tz1V4qCyvPKZ5UeqdH14HN42rxvNPQfc9UZg",
        "reception_time": "2022-01-20T12:21:52.229-00:00",
        "included_in_blocks":
          [ "BMNrjyNLppgg1EAeGAwTnECqTyv3J2FRasnmkQwojEcxNC7MjW9" ] },
      { "delegate": "tz1KfEsrtDaA1sX7vdM4qmEPWuSytuqCDp5j",
        "reception_time": "2022-01-20T12:21:52.229-00:00",
        "included_in_blocks":
          [ "BMNrjyNLppgg1EAeGAwTnECqTyv3J2FRasnmkQwojEcxNC7MjW9" ] },
      { "delegate": "tz3NxTnke1acr8o3h5y9ytf5awQBGNJUKzVU",
        "reception_time": "2022-01-20T12:21:52.229-00:00",
        "included_in_blocks":
          [ "BMNrjyNLppgg1EAeGAwTnECqTyv3J2FRasnmkQwojEcxNC7MjW9" ] },
      { "delegate": "tz1d6Fx42mYgVFnHUW8T8A7WBfJ6nD9pVok8",
        "reception_time": "2022-01-20T12:21:52.229-00:00",
        "included_in_blocks":
          [ "BMNrjyNLppgg1EAeGAwTnECqTyv3J2FRasnmkQwojEcxNC7MjW9" ] },
      { "delegate": "tz1Kf25fX1VdmYGSEzwFy1wNmkbSEZ2V83sY",
        "reception_time": "2022-01-20T12:21:52.229-00:00",
        "included_in_blocks":
          [ "BMNrjyNLppgg1EAeGAwTnECqTyv3J2FRasnmkQwojEcxNC7MjW9" ] },
      { "delegate": "tz1MJx9vhaNRSimcuXPK2rW4fLccQnDAnVKJ",
        "reception_time": "2022-01-20T12:21:52.229-00:00",
        "included_in_blocks":
          [ "BMNrjyNLppgg1EAeGAwTnECqTyv3J2FRasnmkQwojEcxNC7MjW9" ] },
      { "delegate": "tz3adcvQaKXTCg12zbninqo3q8ptKKtDFTLv",
        "reception_time": "2022-01-20T12:21:52.229-00:00",
        "included_in_blocks":
          [ "BMNrjyNLppgg1EAeGAwTnECqTyv3J2FRasnmkQwojEcxNC7MjW9" ] },
      { "delegate": "tz3ZbP2pM3nwvXztbuMJwJnDvV5xdpU8UkkD",
        "reception_time": "2022-01-20T12:21:52.229-00:00",
        "included_in_blocks":
          [ "BMNrjyNLppgg1EAeGAwTnECqTyv3J2FRasnmkQwojEcxNC7MjW9" ] },
      { "delegate": "tz1PWCDnz783NNGGQjEFFsHtrcK5yBW4E2rm",
        "reception_time": "2022-01-20T12:21:52.229-00:00",
        "included_in_blocks":
          [ "BMNrjyNLppgg1EAeGAwTnECqTyv3J2FRasnmkQwojEcxNC7MjW9" ] },
      { "delegate": "tz1aXD7Jigrt3PBYSpHSg5Rr33SexMmmM5Ys",
        "reception_time": "2022-01-20T12:21:51.926-00:00",
        "included_in_blocks":
          [ "BMNrjyNLppgg1EAeGAwTnECqTyv3J2FRasnmkQwojEcxNC7MjW9" ] },
      { "delegate": "tz1MQJPGNMijnXnVoBENFz9rUhaPt3S7rWoz",
        "reception_time": "2022-01-20T12:21:52.229-00:00",
        "included_in_blocks":
          [ "BMNrjyNLppgg1EAeGAwTnECqTyv3J2FRasnmkQwojEcxNC7MjW9" ] },
      { "delegate": "tz1eEnQhbwf6trb8Q8mPb2RaPkNk2rN7BKi8",
        "reception_time": "2022-01-20T12:21:52.229-00:00",
        "included_in_blocks":
          [ "BMNrjyNLppgg1EAeGAwTnECqTyv3J2FRasnmkQwojEcxNC7MjW9" ] },
      { "delegate": "tz1WCd2jm4uSt4vntk4vSuUWoZQGhLcDuR9q",
        "reception_time": "2022-01-20T12:21:52.229-00:00",
        "included_in_blocks":
          [ "BMNrjyNLppgg1EAeGAwTnECqTyv3J2FRasnmkQwojEcxNC7MjW9" ] },
      { "delegate": "tz1Ldzz6k1BHdhuKvAtMRX7h5kJSMHESMHLC",
        "reception_time": "2022-01-20T12:21:51.926-00:00",
        "included_in_blocks":
          [ "BMNrjyNLppgg1EAeGAwTnECqTyv3J2FRasnmkQwojEcxNC7MjW9" ] },
      { "delegate": "tz1LLNkQK4UQV6QcFShiXJ2vT2ELw449MzAA",
        "reception_time": "2022-01-20T12:21:52.229-00:00",
        "included_in_blocks":
          [ "BMNrjyNLppgg1EAeGAwTnECqTyv3J2FRasnmkQwojEcxNC7MjW9" ] },
      { "delegate": "tz1irJKkXS2DBWkU1NnmFQx1c1L7pbGg4yhk",
        "reception_time": "2022-01-20T12:21:52.229-00:00",
        "included_in_blocks":
          [ "BMNrjyNLppgg1EAeGAwTnECqTyv3J2FRasnmkQwojEcxNC7MjW9" ] },
      { "delegate": "tz1TXzyaKUA8wsWefdSnyaYFnV2M3vCV7er9",
        "reception_time": "2022-01-20T12:21:52.229-00:00",
        "included_in_blocks":
          [ "BMNrjyNLppgg1EAeGAwTnECqTyv3J2FRasnmkQwojEcxNC7MjW9" ] },
      { "delegate": "tz1aDiEJf9ztRrAJEXZfcG3CKimoKsGhwVAi",
        "reception_time": "2022-01-20T12:21:51.926-00:00",
        "included_in_blocks":
          [ "BMNrjyNLppgg1EAeGAwTnECqTyv3J2FRasnmkQwojEcxNC7MjW9" ] },
      { "delegate": "tz1gUNyn3hmnEWqkusWPzxRaon1cs7ndWh7h",
        "reception_time": "2022-01-20T12:21:51.926-00:00",
        "included_in_blocks":
          [ "BMNrjyNLppgg1EAeGAwTnECqTyv3J2FRasnmkQwojEcxNC7MjW9" ] },
      { "delegate": "tz1P2Po7YM526ughEsRbY4oR9zaUPDZjxFrb",
        "reception_time": "2022-01-20T12:21:51.926-00:00",
        "included_in_blocks":
          [ "BMNrjyNLppgg1EAeGAwTnECqTyv3J2FRasnmkQwojEcxNC7MjW9" ] },
      { "delegate": "tz1ei4WtWEMEJekSv8qDnu9PExG6Q8HgRGr3",
        "reception_time": "2022-01-20T12:21:51.361-00:00",
        "included_in_blocks":
          [ "BMNrjyNLppgg1EAeGAwTnECqTyv3J2FRasnmkQwojEcxNC7MjW9" ] },
      { "delegate": "tz1VQnqCCqX4K5sP3FNkVSNKTdCAMJDd3E1n",
        "reception_time": "2022-01-20T12:21:51.926-00:00",
        "included_in_blocks":
          [ "BMNrjyNLppgg1EAeGAwTnECqTyv3J2FRasnmkQwojEcxNC7MjW9" ] } ] }