{ "blocks":
    [ { "hash": "BMCpRVDKJFbc7imd58vVSWfN7474qYK2ZJcXMcTgXbpaa9Y45BC",
        "delegate": "tz1aRoaRhSpRYvFdyvgWLL6TGyRoGF51wDjM",
        "reception_time": "2022-01-20T08:02:41.970-00:00",
        "timestamp": "2022-01-20T08:02:30Z" } ],
  "endorsements":
    [ { "delegate": "tz1Zhv3RkfU2pHrmaiDyxp7kFZpZrUCu1CiF",
        "reception_time": "2022-01-20T08:02:41.758-00:00",
        "errors":
          [ { "kind": "temporary",
              "id": "proto.011-PtHangz2.prefilter.outdated_endorsement" } ],
        "included_in_blocks":
          [ "BLf3rEMm8fZhfETvHLbSssCCVC1dpVsa9hFrJ6Vy5MrfngbqVL3" ] },
      { "delegate": "tz1S8e9GgdZG78XJRB3NqabfWeM37GnhZMWQ",
        "reception_time": "2022-01-20T08:02:41.648-00:00",
        "errors":
          [ { "kind": "temporary",
              "id": "proto.011-PtHangz2.prefilter.outdated_endorsement" } ],
        "included_in_blocks":
          [ "BLf3rEMm8fZhfETvHLbSssCCVC1dpVsa9hFrJ6Vy5MrfngbqVL3" ] },
      { "delegate": "tz1RjoHc98dBoqaH2jawF62XNKh7YsHwbkEv" },
      { "delegate": "tz1dbfppLAAxXZNtf2SDps7rch3qfUznKSoK" },
      { "delegate": "tz1VQnqCCqX4K5sP3FNkVSNKTdCAMJDd3E1n",
        "reception_time": "2022-01-20T08:02:44.545-00:00",
        "included_in_blocks":
          [ "BLf3rEMm8fZhfETvHLbSssCCVC1dpVsa9hFrJ6Vy5MrfngbqVL3" ] },
      { "delegate": "tz1aDiEJf9ztRrAJEXZfcG3CKimoKsGhwVAi",
        "reception_time": "2022-01-20T08:02:44.551-00:00",
        "included_in_blocks":
          [ "BLf3rEMm8fZhfETvHLbSssCCVC1dpVsa9hFrJ6Vy5MrfngbqVL3" ] },
      { "delegate": "tz1iZEKy4LaAjnTmn2RuGDf2iqdAQKnRi8kY",
        "reception_time": "2022-01-20T08:02:44.551-00:00",
        "included_in_blocks":
          [ "BLf3rEMm8fZhfETvHLbSssCCVC1dpVsa9hFrJ6Vy5MrfngbqVL3" ] },
      { "delegate": "tz1eEnQhbwf6trb8Q8mPb2RaPkNk2rN7BKi8",
        "reception_time": "2022-01-20T08:02:44.556-00:00",
        "included_in_blocks":
          [ "BLf3rEMm8fZhfETvHLbSssCCVC1dpVsa9hFrJ6Vy5MrfngbqVL3" ] },
      { "delegate": "tz1aXD7Jigrt3PBYSpHSg5Rr33SexMmmM5Ys",
        "reception_time": "2022-01-20T08:02:44.561-00:00",
        "included_in_blocks":
          [ "BLf3rEMm8fZhfETvHLbSssCCVC1dpVsa9hFrJ6Vy5MrfngbqVL3" ] },
      { "delegate": "tz1ZPh7XfUaJXUDvkrBxmS1BjEM1i62hiPpM",
        "reception_time": "2022-01-20T08:02:44.567-00:00",
        "included_in_blocks":
          [ "BLf3rEMm8fZhfETvHLbSssCCVC1dpVsa9hFrJ6Vy5MrfngbqVL3" ] },
      { "delegate": "tz1Ldzz6k1BHdhuKvAtMRX7h5kJSMHESMHLC",
        "reception_time": "2022-01-20T08:02:44.567-00:00",
        "included_in_blocks":
          [ "BLf3rEMm8fZhfETvHLbSssCCVC1dpVsa9hFrJ6Vy5MrfngbqVL3" ] },
      { "delegate": "tz1gUNyn3hmnEWqkusWPzxRaon1cs7ndWh7h",
        "reception_time": "2022-01-20T08:02:44.573-00:00",
        "included_in_blocks":
          [ "BLf3rEMm8fZhfETvHLbSssCCVC1dpVsa9hFrJ6Vy5MrfngbqVL3" ] },
      { "delegate": "tz1P2Po7YM526ughEsRbY4oR9zaUPDZjxFrb",
        "reception_time": "2022-01-20T08:02:44.584-00:00",
        "included_in_blocks":
          [ "BLf3rEMm8fZhfETvHLbSssCCVC1dpVsa9hFrJ6Vy5MrfngbqVL3" ] },
      { "delegate": "tz1irJKkXS2DBWkU1NnmFQx1c1L7pbGg4yhk",
        "reception_time": "2022-01-20T08:02:44.596-00:00",
        "included_in_blocks":
          [ "BLf3rEMm8fZhfETvHLbSssCCVC1dpVsa9hFrJ6Vy5MrfngbqVL3" ] },
      { "delegate": "tz1Scdr2HsZiQjc7bHMeBbmDRXYVvdhjJbBh",
        "reception_time": "2022-01-20T08:02:44.603-00:00",
        "included_in_blocks":
          [ "BLf3rEMm8fZhfETvHLbSssCCVC1dpVsa9hFrJ6Vy5MrfngbqVL3" ] },
      { "delegate": "tz3NxTnke1acr8o3h5y9ytf5awQBGNJUKzVU",
        "reception_time": "2022-01-20T08:02:44.614-00:00",
        "included_in_blocks":
          [ "BLf3rEMm8fZhfETvHLbSssCCVC1dpVsa9hFrJ6Vy5MrfngbqVL3" ] },
      { "delegate": "tz1WCd2jm4uSt4vntk4vSuUWoZQGhLcDuR9q",
        "reception_time": "2022-01-20T08:02:44.617-00:00",
        "included_in_blocks":
          [ "BLf3rEMm8fZhfETvHLbSssCCVC1dpVsa9hFrJ6Vy5MrfngbqVL3" ] },
      { "delegate": "tz1PWCDnz783NNGGQjEFFsHtrcK5yBW4E2rm",
        "reception_time": "2022-01-20T08:02:44.621-00:00",
        "included_in_blocks":
          [ "BLf3rEMm8fZhfETvHLbSssCCVC1dpVsa9hFrJ6Vy5MrfngbqVL3" ] },
      { "delegate": "tz3QSGPoRp3Kn7n3vY24eYeu3Peuqo45LQ4D",
        "reception_time": "2022-01-20T08:02:44.628-00:00",
        "included_in_blocks":
          [ "BLf3rEMm8fZhfETvHLbSssCCVC1dpVsa9hFrJ6Vy5MrfngbqVL3" ] },
      { "delegate": "tz1Sm5iH2vfTtyPQdRHt4STaARTVqTHxJ6Ea",
        "reception_time": "2022-01-20T08:02:44.631-00:00",
        "included_in_blocks":
          [ "BLf3rEMm8fZhfETvHLbSssCCVC1dpVsa9hFrJ6Vy5MrfngbqVL3" ] },
      { "delegate": "tz3ZbP2pM3nwvXztbuMJwJnDvV5xdpU8UkkD",
        "reception_time": "2022-01-20T08:02:44.639-00:00",
        "included_in_blocks":
          [ "BLf3rEMm8fZhfETvHLbSssCCVC1dpVsa9hFrJ6Vy5MrfngbqVL3" ] },
      { "delegate": "tz3gtoUxdudfBRcNY7iVdKPHCYYX6xdPpoRS",
        "reception_time": "2022-01-20T08:02:44.646-00:00",
        "included_in_blocks":
          [ "BLf3rEMm8fZhfETvHLbSssCCVC1dpVsa9hFrJ6Vy5MrfngbqVL3" ] },
      { "delegate": "tz1MJx9vhaNRSimcuXPK2rW4fLccQnDAnVKJ",
        "reception_time": "2022-01-20T08:02:44.657-00:00",
        "included_in_blocks":
          [ "BLf3rEMm8fZhfETvHLbSssCCVC1dpVsa9hFrJ6Vy5MrfngbqVL3" ] },
      { "delegate": "tz3bTdwZinP8U1JmSweNzVKhmwafqWmFWRfk",
        "reception_time": "2022-01-20T08:02:44.667-00:00",
        "included_in_blocks":
          [ "BLf3rEMm8fZhfETvHLbSssCCVC1dpVsa9hFrJ6Vy5MrfngbqVL3" ] },
      { "delegate": "tz1d6Fx42mYgVFnHUW8T8A7WBfJ6nD9pVok8",
        "reception_time": "2022-01-20T08:02:44.671-00:00",
        "included_in_blocks":
          [ "BLf3rEMm8fZhfETvHLbSssCCVC1dpVsa9hFrJ6Vy5MrfngbqVL3" ] },
      { "delegate": "tz3iJu5vrKZcsqRPs8yJ61UDoeEXZmtro4qh",
        "reception_time": "2022-01-20T08:02:44.685-00:00",
        "included_in_blocks":
          [ "BLf3rEMm8fZhfETvHLbSssCCVC1dpVsa9hFrJ6Vy5MrfngbqVL3" ] },
      { "delegate": "tz3hw2kqXhLUvY65ca1eety2oQTpAvd34R9Q",
        "reception_time": "2022-01-20T08:02:44.691-00:00",
        "included_in_blocks":
          [ "BLf3rEMm8fZhfETvHLbSssCCVC1dpVsa9hFrJ6Vy5MrfngbqVL3" ] },
      { "delegate": "tz3RKYFsLuQzKBtmYuLNas7uMu3AsYd4QdsA",
        "reception_time": "2022-01-20T08:02:44.698-00:00",
        "included_in_blocks":
          [ "BLf3rEMm8fZhfETvHLbSssCCVC1dpVsa9hFrJ6Vy5MrfngbqVL3" ] },
      { "delegate": "tz1TEc75UKXv4W5cwi14Na3NtqFD51yKQi7h",
        "reception_time": "2022-01-20T08:02:44.700-00:00",
        "included_in_blocks":
          [ "BLf3rEMm8fZhfETvHLbSssCCVC1dpVsa9hFrJ6Vy5MrfngbqVL3" ] },
      { "delegate": "tz1fb7c66UwePkkfDXz4ajFaBP9hVNLdS7JJ",
        "reception_time": "2022-01-20T08:02:44.705-00:00",
        "included_in_blocks":
          [ "BLf3rEMm8fZhfETvHLbSssCCVC1dpVsa9hFrJ6Vy5MrfngbqVL3" ] },
      { "delegate": "tz1RCFbB9GpALpsZtu6J58sb74dm8qe6XBzv",
        "reception_time": "2022-01-20T08:02:44.705-00:00",
        "included_in_blocks":
          [ "BLf3rEMm8fZhfETvHLbSssCCVC1dpVsa9hFrJ6Vy5MrfngbqVL3" ] },
      { "delegate": "tz1bZ8vsMAXmaWEV7FRnyhcuUs2fYMaQ6Hkk",
        "reception_time": "2022-01-20T08:02:44.734-00:00",
        "included_in_blocks":
          [ "BLf3rEMm8fZhfETvHLbSssCCVC1dpVsa9hFrJ6Vy5MrfngbqVL3" ] },
      { "delegate": "tz3QT9dHYKDqh563chVa6za8526ys1UKfRfL",
        "reception_time": "2022-01-20T08:02:44.742-00:00",
        "included_in_blocks":
          [ "BLf3rEMm8fZhfETvHLbSssCCVC1dpVsa9hFrJ6Vy5MrfngbqVL3" ] },
      { "delegate": "tz1TwVimQy3BywXoSszdFXjT9bSTQrsZYo2u",
        "reception_time": "2022-01-20T08:02:44.742-00:00",
        "included_in_blocks":
          [ "BLf3rEMm8fZhfETvHLbSssCCVC1dpVsa9hFrJ6Vy5MrfngbqVL3" ] },
      { "delegate": "tz3S6BBeKgJGXxvLyZ1xzXzMPn11nnFtq5L9",
        "reception_time": "2022-01-20T08:02:44.750-00:00",
        "included_in_blocks":
          [ "BLf3rEMm8fZhfETvHLbSssCCVC1dpVsa9hFrJ6Vy5MrfngbqVL3" ] },
      { "delegate": "tz1cSj7fTex3JPd1p1LN1fwek6AV1kH93Wwc",
        "reception_time": "2022-01-20T08:02:44.753-00:00",
        "included_in_blocks":
          [ "BLf3rEMm8fZhfETvHLbSssCCVC1dpVsa9hFrJ6Vy5MrfngbqVL3" ] },
      { "delegate": "tz1KfEsrtDaA1sX7vdM4qmEPWuSytuqCDp5j",
        "reception_time": "2022-01-20T08:02:44.757-00:00",
        "included_in_blocks":
          [ "BLf3rEMm8fZhfETvHLbSssCCVC1dpVsa9hFrJ6Vy5MrfngbqVL3" ] },
      { "delegate": "tz1gfArv665EUkSg2ojMBzcbfwuPxAvqPvjo",
        "reception_time": "2022-01-20T08:02:44.762-00:00",
        "included_in_blocks":
          [ "BLf3rEMm8fZhfETvHLbSssCCVC1dpVsa9hFrJ6Vy5MrfngbqVL3" ] },
      { "delegate": "tz1S8MNvuFEUsWgjHvi3AxibRBf388NhT1q2",
        "reception_time": "2022-01-20T08:02:44.762-00:00",
        "included_in_blocks":
          [ "BLf3rEMm8fZhfETvHLbSssCCVC1dpVsa9hFrJ6Vy5MrfngbqVL3" ] },
      { "delegate": "tz1cZfFQpcYhwDp7y1njZXDsZqCrn2NqmVof",
        "reception_time": "2022-01-20T08:02:44.772-00:00",
        "included_in_blocks":
          [ "BLf3rEMm8fZhfETvHLbSssCCVC1dpVsa9hFrJ6Vy5MrfngbqVL3" ] },
      { "delegate": "tz1ei4WtWEMEJekSv8qDnu9PExG6Q8HgRGr3",
        "reception_time": "2022-01-20T08:02:44.776-00:00",
        "included_in_blocks":
          [ "BLf3rEMm8fZhfETvHLbSssCCVC1dpVsa9hFrJ6Vy5MrfngbqVL3" ] },
      { "delegate": "tz1NEKxGEHsFufk87CVZcrqWu8o22qh46GK6",
        "reception_time": "2022-01-20T08:02:44.776-00:00",
        "included_in_blocks":
          [ "BLf3rEMm8fZhfETvHLbSssCCVC1dpVsa9hFrJ6Vy5MrfngbqVL3" ] },
      { "delegate": "tz1WBfwbT66FC6BTLexc2BoyCCBM9LG7pnVW",
        "reception_time": "2022-01-20T08:02:44.781-00:00",
        "included_in_blocks":
          [ "BLf3rEMm8fZhfETvHLbSssCCVC1dpVsa9hFrJ6Vy5MrfngbqVL3" ] },
      { "delegate": "tz1UJvHTgpVzcKWhTazGxVcn5wsHru5Gietg",
        "reception_time": "2022-01-20T08:02:44.781-00:00",
        "included_in_blocks":
          [ "BLf3rEMm8fZhfETvHLbSssCCVC1dpVsa9hFrJ6Vy5MrfngbqVL3" ] },
      { "delegate": "tz3Zhs2dygr55yHyQyKjntAtY9bgfhLZ4Xj1",
        "reception_time": "2022-01-20T08:02:44.789-00:00",
        "included_in_blocks":
          [ "BLf3rEMm8fZhfETvHLbSssCCVC1dpVsa9hFrJ6Vy5MrfngbqVL3" ] },
      { "delegate": "tz1dNVDWPf3Q59SdJqnjdnu277iyvReiRS9M",
        "reception_time": "2022-01-20T08:02:44.793-00:00",
        "included_in_blocks":
          [ "BLf3rEMm8fZhfETvHLbSssCCVC1dpVsa9hFrJ6Vy5MrfngbqVL3" ] },
      { "delegate": "tz3RB4aoyjov4KEVRbuhvQ1CKJgBJMWhaeB8",
        "reception_time": "2022-01-20T08:02:44.801-00:00",
        "included_in_blocks":
          [ "BLf3rEMm8fZhfETvHLbSssCCVC1dpVsa9hFrJ6Vy5MrfngbqVL3" ] },
      { "delegate": "tz1MQJPGNMijnXnVoBENFz9rUhaPt3S7rWoz",
        "reception_time": "2022-01-20T08:02:44.805-00:00",
        "included_in_blocks":
          [ "BLf3rEMm8fZhfETvHLbSssCCVC1dpVsa9hFrJ6Vy5MrfngbqVL3" ] },
      { "delegate": "tz1NortRftucvAkD1J58L32EhSVrQEWJCEnB",
        "reception_time": "2022-01-20T08:02:44.817-00:00",
        "included_in_blocks":
          [ "BLf3rEMm8fZhfETvHLbSssCCVC1dpVsa9hFrJ6Vy5MrfngbqVL3" ] },
      { "delegate": "tz1abmz7jiCV2GH2u81LRrGgAFFgvQgiDiaf",
        "reception_time": "2022-01-20T08:02:44.842-00:00",
        "included_in_blocks":
          [ "BLf3rEMm8fZhfETvHLbSssCCVC1dpVsa9hFrJ6Vy5MrfngbqVL3" ] },
      { "delegate": "tz1Nf6tsK4G6bBqgSQERy4nUtkHNKUVdh7q1",
        "reception_time": "2022-01-20T08:02:44.868-00:00",
        "included_in_blocks":
          [ "BLf3rEMm8fZhfETvHLbSssCCVC1dpVsa9hFrJ6Vy5MrfngbqVL3" ] },
      { "delegate": "tz3bEQoFCZEEfZMskefZ8q8e4eiHH1pssRax",
        "reception_time": "2022-01-20T08:02:44.894-00:00",
        "included_in_blocks":
          [ "BLf3rEMm8fZhfETvHLbSssCCVC1dpVsa9hFrJ6Vy5MrfngbqVL3" ] },
      { "delegate": "tz2FCNBrERXtaTtNX6iimR1UJ5JSDxvdHM93",
        "reception_time": "2022-01-20T08:02:44.909-00:00",
        "included_in_blocks":
          [ "BLf3rEMm8fZhfETvHLbSssCCVC1dpVsa9hFrJ6Vy5MrfngbqVL3" ] },
      { "delegate": "tz1NSDFKuRyzHxpfG1AMkyCwEiZ52cbR2mRW",
        "reception_time": "2022-01-20T08:02:45.003-00:00",
        "included_in_blocks":
          [ "BLf3rEMm8fZhfETvHLbSssCCVC1dpVsa9hFrJ6Vy5MrfngbqVL3" ] },
      { "delegate": "tz1TRqbYbUf2GyrjErf3hBzgBJPzW8y36qEs",
        "reception_time": "2022-01-20T08:02:45.147-00:00",
        "included_in_blocks":
          [ "BLf3rEMm8fZhfETvHLbSssCCVC1dpVsa9hFrJ6Vy5MrfngbqVL3" ] },
      { "delegate": "tz1LmaFsWRkjr7QMCx5PtV6xTUz3AmEpKQiF",
        "reception_time": "2022-01-20T08:02:45.220-00:00",
        "included_in_blocks":
          [ "BLf3rEMm8fZhfETvHLbSssCCVC1dpVsa9hFrJ6Vy5MrfngbqVL3" ] },
      { "delegate": "tz1dRKU4FQ9QRRQPdaH4zCR6gmCmXfcvcgtB",
        "reception_time": "2022-01-20T08:02:45.298-00:00",
        "included_in_blocks":
          [ "BLf3rEMm8fZhfETvHLbSssCCVC1dpVsa9hFrJ6Vy5MrfngbqVL3" ] },
      { "delegate": "tz3gLTu4Yxj8tPAcriQVUdxv6BY9QyvzU1az",
        "reception_time": "2022-01-20T08:02:45.603-00:00",
        "included_in_blocks":
          [ "BLf3rEMm8fZhfETvHLbSssCCVC1dpVsa9hFrJ6Vy5MrfngbqVL3" ] },
      { "delegate": "tz1T7duV5gZWSTq4YpBGbXNLTfznCLDrFxvs",
        "reception_time": "2022-01-20T08:02:45.623-00:00",
        "included_in_blocks":
          [ "BLf3rEMm8fZhfETvHLbSssCCVC1dpVsa9hFrJ6Vy5MrfngbqVL3" ] },
      { "delegate": "tz3bvNMQ95vfAYtG8193ymshqjSvmxiCUuR5",
        "reception_time": "2022-01-20T08:02:45.655-00:00",
        "included_in_blocks":
          [ "BLf3rEMm8fZhfETvHLbSssCCVC1dpVsa9hFrJ6Vy5MrfngbqVL3" ] },
      { "delegate": "tz3WMqdzXqRWXwyvj5Hp2H7QEepaUuS7vd9K",
        "reception_time": "2022-01-20T08:02:45.679-00:00",
        "included_in_blocks":
          [ "BLf3rEMm8fZhfETvHLbSssCCVC1dpVsa9hFrJ6Vy5MrfngbqVL3" ] },
      { "delegate": "tz3RDC3Jdn4j15J7bBHZd29EUee9gVB1CxD9",
        "reception_time": "2022-01-20T08:02:45.767-00:00",
        "included_in_blocks":
          [ "BLf3rEMm8fZhfETvHLbSssCCVC1dpVsa9hFrJ6Vy5MrfngbqVL3" ] },
      { "delegate": "tz1RzwaogUQ8zPntqrSn4yn5f3VquXfEH5Jo",
        "reception_time": "2022-01-20T08:02:45.770-00:00",
        "included_in_blocks":
          [ "BLf3rEMm8fZhfETvHLbSssCCVC1dpVsa9hFrJ6Vy5MrfngbqVL3" ] },
      { "delegate": "tz1SohptP53wDPZhzTWzDUFAUcWF6DMBpaJV",
        "reception_time": "2022-01-20T08:02:45.833-00:00",
        "included_in_blocks":
          [ "BLf3rEMm8fZhfETvHLbSssCCVC1dpVsa9hFrJ6Vy5MrfngbqVL3" ] },
      { "delegate": "tz3VEZ4k6a4Wx42iyev6i2aVAptTRLEAivNN",
        "reception_time": "2022-01-20T08:02:45.934-00:00",
        "included_in_blocks":
          [ "BLf3rEMm8fZhfETvHLbSssCCVC1dpVsa9hFrJ6Vy5MrfngbqVL3" ] },
      { "delegate": "tz3UoffC7FG7zfpmvmjUmUeAaHvzdcUvAj6r",
        "reception_time": "2022-01-20T08:02:46.271-00:00",
        "included_in_blocks":
          [ "BLf3rEMm8fZhfETvHLbSssCCVC1dpVsa9hFrJ6Vy5MrfngbqVL3" ] },
      { "delegate": "tz1aRoaRhSpRYvFdyvgWLL6TGyRoGF51wDjM",
        "reception_time": "2022-01-20T08:02:46.407-00:00",
        "included_in_blocks":
          [ "BLf3rEMm8fZhfETvHLbSssCCVC1dpVsa9hFrJ6Vy5MrfngbqVL3" ] },
      { "delegate": "tz3NExpXn9aPNZPorRE4SdjJ2RGrfbJgMAaV",
        "reception_time": "2022-01-20T08:02:46.522-00:00",
        "included_in_blocks":
          [ "BLf3rEMm8fZhfETvHLbSssCCVC1dpVsa9hFrJ6Vy5MrfngbqVL3" ] },
      { "delegate": "tz1eVaNx3gCmG1EsLjijkmgAxdLYVf6Bf5Sq",
        "reception_time": "2022-01-20T08:02:47.138-00:00",
        "included_in_blocks":
          [ "BLf3rEMm8fZhfETvHLbSssCCVC1dpVsa9hFrJ6Vy5MrfngbqVL3" ] },
      { "delegate": "tz1Z9M4biBHSiH38k5ciRMjR5bgk89yEgLTz",
        "reception_time": "2022-01-20T08:02:47.237-00:00",
        "included_in_blocks":
          [ "BLf3rEMm8fZhfETvHLbSssCCVC1dpVsa9hFrJ6Vy5MrfngbqVL3" ] },
      { "delegate": "tz1g8vkmcde6sWKaG2NN9WKzCkDM6Rziq194",
        "reception_time": "2022-01-20T08:02:47.813-00:00",
        "included_in_blocks":
          [ "BLf3rEMm8fZhfETvHLbSssCCVC1dpVsa9hFrJ6Vy5MrfngbqVL3" ] },
      { "delegate": "tz1PFeoTuFen8jAMRHajBySNyCwLmY5RqF9M",
        "reception_time": "2022-01-20T08:02:50.206-00:00",
        "included_in_blocks":
          [ "BLf3rEMm8fZhfETvHLbSssCCVC1dpVsa9hFrJ6Vy5MrfngbqVL3" ] },
      { "delegate": "tz1NpWrAyDL9k2Lmnyxcgr9xuJakbBxdq7FB",
        "reception_time": "2022-01-20T08:02:52.089-00:00",
        "included_in_blocks":
          [ "BLf3rEMm8fZhfETvHLbSssCCVC1dpVsa9hFrJ6Vy5MrfngbqVL3" ] },
      { "delegate": "tz1go7f6mEQfT2xX2LuHAqgnRGN6c2zHPf5c",
        "reception_time": "2022-01-20T08:02:54.069-00:00",
        "included_in_blocks":
          [ "BLf3rEMm8fZhfETvHLbSssCCVC1dpVsa9hFrJ6Vy5MrfngbqVL3" ] } ] }