{ "blocks":
    [ { "hash": "BLX93FPcwb1ZYXP3BBcVvgES8HxGtrsenD1VQZ9ZvHvMcXV26n6",
        "delegate": "tz1aRoaRhSpRYvFdyvgWLL6TGyRoGF51wDjM",
        "reception_time": "2022-01-20T09:15:46.036-00:00",
        "timestamp": "2022-01-20T09:15:30Z" } ],
  "endorsements":
    [ { "delegate": "tz1awXW7wuXy21c66vBudMXQVAPgRnqqwgTH" },
      { "delegate": "tz1W5VkdB5s7ENMESVBtwyt9kyvLqPcUczRT" },
      { "delegate": "tz1Vyuu4EJ5Nym4JcrfRLnp3hpaq1DSEp1Ke" },
      { "delegate": "tz1Scdr2HsZiQjc7bHMeBbmDRXYVvdhjJbBh" },
      { "delegate": "tz1RjoHc98dBoqaH2jawF62XNKh7YsHwbkEv" },
      { "delegate": "tz1RAxW1rBTRumV9QEpFsw51QWPQmAKHGMei" },
      { "delegate": "tz1dfg9PkvRLf7hKMmGdGRhXWCbd8QgbwBF7",
        "reception_time": "2022-01-20T09:15:56.745-00:00",
        "included_in_blocks":
          [ "BLAYK4YzFWZcgDrUs8NCQ9Jh3RwEDcYDDwAVMUh9tcHk3NguBWh" ] },
      { "delegate": "tz1QccGQsmt7WMnbVX9inJQgEuQGeMXddfjp",
        "reception_time": "2022-01-20T09:15:55.130-00:00",
        "included_in_blocks":
          [ "BLAYK4YzFWZcgDrUs8NCQ9Jh3RwEDcYDDwAVMUh9tcHk3NguBWh" ] },
      { "delegate": "tz1fUyqYH7H4pRHN1roWY17giXhy1RvxjgUV",
        "reception_time": "2022-01-20T09:15:52.688-00:00",
        "included_in_blocks":
          [ "BLAYK4YzFWZcgDrUs8NCQ9Jh3RwEDcYDDwAVMUh9tcHk3NguBWh" ] },
      { "delegate": "tz1aRoaRhSpRYvFdyvgWLL6TGyRoGF51wDjM",
        "reception_time": "2022-01-20T09:15:51.348-00:00",
        "included_in_blocks":
          [ "BLAYK4YzFWZcgDrUs8NCQ9Jh3RwEDcYDDwAVMUh9tcHk3NguBWh" ] },
      { "delegate": "tz1f3Re8iw6Pt3KMHAvyccHxDU3NuqL95axD",
        "reception_time": "2022-01-20T09:15:51.445-00:00",
        "included_in_blocks":
          [ "BLAYK4YzFWZcgDrUs8NCQ9Jh3RwEDcYDDwAVMUh9tcHk3NguBWh" ] },
      { "delegate": "tz3gLTu4Yxj8tPAcriQVUdxv6BY9QyvzU1az",
        "reception_time": "2022-01-20T09:15:50.715-00:00",
        "included_in_blocks":
          [ "BLAYK4YzFWZcgDrUs8NCQ9Jh3RwEDcYDDwAVMUh9tcHk3NguBWh" ] },
      { "delegate": "tz3NDpRj6WBrJPikcPVHRBEjWKxFw3c6eQPS",
        "reception_time": "2022-01-20T09:15:50.524-00:00",
        "included_in_blocks":
          [ "BLAYK4YzFWZcgDrUs8NCQ9Jh3RwEDcYDDwAVMUh9tcHk3NguBWh" ] },
      { "delegate": "tz3RDC3Jdn4j15J7bBHZd29EUee9gVB1CxD9",
        "reception_time": "2022-01-20T09:15:50.722-00:00",
        "included_in_blocks":
          [ "BLAYK4YzFWZcgDrUs8NCQ9Jh3RwEDcYDDwAVMUh9tcHk3NguBWh" ] },
      { "delegate": "tz3NExpXn9aPNZPorRE4SdjJ2RGrfbJgMAaV",
        "reception_time": "2022-01-20T09:15:51.437-00:00",
        "included_in_blocks":
          [ "BLAYK4YzFWZcgDrUs8NCQ9Jh3RwEDcYDDwAVMUh9tcHk3NguBWh" ] },
      { "delegate": "tz1WnfXMPaNTBmH7DBPwqCWs9cPDJdkGBTZ8",
        "reception_time": "2022-01-20T09:15:50.054-00:00",
        "included_in_blocks":
          [ "BLAYK4YzFWZcgDrUs8NCQ9Jh3RwEDcYDDwAVMUh9tcHk3NguBWh" ] },
      { "delegate": "tz1TcH4Nb3aHNDJ7CGZhU7jgAK1BkSP4Lxds",
        "reception_time": "2022-01-20T09:15:50.973-00:00",
        "included_in_blocks":
          [ "BLAYK4YzFWZcgDrUs8NCQ9Jh3RwEDcYDDwAVMUh9tcHk3NguBWh" ] },
      { "delegate": "tz1aJS7Pk9uWR3wWyFf1i3RwhYxN84G7stom",
        "reception_time": "2022-01-20T09:15:50.106-00:00",
        "included_in_blocks":
          [ "BLAYK4YzFWZcgDrUs8NCQ9Jh3RwEDcYDDwAVMUh9tcHk3NguBWh" ] },
      { "delegate": "tz1ZcTRk5uxD86EFEn1vvNffWWqJy7q5eVhc",
        "reception_time": "2022-01-20T09:15:50.232-00:00",
        "included_in_blocks":
          [ "BLAYK4YzFWZcgDrUs8NCQ9Jh3RwEDcYDDwAVMUh9tcHk3NguBWh" ] },
      { "delegate": "tz1TRqbYbUf2GyrjErf3hBzgBJPzW8y36qEs",
        "reception_time": "2022-01-20T09:15:49.579-00:00",
        "included_in_blocks":
          [ "BLAYK4YzFWZcgDrUs8NCQ9Jh3RwEDcYDDwAVMUh9tcHk3NguBWh" ] },
      { "delegate": "tz2FCNBrERXtaTtNX6iimR1UJ5JSDxvdHM93",
        "reception_time": "2022-01-20T09:15:49.502-00:00",
        "included_in_blocks":
          [ "BLAYK4YzFWZcgDrUs8NCQ9Jh3RwEDcYDDwAVMUh9tcHk3NguBWh" ] },
      { "delegate": "tz3WMqdzXqRWXwyvj5Hp2H7QEepaUuS7vd9K",
        "reception_time": "2022-01-20T09:15:50.046-00:00",
        "included_in_blocks":
          [ "BLAYK4YzFWZcgDrUs8NCQ9Jh3RwEDcYDDwAVMUh9tcHk3NguBWh" ] },
      { "delegate": "tz1a3T5mRR1XWM1JgydvAqxEwpNs7ktVZuXc",
        "reception_time": "2022-01-20T09:15:49.448-00:00",
        "included_in_blocks":
          [ "BLAYK4YzFWZcgDrUs8NCQ9Jh3RwEDcYDDwAVMUh9tcHk3NguBWh" ] },
      { "delegate": "tz3bTdwZinP8U1JmSweNzVKhmwafqWmFWRfk",
        "reception_time": "2022-01-20T09:15:49.448-00:00",
        "included_in_blocks":
          [ "BLAYK4YzFWZcgDrUs8NCQ9Jh3RwEDcYDDwAVMUh9tcHk3NguBWh" ] },
      { "delegate": "tz3bvNMQ95vfAYtG8193ymshqjSvmxiCUuR5",
        "reception_time": "2022-01-20T09:15:49.448-00:00",
        "included_in_blocks":
          [ "BLAYK4YzFWZcgDrUs8NCQ9Jh3RwEDcYDDwAVMUh9tcHk3NguBWh" ] },
      { "delegate": "tz3RB4aoyjov4KEVRbuhvQ1CKJgBJMWhaeB8",
        "reception_time": "2022-01-20T09:15:49.448-00:00",
        "included_in_blocks":
          [ "BLAYK4YzFWZcgDrUs8NCQ9Jh3RwEDcYDDwAVMUh9tcHk3NguBWh" ] },
      { "delegate": "tz1NSDFKuRyzHxpfG1AMkyCwEiZ52cbR2mRW",
        "reception_time": "2022-01-20T09:15:49.448-00:00",
        "included_in_blocks":
          [ "BLAYK4YzFWZcgDrUs8NCQ9Jh3RwEDcYDDwAVMUh9tcHk3NguBWh" ] },
      { "delegate": "tz1WctSwL49BZtdWAQ75NY6vr4xsAx6oKdah",
        "reception_time": "2022-01-20T09:15:49.448-00:00",
        "included_in_blocks":
          [ "BLAYK4YzFWZcgDrUs8NCQ9Jh3RwEDcYDDwAVMUh9tcHk3NguBWh" ] },
      { "delegate": "tz1iPHM2Xx2hwmzcr1EG1zzrV6oKafVoA91m",
        "reception_time": "2022-01-20T09:15:49.448-00:00",
        "included_in_blocks":
          [ "BLAYK4YzFWZcgDrUs8NCQ9Jh3RwEDcYDDwAVMUh9tcHk3NguBWh" ] },
      { "delegate": "tz1PeZx7FXy7QRuMREGXGxeipb24RsMMzUNe",
        "reception_time": "2022-01-20T09:15:49.448-00:00",
        "included_in_blocks":
          [ "BLAYK4YzFWZcgDrUs8NCQ9Jh3RwEDcYDDwAVMUh9tcHk3NguBWh" ] },
      { "delegate": "tz3VEZ4k6a4Wx42iyev6i2aVAptTRLEAivNN",
        "reception_time": "2022-01-20T09:15:49.847-00:00",
        "included_in_blocks":
          [ "BLAYK4YzFWZcgDrUs8NCQ9Jh3RwEDcYDDwAVMUh9tcHk3NguBWh" ] },
      { "delegate": "tz1dRKU4FQ9QRRQPdaH4zCR6gmCmXfcvcgtB",
        "reception_time": "2022-01-20T09:15:48.957-00:00",
        "included_in_blocks":
          [ "BLAYK4YzFWZcgDrUs8NCQ9Jh3RwEDcYDDwAVMUh9tcHk3NguBWh" ] },
      { "delegate": "tz3UoffC7FG7zfpmvmjUmUeAaHvzdcUvAj6r",
        "reception_time": "2022-01-20T09:15:49.645-00:00",
        "included_in_blocks":
          [ "BLAYK4YzFWZcgDrUs8NCQ9Jh3RwEDcYDDwAVMUh9tcHk3NguBWh" ] },
      { "delegate": "tz1Tnjaxk6tbAeC2TmMApPh8UsrEVQvhHvx5",
        "reception_time": "2022-01-20T09:15:49.448-00:00",
        "included_in_blocks":
          [ "BLAYK4YzFWZcgDrUs8NCQ9Jh3RwEDcYDDwAVMUh9tcHk3NguBWh" ] },
      { "delegate": "tz1T7duV5gZWSTq4YpBGbXNLTfznCLDrFxvs",
        "reception_time": "2022-01-20T09:15:48.957-00:00",
        "included_in_blocks":
          [ "BLAYK4YzFWZcgDrUs8NCQ9Jh3RwEDcYDDwAVMUh9tcHk3NguBWh" ] },
      { "delegate": "tz1R4PuhxUxBBZhfLJDx2nNjbr7WorAPX1oC",
        "reception_time": "2022-01-20T09:15:48.957-00:00",
        "included_in_blocks":
          [ "BLAYK4YzFWZcgDrUs8NCQ9Jh3RwEDcYDDwAVMUh9tcHk3NguBWh" ] },
      { "delegate": "tz1SYq214SCBy9naR6cvycQsYcUGpBqQAE8d",
        "reception_time": "2022-01-20T09:15:48.957-00:00",
        "included_in_blocks":
          [ "BLAYK4YzFWZcgDrUs8NCQ9Jh3RwEDcYDDwAVMUh9tcHk3NguBWh" ] },
      { "delegate": "tz1P2Po7YM526ughEsRbY4oR9zaUPDZjxFrb",
        "reception_time": "2022-01-20T09:15:48.957-00:00",
        "included_in_blocks":
          [ "BLAYK4YzFWZcgDrUs8NCQ9Jh3RwEDcYDDwAVMUh9tcHk3NguBWh" ] },
      { "delegate": "tz1Sm5iH2vfTtyPQdRHt4STaARTVqTHxJ6Ea",
        "reception_time": "2022-01-20T09:15:48.957-00:00",
        "included_in_blocks":
          [ "BLAYK4YzFWZcgDrUs8NCQ9Jh3RwEDcYDDwAVMUh9tcHk3NguBWh" ] },
      { "delegate": "tz1RCFbB9GpALpsZtu6J58sb74dm8qe6XBzv",
        "reception_time": "2022-01-20T09:15:48.957-00:00",
        "included_in_blocks":
          [ "BLAYK4YzFWZcgDrUs8NCQ9Jh3RwEDcYDDwAVMUh9tcHk3NguBWh" ] },
      { "delegate": "tz1S8MNvuFEUsWgjHvi3AxibRBf388NhT1q2",
        "reception_time": "2022-01-20T09:15:49.448-00:00",
        "included_in_blocks":
          [ "BLAYK4YzFWZcgDrUs8NCQ9Jh3RwEDcYDDwAVMUh9tcHk3NguBWh" ] },
      { "delegate": "tz1gfArv665EUkSg2ojMBzcbfwuPxAvqPvjo",
        "reception_time": "2022-01-20T09:15:48.957-00:00",
        "included_in_blocks":
          [ "BLAYK4YzFWZcgDrUs8NCQ9Jh3RwEDcYDDwAVMUh9tcHk3NguBWh" ] },
      { "delegate": "tz3hw2kqXhLUvY65ca1eety2oQTpAvd34R9Q",
        "reception_time": "2022-01-20T09:15:48.957-00:00",
        "included_in_blocks":
          [ "BLAYK4YzFWZcgDrUs8NCQ9Jh3RwEDcYDDwAVMUh9tcHk3NguBWh" ] },
      { "delegate": "tz3S6BBeKgJGXxvLyZ1xzXzMPn11nnFtq5L9",
        "reception_time": "2022-01-20T09:15:48.957-00:00",
        "included_in_blocks":
          [ "BLAYK4YzFWZcgDrUs8NCQ9Jh3RwEDcYDDwAVMUh9tcHk3NguBWh" ] },
      { "delegate": "tz1W3VYi3gSt9Xgfw6WNV1aGZRPH2BsskMEY",
        "reception_time": "2022-01-20T09:15:48.679-00:00",
        "included_in_blocks":
          [ "BLAYK4YzFWZcgDrUs8NCQ9Jh3RwEDcYDDwAVMUh9tcHk3NguBWh" ] },
      { "delegate": "tz3QT9dHYKDqh563chVa6za8526ys1UKfRfL",
        "reception_time": "2022-01-20T09:15:48.957-00:00",
        "included_in_blocks":
          [ "BLAYK4YzFWZcgDrUs8NCQ9Jh3RwEDcYDDwAVMUh9tcHk3NguBWh" ] },
      { "delegate": "tz1V4qCyvPKZ5UeqdH14HN42rxvNPQfc9UZg",
        "reception_time": "2022-01-20T09:15:48.957-00:00",
        "included_in_blocks":
          [ "BLAYK4YzFWZcgDrUs8NCQ9Jh3RwEDcYDDwAVMUh9tcHk3NguBWh" ] },
      { "delegate": "tz3iJu5vrKZcsqRPs8yJ61UDoeEXZmtro4qh",
        "reception_time": "2022-01-20T09:15:48.957-00:00",
        "included_in_blocks":
          [ "BLAYK4YzFWZcgDrUs8NCQ9Jh3RwEDcYDDwAVMUh9tcHk3NguBWh" ] },
      { "delegate": "tz3RKYFsLuQzKBtmYuLNas7uMu3AsYd4QdsA",
        "reception_time": "2022-01-20T09:15:48.957-00:00",
        "included_in_blocks":
          [ "BLAYK4YzFWZcgDrUs8NCQ9Jh3RwEDcYDDwAVMUh9tcHk3NguBWh" ] },
      { "delegate": "tz1fPKAtsYydh4f1wfWNfeNxWYu72TmM48fu",
        "reception_time": "2022-01-20T09:15:48.957-00:00",
        "included_in_blocks":
          [ "BLAYK4YzFWZcgDrUs8NCQ9Jh3RwEDcYDDwAVMUh9tcHk3NguBWh" ] },
      { "delegate": "tz3Zhs2dygr55yHyQyKjntAtY9bgfhLZ4Xj1",
        "reception_time": "2022-01-20T09:15:48.957-00:00",
        "included_in_blocks":
          [ "BLAYK4YzFWZcgDrUs8NCQ9Jh3RwEDcYDDwAVMUh9tcHk3NguBWh" ] },
      { "delegate": "tz1d9ek6HrScY6QRZ71NJdB85MNz8gKGBjrv",
        "reception_time": "2022-01-20T09:15:48.679-00:00",
        "included_in_blocks":
          [ "BLAYK4YzFWZcgDrUs8NCQ9Jh3RwEDcYDDwAVMUh9tcHk3NguBWh" ] },
      { "delegate": "tz3QSGPoRp3Kn7n3vY24eYeu3Peuqo45LQ4D",
        "reception_time": "2022-01-20T09:15:48.679-00:00",
        "included_in_blocks":
          [ "BLAYK4YzFWZcgDrUs8NCQ9Jh3RwEDcYDDwAVMUh9tcHk3NguBWh" ] },
      { "delegate": "tz1d6Fx42mYgVFnHUW8T8A7WBfJ6nD9pVok8",
        "reception_time": "2022-01-20T09:15:48.679-00:00",
        "included_in_blocks":
          [ "BLAYK4YzFWZcgDrUs8NCQ9Jh3RwEDcYDDwAVMUh9tcHk3NguBWh" ] },
      { "delegate": "tz3NxTnke1acr8o3h5y9ytf5awQBGNJUKzVU",
        "reception_time": "2022-01-20T09:15:48.679-00:00",
        "included_in_blocks":
          [ "BLAYK4YzFWZcgDrUs8NCQ9Jh3RwEDcYDDwAVMUh9tcHk3NguBWh" ] },
      { "delegate": "tz3ZbP2pM3nwvXztbuMJwJnDvV5xdpU8UkkD",
        "reception_time": "2022-01-20T09:15:48.957-00:00",
        "included_in_blocks":
          [ "BLAYK4YzFWZcgDrUs8NCQ9Jh3RwEDcYDDwAVMUh9tcHk3NguBWh" ] },
      { "delegate": "tz1KzSC1J9aBxKp7u8TUnpN8L7S65PBRkgdF",
        "reception_time": "2022-01-20T09:15:49.448-00:00",
        "included_in_blocks":
          [ "BLAYK4YzFWZcgDrUs8NCQ9Jh3RwEDcYDDwAVMUh9tcHk3NguBWh" ] },
      { "delegate": "tz3gtoUxdudfBRcNY7iVdKPHCYYX6xdPpoRS",
        "reception_time": "2022-01-20T09:15:48.957-00:00",
        "included_in_blocks":
          [ "BLAYK4YzFWZcgDrUs8NCQ9Jh3RwEDcYDDwAVMUh9tcHk3NguBWh" ] },
      { "delegate": "tz1TEc75UKXv4W5cwi14Na3NtqFD51yKQi7h",
        "reception_time": "2022-01-20T09:15:48.679-00:00",
        "included_in_blocks":
          [ "BLAYK4YzFWZcgDrUs8NCQ9Jh3RwEDcYDDwAVMUh9tcHk3NguBWh" ] },
      { "delegate": "tz1Nf6tsK4G6bBqgSQERy4nUtkHNKUVdh7q1",
        "reception_time": "2022-01-20T09:15:48.679-00:00",
        "included_in_blocks":
          [ "BLAYK4YzFWZcgDrUs8NCQ9Jh3RwEDcYDDwAVMUh9tcHk3NguBWh" ] },
      { "delegate": "tz1TRspM5SeZpaQUhzByXbEvqKF1vnCM2YTK",
        "reception_time": "2022-01-20T09:15:48.957-00:00",
        "included_in_blocks":
          [ "BLAYK4YzFWZcgDrUs8NCQ9Jh3RwEDcYDDwAVMUh9tcHk3NguBWh" ] },
      { "delegate": "tz1MJx9vhaNRSimcuXPK2rW4fLccQnDAnVKJ",
        "reception_time": "2022-01-20T09:15:48.679-00:00",
        "included_in_blocks":
          [ "BLAYK4YzFWZcgDrUs8NCQ9Jh3RwEDcYDDwAVMUh9tcHk3NguBWh" ] },
      { "delegate": "tz1NEKxGEHsFufk87CVZcrqWu8o22qh46GK6",
        "reception_time": "2022-01-20T09:15:48.957-00:00",
        "included_in_blocks":
          [ "BLAYK4YzFWZcgDrUs8NCQ9Jh3RwEDcYDDwAVMUh9tcHk3NguBWh" ] },
      { "delegate": "tz1KfEsrtDaA1sX7vdM4qmEPWuSytuqCDp5j",
        "reception_time": "2022-01-20T09:15:48.957-00:00",
        "included_in_blocks":
          [ "BLAYK4YzFWZcgDrUs8NCQ9Jh3RwEDcYDDwAVMUh9tcHk3NguBWh" ] },
      { "delegate": "tz1ei4WtWEMEJekSv8qDnu9PExG6Q8HgRGr3",
        "reception_time": "2022-01-20T09:15:48.957-00:00",
        "included_in_blocks":
          [ "BLAYK4YzFWZcgDrUs8NCQ9Jh3RwEDcYDDwAVMUh9tcHk3NguBWh" ] },
      { "delegate": "tz1PWCDnz783NNGGQjEFFsHtrcK5yBW4E2rm",
        "reception_time": "2022-01-20T09:15:48.679-00:00",
        "included_in_blocks":
          [ "BLAYK4YzFWZcgDrUs8NCQ9Jh3RwEDcYDDwAVMUh9tcHk3NguBWh" ] },
      { "delegate": "tz1cSj7fTex3JPd1p1LN1fwek6AV1kH93Wwc",
        "reception_time": "2022-01-20T09:15:48.957-00:00",
        "included_in_blocks":
          [ "BLAYK4YzFWZcgDrUs8NCQ9Jh3RwEDcYDDwAVMUh9tcHk3NguBWh" ] },
      { "delegate": "tz1WCd2jm4uSt4vntk4vSuUWoZQGhLcDuR9q",
        "reception_time": "2022-01-20T09:15:48.679-00:00",
        "included_in_blocks":
          [ "BLAYK4YzFWZcgDrUs8NCQ9Jh3RwEDcYDDwAVMUh9tcHk3NguBWh" ] },
      { "delegate": "tz1aXD7Jigrt3PBYSpHSg5Rr33SexMmmM5Ys",
        "reception_time": "2022-01-20T09:15:48.957-00:00",
        "included_in_blocks":
          [ "BLAYK4YzFWZcgDrUs8NCQ9Jh3RwEDcYDDwAVMUh9tcHk3NguBWh" ] },
      { "delegate": "tz3adcvQaKXTCg12zbninqo3q8ptKKtDFTLv",
        "reception_time": "2022-01-20T09:15:48.679-00:00",
        "included_in_blocks":
          [ "BLAYK4YzFWZcgDrUs8NCQ9Jh3RwEDcYDDwAVMUh9tcHk3NguBWh" ] },
      { "delegate": "tz1TzaNn7wSQSP5gYPXCnNzBCpyMiidCq1PX",
        "reception_time": "2022-01-20T09:15:48.679-00:00",
        "included_in_blocks":
          [ "BLAYK4YzFWZcgDrUs8NCQ9Jh3RwEDcYDDwAVMUh9tcHk3NguBWh" ] },
      { "delegate": "tz1Ldzz6k1BHdhuKvAtMRX7h5kJSMHESMHLC",
        "reception_time": "2022-01-20T09:15:48.679-00:00",
        "included_in_blocks":
          [ "BLAYK4YzFWZcgDrUs8NCQ9Jh3RwEDcYDDwAVMUh9tcHk3NguBWh" ] },
      { "delegate": "tz1aqcYgG6NuViML5vdWhohHJBYxcDVLNUsE",
        "reception_time": "2022-01-20T09:15:48.679-00:00",
        "included_in_blocks":
          [ "BLAYK4YzFWZcgDrUs8NCQ9Jh3RwEDcYDDwAVMUh9tcHk3NguBWh" ] },
      { "delegate": "tz1gUNyn3hmnEWqkusWPzxRaon1cs7ndWh7h",
        "reception_time": "2022-01-20T09:15:48.679-00:00",
        "included_in_blocks":
          [ "BLAYK4YzFWZcgDrUs8NCQ9Jh3RwEDcYDDwAVMUh9tcHk3NguBWh" ] },
      { "delegate": "tz1irJKkXS2DBWkU1NnmFQx1c1L7pbGg4yhk",
        "reception_time": "2022-01-20T09:15:48.679-00:00",
        "included_in_blocks":
          [ "BLAYK4YzFWZcgDrUs8NCQ9Jh3RwEDcYDDwAVMUh9tcHk3NguBWh" ] },
      { "delegate": "tz1eEnQhbwf6trb8Q8mPb2RaPkNk2rN7BKi8",
        "reception_time": "2022-01-20T09:15:48.957-00:00",
        "included_in_blocks":
          [ "BLAYK4YzFWZcgDrUs8NCQ9Jh3RwEDcYDDwAVMUh9tcHk3NguBWh" ] },
      { "delegate": "tz1TXzyaKUA8wsWefdSnyaYFnV2M3vCV7er9",
        "reception_time": "2022-01-20T09:15:48.679-00:00",
        "included_in_blocks":
          [ "BLAYK4YzFWZcgDrUs8NCQ9Jh3RwEDcYDDwAVMUh9tcHk3NguBWh" ] },
      { "delegate": "tz1VQnqCCqX4K5sP3FNkVSNKTdCAMJDd3E1n",
        "reception_time": "2022-01-20T09:15:48.679-00:00",
        "included_in_blocks":
          [ "BLAYK4YzFWZcgDrUs8NCQ9Jh3RwEDcYDDwAVMUh9tcHk3NguBWh" ] },
      { "delegate": "tz1aDiEJf9ztRrAJEXZfcG3CKimoKsGhwVAi",
        "reception_time": "2022-01-20T09:15:48.679-00:00",
        "included_in_blocks":
          [ "BLAYK4YzFWZcgDrUs8NCQ9Jh3RwEDcYDDwAVMUh9tcHk3NguBWh" ] },
      { "delegate": "tz1Kt4P8BCaP93AEV4eA7gmpRryWt5hznjCP",
        "reception_time": "2022-01-20T09:15:48.679-00:00",
        "included_in_blocks":
          [ "BLAYK4YzFWZcgDrUs8NCQ9Jh3RwEDcYDDwAVMUh9tcHk3NguBWh" ] },
      { "delegate": "tz1VmiY38m3y95HqQLjMwqnMS7sdMfGomzKi",
        "reception_time": "2022-01-20T09:15:48.679-00:00",
        "included_in_blocks":
          [ "BLAYK4YzFWZcgDrUs8NCQ9Jh3RwEDcYDDwAVMUh9tcHk3NguBWh" ] } ] }