{ "blocks":
    [ { "hash": "BLSALM5dYPJ8aperUcQCgwH2ytdvq1c7Kzzku52FeBe3jbHwacD",
        "delegate": "tz1Kf25fX1VdmYGSEzwFy1wNmkbSEZ2V83sY",
        "reception_time": "2022-01-20T06:07:54.113-00:00",
        "timestamp": "2022-01-20T06:07:40Z" } ],
  "endorsements":
    [ { "delegate": "tz1Ldzz6k1BHdhuKvAtMRX7h5kJSMHESMHLC",
        "reception_time": "2022-01-20T06:07:54.023-00:00",
        "errors":
          [ { "kind": "temporary",
              "id": "proto.011-PtHangz2.prefilter.outdated_endorsement" } ],
        "included_in_blocks":
          [ "BMToBftMcsg5PVAG1Rm5qH5x3fYVxB68M3Lw8GprXG6TJQ9TWRE" ] },
      { "delegate": "tz1MXFrtZoaXckE41bjUCSjAjAap3AFDSr3N",
        "reception_time": "2022-01-20T06:07:54.011-00:00",
        "errors":
          [ { "kind": "temporary",
              "id": "proto.011-PtHangz2.prefilter.outdated_endorsement" } ],
        "included_in_blocks":
          [ "BMToBftMcsg5PVAG1Rm5qH5x3fYVxB68M3Lw8GprXG6TJQ9TWRE" ] },
      { "delegate": "tz1gUNyn3hmnEWqkusWPzxRaon1cs7ndWh7h",
        "reception_time": "2022-01-20T06:07:53.429-00:00",
        "errors":
          [ { "kind": "temporary",
              "id": "proto.011-PtHangz2.prefilter.outdated_endorsement" } ],
        "included_in_blocks":
          [ "BMToBftMcsg5PVAG1Rm5qH5x3fYVxB68M3Lw8GprXG6TJQ9TWRE" ] },
      { "delegate": "tz1VQnqCCqX4K5sP3FNkVSNKTdCAMJDd3E1n",
        "reception_time": "2022-01-20T06:07:53.417-00:00",
        "errors":
          [ { "kind": "temporary",
              "id": "proto.011-PtHangz2.prefilter.outdated_endorsement" } ],
        "included_in_blocks":
          [ "BMToBftMcsg5PVAG1Rm5qH5x3fYVxB68M3Lw8GprXG6TJQ9TWRE" ] },
      { "delegate": "tz1P2Po7YM526ughEsRbY4oR9zaUPDZjxFrb",
        "reception_time": "2022-01-20T06:07:53.331-00:00",
        "errors":
          [ { "kind": "temporary",
              "id": "proto.011-PtHangz2.prefilter.outdated_endorsement" } ],
        "included_in_blocks":
          [ "BMToBftMcsg5PVAG1Rm5qH5x3fYVxB68M3Lw8GprXG6TJQ9TWRE" ] },
      { "delegate": "tz1Scdr2HsZiQjc7bHMeBbmDRXYVvdhjJbBh",
        "reception_time": "2022-01-20T06:07:53.311-00:00",
        "errors":
          [ { "kind": "temporary",
              "id": "proto.011-PtHangz2.prefilter.outdated_endorsement" } ],
        "included_in_blocks":
          [ "BMToBftMcsg5PVAG1Rm5qH5x3fYVxB68M3Lw8GprXG6TJQ9TWRE" ] },
      { "delegate": "tz1RjoHc98dBoqaH2jawF62XNKh7YsHwbkEv" },
      { "delegate": "tz1W5VkdB5s7ENMESVBtwyt9kyvLqPcUczRT" },
      { "delegate": "tz1ibcPVGK4Y8pcW4BYUsojiHoBKnZbyDGrX" },
      { "delegate": "tz1eDDuQBEgwvc6tbnnCVrnr12tvrd6gBTpx",
        "reception_time": "2022-01-20T06:07:56.280-00:00",
        "included_in_blocks":
          [ "BMToBftMcsg5PVAG1Rm5qH5x3fYVxB68M3Lw8GprXG6TJQ9TWRE" ] },
      { "delegate": "tz1irJKkXS2DBWkU1NnmFQx1c1L7pbGg4yhk",
        "reception_time": "2022-01-20T06:07:56.292-00:00",
        "included_in_blocks":
          [ "BMToBftMcsg5PVAG1Rm5qH5x3fYVxB68M3Lw8GprXG6TJQ9TWRE" ] },
      { "delegate": "tz1eEnQhbwf6trb8Q8mPb2RaPkNk2rN7BKi8",
        "reception_time": "2022-01-20T06:07:56.301-00:00",
        "included_in_blocks":
          [ "BMToBftMcsg5PVAG1Rm5qH5x3fYVxB68M3Lw8GprXG6TJQ9TWRE" ] },
      { "delegate": "tz1VmiY38m3y95HqQLjMwqnMS7sdMfGomzKi",
        "reception_time": "2022-01-20T06:07:56.301-00:00",
        "included_in_blocks":
          [ "BMToBftMcsg5PVAG1Rm5qH5x3fYVxB68M3Lw8GprXG6TJQ9TWRE" ] },
      { "delegate": "tz1TzaNn7wSQSP5gYPXCnNzBCpyMiidCq1PX",
        "reception_time": "2022-01-20T06:07:56.305-00:00",
        "included_in_blocks":
          [ "BMToBftMcsg5PVAG1Rm5qH5x3fYVxB68M3Lw8GprXG6TJQ9TWRE" ] },
      { "delegate": "tz1cSj7fTex3JPd1p1LN1fwek6AV1kH93Wwc",
        "reception_time": "2022-01-20T06:07:56.313-00:00",
        "included_in_blocks":
          [ "BMToBftMcsg5PVAG1Rm5qH5x3fYVxB68M3Lw8GprXG6TJQ9TWRE" ] },
      { "delegate": "tz1WCd2jm4uSt4vntk4vSuUWoZQGhLcDuR9q",
        "reception_time": "2022-01-20T06:07:56.317-00:00",
        "included_in_blocks":
          [ "BMToBftMcsg5PVAG1Rm5qH5x3fYVxB68M3Lw8GprXG6TJQ9TWRE" ] },
      { "delegate": "tz1PWCDnz783NNGGQjEFFsHtrcK5yBW4E2rm",
        "reception_time": "2022-01-20T06:07:56.320-00:00",
        "included_in_blocks":
          [ "BMToBftMcsg5PVAG1Rm5qH5x3fYVxB68M3Lw8GprXG6TJQ9TWRE" ] },
      { "delegate": "tz1KfEsrtDaA1sX7vdM4qmEPWuSytuqCDp5j",
        "reception_time": "2022-01-20T06:07:56.322-00:00",
        "included_in_blocks":
          [ "BMToBftMcsg5PVAG1Rm5qH5x3fYVxB68M3Lw8GprXG6TJQ9TWRE" ] },
      { "delegate": "tz1dNVDWPf3Q59SdJqnjdnu277iyvReiRS9M",
        "reception_time": "2022-01-20T06:07:56.330-00:00",
        "included_in_blocks":
          [ "BMToBftMcsg5PVAG1Rm5qH5x3fYVxB68M3Lw8GprXG6TJQ9TWRE" ] },
      { "delegate": "tz3ZbP2pM3nwvXztbuMJwJnDvV5xdpU8UkkD",
        "reception_time": "2022-01-20T06:07:56.330-00:00",
        "included_in_blocks":
          [ "BMToBftMcsg5PVAG1Rm5qH5x3fYVxB68M3Lw8GprXG6TJQ9TWRE" ] },
      { "delegate": "tz3hw2kqXhLUvY65ca1eety2oQTpAvd34R9Q",
        "reception_time": "2022-01-20T06:07:56.337-00:00",
        "included_in_blocks":
          [ "BMToBftMcsg5PVAG1Rm5qH5x3fYVxB68M3Lw8GprXG6TJQ9TWRE" ] },
      { "delegate": "tz1Nf6tsK4G6bBqgSQERy4nUtkHNKUVdh7q1",
        "reception_time": "2022-01-20T06:07:56.339-00:00",
        "included_in_blocks":
          [ "BMToBftMcsg5PVAG1Rm5qH5x3fYVxB68M3Lw8GprXG6TJQ9TWRE" ] },
      { "delegate": "tz3NxTnke1acr8o3h5y9ytf5awQBGNJUKzVU",
        "reception_time": "2022-01-20T06:07:56.345-00:00",
        "included_in_blocks":
          [ "BMToBftMcsg5PVAG1Rm5qH5x3fYVxB68M3Lw8GprXG6TJQ9TWRE" ] },
      { "delegate": "tz1fR5e22cR7fTSMHm1ZTMRqK38sRwk9U148",
        "reception_time": "2022-01-20T06:07:56.349-00:00",
        "included_in_blocks":
          [ "BMToBftMcsg5PVAG1Rm5qH5x3fYVxB68M3Lw8GprXG6TJQ9TWRE" ] },
      { "delegate": "tz1gfArv665EUkSg2ojMBzcbfwuPxAvqPvjo",
        "reception_time": "2022-01-20T06:07:56.349-00:00",
        "included_in_blocks":
          [ "BMToBftMcsg5PVAG1Rm5qH5x3fYVxB68M3Lw8GprXG6TJQ9TWRE" ] },
      { "delegate": "tz1ei4WtWEMEJekSv8qDnu9PExG6Q8HgRGr3",
        "reception_time": "2022-01-20T06:07:56.460-00:00",
        "included_in_blocks":
          [ "BMToBftMcsg5PVAG1Rm5qH5x3fYVxB68M3Lw8GprXG6TJQ9TWRE" ] },
      { "delegate": "tz1V4qCyvPKZ5UeqdH14HN42rxvNPQfc9UZg",
        "reception_time": "2022-01-20T06:07:56.472-00:00",
        "included_in_blocks":
          [ "BMToBftMcsg5PVAG1Rm5qH5x3fYVxB68M3Lw8GprXG6TJQ9TWRE" ] },
      { "delegate": "tz3RKYFsLuQzKBtmYuLNas7uMu3AsYd4QdsA",
        "reception_time": "2022-01-20T06:07:56.472-00:00",
        "included_in_blocks":
          [ "BMToBftMcsg5PVAG1Rm5qH5x3fYVxB68M3Lw8GprXG6TJQ9TWRE" ] },
      { "delegate": "tz1gcna2xxZj2eNp1LaMyAhVJ49mEFj4FH26",
        "reception_time": "2022-01-20T06:07:56.475-00:00",
        "included_in_blocks":
          [ "BMToBftMcsg5PVAG1Rm5qH5x3fYVxB68M3Lw8GprXG6TJQ9TWRE" ] },
      { "delegate": "tz3QSGPoRp3Kn7n3vY24eYeu3Peuqo45LQ4D",
        "reception_time": "2022-01-20T06:07:56.482-00:00",
        "included_in_blocks":
          [ "BMToBftMcsg5PVAG1Rm5qH5x3fYVxB68M3Lw8GprXG6TJQ9TWRE" ] },
      { "delegate": "tz1TRspM5SeZpaQUhzByXbEvqKF1vnCM2YTK",
        "reception_time": "2022-01-20T06:07:56.486-00:00",
        "included_in_blocks":
          [ "BMToBftMcsg5PVAG1Rm5qH5x3fYVxB68M3Lw8GprXG6TJQ9TWRE" ] },
      { "delegate": "tz1TEc75UKXv4W5cwi14Na3NtqFD51yKQi7h",
        "reception_time": "2022-01-20T06:07:56.486-00:00",
        "included_in_blocks":
          [ "BMToBftMcsg5PVAG1Rm5qH5x3fYVxB68M3Lw8GprXG6TJQ9TWRE" ] },
      { "delegate": "tz3Zhs2dygr55yHyQyKjntAtY9bgfhLZ4Xj1",
        "reception_time": "2022-01-20T06:07:56.495-00:00",
        "included_in_blocks":
          [ "BMToBftMcsg5PVAG1Rm5qH5x3fYVxB68M3Lw8GprXG6TJQ9TWRE" ] },
      { "delegate": "tz1MQMiZHV8q4tTwUMWmS5Y3kaP6J2136iXr",
        "reception_time": "2022-01-20T06:07:56.495-00:00",
        "included_in_blocks":
          [ "BMToBftMcsg5PVAG1Rm5qH5x3fYVxB68M3Lw8GprXG6TJQ9TWRE" ] },
      { "delegate": "tz1RCFbB9GpALpsZtu6J58sb74dm8qe6XBzv",
        "reception_time": "2022-01-20T06:07:56.500-00:00",
        "included_in_blocks":
          [ "BMToBftMcsg5PVAG1Rm5qH5x3fYVxB68M3Lw8GprXG6TJQ9TWRE" ] },
      { "delegate": "tz3S6BBeKgJGXxvLyZ1xzXzMPn11nnFtq5L9",
        "reception_time": "2022-01-20T06:07:56.507-00:00",
        "included_in_blocks":
          [ "BMToBftMcsg5PVAG1Rm5qH5x3fYVxB68M3Lw8GprXG6TJQ9TWRE" ] },
      { "delegate": "tz1S8MNvuFEUsWgjHvi3AxibRBf388NhT1q2",
        "reception_time": "2022-01-20T06:07:56.512-00:00",
        "included_in_blocks":
          [ "BMToBftMcsg5PVAG1Rm5qH5x3fYVxB68M3Lw8GprXG6TJQ9TWRE" ] },
      { "delegate": "tz3bTdwZinP8U1JmSweNzVKhmwafqWmFWRfk",
        "reception_time": "2022-01-20T06:07:56.524-00:00",
        "included_in_blocks":
          [ "BMToBftMcsg5PVAG1Rm5qH5x3fYVxB68M3Lw8GprXG6TJQ9TWRE" ] },
      { "delegate": "tz3QT9dHYKDqh563chVa6za8526ys1UKfRfL",
        "reception_time": "2022-01-20T06:07:56.524-00:00",
        "included_in_blocks":
          [ "BMToBftMcsg5PVAG1Rm5qH5x3fYVxB68M3Lw8GprXG6TJQ9TWRE" ] },
      { "delegate": "tz1NEKxGEHsFufk87CVZcrqWu8o22qh46GK6",
        "reception_time": "2022-01-20T06:07:56.536-00:00",
        "included_in_blocks":
          [ "BMToBftMcsg5PVAG1Rm5qH5x3fYVxB68M3Lw8GprXG6TJQ9TWRE" ] },
      { "delegate": "tz1Tnjaxk6tbAeC2TmMApPh8UsrEVQvhHvx5",
        "reception_time": "2022-01-20T06:07:56.542-00:00",
        "included_in_blocks":
          [ "BMToBftMcsg5PVAG1Rm5qH5x3fYVxB68M3Lw8GprXG6TJQ9TWRE" ] },
      { "delegate": "tz1Vd1rXpV8hTHbFXCXN3c3qzCsgcU5BZw1e",
        "reception_time": "2022-01-20T06:07:56.561-00:00",
        "included_in_blocks":
          [ "BMToBftMcsg5PVAG1Rm5qH5x3fYVxB68M3Lw8GprXG6TJQ9TWRE" ] },
      { "delegate": "tz1WBfwbT66FC6BTLexc2BoyCCBM9LG7pnVW",
        "reception_time": "2022-01-20T06:07:56.564-00:00",
        "included_in_blocks":
          [ "BMToBftMcsg5PVAG1Rm5qH5x3fYVxB68M3Lw8GprXG6TJQ9TWRE" ] },
      { "delegate": "tz1WctSwL49BZtdWAQ75NY6vr4xsAx6oKdah",
        "reception_time": "2022-01-20T06:07:56.574-00:00",
        "included_in_blocks":
          [ "BMToBftMcsg5PVAG1Rm5qH5x3fYVxB68M3Lw8GprXG6TJQ9TWRE" ] },
      { "delegate": "tz1T7duV5gZWSTq4YpBGbXNLTfznCLDrFxvs",
        "reception_time": "2022-01-20T06:07:56.645-00:00",
        "included_in_blocks":
          [ "BMToBftMcsg5PVAG1Rm5qH5x3fYVxB68M3Lw8GprXG6TJQ9TWRE" ] },
      { "delegate": "tz2FCNBrERXtaTtNX6iimR1UJ5JSDxvdHM93",
        "reception_time": "2022-01-20T06:07:56.649-00:00",
        "included_in_blocks":
          [ "BMToBftMcsg5PVAG1Rm5qH5x3fYVxB68M3Lw8GprXG6TJQ9TWRE" ] },
      { "delegate": "tz1fwnfJNgiDACshK9avfRfFbMaXrs3ghoJa",
        "reception_time": "2022-01-20T06:07:56.761-00:00",
        "included_in_blocks":
          [ "BMToBftMcsg5PVAG1Rm5qH5x3fYVxB68M3Lw8GprXG6TJQ9TWRE" ] },
      { "delegate": "tz1PeZx7FXy7QRuMREGXGxeipb24RsMMzUNe",
        "reception_time": "2022-01-20T06:07:56.805-00:00",
        "included_in_blocks":
          [ "BMToBftMcsg5PVAG1Rm5qH5x3fYVxB68M3Lw8GprXG6TJQ9TWRE" ] },
      { "delegate": "tz1cYufsxHXJcvANhvS55h3aY32a9BAFB494",
        "reception_time": "2022-01-20T06:07:56.826-00:00",
        "included_in_blocks":
          [ "BMToBftMcsg5PVAG1Rm5qH5x3fYVxB68M3Lw8GprXG6TJQ9TWRE" ] },
      { "delegate": "tz1TRqbYbUf2GyrjErf3hBzgBJPzW8y36qEs",
        "reception_time": "2022-01-20T06:07:57.120-00:00",
        "included_in_blocks":
          [ "BMToBftMcsg5PVAG1Rm5qH5x3fYVxB68M3Lw8GprXG6TJQ9TWRE" ] },
      { "delegate": "tz3WMqdzXqRWXwyvj5Hp2H7QEepaUuS7vd9K",
        "reception_time": "2022-01-20T06:07:57.203-00:00",
        "included_in_blocks":
          [ "BMToBftMcsg5PVAG1Rm5qH5x3fYVxB68M3Lw8GprXG6TJQ9TWRE" ] },
      { "delegate": "tz1LnWa4AiFCjMezTgSNa65QFoo7DQGEWgEU",
        "reception_time": "2022-01-20T06:07:57.239-00:00",
        "included_in_blocks":
          [ "BMToBftMcsg5PVAG1Rm5qH5x3fYVxB68M3Lw8GprXG6TJQ9TWRE" ] },
      { "delegate": "tz1TcH4Nb3aHNDJ7CGZhU7jgAK1BkSP4Lxds",
        "reception_time": "2022-01-20T06:07:57.381-00:00",
        "included_in_blocks":
          [ "BMToBftMcsg5PVAG1Rm5qH5x3fYVxB68M3Lw8GprXG6TJQ9TWRE" ] },
      { "delegate": "tz1SYq214SCBy9naR6cvycQsYcUGpBqQAE8d",
        "reception_time": "2022-01-20T06:07:57.394-00:00",
        "included_in_blocks":
          [ "BMToBftMcsg5PVAG1Rm5qH5x3fYVxB68M3Lw8GprXG6TJQ9TWRE" ] },
      { "delegate": "tz3UoffC7FG7zfpmvmjUmUeAaHvzdcUvAj6r",
        "reception_time": "2022-01-20T06:07:57.863-00:00",
        "included_in_blocks":
          [ "BMToBftMcsg5PVAG1Rm5qH5x3fYVxB68M3Lw8GprXG6TJQ9TWRE" ] },
      { "delegate": "tz1ZcTRk5uxD86EFEn1vvNffWWqJy7q5eVhc",
        "reception_time": "2022-01-20T06:07:57.885-00:00",
        "included_in_blocks":
          [ "BMToBftMcsg5PVAG1Rm5qH5x3fYVxB68M3Lw8GprXG6TJQ9TWRE" ] },
      { "delegate": "tz3gLTu4Yxj8tPAcriQVUdxv6BY9QyvzU1az",
        "reception_time": "2022-01-20T06:07:57.892-00:00",
        "included_in_blocks":
          [ "BMToBftMcsg5PVAG1Rm5qH5x3fYVxB68M3Lw8GprXG6TJQ9TWRE" ] },
      { "delegate": "tz3NDpRj6WBrJPikcPVHRBEjWKxFw3c6eQPS",
        "reception_time": "2022-01-20T06:07:57.898-00:00",
        "included_in_blocks":
          [ "BMToBftMcsg5PVAG1Rm5qH5x3fYVxB68M3Lw8GprXG6TJQ9TWRE" ] },
      { "delegate": "tz3RDC3Jdn4j15J7bBHZd29EUee9gVB1CxD9",
        "reception_time": "2022-01-20T06:07:57.908-00:00",
        "included_in_blocks":
          [ "BMToBftMcsg5PVAG1Rm5qH5x3fYVxB68M3Lw8GprXG6TJQ9TWRE" ] },
      { "delegate": "tz3VEZ4k6a4Wx42iyev6i2aVAptTRLEAivNN",
        "reception_time": "2022-01-20T06:07:57.914-00:00",
        "included_in_blocks":
          [ "BMToBftMcsg5PVAG1Rm5qH5x3fYVxB68M3Lw8GprXG6TJQ9TWRE" ] },
      { "delegate": "tz1Xsrfv6hn86fp88YfRs6xcKwt2nTqxVZYM",
        "reception_time": "2022-01-20T06:07:58.028-00:00",
        "included_in_blocks":
          [ "BMToBftMcsg5PVAG1Rm5qH5x3fYVxB68M3Lw8GprXG6TJQ9TWRE" ] },
      { "delegate": "tz3RB4aoyjov4KEVRbuhvQ1CKJgBJMWhaeB8",
        "reception_time": "2022-01-20T06:07:58.059-00:00",
        "included_in_blocks":
          [ "BMToBftMcsg5PVAG1Rm5qH5x3fYVxB68M3Lw8GprXG6TJQ9TWRE" ] },
      { "delegate": "tz3bvNMQ95vfAYtG8193ymshqjSvmxiCUuR5",
        "reception_time": "2022-01-20T06:07:58.113-00:00",
        "included_in_blocks":
          [ "BMToBftMcsg5PVAG1Rm5qH5x3fYVxB68M3Lw8GprXG6TJQ9TWRE" ] },
      { "delegate": "tz1M1gA1hgmmLf8VvtAwupbWCkaciQZMFbvi",
        "reception_time": "2022-01-20T06:07:58.523-00:00",
        "included_in_blocks":
          [ "BMToBftMcsg5PVAG1Rm5qH5x3fYVxB68M3Lw8GprXG6TJQ9TWRE" ] },
      { "delegate": "tz3NExpXn9aPNZPorRE4SdjJ2RGrfbJgMAaV",
        "reception_time": "2022-01-20T06:07:58.530-00:00",
        "included_in_blocks":
          [ "BMToBftMcsg5PVAG1Rm5qH5x3fYVxB68M3Lw8GprXG6TJQ9TWRE" ] },
      { "delegate": "tz1bTpviNnyx2PXsNmGpCQTMQsGoYordkUoA",
        "reception_time": "2022-01-20T06:07:58.629-00:00",
        "included_in_blocks":
          [ "BMToBftMcsg5PVAG1Rm5qH5x3fYVxB68M3Lw8GprXG6TJQ9TWRE" ] },
      { "delegate": "tz1aJS7Pk9uWR3wWyFf1i3RwhYxN84G7stom",
        "reception_time": "2022-01-20T06:07:58.666-00:00",
        "included_in_blocks":
          [ "BMToBftMcsg5PVAG1Rm5qH5x3fYVxB68M3Lw8GprXG6TJQ9TWRE" ] },
      { "delegate": "tz1aRoaRhSpRYvFdyvgWLL6TGyRoGF51wDjM",
        "reception_time": "2022-01-20T06:08:00.243-00:00",
        "included_in_blocks":
          [ "BMToBftMcsg5PVAG1Rm5qH5x3fYVxB68M3Lw8GprXG6TJQ9TWRE" ] },
      { "delegate": "tz1g8vkmcde6sWKaG2NN9WKzCkDM6Rziq194",
        "reception_time": "2022-01-20T06:08:00.375-00:00",
        "included_in_blocks":
          [ "BMToBftMcsg5PVAG1Rm5qH5x3fYVxB68M3Lw8GprXG6TJQ9TWRE" ] },
      { "delegate": "tz1QccGQsmt7WMnbVX9inJQgEuQGeMXddfjp",
        "reception_time": "2022-01-20T06:08:02.099-00:00",
        "included_in_blocks":
          [ "BMToBftMcsg5PVAG1Rm5qH5x3fYVxB68M3Lw8GprXG6TJQ9TWRE" ] },
      { "delegate": "tz1NpWrAyDL9k2Lmnyxcgr9xuJakbBxdq7FB",
        "reception_time": "2022-01-20T06:08:07.158-00:00",
        "included_in_blocks":
          [ "BMToBftMcsg5PVAG1Rm5qH5x3fYVxB68M3Lw8GprXG6TJQ9TWRE" ] } ] }