{ "blocks":
    [ { "hash": "BLhMnmtUdd9AAyH5UsSTUcDiYC1MHWCC3pLh6SmUVvkxFKowu3S",
        "delegate": "tz3QCNyySViKHmeSr45kzDxzchys7NiXCWoa",
        "reception_time": "2022-01-20T17:27:25.050-00:00",
        "timestamp": "2022-01-20T17:27:10Z" } ],
  "endorsements":
    [ { "delegate": "tz1cSj7fTex3JPd1p1LN1fwek6AV1kH93Wwc",
        "reception_time": "2022-01-20T17:27:24.926-00:00",
        "errors":
          [ { "kind": "temporary",
              "id": "proto.011-PtHangz2.prefilter.outdated_endorsement" } ],
        "included_in_blocks":
          [ "BLf6eYHfq9uo7odLvvXqjEM28gUhoTwY2SymoyeZ9e4rT1uBHCD" ] },
      { "delegate": "tz1eEnQhbwf6trb8Q8mPb2RaPkNk2rN7BKi8",
        "reception_time": "2022-01-20T17:27:24.916-00:00",
        "errors":
          [ { "kind": "temporary",
              "id": "proto.011-PtHangz2.prefilter.outdated_endorsement" } ],
        "included_in_blocks":
          [ "BLf6eYHfq9uo7odLvvXqjEM28gUhoTwY2SymoyeZ9e4rT1uBHCD" ] },
      { "delegate": "tz1irJKkXS2DBWkU1NnmFQx1c1L7pbGg4yhk",
        "reception_time": "2022-01-20T17:27:24.647-00:00",
        "errors":
          [ { "kind": "temporary",
              "id": "proto.011-PtHangz2.prefilter.outdated_endorsement" } ],
        "included_in_blocks":
          [ "BLf6eYHfq9uo7odLvvXqjEM28gUhoTwY2SymoyeZ9e4rT1uBHCD" ] },
      { "delegate": "tz1P2Po7YM526ughEsRbY4oR9zaUPDZjxFrb",
        "reception_time": "2022-01-20T17:27:24.595-00:00",
        "errors":
          [ { "kind": "temporary",
              "id": "proto.011-PtHangz2.prefilter.outdated_endorsement" } ],
        "included_in_blocks":
          [ "BLf6eYHfq9uo7odLvvXqjEM28gUhoTwY2SymoyeZ9e4rT1uBHCD" ] },
      { "delegate": "tz1MXFrtZoaXckE41bjUCSjAjAap3AFDSr3N",
        "reception_time": "2022-01-20T17:27:24.578-00:00",
        "errors":
          [ { "kind": "temporary",
              "id": "proto.011-PtHangz2.prefilter.outdated_endorsement" } ],
        "included_in_blocks":
          [ "BLf6eYHfq9uo7odLvvXqjEM28gUhoTwY2SymoyeZ9e4rT1uBHCD" ] },
      { "delegate": "tz1Ldzz6k1BHdhuKvAtMRX7h5kJSMHESMHLC",
        "reception_time": "2022-01-20T17:27:24.526-00:00",
        "errors":
          [ { "kind": "temporary",
              "id": "proto.011-PtHangz2.prefilter.outdated_endorsement" } ],
        "included_in_blocks":
          [ "BLf6eYHfq9uo7odLvvXqjEM28gUhoTwY2SymoyeZ9e4rT1uBHCD" ] },
      { "delegate": "tz1VQnqCCqX4K5sP3FNkVSNKTdCAMJDd3E1n",
        "reception_time": "2022-01-20T17:27:24.511-00:00",
        "errors":
          [ { "kind": "temporary",
              "id": "proto.011-PtHangz2.prefilter.outdated_endorsement" } ],
        "included_in_blocks":
          [ "BLf6eYHfq9uo7odLvvXqjEM28gUhoTwY2SymoyeZ9e4rT1uBHCD" ] },
      { "delegate": "tz1gUNyn3hmnEWqkusWPzxRaon1cs7ndWh7h",
        "reception_time": "2022-01-20T17:27:24.487-00:00",
        "errors":
          [ { "kind": "temporary",
              "id": "proto.011-PtHangz2.prefilter.outdated_endorsement" } ],
        "included_in_blocks":
          [ "BLf6eYHfq9uo7odLvvXqjEM28gUhoTwY2SymoyeZ9e4rT1uBHCD" ] },
      { "delegate": "tz1Kt4P8BCaP93AEV4eA7gmpRryWt5hznjCP",
        "reception_time": "2022-01-20T17:27:24.331-00:00",
        "errors":
          [ { "kind": "temporary",
              "id": "proto.011-PtHangz2.prefilter.outdated_endorsement" } ],
        "included_in_blocks":
          [ "BLf6eYHfq9uo7odLvvXqjEM28gUhoTwY2SymoyeZ9e4rT1uBHCD" ] },
      { "delegate": "tz1Scdr2HsZiQjc7bHMeBbmDRXYVvdhjJbBh",
        "reception_time": "2022-01-20T17:27:24.241-00:00",
        "errors":
          [ { "kind": "temporary",
              "id": "proto.011-PtHangz2.prefilter.outdated_endorsement" } ],
        "included_in_blocks":
          [ "BLf6eYHfq9uo7odLvvXqjEM28gUhoTwY2SymoyeZ9e4rT1uBHCD" ] },
      { "delegate": "tz1Zhv3RkfU2pHrmaiDyxp7kFZpZrUCu1CiF",
        "reception_time": "2022-01-20T17:27:23.693-00:00",
        "errors":
          [ { "kind": "temporary",
              "id": "proto.011-PtHangz2.prefilter.outdated_endorsement" } ],
        "included_in_blocks":
          [ "BLf6eYHfq9uo7odLvvXqjEM28gUhoTwY2SymoyeZ9e4rT1uBHCD" ] },
      { "delegate": "tz1S8e9GgdZG78XJRB3NqabfWeM37GnhZMWQ",
        "reception_time": "2022-01-20T17:27:23.162-00:00",
        "errors":
          [ { "kind": "temporary",
              "id": "proto.011-PtHangz2.prefilter.outdated_endorsement" } ],
        "included_in_blocks":
          [ "BLf6eYHfq9uo7odLvvXqjEM28gUhoTwY2SymoyeZ9e4rT1uBHCD" ] },
      { "delegate": "tz1RjoHc98dBoqaH2jawF62XNKh7YsHwbkEv" },
      { "delegate": "tz1awXW7wuXy21c66vBudMXQVAPgRnqqwgTH" },
      { "delegate": "tz1WCd2jm4uSt4vntk4vSuUWoZQGhLcDuR9q",
        "reception_time": "2022-01-20T17:27:28.090-00:00",
        "included_in_blocks":
          [ "BLf6eYHfq9uo7odLvvXqjEM28gUhoTwY2SymoyeZ9e4rT1uBHCD" ] },
      { "delegate": "tz1d6Fx42mYgVFnHUW8T8A7WBfJ6nD9pVok8",
        "reception_time": "2022-01-20T17:27:28.090-00:00",
        "included_in_blocks":
          [ "BLf6eYHfq9uo7odLvvXqjEM28gUhoTwY2SymoyeZ9e4rT1uBHCD" ] },
      { "delegate": "tz1ei4WtWEMEJekSv8qDnu9PExG6Q8HgRGr3",
        "reception_time": "2022-01-20T17:27:28.090-00:00",
        "included_in_blocks":
          [ "BLf6eYHfq9uo7odLvvXqjEM28gUhoTwY2SymoyeZ9e4rT1uBHCD" ] },
      { "delegate": "tz1TzaNn7wSQSP5gYPXCnNzBCpyMiidCq1PX",
        "reception_time": "2022-01-20T17:27:28.090-00:00",
        "included_in_blocks":
          [ "BLf6eYHfq9uo7odLvvXqjEM28gUhoTwY2SymoyeZ9e4rT1uBHCD" ] },
      { "delegate": "tz1PWCDnz783NNGGQjEFFsHtrcK5yBW4E2rm",
        "reception_time": "2022-01-20T17:27:28.090-00:00",
        "included_in_blocks":
          [ "BLf6eYHfq9uo7odLvvXqjEM28gUhoTwY2SymoyeZ9e4rT1uBHCD" ] },
      { "delegate": "tz3Zhs2dygr55yHyQyKjntAtY9bgfhLZ4Xj1",
        "reception_time": "2022-01-20T17:27:28.090-00:00",
        "included_in_blocks":
          [ "BLf6eYHfq9uo7odLvvXqjEM28gUhoTwY2SymoyeZ9e4rT1uBHCD" ] },
      { "delegate": "tz3S6BBeKgJGXxvLyZ1xzXzMPn11nnFtq5L9",
        "reception_time": "2022-01-20T17:27:28.090-00:00",
        "included_in_blocks":
          [ "BLf6eYHfq9uo7odLvvXqjEM28gUhoTwY2SymoyeZ9e4rT1uBHCD" ] },
      { "delegate": "tz3QSGPoRp3Kn7n3vY24eYeu3Peuqo45LQ4D",
        "reception_time": "2022-01-20T17:27:28.090-00:00",
        "included_in_blocks":
          [ "BLf6eYHfq9uo7odLvvXqjEM28gUhoTwY2SymoyeZ9e4rT1uBHCD" ] },
      { "delegate": "tz1TEc75UKXv4W5cwi14Na3NtqFD51yKQi7h",
        "reception_time": "2022-01-20T17:27:28.090-00:00",
        "included_in_blocks":
          [ "BLf6eYHfq9uo7odLvvXqjEM28gUhoTwY2SymoyeZ9e4rT1uBHCD" ] },
      { "delegate": "tz1MJx9vhaNRSimcuXPK2rW4fLccQnDAnVKJ",
        "reception_time": "2022-01-20T17:27:28.090-00:00",
        "included_in_blocks":
          [ "BLf6eYHfq9uo7odLvvXqjEM28gUhoTwY2SymoyeZ9e4rT1uBHCD" ] },
      { "delegate": "tz1dNVDWPf3Q59SdJqnjdnu277iyvReiRS9M",
        "reception_time": "2022-01-20T17:27:28.090-00:00",
        "included_in_blocks":
          [ "BLf6eYHfq9uo7odLvvXqjEM28gUhoTwY2SymoyeZ9e4rT1uBHCD" ] },
      { "delegate": "tz1LnWa4AiFCjMezTgSNa65QFoo7DQGEWgEU",
        "reception_time": "2022-01-20T17:27:28.090-00:00",
        "included_in_blocks":
          [ "BLf6eYHfq9uo7odLvvXqjEM28gUhoTwY2SymoyeZ9e4rT1uBHCD" ] },
      { "delegate": "tz3QT9dHYKDqh563chVa6za8526ys1UKfRfL",
        "reception_time": "2022-01-20T17:27:28.090-00:00",
        "included_in_blocks":
          [ "BLf6eYHfq9uo7odLvvXqjEM28gUhoTwY2SymoyeZ9e4rT1uBHCD" ] },
      { "delegate": "tz1ZPh7XfUaJXUDvkrBxmS1BjEM1i62hiPpM",
        "reception_time": "2022-01-20T17:27:28.090-00:00",
        "included_in_blocks":
          [ "BLf6eYHfq9uo7odLvvXqjEM28gUhoTwY2SymoyeZ9e4rT1uBHCD" ] },
      { "delegate": "tz3ZbP2pM3nwvXztbuMJwJnDvV5xdpU8UkkD",
        "reception_time": "2022-01-20T17:27:28.090-00:00",
        "included_in_blocks":
          [ "BLf6eYHfq9uo7odLvvXqjEM28gUhoTwY2SymoyeZ9e4rT1uBHCD" ] },
      { "delegate": "tz3gtoUxdudfBRcNY7iVdKPHCYYX6xdPpoRS",
        "reception_time": "2022-01-20T17:27:28.090-00:00",
        "included_in_blocks":
          [ "BLf6eYHfq9uo7odLvvXqjEM28gUhoTwY2SymoyeZ9e4rT1uBHCD" ] },
      { "delegate": "tz1Nf6tsK4G6bBqgSQERy4nUtkHNKUVdh7q1",
        "reception_time": "2022-01-20T17:27:28.090-00:00",
        "included_in_blocks":
          [ "BLf6eYHfq9uo7odLvvXqjEM28gUhoTwY2SymoyeZ9e4rT1uBHCD" ] },
      { "delegate": "tz3e75hU4EhDU3ukyJueh5v6UvEHzGwkg3yC",
        "reception_time": "2022-01-20T17:27:28.090-00:00",
        "included_in_blocks":
          [ "BLf6eYHfq9uo7odLvvXqjEM28gUhoTwY2SymoyeZ9e4rT1uBHCD" ] },
      { "delegate": "tz1gfArv665EUkSg2ojMBzcbfwuPxAvqPvjo",
        "reception_time": "2022-01-20T17:27:28.090-00:00",
        "included_in_blocks":
          [ "BLf6eYHfq9uo7odLvvXqjEM28gUhoTwY2SymoyeZ9e4rT1uBHCD" ] },
      { "delegate": "tz1TRspM5SeZpaQUhzByXbEvqKF1vnCM2YTK",
        "reception_time": "2022-01-20T17:27:28.090-00:00",
        "included_in_blocks":
          [ "BLf6eYHfq9uo7odLvvXqjEM28gUhoTwY2SymoyeZ9e4rT1uBHCD" ] },
      { "delegate": "tz3RKYFsLuQzKBtmYuLNas7uMu3AsYd4QdsA",
        "reception_time": "2022-01-20T17:27:28.090-00:00",
        "included_in_blocks":
          [ "BLf6eYHfq9uo7odLvvXqjEM28gUhoTwY2SymoyeZ9e4rT1uBHCD" ] },
      { "delegate": "tz1KfEsrtDaA1sX7vdM4qmEPWuSytuqCDp5j",
        "reception_time": "2022-01-20T17:27:28.090-00:00",
        "included_in_blocks":
          [ "BLf6eYHfq9uo7odLvvXqjEM28gUhoTwY2SymoyeZ9e4rT1uBHCD" ] },
      { "delegate": "tz1NEKxGEHsFufk87CVZcrqWu8o22qh46GK6",
        "reception_time": "2022-01-20T17:27:28.090-00:00",
        "included_in_blocks":
          [ "BLf6eYHfq9uo7odLvvXqjEM28gUhoTwY2SymoyeZ9e4rT1uBHCD" ] },
      { "delegate": "tz1MQMiZHV8q4tTwUMWmS5Y3kaP6J2136iXr",
        "reception_time": "2022-01-20T17:27:28.090-00:00",
        "included_in_blocks":
          [ "BLf6eYHfq9uo7odLvvXqjEM28gUhoTwY2SymoyeZ9e4rT1uBHCD" ] },
      { "delegate": "tz3iJu5vrKZcsqRPs8yJ61UDoeEXZmtro4qh",
        "reception_time": "2022-01-20T17:27:28.090-00:00",
        "included_in_blocks":
          [ "BLf6eYHfq9uo7odLvvXqjEM28gUhoTwY2SymoyeZ9e4rT1uBHCD" ] },
      { "delegate": "tz1Tnjaxk6tbAeC2TmMApPh8UsrEVQvhHvx5",
        "reception_time": "2022-01-20T17:27:28.090-00:00",
        "included_in_blocks":
          [ "BLf6eYHfq9uo7odLvvXqjEM28gUhoTwY2SymoyeZ9e4rT1uBHCD" ] },
      { "delegate": "tz3bTdwZinP8U1JmSweNzVKhmwafqWmFWRfk",
        "reception_time": "2022-01-20T17:27:28.090-00:00",
        "included_in_blocks":
          [ "BLf6eYHfq9uo7odLvvXqjEM28gUhoTwY2SymoyeZ9e4rT1uBHCD" ] },
      { "delegate": "tz3RB4aoyjov4KEVRbuhvQ1CKJgBJMWhaeB8",
        "reception_time": "2022-01-20T17:27:28.090-00:00",
        "included_in_blocks":
          [ "BLf6eYHfq9uo7odLvvXqjEM28gUhoTwY2SymoyeZ9e4rT1uBHCD" ] },
      { "delegate": "tz3NxTnke1acr8o3h5y9ytf5awQBGNJUKzVU",
        "reception_time": "2022-01-20T17:27:28.090-00:00",
        "included_in_blocks":
          [ "BLf6eYHfq9uo7odLvvXqjEM28gUhoTwY2SymoyeZ9e4rT1uBHCD" ] },
      { "delegate": "tz1T7duV5gZWSTq4YpBGbXNLTfznCLDrFxvs",
        "reception_time": "2022-01-20T17:27:28.448-00:00",
        "included_in_blocks":
          [ "BLf6eYHfq9uo7odLvvXqjEM28gUhoTwY2SymoyeZ9e4rT1uBHCD" ] },
      { "delegate": "tz1Vd1rXpV8hTHbFXCXN3c3qzCsgcU5BZw1e",
        "reception_time": "2022-01-20T17:27:28.448-00:00",
        "included_in_blocks":
          [ "BLf6eYHfq9uo7odLvvXqjEM28gUhoTwY2SymoyeZ9e4rT1uBHCD" ] },
      { "delegate": "tz3hw2kqXhLUvY65ca1eety2oQTpAvd34R9Q",
        "reception_time": "2022-01-20T17:27:28.448-00:00",
        "included_in_blocks":
          [ "BLf6eYHfq9uo7odLvvXqjEM28gUhoTwY2SymoyeZ9e4rT1uBHCD" ] },
      { "delegate": "tz1SYq214SCBy9naR6cvycQsYcUGpBqQAE8d",
        "reception_time": "2022-01-20T17:27:28.448-00:00",
        "included_in_blocks":
          [ "BLf6eYHfq9uo7odLvvXqjEM28gUhoTwY2SymoyeZ9e4rT1uBHCD" ] },
      { "delegate": "tz1S8MNvuFEUsWgjHvi3AxibRBf388NhT1q2",
        "reception_time": "2022-01-20T17:27:28.448-00:00",
        "included_in_blocks":
          [ "BLf6eYHfq9uo7odLvvXqjEM28gUhoTwY2SymoyeZ9e4rT1uBHCD" ] },
      { "delegate": "tz1QXrzaHrGACVn15UiCg33aLCJ6npWdQb3J",
        "reception_time": "2022-01-20T17:27:28.448-00:00",
        "included_in_blocks":
          [ "BLf6eYHfq9uo7odLvvXqjEM28gUhoTwY2SymoyeZ9e4rT1uBHCD" ] },
      { "delegate": "tz1abmz7jiCV2GH2u81LRrGgAFFgvQgiDiaf",
        "reception_time": "2022-01-20T17:27:28.448-00:00",
        "included_in_blocks":
          [ "BLf6eYHfq9uo7odLvvXqjEM28gUhoTwY2SymoyeZ9e4rT1uBHCD" ] },
      { "delegate": "tz1WctSwL49BZtdWAQ75NY6vr4xsAx6oKdah",
        "reception_time": "2022-01-20T17:27:28.448-00:00",
        "included_in_blocks":
          [ "BLf6eYHfq9uo7odLvvXqjEM28gUhoTwY2SymoyeZ9e4rT1uBHCD" ] },
      { "delegate": "tz1KzSC1J9aBxKp7u8TUnpN8L7S65PBRkgdF",
        "reception_time": "2022-01-20T17:27:28.448-00:00",
        "included_in_blocks":
          [ "BLf6eYHfq9uo7odLvvXqjEM28gUhoTwY2SymoyeZ9e4rT1uBHCD" ] },
      { "delegate": "tz1WnfXMPaNTBmH7DBPwqCWs9cPDJdkGBTZ8",
        "reception_time": "2022-01-20T17:27:28.448-00:00",
        "included_in_blocks":
          [ "BLf6eYHfq9uo7odLvvXqjEM28gUhoTwY2SymoyeZ9e4rT1uBHCD" ] },
      { "delegate": "tz1RCFbB9GpALpsZtu6J58sb74dm8qe6XBzv",
        "reception_time": "2022-01-20T17:27:28.448-00:00",
        "included_in_blocks":
          [ "BLf6eYHfq9uo7odLvvXqjEM28gUhoTwY2SymoyeZ9e4rT1uBHCD" ] },
      { "delegate": "tz1YhNsiRRU8aHNGg7NK3uuP6UDAyacJernB",
        "reception_time": "2022-01-20T17:27:28.448-00:00",
        "included_in_blocks":
          [ "BLf6eYHfq9uo7odLvvXqjEM28gUhoTwY2SymoyeZ9e4rT1uBHCD" ] },
      { "delegate": "tz3WMqdzXqRWXwyvj5Hp2H7QEepaUuS7vd9K",
        "reception_time": "2022-01-20T17:27:28.448-00:00",
        "included_in_blocks":
          [ "BLf6eYHfq9uo7odLvvXqjEM28gUhoTwY2SymoyeZ9e4rT1uBHCD" ] },
      { "delegate": "tz2FCNBrERXtaTtNX6iimR1UJ5JSDxvdHM93",
        "reception_time": "2022-01-20T17:27:29.046-00:00",
        "included_in_blocks":
          [ "BLf6eYHfq9uo7odLvvXqjEM28gUhoTwY2SymoyeZ9e4rT1uBHCD" ] },
      { "delegate": "tz3RDC3Jdn4j15J7bBHZd29EUee9gVB1CxD9",
        "reception_time": "2022-01-20T17:27:29.046-00:00",
        "included_in_blocks":
          [ "BLf6eYHfq9uo7odLvvXqjEM28gUhoTwY2SymoyeZ9e4rT1uBHCD" ] },
      { "delegate": "tz1h4GUAMweP7SNWzDgvMk3yRCAZyaP1MxZq",
        "reception_time": "2022-01-20T17:27:29.046-00:00",
        "included_in_blocks":
          [ "BLf6eYHfq9uo7odLvvXqjEM28gUhoTwY2SymoyeZ9e4rT1uBHCD" ] },
      { "delegate": "tz1ZcTRk5uxD86EFEn1vvNffWWqJy7q5eVhc",
        "reception_time": "2022-01-20T17:27:29.046-00:00",
        "included_in_blocks":
          [ "BLf6eYHfq9uo7odLvvXqjEM28gUhoTwY2SymoyeZ9e4rT1uBHCD" ] },
      { "delegate": "tz3NDpRj6WBrJPikcPVHRBEjWKxFw3c6eQPS",
        "reception_time": "2022-01-20T17:27:29.046-00:00",
        "included_in_blocks":
          [ "BLf6eYHfq9uo7odLvvXqjEM28gUhoTwY2SymoyeZ9e4rT1uBHCD" ] },
      { "delegate": "tz3bvNMQ95vfAYtG8193ymshqjSvmxiCUuR5",
        "reception_time": "2022-01-20T17:27:29.244-00:00",
        "included_in_blocks":
          [ "BLf6eYHfq9uo7odLvvXqjEM28gUhoTwY2SymoyeZ9e4rT1uBHCD" ] },
      { "delegate": "tz3VEZ4k6a4Wx42iyev6i2aVAptTRLEAivNN",
        "reception_time": "2022-01-20T17:27:29.352-00:00",
        "included_in_blocks":
          [ "BLf6eYHfq9uo7odLvvXqjEM28gUhoTwY2SymoyeZ9e4rT1uBHCD" ] },
      { "delegate": "tz1TRqbYbUf2GyrjErf3hBzgBJPzW8y36qEs",
        "reception_time": "2022-01-20T17:27:29.386-00:00",
        "included_in_blocks":
          [ "BLf6eYHfq9uo7odLvvXqjEM28gUhoTwY2SymoyeZ9e4rT1uBHCD" ] },
      { "delegate": "tz3UoffC7FG7zfpmvmjUmUeAaHvzdcUvAj6r",
        "reception_time": "2022-01-20T17:27:29.899-00:00",
        "included_in_blocks":
          [ "BLf6eYHfq9uo7odLvvXqjEM28gUhoTwY2SymoyeZ9e4rT1uBHCD" ] },
      { "delegate": "tz3NExpXn9aPNZPorRE4SdjJ2RGrfbJgMAaV",
        "reception_time": "2022-01-20T17:27:29.922-00:00",
        "included_in_blocks":
          [ "BLf6eYHfq9uo7odLvvXqjEM28gUhoTwY2SymoyeZ9e4rT1uBHCD" ] },
      { "delegate": "tz1aNPWn5jgLBpEGFABKM161eeeLVVJxgYME",
        "reception_time": "2022-01-20T17:27:29.924-00:00",
        "included_in_blocks":
          [ "BLf6eYHfq9uo7odLvvXqjEM28gUhoTwY2SymoyeZ9e4rT1uBHCD" ] },
      { "delegate": "tz1g8vkmcde6sWKaG2NN9WKzCkDM6Rziq194",
        "reception_time": "2022-01-20T17:27:30.841-00:00",
        "included_in_blocks":
          [ "BLf6eYHfq9uo7odLvvXqjEM28gUhoTwY2SymoyeZ9e4rT1uBHCD" ] },
      { "delegate": "tz1aRoaRhSpRYvFdyvgWLL6TGyRoGF51wDjM",
        "reception_time": "2022-01-20T17:27:32.677-00:00",
        "included_in_blocks":
          [ "BLf6eYHfq9uo7odLvvXqjEM28gUhoTwY2SymoyeZ9e4rT1uBHCD" ] },
      { "delegate": "tz1aoKwjRZjqnzdQwXeUtNqBvMWcpLmTk76m",
        "reception_time": "2022-01-20T17:27:32.862-00:00",
        "included_in_blocks":
          [ "BLf6eYHfq9uo7odLvvXqjEM28gUhoTwY2SymoyeZ9e4rT1uBHCD" ] },
      { "delegate": "tz1PFeoTuFen8jAMRHajBySNyCwLmY5RqF9M",
        "reception_time": "2022-01-20T17:27:36.822-00:00",
        "included_in_blocks":
          [ "BLf6eYHfq9uo7odLvvXqjEM28gUhoTwY2SymoyeZ9e4rT1uBHCD" ] },
      { "delegate": "tz1go7f6mEQfT2xX2LuHAqgnRGN6c2zHPf5c",
        "reception_time": "2022-01-20T17:27:42.469-00:00",
        "included_in_blocks":
          [ "BLf6eYHfq9uo7odLvvXqjEM28gUhoTwY2SymoyeZ9e4rT1uBHCD" ] } ] }