{ "blocks":
    [ { "hash": "BLgqYx2orZxynVTSwx65iLoL3HChz9h6z64BTkXbS5iZAPhdMrV",
        "delegate": "tz3NExpXn9aPNZPorRE4SdjJ2RGrfbJgMAaV",
        "reception_time": "2022-01-20T14:07:45.910-00:00",
        "timestamp": "2022-01-20T14:07:30Z" } ],
  "endorsements":
    [ { "delegate": "tz1NpWrAyDL9k2Lmnyxcgr9xuJakbBxdq7FB",
        "reception_time": "2022-01-20T14:08:06.275-00:00" },
      { "delegate": "tz1aRoaRhSpRYvFdyvgWLL6TGyRoGF51wDjM",
        "reception_time": "2022-01-20T14:07:59.038-00:00",
        "included_in_blocks":
          [ "BM9Y154zgLXCQUrydMxQDq7TWxK6SzXv8VLmn3tJdttQX9Ev2rh" ] },
      { "delegate": "tz1PFeoTuFen8jAMRHajBySNyCwLmY5RqF9M",
        "reception_time": "2022-01-20T14:07:58.548-00:00",
        "included_in_blocks":
          [ "BM9Y154zgLXCQUrydMxQDq7TWxK6SzXv8VLmn3tJdttQX9Ev2rh" ] },
      { "delegate": "tz1NoYvKjXTzTk54VpLxBfouJ33J8jwKPPvw",
        "reception_time": "2022-01-20T14:07:51.985-00:00",
        "included_in_blocks":
          [ "BM9Y154zgLXCQUrydMxQDq7TWxK6SzXv8VLmn3tJdttQX9Ev2rh" ] },
      { "delegate": "tz1TRqbYbUf2GyrjErf3hBzgBJPzW8y36qEs",
        "reception_time": "2022-01-20T14:07:51.870-00:00",
        "included_in_blocks":
          [ "BM9Y154zgLXCQUrydMxQDq7TWxK6SzXv8VLmn3tJdttQX9Ev2rh" ] },
      { "delegate": "tz1LmaFsWRkjr7QMCx5PtV6xTUz3AmEpKQiF",
        "reception_time": "2022-01-20T14:07:51.287-00:00",
        "included_in_blocks":
          [ "BM9Y154zgLXCQUrydMxQDq7TWxK6SzXv8VLmn3tJdttQX9Ev2rh" ] },
      { "delegate": "tz1WnfXMPaNTBmH7DBPwqCWs9cPDJdkGBTZ8",
        "reception_time": "2022-01-20T14:07:51.274-00:00",
        "included_in_blocks":
          [ "BM9Y154zgLXCQUrydMxQDq7TWxK6SzXv8VLmn3tJdttQX9Ev2rh" ] },
      { "delegate": "tz1g8vkmcde6sWKaG2NN9WKzCkDM6Rziq194",
        "reception_time": "2022-01-20T14:07:51.255-00:00",
        "included_in_blocks":
          [ "BM9Y154zgLXCQUrydMxQDq7TWxK6SzXv8VLmn3tJdttQX9Ev2rh" ] },
      { "delegate": "tz1cYufsxHXJcvANhvS55h3aY32a9BAFB494",
        "reception_time": "2022-01-20T14:07:51.255-00:00",
        "included_in_blocks":
          [ "BM9Y154zgLXCQUrydMxQDq7TWxK6SzXv8VLmn3tJdttQX9Ev2rh" ] },
      { "delegate": "tz3QT9dHYKDqh563chVa6za8526ys1UKfRfL",
        "reception_time": "2022-01-20T14:07:50.713-00:00",
        "included_in_blocks":
          [ "BM9Y154zgLXCQUrydMxQDq7TWxK6SzXv8VLmn3tJdttQX9Ev2rh" ] },
      { "delegate": "tz2FCNBrERXtaTtNX6iimR1UJ5JSDxvdHM93",
        "reception_time": "2022-01-20T14:07:50.713-00:00",
        "included_in_blocks":
          [ "BM9Y154zgLXCQUrydMxQDq7TWxK6SzXv8VLmn3tJdttQX9Ev2rh" ] },
      { "delegate": "tz3S6BBeKgJGXxvLyZ1xzXzMPn11nnFtq5L9",
        "reception_time": "2022-01-20T14:07:50.713-00:00",
        "included_in_blocks":
          [ "BM9Y154zgLXCQUrydMxQDq7TWxK6SzXv8VLmn3tJdttQX9Ev2rh" ] },
      { "delegate": "tz1PeZx7FXy7QRuMREGXGxeipb24RsMMzUNe",
        "reception_time": "2022-01-20T14:07:50.713-00:00",
        "included_in_blocks":
          [ "BM9Y154zgLXCQUrydMxQDq7TWxK6SzXv8VLmn3tJdttQX9Ev2rh" ] },
      { "delegate": "tz1fwnfJNgiDACshK9avfRfFbMaXrs3ghoJa",
        "reception_time": "2022-01-20T14:07:50.713-00:00",
        "included_in_blocks":
          [ "BM9Y154zgLXCQUrydMxQDq7TWxK6SzXv8VLmn3tJdttQX9Ev2rh" ] },
      { "delegate": "tz3NExpXn9aPNZPorRE4SdjJ2RGrfbJgMAaV",
        "reception_time": "2022-01-20T14:07:50.713-00:00",
        "included_in_blocks":
          [ "BM9Y154zgLXCQUrydMxQDq7TWxK6SzXv8VLmn3tJdttQX9Ev2rh" ] },
      { "delegate": "tz3QCNyySViKHmeSr45kzDxzchys7NiXCWoa",
        "reception_time": "2022-01-20T14:07:50.713-00:00",
        "included_in_blocks":
          [ "BM9Y154zgLXCQUrydMxQDq7TWxK6SzXv8VLmn3tJdttQX9Ev2rh" ] },
      { "delegate": "tz3bvNMQ95vfAYtG8193ymshqjSvmxiCUuR5",
        "reception_time": "2022-01-20T14:07:50.713-00:00",
        "included_in_blocks":
          [ "BM9Y154zgLXCQUrydMxQDq7TWxK6SzXv8VLmn3tJdttQX9Ev2rh" ] },
      { "delegate": "tz3WMqdzXqRWXwyvj5Hp2H7QEepaUuS7vd9K",
        "reception_time": "2022-01-20T14:07:50.713-00:00",
        "included_in_blocks":
          [ "BM9Y154zgLXCQUrydMxQDq7TWxK6SzXv8VLmn3tJdttQX9Ev2rh" ] },
      { "delegate": "tz1QLXqnfN51dkjeghXvKHkJfhvGiM5gK4tc",
        "reception_time": "2022-01-20T14:07:50.713-00:00",
        "included_in_blocks":
          [ "BM9Y154zgLXCQUrydMxQDq7TWxK6SzXv8VLmn3tJdttQX9Ev2rh" ] },
      { "delegate": "tz1gcna2xxZj2eNp1LaMyAhVJ49mEFj4FH26",
        "reception_time": "2022-01-20T14:07:50.713-00:00",
        "included_in_blocks":
          [ "BM9Y154zgLXCQUrydMxQDq7TWxK6SzXv8VLmn3tJdttQX9Ev2rh" ] },
      { "delegate": "tz1T7duV5gZWSTq4YpBGbXNLTfznCLDrFxvs",
        "reception_time": "2022-01-20T14:07:50.713-00:00",
        "included_in_blocks":
          [ "BM9Y154zgLXCQUrydMxQDq7TWxK6SzXv8VLmn3tJdttQX9Ev2rh" ] },
      { "delegate": "tz1abmz7jiCV2GH2u81LRrGgAFFgvQgiDiaf",
        "reception_time": "2022-01-20T14:07:50.713-00:00",
        "included_in_blocks":
          [ "BM9Y154zgLXCQUrydMxQDq7TWxK6SzXv8VLmn3tJdttQX9Ev2rh" ] },
      { "delegate": "tz1RCFbB9GpALpsZtu6J58sb74dm8qe6XBzv",
        "reception_time": "2022-01-20T14:07:50.713-00:00",
        "included_in_blocks":
          [ "BM9Y154zgLXCQUrydMxQDq7TWxK6SzXv8VLmn3tJdttQX9Ev2rh" ] },
      { "delegate": "tz3UoffC7FG7zfpmvmjUmUeAaHvzdcUvAj6r",
        "reception_time": "2022-01-20T14:07:50.713-00:00",
        "included_in_blocks":
          [ "BM9Y154zgLXCQUrydMxQDq7TWxK6SzXv8VLmn3tJdttQX9Ev2rh" ] },
      { "delegate": "tz3VEZ4k6a4Wx42iyev6i2aVAptTRLEAivNN",
        "reception_time": "2022-01-20T14:07:50.713-00:00",
        "included_in_blocks":
          [ "BM9Y154zgLXCQUrydMxQDq7TWxK6SzXv8VLmn3tJdttQX9Ev2rh" ] },
      { "delegate": "tz1iPHM2Xx2hwmzcr1EG1zzrV6oKafVoA91m",
        "reception_time": "2022-01-20T14:07:50.713-00:00",
        "included_in_blocks":
          [ "BM9Y154zgLXCQUrydMxQDq7TWxK6SzXv8VLmn3tJdttQX9Ev2rh" ] },
      { "delegate": "tz1WctSwL49BZtdWAQ75NY6vr4xsAx6oKdah",
        "reception_time": "2022-01-20T14:07:50.713-00:00",
        "included_in_blocks":
          [ "BM9Y154zgLXCQUrydMxQDq7TWxK6SzXv8VLmn3tJdttQX9Ev2rh" ] },
      { "delegate": "tz1S8MNvuFEUsWgjHvi3AxibRBf388NhT1q2",
        "reception_time": "2022-01-20T14:07:50.713-00:00",
        "included_in_blocks":
          [ "BM9Y154zgLXCQUrydMxQDq7TWxK6SzXv8VLmn3tJdttQX9Ev2rh" ] },
      { "delegate": "tz1UMCB2AHSTwG7YcGNr31CqYCtGN873royv",
        "reception_time": "2022-01-20T14:07:50.713-00:00",
        "included_in_blocks":
          [ "BM9Y154zgLXCQUrydMxQDq7TWxK6SzXv8VLmn3tJdttQX9Ev2rh" ] },
      { "delegate": "tz1WBfwbT66FC6BTLexc2BoyCCBM9LG7pnVW",
        "reception_time": "2022-01-20T14:07:50.713-00:00",
        "included_in_blocks":
          [ "BM9Y154zgLXCQUrydMxQDq7TWxK6SzXv8VLmn3tJdttQX9Ev2rh" ] },
      { "delegate": "tz3RB4aoyjov4KEVRbuhvQ1CKJgBJMWhaeB8",
        "reception_time": "2022-01-20T14:07:50.713-00:00",
        "included_in_blocks":
          [ "BM9Y154zgLXCQUrydMxQDq7TWxK6SzXv8VLmn3tJdttQX9Ev2rh" ] },
      { "delegate": "tz3bTdwZinP8U1JmSweNzVKhmwafqWmFWRfk",
        "reception_time": "2022-01-20T14:07:50.713-00:00",
        "included_in_blocks":
          [ "BM9Y154zgLXCQUrydMxQDq7TWxK6SzXv8VLmn3tJdttQX9Ev2rh" ] },
      { "delegate": "tz1Tnjaxk6tbAeC2TmMApPh8UsrEVQvhHvx5",
        "reception_time": "2022-01-20T14:07:50.713-00:00",
        "included_in_blocks":
          [ "BM9Y154zgLXCQUrydMxQDq7TWxK6SzXv8VLmn3tJdttQX9Ev2rh" ] },
      { "delegate": "tz1fPKAtsYydh4f1wfWNfeNxWYu72TmM48fu",
        "reception_time": "2022-01-20T14:07:50.713-00:00",
        "included_in_blocks":
          [ "BM9Y154zgLXCQUrydMxQDq7TWxK6SzXv8VLmn3tJdttQX9Ev2rh" ] },
      { "delegate": "tz1dRKU4FQ9QRRQPdaH4zCR6gmCmXfcvcgtB",
        "reception_time": "2022-01-20T14:07:50.713-00:00",
        "included_in_blocks":
          [ "BM9Y154zgLXCQUrydMxQDq7TWxK6SzXv8VLmn3tJdttQX9Ev2rh" ] },
      { "delegate": "tz1dNVDWPf3Q59SdJqnjdnu277iyvReiRS9M",
        "reception_time": "2022-01-20T14:07:50.713-00:00",
        "included_in_blocks":
          [ "BM9Y154zgLXCQUrydMxQDq7TWxK6SzXv8VLmn3tJdttQX9Ev2rh" ] },
      { "delegate": "tz1TEc75UKXv4W5cwi14Na3NtqFD51yKQi7h",
        "reception_time": "2022-01-20T14:07:50.713-00:00",
        "included_in_blocks":
          [ "BM9Y154zgLXCQUrydMxQDq7TWxK6SzXv8VLmn3tJdttQX9Ev2rh" ] },
      { "delegate": "tz1dwu9aYb7CRNq4Y2zAjipdjFuSVKhHS8vA",
        "reception_time": "2022-01-20T14:07:50.713-00:00",
        "included_in_blocks":
          [ "BM9Y154zgLXCQUrydMxQDq7TWxK6SzXv8VLmn3tJdttQX9Ev2rh" ] },
      { "delegate": "tz3RKYFsLuQzKBtmYuLNas7uMu3AsYd4QdsA",
        "reception_time": "2022-01-20T14:07:50.713-00:00",
        "included_in_blocks":
          [ "BM9Y154zgLXCQUrydMxQDq7TWxK6SzXv8VLmn3tJdttQX9Ev2rh" ] },
      { "delegate": "tz1WvL7MKyCuUHfC3FxPFyiXcy8hHTBT3vjE",
        "reception_time": "2022-01-20T14:07:50.713-00:00",
        "included_in_blocks":
          [ "BM9Y154zgLXCQUrydMxQDq7TWxK6SzXv8VLmn3tJdttQX9Ev2rh" ] },
      { "delegate": "tz1gfArv665EUkSg2ojMBzcbfwuPxAvqPvjo",
        "reception_time": "2022-01-20T14:07:50.713-00:00",
        "included_in_blocks":
          [ "BM9Y154zgLXCQUrydMxQDq7TWxK6SzXv8VLmn3tJdttQX9Ev2rh" ] },
      { "delegate": "tz1TRspM5SeZpaQUhzByXbEvqKF1vnCM2YTK",
        "reception_time": "2022-01-20T14:07:50.713-00:00",
        "included_in_blocks":
          [ "BM9Y154zgLXCQUrydMxQDq7TWxK6SzXv8VLmn3tJdttQX9Ev2rh" ] },
      { "delegate": "tz3gtoUxdudfBRcNY7iVdKPHCYYX6xdPpoRS",
        "reception_time": "2022-01-20T14:07:50.713-00:00",
        "included_in_blocks":
          [ "BM9Y154zgLXCQUrydMxQDq7TWxK6SzXv8VLmn3tJdttQX9Ev2rh" ] },
      { "delegate": "tz3NxTnke1acr8o3h5y9ytf5awQBGNJUKzVU",
        "reception_time": "2022-01-20T14:07:50.713-00:00",
        "included_in_blocks":
          [ "BM9Y154zgLXCQUrydMxQDq7TWxK6SzXv8VLmn3tJdttQX9Ev2rh" ] },
      { "delegate": "tz1KfEsrtDaA1sX7vdM4qmEPWuSytuqCDp5j",
        "reception_time": "2022-01-20T14:07:50.713-00:00",
        "included_in_blocks":
          [ "BM9Y154zgLXCQUrydMxQDq7TWxK6SzXv8VLmn3tJdttQX9Ev2rh" ] },
      { "delegate": "tz3ZbP2pM3nwvXztbuMJwJnDvV5xdpU8UkkD",
        "reception_time": "2022-01-20T14:07:50.713-00:00",
        "included_in_blocks":
          [ "BM9Y154zgLXCQUrydMxQDq7TWxK6SzXv8VLmn3tJdttQX9Ev2rh" ] },
      { "delegate": "tz3RDC3Jdn4j15J7bBHZd29EUee9gVB1CxD9",
        "reception_time": "2022-01-20T14:07:50.713-00:00",
        "included_in_blocks":
          [ "BM9Y154zgLXCQUrydMxQDq7TWxK6SzXv8VLmn3tJdttQX9Ev2rh" ] },
      { "delegate": "tz3iJu5vrKZcsqRPs8yJ61UDoeEXZmtro4qh",
        "reception_time": "2022-01-20T14:07:50.380-00:00",
        "included_in_blocks":
          [ "BM9Y154zgLXCQUrydMxQDq7TWxK6SzXv8VLmn3tJdttQX9Ev2rh" ] },
      { "delegate": "tz1beersuEDv8Z7ngQ825xfbaJNS2EhXnyHR",
        "reception_time": "2022-01-20T14:07:50.380-00:00",
        "included_in_blocks":
          [ "BM9Y154zgLXCQUrydMxQDq7TWxK6SzXv8VLmn3tJdttQX9Ev2rh" ] },
      { "delegate": "tz3Zhs2dygr55yHyQyKjntAtY9bgfhLZ4Xj1",
        "reception_time": "2022-01-20T14:07:50.380-00:00",
        "included_in_blocks":
          [ "BM9Y154zgLXCQUrydMxQDq7TWxK6SzXv8VLmn3tJdttQX9Ev2rh" ] },
      { "delegate": "tz1UJvHTgpVzcKWhTazGxVcn5wsHru5Gietg",
        "reception_time": "2022-01-20T14:07:50.380-00:00",
        "included_in_blocks":
          [ "BM9Y154zgLXCQUrydMxQDq7TWxK6SzXv8VLmn3tJdttQX9Ev2rh" ] },
      { "delegate": "tz3hw2kqXhLUvY65ca1eety2oQTpAvd34R9Q",
        "reception_time": "2022-01-20T14:07:50.380-00:00",
        "included_in_blocks":
          [ "BM9Y154zgLXCQUrydMxQDq7TWxK6SzXv8VLmn3tJdttQX9Ev2rh" ] },
      { "delegate": "tz1PWCDnz783NNGGQjEFFsHtrcK5yBW4E2rm",
        "reception_time": "2022-01-20T14:07:50.380-00:00",
        "included_in_blocks":
          [ "BM9Y154zgLXCQUrydMxQDq7TWxK6SzXv8VLmn3tJdttQX9Ev2rh" ] },
      { "delegate": "tz1d6Fx42mYgVFnHUW8T8A7WBfJ6nD9pVok8",
        "reception_time": "2022-01-20T14:07:50.380-00:00",
        "included_in_blocks":
          [ "BM9Y154zgLXCQUrydMxQDq7TWxK6SzXv8VLmn3tJdttQX9Ev2rh" ] },
      { "delegate": "tz1WCd2jm4uSt4vntk4vSuUWoZQGhLcDuR9q",
        "reception_time": "2022-01-20T14:07:50.380-00:00",
        "included_in_blocks":
          [ "BM9Y154zgLXCQUrydMxQDq7TWxK6SzXv8VLmn3tJdttQX9Ev2rh" ] },
      { "delegate": "tz1TzaNn7wSQSP5gYPXCnNzBCpyMiidCq1PX",
        "reception_time": "2022-01-20T14:07:50.380-00:00",
        "included_in_blocks":
          [ "BM9Y154zgLXCQUrydMxQDq7TWxK6SzXv8VLmn3tJdttQX9Ev2rh" ] },
      { "delegate": "tz1bsdrs36X5BTH83RHUBdUouKLJZK8d2oBa",
        "reception_time": "2022-01-20T14:07:50.380-00:00",
        "included_in_blocks":
          [ "BM9Y154zgLXCQUrydMxQDq7TWxK6SzXv8VLmn3tJdttQX9Ev2rh" ] },
      { "delegate": "tz1ajgycuHmd2z2JbTSJxKv7x6cok2KuNSk1",
        "reception_time": "2022-01-20T14:07:50.380-00:00",
        "included_in_blocks":
          [ "BM9Y154zgLXCQUrydMxQDq7TWxK6SzXv8VLmn3tJdttQX9Ev2rh" ] },
      { "delegate": "tz1MivraUX9U6nmGAQkm7XkrNVmsPExEUT1W",
        "reception_time": "2022-01-20T14:07:50.380-00:00",
        "included_in_blocks":
          [ "BM9Y154zgLXCQUrydMxQDq7TWxK6SzXv8VLmn3tJdttQX9Ev2rh" ] },
      { "delegate": "tz1Mc61yajNASzh5KWZFtYs4i7EJbzAxQC4K",
        "reception_time": "2022-01-20T14:07:50.380-00:00",
        "included_in_blocks":
          [ "BM9Y154zgLXCQUrydMxQDq7TWxK6SzXv8VLmn3tJdttQX9Ev2rh" ] },
      { "delegate": "tz1Nf6tsK4G6bBqgSQERy4nUtkHNKUVdh7q1",
        "reception_time": "2022-01-20T14:07:50.380-00:00",
        "included_in_blocks":
          [ "BM9Y154zgLXCQUrydMxQDq7TWxK6SzXv8VLmn3tJdttQX9Ev2rh" ] },
      { "delegate": "tz3QSGPoRp3Kn7n3vY24eYeu3Peuqo45LQ4D",
        "reception_time": "2022-01-20T14:07:50.380-00:00",
        "included_in_blocks":
          [ "BM9Y154zgLXCQUrydMxQDq7TWxK6SzXv8VLmn3tJdttQX9Ev2rh" ] },
      { "delegate": "tz1irJKkXS2DBWkU1NnmFQx1c1L7pbGg4yhk",
        "reception_time": "2022-01-20T14:07:50.380-00:00",
        "included_in_blocks":
          [ "BM9Y154zgLXCQUrydMxQDq7TWxK6SzXv8VLmn3tJdttQX9Ev2rh" ] },
      { "delegate": "tz1cSj7fTex3JPd1p1LN1fwek6AV1kH93Wwc",
        "reception_time": "2022-01-20T14:07:50.380-00:00",
        "included_in_blocks":
          [ "BM9Y154zgLXCQUrydMxQDq7TWxK6SzXv8VLmn3tJdttQX9Ev2rh" ] },
      { "delegate": "tz1P2Po7YM526ughEsRbY4oR9zaUPDZjxFrb",
        "reception_time": "2022-01-20T14:07:50.380-00:00",
        "included_in_blocks":
          [ "BM9Y154zgLXCQUrydMxQDq7TWxK6SzXv8VLmn3tJdttQX9Ev2rh" ] },
      { "delegate": "tz1ei4WtWEMEJekSv8qDnu9PExG6Q8HgRGr3",
        "reception_time": "2022-01-20T14:07:50.380-00:00",
        "included_in_blocks":
          [ "BM9Y154zgLXCQUrydMxQDq7TWxK6SzXv8VLmn3tJdttQX9Ev2rh" ] },
      { "delegate": "tz1MGTFJXpQmtxLi8QJ7AuVRgM2L2Qfn9w9i",
        "reception_time": "2022-01-20T14:07:50.380-00:00",
        "included_in_blocks":
          [ "BM9Y154zgLXCQUrydMxQDq7TWxK6SzXv8VLmn3tJdttQX9Ev2rh" ] },
      { "delegate": "tz1eEnQhbwf6trb8Q8mPb2RaPkNk2rN7BKi8",
        "reception_time": "2022-01-20T14:07:50.380-00:00",
        "included_in_blocks":
          [ "BM9Y154zgLXCQUrydMxQDq7TWxK6SzXv8VLmn3tJdttQX9Ev2rh" ] },
      { "delegate": "tz1TXzyaKUA8wsWefdSnyaYFnV2M3vCV7er9",
        "reception_time": "2022-01-20T14:07:50.380-00:00",
        "included_in_blocks":
          [ "BM9Y154zgLXCQUrydMxQDq7TWxK6SzXv8VLmn3tJdttQX9Ev2rh" ] },
      { "delegate": "tz1R4PuhxUxBBZhfLJDx2nNjbr7WorAPX1oC",
        "reception_time": "2022-01-20T14:07:50.380-00:00",
        "included_in_blocks":
          [ "BM9Y154zgLXCQUrydMxQDq7TWxK6SzXv8VLmn3tJdttQX9Ev2rh" ] },
      { "delegate": "tz1STeamwbp68THcny9zk3LsbG3H36DMvbRK",
        "reception_time": "2022-01-20T14:07:50.380-00:00",
        "included_in_blocks":
          [ "BM9Y154zgLXCQUrydMxQDq7TWxK6SzXv8VLmn3tJdttQX9Ev2rh" ] },
      { "delegate": "tz1dbfppLAAxXZNtf2SDps7rch3qfUznKSoK" },
      { "delegate": "tz1SYq214SCBy9naR6cvycQsYcUGpBqQAE8d" },
      { "delegate": "tz1RjoHc98dBoqaH2jawF62XNKh7YsHwbkEv" },
      { "delegate": "tz1P6WKJu2rcbxKiKRZHKQKmKrpC9TfW1AwM" },
      { "delegate": "tz1XfAjZyaLdceHnZxbMYop7g7kWKPut4PR7",
        "reception_time": "2022-01-20T14:07:45.258-00:00",
        "errors":
          [ { "kind": "temporary",
              "id": "proto.011-PtHangz2.prefilter.outdated_endorsement" } ],
        "included_in_blocks":
          [ "BM9Y154zgLXCQUrydMxQDq7TWxK6SzXv8VLmn3tJdttQX9Ev2rh" ] },
      { "delegate": "tz1gUNyn3hmnEWqkusWPzxRaon1cs7ndWh7h",
        "reception_time": "2022-01-20T14:07:45.322-00:00",
        "errors":
          [ { "kind": "temporary",
              "id": "proto.011-PtHangz2.prefilter.outdated_endorsement" } ],
        "included_in_blocks":
          [ "BM9Y154zgLXCQUrydMxQDq7TWxK6SzXv8VLmn3tJdttQX9Ev2rh" ] },
      { "delegate": "tz1VQnqCCqX4K5sP3FNkVSNKTdCAMJDd3E1n",
        "reception_time": "2022-01-20T14:07:45.327-00:00",
        "errors":
          [ { "kind": "temporary",
              "id": "proto.011-PtHangz2.prefilter.outdated_endorsement" } ],
        "included_in_blocks":
          [ "BM9Y154zgLXCQUrydMxQDq7TWxK6SzXv8VLmn3tJdttQX9Ev2rh" ] },
      { "delegate": "tz1Ldzz6k1BHdhuKvAtMRX7h5kJSMHESMHLC",
        "reception_time": "2022-01-20T14:07:45.369-00:00",
        "errors":
          [ { "kind": "temporary",
              "id": "proto.011-PtHangz2.prefilter.outdated_endorsement" } ],
        "included_in_blocks":
          [ "BM9Y154zgLXCQUrydMxQDq7TWxK6SzXv8VLmn3tJdttQX9Ev2rh" ] },
      { "delegate": "tz1VmiY38m3y95HqQLjMwqnMS7sdMfGomzKi",
        "reception_time": "2022-01-20T14:07:45.381-00:00",
        "errors":
          [ { "kind": "temporary",
              "id": "proto.011-PtHangz2.prefilter.outdated_endorsement" } ],
        "included_in_blocks":
          [ "BM9Y154zgLXCQUrydMxQDq7TWxK6SzXv8VLmn3tJdttQX9Ev2rh" ] },
      { "delegate": "tz1iZEKy4LaAjnTmn2RuGDf2iqdAQKnRi8kY",
        "reception_time": "2022-01-20T14:07:45.701-00:00",
        "errors":
          [ { "kind": "temporary",
              "id": "proto.011-PtHangz2.prefilter.outdated_endorsement" } ],
        "included_in_blocks":
          [ "BM9Y154zgLXCQUrydMxQDq7TWxK6SzXv8VLmn3tJdttQX9Ev2rh" ] },
      { "delegate": "tz1Lhf4J9Qxoe3DZ2nfe8FGDnvVj7oKjnMY6",
        "reception_time": "2022-01-20T14:07:45.713-00:00",
        "errors":
          [ { "kind": "temporary",
              "id": "proto.011-PtHangz2.prefilter.outdated_endorsement" } ],
        "included_in_blocks":
          [ "BM9Y154zgLXCQUrydMxQDq7TWxK6SzXv8VLmn3tJdttQX9Ev2rh" ] } ] }