{ "blocks":
    [ { "hash": "BL7w1mdLBLtMXDGE2JaZxrnHWFf9XxbGbS3vwbQcGuTZJgYZtHq",
        "delegate": "tz1irJKkXS2DBWkU1NnmFQx1c1L7pbGg4yhk",
        "reception_time": "2022-01-20T17:47:10.625-00:00",
        "timestamp": "2022-01-20T17:47:00Z" } ],
  "endorsements":
    [ { "delegate": "tz1Lhf4J9Qxoe3DZ2nfe8FGDnvVj7oKjnMY6",
        "reception_time": "2022-01-20T17:47:10.451-00:00",
        "errors":
          [ { "kind": "temporary",
              "id": "proto.011-PtHangz2.prefilter.outdated_endorsement" } ],
        "included_in_blocks":
          [ "BLFXncELo2CPM3uPdVmGW62H48uwwCGqUqNjAN8FHXbyZHa5Vv6" ] },
      { "delegate": "tz1gUNyn3hmnEWqkusWPzxRaon1cs7ndWh7h",
        "reception_time": "2022-01-20T17:47:10.431-00:00",
        "errors":
          [ { "kind": "temporary",
              "id": "proto.011-PtHangz2.prefilter.outdated_endorsement" } ],
        "included_in_blocks":
          [ "BLFXncELo2CPM3uPdVmGW62H48uwwCGqUqNjAN8FHXbyZHa5Vv6" ] },
      { "delegate": "tz1VQnqCCqX4K5sP3FNkVSNKTdCAMJDd3E1n",
        "reception_time": "2022-01-20T17:47:10.430-00:00",
        "errors":
          [ { "kind": "temporary",
              "id": "proto.011-PtHangz2.prefilter.outdated_endorsement" } ],
        "included_in_blocks":
          [ "BLFXncELo2CPM3uPdVmGW62H48uwwCGqUqNjAN8FHXbyZHa5Vv6" ] },
      { "delegate": "tz1Kt4P8BCaP93AEV4eA7gmpRryWt5hznjCP",
        "reception_time": "2022-01-20T17:47:10.430-00:00",
        "errors":
          [ { "kind": "temporary",
              "id": "proto.011-PtHangz2.prefilter.outdated_endorsement" } ],
        "included_in_blocks":
          [ "BLFXncELo2CPM3uPdVmGW62H48uwwCGqUqNjAN8FHXbyZHa5Vv6" ] },
      { "delegate": "tz1eEnQhbwf6trb8Q8mPb2RaPkNk2rN7BKi8",
        "reception_time": "2022-01-20T17:47:10.402-00:00",
        "errors":
          [ { "kind": "temporary",
              "id": "proto.011-PtHangz2.prefilter.outdated_endorsement" } ],
        "included_in_blocks":
          [ "BLFXncELo2CPM3uPdVmGW62H48uwwCGqUqNjAN8FHXbyZHa5Vv6" ] },
      { "delegate": "tz1aDiEJf9ztRrAJEXZfcG3CKimoKsGhwVAi",
        "reception_time": "2022-01-20T17:47:10.387-00:00",
        "errors":
          [ { "kind": "temporary",
              "id": "proto.011-PtHangz2.prefilter.outdated_endorsement" } ],
        "included_in_blocks":
          [ "BLFXncELo2CPM3uPdVmGW62H48uwwCGqUqNjAN8FHXbyZHa5Vv6" ] },
      { "delegate": "tz1Ldzz6k1BHdhuKvAtMRX7h5kJSMHESMHLC",
        "reception_time": "2022-01-20T17:47:10.375-00:00",
        "errors":
          [ { "kind": "temporary",
              "id": "proto.011-PtHangz2.prefilter.outdated_endorsement" } ],
        "included_in_blocks":
          [ "BLFXncELo2CPM3uPdVmGW62H48uwwCGqUqNjAN8FHXbyZHa5Vv6" ] },
      { "delegate": "tz1VmiY38m3y95HqQLjMwqnMS7sdMfGomzKi",
        "reception_time": "2022-01-20T17:47:10.245-00:00",
        "errors":
          [ { "kind": "temporary",
              "id": "proto.011-PtHangz2.prefilter.outdated_endorsement" } ],
        "included_in_blocks":
          [ "BLFXncELo2CPM3uPdVmGW62H48uwwCGqUqNjAN8FHXbyZHa5Vv6" ] },
      { "delegate": "tz1irJKkXS2DBWkU1NnmFQx1c1L7pbGg4yhk",
        "reception_time": "2022-01-20T17:47:10.061-00:00",
        "errors":
          [ { "kind": "temporary",
              "id": "proto.011-PtHangz2.prefilter.outdated_endorsement" } ],
        "included_in_blocks":
          [ "BLFXncELo2CPM3uPdVmGW62H48uwwCGqUqNjAN8FHXbyZHa5Vv6" ] },
      { "delegate": "tz1P2Po7YM526ughEsRbY4oR9zaUPDZjxFrb",
        "reception_time": "2022-01-20T17:47:10.026-00:00",
        "errors":
          [ { "kind": "temporary",
              "id": "proto.011-PtHangz2.prefilter.outdated_endorsement" } ],
        "included_in_blocks":
          [ "BLFXncELo2CPM3uPdVmGW62H48uwwCGqUqNjAN8FHXbyZHa5Vv6" ] },
      { "delegate": "tz1Scdr2HsZiQjc7bHMeBbmDRXYVvdhjJbBh",
        "reception_time": "2022-01-20T17:47:10.020-00:00",
        "errors":
          [ { "kind": "temporary",
              "id": "proto.011-PtHangz2.prefilter.outdated_endorsement" } ],
        "included_in_blocks":
          [ "BLFXncELo2CPM3uPdVmGW62H48uwwCGqUqNjAN8FHXbyZHa5Vv6" ] },
      { "delegate": "tz1S8e9GgdZG78XJRB3NqabfWeM37GnhZMWQ",
        "reception_time": "2022-01-20T17:47:09.174-00:00",
        "errors":
          [ { "kind": "temporary",
              "id": "proto.011-PtHangz2.prefilter.outdated_endorsement" } ],
        "included_in_blocks":
          [ "BLFXncELo2CPM3uPdVmGW62H48uwwCGqUqNjAN8FHXbyZHa5Vv6" ] },
      { "delegate": "tz1NpWrAyDL9k2Lmnyxcgr9xuJakbBxdq7FB" },
      { "delegate": "tz1RjoHc98dBoqaH2jawF62XNKh7YsHwbkEv" },
      { "delegate": "tz1awXW7wuXy21c66vBudMXQVAPgRnqqwgTH" },
      { "delegate": "tz1fUyqYH7H4pRHN1roWY17giXhy1RvxjgUV" },
      { "delegate": "tz1aXD7Jigrt3PBYSpHSg5Rr33SexMmmM5Ys",
        "reception_time": "2022-01-20T17:47:11.860-00:00",
        "included_in_blocks":
          [ "BLFXncELo2CPM3uPdVmGW62H48uwwCGqUqNjAN8FHXbyZHa5Vv6" ] },
      { "delegate": "tz3adcvQaKXTCg12zbninqo3q8ptKKtDFTLv",
        "reception_time": "2022-01-20T17:47:12.641-00:00",
        "included_in_blocks":
          [ "BLFXncELo2CPM3uPdVmGW62H48uwwCGqUqNjAN8FHXbyZHa5Vv6" ] },
      { "delegate": "tz1cSj7fTex3JPd1p1LN1fwek6AV1kH93Wwc",
        "reception_time": "2022-01-20T17:47:12.664-00:00",
        "included_in_blocks":
          [ "BLFXncELo2CPM3uPdVmGW62H48uwwCGqUqNjAN8FHXbyZHa5Vv6" ] },
      { "delegate": "tz1beersuEDv8Z7ngQ825xfbaJNS2EhXnyHR",
        "reception_time": "2022-01-20T17:47:12.668-00:00",
        "included_in_blocks":
          [ "BLFXncELo2CPM3uPdVmGW62H48uwwCGqUqNjAN8FHXbyZHa5Vv6" ] },
      { "delegate": "tz3e7LbZvUtoXhpUD1yb6wuFodZpfYRb9nWJ",
        "reception_time": "2022-01-20T17:47:12.675-00:00",
        "included_in_blocks":
          [ "BLFXncELo2CPM3uPdVmGW62H48uwwCGqUqNjAN8FHXbyZHa5Vv6" ] },
      { "delegate": "tz1PWCDnz783NNGGQjEFFsHtrcK5yBW4E2rm",
        "reception_time": "2022-01-20T17:47:12.693-00:00",
        "included_in_blocks":
          [ "BLFXncELo2CPM3uPdVmGW62H48uwwCGqUqNjAN8FHXbyZHa5Vv6" ] },
      { "delegate": "tz1ei4WtWEMEJekSv8qDnu9PExG6Q8HgRGr3",
        "reception_time": "2022-01-20T17:47:12.696-00:00",
        "included_in_blocks":
          [ "BLFXncELo2CPM3uPdVmGW62H48uwwCGqUqNjAN8FHXbyZHa5Vv6" ] },
      { "delegate": "tz1fUjvVhJrHLZCbhPNvDRckxApqbkievJHN",
        "reception_time": "2022-01-20T17:47:12.698-00:00",
        "included_in_blocks":
          [ "BLFXncELo2CPM3uPdVmGW62H48uwwCGqUqNjAN8FHXbyZHa5Vv6" ] },
      { "delegate": "tz3NxTnke1acr8o3h5y9ytf5awQBGNJUKzVU",
        "reception_time": "2022-01-20T17:47:12.705-00:00",
        "included_in_blocks":
          [ "BLFXncELo2CPM3uPdVmGW62H48uwwCGqUqNjAN8FHXbyZHa5Vv6" ] },
      { "delegate": "tz1Nf6tsK4G6bBqgSQERy4nUtkHNKUVdh7q1",
        "reception_time": "2022-01-20T17:47:12.708-00:00",
        "included_in_blocks":
          [ "BLFXncELo2CPM3uPdVmGW62H48uwwCGqUqNjAN8FHXbyZHa5Vv6" ] },
      { "delegate": "tz3ZbP2pM3nwvXztbuMJwJnDvV5xdpU8UkkD",
        "reception_time": "2022-01-20T17:47:12.720-00:00",
        "included_in_blocks":
          [ "BLFXncELo2CPM3uPdVmGW62H48uwwCGqUqNjAN8FHXbyZHa5Vv6" ] },
      { "delegate": "tz3QSGPoRp3Kn7n3vY24eYeu3Peuqo45LQ4D",
        "reception_time": "2022-01-20T17:47:12.720-00:00",
        "included_in_blocks":
          [ "BLFXncELo2CPM3uPdVmGW62H48uwwCGqUqNjAN8FHXbyZHa5Vv6" ] },
      { "delegate": "tz3QT9dHYKDqh563chVa6za8526ys1UKfRfL",
        "reception_time": "2022-01-20T17:47:12.733-00:00",
        "included_in_blocks":
          [ "BLFXncELo2CPM3uPdVmGW62H48uwwCGqUqNjAN8FHXbyZHa5Vv6" ] },
      { "delegate": "tz3RKYFsLuQzKBtmYuLNas7uMu3AsYd4QdsA",
        "reception_time": "2022-01-20T17:47:12.733-00:00",
        "included_in_blocks":
          [ "BLFXncELo2CPM3uPdVmGW62H48uwwCGqUqNjAN8FHXbyZHa5Vv6" ] },
      { "delegate": "tz3S6BBeKgJGXxvLyZ1xzXzMPn11nnFtq5L9",
        "reception_time": "2022-01-20T17:47:12.797-00:00",
        "included_in_blocks":
          [ "BLFXncELo2CPM3uPdVmGW62H48uwwCGqUqNjAN8FHXbyZHa5Vv6" ] },
      { "delegate": "tz3iJu5vrKZcsqRPs8yJ61UDoeEXZmtro4qh",
        "reception_time": "2022-01-20T17:47:12.822-00:00",
        "included_in_blocks":
          [ "BLFXncELo2CPM3uPdVmGW62H48uwwCGqUqNjAN8FHXbyZHa5Vv6" ] },
      { "delegate": "tz3hw2kqXhLUvY65ca1eety2oQTpAvd34R9Q",
        "reception_time": "2022-01-20T17:47:12.822-00:00",
        "included_in_blocks":
          [ "BLFXncELo2CPM3uPdVmGW62H48uwwCGqUqNjAN8FHXbyZHa5Vv6" ] },
      { "delegate": "tz1gfArv665EUkSg2ojMBzcbfwuPxAvqPvjo",
        "reception_time": "2022-01-20T17:47:12.837-00:00",
        "included_in_blocks":
          [ "BLFXncELo2CPM3uPdVmGW62H48uwwCGqUqNjAN8FHXbyZHa5Vv6" ] },
      { "delegate": "tz3gtoUxdudfBRcNY7iVdKPHCYYX6xdPpoRS",
        "reception_time": "2022-01-20T17:47:12.855-00:00",
        "included_in_blocks":
          [ "BLFXncELo2CPM3uPdVmGW62H48uwwCGqUqNjAN8FHXbyZHa5Vv6" ] },
      { "delegate": "tz1TEc75UKXv4W5cwi14Na3NtqFD51yKQi7h",
        "reception_time": "2022-01-20T17:47:12.855-00:00",
        "included_in_blocks":
          [ "BLFXncELo2CPM3uPdVmGW62H48uwwCGqUqNjAN8FHXbyZHa5Vv6" ] },
      { "delegate": "tz1dNVDWPf3Q59SdJqnjdnu277iyvReiRS9M",
        "reception_time": "2022-01-20T17:47:12.865-00:00",
        "included_in_blocks":
          [ "BLFXncELo2CPM3uPdVmGW62H48uwwCGqUqNjAN8FHXbyZHa5Vv6" ] },
      { "delegate": "tz3Zhs2dygr55yHyQyKjntAtY9bgfhLZ4Xj1",
        "reception_time": "2022-01-20T17:47:12.873-00:00",
        "included_in_blocks":
          [ "BLFXncELo2CPM3uPdVmGW62H48uwwCGqUqNjAN8FHXbyZHa5Vv6" ] },
      { "delegate": "tz1TRspM5SeZpaQUhzByXbEvqKF1vnCM2YTK",
        "reception_time": "2022-01-20T17:47:12.883-00:00",
        "included_in_blocks":
          [ "BLFXncELo2CPM3uPdVmGW62H48uwwCGqUqNjAN8FHXbyZHa5Vv6" ] },
      { "delegate": "tz1NEKxGEHsFufk87CVZcrqWu8o22qh46GK6",
        "reception_time": "2022-01-20T17:47:12.887-00:00",
        "included_in_blocks":
          [ "BLFXncELo2CPM3uPdVmGW62H48uwwCGqUqNjAN8FHXbyZHa5Vv6" ] },
      { "delegate": "tz1WBfwbT66FC6BTLexc2BoyCCBM9LG7pnVW",
        "reception_time": "2022-01-20T17:47:12.902-00:00",
        "included_in_blocks":
          [ "BLFXncELo2CPM3uPdVmGW62H48uwwCGqUqNjAN8FHXbyZHa5Vv6" ] },
      { "delegate": "tz1MQJPGNMijnXnVoBENFz9rUhaPt3S7rWoz",
        "reception_time": "2022-01-20T17:47:12.905-00:00",
        "included_in_blocks":
          [ "BLFXncELo2CPM3uPdVmGW62H48uwwCGqUqNjAN8FHXbyZHa5Vv6" ] },
      { "delegate": "tz3bEQoFCZEEfZMskefZ8q8e4eiHH1pssRax",
        "reception_time": "2022-01-20T17:47:12.913-00:00",
        "included_in_blocks":
          [ "BLFXncELo2CPM3uPdVmGW62H48uwwCGqUqNjAN8FHXbyZHa5Vv6" ] },
      { "delegate": "tz1dRKU4FQ9QRRQPdaH4zCR6gmCmXfcvcgtB",
        "reception_time": "2022-01-20T17:47:12.917-00:00",
        "included_in_blocks":
          [ "BLFXncELo2CPM3uPdVmGW62H48uwwCGqUqNjAN8FHXbyZHa5Vv6" ] },
      { "delegate": "tz1KfEsrtDaA1sX7vdM4qmEPWuSytuqCDp5j",
        "reception_time": "2022-01-20T17:47:12.930-00:00",
        "included_in_blocks":
          [ "BLFXncELo2CPM3uPdVmGW62H48uwwCGqUqNjAN8FHXbyZHa5Vv6" ] },
      { "delegate": "tz1UJvHTgpVzcKWhTazGxVcn5wsHru5Gietg",
        "reception_time": "2022-01-20T17:47:12.933-00:00",
        "included_in_blocks":
          [ "BLFXncELo2CPM3uPdVmGW62H48uwwCGqUqNjAN8FHXbyZHa5Vv6" ] },
      { "delegate": "tz1SYq214SCBy9naR6cvycQsYcUGpBqQAE8d",
        "reception_time": "2022-01-20T17:47:12.941-00:00",
        "included_in_blocks":
          [ "BLFXncELo2CPM3uPdVmGW62H48uwwCGqUqNjAN8FHXbyZHa5Vv6" ] },
      { "delegate": "tz3bTdwZinP8U1JmSweNzVKhmwafqWmFWRfk",
        "reception_time": "2022-01-20T17:47:12.947-00:00",
        "included_in_blocks":
          [ "BLFXncELo2CPM3uPdVmGW62H48uwwCGqUqNjAN8FHXbyZHa5Vv6" ] },
      { "delegate": "tz3RB4aoyjov4KEVRbuhvQ1CKJgBJMWhaeB8",
        "reception_time": "2022-01-20T17:47:12.953-00:00",
        "included_in_blocks":
          [ "BLFXncELo2CPM3uPdVmGW62H48uwwCGqUqNjAN8FHXbyZHa5Vv6" ] },
      { "delegate": "tz1WctSwL49BZtdWAQ75NY6vr4xsAx6oKdah",
        "reception_time": "2022-01-20T17:47:12.996-00:00",
        "included_in_blocks":
          [ "BLFXncELo2CPM3uPdVmGW62H48uwwCGqUqNjAN8FHXbyZHa5Vv6" ] },
      { "delegate": "tz1S8MNvuFEUsWgjHvi3AxibRBf388NhT1q2",
        "reception_time": "2022-01-20T17:47:13.097-00:00",
        "included_in_blocks":
          [ "BLFXncELo2CPM3uPdVmGW62H48uwwCGqUqNjAN8FHXbyZHa5Vv6" ] },
      { "delegate": "tz3bvNMQ95vfAYtG8193ymshqjSvmxiCUuR5",
        "reception_time": "2022-01-20T17:47:13.110-00:00",
        "included_in_blocks":
          [ "BLFXncELo2CPM3uPdVmGW62H48uwwCGqUqNjAN8FHXbyZHa5Vv6" ] },
      { "delegate": "tz2FCNBrERXtaTtNX6iimR1UJ5JSDxvdHM93",
        "reception_time": "2022-01-20T17:47:13.119-00:00",
        "included_in_blocks":
          [ "BLFXncELo2CPM3uPdVmGW62H48uwwCGqUqNjAN8FHXbyZHa5Vv6" ] },
      { "delegate": "tz3RDC3Jdn4j15J7bBHZd29EUee9gVB1CxD9",
        "reception_time": "2022-01-20T17:47:13.277-00:00",
        "included_in_blocks":
          [ "BLFXncELo2CPM3uPdVmGW62H48uwwCGqUqNjAN8FHXbyZHa5Vv6" ] },
      { "delegate": "tz1RCFbB9GpALpsZtu6J58sb74dm8qe6XBzv",
        "reception_time": "2022-01-20T17:47:13.337-00:00",
        "included_in_blocks":
          [ "BLFXncELo2CPM3uPdVmGW62H48uwwCGqUqNjAN8FHXbyZHa5Vv6" ] },
      { "delegate": "tz3UoffC7FG7zfpmvmjUmUeAaHvzdcUvAj6r",
        "reception_time": "2022-01-20T17:47:13.575-00:00",
        "included_in_blocks":
          [ "BLFXncELo2CPM3uPdVmGW62H48uwwCGqUqNjAN8FHXbyZHa5Vv6" ] },
      { "delegate": "tz1T7duV5gZWSTq4YpBGbXNLTfznCLDrFxvs",
        "reception_time": "2022-01-20T17:47:13.622-00:00",
        "included_in_blocks":
          [ "BLFXncELo2CPM3uPdVmGW62H48uwwCGqUqNjAN8FHXbyZHa5Vv6" ] },
      { "delegate": "tz1cYufsxHXJcvANhvS55h3aY32a9BAFB494",
        "reception_time": "2022-01-20T17:47:13.645-00:00",
        "included_in_blocks":
          [ "BLFXncELo2CPM3uPdVmGW62H48uwwCGqUqNjAN8FHXbyZHa5Vv6" ] },
      { "delegate": "tz3WMqdzXqRWXwyvj5Hp2H7QEepaUuS7vd9K",
        "reception_time": "2022-01-20T17:47:13.767-00:00",
        "included_in_blocks":
          [ "BLFXncELo2CPM3uPdVmGW62H48uwwCGqUqNjAN8FHXbyZHa5Vv6" ] },
      { "delegate": "tz1g8vkmcde6sWKaG2NN9WKzCkDM6Rziq194",
        "reception_time": "2022-01-20T17:47:13.902-00:00",
        "included_in_blocks":
          [ "BLFXncELo2CPM3uPdVmGW62H48uwwCGqUqNjAN8FHXbyZHa5Vv6" ] },
      { "delegate": "tz3VEZ4k6a4Wx42iyev6i2aVAptTRLEAivNN",
        "reception_time": "2022-01-20T17:47:14.339-00:00",
        "included_in_blocks":
          [ "BLFXncELo2CPM3uPdVmGW62H48uwwCGqUqNjAN8FHXbyZHa5Vv6" ] },
      { "delegate": "tz1ZcTRk5uxD86EFEn1vvNffWWqJy7q5eVhc",
        "reception_time": "2022-01-20T17:47:14.342-00:00",
        "included_in_blocks":
          [ "BLFXncELo2CPM3uPdVmGW62H48uwwCGqUqNjAN8FHXbyZHa5Vv6" ] },
      { "delegate": "tz3NDpRj6WBrJPikcPVHRBEjWKxFw3c6eQPS",
        "reception_time": "2022-01-20T17:47:14.368-00:00",
        "included_in_blocks":
          [ "BLFXncELo2CPM3uPdVmGW62H48uwwCGqUqNjAN8FHXbyZHa5Vv6" ] },
      { "delegate": "tz1NRGxXV9h6SdNaZLcgmjuLx3hyy2f8YoGN",
        "reception_time": "2022-01-20T17:47:14.370-00:00",
        "included_in_blocks":
          [ "BLFXncELo2CPM3uPdVmGW62H48uwwCGqUqNjAN8FHXbyZHa5Vv6" ] },
      { "delegate": "tz3gLTu4Yxj8tPAcriQVUdxv6BY9QyvzU1az",
        "reception_time": "2022-01-20T17:47:14.383-00:00",
        "included_in_blocks":
          [ "BLFXncELo2CPM3uPdVmGW62H48uwwCGqUqNjAN8FHXbyZHa5Vv6" ] },
      { "delegate": "tz3NExpXn9aPNZPorRE4SdjJ2RGrfbJgMAaV",
        "reception_time": "2022-01-20T17:47:14.777-00:00",
        "included_in_blocks":
          [ "BLFXncELo2CPM3uPdVmGW62H48uwwCGqUqNjAN8FHXbyZHa5Vv6" ] },
      { "delegate": "tz1LmaFsWRkjr7QMCx5PtV6xTUz3AmEpKQiF",
        "reception_time": "2022-01-20T17:47:14.894-00:00",
        "included_in_blocks":
          [ "BLFXncELo2CPM3uPdVmGW62H48uwwCGqUqNjAN8FHXbyZHa5Vv6" ] },
      { "delegate": "tz1SUgyRB8T5jXgXAwS33pgRHAKrafyg87Yc",
        "reception_time": "2022-01-20T17:47:15.955-00:00",
        "included_in_blocks":
          [ "BLFXncELo2CPM3uPdVmGW62H48uwwCGqUqNjAN8FHXbyZHa5Vv6" ] },
      { "delegate": "tz1aRoaRhSpRYvFdyvgWLL6TGyRoGF51wDjM",
        "reception_time": "2022-01-20T17:47:17.198-00:00",
        "included_in_blocks":
          [ "BLFXncELo2CPM3uPdVmGW62H48uwwCGqUqNjAN8FHXbyZHa5Vv6" ] } ] }