{ "blocks":
    [ { "hash": "BMAVXn1BeVzbmmqcFqBUird68nY4JyU5GPK4dT9rEfiZAKVXAs7",
        "delegate": "tz1Ldzz6k1BHdhuKvAtMRX7h5kJSMHESMHLC",
        "reception_time": "2022-01-20T13:44:38.726-00:00",
        "timestamp": "2022-01-20T13:44:30Z" } ],
  "endorsements":
    [ { "delegate": "tz1Z1WwoqgRFbLE3YNdYRpCx44NSfiMJzeAG",
        "reception_time": "2022-01-20T13:45:06.951-00:00" },
      { "delegate": "tz1go7f6mEQfT2xX2LuHAqgnRGN6c2zHPf5c",
        "reception_time": "2022-01-20T13:44:53.034-00:00",
        "included_in_blocks":
          [ "BL7ek37a3syFWQj7xq2sjTPu2r7BnwMTwoxii22yJH17o4F2Mf1" ] },
      { "delegate": "tz1NpWrAyDL9k2Lmnyxcgr9xuJakbBxdq7FB",
        "reception_time": "2022-01-20T13:44:52.188-00:00",
        "included_in_blocks":
          [ "BL7ek37a3syFWQj7xq2sjTPu2r7BnwMTwoxii22yJH17o4F2Mf1" ] },
      { "delegate": "tz1aRoaRhSpRYvFdyvgWLL6TGyRoGF51wDjM",
        "reception_time": "2022-01-20T13:44:44.184-00:00",
        "included_in_blocks":
          [ "BL7ek37a3syFWQj7xq2sjTPu2r7BnwMTwoxii22yJH17o4F2Mf1" ] },
      { "delegate": "tz1Q8QkSBS63ZQnH3fBTiAMPes9R666Rn6Sc",
        "reception_time": "2022-01-20T13:44:43.148-00:00",
        "included_in_blocks":
          [ "BL7ek37a3syFWQj7xq2sjTPu2r7BnwMTwoxii22yJH17o4F2Mf1" ] },
      { "delegate": "tz3UoffC7FG7zfpmvmjUmUeAaHvzdcUvAj6r",
        "reception_time": "2022-01-20T13:44:42.557-00:00",
        "included_in_blocks":
          [ "BL7ek37a3syFWQj7xq2sjTPu2r7BnwMTwoxii22yJH17o4F2Mf1" ] },
      { "delegate": "tz3NExpXn9aPNZPorRE4SdjJ2RGrfbJgMAaV",
        "reception_time": "2022-01-20T13:44:42.473-00:00",
        "included_in_blocks":
          [ "BL7ek37a3syFWQj7xq2sjTPu2r7BnwMTwoxii22yJH17o4F2Mf1" ] },
      { "delegate": "tz3RDC3Jdn4j15J7bBHZd29EUee9gVB1CxD9",
        "reception_time": "2022-01-20T13:44:42.303-00:00",
        "included_in_blocks":
          [ "BL7ek37a3syFWQj7xq2sjTPu2r7BnwMTwoxii22yJH17o4F2Mf1" ] },
      { "delegate": "tz1WnfXMPaNTBmH7DBPwqCWs9cPDJdkGBTZ8",
        "reception_time": "2022-01-20T13:44:42.040-00:00",
        "included_in_blocks":
          [ "BL7ek37a3syFWQj7xq2sjTPu2r7BnwMTwoxii22yJH17o4F2Mf1" ] },
      { "delegate": "tz1TRqbYbUf2GyrjErf3hBzgBJPzW8y36qEs",
        "reception_time": "2022-01-20T13:44:41.928-00:00",
        "included_in_blocks":
          [ "BL7ek37a3syFWQj7xq2sjTPu2r7BnwMTwoxii22yJH17o4F2Mf1" ] },
      { "delegate": "tz3bvNMQ95vfAYtG8193ymshqjSvmxiCUuR5",
        "reception_time": "2022-01-20T13:44:41.884-00:00",
        "included_in_blocks":
          [ "BL7ek37a3syFWQj7xq2sjTPu2r7BnwMTwoxii22yJH17o4F2Mf1" ] },
      { "delegate": "tz1Xsrfv6hn86fp88YfRs6xcKwt2nTqxVZYM",
        "reception_time": "2022-01-20T13:44:41.828-00:00",
        "included_in_blocks":
          [ "BL7ek37a3syFWQj7xq2sjTPu2r7BnwMTwoxii22yJH17o4F2Mf1" ] },
      { "delegate": "tz3WMqdzXqRWXwyvj5Hp2H7QEepaUuS7vd9K",
        "reception_time": "2022-01-20T13:44:41.823-00:00",
        "included_in_blocks":
          [ "BL7ek37a3syFWQj7xq2sjTPu2r7BnwMTwoxii22yJH17o4F2Mf1" ] },
      { "delegate": "tz1cYufsxHXJcvANhvS55h3aY32a9BAFB494",
        "reception_time": "2022-01-20T13:44:41.797-00:00",
        "included_in_blocks":
          [ "BL7ek37a3syFWQj7xq2sjTPu2r7BnwMTwoxii22yJH17o4F2Mf1" ] },
      { "delegate": "tz3VEZ4k6a4Wx42iyev6i2aVAptTRLEAivNN",
        "reception_time": "2022-01-20T13:44:41.775-00:00",
        "included_in_blocks":
          [ "BL7ek37a3syFWQj7xq2sjTPu2r7BnwMTwoxii22yJH17o4F2Mf1" ] },
      { "delegate": "tz3gLTu4Yxj8tPAcriQVUdxv6BY9QyvzU1az",
        "reception_time": "2022-01-20T13:44:41.705-00:00",
        "included_in_blocks":
          [ "BL7ek37a3syFWQj7xq2sjTPu2r7BnwMTwoxii22yJH17o4F2Mf1" ] },
      { "delegate": "tz3RB4aoyjov4KEVRbuhvQ1CKJgBJMWhaeB8",
        "reception_time": "2022-01-20T13:44:41.684-00:00",
        "included_in_blocks":
          [ "BL7ek37a3syFWQj7xq2sjTPu2r7BnwMTwoxii22yJH17o4F2Mf1" ] },
      { "delegate": "tz3NDpRj6WBrJPikcPVHRBEjWKxFw3c6eQPS",
        "reception_time": "2022-01-20T13:44:41.664-00:00",
        "included_in_blocks":
          [ "BL7ek37a3syFWQj7xq2sjTPu2r7BnwMTwoxii22yJH17o4F2Mf1" ] },
      { "delegate": "tz1g8vkmcde6sWKaG2NN9WKzCkDM6Rziq194",
        "reception_time": "2022-01-20T13:44:41.431-00:00",
        "included_in_blocks":
          [ "BL7ek37a3syFWQj7xq2sjTPu2r7BnwMTwoxii22yJH17o4F2Mf1" ] },
      { "delegate": "tz1KzSC1J9aBxKp7u8TUnpN8L7S65PBRkgdF",
        "reception_time": "2022-01-20T13:44:41.267-00:00",
        "included_in_blocks":
          [ "BL7ek37a3syFWQj7xq2sjTPu2r7BnwMTwoxii22yJH17o4F2Mf1" ] },
      { "delegate": "tz1PeZx7FXy7QRuMREGXGxeipb24RsMMzUNe",
        "reception_time": "2022-01-20T13:44:41.201-00:00",
        "included_in_blocks":
          [ "BL7ek37a3syFWQj7xq2sjTPu2r7BnwMTwoxii22yJH17o4F2Mf1" ] },
      { "delegate": "tz2FCNBrERXtaTtNX6iimR1UJ5JSDxvdHM93",
        "reception_time": "2022-01-20T13:44:41.150-00:00",
        "included_in_blocks":
          [ "BL7ek37a3syFWQj7xq2sjTPu2r7BnwMTwoxii22yJH17o4F2Mf1" ] },
      { "delegate": "tz1dRKU4FQ9QRRQPdaH4zCR6gmCmXfcvcgtB",
        "reception_time": "2022-01-20T13:44:41.146-00:00",
        "included_in_blocks":
          [ "BL7ek37a3syFWQj7xq2sjTPu2r7BnwMTwoxii22yJH17o4F2Mf1" ] },
      { "delegate": "tz1hYj2SDMv9UfagrUiaAhnCrzoF9RqFK7eM",
        "reception_time": "2022-01-20T13:44:41.014-00:00",
        "included_in_blocks":
          [ "BL7ek37a3syFWQj7xq2sjTPu2r7BnwMTwoxii22yJH17o4F2Mf1" ] },
      { "delegate": "tz1Tnjaxk6tbAeC2TmMApPh8UsrEVQvhHvx5",
        "reception_time": "2022-01-20T13:44:40.888-00:00",
        "included_in_blocks":
          [ "BL7ek37a3syFWQj7xq2sjTPu2r7BnwMTwoxii22yJH17o4F2Mf1" ] },
      { "delegate": "tz1T7duV5gZWSTq4YpBGbXNLTfznCLDrFxvs",
        "reception_time": "2022-01-20T13:44:40.885-00:00",
        "included_in_blocks":
          [ "BL7ek37a3syFWQj7xq2sjTPu2r7BnwMTwoxii22yJH17o4F2Mf1" ] },
      { "delegate": "tz1abmz7jiCV2GH2u81LRrGgAFFgvQgiDiaf",
        "reception_time": "2022-01-20T13:44:40.885-00:00",
        "included_in_blocks":
          [ "BL7ek37a3syFWQj7xq2sjTPu2r7BnwMTwoxii22yJH17o4F2Mf1" ] },
      { "delegate": "tz1NdhRv643wLW6zCcRP3VfT24dvDnh7nuh9",
        "reception_time": "2022-01-20T13:44:40.881-00:00",
        "included_in_blocks":
          [ "BL7ek37a3syFWQj7xq2sjTPu2r7BnwMTwoxii22yJH17o4F2Mf1" ] },
      { "delegate": "tz3bTdwZinP8U1JmSweNzVKhmwafqWmFWRfk",
        "reception_time": "2022-01-20T13:44:40.881-00:00",
        "included_in_blocks":
          [ "BL7ek37a3syFWQj7xq2sjTPu2r7BnwMTwoxii22yJH17o4F2Mf1" ] },
      { "delegate": "tz1gfArv665EUkSg2ojMBzcbfwuPxAvqPvjo",
        "reception_time": "2022-01-20T13:44:40.706-00:00",
        "included_in_blocks":
          [ "BL7ek37a3syFWQj7xq2sjTPu2r7BnwMTwoxii22yJH17o4F2Mf1" ] },
      { "delegate": "tz1S8MNvuFEUsWgjHvi3AxibRBf388NhT1q2",
        "reception_time": "2022-01-20T13:44:40.703-00:00",
        "included_in_blocks":
          [ "BL7ek37a3syFWQj7xq2sjTPu2r7BnwMTwoxii22yJH17o4F2Mf1" ] },
      { "delegate": "tz1NEKxGEHsFufk87CVZcrqWu8o22qh46GK6",
        "reception_time": "2022-01-20T13:44:40.700-00:00",
        "included_in_blocks":
          [ "BL7ek37a3syFWQj7xq2sjTPu2r7BnwMTwoxii22yJH17o4F2Mf1" ] },
      { "delegate": "tz3S6BBeKgJGXxvLyZ1xzXzMPn11nnFtq5L9",
        "reception_time": "2022-01-20T13:44:40.696-00:00",
        "included_in_blocks":
          [ "BL7ek37a3syFWQj7xq2sjTPu2r7BnwMTwoxii22yJH17o4F2Mf1" ] },
      { "delegate": "tz1KfEsrtDaA1sX7vdM4qmEPWuSytuqCDp5j",
        "reception_time": "2022-01-20T13:44:40.689-00:00",
        "included_in_blocks":
          [ "BL7ek37a3syFWQj7xq2sjTPu2r7BnwMTwoxii22yJH17o4F2Mf1" ] },
      { "delegate": "tz1dNVDWPf3Q59SdJqnjdnu277iyvReiRS9M",
        "reception_time": "2022-01-20T13:44:40.685-00:00",
        "included_in_blocks":
          [ "BL7ek37a3syFWQj7xq2sjTPu2r7BnwMTwoxii22yJH17o4F2Mf1" ] },
      { "delegate": "tz3iJu5vrKZcsqRPs8yJ61UDoeEXZmtro4qh",
        "reception_time": "2022-01-20T13:44:40.530-00:00",
        "included_in_blocks":
          [ "BL7ek37a3syFWQj7xq2sjTPu2r7BnwMTwoxii22yJH17o4F2Mf1" ] },
      { "delegate": "tz3Zhs2dygr55yHyQyKjntAtY9bgfhLZ4Xj1",
        "reception_time": "2022-01-20T13:44:40.522-00:00",
        "included_in_blocks":
          [ "BL7ek37a3syFWQj7xq2sjTPu2r7BnwMTwoxii22yJH17o4F2Mf1" ] },
      { "delegate": "tz1MDSg9ycDZmRxDqymSmHsWUgozhTvYskPi",
        "reception_time": "2022-01-20T13:44:40.516-00:00",
        "included_in_blocks":
          [ "BL7ek37a3syFWQj7xq2sjTPu2r7BnwMTwoxii22yJH17o4F2Mf1" ] },
      { "delegate": "tz1RCFbB9GpALpsZtu6J58sb74dm8qe6XBzv",
        "reception_time": "2022-01-20T13:44:40.513-00:00",
        "included_in_blocks":
          [ "BL7ek37a3syFWQj7xq2sjTPu2r7BnwMTwoxii22yJH17o4F2Mf1" ] },
      { "delegate": "tz3QT9dHYKDqh563chVa6za8526ys1UKfRfL",
        "reception_time": "2022-01-20T13:44:40.510-00:00",
        "included_in_blocks":
          [ "BL7ek37a3syFWQj7xq2sjTPu2r7BnwMTwoxii22yJH17o4F2Mf1" ] },
      { "delegate": "tz3RKYFsLuQzKBtmYuLNas7uMu3AsYd4QdsA",
        "reception_time": "2022-01-20T13:44:40.499-00:00",
        "included_in_blocks":
          [ "BL7ek37a3syFWQj7xq2sjTPu2r7BnwMTwoxii22yJH17o4F2Mf1" ] },
      { "delegate": "tz3hw2kqXhLUvY65ca1eety2oQTpAvd34R9Q",
        "reception_time": "2022-01-20T13:44:40.491-00:00",
        "included_in_blocks":
          [ "BL7ek37a3syFWQj7xq2sjTPu2r7BnwMTwoxii22yJH17o4F2Mf1" ] },
      { "delegate": "tz1cSoWttzYi9taqyHfcKS86b5M31SoaTQdg",
        "reception_time": "2022-01-20T13:44:40.483-00:00",
        "included_in_blocks":
          [ "BL7ek37a3syFWQj7xq2sjTPu2r7BnwMTwoxii22yJH17o4F2Mf1" ] },
      { "delegate": "tz1ajgycuHmd2z2JbTSJxKv7x6cok2KuNSk1",
        "reception_time": "2022-01-20T13:44:40.353-00:00",
        "included_in_blocks":
          [ "BL7ek37a3syFWQj7xq2sjTPu2r7BnwMTwoxii22yJH17o4F2Mf1" ] },
      { "delegate": "tz3gtoUxdudfBRcNY7iVdKPHCYYX6xdPpoRS",
        "reception_time": "2022-01-20T13:44:40.349-00:00",
        "included_in_blocks":
          [ "BL7ek37a3syFWQj7xq2sjTPu2r7BnwMTwoxii22yJH17o4F2Mf1" ] },
      { "delegate": "tz3QCNyySViKHmeSr45kzDxzchys7NiXCWoa",
        "reception_time": "2022-01-20T13:44:40.349-00:00",
        "included_in_blocks":
          [ "BL7ek37a3syFWQj7xq2sjTPu2r7BnwMTwoxii22yJH17o4F2Mf1" ] },
      { "delegate": "tz1LnWa4AiFCjMezTgSNa65QFoo7DQGEWgEU",
        "reception_time": "2022-01-20T13:44:40.334-00:00",
        "included_in_blocks":
          [ "BL7ek37a3syFWQj7xq2sjTPu2r7BnwMTwoxii22yJH17o4F2Mf1" ] },
      { "delegate": "tz1Nf6tsK4G6bBqgSQERy4nUtkHNKUVdh7q1",
        "reception_time": "2022-01-20T13:44:40.334-00:00",
        "included_in_blocks":
          [ "BL7ek37a3syFWQj7xq2sjTPu2r7BnwMTwoxii22yJH17o4F2Mf1" ] },
      { "delegate": "tz3QSGPoRp3Kn7n3vY24eYeu3Peuqo45LQ4D",
        "reception_time": "2022-01-20T13:44:40.324-00:00",
        "included_in_blocks":
          [ "BL7ek37a3syFWQj7xq2sjTPu2r7BnwMTwoxii22yJH17o4F2Mf1" ] },
      { "delegate": "tz1TRspM5SeZpaQUhzByXbEvqKF1vnCM2YTK",
        "reception_time": "2022-01-20T13:44:40.314-00:00",
        "included_in_blocks":
          [ "BL7ek37a3syFWQj7xq2sjTPu2r7BnwMTwoxii22yJH17o4F2Mf1" ] },
      { "delegate": "tz1MQMiZHV8q4tTwUMWmS5Y3kaP6J2136iXr",
        "reception_time": "2022-01-20T13:44:40.298-00:00",
        "included_in_blocks":
          [ "BL7ek37a3syFWQj7xq2sjTPu2r7BnwMTwoxii22yJH17o4F2Mf1" ] },
      { "delegate": "tz3NxTnke1acr8o3h5y9ytf5awQBGNJUKzVU",
        "reception_time": "2022-01-20T13:44:40.289-00:00",
        "included_in_blocks":
          [ "BL7ek37a3syFWQj7xq2sjTPu2r7BnwMTwoxii22yJH17o4F2Mf1" ] },
      { "delegate": "tz1ei4WtWEMEJekSv8qDnu9PExG6Q8HgRGr3",
        "reception_time": "2022-01-20T13:44:40.241-00:00",
        "included_in_blocks":
          [ "BL7ek37a3syFWQj7xq2sjTPu2r7BnwMTwoxii22yJH17o4F2Mf1" ] },
      { "delegate": "tz1WCd2jm4uSt4vntk4vSuUWoZQGhLcDuR9q",
        "reception_time": "2022-01-20T13:44:40.227-00:00",
        "included_in_blocks":
          [ "BL7ek37a3syFWQj7xq2sjTPu2r7BnwMTwoxii22yJH17o4F2Mf1" ] },
      { "delegate": "tz1d6Fx42mYgVFnHUW8T8A7WBfJ6nD9pVok8",
        "reception_time": "2022-01-20T13:44:40.227-00:00",
        "included_in_blocks":
          [ "BL7ek37a3syFWQj7xq2sjTPu2r7BnwMTwoxii22yJH17o4F2Mf1" ] },
      { "delegate": "tz1fUyqYH7H4pRHN1roWY17giXhy1RvxjgUV" },
      { "delegate": "tz1awXW7wuXy21c66vBudMXQVAPgRnqqwgTH" },
      { "delegate": "tz1WnyXakHZKotpQHxevTnLmomz5rTwdiccy" },
      { "delegate": "tz1SYq214SCBy9naR6cvycQsYcUGpBqQAE8d" },
      { "delegate": "tz1RjoHc98dBoqaH2jawF62XNKh7YsHwbkEv" },
      { "delegate": "tz1S8e9GgdZG78XJRB3NqabfWeM37GnhZMWQ",
        "reception_time": "2022-01-20T13:44:36.961-00:00",
        "errors":
          [ { "kind": "temporary",
              "id": "proto.011-PtHangz2.prefilter.outdated_endorsement" } ],
        "included_in_blocks":
          [ "BL7ek37a3syFWQj7xq2sjTPu2r7BnwMTwoxii22yJH17o4F2Mf1" ] },
      { "delegate": "tz1Scdr2HsZiQjc7bHMeBbmDRXYVvdhjJbBh",
        "reception_time": "2022-01-20T13:44:37.672-00:00",
        "errors":
          [ { "kind": "temporary",
              "id": "proto.011-PtHangz2.prefilter.outdated_endorsement" } ],
        "included_in_blocks":
          [ "BL7ek37a3syFWQj7xq2sjTPu2r7BnwMTwoxii22yJH17o4F2Mf1" ] },
      { "delegate": "tz1P2Po7YM526ughEsRbY4oR9zaUPDZjxFrb",
        "reception_time": "2022-01-20T13:44:37.725-00:00",
        "errors":
          [ { "kind": "temporary",
              "id": "proto.011-PtHangz2.prefilter.outdated_endorsement" } ],
        "included_in_blocks":
          [ "BL7ek37a3syFWQj7xq2sjTPu2r7BnwMTwoxii22yJH17o4F2Mf1" ] },
      { "delegate": "tz1STeamwbp68THcny9zk3LsbG3H36DMvbRK",
        "reception_time": "2022-01-20T13:44:38.049-00:00",
        "errors":
          [ { "kind": "temporary",
              "id": "proto.011-PtHangz2.prefilter.outdated_endorsement" } ],
        "included_in_blocks":
          [ "BL7ek37a3syFWQj7xq2sjTPu2r7BnwMTwoxii22yJH17o4F2Mf1" ] },
      { "delegate": "tz1MXFrtZoaXckE41bjUCSjAjAap3AFDSr3N",
        "reception_time": "2022-01-20T13:44:38.154-00:00",
        "errors":
          [ { "kind": "temporary",
              "id": "proto.011-PtHangz2.prefilter.outdated_endorsement" } ],
        "included_in_blocks":
          [ "BL7ek37a3syFWQj7xq2sjTPu2r7BnwMTwoxii22yJH17o4F2Mf1" ] },
      { "delegate": "tz1VQnqCCqX4K5sP3FNkVSNKTdCAMJDd3E1n",
        "reception_time": "2022-01-20T13:44:38.248-00:00",
        "errors":
          [ { "kind": "temporary",
              "id": "proto.011-PtHangz2.prefilter.outdated_endorsement" } ],
        "included_in_blocks":
          [ "BL7ek37a3syFWQj7xq2sjTPu2r7BnwMTwoxii22yJH17o4F2Mf1" ] },
      { "delegate": "tz1irJKkXS2DBWkU1NnmFQx1c1L7pbGg4yhk",
        "reception_time": "2022-01-20T13:44:38.258-00:00",
        "errors":
          [ { "kind": "temporary",
              "id": "proto.011-PtHangz2.prefilter.outdated_endorsement" } ],
        "included_in_blocks":
          [ "BL7ek37a3syFWQj7xq2sjTPu2r7BnwMTwoxii22yJH17o4F2Mf1" ] },
      { "delegate": "tz1gUNyn3hmnEWqkusWPzxRaon1cs7ndWh7h",
        "reception_time": "2022-01-20T13:44:38.259-00:00",
        "errors":
          [ { "kind": "temporary",
              "id": "proto.011-PtHangz2.prefilter.outdated_endorsement" } ],
        "included_in_blocks":
          [ "BL7ek37a3syFWQj7xq2sjTPu2r7BnwMTwoxii22yJH17o4F2Mf1" ] },
      { "delegate": "tz3adcvQaKXTCg12zbninqo3q8ptKKtDFTLv",
        "reception_time": "2022-01-20T13:44:38.525-00:00",
        "errors":
          [ { "kind": "temporary",
              "id": "proto.011-PtHangz2.prefilter.outdated_endorsement" } ],
        "included_in_blocks":
          [ "BL7ek37a3syFWQj7xq2sjTPu2r7BnwMTwoxii22yJH17o4F2Mf1" ] },
      { "delegate": "tz1eEnQhbwf6trb8Q8mPb2RaPkNk2rN7BKi8",
        "reception_time": "2022-01-20T13:44:38.621-00:00",
        "errors":
          [ { "kind": "temporary",
              "id": "proto.011-PtHangz2.prefilter.outdated_endorsement" } ],
        "included_in_blocks":
          [ "BL7ek37a3syFWQj7xq2sjTPu2r7BnwMTwoxii22yJH17o4F2Mf1" ] },
      { "delegate": "tz1beersuEDv8Z7ngQ825xfbaJNS2EhXnyHR",
        "reception_time": "2022-01-20T13:44:38.669-00:00",
        "errors":
          [ { "kind": "temporary",
              "id": "proto.011-PtHangz2.prefilter.outdated_endorsement" } ],
        "included_in_blocks":
          [ "BL7ek37a3syFWQj7xq2sjTPu2r7BnwMTwoxii22yJH17o4F2Mf1" ] },
      { "delegate": "tz1aXD7Jigrt3PBYSpHSg5Rr33SexMmmM5Ys",
        "reception_time": "2022-01-20T13:44:38.729-00:00",
        "errors":
          [ { "kind": "temporary",
              "id": "proto.011-PtHangz2.prefilter.outdated_endorsement" } ],
        "included_in_blocks":
          [ "BL7ek37a3syFWQj7xq2sjTPu2r7BnwMTwoxii22yJH17o4F2Mf1" ] } ] }