{ "blocks":
    [ { "hash": "BLU3v2goLNwHo1taAUqxcwXvxB7BwEAA3MJZVRggM1DRQ1wetsw",
        "delegate": "tz1NEKxGEHsFufk87CVZcrqWu8o22qh46GK6",
        "reception_time": "2022-01-20T17:13:52.092-00:00",
        "timestamp": "2022-01-20T17:13:40Z" } ],
  "endorsements":
    [ { "delegate": "tz1awXW7wuXy21c66vBudMXQVAPgRnqqwgTH" },
      { "delegate": "tz1V4qCyvPKZ5UeqdH14HN42rxvNPQfc9UZg",
        "reception_time": "2022-01-20T17:13:52.037-00:00",
        "errors":
          [ { "kind": "temporary",
              "id": "proto.011-PtHangz2.prefilter.outdated_endorsement" } ],
        "included_in_blocks":
          [ "BL8jM6p6pgzGhbzM328j4q1ZYNe5HShiQuPVPQ7P8uxohvZ8NCb" ] },
      { "delegate": "tz3adcvQaKXTCg12zbninqo3q8ptKKtDFTLv",
        "reception_time": "2022-01-20T17:13:52.033-00:00",
        "errors":
          [ { "kind": "temporary",
              "id": "proto.011-PtHangz2.prefilter.outdated_endorsement" } ],
        "included_in_blocks":
          [ "BL8jM6p6pgzGhbzM328j4q1ZYNe5HShiQuPVPQ7P8uxohvZ8NCb" ] },
      { "delegate": "tz1eDDuQBEgwvc6tbnnCVrnr12tvrd6gBTpx",
        "reception_time": "2022-01-20T17:13:51.701-00:00",
        "errors":
          [ { "kind": "temporary",
              "id": "proto.011-PtHangz2.prefilter.outdated_endorsement" } ],
        "included_in_blocks":
          [ "BL8jM6p6pgzGhbzM328j4q1ZYNe5HShiQuPVPQ7P8uxohvZ8NCb" ] },
      { "delegate": "tz3e7LbZvUtoXhpUD1yb6wuFodZpfYRb9nWJ",
        "reception_time": "2022-01-20T17:13:51.698-00:00",
        "errors":
          [ { "kind": "temporary",
              "id": "proto.011-PtHangz2.prefilter.outdated_endorsement" } ],
        "included_in_blocks":
          [ "BL8jM6p6pgzGhbzM328j4q1ZYNe5HShiQuPVPQ7P8uxohvZ8NCb" ] },
      { "delegate": "tz1NEKxGEHsFufk87CVZcrqWu8o22qh46GK6",
        "reception_time": "2022-01-20T17:13:51.678-00:00",
        "errors":
          [ { "kind": "temporary",
              "id": "proto.011-PtHangz2.prefilter.outdated_endorsement" } ],
        "included_in_blocks":
          [ "BL8jM6p6pgzGhbzM328j4q1ZYNe5HShiQuPVPQ7P8uxohvZ8NCb" ] },
      { "delegate": "tz1WCd2jm4uSt4vntk4vSuUWoZQGhLcDuR9q",
        "reception_time": "2022-01-20T17:13:51.659-00:00",
        "errors":
          [ { "kind": "temporary",
              "id": "proto.011-PtHangz2.prefilter.outdated_endorsement" } ],
        "included_in_blocks":
          [ "BL8jM6p6pgzGhbzM328j4q1ZYNe5HShiQuPVPQ7P8uxohvZ8NCb" ] },
      { "delegate": "tz1aXD7Jigrt3PBYSpHSg5Rr33SexMmmM5Ys",
        "reception_time": "2022-01-20T17:13:51.570-00:00",
        "errors":
          [ { "kind": "temporary",
              "id": "proto.011-PtHangz2.prefilter.outdated_endorsement" } ],
        "included_in_blocks":
          [ "BL8jM6p6pgzGhbzM328j4q1ZYNe5HShiQuPVPQ7P8uxohvZ8NCb" ] },
      { "delegate": "tz1TzaNn7wSQSP5gYPXCnNzBCpyMiidCq1PX",
        "reception_time": "2022-01-20T17:13:51.535-00:00",
        "errors":
          [ { "kind": "temporary",
              "id": "proto.011-PtHangz2.prefilter.outdated_endorsement" } ],
        "included_in_blocks":
          [ "BL8jM6p6pgzGhbzM328j4q1ZYNe5HShiQuPVPQ7P8uxohvZ8NCb" ] },
      { "delegate": "tz1KfEsrtDaA1sX7vdM4qmEPWuSytuqCDp5j",
        "reception_time": "2022-01-20T17:13:51.501-00:00",
        "errors":
          [ { "kind": "temporary",
              "id": "proto.011-PtHangz2.prefilter.outdated_endorsement" } ],
        "included_in_blocks":
          [ "BL8jM6p6pgzGhbzM328j4q1ZYNe5HShiQuPVPQ7P8uxohvZ8NCb" ] },
      { "delegate": "tz1beersuEDv8Z7ngQ825xfbaJNS2EhXnyHR",
        "reception_time": "2022-01-20T17:13:51.457-00:00",
        "errors":
          [ { "kind": "temporary",
              "id": "proto.011-PtHangz2.prefilter.outdated_endorsement" } ],
        "included_in_blocks":
          [ "BL8jM6p6pgzGhbzM328j4q1ZYNe5HShiQuPVPQ7P8uxohvZ8NCb" ] },
      { "delegate": "tz1STeamwbp68THcny9zk3LsbG3H36DMvbRK",
        "reception_time": "2022-01-20T17:13:51.407-00:00",
        "errors":
          [ { "kind": "temporary",
              "id": "proto.011-PtHangz2.prefilter.outdated_endorsement" } ],
        "included_in_blocks":
          [ "BL8jM6p6pgzGhbzM328j4q1ZYNe5HShiQuPVPQ7P8uxohvZ8NCb" ] },
      { "delegate": "tz1eEnQhbwf6trb8Q8mPb2RaPkNk2rN7BKi8",
        "reception_time": "2022-01-20T17:13:51.402-00:00",
        "errors":
          [ { "kind": "temporary",
              "id": "proto.011-PtHangz2.prefilter.outdated_endorsement" } ],
        "included_in_blocks":
          [ "BL8jM6p6pgzGhbzM328j4q1ZYNe5HShiQuPVPQ7P8uxohvZ8NCb" ] },
      { "delegate": "tz1VmiY38m3y95HqQLjMwqnMS7sdMfGomzKi",
        "reception_time": "2022-01-20T17:13:51.107-00:00",
        "errors":
          [ { "kind": "temporary",
              "id": "proto.011-PtHangz2.prefilter.outdated_endorsement" } ],
        "included_in_blocks":
          [ "BL8jM6p6pgzGhbzM328j4q1ZYNe5HShiQuPVPQ7P8uxohvZ8NCb" ] },
      { "delegate": "tz1Lhf4J9Qxoe3DZ2nfe8FGDnvVj7oKjnMY6",
        "reception_time": "2022-01-20T17:13:50.964-00:00",
        "errors":
          [ { "kind": "temporary",
              "id": "proto.011-PtHangz2.prefilter.outdated_endorsement" } ],
        "included_in_blocks":
          [ "BL8jM6p6pgzGhbzM328j4q1ZYNe5HShiQuPVPQ7P8uxohvZ8NCb" ] },
      { "delegate": "tz1Ldzz6k1BHdhuKvAtMRX7h5kJSMHESMHLC",
        "reception_time": "2022-01-20T17:13:50.957-00:00",
        "errors":
          [ { "kind": "temporary",
              "id": "proto.011-PtHangz2.prefilter.outdated_endorsement" } ],
        "included_in_blocks":
          [ "BL8jM6p6pgzGhbzM328j4q1ZYNe5HShiQuPVPQ7P8uxohvZ8NCb" ] },
      { "delegate": "tz1irJKkXS2DBWkU1NnmFQx1c1L7pbGg4yhk",
        "reception_time": "2022-01-20T17:13:50.951-00:00",
        "errors":
          [ { "kind": "temporary",
              "id": "proto.011-PtHangz2.prefilter.outdated_endorsement" } ],
        "included_in_blocks":
          [ "BL8jM6p6pgzGhbzM328j4q1ZYNe5HShiQuPVPQ7P8uxohvZ8NCb" ] },
      { "delegate": "tz1TXzyaKUA8wsWefdSnyaYFnV2M3vCV7er9",
        "reception_time": "2022-01-20T17:13:50.882-00:00",
        "errors":
          [ { "kind": "temporary",
              "id": "proto.011-PtHangz2.prefilter.outdated_endorsement" } ],
        "included_in_blocks":
          [ "BL8jM6p6pgzGhbzM328j4q1ZYNe5HShiQuPVPQ7P8uxohvZ8NCb" ] },
      { "delegate": "tz1P2Po7YM526ughEsRbY4oR9zaUPDZjxFrb",
        "reception_time": "2022-01-20T17:13:50.645-00:00",
        "errors":
          [ { "kind": "temporary",
              "id": "proto.011-PtHangz2.prefilter.outdated_endorsement" } ],
        "included_in_blocks":
          [ "BL8jM6p6pgzGhbzM328j4q1ZYNe5HShiQuPVPQ7P8uxohvZ8NCb" ] },
      { "delegate": "tz1gUNyn3hmnEWqkusWPzxRaon1cs7ndWh7h",
        "reception_time": "2022-01-20T17:13:50.311-00:00",
        "errors":
          [ { "kind": "temporary",
              "id": "proto.011-PtHangz2.prefilter.outdated_endorsement" } ],
        "included_in_blocks":
          [ "BL8jM6p6pgzGhbzM328j4q1ZYNe5HShiQuPVPQ7P8uxohvZ8NCb" ] },
      { "delegate": "tz1VQnqCCqX4K5sP3FNkVSNKTdCAMJDd3E1n",
        "reception_time": "2022-01-20T17:13:50.307-00:00",
        "errors":
          [ { "kind": "temporary",
              "id": "proto.011-PtHangz2.prefilter.outdated_endorsement" } ],
        "included_in_blocks":
          [ "BL8jM6p6pgzGhbzM328j4q1ZYNe5HShiQuPVPQ7P8uxohvZ8NCb" ] },
      { "delegate": "tz1S8e9GgdZG78XJRB3NqabfWeM37GnhZMWQ",
        "reception_time": "2022-01-20T17:13:49.703-00:00",
        "errors":
          [ { "kind": "temporary",
              "id": "proto.011-PtHangz2.prefilter.outdated_endorsement" } ],
        "included_in_blocks":
          [ "BL8jM6p6pgzGhbzM328j4q1ZYNe5HShiQuPVPQ7P8uxohvZ8NCb" ] },
      { "delegate": "tz1NpWrAyDL9k2Lmnyxcgr9xuJakbBxdq7FB",
        "reception_time": "2022-01-20T17:14:08.514-00:00",
        "included_in_blocks":
          [ "BL8jM6p6pgzGhbzM328j4q1ZYNe5HShiQuPVPQ7P8uxohvZ8NCb" ] },
      { "delegate": "tz1aRoaRhSpRYvFdyvgWLL6TGyRoGF51wDjM",
        "reception_time": "2022-01-20T17:13:59.211-00:00",
        "included_in_blocks":
          [ "BL8jM6p6pgzGhbzM328j4q1ZYNe5HShiQuPVPQ7P8uxohvZ8NCb" ] },
      { "delegate": "tz1SohptP53wDPZhzTWzDUFAUcWF6DMBpaJV",
        "reception_time": "2022-01-20T17:13:56.705-00:00",
        "included_in_blocks":
          [ "BL8jM6p6pgzGhbzM328j4q1ZYNe5HShiQuPVPQ7P8uxohvZ8NCb" ] },
      { "delegate": "tz1TRqbYbUf2GyrjErf3hBzgBJPzW8y36qEs",
        "reception_time": "2022-01-20T17:13:56.242-00:00",
        "included_in_blocks":
          [ "BL8jM6p6pgzGhbzM328j4q1ZYNe5HShiQuPVPQ7P8uxohvZ8NCb" ] },
      { "delegate": "tz3NExpXn9aPNZPorRE4SdjJ2RGrfbJgMAaV",
        "reception_time": "2022-01-20T17:13:55.757-00:00",
        "included_in_blocks":
          [ "BL8jM6p6pgzGhbzM328j4q1ZYNe5HShiQuPVPQ7P8uxohvZ8NCb" ] },
      { "delegate": "tz1eVaNx3gCmG1EsLjijkmgAxdLYVf6Bf5Sq",
        "reception_time": "2022-01-20T17:13:55.856-00:00",
        "included_in_blocks":
          [ "BL8jM6p6pgzGhbzM328j4q1ZYNe5HShiQuPVPQ7P8uxohvZ8NCb" ] },
      { "delegate": "tz3RDC3Jdn4j15J7bBHZd29EUee9gVB1CxD9",
        "reception_time": "2022-01-20T17:13:55.545-00:00",
        "included_in_blocks":
          [ "BL8jM6p6pgzGhbzM328j4q1ZYNe5HShiQuPVPQ7P8uxohvZ8NCb" ] },
      { "delegate": "tz1RCFbB9GpALpsZtu6J58sb74dm8qe6XBzv",
        "reception_time": "2022-01-20T17:13:55.552-00:00",
        "included_in_blocks":
          [ "BL8jM6p6pgzGhbzM328j4q1ZYNe5HShiQuPVPQ7P8uxohvZ8NCb" ] },
      { "delegate": "tz1X4Qb9NJ7JEuitX3jFpZptuAh7DUnCaLs1",
        "reception_time": "2022-01-20T17:13:55.314-00:00",
        "included_in_blocks":
          [ "BL8jM6p6pgzGhbzM328j4q1ZYNe5HShiQuPVPQ7P8uxohvZ8NCb" ] },
      { "delegate": "tz3bvNMQ95vfAYtG8193ymshqjSvmxiCUuR5",
        "reception_time": "2022-01-20T17:13:55.300-00:00",
        "included_in_blocks":
          [ "BL8jM6p6pgzGhbzM328j4q1ZYNe5HShiQuPVPQ7P8uxohvZ8NCb" ] },
      { "delegate": "tz3NDpRj6WBrJPikcPVHRBEjWKxFw3c6eQPS",
        "reception_time": "2022-01-20T17:13:54.864-00:00",
        "included_in_blocks":
          [ "BL8jM6p6pgzGhbzM328j4q1ZYNe5HShiQuPVPQ7P8uxohvZ8NCb" ] },
      { "delegate": "tz3RB4aoyjov4KEVRbuhvQ1CKJgBJMWhaeB8",
        "reception_time": "2022-01-20T17:13:54.939-00:00",
        "included_in_blocks":
          [ "BL8jM6p6pgzGhbzM328j4q1ZYNe5HShiQuPVPQ7P8uxohvZ8NCb" ] },
      { "delegate": "tz1Z2jXfEXL7dXhs6bsLmyLFLfmAkXBzA9WE",
        "reception_time": "2022-01-20T17:13:54.864-00:00",
        "included_in_blocks":
          [ "BL8jM6p6pgzGhbzM328j4q1ZYNe5HShiQuPVPQ7P8uxohvZ8NCb" ] },
      { "delegate": "tz3VEZ4k6a4Wx42iyev6i2aVAptTRLEAivNN",
        "reception_time": "2022-01-20T17:13:54.864-00:00",
        "included_in_blocks":
          [ "BL8jM6p6pgzGhbzM328j4q1ZYNe5HShiQuPVPQ7P8uxohvZ8NCb" ] },
      { "delegate": "tz1SYq214SCBy9naR6cvycQsYcUGpBqQAE8d",
        "reception_time": "2022-01-20T17:13:54.864-00:00",
        "included_in_blocks":
          [ "BL8jM6p6pgzGhbzM328j4q1ZYNe5HShiQuPVPQ7P8uxohvZ8NCb" ] },
      { "delegate": "tz1fZ767VDbqx4DeKiFswPSHh513f51mKEUZ",
        "reception_time": "2022-01-20T17:13:54.864-00:00",
        "included_in_blocks":
          [ "BL8jM6p6pgzGhbzM328j4q1ZYNe5HShiQuPVPQ7P8uxohvZ8NCb" ] },
      { "delegate": "tz2FCNBrERXtaTtNX6iimR1UJ5JSDxvdHM93",
        "reception_time": "2022-01-20T17:13:54.864-00:00",
        "included_in_blocks":
          [ "BL8jM6p6pgzGhbzM328j4q1ZYNe5HShiQuPVPQ7P8uxohvZ8NCb" ] },
      { "delegate": "tz1iPHM2Xx2hwmzcr1EG1zzrV6oKafVoA91m",
        "reception_time": "2022-01-20T17:13:54.864-00:00",
        "included_in_blocks":
          [ "BL8jM6p6pgzGhbzM328j4q1ZYNe5HShiQuPVPQ7P8uxohvZ8NCb" ] },
      { "delegate": "tz1abmz7jiCV2GH2u81LRrGgAFFgvQgiDiaf",
        "reception_time": "2022-01-20T17:13:54.864-00:00",
        "included_in_blocks":
          [ "BL8jM6p6pgzGhbzM328j4q1ZYNe5HShiQuPVPQ7P8uxohvZ8NCb" ] },
      { "delegate": "tz1WnfXMPaNTBmH7DBPwqCWs9cPDJdkGBTZ8",
        "reception_time": "2022-01-20T17:13:54.864-00:00",
        "included_in_blocks":
          [ "BL8jM6p6pgzGhbzM328j4q1ZYNe5HShiQuPVPQ7P8uxohvZ8NCb" ] },
      { "delegate": "tz3WMqdzXqRWXwyvj5Hp2H7QEepaUuS7vd9K",
        "reception_time": "2022-01-20T17:13:54.222-00:00",
        "included_in_blocks":
          [ "BL8jM6p6pgzGhbzM328j4q1ZYNe5HShiQuPVPQ7P8uxohvZ8NCb" ] },
      { "delegate": "tz1T7duV5gZWSTq4YpBGbXNLTfznCLDrFxvs",
        "reception_time": "2022-01-20T17:13:54.222-00:00",
        "included_in_blocks":
          [ "BL8jM6p6pgzGhbzM328j4q1ZYNe5HShiQuPVPQ7P8uxohvZ8NCb" ] },
      { "delegate": "tz1WctSwL49BZtdWAQ75NY6vr4xsAx6oKdah",
        "reception_time": "2022-01-20T17:13:54.222-00:00",
        "included_in_blocks":
          [ "BL8jM6p6pgzGhbzM328j4q1ZYNe5HShiQuPVPQ7P8uxohvZ8NCb" ] },
      { "delegate": "tz3UoffC7FG7zfpmvmjUmUeAaHvzdcUvAj6r",
        "reception_time": "2022-01-20T17:13:54.222-00:00",
        "included_in_blocks":
          [ "BL8jM6p6pgzGhbzM328j4q1ZYNe5HShiQuPVPQ7P8uxohvZ8NCb" ] },
      { "delegate": "tz1Nf6tsK4G6bBqgSQERy4nUtkHNKUVdh7q1",
        "reception_time": "2022-01-20T17:13:54.864-00:00",
        "included_in_blocks":
          [ "BL8jM6p6pgzGhbzM328j4q1ZYNe5HShiQuPVPQ7P8uxohvZ8NCb" ] },
      { "delegate": "tz1Tnjaxk6tbAeC2TmMApPh8UsrEVQvhHvx5",
        "reception_time": "2022-01-20T17:13:53.859-00:00",
        "included_in_blocks":
          [ "BL8jM6p6pgzGhbzM328j4q1ZYNe5HShiQuPVPQ7P8uxohvZ8NCb" ] },
      { "delegate": "tz1WBfwbT66FC6BTLexc2BoyCCBM9LG7pnVW",
        "reception_time": "2022-01-20T17:13:54.222-00:00",
        "included_in_blocks":
          [ "BL8jM6p6pgzGhbzM328j4q1ZYNe5HShiQuPVPQ7P8uxohvZ8NCb" ] },
      { "delegate": "tz1a51WYsAsoh4fs4A4x5aCN6Za26mpfDfTi",
        "reception_time": "2022-01-20T17:13:54.864-00:00",
        "included_in_blocks":
          [ "BL8jM6p6pgzGhbzM328j4q1ZYNe5HShiQuPVPQ7P8uxohvZ8NCb" ] },
      { "delegate": "tz1S8MNvuFEUsWgjHvi3AxibRBf388NhT1q2",
        "reception_time": "2022-01-20T17:13:54.222-00:00",
        "included_in_blocks":
          [ "BL8jM6p6pgzGhbzM328j4q1ZYNe5HShiQuPVPQ7P8uxohvZ8NCb" ] },
      { "delegate": "tz3bTdwZinP8U1JmSweNzVKhmwafqWmFWRfk",
        "reception_time": "2022-01-20T17:13:53.859-00:00",
        "included_in_blocks":
          [ "BL8jM6p6pgzGhbzM328j4q1ZYNe5HShiQuPVPQ7P8uxohvZ8NCb" ] },
      { "delegate": "tz3S6BBeKgJGXxvLyZ1xzXzMPn11nnFtq5L9",
        "reception_time": "2022-01-20T17:13:53.859-00:00",
        "included_in_blocks":
          [ "BL8jM6p6pgzGhbzM328j4q1ZYNe5HShiQuPVPQ7P8uxohvZ8NCb" ] },
      { "delegate": "tz1UJvHTgpVzcKWhTazGxVcn5wsHru5Gietg",
        "reception_time": "2022-01-20T17:13:53.859-00:00",
        "included_in_blocks":
          [ "BL8jM6p6pgzGhbzM328j4q1ZYNe5HShiQuPVPQ7P8uxohvZ8NCb" ] },
      { "delegate": "tz3QT9dHYKDqh563chVa6za8526ys1UKfRfL",
        "reception_time": "2022-01-20T17:13:53.859-00:00",
        "included_in_blocks":
          [ "BL8jM6p6pgzGhbzM328j4q1ZYNe5HShiQuPVPQ7P8uxohvZ8NCb" ] },
      { "delegate": "tz1gfArv665EUkSg2ojMBzcbfwuPxAvqPvjo",
        "reception_time": "2022-01-20T17:13:54.222-00:00",
        "included_in_blocks":
          [ "BL8jM6p6pgzGhbzM328j4q1ZYNe5HShiQuPVPQ7P8uxohvZ8NCb" ] },
      { "delegate": "tz3iJu5vrKZcsqRPs8yJ61UDoeEXZmtro4qh",
        "reception_time": "2022-01-20T17:13:53.859-00:00",
        "included_in_blocks":
          [ "BL8jM6p6pgzGhbzM328j4q1ZYNe5HShiQuPVPQ7P8uxohvZ8NCb" ] },
      { "delegate": "tz1eLbDXYceRsPZoPmaJXZgQ6pzgnTQvZtpo",
        "reception_time": "2022-01-20T17:13:54.222-00:00",
        "included_in_blocks":
          [ "BL8jM6p6pgzGhbzM328j4q1ZYNe5HShiQuPVPQ7P8uxohvZ8NCb" ] },
      { "delegate": "tz3hw2kqXhLUvY65ca1eety2oQTpAvd34R9Q",
        "reception_time": "2022-01-20T17:13:54.222-00:00",
        "included_in_blocks":
          [ "BL8jM6p6pgzGhbzM328j4q1ZYNe5HShiQuPVPQ7P8uxohvZ8NCb" ] },
      { "delegate": "tz1cUTyvZAs9ExrK8Fq88UvaaBrb72bseicE",
        "reception_time": "2022-01-20T17:13:53.859-00:00",
        "included_in_blocks":
          [ "BL8jM6p6pgzGhbzM328j4q1ZYNe5HShiQuPVPQ7P8uxohvZ8NCb" ] },
      { "delegate": "tz3QSGPoRp3Kn7n3vY24eYeu3Peuqo45LQ4D",
        "reception_time": "2022-01-20T17:13:53.859-00:00",
        "included_in_blocks":
          [ "BL8jM6p6pgzGhbzM328j4q1ZYNe5HShiQuPVPQ7P8uxohvZ8NCb" ] },
      { "delegate": "tz1dwu9aYb7CRNq4Y2zAjipdjFuSVKhHS8vA",
        "reception_time": "2022-01-20T17:13:53.859-00:00",
        "included_in_blocks":
          [ "BL8jM6p6pgzGhbzM328j4q1ZYNe5HShiQuPVPQ7P8uxohvZ8NCb" ] },
      { "delegate": "tz1Kf25fX1VdmYGSEzwFy1wNmkbSEZ2V83sY",
        "reception_time": "2022-01-20T17:13:53.859-00:00",
        "included_in_blocks":
          [ "BL8jM6p6pgzGhbzM328j4q1ZYNe5HShiQuPVPQ7P8uxohvZ8NCb" ] },
      { "delegate": "tz1MQJPGNMijnXnVoBENFz9rUhaPt3S7rWoz",
        "reception_time": "2022-01-20T17:13:53.859-00:00",
        "included_in_blocks":
          [ "BL8jM6p6pgzGhbzM328j4q1ZYNe5HShiQuPVPQ7P8uxohvZ8NCb" ] },
      { "delegate": "tz1RQhNh7iB9CZA7i3ifTWNwiGYVffponfbB",
        "reception_time": "2022-01-20T17:13:53.859-00:00",
        "included_in_blocks":
          [ "BL8jM6p6pgzGhbzM328j4q1ZYNe5HShiQuPVPQ7P8uxohvZ8NCb" ] },
      { "delegate": "tz3gtoUxdudfBRcNY7iVdKPHCYYX6xdPpoRS",
        "reception_time": "2022-01-20T17:13:53.859-00:00",
        "included_in_blocks":
          [ "BL8jM6p6pgzGhbzM328j4q1ZYNe5HShiQuPVPQ7P8uxohvZ8NCb" ] },
      { "delegate": "tz3RKYFsLuQzKBtmYuLNas7uMu3AsYd4QdsA",
        "reception_time": "2022-01-20T17:13:54.222-00:00",
        "included_in_blocks":
          [ "BL8jM6p6pgzGhbzM328j4q1ZYNe5HShiQuPVPQ7P8uxohvZ8NCb" ] },
      { "delegate": "tz3ZbP2pM3nwvXztbuMJwJnDvV5xdpU8UkkD",
        "reception_time": "2022-01-20T17:13:53.859-00:00",
        "included_in_blocks":
          [ "BL8jM6p6pgzGhbzM328j4q1ZYNe5HShiQuPVPQ7P8uxohvZ8NCb" ] },
      { "delegate": "tz1d6Fx42mYgVFnHUW8T8A7WBfJ6nD9pVok8",
        "reception_time": "2022-01-20T17:13:53.859-00:00",
        "included_in_blocks":
          [ "BL8jM6p6pgzGhbzM328j4q1ZYNe5HShiQuPVPQ7P8uxohvZ8NCb" ] },
      { "delegate": "tz3NxTnke1acr8o3h5y9ytf5awQBGNJUKzVU",
        "reception_time": "2022-01-20T17:13:53.859-00:00",
        "included_in_blocks":
          [ "BL8jM6p6pgzGhbzM328j4q1ZYNe5HShiQuPVPQ7P8uxohvZ8NCb" ] },
      { "delegate": "tz1TRspM5SeZpaQUhzByXbEvqKF1vnCM2YTK",
        "reception_time": "2022-01-20T17:13:53.859-00:00",
        "included_in_blocks":
          [ "BL8jM6p6pgzGhbzM328j4q1ZYNe5HShiQuPVPQ7P8uxohvZ8NCb" ] },
      { "delegate": "tz1PWCDnz783NNGGQjEFFsHtrcK5yBW4E2rm",
        "reception_time": "2022-01-20T17:13:53.859-00:00",
        "included_in_blocks":
          [ "BL8jM6p6pgzGhbzM328j4q1ZYNe5HShiQuPVPQ7P8uxohvZ8NCb" ] },
      { "delegate": "tz1dNVDWPf3Q59SdJqnjdnu277iyvReiRS9M",
        "reception_time": "2022-01-20T17:13:53.172-00:00",
        "included_in_blocks":
          [ "BL8jM6p6pgzGhbzM328j4q1ZYNe5HShiQuPVPQ7P8uxohvZ8NCb" ] },
      { "delegate": "tz1bnf8bo9GUgeyUhfMcaC7mNqMmLS6Ri3hb",
        "reception_time": "2022-01-20T17:13:53.859-00:00",
        "included_in_blocks":
          [ "BL8jM6p6pgzGhbzM328j4q1ZYNe5HShiQuPVPQ7P8uxohvZ8NCb" ] } ] }