{ "blocks":
    [ { "hash": "BLn45uRJKza81XbrUcAf2Uxa6Y4nvGAKmZP83hY3af61yGzbpDi",
        "delegate": "tz1irJKkXS2DBWkU1NnmFQx1c1L7pbGg4yhk",
        "reception_time": "2022-01-20T20:43:36.131-00:00",
        "timestamp": "2022-01-20T20:43:30Z" } ],
  "endorsements":
    [ { "delegate": "tz1awXW7wuXy21c66vBudMXQVAPgRnqqwgTH" },
      { "delegate": "tz1RjoHc98dBoqaH2jawF62XNKh7YsHwbkEv" },
      { "delegate": "tz1irJKkXS2DBWkU1NnmFQx1c1L7pbGg4yhk",
        "reception_time": "2022-01-20T20:43:36.055-00:00",
        "errors":
          [ { "kind": "temporary",
              "id": "proto.011-PtHangz2.prefilter.outdated_endorsement" } ],
        "included_in_blocks":
          [ "BM1iBZYwSFrDYNPRwGjunWVyQh7nHUQAcmTKjtWdEh1s1WxAMHB" ] },
      { "delegate": "tz1P2Po7YM526ughEsRbY4oR9zaUPDZjxFrb",
        "reception_time": "2022-01-20T20:43:35.650-00:00",
        "errors":
          [ { "kind": "temporary",
              "id": "proto.011-PtHangz2.prefilter.outdated_endorsement" } ],
        "included_in_blocks":
          [ "BM1iBZYwSFrDYNPRwGjunWVyQh7nHUQAcmTKjtWdEh1s1WxAMHB" ] },
      { "delegate": "tz2BzJTyoQp8fNbfhWD4YQgH9JJHDgSGzpdG",
        "reception_time": "2022-01-20T20:43:44.502-00:00",
        "included_in_blocks":
          [ "BM1iBZYwSFrDYNPRwGjunWVyQh7nHUQAcmTKjtWdEh1s1WxAMHB" ] },
      { "delegate": "tz1bTpviNnyx2PXsNmGpCQTMQsGoYordkUoA",
        "reception_time": "2022-01-20T20:43:40.779-00:00",
        "included_in_blocks":
          [ "BM1iBZYwSFrDYNPRwGjunWVyQh7nHUQAcmTKjtWdEh1s1WxAMHB" ] },
      { "delegate": "tz1TRqbYbUf2GyrjErf3hBzgBJPzW8y36qEs",
        "reception_time": "2022-01-20T20:43:40.472-00:00",
        "included_in_blocks":
          [ "BM1iBZYwSFrDYNPRwGjunWVyQh7nHUQAcmTKjtWdEh1s1WxAMHB" ] },
      { "delegate": "tz1aRoaRhSpRYvFdyvgWLL6TGyRoGF51wDjM",
        "reception_time": "2022-01-20T20:43:40.144-00:00",
        "included_in_blocks":
          [ "BM1iBZYwSFrDYNPRwGjunWVyQh7nHUQAcmTKjtWdEh1s1WxAMHB" ] },
      { "delegate": "tz1ZcTRk5uxD86EFEn1vvNffWWqJy7q5eVhc",
        "reception_time": "2022-01-20T20:43:40.139-00:00",
        "included_in_blocks":
          [ "BM1iBZYwSFrDYNPRwGjunWVyQh7nHUQAcmTKjtWdEh1s1WxAMHB" ] },
      { "delegate": "tz3NExpXn9aPNZPorRE4SdjJ2RGrfbJgMAaV",
        "reception_time": "2022-01-20T20:43:39.990-00:00",
        "included_in_blocks":
          [ "BM1iBZYwSFrDYNPRwGjunWVyQh7nHUQAcmTKjtWdEh1s1WxAMHB" ] },
      { "delegate": "tz3NDpRj6WBrJPikcPVHRBEjWKxFw3c6eQPS",
        "reception_time": "2022-01-20T20:43:39.801-00:00",
        "included_in_blocks":
          [ "BM1iBZYwSFrDYNPRwGjunWVyQh7nHUQAcmTKjtWdEh1s1WxAMHB" ] },
      { "delegate": "tz1SYq214SCBy9naR6cvycQsYcUGpBqQAE8d",
        "reception_time": "2022-01-20T20:43:39.839-00:00",
        "included_in_blocks":
          [ "BM1iBZYwSFrDYNPRwGjunWVyQh7nHUQAcmTKjtWdEh1s1WxAMHB" ] },
      { "delegate": "tz1abmz7jiCV2GH2u81LRrGgAFFgvQgiDiaf",
        "reception_time": "2022-01-20T20:43:39.433-00:00",
        "included_in_blocks":
          [ "BM1iBZYwSFrDYNPRwGjunWVyQh7nHUQAcmTKjtWdEh1s1WxAMHB" ] },
      { "delegate": "tz1RzwaogUQ8zPntqrSn4yn5f3VquXfEH5Jo",
        "reception_time": "2022-01-20T20:43:39.249-00:00",
        "included_in_blocks":
          [ "BM1iBZYwSFrDYNPRwGjunWVyQh7nHUQAcmTKjtWdEh1s1WxAMHB" ] },
      { "delegate": "tz2FCNBrERXtaTtNX6iimR1UJ5JSDxvdHM93",
        "reception_time": "2022-01-20T20:43:39.378-00:00",
        "included_in_blocks":
          [ "BM1iBZYwSFrDYNPRwGjunWVyQh7nHUQAcmTKjtWdEh1s1WxAMHB" ] },
      { "delegate": "tz1NoYvKjXTzTk54VpLxBfouJ33J8jwKPPvw",
        "reception_time": "2022-01-20T20:43:39.231-00:00",
        "included_in_blocks":
          [ "BM1iBZYwSFrDYNPRwGjunWVyQh7nHUQAcmTKjtWdEh1s1WxAMHB" ] },
      { "delegate": "tz1cYufsxHXJcvANhvS55h3aY32a9BAFB494",
        "reception_time": "2022-01-20T20:43:39.148-00:00",
        "included_in_blocks":
          [ "BM1iBZYwSFrDYNPRwGjunWVyQh7nHUQAcmTKjtWdEh1s1WxAMHB" ] },
      { "delegate": "tz3bvNMQ95vfAYtG8193ymshqjSvmxiCUuR5",
        "reception_time": "2022-01-20T20:43:39.066-00:00",
        "included_in_blocks":
          [ "BM1iBZYwSFrDYNPRwGjunWVyQh7nHUQAcmTKjtWdEh1s1WxAMHB" ] },
      { "delegate": "tz3WMqdzXqRWXwyvj5Hp2H7QEepaUuS7vd9K",
        "reception_time": "2022-01-20T20:43:38.937-00:00",
        "included_in_blocks":
          [ "BM1iBZYwSFrDYNPRwGjunWVyQh7nHUQAcmTKjtWdEh1s1WxAMHB" ] },
      { "delegate": "tz3VEZ4k6a4Wx42iyev6i2aVAptTRLEAivNN",
        "reception_time": "2022-01-20T20:43:38.995-00:00",
        "included_in_blocks":
          [ "BM1iBZYwSFrDYNPRwGjunWVyQh7nHUQAcmTKjtWdEh1s1WxAMHB" ] },
      { "delegate": "tz1T7duV5gZWSTq4YpBGbXNLTfznCLDrFxvs",
        "reception_time": "2022-01-20T20:43:38.847-00:00",
        "included_in_blocks":
          [ "BM1iBZYwSFrDYNPRwGjunWVyQh7nHUQAcmTKjtWdEh1s1WxAMHB" ] },
      { "delegate": "tz1PeZx7FXy7QRuMREGXGxeipb24RsMMzUNe",
        "reception_time": "2022-01-20T20:43:38.681-00:00",
        "included_in_blocks":
          [ "BM1iBZYwSFrDYNPRwGjunWVyQh7nHUQAcmTKjtWdEh1s1WxAMHB" ] },
      { "delegate": "tz1S8MNvuFEUsWgjHvi3AxibRBf388NhT1q2",
        "reception_time": "2022-01-20T20:43:38.752-00:00",
        "included_in_blocks":
          [ "BM1iBZYwSFrDYNPRwGjunWVyQh7nHUQAcmTKjtWdEh1s1WxAMHB" ] },
      { "delegate": "tz1cig1EHyvZd7J2k389moM9PxVgPQvmFkvi",
        "reception_time": "2022-01-20T20:43:38.746-00:00",
        "included_in_blocks":
          [ "BM1iBZYwSFrDYNPRwGjunWVyQh7nHUQAcmTKjtWdEh1s1WxAMHB" ] },
      { "delegate": "tz3UoffC7FG7zfpmvmjUmUeAaHvzdcUvAj6r",
        "reception_time": "2022-01-20T20:43:38.640-00:00",
        "included_in_blocks":
          [ "BM1iBZYwSFrDYNPRwGjunWVyQh7nHUQAcmTKjtWdEh1s1WxAMHB" ] },
      { "delegate": "tz1axcnVN9tZnCe4sQQhC6f3tfSEXdjPaXPY",
        "reception_time": "2022-01-20T20:43:38.407-00:00",
        "included_in_blocks":
          [ "BM1iBZYwSFrDYNPRwGjunWVyQh7nHUQAcmTKjtWdEh1s1WxAMHB" ] },
      { "delegate": "tz1RCFbB9GpALpsZtu6J58sb74dm8qe6XBzv",
        "reception_time": "2022-01-20T20:43:38.391-00:00",
        "included_in_blocks":
          [ "BM1iBZYwSFrDYNPRwGjunWVyQh7nHUQAcmTKjtWdEh1s1WxAMHB" ] },
      { "delegate": "tz3RB4aoyjov4KEVRbuhvQ1CKJgBJMWhaeB8",
        "reception_time": "2022-01-20T20:43:38.343-00:00",
        "included_in_blocks":
          [ "BM1iBZYwSFrDYNPRwGjunWVyQh7nHUQAcmTKjtWdEh1s1WxAMHB" ] },
      { "delegate": "tz1dNVDWPf3Q59SdJqnjdnu277iyvReiRS9M",
        "reception_time": "2022-01-20T20:43:38.343-00:00",
        "included_in_blocks":
          [ "BM1iBZYwSFrDYNPRwGjunWVyQh7nHUQAcmTKjtWdEh1s1WxAMHB" ] },
      { "delegate": "tz1KfEsrtDaA1sX7vdM4qmEPWuSytuqCDp5j",
        "reception_time": "2022-01-20T20:43:38.345-00:00",
        "included_in_blocks":
          [ "BM1iBZYwSFrDYNPRwGjunWVyQh7nHUQAcmTKjtWdEh1s1WxAMHB" ] },
      { "delegate": "tz1LmaFsWRkjr7QMCx5PtV6xTUz3AmEpKQiF",
        "reception_time": "2022-01-20T20:43:38.343-00:00",
        "included_in_blocks":
          [ "BM1iBZYwSFrDYNPRwGjunWVyQh7nHUQAcmTKjtWdEh1s1WxAMHB" ] },
      { "delegate": "tz1Tnjaxk6tbAeC2TmMApPh8UsrEVQvhHvx5",
        "reception_time": "2022-01-20T20:43:38.343-00:00",
        "included_in_blocks":
          [ "BM1iBZYwSFrDYNPRwGjunWVyQh7nHUQAcmTKjtWdEh1s1WxAMHB" ] },
      { "delegate": "tz1RQhNh7iB9CZA7i3ifTWNwiGYVffponfbB",
        "reception_time": "2022-01-20T20:43:38.343-00:00",
        "included_in_blocks":
          [ "BM1iBZYwSFrDYNPRwGjunWVyQh7nHUQAcmTKjtWdEh1s1WxAMHB" ] },
      { "delegate": "tz1d6Fx42mYgVFnHUW8T8A7WBfJ6nD9pVok8",
        "reception_time": "2022-01-20T20:43:38.343-00:00",
        "included_in_blocks":
          [ "BM1iBZYwSFrDYNPRwGjunWVyQh7nHUQAcmTKjtWdEh1s1WxAMHB" ] },
      { "delegate": "tz3RDC3Jdn4j15J7bBHZd29EUee9gVB1CxD9",
        "reception_time": "2022-01-20T20:43:38.343-00:00",
        "included_in_blocks":
          [ "BM1iBZYwSFrDYNPRwGjunWVyQh7nHUQAcmTKjtWdEh1s1WxAMHB" ] },
      { "delegate": "tz1g8vkmcde6sWKaG2NN9WKzCkDM6Rziq194",
        "reception_time": "2022-01-20T20:43:38.343-00:00",
        "included_in_blocks":
          [ "BM1iBZYwSFrDYNPRwGjunWVyQh7nHUQAcmTKjtWdEh1s1WxAMHB" ] },
      { "delegate": "tz1V4qCyvPKZ5UeqdH14HN42rxvNPQfc9UZg",
        "reception_time": "2022-01-20T20:43:38.343-00:00",
        "included_in_blocks":
          [ "BM1iBZYwSFrDYNPRwGjunWVyQh7nHUQAcmTKjtWdEh1s1WxAMHB" ] },
      { "delegate": "tz1Nf6tsK4G6bBqgSQERy4nUtkHNKUVdh7q1",
        "reception_time": "2022-01-20T20:43:38.343-00:00",
        "included_in_blocks":
          [ "BM1iBZYwSFrDYNPRwGjunWVyQh7nHUQAcmTKjtWdEh1s1WxAMHB" ] },
      { "delegate": "tz3bTdwZinP8U1JmSweNzVKhmwafqWmFWRfk",
        "reception_time": "2022-01-20T20:43:38.343-00:00",
        "included_in_blocks":
          [ "BM1iBZYwSFrDYNPRwGjunWVyQh7nHUQAcmTKjtWdEh1s1WxAMHB" ] },
      { "delegate": "tz1gfArv665EUkSg2ojMBzcbfwuPxAvqPvjo",
        "reception_time": "2022-01-20T20:43:38.343-00:00",
        "included_in_blocks":
          [ "BM1iBZYwSFrDYNPRwGjunWVyQh7nHUQAcmTKjtWdEh1s1WxAMHB" ] },
      { "delegate": "tz3QT9dHYKDqh563chVa6za8526ys1UKfRfL",
        "reception_time": "2022-01-20T20:43:38.343-00:00",
        "included_in_blocks":
          [ "BM1iBZYwSFrDYNPRwGjunWVyQh7nHUQAcmTKjtWdEh1s1WxAMHB" ] },
      { "delegate": "tz3S6BBeKgJGXxvLyZ1xzXzMPn11nnFtq5L9",
        "reception_time": "2022-01-20T20:43:38.343-00:00",
        "included_in_blocks":
          [ "BM1iBZYwSFrDYNPRwGjunWVyQh7nHUQAcmTKjtWdEh1s1WxAMHB" ] },
      { "delegate": "tz1bHzftcTKZMTZgLLtnrXydCm6UEqf4ivca",
        "reception_time": "2022-01-20T20:43:37.680-00:00",
        "included_in_blocks":
          [ "BM1iBZYwSFrDYNPRwGjunWVyQh7nHUQAcmTKjtWdEh1s1WxAMHB" ] },
      { "delegate": "tz3QSGPoRp3Kn7n3vY24eYeu3Peuqo45LQ4D",
        "reception_time": "2022-01-20T20:43:37.680-00:00",
        "included_in_blocks":
          [ "BM1iBZYwSFrDYNPRwGjunWVyQh7nHUQAcmTKjtWdEh1s1WxAMHB" ] },
      { "delegate": "tz1PWCDnz783NNGGQjEFFsHtrcK5yBW4E2rm",
        "reception_time": "2022-01-20T20:43:37.680-00:00",
        "included_in_blocks":
          [ "BM1iBZYwSFrDYNPRwGjunWVyQh7nHUQAcmTKjtWdEh1s1WxAMHB" ] },
      { "delegate": "tz3iJu5vrKZcsqRPs8yJ61UDoeEXZmtro4qh",
        "reception_time": "2022-01-20T20:43:37.680-00:00",
        "included_in_blocks":
          [ "BM1iBZYwSFrDYNPRwGjunWVyQh7nHUQAcmTKjtWdEh1s1WxAMHB" ] },
      { "delegate": "tz3gtoUxdudfBRcNY7iVdKPHCYYX6xdPpoRS",
        "reception_time": "2022-01-20T20:43:37.680-00:00",
        "included_in_blocks":
          [ "BM1iBZYwSFrDYNPRwGjunWVyQh7nHUQAcmTKjtWdEh1s1WxAMHB" ] },
      { "delegate": "tz3Zhs2dygr55yHyQyKjntAtY9bgfhLZ4Xj1",
        "reception_time": "2022-01-20T20:43:37.680-00:00",
        "included_in_blocks":
          [ "BM1iBZYwSFrDYNPRwGjunWVyQh7nHUQAcmTKjtWdEh1s1WxAMHB" ] },
      { "delegate": "tz1QLXqnfN51dkjeghXvKHkJfhvGiM5gK4tc",
        "reception_time": "2022-01-20T20:43:37.680-00:00",
        "included_in_blocks":
          [ "BM1iBZYwSFrDYNPRwGjunWVyQh7nHUQAcmTKjtWdEh1s1WxAMHB" ] },
      { "delegate": "tz1MQMiZHV8q4tTwUMWmS5Y3kaP6J2136iXr",
        "reception_time": "2022-01-20T20:43:37.680-00:00",
        "included_in_blocks":
          [ "BM1iBZYwSFrDYNPRwGjunWVyQh7nHUQAcmTKjtWdEh1s1WxAMHB" ] },
      { "delegate": "tz3hw2kqXhLUvY65ca1eety2oQTpAvd34R9Q",
        "reception_time": "2022-01-20T20:43:37.680-00:00",
        "included_in_blocks":
          [ "BM1iBZYwSFrDYNPRwGjunWVyQh7nHUQAcmTKjtWdEh1s1WxAMHB" ] },
      { "delegate": "tz3RKYFsLuQzKBtmYuLNas7uMu3AsYd4QdsA",
        "reception_time": "2022-01-20T20:43:37.280-00:00",
        "included_in_blocks":
          [ "BM1iBZYwSFrDYNPRwGjunWVyQh7nHUQAcmTKjtWdEh1s1WxAMHB" ] },
      { "delegate": "tz1TRspM5SeZpaQUhzByXbEvqKF1vnCM2YTK",
        "reception_time": "2022-01-20T20:43:37.280-00:00",
        "included_in_blocks":
          [ "BM1iBZYwSFrDYNPRwGjunWVyQh7nHUQAcmTKjtWdEh1s1WxAMHB" ] },
      { "delegate": "tz1Kf25fX1VdmYGSEzwFy1wNmkbSEZ2V83sY",
        "reception_time": "2022-01-20T20:43:37.280-00:00",
        "included_in_blocks":
          [ "BM1iBZYwSFrDYNPRwGjunWVyQh7nHUQAcmTKjtWdEh1s1WxAMHB" ] },
      { "delegate": "tz3ZbP2pM3nwvXztbuMJwJnDvV5xdpU8UkkD",
        "reception_time": "2022-01-20T20:43:37.280-00:00",
        "included_in_blocks":
          [ "BM1iBZYwSFrDYNPRwGjunWVyQh7nHUQAcmTKjtWdEh1s1WxAMHB" ] },
      { "delegate": "tz3NxTnke1acr8o3h5y9ytf5awQBGNJUKzVU",
        "reception_time": "2022-01-20T20:43:37.280-00:00",
        "included_in_blocks":
          [ "BM1iBZYwSFrDYNPRwGjunWVyQh7nHUQAcmTKjtWdEh1s1WxAMHB" ] },
      { "delegate": "tz1VmiY38m3y95HqQLjMwqnMS7sdMfGomzKi",
        "reception_time": "2022-01-20T20:43:37.280-00:00",
        "included_in_blocks":
          [ "BM1iBZYwSFrDYNPRwGjunWVyQh7nHUQAcmTKjtWdEh1s1WxAMHB" ] },
      { "delegate": "tz1WCd2jm4uSt4vntk4vSuUWoZQGhLcDuR9q",
        "reception_time": "2022-01-20T20:43:37.280-00:00",
        "included_in_blocks":
          [ "BM1iBZYwSFrDYNPRwGjunWVyQh7nHUQAcmTKjtWdEh1s1WxAMHB" ] },
      { "delegate": "tz1XfAjZyaLdceHnZxbMYop7g7kWKPut4PR7",
        "reception_time": "2022-01-20T20:43:37.280-00:00",
        "included_in_blocks":
          [ "BM1iBZYwSFrDYNPRwGjunWVyQh7nHUQAcmTKjtWdEh1s1WxAMHB" ] },
      { "delegate": "tz1Ldzz6k1BHdhuKvAtMRX7h5kJSMHESMHLC",
        "reception_time": "2022-01-20T20:43:37.280-00:00",
        "included_in_blocks":
          [ "BM1iBZYwSFrDYNPRwGjunWVyQh7nHUQAcmTKjtWdEh1s1WxAMHB" ] },
      { "delegate": "tz1VQnqCCqX4K5sP3FNkVSNKTdCAMJDd3E1n",
        "reception_time": "2022-01-20T20:43:37.280-00:00",
        "included_in_blocks":
          [ "BM1iBZYwSFrDYNPRwGjunWVyQh7nHUQAcmTKjtWdEh1s1WxAMHB" ] },
      { "delegate": "tz1gUNyn3hmnEWqkusWPzxRaon1cs7ndWh7h",
        "reception_time": "2022-01-20T20:43:37.280-00:00",
        "included_in_blocks":
          [ "BM1iBZYwSFrDYNPRwGjunWVyQh7nHUQAcmTKjtWdEh1s1WxAMHB" ] },
      { "delegate": "tz1Scdr2HsZiQjc7bHMeBbmDRXYVvdhjJbBh",
        "reception_time": "2022-01-20T20:43:37.280-00:00",
        "included_in_blocks":
          [ "BM1iBZYwSFrDYNPRwGjunWVyQh7nHUQAcmTKjtWdEh1s1WxAMHB" ] },
      { "delegate": "tz1eEnQhbwf6trb8Q8mPb2RaPkNk2rN7BKi8",
        "reception_time": "2022-01-20T20:43:37.280-00:00",
        "included_in_blocks":
          [ "BM1iBZYwSFrDYNPRwGjunWVyQh7nHUQAcmTKjtWdEh1s1WxAMHB" ] } ] }