{ "blocks":
    [ { "hash": "BLR5eCSXFgA8LhTBR6kWW49GUZpXG1rjFyaMf2Hc9RX9DKBBmnD",
        "delegate": "tz1iPHM2Xx2hwmzcr1EG1zzrV6oKafVoA91m",
        "reception_time": "2022-01-20T20:34:45.049-00:00",
        "timestamp": "2022-01-20T20:34:30Z" } ],
  "endorsements":
    [ { "delegate": "tz3NExpXn9aPNZPorRE4SdjJ2RGrfbJgMAaV",
        "reception_time": "2022-01-20T20:34:46.290-00:00",
        "included_in_blocks":
          [ "BLp82FSk9Rgv4y463eW1YAT3HRkkvGovKAGMPPWpb2WqqXt4fUV" ] },
      { "delegate": "tz3WMqdzXqRWXwyvj5Hp2H7QEepaUuS7vd9K",
        "reception_time": "2022-01-20T20:34:46.245-00:00",
        "included_in_blocks":
          [ "BLp82FSk9Rgv4y463eW1YAT3HRkkvGovKAGMPPWpb2WqqXt4fUV" ] },
      { "delegate": "tz1Nf6tsK4G6bBqgSQERy4nUtkHNKUVdh7q1",
        "reception_time": "2022-01-20T20:34:46.266-00:00",
        "included_in_blocks":
          [ "BLp82FSk9Rgv4y463eW1YAT3HRkkvGovKAGMPPWpb2WqqXt4fUV" ] },
      { "delegate": "tz1TEc75UKXv4W5cwi14Na3NtqFD51yKQi7h",
        "reception_time": "2022-01-20T20:34:46.282-00:00",
        "included_in_blocks":
          [ "BLp82FSk9Rgv4y463eW1YAT3HRkkvGovKAGMPPWpb2WqqXt4fUV" ] },
      { "delegate": "tz3UoffC7FG7zfpmvmjUmUeAaHvzdcUvAj6r",
        "reception_time": "2022-01-20T20:34:46.383-00:00",
        "included_in_blocks":
          [ "BLp82FSk9Rgv4y463eW1YAT3HRkkvGovKAGMPPWpb2WqqXt4fUV" ] },
      { "delegate": "tz1g8vkmcde6sWKaG2NN9WKzCkDM6Rziq194",
        "reception_time": "2022-01-20T20:34:46.245-00:00",
        "included_in_blocks":
          [ "BLp82FSk9Rgv4y463eW1YAT3HRkkvGovKAGMPPWpb2WqqXt4fUV" ] },
      { "delegate": "tz1MQJPGNMijnXnVoBENFz9rUhaPt3S7rWoz",
        "reception_time": "2022-01-20T20:34:46.376-00:00",
        "included_in_blocks":
          [ "BLp82FSk9Rgv4y463eW1YAT3HRkkvGovKAGMPPWpb2WqqXt4fUV" ] },
      { "delegate": "tz3bEQoFCZEEfZMskefZ8q8e4eiHH1pssRax",
        "reception_time": "2022-01-20T20:34:46.261-00:00",
        "included_in_blocks":
          [ "BLp82FSk9Rgv4y463eW1YAT3HRkkvGovKAGMPPWpb2WqqXt4fUV" ] },
      { "delegate": "tz3RDC3Jdn4j15J7bBHZd29EUee9gVB1CxD9",
        "reception_time": "2022-01-20T20:34:46.275-00:00",
        "included_in_blocks":
          [ "BLp82FSk9Rgv4y463eW1YAT3HRkkvGovKAGMPPWpb2WqqXt4fUV" ] },
      { "delegate": "tz1WeKH4iJ4PVxKeVYwCoRUZNW9f9vFq1QXq",
        "reception_time": "2022-01-20T20:34:46.471-00:00",
        "included_in_blocks":
          [ "BLp82FSk9Rgv4y463eW1YAT3HRkkvGovKAGMPPWpb2WqqXt4fUV" ] },
      { "delegate": "tz1NEKxGEHsFufk87CVZcrqWu8o22qh46GK6",
        "reception_time": "2022-01-20T20:34:46.716-00:00",
        "included_in_blocks":
          [ "BLp82FSk9Rgv4y463eW1YAT3HRkkvGovKAGMPPWpb2WqqXt4fUV" ] },
      { "delegate": "tz1LmaFsWRkjr7QMCx5PtV6xTUz3AmEpKQiF",
        "reception_time": "2022-01-20T20:34:46.386-00:00",
        "included_in_blocks":
          [ "BLp82FSk9Rgv4y463eW1YAT3HRkkvGovKAGMPPWpb2WqqXt4fUV" ] },
      { "delegate": "tz1aRoaRhSpRYvFdyvgWLL6TGyRoGF51wDjM",
        "reception_time": "2022-01-20T20:34:46.399-00:00",
        "included_in_blocks":
          [ "BLp82FSk9Rgv4y463eW1YAT3HRkkvGovKAGMPPWpb2WqqXt4fUV" ] },
      { "delegate": "tz3gLTu4Yxj8tPAcriQVUdxv6BY9QyvzU1az",
        "reception_time": "2022-01-20T20:34:46.393-00:00",
        "included_in_blocks":
          [ "BLp82FSk9Rgv4y463eW1YAT3HRkkvGovKAGMPPWpb2WqqXt4fUV" ] },
      { "delegate": "tz1S8MNvuFEUsWgjHvi3AxibRBf388NhT1q2",
        "reception_time": "2022-01-20T20:34:47.500-00:00",
        "included_in_blocks":
          [ "BLp82FSk9Rgv4y463eW1YAT3HRkkvGovKAGMPPWpb2WqqXt4fUV" ] },
      { "delegate": "tz1ZcTRk5uxD86EFEn1vvNffWWqJy7q5eVhc",
        "reception_time": "2022-01-20T20:34:47.617-00:00",
        "included_in_blocks":
          [ "BLp82FSk9Rgv4y463eW1YAT3HRkkvGovKAGMPPWpb2WqqXt4fUV" ] },
      { "delegate": "tz1abmz7jiCV2GH2u81LRrGgAFFgvQgiDiaf",
        "reception_time": "2022-01-20T20:34:47.709-00:00",
        "included_in_blocks":
          [ "BLp82FSk9Rgv4y463eW1YAT3HRkkvGovKAGMPPWpb2WqqXt4fUV" ] },
      { "delegate": "tz1NSDFKuRyzHxpfG1AMkyCwEiZ52cbR2mRW",
        "reception_time": "2022-01-20T20:34:47.770-00:00",
        "included_in_blocks":
          [ "BLp82FSk9Rgv4y463eW1YAT3HRkkvGovKAGMPPWpb2WqqXt4fUV" ] },
      { "delegate": "tz1T7duV5gZWSTq4YpBGbXNLTfznCLDrFxvs",
        "reception_time": "2022-01-20T20:34:47.735-00:00",
        "included_in_blocks":
          [ "BLp82FSk9Rgv4y463eW1YAT3HRkkvGovKAGMPPWpb2WqqXt4fUV" ] },
      { "delegate": "tz1RCFbB9GpALpsZtu6J58sb74dm8qe6XBzv",
        "reception_time": "2022-01-20T20:34:48.507-00:00",
        "included_in_blocks":
          [ "BLp82FSk9Rgv4y463eW1YAT3HRkkvGovKAGMPPWpb2WqqXt4fUV" ] },
      { "delegate": "tz1TwVimQy3BywXoSszdFXjT9bSTQrsZYo2u",
        "reception_time": "2022-01-20T20:34:48.907-00:00",
        "included_in_blocks":
          [ "BLp82FSk9Rgv4y463eW1YAT3HRkkvGovKAGMPPWpb2WqqXt4fUV" ] },
      { "delegate": "tz1cYufsxHXJcvANhvS55h3aY32a9BAFB494",
        "reception_time": "2022-01-20T20:34:50.627-00:00",
        "included_in_blocks":
          [ "BLp82FSk9Rgv4y463eW1YAT3HRkkvGovKAGMPPWpb2WqqXt4fUV" ] },
      { "delegate": "tz2FCNBrERXtaTtNX6iimR1UJ5JSDxvdHM93",
        "reception_time": "2022-01-20T20:34:51.220-00:00",
        "included_in_blocks":
          [ "BLp82FSk9Rgv4y463eW1YAT3HRkkvGovKAGMPPWpb2WqqXt4fUV" ] },
      { "delegate": "tz1SYq214SCBy9naR6cvycQsYcUGpBqQAE8d",
        "reception_time": "2022-01-20T20:34:54.287-00:00",
        "included_in_blocks":
          [ "BLp82FSk9Rgv4y463eW1YAT3HRkkvGovKAGMPPWpb2WqqXt4fUV" ] },
      { "delegate": "tz1PFeoTuFen8jAMRHajBySNyCwLmY5RqF9M",
        "reception_time": "2022-01-20T20:34:55.265-00:00",
        "included_in_blocks":
          [ "BLp82FSk9Rgv4y463eW1YAT3HRkkvGovKAGMPPWpb2WqqXt4fUV" ] },
      { "delegate": "tz1i5PPsXa711EuZzped9jqPS8hGKsrCMB9f",
        "reception_time": "2022-01-20T20:34:55.808-00:00",
        "included_in_blocks":
          [ "BLp82FSk9Rgv4y463eW1YAT3HRkkvGovKAGMPPWpb2WqqXt4fUV" ] },
      { "delegate": "tz1P2Po7YM526ughEsRbY4oR9zaUPDZjxFrb",
        "reception_time": "2022-01-20T20:34:41.096-00:00",
        "errors":
          [ { "kind": "temporary",
              "id": "proto.011-PtHangz2.prefilter.outdated_endorsement" } ],
        "included_in_blocks":
          [ "BLp82FSk9Rgv4y463eW1YAT3HRkkvGovKAGMPPWpb2WqqXt4fUV" ] },
      { "delegate": "tz1Lhf4J9Qxoe3DZ2nfe8FGDnvVj7oKjnMY6",
        "reception_time": "2022-01-20T20:34:41.741-00:00",
        "errors":
          [ { "kind": "temporary",
              "id": "proto.011-PtHangz2.prefilter.outdated_endorsement" } ],
        "included_in_blocks":
          [ "BLp82FSk9Rgv4y463eW1YAT3HRkkvGovKAGMPPWpb2WqqXt4fUV" ] },
      { "delegate": "tz1WL4xAAYsQ2GM9MCQGePYcbwwu6kvfqMWN",
        "reception_time": "2022-01-20T20:34:41.989-00:00",
        "errors":
          [ { "kind": "temporary",
              "id": "proto.011-PtHangz2.prefilter.outdated_endorsement" } ],
        "included_in_blocks":
          [ "BLp82FSk9Rgv4y463eW1YAT3HRkkvGovKAGMPPWpb2WqqXt4fUV" ] },
      { "delegate": "tz1irJKkXS2DBWkU1NnmFQx1c1L7pbGg4yhk",
        "reception_time": "2022-01-20T20:34:41.994-00:00",
        "errors":
          [ { "kind": "temporary",
              "id": "proto.011-PtHangz2.prefilter.outdated_endorsement" } ],
        "included_in_blocks":
          [ "BLp82FSk9Rgv4y463eW1YAT3HRkkvGovKAGMPPWpb2WqqXt4fUV" ] },
      { "delegate": "tz1beersuEDv8Z7ngQ825xfbaJNS2EhXnyHR",
        "reception_time": "2022-01-20T20:34:42.202-00:00",
        "errors":
          [ { "kind": "temporary",
              "id": "proto.011-PtHangz2.prefilter.outdated_endorsement" } ],
        "included_in_blocks":
          [ "BLp82FSk9Rgv4y463eW1YAT3HRkkvGovKAGMPPWpb2WqqXt4fUV" ] },
      { "delegate": "tz1VQnqCCqX4K5sP3FNkVSNKTdCAMJDd3E1n",
        "reception_time": "2022-01-20T20:34:42.353-00:00",
        "errors":
          [ { "kind": "temporary",
              "id": "proto.011-PtHangz2.prefilter.outdated_endorsement" } ],
        "included_in_blocks":
          [ "BLp82FSk9Rgv4y463eW1YAT3HRkkvGovKAGMPPWpb2WqqXt4fUV" ] },
      { "delegate": "tz3ZbP2pM3nwvXztbuMJwJnDvV5xdpU8UkkD",
        "reception_time": "2022-01-20T20:34:42.638-00:00",
        "errors":
          [ { "kind": "temporary",
              "id": "proto.011-PtHangz2.prefilter.outdated_endorsement" } ],
        "included_in_blocks":
          [ "BLp82FSk9Rgv4y463eW1YAT3HRkkvGovKAGMPPWpb2WqqXt4fUV" ] },
      { "delegate": "tz1eEnQhbwf6trb8Q8mPb2RaPkNk2rN7BKi8",
        "reception_time": "2022-01-20T20:34:42.673-00:00",
        "errors":
          [ { "kind": "temporary",
              "id": "proto.011-PtHangz2.prefilter.outdated_endorsement" } ],
        "included_in_blocks":
          [ "BLp82FSk9Rgv4y463eW1YAT3HRkkvGovKAGMPPWpb2WqqXt4fUV" ] },
      { "delegate": "tz3NxTnke1acr8o3h5y9ytf5awQBGNJUKzVU",
        "reception_time": "2022-01-20T20:34:42.699-00:00",
        "errors":
          [ { "kind": "temporary",
              "id": "proto.011-PtHangz2.prefilter.outdated_endorsement" } ],
        "included_in_blocks":
          [ "BLp82FSk9Rgv4y463eW1YAT3HRkkvGovKAGMPPWpb2WqqXt4fUV" ] },
      { "delegate": "tz1aqcYgG6NuViML5vdWhohHJBYxcDVLNUsE",
        "reception_time": "2022-01-20T20:34:42.752-00:00",
        "errors":
          [ { "kind": "temporary",
              "id": "proto.011-PtHangz2.prefilter.outdated_endorsement" } ],
        "included_in_blocks":
          [ "BLp82FSk9Rgv4y463eW1YAT3HRkkvGovKAGMPPWpb2WqqXt4fUV" ] },
      { "delegate": "tz1STeamwbp68THcny9zk3LsbG3H36DMvbRK",
        "reception_time": "2022-01-20T20:34:42.869-00:00",
        "errors":
          [ { "kind": "temporary",
              "id": "proto.011-PtHangz2.prefilter.outdated_endorsement" } ],
        "included_in_blocks":
          [ "BLp82FSk9Rgv4y463eW1YAT3HRkkvGovKAGMPPWpb2WqqXt4fUV" ] },
      { "delegate": "tz1Ldzz6k1BHdhuKvAtMRX7h5kJSMHESMHLC",
        "reception_time": "2022-01-20T20:34:42.874-00:00",
        "errors":
          [ { "kind": "temporary",
              "id": "proto.011-PtHangz2.prefilter.outdated_endorsement" } ],
        "included_in_blocks":
          [ "BLp82FSk9Rgv4y463eW1YAT3HRkkvGovKAGMPPWpb2WqqXt4fUV" ] },
      { "delegate": "tz1Scdr2HsZiQjc7bHMeBbmDRXYVvdhjJbBh",
        "reception_time": "2022-01-20T20:34:43.065-00:00",
        "errors":
          [ { "kind": "temporary",
              "id": "proto.011-PtHangz2.prefilter.outdated_endorsement" } ],
        "included_in_blocks":
          [ "BLp82FSk9Rgv4y463eW1YAT3HRkkvGovKAGMPPWpb2WqqXt4fUV" ] },
      { "delegate": "tz1ei4WtWEMEJekSv8qDnu9PExG6Q8HgRGr3",
        "reception_time": "2022-01-20T20:34:43.101-00:00",
        "errors":
          [ { "kind": "temporary",
              "id": "proto.011-PtHangz2.prefilter.outdated_endorsement" } ],
        "included_in_blocks":
          [ "BLp82FSk9Rgv4y463eW1YAT3HRkkvGovKAGMPPWpb2WqqXt4fUV" ] },
      { "delegate": "tz1gfArv665EUkSg2ojMBzcbfwuPxAvqPvjo",
        "reception_time": "2022-01-20T20:34:43.112-00:00",
        "errors":
          [ { "kind": "temporary",
              "id": "proto.011-PtHangz2.prefilter.outdated_endorsement" } ],
        "included_in_blocks":
          [ "BLp82FSk9Rgv4y463eW1YAT3HRkkvGovKAGMPPWpb2WqqXt4fUV" ] },
      { "delegate": "tz1UJvHTgpVzcKWhTazGxVcn5wsHru5Gietg",
        "reception_time": "2022-01-20T20:34:43.319-00:00",
        "errors":
          [ { "kind": "temporary",
              "id": "proto.011-PtHangz2.prefilter.outdated_endorsement" } ],
        "included_in_blocks":
          [ "BLp82FSk9Rgv4y463eW1YAT3HRkkvGovKAGMPPWpb2WqqXt4fUV" ] },
      { "delegate": "tz1dNVDWPf3Q59SdJqnjdnu277iyvReiRS9M",
        "reception_time": "2022-01-20T20:34:43.358-00:00",
        "errors":
          [ { "kind": "temporary",
              "id": "proto.011-PtHangz2.prefilter.outdated_endorsement" } ],
        "included_in_blocks":
          [ "BLp82FSk9Rgv4y463eW1YAT3HRkkvGovKAGMPPWpb2WqqXt4fUV" ] },
      { "delegate": "tz1PWCDnz783NNGGQjEFFsHtrcK5yBW4E2rm",
        "reception_time": "2022-01-20T20:34:43.452-00:00",
        "errors":
          [ { "kind": "temporary",
              "id": "proto.011-PtHangz2.prefilter.outdated_endorsement" } ],
        "included_in_blocks":
          [ "BLp82FSk9Rgv4y463eW1YAT3HRkkvGovKAGMPPWpb2WqqXt4fUV" ] },
      { "delegate": "tz1WCd2jm4uSt4vntk4vSuUWoZQGhLcDuR9q",
        "reception_time": "2022-01-20T20:34:43.468-00:00",
        "errors":
          [ { "kind": "temporary",
              "id": "proto.011-PtHangz2.prefilter.outdated_endorsement" } ],
        "included_in_blocks":
          [ "BLp82FSk9Rgv4y463eW1YAT3HRkkvGovKAGMPPWpb2WqqXt4fUV" ] },
      { "delegate": "tz3hw2kqXhLUvY65ca1eety2oQTpAvd34R9Q",
        "reception_time": "2022-01-20T20:34:43.608-00:00",
        "errors":
          [ { "kind": "temporary",
              "id": "proto.011-PtHangz2.prefilter.outdated_endorsement" } ],
        "included_in_blocks":
          [ "BLp82FSk9Rgv4y463eW1YAT3HRkkvGovKAGMPPWpb2WqqXt4fUV" ] },
      { "delegate": "tz3RKYFsLuQzKBtmYuLNas7uMu3AsYd4QdsA",
        "reception_time": "2022-01-20T20:34:43.610-00:00",
        "errors":
          [ { "kind": "temporary",
              "id": "proto.011-PtHangz2.prefilter.outdated_endorsement" } ],
        "included_in_blocks":
          [ "BLp82FSk9Rgv4y463eW1YAT3HRkkvGovKAGMPPWpb2WqqXt4fUV" ] },
      { "delegate": "tz3e7LbZvUtoXhpUD1yb6wuFodZpfYRb9nWJ",
        "reception_time": "2022-01-20T20:34:43.731-00:00",
        "errors":
          [ { "kind": "temporary",
              "id": "proto.011-PtHangz2.prefilter.outdated_endorsement" } ],
        "included_in_blocks":
          [ "BLp82FSk9Rgv4y463eW1YAT3HRkkvGovKAGMPPWpb2WqqXt4fUV" ] },
      { "delegate": "tz3gtoUxdudfBRcNY7iVdKPHCYYX6xdPpoRS",
        "reception_time": "2022-01-20T20:34:43.747-00:00",
        "errors":
          [ { "kind": "temporary",
              "id": "proto.011-PtHangz2.prefilter.outdated_endorsement" } ],
        "included_in_blocks":
          [ "BLp82FSk9Rgv4y463eW1YAT3HRkkvGovKAGMPPWpb2WqqXt4fUV" ] },
      { "delegate": "tz3QSGPoRp3Kn7n3vY24eYeu3Peuqo45LQ4D",
        "reception_time": "2022-01-20T20:34:43.748-00:00",
        "errors":
          [ { "kind": "temporary",
              "id": "proto.011-PtHangz2.prefilter.outdated_endorsement" } ],
        "included_in_blocks":
          [ "BLp82FSk9Rgv4y463eW1YAT3HRkkvGovKAGMPPWpb2WqqXt4fUV" ] },
      { "delegate": "tz3iJu5vrKZcsqRPs8yJ61UDoeEXZmtro4qh",
        "reception_time": "2022-01-20T20:34:43.820-00:00",
        "errors":
          [ { "kind": "temporary",
              "id": "proto.011-PtHangz2.prefilter.outdated_endorsement" } ],
        "included_in_blocks":
          [ "BLp82FSk9Rgv4y463eW1YAT3HRkkvGovKAGMPPWpb2WqqXt4fUV" ] },
      { "delegate": "tz3Zhs2dygr55yHyQyKjntAtY9bgfhLZ4Xj1",
        "reception_time": "2022-01-20T20:34:43.879-00:00",
        "errors":
          [ { "kind": "temporary",
              "id": "proto.011-PtHangz2.prefilter.outdated_endorsement" } ],
        "included_in_blocks":
          [ "BLp82FSk9Rgv4y463eW1YAT3HRkkvGovKAGMPPWpb2WqqXt4fUV" ] },
      { "delegate": "tz3QT9dHYKDqh563chVa6za8526ys1UKfRfL",
        "reception_time": "2022-01-20T20:34:43.948-00:00",
        "errors":
          [ { "kind": "temporary",
              "id": "proto.011-PtHangz2.prefilter.outdated_endorsement" } ],
        "included_in_blocks":
          [ "BLp82FSk9Rgv4y463eW1YAT3HRkkvGovKAGMPPWpb2WqqXt4fUV" ] },
      { "delegate": "tz3S6BBeKgJGXxvLyZ1xzXzMPn11nnFtq5L9",
        "reception_time": "2022-01-20T20:34:43.967-00:00",
        "errors":
          [ { "kind": "temporary",
              "id": "proto.011-PtHangz2.prefilter.outdated_endorsement" } ],
        "included_in_blocks":
          [ "BLp82FSk9Rgv4y463eW1YAT3HRkkvGovKAGMPPWpb2WqqXt4fUV" ] },
      { "delegate": "tz1V4qCyvPKZ5UeqdH14HN42rxvNPQfc9UZg",
        "reception_time": "2022-01-20T20:34:44.030-00:00",
        "errors":
          [ { "kind": "temporary",
              "id": "proto.011-PtHangz2.prefilter.outdated_endorsement" } ],
        "included_in_blocks":
          [ "BLp82FSk9Rgv4y463eW1YAT3HRkkvGovKAGMPPWpb2WqqXt4fUV" ] },
      { "delegate": "tz1W3VYi3gSt9Xgfw6WNV1aGZRPH2BsskMEY",
        "reception_time": "2022-01-20T20:34:44.107-00:00",
        "errors":
          [ { "kind": "temporary",
              "id": "proto.011-PtHangz2.prefilter.outdated_endorsement" } ],
        "included_in_blocks":
          [ "BLp82FSk9Rgv4y463eW1YAT3HRkkvGovKAGMPPWpb2WqqXt4fUV" ] },
      { "delegate": "tz3bTdwZinP8U1JmSweNzVKhmwafqWmFWRfk",
        "reception_time": "2022-01-20T20:34:44.162-00:00",
        "errors":
          [ { "kind": "temporary",
              "id": "proto.011-PtHangz2.prefilter.outdated_endorsement" } ],
        "included_in_blocks":
          [ "BLp82FSk9Rgv4y463eW1YAT3HRkkvGovKAGMPPWpb2WqqXt4fUV" ] },
      { "delegate": "tz1KfEsrtDaA1sX7vdM4qmEPWuSytuqCDp5j",
        "reception_time": "2022-01-20T20:34:44.302-00:00",
        "errors":
          [ { "kind": "temporary",
              "id": "proto.011-PtHangz2.prefilter.outdated_endorsement" } ],
        "included_in_blocks":
          [ "BLp82FSk9Rgv4y463eW1YAT3HRkkvGovKAGMPPWpb2WqqXt4fUV" ] },
      { "delegate": "tz1TRspM5SeZpaQUhzByXbEvqKF1vnCM2YTK",
        "reception_time": "2022-01-20T20:34:44.323-00:00",
        "errors":
          [ { "kind": "temporary",
              "id": "proto.011-PtHangz2.prefilter.outdated_endorsement" } ],
        "included_in_blocks":
          [ "BLp82FSk9Rgv4y463eW1YAT3HRkkvGovKAGMPPWpb2WqqXt4fUV" ] },
      { "delegate": "tz1WBfwbT66FC6BTLexc2BoyCCBM9LG7pnVW",
        "reception_time": "2022-01-20T20:34:44.421-00:00",
        "errors":
          [ { "kind": "temporary",
              "id": "proto.011-PtHangz2.prefilter.outdated_endorsement" } ],
        "included_in_blocks":
          [ "BLp82FSk9Rgv4y463eW1YAT3HRkkvGovKAGMPPWpb2WqqXt4fUV" ] },
      { "delegate": "tz3RB4aoyjov4KEVRbuhvQ1CKJgBJMWhaeB8",
        "reception_time": "2022-01-20T20:34:44.509-00:00",
        "errors":
          [ { "kind": "temporary",
              "id": "proto.011-PtHangz2.prefilter.outdated_endorsement" } ],
        "included_in_blocks":
          [ "BLp82FSk9Rgv4y463eW1YAT3HRkkvGovKAGMPPWpb2WqqXt4fUV" ] },
      { "delegate": "tz3bvNMQ95vfAYtG8193ymshqjSvmxiCUuR5",
        "reception_time": "2022-01-20T20:34:44.647-00:00",
        "errors":
          [ { "kind": "temporary",
              "id": "proto.011-PtHangz2.prefilter.outdated_endorsement" } ],
        "included_in_blocks":
          [ "BLp82FSk9Rgv4y463eW1YAT3HRkkvGovKAGMPPWpb2WqqXt4fUV" ] },
      { "delegate": "tz3VEZ4k6a4Wx42iyev6i2aVAptTRLEAivNN",
        "reception_time": "2022-01-20T20:34:44.985-00:00",
        "errors":
          [ { "kind": "temporary",
              "id": "proto.011-PtHangz2.prefilter.outdated_endorsement" } ],
        "included_in_blocks":
          [ "BLp82FSk9Rgv4y463eW1YAT3HRkkvGovKAGMPPWpb2WqqXt4fUV" ] },
      { "delegate": "tz1dRKU4FQ9QRRQPdaH4zCR6gmCmXfcvcgtB",
        "reception_time": "2022-01-20T20:34:45.050-00:00",
        "errors":
          [ { "kind": "temporary",
              "id": "proto.011-PtHangz2.prefilter.outdated_endorsement" } ],
        "included_in_blocks":
          [ "BLp82FSk9Rgv4y463eW1YAT3HRkkvGovKAGMPPWpb2WqqXt4fUV" ] },
      { "delegate": "tz1NpWrAyDL9k2Lmnyxcgr9xuJakbBxdq7FB",
        "reception_time": "2022-01-20T20:35:12.913-00:00",
        "errors":
          [ { "kind": "temporary",
              "id": "proto.011-PtHangz2.prefilter.outdated_endorsement" } ] },
      { "delegate": "tz1RjoHc98dBoqaH2jawF62XNKh7YsHwbkEv" },
      { "delegate": "tz1dbfppLAAxXZNtf2SDps7rch3qfUznKSoK" },
      { "delegate": "tz1fUyqYH7H4pRHN1roWY17giXhy1RvxjgUV" } ] }