{ "blocks":
    [ { "hash": "BMLYLSKy6fVyQ8bgjS6tFbQ7jwQGx6HZdTTM2zQjgq9KjiXv4V7",
        "delegate": "tz1ei4WtWEMEJekSv8qDnu9PExG6Q8HgRGr3",
        "reception_time": "2022-01-20T14:23:09.713-00:00",
        "timestamp": "2022-01-20T14:23:00Z" } ],
  "endorsements":
    [ { "delegate": "tz1Scdr2HsZiQjc7bHMeBbmDRXYVvdhjJbBh",
        "reception_time": "2022-01-20T14:23:09.188-00:00",
        "errors":
          [ { "kind": "temporary",
              "id": "proto.011-PtHangz2.prefilter.outdated_endorsement" } ],
        "included_in_blocks":
          [ "BLQsdQXHKtVPTwuFPYxBhWP3amEL7jLN529tkTJc8FGC4xDpYrx" ] },
      { "delegate": "tz1P2Po7YM526ughEsRbY4oR9zaUPDZjxFrb",
        "reception_time": "2022-01-20T14:23:09.131-00:00",
        "errors":
          [ { "kind": "temporary",
              "id": "proto.011-PtHangz2.prefilter.outdated_endorsement" } ],
        "included_in_blocks":
          [ "BLQsdQXHKtVPTwuFPYxBhWP3amEL7jLN529tkTJc8FGC4xDpYrx" ] },
      { "delegate": "tz1Kt4P8BCaP93AEV4eA7gmpRryWt5hznjCP",
        "reception_time": "2022-01-20T14:23:09.001-00:00",
        "errors":
          [ { "kind": "temporary",
              "id": "proto.011-PtHangz2.prefilter.outdated_endorsement" } ],
        "included_in_blocks":
          [ "BLQsdQXHKtVPTwuFPYxBhWP3amEL7jLN529tkTJc8FGC4xDpYrx" ] },
      { "delegate": "tz1S8e9GgdZG78XJRB3NqabfWeM37GnhZMWQ",
        "reception_time": "2022-01-20T14:23:08.916-00:00",
        "errors":
          [ { "kind": "temporary",
              "id": "proto.011-PtHangz2.prefilter.outdated_endorsement" } ],
        "included_in_blocks":
          [ "BLQsdQXHKtVPTwuFPYxBhWP3amEL7jLN529tkTJc8FGC4xDpYrx" ] },
      { "delegate": "tz1RjoHc98dBoqaH2jawF62XNKh7YsHwbkEv" },
      { "delegate": "tz1ZdSQibskQwRdiaFUh7RUVm1Z6xudMedoj" },
      { "delegate": "tz1awXW7wuXy21c66vBudMXQVAPgRnqqwgTH" },
      { "delegate": "tz1fUyqYH7H4pRHN1roWY17giXhy1RvxjgUV" },
      { "delegate": "tz1eEnQhbwf6trb8Q8mPb2RaPkNk2rN7BKi8",
        "reception_time": "2022-01-20T14:23:10.439-00:00",
        "included_in_blocks":
          [ "BLQsdQXHKtVPTwuFPYxBhWP3amEL7jLN529tkTJc8FGC4xDpYrx" ] },
      { "delegate": "tz1ei4WtWEMEJekSv8qDnu9PExG6Q8HgRGr3",
        "reception_time": "2022-01-20T14:23:10.731-00:00",
        "included_in_blocks":
          [ "BLQsdQXHKtVPTwuFPYxBhWP3amEL7jLN529tkTJc8FGC4xDpYrx" ] },
      { "delegate": "tz1aXD7Jigrt3PBYSpHSg5Rr33SexMmmM5Ys",
        "reception_time": "2022-01-20T14:23:10.742-00:00",
        "included_in_blocks":
          [ "BLQsdQXHKtVPTwuFPYxBhWP3amEL7jLN529tkTJc8FGC4xDpYrx" ] },
      { "delegate": "tz1Ldzz6k1BHdhuKvAtMRX7h5kJSMHESMHLC",
        "reception_time": "2022-01-20T14:23:10.759-00:00",
        "included_in_blocks":
          [ "BLQsdQXHKtVPTwuFPYxBhWP3amEL7jLN529tkTJc8FGC4xDpYrx" ] },
      { "delegate": "tz1gUNyn3hmnEWqkusWPzxRaon1cs7ndWh7h",
        "reception_time": "2022-01-20T14:23:10.793-00:00",
        "included_in_blocks":
          [ "BLQsdQXHKtVPTwuFPYxBhWP3amEL7jLN529tkTJc8FGC4xDpYrx" ] },
      { "delegate": "tz1VQnqCCqX4K5sP3FNkVSNKTdCAMJDd3E1n",
        "reception_time": "2022-01-20T14:23:10.802-00:00",
        "included_in_blocks":
          [ "BLQsdQXHKtVPTwuFPYxBhWP3amEL7jLN529tkTJc8FGC4xDpYrx" ] },
      { "delegate": "tz3hw2kqXhLUvY65ca1eety2oQTpAvd34R9Q",
        "reception_time": "2022-01-20T14:23:10.802-00:00",
        "included_in_blocks":
          [ "BLQsdQXHKtVPTwuFPYxBhWP3amEL7jLN529tkTJc8FGC4xDpYrx" ] },
      { "delegate": "tz1beersuEDv8Z7ngQ825xfbaJNS2EhXnyHR",
        "reception_time": "2022-01-20T14:23:10.811-00:00",
        "included_in_blocks":
          [ "BLQsdQXHKtVPTwuFPYxBhWP3amEL7jLN529tkTJc8FGC4xDpYrx" ] },
      { "delegate": "tz3e7LbZvUtoXhpUD1yb6wuFodZpfYRb9nWJ",
        "reception_time": "2022-01-20T14:23:10.811-00:00",
        "included_in_blocks":
          [ "BLQsdQXHKtVPTwuFPYxBhWP3amEL7jLN529tkTJc8FGC4xDpYrx" ] },
      { "delegate": "tz3RKYFsLuQzKBtmYuLNas7uMu3AsYd4QdsA",
        "reception_time": "2022-01-20T14:23:10.818-00:00",
        "included_in_blocks":
          [ "BLQsdQXHKtVPTwuFPYxBhWP3amEL7jLN529tkTJc8FGC4xDpYrx" ] },
      { "delegate": "tz1PWCDnz783NNGGQjEFFsHtrcK5yBW4E2rm",
        "reception_time": "2022-01-20T14:23:10.821-00:00",
        "included_in_blocks":
          [ "BLQsdQXHKtVPTwuFPYxBhWP3amEL7jLN529tkTJc8FGC4xDpYrx" ] },
      { "delegate": "tz3iJu5vrKZcsqRPs8yJ61UDoeEXZmtro4qh",
        "reception_time": "2022-01-20T14:23:10.828-00:00",
        "included_in_blocks":
          [ "BLQsdQXHKtVPTwuFPYxBhWP3amEL7jLN529tkTJc8FGC4xDpYrx" ] },
      { "delegate": "tz1WCd2jm4uSt4vntk4vSuUWoZQGhLcDuR9q",
        "reception_time": "2022-01-20T14:23:10.837-00:00",
        "included_in_blocks":
          [ "BLQsdQXHKtVPTwuFPYxBhWP3amEL7jLN529tkTJc8FGC4xDpYrx" ] },
      { "delegate": "tz3NxTnke1acr8o3h5y9ytf5awQBGNJUKzVU",
        "reception_time": "2022-01-20T14:23:10.845-00:00",
        "included_in_blocks":
          [ "BLQsdQXHKtVPTwuFPYxBhWP3amEL7jLN529tkTJc8FGC4xDpYrx" ] },
      { "delegate": "tz3ZbP2pM3nwvXztbuMJwJnDvV5xdpU8UkkD",
        "reception_time": "2022-01-20T14:23:10.869-00:00",
        "included_in_blocks":
          [ "BLQsdQXHKtVPTwuFPYxBhWP3amEL7jLN529tkTJc8FGC4xDpYrx" ] },
      { "delegate": "tz3QCNyySViKHmeSr45kzDxzchys7NiXCWoa",
        "reception_time": "2022-01-20T14:23:10.877-00:00",
        "included_in_blocks":
          [ "BLQsdQXHKtVPTwuFPYxBhWP3amEL7jLN529tkTJc8FGC4xDpYrx" ] },
      { "delegate": "tz1d6Fx42mYgVFnHUW8T8A7WBfJ6nD9pVok8",
        "reception_time": "2022-01-20T14:23:10.880-00:00",
        "included_in_blocks":
          [ "BLQsdQXHKtVPTwuFPYxBhWP3amEL7jLN529tkTJc8FGC4xDpYrx" ] },
      { "delegate": "tz1gfArv665EUkSg2ojMBzcbfwuPxAvqPvjo",
        "reception_time": "2022-01-20T14:23:10.883-00:00",
        "included_in_blocks":
          [ "BLQsdQXHKtVPTwuFPYxBhWP3amEL7jLN529tkTJc8FGC4xDpYrx" ] },
      { "delegate": "tz3gtoUxdudfBRcNY7iVdKPHCYYX6xdPpoRS",
        "reception_time": "2022-01-20T14:23:10.890-00:00",
        "included_in_blocks":
          [ "BLQsdQXHKtVPTwuFPYxBhWP3amEL7jLN529tkTJc8FGC4xDpYrx" ] },
      { "delegate": "tz3Zhs2dygr55yHyQyKjntAtY9bgfhLZ4Xj1",
        "reception_time": "2022-01-20T14:23:10.896-00:00",
        "included_in_blocks":
          [ "BLQsdQXHKtVPTwuFPYxBhWP3amEL7jLN529tkTJc8FGC4xDpYrx" ] },
      { "delegate": "tz3QSGPoRp3Kn7n3vY24eYeu3Peuqo45LQ4D",
        "reception_time": "2022-01-20T14:23:10.932-00:00",
        "included_in_blocks":
          [ "BLQsdQXHKtVPTwuFPYxBhWP3amEL7jLN529tkTJc8FGC4xDpYrx" ] },
      { "delegate": "tz3bTdwZinP8U1JmSweNzVKhmwafqWmFWRfk",
        "reception_time": "2022-01-20T14:23:11.033-00:00",
        "included_in_blocks":
          [ "BLQsdQXHKtVPTwuFPYxBhWP3amEL7jLN529tkTJc8FGC4xDpYrx" ] },
      { "delegate": "tz1MQJPGNMijnXnVoBENFz9rUhaPt3S7rWoz",
        "reception_time": "2022-01-20T14:23:11.111-00:00",
        "included_in_blocks":
          [ "BLQsdQXHKtVPTwuFPYxBhWP3amEL7jLN529tkTJc8FGC4xDpYrx" ] },
      { "delegate": "tz1KfEsrtDaA1sX7vdM4qmEPWuSytuqCDp5j",
        "reception_time": "2022-01-20T14:23:11.168-00:00",
        "included_in_blocks":
          [ "BLQsdQXHKtVPTwuFPYxBhWP3amEL7jLN529tkTJc8FGC4xDpYrx" ] },
      { "delegate": "tz1h4GUAMweP7SNWzDgvMk3yRCAZyaP1MxZq",
        "reception_time": "2022-01-20T14:23:11.212-00:00",
        "included_in_blocks":
          [ "BLQsdQXHKtVPTwuFPYxBhWP3amEL7jLN529tkTJc8FGC4xDpYrx" ] },
      { "delegate": "tz1RCFbB9GpALpsZtu6J58sb74dm8qe6XBzv",
        "reception_time": "2022-01-20T14:23:11.230-00:00",
        "included_in_blocks":
          [ "BLQsdQXHKtVPTwuFPYxBhWP3amEL7jLN529tkTJc8FGC4xDpYrx" ] },
      { "delegate": "tz3S6BBeKgJGXxvLyZ1xzXzMPn11nnFtq5L9",
        "reception_time": "2022-01-20T14:23:11.294-00:00",
        "included_in_blocks":
          [ "BLQsdQXHKtVPTwuFPYxBhWP3amEL7jLN529tkTJc8FGC4xDpYrx" ] },
      { "delegate": "tz3QT9dHYKDqh563chVa6za8526ys1UKfRfL",
        "reception_time": "2022-01-20T14:23:11.309-00:00",
        "included_in_blocks":
          [ "BLQsdQXHKtVPTwuFPYxBhWP3amEL7jLN529tkTJc8FGC4xDpYrx" ] },
      { "delegate": "tz1irJKkXS2DBWkU1NnmFQx1c1L7pbGg4yhk",
        "reception_time": "2022-01-20T14:23:11.364-00:00",
        "included_in_blocks":
          [ "BLQsdQXHKtVPTwuFPYxBhWP3amEL7jLN529tkTJc8FGC4xDpYrx" ] },
      { "delegate": "tz1Nf6tsK4G6bBqgSQERy4nUtkHNKUVdh7q1",
        "reception_time": "2022-01-20T14:23:11.395-00:00",
        "included_in_blocks":
          [ "BLQsdQXHKtVPTwuFPYxBhWP3amEL7jLN529tkTJc8FGC4xDpYrx" ] },
      { "delegate": "tz1RQhNh7iB9CZA7i3ifTWNwiGYVffponfbB",
        "reception_time": "2022-01-20T14:23:11.421-00:00",
        "included_in_blocks":
          [ "BLQsdQXHKtVPTwuFPYxBhWP3amEL7jLN529tkTJc8FGC4xDpYrx" ] },
      { "delegate": "tz1TEc75UKXv4W5cwi14Na3NtqFD51yKQi7h",
        "reception_time": "2022-01-20T14:23:11.480-00:00",
        "included_in_blocks":
          [ "BLQsdQXHKtVPTwuFPYxBhWP3amEL7jLN529tkTJc8FGC4xDpYrx" ] },
      { "delegate": "tz1S8MNvuFEUsWgjHvi3AxibRBf388NhT1q2",
        "reception_time": "2022-01-20T14:23:11.518-00:00",
        "included_in_blocks":
          [ "BLQsdQXHKtVPTwuFPYxBhWP3amEL7jLN529tkTJc8FGC4xDpYrx" ] },
      { "delegate": "tz3bvNMQ95vfAYtG8193ymshqjSvmxiCUuR5",
        "reception_time": "2022-01-20T14:23:11.688-00:00",
        "included_in_blocks":
          [ "BLQsdQXHKtVPTwuFPYxBhWP3amEL7jLN529tkTJc8FGC4xDpYrx" ] },
      { "delegate": "tz3RB4aoyjov4KEVRbuhvQ1CKJgBJMWhaeB8",
        "reception_time": "2022-01-20T14:23:11.709-00:00",
        "included_in_blocks":
          [ "BLQsdQXHKtVPTwuFPYxBhWP3amEL7jLN529tkTJc8FGC4xDpYrx" ] },
      { "delegate": "tz1WBfwbT66FC6BTLexc2BoyCCBM9LG7pnVW",
        "reception_time": "2022-01-20T14:23:11.715-00:00",
        "included_in_blocks":
          [ "BLQsdQXHKtVPTwuFPYxBhWP3amEL7jLN529tkTJc8FGC4xDpYrx" ] },
      { "delegate": "tz1eCzNtidHvVgeRzQ38C81FPcYnxMsCEL6Z",
        "reception_time": "2022-01-20T14:23:11.949-00:00",
        "included_in_blocks":
          [ "BLQsdQXHKtVPTwuFPYxBhWP3amEL7jLN529tkTJc8FGC4xDpYrx" ] },
      { "delegate": "tz1MH387oMRFco3kzz8t3wuqdbpAyTcKZtsg",
        "reception_time": "2022-01-20T14:23:12.063-00:00",
        "included_in_blocks":
          [ "BLQsdQXHKtVPTwuFPYxBhWP3amEL7jLN529tkTJc8FGC4xDpYrx" ] },
      { "delegate": "tz2FCNBrERXtaTtNX6iimR1UJ5JSDxvdHM93",
        "reception_time": "2022-01-20T14:23:12.299-00:00",
        "included_in_blocks":
          [ "BLQsdQXHKtVPTwuFPYxBhWP3amEL7jLN529tkTJc8FGC4xDpYrx" ] },
      { "delegate": "tz1cig1EHyvZd7J2k389moM9PxVgPQvmFkvi",
        "reception_time": "2022-01-20T14:23:12.322-00:00",
        "included_in_blocks":
          [ "BLQsdQXHKtVPTwuFPYxBhWP3amEL7jLN529tkTJc8FGC4xDpYrx" ] },
      { "delegate": "tz1T7duV5gZWSTq4YpBGbXNLTfznCLDrFxvs",
        "reception_time": "2022-01-20T14:23:12.363-00:00",
        "included_in_blocks":
          [ "BLQsdQXHKtVPTwuFPYxBhWP3amEL7jLN529tkTJc8FGC4xDpYrx" ] },
      { "delegate": "tz1hYj2SDMv9UfagrUiaAhnCrzoF9RqFK7eM",
        "reception_time": "2022-01-20T14:23:12.427-00:00",
        "included_in_blocks":
          [ "BLQsdQXHKtVPTwuFPYxBhWP3amEL7jLN529tkTJc8FGC4xDpYrx" ] },
      { "delegate": "tz1dRKU4FQ9QRRQPdaH4zCR6gmCmXfcvcgtB",
        "reception_time": "2022-01-20T14:23:12.455-00:00",
        "included_in_blocks":
          [ "BLQsdQXHKtVPTwuFPYxBhWP3amEL7jLN529tkTJc8FGC4xDpYrx" ] },
      { "delegate": "tz1SYq214SCBy9naR6cvycQsYcUGpBqQAE8d",
        "reception_time": "2022-01-20T14:23:12.480-00:00",
        "included_in_blocks":
          [ "BLQsdQXHKtVPTwuFPYxBhWP3amEL7jLN529tkTJc8FGC4xDpYrx" ] },
      { "delegate": "tz1LmaFsWRkjr7QMCx5PtV6xTUz3AmEpKQiF",
        "reception_time": "2022-01-20T14:23:12.584-00:00",
        "included_in_blocks":
          [ "BLQsdQXHKtVPTwuFPYxBhWP3amEL7jLN529tkTJc8FGC4xDpYrx" ] },
      { "delegate": "tz1QXrzaHrGACVn15UiCg33aLCJ6npWdQb3J",
        "reception_time": "2022-01-20T14:23:12.599-00:00",
        "included_in_blocks":
          [ "BLQsdQXHKtVPTwuFPYxBhWP3amEL7jLN529tkTJc8FGC4xDpYrx" ] },
      { "delegate": "tz3RDC3Jdn4j15J7bBHZd29EUee9gVB1CxD9",
        "reception_time": "2022-01-20T14:23:12.666-00:00",
        "included_in_blocks":
          [ "BLQsdQXHKtVPTwuFPYxBhWP3amEL7jLN529tkTJc8FGC4xDpYrx" ] },
      { "delegate": "tz3NDpRj6WBrJPikcPVHRBEjWKxFw3c6eQPS",
        "reception_time": "2022-01-20T14:23:12.683-00:00",
        "included_in_blocks":
          [ "BLQsdQXHKtVPTwuFPYxBhWP3amEL7jLN529tkTJc8FGC4xDpYrx" ] },
      { "delegate": "tz3WMqdzXqRWXwyvj5Hp2H7QEepaUuS7vd9K",
        "reception_time": "2022-01-20T14:23:12.704-00:00",
        "included_in_blocks":
          [ "BLQsdQXHKtVPTwuFPYxBhWP3amEL7jLN529tkTJc8FGC4xDpYrx" ] },
      { "delegate": "tz3VEZ4k6a4Wx42iyev6i2aVAptTRLEAivNN",
        "reception_time": "2022-01-20T14:23:12.750-00:00",
        "included_in_blocks":
          [ "BLQsdQXHKtVPTwuFPYxBhWP3amEL7jLN529tkTJc8FGC4xDpYrx" ] },
      { "delegate": "tz3NExpXn9aPNZPorRE4SdjJ2RGrfbJgMAaV",
        "reception_time": "2022-01-20T14:23:13.849-00:00",
        "included_in_blocks":
          [ "BLQsdQXHKtVPTwuFPYxBhWP3amEL7jLN529tkTJc8FGC4xDpYrx" ] },
      { "delegate": "tz3UoffC7FG7zfpmvmjUmUeAaHvzdcUvAj6r",
        "reception_time": "2022-01-20T14:23:13.866-00:00",
        "included_in_blocks":
          [ "BLQsdQXHKtVPTwuFPYxBhWP3amEL7jLN529tkTJc8FGC4xDpYrx" ] },
      { "delegate": "tz1b9MYGrbN1NAxphLEsPPNT9JC7aNFc5nA4",
        "reception_time": "2022-01-20T14:23:14.151-00:00",
        "included_in_blocks":
          [ "BLQsdQXHKtVPTwuFPYxBhWP3amEL7jLN529tkTJc8FGC4xDpYrx" ] },
      { "delegate": "tz1aRoaRhSpRYvFdyvgWLL6TGyRoGF51wDjM",
        "reception_time": "2022-01-20T14:23:14.152-00:00",
        "included_in_blocks":
          [ "BLQsdQXHKtVPTwuFPYxBhWP3amEL7jLN529tkTJc8FGC4xDpYrx" ] },
      { "delegate": "tz1g8vkmcde6sWKaG2NN9WKzCkDM6Rziq194",
        "reception_time": "2022-01-20T14:23:15.646-00:00",
        "included_in_blocks":
          [ "BLQsdQXHKtVPTwuFPYxBhWP3amEL7jLN529tkTJc8FGC4xDpYrx" ] },
      { "delegate": "tz1PFeoTuFen8jAMRHajBySNyCwLmY5RqF9M",
        "reception_time": "2022-01-20T14:23:15.990-00:00",
        "included_in_blocks":
          [ "BLQsdQXHKtVPTwuFPYxBhWP3amEL7jLN529tkTJc8FGC4xDpYrx" ] },
      { "delegate": "tz2BzJTyoQp8fNbfhWD4YQgH9JJHDgSGzpdG",
        "reception_time": "2022-01-20T14:23:17.872-00:00",
        "included_in_blocks":
          [ "BLQsdQXHKtVPTwuFPYxBhWP3amEL7jLN529tkTJc8FGC4xDpYrx" ] } ] }