{ "blocks":
    [ { "hash": "BLXs3WZR1tWaDZa43ZjScucL4UJHPMduLkwKz8Zn5SUondvFFPV",
        "delegate": "tz1gfArv665EUkSg2ojMBzcbfwuPxAvqPvjo",
        "reception_time": "2022-01-20T19:41:49.235-00:00",
        "timestamp": "2022-01-20T19:41:40Z" } ],
  "endorsements":
    [ { "delegate": "tz1awXW7wuXy21c66vBudMXQVAPgRnqqwgTH" },
      { "delegate": "tz1RAxW1rBTRumV9QEpFsw51QWPQmAKHGMei" },
      { "delegate": "tz1gfArv665EUkSg2ojMBzcbfwuPxAvqPvjo",
        "reception_time": "2022-01-20T19:41:49.073-00:00",
        "errors":
          [ { "kind": "temporary",
              "id": "proto.011-PtHangz2.prefilter.outdated_endorsement" } ],
        "included_in_blocks":
          [ "BMMxfQay363tV6LNKpHF9Tsepjfk8CfRfDhh8vWc1XNJFcQFbGy" ] },
      { "delegate": "tz1go7f6mEQfT2xX2LuHAqgnRGN6c2zHPf5c",
        "reception_time": "2022-01-20T19:41:59.567-00:00",
        "included_in_blocks":
          [ "BMMxfQay363tV6LNKpHF9Tsepjfk8CfRfDhh8vWc1XNJFcQFbGy" ] },
      { "delegate": "tz1ZgkTFmiwddPXGbs4yc6NWdH4gELW7wsnv",
        "reception_time": "2022-01-20T19:41:58.644-00:00",
        "included_in_blocks":
          [ "BMMxfQay363tV6LNKpHF9Tsepjfk8CfRfDhh8vWc1XNJFcQFbGy" ] },
      { "delegate": "tz1aRoaRhSpRYvFdyvgWLL6TGyRoGF51wDjM",
        "reception_time": "2022-01-20T19:41:53.173-00:00",
        "included_in_blocks":
          [ "BMMxfQay363tV6LNKpHF9Tsepjfk8CfRfDhh8vWc1XNJFcQFbGy" ] },
      { "delegate": "tz3RB4aoyjov4KEVRbuhvQ1CKJgBJMWhaeB8",
        "reception_time": "2022-01-20T19:41:53.063-00:00",
        "included_in_blocks":
          [ "BMMxfQay363tV6LNKpHF9Tsepjfk8CfRfDhh8vWc1XNJFcQFbGy" ] },
      { "delegate": "tz3NDpRj6WBrJPikcPVHRBEjWKxFw3c6eQPS",
        "reception_time": "2022-01-20T19:41:53.083-00:00",
        "included_in_blocks":
          [ "BMMxfQay363tV6LNKpHF9Tsepjfk8CfRfDhh8vWc1XNJFcQFbGy" ] },
      { "delegate": "tz1SYq214SCBy9naR6cvycQsYcUGpBqQAE8d",
        "reception_time": "2022-01-20T19:41:53.039-00:00",
        "included_in_blocks":
          [ "BMMxfQay363tV6LNKpHF9Tsepjfk8CfRfDhh8vWc1XNJFcQFbGy" ] },
      { "delegate": "tz1dRKU4FQ9QRRQPdaH4zCR6gmCmXfcvcgtB",
        "reception_time": "2022-01-20T19:41:53.717-00:00",
        "included_in_blocks":
          [ "BMMxfQay363tV6LNKpHF9Tsepjfk8CfRfDhh8vWc1XNJFcQFbGy" ] },
      { "delegate": "tz3NExpXn9aPNZPorRE4SdjJ2RGrfbJgMAaV",
        "reception_time": "2022-01-20T19:41:53.744-00:00",
        "included_in_blocks":
          [ "BMMxfQay363tV6LNKpHF9Tsepjfk8CfRfDhh8vWc1XNJFcQFbGy" ] },
      { "delegate": "tz3UoffC7FG7zfpmvmjUmUeAaHvzdcUvAj6r",
        "reception_time": "2022-01-20T19:41:53.173-00:00",
        "included_in_blocks":
          [ "BMMxfQay363tV6LNKpHF9Tsepjfk8CfRfDhh8vWc1XNJFcQFbGy" ] },
      { "delegate": "tz3bvNMQ95vfAYtG8193ymshqjSvmxiCUuR5",
        "reception_time": "2022-01-20T19:41:52.428-00:00",
        "included_in_blocks":
          [ "BMMxfQay363tV6LNKpHF9Tsepjfk8CfRfDhh8vWc1XNJFcQFbGy" ] },
      { "delegate": "tz3RDC3Jdn4j15J7bBHZd29EUee9gVB1CxD9",
        "reception_time": "2022-01-20T19:41:52.332-00:00",
        "included_in_blocks":
          [ "BMMxfQay363tV6LNKpHF9Tsepjfk8CfRfDhh8vWc1XNJFcQFbGy" ] },
      { "delegate": "tz1PeZx7FXy7QRuMREGXGxeipb24RsMMzUNe",
        "reception_time": "2022-01-20T19:41:52.207-00:00",
        "included_in_blocks":
          [ "BMMxfQay363tV6LNKpHF9Tsepjfk8CfRfDhh8vWc1XNJFcQFbGy" ] },
      { "delegate": "tz1NEKxGEHsFufk87CVZcrqWu8o22qh46GK6",
        "reception_time": "2022-01-20T19:41:52.376-00:00",
        "included_in_blocks":
          [ "BMMxfQay363tV6LNKpHF9Tsepjfk8CfRfDhh8vWc1XNJFcQFbGy" ] },
      { "delegate": "tz1T7duV5gZWSTq4YpBGbXNLTfznCLDrFxvs",
        "reception_time": "2022-01-20T19:41:52.268-00:00",
        "included_in_blocks":
          [ "BMMxfQay363tV6LNKpHF9Tsepjfk8CfRfDhh8vWc1XNJFcQFbGy" ] },
      { "delegate": "tz2FCNBrERXtaTtNX6iimR1UJ5JSDxvdHM93",
        "reception_time": "2022-01-20T19:41:52.127-00:00",
        "included_in_blocks":
          [ "BMMxfQay363tV6LNKpHF9Tsepjfk8CfRfDhh8vWc1XNJFcQFbGy" ] },
      { "delegate": "tz1TRqbYbUf2GyrjErf3hBzgBJPzW8y36qEs",
        "reception_time": "2022-01-20T19:41:52.385-00:00",
        "included_in_blocks":
          [ "BMMxfQay363tV6LNKpHF9Tsepjfk8CfRfDhh8vWc1XNJFcQFbGy" ] },
      { "delegate": "tz1WwDDoqA6h1wAnAoT5jiCYJz5CB43f3D78",
        "reception_time": "2022-01-20T19:41:52.127-00:00",
        "included_in_blocks":
          [ "BMMxfQay363tV6LNKpHF9Tsepjfk8CfRfDhh8vWc1XNJFcQFbGy" ] },
      { "delegate": "tz1KfEsrtDaA1sX7vdM4qmEPWuSytuqCDp5j",
        "reception_time": "2022-01-20T19:41:52.385-00:00",
        "included_in_blocks":
          [ "BMMxfQay363tV6LNKpHF9Tsepjfk8CfRfDhh8vWc1XNJFcQFbGy" ] },
      { "delegate": "tz3WMqdzXqRWXwyvj5Hp2H7QEepaUuS7vd9K",
        "reception_time": "2022-01-20T19:41:52.275-00:00",
        "included_in_blocks":
          [ "BMMxfQay363tV6LNKpHF9Tsepjfk8CfRfDhh8vWc1XNJFcQFbGy" ] },
      { "delegate": "tz1NdhRv643wLW6zCcRP3VfT24dvDnh7nuh9",
        "reception_time": "2022-01-20T19:41:52.127-00:00",
        "included_in_blocks":
          [ "BMMxfQay363tV6LNKpHF9Tsepjfk8CfRfDhh8vWc1XNJFcQFbGy" ] },
      { "delegate": "tz3VEZ4k6a4Wx42iyev6i2aVAptTRLEAivNN",
        "reception_time": "2022-01-20T19:41:52.220-00:00",
        "included_in_blocks":
          [ "BMMxfQay363tV6LNKpHF9Tsepjfk8CfRfDhh8vWc1XNJFcQFbGy" ] },
      { "delegate": "tz1WctSwL49BZtdWAQ75NY6vr4xsAx6oKdah",
        "reception_time": "2022-01-20T19:41:52.127-00:00",
        "included_in_blocks":
          [ "BMMxfQay363tV6LNKpHF9Tsepjfk8CfRfDhh8vWc1XNJFcQFbGy" ] },
      { "delegate": "tz3bTdwZinP8U1JmSweNzVKhmwafqWmFWRfk",
        "reception_time": "2022-01-20T19:41:52.127-00:00",
        "included_in_blocks":
          [ "BMMxfQay363tV6LNKpHF9Tsepjfk8CfRfDhh8vWc1XNJFcQFbGy" ] },
      { "delegate": "tz1g8vkmcde6sWKaG2NN9WKzCkDM6Rziq194",
        "reception_time": "2022-01-20T19:41:51.460-00:00",
        "included_in_blocks":
          [ "BMMxfQay363tV6LNKpHF9Tsepjfk8CfRfDhh8vWc1XNJFcQFbGy" ] },
      { "delegate": "tz1NortRftucvAkD1J58L32EhSVrQEWJCEnB",
        "reception_time": "2022-01-20T19:41:52.127-00:00",
        "included_in_blocks":
          [ "BMMxfQay363tV6LNKpHF9Tsepjfk8CfRfDhh8vWc1XNJFcQFbGy" ] },
      { "delegate": "tz1VHmaNfUC9BBcm851g2fhgSUq8NxFapuCA",
        "reception_time": "2022-01-20T19:41:52.127-00:00",
        "included_in_blocks":
          [ "BMMxfQay363tV6LNKpHF9Tsepjfk8CfRfDhh8vWc1XNJFcQFbGy" ] },
      { "delegate": "tz1SohptP53wDPZhzTWzDUFAUcWF6DMBpaJV",
        "reception_time": "2022-01-20T19:41:52.127-00:00",
        "included_in_blocks":
          [ "BMMxfQay363tV6LNKpHF9Tsepjfk8CfRfDhh8vWc1XNJFcQFbGy" ] },
      { "delegate": "tz1WBfwbT66FC6BTLexc2BoyCCBM9LG7pnVW",
        "reception_time": "2022-01-20T19:41:52.127-00:00",
        "included_in_blocks":
          [ "BMMxfQay363tV6LNKpHF9Tsepjfk8CfRfDhh8vWc1XNJFcQFbGy" ] },
      { "delegate": "tz1Nf6tsK4G6bBqgSQERy4nUtkHNKUVdh7q1",
        "reception_time": "2022-01-20T19:41:52.127-00:00",
        "included_in_blocks":
          [ "BMMxfQay363tV6LNKpHF9Tsepjfk8CfRfDhh8vWc1XNJFcQFbGy" ] },
      { "delegate": "tz1S8MNvuFEUsWgjHvi3AxibRBf388NhT1q2",
        "reception_time": "2022-01-20T19:41:52.127-00:00",
        "included_in_blocks":
          [ "BMMxfQay363tV6LNKpHF9Tsepjfk8CfRfDhh8vWc1XNJFcQFbGy" ] },
      { "delegate": "tz1RCFbB9GpALpsZtu6J58sb74dm8qe6XBzv",
        "reception_time": "2022-01-20T19:41:51.460-00:00",
        "included_in_blocks":
          [ "BMMxfQay363tV6LNKpHF9Tsepjfk8CfRfDhh8vWc1XNJFcQFbGy" ] },
      { "delegate": "tz1UMCB2AHSTwG7YcGNr31CqYCtGN873royv",
        "reception_time": "2022-01-20T19:41:51.460-00:00",
        "included_in_blocks":
          [ "BMMxfQay363tV6LNKpHF9Tsepjfk8CfRfDhh8vWc1XNJFcQFbGy" ] },
      { "delegate": "tz3S6BBeKgJGXxvLyZ1xzXzMPn11nnFtq5L9",
        "reception_time": "2022-01-20T19:41:51.098-00:00",
        "included_in_blocks":
          [ "BMMxfQay363tV6LNKpHF9Tsepjfk8CfRfDhh8vWc1XNJFcQFbGy" ] },
      { "delegate": "tz1gcna2xxZj2eNp1LaMyAhVJ49mEFj4FH26",
        "reception_time": "2022-01-20T19:41:51.098-00:00",
        "included_in_blocks":
          [ "BMMxfQay363tV6LNKpHF9Tsepjfk8CfRfDhh8vWc1XNJFcQFbGy" ] },
      { "delegate": "tz3iJu5vrKZcsqRPs8yJ61UDoeEXZmtro4qh",
        "reception_time": "2022-01-20T19:41:51.098-00:00",
        "included_in_blocks":
          [ "BMMxfQay363tV6LNKpHF9Tsepjfk8CfRfDhh8vWc1XNJFcQFbGy" ] },
      { "delegate": "tz3Zhs2dygr55yHyQyKjntAtY9bgfhLZ4Xj1",
        "reception_time": "2022-01-20T19:41:51.098-00:00",
        "included_in_blocks":
          [ "BMMxfQay363tV6LNKpHF9Tsepjfk8CfRfDhh8vWc1XNJFcQFbGy" ] },
      { "delegate": "tz3QT9dHYKDqh563chVa6za8526ys1UKfRfL",
        "reception_time": "2022-01-20T19:41:51.098-00:00",
        "included_in_blocks":
          [ "BMMxfQay363tV6LNKpHF9Tsepjfk8CfRfDhh8vWc1XNJFcQFbGy" ] },
      { "delegate": "tz1LnWa4AiFCjMezTgSNa65QFoo7DQGEWgEU",
        "reception_time": "2022-01-20T19:41:51.098-00:00",
        "included_in_blocks":
          [ "BMMxfQay363tV6LNKpHF9Tsepjfk8CfRfDhh8vWc1XNJFcQFbGy" ] },
      { "delegate": "tz3RKYFsLuQzKBtmYuLNas7uMu3AsYd4QdsA",
        "reception_time": "2022-01-20T19:41:51.098-00:00",
        "included_in_blocks":
          [ "BMMxfQay363tV6LNKpHF9Tsepjfk8CfRfDhh8vWc1XNJFcQFbGy" ] },
      { "delegate": "tz3hw2kqXhLUvY65ca1eety2oQTpAvd34R9Q",
        "reception_time": "2022-01-20T19:41:51.098-00:00",
        "included_in_blocks":
          [ "BMMxfQay363tV6LNKpHF9Tsepjfk8CfRfDhh8vWc1XNJFcQFbGy" ] },
      { "delegate": "tz1d6Fx42mYgVFnHUW8T8A7WBfJ6nD9pVok8",
        "reception_time": "2022-01-20T19:41:51.098-00:00",
        "included_in_blocks":
          [ "BMMxfQay363tV6LNKpHF9Tsepjfk8CfRfDhh8vWc1XNJFcQFbGy" ] },
      { "delegate": "tz1WCd2jm4uSt4vntk4vSuUWoZQGhLcDuR9q",
        "reception_time": "2022-01-20T19:41:51.098-00:00",
        "included_in_blocks":
          [ "BMMxfQay363tV6LNKpHF9Tsepjfk8CfRfDhh8vWc1XNJFcQFbGy" ] },
      { "delegate": "tz1cSj7fTex3JPd1p1LN1fwek6AV1kH93Wwc",
        "reception_time": "2022-01-20T19:41:51.098-00:00",
        "included_in_blocks":
          [ "BMMxfQay363tV6LNKpHF9Tsepjfk8CfRfDhh8vWc1XNJFcQFbGy" ] },
      { "delegate": "tz3NxTnke1acr8o3h5y9ytf5awQBGNJUKzVU",
        "reception_time": "2022-01-20T19:41:51.098-00:00",
        "included_in_blocks":
          [ "BMMxfQay363tV6LNKpHF9Tsepjfk8CfRfDhh8vWc1XNJFcQFbGy" ] },
      { "delegate": "tz1TzaNn7wSQSP5gYPXCnNzBCpyMiidCq1PX",
        "reception_time": "2022-01-20T19:41:51.098-00:00",
        "included_in_blocks":
          [ "BMMxfQay363tV6LNKpHF9Tsepjfk8CfRfDhh8vWc1XNJFcQFbGy" ] },
      { "delegate": "tz3gtoUxdudfBRcNY7iVdKPHCYYX6xdPpoRS",
        "reception_time": "2022-01-20T19:41:51.098-00:00",
        "included_in_blocks":
          [ "BMMxfQay363tV6LNKpHF9Tsepjfk8CfRfDhh8vWc1XNJFcQFbGy" ] },
      { "delegate": "tz3QSGPoRp3Kn7n3vY24eYeu3Peuqo45LQ4D",
        "reception_time": "2022-01-20T19:41:51.098-00:00",
        "included_in_blocks":
          [ "BMMxfQay363tV6LNKpHF9Tsepjfk8CfRfDhh8vWc1XNJFcQFbGy" ] },
      { "delegate": "tz1VQnqCCqX4K5sP3FNkVSNKTdCAMJDd3E1n",
        "reception_time": "2022-01-20T19:41:51.098-00:00",
        "included_in_blocks":
          [ "BMMxfQay363tV6LNKpHF9Tsepjfk8CfRfDhh8vWc1XNJFcQFbGy" ] },
      { "delegate": "tz1fPKAtsYydh4f1wfWNfeNxWYu72TmM48fu",
        "reception_time": "2022-01-20T19:41:51.460-00:00",
        "included_in_blocks":
          [ "BMMxfQay363tV6LNKpHF9Tsepjfk8CfRfDhh8vWc1XNJFcQFbGy" ] },
      { "delegate": "tz1gUNyn3hmnEWqkusWPzxRaon1cs7ndWh7h",
        "reception_time": "2022-01-20T19:41:51.098-00:00",
        "included_in_blocks":
          [ "BMMxfQay363tV6LNKpHF9Tsepjfk8CfRfDhh8vWc1XNJFcQFbGy" ] },
      { "delegate": "tz1dNVDWPf3Q59SdJqnjdnu277iyvReiRS9M",
        "reception_time": "2022-01-20T19:41:51.098-00:00",
        "included_in_blocks":
          [ "BMMxfQay363tV6LNKpHF9Tsepjfk8CfRfDhh8vWc1XNJFcQFbGy" ] },
      { "delegate": "tz1ZPh7XfUaJXUDvkrBxmS1BjEM1i62hiPpM",
        "reception_time": "2022-01-20T19:41:51.098-00:00",
        "included_in_blocks":
          [ "BMMxfQay363tV6LNKpHF9Tsepjfk8CfRfDhh8vWc1XNJFcQFbGy" ] },
      { "delegate": "tz1V4qCyvPKZ5UeqdH14HN42rxvNPQfc9UZg",
        "reception_time": "2022-01-20T19:41:51.098-00:00",
        "included_in_blocks":
          [ "BMMxfQay363tV6LNKpHF9Tsepjfk8CfRfDhh8vWc1XNJFcQFbGy" ] },
      { "delegate": "tz1PWCDnz783NNGGQjEFFsHtrcK5yBW4E2rm",
        "reception_time": "2022-01-20T19:41:51.098-00:00",
        "included_in_blocks":
          [ "BMMxfQay363tV6LNKpHF9Tsepjfk8CfRfDhh8vWc1XNJFcQFbGy" ] },
      { "delegate": "tz1RNFBuv3iqriqVbobB8yAeUpTKLdzMQ4Aq",
        "reception_time": "2022-01-20T19:41:51.098-00:00",
        "included_in_blocks":
          [ "BMMxfQay363tV6LNKpHF9Tsepjfk8CfRfDhh8vWc1XNJFcQFbGy" ] },
      { "delegate": "tz1Ldzz6k1BHdhuKvAtMRX7h5kJSMHESMHLC",
        "reception_time": "2022-01-20T19:41:51.098-00:00",
        "included_in_blocks":
          [ "BMMxfQay363tV6LNKpHF9Tsepjfk8CfRfDhh8vWc1XNJFcQFbGy" ] },
      { "delegate": "tz1irJKkXS2DBWkU1NnmFQx1c1L7pbGg4yhk",
        "reception_time": "2022-01-20T19:41:51.098-00:00",
        "included_in_blocks":
          [ "BMMxfQay363tV6LNKpHF9Tsepjfk8CfRfDhh8vWc1XNJFcQFbGy" ] },
      { "delegate": "tz1VmiY38m3y95HqQLjMwqnMS7sdMfGomzKi",
        "reception_time": "2022-01-20T19:41:51.098-00:00",
        "included_in_blocks":
          [ "BMMxfQay363tV6LNKpHF9Tsepjfk8CfRfDhh8vWc1XNJFcQFbGy" ] },
      { "delegate": "tz1TRspM5SeZpaQUhzByXbEvqKF1vnCM2YTK",
        "reception_time": "2022-01-20T19:41:51.098-00:00",
        "included_in_blocks":
          [ "BMMxfQay363tV6LNKpHF9Tsepjfk8CfRfDhh8vWc1XNJFcQFbGy" ] },
      { "delegate": "tz1eEnQhbwf6trb8Q8mPb2RaPkNk2rN7BKi8",
        "reception_time": "2022-01-20T19:41:51.098-00:00",
        "included_in_blocks":
          [ "BMMxfQay363tV6LNKpHF9Tsepjfk8CfRfDhh8vWc1XNJFcQFbGy" ] },
      { "delegate": "tz1TXzyaKUA8wsWefdSnyaYFnV2M3vCV7er9",
        "reception_time": "2022-01-20T19:41:51.098-00:00",
        "included_in_blocks":
          [ "BMMxfQay363tV6LNKpHF9Tsepjfk8CfRfDhh8vWc1XNJFcQFbGy" ] },
      { "delegate": "tz1P2Po7YM526ughEsRbY4oR9zaUPDZjxFrb",
        "reception_time": "2022-01-20T19:41:51.098-00:00",
        "included_in_blocks":
          [ "BMMxfQay363tV6LNKpHF9Tsepjfk8CfRfDhh8vWc1XNJFcQFbGy" ] } ] }