{ "blocks":
    [ { "hash": "BMVaxtPjSwWuJxzNPXpnaWk7GNsFiHFvdSida8eFPT2Mx9q7mAJ",
        "delegate": "tz1gfArv665EUkSg2ojMBzcbfwuPxAvqPvjo",
        "reception_time": "2022-01-20T15:29:39.844-00:00",
        "timestamp": "2022-01-20T15:29:20Z" } ],
  "endorsements":
    [ { "delegate": "tz1go7f6mEQfT2xX2LuHAqgnRGN6c2zHPf5c",
        "reception_time": "2022-01-20T15:29:59.669-00:00" },
      { "delegate": "tz1NpWrAyDL9k2Lmnyxcgr9xuJakbBxdq7FB",
        "reception_time": "2022-01-20T15:29:59.085-00:00" },
      { "delegate": "tz1PFeoTuFen8jAMRHajBySNyCwLmY5RqF9M",
        "reception_time": "2022-01-20T15:29:54.200-00:00" },
      { "delegate": "tz1aRoaRhSpRYvFdyvgWLL6TGyRoGF51wDjM",
        "reception_time": "2022-01-20T15:29:49.072-00:00",
        "included_in_blocks":
          [ "BLiwoUGh8krxTnTrLg7zPmdcEkysuVnBN2PRKFepdhAJbsoWxZn" ] },
      { "delegate": "tz1LmaFsWRkjr7QMCx5PtV6xTUz3AmEpKQiF",
        "reception_time": "2022-01-20T15:29:47.432-00:00",
        "included_in_blocks":
          [ "BLiwoUGh8krxTnTrLg7zPmdcEkysuVnBN2PRKFepdhAJbsoWxZn" ] },
      { "delegate": "tz1UvkANVPWppVgMkLnvN7BwYZsCP7vm6NVd",
        "reception_time": "2022-01-20T15:29:45.600-00:00",
        "included_in_blocks":
          [ "BLiwoUGh8krxTnTrLg7zPmdcEkysuVnBN2PRKFepdhAJbsoWxZn" ] },
      { "delegate": "tz3bvNMQ95vfAYtG8193ymshqjSvmxiCUuR5",
        "reception_time": "2022-01-20T15:29:45.547-00:00",
        "included_in_blocks":
          [ "BLiwoUGh8krxTnTrLg7zPmdcEkysuVnBN2PRKFepdhAJbsoWxZn" ] },
      { "delegate": "tz3NExpXn9aPNZPorRE4SdjJ2RGrfbJgMAaV",
        "reception_time": "2022-01-20T15:29:45.528-00:00",
        "included_in_blocks":
          [ "BLiwoUGh8krxTnTrLg7zPmdcEkysuVnBN2PRKFepdhAJbsoWxZn" ] },
      { "delegate": "tz3WMqdzXqRWXwyvj5Hp2H7QEepaUuS7vd9K",
        "reception_time": "2022-01-20T15:29:45.318-00:00",
        "included_in_blocks":
          [ "BLiwoUGh8krxTnTrLg7zPmdcEkysuVnBN2PRKFepdhAJbsoWxZn" ] },
      { "delegate": "tz1b9MYGrbN1NAxphLEsPPNT9JC7aNFc5nA4",
        "reception_time": "2022-01-20T15:29:45.098-00:00",
        "included_in_blocks":
          [ "BLiwoUGh8krxTnTrLg7zPmdcEkysuVnBN2PRKFepdhAJbsoWxZn" ] },
      { "delegate": "tz3VEZ4k6a4Wx42iyev6i2aVAptTRLEAivNN",
        "reception_time": "2022-01-20T15:29:44.715-00:00",
        "included_in_blocks":
          [ "BLiwoUGh8krxTnTrLg7zPmdcEkysuVnBN2PRKFepdhAJbsoWxZn" ] },
      { "delegate": "tz1iPHM2Xx2hwmzcr1EG1zzrV6oKafVoA91m",
        "reception_time": "2022-01-20T15:29:44.685-00:00",
        "included_in_blocks":
          [ "BLiwoUGh8krxTnTrLg7zPmdcEkysuVnBN2PRKFepdhAJbsoWxZn" ] },
      { "delegate": "tz3RDC3Jdn4j15J7bBHZd29EUee9gVB1CxD9",
        "reception_time": "2022-01-20T15:29:44.669-00:00",
        "included_in_blocks":
          [ "BLiwoUGh8krxTnTrLg7zPmdcEkysuVnBN2PRKFepdhAJbsoWxZn" ] },
      { "delegate": "tz3NDpRj6WBrJPikcPVHRBEjWKxFw3c6eQPS",
        "reception_time": "2022-01-20T15:29:44.556-00:00",
        "included_in_blocks":
          [ "BLiwoUGh8krxTnTrLg7zPmdcEkysuVnBN2PRKFepdhAJbsoWxZn" ] },
      { "delegate": "tz3gLTu4Yxj8tPAcriQVUdxv6BY9QyvzU1az",
        "reception_time": "2022-01-20T15:29:44.544-00:00",
        "included_in_blocks":
          [ "BLiwoUGh8krxTnTrLg7zPmdcEkysuVnBN2PRKFepdhAJbsoWxZn" ] },
      { "delegate": "tz1TRqbYbUf2GyrjErf3hBzgBJPzW8y36qEs",
        "reception_time": "2022-01-20T15:29:44.433-00:00",
        "included_in_blocks":
          [ "BLiwoUGh8krxTnTrLg7zPmdcEkysuVnBN2PRKFepdhAJbsoWxZn" ] },
      { "delegate": "tz1abmz7jiCV2GH2u81LRrGgAFFgvQgiDiaf",
        "reception_time": "2022-01-20T15:29:44.428-00:00",
        "included_in_blocks":
          [ "BLiwoUGh8krxTnTrLg7zPmdcEkysuVnBN2PRKFepdhAJbsoWxZn" ] },
      { "delegate": "tz1cYufsxHXJcvANhvS55h3aY32a9BAFB494",
        "reception_time": "2022-01-20T15:29:44.425-00:00",
        "included_in_blocks":
          [ "BLiwoUGh8krxTnTrLg7zPmdcEkysuVnBN2PRKFepdhAJbsoWxZn" ] },
      { "delegate": "tz1Z2jXfEXL7dXhs6bsLmyLFLfmAkXBzA9WE",
        "reception_time": "2022-01-20T15:29:44.363-00:00",
        "included_in_blocks":
          [ "BLiwoUGh8krxTnTrLg7zPmdcEkysuVnBN2PRKFepdhAJbsoWxZn" ] },
      { "delegate": "tz1hAYfexyzPGG6RhZZMpDvAHifubsbb6kgn",
        "reception_time": "2022-01-20T15:29:44.359-00:00",
        "included_in_blocks":
          [ "BLiwoUGh8krxTnTrLg7zPmdcEkysuVnBN2PRKFepdhAJbsoWxZn" ] },
      { "delegate": "tz1ZcTRk5uxD86EFEn1vvNffWWqJy7q5eVhc",
        "reception_time": "2022-01-20T15:29:44.330-00:00",
        "included_in_blocks":
          [ "BLiwoUGh8krxTnTrLg7zPmdcEkysuVnBN2PRKFepdhAJbsoWxZn" ] },
      { "delegate": "tz3S6BBeKgJGXxvLyZ1xzXzMPn11nnFtq5L9",
        "reception_time": "2022-01-20T15:29:44.324-00:00",
        "included_in_blocks":
          [ "BLiwoUGh8krxTnTrLg7zPmdcEkysuVnBN2PRKFepdhAJbsoWxZn" ] },
      { "delegate": "tz3QT9dHYKDqh563chVa6za8526ys1UKfRfL",
        "reception_time": "2022-01-20T15:29:44.317-00:00",
        "included_in_blocks":
          [ "BLiwoUGh8krxTnTrLg7zPmdcEkysuVnBN2PRKFepdhAJbsoWxZn" ] },
      { "delegate": "tz3bTdwZinP8U1JmSweNzVKhmwafqWmFWRfk",
        "reception_time": "2022-01-20T15:29:44.311-00:00",
        "included_in_blocks":
          [ "BLiwoUGh8krxTnTrLg7zPmdcEkysuVnBN2PRKFepdhAJbsoWxZn" ] },
      { "delegate": "tz1PeZx7FXy7QRuMREGXGxeipb24RsMMzUNe",
        "reception_time": "2022-01-20T15:29:44.301-00:00",
        "included_in_blocks":
          [ "BLiwoUGh8krxTnTrLg7zPmdcEkysuVnBN2PRKFepdhAJbsoWxZn" ] },
      { "delegate": "tz3iJu5vrKZcsqRPs8yJ61UDoeEXZmtro4qh",
        "reception_time": "2022-01-20T15:29:44.301-00:00",
        "included_in_blocks":
          [ "BLiwoUGh8krxTnTrLg7zPmdcEkysuVnBN2PRKFepdhAJbsoWxZn" ] },
      { "delegate": "tz2FCNBrERXtaTtNX6iimR1UJ5JSDxvdHM93",
        "reception_time": "2022-01-20T15:29:44.286-00:00",
        "included_in_blocks":
          [ "BLiwoUGh8krxTnTrLg7zPmdcEkysuVnBN2PRKFepdhAJbsoWxZn" ] },
      { "delegate": "tz3Zhs2dygr55yHyQyKjntAtY9bgfhLZ4Xj1",
        "reception_time": "2022-01-20T15:29:44.286-00:00",
        "included_in_blocks":
          [ "BLiwoUGh8krxTnTrLg7zPmdcEkysuVnBN2PRKFepdhAJbsoWxZn" ] },
      { "delegate": "tz3QCNyySViKHmeSr45kzDxzchys7NiXCWoa",
        "reception_time": "2022-01-20T15:29:44.276-00:00",
        "included_in_blocks":
          [ "BLiwoUGh8krxTnTrLg7zPmdcEkysuVnBN2PRKFepdhAJbsoWxZn" ] },
      { "delegate": "tz1T7duV5gZWSTq4YpBGbXNLTfznCLDrFxvs",
        "reception_time": "2022-01-20T15:29:44.154-00:00",
        "included_in_blocks":
          [ "BLiwoUGh8krxTnTrLg7zPmdcEkysuVnBN2PRKFepdhAJbsoWxZn" ] },
      { "delegate": "tz1RCFbB9GpALpsZtu6J58sb74dm8qe6XBzv",
        "reception_time": "2022-01-20T15:29:44.137-00:00",
        "included_in_blocks":
          [ "BLiwoUGh8krxTnTrLg7zPmdcEkysuVnBN2PRKFepdhAJbsoWxZn" ] },
      { "delegate": "tz1fPKAtsYydh4f1wfWNfeNxWYu72TmM48fu",
        "reception_time": "2022-01-20T15:29:44.137-00:00",
        "included_in_blocks":
          [ "BLiwoUGh8krxTnTrLg7zPmdcEkysuVnBN2PRKFepdhAJbsoWxZn" ] },
      { "delegate": "tz1dRKU4FQ9QRRQPdaH4zCR6gmCmXfcvcgtB",
        "reception_time": "2022-01-20T15:29:44.131-00:00",
        "included_in_blocks":
          [ "BLiwoUGh8krxTnTrLg7zPmdcEkysuVnBN2PRKFepdhAJbsoWxZn" ] },
      { "delegate": "tz1TRspM5SeZpaQUhzByXbEvqKF1vnCM2YTK",
        "reception_time": "2022-01-20T15:29:44.131-00:00",
        "included_in_blocks":
          [ "BLiwoUGh8krxTnTrLg7zPmdcEkysuVnBN2PRKFepdhAJbsoWxZn" ] },
      { "delegate": "tz1RQhNh7iB9CZA7i3ifTWNwiGYVffponfbB",
        "reception_time": "2022-01-20T15:29:44.127-00:00",
        "included_in_blocks":
          [ "BLiwoUGh8krxTnTrLg7zPmdcEkysuVnBN2PRKFepdhAJbsoWxZn" ] },
      { "delegate": "tz3gtoUxdudfBRcNY7iVdKPHCYYX6xdPpoRS",
        "reception_time": "2022-01-20T15:29:44.127-00:00",
        "included_in_blocks":
          [ "BLiwoUGh8krxTnTrLg7zPmdcEkysuVnBN2PRKFepdhAJbsoWxZn" ] },
      { "delegate": "tz3RB4aoyjov4KEVRbuhvQ1CKJgBJMWhaeB8",
        "reception_time": "2022-01-20T15:29:44.118-00:00",
        "included_in_blocks":
          [ "BLiwoUGh8krxTnTrLg7zPmdcEkysuVnBN2PRKFepdhAJbsoWxZn" ] },
      { "delegate": "tz3hw2kqXhLUvY65ca1eety2oQTpAvd34R9Q",
        "reception_time": "2022-01-20T15:29:44.118-00:00",
        "included_in_blocks":
          [ "BLiwoUGh8krxTnTrLg7zPmdcEkysuVnBN2PRKFepdhAJbsoWxZn" ] },
      { "delegate": "tz1S8MNvuFEUsWgjHvi3AxibRBf388NhT1q2",
        "reception_time": "2022-01-20T15:29:44.098-00:00",
        "included_in_blocks":
          [ "BLiwoUGh8krxTnTrLg7zPmdcEkysuVnBN2PRKFepdhAJbsoWxZn" ] },
      { "delegate": "tz3QSGPoRp3Kn7n3vY24eYeu3Peuqo45LQ4D",
        "reception_time": "2022-01-20T15:29:44.040-00:00",
        "included_in_blocks":
          [ "BLiwoUGh8krxTnTrLg7zPmdcEkysuVnBN2PRKFepdhAJbsoWxZn" ] },
      { "delegate": "tz3RKYFsLuQzKBtmYuLNas7uMu3AsYd4QdsA",
        "reception_time": "2022-01-20T15:29:44.040-00:00",
        "included_in_blocks":
          [ "BLiwoUGh8krxTnTrLg7zPmdcEkysuVnBN2PRKFepdhAJbsoWxZn" ] },
      { "delegate": "tz1MQMiZHV8q4tTwUMWmS5Y3kaP6J2136iXr",
        "reception_time": "2022-01-20T15:29:44.028-00:00",
        "included_in_blocks":
          [ "BLiwoUGh8krxTnTrLg7zPmdcEkysuVnBN2PRKFepdhAJbsoWxZn" ] },
      { "delegate": "tz1Nf6tsK4G6bBqgSQERy4nUtkHNKUVdh7q1",
        "reception_time": "2022-01-20T15:29:44.025-00:00",
        "included_in_blocks":
          [ "BLiwoUGh8krxTnTrLg7zPmdcEkysuVnBN2PRKFepdhAJbsoWxZn" ] },
      { "delegate": "tz1MJx9vhaNRSimcuXPK2rW4fLccQnDAnVKJ",
        "reception_time": "2022-01-20T15:29:44.023-00:00",
        "included_in_blocks":
          [ "BLiwoUGh8krxTnTrLg7zPmdcEkysuVnBN2PRKFepdhAJbsoWxZn" ] },
      { "delegate": "tz3ZbP2pM3nwvXztbuMJwJnDvV5xdpU8UkkD",
        "reception_time": "2022-01-20T15:29:44.021-00:00",
        "included_in_blocks":
          [ "BLiwoUGh8krxTnTrLg7zPmdcEkysuVnBN2PRKFepdhAJbsoWxZn" ] },
      { "delegate": "tz1NMdMmWZN8QPB8pY4ddncACDg1cHi1xD2e",
        "reception_time": "2022-01-20T15:29:44.014-00:00",
        "included_in_blocks":
          [ "BLiwoUGh8krxTnTrLg7zPmdcEkysuVnBN2PRKFepdhAJbsoWxZn" ] },
      { "delegate": "tz1KfEsrtDaA1sX7vdM4qmEPWuSytuqCDp5j",
        "reception_time": "2022-01-20T15:29:43.993-00:00",
        "included_in_blocks":
          [ "BLiwoUGh8krxTnTrLg7zPmdcEkysuVnBN2PRKFepdhAJbsoWxZn" ] },
      { "delegate": "tz1PWCDnz783NNGGQjEFFsHtrcK5yBW4E2rm",
        "reception_time": "2022-01-20T15:29:43.989-00:00",
        "included_in_blocks":
          [ "BLiwoUGh8krxTnTrLg7zPmdcEkysuVnBN2PRKFepdhAJbsoWxZn" ] },
      { "delegate": "tz3NxTnke1acr8o3h5y9ytf5awQBGNJUKzVU",
        "reception_time": "2022-01-20T15:29:43.986-00:00",
        "included_in_blocks":
          [ "BLiwoUGh8krxTnTrLg7zPmdcEkysuVnBN2PRKFepdhAJbsoWxZn" ] },
      { "delegate": "tz1ei4WtWEMEJekSv8qDnu9PExG6Q8HgRGr3",
        "reception_time": "2022-01-20T15:29:43.979-00:00",
        "included_in_blocks":
          [ "BLiwoUGh8krxTnTrLg7zPmdcEkysuVnBN2PRKFepdhAJbsoWxZn" ] },
      { "delegate": "tz1eEnQhbwf6trb8Q8mPb2RaPkNk2rN7BKi8",
        "reception_time": "2022-01-20T15:29:43.977-00:00",
        "included_in_blocks":
          [ "BLiwoUGh8krxTnTrLg7zPmdcEkysuVnBN2PRKFepdhAJbsoWxZn" ] },
      { "delegate": "tz1d6Fx42mYgVFnHUW8T8A7WBfJ6nD9pVok8",
        "reception_time": "2022-01-20T15:29:43.974-00:00",
        "included_in_blocks":
          [ "BLiwoUGh8krxTnTrLg7zPmdcEkysuVnBN2PRKFepdhAJbsoWxZn" ] },
      { "delegate": "tz1TEc75UKXv4W5cwi14Na3NtqFD51yKQi7h",
        "reception_time": "2022-01-20T15:29:43.970-00:00",
        "included_in_blocks":
          [ "BLiwoUGh8krxTnTrLg7zPmdcEkysuVnBN2PRKFepdhAJbsoWxZn" ] },
      { "delegate": "tz1TzaNn7wSQSP5gYPXCnNzBCpyMiidCq1PX",
        "reception_time": "2022-01-20T15:29:43.863-00:00",
        "included_in_blocks":
          [ "BLiwoUGh8krxTnTrLg7zPmdcEkysuVnBN2PRKFepdhAJbsoWxZn" ] },
      { "delegate": "tz1cSj7fTex3JPd1p1LN1fwek6AV1kH93Wwc",
        "reception_time": "2022-01-20T15:29:43.855-00:00",
        "included_in_blocks":
          [ "BLiwoUGh8krxTnTrLg7zPmdcEkysuVnBN2PRKFepdhAJbsoWxZn" ] },
      { "delegate": "tz1Lhf4J9Qxoe3DZ2nfe8FGDnvVj7oKjnMY6",
        "reception_time": "2022-01-20T15:29:43.852-00:00",
        "included_in_blocks":
          [ "BLiwoUGh8krxTnTrLg7zPmdcEkysuVnBN2PRKFepdhAJbsoWxZn" ] },
      { "delegate": "tz1P2Po7YM526ughEsRbY4oR9zaUPDZjxFrb",
        "reception_time": "2022-01-20T15:29:43.848-00:00",
        "included_in_blocks":
          [ "BLiwoUGh8krxTnTrLg7zPmdcEkysuVnBN2PRKFepdhAJbsoWxZn" ] },
      { "delegate": "tz1irJKkXS2DBWkU1NnmFQx1c1L7pbGg4yhk",
        "reception_time": "2022-01-20T15:29:43.844-00:00",
        "included_in_blocks":
          [ "BLiwoUGh8krxTnTrLg7zPmdcEkysuVnBN2PRKFepdhAJbsoWxZn" ] },
      { "delegate": "tz1Ldzz6k1BHdhuKvAtMRX7h5kJSMHESMHLC",
        "reception_time": "2022-01-20T15:29:43.841-00:00",
        "included_in_blocks":
          [ "BLiwoUGh8krxTnTrLg7zPmdcEkysuVnBN2PRKFepdhAJbsoWxZn" ] },
      { "delegate": "tz1STeamwbp68THcny9zk3LsbG3H36DMvbRK",
        "reception_time": "2022-01-20T15:29:43.718-00:00",
        "included_in_blocks":
          [ "BLiwoUGh8krxTnTrLg7zPmdcEkysuVnBN2PRKFepdhAJbsoWxZn" ] },
      { "delegate": "tz1awXW7wuXy21c66vBudMXQVAPgRnqqwgTH" },
      { "delegate": "tz1W5VkdB5s7ENMESVBtwyt9kyvLqPcUczRT" },
      { "delegate": "tz1Vyuu4EJ5Nym4JcrfRLnp3hpaq1DSEp1Ke" },
      { "delegate": "tz1RjoHc98dBoqaH2jawF62XNKh7YsHwbkEv" },
      { "delegate": "tz1gfArv665EUkSg2ojMBzcbfwuPxAvqPvjo",
        "reception_time": "2022-01-20T15:29:37.117-00:00",
        "errors":
          [ { "kind": "temporary",
              "id": "proto.011-PtHangz2.prefilter.outdated_endorsement" } ],
        "included_in_blocks":
          [ "BLiwoUGh8krxTnTrLg7zPmdcEkysuVnBN2PRKFepdhAJbsoWxZn" ] },
      { "delegate": "tz1Kt4P8BCaP93AEV4eA7gmpRryWt5hznjCP",
        "reception_time": "2022-01-20T15:29:38.982-00:00",
        "errors":
          [ { "kind": "temporary",
              "id": "proto.011-PtHangz2.prefilter.outdated_endorsement" } ],
        "included_in_blocks":
          [ "BLiwoUGh8krxTnTrLg7zPmdcEkysuVnBN2PRKFepdhAJbsoWxZn" ] },
      { "delegate": "tz1VmiY38m3y95HqQLjMwqnMS7sdMfGomzKi",
        "reception_time": "2022-01-20T15:29:39.067-00:00",
        "errors":
          [ { "kind": "temporary",
              "id": "proto.011-PtHangz2.prefilter.outdated_endorsement" } ],
        "included_in_blocks":
          [ "BLiwoUGh8krxTnTrLg7zPmdcEkysuVnBN2PRKFepdhAJbsoWxZn" ] },
      { "delegate": "tz1RV1MBbZMR68tacosb7Mwj6LkbPSUS1er1",
        "reception_time": "2022-01-20T15:29:39.434-00:00",
        "errors":
          [ { "kind": "temporary",
              "id": "proto.011-PtHangz2.prefilter.outdated_endorsement" } ],
        "included_in_blocks":
          [ "BLiwoUGh8krxTnTrLg7zPmdcEkysuVnBN2PRKFepdhAJbsoWxZn" ] },
      { "delegate": "tz1gUNyn3hmnEWqkusWPzxRaon1cs7ndWh7h",
        "reception_time": "2022-01-20T15:29:39.446-00:00",
        "errors":
          [ { "kind": "temporary",
              "id": "proto.011-PtHangz2.prefilter.outdated_endorsement" } ],
        "included_in_blocks":
          [ "BLiwoUGh8krxTnTrLg7zPmdcEkysuVnBN2PRKFepdhAJbsoWxZn" ] },
      { "delegate": "tz1VQnqCCqX4K5sP3FNkVSNKTdCAMJDd3E1n",
        "reception_time": "2022-01-20T15:29:39.485-00:00",
        "errors":
          [ { "kind": "temporary",
              "id": "proto.011-PtHangz2.prefilter.outdated_endorsement" } ],
        "included_in_blocks":
          [ "BLiwoUGh8krxTnTrLg7zPmdcEkysuVnBN2PRKFepdhAJbsoWxZn" ] },
      { "delegate": "tz1TXzyaKUA8wsWefdSnyaYFnV2M3vCV7er9",
        "reception_time": "2022-01-20T15:29:39.595-00:00",
        "errors":
          [ { "kind": "temporary",
              "id": "proto.011-PtHangz2.prefilter.outdated_endorsement" } ],
        "included_in_blocks":
          [ "BLiwoUGh8krxTnTrLg7zPmdcEkysuVnBN2PRKFepdhAJbsoWxZn" ] },
      { "delegate": "tz1aXD7Jigrt3PBYSpHSg5Rr33SexMmmM5Ys",
        "reception_time": "2022-01-20T15:29:39.643-00:00",
        "errors":
          [ { "kind": "temporary",
              "id": "proto.011-PtHangz2.prefilter.outdated_endorsement" } ],
        "included_in_blocks":
          [ "BLiwoUGh8krxTnTrLg7zPmdcEkysuVnBN2PRKFepdhAJbsoWxZn" ] } ] }