{ "blocks":
    [ { "hash": "BLkyjV7x3iZAJPLuB8SosLpYq1ezzCNhKhhs9TG8jcvEGLZx7tm",
        "delegate": "tz1Ldzz6k1BHdhuKvAtMRX7h5kJSMHESMHLC",
        "reception_time": "2022-01-20T14:24:38.859-00:00",
        "timestamp": "2022-01-20T14:24:30Z" } ],
  "endorsements":
    [ { "delegate": "tz1dbfppLAAxXZNtf2SDps7rch3qfUznKSoK" },
      { "delegate": "tz1W5VkdB5s7ENMESVBtwyt9kyvLqPcUczRT" },
      { "delegate": "tz1RjoHc98dBoqaH2jawF62XNKh7YsHwbkEv" },
      { "delegate": "tz1TzaNn7wSQSP5gYPXCnNzBCpyMiidCq1PX",
        "reception_time": "2022-01-20T14:24:38.606-00:00",
        "errors":
          [ { "kind": "temporary",
              "id": "proto.011-PtHangz2.prefilter.outdated_endorsement" } ],
        "included_in_blocks":
          [ "BLGWSWvPj21TWrdZeibnNU6q9oMxTk4Dq62p9CX8HxLCe3oHswu" ] },
      { "delegate": "tz1gUNyn3hmnEWqkusWPzxRaon1cs7ndWh7h",
        "reception_time": "2022-01-20T14:24:38.592-00:00",
        "errors":
          [ { "kind": "temporary",
              "id": "proto.011-PtHangz2.prefilter.outdated_endorsement" } ],
        "included_in_blocks":
          [ "BLGWSWvPj21TWrdZeibnNU6q9oMxTk4Dq62p9CX8HxLCe3oHswu" ] },
      { "delegate": "tz1VQnqCCqX4K5sP3FNkVSNKTdCAMJDd3E1n",
        "reception_time": "2022-01-20T14:24:38.584-00:00",
        "errors":
          [ { "kind": "temporary",
              "id": "proto.011-PtHangz2.prefilter.outdated_endorsement" } ],
        "included_in_blocks":
          [ "BLGWSWvPj21TWrdZeibnNU6q9oMxTk4Dq62p9CX8HxLCe3oHswu" ] },
      { "delegate": "tz1eEnQhbwf6trb8Q8mPb2RaPkNk2rN7BKi8",
        "reception_time": "2022-01-20T14:24:38.362-00:00",
        "errors":
          [ { "kind": "temporary",
              "id": "proto.011-PtHangz2.prefilter.outdated_endorsement" } ],
        "included_in_blocks":
          [ "BLGWSWvPj21TWrdZeibnNU6q9oMxTk4Dq62p9CX8HxLCe3oHswu" ] },
      { "delegate": "tz1irJKkXS2DBWkU1NnmFQx1c1L7pbGg4yhk",
        "reception_time": "2022-01-20T14:24:38.354-00:00",
        "errors":
          [ { "kind": "temporary",
              "id": "proto.011-PtHangz2.prefilter.outdated_endorsement" } ],
        "included_in_blocks":
          [ "BLGWSWvPj21TWrdZeibnNU6q9oMxTk4Dq62p9CX8HxLCe3oHswu" ] },
      { "delegate": "tz1RV1MBbZMR68tacosb7Mwj6LkbPSUS1er1",
        "reception_time": "2022-01-20T14:24:38.194-00:00",
        "errors":
          [ { "kind": "temporary",
              "id": "proto.011-PtHangz2.prefilter.outdated_endorsement" } ],
        "included_in_blocks":
          [ "BLGWSWvPj21TWrdZeibnNU6q9oMxTk4Dq62p9CX8HxLCe3oHswu" ] },
      { "delegate": "tz1aDiEJf9ztRrAJEXZfcG3CKimoKsGhwVAi",
        "reception_time": "2022-01-20T14:24:38.067-00:00",
        "errors":
          [ { "kind": "temporary",
              "id": "proto.011-PtHangz2.prefilter.outdated_endorsement" } ],
        "included_in_blocks":
          [ "BLGWSWvPj21TWrdZeibnNU6q9oMxTk4Dq62p9CX8HxLCe3oHswu" ] },
      { "delegate": "tz1P2Po7YM526ughEsRbY4oR9zaUPDZjxFrb",
        "reception_time": "2022-01-20T14:24:37.945-00:00",
        "errors":
          [ { "kind": "temporary",
              "id": "proto.011-PtHangz2.prefilter.outdated_endorsement" } ],
        "included_in_blocks":
          [ "BLGWSWvPj21TWrdZeibnNU6q9oMxTk4Dq62p9CX8HxLCe3oHswu" ] },
      { "delegate": "tz1Ldzz6k1BHdhuKvAtMRX7h5kJSMHESMHLC",
        "reception_time": "2022-01-20T14:24:37.759-00:00",
        "errors":
          [ { "kind": "temporary",
              "id": "proto.011-PtHangz2.prefilter.outdated_endorsement" } ],
        "included_in_blocks":
          [ "BLGWSWvPj21TWrdZeibnNU6q9oMxTk4Dq62p9CX8HxLCe3oHswu" ] },
      { "delegate": "tz1WL4xAAYsQ2GM9MCQGePYcbwwu6kvfqMWN",
        "reception_time": "2022-01-20T14:24:37.604-00:00",
        "errors":
          [ { "kind": "temporary",
              "id": "proto.011-PtHangz2.prefilter.outdated_endorsement" } ],
        "included_in_blocks":
          [ "BLGWSWvPj21TWrdZeibnNU6q9oMxTk4Dq62p9CX8HxLCe3oHswu" ] },
      { "delegate": "tz1S8e9GgdZG78XJRB3NqabfWeM37GnhZMWQ",
        "reception_time": "2022-01-20T14:24:37.040-00:00",
        "errors":
          [ { "kind": "temporary",
              "id": "proto.011-PtHangz2.prefilter.outdated_endorsement" } ],
        "included_in_blocks":
          [ "BLGWSWvPj21TWrdZeibnNU6q9oMxTk4Dq62p9CX8HxLCe3oHswu" ] },
      { "delegate": "tz1go7f6mEQfT2xX2LuHAqgnRGN6c2zHPf5c",
        "reception_time": "2022-01-20T14:24:54.383-00:00",
        "included_in_blocks":
          [ "BLGWSWvPj21TWrdZeibnNU6q9oMxTk4Dq62p9CX8HxLCe3oHswu" ] },
      { "delegate": "tz1PFeoTuFen8jAMRHajBySNyCwLmY5RqF9M",
        "reception_time": "2022-01-20T14:24:47.485-00:00",
        "included_in_blocks":
          [ "BLGWSWvPj21TWrdZeibnNU6q9oMxTk4Dq62p9CX8HxLCe3oHswu" ] },
      { "delegate": "tz1bf816tUrSLYsWkUrsDFH9kkbpg3oXjriR",
        "reception_time": "2022-01-20T14:24:47.370-00:00",
        "included_in_blocks":
          [ "BLGWSWvPj21TWrdZeibnNU6q9oMxTk4Dq62p9CX8HxLCe3oHswu" ] },
      { "delegate": "tz1aRoaRhSpRYvFdyvgWLL6TGyRoGF51wDjM",
        "reception_time": "2022-01-20T14:24:44.339-00:00",
        "included_in_blocks":
          [ "BLGWSWvPj21TWrdZeibnNU6q9oMxTk4Dq62p9CX8HxLCe3oHswu" ] },
      { "delegate": "tz1g8vkmcde6sWKaG2NN9WKzCkDM6Rziq194",
        "reception_time": "2022-01-20T14:24:42.250-00:00",
        "included_in_blocks":
          [ "BLGWSWvPj21TWrdZeibnNU6q9oMxTk4Dq62p9CX8HxLCe3oHswu" ] },
      { "delegate": "tz1ZcTRk5uxD86EFEn1vvNffWWqJy7q5eVhc",
        "reception_time": "2022-01-20T14:24:41.872-00:00",
        "included_in_blocks":
          [ "BLGWSWvPj21TWrdZeibnNU6q9oMxTk4Dq62p9CX8HxLCe3oHswu" ] },
      { "delegate": "tz1cYufsxHXJcvANhvS55h3aY32a9BAFB494",
        "reception_time": "2022-01-20T14:24:41.957-00:00",
        "included_in_blocks":
          [ "BLGWSWvPj21TWrdZeibnNU6q9oMxTk4Dq62p9CX8HxLCe3oHswu" ] },
      { "delegate": "tz1TRqbYbUf2GyrjErf3hBzgBJPzW8y36qEs",
        "reception_time": "2022-01-20T14:24:42.163-00:00",
        "included_in_blocks":
          [ "BLGWSWvPj21TWrdZeibnNU6q9oMxTk4Dq62p9CX8HxLCe3oHswu" ] },
      { "delegate": "tz3NDpRj6WBrJPikcPVHRBEjWKxFw3c6eQPS",
        "reception_time": "2022-01-20T14:24:41.832-00:00",
        "included_in_blocks":
          [ "BLGWSWvPj21TWrdZeibnNU6q9oMxTk4Dq62p9CX8HxLCe3oHswu" ] },
      { "delegate": "tz3RB4aoyjov4KEVRbuhvQ1CKJgBJMWhaeB8",
        "reception_time": "2022-01-20T14:24:41.820-00:00",
        "included_in_blocks":
          [ "BLGWSWvPj21TWrdZeibnNU6q9oMxTk4Dq62p9CX8HxLCe3oHswu" ] },
      { "delegate": "tz3RDC3Jdn4j15J7bBHZd29EUee9gVB1CxD9",
        "reception_time": "2022-01-20T14:24:41.951-00:00",
        "included_in_blocks":
          [ "BLGWSWvPj21TWrdZeibnNU6q9oMxTk4Dq62p9CX8HxLCe3oHswu" ] },
      { "delegate": "tz3WMqdzXqRWXwyvj5Hp2H7QEepaUuS7vd9K",
        "reception_time": "2022-01-20T14:24:42.768-00:00",
        "included_in_blocks":
          [ "BLGWSWvPj21TWrdZeibnNU6q9oMxTk4Dq62p9CX8HxLCe3oHswu" ] },
      { "delegate": "tz3NExpXn9aPNZPorRE4SdjJ2RGrfbJgMAaV",
        "reception_time": "2022-01-20T14:24:42.497-00:00",
        "included_in_blocks":
          [ "BLGWSWvPj21TWrdZeibnNU6q9oMxTk4Dq62p9CX8HxLCe3oHswu" ] },
      { "delegate": "tz1T7duV5gZWSTq4YpBGbXNLTfznCLDrFxvs",
        "reception_time": "2022-01-20T14:24:41.428-00:00",
        "included_in_blocks":
          [ "BLGWSWvPj21TWrdZeibnNU6q9oMxTk4Dq62p9CX8HxLCe3oHswu" ] },
      { "delegate": "tz1dRKU4FQ9QRRQPdaH4zCR6gmCmXfcvcgtB",
        "reception_time": "2022-01-20T14:24:41.082-00:00",
        "included_in_blocks":
          [ "BLGWSWvPj21TWrdZeibnNU6q9oMxTk4Dq62p9CX8HxLCe3oHswu" ] },
      { "delegate": "tz2FCNBrERXtaTtNX6iimR1UJ5JSDxvdHM93",
        "reception_time": "2022-01-20T14:24:41.216-00:00",
        "included_in_blocks":
          [ "BLGWSWvPj21TWrdZeibnNU6q9oMxTk4Dq62p9CX8HxLCe3oHswu" ] },
      { "delegate": "tz3bvNMQ95vfAYtG8193ymshqjSvmxiCUuR5",
        "reception_time": "2022-01-20T14:24:40.922-00:00",
        "included_in_blocks":
          [ "BLGWSWvPj21TWrdZeibnNU6q9oMxTk4Dq62p9CX8HxLCe3oHswu" ] },
      { "delegate": "tz3VEZ4k6a4Wx42iyev6i2aVAptTRLEAivNN",
        "reception_time": "2022-01-20T14:24:41.867-00:00",
        "included_in_blocks":
          [ "BLGWSWvPj21TWrdZeibnNU6q9oMxTk4Dq62p9CX8HxLCe3oHswu" ] },
      { "delegate": "tz1iPHM2Xx2hwmzcr1EG1zzrV6oKafVoA91m",
        "reception_time": "2022-01-20T14:24:41.086-00:00",
        "included_in_blocks":
          [ "BLGWSWvPj21TWrdZeibnNU6q9oMxTk4Dq62p9CX8HxLCe3oHswu" ] },
      { "delegate": "tz1Tnjaxk6tbAeC2TmMApPh8UsrEVQvhHvx5",
        "reception_time": "2022-01-20T14:24:40.800-00:00",
        "included_in_blocks":
          [ "BLGWSWvPj21TWrdZeibnNU6q9oMxTk4Dq62p9CX8HxLCe3oHswu" ] },
      { "delegate": "tz3bTdwZinP8U1JmSweNzVKhmwafqWmFWRfk",
        "reception_time": "2022-01-20T14:24:40.794-00:00",
        "included_in_blocks":
          [ "BLGWSWvPj21TWrdZeibnNU6q9oMxTk4Dq62p9CX8HxLCe3oHswu" ] },
      { "delegate": "tz1WBfwbT66FC6BTLexc2BoyCCBM9LG7pnVW",
        "reception_time": "2022-01-20T14:24:40.775-00:00",
        "included_in_blocks":
          [ "BLGWSWvPj21TWrdZeibnNU6q9oMxTk4Dq62p9CX8HxLCe3oHswu" ] },
      { "delegate": "tz3UoffC7FG7zfpmvmjUmUeAaHvzdcUvAj6r",
        "reception_time": "2022-01-20T14:24:41.417-00:00",
        "included_in_blocks":
          [ "BLGWSWvPj21TWrdZeibnNU6q9oMxTk4Dq62p9CX8HxLCe3oHswu" ] },
      { "delegate": "tz3Zhs2dygr55yHyQyKjntAtY9bgfhLZ4Xj1",
        "reception_time": "2022-01-20T14:24:40.736-00:00",
        "included_in_blocks":
          [ "BLGWSWvPj21TWrdZeibnNU6q9oMxTk4Dq62p9CX8HxLCe3oHswu" ] },
      { "delegate": "tz1RCFbB9GpALpsZtu6J58sb74dm8qe6XBzv",
        "reception_time": "2022-01-20T14:24:40.736-00:00",
        "included_in_blocks":
          [ "BLGWSWvPj21TWrdZeibnNU6q9oMxTk4Dq62p9CX8HxLCe3oHswu" ] },
      { "delegate": "tz3S6BBeKgJGXxvLyZ1xzXzMPn11nnFtq5L9",
        "reception_time": "2022-01-20T14:24:40.590-00:00",
        "included_in_blocks":
          [ "BLGWSWvPj21TWrdZeibnNU6q9oMxTk4Dq62p9CX8HxLCe3oHswu" ] },
      { "delegate": "tz3QT9dHYKDqh563chVa6za8526ys1UKfRfL",
        "reception_time": "2022-01-20T14:24:40.583-00:00",
        "included_in_blocks":
          [ "BLGWSWvPj21TWrdZeibnNU6q9oMxTk4Dq62p9CX8HxLCe3oHswu" ] },
      { "delegate": "tz1gfArv665EUkSg2ojMBzcbfwuPxAvqPvjo",
        "reception_time": "2022-01-20T14:24:40.778-00:00",
        "included_in_blocks":
          [ "BLGWSWvPj21TWrdZeibnNU6q9oMxTk4Dq62p9CX8HxLCe3oHswu" ] },
      { "delegate": "tz1dNVDWPf3Q59SdJqnjdnu277iyvReiRS9M",
        "reception_time": "2022-01-20T14:24:40.786-00:00",
        "included_in_blocks":
          [ "BLGWSWvPj21TWrdZeibnNU6q9oMxTk4Dq62p9CX8HxLCe3oHswu" ] },
      { "delegate": "tz1MGTFJXpQmtxLi8QJ7AuVRgM2L2Qfn9w9i",
        "reception_time": "2022-01-20T14:24:40.743-00:00",
        "included_in_blocks":
          [ "BLGWSWvPj21TWrdZeibnNU6q9oMxTk4Dq62p9CX8HxLCe3oHswu" ] },
      { "delegate": "tz1UJvHTgpVzcKWhTazGxVcn5wsHru5Gietg",
        "reception_time": "2022-01-20T14:24:40.771-00:00",
        "included_in_blocks":
          [ "BLGWSWvPj21TWrdZeibnNU6q9oMxTk4Dq62p9CX8HxLCe3oHswu" ] },
      { "delegate": "tz3QSGPoRp3Kn7n3vY24eYeu3Peuqo45LQ4D",
        "reception_time": "2022-01-20T14:24:40.507-00:00",
        "included_in_blocks":
          [ "BLGWSWvPj21TWrdZeibnNU6q9oMxTk4Dq62p9CX8HxLCe3oHswu" ] },
      { "delegate": "tz1d9ek6HrScY6QRZ71NJdB85MNz8gKGBjrv",
        "reception_time": "2022-01-20T14:24:40.524-00:00",
        "included_in_blocks":
          [ "BLGWSWvPj21TWrdZeibnNU6q9oMxTk4Dq62p9CX8HxLCe3oHswu" ] },
      { "delegate": "tz1TEc75UKXv4W5cwi14Na3NtqFD51yKQi7h",
        "reception_time": "2022-01-20T14:24:40.775-00:00",
        "included_in_blocks":
          [ "BLGWSWvPj21TWrdZeibnNU6q9oMxTk4Dq62p9CX8HxLCe3oHswu" ] },
      { "delegate": "tz3gtoUxdudfBRcNY7iVdKPHCYYX6xdPpoRS",
        "reception_time": "2022-01-20T14:24:40.516-00:00",
        "included_in_blocks":
          [ "BLGWSWvPj21TWrdZeibnNU6q9oMxTk4Dq62p9CX8HxLCe3oHswu" ] },
      { "delegate": "tz3iJu5vrKZcsqRPs8yJ61UDoeEXZmtro4qh",
        "reception_time": "2022-01-20T14:24:40.712-00:00",
        "included_in_blocks":
          [ "BLGWSWvPj21TWrdZeibnNU6q9oMxTk4Dq62p9CX8HxLCe3oHswu" ] },
      { "delegate": "tz1NEKxGEHsFufk87CVZcrqWu8o22qh46GK6",
        "reception_time": "2022-01-20T14:24:40.802-00:00",
        "included_in_blocks":
          [ "BLGWSWvPj21TWrdZeibnNU6q9oMxTk4Dq62p9CX8HxLCe3oHswu" ] },
      { "delegate": "tz1S8MNvuFEUsWgjHvi3AxibRBf388NhT1q2",
        "reception_time": "2022-01-20T14:24:40.783-00:00",
        "included_in_blocks":
          [ "BLGWSWvPj21TWrdZeibnNU6q9oMxTk4Dq62p9CX8HxLCe3oHswu" ] },
      { "delegate": "tz3hw2kqXhLUvY65ca1eety2oQTpAvd34R9Q",
        "reception_time": "2022-01-20T14:24:40.728-00:00",
        "included_in_blocks":
          [ "BLGWSWvPj21TWrdZeibnNU6q9oMxTk4Dq62p9CX8HxLCe3oHswu" ] },
      { "delegate": "tz1MJx9vhaNRSimcuXPK2rW4fLccQnDAnVKJ",
        "reception_time": "2022-01-20T14:24:40.565-00:00",
        "included_in_blocks":
          [ "BLGWSWvPj21TWrdZeibnNU6q9oMxTk4Dq62p9CX8HxLCe3oHswu" ] },
      { "delegate": "tz1ei4WtWEMEJekSv8qDnu9PExG6Q8HgRGr3",
        "reception_time": "2022-01-20T14:24:40.563-00:00",
        "included_in_blocks":
          [ "BLGWSWvPj21TWrdZeibnNU6q9oMxTk4Dq62p9CX8HxLCe3oHswu" ] },
      { "delegate": "tz1MQJPGNMijnXnVoBENFz9rUhaPt3S7rWoz",
        "reception_time": "2022-01-20T14:24:40.783-00:00",
        "included_in_blocks":
          [ "BLGWSWvPj21TWrdZeibnNU6q9oMxTk4Dq62p9CX8HxLCe3oHswu" ] },
      { "delegate": "tz1Nf6tsK4G6bBqgSQERy4nUtkHNKUVdh7q1",
        "reception_time": "2022-01-20T14:24:40.743-00:00",
        "included_in_blocks":
          [ "BLGWSWvPj21TWrdZeibnNU6q9oMxTk4Dq62p9CX8HxLCe3oHswu" ] },
      { "delegate": "tz1WCd2jm4uSt4vntk4vSuUWoZQGhLcDuR9q",
        "reception_time": "2022-01-20T14:24:40.550-00:00",
        "included_in_blocks":
          [ "BLGWSWvPj21TWrdZeibnNU6q9oMxTk4Dq62p9CX8HxLCe3oHswu" ] },
      { "delegate": "tz3RKYFsLuQzKBtmYuLNas7uMu3AsYd4QdsA",
        "reception_time": "2022-01-20T14:24:40.720-00:00",
        "included_in_blocks":
          [ "BLGWSWvPj21TWrdZeibnNU6q9oMxTk4Dq62p9CX8HxLCe3oHswu" ] },
      { "delegate": "tz1d6Fx42mYgVFnHUW8T8A7WBfJ6nD9pVok8",
        "reception_time": "2022-01-20T14:24:40.496-00:00",
        "included_in_blocks":
          [ "BLGWSWvPj21TWrdZeibnNU6q9oMxTk4Dq62p9CX8HxLCe3oHswu" ] },
      { "delegate": "tz3NxTnke1acr8o3h5y9ytf5awQBGNJUKzVU",
        "reception_time": "2022-01-20T14:24:40.577-00:00",
        "included_in_blocks":
          [ "BLGWSWvPj21TWrdZeibnNU6q9oMxTk4Dq62p9CX8HxLCe3oHswu" ] },
      { "delegate": "tz3ZbP2pM3nwvXztbuMJwJnDvV5xdpU8UkkD",
        "reception_time": "2022-01-20T14:24:40.571-00:00",
        "included_in_blocks":
          [ "BLGWSWvPj21TWrdZeibnNU6q9oMxTk4Dq62p9CX8HxLCe3oHswu" ] } ] }