{ "blocks":
    [ { "hash": "BLvonRTCE2wUbUdPxcpnt7C1yJ3z67L9V97H3J4spzCuQr4HZvy",
        "delegate": "tz1gfArv665EUkSg2ojMBzcbfwuPxAvqPvjo",
        "reception_time": "2022-01-20T13:22:33.813-00:00",
        "timestamp": "2022-01-20T13:22:20Z" } ],
  "endorsements":
    [ { "delegate": "tz1TXzyaKUA8wsWefdSnyaYFnV2M3vCV7er9",
        "reception_time": "2022-01-20T13:22:37.082-00:00",
        "included_in_blocks":
          [ "BLCTfeStWb3TZLaCR1LoPzkSwVe22cibFEZMacb5178zegEjU8H" ] },
      { "delegate": "tz1XfAjZyaLdceHnZxbMYop7g7kWKPut4PR7",
        "reception_time": "2022-01-20T13:22:37.082-00:00",
        "included_in_blocks":
          [ "BLCTfeStWb3TZLaCR1LoPzkSwVe22cibFEZMacb5178zegEjU8H" ] },
      { "delegate": "tz1Scdr2HsZiQjc7bHMeBbmDRXYVvdhjJbBh",
        "reception_time": "2022-01-20T13:22:37.082-00:00",
        "included_in_blocks":
          [ "BLCTfeStWb3TZLaCR1LoPzkSwVe22cibFEZMacb5178zegEjU8H" ] },
      { "delegate": "tz1P2Po7YM526ughEsRbY4oR9zaUPDZjxFrb",
        "reception_time": "2022-01-20T13:22:37.081-00:00",
        "included_in_blocks":
          [ "BLCTfeStWb3TZLaCR1LoPzkSwVe22cibFEZMacb5178zegEjU8H" ] },
      { "delegate": "tz1VmiY38m3y95HqQLjMwqnMS7sdMfGomzKi",
        "reception_time": "2022-01-20T13:22:37.082-00:00",
        "included_in_blocks":
          [ "BLCTfeStWb3TZLaCR1LoPzkSwVe22cibFEZMacb5178zegEjU8H" ] },
      { "delegate": "tz1WCd2jm4uSt4vntk4vSuUWoZQGhLcDuR9q",
        "reception_time": "2022-01-20T13:22:37.082-00:00",
        "included_in_blocks":
          [ "BLCTfeStWb3TZLaCR1LoPzkSwVe22cibFEZMacb5178zegEjU8H" ] },
      { "delegate": "tz1TzaNn7wSQSP5gYPXCnNzBCpyMiidCq1PX",
        "reception_time": "2022-01-20T13:22:37.082-00:00",
        "included_in_blocks":
          [ "BLCTfeStWb3TZLaCR1LoPzkSwVe22cibFEZMacb5178zegEjU8H" ] },
      { "delegate": "tz1eEnQhbwf6trb8Q8mPb2RaPkNk2rN7BKi8",
        "reception_time": "2022-01-20T13:22:37.082-00:00",
        "included_in_blocks":
          [ "BLCTfeStWb3TZLaCR1LoPzkSwVe22cibFEZMacb5178zegEjU8H" ] },
      { "delegate": "tz1VQnqCCqX4K5sP3FNkVSNKTdCAMJDd3E1n",
        "reception_time": "2022-01-20T13:22:37.082-00:00",
        "included_in_blocks":
          [ "BLCTfeStWb3TZLaCR1LoPzkSwVe22cibFEZMacb5178zegEjU8H" ] },
      { "delegate": "tz1Ldzz6k1BHdhuKvAtMRX7h5kJSMHESMHLC",
        "reception_time": "2022-01-20T13:22:37.082-00:00",
        "included_in_blocks":
          [ "BLCTfeStWb3TZLaCR1LoPzkSwVe22cibFEZMacb5178zegEjU8H" ] },
      { "delegate": "tz1gUNyn3hmnEWqkusWPzxRaon1cs7ndWh7h",
        "reception_time": "2022-01-20T13:22:37.082-00:00",
        "included_in_blocks":
          [ "BLCTfeStWb3TZLaCR1LoPzkSwVe22cibFEZMacb5178zegEjU8H" ] },
      { "delegate": "tz1irJKkXS2DBWkU1NnmFQx1c1L7pbGg4yhk",
        "reception_time": "2022-01-20T13:22:37.082-00:00",
        "included_in_blocks":
          [ "BLCTfeStWb3TZLaCR1LoPzkSwVe22cibFEZMacb5178zegEjU8H" ] },
      { "delegate": "tz1STeamwbp68THcny9zk3LsbG3H36DMvbRK",
        "reception_time": "2022-01-20T13:22:37.082-00:00",
        "included_in_blocks":
          [ "BLCTfeStWb3TZLaCR1LoPzkSwVe22cibFEZMacb5178zegEjU8H" ] },
      { "delegate": "tz1ei4WtWEMEJekSv8qDnu9PExG6Q8HgRGr3",
        "reception_time": "2022-01-20T13:22:37.082-00:00",
        "included_in_blocks":
          [ "BLCTfeStWb3TZLaCR1LoPzkSwVe22cibFEZMacb5178zegEjU8H" ] },
      { "delegate": "tz1Kf25fX1VdmYGSEzwFy1wNmkbSEZ2V83sY",
        "reception_time": "2022-01-20T13:22:37.082-00:00",
        "included_in_blocks":
          [ "BLCTfeStWb3TZLaCR1LoPzkSwVe22cibFEZMacb5178zegEjU8H" ] },
      { "delegate": "tz1cZfFQpcYhwDp7y1njZXDsZqCrn2NqmVof",
        "reception_time": "2022-01-20T13:22:37.082-00:00",
        "included_in_blocks":
          [ "BLCTfeStWb3TZLaCR1LoPzkSwVe22cibFEZMacb5178zegEjU8H" ] },
      { "delegate": "tz1TEc75UKXv4W5cwi14Na3NtqFD51yKQi7h",
        "reception_time": "2022-01-20T13:22:37.639-00:00",
        "included_in_blocks":
          [ "BLCTfeStWb3TZLaCR1LoPzkSwVe22cibFEZMacb5178zegEjU8H" ] },
      { "delegate": "tz1V4qCyvPKZ5UeqdH14HN42rxvNPQfc9UZg",
        "reception_time": "2022-01-20T13:22:37.082-00:00",
        "included_in_blocks":
          [ "BLCTfeStWb3TZLaCR1LoPzkSwVe22cibFEZMacb5178zegEjU8H" ] },
      { "delegate": "tz3NxTnke1acr8o3h5y9ytf5awQBGNJUKzVU",
        "reception_time": "2022-01-20T13:22:37.082-00:00",
        "included_in_blocks":
          [ "BLCTfeStWb3TZLaCR1LoPzkSwVe22cibFEZMacb5178zegEjU8H" ] },
      { "delegate": "tz1RQhNh7iB9CZA7i3ifTWNwiGYVffponfbB",
        "reception_time": "2022-01-20T13:22:37.082-00:00",
        "included_in_blocks":
          [ "BLCTfeStWb3TZLaCR1LoPzkSwVe22cibFEZMacb5178zegEjU8H" ] },
      { "delegate": "tz3ZbP2pM3nwvXztbuMJwJnDvV5xdpU8UkkD",
        "reception_time": "2022-01-20T13:22:37.082-00:00",
        "included_in_blocks":
          [ "BLCTfeStWb3TZLaCR1LoPzkSwVe22cibFEZMacb5178zegEjU8H" ] },
      { "delegate": "tz1Nf6tsK4G6bBqgSQERy4nUtkHNKUVdh7q1",
        "reception_time": "2022-01-20T13:22:37.631-00:00",
        "included_in_blocks":
          [ "BLCTfeStWb3TZLaCR1LoPzkSwVe22cibFEZMacb5178zegEjU8H" ] },
      { "delegate": "tz1PWCDnz783NNGGQjEFFsHtrcK5yBW4E2rm",
        "reception_time": "2022-01-20T13:22:37.082-00:00",
        "included_in_blocks":
          [ "BLCTfeStWb3TZLaCR1LoPzkSwVe22cibFEZMacb5178zegEjU8H" ] },
      { "delegate": "tz1KfEsrtDaA1sX7vdM4qmEPWuSytuqCDp5j",
        "reception_time": "2022-01-20T13:22:37.631-00:00",
        "included_in_blocks":
          [ "BLCTfeStWb3TZLaCR1LoPzkSwVe22cibFEZMacb5178zegEjU8H" ] },
      { "delegate": "tz3QSGPoRp3Kn7n3vY24eYeu3Peuqo45LQ4D",
        "reception_time": "2022-01-20T13:22:37.631-00:00",
        "included_in_blocks":
          [ "BLCTfeStWb3TZLaCR1LoPzkSwVe22cibFEZMacb5178zegEjU8H" ] },
      { "delegate": "tz3gtoUxdudfBRcNY7iVdKPHCYYX6xdPpoRS",
        "reception_time": "2022-01-20T13:22:37.631-00:00",
        "included_in_blocks":
          [ "BLCTfeStWb3TZLaCR1LoPzkSwVe22cibFEZMacb5178zegEjU8H" ] },
      { "delegate": "tz3iJu5vrKZcsqRPs8yJ61UDoeEXZmtro4qh",
        "reception_time": "2022-01-20T13:22:37.639-00:00",
        "included_in_blocks":
          [ "BLCTfeStWb3TZLaCR1LoPzkSwVe22cibFEZMacb5178zegEjU8H" ] },
      { "delegate": "tz1MQMiZHV8q4tTwUMWmS5Y3kaP6J2136iXr",
        "reception_time": "2022-01-20T13:22:37.631-00:00",
        "included_in_blocks":
          [ "BLCTfeStWb3TZLaCR1LoPzkSwVe22cibFEZMacb5178zegEjU8H" ] },
      { "delegate": "tz3S6BBeKgJGXxvLyZ1xzXzMPn11nnFtq5L9",
        "reception_time": "2022-01-20T13:22:37.771-00:00",
        "included_in_blocks":
          [ "BLCTfeStWb3TZLaCR1LoPzkSwVe22cibFEZMacb5178zegEjU8H" ] },
      { "delegate": "tz3RKYFsLuQzKBtmYuLNas7uMu3AsYd4QdsA",
        "reception_time": "2022-01-20T13:22:37.631-00:00",
        "included_in_blocks":
          [ "BLCTfeStWb3TZLaCR1LoPzkSwVe22cibFEZMacb5178zegEjU8H" ] },
      { "delegate": "tz3Zhs2dygr55yHyQyKjntAtY9bgfhLZ4Xj1",
        "reception_time": "2022-01-20T13:22:37.631-00:00",
        "included_in_blocks":
          [ "BLCTfeStWb3TZLaCR1LoPzkSwVe22cibFEZMacb5178zegEjU8H" ] },
      { "delegate": "tz1NEKxGEHsFufk87CVZcrqWu8o22qh46GK6",
        "reception_time": "2022-01-20T13:22:37.646-00:00",
        "included_in_blocks":
          [ "BLCTfeStWb3TZLaCR1LoPzkSwVe22cibFEZMacb5178zegEjU8H" ] },
      { "delegate": "tz1dwu9aYb7CRNq4Y2zAjipdjFuSVKhHS8vA",
        "reception_time": "2022-01-20T13:22:37.821-00:00",
        "included_in_blocks":
          [ "BLCTfeStWb3TZLaCR1LoPzkSwVe22cibFEZMacb5178zegEjU8H" ] },
      { "delegate": "tz3hw2kqXhLUvY65ca1eety2oQTpAvd34R9Q",
        "reception_time": "2022-01-20T13:22:37.764-00:00",
        "included_in_blocks":
          [ "BLCTfeStWb3TZLaCR1LoPzkSwVe22cibFEZMacb5178zegEjU8H" ] },
      { "delegate": "tz1S8MNvuFEUsWgjHvi3AxibRBf388NhT1q2",
        "reception_time": "2022-01-20T13:22:37.631-00:00",
        "included_in_blocks":
          [ "BLCTfeStWb3TZLaCR1LoPzkSwVe22cibFEZMacb5178zegEjU8H" ] },
      { "delegate": "tz1T7duV5gZWSTq4YpBGbXNLTfznCLDrFxvs",
        "reception_time": "2022-01-20T13:22:37.823-00:00",
        "included_in_blocks":
          [ "BLCTfeStWb3TZLaCR1LoPzkSwVe22cibFEZMacb5178zegEjU8H" ] },
      { "delegate": "tz1TRqbYbUf2GyrjErf3hBzgBJPzW8y36qEs",
        "reception_time": "2022-01-20T13:22:37.862-00:00",
        "included_in_blocks":
          [ "BLCTfeStWb3TZLaCR1LoPzkSwVe22cibFEZMacb5178zegEjU8H" ] },
      { "delegate": "tz3QT9dHYKDqh563chVa6za8526ys1UKfRfL",
        "reception_time": "2022-01-20T13:22:37.854-00:00",
        "included_in_blocks":
          [ "BLCTfeStWb3TZLaCR1LoPzkSwVe22cibFEZMacb5178zegEjU8H" ] },
      { "delegate": "tz2FCNBrERXtaTtNX6iimR1UJ5JSDxvdHM93",
        "reception_time": "2022-01-20T13:22:37.857-00:00",
        "included_in_blocks":
          [ "BLCTfeStWb3TZLaCR1LoPzkSwVe22cibFEZMacb5178zegEjU8H" ] },
      { "delegate": "tz1cYufsxHXJcvANhvS55h3aY32a9BAFB494",
        "reception_time": "2022-01-20T13:22:37.880-00:00",
        "included_in_blocks":
          [ "BLCTfeStWb3TZLaCR1LoPzkSwVe22cibFEZMacb5178zegEjU8H" ] },
      { "delegate": "tz1RCFbB9GpALpsZtu6J58sb74dm8qe6XBzv",
        "reception_time": "2022-01-20T13:22:37.828-00:00",
        "included_in_blocks":
          [ "BLCTfeStWb3TZLaCR1LoPzkSwVe22cibFEZMacb5178zegEjU8H" ] },
      { "delegate": "tz1SYq214SCBy9naR6cvycQsYcUGpBqQAE8d",
        "reception_time": "2022-01-20T13:22:37.859-00:00",
        "included_in_blocks":
          [ "BLCTfeStWb3TZLaCR1LoPzkSwVe22cibFEZMacb5178zegEjU8H" ] },
      { "delegate": "tz1dRKU4FQ9QRRQPdaH4zCR6gmCmXfcvcgtB",
        "reception_time": "2022-01-20T13:22:37.845-00:00",
        "included_in_blocks":
          [ "BLCTfeStWb3TZLaCR1LoPzkSwVe22cibFEZMacb5178zegEjU8H" ] },
      { "delegate": "tz1Zdk8q7wNasmv7VFeQ6QFwcw5fP2c7StoF",
        "reception_time": "2022-01-20T13:22:37.876-00:00",
        "included_in_blocks":
          [ "BLCTfeStWb3TZLaCR1LoPzkSwVe22cibFEZMacb5178zegEjU8H" ] },
      { "delegate": "tz1WBfwbT66FC6BTLexc2BoyCCBM9LG7pnVW",
        "reception_time": "2022-01-20T13:22:37.866-00:00",
        "included_in_blocks":
          [ "BLCTfeStWb3TZLaCR1LoPzkSwVe22cibFEZMacb5178zegEjU8H" ] },
      { "delegate": "tz1h4GUAMweP7SNWzDgvMk3yRCAZyaP1MxZq",
        "reception_time": "2022-01-20T13:22:37.847-00:00",
        "included_in_blocks":
          [ "BLCTfeStWb3TZLaCR1LoPzkSwVe22cibFEZMacb5178zegEjU8H" ] },
      { "delegate": "tz1WctSwL49BZtdWAQ75NY6vr4xsAx6oKdah",
        "reception_time": "2022-01-20T13:22:38.270-00:00",
        "included_in_blocks":
          [ "BLCTfeStWb3TZLaCR1LoPzkSwVe22cibFEZMacb5178zegEjU8H" ] },
      { "delegate": "tz3bTdwZinP8U1JmSweNzVKhmwafqWmFWRfk",
        "reception_time": "2022-01-20T13:22:38.278-00:00",
        "included_in_blocks":
          [ "BLCTfeStWb3TZLaCR1LoPzkSwVe22cibFEZMacb5178zegEjU8H" ] },
      { "delegate": "tz1c8JTzmA6c7cm6ZmUwR7WES6akdiMa1kwt",
        "reception_time": "2022-01-20T13:22:37.826-00:00",
        "included_in_blocks":
          [ "BLCTfeStWb3TZLaCR1LoPzkSwVe22cibFEZMacb5178zegEjU8H" ] },
      { "delegate": "tz3QCNyySViKHmeSr45kzDxzchys7NiXCWoa",
        "reception_time": "2022-01-20T13:22:38.266-00:00",
        "included_in_blocks":
          [ "BLCTfeStWb3TZLaCR1LoPzkSwVe22cibFEZMacb5178zegEjU8H" ] },
      { "delegate": "tz1ZcTRk5uxD86EFEn1vvNffWWqJy7q5eVhc",
        "reception_time": "2022-01-20T13:22:38.272-00:00",
        "included_in_blocks":
          [ "BLCTfeStWb3TZLaCR1LoPzkSwVe22cibFEZMacb5178zegEjU8H" ] },
      { "delegate": "tz1YhNsiRRU8aHNGg7NK3uuP6UDAyacJernB",
        "reception_time": "2022-01-20T13:22:38.281-00:00",
        "included_in_blocks":
          [ "BLCTfeStWb3TZLaCR1LoPzkSwVe22cibFEZMacb5178zegEjU8H" ] },
      { "delegate": "tz3NDpRj6WBrJPikcPVHRBEjWKxFw3c6eQPS",
        "reception_time": "2022-01-20T13:22:38.588-00:00",
        "included_in_blocks":
          [ "BLCTfeStWb3TZLaCR1LoPzkSwVe22cibFEZMacb5178zegEjU8H" ] },
      { "delegate": "tz3UoffC7FG7zfpmvmjUmUeAaHvzdcUvAj6r",
        "reception_time": "2022-01-20T13:22:38.640-00:00",
        "included_in_blocks":
          [ "BLCTfeStWb3TZLaCR1LoPzkSwVe22cibFEZMacb5178zegEjU8H" ] },
      { "delegate": "tz3WMqdzXqRWXwyvj5Hp2H7QEepaUuS7vd9K",
        "reception_time": "2022-01-20T13:22:38.481-00:00",
        "included_in_blocks":
          [ "BLCTfeStWb3TZLaCR1LoPzkSwVe22cibFEZMacb5178zegEjU8H" ] },
      { "delegate": "tz3VEZ4k6a4Wx42iyev6i2aVAptTRLEAivNN",
        "reception_time": "2022-01-20T13:22:38.672-00:00",
        "included_in_blocks":
          [ "BLCTfeStWb3TZLaCR1LoPzkSwVe22cibFEZMacb5178zegEjU8H" ] },
      { "delegate": "tz1LmaFsWRkjr7QMCx5PtV6xTUz3AmEpKQiF",
        "reception_time": "2022-01-20T13:22:38.604-00:00",
        "included_in_blocks":
          [ "BLCTfeStWb3TZLaCR1LoPzkSwVe22cibFEZMacb5178zegEjU8H" ] },
      { "delegate": "tz1eVaNx3gCmG1EsLjijkmgAxdLYVf6Bf5Sq",
        "reception_time": "2022-01-20T13:22:38.626-00:00",
        "included_in_blocks":
          [ "BLCTfeStWb3TZLaCR1LoPzkSwVe22cibFEZMacb5178zegEjU8H" ] },
      { "delegate": "tz3RB4aoyjov4KEVRbuhvQ1CKJgBJMWhaeB8",
        "reception_time": "2022-01-20T13:22:38.698-00:00",
        "included_in_blocks":
          [ "BLCTfeStWb3TZLaCR1LoPzkSwVe22cibFEZMacb5178zegEjU8H" ] },
      { "delegate": "tz3bvNMQ95vfAYtG8193ymshqjSvmxiCUuR5",
        "reception_time": "2022-01-20T13:22:38.764-00:00",
        "included_in_blocks":
          [ "BLCTfeStWb3TZLaCR1LoPzkSwVe22cibFEZMacb5178zegEjU8H" ] },
      { "delegate": "tz3RDC3Jdn4j15J7bBHZd29EUee9gVB1CxD9",
        "reception_time": "2022-01-20T13:22:39.024-00:00",
        "included_in_blocks":
          [ "BLCTfeStWb3TZLaCR1LoPzkSwVe22cibFEZMacb5178zegEjU8H" ] },
      { "delegate": "tz1b9MYGrbN1NAxphLEsPPNT9JC7aNFc5nA4",
        "reception_time": "2022-01-20T13:22:38.995-00:00",
        "included_in_blocks":
          [ "BLCTfeStWb3TZLaCR1LoPzkSwVe22cibFEZMacb5178zegEjU8H" ] },
      { "delegate": "tz3NExpXn9aPNZPorRE4SdjJ2RGrfbJgMAaV",
        "reception_time": "2022-01-20T13:22:39.582-00:00",
        "included_in_blocks":
          [ "BLCTfeStWb3TZLaCR1LoPzkSwVe22cibFEZMacb5178zegEjU8H" ] },
      { "delegate": "tz1SUgyRB8T5jXgXAwS33pgRHAKrafyg87Yc",
        "reception_time": "2022-01-20T13:22:39.968-00:00",
        "included_in_blocks":
          [ "BLCTfeStWb3TZLaCR1LoPzkSwVe22cibFEZMacb5178zegEjU8H" ] },
      { "delegate": "tz1bTpviNnyx2PXsNmGpCQTMQsGoYordkUoA",
        "reception_time": "2022-01-20T13:22:40.018-00:00",
        "included_in_blocks":
          [ "BLCTfeStWb3TZLaCR1LoPzkSwVe22cibFEZMacb5178zegEjU8H" ] },
      { "delegate": "tz1NoYvKjXTzTk54VpLxBfouJ33J8jwKPPvw",
        "reception_time": "2022-01-20T13:22:40.890-00:00",
        "included_in_blocks":
          [ "BLCTfeStWb3TZLaCR1LoPzkSwVe22cibFEZMacb5178zegEjU8H" ] },
      { "delegate": "tz3e7LbZvUtoXhpUD1yb6wuFodZpfYRb9nWJ",
        "reception_time": "2022-01-20T13:22:41.477-00:00",
        "included_in_blocks":
          [ "BLCTfeStWb3TZLaCR1LoPzkSwVe22cibFEZMacb5178zegEjU8H" ] },
      { "delegate": "tz1g8vkmcde6sWKaG2NN9WKzCkDM6Rziq194",
        "reception_time": "2022-01-20T13:22:41.623-00:00",
        "included_in_blocks":
          [ "BLCTfeStWb3TZLaCR1LoPzkSwVe22cibFEZMacb5178zegEjU8H" ] },
      { "delegate": "tz1aRoaRhSpRYvFdyvgWLL6TGyRoGF51wDjM",
        "reception_time": "2022-01-20T13:22:42.211-00:00",
        "included_in_blocks":
          [ "BLCTfeStWb3TZLaCR1LoPzkSwVe22cibFEZMacb5178zegEjU8H" ] },
      { "delegate": "tz1bf816tUrSLYsWkUrsDFH9kkbpg3oXjriR",
        "reception_time": "2022-01-20T13:22:43.367-00:00",
        "included_in_blocks":
          [ "BLCTfeStWb3TZLaCR1LoPzkSwVe22cibFEZMacb5178zegEjU8H" ] },
      { "delegate": "tz2BzJTyoQp8fNbfhWD4YQgH9JJHDgSGzpdG",
        "reception_time": "2022-01-20T13:22:43.871-00:00",
        "included_in_blocks":
          [ "BLCTfeStWb3TZLaCR1LoPzkSwVe22cibFEZMacb5178zegEjU8H" ] },
      { "delegate": "tz1PFeoTuFen8jAMRHajBySNyCwLmY5RqF9M",
        "reception_time": "2022-01-20T13:22:47.162-00:00",
        "included_in_blocks":
          [ "BLCTfeStWb3TZLaCR1LoPzkSwVe22cibFEZMacb5178zegEjU8H" ] },
      { "delegate": "tz1dfg9PkvRLf7hKMmGdGRhXWCbd8QgbwBF7",
        "reception_time": "2022-01-20T13:22:47.629-00:00",
        "included_in_blocks":
          [ "BLCTfeStWb3TZLaCR1LoPzkSwVe22cibFEZMacb5178zegEjU8H" ] },
      { "delegate": "tz1gfArv665EUkSg2ojMBzcbfwuPxAvqPvjo",
        "reception_time": "2022-01-20T13:22:32.193-00:00",
        "errors":
          [ { "kind": "temporary",
              "id": "proto.011-PtHangz2.prefilter.outdated_endorsement" } ],
        "included_in_blocks":
          [ "BLCTfeStWb3TZLaCR1LoPzkSwVe22cibFEZMacb5178zegEjU8H" ] },
      { "delegate": "tz1S8e9GgdZG78XJRB3NqabfWeM37GnhZMWQ",
        "reception_time": "2022-01-20T13:22:33.310-00:00",
        "errors":
          [ { "kind": "temporary",
              "id": "proto.011-PtHangz2.prefilter.outdated_endorsement" } ],
        "included_in_blocks":
          [ "BLCTfeStWb3TZLaCR1LoPzkSwVe22cibFEZMacb5178zegEjU8H" ] },
      { "delegate": "tz1RjoHc98dBoqaH2jawF62XNKh7YsHwbkEv" },
      { "delegate": "tz1UXkfg971HYuvsZG5x66fnMjrGxHKeZWPU" },
      { "delegate": "tz1awXW7wuXy21c66vBudMXQVAPgRnqqwgTH" },
      { "delegate": "tz1dbfppLAAxXZNtf2SDps7rch3qfUznKSoK" },
      { "delegate": "tz1NpWrAyDL9k2Lmnyxcgr9xuJakbBxdq7FB",
        "reception_time": "2022-01-20T13:22:52.858-00:00" } ] }