{ "blocks":
    [ { "hash": "BM2134nDaGtLmhP29TpqyP6SFYwHHGbWAGDxUt14YDg6Mpk4UKw",
        "delegate": "tz3iJu5vrKZcsqRPs8yJ61UDoeEXZmtro4qh",
        "reception_time": "2022-01-20T19:45:46.433-00:00",
        "timestamp": "2022-01-20T19:45:40Z" } ],
  "endorsements":
    [ { "delegate": "tz1STeamwbp68THcny9zk3LsbG3H36DMvbRK",
        "reception_time": "2022-01-20T19:45:46.379-00:00",
        "errors":
          [ { "kind": "temporary",
              "id": "proto.011-PtHangz2.prefilter.outdated_endorsement" } ],
        "included_in_blocks":
          [ "BM7Cw2EK43j6EMwN2ug2c6NmjgJUqNwebVetqMVm27c7Bp1Fdha" ] },
      { "delegate": "tz1eEnQhbwf6trb8Q8mPb2RaPkNk2rN7BKi8",
        "reception_time": "2022-01-20T19:45:46.352-00:00",
        "errors":
          [ { "kind": "temporary",
              "id": "proto.011-PtHangz2.prefilter.outdated_endorsement" } ],
        "included_in_blocks":
          [ "BM7Cw2EK43j6EMwN2ug2c6NmjgJUqNwebVetqMVm27c7Bp1Fdha" ] },
      { "delegate": "tz1S8e9GgdZG78XJRB3NqabfWeM37GnhZMWQ",
        "reception_time": "2022-01-20T19:45:46.065-00:00",
        "errors":
          [ { "kind": "temporary",
              "id": "proto.011-PtHangz2.prefilter.outdated_endorsement" } ],
        "included_in_blocks":
          [ "BM7Cw2EK43j6EMwN2ug2c6NmjgJUqNwebVetqMVm27c7Bp1Fdha" ] },
      { "delegate": "tz1RjoHc98dBoqaH2jawF62XNKh7YsHwbkEv" },
      { "delegate": "tz1WnyXakHZKotpQHxevTnLmomz5rTwdiccy" },
      { "delegate": "tz3Zhs2dygr55yHyQyKjntAtY9bgfhLZ4Xj1",
        "reception_time": "2022-01-20T19:45:47.283-00:00",
        "included_in_blocks":
          [ "BM7Cw2EK43j6EMwN2ug2c6NmjgJUqNwebVetqMVm27c7Bp1Fdha" ] },
      { "delegate": "tz1TRspM5SeZpaQUhzByXbEvqKF1vnCM2YTK",
        "reception_time": "2022-01-20T19:45:47.283-00:00",
        "included_in_blocks":
          [ "BM7Cw2EK43j6EMwN2ug2c6NmjgJUqNwebVetqMVm27c7Bp1Fdha" ] },
      { "delegate": "tz1RV1MBbZMR68tacosb7Mwj6LkbPSUS1er1",
        "reception_time": "2022-01-20T19:45:47.289-00:00",
        "included_in_blocks":
          [ "BM7Cw2EK43j6EMwN2ug2c6NmjgJUqNwebVetqMVm27c7Bp1Fdha" ] },
      { "delegate": "tz3iJu5vrKZcsqRPs8yJ61UDoeEXZmtro4qh",
        "reception_time": "2022-01-20T19:45:47.298-00:00",
        "included_in_blocks":
          [ "BM7Cw2EK43j6EMwN2ug2c6NmjgJUqNwebVetqMVm27c7Bp1Fdha" ] },
      { "delegate": "tz1irJKkXS2DBWkU1NnmFQx1c1L7pbGg4yhk",
        "reception_time": "2022-01-20T19:45:47.300-00:00",
        "included_in_blocks":
          [ "BM7Cw2EK43j6EMwN2ug2c6NmjgJUqNwebVetqMVm27c7Bp1Fdha" ] },
      { "delegate": "tz3QCNyySViKHmeSr45kzDxzchys7NiXCWoa",
        "reception_time": "2022-01-20T19:45:47.307-00:00",
        "included_in_blocks":
          [ "BM7Cw2EK43j6EMwN2ug2c6NmjgJUqNwebVetqMVm27c7Bp1Fdha" ] },
      { "delegate": "tz1Ldzz6k1BHdhuKvAtMRX7h5kJSMHESMHLC",
        "reception_time": "2022-01-20T19:45:47.308-00:00",
        "included_in_blocks":
          [ "BM7Cw2EK43j6EMwN2ug2c6NmjgJUqNwebVetqMVm27c7Bp1Fdha" ] },
      { "delegate": "tz1Kt4P8BCaP93AEV4eA7gmpRryWt5hznjCP",
        "reception_time": "2022-01-20T19:45:47.334-00:00",
        "included_in_blocks":
          [ "BM7Cw2EK43j6EMwN2ug2c6NmjgJUqNwebVetqMVm27c7Bp1Fdha" ] },
      { "delegate": "tz1VQnqCCqX4K5sP3FNkVSNKTdCAMJDd3E1n",
        "reception_time": "2022-01-20T19:45:47.346-00:00",
        "included_in_blocks":
          [ "BM7Cw2EK43j6EMwN2ug2c6NmjgJUqNwebVetqMVm27c7Bp1Fdha" ] },
      { "delegate": "tz1gUNyn3hmnEWqkusWPzxRaon1cs7ndWh7h",
        "reception_time": "2022-01-20T19:45:47.365-00:00",
        "included_in_blocks":
          [ "BM7Cw2EK43j6EMwN2ug2c6NmjgJUqNwebVetqMVm27c7Bp1Fdha" ] },
      { "delegate": "tz3QSGPoRp3Kn7n3vY24eYeu3Peuqo45LQ4D",
        "reception_time": "2022-01-20T19:45:47.472-00:00",
        "included_in_blocks":
          [ "BM7Cw2EK43j6EMwN2ug2c6NmjgJUqNwebVetqMVm27c7Bp1Fdha" ] },
      { "delegate": "tz3ZbP2pM3nwvXztbuMJwJnDvV5xdpU8UkkD",
        "reception_time": "2022-01-20T19:45:47.537-00:00",
        "included_in_blocks":
          [ "BM7Cw2EK43j6EMwN2ug2c6NmjgJUqNwebVetqMVm27c7Bp1Fdha" ] },
      { "delegate": "tz1MQMiZHV8q4tTwUMWmS5Y3kaP6J2136iXr",
        "reception_time": "2022-01-20T19:45:47.563-00:00",
        "included_in_blocks":
          [ "BM7Cw2EK43j6EMwN2ug2c6NmjgJUqNwebVetqMVm27c7Bp1Fdha" ] },
      { "delegate": "tz1WCd2jm4uSt4vntk4vSuUWoZQGhLcDuR9q",
        "reception_time": "2022-01-20T19:45:47.571-00:00",
        "included_in_blocks":
          [ "BM7Cw2EK43j6EMwN2ug2c6NmjgJUqNwebVetqMVm27c7Bp1Fdha" ] },
      { "delegate": "tz3gtoUxdudfBRcNY7iVdKPHCYYX6xdPpoRS",
        "reception_time": "2022-01-20T19:45:47.600-00:00",
        "included_in_blocks":
          [ "BM7Cw2EK43j6EMwN2ug2c6NmjgJUqNwebVetqMVm27c7Bp1Fdha" ] },
      { "delegate": "tz3NxTnke1acr8o3h5y9ytf5awQBGNJUKzVU",
        "reception_time": "2022-01-20T19:45:47.615-00:00",
        "included_in_blocks":
          [ "BM7Cw2EK43j6EMwN2ug2c6NmjgJUqNwebVetqMVm27c7Bp1Fdha" ] },
      { "delegate": "tz3RKYFsLuQzKBtmYuLNas7uMu3AsYd4QdsA",
        "reception_time": "2022-01-20T19:45:47.672-00:00",
        "included_in_blocks":
          [ "BM7Cw2EK43j6EMwN2ug2c6NmjgJUqNwebVetqMVm27c7Bp1Fdha" ] },
      { "delegate": "tz3e7LbZvUtoXhpUD1yb6wuFodZpfYRb9nWJ",
        "reception_time": "2022-01-20T19:45:47.683-00:00",
        "included_in_blocks":
          [ "BM7Cw2EK43j6EMwN2ug2c6NmjgJUqNwebVetqMVm27c7Bp1Fdha" ] },
      { "delegate": "tz3hw2kqXhLUvY65ca1eety2oQTpAvd34R9Q",
        "reception_time": "2022-01-20T19:45:47.694-00:00",
        "included_in_blocks":
          [ "BM7Cw2EK43j6EMwN2ug2c6NmjgJUqNwebVetqMVm27c7Bp1Fdha" ] },
      { "delegate": "tz3S6BBeKgJGXxvLyZ1xzXzMPn11nnFtq5L9",
        "reception_time": "2022-01-20T19:45:47.709-00:00",
        "included_in_blocks":
          [ "BM7Cw2EK43j6EMwN2ug2c6NmjgJUqNwebVetqMVm27c7Bp1Fdha" ] },
      { "delegate": "tz3QT9dHYKDqh563chVa6za8526ys1UKfRfL",
        "reception_time": "2022-01-20T19:45:47.757-00:00",
        "included_in_blocks":
          [ "BM7Cw2EK43j6EMwN2ug2c6NmjgJUqNwebVetqMVm27c7Bp1Fdha" ] },
      { "delegate": "tz1VmiY38m3y95HqQLjMwqnMS7sdMfGomzKi",
        "reception_time": "2022-01-20T19:45:47.817-00:00",
        "included_in_blocks":
          [ "BM7Cw2EK43j6EMwN2ug2c6NmjgJUqNwebVetqMVm27c7Bp1Fdha" ] },
      { "delegate": "tz1cSj7fTex3JPd1p1LN1fwek6AV1kH93Wwc",
        "reception_time": "2022-01-20T19:45:47.955-00:00",
        "included_in_blocks":
          [ "BM7Cw2EK43j6EMwN2ug2c6NmjgJUqNwebVetqMVm27c7Bp1Fdha" ] },
      { "delegate": "tz1LnWa4AiFCjMezTgSNa65QFoo7DQGEWgEU",
        "reception_time": "2022-01-20T19:45:47.965-00:00",
        "included_in_blocks":
          [ "BM7Cw2EK43j6EMwN2ug2c6NmjgJUqNwebVetqMVm27c7Bp1Fdha" ] },
      { "delegate": "tz1P2Po7YM526ughEsRbY4oR9zaUPDZjxFrb",
        "reception_time": "2022-01-20T19:45:48.063-00:00",
        "included_in_blocks":
          [ "BM7Cw2EK43j6EMwN2ug2c6NmjgJUqNwebVetqMVm27c7Bp1Fdha" ] },
      { "delegate": "tz3bTdwZinP8U1JmSweNzVKhmwafqWmFWRfk",
        "reception_time": "2022-01-20T19:45:48.136-00:00",
        "included_in_blocks":
          [ "BM7Cw2EK43j6EMwN2ug2c6NmjgJUqNwebVetqMVm27c7Bp1Fdha" ] },
      { "delegate": "tz1gfArv665EUkSg2ojMBzcbfwuPxAvqPvjo",
        "reception_time": "2022-01-20T19:45:48.152-00:00",
        "included_in_blocks":
          [ "BM7Cw2EK43j6EMwN2ug2c6NmjgJUqNwebVetqMVm27c7Bp1Fdha" ] },
      { "delegate": "tz1bZ8vsMAXmaWEV7FRnyhcuUs2fYMaQ6Hkk",
        "reception_time": "2022-01-20T19:45:48.173-00:00",
        "included_in_blocks":
          [ "BM7Cw2EK43j6EMwN2ug2c6NmjgJUqNwebVetqMVm27c7Bp1Fdha" ] },
      { "delegate": "tz1NortRftucvAkD1J58L32EhSVrQEWJCEnB",
        "reception_time": "2022-01-20T19:45:48.189-00:00",
        "included_in_blocks":
          [ "BM7Cw2EK43j6EMwN2ug2c6NmjgJUqNwebVetqMVm27c7Bp1Fdha" ] },
      { "delegate": "tz1ei4WtWEMEJekSv8qDnu9PExG6Q8HgRGr3",
        "reception_time": "2022-01-20T19:45:48.312-00:00",
        "included_in_blocks":
          [ "BM7Cw2EK43j6EMwN2ug2c6NmjgJUqNwebVetqMVm27c7Bp1Fdha" ] },
      { "delegate": "tz1dNVDWPf3Q59SdJqnjdnu277iyvReiRS9M",
        "reception_time": "2022-01-20T19:45:48.371-00:00",
        "included_in_blocks":
          [ "BM7Cw2EK43j6EMwN2ug2c6NmjgJUqNwebVetqMVm27c7Bp1Fdha" ] },
      { "delegate": "tz1WBfwbT66FC6BTLexc2BoyCCBM9LG7pnVW",
        "reception_time": "2022-01-20T19:45:48.376-00:00",
        "included_in_blocks":
          [ "BM7Cw2EK43j6EMwN2ug2c6NmjgJUqNwebVetqMVm27c7Bp1Fdha" ] },
      { "delegate": "tz1fwnfJNgiDACshK9avfRfFbMaXrs3ghoJa",
        "reception_time": "2022-01-20T19:45:48.382-00:00",
        "included_in_blocks":
          [ "BM7Cw2EK43j6EMwN2ug2c6NmjgJUqNwebVetqMVm27c7Bp1Fdha" ] },
      { "delegate": "tz3RB4aoyjov4KEVRbuhvQ1CKJgBJMWhaeB8",
        "reception_time": "2022-01-20T19:45:48.400-00:00",
        "included_in_blocks":
          [ "BM7Cw2EK43j6EMwN2ug2c6NmjgJUqNwebVetqMVm27c7Bp1Fdha" ] },
      { "delegate": "tz1LmaFsWRkjr7QMCx5PtV6xTUz3AmEpKQiF",
        "reception_time": "2022-01-20T19:45:48.428-00:00",
        "included_in_blocks":
          [ "BM7Cw2EK43j6EMwN2ug2c6NmjgJUqNwebVetqMVm27c7Bp1Fdha" ] },
      { "delegate": "tz1MQJPGNMijnXnVoBENFz9rUhaPt3S7rWoz",
        "reception_time": "2022-01-20T19:45:48.531-00:00",
        "included_in_blocks":
          [ "BM7Cw2EK43j6EMwN2ug2c6NmjgJUqNwebVetqMVm27c7Bp1Fdha" ] },
      { "delegate": "tz1S8MNvuFEUsWgjHvi3AxibRBf388NhT1q2",
        "reception_time": "2022-01-20T19:45:48.551-00:00",
        "included_in_blocks":
          [ "BM7Cw2EK43j6EMwN2ug2c6NmjgJUqNwebVetqMVm27c7Bp1Fdha" ] },
      { "delegate": "tz1RCFbB9GpALpsZtu6J58sb74dm8qe6XBzv",
        "reception_time": "2022-01-20T19:45:48.704-00:00",
        "included_in_blocks":
          [ "BM7Cw2EK43j6EMwN2ug2c6NmjgJUqNwebVetqMVm27c7Bp1Fdha" ] },
      { "delegate": "tz1Nf6tsK4G6bBqgSQERy4nUtkHNKUVdh7q1",
        "reception_time": "2022-01-20T19:45:48.797-00:00",
        "included_in_blocks":
          [ "BM7Cw2EK43j6EMwN2ug2c6NmjgJUqNwebVetqMVm27c7Bp1Fdha" ] },
      { "delegate": "tz3VEZ4k6a4Wx42iyev6i2aVAptTRLEAivNN",
        "reception_time": "2022-01-20T19:45:49.113-00:00",
        "included_in_blocks":
          [ "BM7Cw2EK43j6EMwN2ug2c6NmjgJUqNwebVetqMVm27c7Bp1Fdha" ] },
      { "delegate": "tz3WMqdzXqRWXwyvj5Hp2H7QEepaUuS7vd9K",
        "reception_time": "2022-01-20T19:45:49.134-00:00",
        "included_in_blocks":
          [ "BM7Cw2EK43j6EMwN2ug2c6NmjgJUqNwebVetqMVm27c7Bp1Fdha" ] },
      { "delegate": "tz1abmz7jiCV2GH2u81LRrGgAFFgvQgiDiaf",
        "reception_time": "2022-01-20T19:45:49.149-00:00",
        "included_in_blocks":
          [ "BM7Cw2EK43j6EMwN2ug2c6NmjgJUqNwebVetqMVm27c7Bp1Fdha" ] },
      { "delegate": "tz1PeZx7FXy7QRuMREGXGxeipb24RsMMzUNe",
        "reception_time": "2022-01-20T19:45:49.165-00:00",
        "included_in_blocks":
          [ "BM7Cw2EK43j6EMwN2ug2c6NmjgJUqNwebVetqMVm27c7Bp1Fdha" ] },
      { "delegate": "tz1NEKxGEHsFufk87CVZcrqWu8o22qh46GK6",
        "reception_time": "2022-01-20T19:45:49.234-00:00",
        "included_in_blocks":
          [ "BM7Cw2EK43j6EMwN2ug2c6NmjgJUqNwebVetqMVm27c7Bp1Fdha" ] },
      { "delegate": "tz1KfEsrtDaA1sX7vdM4qmEPWuSytuqCDp5j",
        "reception_time": "2022-01-20T19:45:49.252-00:00",
        "included_in_blocks":
          [ "BM7Cw2EK43j6EMwN2ug2c6NmjgJUqNwebVetqMVm27c7Bp1Fdha" ] },
      { "delegate": "tz3RDC3Jdn4j15J7bBHZd29EUee9gVB1CxD9",
        "reception_time": "2022-01-20T19:45:49.372-00:00",
        "included_in_blocks":
          [ "BM7Cw2EK43j6EMwN2ug2c6NmjgJUqNwebVetqMVm27c7Bp1Fdha" ] },
      { "delegate": "tz1aRoaRhSpRYvFdyvgWLL6TGyRoGF51wDjM",
        "reception_time": "2022-01-20T19:45:49.485-00:00",
        "included_in_blocks":
          [ "BM7Cw2EK43j6EMwN2ug2c6NmjgJUqNwebVetqMVm27c7Bp1Fdha" ] },
      { "delegate": "tz3bvNMQ95vfAYtG8193ymshqjSvmxiCUuR5",
        "reception_time": "2022-01-20T19:45:49.578-00:00",
        "included_in_blocks":
          [ "BM7Cw2EK43j6EMwN2ug2c6NmjgJUqNwebVetqMVm27c7Bp1Fdha" ] },
      { "delegate": "tz2FCNBrERXtaTtNX6iimR1UJ5JSDxvdHM93",
        "reception_time": "2022-01-20T19:45:49.635-00:00",
        "included_in_blocks":
          [ "BM7Cw2EK43j6EMwN2ug2c6NmjgJUqNwebVetqMVm27c7Bp1Fdha" ] },
      { "delegate": "tz1dRKU4FQ9QRRQPdaH4zCR6gmCmXfcvcgtB",
        "reception_time": "2022-01-20T19:45:49.640-00:00",
        "included_in_blocks":
          [ "BM7Cw2EK43j6EMwN2ug2c6NmjgJUqNwebVetqMVm27c7Bp1Fdha" ] },
      { "delegate": "tz1g8vkmcde6sWKaG2NN9WKzCkDM6Rziq194",
        "reception_time": "2022-01-20T19:45:49.669-00:00",
        "included_in_blocks":
          [ "BM7Cw2EK43j6EMwN2ug2c6NmjgJUqNwebVetqMVm27c7Bp1Fdha" ] },
      { "delegate": "tz3NDpRj6WBrJPikcPVHRBEjWKxFw3c6eQPS",
        "reception_time": "2022-01-20T19:45:49.747-00:00",
        "included_in_blocks":
          [ "BM7Cw2EK43j6EMwN2ug2c6NmjgJUqNwebVetqMVm27c7Bp1Fdha" ] },
      { "delegate": "tz3gLTu4Yxj8tPAcriQVUdxv6BY9QyvzU1az",
        "reception_time": "2022-01-20T19:45:49.797-00:00",
        "included_in_blocks":
          [ "BM7Cw2EK43j6EMwN2ug2c6NmjgJUqNwebVetqMVm27c7Bp1Fdha" ] },
      { "delegate": "tz1eLbDXYceRsPZoPmaJXZgQ6pzgnTQvZtpo",
        "reception_time": "2022-01-20T19:45:49.995-00:00",
        "included_in_blocks":
          [ "BM7Cw2EK43j6EMwN2ug2c6NmjgJUqNwebVetqMVm27c7Bp1Fdha" ] },
      { "delegate": "tz1aehDcppdSz7Af2PtXvNQtqpeMfvFFYFHf",
        "reception_time": "2022-01-20T19:45:50.048-00:00",
        "included_in_blocks":
          [ "BM7Cw2EK43j6EMwN2ug2c6NmjgJUqNwebVetqMVm27c7Bp1Fdha" ] },
      { "delegate": "tz3NExpXn9aPNZPorRE4SdjJ2RGrfbJgMAaV",
        "reception_time": "2022-01-20T19:45:50.306-00:00",
        "included_in_blocks":
          [ "BM7Cw2EK43j6EMwN2ug2c6NmjgJUqNwebVetqMVm27c7Bp1Fdha" ] },
      { "delegate": "tz3UoffC7FG7zfpmvmjUmUeAaHvzdcUvAj6r",
        "reception_time": "2022-01-20T19:45:50.363-00:00",
        "included_in_blocks":
          [ "BM7Cw2EK43j6EMwN2ug2c6NmjgJUqNwebVetqMVm27c7Bp1Fdha" ] },
      { "delegate": "tz1Xsrfv6hn86fp88YfRs6xcKwt2nTqxVZYM",
        "reception_time": "2022-01-20T19:45:50.519-00:00",
        "included_in_blocks":
          [ "BM7Cw2EK43j6EMwN2ug2c6NmjgJUqNwebVetqMVm27c7Bp1Fdha" ] },
      { "delegate": "tz1T7duV5gZWSTq4YpBGbXNLTfznCLDrFxvs",
        "reception_time": "2022-01-20T19:45:50.606-00:00",
        "included_in_blocks":
          [ "BM7Cw2EK43j6EMwN2ug2c6NmjgJUqNwebVetqMVm27c7Bp1Fdha" ] },
      { "delegate": "tz1QccGQsmt7WMnbVX9inJQgEuQGeMXddfjp",
        "reception_time": "2022-01-20T19:45:51.307-00:00",
        "included_in_blocks":
          [ "BM7Cw2EK43j6EMwN2ug2c6NmjgJUqNwebVetqMVm27c7Bp1Fdha" ] },
      { "delegate": "tz1cM8Xc7ZP1TrjkTeKq4PeRhtbnwXSBR6Sw",
        "reception_time": "2022-01-20T19:45:51.663-00:00",
        "included_in_blocks":
          [ "BM7Cw2EK43j6EMwN2ug2c6NmjgJUqNwebVetqMVm27c7Bp1Fdha" ] },
      { "delegate": "tz1NpWrAyDL9k2Lmnyxcgr9xuJakbBxdq7FB",
        "reception_time": "2022-01-20T19:45:56.336-00:00",
        "included_in_blocks":
          [ "BM7Cw2EK43j6EMwN2ug2c6NmjgJUqNwebVetqMVm27c7Bp1Fdha" ] } ] }