{ "blocks":
    [ { "hash": "BLfM5Gc8huYBM7xLPyn8JazC3Zre2KAjjRNHJH3GfEpNdcq4SNz",
        "delegate": "tz3RDC3Jdn4j15J7bBHZd29EUee9gVB1CxD9",
        "reception_time": "2022-01-20T14:11:43.269-00:00",
        "timestamp": "2022-01-20T14:11:30Z" } ],
  "endorsements":
    [ { "delegate": "tz1eEnQhbwf6trb8Q8mPb2RaPkNk2rN7BKi8",
        "reception_time": "2022-01-20T14:11:45.941-00:00",
        "included_in_blocks":
          [ "BMRhyccY17KqeRBuzqZ6aeWskcL1ydBRwmJZjiYCBXzBNP74yS1" ] },
      { "delegate": "tz1VQnqCCqX4K5sP3FNkVSNKTdCAMJDd3E1n",
        "reception_time": "2022-01-20T14:11:45.941-00:00",
        "included_in_blocks":
          [ "BMRhyccY17KqeRBuzqZ6aeWskcL1ydBRwmJZjiYCBXzBNP74yS1" ] },
      { "delegate": "tz1TzaNn7wSQSP5gYPXCnNzBCpyMiidCq1PX",
        "reception_time": "2022-01-20T14:11:45.941-00:00",
        "included_in_blocks":
          [ "BMRhyccY17KqeRBuzqZ6aeWskcL1ydBRwmJZjiYCBXzBNP74yS1" ] },
      { "delegate": "tz1gUNyn3hmnEWqkusWPzxRaon1cs7ndWh7h",
        "reception_time": "2022-01-20T14:11:45.941-00:00",
        "included_in_blocks":
          [ "BMRhyccY17KqeRBuzqZ6aeWskcL1ydBRwmJZjiYCBXzBNP74yS1" ] },
      { "delegate": "tz1VmiY38m3y95HqQLjMwqnMS7sdMfGomzKi",
        "reception_time": "2022-01-20T14:11:45.941-00:00",
        "included_in_blocks":
          [ "BMRhyccY17KqeRBuzqZ6aeWskcL1ydBRwmJZjiYCBXzBNP74yS1" ] },
      { "delegate": "tz1eDDuQBEgwvc6tbnnCVrnr12tvrd6gBTpx",
        "reception_time": "2022-01-20T14:11:45.941-00:00",
        "included_in_blocks":
          [ "BMRhyccY17KqeRBuzqZ6aeWskcL1ydBRwmJZjiYCBXzBNP74yS1" ] },
      { "delegate": "tz1WCd2jm4uSt4vntk4vSuUWoZQGhLcDuR9q",
        "reception_time": "2022-01-20T14:11:45.941-00:00",
        "included_in_blocks":
          [ "BMRhyccY17KqeRBuzqZ6aeWskcL1ydBRwmJZjiYCBXzBNP74yS1" ] },
      { "delegate": "tz1Nf6tsK4G6bBqgSQERy4nUtkHNKUVdh7q1",
        "reception_time": "2022-01-20T14:11:45.941-00:00",
        "included_in_blocks":
          [ "BMRhyccY17KqeRBuzqZ6aeWskcL1ydBRwmJZjiYCBXzBNP74yS1" ] },
      { "delegate": "tz3hw2kqXhLUvY65ca1eety2oQTpAvd34R9Q",
        "reception_time": "2022-01-20T14:11:45.941-00:00",
        "included_in_blocks":
          [ "BMRhyccY17KqeRBuzqZ6aeWskcL1ydBRwmJZjiYCBXzBNP74yS1" ] },
      { "delegate": "tz3NxTnke1acr8o3h5y9ytf5awQBGNJUKzVU",
        "reception_time": "2022-01-20T14:11:45.941-00:00",
        "included_in_blocks":
          [ "BMRhyccY17KqeRBuzqZ6aeWskcL1ydBRwmJZjiYCBXzBNP74yS1" ] },
      { "delegate": "tz1ei4WtWEMEJekSv8qDnu9PExG6Q8HgRGr3",
        "reception_time": "2022-01-20T14:11:45.941-00:00",
        "included_in_blocks":
          [ "BMRhyccY17KqeRBuzqZ6aeWskcL1ydBRwmJZjiYCBXzBNP74yS1" ] },
      { "delegate": "tz3ZbP2pM3nwvXztbuMJwJnDvV5xdpU8UkkD",
        "reception_time": "2022-01-20T14:11:45.941-00:00",
        "included_in_blocks":
          [ "BMRhyccY17KqeRBuzqZ6aeWskcL1ydBRwmJZjiYCBXzBNP74yS1" ] },
      { "delegate": "tz1PWCDnz783NNGGQjEFFsHtrcK5yBW4E2rm",
        "reception_time": "2022-01-20T14:11:45.941-00:00",
        "included_in_blocks":
          [ "BMRhyccY17KqeRBuzqZ6aeWskcL1ydBRwmJZjiYCBXzBNP74yS1" ] },
      { "delegate": "tz1TEc75UKXv4W5cwi14Na3NtqFD51yKQi7h",
        "reception_time": "2022-01-20T14:11:45.941-00:00",
        "included_in_blocks":
          [ "BMRhyccY17KqeRBuzqZ6aeWskcL1ydBRwmJZjiYCBXzBNP74yS1" ] },
      { "delegate": "tz3RKYFsLuQzKBtmYuLNas7uMu3AsYd4QdsA",
        "reception_time": "2022-01-20T14:11:45.941-00:00",
        "included_in_blocks":
          [ "BMRhyccY17KqeRBuzqZ6aeWskcL1ydBRwmJZjiYCBXzBNP74yS1" ] },
      { "delegate": "tz3gtoUxdudfBRcNY7iVdKPHCYYX6xdPpoRS",
        "reception_time": "2022-01-20T14:11:45.941-00:00",
        "included_in_blocks":
          [ "BMRhyccY17KqeRBuzqZ6aeWskcL1ydBRwmJZjiYCBXzBNP74yS1" ] },
      { "delegate": "tz3QSGPoRp3Kn7n3vY24eYeu3Peuqo45LQ4D",
        "reception_time": "2022-01-20T14:11:45.941-00:00",
        "included_in_blocks":
          [ "BMRhyccY17KqeRBuzqZ6aeWskcL1ydBRwmJZjiYCBXzBNP74yS1" ] },
      { "delegate": "tz1V4qCyvPKZ5UeqdH14HN42rxvNPQfc9UZg",
        "reception_time": "2022-01-20T14:11:45.941-00:00",
        "included_in_blocks":
          [ "BMRhyccY17KqeRBuzqZ6aeWskcL1ydBRwmJZjiYCBXzBNP74yS1" ] },
      { "delegate": "tz3Zhs2dygr55yHyQyKjntAtY9bgfhLZ4Xj1",
        "reception_time": "2022-01-20T14:11:45.941-00:00",
        "included_in_blocks":
          [ "BMRhyccY17KqeRBuzqZ6aeWskcL1ydBRwmJZjiYCBXzBNP74yS1" ] },
      { "delegate": "tz3iJu5vrKZcsqRPs8yJ61UDoeEXZmtro4qh",
        "reception_time": "2022-01-20T14:11:45.941-00:00",
        "included_in_blocks":
          [ "BMRhyccY17KqeRBuzqZ6aeWskcL1ydBRwmJZjiYCBXzBNP74yS1" ] },
      { "delegate": "tz1TRspM5SeZpaQUhzByXbEvqKF1vnCM2YTK",
        "reception_time": "2022-01-20T14:11:45.941-00:00",
        "included_in_blocks":
          [ "BMRhyccY17KqeRBuzqZ6aeWskcL1ydBRwmJZjiYCBXzBNP74yS1" ] },
      { "delegate": "tz1KfEsrtDaA1sX7vdM4qmEPWuSytuqCDp5j",
        "reception_time": "2022-01-20T14:11:45.941-00:00",
        "included_in_blocks":
          [ "BMRhyccY17KqeRBuzqZ6aeWskcL1ydBRwmJZjiYCBXzBNP74yS1" ] },
      { "delegate": "tz1gfArv665EUkSg2ojMBzcbfwuPxAvqPvjo",
        "reception_time": "2022-01-20T14:11:45.941-00:00",
        "included_in_blocks":
          [ "BMRhyccY17KqeRBuzqZ6aeWskcL1ydBRwmJZjiYCBXzBNP74yS1" ] },
      { "delegate": "tz1MQMiZHV8q4tTwUMWmS5Y3kaP6J2136iXr",
        "reception_time": "2022-01-20T14:11:45.941-00:00",
        "included_in_blocks":
          [ "BMRhyccY17KqeRBuzqZ6aeWskcL1ydBRwmJZjiYCBXzBNP74yS1" ] },
      { "delegate": "tz1WwDDoqA6h1wAnAoT5jiCYJz5CB43f3D78",
        "reception_time": "2022-01-20T14:11:45.941-00:00",
        "included_in_blocks":
          [ "BMRhyccY17KqeRBuzqZ6aeWskcL1ydBRwmJZjiYCBXzBNP74yS1" ] },
      { "delegate": "tz3S6BBeKgJGXxvLyZ1xzXzMPn11nnFtq5L9",
        "reception_time": "2022-01-20T14:11:45.941-00:00",
        "included_in_blocks":
          [ "BMRhyccY17KqeRBuzqZ6aeWskcL1ydBRwmJZjiYCBXzBNP74yS1" ] },
      { "delegate": "tz1NEKxGEHsFufk87CVZcrqWu8o22qh46GK6",
        "reception_time": "2022-01-20T14:11:45.941-00:00",
        "included_in_blocks":
          [ "BMRhyccY17KqeRBuzqZ6aeWskcL1ydBRwmJZjiYCBXzBNP74yS1" ] },
      { "delegate": "tz3QT9dHYKDqh563chVa6za8526ys1UKfRfL",
        "reception_time": "2022-01-20T14:11:45.941-00:00",
        "included_in_blocks":
          [ "BMRhyccY17KqeRBuzqZ6aeWskcL1ydBRwmJZjiYCBXzBNP74yS1" ] },
      { "delegate": "tz1R4PuhxUxBBZhfLJDx2nNjbr7WorAPX1oC",
        "reception_time": "2022-01-20T14:11:46.253-00:00",
        "included_in_blocks":
          [ "BMRhyccY17KqeRBuzqZ6aeWskcL1ydBRwmJZjiYCBXzBNP74yS1" ] },
      { "delegate": "tz3QCNyySViKHmeSr45kzDxzchys7NiXCWoa",
        "reception_time": "2022-01-20T14:11:46.253-00:00",
        "included_in_blocks":
          [ "BMRhyccY17KqeRBuzqZ6aeWskcL1ydBRwmJZjiYCBXzBNP74yS1" ] },
      { "delegate": "tz1WBfwbT66FC6BTLexc2BoyCCBM9LG7pnVW",
        "reception_time": "2022-01-20T14:11:46.253-00:00",
        "included_in_blocks":
          [ "BMRhyccY17KqeRBuzqZ6aeWskcL1ydBRwmJZjiYCBXzBNP74yS1" ] },
      { "delegate": "tz1VceyYUpq1gk5dtp6jXQRtCtY8hm5DKt72",
        "reception_time": "2022-01-20T14:11:46.253-00:00",
        "included_in_blocks":
          [ "BMRhyccY17KqeRBuzqZ6aeWskcL1ydBRwmJZjiYCBXzBNP74yS1" ] },
      { "delegate": "tz3RDC3Jdn4j15J7bBHZd29EUee9gVB1CxD9",
        "reception_time": "2022-01-20T14:11:46.253-00:00",
        "included_in_blocks":
          [ "BMRhyccY17KqeRBuzqZ6aeWskcL1ydBRwmJZjiYCBXzBNP74yS1" ] },
      { "delegate": "tz1RCFbB9GpALpsZtu6J58sb74dm8qe6XBzv",
        "reception_time": "2022-01-20T14:11:46.253-00:00",
        "included_in_blocks":
          [ "BMRhyccY17KqeRBuzqZ6aeWskcL1ydBRwmJZjiYCBXzBNP74yS1" ] },
      { "delegate": "tz1SYq214SCBy9naR6cvycQsYcUGpBqQAE8d",
        "reception_time": "2022-01-20T14:11:46.253-00:00",
        "included_in_blocks":
          [ "BMRhyccY17KqeRBuzqZ6aeWskcL1ydBRwmJZjiYCBXzBNP74yS1" ] },
      { "delegate": "tz3RB4aoyjov4KEVRbuhvQ1CKJgBJMWhaeB8",
        "reception_time": "2022-01-20T14:11:46.253-00:00",
        "included_in_blocks":
          [ "BMRhyccY17KqeRBuzqZ6aeWskcL1ydBRwmJZjiYCBXzBNP74yS1" ] },
      { "delegate": "tz1dRKU4FQ9QRRQPdaH4zCR6gmCmXfcvcgtB",
        "reception_time": "2022-01-20T14:11:46.253-00:00",
        "included_in_blocks":
          [ "BMRhyccY17KqeRBuzqZ6aeWskcL1ydBRwmJZjiYCBXzBNP74yS1" ] },
      { "delegate": "tz2FCNBrERXtaTtNX6iimR1UJ5JSDxvdHM93",
        "reception_time": "2022-01-20T14:11:46.775-00:00",
        "included_in_blocks":
          [ "BMRhyccY17KqeRBuzqZ6aeWskcL1ydBRwmJZjiYCBXzBNP74yS1" ] },
      { "delegate": "tz1S8MNvuFEUsWgjHvi3AxibRBf388NhT1q2",
        "reception_time": "2022-01-20T14:11:46.253-00:00",
        "included_in_blocks":
          [ "BMRhyccY17KqeRBuzqZ6aeWskcL1ydBRwmJZjiYCBXzBNP74yS1" ] },
      { "delegate": "tz3bTdwZinP8U1JmSweNzVKhmwafqWmFWRfk",
        "reception_time": "2022-01-20T14:11:46.775-00:00",
        "included_in_blocks":
          [ "BMRhyccY17KqeRBuzqZ6aeWskcL1ydBRwmJZjiYCBXzBNP74yS1" ] },
      { "delegate": "tz1hYj2SDMv9UfagrUiaAhnCrzoF9RqFK7eM",
        "reception_time": "2022-01-20T14:11:46.775-00:00",
        "included_in_blocks":
          [ "BMRhyccY17KqeRBuzqZ6aeWskcL1ydBRwmJZjiYCBXzBNP74yS1" ] },
      { "delegate": "tz3UoffC7FG7zfpmvmjUmUeAaHvzdcUvAj6r",
        "reception_time": "2022-01-20T14:11:46.775-00:00",
        "included_in_blocks":
          [ "BMRhyccY17KqeRBuzqZ6aeWskcL1ydBRwmJZjiYCBXzBNP74yS1" ] },
      { "delegate": "tz1WctSwL49BZtdWAQ75NY6vr4xsAx6oKdah",
        "reception_time": "2022-01-20T14:11:46.775-00:00",
        "included_in_blocks":
          [ "BMRhyccY17KqeRBuzqZ6aeWskcL1ydBRwmJZjiYCBXzBNP74yS1" ] },
      { "delegate": "tz1abmz7jiCV2GH2u81LRrGgAFFgvQgiDiaf",
        "reception_time": "2022-01-20T14:11:46.775-00:00",
        "included_in_blocks":
          [ "BMRhyccY17KqeRBuzqZ6aeWskcL1ydBRwmJZjiYCBXzBNP74yS1" ] },
      { "delegate": "tz1T7duV5gZWSTq4YpBGbXNLTfznCLDrFxvs",
        "reception_time": "2022-01-20T14:11:46.775-00:00",
        "included_in_blocks":
          [ "BMRhyccY17KqeRBuzqZ6aeWskcL1ydBRwmJZjiYCBXzBNP74yS1" ] },
      { "delegate": "tz3WMqdzXqRWXwyvj5Hp2H7QEepaUuS7vd9K",
        "reception_time": "2022-01-20T14:11:46.979-00:00",
        "included_in_blocks":
          [ "BMRhyccY17KqeRBuzqZ6aeWskcL1ydBRwmJZjiYCBXzBNP74yS1" ] },
      { "delegate": "tz3bvNMQ95vfAYtG8193ymshqjSvmxiCUuR5",
        "reception_time": "2022-01-20T14:11:47.225-00:00",
        "included_in_blocks":
          [ "BMRhyccY17KqeRBuzqZ6aeWskcL1ydBRwmJZjiYCBXzBNP74yS1" ] },
      { "delegate": "tz3VEZ4k6a4Wx42iyev6i2aVAptTRLEAivNN",
        "reception_time": "2022-01-20T14:11:47.370-00:00",
        "included_in_blocks":
          [ "BMRhyccY17KqeRBuzqZ6aeWskcL1ydBRwmJZjiYCBXzBNP74yS1" ] },
      { "delegate": "tz3gLTu4Yxj8tPAcriQVUdxv6BY9QyvzU1az",
        "reception_time": "2022-01-20T14:11:47.249-00:00",
        "included_in_blocks":
          [ "BMRhyccY17KqeRBuzqZ6aeWskcL1ydBRwmJZjiYCBXzBNP74yS1" ] },
      { "delegate": "tz3NDpRj6WBrJPikcPVHRBEjWKxFw3c6eQPS",
        "reception_time": "2022-01-20T14:11:47.389-00:00",
        "included_in_blocks":
          [ "BMRhyccY17KqeRBuzqZ6aeWskcL1ydBRwmJZjiYCBXzBNP74yS1" ] },
      { "delegate": "tz1ZcTRk5uxD86EFEn1vvNffWWqJy7q5eVhc",
        "reception_time": "2022-01-20T14:11:47.513-00:00",
        "included_in_blocks":
          [ "BMRhyccY17KqeRBuzqZ6aeWskcL1ydBRwmJZjiYCBXzBNP74yS1" ] },
      { "delegate": "tz1g8vkmcde6sWKaG2NN9WKzCkDM6Rziq194",
        "reception_time": "2022-01-20T14:11:47.685-00:00",
        "included_in_blocks":
          [ "BMRhyccY17KqeRBuzqZ6aeWskcL1ydBRwmJZjiYCBXzBNP74yS1" ] },
      { "delegate": "tz1Xsrfv6hn86fp88YfRs6xcKwt2nTqxVZYM",
        "reception_time": "2022-01-20T14:11:48.066-00:00",
        "included_in_blocks":
          [ "BMRhyccY17KqeRBuzqZ6aeWskcL1ydBRwmJZjiYCBXzBNP74yS1" ] },
      { "delegate": "tz3NExpXn9aPNZPorRE4SdjJ2RGrfbJgMAaV",
        "reception_time": "2022-01-20T14:11:48.467-00:00",
        "included_in_blocks":
          [ "BMRhyccY17KqeRBuzqZ6aeWskcL1ydBRwmJZjiYCBXzBNP74yS1" ] },
      { "delegate": "tz1TRqbYbUf2GyrjErf3hBzgBJPzW8y36qEs",
        "reception_time": "2022-01-20T14:11:48.583-00:00",
        "included_in_blocks":
          [ "BMRhyccY17KqeRBuzqZ6aeWskcL1ydBRwmJZjiYCBXzBNP74yS1" ] },
      { "delegate": "tz1LmaFsWRkjr7QMCx5PtV6xTUz3AmEpKQiF",
        "reception_time": "2022-01-20T14:11:48.875-00:00",
        "included_in_blocks":
          [ "BMRhyccY17KqeRBuzqZ6aeWskcL1ydBRwmJZjiYCBXzBNP74yS1" ] },
      { "delegate": "tz1TcH4Nb3aHNDJ7CGZhU7jgAK1BkSP4Lxds",
        "reception_time": "2022-01-20T14:11:49.650-00:00",
        "included_in_blocks":
          [ "BMRhyccY17KqeRBuzqZ6aeWskcL1ydBRwmJZjiYCBXzBNP74yS1" ] },
      { "delegate": "tz1aRoaRhSpRYvFdyvgWLL6TGyRoGF51wDjM",
        "reception_time": "2022-01-20T14:11:50.523-00:00",
        "included_in_blocks":
          [ "BMRhyccY17KqeRBuzqZ6aeWskcL1ydBRwmJZjiYCBXzBNP74yS1" ] },
      { "delegate": "tz1beersuEDv8Z7ngQ825xfbaJNS2EhXnyHR",
        "reception_time": "2022-01-20T14:11:57.564-00:00",
        "included_in_blocks":
          [ "BMRhyccY17KqeRBuzqZ6aeWskcL1ydBRwmJZjiYCBXzBNP74yS1" ] },
      { "delegate": "tz1irJKkXS2DBWkU1NnmFQx1c1L7pbGg4yhk",
        "reception_time": "2022-01-20T14:11:43.125-00:00",
        "errors":
          [ { "kind": "temporary",
              "id": "proto.011-PtHangz2.prefilter.outdated_endorsement" } ],
        "included_in_blocks":
          [ "BMRhyccY17KqeRBuzqZ6aeWskcL1ydBRwmJZjiYCBXzBNP74yS1" ] },
      { "delegate": "tz1P2Po7YM526ughEsRbY4oR9zaUPDZjxFrb",
        "reception_time": "2022-01-20T14:11:43.138-00:00",
        "errors":
          [ { "kind": "temporary",
              "id": "proto.011-PtHangz2.prefilter.outdated_endorsement" } ],
        "included_in_blocks":
          [ "BMRhyccY17KqeRBuzqZ6aeWskcL1ydBRwmJZjiYCBXzBNP74yS1" ] },
      { "delegate": "tz1Kt4P8BCaP93AEV4eA7gmpRryWt5hznjCP",
        "reception_time": "2022-01-20T14:11:43.162-00:00",
        "errors":
          [ { "kind": "temporary",
              "id": "proto.011-PtHangz2.prefilter.outdated_endorsement" } ],
        "included_in_blocks":
          [ "BMRhyccY17KqeRBuzqZ6aeWskcL1ydBRwmJZjiYCBXzBNP74yS1" ] },
      { "delegate": "tz1Ldzz6k1BHdhuKvAtMRX7h5kJSMHESMHLC",
        "reception_time": "2022-01-20T14:11:43.217-00:00",
        "errors":
          [ { "kind": "temporary",
              "id": "proto.011-PtHangz2.prefilter.outdated_endorsement" } ],
        "included_in_blocks":
          [ "BMRhyccY17KqeRBuzqZ6aeWskcL1ydBRwmJZjiYCBXzBNP74yS1" ] },
      { "delegate": "tz1STeamwbp68THcny9zk3LsbG3H36DMvbRK",
        "reception_time": "2022-01-20T14:11:43.238-00:00",
        "errors":
          [ { "kind": "temporary",
              "id": "proto.011-PtHangz2.prefilter.outdated_endorsement" } ],
        "included_in_blocks":
          [ "BMRhyccY17KqeRBuzqZ6aeWskcL1ydBRwmJZjiYCBXzBNP74yS1" ] },
      { "delegate": "tz1RjoHc98dBoqaH2jawF62XNKh7YsHwbkEv" },
      { "delegate": "tz1awXW7wuXy21c66vBudMXQVAPgRnqqwgTH" },
      { "delegate": "tz1go7f6mEQfT2xX2LuHAqgnRGN6c2zHPf5c",
        "reception_time": "2022-01-20T14:12:02.746-00:00" } ] }