{ "blocks":
    [ { "hash": "BLi1MouZVzJNTQPyK9UdApfNxcfv24D3eSPRhgUm2ovKAnY825p",
        "delegate": "tz1aDiEJf9ztRrAJEXZfcG3CKimoKsGhwVAi",
        "reception_time": "2022-01-20T20:55:50.603-00:00",
        "timestamp": "2022-01-20T20:55:40Z" } ],
  "endorsements":
    [ { "delegate": "tz1fUyqYH7H4pRHN1roWY17giXhy1RvxjgUV" },
      { "delegate": "tz1awXW7wuXy21c66vBudMXQVAPgRnqqwgTH" },
      { "delegate": "tz1V3yg82mcrPJbegqVCPn6bC8w1CSTRp3f8" },
      { "delegate": "tz1RjoHc98dBoqaH2jawF62XNKh7YsHwbkEv" },
      { "delegate": "tz3gtoUxdudfBRcNY7iVdKPHCYYX6xdPpoRS",
        "reception_time": "2022-01-20T20:55:50.538-00:00",
        "errors":
          [ { "kind": "temporary",
              "id": "proto.011-PtHangz2.prefilter.outdated_endorsement" } ],
        "included_in_blocks":
          [ "BLavLfJ7bi7QqZFwNwiB6n1wYc9LaJQRCECcmEEcEJrEUnXCSJ5" ] },
      { "delegate": "tz3QSGPoRp3Kn7n3vY24eYeu3Peuqo45LQ4D",
        "reception_time": "2022-01-20T20:55:50.531-00:00",
        "errors":
          [ { "kind": "temporary",
              "id": "proto.011-PtHangz2.prefilter.outdated_endorsement" } ],
        "included_in_blocks":
          [ "BLavLfJ7bi7QqZFwNwiB6n1wYc9LaJQRCECcmEEcEJrEUnXCSJ5" ] },
      { "delegate": "tz1PWCDnz783NNGGQjEFFsHtrcK5yBW4E2rm",
        "reception_time": "2022-01-20T20:55:50.413-00:00",
        "errors":
          [ { "kind": "temporary",
              "id": "proto.011-PtHangz2.prefilter.outdated_endorsement" } ],
        "included_in_blocks":
          [ "BLavLfJ7bi7QqZFwNwiB6n1wYc9LaJQRCECcmEEcEJrEUnXCSJ5" ] },
      { "delegate": "tz1WCd2jm4uSt4vntk4vSuUWoZQGhLcDuR9q",
        "reception_time": "2022-01-20T20:55:50.396-00:00",
        "errors":
          [ { "kind": "temporary",
              "id": "proto.011-PtHangz2.prefilter.outdated_endorsement" } ],
        "included_in_blocks":
          [ "BLavLfJ7bi7QqZFwNwiB6n1wYc9LaJQRCECcmEEcEJrEUnXCSJ5" ] },
      { "delegate": "tz1TRspM5SeZpaQUhzByXbEvqKF1vnCM2YTK",
        "reception_time": "2022-01-20T20:55:50.388-00:00",
        "errors":
          [ { "kind": "temporary",
              "id": "proto.011-PtHangz2.prefilter.outdated_endorsement" } ],
        "included_in_blocks":
          [ "BLavLfJ7bi7QqZFwNwiB6n1wYc9LaJQRCECcmEEcEJrEUnXCSJ5" ] },
      { "delegate": "tz1cSj7fTex3JPd1p1LN1fwek6AV1kH93Wwc",
        "reception_time": "2022-01-20T20:55:50.372-00:00",
        "errors":
          [ { "kind": "temporary",
              "id": "proto.011-PtHangz2.prefilter.outdated_endorsement" } ],
        "included_in_blocks":
          [ "BLavLfJ7bi7QqZFwNwiB6n1wYc9LaJQRCECcmEEcEJrEUnXCSJ5" ] },
      { "delegate": "tz3QT9dHYKDqh563chVa6za8526ys1UKfRfL",
        "reception_time": "2022-01-20T20:55:50.371-00:00",
        "errors":
          [ { "kind": "temporary",
              "id": "proto.011-PtHangz2.prefilter.outdated_endorsement" } ],
        "included_in_blocks":
          [ "BLavLfJ7bi7QqZFwNwiB6n1wYc9LaJQRCECcmEEcEJrEUnXCSJ5" ] },
      { "delegate": "tz3S6BBeKgJGXxvLyZ1xzXzMPn11nnFtq5L9",
        "reception_time": "2022-01-20T20:55:50.337-00:00",
        "errors":
          [ { "kind": "temporary",
              "id": "proto.011-PtHangz2.prefilter.outdated_endorsement" } ],
        "included_in_blocks":
          [ "BLavLfJ7bi7QqZFwNwiB6n1wYc9LaJQRCECcmEEcEJrEUnXCSJ5" ] },
      { "delegate": "tz3ZbP2pM3nwvXztbuMJwJnDvV5xdpU8UkkD",
        "reception_time": "2022-01-20T20:55:50.293-00:00",
        "errors":
          [ { "kind": "temporary",
              "id": "proto.011-PtHangz2.prefilter.outdated_endorsement" } ],
        "included_in_blocks":
          [ "BLavLfJ7bi7QqZFwNwiB6n1wYc9LaJQRCECcmEEcEJrEUnXCSJ5" ] },
      { "delegate": "tz1ZPh7XfUaJXUDvkrBxmS1BjEM1i62hiPpM",
        "reception_time": "2022-01-20T20:55:50.283-00:00",
        "errors":
          [ { "kind": "temporary",
              "id": "proto.011-PtHangz2.prefilter.outdated_endorsement" } ],
        "included_in_blocks":
          [ "BLavLfJ7bi7QqZFwNwiB6n1wYc9LaJQRCECcmEEcEJrEUnXCSJ5" ] },
      { "delegate": "tz1eDDuQBEgwvc6tbnnCVrnr12tvrd6gBTpx",
        "reception_time": "2022-01-20T20:55:49.967-00:00",
        "errors":
          [ { "kind": "temporary",
              "id": "proto.011-PtHangz2.prefilter.outdated_endorsement" } ],
        "included_in_blocks":
          [ "BLavLfJ7bi7QqZFwNwiB6n1wYc9LaJQRCECcmEEcEJrEUnXCSJ5" ] },
      { "delegate": "tz1VmiY38m3y95HqQLjMwqnMS7sdMfGomzKi",
        "reception_time": "2022-01-20T20:55:49.929-00:00",
        "errors":
          [ { "kind": "temporary",
              "id": "proto.011-PtHangz2.prefilter.outdated_endorsement" } ],
        "included_in_blocks":
          [ "BLavLfJ7bi7QqZFwNwiB6n1wYc9LaJQRCECcmEEcEJrEUnXCSJ5" ] },
      { "delegate": "tz1Ldzz6k1BHdhuKvAtMRX7h5kJSMHESMHLC",
        "reception_time": "2022-01-20T20:55:49.845-00:00",
        "errors":
          [ { "kind": "temporary",
              "id": "proto.011-PtHangz2.prefilter.outdated_endorsement" } ],
        "included_in_blocks":
          [ "BLavLfJ7bi7QqZFwNwiB6n1wYc9LaJQRCECcmEEcEJrEUnXCSJ5" ] },
      { "delegate": "tz1irJKkXS2DBWkU1NnmFQx1c1L7pbGg4yhk",
        "reception_time": "2022-01-20T20:55:49.477-00:00",
        "errors":
          [ { "kind": "temporary",
              "id": "proto.011-PtHangz2.prefilter.outdated_endorsement" } ],
        "included_in_blocks":
          [ "BLavLfJ7bi7QqZFwNwiB6n1wYc9LaJQRCECcmEEcEJrEUnXCSJ5" ] },
      { "delegate": "tz1eEnQhbwf6trb8Q8mPb2RaPkNk2rN7BKi8",
        "reception_time": "2022-01-20T20:55:49.454-00:00",
        "errors":
          [ { "kind": "temporary",
              "id": "proto.011-PtHangz2.prefilter.outdated_endorsement" } ],
        "included_in_blocks":
          [ "BLavLfJ7bi7QqZFwNwiB6n1wYc9LaJQRCECcmEEcEJrEUnXCSJ5" ] },
      { "delegate": "tz1VQnqCCqX4K5sP3FNkVSNKTdCAMJDd3E1n",
        "reception_time": "2022-01-20T20:55:49.387-00:00",
        "errors":
          [ { "kind": "temporary",
              "id": "proto.011-PtHangz2.prefilter.outdated_endorsement" } ],
        "included_in_blocks":
          [ "BLavLfJ7bi7QqZFwNwiB6n1wYc9LaJQRCECcmEEcEJrEUnXCSJ5" ] },
      { "delegate": "tz1gUNyn3hmnEWqkusWPzxRaon1cs7ndWh7h",
        "reception_time": "2022-01-20T20:55:49.373-00:00",
        "errors":
          [ { "kind": "temporary",
              "id": "proto.011-PtHangz2.prefilter.outdated_endorsement" } ],
        "included_in_blocks":
          [ "BLavLfJ7bi7QqZFwNwiB6n1wYc9LaJQRCECcmEEcEJrEUnXCSJ5" ] },
      { "delegate": "tz1P2Po7YM526ughEsRbY4oR9zaUPDZjxFrb",
        "reception_time": "2022-01-20T20:55:48.789-00:00",
        "errors":
          [ { "kind": "temporary",
              "id": "proto.011-PtHangz2.prefilter.outdated_endorsement" } ],
        "included_in_blocks":
          [ "BLavLfJ7bi7QqZFwNwiB6n1wYc9LaJQRCECcmEEcEJrEUnXCSJ5" ] },
      { "delegate": "tz1Lhf4J9Qxoe3DZ2nfe8FGDnvVj7oKjnMY6",
        "reception_time": "2022-01-20T20:55:48.699-00:00",
        "errors":
          [ { "kind": "temporary",
              "id": "proto.011-PtHangz2.prefilter.outdated_endorsement" } ],
        "included_in_blocks":
          [ "BLavLfJ7bi7QqZFwNwiB6n1wYc9LaJQRCECcmEEcEJrEUnXCSJ5" ] },
      { "delegate": "tz1S8e9GgdZG78XJRB3NqabfWeM37GnhZMWQ",
        "reception_time": "2022-01-20T20:55:48.328-00:00",
        "errors":
          [ { "kind": "temporary",
              "id": "proto.011-PtHangz2.prefilter.outdated_endorsement" } ],
        "included_in_blocks":
          [ "BLavLfJ7bi7QqZFwNwiB6n1wYc9LaJQRCECcmEEcEJrEUnXCSJ5" ] },
      { "delegate": "tz1go7f6mEQfT2xX2LuHAqgnRGN6c2zHPf5c",
        "reception_time": "2022-01-20T20:56:02.595-00:00",
        "included_in_blocks":
          [ "BLavLfJ7bi7QqZFwNwiB6n1wYc9LaJQRCECcmEEcEJrEUnXCSJ5" ] },
      { "delegate": "tz1SYq214SCBy9naR6cvycQsYcUGpBqQAE8d",
        "reception_time": "2022-01-20T20:56:00.321-00:00",
        "included_in_blocks":
          [ "BLavLfJ7bi7QqZFwNwiB6n1wYc9LaJQRCECcmEEcEJrEUnXCSJ5" ] },
      { "delegate": "tz1hA2m6dTgvtgZPXmP6MEauqiYWpD3KXaRy",
        "reception_time": "2022-01-20T20:56:00.192-00:00",
        "included_in_blocks":
          [ "BLavLfJ7bi7QqZFwNwiB6n1wYc9LaJQRCECcmEEcEJrEUnXCSJ5" ] },
      { "delegate": "tz1gg5bjopPcr9agjamyu9BbXKLibNc2rbAq",
        "reception_time": "2022-01-20T20:55:58.172-00:00",
        "included_in_blocks":
          [ "BLavLfJ7bi7QqZFwNwiB6n1wYc9LaJQRCECcmEEcEJrEUnXCSJ5" ] },
      { "delegate": "tz1TRqbYbUf2GyrjErf3hBzgBJPzW8y36qEs",
        "reception_time": "2022-01-20T20:55:57.830-00:00",
        "included_in_blocks":
          [ "BLavLfJ7bi7QqZFwNwiB6n1wYc9LaJQRCECcmEEcEJrEUnXCSJ5" ] },
      { "delegate": "tz2FCNBrERXtaTtNX6iimR1UJ5JSDxvdHM93",
        "reception_time": "2022-01-20T20:55:55.168-00:00",
        "included_in_blocks":
          [ "BLavLfJ7bi7QqZFwNwiB6n1wYc9LaJQRCECcmEEcEJrEUnXCSJ5" ] },
      { "delegate": "tz1Vd1rXpV8hTHbFXCXN3c3qzCsgcU5BZw1e",
        "reception_time": "2022-01-20T20:55:54.038-00:00",
        "included_in_blocks":
          [ "BLavLfJ7bi7QqZFwNwiB6n1wYc9LaJQRCECcmEEcEJrEUnXCSJ5" ] },
      { "delegate": "tz1cYufsxHXJcvANhvS55h3aY32a9BAFB494",
        "reception_time": "2022-01-20T20:55:53.947-00:00",
        "included_in_blocks":
          [ "BLavLfJ7bi7QqZFwNwiB6n1wYc9LaJQRCECcmEEcEJrEUnXCSJ5" ] },
      { "delegate": "tz1TwVimQy3BywXoSszdFXjT9bSTQrsZYo2u",
        "reception_time": "2022-01-20T20:55:53.595-00:00",
        "included_in_blocks":
          [ "BLavLfJ7bi7QqZFwNwiB6n1wYc9LaJQRCECcmEEcEJrEUnXCSJ5" ] },
      { "delegate": "tz3NDpRj6WBrJPikcPVHRBEjWKxFw3c6eQPS",
        "reception_time": "2022-01-20T20:55:53.636-00:00",
        "included_in_blocks":
          [ "BLavLfJ7bi7QqZFwNwiB6n1wYc9LaJQRCECcmEEcEJrEUnXCSJ5" ] },
      { "delegate": "tz1fZ767VDbqx4DeKiFswPSHh513f51mKEUZ",
        "reception_time": "2022-01-20T20:55:53.645-00:00",
        "included_in_blocks":
          [ "BLavLfJ7bi7QqZFwNwiB6n1wYc9LaJQRCECcmEEcEJrEUnXCSJ5" ] },
      { "delegate": "tz3bvNMQ95vfAYtG8193ymshqjSvmxiCUuR5",
        "reception_time": "2022-01-20T20:55:53.576-00:00",
        "included_in_blocks":
          [ "BLavLfJ7bi7QqZFwNwiB6n1wYc9LaJQRCECcmEEcEJrEUnXCSJ5" ] },
      { "delegate": "tz1T7duV5gZWSTq4YpBGbXNLTfznCLDrFxvs",
        "reception_time": "2022-01-20T20:55:53.616-00:00",
        "included_in_blocks":
          [ "BLavLfJ7bi7QqZFwNwiB6n1wYc9LaJQRCECcmEEcEJrEUnXCSJ5" ] },
      { "delegate": "tz1PeZx7FXy7QRuMREGXGxeipb24RsMMzUNe",
        "reception_time": "2022-01-20T20:55:53.643-00:00",
        "included_in_blocks":
          [ "BLavLfJ7bi7QqZFwNwiB6n1wYc9LaJQRCECcmEEcEJrEUnXCSJ5" ] },
      { "delegate": "tz1aRoaRhSpRYvFdyvgWLL6TGyRoGF51wDjM",
        "reception_time": "2022-01-20T20:55:53.176-00:00",
        "included_in_blocks":
          [ "BLavLfJ7bi7QqZFwNwiB6n1wYc9LaJQRCECcmEEcEJrEUnXCSJ5" ] },
      { "delegate": "tz1S8MNvuFEUsWgjHvi3AxibRBf388NhT1q2",
        "reception_time": "2022-01-20T20:55:53.450-00:00",
        "included_in_blocks":
          [ "BLavLfJ7bi7QqZFwNwiB6n1wYc9LaJQRCECcmEEcEJrEUnXCSJ5" ] },
      { "delegate": "tz1Xsrfv6hn86fp88YfRs6xcKwt2nTqxVZYM",
        "reception_time": "2022-01-20T20:55:53.610-00:00",
        "included_in_blocks":
          [ "BLavLfJ7bi7QqZFwNwiB6n1wYc9LaJQRCECcmEEcEJrEUnXCSJ5" ] },
      { "delegate": "tz1RCFbB9GpALpsZtu6J58sb74dm8qe6XBzv",
        "reception_time": "2022-01-20T20:55:52.929-00:00",
        "included_in_blocks":
          [ "BLavLfJ7bi7QqZFwNwiB6n1wYc9LaJQRCECcmEEcEJrEUnXCSJ5" ] },
      { "delegate": "tz1abmz7jiCV2GH2u81LRrGgAFFgvQgiDiaf",
        "reception_time": "2022-01-20T20:55:52.775-00:00",
        "included_in_blocks":
          [ "BLavLfJ7bi7QqZFwNwiB6n1wYc9LaJQRCECcmEEcEJrEUnXCSJ5" ] },
      { "delegate": "tz1UbFpJY5Hext38GisuaXQBkbzhaKJkxpEs",
        "reception_time": "2022-01-20T20:55:52.775-00:00",
        "included_in_blocks":
          [ "BLavLfJ7bi7QqZFwNwiB6n1wYc9LaJQRCECcmEEcEJrEUnXCSJ5" ] },
      { "delegate": "tz3UoffC7FG7zfpmvmjUmUeAaHvzdcUvAj6r",
        "reception_time": "2022-01-20T20:55:53.762-00:00",
        "included_in_blocks":
          [ "BLavLfJ7bi7QqZFwNwiB6n1wYc9LaJQRCECcmEEcEJrEUnXCSJ5" ] },
      { "delegate": "tz3RDC3Jdn4j15J7bBHZd29EUee9gVB1CxD9",
        "reception_time": "2022-01-20T20:55:52.775-00:00",
        "included_in_blocks":
          [ "BLavLfJ7bi7QqZFwNwiB6n1wYc9LaJQRCECcmEEcEJrEUnXCSJ5" ] },
      { "delegate": "tz1NdhRv643wLW6zCcRP3VfT24dvDnh7nuh9",
        "reception_time": "2022-01-20T20:55:52.151-00:00",
        "included_in_blocks":
          [ "BLavLfJ7bi7QqZFwNwiB6n1wYc9LaJQRCECcmEEcEJrEUnXCSJ5" ] },
      { "delegate": "tz3NExpXn9aPNZPorRE4SdjJ2RGrfbJgMAaV",
        "reception_time": "2022-01-20T20:55:53.079-00:00",
        "included_in_blocks":
          [ "BLavLfJ7bi7QqZFwNwiB6n1wYc9LaJQRCECcmEEcEJrEUnXCSJ5" ] },
      { "delegate": "tz1NEKxGEHsFufk87CVZcrqWu8o22qh46GK6",
        "reception_time": "2022-01-20T20:55:52.981-00:00",
        "included_in_blocks":
          [ "BLavLfJ7bi7QqZFwNwiB6n1wYc9LaJQRCECcmEEcEJrEUnXCSJ5" ] },
      { "delegate": "tz1Tnjaxk6tbAeC2TmMApPh8UsrEVQvhHvx5",
        "reception_time": "2022-01-20T20:55:52.775-00:00",
        "included_in_blocks":
          [ "BLavLfJ7bi7QqZFwNwiB6n1wYc9LaJQRCECcmEEcEJrEUnXCSJ5" ] },
      { "delegate": "tz1dRKU4FQ9QRRQPdaH4zCR6gmCmXfcvcgtB",
        "reception_time": "2022-01-20T20:55:52.151-00:00",
        "included_in_blocks":
          [ "BLavLfJ7bi7QqZFwNwiB6n1wYc9LaJQRCECcmEEcEJrEUnXCSJ5" ] },
      { "delegate": "tz1d6Fx42mYgVFnHUW8T8A7WBfJ6nD9pVok8",
        "reception_time": "2022-01-20T20:55:52.151-00:00",
        "included_in_blocks":
          [ "BLavLfJ7bi7QqZFwNwiB6n1wYc9LaJQRCECcmEEcEJrEUnXCSJ5" ] },
      { "delegate": "tz3bEQoFCZEEfZMskefZ8q8e4eiHH1pssRax",
        "reception_time": "2022-01-20T20:55:51.754-00:00",
        "included_in_blocks":
          [ "BLavLfJ7bi7QqZFwNwiB6n1wYc9LaJQRCECcmEEcEJrEUnXCSJ5" ] },
      { "delegate": "tz1WBfwbT66FC6BTLexc2BoyCCBM9LG7pnVW",
        "reception_time": "2022-01-20T20:55:52.151-00:00",
        "included_in_blocks":
          [ "BLavLfJ7bi7QqZFwNwiB6n1wYc9LaJQRCECcmEEcEJrEUnXCSJ5" ] },
      { "delegate": "tz1NortRftucvAkD1J58L32EhSVrQEWJCEnB",
        "reception_time": "2022-01-20T20:55:51.754-00:00",
        "included_in_blocks":
          [ "BLavLfJ7bi7QqZFwNwiB6n1wYc9LaJQRCECcmEEcEJrEUnXCSJ5" ] },
      { "delegate": "tz3WMqdzXqRWXwyvj5Hp2H7QEepaUuS7vd9K",
        "reception_time": "2022-01-20T20:55:52.775-00:00",
        "included_in_blocks":
          [ "BLavLfJ7bi7QqZFwNwiB6n1wYc9LaJQRCECcmEEcEJrEUnXCSJ5" ] },
      { "delegate": "tz1WnfXMPaNTBmH7DBPwqCWs9cPDJdkGBTZ8",
        "reception_time": "2022-01-20T20:55:51.754-00:00",
        "included_in_blocks":
          [ "BLavLfJ7bi7QqZFwNwiB6n1wYc9LaJQRCECcmEEcEJrEUnXCSJ5" ] },
      { "delegate": "tz3VEZ4k6a4Wx42iyev6i2aVAptTRLEAivNN",
        "reception_time": "2022-01-20T20:55:52.775-00:00",
        "included_in_blocks":
          [ "BLavLfJ7bi7QqZFwNwiB6n1wYc9LaJQRCECcmEEcEJrEUnXCSJ5" ] },
      { "delegate": "tz1XNwwM7GLWMS2s5oBHdG5rF2gwUNXjoDpt",
        "reception_time": "2022-01-20T20:55:51.754-00:00",
        "included_in_blocks":
          [ "BLavLfJ7bi7QqZFwNwiB6n1wYc9LaJQRCECcmEEcEJrEUnXCSJ5" ] },
      { "delegate": "tz3bTdwZinP8U1JmSweNzVKhmwafqWmFWRfk",
        "reception_time": "2022-01-20T20:55:51.754-00:00",
        "included_in_blocks":
          [ "BLavLfJ7bi7QqZFwNwiB6n1wYc9LaJQRCECcmEEcEJrEUnXCSJ5" ] },
      { "delegate": "tz1Nf6tsK4G6bBqgSQERy4nUtkHNKUVdh7q1",
        "reception_time": "2022-01-20T20:55:52.151-00:00",
        "included_in_blocks":
          [ "BLavLfJ7bi7QqZFwNwiB6n1wYc9LaJQRCECcmEEcEJrEUnXCSJ5" ] },
      { "delegate": "tz3iJu5vrKZcsqRPs8yJ61UDoeEXZmtro4qh",
        "reception_time": "2022-01-20T20:55:51.754-00:00",
        "included_in_blocks":
          [ "BLavLfJ7bi7QqZFwNwiB6n1wYc9LaJQRCECcmEEcEJrEUnXCSJ5" ] },
      { "delegate": "tz1gfArv665EUkSg2ojMBzcbfwuPxAvqPvjo",
        "reception_time": "2022-01-20T20:55:51.754-00:00",
        "included_in_blocks":
          [ "BLavLfJ7bi7QqZFwNwiB6n1wYc9LaJQRCECcmEEcEJrEUnXCSJ5" ] },
      { "delegate": "tz1LmaFsWRkjr7QMCx5PtV6xTUz3AmEpKQiF",
        "reception_time": "2022-01-20T20:55:52.151-00:00",
        "included_in_blocks":
          [ "BLavLfJ7bi7QqZFwNwiB6n1wYc9LaJQRCECcmEEcEJrEUnXCSJ5" ] },
      { "delegate": "tz3hw2kqXhLUvY65ca1eety2oQTpAvd34R9Q",
        "reception_time": "2022-01-20T20:55:51.754-00:00",
        "included_in_blocks":
          [ "BLavLfJ7bi7QqZFwNwiB6n1wYc9LaJQRCECcmEEcEJrEUnXCSJ5" ] },
      { "delegate": "tz1g8vkmcde6sWKaG2NN9WKzCkDM6Rziq194",
        "reception_time": "2022-01-20T20:55:51.754-00:00",
        "included_in_blocks":
          [ "BLavLfJ7bi7QqZFwNwiB6n1wYc9LaJQRCECcmEEcEJrEUnXCSJ5" ] },
      { "delegate": "tz3RKYFsLuQzKBtmYuLNas7uMu3AsYd4QdsA",
        "reception_time": "2022-01-20T20:55:51.754-00:00",
        "included_in_blocks":
          [ "BLavLfJ7bi7QqZFwNwiB6n1wYc9LaJQRCECcmEEcEJrEUnXCSJ5" ] },
      { "delegate": "tz3Zhs2dygr55yHyQyKjntAtY9bgfhLZ4Xj1",
        "reception_time": "2022-01-20T20:55:51.754-00:00",
        "included_in_blocks":
          [ "BLavLfJ7bi7QqZFwNwiB6n1wYc9LaJQRCECcmEEcEJrEUnXCSJ5" ] },
      { "delegate": "tz3RB4aoyjov4KEVRbuhvQ1CKJgBJMWhaeB8",
        "reception_time": "2022-01-20T20:55:51.754-00:00",
        "included_in_blocks":
          [ "BLavLfJ7bi7QqZFwNwiB6n1wYc9LaJQRCECcmEEcEJrEUnXCSJ5" ] },
      { "delegate": "tz1MJx9vhaNRSimcuXPK2rW4fLccQnDAnVKJ",
        "reception_time": "2022-01-20T20:55:51.754-00:00",
        "included_in_blocks":
          [ "BLavLfJ7bi7QqZFwNwiB6n1wYc9LaJQRCECcmEEcEJrEUnXCSJ5" ] },
      { "delegate": "tz1Lc87p6zRaDwzJs9kHvdpm7XzeWE8QTwVB",
        "reception_time": "2022-01-20T20:55:51.754-00:00",
        "included_in_blocks":
          [ "BLavLfJ7bi7QqZFwNwiB6n1wYc9LaJQRCECcmEEcEJrEUnXCSJ5" ] },
      { "delegate": "tz1ei4WtWEMEJekSv8qDnu9PExG6Q8HgRGr3",
        "reception_time": "2022-01-20T20:55:51.754-00:00",
        "included_in_blocks":
          [ "BLavLfJ7bi7QqZFwNwiB6n1wYc9LaJQRCECcmEEcEJrEUnXCSJ5" ] },
      { "delegate": "tz1MQMiZHV8q4tTwUMWmS5Y3kaP6J2136iXr",
        "reception_time": "2022-01-20T20:55:51.754-00:00",
        "included_in_blocks":
          [ "BLavLfJ7bi7QqZFwNwiB6n1wYc9LaJQRCECcmEEcEJrEUnXCSJ5" ] },
      { "delegate": "tz1KfEsrtDaA1sX7vdM4qmEPWuSytuqCDp5j",
        "reception_time": "2022-01-20T20:55:51.754-00:00",
        "included_in_blocks":
          [ "BLavLfJ7bi7QqZFwNwiB6n1wYc9LaJQRCECcmEEcEJrEUnXCSJ5" ] } ] }