{ "blocks":
    [ { "hash": "BLcUW67iqTC2derWyhe2u9ZcP6tLZoF5NyFQx7mW2QMbdEfVfbj",
        "delegate": "tz3QSGPoRp3Kn7n3vY24eYeu3Peuqo45LQ4D",
        "reception_time": "2022-01-20T17:36:28.396-00:00",
        "timestamp": "2022-01-20T17:36:20Z" } ],
  "endorsements":
    [ { "delegate": "tz1irJKkXS2DBWkU1NnmFQx1c1L7pbGg4yhk",
        "reception_time": "2022-01-20T17:36:31.250-00:00",
        "included_in_blocks":
          [ "BLtY95poRK8cT1RpfA8AYmC2y37BmaJhydjgJmRj89D3VM6gTog" ] },
      { "delegate": "tz1P2Po7YM526ughEsRbY4oR9zaUPDZjxFrb",
        "reception_time": "2022-01-20T17:36:31.250-00:00",
        "included_in_blocks":
          [ "BLtY95poRK8cT1RpfA8AYmC2y37BmaJhydjgJmRj89D3VM6gTog" ] },
      { "delegate": "tz1gUNyn3hmnEWqkusWPzxRaon1cs7ndWh7h",
        "reception_time": "2022-01-20T17:36:31.250-00:00",
        "included_in_blocks":
          [ "BLtY95poRK8cT1RpfA8AYmC2y37BmaJhydjgJmRj89D3VM6gTog" ] },
      { "delegate": "tz1VQnqCCqX4K5sP3FNkVSNKTdCAMJDd3E1n",
        "reception_time": "2022-01-20T17:36:31.250-00:00",
        "included_in_blocks":
          [ "BLtY95poRK8cT1RpfA8AYmC2y37BmaJhydjgJmRj89D3VM6gTog" ] },
      { "delegate": "tz1XfAjZyaLdceHnZxbMYop7g7kWKPut4PR7",
        "reception_time": "2022-01-20T17:36:31.250-00:00",
        "included_in_blocks":
          [ "BLtY95poRK8cT1RpfA8AYmC2y37BmaJhydjgJmRj89D3VM6gTog" ] },
      { "delegate": "tz1eEnQhbwf6trb8Q8mPb2RaPkNk2rN7BKi8",
        "reception_time": "2022-01-20T17:36:31.250-00:00",
        "included_in_blocks":
          [ "BLtY95poRK8cT1RpfA8AYmC2y37BmaJhydjgJmRj89D3VM6gTog" ] },
      { "delegate": "tz1Ldzz6k1BHdhuKvAtMRX7h5kJSMHESMHLC",
        "reception_time": "2022-01-20T17:36:31.250-00:00",
        "included_in_blocks":
          [ "BLtY95poRK8cT1RpfA8AYmC2y37BmaJhydjgJmRj89D3VM6gTog" ] },
      { "delegate": "tz1Lhf4J9Qxoe3DZ2nfe8FGDnvVj7oKjnMY6",
        "reception_time": "2022-01-20T17:36:31.250-00:00",
        "included_in_blocks":
          [ "BLtY95poRK8cT1RpfA8AYmC2y37BmaJhydjgJmRj89D3VM6gTog" ] },
      { "delegate": "tz1VmiY38m3y95HqQLjMwqnMS7sdMfGomzKi",
        "reception_time": "2022-01-20T17:36:31.659-00:00",
        "included_in_blocks":
          [ "BLtY95poRK8cT1RpfA8AYmC2y37BmaJhydjgJmRj89D3VM6gTog" ] },
      { "delegate": "tz1aXD7Jigrt3PBYSpHSg5Rr33SexMmmM5Ys",
        "reception_time": "2022-01-20T17:36:31.250-00:00",
        "included_in_blocks":
          [ "BLtY95poRK8cT1RpfA8AYmC2y37BmaJhydjgJmRj89D3VM6gTog" ] },
      { "delegate": "tz1bYemsZHPzL3qUkQ5Ao3bze5viTfd8v7Lj",
        "reception_time": "2022-01-20T17:36:31.659-00:00",
        "included_in_blocks":
          [ "BLtY95poRK8cT1RpfA8AYmC2y37BmaJhydjgJmRj89D3VM6gTog" ] },
      { "delegate": "tz1eDDuQBEgwvc6tbnnCVrnr12tvrd6gBTpx",
        "reception_time": "2022-01-20T17:36:31.250-00:00",
        "included_in_blocks":
          [ "BLtY95poRK8cT1RpfA8AYmC2y37BmaJhydjgJmRj89D3VM6gTog" ] },
      { "delegate": "tz1Mc61yajNASzh5KWZFtYs4i7EJbzAxQC4K",
        "reception_time": "2022-01-20T17:36:31.250-00:00",
        "included_in_blocks":
          [ "BLtY95poRK8cT1RpfA8AYmC2y37BmaJhydjgJmRj89D3VM6gTog" ] },
      { "delegate": "tz1TzaNn7wSQSP5gYPXCnNzBCpyMiidCq1PX",
        "reception_time": "2022-01-20T17:36:31.250-00:00",
        "included_in_blocks":
          [ "BLtY95poRK8cT1RpfA8AYmC2y37BmaJhydjgJmRj89D3VM6gTog" ] },
      { "delegate": "tz3QSGPoRp3Kn7n3vY24eYeu3Peuqo45LQ4D",
        "reception_time": "2022-01-20T17:36:31.659-00:00",
        "included_in_blocks":
          [ "BLtY95poRK8cT1RpfA8AYmC2y37BmaJhydjgJmRj89D3VM6gTog" ] },
      { "delegate": "tz3gtoUxdudfBRcNY7iVdKPHCYYX6xdPpoRS",
        "reception_time": "2022-01-20T17:36:31.250-00:00",
        "included_in_blocks":
          [ "BLtY95poRK8cT1RpfA8AYmC2y37BmaJhydjgJmRj89D3VM6gTog" ] },
      { "delegate": "tz1MJx9vhaNRSimcuXPK2rW4fLccQnDAnVKJ",
        "reception_time": "2022-01-20T17:36:31.659-00:00",
        "included_in_blocks":
          [ "BLtY95poRK8cT1RpfA8AYmC2y37BmaJhydjgJmRj89D3VM6gTog" ] },
      { "delegate": "tz1ei4WtWEMEJekSv8qDnu9PExG6Q8HgRGr3",
        "reception_time": "2022-01-20T17:36:31.659-00:00",
        "included_in_blocks":
          [ "BLtY95poRK8cT1RpfA8AYmC2y37BmaJhydjgJmRj89D3VM6gTog" ] },
      { "delegate": "tz1V4qCyvPKZ5UeqdH14HN42rxvNPQfc9UZg",
        "reception_time": "2022-01-20T17:36:31.659-00:00",
        "included_in_blocks":
          [ "BLtY95poRK8cT1RpfA8AYmC2y37BmaJhydjgJmRj89D3VM6gTog" ] },
      { "delegate": "tz1PWCDnz783NNGGQjEFFsHtrcK5yBW4E2rm",
        "reception_time": "2022-01-20T17:36:31.659-00:00",
        "included_in_blocks":
          [ "BLtY95poRK8cT1RpfA8AYmC2y37BmaJhydjgJmRj89D3VM6gTog" ] },
      { "delegate": "tz3NxTnke1acr8o3h5y9ytf5awQBGNJUKzVU",
        "reception_time": "2022-01-20T17:36:31.659-00:00",
        "included_in_blocks":
          [ "BLtY95poRK8cT1RpfA8AYmC2y37BmaJhydjgJmRj89D3VM6gTog" ] },
      { "delegate": "tz3hw2kqXhLUvY65ca1eety2oQTpAvd34R9Q",
        "reception_time": "2022-01-20T17:36:32.398-00:00",
        "included_in_blocks":
          [ "BLtY95poRK8cT1RpfA8AYmC2y37BmaJhydjgJmRj89D3VM6gTog" ] },
      { "delegate": "tz3ZbP2pM3nwvXztbuMJwJnDvV5xdpU8UkkD",
        "reception_time": "2022-01-20T17:36:32.359-00:00",
        "included_in_blocks":
          [ "BLtY95poRK8cT1RpfA8AYmC2y37BmaJhydjgJmRj89D3VM6gTog" ] },
      { "delegate": "tz3RKYFsLuQzKBtmYuLNas7uMu3AsYd4QdsA",
        "reception_time": "2022-01-20T17:36:31.659-00:00",
        "included_in_blocks":
          [ "BLtY95poRK8cT1RpfA8AYmC2y37BmaJhydjgJmRj89D3VM6gTog" ] },
      { "delegate": "tz3iJu5vrKZcsqRPs8yJ61UDoeEXZmtro4qh",
        "reception_time": "2022-01-20T17:36:31.659-00:00",
        "included_in_blocks":
          [ "BLtY95poRK8cT1RpfA8AYmC2y37BmaJhydjgJmRj89D3VM6gTog" ] },
      { "delegate": "tz3Zhs2dygr55yHyQyKjntAtY9bgfhLZ4Xj1",
        "reception_time": "2022-01-20T17:36:32.350-00:00",
        "included_in_blocks":
          [ "BLtY95poRK8cT1RpfA8AYmC2y37BmaJhydjgJmRj89D3VM6gTog" ] },
      { "delegate": "tz1KfEsrtDaA1sX7vdM4qmEPWuSytuqCDp5j",
        "reception_time": "2022-01-20T17:36:32.359-00:00",
        "included_in_blocks":
          [ "BLtY95poRK8cT1RpfA8AYmC2y37BmaJhydjgJmRj89D3VM6gTog" ] },
      { "delegate": "tz1gfArv665EUkSg2ojMBzcbfwuPxAvqPvjo",
        "reception_time": "2022-01-20T17:36:32.294-00:00",
        "included_in_blocks":
          [ "BLtY95poRK8cT1RpfA8AYmC2y37BmaJhydjgJmRj89D3VM6gTog" ] },
      { "delegate": "tz1UMCB2AHSTwG7YcGNr31CqYCtGN873royv",
        "reception_time": "2022-01-20T17:36:32.294-00:00",
        "included_in_blocks":
          [ "BLtY95poRK8cT1RpfA8AYmC2y37BmaJhydjgJmRj89D3VM6gTog" ] },
      { "delegate": "tz3e75hU4EhDU3ukyJueh5v6UvEHzGwkg3yC",
        "reception_time": "2022-01-20T17:36:31.659-00:00",
        "included_in_blocks":
          [ "BLtY95poRK8cT1RpfA8AYmC2y37BmaJhydjgJmRj89D3VM6gTog" ] },
      { "delegate": "tz1Nf6tsK4G6bBqgSQERy4nUtkHNKUVdh7q1",
        "reception_time": "2022-01-20T17:36:32.711-00:00",
        "included_in_blocks":
          [ "BLtY95poRK8cT1RpfA8AYmC2y37BmaJhydjgJmRj89D3VM6gTog" ] },
      { "delegate": "tz3QT9dHYKDqh563chVa6za8526ys1UKfRfL",
        "reception_time": "2022-01-20T17:36:32.700-00:00",
        "included_in_blocks":
          [ "BLtY95poRK8cT1RpfA8AYmC2y37BmaJhydjgJmRj89D3VM6gTog" ] },
      { "delegate": "tz1S8MNvuFEUsWgjHvi3AxibRBf388NhT1q2",
        "reception_time": "2022-01-20T17:36:32.368-00:00",
        "included_in_blocks":
          [ "BLtY95poRK8cT1RpfA8AYmC2y37BmaJhydjgJmRj89D3VM6gTog" ] },
      { "delegate": "tz3S6BBeKgJGXxvLyZ1xzXzMPn11nnFtq5L9",
        "reception_time": "2022-01-20T17:36:32.294-00:00",
        "included_in_blocks":
          [ "BLtY95poRK8cT1RpfA8AYmC2y37BmaJhydjgJmRj89D3VM6gTog" ] },
      { "delegate": "tz1SYq214SCBy9naR6cvycQsYcUGpBqQAE8d",
        "reception_time": "2022-01-20T17:36:32.398-00:00",
        "included_in_blocks":
          [ "BLtY95poRK8cT1RpfA8AYmC2y37BmaJhydjgJmRj89D3VM6gTog" ] },
      { "delegate": "tz1dwu9aYb7CRNq4Y2zAjipdjFuSVKhHS8vA",
        "reception_time": "2022-01-20T17:36:32.378-00:00",
        "included_in_blocks":
          [ "BLtY95poRK8cT1RpfA8AYmC2y37BmaJhydjgJmRj89D3VM6gTog" ] },
      { "delegate": "tz1TEc75UKXv4W5cwi14Na3NtqFD51yKQi7h",
        "reception_time": "2022-01-20T17:36:32.368-00:00",
        "included_in_blocks":
          [ "BLtY95poRK8cT1RpfA8AYmC2y37BmaJhydjgJmRj89D3VM6gTog" ] },
      { "delegate": "tz1fPKAtsYydh4f1wfWNfeNxWYu72TmM48fu",
        "reception_time": "2022-01-20T17:36:32.708-00:00",
        "included_in_blocks":
          [ "BLtY95poRK8cT1RpfA8AYmC2y37BmaJhydjgJmRj89D3VM6gTog" ] },
      { "delegate": "tz1XCJBHkDn2D9wjgXEJHMi2jTxg563XUunQ",
        "reception_time": "2022-01-20T17:36:32.385-00:00",
        "included_in_blocks":
          [ "BLtY95poRK8cT1RpfA8AYmC2y37BmaJhydjgJmRj89D3VM6gTog" ] },
      { "delegate": "tz1WBfwbT66FC6BTLexc2BoyCCBM9LG7pnVW",
        "reception_time": "2022-01-20T17:36:32.935-00:00",
        "included_in_blocks":
          [ "BLtY95poRK8cT1RpfA8AYmC2y37BmaJhydjgJmRj89D3VM6gTog" ] },
      { "delegate": "tz1NEKxGEHsFufk87CVZcrqWu8o22qh46GK6",
        "reception_time": "2022-01-20T17:36:32.941-00:00",
        "included_in_blocks":
          [ "BLtY95poRK8cT1RpfA8AYmC2y37BmaJhydjgJmRj89D3VM6gTog" ] },
      { "delegate": "tz3bTdwZinP8U1JmSweNzVKhmwafqWmFWRfk",
        "reception_time": "2022-01-20T17:36:33.156-00:00",
        "included_in_blocks":
          [ "BLtY95poRK8cT1RpfA8AYmC2y37BmaJhydjgJmRj89D3VM6gTog" ] },
      { "delegate": "tz3RB4aoyjov4KEVRbuhvQ1CKJgBJMWhaeB8",
        "reception_time": "2022-01-20T17:36:32.999-00:00",
        "included_in_blocks":
          [ "BLtY95poRK8cT1RpfA8AYmC2y37BmaJhydjgJmRj89D3VM6gTog" ] },
      { "delegate": "tz3RDC3Jdn4j15J7bBHZd29EUee9gVB1CxD9",
        "reception_time": "2022-01-20T17:36:33.143-00:00",
        "included_in_blocks":
          [ "BLtY95poRK8cT1RpfA8AYmC2y37BmaJhydjgJmRj89D3VM6gTog" ] },
      { "delegate": "tz1Tnjaxk6tbAeC2TmMApPh8UsrEVQvhHvx5",
        "reception_time": "2022-01-20T17:36:32.955-00:00",
        "included_in_blocks":
          [ "BLtY95poRK8cT1RpfA8AYmC2y37BmaJhydjgJmRj89D3VM6gTog" ] },
      { "delegate": "tz1WctSwL49BZtdWAQ75NY6vr4xsAx6oKdah",
        "reception_time": "2022-01-20T17:36:33.029-00:00",
        "included_in_blocks":
          [ "BLtY95poRK8cT1RpfA8AYmC2y37BmaJhydjgJmRj89D3VM6gTog" ] },
      { "delegate": "tz1LmaFsWRkjr7QMCx5PtV6xTUz3AmEpKQiF",
        "reception_time": "2022-01-20T17:36:33.164-00:00",
        "included_in_blocks":
          [ "BLtY95poRK8cT1RpfA8AYmC2y37BmaJhydjgJmRj89D3VM6gTog" ] },
      { "delegate": "tz1dRKU4FQ9QRRQPdaH4zCR6gmCmXfcvcgtB",
        "reception_time": "2022-01-20T17:36:33.156-00:00",
        "included_in_blocks":
          [ "BLtY95poRK8cT1RpfA8AYmC2y37BmaJhydjgJmRj89D3VM6gTog" ] },
      { "delegate": "tz1eVaNx3gCmG1EsLjijkmgAxdLYVf6Bf5Sq",
        "reception_time": "2022-01-20T17:36:33.433-00:00",
        "included_in_blocks":
          [ "BLtY95poRK8cT1RpfA8AYmC2y37BmaJhydjgJmRj89D3VM6gTog" ] },
      { "delegate": "tz1PeZx7FXy7QRuMREGXGxeipb24RsMMzUNe",
        "reception_time": "2022-01-20T17:36:33.460-00:00",
        "included_in_blocks":
          [ "BLtY95poRK8cT1RpfA8AYmC2y37BmaJhydjgJmRj89D3VM6gTog" ] },
      { "delegate": "tz2FCNBrERXtaTtNX6iimR1UJ5JSDxvdHM93",
        "reception_time": "2022-01-20T17:36:33.170-00:00",
        "included_in_blocks":
          [ "BLtY95poRK8cT1RpfA8AYmC2y37BmaJhydjgJmRj89D3VM6gTog" ] },
      { "delegate": "tz3UoffC7FG7zfpmvmjUmUeAaHvzdcUvAj6r",
        "reception_time": "2022-01-20T17:36:33.460-00:00",
        "included_in_blocks":
          [ "BLtY95poRK8cT1RpfA8AYmC2y37BmaJhydjgJmRj89D3VM6gTog" ] },
      { "delegate": "tz3WMqdzXqRWXwyvj5Hp2H7QEepaUuS7vd9K",
        "reception_time": "2022-01-20T17:36:33.469-00:00",
        "included_in_blocks":
          [ "BLtY95poRK8cT1RpfA8AYmC2y37BmaJhydjgJmRj89D3VM6gTog" ] },
      { "delegate": "tz1WnfXMPaNTBmH7DBPwqCWs9cPDJdkGBTZ8",
        "reception_time": "2022-01-20T17:36:33.331-00:00",
        "included_in_blocks":
          [ "BLtY95poRK8cT1RpfA8AYmC2y37BmaJhydjgJmRj89D3VM6gTog" ] },
      { "delegate": "tz1iPHM2Xx2hwmzcr1EG1zzrV6oKafVoA91m",
        "reception_time": "2022-01-20T17:36:33.168-00:00",
        "included_in_blocks":
          [ "BLtY95poRK8cT1RpfA8AYmC2y37BmaJhydjgJmRj89D3VM6gTog" ] },
      { "delegate": "tz1RCFbB9GpALpsZtu6J58sb74dm8qe6XBzv",
        "reception_time": "2022-01-20T17:36:33.027-00:00",
        "included_in_blocks":
          [ "BLtY95poRK8cT1RpfA8AYmC2y37BmaJhydjgJmRj89D3VM6gTog" ] },
      { "delegate": "tz3bvNMQ95vfAYtG8193ymshqjSvmxiCUuR5",
        "reception_time": "2022-01-20T17:36:33.451-00:00",
        "included_in_blocks":
          [ "BLtY95poRK8cT1RpfA8AYmC2y37BmaJhydjgJmRj89D3VM6gTog" ] },
      { "delegate": "tz3VEZ4k6a4Wx42iyev6i2aVAptTRLEAivNN",
        "reception_time": "2022-01-20T17:36:33.451-00:00",
        "included_in_blocks":
          [ "BLtY95poRK8cT1RpfA8AYmC2y37BmaJhydjgJmRj89D3VM6gTog" ] },
      { "delegate": "tz3NDpRj6WBrJPikcPVHRBEjWKxFw3c6eQPS",
        "reception_time": "2022-01-20T17:36:33.164-00:00",
        "included_in_blocks":
          [ "BLtY95poRK8cT1RpfA8AYmC2y37BmaJhydjgJmRj89D3VM6gTog" ] },
      { "delegate": "tz3gLTu4Yxj8tPAcriQVUdxv6BY9QyvzU1az",
        "reception_time": "2022-01-20T17:36:33.219-00:00",
        "included_in_blocks":
          [ "BLtY95poRK8cT1RpfA8AYmC2y37BmaJhydjgJmRj89D3VM6gTog" ] },
      { "delegate": "tz1cYufsxHXJcvANhvS55h3aY32a9BAFB494",
        "reception_time": "2022-01-20T17:36:33.474-00:00",
        "included_in_blocks":
          [ "BLtY95poRK8cT1RpfA8AYmC2y37BmaJhydjgJmRj89D3VM6gTog" ] },
      { "delegate": "tz1ZcTRk5uxD86EFEn1vvNffWWqJy7q5eVhc",
        "reception_time": "2022-01-20T17:36:33.173-00:00",
        "included_in_blocks":
          [ "BLtY95poRK8cT1RpfA8AYmC2y37BmaJhydjgJmRj89D3VM6gTog" ] },
      { "delegate": "tz3NExpXn9aPNZPorRE4SdjJ2RGrfbJgMAaV",
        "reception_time": "2022-01-20T17:36:33.641-00:00",
        "included_in_blocks":
          [ "BLtY95poRK8cT1RpfA8AYmC2y37BmaJhydjgJmRj89D3VM6gTog" ] },
      { "delegate": "tz1g8vkmcde6sWKaG2NN9WKzCkDM6Rziq194",
        "reception_time": "2022-01-20T17:36:34.043-00:00",
        "included_in_blocks":
          [ "BLtY95poRK8cT1RpfA8AYmC2y37BmaJhydjgJmRj89D3VM6gTog" ] },
      { "delegate": "tz1XhnCdVENzgko5x1MMswLHSoQbJ5NPwLZ6",
        "reception_time": "2022-01-20T17:36:34.242-00:00",
        "included_in_blocks":
          [ "BLtY95poRK8cT1RpfA8AYmC2y37BmaJhydjgJmRj89D3VM6gTog" ] },
      { "delegate": "tz1TcH4Nb3aHNDJ7CGZhU7jgAK1BkSP4Lxds",
        "reception_time": "2022-01-20T17:36:34.204-00:00",
        "included_in_blocks":
          [ "BLtY95poRK8cT1RpfA8AYmC2y37BmaJhydjgJmRj89D3VM6gTog" ] },
      { "delegate": "tz1SUgyRB8T5jXgXAwS33pgRHAKrafyg87Yc",
        "reception_time": "2022-01-20T17:36:35.718-00:00",
        "included_in_blocks":
          [ "BLtY95poRK8cT1RpfA8AYmC2y37BmaJhydjgJmRj89D3VM6gTog" ] },
      { "delegate": "tz1aoKwjRZjqnzdQwXeUtNqBvMWcpLmTk76m",
        "reception_time": "2022-01-20T17:36:37.377-00:00",
        "included_in_blocks":
          [ "BLtY95poRK8cT1RpfA8AYmC2y37BmaJhydjgJmRj89D3VM6gTog" ] },
      { "delegate": "tz1aRoaRhSpRYvFdyvgWLL6TGyRoGF51wDjM",
        "reception_time": "2022-01-20T17:36:37.356-00:00",
        "included_in_blocks":
          [ "BLtY95poRK8cT1RpfA8AYmC2y37BmaJhydjgJmRj89D3VM6gTog" ] },
      { "delegate": "tz1S8e9GgdZG78XJRB3NqabfWeM37GnhZMWQ",
        "reception_time": "2022-01-20T17:36:27.474-00:00",
        "errors":
          [ { "kind": "temporary",
              "id": "proto.011-PtHangz2.prefilter.outdated_endorsement" } ],
        "included_in_blocks":
          [ "BLtY95poRK8cT1RpfA8AYmC2y37BmaJhydjgJmRj89D3VM6gTog" ] },
      { "delegate": "tz1Scdr2HsZiQjc7bHMeBbmDRXYVvdhjJbBh",
        "reception_time": "2022-01-20T17:36:27.947-00:00",
        "errors":
          [ { "kind": "temporary",
              "id": "proto.011-PtHangz2.prefilter.outdated_endorsement" } ],
        "included_in_blocks":
          [ "BLtY95poRK8cT1RpfA8AYmC2y37BmaJhydjgJmRj89D3VM6gTog" ] },
      { "delegate": "tz1MXFrtZoaXckE41bjUCSjAjAap3AFDSr3N",
        "reception_time": "2022-01-20T17:36:28.314-00:00",
        "errors":
          [ { "kind": "temporary",
              "id": "proto.011-PtHangz2.prefilter.outdated_endorsement" } ],
        "included_in_blocks":
          [ "BLtY95poRK8cT1RpfA8AYmC2y37BmaJhydjgJmRj89D3VM6gTog" ] },
      { "delegate": "tz1awXW7wuXy21c66vBudMXQVAPgRnqqwgTH" },
      { "delegate": "tz1fUyqYH7H4pRHN1roWY17giXhy1RvxjgUV" },
      { "delegate": "tz1fwnfJNgiDACshK9avfRfFbMaXrs3ghoJa" },
      { "delegate": "tz1i3mhawFAgcB8JHaHwoUF6hdncwTAkLEn2" },
      { "delegate": "tz1NpWrAyDL9k2Lmnyxcgr9xuJakbBxdq7FB",
        "reception_time": "2022-01-20T17:36:54.617-00:00" } ] }