{ "blocks":
    [ { "hash": "BLk6Si7Q7kfMo7xinN25znR6gA5VLKEzZthpA6dyMGekpScSCHK",
        "delegate": "tz3QCNyySViKHmeSr45kzDxzchys7NiXCWoa",
        "reception_time": "2022-01-20T16:24:18.368-00:00",
        "timestamp": "2022-01-20T16:24:00Z" } ],
  "endorsements":
    [ { "delegate": "tz1go7f6mEQfT2xX2LuHAqgnRGN6c2zHPf5c",
        "reception_time": "2022-01-20T16:24:35.979-00:00" },
      { "delegate": "tz1QccGQsmt7WMnbVX9inJQgEuQGeMXddfjp",
        "reception_time": "2022-01-20T16:24:29.892-00:00",
        "included_in_blocks":
          [ "BLQFzTKYoyHFf6M17BUFvG5yWueuAj8PsTgkcEr6EJJ7PAsSdQ7" ] },
      { "delegate": "tz1aRoaRhSpRYvFdyvgWLL6TGyRoGF51wDjM",
        "reception_time": "2022-01-20T16:24:26.222-00:00",
        "included_in_blocks":
          [ "BLQFzTKYoyHFf6M17BUFvG5yWueuAj8PsTgkcEr6EJJ7PAsSdQ7" ] },
      { "delegate": "tz1bTpviNnyx2PXsNmGpCQTMQsGoYordkUoA",
        "reception_time": "2022-01-20T16:24:25.220-00:00",
        "included_in_blocks":
          [ "BLQFzTKYoyHFf6M17BUFvG5yWueuAj8PsTgkcEr6EJJ7PAsSdQ7" ] },
      { "delegate": "tz1TRqbYbUf2GyrjErf3hBzgBJPzW8y36qEs",
        "reception_time": "2022-01-20T16:24:24.047-00:00",
        "included_in_blocks":
          [ "BLQFzTKYoyHFf6M17BUFvG5yWueuAj8PsTgkcEr6EJJ7PAsSdQ7" ] },
      { "delegate": "tz1NoYvKjXTzTk54VpLxBfouJ33J8jwKPPvw",
        "reception_time": "2022-01-20T16:24:23.943-00:00",
        "included_in_blocks":
          [ "BLQFzTKYoyHFf6M17BUFvG5yWueuAj8PsTgkcEr6EJJ7PAsSdQ7" ] },
      { "delegate": "tz3RDC3Jdn4j15J7bBHZd29EUee9gVB1CxD9",
        "reception_time": "2022-01-20T16:24:23.363-00:00",
        "included_in_blocks":
          [ "BLQFzTKYoyHFf6M17BUFvG5yWueuAj8PsTgkcEr6EJJ7PAsSdQ7" ] },
      { "delegate": "tz3WMqdzXqRWXwyvj5Hp2H7QEepaUuS7vd9K",
        "reception_time": "2022-01-20T16:24:23.053-00:00",
        "included_in_blocks":
          [ "BLQFzTKYoyHFf6M17BUFvG5yWueuAj8PsTgkcEr6EJJ7PAsSdQ7" ] },
      { "delegate": "tz3NExpXn9aPNZPorRE4SdjJ2RGrfbJgMAaV",
        "reception_time": "2022-01-20T16:24:23.053-00:00",
        "included_in_blocks":
          [ "BLQFzTKYoyHFf6M17BUFvG5yWueuAj8PsTgkcEr6EJJ7PAsSdQ7" ] },
      { "delegate": "tz1ZcTRk5uxD86EFEn1vvNffWWqJy7q5eVhc",
        "reception_time": "2022-01-20T16:24:23.053-00:00",
        "included_in_blocks":
          [ "BLQFzTKYoyHFf6M17BUFvG5yWueuAj8PsTgkcEr6EJJ7PAsSdQ7" ] },
      { "delegate": "tz3bvNMQ95vfAYtG8193ymshqjSvmxiCUuR5",
        "reception_time": "2022-01-20T16:24:23.053-00:00",
        "included_in_blocks":
          [ "BLQFzTKYoyHFf6M17BUFvG5yWueuAj8PsTgkcEr6EJJ7PAsSdQ7" ] },
      { "delegate": "tz3VEZ4k6a4Wx42iyev6i2aVAptTRLEAivNN",
        "reception_time": "2022-01-20T16:24:23.053-00:00",
        "included_in_blocks":
          [ "BLQFzTKYoyHFf6M17BUFvG5yWueuAj8PsTgkcEr6EJJ7PAsSdQ7" ] },
      { "delegate": "tz1LmaFsWRkjr7QMCx5PtV6xTUz3AmEpKQiF",
        "reception_time": "2022-01-20T16:24:23.053-00:00",
        "included_in_blocks":
          [ "BLQFzTKYoyHFf6M17BUFvG5yWueuAj8PsTgkcEr6EJJ7PAsSdQ7" ] },
      { "delegate": "tz3NDpRj6WBrJPikcPVHRBEjWKxFw3c6eQPS",
        "reception_time": "2022-01-20T16:24:22.723-00:00",
        "included_in_blocks":
          [ "BLQFzTKYoyHFf6M17BUFvG5yWueuAj8PsTgkcEr6EJJ7PAsSdQ7" ] },
      { "delegate": "tz3gLTu4Yxj8tPAcriQVUdxv6BY9QyvzU1az",
        "reception_time": "2022-01-20T16:24:22.723-00:00",
        "included_in_blocks":
          [ "BLQFzTKYoyHFf6M17BUFvG5yWueuAj8PsTgkcEr6EJJ7PAsSdQ7" ] },
      { "delegate": "tz1g8vkmcde6sWKaG2NN9WKzCkDM6Rziq194",
        "reception_time": "2022-01-20T16:24:22.437-00:00",
        "included_in_blocks":
          [ "BLQFzTKYoyHFf6M17BUFvG5yWueuAj8PsTgkcEr6EJJ7PAsSdQ7" ] },
      { "delegate": "tz3UoffC7FG7zfpmvmjUmUeAaHvzdcUvAj6r",
        "reception_time": "2022-01-20T16:24:22.334-00:00",
        "included_in_blocks":
          [ "BLQFzTKYoyHFf6M17BUFvG5yWueuAj8PsTgkcEr6EJJ7PAsSdQ7" ] },
      { "delegate": "tz3RB4aoyjov4KEVRbuhvQ1CKJgBJMWhaeB8",
        "reception_time": "2022-01-20T16:24:22.334-00:00",
        "included_in_blocks":
          [ "BLQFzTKYoyHFf6M17BUFvG5yWueuAj8PsTgkcEr6EJJ7PAsSdQ7" ] },
      { "delegate": "tz1hAYfexyzPGG6RhZZMpDvAHifubsbb6kgn",
        "reception_time": "2022-01-20T16:24:22.334-00:00",
        "included_in_blocks":
          [ "BLQFzTKYoyHFf6M17BUFvG5yWueuAj8PsTgkcEr6EJJ7PAsSdQ7" ] },
      { "delegate": "tz2FCNBrERXtaTtNX6iimR1UJ5JSDxvdHM93",
        "reception_time": "2022-01-20T16:24:22.334-00:00",
        "included_in_blocks":
          [ "BLQFzTKYoyHFf6M17BUFvG5yWueuAj8PsTgkcEr6EJJ7PAsSdQ7" ] },
      { "delegate": "tz1SYq214SCBy9naR6cvycQsYcUGpBqQAE8d",
        "reception_time": "2022-01-20T16:24:22.334-00:00",
        "included_in_blocks":
          [ "BLQFzTKYoyHFf6M17BUFvG5yWueuAj8PsTgkcEr6EJJ7PAsSdQ7" ] },
      { "delegate": "tz1PeZx7FXy7QRuMREGXGxeipb24RsMMzUNe",
        "reception_time": "2022-01-20T16:24:22.334-00:00",
        "included_in_blocks":
          [ "BLQFzTKYoyHFf6M17BUFvG5yWueuAj8PsTgkcEr6EJJ7PAsSdQ7" ] },
      { "delegate": "tz1WBfwbT66FC6BTLexc2BoyCCBM9LG7pnVW",
        "reception_time": "2022-01-20T16:24:22.334-00:00",
        "included_in_blocks":
          [ "BLQFzTKYoyHFf6M17BUFvG5yWueuAj8PsTgkcEr6EJJ7PAsSdQ7" ] },
      { "delegate": "tz1dRKU4FQ9QRRQPdaH4zCR6gmCmXfcvcgtB",
        "reception_time": "2022-01-20T16:24:22.334-00:00",
        "included_in_blocks":
          [ "BLQFzTKYoyHFf6M17BUFvG5yWueuAj8PsTgkcEr6EJJ7PAsSdQ7" ] },
      { "delegate": "tz1NEKxGEHsFufk87CVZcrqWu8o22qh46GK6",
        "reception_time": "2022-01-20T16:24:22.334-00:00",
        "included_in_blocks":
          [ "BLQFzTKYoyHFf6M17BUFvG5yWueuAj8PsTgkcEr6EJJ7PAsSdQ7" ] },
      { "delegate": "tz1TRspM5SeZpaQUhzByXbEvqKF1vnCM2YTK",
        "reception_time": "2022-01-20T16:24:22.334-00:00",
        "included_in_blocks":
          [ "BLQFzTKYoyHFf6M17BUFvG5yWueuAj8PsTgkcEr6EJJ7PAsSdQ7" ] },
      { "delegate": "tz1S8MNvuFEUsWgjHvi3AxibRBf388NhT1q2",
        "reception_time": "2022-01-20T16:24:22.334-00:00",
        "included_in_blocks":
          [ "BLQFzTKYoyHFf6M17BUFvG5yWueuAj8PsTgkcEr6EJJ7PAsSdQ7" ] },
      { "delegate": "tz1SpU2P8EBQTAjxkdiTz3JAzZBj32w9Sb2Q",
        "reception_time": "2022-01-20T16:24:22.334-00:00",
        "included_in_blocks":
          [ "BLQFzTKYoyHFf6M17BUFvG5yWueuAj8PsTgkcEr6EJJ7PAsSdQ7" ] },
      { "delegate": "tz1gfArv665EUkSg2ojMBzcbfwuPxAvqPvjo",
        "reception_time": "2022-01-20T16:24:22.334-00:00",
        "included_in_blocks":
          [ "BLQFzTKYoyHFf6M17BUFvG5yWueuAj8PsTgkcEr6EJJ7PAsSdQ7" ] },
      { "delegate": "tz1RCFbB9GpALpsZtu6J58sb74dm8qe6XBzv",
        "reception_time": "2022-01-20T16:24:22.334-00:00",
        "included_in_blocks":
          [ "BLQFzTKYoyHFf6M17BUFvG5yWueuAj8PsTgkcEr6EJJ7PAsSdQ7" ] },
      { "delegate": "tz1Nf6tsK4G6bBqgSQERy4nUtkHNKUVdh7q1",
        "reception_time": "2022-01-20T16:24:22.334-00:00",
        "included_in_blocks":
          [ "BLQFzTKYoyHFf6M17BUFvG5yWueuAj8PsTgkcEr6EJJ7PAsSdQ7" ] },
      { "delegate": "tz3Zhs2dygr55yHyQyKjntAtY9bgfhLZ4Xj1",
        "reception_time": "2022-01-20T16:24:21.707-00:00",
        "included_in_blocks":
          [ "BLQFzTKYoyHFf6M17BUFvG5yWueuAj8PsTgkcEr6EJJ7PAsSdQ7" ] },
      { "delegate": "tz3S6BBeKgJGXxvLyZ1xzXzMPn11nnFtq5L9",
        "reception_time": "2022-01-20T16:24:21.707-00:00",
        "included_in_blocks":
          [ "BLQFzTKYoyHFf6M17BUFvG5yWueuAj8PsTgkcEr6EJJ7PAsSdQ7" ] },
      { "delegate": "tz3iJu5vrKZcsqRPs8yJ61UDoeEXZmtro4qh",
        "reception_time": "2022-01-20T16:24:21.707-00:00",
        "included_in_blocks":
          [ "BLQFzTKYoyHFf6M17BUFvG5yWueuAj8PsTgkcEr6EJJ7PAsSdQ7" ] },
      { "delegate": "tz3QT9dHYKDqh563chVa6za8526ys1UKfRfL",
        "reception_time": "2022-01-20T16:24:21.707-00:00",
        "included_in_blocks":
          [ "BLQFzTKYoyHFf6M17BUFvG5yWueuAj8PsTgkcEr6EJJ7PAsSdQ7" ] },
      { "delegate": "tz3QSGPoRp3Kn7n3vY24eYeu3Peuqo45LQ4D",
        "reception_time": "2022-01-20T16:24:21.707-00:00",
        "included_in_blocks":
          [ "BLQFzTKYoyHFf6M17BUFvG5yWueuAj8PsTgkcEr6EJJ7PAsSdQ7" ] },
      { "delegate": "tz1Tnjaxk6tbAeC2TmMApPh8UsrEVQvhHvx5",
        "reception_time": "2022-01-20T16:24:21.707-00:00",
        "included_in_blocks":
          [ "BLQFzTKYoyHFf6M17BUFvG5yWueuAj8PsTgkcEr6EJJ7PAsSdQ7" ] },
      { "delegate": "tz1UMCB2AHSTwG7YcGNr31CqYCtGN873royv",
        "reception_time": "2022-01-20T16:24:21.707-00:00",
        "included_in_blocks":
          [ "BLQFzTKYoyHFf6M17BUFvG5yWueuAj8PsTgkcEr6EJJ7PAsSdQ7" ] },
      { "delegate": "tz3bTdwZinP8U1JmSweNzVKhmwafqWmFWRfk",
        "reception_time": "2022-01-20T16:24:21.707-00:00",
        "included_in_blocks":
          [ "BLQFzTKYoyHFf6M17BUFvG5yWueuAj8PsTgkcEr6EJJ7PAsSdQ7" ] },
      { "delegate": "tz3gtoUxdudfBRcNY7iVdKPHCYYX6xdPpoRS",
        "reception_time": "2022-01-20T16:24:21.707-00:00",
        "included_in_blocks":
          [ "BLQFzTKYoyHFf6M17BUFvG5yWueuAj8PsTgkcEr6EJJ7PAsSdQ7" ] },
      { "delegate": "tz3NxTnke1acr8o3h5y9ytf5awQBGNJUKzVU",
        "reception_time": "2022-01-20T16:24:21.707-00:00",
        "included_in_blocks":
          [ "BLQFzTKYoyHFf6M17BUFvG5yWueuAj8PsTgkcEr6EJJ7PAsSdQ7" ] },
      { "delegate": "tz3ZbP2pM3nwvXztbuMJwJnDvV5xdpU8UkkD",
        "reception_time": "2022-01-20T16:24:21.707-00:00",
        "included_in_blocks":
          [ "BLQFzTKYoyHFf6M17BUFvG5yWueuAj8PsTgkcEr6EJJ7PAsSdQ7" ] },
      { "delegate": "tz1RQhNh7iB9CZA7i3ifTWNwiGYVffponfbB",
        "reception_time": "2022-01-20T16:24:21.707-00:00",
        "included_in_blocks":
          [ "BLQFzTKYoyHFf6M17BUFvG5yWueuAj8PsTgkcEr6EJJ7PAsSdQ7" ] },
      { "delegate": "tz3e75hU4EhDU3ukyJueh5v6UvEHzGwkg3yC",
        "reception_time": "2022-01-20T16:24:21.707-00:00",
        "included_in_blocks":
          [ "BLQFzTKYoyHFf6M17BUFvG5yWueuAj8PsTgkcEr6EJJ7PAsSdQ7" ] },
      { "delegate": "tz1WCd2jm4uSt4vntk4vSuUWoZQGhLcDuR9q",
        "reception_time": "2022-01-20T16:24:21.707-00:00",
        "included_in_blocks":
          [ "BLQFzTKYoyHFf6M17BUFvG5yWueuAj8PsTgkcEr6EJJ7PAsSdQ7" ] },
      { "delegate": "tz1KfEsrtDaA1sX7vdM4qmEPWuSytuqCDp5j",
        "reception_time": "2022-01-20T16:24:21.707-00:00",
        "included_in_blocks":
          [ "BLQFzTKYoyHFf6M17BUFvG5yWueuAj8PsTgkcEr6EJJ7PAsSdQ7" ] },
      { "delegate": "tz1beersuEDv8Z7ngQ825xfbaJNS2EhXnyHR",
        "reception_time": "2022-01-20T16:24:21.707-00:00",
        "included_in_blocks":
          [ "BLQFzTKYoyHFf6M17BUFvG5yWueuAj8PsTgkcEr6EJJ7PAsSdQ7" ] },
      { "delegate": "tz1ZPh7XfUaJXUDvkrBxmS1BjEM1i62hiPpM",
        "reception_time": "2022-01-20T16:24:21.707-00:00",
        "included_in_blocks":
          [ "BLQFzTKYoyHFf6M17BUFvG5yWueuAj8PsTgkcEr6EJJ7PAsSdQ7" ] },
      { "delegate": "tz1ei4WtWEMEJekSv8qDnu9PExG6Q8HgRGr3",
        "reception_time": "2022-01-20T16:24:21.707-00:00",
        "included_in_blocks":
          [ "BLQFzTKYoyHFf6M17BUFvG5yWueuAj8PsTgkcEr6EJJ7PAsSdQ7" ] },
      { "delegate": "tz1eEnQhbwf6trb8Q8mPb2RaPkNk2rN7BKi8",
        "reception_time": "2022-01-20T16:24:21.707-00:00",
        "included_in_blocks":
          [ "BLQFzTKYoyHFf6M17BUFvG5yWueuAj8PsTgkcEr6EJJ7PAsSdQ7" ] },
      { "delegate": "tz1VmiY38m3y95HqQLjMwqnMS7sdMfGomzKi",
        "reception_time": "2022-01-20T16:24:21.707-00:00",
        "included_in_blocks":
          [ "BLQFzTKYoyHFf6M17BUFvG5yWueuAj8PsTgkcEr6EJJ7PAsSdQ7" ] },
      { "delegate": "tz1aXD7Jigrt3PBYSpHSg5Rr33SexMmmM5Ys",
        "reception_time": "2022-01-20T16:24:21.707-00:00",
        "included_in_blocks":
          [ "BLQFzTKYoyHFf6M17BUFvG5yWueuAj8PsTgkcEr6EJJ7PAsSdQ7" ] },
      { "delegate": "tz3hw2kqXhLUvY65ca1eety2oQTpAvd34R9Q",
        "reception_time": "2022-01-20T16:24:21.707-00:00",
        "included_in_blocks":
          [ "BLQFzTKYoyHFf6M17BUFvG5yWueuAj8PsTgkcEr6EJJ7PAsSdQ7" ] },
      { "delegate": "tz3RKYFsLuQzKBtmYuLNas7uMu3AsYd4QdsA",
        "reception_time": "2022-01-20T16:24:21.707-00:00",
        "included_in_blocks":
          [ "BLQFzTKYoyHFf6M17BUFvG5yWueuAj8PsTgkcEr6EJJ7PAsSdQ7" ] },
      { "delegate": "tz1dbfppLAAxXZNtf2SDps7rch3qfUznKSoK" },
      { "delegate": "tz1cYufsxHXJcvANhvS55h3aY32a9BAFB494" },
      { "delegate": "tz1awXW7wuXy21c66vBudMXQVAPgRnqqwgTH" },
      { "delegate": "tz1aehDcppdSz7Af2PtXvNQtqpeMfvFFYFHf" },
      { "delegate": "tz1RjoHc98dBoqaH2jawF62XNKh7YsHwbkEv" },
      { "delegate": "tz1S8e9GgdZG78XJRB3NqabfWeM37GnhZMWQ",
        "reception_time": "2022-01-20T16:24:16.678-00:00",
        "errors":
          [ { "kind": "temporary",
              "id": "proto.011-PtHangz2.prefilter.outdated_endorsement" } ],
        "included_in_blocks":
          [ "BLQFzTKYoyHFf6M17BUFvG5yWueuAj8PsTgkcEr6EJJ7PAsSdQ7" ] },
      { "delegate": "tz1gUNyn3hmnEWqkusWPzxRaon1cs7ndWh7h",
        "reception_time": "2022-01-20T16:24:17.315-00:00",
        "errors":
          [ { "kind": "temporary",
              "id": "proto.011-PtHangz2.prefilter.outdated_endorsement" } ],
        "included_in_blocks":
          [ "BLQFzTKYoyHFf6M17BUFvG5yWueuAj8PsTgkcEr6EJJ7PAsSdQ7" ] },
      { "delegate": "tz1VQnqCCqX4K5sP3FNkVSNKTdCAMJDd3E1n",
        "reception_time": "2022-01-20T16:24:17.361-00:00",
        "errors":
          [ { "kind": "temporary",
              "id": "proto.011-PtHangz2.prefilter.outdated_endorsement" } ],
        "included_in_blocks":
          [ "BLQFzTKYoyHFf6M17BUFvG5yWueuAj8PsTgkcEr6EJJ7PAsSdQ7" ] },
      { "delegate": "tz1TXzyaKUA8wsWefdSnyaYFnV2M3vCV7er9",
        "reception_time": "2022-01-20T16:24:17.746-00:00",
        "errors":
          [ { "kind": "temporary",
              "id": "proto.011-PtHangz2.prefilter.outdated_endorsement" } ],
        "included_in_blocks":
          [ "BLQFzTKYoyHFf6M17BUFvG5yWueuAj8PsTgkcEr6EJJ7PAsSdQ7" ] },
      { "delegate": "tz1RV1MBbZMR68tacosb7Mwj6LkbPSUS1er1",
        "reception_time": "2022-01-20T16:24:17.780-00:00",
        "errors":
          [ { "kind": "temporary",
              "id": "proto.011-PtHangz2.prefilter.outdated_endorsement" } ],
        "included_in_blocks":
          [ "BLQFzTKYoyHFf6M17BUFvG5yWueuAj8PsTgkcEr6EJJ7PAsSdQ7" ] },
      { "delegate": "tz1MXFrtZoaXckE41bjUCSjAjAap3AFDSr3N",
        "reception_time": "2022-01-20T16:24:17.970-00:00",
        "errors":
          [ { "kind": "temporary",
              "id": "proto.011-PtHangz2.prefilter.outdated_endorsement" } ],
        "included_in_blocks":
          [ "BLQFzTKYoyHFf6M17BUFvG5yWueuAj8PsTgkcEr6EJJ7PAsSdQ7" ] },
      { "delegate": "tz1Ldzz6k1BHdhuKvAtMRX7h5kJSMHESMHLC",
        "reception_time": "2022-01-20T16:24:18.091-00:00",
        "errors":
          [ { "kind": "temporary",
              "id": "proto.011-PtHangz2.prefilter.outdated_endorsement" } ],
        "included_in_blocks":
          [ "BLQFzTKYoyHFf6M17BUFvG5yWueuAj8PsTgkcEr6EJJ7PAsSdQ7" ] },
      { "delegate": "tz1STeamwbp68THcny9zk3LsbG3H36DMvbRK",
        "reception_time": "2022-01-20T16:24:18.243-00:00",
        "errors":
          [ { "kind": "temporary",
              "id": "proto.011-PtHangz2.prefilter.outdated_endorsement" } ],
        "included_in_blocks":
          [ "BLQFzTKYoyHFf6M17BUFvG5yWueuAj8PsTgkcEr6EJJ7PAsSdQ7" ] },
      { "delegate": "tz1P2Po7YM526ughEsRbY4oR9zaUPDZjxFrb",
        "reception_time": "2022-01-20T16:24:18.307-00:00",
        "errors":
          [ { "kind": "temporary",
              "id": "proto.011-PtHangz2.prefilter.outdated_endorsement" } ],
        "included_in_blocks":
          [ "BLQFzTKYoyHFf6M17BUFvG5yWueuAj8PsTgkcEr6EJJ7PAsSdQ7" ] },
      { "delegate": "tz1irJKkXS2DBWkU1NnmFQx1c1L7pbGg4yhk",
        "reception_time": "2022-01-20T16:24:18.331-00:00",
        "errors":
          [ { "kind": "temporary",
              "id": "proto.011-PtHangz2.prefilter.outdated_endorsement" } ],
        "included_in_blocks":
          [ "BLQFzTKYoyHFf6M17BUFvG5yWueuAj8PsTgkcEr6EJJ7PAsSdQ7" ] },
      { "delegate": "tz1aqcYgG6NuViML5vdWhohHJBYxcDVLNUsE",
        "reception_time": "2022-01-20T16:24:18.331-00:00",
        "errors":
          [ { "kind": "temporary",
              "id": "proto.011-PtHangz2.prefilter.outdated_endorsement" } ],
        "included_in_blocks":
          [ "BLQFzTKYoyHFf6M17BUFvG5yWueuAj8PsTgkcEr6EJJ7PAsSdQ7" ] } ] }