{ "blocks":
    [ { "hash": "BLtaktbHzHmGmyMkqDUJ5DLMFUDJpJ61ya3ghQi1Q2ACS6TCDnP",
        "delegate": "tz1S8MNvuFEUsWgjHvi3AxibRBf388NhT1q2",
        "reception_time": "2022-01-20T14:54:40.349-00:00",
        "timestamp": "2022-01-20T14:54:30Z" } ],
  "endorsements":
    [ { "delegate": "tz1ibcPVGK4Y8pcW4BYUsojiHoBKnZbyDGrX" },
      { "delegate": "tz1dbfppLAAxXZNtf2SDps7rch3qfUznKSoK" },
      { "delegate": "tz1awXW7wuXy21c66vBudMXQVAPgRnqqwgTH" },
      { "delegate": "tz1Yjryh3tpFHQG73dofJNatR21KUdRDu7mH" },
      { "delegate": "tz1XhnCdVENzgko5x1MMswLHSoQbJ5NPwLZ6" },
      { "delegate": "tz1W5VkdB5s7ENMESVBtwyt9kyvLqPcUczRT" },
      { "delegate": "tz1RjoHc98dBoqaH2jawF62XNKh7YsHwbkEv" },
      { "delegate": "tz1RV1MBbZMR68tacosb7Mwj6LkbPSUS1er1",
        "reception_time": "2022-01-20T14:54:40.351-00:00",
        "errors":
          [ { "kind": "temporary",
              "id": "proto.011-PtHangz2.prefilter.outdated_endorsement" } ],
        "included_in_blocks":
          [ "BLgt2e7LmDcJg3rFfiEGHkVvCkh84ZqNzw9Bec35SvSDk3Fe2eN" ] },
      { "delegate": "tz1P2Po7YM526ughEsRbY4oR9zaUPDZjxFrb",
        "reception_time": "2022-01-20T14:54:39.998-00:00",
        "errors":
          [ { "kind": "temporary",
              "id": "proto.011-PtHangz2.prefilter.outdated_endorsement" } ],
        "included_in_blocks":
          [ "BLgt2e7LmDcJg3rFfiEGHkVvCkh84ZqNzw9Bec35SvSDk3Fe2eN" ] },
      { "delegate": "tz1VmiY38m3y95HqQLjMwqnMS7sdMfGomzKi",
        "reception_time": "2022-01-20T14:54:39.984-00:00",
        "errors":
          [ { "kind": "temporary",
              "id": "proto.011-PtHangz2.prefilter.outdated_endorsement" } ],
        "included_in_blocks":
          [ "BLgt2e7LmDcJg3rFfiEGHkVvCkh84ZqNzw9Bec35SvSDk3Fe2eN" ] },
      { "delegate": "tz1S8e9GgdZG78XJRB3NqabfWeM37GnhZMWQ",
        "reception_time": "2022-01-20T14:54:39.006-00:00",
        "errors":
          [ { "kind": "temporary",
              "id": "proto.011-PtHangz2.prefilter.outdated_endorsement" } ],
        "included_in_blocks":
          [ "BLgt2e7LmDcJg3rFfiEGHkVvCkh84ZqNzw9Bec35SvSDk3Fe2eN" ] },
      { "delegate": "tz1dfg9PkvRLf7hKMmGdGRhXWCbd8QgbwBF7",
        "reception_time": "2022-01-20T14:54:52.637-00:00",
        "included_in_blocks":
          [ "BLgt2e7LmDcJg3rFfiEGHkVvCkh84ZqNzw9Bec35SvSDk3Fe2eN" ] },
      { "delegate": "tz1aRoaRhSpRYvFdyvgWLL6TGyRoGF51wDjM",
        "reception_time": "2022-01-20T14:54:48.142-00:00",
        "included_in_blocks":
          [ "BLgt2e7LmDcJg3rFfiEGHkVvCkh84ZqNzw9Bec35SvSDk3Fe2eN" ] },
      { "delegate": "tz1g8vkmcde6sWKaG2NN9WKzCkDM6Rziq194",
        "reception_time": "2022-01-20T14:54:47.559-00:00",
        "included_in_blocks":
          [ "BLgt2e7LmDcJg3rFfiEGHkVvCkh84ZqNzw9Bec35SvSDk3Fe2eN" ] },
      { "delegate": "tz1bf816tUrSLYsWkUrsDFH9kkbpg3oXjriR",
        "reception_time": "2022-01-20T14:54:46.702-00:00",
        "included_in_blocks":
          [ "BLgt2e7LmDcJg3rFfiEGHkVvCkh84ZqNzw9Bec35SvSDk3Fe2eN" ] },
      { "delegate": "tz1SohptP53wDPZhzTWzDUFAUcWF6DMBpaJV",
        "reception_time": "2022-01-20T14:54:45.679-00:00",
        "included_in_blocks":
          [ "BLgt2e7LmDcJg3rFfiEGHkVvCkh84ZqNzw9Bec35SvSDk3Fe2eN" ] },
      { "delegate": "tz3bvNMQ95vfAYtG8193ymshqjSvmxiCUuR5",
        "reception_time": "2022-01-20T14:54:45.045-00:00",
        "included_in_blocks":
          [ "BLgt2e7LmDcJg3rFfiEGHkVvCkh84ZqNzw9Bec35SvSDk3Fe2eN" ] },
      { "delegate": "tz3RDC3Jdn4j15J7bBHZd29EUee9gVB1CxD9",
        "reception_time": "2022-01-20T14:54:45.020-00:00",
        "included_in_blocks":
          [ "BLgt2e7LmDcJg3rFfiEGHkVvCkh84ZqNzw9Bec35SvSDk3Fe2eN" ] },
      { "delegate": "tz1cYufsxHXJcvANhvS55h3aY32a9BAFB494",
        "reception_time": "2022-01-20T14:54:44.117-00:00",
        "included_in_blocks":
          [ "BLgt2e7LmDcJg3rFfiEGHkVvCkh84ZqNzw9Bec35SvSDk3Fe2eN" ] },
      { "delegate": "tz3RB4aoyjov4KEVRbuhvQ1CKJgBJMWhaeB8",
        "reception_time": "2022-01-20T14:54:44.200-00:00",
        "included_in_blocks":
          [ "BLgt2e7LmDcJg3rFfiEGHkVvCkh84ZqNzw9Bec35SvSDk3Fe2eN" ] },
      { "delegate": "tz1WnfXMPaNTBmH7DBPwqCWs9cPDJdkGBTZ8",
        "reception_time": "2022-01-20T14:54:44.017-00:00",
        "included_in_blocks":
          [ "BLgt2e7LmDcJg3rFfiEGHkVvCkh84ZqNzw9Bec35SvSDk3Fe2eN" ] },
      { "delegate": "tz3QCNyySViKHmeSr45kzDxzchys7NiXCWoa",
        "reception_time": "2022-01-20T14:54:44.017-00:00",
        "included_in_blocks":
          [ "BLgt2e7LmDcJg3rFfiEGHkVvCkh84ZqNzw9Bec35SvSDk3Fe2eN" ] },
      { "delegate": "tz3NExpXn9aPNZPorRE4SdjJ2RGrfbJgMAaV",
        "reception_time": "2022-01-20T14:54:44.073-00:00",
        "included_in_blocks":
          [ "BLgt2e7LmDcJg3rFfiEGHkVvCkh84ZqNzw9Bec35SvSDk3Fe2eN" ] },
      { "delegate": "tz1abmz7jiCV2GH2u81LRrGgAFFgvQgiDiaf",
        "reception_time": "2022-01-20T14:54:44.017-00:00",
        "included_in_blocks":
          [ "BLgt2e7LmDcJg3rFfiEGHkVvCkh84ZqNzw9Bec35SvSDk3Fe2eN" ] },
      { "delegate": "tz1ZcTRk5uxD86EFEn1vvNffWWqJy7q5eVhc",
        "reception_time": "2022-01-20T14:54:44.017-00:00",
        "included_in_blocks":
          [ "BLgt2e7LmDcJg3rFfiEGHkVvCkh84ZqNzw9Bec35SvSDk3Fe2eN" ] },
      { "delegate": "tz1PeZx7FXy7QRuMREGXGxeipb24RsMMzUNe",
        "reception_time": "2022-01-20T14:54:44.017-00:00",
        "included_in_blocks":
          [ "BLgt2e7LmDcJg3rFfiEGHkVvCkh84ZqNzw9Bec35SvSDk3Fe2eN" ] },
      { "delegate": "tz1T7duV5gZWSTq4YpBGbXNLTfznCLDrFxvs",
        "reception_time": "2022-01-20T14:54:44.017-00:00",
        "included_in_blocks":
          [ "BLgt2e7LmDcJg3rFfiEGHkVvCkh84ZqNzw9Bec35SvSDk3Fe2eN" ] },
      { "delegate": "tz1NdhRv643wLW6zCcRP3VfT24dvDnh7nuh9",
        "reception_time": "2022-01-20T14:54:43.455-00:00",
        "included_in_blocks":
          [ "BLgt2e7LmDcJg3rFfiEGHkVvCkh84ZqNzw9Bec35SvSDk3Fe2eN" ] },
      { "delegate": "tz1SYq214SCBy9naR6cvycQsYcUGpBqQAE8d",
        "reception_time": "2022-01-20T14:54:44.017-00:00",
        "included_in_blocks":
          [ "BLgt2e7LmDcJg3rFfiEGHkVvCkh84ZqNzw9Bec35SvSDk3Fe2eN" ] },
      { "delegate": "tz1WctSwL49BZtdWAQ75NY6vr4xsAx6oKdah",
        "reception_time": "2022-01-20T14:54:44.017-00:00",
        "included_in_blocks":
          [ "BLgt2e7LmDcJg3rFfiEGHkVvCkh84ZqNzw9Bec35SvSDk3Fe2eN" ] },
      { "delegate": "tz3S6BBeKgJGXxvLyZ1xzXzMPn11nnFtq5L9",
        "reception_time": "2022-01-20T14:54:43.455-00:00",
        "included_in_blocks":
          [ "BLgt2e7LmDcJg3rFfiEGHkVvCkh84ZqNzw9Bec35SvSDk3Fe2eN" ] },
      { "delegate": "tz3bTdwZinP8U1JmSweNzVKhmwafqWmFWRfk",
        "reception_time": "2022-01-20T14:54:43.455-00:00",
        "included_in_blocks":
          [ "BLgt2e7LmDcJg3rFfiEGHkVvCkh84ZqNzw9Bec35SvSDk3Fe2eN" ] },
      { "delegate": "tz3QT9dHYKDqh563chVa6za8526ys1UKfRfL",
        "reception_time": "2022-01-20T14:54:43.455-00:00",
        "included_in_blocks":
          [ "BLgt2e7LmDcJg3rFfiEGHkVvCkh84ZqNzw9Bec35SvSDk3Fe2eN" ] },
      { "delegate": "tz3UoffC7FG7zfpmvmjUmUeAaHvzdcUvAj6r",
        "reception_time": "2022-01-20T14:54:44.017-00:00",
        "included_in_blocks":
          [ "BLgt2e7LmDcJg3rFfiEGHkVvCkh84ZqNzw9Bec35SvSDk3Fe2eN" ] },
      { "delegate": "tz3VEZ4k6a4Wx42iyev6i2aVAptTRLEAivNN",
        "reception_time": "2022-01-20T14:54:44.017-00:00",
        "included_in_blocks":
          [ "BLgt2e7LmDcJg3rFfiEGHkVvCkh84ZqNzw9Bec35SvSDk3Fe2eN" ] },
      { "delegate": "tz2FCNBrERXtaTtNX6iimR1UJ5JSDxvdHM93",
        "reception_time": "2022-01-20T14:54:43.455-00:00",
        "included_in_blocks":
          [ "BLgt2e7LmDcJg3rFfiEGHkVvCkh84ZqNzw9Bec35SvSDk3Fe2eN" ] },
      { "delegate": "tz1TRqbYbUf2GyrjErf3hBzgBJPzW8y36qEs",
        "reception_time": "2022-01-20T14:54:44.017-00:00",
        "included_in_blocks":
          [ "BLgt2e7LmDcJg3rFfiEGHkVvCkh84ZqNzw9Bec35SvSDk3Fe2eN" ] },
      { "delegate": "tz3WMqdzXqRWXwyvj5Hp2H7QEepaUuS7vd9K",
        "reception_time": "2022-01-20T14:54:44.017-00:00",
        "included_in_blocks":
          [ "BLgt2e7LmDcJg3rFfiEGHkVvCkh84ZqNzw9Bec35SvSDk3Fe2eN" ] },
      { "delegate": "tz1dRKU4FQ9QRRQPdaH4zCR6gmCmXfcvcgtB",
        "reception_time": "2022-01-20T14:54:43.455-00:00",
        "included_in_blocks":
          [ "BLgt2e7LmDcJg3rFfiEGHkVvCkh84ZqNzw9Bec35SvSDk3Fe2eN" ] },
      { "delegate": "tz1QXrzaHrGACVn15UiCg33aLCJ6npWdQb3J",
        "reception_time": "2022-01-20T14:54:43.455-00:00",
        "included_in_blocks":
          [ "BLgt2e7LmDcJg3rFfiEGHkVvCkh84ZqNzw9Bec35SvSDk3Fe2eN" ] },
      { "delegate": "tz1WBfwbT66FC6BTLexc2BoyCCBM9LG7pnVW",
        "reception_time": "2022-01-20T14:54:43.455-00:00",
        "included_in_blocks":
          [ "BLgt2e7LmDcJg3rFfiEGHkVvCkh84ZqNzw9Bec35SvSDk3Fe2eN" ] },
      { "delegate": "tz3gtoUxdudfBRcNY7iVdKPHCYYX6xdPpoRS",
        "reception_time": "2022-01-20T14:54:43.455-00:00",
        "included_in_blocks":
          [ "BLgt2e7LmDcJg3rFfiEGHkVvCkh84ZqNzw9Bec35SvSDk3Fe2eN" ] },
      { "delegate": "tz3QSGPoRp3Kn7n3vY24eYeu3Peuqo45LQ4D",
        "reception_time": "2022-01-20T14:54:43.455-00:00",
        "included_in_blocks":
          [ "BLgt2e7LmDcJg3rFfiEGHkVvCkh84ZqNzw9Bec35SvSDk3Fe2eN" ] },
      { "delegate": "tz3Zhs2dygr55yHyQyKjntAtY9bgfhLZ4Xj1",
        "reception_time": "2022-01-20T14:54:43.455-00:00",
        "included_in_blocks":
          [ "BLgt2e7LmDcJg3rFfiEGHkVvCkh84ZqNzw9Bec35SvSDk3Fe2eN" ] },
      { "delegate": "tz3iJu5vrKZcsqRPs8yJ61UDoeEXZmtro4qh",
        "reception_time": "2022-01-20T14:54:43.455-00:00",
        "included_in_blocks":
          [ "BLgt2e7LmDcJg3rFfiEGHkVvCkh84ZqNzw9Bec35SvSDk3Fe2eN" ] },
      { "delegate": "tz3NxTnke1acr8o3h5y9ytf5awQBGNJUKzVU",
        "reception_time": "2022-01-20T14:54:43.455-00:00",
        "included_in_blocks":
          [ "BLgt2e7LmDcJg3rFfiEGHkVvCkh84ZqNzw9Bec35SvSDk3Fe2eN" ] },
      { "delegate": "tz3ZbP2pM3nwvXztbuMJwJnDvV5xdpU8UkkD",
        "reception_time": "2022-01-20T14:54:43.455-00:00",
        "included_in_blocks":
          [ "BLgt2e7LmDcJg3rFfiEGHkVvCkh84ZqNzw9Bec35SvSDk3Fe2eN" ] },
      { "delegate": "tz1cYqRcjRXSWcs3bjehN21VmBAH2aFMg6Ds",
        "reception_time": "2022-01-20T14:54:43.455-00:00",
        "included_in_blocks":
          [ "BLgt2e7LmDcJg3rFfiEGHkVvCkh84ZqNzw9Bec35SvSDk3Fe2eN" ] },
      { "delegate": "tz1RQhNh7iB9CZA7i3ifTWNwiGYVffponfbB",
        "reception_time": "2022-01-20T14:54:43.455-00:00",
        "included_in_blocks":
          [ "BLgt2e7LmDcJg3rFfiEGHkVvCkh84ZqNzw9Bec35SvSDk3Fe2eN" ] },
      { "delegate": "tz3hw2kqXhLUvY65ca1eety2oQTpAvd34R9Q",
        "reception_time": "2022-01-20T14:54:43.455-00:00",
        "included_in_blocks":
          [ "BLgt2e7LmDcJg3rFfiEGHkVvCkh84ZqNzw9Bec35SvSDk3Fe2eN" ] },
      { "delegate": "tz1RCFbB9GpALpsZtu6J58sb74dm8qe6XBzv",
        "reception_time": "2022-01-20T14:54:43.455-00:00",
        "included_in_blocks":
          [ "BLgt2e7LmDcJg3rFfiEGHkVvCkh84ZqNzw9Bec35SvSDk3Fe2eN" ] },
      { "delegate": "tz3RKYFsLuQzKBtmYuLNas7uMu3AsYd4QdsA",
        "reception_time": "2022-01-20T14:54:43.455-00:00",
        "included_in_blocks":
          [ "BLgt2e7LmDcJg3rFfiEGHkVvCkh84ZqNzw9Bec35SvSDk3Fe2eN" ] },
      { "delegate": "tz1MJx9vhaNRSimcuXPK2rW4fLccQnDAnVKJ",
        "reception_time": "2022-01-20T14:54:43.455-00:00",
        "included_in_blocks":
          [ "BLgt2e7LmDcJg3rFfiEGHkVvCkh84ZqNzw9Bec35SvSDk3Fe2eN" ] },
      { "delegate": "tz1bZ8vsMAXmaWEV7FRnyhcuUs2fYMaQ6Hkk",
        "reception_time": "2022-01-20T14:54:43.455-00:00",
        "included_in_blocks":
          [ "BLgt2e7LmDcJg3rFfiEGHkVvCkh84ZqNzw9Bec35SvSDk3Fe2eN" ] },
      { "delegate": "tz1Tnjaxk6tbAeC2TmMApPh8UsrEVQvhHvx5",
        "reception_time": "2022-01-20T14:54:43.455-00:00",
        "included_in_blocks":
          [ "BLgt2e7LmDcJg3rFfiEGHkVvCkh84ZqNzw9Bec35SvSDk3Fe2eN" ] },
      { "delegate": "tz1gfArv665EUkSg2ojMBzcbfwuPxAvqPvjo",
        "reception_time": "2022-01-20T14:54:43.455-00:00",
        "included_in_blocks":
          [ "BLgt2e7LmDcJg3rFfiEGHkVvCkh84ZqNzw9Bec35SvSDk3Fe2eN" ] },
      { "delegate": "tz1ei4WtWEMEJekSv8qDnu9PExG6Q8HgRGr3",
        "reception_time": "2022-01-20T14:54:43.455-00:00",
        "included_in_blocks":
          [ "BLgt2e7LmDcJg3rFfiEGHkVvCkh84ZqNzw9Bec35SvSDk3Fe2eN" ] },
      { "delegate": "tz1KfEsrtDaA1sX7vdM4qmEPWuSytuqCDp5j",
        "reception_time": "2022-01-20T14:54:43.455-00:00",
        "included_in_blocks":
          [ "BLgt2e7LmDcJg3rFfiEGHkVvCkh84ZqNzw9Bec35SvSDk3Fe2eN" ] },
      { "delegate": "tz1RHgE6W7SnPdwqL1SAtGWEdynA7HeTbpbN",
        "reception_time": "2022-01-20T14:54:43.455-00:00",
        "included_in_blocks":
          [ "BLgt2e7LmDcJg3rFfiEGHkVvCkh84ZqNzw9Bec35SvSDk3Fe2eN" ] },
      { "delegate": "tz1axcnVN9tZnCe4sQQhC6f3tfSEXdjPaXPY",
        "reception_time": "2022-01-20T14:54:43.455-00:00",
        "included_in_blocks":
          [ "BLgt2e7LmDcJg3rFfiEGHkVvCkh84ZqNzw9Bec35SvSDk3Fe2eN" ] },
      { "delegate": "tz1cSj7fTex3JPd1p1LN1fwek6AV1kH93Wwc",
        "reception_time": "2022-01-20T14:54:43.455-00:00",
        "included_in_blocks":
          [ "BLgt2e7LmDcJg3rFfiEGHkVvCkh84ZqNzw9Bec35SvSDk3Fe2eN" ] },
      { "delegate": "tz1Kf25fX1VdmYGSEzwFy1wNmkbSEZ2V83sY",
        "reception_time": "2022-01-20T14:54:43.455-00:00",
        "included_in_blocks":
          [ "BLgt2e7LmDcJg3rFfiEGHkVvCkh84ZqNzw9Bec35SvSDk3Fe2eN" ] },
      { "delegate": "tz1dNVDWPf3Q59SdJqnjdnu277iyvReiRS9M",
        "reception_time": "2022-01-20T14:54:43.455-00:00",
        "included_in_blocks":
          [ "BLgt2e7LmDcJg3rFfiEGHkVvCkh84ZqNzw9Bec35SvSDk3Fe2eN" ] },
      { "delegate": "tz1PWCDnz783NNGGQjEFFsHtrcK5yBW4E2rm",
        "reception_time": "2022-01-20T14:54:43.455-00:00",
        "included_in_blocks":
          [ "BLgt2e7LmDcJg3rFfiEGHkVvCkh84ZqNzw9Bec35SvSDk3Fe2eN" ] },
      { "delegate": "tz1beersuEDv8Z7ngQ825xfbaJNS2EhXnyHR",
        "reception_time": "2022-01-20T14:54:43.455-00:00",
        "included_in_blocks":
          [ "BLgt2e7LmDcJg3rFfiEGHkVvCkh84ZqNzw9Bec35SvSDk3Fe2eN" ] },
      { "delegate": "tz1fPKAtsYydh4f1wfWNfeNxWYu72TmM48fu",
        "reception_time": "2022-01-20T14:54:43.455-00:00",
        "included_in_blocks":
          [ "BLgt2e7LmDcJg3rFfiEGHkVvCkh84ZqNzw9Bec35SvSDk3Fe2eN" ] },
      { "delegate": "tz1Ldzz6k1BHdhuKvAtMRX7h5kJSMHESMHLC",
        "reception_time": "2022-01-20T14:54:43.455-00:00",
        "included_in_blocks":
          [ "BLgt2e7LmDcJg3rFfiEGHkVvCkh84ZqNzw9Bec35SvSDk3Fe2eN" ] },
      { "delegate": "tz1eEnQhbwf6trb8Q8mPb2RaPkNk2rN7BKi8",
        "reception_time": "2022-01-20T14:54:43.455-00:00",
        "included_in_blocks":
          [ "BLgt2e7LmDcJg3rFfiEGHkVvCkh84ZqNzw9Bec35SvSDk3Fe2eN" ] },
      { "delegate": "tz1Nf6tsK4G6bBqgSQERy4nUtkHNKUVdh7q1",
        "reception_time": "2022-01-20T14:54:43.455-00:00",
        "included_in_blocks":
          [ "BLgt2e7LmDcJg3rFfiEGHkVvCkh84ZqNzw9Bec35SvSDk3Fe2eN" ] },
      { "delegate": "tz1TEc75UKXv4W5cwi14Na3NtqFD51yKQi7h",
        "reception_time": "2022-01-20T14:54:43.455-00:00",
        "included_in_blocks":
          [ "BLgt2e7LmDcJg3rFfiEGHkVvCkh84ZqNzw9Bec35SvSDk3Fe2eN" ] },
      { "delegate": "tz1VQnqCCqX4K5sP3FNkVSNKTdCAMJDd3E1n",
        "reception_time": "2022-01-20T14:54:43.066-00:00",
        "included_in_blocks":
          [ "BLgt2e7LmDcJg3rFfiEGHkVvCkh84ZqNzw9Bec35SvSDk3Fe2eN" ] },
      { "delegate": "tz1gUNyn3hmnEWqkusWPzxRaon1cs7ndWh7h",
        "reception_time": "2022-01-20T14:54:43.455-00:00",
        "included_in_blocks":
          [ "BLgt2e7LmDcJg3rFfiEGHkVvCkh84ZqNzw9Bec35SvSDk3Fe2eN" ] },
      { "delegate": "tz1irJKkXS2DBWkU1NnmFQx1c1L7pbGg4yhk",
        "reception_time": "2022-01-20T14:54:43.455-00:00",
        "included_in_blocks":
          [ "BLgt2e7LmDcJg3rFfiEGHkVvCkh84ZqNzw9Bec35SvSDk3Fe2eN" ] },
      { "delegate": "tz1MQJPGNMijnXnVoBENFz9rUhaPt3S7rWoz",
        "reception_time": "2022-01-20T14:54:43.455-00:00",
        "included_in_blocks":
          [ "BLgt2e7LmDcJg3rFfiEGHkVvCkh84ZqNzw9Bec35SvSDk3Fe2eN" ] },
      { "delegate": "tz1aXD7Jigrt3PBYSpHSg5Rr33SexMmmM5Ys",
        "reception_time": "2022-01-20T14:54:43.455-00:00",
        "included_in_blocks":
          [ "BLgt2e7LmDcJg3rFfiEGHkVvCkh84ZqNzw9Bec35SvSDk3Fe2eN" ] },
      { "delegate": "tz1S8MNvuFEUsWgjHvi3AxibRBf388NhT1q2",
        "reception_time": "2022-01-20T14:54:43.455-00:00",
        "included_in_blocks":
          [ "BLgt2e7LmDcJg3rFfiEGHkVvCkh84ZqNzw9Bec35SvSDk3Fe2eN" ] } ] }