{ "blocks":
    [ { "hash": "BMZ2hzNYNjTsY5WKcmKFgKS4nozGmLa1G8nTLYtw7PvGVk14nL1",
        "delegate": "tz1gfArv665EUkSg2ojMBzcbfwuPxAvqPvjo",
        "reception_time": "2022-01-20T19:21:18.755-00:00",
        "timestamp": "2022-01-20T19:21:10Z" } ],
  "endorsements":
    [ { "delegate": "tz1RV1MBbZMR68tacosb7Mwj6LkbPSUS1er1",
        "reception_time": "2022-01-20T19:21:18.686-00:00",
        "errors":
          [ { "kind": "temporary",
              "id": "proto.011-PtHangz2.prefilter.outdated_endorsement" } ],
        "included_in_blocks":
          [ "BLcF7cpWVRxm334mU2QX1cEMuvvEVZVKibhDWSaRgbN8eymHkU3" ] },
      { "delegate": "tz1P2Po7YM526ughEsRbY4oR9zaUPDZjxFrb",
        "reception_time": "2022-01-20T19:21:18.605-00:00",
        "errors":
          [ { "kind": "temporary",
              "id": "proto.011-PtHangz2.prefilter.outdated_endorsement" } ],
        "included_in_blocks":
          [ "BLcF7cpWVRxm334mU2QX1cEMuvvEVZVKibhDWSaRgbN8eymHkU3" ] },
      { "delegate": "tz1S8e9GgdZG78XJRB3NqabfWeM37GnhZMWQ",
        "reception_time": "2022-01-20T19:21:18.344-00:00",
        "errors":
          [ { "kind": "temporary",
              "id": "proto.011-PtHangz2.prefilter.outdated_endorsement" } ],
        "included_in_blocks":
          [ "BLcF7cpWVRxm334mU2QX1cEMuvvEVZVKibhDWSaRgbN8eymHkU3" ] },
      { "delegate": "tz1gfArv665EUkSg2ojMBzcbfwuPxAvqPvjo",
        "reception_time": "2022-01-20T19:21:18.142-00:00",
        "errors":
          [ { "kind": "temporary",
              "id": "proto.011-PtHangz2.prefilter.outdated_endorsement" } ],
        "included_in_blocks":
          [ "BLcF7cpWVRxm334mU2QX1cEMuvvEVZVKibhDWSaRgbN8eymHkU3" ] },
      { "delegate": "tz1RjoHc98dBoqaH2jawF62XNKh7YsHwbkEv" },
      { "delegate": "tz1W5VkdB5s7ENMESVBtwyt9kyvLqPcUczRT" },
      { "delegate": "tz1ibcPVGK4Y8pcW4BYUsojiHoBKnZbyDGrX" },
      { "delegate": "tz1eEnQhbwf6trb8Q8mPb2RaPkNk2rN7BKi8",
        "reception_time": "2022-01-20T19:21:20.133-00:00",
        "included_in_blocks":
          [ "BLcF7cpWVRxm334mU2QX1cEMuvvEVZVKibhDWSaRgbN8eymHkU3" ] },
      { "delegate": "tz1Lhf4J9Qxoe3DZ2nfe8FGDnvVj7oKjnMY6",
        "reception_time": "2022-01-20T19:21:20.133-00:00",
        "included_in_blocks":
          [ "BLcF7cpWVRxm334mU2QX1cEMuvvEVZVKibhDWSaRgbN8eymHkU3" ] },
      { "delegate": "tz1irJKkXS2DBWkU1NnmFQx1c1L7pbGg4yhk",
        "reception_time": "2022-01-20T19:21:20.133-00:00",
        "included_in_blocks":
          [ "BLcF7cpWVRxm334mU2QX1cEMuvvEVZVKibhDWSaRgbN8eymHkU3" ] },
      { "delegate": "tz1Kt4P8BCaP93AEV4eA7gmpRryWt5hznjCP",
        "reception_time": "2022-01-20T19:21:20.133-00:00",
        "included_in_blocks":
          [ "BLcF7cpWVRxm334mU2QX1cEMuvvEVZVKibhDWSaRgbN8eymHkU3" ] },
      { "delegate": "tz1dUpfvjmAX3HLYvYhAwb94qe7nJodJr51c",
        "reception_time": "2022-01-20T19:21:20.133-00:00",
        "included_in_blocks":
          [ "BLcF7cpWVRxm334mU2QX1cEMuvvEVZVKibhDWSaRgbN8eymHkU3" ] },
      { "delegate": "tz1aDiEJf9ztRrAJEXZfcG3CKimoKsGhwVAi",
        "reception_time": "2022-01-20T19:21:20.133-00:00",
        "included_in_blocks":
          [ "BLcF7cpWVRxm334mU2QX1cEMuvvEVZVKibhDWSaRgbN8eymHkU3" ] },
      { "delegate": "tz1TXzyaKUA8wsWefdSnyaYFnV2M3vCV7er9",
        "reception_time": "2022-01-20T19:21:20.133-00:00",
        "included_in_blocks":
          [ "BLcF7cpWVRxm334mU2QX1cEMuvvEVZVKibhDWSaRgbN8eymHkU3" ] },
      { "delegate": "tz1VQnqCCqX4K5sP3FNkVSNKTdCAMJDd3E1n",
        "reception_time": "2022-01-20T19:21:20.133-00:00",
        "included_in_blocks":
          [ "BLcF7cpWVRxm334mU2QX1cEMuvvEVZVKibhDWSaRgbN8eymHkU3" ] },
      { "delegate": "tz1Ldzz6k1BHdhuKvAtMRX7h5kJSMHESMHLC",
        "reception_time": "2022-01-20T19:21:20.133-00:00",
        "included_in_blocks":
          [ "BLcF7cpWVRxm334mU2QX1cEMuvvEVZVKibhDWSaRgbN8eymHkU3" ] },
      { "delegate": "tz1gUNyn3hmnEWqkusWPzxRaon1cs7ndWh7h",
        "reception_time": "2022-01-20T19:21:20.133-00:00",
        "included_in_blocks":
          [ "BLcF7cpWVRxm334mU2QX1cEMuvvEVZVKibhDWSaRgbN8eymHkU3" ] },
      { "delegate": "tz3NxTnke1acr8o3h5y9ytf5awQBGNJUKzVU",
        "reception_time": "2022-01-20T19:21:20.133-00:00",
        "included_in_blocks":
          [ "BLcF7cpWVRxm334mU2QX1cEMuvvEVZVKibhDWSaRgbN8eymHkU3" ] },
      { "delegate": "tz3ZbP2pM3nwvXztbuMJwJnDvV5xdpU8UkkD",
        "reception_time": "2022-01-20T19:21:20.133-00:00",
        "included_in_blocks":
          [ "BLcF7cpWVRxm334mU2QX1cEMuvvEVZVKibhDWSaRgbN8eymHkU3" ] },
      { "delegate": "tz1VmiY38m3y95HqQLjMwqnMS7sdMfGomzKi",
        "reception_time": "2022-01-20T19:21:20.133-00:00",
        "included_in_blocks":
          [ "BLcF7cpWVRxm334mU2QX1cEMuvvEVZVKibhDWSaRgbN8eymHkU3" ] },
      { "delegate": "tz3QCNyySViKHmeSr45kzDxzchys7NiXCWoa",
        "reception_time": "2022-01-20T19:21:20.133-00:00",
        "included_in_blocks":
          [ "BLcF7cpWVRxm334mU2QX1cEMuvvEVZVKibhDWSaRgbN8eymHkU3" ] },
      { "delegate": "tz1Kf25fX1VdmYGSEzwFy1wNmkbSEZ2V83sY",
        "reception_time": "2022-01-20T19:21:20.133-00:00",
        "included_in_blocks":
          [ "BLcF7cpWVRxm334mU2QX1cEMuvvEVZVKibhDWSaRgbN8eymHkU3" ] },
      { "delegate": "tz1aXD7Jigrt3PBYSpHSg5Rr33SexMmmM5Ys",
        "reception_time": "2022-01-20T19:21:20.133-00:00",
        "included_in_blocks":
          [ "BLcF7cpWVRxm334mU2QX1cEMuvvEVZVKibhDWSaRgbN8eymHkU3" ] },
      { "delegate": "tz1TzaNn7wSQSP5gYPXCnNzBCpyMiidCq1PX",
        "reception_time": "2022-01-20T19:21:20.133-00:00",
        "included_in_blocks":
          [ "BLcF7cpWVRxm334mU2QX1cEMuvvEVZVKibhDWSaRgbN8eymHkU3" ] },
      { "delegate": "tz1V4qCyvPKZ5UeqdH14HN42rxvNPQfc9UZg",
        "reception_time": "2022-01-20T19:21:20.133-00:00",
        "included_in_blocks":
          [ "BLcF7cpWVRxm334mU2QX1cEMuvvEVZVKibhDWSaRgbN8eymHkU3" ] },
      { "delegate": "tz1S8MNvuFEUsWgjHvi3AxibRBf388NhT1q2",
        "reception_time": "2022-01-20T19:21:20.133-00:00",
        "included_in_blocks":
          [ "BLcF7cpWVRxm334mU2QX1cEMuvvEVZVKibhDWSaRgbN8eymHkU3" ] },
      { "delegate": "tz1d8SMQTY56YRsCEa5UZNnKgWe2yP7obxKs",
        "reception_time": "2022-01-20T19:21:20.133-00:00",
        "included_in_blocks":
          [ "BLcF7cpWVRxm334mU2QX1cEMuvvEVZVKibhDWSaRgbN8eymHkU3" ] },
      { "delegate": "tz1fPKAtsYydh4f1wfWNfeNxWYu72TmM48fu",
        "reception_time": "2022-01-20T19:21:20.133-00:00",
        "included_in_blocks":
          [ "BLcF7cpWVRxm334mU2QX1cEMuvvEVZVKibhDWSaRgbN8eymHkU3" ] },
      { "delegate": "tz3iJu5vrKZcsqRPs8yJ61UDoeEXZmtro4qh",
        "reception_time": "2022-01-20T19:21:20.133-00:00",
        "included_in_blocks":
          [ "BLcF7cpWVRxm334mU2QX1cEMuvvEVZVKibhDWSaRgbN8eymHkU3" ] },
      { "delegate": "tz3Zhs2dygr55yHyQyKjntAtY9bgfhLZ4Xj1",
        "reception_time": "2022-01-20T19:21:20.133-00:00",
        "included_in_blocks":
          [ "BLcF7cpWVRxm334mU2QX1cEMuvvEVZVKibhDWSaRgbN8eymHkU3" ] },
      { "delegate": "tz3gtoUxdudfBRcNY7iVdKPHCYYX6xdPpoRS",
        "reception_time": "2022-01-20T19:21:20.133-00:00",
        "included_in_blocks":
          [ "BLcF7cpWVRxm334mU2QX1cEMuvvEVZVKibhDWSaRgbN8eymHkU3" ] },
      { "delegate": "tz3RKYFsLuQzKBtmYuLNas7uMu3AsYd4QdsA",
        "reception_time": "2022-01-20T19:21:20.133-00:00",
        "included_in_blocks":
          [ "BLcF7cpWVRxm334mU2QX1cEMuvvEVZVKibhDWSaRgbN8eymHkU3" ] },
      { "delegate": "tz3QSGPoRp3Kn7n3vY24eYeu3Peuqo45LQ4D",
        "reception_time": "2022-01-20T19:21:20.133-00:00",
        "included_in_blocks":
          [ "BLcF7cpWVRxm334mU2QX1cEMuvvEVZVKibhDWSaRgbN8eymHkU3" ] },
      { "delegate": "tz3hw2kqXhLUvY65ca1eety2oQTpAvd34R9Q",
        "reception_time": "2022-01-20T19:21:20.133-00:00",
        "included_in_blocks":
          [ "BLcF7cpWVRxm334mU2QX1cEMuvvEVZVKibhDWSaRgbN8eymHkU3" ] },
      { "delegate": "tz1WCd2jm4uSt4vntk4vSuUWoZQGhLcDuR9q",
        "reception_time": "2022-01-20T19:21:20.133-00:00",
        "included_in_blocks":
          [ "BLcF7cpWVRxm334mU2QX1cEMuvvEVZVKibhDWSaRgbN8eymHkU3" ] },
      { "delegate": "tz1d6Fx42mYgVFnHUW8T8A7WBfJ6nD9pVok8",
        "reception_time": "2022-01-20T19:21:20.502-00:00",
        "included_in_blocks":
          [ "BLcF7cpWVRxm334mU2QX1cEMuvvEVZVKibhDWSaRgbN8eymHkU3" ] },
      { "delegate": "tz3S6BBeKgJGXxvLyZ1xzXzMPn11nnFtq5L9",
        "reception_time": "2022-01-20T19:21:20.502-00:00",
        "included_in_blocks":
          [ "BLcF7cpWVRxm334mU2QX1cEMuvvEVZVKibhDWSaRgbN8eymHkU3" ] },
      { "delegate": "tz3QT9dHYKDqh563chVa6za8526ys1UKfRfL",
        "reception_time": "2022-01-20T19:21:20.502-00:00",
        "included_in_blocks":
          [ "BLcF7cpWVRxm334mU2QX1cEMuvvEVZVKibhDWSaRgbN8eymHkU3" ] },
      { "delegate": "tz1PWCDnz783NNGGQjEFFsHtrcK5yBW4E2rm",
        "reception_time": "2022-01-20T19:21:20.502-00:00",
        "included_in_blocks":
          [ "BLcF7cpWVRxm334mU2QX1cEMuvvEVZVKibhDWSaRgbN8eymHkU3" ] },
      { "delegate": "tz1Lc87p6zRaDwzJs9kHvdpm7XzeWE8QTwVB",
        "reception_time": "2022-01-20T19:21:20.502-00:00",
        "included_in_blocks":
          [ "BLcF7cpWVRxm334mU2QX1cEMuvvEVZVKibhDWSaRgbN8eymHkU3" ] },
      { "delegate": "tz1WBfwbT66FC6BTLexc2BoyCCBM9LG7pnVW",
        "reception_time": "2022-01-20T19:21:20.502-00:00",
        "included_in_blocks":
          [ "BLcF7cpWVRxm334mU2QX1cEMuvvEVZVKibhDWSaRgbN8eymHkU3" ] },
      { "delegate": "tz3bTdwZinP8U1JmSweNzVKhmwafqWmFWRfk",
        "reception_time": "2022-01-20T19:21:20.502-00:00",
        "included_in_blocks":
          [ "BLcF7cpWVRxm334mU2QX1cEMuvvEVZVKibhDWSaRgbN8eymHkU3" ] },
      { "delegate": "tz1h4GUAMweP7SNWzDgvMk3yRCAZyaP1MxZq",
        "reception_time": "2022-01-20T19:21:20.502-00:00",
        "included_in_blocks":
          [ "BLcF7cpWVRxm334mU2QX1cEMuvvEVZVKibhDWSaRgbN8eymHkU3" ] },
      { "delegate": "tz3RB4aoyjov4KEVRbuhvQ1CKJgBJMWhaeB8",
        "reception_time": "2022-01-20T19:21:20.502-00:00",
        "included_in_blocks":
          [ "BLcF7cpWVRxm334mU2QX1cEMuvvEVZVKibhDWSaRgbN8eymHkU3" ] },
      { "delegate": "tz1UMCB2AHSTwG7YcGNr31CqYCtGN873royv",
        "reception_time": "2022-01-20T19:21:21.144-00:00",
        "included_in_blocks":
          [ "BLcF7cpWVRxm334mU2QX1cEMuvvEVZVKibhDWSaRgbN8eymHkU3" ] },
      { "delegate": "tz1RCFbB9GpALpsZtu6J58sb74dm8qe6XBzv",
        "reception_time": "2022-01-20T19:21:21.144-00:00",
        "included_in_blocks":
          [ "BLcF7cpWVRxm334mU2QX1cEMuvvEVZVKibhDWSaRgbN8eymHkU3" ] },
      { "delegate": "tz3bEQoFCZEEfZMskefZ8q8e4eiHH1pssRax",
        "reception_time": "2022-01-20T19:21:21.144-00:00",
        "included_in_blocks":
          [ "BLcF7cpWVRxm334mU2QX1cEMuvvEVZVKibhDWSaRgbN8eymHkU3" ] },
      { "delegate": "tz1NdhRv643wLW6zCcRP3VfT24dvDnh7nuh9",
        "reception_time": "2022-01-20T19:21:21.144-00:00",
        "included_in_blocks":
          [ "BLcF7cpWVRxm334mU2QX1cEMuvvEVZVKibhDWSaRgbN8eymHkU3" ] },
      { "delegate": "tz3WMqdzXqRWXwyvj5Hp2H7QEepaUuS7vd9K",
        "reception_time": "2022-01-20T19:21:21.144-00:00",
        "included_in_blocks":
          [ "BLcF7cpWVRxm334mU2QX1cEMuvvEVZVKibhDWSaRgbN8eymHkU3" ] },
      { "delegate": "tz1WctSwL49BZtdWAQ75NY6vr4xsAx6oKdah",
        "reception_time": "2022-01-20T19:21:21.144-00:00",
        "included_in_blocks":
          [ "BLcF7cpWVRxm334mU2QX1cEMuvvEVZVKibhDWSaRgbN8eymHkU3" ] },
      { "delegate": "tz3RDC3Jdn4j15J7bBHZd29EUee9gVB1CxD9",
        "reception_time": "2022-01-20T19:21:21.202-00:00",
        "included_in_blocks":
          [ "BLcF7cpWVRxm334mU2QX1cEMuvvEVZVKibhDWSaRgbN8eymHkU3" ] },
      { "delegate": "tz1a3T5mRR1XWM1JgydvAqxEwpNs7ktVZuXc",
        "reception_time": "2022-01-20T19:21:21.351-00:00",
        "included_in_blocks":
          [ "BLcF7cpWVRxm334mU2QX1cEMuvvEVZVKibhDWSaRgbN8eymHkU3" ] },
      { "delegate": "tz1Nf6tsK4G6bBqgSQERy4nUtkHNKUVdh7q1",
        "reception_time": "2022-01-20T19:21:21.418-00:00",
        "included_in_blocks":
          [ "BLcF7cpWVRxm334mU2QX1cEMuvvEVZVKibhDWSaRgbN8eymHkU3" ] },
      { "delegate": "tz3VEZ4k6a4Wx42iyev6i2aVAptTRLEAivNN",
        "reception_time": "2022-01-20T19:21:21.555-00:00",
        "included_in_blocks":
          [ "BLcF7cpWVRxm334mU2QX1cEMuvvEVZVKibhDWSaRgbN8eymHkU3" ] },
      { "delegate": "tz2FCNBrERXtaTtNX6iimR1UJ5JSDxvdHM93",
        "reception_time": "2022-01-20T19:21:21.562-00:00",
        "included_in_blocks":
          [ "BLcF7cpWVRxm334mU2QX1cEMuvvEVZVKibhDWSaRgbN8eymHkU3" ] },
      { "delegate": "tz1SYq214SCBy9naR6cvycQsYcUGpBqQAE8d",
        "reception_time": "2022-01-20T19:21:21.578-00:00",
        "included_in_blocks":
          [ "BLcF7cpWVRxm334mU2QX1cEMuvvEVZVKibhDWSaRgbN8eymHkU3" ] },
      { "delegate": "tz3bvNMQ95vfAYtG8193ymshqjSvmxiCUuR5",
        "reception_time": "2022-01-20T19:21:21.635-00:00",
        "included_in_blocks":
          [ "BLcF7cpWVRxm334mU2QX1cEMuvvEVZVKibhDWSaRgbN8eymHkU3" ] },
      { "delegate": "tz1Z2jXfEXL7dXhs6bsLmyLFLfmAkXBzA9WE",
        "reception_time": "2022-01-20T19:21:21.640-00:00",
        "included_in_blocks":
          [ "BLcF7cpWVRxm334mU2QX1cEMuvvEVZVKibhDWSaRgbN8eymHkU3" ] },
      { "delegate": "tz1NoYvKjXTzTk54VpLxBfouJ33J8jwKPPvw",
        "reception_time": "2022-01-20T19:21:21.915-00:00",
        "included_in_blocks":
          [ "BLcF7cpWVRxm334mU2QX1cEMuvvEVZVKibhDWSaRgbN8eymHkU3" ] },
      { "delegate": "tz1dRKU4FQ9QRRQPdaH4zCR6gmCmXfcvcgtB",
        "reception_time": "2022-01-20T19:21:21.976-00:00",
        "included_in_blocks":
          [ "BLcF7cpWVRxm334mU2QX1cEMuvvEVZVKibhDWSaRgbN8eymHkU3" ] },
      { "delegate": "tz1TRqbYbUf2GyrjErf3hBzgBJPzW8y36qEs",
        "reception_time": "2022-01-20T19:21:21.995-00:00",
        "included_in_blocks":
          [ "BLcF7cpWVRxm334mU2QX1cEMuvvEVZVKibhDWSaRgbN8eymHkU3" ] },
      { "delegate": "tz3NExpXn9aPNZPorRE4SdjJ2RGrfbJgMAaV",
        "reception_time": "2022-01-20T19:21:22.105-00:00",
        "included_in_blocks":
          [ "BLcF7cpWVRxm334mU2QX1cEMuvvEVZVKibhDWSaRgbN8eymHkU3" ] },
      { "delegate": "tz3NDpRj6WBrJPikcPVHRBEjWKxFw3c6eQPS",
        "reception_time": "2022-01-20T19:21:22.153-00:00",
        "included_in_blocks":
          [ "BLcF7cpWVRxm334mU2QX1cEMuvvEVZVKibhDWSaRgbN8eymHkU3" ] },
      { "delegate": "tz1aRoaRhSpRYvFdyvgWLL6TGyRoGF51wDjM",
        "reception_time": "2022-01-20T19:21:22.188-00:00",
        "included_in_blocks":
          [ "BLcF7cpWVRxm334mU2QX1cEMuvvEVZVKibhDWSaRgbN8eymHkU3" ] },
      { "delegate": "tz1cYufsxHXJcvANhvS55h3aY32a9BAFB494",
        "reception_time": "2022-01-20T19:21:22.224-00:00",
        "included_in_blocks":
          [ "BLcF7cpWVRxm334mU2QX1cEMuvvEVZVKibhDWSaRgbN8eymHkU3" ] },
      { "delegate": "tz1eLbDXYceRsPZoPmaJXZgQ6pzgnTQvZtpo",
        "reception_time": "2022-01-20T19:21:22.497-00:00",
        "included_in_blocks":
          [ "BLcF7cpWVRxm334mU2QX1cEMuvvEVZVKibhDWSaRgbN8eymHkU3" ] },
      { "delegate": "tz3UoffC7FG7zfpmvmjUmUeAaHvzdcUvAj6r",
        "reception_time": "2022-01-20T19:21:22.551-00:00",
        "included_in_blocks":
          [ "BLcF7cpWVRxm334mU2QX1cEMuvvEVZVKibhDWSaRgbN8eymHkU3" ] },
      { "delegate": "tz1T7duV5gZWSTq4YpBGbXNLTfznCLDrFxvs",
        "reception_time": "2022-01-20T19:21:22.583-00:00",
        "included_in_blocks":
          [ "BLcF7cpWVRxm334mU2QX1cEMuvvEVZVKibhDWSaRgbN8eymHkU3" ] },
      { "delegate": "tz1h4ar7F5wC6Ae2cfkrmrRP6nrPk9gGFaxg",
        "reception_time": "2022-01-20T19:21:23.860-00:00",
        "included_in_blocks":
          [ "BLcF7cpWVRxm334mU2QX1cEMuvvEVZVKibhDWSaRgbN8eymHkU3" ] } ] }