{ "blocks":
    [ { "hash": "BLpobmvSpYDWnPHZN6a4wsKPZtwD6BkZQXjyJaQuDSDpbMs38Tw",
        "delegate": "tz2FCNBrERXtaTtNX6iimR1UJ5JSDxvdHM93",
        "reception_time": "2022-01-20T20:06:46.932-00:00",
        "timestamp": "2022-01-20T20:06:40Z" } ],
  "endorsements":
    [ { "delegate": "tz1awXW7wuXy21c66vBudMXQVAPgRnqqwgTH" },
      { "delegate": "tz1RjoHc98dBoqaH2jawF62XNKh7YsHwbkEv" },
      { "delegate": "tz1Lhf4J9Qxoe3DZ2nfe8FGDnvVj7oKjnMY6",
        "reception_time": "2022-01-20T20:06:46.512-00:00",
        "errors":
          [ { "kind": "temporary",
              "id": "proto.011-PtHangz2.prefilter.outdated_endorsement" } ],
        "included_in_blocks":
          [ "BMG6wdn4XCWfmBQJLUHeCYWH3bxJT3Tq6GrhqVzMEWfU8apiH5Z" ] },
      { "delegate": "tz1P2Po7YM526ughEsRbY4oR9zaUPDZjxFrb",
        "reception_time": "2022-01-20T20:06:46.382-00:00",
        "errors":
          [ { "kind": "temporary",
              "id": "proto.011-PtHangz2.prefilter.outdated_endorsement" } ],
        "included_in_blocks":
          [ "BMG6wdn4XCWfmBQJLUHeCYWH3bxJT3Tq6GrhqVzMEWfU8apiH5Z" ] },
      { "delegate": "tz1S8e9GgdZG78XJRB3NqabfWeM37GnhZMWQ",
        "reception_time": "2022-01-20T20:06:46.361-00:00",
        "errors":
          [ { "kind": "temporary",
              "id": "proto.011-PtHangz2.prefilter.outdated_endorsement" } ],
        "included_in_blocks":
          [ "BMG6wdn4XCWfmBQJLUHeCYWH3bxJT3Tq6GrhqVzMEWfU8apiH5Z" ] },
      { "delegate": "tz1NpWrAyDL9k2Lmnyxcgr9xuJakbBxdq7FB",
        "reception_time": "2022-01-20T20:06:55.983-00:00",
        "included_in_blocks":
          [ "BMG6wdn4XCWfmBQJLUHeCYWH3bxJT3Tq6GrhqVzMEWfU8apiH5Z" ] },
      { "delegate": "tz2BzJTyoQp8fNbfhWD4YQgH9JJHDgSGzpdG",
        "reception_time": "2022-01-20T20:06:55.300-00:00",
        "included_in_blocks":
          [ "BMG6wdn4XCWfmBQJLUHeCYWH3bxJT3Tq6GrhqVzMEWfU8apiH5Z" ] },
      { "delegate": "tz1eVaNx3gCmG1EsLjijkmgAxdLYVf6Bf5Sq",
        "reception_time": "2022-01-20T20:06:52.357-00:00",
        "included_in_blocks":
          [ "BMG6wdn4XCWfmBQJLUHeCYWH3bxJT3Tq6GrhqVzMEWfU8apiH5Z" ] },
      { "delegate": "tz1TcH4Nb3aHNDJ7CGZhU7jgAK1BkSP4Lxds",
        "reception_time": "2022-01-20T20:06:50.984-00:00",
        "included_in_blocks":
          [ "BMG6wdn4XCWfmBQJLUHeCYWH3bxJT3Tq6GrhqVzMEWfU8apiH5Z" ] },
      { "delegate": "tz3UoffC7FG7zfpmvmjUmUeAaHvzdcUvAj6r",
        "reception_time": "2022-01-20T20:06:50.891-00:00",
        "included_in_blocks":
          [ "BMG6wdn4XCWfmBQJLUHeCYWH3bxJT3Tq6GrhqVzMEWfU8apiH5Z" ] },
      { "delegate": "tz1aRoaRhSpRYvFdyvgWLL6TGyRoGF51wDjM",
        "reception_time": "2022-01-20T20:06:50.823-00:00",
        "included_in_blocks":
          [ "BMG6wdn4XCWfmBQJLUHeCYWH3bxJT3Tq6GrhqVzMEWfU8apiH5Z" ] },
      { "delegate": "tz1T7duV5gZWSTq4YpBGbXNLTfznCLDrFxvs",
        "reception_time": "2022-01-20T20:06:50.544-00:00",
        "included_in_blocks":
          [ "BMG6wdn4XCWfmBQJLUHeCYWH3bxJT3Tq6GrhqVzMEWfU8apiH5Z" ] },
      { "delegate": "tz3NExpXn9aPNZPorRE4SdjJ2RGrfbJgMAaV",
        "reception_time": "2022-01-20T20:06:50.513-00:00",
        "included_in_blocks":
          [ "BMG6wdn4XCWfmBQJLUHeCYWH3bxJT3Tq6GrhqVzMEWfU8apiH5Z" ] },
      { "delegate": "tz1TRqbYbUf2GyrjErf3hBzgBJPzW8y36qEs",
        "reception_time": "2022-01-20T20:06:50.453-00:00",
        "included_in_blocks":
          [ "BMG6wdn4XCWfmBQJLUHeCYWH3bxJT3Tq6GrhqVzMEWfU8apiH5Z" ] },
      { "delegate": "tz1h4GUAMweP7SNWzDgvMk3yRCAZyaP1MxZq",
        "reception_time": "2022-01-20T20:06:50.139-00:00",
        "included_in_blocks":
          [ "BMG6wdn4XCWfmBQJLUHeCYWH3bxJT3Tq6GrhqVzMEWfU8apiH5Z" ] },
      { "delegate": "tz1dRKU4FQ9QRRQPdaH4zCR6gmCmXfcvcgtB",
        "reception_time": "2022-01-20T20:06:49.982-00:00",
        "included_in_blocks":
          [ "BMG6wdn4XCWfmBQJLUHeCYWH3bxJT3Tq6GrhqVzMEWfU8apiH5Z" ] },
      { "delegate": "tz3WMqdzXqRWXwyvj5Hp2H7QEepaUuS7vd9K",
        "reception_time": "2022-01-20T20:06:50.068-00:00",
        "included_in_blocks":
          [ "BMG6wdn4XCWfmBQJLUHeCYWH3bxJT3Tq6GrhqVzMEWfU8apiH5Z" ] },
      { "delegate": "tz1PeZx7FXy7QRuMREGXGxeipb24RsMMzUNe",
        "reception_time": "2022-01-20T20:06:49.642-00:00",
        "included_in_blocks":
          [ "BMG6wdn4XCWfmBQJLUHeCYWH3bxJT3Tq6GrhqVzMEWfU8apiH5Z" ] },
      { "delegate": "tz3bvNMQ95vfAYtG8193ymshqjSvmxiCUuR5",
        "reception_time": "2022-01-20T20:06:49.526-00:00",
        "included_in_blocks":
          [ "BMG6wdn4XCWfmBQJLUHeCYWH3bxJT3Tq6GrhqVzMEWfU8apiH5Z" ] },
      { "delegate": "tz1Vd1rXpV8hTHbFXCXN3c3qzCsgcU5BZw1e",
        "reception_time": "2022-01-20T20:06:50.134-00:00",
        "included_in_blocks":
          [ "BMG6wdn4XCWfmBQJLUHeCYWH3bxJT3Tq6GrhqVzMEWfU8apiH5Z" ] },
      { "delegate": "tz1NEKxGEHsFufk87CVZcrqWu8o22qh46GK6",
        "reception_time": "2022-01-20T20:06:49.481-00:00",
        "included_in_blocks":
          [ "BMG6wdn4XCWfmBQJLUHeCYWH3bxJT3Tq6GrhqVzMEWfU8apiH5Z" ] },
      { "delegate": "tz3VEZ4k6a4Wx42iyev6i2aVAptTRLEAivNN",
        "reception_time": "2022-01-20T20:06:49.406-00:00",
        "included_in_blocks":
          [ "BMG6wdn4XCWfmBQJLUHeCYWH3bxJT3Tq6GrhqVzMEWfU8apiH5Z" ] },
      { "delegate": "tz1TRspM5SeZpaQUhzByXbEvqKF1vnCM2YTK",
        "reception_time": "2022-01-20T20:06:49.435-00:00",
        "included_in_blocks":
          [ "BMG6wdn4XCWfmBQJLUHeCYWH3bxJT3Tq6GrhqVzMEWfU8apiH5Z" ] },
      { "delegate": "tz1Nf6tsK4G6bBqgSQERy4nUtkHNKUVdh7q1",
        "reception_time": "2022-01-20T20:06:49.440-00:00",
        "included_in_blocks":
          [ "BMG6wdn4XCWfmBQJLUHeCYWH3bxJT3Tq6GrhqVzMEWfU8apiH5Z" ] },
      { "delegate": "tz1YhNsiRRU8aHNGg7NK3uuP6UDAyacJernB",
        "reception_time": "2022-01-20T20:06:49.406-00:00",
        "included_in_blocks":
          [ "BMG6wdn4XCWfmBQJLUHeCYWH3bxJT3Tq6GrhqVzMEWfU8apiH5Z" ] },
      { "delegate": "tz1SYq214SCBy9naR6cvycQsYcUGpBqQAE8d",
        "reception_time": "2022-01-20T20:06:49.448-00:00",
        "included_in_blocks":
          [ "BMG6wdn4XCWfmBQJLUHeCYWH3bxJT3Tq6GrhqVzMEWfU8apiH5Z" ] },
      { "delegate": "tz3RDC3Jdn4j15J7bBHZd29EUee9gVB1CxD9",
        "reception_time": "2022-01-20T20:06:49.406-00:00",
        "included_in_blocks":
          [ "BMG6wdn4XCWfmBQJLUHeCYWH3bxJT3Tq6GrhqVzMEWfU8apiH5Z" ] },
      { "delegate": "tz1XX67xSF2ou3aQZ6LhXaaxZWDR3YZ6hCMs",
        "reception_time": "2022-01-20T20:06:49.406-00:00",
        "included_in_blocks":
          [ "BMG6wdn4XCWfmBQJLUHeCYWH3bxJT3Tq6GrhqVzMEWfU8apiH5Z" ] },
      { "delegate": "tz1abmz7jiCV2GH2u81LRrGgAFFgvQgiDiaf",
        "reception_time": "2022-01-20T20:06:49.406-00:00",
        "included_in_blocks":
          [ "BMG6wdn4XCWfmBQJLUHeCYWH3bxJT3Tq6GrhqVzMEWfU8apiH5Z" ] },
      { "delegate": "tz1TEc75UKXv4W5cwi14Na3NtqFD51yKQi7h",
        "reception_time": "2022-01-20T20:06:49.406-00:00",
        "included_in_blocks":
          [ "BMG6wdn4XCWfmBQJLUHeCYWH3bxJT3Tq6GrhqVzMEWfU8apiH5Z" ] },
      { "delegate": "tz3bEQoFCZEEfZMskefZ8q8e4eiHH1pssRax",
        "reception_time": "2022-01-20T20:06:49.406-00:00",
        "included_in_blocks":
          [ "BMG6wdn4XCWfmBQJLUHeCYWH3bxJT3Tq6GrhqVzMEWfU8apiH5Z" ] },
      { "delegate": "tz1KfEsrtDaA1sX7vdM4qmEPWuSytuqCDp5j",
        "reception_time": "2022-01-20T20:06:49.406-00:00",
        "included_in_blocks":
          [ "BMG6wdn4XCWfmBQJLUHeCYWH3bxJT3Tq6GrhqVzMEWfU8apiH5Z" ] },
      { "delegate": "tz1RCFbB9GpALpsZtu6J58sb74dm8qe6XBzv",
        "reception_time": "2022-01-20T20:06:49.406-00:00",
        "included_in_blocks":
          [ "BMG6wdn4XCWfmBQJLUHeCYWH3bxJT3Tq6GrhqVzMEWfU8apiH5Z" ] },
      { "delegate": "tz1S8MNvuFEUsWgjHvi3AxibRBf388NhT1q2",
        "reception_time": "2022-01-20T20:06:49.406-00:00",
        "included_in_blocks":
          [ "BMG6wdn4XCWfmBQJLUHeCYWH3bxJT3Tq6GrhqVzMEWfU8apiH5Z" ] },
      { "delegate": "tz1gfArv665EUkSg2ojMBzcbfwuPxAvqPvjo",
        "reception_time": "2022-01-20T20:06:49.406-00:00",
        "included_in_blocks":
          [ "BMG6wdn4XCWfmBQJLUHeCYWH3bxJT3Tq6GrhqVzMEWfU8apiH5Z" ] },
      { "delegate": "tz1g8vkmcde6sWKaG2NN9WKzCkDM6Rziq194",
        "reception_time": "2022-01-20T20:06:48.757-00:00",
        "included_in_blocks":
          [ "BMG6wdn4XCWfmBQJLUHeCYWH3bxJT3Tq6GrhqVzMEWfU8apiH5Z" ] },
      { "delegate": "tz1ei4WtWEMEJekSv8qDnu9PExG6Q8HgRGr3",
        "reception_time": "2022-01-20T20:06:49.406-00:00",
        "included_in_blocks":
          [ "BMG6wdn4XCWfmBQJLUHeCYWH3bxJT3Tq6GrhqVzMEWfU8apiH5Z" ] },
      { "delegate": "tz1WnfXMPaNTBmH7DBPwqCWs9cPDJdkGBTZ8",
        "reception_time": "2022-01-20T20:06:48.757-00:00",
        "included_in_blocks":
          [ "BMG6wdn4XCWfmBQJLUHeCYWH3bxJT3Tq6GrhqVzMEWfU8apiH5Z" ] },
      { "delegate": "tz2FCNBrERXtaTtNX6iimR1UJ5JSDxvdHM93",
        "reception_time": "2022-01-20T20:06:49.406-00:00",
        "included_in_blocks":
          [ "BMG6wdn4XCWfmBQJLUHeCYWH3bxJT3Tq6GrhqVzMEWfU8apiH5Z" ] },
      { "delegate": "tz3bTdwZinP8U1JmSweNzVKhmwafqWmFWRfk",
        "reception_time": "2022-01-20T20:06:48.757-00:00",
        "included_in_blocks":
          [ "BMG6wdn4XCWfmBQJLUHeCYWH3bxJT3Tq6GrhqVzMEWfU8apiH5Z" ] },
      { "delegate": "tz1V4qCyvPKZ5UeqdH14HN42rxvNPQfc9UZg",
        "reception_time": "2022-01-20T20:06:48.757-00:00",
        "included_in_blocks":
          [ "BMG6wdn4XCWfmBQJLUHeCYWH3bxJT3Tq6GrhqVzMEWfU8apiH5Z" ] },
      { "delegate": "tz3RB4aoyjov4KEVRbuhvQ1CKJgBJMWhaeB8",
        "reception_time": "2022-01-20T20:06:48.757-00:00",
        "included_in_blocks":
          [ "BMG6wdn4XCWfmBQJLUHeCYWH3bxJT3Tq6GrhqVzMEWfU8apiH5Z" ] },
      { "delegate": "tz1Mc61yajNASzh5KWZFtYs4i7EJbzAxQC4K",
        "reception_time": "2022-01-20T20:06:48.757-00:00",
        "included_in_blocks":
          [ "BMG6wdn4XCWfmBQJLUHeCYWH3bxJT3Tq6GrhqVzMEWfU8apiH5Z" ] },
      { "delegate": "tz1VmiY38m3y95HqQLjMwqnMS7sdMfGomzKi",
        "reception_time": "2022-01-20T20:06:48.399-00:00",
        "included_in_blocks":
          [ "BMG6wdn4XCWfmBQJLUHeCYWH3bxJT3Tq6GrhqVzMEWfU8apiH5Z" ] },
      { "delegate": "tz1MGTFJXpQmtxLi8QJ7AuVRgM2L2Qfn9w9i",
        "reception_time": "2022-01-20T20:06:48.757-00:00",
        "included_in_blocks":
          [ "BMG6wdn4XCWfmBQJLUHeCYWH3bxJT3Tq6GrhqVzMEWfU8apiH5Z" ] },
      { "delegate": "tz3QT9dHYKDqh563chVa6za8526ys1UKfRfL",
        "reception_time": "2022-01-20T20:06:48.399-00:00",
        "included_in_blocks":
          [ "BMG6wdn4XCWfmBQJLUHeCYWH3bxJT3Tq6GrhqVzMEWfU8apiH5Z" ] },
      { "delegate": "tz3iJu5vrKZcsqRPs8yJ61UDoeEXZmtro4qh",
        "reception_time": "2022-01-20T20:06:48.399-00:00",
        "included_in_blocks":
          [ "BMG6wdn4XCWfmBQJLUHeCYWH3bxJT3Tq6GrhqVzMEWfU8apiH5Z" ] },
      { "delegate": "tz3S6BBeKgJGXxvLyZ1xzXzMPn11nnFtq5L9",
        "reception_time": "2022-01-20T20:06:48.399-00:00",
        "included_in_blocks":
          [ "BMG6wdn4XCWfmBQJLUHeCYWH3bxJT3Tq6GrhqVzMEWfU8apiH5Z" ] },
      { "delegate": "tz3Zhs2dygr55yHyQyKjntAtY9bgfhLZ4Xj1",
        "reception_time": "2022-01-20T20:06:48.399-00:00",
        "included_in_blocks":
          [ "BMG6wdn4XCWfmBQJLUHeCYWH3bxJT3Tq6GrhqVzMEWfU8apiH5Z" ] },
      { "delegate": "tz3RKYFsLuQzKBtmYuLNas7uMu3AsYd4QdsA",
        "reception_time": "2022-01-20T20:06:48.399-00:00",
        "included_in_blocks":
          [ "BMG6wdn4XCWfmBQJLUHeCYWH3bxJT3Tq6GrhqVzMEWfU8apiH5Z" ] },
      { "delegate": "tz1aqcYgG6NuViML5vdWhohHJBYxcDVLNUsE",
        "reception_time": "2022-01-20T20:06:48.399-00:00",
        "included_in_blocks":
          [ "BMG6wdn4XCWfmBQJLUHeCYWH3bxJT3Tq6GrhqVzMEWfU8apiH5Z" ] },
      { "delegate": "tz1WCd2jm4uSt4vntk4vSuUWoZQGhLcDuR9q",
        "reception_time": "2022-01-20T20:06:48.399-00:00",
        "included_in_blocks":
          [ "BMG6wdn4XCWfmBQJLUHeCYWH3bxJT3Tq6GrhqVzMEWfU8apiH5Z" ] },
      { "delegate": "tz3hw2kqXhLUvY65ca1eety2oQTpAvd34R9Q",
        "reception_time": "2022-01-20T20:06:48.399-00:00",
        "included_in_blocks":
          [ "BMG6wdn4XCWfmBQJLUHeCYWH3bxJT3Tq6GrhqVzMEWfU8apiH5Z" ] },
      { "delegate": "tz3ZbP2pM3nwvXztbuMJwJnDvV5xdpU8UkkD",
        "reception_time": "2022-01-20T20:06:48.399-00:00",
        "included_in_blocks":
          [ "BMG6wdn4XCWfmBQJLUHeCYWH3bxJT3Tq6GrhqVzMEWfU8apiH5Z" ] },
      { "delegate": "tz3QSGPoRp3Kn7n3vY24eYeu3Peuqo45LQ4D",
        "reception_time": "2022-01-20T20:06:48.399-00:00",
        "included_in_blocks":
          [ "BMG6wdn4XCWfmBQJLUHeCYWH3bxJT3Tq6GrhqVzMEWfU8apiH5Z" ] },
      { "delegate": "tz3NxTnke1acr8o3h5y9ytf5awQBGNJUKzVU",
        "reception_time": "2022-01-20T20:06:48.399-00:00",
        "included_in_blocks":
          [ "BMG6wdn4XCWfmBQJLUHeCYWH3bxJT3Tq6GrhqVzMEWfU8apiH5Z" ] },
      { "delegate": "tz1TzaNn7wSQSP5gYPXCnNzBCpyMiidCq1PX",
        "reception_time": "2022-01-20T20:06:48.399-00:00",
        "included_in_blocks":
          [ "BMG6wdn4XCWfmBQJLUHeCYWH3bxJT3Tq6GrhqVzMEWfU8apiH5Z" ] },
      { "delegate": "tz3gtoUxdudfBRcNY7iVdKPHCYYX6xdPpoRS",
        "reception_time": "2022-01-20T20:06:48.399-00:00",
        "included_in_blocks":
          [ "BMG6wdn4XCWfmBQJLUHeCYWH3bxJT3Tq6GrhqVzMEWfU8apiH5Z" ] },
      { "delegate": "tz3adcvQaKXTCg12zbninqo3q8ptKKtDFTLv",
        "reception_time": "2022-01-20T20:06:48.399-00:00",
        "included_in_blocks":
          [ "BMG6wdn4XCWfmBQJLUHeCYWH3bxJT3Tq6GrhqVzMEWfU8apiH5Z" ] },
      { "delegate": "tz1aXD7Jigrt3PBYSpHSg5Rr33SexMmmM5Ys",
        "reception_time": "2022-01-20T20:06:48.399-00:00",
        "included_in_blocks":
          [ "BMG6wdn4XCWfmBQJLUHeCYWH3bxJT3Tq6GrhqVzMEWfU8apiH5Z" ] },
      { "delegate": "tz1gUNyn3hmnEWqkusWPzxRaon1cs7ndWh7h",
        "reception_time": "2022-01-20T20:06:48.399-00:00",
        "included_in_blocks":
          [ "BMG6wdn4XCWfmBQJLUHeCYWH3bxJT3Tq6GrhqVzMEWfU8apiH5Z" ] },
      { "delegate": "tz1VQnqCCqX4K5sP3FNkVSNKTdCAMJDd3E1n",
        "reception_time": "2022-01-20T20:06:48.399-00:00",
        "included_in_blocks":
          [ "BMG6wdn4XCWfmBQJLUHeCYWH3bxJT3Tq6GrhqVzMEWfU8apiH5Z" ] },
      { "delegate": "tz1Ldzz6k1BHdhuKvAtMRX7h5kJSMHESMHLC",
        "reception_time": "2022-01-20T20:06:48.399-00:00",
        "included_in_blocks":
          [ "BMG6wdn4XCWfmBQJLUHeCYWH3bxJT3Tq6GrhqVzMEWfU8apiH5Z" ] },
      { "delegate": "tz1irJKkXS2DBWkU1NnmFQx1c1L7pbGg4yhk",
        "reception_time": "2022-01-20T20:06:48.399-00:00",
        "included_in_blocks":
          [ "BMG6wdn4XCWfmBQJLUHeCYWH3bxJT3Tq6GrhqVzMEWfU8apiH5Z" ] },
      { "delegate": "tz1eEnQhbwf6trb8Q8mPb2RaPkNk2rN7BKi8",
        "reception_time": "2022-01-20T20:06:48.399-00:00",
        "included_in_blocks":
          [ "BMG6wdn4XCWfmBQJLUHeCYWH3bxJT3Tq6GrhqVzMEWfU8apiH5Z" ] },
      { "delegate": "tz1aDiEJf9ztRrAJEXZfcG3CKimoKsGhwVAi",
        "reception_time": "2022-01-20T20:06:48.399-00:00",
        "included_in_blocks":
          [ "BMG6wdn4XCWfmBQJLUHeCYWH3bxJT3Tq6GrhqVzMEWfU8apiH5Z" ] } ] }