{ "blocks":
    [ { "hash": "BMd7nHRx9ZTBRAscWQxkPPsTFnRRjprQnBoapK5Je8UH1dnoULR",
        "delegate": "tz1S8MNvuFEUsWgjHvi3AxibRBf388NhT1q2",
        "reception_time": "2022-01-20T19:49:45.895-00:00",
        "timestamp": "2022-01-20T19:49:40Z" } ],
  "endorsements":
    [ { "delegate": "tz1i3mhawFAgcB8JHaHwoUF6hdncwTAkLEn2" },
      { "delegate": "tz1fJHFn6sWEd3NnBPngACuw2dggTv6nQZ7g" },
      { "delegate": "tz1awXW7wuXy21c66vBudMXQVAPgRnqqwgTH" },
      { "delegate": "tz1RjoHc98dBoqaH2jawF62XNKh7YsHwbkEv" },
      { "delegate": "tz1S8e9GgdZG78XJRB3NqabfWeM37GnhZMWQ",
        "reception_time": "2022-01-20T19:49:45.790-00:00",
        "errors":
          [ { "kind": "temporary",
              "id": "proto.011-PtHangz2.prefilter.outdated_endorsement" } ],
        "included_in_blocks":
          [ "BM9Do4L2fTQ3wJ6MbjGpW428quAfE6aELK9MNiG4VqqHi6HueGA" ] },
      { "delegate": "tz1P2Po7YM526ughEsRbY4oR9zaUPDZjxFrb",
        "reception_time": "2022-01-20T19:49:45.780-00:00",
        "errors":
          [ { "kind": "temporary",
              "id": "proto.011-PtHangz2.prefilter.outdated_endorsement" } ],
        "included_in_blocks":
          [ "BM9Do4L2fTQ3wJ6MbjGpW428quAfE6aELK9MNiG4VqqHi6HueGA" ] },
      { "delegate": "tz1S5WxdZR5f9NzsPXhr7L9L1vrEb5spZFur",
        "reception_time": "2022-01-20T19:49:51.455-00:00",
        "included_in_blocks":
          [ "BM9Do4L2fTQ3wJ6MbjGpW428quAfE6aELK9MNiG4VqqHi6HueGA" ] },
      { "delegate": "tz1eVaNx3gCmG1EsLjijkmgAxdLYVf6Bf5Sq",
        "reception_time": "2022-01-20T19:49:51.130-00:00",
        "included_in_blocks":
          [ "BM9Do4L2fTQ3wJ6MbjGpW428quAfE6aELK9MNiG4VqqHi6HueGA" ] },
      { "delegate": "tz1Xsrfv6hn86fp88YfRs6xcKwt2nTqxVZYM",
        "reception_time": "2022-01-20T19:49:51.085-00:00",
        "included_in_blocks":
          [ "BM9Do4L2fTQ3wJ6MbjGpW428quAfE6aELK9MNiG4VqqHi6HueGA" ] },
      { "delegate": "tz1T7duV5gZWSTq4YpBGbXNLTfznCLDrFxvs",
        "reception_time": "2022-01-20T19:49:49.823-00:00",
        "included_in_blocks":
          [ "BM9Do4L2fTQ3wJ6MbjGpW428quAfE6aELK9MNiG4VqqHi6HueGA" ] },
      { "delegate": "tz3NDpRj6WBrJPikcPVHRBEjWKxFw3c6eQPS",
        "reception_time": "2022-01-20T19:49:49.880-00:00",
        "included_in_blocks":
          [ "BM9Do4L2fTQ3wJ6MbjGpW428quAfE6aELK9MNiG4VqqHi6HueGA" ] },
      { "delegate": "tz1ZcTRk5uxD86EFEn1vvNffWWqJy7q5eVhc",
        "reception_time": "2022-01-20T19:49:49.832-00:00",
        "included_in_blocks":
          [ "BM9Do4L2fTQ3wJ6MbjGpW428quAfE6aELK9MNiG4VqqHi6HueGA" ] },
      { "delegate": "tz1g8vkmcde6sWKaG2NN9WKzCkDM6Rziq194",
        "reception_time": "2022-01-20T19:49:49.764-00:00",
        "included_in_blocks":
          [ "BM9Do4L2fTQ3wJ6MbjGpW428quAfE6aELK9MNiG4VqqHi6HueGA" ] },
      { "delegate": "tz1aRoaRhSpRYvFdyvgWLL6TGyRoGF51wDjM",
        "reception_time": "2022-01-20T19:49:49.685-00:00",
        "included_in_blocks":
          [ "BM9Do4L2fTQ3wJ6MbjGpW428quAfE6aELK9MNiG4VqqHi6HueGA" ] },
      { "delegate": "tz1dRKU4FQ9QRRQPdaH4zCR6gmCmXfcvcgtB",
        "reception_time": "2022-01-20T19:49:49.319-00:00",
        "included_in_blocks":
          [ "BM9Do4L2fTQ3wJ6MbjGpW428quAfE6aELK9MNiG4VqqHi6HueGA" ] },
      { "delegate": "tz3NExpXn9aPNZPorRE4SdjJ2RGrfbJgMAaV",
        "reception_time": "2022-01-20T19:49:49.149-00:00",
        "included_in_blocks":
          [ "BM9Do4L2fTQ3wJ6MbjGpW428quAfE6aELK9MNiG4VqqHi6HueGA" ] },
      { "delegate": "tz3bvNMQ95vfAYtG8193ymshqjSvmxiCUuR5",
        "reception_time": "2022-01-20T19:49:49.002-00:00",
        "included_in_blocks":
          [ "BM9Do4L2fTQ3wJ6MbjGpW428quAfE6aELK9MNiG4VqqHi6HueGA" ] },
      { "delegate": "tz3WMqdzXqRWXwyvj5Hp2H7QEepaUuS7vd9K",
        "reception_time": "2022-01-20T19:49:48.946-00:00",
        "included_in_blocks":
          [ "BM9Do4L2fTQ3wJ6MbjGpW428quAfE6aELK9MNiG4VqqHi6HueGA" ] },
      { "delegate": "tz1SYq214SCBy9naR6cvycQsYcUGpBqQAE8d",
        "reception_time": "2022-01-20T19:49:48.868-00:00",
        "included_in_blocks":
          [ "BM9Do4L2fTQ3wJ6MbjGpW428quAfE6aELK9MNiG4VqqHi6HueGA" ] },
      { "delegate": "tz3UoffC7FG7zfpmvmjUmUeAaHvzdcUvAj6r",
        "reception_time": "2022-01-20T19:49:48.782-00:00",
        "included_in_blocks":
          [ "BM9Do4L2fTQ3wJ6MbjGpW428quAfE6aELK9MNiG4VqqHi6HueGA" ] },
      { "delegate": "tz3VEZ4k6a4Wx42iyev6i2aVAptTRLEAivNN",
        "reception_time": "2022-01-20T19:49:48.180-00:00",
        "included_in_blocks":
          [ "BM9Do4L2fTQ3wJ6MbjGpW428quAfE6aELK9MNiG4VqqHi6HueGA" ] },
      { "delegate": "tz2FCNBrERXtaTtNX6iimR1UJ5JSDxvdHM93",
        "reception_time": "2022-01-20T19:49:48.422-00:00",
        "included_in_blocks":
          [ "BM9Do4L2fTQ3wJ6MbjGpW428quAfE6aELK9MNiG4VqqHi6HueGA" ] },
      { "delegate": "tz3QCNyySViKHmeSr45kzDxzchys7NiXCWoa",
        "reception_time": "2022-01-20T19:49:48.267-00:00",
        "included_in_blocks":
          [ "BM9Do4L2fTQ3wJ6MbjGpW428quAfE6aELK9MNiG4VqqHi6HueGA" ] },
      { "delegate": "tz1WctSwL49BZtdWAQ75NY6vr4xsAx6oKdah",
        "reception_time": "2022-01-20T19:49:48.061-00:00",
        "included_in_blocks":
          [ "BM9Do4L2fTQ3wJ6MbjGpW428quAfE6aELK9MNiG4VqqHi6HueGA" ] },
      { "delegate": "tz1abmz7jiCV2GH2u81LRrGgAFFgvQgiDiaf",
        "reception_time": "2022-01-20T19:49:48.222-00:00",
        "included_in_blocks":
          [ "BM9Do4L2fTQ3wJ6MbjGpW428quAfE6aELK9MNiG4VqqHi6HueGA" ] },
      { "delegate": "tz1axcnVN9tZnCe4sQQhC6f3tfSEXdjPaXPY",
        "reception_time": "2022-01-20T19:49:48.122-00:00",
        "included_in_blocks":
          [ "BM9Do4L2fTQ3wJ6MbjGpW428quAfE6aELK9MNiG4VqqHi6HueGA" ] },
      { "delegate": "tz1eCzNtidHvVgeRzQ38C81FPcYnxMsCEL6Z",
        "reception_time": "2022-01-20T19:49:48.119-00:00",
        "included_in_blocks":
          [ "BM9Do4L2fTQ3wJ6MbjGpW428quAfE6aELK9MNiG4VqqHi6HueGA" ] },
      { "delegate": "tz1RQhNh7iB9CZA7i3ifTWNwiGYVffponfbB",
        "reception_time": "2022-01-20T19:49:48.053-00:00",
        "included_in_blocks":
          [ "BM9Do4L2fTQ3wJ6MbjGpW428quAfE6aELK9MNiG4VqqHi6HueGA" ] },
      { "delegate": "tz1TRqbYbUf2GyrjErf3hBzgBJPzW8y36qEs",
        "reception_time": "2022-01-20T19:49:47.916-00:00",
        "included_in_blocks":
          [ "BM9Do4L2fTQ3wJ6MbjGpW428quAfE6aELK9MNiG4VqqHi6HueGA" ] },
      { "delegate": "tz1iZvYctCtV2oGvEeXCCgUseb4qtdKh3mrV",
        "reception_time": "2022-01-20T19:49:47.948-00:00",
        "included_in_blocks":
          [ "BM9Do4L2fTQ3wJ6MbjGpW428quAfE6aELK9MNiG4VqqHi6HueGA" ] },
      { "delegate": "tz1cig1EHyvZd7J2k389moM9PxVgPQvmFkvi",
        "reception_time": "2022-01-20T19:49:47.929-00:00",
        "included_in_blocks":
          [ "BM9Do4L2fTQ3wJ6MbjGpW428quAfE6aELK9MNiG4VqqHi6HueGA" ] },
      { "delegate": "tz1dwu9aYb7CRNq4Y2zAjipdjFuSVKhHS8vA",
        "reception_time": "2022-01-20T19:49:47.856-00:00",
        "included_in_blocks":
          [ "BM9Do4L2fTQ3wJ6MbjGpW428quAfE6aELK9MNiG4VqqHi6HueGA" ] },
      { "delegate": "tz1RCFbB9GpALpsZtu6J58sb74dm8qe6XBzv",
        "reception_time": "2022-01-20T19:49:47.865-00:00",
        "included_in_blocks":
          [ "BM9Do4L2fTQ3wJ6MbjGpW428quAfE6aELK9MNiG4VqqHi6HueGA" ] },
      { "delegate": "tz1NEKxGEHsFufk87CVZcrqWu8o22qh46GK6",
        "reception_time": "2022-01-20T19:49:47.865-00:00",
        "included_in_blocks":
          [ "BM9Do4L2fTQ3wJ6MbjGpW428quAfE6aELK9MNiG4VqqHi6HueGA" ] },
      { "delegate": "tz3RB4aoyjov4KEVRbuhvQ1CKJgBJMWhaeB8",
        "reception_time": "2022-01-20T19:49:47.827-00:00",
        "included_in_blocks":
          [ "BM9Do4L2fTQ3wJ6MbjGpW428quAfE6aELK9MNiG4VqqHi6HueGA" ] },
      { "delegate": "tz1iPHM2Xx2hwmzcr1EG1zzrV6oKafVoA91m",
        "reception_time": "2022-01-20T19:49:47.832-00:00",
        "included_in_blocks":
          [ "BM9Do4L2fTQ3wJ6MbjGpW428quAfE6aELK9MNiG4VqqHi6HueGA" ] },
      { "delegate": "tz1Tnjaxk6tbAeC2TmMApPh8UsrEVQvhHvx5",
        "reception_time": "2022-01-20T19:49:47.868-00:00",
        "included_in_blocks":
          [ "BM9Do4L2fTQ3wJ6MbjGpW428quAfE6aELK9MNiG4VqqHi6HueGA" ] },
      { "delegate": "tz3bTdwZinP8U1JmSweNzVKhmwafqWmFWRfk",
        "reception_time": "2022-01-20T19:49:47.690-00:00",
        "included_in_blocks":
          [ "BM9Do4L2fTQ3wJ6MbjGpW428quAfE6aELK9MNiG4VqqHi6HueGA" ] },
      { "delegate": "tz3RDC3Jdn4j15J7bBHZd29EUee9gVB1CxD9",
        "reception_time": "2022-01-20T19:49:47.741-00:00",
        "included_in_blocks":
          [ "BM9Do4L2fTQ3wJ6MbjGpW428quAfE6aELK9MNiG4VqqHi6HueGA" ] },
      { "delegate": "tz1KfEsrtDaA1sX7vdM4qmEPWuSytuqCDp5j",
        "reception_time": "2022-01-20T19:49:47.618-00:00",
        "included_in_blocks":
          [ "BM9Do4L2fTQ3wJ6MbjGpW428quAfE6aELK9MNiG4VqqHi6HueGA" ] },
      { "delegate": "tz3S6BBeKgJGXxvLyZ1xzXzMPn11nnFtq5L9",
        "reception_time": "2022-01-20T19:49:47.618-00:00",
        "included_in_blocks":
          [ "BM9Do4L2fTQ3wJ6MbjGpW428quAfE6aELK9MNiG4VqqHi6HueGA" ] },
      { "delegate": "tz3QT9dHYKDqh563chVa6za8526ys1UKfRfL",
        "reception_time": "2022-01-20T19:49:47.572-00:00",
        "included_in_blocks":
          [ "BM9Do4L2fTQ3wJ6MbjGpW428quAfE6aELK9MNiG4VqqHi6HueGA" ] },
      { "delegate": "tz1fwnfJNgiDACshK9avfRfFbMaXrs3ghoJa",
        "reception_time": "2022-01-20T19:49:47.489-00:00",
        "included_in_blocks":
          [ "BM9Do4L2fTQ3wJ6MbjGpW428quAfE6aELK9MNiG4VqqHi6HueGA" ] },
      { "delegate": "tz3Zhs2dygr55yHyQyKjntAtY9bgfhLZ4Xj1",
        "reception_time": "2022-01-20T19:49:47.324-00:00",
        "included_in_blocks":
          [ "BM9Do4L2fTQ3wJ6MbjGpW428quAfE6aELK9MNiG4VqqHi6HueGA" ] },
      { "delegate": "tz3iJu5vrKZcsqRPs8yJ61UDoeEXZmtro4qh",
        "reception_time": "2022-01-20T19:49:47.324-00:00",
        "included_in_blocks":
          [ "BM9Do4L2fTQ3wJ6MbjGpW428quAfE6aELK9MNiG4VqqHi6HueGA" ] },
      { "delegate": "tz3RKYFsLuQzKBtmYuLNas7uMu3AsYd4QdsA",
        "reception_time": "2022-01-20T19:49:47.265-00:00",
        "included_in_blocks":
          [ "BM9Do4L2fTQ3wJ6MbjGpW428quAfE6aELK9MNiG4VqqHi6HueGA" ] },
      { "delegate": "tz1ei4WtWEMEJekSv8qDnu9PExG6Q8HgRGr3",
        "reception_time": "2022-01-20T19:49:47.285-00:00",
        "included_in_blocks":
          [ "BM9Do4L2fTQ3wJ6MbjGpW428quAfE6aELK9MNiG4VqqHi6HueGA" ] },
      { "delegate": "tz3gtoUxdudfBRcNY7iVdKPHCYYX6xdPpoRS",
        "reception_time": "2022-01-20T19:49:47.232-00:00",
        "included_in_blocks":
          [ "BM9Do4L2fTQ3wJ6MbjGpW428quAfE6aELK9MNiG4VqqHi6HueGA" ] },
      { "delegate": "tz1PWCDnz783NNGGQjEFFsHtrcK5yBW4E2rm",
        "reception_time": "2022-01-20T19:49:47.232-00:00",
        "included_in_blocks":
          [ "BM9Do4L2fTQ3wJ6MbjGpW428quAfE6aELK9MNiG4VqqHi6HueGA" ] },
      { "delegate": "tz1UJvHTgpVzcKWhTazGxVcn5wsHru5Gietg",
        "reception_time": "2022-01-20T19:49:47.244-00:00",
        "included_in_blocks":
          [ "BM9Do4L2fTQ3wJ6MbjGpW428quAfE6aELK9MNiG4VqqHi6HueGA" ] },
      { "delegate": "tz3hw2kqXhLUvY65ca1eety2oQTpAvd34R9Q",
        "reception_time": "2022-01-20T19:49:47.153-00:00",
        "included_in_blocks":
          [ "BM9Do4L2fTQ3wJ6MbjGpW428quAfE6aELK9MNiG4VqqHi6HueGA" ] },
      { "delegate": "tz1gfArv665EUkSg2ojMBzcbfwuPxAvqPvjo",
        "reception_time": "2022-01-20T19:49:47.136-00:00",
        "included_in_blocks":
          [ "BM9Do4L2fTQ3wJ6MbjGpW428quAfE6aELK9MNiG4VqqHi6HueGA" ] },
      { "delegate": "tz1WCd2jm4uSt4vntk4vSuUWoZQGhLcDuR9q",
        "reception_time": "2022-01-20T19:49:47.234-00:00",
        "included_in_blocks":
          [ "BM9Do4L2fTQ3wJ6MbjGpW428quAfE6aELK9MNiG4VqqHi6HueGA" ] },
      { "delegate": "tz1Nf6tsK4G6bBqgSQERy4nUtkHNKUVdh7q1",
        "reception_time": "2022-01-20T19:49:47.213-00:00",
        "included_in_blocks":
          [ "BM9Do4L2fTQ3wJ6MbjGpW428quAfE6aELK9MNiG4VqqHi6HueGA" ] },
      { "delegate": "tz1MQJPGNMijnXnVoBENFz9rUhaPt3S7rWoz",
        "reception_time": "2022-01-20T19:49:47.207-00:00",
        "included_in_blocks":
          [ "BM9Do4L2fTQ3wJ6MbjGpW428quAfE6aELK9MNiG4VqqHi6HueGA" ] },
      { "delegate": "tz3QSGPoRp3Kn7n3vY24eYeu3Peuqo45LQ4D",
        "reception_time": "2022-01-20T19:49:47.070-00:00",
        "included_in_blocks":
          [ "BM9Do4L2fTQ3wJ6MbjGpW428quAfE6aELK9MNiG4VqqHi6HueGA" ] },
      { "delegate": "tz1Kf25fX1VdmYGSEzwFy1wNmkbSEZ2V83sY",
        "reception_time": "2022-01-20T19:49:47.200-00:00",
        "included_in_blocks":
          [ "BM9Do4L2fTQ3wJ6MbjGpW428quAfE6aELK9MNiG4VqqHi6HueGA" ] },
      { "delegate": "tz1TzaNn7wSQSP5gYPXCnNzBCpyMiidCq1PX",
        "reception_time": "2022-01-20T19:49:46.983-00:00",
        "included_in_blocks":
          [ "BM9Do4L2fTQ3wJ6MbjGpW428quAfE6aELK9MNiG4VqqHi6HueGA" ] },
      { "delegate": "tz1d6Fx42mYgVFnHUW8T8A7WBfJ6nD9pVok8",
        "reception_time": "2022-01-20T19:49:47.039-00:00",
        "included_in_blocks":
          [ "BM9Do4L2fTQ3wJ6MbjGpW428quAfE6aELK9MNiG4VqqHi6HueGA" ] },
      { "delegate": "tz3ZbP2pM3nwvXztbuMJwJnDvV5xdpU8UkkD",
        "reception_time": "2022-01-20T19:49:46.941-00:00",
        "included_in_blocks":
          [ "BM9Do4L2fTQ3wJ6MbjGpW428quAfE6aELK9MNiG4VqqHi6HueGA" ] },
      { "delegate": "tz3NxTnke1acr8o3h5y9ytf5awQBGNJUKzVU",
        "reception_time": "2022-01-20T19:49:46.948-00:00",
        "included_in_blocks":
          [ "BM9Do4L2fTQ3wJ6MbjGpW428quAfE6aELK9MNiG4VqqHi6HueGA" ] },
      { "delegate": "tz1Ldzz6k1BHdhuKvAtMRX7h5kJSMHESMHLC",
        "reception_time": "2022-01-20T19:49:46.889-00:00",
        "included_in_blocks":
          [ "BM9Do4L2fTQ3wJ6MbjGpW428quAfE6aELK9MNiG4VqqHi6HueGA" ] },
      { "delegate": "tz1ZPh7XfUaJXUDvkrBxmS1BjEM1i62hiPpM",
        "reception_time": "2022-01-20T19:49:46.908-00:00",
        "included_in_blocks":
          [ "BM9Do4L2fTQ3wJ6MbjGpW428quAfE6aELK9MNiG4VqqHi6HueGA" ] },
      { "delegate": "tz1S8MNvuFEUsWgjHvi3AxibRBf388NhT1q2",
        "reception_time": "2022-01-20T19:49:46.895-00:00",
        "included_in_blocks":
          [ "BM9Do4L2fTQ3wJ6MbjGpW428quAfE6aELK9MNiG4VqqHi6HueGA" ] },
      { "delegate": "tz1gUNyn3hmnEWqkusWPzxRaon1cs7ndWh7h",
        "reception_time": "2022-01-20T19:49:46.832-00:00",
        "included_in_blocks":
          [ "BM9Do4L2fTQ3wJ6MbjGpW428quAfE6aELK9MNiG4VqqHi6HueGA" ] },
      { "delegate": "tz1VQnqCCqX4K5sP3FNkVSNKTdCAMJDd3E1n",
        "reception_time": "2022-01-20T19:49:46.835-00:00",
        "included_in_blocks":
          [ "BM9Do4L2fTQ3wJ6MbjGpW428quAfE6aELK9MNiG4VqqHi6HueGA" ] },
      { "delegate": "tz1Scdr2HsZiQjc7bHMeBbmDRXYVvdhjJbBh",
        "reception_time": "2022-01-20T19:49:46.824-00:00",
        "included_in_blocks":
          [ "BM9Do4L2fTQ3wJ6MbjGpW428quAfE6aELK9MNiG4VqqHi6HueGA" ] },
      { "delegate": "tz1STeamwbp68THcny9zk3LsbG3H36DMvbRK",
        "reception_time": "2022-01-20T19:49:46.824-00:00",
        "included_in_blocks":
          [ "BM9Do4L2fTQ3wJ6MbjGpW428quAfE6aELK9MNiG4VqqHi6HueGA" ] },
      { "delegate": "tz1eEnQhbwf6trb8Q8mPb2RaPkNk2rN7BKi8",
        "reception_time": "2022-01-20T19:49:46.811-00:00",
        "included_in_blocks":
          [ "BM9Do4L2fTQ3wJ6MbjGpW428quAfE6aELK9MNiG4VqqHi6HueGA" ] },
      { "delegate": "tz1irJKkXS2DBWkU1NnmFQx1c1L7pbGg4yhk",
        "reception_time": "2022-01-20T19:49:46.816-00:00",
        "included_in_blocks":
          [ "BM9Do4L2fTQ3wJ6MbjGpW428quAfE6aELK9MNiG4VqqHi6HueGA" ] },
      { "delegate": "tz1Lhf4J9Qxoe3DZ2nfe8FGDnvVj7oKjnMY6",
        "reception_time": "2022-01-20T19:49:46.807-00:00",
        "included_in_blocks":
          [ "BM9Do4L2fTQ3wJ6MbjGpW428quAfE6aELK9MNiG4VqqHi6HueGA" ] } ] }