{ "blocks":
    [ { "hash": "BLbzJWhSyQpmxVtLrB4yJeYnHJbUm3hR7HVohyazKESRLSCAxA7",
        "delegate": "tz1aRoaRhSpRYvFdyvgWLL6TGyRoGF51wDjM",
        "reception_time": "2022-01-20T19:10:53.116-00:00",
        "timestamp": "2022-01-20T19:10:40Z" } ],
  "endorsements":
    [ { "delegate": "tz1fUyqYH7H4pRHN1roWY17giXhy1RvxjgUV" },
      { "delegate": "tz1awXW7wuXy21c66vBudMXQVAPgRnqqwgTH" },
      { "delegate": "tz1W5VkdB5s7ENMESVBtwyt9kyvLqPcUczRT" },
      { "delegate": "tz1RjoHc98dBoqaH2jawF62XNKh7YsHwbkEv" },
      { "delegate": "tz1YhNsiRRU8aHNGg7NK3uuP6UDAyacJernB",
        "reception_time": "2022-01-20T19:10:53.119-00:00",
        "errors":
          [ { "kind": "temporary",
              "id": "proto.011-PtHangz2.prefilter.outdated_endorsement" } ],
        "included_in_blocks":
          [ "BMCbLFq3sx3rgkpyhUNEWVCm1y3qEaaWzpdUVqnuHWwxL6dxDSM" ] },
      { "delegate": "tz1PWCDnz783NNGGQjEFFsHtrcK5yBW4E2rm",
        "reception_time": "2022-01-20T19:10:53.022-00:00",
        "errors":
          [ { "kind": "temporary",
              "id": "proto.011-PtHangz2.prefilter.outdated_endorsement" } ],
        "included_in_blocks":
          [ "BMCbLFq3sx3rgkpyhUNEWVCm1y3qEaaWzpdUVqnuHWwxL6dxDSM" ] },
      { "delegate": "tz3bTdwZinP8U1JmSweNzVKhmwafqWmFWRfk",
        "reception_time": "2022-01-20T19:10:52.991-00:00",
        "errors":
          [ { "kind": "temporary",
              "id": "proto.011-PtHangz2.prefilter.outdated_endorsement" } ],
        "included_in_blocks":
          [ "BMCbLFq3sx3rgkpyhUNEWVCm1y3qEaaWzpdUVqnuHWwxL6dxDSM" ] },
      { "delegate": "tz3S6BBeKgJGXxvLyZ1xzXzMPn11nnFtq5L9",
        "reception_time": "2022-01-20T19:10:52.957-00:00",
        "errors":
          [ { "kind": "temporary",
              "id": "proto.011-PtHangz2.prefilter.outdated_endorsement" } ],
        "included_in_blocks":
          [ "BMCbLFq3sx3rgkpyhUNEWVCm1y3qEaaWzpdUVqnuHWwxL6dxDSM" ] },
      { "delegate": "tz3QT9dHYKDqh563chVa6za8526ys1UKfRfL",
        "reception_time": "2022-01-20T19:10:52.956-00:00",
        "errors":
          [ { "kind": "temporary",
              "id": "proto.011-PtHangz2.prefilter.outdated_endorsement" } ],
        "included_in_blocks":
          [ "BMCbLFq3sx3rgkpyhUNEWVCm1y3qEaaWzpdUVqnuHWwxL6dxDSM" ] },
      { "delegate": "tz3bvNMQ95vfAYtG8193ymshqjSvmxiCUuR5",
        "reception_time": "2022-01-20T19:10:52.911-00:00",
        "errors":
          [ { "kind": "temporary",
              "id": "proto.011-PtHangz2.prefilter.outdated_endorsement" } ],
        "included_in_blocks":
          [ "BMCbLFq3sx3rgkpyhUNEWVCm1y3qEaaWzpdUVqnuHWwxL6dxDSM" ] },
      { "delegate": "tz3RB4aoyjov4KEVRbuhvQ1CKJgBJMWhaeB8",
        "reception_time": "2022-01-20T19:10:52.910-00:00",
        "errors":
          [ { "kind": "temporary",
              "id": "proto.011-PtHangz2.prefilter.outdated_endorsement" } ],
        "included_in_blocks":
          [ "BMCbLFq3sx3rgkpyhUNEWVCm1y3qEaaWzpdUVqnuHWwxL6dxDSM" ] },
      { "delegate": "tz1NSDFKuRyzHxpfG1AMkyCwEiZ52cbR2mRW",
        "reception_time": "2022-01-20T19:10:52.883-00:00",
        "errors":
          [ { "kind": "temporary",
              "id": "proto.011-PtHangz2.prefilter.outdated_endorsement" } ],
        "included_in_blocks":
          [ "BMCbLFq3sx3rgkpyhUNEWVCm1y3qEaaWzpdUVqnuHWwxL6dxDSM" ] },
      { "delegate": "tz1irJKkXS2DBWkU1NnmFQx1c1L7pbGg4yhk",
        "reception_time": "2022-01-20T19:10:52.804-00:00",
        "errors":
          [ { "kind": "temporary",
              "id": "proto.011-PtHangz2.prefilter.outdated_endorsement" } ],
        "included_in_blocks":
          [ "BMCbLFq3sx3rgkpyhUNEWVCm1y3qEaaWzpdUVqnuHWwxL6dxDSM" ] },
      { "delegate": "tz3RKYFsLuQzKBtmYuLNas7uMu3AsYd4QdsA",
        "reception_time": "2022-01-20T19:10:52.632-00:00",
        "errors":
          [ { "kind": "temporary",
              "id": "proto.011-PtHangz2.prefilter.outdated_endorsement" } ],
        "included_in_blocks":
          [ "BMCbLFq3sx3rgkpyhUNEWVCm1y3qEaaWzpdUVqnuHWwxL6dxDSM" ] },
      { "delegate": "tz3hw2kqXhLUvY65ca1eety2oQTpAvd34R9Q",
        "reception_time": "2022-01-20T19:10:52.631-00:00",
        "errors":
          [ { "kind": "temporary",
              "id": "proto.011-PtHangz2.prefilter.outdated_endorsement" } ],
        "included_in_blocks":
          [ "BMCbLFq3sx3rgkpyhUNEWVCm1y3qEaaWzpdUVqnuHWwxL6dxDSM" ] },
      { "delegate": "tz3Zhs2dygr55yHyQyKjntAtY9bgfhLZ4Xj1",
        "reception_time": "2022-01-20T19:10:52.523-00:00",
        "errors":
          [ { "kind": "temporary",
              "id": "proto.011-PtHangz2.prefilter.outdated_endorsement" } ],
        "included_in_blocks":
          [ "BMCbLFq3sx3rgkpyhUNEWVCm1y3qEaaWzpdUVqnuHWwxL6dxDSM" ] },
      { "delegate": "tz1VQnqCCqX4K5sP3FNkVSNKTdCAMJDd3E1n",
        "reception_time": "2022-01-20T19:10:52.508-00:00",
        "errors":
          [ { "kind": "temporary",
              "id": "proto.011-PtHangz2.prefilter.outdated_endorsement" } ],
        "included_in_blocks":
          [ "BMCbLFq3sx3rgkpyhUNEWVCm1y3qEaaWzpdUVqnuHWwxL6dxDSM" ] },
      { "delegate": "tz3iJu5vrKZcsqRPs8yJ61UDoeEXZmtro4qh",
        "reception_time": "2022-01-20T19:10:52.497-00:00",
        "errors":
          [ { "kind": "temporary",
              "id": "proto.011-PtHangz2.prefilter.outdated_endorsement" } ],
        "included_in_blocks":
          [ "BMCbLFq3sx3rgkpyhUNEWVCm1y3qEaaWzpdUVqnuHWwxL6dxDSM" ] },
      { "delegate": "tz3QSGPoRp3Kn7n3vY24eYeu3Peuqo45LQ4D",
        "reception_time": "2022-01-20T19:10:52.497-00:00",
        "errors":
          [ { "kind": "temporary",
              "id": "proto.011-PtHangz2.prefilter.outdated_endorsement" } ],
        "included_in_blocks":
          [ "BMCbLFq3sx3rgkpyhUNEWVCm1y3qEaaWzpdUVqnuHWwxL6dxDSM" ] },
      { "delegate": "tz1gUNyn3hmnEWqkusWPzxRaon1cs7ndWh7h",
        "reception_time": "2022-01-20T19:10:52.497-00:00",
        "errors":
          [ { "kind": "temporary",
              "id": "proto.011-PtHangz2.prefilter.outdated_endorsement" } ],
        "included_in_blocks":
          [ "BMCbLFq3sx3rgkpyhUNEWVCm1y3qEaaWzpdUVqnuHWwxL6dxDSM" ] },
      { "delegate": "tz1cSj7fTex3JPd1p1LN1fwek6AV1kH93Wwc",
        "reception_time": "2022-01-20T19:10:52.497-00:00",
        "errors":
          [ { "kind": "temporary",
              "id": "proto.011-PtHangz2.prefilter.outdated_endorsement" } ],
        "included_in_blocks":
          [ "BMCbLFq3sx3rgkpyhUNEWVCm1y3qEaaWzpdUVqnuHWwxL6dxDSM" ] },
      { "delegate": "tz3gtoUxdudfBRcNY7iVdKPHCYYX6xdPpoRS",
        "reception_time": "2022-01-20T19:10:52.480-00:00",
        "errors":
          [ { "kind": "temporary",
              "id": "proto.011-PtHangz2.prefilter.outdated_endorsement" } ],
        "included_in_blocks":
          [ "BMCbLFq3sx3rgkpyhUNEWVCm1y3qEaaWzpdUVqnuHWwxL6dxDSM" ] },
      { "delegate": "tz1TzaNn7wSQSP5gYPXCnNzBCpyMiidCq1PX",
        "reception_time": "2022-01-20T19:10:52.470-00:00",
        "errors":
          [ { "kind": "temporary",
              "id": "proto.011-PtHangz2.prefilter.outdated_endorsement" } ],
        "included_in_blocks":
          [ "BMCbLFq3sx3rgkpyhUNEWVCm1y3qEaaWzpdUVqnuHWwxL6dxDSM" ] },
      { "delegate": "tz1ia6jze3LrBGWJkaDmZ7ThJpPsYWh8D398",
        "reception_time": "2022-01-20T19:10:52.456-00:00",
        "errors":
          [ { "kind": "temporary",
              "id": "proto.011-PtHangz2.prefilter.outdated_endorsement" } ],
        "included_in_blocks":
          [ "BMCbLFq3sx3rgkpyhUNEWVCm1y3qEaaWzpdUVqnuHWwxL6dxDSM" ] },
      { "delegate": "tz1WCd2jm4uSt4vntk4vSuUWoZQGhLcDuR9q",
        "reception_time": "2022-01-20T19:10:52.361-00:00",
        "errors":
          [ { "kind": "temporary",
              "id": "proto.011-PtHangz2.prefilter.outdated_endorsement" } ],
        "included_in_blocks":
          [ "BMCbLFq3sx3rgkpyhUNEWVCm1y3qEaaWzpdUVqnuHWwxL6dxDSM" ] },
      { "delegate": "tz1VmiY38m3y95HqQLjMwqnMS7sdMfGomzKi",
        "reception_time": "2022-01-20T19:10:52.326-00:00",
        "errors":
          [ { "kind": "temporary",
              "id": "proto.011-PtHangz2.prefilter.outdated_endorsement" } ],
        "included_in_blocks":
          [ "BMCbLFq3sx3rgkpyhUNEWVCm1y3qEaaWzpdUVqnuHWwxL6dxDSM" ] },
      { "delegate": "tz1Ldzz6k1BHdhuKvAtMRX7h5kJSMHESMHLC",
        "reception_time": "2022-01-20T19:10:52.224-00:00",
        "errors":
          [ { "kind": "temporary",
              "id": "proto.011-PtHangz2.prefilter.outdated_endorsement" } ],
        "included_in_blocks":
          [ "BMCbLFq3sx3rgkpyhUNEWVCm1y3qEaaWzpdUVqnuHWwxL6dxDSM" ] },
      { "delegate": "tz3ZbP2pM3nwvXztbuMJwJnDvV5xdpU8UkkD",
        "reception_time": "2022-01-20T19:10:52.127-00:00",
        "errors":
          [ { "kind": "temporary",
              "id": "proto.011-PtHangz2.prefilter.outdated_endorsement" } ],
        "included_in_blocks":
          [ "BMCbLFq3sx3rgkpyhUNEWVCm1y3qEaaWzpdUVqnuHWwxL6dxDSM" ] },
      { "delegate": "tz3NxTnke1acr8o3h5y9ytf5awQBGNJUKzVU",
        "reception_time": "2022-01-20T19:10:52.071-00:00",
        "errors":
          [ { "kind": "temporary",
              "id": "proto.011-PtHangz2.prefilter.outdated_endorsement" } ],
        "included_in_blocks":
          [ "BMCbLFq3sx3rgkpyhUNEWVCm1y3qEaaWzpdUVqnuHWwxL6dxDSM" ] },
      { "delegate": "tz1TRspM5SeZpaQUhzByXbEvqKF1vnCM2YTK",
        "reception_time": "2022-01-20T19:10:52.023-00:00",
        "errors":
          [ { "kind": "temporary",
              "id": "proto.011-PtHangz2.prefilter.outdated_endorsement" } ],
        "included_in_blocks":
          [ "BMCbLFq3sx3rgkpyhUNEWVCm1y3qEaaWzpdUVqnuHWwxL6dxDSM" ] },
      { "delegate": "tz1ZPh7XfUaJXUDvkrBxmS1BjEM1i62hiPpM",
        "reception_time": "2022-01-20T19:10:51.757-00:00",
        "errors":
          [ { "kind": "temporary",
              "id": "proto.011-PtHangz2.prefilter.outdated_endorsement" } ],
        "included_in_blocks":
          [ "BMCbLFq3sx3rgkpyhUNEWVCm1y3qEaaWzpdUVqnuHWwxL6dxDSM" ] },
      { "delegate": "tz1eEnQhbwf6trb8Q8mPb2RaPkNk2rN7BKi8",
        "reception_time": "2022-01-20T19:10:51.375-00:00",
        "errors":
          [ { "kind": "temporary",
              "id": "proto.011-PtHangz2.prefilter.outdated_endorsement" } ],
        "included_in_blocks":
          [ "BMCbLFq3sx3rgkpyhUNEWVCm1y3qEaaWzpdUVqnuHWwxL6dxDSM" ] },
      { "delegate": "tz1aKxnrzx5PXZJe7unufEswVRCMU9yafmfb",
        "reception_time": "2022-01-20T19:10:51.331-00:00",
        "errors":
          [ { "kind": "temporary",
              "id": "proto.011-PtHangz2.prefilter.outdated_endorsement" } ],
        "included_in_blocks":
          [ "BMCbLFq3sx3rgkpyhUNEWVCm1y3qEaaWzpdUVqnuHWwxL6dxDSM" ] },
      { "delegate": "tz1P2Po7YM526ughEsRbY4oR9zaUPDZjxFrb",
        "reception_time": "2022-01-20T19:10:51.226-00:00",
        "errors":
          [ { "kind": "temporary",
              "id": "proto.011-PtHangz2.prefilter.outdated_endorsement" } ],
        "included_in_blocks":
          [ "BMCbLFq3sx3rgkpyhUNEWVCm1y3qEaaWzpdUVqnuHWwxL6dxDSM" ] },
      { "delegate": "tz1Lhf4J9Qxoe3DZ2nfe8FGDnvVj7oKjnMY6",
        "reception_time": "2022-01-20T19:10:51.212-00:00",
        "errors":
          [ { "kind": "temporary",
              "id": "proto.011-PtHangz2.prefilter.outdated_endorsement" } ],
        "included_in_blocks":
          [ "BMCbLFq3sx3rgkpyhUNEWVCm1y3qEaaWzpdUVqnuHWwxL6dxDSM" ] },
      { "delegate": "tz1S8e9GgdZG78XJRB3NqabfWeM37GnhZMWQ",
        "reception_time": "2022-01-20T19:10:50.835-00:00",
        "errors":
          [ { "kind": "temporary",
              "id": "proto.011-PtHangz2.prefilter.outdated_endorsement" } ],
        "included_in_blocks":
          [ "BMCbLFq3sx3rgkpyhUNEWVCm1y3qEaaWzpdUVqnuHWwxL6dxDSM" ] },
      { "delegate": "tz1NpWrAyDL9k2Lmnyxcgr9xuJakbBxdq7FB",
        "reception_time": "2022-01-20T19:11:03.488-00:00",
        "included_in_blocks":
          [ "BMCbLFq3sx3rgkpyhUNEWVCm1y3qEaaWzpdUVqnuHWwxL6dxDSM" ] },
      { "delegate": "tz1R664EP6wjcM1RSUVJ7nrJisTpBW9QyJzP",
        "reception_time": "2022-01-20T19:11:01.168-00:00",
        "included_in_blocks":
          [ "BMCbLFq3sx3rgkpyhUNEWVCm1y3qEaaWzpdUVqnuHWwxL6dxDSM" ] },
      { "delegate": "tz1go7f6mEQfT2xX2LuHAqgnRGN6c2zHPf5c",
        "reception_time": "2022-01-20T19:10:59.181-00:00",
        "included_in_blocks":
          [ "BMCbLFq3sx3rgkpyhUNEWVCm1y3qEaaWzpdUVqnuHWwxL6dxDSM" ] },
      { "delegate": "tz1Xsrfv6hn86fp88YfRs6xcKwt2nTqxVZYM",
        "reception_time": "2022-01-20T19:10:56.664-00:00",
        "included_in_blocks":
          [ "BMCbLFq3sx3rgkpyhUNEWVCm1y3qEaaWzpdUVqnuHWwxL6dxDSM" ] },
      { "delegate": "tz1bTpviNnyx2PXsNmGpCQTMQsGoYordkUoA",
        "reception_time": "2022-01-20T19:10:55.709-00:00",
        "included_in_blocks":
          [ "BMCbLFq3sx3rgkpyhUNEWVCm1y3qEaaWzpdUVqnuHWwxL6dxDSM" ] },
      { "delegate": "tz3NExpXn9aPNZPorRE4SdjJ2RGrfbJgMAaV",
        "reception_time": "2022-01-20T19:10:55.709-00:00",
        "included_in_blocks":
          [ "BMCbLFq3sx3rgkpyhUNEWVCm1y3qEaaWzpdUVqnuHWwxL6dxDSM" ] },
      { "delegate": "tz1aRoaRhSpRYvFdyvgWLL6TGyRoGF51wDjM",
        "reception_time": "2022-01-20T19:10:55.115-00:00",
        "included_in_blocks":
          [ "BMCbLFq3sx3rgkpyhUNEWVCm1y3qEaaWzpdUVqnuHWwxL6dxDSM" ] },
      { "delegate": "tz3gLTu4Yxj8tPAcriQVUdxv6BY9QyvzU1az",
        "reception_time": "2022-01-20T19:10:55.115-00:00",
        "included_in_blocks":
          [ "BMCbLFq3sx3rgkpyhUNEWVCm1y3qEaaWzpdUVqnuHWwxL6dxDSM" ] },
      { "delegate": "tz3NDpRj6WBrJPikcPVHRBEjWKxFw3c6eQPS",
        "reception_time": "2022-01-20T19:10:55.115-00:00",
        "included_in_blocks":
          [ "BMCbLFq3sx3rgkpyhUNEWVCm1y3qEaaWzpdUVqnuHWwxL6dxDSM" ] },
      { "delegate": "tz1SYq214SCBy9naR6cvycQsYcUGpBqQAE8d",
        "reception_time": "2022-01-20T19:10:54.725-00:00",
        "included_in_blocks":
          [ "BMCbLFq3sx3rgkpyhUNEWVCm1y3qEaaWzpdUVqnuHWwxL6dxDSM" ] },
      { "delegate": "tz1dRKU4FQ9QRRQPdaH4zCR6gmCmXfcvcgtB",
        "reception_time": "2022-01-20T19:10:54.725-00:00",
        "included_in_blocks":
          [ "BMCbLFq3sx3rgkpyhUNEWVCm1y3qEaaWzpdUVqnuHWwxL6dxDSM" ] },
      { "delegate": "tz1cYufsxHXJcvANhvS55h3aY32a9BAFB494",
        "reception_time": "2022-01-20T19:10:54.725-00:00",
        "included_in_blocks":
          [ "BMCbLFq3sx3rgkpyhUNEWVCm1y3qEaaWzpdUVqnuHWwxL6dxDSM" ] },
      { "delegate": "tz3RDC3Jdn4j15J7bBHZd29EUee9gVB1CxD9",
        "reception_time": "2022-01-20T19:10:54.725-00:00",
        "included_in_blocks":
          [ "BMCbLFq3sx3rgkpyhUNEWVCm1y3qEaaWzpdUVqnuHWwxL6dxDSM" ] },
      { "delegate": "tz3VEZ4k6a4Wx42iyev6i2aVAptTRLEAivNN",
        "reception_time": "2022-01-20T19:10:54.725-00:00",
        "included_in_blocks":
          [ "BMCbLFq3sx3rgkpyhUNEWVCm1y3qEaaWzpdUVqnuHWwxL6dxDSM" ] },
      { "delegate": "tz3WMqdzXqRWXwyvj5Hp2H7QEepaUuS7vd9K",
        "reception_time": "2022-01-20T19:10:54.725-00:00",
        "included_in_blocks":
          [ "BMCbLFq3sx3rgkpyhUNEWVCm1y3qEaaWzpdUVqnuHWwxL6dxDSM" ] },
      { "delegate": "tz3UoffC7FG7zfpmvmjUmUeAaHvzdcUvAj6r",
        "reception_time": "2022-01-20T19:10:54.725-00:00",
        "included_in_blocks":
          [ "BMCbLFq3sx3rgkpyhUNEWVCm1y3qEaaWzpdUVqnuHWwxL6dxDSM" ] },
      { "delegate": "tz1KfEsrtDaA1sX7vdM4qmEPWuSytuqCDp5j",
        "reception_time": "2022-01-20T19:10:54.725-00:00",
        "included_in_blocks":
          [ "BMCbLFq3sx3rgkpyhUNEWVCm1y3qEaaWzpdUVqnuHWwxL6dxDSM" ] },
      { "delegate": "tz1TRqbYbUf2GyrjErf3hBzgBJPzW8y36qEs",
        "reception_time": "2022-01-20T19:10:54.725-00:00",
        "included_in_blocks":
          [ "BMCbLFq3sx3rgkpyhUNEWVCm1y3qEaaWzpdUVqnuHWwxL6dxDSM" ] },
      { "delegate": "tz1WctSwL49BZtdWAQ75NY6vr4xsAx6oKdah",
        "reception_time": "2022-01-20T19:10:54.725-00:00",
        "included_in_blocks":
          [ "BMCbLFq3sx3rgkpyhUNEWVCm1y3qEaaWzpdUVqnuHWwxL6dxDSM" ] },
      { "delegate": "tz1LmaFsWRkjr7QMCx5PtV6xTUz3AmEpKQiF",
        "reception_time": "2022-01-20T19:10:54.725-00:00",
        "included_in_blocks":
          [ "BMCbLFq3sx3rgkpyhUNEWVCm1y3qEaaWzpdUVqnuHWwxL6dxDSM" ] },
      { "delegate": "tz2FCNBrERXtaTtNX6iimR1UJ5JSDxvdHM93",
        "reception_time": "2022-01-20T19:10:54.725-00:00",
        "included_in_blocks":
          [ "BMCbLFq3sx3rgkpyhUNEWVCm1y3qEaaWzpdUVqnuHWwxL6dxDSM" ] },
      { "delegate": "tz1WBfwbT66FC6BTLexc2BoyCCBM9LG7pnVW",
        "reception_time": "2022-01-20T19:10:54.725-00:00",
        "included_in_blocks":
          [ "BMCbLFq3sx3rgkpyhUNEWVCm1y3qEaaWzpdUVqnuHWwxL6dxDSM" ] },
      { "delegate": "tz1NEKxGEHsFufk87CVZcrqWu8o22qh46GK6",
        "reception_time": "2022-01-20T19:10:54.725-00:00",
        "included_in_blocks":
          [ "BMCbLFq3sx3rgkpyhUNEWVCm1y3qEaaWzpdUVqnuHWwxL6dxDSM" ] },
      { "delegate": "tz1fwnfJNgiDACshK9avfRfFbMaXrs3ghoJa",
        "reception_time": "2022-01-20T19:10:54.725-00:00",
        "included_in_blocks":
          [ "BMCbLFq3sx3rgkpyhUNEWVCm1y3qEaaWzpdUVqnuHWwxL6dxDSM" ] },
      { "delegate": "tz1g8vkmcde6sWKaG2NN9WKzCkDM6Rziq194",
        "reception_time": "2022-01-20T19:10:54.725-00:00",
        "included_in_blocks":
          [ "BMCbLFq3sx3rgkpyhUNEWVCm1y3qEaaWzpdUVqnuHWwxL6dxDSM" ] },
      { "delegate": "tz1ei4WtWEMEJekSv8qDnu9PExG6Q8HgRGr3",
        "reception_time": "2022-01-20T19:10:54.725-00:00",
        "included_in_blocks":
          [ "BMCbLFq3sx3rgkpyhUNEWVCm1y3qEaaWzpdUVqnuHWwxL6dxDSM" ] },
      { "delegate": "tz3QCNyySViKHmeSr45kzDxzchys7NiXCWoa",
        "reception_time": "2022-01-20T19:10:54.725-00:00",
        "included_in_blocks":
          [ "BMCbLFq3sx3rgkpyhUNEWVCm1y3qEaaWzpdUVqnuHWwxL6dxDSM" ] },
      { "delegate": "tz1UMCB2AHSTwG7YcGNr31CqYCtGN873royv",
        "reception_time": "2022-01-20T19:10:54.725-00:00",
        "included_in_blocks":
          [ "BMCbLFq3sx3rgkpyhUNEWVCm1y3qEaaWzpdUVqnuHWwxL6dxDSM" ] },
      { "delegate": "tz1TEc75UKXv4W5cwi14Na3NtqFD51yKQi7h",
        "reception_time": "2022-01-20T19:10:54.725-00:00",
        "included_in_blocks":
          [ "BMCbLFq3sx3rgkpyhUNEWVCm1y3qEaaWzpdUVqnuHWwxL6dxDSM" ] },
      { "delegate": "tz1S8MNvuFEUsWgjHvi3AxibRBf388NhT1q2",
        "reception_time": "2022-01-20T19:10:54.725-00:00",
        "included_in_blocks":
          [ "BMCbLFq3sx3rgkpyhUNEWVCm1y3qEaaWzpdUVqnuHWwxL6dxDSM" ] },
      { "delegate": "tz1MQJPGNMijnXnVoBENFz9rUhaPt3S7rWoz",
        "reception_time": "2022-01-20T19:10:54.725-00:00",
        "included_in_blocks":
          [ "BMCbLFq3sx3rgkpyhUNEWVCm1y3qEaaWzpdUVqnuHWwxL6dxDSM" ] },
      { "delegate": "tz1Nf6tsK4G6bBqgSQERy4nUtkHNKUVdh7q1",
        "reception_time": "2022-01-20T19:10:54.725-00:00",
        "included_in_blocks":
          [ "BMCbLFq3sx3rgkpyhUNEWVCm1y3qEaaWzpdUVqnuHWwxL6dxDSM" ] },
      { "delegate": "tz1RCFbB9GpALpsZtu6J58sb74dm8qe6XBzv",
        "reception_time": "2022-01-20T19:10:54.725-00:00",
        "included_in_blocks":
          [ "BMCbLFq3sx3rgkpyhUNEWVCm1y3qEaaWzpdUVqnuHWwxL6dxDSM" ] },
      { "delegate": "tz1gfArv665EUkSg2ojMBzcbfwuPxAvqPvjo",
        "reception_time": "2022-01-20T19:10:54.725-00:00",
        "included_in_blocks":
          [ "BMCbLFq3sx3rgkpyhUNEWVCm1y3qEaaWzpdUVqnuHWwxL6dxDSM" ] } ] }