{ "blocks":
    [ { "hash": "BMMcvJfjQB8mPXB1Whuq1UsMYKQFGvgA1UJZubht6BHSmoZRyCE",
        "delegate": "tz1Ldzz6k1BHdhuKvAtMRX7h5kJSMHESMHLC",
        "reception_time": "2022-01-20T14:01:10.525-00:00",
        "timestamp": "2022-01-20T14:01:00Z" } ],
  "endorsements":
    [ { "delegate": "tz1aXD7Jigrt3PBYSpHSg5Rr33SexMmmM5Ys",
        "reception_time": "2022-01-20T14:01:10.526-00:00",
        "errors":
          [ { "kind": "temporary",
              "id": "proto.011-PtHangz2.prefilter.outdated_endorsement" } ],
        "included_in_blocks":
          [ "BLKvPoBovJbffuuBDHAzD4nT528VtMsKeFdnpcgdvC1dafBo89k" ] },
      { "delegate": "tz1WCd2jm4uSt4vntk4vSuUWoZQGhLcDuR9q",
        "reception_time": "2022-01-20T14:01:10.323-00:00",
        "errors":
          [ { "kind": "temporary",
              "id": "proto.011-PtHangz2.prefilter.outdated_endorsement" } ],
        "included_in_blocks":
          [ "BLKvPoBovJbffuuBDHAzD4nT528VtMsKeFdnpcgdvC1dafBo89k" ] },
      { "delegate": "tz1eEnQhbwf6trb8Q8mPb2RaPkNk2rN7BKi8",
        "reception_time": "2022-01-20T14:01:10.288-00:00",
        "errors":
          [ { "kind": "temporary",
              "id": "proto.011-PtHangz2.prefilter.outdated_endorsement" } ],
        "included_in_blocks":
          [ "BLKvPoBovJbffuuBDHAzD4nT528VtMsKeFdnpcgdvC1dafBo89k" ] },
      { "delegate": "tz1RV1MBbZMR68tacosb7Mwj6LkbPSUS1er1",
        "reception_time": "2022-01-20T14:01:09.918-00:00",
        "errors":
          [ { "kind": "temporary",
              "id": "proto.011-PtHangz2.prefilter.outdated_endorsement" } ],
        "included_in_blocks":
          [ "BLKvPoBovJbffuuBDHAzD4nT528VtMsKeFdnpcgdvC1dafBo89k" ] },
      { "delegate": "tz1aqcYgG6NuViML5vdWhohHJBYxcDVLNUsE",
        "reception_time": "2022-01-20T14:01:09.785-00:00",
        "errors":
          [ { "kind": "temporary",
              "id": "proto.011-PtHangz2.prefilter.outdated_endorsement" } ],
        "included_in_blocks":
          [ "BLKvPoBovJbffuuBDHAzD4nT528VtMsKeFdnpcgdvC1dafBo89k" ] },
      { "delegate": "tz1TXzyaKUA8wsWefdSnyaYFnV2M3vCV7er9",
        "reception_time": "2022-01-20T14:01:09.745-00:00",
        "errors":
          [ { "kind": "temporary",
              "id": "proto.011-PtHangz2.prefilter.outdated_endorsement" } ],
        "included_in_blocks":
          [ "BLKvPoBovJbffuuBDHAzD4nT528VtMsKeFdnpcgdvC1dafBo89k" ] },
      { "delegate": "tz1STeamwbp68THcny9zk3LsbG3H36DMvbRK",
        "reception_time": "2022-01-20T14:01:09.715-00:00",
        "errors":
          [ { "kind": "temporary",
              "id": "proto.011-PtHangz2.prefilter.outdated_endorsement" } ],
        "included_in_blocks":
          [ "BLKvPoBovJbffuuBDHAzD4nT528VtMsKeFdnpcgdvC1dafBo89k" ] },
      { "delegate": "tz1irJKkXS2DBWkU1NnmFQx1c1L7pbGg4yhk",
        "reception_time": "2022-01-20T14:01:09.553-00:00",
        "errors":
          [ { "kind": "temporary",
              "id": "proto.011-PtHangz2.prefilter.outdated_endorsement" } ],
        "included_in_blocks":
          [ "BLKvPoBovJbffuuBDHAzD4nT528VtMsKeFdnpcgdvC1dafBo89k" ] },
      { "delegate": "tz1Lhf4J9Qxoe3DZ2nfe8FGDnvVj7oKjnMY6",
        "reception_time": "2022-01-20T14:01:09.536-00:00",
        "errors":
          [ { "kind": "temporary",
              "id": "proto.011-PtHangz2.prefilter.outdated_endorsement" } ],
        "included_in_blocks":
          [ "BLKvPoBovJbffuuBDHAzD4nT528VtMsKeFdnpcgdvC1dafBo89k" ] },
      { "delegate": "tz1VQnqCCqX4K5sP3FNkVSNKTdCAMJDd3E1n",
        "reception_time": "2022-01-20T14:01:09.310-00:00",
        "errors":
          [ { "kind": "temporary",
              "id": "proto.011-PtHangz2.prefilter.outdated_endorsement" } ],
        "included_in_blocks":
          [ "BLKvPoBovJbffuuBDHAzD4nT528VtMsKeFdnpcgdvC1dafBo89k" ] },
      { "delegate": "tz1gUNyn3hmnEWqkusWPzxRaon1cs7ndWh7h",
        "reception_time": "2022-01-20T14:01:09.309-00:00",
        "errors":
          [ { "kind": "temporary",
              "id": "proto.011-PtHangz2.prefilter.outdated_endorsement" } ],
        "included_in_blocks":
          [ "BLKvPoBovJbffuuBDHAzD4nT528VtMsKeFdnpcgdvC1dafBo89k" ] },
      { "delegate": "tz1P2Po7YM526ughEsRbY4oR9zaUPDZjxFrb",
        "reception_time": "2022-01-20T14:01:09.303-00:00",
        "errors":
          [ { "kind": "temporary",
              "id": "proto.011-PtHangz2.prefilter.outdated_endorsement" } ],
        "included_in_blocks":
          [ "BLKvPoBovJbffuuBDHAzD4nT528VtMsKeFdnpcgdvC1dafBo89k" ] },
      { "delegate": "tz1XfAjZyaLdceHnZxbMYop7g7kWKPut4PR7",
        "reception_time": "2022-01-20T14:01:09.234-00:00",
        "errors":
          [ { "kind": "temporary",
              "id": "proto.011-PtHangz2.prefilter.outdated_endorsement" } ],
        "included_in_blocks":
          [ "BLKvPoBovJbffuuBDHAzD4nT528VtMsKeFdnpcgdvC1dafBo89k" ] },
      { "delegate": "tz1aKxnrzx5PXZJe7unufEswVRCMU9yafmfb",
        "reception_time": "2022-01-20T14:01:08.933-00:00",
        "errors":
          [ { "kind": "temporary",
              "id": "proto.011-PtHangz2.prefilter.outdated_endorsement" } ],
        "included_in_blocks":
          [ "BLKvPoBovJbffuuBDHAzD4nT528VtMsKeFdnpcgdvC1dafBo89k" ] },
      { "delegate": "tz1Zhv3RkfU2pHrmaiDyxp7kFZpZrUCu1CiF",
        "reception_time": "2022-01-20T14:01:08.678-00:00",
        "errors":
          [ { "kind": "temporary",
              "id": "proto.011-PtHangz2.prefilter.outdated_endorsement" } ],
        "included_in_blocks":
          [ "BLKvPoBovJbffuuBDHAzD4nT528VtMsKeFdnpcgdvC1dafBo89k" ] },
      { "delegate": "tz1Ldzz6k1BHdhuKvAtMRX7h5kJSMHESMHLC",
        "reception_time": "2022-01-20T14:01:08.535-00:00",
        "errors":
          [ { "kind": "temporary",
              "id": "proto.011-PtHangz2.prefilter.outdated_endorsement" } ],
        "included_in_blocks":
          [ "BLKvPoBovJbffuuBDHAzD4nT528VtMsKeFdnpcgdvC1dafBo89k" ] },
      { "delegate": "tz1RjoHc98dBoqaH2jawF62XNKh7YsHwbkEv" },
      { "delegate": "tz1W5VkdB5s7ENMESVBtwyt9kyvLqPcUczRT" },
      { "delegate": "tz1awXW7wuXy21c66vBudMXQVAPgRnqqwgTH" },
      { "delegate": "tz1ei4WtWEMEJekSv8qDnu9PExG6Q8HgRGr3",
        "reception_time": "2022-01-20T14:01:14.045-00:00",
        "included_in_blocks":
          [ "BLKvPoBovJbffuuBDHAzD4nT528VtMsKeFdnpcgdvC1dafBo89k" ] },
      { "delegate": "tz3QSGPoRp3Kn7n3vY24eYeu3Peuqo45LQ4D",
        "reception_time": "2022-01-20T14:01:14.045-00:00",
        "included_in_blocks":
          [ "BLKvPoBovJbffuuBDHAzD4nT528VtMsKeFdnpcgdvC1dafBo89k" ] },
      { "delegate": "tz3RKYFsLuQzKBtmYuLNas7uMu3AsYd4QdsA",
        "reception_time": "2022-01-20T14:01:14.045-00:00",
        "included_in_blocks":
          [ "BLKvPoBovJbffuuBDHAzD4nT528VtMsKeFdnpcgdvC1dafBo89k" ] },
      { "delegate": "tz1RQhNh7iB9CZA7i3ifTWNwiGYVffponfbB",
        "reception_time": "2022-01-20T14:01:14.045-00:00",
        "included_in_blocks":
          [ "BLKvPoBovJbffuuBDHAzD4nT528VtMsKeFdnpcgdvC1dafBo89k" ] },
      { "delegate": "tz3NxTnke1acr8o3h5y9ytf5awQBGNJUKzVU",
        "reception_time": "2022-01-20T14:01:14.614-00:00",
        "included_in_blocks":
          [ "BLKvPoBovJbffuuBDHAzD4nT528VtMsKeFdnpcgdvC1dafBo89k" ] },
      { "delegate": "tz1dRKU4FQ9QRRQPdaH4zCR6gmCmXfcvcgtB",
        "reception_time": "2022-01-20T14:01:14.614-00:00",
        "included_in_blocks":
          [ "BLKvPoBovJbffuuBDHAzD4nT528VtMsKeFdnpcgdvC1dafBo89k" ] },
      { "delegate": "tz3Zhs2dygr55yHyQyKjntAtY9bgfhLZ4Xj1",
        "reception_time": "2022-01-20T14:01:14.614-00:00",
        "included_in_blocks":
          [ "BLKvPoBovJbffuuBDHAzD4nT528VtMsKeFdnpcgdvC1dafBo89k" ] },
      { "delegate": "tz1MJx9vhaNRSimcuXPK2rW4fLccQnDAnVKJ",
        "reception_time": "2022-01-20T14:01:14.614-00:00",
        "included_in_blocks":
          [ "BLKvPoBovJbffuuBDHAzD4nT528VtMsKeFdnpcgdvC1dafBo89k" ] },
      { "delegate": "tz3QT9dHYKDqh563chVa6za8526ys1UKfRfL",
        "reception_time": "2022-01-20T14:01:14.614-00:00",
        "included_in_blocks":
          [ "BLKvPoBovJbffuuBDHAzD4nT528VtMsKeFdnpcgdvC1dafBo89k" ] },
      { "delegate": "tz3iJu5vrKZcsqRPs8yJ61UDoeEXZmtro4qh",
        "reception_time": "2022-01-20T14:01:14.783-00:00",
        "included_in_blocks":
          [ "BLKvPoBovJbffuuBDHAzD4nT528VtMsKeFdnpcgdvC1dafBo89k" ] },
      { "delegate": "tz1SYq214SCBy9naR6cvycQsYcUGpBqQAE8d",
        "reception_time": "2022-01-20T14:01:14.783-00:00",
        "included_in_blocks":
          [ "BLKvPoBovJbffuuBDHAzD4nT528VtMsKeFdnpcgdvC1dafBo89k" ] },
      { "delegate": "tz3S6BBeKgJGXxvLyZ1xzXzMPn11nnFtq5L9",
        "reception_time": "2022-01-20T14:01:14.793-00:00",
        "included_in_blocks":
          [ "BLKvPoBovJbffuuBDHAzD4nT528VtMsKeFdnpcgdvC1dafBo89k" ] },
      { "delegate": "tz1TEc75UKXv4W5cwi14Na3NtqFD51yKQi7h",
        "reception_time": "2022-01-20T14:01:14.793-00:00",
        "included_in_blocks":
          [ "BLKvPoBovJbffuuBDHAzD4nT528VtMsKeFdnpcgdvC1dafBo89k" ] },
      { "delegate": "tz3hw2kqXhLUvY65ca1eety2oQTpAvd34R9Q",
        "reception_time": "2022-01-20T14:01:14.808-00:00",
        "included_in_blocks":
          [ "BLKvPoBovJbffuuBDHAzD4nT528VtMsKeFdnpcgdvC1dafBo89k" ] },
      { "delegate": "tz1WBfwbT66FC6BTLexc2BoyCCBM9LG7pnVW",
        "reception_time": "2022-01-20T14:01:14.808-00:00",
        "included_in_blocks":
          [ "BLKvPoBovJbffuuBDHAzD4nT528VtMsKeFdnpcgdvC1dafBo89k" ] },
      { "delegate": "tz3ZbP2pM3nwvXztbuMJwJnDvV5xdpU8UkkD",
        "reception_time": "2022-01-20T14:01:14.818-00:00",
        "included_in_blocks":
          [ "BLKvPoBovJbffuuBDHAzD4nT528VtMsKeFdnpcgdvC1dafBo89k" ] },
      { "delegate": "tz1dwu9aYb7CRNq4Y2zAjipdjFuSVKhHS8vA",
        "reception_time": "2022-01-20T14:01:14.818-00:00",
        "included_in_blocks":
          [ "BLKvPoBovJbffuuBDHAzD4nT528VtMsKeFdnpcgdvC1dafBo89k" ] },
      { "delegate": "tz1bHzftcTKZMTZgLLtnrXydCm6UEqf4ivca",
        "reception_time": "2022-01-20T14:01:14.828-00:00",
        "included_in_blocks":
          [ "BLKvPoBovJbffuuBDHAzD4nT528VtMsKeFdnpcgdvC1dafBo89k" ] },
      { "delegate": "tz3QCNyySViKHmeSr45kzDxzchys7NiXCWoa",
        "reception_time": "2022-01-20T14:01:14.828-00:00",
        "included_in_blocks":
          [ "BLKvPoBovJbffuuBDHAzD4nT528VtMsKeFdnpcgdvC1dafBo89k" ] },
      { "delegate": "tz3bvNMQ95vfAYtG8193ymshqjSvmxiCUuR5",
        "reception_time": "2022-01-20T14:01:14.837-00:00",
        "included_in_blocks":
          [ "BLKvPoBovJbffuuBDHAzD4nT528VtMsKeFdnpcgdvC1dafBo89k" ] },
      { "delegate": "tz1NEKxGEHsFufk87CVZcrqWu8o22qh46GK6",
        "reception_time": "2022-01-20T14:01:14.837-00:00",
        "included_in_blocks":
          [ "BLKvPoBovJbffuuBDHAzD4nT528VtMsKeFdnpcgdvC1dafBo89k" ] },
      { "delegate": "tz1d9ek6HrScY6QRZ71NJdB85MNz8gKGBjrv",
        "reception_time": "2022-01-20T14:01:14.889-00:00",
        "included_in_blocks":
          [ "BLKvPoBovJbffuuBDHAzD4nT528VtMsKeFdnpcgdvC1dafBo89k" ] },
      { "delegate": "tz3gtoUxdudfBRcNY7iVdKPHCYYX6xdPpoRS",
        "reception_time": "2022-01-20T14:01:14.898-00:00",
        "included_in_blocks":
          [ "BLKvPoBovJbffuuBDHAzD4nT528VtMsKeFdnpcgdvC1dafBo89k" ] },
      { "delegate": "tz1Nf6tsK4G6bBqgSQERy4nUtkHNKUVdh7q1",
        "reception_time": "2022-01-20T14:01:14.898-00:00",
        "included_in_blocks":
          [ "BLKvPoBovJbffuuBDHAzD4nT528VtMsKeFdnpcgdvC1dafBo89k" ] },
      { "delegate": "tz3WMqdzXqRWXwyvj5Hp2H7QEepaUuS7vd9K",
        "reception_time": "2022-01-20T14:01:15.205-00:00",
        "included_in_blocks":
          [ "BLKvPoBovJbffuuBDHAzD4nT528VtMsKeFdnpcgdvC1dafBo89k" ] },
      { "delegate": "tz1a51WYsAsoh4fs4A4x5aCN6Za26mpfDfTi",
        "reception_time": "2022-01-20T14:01:15.246-00:00",
        "included_in_blocks":
          [ "BLKvPoBovJbffuuBDHAzD4nT528VtMsKeFdnpcgdvC1dafBo89k" ] },
      { "delegate": "tz1gfArv665EUkSg2ojMBzcbfwuPxAvqPvjo",
        "reception_time": "2022-01-20T14:01:15.293-00:00",
        "included_in_blocks":
          [ "BLKvPoBovJbffuuBDHAzD4nT528VtMsKeFdnpcgdvC1dafBo89k" ] },
      { "delegate": "tz3bTdwZinP8U1JmSweNzVKhmwafqWmFWRfk",
        "reception_time": "2022-01-20T14:01:15.303-00:00",
        "included_in_blocks":
          [ "BLKvPoBovJbffuuBDHAzD4nT528VtMsKeFdnpcgdvC1dafBo89k" ] },
      { "delegate": "tz1fPKAtsYydh4f1wfWNfeNxWYu72TmM48fu",
        "reception_time": "2022-01-20T14:01:15.303-00:00",
        "included_in_blocks":
          [ "BLKvPoBovJbffuuBDHAzD4nT528VtMsKeFdnpcgdvC1dafBo89k" ] },
      { "delegate": "tz1WctSwL49BZtdWAQ75NY6vr4xsAx6oKdah",
        "reception_time": "2022-01-20T14:01:15.464-00:00",
        "included_in_blocks":
          [ "BLKvPoBovJbffuuBDHAzD4nT528VtMsKeFdnpcgdvC1dafBo89k" ] },
      { "delegate": "tz1a1J3AGjJTAyBqWWSqFuUazUDV2TtD6hMy",
        "reception_time": "2022-01-20T14:01:15.515-00:00",
        "included_in_blocks":
          [ "BLKvPoBovJbffuuBDHAzD4nT528VtMsKeFdnpcgdvC1dafBo89k" ] },
      { "delegate": "tz1RCFbB9GpALpsZtu6J58sb74dm8qe6XBzv",
        "reception_time": "2022-01-20T14:01:15.524-00:00",
        "included_in_blocks":
          [ "BLKvPoBovJbffuuBDHAzD4nT528VtMsKeFdnpcgdvC1dafBo89k" ] },
      { "delegate": "tz1MQJPGNMijnXnVoBENFz9rUhaPt3S7rWoz",
        "reception_time": "2022-01-20T14:01:15.531-00:00",
        "included_in_blocks":
          [ "BLKvPoBovJbffuuBDHAzD4nT528VtMsKeFdnpcgdvC1dafBo89k" ] },
      { "delegate": "tz1aJS7Pk9uWR3wWyFf1i3RwhYxN84G7stom",
        "reception_time": "2022-01-20T14:01:15.531-00:00",
        "included_in_blocks":
          [ "BLKvPoBovJbffuuBDHAzD4nT528VtMsKeFdnpcgdvC1dafBo89k" ] },
      { "delegate": "tz1ZcTRk5uxD86EFEn1vvNffWWqJy7q5eVhc",
        "reception_time": "2022-01-20T14:01:15.879-00:00",
        "included_in_blocks":
          [ "BLKvPoBovJbffuuBDHAzD4nT528VtMsKeFdnpcgdvC1dafBo89k" ] },
      { "delegate": "tz3VEZ4k6a4Wx42iyev6i2aVAptTRLEAivNN",
        "reception_time": "2022-01-20T14:01:16.069-00:00",
        "included_in_blocks":
          [ "BLKvPoBovJbffuuBDHAzD4nT528VtMsKeFdnpcgdvC1dafBo89k" ] },
      { "delegate": "tz1YhNsiRRU8aHNGg7NK3uuP6UDAyacJernB",
        "reception_time": "2022-01-20T14:01:16.329-00:00",
        "included_in_blocks":
          [ "BLKvPoBovJbffuuBDHAzD4nT528VtMsKeFdnpcgdvC1dafBo89k" ] },
      { "delegate": "tz3RDC3Jdn4j15J7bBHZd29EUee9gVB1CxD9",
        "reception_time": "2022-01-20T14:01:16.459-00:00",
        "included_in_blocks":
          [ "BLKvPoBovJbffuuBDHAzD4nT528VtMsKeFdnpcgdvC1dafBo89k" ] },
      { "delegate": "tz3RB4aoyjov4KEVRbuhvQ1CKJgBJMWhaeB8",
        "reception_time": "2022-01-20T14:01:16.796-00:00",
        "included_in_blocks":
          [ "BLKvPoBovJbffuuBDHAzD4nT528VtMsKeFdnpcgdvC1dafBo89k" ] },
      { "delegate": "tz1S8MNvuFEUsWgjHvi3AxibRBf388NhT1q2",
        "reception_time": "2022-01-20T14:01:16.899-00:00",
        "included_in_blocks":
          [ "BLKvPoBovJbffuuBDHAzD4nT528VtMsKeFdnpcgdvC1dafBo89k" ] },
      { "delegate": "tz3UoffC7FG7zfpmvmjUmUeAaHvzdcUvAj6r",
        "reception_time": "2022-01-20T14:01:16.899-00:00",
        "included_in_blocks":
          [ "BLKvPoBovJbffuuBDHAzD4nT528VtMsKeFdnpcgdvC1dafBo89k" ] },
      { "delegate": "tz3NExpXn9aPNZPorRE4SdjJ2RGrfbJgMAaV",
        "reception_time": "2022-01-20T14:01:16.912-00:00",
        "included_in_blocks":
          [ "BLKvPoBovJbffuuBDHAzD4nT528VtMsKeFdnpcgdvC1dafBo89k" ] },
      { "delegate": "tz3NDpRj6WBrJPikcPVHRBEjWKxFw3c6eQPS",
        "reception_time": "2022-01-20T14:01:16.912-00:00",
        "included_in_blocks":
          [ "BLKvPoBovJbffuuBDHAzD4nT528VtMsKeFdnpcgdvC1dafBo89k" ] },
      { "delegate": "tz1cYufsxHXJcvANhvS55h3aY32a9BAFB494",
        "reception_time": "2022-01-20T14:01:17.210-00:00",
        "included_in_blocks":
          [ "BLKvPoBovJbffuuBDHAzD4nT528VtMsKeFdnpcgdvC1dafBo89k" ] },
      { "delegate": "tz2FCNBrERXtaTtNX6iimR1UJ5JSDxvdHM93",
        "reception_time": "2022-01-20T14:01:17.401-00:00",
        "included_in_blocks":
          [ "BLKvPoBovJbffuuBDHAzD4nT528VtMsKeFdnpcgdvC1dafBo89k" ] },
      { "delegate": "tz1SohptP53wDPZhzTWzDUFAUcWF6DMBpaJV",
        "reception_time": "2022-01-20T14:01:18.278-00:00",
        "included_in_blocks":
          [ "BLKvPoBovJbffuuBDHAzD4nT528VtMsKeFdnpcgdvC1dafBo89k" ] },
      { "delegate": "tz1g8vkmcde6sWKaG2NN9WKzCkDM6Rziq194",
        "reception_time": "2022-01-20T14:01:18.282-00:00",
        "included_in_blocks":
          [ "BLKvPoBovJbffuuBDHAzD4nT528VtMsKeFdnpcgdvC1dafBo89k" ] },
      { "delegate": "tz1Q8QkSBS63ZQnH3fBTiAMPes9R666Rn6Sc",
        "reception_time": "2022-01-20T14:01:19.038-00:00",
        "included_in_blocks":
          [ "BLKvPoBovJbffuuBDHAzD4nT528VtMsKeFdnpcgdvC1dafBo89k" ] },
      { "delegate": "tz1TRqbYbUf2GyrjErf3hBzgBJPzW8y36qEs",
        "reception_time": "2022-01-20T14:01:19.096-00:00",
        "included_in_blocks":
          [ "BLKvPoBovJbffuuBDHAzD4nT528VtMsKeFdnpcgdvC1dafBo89k" ] },
      { "delegate": "tz1WnfXMPaNTBmH7DBPwqCWs9cPDJdkGBTZ8",
        "reception_time": "2022-01-20T14:01:21.199-00:00",
        "included_in_blocks":
          [ "BLKvPoBovJbffuuBDHAzD4nT528VtMsKeFdnpcgdvC1dafBo89k" ] },
      { "delegate": "tz1aRoaRhSpRYvFdyvgWLL6TGyRoGF51wDjM",
        "reception_time": "2022-01-20T14:01:22.239-00:00",
        "included_in_blocks":
          [ "BLKvPoBovJbffuuBDHAzD4nT528VtMsKeFdnpcgdvC1dafBo89k" ] },
      { "delegate": "tz1i3mhawFAgcB8JHaHwoUF6hdncwTAkLEn2",
        "reception_time": "2022-01-20T14:01:25.356-00:00",
        "included_in_blocks":
          [ "BLKvPoBovJbffuuBDHAzD4nT528VtMsKeFdnpcgdvC1dafBo89k" ] } ] }