{ "blocks":
    [ { "hash": "BKmSNBJYLQoZArxz1Jiv6vFt8MEX3ud7FZu3Xpf9ZNw81rkQacU",
        "delegate": "tz3ZbP2pM3nwvXztbuMJwJnDvV5xdpU8UkkD",
        "reception_time": "2022-01-20T15:56:37.594-00:00",
        "timestamp": "2022-01-20T15:55:20Z" } ],
  "endorsements":
    [ { "delegate": "tz1TEc75UKXv4W5cwi14Na3NtqFD51yKQi7h",
        "reception_time": "2022-01-20T15:56:37.521-00:00",
        "errors":
          [ { "kind": "temporary",
              "id": "proto.011-PtHangz2.prefilter.outdated_endorsement" } ],
        "included_in_blocks":
          [ "BLK3DzdtBFHX8HDL2gyz8gZopW9vErpux1sENkYo48Jp8zFceyg" ] },
      { "delegate": "tz1RQhNh7iB9CZA7i3ifTWNwiGYVffponfbB",
        "reception_time": "2022-01-20T15:56:37.306-00:00",
        "errors":
          [ { "kind": "temporary",
              "id": "proto.011-PtHangz2.prefilter.outdated_endorsement" } ],
        "included_in_blocks":
          [ "BLK3DzdtBFHX8HDL2gyz8gZopW9vErpux1sENkYo48Jp8zFceyg" ] },
      { "delegate": "tz1dNVDWPf3Q59SdJqnjdnu277iyvReiRS9M",
        "reception_time": "2022-01-20T15:56:37.289-00:00",
        "errors":
          [ { "kind": "temporary",
              "id": "proto.011-PtHangz2.prefilter.outdated_endorsement" } ],
        "included_in_blocks":
          [ "BLK3DzdtBFHX8HDL2gyz8gZopW9vErpux1sENkYo48Jp8zFceyg" ] },
      { "delegate": "tz1beersuEDv8Z7ngQ825xfbaJNS2EhXnyHR",
        "reception_time": "2022-01-20T15:56:36.850-00:00",
        "errors":
          [ { "kind": "temporary",
              "id": "proto.011-PtHangz2.prefilter.outdated_endorsement" } ],
        "included_in_blocks":
          [ "BLK3DzdtBFHX8HDL2gyz8gZopW9vErpux1sENkYo48Jp8zFceyg" ] },
      { "delegate": "tz1fb7c66UwePkkfDXz4ajFaBP9hVNLdS7JJ",
        "reception_time": "2022-01-20T15:56:36.619-00:00",
        "errors":
          [ { "kind": "temporary",
              "id": "proto.011-PtHangz2.prefilter.outdated_endorsement" } ],
        "included_in_blocks":
          [ "BLK3DzdtBFHX8HDL2gyz8gZopW9vErpux1sENkYo48Jp8zFceyg" ] },
      { "delegate": "tz1ei4WtWEMEJekSv8qDnu9PExG6Q8HgRGr3",
        "reception_time": "2022-01-20T15:56:36.598-00:00",
        "errors":
          [ { "kind": "temporary",
              "id": "proto.011-PtHangz2.prefilter.outdated_endorsement" } ],
        "included_in_blocks":
          [ "BLK3DzdtBFHX8HDL2gyz8gZopW9vErpux1sENkYo48Jp8zFceyg" ] },
      { "delegate": "tz1d6Fx42mYgVFnHUW8T8A7WBfJ6nD9pVok8",
        "reception_time": "2022-01-20T15:56:36.271-00:00",
        "errors":
          [ { "kind": "temporary",
              "id": "proto.011-PtHangz2.prefilter.outdated_endorsement" } ],
        "included_in_blocks":
          [ "BLK3DzdtBFHX8HDL2gyz8gZopW9vErpux1sENkYo48Jp8zFceyg" ] },
      { "delegate": "tz1WCd2jm4uSt4vntk4vSuUWoZQGhLcDuR9q",
        "reception_time": "2022-01-20T15:56:36.235-00:00",
        "errors":
          [ { "kind": "temporary",
              "id": "proto.011-PtHangz2.prefilter.outdated_endorsement" } ],
        "included_in_blocks":
          [ "BLK3DzdtBFHX8HDL2gyz8gZopW9vErpux1sENkYo48Jp8zFceyg" ] },
      { "delegate": "tz1eEnQhbwf6trb8Q8mPb2RaPkNk2rN7BKi8",
        "reception_time": "2022-01-20T15:56:36.180-00:00",
        "errors":
          [ { "kind": "temporary",
              "id": "proto.011-PtHangz2.prefilter.outdated_endorsement" } ],
        "included_in_blocks":
          [ "BLK3DzdtBFHX8HDL2gyz8gZopW9vErpux1sENkYo48Jp8zFceyg" ] },
      { "delegate": "tz3e7LbZvUtoXhpUD1yb6wuFodZpfYRb9nWJ",
        "reception_time": "2022-01-20T15:56:36.173-00:00",
        "errors":
          [ { "kind": "temporary",
              "id": "proto.011-PtHangz2.prefilter.outdated_endorsement" } ],
        "included_in_blocks":
          [ "BLK3DzdtBFHX8HDL2gyz8gZopW9vErpux1sENkYo48Jp8zFceyg" ] },
      { "delegate": "tz1TzaNn7wSQSP5gYPXCnNzBCpyMiidCq1PX",
        "reception_time": "2022-01-20T15:56:35.936-00:00",
        "errors":
          [ { "kind": "temporary",
              "id": "proto.011-PtHangz2.prefilter.outdated_endorsement" } ],
        "included_in_blocks":
          [ "BLK3DzdtBFHX8HDL2gyz8gZopW9vErpux1sENkYo48Jp8zFceyg" ] },
      { "delegate": "tz1irJKkXS2DBWkU1NnmFQx1c1L7pbGg4yhk",
        "reception_time": "2022-01-20T15:56:35.531-00:00",
        "errors":
          [ { "kind": "temporary",
              "id": "proto.011-PtHangz2.prefilter.outdated_endorsement" } ],
        "included_in_blocks":
          [ "BLK3DzdtBFHX8HDL2gyz8gZopW9vErpux1sENkYo48Jp8zFceyg" ] },
      { "delegate": "tz1P2Po7YM526ughEsRbY4oR9zaUPDZjxFrb",
        "reception_time": "2022-01-20T15:56:35.378-00:00",
        "errors":
          [ { "kind": "temporary",
              "id": "proto.011-PtHangz2.prefilter.outdated_endorsement" } ],
        "included_in_blocks":
          [ "BLK3DzdtBFHX8HDL2gyz8gZopW9vErpux1sENkYo48Jp8zFceyg" ] },
      { "delegate": "tz1Ldzz6k1BHdhuKvAtMRX7h5kJSMHESMHLC",
        "reception_time": "2022-01-20T15:56:34.780-00:00",
        "errors":
          [ { "kind": "temporary",
              "id": "proto.011-PtHangz2.prefilter.outdated_endorsement" } ],
        "included_in_blocks":
          [ "BLK3DzdtBFHX8HDL2gyz8gZopW9vErpux1sENkYo48Jp8zFceyg" ] },
      { "delegate": "tz1VmiY38m3y95HqQLjMwqnMS7sdMfGomzKi",
        "reception_time": "2022-01-20T15:56:34.725-00:00",
        "errors":
          [ { "kind": "temporary",
              "id": "proto.011-PtHangz2.prefilter.outdated_endorsement" } ],
        "included_in_blocks":
          [ "BLK3DzdtBFHX8HDL2gyz8gZopW9vErpux1sENkYo48Jp8zFceyg" ] },
      { "delegate": "tz1Scdr2HsZiQjc7bHMeBbmDRXYVvdhjJbBh",
        "reception_time": "2022-01-20T15:56:34.660-00:00",
        "errors":
          [ { "kind": "temporary",
              "id": "proto.011-PtHangz2.prefilter.outdated_endorsement" } ],
        "included_in_blocks":
          [ "BLK3DzdtBFHX8HDL2gyz8gZopW9vErpux1sENkYo48Jp8zFceyg" ] },
      { "delegate": "tz1gUNyn3hmnEWqkusWPzxRaon1cs7ndWh7h",
        "reception_time": "2022-01-20T15:56:34.237-00:00",
        "errors":
          [ { "kind": "temporary",
              "id": "proto.011-PtHangz2.prefilter.outdated_endorsement" } ],
        "included_in_blocks":
          [ "BLK3DzdtBFHX8HDL2gyz8gZopW9vErpux1sENkYo48Jp8zFceyg" ] },
      { "delegate": "tz1VQnqCCqX4K5sP3FNkVSNKTdCAMJDd3E1n",
        "reception_time": "2022-01-20T15:56:34.233-00:00",
        "errors":
          [ { "kind": "temporary",
              "id": "proto.011-PtHangz2.prefilter.outdated_endorsement" } ],
        "included_in_blocks":
          [ "BLK3DzdtBFHX8HDL2gyz8gZopW9vErpux1sENkYo48Jp8zFceyg" ] },
      { "delegate": "tz1RjoHc98dBoqaH2jawF62XNKh7YsHwbkEv" },
      { "delegate": "tz1WctSwL49BZtdWAQ75NY6vr4xsAx6oKdah" },
      { "delegate": "tz1dbfppLAAxXZNtf2SDps7rch3qfUznKSoK" },
      { "delegate": "tz1dRKU4FQ9QRRQPdaH4zCR6gmCmXfcvcgtB",
        "reception_time": "2022-01-20T15:56:40.523-00:00",
        "included_in_blocks":
          [ "BLK3DzdtBFHX8HDL2gyz8gZopW9vErpux1sENkYo48Jp8zFceyg" ] },
      { "delegate": "tz1Nf6tsK4G6bBqgSQERy4nUtkHNKUVdh7q1",
        "reception_time": "2022-01-20T15:56:40.523-00:00",
        "included_in_blocks":
          [ "BLK3DzdtBFHX8HDL2gyz8gZopW9vErpux1sENkYo48Jp8zFceyg" ] },
      { "delegate": "tz3ZbP2pM3nwvXztbuMJwJnDvV5xdpU8UkkD",
        "reception_time": "2022-01-20T15:56:40.523-00:00",
        "included_in_blocks":
          [ "BLK3DzdtBFHX8HDL2gyz8gZopW9vErpux1sENkYo48Jp8zFceyg" ] },
      { "delegate": "tz3NxTnke1acr8o3h5y9ytf5awQBGNJUKzVU",
        "reception_time": "2022-01-20T15:56:40.523-00:00",
        "included_in_blocks":
          [ "BLK3DzdtBFHX8HDL2gyz8gZopW9vErpux1sENkYo48Jp8zFceyg" ] },
      { "delegate": "tz3RKYFsLuQzKBtmYuLNas7uMu3AsYd4QdsA",
        "reception_time": "2022-01-20T15:56:40.523-00:00",
        "included_in_blocks":
          [ "BLK3DzdtBFHX8HDL2gyz8gZopW9vErpux1sENkYo48Jp8zFceyg" ] },
      { "delegate": "tz3hw2kqXhLUvY65ca1eety2oQTpAvd34R9Q",
        "reception_time": "2022-01-20T15:56:40.523-00:00",
        "included_in_blocks":
          [ "BLK3DzdtBFHX8HDL2gyz8gZopW9vErpux1sENkYo48Jp8zFceyg" ] },
      { "delegate": "tz1Kf25fX1VdmYGSEzwFy1wNmkbSEZ2V83sY",
        "reception_time": "2022-01-20T15:56:40.523-00:00",
        "included_in_blocks":
          [ "BLK3DzdtBFHX8HDL2gyz8gZopW9vErpux1sENkYo48Jp8zFceyg" ] },
      { "delegate": "tz1bHzftcTKZMTZgLLtnrXydCm6UEqf4ivca",
        "reception_time": "2022-01-20T15:56:40.523-00:00",
        "included_in_blocks":
          [ "BLK3DzdtBFHX8HDL2gyz8gZopW9vErpux1sENkYo48Jp8zFceyg" ] },
      { "delegate": "tz1MQMiZHV8q4tTwUMWmS5Y3kaP6J2136iXr",
        "reception_time": "2022-01-20T15:56:40.523-00:00",
        "included_in_blocks":
          [ "BLK3DzdtBFHX8HDL2gyz8gZopW9vErpux1sENkYo48Jp8zFceyg" ] },
      { "delegate": "tz3gtoUxdudfBRcNY7iVdKPHCYYX6xdPpoRS",
        "reception_time": "2022-01-20T15:56:40.523-00:00",
        "included_in_blocks":
          [ "BLK3DzdtBFHX8HDL2gyz8gZopW9vErpux1sENkYo48Jp8zFceyg" ] },
      { "delegate": "tz3QSGPoRp3Kn7n3vY24eYeu3Peuqo45LQ4D",
        "reception_time": "2022-01-20T15:56:40.523-00:00",
        "included_in_blocks":
          [ "BLK3DzdtBFHX8HDL2gyz8gZopW9vErpux1sENkYo48Jp8zFceyg" ] },
      { "delegate": "tz1NEKxGEHsFufk87CVZcrqWu8o22qh46GK6",
        "reception_time": "2022-01-20T15:56:40.889-00:00",
        "included_in_blocks":
          [ "BLK3DzdtBFHX8HDL2gyz8gZopW9vErpux1sENkYo48Jp8zFceyg" ] },
      { "delegate": "tz1gfArv665EUkSg2ojMBzcbfwuPxAvqPvjo",
        "reception_time": "2022-01-20T15:56:40.889-00:00",
        "included_in_blocks":
          [ "BLK3DzdtBFHX8HDL2gyz8gZopW9vErpux1sENkYo48Jp8zFceyg" ] },
      { "delegate": "tz3Zhs2dygr55yHyQyKjntAtY9bgfhLZ4Xj1",
        "reception_time": "2022-01-20T15:56:40.889-00:00",
        "included_in_blocks":
          [ "BLK3DzdtBFHX8HDL2gyz8gZopW9vErpux1sENkYo48Jp8zFceyg" ] },
      { "delegate": "tz3S6BBeKgJGXxvLyZ1xzXzMPn11nnFtq5L9",
        "reception_time": "2022-01-20T15:56:40.889-00:00",
        "included_in_blocks":
          [ "BLK3DzdtBFHX8HDL2gyz8gZopW9vErpux1sENkYo48Jp8zFceyg" ] },
      { "delegate": "tz3QCNyySViKHmeSr45kzDxzchys7NiXCWoa",
        "reception_time": "2022-01-20T15:56:40.889-00:00",
        "included_in_blocks":
          [ "BLK3DzdtBFHX8HDL2gyz8gZopW9vErpux1sENkYo48Jp8zFceyg" ] },
      { "delegate": "tz1TRspM5SeZpaQUhzByXbEvqKF1vnCM2YTK",
        "reception_time": "2022-01-20T15:56:40.889-00:00",
        "included_in_blocks":
          [ "BLK3DzdtBFHX8HDL2gyz8gZopW9vErpux1sENkYo48Jp8zFceyg" ] },
      { "delegate": "tz3bTdwZinP8U1JmSweNzVKhmwafqWmFWRfk",
        "reception_time": "2022-01-20T15:56:40.889-00:00",
        "included_in_blocks":
          [ "BLK3DzdtBFHX8HDL2gyz8gZopW9vErpux1sENkYo48Jp8zFceyg" ] },
      { "delegate": "tz1RCFbB9GpALpsZtu6J58sb74dm8qe6XBzv",
        "reception_time": "2022-01-20T15:56:40.889-00:00",
        "included_in_blocks":
          [ "BLK3DzdtBFHX8HDL2gyz8gZopW9vErpux1sENkYo48Jp8zFceyg" ] },
      { "delegate": "tz1cig1EHyvZd7J2k389moM9PxVgPQvmFkvi",
        "reception_time": "2022-01-20T15:56:40.889-00:00",
        "included_in_blocks":
          [ "BLK3DzdtBFHX8HDL2gyz8gZopW9vErpux1sENkYo48Jp8zFceyg" ] },
      { "delegate": "tz1NortRftucvAkD1J58L32EhSVrQEWJCEnB",
        "reception_time": "2022-01-20T15:56:40.889-00:00",
        "included_in_blocks":
          [ "BLK3DzdtBFHX8HDL2gyz8gZopW9vErpux1sENkYo48Jp8zFceyg" ] },
      { "delegate": "tz3iJu5vrKZcsqRPs8yJ61UDoeEXZmtro4qh",
        "reception_time": "2022-01-20T15:56:40.889-00:00",
        "included_in_blocks":
          [ "BLK3DzdtBFHX8HDL2gyz8gZopW9vErpux1sENkYo48Jp8zFceyg" ] },
      { "delegate": "tz1SYq214SCBy9naR6cvycQsYcUGpBqQAE8d",
        "reception_time": "2022-01-20T15:56:40.889-00:00",
        "included_in_blocks":
          [ "BLK3DzdtBFHX8HDL2gyz8gZopW9vErpux1sENkYo48Jp8zFceyg" ] },
      { "delegate": "tz3QT9dHYKDqh563chVa6za8526ys1UKfRfL",
        "reception_time": "2022-01-20T15:56:40.889-00:00",
        "included_in_blocks":
          [ "BLK3DzdtBFHX8HDL2gyz8gZopW9vErpux1sENkYo48Jp8zFceyg" ] },
      { "delegate": "tz1ZcTRk5uxD86EFEn1vvNffWWqJy7q5eVhc",
        "reception_time": "2022-01-20T15:56:40.889-00:00",
        "included_in_blocks":
          [ "BLK3DzdtBFHX8HDL2gyz8gZopW9vErpux1sENkYo48Jp8zFceyg" ] },
      { "delegate": "tz1fPKAtsYydh4f1wfWNfeNxWYu72TmM48fu",
        "reception_time": "2022-01-20T15:56:40.889-00:00",
        "included_in_blocks":
          [ "BLK3DzdtBFHX8HDL2gyz8gZopW9vErpux1sENkYo48Jp8zFceyg" ] },
      { "delegate": "tz3RB4aoyjov4KEVRbuhvQ1CKJgBJMWhaeB8",
        "reception_time": "2022-01-20T15:56:40.889-00:00",
        "included_in_blocks":
          [ "BLK3DzdtBFHX8HDL2gyz8gZopW9vErpux1sENkYo48Jp8zFceyg" ] },
      { "delegate": "tz1UtayNgAX8QEJ3NoLptPzoPr9JiH3Cskzz",
        "reception_time": "2022-01-20T15:56:40.889-00:00",
        "included_in_blocks":
          [ "BLK3DzdtBFHX8HDL2gyz8gZopW9vErpux1sENkYo48Jp8zFceyg" ] },
      { "delegate": "tz1Z2jXfEXL7dXhs6bsLmyLFLfmAkXBzA9WE",
        "reception_time": "2022-01-20T15:56:40.889-00:00",
        "included_in_blocks":
          [ "BLK3DzdtBFHX8HDL2gyz8gZopW9vErpux1sENkYo48Jp8zFceyg" ] },
      { "delegate": "tz1PeZx7FXy7QRuMREGXGxeipb24RsMMzUNe",
        "reception_time": "2022-01-20T15:56:40.889-00:00",
        "included_in_blocks":
          [ "BLK3DzdtBFHX8HDL2gyz8gZopW9vErpux1sENkYo48Jp8zFceyg" ] },
      { "delegate": "tz3WMqdzXqRWXwyvj5Hp2H7QEepaUuS7vd9K",
        "reception_time": "2022-01-20T15:56:40.889-00:00",
        "included_in_blocks":
          [ "BLK3DzdtBFHX8HDL2gyz8gZopW9vErpux1sENkYo48Jp8zFceyg" ] },
      { "delegate": "tz2FCNBrERXtaTtNX6iimR1UJ5JSDxvdHM93",
        "reception_time": "2022-01-20T15:56:40.889-00:00",
        "included_in_blocks":
          [ "BLK3DzdtBFHX8HDL2gyz8gZopW9vErpux1sENkYo48Jp8zFceyg" ] },
      { "delegate": "tz1S8MNvuFEUsWgjHvi3AxibRBf388NhT1q2",
        "reception_time": "2022-01-20T15:56:41.415-00:00",
        "included_in_blocks":
          [ "BLK3DzdtBFHX8HDL2gyz8gZopW9vErpux1sENkYo48Jp8zFceyg" ] },
      { "delegate": "tz3VEZ4k6a4Wx42iyev6i2aVAptTRLEAivNN",
        "reception_time": "2022-01-20T15:56:41.415-00:00",
        "included_in_blocks":
          [ "BLK3DzdtBFHX8HDL2gyz8gZopW9vErpux1sENkYo48Jp8zFceyg" ] },
      { "delegate": "tz3RDC3Jdn4j15J7bBHZd29EUee9gVB1CxD9",
        "reception_time": "2022-01-20T15:56:41.776-00:00",
        "included_in_blocks":
          [ "BLK3DzdtBFHX8HDL2gyz8gZopW9vErpux1sENkYo48Jp8zFceyg" ] },
      { "delegate": "tz3bvNMQ95vfAYtG8193ymshqjSvmxiCUuR5",
        "reception_time": "2022-01-20T15:56:41.776-00:00",
        "included_in_blocks":
          [ "BLK3DzdtBFHX8HDL2gyz8gZopW9vErpux1sENkYo48Jp8zFceyg" ] },
      { "delegate": "tz3UoffC7FG7zfpmvmjUmUeAaHvzdcUvAj6r",
        "reception_time": "2022-01-20T15:56:41.776-00:00",
        "included_in_blocks":
          [ "BLK3DzdtBFHX8HDL2gyz8gZopW9vErpux1sENkYo48Jp8zFceyg" ] },
      { "delegate": "tz3NExpXn9aPNZPorRE4SdjJ2RGrfbJgMAaV",
        "reception_time": "2022-01-20T15:56:42.071-00:00",
        "included_in_blocks":
          [ "BLK3DzdtBFHX8HDL2gyz8gZopW9vErpux1sENkYo48Jp8zFceyg" ] },
      { "delegate": "tz1SUgyRB8T5jXgXAwS33pgRHAKrafyg87Yc",
        "reception_time": "2022-01-20T15:56:42.996-00:00",
        "included_in_blocks":
          [ "BLK3DzdtBFHX8HDL2gyz8gZopW9vErpux1sENkYo48Jp8zFceyg" ] },
      { "delegate": "tz1fwnfJNgiDACshK9avfRfFbMaXrs3ghoJa",
        "reception_time": "2022-01-20T15:56:43.213-00:00",
        "included_in_blocks":
          [ "BLK3DzdtBFHX8HDL2gyz8gZopW9vErpux1sENkYo48Jp8zFceyg" ] },
      { "delegate": "tz1LmaFsWRkjr7QMCx5PtV6xTUz3AmEpKQiF",
        "reception_time": "2022-01-20T15:56:43.239-00:00",
        "included_in_blocks":
          [ "BLK3DzdtBFHX8HDL2gyz8gZopW9vErpux1sENkYo48Jp8zFceyg" ] },
      { "delegate": "tz1TRqbYbUf2GyrjErf3hBzgBJPzW8y36qEs",
        "reception_time": "2022-01-20T15:56:43.548-00:00",
        "included_in_blocks":
          [ "BLK3DzdtBFHX8HDL2gyz8gZopW9vErpux1sENkYo48Jp8zFceyg" ] },
      { "delegate": "tz1TwVimQy3BywXoSszdFXjT9bSTQrsZYo2u",
        "reception_time": "2022-01-20T15:56:44.110-00:00",
        "included_in_blocks":
          [ "BLK3DzdtBFHX8HDL2gyz8gZopW9vErpux1sENkYo48Jp8zFceyg" ] },
      { "delegate": "tz1aRoaRhSpRYvFdyvgWLL6TGyRoGF51wDjM",
        "reception_time": "2022-01-20T15:56:46.983-00:00",
        "included_in_blocks":
          [ "BLK3DzdtBFHX8HDL2gyz8gZopW9vErpux1sENkYo48Jp8zFceyg" ] } ] }