{ "blocks":
    [ { "hash": "BMY8A4LRuJ9hWGbVzBSVHTK1cW3kgXpZhqfsNQQD5kanJMmYDFn",
        "delegate": "tz1irJKkXS2DBWkU1NnmFQx1c1L7pbGg4yhk",
        "reception_time": "2022-01-20T20:03:46.210-00:00",
        "timestamp": "2022-01-20T20:03:40Z" } ],
  "endorsements":
    [ { "delegate": "tz1awXW7wuXy21c66vBudMXQVAPgRnqqwgTH" },
      { "delegate": "tz1W5VkdB5s7ENMESVBtwyt9kyvLqPcUczRT" },
      { "delegate": "tz1S8e9GgdZG78XJRB3NqabfWeM37GnhZMWQ",
        "reception_time": "2022-01-20T20:03:45.771-00:00",
        "errors":
          [ { "kind": "temporary",
              "id": "proto.011-PtHangz2.prefilter.outdated_endorsement" } ],
        "included_in_blocks":
          [ "BM4ffDULxjJA83ggHZHtLURizweRMwtPSLiQbnA7vRFnwrvYphB" ] },
      { "delegate": "tz1NpWrAyDL9k2Lmnyxcgr9xuJakbBxdq7FB",
        "reception_time": "2022-01-20T20:03:54.704-00:00",
        "included_in_blocks":
          [ "BM4ffDULxjJA83ggHZHtLURizweRMwtPSLiQbnA7vRFnwrvYphB" ] },
      { "delegate": "tz1h4ar7F5wC6Ae2cfkrmrRP6nrPk9gGFaxg",
        "reception_time": "2022-01-20T20:03:53.198-00:00",
        "included_in_blocks":
          [ "BM4ffDULxjJA83ggHZHtLURizweRMwtPSLiQbnA7vRFnwrvYphB" ] },
      { "delegate": "tz1PFeoTuFen8jAMRHajBySNyCwLmY5RqF9M",
        "reception_time": "2022-01-20T20:03:51.994-00:00",
        "included_in_blocks":
          [ "BM4ffDULxjJA83ggHZHtLURizweRMwtPSLiQbnA7vRFnwrvYphB" ] },
      { "delegate": "tz1MbhmEwEAzzfb3naSr7vTp4mDxB8HsknA9",
        "reception_time": "2022-01-20T20:03:51.078-00:00",
        "included_in_blocks":
          [ "BM4ffDULxjJA83ggHZHtLURizweRMwtPSLiQbnA7vRFnwrvYphB" ] },
      { "delegate": "tz1TcH4Nb3aHNDJ7CGZhU7jgAK1BkSP4Lxds",
        "reception_time": "2022-01-20T20:03:50.661-00:00",
        "included_in_blocks":
          [ "BM4ffDULxjJA83ggHZHtLURizweRMwtPSLiQbnA7vRFnwrvYphB" ] },
      { "delegate": "tz1ZcTRk5uxD86EFEn1vvNffWWqJy7q5eVhc",
        "reception_time": "2022-01-20T20:03:50.336-00:00",
        "included_in_blocks":
          [ "BM4ffDULxjJA83ggHZHtLURizweRMwtPSLiQbnA7vRFnwrvYphB" ] },
      { "delegate": "tz1aRoaRhSpRYvFdyvgWLL6TGyRoGF51wDjM",
        "reception_time": "2022-01-20T20:03:50.025-00:00",
        "included_in_blocks":
          [ "BM4ffDULxjJA83ggHZHtLURizweRMwtPSLiQbnA7vRFnwrvYphB" ] },
      { "delegate": "tz3NExpXn9aPNZPorRE4SdjJ2RGrfbJgMAaV",
        "reception_time": "2022-01-20T20:03:49.989-00:00",
        "included_in_blocks":
          [ "BM4ffDULxjJA83ggHZHtLURizweRMwtPSLiQbnA7vRFnwrvYphB" ] },
      { "delegate": "tz1b9MYGrbN1NAxphLEsPPNT9JC7aNFc5nA4",
        "reception_time": "2022-01-20T20:03:49.911-00:00",
        "included_in_blocks":
          [ "BM4ffDULxjJA83ggHZHtLURizweRMwtPSLiQbnA7vRFnwrvYphB" ] },
      { "delegate": "tz3UoffC7FG7zfpmvmjUmUeAaHvzdcUvAj6r",
        "reception_time": "2022-01-20T20:03:49.715-00:00",
        "included_in_blocks":
          [ "BM4ffDULxjJA83ggHZHtLURizweRMwtPSLiQbnA7vRFnwrvYphB" ] },
      { "delegate": "tz1TRqbYbUf2GyrjErf3hBzgBJPzW8y36qEs",
        "reception_time": "2022-01-20T20:03:49.564-00:00",
        "included_in_blocks":
          [ "BM4ffDULxjJA83ggHZHtLURizweRMwtPSLiQbnA7vRFnwrvYphB" ] },
      { "delegate": "tz3bvNMQ95vfAYtG8193ymshqjSvmxiCUuR5",
        "reception_time": "2022-01-20T20:03:49.559-00:00",
        "included_in_blocks":
          [ "BM4ffDULxjJA83ggHZHtLURizweRMwtPSLiQbnA7vRFnwrvYphB" ] },
      { "delegate": "tz1dRKU4FQ9QRRQPdaH4zCR6gmCmXfcvcgtB",
        "reception_time": "2022-01-20T20:03:49.541-00:00",
        "included_in_blocks":
          [ "BM4ffDULxjJA83ggHZHtLURizweRMwtPSLiQbnA7vRFnwrvYphB" ] },
      { "delegate": "tz3NDpRj6WBrJPikcPVHRBEjWKxFw3c6eQPS",
        "reception_time": "2022-01-20T20:03:49.521-00:00",
        "included_in_blocks":
          [ "BM4ffDULxjJA83ggHZHtLURizweRMwtPSLiQbnA7vRFnwrvYphB" ] },
      { "delegate": "tz3WMqdzXqRWXwyvj5Hp2H7QEepaUuS7vd9K",
        "reception_time": "2022-01-20T20:03:49.084-00:00",
        "included_in_blocks":
          [ "BM4ffDULxjJA83ggHZHtLURizweRMwtPSLiQbnA7vRFnwrvYphB" ] },
      { "delegate": "tz1Zdk8q7wNasmv7VFeQ6QFwcw5fP2c7StoF",
        "reception_time": "2022-01-20T20:03:49.136-00:00",
        "included_in_blocks":
          [ "BM4ffDULxjJA83ggHZHtLURizweRMwtPSLiQbnA7vRFnwrvYphB" ] },
      { "delegate": "tz3VEZ4k6a4Wx42iyev6i2aVAptTRLEAivNN",
        "reception_time": "2022-01-20T20:03:49.179-00:00",
        "included_in_blocks":
          [ "BM4ffDULxjJA83ggHZHtLURizweRMwtPSLiQbnA7vRFnwrvYphB" ] },
      { "delegate": "tz1NoYvKjXTzTk54VpLxBfouJ33J8jwKPPvw",
        "reception_time": "2022-01-20T20:03:48.963-00:00",
        "included_in_blocks":
          [ "BM4ffDULxjJA83ggHZHtLURizweRMwtPSLiQbnA7vRFnwrvYphB" ] },
      { "delegate": "tz1PeZx7FXy7QRuMREGXGxeipb24RsMMzUNe",
        "reception_time": "2022-01-20T20:03:48.960-00:00",
        "included_in_blocks":
          [ "BM4ffDULxjJA83ggHZHtLURizweRMwtPSLiQbnA7vRFnwrvYphB" ] },
      { "delegate": "tz3RDC3Jdn4j15J7bBHZd29EUee9gVB1CxD9",
        "reception_time": "2022-01-20T20:03:48.981-00:00",
        "included_in_blocks":
          [ "BM4ffDULxjJA83ggHZHtLURizweRMwtPSLiQbnA7vRFnwrvYphB" ] },
      { "delegate": "tz3RB4aoyjov4KEVRbuhvQ1CKJgBJMWhaeB8",
        "reception_time": "2022-01-20T20:03:48.934-00:00",
        "included_in_blocks":
          [ "BM4ffDULxjJA83ggHZHtLURizweRMwtPSLiQbnA7vRFnwrvYphB" ] },
      { "delegate": "tz1Z2jXfEXL7dXhs6bsLmyLFLfmAkXBzA9WE",
        "reception_time": "2022-01-20T20:03:48.803-00:00",
        "included_in_blocks":
          [ "BM4ffDULxjJA83ggHZHtLURizweRMwtPSLiQbnA7vRFnwrvYphB" ] },
      { "delegate": "tz1iPHM2Xx2hwmzcr1EG1zzrV6oKafVoA91m",
        "reception_time": "2022-01-20T20:03:48.911-00:00",
        "included_in_blocks":
          [ "BM4ffDULxjJA83ggHZHtLURizweRMwtPSLiQbnA7vRFnwrvYphB" ] },
      { "delegate": "tz1hAYfexyzPGG6RhZZMpDvAHifubsbb6kgn",
        "reception_time": "2022-01-20T20:03:48.803-00:00",
        "included_in_blocks":
          [ "BM4ffDULxjJA83ggHZHtLURizweRMwtPSLiQbnA7vRFnwrvYphB" ] },
      { "delegate": "tz1abmz7jiCV2GH2u81LRrGgAFFgvQgiDiaf",
        "reception_time": "2022-01-20T20:03:48.803-00:00",
        "included_in_blocks":
          [ "BM4ffDULxjJA83ggHZHtLURizweRMwtPSLiQbnA7vRFnwrvYphB" ] },
      { "delegate": "tz1g8vkmcde6sWKaG2NN9WKzCkDM6Rziq194",
        "reception_time": "2022-01-20T20:03:48.803-00:00",
        "included_in_blocks":
          [ "BM4ffDULxjJA83ggHZHtLURizweRMwtPSLiQbnA7vRFnwrvYphB" ] },
      { "delegate": "tz1Tnjaxk6tbAeC2TmMApPh8UsrEVQvhHvx5",
        "reception_time": "2022-01-20T20:03:48.803-00:00",
        "included_in_blocks":
          [ "BM4ffDULxjJA83ggHZHtLURizweRMwtPSLiQbnA7vRFnwrvYphB" ] },
      { "delegate": "tz2FCNBrERXtaTtNX6iimR1UJ5JSDxvdHM93",
        "reception_time": "2022-01-20T20:03:48.803-00:00",
        "included_in_blocks":
          [ "BM4ffDULxjJA83ggHZHtLURizweRMwtPSLiQbnA7vRFnwrvYphB" ] },
      { "delegate": "tz1RQhNh7iB9CZA7i3ifTWNwiGYVffponfbB",
        "reception_time": "2022-01-20T20:03:48.168-00:00",
        "included_in_blocks":
          [ "BM4ffDULxjJA83ggHZHtLURizweRMwtPSLiQbnA7vRFnwrvYphB" ] },
      { "delegate": "tz1S8MNvuFEUsWgjHvi3AxibRBf388NhT1q2",
        "reception_time": "2022-01-20T20:03:48.168-00:00",
        "included_in_blocks":
          [ "BM4ffDULxjJA83ggHZHtLURizweRMwtPSLiQbnA7vRFnwrvYphB" ] },
      { "delegate": "tz1LYW7Yepo9qsQx2kjpek2RYVMCeGwBvDCQ",
        "reception_time": "2022-01-20T20:03:48.168-00:00",
        "included_in_blocks":
          [ "BM4ffDULxjJA83ggHZHtLURizweRMwtPSLiQbnA7vRFnwrvYphB" ] },
      { "delegate": "tz1KfEsrtDaA1sX7vdM4qmEPWuSytuqCDp5j",
        "reception_time": "2022-01-20T20:03:48.803-00:00",
        "included_in_blocks":
          [ "BM4ffDULxjJA83ggHZHtLURizweRMwtPSLiQbnA7vRFnwrvYphB" ] },
      { "delegate": "tz1VE2VPQmCXpNQCUcigV1GSb5qEvofP1Xxr",
        "reception_time": "2022-01-20T20:03:48.168-00:00",
        "included_in_blocks":
          [ "BM4ffDULxjJA83ggHZHtLURizweRMwtPSLiQbnA7vRFnwrvYphB" ] },
      { "delegate": "tz1RCFbB9GpALpsZtu6J58sb74dm8qe6XBzv",
        "reception_time": "2022-01-20T20:03:48.168-00:00",
        "included_in_blocks":
          [ "BM4ffDULxjJA83ggHZHtLURizweRMwtPSLiQbnA7vRFnwrvYphB" ] },
      { "delegate": "tz3QCNyySViKHmeSr45kzDxzchys7NiXCWoa",
        "reception_time": "2022-01-20T20:03:48.168-00:00",
        "included_in_blocks":
          [ "BM4ffDULxjJA83ggHZHtLURizweRMwtPSLiQbnA7vRFnwrvYphB" ] },
      { "delegate": "tz1LmaFsWRkjr7QMCx5PtV6xTUz3AmEpKQiF",
        "reception_time": "2022-01-20T20:03:48.168-00:00",
        "included_in_blocks":
          [ "BM4ffDULxjJA83ggHZHtLURizweRMwtPSLiQbnA7vRFnwrvYphB" ] },
      { "delegate": "tz1ci1ARnm8JoYV16Hbe4FoxX17yFEAQVytg",
        "reception_time": "2022-01-20T20:03:48.803-00:00",
        "included_in_blocks":
          [ "BM4ffDULxjJA83ggHZHtLURizweRMwtPSLiQbnA7vRFnwrvYphB" ] },
      { "delegate": "tz1Nf6tsK4G6bBqgSQERy4nUtkHNKUVdh7q1",
        "reception_time": "2022-01-20T20:03:48.168-00:00",
        "included_in_blocks":
          [ "BM4ffDULxjJA83ggHZHtLURizweRMwtPSLiQbnA7vRFnwrvYphB" ] },
      { "delegate": "tz1V4qCyvPKZ5UeqdH14HN42rxvNPQfc9UZg",
        "reception_time": "2022-01-20T20:03:48.168-00:00",
        "included_in_blocks":
          [ "BM4ffDULxjJA83ggHZHtLURizweRMwtPSLiQbnA7vRFnwrvYphB" ] },
      { "delegate": "tz1TEc75UKXv4W5cwi14Na3NtqFD51yKQi7h",
        "reception_time": "2022-01-20T20:03:48.168-00:00",
        "included_in_blocks":
          [ "BM4ffDULxjJA83ggHZHtLURizweRMwtPSLiQbnA7vRFnwrvYphB" ] },
      { "delegate": "tz1ei4WtWEMEJekSv8qDnu9PExG6Q8HgRGr3",
        "reception_time": "2022-01-20T20:03:48.168-00:00",
        "included_in_blocks":
          [ "BM4ffDULxjJA83ggHZHtLURizweRMwtPSLiQbnA7vRFnwrvYphB" ] },
      { "delegate": "tz1gfArv665EUkSg2ojMBzcbfwuPxAvqPvjo",
        "reception_time": "2022-01-20T20:03:47.760-00:00",
        "included_in_blocks":
          [ "BM4ffDULxjJA83ggHZHtLURizweRMwtPSLiQbnA7vRFnwrvYphB" ] },
      { "delegate": "tz1QLXqnfN51dkjeghXvKHkJfhvGiM5gK4tc",
        "reception_time": "2022-01-20T20:03:47.760-00:00",
        "included_in_blocks":
          [ "BM4ffDULxjJA83ggHZHtLURizweRMwtPSLiQbnA7vRFnwrvYphB" ] },
      { "delegate": "tz3Zhs2dygr55yHyQyKjntAtY9bgfhLZ4Xj1",
        "reception_time": "2022-01-20T20:03:47.760-00:00",
        "included_in_blocks":
          [ "BM4ffDULxjJA83ggHZHtLURizweRMwtPSLiQbnA7vRFnwrvYphB" ] },
      { "delegate": "tz1PWCDnz783NNGGQjEFFsHtrcK5yBW4E2rm",
        "reception_time": "2022-01-20T20:03:47.760-00:00",
        "included_in_blocks":
          [ "BM4ffDULxjJA83ggHZHtLURizweRMwtPSLiQbnA7vRFnwrvYphB" ] },
      { "delegate": "tz3e7LbZvUtoXhpUD1yb6wuFodZpfYRb9nWJ",
        "reception_time": "2022-01-20T20:03:47.760-00:00",
        "included_in_blocks":
          [ "BM4ffDULxjJA83ggHZHtLURizweRMwtPSLiQbnA7vRFnwrvYphB" ] },
      { "delegate": "tz3adcvQaKXTCg12zbninqo3q8ptKKtDFTLv",
        "reception_time": "2022-01-20T20:03:47.760-00:00",
        "included_in_blocks":
          [ "BM4ffDULxjJA83ggHZHtLURizweRMwtPSLiQbnA7vRFnwrvYphB" ] },
      { "delegate": "tz3QT9dHYKDqh563chVa6za8526ys1UKfRfL",
        "reception_time": "2022-01-20T20:03:47.760-00:00",
        "included_in_blocks":
          [ "BM4ffDULxjJA83ggHZHtLURizweRMwtPSLiQbnA7vRFnwrvYphB" ] },
      { "delegate": "tz3bTdwZinP8U1JmSweNzVKhmwafqWmFWRfk",
        "reception_time": "2022-01-20T20:03:47.760-00:00",
        "included_in_blocks":
          [ "BM4ffDULxjJA83ggHZHtLURizweRMwtPSLiQbnA7vRFnwrvYphB" ] },
      { "delegate": "tz1Kf25fX1VdmYGSEzwFy1wNmkbSEZ2V83sY",
        "reception_time": "2022-01-20T20:03:47.760-00:00",
        "included_in_blocks":
          [ "BM4ffDULxjJA83ggHZHtLURizweRMwtPSLiQbnA7vRFnwrvYphB" ] },
      { "delegate": "tz3NxTnke1acr8o3h5y9ytf5awQBGNJUKzVU",
        "reception_time": "2022-01-20T20:03:47.760-00:00",
        "included_in_blocks":
          [ "BM4ffDULxjJA83ggHZHtLURizweRMwtPSLiQbnA7vRFnwrvYphB" ] },
      { "delegate": "tz3QSGPoRp3Kn7n3vY24eYeu3Peuqo45LQ4D",
        "reception_time": "2022-01-20T20:03:47.760-00:00",
        "included_in_blocks":
          [ "BM4ffDULxjJA83ggHZHtLURizweRMwtPSLiQbnA7vRFnwrvYphB" ] },
      { "delegate": "tz3iJu5vrKZcsqRPs8yJ61UDoeEXZmtro4qh",
        "reception_time": "2022-01-20T20:03:47.760-00:00",
        "included_in_blocks":
          [ "BM4ffDULxjJA83ggHZHtLURizweRMwtPSLiQbnA7vRFnwrvYphB" ] },
      { "delegate": "tz3ZbP2pM3nwvXztbuMJwJnDvV5xdpU8UkkD",
        "reception_time": "2022-01-20T20:03:47.760-00:00",
        "included_in_blocks":
          [ "BM4ffDULxjJA83ggHZHtLURizweRMwtPSLiQbnA7vRFnwrvYphB" ] },
      { "delegate": "tz3hw2kqXhLUvY65ca1eety2oQTpAvd34R9Q",
        "reception_time": "2022-01-20T20:03:47.760-00:00",
        "included_in_blocks":
          [ "BM4ffDULxjJA83ggHZHtLURizweRMwtPSLiQbnA7vRFnwrvYphB" ] },
      { "delegate": "tz1WCd2jm4uSt4vntk4vSuUWoZQGhLcDuR9q",
        "reception_time": "2022-01-20T20:03:47.760-00:00",
        "included_in_blocks":
          [ "BM4ffDULxjJA83ggHZHtLURizweRMwtPSLiQbnA7vRFnwrvYphB" ] },
      { "delegate": "tz1SFtJ3XwU1d6rWTRfJmwVDFpywcp4J743S",
        "reception_time": "2022-01-20T20:03:47.760-00:00",
        "included_in_blocks":
          [ "BM4ffDULxjJA83ggHZHtLURizweRMwtPSLiQbnA7vRFnwrvYphB" ] },
      { "delegate": "tz3gtoUxdudfBRcNY7iVdKPHCYYX6xdPpoRS",
        "reception_time": "2022-01-20T20:03:47.760-00:00",
        "included_in_blocks":
          [ "BM4ffDULxjJA83ggHZHtLURizweRMwtPSLiQbnA7vRFnwrvYphB" ] },
      { "delegate": "tz3S6BBeKgJGXxvLyZ1xzXzMPn11nnFtq5L9",
        "reception_time": "2022-01-20T20:03:47.760-00:00",
        "included_in_blocks":
          [ "BM4ffDULxjJA83ggHZHtLURizweRMwtPSLiQbnA7vRFnwrvYphB" ] },
      { "delegate": "tz3RKYFsLuQzKBtmYuLNas7uMu3AsYd4QdsA",
        "reception_time": "2022-01-20T20:03:47.760-00:00",
        "included_in_blocks":
          [ "BM4ffDULxjJA83ggHZHtLURizweRMwtPSLiQbnA7vRFnwrvYphB" ] },
      { "delegate": "tz1Kt4P8BCaP93AEV4eA7gmpRryWt5hznjCP",
        "reception_time": "2022-01-20T20:03:47.760-00:00",
        "included_in_blocks":
          [ "BM4ffDULxjJA83ggHZHtLURizweRMwtPSLiQbnA7vRFnwrvYphB" ] },
      { "delegate": "tz1STeamwbp68THcny9zk3LsbG3H36DMvbRK",
        "reception_time": "2022-01-20T20:03:47.760-00:00",
        "included_in_blocks":
          [ "BM4ffDULxjJA83ggHZHtLURizweRMwtPSLiQbnA7vRFnwrvYphB" ] },
      { "delegate": "tz1beersuEDv8Z7ngQ825xfbaJNS2EhXnyHR",
        "reception_time": "2022-01-20T20:03:47.760-00:00",
        "included_in_blocks":
          [ "BM4ffDULxjJA83ggHZHtLURizweRMwtPSLiQbnA7vRFnwrvYphB" ] },
      { "delegate": "tz1Ldzz6k1BHdhuKvAtMRX7h5kJSMHESMHLC",
        "reception_time": "2022-01-20T20:03:47.760-00:00",
        "included_in_blocks":
          [ "BM4ffDULxjJA83ggHZHtLURizweRMwtPSLiQbnA7vRFnwrvYphB" ] },
      { "delegate": "tz1d9ek6HrScY6QRZ71NJdB85MNz8gKGBjrv",
        "reception_time": "2022-01-20T20:03:47.760-00:00",
        "included_in_blocks":
          [ "BM4ffDULxjJA83ggHZHtLURizweRMwtPSLiQbnA7vRFnwrvYphB" ] },
      { "delegate": "tz1eEnQhbwf6trb8Q8mPb2RaPkNk2rN7BKi8",
        "reception_time": "2022-01-20T20:03:47.760-00:00",
        "included_in_blocks":
          [ "BM4ffDULxjJA83ggHZHtLURizweRMwtPSLiQbnA7vRFnwrvYphB" ] },
      { "delegate": "tz1TXzyaKUA8wsWefdSnyaYFnV2M3vCV7er9",
        "reception_time": "2022-01-20T20:03:47.760-00:00",
        "included_in_blocks":
          [ "BM4ffDULxjJA83ggHZHtLURizweRMwtPSLiQbnA7vRFnwrvYphB" ] },
      { "delegate": "tz1P2Po7YM526ughEsRbY4oR9zaUPDZjxFrb",
        "reception_time": "2022-01-20T20:03:47.760-00:00",
        "included_in_blocks":
          [ "BM4ffDULxjJA83ggHZHtLURizweRMwtPSLiQbnA7vRFnwrvYphB" ] },
      { "delegate": "tz1VQnqCCqX4K5sP3FNkVSNKTdCAMJDd3E1n",
        "reception_time": "2022-01-20T20:03:47.760-00:00",
        "included_in_blocks":
          [ "BM4ffDULxjJA83ggHZHtLURizweRMwtPSLiQbnA7vRFnwrvYphB" ] },
      { "delegate": "tz1gUNyn3hmnEWqkusWPzxRaon1cs7ndWh7h",
        "reception_time": "2022-01-20T20:03:47.760-00:00",
        "included_in_blocks":
          [ "BM4ffDULxjJA83ggHZHtLURizweRMwtPSLiQbnA7vRFnwrvYphB" ] },
      { "delegate": "tz1irJKkXS2DBWkU1NnmFQx1c1L7pbGg4yhk",
        "reception_time": "2022-01-20T20:03:47.760-00:00",
        "included_in_blocks":
          [ "BM4ffDULxjJA83ggHZHtLURizweRMwtPSLiQbnA7vRFnwrvYphB" ] },
      { "delegate": "tz1Zhv3RkfU2pHrmaiDyxp7kFZpZrUCu1CiF",
        "reception_time": "2022-01-20T20:03:47.760-00:00",
        "included_in_blocks":
          [ "BM4ffDULxjJA83ggHZHtLURizweRMwtPSLiQbnA7vRFnwrvYphB" ] },
      { "delegate": "tz1MXFrtZoaXckE41bjUCSjAjAap3AFDSr3N",
        "reception_time": "2022-01-20T20:03:46.918-00:00",
        "included_in_blocks":
          [ "BM4ffDULxjJA83ggHZHtLURizweRMwtPSLiQbnA7vRFnwrvYphB" ] } ] }