{ "blocks":
    [ { "hash": "BLrPADkrZUGDa3BoxeRHpKBC2NPwTW2gGoizWPMq6Nbuim95ioQ",
        "delegate": "tz1NSDFKuRyzHxpfG1AMkyCwEiZ52cbR2mRW",
        "reception_time": "2022-01-20T15:16:33.578-00:00",
        "timestamp": "2022-01-20T15:16:20Z" } ],
  "endorsements":
    [ { "delegate": "tz1Z1WwoqgRFbLE3YNdYRpCx44NSfiMJzeAG",
        "reception_time": "2022-01-20T15:16:59.386-00:00" },
      { "delegate": "tz1NpWrAyDL9k2Lmnyxcgr9xuJakbBxdq7FB",
        "reception_time": "2022-01-20T15:16:49.775-00:00",
        "included_in_blocks":
          [ "BLrtfk2BckWz1vvzcDm2FydjF9opEYapRjZJ7mVzAUNPqn2rTFa" ] },
      { "delegate": "tz1QccGQsmt7WMnbVX9inJQgEuQGeMXddfjp",
        "reception_time": "2022-01-20T15:16:43.422-00:00",
        "included_in_blocks":
          [ "BLrtfk2BckWz1vvzcDm2FydjF9opEYapRjZJ7mVzAUNPqn2rTFa" ] },
      { "delegate": "tz1aRoaRhSpRYvFdyvgWLL6TGyRoGF51wDjM",
        "reception_time": "2022-01-20T15:16:42.845-00:00",
        "included_in_blocks":
          [ "BLrtfk2BckWz1vvzcDm2FydjF9opEYapRjZJ7mVzAUNPqn2rTFa" ] },
      { "delegate": "tz1g8vkmcde6sWKaG2NN9WKzCkDM6Rziq194",
        "reception_time": "2022-01-20T15:16:40.150-00:00",
        "included_in_blocks":
          [ "BLrtfk2BckWz1vvzcDm2FydjF9opEYapRjZJ7mVzAUNPqn2rTFa" ] },
      { "delegate": "tz3UoffC7FG7zfpmvmjUmUeAaHvzdcUvAj6r",
        "reception_time": "2022-01-20T15:16:39.637-00:00",
        "included_in_blocks":
          [ "BLrtfk2BckWz1vvzcDm2FydjF9opEYapRjZJ7mVzAUNPqn2rTFa" ] },
      { "delegate": "tz1UvkANVPWppVgMkLnvN7BwYZsCP7vm6NVd",
        "reception_time": "2022-01-20T15:16:39.194-00:00",
        "included_in_blocks":
          [ "BLrtfk2BckWz1vvzcDm2FydjF9opEYapRjZJ7mVzAUNPqn2rTFa" ] },
      { "delegate": "tz3NExpXn9aPNZPorRE4SdjJ2RGrfbJgMAaV",
        "reception_time": "2022-01-20T15:16:39.185-00:00",
        "included_in_blocks":
          [ "BLrtfk2BckWz1vvzcDm2FydjF9opEYapRjZJ7mVzAUNPqn2rTFa" ] },
      { "delegate": "tz3RDC3Jdn4j15J7bBHZd29EUee9gVB1CxD9",
        "reception_time": "2022-01-20T15:16:38.813-00:00",
        "included_in_blocks":
          [ "BLrtfk2BckWz1vvzcDm2FydjF9opEYapRjZJ7mVzAUNPqn2rTFa" ] },
      { "delegate": "tz3WMqdzXqRWXwyvj5Hp2H7QEepaUuS7vd9K",
        "reception_time": "2022-01-20T15:16:38.810-00:00",
        "included_in_blocks":
          [ "BLrtfk2BckWz1vvzcDm2FydjF9opEYapRjZJ7mVzAUNPqn2rTFa" ] },
      { "delegate": "tz3VEZ4k6a4Wx42iyev6i2aVAptTRLEAivNN",
        "reception_time": "2022-01-20T15:16:38.810-00:00",
        "included_in_blocks":
          [ "BLrtfk2BckWz1vvzcDm2FydjF9opEYapRjZJ7mVzAUNPqn2rTFa" ] },
      { "delegate": "tz1TwVimQy3BywXoSszdFXjT9bSTQrsZYo2u",
        "reception_time": "2022-01-20T15:16:38.810-00:00",
        "included_in_blocks":
          [ "BLrtfk2BckWz1vvzcDm2FydjF9opEYapRjZJ7mVzAUNPqn2rTFa" ] },
      { "delegate": "tz3NDpRj6WBrJPikcPVHRBEjWKxFw3c6eQPS",
        "reception_time": "2022-01-20T15:16:38.226-00:00",
        "included_in_blocks":
          [ "BLrtfk2BckWz1vvzcDm2FydjF9opEYapRjZJ7mVzAUNPqn2rTFa" ] },
      { "delegate": "tz1cYufsxHXJcvANhvS55h3aY32a9BAFB494",
        "reception_time": "2022-01-20T15:16:38.226-00:00",
        "included_in_blocks":
          [ "BLrtfk2BckWz1vvzcDm2FydjF9opEYapRjZJ7mVzAUNPqn2rTFa" ] },
      { "delegate": "tz1NoYvKjXTzTk54VpLxBfouJ33J8jwKPPvw",
        "reception_time": "2022-01-20T15:16:37.923-00:00",
        "included_in_blocks":
          [ "BLrtfk2BckWz1vvzcDm2FydjF9opEYapRjZJ7mVzAUNPqn2rTFa" ] },
      { "delegate": "tz3RB4aoyjov4KEVRbuhvQ1CKJgBJMWhaeB8",
        "reception_time": "2022-01-20T15:16:37.923-00:00",
        "included_in_blocks":
          [ "BLrtfk2BckWz1vvzcDm2FydjF9opEYapRjZJ7mVzAUNPqn2rTFa" ] },
      { "delegate": "tz1h4GUAMweP7SNWzDgvMk3yRCAZyaP1MxZq",
        "reception_time": "2022-01-20T15:16:37.923-00:00",
        "included_in_blocks":
          [ "BLrtfk2BckWz1vvzcDm2FydjF9opEYapRjZJ7mVzAUNPqn2rTFa" ] },
      { "delegate": "tz1Z2jXfEXL7dXhs6bsLmyLFLfmAkXBzA9WE",
        "reception_time": "2022-01-20T15:16:37.923-00:00",
        "included_in_blocks":
          [ "BLrtfk2BckWz1vvzcDm2FydjF9opEYapRjZJ7mVzAUNPqn2rTFa" ] },
      { "delegate": "tz3bvNMQ95vfAYtG8193ymshqjSvmxiCUuR5",
        "reception_time": "2022-01-20T15:16:37.612-00:00",
        "included_in_blocks":
          [ "BLrtfk2BckWz1vvzcDm2FydjF9opEYapRjZJ7mVzAUNPqn2rTFa" ] },
      { "delegate": "tz1T7duV5gZWSTq4YpBGbXNLTfznCLDrFxvs",
        "reception_time": "2022-01-20T15:16:37.612-00:00",
        "included_in_blocks":
          [ "BLrtfk2BckWz1vvzcDm2FydjF9opEYapRjZJ7mVzAUNPqn2rTFa" ] },
      { "delegate": "tz1TRqbYbUf2GyrjErf3hBzgBJPzW8y36qEs",
        "reception_time": "2022-01-20T15:16:37.612-00:00",
        "included_in_blocks":
          [ "BLrtfk2BckWz1vvzcDm2FydjF9opEYapRjZJ7mVzAUNPqn2rTFa" ] },
      { "delegate": "tz1PeZx7FXy7QRuMREGXGxeipb24RsMMzUNe",
        "reception_time": "2022-01-20T15:16:37.612-00:00",
        "included_in_blocks":
          [ "BLrtfk2BckWz1vvzcDm2FydjF9opEYapRjZJ7mVzAUNPqn2rTFa" ] },
      { "delegate": "tz1dRKU4FQ9QRRQPdaH4zCR6gmCmXfcvcgtB",
        "reception_time": "2022-01-20T15:16:37.325-00:00",
        "included_in_blocks":
          [ "BLrtfk2BckWz1vvzcDm2FydjF9opEYapRjZJ7mVzAUNPqn2rTFa" ] },
      { "delegate": "tz1WBfwbT66FC6BTLexc2BoyCCBM9LG7pnVW",
        "reception_time": "2022-01-20T15:16:37.261-00:00",
        "included_in_blocks":
          [ "BLrtfk2BckWz1vvzcDm2FydjF9opEYapRjZJ7mVzAUNPqn2rTFa" ] },
      { "delegate": "tz1UJvHTgpVzcKWhTazGxVcn5wsHru5Gietg",
        "reception_time": "2022-01-20T15:16:37.261-00:00",
        "included_in_blocks":
          [ "BLrtfk2BckWz1vvzcDm2FydjF9opEYapRjZJ7mVzAUNPqn2rTFa" ] },
      { "delegate": "tz1WctSwL49BZtdWAQ75NY6vr4xsAx6oKdah",
        "reception_time": "2022-01-20T15:16:37.261-00:00",
        "included_in_blocks":
          [ "BLrtfk2BckWz1vvzcDm2FydjF9opEYapRjZJ7mVzAUNPqn2rTFa" ] },
      { "delegate": "tz3bTdwZinP8U1JmSweNzVKhmwafqWmFWRfk",
        "reception_time": "2022-01-20T15:16:37.261-00:00",
        "included_in_blocks":
          [ "BLrtfk2BckWz1vvzcDm2FydjF9opEYapRjZJ7mVzAUNPqn2rTFa" ] },
      { "delegate": "tz1Tnjaxk6tbAeC2TmMApPh8UsrEVQvhHvx5",
        "reception_time": "2022-01-20T15:16:37.261-00:00",
        "included_in_blocks":
          [ "BLrtfk2BckWz1vvzcDm2FydjF9opEYapRjZJ7mVzAUNPqn2rTFa" ] },
      { "delegate": "tz1S8MNvuFEUsWgjHvi3AxibRBf388NhT1q2",
        "reception_time": "2022-01-20T15:16:37.261-00:00",
        "included_in_blocks":
          [ "BLrtfk2BckWz1vvzcDm2FydjF9opEYapRjZJ7mVzAUNPqn2rTFa" ] },
      { "delegate": "tz1R4PuhxUxBBZhfLJDx2nNjbr7WorAPX1oC",
        "reception_time": "2022-01-20T15:16:37.261-00:00",
        "included_in_blocks":
          [ "BLrtfk2BckWz1vvzcDm2FydjF9opEYapRjZJ7mVzAUNPqn2rTFa" ] },
      { "delegate": "tz1U2ufqFdVkN2RdYormwHtgm3ityYY1uqft",
        "reception_time": "2022-01-20T15:16:37.261-00:00",
        "included_in_blocks":
          [ "BLrtfk2BckWz1vvzcDm2FydjF9opEYapRjZJ7mVzAUNPqn2rTFa" ] },
      { "delegate": "tz3QCNyySViKHmeSr45kzDxzchys7NiXCWoa",
        "reception_time": "2022-01-20T15:16:37.261-00:00",
        "included_in_blocks":
          [ "BLrtfk2BckWz1vvzcDm2FydjF9opEYapRjZJ7mVzAUNPqn2rTFa" ] },
      { "delegate": "tz2FCNBrERXtaTtNX6iimR1UJ5JSDxvdHM93",
        "reception_time": "2022-01-20T15:16:36.716-00:00",
        "included_in_blocks":
          [ "BLrtfk2BckWz1vvzcDm2FydjF9opEYapRjZJ7mVzAUNPqn2rTFa" ] },
      { "delegate": "tz1MQMiZHV8q4tTwUMWmS5Y3kaP6J2136iXr",
        "reception_time": "2022-01-20T15:16:36.716-00:00",
        "included_in_blocks":
          [ "BLrtfk2BckWz1vvzcDm2FydjF9opEYapRjZJ7mVzAUNPqn2rTFa" ] },
      { "delegate": "tz1Nf6tsK4G6bBqgSQERy4nUtkHNKUVdh7q1",
        "reception_time": "2022-01-20T15:16:36.716-00:00",
        "included_in_blocks":
          [ "BLrtfk2BckWz1vvzcDm2FydjF9opEYapRjZJ7mVzAUNPqn2rTFa" ] },
      { "delegate": "tz1UMCB2AHSTwG7YcGNr31CqYCtGN873royv",
        "reception_time": "2022-01-20T15:16:36.716-00:00",
        "included_in_blocks":
          [ "BLrtfk2BckWz1vvzcDm2FydjF9opEYapRjZJ7mVzAUNPqn2rTFa" ] },
      { "delegate": "tz3QT9dHYKDqh563chVa6za8526ys1UKfRfL",
        "reception_time": "2022-01-20T15:16:36.716-00:00",
        "included_in_blocks":
          [ "BLrtfk2BckWz1vvzcDm2FydjF9opEYapRjZJ7mVzAUNPqn2rTFa" ] },
      { "delegate": "tz1NEKxGEHsFufk87CVZcrqWu8o22qh46GK6",
        "reception_time": "2022-01-20T15:16:36.716-00:00",
        "included_in_blocks":
          [ "BLrtfk2BckWz1vvzcDm2FydjF9opEYapRjZJ7mVzAUNPqn2rTFa" ] },
      { "delegate": "tz1RCFbB9GpALpsZtu6J58sb74dm8qe6XBzv",
        "reception_time": "2022-01-20T15:16:36.716-00:00",
        "included_in_blocks":
          [ "BLrtfk2BckWz1vvzcDm2FydjF9opEYapRjZJ7mVzAUNPqn2rTFa" ] },
      { "delegate": "tz1gfArv665EUkSg2ojMBzcbfwuPxAvqPvjo",
        "reception_time": "2022-01-20T15:16:36.356-00:00",
        "included_in_blocks":
          [ "BLrtfk2BckWz1vvzcDm2FydjF9opEYapRjZJ7mVzAUNPqn2rTFa" ] },
      { "delegate": "tz1ei4WtWEMEJekSv8qDnu9PExG6Q8HgRGr3",
        "reception_time": "2022-01-20T15:16:36.356-00:00",
        "included_in_blocks":
          [ "BLrtfk2BckWz1vvzcDm2FydjF9opEYapRjZJ7mVzAUNPqn2rTFa" ] },
      { "delegate": "tz3gtoUxdudfBRcNY7iVdKPHCYYX6xdPpoRS",
        "reception_time": "2022-01-20T15:16:36.356-00:00",
        "included_in_blocks":
          [ "BLrtfk2BckWz1vvzcDm2FydjF9opEYapRjZJ7mVzAUNPqn2rTFa" ] },
      { "delegate": "tz3QSGPoRp3Kn7n3vY24eYeu3Peuqo45LQ4D",
        "reception_time": "2022-01-20T15:16:36.356-00:00",
        "included_in_blocks":
          [ "BLrtfk2BckWz1vvzcDm2FydjF9opEYapRjZJ7mVzAUNPqn2rTFa" ] },
      { "delegate": "tz3Zhs2dygr55yHyQyKjntAtY9bgfhLZ4Xj1",
        "reception_time": "2022-01-20T15:16:36.356-00:00",
        "included_in_blocks":
          [ "BLrtfk2BckWz1vvzcDm2FydjF9opEYapRjZJ7mVzAUNPqn2rTFa" ] },
      { "delegate": "tz1TRspM5SeZpaQUhzByXbEvqKF1vnCM2YTK",
        "reception_time": "2022-01-20T15:16:36.356-00:00",
        "included_in_blocks":
          [ "BLrtfk2BckWz1vvzcDm2FydjF9opEYapRjZJ7mVzAUNPqn2rTFa" ] },
      { "delegate": "tz3RKYFsLuQzKBtmYuLNas7uMu3AsYd4QdsA",
        "reception_time": "2022-01-20T15:16:36.356-00:00",
        "included_in_blocks":
          [ "BLrtfk2BckWz1vvzcDm2FydjF9opEYapRjZJ7mVzAUNPqn2rTFa" ] },
      { "delegate": "tz1dNVDWPf3Q59SdJqnjdnu277iyvReiRS9M",
        "reception_time": "2022-01-20T15:16:36.356-00:00",
        "included_in_blocks":
          [ "BLrtfk2BckWz1vvzcDm2FydjF9opEYapRjZJ7mVzAUNPqn2rTFa" ] },
      { "delegate": "tz3iJu5vrKZcsqRPs8yJ61UDoeEXZmtro4qh",
        "reception_time": "2022-01-20T15:16:36.356-00:00",
        "included_in_blocks":
          [ "BLrtfk2BckWz1vvzcDm2FydjF9opEYapRjZJ7mVzAUNPqn2rTFa" ] },
      { "delegate": "tz3hw2kqXhLUvY65ca1eety2oQTpAvd34R9Q",
        "reception_time": "2022-01-20T15:16:36.356-00:00",
        "included_in_blocks":
          [ "BLrtfk2BckWz1vvzcDm2FydjF9opEYapRjZJ7mVzAUNPqn2rTFa" ] },
      { "delegate": "tz1d9ek6HrScY6QRZ71NJdB85MNz8gKGBjrv",
        "reception_time": "2022-01-20T15:16:36.356-00:00",
        "included_in_blocks":
          [ "BLrtfk2BckWz1vvzcDm2FydjF9opEYapRjZJ7mVzAUNPqn2rTFa" ] },
      { "delegate": "tz3ZbP2pM3nwvXztbuMJwJnDvV5xdpU8UkkD",
        "reception_time": "2022-01-20T15:16:36.356-00:00",
        "included_in_blocks":
          [ "BLrtfk2BckWz1vvzcDm2FydjF9opEYapRjZJ7mVzAUNPqn2rTFa" ] },
      { "delegate": "tz1RQhNh7iB9CZA7i3ifTWNwiGYVffponfbB",
        "reception_time": "2022-01-20T15:16:36.356-00:00",
        "included_in_blocks":
          [ "BLrtfk2BckWz1vvzcDm2FydjF9opEYapRjZJ7mVzAUNPqn2rTFa" ] },
      { "delegate": "tz3NxTnke1acr8o3h5y9ytf5awQBGNJUKzVU",
        "reception_time": "2022-01-20T15:16:36.356-00:00",
        "included_in_blocks":
          [ "BLrtfk2BckWz1vvzcDm2FydjF9opEYapRjZJ7mVzAUNPqn2rTFa" ] },
      { "delegate": "tz3e7LbZvUtoXhpUD1yb6wuFodZpfYRb9nWJ",
        "reception_time": "2022-01-20T15:16:36.356-00:00",
        "included_in_blocks":
          [ "BLrtfk2BckWz1vvzcDm2FydjF9opEYapRjZJ7mVzAUNPqn2rTFa" ] },
      { "delegate": "tz1TEc75UKXv4W5cwi14Na3NtqFD51yKQi7h",
        "reception_time": "2022-01-20T15:16:36.356-00:00",
        "included_in_blocks":
          [ "BLrtfk2BckWz1vvzcDm2FydjF9opEYapRjZJ7mVzAUNPqn2rTFa" ] },
      { "delegate": "tz1MJx9vhaNRSimcuXPK2rW4fLccQnDAnVKJ",
        "reception_time": "2022-01-20T15:16:36.356-00:00",
        "included_in_blocks":
          [ "BLrtfk2BckWz1vvzcDm2FydjF9opEYapRjZJ7mVzAUNPqn2rTFa" ] },
      { "delegate": "tz1WCd2jm4uSt4vntk4vSuUWoZQGhLcDuR9q",
        "reception_time": "2022-01-20T15:16:36.356-00:00",
        "included_in_blocks":
          [ "BLrtfk2BckWz1vvzcDm2FydjF9opEYapRjZJ7mVzAUNPqn2rTFa" ] },
      { "delegate": "tz1d6Fx42mYgVFnHUW8T8A7WBfJ6nD9pVok8",
        "reception_time": "2022-01-20T15:16:36.356-00:00",
        "included_in_blocks":
          [ "BLrtfk2BckWz1vvzcDm2FydjF9opEYapRjZJ7mVzAUNPqn2rTFa" ] },
      { "delegate": "tz1eEnQhbwf6trb8Q8mPb2RaPkNk2rN7BKi8",
        "reception_time": "2022-01-20T15:16:36.356-00:00",
        "included_in_blocks":
          [ "BLrtfk2BckWz1vvzcDm2FydjF9opEYapRjZJ7mVzAUNPqn2rTFa" ] },
      { "delegate": "tz1STeamwbp68THcny9zk3LsbG3H36DMvbRK",
        "reception_time": "2022-01-20T15:16:36.356-00:00",
        "included_in_blocks":
          [ "BLrtfk2BckWz1vvzcDm2FydjF9opEYapRjZJ7mVzAUNPqn2rTFa" ] },
      { "delegate": "tz1irJKkXS2DBWkU1NnmFQx1c1L7pbGg4yhk",
        "reception_time": "2022-01-20T15:16:36.356-00:00",
        "included_in_blocks":
          [ "BLrtfk2BckWz1vvzcDm2FydjF9opEYapRjZJ7mVzAUNPqn2rTFa" ] },
      { "delegate": "tz1beersuEDv8Z7ngQ825xfbaJNS2EhXnyHR",
        "reception_time": "2022-01-20T15:16:36.356-00:00",
        "included_in_blocks":
          [ "BLrtfk2BckWz1vvzcDm2FydjF9opEYapRjZJ7mVzAUNPqn2rTFa" ] },
      { "delegate": "tz1bYemsZHPzL3qUkQ5Ao3bze5viTfd8v7Lj",
        "reception_time": "2022-01-20T15:16:36.356-00:00",
        "included_in_blocks":
          [ "BLrtfk2BckWz1vvzcDm2FydjF9opEYapRjZJ7mVzAUNPqn2rTFa" ] },
      { "delegate": "tz3adcvQaKXTCg12zbninqo3q8ptKKtDFTLv",
        "reception_time": "2022-01-20T15:16:36.356-00:00",
        "included_in_blocks":
          [ "BLrtfk2BckWz1vvzcDm2FydjF9opEYapRjZJ7mVzAUNPqn2rTFa" ] },
      { "delegate": "tz1VmiY38m3y95HqQLjMwqnMS7sdMfGomzKi",
        "reception_time": "2022-01-20T15:16:36.356-00:00",
        "included_in_blocks":
          [ "BLrtfk2BckWz1vvzcDm2FydjF9opEYapRjZJ7mVzAUNPqn2rTFa" ] },
      { "delegate": "tz1MXFrtZoaXckE41bjUCSjAjAap3AFDSr3N",
        "reception_time": "2022-01-20T15:16:36.356-00:00",
        "included_in_blocks":
          [ "BLrtfk2BckWz1vvzcDm2FydjF9opEYapRjZJ7mVzAUNPqn2rTFa" ] },
      { "delegate": "tz1PWCDnz783NNGGQjEFFsHtrcK5yBW4E2rm",
        "reception_time": "2022-01-20T15:16:36.356-00:00",
        "included_in_blocks":
          [ "BLrtfk2BckWz1vvzcDm2FydjF9opEYapRjZJ7mVzAUNPqn2rTFa" ] },
      { "delegate": "tz1RV1MBbZMR68tacosb7Mwj6LkbPSUS1er1",
        "reception_time": "2022-01-20T15:16:36.356-00:00",
        "included_in_blocks":
          [ "BLrtfk2BckWz1vvzcDm2FydjF9opEYapRjZJ7mVzAUNPqn2rTFa" ] },
      { "delegate": "tz1VQnqCCqX4K5sP3FNkVSNKTdCAMJDd3E1n",
        "reception_time": "2022-01-20T15:16:36.356-00:00",
        "included_in_blocks":
          [ "BLrtfk2BckWz1vvzcDm2FydjF9opEYapRjZJ7mVzAUNPqn2rTFa" ] },
      { "delegate": "tz1Ldzz6k1BHdhuKvAtMRX7h5kJSMHESMHLC",
        "reception_time": "2022-01-20T15:16:36.356-00:00",
        "included_in_blocks":
          [ "BLrtfk2BckWz1vvzcDm2FydjF9opEYapRjZJ7mVzAUNPqn2rTFa" ] },
      { "delegate": "tz1P2Po7YM526ughEsRbY4oR9zaUPDZjxFrb",
        "reception_time": "2022-01-20T15:16:36.356-00:00",
        "included_in_blocks":
          [ "BLrtfk2BckWz1vvzcDm2FydjF9opEYapRjZJ7mVzAUNPqn2rTFa" ] },
      { "delegate": "tz1gUNyn3hmnEWqkusWPzxRaon1cs7ndWh7h",
        "reception_time": "2022-01-20T15:16:36.356-00:00",
        "included_in_blocks":
          [ "BLrtfk2BckWz1vvzcDm2FydjF9opEYapRjZJ7mVzAUNPqn2rTFa" ] },
      { "delegate": "tz1TXzyaKUA8wsWefdSnyaYFnV2M3vCV7er9",
        "reception_time": "2022-01-20T15:16:36.356-00:00",
        "included_in_blocks":
          [ "BLrtfk2BckWz1vvzcDm2FydjF9opEYapRjZJ7mVzAUNPqn2rTFa" ] },
      { "delegate": "tz1awXW7wuXy21c66vBudMXQVAPgRnqqwgTH" },
      { "delegate": "tz1XhnCdVENzgko5x1MMswLHSoQbJ5NPwLZ6" },
      { "delegate": "tz1RjoHc98dBoqaH2jawF62XNKh7YsHwbkEv" } ] }