{ "blocks":
    [ { "hash": "BLuQnHjpRkrB1K7c2i6aFTwBwiv3eWUnSei8ajXQarT3miYYY9r",
        "delegate": "tz3RDC3Jdn4j15J7bBHZd29EUee9gVB1CxD9",
        "reception_time": "2022-01-20T20:59:20.569-00:00",
        "timestamp": "2022-01-20T20:59:10Z" } ],
  "endorsements":
    [ { "delegate": "tz1dbfppLAAxXZNtf2SDps7rch3qfUznKSoK" },
      { "delegate": "tz1awXW7wuXy21c66vBudMXQVAPgRnqqwgTH" },
      { "delegate": "tz1W5VkdB5s7ENMESVBtwyt9kyvLqPcUczRT" },
      { "delegate": "tz1RjoHc98dBoqaH2jawF62XNKh7YsHwbkEv" },
      { "delegate": "tz1Kt4P8BCaP93AEV4eA7gmpRryWt5hznjCP",
        "reception_time": "2022-01-20T20:59:20.570-00:00",
        "errors":
          [ { "kind": "temporary",
              "id": "proto.011-PtHangz2.prefilter.outdated_endorsement" } ],
        "included_in_blocks":
          [ "BL7kJjVeFz3vKE49aSoexMxnapGa3pzQ5JdaFYXFLyXYgciqepF" ] },
      { "delegate": "tz1STeamwbp68THcny9zk3LsbG3H36DMvbRK",
        "reception_time": "2022-01-20T20:59:20.423-00:00",
        "errors":
          [ { "kind": "temporary",
              "id": "proto.011-PtHangz2.prefilter.outdated_endorsement" } ],
        "included_in_blocks":
          [ "BL7kJjVeFz3vKE49aSoexMxnapGa3pzQ5JdaFYXFLyXYgciqepF" ] },
      { "delegate": "tz1VQnqCCqX4K5sP3FNkVSNKTdCAMJDd3E1n",
        "reception_time": "2022-01-20T20:59:20.394-00:00",
        "errors":
          [ { "kind": "temporary",
              "id": "proto.011-PtHangz2.prefilter.outdated_endorsement" } ],
        "included_in_blocks":
          [ "BL7kJjVeFz3vKE49aSoexMxnapGa3pzQ5JdaFYXFLyXYgciqepF" ] },
      { "delegate": "tz1gUNyn3hmnEWqkusWPzxRaon1cs7ndWh7h",
        "reception_time": "2022-01-20T20:59:20.392-00:00",
        "errors":
          [ { "kind": "temporary",
              "id": "proto.011-PtHangz2.prefilter.outdated_endorsement" } ],
        "included_in_blocks":
          [ "BL7kJjVeFz3vKE49aSoexMxnapGa3pzQ5JdaFYXFLyXYgciqepF" ] },
      { "delegate": "tz1TXzyaKUA8wsWefdSnyaYFnV2M3vCV7er9",
        "reception_time": "2022-01-20T20:59:20.304-00:00",
        "errors":
          [ { "kind": "temporary",
              "id": "proto.011-PtHangz2.prefilter.outdated_endorsement" } ],
        "included_in_blocks":
          [ "BL7kJjVeFz3vKE49aSoexMxnapGa3pzQ5JdaFYXFLyXYgciqepF" ] },
      { "delegate": "tz1eEnQhbwf6trb8Q8mPb2RaPkNk2rN7BKi8",
        "reception_time": "2022-01-20T20:59:20.255-00:00",
        "errors":
          [ { "kind": "temporary",
              "id": "proto.011-PtHangz2.prefilter.outdated_endorsement" } ],
        "included_in_blocks":
          [ "BL7kJjVeFz3vKE49aSoexMxnapGa3pzQ5JdaFYXFLyXYgciqepF" ] },
      { "delegate": "tz1Scdr2HsZiQjc7bHMeBbmDRXYVvdhjJbBh",
        "reception_time": "2022-01-20T20:59:20.218-00:00",
        "errors":
          [ { "kind": "temporary",
              "id": "proto.011-PtHangz2.prefilter.outdated_endorsement" } ],
        "included_in_blocks":
          [ "BL7kJjVeFz3vKE49aSoexMxnapGa3pzQ5JdaFYXFLyXYgciqepF" ] },
      { "delegate": "tz1Lhf4J9Qxoe3DZ2nfe8FGDnvVj7oKjnMY6",
        "reception_time": "2022-01-20T20:59:20.090-00:00",
        "errors":
          [ { "kind": "temporary",
              "id": "proto.011-PtHangz2.prefilter.outdated_endorsement" } ],
        "included_in_blocks":
          [ "BL7kJjVeFz3vKE49aSoexMxnapGa3pzQ5JdaFYXFLyXYgciqepF" ] },
      { "delegate": "tz1irJKkXS2DBWkU1NnmFQx1c1L7pbGg4yhk",
        "reception_time": "2022-01-20T20:59:20.080-00:00",
        "errors":
          [ { "kind": "temporary",
              "id": "proto.011-PtHangz2.prefilter.outdated_endorsement" } ],
        "included_in_blocks":
          [ "BL7kJjVeFz3vKE49aSoexMxnapGa3pzQ5JdaFYXFLyXYgciqepF" ] },
      { "delegate": "tz1P2Po7YM526ughEsRbY4oR9zaUPDZjxFrb",
        "reception_time": "2022-01-20T20:59:19.592-00:00",
        "errors":
          [ { "kind": "temporary",
              "id": "proto.011-PtHangz2.prefilter.outdated_endorsement" } ],
        "included_in_blocks":
          [ "BL7kJjVeFz3vKE49aSoexMxnapGa3pzQ5JdaFYXFLyXYgciqepF" ] },
      { "delegate": "tz1gg5bjopPcr9agjamyu9BbXKLibNc2rbAq",
        "reception_time": "2022-01-20T20:59:26.724-00:00",
        "included_in_blocks":
          [ "BL7kJjVeFz3vKE49aSoexMxnapGa3pzQ5JdaFYXFLyXYgciqepF" ] },
      { "delegate": "tz1eVaNx3gCmG1EsLjijkmgAxdLYVf6Bf5Sq",
        "reception_time": "2022-01-20T20:59:26.574-00:00",
        "included_in_blocks":
          [ "BL7kJjVeFz3vKE49aSoexMxnapGa3pzQ5JdaFYXFLyXYgciqepF" ] },
      { "delegate": "tz1aRoaRhSpRYvFdyvgWLL6TGyRoGF51wDjM",
        "reception_time": "2022-01-20T20:59:24.612-00:00",
        "included_in_blocks":
          [ "BL7kJjVeFz3vKE49aSoexMxnapGa3pzQ5JdaFYXFLyXYgciqepF" ] },
      { "delegate": "tz1T7duV5gZWSTq4YpBGbXNLTfznCLDrFxvs",
        "reception_time": "2022-01-20T20:59:24.536-00:00",
        "included_in_blocks":
          [ "BL7kJjVeFz3vKE49aSoexMxnapGa3pzQ5JdaFYXFLyXYgciqepF" ] },
      { "delegate": "tz1TRqbYbUf2GyrjErf3hBzgBJPzW8y36qEs",
        "reception_time": "2022-01-20T20:59:24.313-00:00",
        "included_in_blocks":
          [ "BL7kJjVeFz3vKE49aSoexMxnapGa3pzQ5JdaFYXFLyXYgciqepF" ] },
      { "delegate": "tz1Mc61yajNASzh5KWZFtYs4i7EJbzAxQC4K",
        "reception_time": "2022-01-20T20:59:24.351-00:00",
        "included_in_blocks":
          [ "BL7kJjVeFz3vKE49aSoexMxnapGa3pzQ5JdaFYXFLyXYgciqepF" ] },
      { "delegate": "tz1SYq214SCBy9naR6cvycQsYcUGpBqQAE8d",
        "reception_time": "2022-01-20T20:59:23.767-00:00",
        "included_in_blocks":
          [ "BL7kJjVeFz3vKE49aSoexMxnapGa3pzQ5JdaFYXFLyXYgciqepF" ] },
      { "delegate": "tz3NExpXn9aPNZPorRE4SdjJ2RGrfbJgMAaV",
        "reception_time": "2022-01-20T20:59:24.066-00:00",
        "included_in_blocks":
          [ "BL7kJjVeFz3vKE49aSoexMxnapGa3pzQ5JdaFYXFLyXYgciqepF" ] },
      { "delegate": "tz3UoffC7FG7zfpmvmjUmUeAaHvzdcUvAj6r",
        "reception_time": "2022-01-20T20:59:24.006-00:00",
        "included_in_blocks":
          [ "BL7kJjVeFz3vKE49aSoexMxnapGa3pzQ5JdaFYXFLyXYgciqepF" ] },
      { "delegate": "tz3VEZ4k6a4Wx42iyev6i2aVAptTRLEAivNN",
        "reception_time": "2022-01-20T20:59:23.788-00:00",
        "included_in_blocks":
          [ "BL7kJjVeFz3vKE49aSoexMxnapGa3pzQ5JdaFYXFLyXYgciqepF" ] },
      { "delegate": "tz3NDpRj6WBrJPikcPVHRBEjWKxFw3c6eQPS",
        "reception_time": "2022-01-20T20:59:23.509-00:00",
        "included_in_blocks":
          [ "BL7kJjVeFz3vKE49aSoexMxnapGa3pzQ5JdaFYXFLyXYgciqepF" ] },
      { "delegate": "tz1iEWcNL383qiDJ3Q3qt5W2T4aSKUbEU4An",
        "reception_time": "2022-01-20T20:59:23.802-00:00",
        "included_in_blocks":
          [ "BL7kJjVeFz3vKE49aSoexMxnapGa3pzQ5JdaFYXFLyXYgciqepF" ] },
      { "delegate": "tz3WMqdzXqRWXwyvj5Hp2H7QEepaUuS7vd9K",
        "reception_time": "2022-01-20T20:59:23.432-00:00",
        "included_in_blocks":
          [ "BL7kJjVeFz3vKE49aSoexMxnapGa3pzQ5JdaFYXFLyXYgciqepF" ] },
      { "delegate": "tz3RB4aoyjov4KEVRbuhvQ1CKJgBJMWhaeB8",
        "reception_time": "2022-01-20T20:59:23.321-00:00",
        "included_in_blocks":
          [ "BL7kJjVeFz3vKE49aSoexMxnapGa3pzQ5JdaFYXFLyXYgciqepF" ] },
      { "delegate": "tz2FCNBrERXtaTtNX6iimR1UJ5JSDxvdHM93",
        "reception_time": "2022-01-20T20:59:23.203-00:00",
        "included_in_blocks":
          [ "BL7kJjVeFz3vKE49aSoexMxnapGa3pzQ5JdaFYXFLyXYgciqepF" ] },
      { "delegate": "tz1NEKxGEHsFufk87CVZcrqWu8o22qh46GK6",
        "reception_time": "2022-01-20T20:59:23.217-00:00",
        "included_in_blocks":
          [ "BL7kJjVeFz3vKE49aSoexMxnapGa3pzQ5JdaFYXFLyXYgciqepF" ] },
      { "delegate": "tz1Ldzz6k1BHdhuKvAtMRX7h5kJSMHESMHLC",
        "reception_time": "2022-01-20T20:59:22.693-00:00",
        "included_in_blocks":
          [ "BL7kJjVeFz3vKE49aSoexMxnapGa3pzQ5JdaFYXFLyXYgciqepF" ] },
      { "delegate": "tz3bvNMQ95vfAYtG8193ymshqjSvmxiCUuR5",
        "reception_time": "2022-01-20T20:59:22.769-00:00",
        "included_in_blocks":
          [ "BL7kJjVeFz3vKE49aSoexMxnapGa3pzQ5JdaFYXFLyXYgciqepF" ] },
      { "delegate": "tz1VHmaNfUC9BBcm851g2fhgSUq8NxFapuCA",
        "reception_time": "2022-01-20T20:59:22.665-00:00",
        "included_in_blocks":
          [ "BL7kJjVeFz3vKE49aSoexMxnapGa3pzQ5JdaFYXFLyXYgciqepF" ] },
      { "delegate": "tz1dRKU4FQ9QRRQPdaH4zCR6gmCmXfcvcgtB",
        "reception_time": "2022-01-20T20:59:23.039-00:00",
        "included_in_blocks":
          [ "BL7kJjVeFz3vKE49aSoexMxnapGa3pzQ5JdaFYXFLyXYgciqepF" ] },
      { "delegate": "tz1eLbDXYceRsPZoPmaJXZgQ6pzgnTQvZtpo",
        "reception_time": "2022-01-20T20:59:23.122-00:00",
        "included_in_blocks":
          [ "BL7kJjVeFz3vKE49aSoexMxnapGa3pzQ5JdaFYXFLyXYgciqepF" ] },
      { "delegate": "tz1g8vkmcde6sWKaG2NN9WKzCkDM6Rziq194",
        "reception_time": "2022-01-20T20:59:22.695-00:00",
        "included_in_blocks":
          [ "BL7kJjVeFz3vKE49aSoexMxnapGa3pzQ5JdaFYXFLyXYgciqepF" ] },
      { "delegate": "tz1RCFbB9GpALpsZtu6J58sb74dm8qe6XBzv",
        "reception_time": "2022-01-20T20:59:22.700-00:00",
        "included_in_blocks":
          [ "BL7kJjVeFz3vKE49aSoexMxnapGa3pzQ5JdaFYXFLyXYgciqepF" ] },
      { "delegate": "tz1LmaFsWRkjr7QMCx5PtV6xTUz3AmEpKQiF",
        "reception_time": "2022-01-20T20:59:22.706-00:00",
        "included_in_blocks":
          [ "BL7kJjVeFz3vKE49aSoexMxnapGa3pzQ5JdaFYXFLyXYgciqepF" ] },
      { "delegate": "tz1KfEsrtDaA1sX7vdM4qmEPWuSytuqCDp5j",
        "reception_time": "2022-01-20T20:59:22.710-00:00",
        "included_in_blocks":
          [ "BL7kJjVeFz3vKE49aSoexMxnapGa3pzQ5JdaFYXFLyXYgciqepF" ] },
      { "delegate": "tz1V4qCyvPKZ5UeqdH14HN42rxvNPQfc9UZg",
        "reception_time": "2022-01-20T20:59:22.688-00:00",
        "included_in_blocks":
          [ "BL7kJjVeFz3vKE49aSoexMxnapGa3pzQ5JdaFYXFLyXYgciqepF" ] },
      { "delegate": "tz1fwnfJNgiDACshK9avfRfFbMaXrs3ghoJa",
        "reception_time": "2022-01-20T20:59:22.760-00:00",
        "included_in_blocks":
          [ "BL7kJjVeFz3vKE49aSoexMxnapGa3pzQ5JdaFYXFLyXYgciqepF" ] },
      { "delegate": "tz3bTdwZinP8U1JmSweNzVKhmwafqWmFWRfk",
        "reception_time": "2022-01-20T20:59:22.674-00:00",
        "included_in_blocks":
          [ "BL7kJjVeFz3vKE49aSoexMxnapGa3pzQ5JdaFYXFLyXYgciqepF" ] },
      { "delegate": "tz1UMCB2AHSTwG7YcGNr31CqYCtGN873royv",
        "reception_time": "2022-01-20T20:59:22.716-00:00",
        "included_in_blocks":
          [ "BL7kJjVeFz3vKE49aSoexMxnapGa3pzQ5JdaFYXFLyXYgciqepF" ] },
      { "delegate": "tz3RDC3Jdn4j15J7bBHZd29EUee9gVB1CxD9",
        "reception_time": "2022-01-20T20:59:22.662-00:00",
        "included_in_blocks":
          [ "BL7kJjVeFz3vKE49aSoexMxnapGa3pzQ5JdaFYXFLyXYgciqepF" ] },
      { "delegate": "tz1TEc75UKXv4W5cwi14Na3NtqFD51yKQi7h",
        "reception_time": "2022-01-20T20:59:22.703-00:00",
        "included_in_blocks":
          [ "BL7kJjVeFz3vKE49aSoexMxnapGa3pzQ5JdaFYXFLyXYgciqepF" ] },
      { "delegate": "tz3QCNyySViKHmeSr45kzDxzchys7NiXCWoa",
        "reception_time": "2022-01-20T20:59:22.685-00:00",
        "included_in_blocks":
          [ "BL7kJjVeFz3vKE49aSoexMxnapGa3pzQ5JdaFYXFLyXYgciqepF" ] },
      { "delegate": "tz1Nf6tsK4G6bBqgSQERy4nUtkHNKUVdh7q1",
        "reception_time": "2022-01-20T20:59:22.623-00:00",
        "included_in_blocks":
          [ "BL7kJjVeFz3vKE49aSoexMxnapGa3pzQ5JdaFYXFLyXYgciqepF" ] },
      { "delegate": "tz3iJu5vrKZcsqRPs8yJ61UDoeEXZmtro4qh",
        "reception_time": "2022-01-20T20:59:22.611-00:00",
        "included_in_blocks":
          [ "BL7kJjVeFz3vKE49aSoexMxnapGa3pzQ5JdaFYXFLyXYgciqepF" ] },
      { "delegate": "tz1WnfXMPaNTBmH7DBPwqCWs9cPDJdkGBTZ8",
        "reception_time": "2022-01-20T20:59:22.674-00:00",
        "included_in_blocks":
          [ "BL7kJjVeFz3vKE49aSoexMxnapGa3pzQ5JdaFYXFLyXYgciqepF" ] },
      { "delegate": "tz3Zhs2dygr55yHyQyKjntAtY9bgfhLZ4Xj1",
        "reception_time": "2022-01-20T20:59:22.655-00:00",
        "included_in_blocks":
          [ "BL7kJjVeFz3vKE49aSoexMxnapGa3pzQ5JdaFYXFLyXYgciqepF" ] },
      { "delegate": "tz3RKYFsLuQzKBtmYuLNas7uMu3AsYd4QdsA",
        "reception_time": "2022-01-20T20:59:22.648-00:00",
        "included_in_blocks":
          [ "BL7kJjVeFz3vKE49aSoexMxnapGa3pzQ5JdaFYXFLyXYgciqepF" ] },
      { "delegate": "tz1fb7c66UwePkkfDXz4ajFaBP9hVNLdS7JJ",
        "reception_time": "2022-01-20T20:59:22.623-00:00",
        "included_in_blocks":
          [ "BL7kJjVeFz3vKE49aSoexMxnapGa3pzQ5JdaFYXFLyXYgciqepF" ] },
      { "delegate": "tz1Kf25fX1VdmYGSEzwFy1wNmkbSEZ2V83sY",
        "reception_time": "2022-01-20T20:59:22.585-00:00",
        "included_in_blocks":
          [ "BL7kJjVeFz3vKE49aSoexMxnapGa3pzQ5JdaFYXFLyXYgciqepF" ] },
      { "delegate": "tz3hw2kqXhLUvY65ca1eety2oQTpAvd34R9Q",
        "reception_time": "2022-01-20T20:59:22.600-00:00",
        "included_in_blocks":
          [ "BL7kJjVeFz3vKE49aSoexMxnapGa3pzQ5JdaFYXFLyXYgciqepF" ] },
      { "delegate": "tz1NMdMmWZN8QPB8pY4ddncACDg1cHi1xD2e",
        "reception_time": "2022-01-20T20:59:22.581-00:00",
        "included_in_blocks":
          [ "BL7kJjVeFz3vKE49aSoexMxnapGa3pzQ5JdaFYXFLyXYgciqepF" ] },
      { "delegate": "tz3gtoUxdudfBRcNY7iVdKPHCYYX6xdPpoRS",
        "reception_time": "2022-01-20T20:59:22.557-00:00",
        "included_in_blocks":
          [ "BL7kJjVeFz3vKE49aSoexMxnapGa3pzQ5JdaFYXFLyXYgciqepF" ] },
      { "delegate": "tz3QSGPoRp3Kn7n3vY24eYeu3Peuqo45LQ4D",
        "reception_time": "2022-01-20T20:59:22.575-00:00",
        "included_in_blocks":
          [ "BL7kJjVeFz3vKE49aSoexMxnapGa3pzQ5JdaFYXFLyXYgciqepF" ] },
      { "delegate": "tz1TzaNn7wSQSP5gYPXCnNzBCpyMiidCq1PX",
        "reception_time": "2022-01-20T20:59:22.557-00:00",
        "included_in_blocks":
          [ "BL7kJjVeFz3vKE49aSoexMxnapGa3pzQ5JdaFYXFLyXYgciqepF" ] },
      { "delegate": "tz3NxTnke1acr8o3h5y9ytf5awQBGNJUKzVU",
        "reception_time": "2022-01-20T20:59:22.548-00:00",
        "included_in_blocks":
          [ "BL7kJjVeFz3vKE49aSoexMxnapGa3pzQ5JdaFYXFLyXYgciqepF" ] },
      { "delegate": "tz1ei4WtWEMEJekSv8qDnu9PExG6Q8HgRGr3",
        "reception_time": "2022-01-20T20:59:22.678-00:00",
        "included_in_blocks":
          [ "BL7kJjVeFz3vKE49aSoexMxnapGa3pzQ5JdaFYXFLyXYgciqepF" ] },
      { "delegate": "tz1VmiY38m3y95HqQLjMwqnMS7sdMfGomzKi",
        "reception_time": "2022-01-20T20:59:22.531-00:00",
        "included_in_blocks":
          [ "BL7kJjVeFz3vKE49aSoexMxnapGa3pzQ5JdaFYXFLyXYgciqepF" ] },
      { "delegate": "tz3S6BBeKgJGXxvLyZ1xzXzMPn11nnFtq5L9",
        "reception_time": "2022-01-20T20:59:22.632-00:00",
        "included_in_blocks":
          [ "BL7kJjVeFz3vKE49aSoexMxnapGa3pzQ5JdaFYXFLyXYgciqepF" ] },
      { "delegate": "tz1fPKAtsYydh4f1wfWNfeNxWYu72TmM48fu",
        "reception_time": "2022-01-20T20:59:22.604-00:00",
        "included_in_blocks":
          [ "BL7kJjVeFz3vKE49aSoexMxnapGa3pzQ5JdaFYXFLyXYgciqepF" ] },
      { "delegate": "tz3ZbP2pM3nwvXztbuMJwJnDvV5xdpU8UkkD",
        "reception_time": "2022-01-20T20:59:22.548-00:00",
        "included_in_blocks":
          [ "BL7kJjVeFz3vKE49aSoexMxnapGa3pzQ5JdaFYXFLyXYgciqepF" ] },
      { "delegate": "tz1MGTFJXpQmtxLi8QJ7AuVRgM2L2Qfn9w9i",
        "reception_time": "2022-01-20T20:59:22.626-00:00",
        "included_in_blocks":
          [ "BL7kJjVeFz3vKE49aSoexMxnapGa3pzQ5JdaFYXFLyXYgciqepF" ] },
      { "delegate": "tz1gfArv665EUkSg2ojMBzcbfwuPxAvqPvjo",
        "reception_time": "2022-01-20T20:59:22.700-00:00",
        "included_in_blocks":
          [ "BL7kJjVeFz3vKE49aSoexMxnapGa3pzQ5JdaFYXFLyXYgciqepF" ] },
      { "delegate": "tz1S8MNvuFEUsWgjHvi3AxibRBf388NhT1q2",
        "reception_time": "2022-01-20T20:59:22.678-00:00",
        "included_in_blocks":
          [ "BL7kJjVeFz3vKE49aSoexMxnapGa3pzQ5JdaFYXFLyXYgciqepF" ] },
      { "delegate": "tz3QT9dHYKDqh563chVa6za8526ys1UKfRfL",
        "reception_time": "2022-01-20T20:59:22.618-00:00",
        "included_in_blocks":
          [ "BL7kJjVeFz3vKE49aSoexMxnapGa3pzQ5JdaFYXFLyXYgciqepF" ] } ] }