{ "blocks":
    [ { "hash": "BM6Sn87GogRssTa1mFFL7sLQdjYaDpoW1VErzcCVyfxc5pmX5bt",
        "delegate": "tz1gfArv665EUkSg2ojMBzcbfwuPxAvqPvjo",
        "reception_time": "2022-01-21T00:37:29.138-00:00",
        "timestamp": "2022-01-21T00:37:20Z" } ],
  "endorsements":
    [ { "delegate": "tz1ibcPVGK4Y8pcW4BYUsojiHoBKnZbyDGrX" },
      { "delegate": "tz1awXW7wuXy21c66vBudMXQVAPgRnqqwgTH" },
      { "delegate": "tz1Q8QkSBS63ZQnH3fBTiAMPes9R666Rn6Sc" },
      { "delegate": "tz1MJx9vhaNRSimcuXPK2rW4fLccQnDAnVKJ" },
      { "delegate": "tz3Zhs2dygr55yHyQyKjntAtY9bgfhLZ4Xj1",
        "reception_time": "2022-01-21T00:37:29.119-00:00",
        "errors":
          [ { "kind": "temporary",
              "id": "proto.011-PtHangz2.prefilter.outdated_endorsement" } ],
        "included_in_blocks":
          [ "BLr2xqheABFhjdvXSbso5gddKb8HjcpynhzGUiYpzAz6exDqvqH" ] },
      { "delegate": "tz3QT9dHYKDqh563chVa6za8526ys1UKfRfL",
        "reception_time": "2022-01-21T00:37:29.090-00:00",
        "errors":
          [ { "kind": "temporary",
              "id": "proto.011-PtHangz2.prefilter.outdated_endorsement" } ],
        "included_in_blocks":
          [ "BLr2xqheABFhjdvXSbso5gddKb8HjcpynhzGUiYpzAz6exDqvqH" ] },
      { "delegate": "tz1MQMiZHV8q4tTwUMWmS5Y3kaP6J2136iXr",
        "reception_time": "2022-01-21T00:37:29.079-00:00",
        "errors":
          [ { "kind": "temporary",
              "id": "proto.011-PtHangz2.prefilter.outdated_endorsement" } ],
        "included_in_blocks":
          [ "BLr2xqheABFhjdvXSbso5gddKb8HjcpynhzGUiYpzAz6exDqvqH" ] },
      { "delegate": "tz3S6BBeKgJGXxvLyZ1xzXzMPn11nnFtq5L9",
        "reception_time": "2022-01-21T00:37:28.983-00:00",
        "errors":
          [ { "kind": "temporary",
              "id": "proto.011-PtHangz2.prefilter.outdated_endorsement" } ],
        "included_in_blocks":
          [ "BLr2xqheABFhjdvXSbso5gddKb8HjcpynhzGUiYpzAz6exDqvqH" ] },
      { "delegate": "tz3gtoUxdudfBRcNY7iVdKPHCYYX6xdPpoRS",
        "reception_time": "2022-01-21T00:37:28.892-00:00",
        "errors":
          [ { "kind": "temporary",
              "id": "proto.011-PtHangz2.prefilter.outdated_endorsement" } ],
        "included_in_blocks":
          [ "BLr2xqheABFhjdvXSbso5gddKb8HjcpynhzGUiYpzAz6exDqvqH" ] },
      { "delegate": "tz3ZbP2pM3nwvXztbuMJwJnDvV5xdpU8UkkD",
        "reception_time": "2022-01-21T00:37:28.840-00:00",
        "errors":
          [ { "kind": "temporary",
              "id": "proto.011-PtHangz2.prefilter.outdated_endorsement" } ],
        "included_in_blocks":
          [ "BLr2xqheABFhjdvXSbso5gddKb8HjcpynhzGUiYpzAz6exDqvqH" ] },
      { "delegate": "tz1Scdr2HsZiQjc7bHMeBbmDRXYVvdhjJbBh",
        "reception_time": "2022-01-21T00:37:28.839-00:00",
        "errors":
          [ { "kind": "temporary",
              "id": "proto.011-PtHangz2.prefilter.outdated_endorsement" } ],
        "included_in_blocks":
          [ "BLr2xqheABFhjdvXSbso5gddKb8HjcpynhzGUiYpzAz6exDqvqH" ] },
      { "delegate": "tz3NxTnke1acr8o3h5y9ytf5awQBGNJUKzVU",
        "reception_time": "2022-01-21T00:37:28.839-00:00",
        "errors":
          [ { "kind": "temporary",
              "id": "proto.011-PtHangz2.prefilter.outdated_endorsement" } ],
        "included_in_blocks":
          [ "BLr2xqheABFhjdvXSbso5gddKb8HjcpynhzGUiYpzAz6exDqvqH" ] },
      { "delegate": "tz1Ldzz6k1BHdhuKvAtMRX7h5kJSMHESMHLC",
        "reception_time": "2022-01-21T00:37:28.829-00:00",
        "errors":
          [ { "kind": "temporary",
              "id": "proto.011-PtHangz2.prefilter.outdated_endorsement" } ],
        "included_in_blocks":
          [ "BLr2xqheABFhjdvXSbso5gddKb8HjcpynhzGUiYpzAz6exDqvqH" ] },
      { "delegate": "tz1VmiY38m3y95HqQLjMwqnMS7sdMfGomzKi",
        "reception_time": "2022-01-21T00:37:28.692-00:00",
        "errors":
          [ { "kind": "temporary",
              "id": "proto.011-PtHangz2.prefilter.outdated_endorsement" } ],
        "included_in_blocks":
          [ "BLr2xqheABFhjdvXSbso5gddKb8HjcpynhzGUiYpzAz6exDqvqH" ] },
      { "delegate": "tz1aDiEJf9ztRrAJEXZfcG3CKimoKsGhwVAi",
        "reception_time": "2022-01-21T00:37:28.677-00:00",
        "errors":
          [ { "kind": "temporary",
              "id": "proto.011-PtHangz2.prefilter.outdated_endorsement" } ],
        "included_in_blocks":
          [ "BLr2xqheABFhjdvXSbso5gddKb8HjcpynhzGUiYpzAz6exDqvqH" ] },
      { "delegate": "tz1eEnQhbwf6trb8Q8mPb2RaPkNk2rN7BKi8",
        "reception_time": "2022-01-21T00:37:28.505-00:00",
        "errors":
          [ { "kind": "temporary",
              "id": "proto.011-PtHangz2.prefilter.outdated_endorsement" } ],
        "included_in_blocks":
          [ "BLr2xqheABFhjdvXSbso5gddKb8HjcpynhzGUiYpzAz6exDqvqH" ] },
      { "delegate": "tz1irJKkXS2DBWkU1NnmFQx1c1L7pbGg4yhk",
        "reception_time": "2022-01-21T00:37:28.470-00:00",
        "errors":
          [ { "kind": "temporary",
              "id": "proto.011-PtHangz2.prefilter.outdated_endorsement" } ],
        "included_in_blocks":
          [ "BLr2xqheABFhjdvXSbso5gddKb8HjcpynhzGUiYpzAz6exDqvqH" ] },
      { "delegate": "tz1Kt4P8BCaP93AEV4eA7gmpRryWt5hznjCP",
        "reception_time": "2022-01-21T00:37:28.451-00:00",
        "errors":
          [ { "kind": "temporary",
              "id": "proto.011-PtHangz2.prefilter.outdated_endorsement" } ],
        "included_in_blocks":
          [ "BLr2xqheABFhjdvXSbso5gddKb8HjcpynhzGUiYpzAz6exDqvqH" ] },
      { "delegate": "tz1MXFrtZoaXckE41bjUCSjAjAap3AFDSr3N",
        "reception_time": "2022-01-21T00:37:28.264-00:00",
        "errors":
          [ { "kind": "temporary",
              "id": "proto.011-PtHangz2.prefilter.outdated_endorsement" } ],
        "included_in_blocks":
          [ "BLr2xqheABFhjdvXSbso5gddKb8HjcpynhzGUiYpzAz6exDqvqH" ] },
      { "delegate": "tz1RV1MBbZMR68tacosb7Mwj6LkbPSUS1er1",
        "reception_time": "2022-01-21T00:37:28.137-00:00",
        "errors":
          [ { "kind": "temporary",
              "id": "proto.011-PtHangz2.prefilter.outdated_endorsement" } ],
        "included_in_blocks":
          [ "BLr2xqheABFhjdvXSbso5gddKb8HjcpynhzGUiYpzAz6exDqvqH" ] },
      { "delegate": "tz1Lhf4J9Qxoe3DZ2nfe8FGDnvVj7oKjnMY6",
        "reception_time": "2022-01-21T00:37:28.120-00:00",
        "errors":
          [ { "kind": "temporary",
              "id": "proto.011-PtHangz2.prefilter.outdated_endorsement" } ],
        "included_in_blocks":
          [ "BLr2xqheABFhjdvXSbso5gddKb8HjcpynhzGUiYpzAz6exDqvqH" ] },
      { "delegate": "tz1P2Po7YM526ughEsRbY4oR9zaUPDZjxFrb",
        "reception_time": "2022-01-21T00:37:27.931-00:00",
        "errors":
          [ { "kind": "temporary",
              "id": "proto.011-PtHangz2.prefilter.outdated_endorsement" } ],
        "included_in_blocks":
          [ "BLr2xqheABFhjdvXSbso5gddKb8HjcpynhzGUiYpzAz6exDqvqH" ] },
      { "delegate": "tz1S8e9GgdZG78XJRB3NqabfWeM37GnhZMWQ",
        "reception_time": "2022-01-21T00:37:27.876-00:00",
        "errors":
          [ { "kind": "temporary",
              "id": "proto.011-PtHangz2.prefilter.outdated_endorsement" } ],
        "included_in_blocks":
          [ "BLr2xqheABFhjdvXSbso5gddKb8HjcpynhzGUiYpzAz6exDqvqH" ] },
      { "delegate": "tz1gfArv665EUkSg2ojMBzcbfwuPxAvqPvjo",
        "reception_time": "2022-01-21T00:37:27.709-00:00",
        "errors":
          [ { "kind": "temporary",
              "id": "proto.011-PtHangz2.prefilter.outdated_endorsement" } ],
        "included_in_blocks":
          [ "BLr2xqheABFhjdvXSbso5gddKb8HjcpynhzGUiYpzAz6exDqvqH" ] },
      { "delegate": "tz1NpWrAyDL9k2Lmnyxcgr9xuJakbBxdq7FB",
        "reception_time": "2022-01-21T00:37:39.385-00:00",
        "included_in_blocks":
          [ "BLr2xqheABFhjdvXSbso5gddKb8HjcpynhzGUiYpzAz6exDqvqH" ] },
      { "delegate": "tz1go7f6mEQfT2xX2LuHAqgnRGN6c2zHPf5c",
        "reception_time": "2022-01-21T00:37:37.445-00:00",
        "included_in_blocks":
          [ "BLr2xqheABFhjdvXSbso5gddKb8HjcpynhzGUiYpzAz6exDqvqH" ] },
      { "delegate": "tz2FCNBrERXtaTtNX6iimR1UJ5JSDxvdHM93",
        "reception_time": "2022-01-21T00:37:32.716-00:00",
        "included_in_blocks":
          [ "BLr2xqheABFhjdvXSbso5gddKb8HjcpynhzGUiYpzAz6exDqvqH" ] },
      { "delegate": "tz1cYufsxHXJcvANhvS55h3aY32a9BAFB494",
        "reception_time": "2022-01-21T00:37:32.469-00:00",
        "included_in_blocks":
          [ "BLr2xqheABFhjdvXSbso5gddKb8HjcpynhzGUiYpzAz6exDqvqH" ] },
      { "delegate": "tz1ZcTRk5uxD86EFEn1vvNffWWqJy7q5eVhc",
        "reception_time": "2022-01-21T00:37:32.367-00:00",
        "included_in_blocks":
          [ "BLr2xqheABFhjdvXSbso5gddKb8HjcpynhzGUiYpzAz6exDqvqH" ] },
      { "delegate": "tz1T7duV5gZWSTq4YpBGbXNLTfznCLDrFxvs",
        "reception_time": "2022-01-21T00:37:32.349-00:00",
        "included_in_blocks":
          [ "BLr2xqheABFhjdvXSbso5gddKb8HjcpynhzGUiYpzAz6exDqvqH" ] },
      { "delegate": "tz1RjoHc98dBoqaH2jawF62XNKh7YsHwbkEv",
        "reception_time": "2022-01-21T00:37:32.154-00:00",
        "included_in_blocks":
          [ "BLr2xqheABFhjdvXSbso5gddKb8HjcpynhzGUiYpzAz6exDqvqH" ] },
      { "delegate": "tz1NEKxGEHsFufk87CVZcrqWu8o22qh46GK6",
        "reception_time": "2022-01-21T00:37:31.856-00:00",
        "included_in_blocks":
          [ "BLr2xqheABFhjdvXSbso5gddKb8HjcpynhzGUiYpzAz6exDqvqH" ] },
      { "delegate": "tz1PeZx7FXy7QRuMREGXGxeipb24RsMMzUNe",
        "reception_time": "2022-01-21T00:37:31.577-00:00",
        "included_in_blocks":
          [ "BLr2xqheABFhjdvXSbso5gddKb8HjcpynhzGUiYpzAz6exDqvqH" ] },
      { "delegate": "tz3NExpXn9aPNZPorRE4SdjJ2RGrfbJgMAaV",
        "reception_time": "2022-01-21T00:37:31.554-00:00",
        "included_in_blocks":
          [ "BLr2xqheABFhjdvXSbso5gddKb8HjcpynhzGUiYpzAz6exDqvqH" ] },
      { "delegate": "tz1fUyqYH7H4pRHN1roWY17giXhy1RvxjgUV",
        "reception_time": "2022-01-21T00:37:31.671-00:00",
        "included_in_blocks":
          [ "BLr2xqheABFhjdvXSbso5gddKb8HjcpynhzGUiYpzAz6exDqvqH" ] },
      { "delegate": "tz1Nf6tsK4G6bBqgSQERy4nUtkHNKUVdh7q1",
        "reception_time": "2022-01-21T00:37:31.255-00:00",
        "included_in_blocks":
          [ "BLr2xqheABFhjdvXSbso5gddKb8HjcpynhzGUiYpzAz6exDqvqH" ] },
      { "delegate": "tz1dRKU4FQ9QRRQPdaH4zCR6gmCmXfcvcgtB",
        "reception_time": "2022-01-21T00:37:31.211-00:00",
        "included_in_blocks":
          [ "BLr2xqheABFhjdvXSbso5gddKb8HjcpynhzGUiYpzAz6exDqvqH" ] },
      { "delegate": "tz3RB4aoyjov4KEVRbuhvQ1CKJgBJMWhaeB8",
        "reception_time": "2022-01-21T00:37:30.935-00:00",
        "included_in_blocks":
          [ "BLr2xqheABFhjdvXSbso5gddKb8HjcpynhzGUiYpzAz6exDqvqH" ] },
      { "delegate": "tz1UVFkBnZzy2WGzs7415DNwsbvuyvz4ZznB",
        "reception_time": "2022-01-21T00:37:31.099-00:00",
        "included_in_blocks":
          [ "BLr2xqheABFhjdvXSbso5gddKb8HjcpynhzGUiYpzAz6exDqvqH" ] },
      { "delegate": "tz3bvNMQ95vfAYtG8193ymshqjSvmxiCUuR5",
        "reception_time": "2022-01-21T00:37:30.728-00:00",
        "included_in_blocks":
          [ "BLr2xqheABFhjdvXSbso5gddKb8HjcpynhzGUiYpzAz6exDqvqH" ] },
      { "delegate": "tz1WwnreQXXyfeqiffNoh3fkkczxZK51p16T",
        "reception_time": "2022-01-21T00:37:30.381-00:00",
        "included_in_blocks":
          [ "BLr2xqheABFhjdvXSbso5gddKb8HjcpynhzGUiYpzAz6exDqvqH" ] },
      { "delegate": "tz1S8MNvuFEUsWgjHvi3AxibRBf388NhT1q2",
        "reception_time": "2022-01-21T00:37:30.553-00:00",
        "included_in_blocks":
          [ "BLr2xqheABFhjdvXSbso5gddKb8HjcpynhzGUiYpzAz6exDqvqH" ] },
      { "delegate": "tz1NSDFKuRyzHxpfG1AMkyCwEiZ52cbR2mRW",
        "reception_time": "2022-01-21T00:37:30.386-00:00",
        "included_in_blocks":
          [ "BLr2xqheABFhjdvXSbso5gddKb8HjcpynhzGUiYpzAz6exDqvqH" ] },
      { "delegate": "tz3bEQoFCZEEfZMskefZ8q8e4eiHH1pssRax",
        "reception_time": "2022-01-21T00:37:30.470-00:00",
        "included_in_blocks":
          [ "BLr2xqheABFhjdvXSbso5gddKb8HjcpynhzGUiYpzAz6exDqvqH" ] },
      { "delegate": "tz1RQhNh7iB9CZA7i3ifTWNwiGYVffponfbB",
        "reception_time": "2022-01-21T00:37:30.546-00:00",
        "included_in_blocks":
          [ "BLr2xqheABFhjdvXSbso5gddKb8HjcpynhzGUiYpzAz6exDqvqH" ] },
      { "delegate": "tz3NDpRj6WBrJPikcPVHRBEjWKxFw3c6eQPS",
        "reception_time": "2022-01-21T00:37:30.157-00:00",
        "included_in_blocks":
          [ "BLr2xqheABFhjdvXSbso5gddKb8HjcpynhzGUiYpzAz6exDqvqH" ] },
      { "delegate": "tz1MGTFJXpQmtxLi8QJ7AuVRgM2L2Qfn9w9i",
        "reception_time": "2022-01-21T00:37:30.141-00:00",
        "included_in_blocks":
          [ "BLr2xqheABFhjdvXSbso5gddKb8HjcpynhzGUiYpzAz6exDqvqH" ] },
      { "delegate": "tz1SYq214SCBy9naR6cvycQsYcUGpBqQAE8d",
        "reception_time": "2022-01-21T00:37:30.542-00:00",
        "included_in_blocks":
          [ "BLr2xqheABFhjdvXSbso5gddKb8HjcpynhzGUiYpzAz6exDqvqH" ] },
      { "delegate": "tz1RCFbB9GpALpsZtu6J58sb74dm8qe6XBzv",
        "reception_time": "2022-01-21T00:37:30.136-00:00",
        "included_in_blocks":
          [ "BLr2xqheABFhjdvXSbso5gddKb8HjcpynhzGUiYpzAz6exDqvqH" ] },
      { "delegate": "tz1KfEsrtDaA1sX7vdM4qmEPWuSytuqCDp5j",
        "reception_time": "2022-01-21T00:37:30.184-00:00",
        "included_in_blocks":
          [ "BLr2xqheABFhjdvXSbso5gddKb8HjcpynhzGUiYpzAz6exDqvqH" ] },
      { "delegate": "tz3VEZ4k6a4Wx42iyev6i2aVAptTRLEAivNN",
        "reception_time": "2022-01-21T00:37:30.612-00:00",
        "included_in_blocks":
          [ "BLr2xqheABFhjdvXSbso5gddKb8HjcpynhzGUiYpzAz6exDqvqH" ] },
      { "delegate": "tz3WMqdzXqRWXwyvj5Hp2H7QEepaUuS7vd9K",
        "reception_time": "2022-01-21T00:37:30.741-00:00",
        "included_in_blocks":
          [ "BLr2xqheABFhjdvXSbso5gddKb8HjcpynhzGUiYpzAz6exDqvqH" ] },
      { "delegate": "tz1iZvYctCtV2oGvEeXCCgUseb4qtdKh3mrV",
        "reception_time": "2022-01-21T00:37:30.560-00:00",
        "included_in_blocks":
          [ "BLr2xqheABFhjdvXSbso5gddKb8HjcpynhzGUiYpzAz6exDqvqH" ] },
      { "delegate": "tz1fPKAtsYydh4f1wfWNfeNxWYu72TmM48fu",
        "reception_time": "2022-01-21T00:37:30.151-00:00",
        "included_in_blocks":
          [ "BLr2xqheABFhjdvXSbso5gddKb8HjcpynhzGUiYpzAz6exDqvqH" ] },
      { "delegate": "tz1abmz7jiCV2GH2u81LRrGgAFFgvQgiDiaf",
        "reception_time": "2022-01-21T00:37:30.189-00:00",
        "included_in_blocks":
          [ "BLr2xqheABFhjdvXSbso5gddKb8HjcpynhzGUiYpzAz6exDqvqH" ] },
      { "delegate": "tz1aRoaRhSpRYvFdyvgWLL6TGyRoGF51wDjM",
        "reception_time": "2022-01-21T00:37:31.666-00:00",
        "included_in_blocks":
          [ "BLr2xqheABFhjdvXSbso5gddKb8HjcpynhzGUiYpzAz6exDqvqH" ] },
      { "delegate": "tz1TEc75UKXv4W5cwi14Na3NtqFD51yKQi7h",
        "reception_time": "2022-01-21T00:37:30.141-00:00",
        "included_in_blocks":
          [ "BLr2xqheABFhjdvXSbso5gddKb8HjcpynhzGUiYpzAz6exDqvqH" ] },
      { "delegate": "tz1gUNyn3hmnEWqkusWPzxRaon1cs7ndWh7h",
        "reception_time": "2022-01-21T00:37:30.059-00:00",
        "included_in_blocks":
          [ "BLr2xqheABFhjdvXSbso5gddKb8HjcpynhzGUiYpzAz6exDqvqH" ] },
      { "delegate": "tz1Tnjaxk6tbAeC2TmMApPh8UsrEVQvhHvx5",
        "reception_time": "2022-01-21T00:37:30.160-00:00",
        "included_in_blocks":
          [ "BLr2xqheABFhjdvXSbso5gddKb8HjcpynhzGUiYpzAz6exDqvqH" ] },
      { "delegate": "tz1PWCDnz783NNGGQjEFFsHtrcK5yBW4E2rm",
        "reception_time": "2022-01-21T00:37:30.161-00:00",
        "included_in_blocks":
          [ "BLr2xqheABFhjdvXSbso5gddKb8HjcpynhzGUiYpzAz6exDqvqH" ] },
      { "delegate": "tz1ei4WtWEMEJekSv8qDnu9PExG6Q8HgRGr3",
        "reception_time": "2022-01-21T00:37:30.133-00:00",
        "included_in_blocks":
          [ "BLr2xqheABFhjdvXSbso5gddKb8HjcpynhzGUiYpzAz6exDqvqH" ] },
      { "delegate": "tz1WBfwbT66FC6BTLexc2BoyCCBM9LG7pnVW",
        "reception_time": "2022-01-21T00:37:30.396-00:00",
        "included_in_blocks":
          [ "BLr2xqheABFhjdvXSbso5gddKb8HjcpynhzGUiYpzAz6exDqvqH" ] },
      { "delegate": "tz3UoffC7FG7zfpmvmjUmUeAaHvzdcUvAj6r",
        "reception_time": "2022-01-21T00:37:30.414-00:00",
        "included_in_blocks":
          [ "BLr2xqheABFhjdvXSbso5gddKb8HjcpynhzGUiYpzAz6exDqvqH" ] },
      { "delegate": "tz1V4qCyvPKZ5UeqdH14HN42rxvNPQfc9UZg",
        "reception_time": "2022-01-21T00:37:30.071-00:00",
        "included_in_blocks":
          [ "BLr2xqheABFhjdvXSbso5gddKb8HjcpynhzGUiYpzAz6exDqvqH" ] },
      { "delegate": "tz3RKYFsLuQzKBtmYuLNas7uMu3AsYd4QdsA",
        "reception_time": "2022-01-21T00:37:30.066-00:00",
        "included_in_blocks":
          [ "BLr2xqheABFhjdvXSbso5gddKb8HjcpynhzGUiYpzAz6exDqvqH" ] },
      { "delegate": "tz1g8vkmcde6sWKaG2NN9WKzCkDM6Rziq194",
        "reception_time": "2022-01-21T00:37:30.069-00:00",
        "included_in_blocks":
          [ "BLr2xqheABFhjdvXSbso5gddKb8HjcpynhzGUiYpzAz6exDqvqH" ] },
      { "delegate": "tz3RDC3Jdn4j15J7bBHZd29EUee9gVB1CxD9",
        "reception_time": "2022-01-21T00:37:30.087-00:00",
        "included_in_blocks":
          [ "BLr2xqheABFhjdvXSbso5gddKb8HjcpynhzGUiYpzAz6exDqvqH" ] },
      { "delegate": "tz3hw2kqXhLUvY65ca1eety2oQTpAvd34R9Q",
        "reception_time": "2022-01-21T00:37:30.078-00:00",
        "included_in_blocks":
          [ "BLr2xqheABFhjdvXSbso5gddKb8HjcpynhzGUiYpzAz6exDqvqH" ] },
      { "delegate": "tz1VQnqCCqX4K5sP3FNkVSNKTdCAMJDd3E1n",
        "reception_time": "2022-01-21T00:37:30.057-00:00",
        "included_in_blocks":
          [ "BLr2xqheABFhjdvXSbso5gddKb8HjcpynhzGUiYpzAz6exDqvqH" ] },
      { "delegate": "tz1UtayNgAX8QEJ3NoLptPzoPr9JiH3Cskzz",
        "reception_time": "2022-01-21T00:37:30.081-00:00",
        "included_in_blocks":
          [ "BLr2xqheABFhjdvXSbso5gddKb8HjcpynhzGUiYpzAz6exDqvqH" ] },
      { "delegate": "tz1LmaFsWRkjr7QMCx5PtV6xTUz3AmEpKQiF",
        "reception_time": "2022-01-21T00:37:30.193-00:00",
        "included_in_blocks":
          [ "BLr2xqheABFhjdvXSbso5gddKb8HjcpynhzGUiYpzAz6exDqvqH" ] },
      { "delegate": "tz3QCNyySViKHmeSr45kzDxzchys7NiXCWoa",
        "reception_time": "2022-01-21T00:37:29.738-00:00",
        "included_in_blocks":
          [ "BLr2xqheABFhjdvXSbso5gddKb8HjcpynhzGUiYpzAz6exDqvqH" ] },
      { "delegate": "tz3iJu5vrKZcsqRPs8yJ61UDoeEXZmtro4qh",
        "reception_time": "2022-01-21T00:37:30.054-00:00",
        "included_in_blocks":
          [ "BLr2xqheABFhjdvXSbso5gddKb8HjcpynhzGUiYpzAz6exDqvqH" ] },
      { "delegate": "tz1WCd2jm4uSt4vntk4vSuUWoZQGhLcDuR9q",
        "reception_time": "2022-01-21T00:37:30.042-00:00",
        "included_in_blocks":
          [ "BLr2xqheABFhjdvXSbso5gddKb8HjcpynhzGUiYpzAz6exDqvqH" ] },
      { "delegate": "tz1YhNsiRRU8aHNGg7NK3uuP6UDAyacJernB",
        "reception_time": "2022-01-21T00:37:30.069-00:00",
        "included_in_blocks":
          [ "BLr2xqheABFhjdvXSbso5gddKb8HjcpynhzGUiYpzAz6exDqvqH" ] },
      { "delegate": "tz1cZfFQpcYhwDp7y1njZXDsZqCrn2NqmVof",
        "reception_time": "2022-01-21T00:37:30.055-00:00",
        "included_in_blocks":
          [ "BLr2xqheABFhjdvXSbso5gddKb8HjcpynhzGUiYpzAz6exDqvqH" ] },
      { "delegate": "tz3bTdwZinP8U1JmSweNzVKhmwafqWmFWRfk",
        "reception_time": "2022-01-21T00:37:30.047-00:00",
        "included_in_blocks":
          [ "BLr2xqheABFhjdvXSbso5gddKb8HjcpynhzGUiYpzAz6exDqvqH" ] } ] }