{ "blocks":
    [ { "hash": "BLxixdC3uW3SThuTrTfQUCviBTgAHkE63AcHGCuDsk1y2gT2JRK",
        "delegate": "tz1irJKkXS2DBWkU1NnmFQx1c1L7pbGg4yhk",
        "reception_time": "2022-01-21T03:08:07.756-00:00",
        "timestamp": "2022-01-21T03:08:00Z" } ],
  "endorsements":
    [ { "delegate": "tz1P2Po7YM526ughEsRbY4oR9zaUPDZjxFrb",
        "reception_time": "2022-01-21T03:08:07.369-00:00",
        "errors":
          [ { "kind": "temporary",
              "id": "proto.011-PtHangz2.prefilter.outdated_endorsement" } ],
        "included_in_blocks":
          [ "BLjT1TTWtbmz3FTiHw4uLJnC3pwQA98pq1DifQtoWM1UxMppyV1" ] },
      { "delegate": "tz1dUpfvjmAX3HLYvYhAwb94qe7nJodJr51c",
        "reception_time": "2022-01-21T03:08:07.328-00:00",
        "errors":
          [ { "kind": "temporary",
              "id": "proto.011-PtHangz2.prefilter.outdated_endorsement" } ],
        "included_in_blocks":
          [ "BLjT1TTWtbmz3FTiHw4uLJnC3pwQA98pq1DifQtoWM1UxMppyV1" ] },
      { "delegate": "tz1irJKkXS2DBWkU1NnmFQx1c1L7pbGg4yhk",
        "reception_time": "2022-01-21T03:08:07.275-00:00",
        "errors":
          [ { "kind": "temporary",
              "id": "proto.011-PtHangz2.prefilter.outdated_endorsement" } ],
        "included_in_blocks":
          [ "BLjT1TTWtbmz3FTiHw4uLJnC3pwQA98pq1DifQtoWM1UxMppyV1" ] },
      { "delegate": "tz1eEnQhbwf6trb8Q8mPb2RaPkNk2rN7BKi8",
        "reception_time": "2022-01-21T03:08:07.274-00:00",
        "errors":
          [ { "kind": "temporary",
              "id": "proto.011-PtHangz2.prefilter.outdated_endorsement" } ],
        "included_in_blocks":
          [ "BLjT1TTWtbmz3FTiHw4uLJnC3pwQA98pq1DifQtoWM1UxMppyV1" ] },
      { "delegate": "tz1TXzyaKUA8wsWefdSnyaYFnV2M3vCV7er9",
        "reception_time": "2022-01-21T03:08:07.255-00:00",
        "errors":
          [ { "kind": "temporary",
              "id": "proto.011-PtHangz2.prefilter.outdated_endorsement" } ],
        "included_in_blocks":
          [ "BLjT1TTWtbmz3FTiHw4uLJnC3pwQA98pq1DifQtoWM1UxMppyV1" ] },
      { "delegate": "tz1STeamwbp68THcny9zk3LsbG3H36DMvbRK",
        "reception_time": "2022-01-21T03:08:07.248-00:00",
        "errors":
          [ { "kind": "temporary",
              "id": "proto.011-PtHangz2.prefilter.outdated_endorsement" } ],
        "included_in_blocks":
          [ "BLjT1TTWtbmz3FTiHw4uLJnC3pwQA98pq1DifQtoWM1UxMppyV1" ] },
      { "delegate": "tz1Lhf4J9Qxoe3DZ2nfe8FGDnvVj7oKjnMY6",
        "reception_time": "2022-01-21T03:08:07.084-00:00",
        "errors":
          [ { "kind": "temporary",
              "id": "proto.011-PtHangz2.prefilter.outdated_endorsement" } ],
        "included_in_blocks":
          [ "BLjT1TTWtbmz3FTiHw4uLJnC3pwQA98pq1DifQtoWM1UxMppyV1" ] },
      { "delegate": "tz1TRqbYbUf2GyrjErf3hBzgBJPzW8y36qEs" },
      { "delegate": "tz1awXW7wuXy21c66vBudMXQVAPgRnqqwgTH" },
      { "delegate": "tz3ZbP2pM3nwvXztbuMJwJnDvV5xdpU8UkkD",
        "reception_time": "2022-01-21T03:08:08.786-00:00",
        "included_in_blocks":
          [ "BLjT1TTWtbmz3FTiHw4uLJnC3pwQA98pq1DifQtoWM1UxMppyV1" ] },
      { "delegate": "tz3NxTnke1acr8o3h5y9ytf5awQBGNJUKzVU",
        "reception_time": "2022-01-21T03:08:08.794-00:00",
        "included_in_blocks":
          [ "BLjT1TTWtbmz3FTiHw4uLJnC3pwQA98pq1DifQtoWM1UxMppyV1" ] },
      { "delegate": "tz3hw2kqXhLUvY65ca1eety2oQTpAvd34R9Q",
        "reception_time": "2022-01-21T03:08:08.808-00:00",
        "included_in_blocks":
          [ "BLjT1TTWtbmz3FTiHw4uLJnC3pwQA98pq1DifQtoWM1UxMppyV1" ] },
      { "delegate": "tz1Ldzz6k1BHdhuKvAtMRX7h5kJSMHESMHLC",
        "reception_time": "2022-01-21T03:08:08.811-00:00",
        "included_in_blocks":
          [ "BLjT1TTWtbmz3FTiHw4uLJnC3pwQA98pq1DifQtoWM1UxMppyV1" ] },
      { "delegate": "tz1VmiY38m3y95HqQLjMwqnMS7sdMfGomzKi",
        "reception_time": "2022-01-21T03:08:08.828-00:00",
        "included_in_blocks":
          [ "BLjT1TTWtbmz3FTiHw4uLJnC3pwQA98pq1DifQtoWM1UxMppyV1" ] },
      { "delegate": "tz3RKYFsLuQzKBtmYuLNas7uMu3AsYd4QdsA",
        "reception_time": "2022-01-21T03:08:08.828-00:00",
        "included_in_blocks":
          [ "BLjT1TTWtbmz3FTiHw4uLJnC3pwQA98pq1DifQtoWM1UxMppyV1" ] },
      { "delegate": "tz3Zhs2dygr55yHyQyKjntAtY9bgfhLZ4Xj1",
        "reception_time": "2022-01-21T03:08:08.901-00:00",
        "included_in_blocks":
          [ "BLjT1TTWtbmz3FTiHw4uLJnC3pwQA98pq1DifQtoWM1UxMppyV1" ] },
      { "delegate": "tz3QSGPoRp3Kn7n3vY24eYeu3Peuqo45LQ4D",
        "reception_time": "2022-01-21T03:08:08.901-00:00",
        "included_in_blocks":
          [ "BLjT1TTWtbmz3FTiHw4uLJnC3pwQA98pq1DifQtoWM1UxMppyV1" ] },
      { "delegate": "tz3QT9dHYKDqh563chVa6za8526ys1UKfRfL",
        "reception_time": "2022-01-21T03:08:09.194-00:00",
        "included_in_blocks":
          [ "BLjT1TTWtbmz3FTiHw4uLJnC3pwQA98pq1DifQtoWM1UxMppyV1" ] },
      { "delegate": "tz1VQnqCCqX4K5sP3FNkVSNKTdCAMJDd3E1n",
        "reception_time": "2022-01-21T03:08:09.198-00:00",
        "included_in_blocks":
          [ "BLjT1TTWtbmz3FTiHw4uLJnC3pwQA98pq1DifQtoWM1UxMppyV1" ] },
      { "delegate": "tz3gtoUxdudfBRcNY7iVdKPHCYYX6xdPpoRS",
        "reception_time": "2022-01-21T03:08:09.214-00:00",
        "included_in_blocks":
          [ "BLjT1TTWtbmz3FTiHw4uLJnC3pwQA98pq1DifQtoWM1UxMppyV1" ] },
      { "delegate": "tz3S6BBeKgJGXxvLyZ1xzXzMPn11nnFtq5L9",
        "reception_time": "2022-01-21T03:08:09.214-00:00",
        "included_in_blocks":
          [ "BLjT1TTWtbmz3FTiHw4uLJnC3pwQA98pq1DifQtoWM1UxMppyV1" ] },
      { "delegate": "tz1h4GUAMweP7SNWzDgvMk3yRCAZyaP1MxZq",
        "reception_time": "2022-01-21T03:08:09.225-00:00",
        "included_in_blocks":
          [ "BLjT1TTWtbmz3FTiHw4uLJnC3pwQA98pq1DifQtoWM1UxMppyV1" ] },
      { "delegate": "tz1gUNyn3hmnEWqkusWPzxRaon1cs7ndWh7h",
        "reception_time": "2022-01-21T03:08:09.225-00:00",
        "included_in_blocks":
          [ "BLjT1TTWtbmz3FTiHw4uLJnC3pwQA98pq1DifQtoWM1UxMppyV1" ] },
      { "delegate": "tz3iJu5vrKZcsqRPs8yJ61UDoeEXZmtro4qh",
        "reception_time": "2022-01-21T03:08:09.228-00:00",
        "included_in_blocks":
          [ "BLjT1TTWtbmz3FTiHw4uLJnC3pwQA98pq1DifQtoWM1UxMppyV1" ] },
      { "delegate": "tz1PWCDnz783NNGGQjEFFsHtrcK5yBW4E2rm",
        "reception_time": "2022-01-21T03:08:09.237-00:00",
        "included_in_blocks":
          [ "BLjT1TTWtbmz3FTiHw4uLJnC3pwQA98pq1DifQtoWM1UxMppyV1" ] },
      { "delegate": "tz1RCFbB9GpALpsZtu6J58sb74dm8qe6XBzv",
        "reception_time": "2022-01-21T03:08:09.237-00:00",
        "included_in_blocks":
          [ "BLjT1TTWtbmz3FTiHw4uLJnC3pwQA98pq1DifQtoWM1UxMppyV1" ] },
      { "delegate": "tz1LnWa4AiFCjMezTgSNa65QFoo7DQGEWgEU",
        "reception_time": "2022-01-21T03:08:09.243-00:00",
        "included_in_blocks":
          [ "BLjT1TTWtbmz3FTiHw4uLJnC3pwQA98pq1DifQtoWM1UxMppyV1" ] },
      { "delegate": "tz3bTdwZinP8U1JmSweNzVKhmwafqWmFWRfk",
        "reception_time": "2022-01-21T03:08:09.251-00:00",
        "included_in_blocks":
          [ "BLjT1TTWtbmz3FTiHw4uLJnC3pwQA98pq1DifQtoWM1UxMppyV1" ] },
      { "delegate": "tz1Nf6tsK4G6bBqgSQERy4nUtkHNKUVdh7q1",
        "reception_time": "2022-01-21T03:08:09.260-00:00",
        "included_in_blocks":
          [ "BLjT1TTWtbmz3FTiHw4uLJnC3pwQA98pq1DifQtoWM1UxMppyV1" ] },
      { "delegate": "tz3RDC3Jdn4j15J7bBHZd29EUee9gVB1CxD9",
        "reception_time": "2022-01-21T03:08:09.273-00:00",
        "included_in_blocks":
          [ "BLjT1TTWtbmz3FTiHw4uLJnC3pwQA98pq1DifQtoWM1UxMppyV1" ] },
      { "delegate": "tz1dwu9aYb7CRNq4Y2zAjipdjFuSVKhHS8vA",
        "reception_time": "2022-01-21T03:08:09.280-00:00",
        "included_in_blocks":
          [ "BLjT1TTWtbmz3FTiHw4uLJnC3pwQA98pq1DifQtoWM1UxMppyV1" ] },
      { "delegate": "tz1TRspM5SeZpaQUhzByXbEvqKF1vnCM2YTK",
        "reception_time": "2022-01-21T03:08:09.296-00:00",
        "included_in_blocks":
          [ "BLjT1TTWtbmz3FTiHw4uLJnC3pwQA98pq1DifQtoWM1UxMppyV1" ] },
      { "delegate": "tz1g8vkmcde6sWKaG2NN9WKzCkDM6Rziq194",
        "reception_time": "2022-01-21T03:08:09.307-00:00",
        "included_in_blocks":
          [ "BLjT1TTWtbmz3FTiHw4uLJnC3pwQA98pq1DifQtoWM1UxMppyV1" ] },
      { "delegate": "tz1RNoDLWUjbqqs6uCHtJKgSLAegutbD8cNe",
        "reception_time": "2022-01-21T03:08:09.313-00:00",
        "included_in_blocks":
          [ "BLjT1TTWtbmz3FTiHw4uLJnC3pwQA98pq1DifQtoWM1UxMppyV1" ] },
      { "delegate": "tz1S8MNvuFEUsWgjHvi3AxibRBf388NhT1q2",
        "reception_time": "2022-01-21T03:08:09.316-00:00",
        "included_in_blocks":
          [ "BLjT1TTWtbmz3FTiHw4uLJnC3pwQA98pq1DifQtoWM1UxMppyV1" ] },
      { "delegate": "tz1V4qCyvPKZ5UeqdH14HN42rxvNPQfc9UZg",
        "reception_time": "2022-01-21T03:08:09.329-00:00",
        "included_in_blocks":
          [ "BLjT1TTWtbmz3FTiHw4uLJnC3pwQA98pq1DifQtoWM1UxMppyV1" ] },
      { "delegate": "tz1UJvHTgpVzcKWhTazGxVcn5wsHru5Gietg",
        "reception_time": "2022-01-21T03:08:09.336-00:00",
        "included_in_blocks":
          [ "BLjT1TTWtbmz3FTiHw4uLJnC3pwQA98pq1DifQtoWM1UxMppyV1" ] },
      { "delegate": "tz1WnfXMPaNTBmH7DBPwqCWs9cPDJdkGBTZ8",
        "reception_time": "2022-01-21T03:08:09.340-00:00",
        "included_in_blocks":
          [ "BLjT1TTWtbmz3FTiHw4uLJnC3pwQA98pq1DifQtoWM1UxMppyV1" ] },
      { "delegate": "tz1SYq214SCBy9naR6cvycQsYcUGpBqQAE8d",
        "reception_time": "2022-01-21T03:08:09.340-00:00",
        "included_in_blocks":
          [ "BLjT1TTWtbmz3FTiHw4uLJnC3pwQA98pq1DifQtoWM1UxMppyV1" ] },
      { "delegate": "tz1NortRftucvAkD1J58L32EhSVrQEWJCEnB",
        "reception_time": "2022-01-21T03:08:09.341-00:00",
        "included_in_blocks":
          [ "BLjT1TTWtbmz3FTiHw4uLJnC3pwQA98pq1DifQtoWM1UxMppyV1" ] },
      { "delegate": "tz1ei4WtWEMEJekSv8qDnu9PExG6Q8HgRGr3",
        "reception_time": "2022-01-21T03:08:09.380-00:00",
        "included_in_blocks":
          [ "BLjT1TTWtbmz3FTiHw4uLJnC3pwQA98pq1DifQtoWM1UxMppyV1" ] },
      { "delegate": "tz3NDpRj6WBrJPikcPVHRBEjWKxFw3c6eQPS",
        "reception_time": "2022-01-21T03:08:09.400-00:00",
        "included_in_blocks":
          [ "BLjT1TTWtbmz3FTiHw4uLJnC3pwQA98pq1DifQtoWM1UxMppyV1" ] },
      { "delegate": "tz2FCNBrERXtaTtNX6iimR1UJ5JSDxvdHM93",
        "reception_time": "2022-01-21T03:08:09.420-00:00",
        "included_in_blocks":
          [ "BLjT1TTWtbmz3FTiHw4uLJnC3pwQA98pq1DifQtoWM1UxMppyV1" ] },
      { "delegate": "tz1Tnjaxk6tbAeC2TmMApPh8UsrEVQvhHvx5",
        "reception_time": "2022-01-21T03:08:09.426-00:00",
        "included_in_blocks":
          [ "BLjT1TTWtbmz3FTiHw4uLJnC3pwQA98pq1DifQtoWM1UxMppyV1" ] },
      { "delegate": "tz1axcnVN9tZnCe4sQQhC6f3tfSEXdjPaXPY",
        "reception_time": "2022-01-21T03:08:09.496-00:00",
        "included_in_blocks":
          [ "BLjT1TTWtbmz3FTiHw4uLJnC3pwQA98pq1DifQtoWM1UxMppyV1" ] },
      { "delegate": "tz1WBfwbT66FC6BTLexc2BoyCCBM9LG7pnVW",
        "reception_time": "2022-01-21T03:08:09.507-00:00",
        "included_in_blocks":
          [ "BLjT1TTWtbmz3FTiHw4uLJnC3pwQA98pq1DifQtoWM1UxMppyV1" ] },
      { "delegate": "tz1MduLJ4AAR6g7CDjB77Jci3gvu3Xsvk6bJ",
        "reception_time": "2022-01-21T03:08:09.613-00:00",
        "included_in_blocks":
          [ "BLjT1TTWtbmz3FTiHw4uLJnC3pwQA98pq1DifQtoWM1UxMppyV1" ] },
      { "delegate": "tz1NEKxGEHsFufk87CVZcrqWu8o22qh46GK6",
        "reception_time": "2022-01-21T03:08:09.667-00:00",
        "included_in_blocks":
          [ "BLjT1TTWtbmz3FTiHw4uLJnC3pwQA98pq1DifQtoWM1UxMppyV1" ] },
      { "delegate": "tz1cYufsxHXJcvANhvS55h3aY32a9BAFB494",
        "reception_time": "2022-01-21T03:08:09.980-00:00",
        "included_in_blocks":
          [ "BLjT1TTWtbmz3FTiHw4uLJnC3pwQA98pq1DifQtoWM1UxMppyV1" ] },
      { "delegate": "tz3WMqdzXqRWXwyvj5Hp2H7QEepaUuS7vd9K",
        "reception_time": "2022-01-21T03:08:10.070-00:00",
        "included_in_blocks":
          [ "BLjT1TTWtbmz3FTiHw4uLJnC3pwQA98pq1DifQtoWM1UxMppyV1" ] },
      { "delegate": "tz1gfArv665EUkSg2ojMBzcbfwuPxAvqPvjo",
        "reception_time": "2022-01-21T03:08:10.076-00:00",
        "included_in_blocks":
          [ "BLjT1TTWtbmz3FTiHw4uLJnC3pwQA98pq1DifQtoWM1UxMppyV1" ] },
      { "delegate": "tz1T7duV5gZWSTq4YpBGbXNLTfznCLDrFxvs",
        "reception_time": "2022-01-21T03:08:10.160-00:00",
        "included_in_blocks":
          [ "BLjT1TTWtbmz3FTiHw4uLJnC3pwQA98pq1DifQtoWM1UxMppyV1" ] },
      { "delegate": "tz3VEZ4k6a4Wx42iyev6i2aVAptTRLEAivNN",
        "reception_time": "2022-01-21T03:08:10.209-00:00",
        "included_in_blocks":
          [ "BLjT1TTWtbmz3FTiHw4uLJnC3pwQA98pq1DifQtoWM1UxMppyV1" ] },
      { "delegate": "tz1fJHFn6sWEd3NnBPngACuw2dggTv6nQZ7g",
        "reception_time": "2022-01-21T03:08:10.286-00:00",
        "included_in_blocks":
          [ "BLjT1TTWtbmz3FTiHw4uLJnC3pwQA98pq1DifQtoWM1UxMppyV1" ] },
      { "delegate": "tz1NuUu12WHdW3jHqvkujGHsiTi46Wvw1ci1",
        "reception_time": "2022-01-21T03:08:10.325-00:00",
        "included_in_blocks":
          [ "BLjT1TTWtbmz3FTiHw4uLJnC3pwQA98pq1DifQtoWM1UxMppyV1" ] },
      { "delegate": "tz3bvNMQ95vfAYtG8193ymshqjSvmxiCUuR5",
        "reception_time": "2022-01-21T03:08:10.342-00:00",
        "included_in_blocks":
          [ "BLjT1TTWtbmz3FTiHw4uLJnC3pwQA98pq1DifQtoWM1UxMppyV1" ] },
      { "delegate": "tz1Z2jXfEXL7dXhs6bsLmyLFLfmAkXBzA9WE",
        "reception_time": "2022-01-21T03:08:10.501-00:00",
        "included_in_blocks":
          [ "BLjT1TTWtbmz3FTiHw4uLJnC3pwQA98pq1DifQtoWM1UxMppyV1" ] },
      { "delegate": "tz3RB4aoyjov4KEVRbuhvQ1CKJgBJMWhaeB8",
        "reception_time": "2022-01-21T03:08:10.779-00:00",
        "included_in_blocks":
          [ "BLjT1TTWtbmz3FTiHw4uLJnC3pwQA98pq1DifQtoWM1UxMppyV1" ] },
      { "delegate": "tz3NExpXn9aPNZPorRE4SdjJ2RGrfbJgMAaV",
        "reception_time": "2022-01-21T03:08:11.225-00:00",
        "included_in_blocks":
          [ "BLjT1TTWtbmz3FTiHw4uLJnC3pwQA98pq1DifQtoWM1UxMppyV1" ] },
      { "delegate": "tz3UoffC7FG7zfpmvmjUmUeAaHvzdcUvAj6r",
        "reception_time": "2022-01-21T03:08:11.282-00:00",
        "included_in_blocks":
          [ "BLjT1TTWtbmz3FTiHw4uLJnC3pwQA98pq1DifQtoWM1UxMppyV1" ] },
      { "delegate": "tz1QJU1PuKUP5ZQxUr4pHZjCHGRvJSpcXv7G",
        "reception_time": "2022-01-21T03:08:11.562-00:00",
        "included_in_blocks":
          [ "BLjT1TTWtbmz3FTiHw4uLJnC3pwQA98pq1DifQtoWM1UxMppyV1" ] },
      { "delegate": "tz1aRoaRhSpRYvFdyvgWLL6TGyRoGF51wDjM",
        "reception_time": "2022-01-21T03:08:11.692-00:00",
        "included_in_blocks":
          [ "BLjT1TTWtbmz3FTiHw4uLJnC3pwQA98pq1DifQtoWM1UxMppyV1" ] },
      { "delegate": "tz1TcH4Nb3aHNDJ7CGZhU7jgAK1BkSP4Lxds",
        "reception_time": "2022-01-21T03:08:11.804-00:00",
        "included_in_blocks":
          [ "BLjT1TTWtbmz3FTiHw4uLJnC3pwQA98pq1DifQtoWM1UxMppyV1" ] },
      { "delegate": "tz1QccGQsmt7WMnbVX9inJQgEuQGeMXddfjp",
        "reception_time": "2022-01-21T03:08:14.022-00:00",
        "included_in_blocks":
          [ "BLjT1TTWtbmz3FTiHw4uLJnC3pwQA98pq1DifQtoWM1UxMppyV1" ] },
      { "delegate": "tz1W5VkdB5s7ENMESVBtwyt9kyvLqPcUczRT",
        "reception_time": "2022-01-21T03:08:14.775-00:00",
        "included_in_blocks":
          [ "BLjT1TTWtbmz3FTiHw4uLJnC3pwQA98pq1DifQtoWM1UxMppyV1" ] },
      { "delegate": "tz1Z1WwoqgRFbLE3YNdYRpCx44NSfiMJzeAG",
        "reception_time": "2022-01-21T03:08:19.604-00:00",
        "included_in_blocks":
          [ "BLjT1TTWtbmz3FTiHw4uLJnC3pwQA98pq1DifQtoWM1UxMppyV1" ] } ] }