{ "blocks":
    [ { "hash": "BMdqYcfvyk8nmJ113hP3MEREbGSvvvcGDKqVZtqf31zsZAt9zqv",
        "delegate": "tz1gfArv665EUkSg2ojMBzcbfwuPxAvqPvjo",
        "reception_time": "2022-01-21T00:20:57.557-00:00",
        "timestamp": "2022-01-21T00:20:50Z" } ],
  "endorsements":
    [ { "delegate": "tz1cX93Q3KsiTADpCC4f12TBvAmS5tw7CW19",
        "reception_time": "2022-01-21T00:20:57.416-00:00",
        "errors":
          [ { "kind": "temporary",
              "id": "proto.011-PtHangz2.prefilter.outdated_endorsement" } ],
        "included_in_blocks":
          [ "BKqQN2G8PaXD9Y5DG6gn21RincdLYw54ae2fUgD5vA74NhtDuQH" ] },
      { "delegate": "tz1eEnQhbwf6trb8Q8mPb2RaPkNk2rN7BKi8",
        "reception_time": "2022-01-21T00:20:57.317-00:00",
        "errors":
          [ { "kind": "temporary",
              "id": "proto.011-PtHangz2.prefilter.outdated_endorsement" } ],
        "included_in_blocks":
          [ "BKqQN2G8PaXD9Y5DG6gn21RincdLYw54ae2fUgD5vA74NhtDuQH" ] },
      { "delegate": "tz1P2Po7YM526ughEsRbY4oR9zaUPDZjxFrb",
        "reception_time": "2022-01-21T00:20:57.303-00:00",
        "errors":
          [ { "kind": "temporary",
              "id": "proto.011-PtHangz2.prefilter.outdated_endorsement" } ],
        "included_in_blocks":
          [ "BKqQN2G8PaXD9Y5DG6gn21RincdLYw54ae2fUgD5vA74NhtDuQH" ] },
      { "delegate": "tz1RV1MBbZMR68tacosb7Mwj6LkbPSUS1er1",
        "reception_time": "2022-01-21T00:20:57.194-00:00",
        "errors":
          [ { "kind": "temporary",
              "id": "proto.011-PtHangz2.prefilter.outdated_endorsement" } ],
        "included_in_blocks":
          [ "BKqQN2G8PaXD9Y5DG6gn21RincdLYw54ae2fUgD5vA74NhtDuQH" ] },
      { "delegate": "tz1S8e9GgdZG78XJRB3NqabfWeM37GnhZMWQ",
        "reception_time": "2022-01-21T00:20:57.147-00:00",
        "errors":
          [ { "kind": "temporary",
              "id": "proto.011-PtHangz2.prefilter.outdated_endorsement" } ],
        "included_in_blocks":
          [ "BKqQN2G8PaXD9Y5DG6gn21RincdLYw54ae2fUgD5vA74NhtDuQH" ] },
      { "delegate": "tz1gfArv665EUkSg2ojMBzcbfwuPxAvqPvjo",
        "reception_time": "2022-01-21T00:20:57.014-00:00",
        "errors":
          [ { "kind": "temporary",
              "id": "proto.011-PtHangz2.prefilter.outdated_endorsement" } ],
        "included_in_blocks":
          [ "BKqQN2G8PaXD9Y5DG6gn21RincdLYw54ae2fUgD5vA74NhtDuQH" ] },
      { "delegate": "tz1TRqbYbUf2GyrjErf3hBzgBJPzW8y36qEs" },
      { "delegate": "tz1awXW7wuXy21c66vBudMXQVAPgRnqqwgTH" },
      { "delegate": "tz1irJKkXS2DBWkU1NnmFQx1c1L7pbGg4yhk",
        "reception_time": "2022-01-21T00:20:58.273-00:00",
        "included_in_blocks":
          [ "BKqQN2G8PaXD9Y5DG6gn21RincdLYw54ae2fUgD5vA74NhtDuQH" ] },
      { "delegate": "tz1bkESY3QKVUwboioG5vSbGiS9GRwHdB4xB",
        "reception_time": "2022-01-21T00:20:58.279-00:00",
        "included_in_blocks":
          [ "BKqQN2G8PaXD9Y5DG6gn21RincdLYw54ae2fUgD5vA74NhtDuQH" ] },
      { "delegate": "tz1beersuEDv8Z7ngQ825xfbaJNS2EhXnyHR",
        "reception_time": "2022-01-21T00:20:58.282-00:00",
        "included_in_blocks":
          [ "BKqQN2G8PaXD9Y5DG6gn21RincdLYw54ae2fUgD5vA74NhtDuQH" ] },
      { "delegate": "tz1aXD7Jigrt3PBYSpHSg5Rr33SexMmmM5Ys",
        "reception_time": "2022-01-21T00:20:58.285-00:00",
        "included_in_blocks":
          [ "BKqQN2G8PaXD9Y5DG6gn21RincdLYw54ae2fUgD5vA74NhtDuQH" ] },
      { "delegate": "tz1TRspM5SeZpaQUhzByXbEvqKF1vnCM2YTK",
        "reception_time": "2022-01-21T00:20:58.290-00:00",
        "included_in_blocks":
          [ "BKqQN2G8PaXD9Y5DG6gn21RincdLYw54ae2fUgD5vA74NhtDuQH" ] },
      { "delegate": "tz1Kt4P8BCaP93AEV4eA7gmpRryWt5hznjCP",
        "reception_time": "2022-01-21T00:20:58.313-00:00",
        "included_in_blocks":
          [ "BKqQN2G8PaXD9Y5DG6gn21RincdLYw54ae2fUgD5vA74NhtDuQH" ] },
      { "delegate": "tz3ZbP2pM3nwvXztbuMJwJnDvV5xdpU8UkkD",
        "reception_time": "2022-01-21T00:20:58.320-00:00",
        "included_in_blocks":
          [ "BKqQN2G8PaXD9Y5DG6gn21RincdLYw54ae2fUgD5vA74NhtDuQH" ] },
      { "delegate": "tz3NxTnke1acr8o3h5y9ytf5awQBGNJUKzVU",
        "reception_time": "2022-01-21T00:20:58.328-00:00",
        "included_in_blocks":
          [ "BKqQN2G8PaXD9Y5DG6gn21RincdLYw54ae2fUgD5vA74NhtDuQH" ] },
      { "delegate": "tz1Ldzz6k1BHdhuKvAtMRX7h5kJSMHESMHLC",
        "reception_time": "2022-01-21T00:20:58.328-00:00",
        "included_in_blocks":
          [ "BKqQN2G8PaXD9Y5DG6gn21RincdLYw54ae2fUgD5vA74NhtDuQH" ] },
      { "delegate": "tz3QT9dHYKDqh563chVa6za8526ys1UKfRfL",
        "reception_time": "2022-01-21T00:20:58.334-00:00",
        "included_in_blocks":
          [ "BKqQN2G8PaXD9Y5DG6gn21RincdLYw54ae2fUgD5vA74NhtDuQH" ] },
      { "delegate": "tz3QSGPoRp3Kn7n3vY24eYeu3Peuqo45LQ4D",
        "reception_time": "2022-01-21T00:20:58.412-00:00",
        "included_in_blocks":
          [ "BKqQN2G8PaXD9Y5DG6gn21RincdLYw54ae2fUgD5vA74NhtDuQH" ] },
      { "delegate": "tz3gtoUxdudfBRcNY7iVdKPHCYYX6xdPpoRS",
        "reception_time": "2022-01-21T00:20:58.426-00:00",
        "included_in_blocks":
          [ "BKqQN2G8PaXD9Y5DG6gn21RincdLYw54ae2fUgD5vA74NhtDuQH" ] },
      { "delegate": "tz1WCd2jm4uSt4vntk4vSuUWoZQGhLcDuR9q",
        "reception_time": "2022-01-21T00:20:58.473-00:00",
        "included_in_blocks":
          [ "BKqQN2G8PaXD9Y5DG6gn21RincdLYw54ae2fUgD5vA74NhtDuQH" ] },
      { "delegate": "tz1VQnqCCqX4K5sP3FNkVSNKTdCAMJDd3E1n",
        "reception_time": "2022-01-21T00:20:58.495-00:00",
        "included_in_blocks":
          [ "BKqQN2G8PaXD9Y5DG6gn21RincdLYw54ae2fUgD5vA74NhtDuQH" ] },
      { "delegate": "tz1gUNyn3hmnEWqkusWPzxRaon1cs7ndWh7h",
        "reception_time": "2022-01-21T00:20:58.501-00:00",
        "included_in_blocks":
          [ "BKqQN2G8PaXD9Y5DG6gn21RincdLYw54ae2fUgD5vA74NhtDuQH" ] },
      { "delegate": "tz1a51WYsAsoh4fs4A4x5aCN6Za26mpfDfTi",
        "reception_time": "2022-01-21T00:20:58.501-00:00",
        "included_in_blocks":
          [ "BKqQN2G8PaXD9Y5DG6gn21RincdLYw54ae2fUgD5vA74NhtDuQH" ] },
      { "delegate": "tz1fUyqYH7H4pRHN1roWY17giXhy1RvxjgUV",
        "reception_time": "2022-01-21T00:20:58.507-00:00",
        "included_in_blocks":
          [ "BKqQN2G8PaXD9Y5DG6gn21RincdLYw54ae2fUgD5vA74NhtDuQH" ] },
      { "delegate": "tz3iJu5vrKZcsqRPs8yJ61UDoeEXZmtro4qh",
        "reception_time": "2022-01-21T00:20:58.531-00:00",
        "included_in_blocks":
          [ "BKqQN2G8PaXD9Y5DG6gn21RincdLYw54ae2fUgD5vA74NhtDuQH" ] },
      { "delegate": "tz3Zhs2dygr55yHyQyKjntAtY9bgfhLZ4Xj1",
        "reception_time": "2022-01-21T00:20:58.531-00:00",
        "included_in_blocks":
          [ "BKqQN2G8PaXD9Y5DG6gn21RincdLYw54ae2fUgD5vA74NhtDuQH" ] },
      { "delegate": "tz1fPKAtsYydh4f1wfWNfeNxWYu72TmM48fu",
        "reception_time": "2022-01-21T00:20:58.544-00:00",
        "included_in_blocks":
          [ "BKqQN2G8PaXD9Y5DG6gn21RincdLYw54ae2fUgD5vA74NhtDuQH" ] },
      { "delegate": "tz1MQJPGNMijnXnVoBENFz9rUhaPt3S7rWoz",
        "reception_time": "2022-01-21T00:20:58.607-00:00",
        "included_in_blocks":
          [ "BKqQN2G8PaXD9Y5DG6gn21RincdLYw54ae2fUgD5vA74NhtDuQH" ] },
      { "delegate": "tz1RCFbB9GpALpsZtu6J58sb74dm8qe6XBzv",
        "reception_time": "2022-01-21T00:20:58.610-00:00",
        "included_in_blocks":
          [ "BKqQN2G8PaXD9Y5DG6gn21RincdLYw54ae2fUgD5vA74NhtDuQH" ] },
      { "delegate": "tz3RB4aoyjov4KEVRbuhvQ1CKJgBJMWhaeB8",
        "reception_time": "2022-01-21T00:20:58.623-00:00",
        "included_in_blocks":
          [ "BKqQN2G8PaXD9Y5DG6gn21RincdLYw54ae2fUgD5vA74NhtDuQH" ] },
      { "delegate": "tz3bTdwZinP8U1JmSweNzVKhmwafqWmFWRfk",
        "reception_time": "2022-01-21T00:20:58.729-00:00",
        "included_in_blocks":
          [ "BKqQN2G8PaXD9Y5DG6gn21RincdLYw54ae2fUgD5vA74NhtDuQH" ] },
      { "delegate": "tz1S8MNvuFEUsWgjHvi3AxibRBf388NhT1q2",
        "reception_time": "2022-01-21T00:20:58.734-00:00",
        "included_in_blocks":
          [ "BKqQN2G8PaXD9Y5DG6gn21RincdLYw54ae2fUgD5vA74NhtDuQH" ] },
      { "delegate": "tz1V4qCyvPKZ5UeqdH14HN42rxvNPQfc9UZg",
        "reception_time": "2022-01-21T00:20:58.944-00:00",
        "included_in_blocks":
          [ "BKqQN2G8PaXD9Y5DG6gn21RincdLYw54ae2fUgD5vA74NhtDuQH" ] },
      { "delegate": "tz1TEc75UKXv4W5cwi14Na3NtqFD51yKQi7h",
        "reception_time": "2022-01-21T00:20:58.980-00:00",
        "included_in_blocks":
          [ "BKqQN2G8PaXD9Y5DG6gn21RincdLYw54ae2fUgD5vA74NhtDuQH" ] },
      { "delegate": "tz3hw2kqXhLUvY65ca1eety2oQTpAvd34R9Q",
        "reception_time": "2022-01-21T00:20:59.037-00:00",
        "included_in_blocks":
          [ "BKqQN2G8PaXD9Y5DG6gn21RincdLYw54ae2fUgD5vA74NhtDuQH" ] },
      { "delegate": "tz1NortRftucvAkD1J58L32EhSVrQEWJCEnB",
        "reception_time": "2022-01-21T00:20:59.037-00:00",
        "included_in_blocks":
          [ "BKqQN2G8PaXD9Y5DG6gn21RincdLYw54ae2fUgD5vA74NhtDuQH" ] },
      { "delegate": "tz1dNVDWPf3Q59SdJqnjdnu277iyvReiRS9M",
        "reception_time": "2022-01-21T00:20:59.054-00:00",
        "included_in_blocks":
          [ "BKqQN2G8PaXD9Y5DG6gn21RincdLYw54ae2fUgD5vA74NhtDuQH" ] },
      { "delegate": "tz3RKYFsLuQzKBtmYuLNas7uMu3AsYd4QdsA",
        "reception_time": "2022-01-21T00:20:59.070-00:00",
        "included_in_blocks":
          [ "BKqQN2G8PaXD9Y5DG6gn21RincdLYw54ae2fUgD5vA74NhtDuQH" ] },
      { "delegate": "tz1Tnjaxk6tbAeC2TmMApPh8UsrEVQvhHvx5",
        "reception_time": "2022-01-21T00:20:59.074-00:00",
        "included_in_blocks":
          [ "BKqQN2G8PaXD9Y5DG6gn21RincdLYw54ae2fUgD5vA74NhtDuQH" ] },
      { "delegate": "tz1RQhNh7iB9CZA7i3ifTWNwiGYVffponfbB",
        "reception_time": "2022-01-21T00:20:59.139-00:00",
        "included_in_blocks":
          [ "BKqQN2G8PaXD9Y5DG6gn21RincdLYw54ae2fUgD5vA74NhtDuQH" ] },
      { "delegate": "tz1Nf6tsK4G6bBqgSQERy4nUtkHNKUVdh7q1",
        "reception_time": "2022-01-21T00:20:59.169-00:00",
        "included_in_blocks":
          [ "BKqQN2G8PaXD9Y5DG6gn21RincdLYw54ae2fUgD5vA74NhtDuQH" ] },
      { "delegate": "tz1WBfwbT66FC6BTLexc2BoyCCBM9LG7pnVW",
        "reception_time": "2022-01-21T00:20:59.283-00:00",
        "included_in_blocks":
          [ "BKqQN2G8PaXD9Y5DG6gn21RincdLYw54ae2fUgD5vA74NhtDuQH" ] },
      { "delegate": "tz1KfEsrtDaA1sX7vdM4qmEPWuSytuqCDp5j",
        "reception_time": "2022-01-21T00:20:59.301-00:00",
        "included_in_blocks":
          [ "BKqQN2G8PaXD9Y5DG6gn21RincdLYw54ae2fUgD5vA74NhtDuQH" ] },
      { "delegate": "tz1SYq214SCBy9naR6cvycQsYcUGpBqQAE8d",
        "reception_time": "2022-01-21T00:20:59.496-00:00",
        "included_in_blocks":
          [ "BKqQN2G8PaXD9Y5DG6gn21RincdLYw54ae2fUgD5vA74NhtDuQH" ] },
      { "delegate": "tz2FCNBrERXtaTtNX6iimR1UJ5JSDxvdHM93",
        "reception_time": "2022-01-21T00:20:59.501-00:00",
        "included_in_blocks":
          [ "BKqQN2G8PaXD9Y5DG6gn21RincdLYw54ae2fUgD5vA74NhtDuQH" ] },
      { "delegate": "tz1hAYfexyzPGG6RhZZMpDvAHifubsbb6kgn",
        "reception_time": "2022-01-21T00:20:59.509-00:00",
        "included_in_blocks":
          [ "BKqQN2G8PaXD9Y5DG6gn21RincdLYw54ae2fUgD5vA74NhtDuQH" ] },
      { "delegate": "tz3gLTu4Yxj8tPAcriQVUdxv6BY9QyvzU1az",
        "reception_time": "2022-01-21T00:20:59.539-00:00",
        "included_in_blocks":
          [ "BKqQN2G8PaXD9Y5DG6gn21RincdLYw54ae2fUgD5vA74NhtDuQH" ] },
      { "delegate": "tz1SohptP53wDPZhzTWzDUFAUcWF6DMBpaJV",
        "reception_time": "2022-01-21T00:20:59.545-00:00",
        "included_in_blocks":
          [ "BKqQN2G8PaXD9Y5DG6gn21RincdLYw54ae2fUgD5vA74NhtDuQH" ] },
      { "delegate": "tz3NDpRj6WBrJPikcPVHRBEjWKxFw3c6eQPS",
        "reception_time": "2022-01-21T00:20:59.569-00:00",
        "included_in_blocks":
          [ "BKqQN2G8PaXD9Y5DG6gn21RincdLYw54ae2fUgD5vA74NhtDuQH" ] },
      { "delegate": "tz1UMCB2AHSTwG7YcGNr31CqYCtGN873royv",
        "reception_time": "2022-01-21T00:20:59.590-00:00",
        "included_in_blocks":
          [ "BKqQN2G8PaXD9Y5DG6gn21RincdLYw54ae2fUgD5vA74NhtDuQH" ] },
      { "delegate": "tz1PeZx7FXy7QRuMREGXGxeipb24RsMMzUNe",
        "reception_time": "2022-01-21T00:20:59.655-00:00",
        "included_in_blocks":
          [ "BKqQN2G8PaXD9Y5DG6gn21RincdLYw54ae2fUgD5vA74NhtDuQH" ] },
      { "delegate": "tz1NoYvKjXTzTk54VpLxBfouJ33J8jwKPPvw",
        "reception_time": "2022-01-21T00:20:59.694-00:00",
        "included_in_blocks":
          [ "BKqQN2G8PaXD9Y5DG6gn21RincdLYw54ae2fUgD5vA74NhtDuQH" ] },
      { "delegate": "tz1S6H83gugqK4dR5Had9jWR9M1ZdAAVgU5e",
        "reception_time": "2022-01-21T00:20:59.709-00:00",
        "included_in_blocks":
          [ "BKqQN2G8PaXD9Y5DG6gn21RincdLYw54ae2fUgD5vA74NhtDuQH" ] },
      { "delegate": "tz1QXrzaHrGACVn15UiCg33aLCJ6npWdQb3J",
        "reception_time": "2022-01-21T00:20:59.714-00:00",
        "included_in_blocks":
          [ "BKqQN2G8PaXD9Y5DG6gn21RincdLYw54ae2fUgD5vA74NhtDuQH" ] },
      { "delegate": "tz1PWCDnz783NNGGQjEFFsHtrcK5yBW4E2rm",
        "reception_time": "2022-01-21T00:20:59.754-00:00",
        "included_in_blocks":
          [ "BKqQN2G8PaXD9Y5DG6gn21RincdLYw54ae2fUgD5vA74NhtDuQH" ] },
      { "delegate": "tz1aRoaRhSpRYvFdyvgWLL6TGyRoGF51wDjM",
        "reception_time": "2022-01-21T00:20:59.829-00:00",
        "included_in_blocks":
          [ "BKqQN2G8PaXD9Y5DG6gn21RincdLYw54ae2fUgD5vA74NhtDuQH" ] },
      { "delegate": "tz1bTpviNnyx2PXsNmGpCQTMQsGoYordkUoA",
        "reception_time": "2022-01-21T00:20:59.838-00:00",
        "included_in_blocks":
          [ "BKqQN2G8PaXD9Y5DG6gn21RincdLYw54ae2fUgD5vA74NhtDuQH" ] },
      { "delegate": "tz3WMqdzXqRWXwyvj5Hp2H7QEepaUuS7vd9K",
        "reception_time": "2022-01-21T00:20:59.996-00:00",
        "included_in_blocks":
          [ "BKqQN2G8PaXD9Y5DG6gn21RincdLYw54ae2fUgD5vA74NhtDuQH" ] },
      { "delegate": "tz3VEZ4k6a4Wx42iyev6i2aVAptTRLEAivNN",
        "reception_time": "2022-01-21T00:21:00.018-00:00",
        "included_in_blocks":
          [ "BKqQN2G8PaXD9Y5DG6gn21RincdLYw54ae2fUgD5vA74NhtDuQH" ] },
      { "delegate": "tz3RDC3Jdn4j15J7bBHZd29EUee9gVB1CxD9",
        "reception_time": "2022-01-21T00:21:00.095-00:00",
        "included_in_blocks":
          [ "BKqQN2G8PaXD9Y5DG6gn21RincdLYw54ae2fUgD5vA74NhtDuQH" ] },
      { "delegate": "tz1aJS7Pk9uWR3wWyFf1i3RwhYxN84G7stom",
        "reception_time": "2022-01-21T00:21:00.130-00:00",
        "included_in_blocks":
          [ "BKqQN2G8PaXD9Y5DG6gn21RincdLYw54ae2fUgD5vA74NhtDuQH" ] },
      { "delegate": "tz1dRKU4FQ9QRRQPdaH4zCR6gmCmXfcvcgtB",
        "reception_time": "2022-01-21T00:21:00.591-00:00",
        "included_in_blocks":
          [ "BKqQN2G8PaXD9Y5DG6gn21RincdLYw54ae2fUgD5vA74NhtDuQH" ] },
      { "delegate": "tz3UoffC7FG7zfpmvmjUmUeAaHvzdcUvAj6r",
        "reception_time": "2022-01-21T00:21:00.939-00:00",
        "included_in_blocks":
          [ "BKqQN2G8PaXD9Y5DG6gn21RincdLYw54ae2fUgD5vA74NhtDuQH" ] },
      { "delegate": "tz1b9MYGrbN1NAxphLEsPPNT9JC7aNFc5nA4",
        "reception_time": "2022-01-21T00:21:00.945-00:00",
        "included_in_blocks":
          [ "BKqQN2G8PaXD9Y5DG6gn21RincdLYw54ae2fUgD5vA74NhtDuQH" ] },
      { "delegate": "tz1ZcTRk5uxD86EFEn1vvNffWWqJy7q5eVhc",
        "reception_time": "2022-01-21T00:21:01.177-00:00",
        "included_in_blocks":
          [ "BKqQN2G8PaXD9Y5DG6gn21RincdLYw54ae2fUgD5vA74NhtDuQH" ] },
      { "delegate": "tz3bvNMQ95vfAYtG8193ymshqjSvmxiCUuR5",
        "reception_time": "2022-01-21T00:21:01.218-00:00",
        "included_in_blocks":
          [ "BKqQN2G8PaXD9Y5DG6gn21RincdLYw54ae2fUgD5vA74NhtDuQH" ] },
      { "delegate": "tz1fJHFn6sWEd3NnBPngACuw2dggTv6nQZ7g",
        "reception_time": "2022-01-21T00:21:01.240-00:00",
        "included_in_blocks":
          [ "BKqQN2G8PaXD9Y5DG6gn21RincdLYw54ae2fUgD5vA74NhtDuQH" ] },
      { "delegate": "tz1TcH4Nb3aHNDJ7CGZhU7jgAK1BkSP4Lxds",
        "reception_time": "2022-01-21T00:21:01.319-00:00",
        "included_in_blocks":
          [ "BKqQN2G8PaXD9Y5DG6gn21RincdLYw54ae2fUgD5vA74NhtDuQH" ] },
      { "delegate": "tz1eVaNx3gCmG1EsLjijkmgAxdLYVf6Bf5Sq",
        "reception_time": "2022-01-21T00:21:01.692-00:00",
        "included_in_blocks":
          [ "BKqQN2G8PaXD9Y5DG6gn21RincdLYw54ae2fUgD5vA74NhtDuQH" ] },
      { "delegate": "tz1WctSwL49BZtdWAQ75NY6vr4xsAx6oKdah",
        "reception_time": "2022-01-21T00:21:02.748-00:00",
        "included_in_blocks":
          [ "BKqQN2G8PaXD9Y5DG6gn21RincdLYw54ae2fUgD5vA74NhtDuQH" ] },
      { "delegate": "tz1LYW7Yepo9qsQx2kjpek2RYVMCeGwBvDCQ",
        "reception_time": "2022-01-21T00:21:04.909-00:00",
        "included_in_blocks":
          [ "BKqQN2G8PaXD9Y5DG6gn21RincdLYw54ae2fUgD5vA74NhtDuQH" ] },
      { "delegate": "tz1NpWrAyDL9k2Lmnyxcgr9xuJakbBxdq7FB",
        "reception_time": "2022-01-21T00:21:05.004-00:00",
        "included_in_blocks":
          [ "BKqQN2G8PaXD9Y5DG6gn21RincdLYw54ae2fUgD5vA74NhtDuQH" ] } ] }