{ "blocks":
    [ { "hash": "BLNDdKv2cHc23KFkJHYJ3KRPfcWYCX9KznKMUgnm5Sah7d8N97N",
        "delegate": "tz3NxTnke1acr8o3h5y9ytf5awQBGNJUKzVU",
        "reception_time": "2022-01-21T01:51:17.669-00:00",
        "timestamp": "2022-01-21T01:51:10Z" } ],
  "endorsements":
    [ { "delegate": "tz1i3mhawFAgcB8JHaHwoUF6hdncwTAkLEn2" },
      { "delegate": "tz1dbfppLAAxXZNtf2SDps7rch3qfUznKSoK" },
      { "delegate": "tz1TRqbYbUf2GyrjErf3hBzgBJPzW8y36qEs" },
      { "delegate": "tz1P2Po7YM526ughEsRbY4oR9zaUPDZjxFrb",
        "reception_time": "2022-01-21T01:51:17.671-00:00",
        "errors":
          [ { "kind": "temporary",
              "id": "proto.011-PtHangz2.prefilter.outdated_endorsement" } ],
        "included_in_blocks":
          [ "BMYtC2xb1LvfkCNRFJ3A11JZ8cNgG66fCQudVzSS8xj6opLZjKi" ] },
      { "delegate": "tz3ZbP2pM3nwvXztbuMJwJnDvV5xdpU8UkkD",
        "reception_time": "2022-01-21T01:51:17.530-00:00",
        "errors":
          [ { "kind": "temporary",
              "id": "proto.011-PtHangz2.prefilter.outdated_endorsement" } ],
        "included_in_blocks":
          [ "BMYtC2xb1LvfkCNRFJ3A11JZ8cNgG66fCQudVzSS8xj6opLZjKi" ] },
      { "delegate": "tz1eEnQhbwf6trb8Q8mPb2RaPkNk2rN7BKi8",
        "reception_time": "2022-01-21T01:51:17.522-00:00",
        "errors":
          [ { "kind": "temporary",
              "id": "proto.011-PtHangz2.prefilter.outdated_endorsement" } ],
        "included_in_blocks":
          [ "BMYtC2xb1LvfkCNRFJ3A11JZ8cNgG66fCQudVzSS8xj6opLZjKi" ] },
      { "delegate": "tz3NxTnke1acr8o3h5y9ytf5awQBGNJUKzVU",
        "reception_time": "2022-01-21T01:51:17.396-00:00",
        "errors":
          [ { "kind": "temporary",
              "id": "proto.011-PtHangz2.prefilter.outdated_endorsement" } ],
        "included_in_blocks":
          [ "BMYtC2xb1LvfkCNRFJ3A11JZ8cNgG66fCQudVzSS8xj6opLZjKi" ] },
      { "delegate": "tz1beersuEDv8Z7ngQ825xfbaJNS2EhXnyHR",
        "reception_time": "2022-01-21T01:51:17.246-00:00",
        "errors":
          [ { "kind": "temporary",
              "id": "proto.011-PtHangz2.prefilter.outdated_endorsement" } ],
        "included_in_blocks":
          [ "BMYtC2xb1LvfkCNRFJ3A11JZ8cNgG66fCQudVzSS8xj6opLZjKi" ] },
      { "delegate": "tz1NpWrAyDL9k2Lmnyxcgr9xuJakbBxdq7FB",
        "reception_time": "2022-01-21T01:51:28.238-00:00",
        "included_in_blocks":
          [ "BMYtC2xb1LvfkCNRFJ3A11JZ8cNgG66fCQudVzSS8xj6opLZjKi" ] },
      { "delegate": "tz1go7f6mEQfT2xX2LuHAqgnRGN6c2zHPf5c",
        "reception_time": "2022-01-21T01:51:25.939-00:00",
        "included_in_blocks":
          [ "BMYtC2xb1LvfkCNRFJ3A11JZ8cNgG66fCQudVzSS8xj6opLZjKi" ] },
      { "delegate": "tz1W5VkdB5s7ENMESVBtwyt9kyvLqPcUczRT",
        "reception_time": "2022-01-21T01:51:25.286-00:00",
        "included_in_blocks":
          [ "BMYtC2xb1LvfkCNRFJ3A11JZ8cNgG66fCQudVzSS8xj6opLZjKi" ] },
      { "delegate": "tz1PFeoTuFen8jAMRHajBySNyCwLmY5RqF9M",
        "reception_time": "2022-01-21T01:51:23.540-00:00",
        "included_in_blocks":
          [ "BMYtC2xb1LvfkCNRFJ3A11JZ8cNgG66fCQudVzSS8xj6opLZjKi" ] },
      { "delegate": "tz3NExpXn9aPNZPorRE4SdjJ2RGrfbJgMAaV",
        "reception_time": "2022-01-21T01:51:22.061-00:00",
        "included_in_blocks":
          [ "BMYtC2xb1LvfkCNRFJ3A11JZ8cNgG66fCQudVzSS8xj6opLZjKi" ] },
      { "delegate": "tz1aRoaRhSpRYvFdyvgWLL6TGyRoGF51wDjM",
        "reception_time": "2022-01-21T01:51:21.753-00:00",
        "included_in_blocks":
          [ "BMYtC2xb1LvfkCNRFJ3A11JZ8cNgG66fCQudVzSS8xj6opLZjKi" ] },
      { "delegate": "tz3RDC3Jdn4j15J7bBHZd29EUee9gVB1CxD9",
        "reception_time": "2022-01-21T01:51:20.994-00:00",
        "included_in_blocks":
          [ "BMYtC2xb1LvfkCNRFJ3A11JZ8cNgG66fCQudVzSS8xj6opLZjKi" ] },
      { "delegate": "tz1UvkANVPWppVgMkLnvN7BwYZsCP7vm6NVd",
        "reception_time": "2022-01-21T01:51:20.975-00:00",
        "included_in_blocks":
          [ "BMYtC2xb1LvfkCNRFJ3A11JZ8cNgG66fCQudVzSS8xj6opLZjKi" ] },
      { "delegate": "tz1WvL7MKyCuUHfC3FxPFyiXcy8hHTBT3vjE",
        "reception_time": "2022-01-21T01:51:20.760-00:00",
        "included_in_blocks":
          [ "BMYtC2xb1LvfkCNRFJ3A11JZ8cNgG66fCQudVzSS8xj6opLZjKi" ] },
      { "delegate": "tz1dRKU4FQ9QRRQPdaH4zCR6gmCmXfcvcgtB",
        "reception_time": "2022-01-21T01:51:20.721-00:00",
        "included_in_blocks":
          [ "BMYtC2xb1LvfkCNRFJ3A11JZ8cNgG66fCQudVzSS8xj6opLZjKi" ] },
      { "delegate": "tz1abmz7jiCV2GH2u81LRrGgAFFgvQgiDiaf",
        "reception_time": "2022-01-21T01:51:20.729-00:00",
        "included_in_blocks":
          [ "BMYtC2xb1LvfkCNRFJ3A11JZ8cNgG66fCQudVzSS8xj6opLZjKi" ] },
      { "delegate": "tz1T7duV5gZWSTq4YpBGbXNLTfznCLDrFxvs",
        "reception_time": "2022-01-21T01:51:20.330-00:00",
        "included_in_blocks":
          [ "BMYtC2xb1LvfkCNRFJ3A11JZ8cNgG66fCQudVzSS8xj6opLZjKi" ] },
      { "delegate": "tz1iPHM2Xx2hwmzcr1EG1zzrV6oKafVoA91m",
        "reception_time": "2022-01-21T01:51:20.381-00:00",
        "included_in_blocks":
          [ "BMYtC2xb1LvfkCNRFJ3A11JZ8cNgG66fCQudVzSS8xj6opLZjKi" ] },
      { "delegate": "tz3VEZ4k6a4Wx42iyev6i2aVAptTRLEAivNN",
        "reception_time": "2022-01-21T01:51:20.372-00:00",
        "included_in_blocks":
          [ "BMYtC2xb1LvfkCNRFJ3A11JZ8cNgG66fCQudVzSS8xj6opLZjKi" ] },
      { "delegate": "tz3UoffC7FG7zfpmvmjUmUeAaHvzdcUvAj6r",
        "reception_time": "2022-01-21T01:51:20.215-00:00",
        "included_in_blocks":
          [ "BMYtC2xb1LvfkCNRFJ3A11JZ8cNgG66fCQudVzSS8xj6opLZjKi" ] },
      { "delegate": "tz1NEKxGEHsFufk87CVZcrqWu8o22qh46GK6",
        "reception_time": "2022-01-21T01:51:20.222-00:00",
        "included_in_blocks":
          [ "BMYtC2xb1LvfkCNRFJ3A11JZ8cNgG66fCQudVzSS8xj6opLZjKi" ] },
      { "delegate": "tz1KfEsrtDaA1sX7vdM4qmEPWuSytuqCDp5j",
        "reception_time": "2022-01-21T01:51:20.188-00:00",
        "included_in_blocks":
          [ "BMYtC2xb1LvfkCNRFJ3A11JZ8cNgG66fCQudVzSS8xj6opLZjKi" ] },
      { "delegate": "tz1Tnjaxk6tbAeC2TmMApPh8UsrEVQvhHvx5",
        "reception_time": "2022-01-21T01:51:20.136-00:00",
        "included_in_blocks":
          [ "BMYtC2xb1LvfkCNRFJ3A11JZ8cNgG66fCQudVzSS8xj6opLZjKi" ] },
      { "delegate": "tz1eLbDXYceRsPZoPmaJXZgQ6pzgnTQvZtpo",
        "reception_time": "2022-01-21T01:51:20.084-00:00",
        "included_in_blocks":
          [ "BMYtC2xb1LvfkCNRFJ3A11JZ8cNgG66fCQudVzSS8xj6opLZjKi" ] },
      { "delegate": "tz1cYufsxHXJcvANhvS55h3aY32a9BAFB494",
        "reception_time": "2022-01-21T01:51:20.167-00:00",
        "included_in_blocks":
          [ "BMYtC2xb1LvfkCNRFJ3A11JZ8cNgG66fCQudVzSS8xj6opLZjKi" ] },
      { "delegate": "tz3WMqdzXqRWXwyvj5Hp2H7QEepaUuS7vd9K",
        "reception_time": "2022-01-21T01:51:20.107-00:00",
        "included_in_blocks":
          [ "BMYtC2xb1LvfkCNRFJ3A11JZ8cNgG66fCQudVzSS8xj6opLZjKi" ] },
      { "delegate": "tz1SYq214SCBy9naR6cvycQsYcUGpBqQAE8d",
        "reception_time": "2022-01-21T01:51:20.133-00:00",
        "included_in_blocks":
          [ "BMYtC2xb1LvfkCNRFJ3A11JZ8cNgG66fCQudVzSS8xj6opLZjKi" ] },
      { "delegate": "tz1S8MNvuFEUsWgjHvi3AxibRBf388NhT1q2",
        "reception_time": "2022-01-21T01:51:19.824-00:00",
        "included_in_blocks":
          [ "BMYtC2xb1LvfkCNRFJ3A11JZ8cNgG66fCQudVzSS8xj6opLZjKi" ] },
      { "delegate": "tz2FCNBrERXtaTtNX6iimR1UJ5JSDxvdHM93",
        "reception_time": "2022-01-21T01:51:19.871-00:00",
        "included_in_blocks":
          [ "BMYtC2xb1LvfkCNRFJ3A11JZ8cNgG66fCQudVzSS8xj6opLZjKi" ] },
      { "delegate": "tz1PeZx7FXy7QRuMREGXGxeipb24RsMMzUNe",
        "reception_time": "2022-01-21T01:51:19.721-00:00",
        "included_in_blocks":
          [ "BMYtC2xb1LvfkCNRFJ3A11JZ8cNgG66fCQudVzSS8xj6opLZjKi" ] },
      { "delegate": "tz1LmaFsWRkjr7QMCx5PtV6xTUz3AmEpKQiF",
        "reception_time": "2022-01-21T01:51:19.667-00:00",
        "included_in_blocks":
          [ "BMYtC2xb1LvfkCNRFJ3A11JZ8cNgG66fCQudVzSS8xj6opLZjKi" ] },
      { "delegate": "tz1dNVDWPf3Q59SdJqnjdnu277iyvReiRS9M",
        "reception_time": "2022-01-21T01:51:19.450-00:00",
        "included_in_blocks":
          [ "BMYtC2xb1LvfkCNRFJ3A11JZ8cNgG66fCQudVzSS8xj6opLZjKi" ] },
      { "delegate": "tz1RQhNh7iB9CZA7i3ifTWNwiGYVffponfbB",
        "reception_time": "2022-01-21T01:51:19.440-00:00",
        "included_in_blocks":
          [ "BMYtC2xb1LvfkCNRFJ3A11JZ8cNgG66fCQudVzSS8xj6opLZjKi" ] },
      { "delegate": "tz1hAYfexyzPGG6RhZZMpDvAHifubsbb6kgn",
        "reception_time": "2022-01-21T01:51:19.418-00:00",
        "included_in_blocks":
          [ "BMYtC2xb1LvfkCNRFJ3A11JZ8cNgG66fCQudVzSS8xj6opLZjKi" ] },
      { "delegate": "tz3RB4aoyjov4KEVRbuhvQ1CKJgBJMWhaeB8",
        "reception_time": "2022-01-21T01:51:19.380-00:00",
        "included_in_blocks":
          [ "BMYtC2xb1LvfkCNRFJ3A11JZ8cNgG66fCQudVzSS8xj6opLZjKi" ] },
      { "delegate": "tz1fPKAtsYydh4f1wfWNfeNxWYu72TmM48fu",
        "reception_time": "2022-01-21T01:51:19.405-00:00",
        "included_in_blocks":
          [ "BMYtC2xb1LvfkCNRFJ3A11JZ8cNgG66fCQudVzSS8xj6opLZjKi" ] },
      { "delegate": "tz1Nf6tsK4G6bBqgSQERy4nUtkHNKUVdh7q1",
        "reception_time": "2022-01-21T01:51:19.418-00:00",
        "included_in_blocks":
          [ "BMYtC2xb1LvfkCNRFJ3A11JZ8cNgG66fCQudVzSS8xj6opLZjKi" ] },
      { "delegate": "tz1VceyYUpq1gk5dtp6jXQRtCtY8hm5DKt72",
        "reception_time": "2022-01-21T01:51:19.495-00:00",
        "included_in_blocks":
          [ "BMYtC2xb1LvfkCNRFJ3A11JZ8cNgG66fCQudVzSS8xj6opLZjKi" ] },
      { "delegate": "tz3bvNMQ95vfAYtG8193ymshqjSvmxiCUuR5",
        "reception_time": "2022-01-21T01:51:19.398-00:00",
        "included_in_blocks":
          [ "BMYtC2xb1LvfkCNRFJ3A11JZ8cNgG66fCQudVzSS8xj6opLZjKi" ] },
      { "delegate": "tz1ei4WtWEMEJekSv8qDnu9PExG6Q8HgRGr3",
        "reception_time": "2022-01-21T01:51:19.274-00:00",
        "included_in_blocks":
          [ "BMYtC2xb1LvfkCNRFJ3A11JZ8cNgG66fCQudVzSS8xj6opLZjKi" ] },
      { "delegate": "tz1g8vkmcde6sWKaG2NN9WKzCkDM6Rziq194",
        "reception_time": "2022-01-21T01:51:19.243-00:00",
        "included_in_blocks":
          [ "BMYtC2xb1LvfkCNRFJ3A11JZ8cNgG66fCQudVzSS8xj6opLZjKi" ] },
      { "delegate": "tz1LjZjdF1wFgUtVyNsrr8P1uYaoBJGTTPyr",
        "reception_time": "2022-01-21T01:51:19.226-00:00",
        "included_in_blocks":
          [ "BMYtC2xb1LvfkCNRFJ3A11JZ8cNgG66fCQudVzSS8xj6opLZjKi" ] },
      { "delegate": "tz1TEc75UKXv4W5cwi14Na3NtqFD51yKQi7h",
        "reception_time": "2022-01-21T01:51:19.107-00:00",
        "included_in_blocks":
          [ "BMYtC2xb1LvfkCNRFJ3A11JZ8cNgG66fCQudVzSS8xj6opLZjKi" ] },
      { "delegate": "tz1gfArv665EUkSg2ojMBzcbfwuPxAvqPvjo",
        "reception_time": "2022-01-21T01:51:18.982-00:00",
        "included_in_blocks":
          [ "BMYtC2xb1LvfkCNRFJ3A11JZ8cNgG66fCQudVzSS8xj6opLZjKi" ] },
      { "delegate": "tz1RpeqCseogMpCPXpyGjhmLH9i9DhqJ8cUR",
        "reception_time": "2022-01-21T01:51:19.000-00:00",
        "included_in_blocks":
          [ "BMYtC2xb1LvfkCNRFJ3A11JZ8cNgG66fCQudVzSS8xj6opLZjKi" ] },
      { "delegate": "tz1dwu9aYb7CRNq4Y2zAjipdjFuSVKhHS8vA",
        "reception_time": "2022-01-21T01:51:18.994-00:00",
        "included_in_blocks":
          [ "BMYtC2xb1LvfkCNRFJ3A11JZ8cNgG66fCQudVzSS8xj6opLZjKi" ] },
      { "delegate": "tz1RCFbB9GpALpsZtu6J58sb74dm8qe6XBzv",
        "reception_time": "2022-01-21T01:51:18.990-00:00",
        "included_in_blocks":
          [ "BMYtC2xb1LvfkCNRFJ3A11JZ8cNgG66fCQudVzSS8xj6opLZjKi" ] },
      { "delegate": "tz1aXD7Jigrt3PBYSpHSg5Rr33SexMmmM5Ys",
        "reception_time": "2022-01-21T01:51:18.848-00:00",
        "included_in_blocks":
          [ "BMYtC2xb1LvfkCNRFJ3A11JZ8cNgG66fCQudVzSS8xj6opLZjKi" ] },
      { "delegate": "tz3bTdwZinP8U1JmSweNzVKhmwafqWmFWRfk",
        "reception_time": "2022-01-21T01:51:18.862-00:00",
        "included_in_blocks":
          [ "BMYtC2xb1LvfkCNRFJ3A11JZ8cNgG66fCQudVzSS8xj6opLZjKi" ] },
      { "delegate": "tz1d6Fx42mYgVFnHUW8T8A7WBfJ6nD9pVok8",
        "reception_time": "2022-01-21T01:51:18.841-00:00",
        "included_in_blocks":
          [ "BMYtC2xb1LvfkCNRFJ3A11JZ8cNgG66fCQudVzSS8xj6opLZjKi" ] },
      { "delegate": "tz3adcvQaKXTCg12zbninqo3q8ptKKtDFTLv",
        "reception_time": "2022-01-21T01:51:18.822-00:00",
        "included_in_blocks":
          [ "BMYtC2xb1LvfkCNRFJ3A11JZ8cNgG66fCQudVzSS8xj6opLZjKi" ] },
      { "delegate": "tz1cSj7fTex3JPd1p1LN1fwek6AV1kH93Wwc",
        "reception_time": "2022-01-21T01:51:18.696-00:00",
        "included_in_blocks":
          [ "BMYtC2xb1LvfkCNRFJ3A11JZ8cNgG66fCQudVzSS8xj6opLZjKi" ] },
      { "delegate": "tz3e7LbZvUtoXhpUD1yb6wuFodZpfYRb9nWJ",
        "reception_time": "2022-01-21T01:51:18.642-00:00",
        "included_in_blocks":
          [ "BMYtC2xb1LvfkCNRFJ3A11JZ8cNgG66fCQudVzSS8xj6opLZjKi" ] },
      { "delegate": "tz1TzaNn7wSQSP5gYPXCnNzBCpyMiidCq1PX",
        "reception_time": "2022-01-21T01:51:18.581-00:00",
        "included_in_blocks":
          [ "BMYtC2xb1LvfkCNRFJ3A11JZ8cNgG66fCQudVzSS8xj6opLZjKi" ] },
      { "delegate": "tz1VQnqCCqX4K5sP3FNkVSNKTdCAMJDd3E1n",
        "reception_time": "2022-01-21T01:51:18.583-00:00",
        "included_in_blocks":
          [ "BMYtC2xb1LvfkCNRFJ3A11JZ8cNgG66fCQudVzSS8xj6opLZjKi" ] },
      { "delegate": "tz1VmiY38m3y95HqQLjMwqnMS7sdMfGomzKi",
        "reception_time": "2022-01-21T01:51:18.588-00:00",
        "included_in_blocks":
          [ "BMYtC2xb1LvfkCNRFJ3A11JZ8cNgG66fCQudVzSS8xj6opLZjKi" ] },
      { "delegate": "tz3QCNyySViKHmeSr45kzDxzchys7NiXCWoa",
        "reception_time": "2022-01-21T01:51:18.595-00:00",
        "included_in_blocks":
          [ "BMYtC2xb1LvfkCNRFJ3A11JZ8cNgG66fCQudVzSS8xj6opLZjKi" ] },
      { "delegate": "tz1bYemsZHPzL3qUkQ5Ao3bze5viTfd8v7Lj",
        "reception_time": "2022-01-21T01:51:18.635-00:00",
        "included_in_blocks":
          [ "BMYtC2xb1LvfkCNRFJ3A11JZ8cNgG66fCQudVzSS8xj6opLZjKi" ] },
      { "delegate": "tz3RKYFsLuQzKBtmYuLNas7uMu3AsYd4QdsA",
        "reception_time": "2022-01-21T01:51:18.619-00:00",
        "included_in_blocks":
          [ "BMYtC2xb1LvfkCNRFJ3A11JZ8cNgG66fCQudVzSS8xj6opLZjKi" ] },
      { "delegate": "tz3hw2kqXhLUvY65ca1eety2oQTpAvd34R9Q",
        "reception_time": "2022-01-21T01:51:18.612-00:00",
        "included_in_blocks":
          [ "BMYtC2xb1LvfkCNRFJ3A11JZ8cNgG66fCQudVzSS8xj6opLZjKi" ] },
      { "delegate": "tz1gUNyn3hmnEWqkusWPzxRaon1cs7ndWh7h",
        "reception_time": "2022-01-21T01:51:18.604-00:00",
        "included_in_blocks":
          [ "BMYtC2xb1LvfkCNRFJ3A11JZ8cNgG66fCQudVzSS8xj6opLZjKi" ] },
      { "delegate": "tz3iJu5vrKZcsqRPs8yJ61UDoeEXZmtro4qh",
        "reception_time": "2022-01-21T01:51:18.570-00:00",
        "included_in_blocks":
          [ "BMYtC2xb1LvfkCNRFJ3A11JZ8cNgG66fCQudVzSS8xj6opLZjKi" ] },
      { "delegate": "tz3Zhs2dygr55yHyQyKjntAtY9bgfhLZ4Xj1",
        "reception_time": "2022-01-21T01:51:18.601-00:00",
        "included_in_blocks":
          [ "BMYtC2xb1LvfkCNRFJ3A11JZ8cNgG66fCQudVzSS8xj6opLZjKi" ] },
      { "delegate": "tz1TRspM5SeZpaQUhzByXbEvqKF1vnCM2YTK",
        "reception_time": "2022-01-21T01:51:18.588-00:00",
        "included_in_blocks":
          [ "BMYtC2xb1LvfkCNRFJ3A11JZ8cNgG66fCQudVzSS8xj6opLZjKi" ] },
      { "delegate": "tz3QT9dHYKDqh563chVa6za8526ys1UKfRfL",
        "reception_time": "2022-01-21T01:51:18.562-00:00",
        "included_in_blocks":
          [ "BMYtC2xb1LvfkCNRFJ3A11JZ8cNgG66fCQudVzSS8xj6opLZjKi" ] },
      { "delegate": "tz3S6BBeKgJGXxvLyZ1xzXzMPn11nnFtq5L9",
        "reception_time": "2022-01-21T01:51:18.578-00:00",
        "included_in_blocks":
          [ "BMYtC2xb1LvfkCNRFJ3A11JZ8cNgG66fCQudVzSS8xj6opLZjKi" ] },
      { "delegate": "tz1irJKkXS2DBWkU1NnmFQx1c1L7pbGg4yhk",
        "reception_time": "2022-01-21T01:51:18.547-00:00",
        "included_in_blocks":
          [ "BMYtC2xb1LvfkCNRFJ3A11JZ8cNgG66fCQudVzSS8xj6opLZjKi" ] },
      { "delegate": "tz1cX93Q3KsiTADpCC4f12TBvAmS5tw7CW19",
        "reception_time": "2022-01-21T01:51:18.550-00:00",
        "included_in_blocks":
          [ "BMYtC2xb1LvfkCNRFJ3A11JZ8cNgG66fCQudVzSS8xj6opLZjKi" ] },
      { "delegate": "tz3QSGPoRp3Kn7n3vY24eYeu3Peuqo45LQ4D",
        "reception_time": "2022-01-21T01:51:18.523-00:00",
        "included_in_blocks":
          [ "BMYtC2xb1LvfkCNRFJ3A11JZ8cNgG66fCQudVzSS8xj6opLZjKi" ] },
      { "delegate": "tz3gtoUxdudfBRcNY7iVdKPHCYYX6xdPpoRS",
        "reception_time": "2022-01-21T01:51:18.523-00:00",
        "included_in_blocks":
          [ "BMYtC2xb1LvfkCNRFJ3A11JZ8cNgG66fCQudVzSS8xj6opLZjKi" ] },
      { "delegate": "tz1iZEKy4LaAjnTmn2RuGDf2iqdAQKnRi8kY",
        "reception_time": "2022-01-21T01:51:18.530-00:00",
        "included_in_blocks":
          [ "BMYtC2xb1LvfkCNRFJ3A11JZ8cNgG66fCQudVzSS8xj6opLZjKi" ] },
      { "delegate": "tz1Ldzz6k1BHdhuKvAtMRX7h5kJSMHESMHLC",
        "reception_time": "2022-01-21T01:51:18.543-00:00",
        "included_in_blocks":
          [ "BMYtC2xb1LvfkCNRFJ3A11JZ8cNgG66fCQudVzSS8xj6opLZjKi" ] } ] }