{ "blocks":
    [ { "hash": "BKktvtVL273tAYYyUCX8pXY2WpYnREvpMaP4wG2VBammzTyw3nC",
        "delegate": "tz1bHzftcTKZMTZgLLtnrXydCm6UEqf4ivca",
        "reception_time": "2022-01-20T23:09:10.007-00:00",
        "timestamp": "2022-01-20T23:09:00Z" } ],
  "endorsements":
    [ { "delegate": "tz1P6WKJu2rcbxKiKRZHKQKmKrpC9TfW1AwM",
        "reception_time": "2022-01-20T23:09:35.316-00:00" },
      { "delegate": "tz3bvNMQ95vfAYtG8193ymshqjSvmxiCUuR5",
        "reception_time": "2022-01-20T23:09:26.014-00:00",
        "included_in_blocks":
          [ "BLKVoVVySYn1hSxXo8WReW1vBwWF4aDuca9tTTKVPKAbgoZhU4g" ] },
      { "delegate": "tz1NpWrAyDL9k2Lmnyxcgr9xuJakbBxdq7FB",
        "reception_time": "2022-01-20T23:09:18.515-00:00",
        "included_in_blocks":
          [ "BLKVoVVySYn1hSxXo8WReW1vBwWF4aDuca9tTTKVPKAbgoZhU4g" ] },
      { "delegate": "tz1Wp9DASxBnuiZTXHTBACtQ69kp8YL4bzLz",
        "reception_time": "2022-01-20T23:09:15.701-00:00",
        "included_in_blocks":
          [ "BLKVoVVySYn1hSxXo8WReW1vBwWF4aDuca9tTTKVPKAbgoZhU4g" ] },
      { "delegate": "tz1PFeoTuFen8jAMRHajBySNyCwLmY5RqF9M",
        "reception_time": "2022-01-20T23:09:14.878-00:00",
        "included_in_blocks":
          [ "BLKVoVVySYn1hSxXo8WReW1vBwWF4aDuca9tTTKVPKAbgoZhU4g" ] },
      { "delegate": "tz1TcH4Nb3aHNDJ7CGZhU7jgAK1BkSP4Lxds",
        "reception_time": "2022-01-20T23:09:14.685-00:00",
        "included_in_blocks":
          [ "BLKVoVVySYn1hSxXo8WReW1vBwWF4aDuca9tTTKVPKAbgoZhU4g" ] },
      { "delegate": "tz3WMqdzXqRWXwyvj5Hp2H7QEepaUuS7vd9K",
        "reception_time": "2022-01-20T23:09:14.449-00:00",
        "included_in_blocks":
          [ "BLKVoVVySYn1hSxXo8WReW1vBwWF4aDuca9tTTKVPKAbgoZhU4g" ] },
      { "delegate": "tz3NExpXn9aPNZPorRE4SdjJ2RGrfbJgMAaV",
        "reception_time": "2022-01-20T23:09:13.870-00:00",
        "included_in_blocks":
          [ "BLKVoVVySYn1hSxXo8WReW1vBwWF4aDuca9tTTKVPKAbgoZhU4g" ] },
      { "delegate": "tz1dfg9PkvRLf7hKMmGdGRhXWCbd8QgbwBF7",
        "reception_time": "2022-01-20T23:09:13.845-00:00",
        "included_in_blocks":
          [ "BLKVoVVySYn1hSxXo8WReW1vBwWF4aDuca9tTTKVPKAbgoZhU4g" ] },
      { "delegate": "tz1dRKU4FQ9QRRQPdaH4zCR6gmCmXfcvcgtB",
        "reception_time": "2022-01-20T23:09:13.663-00:00",
        "included_in_blocks":
          [ "BLKVoVVySYn1hSxXo8WReW1vBwWF4aDuca9tTTKVPKAbgoZhU4g" ] },
      { "delegate": "tz1aRoaRhSpRYvFdyvgWLL6TGyRoGF51wDjM",
        "reception_time": "2022-01-20T23:09:13.491-00:00",
        "included_in_blocks":
          [ "BLKVoVVySYn1hSxXo8WReW1vBwWF4aDuca9tTTKVPKAbgoZhU4g" ] },
      { "delegate": "tz1T7duV5gZWSTq4YpBGbXNLTfznCLDrFxvs",
        "reception_time": "2022-01-20T23:09:13.409-00:00",
        "included_in_blocks":
          [ "BLKVoVVySYn1hSxXo8WReW1vBwWF4aDuca9tTTKVPKAbgoZhU4g" ] },
      { "delegate": "tz1NEKxGEHsFufk87CVZcrqWu8o22qh46GK6",
        "reception_time": "2022-01-20T23:09:13.294-00:00",
        "included_in_blocks":
          [ "BLKVoVVySYn1hSxXo8WReW1vBwWF4aDuca9tTTKVPKAbgoZhU4g" ] },
      { "delegate": "tz1Q1GmjPwVxjxn81WMHmzdoFGjQDnw691b2",
        "reception_time": "2022-01-20T23:09:13.146-00:00",
        "included_in_blocks":
          [ "BLKVoVVySYn1hSxXo8WReW1vBwWF4aDuca9tTTKVPKAbgoZhU4g" ] },
      { "delegate": "tz1LmaFsWRkjr7QMCx5PtV6xTUz3AmEpKQiF",
        "reception_time": "2022-01-20T23:09:13.116-00:00",
        "included_in_blocks":
          [ "BLKVoVVySYn1hSxXo8WReW1vBwWF4aDuca9tTTKVPKAbgoZhU4g" ] },
      { "delegate": "tz1RjoHc98dBoqaH2jawF62XNKh7YsHwbkEv",
        "reception_time": "2022-01-20T23:09:13.081-00:00",
        "included_in_blocks":
          [ "BLKVoVVySYn1hSxXo8WReW1vBwWF4aDuca9tTTKVPKAbgoZhU4g" ] },
      { "delegate": "tz1cYufsxHXJcvANhvS55h3aY32a9BAFB494",
        "reception_time": "2022-01-20T23:09:13.070-00:00",
        "included_in_blocks":
          [ "BLKVoVVySYn1hSxXo8WReW1vBwWF4aDuca9tTTKVPKAbgoZhU4g" ] },
      { "delegate": "tz3VEZ4k6a4Wx42iyev6i2aVAptTRLEAivNN",
        "reception_time": "2022-01-20T23:09:12.918-00:00",
        "included_in_blocks":
          [ "BLKVoVVySYn1hSxXo8WReW1vBwWF4aDuca9tTTKVPKAbgoZhU4g" ] },
      { "delegate": "tz1f3Re8iw6Pt3KMHAvyccHxDU3NuqL95axD",
        "reception_time": "2022-01-20T23:09:12.905-00:00",
        "included_in_blocks":
          [ "BLKVoVVySYn1hSxXo8WReW1vBwWF4aDuca9tTTKVPKAbgoZhU4g" ] },
      { "delegate": "tz1PeZx7FXy7QRuMREGXGxeipb24RsMMzUNe",
        "reception_time": "2022-01-20T23:09:12.887-00:00",
        "included_in_blocks":
          [ "BLKVoVVySYn1hSxXo8WReW1vBwWF4aDuca9tTTKVPKAbgoZhU4g" ] },
      { "delegate": "tz1Nf6tsK4G6bBqgSQERy4nUtkHNKUVdh7q1",
        "reception_time": "2022-01-20T23:09:12.880-00:00",
        "included_in_blocks":
          [ "BLKVoVVySYn1hSxXo8WReW1vBwWF4aDuca9tTTKVPKAbgoZhU4g" ] },
      { "delegate": "tz3UoffC7FG7zfpmvmjUmUeAaHvzdcUvAj6r",
        "reception_time": "2022-01-20T23:09:12.865-00:00",
        "included_in_blocks":
          [ "BLKVoVVySYn1hSxXo8WReW1vBwWF4aDuca9tTTKVPKAbgoZhU4g" ] },
      { "delegate": "tz1WctSwL49BZtdWAQ75NY6vr4xsAx6oKdah",
        "reception_time": "2022-01-20T23:09:12.795-00:00",
        "included_in_blocks":
          [ "BLKVoVVySYn1hSxXo8WReW1vBwWF4aDuca9tTTKVPKAbgoZhU4g" ] },
      { "delegate": "tz3NDpRj6WBrJPikcPVHRBEjWKxFw3c6eQPS",
        "reception_time": "2022-01-20T23:09:12.764-00:00",
        "included_in_blocks":
          [ "BLKVoVVySYn1hSxXo8WReW1vBwWF4aDuca9tTTKVPKAbgoZhU4g" ] },
      { "delegate": "tz1g8vkmcde6sWKaG2NN9WKzCkDM6Rziq194",
        "reception_time": "2022-01-20T23:09:12.678-00:00",
        "included_in_blocks":
          [ "BLKVoVVySYn1hSxXo8WReW1vBwWF4aDuca9tTTKVPKAbgoZhU4g" ] },
      { "delegate": "tz1RQhNh7iB9CZA7i3ifTWNwiGYVffponfbB",
        "reception_time": "2022-01-20T23:09:12.639-00:00",
        "included_in_blocks":
          [ "BLKVoVVySYn1hSxXo8WReW1vBwWF4aDuca9tTTKVPKAbgoZhU4g" ] },
      { "delegate": "tz1fwnfJNgiDACshK9avfRfFbMaXrs3ghoJa",
        "reception_time": "2022-01-20T23:09:12.592-00:00",
        "included_in_blocks":
          [ "BLKVoVVySYn1hSxXo8WReW1vBwWF4aDuca9tTTKVPKAbgoZhU4g" ] },
      { "delegate": "tz2FCNBrERXtaTtNX6iimR1UJ5JSDxvdHM93",
        "reception_time": "2022-01-20T23:09:12.552-00:00",
        "included_in_blocks":
          [ "BLKVoVVySYn1hSxXo8WReW1vBwWF4aDuca9tTTKVPKAbgoZhU4g" ] },
      { "delegate": "tz1abmz7jiCV2GH2u81LRrGgAFFgvQgiDiaf",
        "reception_time": "2022-01-20T23:09:12.541-00:00",
        "included_in_blocks":
          [ "BLKVoVVySYn1hSxXo8WReW1vBwWF4aDuca9tTTKVPKAbgoZhU4g" ] },
      { "delegate": "tz1ei4WtWEMEJekSv8qDnu9PExG6Q8HgRGr3",
        "reception_time": "2022-01-20T23:09:12.430-00:00",
        "included_in_blocks":
          [ "BLKVoVVySYn1hSxXo8WReW1vBwWF4aDuca9tTTKVPKAbgoZhU4g" ] },
      { "delegate": "tz1dNVDWPf3Q59SdJqnjdnu277iyvReiRS9M",
        "reception_time": "2022-01-20T23:09:12.421-00:00",
        "included_in_blocks":
          [ "BLKVoVVySYn1hSxXo8WReW1vBwWF4aDuca9tTTKVPKAbgoZhU4g" ] },
      { "delegate": "tz1KzSC1J9aBxKp7u8TUnpN8L7S65PBRkgdF",
        "reception_time": "2022-01-20T23:09:12.399-00:00",
        "included_in_blocks":
          [ "BLKVoVVySYn1hSxXo8WReW1vBwWF4aDuca9tTTKVPKAbgoZhU4g" ] },
      { "delegate": "tz1NdhRv643wLW6zCcRP3VfT24dvDnh7nuh9",
        "reception_time": "2022-01-20T23:09:12.393-00:00",
        "included_in_blocks":
          [ "BLKVoVVySYn1hSxXo8WReW1vBwWF4aDuca9tTTKVPKAbgoZhU4g" ] },
      { "delegate": "tz1Tnjaxk6tbAeC2TmMApPh8UsrEVQvhHvx5",
        "reception_time": "2022-01-20T23:09:12.322-00:00",
        "included_in_blocks":
          [ "BLKVoVVySYn1hSxXo8WReW1vBwWF4aDuca9tTTKVPKAbgoZhU4g" ] },
      { "delegate": "tz1WBfwbT66FC6BTLexc2BoyCCBM9LG7pnVW",
        "reception_time": "2022-01-20T23:09:12.308-00:00",
        "included_in_blocks":
          [ "BLKVoVVySYn1hSxXo8WReW1vBwWF4aDuca9tTTKVPKAbgoZhU4g" ] },
      { "delegate": "tz1MQJPGNMijnXnVoBENFz9rUhaPt3S7rWoz",
        "reception_time": "2022-01-20T23:09:12.233-00:00",
        "included_in_blocks":
          [ "BLKVoVVySYn1hSxXo8WReW1vBwWF4aDuca9tTTKVPKAbgoZhU4g" ] },
      { "delegate": "tz1RCFbB9GpALpsZtu6J58sb74dm8qe6XBzv",
        "reception_time": "2022-01-20T23:09:12.216-00:00",
        "included_in_blocks":
          [ "BLKVoVVySYn1hSxXo8WReW1vBwWF4aDuca9tTTKVPKAbgoZhU4g" ] },
      { "delegate": "tz1SYq214SCBy9naR6cvycQsYcUGpBqQAE8d",
        "reception_time": "2022-01-20T23:09:12.159-00:00",
        "included_in_blocks":
          [ "BLKVoVVySYn1hSxXo8WReW1vBwWF4aDuca9tTTKVPKAbgoZhU4g" ] },
      { "delegate": "tz1gfArv665EUkSg2ojMBzcbfwuPxAvqPvjo",
        "reception_time": "2022-01-20T23:09:12.132-00:00",
        "included_in_blocks":
          [ "BLKVoVVySYn1hSxXo8WReW1vBwWF4aDuca9tTTKVPKAbgoZhU4g" ] },
      { "delegate": "tz1MivraUX9U6nmGAQkm7XkrNVmsPExEUT1W",
        "reception_time": "2022-01-20T23:09:12.117-00:00",
        "included_in_blocks":
          [ "BLKVoVVySYn1hSxXo8WReW1vBwWF4aDuca9tTTKVPKAbgoZhU4g" ] },
      { "delegate": "tz3RB4aoyjov4KEVRbuhvQ1CKJgBJMWhaeB8",
        "reception_time": "2022-01-20T23:09:12.082-00:00",
        "included_in_blocks":
          [ "BLKVoVVySYn1hSxXo8WReW1vBwWF4aDuca9tTTKVPKAbgoZhU4g" ] },
      { "delegate": "tz1S8MNvuFEUsWgjHvi3AxibRBf388NhT1q2",
        "reception_time": "2022-01-20T23:09:12.014-00:00",
        "included_in_blocks":
          [ "BLKVoVVySYn1hSxXo8WReW1vBwWF4aDuca9tTTKVPKAbgoZhU4g" ] },
      { "delegate": "tz1d6Fx42mYgVFnHUW8T8A7WBfJ6nD9pVok8",
        "reception_time": "2022-01-20T23:09:11.981-00:00",
        "included_in_blocks":
          [ "BLKVoVVySYn1hSxXo8WReW1vBwWF4aDuca9tTTKVPKAbgoZhU4g" ] },
      { "delegate": "tz3bTdwZinP8U1JmSweNzVKhmwafqWmFWRfk",
        "reception_time": "2022-01-20T23:09:11.788-00:00",
        "included_in_blocks":
          [ "BLKVoVVySYn1hSxXo8WReW1vBwWF4aDuca9tTTKVPKAbgoZhU4g" ] },
      { "delegate": "tz3S6BBeKgJGXxvLyZ1xzXzMPn11nnFtq5L9",
        "reception_time": "2022-01-20T23:09:11.762-00:00",
        "included_in_blocks":
          [ "BLKVoVVySYn1hSxXo8WReW1vBwWF4aDuca9tTTKVPKAbgoZhU4g" ] },
      { "delegate": "tz3adcvQaKXTCg12zbninqo3q8ptKKtDFTLv",
        "reception_time": "2022-01-20T23:09:11.747-00:00",
        "included_in_blocks":
          [ "BLKVoVVySYn1hSxXo8WReW1vBwWF4aDuca9tTTKVPKAbgoZhU4g" ] },
      { "delegate": "tz3QT9dHYKDqh563chVa6za8526ys1UKfRfL",
        "reception_time": "2022-01-20T23:09:11.682-00:00",
        "included_in_blocks":
          [ "BLKVoVVySYn1hSxXo8WReW1vBwWF4aDuca9tTTKVPKAbgoZhU4g" ] },
      { "delegate": "tz1VmiY38m3y95HqQLjMwqnMS7sdMfGomzKi",
        "reception_time": "2022-01-20T23:09:11.601-00:00",
        "included_in_blocks":
          [ "BLKVoVVySYn1hSxXo8WReW1vBwWF4aDuca9tTTKVPKAbgoZhU4g" ] },
      { "delegate": "tz1fPKAtsYydh4f1wfWNfeNxWYu72TmM48fu",
        "reception_time": "2022-01-20T23:09:11.594-00:00",
        "included_in_blocks":
          [ "BLKVoVVySYn1hSxXo8WReW1vBwWF4aDuca9tTTKVPKAbgoZhU4g" ] },
      { "delegate": "tz1MQMiZHV8q4tTwUMWmS5Y3kaP6J2136iXr",
        "reception_time": "2022-01-20T23:09:11.592-00:00",
        "included_in_blocks":
          [ "BLKVoVVySYn1hSxXo8WReW1vBwWF4aDuca9tTTKVPKAbgoZhU4g" ] },
      { "delegate": "tz3QSGPoRp3Kn7n3vY24eYeu3Peuqo45LQ4D",
        "reception_time": "2022-01-20T23:09:11.550-00:00",
        "included_in_blocks":
          [ "BLKVoVVySYn1hSxXo8WReW1vBwWF4aDuca9tTTKVPKAbgoZhU4g" ] },
      { "delegate": "tz3gtoUxdudfBRcNY7iVdKPHCYYX6xdPpoRS",
        "reception_time": "2022-01-20T23:09:11.534-00:00",
        "included_in_blocks":
          [ "BLKVoVVySYn1hSxXo8WReW1vBwWF4aDuca9tTTKVPKAbgoZhU4g" ] },
      { "delegate": "tz1VQnqCCqX4K5sP3FNkVSNKTdCAMJDd3E1n",
        "reception_time": "2022-01-20T23:09:11.506-00:00",
        "included_in_blocks":
          [ "BLKVoVVySYn1hSxXo8WReW1vBwWF4aDuca9tTTKVPKAbgoZhU4g" ] },
      { "delegate": "tz1aXD7Jigrt3PBYSpHSg5Rr33SexMmmM5Ys",
        "reception_time": "2022-01-20T23:09:11.503-00:00",
        "included_in_blocks":
          [ "BLKVoVVySYn1hSxXo8WReW1vBwWF4aDuca9tTTKVPKAbgoZhU4g" ] },
      { "delegate": "tz1WCd2jm4uSt4vntk4vSuUWoZQGhLcDuR9q",
        "reception_time": "2022-01-20T23:09:11.496-00:00",
        "included_in_blocks":
          [ "BLKVoVVySYn1hSxXo8WReW1vBwWF4aDuca9tTTKVPKAbgoZhU4g" ] },
      { "delegate": "tz1gUNyn3hmnEWqkusWPzxRaon1cs7ndWh7h",
        "reception_time": "2022-01-20T23:09:11.496-00:00",
        "included_in_blocks":
          [ "BLKVoVVySYn1hSxXo8WReW1vBwWF4aDuca9tTTKVPKAbgoZhU4g" ] },
      { "delegate": "tz1Ldzz6k1BHdhuKvAtMRX7h5kJSMHESMHLC",
        "reception_time": "2022-01-20T23:09:11.488-00:00",
        "included_in_blocks":
          [ "BLKVoVVySYn1hSxXo8WReW1vBwWF4aDuca9tTTKVPKAbgoZhU4g" ] },
      { "delegate": "tz3iJu5vrKZcsqRPs8yJ61UDoeEXZmtro4qh",
        "reception_time": "2022-01-20T23:09:11.479-00:00",
        "included_in_blocks":
          [ "BLKVoVVySYn1hSxXo8WReW1vBwWF4aDuca9tTTKVPKAbgoZhU4g" ] },
      { "delegate": "tz3Zhs2dygr55yHyQyKjntAtY9bgfhLZ4Xj1",
        "reception_time": "2022-01-20T23:09:11.457-00:00",
        "included_in_blocks":
          [ "BLKVoVVySYn1hSxXo8WReW1vBwWF4aDuca9tTTKVPKAbgoZhU4g" ] },
      { "delegate": "tz3RKYFsLuQzKBtmYuLNas7uMu3AsYd4QdsA",
        "reception_time": "2022-01-20T23:09:11.217-00:00",
        "included_in_blocks":
          [ "BLKVoVVySYn1hSxXo8WReW1vBwWF4aDuca9tTTKVPKAbgoZhU4g" ] },
      { "delegate": "tz3hw2kqXhLUvY65ca1eety2oQTpAvd34R9Q",
        "reception_time": "2022-01-20T23:09:11.202-00:00",
        "included_in_blocks":
          [ "BLKVoVVySYn1hSxXo8WReW1vBwWF4aDuca9tTTKVPKAbgoZhU4g" ] },
      { "delegate": "tz3NxTnke1acr8o3h5y9ytf5awQBGNJUKzVU",
        "reception_time": "2022-01-20T23:09:11.182-00:00",
        "included_in_blocks":
          [ "BLKVoVVySYn1hSxXo8WReW1vBwWF4aDuca9tTTKVPKAbgoZhU4g" ] },
      { "delegate": "tz3ZbP2pM3nwvXztbuMJwJnDvV5xdpU8UkkD",
        "reception_time": "2022-01-20T23:09:11.142-00:00",
        "included_in_blocks":
          [ "BLKVoVVySYn1hSxXo8WReW1vBwWF4aDuca9tTTKVPKAbgoZhU4g" ] },
      { "delegate": "tz1irJKkXS2DBWkU1NnmFQx1c1L7pbGg4yhk",
        "reception_time": "2022-01-20T23:09:10.973-00:00",
        "included_in_blocks":
          [ "BLKVoVVySYn1hSxXo8WReW1vBwWF4aDuca9tTTKVPKAbgoZhU4g" ] },
      { "delegate": "tz1TXzyaKUA8wsWefdSnyaYFnV2M3vCV7er9",
        "reception_time": "2022-01-20T23:09:10.966-00:00",
        "included_in_blocks":
          [ "BLKVoVVySYn1hSxXo8WReW1vBwWF4aDuca9tTTKVPKAbgoZhU4g" ] },
      { "delegate": "tz1Scdr2HsZiQjc7bHMeBbmDRXYVvdhjJbBh",
        "reception_time": "2022-01-20T23:09:10.964-00:00",
        "included_in_blocks":
          [ "BLKVoVVySYn1hSxXo8WReW1vBwWF4aDuca9tTTKVPKAbgoZhU4g" ] },
      { "delegate": "tz1eEnQhbwf6trb8Q8mPb2RaPkNk2rN7BKi8",
        "reception_time": "2022-01-20T23:09:10.962-00:00",
        "included_in_blocks":
          [ "BLKVoVVySYn1hSxXo8WReW1vBwWF4aDuca9tTTKVPKAbgoZhU4g" ] },
      { "delegate": "tz1Lhf4J9Qxoe3DZ2nfe8FGDnvVj7oKjnMY6",
        "reception_time": "2022-01-20T23:09:10.957-00:00",
        "included_in_blocks":
          [ "BLKVoVVySYn1hSxXo8WReW1vBwWF4aDuca9tTTKVPKAbgoZhU4g" ] },
      { "delegate": "tz1P2Po7YM526ughEsRbY4oR9zaUPDZjxFrb",
        "reception_time": "2022-01-20T23:09:10.954-00:00",
        "included_in_blocks":
          [ "BLKVoVVySYn1hSxXo8WReW1vBwWF4aDuca9tTTKVPKAbgoZhU4g" ] },
      { "delegate": "tz1S8e9GgdZG78XJRB3NqabfWeM37GnhZMWQ",
        "reception_time": "2022-01-20T23:09:10.954-00:00",
        "included_in_blocks":
          [ "BLKVoVVySYn1hSxXo8WReW1vBwWF4aDuca9tTTKVPKAbgoZhU4g" ] },
      { "delegate": "tz3RDC3Jdn4j15J7bBHZd29EUee9gVB1CxD9" },
      { "delegate": "tz1awXW7wuXy21c66vBudMXQVAPgRnqqwgTH" },
      { "delegate": "tz1TRqbYbUf2GyrjErf3hBzgBJPzW8y36qEs" },
      { "delegate": "tz1MJx9vhaNRSimcuXPK2rW4fLccQnDAnVKJ" } ] }