{ "blocks":
    [ { "hash": "BKzdnfJwf9SSW5GE1qLMLPGWHMs4ruLpegzZp1yVZo6F9KCraT1",
        "delegate": "tz3e7LbZvUtoXhpUD1yb6wuFodZpfYRb9nWJ",
        "reception_time": "2022-01-21T00:51:27.176-00:00",
        "timestamp": "2022-01-21T00:51:20Z" } ],
  "endorsements":
    [ { "delegate": "tz1S8e9GgdZG78XJRB3NqabfWeM37GnhZMWQ",
        "reception_time": "2022-01-21T00:51:27.056-00:00",
        "errors":
          [ { "kind": "temporary",
              "id": "proto.011-PtHangz2.prefilter.outdated_endorsement" } ],
        "included_in_blocks":
          [ "BMQ1qodHhAsZXN8NJKWSUn6wNDWP111kyP9m4DwtzrE9JtfkCzX" ] },
      { "delegate": "tz1awXW7wuXy21c66vBudMXQVAPgRnqqwgTH" },
      { "delegate": "tz1P2Po7YM526ughEsRbY4oR9zaUPDZjxFrb",
        "reception_time": "2022-01-21T00:51:27.607-00:00",
        "included_in_blocks":
          [ "BMQ1qodHhAsZXN8NJKWSUn6wNDWP111kyP9m4DwtzrE9JtfkCzX" ] },
      { "delegate": "tz1MXFrtZoaXckE41bjUCSjAjAap3AFDSr3N",
        "reception_time": "2022-01-21T00:51:27.703-00:00",
        "included_in_blocks":
          [ "BMQ1qodHhAsZXN8NJKWSUn6wNDWP111kyP9m4DwtzrE9JtfkCzX" ] },
      { "delegate": "tz1eEnQhbwf6trb8Q8mPb2RaPkNk2rN7BKi8",
        "reception_time": "2022-01-21T00:51:27.888-00:00",
        "included_in_blocks":
          [ "BMQ1qodHhAsZXN8NJKWSUn6wNDWP111kyP9m4DwtzrE9JtfkCzX" ] },
      { "delegate": "tz1TXzyaKUA8wsWefdSnyaYFnV2M3vCV7er9",
        "reception_time": "2022-01-21T00:51:27.888-00:00",
        "included_in_blocks":
          [ "BMQ1qodHhAsZXN8NJKWSUn6wNDWP111kyP9m4DwtzrE9JtfkCzX" ] },
      { "delegate": "tz1RV1MBbZMR68tacosb7Mwj6LkbPSUS1er1",
        "reception_time": "2022-01-21T00:51:27.897-00:00",
        "included_in_blocks":
          [ "BMQ1qodHhAsZXN8NJKWSUn6wNDWP111kyP9m4DwtzrE9JtfkCzX" ] },
      { "delegate": "tz1irJKkXS2DBWkU1NnmFQx1c1L7pbGg4yhk",
        "reception_time": "2022-01-21T00:51:27.917-00:00",
        "included_in_blocks":
          [ "BMQ1qodHhAsZXN8NJKWSUn6wNDWP111kyP9m4DwtzrE9JtfkCzX" ] },
      { "delegate": "tz1STeamwbp68THcny9zk3LsbG3H36DMvbRK",
        "reception_time": "2022-01-21T00:51:27.925-00:00",
        "included_in_blocks":
          [ "BMQ1qodHhAsZXN8NJKWSUn6wNDWP111kyP9m4DwtzrE9JtfkCzX" ] },
      { "delegate": "tz3ZbP2pM3nwvXztbuMJwJnDvV5xdpU8UkkD",
        "reception_time": "2022-01-21T00:51:27.930-00:00",
        "included_in_blocks":
          [ "BMQ1qodHhAsZXN8NJKWSUn6wNDWP111kyP9m4DwtzrE9JtfkCzX" ] },
      { "delegate": "tz3NxTnke1acr8o3h5y9ytf5awQBGNJUKzVU",
        "reception_time": "2022-01-21T00:51:27.936-00:00",
        "included_in_blocks":
          [ "BMQ1qodHhAsZXN8NJKWSUn6wNDWP111kyP9m4DwtzrE9JtfkCzX" ] },
      { "delegate": "tz3RKYFsLuQzKBtmYuLNas7uMu3AsYd4QdsA",
        "reception_time": "2022-01-21T00:51:27.943-00:00",
        "included_in_blocks":
          [ "BMQ1qodHhAsZXN8NJKWSUn6wNDWP111kyP9m4DwtzrE9JtfkCzX" ] },
      { "delegate": "tz1TRspM5SeZpaQUhzByXbEvqKF1vnCM2YTK",
        "reception_time": "2022-01-21T00:51:27.946-00:00",
        "included_in_blocks":
          [ "BMQ1qodHhAsZXN8NJKWSUn6wNDWP111kyP9m4DwtzrE9JtfkCzX" ] },
      { "delegate": "tz1XfAjZyaLdceHnZxbMYop7g7kWKPut4PR7",
        "reception_time": "2022-01-21T00:51:27.948-00:00",
        "included_in_blocks":
          [ "BMQ1qodHhAsZXN8NJKWSUn6wNDWP111kyP9m4DwtzrE9JtfkCzX" ] },
      { "delegate": "tz3QSGPoRp3Kn7n3vY24eYeu3Peuqo45LQ4D",
        "reception_time": "2022-01-21T00:51:27.957-00:00",
        "included_in_blocks":
          [ "BMQ1qodHhAsZXN8NJKWSUn6wNDWP111kyP9m4DwtzrE9JtfkCzX" ] },
      { "delegate": "tz3gtoUxdudfBRcNY7iVdKPHCYYX6xdPpoRS",
        "reception_time": "2022-01-21T00:51:27.967-00:00",
        "included_in_blocks":
          [ "BMQ1qodHhAsZXN8NJKWSUn6wNDWP111kyP9m4DwtzrE9JtfkCzX" ] },
      { "delegate": "tz3S6BBeKgJGXxvLyZ1xzXzMPn11nnFtq5L9",
        "reception_time": "2022-01-21T00:51:27.978-00:00",
        "included_in_blocks":
          [ "BMQ1qodHhAsZXN8NJKWSUn6wNDWP111kyP9m4DwtzrE9JtfkCzX" ] },
      { "delegate": "tz3hw2kqXhLUvY65ca1eety2oQTpAvd34R9Q",
        "reception_time": "2022-01-21T00:51:27.994-00:00",
        "included_in_blocks":
          [ "BMQ1qodHhAsZXN8NJKWSUn6wNDWP111kyP9m4DwtzrE9JtfkCzX" ] },
      { "delegate": "tz3Zhs2dygr55yHyQyKjntAtY9bgfhLZ4Xj1",
        "reception_time": "2022-01-21T00:51:28.069-00:00",
        "included_in_blocks":
          [ "BMQ1qodHhAsZXN8NJKWSUn6wNDWP111kyP9m4DwtzrE9JtfkCzX" ] },
      { "delegate": "tz1Ldzz6k1BHdhuKvAtMRX7h5kJSMHESMHLC",
        "reception_time": "2022-01-21T00:51:28.072-00:00",
        "included_in_blocks":
          [ "BMQ1qodHhAsZXN8NJKWSUn6wNDWP111kyP9m4DwtzrE9JtfkCzX" ] },
      { "delegate": "tz3QT9dHYKDqh563chVa6za8526ys1UKfRfL",
        "reception_time": "2022-01-21T00:51:28.133-00:00",
        "included_in_blocks":
          [ "BMQ1qodHhAsZXN8NJKWSUn6wNDWP111kyP9m4DwtzrE9JtfkCzX" ] },
      { "delegate": "tz3iJu5vrKZcsqRPs8yJ61UDoeEXZmtro4qh",
        "reception_time": "2022-01-21T00:51:28.164-00:00",
        "included_in_blocks":
          [ "BMQ1qodHhAsZXN8NJKWSUn6wNDWP111kyP9m4DwtzrE9JtfkCzX" ] },
      { "delegate": "tz1WCd2jm4uSt4vntk4vSuUWoZQGhLcDuR9q",
        "reception_time": "2022-01-21T00:51:28.196-00:00",
        "included_in_blocks":
          [ "BMQ1qodHhAsZXN8NJKWSUn6wNDWP111kyP9m4DwtzrE9JtfkCzX" ] },
      { "delegate": "tz1QLXqnfN51dkjeghXvKHkJfhvGiM5gK4tc",
        "reception_time": "2022-01-21T00:51:28.223-00:00",
        "included_in_blocks":
          [ "BMQ1qodHhAsZXN8NJKWSUn6wNDWP111kyP9m4DwtzrE9JtfkCzX" ] },
      { "delegate": "tz1VmiY38m3y95HqQLjMwqnMS7sdMfGomzKi",
        "reception_time": "2022-01-21T00:51:28.388-00:00",
        "included_in_blocks":
          [ "BMQ1qodHhAsZXN8NJKWSUn6wNDWP111kyP9m4DwtzrE9JtfkCzX" ] },
      { "delegate": "tz1gUNyn3hmnEWqkusWPzxRaon1cs7ndWh7h",
        "reception_time": "2022-01-21T00:51:28.408-00:00",
        "included_in_blocks":
          [ "BMQ1qodHhAsZXN8NJKWSUn6wNDWP111kyP9m4DwtzrE9JtfkCzX" ] },
      { "delegate": "tz1UJvHTgpVzcKWhTazGxVcn5wsHru5Gietg",
        "reception_time": "2022-01-21T00:51:28.414-00:00",
        "included_in_blocks":
          [ "BMQ1qodHhAsZXN8NJKWSUn6wNDWP111kyP9m4DwtzrE9JtfkCzX" ] },
      { "delegate": "tz1VQnqCCqX4K5sP3FNkVSNKTdCAMJDd3E1n",
        "reception_time": "2022-01-21T00:51:28.427-00:00",
        "included_in_blocks":
          [ "BMQ1qodHhAsZXN8NJKWSUn6wNDWP111kyP9m4DwtzrE9JtfkCzX" ] },
      { "delegate": "tz1SUgyRB8T5jXgXAwS33pgRHAKrafyg87Yc",
        "reception_time": "2022-01-21T00:51:28.512-00:00",
        "included_in_blocks":
          [ "BMQ1qodHhAsZXN8NJKWSUn6wNDWP111kyP9m4DwtzrE9JtfkCzX" ] },
      { "delegate": "tz3bTdwZinP8U1JmSweNzVKhmwafqWmFWRfk",
        "reception_time": "2022-01-21T00:51:28.534-00:00",
        "included_in_blocks":
          [ "BMQ1qodHhAsZXN8NJKWSUn6wNDWP111kyP9m4DwtzrE9JtfkCzX" ] },
      { "delegate": "tz1fUjvVhJrHLZCbhPNvDRckxApqbkievJHN",
        "reception_time": "2022-01-21T00:51:28.608-00:00",
        "included_in_blocks":
          [ "BMQ1qodHhAsZXN8NJKWSUn6wNDWP111kyP9m4DwtzrE9JtfkCzX" ] },
      { "delegate": "tz1RCFbB9GpALpsZtu6J58sb74dm8qe6XBzv",
        "reception_time": "2022-01-21T00:51:28.647-00:00",
        "included_in_blocks":
          [ "BMQ1qodHhAsZXN8NJKWSUn6wNDWP111kyP9m4DwtzrE9JtfkCzX" ] },
      { "delegate": "tz3RB4aoyjov4KEVRbuhvQ1CKJgBJMWhaeB8",
        "reception_time": "2022-01-21T00:51:28.669-00:00",
        "included_in_blocks":
          [ "BMQ1qodHhAsZXN8NJKWSUn6wNDWP111kyP9m4DwtzrE9JtfkCzX" ] },
      { "delegate": "tz1NortRftucvAkD1J58L32EhSVrQEWJCEnB",
        "reception_time": "2022-01-21T00:51:28.693-00:00",
        "included_in_blocks":
          [ "BMQ1qodHhAsZXN8NJKWSUn6wNDWP111kyP9m4DwtzrE9JtfkCzX" ] },
      { "delegate": "tz1gfArv665EUkSg2ojMBzcbfwuPxAvqPvjo",
        "reception_time": "2022-01-21T00:51:28.768-00:00",
        "included_in_blocks":
          [ "BMQ1qodHhAsZXN8NJKWSUn6wNDWP111kyP9m4DwtzrE9JtfkCzX" ] },
      { "delegate": "tz1MGTFJXpQmtxLi8QJ7AuVRgM2L2Qfn9w9i",
        "reception_time": "2022-01-21T00:51:28.858-00:00",
        "included_in_blocks":
          [ "BMQ1qodHhAsZXN8NJKWSUn6wNDWP111kyP9m4DwtzrE9JtfkCzX" ] },
      { "delegate": "tz1abmz7jiCV2GH2u81LRrGgAFFgvQgiDiaf",
        "reception_time": "2022-01-21T00:51:28.891-00:00",
        "included_in_blocks":
          [ "BMQ1qodHhAsZXN8NJKWSUn6wNDWP111kyP9m4DwtzrE9JtfkCzX" ] },
      { "delegate": "tz1MQJPGNMijnXnVoBENFz9rUhaPt3S7rWoz",
        "reception_time": "2022-01-21T00:51:28.909-00:00",
        "included_in_blocks":
          [ "BMQ1qodHhAsZXN8NJKWSUn6wNDWP111kyP9m4DwtzrE9JtfkCzX" ] },
      { "delegate": "tz1S8MNvuFEUsWgjHvi3AxibRBf388NhT1q2",
        "reception_time": "2022-01-21T00:51:28.927-00:00",
        "included_in_blocks":
          [ "BMQ1qodHhAsZXN8NJKWSUn6wNDWP111kyP9m4DwtzrE9JtfkCzX" ] },
      { "delegate": "tz1g8vkmcde6sWKaG2NN9WKzCkDM6Rziq194",
        "reception_time": "2022-01-21T00:51:28.933-00:00",
        "included_in_blocks":
          [ "BMQ1qodHhAsZXN8NJKWSUn6wNDWP111kyP9m4DwtzrE9JtfkCzX" ] },
      { "delegate": "tz1PWCDnz783NNGGQjEFFsHtrcK5yBW4E2rm",
        "reception_time": "2022-01-21T00:51:28.937-00:00",
        "included_in_blocks":
          [ "BMQ1qodHhAsZXN8NJKWSUn6wNDWP111kyP9m4DwtzrE9JtfkCzX" ] },
      { "delegate": "tz1WBfwbT66FC6BTLexc2BoyCCBM9LG7pnVW",
        "reception_time": "2022-01-21T00:51:29.040-00:00",
        "included_in_blocks":
          [ "BMQ1qodHhAsZXN8NJKWSUn6wNDWP111kyP9m4DwtzrE9JtfkCzX" ] },
      { "delegate": "tz1ei4WtWEMEJekSv8qDnu9PExG6Q8HgRGr3",
        "reception_time": "2022-01-21T00:51:29.092-00:00",
        "included_in_blocks":
          [ "BMQ1qodHhAsZXN8NJKWSUn6wNDWP111kyP9m4DwtzrE9JtfkCzX" ] },
      { "delegate": "tz3NDpRj6WBrJPikcPVHRBEjWKxFw3c6eQPS",
        "reception_time": "2022-01-21T00:51:29.143-00:00",
        "included_in_blocks":
          [ "BMQ1qodHhAsZXN8NJKWSUn6wNDWP111kyP9m4DwtzrE9JtfkCzX" ] },
      { "delegate": "tz1V4qCyvPKZ5UeqdH14HN42rxvNPQfc9UZg",
        "reception_time": "2022-01-21T00:51:29.159-00:00",
        "included_in_blocks":
          [ "BMQ1qodHhAsZXN8NJKWSUn6wNDWP111kyP9m4DwtzrE9JtfkCzX" ] },
      { "delegate": "tz1RQhNh7iB9CZA7i3ifTWNwiGYVffponfbB",
        "reception_time": "2022-01-21T00:51:29.161-00:00",
        "included_in_blocks":
          [ "BMQ1qodHhAsZXN8NJKWSUn6wNDWP111kyP9m4DwtzrE9JtfkCzX" ] },
      { "delegate": "tz1dNVDWPf3Q59SdJqnjdnu277iyvReiRS9M",
        "reception_time": "2022-01-21T00:51:29.164-00:00",
        "included_in_blocks":
          [ "BMQ1qodHhAsZXN8NJKWSUn6wNDWP111kyP9m4DwtzrE9JtfkCzX" ] },
      { "delegate": "tz1LmaFsWRkjr7QMCx5PtV6xTUz3AmEpKQiF",
        "reception_time": "2022-01-21T00:51:29.198-00:00",
        "included_in_blocks":
          [ "BMQ1qodHhAsZXN8NJKWSUn6wNDWP111kyP9m4DwtzrE9JtfkCzX" ] },
      { "delegate": "tz3gLTu4Yxj8tPAcriQVUdxv6BY9QyvzU1az",
        "reception_time": "2022-01-21T00:51:29.208-00:00",
        "included_in_blocks":
          [ "BMQ1qodHhAsZXN8NJKWSUn6wNDWP111kyP9m4DwtzrE9JtfkCzX" ] },
      { "delegate": "tz1Tnjaxk6tbAeC2TmMApPh8UsrEVQvhHvx5",
        "reception_time": "2022-01-21T00:51:29.271-00:00",
        "included_in_blocks":
          [ "BMQ1qodHhAsZXN8NJKWSUn6wNDWP111kyP9m4DwtzrE9JtfkCzX" ] },
      { "delegate": "tz1R4PuhxUxBBZhfLJDx2nNjbr7WorAPX1oC",
        "reception_time": "2022-01-21T00:51:29.295-00:00",
        "included_in_blocks":
          [ "BMQ1qodHhAsZXN8NJKWSUn6wNDWP111kyP9m4DwtzrE9JtfkCzX" ] },
      { "delegate": "tz1TEc75UKXv4W5cwi14Na3NtqFD51yKQi7h",
        "reception_time": "2022-01-21T00:51:29.337-00:00",
        "included_in_blocks":
          [ "BMQ1qodHhAsZXN8NJKWSUn6wNDWP111kyP9m4DwtzrE9JtfkCzX" ] },
      { "delegate": "tz3UoffC7FG7zfpmvmjUmUeAaHvzdcUvAj6r",
        "reception_time": "2022-01-21T00:51:29.403-00:00",
        "included_in_blocks":
          [ "BMQ1qodHhAsZXN8NJKWSUn6wNDWP111kyP9m4DwtzrE9JtfkCzX" ] },
      { "delegate": "tz2FCNBrERXtaTtNX6iimR1UJ5JSDxvdHM93",
        "reception_time": "2022-01-21T00:51:29.454-00:00",
        "included_in_blocks":
          [ "BMQ1qodHhAsZXN8NJKWSUn6wNDWP111kyP9m4DwtzrE9JtfkCzX" ] },
      { "delegate": "tz1KfEsrtDaA1sX7vdM4qmEPWuSytuqCDp5j",
        "reception_time": "2022-01-21T00:51:29.479-00:00",
        "included_in_blocks":
          [ "BMQ1qodHhAsZXN8NJKWSUn6wNDWP111kyP9m4DwtzrE9JtfkCzX" ] },
      { "delegate": "tz1Nf6tsK4G6bBqgSQERy4nUtkHNKUVdh7q1",
        "reception_time": "2022-01-21T00:51:29.610-00:00",
        "included_in_blocks":
          [ "BMQ1qodHhAsZXN8NJKWSUn6wNDWP111kyP9m4DwtzrE9JtfkCzX" ] },
      { "delegate": "tz1SYq214SCBy9naR6cvycQsYcUGpBqQAE8d",
        "reception_time": "2022-01-21T00:51:29.798-00:00",
        "included_in_blocks":
          [ "BMQ1qodHhAsZXN8NJKWSUn6wNDWP111kyP9m4DwtzrE9JtfkCzX" ] },
      { "delegate": "tz3RDC3Jdn4j15J7bBHZd29EUee9gVB1CxD9",
        "reception_time": "2022-01-21T00:51:29.899-00:00",
        "included_in_blocks":
          [ "BMQ1qodHhAsZXN8NJKWSUn6wNDWP111kyP9m4DwtzrE9JtfkCzX" ] },
      { "delegate": "tz3bvNMQ95vfAYtG8193ymshqjSvmxiCUuR5",
        "reception_time": "2022-01-21T00:51:29.934-00:00",
        "included_in_blocks":
          [ "BMQ1qodHhAsZXN8NJKWSUn6wNDWP111kyP9m4DwtzrE9JtfkCzX" ] },
      { "delegate": "tz3WMqdzXqRWXwyvj5Hp2H7QEepaUuS7vd9K",
        "reception_time": "2022-01-21T00:51:29.964-00:00",
        "included_in_blocks":
          [ "BMQ1qodHhAsZXN8NJKWSUn6wNDWP111kyP9m4DwtzrE9JtfkCzX" ] },
      { "delegate": "tz1cYufsxHXJcvANhvS55h3aY32a9BAFB494",
        "reception_time": "2022-01-21T00:51:30.012-00:00",
        "included_in_blocks":
          [ "BMQ1qodHhAsZXN8NJKWSUn6wNDWP111kyP9m4DwtzrE9JtfkCzX" ] },
      { "delegate": "tz3VEZ4k6a4Wx42iyev6i2aVAptTRLEAivNN",
        "reception_time": "2022-01-21T00:51:30.024-00:00",
        "included_in_blocks":
          [ "BMQ1qodHhAsZXN8NJKWSUn6wNDWP111kyP9m4DwtzrE9JtfkCzX" ] },
      { "delegate": "tz1RjoHc98dBoqaH2jawF62XNKh7YsHwbkEv",
        "reception_time": "2022-01-21T00:51:30.043-00:00",
        "included_in_blocks":
          [ "BMQ1qodHhAsZXN8NJKWSUn6wNDWP111kyP9m4DwtzrE9JtfkCzX" ] },
      { "delegate": "tz1NEKxGEHsFufk87CVZcrqWu8o22qh46GK6",
        "reception_time": "2022-01-21T00:51:30.155-00:00",
        "included_in_blocks":
          [ "BMQ1qodHhAsZXN8NJKWSUn6wNDWP111kyP9m4DwtzrE9JtfkCzX" ] },
      { "delegate": "tz1M1gA1hgmmLf8VvtAwupbWCkaciQZMFbvi",
        "reception_time": "2022-01-21T00:51:30.168-00:00",
        "included_in_blocks":
          [ "BMQ1qodHhAsZXN8NJKWSUn6wNDWP111kyP9m4DwtzrE9JtfkCzX" ] },
      { "delegate": "tz1Zdk8q7wNasmv7VFeQ6QFwcw5fP2c7StoF",
        "reception_time": "2022-01-21T00:51:30.224-00:00",
        "included_in_blocks":
          [ "BMQ1qodHhAsZXN8NJKWSUn6wNDWP111kyP9m4DwtzrE9JtfkCzX" ] },
      { "delegate": "tz1aRoaRhSpRYvFdyvgWLL6TGyRoGF51wDjM",
        "reception_time": "2022-01-21T00:51:30.257-00:00",
        "included_in_blocks":
          [ "BMQ1qodHhAsZXN8NJKWSUn6wNDWP111kyP9m4DwtzrE9JtfkCzX" ] },
      { "delegate": "tz1dRKU4FQ9QRRQPdaH4zCR6gmCmXfcvcgtB",
        "reception_time": "2022-01-21T00:51:30.367-00:00",
        "included_in_blocks":
          [ "BMQ1qodHhAsZXN8NJKWSUn6wNDWP111kyP9m4DwtzrE9JtfkCzX" ] },
      { "delegate": "tz1T7duV5gZWSTq4YpBGbXNLTfznCLDrFxvs",
        "reception_time": "2022-01-21T00:51:30.578-00:00",
        "included_in_blocks":
          [ "BMQ1qodHhAsZXN8NJKWSUn6wNDWP111kyP9m4DwtzrE9JtfkCzX" ] },
      { "delegate": "tz1XhnCdVENzgko5x1MMswLHSoQbJ5NPwLZ6",
        "reception_time": "2022-01-21T00:51:30.650-00:00",
        "included_in_blocks":
          [ "BMQ1qodHhAsZXN8NJKWSUn6wNDWP111kyP9m4DwtzrE9JtfkCzX" ] },
      { "delegate": "tz3NExpXn9aPNZPorRE4SdjJ2RGrfbJgMAaV",
        "reception_time": "2022-01-21T00:51:30.729-00:00",
        "included_in_blocks":
          [ "BMQ1qodHhAsZXN8NJKWSUn6wNDWP111kyP9m4DwtzrE9JtfkCzX" ] },
      { "delegate": "tz1PFeoTuFen8jAMRHajBySNyCwLmY5RqF9M",
        "reception_time": "2022-01-21T00:51:31.238-00:00",
        "included_in_blocks":
          [ "BMQ1qodHhAsZXN8NJKWSUn6wNDWP111kyP9m4DwtzrE9JtfkCzX" ] },
      { "delegate": "tz1eVaNx3gCmG1EsLjijkmgAxdLYVf6Bf5Sq",
        "reception_time": "2022-01-21T00:51:31.882-00:00",
        "included_in_blocks":
          [ "BMQ1qodHhAsZXN8NJKWSUn6wNDWP111kyP9m4DwtzrE9JtfkCzX" ] } ] }