{ "blocks":
    [ { "hash": "BMQNU9FeapPNLDk8y1yXFsAmKemWTq7YAP1W6fEJn7sGKqCaDrB",
        "delegate": "tz1dRKU4FQ9QRRQPdaH4zCR6gmCmXfcvcgtB",
        "reception_time": "2022-01-20T21:59:09.920-00:00",
        "timestamp": "2022-01-20T21:59:00Z" } ],
  "endorsements":
    [ { "delegate": "tz1RV1MBbZMR68tacosb7Mwj6LkbPSUS1er1",
        "reception_time": "2022-01-20T21:59:09.922-00:00",
        "errors":
          [ { "kind": "temporary",
              "id": "proto.011-PtHangz2.prefilter.outdated_endorsement" } ],
        "included_in_blocks":
          [ "BLs6QKxae1Y4mFUUT8QVjdCmfND5recfKJ27aCdkamGHSrtRxRp" ] },
      { "delegate": "tz1Kf25fX1VdmYGSEzwFy1wNmkbSEZ2V83sY",
        "reception_time": "2022-01-20T21:59:09.922-00:00",
        "errors":
          [ { "kind": "temporary",
              "id": "proto.011-PtHangz2.prefilter.outdated_endorsement" } ],
        "included_in_blocks":
          [ "BLs6QKxae1Y4mFUUT8QVjdCmfND5recfKJ27aCdkamGHSrtRxRp" ] },
      { "delegate": "tz1VmiY38m3y95HqQLjMwqnMS7sdMfGomzKi",
        "reception_time": "2022-01-20T21:59:09.855-00:00",
        "errors":
          [ { "kind": "temporary",
              "id": "proto.011-PtHangz2.prefilter.outdated_endorsement" } ],
        "included_in_blocks":
          [ "BLs6QKxae1Y4mFUUT8QVjdCmfND5recfKJ27aCdkamGHSrtRxRp" ] },
      { "delegate": "tz1beersuEDv8Z7ngQ825xfbaJNS2EhXnyHR",
        "reception_time": "2022-01-20T21:59:09.743-00:00",
        "errors":
          [ { "kind": "temporary",
              "id": "proto.011-PtHangz2.prefilter.outdated_endorsement" } ],
        "included_in_blocks":
          [ "BLs6QKxae1Y4mFUUT8QVjdCmfND5recfKJ27aCdkamGHSrtRxRp" ] },
      { "delegate": "tz1irJKkXS2DBWkU1NnmFQx1c1L7pbGg4yhk",
        "reception_time": "2022-01-20T21:59:09.721-00:00",
        "errors":
          [ { "kind": "temporary",
              "id": "proto.011-PtHangz2.prefilter.outdated_endorsement" } ],
        "included_in_blocks":
          [ "BLs6QKxae1Y4mFUUT8QVjdCmfND5recfKJ27aCdkamGHSrtRxRp" ] },
      { "delegate": "tz1PWCDnz783NNGGQjEFFsHtrcK5yBW4E2rm",
        "reception_time": "2022-01-20T21:59:09.599-00:00",
        "errors":
          [ { "kind": "temporary",
              "id": "proto.011-PtHangz2.prefilter.outdated_endorsement" } ],
        "included_in_blocks":
          [ "BLs6QKxae1Y4mFUUT8QVjdCmfND5recfKJ27aCdkamGHSrtRxRp" ] },
      { "delegate": "tz1Kt4P8BCaP93AEV4eA7gmpRryWt5hznjCP",
        "reception_time": "2022-01-20T21:59:09.583-00:00",
        "errors":
          [ { "kind": "temporary",
              "id": "proto.011-PtHangz2.prefilter.outdated_endorsement" } ],
        "included_in_blocks":
          [ "BLs6QKxae1Y4mFUUT8QVjdCmfND5recfKJ27aCdkamGHSrtRxRp" ] },
      { "delegate": "tz1aXD7Jigrt3PBYSpHSg5Rr33SexMmmM5Ys",
        "reception_time": "2022-01-20T21:59:09.533-00:00",
        "errors":
          [ { "kind": "temporary",
              "id": "proto.011-PtHangz2.prefilter.outdated_endorsement" } ],
        "included_in_blocks":
          [ "BLs6QKxae1Y4mFUUT8QVjdCmfND5recfKJ27aCdkamGHSrtRxRp" ] },
      { "delegate": "tz1P2Po7YM526ughEsRbY4oR9zaUPDZjxFrb",
        "reception_time": "2022-01-20T21:59:09.376-00:00",
        "errors":
          [ { "kind": "temporary",
              "id": "proto.011-PtHangz2.prefilter.outdated_endorsement" } ],
        "included_in_blocks":
          [ "BLs6QKxae1Y4mFUUT8QVjdCmfND5recfKJ27aCdkamGHSrtRxRp" ] },
      { "delegate": "tz1S8e9GgdZG78XJRB3NqabfWeM37GnhZMWQ",
        "reception_time": "2022-01-20T21:59:08.919-00:00",
        "errors":
          [ { "kind": "temporary",
              "id": "proto.011-PtHangz2.prefilter.outdated_endorsement" } ],
        "included_in_blocks":
          [ "BLs6QKxae1Y4mFUUT8QVjdCmfND5recfKJ27aCdkamGHSrtRxRp" ] },
      { "delegate": "tz1MJx9vhaNRSimcuXPK2rW4fLccQnDAnVKJ" },
      { "delegate": "tz1TRqbYbUf2GyrjErf3hBzgBJPzW8y36qEs" },
      { "delegate": "tz1TeWzSWBNZ7PB6Kb6xUpGCT7pu13PFv3cv" },
      { "delegate": "tz1awXW7wuXy21c66vBudMXQVAPgRnqqwgTH" },
      { "delegate": "tz1ibcPVGK4Y8pcW4BYUsojiHoBKnZbyDGrX" },
      { "delegate": "tz1eEnQhbwf6trb8Q8mPb2RaPkNk2rN7BKi8",
        "reception_time": "2022-01-20T21:59:11.086-00:00",
        "included_in_blocks":
          [ "BLs6QKxae1Y4mFUUT8QVjdCmfND5recfKJ27aCdkamGHSrtRxRp" ] },
      { "delegate": "tz1ZPh7XfUaJXUDvkrBxmS1BjEM1i62hiPpM",
        "reception_time": "2022-01-20T21:59:11.092-00:00",
        "included_in_blocks":
          [ "BLs6QKxae1Y4mFUUT8QVjdCmfND5recfKJ27aCdkamGHSrtRxRp" ] },
      { "delegate": "tz1Ldzz6k1BHdhuKvAtMRX7h5kJSMHESMHLC",
        "reception_time": "2022-01-20T21:59:11.094-00:00",
        "included_in_blocks":
          [ "BLs6QKxae1Y4mFUUT8QVjdCmfND5recfKJ27aCdkamGHSrtRxRp" ] },
      { "delegate": "tz1W3VYi3gSt9Xgfw6WNV1aGZRPH2BsskMEY",
        "reception_time": "2022-01-20T21:59:11.097-00:00",
        "included_in_blocks":
          [ "BLs6QKxae1Y4mFUUT8QVjdCmfND5recfKJ27aCdkamGHSrtRxRp" ] },
      { "delegate": "tz1fPKAtsYydh4f1wfWNfeNxWYu72TmM48fu",
        "reception_time": "2022-01-20T21:59:11.106-00:00",
        "included_in_blocks":
          [ "BLs6QKxae1Y4mFUUT8QVjdCmfND5recfKJ27aCdkamGHSrtRxRp" ] },
      { "delegate": "tz1WCd2jm4uSt4vntk4vSuUWoZQGhLcDuR9q",
        "reception_time": "2022-01-20T21:59:11.106-00:00",
        "included_in_blocks":
          [ "BLs6QKxae1Y4mFUUT8QVjdCmfND5recfKJ27aCdkamGHSrtRxRp" ] },
      { "delegate": "tz1UJvHTgpVzcKWhTazGxVcn5wsHru5Gietg",
        "reception_time": "2022-01-20T21:59:11.109-00:00",
        "included_in_blocks":
          [ "BLs6QKxae1Y4mFUUT8QVjdCmfND5recfKJ27aCdkamGHSrtRxRp" ] },
      { "delegate": "tz3hw2kqXhLUvY65ca1eety2oQTpAvd34R9Q",
        "reception_time": "2022-01-20T21:59:11.116-00:00",
        "included_in_blocks":
          [ "BLs6QKxae1Y4mFUUT8QVjdCmfND5recfKJ27aCdkamGHSrtRxRp" ] },
      { "delegate": "tz3RKYFsLuQzKBtmYuLNas7uMu3AsYd4QdsA",
        "reception_time": "2022-01-20T21:59:11.126-00:00",
        "included_in_blocks":
          [ "BLs6QKxae1Y4mFUUT8QVjdCmfND5recfKJ27aCdkamGHSrtRxRp" ] },
      { "delegate": "tz1gUNyn3hmnEWqkusWPzxRaon1cs7ndWh7h",
        "reception_time": "2022-01-20T21:59:11.126-00:00",
        "included_in_blocks":
          [ "BLs6QKxae1Y4mFUUT8QVjdCmfND5recfKJ27aCdkamGHSrtRxRp" ] },
      { "delegate": "tz1iZEKy4LaAjnTmn2RuGDf2iqdAQKnRi8kY",
        "reception_time": "2022-01-20T21:59:11.131-00:00",
        "included_in_blocks":
          [ "BLs6QKxae1Y4mFUUT8QVjdCmfND5recfKJ27aCdkamGHSrtRxRp" ] },
      { "delegate": "tz1VQnqCCqX4K5sP3FNkVSNKTdCAMJDd3E1n",
        "reception_time": "2022-01-20T21:59:11.132-00:00",
        "included_in_blocks":
          [ "BLs6QKxae1Y4mFUUT8QVjdCmfND5recfKJ27aCdkamGHSrtRxRp" ] },
      { "delegate": "tz1gfArv665EUkSg2ojMBzcbfwuPxAvqPvjo",
        "reception_time": "2022-01-20T21:59:11.139-00:00",
        "included_in_blocks":
          [ "BLs6QKxae1Y4mFUUT8QVjdCmfND5recfKJ27aCdkamGHSrtRxRp" ] },
      { "delegate": "tz1ei4WtWEMEJekSv8qDnu9PExG6Q8HgRGr3",
        "reception_time": "2022-01-20T21:59:11.139-00:00",
        "included_in_blocks":
          [ "BLs6QKxae1Y4mFUUT8QVjdCmfND5recfKJ27aCdkamGHSrtRxRp" ] },
      { "delegate": "tz1LnWa4AiFCjMezTgSNa65QFoo7DQGEWgEU",
        "reception_time": "2022-01-20T21:59:11.160-00:00",
        "included_in_blocks":
          [ "BLs6QKxae1Y4mFUUT8QVjdCmfND5recfKJ27aCdkamGHSrtRxRp" ] },
      { "delegate": "tz3RB4aoyjov4KEVRbuhvQ1CKJgBJMWhaeB8",
        "reception_time": "2022-01-20T21:59:11.169-00:00",
        "included_in_blocks":
          [ "BLs6QKxae1Y4mFUUT8QVjdCmfND5recfKJ27aCdkamGHSrtRxRp" ] },
      { "delegate": "tz1fb7c66UwePkkfDXz4ajFaBP9hVNLdS7JJ",
        "reception_time": "2022-01-20T21:59:11.171-00:00",
        "included_in_blocks":
          [ "BLs6QKxae1Y4mFUUT8QVjdCmfND5recfKJ27aCdkamGHSrtRxRp" ] },
      { "delegate": "tz1MQJPGNMijnXnVoBENFz9rUhaPt3S7rWoz",
        "reception_time": "2022-01-20T21:59:11.176-00:00",
        "included_in_blocks":
          [ "BLs6QKxae1Y4mFUUT8QVjdCmfND5recfKJ27aCdkamGHSrtRxRp" ] },
      { "delegate": "tz1ajgycuHmd2z2JbTSJxKv7x6cok2KuNSk1",
        "reception_time": "2022-01-20T21:59:11.180-00:00",
        "included_in_blocks":
          [ "BLs6QKxae1Y4mFUUT8QVjdCmfND5recfKJ27aCdkamGHSrtRxRp" ] },
      { "delegate": "tz3adcvQaKXTCg12zbninqo3q8ptKKtDFTLv",
        "reception_time": "2022-01-20T21:59:11.199-00:00",
        "included_in_blocks":
          [ "BLs6QKxae1Y4mFUUT8QVjdCmfND5recfKJ27aCdkamGHSrtRxRp" ] },
      { "delegate": "tz1g8vkmcde6sWKaG2NN9WKzCkDM6Rziq194",
        "reception_time": "2022-01-20T21:59:11.267-00:00",
        "included_in_blocks":
          [ "BLs6QKxae1Y4mFUUT8QVjdCmfND5recfKJ27aCdkamGHSrtRxRp" ] },
      { "delegate": "tz1Nf6tsK4G6bBqgSQERy4nUtkHNKUVdh7q1",
        "reception_time": "2022-01-20T21:59:11.270-00:00",
        "included_in_blocks":
          [ "BLs6QKxae1Y4mFUUT8QVjdCmfND5recfKJ27aCdkamGHSrtRxRp" ] },
      { "delegate": "tz3ZbP2pM3nwvXztbuMJwJnDvV5xdpU8UkkD",
        "reception_time": "2022-01-20T21:59:11.324-00:00",
        "included_in_blocks":
          [ "BLs6QKxae1Y4mFUUT8QVjdCmfND5recfKJ27aCdkamGHSrtRxRp" ] },
      { "delegate": "tz3S6BBeKgJGXxvLyZ1xzXzMPn11nnFtq5L9",
        "reception_time": "2022-01-20T21:59:11.331-00:00",
        "included_in_blocks":
          [ "BLs6QKxae1Y4mFUUT8QVjdCmfND5recfKJ27aCdkamGHSrtRxRp" ] },
      { "delegate": "tz3NxTnke1acr8o3h5y9ytf5awQBGNJUKzVU",
        "reception_time": "2022-01-20T21:59:11.346-00:00",
        "included_in_blocks":
          [ "BLs6QKxae1Y4mFUUT8QVjdCmfND5recfKJ27aCdkamGHSrtRxRp" ] },
      { "delegate": "tz3QT9dHYKDqh563chVa6za8526ys1UKfRfL",
        "reception_time": "2022-01-20T21:59:11.352-00:00",
        "included_in_blocks":
          [ "BLs6QKxae1Y4mFUUT8QVjdCmfND5recfKJ27aCdkamGHSrtRxRp" ] },
      { "delegate": "tz1UMCB2AHSTwG7YcGNr31CqYCtGN873royv",
        "reception_time": "2022-01-20T21:59:11.355-00:00",
        "included_in_blocks":
          [ "BLs6QKxae1Y4mFUUT8QVjdCmfND5recfKJ27aCdkamGHSrtRxRp" ] },
      { "delegate": "tz3bTdwZinP8U1JmSweNzVKhmwafqWmFWRfk",
        "reception_time": "2022-01-20T21:59:11.449-00:00",
        "included_in_blocks":
          [ "BLs6QKxae1Y4mFUUT8QVjdCmfND5recfKJ27aCdkamGHSrtRxRp" ] },
      { "delegate": "tz3UoffC7FG7zfpmvmjUmUeAaHvzdcUvAj6r",
        "reception_time": "2022-01-20T21:59:11.481-00:00",
        "included_in_blocks":
          [ "BLs6QKxae1Y4mFUUT8QVjdCmfND5recfKJ27aCdkamGHSrtRxRp" ] },
      { "delegate": "tz1S8MNvuFEUsWgjHvi3AxibRBf388NhT1q2",
        "reception_time": "2022-01-20T21:59:11.485-00:00",
        "included_in_blocks":
          [ "BLs6QKxae1Y4mFUUT8QVjdCmfND5recfKJ27aCdkamGHSrtRxRp" ] },
      { "delegate": "tz1NortRftucvAkD1J58L32EhSVrQEWJCEnB",
        "reception_time": "2022-01-20T21:59:11.489-00:00",
        "included_in_blocks":
          [ "BLs6QKxae1Y4mFUUT8QVjdCmfND5recfKJ27aCdkamGHSrtRxRp" ] },
      { "delegate": "tz1Tnjaxk6tbAeC2TmMApPh8UsrEVQvhHvx5",
        "reception_time": "2022-01-20T21:59:11.518-00:00",
        "included_in_blocks":
          [ "BLs6QKxae1Y4mFUUT8QVjdCmfND5recfKJ27aCdkamGHSrtRxRp" ] },
      { "delegate": "tz1LmaFsWRkjr7QMCx5PtV6xTUz3AmEpKQiF",
        "reception_time": "2022-01-20T21:59:11.522-00:00",
        "included_in_blocks":
          [ "BLs6QKxae1Y4mFUUT8QVjdCmfND5recfKJ27aCdkamGHSrtRxRp" ] },
      { "delegate": "tz1dRKU4FQ9QRRQPdaH4zCR6gmCmXfcvcgtB",
        "reception_time": "2022-01-20T21:59:11.585-00:00",
        "included_in_blocks":
          [ "BLs6QKxae1Y4mFUUT8QVjdCmfND5recfKJ27aCdkamGHSrtRxRp" ] },
      { "delegate": "tz1SUgyRB8T5jXgXAwS33pgRHAKrafyg87Yc",
        "reception_time": "2022-01-20T21:59:11.605-00:00",
        "included_in_blocks":
          [ "BLs6QKxae1Y4mFUUT8QVjdCmfND5recfKJ27aCdkamGHSrtRxRp" ] },
      { "delegate": "tz3QSGPoRp3Kn7n3vY24eYeu3Peuqo45LQ4D",
        "reception_time": "2022-01-20T21:59:11.624-00:00",
        "included_in_blocks":
          [ "BLs6QKxae1Y4mFUUT8QVjdCmfND5recfKJ27aCdkamGHSrtRxRp" ] },
      { "delegate": "tz3gtoUxdudfBRcNY7iVdKPHCYYX6xdPpoRS",
        "reception_time": "2022-01-20T21:59:11.637-00:00",
        "included_in_blocks":
          [ "BLs6QKxae1Y4mFUUT8QVjdCmfND5recfKJ27aCdkamGHSrtRxRp" ] },
      { "delegate": "tz1SYq214SCBy9naR6cvycQsYcUGpBqQAE8d",
        "reception_time": "2022-01-20T21:59:11.673-00:00",
        "included_in_blocks":
          [ "BLs6QKxae1Y4mFUUT8QVjdCmfND5recfKJ27aCdkamGHSrtRxRp" ] },
      { "delegate": "tz1RCFbB9GpALpsZtu6J58sb74dm8qe6XBzv",
        "reception_time": "2022-01-20T21:59:11.925-00:00",
        "included_in_blocks":
          [ "BLs6QKxae1Y4mFUUT8QVjdCmfND5recfKJ27aCdkamGHSrtRxRp" ] },
      { "delegate": "tz1eLbDXYceRsPZoPmaJXZgQ6pzgnTQvZtpo",
        "reception_time": "2022-01-20T21:59:11.971-00:00",
        "included_in_blocks":
          [ "BLs6QKxae1Y4mFUUT8QVjdCmfND5recfKJ27aCdkamGHSrtRxRp" ] },
      { "delegate": "tz3iJu5vrKZcsqRPs8yJ61UDoeEXZmtro4qh",
        "reception_time": "2022-01-20T21:59:11.994-00:00",
        "included_in_blocks":
          [ "BLs6QKxae1Y4mFUUT8QVjdCmfND5recfKJ27aCdkamGHSrtRxRp" ] },
      { "delegate": "tz3Zhs2dygr55yHyQyKjntAtY9bgfhLZ4Xj1",
        "reception_time": "2022-01-20T21:59:12.016-00:00",
        "included_in_blocks":
          [ "BLs6QKxae1Y4mFUUT8QVjdCmfND5recfKJ27aCdkamGHSrtRxRp" ] },
      { "delegate": "tz3WMqdzXqRWXwyvj5Hp2H7QEepaUuS7vd9K",
        "reception_time": "2022-01-20T21:59:12.055-00:00",
        "included_in_blocks":
          [ "BLs6QKxae1Y4mFUUT8QVjdCmfND5recfKJ27aCdkamGHSrtRxRp" ] },
      { "delegate": "tz1T7duV5gZWSTq4YpBGbXNLTfznCLDrFxvs",
        "reception_time": "2022-01-20T21:59:12.074-00:00",
        "included_in_blocks":
          [ "BLs6QKxae1Y4mFUUT8QVjdCmfND5recfKJ27aCdkamGHSrtRxRp" ] },
      { "delegate": "tz1KfEsrtDaA1sX7vdM4qmEPWuSytuqCDp5j",
        "reception_time": "2022-01-20T21:59:12.154-00:00",
        "included_in_blocks":
          [ "BLs6QKxae1Y4mFUUT8QVjdCmfND5recfKJ27aCdkamGHSrtRxRp" ] },
      { "delegate": "tz3VEZ4k6a4Wx42iyev6i2aVAptTRLEAivNN",
        "reception_time": "2022-01-20T21:59:12.223-00:00",
        "included_in_blocks":
          [ "BLs6QKxae1Y4mFUUT8QVjdCmfND5recfKJ27aCdkamGHSrtRxRp" ] },
      { "delegate": "tz3RDC3Jdn4j15J7bBHZd29EUee9gVB1CxD9",
        "reception_time": "2022-01-20T21:59:12.356-00:00",
        "included_in_blocks":
          [ "BLs6QKxae1Y4mFUUT8QVjdCmfND5recfKJ27aCdkamGHSrtRxRp" ] },
      { "delegate": "tz3bvNMQ95vfAYtG8193ymshqjSvmxiCUuR5",
        "reception_time": "2022-01-20T21:59:12.526-00:00",
        "included_in_blocks":
          [ "BLs6QKxae1Y4mFUUT8QVjdCmfND5recfKJ27aCdkamGHSrtRxRp" ] },
      { "delegate": "tz1PeZx7FXy7QRuMREGXGxeipb24RsMMzUNe",
        "reception_time": "2022-01-20T21:59:12.569-00:00",
        "included_in_blocks":
          [ "BLs6QKxae1Y4mFUUT8QVjdCmfND5recfKJ27aCdkamGHSrtRxRp" ] },
      { "delegate": "tz1abmz7jiCV2GH2u81LRrGgAFFgvQgiDiaf",
        "reception_time": "2022-01-20T21:59:12.647-00:00",
        "included_in_blocks":
          [ "BLs6QKxae1Y4mFUUT8QVjdCmfND5recfKJ27aCdkamGHSrtRxRp" ] },
      { "delegate": "tz3NExpXn9aPNZPorRE4SdjJ2RGrfbJgMAaV",
        "reception_time": "2022-01-20T21:59:12.908-00:00",
        "included_in_blocks":
          [ "BLs6QKxae1Y4mFUUT8QVjdCmfND5recfKJ27aCdkamGHSrtRxRp" ] },
      { "delegate": "tz1RjoHc98dBoqaH2jawF62XNKh7YsHwbkEv",
        "reception_time": "2022-01-20T21:59:12.940-00:00",
        "included_in_blocks":
          [ "BLs6QKxae1Y4mFUUT8QVjdCmfND5recfKJ27aCdkamGHSrtRxRp" ] },
      { "delegate": "tz3NDpRj6WBrJPikcPVHRBEjWKxFw3c6eQPS",
        "reception_time": "2022-01-20T21:59:12.968-00:00",
        "included_in_blocks":
          [ "BLs6QKxae1Y4mFUUT8QVjdCmfND5recfKJ27aCdkamGHSrtRxRp" ] },
      { "delegate": "tz3gLTu4Yxj8tPAcriQVUdxv6BY9QyvzU1az",
        "reception_time": "2022-01-20T21:59:12.982-00:00",
        "included_in_blocks":
          [ "BLs6QKxae1Y4mFUUT8QVjdCmfND5recfKJ27aCdkamGHSrtRxRp" ] },
      { "delegate": "tz1NEKxGEHsFufk87CVZcrqWu8o22qh46GK6",
        "reception_time": "2022-01-20T21:59:13.139-00:00",
        "included_in_blocks":
          [ "BLs6QKxae1Y4mFUUT8QVjdCmfND5recfKJ27aCdkamGHSrtRxRp" ] },
      { "delegate": "tz1aRoaRhSpRYvFdyvgWLL6TGyRoGF51wDjM",
        "reception_time": "2022-01-20T21:59:13.626-00:00",
        "included_in_blocks":
          [ "BLs6QKxae1Y4mFUUT8QVjdCmfND5recfKJ27aCdkamGHSrtRxRp" ] },
      { "delegate": "tz2FCNBrERXtaTtNX6iimR1UJ5JSDxvdHM93",
        "reception_time": "2022-01-20T21:59:15.339-00:00",
        "included_in_blocks":
          [ "BLs6QKxae1Y4mFUUT8QVjdCmfND5recfKJ27aCdkamGHSrtRxRp" ] },
      { "delegate": "tz1NpWrAyDL9k2Lmnyxcgr9xuJakbBxdq7FB",
        "reception_time": "2022-01-20T21:59:27.455-00:00",
        "included_in_blocks":
          [ "BLs6QKxae1Y4mFUUT8QVjdCmfND5recfKJ27aCdkamGHSrtRxRp" ] } ] }