{ "blocks":
    [ { "hash": "BMKUp3Qr1s8ZgXpHy9BWpft4ox3xXDZPbDcKDti96vKAVdVpe14",
        "delegate": "tz1irJKkXS2DBWkU1NnmFQx1c1L7pbGg4yhk",
        "reception_time": "2022-01-21T04:13:39.529-00:00",
        "timestamp": "2022-01-21T04:13:30Z" } ],
  "endorsements":
    [ { "delegate": "tz1awXW7wuXy21c66vBudMXQVAPgRnqqwgTH" },
      { "delegate": "tz1MJx9vhaNRSimcuXPK2rW4fLccQnDAnVKJ" },
      { "delegate": "tz1Kt4P8BCaP93AEV4eA7gmpRryWt5hznjCP",
        "reception_time": "2022-01-21T04:13:39.469-00:00",
        "errors":
          [ { "kind": "temporary",
              "id": "proto.011-PtHangz2.prefilter.outdated_endorsement" } ],
        "included_in_blocks":
          [ "BLxQn9uhiXdCYax6mXgMy7DwG6gVH7aG79mZoNatT2Ah5m2BRGC" ] },
      { "delegate": "tz1Ldzz6k1BHdhuKvAtMRX7h5kJSMHESMHLC",
        "reception_time": "2022-01-21T04:13:39.416-00:00",
        "errors":
          [ { "kind": "temporary",
              "id": "proto.011-PtHangz2.prefilter.outdated_endorsement" } ],
        "included_in_blocks":
          [ "BLxQn9uhiXdCYax6mXgMy7DwG6gVH7aG79mZoNatT2Ah5m2BRGC" ] },
      { "delegate": "tz1VQnqCCqX4K5sP3FNkVSNKTdCAMJDd3E1n",
        "reception_time": "2022-01-21T04:13:39.319-00:00",
        "errors":
          [ { "kind": "temporary",
              "id": "proto.011-PtHangz2.prefilter.outdated_endorsement" } ],
        "included_in_blocks":
          [ "BLxQn9uhiXdCYax6mXgMy7DwG6gVH7aG79mZoNatT2Ah5m2BRGC" ] },
      { "delegate": "tz1eEnQhbwf6trb8Q8mPb2RaPkNk2rN7BKi8",
        "reception_time": "2022-01-21T04:13:39.316-00:00",
        "errors":
          [ { "kind": "temporary",
              "id": "proto.011-PtHangz2.prefilter.outdated_endorsement" } ],
        "included_in_blocks":
          [ "BLxQn9uhiXdCYax6mXgMy7DwG6gVH7aG79mZoNatT2Ah5m2BRGC" ] },
      { "delegate": "tz1gUNyn3hmnEWqkusWPzxRaon1cs7ndWh7h",
        "reception_time": "2022-01-21T04:13:39.314-00:00",
        "errors":
          [ { "kind": "temporary",
              "id": "proto.011-PtHangz2.prefilter.outdated_endorsement" } ],
        "included_in_blocks":
          [ "BLxQn9uhiXdCYax6mXgMy7DwG6gVH7aG79mZoNatT2Ah5m2BRGC" ] },
      { "delegate": "tz1XfAjZyaLdceHnZxbMYop7g7kWKPut4PR7",
        "reception_time": "2022-01-21T04:13:39.312-00:00",
        "errors":
          [ { "kind": "temporary",
              "id": "proto.011-PtHangz2.prefilter.outdated_endorsement" } ],
        "included_in_blocks":
          [ "BLxQn9uhiXdCYax6mXgMy7DwG6gVH7aG79mZoNatT2Ah5m2BRGC" ] },
      { "delegate": "tz1aDiEJf9ztRrAJEXZfcG3CKimoKsGhwVAi",
        "reception_time": "2022-01-21T04:13:39.082-00:00",
        "errors":
          [ { "kind": "temporary",
              "id": "proto.011-PtHangz2.prefilter.outdated_endorsement" } ],
        "included_in_blocks":
          [ "BLxQn9uhiXdCYax6mXgMy7DwG6gVH7aG79mZoNatT2Ah5m2BRGC" ] },
      { "delegate": "tz1Lhf4J9Qxoe3DZ2nfe8FGDnvVj7oKjnMY6",
        "reception_time": "2022-01-21T04:13:38.871-00:00",
        "errors":
          [ { "kind": "temporary",
              "id": "proto.011-PtHangz2.prefilter.outdated_endorsement" } ],
        "included_in_blocks":
          [ "BLxQn9uhiXdCYax6mXgMy7DwG6gVH7aG79mZoNatT2Ah5m2BRGC" ] },
      { "delegate": "tz1Zhv3RkfU2pHrmaiDyxp7kFZpZrUCu1CiF",
        "reception_time": "2022-01-21T04:13:38.843-00:00",
        "errors":
          [ { "kind": "temporary",
              "id": "proto.011-PtHangz2.prefilter.outdated_endorsement" } ],
        "included_in_blocks":
          [ "BLxQn9uhiXdCYax6mXgMy7DwG6gVH7aG79mZoNatT2Ah5m2BRGC" ] },
      { "delegate": "tz1irJKkXS2DBWkU1NnmFQx1c1L7pbGg4yhk",
        "reception_time": "2022-01-21T04:13:38.828-00:00",
        "errors":
          [ { "kind": "temporary",
              "id": "proto.011-PtHangz2.prefilter.outdated_endorsement" } ],
        "included_in_blocks":
          [ "BLxQn9uhiXdCYax6mXgMy7DwG6gVH7aG79mZoNatT2Ah5m2BRGC" ] },
      { "delegate": "tz1P2Po7YM526ughEsRbY4oR9zaUPDZjxFrb",
        "reception_time": "2022-01-21T04:13:38.711-00:00",
        "errors":
          [ { "kind": "temporary",
              "id": "proto.011-PtHangz2.prefilter.outdated_endorsement" } ],
        "included_in_blocks":
          [ "BLxQn9uhiXdCYax6mXgMy7DwG6gVH7aG79mZoNatT2Ah5m2BRGC" ] },
      { "delegate": "tz1S8e9GgdZG78XJRB3NqabfWeM37GnhZMWQ",
        "reception_time": "2022-01-21T04:13:38.353-00:00",
        "errors":
          [ { "kind": "temporary",
              "id": "proto.011-PtHangz2.prefilter.outdated_endorsement" } ],
        "included_in_blocks":
          [ "BLxQn9uhiXdCYax6mXgMy7DwG6gVH7aG79mZoNatT2Ah5m2BRGC" ] },
      { "delegate": "tz1W5VkdB5s7ENMESVBtwyt9kyvLqPcUczRT",
        "reception_time": "2022-01-21T04:13:47.227-00:00",
        "included_in_blocks":
          [ "BLxQn9uhiXdCYax6mXgMy7DwG6gVH7aG79mZoNatT2Ah5m2BRGC" ] },
      { "delegate": "tz1PFeoTuFen8jAMRHajBySNyCwLmY5RqF9M",
        "reception_time": "2022-01-21T04:13:46.978-00:00",
        "included_in_blocks":
          [ "BLxQn9uhiXdCYax6mXgMy7DwG6gVH7aG79mZoNatT2Ah5m2BRGC" ] },
      { "delegate": "tz1g8vkmcde6sWKaG2NN9WKzCkDM6Rziq194",
        "reception_time": "2022-01-21T04:13:43.767-00:00",
        "included_in_blocks":
          [ "BLxQn9uhiXdCYax6mXgMy7DwG6gVH7aG79mZoNatT2Ah5m2BRGC" ] },
      { "delegate": "tz1aRoaRhSpRYvFdyvgWLL6TGyRoGF51wDjM",
        "reception_time": "2022-01-21T04:13:43.377-00:00",
        "included_in_blocks":
          [ "BLxQn9uhiXdCYax6mXgMy7DwG6gVH7aG79mZoNatT2Ah5m2BRGC" ] },
      { "delegate": "tz3NExpXn9aPNZPorRE4SdjJ2RGrfbJgMAaV",
        "reception_time": "2022-01-21T04:13:43.189-00:00",
        "included_in_blocks":
          [ "BLxQn9uhiXdCYax6mXgMy7DwG6gVH7aG79mZoNatT2Ah5m2BRGC" ] },
      { "delegate": "tz3WMqdzXqRWXwyvj5Hp2H7QEepaUuS7vd9K",
        "reception_time": "2022-01-21T04:13:42.949-00:00",
        "included_in_blocks":
          [ "BLxQn9uhiXdCYax6mXgMy7DwG6gVH7aG79mZoNatT2Ah5m2BRGC" ] },
      { "delegate": "tz3UoffC7FG7zfpmvmjUmUeAaHvzdcUvAj6r",
        "reception_time": "2022-01-21T04:13:42.789-00:00",
        "included_in_blocks":
          [ "BLxQn9uhiXdCYax6mXgMy7DwG6gVH7aG79mZoNatT2Ah5m2BRGC" ] },
      { "delegate": "tz1ZcTRk5uxD86EFEn1vvNffWWqJy7q5eVhc",
        "reception_time": "2022-01-21T04:13:42.800-00:00",
        "included_in_blocks":
          [ "BLxQn9uhiXdCYax6mXgMy7DwG6gVH7aG79mZoNatT2Ah5m2BRGC" ] },
      { "delegate": "tz3RDC3Jdn4j15J7bBHZd29EUee9gVB1CxD9",
        "reception_time": "2022-01-21T04:13:42.276-00:00",
        "included_in_blocks":
          [ "BLxQn9uhiXdCYax6mXgMy7DwG6gVH7aG79mZoNatT2Ah5m2BRGC" ] },
      { "delegate": "tz3bvNMQ95vfAYtG8193ymshqjSvmxiCUuR5",
        "reception_time": "2022-01-21T04:13:42.276-00:00",
        "included_in_blocks":
          [ "BLxQn9uhiXdCYax6mXgMy7DwG6gVH7aG79mZoNatT2Ah5m2BRGC" ] },
      { "delegate": "tz3VEZ4k6a4Wx42iyev6i2aVAptTRLEAivNN",
        "reception_time": "2022-01-21T04:13:42.286-00:00",
        "included_in_blocks":
          [ "BLxQn9uhiXdCYax6mXgMy7DwG6gVH7aG79mZoNatT2Ah5m2BRGC" ] },
      { "delegate": "tz1S6H83gugqK4dR5Had9jWR9M1ZdAAVgU5e",
        "reception_time": "2022-01-21T04:13:42.264-00:00",
        "included_in_blocks":
          [ "BLxQn9uhiXdCYax6mXgMy7DwG6gVH7aG79mZoNatT2Ah5m2BRGC" ] },
      { "delegate": "tz1T7duV5gZWSTq4YpBGbXNLTfznCLDrFxvs",
        "reception_time": "2022-01-21T04:13:41.635-00:00",
        "included_in_blocks":
          [ "BLxQn9uhiXdCYax6mXgMy7DwG6gVH7aG79mZoNatT2Ah5m2BRGC" ] },
      { "delegate": "tz1PeZx7FXy7QRuMREGXGxeipb24RsMMzUNe",
        "reception_time": "2022-01-21T04:13:41.649-00:00",
        "included_in_blocks":
          [ "BLxQn9uhiXdCYax6mXgMy7DwG6gVH7aG79mZoNatT2Ah5m2BRGC" ] },
      { "delegate": "tz1cYufsxHXJcvANhvS55h3aY32a9BAFB494",
        "reception_time": "2022-01-21T04:13:41.481-00:00",
        "included_in_blocks":
          [ "BLxQn9uhiXdCYax6mXgMy7DwG6gVH7aG79mZoNatT2Ah5m2BRGC" ] },
      { "delegate": "tz1WctSwL49BZtdWAQ75NY6vr4xsAx6oKdah",
        "reception_time": "2022-01-21T04:13:41.444-00:00",
        "included_in_blocks":
          [ "BLxQn9uhiXdCYax6mXgMy7DwG6gVH7aG79mZoNatT2Ah5m2BRGC" ] },
      { "delegate": "tz1SYq214SCBy9naR6cvycQsYcUGpBqQAE8d",
        "reception_time": "2022-01-21T04:13:41.378-00:00",
        "included_in_blocks":
          [ "BLxQn9uhiXdCYax6mXgMy7DwG6gVH7aG79mZoNatT2Ah5m2BRGC" ] },
      { "delegate": "tz1LmaFsWRkjr7QMCx5PtV6xTUz3AmEpKQiF",
        "reception_time": "2022-01-21T04:13:41.196-00:00",
        "included_in_blocks":
          [ "BLxQn9uhiXdCYax6mXgMy7DwG6gVH7aG79mZoNatT2Ah5m2BRGC" ] },
      { "delegate": "tz1S8MNvuFEUsWgjHvi3AxibRBf388NhT1q2",
        "reception_time": "2022-01-21T04:13:41.293-00:00",
        "included_in_blocks":
          [ "BLxQn9uhiXdCYax6mXgMy7DwG6gVH7aG79mZoNatT2Ah5m2BRGC" ] },
      { "delegate": "tz3RB4aoyjov4KEVRbuhvQ1CKJgBJMWhaeB8",
        "reception_time": "2022-01-21T04:13:41.159-00:00",
        "included_in_blocks":
          [ "BLxQn9uhiXdCYax6mXgMy7DwG6gVH7aG79mZoNatT2Ah5m2BRGC" ] },
      { "delegate": "tz1NEKxGEHsFufk87CVZcrqWu8o22qh46GK6",
        "reception_time": "2022-01-21T04:13:41.121-00:00",
        "included_in_blocks":
          [ "BLxQn9uhiXdCYax6mXgMy7DwG6gVH7aG79mZoNatT2Ah5m2BRGC" ] },
      { "delegate": "tz2FCNBrERXtaTtNX6iimR1UJ5JSDxvdHM93",
        "reception_time": "2022-01-21T04:13:41.126-00:00",
        "included_in_blocks":
          [ "BLxQn9uhiXdCYax6mXgMy7DwG6gVH7aG79mZoNatT2Ah5m2BRGC" ] },
      { "delegate": "tz3NDpRj6WBrJPikcPVHRBEjWKxFw3c6eQPS",
        "reception_time": "2022-01-21T04:13:41.183-00:00",
        "included_in_blocks":
          [ "BLxQn9uhiXdCYax6mXgMy7DwG6gVH7aG79mZoNatT2Ah5m2BRGC" ] },
      { "delegate": "tz1YhNsiRRU8aHNGg7NK3uuP6UDAyacJernB",
        "reception_time": "2022-01-21T04:13:40.957-00:00",
        "included_in_blocks":
          [ "BLxQn9uhiXdCYax6mXgMy7DwG6gVH7aG79mZoNatT2Ah5m2BRGC" ] },
      { "delegate": "tz1WBfwbT66FC6BTLexc2BoyCCBM9LG7pnVW",
        "reception_time": "2022-01-21T04:13:40.938-00:00",
        "included_in_blocks":
          [ "BLxQn9uhiXdCYax6mXgMy7DwG6gVH7aG79mZoNatT2Ah5m2BRGC" ] },
      { "delegate": "tz1RCFbB9GpALpsZtu6J58sb74dm8qe6XBzv",
        "reception_time": "2022-01-21T04:13:40.943-00:00",
        "included_in_blocks":
          [ "BLxQn9uhiXdCYax6mXgMy7DwG6gVH7aG79mZoNatT2Ah5m2BRGC" ] },
      { "delegate": "tz3adcvQaKXTCg12zbninqo3q8ptKKtDFTLv",
        "reception_time": "2022-01-21T04:13:40.919-00:00",
        "included_in_blocks":
          [ "BLxQn9uhiXdCYax6mXgMy7DwG6gVH7aG79mZoNatT2Ah5m2BRGC" ] },
      { "delegate": "tz1gfArv665EUkSg2ojMBzcbfwuPxAvqPvjo",
        "reception_time": "2022-01-21T04:13:40.884-00:00",
        "included_in_blocks":
          [ "BLxQn9uhiXdCYax6mXgMy7DwG6gVH7aG79mZoNatT2Ah5m2BRGC" ] },
      { "delegate": "tz1V4qCyvPKZ5UeqdH14HN42rxvNPQfc9UZg",
        "reception_time": "2022-01-21T04:13:40.960-00:00",
        "included_in_blocks":
          [ "BLxQn9uhiXdCYax6mXgMy7DwG6gVH7aG79mZoNatT2Ah5m2BRGC" ] },
      { "delegate": "tz3bTdwZinP8U1JmSweNzVKhmwafqWmFWRfk",
        "reception_time": "2022-01-21T04:13:40.877-00:00",
        "included_in_blocks":
          [ "BLxQn9uhiXdCYax6mXgMy7DwG6gVH7aG79mZoNatT2Ah5m2BRGC" ] },
      { "delegate": "tz1dNVDWPf3Q59SdJqnjdnu277iyvReiRS9M",
        "reception_time": "2022-01-21T04:13:40.867-00:00",
        "included_in_blocks":
          [ "BLxQn9uhiXdCYax6mXgMy7DwG6gVH7aG79mZoNatT2Ah5m2BRGC" ] },
      { "delegate": "tz1fPKAtsYydh4f1wfWNfeNxWYu72TmM48fu",
        "reception_time": "2022-01-21T04:13:40.825-00:00",
        "included_in_blocks":
          [ "BLxQn9uhiXdCYax6mXgMy7DwG6gVH7aG79mZoNatT2Ah5m2BRGC" ] },
      { "delegate": "tz1Nf6tsK4G6bBqgSQERy4nUtkHNKUVdh7q1",
        "reception_time": "2022-01-21T04:13:40.833-00:00",
        "included_in_blocks":
          [ "BLxQn9uhiXdCYax6mXgMy7DwG6gVH7aG79mZoNatT2Ah5m2BRGC" ] },
      { "delegate": "tz1TEc75UKXv4W5cwi14Na3NtqFD51yKQi7h",
        "reception_time": "2022-01-21T04:13:40.831-00:00",
        "included_in_blocks":
          [ "BLxQn9uhiXdCYax6mXgMy7DwG6gVH7aG79mZoNatT2Ah5m2BRGC" ] },
      { "delegate": "tz3iJu5vrKZcsqRPs8yJ61UDoeEXZmtro4qh",
        "reception_time": "2022-01-21T04:13:40.821-00:00",
        "included_in_blocks":
          [ "BLxQn9uhiXdCYax6mXgMy7DwG6gVH7aG79mZoNatT2Ah5m2BRGC" ] },
      { "delegate": "tz1ei4WtWEMEJekSv8qDnu9PExG6Q8HgRGr3",
        "reception_time": "2022-01-21T04:13:40.845-00:00",
        "included_in_blocks":
          [ "BLxQn9uhiXdCYax6mXgMy7DwG6gVH7aG79mZoNatT2Ah5m2BRGC" ] },
      { "delegate": "tz3Zhs2dygr55yHyQyKjntAtY9bgfhLZ4Xj1",
        "reception_time": "2022-01-21T04:13:40.840-00:00",
        "included_in_blocks":
          [ "BLxQn9uhiXdCYax6mXgMy7DwG6gVH7aG79mZoNatT2Ah5m2BRGC" ] },
      { "delegate": "tz1PWCDnz783NNGGQjEFFsHtrcK5yBW4E2rm",
        "reception_time": "2022-01-21T04:13:40.825-00:00",
        "included_in_blocks":
          [ "BLxQn9uhiXdCYax6mXgMy7DwG6gVH7aG79mZoNatT2Ah5m2BRGC" ] },
      { "delegate": "tz1d6Fx42mYgVFnHUW8T8A7WBfJ6nD9pVok8",
        "reception_time": "2022-01-21T04:13:40.773-00:00",
        "included_in_blocks":
          [ "BLxQn9uhiXdCYax6mXgMy7DwG6gVH7aG79mZoNatT2Ah5m2BRGC" ] },
      { "delegate": "tz3QCNyySViKHmeSr45kzDxzchys7NiXCWoa",
        "reception_time": "2022-01-21T04:13:40.805-00:00",
        "included_in_blocks":
          [ "BLxQn9uhiXdCYax6mXgMy7DwG6gVH7aG79mZoNatT2Ah5m2BRGC" ] },
      { "delegate": "tz1TRspM5SeZpaQUhzByXbEvqKF1vnCM2YTK",
        "reception_time": "2022-01-21T04:13:40.808-00:00",
        "included_in_blocks":
          [ "BLxQn9uhiXdCYax6mXgMy7DwG6gVH7aG79mZoNatT2Ah5m2BRGC" ] },
      { "delegate": "tz3S6BBeKgJGXxvLyZ1xzXzMPn11nnFtq5L9",
        "reception_time": "2022-01-21T04:13:40.732-00:00",
        "included_in_blocks":
          [ "BLxQn9uhiXdCYax6mXgMy7DwG6gVH7aG79mZoNatT2Ah5m2BRGC" ] },
      { "delegate": "tz3QT9dHYKDqh563chVa6za8526ys1UKfRfL",
        "reception_time": "2022-01-21T04:13:40.720-00:00",
        "included_in_blocks":
          [ "BLxQn9uhiXdCYax6mXgMy7DwG6gVH7aG79mZoNatT2Ah5m2BRGC" ] },
      { "delegate": "tz3hw2kqXhLUvY65ca1eety2oQTpAvd34R9Q",
        "reception_time": "2022-01-21T04:13:40.707-00:00",
        "included_in_blocks":
          [ "BLxQn9uhiXdCYax6mXgMy7DwG6gVH7aG79mZoNatT2Ah5m2BRGC" ] },
      { "delegate": "tz1iMAHAVpkCVegF9FLGWUpQQeiAHh4ffdLQ",
        "reception_time": "2022-01-21T04:13:40.652-00:00",
        "included_in_blocks":
          [ "BLxQn9uhiXdCYax6mXgMy7DwG6gVH7aG79mZoNatT2Ah5m2BRGC" ] },
      { "delegate": "tz1VmiY38m3y95HqQLjMwqnMS7sdMfGomzKi",
        "reception_time": "2022-01-21T04:13:40.770-00:00",
        "included_in_blocks":
          [ "BLxQn9uhiXdCYax6mXgMy7DwG6gVH7aG79mZoNatT2Ah5m2BRGC" ] },
      { "delegate": "tz1h4GUAMweP7SNWzDgvMk3yRCAZyaP1MxZq",
        "reception_time": "2022-01-21T04:13:40.760-00:00",
        "included_in_blocks":
          [ "BLxQn9uhiXdCYax6mXgMy7DwG6gVH7aG79mZoNatT2Ah5m2BRGC" ] },
      { "delegate": "tz3RKYFsLuQzKBtmYuLNas7uMu3AsYd4QdsA",
        "reception_time": "2022-01-21T04:13:40.757-00:00",
        "included_in_blocks":
          [ "BLxQn9uhiXdCYax6mXgMy7DwG6gVH7aG79mZoNatT2Ah5m2BRGC" ] },
      { "delegate": "tz3QSGPoRp3Kn7n3vY24eYeu3Peuqo45LQ4D",
        "reception_time": "2022-01-21T04:13:40.634-00:00",
        "included_in_blocks":
          [ "BLxQn9uhiXdCYax6mXgMy7DwG6gVH7aG79mZoNatT2Ah5m2BRGC" ] },
      { "delegate": "tz3ZbP2pM3nwvXztbuMJwJnDvV5xdpU8UkkD",
        "reception_time": "2022-01-21T04:13:40.634-00:00",
        "included_in_blocks":
          [ "BLxQn9uhiXdCYax6mXgMy7DwG6gVH7aG79mZoNatT2Ah5m2BRGC" ] },
      { "delegate": "tz1Kf25fX1VdmYGSEzwFy1wNmkbSEZ2V83sY",
        "reception_time": "2022-01-21T04:13:40.291-00:00",
        "included_in_blocks":
          [ "BLxQn9uhiXdCYax6mXgMy7DwG6gVH7aG79mZoNatT2Ah5m2BRGC" ] },
      { "delegate": "tz3gtoUxdudfBRcNY7iVdKPHCYYX6xdPpoRS",
        "reception_time": "2022-01-21T04:13:40.732-00:00",
        "included_in_blocks":
          [ "BLxQn9uhiXdCYax6mXgMy7DwG6gVH7aG79mZoNatT2Ah5m2BRGC" ] },
      { "delegate": "tz3NxTnke1acr8o3h5y9ytf5awQBGNJUKzVU",
        "reception_time": "2022-01-21T04:13:40.587-00:00",
        "included_in_blocks":
          [ "BLxQn9uhiXdCYax6mXgMy7DwG6gVH7aG79mZoNatT2Ah5m2BRGC" ] } ] }