{ "blocks":
    [ { "hash": "BMToScAeWvYKLNHGY3kJQ2RU4384Gz6KX8TotkKyT64L51xZcZX",
        "delegate": "tz1VQnqCCqX4K5sP3FNkVSNKTdCAMJDd3E1n",
        "reception_time": "2022-01-20T21:25:27.900-00:00",
        "timestamp": "2022-01-20T21:22:10Z" } ],
  "endorsements":
    [ { "delegate": "tz3NExpXn9aPNZPorRE4SdjJ2RGrfbJgMAaV",
        "included_in_blocks":
          [ "BL5UPsNrBuhVT1hRk7nSgaof8y3wgbsuHDszCYHzzoXVxJ4CeNJ" ] },
      { "delegate": "tz1ei4WtWEMEJekSv8qDnu9PExG6Q8HgRGr3",
        "included_in_blocks":
          [ "BL5UPsNrBuhVT1hRk7nSgaof8y3wgbsuHDszCYHzzoXVxJ4CeNJ" ] },
      { "delegate": "tz1gfArv665EUkSg2ojMBzcbfwuPxAvqPvjo",
        "included_in_blocks":
          [ "BL5UPsNrBuhVT1hRk7nSgaof8y3wgbsuHDszCYHzzoXVxJ4CeNJ" ] },
      { "delegate": "tz1VQnqCCqX4K5sP3FNkVSNKTdCAMJDd3E1n",
        "included_in_blocks":
          [ "BL5UPsNrBuhVT1hRk7nSgaof8y3wgbsuHDszCYHzzoXVxJ4CeNJ" ] },
      { "delegate": "tz1bnf8bo9GUgeyUhfMcaC7mNqMmLS6Ri3hb",
        "included_in_blocks":
          [ "BL5UPsNrBuhVT1hRk7nSgaof8y3wgbsuHDszCYHzzoXVxJ4CeNJ" ] },
      { "delegate": "tz3bTdwZinP8U1JmSweNzVKhmwafqWmFWRfk",
        "included_in_blocks":
          [ "BL5UPsNrBuhVT1hRk7nSgaof8y3wgbsuHDszCYHzzoXVxJ4CeNJ" ] },
      { "delegate": "tz3e7LbZvUtoXhpUD1yb6wuFodZpfYRb9nWJ",
        "included_in_blocks":
          [ "BL5UPsNrBuhVT1hRk7nSgaof8y3wgbsuHDszCYHzzoXVxJ4CeNJ" ] },
      { "delegate": "tz1Ldzz6k1BHdhuKvAtMRX7h5kJSMHESMHLC",
        "included_in_blocks":
          [ "BL5UPsNrBuhVT1hRk7nSgaof8y3wgbsuHDszCYHzzoXVxJ4CeNJ" ] },
      { "delegate": "tz1VmiY38m3y95HqQLjMwqnMS7sdMfGomzKi",
        "included_in_blocks":
          [ "BL5UPsNrBuhVT1hRk7nSgaof8y3wgbsuHDszCYHzzoXVxJ4CeNJ" ] },
      { "delegate": "tz1PWCDnz783NNGGQjEFFsHtrcK5yBW4E2rm",
        "included_in_blocks":
          [ "BL5UPsNrBuhVT1hRk7nSgaof8y3wgbsuHDszCYHzzoXVxJ4CeNJ" ] },
      { "delegate": "tz1TcH4Nb3aHNDJ7CGZhU7jgAK1BkSP4Lxds",
        "included_in_blocks":
          [ "BL5UPsNrBuhVT1hRk7nSgaof8y3wgbsuHDszCYHzzoXVxJ4CeNJ" ] },
      { "delegate": "tz1NuUu12WHdW3jHqvkujGHsiTi46Wvw1ci1",
        "included_in_blocks":
          [ "BL5UPsNrBuhVT1hRk7nSgaof8y3wgbsuHDszCYHzzoXVxJ4CeNJ" ] },
      { "delegate": "tz1YhNsiRRU8aHNGg7NK3uuP6UDAyacJernB",
        "included_in_blocks":
          [ "BL5UPsNrBuhVT1hRk7nSgaof8y3wgbsuHDszCYHzzoXVxJ4CeNJ" ] },
      { "delegate": "tz1eEnQhbwf6trb8Q8mPb2RaPkNk2rN7BKi8",
        "included_in_blocks":
          [ "BL5UPsNrBuhVT1hRk7nSgaof8y3wgbsuHDszCYHzzoXVxJ4CeNJ" ] },
      { "delegate": "tz1Lhf4J9Qxoe3DZ2nfe8FGDnvVj7oKjnMY6",
        "included_in_blocks":
          [ "BL5UPsNrBuhVT1hRk7nSgaof8y3wgbsuHDszCYHzzoXVxJ4CeNJ" ] },
      { "delegate": "tz1Scdr2HsZiQjc7bHMeBbmDRXYVvdhjJbBh",
        "included_in_blocks":
          [ "BL5UPsNrBuhVT1hRk7nSgaof8y3wgbsuHDszCYHzzoXVxJ4CeNJ" ] },
      { "delegate": "tz1KfEsrtDaA1sX7vdM4qmEPWuSytuqCDp5j",
        "included_in_blocks":
          [ "BL5UPsNrBuhVT1hRk7nSgaof8y3wgbsuHDszCYHzzoXVxJ4CeNJ" ] },
      { "delegate": "tz3UoffC7FG7zfpmvmjUmUeAaHvzdcUvAj6r",
        "included_in_blocks":
          [ "BL5UPsNrBuhVT1hRk7nSgaof8y3wgbsuHDszCYHzzoXVxJ4CeNJ" ] },
      { "delegate": "tz1ZPh7XfUaJXUDvkrBxmS1BjEM1i62hiPpM",
        "included_in_blocks":
          [ "BL5UPsNrBuhVT1hRk7nSgaof8y3wgbsuHDszCYHzzoXVxJ4CeNJ" ] },
      { "delegate": "tz3WMqdzXqRWXwyvj5Hp2H7QEepaUuS7vd9K",
        "included_in_blocks":
          [ "BL5UPsNrBuhVT1hRk7nSgaof8y3wgbsuHDszCYHzzoXVxJ4CeNJ" ] },
      { "delegate": "tz1TRspM5SeZpaQUhzByXbEvqKF1vnCM2YTK",
        "included_in_blocks":
          [ "BL5UPsNrBuhVT1hRk7nSgaof8y3wgbsuHDszCYHzzoXVxJ4CeNJ" ] },
      { "delegate": "tz1RNFBuv3iqriqVbobB8yAeUpTKLdzMQ4Aq",
        "included_in_blocks":
          [ "BL5UPsNrBuhVT1hRk7nSgaof8y3wgbsuHDszCYHzzoXVxJ4CeNJ" ] },
      { "delegate": "tz3RDC3Jdn4j15J7bBHZd29EUee9gVB1CxD9",
        "included_in_blocks":
          [ "BL5UPsNrBuhVT1hRk7nSgaof8y3wgbsuHDszCYHzzoXVxJ4CeNJ" ] },
      { "delegate": "tz1UMCB2AHSTwG7YcGNr31CqYCtGN873royv",
        "included_in_blocks":
          [ "BL5UPsNrBuhVT1hRk7nSgaof8y3wgbsuHDszCYHzzoXVxJ4CeNJ" ] },
      { "delegate": "tz3NxTnke1acr8o3h5y9ytf5awQBGNJUKzVU",
        "included_in_blocks":
          [ "BL5UPsNrBuhVT1hRk7nSgaof8y3wgbsuHDszCYHzzoXVxJ4CeNJ" ] },
      { "delegate": "tz1gUNyn3hmnEWqkusWPzxRaon1cs7ndWh7h",
        "included_in_blocks":
          [ "BL5UPsNrBuhVT1hRk7nSgaof8y3wgbsuHDszCYHzzoXVxJ4CeNJ" ] },
      { "delegate": "tz1dRKU4FQ9QRRQPdaH4zCR6gmCmXfcvcgtB",
        "included_in_blocks":
          [ "BL5UPsNrBuhVT1hRk7nSgaof8y3wgbsuHDszCYHzzoXVxJ4CeNJ" ] },
      { "delegate": "tz3hw2kqXhLUvY65ca1eety2oQTpAvd34R9Q",
        "included_in_blocks":
          [ "BL5UPsNrBuhVT1hRk7nSgaof8y3wgbsuHDszCYHzzoXVxJ4CeNJ" ] },
      { "delegate": "tz3ZbP2pM3nwvXztbuMJwJnDvV5xdpU8UkkD",
        "included_in_blocks":
          [ "BL5UPsNrBuhVT1hRk7nSgaof8y3wgbsuHDszCYHzzoXVxJ4CeNJ" ] },
      { "delegate": "tz1Nf6tsK4G6bBqgSQERy4nUtkHNKUVdh7q1",
        "included_in_blocks":
          [ "BL5UPsNrBuhVT1hRk7nSgaof8y3wgbsuHDszCYHzzoXVxJ4CeNJ" ] },
      { "delegate": "tz1WBfwbT66FC6BTLexc2BoyCCBM9LG7pnVW",
        "included_in_blocks":
          [ "BL5UPsNrBuhVT1hRk7nSgaof8y3wgbsuHDszCYHzzoXVxJ4CeNJ" ] },
      { "delegate": "tz1g8vkmcde6sWKaG2NN9WKzCkDM6Rziq194",
        "included_in_blocks":
          [ "BL5UPsNrBuhVT1hRk7nSgaof8y3wgbsuHDszCYHzzoXVxJ4CeNJ" ] },
      { "delegate": "tz3RKYFsLuQzKBtmYuLNas7uMu3AsYd4QdsA",
        "included_in_blocks":
          [ "BL5UPsNrBuhVT1hRk7nSgaof8y3wgbsuHDszCYHzzoXVxJ4CeNJ" ] },
      { "delegate": "tz1dNVDWPf3Q59SdJqnjdnu277iyvReiRS9M",
        "included_in_blocks":
          [ "BL5UPsNrBuhVT1hRk7nSgaof8y3wgbsuHDszCYHzzoXVxJ4CeNJ" ] },
      { "delegate": "tz1S8MNvuFEUsWgjHvi3AxibRBf388NhT1q2",
        "included_in_blocks":
          [ "BL5UPsNrBuhVT1hRk7nSgaof8y3wgbsuHDszCYHzzoXVxJ4CeNJ" ] },
      { "delegate": "tz3RB4aoyjov4KEVRbuhvQ1CKJgBJMWhaeB8",
        "included_in_blocks":
          [ "BL5UPsNrBuhVT1hRk7nSgaof8y3wgbsuHDszCYHzzoXVxJ4CeNJ" ] },
      { "delegate": "tz3VEZ4k6a4Wx42iyev6i2aVAptTRLEAivNN",
        "included_in_blocks":
          [ "BL5UPsNrBuhVT1hRk7nSgaof8y3wgbsuHDszCYHzzoXVxJ4CeNJ" ] },
      { "delegate": "tz1SFtJ3XwU1d6rWTRfJmwVDFpywcp4J743S",
        "included_in_blocks":
          [ "BL5UPsNrBuhVT1hRk7nSgaof8y3wgbsuHDszCYHzzoXVxJ4CeNJ" ] },
      { "delegate": "tz1SYq214SCBy9naR6cvycQsYcUGpBqQAE8d",
        "included_in_blocks":
          [ "BL5UPsNrBuhVT1hRk7nSgaof8y3wgbsuHDszCYHzzoXVxJ4CeNJ" ] },
      { "delegate": "tz1P2Po7YM526ughEsRbY4oR9zaUPDZjxFrb",
        "included_in_blocks":
          [ "BL5UPsNrBuhVT1hRk7nSgaof8y3wgbsuHDszCYHzzoXVxJ4CeNJ" ] },
      { "delegate": "tz1T7duV5gZWSTq4YpBGbXNLTfznCLDrFxvs",
        "included_in_blocks":
          [ "BL5UPsNrBuhVT1hRk7nSgaof8y3wgbsuHDszCYHzzoXVxJ4CeNJ" ] },
      { "delegate": "tz3iJu5vrKZcsqRPs8yJ61UDoeEXZmtro4qh",
        "included_in_blocks":
          [ "BL5UPsNrBuhVT1hRk7nSgaof8y3wgbsuHDszCYHzzoXVxJ4CeNJ" ] },
      { "delegate": "tz3Zhs2dygr55yHyQyKjntAtY9bgfhLZ4Xj1",
        "included_in_blocks":
          [ "BL5UPsNrBuhVT1hRk7nSgaof8y3wgbsuHDszCYHzzoXVxJ4CeNJ" ] },
      { "delegate": "tz3NDpRj6WBrJPikcPVHRBEjWKxFw3c6eQPS",
        "included_in_blocks":
          [ "BL5UPsNrBuhVT1hRk7nSgaof8y3wgbsuHDszCYHzzoXVxJ4CeNJ" ] },
      { "delegate": "tz3gtoUxdudfBRcNY7iVdKPHCYYX6xdPpoRS",
        "included_in_blocks":
          [ "BL5UPsNrBuhVT1hRk7nSgaof8y3wgbsuHDszCYHzzoXVxJ4CeNJ" ] },
      { "delegate": "tz3QSGPoRp3Kn7n3vY24eYeu3Peuqo45LQ4D",
        "reception_time": "2022-01-20T21:24:06.178-00:00",
        "errors":
          [ { "kind": "temporary",
              "id": "proto.011-PtHangz2.prefilter.outdated_endorsement" } ] },
      { "delegate": "tz3bvNMQ95vfAYtG8193ymshqjSvmxiCUuR5",
        "reception_time": "2022-01-20T21:25:17.424-00:00",
        "errors":
          [ { "kind": "temporary",
              "id": "proto.011-PtHangz2.prefilter.outdated_endorsement" } ],
        "included_in_blocks":
          [ "BL5UPsNrBuhVT1hRk7nSgaof8y3wgbsuHDszCYHzzoXVxJ4CeNJ" ] },
      { "delegate": "tz1WCd2jm4uSt4vntk4vSuUWoZQGhLcDuR9q",
        "reception_time": "2022-01-20T21:25:17.586-00:00",
        "errors":
          [ { "kind": "temporary",
              "id": "proto.011-PtHangz2.prefilter.outdated_endorsement" } ],
        "included_in_blocks":
          [ "BL5UPsNrBuhVT1hRk7nSgaof8y3wgbsuHDszCYHzzoXVxJ4CeNJ" ] },
      { "delegate": "tz1irJKkXS2DBWkU1NnmFQx1c1L7pbGg4yhk",
        "reception_time": "2022-01-20T21:25:17.674-00:00",
        "errors":
          [ { "kind": "temporary",
              "id": "proto.011-PtHangz2.prefilter.outdated_endorsement" } ],
        "included_in_blocks":
          [ "BL5UPsNrBuhVT1hRk7nSgaof8y3wgbsuHDszCYHzzoXVxJ4CeNJ" ] },
      { "delegate": "tz3adcvQaKXTCg12zbninqo3q8ptKKtDFTLv",
        "reception_time": "2022-01-20T21:25:17.774-00:00",
        "errors":
          [ { "kind": "temporary",
              "id": "proto.011-PtHangz2.prefilter.outdated_endorsement" } ],
        "included_in_blocks":
          [ "BL5UPsNrBuhVT1hRk7nSgaof8y3wgbsuHDszCYHzzoXVxJ4CeNJ" ] },
      { "delegate": "tz1WctSwL49BZtdWAQ75NY6vr4xsAx6oKdah",
        "reception_time": "2022-01-20T21:25:17.774-00:00",
        "errors":
          [ { "kind": "temporary",
              "id": "proto.011-PtHangz2.prefilter.outdated_endorsement" } ],
        "included_in_blocks":
          [ "BL5UPsNrBuhVT1hRk7nSgaof8y3wgbsuHDszCYHzzoXVxJ4CeNJ" ] },
      { "delegate": "tz1LmaFsWRkjr7QMCx5PtV6xTUz3AmEpKQiF",
        "reception_time": "2022-01-20T21:25:17.774-00:00",
        "errors":
          [ { "kind": "temporary",
              "id": "proto.011-PtHangz2.prefilter.outdated_endorsement" } ],
        "included_in_blocks":
          [ "BL5UPsNrBuhVT1hRk7nSgaof8y3wgbsuHDszCYHzzoXVxJ4CeNJ" ] },
      { "delegate": "tz1PeZx7FXy7QRuMREGXGxeipb24RsMMzUNe",
        "reception_time": "2022-01-20T21:25:17.775-00:00",
        "errors":
          [ { "kind": "temporary",
              "id": "proto.011-PtHangz2.prefilter.outdated_endorsement" } ],
        "included_in_blocks":
          [ "BL5UPsNrBuhVT1hRk7nSgaof8y3wgbsuHDszCYHzzoXVxJ4CeNJ" ] },
      { "delegate": "tz1cYufsxHXJcvANhvS55h3aY32a9BAFB494",
        "reception_time": "2022-01-20T21:25:17.775-00:00",
        "errors":
          [ { "kind": "temporary",
              "id": "proto.011-PtHangz2.prefilter.outdated_endorsement" } ],
        "included_in_blocks":
          [ "BL5UPsNrBuhVT1hRk7nSgaof8y3wgbsuHDszCYHzzoXVxJ4CeNJ" ] },
      { "delegate": "tz1d8SMQTY56YRsCEa5UZNnKgWe2yP7obxKs",
        "reception_time": "2022-01-20T21:25:17.975-00:00",
        "errors":
          [ { "kind": "temporary",
              "id": "proto.011-PtHangz2.prefilter.outdated_endorsement" } ],
        "included_in_blocks":
          [ "BL5UPsNrBuhVT1hRk7nSgaof8y3wgbsuHDszCYHzzoXVxJ4CeNJ" ] },
      { "delegate": "tz3S6BBeKgJGXxvLyZ1xzXzMPn11nnFtq5L9",
        "reception_time": "2022-01-20T21:25:17.976-00:00",
        "errors":
          [ { "kind": "temporary",
              "id": "proto.011-PtHangz2.prefilter.outdated_endorsement" } ],
        "included_in_blocks":
          [ "BL5UPsNrBuhVT1hRk7nSgaof8y3wgbsuHDszCYHzzoXVxJ4CeNJ" ] },
      { "delegate": "tz1cM8Xc7ZP1TrjkTeKq4PeRhtbnwXSBR6Sw",
        "reception_time": "2022-01-20T21:25:17.976-00:00",
        "errors":
          [ { "kind": "temporary",
              "id": "proto.011-PtHangz2.prefilter.outdated_endorsement" } ],
        "included_in_blocks":
          [ "BL5UPsNrBuhVT1hRk7nSgaof8y3wgbsuHDszCYHzzoXVxJ4CeNJ" ] },
      { "delegate": "tz1QccGQsmt7WMnbVX9inJQgEuQGeMXddfjp",
        "reception_time": "2022-01-20T21:25:17.977-00:00",
        "errors":
          [ { "kind": "temporary",
              "id": "proto.011-PtHangz2.prefilter.outdated_endorsement" } ],
        "included_in_blocks":
          [ "BL5UPsNrBuhVT1hRk7nSgaof8y3wgbsuHDszCYHzzoXVxJ4CeNJ" ] },
      { "delegate": "tz1S5WxdZR5f9NzsPXhr7L9L1vrEb5spZFur",
        "reception_time": "2022-01-20T21:25:17.977-00:00",
        "errors":
          [ { "kind": "temporary",
              "id": "proto.011-PtHangz2.prefilter.outdated_endorsement" } ],
        "included_in_blocks":
          [ "BL5UPsNrBuhVT1hRk7nSgaof8y3wgbsuHDszCYHzzoXVxJ4CeNJ" ] },
      { "delegate": "tz1RCFbB9GpALpsZtu6J58sb74dm8qe6XBzv",
        "reception_time": "2022-01-20T21:25:17.978-00:00",
        "errors":
          [ { "kind": "temporary",
              "id": "proto.011-PtHangz2.prefilter.outdated_endorsement" } ],
        "included_in_blocks":
          [ "BL5UPsNrBuhVT1hRk7nSgaof8y3wgbsuHDszCYHzzoXVxJ4CeNJ" ] },
      { "delegate": "tz3QT9dHYKDqh563chVa6za8526ys1UKfRfL",
        "reception_time": "2022-01-20T21:25:17.979-00:00",
        "errors":
          [ { "kind": "temporary",
              "id": "proto.011-PtHangz2.prefilter.outdated_endorsement" } ],
        "included_in_blocks":
          [ "BL5UPsNrBuhVT1hRk7nSgaof8y3wgbsuHDszCYHzzoXVxJ4CeNJ" ] },
      { "delegate": "tz1MJx9vhaNRSimcuXPK2rW4fLccQnDAnVKJ" },
      { "delegate": "tz1NpWrAyDL9k2Lmnyxcgr9xuJakbBxdq7FB" },
      { "delegate": "tz1RjoHc98dBoqaH2jawF62XNKh7YsHwbkEv" },
      { "delegate": "tz1aRoaRhSpRYvFdyvgWLL6TGyRoGF51wDjM" },
      { "delegate": "tz1awXW7wuXy21c66vBudMXQVAPgRnqqwgTH" },
      { "delegate": "tz1fWJaG5uj6bQZ19bCSLjELJz6g2J6inUL1" },
      { "delegate": "tz2FCNBrERXtaTtNX6iimR1UJ5JSDxvdHM93" } ] }