{ "blocks":
    [ { "hash": "BMDTATLhdurrzajdXsVDpHnn8acXBuV73WKKw34eb7r94o7q8G9",
        "delegate": "tz1irJKkXS2DBWkU1NnmFQx1c1L7pbGg4yhk",
        "reception_time": "2022-01-21T00:19:55.297-00:00",
        "timestamp": "2022-01-21T00:19:50Z" } ],
  "endorsements":
    [ { "delegate": "tz1awXW7wuXy21c66vBudMXQVAPgRnqqwgTH" },
      { "delegate": "tz1TRqbYbUf2GyrjErf3hBzgBJPzW8y36qEs" },
      { "delegate": "tz1MJx9vhaNRSimcuXPK2rW4fLccQnDAnVKJ" },
      { "delegate": "tz1irJKkXS2DBWkU1NnmFQx1c1L7pbGg4yhk",
        "reception_time": "2022-01-21T00:19:55.265-00:00",
        "errors":
          [ { "kind": "temporary",
              "id": "proto.011-PtHangz2.prefilter.outdated_endorsement" } ],
        "included_in_blocks":
          [ "BLugz8mEGLwVdGYnGyUsbnoRCDWxm7C51E6fuVfRZ5GmuPpRuJh" ] },
      { "delegate": "tz1S8e9GgdZG78XJRB3NqabfWeM37GnhZMWQ",
        "reception_time": "2022-01-21T00:19:55.118-00:00",
        "errors":
          [ { "kind": "temporary",
              "id": "proto.011-PtHangz2.prefilter.outdated_endorsement" } ],
        "included_in_blocks":
          [ "BLugz8mEGLwVdGYnGyUsbnoRCDWxm7C51E6fuVfRZ5GmuPpRuJh" ] },
      { "delegate": "tz1W5VkdB5s7ENMESVBtwyt9kyvLqPcUczRT",
        "reception_time": "2022-01-21T00:20:03.218-00:00",
        "included_in_blocks":
          [ "BLugz8mEGLwVdGYnGyUsbnoRCDWxm7C51E6fuVfRZ5GmuPpRuJh" ] },
      { "delegate": "tz3NExpXn9aPNZPorRE4SdjJ2RGrfbJgMAaV",
        "reception_time": "2022-01-21T00:19:59.054-00:00",
        "included_in_blocks":
          [ "BLugz8mEGLwVdGYnGyUsbnoRCDWxm7C51E6fuVfRZ5GmuPpRuJh" ] },
      { "delegate": "tz3UoffC7FG7zfpmvmjUmUeAaHvzdcUvAj6r",
        "reception_time": "2022-01-21T00:19:59.105-00:00",
        "included_in_blocks":
          [ "BLugz8mEGLwVdGYnGyUsbnoRCDWxm7C51E6fuVfRZ5GmuPpRuJh" ] },
      { "delegate": "tz1T7duV5gZWSTq4YpBGbXNLTfznCLDrFxvs",
        "reception_time": "2022-01-21T00:19:58.772-00:00",
        "included_in_blocks":
          [ "BLugz8mEGLwVdGYnGyUsbnoRCDWxm7C51E6fuVfRZ5GmuPpRuJh" ] },
      { "delegate": "tz1dRKU4FQ9QRRQPdaH4zCR6gmCmXfcvcgtB",
        "reception_time": "2022-01-21T00:19:58.642-00:00",
        "included_in_blocks":
          [ "BLugz8mEGLwVdGYnGyUsbnoRCDWxm7C51E6fuVfRZ5GmuPpRuJh" ] },
      { "delegate": "tz3VEZ4k6a4Wx42iyev6i2aVAptTRLEAivNN",
        "reception_time": "2022-01-21T00:19:58.473-00:00",
        "included_in_blocks":
          [ "BLugz8mEGLwVdGYnGyUsbnoRCDWxm7C51E6fuVfRZ5GmuPpRuJh" ] },
      { "delegate": "tz1aRoaRhSpRYvFdyvgWLL6TGyRoGF51wDjM",
        "reception_time": "2022-01-21T00:19:58.273-00:00",
        "included_in_blocks":
          [ "BLugz8mEGLwVdGYnGyUsbnoRCDWxm7C51E6fuVfRZ5GmuPpRuJh" ] },
      { "delegate": "tz3WMqdzXqRWXwyvj5Hp2H7QEepaUuS7vd9K",
        "reception_time": "2022-01-21T00:19:58.296-00:00",
        "included_in_blocks":
          [ "BLugz8mEGLwVdGYnGyUsbnoRCDWxm7C51E6fuVfRZ5GmuPpRuJh" ] },
      { "delegate": "tz3bvNMQ95vfAYtG8193ymshqjSvmxiCUuR5",
        "reception_time": "2022-01-21T00:19:58.202-00:00",
        "included_in_blocks":
          [ "BLugz8mEGLwVdGYnGyUsbnoRCDWxm7C51E6fuVfRZ5GmuPpRuJh" ] },
      { "delegate": "tz3RDC3Jdn4j15J7bBHZd29EUee9gVB1CxD9",
        "reception_time": "2022-01-21T00:19:58.296-00:00",
        "included_in_blocks":
          [ "BLugz8mEGLwVdGYnGyUsbnoRCDWxm7C51E6fuVfRZ5GmuPpRuJh" ] },
      { "delegate": "tz1RjoHc98dBoqaH2jawF62XNKh7YsHwbkEv",
        "reception_time": "2022-01-21T00:19:58.087-00:00",
        "included_in_blocks":
          [ "BLugz8mEGLwVdGYnGyUsbnoRCDWxm7C51E6fuVfRZ5GmuPpRuJh" ] },
      { "delegate": "tz1Nf6tsK4G6bBqgSQERy4nUtkHNKUVdh7q1",
        "reception_time": "2022-01-21T00:19:57.868-00:00",
        "included_in_blocks":
          [ "BLugz8mEGLwVdGYnGyUsbnoRCDWxm7C51E6fuVfRZ5GmuPpRuJh" ] },
      { "delegate": "tz3gLTu4Yxj8tPAcriQVUdxv6BY9QyvzU1az",
        "reception_time": "2022-01-21T00:19:57.812-00:00",
        "included_in_blocks":
          [ "BLugz8mEGLwVdGYnGyUsbnoRCDWxm7C51E6fuVfRZ5GmuPpRuJh" ] },
      { "delegate": "tz3NDpRj6WBrJPikcPVHRBEjWKxFw3c6eQPS",
        "reception_time": "2022-01-21T00:19:57.857-00:00",
        "included_in_blocks":
          [ "BLugz8mEGLwVdGYnGyUsbnoRCDWxm7C51E6fuVfRZ5GmuPpRuJh" ] },
      { "delegate": "tz1fUyqYH7H4pRHN1roWY17giXhy1RvxjgUV",
        "reception_time": "2022-01-21T00:19:57.712-00:00",
        "included_in_blocks":
          [ "BLugz8mEGLwVdGYnGyUsbnoRCDWxm7C51E6fuVfRZ5GmuPpRuJh" ] },
      { "delegate": "tz1UMCB2AHSTwG7YcGNr31CqYCtGN873royv",
        "reception_time": "2022-01-21T00:19:57.861-00:00",
        "included_in_blocks":
          [ "BLugz8mEGLwVdGYnGyUsbnoRCDWxm7C51E6fuVfRZ5GmuPpRuJh" ] },
      { "delegate": "tz1eCzNtidHvVgeRzQ38C81FPcYnxMsCEL6Z",
        "reception_time": "2022-01-21T00:19:57.788-00:00",
        "included_in_blocks":
          [ "BLugz8mEGLwVdGYnGyUsbnoRCDWxm7C51E6fuVfRZ5GmuPpRuJh" ] },
      { "delegate": "tz1bxVgPCiveFHSand7zn22S8ZBtvNQbqgqU",
        "reception_time": "2022-01-21T00:19:57.603-00:00",
        "included_in_blocks":
          [ "BLugz8mEGLwVdGYnGyUsbnoRCDWxm7C51E6fuVfRZ5GmuPpRuJh" ] },
      { "delegate": "tz2FCNBrERXtaTtNX6iimR1UJ5JSDxvdHM93",
        "reception_time": "2022-01-21T00:19:57.726-00:00",
        "included_in_blocks":
          [ "BLugz8mEGLwVdGYnGyUsbnoRCDWxm7C51E6fuVfRZ5GmuPpRuJh" ] },
      { "delegate": "tz1ei4WtWEMEJekSv8qDnu9PExG6Q8HgRGr3",
        "reception_time": "2022-01-21T00:19:57.594-00:00",
        "included_in_blocks":
          [ "BLugz8mEGLwVdGYnGyUsbnoRCDWxm7C51E6fuVfRZ5GmuPpRuJh" ] },
      { "delegate": "tz1TEc75UKXv4W5cwi14Na3NtqFD51yKQi7h",
        "reception_time": "2022-01-21T00:19:57.623-00:00",
        "included_in_blocks":
          [ "BLugz8mEGLwVdGYnGyUsbnoRCDWxm7C51E6fuVfRZ5GmuPpRuJh" ] },
      { "delegate": "tz3adcvQaKXTCg12zbninqo3q8ptKKtDFTLv",
        "reception_time": "2022-01-21T00:19:57.430-00:00",
        "included_in_blocks":
          [ "BLugz8mEGLwVdGYnGyUsbnoRCDWxm7C51E6fuVfRZ5GmuPpRuJh" ] },
      { "delegate": "tz1gfArv665EUkSg2ojMBzcbfwuPxAvqPvjo",
        "reception_time": "2022-01-21T00:19:57.342-00:00",
        "included_in_blocks":
          [ "BLugz8mEGLwVdGYnGyUsbnoRCDWxm7C51E6fuVfRZ5GmuPpRuJh" ] },
      { "delegate": "tz3bTdwZinP8U1JmSweNzVKhmwafqWmFWRfk",
        "reception_time": "2022-01-21T00:19:57.125-00:00",
        "included_in_blocks":
          [ "BLugz8mEGLwVdGYnGyUsbnoRCDWxm7C51E6fuVfRZ5GmuPpRuJh" ] },
      { "delegate": "tz3RB4aoyjov4KEVRbuhvQ1CKJgBJMWhaeB8",
        "reception_time": "2022-01-21T00:19:57.071-00:00",
        "included_in_blocks":
          [ "BLugz8mEGLwVdGYnGyUsbnoRCDWxm7C51E6fuVfRZ5GmuPpRuJh" ] },
      { "delegate": "tz1S8MNvuFEUsWgjHvi3AxibRBf388NhT1q2",
        "reception_time": "2022-01-21T00:19:57.080-00:00",
        "included_in_blocks":
          [ "BLugz8mEGLwVdGYnGyUsbnoRCDWxm7C51E6fuVfRZ5GmuPpRuJh" ] },
      { "delegate": "tz1abmz7jiCV2GH2u81LRrGgAFFgvQgiDiaf",
        "reception_time": "2022-01-21T00:19:57.319-00:00",
        "included_in_blocks":
          [ "BLugz8mEGLwVdGYnGyUsbnoRCDWxm7C51E6fuVfRZ5GmuPpRuJh" ] },
      { "delegate": "tz1NortRftucvAkD1J58L32EhSVrQEWJCEnB",
        "reception_time": "2022-01-21T00:19:56.900-00:00",
        "included_in_blocks":
          [ "BLugz8mEGLwVdGYnGyUsbnoRCDWxm7C51E6fuVfRZ5GmuPpRuJh" ] },
      { "delegate": "tz1RCFbB9GpALpsZtu6J58sb74dm8qe6XBzv",
        "reception_time": "2022-01-21T00:19:56.921-00:00",
        "included_in_blocks":
          [ "BLugz8mEGLwVdGYnGyUsbnoRCDWxm7C51E6fuVfRZ5GmuPpRuJh" ] },
      { "delegate": "tz1VmiY38m3y95HqQLjMwqnMS7sdMfGomzKi",
        "reception_time": "2022-01-21T00:19:56.946-00:00",
        "included_in_blocks":
          [ "BLugz8mEGLwVdGYnGyUsbnoRCDWxm7C51E6fuVfRZ5GmuPpRuJh" ] },
      { "delegate": "tz1MQMiZHV8q4tTwUMWmS5Y3kaP6J2136iXr",
        "reception_time": "2022-01-21T00:19:56.862-00:00",
        "included_in_blocks":
          [ "BLugz8mEGLwVdGYnGyUsbnoRCDWxm7C51E6fuVfRZ5GmuPpRuJh" ] },
      { "delegate": "tz3QCNyySViKHmeSr45kzDxzchys7NiXCWoa",
        "reception_time": "2022-01-21T00:19:56.784-00:00",
        "included_in_blocks":
          [ "BLugz8mEGLwVdGYnGyUsbnoRCDWxm7C51E6fuVfRZ5GmuPpRuJh" ] },
      { "delegate": "tz3Zhs2dygr55yHyQyKjntAtY9bgfhLZ4Xj1",
        "reception_time": "2022-01-21T00:19:56.680-00:00",
        "included_in_blocks":
          [ "BLugz8mEGLwVdGYnGyUsbnoRCDWxm7C51E6fuVfRZ5GmuPpRuJh" ] },
      { "delegate": "tz3e7LbZvUtoXhpUD1yb6wuFodZpfYRb9nWJ",
        "reception_time": "2022-01-21T00:19:56.691-00:00",
        "included_in_blocks":
          [ "BLugz8mEGLwVdGYnGyUsbnoRCDWxm7C51E6fuVfRZ5GmuPpRuJh" ] },
      { "delegate": "tz3QT9dHYKDqh563chVa6za8526ys1UKfRfL",
        "reception_time": "2022-01-21T00:19:56.633-00:00",
        "included_in_blocks":
          [ "BLugz8mEGLwVdGYnGyUsbnoRCDWxm7C51E6fuVfRZ5GmuPpRuJh" ] },
      { "delegate": "tz1WCd2jm4uSt4vntk4vSuUWoZQGhLcDuR9q",
        "reception_time": "2022-01-21T00:19:56.572-00:00",
        "included_in_blocks":
          [ "BLugz8mEGLwVdGYnGyUsbnoRCDWxm7C51E6fuVfRZ5GmuPpRuJh" ] },
      { "delegate": "tz3S6BBeKgJGXxvLyZ1xzXzMPn11nnFtq5L9",
        "reception_time": "2022-01-21T00:19:56.592-00:00",
        "included_in_blocks":
          [ "BLugz8mEGLwVdGYnGyUsbnoRCDWxm7C51E6fuVfRZ5GmuPpRuJh" ] },
      { "delegate": "tz1TzaNn7wSQSP5gYPXCnNzBCpyMiidCq1PX",
        "reception_time": "2022-01-21T00:19:56.576-00:00",
        "included_in_blocks":
          [ "BLugz8mEGLwVdGYnGyUsbnoRCDWxm7C51E6fuVfRZ5GmuPpRuJh" ] },
      { "delegate": "tz3iJu5vrKZcsqRPs8yJ61UDoeEXZmtro4qh",
        "reception_time": "2022-01-21T00:19:56.640-00:00",
        "included_in_blocks":
          [ "BLugz8mEGLwVdGYnGyUsbnoRCDWxm7C51E6fuVfRZ5GmuPpRuJh" ] },
      { "delegate": "tz3QSGPoRp3Kn7n3vY24eYeu3Peuqo45LQ4D",
        "reception_time": "2022-01-21T00:19:56.572-00:00",
        "included_in_blocks":
          [ "BLugz8mEGLwVdGYnGyUsbnoRCDWxm7C51E6fuVfRZ5GmuPpRuJh" ] },
      { "delegate": "tz3gtoUxdudfBRcNY7iVdKPHCYYX6xdPpoRS",
        "reception_time": "2022-01-21T00:19:56.540-00:00",
        "included_in_blocks":
          [ "BLugz8mEGLwVdGYnGyUsbnoRCDWxm7C51E6fuVfRZ5GmuPpRuJh" ] },
      { "delegate": "tz1gUNyn3hmnEWqkusWPzxRaon1cs7ndWh7h",
        "reception_time": "2022-01-21T00:19:56.564-00:00",
        "included_in_blocks":
          [ "BLugz8mEGLwVdGYnGyUsbnoRCDWxm7C51E6fuVfRZ5GmuPpRuJh" ] },
      { "delegate": "tz1VQnqCCqX4K5sP3FNkVSNKTdCAMJDd3E1n",
        "reception_time": "2022-01-21T00:19:56.643-00:00",
        "included_in_blocks":
          [ "BLugz8mEGLwVdGYnGyUsbnoRCDWxm7C51E6fuVfRZ5GmuPpRuJh" ] },
      { "delegate": "tz1QLXqnfN51dkjeghXvKHkJfhvGiM5gK4tc",
        "reception_time": "2022-01-21T00:19:56.649-00:00",
        "included_in_blocks":
          [ "BLugz8mEGLwVdGYnGyUsbnoRCDWxm7C51E6fuVfRZ5GmuPpRuJh" ] },
      { "delegate": "tz1Ldzz6k1BHdhuKvAtMRX7h5kJSMHESMHLC",
        "reception_time": "2022-01-21T00:19:56.540-00:00",
        "included_in_blocks":
          [ "BLugz8mEGLwVdGYnGyUsbnoRCDWxm7C51E6fuVfRZ5GmuPpRuJh" ] },
      { "delegate": "tz3hw2kqXhLUvY65ca1eety2oQTpAvd34R9Q",
        "reception_time": "2022-01-21T00:19:56.560-00:00",
        "included_in_blocks":
          [ "BLugz8mEGLwVdGYnGyUsbnoRCDWxm7C51E6fuVfRZ5GmuPpRuJh" ] },
      { "delegate": "tz3RKYFsLuQzKBtmYuLNas7uMu3AsYd4QdsA",
        "reception_time": "2022-01-21T00:19:56.560-00:00",
        "included_in_blocks":
          [ "BLugz8mEGLwVdGYnGyUsbnoRCDWxm7C51E6fuVfRZ5GmuPpRuJh" ] },
      { "delegate": "tz1aXD7Jigrt3PBYSpHSg5Rr33SexMmmM5Ys",
        "reception_time": "2022-01-21T00:19:56.592-00:00",
        "included_in_blocks":
          [ "BLugz8mEGLwVdGYnGyUsbnoRCDWxm7C51E6fuVfRZ5GmuPpRuJh" ] },
      { "delegate": "tz3ZbP2pM3nwvXztbuMJwJnDvV5xdpU8UkkD",
        "reception_time": "2022-01-21T00:19:56.530-00:00",
        "included_in_blocks":
          [ "BLugz8mEGLwVdGYnGyUsbnoRCDWxm7C51E6fuVfRZ5GmuPpRuJh" ] },
      { "delegate": "tz3NxTnke1acr8o3h5y9ytf5awQBGNJUKzVU",
        "reception_time": "2022-01-21T00:19:56.547-00:00",
        "included_in_blocks":
          [ "BLugz8mEGLwVdGYnGyUsbnoRCDWxm7C51E6fuVfRZ5GmuPpRuJh" ] },
      { "delegate": "tz1gcna2xxZj2eNp1LaMyAhVJ49mEFj4FH26",
        "reception_time": "2022-01-21T00:19:56.547-00:00",
        "included_in_blocks":
          [ "BLugz8mEGLwVdGYnGyUsbnoRCDWxm7C51E6fuVfRZ5GmuPpRuJh" ] },
      { "delegate": "tz1ZPh7XfUaJXUDvkrBxmS1BjEM1i62hiPpM",
        "reception_time": "2022-01-21T00:19:56.511-00:00",
        "included_in_blocks":
          [ "BLugz8mEGLwVdGYnGyUsbnoRCDWxm7C51E6fuVfRZ5GmuPpRuJh" ] },
      { "delegate": "tz1TRspM5SeZpaQUhzByXbEvqKF1vnCM2YTK",
        "reception_time": "2022-01-21T00:19:56.495-00:00",
        "included_in_blocks":
          [ "BLugz8mEGLwVdGYnGyUsbnoRCDWxm7C51E6fuVfRZ5GmuPpRuJh" ] },
      { "delegate": "tz1eEnQhbwf6trb8Q8mPb2RaPkNk2rN7BKi8",
        "reception_time": "2022-01-21T00:19:56.508-00:00",
        "included_in_blocks":
          [ "BLugz8mEGLwVdGYnGyUsbnoRCDWxm7C51E6fuVfRZ5GmuPpRuJh" ] },
      { "delegate": "tz1Lhf4J9Qxoe3DZ2nfe8FGDnvVj7oKjnMY6",
        "reception_time": "2022-01-21T00:19:56.487-00:00",
        "included_in_blocks":
          [ "BLugz8mEGLwVdGYnGyUsbnoRCDWxm7C51E6fuVfRZ5GmuPpRuJh" ] },
      { "delegate": "tz1Zhv3RkfU2pHrmaiDyxp7kFZpZrUCu1CiF",
        "reception_time": "2022-01-21T00:19:56.477-00:00",
        "included_in_blocks":
          [ "BLugz8mEGLwVdGYnGyUsbnoRCDWxm7C51E6fuVfRZ5GmuPpRuJh" ] },
      { "delegate": "tz1P2Po7YM526ughEsRbY4oR9zaUPDZjxFrb",
        "reception_time": "2022-01-21T00:19:56.483-00:00",
        "included_in_blocks":
          [ "BLugz8mEGLwVdGYnGyUsbnoRCDWxm7C51E6fuVfRZ5GmuPpRuJh" ] },
      { "delegate": "tz1Scdr2HsZiQjc7bHMeBbmDRXYVvdhjJbBh",
        "reception_time": "2022-01-21T00:19:56.483-00:00",
        "included_in_blocks":
          [ "BLugz8mEGLwVdGYnGyUsbnoRCDWxm7C51E6fuVfRZ5GmuPpRuJh" ] } ] }