{ "blocks":
    [ { "hash": "BL73a56WCKBxdppYSuxz8q44p8yE3w7E1jsACE3GvkmpTPSRBr8",
        "delegate": "tz1gfArv665EUkSg2ojMBzcbfwuPxAvqPvjo",
        "reception_time": "2022-01-21T02:57:12.110-00:00",
        "timestamp": "2022-01-21T02:57:00Z" } ],
  "endorsements":
    [ { "delegate": "tz1Vyuu4EJ5Nym4JcrfRLnp3hpaq1DSEp1Ke" },
      { "delegate": "tz1TRqbYbUf2GyrjErf3hBzgBJPzW8y36qEs" },
      { "delegate": "tz1S8e9GgdZG78XJRB3NqabfWeM37GnhZMWQ",
        "reception_time": "2022-01-21T02:57:11.246-00:00",
        "errors":
          [ { "kind": "temporary",
              "id": "proto.011-PtHangz2.prefilter.outdated_endorsement" } ],
        "included_in_blocks":
          [ "BLLrmatsy4kQjbvDwhXSjFGnSDPemVRfo87XHsdR3wttBP4SDdK" ] },
      { "delegate": "tz1gfArv665EUkSg2ojMBzcbfwuPxAvqPvjo",
        "reception_time": "2022-01-21T02:57:11.212-00:00",
        "errors":
          [ { "kind": "temporary",
              "id": "proto.011-PtHangz2.prefilter.outdated_endorsement" } ],
        "included_in_blocks":
          [ "BLLrmatsy4kQjbvDwhXSjFGnSDPemVRfo87XHsdR3wttBP4SDdK" ] },
      { "delegate": "tz1QHEAXGd4DFPBc5yq5gxQw99fTvNEmpKLE",
        "reception_time": "2022-01-21T02:57:18.257-00:00",
        "included_in_blocks":
          [ "BLLrmatsy4kQjbvDwhXSjFGnSDPemVRfo87XHsdR3wttBP4SDdK" ] },
      { "delegate": "tz1g8vkmcde6sWKaG2NN9WKzCkDM6Rziq194",
        "reception_time": "2022-01-21T02:57:16.855-00:00",
        "included_in_blocks":
          [ "BLLrmatsy4kQjbvDwhXSjFGnSDPemVRfo87XHsdR3wttBP4SDdK" ] },
      { "delegate": "tz1aRoaRhSpRYvFdyvgWLL6TGyRoGF51wDjM",
        "reception_time": "2022-01-21T02:57:16.822-00:00",
        "included_in_blocks":
          [ "BLLrmatsy4kQjbvDwhXSjFGnSDPemVRfo87XHsdR3wttBP4SDdK" ] },
      { "delegate": "tz1hA2m6dTgvtgZPXmP6MEauqiYWpD3KXaRy",
        "reception_time": "2022-01-21T02:57:16.465-00:00",
        "included_in_blocks":
          [ "BLLrmatsy4kQjbvDwhXSjFGnSDPemVRfo87XHsdR3wttBP4SDdK" ] },
      { "delegate": "tz3RDC3Jdn4j15J7bBHZd29EUee9gVB1CxD9",
        "reception_time": "2022-01-21T02:57:16.283-00:00",
        "included_in_blocks":
          [ "BLLrmatsy4kQjbvDwhXSjFGnSDPemVRfo87XHsdR3wttBP4SDdK" ] },
      { "delegate": "tz1bTpviNnyx2PXsNmGpCQTMQsGoYordkUoA",
        "reception_time": "2022-01-21T02:57:15.937-00:00",
        "included_in_blocks":
          [ "BLLrmatsy4kQjbvDwhXSjFGnSDPemVRfo87XHsdR3wttBP4SDdK" ] },
      { "delegate": "tz3NExpXn9aPNZPorRE4SdjJ2RGrfbJgMAaV",
        "reception_time": "2022-01-21T02:57:16.788-00:00",
        "included_in_blocks":
          [ "BLLrmatsy4kQjbvDwhXSjFGnSDPemVRfo87XHsdR3wttBP4SDdK" ] },
      { "delegate": "tz1ZcTRk5uxD86EFEn1vvNffWWqJy7q5eVhc",
        "reception_time": "2022-01-21T02:57:15.620-00:00",
        "included_in_blocks":
          [ "BLLrmatsy4kQjbvDwhXSjFGnSDPemVRfo87XHsdR3wttBP4SDdK" ] },
      { "delegate": "tz1PeZx7FXy7QRuMREGXGxeipb24RsMMzUNe",
        "reception_time": "2022-01-21T02:57:14.902-00:00",
        "included_in_blocks":
          [ "BLLrmatsy4kQjbvDwhXSjFGnSDPemVRfo87XHsdR3wttBP4SDdK" ] },
      { "delegate": "tz1cM8Xc7ZP1TrjkTeKq4PeRhtbnwXSBR6Sw",
        "reception_time": "2022-01-21T02:57:15.752-00:00",
        "included_in_blocks":
          [ "BLLrmatsy4kQjbvDwhXSjFGnSDPemVRfo87XHsdR3wttBP4SDdK" ] },
      { "delegate": "tz1dRKU4FQ9QRRQPdaH4zCR6gmCmXfcvcgtB",
        "reception_time": "2022-01-21T02:57:15.014-00:00",
        "included_in_blocks":
          [ "BLLrmatsy4kQjbvDwhXSjFGnSDPemVRfo87XHsdR3wttBP4SDdK" ] },
      { "delegate": "tz3NDpRj6WBrJPikcPVHRBEjWKxFw3c6eQPS",
        "reception_time": "2022-01-21T02:57:14.796-00:00",
        "included_in_blocks":
          [ "BLLrmatsy4kQjbvDwhXSjFGnSDPemVRfo87XHsdR3wttBP4SDdK" ] },
      { "delegate": "tz1WBfwbT66FC6BTLexc2BoyCCBM9LG7pnVW",
        "reception_time": "2022-01-21T02:57:14.750-00:00",
        "included_in_blocks":
          [ "BLLrmatsy4kQjbvDwhXSjFGnSDPemVRfo87XHsdR3wttBP4SDdK" ] },
      { "delegate": "tz1hAYfexyzPGG6RhZZMpDvAHifubsbb6kgn",
        "reception_time": "2022-01-21T02:57:14.413-00:00",
        "included_in_blocks":
          [ "BLLrmatsy4kQjbvDwhXSjFGnSDPemVRfo87XHsdR3wttBP4SDdK" ] },
      { "delegate": "tz1cYufsxHXJcvANhvS55h3aY32a9BAFB494",
        "reception_time": "2022-01-21T02:57:14.415-00:00",
        "included_in_blocks":
          [ "BLLrmatsy4kQjbvDwhXSjFGnSDPemVRfo87XHsdR3wttBP4SDdK" ] },
      { "delegate": "tz1abmz7jiCV2GH2u81LRrGgAFFgvQgiDiaf",
        "reception_time": "2022-01-21T02:57:14.682-00:00",
        "included_in_blocks":
          [ "BLLrmatsy4kQjbvDwhXSjFGnSDPemVRfo87XHsdR3wttBP4SDdK" ] },
      { "delegate": "tz3bTdwZinP8U1JmSweNzVKhmwafqWmFWRfk",
        "reception_time": "2022-01-21T02:57:14.655-00:00",
        "included_in_blocks":
          [ "BLLrmatsy4kQjbvDwhXSjFGnSDPemVRfo87XHsdR3wttBP4SDdK" ] },
      { "delegate": "tz3bvNMQ95vfAYtG8193ymshqjSvmxiCUuR5",
        "reception_time": "2022-01-21T02:57:14.635-00:00",
        "included_in_blocks":
          [ "BLLrmatsy4kQjbvDwhXSjFGnSDPemVRfo87XHsdR3wttBP4SDdK" ] },
      { "delegate": "tz2FCNBrERXtaTtNX6iimR1UJ5JSDxvdHM93",
        "reception_time": "2022-01-21T02:57:14.508-00:00",
        "included_in_blocks":
          [ "BLLrmatsy4kQjbvDwhXSjFGnSDPemVRfo87XHsdR3wttBP4SDdK" ] },
      { "delegate": "tz1S8MNvuFEUsWgjHvi3AxibRBf388NhT1q2",
        "reception_time": "2022-01-21T02:57:15.155-00:00",
        "included_in_blocks":
          [ "BLLrmatsy4kQjbvDwhXSjFGnSDPemVRfo87XHsdR3wttBP4SDdK" ] },
      { "delegate": "tz3RB4aoyjov4KEVRbuhvQ1CKJgBJMWhaeB8",
        "reception_time": "2022-01-21T02:57:14.387-00:00",
        "included_in_blocks":
          [ "BLLrmatsy4kQjbvDwhXSjFGnSDPemVRfo87XHsdR3wttBP4SDdK" ] },
      { "delegate": "tz3WMqdzXqRWXwyvj5Hp2H7QEepaUuS7vd9K",
        "reception_time": "2022-01-21T02:57:15.337-00:00",
        "included_in_blocks":
          [ "BLLrmatsy4kQjbvDwhXSjFGnSDPemVRfo87XHsdR3wttBP4SDdK" ] },
      { "delegate": "tz1SYq214SCBy9naR6cvycQsYcUGpBqQAE8d",
        "reception_time": "2022-01-21T02:57:14.174-00:00",
        "included_in_blocks":
          [ "BLLrmatsy4kQjbvDwhXSjFGnSDPemVRfo87XHsdR3wttBP4SDdK" ] },
      { "delegate": "tz1WnfXMPaNTBmH7DBPwqCWs9cPDJdkGBTZ8",
        "reception_time": "2022-01-21T02:57:14.407-00:00",
        "included_in_blocks":
          [ "BLLrmatsy4kQjbvDwhXSjFGnSDPemVRfo87XHsdR3wttBP4SDdK" ] },
      { "delegate": "tz1Nf6tsK4G6bBqgSQERy4nUtkHNKUVdh7q1",
        "reception_time": "2022-01-21T02:57:14.137-00:00",
        "included_in_blocks":
          [ "BLLrmatsy4kQjbvDwhXSjFGnSDPemVRfo87XHsdR3wttBP4SDdK" ] },
      { "delegate": "tz1Tnjaxk6tbAeC2TmMApPh8UsrEVQvhHvx5",
        "reception_time": "2022-01-21T02:57:14.549-00:00",
        "included_in_blocks":
          [ "BLLrmatsy4kQjbvDwhXSjFGnSDPemVRfo87XHsdR3wttBP4SDdK" ] },
      { "delegate": "tz1UJvHTgpVzcKWhTazGxVcn5wsHru5Gietg",
        "reception_time": "2022-01-21T02:57:14.098-00:00",
        "included_in_blocks":
          [ "BLLrmatsy4kQjbvDwhXSjFGnSDPemVRfo87XHsdR3wttBP4SDdK" ] },
      { "delegate": "tz3VEZ4k6a4Wx42iyev6i2aVAptTRLEAivNN",
        "reception_time": "2022-01-21T02:57:14.967-00:00",
        "included_in_blocks":
          [ "BLLrmatsy4kQjbvDwhXSjFGnSDPemVRfo87XHsdR3wttBP4SDdK" ] },
      { "delegate": "tz3UoffC7FG7zfpmvmjUmUeAaHvzdcUvAj6r",
        "reception_time": "2022-01-21T02:57:14.922-00:00",
        "included_in_blocks":
          [ "BLLrmatsy4kQjbvDwhXSjFGnSDPemVRfo87XHsdR3wttBP4SDdK" ] },
      { "delegate": "tz3QT9dHYKDqh563chVa6za8526ys1UKfRfL",
        "reception_time": "2022-01-21T02:57:13.956-00:00",
        "included_in_blocks":
          [ "BLLrmatsy4kQjbvDwhXSjFGnSDPemVRfo87XHsdR3wttBP4SDdK" ] },
      { "delegate": "tz3S6BBeKgJGXxvLyZ1xzXzMPn11nnFtq5L9",
        "reception_time": "2022-01-21T02:57:13.963-00:00",
        "included_in_blocks":
          [ "BLLrmatsy4kQjbvDwhXSjFGnSDPemVRfo87XHsdR3wttBP4SDdK" ] },
      { "delegate": "tz1RQhNh7iB9CZA7i3ifTWNwiGYVffponfbB",
        "reception_time": "2022-01-21T02:57:13.945-00:00",
        "included_in_blocks":
          [ "BLLrmatsy4kQjbvDwhXSjFGnSDPemVRfo87XHsdR3wttBP4SDdK" ] },
      { "delegate": "tz1NEKxGEHsFufk87CVZcrqWu8o22qh46GK6",
        "reception_time": "2022-01-21T02:57:14.367-00:00",
        "included_in_blocks":
          [ "BLLrmatsy4kQjbvDwhXSjFGnSDPemVRfo87XHsdR3wttBP4SDdK" ] },
      { "delegate": "tz1aJ8wxNeVRYbbx5YqzurmYzwKzkS96rHP4",
        "reception_time": "2022-01-21T02:57:14.119-00:00",
        "included_in_blocks":
          [ "BLLrmatsy4kQjbvDwhXSjFGnSDPemVRfo87XHsdR3wttBP4SDdK" ] },
      { "delegate": "tz3QCNyySViKHmeSr45kzDxzchys7NiXCWoa",
        "reception_time": "2022-01-21T02:57:13.933-00:00",
        "included_in_blocks":
          [ "BLLrmatsy4kQjbvDwhXSjFGnSDPemVRfo87XHsdR3wttBP4SDdK" ] },
      { "delegate": "tz1RCFbB9GpALpsZtu6J58sb74dm8qe6XBzv",
        "reception_time": "2022-01-21T02:57:13.937-00:00",
        "included_in_blocks":
          [ "BLLrmatsy4kQjbvDwhXSjFGnSDPemVRfo87XHsdR3wttBP4SDdK" ] },
      { "delegate": "tz1PWCDnz783NNGGQjEFFsHtrcK5yBW4E2rm",
        "reception_time": "2022-01-21T02:57:13.883-00:00",
        "included_in_blocks":
          [ "BLLrmatsy4kQjbvDwhXSjFGnSDPemVRfo87XHsdR3wttBP4SDdK" ] },
      { "delegate": "tz1fPKAtsYydh4f1wfWNfeNxWYu72TmM48fu",
        "reception_time": "2022-01-21T02:57:13.956-00:00",
        "included_in_blocks":
          [ "BLLrmatsy4kQjbvDwhXSjFGnSDPemVRfo87XHsdR3wttBP4SDdK" ] },
      { "delegate": "tz3iJu5vrKZcsqRPs8yJ61UDoeEXZmtro4qh",
        "reception_time": "2022-01-21T02:57:13.880-00:00",
        "included_in_blocks":
          [ "BLLrmatsy4kQjbvDwhXSjFGnSDPemVRfo87XHsdR3wttBP4SDdK" ] },
      { "delegate": "tz3hw2kqXhLUvY65ca1eety2oQTpAvd34R9Q",
        "reception_time": "2022-01-21T02:57:13.898-00:00",
        "included_in_blocks":
          [ "BLLrmatsy4kQjbvDwhXSjFGnSDPemVRfo87XHsdR3wttBP4SDdK" ] },
      { "delegate": "tz1TUByFyn9oCXd5c4wDrDekjhPfXtYn4cyb",
        "reception_time": "2022-01-21T02:57:13.914-00:00",
        "included_in_blocks":
          [ "BLLrmatsy4kQjbvDwhXSjFGnSDPemVRfo87XHsdR3wttBP4SDdK" ] },
      { "delegate": "tz3NxTnke1acr8o3h5y9ytf5awQBGNJUKzVU",
        "reception_time": "2022-01-21T02:57:13.846-00:00",
        "included_in_blocks":
          [ "BLLrmatsy4kQjbvDwhXSjFGnSDPemVRfo87XHsdR3wttBP4SDdK" ] },
      { "delegate": "tz1aXD7Jigrt3PBYSpHSg5Rr33SexMmmM5Ys",
        "reception_time": "2022-01-21T02:57:13.828-00:00",
        "included_in_blocks":
          [ "BLLrmatsy4kQjbvDwhXSjFGnSDPemVRfo87XHsdR3wttBP4SDdK" ] },
      { "delegate": "tz1VmiY38m3y95HqQLjMwqnMS7sdMfGomzKi",
        "reception_time": "2022-01-21T02:57:13.816-00:00",
        "included_in_blocks":
          [ "BLLrmatsy4kQjbvDwhXSjFGnSDPemVRfo87XHsdR3wttBP4SDdK" ] },
      { "delegate": "tz1WCd2jm4uSt4vntk4vSuUWoZQGhLcDuR9q",
        "reception_time": "2022-01-21T02:57:13.835-00:00",
        "included_in_blocks":
          [ "BLLrmatsy4kQjbvDwhXSjFGnSDPemVRfo87XHsdR3wttBP4SDdK" ] },
      { "delegate": "tz3RKYFsLuQzKBtmYuLNas7uMu3AsYd4QdsA",
        "reception_time": "2022-01-21T02:57:13.910-00:00",
        "included_in_blocks":
          [ "BLLrmatsy4kQjbvDwhXSjFGnSDPemVRfo87XHsdR3wttBP4SDdK" ] },
      { "delegate": "tz1dNVDWPf3Q59SdJqnjdnu277iyvReiRS9M",
        "reception_time": "2022-01-21T02:57:13.942-00:00",
        "included_in_blocks":
          [ "BLLrmatsy4kQjbvDwhXSjFGnSDPemVRfo87XHsdR3wttBP4SDdK" ] },
      { "delegate": "tz1ei4WtWEMEJekSv8qDnu9PExG6Q8HgRGr3",
        "reception_time": "2022-01-21T02:57:13.903-00:00",
        "included_in_blocks":
          [ "BLLrmatsy4kQjbvDwhXSjFGnSDPemVRfo87XHsdR3wttBP4SDdK" ] },
      { "delegate": "tz1cSj7fTex3JPd1p1LN1fwek6AV1kH93Wwc",
        "reception_time": "2022-01-21T02:57:13.914-00:00",
        "included_in_blocks":
          [ "BLLrmatsy4kQjbvDwhXSjFGnSDPemVRfo87XHsdR3wttBP4SDdK" ] },
      { "delegate": "tz3Zhs2dygr55yHyQyKjntAtY9bgfhLZ4Xj1",
        "reception_time": "2022-01-21T02:57:13.889-00:00",
        "included_in_blocks":
          [ "BLLrmatsy4kQjbvDwhXSjFGnSDPemVRfo87XHsdR3wttBP4SDdK" ] },
      { "delegate": "tz3QSGPoRp3Kn7n3vY24eYeu3Peuqo45LQ4D",
        "reception_time": "2022-01-21T02:57:13.865-00:00",
        "included_in_blocks":
          [ "BLLrmatsy4kQjbvDwhXSjFGnSDPemVRfo87XHsdR3wttBP4SDdK" ] },
      { "delegate": "tz3gtoUxdudfBRcNY7iVdKPHCYYX6xdPpoRS",
        "reception_time": "2022-01-21T02:57:13.853-00:00",
        "included_in_blocks":
          [ "BLLrmatsy4kQjbvDwhXSjFGnSDPemVRfo87XHsdR3wttBP4SDdK" ] },
      { "delegate": "tz1TzaNn7wSQSP5gYPXCnNzBCpyMiidCq1PX",
        "reception_time": "2022-01-21T02:57:13.868-00:00",
        "included_in_blocks":
          [ "BLLrmatsy4kQjbvDwhXSjFGnSDPemVRfo87XHsdR3wttBP4SDdK" ] },
      { "delegate": "tz1V4qCyvPKZ5UeqdH14HN42rxvNPQfc9UZg",
        "reception_time": "2022-01-21T02:57:13.898-00:00",
        "included_in_blocks":
          [ "BLLrmatsy4kQjbvDwhXSjFGnSDPemVRfo87XHsdR3wttBP4SDdK" ] },
      { "delegate": "tz3ZbP2pM3nwvXztbuMJwJnDvV5xdpU8UkkD",
        "reception_time": "2022-01-21T02:57:13.859-00:00",
        "included_in_blocks":
          [ "BLLrmatsy4kQjbvDwhXSjFGnSDPemVRfo87XHsdR3wttBP4SDdK" ] },
      { "delegate": "tz1irJKkXS2DBWkU1NnmFQx1c1L7pbGg4yhk",
        "reception_time": "2022-01-21T02:57:13.840-00:00",
        "included_in_blocks":
          [ "BLLrmatsy4kQjbvDwhXSjFGnSDPemVRfo87XHsdR3wttBP4SDdK" ] },
      { "delegate": "tz1P2Po7YM526ughEsRbY4oR9zaUPDZjxFrb",
        "reception_time": "2022-01-21T02:57:13.837-00:00",
        "included_in_blocks":
          [ "BLLrmatsy4kQjbvDwhXSjFGnSDPemVRfo87XHsdR3wttBP4SDdK" ] },
      { "delegate": "tz1eEnQhbwf6trb8Q8mPb2RaPkNk2rN7BKi8",
        "reception_time": "2022-01-21T02:57:13.832-00:00",
        "included_in_blocks":
          [ "BLLrmatsy4kQjbvDwhXSjFGnSDPemVRfo87XHsdR3wttBP4SDdK" ] },
      { "delegate": "tz1Lhf4J9Qxoe3DZ2nfe8FGDnvVj7oKjnMY6",
        "reception_time": "2022-01-21T02:57:13.812-00:00",
        "included_in_blocks":
          [ "BLLrmatsy4kQjbvDwhXSjFGnSDPemVRfo87XHsdR3wttBP4SDdK" ] },
      { "delegate": "tz1gUNyn3hmnEWqkusWPzxRaon1cs7ndWh7h",
        "reception_time": "2022-01-21T02:57:13.820-00:00",
        "included_in_blocks":
          [ "BLLrmatsy4kQjbvDwhXSjFGnSDPemVRfo87XHsdR3wttBP4SDdK" ] },
      { "delegate": "tz1KfEsrtDaA1sX7vdM4qmEPWuSytuqCDp5j",
        "reception_time": "2022-01-21T02:57:13.933-00:00",
        "included_in_blocks":
          [ "BLLrmatsy4kQjbvDwhXSjFGnSDPemVRfo87XHsdR3wttBP4SDdK" ] },
      { "delegate": "tz1VQnqCCqX4K5sP3FNkVSNKTdCAMJDd3E1n",
        "reception_time": "2022-01-21T02:57:13.830-00:00",
        "included_in_blocks":
          [ "BLLrmatsy4kQjbvDwhXSjFGnSDPemVRfo87XHsdR3wttBP4SDdK" ] },
      { "delegate": "tz1Ldzz6k1BHdhuKvAtMRX7h5kJSMHESMHLC",
        "reception_time": "2022-01-21T02:57:13.825-00:00",
        "included_in_blocks":
          [ "BLLrmatsy4kQjbvDwhXSjFGnSDPemVRfo87XHsdR3wttBP4SDdK" ] },
      { "delegate": "tz1TXzyaKUA8wsWefdSnyaYFnV2M3vCV7er9",
        "reception_time": "2022-01-21T02:57:13.812-00:00",
        "included_in_blocks":
          [ "BLLrmatsy4kQjbvDwhXSjFGnSDPemVRfo87XHsdR3wttBP4SDdK" ] } ] }