{ "blocks":
    [ { "hash": "BLLrmatsy4kQjbvDwhXSjFGnSDPemVRfo87XHsdR3wttBP4SDdK",
        "delegate": "tz3NExpXn9aPNZPorRE4SdjJ2RGrfbJgMAaV",
        "reception_time": "2022-01-21T02:57:41.354-00:00",
        "timestamp": "2022-01-21T02:57:30Z" } ],
  "endorsements":
    [ { "delegate": "tz1TeWzSWBNZ7PB6Kb6xUpGCT7pu13PFv3cv" },
      { "delegate": "tz1TRqbYbUf2GyrjErf3hBzgBJPzW8y36qEs" },
      { "delegate": "tz1beersuEDv8Z7ngQ825xfbaJNS2EhXnyHR",
        "reception_time": "2022-01-21T02:57:41.017-00:00",
        "errors":
          [ { "kind": "temporary",
              "id": "proto.011-PtHangz2.prefilter.outdated_endorsement" } ],
        "included_in_blocks":
          [ "BKweFmK9exm8p3s8k2mnX4Q8CA9q9V57vcyTi3ifgQkMQ2j7HY9" ] },
      { "delegate": "tz1STeamwbp68THcny9zk3LsbG3H36DMvbRK",
        "reception_time": "2022-01-21T02:57:41.016-00:00",
        "errors":
          [ { "kind": "temporary",
              "id": "proto.011-PtHangz2.prefilter.outdated_endorsement" } ],
        "included_in_blocks":
          [ "BKweFmK9exm8p3s8k2mnX4Q8CA9q9V57vcyTi3ifgQkMQ2j7HY9" ] },
      { "delegate": "tz1Scdr2HsZiQjc7bHMeBbmDRXYVvdhjJbBh",
        "reception_time": "2022-01-21T02:57:40.797-00:00",
        "errors":
          [ { "kind": "temporary",
              "id": "proto.011-PtHangz2.prefilter.outdated_endorsement" } ],
        "included_in_blocks":
          [ "BKweFmK9exm8p3s8k2mnX4Q8CA9q9V57vcyTi3ifgQkMQ2j7HY9" ] },
      { "delegate": "tz1W5VkdB5s7ENMESVBtwyt9kyvLqPcUczRT",
        "reception_time": "2022-01-21T02:57:49.225-00:00",
        "included_in_blocks":
          [ "BKweFmK9exm8p3s8k2mnX4Q8CA9q9V57vcyTi3ifgQkMQ2j7HY9" ] },
      { "delegate": "tz1hA2m6dTgvtgZPXmP6MEauqiYWpD3KXaRy",
        "reception_time": "2022-01-21T02:57:47.347-00:00",
        "included_in_blocks":
          [ "BKweFmK9exm8p3s8k2mnX4Q8CA9q9V57vcyTi3ifgQkMQ2j7HY9" ] },
      { "delegate": "tz1g8vkmcde6sWKaG2NN9WKzCkDM6Rziq194",
        "reception_time": "2022-01-21T02:57:46.531-00:00",
        "included_in_blocks":
          [ "BKweFmK9exm8p3s8k2mnX4Q8CA9q9V57vcyTi3ifgQkMQ2j7HY9" ] },
      { "delegate": "tz1aRoaRhSpRYvFdyvgWLL6TGyRoGF51wDjM",
        "reception_time": "2022-01-21T02:57:45.969-00:00",
        "included_in_blocks":
          [ "BKweFmK9exm8p3s8k2mnX4Q8CA9q9V57vcyTi3ifgQkMQ2j7HY9" ] },
      { "delegate": "tz1fUyqYH7H4pRHN1roWY17giXhy1RvxjgUV",
        "reception_time": "2022-01-21T02:57:45.183-00:00",
        "included_in_blocks":
          [ "BKweFmK9exm8p3s8k2mnX4Q8CA9q9V57vcyTi3ifgQkMQ2j7HY9" ] },
      { "delegate": "tz1aNPWn5jgLBpEGFABKM161eeeLVVJxgYME",
        "reception_time": "2022-01-21T02:57:45.136-00:00",
        "included_in_blocks":
          [ "BKweFmK9exm8p3s8k2mnX4Q8CA9q9V57vcyTi3ifgQkMQ2j7HY9" ] },
      { "delegate": "tz1bTpviNnyx2PXsNmGpCQTMQsGoYordkUoA",
        "reception_time": "2022-01-21T02:57:44.970-00:00",
        "included_in_blocks":
          [ "BKweFmK9exm8p3s8k2mnX4Q8CA9q9V57vcyTi3ifgQkMQ2j7HY9" ] },
      { "delegate": "tz3bvNMQ95vfAYtG8193ymshqjSvmxiCUuR5",
        "reception_time": "2022-01-21T02:57:44.668-00:00",
        "included_in_blocks":
          [ "BKweFmK9exm8p3s8k2mnX4Q8CA9q9V57vcyTi3ifgQkMQ2j7HY9" ] },
      { "delegate": "tz1f3Re8iw6Pt3KMHAvyccHxDU3NuqL95axD",
        "reception_time": "2022-01-21T02:57:44.138-00:00",
        "included_in_blocks":
          [ "BKweFmK9exm8p3s8k2mnX4Q8CA9q9V57vcyTi3ifgQkMQ2j7HY9" ] },
      { "delegate": "tz1Zdk8q7wNasmv7VFeQ6QFwcw5fP2c7StoF",
        "reception_time": "2022-01-21T02:57:44.086-00:00",
        "included_in_blocks":
          [ "BKweFmK9exm8p3s8k2mnX4Q8CA9q9V57vcyTi3ifgQkMQ2j7HY9" ] },
      { "delegate": "tz3RB4aoyjov4KEVRbuhvQ1CKJgBJMWhaeB8",
        "reception_time": "2022-01-21T02:57:43.985-00:00",
        "included_in_blocks":
          [ "BKweFmK9exm8p3s8k2mnX4Q8CA9q9V57vcyTi3ifgQkMQ2j7HY9" ] },
      { "delegate": "tz1cYufsxHXJcvANhvS55h3aY32a9BAFB494",
        "reception_time": "2022-01-21T02:57:43.967-00:00",
        "included_in_blocks":
          [ "BKweFmK9exm8p3s8k2mnX4Q8CA9q9V57vcyTi3ifgQkMQ2j7HY9" ] },
      { "delegate": "tz1T7duV5gZWSTq4YpBGbXNLTfznCLDrFxvs",
        "reception_time": "2022-01-21T02:57:43.925-00:00",
        "included_in_blocks":
          [ "BKweFmK9exm8p3s8k2mnX4Q8CA9q9V57vcyTi3ifgQkMQ2j7HY9" ] },
      { "delegate": "tz1SYq214SCBy9naR6cvycQsYcUGpBqQAE8d",
        "reception_time": "2022-01-21T02:57:43.833-00:00",
        "included_in_blocks":
          [ "BKweFmK9exm8p3s8k2mnX4Q8CA9q9V57vcyTi3ifgQkMQ2j7HY9" ] },
      { "delegate": "tz1dRKU4FQ9QRRQPdaH4zCR6gmCmXfcvcgtB",
        "reception_time": "2022-01-21T02:57:43.858-00:00",
        "included_in_blocks":
          [ "BKweFmK9exm8p3s8k2mnX4Q8CA9q9V57vcyTi3ifgQkMQ2j7HY9" ] },
      { "delegate": "tz3UoffC7FG7zfpmvmjUmUeAaHvzdcUvAj6r",
        "reception_time": "2022-01-21T02:57:43.762-00:00",
        "included_in_blocks":
          [ "BKweFmK9exm8p3s8k2mnX4Q8CA9q9V57vcyTi3ifgQkMQ2j7HY9" ] },
      { "delegate": "tz1WctSwL49BZtdWAQ75NY6vr4xsAx6oKdah",
        "reception_time": "2022-01-21T02:57:43.836-00:00",
        "included_in_blocks":
          [ "BKweFmK9exm8p3s8k2mnX4Q8CA9q9V57vcyTi3ifgQkMQ2j7HY9" ] },
      { "delegate": "tz1WnfXMPaNTBmH7DBPwqCWs9cPDJdkGBTZ8",
        "reception_time": "2022-01-21T02:57:43.818-00:00",
        "included_in_blocks":
          [ "BKweFmK9exm8p3s8k2mnX4Q8CA9q9V57vcyTi3ifgQkMQ2j7HY9" ] },
      { "delegate": "tz1PeZx7FXy7QRuMREGXGxeipb24RsMMzUNe",
        "reception_time": "2022-01-21T02:57:43.706-00:00",
        "included_in_blocks":
          [ "BKweFmK9exm8p3s8k2mnX4Q8CA9q9V57vcyTi3ifgQkMQ2j7HY9" ] },
      { "delegate": "tz1LYW7Yepo9qsQx2kjpek2RYVMCeGwBvDCQ",
        "reception_time": "2022-01-21T02:57:43.803-00:00",
        "included_in_blocks":
          [ "BKweFmK9exm8p3s8k2mnX4Q8CA9q9V57vcyTi3ifgQkMQ2j7HY9" ] },
      { "delegate": "tz1RjoHc98dBoqaH2jawF62XNKh7YsHwbkEv",
        "reception_time": "2022-01-21T02:57:43.798-00:00",
        "included_in_blocks":
          [ "BKweFmK9exm8p3s8k2mnX4Q8CA9q9V57vcyTi3ifgQkMQ2j7HY9" ] },
      { "delegate": "tz1fwnfJNgiDACshK9avfRfFbMaXrs3ghoJa",
        "reception_time": "2022-01-21T02:57:43.812-00:00",
        "included_in_blocks":
          [ "BKweFmK9exm8p3s8k2mnX4Q8CA9q9V57vcyTi3ifgQkMQ2j7HY9" ] },
      { "delegate": "tz1WBfwbT66FC6BTLexc2BoyCCBM9LG7pnVW",
        "reception_time": "2022-01-21T02:57:43.673-00:00",
        "included_in_blocks":
          [ "BKweFmK9exm8p3s8k2mnX4Q8CA9q9V57vcyTi3ifgQkMQ2j7HY9" ] },
      { "delegate": "tz1Tnjaxk6tbAeC2TmMApPh8UsrEVQvhHvx5",
        "reception_time": "2022-01-21T02:57:43.808-00:00",
        "included_in_blocks":
          [ "BKweFmK9exm8p3s8k2mnX4Q8CA9q9V57vcyTi3ifgQkMQ2j7HY9" ] },
      { "delegate": "tz1V4qCyvPKZ5UeqdH14HN42rxvNPQfc9UZg",
        "reception_time": "2022-01-21T02:57:43.779-00:00",
        "included_in_blocks":
          [ "BKweFmK9exm8p3s8k2mnX4Q8CA9q9V57vcyTi3ifgQkMQ2j7HY9" ] },
      { "delegate": "tz1RCFbB9GpALpsZtu6J58sb74dm8qe6XBzv",
        "reception_time": "2022-01-21T02:57:43.798-00:00",
        "included_in_blocks":
          [ "BKweFmK9exm8p3s8k2mnX4Q8CA9q9V57vcyTi3ifgQkMQ2j7HY9" ] },
      { "delegate": "tz3WMqdzXqRWXwyvj5Hp2H7QEepaUuS7vd9K",
        "reception_time": "2022-01-21T02:57:43.689-00:00",
        "included_in_blocks":
          [ "BKweFmK9exm8p3s8k2mnX4Q8CA9q9V57vcyTi3ifgQkMQ2j7HY9" ] },
      { "delegate": "tz3RDC3Jdn4j15J7bBHZd29EUee9gVB1CxD9",
        "reception_time": "2022-01-21T02:57:43.779-00:00",
        "included_in_blocks":
          [ "BKweFmK9exm8p3s8k2mnX4Q8CA9q9V57vcyTi3ifgQkMQ2j7HY9" ] },
      { "delegate": "tz2FCNBrERXtaTtNX6iimR1UJ5JSDxvdHM93",
        "reception_time": "2022-01-21T02:57:43.663-00:00",
        "included_in_blocks":
          [ "BKweFmK9exm8p3s8k2mnX4Q8CA9q9V57vcyTi3ifgQkMQ2j7HY9" ] },
      { "delegate": "tz1NEKxGEHsFufk87CVZcrqWu8o22qh46GK6",
        "reception_time": "2022-01-21T02:57:43.711-00:00",
        "included_in_blocks":
          [ "BKweFmK9exm8p3s8k2mnX4Q8CA9q9V57vcyTi3ifgQkMQ2j7HY9" ] },
      { "delegate": "tz1LmaFsWRkjr7QMCx5PtV6xTUz3AmEpKQiF",
        "reception_time": "2022-01-21T02:57:43.661-00:00",
        "included_in_blocks":
          [ "BKweFmK9exm8p3s8k2mnX4Q8CA9q9V57vcyTi3ifgQkMQ2j7HY9" ] },
      { "delegate": "tz3VEZ4k6a4Wx42iyev6i2aVAptTRLEAivNN",
        "reception_time": "2022-01-21T02:57:43.680-00:00",
        "included_in_blocks":
          [ "BKweFmK9exm8p3s8k2mnX4Q8CA9q9V57vcyTi3ifgQkMQ2j7HY9" ] },
      { "delegate": "tz1RQhNh7iB9CZA7i3ifTWNwiGYVffponfbB",
        "reception_time": "2022-01-21T02:57:43.711-00:00",
        "included_in_blocks":
          [ "BKweFmK9exm8p3s8k2mnX4Q8CA9q9V57vcyTi3ifgQkMQ2j7HY9" ] },
      { "delegate": "tz1MH387oMRFco3kzz8t3wuqdbpAyTcKZtsg",
        "reception_time": "2022-01-21T02:57:43.706-00:00",
        "included_in_blocks":
          [ "BKweFmK9exm8p3s8k2mnX4Q8CA9q9V57vcyTi3ifgQkMQ2j7HY9" ] },
      { "delegate": "tz1gfArv665EUkSg2ojMBzcbfwuPxAvqPvjo",
        "reception_time": "2022-01-21T02:57:43.658-00:00",
        "included_in_blocks":
          [ "BKweFmK9exm8p3s8k2mnX4Q8CA9q9V57vcyTi3ifgQkMQ2j7HY9" ] },
      { "delegate": "tz1Nf6tsK4G6bBqgSQERy4nUtkHNKUVdh7q1",
        "reception_time": "2022-01-21T02:57:43.689-00:00",
        "included_in_blocks":
          [ "BKweFmK9exm8p3s8k2mnX4Q8CA9q9V57vcyTi3ifgQkMQ2j7HY9" ] },
      { "delegate": "tz3NExpXn9aPNZPorRE4SdjJ2RGrfbJgMAaV",
        "reception_time": "2022-01-21T02:57:43.671-00:00",
        "included_in_blocks":
          [ "BKweFmK9exm8p3s8k2mnX4Q8CA9q9V57vcyTi3ifgQkMQ2j7HY9" ] },
      { "delegate": "tz1fPKAtsYydh4f1wfWNfeNxWYu72TmM48fu",
        "reception_time": "2022-01-21T02:57:43.791-00:00",
        "included_in_blocks":
          [ "BKweFmK9exm8p3s8k2mnX4Q8CA9q9V57vcyTi3ifgQkMQ2j7HY9" ] },
      { "delegate": "tz1UtayNgAX8QEJ3NoLptPzoPr9JiH3Cskzz",
        "reception_time": "2022-01-21T02:57:43.695-00:00",
        "included_in_blocks":
          [ "BKweFmK9exm8p3s8k2mnX4Q8CA9q9V57vcyTi3ifgQkMQ2j7HY9" ] },
      { "delegate": "tz3bTdwZinP8U1JmSweNzVKhmwafqWmFWRfk",
        "reception_time": "2022-01-21T02:57:43.702-00:00",
        "included_in_blocks":
          [ "BKweFmK9exm8p3s8k2mnX4Q8CA9q9V57vcyTi3ifgQkMQ2j7HY9" ] },
      { "delegate": "tz1ei4WtWEMEJekSv8qDnu9PExG6Q8HgRGr3",
        "reception_time": "2022-01-21T02:57:43.695-00:00",
        "included_in_blocks":
          [ "BKweFmK9exm8p3s8k2mnX4Q8CA9q9V57vcyTi3ifgQkMQ2j7HY9" ] },
      { "delegate": "tz3QCNyySViKHmeSr45kzDxzchys7NiXCWoa",
        "reception_time": "2022-01-21T02:57:43.658-00:00",
        "included_in_blocks":
          [ "BKweFmK9exm8p3s8k2mnX4Q8CA9q9V57vcyTi3ifgQkMQ2j7HY9" ] },
      { "delegate": "tz3iJu5vrKZcsqRPs8yJ61UDoeEXZmtro4qh",
        "reception_time": "2022-01-21T02:57:43.650-00:00",
        "included_in_blocks":
          [ "BKweFmK9exm8p3s8k2mnX4Q8CA9q9V57vcyTi3ifgQkMQ2j7HY9" ] },
      { "delegate": "tz1S8MNvuFEUsWgjHvi3AxibRBf388NhT1q2",
        "reception_time": "2022-01-21T02:57:43.565-00:00",
        "included_in_blocks":
          [ "BKweFmK9exm8p3s8k2mnX4Q8CA9q9V57vcyTi3ifgQkMQ2j7HY9" ] },
      { "delegate": "tz3Zhs2dygr55yHyQyKjntAtY9bgfhLZ4Xj1",
        "reception_time": "2022-01-21T02:57:43.637-00:00",
        "included_in_blocks":
          [ "BKweFmK9exm8p3s8k2mnX4Q8CA9q9V57vcyTi3ifgQkMQ2j7HY9" ] },
      { "delegate": "tz3QT9dHYKDqh563chVa6za8526ys1UKfRfL",
        "reception_time": "2022-01-21T02:57:43.623-00:00",
        "included_in_blocks":
          [ "BKweFmK9exm8p3s8k2mnX4Q8CA9q9V57vcyTi3ifgQkMQ2j7HY9" ] },
      { "delegate": "tz3adcvQaKXTCg12zbninqo3q8ptKKtDFTLv",
        "reception_time": "2022-01-21T02:57:43.562-00:00",
        "included_in_blocks":
          [ "BKweFmK9exm8p3s8k2mnX4Q8CA9q9V57vcyTi3ifgQkMQ2j7HY9" ] },
      { "delegate": "tz3S6BBeKgJGXxvLyZ1xzXzMPn11nnFtq5L9",
        "reception_time": "2022-01-21T02:57:43.643-00:00",
        "included_in_blocks":
          [ "BKweFmK9exm8p3s8k2mnX4Q8CA9q9V57vcyTi3ifgQkMQ2j7HY9" ] },
      { "delegate": "tz1KfEsrtDaA1sX7vdM4qmEPWuSytuqCDp5j",
        "reception_time": "2022-01-21T02:57:43.550-00:00",
        "included_in_blocks":
          [ "BKweFmK9exm8p3s8k2mnX4Q8CA9q9V57vcyTi3ifgQkMQ2j7HY9" ] },
      { "delegate": "tz1PWCDnz783NNGGQjEFFsHtrcK5yBW4E2rm",
        "reception_time": "2022-01-21T02:57:43.597-00:00",
        "included_in_blocks":
          [ "BKweFmK9exm8p3s8k2mnX4Q8CA9q9V57vcyTi3ifgQkMQ2j7HY9" ] },
      { "delegate": "tz1TzaNn7wSQSP5gYPXCnNzBCpyMiidCq1PX",
        "reception_time": "2022-01-21T02:57:43.580-00:00",
        "included_in_blocks":
          [ "BKweFmK9exm8p3s8k2mnX4Q8CA9q9V57vcyTi3ifgQkMQ2j7HY9" ] },
      { "delegate": "tz1WCd2jm4uSt4vntk4vSuUWoZQGhLcDuR9q",
        "reception_time": "2022-01-21T02:57:43.568-00:00",
        "included_in_blocks":
          [ "BKweFmK9exm8p3s8k2mnX4Q8CA9q9V57vcyTi3ifgQkMQ2j7HY9" ] },
      { "delegate": "tz3hw2kqXhLUvY65ca1eety2oQTpAvd34R9Q",
        "reception_time": "2022-01-21T02:57:43.575-00:00",
        "included_in_blocks":
          [ "BKweFmK9exm8p3s8k2mnX4Q8CA9q9V57vcyTi3ifgQkMQ2j7HY9" ] },
      { "delegate": "tz3QSGPoRp3Kn7n3vY24eYeu3Peuqo45LQ4D",
        "reception_time": "2022-01-21T02:57:43.547-00:00",
        "included_in_blocks":
          [ "BKweFmK9exm8p3s8k2mnX4Q8CA9q9V57vcyTi3ifgQkMQ2j7HY9" ] },
      { "delegate": "tz3RKYFsLuQzKBtmYuLNas7uMu3AsYd4QdsA",
        "reception_time": "2022-01-21T02:57:43.616-00:00",
        "included_in_blocks":
          [ "BKweFmK9exm8p3s8k2mnX4Q8CA9q9V57vcyTi3ifgQkMQ2j7HY9" ] },
      { "delegate": "tz3gtoUxdudfBRcNY7iVdKPHCYYX6xdPpoRS",
        "reception_time": "2022-01-21T02:57:43.562-00:00",
        "included_in_blocks":
          [ "BKweFmK9exm8p3s8k2mnX4Q8CA9q9V57vcyTi3ifgQkMQ2j7HY9" ] },
      { "delegate": "tz1NMdMmWZN8QPB8pY4ddncACDg1cHi1xD2e",
        "reception_time": "2022-01-21T02:57:43.538-00:00",
        "included_in_blocks":
          [ "BKweFmK9exm8p3s8k2mnX4Q8CA9q9V57vcyTi3ifgQkMQ2j7HY9" ] },
      { "delegate": "tz3ZbP2pM3nwvXztbuMJwJnDvV5xdpU8UkkD",
        "reception_time": "2022-01-21T02:57:43.594-00:00",
        "included_in_blocks":
          [ "BKweFmK9exm8p3s8k2mnX4Q8CA9q9V57vcyTi3ifgQkMQ2j7HY9" ] },
      { "delegate": "tz1ajgycuHmd2z2JbTSJxKv7x6cok2KuNSk1",
        "reception_time": "2022-01-21T02:57:43.547-00:00",
        "included_in_blocks":
          [ "BKweFmK9exm8p3s8k2mnX4Q8CA9q9V57vcyTi3ifgQkMQ2j7HY9" ] },
      { "delegate": "tz3NxTnke1acr8o3h5y9ytf5awQBGNJUKzVU",
        "reception_time": "2022-01-21T02:57:43.587-00:00",
        "included_in_blocks":
          [ "BKweFmK9exm8p3s8k2mnX4Q8CA9q9V57vcyTi3ifgQkMQ2j7HY9" ] },
      { "delegate": "tz1VmiY38m3y95HqQLjMwqnMS7sdMfGomzKi",
        "reception_time": "2022-01-21T02:57:43.600-00:00",
        "included_in_blocks":
          [ "BKweFmK9exm8p3s8k2mnX4Q8CA9q9V57vcyTi3ifgQkMQ2j7HY9" ] },
      { "delegate": "tz1irJKkXS2DBWkU1NnmFQx1c1L7pbGg4yhk",
        "reception_time": "2022-01-21T02:57:43.538-00:00",
        "included_in_blocks":
          [ "BKweFmK9exm8p3s8k2mnX4Q8CA9q9V57vcyTi3ifgQkMQ2j7HY9" ] },
      { "delegate": "tz1bsdrs36X5BTH83RHUBdUouKLJZK8d2oBa",
        "reception_time": "2022-01-21T02:57:43.084-00:00",
        "included_in_blocks":
          [ "BKweFmK9exm8p3s8k2mnX4Q8CA9q9V57vcyTi3ifgQkMQ2j7HY9" ] },
      { "delegate": "tz1TXzyaKUA8wsWefdSnyaYFnV2M3vCV7er9",
        "reception_time": "2022-01-21T02:57:43.534-00:00",
        "included_in_blocks":
          [ "BKweFmK9exm8p3s8k2mnX4Q8CA9q9V57vcyTi3ifgQkMQ2j7HY9" ] },
      { "delegate": "tz1eEnQhbwf6trb8Q8mPb2RaPkNk2rN7BKi8",
        "reception_time": "2022-01-21T02:57:43.577-00:00",
        "included_in_blocks":
          [ "BKweFmK9exm8p3s8k2mnX4Q8CA9q9V57vcyTi3ifgQkMQ2j7HY9" ] },
      { "delegate": "tz1gUNyn3hmnEWqkusWPzxRaon1cs7ndWh7h",
        "reception_time": "2022-01-21T02:57:43.528-00:00",
        "included_in_blocks":
          [ "BKweFmK9exm8p3s8k2mnX4Q8CA9q9V57vcyTi3ifgQkMQ2j7HY9" ] },
      { "delegate": "tz1VQnqCCqX4K5sP3FNkVSNKTdCAMJDd3E1n",
        "reception_time": "2022-01-21T02:57:43.523-00:00",
        "included_in_blocks":
          [ "BKweFmK9exm8p3s8k2mnX4Q8CA9q9V57vcyTi3ifgQkMQ2j7HY9" ] },
      { "delegate": "tz1Ldzz6k1BHdhuKvAtMRX7h5kJSMHESMHLC",
        "reception_time": "2022-01-21T02:57:43.523-00:00",
        "included_in_blocks":
          [ "BKweFmK9exm8p3s8k2mnX4Q8CA9q9V57vcyTi3ifgQkMQ2j7HY9" ] } ] }