{ "blocks":
    [ { "hash": "BLW6buihAuatKeyWHbXDhb53gVGKEbrg3JUwX8xVJGid4UV3ZhG",
        "delegate": "tz1aRoaRhSpRYvFdyvgWLL6TGyRoGF51wDjM",
        "reception_time": "2022-01-20T23:30:20.796-00:00",
        "timestamp": "2022-01-20T23:30:10Z" } ],
  "endorsements":
    [ { "delegate": "tz1Lhf4J9Qxoe3DZ2nfe8FGDnvVj7oKjnMY6",
        "reception_time": "2022-01-20T23:30:20.660-00:00",
        "errors":
          [ { "kind": "temporary",
              "id": "proto.011-PtHangz2.prefilter.outdated_endorsement" } ],
        "included_in_blocks":
          [ "BMPCNJRj9S5NPLZL2Y7t4mQNrnJNcDNVEZDD3Q8heRzMSySX7dF" ] },
      { "delegate": "tz1Zhv3RkfU2pHrmaiDyxp7kFZpZrUCu1CiF",
        "reception_time": "2022-01-20T23:30:20.619-00:00",
        "errors":
          [ { "kind": "temporary",
              "id": "proto.011-PtHangz2.prefilter.outdated_endorsement" } ],
        "included_in_blocks":
          [ "BMPCNJRj9S5NPLZL2Y7t4mQNrnJNcDNVEZDD3Q8heRzMSySX7dF" ] },
      { "delegate": "tz1P2Po7YM526ughEsRbY4oR9zaUPDZjxFrb",
        "reception_time": "2022-01-20T23:30:20.518-00:00",
        "errors":
          [ { "kind": "temporary",
              "id": "proto.011-PtHangz2.prefilter.outdated_endorsement" } ],
        "included_in_blocks":
          [ "BMPCNJRj9S5NPLZL2Y7t4mQNrnJNcDNVEZDD3Q8heRzMSySX7dF" ] },
      { "delegate": "tz1S8e9GgdZG78XJRB3NqabfWeM37GnhZMWQ",
        "reception_time": "2022-01-20T23:30:20.453-00:00",
        "errors":
          [ { "kind": "temporary",
              "id": "proto.011-PtHangz2.prefilter.outdated_endorsement" } ],
        "included_in_blocks":
          [ "BMPCNJRj9S5NPLZL2Y7t4mQNrnJNcDNVEZDD3Q8heRzMSySX7dF" ] },
      { "delegate": "tz1TRqbYbUf2GyrjErf3hBzgBJPzW8y36qEs" },
      { "delegate": "tz3RDC3Jdn4j15J7bBHZd29EUee9gVB1CxD9" },
      { "delegate": "tz1eEnQhbwf6trb8Q8mPb2RaPkNk2rN7BKi8",
        "reception_time": "2022-01-20T23:30:21.300-00:00",
        "included_in_blocks":
          [ "BMPCNJRj9S5NPLZL2Y7t4mQNrnJNcDNVEZDD3Q8heRzMSySX7dF" ] },
      { "delegate": "tz1RV1MBbZMR68tacosb7Mwj6LkbPSUS1er1",
        "reception_time": "2022-01-20T23:30:21.448-00:00",
        "included_in_blocks":
          [ "BMPCNJRj9S5NPLZL2Y7t4mQNrnJNcDNVEZDD3Q8heRzMSySX7dF" ] },
      { "delegate": "tz1Kf25fX1VdmYGSEzwFy1wNmkbSEZ2V83sY",
        "reception_time": "2022-01-20T23:30:21.465-00:00",
        "included_in_blocks":
          [ "BMPCNJRj9S5NPLZL2Y7t4mQNrnJNcDNVEZDD3Q8heRzMSySX7dF" ] },
      { "delegate": "tz3hw2kqXhLUvY65ca1eety2oQTpAvd34R9Q",
        "reception_time": "2022-01-20T23:30:21.473-00:00",
        "included_in_blocks":
          [ "BMPCNJRj9S5NPLZL2Y7t4mQNrnJNcDNVEZDD3Q8heRzMSySX7dF" ] },
      { "delegate": "tz1VQnqCCqX4K5sP3FNkVSNKTdCAMJDd3E1n",
        "reception_time": "2022-01-20T23:30:21.475-00:00",
        "included_in_blocks":
          [ "BMPCNJRj9S5NPLZL2Y7t4mQNrnJNcDNVEZDD3Q8heRzMSySX7dF" ] },
      { "delegate": "tz3ZbP2pM3nwvXztbuMJwJnDvV5xdpU8UkkD",
        "reception_time": "2022-01-20T23:30:21.483-00:00",
        "included_in_blocks":
          [ "BMPCNJRj9S5NPLZL2Y7t4mQNrnJNcDNVEZDD3Q8heRzMSySX7dF" ] },
      { "delegate": "tz1gUNyn3hmnEWqkusWPzxRaon1cs7ndWh7h",
        "reception_time": "2022-01-20T23:30:21.483-00:00",
        "included_in_blocks":
          [ "BMPCNJRj9S5NPLZL2Y7t4mQNrnJNcDNVEZDD3Q8heRzMSySX7dF" ] },
      { "delegate": "tz1irJKkXS2DBWkU1NnmFQx1c1L7pbGg4yhk",
        "reception_time": "2022-01-20T23:30:21.491-00:00",
        "included_in_blocks":
          [ "BMPCNJRj9S5NPLZL2Y7t4mQNrnJNcDNVEZDD3Q8heRzMSySX7dF" ] },
      { "delegate": "tz3NxTnke1acr8o3h5y9ytf5awQBGNJUKzVU",
        "reception_time": "2022-01-20T23:30:21.491-00:00",
        "included_in_blocks":
          [ "BMPCNJRj9S5NPLZL2Y7t4mQNrnJNcDNVEZDD3Q8heRzMSySX7dF" ] },
      { "delegate": "tz3RKYFsLuQzKBtmYuLNas7uMu3AsYd4QdsA",
        "reception_time": "2022-01-20T23:30:21.498-00:00",
        "included_in_blocks":
          [ "BMPCNJRj9S5NPLZL2Y7t4mQNrnJNcDNVEZDD3Q8heRzMSySX7dF" ] },
      { "delegate": "tz1TRspM5SeZpaQUhzByXbEvqKF1vnCM2YTK",
        "reception_time": "2022-01-20T23:30:21.500-00:00",
        "included_in_blocks":
          [ "BMPCNJRj9S5NPLZL2Y7t4mQNrnJNcDNVEZDD3Q8heRzMSySX7dF" ] },
      { "delegate": "tz3iJu5vrKZcsqRPs8yJ61UDoeEXZmtro4qh",
        "reception_time": "2022-01-20T23:30:21.518-00:00",
        "included_in_blocks":
          [ "BMPCNJRj9S5NPLZL2Y7t4mQNrnJNcDNVEZDD3Q8heRzMSySX7dF" ] },
      { "delegate": "tz3QSGPoRp3Kn7n3vY24eYeu3Peuqo45LQ4D",
        "reception_time": "2022-01-20T23:30:21.550-00:00",
        "included_in_blocks":
          [ "BMPCNJRj9S5NPLZL2Y7t4mQNrnJNcDNVEZDD3Q8heRzMSySX7dF" ] },
      { "delegate": "tz3gtoUxdudfBRcNY7iVdKPHCYYX6xdPpoRS",
        "reception_time": "2022-01-20T23:30:21.561-00:00",
        "included_in_blocks":
          [ "BMPCNJRj9S5NPLZL2Y7t4mQNrnJNcDNVEZDD3Q8heRzMSySX7dF" ] },
      { "delegate": "tz3Zhs2dygr55yHyQyKjntAtY9bgfhLZ4Xj1",
        "reception_time": "2022-01-20T23:30:21.608-00:00",
        "included_in_blocks":
          [ "BMPCNJRj9S5NPLZL2Y7t4mQNrnJNcDNVEZDD3Q8heRzMSySX7dF" ] },
      { "delegate": "tz1Kt4P8BCaP93AEV4eA7gmpRryWt5hznjCP",
        "reception_time": "2022-01-20T23:30:21.679-00:00",
        "included_in_blocks":
          [ "BMPCNJRj9S5NPLZL2Y7t4mQNrnJNcDNVEZDD3Q8heRzMSySX7dF" ] },
      { "delegate": "tz1Ldzz6k1BHdhuKvAtMRX7h5kJSMHESMHLC",
        "reception_time": "2022-01-20T23:30:21.698-00:00",
        "included_in_blocks":
          [ "BMPCNJRj9S5NPLZL2Y7t4mQNrnJNcDNVEZDD3Q8heRzMSySX7dF" ] },
      { "delegate": "tz1WCd2jm4uSt4vntk4vSuUWoZQGhLcDuR9q",
        "reception_time": "2022-01-20T23:30:21.747-00:00",
        "included_in_blocks":
          [ "BMPCNJRj9S5NPLZL2Y7t4mQNrnJNcDNVEZDD3Q8heRzMSySX7dF" ] },
      { "delegate": "tz3e7LbZvUtoXhpUD1yb6wuFodZpfYRb9nWJ",
        "reception_time": "2022-01-20T23:30:21.972-00:00",
        "included_in_blocks":
          [ "BMPCNJRj9S5NPLZL2Y7t4mQNrnJNcDNVEZDD3Q8heRzMSySX7dF" ] },
      { "delegate": "tz1fb7c66UwePkkfDXz4ajFaBP9hVNLdS7JJ",
        "reception_time": "2022-01-20T23:30:21.992-00:00",
        "included_in_blocks":
          [ "BMPCNJRj9S5NPLZL2Y7t4mQNrnJNcDNVEZDD3Q8heRzMSySX7dF" ] },
      { "delegate": "tz3S6BBeKgJGXxvLyZ1xzXzMPn11nnFtq5L9",
        "reception_time": "2022-01-20T23:30:22.017-00:00",
        "included_in_blocks":
          [ "BMPCNJRj9S5NPLZL2Y7t4mQNrnJNcDNVEZDD3Q8heRzMSySX7dF" ] },
      { "delegate": "tz3QT9dHYKDqh563chVa6za8526ys1UKfRfL",
        "reception_time": "2022-01-20T23:30:22.035-00:00",
        "included_in_blocks":
          [ "BMPCNJRj9S5NPLZL2Y7t4mQNrnJNcDNVEZDD3Q8heRzMSySX7dF" ] },
      { "delegate": "tz1VmiY38m3y95HqQLjMwqnMS7sdMfGomzKi",
        "reception_time": "2022-01-20T23:30:22.085-00:00",
        "included_in_blocks":
          [ "BMPCNJRj9S5NPLZL2Y7t4mQNrnJNcDNVEZDD3Q8heRzMSySX7dF" ] },
      { "delegate": "tz1UJvHTgpVzcKWhTazGxVcn5wsHru5Gietg",
        "reception_time": "2022-01-20T23:30:22.114-00:00",
        "included_in_blocks":
          [ "BMPCNJRj9S5NPLZL2Y7t4mQNrnJNcDNVEZDD3Q8heRzMSySX7dF" ] },
      { "delegate": "tz1fUyqYH7H4pRHN1roWY17giXhy1RvxjgUV",
        "reception_time": "2022-01-20T23:30:22.144-00:00",
        "included_in_blocks":
          [ "BMPCNJRj9S5NPLZL2Y7t4mQNrnJNcDNVEZDD3Q8heRzMSySX7dF" ] },
      { "delegate": "tz1ajgycuHmd2z2JbTSJxKv7x6cok2KuNSk1",
        "reception_time": "2022-01-20T23:30:22.151-00:00",
        "included_in_blocks":
          [ "BMPCNJRj9S5NPLZL2Y7t4mQNrnJNcDNVEZDD3Q8heRzMSySX7dF" ] },
      { "delegate": "tz3bvNMQ95vfAYtG8193ymshqjSvmxiCUuR5",
        "reception_time": "2022-01-20T23:30:22.188-00:00",
        "included_in_blocks":
          [ "BMPCNJRj9S5NPLZL2Y7t4mQNrnJNcDNVEZDD3Q8heRzMSySX7dF" ] },
      { "delegate": "tz1fPKAtsYydh4f1wfWNfeNxWYu72TmM48fu",
        "reception_time": "2022-01-20T23:30:22.273-00:00",
        "included_in_blocks":
          [ "BMPCNJRj9S5NPLZL2Y7t4mQNrnJNcDNVEZDD3Q8heRzMSySX7dF" ] },
      { "delegate": "tz1NortRftucvAkD1J58L32EhSVrQEWJCEnB",
        "reception_time": "2022-01-20T23:30:22.285-00:00",
        "included_in_blocks":
          [ "BMPCNJRj9S5NPLZL2Y7t4mQNrnJNcDNVEZDD3Q8heRzMSySX7dF" ] },
      { "delegate": "tz1RQhNh7iB9CZA7i3ifTWNwiGYVffponfbB",
        "reception_time": "2022-01-20T23:30:22.289-00:00",
        "included_in_blocks":
          [ "BMPCNJRj9S5NPLZL2Y7t4mQNrnJNcDNVEZDD3Q8heRzMSySX7dF" ] },
      { "delegate": "tz1RCFbB9GpALpsZtu6J58sb74dm8qe6XBzv",
        "reception_time": "2022-01-20T23:30:22.429-00:00",
        "included_in_blocks":
          [ "BMPCNJRj9S5NPLZL2Y7t4mQNrnJNcDNVEZDD3Q8heRzMSySX7dF" ] },
      { "delegate": "tz1MGTFJXpQmtxLi8QJ7AuVRgM2L2Qfn9w9i",
        "reception_time": "2022-01-20T23:30:22.433-00:00",
        "included_in_blocks":
          [ "BMPCNJRj9S5NPLZL2Y7t4mQNrnJNcDNVEZDD3Q8heRzMSySX7dF" ] },
      { "delegate": "tz3RB4aoyjov4KEVRbuhvQ1CKJgBJMWhaeB8",
        "reception_time": "2022-01-20T23:30:22.467-00:00",
        "included_in_blocks":
          [ "BMPCNJRj9S5NPLZL2Y7t4mQNrnJNcDNVEZDD3Q8heRzMSySX7dF" ] },
      { "delegate": "tz3bTdwZinP8U1JmSweNzVKhmwafqWmFWRfk",
        "reception_time": "2022-01-20T23:30:22.492-00:00",
        "included_in_blocks":
          [ "BMPCNJRj9S5NPLZL2Y7t4mQNrnJNcDNVEZDD3Q8heRzMSySX7dF" ] },
      { "delegate": "tz1MQJPGNMijnXnVoBENFz9rUhaPt3S7rWoz",
        "reception_time": "2022-01-20T23:30:22.492-00:00",
        "included_in_blocks":
          [ "BMPCNJRj9S5NPLZL2Y7t4mQNrnJNcDNVEZDD3Q8heRzMSySX7dF" ] },
      { "delegate": "tz1NdhRv643wLW6zCcRP3VfT24dvDnh7nuh9",
        "reception_time": "2022-01-20T23:30:22.503-00:00",
        "included_in_blocks":
          [ "BMPCNJRj9S5NPLZL2Y7t4mQNrnJNcDNVEZDD3Q8heRzMSySX7dF" ] },
      { "delegate": "tz1V4qCyvPKZ5UeqdH14HN42rxvNPQfc9UZg",
        "reception_time": "2022-01-20T23:30:22.546-00:00",
        "included_in_blocks":
          [ "BMPCNJRj9S5NPLZL2Y7t4mQNrnJNcDNVEZDD3Q8heRzMSySX7dF" ] },
      { "delegate": "tz1SUgyRB8T5jXgXAwS33pgRHAKrafyg87Yc",
        "reception_time": "2022-01-20T23:30:22.553-00:00",
        "included_in_blocks":
          [ "BMPCNJRj9S5NPLZL2Y7t4mQNrnJNcDNVEZDD3Q8heRzMSySX7dF" ] },
      { "delegate": "tz2FCNBrERXtaTtNX6iimR1UJ5JSDxvdHM93",
        "reception_time": "2022-01-20T23:30:22.582-00:00",
        "included_in_blocks":
          [ "BMPCNJRj9S5NPLZL2Y7t4mQNrnJNcDNVEZDD3Q8heRzMSySX7dF" ] },
      { "delegate": "tz1S8MNvuFEUsWgjHvi3AxibRBf388NhT1q2",
        "reception_time": "2022-01-20T23:30:22.619-00:00",
        "included_in_blocks":
          [ "BMPCNJRj9S5NPLZL2Y7t4mQNrnJNcDNVEZDD3Q8heRzMSySX7dF" ] },
      { "delegate": "tz1Tnjaxk6tbAeC2TmMApPh8UsrEVQvhHvx5",
        "reception_time": "2022-01-20T23:30:22.623-00:00",
        "included_in_blocks":
          [ "BMPCNJRj9S5NPLZL2Y7t4mQNrnJNcDNVEZDD3Q8heRzMSySX7dF" ] },
      { "delegate": "tz1gfArv665EUkSg2ojMBzcbfwuPxAvqPvjo",
        "reception_time": "2022-01-20T23:30:22.679-00:00",
        "included_in_blocks":
          [ "BMPCNJRj9S5NPLZL2Y7t4mQNrnJNcDNVEZDD3Q8heRzMSySX7dF" ] },
      { "delegate": "tz1ei4WtWEMEJekSv8qDnu9PExG6Q8HgRGr3",
        "reception_time": "2022-01-20T23:30:22.713-00:00",
        "included_in_blocks":
          [ "BMPCNJRj9S5NPLZL2Y7t4mQNrnJNcDNVEZDD3Q8heRzMSySX7dF" ] },
      { "delegate": "tz1dNVDWPf3Q59SdJqnjdnu277iyvReiRS9M",
        "reception_time": "2022-01-20T23:30:22.717-00:00",
        "included_in_blocks":
          [ "BMPCNJRj9S5NPLZL2Y7t4mQNrnJNcDNVEZDD3Q8heRzMSySX7dF" ] },
      { "delegate": "tz3NDpRj6WBrJPikcPVHRBEjWKxFw3c6eQPS",
        "reception_time": "2022-01-20T23:30:22.764-00:00",
        "included_in_blocks":
          [ "BMPCNJRj9S5NPLZL2Y7t4mQNrnJNcDNVEZDD3Q8heRzMSySX7dF" ] },
      { "delegate": "tz1Nf6tsK4G6bBqgSQERy4nUtkHNKUVdh7q1",
        "reception_time": "2022-01-20T23:30:22.819-00:00",
        "included_in_blocks":
          [ "BMPCNJRj9S5NPLZL2Y7t4mQNrnJNcDNVEZDD3Q8heRzMSySX7dF" ] },
      { "delegate": "tz1TEc75UKXv4W5cwi14Na3NtqFD51yKQi7h",
        "reception_time": "2022-01-20T23:30:22.892-00:00",
        "included_in_blocks":
          [ "BMPCNJRj9S5NPLZL2Y7t4mQNrnJNcDNVEZDD3Q8heRzMSySX7dF" ] },
      { "delegate": "tz1WBfwbT66FC6BTLexc2BoyCCBM9LG7pnVW",
        "reception_time": "2022-01-20T23:30:22.991-00:00",
        "included_in_blocks":
          [ "BMPCNJRj9S5NPLZL2Y7t4mQNrnJNcDNVEZDD3Q8heRzMSySX7dF" ] },
      { "delegate": "tz1f3Re8iw6Pt3KMHAvyccHxDU3NuqL95axD",
        "reception_time": "2022-01-20T23:30:23.082-00:00",
        "included_in_blocks":
          [ "BMPCNJRj9S5NPLZL2Y7t4mQNrnJNcDNVEZDD3Q8heRzMSySX7dF" ] },
      { "delegate": "tz1Mc61yajNASzh5KWZFtYs4i7EJbzAxQC4K",
        "reception_time": "2022-01-20T23:30:23.149-00:00",
        "included_in_blocks":
          [ "BMPCNJRj9S5NPLZL2Y7t4mQNrnJNcDNVEZDD3Q8heRzMSySX7dF" ] },
      { "delegate": "tz1g8vkmcde6sWKaG2NN9WKzCkDM6Rziq194",
        "reception_time": "2022-01-20T23:30:23.279-00:00",
        "included_in_blocks":
          [ "BMPCNJRj9S5NPLZL2Y7t4mQNrnJNcDNVEZDD3Q8heRzMSySX7dF" ] },
      { "delegate": "tz1aRoaRhSpRYvFdyvgWLL6TGyRoGF51wDjM",
        "reception_time": "2022-01-20T23:30:23.378-00:00",
        "included_in_blocks":
          [ "BMPCNJRj9S5NPLZL2Y7t4mQNrnJNcDNVEZDD3Q8heRzMSySX7dF" ] },
      { "delegate": "tz1cYufsxHXJcvANhvS55h3aY32a9BAFB494",
        "reception_time": "2022-01-20T23:30:23.450-00:00",
        "included_in_blocks":
          [ "BMPCNJRj9S5NPLZL2Y7t4mQNrnJNcDNVEZDD3Q8heRzMSySX7dF" ] },
      { "delegate": "tz1LmaFsWRkjr7QMCx5PtV6xTUz3AmEpKQiF",
        "reception_time": "2022-01-20T23:30:23.535-00:00",
        "included_in_blocks":
          [ "BMPCNJRj9S5NPLZL2Y7t4mQNrnJNcDNVEZDD3Q8heRzMSySX7dF" ] },
      { "delegate": "tz3VEZ4k6a4Wx42iyev6i2aVAptTRLEAivNN",
        "reception_time": "2022-01-20T23:30:23.624-00:00",
        "included_in_blocks":
          [ "BMPCNJRj9S5NPLZL2Y7t4mQNrnJNcDNVEZDD3Q8heRzMSySX7dF" ] },
      { "delegate": "tz1RjoHc98dBoqaH2jawF62XNKh7YsHwbkEv",
        "reception_time": "2022-01-20T23:30:23.662-00:00",
        "included_in_blocks":
          [ "BMPCNJRj9S5NPLZL2Y7t4mQNrnJNcDNVEZDD3Q8heRzMSySX7dF" ] },
      { "delegate": "tz3WMqdzXqRWXwyvj5Hp2H7QEepaUuS7vd9K",
        "reception_time": "2022-01-20T23:30:23.781-00:00",
        "included_in_blocks":
          [ "BMPCNJRj9S5NPLZL2Y7t4mQNrnJNcDNVEZDD3Q8heRzMSySX7dF" ] },
      { "delegate": "tz1a1J3AGjJTAyBqWWSqFuUazUDV2TtD6hMy",
        "reception_time": "2022-01-20T23:30:23.830-00:00",
        "included_in_blocks":
          [ "BMPCNJRj9S5NPLZL2Y7t4mQNrnJNcDNVEZDD3Q8heRzMSySX7dF" ] },
      { "delegate": "tz1dRKU4FQ9QRRQPdaH4zCR6gmCmXfcvcgtB",
        "reception_time": "2022-01-20T23:30:24.102-00:00",
        "included_in_blocks":
          [ "BMPCNJRj9S5NPLZL2Y7t4mQNrnJNcDNVEZDD3Q8heRzMSySX7dF" ] },
      { "delegate": "tz1V3yg82mcrPJbegqVCPn6bC8w1CSTRp3f8",
        "reception_time": "2022-01-20T23:30:24.107-00:00",
        "included_in_blocks":
          [ "BMPCNJRj9S5NPLZL2Y7t4mQNrnJNcDNVEZDD3Q8heRzMSySX7dF" ] },
      { "delegate": "tz1bTpviNnyx2PXsNmGpCQTMQsGoYordkUoA",
        "reception_time": "2022-01-20T23:30:24.111-00:00",
        "included_in_blocks":
          [ "BMPCNJRj9S5NPLZL2Y7t4mQNrnJNcDNVEZDD3Q8heRzMSySX7dF" ] },
      { "delegate": "tz1NEKxGEHsFufk87CVZcrqWu8o22qh46GK6",
        "reception_time": "2022-01-20T23:30:24.126-00:00",
        "included_in_blocks":
          [ "BMPCNJRj9S5NPLZL2Y7t4mQNrnJNcDNVEZDD3Q8heRzMSySX7dF" ] },
      { "delegate": "tz1T7duV5gZWSTq4YpBGbXNLTfznCLDrFxvs",
        "reception_time": "2022-01-20T23:30:24.284-00:00",
        "included_in_blocks":
          [ "BMPCNJRj9S5NPLZL2Y7t4mQNrnJNcDNVEZDD3Q8heRzMSySX7dF" ] },
      { "delegate": "tz1dfg9PkvRLf7hKMmGdGRhXWCbd8QgbwBF7",
        "reception_time": "2022-01-20T23:30:24.439-00:00",
        "included_in_blocks":
          [ "BMPCNJRj9S5NPLZL2Y7t4mQNrnJNcDNVEZDD3Q8heRzMSySX7dF" ] },
      { "delegate": "tz3UoffC7FG7zfpmvmjUmUeAaHvzdcUvAj6r",
        "reception_time": "2022-01-20T23:30:24.853-00:00",
        "included_in_blocks":
          [ "BMPCNJRj9S5NPLZL2Y7t4mQNrnJNcDNVEZDD3Q8heRzMSySX7dF" ] },
      { "delegate": "tz1ZcTRk5uxD86EFEn1vvNffWWqJy7q5eVhc",
        "reception_time": "2022-01-20T23:30:24.913-00:00",
        "included_in_blocks":
          [ "BMPCNJRj9S5NPLZL2Y7t4mQNrnJNcDNVEZDD3Q8heRzMSySX7dF" ] },
      { "delegate": "tz3NExpXn9aPNZPorRE4SdjJ2RGrfbJgMAaV",
        "reception_time": "2022-01-20T23:30:25.010-00:00",
        "included_in_blocks":
          [ "BMPCNJRj9S5NPLZL2Y7t4mQNrnJNcDNVEZDD3Q8heRzMSySX7dF" ] },
      { "delegate": "tz1eVaNx3gCmG1EsLjijkmgAxdLYVf6Bf5Sq",
        "reception_time": "2022-01-20T23:30:25.936-00:00",
        "included_in_blocks":
          [ "BMPCNJRj9S5NPLZL2Y7t4mQNrnJNcDNVEZDD3Q8heRzMSySX7dF" ] },
      { "delegate": "tz1NpWrAyDL9k2Lmnyxcgr9xuJakbBxdq7FB",
        "reception_time": "2022-01-20T23:30:28.329-00:00",
        "included_in_blocks":
          [ "BMPCNJRj9S5NPLZL2Y7t4mQNrnJNcDNVEZDD3Q8heRzMSySX7dF" ] } ] }