{ "blocks":
    [ { "hash": "BL7YuyVTtNVpaFWuobLxALY4VmxPgDdT9B54PyK5TZqNPohQ2WD",
        "delegate": "tz1aRoaRhSpRYvFdyvgWLL6TGyRoGF51wDjM",
        "reception_time": "2022-01-21T05:47:30.318-00:00",
        "timestamp": "2022-01-21T05:47:20Z" } ],
  "endorsements":
    [ { "delegate": "tz1awXW7wuXy21c66vBudMXQVAPgRnqqwgTH" },
      { "delegate": "tz1TRqbYbUf2GyrjErf3hBzgBJPzW8y36qEs" },
      { "delegate": "tz1XXayQohB8XRXN7kMoHbf2NFwNiH3oMRQQ",
        "reception_time": "2022-01-21T05:47:30.145-00:00",
        "errors":
          [ { "kind": "temporary",
              "id": "proto.011-PtHangz2.prefilter.outdated_endorsement" } ],
        "included_in_blocks":
          [ "BMZEWF8bDYmywh2Yq7K5W8JmNGXpBizEwns9wDsuHYVByZ8Dm5b" ] },
      { "delegate": "tz1NpWrAyDL9k2Lmnyxcgr9xuJakbBxdq7FB",
        "reception_time": "2022-01-21T05:47:45.616-00:00",
        "included_in_blocks":
          [ "BMZEWF8bDYmywh2Yq7K5W8JmNGXpBizEwns9wDsuHYVByZ8Dm5b" ] },
      { "delegate": "tz1W5VkdB5s7ENMESVBtwyt9kyvLqPcUczRT",
        "reception_time": "2022-01-21T05:47:35.637-00:00",
        "included_in_blocks":
          [ "BMZEWF8bDYmywh2Yq7K5W8JmNGXpBizEwns9wDsuHYVByZ8Dm5b" ] },
      { "delegate": "tz1aJS7Pk9uWR3wWyFf1i3RwhYxN84G7stom",
        "reception_time": "2022-01-21T05:47:35.157-00:00",
        "included_in_blocks":
          [ "BMZEWF8bDYmywh2Yq7K5W8JmNGXpBizEwns9wDsuHYVByZ8Dm5b" ] },
      { "delegate": "tz1TcH4Nb3aHNDJ7CGZhU7jgAK1BkSP4Lxds",
        "reception_time": "2022-01-21T05:47:34.736-00:00",
        "included_in_blocks":
          [ "BMZEWF8bDYmywh2Yq7K5W8JmNGXpBizEwns9wDsuHYVByZ8Dm5b" ] },
      { "delegate": "tz1PFeoTuFen8jAMRHajBySNyCwLmY5RqF9M",
        "reception_time": "2022-01-21T05:47:34.391-00:00",
        "included_in_blocks":
          [ "BMZEWF8bDYmywh2Yq7K5W8JmNGXpBizEwns9wDsuHYVByZ8Dm5b" ] },
      { "delegate": "tz3NExpXn9aPNZPorRE4SdjJ2RGrfbJgMAaV",
        "reception_time": "2022-01-21T05:47:34.045-00:00",
        "included_in_blocks":
          [ "BMZEWF8bDYmywh2Yq7K5W8JmNGXpBizEwns9wDsuHYVByZ8Dm5b" ] },
      { "delegate": "tz3UoffC7FG7zfpmvmjUmUeAaHvzdcUvAj6r",
        "reception_time": "2022-01-21T05:47:34.163-00:00",
        "included_in_blocks":
          [ "BMZEWF8bDYmywh2Yq7K5W8JmNGXpBizEwns9wDsuHYVByZ8Dm5b" ] },
      { "delegate": "tz1dRKU4FQ9QRRQPdaH4zCR6gmCmXfcvcgtB",
        "reception_time": "2022-01-21T05:47:33.965-00:00",
        "included_in_blocks":
          [ "BMZEWF8bDYmywh2Yq7K5W8JmNGXpBizEwns9wDsuHYVByZ8Dm5b" ] },
      { "delegate": "tz3VEZ4k6a4Wx42iyev6i2aVAptTRLEAivNN",
        "reception_time": "2022-01-21T05:47:33.350-00:00",
        "included_in_blocks":
          [ "BMZEWF8bDYmywh2Yq7K5W8JmNGXpBizEwns9wDsuHYVByZ8Dm5b" ] },
      { "delegate": "tz1T7duV5gZWSTq4YpBGbXNLTfznCLDrFxvs",
        "reception_time": "2022-01-21T05:47:33.248-00:00",
        "included_in_blocks":
          [ "BMZEWF8bDYmywh2Yq7K5W8JmNGXpBizEwns9wDsuHYVByZ8Dm5b" ] },
      { "delegate": "tz3WMqdzXqRWXwyvj5Hp2H7QEepaUuS7vd9K",
        "reception_time": "2022-01-21T05:47:33.147-00:00",
        "included_in_blocks":
          [ "BMZEWF8bDYmywh2Yq7K5W8JmNGXpBizEwns9wDsuHYVByZ8Dm5b" ] },
      { "delegate": "tz1KfEsrtDaA1sX7vdM4qmEPWuSytuqCDp5j",
        "reception_time": "2022-01-21T05:47:33.192-00:00",
        "included_in_blocks":
          [ "BMZEWF8bDYmywh2Yq7K5W8JmNGXpBizEwns9wDsuHYVByZ8Dm5b" ] },
      { "delegate": "tz3bEQoFCZEEfZMskefZ8q8e4eiHH1pssRax",
        "reception_time": "2022-01-21T05:47:32.956-00:00",
        "included_in_blocks":
          [ "BMZEWF8bDYmywh2Yq7K5W8JmNGXpBizEwns9wDsuHYVByZ8Dm5b" ] },
      { "delegate": "tz1RjoHc98dBoqaH2jawF62XNKh7YsHwbkEv",
        "reception_time": "2022-01-21T05:47:32.812-00:00",
        "included_in_blocks":
          [ "BMZEWF8bDYmywh2Yq7K5W8JmNGXpBizEwns9wDsuHYVByZ8Dm5b" ] },
      { "delegate": "tz1UMCB2AHSTwG7YcGNr31CqYCtGN873royv",
        "reception_time": "2022-01-21T05:47:32.875-00:00",
        "included_in_blocks":
          [ "BMZEWF8bDYmywh2Yq7K5W8JmNGXpBizEwns9wDsuHYVByZ8Dm5b" ] },
      { "delegate": "tz3gLTu4Yxj8tPAcriQVUdxv6BY9QyvzU1az",
        "reception_time": "2022-01-21T05:47:32.753-00:00",
        "included_in_blocks":
          [ "BMZEWF8bDYmywh2Yq7K5W8JmNGXpBizEwns9wDsuHYVByZ8Dm5b" ] },
      { "delegate": "tz3NDpRj6WBrJPikcPVHRBEjWKxFw3c6eQPS",
        "reception_time": "2022-01-21T05:47:32.784-00:00",
        "included_in_blocks":
          [ "BMZEWF8bDYmywh2Yq7K5W8JmNGXpBizEwns9wDsuHYVByZ8Dm5b" ] },
      { "delegate": "tz1PeZx7FXy7QRuMREGXGxeipb24RsMMzUNe",
        "reception_time": "2022-01-21T05:47:32.769-00:00",
        "included_in_blocks":
          [ "BMZEWF8bDYmywh2Yq7K5W8JmNGXpBizEwns9wDsuHYVByZ8Dm5b" ] },
      { "delegate": "tz1SohptP53wDPZhzTWzDUFAUcWF6DMBpaJV",
        "reception_time": "2022-01-21T05:47:32.634-00:00",
        "included_in_blocks":
          [ "BMZEWF8bDYmywh2Yq7K5W8JmNGXpBizEwns9wDsuHYVByZ8Dm5b" ] },
      { "delegate": "tz1MduLJ4AAR6g7CDjB77Jci3gvu3Xsvk6bJ",
        "reception_time": "2022-01-21T05:47:32.627-00:00",
        "included_in_blocks":
          [ "BMZEWF8bDYmywh2Yq7K5W8JmNGXpBizEwns9wDsuHYVByZ8Dm5b" ] },
      { "delegate": "tz1aRoaRhSpRYvFdyvgWLL6TGyRoGF51wDjM",
        "reception_time": "2022-01-21T05:47:32.741-00:00",
        "included_in_blocks":
          [ "BMZEWF8bDYmywh2Yq7K5W8JmNGXpBizEwns9wDsuHYVByZ8Dm5b" ] },
      { "delegate": "tz1N7fL6KvRzD5Umy7yeX5uBa5wFsC5veuN2",
        "reception_time": "2022-01-21T05:47:32.601-00:00",
        "included_in_blocks":
          [ "BMZEWF8bDYmywh2Yq7K5W8JmNGXpBizEwns9wDsuHYVByZ8Dm5b" ] },
      { "delegate": "tz1fwnfJNgiDACshK9avfRfFbMaXrs3ghoJa",
        "reception_time": "2022-01-21T05:47:32.583-00:00",
        "included_in_blocks":
          [ "BMZEWF8bDYmywh2Yq7K5W8JmNGXpBizEwns9wDsuHYVByZ8Dm5b" ] },
      { "delegate": "tz1dNVDWPf3Q59SdJqnjdnu277iyvReiRS9M",
        "reception_time": "2022-01-21T05:47:32.424-00:00",
        "included_in_blocks":
          [ "BMZEWF8bDYmywh2Yq7K5W8JmNGXpBizEwns9wDsuHYVByZ8Dm5b" ] },
      { "delegate": "tz1Nf6tsK4G6bBqgSQERy4nUtkHNKUVdh7q1",
        "reception_time": "2022-01-21T05:47:32.595-00:00",
        "included_in_blocks":
          [ "BMZEWF8bDYmywh2Yq7K5W8JmNGXpBizEwns9wDsuHYVByZ8Dm5b" ] },
      { "delegate": "tz1cZfFQpcYhwDp7y1njZXDsZqCrn2NqmVof",
        "reception_time": "2022-01-21T05:47:32.592-00:00",
        "included_in_blocks":
          [ "BMZEWF8bDYmywh2Yq7K5W8JmNGXpBizEwns9wDsuHYVByZ8Dm5b" ] },
      { "delegate": "tz1ei4WtWEMEJekSv8qDnu9PExG6Q8HgRGr3",
        "reception_time": "2022-01-21T05:47:32.469-00:00",
        "included_in_blocks":
          [ "BMZEWF8bDYmywh2Yq7K5W8JmNGXpBizEwns9wDsuHYVByZ8Dm5b" ] },
      { "delegate": "tz1SYq214SCBy9naR6cvycQsYcUGpBqQAE8d",
        "reception_time": "2022-01-21T05:47:32.449-00:00",
        "included_in_blocks":
          [ "BMZEWF8bDYmywh2Yq7K5W8JmNGXpBizEwns9wDsuHYVByZ8Dm5b" ] },
      { "delegate": "tz1WBfwbT66FC6BTLexc2BoyCCBM9LG7pnVW",
        "reception_time": "2022-01-21T05:47:32.422-00:00",
        "included_in_blocks":
          [ "BMZEWF8bDYmywh2Yq7K5W8JmNGXpBizEwns9wDsuHYVByZ8Dm5b" ] },
      { "delegate": "tz1VceyYUpq1gk5dtp6jXQRtCtY8hm5DKt72",
        "reception_time": "2022-01-21T05:47:32.416-00:00",
        "included_in_blocks":
          [ "BMZEWF8bDYmywh2Yq7K5W8JmNGXpBizEwns9wDsuHYVByZ8Dm5b" ] },
      { "delegate": "tz2FCNBrERXtaTtNX6iimR1UJ5JSDxvdHM93",
        "reception_time": "2022-01-21T05:47:32.280-00:00",
        "included_in_blocks":
          [ "BMZEWF8bDYmywh2Yq7K5W8JmNGXpBizEwns9wDsuHYVByZ8Dm5b" ] },
      { "delegate": "tz1gfArv665EUkSg2ojMBzcbfwuPxAvqPvjo",
        "reception_time": "2022-01-21T05:47:32.175-00:00",
        "included_in_blocks":
          [ "BMZEWF8bDYmywh2Yq7K5W8JmNGXpBizEwns9wDsuHYVByZ8Dm5b" ] },
      { "delegate": "tz3RB4aoyjov4KEVRbuhvQ1CKJgBJMWhaeB8",
        "reception_time": "2022-01-21T05:47:32.168-00:00",
        "included_in_blocks":
          [ "BMZEWF8bDYmywh2Yq7K5W8JmNGXpBizEwns9wDsuHYVByZ8Dm5b" ] },
      { "delegate": "tz1RQhNh7iB9CZA7i3ifTWNwiGYVffponfbB",
        "reception_time": "2022-01-21T05:47:32.249-00:00",
        "included_in_blocks":
          [ "BMZEWF8bDYmywh2Yq7K5W8JmNGXpBizEwns9wDsuHYVByZ8Dm5b" ] },
      { "delegate": "tz3RDC3Jdn4j15J7bBHZd29EUee9gVB1CxD9",
        "reception_time": "2022-01-21T05:47:32.132-00:00",
        "included_in_blocks":
          [ "BMZEWF8bDYmywh2Yq7K5W8JmNGXpBizEwns9wDsuHYVByZ8Dm5b" ] },
      { "delegate": "tz1c8JTzmA6c7cm6ZmUwR7WES6akdiMa1kwt",
        "reception_time": "2022-01-21T05:47:32.048-00:00",
        "included_in_blocks":
          [ "BMZEWF8bDYmywh2Yq7K5W8JmNGXpBizEwns9wDsuHYVByZ8Dm5b" ] },
      { "delegate": "tz1aJ8wxNeVRYbbx5YqzurmYzwKzkS96rHP4",
        "reception_time": "2022-01-21T05:47:32.079-00:00",
        "included_in_blocks":
          [ "BMZEWF8bDYmywh2Yq7K5W8JmNGXpBizEwns9wDsuHYVByZ8Dm5b" ] },
      { "delegate": "tz3bvNMQ95vfAYtG8193ymshqjSvmxiCUuR5",
        "reception_time": "2022-01-21T05:47:32.094-00:00",
        "included_in_blocks":
          [ "BMZEWF8bDYmywh2Yq7K5W8JmNGXpBizEwns9wDsuHYVByZ8Dm5b" ] },
      { "delegate": "tz1fb7c66UwePkkfDXz4ajFaBP9hVNLdS7JJ",
        "reception_time": "2022-01-21T05:47:32.045-00:00",
        "included_in_blocks":
          [ "BMZEWF8bDYmywh2Yq7K5W8JmNGXpBizEwns9wDsuHYVByZ8Dm5b" ] },
      { "delegate": "tz1MQMiZHV8q4tTwUMWmS5Y3kaP6J2136iXr",
        "reception_time": "2022-01-21T05:47:32.025-00:00",
        "included_in_blocks":
          [ "BMZEWF8bDYmywh2Yq7K5W8JmNGXpBizEwns9wDsuHYVByZ8Dm5b" ] },
      { "delegate": "tz3bTdwZinP8U1JmSweNzVKhmwafqWmFWRfk",
        "reception_time": "2022-01-21T05:47:32.022-00:00",
        "included_in_blocks":
          [ "BMZEWF8bDYmywh2Yq7K5W8JmNGXpBizEwns9wDsuHYVByZ8Dm5b" ] },
      { "delegate": "tz1S8MNvuFEUsWgjHvi3AxibRBf388NhT1q2",
        "reception_time": "2022-01-21T05:47:31.934-00:00",
        "included_in_blocks":
          [ "BMZEWF8bDYmywh2Yq7K5W8JmNGXpBizEwns9wDsuHYVByZ8Dm5b" ] },
      { "delegate": "tz1PWCDnz783NNGGQjEFFsHtrcK5yBW4E2rm",
        "reception_time": "2022-01-21T05:47:31.896-00:00",
        "included_in_blocks":
          [ "BMZEWF8bDYmywh2Yq7K5W8JmNGXpBizEwns9wDsuHYVByZ8Dm5b" ] },
      { "delegate": "tz1cSj7fTex3JPd1p1LN1fwek6AV1kH93Wwc",
        "reception_time": "2022-01-21T05:47:31.877-00:00",
        "included_in_blocks":
          [ "BMZEWF8bDYmywh2Yq7K5W8JmNGXpBizEwns9wDsuHYVByZ8Dm5b" ] },
      { "delegate": "tz1RCFbB9GpALpsZtu6J58sb74dm8qe6XBzv",
        "reception_time": "2022-01-21T05:47:31.920-00:00",
        "included_in_blocks":
          [ "BMZEWF8bDYmywh2Yq7K5W8JmNGXpBizEwns9wDsuHYVByZ8Dm5b" ] },
      { "delegate": "tz1VmiY38m3y95HqQLjMwqnMS7sdMfGomzKi",
        "reception_time": "2022-01-21T05:47:31.910-00:00",
        "included_in_blocks":
          [ "BMZEWF8bDYmywh2Yq7K5W8JmNGXpBizEwns9wDsuHYVByZ8Dm5b" ] },
      { "delegate": "tz1d6Fx42mYgVFnHUW8T8A7WBfJ6nD9pVok8",
        "reception_time": "2022-01-21T05:47:31.873-00:00",
        "included_in_blocks":
          [ "BMZEWF8bDYmywh2Yq7K5W8JmNGXpBizEwns9wDsuHYVByZ8Dm5b" ] },
      { "delegate": "tz1WCd2jm4uSt4vntk4vSuUWoZQGhLcDuR9q",
        "reception_time": "2022-01-21T05:47:31.638-00:00",
        "included_in_blocks":
          [ "BMZEWF8bDYmywh2Yq7K5W8JmNGXpBizEwns9wDsuHYVByZ8Dm5b" ] },
      { "delegate": "tz1aXD7Jigrt3PBYSpHSg5Rr33SexMmmM5Ys",
        "reception_time": "2022-01-21T05:47:31.577-00:00",
        "included_in_blocks":
          [ "BMZEWF8bDYmywh2Yq7K5W8JmNGXpBizEwns9wDsuHYVByZ8Dm5b" ] },
      { "delegate": "tz3QT9dHYKDqh563chVa6za8526ys1UKfRfL",
        "reception_time": "2022-01-21T05:47:31.475-00:00",
        "included_in_blocks":
          [ "BMZEWF8bDYmywh2Yq7K5W8JmNGXpBizEwns9wDsuHYVByZ8Dm5b" ] },
      { "delegate": "tz1Ldzz6k1BHdhuKvAtMRX7h5kJSMHESMHLC",
        "reception_time": "2022-01-21T05:47:31.432-00:00",
        "included_in_blocks":
          [ "BMZEWF8bDYmywh2Yq7K5W8JmNGXpBizEwns9wDsuHYVByZ8Dm5b" ] },
      { "delegate": "tz3iJu5vrKZcsqRPs8yJ61UDoeEXZmtro4qh",
        "reception_time": "2022-01-21T05:47:31.427-00:00",
        "included_in_blocks":
          [ "BMZEWF8bDYmywh2Yq7K5W8JmNGXpBizEwns9wDsuHYVByZ8Dm5b" ] },
      { "delegate": "tz3S6BBeKgJGXxvLyZ1xzXzMPn11nnFtq5L9",
        "reception_time": "2022-01-21T05:47:31.459-00:00",
        "included_in_blocks":
          [ "BMZEWF8bDYmywh2Yq7K5W8JmNGXpBizEwns9wDsuHYVByZ8Dm5b" ] },
      { "delegate": "tz1TzaNn7wSQSP5gYPXCnNzBCpyMiidCq1PX",
        "reception_time": "2022-01-21T05:47:31.501-00:00",
        "included_in_blocks":
          [ "BMZEWF8bDYmywh2Yq7K5W8JmNGXpBizEwns9wDsuHYVByZ8Dm5b" ] },
      { "delegate": "tz3NxTnke1acr8o3h5y9ytf5awQBGNJUKzVU",
        "reception_time": "2022-01-21T05:47:31.523-00:00",
        "included_in_blocks":
          [ "BMZEWF8bDYmywh2Yq7K5W8JmNGXpBizEwns9wDsuHYVByZ8Dm5b" ] },
      { "delegate": "tz3ZbP2pM3nwvXztbuMJwJnDvV5xdpU8UkkD",
        "reception_time": "2022-01-21T05:47:31.572-00:00",
        "included_in_blocks":
          [ "BMZEWF8bDYmywh2Yq7K5W8JmNGXpBizEwns9wDsuHYVByZ8Dm5b" ] },
      { "delegate": "tz1YhNsiRRU8aHNGg7NK3uuP6UDAyacJernB",
        "reception_time": "2022-01-21T05:47:31.400-00:00",
        "included_in_blocks":
          [ "BMZEWF8bDYmywh2Yq7K5W8JmNGXpBizEwns9wDsuHYVByZ8Dm5b" ] },
      { "delegate": "tz3Zhs2dygr55yHyQyKjntAtY9bgfhLZ4Xj1",
        "reception_time": "2022-01-21T05:47:31.261-00:00",
        "included_in_blocks":
          [ "BMZEWF8bDYmywh2Yq7K5W8JmNGXpBizEwns9wDsuHYVByZ8Dm5b" ] },
      { "delegate": "tz3QSGPoRp3Kn7n3vY24eYeu3Peuqo45LQ4D",
        "reception_time": "2022-01-21T05:47:31.248-00:00",
        "included_in_blocks":
          [ "BMZEWF8bDYmywh2Yq7K5W8JmNGXpBizEwns9wDsuHYVByZ8Dm5b" ] },
      { "delegate": "tz3gtoUxdudfBRcNY7iVdKPHCYYX6xdPpoRS",
        "reception_time": "2022-01-21T05:47:31.135-00:00",
        "included_in_blocks":
          [ "BMZEWF8bDYmywh2Yq7K5W8JmNGXpBizEwns9wDsuHYVByZ8Dm5b" ] },
      { "delegate": "tz1TRspM5SeZpaQUhzByXbEvqKF1vnCM2YTK",
        "reception_time": "2022-01-21T05:47:31.229-00:00",
        "included_in_blocks":
          [ "BMZEWF8bDYmywh2Yq7K5W8JmNGXpBizEwns9wDsuHYVByZ8Dm5b" ] },
      { "delegate": "tz1h4GUAMweP7SNWzDgvMk3yRCAZyaP1MxZq",
        "reception_time": "2022-01-21T05:47:31.191-00:00",
        "included_in_blocks":
          [ "BMZEWF8bDYmywh2Yq7K5W8JmNGXpBizEwns9wDsuHYVByZ8Dm5b" ] },
      { "delegate": "tz3hw2kqXhLUvY65ca1eety2oQTpAvd34R9Q",
        "reception_time": "2022-01-21T05:47:31.107-00:00",
        "included_in_blocks":
          [ "BMZEWF8bDYmywh2Yq7K5W8JmNGXpBizEwns9wDsuHYVByZ8Dm5b" ] },
      { "delegate": "tz1irJKkXS2DBWkU1NnmFQx1c1L7pbGg4yhk",
        "reception_time": "2022-01-21T05:47:31.210-00:00",
        "included_in_blocks":
          [ "BMZEWF8bDYmywh2Yq7K5W8JmNGXpBizEwns9wDsuHYVByZ8Dm5b" ] },
      { "delegate": "tz3RKYFsLuQzKBtmYuLNas7uMu3AsYd4QdsA",
        "reception_time": "2022-01-21T05:47:31.101-00:00",
        "included_in_blocks":
          [ "BMZEWF8bDYmywh2Yq7K5W8JmNGXpBizEwns9wDsuHYVByZ8Dm5b" ] },
      { "delegate": "tz1VQnqCCqX4K5sP3FNkVSNKTdCAMJDd3E1n",
        "reception_time": "2022-01-21T05:47:31.400-00:00",
        "included_in_blocks":
          [ "BMZEWF8bDYmywh2Yq7K5W8JmNGXpBizEwns9wDsuHYVByZ8Dm5b" ] },
      { "delegate": "tz1gUNyn3hmnEWqkusWPzxRaon1cs7ndWh7h",
        "reception_time": "2022-01-21T05:47:31.382-00:00",
        "included_in_blocks":
          [ "BMZEWF8bDYmywh2Yq7K5W8JmNGXpBizEwns9wDsuHYVByZ8Dm5b" ] },
      { "delegate": "tz1iMAHAVpkCVegF9FLGWUpQQeiAHh4ffdLQ",
        "reception_time": "2022-01-21T05:47:31.109-00:00",
        "included_in_blocks":
          [ "BMZEWF8bDYmywh2Yq7K5W8JmNGXpBizEwns9wDsuHYVByZ8Dm5b" ] },
      { "delegate": "tz1iZEKy4LaAjnTmn2RuGDf2iqdAQKnRi8kY",
        "reception_time": "2022-01-21T05:47:31.095-00:00",
        "included_in_blocks":
          [ "BMZEWF8bDYmywh2Yq7K5W8JmNGXpBizEwns9wDsuHYVByZ8Dm5b" ] },
      { "delegate": "tz1P2Po7YM526ughEsRbY4oR9zaUPDZjxFrb",
        "reception_time": "2022-01-21T05:47:31.090-00:00",
        "included_in_blocks":
          [ "BMZEWF8bDYmywh2Yq7K5W8JmNGXpBizEwns9wDsuHYVByZ8Dm5b" ] },
      { "delegate": "tz1eEnQhbwf6trb8Q8mPb2RaPkNk2rN7BKi8",
        "reception_time": "2022-01-21T05:47:31.095-00:00",
        "included_in_blocks":
          [ "BMZEWF8bDYmywh2Yq7K5W8JmNGXpBizEwns9wDsuHYVByZ8Dm5b" ] } ] }