{ "blocks":
    [ { "hash": "BL4BB7FXTjMptgNxqf1sypaYaGWeSG7bXJ3ozgnnDnQApTrD9Qx",
        "delegate": "tz1beersuEDv8Z7ngQ825xfbaJNS2EhXnyHR",
        "reception_time": "2022-01-21T01:03:40.196-00:00",
        "timestamp": "2022-01-21T01:03:30Z" } ],
  "endorsements":
    [ { "delegate": "tz1awXW7wuXy21c66vBudMXQVAPgRnqqwgTH" },
      { "delegate": "tz1TRqbYbUf2GyrjErf3hBzgBJPzW8y36qEs" },
      { "delegate": "tz1S3ZahYq7fqZQ5bq4qCLsTWgPUzQhfAswy",
        "reception_time": "2022-01-21T01:03:47.770-00:00",
        "included_in_blocks":
          [ "BKyC7gcFq2abogj1RDkgG3NoyviPBstjLTYWv2rii6AMUrra5Vy" ] },
      { "delegate": "tz1NpWrAyDL9k2Lmnyxcgr9xuJakbBxdq7FB",
        "reception_time": "2022-01-21T01:03:46.988-00:00",
        "included_in_blocks":
          [ "BKyC7gcFq2abogj1RDkgG3NoyviPBstjLTYWv2rii6AMUrra5Vy" ] },
      { "delegate": "tz1eVaNx3gCmG1EsLjijkmgAxdLYVf6Bf5Sq",
        "reception_time": "2022-01-21T01:03:46.549-00:00",
        "included_in_blocks":
          [ "BKyC7gcFq2abogj1RDkgG3NoyviPBstjLTYWv2rii6AMUrra5Vy" ] },
      { "delegate": "tz1W5VkdB5s7ENMESVBtwyt9kyvLqPcUczRT",
        "reception_time": "2022-01-21T01:03:45.514-00:00",
        "included_in_blocks":
          [ "BKyC7gcFq2abogj1RDkgG3NoyviPBstjLTYWv2rii6AMUrra5Vy" ] },
      { "delegate": "tz1aJS7Pk9uWR3wWyFf1i3RwhYxN84G7stom",
        "reception_time": "2022-01-21T01:03:44.950-00:00",
        "included_in_blocks":
          [ "BKyC7gcFq2abogj1RDkgG3NoyviPBstjLTYWv2rii6AMUrra5Vy" ] },
      { "delegate": "tz1QJU1PuKUP5ZQxUr4pHZjCHGRvJSpcXv7G",
        "reception_time": "2022-01-21T01:03:44.444-00:00",
        "included_in_blocks":
          [ "BKyC7gcFq2abogj1RDkgG3NoyviPBstjLTYWv2rii6AMUrra5Vy" ] },
      { "delegate": "tz3NExpXn9aPNZPorRE4SdjJ2RGrfbJgMAaV",
        "reception_time": "2022-01-21T01:03:44.188-00:00",
        "included_in_blocks":
          [ "BKyC7gcFq2abogj1RDkgG3NoyviPBstjLTYWv2rii6AMUrra5Vy" ] },
      { "delegate": "tz1dfg9PkvRLf7hKMmGdGRhXWCbd8QgbwBF7",
        "reception_time": "2022-01-21T01:03:43.999-00:00",
        "included_in_blocks":
          [ "BKyC7gcFq2abogj1RDkgG3NoyviPBstjLTYWv2rii6AMUrra5Vy" ] },
      { "delegate": "tz1ZcTRk5uxD86EFEn1vvNffWWqJy7q5eVhc",
        "reception_time": "2022-01-21T01:03:44.095-00:00",
        "included_in_blocks":
          [ "BKyC7gcFq2abogj1RDkgG3NoyviPBstjLTYWv2rii6AMUrra5Vy" ] },
      { "delegate": "tz3UoffC7FG7zfpmvmjUmUeAaHvzdcUvAj6r",
        "reception_time": "2022-01-21T01:03:43.755-00:00",
        "included_in_blocks":
          [ "BKyC7gcFq2abogj1RDkgG3NoyviPBstjLTYWv2rii6AMUrra5Vy" ] },
      { "delegate": "tz1Zcxkfa5jKrRbBThG765GP29bUCU3C4ok5",
        "reception_time": "2022-01-21T01:03:43.683-00:00",
        "included_in_blocks":
          [ "BKyC7gcFq2abogj1RDkgG3NoyviPBstjLTYWv2rii6AMUrra5Vy" ] },
      { "delegate": "tz3VEZ4k6a4Wx42iyev6i2aVAptTRLEAivNN",
        "reception_time": "2022-01-21T01:03:43.441-00:00",
        "included_in_blocks":
          [ "BKyC7gcFq2abogj1RDkgG3NoyviPBstjLTYWv2rii6AMUrra5Vy" ] },
      { "delegate": "tz1dRKU4FQ9QRRQPdaH4zCR6gmCmXfcvcgtB",
        "reception_time": "2022-01-21T01:03:43.507-00:00",
        "included_in_blocks":
          [ "BKyC7gcFq2abogj1RDkgG3NoyviPBstjLTYWv2rii6AMUrra5Vy" ] },
      { "delegate": "tz1NEKxGEHsFufk87CVZcrqWu8o22qh46GK6",
        "reception_time": "2022-01-21T01:03:43.220-00:00",
        "included_in_blocks":
          [ "BKyC7gcFq2abogj1RDkgG3NoyviPBstjLTYWv2rii6AMUrra5Vy" ] },
      { "delegate": "tz1S8MNvuFEUsWgjHvi3AxibRBf388NhT1q2",
        "reception_time": "2022-01-21T01:03:43.351-00:00",
        "included_in_blocks":
          [ "BKyC7gcFq2abogj1RDkgG3NoyviPBstjLTYWv2rii6AMUrra5Vy" ] },
      { "delegate": "tz3RDC3Jdn4j15J7bBHZd29EUee9gVB1CxD9",
        "reception_time": "2022-01-21T01:03:43.220-00:00",
        "included_in_blocks":
          [ "BKyC7gcFq2abogj1RDkgG3NoyviPBstjLTYWv2rii6AMUrra5Vy" ] },
      { "delegate": "tz1T7duV5gZWSTq4YpBGbXNLTfznCLDrFxvs",
        "reception_time": "2022-01-21T01:03:43.087-00:00",
        "included_in_blocks":
          [ "BKyC7gcFq2abogj1RDkgG3NoyviPBstjLTYWv2rii6AMUrra5Vy" ] },
      { "delegate": "tz1KfEsrtDaA1sX7vdM4qmEPWuSytuqCDp5j",
        "reception_time": "2022-01-21T01:03:43.178-00:00",
        "included_in_blocks":
          [ "BKyC7gcFq2abogj1RDkgG3NoyviPBstjLTYWv2rii6AMUrra5Vy" ] },
      { "delegate": "tz1UvkANVPWppVgMkLnvN7BwYZsCP7vm6NVd",
        "reception_time": "2022-01-21T01:03:43.171-00:00",
        "included_in_blocks":
          [ "BKyC7gcFq2abogj1RDkgG3NoyviPBstjLTYWv2rii6AMUrra5Vy" ] },
      { "delegate": "tz1aRoaRhSpRYvFdyvgWLL6TGyRoGF51wDjM",
        "reception_time": "2022-01-21T01:03:43.100-00:00",
        "included_in_blocks":
          [ "BKyC7gcFq2abogj1RDkgG3NoyviPBstjLTYWv2rii6AMUrra5Vy" ] },
      { "delegate": "tz1NoYvKjXTzTk54VpLxBfouJ33J8jwKPPvw",
        "reception_time": "2022-01-21T01:03:43.060-00:00",
        "included_in_blocks":
          [ "BKyC7gcFq2abogj1RDkgG3NoyviPBstjLTYWv2rii6AMUrra5Vy" ] },
      { "delegate": "tz3WMqdzXqRWXwyvj5Hp2H7QEepaUuS7vd9K",
        "reception_time": "2022-01-21T01:03:42.943-00:00",
        "included_in_blocks":
          [ "BKyC7gcFq2abogj1RDkgG3NoyviPBstjLTYWv2rii6AMUrra5Vy" ] },
      { "delegate": "tz3RB4aoyjov4KEVRbuhvQ1CKJgBJMWhaeB8",
        "reception_time": "2022-01-21T01:03:42.855-00:00",
        "included_in_blocks":
          [ "BKyC7gcFq2abogj1RDkgG3NoyviPBstjLTYWv2rii6AMUrra5Vy" ] },
      { "delegate": "tz1Nf6tsK4G6bBqgSQERy4nUtkHNKUVdh7q1",
        "reception_time": "2022-01-21T01:03:42.791-00:00",
        "included_in_blocks":
          [ "BKyC7gcFq2abogj1RDkgG3NoyviPBstjLTYWv2rii6AMUrra5Vy" ] },
      { "delegate": "tz1MQMiZHV8q4tTwUMWmS5Y3kaP6J2136iXr",
        "reception_time": "2022-01-21T01:03:42.860-00:00",
        "included_in_blocks":
          [ "BKyC7gcFq2abogj1RDkgG3NoyviPBstjLTYWv2rii6AMUrra5Vy" ] },
      { "delegate": "tz2FCNBrERXtaTtNX6iimR1UJ5JSDxvdHM93",
        "reception_time": "2022-01-21T01:03:42.519-00:00",
        "included_in_blocks":
          [ "BKyC7gcFq2abogj1RDkgG3NoyviPBstjLTYWv2rii6AMUrra5Vy" ] },
      { "delegate": "tz1fwnfJNgiDACshK9avfRfFbMaXrs3ghoJa",
        "reception_time": "2022-01-21T01:03:42.515-00:00",
        "included_in_blocks":
          [ "BKyC7gcFq2abogj1RDkgG3NoyviPBstjLTYWv2rii6AMUrra5Vy" ] },
      { "delegate": "tz1LmaFsWRkjr7QMCx5PtV6xTUz3AmEpKQiF",
        "reception_time": "2022-01-21T01:03:42.434-00:00",
        "included_in_blocks":
          [ "BKyC7gcFq2abogj1RDkgG3NoyviPBstjLTYWv2rii6AMUrra5Vy" ] },
      { "delegate": "tz1Tnjaxk6tbAeC2TmMApPh8UsrEVQvhHvx5",
        "reception_time": "2022-01-21T01:03:42.347-00:00",
        "included_in_blocks":
          [ "BKyC7gcFq2abogj1RDkgG3NoyviPBstjLTYWv2rii6AMUrra5Vy" ] },
      { "delegate": "tz1abmz7jiCV2GH2u81LRrGgAFFgvQgiDiaf",
        "reception_time": "2022-01-21T01:03:42.336-00:00",
        "included_in_blocks":
          [ "BKyC7gcFq2abogj1RDkgG3NoyviPBstjLTYWv2rii6AMUrra5Vy" ] },
      { "delegate": "tz1WBfwbT66FC6BTLexc2BoyCCBM9LG7pnVW",
        "reception_time": "2022-01-21T01:03:42.314-00:00",
        "included_in_blocks":
          [ "BKyC7gcFq2abogj1RDkgG3NoyviPBstjLTYWv2rii6AMUrra5Vy" ] },
      { "delegate": "tz1fR5e22cR7fTSMHm1ZTMRqK38sRwk9U148",
        "reception_time": "2022-01-21T01:03:42.167-00:00",
        "included_in_blocks":
          [ "BKyC7gcFq2abogj1RDkgG3NoyviPBstjLTYWv2rii6AMUrra5Vy" ] },
      { "delegate": "tz1LXpCpLNRhP7G9Yw8dRhWd8ZfH8929uvGo",
        "reception_time": "2022-01-21T01:03:42.268-00:00",
        "included_in_blocks":
          [ "BKyC7gcFq2abogj1RDkgG3NoyviPBstjLTYWv2rii6AMUrra5Vy" ] },
      { "delegate": "tz1ei4WtWEMEJekSv8qDnu9PExG6Q8HgRGr3",
        "reception_time": "2022-01-21T01:03:42.323-00:00",
        "included_in_blocks":
          [ "BKyC7gcFq2abogj1RDkgG3NoyviPBstjLTYWv2rii6AMUrra5Vy" ] },
      { "delegate": "tz1SYq214SCBy9naR6cvycQsYcUGpBqQAE8d",
        "reception_time": "2022-01-21T01:03:42.175-00:00",
        "included_in_blocks":
          [ "BKyC7gcFq2abogj1RDkgG3NoyviPBstjLTYWv2rii6AMUrra5Vy" ] },
      { "delegate": "tz3NDpRj6WBrJPikcPVHRBEjWKxFw3c6eQPS",
        "reception_time": "2022-01-21T01:03:42.196-00:00",
        "included_in_blocks":
          [ "BKyC7gcFq2abogj1RDkgG3NoyviPBstjLTYWv2rii6AMUrra5Vy" ] },
      { "delegate": "tz1gfArv665EUkSg2ojMBzcbfwuPxAvqPvjo",
        "reception_time": "2022-01-21T01:03:42.027-00:00",
        "included_in_blocks":
          [ "BKyC7gcFq2abogj1RDkgG3NoyviPBstjLTYWv2rii6AMUrra5Vy" ] },
      { "delegate": "tz1PWCDnz783NNGGQjEFFsHtrcK5yBW4E2rm",
        "reception_time": "2022-01-21T01:03:41.984-00:00",
        "included_in_blocks":
          [ "BKyC7gcFq2abogj1RDkgG3NoyviPBstjLTYWv2rii6AMUrra5Vy" ] },
      { "delegate": "tz3bTdwZinP8U1JmSweNzVKhmwafqWmFWRfk",
        "reception_time": "2022-01-21T01:03:41.981-00:00",
        "included_in_blocks":
          [ "BKyC7gcFq2abogj1RDkgG3NoyviPBstjLTYWv2rii6AMUrra5Vy" ] },
      { "delegate": "tz1MQJPGNMijnXnVoBENFz9rUhaPt3S7rWoz",
        "reception_time": "2022-01-21T01:03:41.876-00:00",
        "included_in_blocks":
          [ "BKyC7gcFq2abogj1RDkgG3NoyviPBstjLTYWv2rii6AMUrra5Vy" ] },
      { "delegate": "tz1fPKAtsYydh4f1wfWNfeNxWYu72TmM48fu",
        "reception_time": "2022-01-21T01:03:41.909-00:00",
        "included_in_blocks":
          [ "BKyC7gcFq2abogj1RDkgG3NoyviPBstjLTYWv2rii6AMUrra5Vy" ] },
      { "delegate": "tz1ajgycuHmd2z2JbTSJxKv7x6cok2KuNSk1",
        "reception_time": "2022-01-21T01:03:41.835-00:00",
        "included_in_blocks":
          [ "BKyC7gcFq2abogj1RDkgG3NoyviPBstjLTYWv2rii6AMUrra5Vy" ] },
      { "delegate": "tz3bvNMQ95vfAYtG8193ymshqjSvmxiCUuR5",
        "reception_time": "2022-01-21T01:03:41.981-00:00",
        "included_in_blocks":
          [ "BKyC7gcFq2abogj1RDkgG3NoyviPBstjLTYWv2rii6AMUrra5Vy" ] },
      { "delegate": "tz1RCFbB9GpALpsZtu6J58sb74dm8qe6XBzv",
        "reception_time": "2022-01-21T01:03:41.657-00:00",
        "included_in_blocks":
          [ "BKyC7gcFq2abogj1RDkgG3NoyviPBstjLTYWv2rii6AMUrra5Vy" ] },
      { "delegate": "tz1VmiY38m3y95HqQLjMwqnMS7sdMfGomzKi",
        "reception_time": "2022-01-21T01:03:41.435-00:00",
        "included_in_blocks":
          [ "BKyC7gcFq2abogj1RDkgG3NoyviPBstjLTYWv2rii6AMUrra5Vy" ] },
      { "delegate": "tz3adcvQaKXTCg12zbninqo3q8ptKKtDFTLv",
        "reception_time": "2022-01-21T01:03:41.482-00:00",
        "included_in_blocks":
          [ "BKyC7gcFq2abogj1RDkgG3NoyviPBstjLTYWv2rii6AMUrra5Vy" ] },
      { "delegate": "tz3S6BBeKgJGXxvLyZ1xzXzMPn11nnFtq5L9",
        "reception_time": "2022-01-21T01:03:41.406-00:00",
        "included_in_blocks":
          [ "BKyC7gcFq2abogj1RDkgG3NoyviPBstjLTYWv2rii6AMUrra5Vy" ] },
      { "delegate": "tz3QT9dHYKDqh563chVa6za8526ys1UKfRfL",
        "reception_time": "2022-01-21T01:03:41.414-00:00",
        "included_in_blocks":
          [ "BKyC7gcFq2abogj1RDkgG3NoyviPBstjLTYWv2rii6AMUrra5Vy" ] },
      { "delegate": "tz1gUNyn3hmnEWqkusWPzxRaon1cs7ndWh7h",
        "reception_time": "2022-01-21T01:03:41.348-00:00",
        "included_in_blocks":
          [ "BKyC7gcFq2abogj1RDkgG3NoyviPBstjLTYWv2rii6AMUrra5Vy" ] },
      { "delegate": "tz1W3VYi3gSt9Xgfw6WNV1aGZRPH2BsskMEY",
        "reception_time": "2022-01-21T01:03:41.214-00:00",
        "included_in_blocks":
          [ "BKyC7gcFq2abogj1RDkgG3NoyviPBstjLTYWv2rii6AMUrra5Vy" ] },
      { "delegate": "tz1VQnqCCqX4K5sP3FNkVSNKTdCAMJDd3E1n",
        "reception_time": "2022-01-21T01:03:41.385-00:00",
        "included_in_blocks":
          [ "BKyC7gcFq2abogj1RDkgG3NoyviPBstjLTYWv2rii6AMUrra5Vy" ] },
      { "delegate": "tz1WCd2jm4uSt4vntk4vSuUWoZQGhLcDuR9q",
        "reception_time": "2022-01-21T01:03:41.382-00:00",
        "included_in_blocks":
          [ "BKyC7gcFq2abogj1RDkgG3NoyviPBstjLTYWv2rii6AMUrra5Vy" ] },
      { "delegate": "tz3iJu5vrKZcsqRPs8yJ61UDoeEXZmtro4qh",
        "reception_time": "2022-01-21T01:03:41.206-00:00",
        "included_in_blocks":
          [ "BKyC7gcFq2abogj1RDkgG3NoyviPBstjLTYWv2rii6AMUrra5Vy" ] },
      { "delegate": "tz3Zhs2dygr55yHyQyKjntAtY9bgfhLZ4Xj1",
        "reception_time": "2022-01-21T01:03:41.226-00:00",
        "included_in_blocks":
          [ "BKyC7gcFq2abogj1RDkgG3NoyviPBstjLTYWv2rii6AMUrra5Vy" ] },
      { "delegate": "tz1Kf25fX1VdmYGSEzwFy1wNmkbSEZ2V83sY",
        "reception_time": "2022-01-21T01:03:41.215-00:00",
        "included_in_blocks":
          [ "BKyC7gcFq2abogj1RDkgG3NoyviPBstjLTYWv2rii6AMUrra5Vy" ] },
      { "delegate": "tz3gtoUxdudfBRcNY7iVdKPHCYYX6xdPpoRS",
        "reception_time": "2022-01-21T01:03:41.138-00:00",
        "included_in_blocks":
          [ "BKyC7gcFq2abogj1RDkgG3NoyviPBstjLTYWv2rii6AMUrra5Vy" ] },
      { "delegate": "tz3ZbP2pM3nwvXztbuMJwJnDvV5xdpU8UkkD",
        "reception_time": "2022-01-21T01:03:41.093-00:00",
        "included_in_blocks":
          [ "BKyC7gcFq2abogj1RDkgG3NoyviPBstjLTYWv2rii6AMUrra5Vy" ] },
      { "delegate": "tz1Kt4P8BCaP93AEV4eA7gmpRryWt5hznjCP",
        "reception_time": "2022-01-21T01:03:41.192-00:00",
        "included_in_blocks":
          [ "BKyC7gcFq2abogj1RDkgG3NoyviPBstjLTYWv2rii6AMUrra5Vy" ] },
      { "delegate": "tz1NMdMmWZN8QPB8pY4ddncACDg1cHi1xD2e",
        "reception_time": "2022-01-21T01:03:41.045-00:00",
        "included_in_blocks":
          [ "BKyC7gcFq2abogj1RDkgG3NoyviPBstjLTYWv2rii6AMUrra5Vy" ] },
      { "delegate": "tz3QSGPoRp3Kn7n3vY24eYeu3Peuqo45LQ4D",
        "reception_time": "2022-01-21T01:03:41.093-00:00",
        "included_in_blocks":
          [ "BKyC7gcFq2abogj1RDkgG3NoyviPBstjLTYWv2rii6AMUrra5Vy" ] },
      { "delegate": "tz1XfAjZyaLdceHnZxbMYop7g7kWKPut4PR7",
        "reception_time": "2022-01-21T01:03:41.047-00:00",
        "included_in_blocks":
          [ "BKyC7gcFq2abogj1RDkgG3NoyviPBstjLTYWv2rii6AMUrra5Vy" ] },
      { "delegate": "tz1Ldzz6k1BHdhuKvAtMRX7h5kJSMHESMHLC",
        "reception_time": "2022-01-21T01:03:41.098-00:00",
        "included_in_blocks":
          [ "BKyC7gcFq2abogj1RDkgG3NoyviPBstjLTYWv2rii6AMUrra5Vy" ] },
      { "delegate": "tz3hw2kqXhLUvY65ca1eety2oQTpAvd34R9Q",
        "reception_time": "2022-01-21T01:03:41.009-00:00",
        "included_in_blocks":
          [ "BKyC7gcFq2abogj1RDkgG3NoyviPBstjLTYWv2rii6AMUrra5Vy" ] },
      { "delegate": "tz1irJKkXS2DBWkU1NnmFQx1c1L7pbGg4yhk",
        "reception_time": "2022-01-21T01:03:40.962-00:00",
        "included_in_blocks":
          [ "BKyC7gcFq2abogj1RDkgG3NoyviPBstjLTYWv2rii6AMUrra5Vy" ] },
      { "delegate": "tz1STeamwbp68THcny9zk3LsbG3H36DMvbRK",
        "reception_time": "2022-01-21T01:03:40.937-00:00",
        "included_in_blocks":
          [ "BKyC7gcFq2abogj1RDkgG3NoyviPBstjLTYWv2rii6AMUrra5Vy" ] },
      { "delegate": "tz1P2Po7YM526ughEsRbY4oR9zaUPDZjxFrb",
        "reception_time": "2022-01-21T01:03:40.934-00:00",
        "included_in_blocks":
          [ "BKyC7gcFq2abogj1RDkgG3NoyviPBstjLTYWv2rii6AMUrra5Vy" ] },
      { "delegate": "tz1aKxnrzx5PXZJe7unufEswVRCMU9yafmfb",
        "reception_time": "2022-01-21T01:03:40.932-00:00",
        "included_in_blocks":
          [ "BKyC7gcFq2abogj1RDkgG3NoyviPBstjLTYWv2rii6AMUrra5Vy" ] },
      { "delegate": "tz1eEnQhbwf6trb8Q8mPb2RaPkNk2rN7BKi8",
        "reception_time": "2022-01-21T01:03:40.932-00:00",
        "included_in_blocks":
          [ "BKyC7gcFq2abogj1RDkgG3NoyviPBstjLTYWv2rii6AMUrra5Vy" ] },
      { "delegate": "tz1beersuEDv8Z7ngQ825xfbaJNS2EhXnyHR",
        "reception_time": "2022-01-21T01:03:40.921-00:00",
        "included_in_blocks":
          [ "BKyC7gcFq2abogj1RDkgG3NoyviPBstjLTYWv2rii6AMUrra5Vy" ] } ] }