{ "blocks":
    [ { "hash": "BKzWqhWxm7K8BdZmY9VLujHLUZgef1u52U5bok5wpNLzV75Ag26",
        "delegate": "tz1VQnqCCqX4K5sP3FNkVSNKTdCAMJDd3E1n",
        "reception_time": "2022-01-21T03:28:44.973-00:00",
        "timestamp": "2022-01-21T03:28:40Z" } ],
  "endorsements":
    [ { "delegate": "tz1dbfppLAAxXZNtf2SDps7rch3qfUznKSoK" },
      { "delegate": "tz1awXW7wuXy21c66vBudMXQVAPgRnqqwgTH" },
      { "delegate": "tz1WnyXakHZKotpQHxevTnLmomz5rTwdiccy" },
      { "delegate": "tz1TRqbYbUf2GyrjErf3hBzgBJPzW8y36qEs" },
      { "delegate": "tz1eEnQhbwf6trb8Q8mPb2RaPkNk2rN7BKi8",
        "reception_time": "2022-01-21T03:28:44.934-00:00",
        "errors":
          [ { "kind": "temporary",
              "id": "proto.011-PtHangz2.prefilter.outdated_endorsement" } ],
        "included_in_blocks":
          [ "BLs2gaAVLgosBttWPQzr8ug9fkjMu66SLkyH9bfk4zKLpG8oHBb" ] },
      { "delegate": "tz1P2Po7YM526ughEsRbY4oR9zaUPDZjxFrb",
        "reception_time": "2022-01-21T03:28:44.841-00:00",
        "errors":
          [ { "kind": "temporary",
              "id": "proto.011-PtHangz2.prefilter.outdated_endorsement" } ],
        "included_in_blocks":
          [ "BLs2gaAVLgosBttWPQzr8ug9fkjMu66SLkyH9bfk4zKLpG8oHBb" ] },
      { "delegate": "tz1TcH4Nb3aHNDJ7CGZhU7jgAK1BkSP4Lxds",
        "reception_time": "2022-01-21T03:28:50.363-00:00",
        "included_in_blocks":
          [ "BLs2gaAVLgosBttWPQzr8ug9fkjMu66SLkyH9bfk4zKLpG8oHBb" ] },
      { "delegate": "tz1PFeoTuFen8jAMRHajBySNyCwLmY5RqF9M",
        "reception_time": "2022-01-21T03:28:50.509-00:00",
        "included_in_blocks":
          [ "BLs2gaAVLgosBttWPQzr8ug9fkjMu66SLkyH9bfk4zKLpG8oHBb" ] },
      { "delegate": "tz3NExpXn9aPNZPorRE4SdjJ2RGrfbJgMAaV",
        "reception_time": "2022-01-21T03:28:49.498-00:00",
        "included_in_blocks":
          [ "BLs2gaAVLgosBttWPQzr8ug9fkjMu66SLkyH9bfk4zKLpG8oHBb" ] },
      { "delegate": "tz1W5VkdB5s7ENMESVBtwyt9kyvLqPcUczRT",
        "reception_time": "2022-01-21T03:28:49.520-00:00",
        "included_in_blocks":
          [ "BLs2gaAVLgosBttWPQzr8ug9fkjMu66SLkyH9bfk4zKLpG8oHBb" ] },
      { "delegate": "tz1aRoaRhSpRYvFdyvgWLL6TGyRoGF51wDjM",
        "reception_time": "2022-01-21T03:28:49.064-00:00",
        "included_in_blocks":
          [ "BLs2gaAVLgosBttWPQzr8ug9fkjMu66SLkyH9bfk4zKLpG8oHBb" ] },
      { "delegate": "tz1ZcTRk5uxD86EFEn1vvNffWWqJy7q5eVhc",
        "reception_time": "2022-01-21T03:28:49.204-00:00",
        "included_in_blocks":
          [ "BLs2gaAVLgosBttWPQzr8ug9fkjMu66SLkyH9bfk4zKLpG8oHBb" ] },
      { "delegate": "tz3bvNMQ95vfAYtG8193ymshqjSvmxiCUuR5",
        "reception_time": "2022-01-21T03:28:48.584-00:00",
        "included_in_blocks":
          [ "BLs2gaAVLgosBttWPQzr8ug9fkjMu66SLkyH9bfk4zKLpG8oHBb" ] },
      { "delegate": "tz1cM8Xc7ZP1TrjkTeKq4PeRhtbnwXSBR6Sw",
        "reception_time": "2022-01-21T03:28:48.869-00:00",
        "included_in_blocks":
          [ "BLs2gaAVLgosBttWPQzr8ug9fkjMu66SLkyH9bfk4zKLpG8oHBb" ] },
      { "delegate": "tz1Z2jXfEXL7dXhs6bsLmyLFLfmAkXBzA9WE",
        "reception_time": "2022-01-21T03:28:48.609-00:00",
        "included_in_blocks":
          [ "BLs2gaAVLgosBttWPQzr8ug9fkjMu66SLkyH9bfk4zKLpG8oHBb" ] },
      { "delegate": "tz3RDC3Jdn4j15J7bBHZd29EUee9gVB1CxD9",
        "reception_time": "2022-01-21T03:28:48.605-00:00",
        "included_in_blocks":
          [ "BLs2gaAVLgosBttWPQzr8ug9fkjMu66SLkyH9bfk4zKLpG8oHBb" ] },
      { "delegate": "tz1UvkANVPWppVgMkLnvN7BwYZsCP7vm6NVd",
        "reception_time": "2022-01-21T03:28:48.220-00:00",
        "included_in_blocks":
          [ "BLs2gaAVLgosBttWPQzr8ug9fkjMu66SLkyH9bfk4zKLpG8oHBb" ] },
      { "delegate": "tz3WMqdzXqRWXwyvj5Hp2H7QEepaUuS7vd9K",
        "reception_time": "2022-01-21T03:28:47.956-00:00",
        "included_in_blocks":
          [ "BLs2gaAVLgosBttWPQzr8ug9fkjMu66SLkyH9bfk4zKLpG8oHBb" ] },
      { "delegate": "tz1cYufsxHXJcvANhvS55h3aY32a9BAFB494",
        "reception_time": "2022-01-21T03:28:47.750-00:00",
        "included_in_blocks":
          [ "BLs2gaAVLgosBttWPQzr8ug9fkjMu66SLkyH9bfk4zKLpG8oHBb" ] },
      { "delegate": "tz1dRKU4FQ9QRRQPdaH4zCR6gmCmXfcvcgtB",
        "reception_time": "2022-01-21T03:28:48.070-00:00",
        "included_in_blocks":
          [ "BLs2gaAVLgosBttWPQzr8ug9fkjMu66SLkyH9bfk4zKLpG8oHBb" ] },
      { "delegate": "tz1RjoHc98dBoqaH2jawF62XNKh7YsHwbkEv",
        "reception_time": "2022-01-21T03:28:48.035-00:00",
        "included_in_blocks":
          [ "BLs2gaAVLgosBttWPQzr8ug9fkjMu66SLkyH9bfk4zKLpG8oHBb" ] },
      { "delegate": "tz3VEZ4k6a4Wx42iyev6i2aVAptTRLEAivNN",
        "reception_time": "2022-01-21T03:28:47.656-00:00",
        "included_in_blocks":
          [ "BLs2gaAVLgosBttWPQzr8ug9fkjMu66SLkyH9bfk4zKLpG8oHBb" ] },
      { "delegate": "tz3UoffC7FG7zfpmvmjUmUeAaHvzdcUvAj6r",
        "reception_time": "2022-01-21T03:28:47.750-00:00",
        "included_in_blocks":
          [ "BLs2gaAVLgosBttWPQzr8ug9fkjMu66SLkyH9bfk4zKLpG8oHBb" ] },
      { "delegate": "tz1eLbDXYceRsPZoPmaJXZgQ6pzgnTQvZtpo",
        "reception_time": "2022-01-21T03:28:47.525-00:00",
        "included_in_blocks":
          [ "BLs2gaAVLgosBttWPQzr8ug9fkjMu66SLkyH9bfk4zKLpG8oHBb" ] },
      { "delegate": "tz1T7duV5gZWSTq4YpBGbXNLTfznCLDrFxvs",
        "reception_time": "2022-01-21T03:28:47.885-00:00",
        "included_in_blocks":
          [ "BLs2gaAVLgosBttWPQzr8ug9fkjMu66SLkyH9bfk4zKLpG8oHBb" ] },
      { "delegate": "tz1Nf6tsK4G6bBqgSQERy4nUtkHNKUVdh7q1",
        "reception_time": "2022-01-21T03:28:47.391-00:00",
        "included_in_blocks":
          [ "BLs2gaAVLgosBttWPQzr8ug9fkjMu66SLkyH9bfk4zKLpG8oHBb" ] },
      { "delegate": "tz1NEKxGEHsFufk87CVZcrqWu8o22qh46GK6",
        "reception_time": "2022-01-21T03:28:47.768-00:00",
        "included_in_blocks":
          [ "BLs2gaAVLgosBttWPQzr8ug9fkjMu66SLkyH9bfk4zKLpG8oHBb" ] },
      { "delegate": "tz3bTdwZinP8U1JmSweNzVKhmwafqWmFWRfk",
        "reception_time": "2022-01-21T03:28:47.362-00:00",
        "included_in_blocks":
          [ "BLs2gaAVLgosBttWPQzr8ug9fkjMu66SLkyH9bfk4zKLpG8oHBb" ] },
      { "delegate": "tz1WctSwL49BZtdWAQ75NY6vr4xsAx6oKdah",
        "reception_time": "2022-01-21T03:28:47.662-00:00",
        "included_in_blocks":
          [ "BLs2gaAVLgosBttWPQzr8ug9fkjMu66SLkyH9bfk4zKLpG8oHBb" ] },
      { "delegate": "tz3RB4aoyjov4KEVRbuhvQ1CKJgBJMWhaeB8",
        "reception_time": "2022-01-21T03:28:47.146-00:00",
        "included_in_blocks":
          [ "BLs2gaAVLgosBttWPQzr8ug9fkjMu66SLkyH9bfk4zKLpG8oHBb" ] },
      { "delegate": "tz1fwnfJNgiDACshK9avfRfFbMaXrs3ghoJa",
        "reception_time": "2022-01-21T03:28:47.638-00:00",
        "included_in_blocks":
          [ "BLs2gaAVLgosBttWPQzr8ug9fkjMu66SLkyH9bfk4zKLpG8oHBb" ] },
      { "delegate": "tz1a3T5mRR1XWM1JgydvAqxEwpNs7ktVZuXc",
        "reception_time": "2022-01-21T03:28:47.147-00:00",
        "included_in_blocks":
          [ "BLs2gaAVLgosBttWPQzr8ug9fkjMu66SLkyH9bfk4zKLpG8oHBb" ] },
      { "delegate": "tz2FCNBrERXtaTtNX6iimR1UJ5JSDxvdHM93",
        "reception_time": "2022-01-21T03:28:47.123-00:00",
        "included_in_blocks":
          [ "BLs2gaAVLgosBttWPQzr8ug9fkjMu66SLkyH9bfk4zKLpG8oHBb" ] },
      { "delegate": "tz1WBfwbT66FC6BTLexc2BoyCCBM9LG7pnVW",
        "reception_time": "2022-01-21T03:28:47.116-00:00",
        "included_in_blocks":
          [ "BLs2gaAVLgosBttWPQzr8ug9fkjMu66SLkyH9bfk4zKLpG8oHBb" ] },
      { "delegate": "tz1g8vkmcde6sWKaG2NN9WKzCkDM6Rziq194",
        "reception_time": "2022-01-21T03:28:47.081-00:00",
        "included_in_blocks":
          [ "BLs2gaAVLgosBttWPQzr8ug9fkjMu66SLkyH9bfk4zKLpG8oHBb" ] },
      { "delegate": "tz1MQMiZHV8q4tTwUMWmS5Y3kaP6J2136iXr",
        "reception_time": "2022-01-21T03:28:47.139-00:00",
        "included_in_blocks":
          [ "BLs2gaAVLgosBttWPQzr8ug9fkjMu66SLkyH9bfk4zKLpG8oHBb" ] },
      { "delegate": "tz1MQJPGNMijnXnVoBENFz9rUhaPt3S7rWoz",
        "reception_time": "2022-01-21T03:28:47.067-00:00",
        "included_in_blocks":
          [ "BLs2gaAVLgosBttWPQzr8ug9fkjMu66SLkyH9bfk4zKLpG8oHBb" ] },
      { "delegate": "tz1YhNsiRRU8aHNGg7NK3uuP6UDAyacJernB",
        "reception_time": "2022-01-21T03:28:47.113-00:00",
        "included_in_blocks":
          [ "BLs2gaAVLgosBttWPQzr8ug9fkjMu66SLkyH9bfk4zKLpG8oHBb" ] },
      { "delegate": "tz1a1J3AGjJTAyBqWWSqFuUazUDV2TtD6hMy",
        "reception_time": "2022-01-21T03:28:47.126-00:00",
        "included_in_blocks":
          [ "BLs2gaAVLgosBttWPQzr8ug9fkjMu66SLkyH9bfk4zKLpG8oHBb" ] },
      { "delegate": "tz1fb7c66UwePkkfDXz4ajFaBP9hVNLdS7JJ",
        "reception_time": "2022-01-21T03:28:47.070-00:00",
        "included_in_blocks":
          [ "BLs2gaAVLgosBttWPQzr8ug9fkjMu66SLkyH9bfk4zKLpG8oHBb" ] },
      { "delegate": "tz1KfEsrtDaA1sX7vdM4qmEPWuSytuqCDp5j",
        "reception_time": "2022-01-21T03:28:47.128-00:00",
        "included_in_blocks":
          [ "BLs2gaAVLgosBttWPQzr8ug9fkjMu66SLkyH9bfk4zKLpG8oHBb" ] },
      { "delegate": "tz1S8MNvuFEUsWgjHvi3AxibRBf388NhT1q2",
        "reception_time": "2022-01-21T03:28:47.077-00:00",
        "included_in_blocks":
          [ "BLs2gaAVLgosBttWPQzr8ug9fkjMu66SLkyH9bfk4zKLpG8oHBb" ] },
      { "delegate": "tz1gfArv665EUkSg2ojMBzcbfwuPxAvqPvjo",
        "reception_time": "2022-01-21T03:28:47.099-00:00",
        "included_in_blocks":
          [ "BLs2gaAVLgosBttWPQzr8ug9fkjMu66SLkyH9bfk4zKLpG8oHBb" ] },
      { "delegate": "tz1TEc75UKXv4W5cwi14Na3NtqFD51yKQi7h",
        "reception_time": "2022-01-21T03:28:46.827-00:00",
        "included_in_blocks":
          [ "BLs2gaAVLgosBttWPQzr8ug9fkjMu66SLkyH9bfk4zKLpG8oHBb" ] },
      { "delegate": "tz1dNVDWPf3Q59SdJqnjdnu277iyvReiRS9M",
        "reception_time": "2022-01-21T03:28:47.060-00:00",
        "included_in_blocks":
          [ "BLs2gaAVLgosBttWPQzr8ug9fkjMu66SLkyH9bfk4zKLpG8oHBb" ] },
      { "delegate": "tz1RCFbB9GpALpsZtu6J58sb74dm8qe6XBzv",
        "reception_time": "2022-01-21T03:28:47.063-00:00",
        "included_in_blocks":
          [ "BLs2gaAVLgosBttWPQzr8ug9fkjMu66SLkyH9bfk4zKLpG8oHBb" ] },
      { "delegate": "tz1d6Fx42mYgVFnHUW8T8A7WBfJ6nD9pVok8",
        "reception_time": "2022-01-21T03:28:46.837-00:00",
        "included_in_blocks":
          [ "BLs2gaAVLgosBttWPQzr8ug9fkjMu66SLkyH9bfk4zKLpG8oHBb" ] },
      { "delegate": "tz1Mc61yajNASzh5KWZFtYs4i7EJbzAxQC4K",
        "reception_time": "2022-01-21T03:28:46.805-00:00",
        "included_in_blocks":
          [ "BLs2gaAVLgosBttWPQzr8ug9fkjMu66SLkyH9bfk4zKLpG8oHBb" ] },
      { "delegate": "tz3e7LbZvUtoXhpUD1yb6wuFodZpfYRb9nWJ",
        "reception_time": "2022-01-21T03:28:47.057-00:00",
        "included_in_blocks":
          [ "BLs2gaAVLgosBttWPQzr8ug9fkjMu66SLkyH9bfk4zKLpG8oHBb" ] },
      { "delegate": "tz3QT9dHYKDqh563chVa6za8526ys1UKfRfL",
        "reception_time": "2022-01-21T03:28:46.780-00:00",
        "included_in_blocks":
          [ "BLs2gaAVLgosBttWPQzr8ug9fkjMu66SLkyH9bfk4zKLpG8oHBb" ] },
      { "delegate": "tz3S6BBeKgJGXxvLyZ1xzXzMPn11nnFtq5L9",
        "reception_time": "2022-01-21T03:28:46.739-00:00",
        "included_in_blocks":
          [ "BLs2gaAVLgosBttWPQzr8ug9fkjMu66SLkyH9bfk4zKLpG8oHBb" ] },
      { "delegate": "tz3Zhs2dygr55yHyQyKjntAtY9bgfhLZ4Xj1",
        "reception_time": "2022-01-21T03:28:46.751-00:00",
        "included_in_blocks":
          [ "BLs2gaAVLgosBttWPQzr8ug9fkjMu66SLkyH9bfk4zKLpG8oHBb" ] },
      { "delegate": "tz3RKYFsLuQzKBtmYuLNas7uMu3AsYd4QdsA",
        "reception_time": "2022-01-21T03:28:46.697-00:00",
        "included_in_blocks":
          [ "BLs2gaAVLgosBttWPQzr8ug9fkjMu66SLkyH9bfk4zKLpG8oHBb" ] },
      { "delegate": "tz1TzaNn7wSQSP5gYPXCnNzBCpyMiidCq1PX",
        "reception_time": "2022-01-21T03:28:46.783-00:00",
        "included_in_blocks":
          [ "BLs2gaAVLgosBttWPQzr8ug9fkjMu66SLkyH9bfk4zKLpG8oHBb" ] },
      { "delegate": "tz3iJu5vrKZcsqRPs8yJ61UDoeEXZmtro4qh",
        "reception_time": "2022-01-21T03:28:46.739-00:00",
        "included_in_blocks":
          [ "BLs2gaAVLgosBttWPQzr8ug9fkjMu66SLkyH9bfk4zKLpG8oHBb" ] },
      { "delegate": "tz3hw2kqXhLUvY65ca1eety2oQTpAvd34R9Q",
        "reception_time": "2022-01-21T03:28:46.780-00:00",
        "included_in_blocks":
          [ "BLs2gaAVLgosBttWPQzr8ug9fkjMu66SLkyH9bfk4zKLpG8oHBb" ] },
      { "delegate": "tz1TRspM5SeZpaQUhzByXbEvqKF1vnCM2YTK",
        "reception_time": "2022-01-21T03:28:46.794-00:00",
        "included_in_blocks":
          [ "BLs2gaAVLgosBttWPQzr8ug9fkjMu66SLkyH9bfk4zKLpG8oHBb" ] },
      { "delegate": "tz3QCNyySViKHmeSr45kzDxzchys7NiXCWoa",
        "reception_time": "2022-01-21T03:28:46.716-00:00",
        "included_in_blocks":
          [ "BLs2gaAVLgosBttWPQzr8ug9fkjMu66SLkyH9bfk4zKLpG8oHBb" ] },
      { "delegate": "tz1WCd2jm4uSt4vntk4vSuUWoZQGhLcDuR9q",
        "reception_time": "2022-01-21T03:28:46.789-00:00",
        "included_in_blocks":
          [ "BLs2gaAVLgosBttWPQzr8ug9fkjMu66SLkyH9bfk4zKLpG8oHBb" ] },
      { "delegate": "tz1ei4WtWEMEJekSv8qDnu9PExG6Q8HgRGr3",
        "reception_time": "2022-01-21T03:28:47.057-00:00",
        "included_in_blocks":
          [ "BLs2gaAVLgosBttWPQzr8ug9fkjMu66SLkyH9bfk4zKLpG8oHBb" ] },
      { "delegate": "tz3ZbP2pM3nwvXztbuMJwJnDvV5xdpU8UkkD",
        "reception_time": "2022-01-21T03:28:46.709-00:00",
        "included_in_blocks":
          [ "BLs2gaAVLgosBttWPQzr8ug9fkjMu66SLkyH9bfk4zKLpG8oHBb" ] },
      { "delegate": "tz3NxTnke1acr8o3h5y9ytf5awQBGNJUKzVU",
        "reception_time": "2022-01-21T03:28:46.697-00:00",
        "included_in_blocks":
          [ "BLs2gaAVLgosBttWPQzr8ug9fkjMu66SLkyH9bfk4zKLpG8oHBb" ] },
      { "delegate": "tz3adcvQaKXTCg12zbninqo3q8ptKKtDFTLv",
        "reception_time": "2022-01-21T03:28:46.726-00:00",
        "included_in_blocks":
          [ "BLs2gaAVLgosBttWPQzr8ug9fkjMu66SLkyH9bfk4zKLpG8oHBb" ] },
      { "delegate": "tz1Ldzz6k1BHdhuKvAtMRX7h5kJSMHESMHLC",
        "reception_time": "2022-01-21T03:28:46.668-00:00",
        "included_in_blocks":
          [ "BLs2gaAVLgosBttWPQzr8ug9fkjMu66SLkyH9bfk4zKLpG8oHBb" ] },
      { "delegate": "tz1irJKkXS2DBWkU1NnmFQx1c1L7pbGg4yhk",
        "reception_time": "2022-01-21T03:28:46.671-00:00",
        "included_in_blocks":
          [ "BLs2gaAVLgosBttWPQzr8ug9fkjMu66SLkyH9bfk4zKLpG8oHBb" ] },
      { "delegate": "tz3QSGPoRp3Kn7n3vY24eYeu3Peuqo45LQ4D",
        "reception_time": "2022-01-21T03:28:46.684-00:00",
        "included_in_blocks":
          [ "BLs2gaAVLgosBttWPQzr8ug9fkjMu66SLkyH9bfk4zKLpG8oHBb" ] },
      { "delegate": "tz1Kf25fX1VdmYGSEzwFy1wNmkbSEZ2V83sY",
        "reception_time": "2022-01-21T03:28:46.791-00:00",
        "included_in_blocks":
          [ "BLs2gaAVLgosBttWPQzr8ug9fkjMu66SLkyH9bfk4zKLpG8oHBb" ] },
      { "delegate": "tz1VmiY38m3y95HqQLjMwqnMS7sdMfGomzKi",
        "reception_time": "2022-01-21T03:28:46.751-00:00",
        "included_in_blocks":
          [ "BLs2gaAVLgosBttWPQzr8ug9fkjMu66SLkyH9bfk4zKLpG8oHBb" ] },
      { "delegate": "tz1VQnqCCqX4K5sP3FNkVSNKTdCAMJDd3E1n",
        "reception_time": "2022-01-21T03:28:46.646-00:00",
        "included_in_blocks":
          [ "BLs2gaAVLgosBttWPQzr8ug9fkjMu66SLkyH9bfk4zKLpG8oHBb" ] },
      { "delegate": "tz1gUNyn3hmnEWqkusWPzxRaon1cs7ndWh7h",
        "reception_time": "2022-01-21T03:28:46.666-00:00",
        "included_in_blocks":
          [ "BLs2gaAVLgosBttWPQzr8ug9fkjMu66SLkyH9bfk4zKLpG8oHBb" ] },
      { "delegate": "tz3gtoUxdudfBRcNY7iVdKPHCYYX6xdPpoRS",
        "reception_time": "2022-01-21T03:28:46.640-00:00",
        "included_in_blocks":
          [ "BLs2gaAVLgosBttWPQzr8ug9fkjMu66SLkyH9bfk4zKLpG8oHBb" ] },
      { "delegate": "tz1ZPh7XfUaJXUDvkrBxmS1BjEM1i62hiPpM",
        "reception_time": "2022-01-21T03:28:46.684-00:00",
        "included_in_blocks":
          [ "BLs2gaAVLgosBttWPQzr8ug9fkjMu66SLkyH9bfk4zKLpG8oHBb" ] },
      { "delegate": "tz1TXzyaKUA8wsWefdSnyaYFnV2M3vCV7er9",
        "reception_time": "2022-01-21T03:28:46.643-00:00",
        "included_in_blocks":
          [ "BLs2gaAVLgosBttWPQzr8ug9fkjMu66SLkyH9bfk4zKLpG8oHBb" ] },
      { "delegate": "tz1beersuEDv8Z7ngQ825xfbaJNS2EhXnyHR",
        "reception_time": "2022-01-21T03:28:46.662-00:00",
        "included_in_blocks":
          [ "BLs2gaAVLgosBttWPQzr8ug9fkjMu66SLkyH9bfk4zKLpG8oHBb" ] } ] }