{ "blocks":
    [ { "hash": "BMaWhnGQEmwwNkMjrBEiCwasX2WTzpmzW3N6GJgQZD9XAVyv8HL",
        "delegate": "tz1irJKkXS2DBWkU1NnmFQx1c1L7pbGg4yhk",
        "reception_time": "2022-01-21T05:03:46.066-00:00",
        "timestamp": "2022-01-21T05:03:40Z" } ],
  "endorsements":
    [ { "delegate": "tz1TRqbYbUf2GyrjErf3hBzgBJPzW8y36qEs" },
      { "delegate": "tz1irJKkXS2DBWkU1NnmFQx1c1L7pbGg4yhk",
        "reception_time": "2022-01-21T05:03:45.771-00:00",
        "errors":
          [ { "kind": "temporary",
              "id": "proto.011-PtHangz2.prefilter.outdated_endorsement" } ],
        "included_in_blocks":
          [ "BL31f5LzF8E9z2ZrMAVdqpUKJPPmJqfhrAq49Zmui2vDgNGQWSz" ] },
      { "delegate": "tz1P2Po7YM526ughEsRbY4oR9zaUPDZjxFrb",
        "reception_time": "2022-01-21T05:03:45.717-00:00",
        "errors":
          [ { "kind": "temporary",
              "id": "proto.011-PtHangz2.prefilter.outdated_endorsement" } ],
        "included_in_blocks":
          [ "BL31f5LzF8E9z2ZrMAVdqpUKJPPmJqfhrAq49Zmui2vDgNGQWSz" ] },
      { "delegate": "tz2BzJTyoQp8fNbfhWD4YQgH9JJHDgSGzpdG",
        "reception_time": "2022-01-21T05:03:56.145-00:00",
        "included_in_blocks":
          [ "BL31f5LzF8E9z2ZrMAVdqpUKJPPmJqfhrAq49Zmui2vDgNGQWSz" ] },
      { "delegate": "tz1NpWrAyDL9k2Lmnyxcgr9xuJakbBxdq7FB",
        "reception_time": "2022-01-21T05:03:56.170-00:00",
        "included_in_blocks":
          [ "BL31f5LzF8E9z2ZrMAVdqpUKJPPmJqfhrAq49Zmui2vDgNGQWSz" ] },
      { "delegate": "tz1Z1WwoqgRFbLE3YNdYRpCx44NSfiMJzeAG",
        "reception_time": "2022-01-21T05:03:55.362-00:00",
        "included_in_blocks":
          [ "BL31f5LzF8E9z2ZrMAVdqpUKJPPmJqfhrAq49Zmui2vDgNGQWSz" ] },
      { "delegate": "tz1W5VkdB5s7ENMESVBtwyt9kyvLqPcUczRT",
        "reception_time": "2022-01-21T05:03:53.748-00:00",
        "included_in_blocks":
          [ "BL31f5LzF8E9z2ZrMAVdqpUKJPPmJqfhrAq49Zmui2vDgNGQWSz" ] },
      { "delegate": "tz1g8vkmcde6sWKaG2NN9WKzCkDM6Rziq194",
        "reception_time": "2022-01-21T05:03:50.920-00:00",
        "included_in_blocks":
          [ "BL31f5LzF8E9z2ZrMAVdqpUKJPPmJqfhrAq49Zmui2vDgNGQWSz" ] },
      { "delegate": "tz1f3Re8iw6Pt3KMHAvyccHxDU3NuqL95axD",
        "reception_time": "2022-01-21T05:03:50.625-00:00",
        "included_in_blocks":
          [ "BL31f5LzF8E9z2ZrMAVdqpUKJPPmJqfhrAq49Zmui2vDgNGQWSz" ] },
      { "delegate": "tz3WMqdzXqRWXwyvj5Hp2H7QEepaUuS7vd9K",
        "reception_time": "2022-01-21T05:03:50.300-00:00",
        "included_in_blocks":
          [ "BL31f5LzF8E9z2ZrMAVdqpUKJPPmJqfhrAq49Zmui2vDgNGQWSz" ] },
      { "delegate": "tz3bvNMQ95vfAYtG8193ymshqjSvmxiCUuR5",
        "reception_time": "2022-01-21T05:03:49.752-00:00",
        "included_in_blocks":
          [ "BL31f5LzF8E9z2ZrMAVdqpUKJPPmJqfhrAq49Zmui2vDgNGQWSz" ] },
      { "delegate": "tz1cM8Xc7ZP1TrjkTeKq4PeRhtbnwXSBR6Sw",
        "reception_time": "2022-01-21T05:03:49.888-00:00",
        "included_in_blocks":
          [ "BL31f5LzF8E9z2ZrMAVdqpUKJPPmJqfhrAq49Zmui2vDgNGQWSz" ] },
      { "delegate": "tz3RDC3Jdn4j15J7bBHZd29EUee9gVB1CxD9",
        "reception_time": "2022-01-21T05:03:49.522-00:00",
        "included_in_blocks":
          [ "BL31f5LzF8E9z2ZrMAVdqpUKJPPmJqfhrAq49Zmui2vDgNGQWSz" ] },
      { "delegate": "tz1ZcTRk5uxD86EFEn1vvNffWWqJy7q5eVhc",
        "reception_time": "2022-01-21T05:03:49.895-00:00",
        "included_in_blocks":
          [ "BL31f5LzF8E9z2ZrMAVdqpUKJPPmJqfhrAq49Zmui2vDgNGQWSz" ] },
      { "delegate": "tz1aRoaRhSpRYvFdyvgWLL6TGyRoGF51wDjM",
        "reception_time": "2022-01-21T05:03:49.461-00:00",
        "included_in_blocks":
          [ "BL31f5LzF8E9z2ZrMAVdqpUKJPPmJqfhrAq49Zmui2vDgNGQWSz" ] },
      { "delegate": "tz1cYufsxHXJcvANhvS55h3aY32a9BAFB494",
        "reception_time": "2022-01-21T05:03:49.180-00:00",
        "included_in_blocks":
          [ "BL31f5LzF8E9z2ZrMAVdqpUKJPPmJqfhrAq49Zmui2vDgNGQWSz" ] },
      { "delegate": "tz3NExpXn9aPNZPorRE4SdjJ2RGrfbJgMAaV",
        "reception_time": "2022-01-21T05:03:49.599-00:00",
        "included_in_blocks":
          [ "BL31f5LzF8E9z2ZrMAVdqpUKJPPmJqfhrAq49Zmui2vDgNGQWSz" ] },
      { "delegate": "tz1Y42aKCk53vMbaJNpf1hBg1rznGdBxHJ5C",
        "reception_time": "2022-01-21T05:03:49.279-00:00",
        "included_in_blocks":
          [ "BL31f5LzF8E9z2ZrMAVdqpUKJPPmJqfhrAq49Zmui2vDgNGQWSz" ] },
      { "delegate": "tz1T7duV5gZWSTq4YpBGbXNLTfznCLDrFxvs",
        "reception_time": "2022-01-21T05:03:49.711-00:00",
        "included_in_blocks":
          [ "BL31f5LzF8E9z2ZrMAVdqpUKJPPmJqfhrAq49Zmui2vDgNGQWSz" ] },
      { "delegate": "tz1dRKU4FQ9QRRQPdaH4zCR6gmCmXfcvcgtB",
        "reception_time": "2022-01-21T05:03:49.358-00:00",
        "included_in_blocks":
          [ "BL31f5LzF8E9z2ZrMAVdqpUKJPPmJqfhrAq49Zmui2vDgNGQWSz" ] },
      { "delegate": "tz3VEZ4k6a4Wx42iyev6i2aVAptTRLEAivNN",
        "reception_time": "2022-01-21T05:03:48.923-00:00",
        "included_in_blocks":
          [ "BL31f5LzF8E9z2ZrMAVdqpUKJPPmJqfhrAq49Zmui2vDgNGQWSz" ] },
      { "delegate": "tz1fUyqYH7H4pRHN1roWY17giXhy1RvxjgUV",
        "reception_time": "2022-01-21T05:03:48.818-00:00",
        "included_in_blocks":
          [ "BL31f5LzF8E9z2ZrMAVdqpUKJPPmJqfhrAq49Zmui2vDgNGQWSz" ] },
      { "delegate": "tz3NDpRj6WBrJPikcPVHRBEjWKxFw3c6eQPS",
        "reception_time": "2022-01-21T05:03:48.511-00:00",
        "included_in_blocks":
          [ "BL31f5LzF8E9z2ZrMAVdqpUKJPPmJqfhrAq49Zmui2vDgNGQWSz" ] },
      { "delegate": "tz1PeZx7FXy7QRuMREGXGxeipb24RsMMzUNe",
        "reception_time": "2022-01-21T05:03:48.563-00:00",
        "included_in_blocks":
          [ "BL31f5LzF8E9z2ZrMAVdqpUKJPPmJqfhrAq49Zmui2vDgNGQWSz" ] },
      { "delegate": "tz1NoYvKjXTzTk54VpLxBfouJ33J8jwKPPvw",
        "reception_time": "2022-01-21T05:03:48.634-00:00",
        "included_in_blocks":
          [ "BL31f5LzF8E9z2ZrMAVdqpUKJPPmJqfhrAq49Zmui2vDgNGQWSz" ] },
      { "delegate": "tz1Nf6tsK4G6bBqgSQERy4nUtkHNKUVdh7q1",
        "reception_time": "2022-01-21T05:03:48.380-00:00",
        "included_in_blocks":
          [ "BL31f5LzF8E9z2ZrMAVdqpUKJPPmJqfhrAq49Zmui2vDgNGQWSz" ] },
      { "delegate": "tz3gLTu4Yxj8tPAcriQVUdxv6BY9QyvzU1az",
        "reception_time": "2022-01-21T05:03:48.491-00:00",
        "included_in_blocks":
          [ "BL31f5LzF8E9z2ZrMAVdqpUKJPPmJqfhrAq49Zmui2vDgNGQWSz" ] },
      { "delegate": "tz3UoffC7FG7zfpmvmjUmUeAaHvzdcUvAj6r",
        "reception_time": "2022-01-21T05:03:48.672-00:00",
        "included_in_blocks":
          [ "BL31f5LzF8E9z2ZrMAVdqpUKJPPmJqfhrAq49Zmui2vDgNGQWSz" ] },
      { "delegate": "tz2FCNBrERXtaTtNX6iimR1UJ5JSDxvdHM93",
        "reception_time": "2022-01-21T05:03:48.323-00:00",
        "included_in_blocks":
          [ "BL31f5LzF8E9z2ZrMAVdqpUKJPPmJqfhrAq49Zmui2vDgNGQWSz" ] },
      { "delegate": "tz3RB4aoyjov4KEVRbuhvQ1CKJgBJMWhaeB8",
        "reception_time": "2022-01-21T05:03:47.966-00:00",
        "included_in_blocks":
          [ "BL31f5LzF8E9z2ZrMAVdqpUKJPPmJqfhrAq49Zmui2vDgNGQWSz" ] },
      { "delegate": "tz1KfEsrtDaA1sX7vdM4qmEPWuSytuqCDp5j",
        "reception_time": "2022-01-21T05:03:48.145-00:00",
        "included_in_blocks":
          [ "BL31f5LzF8E9z2ZrMAVdqpUKJPPmJqfhrAq49Zmui2vDgNGQWSz" ] },
      { "delegate": "tz1MH387oMRFco3kzz8t3wuqdbpAyTcKZtsg",
        "reception_time": "2022-01-21T05:03:48.448-00:00",
        "included_in_blocks":
          [ "BL31f5LzF8E9z2ZrMAVdqpUKJPPmJqfhrAq49Zmui2vDgNGQWSz" ] },
      { "delegate": "tz1abmz7jiCV2GH2u81LRrGgAFFgvQgiDiaf",
        "reception_time": "2022-01-21T05:03:48.204-00:00",
        "included_in_blocks":
          [ "BL31f5LzF8E9z2ZrMAVdqpUKJPPmJqfhrAq49Zmui2vDgNGQWSz" ] },
      { "delegate": "tz1WBfwbT66FC6BTLexc2BoyCCBM9LG7pnVW",
        "reception_time": "2022-01-21T05:03:48.172-00:00",
        "included_in_blocks":
          [ "BL31f5LzF8E9z2ZrMAVdqpUKJPPmJqfhrAq49Zmui2vDgNGQWSz" ] },
      { "delegate": "tz1gfArv665EUkSg2ojMBzcbfwuPxAvqPvjo",
        "reception_time": "2022-01-21T05:03:47.997-00:00",
        "included_in_blocks":
          [ "BL31f5LzF8E9z2ZrMAVdqpUKJPPmJqfhrAq49Zmui2vDgNGQWSz" ] },
      { "delegate": "tz1MQJPGNMijnXnVoBENFz9rUhaPt3S7rWoz",
        "reception_time": "2022-01-21T05:03:48.060-00:00",
        "included_in_blocks":
          [ "BL31f5LzF8E9z2ZrMAVdqpUKJPPmJqfhrAq49Zmui2vDgNGQWSz" ] },
      { "delegate": "tz1V4qCyvPKZ5UeqdH14HN42rxvNPQfc9UZg",
        "reception_time": "2022-01-21T05:03:47.764-00:00",
        "included_in_blocks":
          [ "BL31f5LzF8E9z2ZrMAVdqpUKJPPmJqfhrAq49Zmui2vDgNGQWSz" ] },
      { "delegate": "tz3bTdwZinP8U1JmSweNzVKhmwafqWmFWRfk",
        "reception_time": "2022-01-21T05:03:47.642-00:00",
        "included_in_blocks":
          [ "BL31f5LzF8E9z2ZrMAVdqpUKJPPmJqfhrAq49Zmui2vDgNGQWSz" ] },
      { "delegate": "tz1ei4WtWEMEJekSv8qDnu9PExG6Q8HgRGr3",
        "reception_time": "2022-01-21T05:03:47.711-00:00",
        "included_in_blocks":
          [ "BL31f5LzF8E9z2ZrMAVdqpUKJPPmJqfhrAq49Zmui2vDgNGQWSz" ] },
      { "delegate": "tz1dNVDWPf3Q59SdJqnjdnu277iyvReiRS9M",
        "reception_time": "2022-01-21T05:03:47.949-00:00",
        "included_in_blocks":
          [ "BL31f5LzF8E9z2ZrMAVdqpUKJPPmJqfhrAq49Zmui2vDgNGQWSz" ] },
      { "delegate": "tz3S6BBeKgJGXxvLyZ1xzXzMPn11nnFtq5L9",
        "reception_time": "2022-01-21T05:03:47.242-00:00",
        "included_in_blocks":
          [ "BL31f5LzF8E9z2ZrMAVdqpUKJPPmJqfhrAq49Zmui2vDgNGQWSz" ] },
      { "delegate": "tz3e7LbZvUtoXhpUD1yb6wuFodZpfYRb9nWJ",
        "reception_time": "2022-01-21T05:03:47.211-00:00",
        "included_in_blocks":
          [ "BL31f5LzF8E9z2ZrMAVdqpUKJPPmJqfhrAq49Zmui2vDgNGQWSz" ] },
      { "delegate": "tz1S8MNvuFEUsWgjHvi3AxibRBf388NhT1q2",
        "reception_time": "2022-01-21T05:03:48.016-00:00",
        "included_in_blocks":
          [ "BL31f5LzF8E9z2ZrMAVdqpUKJPPmJqfhrAq49Zmui2vDgNGQWSz" ] },
      { "delegate": "tz3gtoUxdudfBRcNY7iVdKPHCYYX6xdPpoRS",
        "reception_time": "2022-01-21T05:03:47.136-00:00",
        "included_in_blocks":
          [ "BL31f5LzF8E9z2ZrMAVdqpUKJPPmJqfhrAq49Zmui2vDgNGQWSz" ] },
      { "delegate": "tz3iJu5vrKZcsqRPs8yJ61UDoeEXZmtro4qh",
        "reception_time": "2022-01-21T05:03:47.090-00:00",
        "included_in_blocks":
          [ "BL31f5LzF8E9z2ZrMAVdqpUKJPPmJqfhrAq49Zmui2vDgNGQWSz" ] },
      { "delegate": "tz3Zhs2dygr55yHyQyKjntAtY9bgfhLZ4Xj1",
        "reception_time": "2022-01-21T05:03:47.050-00:00",
        "included_in_blocks":
          [ "BL31f5LzF8E9z2ZrMAVdqpUKJPPmJqfhrAq49Zmui2vDgNGQWSz" ] },
      { "delegate": "tz1cSj7fTex3JPd1p1LN1fwek6AV1kH93Wwc",
        "reception_time": "2022-01-21T05:03:47.201-00:00",
        "included_in_blocks":
          [ "BL31f5LzF8E9z2ZrMAVdqpUKJPPmJqfhrAq49Zmui2vDgNGQWSz" ] },
      { "delegate": "tz3QSGPoRp3Kn7n3vY24eYeu3Peuqo45LQ4D",
        "reception_time": "2022-01-21T05:03:47.197-00:00",
        "included_in_blocks":
          [ "BL31f5LzF8E9z2ZrMAVdqpUKJPPmJqfhrAq49Zmui2vDgNGQWSz" ] },
      { "delegate": "tz1WCd2jm4uSt4vntk4vSuUWoZQGhLcDuR9q",
        "reception_time": "2022-01-21T05:03:47.043-00:00",
        "included_in_blocks":
          [ "BL31f5LzF8E9z2ZrMAVdqpUKJPPmJqfhrAq49Zmui2vDgNGQWSz" ] },
      { "delegate": "tz3adcvQaKXTCg12zbninqo3q8ptKKtDFTLv",
        "reception_time": "2022-01-21T05:03:47.034-00:00",
        "included_in_blocks":
          [ "BL31f5LzF8E9z2ZrMAVdqpUKJPPmJqfhrAq49Zmui2vDgNGQWSz" ] },
      { "delegate": "tz3RKYFsLuQzKBtmYuLNas7uMu3AsYd4QdsA",
        "reception_time": "2022-01-21T05:03:47.028-00:00",
        "included_in_blocks":
          [ "BL31f5LzF8E9z2ZrMAVdqpUKJPPmJqfhrAq49Zmui2vDgNGQWSz" ] },
      { "delegate": "tz3hw2kqXhLUvY65ca1eety2oQTpAvd34R9Q",
        "reception_time": "2022-01-21T05:03:47.043-00:00",
        "included_in_blocks":
          [ "BL31f5LzF8E9z2ZrMAVdqpUKJPPmJqfhrAq49Zmui2vDgNGQWSz" ] },
      { "delegate": "tz1Ldzz6k1BHdhuKvAtMRX7h5kJSMHESMHLC",
        "reception_time": "2022-01-21T05:03:47.021-00:00",
        "included_in_blocks":
          [ "BL31f5LzF8E9z2ZrMAVdqpUKJPPmJqfhrAq49Zmui2vDgNGQWSz" ] },
      { "delegate": "tz1RCFbB9GpALpsZtu6J58sb74dm8qe6XBzv",
        "reception_time": "2022-01-21T05:03:47.759-00:00",
        "included_in_blocks":
          [ "BL31f5LzF8E9z2ZrMAVdqpUKJPPmJqfhrAq49Zmui2vDgNGQWSz" ] },
      { "delegate": "tz1beersuEDv8Z7ngQ825xfbaJNS2EhXnyHR",
        "reception_time": "2022-01-21T05:03:47.011-00:00",
        "included_in_blocks":
          [ "BL31f5LzF8E9z2ZrMAVdqpUKJPPmJqfhrAq49Zmui2vDgNGQWSz" ] },
      { "delegate": "tz1ZPh7XfUaJXUDvkrBxmS1BjEM1i62hiPpM",
        "reception_time": "2022-01-21T05:03:47.021-00:00",
        "included_in_blocks":
          [ "BL31f5LzF8E9z2ZrMAVdqpUKJPPmJqfhrAq49Zmui2vDgNGQWSz" ] },
      { "delegate": "tz1eEnQhbwf6trb8Q8mPb2RaPkNk2rN7BKi8",
        "reception_time": "2022-01-21T05:03:47.004-00:00",
        "included_in_blocks":
          [ "BL31f5LzF8E9z2ZrMAVdqpUKJPPmJqfhrAq49Zmui2vDgNGQWSz" ] },
      { "delegate": "tz1TXzyaKUA8wsWefdSnyaYFnV2M3vCV7er9",
        "reception_time": "2022-01-21T05:03:46.988-00:00",
        "included_in_blocks":
          [ "BL31f5LzF8E9z2ZrMAVdqpUKJPPmJqfhrAq49Zmui2vDgNGQWSz" ] },
      { "delegate": "tz1Kf25fX1VdmYGSEzwFy1wNmkbSEZ2V83sY",
        "reception_time": "2022-01-21T05:03:47.001-00:00",
        "included_in_blocks":
          [ "BL31f5LzF8E9z2ZrMAVdqpUKJPPmJqfhrAq49Zmui2vDgNGQWSz" ] },
      { "delegate": "tz3NxTnke1acr8o3h5y9ytf5awQBGNJUKzVU",
        "reception_time": "2022-01-21T05:03:47.015-00:00",
        "included_in_blocks":
          [ "BL31f5LzF8E9z2ZrMAVdqpUKJPPmJqfhrAq49Zmui2vDgNGQWSz" ] },
      { "delegate": "tz3ZbP2pM3nwvXztbuMJwJnDvV5xdpU8UkkD",
        "reception_time": "2022-01-21T05:03:47.056-00:00",
        "included_in_blocks":
          [ "BL31f5LzF8E9z2ZrMAVdqpUKJPPmJqfhrAq49Zmui2vDgNGQWSz" ] },
      { "delegate": "tz1VQnqCCqX4K5sP3FNkVSNKTdCAMJDd3E1n",
        "reception_time": "2022-01-21T05:03:47.002-00:00",
        "included_in_blocks":
          [ "BL31f5LzF8E9z2ZrMAVdqpUKJPPmJqfhrAq49Zmui2vDgNGQWSz" ] },
      { "delegate": "tz1STeamwbp68THcny9zk3LsbG3H36DMvbRK",
        "reception_time": "2022-01-21T05:03:47.001-00:00",
        "included_in_blocks":
          [ "BL31f5LzF8E9z2ZrMAVdqpUKJPPmJqfhrAq49Zmui2vDgNGQWSz" ] },
      { "delegate": "tz1QCgEy1GJntn7nrchb4FXLegr3Ue3ptasZ",
        "reception_time": "2022-01-21T05:03:46.997-00:00",
        "included_in_blocks":
          [ "BL31f5LzF8E9z2ZrMAVdqpUKJPPmJqfhrAq49Zmui2vDgNGQWSz" ] },
      { "delegate": "tz1gUNyn3hmnEWqkusWPzxRaon1cs7ndWh7h",
        "reception_time": "2022-01-21T05:03:47.017-00:00",
        "included_in_blocks":
          [ "BL31f5LzF8E9z2ZrMAVdqpUKJPPmJqfhrAq49Zmui2vDgNGQWSz" ] },
      { "delegate": "tz1aDiEJf9ztRrAJEXZfcG3CKimoKsGhwVAi",
        "reception_time": "2022-01-21T05:03:46.995-00:00",
        "included_in_blocks":
          [ "BL31f5LzF8E9z2ZrMAVdqpUKJPPmJqfhrAq49Zmui2vDgNGQWSz" ] },
      { "delegate": "tz1aXD7Jigrt3PBYSpHSg5Rr33SexMmmM5Ys",
        "reception_time": "2022-01-21T05:03:47.011-00:00",
        "included_in_blocks":
          [ "BL31f5LzF8E9z2ZrMAVdqpUKJPPmJqfhrAq49Zmui2vDgNGQWSz" ] } ] }