{ "blocks":
    [ { "hash": "BLhHTntJEFD5EH2EheTUnAwwPGNbBdsdRdVnqkh3KMnhr4z8Y2H",
        "delegate": "tz3VEZ4k6a4Wx42iyev6i2aVAptTRLEAivNN",
        "reception_time": "2022-01-21T04:38:16.971-00:00",
        "timestamp": "2022-01-21T04:38:10Z" } ],
  "endorsements":
    [ { "delegate": "tz1MJx9vhaNRSimcuXPK2rW4fLccQnDAnVKJ" },
      { "delegate": "tz1TRqbYbUf2GyrjErf3hBzgBJPzW8y36qEs" },
      { "delegate": "tz1WnyXakHZKotpQHxevTnLmomz5rTwdiccy" },
      { "delegate": "tz1awXW7wuXy21c66vBudMXQVAPgRnqqwgTH" },
      { "delegate": "tz1ibcPVGK4Y8pcW4BYUsojiHoBKnZbyDGrX" },
      { "delegate": "tz1S8e9GgdZG78XJRB3NqabfWeM37GnhZMWQ",
        "reception_time": "2022-01-21T04:38:17.545-00:00",
        "included_in_blocks":
          [ "BLx2Y5q835byLTwuAcmhAiQewPkyU4Mg78gomMHLnrqzeuvyW3C" ] },
      { "delegate": "tz1Scdr2HsZiQjc7bHMeBbmDRXYVvdhjJbBh",
        "reception_time": "2022-01-21T04:38:17.775-00:00",
        "included_in_blocks":
          [ "BLx2Y5q835byLTwuAcmhAiQewPkyU4Mg78gomMHLnrqzeuvyW3C" ] },
      { "delegate": "tz1beersuEDv8Z7ngQ825xfbaJNS2EhXnyHR",
        "reception_time": "2022-01-21T04:38:17.790-00:00",
        "included_in_blocks":
          [ "BLx2Y5q835byLTwuAcmhAiQewPkyU4Mg78gomMHLnrqzeuvyW3C" ] },
      { "delegate": "tz1eEnQhbwf6trb8Q8mPb2RaPkNk2rN7BKi8",
        "reception_time": "2022-01-21T04:38:17.793-00:00",
        "included_in_blocks":
          [ "BLx2Y5q835byLTwuAcmhAiQewPkyU4Mg78gomMHLnrqzeuvyW3C" ] },
      { "delegate": "tz1P2Po7YM526ughEsRbY4oR9zaUPDZjxFrb",
        "reception_time": "2022-01-21T04:38:17.810-00:00",
        "included_in_blocks":
          [ "BLx2Y5q835byLTwuAcmhAiQewPkyU4Mg78gomMHLnrqzeuvyW3C" ] },
      { "delegate": "tz1irJKkXS2DBWkU1NnmFQx1c1L7pbGg4yhk",
        "reception_time": "2022-01-21T04:38:17.811-00:00",
        "included_in_blocks":
          [ "BLx2Y5q835byLTwuAcmhAiQewPkyU4Mg78gomMHLnrqzeuvyW3C" ] },
      { "delegate": "tz3VEZ4k6a4Wx42iyev6i2aVAptTRLEAivNN",
        "reception_time": "2022-01-21T04:38:17.829-00:00",
        "included_in_blocks":
          [ "BLx2Y5q835byLTwuAcmhAiQewPkyU4Mg78gomMHLnrqzeuvyW3C" ] },
      { "delegate": "tz1cX93Q3KsiTADpCC4f12TBvAmS5tw7CW19",
        "reception_time": "2022-01-21T04:38:17.857-00:00",
        "included_in_blocks":
          [ "BLx2Y5q835byLTwuAcmhAiQewPkyU4Mg78gomMHLnrqzeuvyW3C" ] },
      { "delegate": "tz3iJu5vrKZcsqRPs8yJ61UDoeEXZmtro4qh",
        "reception_time": "2022-01-21T04:38:17.925-00:00",
        "included_in_blocks":
          [ "BLx2Y5q835byLTwuAcmhAiQewPkyU4Mg78gomMHLnrqzeuvyW3C" ] },
      { "delegate": "tz1Kt4P8BCaP93AEV4eA7gmpRryWt5hznjCP",
        "reception_time": "2022-01-21T04:38:17.939-00:00",
        "included_in_blocks":
          [ "BLx2Y5q835byLTwuAcmhAiQewPkyU4Mg78gomMHLnrqzeuvyW3C" ] },
      { "delegate": "tz3NxTnke1acr8o3h5y9ytf5awQBGNJUKzVU",
        "reception_time": "2022-01-21T04:38:17.946-00:00",
        "included_in_blocks":
          [ "BLx2Y5q835byLTwuAcmhAiQewPkyU4Mg78gomMHLnrqzeuvyW3C" ] },
      { "delegate": "tz3hw2kqXhLUvY65ca1eety2oQTpAvd34R9Q",
        "reception_time": "2022-01-21T04:38:17.956-00:00",
        "included_in_blocks":
          [ "BLx2Y5q835byLTwuAcmhAiQewPkyU4Mg78gomMHLnrqzeuvyW3C" ] },
      { "delegate": "tz3RKYFsLuQzKBtmYuLNas7uMu3AsYd4QdsA",
        "reception_time": "2022-01-21T04:38:17.974-00:00",
        "included_in_blocks":
          [ "BLx2Y5q835byLTwuAcmhAiQewPkyU4Mg78gomMHLnrqzeuvyW3C" ] },
      { "delegate": "tz3Zhs2dygr55yHyQyKjntAtY9bgfhLZ4Xj1",
        "reception_time": "2022-01-21T04:38:17.980-00:00",
        "included_in_blocks":
          [ "BLx2Y5q835byLTwuAcmhAiQewPkyU4Mg78gomMHLnrqzeuvyW3C" ] },
      { "delegate": "tz1TRspM5SeZpaQUhzByXbEvqKF1vnCM2YTK",
        "reception_time": "2022-01-21T04:38:18.012-00:00",
        "included_in_blocks":
          [ "BLx2Y5q835byLTwuAcmhAiQewPkyU4Mg78gomMHLnrqzeuvyW3C" ] },
      { "delegate": "tz3ZbP2pM3nwvXztbuMJwJnDvV5xdpU8UkkD",
        "reception_time": "2022-01-21T04:38:18.028-00:00",
        "included_in_blocks":
          [ "BLx2Y5q835byLTwuAcmhAiQewPkyU4Mg78gomMHLnrqzeuvyW3C" ] },
      { "delegate": "tz1Ldzz6k1BHdhuKvAtMRX7h5kJSMHESMHLC",
        "reception_time": "2022-01-21T04:38:18.038-00:00",
        "included_in_blocks":
          [ "BLx2Y5q835byLTwuAcmhAiQewPkyU4Mg78gomMHLnrqzeuvyW3C" ] },
      { "delegate": "tz1MQJPGNMijnXnVoBENFz9rUhaPt3S7rWoz",
        "reception_time": "2022-01-21T04:38:18.046-00:00",
        "included_in_blocks":
          [ "BLx2Y5q835byLTwuAcmhAiQewPkyU4Mg78gomMHLnrqzeuvyW3C" ] },
      { "delegate": "tz3QSGPoRp3Kn7n3vY24eYeu3Peuqo45LQ4D",
        "reception_time": "2022-01-21T04:38:18.110-00:00",
        "included_in_blocks":
          [ "BLx2Y5q835byLTwuAcmhAiQewPkyU4Mg78gomMHLnrqzeuvyW3C" ] },
      { "delegate": "tz1h4GUAMweP7SNWzDgvMk3yRCAZyaP1MxZq",
        "reception_time": "2022-01-21T04:38:18.146-00:00",
        "included_in_blocks":
          [ "BLx2Y5q835byLTwuAcmhAiQewPkyU4Mg78gomMHLnrqzeuvyW3C" ] },
      { "delegate": "tz1WCd2jm4uSt4vntk4vSuUWoZQGhLcDuR9q",
        "reception_time": "2022-01-21T04:38:18.188-00:00",
        "included_in_blocks":
          [ "BLx2Y5q835byLTwuAcmhAiQewPkyU4Mg78gomMHLnrqzeuvyW3C" ] },
      { "delegate": "tz3QT9dHYKDqh563chVa6za8526ys1UKfRfL",
        "reception_time": "2022-01-21T04:38:18.237-00:00",
        "included_in_blocks":
          [ "BLx2Y5q835byLTwuAcmhAiQewPkyU4Mg78gomMHLnrqzeuvyW3C" ] },
      { "delegate": "tz3gtoUxdudfBRcNY7iVdKPHCYYX6xdPpoRS",
        "reception_time": "2022-01-21T04:38:18.248-00:00",
        "included_in_blocks":
          [ "BLx2Y5q835byLTwuAcmhAiQewPkyU4Mg78gomMHLnrqzeuvyW3C" ] },
      { "delegate": "tz1gUNyn3hmnEWqkusWPzxRaon1cs7ndWh7h",
        "reception_time": "2022-01-21T04:38:18.290-00:00",
        "included_in_blocks":
          [ "BLx2Y5q835byLTwuAcmhAiQewPkyU4Mg78gomMHLnrqzeuvyW3C" ] },
      { "delegate": "tz1L6UDJ4EEvhpY84YjJpBg51bKMG1Usyrgz",
        "reception_time": "2022-01-21T04:38:18.319-00:00",
        "included_in_blocks":
          [ "BLx2Y5q835byLTwuAcmhAiQewPkyU4Mg78gomMHLnrqzeuvyW3C" ] },
      { "delegate": "tz1S8MNvuFEUsWgjHvi3AxibRBf388NhT1q2",
        "reception_time": "2022-01-21T04:38:18.323-00:00",
        "included_in_blocks":
          [ "BLx2Y5q835byLTwuAcmhAiQewPkyU4Mg78gomMHLnrqzeuvyW3C" ] },
      { "delegate": "tz1VQnqCCqX4K5sP3FNkVSNKTdCAMJDd3E1n",
        "reception_time": "2022-01-21T04:38:18.330-00:00",
        "included_in_blocks":
          [ "BLx2Y5q835byLTwuAcmhAiQewPkyU4Mg78gomMHLnrqzeuvyW3C" ] },
      { "delegate": "tz1iPHM2Xx2hwmzcr1EG1zzrV6oKafVoA91m",
        "reception_time": "2022-01-21T04:38:18.376-00:00",
        "included_in_blocks":
          [ "BLx2Y5q835byLTwuAcmhAiQewPkyU4Mg78gomMHLnrqzeuvyW3C" ] },
      { "delegate": "tz1VmiY38m3y95HqQLjMwqnMS7sdMfGomzKi",
        "reception_time": "2022-01-21T04:38:18.449-00:00",
        "included_in_blocks":
          [ "BLx2Y5q835byLTwuAcmhAiQewPkyU4Mg78gomMHLnrqzeuvyW3C" ] },
      { "delegate": "tz1RCFbB9GpALpsZtu6J58sb74dm8qe6XBzv",
        "reception_time": "2022-01-21T04:38:18.461-00:00",
        "included_in_blocks":
          [ "BLx2Y5q835byLTwuAcmhAiQewPkyU4Mg78gomMHLnrqzeuvyW3C" ] },
      { "delegate": "tz1NEKxGEHsFufk87CVZcrqWu8o22qh46GK6",
        "reception_time": "2022-01-21T04:38:18.466-00:00",
        "included_in_blocks":
          [ "BLx2Y5q835byLTwuAcmhAiQewPkyU4Mg78gomMHLnrqzeuvyW3C" ] },
      { "delegate": "tz1d6Fx42mYgVFnHUW8T8A7WBfJ6nD9pVok8",
        "reception_time": "2022-01-21T04:38:18.541-00:00",
        "included_in_blocks":
          [ "BLx2Y5q835byLTwuAcmhAiQewPkyU4Mg78gomMHLnrqzeuvyW3C" ] },
      { "delegate": "tz3bvNMQ95vfAYtG8193ymshqjSvmxiCUuR5",
        "reception_time": "2022-01-21T04:38:18.612-00:00",
        "included_in_blocks":
          [ "BLx2Y5q835byLTwuAcmhAiQewPkyU4Mg78gomMHLnrqzeuvyW3C" ] },
      { "delegate": "tz3adcvQaKXTCg12zbninqo3q8ptKKtDFTLv",
        "reception_time": "2022-01-21T04:38:18.630-00:00",
        "included_in_blocks":
          [ "BLx2Y5q835byLTwuAcmhAiQewPkyU4Mg78gomMHLnrqzeuvyW3C" ] },
      { "delegate": "tz2FCNBrERXtaTtNX6iimR1UJ5JSDxvdHM93",
        "reception_time": "2022-01-21T04:38:18.636-00:00",
        "included_in_blocks":
          [ "BLx2Y5q835byLTwuAcmhAiQewPkyU4Mg78gomMHLnrqzeuvyW3C" ] },
      { "delegate": "tz1PWCDnz783NNGGQjEFFsHtrcK5yBW4E2rm",
        "reception_time": "2022-01-21T04:38:18.760-00:00",
        "included_in_blocks":
          [ "BLx2Y5q835byLTwuAcmhAiQewPkyU4Mg78gomMHLnrqzeuvyW3C" ] },
      { "delegate": "tz1V4qCyvPKZ5UeqdH14HN42rxvNPQfc9UZg",
        "reception_time": "2022-01-21T04:38:18.783-00:00",
        "included_in_blocks":
          [ "BLx2Y5q835byLTwuAcmhAiQewPkyU4Mg78gomMHLnrqzeuvyW3C" ] },
      { "delegate": "tz3WMqdzXqRWXwyvj5Hp2H7QEepaUuS7vd9K",
        "reception_time": "2022-01-21T04:38:18.818-00:00",
        "included_in_blocks":
          [ "BLx2Y5q835byLTwuAcmhAiQewPkyU4Mg78gomMHLnrqzeuvyW3C" ] },
      { "delegate": "tz1gfArv665EUkSg2ojMBzcbfwuPxAvqPvjo",
        "reception_time": "2022-01-21T04:38:18.841-00:00",
        "included_in_blocks":
          [ "BLx2Y5q835byLTwuAcmhAiQewPkyU4Mg78gomMHLnrqzeuvyW3C" ] },
      { "delegate": "tz1fb7c66UwePkkfDXz4ajFaBP9hVNLdS7JJ",
        "reception_time": "2022-01-21T04:38:18.906-00:00",
        "included_in_blocks":
          [ "BLx2Y5q835byLTwuAcmhAiQewPkyU4Mg78gomMHLnrqzeuvyW3C" ] },
      { "delegate": "tz1PeZx7FXy7QRuMREGXGxeipb24RsMMzUNe",
        "reception_time": "2022-01-21T04:38:18.922-00:00",
        "included_in_blocks":
          [ "BLx2Y5q835byLTwuAcmhAiQewPkyU4Mg78gomMHLnrqzeuvyW3C" ] },
      { "delegate": "tz1ei4WtWEMEJekSv8qDnu9PExG6Q8HgRGr3",
        "reception_time": "2022-01-21T04:38:18.926-00:00",
        "included_in_blocks":
          [ "BLx2Y5q835byLTwuAcmhAiQewPkyU4Mg78gomMHLnrqzeuvyW3C" ] },
      { "delegate": "tz1R4PuhxUxBBZhfLJDx2nNjbr7WorAPX1oC",
        "reception_time": "2022-01-21T04:38:18.980-00:00",
        "included_in_blocks":
          [ "BLx2Y5q835byLTwuAcmhAiQewPkyU4Mg78gomMHLnrqzeuvyW3C" ] },
      { "delegate": "tz1abmz7jiCV2GH2u81LRrGgAFFgvQgiDiaf",
        "reception_time": "2022-01-21T04:38:19.066-00:00",
        "included_in_blocks":
          [ "BLx2Y5q835byLTwuAcmhAiQewPkyU4Mg78gomMHLnrqzeuvyW3C" ] },
      { "delegate": "tz1WBfwbT66FC6BTLexc2BoyCCBM9LG7pnVW",
        "reception_time": "2022-01-21T04:38:19.069-00:00",
        "included_in_blocks":
          [ "BLx2Y5q835byLTwuAcmhAiQewPkyU4Mg78gomMHLnrqzeuvyW3C" ] },
      { "delegate": "tz1KfEsrtDaA1sX7vdM4qmEPWuSytuqCDp5j",
        "reception_time": "2022-01-21T04:38:19.091-00:00",
        "included_in_blocks":
          [ "BLx2Y5q835byLTwuAcmhAiQewPkyU4Mg78gomMHLnrqzeuvyW3C" ] },
      { "delegate": "tz1fwnfJNgiDACshK9avfRfFbMaXrs3ghoJa",
        "reception_time": "2022-01-21T04:38:19.222-00:00",
        "included_in_blocks":
          [ "BLx2Y5q835byLTwuAcmhAiQewPkyU4Mg78gomMHLnrqzeuvyW3C" ] },
      { "delegate": "tz1SYq214SCBy9naR6cvycQsYcUGpBqQAE8d",
        "reception_time": "2022-01-21T04:38:19.248-00:00",
        "included_in_blocks":
          [ "BLx2Y5q835byLTwuAcmhAiQewPkyU4Mg78gomMHLnrqzeuvyW3C" ] },
      { "delegate": "tz1cYufsxHXJcvANhvS55h3aY32a9BAFB494",
        "reception_time": "2022-01-21T04:38:19.283-00:00",
        "included_in_blocks":
          [ "BLx2Y5q835byLTwuAcmhAiQewPkyU4Mg78gomMHLnrqzeuvyW3C" ] },
      { "delegate": "tz1Nf6tsK4G6bBqgSQERy4nUtkHNKUVdh7q1",
        "reception_time": "2022-01-21T04:38:19.309-00:00",
        "included_in_blocks":
          [ "BLx2Y5q835byLTwuAcmhAiQewPkyU4Mg78gomMHLnrqzeuvyW3C" ] },
      { "delegate": "tz1Tnjaxk6tbAeC2TmMApPh8UsrEVQvhHvx5",
        "reception_time": "2022-01-21T04:38:19.316-00:00",
        "included_in_blocks":
          [ "BLx2Y5q835byLTwuAcmhAiQewPkyU4Mg78gomMHLnrqzeuvyW3C" ] },
      { "delegate": "tz3bTdwZinP8U1JmSweNzVKhmwafqWmFWRfk",
        "reception_time": "2022-01-21T04:38:19.353-00:00",
        "included_in_blocks":
          [ "BLx2Y5q835byLTwuAcmhAiQewPkyU4Mg78gomMHLnrqzeuvyW3C" ] },
      { "delegate": "tz3RDC3Jdn4j15J7bBHZd29EUee9gVB1CxD9",
        "reception_time": "2022-01-21T04:38:19.471-00:00",
        "included_in_blocks":
          [ "BLx2Y5q835byLTwuAcmhAiQewPkyU4Mg78gomMHLnrqzeuvyW3C" ] },
      { "delegate": "tz1TEc75UKXv4W5cwi14Na3NtqFD51yKQi7h",
        "reception_time": "2022-01-21T04:38:19.493-00:00",
        "included_in_blocks":
          [ "BLx2Y5q835byLTwuAcmhAiQewPkyU4Mg78gomMHLnrqzeuvyW3C" ] },
      { "delegate": "tz3gLTu4Yxj8tPAcriQVUdxv6BY9QyvzU1az",
        "reception_time": "2022-01-21T04:38:19.584-00:00",
        "included_in_blocks":
          [ "BLx2Y5q835byLTwuAcmhAiQewPkyU4Mg78gomMHLnrqzeuvyW3C" ] },
      { "delegate": "tz3RB4aoyjov4KEVRbuhvQ1CKJgBJMWhaeB8",
        "reception_time": "2022-01-21T04:38:19.584-00:00",
        "included_in_blocks":
          [ "BLx2Y5q835byLTwuAcmhAiQewPkyU4Mg78gomMHLnrqzeuvyW3C" ] },
      { "delegate": "tz3NExpXn9aPNZPorRE4SdjJ2RGrfbJgMAaV",
        "reception_time": "2022-01-21T04:38:19.619-00:00",
        "included_in_blocks":
          [ "BLx2Y5q835byLTwuAcmhAiQewPkyU4Mg78gomMHLnrqzeuvyW3C" ] },
      { "delegate": "tz3NDpRj6WBrJPikcPVHRBEjWKxFw3c6eQPS",
        "reception_time": "2022-01-21T04:38:19.672-00:00",
        "included_in_blocks":
          [ "BLx2Y5q835byLTwuAcmhAiQewPkyU4Mg78gomMHLnrqzeuvyW3C" ] },
      { "delegate": "tz3UoffC7FG7zfpmvmjUmUeAaHvzdcUvAj6r",
        "reception_time": "2022-01-21T04:38:19.690-00:00",
        "included_in_blocks":
          [ "BLx2Y5q835byLTwuAcmhAiQewPkyU4Mg78gomMHLnrqzeuvyW3C" ] },
      { "delegate": "tz1UVFkBnZzy2WGzs7415DNwsbvuyvz4ZznB",
        "reception_time": "2022-01-21T04:38:19.938-00:00",
        "included_in_blocks":
          [ "BLx2Y5q835byLTwuAcmhAiQewPkyU4Mg78gomMHLnrqzeuvyW3C" ] },
      { "delegate": "tz1aRoaRhSpRYvFdyvgWLL6TGyRoGF51wDjM",
        "reception_time": "2022-01-21T04:38:19.968-00:00",
        "included_in_blocks":
          [ "BLx2Y5q835byLTwuAcmhAiQewPkyU4Mg78gomMHLnrqzeuvyW3C" ] },
      { "delegate": "tz1T7duV5gZWSTq4YpBGbXNLTfznCLDrFxvs",
        "reception_time": "2022-01-21T04:38:20.351-00:00",
        "included_in_blocks":
          [ "BLx2Y5q835byLTwuAcmhAiQewPkyU4Mg78gomMHLnrqzeuvyW3C" ] },
      { "delegate": "tz1Xsrfv6hn86fp88YfRs6xcKwt2nTqxVZYM",
        "reception_time": "2022-01-21T04:38:20.750-00:00",
        "included_in_blocks":
          [ "BLx2Y5q835byLTwuAcmhAiQewPkyU4Mg78gomMHLnrqzeuvyW3C" ] },
      { "delegate": "tz1ZcTRk5uxD86EFEn1vvNffWWqJy7q5eVhc",
        "reception_time": "2022-01-21T04:38:21.183-00:00",
        "included_in_blocks":
          [ "BLx2Y5q835byLTwuAcmhAiQewPkyU4Mg78gomMHLnrqzeuvyW3C" ] },
      { "delegate": "tz1PFeoTuFen8jAMRHajBySNyCwLmY5RqF9M",
        "reception_time": "2022-01-21T04:38:21.791-00:00",
        "included_in_blocks":
          [ "BLx2Y5q835byLTwuAcmhAiQewPkyU4Mg78gomMHLnrqzeuvyW3C" ] },
      { "delegate": "tz1KwafrdmM8RwxUMxdbbtWyZuKLWSPVxe9u",
        "reception_time": "2022-01-21T04:38:22.313-00:00",
        "included_in_blocks":
          [ "BLx2Y5q835byLTwuAcmhAiQewPkyU4Mg78gomMHLnrqzeuvyW3C" ] },
      { "delegate": "tz1W5VkdB5s7ENMESVBtwyt9kyvLqPcUczRT",
        "reception_time": "2022-01-21T04:38:27.476-00:00",
        "included_in_blocks":
          [ "BLx2Y5q835byLTwuAcmhAiQewPkyU4Mg78gomMHLnrqzeuvyW3C" ] },
      { "delegate": "tz2BzJTyoQp8fNbfhWD4YQgH9JJHDgSGzpdG",
        "reception_time": "2022-01-21T04:38:29.893-00:00",
        "included_in_blocks":
          [ "BLx2Y5q835byLTwuAcmhAiQewPkyU4Mg78gomMHLnrqzeuvyW3C" ] } ] }