{ "blocks":
    [ { "hash": "BLUxFd1HbphHFHSSYJzJD1QL86MW1h9w4vJA6En6vktzJ569LZq",
        "delegate": "tz1RQhNh7iB9CZA7i3ifTWNwiGYVffponfbB",
        "reception_time": "2022-01-21T02:59:41.027-00:00",
        "timestamp": "2022-01-21T02:59:30Z" } ],
  "endorsements":
    [ { "delegate": "tz1MJx9vhaNRSimcuXPK2rW4fLccQnDAnVKJ" },
      { "delegate": "tz1VmiY38m3y95HqQLjMwqnMS7sdMfGomzKi",
        "reception_time": "2022-01-21T02:59:40.976-00:00",
        "errors":
          [ { "kind": "temporary",
              "id": "proto.011-PtHangz2.prefilter.outdated_endorsement" } ],
        "included_in_blocks":
          [ "BMNeAKjbv2VL8UPBzjEW3cs424vC2wG7BSbAktw7QzLhyxgKzbY" ] },
      { "delegate": "tz1TXzyaKUA8wsWefdSnyaYFnV2M3vCV7er9",
        "reception_time": "2022-01-21T02:59:40.882-00:00",
        "errors":
          [ { "kind": "temporary",
              "id": "proto.011-PtHangz2.prefilter.outdated_endorsement" } ],
        "included_in_blocks":
          [ "BMNeAKjbv2VL8UPBzjEW3cs424vC2wG7BSbAktw7QzLhyxgKzbY" ] },
      { "delegate": "tz1eEnQhbwf6trb8Q8mPb2RaPkNk2rN7BKi8",
        "reception_time": "2022-01-21T02:59:40.828-00:00",
        "errors":
          [ { "kind": "temporary",
              "id": "proto.011-PtHangz2.prefilter.outdated_endorsement" } ],
        "included_in_blocks":
          [ "BMNeAKjbv2VL8UPBzjEW3cs424vC2wG7BSbAktw7QzLhyxgKzbY" ] },
      { "delegate": "tz1Lhf4J9Qxoe3DZ2nfe8FGDnvVj7oKjnMY6",
        "reception_time": "2022-01-21T02:59:40.812-00:00",
        "errors":
          [ { "kind": "temporary",
              "id": "proto.011-PtHangz2.prefilter.outdated_endorsement" } ],
        "included_in_blocks":
          [ "BMNeAKjbv2VL8UPBzjEW3cs424vC2wG7BSbAktw7QzLhyxgKzbY" ] },
      { "delegate": "tz1P2Po7YM526ughEsRbY4oR9zaUPDZjxFrb",
        "reception_time": "2022-01-21T02:59:40.656-00:00",
        "errors":
          [ { "kind": "temporary",
              "id": "proto.011-PtHangz2.prefilter.outdated_endorsement" } ],
        "included_in_blocks":
          [ "BMNeAKjbv2VL8UPBzjEW3cs424vC2wG7BSbAktw7QzLhyxgKzbY" ] },
      { "delegate": "tz1Ldzz6k1BHdhuKvAtMRX7h5kJSMHESMHLC",
        "reception_time": "2022-01-21T02:59:40.536-00:00",
        "errors":
          [ { "kind": "temporary",
              "id": "proto.011-PtHangz2.prefilter.outdated_endorsement" } ],
        "included_in_blocks":
          [ "BMNeAKjbv2VL8UPBzjEW3cs424vC2wG7BSbAktw7QzLhyxgKzbY" ] },
      { "delegate": "tz1MXFrtZoaXckE41bjUCSjAjAap3AFDSr3N",
        "reception_time": "2022-01-21T02:59:40.462-00:00",
        "errors":
          [ { "kind": "temporary",
              "id": "proto.011-PtHangz2.prefilter.outdated_endorsement" } ],
        "included_in_blocks":
          [ "BMNeAKjbv2VL8UPBzjEW3cs424vC2wG7BSbAktw7QzLhyxgKzbY" ] },
      { "delegate": "tz1S8e9GgdZG78XJRB3NqabfWeM37GnhZMWQ",
        "reception_time": "2022-01-21T02:59:39.433-00:00",
        "errors":
          [ { "kind": "temporary",
              "id": "proto.011-PtHangz2.prefilter.outdated_endorsement" } ],
        "included_in_blocks":
          [ "BMNeAKjbv2VL8UPBzjEW3cs424vC2wG7BSbAktw7QzLhyxgKzbY" ] },
      { "delegate": "tz1W5VkdB5s7ENMESVBtwyt9kyvLqPcUczRT",
        "reception_time": "2022-01-21T02:59:49.126-00:00",
        "included_in_blocks":
          [ "BMNeAKjbv2VL8UPBzjEW3cs424vC2wG7BSbAktw7QzLhyxgKzbY" ] },
      { "delegate": "tz1Z9M4biBHSiH38k5ciRMjR5bgk89yEgLTz",
        "reception_time": "2022-01-21T02:59:47.340-00:00",
        "included_in_blocks":
          [ "BMNeAKjbv2VL8UPBzjEW3cs424vC2wG7BSbAktw7QzLhyxgKzbY" ] },
      { "delegate": "tz1LVqmufjrmV67vNmZWXRDPMwSCh7mLBnS3",
        "reception_time": "2022-01-21T02:59:45.797-00:00",
        "included_in_blocks":
          [ "BMNeAKjbv2VL8UPBzjEW3cs424vC2wG7BSbAktw7QzLhyxgKzbY" ] },
      { "delegate": "tz1acZQd7TdfoiUnD2czHnTHB2TaJQP6gdqo",
        "reception_time": "2022-01-21T02:59:45.040-00:00",
        "included_in_blocks":
          [ "BMNeAKjbv2VL8UPBzjEW3cs424vC2wG7BSbAktw7QzLhyxgKzbY" ] },
      { "delegate": "tz3RDC3Jdn4j15J7bBHZd29EUee9gVB1CxD9",
        "reception_time": "2022-01-21T02:59:44.928-00:00",
        "included_in_blocks":
          [ "BMNeAKjbv2VL8UPBzjEW3cs424vC2wG7BSbAktw7QzLhyxgKzbY" ] },
      { "delegate": "tz3UoffC7FG7zfpmvmjUmUeAaHvzdcUvAj6r",
        "reception_time": "2022-01-21T02:59:44.545-00:00",
        "included_in_blocks":
          [ "BMNeAKjbv2VL8UPBzjEW3cs424vC2wG7BSbAktw7QzLhyxgKzbY" ] },
      { "delegate": "tz1ZcTRk5uxD86EFEn1vvNffWWqJy7q5eVhc",
        "reception_time": "2022-01-21T02:59:44.496-00:00",
        "included_in_blocks":
          [ "BMNeAKjbv2VL8UPBzjEW3cs424vC2wG7BSbAktw7QzLhyxgKzbY" ] },
      { "delegate": "tz3NExpXn9aPNZPorRE4SdjJ2RGrfbJgMAaV",
        "reception_time": "2022-01-21T02:59:44.344-00:00",
        "included_in_blocks":
          [ "BMNeAKjbv2VL8UPBzjEW3cs424vC2wG7BSbAktw7QzLhyxgKzbY" ] },
      { "delegate": "tz1UvkANVPWppVgMkLnvN7BwYZsCP7vm6NVd",
        "reception_time": "2022-01-21T02:59:44.444-00:00",
        "included_in_blocks":
          [ "BMNeAKjbv2VL8UPBzjEW3cs424vC2wG7BSbAktw7QzLhyxgKzbY" ] },
      { "delegate": "tz1f3Re8iw6Pt3KMHAvyccHxDU3NuqL95axD",
        "reception_time": "2022-01-21T02:59:44.170-00:00",
        "included_in_blocks":
          [ "BMNeAKjbv2VL8UPBzjEW3cs424vC2wG7BSbAktw7QzLhyxgKzbY" ] },
      { "delegate": "tz3bvNMQ95vfAYtG8193ymshqjSvmxiCUuR5",
        "reception_time": "2022-01-21T02:59:44.362-00:00",
        "included_in_blocks":
          [ "BMNeAKjbv2VL8UPBzjEW3cs424vC2wG7BSbAktw7QzLhyxgKzbY" ] },
      { "delegate": "tz1RjoHc98dBoqaH2jawF62XNKh7YsHwbkEv",
        "reception_time": "2022-01-21T02:59:44.035-00:00",
        "included_in_blocks":
          [ "BMNeAKjbv2VL8UPBzjEW3cs424vC2wG7BSbAktw7QzLhyxgKzbY" ] },
      { "delegate": "tz3WMqdzXqRWXwyvj5Hp2H7QEepaUuS7vd9K",
        "reception_time": "2022-01-21T02:59:43.335-00:00",
        "included_in_blocks":
          [ "BMNeAKjbv2VL8UPBzjEW3cs424vC2wG7BSbAktw7QzLhyxgKzbY" ] },
      { "delegate": "tz3bTdwZinP8U1JmSweNzVKhmwafqWmFWRfk",
        "reception_time": "2022-01-21T02:59:43.123-00:00",
        "included_in_blocks":
          [ "BMNeAKjbv2VL8UPBzjEW3cs424vC2wG7BSbAktw7QzLhyxgKzbY" ] },
      { "delegate": "tz1MQMiZHV8q4tTwUMWmS5Y3kaP6J2136iXr",
        "reception_time": "2022-01-21T02:59:43.016-00:00",
        "included_in_blocks":
          [ "BMNeAKjbv2VL8UPBzjEW3cs424vC2wG7BSbAktw7QzLhyxgKzbY" ] },
      { "delegate": "tz1WctSwL49BZtdWAQ75NY6vr4xsAx6oKdah",
        "reception_time": "2022-01-21T02:59:43.072-00:00",
        "included_in_blocks":
          [ "BMNeAKjbv2VL8UPBzjEW3cs424vC2wG7BSbAktw7QzLhyxgKzbY" ] },
      { "delegate": "tz1T7duV5gZWSTq4YpBGbXNLTfznCLDrFxvs",
        "reception_time": "2022-01-21T02:59:43.744-00:00",
        "included_in_blocks":
          [ "BMNeAKjbv2VL8UPBzjEW3cs424vC2wG7BSbAktw7QzLhyxgKzbY" ] },
      { "delegate": "tz1MH387oMRFco3kzz8t3wuqdbpAyTcKZtsg",
        "reception_time": "2022-01-21T02:59:43.094-00:00",
        "included_in_blocks":
          [ "BMNeAKjbv2VL8UPBzjEW3cs424vC2wG7BSbAktw7QzLhyxgKzbY" ] },
      { "delegate": "tz3NDpRj6WBrJPikcPVHRBEjWKxFw3c6eQPS",
        "reception_time": "2022-01-21T02:59:42.975-00:00",
        "included_in_blocks":
          [ "BMNeAKjbv2VL8UPBzjEW3cs424vC2wG7BSbAktw7QzLhyxgKzbY" ] },
      { "delegate": "tz1gfArv665EUkSg2ojMBzcbfwuPxAvqPvjo",
        "reception_time": "2022-01-21T02:59:42.769-00:00",
        "included_in_blocks":
          [ "BMNeAKjbv2VL8UPBzjEW3cs424vC2wG7BSbAktw7QzLhyxgKzbY" ] },
      { "delegate": "tz1SYq214SCBy9naR6cvycQsYcUGpBqQAE8d",
        "reception_time": "2022-01-21T02:59:42.790-00:00",
        "included_in_blocks":
          [ "BMNeAKjbv2VL8UPBzjEW3cs424vC2wG7BSbAktw7QzLhyxgKzbY" ] },
      { "delegate": "tz1NdhRv643wLW6zCcRP3VfT24dvDnh7nuh9",
        "reception_time": "2022-01-21T02:59:44.251-00:00",
        "included_in_blocks":
          [ "BMNeAKjbv2VL8UPBzjEW3cs424vC2wG7BSbAktw7QzLhyxgKzbY" ] },
      { "delegate": "tz1TEc75UKXv4W5cwi14Na3NtqFD51yKQi7h",
        "reception_time": "2022-01-21T02:59:42.781-00:00",
        "included_in_blocks":
          [ "BMNeAKjbv2VL8UPBzjEW3cs424vC2wG7BSbAktw7QzLhyxgKzbY" ] },
      { "delegate": "tz3VEZ4k6a4Wx42iyev6i2aVAptTRLEAivNN",
        "reception_time": "2022-01-21T02:59:43.772-00:00",
        "included_in_blocks":
          [ "BMNeAKjbv2VL8UPBzjEW3cs424vC2wG7BSbAktw7QzLhyxgKzbY" ] },
      { "delegate": "tz1PeZx7FXy7QRuMREGXGxeipb24RsMMzUNe",
        "reception_time": "2022-01-21T02:59:43.343-00:00",
        "included_in_blocks":
          [ "BMNeAKjbv2VL8UPBzjEW3cs424vC2wG7BSbAktw7QzLhyxgKzbY" ] },
      { "delegate": "tz1abmz7jiCV2GH2u81LRrGgAFFgvQgiDiaf",
        "reception_time": "2022-01-21T02:59:42.860-00:00",
        "included_in_blocks":
          [ "BMNeAKjbv2VL8UPBzjEW3cs424vC2wG7BSbAktw7QzLhyxgKzbY" ] },
      { "delegate": "tz1aRoaRhSpRYvFdyvgWLL6TGyRoGF51wDjM",
        "reception_time": "2022-01-21T02:59:44.857-00:00",
        "included_in_blocks":
          [ "BMNeAKjbv2VL8UPBzjEW3cs424vC2wG7BSbAktw7QzLhyxgKzbY" ] },
      { "delegate": "tz1KfEsrtDaA1sX7vdM4qmEPWuSytuqCDp5j",
        "reception_time": "2022-01-21T02:59:42.735-00:00",
        "included_in_blocks":
          [ "BMNeAKjbv2VL8UPBzjEW3cs424vC2wG7BSbAktw7QzLhyxgKzbY" ] },
      { "delegate": "tz1S8MNvuFEUsWgjHvi3AxibRBf388NhT1q2",
        "reception_time": "2022-01-21T02:59:42.783-00:00",
        "included_in_blocks":
          [ "BMNeAKjbv2VL8UPBzjEW3cs424vC2wG7BSbAktw7QzLhyxgKzbY" ] },
      { "delegate": "tz1fPKAtsYydh4f1wfWNfeNxWYu72TmM48fu",
        "reception_time": "2022-01-21T02:59:42.713-00:00",
        "included_in_blocks":
          [ "BMNeAKjbv2VL8UPBzjEW3cs424vC2wG7BSbAktw7QzLhyxgKzbY" ] },
      { "delegate": "tz1RCFbB9GpALpsZtu6J58sb74dm8qe6XBzv",
        "reception_time": "2022-01-21T02:59:42.773-00:00",
        "included_in_blocks":
          [ "BMNeAKjbv2VL8UPBzjEW3cs424vC2wG7BSbAktw7QzLhyxgKzbY" ] },
      { "delegate": "tz2FCNBrERXtaTtNX6iimR1UJ5JSDxvdHM93",
        "reception_time": "2022-01-21T02:59:42.786-00:00",
        "included_in_blocks":
          [ "BMNeAKjbv2VL8UPBzjEW3cs424vC2wG7BSbAktw7QzLhyxgKzbY" ] },
      { "delegate": "tz1Nf6tsK4G6bBqgSQERy4nUtkHNKUVdh7q1",
        "reception_time": "2022-01-21T02:59:42.757-00:00",
        "included_in_blocks":
          [ "BMNeAKjbv2VL8UPBzjEW3cs424vC2wG7BSbAktw7QzLhyxgKzbY" ] },
      { "delegate": "tz3QT9dHYKDqh563chVa6za8526ys1UKfRfL",
        "reception_time": "2022-01-21T02:59:42.747-00:00",
        "included_in_blocks":
          [ "BMNeAKjbv2VL8UPBzjEW3cs424vC2wG7BSbAktw7QzLhyxgKzbY" ] },
      { "delegate": "tz3S6BBeKgJGXxvLyZ1xzXzMPn11nnFtq5L9",
        "reception_time": "2022-01-21T02:59:42.727-00:00",
        "included_in_blocks":
          [ "BMNeAKjbv2VL8UPBzjEW3cs424vC2wG7BSbAktw7QzLhyxgKzbY" ] },
      { "delegate": "tz1g8vkmcde6sWKaG2NN9WKzCkDM6Rziq194",
        "reception_time": "2022-01-21T02:59:42.946-00:00",
        "included_in_blocks":
          [ "BMNeAKjbv2VL8UPBzjEW3cs424vC2wG7BSbAktw7QzLhyxgKzbY" ] },
      { "delegate": "tz1V4qCyvPKZ5UeqdH14HN42rxvNPQfc9UZg",
        "reception_time": "2022-01-21T02:59:42.729-00:00",
        "included_in_blocks":
          [ "BMNeAKjbv2VL8UPBzjEW3cs424vC2wG7BSbAktw7QzLhyxgKzbY" ] },
      { "delegate": "tz3hw2kqXhLUvY65ca1eety2oQTpAvd34R9Q",
        "reception_time": "2022-01-21T02:59:42.764-00:00",
        "included_in_blocks":
          [ "BMNeAKjbv2VL8UPBzjEW3cs424vC2wG7BSbAktw7QzLhyxgKzbY" ] },
      { "delegate": "tz3gtoUxdudfBRcNY7iVdKPHCYYX6xdPpoRS",
        "reception_time": "2022-01-21T02:59:42.664-00:00",
        "included_in_blocks":
          [ "BMNeAKjbv2VL8UPBzjEW3cs424vC2wG7BSbAktw7QzLhyxgKzbY" ] },
      { "delegate": "tz3iJu5vrKZcsqRPs8yJ61UDoeEXZmtro4qh",
        "reception_time": "2022-01-21T02:59:42.754-00:00",
        "included_in_blocks":
          [ "BMNeAKjbv2VL8UPBzjEW3cs424vC2wG7BSbAktw7QzLhyxgKzbY" ] },
      { "delegate": "tz3RB4aoyjov4KEVRbuhvQ1CKJgBJMWhaeB8",
        "reception_time": "2022-01-21T02:59:42.779-00:00",
        "included_in_blocks":
          [ "BMNeAKjbv2VL8UPBzjEW3cs424vC2wG7BSbAktw7QzLhyxgKzbY" ] },
      { "delegate": "tz3adcvQaKXTCg12zbninqo3q8ptKKtDFTLv",
        "reception_time": "2022-01-21T02:59:42.690-00:00",
        "included_in_blocks":
          [ "BMNeAKjbv2VL8UPBzjEW3cs424vC2wG7BSbAktw7QzLhyxgKzbY" ] },
      { "delegate": "tz1ei4WtWEMEJekSv8qDnu9PExG6Q8HgRGr3",
        "reception_time": "2022-01-21T02:59:42.732-00:00",
        "included_in_blocks":
          [ "BMNeAKjbv2VL8UPBzjEW3cs424vC2wG7BSbAktw7QzLhyxgKzbY" ] },
      { "delegate": "tz3RKYFsLuQzKBtmYuLNas7uMu3AsYd4QdsA",
        "reception_time": "2022-01-21T02:59:42.676-00:00",
        "included_in_blocks":
          [ "BMNeAKjbv2VL8UPBzjEW3cs424vC2wG7BSbAktw7QzLhyxgKzbY" ] },
      { "delegate": "tz1gUNyn3hmnEWqkusWPzxRaon1cs7ndWh7h",
        "reception_time": "2022-01-21T02:59:42.690-00:00",
        "included_in_blocks":
          [ "BMNeAKjbv2VL8UPBzjEW3cs424vC2wG7BSbAktw7QzLhyxgKzbY" ] },
      { "delegate": "tz3ZbP2pM3nwvXztbuMJwJnDvV5xdpU8UkkD",
        "reception_time": "2022-01-21T02:59:42.682-00:00",
        "included_in_blocks":
          [ "BMNeAKjbv2VL8UPBzjEW3cs424vC2wG7BSbAktw7QzLhyxgKzbY" ] },
      { "delegate": "tz1WCd2jm4uSt4vntk4vSuUWoZQGhLcDuR9q",
        "reception_time": "2022-01-21T02:59:42.637-00:00",
        "included_in_blocks":
          [ "BMNeAKjbv2VL8UPBzjEW3cs424vC2wG7BSbAktw7QzLhyxgKzbY" ] },
      { "delegate": "tz1irJKkXS2DBWkU1NnmFQx1c1L7pbGg4yhk",
        "reception_time": "2022-01-21T02:59:42.626-00:00",
        "included_in_blocks":
          [ "BMNeAKjbv2VL8UPBzjEW3cs424vC2wG7BSbAktw7QzLhyxgKzbY" ] },
      { "delegate": "tz1W1f1JrE7VsqgpUpj1iiDobqP5TixgZhDk",
        "reception_time": "2022-01-21T02:59:42.647-00:00",
        "included_in_blocks":
          [ "BMNeAKjbv2VL8UPBzjEW3cs424vC2wG7BSbAktw7QzLhyxgKzbY" ] },
      { "delegate": "tz3Zhs2dygr55yHyQyKjntAtY9bgfhLZ4Xj1",
        "reception_time": "2022-01-21T02:59:42.711-00:00",
        "included_in_blocks":
          [ "BMNeAKjbv2VL8UPBzjEW3cs424vC2wG7BSbAktw7QzLhyxgKzbY" ] },
      { "delegate": "tz1VQnqCCqX4K5sP3FNkVSNKTdCAMJDd3E1n",
        "reception_time": "2022-01-21T02:59:42.657-00:00",
        "included_in_blocks":
          [ "BMNeAKjbv2VL8UPBzjEW3cs424vC2wG7BSbAktw7QzLhyxgKzbY" ] },
      { "delegate": "tz3QSGPoRp3Kn7n3vY24eYeu3Peuqo45LQ4D",
        "reception_time": "2022-01-21T02:59:42.741-00:00",
        "included_in_blocks":
          [ "BMNeAKjbv2VL8UPBzjEW3cs424vC2wG7BSbAktw7QzLhyxgKzbY" ] },
      { "delegate": "tz1d6Fx42mYgVFnHUW8T8A7WBfJ6nD9pVok8",
        "reception_time": "2022-01-21T02:59:42.668-00:00",
        "included_in_blocks":
          [ "BMNeAKjbv2VL8UPBzjEW3cs424vC2wG7BSbAktw7QzLhyxgKzbY" ] },
      { "delegate": "tz1aqcYgG6NuViML5vdWhohHJBYxcDVLNUsE",
        "reception_time": "2022-01-21T02:59:42.626-00:00",
        "included_in_blocks":
          [ "BMNeAKjbv2VL8UPBzjEW3cs424vC2wG7BSbAktw7QzLhyxgKzbY" ] },
      { "delegate": "tz3NxTnke1acr8o3h5y9ytf5awQBGNJUKzVU",
        "reception_time": "2022-01-21T02:59:42.655-00:00",
        "included_in_blocks":
          [ "BMNeAKjbv2VL8UPBzjEW3cs424vC2wG7BSbAktw7QzLhyxgKzbY" ] },
      { "delegate": "tz1aXD7Jigrt3PBYSpHSg5Rr33SexMmmM5Ys",
        "reception_time": "2022-01-21T02:59:42.614-00:00",
        "included_in_blocks":
          [ "BMNeAKjbv2VL8UPBzjEW3cs424vC2wG7BSbAktw7QzLhyxgKzbY" ] } ] }