{ "blocks":
    [ { "hash": "BLdoh3mhj6kifmchQbuL31DSaZnJvnmM9sKURf6q89C3EUt3AtT",
        "delegate": "tz1gfArv665EUkSg2ojMBzcbfwuPxAvqPvjo",
        "reception_time": "2022-01-20T22:51:09.160-00:00",
        "timestamp": "2022-01-20T22:51:00Z" } ],
  "endorsements":
    [ { "delegate": "tz1P2Po7YM526ughEsRbY4oR9zaUPDZjxFrb",
        "reception_time": "2022-01-20T22:51:09.113-00:00",
        "errors":
          [ { "kind": "temporary",
              "id": "proto.011-PtHangz2.prefilter.outdated_endorsement" } ],
        "included_in_blocks":
          [ "BL4VfLftAMU3oriTy7hCppWB7hnmjMUzB3YpKDucr7nLFE4iq1V" ] },
      { "delegate": "tz1gfArv665EUkSg2ojMBzcbfwuPxAvqPvjo",
        "reception_time": "2022-01-20T22:51:08.751-00:00",
        "errors":
          [ { "kind": "temporary",
              "id": "proto.011-PtHangz2.prefilter.outdated_endorsement" } ],
        "included_in_blocks":
          [ "BL4VfLftAMU3oriTy7hCppWB7hnmjMUzB3YpKDucr7nLFE4iq1V" ] },
      { "delegate": "tz1TRqbYbUf2GyrjErf3hBzgBJPzW8y36qEs" },
      { "delegate": "tz1awXW7wuXy21c66vBudMXQVAPgRnqqwgTH" },
      { "delegate": "tz3RDC3Jdn4j15J7bBHZd29EUee9gVB1CxD9" },
      { "delegate": "tz1eEnQhbwf6trb8Q8mPb2RaPkNk2rN7BKi8",
        "reception_time": "2022-01-20T22:51:10.316-00:00",
        "included_in_blocks":
          [ "BL4VfLftAMU3oriTy7hCppWB7hnmjMUzB3YpKDucr7nLFE4iq1V" ] },
      { "delegate": "tz1STeamwbp68THcny9zk3LsbG3H36DMvbRK",
        "reception_time": "2022-01-20T22:51:10.333-00:00",
        "included_in_blocks":
          [ "BL4VfLftAMU3oriTy7hCppWB7hnmjMUzB3YpKDucr7nLFE4iq1V" ] },
      { "delegate": "tz1Zhv3RkfU2pHrmaiDyxp7kFZpZrUCu1CiF",
        "reception_time": "2022-01-20T22:51:10.333-00:00",
        "included_in_blocks":
          [ "BL4VfLftAMU3oriTy7hCppWB7hnmjMUzB3YpKDucr7nLFE4iq1V" ] },
      { "delegate": "tz1RV1MBbZMR68tacosb7Mwj6LkbPSUS1er1",
        "reception_time": "2022-01-20T22:51:10.362-00:00",
        "included_in_blocks":
          [ "BL4VfLftAMU3oriTy7hCppWB7hnmjMUzB3YpKDucr7nLFE4iq1V" ] },
      { "delegate": "tz1irJKkXS2DBWkU1NnmFQx1c1L7pbGg4yhk",
        "reception_time": "2022-01-20T22:51:10.379-00:00",
        "included_in_blocks":
          [ "BL4VfLftAMU3oriTy7hCppWB7hnmjMUzB3YpKDucr7nLFE4iq1V" ] },
      { "delegate": "tz1ZPh7XfUaJXUDvkrBxmS1BjEM1i62hiPpM",
        "reception_time": "2022-01-20T22:51:10.379-00:00",
        "included_in_blocks":
          [ "BL4VfLftAMU3oriTy7hCppWB7hnmjMUzB3YpKDucr7nLFE4iq1V" ] },
      { "delegate": "tz1VmiY38m3y95HqQLjMwqnMS7sdMfGomzKi",
        "reception_time": "2022-01-20T22:51:10.407-00:00",
        "included_in_blocks":
          [ "BL4VfLftAMU3oriTy7hCppWB7hnmjMUzB3YpKDucr7nLFE4iq1V" ] },
      { "delegate": "tz3hw2kqXhLUvY65ca1eety2oQTpAvd34R9Q",
        "reception_time": "2022-01-20T22:51:10.413-00:00",
        "included_in_blocks":
          [ "BL4VfLftAMU3oriTy7hCppWB7hnmjMUzB3YpKDucr7nLFE4iq1V" ] },
      { "delegate": "tz1Ldzz6k1BHdhuKvAtMRX7h5kJSMHESMHLC",
        "reception_time": "2022-01-20T22:51:10.430-00:00",
        "included_in_blocks":
          [ "BL4VfLftAMU3oriTy7hCppWB7hnmjMUzB3YpKDucr7nLFE4iq1V" ] },
      { "delegate": "tz3RKYFsLuQzKBtmYuLNas7uMu3AsYd4QdsA",
        "reception_time": "2022-01-20T22:51:10.430-00:00",
        "included_in_blocks":
          [ "BL4VfLftAMU3oriTy7hCppWB7hnmjMUzB3YpKDucr7nLFE4iq1V" ] },
      { "delegate": "tz3ZbP2pM3nwvXztbuMJwJnDvV5xdpU8UkkD",
        "reception_time": "2022-01-20T22:51:10.446-00:00",
        "included_in_blocks":
          [ "BL4VfLftAMU3oriTy7hCppWB7hnmjMUzB3YpKDucr7nLFE4iq1V" ] },
      { "delegate": "tz3QT9dHYKDqh563chVa6za8526ys1UKfRfL",
        "reception_time": "2022-01-20T22:51:10.446-00:00",
        "included_in_blocks":
          [ "BL4VfLftAMU3oriTy7hCppWB7hnmjMUzB3YpKDucr7nLFE4iq1V" ] },
      { "delegate": "tz1MQMiZHV8q4tTwUMWmS5Y3kaP6J2136iXr",
        "reception_time": "2022-01-20T22:51:10.454-00:00",
        "included_in_blocks":
          [ "BL4VfLftAMU3oriTy7hCppWB7hnmjMUzB3YpKDucr7nLFE4iq1V" ] },
      { "delegate": "tz3NxTnke1acr8o3h5y9ytf5awQBGNJUKzVU",
        "reception_time": "2022-01-20T22:51:10.454-00:00",
        "included_in_blocks":
          [ "BL4VfLftAMU3oriTy7hCppWB7hnmjMUzB3YpKDucr7nLFE4iq1V" ] },
      { "delegate": "tz3gtoUxdudfBRcNY7iVdKPHCYYX6xdPpoRS",
        "reception_time": "2022-01-20T22:51:10.466-00:00",
        "included_in_blocks":
          [ "BL4VfLftAMU3oriTy7hCppWB7hnmjMUzB3YpKDucr7nLFE4iq1V" ] },
      { "delegate": "tz1PWCDnz783NNGGQjEFFsHtrcK5yBW4E2rm",
        "reception_time": "2022-01-20T22:51:10.466-00:00",
        "included_in_blocks":
          [ "BL4VfLftAMU3oriTy7hCppWB7hnmjMUzB3YpKDucr7nLFE4iq1V" ] },
      { "delegate": "tz3QSGPoRp3Kn7n3vY24eYeu3Peuqo45LQ4D",
        "reception_time": "2022-01-20T22:51:10.473-00:00",
        "included_in_blocks":
          [ "BL4VfLftAMU3oriTy7hCppWB7hnmjMUzB3YpKDucr7nLFE4iq1V" ] },
      { "delegate": "tz1VQnqCCqX4K5sP3FNkVSNKTdCAMJDd3E1n",
        "reception_time": "2022-01-20T22:51:10.481-00:00",
        "included_in_blocks":
          [ "BL4VfLftAMU3oriTy7hCppWB7hnmjMUzB3YpKDucr7nLFE4iq1V" ] },
      { "delegate": "tz1WCd2jm4uSt4vntk4vSuUWoZQGhLcDuR9q",
        "reception_time": "2022-01-20T22:51:10.481-00:00",
        "included_in_blocks":
          [ "BL4VfLftAMU3oriTy7hCppWB7hnmjMUzB3YpKDucr7nLFE4iq1V" ] },
      { "delegate": "tz3QCNyySViKHmeSr45kzDxzchys7NiXCWoa",
        "reception_time": "2022-01-20T22:51:10.493-00:00",
        "included_in_blocks":
          [ "BL4VfLftAMU3oriTy7hCppWB7hnmjMUzB3YpKDucr7nLFE4iq1V" ] },
      { "delegate": "tz1ei4WtWEMEJekSv8qDnu9PExG6Q8HgRGr3",
        "reception_time": "2022-01-20T22:51:10.500-00:00",
        "included_in_blocks":
          [ "BL4VfLftAMU3oriTy7hCppWB7hnmjMUzB3YpKDucr7nLFE4iq1V" ] },
      { "delegate": "tz1gUNyn3hmnEWqkusWPzxRaon1cs7ndWh7h",
        "reception_time": "2022-01-20T22:51:10.508-00:00",
        "included_in_blocks":
          [ "BL4VfLftAMU3oriTy7hCppWB7hnmjMUzB3YpKDucr7nLFE4iq1V" ] },
      { "delegate": "tz3Zhs2dygr55yHyQyKjntAtY9bgfhLZ4Xj1",
        "reception_time": "2022-01-20T22:51:10.518-00:00",
        "included_in_blocks":
          [ "BL4VfLftAMU3oriTy7hCppWB7hnmjMUzB3YpKDucr7nLFE4iq1V" ] },
      { "delegate": "tz3iJu5vrKZcsqRPs8yJ61UDoeEXZmtro4qh",
        "reception_time": "2022-01-20T22:51:10.529-00:00",
        "included_in_blocks":
          [ "BL4VfLftAMU3oriTy7hCppWB7hnmjMUzB3YpKDucr7nLFE4iq1V" ] },
      { "delegate": "tz1MQJPGNMijnXnVoBENFz9rUhaPt3S7rWoz",
        "reception_time": "2022-01-20T22:51:10.546-00:00",
        "included_in_blocks":
          [ "BL4VfLftAMU3oriTy7hCppWB7hnmjMUzB3YpKDucr7nLFE4iq1V" ] },
      { "delegate": "tz3adcvQaKXTCg12zbninqo3q8ptKKtDFTLv",
        "reception_time": "2022-01-20T22:51:10.648-00:00",
        "included_in_blocks":
          [ "BL4VfLftAMU3oriTy7hCppWB7hnmjMUzB3YpKDucr7nLFE4iq1V" ] },
      { "delegate": "tz1dNVDWPf3Q59SdJqnjdnu277iyvReiRS9M",
        "reception_time": "2022-01-20T22:51:10.684-00:00",
        "included_in_blocks":
          [ "BL4VfLftAMU3oriTy7hCppWB7hnmjMUzB3YpKDucr7nLFE4iq1V" ] },
      { "delegate": "tz1S8MNvuFEUsWgjHvi3AxibRBf388NhT1q2",
        "reception_time": "2022-01-20T22:51:10.741-00:00",
        "included_in_blocks":
          [ "BL4VfLftAMU3oriTy7hCppWB7hnmjMUzB3YpKDucr7nLFE4iq1V" ] },
      { "delegate": "tz1Tnjaxk6tbAeC2TmMApPh8UsrEVQvhHvx5",
        "reception_time": "2022-01-20T22:51:10.832-00:00",
        "included_in_blocks":
          [ "BL4VfLftAMU3oriTy7hCppWB7hnmjMUzB3YpKDucr7nLFE4iq1V" ] },
      { "delegate": "tz3RB4aoyjov4KEVRbuhvQ1CKJgBJMWhaeB8",
        "reception_time": "2022-01-20T22:51:10.858-00:00",
        "included_in_blocks":
          [ "BL4VfLftAMU3oriTy7hCppWB7hnmjMUzB3YpKDucr7nLFE4iq1V" ] },
      { "delegate": "tz1RCFbB9GpALpsZtu6J58sb74dm8qe6XBzv",
        "reception_time": "2022-01-20T22:51:10.876-00:00",
        "included_in_blocks":
          [ "BL4VfLftAMU3oriTy7hCppWB7hnmjMUzB3YpKDucr7nLFE4iq1V" ] },
      { "delegate": "tz3bTdwZinP8U1JmSweNzVKhmwafqWmFWRfk",
        "reception_time": "2022-01-20T22:51:10.991-00:00",
        "included_in_blocks":
          [ "BL4VfLftAMU3oriTy7hCppWB7hnmjMUzB3YpKDucr7nLFE4iq1V" ] },
      { "delegate": "tz1WBfwbT66FC6BTLexc2BoyCCBM9LG7pnVW",
        "reception_time": "2022-01-20T22:51:11.031-00:00",
        "included_in_blocks":
          [ "BL4VfLftAMU3oriTy7hCppWB7hnmjMUzB3YpKDucr7nLFE4iq1V" ] },
      { "delegate": "tz1RQhNh7iB9CZA7i3ifTWNwiGYVffponfbB",
        "reception_time": "2022-01-20T22:51:11.070-00:00",
        "included_in_blocks":
          [ "BL4VfLftAMU3oriTy7hCppWB7hnmjMUzB3YpKDucr7nLFE4iq1V" ] },
      { "delegate": "tz1LmaFsWRkjr7QMCx5PtV6xTUz3AmEpKQiF",
        "reception_time": "2022-01-20T22:51:11.214-00:00",
        "included_in_blocks":
          [ "BL4VfLftAMU3oriTy7hCppWB7hnmjMUzB3YpKDucr7nLFE4iq1V" ] },
      { "delegate": "tz1KfEsrtDaA1sX7vdM4qmEPWuSytuqCDp5j",
        "reception_time": "2022-01-20T22:51:11.247-00:00",
        "included_in_blocks":
          [ "BL4VfLftAMU3oriTy7hCppWB7hnmjMUzB3YpKDucr7nLFE4iq1V" ] },
      { "delegate": "tz3NDpRj6WBrJPikcPVHRBEjWKxFw3c6eQPS",
        "reception_time": "2022-01-20T22:51:11.266-00:00",
        "included_in_blocks":
          [ "BL4VfLftAMU3oriTy7hCppWB7hnmjMUzB3YpKDucr7nLFE4iq1V" ] },
      { "delegate": "tz1abmz7jiCV2GH2u81LRrGgAFFgvQgiDiaf",
        "reception_time": "2022-01-20T22:51:11.363-00:00",
        "included_in_blocks":
          [ "BL4VfLftAMU3oriTy7hCppWB7hnmjMUzB3YpKDucr7nLFE4iq1V" ] },
      { "delegate": "tz1Nf6tsK4G6bBqgSQERy4nUtkHNKUVdh7q1",
        "reception_time": "2022-01-20T22:51:11.367-00:00",
        "included_in_blocks":
          [ "BL4VfLftAMU3oriTy7hCppWB7hnmjMUzB3YpKDucr7nLFE4iq1V" ] },
      { "delegate": "tz1SYq214SCBy9naR6cvycQsYcUGpBqQAE8d",
        "reception_time": "2022-01-20T22:51:11.425-00:00",
        "included_in_blocks":
          [ "BL4VfLftAMU3oriTy7hCppWB7hnmjMUzB3YpKDucr7nLFE4iq1V" ] },
      { "delegate": "tz1TEc75UKXv4W5cwi14Na3NtqFD51yKQi7h",
        "reception_time": "2022-01-20T22:51:11.429-00:00",
        "included_in_blocks":
          [ "BL4VfLftAMU3oriTy7hCppWB7hnmjMUzB3YpKDucr7nLFE4iq1V" ] },
      { "delegate": "tz1SohptP53wDPZhzTWzDUFAUcWF6DMBpaJV",
        "reception_time": "2022-01-20T22:51:11.709-00:00",
        "included_in_blocks":
          [ "BL4VfLftAMU3oriTy7hCppWB7hnmjMUzB3YpKDucr7nLFE4iq1V" ] },
      { "delegate": "tz2FCNBrERXtaTtNX6iimR1UJ5JSDxvdHM93",
        "reception_time": "2022-01-20T22:51:11.733-00:00",
        "included_in_blocks":
          [ "BL4VfLftAMU3oriTy7hCppWB7hnmjMUzB3YpKDucr7nLFE4iq1V" ] },
      { "delegate": "tz1T7duV5gZWSTq4YpBGbXNLTfznCLDrFxvs",
        "reception_time": "2022-01-20T22:51:12.093-00:00",
        "included_in_blocks":
          [ "BL4VfLftAMU3oriTy7hCppWB7hnmjMUzB3YpKDucr7nLFE4iq1V" ] },
      { "delegate": "tz3VEZ4k6a4Wx42iyev6i2aVAptTRLEAivNN",
        "reception_time": "2022-01-20T22:51:12.153-00:00",
        "included_in_blocks":
          [ "BL4VfLftAMU3oriTy7hCppWB7hnmjMUzB3YpKDucr7nLFE4iq1V" ] },
      { "delegate": "tz1dRKU4FQ9QRRQPdaH4zCR6gmCmXfcvcgtB",
        "reception_time": "2022-01-20T22:51:12.158-00:00",
        "included_in_blocks":
          [ "BL4VfLftAMU3oriTy7hCppWB7hnmjMUzB3YpKDucr7nLFE4iq1V" ] },
      { "delegate": "tz3WMqdzXqRWXwyvj5Hp2H7QEepaUuS7vd9K",
        "reception_time": "2022-01-20T22:51:12.192-00:00",
        "included_in_blocks":
          [ "BL4VfLftAMU3oriTy7hCppWB7hnmjMUzB3YpKDucr7nLFE4iq1V" ] },
      { "delegate": "tz3bvNMQ95vfAYtG8193ymshqjSvmxiCUuR5",
        "reception_time": "2022-01-20T22:51:12.310-00:00",
        "included_in_blocks":
          [ "BL4VfLftAMU3oriTy7hCppWB7hnmjMUzB3YpKDucr7nLFE4iq1V" ] },
      { "delegate": "tz3UoffC7FG7zfpmvmjUmUeAaHvzdcUvAj6r",
        "reception_time": "2022-01-20T22:51:12.604-00:00",
        "included_in_blocks":
          [ "BL4VfLftAMU3oriTy7hCppWB7hnmjMUzB3YpKDucr7nLFE4iq1V" ] },
      { "delegate": "tz3NExpXn9aPNZPorRE4SdjJ2RGrfbJgMAaV",
        "reception_time": "2022-01-20T22:51:12.654-00:00",
        "included_in_blocks":
          [ "BL4VfLftAMU3oriTy7hCppWB7hnmjMUzB3YpKDucr7nLFE4iq1V" ] },
      { "delegate": "tz1ZcTRk5uxD86EFEn1vvNffWWqJy7q5eVhc",
        "reception_time": "2022-01-20T22:51:12.720-00:00",
        "included_in_blocks":
          [ "BL4VfLftAMU3oriTy7hCppWB7hnmjMUzB3YpKDucr7nLFE4iq1V" ] },
      { "delegate": "tz1aRoaRhSpRYvFdyvgWLL6TGyRoGF51wDjM",
        "reception_time": "2022-01-20T22:51:12.765-00:00",
        "included_in_blocks":
          [ "BL4VfLftAMU3oriTy7hCppWB7hnmjMUzB3YpKDucr7nLFE4iq1V" ] },
      { "delegate": "tz1TcH4Nb3aHNDJ7CGZhU7jgAK1BkSP4Lxds",
        "reception_time": "2022-01-20T22:51:13.162-00:00",
        "included_in_blocks":
          [ "BL4VfLftAMU3oriTy7hCppWB7hnmjMUzB3YpKDucr7nLFE4iq1V" ] },
      { "delegate": "tz1dfg9PkvRLf7hKMmGdGRhXWCbd8QgbwBF7",
        "reception_time": "2022-01-20T22:51:13.326-00:00",
        "included_in_blocks":
          [ "BL4VfLftAMU3oriTy7hCppWB7hnmjMUzB3YpKDucr7nLFE4iq1V" ] },
      { "delegate": "tz1aJS7Pk9uWR3wWyFf1i3RwhYxN84G7stom",
        "reception_time": "2022-01-20T22:51:13.405-00:00",
        "included_in_blocks":
          [ "BL4VfLftAMU3oriTy7hCppWB7hnmjMUzB3YpKDucr7nLFE4iq1V" ] },
      { "delegate": "tz1eVaNx3gCmG1EsLjijkmgAxdLYVf6Bf5Sq",
        "reception_time": "2022-01-20T22:51:14.963-00:00",
        "included_in_blocks":
          [ "BL4VfLftAMU3oriTy7hCppWB7hnmjMUzB3YpKDucr7nLFE4iq1V" ] } ] }