{ "blocks":
    [ { "hash": "BLNFTpRKG1JPXomwHNZouqZi6qSTozoJSGjHYb7MLFt2WZm1G8M",
        "delegate": "tz3NExpXn9aPNZPorRE4SdjJ2RGrfbJgMAaV",
        "reception_time": "2022-01-21T03:19:22.136-00:00",
        "timestamp": "2022-01-21T03:19:10Z" } ],
  "endorsements":
    [ { "delegate": "tz1VmiY38m3y95HqQLjMwqnMS7sdMfGomzKi",
        "reception_time": "2022-01-21T03:19:22.055-00:00",
        "errors":
          [ { "kind": "temporary",
              "id": "proto.011-PtHangz2.prefilter.outdated_endorsement" } ],
        "included_in_blocks":
          [ "BLPXpTMHsdpA4yyqk1h3daxaoLYaiknFqSktWcHufcqiun6ACK1" ] },
      { "delegate": "tz1P2Po7YM526ughEsRbY4oR9zaUPDZjxFrb",
        "reception_time": "2022-01-21T03:19:22.046-00:00",
        "errors":
          [ { "kind": "temporary",
              "id": "proto.011-PtHangz2.prefilter.outdated_endorsement" } ],
        "included_in_blocks":
          [ "BLPXpTMHsdpA4yyqk1h3daxaoLYaiknFqSktWcHufcqiun6ACK1" ] },
      { "delegate": "tz1eEnQhbwf6trb8Q8mPb2RaPkNk2rN7BKi8",
        "reception_time": "2022-01-21T03:19:21.919-00:00",
        "errors":
          [ { "kind": "temporary",
              "id": "proto.011-PtHangz2.prefilter.outdated_endorsement" } ],
        "included_in_blocks":
          [ "BLPXpTMHsdpA4yyqk1h3daxaoLYaiknFqSktWcHufcqiun6ACK1" ] },
      { "delegate": "tz1TRqbYbUf2GyrjErf3hBzgBJPzW8y36qEs" },
      { "delegate": "tz1awXW7wuXy21c66vBudMXQVAPgRnqqwgTH" },
      { "delegate": "tz1ibcPVGK4Y8pcW4BYUsojiHoBKnZbyDGrX" },
      { "delegate": "tz1TXzyaKUA8wsWefdSnyaYFnV2M3vCV7er9",
        "reception_time": "2022-01-21T03:19:24.475-00:00",
        "included_in_blocks":
          [ "BLPXpTMHsdpA4yyqk1h3daxaoLYaiknFqSktWcHufcqiun6ACK1" ] },
      { "delegate": "tz1bsdrs36X5BTH83RHUBdUouKLJZK8d2oBa",
        "reception_time": "2022-01-21T03:19:24.475-00:00",
        "included_in_blocks":
          [ "BLPXpTMHsdpA4yyqk1h3daxaoLYaiknFqSktWcHufcqiun6ACK1" ] },
      { "delegate": "tz1Ldzz6k1BHdhuKvAtMRX7h5kJSMHESMHLC",
        "reception_time": "2022-01-21T03:19:24.814-00:00",
        "included_in_blocks":
          [ "BLPXpTMHsdpA4yyqk1h3daxaoLYaiknFqSktWcHufcqiun6ACK1" ] },
      { "delegate": "tz1VQnqCCqX4K5sP3FNkVSNKTdCAMJDd3E1n",
        "reception_time": "2022-01-21T03:19:24.819-00:00",
        "included_in_blocks":
          [ "BLPXpTMHsdpA4yyqk1h3daxaoLYaiknFqSktWcHufcqiun6ACK1" ] },
      { "delegate": "tz1Lhf4J9Qxoe3DZ2nfe8FGDnvVj7oKjnMY6",
        "reception_time": "2022-01-21T03:19:24.828-00:00",
        "included_in_blocks":
          [ "BLPXpTMHsdpA4yyqk1h3daxaoLYaiknFqSktWcHufcqiun6ACK1" ] },
      { "delegate": "tz1gUNyn3hmnEWqkusWPzxRaon1cs7ndWh7h",
        "reception_time": "2022-01-21T03:19:24.832-00:00",
        "included_in_blocks":
          [ "BLPXpTMHsdpA4yyqk1h3daxaoLYaiknFqSktWcHufcqiun6ACK1" ] },
      { "delegate": "tz1beersuEDv8Z7ngQ825xfbaJNS2EhXnyHR",
        "reception_time": "2022-01-21T03:19:24.832-00:00",
        "included_in_blocks":
          [ "BLPXpTMHsdpA4yyqk1h3daxaoLYaiknFqSktWcHufcqiun6ACK1" ] },
      { "delegate": "tz1aXD7Jigrt3PBYSpHSg5Rr33SexMmmM5Ys",
        "reception_time": "2022-01-21T03:19:24.834-00:00",
        "included_in_blocks":
          [ "BLPXpTMHsdpA4yyqk1h3daxaoLYaiknFqSktWcHufcqiun6ACK1" ] },
      { "delegate": "tz1S8MNvuFEUsWgjHvi3AxibRBf388NhT1q2",
        "reception_time": "2022-01-21T03:19:24.843-00:00",
        "included_in_blocks":
          [ "BLPXpTMHsdpA4yyqk1h3daxaoLYaiknFqSktWcHufcqiun6ACK1" ] },
      { "delegate": "tz3NxTnke1acr8o3h5y9ytf5awQBGNJUKzVU",
        "reception_time": "2022-01-21T03:19:24.843-00:00",
        "included_in_blocks":
          [ "BLPXpTMHsdpA4yyqk1h3daxaoLYaiknFqSktWcHufcqiun6ACK1" ] },
      { "delegate": "tz1MQJPGNMijnXnVoBENFz9rUhaPt3S7rWoz",
        "reception_time": "2022-01-21T03:19:24.846-00:00",
        "included_in_blocks":
          [ "BLPXpTMHsdpA4yyqk1h3daxaoLYaiknFqSktWcHufcqiun6ACK1" ] },
      { "delegate": "tz1irJKkXS2DBWkU1NnmFQx1c1L7pbGg4yhk",
        "reception_time": "2022-01-21T03:19:24.848-00:00",
        "included_in_blocks":
          [ "BLPXpTMHsdpA4yyqk1h3daxaoLYaiknFqSktWcHufcqiun6ACK1" ] },
      { "delegate": "tz3hw2kqXhLUvY65ca1eety2oQTpAvd34R9Q",
        "reception_time": "2022-01-21T03:19:24.854-00:00",
        "included_in_blocks":
          [ "BLPXpTMHsdpA4yyqk1h3daxaoLYaiknFqSktWcHufcqiun6ACK1" ] },
      { "delegate": "tz1TRspM5SeZpaQUhzByXbEvqKF1vnCM2YTK",
        "reception_time": "2022-01-21T03:19:24.858-00:00",
        "included_in_blocks":
          [ "BLPXpTMHsdpA4yyqk1h3daxaoLYaiknFqSktWcHufcqiun6ACK1" ] },
      { "delegate": "tz1TzaNn7wSQSP5gYPXCnNzBCpyMiidCq1PX",
        "reception_time": "2022-01-21T03:19:24.858-00:00",
        "included_in_blocks":
          [ "BLPXpTMHsdpA4yyqk1h3daxaoLYaiknFqSktWcHufcqiun6ACK1" ] },
      { "delegate": "tz3ZbP2pM3nwvXztbuMJwJnDvV5xdpU8UkkD",
        "reception_time": "2022-01-21T03:19:24.877-00:00",
        "included_in_blocks":
          [ "BLPXpTMHsdpA4yyqk1h3daxaoLYaiknFqSktWcHufcqiun6ACK1" ] },
      { "delegate": "tz1PWCDnz783NNGGQjEFFsHtrcK5yBW4E2rm",
        "reception_time": "2022-01-21T03:19:24.881-00:00",
        "included_in_blocks":
          [ "BLPXpTMHsdpA4yyqk1h3daxaoLYaiknFqSktWcHufcqiun6ACK1" ] },
      { "delegate": "tz1KfEsrtDaA1sX7vdM4qmEPWuSytuqCDp5j",
        "reception_time": "2022-01-21T03:19:24.881-00:00",
        "included_in_blocks":
          [ "BLPXpTMHsdpA4yyqk1h3daxaoLYaiknFqSktWcHufcqiun6ACK1" ] },
      { "delegate": "tz1Kf25fX1VdmYGSEzwFy1wNmkbSEZ2V83sY",
        "reception_time": "2022-01-21T03:19:24.889-00:00",
        "included_in_blocks":
          [ "BLPXpTMHsdpA4yyqk1h3daxaoLYaiknFqSktWcHufcqiun6ACK1" ] },
      { "delegate": "tz3QSGPoRp3Kn7n3vY24eYeu3Peuqo45LQ4D",
        "reception_time": "2022-01-21T03:19:24.889-00:00",
        "included_in_blocks":
          [ "BLPXpTMHsdpA4yyqk1h3daxaoLYaiknFqSktWcHufcqiun6ACK1" ] },
      { "delegate": "tz3QT9dHYKDqh563chVa6za8526ys1UKfRfL",
        "reception_time": "2022-01-21T03:19:24.896-00:00",
        "included_in_blocks":
          [ "BLPXpTMHsdpA4yyqk1h3daxaoLYaiknFqSktWcHufcqiun6ACK1" ] },
      { "delegate": "tz3iJu5vrKZcsqRPs8yJ61UDoeEXZmtro4qh",
        "reception_time": "2022-01-21T03:19:24.909-00:00",
        "included_in_blocks":
          [ "BLPXpTMHsdpA4yyqk1h3daxaoLYaiknFqSktWcHufcqiun6ACK1" ] },
      { "delegate": "tz3RKYFsLuQzKBtmYuLNas7uMu3AsYd4QdsA",
        "reception_time": "2022-01-21T03:19:24.909-00:00",
        "included_in_blocks":
          [ "BLPXpTMHsdpA4yyqk1h3daxaoLYaiknFqSktWcHufcqiun6ACK1" ] },
      { "delegate": "tz1UtayNgAX8QEJ3NoLptPzoPr9JiH3Cskzz",
        "reception_time": "2022-01-21T03:19:24.918-00:00",
        "included_in_blocks":
          [ "BLPXpTMHsdpA4yyqk1h3daxaoLYaiknFqSktWcHufcqiun6ACK1" ] },
      { "delegate": "tz3Zhs2dygr55yHyQyKjntAtY9bgfhLZ4Xj1",
        "reception_time": "2022-01-21T03:19:24.918-00:00",
        "included_in_blocks":
          [ "BLPXpTMHsdpA4yyqk1h3daxaoLYaiknFqSktWcHufcqiun6ACK1" ] },
      { "delegate": "tz1dNVDWPf3Q59SdJqnjdnu277iyvReiRS9M",
        "reception_time": "2022-01-21T03:19:24.923-00:00",
        "included_in_blocks":
          [ "BLPXpTMHsdpA4yyqk1h3daxaoLYaiknFqSktWcHufcqiun6ACK1" ] },
      { "delegate": "tz1fPKAtsYydh4f1wfWNfeNxWYu72TmM48fu",
        "reception_time": "2022-01-21T03:19:24.923-00:00",
        "included_in_blocks":
          [ "BLPXpTMHsdpA4yyqk1h3daxaoLYaiknFqSktWcHufcqiun6ACK1" ] },
      { "delegate": "tz3S6BBeKgJGXxvLyZ1xzXzMPn11nnFtq5L9",
        "reception_time": "2022-01-21T03:19:24.943-00:00",
        "included_in_blocks":
          [ "BLPXpTMHsdpA4yyqk1h3daxaoLYaiknFqSktWcHufcqiun6ACK1" ] },
      { "delegate": "tz1a1J3AGjJTAyBqWWSqFuUazUDV2TtD6hMy",
        "reception_time": "2022-01-21T03:19:24.943-00:00",
        "included_in_blocks":
          [ "BLPXpTMHsdpA4yyqk1h3daxaoLYaiknFqSktWcHufcqiun6ACK1" ] },
      { "delegate": "tz1MQMiZHV8q4tTwUMWmS5Y3kaP6J2136iXr",
        "reception_time": "2022-01-21T03:19:24.951-00:00",
        "included_in_blocks":
          [ "BLPXpTMHsdpA4yyqk1h3daxaoLYaiknFqSktWcHufcqiun6ACK1" ] },
      { "delegate": "tz3gtoUxdudfBRcNY7iVdKPHCYYX6xdPpoRS",
        "reception_time": "2022-01-21T03:19:24.951-00:00",
        "included_in_blocks":
          [ "BLPXpTMHsdpA4yyqk1h3daxaoLYaiknFqSktWcHufcqiun6ACK1" ] },
      { "delegate": "tz1NEKxGEHsFufk87CVZcrqWu8o22qh46GK6",
        "reception_time": "2022-01-21T03:19:24.956-00:00",
        "included_in_blocks":
          [ "BLPXpTMHsdpA4yyqk1h3daxaoLYaiknFqSktWcHufcqiun6ACK1" ] },
      { "delegate": "tz1ZPh7XfUaJXUDvkrBxmS1BjEM1i62hiPpM",
        "reception_time": "2022-01-21T03:19:24.956-00:00",
        "included_in_blocks":
          [ "BLPXpTMHsdpA4yyqk1h3daxaoLYaiknFqSktWcHufcqiun6ACK1" ] },
      { "delegate": "tz3bTdwZinP8U1JmSweNzVKhmwafqWmFWRfk",
        "reception_time": "2022-01-21T03:19:24.969-00:00",
        "included_in_blocks":
          [ "BLPXpTMHsdpA4yyqk1h3daxaoLYaiknFqSktWcHufcqiun6ACK1" ] },
      { "delegate": "tz3QCNyySViKHmeSr45kzDxzchys7NiXCWoa",
        "reception_time": "2022-01-21T03:19:24.969-00:00",
        "included_in_blocks":
          [ "BLPXpTMHsdpA4yyqk1h3daxaoLYaiknFqSktWcHufcqiun6ACK1" ] },
      { "delegate": "tz3UoffC7FG7zfpmvmjUmUeAaHvzdcUvAj6r",
        "reception_time": "2022-01-21T03:19:24.977-00:00",
        "included_in_blocks":
          [ "BLPXpTMHsdpA4yyqk1h3daxaoLYaiknFqSktWcHufcqiun6ACK1" ] },
      { "delegate": "tz1WBfwbT66FC6BTLexc2BoyCCBM9LG7pnVW",
        "reception_time": "2022-01-21T03:19:24.977-00:00",
        "included_in_blocks":
          [ "BLPXpTMHsdpA4yyqk1h3daxaoLYaiknFqSktWcHufcqiun6ACK1" ] },
      { "delegate": "tz1fb7c66UwePkkfDXz4ajFaBP9hVNLdS7JJ",
        "reception_time": "2022-01-21T03:19:24.983-00:00",
        "included_in_blocks":
          [ "BLPXpTMHsdpA4yyqk1h3daxaoLYaiknFqSktWcHufcqiun6ACK1" ] },
      { "delegate": "tz2FCNBrERXtaTtNX6iimR1UJ5JSDxvdHM93",
        "reception_time": "2022-01-21T03:19:24.983-00:00",
        "included_in_blocks":
          [ "BLPXpTMHsdpA4yyqk1h3daxaoLYaiknFqSktWcHufcqiun6ACK1" ] },
      { "delegate": "tz1RCFbB9GpALpsZtu6J58sb74dm8qe6XBzv",
        "reception_time": "2022-01-21T03:19:24.992-00:00",
        "included_in_blocks":
          [ "BLPXpTMHsdpA4yyqk1h3daxaoLYaiknFqSktWcHufcqiun6ACK1" ] },
      { "delegate": "tz3VEZ4k6a4Wx42iyev6i2aVAptTRLEAivNN",
        "reception_time": "2022-01-21T03:19:24.992-00:00",
        "included_in_blocks":
          [ "BLPXpTMHsdpA4yyqk1h3daxaoLYaiknFqSktWcHufcqiun6ACK1" ] },
      { "delegate": "tz1PeZx7FXy7QRuMREGXGxeipb24RsMMzUNe",
        "reception_time": "2022-01-21T03:19:24.996-00:00",
        "included_in_blocks":
          [ "BLPXpTMHsdpA4yyqk1h3daxaoLYaiknFqSktWcHufcqiun6ACK1" ] },
      { "delegate": "tz1Tnjaxk6tbAeC2TmMApPh8UsrEVQvhHvx5",
        "reception_time": "2022-01-21T03:19:24.996-00:00",
        "included_in_blocks":
          [ "BLPXpTMHsdpA4yyqk1h3daxaoLYaiknFqSktWcHufcqiun6ACK1" ] },
      { "delegate": "tz1dRKU4FQ9QRRQPdaH4zCR6gmCmXfcvcgtB",
        "reception_time": "2022-01-21T03:19:25.001-00:00",
        "included_in_blocks":
          [ "BLPXpTMHsdpA4yyqk1h3daxaoLYaiknFqSktWcHufcqiun6ACK1" ] },
      { "delegate": "tz1gfArv665EUkSg2ojMBzcbfwuPxAvqPvjo",
        "reception_time": "2022-01-21T03:19:25.001-00:00",
        "included_in_blocks":
          [ "BLPXpTMHsdpA4yyqk1h3daxaoLYaiknFqSktWcHufcqiun6ACK1" ] },
      { "delegate": "tz1cig1EHyvZd7J2k389moM9PxVgPQvmFkvi",
        "reception_time": "2022-01-21T03:19:25.006-00:00",
        "included_in_blocks":
          [ "BLPXpTMHsdpA4yyqk1h3daxaoLYaiknFqSktWcHufcqiun6ACK1" ] },
      { "delegate": "tz1fwnfJNgiDACshK9avfRfFbMaXrs3ghoJa",
        "reception_time": "2022-01-21T03:19:25.006-00:00",
        "included_in_blocks":
          [ "BLPXpTMHsdpA4yyqk1h3daxaoLYaiknFqSktWcHufcqiun6ACK1" ] },
      { "delegate": "tz3NExpXn9aPNZPorRE4SdjJ2RGrfbJgMAaV",
        "reception_time": "2022-01-21T03:19:25.014-00:00",
        "included_in_blocks":
          [ "BLPXpTMHsdpA4yyqk1h3daxaoLYaiknFqSktWcHufcqiun6ACK1" ] },
      { "delegate": "tz1NortRftucvAkD1J58L32EhSVrQEWJCEnB",
        "reception_time": "2022-01-21T03:19:25.014-00:00",
        "included_in_blocks":
          [ "BLPXpTMHsdpA4yyqk1h3daxaoLYaiknFqSktWcHufcqiun6ACK1" ] },
      { "delegate": "tz1LmaFsWRkjr7QMCx5PtV6xTUz3AmEpKQiF",
        "reception_time": "2022-01-21T03:19:25.019-00:00",
        "included_in_blocks":
          [ "BLPXpTMHsdpA4yyqk1h3daxaoLYaiknFqSktWcHufcqiun6ACK1" ] },
      { "delegate": "tz1abmz7jiCV2GH2u81LRrGgAFFgvQgiDiaf",
        "reception_time": "2022-01-21T03:19:25.019-00:00",
        "included_in_blocks":
          [ "BLPXpTMHsdpA4yyqk1h3daxaoLYaiknFqSktWcHufcqiun6ACK1" ] },
      { "delegate": "tz1TwVimQy3BywXoSszdFXjT9bSTQrsZYo2u",
        "reception_time": "2022-01-21T03:19:25.022-00:00",
        "included_in_blocks":
          [ "BLPXpTMHsdpA4yyqk1h3daxaoLYaiknFqSktWcHufcqiun6ACK1" ] },
      { "delegate": "tz1WctSwL49BZtdWAQ75NY6vr4xsAx6oKdah",
        "reception_time": "2022-01-21T03:19:25.024-00:00",
        "included_in_blocks":
          [ "BLPXpTMHsdpA4yyqk1h3daxaoLYaiknFqSktWcHufcqiun6ACK1" ] },
      { "delegate": "tz1T7duV5gZWSTq4YpBGbXNLTfznCLDrFxvs",
        "reception_time": "2022-01-21T03:19:25.028-00:00",
        "included_in_blocks":
          [ "BLPXpTMHsdpA4yyqk1h3daxaoLYaiknFqSktWcHufcqiun6ACK1" ] },
      { "delegate": "tz1RQhNh7iB9CZA7i3ifTWNwiGYVffponfbB",
        "reception_time": "2022-01-21T03:19:25.028-00:00",
        "included_in_blocks":
          [ "BLPXpTMHsdpA4yyqk1h3daxaoLYaiknFqSktWcHufcqiun6ACK1" ] },
      { "delegate": "tz1Nf6tsK4G6bBqgSQERy4nUtkHNKUVdh7q1",
        "reception_time": "2022-01-21T03:19:25.032-00:00",
        "included_in_blocks":
          [ "BLPXpTMHsdpA4yyqk1h3daxaoLYaiknFqSktWcHufcqiun6ACK1" ] },
      { "delegate": "tz1RjoHc98dBoqaH2jawF62XNKh7YsHwbkEv",
        "reception_time": "2022-01-21T03:19:25.038-00:00",
        "included_in_blocks":
          [ "BLPXpTMHsdpA4yyqk1h3daxaoLYaiknFqSktWcHufcqiun6ACK1" ] },
      { "delegate": "tz1YhNsiRRU8aHNGg7NK3uuP6UDAyacJernB",
        "reception_time": "2022-01-21T03:19:25.038-00:00",
        "included_in_blocks":
          [ "BLPXpTMHsdpA4yyqk1h3daxaoLYaiknFqSktWcHufcqiun6ACK1" ] },
      { "delegate": "tz3bvNMQ95vfAYtG8193ymshqjSvmxiCUuR5",
        "reception_time": "2022-01-21T03:19:25.044-00:00",
        "included_in_blocks":
          [ "BLPXpTMHsdpA4yyqk1h3daxaoLYaiknFqSktWcHufcqiun6ACK1" ] },
      { "delegate": "tz3RDC3Jdn4j15J7bBHZd29EUee9gVB1CxD9",
        "reception_time": "2022-01-21T03:19:25.075-00:00",
        "included_in_blocks":
          [ "BLPXpTMHsdpA4yyqk1h3daxaoLYaiknFqSktWcHufcqiun6ACK1" ] },
      { "delegate": "tz1cYufsxHXJcvANhvS55h3aY32a9BAFB494",
        "reception_time": "2022-01-21T03:19:25.086-00:00",
        "included_in_blocks":
          [ "BLPXpTMHsdpA4yyqk1h3daxaoLYaiknFqSktWcHufcqiun6ACK1" ] },
      { "delegate": "tz3WMqdzXqRWXwyvj5Hp2H7QEepaUuS7vd9K",
        "reception_time": "2022-01-21T03:19:25.139-00:00",
        "included_in_blocks":
          [ "BLPXpTMHsdpA4yyqk1h3daxaoLYaiknFqSktWcHufcqiun6ACK1" ] },
      { "delegate": "tz3RB4aoyjov4KEVRbuhvQ1CKJgBJMWhaeB8",
        "reception_time": "2022-01-21T03:19:25.542-00:00",
        "included_in_blocks":
          [ "BLPXpTMHsdpA4yyqk1h3daxaoLYaiknFqSktWcHufcqiun6ACK1" ] },
      { "delegate": "tz1ZcTRk5uxD86EFEn1vvNffWWqJy7q5eVhc",
        "reception_time": "2022-01-21T03:19:25.636-00:00",
        "included_in_blocks":
          [ "BLPXpTMHsdpA4yyqk1h3daxaoLYaiknFqSktWcHufcqiun6ACK1" ] },
      { "delegate": "tz1ULYFhUY7Syao5NWr9jZ1pp3aw81QPiqjs",
        "reception_time": "2022-01-21T03:19:25.661-00:00",
        "included_in_blocks":
          [ "BLPXpTMHsdpA4yyqk1h3daxaoLYaiknFqSktWcHufcqiun6ACK1" ] },
      { "delegate": "tz1SohptP53wDPZhzTWzDUFAUcWF6DMBpaJV",
        "reception_time": "2022-01-21T03:19:26.096-00:00",
        "included_in_blocks":
          [ "BLPXpTMHsdpA4yyqk1h3daxaoLYaiknFqSktWcHufcqiun6ACK1" ] },
      { "delegate": "tz1g8vkmcde6sWKaG2NN9WKzCkDM6Rziq194",
        "reception_time": "2022-01-21T03:19:27.539-00:00",
        "included_in_blocks":
          [ "BLPXpTMHsdpA4yyqk1h3daxaoLYaiknFqSktWcHufcqiun6ACK1" ] },
      { "delegate": "tz1aRoaRhSpRYvFdyvgWLL6TGyRoGF51wDjM",
        "reception_time": "2022-01-21T03:19:27.542-00:00",
        "included_in_blocks":
          [ "BLPXpTMHsdpA4yyqk1h3daxaoLYaiknFqSktWcHufcqiun6ACK1" ] },
      { "delegate": "tz1W5VkdB5s7ENMESVBtwyt9kyvLqPcUczRT",
        "reception_time": "2022-01-21T03:19:31.630-00:00",
        "included_in_blocks":
          [ "BLPXpTMHsdpA4yyqk1h3daxaoLYaiknFqSktWcHufcqiun6ACK1" ] } ] }