{ "blocks":
    [ { "hash": "BMasCsjdzVvctbHa9c9ZwzAvx2EoAgXULQjJ1SDsM98LxdU39CP",
        "delegate": "tz1irJKkXS2DBWkU1NnmFQx1c1L7pbGg4yhk",
        "reception_time": "2022-01-21T05:46:25.562-00:00",
        "timestamp": "2022-01-21T05:46:20Z" } ],
  "endorsements":
    [ { "delegate": "tz1ibcPVGK4Y8pcW4BYUsojiHoBKnZbyDGrX" },
      { "delegate": "tz1awXW7wuXy21c66vBudMXQVAPgRnqqwgTH" },
      { "delegate": "tz1TRqbYbUf2GyrjErf3hBzgBJPzW8y36qEs" },
      { "delegate": "tz1MJx9vhaNRSimcuXPK2rW4fLccQnDAnVKJ" },
      { "delegate": "tz1S8e9GgdZG78XJRB3NqabfWeM37GnhZMWQ",
        "reception_time": "2022-01-21T05:46:25.563-00:00",
        "errors":
          [ { "kind": "temporary",
              "id": "proto.011-PtHangz2.prefilter.outdated_endorsement" } ],
        "included_in_blocks":
          [ "BLCfUXvWR8RnsuWivt37iAZN3H6KWer8swaKwRNHP4djV7tvoNe" ] },
      { "delegate": "tz1NpWrAyDL9k2Lmnyxcgr9xuJakbBxdq7FB",
        "reception_time": "2022-01-21T05:46:43.871-00:00",
        "included_in_blocks":
          [ "BLCfUXvWR8RnsuWivt37iAZN3H6KWer8swaKwRNHP4djV7tvoNe" ] },
      { "delegate": "tz1PFeoTuFen8jAMRHajBySNyCwLmY5RqF9M",
        "reception_time": "2022-01-21T05:46:29.852-00:00",
        "included_in_blocks":
          [ "BLCfUXvWR8RnsuWivt37iAZN3H6KWer8swaKwRNHP4djV7tvoNe" ] },
      { "delegate": "tz1h4ar7F5wC6Ae2cfkrmrRP6nrPk9gGFaxg",
        "reception_time": "2022-01-21T05:46:29.378-00:00",
        "included_in_blocks":
          [ "BLCfUXvWR8RnsuWivt37iAZN3H6KWer8swaKwRNHP4djV7tvoNe" ] },
      { "delegate": "tz3UoffC7FG7zfpmvmjUmUeAaHvzdcUvAj6r",
        "reception_time": "2022-01-21T05:46:29.276-00:00",
        "included_in_blocks":
          [ "BLCfUXvWR8RnsuWivt37iAZN3H6KWer8swaKwRNHP4djV7tvoNe" ] },
      { "delegate": "tz3NExpXn9aPNZPorRE4SdjJ2RGrfbJgMAaV",
        "reception_time": "2022-01-21T05:46:29.183-00:00",
        "included_in_blocks":
          [ "BLCfUXvWR8RnsuWivt37iAZN3H6KWer8swaKwRNHP4djV7tvoNe" ] },
      { "delegate": "tz1g8vkmcde6sWKaG2NN9WKzCkDM6Rziq194",
        "reception_time": "2022-01-21T05:46:29.144-00:00",
        "included_in_blocks":
          [ "BLCfUXvWR8RnsuWivt37iAZN3H6KWer8swaKwRNHP4djV7tvoNe" ] },
      { "delegate": "tz1dRKU4FQ9QRRQPdaH4zCR6gmCmXfcvcgtB",
        "reception_time": "2022-01-21T05:46:29.134-00:00",
        "included_in_blocks":
          [ "BLCfUXvWR8RnsuWivt37iAZN3H6KWer8swaKwRNHP4djV7tvoNe" ] },
      { "delegate": "tz1RjoHc98dBoqaH2jawF62XNKh7YsHwbkEv",
        "reception_time": "2022-01-21T05:46:28.597-00:00",
        "included_in_blocks":
          [ "BLCfUXvWR8RnsuWivt37iAZN3H6KWer8swaKwRNHP4djV7tvoNe" ] },
      { "delegate": "tz1T7duV5gZWSTq4YpBGbXNLTfznCLDrFxvs",
        "reception_time": "2022-01-21T05:46:28.713-00:00",
        "included_in_blocks":
          [ "BLCfUXvWR8RnsuWivt37iAZN3H6KWer8swaKwRNHP4djV7tvoNe" ] },
      { "delegate": "tz1Nf6tsK4G6bBqgSQERy4nUtkHNKUVdh7q1",
        "reception_time": "2022-01-21T05:46:28.398-00:00",
        "included_in_blocks":
          [ "BLCfUXvWR8RnsuWivt37iAZN3H6KWer8swaKwRNHP4djV7tvoNe" ] },
      { "delegate": "tz3VEZ4k6a4Wx42iyev6i2aVAptTRLEAivNN",
        "reception_time": "2022-01-21T05:46:28.340-00:00",
        "included_in_blocks":
          [ "BLCfUXvWR8RnsuWivt37iAZN3H6KWer8swaKwRNHP4djV7tvoNe" ] },
      { "delegate": "tz3WMqdzXqRWXwyvj5Hp2H7QEepaUuS7vd9K",
        "reception_time": "2022-01-21T05:46:28.316-00:00",
        "included_in_blocks":
          [ "BLCfUXvWR8RnsuWivt37iAZN3H6KWer8swaKwRNHP4djV7tvoNe" ] },
      { "delegate": "tz1aRoaRhSpRYvFdyvgWLL6TGyRoGF51wDjM",
        "reception_time": "2022-01-21T05:46:28.207-00:00",
        "included_in_blocks":
          [ "BLCfUXvWR8RnsuWivt37iAZN3H6KWer8swaKwRNHP4djV7tvoNe" ] },
      { "delegate": "tz1Vd1rXpV8hTHbFXCXN3c3qzCsgcU5BZw1e",
        "reception_time": "2022-01-21T05:46:28.143-00:00",
        "included_in_blocks":
          [ "BLCfUXvWR8RnsuWivt37iAZN3H6KWer8swaKwRNHP4djV7tvoNe" ] },
      { "delegate": "tz3bvNMQ95vfAYtG8193ymshqjSvmxiCUuR5",
        "reception_time": "2022-01-21T05:46:28.269-00:00",
        "included_in_blocks":
          [ "BLCfUXvWR8RnsuWivt37iAZN3H6KWer8swaKwRNHP4djV7tvoNe" ] },
      { "delegate": "tz3NDpRj6WBrJPikcPVHRBEjWKxFw3c6eQPS",
        "reception_time": "2022-01-21T05:46:27.911-00:00",
        "included_in_blocks":
          [ "BLCfUXvWR8RnsuWivt37iAZN3H6KWer8swaKwRNHP4djV7tvoNe" ] },
      { "delegate": "tz1KfEsrtDaA1sX7vdM4qmEPWuSytuqCDp5j",
        "reception_time": "2022-01-21T05:46:27.924-00:00",
        "included_in_blocks":
          [ "BLCfUXvWR8RnsuWivt37iAZN3H6KWer8swaKwRNHP4djV7tvoNe" ] },
      { "delegate": "tz1NEKxGEHsFufk87CVZcrqWu8o22qh46GK6",
        "reception_time": "2022-01-21T05:46:27.883-00:00",
        "included_in_blocks":
          [ "BLCfUXvWR8RnsuWivt37iAZN3H6KWer8swaKwRNHP4djV7tvoNe" ] },
      { "delegate": "tz1SYq214SCBy9naR6cvycQsYcUGpBqQAE8d",
        "reception_time": "2022-01-21T05:46:27.758-00:00",
        "included_in_blocks":
          [ "BLCfUXvWR8RnsuWivt37iAZN3H6KWer8swaKwRNHP4djV7tvoNe" ] },
      { "delegate": "tz1PeZx7FXy7QRuMREGXGxeipb24RsMMzUNe",
        "reception_time": "2022-01-21T05:46:27.723-00:00",
        "included_in_blocks":
          [ "BLCfUXvWR8RnsuWivt37iAZN3H6KWer8swaKwRNHP4djV7tvoNe" ] },
      { "delegate": "tz1LmaFsWRkjr7QMCx5PtV6xTUz3AmEpKQiF",
        "reception_time": "2022-01-21T05:46:27.774-00:00",
        "included_in_blocks":
          [ "BLCfUXvWR8RnsuWivt37iAZN3H6KWer8swaKwRNHP4djV7tvoNe" ] },
      { "delegate": "tz1TEc75UKXv4W5cwi14Na3NtqFD51yKQi7h",
        "reception_time": "2022-01-21T05:46:27.840-00:00",
        "included_in_blocks":
          [ "BLCfUXvWR8RnsuWivt37iAZN3H6KWer8swaKwRNHP4djV7tvoNe" ] },
      { "delegate": "tz1dNVDWPf3Q59SdJqnjdnu277iyvReiRS9M",
        "reception_time": "2022-01-21T05:46:27.631-00:00",
        "included_in_blocks":
          [ "BLCfUXvWR8RnsuWivt37iAZN3H6KWer8swaKwRNHP4djV7tvoNe" ] },
      { "delegate": "tz1bxVgPCiveFHSand7zn22S8ZBtvNQbqgqU",
        "reception_time": "2022-01-21T05:46:27.603-00:00",
        "included_in_blocks":
          [ "BLCfUXvWR8RnsuWivt37iAZN3H6KWer8swaKwRNHP4djV7tvoNe" ] },
      { "delegate": "tz1WBfwbT66FC6BTLexc2BoyCCBM9LG7pnVW",
        "reception_time": "2022-01-21T05:46:27.547-00:00",
        "included_in_blocks":
          [ "BLCfUXvWR8RnsuWivt37iAZN3H6KWer8swaKwRNHP4djV7tvoNe" ] },
      { "delegate": "tz1ei4WtWEMEJekSv8qDnu9PExG6Q8HgRGr3",
        "reception_time": "2022-01-21T05:46:27.418-00:00",
        "included_in_blocks":
          [ "BLCfUXvWR8RnsuWivt37iAZN3H6KWer8swaKwRNHP4djV7tvoNe" ] },
      { "delegate": "tz1abmz7jiCV2GH2u81LRrGgAFFgvQgiDiaf",
        "reception_time": "2022-01-21T05:46:27.394-00:00",
        "included_in_blocks":
          [ "BLCfUXvWR8RnsuWivt37iAZN3H6KWer8swaKwRNHP4djV7tvoNe" ] },
      { "delegate": "tz1NSDFKuRyzHxpfG1AMkyCwEiZ52cbR2mRW",
        "reception_time": "2022-01-21T05:46:27.446-00:00",
        "included_in_blocks":
          [ "BLCfUXvWR8RnsuWivt37iAZN3H6KWer8swaKwRNHP4djV7tvoNe" ] },
      { "delegate": "tz1gfArv665EUkSg2ojMBzcbfwuPxAvqPvjo",
        "reception_time": "2022-01-21T05:46:27.613-00:00",
        "included_in_blocks":
          [ "BLCfUXvWR8RnsuWivt37iAZN3H6KWer8swaKwRNHP4djV7tvoNe" ] },
      { "delegate": "tz1fikAGfa1MTxX2oJ7UCtvDpVKeH4KTp1UY",
        "reception_time": "2022-01-21T05:46:27.297-00:00",
        "included_in_blocks":
          [ "BLCfUXvWR8RnsuWivt37iAZN3H6KWer8swaKwRNHP4djV7tvoNe" ] },
      { "delegate": "tz1fb7c66UwePkkfDXz4ajFaBP9hVNLdS7JJ",
        "reception_time": "2022-01-21T05:46:27.279-00:00",
        "included_in_blocks":
          [ "BLCfUXvWR8RnsuWivt37iAZN3H6KWer8swaKwRNHP4djV7tvoNe" ] },
      { "delegate": "tz3bTdwZinP8U1JmSweNzVKhmwafqWmFWRfk",
        "reception_time": "2022-01-21T05:46:27.261-00:00",
        "included_in_blocks":
          [ "BLCfUXvWR8RnsuWivt37iAZN3H6KWer8swaKwRNHP4djV7tvoNe" ] },
      { "delegate": "tz2FCNBrERXtaTtNX6iimR1UJ5JSDxvdHM93",
        "reception_time": "2022-01-21T05:46:27.200-00:00",
        "included_in_blocks":
          [ "BLCfUXvWR8RnsuWivt37iAZN3H6KWer8swaKwRNHP4djV7tvoNe" ] },
      { "delegate": "tz1MQMiZHV8q4tTwUMWmS5Y3kaP6J2136iXr",
        "reception_time": "2022-01-21T05:46:27.154-00:00",
        "included_in_blocks":
          [ "BLCfUXvWR8RnsuWivt37iAZN3H6KWer8swaKwRNHP4djV7tvoNe" ] },
      { "delegate": "tz1S8MNvuFEUsWgjHvi3AxibRBf388NhT1q2",
        "reception_time": "2022-01-21T05:46:27.316-00:00",
        "included_in_blocks":
          [ "BLCfUXvWR8RnsuWivt37iAZN3H6KWer8swaKwRNHP4djV7tvoNe" ] },
      { "delegate": "tz1VmiY38m3y95HqQLjMwqnMS7sdMfGomzKi",
        "reception_time": "2022-01-21T05:46:27.160-00:00",
        "included_in_blocks":
          [ "BLCfUXvWR8RnsuWivt37iAZN3H6KWer8swaKwRNHP4djV7tvoNe" ] },
      { "delegate": "tz1NortRftucvAkD1J58L32EhSVrQEWJCEnB",
        "reception_time": "2022-01-21T05:46:27.121-00:00",
        "included_in_blocks":
          [ "BLCfUXvWR8RnsuWivt37iAZN3H6KWer8swaKwRNHP4djV7tvoNe" ] },
      { "delegate": "tz3RB4aoyjov4KEVRbuhvQ1CKJgBJMWhaeB8",
        "reception_time": "2022-01-21T05:46:27.040-00:00",
        "included_in_blocks":
          [ "BLCfUXvWR8RnsuWivt37iAZN3H6KWer8swaKwRNHP4djV7tvoNe" ] },
      { "delegate": "tz3RDC3Jdn4j15J7bBHZd29EUee9gVB1CxD9",
        "reception_time": "2022-01-21T05:46:26.893-00:00",
        "included_in_blocks":
          [ "BLCfUXvWR8RnsuWivt37iAZN3H6KWer8swaKwRNHP4djV7tvoNe" ] },
      { "delegate": "tz1RCFbB9GpALpsZtu6J58sb74dm8qe6XBzv",
        "reception_time": "2022-01-21T05:46:26.871-00:00",
        "included_in_blocks":
          [ "BLCfUXvWR8RnsuWivt37iAZN3H6KWer8swaKwRNHP4djV7tvoNe" ] },
      { "delegate": "tz1WCd2jm4uSt4vntk4vSuUWoZQGhLcDuR9q",
        "reception_time": "2022-01-21T05:46:26.919-00:00",
        "included_in_blocks":
          [ "BLCfUXvWR8RnsuWivt37iAZN3H6KWer8swaKwRNHP4djV7tvoNe" ] },
      { "delegate": "tz1Ldzz6k1BHdhuKvAtMRX7h5kJSMHESMHLC",
        "reception_time": "2022-01-21T05:46:26.776-00:00",
        "included_in_blocks":
          [ "BLCfUXvWR8RnsuWivt37iAZN3H6KWer8swaKwRNHP4djV7tvoNe" ] },
      { "delegate": "tz3S6BBeKgJGXxvLyZ1xzXzMPn11nnFtq5L9",
        "reception_time": "2022-01-21T05:46:26.740-00:00",
        "included_in_blocks":
          [ "BLCfUXvWR8RnsuWivt37iAZN3H6KWer8swaKwRNHP4djV7tvoNe" ] },
      { "delegate": "tz3QT9dHYKDqh563chVa6za8526ys1UKfRfL",
        "reception_time": "2022-01-21T05:46:26.770-00:00",
        "included_in_blocks":
          [ "BLCfUXvWR8RnsuWivt37iAZN3H6KWer8swaKwRNHP4djV7tvoNe" ] },
      { "delegate": "tz1UJvHTgpVzcKWhTazGxVcn5wsHru5Gietg",
        "reception_time": "2022-01-21T05:46:26.899-00:00",
        "included_in_blocks":
          [ "BLCfUXvWR8RnsuWivt37iAZN3H6KWer8swaKwRNHP4djV7tvoNe" ] },
      { "delegate": "tz1Kt4P8BCaP93AEV4eA7gmpRryWt5hznjCP",
        "reception_time": "2022-01-21T05:46:26.720-00:00",
        "included_in_blocks":
          [ "BLCfUXvWR8RnsuWivt37iAZN3H6KWer8swaKwRNHP4djV7tvoNe" ] },
      { "delegate": "tz3iJu5vrKZcsqRPs8yJ61UDoeEXZmtro4qh",
        "reception_time": "2022-01-21T05:46:26.770-00:00",
        "included_in_blocks":
          [ "BLCfUXvWR8RnsuWivt37iAZN3H6KWer8swaKwRNHP4djV7tvoNe" ] },
      { "delegate": "tz3RKYFsLuQzKBtmYuLNas7uMu3AsYd4QdsA",
        "reception_time": "2022-01-21T05:46:26.451-00:00",
        "included_in_blocks":
          [ "BLCfUXvWR8RnsuWivt37iAZN3H6KWer8swaKwRNHP4djV7tvoNe" ] },
      { "delegate": "tz3gtoUxdudfBRcNY7iVdKPHCYYX6xdPpoRS",
        "reception_time": "2022-01-21T05:46:26.588-00:00",
        "included_in_blocks":
          [ "BLCfUXvWR8RnsuWivt37iAZN3H6KWer8swaKwRNHP4djV7tvoNe" ] },
      { "delegate": "tz3hw2kqXhLUvY65ca1eety2oQTpAvd34R9Q",
        "reception_time": "2022-01-21T05:46:26.510-00:00",
        "included_in_blocks":
          [ "BLCfUXvWR8RnsuWivt37iAZN3H6KWer8swaKwRNHP4djV7tvoNe" ] },
      { "delegate": "tz3QSGPoRp3Kn7n3vY24eYeu3Peuqo45LQ4D",
        "reception_time": "2022-01-21T05:46:26.588-00:00",
        "included_in_blocks":
          [ "BLCfUXvWR8RnsuWivt37iAZN3H6KWer8swaKwRNHP4djV7tvoNe" ] },
      { "delegate": "tz3ZbP2pM3nwvXztbuMJwJnDvV5xdpU8UkkD",
        "reception_time": "2022-01-21T05:46:26.562-00:00",
        "included_in_blocks":
          [ "BLCfUXvWR8RnsuWivt37iAZN3H6KWer8swaKwRNHP4djV7tvoNe" ] },
      { "delegate": "tz3NxTnke1acr8o3h5y9ytf5awQBGNJUKzVU",
        "reception_time": "2022-01-21T05:46:26.461-00:00",
        "included_in_blocks":
          [ "BLCfUXvWR8RnsuWivt37iAZN3H6KWer8swaKwRNHP4djV7tvoNe" ] },
      { "delegate": "tz1TRspM5SeZpaQUhzByXbEvqKF1vnCM2YTK",
        "reception_time": "2022-01-21T05:46:26.416-00:00",
        "included_in_blocks":
          [ "BLCfUXvWR8RnsuWivt37iAZN3H6KWer8swaKwRNHP4djV7tvoNe" ] },
      { "delegate": "tz1NMdMmWZN8QPB8pY4ddncACDg1cHi1xD2e",
        "reception_time": "2022-01-21T05:46:26.551-00:00",
        "included_in_blocks":
          [ "BLCfUXvWR8RnsuWivt37iAZN3H6KWer8swaKwRNHP4djV7tvoNe" ] },
      { "delegate": "tz1ZPh7XfUaJXUDvkrBxmS1BjEM1i62hiPpM",
        "reception_time": "2022-01-21T05:46:26.394-00:00",
        "included_in_blocks":
          [ "BLCfUXvWR8RnsuWivt37iAZN3H6KWer8swaKwRNHP4djV7tvoNe" ] },
      { "delegate": "tz3QCNyySViKHmeSr45kzDxzchys7NiXCWoa",
        "reception_time": "2022-01-21T05:46:26.414-00:00",
        "included_in_blocks":
          [ "BLCfUXvWR8RnsuWivt37iAZN3H6KWer8swaKwRNHP4djV7tvoNe" ] },
      { "delegate": "tz1cX93Q3KsiTADpCC4f12TBvAmS5tw7CW19",
        "reception_time": "2022-01-21T05:46:26.331-00:00",
        "included_in_blocks":
          [ "BLCfUXvWR8RnsuWivt37iAZN3H6KWer8swaKwRNHP4djV7tvoNe" ] },
      { "delegate": "tz1VQnqCCqX4K5sP3FNkVSNKTdCAMJDd3E1n",
        "reception_time": "2022-01-21T05:46:26.492-00:00",
        "included_in_blocks":
          [ "BLCfUXvWR8RnsuWivt37iAZN3H6KWer8swaKwRNHP4djV7tvoNe" ] },
      { "delegate": "tz1gUNyn3hmnEWqkusWPzxRaon1cs7ndWh7h",
        "reception_time": "2022-01-21T05:46:26.468-00:00",
        "included_in_blocks":
          [ "BLCfUXvWR8RnsuWivt37iAZN3H6KWer8swaKwRNHP4djV7tvoNe" ] },
      { "delegate": "tz1beersuEDv8Z7ngQ825xfbaJNS2EhXnyHR",
        "reception_time": "2022-01-21T05:46:26.315-00:00",
        "included_in_blocks":
          [ "BLCfUXvWR8RnsuWivt37iAZN3H6KWer8swaKwRNHP4djV7tvoNe" ] },
      { "delegate": "tz1P2Po7YM526ughEsRbY4oR9zaUPDZjxFrb",
        "reception_time": "2022-01-21T05:46:26.311-00:00",
        "included_in_blocks":
          [ "BLCfUXvWR8RnsuWivt37iAZN3H6KWer8swaKwRNHP4djV7tvoNe" ] },
      { "delegate": "tz1irJKkXS2DBWkU1NnmFQx1c1L7pbGg4yhk",
        "reception_time": "2022-01-21T05:46:26.302-00:00",
        "included_in_blocks":
          [ "BLCfUXvWR8RnsuWivt37iAZN3H6KWer8swaKwRNHP4djV7tvoNe" ] },
      { "delegate": "tz1Scdr2HsZiQjc7bHMeBbmDRXYVvdhjJbBh",
        "reception_time": "2022-01-21T05:46:26.307-00:00",
        "included_in_blocks":
          [ "BLCfUXvWR8RnsuWivt37iAZN3H6KWer8swaKwRNHP4djV7tvoNe" ] },
      { "delegate": "tz1eEnQhbwf6trb8Q8mPb2RaPkNk2rN7BKi8",
        "reception_time": "2022-01-21T05:46:26.307-00:00",
        "included_in_blocks":
          [ "BLCfUXvWR8RnsuWivt37iAZN3H6KWer8swaKwRNHP4djV7tvoNe" ] } ] }