{ "blocks":
    [ { "hash": "BLwUdoCmFUBhBmzxc6JULm9zJWwVd6GesmnH6jcY1WReWgJLstV",
        "delegate": "tz2FCNBrERXtaTtNX6iimR1UJ5JSDxvdHM93",
        "reception_time": "2022-01-20T23:58:16.623-00:00",
        "timestamp": "2022-01-20T23:58:10Z" } ],
  "endorsements":
    [ { "delegate": "tz1awXW7wuXy21c66vBudMXQVAPgRnqqwgTH" },
      { "delegate": "tz1TRqbYbUf2GyrjErf3hBzgBJPzW8y36qEs" },
      { "delegate": "tz1Kt4P8BCaP93AEV4eA7gmpRryWt5hznjCP",
        "reception_time": "2022-01-20T23:58:16.583-00:00",
        "errors":
          [ { "kind": "temporary",
              "id": "proto.011-PtHangz2.prefilter.outdated_endorsement" } ],
        "included_in_blocks":
          [ "BMXhEpb5ziVeCbABpcNLpAFraPTeuPT3ZeoLhLrFMt6G94XTsyS" ] },
      { "delegate": "tz1ZPh7XfUaJXUDvkrBxmS1BjEM1i62hiPpM",
        "reception_time": "2022-01-20T23:58:16.496-00:00",
        "errors":
          [ { "kind": "temporary",
              "id": "proto.011-PtHangz2.prefilter.outdated_endorsement" } ],
        "included_in_blocks":
          [ "BMXhEpb5ziVeCbABpcNLpAFraPTeuPT3ZeoLhLrFMt6G94XTsyS" ] },
      { "delegate": "tz1eEnQhbwf6trb8Q8mPb2RaPkNk2rN7BKi8",
        "reception_time": "2022-01-20T23:58:16.328-00:00",
        "errors":
          [ { "kind": "temporary",
              "id": "proto.011-PtHangz2.prefilter.outdated_endorsement" } ],
        "included_in_blocks":
          [ "BMXhEpb5ziVeCbABpcNLpAFraPTeuPT3ZeoLhLrFMt6G94XTsyS" ] },
      { "delegate": "tz1TXzyaKUA8wsWefdSnyaYFnV2M3vCV7er9",
        "reception_time": "2022-01-20T23:58:16.290-00:00",
        "errors":
          [ { "kind": "temporary",
              "id": "proto.011-PtHangz2.prefilter.outdated_endorsement" } ],
        "included_in_blocks":
          [ "BMXhEpb5ziVeCbABpcNLpAFraPTeuPT3ZeoLhLrFMt6G94XTsyS" ] },
      { "delegate": "tz1S8e9GgdZG78XJRB3NqabfWeM37GnhZMWQ",
        "reception_time": "2022-01-20T23:58:15.840-00:00",
        "errors":
          [ { "kind": "temporary",
              "id": "proto.011-PtHangz2.prefilter.outdated_endorsement" } ],
        "included_in_blocks":
          [ "BMXhEpb5ziVeCbABpcNLpAFraPTeuPT3ZeoLhLrFMt6G94XTsyS" ] },
      { "delegate": "tz1NpWrAyDL9k2Lmnyxcgr9xuJakbBxdq7FB",
        "reception_time": "2022-01-20T23:58:27.970-00:00",
        "included_in_blocks":
          [ "BMXhEpb5ziVeCbABpcNLpAFraPTeuPT3ZeoLhLrFMt6G94XTsyS" ] },
      { "delegate": "tz3UoffC7FG7zfpmvmjUmUeAaHvzdcUvAj6r",
        "reception_time": "2022-01-20T23:58:20.013-00:00",
        "included_in_blocks":
          [ "BMXhEpb5ziVeCbABpcNLpAFraPTeuPT3ZeoLhLrFMt6G94XTsyS" ] },
      { "delegate": "tz1ZcTRk5uxD86EFEn1vvNffWWqJy7q5eVhc",
        "reception_time": "2022-01-20T23:58:20.165-00:00",
        "included_in_blocks":
          [ "BMXhEpb5ziVeCbABpcNLpAFraPTeuPT3ZeoLhLrFMt6G94XTsyS" ] },
      { "delegate": "tz1ULYFhUY7Syao5NWr9jZ1pp3aw81QPiqjs",
        "reception_time": "2022-01-20T23:58:19.872-00:00",
        "included_in_blocks":
          [ "BMXhEpb5ziVeCbABpcNLpAFraPTeuPT3ZeoLhLrFMt6G94XTsyS" ] },
      { "delegate": "tz1b9MYGrbN1NAxphLEsPPNT9JC7aNFc5nA4",
        "reception_time": "2022-01-20T23:58:19.981-00:00",
        "included_in_blocks":
          [ "BMXhEpb5ziVeCbABpcNLpAFraPTeuPT3ZeoLhLrFMt6G94XTsyS" ] },
      { "delegate": "tz1aRoaRhSpRYvFdyvgWLL6TGyRoGF51wDjM",
        "reception_time": "2022-01-20T23:58:19.827-00:00",
        "included_in_blocks":
          [ "BMXhEpb5ziVeCbABpcNLpAFraPTeuPT3ZeoLhLrFMt6G94XTsyS" ] },
      { "delegate": "tz3NExpXn9aPNZPorRE4SdjJ2RGrfbJgMAaV",
        "reception_time": "2022-01-20T23:58:19.821-00:00",
        "included_in_blocks":
          [ "BMXhEpb5ziVeCbABpcNLpAFraPTeuPT3ZeoLhLrFMt6G94XTsyS" ] },
      { "delegate": "tz1dRKU4FQ9QRRQPdaH4zCR6gmCmXfcvcgtB",
        "reception_time": "2022-01-20T23:58:19.466-00:00",
        "included_in_blocks":
          [ "BMXhEpb5ziVeCbABpcNLpAFraPTeuPT3ZeoLhLrFMt6G94XTsyS" ] },
      { "delegate": "tz1cYufsxHXJcvANhvS55h3aY32a9BAFB494",
        "reception_time": "2022-01-20T23:58:19.311-00:00",
        "included_in_blocks":
          [ "BMXhEpb5ziVeCbABpcNLpAFraPTeuPT3ZeoLhLrFMt6G94XTsyS" ] },
      { "delegate": "tz3WMqdzXqRWXwyvj5Hp2H7QEepaUuS7vd9K",
        "reception_time": "2022-01-20T23:58:19.073-00:00",
        "included_in_blocks":
          [ "BMXhEpb5ziVeCbABpcNLpAFraPTeuPT3ZeoLhLrFMt6G94XTsyS" ] },
      { "delegate": "tz1NEKxGEHsFufk87CVZcrqWu8o22qh46GK6",
        "reception_time": "2022-01-20T23:58:19.012-00:00",
        "included_in_blocks":
          [ "BMXhEpb5ziVeCbABpcNLpAFraPTeuPT3ZeoLhLrFMt6G94XTsyS" ] },
      { "delegate": "tz3RDC3Jdn4j15J7bBHZd29EUee9gVB1CxD9",
        "reception_time": "2022-01-20T23:58:19.054-00:00",
        "included_in_blocks":
          [ "BMXhEpb5ziVeCbABpcNLpAFraPTeuPT3ZeoLhLrFMt6G94XTsyS" ] },
      { "delegate": "tz1NoYvKjXTzTk54VpLxBfouJ33J8jwKPPvw",
        "reception_time": "2022-01-20T23:58:18.705-00:00",
        "included_in_blocks":
          [ "BMXhEpb5ziVeCbABpcNLpAFraPTeuPT3ZeoLhLrFMt6G94XTsyS" ] },
      { "delegate": "tz3VEZ4k6a4Wx42iyev6i2aVAptTRLEAivNN",
        "reception_time": "2022-01-20T23:58:18.701-00:00",
        "included_in_blocks":
          [ "BMXhEpb5ziVeCbABpcNLpAFraPTeuPT3ZeoLhLrFMt6G94XTsyS" ] },
      { "delegate": "tz1a1J3AGjJTAyBqWWSqFuUazUDV2TtD6hMy",
        "reception_time": "2022-01-20T23:58:18.692-00:00",
        "included_in_blocks":
          [ "BMXhEpb5ziVeCbABpcNLpAFraPTeuPT3ZeoLhLrFMt6G94XTsyS" ] },
      { "delegate": "tz1PeZx7FXy7QRuMREGXGxeipb24RsMMzUNe",
        "reception_time": "2022-01-20T23:58:18.462-00:00",
        "included_in_blocks":
          [ "BMXhEpb5ziVeCbABpcNLpAFraPTeuPT3ZeoLhLrFMt6G94XTsyS" ] },
      { "delegate": "tz3gLTu4Yxj8tPAcriQVUdxv6BY9QyvzU1az",
        "reception_time": "2022-01-20T23:58:18.457-00:00",
        "included_in_blocks":
          [ "BMXhEpb5ziVeCbABpcNLpAFraPTeuPT3ZeoLhLrFMt6G94XTsyS" ] },
      { "delegate": "tz1RjoHc98dBoqaH2jawF62XNKh7YsHwbkEv",
        "reception_time": "2022-01-20T23:58:19.029-00:00",
        "included_in_blocks":
          [ "BMXhEpb5ziVeCbABpcNLpAFraPTeuPT3ZeoLhLrFMt6G94XTsyS" ] },
      { "delegate": "tz1Nf6tsK4G6bBqgSQERy4nUtkHNKUVdh7q1",
        "reception_time": "2022-01-20T23:58:18.300-00:00",
        "included_in_blocks":
          [ "BMXhEpb5ziVeCbABpcNLpAFraPTeuPT3ZeoLhLrFMt6G94XTsyS" ] },
      { "delegate": "tz1LwEsi8GVhtpCcxBHgQAgM4XrdjsJLmYc8",
        "reception_time": "2022-01-20T23:58:18.216-00:00",
        "included_in_blocks":
          [ "BMXhEpb5ziVeCbABpcNLpAFraPTeuPT3ZeoLhLrFMt6G94XTsyS" ] },
      { "delegate": "tz3NDpRj6WBrJPikcPVHRBEjWKxFw3c6eQPS",
        "reception_time": "2022-01-20T23:58:18.481-00:00",
        "included_in_blocks":
          [ "BMXhEpb5ziVeCbABpcNLpAFraPTeuPT3ZeoLhLrFMt6G94XTsyS" ] },
      { "delegate": "tz1WBfwbT66FC6BTLexc2BoyCCBM9LG7pnVW",
        "reception_time": "2022-01-20T23:58:18.518-00:00",
        "included_in_blocks":
          [ "BMXhEpb5ziVeCbABpcNLpAFraPTeuPT3ZeoLhLrFMt6G94XTsyS" ] },
      { "delegate": "tz1SYq214SCBy9naR6cvycQsYcUGpBqQAE8d",
        "reception_time": "2022-01-20T23:58:18.166-00:00",
        "included_in_blocks":
          [ "BMXhEpb5ziVeCbABpcNLpAFraPTeuPT3ZeoLhLrFMt6G94XTsyS" ] },
      { "delegate": "tz1P2Po7YM526ughEsRbY4oR9zaUPDZjxFrb",
        "reception_time": "2022-01-20T23:58:18.122-00:00",
        "included_in_blocks":
          [ "BMXhEpb5ziVeCbABpcNLpAFraPTeuPT3ZeoLhLrFMt6G94XTsyS" ] },
      { "delegate": "tz1Tnjaxk6tbAeC2TmMApPh8UsrEVQvhHvx5",
        "reception_time": "2022-01-20T23:58:18.315-00:00",
        "included_in_blocks":
          [ "BMXhEpb5ziVeCbABpcNLpAFraPTeuPT3ZeoLhLrFMt6G94XTsyS" ] },
      { "delegate": "tz1dNVDWPf3Q59SdJqnjdnu277iyvReiRS9M",
        "reception_time": "2022-01-20T23:58:18.388-00:00",
        "included_in_blocks":
          [ "BMXhEpb5ziVeCbABpcNLpAFraPTeuPT3ZeoLhLrFMt6G94XTsyS" ] },
      { "delegate": "tz1KfEsrtDaA1sX7vdM4qmEPWuSytuqCDp5j",
        "reception_time": "2022-01-20T23:58:18.222-00:00",
        "included_in_blocks":
          [ "BMXhEpb5ziVeCbABpcNLpAFraPTeuPT3ZeoLhLrFMt6G94XTsyS" ] },
      { "delegate": "tz1V4qCyvPKZ5UeqdH14HN42rxvNPQfc9UZg",
        "reception_time": "2022-01-20T23:58:18.183-00:00",
        "included_in_blocks":
          [ "BMXhEpb5ziVeCbABpcNLpAFraPTeuPT3ZeoLhLrFMt6G94XTsyS" ] },
      { "delegate": "tz1R4PuhxUxBBZhfLJDx2nNjbr7WorAPX1oC",
        "reception_time": "2022-01-20T23:58:18.255-00:00",
        "included_in_blocks":
          [ "BMXhEpb5ziVeCbABpcNLpAFraPTeuPT3ZeoLhLrFMt6G94XTsyS" ] },
      { "delegate": "tz1iPHM2Xx2hwmzcr1EG1zzrV6oKafVoA91m",
        "reception_time": "2022-01-20T23:58:18.213-00:00",
        "included_in_blocks":
          [ "BMXhEpb5ziVeCbABpcNLpAFraPTeuPT3ZeoLhLrFMt6G94XTsyS" ] },
      { "delegate": "tz1ei4WtWEMEJekSv8qDnu9PExG6Q8HgRGr3",
        "reception_time": "2022-01-20T23:58:18.129-00:00",
        "included_in_blocks":
          [ "BMXhEpb5ziVeCbABpcNLpAFraPTeuPT3ZeoLhLrFMt6G94XTsyS" ] },
      { "delegate": "tz1dwu9aYb7CRNq4Y2zAjipdjFuSVKhHS8vA",
        "reception_time": "2022-01-20T23:58:17.730-00:00",
        "included_in_blocks":
          [ "BMXhEpb5ziVeCbABpcNLpAFraPTeuPT3ZeoLhLrFMt6G94XTsyS" ] },
      { "delegate": "tz3bvNMQ95vfAYtG8193ymshqjSvmxiCUuR5",
        "reception_time": "2022-01-20T23:58:17.803-00:00",
        "included_in_blocks":
          [ "BMXhEpb5ziVeCbABpcNLpAFraPTeuPT3ZeoLhLrFMt6G94XTsyS" ] },
      { "delegate": "tz3RB4aoyjov4KEVRbuhvQ1CKJgBJMWhaeB8",
        "reception_time": "2022-01-20T23:58:17.775-00:00",
        "included_in_blocks":
          [ "BMXhEpb5ziVeCbABpcNLpAFraPTeuPT3ZeoLhLrFMt6G94XTsyS" ] },
      { "delegate": "tz3e7LbZvUtoXhpUD1yb6wuFodZpfYRb9nWJ",
        "reception_time": "2022-01-20T23:58:17.819-00:00",
        "included_in_blocks":
          [ "BMXhEpb5ziVeCbABpcNLpAFraPTeuPT3ZeoLhLrFMt6G94XTsyS" ] },
      { "delegate": "tz1fUyqYH7H4pRHN1roWY17giXhy1RvxjgUV",
        "reception_time": "2022-01-20T23:58:17.753-00:00",
        "included_in_blocks":
          [ "BMXhEpb5ziVeCbABpcNLpAFraPTeuPT3ZeoLhLrFMt6G94XTsyS" ] },
      { "delegate": "tz1fb7c66UwePkkfDXz4ajFaBP9hVNLdS7JJ",
        "reception_time": "2022-01-20T23:58:17.656-00:00",
        "included_in_blocks":
          [ "BMXhEpb5ziVeCbABpcNLpAFraPTeuPT3ZeoLhLrFMt6G94XTsyS" ] },
      { "delegate": "tz2FCNBrERXtaTtNX6iimR1UJ5JSDxvdHM93",
        "reception_time": "2022-01-20T23:58:17.665-00:00",
        "included_in_blocks":
          [ "BMXhEpb5ziVeCbABpcNLpAFraPTeuPT3ZeoLhLrFMt6G94XTsyS" ] },
      { "delegate": "tz1f3Re8iw6Pt3KMHAvyccHxDU3NuqL95axD",
        "reception_time": "2022-01-20T23:58:18.061-00:00",
        "included_in_blocks":
          [ "BMXhEpb5ziVeCbABpcNLpAFraPTeuPT3ZeoLhLrFMt6G94XTsyS" ] },
      { "delegate": "tz1TEc75UKXv4W5cwi14Na3NtqFD51yKQi7h",
        "reception_time": "2022-01-20T23:58:18.133-00:00",
        "included_in_blocks":
          [ "BMXhEpb5ziVeCbABpcNLpAFraPTeuPT3ZeoLhLrFMt6G94XTsyS" ] },
      { "delegate": "tz1RCFbB9GpALpsZtu6J58sb74dm8qe6XBzv",
        "reception_time": "2022-01-20T23:58:17.859-00:00",
        "included_in_blocks":
          [ "BMXhEpb5ziVeCbABpcNLpAFraPTeuPT3ZeoLhLrFMt6G94XTsyS" ] },
      { "delegate": "tz1gfArv665EUkSg2ojMBzcbfwuPxAvqPvjo",
        "reception_time": "2022-01-20T23:58:17.947-00:00",
        "included_in_blocks":
          [ "BMXhEpb5ziVeCbABpcNLpAFraPTeuPT3ZeoLhLrFMt6G94XTsyS" ] },
      { "delegate": "tz1S8MNvuFEUsWgjHvi3AxibRBf388NhT1q2",
        "reception_time": "2022-01-20T23:58:17.891-00:00",
        "included_in_blocks":
          [ "BMXhEpb5ziVeCbABpcNLpAFraPTeuPT3ZeoLhLrFMt6G94XTsyS" ] },
      { "delegate": "tz3bTdwZinP8U1JmSweNzVKhmwafqWmFWRfk",
        "reception_time": "2022-01-20T23:58:17.476-00:00",
        "included_in_blocks":
          [ "BMXhEpb5ziVeCbABpcNLpAFraPTeuPT3ZeoLhLrFMt6G94XTsyS" ] },
      { "delegate": "tz1N7fL6KvRzD5Umy7yeX5uBa5wFsC5veuN2",
        "reception_time": "2022-01-20T23:58:17.895-00:00",
        "included_in_blocks":
          [ "BMXhEpb5ziVeCbABpcNLpAFraPTeuPT3ZeoLhLrFMt6G94XTsyS" ] },
      { "delegate": "tz1VQnqCCqX4K5sP3FNkVSNKTdCAMJDd3E1n",
        "reception_time": "2022-01-20T23:58:17.450-00:00",
        "included_in_blocks":
          [ "BMXhEpb5ziVeCbABpcNLpAFraPTeuPT3ZeoLhLrFMt6G94XTsyS" ] },
      { "delegate": "tz3iJu5vrKZcsqRPs8yJ61UDoeEXZmtro4qh",
        "reception_time": "2022-01-20T23:58:17.428-00:00",
        "included_in_blocks":
          [ "BMXhEpb5ziVeCbABpcNLpAFraPTeuPT3ZeoLhLrFMt6G94XTsyS" ] },
      { "delegate": "tz1gUNyn3hmnEWqkusWPzxRaon1cs7ndWh7h",
        "reception_time": "2022-01-20T23:58:17.447-00:00",
        "included_in_blocks":
          [ "BMXhEpb5ziVeCbABpcNLpAFraPTeuPT3ZeoLhLrFMt6G94XTsyS" ] },
      { "delegate": "tz3Zhs2dygr55yHyQyKjntAtY9bgfhLZ4Xj1",
        "reception_time": "2022-01-20T23:58:17.389-00:00",
        "included_in_blocks":
          [ "BMXhEpb5ziVeCbABpcNLpAFraPTeuPT3ZeoLhLrFMt6G94XTsyS" ] },
      { "delegate": "tz3QSGPoRp3Kn7n3vY24eYeu3Peuqo45LQ4D",
        "reception_time": "2022-01-20T23:58:17.416-00:00",
        "included_in_blocks":
          [ "BMXhEpb5ziVeCbABpcNLpAFraPTeuPT3ZeoLhLrFMt6G94XTsyS" ] },
      { "delegate": "tz3gtoUxdudfBRcNY7iVdKPHCYYX6xdPpoRS",
        "reception_time": "2022-01-20T23:58:17.443-00:00",
        "included_in_blocks":
          [ "BMXhEpb5ziVeCbABpcNLpAFraPTeuPT3ZeoLhLrFMt6G94XTsyS" ] },
      { "delegate": "tz3S6BBeKgJGXxvLyZ1xzXzMPn11nnFtq5L9",
        "reception_time": "2022-01-20T23:58:17.397-00:00",
        "included_in_blocks":
          [ "BMXhEpb5ziVeCbABpcNLpAFraPTeuPT3ZeoLhLrFMt6G94XTsyS" ] },
      { "delegate": "tz1TzaNn7wSQSP5gYPXCnNzBCpyMiidCq1PX",
        "reception_time": "2022-01-20T23:58:17.402-00:00",
        "included_in_blocks":
          [ "BMXhEpb5ziVeCbABpcNLpAFraPTeuPT3ZeoLhLrFMt6G94XTsyS" ] },
      { "delegate": "tz3RKYFsLuQzKBtmYuLNas7uMu3AsYd4QdsA",
        "reception_time": "2022-01-20T23:58:17.428-00:00",
        "included_in_blocks":
          [ "BMXhEpb5ziVeCbABpcNLpAFraPTeuPT3ZeoLhLrFMt6G94XTsyS" ] },
      { "delegate": "tz3ZbP2pM3nwvXztbuMJwJnDvV5xdpU8UkkD",
        "reception_time": "2022-01-20T23:58:17.382-00:00",
        "included_in_blocks":
          [ "BMXhEpb5ziVeCbABpcNLpAFraPTeuPT3ZeoLhLrFMt6G94XTsyS" ] },
      { "delegate": "tz3NxTnke1acr8o3h5y9ytf5awQBGNJUKzVU",
        "reception_time": "2022-01-20T23:58:17.416-00:00",
        "included_in_blocks":
          [ "BMXhEpb5ziVeCbABpcNLpAFraPTeuPT3ZeoLhLrFMt6G94XTsyS" ] },
      { "delegate": "tz3QT9dHYKDqh563chVa6za8526ys1UKfRfL",
        "reception_time": "2022-01-20T23:58:17.368-00:00",
        "included_in_blocks":
          [ "BMXhEpb5ziVeCbABpcNLpAFraPTeuPT3ZeoLhLrFMt6G94XTsyS" ] },
      { "delegate": "tz3hw2kqXhLUvY65ca1eety2oQTpAvd34R9Q",
        "reception_time": "2022-01-20T23:58:17.376-00:00",
        "included_in_blocks":
          [ "BMXhEpb5ziVeCbABpcNLpAFraPTeuPT3ZeoLhLrFMt6G94XTsyS" ] },
      { "delegate": "tz1PWCDnz783NNGGQjEFFsHtrcK5yBW4E2rm",
        "reception_time": "2022-01-20T23:58:17.402-00:00",
        "included_in_blocks":
          [ "BMXhEpb5ziVeCbABpcNLpAFraPTeuPT3ZeoLhLrFMt6G94XTsyS" ] },
      { "delegate": "tz1Ldzz6k1BHdhuKvAtMRX7h5kJSMHESMHLC",
        "reception_time": "2022-01-20T23:58:17.317-00:00",
        "included_in_blocks":
          [ "BMXhEpb5ziVeCbABpcNLpAFraPTeuPT3ZeoLhLrFMt6G94XTsyS" ] },
      { "delegate": "tz1irJKkXS2DBWkU1NnmFQx1c1L7pbGg4yhk",
        "reception_time": "2022-01-20T23:58:17.133-00:00",
        "included_in_blocks":
          [ "BMXhEpb5ziVeCbABpcNLpAFraPTeuPT3ZeoLhLrFMt6G94XTsyS" ] } ] }