{ "blocks":
    [ { "hash": "BLJkA3zoE95ji9Gu5CxU1SVhCr7VJhwfaPczeXoR3FhnuEfAkHP",
        "delegate": "tz1fb7c66UwePkkfDXz4ajFaBP9hVNLdS7JJ",
        "reception_time": "2022-01-21T04:16:09.430-00:00",
        "timestamp": "2022-01-21T04:16:00Z" } ],
  "endorsements":
    [ { "delegate": "tz1XXayQohB8XRXN7kMoHbf2NFwNiH3oMRQQ",
        "reception_time": "2022-01-21T04:16:09.148-00:00",
        "errors":
          [ { "kind": "temporary",
              "id": "proto.011-PtHangz2.prefilter.outdated_endorsement" } ],
        "included_in_blocks":
          [ "BMDWSYafUJhurtu8BXa9JBi1RucBBj3xSxgXNiSAMAkZoJD4bK5" ] },
      { "delegate": "tz1TRqbYbUf2GyrjErf3hBzgBJPzW8y36qEs" },
      { "delegate": "tz1awXW7wuXy21c66vBudMXQVAPgRnqqwgTH" },
      { "delegate": "tz1dbfppLAAxXZNtf2SDps7rch3qfUznKSoK" },
      { "delegate": "tz1Lhf4J9Qxoe3DZ2nfe8FGDnvVj7oKjnMY6",
        "reception_time": "2022-01-21T04:16:11.078-00:00",
        "included_in_blocks":
          [ "BMDWSYafUJhurtu8BXa9JBi1RucBBj3xSxgXNiSAMAkZoJD4bK5" ] },
      { "delegate": "tz1P2Po7YM526ughEsRbY4oR9zaUPDZjxFrb",
        "reception_time": "2022-01-21T04:16:11.078-00:00",
        "included_in_blocks":
          [ "BMDWSYafUJhurtu8BXa9JBi1RucBBj3xSxgXNiSAMAkZoJD4bK5" ] },
      { "delegate": "tz1Kt4P8BCaP93AEV4eA7gmpRryWt5hznjCP",
        "reception_time": "2022-01-21T04:16:11.099-00:00",
        "included_in_blocks":
          [ "BMDWSYafUJhurtu8BXa9JBi1RucBBj3xSxgXNiSAMAkZoJD4bK5" ] },
      { "delegate": "tz1Ldzz6k1BHdhuKvAtMRX7h5kJSMHESMHLC",
        "reception_time": "2022-01-21T04:16:11.102-00:00",
        "included_in_blocks":
          [ "BMDWSYafUJhurtu8BXa9JBi1RucBBj3xSxgXNiSAMAkZoJD4bK5" ] },
      { "delegate": "tz1eEnQhbwf6trb8Q8mPb2RaPkNk2rN7BKi8",
        "reception_time": "2022-01-21T04:16:11.105-00:00",
        "included_in_blocks":
          [ "BMDWSYafUJhurtu8BXa9JBi1RucBBj3xSxgXNiSAMAkZoJD4bK5" ] },
      { "delegate": "tz1aXD7Jigrt3PBYSpHSg5Rr33SexMmmM5Ys",
        "reception_time": "2022-01-21T04:16:11.113-00:00",
        "included_in_blocks":
          [ "BMDWSYafUJhurtu8BXa9JBi1RucBBj3xSxgXNiSAMAkZoJD4bK5" ] },
      { "delegate": "tz1VQnqCCqX4K5sP3FNkVSNKTdCAMJDd3E1n",
        "reception_time": "2022-01-21T04:16:11.113-00:00",
        "included_in_blocks":
          [ "BMDWSYafUJhurtu8BXa9JBi1RucBBj3xSxgXNiSAMAkZoJD4bK5" ] },
      { "delegate": "tz3hw2kqXhLUvY65ca1eety2oQTpAvd34R9Q",
        "reception_time": "2022-01-21T04:16:11.132-00:00",
        "included_in_blocks":
          [ "BMDWSYafUJhurtu8BXa9JBi1RucBBj3xSxgXNiSAMAkZoJD4bK5" ] },
      { "delegate": "tz1VmiY38m3y95HqQLjMwqnMS7sdMfGomzKi",
        "reception_time": "2022-01-21T04:16:11.135-00:00",
        "included_in_blocks":
          [ "BMDWSYafUJhurtu8BXa9JBi1RucBBj3xSxgXNiSAMAkZoJD4bK5" ] },
      { "delegate": "tz1gUNyn3hmnEWqkusWPzxRaon1cs7ndWh7h",
        "reception_time": "2022-01-21T04:16:11.137-00:00",
        "included_in_blocks":
          [ "BMDWSYafUJhurtu8BXa9JBi1RucBBj3xSxgXNiSAMAkZoJD4bK5" ] },
      { "delegate": "tz3gtoUxdudfBRcNY7iVdKPHCYYX6xdPpoRS",
        "reception_time": "2022-01-21T04:16:11.149-00:00",
        "included_in_blocks":
          [ "BMDWSYafUJhurtu8BXa9JBi1RucBBj3xSxgXNiSAMAkZoJD4bK5" ] },
      { "delegate": "tz3RKYFsLuQzKBtmYuLNas7uMu3AsYd4QdsA",
        "reception_time": "2022-01-21T04:16:11.149-00:00",
        "included_in_blocks":
          [ "BMDWSYafUJhurtu8BXa9JBi1RucBBj3xSxgXNiSAMAkZoJD4bK5" ] },
      { "delegate": "tz1WCd2jm4uSt4vntk4vSuUWoZQGhLcDuR9q",
        "reception_time": "2022-01-21T04:16:11.152-00:00",
        "included_in_blocks":
          [ "BMDWSYafUJhurtu8BXa9JBi1RucBBj3xSxgXNiSAMAkZoJD4bK5" ] },
      { "delegate": "tz1cSj7fTex3JPd1p1LN1fwek6AV1kH93Wwc",
        "reception_time": "2022-01-21T04:16:11.155-00:00",
        "included_in_blocks":
          [ "BMDWSYafUJhurtu8BXa9JBi1RucBBj3xSxgXNiSAMAkZoJD4bK5" ] },
      { "delegate": "tz3S6BBeKgJGXxvLyZ1xzXzMPn11nnFtq5L9",
        "reception_time": "2022-01-21T04:16:11.167-00:00",
        "included_in_blocks":
          [ "BMDWSYafUJhurtu8BXa9JBi1RucBBj3xSxgXNiSAMAkZoJD4bK5" ] },
      { "delegate": "tz3QSGPoRp3Kn7n3vY24eYeu3Peuqo45LQ4D",
        "reception_time": "2022-01-21T04:16:11.167-00:00",
        "included_in_blocks":
          [ "BMDWSYafUJhurtu8BXa9JBi1RucBBj3xSxgXNiSAMAkZoJD4bK5" ] },
      { "delegate": "tz3adcvQaKXTCg12zbninqo3q8ptKKtDFTLv",
        "reception_time": "2022-01-21T04:16:11.176-00:00",
        "included_in_blocks":
          [ "BMDWSYafUJhurtu8BXa9JBi1RucBBj3xSxgXNiSAMAkZoJD4bK5" ] },
      { "delegate": "tz1irJKkXS2DBWkU1NnmFQx1c1L7pbGg4yhk",
        "reception_time": "2022-01-21T04:16:11.176-00:00",
        "included_in_blocks":
          [ "BMDWSYafUJhurtu8BXa9JBi1RucBBj3xSxgXNiSAMAkZoJD4bK5" ] },
      { "delegate": "tz1TzaNn7wSQSP5gYPXCnNzBCpyMiidCq1PX",
        "reception_time": "2022-01-21T04:16:11.191-00:00",
        "included_in_blocks":
          [ "BMDWSYafUJhurtu8BXa9JBi1RucBBj3xSxgXNiSAMAkZoJD4bK5" ] },
      { "delegate": "tz3NxTnke1acr8o3h5y9ytf5awQBGNJUKzVU",
        "reception_time": "2022-01-21T04:16:11.191-00:00",
        "included_in_blocks":
          [ "BMDWSYafUJhurtu8BXa9JBi1RucBBj3xSxgXNiSAMAkZoJD4bK5" ] },
      { "delegate": "tz3QT9dHYKDqh563chVa6za8526ys1UKfRfL",
        "reception_time": "2022-01-21T04:16:11.197-00:00",
        "included_in_blocks":
          [ "BMDWSYafUJhurtu8BXa9JBi1RucBBj3xSxgXNiSAMAkZoJD4bK5" ] },
      { "delegate": "tz3ZbP2pM3nwvXztbuMJwJnDvV5xdpU8UkkD",
        "reception_time": "2022-01-21T04:16:11.204-00:00",
        "included_in_blocks":
          [ "BMDWSYafUJhurtu8BXa9JBi1RucBBj3xSxgXNiSAMAkZoJD4bK5" ] },
      { "delegate": "tz1TRspM5SeZpaQUhzByXbEvqKF1vnCM2YTK",
        "reception_time": "2022-01-21T04:16:11.212-00:00",
        "included_in_blocks":
          [ "BMDWSYafUJhurtu8BXa9JBi1RucBBj3xSxgXNiSAMAkZoJD4bK5" ] },
      { "delegate": "tz1PWCDnz783NNGGQjEFFsHtrcK5yBW4E2rm",
        "reception_time": "2022-01-21T04:16:11.218-00:00",
        "included_in_blocks":
          [ "BMDWSYafUJhurtu8BXa9JBi1RucBBj3xSxgXNiSAMAkZoJD4bK5" ] },
      { "delegate": "tz3Zhs2dygr55yHyQyKjntAtY9bgfhLZ4Xj1",
        "reception_time": "2022-01-21T04:16:11.285-00:00",
        "included_in_blocks":
          [ "BMDWSYafUJhurtu8BXa9JBi1RucBBj3xSxgXNiSAMAkZoJD4bK5" ] },
      { "delegate": "tz3iJu5vrKZcsqRPs8yJ61UDoeEXZmtro4qh",
        "reception_time": "2022-01-21T04:16:11.296-00:00",
        "included_in_blocks":
          [ "BMDWSYafUJhurtu8BXa9JBi1RucBBj3xSxgXNiSAMAkZoJD4bK5" ] },
      { "delegate": "tz1dNVDWPf3Q59SdJqnjdnu277iyvReiRS9M",
        "reception_time": "2022-01-21T04:16:11.452-00:00",
        "included_in_blocks":
          [ "BMDWSYafUJhurtu8BXa9JBi1RucBBj3xSxgXNiSAMAkZoJD4bK5" ] },
      { "delegate": "tz1MQJPGNMijnXnVoBENFz9rUhaPt3S7rWoz",
        "reception_time": "2022-01-21T04:16:11.459-00:00",
        "included_in_blocks":
          [ "BMDWSYafUJhurtu8BXa9JBi1RucBBj3xSxgXNiSAMAkZoJD4bK5" ] },
      { "delegate": "tz1ei4WtWEMEJekSv8qDnu9PExG6Q8HgRGr3",
        "reception_time": "2022-01-21T04:16:11.537-00:00",
        "included_in_blocks":
          [ "BMDWSYafUJhurtu8BXa9JBi1RucBBj3xSxgXNiSAMAkZoJD4bK5" ] },
      { "delegate": "tz3e75hU4EhDU3ukyJueh5v6UvEHzGwkg3yC",
        "reception_time": "2022-01-21T04:16:11.577-00:00",
        "included_in_blocks":
          [ "BMDWSYafUJhurtu8BXa9JBi1RucBBj3xSxgXNiSAMAkZoJD4bK5" ] },
      { "delegate": "tz3bTdwZinP8U1JmSweNzVKhmwafqWmFWRfk",
        "reception_time": "2022-01-21T04:16:11.610-00:00",
        "included_in_blocks":
          [ "BMDWSYafUJhurtu8BXa9JBi1RucBBj3xSxgXNiSAMAkZoJD4bK5" ] },
      { "delegate": "tz1RCFbB9GpALpsZtu6J58sb74dm8qe6XBzv",
        "reception_time": "2022-01-21T04:16:11.679-00:00",
        "included_in_blocks":
          [ "BMDWSYafUJhurtu8BXa9JBi1RucBBj3xSxgXNiSAMAkZoJD4bK5" ] },
      { "delegate": "tz1gfArv665EUkSg2ojMBzcbfwuPxAvqPvjo",
        "reception_time": "2022-01-21T04:16:11.729-00:00",
        "included_in_blocks":
          [ "BMDWSYafUJhurtu8BXa9JBi1RucBBj3xSxgXNiSAMAkZoJD4bK5" ] },
      { "delegate": "tz3QCNyySViKHmeSr45kzDxzchys7NiXCWoa",
        "reception_time": "2022-01-21T04:16:11.804-00:00",
        "included_in_blocks":
          [ "BMDWSYafUJhurtu8BXa9JBi1RucBBj3xSxgXNiSAMAkZoJD4bK5" ] },
      { "delegate": "tz1SYq214SCBy9naR6cvycQsYcUGpBqQAE8d",
        "reception_time": "2022-01-21T04:16:11.808-00:00",
        "included_in_blocks":
          [ "BMDWSYafUJhurtu8BXa9JBi1RucBBj3xSxgXNiSAMAkZoJD4bK5" ] },
      { "delegate": "tz1NEKxGEHsFufk87CVZcrqWu8o22qh46GK6",
        "reception_time": "2022-01-21T04:16:11.833-00:00",
        "included_in_blocks":
          [ "BMDWSYafUJhurtu8BXa9JBi1RucBBj3xSxgXNiSAMAkZoJD4bK5" ] },
      { "delegate": "tz1MQMiZHV8q4tTwUMWmS5Y3kaP6J2136iXr",
        "reception_time": "2022-01-21T04:16:11.879-00:00",
        "included_in_blocks":
          [ "BMDWSYafUJhurtu8BXa9JBi1RucBBj3xSxgXNiSAMAkZoJD4bK5" ] },
      { "delegate": "tz1S8MNvuFEUsWgjHvi3AxibRBf388NhT1q2",
        "reception_time": "2022-01-21T04:16:11.906-00:00",
        "included_in_blocks":
          [ "BMDWSYafUJhurtu8BXa9JBi1RucBBj3xSxgXNiSAMAkZoJD4bK5" ] },
      { "delegate": "tz3gLTu4Yxj8tPAcriQVUdxv6BY9QyvzU1az",
        "reception_time": "2022-01-21T04:16:12.005-00:00",
        "included_in_blocks":
          [ "BMDWSYafUJhurtu8BXa9JBi1RucBBj3xSxgXNiSAMAkZoJD4bK5" ] },
      { "delegate": "tz3NDpRj6WBrJPikcPVHRBEjWKxFw3c6eQPS",
        "reception_time": "2022-01-21T04:16:12.093-00:00",
        "included_in_blocks":
          [ "BMDWSYafUJhurtu8BXa9JBi1RucBBj3xSxgXNiSAMAkZoJD4bK5" ] },
      { "delegate": "tz1KfEsrtDaA1sX7vdM4qmEPWuSytuqCDp5j",
        "reception_time": "2022-01-21T04:16:12.104-00:00",
        "included_in_blocks":
          [ "BMDWSYafUJhurtu8BXa9JBi1RucBBj3xSxgXNiSAMAkZoJD4bK5" ] },
      { "delegate": "tz1fwnfJNgiDACshK9avfRfFbMaXrs3ghoJa",
        "reception_time": "2022-01-21T04:16:12.121-00:00",
        "included_in_blocks":
          [ "BMDWSYafUJhurtu8BXa9JBi1RucBBj3xSxgXNiSAMAkZoJD4bK5" ] },
      { "delegate": "tz3bvNMQ95vfAYtG8193ymshqjSvmxiCUuR5",
        "reception_time": "2022-01-21T04:16:12.186-00:00",
        "included_in_blocks":
          [ "BMDWSYafUJhurtu8BXa9JBi1RucBBj3xSxgXNiSAMAkZoJD4bK5" ] },
      { "delegate": "tz1WBfwbT66FC6BTLexc2BoyCCBM9LG7pnVW",
        "reception_time": "2022-01-21T04:16:12.250-00:00",
        "included_in_blocks":
          [ "BMDWSYafUJhurtu8BXa9JBi1RucBBj3xSxgXNiSAMAkZoJD4bK5" ] },
      { "delegate": "tz1Nf6tsK4G6bBqgSQERy4nUtkHNKUVdh7q1",
        "reception_time": "2022-01-21T04:16:12.262-00:00",
        "included_in_blocks":
          [ "BMDWSYafUJhurtu8BXa9JBi1RucBBj3xSxgXNiSAMAkZoJD4bK5" ] },
      { "delegate": "tz3RB4aoyjov4KEVRbuhvQ1CKJgBJMWhaeB8",
        "reception_time": "2022-01-21T04:16:12.386-00:00",
        "included_in_blocks":
          [ "BMDWSYafUJhurtu8BXa9JBi1RucBBj3xSxgXNiSAMAkZoJD4bK5" ] },
      { "delegate": "tz1PeZx7FXy7QRuMREGXGxeipb24RsMMzUNe",
        "reception_time": "2022-01-21T04:16:12.414-00:00",
        "included_in_blocks":
          [ "BMDWSYafUJhurtu8BXa9JBi1RucBBj3xSxgXNiSAMAkZoJD4bK5" ] },
      { "delegate": "tz1axcnVN9tZnCe4sQQhC6f3tfSEXdjPaXPY",
        "reception_time": "2022-01-21T04:16:12.436-00:00",
        "included_in_blocks":
          [ "BMDWSYafUJhurtu8BXa9JBi1RucBBj3xSxgXNiSAMAkZoJD4bK5" ] },
      { "delegate": "tz1NdhRv643wLW6zCcRP3VfT24dvDnh7nuh9",
        "reception_time": "2022-01-21T04:16:12.531-00:00",
        "included_in_blocks":
          [ "BMDWSYafUJhurtu8BXa9JBi1RucBBj3xSxgXNiSAMAkZoJD4bK5" ] },
      { "delegate": "tz1Z2jXfEXL7dXhs6bsLmyLFLfmAkXBzA9WE",
        "reception_time": "2022-01-21T04:16:12.577-00:00",
        "included_in_blocks":
          [ "BMDWSYafUJhurtu8BXa9JBi1RucBBj3xSxgXNiSAMAkZoJD4bK5" ] },
      { "delegate": "tz1S6H83gugqK4dR5Had9jWR9M1ZdAAVgU5e",
        "reception_time": "2022-01-21T04:16:12.612-00:00",
        "included_in_blocks":
          [ "BMDWSYafUJhurtu8BXa9JBi1RucBBj3xSxgXNiSAMAkZoJD4bK5" ] },
      { "delegate": "tz2FCNBrERXtaTtNX6iimR1UJ5JSDxvdHM93",
        "reception_time": "2022-01-21T04:16:12.791-00:00",
        "included_in_blocks":
          [ "BMDWSYafUJhurtu8BXa9JBi1RucBBj3xSxgXNiSAMAkZoJD4bK5" ] },
      { "delegate": "tz3WMqdzXqRWXwyvj5Hp2H7QEepaUuS7vd9K",
        "reception_time": "2022-01-21T04:16:12.823-00:00",
        "included_in_blocks":
          [ "BMDWSYafUJhurtu8BXa9JBi1RucBBj3xSxgXNiSAMAkZoJD4bK5" ] },
      { "delegate": "tz1dRKU4FQ9QRRQPdaH4zCR6gmCmXfcvcgtB",
        "reception_time": "2022-01-21T04:16:13.105-00:00",
        "included_in_blocks":
          [ "BMDWSYafUJhurtu8BXa9JBi1RucBBj3xSxgXNiSAMAkZoJD4bK5" ] },
      { "delegate": "tz3VEZ4k6a4Wx42iyev6i2aVAptTRLEAivNN",
        "reception_time": "2022-01-21T04:16:13.123-00:00",
        "included_in_blocks":
          [ "BMDWSYafUJhurtu8BXa9JBi1RucBBj3xSxgXNiSAMAkZoJD4bK5" ] },
      { "delegate": "tz1g8vkmcde6sWKaG2NN9WKzCkDM6Rziq194",
        "reception_time": "2022-01-21T04:16:13.171-00:00",
        "included_in_blocks":
          [ "BMDWSYafUJhurtu8BXa9JBi1RucBBj3xSxgXNiSAMAkZoJD4bK5" ] },
      { "delegate": "tz1T7duV5gZWSTq4YpBGbXNLTfznCLDrFxvs",
        "reception_time": "2022-01-21T04:16:13.346-00:00",
        "included_in_blocks":
          [ "BMDWSYafUJhurtu8BXa9JBi1RucBBj3xSxgXNiSAMAkZoJD4bK5" ] },
      { "delegate": "tz1RjoHc98dBoqaH2jawF62XNKh7YsHwbkEv",
        "reception_time": "2022-01-21T04:16:13.353-00:00",
        "included_in_blocks":
          [ "BMDWSYafUJhurtu8BXa9JBi1RucBBj3xSxgXNiSAMAkZoJD4bK5" ] },
      { "delegate": "tz1NMNQYrYrfNpmUqQrMhJypf6ovnaDZhJHM",
        "reception_time": "2022-01-21T04:16:13.388-00:00",
        "included_in_blocks":
          [ "BMDWSYafUJhurtu8BXa9JBi1RucBBj3xSxgXNiSAMAkZoJD4bK5" ] },
      { "delegate": "tz3RDC3Jdn4j15J7bBHZd29EUee9gVB1CxD9",
        "reception_time": "2022-01-21T04:16:13.406-00:00",
        "included_in_blocks":
          [ "BMDWSYafUJhurtu8BXa9JBi1RucBBj3xSxgXNiSAMAkZoJD4bK5" ] },
      { "delegate": "tz3UoffC7FG7zfpmvmjUmUeAaHvzdcUvAj6r",
        "reception_time": "2022-01-21T04:16:13.790-00:00",
        "included_in_blocks":
          [ "BMDWSYafUJhurtu8BXa9JBi1RucBBj3xSxgXNiSAMAkZoJD4bK5" ] },
      { "delegate": "tz1aRoaRhSpRYvFdyvgWLL6TGyRoGF51wDjM",
        "reception_time": "2022-01-21T04:16:14.083-00:00",
        "included_in_blocks":
          [ "BMDWSYafUJhurtu8BXa9JBi1RucBBj3xSxgXNiSAMAkZoJD4bK5" ] },
      { "delegate": "tz3NExpXn9aPNZPorRE4SdjJ2RGrfbJgMAaV",
        "reception_time": "2022-01-21T04:16:14.104-00:00",
        "included_in_blocks":
          [ "BMDWSYafUJhurtu8BXa9JBi1RucBBj3xSxgXNiSAMAkZoJD4bK5" ] },
      { "delegate": "tz1acZQd7TdfoiUnD2czHnTHB2TaJQP6gdqo",
        "reception_time": "2022-01-21T04:16:14.266-00:00",
        "included_in_blocks":
          [ "BMDWSYafUJhurtu8BXa9JBi1RucBBj3xSxgXNiSAMAkZoJD4bK5" ] },
      { "delegate": "tz1eVaNx3gCmG1EsLjijkmgAxdLYVf6Bf5Sq",
        "reception_time": "2022-01-21T04:16:15.154-00:00",
        "included_in_blocks":
          [ "BMDWSYafUJhurtu8BXa9JBi1RucBBj3xSxgXNiSAMAkZoJD4bK5" ] },
      { "delegate": "tz1W5VkdB5s7ENMESVBtwyt9kyvLqPcUczRT",
        "reception_time": "2022-01-21T04:16:18.085-00:00",
        "included_in_blocks":
          [ "BMDWSYafUJhurtu8BXa9JBi1RucBBj3xSxgXNiSAMAkZoJD4bK5" ] } ] }