{ "blocks":
    [ { "hash": "BMaWhDcM1K9zWa3YxwTHRq12ck4LC79eGRNWGTWhYYuc2CkPRK6",
        "delegate": "tz3QT9dHYKDqh563chVa6za8526ys1UKfRfL",
        "reception_time": "2022-01-21T03:37:48.932-00:00",
        "timestamp": "2022-01-21T03:37:40Z" } ],
  "endorsements":
    [ { "delegate": "tz1P2Po7YM526ughEsRbY4oR9zaUPDZjxFrb",
        "reception_time": "2022-01-21T03:37:48.680-00:00",
        "errors":
          [ { "kind": "temporary",
              "id": "proto.011-PtHangz2.prefilter.outdated_endorsement" } ],
        "included_in_blocks":
          [ "BMTTtva4fJzgJ7gyYqWmBtoxF5x8DG9hP1Q3sPVmWQCz1smFBwt" ] },
      { "delegate": "tz1MJx9vhaNRSimcuXPK2rW4fLccQnDAnVKJ" },
      { "delegate": "tz1TRqbYbUf2GyrjErf3hBzgBJPzW8y36qEs" },
      { "delegate": "tz1awXW7wuXy21c66vBudMXQVAPgRnqqwgTH" },
      { "delegate": "tz1i3mhawFAgcB8JHaHwoUF6hdncwTAkLEn2" },
      { "delegate": "tz1aDiEJf9ztRrAJEXZfcG3CKimoKsGhwVAi",
        "reception_time": "2022-01-21T03:37:51.066-00:00",
        "included_in_blocks":
          [ "BMTTtva4fJzgJ7gyYqWmBtoxF5x8DG9hP1Q3sPVmWQCz1smFBwt" ] },
      { "delegate": "tz1Ldzz6k1BHdhuKvAtMRX7h5kJSMHESMHLC",
        "reception_time": "2022-01-21T03:37:51.066-00:00",
        "included_in_blocks":
          [ "BMTTtva4fJzgJ7gyYqWmBtoxF5x8DG9hP1Q3sPVmWQCz1smFBwt" ] },
      { "delegate": "tz1eEnQhbwf6trb8Q8mPb2RaPkNk2rN7BKi8",
        "reception_time": "2022-01-21T03:37:51.066-00:00",
        "included_in_blocks":
          [ "BMTTtva4fJzgJ7gyYqWmBtoxF5x8DG9hP1Q3sPVmWQCz1smFBwt" ] },
      { "delegate": "tz1VQnqCCqX4K5sP3FNkVSNKTdCAMJDd3E1n",
        "reception_time": "2022-01-21T03:37:51.066-00:00",
        "included_in_blocks":
          [ "BMTTtva4fJzgJ7gyYqWmBtoxF5x8DG9hP1Q3sPVmWQCz1smFBwt" ] },
      { "delegate": "tz3ZbP2pM3nwvXztbuMJwJnDvV5xdpU8UkkD",
        "reception_time": "2022-01-21T03:37:51.066-00:00",
        "included_in_blocks":
          [ "BMTTtva4fJzgJ7gyYqWmBtoxF5x8DG9hP1Q3sPVmWQCz1smFBwt" ] },
      { "delegate": "tz1gUNyn3hmnEWqkusWPzxRaon1cs7ndWh7h",
        "reception_time": "2022-01-21T03:37:51.066-00:00",
        "included_in_blocks":
          [ "BMTTtva4fJzgJ7gyYqWmBtoxF5x8DG9hP1Q3sPVmWQCz1smFBwt" ] },
      { "delegate": "tz1Lhf4J9Qxoe3DZ2nfe8FGDnvVj7oKjnMY6",
        "reception_time": "2022-01-21T03:37:51.066-00:00",
        "included_in_blocks":
          [ "BMTTtva4fJzgJ7gyYqWmBtoxF5x8DG9hP1Q3sPVmWQCz1smFBwt" ] },
      { "delegate": "tz3NxTnke1acr8o3h5y9ytf5awQBGNJUKzVU",
        "reception_time": "2022-01-21T03:37:51.066-00:00",
        "included_in_blocks":
          [ "BMTTtva4fJzgJ7gyYqWmBtoxF5x8DG9hP1Q3sPVmWQCz1smFBwt" ] },
      { "delegate": "tz3QT9dHYKDqh563chVa6za8526ys1UKfRfL",
        "reception_time": "2022-01-21T03:37:51.066-00:00",
        "included_in_blocks":
          [ "BMTTtva4fJzgJ7gyYqWmBtoxF5x8DG9hP1Q3sPVmWQCz1smFBwt" ] },
      { "delegate": "tz1irJKkXS2DBWkU1NnmFQx1c1L7pbGg4yhk",
        "reception_time": "2022-01-21T03:37:51.066-00:00",
        "included_in_blocks":
          [ "BMTTtva4fJzgJ7gyYqWmBtoxF5x8DG9hP1Q3sPVmWQCz1smFBwt" ] },
      { "delegate": "tz1aXD7Jigrt3PBYSpHSg5Rr33SexMmmM5Ys",
        "reception_time": "2022-01-21T03:37:51.066-00:00",
        "included_in_blocks":
          [ "BMTTtva4fJzgJ7gyYqWmBtoxF5x8DG9hP1Q3sPVmWQCz1smFBwt" ] },
      { "delegate": "tz1WCd2jm4uSt4vntk4vSuUWoZQGhLcDuR9q",
        "reception_time": "2022-01-21T03:37:51.066-00:00",
        "included_in_blocks":
          [ "BMTTtva4fJzgJ7gyYqWmBtoxF5x8DG9hP1Q3sPVmWQCz1smFBwt" ] },
      { "delegate": "tz1PWCDnz783NNGGQjEFFsHtrcK5yBW4E2rm",
        "reception_time": "2022-01-21T03:37:51.066-00:00",
        "included_in_blocks":
          [ "BMTTtva4fJzgJ7gyYqWmBtoxF5x8DG9hP1Q3sPVmWQCz1smFBwt" ] },
      { "delegate": "tz3RKYFsLuQzKBtmYuLNas7uMu3AsYd4QdsA",
        "reception_time": "2022-01-21T03:37:51.066-00:00",
        "included_in_blocks":
          [ "BMTTtva4fJzgJ7gyYqWmBtoxF5x8DG9hP1Q3sPVmWQCz1smFBwt" ] },
      { "delegate": "tz3iJu5vrKZcsqRPs8yJ61UDoeEXZmtro4qh",
        "reception_time": "2022-01-21T03:37:51.076-00:00",
        "included_in_blocks":
          [ "BMTTtva4fJzgJ7gyYqWmBtoxF5x8DG9hP1Q3sPVmWQCz1smFBwt" ] },
      { "delegate": "tz3hw2kqXhLUvY65ca1eety2oQTpAvd34R9Q",
        "reception_time": "2022-01-21T03:37:51.076-00:00",
        "included_in_blocks":
          [ "BMTTtva4fJzgJ7gyYqWmBtoxF5x8DG9hP1Q3sPVmWQCz1smFBwt" ] },
      { "delegate": "tz1ei4WtWEMEJekSv8qDnu9PExG6Q8HgRGr3",
        "reception_time": "2022-01-21T03:37:51.078-00:00",
        "included_in_blocks":
          [ "BMTTtva4fJzgJ7gyYqWmBtoxF5x8DG9hP1Q3sPVmWQCz1smFBwt" ] },
      { "delegate": "tz1RQhNh7iB9CZA7i3ifTWNwiGYVffponfbB",
        "reception_time": "2022-01-21T03:37:51.082-00:00",
        "included_in_blocks":
          [ "BMTTtva4fJzgJ7gyYqWmBtoxF5x8DG9hP1Q3sPVmWQCz1smFBwt" ] },
      { "delegate": "tz1TEc75UKXv4W5cwi14Na3NtqFD51yKQi7h",
        "reception_time": "2022-01-21T03:37:51.082-00:00",
        "included_in_blocks":
          [ "BMTTtva4fJzgJ7gyYqWmBtoxF5x8DG9hP1Q3sPVmWQCz1smFBwt" ] },
      { "delegate": "tz1cSj7fTex3JPd1p1LN1fwek6AV1kH93Wwc",
        "reception_time": "2022-01-21T03:37:51.084-00:00",
        "included_in_blocks":
          [ "BMTTtva4fJzgJ7gyYqWmBtoxF5x8DG9hP1Q3sPVmWQCz1smFBwt" ] },
      { "delegate": "tz1TzaNn7wSQSP5gYPXCnNzBCpyMiidCq1PX",
        "reception_time": "2022-01-21T03:37:51.092-00:00",
        "included_in_blocks":
          [ "BMTTtva4fJzgJ7gyYqWmBtoxF5x8DG9hP1Q3sPVmWQCz1smFBwt" ] },
      { "delegate": "tz3QSGPoRp3Kn7n3vY24eYeu3Peuqo45LQ4D",
        "reception_time": "2022-01-21T03:37:51.092-00:00",
        "included_in_blocks":
          [ "BMTTtva4fJzgJ7gyYqWmBtoxF5x8DG9hP1Q3sPVmWQCz1smFBwt" ] },
      { "delegate": "tz3gtoUxdudfBRcNY7iVdKPHCYYX6xdPpoRS",
        "reception_time": "2022-01-21T03:37:51.099-00:00",
        "included_in_blocks":
          [ "BMTTtva4fJzgJ7gyYqWmBtoxF5x8DG9hP1Q3sPVmWQCz1smFBwt" ] },
      { "delegate": "tz1irmXkTwtz89pxmUFXvQuitz1vkdJQE9oq",
        "reception_time": "2022-01-21T03:37:51.099-00:00",
        "included_in_blocks":
          [ "BMTTtva4fJzgJ7gyYqWmBtoxF5x8DG9hP1Q3sPVmWQCz1smFBwt" ] },
      { "delegate": "tz3Zhs2dygr55yHyQyKjntAtY9bgfhLZ4Xj1",
        "reception_time": "2022-01-21T03:37:51.111-00:00",
        "included_in_blocks":
          [ "BMTTtva4fJzgJ7gyYqWmBtoxF5x8DG9hP1Q3sPVmWQCz1smFBwt" ] },
      { "delegate": "tz3S6BBeKgJGXxvLyZ1xzXzMPn11nnFtq5L9",
        "reception_time": "2022-01-21T03:37:51.111-00:00",
        "included_in_blocks":
          [ "BMTTtva4fJzgJ7gyYqWmBtoxF5x8DG9hP1Q3sPVmWQCz1smFBwt" ] },
      { "delegate": "tz1TRspM5SeZpaQUhzByXbEvqKF1vnCM2YTK",
        "reception_time": "2022-01-21T03:37:51.125-00:00",
        "included_in_blocks":
          [ "BMTTtva4fJzgJ7gyYqWmBtoxF5x8DG9hP1Q3sPVmWQCz1smFBwt" ] },
      { "delegate": "tz1bHzftcTKZMTZgLLtnrXydCm6UEqf4ivca",
        "reception_time": "2022-01-21T03:37:51.125-00:00",
        "included_in_blocks":
          [ "BMTTtva4fJzgJ7gyYqWmBtoxF5x8DG9hP1Q3sPVmWQCz1smFBwt" ] },
      { "delegate": "tz1Nf6tsK4G6bBqgSQERy4nUtkHNKUVdh7q1",
        "reception_time": "2022-01-21T03:37:51.127-00:00",
        "included_in_blocks":
          [ "BMTTtva4fJzgJ7gyYqWmBtoxF5x8DG9hP1Q3sPVmWQCz1smFBwt" ] },
      { "delegate": "tz1dNVDWPf3Q59SdJqnjdnu277iyvReiRS9M",
        "reception_time": "2022-01-21T03:37:51.130-00:00",
        "included_in_blocks":
          [ "BMTTtva4fJzgJ7gyYqWmBtoxF5x8DG9hP1Q3sPVmWQCz1smFBwt" ] },
      { "delegate": "tz1V4qCyvPKZ5UeqdH14HN42rxvNPQfc9UZg",
        "reception_time": "2022-01-21T03:37:51.131-00:00",
        "included_in_blocks":
          [ "BMTTtva4fJzgJ7gyYqWmBtoxF5x8DG9hP1Q3sPVmWQCz1smFBwt" ] },
      { "delegate": "tz1Tnjaxk6tbAeC2TmMApPh8UsrEVQvhHvx5",
        "reception_time": "2022-01-21T03:37:51.134-00:00",
        "included_in_blocks":
          [ "BMTTtva4fJzgJ7gyYqWmBtoxF5x8DG9hP1Q3sPVmWQCz1smFBwt" ] },
      { "delegate": "tz1MGTFJXpQmtxLi8QJ7AuVRgM2L2Qfn9w9i",
        "reception_time": "2022-01-21T03:37:51.136-00:00",
        "included_in_blocks":
          [ "BMTTtva4fJzgJ7gyYqWmBtoxF5x8DG9hP1Q3sPVmWQCz1smFBwt" ] },
      { "delegate": "tz1S8MNvuFEUsWgjHvi3AxibRBf388NhT1q2",
        "reception_time": "2022-01-21T03:37:51.139-00:00",
        "included_in_blocks":
          [ "BMTTtva4fJzgJ7gyYqWmBtoxF5x8DG9hP1Q3sPVmWQCz1smFBwt" ] },
      { "delegate": "tz3bTdwZinP8U1JmSweNzVKhmwafqWmFWRfk",
        "reception_time": "2022-01-21T03:37:51.145-00:00",
        "included_in_blocks":
          [ "BMTTtva4fJzgJ7gyYqWmBtoxF5x8DG9hP1Q3sPVmWQCz1smFBwt" ] },
      { "delegate": "tz1KfEsrtDaA1sX7vdM4qmEPWuSytuqCDp5j",
        "reception_time": "2022-01-21T03:37:51.148-00:00",
        "included_in_blocks":
          [ "BMTTtva4fJzgJ7gyYqWmBtoxF5x8DG9hP1Q3sPVmWQCz1smFBwt" ] },
      { "delegate": "tz1gfArv665EUkSg2ojMBzcbfwuPxAvqPvjo",
        "reception_time": "2022-01-21T03:37:51.151-00:00",
        "included_in_blocks":
          [ "BMTTtva4fJzgJ7gyYqWmBtoxF5x8DG9hP1Q3sPVmWQCz1smFBwt" ] },
      { "delegate": "tz1RCFbB9GpALpsZtu6J58sb74dm8qe6XBzv",
        "reception_time": "2022-01-21T03:37:51.151-00:00",
        "included_in_blocks":
          [ "BMTTtva4fJzgJ7gyYqWmBtoxF5x8DG9hP1Q3sPVmWQCz1smFBwt" ] },
      { "delegate": "tz1NEKxGEHsFufk87CVZcrqWu8o22qh46GK6",
        "reception_time": "2022-01-21T03:37:51.155-00:00",
        "included_in_blocks":
          [ "BMTTtva4fJzgJ7gyYqWmBtoxF5x8DG9hP1Q3sPVmWQCz1smFBwt" ] },
      { "delegate": "tz3NDpRj6WBrJPikcPVHRBEjWKxFw3c6eQPS",
        "reception_time": "2022-01-21T03:37:51.174-00:00",
        "included_in_blocks":
          [ "BMTTtva4fJzgJ7gyYqWmBtoxF5x8DG9hP1Q3sPVmWQCz1smFBwt" ] },
      { "delegate": "tz1MQJPGNMijnXnVoBENFz9rUhaPt3S7rWoz",
        "reception_time": "2022-01-21T03:37:51.185-00:00",
        "included_in_blocks":
          [ "BMTTtva4fJzgJ7gyYqWmBtoxF5x8DG9hP1Q3sPVmWQCz1smFBwt" ] },
      { "delegate": "tz1g8vkmcde6sWKaG2NN9WKzCkDM6Rziq194",
        "reception_time": "2022-01-21T03:37:51.190-00:00",
        "included_in_blocks":
          [ "BMTTtva4fJzgJ7gyYqWmBtoxF5x8DG9hP1Q3sPVmWQCz1smFBwt" ] },
      { "delegate": "tz2FCNBrERXtaTtNX6iimR1UJ5JSDxvdHM93",
        "reception_time": "2022-01-21T03:37:51.197-00:00",
        "included_in_blocks":
          [ "BMTTtva4fJzgJ7gyYqWmBtoxF5x8DG9hP1Q3sPVmWQCz1smFBwt" ] },
      { "delegate": "tz3RB4aoyjov4KEVRbuhvQ1CKJgBJMWhaeB8",
        "reception_time": "2022-01-21T03:37:51.274-00:00",
        "included_in_blocks":
          [ "BMTTtva4fJzgJ7gyYqWmBtoxF5x8DG9hP1Q3sPVmWQCz1smFBwt" ] },
      { "delegate": "tz1SYq214SCBy9naR6cvycQsYcUGpBqQAE8d",
        "reception_time": "2022-01-21T03:37:51.276-00:00",
        "included_in_blocks":
          [ "BMTTtva4fJzgJ7gyYqWmBtoxF5x8DG9hP1Q3sPVmWQCz1smFBwt" ] },
      { "delegate": "tz1WBfwbT66FC6BTLexc2BoyCCBM9LG7pnVW",
        "reception_time": "2022-01-21T03:37:51.316-00:00",
        "included_in_blocks":
          [ "BMTTtva4fJzgJ7gyYqWmBtoxF5x8DG9hP1Q3sPVmWQCz1smFBwt" ] },
      { "delegate": "tz1NortRftucvAkD1J58L32EhSVrQEWJCEnB",
        "reception_time": "2022-01-21T03:37:51.420-00:00",
        "included_in_blocks":
          [ "BMTTtva4fJzgJ7gyYqWmBtoxF5x8DG9hP1Q3sPVmWQCz1smFBwt" ] },
      { "delegate": "tz1PeZx7FXy7QRuMREGXGxeipb24RsMMzUNe",
        "reception_time": "2022-01-21T03:37:51.610-00:00",
        "included_in_blocks":
          [ "BMTTtva4fJzgJ7gyYqWmBtoxF5x8DG9hP1Q3sPVmWQCz1smFBwt" ] },
      { "delegate": "tz1c8TSSGtVtg7ANrNVY7G4KnLn7iKdRnUVk",
        "reception_time": "2022-01-21T03:37:51.665-00:00",
        "included_in_blocks":
          [ "BMTTtva4fJzgJ7gyYqWmBtoxF5x8DG9hP1Q3sPVmWQCz1smFBwt" ] },
      { "delegate": "tz1NdhRv643wLW6zCcRP3VfT24dvDnh7nuh9",
        "reception_time": "2022-01-21T03:37:51.690-00:00",
        "included_in_blocks":
          [ "BMTTtva4fJzgJ7gyYqWmBtoxF5x8DG9hP1Q3sPVmWQCz1smFBwt" ] },
      { "delegate": "tz1RjoHc98dBoqaH2jawF62XNKh7YsHwbkEv",
        "reception_time": "2022-01-21T03:37:52.002-00:00",
        "included_in_blocks":
          [ "BMTTtva4fJzgJ7gyYqWmBtoxF5x8DG9hP1Q3sPVmWQCz1smFBwt" ] },
      { "delegate": "tz1KzSC1J9aBxKp7u8TUnpN8L7S65PBRkgdF",
        "reception_time": "2022-01-21T03:37:52.009-00:00",
        "included_in_blocks":
          [ "BMTTtva4fJzgJ7gyYqWmBtoxF5x8DG9hP1Q3sPVmWQCz1smFBwt" ] },
      { "delegate": "tz1dRKU4FQ9QRRQPdaH4zCR6gmCmXfcvcgtB",
        "reception_time": "2022-01-21T03:37:52.013-00:00",
        "included_in_blocks":
          [ "BMTTtva4fJzgJ7gyYqWmBtoxF5x8DG9hP1Q3sPVmWQCz1smFBwt" ] },
      { "delegate": "tz3WMqdzXqRWXwyvj5Hp2H7QEepaUuS7vd9K",
        "reception_time": "2022-01-21T03:37:52.058-00:00",
        "included_in_blocks":
          [ "BMTTtva4fJzgJ7gyYqWmBtoxF5x8DG9hP1Q3sPVmWQCz1smFBwt" ] },
      { "delegate": "tz1T7duV5gZWSTq4YpBGbXNLTfznCLDrFxvs",
        "reception_time": "2022-01-21T03:37:52.140-00:00",
        "included_in_blocks":
          [ "BMTTtva4fJzgJ7gyYqWmBtoxF5x8DG9hP1Q3sPVmWQCz1smFBwt" ] },
      { "delegate": "tz1NoYvKjXTzTk54VpLxBfouJ33J8jwKPPvw",
        "reception_time": "2022-01-21T03:37:52.310-00:00",
        "included_in_blocks":
          [ "BMTTtva4fJzgJ7gyYqWmBtoxF5x8DG9hP1Q3sPVmWQCz1smFBwt" ] },
      { "delegate": "tz3VEZ4k6a4Wx42iyev6i2aVAptTRLEAivNN",
        "reception_time": "2022-01-21T03:37:52.546-00:00",
        "included_in_blocks":
          [ "BMTTtva4fJzgJ7gyYqWmBtoxF5x8DG9hP1Q3sPVmWQCz1smFBwt" ] },
      { "delegate": "tz3bvNMQ95vfAYtG8193ymshqjSvmxiCUuR5",
        "reception_time": "2022-01-21T03:37:52.564-00:00",
        "included_in_blocks":
          [ "BMTTtva4fJzgJ7gyYqWmBtoxF5x8DG9hP1Q3sPVmWQCz1smFBwt" ] },
      { "delegate": "tz1SohptP53wDPZhzTWzDUFAUcWF6DMBpaJV",
        "reception_time": "2022-01-21T03:37:52.569-00:00",
        "included_in_blocks":
          [ "BMTTtva4fJzgJ7gyYqWmBtoxF5x8DG9hP1Q3sPVmWQCz1smFBwt" ] },
      { "delegate": "tz1abmz7jiCV2GH2u81LRrGgAFFgvQgiDiaf",
        "reception_time": "2022-01-21T03:37:52.720-00:00",
        "included_in_blocks":
          [ "BMTTtva4fJzgJ7gyYqWmBtoxF5x8DG9hP1Q3sPVmWQCz1smFBwt" ] },
      { "delegate": "tz1bTpviNnyx2PXsNmGpCQTMQsGoYordkUoA",
        "reception_time": "2022-01-21T03:37:52.989-00:00",
        "included_in_blocks":
          [ "BMTTtva4fJzgJ7gyYqWmBtoxF5x8DG9hP1Q3sPVmWQCz1smFBwt" ] },
      { "delegate": "tz3NExpXn9aPNZPorRE4SdjJ2RGrfbJgMAaV",
        "reception_time": "2022-01-21T03:37:53.346-00:00",
        "included_in_blocks":
          [ "BMTTtva4fJzgJ7gyYqWmBtoxF5x8DG9hP1Q3sPVmWQCz1smFBwt" ] },
      { "delegate": "tz3UoffC7FG7zfpmvmjUmUeAaHvzdcUvAj6r",
        "reception_time": "2022-01-21T03:37:53.493-00:00",
        "included_in_blocks":
          [ "BMTTtva4fJzgJ7gyYqWmBtoxF5x8DG9hP1Q3sPVmWQCz1smFBwt" ] },
      { "delegate": "tz3RDC3Jdn4j15J7bBHZd29EUee9gVB1CxD9",
        "reception_time": "2022-01-21T03:37:53.524-00:00",
        "included_in_blocks":
          [ "BMTTtva4fJzgJ7gyYqWmBtoxF5x8DG9hP1Q3sPVmWQCz1smFBwt" ] },
      { "delegate": "tz1aJS7Pk9uWR3wWyFf1i3RwhYxN84G7stom",
        "reception_time": "2022-01-21T03:37:53.971-00:00",
        "included_in_blocks":
          [ "BMTTtva4fJzgJ7gyYqWmBtoxF5x8DG9hP1Q3sPVmWQCz1smFBwt" ] },
      { "delegate": "tz1aRoaRhSpRYvFdyvgWLL6TGyRoGF51wDjM",
        "reception_time": "2022-01-21T03:37:54.107-00:00",
        "included_in_blocks":
          [ "BMTTtva4fJzgJ7gyYqWmBtoxF5x8DG9hP1Q3sPVmWQCz1smFBwt" ] },
      { "delegate": "tz1W5VkdB5s7ENMESVBtwyt9kyvLqPcUczRT",
        "reception_time": "2022-01-21T03:37:56.347-00:00",
        "included_in_blocks":
          [ "BMTTtva4fJzgJ7gyYqWmBtoxF5x8DG9hP1Q3sPVmWQCz1smFBwt" ] },
      { "delegate": "tz1go7f6mEQfT2xX2LuHAqgnRGN6c2zHPf5c",
        "reception_time": "2022-01-21T03:37:59.531-00:00",
        "included_in_blocks":
          [ "BMTTtva4fJzgJ7gyYqWmBtoxF5x8DG9hP1Q3sPVmWQCz1smFBwt" ] } ] }