{ "blocks":
    [ { "hash": "BLiogvCqWeWoPR5ujqd26c9WN2yYLv7cs95d83zwbJRb8XWDbZS",
        "delegate": "tz1S8MNvuFEUsWgjHvi3AxibRBf388NhT1q2",
        "reception_time": "2022-01-21T07:06:55.386-00:00",
        "timestamp": "2022-01-21T07:06:50Z" } ],
  "endorsements":
    [ { "delegate": "tz1dbfppLAAxXZNtf2SDps7rch3qfUznKSoK" },
      { "delegate": "tz1awXW7wuXy21c66vBudMXQVAPgRnqqwgTH" },
      { "delegate": "tz1TRqbYbUf2GyrjErf3hBzgBJPzW8y36qEs" },
      { "delegate": "tz1S8MNvuFEUsWgjHvi3AxibRBf388NhT1q2",
        "reception_time": "2022-01-21T07:06:55.364-00:00",
        "errors":
          [ { "kind": "temporary",
              "id": "proto.011-PtHangz2.prefilter.outdated_endorsement" } ],
        "included_in_blocks":
          [ "BMZT1rdZjG1KBMx3RNAJjhp5gQvySgERuDk2wtY1DLRcQP9Vo4y" ] },
      { "delegate": "tz1S8e9GgdZG78XJRB3NqabfWeM37GnhZMWQ",
        "reception_time": "2022-01-21T07:06:55.143-00:00",
        "errors":
          [ { "kind": "temporary",
              "id": "proto.011-PtHangz2.prefilter.outdated_endorsement" } ],
        "included_in_blocks":
          [ "BMZT1rdZjG1KBMx3RNAJjhp5gQvySgERuDk2wtY1DLRcQP9Vo4y" ] },
      { "delegate": "tz1W5VkdB5s7ENMESVBtwyt9kyvLqPcUczRT",
        "reception_time": "2022-01-21T07:07:02.972-00:00",
        "included_in_blocks":
          [ "BMZT1rdZjG1KBMx3RNAJjhp5gQvySgERuDk2wtY1DLRcQP9Vo4y" ] },
      { "delegate": "tz1b9MYGrbN1NAxphLEsPPNT9JC7aNFc5nA4",
        "reception_time": "2022-01-21T07:06:58.963-00:00",
        "included_in_blocks":
          [ "BMZT1rdZjG1KBMx3RNAJjhp5gQvySgERuDk2wtY1DLRcQP9Vo4y" ] },
      { "delegate": "tz1QccGQsmt7WMnbVX9inJQgEuQGeMXddfjp",
        "reception_time": "2022-01-21T07:06:59.179-00:00",
        "included_in_blocks":
          [ "BMZT1rdZjG1KBMx3RNAJjhp5gQvySgERuDk2wtY1DLRcQP9Vo4y" ] },
      { "delegate": "tz1PFeoTuFen8jAMRHajBySNyCwLmY5RqF9M",
        "reception_time": "2022-01-21T07:06:58.978-00:00",
        "included_in_blocks":
          [ "BMZT1rdZjG1KBMx3RNAJjhp5gQvySgERuDk2wtY1DLRcQP9Vo4y" ] },
      { "delegate": "tz1TcH4Nb3aHNDJ7CGZhU7jgAK1BkSP4Lxds",
        "reception_time": "2022-01-21T07:06:59.346-00:00",
        "included_in_blocks":
          [ "BMZT1rdZjG1KBMx3RNAJjhp5gQvySgERuDk2wtY1DLRcQP9Vo4y" ] },
      { "delegate": "tz1dRKU4FQ9QRRQPdaH4zCR6gmCmXfcvcgtB",
        "reception_time": "2022-01-21T07:06:58.777-00:00",
        "included_in_blocks":
          [ "BMZT1rdZjG1KBMx3RNAJjhp5gQvySgERuDk2wtY1DLRcQP9Vo4y" ] },
      { "delegate": "tz3RDC3Jdn4j15J7bBHZd29EUee9gVB1CxD9",
        "reception_time": "2022-01-21T07:06:58.559-00:00",
        "included_in_blocks":
          [ "BMZT1rdZjG1KBMx3RNAJjhp5gQvySgERuDk2wtY1DLRcQP9Vo4y" ] },
      { "delegate": "tz1g8vkmcde6sWKaG2NN9WKzCkDM6Rziq194",
        "reception_time": "2022-01-21T07:06:58.315-00:00",
        "included_in_blocks":
          [ "BMZT1rdZjG1KBMx3RNAJjhp5gQvySgERuDk2wtY1DLRcQP9Vo4y" ] },
      { "delegate": "tz1cYufsxHXJcvANhvS55h3aY32a9BAFB494",
        "reception_time": "2022-01-21T07:06:58.317-00:00",
        "included_in_blocks":
          [ "BMZT1rdZjG1KBMx3RNAJjhp5gQvySgERuDk2wtY1DLRcQP9Vo4y" ] },
      { "delegate": "tz3bvNMQ95vfAYtG8193ymshqjSvmxiCUuR5",
        "reception_time": "2022-01-21T07:06:58.157-00:00",
        "included_in_blocks":
          [ "BMZT1rdZjG1KBMx3RNAJjhp5gQvySgERuDk2wtY1DLRcQP9Vo4y" ] },
      { "delegate": "tz1QXrzaHrGACVn15UiCg33aLCJ6npWdQb3J",
        "reception_time": "2022-01-21T07:06:58.138-00:00",
        "included_in_blocks":
          [ "BMZT1rdZjG1KBMx3RNAJjhp5gQvySgERuDk2wtY1DLRcQP9Vo4y" ] },
      { "delegate": "tz1PeZx7FXy7QRuMREGXGxeipb24RsMMzUNe",
        "reception_time": "2022-01-21T07:06:57.761-00:00",
        "included_in_blocks":
          [ "BMZT1rdZjG1KBMx3RNAJjhp5gQvySgERuDk2wtY1DLRcQP9Vo4y" ] },
      { "delegate": "tz3NExpXn9aPNZPorRE4SdjJ2RGrfbJgMAaV",
        "reception_time": "2022-01-21T07:06:58.354-00:00",
        "included_in_blocks":
          [ "BMZT1rdZjG1KBMx3RNAJjhp5gQvySgERuDk2wtY1DLRcQP9Vo4y" ] },
      { "delegate": "tz1Zcxkfa5jKrRbBThG765GP29bUCU3C4ok5",
        "reception_time": "2022-01-21T07:06:58.304-00:00",
        "included_in_blocks":
          [ "BMZT1rdZjG1KBMx3RNAJjhp5gQvySgERuDk2wtY1DLRcQP9Vo4y" ] },
      { "delegate": "tz1aRoaRhSpRYvFdyvgWLL6TGyRoGF51wDjM",
        "reception_time": "2022-01-21T07:06:57.809-00:00",
        "included_in_blocks":
          [ "BMZT1rdZjG1KBMx3RNAJjhp5gQvySgERuDk2wtY1DLRcQP9Vo4y" ] },
      { "delegate": "tz3UoffC7FG7zfpmvmjUmUeAaHvzdcUvAj6r",
        "reception_time": "2022-01-21T07:06:58.474-00:00",
        "included_in_blocks":
          [ "BMZT1rdZjG1KBMx3RNAJjhp5gQvySgERuDk2wtY1DLRcQP9Vo4y" ] },
      { "delegate": "tz3gLTu4Yxj8tPAcriQVUdxv6BY9QyvzU1az",
        "reception_time": "2022-01-21T07:06:57.668-00:00",
        "included_in_blocks":
          [ "BMZT1rdZjG1KBMx3RNAJjhp5gQvySgERuDk2wtY1DLRcQP9Vo4y" ] },
      { "delegate": "tz1fJHFn6sWEd3NnBPngACuw2dggTv6nQZ7g",
        "reception_time": "2022-01-21T07:06:57.648-00:00",
        "included_in_blocks":
          [ "BMZT1rdZjG1KBMx3RNAJjhp5gQvySgERuDk2wtY1DLRcQP9Vo4y" ] },
      { "delegate": "tz1SYq214SCBy9naR6cvycQsYcUGpBqQAE8d",
        "reception_time": "2022-01-21T07:06:57.319-00:00",
        "included_in_blocks":
          [ "BMZT1rdZjG1KBMx3RNAJjhp5gQvySgERuDk2wtY1DLRcQP9Vo4y" ] },
      { "delegate": "tz3bTdwZinP8U1JmSweNzVKhmwafqWmFWRfk",
        "reception_time": "2022-01-21T07:06:57.358-00:00",
        "included_in_blocks":
          [ "BMZT1rdZjG1KBMx3RNAJjhp5gQvySgERuDk2wtY1DLRcQP9Vo4y" ] },
      { "delegate": "tz1T7duV5gZWSTq4YpBGbXNLTfznCLDrFxvs",
        "reception_time": "2022-01-21T07:06:57.805-00:00",
        "included_in_blocks":
          [ "BMZT1rdZjG1KBMx3RNAJjhp5gQvySgERuDk2wtY1DLRcQP9Vo4y" ] },
      { "delegate": "tz2FCNBrERXtaTtNX6iimR1UJ5JSDxvdHM93",
        "reception_time": "2022-01-21T07:06:57.375-00:00",
        "included_in_blocks":
          [ "BMZT1rdZjG1KBMx3RNAJjhp5gQvySgERuDk2wtY1DLRcQP9Vo4y" ] },
      { "delegate": "tz3RB4aoyjov4KEVRbuhvQ1CKJgBJMWhaeB8",
        "reception_time": "2022-01-21T07:06:57.013-00:00",
        "included_in_blocks":
          [ "BMZT1rdZjG1KBMx3RNAJjhp5gQvySgERuDk2wtY1DLRcQP9Vo4y" ] },
      { "delegate": "tz3VEZ4k6a4Wx42iyev6i2aVAptTRLEAivNN",
        "reception_time": "2022-01-21T07:06:57.507-00:00",
        "included_in_blocks":
          [ "BMZT1rdZjG1KBMx3RNAJjhp5gQvySgERuDk2wtY1DLRcQP9Vo4y" ] },
      { "delegate": "tz1NEKxGEHsFufk87CVZcrqWu8o22qh46GK6",
        "reception_time": "2022-01-21T07:06:57.674-00:00",
        "included_in_blocks":
          [ "BMZT1rdZjG1KBMx3RNAJjhp5gQvySgERuDk2wtY1DLRcQP9Vo4y" ] },
      { "delegate": "tz1RjoHc98dBoqaH2jawF62XNKh7YsHwbkEv",
        "reception_time": "2022-01-21T07:06:57.532-00:00",
        "included_in_blocks":
          [ "BMZT1rdZjG1KBMx3RNAJjhp5gQvySgERuDk2wtY1DLRcQP9Vo4y" ] },
      { "delegate": "tz1ei4WtWEMEJekSv8qDnu9PExG6Q8HgRGr3",
        "reception_time": "2022-01-21T07:06:57.394-00:00",
        "included_in_blocks":
          [ "BMZT1rdZjG1KBMx3RNAJjhp5gQvySgERuDk2wtY1DLRcQP9Vo4y" ] },
      { "delegate": "tz1WctSwL49BZtdWAQ75NY6vr4xsAx6oKdah",
        "reception_time": "2022-01-21T07:06:57.514-00:00",
        "included_in_blocks":
          [ "BMZT1rdZjG1KBMx3RNAJjhp5gQvySgERuDk2wtY1DLRcQP9Vo4y" ] },
      { "delegate": "tz1MGTFJXpQmtxLi8QJ7AuVRgM2L2Qfn9w9i",
        "reception_time": "2022-01-21T07:06:57.137-00:00",
        "included_in_blocks":
          [ "BMZT1rdZjG1KBMx3RNAJjhp5gQvySgERuDk2wtY1DLRcQP9Vo4y" ] },
      { "delegate": "tz3WMqdzXqRWXwyvj5Hp2H7QEepaUuS7vd9K",
        "reception_time": "2022-01-21T07:06:57.485-00:00",
        "included_in_blocks":
          [ "BMZT1rdZjG1KBMx3RNAJjhp5gQvySgERuDk2wtY1DLRcQP9Vo4y" ] },
      { "delegate": "tz1WCd2jm4uSt4vntk4vSuUWoZQGhLcDuR9q",
        "reception_time": "2022-01-21T07:06:56.663-00:00",
        "included_in_blocks":
          [ "BMZT1rdZjG1KBMx3RNAJjhp5gQvySgERuDk2wtY1DLRcQP9Vo4y" ] },
      { "delegate": "tz1Ldzz6k1BHdhuKvAtMRX7h5kJSMHESMHLC",
        "reception_time": "2022-01-21T07:06:56.767-00:00",
        "included_in_blocks":
          [ "BMZT1rdZjG1KBMx3RNAJjhp5gQvySgERuDk2wtY1DLRcQP9Vo4y" ] },
      { "delegate": "tz1TzaNn7wSQSP5gYPXCnNzBCpyMiidCq1PX",
        "reception_time": "2022-01-21T07:06:56.518-00:00",
        "included_in_blocks":
          [ "BMZT1rdZjG1KBMx3RNAJjhp5gQvySgERuDk2wtY1DLRcQP9Vo4y" ] },
      { "delegate": "tz1PWCDnz783NNGGQjEFFsHtrcK5yBW4E2rm",
        "reception_time": "2022-01-21T07:06:56.703-00:00",
        "included_in_blocks":
          [ "BMZT1rdZjG1KBMx3RNAJjhp5gQvySgERuDk2wtY1DLRcQP9Vo4y" ] },
      { "delegate": "tz1Nf6tsK4G6bBqgSQERy4nUtkHNKUVdh7q1",
        "reception_time": "2022-01-21T07:06:56.988-00:00",
        "included_in_blocks":
          [ "BMZT1rdZjG1KBMx3RNAJjhp5gQvySgERuDk2wtY1DLRcQP9Vo4y" ] },
      { "delegate": "tz1V4qCyvPKZ5UeqdH14HN42rxvNPQfc9UZg",
        "reception_time": "2022-01-21T07:06:57.051-00:00",
        "included_in_blocks":
          [ "BMZT1rdZjG1KBMx3RNAJjhp5gQvySgERuDk2wtY1DLRcQP9Vo4y" ] },
      { "delegate": "tz3adcvQaKXTCg12zbninqo3q8ptKKtDFTLv",
        "reception_time": "2022-01-21T07:06:56.955-00:00",
        "included_in_blocks":
          [ "BMZT1rdZjG1KBMx3RNAJjhp5gQvySgERuDk2wtY1DLRcQP9Vo4y" ] },
      { "delegate": "tz3QSGPoRp3Kn7n3vY24eYeu3Peuqo45LQ4D",
        "reception_time": "2022-01-21T07:06:56.372-00:00",
        "included_in_blocks":
          [ "BMZT1rdZjG1KBMx3RNAJjhp5gQvySgERuDk2wtY1DLRcQP9Vo4y" ] },
      { "delegate": "tz1gUNyn3hmnEWqkusWPzxRaon1cs7ndWh7h",
        "reception_time": "2022-01-21T07:06:56.528-00:00",
        "included_in_blocks":
          [ "BMZT1rdZjG1KBMx3RNAJjhp5gQvySgERuDk2wtY1DLRcQP9Vo4y" ] },
      { "delegate": "tz3iJu5vrKZcsqRPs8yJ61UDoeEXZmtro4qh",
        "reception_time": "2022-01-21T07:06:56.377-00:00",
        "included_in_blocks":
          [ "BMZT1rdZjG1KBMx3RNAJjhp5gQvySgERuDk2wtY1DLRcQP9Vo4y" ] },
      { "delegate": "tz3Zhs2dygr55yHyQyKjntAtY9bgfhLZ4Xj1",
        "reception_time": "2022-01-21T07:06:56.386-00:00",
        "included_in_blocks":
          [ "BMZT1rdZjG1KBMx3RNAJjhp5gQvySgERuDk2wtY1DLRcQP9Vo4y" ] },
      { "delegate": "tz1VQnqCCqX4K5sP3FNkVSNKTdCAMJDd3E1n",
        "reception_time": "2022-01-21T07:06:56.507-00:00",
        "included_in_blocks":
          [ "BMZT1rdZjG1KBMx3RNAJjhp5gQvySgERuDk2wtY1DLRcQP9Vo4y" ] },
      { "delegate": "tz1dNVDWPf3Q59SdJqnjdnu277iyvReiRS9M",
        "reception_time": "2022-01-21T07:06:56.965-00:00",
        "included_in_blocks":
          [ "BMZT1rdZjG1KBMx3RNAJjhp5gQvySgERuDk2wtY1DLRcQP9Vo4y" ] },
      { "delegate": "tz1TEc75UKXv4W5cwi14Na3NtqFD51yKQi7h",
        "reception_time": "2022-01-21T07:06:57.026-00:00",
        "included_in_blocks":
          [ "BMZT1rdZjG1KBMx3RNAJjhp5gQvySgERuDk2wtY1DLRcQP9Vo4y" ] },
      { "delegate": "tz3S6BBeKgJGXxvLyZ1xzXzMPn11nnFtq5L9",
        "reception_time": "2022-01-21T07:06:56.427-00:00",
        "included_in_blocks":
          [ "BMZT1rdZjG1KBMx3RNAJjhp5gQvySgERuDk2wtY1DLRcQP9Vo4y" ] },
      { "delegate": "tz3hw2kqXhLUvY65ca1eety2oQTpAvd34R9Q",
        "reception_time": "2022-01-21T07:06:56.170-00:00",
        "included_in_blocks":
          [ "BMZT1rdZjG1KBMx3RNAJjhp5gQvySgERuDk2wtY1DLRcQP9Vo4y" ] },
      { "delegate": "tz3ZbP2pM3nwvXztbuMJwJnDvV5xdpU8UkkD",
        "reception_time": "2022-01-21T07:06:56.182-00:00",
        "included_in_blocks":
          [ "BMZT1rdZjG1KBMx3RNAJjhp5gQvySgERuDk2wtY1DLRcQP9Vo4y" ] },
      { "delegate": "tz3QT9dHYKDqh563chVa6za8526ys1UKfRfL",
        "reception_time": "2022-01-21T07:06:56.499-00:00",
        "included_in_blocks":
          [ "BMZT1rdZjG1KBMx3RNAJjhp5gQvySgERuDk2wtY1DLRcQP9Vo4y" ] },
      { "delegate": "tz1gfArv665EUkSg2ojMBzcbfwuPxAvqPvjo",
        "reception_time": "2022-01-21T07:06:56.651-00:00",
        "included_in_blocks":
          [ "BMZT1rdZjG1KBMx3RNAJjhp5gQvySgERuDk2wtY1DLRcQP9Vo4y" ] },
      { "delegate": "tz3gtoUxdudfBRcNY7iVdKPHCYYX6xdPpoRS",
        "reception_time": "2022-01-21T07:06:56.365-00:00",
        "included_in_blocks":
          [ "BMZT1rdZjG1KBMx3RNAJjhp5gQvySgERuDk2wtY1DLRcQP9Vo4y" ] },
      { "delegate": "tz1VmiY38m3y95HqQLjMwqnMS7sdMfGomzKi",
        "reception_time": "2022-01-21T07:06:56.429-00:00",
        "included_in_blocks":
          [ "BMZT1rdZjG1KBMx3RNAJjhp5gQvySgERuDk2wtY1DLRcQP9Vo4y" ] },
      { "delegate": "tz1irJKkXS2DBWkU1NnmFQx1c1L7pbGg4yhk",
        "reception_time": "2022-01-21T07:06:56.128-00:00",
        "included_in_blocks":
          [ "BMZT1rdZjG1KBMx3RNAJjhp5gQvySgERuDk2wtY1DLRcQP9Vo4y" ] },
      { "delegate": "tz3NxTnke1acr8o3h5y9ytf5awQBGNJUKzVU",
        "reception_time": "2022-01-21T07:06:56.134-00:00",
        "included_in_blocks":
          [ "BMZT1rdZjG1KBMx3RNAJjhp5gQvySgERuDk2wtY1DLRcQP9Vo4y" ] },
      { "delegate": "tz1Scdr2HsZiQjc7bHMeBbmDRXYVvdhjJbBh",
        "reception_time": "2022-01-21T07:06:56.128-00:00",
        "included_in_blocks":
          [ "BMZT1rdZjG1KBMx3RNAJjhp5gQvySgERuDk2wtY1DLRcQP9Vo4y" ] },
      { "delegate": "tz1RCFbB9GpALpsZtu6J58sb74dm8qe6XBzv",
        "reception_time": "2022-01-21T07:06:56.139-00:00",
        "included_in_blocks":
          [ "BMZT1rdZjG1KBMx3RNAJjhp5gQvySgERuDk2wtY1DLRcQP9Vo4y" ] },
      { "delegate": "tz1Kf25fX1VdmYGSEzwFy1wNmkbSEZ2V83sY",
        "reception_time": "2022-01-21T07:06:56.136-00:00",
        "included_in_blocks":
          [ "BMZT1rdZjG1KBMx3RNAJjhp5gQvySgERuDk2wtY1DLRcQP9Vo4y" ] },
      { "delegate": "tz1eEnQhbwf6trb8Q8mPb2RaPkNk2rN7BKi8",
        "reception_time": "2022-01-21T07:06:56.128-00:00",
        "included_in_blocks":
          [ "BMZT1rdZjG1KBMx3RNAJjhp5gQvySgERuDk2wtY1DLRcQP9Vo4y" ] },
      { "delegate": "tz1Lhf4J9Qxoe3DZ2nfe8FGDnvVj7oKjnMY6",
        "reception_time": "2022-01-21T07:06:56.128-00:00",
        "included_in_blocks":
          [ "BMZT1rdZjG1KBMx3RNAJjhp5gQvySgERuDk2wtY1DLRcQP9Vo4y" ] },
      { "delegate": "tz1P2Po7YM526ughEsRbY4oR9zaUPDZjxFrb",
        "reception_time": "2022-01-21T07:06:56.128-00:00",
        "included_in_blocks":
          [ "BMZT1rdZjG1KBMx3RNAJjhp5gQvySgERuDk2wtY1DLRcQP9Vo4y" ] },
      { "delegate": "tz1fPKAtsYydh4f1wfWNfeNxWYu72TmM48fu",
        "reception_time": "2022-01-21T07:06:56.128-00:00",
        "included_in_blocks":
          [ "BMZT1rdZjG1KBMx3RNAJjhp5gQvySgERuDk2wtY1DLRcQP9Vo4y" ] } ] }