{ "blocks":
    [ { "hash": "BMBzPJcyU8GgXNZfEpcdxB489PGL9mGRVtBvdJdqvBVon55kugo",
        "delegate": "tz1gfArv665EUkSg2ojMBzcbfwuPxAvqPvjo",
        "reception_time": "2022-01-21T06:51:27.747-00:00",
        "timestamp": "2022-01-21T06:51:20Z" } ],
  "endorsements":
    [ { "delegate": "tz1aDiEJf9ztRrAJEXZfcG3CKimoKsGhwVAi",
        "reception_time": "2022-01-21T06:51:27.656-00:00",
        "errors":
          [ { "kind": "temporary",
              "id": "proto.011-PtHangz2.prefilter.outdated_endorsement" } ],
        "included_in_blocks":
          [ "BMbiycBMrLrtatX61m1NnVuuLw7tz1vgMMaqjZ85LnA2V1bJQqw" ] },
      { "delegate": "tz1irJKkXS2DBWkU1NnmFQx1c1L7pbGg4yhk",
        "reception_time": "2022-01-21T06:51:27.555-00:00",
        "errors":
          [ { "kind": "temporary",
              "id": "proto.011-PtHangz2.prefilter.outdated_endorsement" } ],
        "included_in_blocks":
          [ "BMbiycBMrLrtatX61m1NnVuuLw7tz1vgMMaqjZ85LnA2V1bJQqw" ] },
      { "delegate": "tz1TXzyaKUA8wsWefdSnyaYFnV2M3vCV7er9",
        "reception_time": "2022-01-21T06:51:27.426-00:00",
        "errors":
          [ { "kind": "temporary",
              "id": "proto.011-PtHangz2.prefilter.outdated_endorsement" } ],
        "included_in_blocks":
          [ "BMbiycBMrLrtatX61m1NnVuuLw7tz1vgMMaqjZ85LnA2V1bJQqw" ] },
      { "delegate": "tz1P2Po7YM526ughEsRbY4oR9zaUPDZjxFrb",
        "reception_time": "2022-01-21T06:51:27.303-00:00",
        "errors":
          [ { "kind": "temporary",
              "id": "proto.011-PtHangz2.prefilter.outdated_endorsement" } ],
        "included_in_blocks":
          [ "BMbiycBMrLrtatX61m1NnVuuLw7tz1vgMMaqjZ85LnA2V1bJQqw" ] },
      { "delegate": "tz1S8e9GgdZG78XJRB3NqabfWeM37GnhZMWQ",
        "reception_time": "2022-01-21T06:51:27.012-00:00",
        "errors":
          [ { "kind": "temporary",
              "id": "proto.011-PtHangz2.prefilter.outdated_endorsement" } ],
        "included_in_blocks":
          [ "BMbiycBMrLrtatX61m1NnVuuLw7tz1vgMMaqjZ85LnA2V1bJQqw" ] },
      { "delegate": "tz1gfArv665EUkSg2ojMBzcbfwuPxAvqPvjo",
        "reception_time": "2022-01-21T06:51:26.778-00:00",
        "errors":
          [ { "kind": "temporary",
              "id": "proto.011-PtHangz2.prefilter.outdated_endorsement" } ],
        "included_in_blocks":
          [ "BMbiycBMrLrtatX61m1NnVuuLw7tz1vgMMaqjZ85LnA2V1bJQqw" ] },
      { "delegate": "tz1TRqbYbUf2GyrjErf3hBzgBJPzW8y36qEs" },
      { "delegate": "tz1awXW7wuXy21c66vBudMXQVAPgRnqqwgTH" },
      { "delegate": "tz1dbfppLAAxXZNtf2SDps7rch3qfUznKSoK" },
      { "delegate": "tz1aXD7Jigrt3PBYSpHSg5Rr33SexMmmM5Ys",
        "reception_time": "2022-01-21T06:51:28.367-00:00",
        "included_in_blocks":
          [ "BMbiycBMrLrtatX61m1NnVuuLw7tz1vgMMaqjZ85LnA2V1bJQqw" ] },
      { "delegate": "tz1Kt4P8BCaP93AEV4eA7gmpRryWt5hznjCP",
        "reception_time": "2022-01-21T06:51:28.699-00:00",
        "included_in_blocks":
          [ "BMbiycBMrLrtatX61m1NnVuuLw7tz1vgMMaqjZ85LnA2V1bJQqw" ] },
      { "delegate": "tz1eEnQhbwf6trb8Q8mPb2RaPkNk2rN7BKi8",
        "reception_time": "2022-01-21T06:51:28.710-00:00",
        "included_in_blocks":
          [ "BMbiycBMrLrtatX61m1NnVuuLw7tz1vgMMaqjZ85LnA2V1bJQqw" ] },
      { "delegate": "tz1VmiY38m3y95HqQLjMwqnMS7sdMfGomzKi",
        "reception_time": "2022-01-21T06:51:28.713-00:00",
        "included_in_blocks":
          [ "BMbiycBMrLrtatX61m1NnVuuLw7tz1vgMMaqjZ85LnA2V1bJQqw" ] },
      { "delegate": "tz1PWCDnz783NNGGQjEFFsHtrcK5yBW4E2rm",
        "reception_time": "2022-01-21T06:51:28.718-00:00",
        "included_in_blocks":
          [ "BMbiycBMrLrtatX61m1NnVuuLw7tz1vgMMaqjZ85LnA2V1bJQqw" ] },
      { "delegate": "tz1Ldzz6k1BHdhuKvAtMRX7h5kJSMHESMHLC",
        "reception_time": "2022-01-21T06:51:28.732-00:00",
        "included_in_blocks":
          [ "BMbiycBMrLrtatX61m1NnVuuLw7tz1vgMMaqjZ85LnA2V1bJQqw" ] },
      { "delegate": "tz1Kf25fX1VdmYGSEzwFy1wNmkbSEZ2V83sY",
        "reception_time": "2022-01-21T06:51:28.735-00:00",
        "included_in_blocks":
          [ "BMbiycBMrLrtatX61m1NnVuuLw7tz1vgMMaqjZ85LnA2V1bJQqw" ] },
      { "delegate": "tz3RKYFsLuQzKBtmYuLNas7uMu3AsYd4QdsA",
        "reception_time": "2022-01-21T06:51:28.741-00:00",
        "included_in_blocks":
          [ "BMbiycBMrLrtatX61m1NnVuuLw7tz1vgMMaqjZ85LnA2V1bJQqw" ] },
      { "delegate": "tz3hw2kqXhLUvY65ca1eety2oQTpAvd34R9Q",
        "reception_time": "2022-01-21T06:51:28.753-00:00",
        "included_in_blocks":
          [ "BMbiycBMrLrtatX61m1NnVuuLw7tz1vgMMaqjZ85LnA2V1bJQqw" ] },
      { "delegate": "tz3Zhs2dygr55yHyQyKjntAtY9bgfhLZ4Xj1",
        "reception_time": "2022-01-21T06:51:28.753-00:00",
        "included_in_blocks":
          [ "BMbiycBMrLrtatX61m1NnVuuLw7tz1vgMMaqjZ85LnA2V1bJQqw" ] },
      { "delegate": "tz3QSGPoRp3Kn7n3vY24eYeu3Peuqo45LQ4D",
        "reception_time": "2022-01-21T06:51:28.766-00:00",
        "included_in_blocks":
          [ "BMbiycBMrLrtatX61m1NnVuuLw7tz1vgMMaqjZ85LnA2V1bJQqw" ] },
      { "delegate": "tz3ZbP2pM3nwvXztbuMJwJnDvV5xdpU8UkkD",
        "reception_time": "2022-01-21T06:51:28.766-00:00",
        "included_in_blocks":
          [ "BMbiycBMrLrtatX61m1NnVuuLw7tz1vgMMaqjZ85LnA2V1bJQqw" ] },
      { "delegate": "tz3NxTnke1acr8o3h5y9ytf5awQBGNJUKzVU",
        "reception_time": "2022-01-21T06:51:28.778-00:00",
        "included_in_blocks":
          [ "BMbiycBMrLrtatX61m1NnVuuLw7tz1vgMMaqjZ85LnA2V1bJQqw" ] },
      { "delegate": "tz3gtoUxdudfBRcNY7iVdKPHCYYX6xdPpoRS",
        "reception_time": "2022-01-21T06:51:28.778-00:00",
        "included_in_blocks":
          [ "BMbiycBMrLrtatX61m1NnVuuLw7tz1vgMMaqjZ85LnA2V1bJQqw" ] },
      { "delegate": "tz3iJu5vrKZcsqRPs8yJ61UDoeEXZmtro4qh",
        "reception_time": "2022-01-21T06:51:28.786-00:00",
        "included_in_blocks":
          [ "BMbiycBMrLrtatX61m1NnVuuLw7tz1vgMMaqjZ85LnA2V1bJQqw" ] },
      { "delegate": "tz1gUNyn3hmnEWqkusWPzxRaon1cs7ndWh7h",
        "reception_time": "2022-01-21T06:51:28.789-00:00",
        "included_in_blocks":
          [ "BMbiycBMrLrtatX61m1NnVuuLw7tz1vgMMaqjZ85LnA2V1bJQqw" ] },
      { "delegate": "tz1abmz7jiCV2GH2u81LRrGgAFFgvQgiDiaf",
        "reception_time": "2022-01-21T06:51:28.792-00:00",
        "included_in_blocks":
          [ "BMbiycBMrLrtatX61m1NnVuuLw7tz1vgMMaqjZ85LnA2V1bJQqw" ] },
      { "delegate": "tz1VQnqCCqX4K5sP3FNkVSNKTdCAMJDd3E1n",
        "reception_time": "2022-01-21T06:51:28.792-00:00",
        "included_in_blocks":
          [ "BMbiycBMrLrtatX61m1NnVuuLw7tz1vgMMaqjZ85LnA2V1bJQqw" ] },
      { "delegate": "tz3QT9dHYKDqh563chVa6za8526ys1UKfRfL",
        "reception_time": "2022-01-21T06:51:28.801-00:00",
        "included_in_blocks":
          [ "BMbiycBMrLrtatX61m1NnVuuLw7tz1vgMMaqjZ85LnA2V1bJQqw" ] },
      { "delegate": "tz1cSj7fTex3JPd1p1LN1fwek6AV1kH93Wwc",
        "reception_time": "2022-01-21T06:51:28.801-00:00",
        "included_in_blocks":
          [ "BMbiycBMrLrtatX61m1NnVuuLw7tz1vgMMaqjZ85LnA2V1bJQqw" ] },
      { "delegate": "tz1fPKAtsYydh4f1wfWNfeNxWYu72TmM48fu",
        "reception_time": "2022-01-21T06:51:28.810-00:00",
        "included_in_blocks":
          [ "BMbiycBMrLrtatX61m1NnVuuLw7tz1vgMMaqjZ85LnA2V1bJQqw" ] },
      { "delegate": "tz3S6BBeKgJGXxvLyZ1xzXzMPn11nnFtq5L9",
        "reception_time": "2022-01-21T06:51:28.816-00:00",
        "included_in_blocks":
          [ "BMbiycBMrLrtatX61m1NnVuuLw7tz1vgMMaqjZ85LnA2V1bJQqw" ] },
      { "delegate": "tz1aqcYgG6NuViML5vdWhohHJBYxcDVLNUsE",
        "reception_time": "2022-01-21T06:51:28.819-00:00",
        "included_in_blocks":
          [ "BMbiycBMrLrtatX61m1NnVuuLw7tz1vgMMaqjZ85LnA2V1bJQqw" ] },
      { "delegate": "tz1WCd2jm4uSt4vntk4vSuUWoZQGhLcDuR9q",
        "reception_time": "2022-01-21T06:51:28.821-00:00",
        "included_in_blocks":
          [ "BMbiycBMrLrtatX61m1NnVuuLw7tz1vgMMaqjZ85LnA2V1bJQqw" ] },
      { "delegate": "tz1TzaNn7wSQSP5gYPXCnNzBCpyMiidCq1PX",
        "reception_time": "2022-01-21T06:51:28.826-00:00",
        "included_in_blocks":
          [ "BMbiycBMrLrtatX61m1NnVuuLw7tz1vgMMaqjZ85LnA2V1bJQqw" ] },
      { "delegate": "tz1UJvHTgpVzcKWhTazGxVcn5wsHru5Gietg",
        "reception_time": "2022-01-21T06:51:28.850-00:00",
        "included_in_blocks":
          [ "BMbiycBMrLrtatX61m1NnVuuLw7tz1vgMMaqjZ85LnA2V1bJQqw" ] },
      { "delegate": "tz1d6Fx42mYgVFnHUW8T8A7WBfJ6nD9pVok8",
        "reception_time": "2022-01-21T06:51:28.861-00:00",
        "included_in_blocks":
          [ "BMbiycBMrLrtatX61m1NnVuuLw7tz1vgMMaqjZ85LnA2V1bJQqw" ] },
      { "delegate": "tz1RCFbB9GpALpsZtu6J58sb74dm8qe6XBzv",
        "reception_time": "2022-01-21T06:51:28.880-00:00",
        "included_in_blocks":
          [ "BMbiycBMrLrtatX61m1NnVuuLw7tz1vgMMaqjZ85LnA2V1bJQqw" ] },
      { "delegate": "tz1ei4WtWEMEJekSv8qDnu9PExG6Q8HgRGr3",
        "reception_time": "2022-01-21T06:51:28.894-00:00",
        "included_in_blocks":
          [ "BMbiycBMrLrtatX61m1NnVuuLw7tz1vgMMaqjZ85LnA2V1bJQqw" ] },
      { "delegate": "tz3bTdwZinP8U1JmSweNzVKhmwafqWmFWRfk",
        "reception_time": "2022-01-21T06:51:28.903-00:00",
        "included_in_blocks":
          [ "BMbiycBMrLrtatX61m1NnVuuLw7tz1vgMMaqjZ85LnA2V1bJQqw" ] },
      { "delegate": "tz3QCNyySViKHmeSr45kzDxzchys7NiXCWoa",
        "reception_time": "2022-01-21T06:51:28.909-00:00",
        "included_in_blocks":
          [ "BMbiycBMrLrtatX61m1NnVuuLw7tz1vgMMaqjZ85LnA2V1bJQqw" ] },
      { "delegate": "tz3adcvQaKXTCg12zbninqo3q8ptKKtDFTLv",
        "reception_time": "2022-01-21T06:51:28.950-00:00",
        "included_in_blocks":
          [ "BMbiycBMrLrtatX61m1NnVuuLw7tz1vgMMaqjZ85LnA2V1bJQqw" ] },
      { "delegate": "tz1ajgycuHmd2z2JbTSJxKv7x6cok2KuNSk1",
        "reception_time": "2022-01-21T06:51:28.999-00:00",
        "included_in_blocks":
          [ "BMbiycBMrLrtatX61m1NnVuuLw7tz1vgMMaqjZ85LnA2V1bJQqw" ] },
      { "delegate": "tz3bvNMQ95vfAYtG8193ymshqjSvmxiCUuR5",
        "reception_time": "2022-01-21T06:51:29.011-00:00",
        "included_in_blocks":
          [ "BMbiycBMrLrtatX61m1NnVuuLw7tz1vgMMaqjZ85LnA2V1bJQqw" ] },
      { "delegate": "tz1fb7c66UwePkkfDXz4ajFaBP9hVNLdS7JJ",
        "reception_time": "2022-01-21T06:51:29.171-00:00",
        "included_in_blocks":
          [ "BMbiycBMrLrtatX61m1NnVuuLw7tz1vgMMaqjZ85LnA2V1bJQqw" ] },
      { "delegate": "tz1KfEsrtDaA1sX7vdM4qmEPWuSytuqCDp5j",
        "reception_time": "2022-01-21T06:51:29.179-00:00",
        "included_in_blocks":
          [ "BMbiycBMrLrtatX61m1NnVuuLw7tz1vgMMaqjZ85LnA2V1bJQqw" ] },
      { "delegate": "tz1g8vkmcde6sWKaG2NN9WKzCkDM6Rziq194",
        "reception_time": "2022-01-21T06:51:29.274-00:00",
        "included_in_blocks":
          [ "BMbiycBMrLrtatX61m1NnVuuLw7tz1vgMMaqjZ85LnA2V1bJQqw" ] },
      { "delegate": "tz3RB4aoyjov4KEVRbuhvQ1CKJgBJMWhaeB8",
        "reception_time": "2022-01-21T06:51:29.367-00:00",
        "included_in_blocks":
          [ "BMbiycBMrLrtatX61m1NnVuuLw7tz1vgMMaqjZ85LnA2V1bJQqw" ] },
      { "delegate": "tz1cUTyvZAs9ExrK8Fq88UvaaBrb72bseicE",
        "reception_time": "2022-01-21T06:51:29.372-00:00",
        "included_in_blocks":
          [ "BMbiycBMrLrtatX61m1NnVuuLw7tz1vgMMaqjZ85LnA2V1bJQqw" ] },
      { "delegate": "tz1S8MNvuFEUsWgjHvi3AxibRBf388NhT1q2",
        "reception_time": "2022-01-21T06:51:29.395-00:00",
        "included_in_blocks":
          [ "BMbiycBMrLrtatX61m1NnVuuLw7tz1vgMMaqjZ85LnA2V1bJQqw" ] },
      { "delegate": "tz1bxVgPCiveFHSand7zn22S8ZBtvNQbqgqU",
        "reception_time": "2022-01-21T06:51:29.454-00:00",
        "included_in_blocks":
          [ "BMbiycBMrLrtatX61m1NnVuuLw7tz1vgMMaqjZ85LnA2V1bJQqw" ] },
      { "delegate": "tz1SYq214SCBy9naR6cvycQsYcUGpBqQAE8d",
        "reception_time": "2022-01-21T06:51:29.484-00:00",
        "included_in_blocks":
          [ "BMbiycBMrLrtatX61m1NnVuuLw7tz1vgMMaqjZ85LnA2V1bJQqw" ] },
      { "delegate": "tz1WBfwbT66FC6BTLexc2BoyCCBM9LG7pnVW",
        "reception_time": "2022-01-21T06:51:29.543-00:00",
        "included_in_blocks":
          [ "BMbiycBMrLrtatX61m1NnVuuLw7tz1vgMMaqjZ85LnA2V1bJQqw" ] },
      { "delegate": "tz1SohptP53wDPZhzTWzDUFAUcWF6DMBpaJV",
        "reception_time": "2022-01-21T06:51:29.664-00:00",
        "included_in_blocks":
          [ "BMbiycBMrLrtatX61m1NnVuuLw7tz1vgMMaqjZ85LnA2V1bJQqw" ] },
      { "delegate": "tz1Nf6tsK4G6bBqgSQERy4nUtkHNKUVdh7q1",
        "reception_time": "2022-01-21T06:51:29.774-00:00",
        "included_in_blocks":
          [ "BMbiycBMrLrtatX61m1NnVuuLw7tz1vgMMaqjZ85LnA2V1bJQqw" ] },
      { "delegate": "tz1NEKxGEHsFufk87CVZcrqWu8o22qh46GK6",
        "reception_time": "2022-01-21T06:51:29.859-00:00",
        "included_in_blocks":
          [ "BMbiycBMrLrtatX61m1NnVuuLw7tz1vgMMaqjZ85LnA2V1bJQqw" ] },
      { "delegate": "tz1LmaFsWRkjr7QMCx5PtV6xTUz3AmEpKQiF",
        "reception_time": "2022-01-21T06:51:29.982-00:00",
        "included_in_blocks":
          [ "BMbiycBMrLrtatX61m1NnVuuLw7tz1vgMMaqjZ85LnA2V1bJQqw" ] },
      { "delegate": "tz1QXrzaHrGACVn15UiCg33aLCJ6npWdQb3J",
        "reception_time": "2022-01-21T06:51:30.005-00:00",
        "included_in_blocks":
          [ "BMbiycBMrLrtatX61m1NnVuuLw7tz1vgMMaqjZ85LnA2V1bJQqw" ] },
      { "delegate": "tz1UNkf4sWzC5vsKP7FnejSeJsXdc6z8Kzk4",
        "reception_time": "2022-01-21T06:51:30.009-00:00",
        "included_in_blocks":
          [ "BMbiycBMrLrtatX61m1NnVuuLw7tz1vgMMaqjZ85LnA2V1bJQqw" ] },
      { "delegate": "tz3NDpRj6WBrJPikcPVHRBEjWKxFw3c6eQPS",
        "reception_time": "2022-01-21T06:51:30.106-00:00",
        "included_in_blocks":
          [ "BMbiycBMrLrtatX61m1NnVuuLw7tz1vgMMaqjZ85LnA2V1bJQqw" ] },
      { "delegate": "tz1PeZx7FXy7QRuMREGXGxeipb24RsMMzUNe",
        "reception_time": "2022-01-21T06:51:30.127-00:00",
        "included_in_blocks":
          [ "BMbiycBMrLrtatX61m1NnVuuLw7tz1vgMMaqjZ85LnA2V1bJQqw" ] },
      { "delegate": "tz1dRKU4FQ9QRRQPdaH4zCR6gmCmXfcvcgtB",
        "reception_time": "2022-01-21T06:51:30.205-00:00",
        "included_in_blocks":
          [ "BMbiycBMrLrtatX61m1NnVuuLw7tz1vgMMaqjZ85LnA2V1bJQqw" ] },
      { "delegate": "tz3VEZ4k6a4Wx42iyev6i2aVAptTRLEAivNN",
        "reception_time": "2022-01-21T06:51:30.221-00:00",
        "included_in_blocks":
          [ "BMbiycBMrLrtatX61m1NnVuuLw7tz1vgMMaqjZ85LnA2V1bJQqw" ] },
      { "delegate": "tz3WMqdzXqRWXwyvj5Hp2H7QEepaUuS7vd9K",
        "reception_time": "2022-01-21T06:51:30.292-00:00",
        "included_in_blocks":
          [ "BMbiycBMrLrtatX61m1NnVuuLw7tz1vgMMaqjZ85LnA2V1bJQqw" ] },
      { "delegate": "tz3RDC3Jdn4j15J7bBHZd29EUee9gVB1CxD9",
        "reception_time": "2022-01-21T06:51:30.309-00:00",
        "included_in_blocks":
          [ "BMbiycBMrLrtatX61m1NnVuuLw7tz1vgMMaqjZ85LnA2V1bJQqw" ] },
      { "delegate": "tz1cYufsxHXJcvANhvS55h3aY32a9BAFB494",
        "reception_time": "2022-01-21T06:51:30.952-00:00",
        "included_in_blocks":
          [ "BMbiycBMrLrtatX61m1NnVuuLw7tz1vgMMaqjZ85LnA2V1bJQqw" ] },
      { "delegate": "tz1aRoaRhSpRYvFdyvgWLL6TGyRoGF51wDjM",
        "reception_time": "2022-01-21T06:51:31.018-00:00",
        "included_in_blocks":
          [ "BMbiycBMrLrtatX61m1NnVuuLw7tz1vgMMaqjZ85LnA2V1bJQqw" ] },
      { "delegate": "tz1RjoHc98dBoqaH2jawF62XNKh7YsHwbkEv",
        "reception_time": "2022-01-21T06:51:31.064-00:00",
        "included_in_blocks":
          [ "BMbiycBMrLrtatX61m1NnVuuLw7tz1vgMMaqjZ85LnA2V1bJQqw" ] },
      { "delegate": "tz2FCNBrERXtaTtNX6iimR1UJ5JSDxvdHM93",
        "reception_time": "2022-01-21T06:51:31.068-00:00",
        "included_in_blocks":
          [ "BMbiycBMrLrtatX61m1NnVuuLw7tz1vgMMaqjZ85LnA2V1bJQqw" ] },
      { "delegate": "tz1YiuvpfeVAHbnU8akcWErNfQGFHNQ7F45z",
        "reception_time": "2022-01-21T06:51:31.113-00:00",
        "included_in_blocks":
          [ "BMbiycBMrLrtatX61m1NnVuuLw7tz1vgMMaqjZ85LnA2V1bJQqw" ] },
      { "delegate": "tz3NExpXn9aPNZPorRE4SdjJ2RGrfbJgMAaV",
        "reception_time": "2022-01-21T06:51:31.160-00:00",
        "included_in_blocks":
          [ "BMbiycBMrLrtatX61m1NnVuuLw7tz1vgMMaqjZ85LnA2V1bJQqw" ] },
      { "delegate": "tz3UoffC7FG7zfpmvmjUmUeAaHvzdcUvAj6r",
        "reception_time": "2022-01-21T06:51:31.295-00:00",
        "included_in_blocks":
          [ "BMbiycBMrLrtatX61m1NnVuuLw7tz1vgMMaqjZ85LnA2V1bJQqw" ] },
      { "delegate": "tz1f3Re8iw6Pt3KMHAvyccHxDU3NuqL95axD",
        "reception_time": "2022-01-21T06:51:31.302-00:00",
        "included_in_blocks":
          [ "BMbiycBMrLrtatX61m1NnVuuLw7tz1vgMMaqjZ85LnA2V1bJQqw" ] },
      { "delegate": "tz1T7duV5gZWSTq4YpBGbXNLTfznCLDrFxvs",
        "reception_time": "2022-01-21T06:51:31.341-00:00",
        "included_in_blocks":
          [ "BMbiycBMrLrtatX61m1NnVuuLw7tz1vgMMaqjZ85LnA2V1bJQqw" ] },
      { "delegate": "tz1ZcTRk5uxD86EFEn1vvNffWWqJy7q5eVhc",
        "reception_time": "2022-01-21T06:51:31.496-00:00",
        "included_in_blocks":
          [ "BMbiycBMrLrtatX61m1NnVuuLw7tz1vgMMaqjZ85LnA2V1bJQqw" ] },
      { "delegate": "tz1QccGQsmt7WMnbVX9inJQgEuQGeMXddfjp",
        "reception_time": "2022-01-21T06:51:32.034-00:00",
        "included_in_blocks":
          [ "BMbiycBMrLrtatX61m1NnVuuLw7tz1vgMMaqjZ85LnA2V1bJQqw" ] },
      { "delegate": "tz1eVaNx3gCmG1EsLjijkmgAxdLYVf6Bf5Sq",
        "reception_time": "2022-01-21T06:51:33.409-00:00",
        "included_in_blocks":
          [ "BMbiycBMrLrtatX61m1NnVuuLw7tz1vgMMaqjZ85LnA2V1bJQqw" ] },
      { "delegate": "tz1LVqmufjrmV67vNmZWXRDPMwSCh7mLBnS3",
        "reception_time": "2022-01-21T06:51:33.739-00:00",
        "included_in_blocks":
          [ "BMbiycBMrLrtatX61m1NnVuuLw7tz1vgMMaqjZ85LnA2V1bJQqw" ] },
      { "delegate": "tz1gg5bjopPcr9agjamyu9BbXKLibNc2rbAq",
        "reception_time": "2022-01-21T06:51:35.768-00:00",
        "included_in_blocks":
          [ "BMbiycBMrLrtatX61m1NnVuuLw7tz1vgMMaqjZ85LnA2V1bJQqw" ] } ] }