{ "blocks":
    [ { "hash": "BMPSFTyzD3dcQzM4pMcKnfWZXZVtFZbkW8Ms3371crPvknWKoFe",
        "delegate": "tz3NExpXn9aPNZPorRE4SdjJ2RGrfbJgMAaV",
        "reception_time": "2022-01-21T08:26:31.863-00:00",
        "timestamp": "2022-01-21T08:26:20Z" } ],
  "endorsements":
    [ { "delegate": "tz1awXW7wuXy21c66vBudMXQVAPgRnqqwgTH" },
      { "delegate": "tz1TRqbYbUf2GyrjErf3hBzgBJPzW8y36qEs" },
      { "delegate": "tz1UMCB2AHSTwG7YcGNr31CqYCtGN873royv",
        "reception_time": "2022-01-21T08:26:31.801-00:00",
        "errors":
          [ { "kind": "temporary",
              "id": "proto.011-PtHangz2.prefilter.outdated_endorsement" } ],
        "included_in_blocks":
          [ "BLGLAUKS1rL3Q3LsWEU9bvDF61i4BH3hgWZkcSfAqCpMPZtfJR1" ] },
      { "delegate": "tz1S8MNvuFEUsWgjHvi3AxibRBf388NhT1q2",
        "reception_time": "2022-01-21T08:26:31.620-00:00",
        "errors":
          [ { "kind": "temporary",
              "id": "proto.011-PtHangz2.prefilter.outdated_endorsement" } ],
        "included_in_blocks":
          [ "BLGLAUKS1rL3Q3LsWEU9bvDF61i4BH3hgWZkcSfAqCpMPZtfJR1" ] },
      { "delegate": "tz1cZfFQpcYhwDp7y1njZXDsZqCrn2NqmVof",
        "reception_time": "2022-01-21T08:26:31.463-00:00",
        "errors":
          [ { "kind": "temporary",
              "id": "proto.011-PtHangz2.prefilter.outdated_endorsement" } ],
        "included_in_blocks":
          [ "BLGLAUKS1rL3Q3LsWEU9bvDF61i4BH3hgWZkcSfAqCpMPZtfJR1" ] },
      { "delegate": "tz1WBfwbT66FC6BTLexc2BoyCCBM9LG7pnVW",
        "reception_time": "2022-01-21T08:26:31.461-00:00",
        "errors":
          [ { "kind": "temporary",
              "id": "proto.011-PtHangz2.prefilter.outdated_endorsement" } ],
        "included_in_blocks":
          [ "BLGLAUKS1rL3Q3LsWEU9bvDF61i4BH3hgWZkcSfAqCpMPZtfJR1" ] },
      { "delegate": "tz1Nf6tsK4G6bBqgSQERy4nUtkHNKUVdh7q1",
        "reception_time": "2022-01-21T08:26:31.363-00:00",
        "errors":
          [ { "kind": "temporary",
              "id": "proto.011-PtHangz2.prefilter.outdated_endorsement" } ],
        "included_in_blocks":
          [ "BLGLAUKS1rL3Q3LsWEU9bvDF61i4BH3hgWZkcSfAqCpMPZtfJR1" ] },
      { "delegate": "tz1ei4WtWEMEJekSv8qDnu9PExG6Q8HgRGr3",
        "reception_time": "2022-01-21T08:26:31.352-00:00",
        "errors":
          [ { "kind": "temporary",
              "id": "proto.011-PtHangz2.prefilter.outdated_endorsement" } ],
        "included_in_blocks":
          [ "BLGLAUKS1rL3Q3LsWEU9bvDF61i4BH3hgWZkcSfAqCpMPZtfJR1" ] },
      { "delegate": "tz1gfArv665EUkSg2ojMBzcbfwuPxAvqPvjo",
        "reception_time": "2022-01-21T08:26:31.189-00:00",
        "errors":
          [ { "kind": "temporary",
              "id": "proto.011-PtHangz2.prefilter.outdated_endorsement" } ],
        "included_in_blocks":
          [ "BLGLAUKS1rL3Q3LsWEU9bvDF61i4BH3hgWZkcSfAqCpMPZtfJR1" ] },
      { "delegate": "tz1g8vkmcde6sWKaG2NN9WKzCkDM6Rziq194",
        "reception_time": "2022-01-21T08:26:31.177-00:00",
        "errors":
          [ { "kind": "temporary",
              "id": "proto.011-PtHangz2.prefilter.outdated_endorsement" } ],
        "included_in_blocks":
          [ "BLGLAUKS1rL3Q3LsWEU9bvDF61i4BH3hgWZkcSfAqCpMPZtfJR1" ] },
      { "delegate": "tz1KfEsrtDaA1sX7vdM4qmEPWuSytuqCDp5j",
        "reception_time": "2022-01-21T08:26:31.039-00:00",
        "errors":
          [ { "kind": "temporary",
              "id": "proto.011-PtHangz2.prefilter.outdated_endorsement" } ],
        "included_in_blocks":
          [ "BLGLAUKS1rL3Q3LsWEU9bvDF61i4BH3hgWZkcSfAqCpMPZtfJR1" ] },
      { "delegate": "tz3WMqdzXqRWXwyvj5Hp2H7QEepaUuS7vd9K",
        "reception_time": "2022-01-21T08:26:30.990-00:00",
        "errors":
          [ { "kind": "temporary",
              "id": "proto.011-PtHangz2.prefilter.outdated_endorsement" } ],
        "included_in_blocks":
          [ "BLGLAUKS1rL3Q3LsWEU9bvDF61i4BH3hgWZkcSfAqCpMPZtfJR1" ] },
      { "delegate": "tz1iPHM2Xx2hwmzcr1EG1zzrV6oKafVoA91m",
        "reception_time": "2022-01-21T08:26:30.963-00:00",
        "errors":
          [ { "kind": "temporary",
              "id": "proto.011-PtHangz2.prefilter.outdated_endorsement" } ],
        "included_in_blocks":
          [ "BLGLAUKS1rL3Q3LsWEU9bvDF61i4BH3hgWZkcSfAqCpMPZtfJR1" ] },
      { "delegate": "tz3NExpXn9aPNZPorRE4SdjJ2RGrfbJgMAaV",
        "reception_time": "2022-01-21T08:26:30.954-00:00",
        "errors":
          [ { "kind": "temporary",
              "id": "proto.011-PtHangz2.prefilter.outdated_endorsement" } ],
        "included_in_blocks":
          [ "BLGLAUKS1rL3Q3LsWEU9bvDF61i4BH3hgWZkcSfAqCpMPZtfJR1" ] },
      { "delegate": "tz1ajgycuHmd2z2JbTSJxKv7x6cok2KuNSk1",
        "reception_time": "2022-01-21T08:26:30.919-00:00",
        "errors":
          [ { "kind": "temporary",
              "id": "proto.011-PtHangz2.prefilter.outdated_endorsement" } ],
        "included_in_blocks":
          [ "BLGLAUKS1rL3Q3LsWEU9bvDF61i4BH3hgWZkcSfAqCpMPZtfJR1" ] },
      { "delegate": "tz1PWCDnz783NNGGQjEFFsHtrcK5yBW4E2rm",
        "reception_time": "2022-01-21T08:26:30.854-00:00",
        "errors":
          [ { "kind": "temporary",
              "id": "proto.011-PtHangz2.prefilter.outdated_endorsement" } ],
        "included_in_blocks":
          [ "BLGLAUKS1rL3Q3LsWEU9bvDF61i4BH3hgWZkcSfAqCpMPZtfJR1" ] },
      { "delegate": "tz1WCd2jm4uSt4vntk4vSuUWoZQGhLcDuR9q",
        "reception_time": "2022-01-21T08:26:30.814-00:00",
        "errors":
          [ { "kind": "temporary",
              "id": "proto.011-PtHangz2.prefilter.outdated_endorsement" } ],
        "included_in_blocks":
          [ "BLGLAUKS1rL3Q3LsWEU9bvDF61i4BH3hgWZkcSfAqCpMPZtfJR1" ] },
      { "delegate": "tz3VEZ4k6a4Wx42iyev6i2aVAptTRLEAivNN",
        "reception_time": "2022-01-21T08:26:30.803-00:00",
        "errors":
          [ { "kind": "temporary",
              "id": "proto.011-PtHangz2.prefilter.outdated_endorsement" } ],
        "included_in_blocks":
          [ "BLGLAUKS1rL3Q3LsWEU9bvDF61i4BH3hgWZkcSfAqCpMPZtfJR1" ] },
      { "delegate": "tz3RB4aoyjov4KEVRbuhvQ1CKJgBJMWhaeB8",
        "reception_time": "2022-01-21T08:26:30.758-00:00",
        "errors":
          [ { "kind": "temporary",
              "id": "proto.011-PtHangz2.prefilter.outdated_endorsement" } ],
        "included_in_blocks":
          [ "BLGLAUKS1rL3Q3LsWEU9bvDF61i4BH3hgWZkcSfAqCpMPZtfJR1" ] },
      { "delegate": "tz1WL4xAAYsQ2GM9MCQGePYcbwwu6kvfqMWN",
        "reception_time": "2022-01-21T08:26:30.716-00:00",
        "errors":
          [ { "kind": "temporary",
              "id": "proto.011-PtHangz2.prefilter.outdated_endorsement" } ],
        "included_in_blocks":
          [ "BLGLAUKS1rL3Q3LsWEU9bvDF61i4BH3hgWZkcSfAqCpMPZtfJR1" ] },
      { "delegate": "tz3bTdwZinP8U1JmSweNzVKhmwafqWmFWRfk",
        "reception_time": "2022-01-21T08:26:30.711-00:00",
        "errors":
          [ { "kind": "temporary",
              "id": "proto.011-PtHangz2.prefilter.outdated_endorsement" } ],
        "included_in_blocks":
          [ "BLGLAUKS1rL3Q3LsWEU9bvDF61i4BH3hgWZkcSfAqCpMPZtfJR1" ] },
      { "delegate": "tz1MQMiZHV8q4tTwUMWmS5Y3kaP6J2136iXr",
        "reception_time": "2022-01-21T08:26:30.701-00:00",
        "errors":
          [ { "kind": "temporary",
              "id": "proto.011-PtHangz2.prefilter.outdated_endorsement" } ],
        "included_in_blocks":
          [ "BLGLAUKS1rL3Q3LsWEU9bvDF61i4BH3hgWZkcSfAqCpMPZtfJR1" ] },
      { "delegate": "tz1Mc61yajNASzh5KWZFtYs4i7EJbzAxQC4K",
        "reception_time": "2022-01-21T08:26:30.671-00:00",
        "errors":
          [ { "kind": "temporary",
              "id": "proto.011-PtHangz2.prefilter.outdated_endorsement" } ],
        "included_in_blocks":
          [ "BLGLAUKS1rL3Q3LsWEU9bvDF61i4BH3hgWZkcSfAqCpMPZtfJR1" ] },
      { "delegate": "tz1VmiY38m3y95HqQLjMwqnMS7sdMfGomzKi",
        "reception_time": "2022-01-21T08:26:30.662-00:00",
        "errors":
          [ { "kind": "temporary",
              "id": "proto.011-PtHangz2.prefilter.outdated_endorsement" } ],
        "included_in_blocks":
          [ "BLGLAUKS1rL3Q3LsWEU9bvDF61i4BH3hgWZkcSfAqCpMPZtfJR1" ] },
      { "delegate": "tz3iJu5vrKZcsqRPs8yJ61UDoeEXZmtro4qh",
        "reception_time": "2022-01-21T08:26:30.487-00:00",
        "errors":
          [ { "kind": "temporary",
              "id": "proto.011-PtHangz2.prefilter.outdated_endorsement" } ],
        "included_in_blocks":
          [ "BLGLAUKS1rL3Q3LsWEU9bvDF61i4BH3hgWZkcSfAqCpMPZtfJR1" ] },
      { "delegate": "tz3Zhs2dygr55yHyQyKjntAtY9bgfhLZ4Xj1",
        "reception_time": "2022-01-21T08:26:30.464-00:00",
        "errors":
          [ { "kind": "temporary",
              "id": "proto.011-PtHangz2.prefilter.outdated_endorsement" } ],
        "included_in_blocks":
          [ "BLGLAUKS1rL3Q3LsWEU9bvDF61i4BH3hgWZkcSfAqCpMPZtfJR1" ] },
      { "delegate": "tz3QT9dHYKDqh563chVa6za8526ys1UKfRfL",
        "reception_time": "2022-01-21T08:26:30.464-00:00",
        "errors":
          [ { "kind": "temporary",
              "id": "proto.011-PtHangz2.prefilter.outdated_endorsement" } ],
        "included_in_blocks":
          [ "BLGLAUKS1rL3Q3LsWEU9bvDF61i4BH3hgWZkcSfAqCpMPZtfJR1" ] },
      { "delegate": "tz1gUNyn3hmnEWqkusWPzxRaon1cs7ndWh7h",
        "reception_time": "2022-01-21T08:26:30.450-00:00",
        "errors":
          [ { "kind": "temporary",
              "id": "proto.011-PtHangz2.prefilter.outdated_endorsement" } ],
        "included_in_blocks":
          [ "BLGLAUKS1rL3Q3LsWEU9bvDF61i4BH3hgWZkcSfAqCpMPZtfJR1" ] },
      { "delegate": "tz3UoffC7FG7zfpmvmjUmUeAaHvzdcUvAj6r",
        "reception_time": "2022-01-21T08:26:30.450-00:00",
        "errors":
          [ { "kind": "temporary",
              "id": "proto.011-PtHangz2.prefilter.outdated_endorsement" } ],
        "included_in_blocks":
          [ "BLGLAUKS1rL3Q3LsWEU9bvDF61i4BH3hgWZkcSfAqCpMPZtfJR1" ] },
      { "delegate": "tz1MQJPGNMijnXnVoBENFz9rUhaPt3S7rWoz",
        "reception_time": "2022-01-21T08:26:30.450-00:00",
        "errors":
          [ { "kind": "temporary",
              "id": "proto.011-PtHangz2.prefilter.outdated_endorsement" } ],
        "included_in_blocks":
          [ "BLGLAUKS1rL3Q3LsWEU9bvDF61i4BH3hgWZkcSfAqCpMPZtfJR1" ] },
      { "delegate": "tz1VQnqCCqX4K5sP3FNkVSNKTdCAMJDd3E1n",
        "reception_time": "2022-01-21T08:26:30.430-00:00",
        "errors":
          [ { "kind": "temporary",
              "id": "proto.011-PtHangz2.prefilter.outdated_endorsement" } ],
        "included_in_blocks":
          [ "BLGLAUKS1rL3Q3LsWEU9bvDF61i4BH3hgWZkcSfAqCpMPZtfJR1" ] },
      { "delegate": "tz1beersuEDv8Z7ngQ825xfbaJNS2EhXnyHR",
        "reception_time": "2022-01-21T08:26:30.233-00:00",
        "errors":
          [ { "kind": "temporary",
              "id": "proto.011-PtHangz2.prefilter.outdated_endorsement" } ],
        "included_in_blocks":
          [ "BLGLAUKS1rL3Q3LsWEU9bvDF61i4BH3hgWZkcSfAqCpMPZtfJR1" ] },
      { "delegate": "tz3ZbP2pM3nwvXztbuMJwJnDvV5xdpU8UkkD",
        "reception_time": "2022-01-21T08:26:30.182-00:00",
        "errors":
          [ { "kind": "temporary",
              "id": "proto.011-PtHangz2.prefilter.outdated_endorsement" } ],
        "included_in_blocks":
          [ "BLGLAUKS1rL3Q3LsWEU9bvDF61i4BH3hgWZkcSfAqCpMPZtfJR1" ] },
      { "delegate": "tz3NxTnke1acr8o3h5y9ytf5awQBGNJUKzVU",
        "reception_time": "2022-01-21T08:26:30.167-00:00",
        "errors":
          [ { "kind": "temporary",
              "id": "proto.011-PtHangz2.prefilter.outdated_endorsement" } ],
        "included_in_blocks":
          [ "BLGLAUKS1rL3Q3LsWEU9bvDF61i4BH3hgWZkcSfAqCpMPZtfJR1" ] },
      { "delegate": "tz3RKYFsLuQzKBtmYuLNas7uMu3AsYd4QdsA",
        "reception_time": "2022-01-21T08:26:30.123-00:00",
        "errors":
          [ { "kind": "temporary",
              "id": "proto.011-PtHangz2.prefilter.outdated_endorsement" } ],
        "included_in_blocks":
          [ "BLGLAUKS1rL3Q3LsWEU9bvDF61i4BH3hgWZkcSfAqCpMPZtfJR1" ] },
      { "delegate": "tz3hw2kqXhLUvY65ca1eety2oQTpAvd34R9Q",
        "reception_time": "2022-01-21T08:26:30.071-00:00",
        "errors":
          [ { "kind": "temporary",
              "id": "proto.011-PtHangz2.prefilter.outdated_endorsement" } ],
        "included_in_blocks":
          [ "BLGLAUKS1rL3Q3LsWEU9bvDF61i4BH3hgWZkcSfAqCpMPZtfJR1" ] },
      { "delegate": "tz1WnfXMPaNTBmH7DBPwqCWs9cPDJdkGBTZ8",
        "reception_time": "2022-01-21T08:26:30.039-00:00",
        "errors":
          [ { "kind": "temporary",
              "id": "proto.011-PtHangz2.prefilter.outdated_endorsement" } ],
        "included_in_blocks":
          [ "BLGLAUKS1rL3Q3LsWEU9bvDF61i4BH3hgWZkcSfAqCpMPZtfJR1" ] },
      { "delegate": "tz1aXD7Jigrt3PBYSpHSg5Rr33SexMmmM5Ys",
        "reception_time": "2022-01-21T08:26:30.034-00:00",
        "errors":
          [ { "kind": "temporary",
              "id": "proto.011-PtHangz2.prefilter.outdated_endorsement" } ],
        "included_in_blocks":
          [ "BLGLAUKS1rL3Q3LsWEU9bvDF61i4BH3hgWZkcSfAqCpMPZtfJR1" ] },
      { "delegate": "tz3gtoUxdudfBRcNY7iVdKPHCYYX6xdPpoRS",
        "reception_time": "2022-01-21T08:26:29.985-00:00",
        "errors":
          [ { "kind": "temporary",
              "id": "proto.011-PtHangz2.prefilter.outdated_endorsement" } ],
        "included_in_blocks":
          [ "BLGLAUKS1rL3Q3LsWEU9bvDF61i4BH3hgWZkcSfAqCpMPZtfJR1" ] },
      { "delegate": "tz3QSGPoRp3Kn7n3vY24eYeu3Peuqo45LQ4D",
        "reception_time": "2022-01-21T08:26:29.970-00:00",
        "errors":
          [ { "kind": "temporary",
              "id": "proto.011-PtHangz2.prefilter.outdated_endorsement" } ],
        "included_in_blocks":
          [ "BLGLAUKS1rL3Q3LsWEU9bvDF61i4BH3hgWZkcSfAqCpMPZtfJR1" ] },
      { "delegate": "tz1aDiEJf9ztRrAJEXZfcG3CKimoKsGhwVAi",
        "reception_time": "2022-01-21T08:26:29.826-00:00",
        "errors":
          [ { "kind": "temporary",
              "id": "proto.011-PtHangz2.prefilter.outdated_endorsement" } ],
        "included_in_blocks":
          [ "BLGLAUKS1rL3Q3LsWEU9bvDF61i4BH3hgWZkcSfAqCpMPZtfJR1" ] },
      { "delegate": "tz1irJKkXS2DBWkU1NnmFQx1c1L7pbGg4yhk",
        "reception_time": "2022-01-21T08:26:29.810-00:00",
        "errors":
          [ { "kind": "temporary",
              "id": "proto.011-PtHangz2.prefilter.outdated_endorsement" } ],
        "included_in_blocks":
          [ "BLGLAUKS1rL3Q3LsWEU9bvDF61i4BH3hgWZkcSfAqCpMPZtfJR1" ] },
      { "delegate": "tz1MXFrtZoaXckE41bjUCSjAjAap3AFDSr3N",
        "reception_time": "2022-01-21T08:26:29.777-00:00",
        "errors":
          [ { "kind": "temporary",
              "id": "proto.011-PtHangz2.prefilter.outdated_endorsement" } ],
        "included_in_blocks":
          [ "BLGLAUKS1rL3Q3LsWEU9bvDF61i4BH3hgWZkcSfAqCpMPZtfJR1" ] },
      { "delegate": "tz1eEnQhbwf6trb8Q8mPb2RaPkNk2rN7BKi8",
        "reception_time": "2022-01-21T08:26:29.759-00:00",
        "errors":
          [ { "kind": "temporary",
              "id": "proto.011-PtHangz2.prefilter.outdated_endorsement" } ],
        "included_in_blocks":
          [ "BLGLAUKS1rL3Q3LsWEU9bvDF61i4BH3hgWZkcSfAqCpMPZtfJR1" ] },
      { "delegate": "tz1Kt4P8BCaP93AEV4eA7gmpRryWt5hznjCP",
        "reception_time": "2022-01-21T08:26:29.688-00:00",
        "errors":
          [ { "kind": "temporary",
              "id": "proto.011-PtHangz2.prefilter.outdated_endorsement" } ],
        "included_in_blocks":
          [ "BLGLAUKS1rL3Q3LsWEU9bvDF61i4BH3hgWZkcSfAqCpMPZtfJR1" ] },
      { "delegate": "tz1TXzyaKUA8wsWefdSnyaYFnV2M3vCV7er9",
        "reception_time": "2022-01-21T08:26:29.681-00:00",
        "errors":
          [ { "kind": "temporary",
              "id": "proto.011-PtHangz2.prefilter.outdated_endorsement" } ],
        "included_in_blocks":
          [ "BLGLAUKS1rL3Q3LsWEU9bvDF61i4BH3hgWZkcSfAqCpMPZtfJR1" ] },
      { "delegate": "tz1fPKAtsYydh4f1wfWNfeNxWYu72TmM48fu",
        "reception_time": "2022-01-21T08:26:29.568-00:00",
        "errors":
          [ { "kind": "temporary",
              "id": "proto.011-PtHangz2.prefilter.outdated_endorsement" } ],
        "included_in_blocks":
          [ "BLGLAUKS1rL3Q3LsWEU9bvDF61i4BH3hgWZkcSfAqCpMPZtfJR1" ] },
      { "delegate": "tz1P2Po7YM526ughEsRbY4oR9zaUPDZjxFrb",
        "reception_time": "2022-01-21T08:26:29.362-00:00",
        "errors":
          [ { "kind": "temporary",
              "id": "proto.011-PtHangz2.prefilter.outdated_endorsement" } ],
        "included_in_blocks":
          [ "BLGLAUKS1rL3Q3LsWEU9bvDF61i4BH3hgWZkcSfAqCpMPZtfJR1" ] },
      { "delegate": "tz1S8e9GgdZG78XJRB3NqabfWeM37GnhZMWQ",
        "reception_time": "2022-01-21T08:26:29.210-00:00",
        "errors":
          [ { "kind": "temporary",
              "id": "proto.011-PtHangz2.prefilter.outdated_endorsement" } ],
        "included_in_blocks":
          [ "BLGLAUKS1rL3Q3LsWEU9bvDF61i4BH3hgWZkcSfAqCpMPZtfJR1" ] },
      { "delegate": "tz1hAYfexyzPGG6RhZZMpDvAHifubsbb6kgn",
        "reception_time": "2022-01-21T08:26:42.125-00:00",
        "included_in_blocks":
          [ "BLGLAUKS1rL3Q3LsWEU9bvDF61i4BH3hgWZkcSfAqCpMPZtfJR1" ] },
      { "delegate": "tz1YiuvpfeVAHbnU8akcWErNfQGFHNQ7F45z",
        "reception_time": "2022-01-21T08:26:39.536-00:00",
        "included_in_blocks":
          [ "BLGLAUKS1rL3Q3LsWEU9bvDF61i4BH3hgWZkcSfAqCpMPZtfJR1" ] },
      { "delegate": "tz1RjoHc98dBoqaH2jawF62XNKh7YsHwbkEv",
        "reception_time": "2022-01-21T08:26:38.746-00:00",
        "included_in_blocks":
          [ "BLGLAUKS1rL3Q3LsWEU9bvDF61i4BH3hgWZkcSfAqCpMPZtfJR1" ] },
      { "delegate": "tz2BzJTyoQp8fNbfhWD4YQgH9JJHDgSGzpdG",
        "reception_time": "2022-01-21T08:26:38.177-00:00",
        "included_in_blocks":
          [ "BLGLAUKS1rL3Q3LsWEU9bvDF61i4BH3hgWZkcSfAqCpMPZtfJR1" ] },
      { "delegate": "tz2FCNBrERXtaTtNX6iimR1UJ5JSDxvdHM93",
        "reception_time": "2022-01-21T08:26:37.866-00:00",
        "included_in_blocks":
          [ "BLGLAUKS1rL3Q3LsWEU9bvDF61i4BH3hgWZkcSfAqCpMPZtfJR1" ] },
      { "delegate": "tz1NpWrAyDL9k2Lmnyxcgr9xuJakbBxdq7FB",
        "reception_time": "2022-01-21T08:26:36.857-00:00",
        "included_in_blocks":
          [ "BLGLAUKS1rL3Q3LsWEU9bvDF61i4BH3hgWZkcSfAqCpMPZtfJR1" ] },
      { "delegate": "tz1RCFbB9GpALpsZtu6J58sb74dm8qe6XBzv",
        "reception_time": "2022-01-21T08:26:36.857-00:00",
        "included_in_blocks":
          [ "BLGLAUKS1rL3Q3LsWEU9bvDF61i4BH3hgWZkcSfAqCpMPZtfJR1" ] },
      { "delegate": "tz1cYufsxHXJcvANhvS55h3aY32a9BAFB494",
        "reception_time": "2022-01-21T08:26:35.582-00:00",
        "included_in_blocks":
          [ "BLGLAUKS1rL3Q3LsWEU9bvDF61i4BH3hgWZkcSfAqCpMPZtfJR1" ] },
      { "delegate": "tz1fUyqYH7H4pRHN1roWY17giXhy1RvxjgUV",
        "reception_time": "2022-01-21T08:26:34.541-00:00",
        "included_in_blocks":
          [ "BLGLAUKS1rL3Q3LsWEU9bvDF61i4BH3hgWZkcSfAqCpMPZtfJR1" ] },
      { "delegate": "tz1V3yg82mcrPJbegqVCPn6bC8w1CSTRp3f8",
        "reception_time": "2022-01-21T08:26:34.506-00:00",
        "included_in_blocks":
          [ "BLGLAUKS1rL3Q3LsWEU9bvDF61i4BH3hgWZkcSfAqCpMPZtfJR1" ] },
      { "delegate": "tz1T7duV5gZWSTq4YpBGbXNLTfznCLDrFxvs",
        "reception_time": "2022-01-21T08:26:34.039-00:00",
        "included_in_blocks":
          [ "BLGLAUKS1rL3Q3LsWEU9bvDF61i4BH3hgWZkcSfAqCpMPZtfJR1" ] },
      { "delegate": "tz1PeZx7FXy7QRuMREGXGxeipb24RsMMzUNe",
        "reception_time": "2022-01-21T08:26:33.504-00:00",
        "included_in_blocks":
          [ "BLGLAUKS1rL3Q3LsWEU9bvDF61i4BH3hgWZkcSfAqCpMPZtfJR1" ] },
      { "delegate": "tz1NSDFKuRyzHxpfG1AMkyCwEiZ52cbR2mRW",
        "reception_time": "2022-01-21T08:26:33.208-00:00",
        "included_in_blocks":
          [ "BLGLAUKS1rL3Q3LsWEU9bvDF61i4BH3hgWZkcSfAqCpMPZtfJR1" ] },
      { "delegate": "tz1dRKU4FQ9QRRQPdaH4zCR6gmCmXfcvcgtB",
        "reception_time": "2022-01-21T08:26:32.857-00:00",
        "included_in_blocks":
          [ "BLGLAUKS1rL3Q3LsWEU9bvDF61i4BH3hgWZkcSfAqCpMPZtfJR1" ] },
      { "delegate": "tz1NEKxGEHsFufk87CVZcrqWu8o22qh46GK6",
        "reception_time": "2022-01-21T08:26:32.854-00:00",
        "included_in_blocks":
          [ "BLGLAUKS1rL3Q3LsWEU9bvDF61i4BH3hgWZkcSfAqCpMPZtfJR1" ] },
      { "delegate": "tz1aRoaRhSpRYvFdyvgWLL6TGyRoGF51wDjM",
        "reception_time": "2022-01-21T08:26:32.814-00:00",
        "included_in_blocks":
          [ "BLGLAUKS1rL3Q3LsWEU9bvDF61i4BH3hgWZkcSfAqCpMPZtfJR1" ] },
      { "delegate": "tz1aJ8wxNeVRYbbx5YqzurmYzwKzkS96rHP4",
        "reception_time": "2022-01-21T08:26:32.814-00:00",
        "included_in_blocks":
          [ "BLGLAUKS1rL3Q3LsWEU9bvDF61i4BH3hgWZkcSfAqCpMPZtfJR1" ] },
      { "delegate": "tz3RDC3Jdn4j15J7bBHZd29EUee9gVB1CxD9",
        "reception_time": "2022-01-21T08:26:32.801-00:00",
        "included_in_blocks":
          [ "BLGLAUKS1rL3Q3LsWEU9bvDF61i4BH3hgWZkcSfAqCpMPZtfJR1" ] },
      { "delegate": "tz1SohptP53wDPZhzTWzDUFAUcWF6DMBpaJV",
        "reception_time": "2022-01-21T08:26:32.829-00:00",
        "included_in_blocks":
          [ "BLGLAUKS1rL3Q3LsWEU9bvDF61i4BH3hgWZkcSfAqCpMPZtfJR1" ] },
      { "delegate": "tz3NDpRj6WBrJPikcPVHRBEjWKxFw3c6eQPS",
        "reception_time": "2022-01-21T08:26:32.801-00:00",
        "included_in_blocks":
          [ "BLGLAUKS1rL3Q3LsWEU9bvDF61i4BH3hgWZkcSfAqCpMPZtfJR1" ] },
      { "delegate": "tz3bvNMQ95vfAYtG8193ymshqjSvmxiCUuR5",
        "reception_time": "2022-01-21T08:26:32.801-00:00",
        "included_in_blocks":
          [ "BLGLAUKS1rL3Q3LsWEU9bvDF61i4BH3hgWZkcSfAqCpMPZtfJR1" ] },
      { "delegate": "tz1Tnjaxk6tbAeC2TmMApPh8UsrEVQvhHvx5",
        "reception_time": "2022-01-21T08:26:32.340-00:00",
        "included_in_blocks":
          [ "BLGLAUKS1rL3Q3LsWEU9bvDF61i4BH3hgWZkcSfAqCpMPZtfJR1" ] } ] }