{ "blocks":
    [ { "hash": "BM7XVtpbSPqc4oyVEeyC5GXhnuiHPufVUDhdFaw9P6NDE2u7BKo",
        "delegate": "tz1irJKkXS2DBWkU1NnmFQx1c1L7pbGg4yhk",
        "reception_time": "2022-01-21T09:34:34.903-00:00",
        "timestamp": "2022-01-21T09:34:30Z" } ],
  "endorsements":
    [ { "delegate": "tz1awXW7wuXy21c66vBudMXQVAPgRnqqwgTH" },
      { "delegate": "tz1TRqbYbUf2GyrjErf3hBzgBJPzW8y36qEs" },
      { "delegate": "tz1S8e9GgdZG78XJRB3NqabfWeM37GnhZMWQ",
        "reception_time": "2022-01-21T09:34:34.748-00:00",
        "errors":
          [ { "kind": "temporary",
              "id": "proto.011-PtHangz2.prefilter.outdated_endorsement" } ],
        "included_in_blocks":
          [ "BLcrMi6YiAEs4YHcieTE6U1Bohx1uBitgVfZWWVDPDxchfohGL2" ] },
      { "delegate": "tz1g8vkmcde6sWKaG2NN9WKzCkDM6Rziq194",
        "reception_time": "2022-01-21T09:34:39.259-00:00",
        "included_in_blocks":
          [ "BLcrMi6YiAEs4YHcieTE6U1Bohx1uBitgVfZWWVDPDxchfohGL2" ] },
      { "delegate": "tz1ZcTRk5uxD86EFEn1vvNffWWqJy7q5eVhc",
        "reception_time": "2022-01-21T09:34:39.010-00:00",
        "included_in_blocks":
          [ "BLcrMi6YiAEs4YHcieTE6U1Bohx1uBitgVfZWWVDPDxchfohGL2" ] },
      { "delegate": "tz1aRoaRhSpRYvFdyvgWLL6TGyRoGF51wDjM",
        "reception_time": "2022-01-21T09:34:38.630-00:00",
        "included_in_blocks":
          [ "BLcrMi6YiAEs4YHcieTE6U1Bohx1uBitgVfZWWVDPDxchfohGL2" ] },
      { "delegate": "tz1dfg9PkvRLf7hKMmGdGRhXWCbd8QgbwBF7",
        "reception_time": "2022-01-21T09:34:38.674-00:00",
        "included_in_blocks":
          [ "BLcrMi6YiAEs4YHcieTE6U1Bohx1uBitgVfZWWVDPDxchfohGL2" ] },
      { "delegate": "tz1dRKU4FQ9QRRQPdaH4zCR6gmCmXfcvcgtB",
        "reception_time": "2022-01-21T09:34:38.355-00:00",
        "included_in_blocks":
          [ "BLcrMi6YiAEs4YHcieTE6U1Bohx1uBitgVfZWWVDPDxchfohGL2" ] },
      { "delegate": "tz3WMqdzXqRWXwyvj5Hp2H7QEepaUuS7vd9K",
        "reception_time": "2022-01-21T09:34:38.820-00:00",
        "included_in_blocks":
          [ "BLcrMi6YiAEs4YHcieTE6U1Bohx1uBitgVfZWWVDPDxchfohGL2" ] },
      { "delegate": "tz3NExpXn9aPNZPorRE4SdjJ2RGrfbJgMAaV",
        "reception_time": "2022-01-21T09:34:38.665-00:00",
        "included_in_blocks":
          [ "BLcrMi6YiAEs4YHcieTE6U1Bohx1uBitgVfZWWVDPDxchfohGL2" ] },
      { "delegate": "tz3RDC3Jdn4j15J7bBHZd29EUee9gVB1CxD9",
        "reception_time": "2022-01-21T09:34:37.846-00:00",
        "included_in_blocks":
          [ "BLcrMi6YiAEs4YHcieTE6U1Bohx1uBitgVfZWWVDPDxchfohGL2" ] },
      { "delegate": "tz1UvkANVPWppVgMkLnvN7BwYZsCP7vm6NVd",
        "reception_time": "2022-01-21T09:34:37.864-00:00",
        "included_in_blocks":
          [ "BLcrMi6YiAEs4YHcieTE6U1Bohx1uBitgVfZWWVDPDxchfohGL2" ] },
      { "delegate": "tz1iEWcNL383qiDJ3Q3qt5W2T4aSKUbEU4An",
        "reception_time": "2022-01-21T09:34:38.260-00:00",
        "included_in_blocks":
          [ "BLcrMi6YiAEs4YHcieTE6U1Bohx1uBitgVfZWWVDPDxchfohGL2" ] },
      { "delegate": "tz3bvNMQ95vfAYtG8193ymshqjSvmxiCUuR5",
        "reception_time": "2022-01-21T09:34:37.676-00:00",
        "included_in_blocks":
          [ "BLcrMi6YiAEs4YHcieTE6U1Bohx1uBitgVfZWWVDPDxchfohGL2" ] },
      { "delegate": "tz1PeZx7FXy7QRuMREGXGxeipb24RsMMzUNe",
        "reception_time": "2022-01-21T09:34:37.531-00:00",
        "included_in_blocks":
          [ "BLcrMi6YiAEs4YHcieTE6U1Bohx1uBitgVfZWWVDPDxchfohGL2" ] },
      { "delegate": "tz3gLTu4Yxj8tPAcriQVUdxv6BY9QyvzU1az",
        "reception_time": "2022-01-21T09:34:37.254-00:00",
        "included_in_blocks":
          [ "BLcrMi6YiAEs4YHcieTE6U1Bohx1uBitgVfZWWVDPDxchfohGL2" ] },
      { "delegate": "tz1UMCB2AHSTwG7YcGNr31CqYCtGN873royv",
        "reception_time": "2022-01-21T09:34:37.421-00:00",
        "included_in_blocks":
          [ "BLcrMi6YiAEs4YHcieTE6U1Bohx1uBitgVfZWWVDPDxchfohGL2" ] },
      { "delegate": "tz1T7duV5gZWSTq4YpBGbXNLTfznCLDrFxvs",
        "reception_time": "2022-01-21T09:34:37.597-00:00",
        "included_in_blocks":
          [ "BLcrMi6YiAEs4YHcieTE6U1Bohx1uBitgVfZWWVDPDxchfohGL2" ] },
      { "delegate": "tz1axcnVN9tZnCe4sQQhC6f3tfSEXdjPaXPY",
        "reception_time": "2022-01-21T09:34:37.507-00:00",
        "included_in_blocks":
          [ "BLcrMi6YiAEs4YHcieTE6U1Bohx1uBitgVfZWWVDPDxchfohGL2" ] },
      { "delegate": "tz1abmz7jiCV2GH2u81LRrGgAFFgvQgiDiaf",
        "reception_time": "2022-01-21T09:34:37.338-00:00",
        "included_in_blocks":
          [ "BLcrMi6YiAEs4YHcieTE6U1Bohx1uBitgVfZWWVDPDxchfohGL2" ] },
      { "delegate": "tz1NEKxGEHsFufk87CVZcrqWu8o22qh46GK6",
        "reception_time": "2022-01-21T09:34:37.265-00:00",
        "included_in_blocks":
          [ "BLcrMi6YiAEs4YHcieTE6U1Bohx1uBitgVfZWWVDPDxchfohGL2" ] },
      { "delegate": "tz1TEc75UKXv4W5cwi14Na3NtqFD51yKQi7h",
        "reception_time": "2022-01-21T09:34:37.395-00:00",
        "included_in_blocks":
          [ "BLcrMi6YiAEs4YHcieTE6U1Bohx1uBitgVfZWWVDPDxchfohGL2" ] },
      { "delegate": "tz2FCNBrERXtaTtNX6iimR1UJ5JSDxvdHM93",
        "reception_time": "2022-01-21T09:34:36.887-00:00",
        "included_in_blocks":
          [ "BLcrMi6YiAEs4YHcieTE6U1Bohx1uBitgVfZWWVDPDxchfohGL2" ] },
      { "delegate": "tz3RB4aoyjov4KEVRbuhvQ1CKJgBJMWhaeB8",
        "reception_time": "2022-01-21T09:34:36.875-00:00",
        "included_in_blocks":
          [ "BLcrMi6YiAEs4YHcieTE6U1Bohx1uBitgVfZWWVDPDxchfohGL2" ] },
      { "delegate": "tz1Tnjaxk6tbAeC2TmMApPh8UsrEVQvhHvx5",
        "reception_time": "2022-01-21T09:34:37.261-00:00",
        "included_in_blocks":
          [ "BLcrMi6YiAEs4YHcieTE6U1Bohx1uBitgVfZWWVDPDxchfohGL2" ] },
      { "delegate": "tz1d8SMQTY56YRsCEa5UZNnKgWe2yP7obxKs",
        "reception_time": "2022-01-21T09:34:37.063-00:00",
        "included_in_blocks":
          [ "BLcrMi6YiAEs4YHcieTE6U1Bohx1uBitgVfZWWVDPDxchfohGL2" ] },
      { "delegate": "tz1SYq214SCBy9naR6cvycQsYcUGpBqQAE8d",
        "reception_time": "2022-01-21T09:34:36.804-00:00",
        "included_in_blocks":
          [ "BLcrMi6YiAEs4YHcieTE6U1Bohx1uBitgVfZWWVDPDxchfohGL2" ] },
      { "delegate": "tz1R4PuhxUxBBZhfLJDx2nNjbr7WorAPX1oC",
        "reception_time": "2022-01-21T09:34:36.926-00:00",
        "included_in_blocks":
          [ "BLcrMi6YiAEs4YHcieTE6U1Bohx1uBitgVfZWWVDPDxchfohGL2" ] },
      { "delegate": "tz1XWjJDAUnjgrLqCBnvB6icFBy5CDFxMmdg",
        "reception_time": "2022-01-21T09:34:37.543-00:00",
        "included_in_blocks":
          [ "BLcrMi6YiAEs4YHcieTE6U1Bohx1uBitgVfZWWVDPDxchfohGL2" ] },
      { "delegate": "tz1LmaFsWRkjr7QMCx5PtV6xTUz3AmEpKQiF",
        "reception_time": "2022-01-21T09:34:37.233-00:00",
        "included_in_blocks":
          [ "BLcrMi6YiAEs4YHcieTE6U1Bohx1uBitgVfZWWVDPDxchfohGL2" ] },
      { "delegate": "tz1V4qCyvPKZ5UeqdH14HN42rxvNPQfc9UZg",
        "reception_time": "2022-01-21T09:34:36.712-00:00",
        "included_in_blocks":
          [ "BLcrMi6YiAEs4YHcieTE6U1Bohx1uBitgVfZWWVDPDxchfohGL2" ] },
      { "delegate": "tz1RCFbB9GpALpsZtu6J58sb74dm8qe6XBzv",
        "reception_time": "2022-01-21T09:34:36.897-00:00",
        "included_in_blocks":
          [ "BLcrMi6YiAEs4YHcieTE6U1Bohx1uBitgVfZWWVDPDxchfohGL2" ] },
      { "delegate": "tz1ei4WtWEMEJekSv8qDnu9PExG6Q8HgRGr3",
        "reception_time": "2022-01-21T09:34:37.050-00:00",
        "included_in_blocks":
          [ "BLcrMi6YiAEs4YHcieTE6U1Bohx1uBitgVfZWWVDPDxchfohGL2" ] },
      { "delegate": "tz1LXpCpLNRhP7G9Yw8dRhWd8ZfH8929uvGo",
        "reception_time": "2022-01-21T09:34:36.887-00:00",
        "included_in_blocks":
          [ "BLcrMi6YiAEs4YHcieTE6U1Bohx1uBitgVfZWWVDPDxchfohGL2" ] },
      { "delegate": "tz1fUyqYH7H4pRHN1roWY17giXhy1RvxjgUV",
        "reception_time": "2022-01-21T09:34:36.596-00:00",
        "included_in_blocks":
          [ "BLcrMi6YiAEs4YHcieTE6U1Bohx1uBitgVfZWWVDPDxchfohGL2" ] },
      { "delegate": "tz1dwu9aYb7CRNq4Y2zAjipdjFuSVKhHS8vA",
        "reception_time": "2022-01-21T09:34:36.613-00:00",
        "included_in_blocks":
          [ "BLcrMi6YiAEs4YHcieTE6U1Bohx1uBitgVfZWWVDPDxchfohGL2" ] },
      { "delegate": "tz3bTdwZinP8U1JmSweNzVKhmwafqWmFWRfk",
        "reception_time": "2022-01-21T09:34:36.550-00:00",
        "included_in_blocks":
          [ "BLcrMi6YiAEs4YHcieTE6U1Bohx1uBitgVfZWWVDPDxchfohGL2" ] },
      { "delegate": "tz1KfEsrtDaA1sX7vdM4qmEPWuSytuqCDp5j",
        "reception_time": "2022-01-21T09:34:37.004-00:00",
        "included_in_blocks":
          [ "BLcrMi6YiAEs4YHcieTE6U1Bohx1uBitgVfZWWVDPDxchfohGL2" ] },
      { "delegate": "tz1Nf6tsK4G6bBqgSQERy4nUtkHNKUVdh7q1",
        "reception_time": "2022-01-21T09:34:36.921-00:00",
        "included_in_blocks":
          [ "BLcrMi6YiAEs4YHcieTE6U1Bohx1uBitgVfZWWVDPDxchfohGL2" ] },
      { "delegate": "tz3UoffC7FG7zfpmvmjUmUeAaHvzdcUvAj6r",
        "reception_time": "2022-01-21T09:34:37.164-00:00",
        "included_in_blocks":
          [ "BLcrMi6YiAEs4YHcieTE6U1Bohx1uBitgVfZWWVDPDxchfohGL2" ] },
      { "delegate": "tz1gfArv665EUkSg2ojMBzcbfwuPxAvqPvjo",
        "reception_time": "2022-01-21T09:34:36.568-00:00",
        "included_in_blocks":
          [ "BLcrMi6YiAEs4YHcieTE6U1Bohx1uBitgVfZWWVDPDxchfohGL2" ] },
      { "delegate": "tz1PWCDnz783NNGGQjEFFsHtrcK5yBW4E2rm",
        "reception_time": "2022-01-21T09:34:36.585-00:00",
        "included_in_blocks":
          [ "BLcrMi6YiAEs4YHcieTE6U1Bohx1uBitgVfZWWVDPDxchfohGL2" ] },
      { "delegate": "tz1WCd2jm4uSt4vntk4vSuUWoZQGhLcDuR9q",
        "reception_time": "2022-01-21T09:34:36.283-00:00",
        "included_in_blocks":
          [ "BLcrMi6YiAEs4YHcieTE6U1Bohx1uBitgVfZWWVDPDxchfohGL2" ] },
      { "delegate": "tz1d6Fx42mYgVFnHUW8T8A7WBfJ6nD9pVok8",
        "reception_time": "2022-01-21T09:34:36.167-00:00",
        "included_in_blocks":
          [ "BLcrMi6YiAEs4YHcieTE6U1Bohx1uBitgVfZWWVDPDxchfohGL2" ] },
      { "delegate": "tz3QT9dHYKDqh563chVa6za8526ys1UKfRfL",
        "reception_time": "2022-01-21T09:34:36.160-00:00",
        "included_in_blocks":
          [ "BLcrMi6YiAEs4YHcieTE6U1Bohx1uBitgVfZWWVDPDxchfohGL2" ] },
      { "delegate": "tz1S8MNvuFEUsWgjHvi3AxibRBf388NhT1q2",
        "reception_time": "2022-01-21T09:34:36.731-00:00",
        "included_in_blocks":
          [ "BLcrMi6YiAEs4YHcieTE6U1Bohx1uBitgVfZWWVDPDxchfohGL2" ] },
      { "delegate": "tz3iJu5vrKZcsqRPs8yJ61UDoeEXZmtro4qh",
        "reception_time": "2022-01-21T09:34:36.094-00:00",
        "included_in_blocks":
          [ "BLcrMi6YiAEs4YHcieTE6U1Bohx1uBitgVfZWWVDPDxchfohGL2" ] },
      { "delegate": "tz3S6BBeKgJGXxvLyZ1xzXzMPn11nnFtq5L9",
        "reception_time": "2022-01-21T09:34:36.145-00:00",
        "included_in_blocks":
          [ "BLcrMi6YiAEs4YHcieTE6U1Bohx1uBitgVfZWWVDPDxchfohGL2" ] },
      { "delegate": "tz3hw2kqXhLUvY65ca1eety2oQTpAvd34R9Q",
        "reception_time": "2022-01-21T09:34:36.136-00:00",
        "included_in_blocks":
          [ "BLcrMi6YiAEs4YHcieTE6U1Bohx1uBitgVfZWWVDPDxchfohGL2" ] },
      { "delegate": "tz3adcvQaKXTCg12zbninqo3q8ptKKtDFTLv",
        "reception_time": "2022-01-21T09:34:36.205-00:00",
        "included_in_blocks":
          [ "BLcrMi6YiAEs4YHcieTE6U1Bohx1uBitgVfZWWVDPDxchfohGL2" ] },
      { "delegate": "tz1Ldzz6k1BHdhuKvAtMRX7h5kJSMHESMHLC",
        "reception_time": "2022-01-21T09:34:35.966-00:00",
        "included_in_blocks":
          [ "BLcrMi6YiAEs4YHcieTE6U1Bohx1uBitgVfZWWVDPDxchfohGL2" ] },
      { "delegate": "tz3Zhs2dygr55yHyQyKjntAtY9bgfhLZ4Xj1",
        "reception_time": "2022-01-21T09:34:36.111-00:00",
        "included_in_blocks":
          [ "BLcrMi6YiAEs4YHcieTE6U1Bohx1uBitgVfZWWVDPDxchfohGL2" ] },
      { "delegate": "tz3QCNyySViKHmeSr45kzDxzchys7NiXCWoa",
        "reception_time": "2022-01-21T09:34:36.013-00:00",
        "included_in_blocks":
          [ "BLcrMi6YiAEs4YHcieTE6U1Bohx1uBitgVfZWWVDPDxchfohGL2" ] },
      { "delegate": "tz3RKYFsLuQzKBtmYuLNas7uMu3AsYd4QdsA",
        "reception_time": "2022-01-21T09:34:36.100-00:00",
        "included_in_blocks":
          [ "BLcrMi6YiAEs4YHcieTE6U1Bohx1uBitgVfZWWVDPDxchfohGL2" ] },
      { "delegate": "tz3QSGPoRp3Kn7n3vY24eYeu3Peuqo45LQ4D",
        "reception_time": "2022-01-21T09:34:35.997-00:00",
        "included_in_blocks":
          [ "BLcrMi6YiAEs4YHcieTE6U1Bohx1uBitgVfZWWVDPDxchfohGL2" ] },
      { "delegate": "tz3gtoUxdudfBRcNY7iVdKPHCYYX6xdPpoRS",
        "reception_time": "2022-01-21T09:34:35.977-00:00",
        "included_in_blocks":
          [ "BLcrMi6YiAEs4YHcieTE6U1Bohx1uBitgVfZWWVDPDxchfohGL2" ] },
      { "delegate": "tz1VmiY38m3y95HqQLjMwqnMS7sdMfGomzKi",
        "reception_time": "2022-01-21T09:34:36.205-00:00",
        "included_in_blocks":
          [ "BLcrMi6YiAEs4YHcieTE6U1Bohx1uBitgVfZWWVDPDxchfohGL2" ] },
      { "delegate": "tz1TRspM5SeZpaQUhzByXbEvqKF1vnCM2YTK",
        "reception_time": "2022-01-21T09:34:36.145-00:00",
        "included_in_blocks":
          [ "BLcrMi6YiAEs4YHcieTE6U1Bohx1uBitgVfZWWVDPDxchfohGL2" ] },
      { "delegate": "tz3NxTnke1acr8o3h5y9ytf5awQBGNJUKzVU",
        "reception_time": "2022-01-21T09:34:35.737-00:00",
        "included_in_blocks":
          [ "BLcrMi6YiAEs4YHcieTE6U1Bohx1uBitgVfZWWVDPDxchfohGL2" ] },
      { "delegate": "tz3ZbP2pM3nwvXztbuMJwJnDvV5xdpU8UkkD",
        "reception_time": "2022-01-21T09:34:35.754-00:00",
        "included_in_blocks":
          [ "BLcrMi6YiAEs4YHcieTE6U1Bohx1uBitgVfZWWVDPDxchfohGL2" ] },
      { "delegate": "tz1VQnqCCqX4K5sP3FNkVSNKTdCAMJDd3E1n",
        "reception_time": "2022-01-21T09:34:35.668-00:00",
        "included_in_blocks":
          [ "BLcrMi6YiAEs4YHcieTE6U1Bohx1uBitgVfZWWVDPDxchfohGL2" ] },
      { "delegate": "tz1TXzyaKUA8wsWefdSnyaYFnV2M3vCV7er9",
        "reception_time": "2022-01-21T09:34:35.629-00:00",
        "included_in_blocks":
          [ "BLcrMi6YiAEs4YHcieTE6U1Bohx1uBitgVfZWWVDPDxchfohGL2" ] },
      { "delegate": "tz1beersuEDv8Z7ngQ825xfbaJNS2EhXnyHR",
        "reception_time": "2022-01-21T09:34:35.652-00:00",
        "included_in_blocks":
          [ "BLcrMi6YiAEs4YHcieTE6U1Bohx1uBitgVfZWWVDPDxchfohGL2" ] },
      { "delegate": "tz1RV1MBbZMR68tacosb7Mwj6LkbPSUS1er1",
        "reception_time": "2022-01-21T09:34:35.727-00:00",
        "included_in_blocks":
          [ "BLcrMi6YiAEs4YHcieTE6U1Bohx1uBitgVfZWWVDPDxchfohGL2" ] },
      { "delegate": "tz1MXFrtZoaXckE41bjUCSjAjAap3AFDSr3N",
        "reception_time": "2022-01-21T09:34:35.594-00:00",
        "included_in_blocks":
          [ "BLcrMi6YiAEs4YHcieTE6U1Bohx1uBitgVfZWWVDPDxchfohGL2" ] },
      { "delegate": "tz1STeamwbp68THcny9zk3LsbG3H36DMvbRK",
        "reception_time": "2022-01-21T09:34:35.729-00:00",
        "included_in_blocks":
          [ "BLcrMi6YiAEs4YHcieTE6U1Bohx1uBitgVfZWWVDPDxchfohGL2" ] },
      { "delegate": "tz1Scdr2HsZiQjc7bHMeBbmDRXYVvdhjJbBh",
        "reception_time": "2022-01-21T09:34:35.599-00:00",
        "included_in_blocks":
          [ "BLcrMi6YiAEs4YHcieTE6U1Bohx1uBitgVfZWWVDPDxchfohGL2" ] },
      { "delegate": "tz1irJKkXS2DBWkU1NnmFQx1c1L7pbGg4yhk",
        "reception_time": "2022-01-21T09:34:35.594-00:00",
        "included_in_blocks":
          [ "BLcrMi6YiAEs4YHcieTE6U1Bohx1uBitgVfZWWVDPDxchfohGL2" ] },
      { "delegate": "tz1eEnQhbwf6trb8Q8mPb2RaPkNk2rN7BKi8",
        "reception_time": "2022-01-21T09:34:35.577-00:00",
        "included_in_blocks":
          [ "BLcrMi6YiAEs4YHcieTE6U1Bohx1uBitgVfZWWVDPDxchfohGL2" ] },
      { "delegate": "tz1P2Po7YM526ughEsRbY4oR9zaUPDZjxFrb",
        "reception_time": "2022-01-21T09:34:35.574-00:00",
        "included_in_blocks":
          [ "BLcrMi6YiAEs4YHcieTE6U1Bohx1uBitgVfZWWVDPDxchfohGL2" ] },
      { "delegate": "tz1Lhf4J9Qxoe3DZ2nfe8FGDnvVj7oKjnMY6",
        "reception_time": "2022-01-21T09:34:35.574-00:00",
        "included_in_blocks":
          [ "BLcrMi6YiAEs4YHcieTE6U1Bohx1uBitgVfZWWVDPDxchfohGL2" ] } ] }