{ "blocks":
    [ { "hash": "BMZS8egqejipZvkHEikCtCGYcYnkzmxviaR9DikRdM5dDeRQdQv",
        "delegate": "tz1ei4WtWEMEJekSv8qDnu9PExG6Q8HgRGr3",
        "reception_time": "2022-01-21T06:58:55.031-00:00",
        "timestamp": "2022-01-21T06:58:50Z" } ],
  "endorsements":
    [ { "delegate": "tz1awXW7wuXy21c66vBudMXQVAPgRnqqwgTH" },
      { "delegate": "tz1TRqbYbUf2GyrjErf3hBzgBJPzW8y36qEs" },
      { "delegate": "tz1W5VkdB5s7ENMESVBtwyt9kyvLqPcUczRT",
        "reception_time": "2022-01-21T06:59:02.125-00:00",
        "included_in_blocks":
          [ "BMAURVX2Bo4TazaGF7eRRUNikFD5QFGT5MvhHqk7rJ7vzN8aKc4" ] },
      { "delegate": "tz1LBgHhYP4JbYUWB9kPLgpri8STz5bD58EB",
        "reception_time": "2022-01-21T06:59:00.947-00:00",
        "included_in_blocks":
          [ "BMAURVX2Bo4TazaGF7eRRUNikFD5QFGT5MvhHqk7rJ7vzN8aKc4" ] },
      { "delegate": "tz1h4ar7F5wC6Ae2cfkrmrRP6nrPk9gGFaxg",
        "reception_time": "2022-01-21T06:58:59.359-00:00",
        "included_in_blocks":
          [ "BMAURVX2Bo4TazaGF7eRRUNikFD5QFGT5MvhHqk7rJ7vzN8aKc4" ] },
      { "delegate": "tz1eVaNx3gCmG1EsLjijkmgAxdLYVf6Bf5Sq",
        "reception_time": "2022-01-21T06:58:59.241-00:00",
        "included_in_blocks":
          [ "BMAURVX2Bo4TazaGF7eRRUNikFD5QFGT5MvhHqk7rJ7vzN8aKc4" ] },
      { "delegate": "tz3bvNMQ95vfAYtG8193ymshqjSvmxiCUuR5",
        "reception_time": "2022-01-21T06:58:58.832-00:00",
        "included_in_blocks":
          [ "BMAURVX2Bo4TazaGF7eRRUNikFD5QFGT5MvhHqk7rJ7vzN8aKc4" ] },
      { "delegate": "tz3NExpXn9aPNZPorRE4SdjJ2RGrfbJgMAaV",
        "reception_time": "2022-01-21T06:58:58.850-00:00",
        "included_in_blocks":
          [ "BMAURVX2Bo4TazaGF7eRRUNikFD5QFGT5MvhHqk7rJ7vzN8aKc4" ] },
      { "delegate": "tz1V3yg82mcrPJbegqVCPn6bC8w1CSTRp3f8",
        "reception_time": "2022-01-21T06:58:57.817-00:00",
        "included_in_blocks":
          [ "BMAURVX2Bo4TazaGF7eRRUNikFD5QFGT5MvhHqk7rJ7vzN8aKc4" ] },
      { "delegate": "tz3RB4aoyjov4KEVRbuhvQ1CKJgBJMWhaeB8",
        "reception_time": "2022-01-21T06:58:57.904-00:00",
        "included_in_blocks":
          [ "BMAURVX2Bo4TazaGF7eRRUNikFD5QFGT5MvhHqk7rJ7vzN8aKc4" ] },
      { "delegate": "tz1aRoaRhSpRYvFdyvgWLL6TGyRoGF51wDjM",
        "reception_time": "2022-01-21T06:58:58.328-00:00",
        "included_in_blocks":
          [ "BMAURVX2Bo4TazaGF7eRRUNikFD5QFGT5MvhHqk7rJ7vzN8aKc4" ] },
      { "delegate": "tz1dRKU4FQ9QRRQPdaH4zCR6gmCmXfcvcgtB",
        "reception_time": "2022-01-21T06:58:58.194-00:00",
        "included_in_blocks":
          [ "BMAURVX2Bo4TazaGF7eRRUNikFD5QFGT5MvhHqk7rJ7vzN8aKc4" ] },
      { "delegate": "tz3UoffC7FG7zfpmvmjUmUeAaHvzdcUvAj6r",
        "reception_time": "2022-01-21T06:58:58.622-00:00",
        "included_in_blocks":
          [ "BMAURVX2Bo4TazaGF7eRRUNikFD5QFGT5MvhHqk7rJ7vzN8aKc4" ] },
      { "delegate": "tz1cYufsxHXJcvANhvS55h3aY32a9BAFB494",
        "reception_time": "2022-01-21T06:58:57.689-00:00",
        "included_in_blocks":
          [ "BMAURVX2Bo4TazaGF7eRRUNikFD5QFGT5MvhHqk7rJ7vzN8aKc4" ] },
      { "delegate": "tz3gLTu4Yxj8tPAcriQVUdxv6BY9QyvzU1az",
        "reception_time": "2022-01-21T06:58:57.525-00:00",
        "included_in_blocks":
          [ "BMAURVX2Bo4TazaGF7eRRUNikFD5QFGT5MvhHqk7rJ7vzN8aKc4" ] },
      { "delegate": "tz3NDpRj6WBrJPikcPVHRBEjWKxFw3c6eQPS",
        "reception_time": "2022-01-21T06:58:57.604-00:00",
        "included_in_blocks":
          [ "BMAURVX2Bo4TazaGF7eRRUNikFD5QFGT5MvhHqk7rJ7vzN8aKc4" ] },
      { "delegate": "tz1g8vkmcde6sWKaG2NN9WKzCkDM6Rziq194",
        "reception_time": "2022-01-21T06:58:57.461-00:00",
        "included_in_blocks":
          [ "BMAURVX2Bo4TazaGF7eRRUNikFD5QFGT5MvhHqk7rJ7vzN8aKc4" ] },
      { "delegate": "tz1SYq214SCBy9naR6cvycQsYcUGpBqQAE8d",
        "reception_time": "2022-01-21T06:58:57.222-00:00",
        "included_in_blocks":
          [ "BMAURVX2Bo4TazaGF7eRRUNikFD5QFGT5MvhHqk7rJ7vzN8aKc4" ] },
      { "delegate": "tz1cwkVaVm1M59zoNZPm4VnYnmh18Eit8xXn",
        "reception_time": "2022-01-21T06:58:57.496-00:00",
        "included_in_blocks":
          [ "BMAURVX2Bo4TazaGF7eRRUNikFD5QFGT5MvhHqk7rJ7vzN8aKc4" ] },
      { "delegate": "tz3VEZ4k6a4Wx42iyev6i2aVAptTRLEAivNN",
        "reception_time": "2022-01-21T06:58:57.834-00:00",
        "included_in_blocks":
          [ "BMAURVX2Bo4TazaGF7eRRUNikFD5QFGT5MvhHqk7rJ7vzN8aKc4" ] },
      { "delegate": "tz1NuUu12WHdW3jHqvkujGHsiTi46Wvw1ci1",
        "reception_time": "2022-01-21T06:58:57.492-00:00",
        "included_in_blocks":
          [ "BMAURVX2Bo4TazaGF7eRRUNikFD5QFGT5MvhHqk7rJ7vzN8aKc4" ] },
      { "delegate": "tz1RjoHc98dBoqaH2jawF62XNKh7YsHwbkEv",
        "reception_time": "2022-01-21T06:58:57.638-00:00",
        "included_in_blocks":
          [ "BMAURVX2Bo4TazaGF7eRRUNikFD5QFGT5MvhHqk7rJ7vzN8aKc4" ] },
      { "delegate": "tz1RQhNh7iB9CZA7i3ifTWNwiGYVffponfbB",
        "reception_time": "2022-01-21T06:58:57.075-00:00",
        "included_in_blocks":
          [ "BMAURVX2Bo4TazaGF7eRRUNikFD5QFGT5MvhHqk7rJ7vzN8aKc4" ] },
      { "delegate": "tz1T7duV5gZWSTq4YpBGbXNLTfznCLDrFxvs",
        "reception_time": "2022-01-21T06:58:57.323-00:00",
        "included_in_blocks":
          [ "BMAURVX2Bo4TazaGF7eRRUNikFD5QFGT5MvhHqk7rJ7vzN8aKc4" ] },
      { "delegate": "tz2FCNBrERXtaTtNX6iimR1UJ5JSDxvdHM93",
        "reception_time": "2022-01-21T06:58:56.803-00:00",
        "included_in_blocks":
          [ "BMAURVX2Bo4TazaGF7eRRUNikFD5QFGT5MvhHqk7rJ7vzN8aKc4" ] },
      { "delegate": "tz3bTdwZinP8U1JmSweNzVKhmwafqWmFWRfk",
        "reception_time": "2022-01-21T06:58:56.717-00:00",
        "included_in_blocks":
          [ "BMAURVX2Bo4TazaGF7eRRUNikFD5QFGT5MvhHqk7rJ7vzN8aKc4" ] },
      { "delegate": "tz1NEKxGEHsFufk87CVZcrqWu8o22qh46GK6",
        "reception_time": "2022-01-21T06:58:57.455-00:00",
        "included_in_blocks":
          [ "BMAURVX2Bo4TazaGF7eRRUNikFD5QFGT5MvhHqk7rJ7vzN8aKc4" ] },
      { "delegate": "tz3WMqdzXqRWXwyvj5Hp2H7QEepaUuS7vd9K",
        "reception_time": "2022-01-21T06:58:57.632-00:00",
        "included_in_blocks":
          [ "BMAURVX2Bo4TazaGF7eRRUNikFD5QFGT5MvhHqk7rJ7vzN8aKc4" ] },
      { "delegate": "tz1d6Fx42mYgVFnHUW8T8A7WBfJ6nD9pVok8",
        "reception_time": "2022-01-21T06:58:56.641-00:00",
        "included_in_blocks":
          [ "BMAURVX2Bo4TazaGF7eRRUNikFD5QFGT5MvhHqk7rJ7vzN8aKc4" ] },
      { "delegate": "tz1Nf6tsK4G6bBqgSQERy4nUtkHNKUVdh7q1",
        "reception_time": "2022-01-21T06:58:57.148-00:00",
        "included_in_blocks":
          [ "BMAURVX2Bo4TazaGF7eRRUNikFD5QFGT5MvhHqk7rJ7vzN8aKc4" ] },
      { "delegate": "tz1KfEsrtDaA1sX7vdM4qmEPWuSytuqCDp5j",
        "reception_time": "2022-01-21T06:58:57.165-00:00",
        "included_in_blocks":
          [ "BMAURVX2Bo4TazaGF7eRRUNikFD5QFGT5MvhHqk7rJ7vzN8aKc4" ] },
      { "delegate": "tz1LmaFsWRkjr7QMCx5PtV6xTUz3AmEpKQiF",
        "reception_time": "2022-01-21T06:58:57.159-00:00",
        "included_in_blocks":
          [ "BMAURVX2Bo4TazaGF7eRRUNikFD5QFGT5MvhHqk7rJ7vzN8aKc4" ] },
      { "delegate": "tz1TEc75UKXv4W5cwi14Na3NtqFD51yKQi7h",
        "reception_time": "2022-01-21T06:58:56.970-00:00",
        "included_in_blocks":
          [ "BMAURVX2Bo4TazaGF7eRRUNikFD5QFGT5MvhHqk7rJ7vzN8aKc4" ] },
      { "delegate": "tz1gUNyn3hmnEWqkusWPzxRaon1cs7ndWh7h",
        "reception_time": "2022-01-21T06:58:56.457-00:00",
        "included_in_blocks":
          [ "BMAURVX2Bo4TazaGF7eRRUNikFD5QFGT5MvhHqk7rJ7vzN8aKc4" ] },
      { "delegate": "tz1VQnqCCqX4K5sP3FNkVSNKTdCAMJDd3E1n",
        "reception_time": "2022-01-21T06:58:56.453-00:00",
        "included_in_blocks":
          [ "BMAURVX2Bo4TazaGF7eRRUNikFD5QFGT5MvhHqk7rJ7vzN8aKc4" ] },
      { "delegate": "tz1WCd2jm4uSt4vntk4vSuUWoZQGhLcDuR9q",
        "reception_time": "2022-01-21T06:58:56.406-00:00",
        "included_in_blocks":
          [ "BMAURVX2Bo4TazaGF7eRRUNikFD5QFGT5MvhHqk7rJ7vzN8aKc4" ] },
      { "delegate": "tz1RCFbB9GpALpsZtu6J58sb74dm8qe6XBzv",
        "reception_time": "2022-01-21T06:58:56.799-00:00",
        "included_in_blocks":
          [ "BMAURVX2Bo4TazaGF7eRRUNikFD5QFGT5MvhHqk7rJ7vzN8aKc4" ] },
      { "delegate": "tz1VmiY38m3y95HqQLjMwqnMS7sdMfGomzKi",
        "reception_time": "2022-01-21T06:58:56.482-00:00",
        "included_in_blocks":
          [ "BMAURVX2Bo4TazaGF7eRRUNikFD5QFGT5MvhHqk7rJ7vzN8aKc4" ] },
      { "delegate": "tz1hAYfexyzPGG6RhZZMpDvAHifubsbb6kgn",
        "reception_time": "2022-01-21T06:58:56.648-00:00",
        "included_in_blocks":
          [ "BMAURVX2Bo4TazaGF7eRRUNikFD5QFGT5MvhHqk7rJ7vzN8aKc4" ] },
      { "delegate": "tz3S6BBeKgJGXxvLyZ1xzXzMPn11nnFtq5L9",
        "reception_time": "2022-01-21T06:58:56.114-00:00",
        "included_in_blocks":
          [ "BMAURVX2Bo4TazaGF7eRRUNikFD5QFGT5MvhHqk7rJ7vzN8aKc4" ] },
      { "delegate": "tz3Zhs2dygr55yHyQyKjntAtY9bgfhLZ4Xj1",
        "reception_time": "2022-01-21T06:58:56.211-00:00",
        "included_in_blocks":
          [ "BMAURVX2Bo4TazaGF7eRRUNikFD5QFGT5MvhHqk7rJ7vzN8aKc4" ] },
      { "delegate": "tz1Ldzz6k1BHdhuKvAtMRX7h5kJSMHESMHLC",
        "reception_time": "2022-01-21T06:58:56.230-00:00",
        "included_in_blocks":
          [ "BMAURVX2Bo4TazaGF7eRRUNikFD5QFGT5MvhHqk7rJ7vzN8aKc4" ] },
      { "delegate": "tz1NSDFKuRyzHxpfG1AMkyCwEiZ52cbR2mRW",
        "reception_time": "2022-01-21T06:58:56.611-00:00",
        "included_in_blocks":
          [ "BMAURVX2Bo4TazaGF7eRRUNikFD5QFGT5MvhHqk7rJ7vzN8aKc4" ] },
      { "delegate": "tz1fUyqYH7H4pRHN1roWY17giXhy1RvxjgUV",
        "reception_time": "2022-01-21T06:58:56.132-00:00",
        "included_in_blocks":
          [ "BMAURVX2Bo4TazaGF7eRRUNikFD5QFGT5MvhHqk7rJ7vzN8aKc4" ] },
      { "delegate": "tz3iJu5vrKZcsqRPs8yJ61UDoeEXZmtro4qh",
        "reception_time": "2022-01-21T06:58:56.241-00:00",
        "included_in_blocks":
          [ "BMAURVX2Bo4TazaGF7eRRUNikFD5QFGT5MvhHqk7rJ7vzN8aKc4" ] },
      { "delegate": "tz3QT9dHYKDqh563chVa6za8526ys1UKfRfL",
        "reception_time": "2022-01-21T06:58:56.144-00:00",
        "included_in_blocks":
          [ "BMAURVX2Bo4TazaGF7eRRUNikFD5QFGT5MvhHqk7rJ7vzN8aKc4" ] },
      { "delegate": "tz3RKYFsLuQzKBtmYuLNas7uMu3AsYd4QdsA",
        "reception_time": "2022-01-21T06:58:56.027-00:00",
        "included_in_blocks":
          [ "BMAURVX2Bo4TazaGF7eRRUNikFD5QFGT5MvhHqk7rJ7vzN8aKc4" ] },
      { "delegate": "tz3QSGPoRp3Kn7n3vY24eYeu3Peuqo45LQ4D",
        "reception_time": "2022-01-21T06:58:56.048-00:00",
        "included_in_blocks":
          [ "BMAURVX2Bo4TazaGF7eRRUNikFD5QFGT5MvhHqk7rJ7vzN8aKc4" ] },
      { "delegate": "tz3hw2kqXhLUvY65ca1eety2oQTpAvd34R9Q",
        "reception_time": "2022-01-21T06:58:55.948-00:00",
        "included_in_blocks":
          [ "BMAURVX2Bo4TazaGF7eRRUNikFD5QFGT5MvhHqk7rJ7vzN8aKc4" ] },
      { "delegate": "tz3gtoUxdudfBRcNY7iVdKPHCYYX6xdPpoRS",
        "reception_time": "2022-01-21T06:58:56.127-00:00",
        "included_in_blocks":
          [ "BMAURVX2Bo4TazaGF7eRRUNikFD5QFGT5MvhHqk7rJ7vzN8aKc4" ] },
      { "delegate": "tz1gfArv665EUkSg2ojMBzcbfwuPxAvqPvjo",
        "reception_time": "2022-01-21T06:58:56.429-00:00",
        "included_in_blocks":
          [ "BMAURVX2Bo4TazaGF7eRRUNikFD5QFGT5MvhHqk7rJ7vzN8aKc4" ] },
      { "delegate": "tz3NxTnke1acr8o3h5y9ytf5awQBGNJUKzVU",
        "reception_time": "2022-01-21T06:58:55.914-00:00",
        "included_in_blocks":
          [ "BMAURVX2Bo4TazaGF7eRRUNikFD5QFGT5MvhHqk7rJ7vzN8aKc4" ] },
      { "delegate": "tz1abmz7jiCV2GH2u81LRrGgAFFgvQgiDiaf",
        "reception_time": "2022-01-21T06:58:56.409-00:00",
        "included_in_blocks":
          [ "BMAURVX2Bo4TazaGF7eRRUNikFD5QFGT5MvhHqk7rJ7vzN8aKc4" ] },
      { "delegate": "tz3ZbP2pM3nwvXztbuMJwJnDvV5xdpU8UkkD",
        "reception_time": "2022-01-21T06:58:55.869-00:00",
        "included_in_blocks":
          [ "BMAURVX2Bo4TazaGF7eRRUNikFD5QFGT5MvhHqk7rJ7vzN8aKc4" ] },
      { "delegate": "tz1PWCDnz783NNGGQjEFFsHtrcK5yBW4E2rm",
        "reception_time": "2022-01-21T06:58:56.033-00:00",
        "included_in_blocks":
          [ "BMAURVX2Bo4TazaGF7eRRUNikFD5QFGT5MvhHqk7rJ7vzN8aKc4" ] },
      { "delegate": "tz1irJKkXS2DBWkU1NnmFQx1c1L7pbGg4yhk",
        "reception_time": "2022-01-21T06:58:55.657-00:00",
        "included_in_blocks":
          [ "BMAURVX2Bo4TazaGF7eRRUNikFD5QFGT5MvhHqk7rJ7vzN8aKc4" ] },
      { "delegate": "tz1KzSC1J9aBxKp7u8TUnpN8L7S65PBRkgdF",
        "reception_time": "2022-01-21T06:58:56.686-00:00",
        "included_in_blocks":
          [ "BMAURVX2Bo4TazaGF7eRRUNikFD5QFGT5MvhHqk7rJ7vzN8aKc4" ] },
      { "delegate": "tz1MQMiZHV8q4tTwUMWmS5Y3kaP6J2136iXr",
        "reception_time": "2022-01-21T06:58:56.497-00:00",
        "included_in_blocks":
          [ "BMAURVX2Bo4TazaGF7eRRUNikFD5QFGT5MvhHqk7rJ7vzN8aKc4" ] },
      { "delegate": "tz1S8MNvuFEUsWgjHvi3AxibRBf388NhT1q2",
        "reception_time": "2022-01-21T06:58:56.424-00:00",
        "included_in_blocks":
          [ "BMAURVX2Bo4TazaGF7eRRUNikFD5QFGT5MvhHqk7rJ7vzN8aKc4" ] },
      { "delegate": "tz1TRspM5SeZpaQUhzByXbEvqKF1vnCM2YTK",
        "reception_time": "2022-01-21T06:58:55.896-00:00",
        "included_in_blocks":
          [ "BMAURVX2Bo4TazaGF7eRRUNikFD5QFGT5MvhHqk7rJ7vzN8aKc4" ] },
      { "delegate": "tz1ei4WtWEMEJekSv8qDnu9PExG6Q8HgRGr3",
        "reception_time": "2022-01-21T06:58:55.986-00:00",
        "included_in_blocks":
          [ "BMAURVX2Bo4TazaGF7eRRUNikFD5QFGT5MvhHqk7rJ7vzN8aKc4" ] },
      { "delegate": "tz1fPKAtsYydh4f1wfWNfeNxWYu72TmM48fu",
        "reception_time": "2022-01-21T06:58:56.000-00:00",
        "included_in_blocks":
          [ "BMAURVX2Bo4TazaGF7eRRUNikFD5QFGT5MvhHqk7rJ7vzN8aKc4" ] },
      { "delegate": "tz1aXD7Jigrt3PBYSpHSg5Rr33SexMmmM5Ys",
        "reception_time": "2022-01-21T06:58:55.886-00:00",
        "included_in_blocks":
          [ "BMAURVX2Bo4TazaGF7eRRUNikFD5QFGT5MvhHqk7rJ7vzN8aKc4" ] },
      { "delegate": "tz1Lhf4J9Qxoe3DZ2nfe8FGDnvVj7oKjnMY6",
        "reception_time": "2022-01-21T06:58:55.639-00:00",
        "included_in_blocks":
          [ "BMAURVX2Bo4TazaGF7eRRUNikFD5QFGT5MvhHqk7rJ7vzN8aKc4" ] },
      { "delegate": "tz1STeamwbp68THcny9zk3LsbG3H36DMvbRK",
        "reception_time": "2022-01-21T06:58:55.642-00:00",
        "included_in_blocks":
          [ "BMAURVX2Bo4TazaGF7eRRUNikFD5QFGT5MvhHqk7rJ7vzN8aKc4" ] },
      { "delegate": "tz1eEnQhbwf6trb8Q8mPb2RaPkNk2rN7BKi8",
        "reception_time": "2022-01-21T06:58:55.645-00:00",
        "included_in_blocks":
          [ "BMAURVX2Bo4TazaGF7eRRUNikFD5QFGT5MvhHqk7rJ7vzN8aKc4" ] },
      { "delegate": "tz1P2Po7YM526ughEsRbY4oR9zaUPDZjxFrb",
        "reception_time": "2022-01-21T06:58:55.632-00:00",
        "included_in_blocks":
          [ "BMAURVX2Bo4TazaGF7eRRUNikFD5QFGT5MvhHqk7rJ7vzN8aKc4" ] },
      { "delegate": "tz1beersuEDv8Z7ngQ825xfbaJNS2EhXnyHR",
        "reception_time": "2022-01-21T06:58:55.639-00:00",
        "included_in_blocks":
          [ "BMAURVX2Bo4TazaGF7eRRUNikFD5QFGT5MvhHqk7rJ7vzN8aKc4" ] },
      { "delegate": "tz1Kt4P8BCaP93AEV4eA7gmpRryWt5hznjCP",
        "reception_time": "2022-01-21T06:58:55.629-00:00",
        "included_in_blocks":
          [ "BMAURVX2Bo4TazaGF7eRRUNikFD5QFGT5MvhHqk7rJ7vzN8aKc4" ] } ] }