{ "blocks":
    [ { "hash": "BLSXup436EqkRb24ayaVidrKvQaFynywsYJz6jfAHXevWxt1GMd",
        "delegate": "tz1VQnqCCqX4K5sP3FNkVSNKTdCAMJDd3E1n",
        "reception_time": "2022-01-21T06:54:53.594-00:00",
        "timestamp": "2022-01-21T06:54:50Z" } ],
  "endorsements":
    [ { "delegate": "tz1awXW7wuXy21c66vBudMXQVAPgRnqqwgTH" },
      { "delegate": "tz1TRqbYbUf2GyrjErf3hBzgBJPzW8y36qEs" },
      { "delegate": "tz1P2Po7YM526ughEsRbY4oR9zaUPDZjxFrb",
        "reception_time": "2022-01-21T06:54:53.596-00:00",
        "errors":
          [ { "kind": "temporary",
              "id": "proto.011-PtHangz2.prefilter.outdated_endorsement" } ],
        "included_in_blocks":
          [ "BMGT5Cvsv7SbCt5CnWYco8iHESjAG2r8KaFxS3EYHVckn72XH3J" ] },
      { "delegate": "tz1Scdr2HsZiQjc7bHMeBbmDRXYVvdhjJbBh",
        "reception_time": "2022-01-21T06:54:53.570-00:00",
        "errors":
          [ { "kind": "temporary",
              "id": "proto.011-PtHangz2.prefilter.outdated_endorsement" } ],
        "included_in_blocks":
          [ "BMGT5Cvsv7SbCt5CnWYco8iHESjAG2r8KaFxS3EYHVckn72XH3J" ] },
      { "delegate": "tz1Lhf4J9Qxoe3DZ2nfe8FGDnvVj7oKjnMY6",
        "reception_time": "2022-01-21T06:54:53.552-00:00",
        "errors":
          [ { "kind": "temporary",
              "id": "proto.011-PtHangz2.prefilter.outdated_endorsement" } ],
        "included_in_blocks":
          [ "BMGT5Cvsv7SbCt5CnWYco8iHESjAG2r8KaFxS3EYHVckn72XH3J" ] },
      { "delegate": "tz1XXayQohB8XRXN7kMoHbf2NFwNiH3oMRQQ",
        "reception_time": "2022-01-21T06:54:53.438-00:00",
        "errors":
          [ { "kind": "temporary",
              "id": "proto.011-PtHangz2.prefilter.outdated_endorsement" } ],
        "included_in_blocks":
          [ "BMGT5Cvsv7SbCt5CnWYco8iHESjAG2r8KaFxS3EYHVckn72XH3J" ] },
      { "delegate": "tz1eEnQhbwf6trb8Q8mPb2RaPkNk2rN7BKi8",
        "reception_time": "2022-01-21T06:54:53.408-00:00",
        "errors":
          [ { "kind": "temporary",
              "id": "proto.011-PtHangz2.prefilter.outdated_endorsement" } ],
        "included_in_blocks":
          [ "BMGT5Cvsv7SbCt5CnWYco8iHESjAG2r8KaFxS3EYHVckn72XH3J" ] },
      { "delegate": "tz1S8e9GgdZG78XJRB3NqabfWeM37GnhZMWQ",
        "reception_time": "2022-01-21T06:54:53.164-00:00",
        "errors":
          [ { "kind": "temporary",
              "id": "proto.011-PtHangz2.prefilter.outdated_endorsement" } ],
        "included_in_blocks":
          [ "BMGT5Cvsv7SbCt5CnWYco8iHESjAG2r8KaFxS3EYHVckn72XH3J" ] },
      { "delegate": "tz1gg5bjopPcr9agjamyu9BbXKLibNc2rbAq",
        "reception_time": "2022-01-21T06:54:59.195-00:00",
        "included_in_blocks":
          [ "BMGT5Cvsv7SbCt5CnWYco8iHESjAG2r8KaFxS3EYHVckn72XH3J" ] },
      { "delegate": "tz1cM8Xc7ZP1TrjkTeKq4PeRhtbnwXSBR6Sw",
        "reception_time": "2022-01-21T06:54:58.102-00:00",
        "included_in_blocks":
          [ "BMGT5Cvsv7SbCt5CnWYco8iHESjAG2r8KaFxS3EYHVckn72XH3J" ] },
      { "delegate": "tz2KrmHRWu7b7Vr3GYQ3SJ41xaW64PiqWBYm",
        "reception_time": "2022-01-21T06:54:57.485-00:00",
        "included_in_blocks":
          [ "BMGT5Cvsv7SbCt5CnWYco8iHESjAG2r8KaFxS3EYHVckn72XH3J" ] },
      { "delegate": "tz1NpWrAyDL9k2Lmnyxcgr9xuJakbBxdq7FB",
        "reception_time": "2022-01-21T06:54:57.502-00:00",
        "included_in_blocks":
          [ "BMGT5Cvsv7SbCt5CnWYco8iHESjAG2r8KaFxS3EYHVckn72XH3J" ] },
      { "delegate": "tz3NExpXn9aPNZPorRE4SdjJ2RGrfbJgMAaV",
        "reception_time": "2022-01-21T06:54:57.209-00:00",
        "included_in_blocks":
          [ "BMGT5Cvsv7SbCt5CnWYco8iHESjAG2r8KaFxS3EYHVckn72XH3J" ] },
      { "delegate": "tz3UoffC7FG7zfpmvmjUmUeAaHvzdcUvAj6r",
        "reception_time": "2022-01-21T06:54:57.118-00:00",
        "included_in_blocks":
          [ "BMGT5Cvsv7SbCt5CnWYco8iHESjAG2r8KaFxS3EYHVckn72XH3J" ] },
      { "delegate": "tz1iEWcNL383qiDJ3Q3qt5W2T4aSKUbEU4An",
        "reception_time": "2022-01-21T06:54:57.077-00:00",
        "included_in_blocks":
          [ "BMGT5Cvsv7SbCt5CnWYco8iHESjAG2r8KaFxS3EYHVckn72XH3J" ] },
      { "delegate": "tz1dRKU4FQ9QRRQPdaH4zCR6gmCmXfcvcgtB",
        "reception_time": "2022-01-21T06:54:57.004-00:00",
        "included_in_blocks":
          [ "BMGT5Cvsv7SbCt5CnWYco8iHESjAG2r8KaFxS3EYHVckn72XH3J" ] },
      { "delegate": "tz1T7duV5gZWSTq4YpBGbXNLTfznCLDrFxvs",
        "reception_time": "2022-01-21T06:54:56.464-00:00",
        "included_in_blocks":
          [ "BMGT5Cvsv7SbCt5CnWYco8iHESjAG2r8KaFxS3EYHVckn72XH3J" ] },
      { "delegate": "tz3VEZ4k6a4Wx42iyev6i2aVAptTRLEAivNN",
        "reception_time": "2022-01-21T06:54:56.372-00:00",
        "included_in_blocks":
          [ "BMGT5Cvsv7SbCt5CnWYco8iHESjAG2r8KaFxS3EYHVckn72XH3J" ] },
      { "delegate": "tz1cYufsxHXJcvANhvS55h3aY32a9BAFB494",
        "reception_time": "2022-01-21T06:54:56.274-00:00",
        "included_in_blocks":
          [ "BMGT5Cvsv7SbCt5CnWYco8iHESjAG2r8KaFxS3EYHVckn72XH3J" ] },
      { "delegate": "tz1KfEsrtDaA1sX7vdM4qmEPWuSytuqCDp5j",
        "reception_time": "2022-01-21T06:54:56.270-00:00",
        "included_in_blocks":
          [ "BMGT5Cvsv7SbCt5CnWYco8iHESjAG2r8KaFxS3EYHVckn72XH3J" ] },
      { "delegate": "tz3WMqdzXqRWXwyvj5Hp2H7QEepaUuS7vd9K",
        "reception_time": "2022-01-21T06:54:56.116-00:00",
        "included_in_blocks":
          [ "BMGT5Cvsv7SbCt5CnWYco8iHESjAG2r8KaFxS3EYHVckn72XH3J" ] },
      { "delegate": "tz3bvNMQ95vfAYtG8193ymshqjSvmxiCUuR5",
        "reception_time": "2022-01-21T06:54:56.102-00:00",
        "included_in_blocks":
          [ "BMGT5Cvsv7SbCt5CnWYco8iHESjAG2r8KaFxS3EYHVckn72XH3J" ] },
      { "delegate": "tz1NEKxGEHsFufk87CVZcrqWu8o22qh46GK6",
        "reception_time": "2022-01-21T06:54:56.071-00:00",
        "included_in_blocks":
          [ "BMGT5Cvsv7SbCt5CnWYco8iHESjAG2r8KaFxS3EYHVckn72XH3J" ] },
      { "delegate": "tz1NoYvKjXTzTk54VpLxBfouJ33J8jwKPPvw",
        "reception_time": "2022-01-21T06:54:55.996-00:00",
        "included_in_blocks":
          [ "BMGT5Cvsv7SbCt5CnWYco8iHESjAG2r8KaFxS3EYHVckn72XH3J" ] },
      { "delegate": "tz3RB4aoyjov4KEVRbuhvQ1CKJgBJMWhaeB8",
        "reception_time": "2022-01-21T06:54:56.061-00:00",
        "included_in_blocks":
          [ "BMGT5Cvsv7SbCt5CnWYco8iHESjAG2r8KaFxS3EYHVckn72XH3J" ] },
      { "delegate": "tz1fZ767VDbqx4DeKiFswPSHh513f51mKEUZ",
        "reception_time": "2022-01-21T06:54:55.949-00:00",
        "included_in_blocks":
          [ "BMGT5Cvsv7SbCt5CnWYco8iHESjAG2r8KaFxS3EYHVckn72XH3J" ] },
      { "delegate": "tz1WBfwbT66FC6BTLexc2BoyCCBM9LG7pnVW",
        "reception_time": "2022-01-21T06:54:55.841-00:00",
        "included_in_blocks":
          [ "BMGT5Cvsv7SbCt5CnWYco8iHESjAG2r8KaFxS3EYHVckn72XH3J" ] },
      { "delegate": "tz1SYq214SCBy9naR6cvycQsYcUGpBqQAE8d",
        "reception_time": "2022-01-21T06:54:55.736-00:00",
        "included_in_blocks":
          [ "BMGT5Cvsv7SbCt5CnWYco8iHESjAG2r8KaFxS3EYHVckn72XH3J" ] },
      { "delegate": "tz2FCNBrERXtaTtNX6iimR1UJ5JSDxvdHM93",
        "reception_time": "2022-01-21T06:54:55.822-00:00",
        "included_in_blocks":
          [ "BMGT5Cvsv7SbCt5CnWYco8iHESjAG2r8KaFxS3EYHVckn72XH3J" ] },
      { "delegate": "tz3NDpRj6WBrJPikcPVHRBEjWKxFw3c6eQPS",
        "reception_time": "2022-01-21T06:54:55.834-00:00",
        "included_in_blocks":
          [ "BMGT5Cvsv7SbCt5CnWYco8iHESjAG2r8KaFxS3EYHVckn72XH3J" ] },
      { "delegate": "tz1Nf6tsK4G6bBqgSQERy4nUtkHNKUVdh7q1",
        "reception_time": "2022-01-21T06:54:55.580-00:00",
        "included_in_blocks":
          [ "BMGT5Cvsv7SbCt5CnWYco8iHESjAG2r8KaFxS3EYHVckn72XH3J" ] },
      { "delegate": "tz1aRoaRhSpRYvFdyvgWLL6TGyRoGF51wDjM",
        "reception_time": "2022-01-21T06:54:55.844-00:00",
        "included_in_blocks":
          [ "BMGT5Cvsv7SbCt5CnWYco8iHESjAG2r8KaFxS3EYHVckn72XH3J" ] },
      { "delegate": "tz1dNVDWPf3Q59SdJqnjdnu277iyvReiRS9M",
        "reception_time": "2022-01-21T06:54:55.637-00:00",
        "included_in_blocks":
          [ "BMGT5Cvsv7SbCt5CnWYco8iHESjAG2r8KaFxS3EYHVckn72XH3J" ] },
      { "delegate": "tz1Y7939nK18ogD32jAkun8sCCH8Ab2tQfvv",
        "reception_time": "2022-01-21T06:54:55.513-00:00",
        "included_in_blocks":
          [ "BMGT5Cvsv7SbCt5CnWYco8iHESjAG2r8KaFxS3EYHVckn72XH3J" ] },
      { "delegate": "tz1abmz7jiCV2GH2u81LRrGgAFFgvQgiDiaf",
        "reception_time": "2022-01-21T06:54:55.525-00:00",
        "included_in_blocks":
          [ "BMGT5Cvsv7SbCt5CnWYco8iHESjAG2r8KaFxS3EYHVckn72XH3J" ] },
      { "delegate": "tz1gfArv665EUkSg2ojMBzcbfwuPxAvqPvjo",
        "reception_time": "2022-01-21T06:54:55.384-00:00",
        "included_in_blocks":
          [ "BMGT5Cvsv7SbCt5CnWYco8iHESjAG2r8KaFxS3EYHVckn72XH3J" ] },
      { "delegate": "tz1ei4WtWEMEJekSv8qDnu9PExG6Q8HgRGr3",
        "reception_time": "2022-01-21T06:54:55.409-00:00",
        "included_in_blocks":
          [ "BMGT5Cvsv7SbCt5CnWYco8iHESjAG2r8KaFxS3EYHVckn72XH3J" ] },
      { "delegate": "tz1Tnjaxk6tbAeC2TmMApPh8UsrEVQvhHvx5",
        "reception_time": "2022-01-21T06:54:55.494-00:00",
        "included_in_blocks":
          [ "BMGT5Cvsv7SbCt5CnWYco8iHESjAG2r8KaFxS3EYHVckn72XH3J" ] },
      { "delegate": "tz1S8MNvuFEUsWgjHvi3AxibRBf388NhT1q2",
        "reception_time": "2022-01-21T06:54:55.430-00:00",
        "included_in_blocks":
          [ "BMGT5Cvsv7SbCt5CnWYco8iHESjAG2r8KaFxS3EYHVckn72XH3J" ] },
      { "delegate": "tz1MQMiZHV8q4tTwUMWmS5Y3kaP6J2136iXr",
        "reception_time": "2022-01-21T06:54:55.358-00:00",
        "included_in_blocks":
          [ "BMGT5Cvsv7SbCt5CnWYco8iHESjAG2r8KaFxS3EYHVckn72XH3J" ] },
      { "delegate": "tz1g8vkmcde6sWKaG2NN9WKzCkDM6Rziq194",
        "reception_time": "2022-01-21T06:54:55.177-00:00",
        "included_in_blocks":
          [ "BMGT5Cvsv7SbCt5CnWYco8iHESjAG2r8KaFxS3EYHVckn72XH3J" ] },
      { "delegate": "tz1RCFbB9GpALpsZtu6J58sb74dm8qe6XBzv",
        "reception_time": "2022-01-21T06:54:55.182-00:00",
        "included_in_blocks":
          [ "BMGT5Cvsv7SbCt5CnWYco8iHESjAG2r8KaFxS3EYHVckn72XH3J" ] },
      { "delegate": "tz1V4qCyvPKZ5UeqdH14HN42rxvNPQfc9UZg",
        "reception_time": "2022-01-21T06:54:55.194-00:00",
        "included_in_blocks":
          [ "BMGT5Cvsv7SbCt5CnWYco8iHESjAG2r8KaFxS3EYHVckn72XH3J" ] },
      { "delegate": "tz1PWCDnz783NNGGQjEFFsHtrcK5yBW4E2rm",
        "reception_time": "2022-01-21T06:54:55.133-00:00",
        "included_in_blocks":
          [ "BMGT5Cvsv7SbCt5CnWYco8iHESjAG2r8KaFxS3EYHVckn72XH3J" ] },
      { "delegate": "tz3e7LbZvUtoXhpUD1yb6wuFodZpfYRb9nWJ",
        "reception_time": "2022-01-21T06:54:54.943-00:00",
        "included_in_blocks":
          [ "BMGT5Cvsv7SbCt5CnWYco8iHESjAG2r8KaFxS3EYHVckn72XH3J" ] },
      { "delegate": "tz1TRspM5SeZpaQUhzByXbEvqKF1vnCM2YTK",
        "reception_time": "2022-01-21T06:54:54.981-00:00",
        "included_in_blocks":
          [ "BMGT5Cvsv7SbCt5CnWYco8iHESjAG2r8KaFxS3EYHVckn72XH3J" ] },
      { "delegate": "tz3RDC3Jdn4j15J7bBHZd29EUee9gVB1CxD9",
        "reception_time": "2022-01-21T06:54:54.975-00:00",
        "included_in_blocks":
          [ "BMGT5Cvsv7SbCt5CnWYco8iHESjAG2r8KaFxS3EYHVckn72XH3J" ] },
      { "delegate": "tz1d6Fx42mYgVFnHUW8T8A7WBfJ6nD9pVok8",
        "reception_time": "2022-01-21T06:54:54.789-00:00",
        "included_in_blocks":
          [ "BMGT5Cvsv7SbCt5CnWYco8iHESjAG2r8KaFxS3EYHVckn72XH3J" ] },
      { "delegate": "tz1WCd2jm4uSt4vntk4vSuUWoZQGhLcDuR9q",
        "reception_time": "2022-01-21T06:54:54.821-00:00",
        "included_in_blocks":
          [ "BMGT5Cvsv7SbCt5CnWYco8iHESjAG2r8KaFxS3EYHVckn72XH3J" ] },
      { "delegate": "tz3bTdwZinP8U1JmSweNzVKhmwafqWmFWRfk",
        "reception_time": "2022-01-21T06:54:54.815-00:00",
        "included_in_blocks":
          [ "BMGT5Cvsv7SbCt5CnWYco8iHESjAG2r8KaFxS3EYHVckn72XH3J" ] },
      { "delegate": "tz1MivraUX9U6nmGAQkm7XkrNVmsPExEUT1W",
        "reception_time": "2022-01-21T06:54:54.841-00:00",
        "included_in_blocks":
          [ "BMGT5Cvsv7SbCt5CnWYco8iHESjAG2r8KaFxS3EYHVckn72XH3J" ] },
      { "delegate": "tz1Kt4P8BCaP93AEV4eA7gmpRryWt5hznjCP",
        "reception_time": "2022-01-21T06:54:54.826-00:00",
        "included_in_blocks":
          [ "BMGT5Cvsv7SbCt5CnWYco8iHESjAG2r8KaFxS3EYHVckn72XH3J" ] },
      { "delegate": "tz1Ldzz6k1BHdhuKvAtMRX7h5kJSMHESMHLC",
        "reception_time": "2022-01-21T06:54:54.596-00:00",
        "included_in_blocks":
          [ "BMGT5Cvsv7SbCt5CnWYco8iHESjAG2r8KaFxS3EYHVckn72XH3J" ] },
      { "delegate": "tz1VmiY38m3y95HqQLjMwqnMS7sdMfGomzKi",
        "reception_time": "2022-01-21T06:54:54.492-00:00",
        "included_in_blocks":
          [ "BMGT5Cvsv7SbCt5CnWYco8iHESjAG2r8KaFxS3EYHVckn72XH3J" ] },
      { "delegate": "tz3QT9dHYKDqh563chVa6za8526ys1UKfRfL",
        "reception_time": "2022-01-21T06:54:54.562-00:00",
        "included_in_blocks":
          [ "BMGT5Cvsv7SbCt5CnWYco8iHESjAG2r8KaFxS3EYHVckn72XH3J" ] },
      { "delegate": "tz3S6BBeKgJGXxvLyZ1xzXzMPn11nnFtq5L9",
        "reception_time": "2022-01-21T06:54:54.439-00:00",
        "included_in_blocks":
          [ "BMGT5Cvsv7SbCt5CnWYco8iHESjAG2r8KaFxS3EYHVckn72XH3J" ] },
      { "delegate": "tz3Zhs2dygr55yHyQyKjntAtY9bgfhLZ4Xj1",
        "reception_time": "2022-01-21T06:54:54.367-00:00",
        "included_in_blocks":
          [ "BMGT5Cvsv7SbCt5CnWYco8iHESjAG2r8KaFxS3EYHVckn72XH3J" ] },
      { "delegate": "tz1gUNyn3hmnEWqkusWPzxRaon1cs7ndWh7h",
        "reception_time": "2022-01-21T06:54:54.441-00:00",
        "included_in_blocks":
          [ "BMGT5Cvsv7SbCt5CnWYco8iHESjAG2r8KaFxS3EYHVckn72XH3J" ] },
      { "delegate": "tz3hw2kqXhLUvY65ca1eety2oQTpAvd34R9Q",
        "reception_time": "2022-01-21T06:54:54.380-00:00",
        "included_in_blocks":
          [ "BMGT5Cvsv7SbCt5CnWYco8iHESjAG2r8KaFxS3EYHVckn72XH3J" ] },
      { "delegate": "tz1TzaNn7wSQSP5gYPXCnNzBCpyMiidCq1PX",
        "reception_time": "2022-01-21T06:54:54.480-00:00",
        "included_in_blocks":
          [ "BMGT5Cvsv7SbCt5CnWYco8iHESjAG2r8KaFxS3EYHVckn72XH3J" ] },
      { "delegate": "tz1irJKkXS2DBWkU1NnmFQx1c1L7pbGg4yhk",
        "reception_time": "2022-01-21T06:54:54.323-00:00",
        "included_in_blocks":
          [ "BMGT5Cvsv7SbCt5CnWYco8iHESjAG2r8KaFxS3EYHVckn72XH3J" ] },
      { "delegate": "tz3iJu5vrKZcsqRPs8yJ61UDoeEXZmtro4qh",
        "reception_time": "2022-01-21T06:54:54.359-00:00",
        "included_in_blocks":
          [ "BMGT5Cvsv7SbCt5CnWYco8iHESjAG2r8KaFxS3EYHVckn72XH3J" ] },
      { "delegate": "tz3RKYFsLuQzKBtmYuLNas7uMu3AsYd4QdsA",
        "reception_time": "2022-01-21T06:54:54.343-00:00",
        "included_in_blocks":
          [ "BMGT5Cvsv7SbCt5CnWYco8iHESjAG2r8KaFxS3EYHVckn72XH3J" ] },
      { "delegate": "tz3QCNyySViKHmeSr45kzDxzchys7NiXCWoa",
        "reception_time": "2022-01-21T06:54:54.331-00:00",
        "included_in_blocks":
          [ "BMGT5Cvsv7SbCt5CnWYco8iHESjAG2r8KaFxS3EYHVckn72XH3J" ] },
      { "delegate": "tz1VQnqCCqX4K5sP3FNkVSNKTdCAMJDd3E1n",
        "reception_time": "2022-01-21T06:54:54.444-00:00",
        "included_in_blocks":
          [ "BMGT5Cvsv7SbCt5CnWYco8iHESjAG2r8KaFxS3EYHVckn72XH3J" ] },
      { "delegate": "tz1WnfXMPaNTBmH7DBPwqCWs9cPDJdkGBTZ8",
        "reception_time": "2022-01-21T06:54:54.331-00:00",
        "included_in_blocks":
          [ "BMGT5Cvsv7SbCt5CnWYco8iHESjAG2r8KaFxS3EYHVckn72XH3J" ] },
      { "delegate": "tz3ZbP2pM3nwvXztbuMJwJnDvV5xdpU8UkkD",
        "reception_time": "2022-01-21T06:54:54.343-00:00",
        "included_in_blocks":
          [ "BMGT5Cvsv7SbCt5CnWYco8iHESjAG2r8KaFxS3EYHVckn72XH3J" ] },
      { "delegate": "tz3gtoUxdudfBRcNY7iVdKPHCYYX6xdPpoRS",
        "reception_time": "2022-01-21T06:54:54.321-00:00",
        "included_in_blocks":
          [ "BMGT5Cvsv7SbCt5CnWYco8iHESjAG2r8KaFxS3EYHVckn72XH3J" ] },
      { "delegate": "tz1bsdrs36X5BTH83RHUBdUouKLJZK8d2oBa",
        "reception_time": "2022-01-21T06:54:54.297-00:00",
        "included_in_blocks":
          [ "BMGT5Cvsv7SbCt5CnWYco8iHESjAG2r8KaFxS3EYHVckn72XH3J" ] },
      { "delegate": "tz3NxTnke1acr8o3h5y9ytf5awQBGNJUKzVU",
        "reception_time": "2022-01-21T06:54:54.306-00:00",
        "included_in_blocks":
          [ "BMGT5Cvsv7SbCt5CnWYco8iHESjAG2r8KaFxS3EYHVckn72XH3J" ] },
      { "delegate": "tz3QSGPoRp3Kn7n3vY24eYeu3Peuqo45LQ4D",
        "reception_time": "2022-01-21T06:54:54.313-00:00",
        "included_in_blocks":
          [ "BMGT5Cvsv7SbCt5CnWYco8iHESjAG2r8KaFxS3EYHVckn72XH3J" ] },
      { "delegate": "tz1STeamwbp68THcny9zk3LsbG3H36DMvbRK",
        "reception_time": "2022-01-21T06:54:54.078-00:00",
        "included_in_blocks":
          [ "BMGT5Cvsv7SbCt5CnWYco8iHESjAG2r8KaFxS3EYHVckn72XH3J" ] },
      { "delegate": "tz1TXzyaKUA8wsWefdSnyaYFnV2M3vCV7er9",
        "reception_time": "2022-01-21T06:54:54.080-00:00",
        "included_in_blocks":
          [ "BMGT5Cvsv7SbCt5CnWYco8iHESjAG2r8KaFxS3EYHVckn72XH3J" ] } ] }