{ "blocks":
    [ { "hash": "BLo9YrZK7Wvbug1PcYvfCqrHhG2vXKzJNH5mRq6nVdZfok9SLZz",
        "delegate": "tz1NMdMmWZN8QPB8pY4ddncACDg1cHi1xD2e",
        "reception_time": "2022-01-21T09:19:26.540-00:00",
        "timestamp": "2022-01-21T09:19:20Z" } ],
  "endorsements":
    [ { "delegate": "tz1awXW7wuXy21c66vBudMXQVAPgRnqqwgTH" },
      { "delegate": "tz1TRqbYbUf2GyrjErf3hBzgBJPzW8y36qEs" },
      { "delegate": "tz1ZPh7XfUaJXUDvkrBxmS1BjEM1i62hiPpM",
        "reception_time": "2022-01-21T09:19:26.466-00:00",
        "errors":
          [ { "kind": "temporary",
              "id": "proto.011-PtHangz2.prefilter.outdated_endorsement" } ],
        "included_in_blocks":
          [ "BLHnaR7tuSHEiNB1hyo5Z5mbNLVXXaC9ZHXyL3tGoNGcK8NY73H" ] },
      { "delegate": "tz1gUNyn3hmnEWqkusWPzxRaon1cs7ndWh7h",
        "reception_time": "2022-01-21T09:19:26.404-00:00",
        "errors":
          [ { "kind": "temporary",
              "id": "proto.011-PtHangz2.prefilter.outdated_endorsement" } ],
        "included_in_blocks":
          [ "BLHnaR7tuSHEiNB1hyo5Z5mbNLVXXaC9ZHXyL3tGoNGcK8NY73H" ] },
      { "delegate": "tz1VQnqCCqX4K5sP3FNkVSNKTdCAMJDd3E1n",
        "reception_time": "2022-01-21T09:19:26.386-00:00",
        "errors":
          [ { "kind": "temporary",
              "id": "proto.011-PtHangz2.prefilter.outdated_endorsement" } ],
        "included_in_blocks":
          [ "BLHnaR7tuSHEiNB1hyo5Z5mbNLVXXaC9ZHXyL3tGoNGcK8NY73H" ] },
      { "delegate": "tz1irJKkXS2DBWkU1NnmFQx1c1L7pbGg4yhk",
        "reception_time": "2022-01-21T09:19:26.287-00:00",
        "errors":
          [ { "kind": "temporary",
              "id": "proto.011-PtHangz2.prefilter.outdated_endorsement" } ],
        "included_in_blocks":
          [ "BLHnaR7tuSHEiNB1hyo5Z5mbNLVXXaC9ZHXyL3tGoNGcK8NY73H" ] },
      { "delegate": "tz1eEnQhbwf6trb8Q8mPb2RaPkNk2rN7BKi8",
        "reception_time": "2022-01-21T09:19:26.265-00:00",
        "errors":
          [ { "kind": "temporary",
              "id": "proto.011-PtHangz2.prefilter.outdated_endorsement" } ],
        "included_in_blocks":
          [ "BLHnaR7tuSHEiNB1hyo5Z5mbNLVXXaC9ZHXyL3tGoNGcK8NY73H" ] },
      { "delegate": "tz1Lhf4J9Qxoe3DZ2nfe8FGDnvVj7oKjnMY6",
        "reception_time": "2022-01-21T09:19:26.263-00:00",
        "errors":
          [ { "kind": "temporary",
              "id": "proto.011-PtHangz2.prefilter.outdated_endorsement" } ],
        "included_in_blocks":
          [ "BLHnaR7tuSHEiNB1hyo5Z5mbNLVXXaC9ZHXyL3tGoNGcK8NY73H" ] },
      { "delegate": "tz1beersuEDv8Z7ngQ825xfbaJNS2EhXnyHR",
        "reception_time": "2022-01-21T09:19:26.263-00:00",
        "errors":
          [ { "kind": "temporary",
              "id": "proto.011-PtHangz2.prefilter.outdated_endorsement" } ],
        "included_in_blocks":
          [ "BLHnaR7tuSHEiNB1hyo5Z5mbNLVXXaC9ZHXyL3tGoNGcK8NY73H" ] },
      { "delegate": "tz1NMdMmWZN8QPB8pY4ddncACDg1cHi1xD2e",
        "reception_time": "2022-01-21T09:19:26.248-00:00",
        "errors":
          [ { "kind": "temporary",
              "id": "proto.011-PtHangz2.prefilter.outdated_endorsement" } ],
        "included_in_blocks":
          [ "BLHnaR7tuSHEiNB1hyo5Z5mbNLVXXaC9ZHXyL3tGoNGcK8NY73H" ] },
      { "delegate": "tz1XXayQohB8XRXN7kMoHbf2NFwNiH3oMRQQ",
        "reception_time": "2022-01-21T09:19:25.940-00:00",
        "errors":
          [ { "kind": "temporary",
              "id": "proto.011-PtHangz2.prefilter.outdated_endorsement" } ],
        "included_in_blocks":
          [ "BLHnaR7tuSHEiNB1hyo5Z5mbNLVXXaC9ZHXyL3tGoNGcK8NY73H" ] },
      { "delegate": "tz1P2Po7YM526ughEsRbY4oR9zaUPDZjxFrb",
        "reception_time": "2022-01-21T09:19:25.857-00:00",
        "errors":
          [ { "kind": "temporary",
              "id": "proto.011-PtHangz2.prefilter.outdated_endorsement" } ],
        "included_in_blocks":
          [ "BLHnaR7tuSHEiNB1hyo5Z5mbNLVXXaC9ZHXyL3tGoNGcK8NY73H" ] },
      { "delegate": "tz1RjoHc98dBoqaH2jawF62XNKh7YsHwbkEv",
        "reception_time": "2022-01-21T09:19:29.853-00:00",
        "included_in_blocks":
          [ "BLHnaR7tuSHEiNB1hyo5Z5mbNLVXXaC9ZHXyL3tGoNGcK8NY73H" ] },
      { "delegate": "tz1ZcTRk5uxD86EFEn1vvNffWWqJy7q5eVhc",
        "reception_time": "2022-01-21T09:19:29.751-00:00",
        "included_in_blocks":
          [ "BLHnaR7tuSHEiNB1hyo5Z5mbNLVXXaC9ZHXyL3tGoNGcK8NY73H" ] },
      { "delegate": "tz3NExpXn9aPNZPorRE4SdjJ2RGrfbJgMAaV",
        "reception_time": "2022-01-21T09:19:29.891-00:00",
        "included_in_blocks":
          [ "BLHnaR7tuSHEiNB1hyo5Z5mbNLVXXaC9ZHXyL3tGoNGcK8NY73H" ] },
      { "delegate": "tz3UoffC7FG7zfpmvmjUmUeAaHvzdcUvAj6r",
        "reception_time": "2022-01-21T09:19:29.771-00:00",
        "included_in_blocks":
          [ "BLHnaR7tuSHEiNB1hyo5Z5mbNLVXXaC9ZHXyL3tGoNGcK8NY73H" ] },
      { "delegate": "tz1aRoaRhSpRYvFdyvgWLL6TGyRoGF51wDjM",
        "reception_time": "2022-01-21T09:19:29.349-00:00",
        "included_in_blocks":
          [ "BLHnaR7tuSHEiNB1hyo5Z5mbNLVXXaC9ZHXyL3tGoNGcK8NY73H" ] },
      { "delegate": "tz3WMqdzXqRWXwyvj5Hp2H7QEepaUuS7vd9K",
        "reception_time": "2022-01-21T09:19:29.364-00:00",
        "included_in_blocks":
          [ "BLHnaR7tuSHEiNB1hyo5Z5mbNLVXXaC9ZHXyL3tGoNGcK8NY73H" ] },
      { "delegate": "tz1c8TSSGtVtg7ANrNVY7G4KnLn7iKdRnUVk",
        "reception_time": "2022-01-21T09:19:29.303-00:00",
        "included_in_blocks":
          [ "BLHnaR7tuSHEiNB1hyo5Z5mbNLVXXaC9ZHXyL3tGoNGcK8NY73H" ] },
      { "delegate": "tz1M1gA1hgmmLf8VvtAwupbWCkaciQZMFbvi",
        "reception_time": "2022-01-21T09:19:29.132-00:00",
        "included_in_blocks":
          [ "BLHnaR7tuSHEiNB1hyo5Z5mbNLVXXaC9ZHXyL3tGoNGcK8NY73H" ] },
      { "delegate": "tz1T7duV5gZWSTq4YpBGbXNLTfznCLDrFxvs",
        "reception_time": "2022-01-21T09:19:29.015-00:00",
        "included_in_blocks":
          [ "BLHnaR7tuSHEiNB1hyo5Z5mbNLVXXaC9ZHXyL3tGoNGcK8NY73H" ] },
      { "delegate": "tz3RB4aoyjov4KEVRbuhvQ1CKJgBJMWhaeB8",
        "reception_time": "2022-01-21T09:19:29.005-00:00",
        "included_in_blocks":
          [ "BLHnaR7tuSHEiNB1hyo5Z5mbNLVXXaC9ZHXyL3tGoNGcK8NY73H" ] },
      { "delegate": "tz3RDC3Jdn4j15J7bBHZd29EUee9gVB1CxD9",
        "reception_time": "2022-01-21T09:19:28.899-00:00",
        "included_in_blocks":
          [ "BLHnaR7tuSHEiNB1hyo5Z5mbNLVXXaC9ZHXyL3tGoNGcK8NY73H" ] },
      { "delegate": "tz3VEZ4k6a4Wx42iyev6i2aVAptTRLEAivNN",
        "reception_time": "2022-01-21T09:19:28.870-00:00",
        "included_in_blocks":
          [ "BLHnaR7tuSHEiNB1hyo5Z5mbNLVXXaC9ZHXyL3tGoNGcK8NY73H" ] },
      { "delegate": "tz1PeZx7FXy7QRuMREGXGxeipb24RsMMzUNe",
        "reception_time": "2022-01-21T09:19:28.638-00:00",
        "included_in_blocks":
          [ "BLHnaR7tuSHEiNB1hyo5Z5mbNLVXXaC9ZHXyL3tGoNGcK8NY73H" ] },
      { "delegate": "tz1LmaFsWRkjr7QMCx5PtV6xTUz3AmEpKQiF",
        "reception_time": "2022-01-21T09:19:28.535-00:00",
        "included_in_blocks":
          [ "BLHnaR7tuSHEiNB1hyo5Z5mbNLVXXaC9ZHXyL3tGoNGcK8NY73H" ] },
      { "delegate": "tz1SYq214SCBy9naR6cvycQsYcUGpBqQAE8d",
        "reception_time": "2022-01-21T09:19:28.439-00:00",
        "included_in_blocks":
          [ "BLHnaR7tuSHEiNB1hyo5Z5mbNLVXXaC9ZHXyL3tGoNGcK8NY73H" ] },
      { "delegate": "tz2FCNBrERXtaTtNX6iimR1UJ5JSDxvdHM93",
        "reception_time": "2022-01-21T09:19:28.328-00:00",
        "included_in_blocks":
          [ "BLHnaR7tuSHEiNB1hyo5Z5mbNLVXXaC9ZHXyL3tGoNGcK8NY73H" ] },
      { "delegate": "tz1RCFbB9GpALpsZtu6J58sb74dm8qe6XBzv",
        "reception_time": "2022-01-21T09:19:28.224-00:00",
        "included_in_blocks":
          [ "BLHnaR7tuSHEiNB1hyo5Z5mbNLVXXaC9ZHXyL3tGoNGcK8NY73H" ] },
      { "delegate": "tz1Nf6tsK4G6bBqgSQERy4nUtkHNKUVdh7q1",
        "reception_time": "2022-01-21T09:19:28.291-00:00",
        "included_in_blocks":
          [ "BLHnaR7tuSHEiNB1hyo5Z5mbNLVXXaC9ZHXyL3tGoNGcK8NY73H" ] },
      { "delegate": "tz3NDpRj6WBrJPikcPVHRBEjWKxFw3c6eQPS",
        "reception_time": "2022-01-21T09:19:28.289-00:00",
        "included_in_blocks":
          [ "BLHnaR7tuSHEiNB1hyo5Z5mbNLVXXaC9ZHXyL3tGoNGcK8NY73H" ] },
      { "delegate": "tz3gLTu4Yxj8tPAcriQVUdxv6BY9QyvzU1az",
        "reception_time": "2022-01-21T09:19:28.224-00:00",
        "included_in_blocks":
          [ "BLHnaR7tuSHEiNB1hyo5Z5mbNLVXXaC9ZHXyL3tGoNGcK8NY73H" ] },
      { "delegate": "tz1NEKxGEHsFufk87CVZcrqWu8o22qh46GK6",
        "reception_time": "2022-01-21T09:19:28.308-00:00",
        "included_in_blocks":
          [ "BLHnaR7tuSHEiNB1hyo5Z5mbNLVXXaC9ZHXyL3tGoNGcK8NY73H" ] },
      { "delegate": "tz1TEc75UKXv4W5cwi14Na3NtqFD51yKQi7h",
        "reception_time": "2022-01-21T09:19:28.216-00:00",
        "included_in_blocks":
          [ "BLHnaR7tuSHEiNB1hyo5Z5mbNLVXXaC9ZHXyL3tGoNGcK8NY73H" ] },
      { "delegate": "tz1KfEsrtDaA1sX7vdM4qmEPWuSytuqCDp5j",
        "reception_time": "2022-01-21T09:19:28.112-00:00",
        "included_in_blocks":
          [ "BLHnaR7tuSHEiNB1hyo5Z5mbNLVXXaC9ZHXyL3tGoNGcK8NY73H" ] },
      { "delegate": "tz1RQhNh7iB9CZA7i3ifTWNwiGYVffponfbB",
        "reception_time": "2022-01-21T09:19:28.145-00:00",
        "included_in_blocks":
          [ "BLHnaR7tuSHEiNB1hyo5Z5mbNLVXXaC9ZHXyL3tGoNGcK8NY73H" ] },
      { "delegate": "tz1WBfwbT66FC6BTLexc2BoyCCBM9LG7pnVW",
        "reception_time": "2022-01-21T09:19:28.148-00:00",
        "included_in_blocks":
          [ "BLHnaR7tuSHEiNB1hyo5Z5mbNLVXXaC9ZHXyL3tGoNGcK8NY73H" ] },
      { "delegate": "tz1fb7c66UwePkkfDXz4ajFaBP9hVNLdS7JJ",
        "reception_time": "2022-01-21T09:19:28.085-00:00",
        "included_in_blocks":
          [ "BLHnaR7tuSHEiNB1hyo5Z5mbNLVXXaC9ZHXyL3tGoNGcK8NY73H" ] },
      { "delegate": "tz1dNVDWPf3Q59SdJqnjdnu277iyvReiRS9M",
        "reception_time": "2022-01-21T09:19:28.094-00:00",
        "included_in_blocks":
          [ "BLHnaR7tuSHEiNB1hyo5Z5mbNLVXXaC9ZHXyL3tGoNGcK8NY73H" ] },
      { "delegate": "tz1fUyqYH7H4pRHN1roWY17giXhy1RvxjgUV",
        "reception_time": "2022-01-21T09:19:28.063-00:00",
        "included_in_blocks":
          [ "BLHnaR7tuSHEiNB1hyo5Z5mbNLVXXaC9ZHXyL3tGoNGcK8NY73H" ] },
      { "delegate": "tz1ei4WtWEMEJekSv8qDnu9PExG6Q8HgRGr3",
        "reception_time": "2022-01-21T09:19:28.048-00:00",
        "included_in_blocks":
          [ "BLHnaR7tuSHEiNB1hyo5Z5mbNLVXXaC9ZHXyL3tGoNGcK8NY73H" ] },
      { "delegate": "tz3bvNMQ95vfAYtG8193ymshqjSvmxiCUuR5",
        "reception_time": "2022-01-21T09:19:28.036-00:00",
        "included_in_blocks":
          [ "BLHnaR7tuSHEiNB1hyo5Z5mbNLVXXaC9ZHXyL3tGoNGcK8NY73H" ] },
      { "delegate": "tz1fPKAtsYydh4f1wfWNfeNxWYu72TmM48fu",
        "reception_time": "2022-01-21T09:19:27.973-00:00",
        "included_in_blocks":
          [ "BLHnaR7tuSHEiNB1hyo5Z5mbNLVXXaC9ZHXyL3tGoNGcK8NY73H" ] },
      { "delegate": "tz1gfArv665EUkSg2ojMBzcbfwuPxAvqPvjo",
        "reception_time": "2022-01-21T09:19:28.060-00:00",
        "included_in_blocks":
          [ "BLHnaR7tuSHEiNB1hyo5Z5mbNLVXXaC9ZHXyL3tGoNGcK8NY73H" ] },
      { "delegate": "tz1S8MNvuFEUsWgjHvi3AxibRBf388NhT1q2",
        "reception_time": "2022-01-21T09:19:27.961-00:00",
        "included_in_blocks":
          [ "BLHnaR7tuSHEiNB1hyo5Z5mbNLVXXaC9ZHXyL3tGoNGcK8NY73H" ] },
      { "delegate": "tz3bTdwZinP8U1JmSweNzVKhmwafqWmFWRfk",
        "reception_time": "2022-01-21T09:19:27.961-00:00",
        "included_in_blocks":
          [ "BLHnaR7tuSHEiNB1hyo5Z5mbNLVXXaC9ZHXyL3tGoNGcK8NY73H" ] },
      { "delegate": "tz1aqcYgG6NuViML5vdWhohHJBYxcDVLNUsE",
        "reception_time": "2022-01-21T09:19:27.925-00:00",
        "included_in_blocks":
          [ "BLHnaR7tuSHEiNB1hyo5Z5mbNLVXXaC9ZHXyL3tGoNGcK8NY73H" ] },
      { "delegate": "tz1PWCDnz783NNGGQjEFFsHtrcK5yBW4E2rm",
        "reception_time": "2022-01-21T09:19:27.925-00:00",
        "included_in_blocks":
          [ "BLHnaR7tuSHEiNB1hyo5Z5mbNLVXXaC9ZHXyL3tGoNGcK8NY73H" ] },
      { "delegate": "tz1MQMiZHV8q4tTwUMWmS5Y3kaP6J2136iXr",
        "reception_time": "2022-01-21T09:19:27.802-00:00",
        "included_in_blocks":
          [ "BLHnaR7tuSHEiNB1hyo5Z5mbNLVXXaC9ZHXyL3tGoNGcK8NY73H" ] },
      { "delegate": "tz3adcvQaKXTCg12zbninqo3q8ptKKtDFTLv",
        "reception_time": "2022-01-21T09:19:27.948-00:00",
        "included_in_blocks":
          [ "BLHnaR7tuSHEiNB1hyo5Z5mbNLVXXaC9ZHXyL3tGoNGcK8NY73H" ] },
      { "delegate": "tz1SUgyRB8T5jXgXAwS33pgRHAKrafyg87Yc",
        "reception_time": "2022-01-21T09:19:27.916-00:00",
        "included_in_blocks":
          [ "BLHnaR7tuSHEiNB1hyo5Z5mbNLVXXaC9ZHXyL3tGoNGcK8NY73H" ] },
      { "delegate": "tz1VmiY38m3y95HqQLjMwqnMS7sdMfGomzKi",
        "reception_time": "2022-01-21T09:19:27.948-00:00",
        "included_in_blocks":
          [ "BLHnaR7tuSHEiNB1hyo5Z5mbNLVXXaC9ZHXyL3tGoNGcK8NY73H" ] },
      { "delegate": "tz3QCNyySViKHmeSr45kzDxzchys7NiXCWoa",
        "reception_time": "2022-01-21T09:19:27.869-00:00",
        "included_in_blocks":
          [ "BLHnaR7tuSHEiNB1hyo5Z5mbNLVXXaC9ZHXyL3tGoNGcK8NY73H" ] },
      { "delegate": "tz3gtoUxdudfBRcNY7iVdKPHCYYX6xdPpoRS",
        "reception_time": "2022-01-21T09:19:27.916-00:00",
        "included_in_blocks":
          [ "BLHnaR7tuSHEiNB1hyo5Z5mbNLVXXaC9ZHXyL3tGoNGcK8NY73H" ] },
      { "delegate": "tz1UJvHTgpVzcKWhTazGxVcn5wsHru5Gietg",
        "reception_time": "2022-01-21T09:19:27.920-00:00",
        "included_in_blocks":
          [ "BLHnaR7tuSHEiNB1hyo5Z5mbNLVXXaC9ZHXyL3tGoNGcK8NY73H" ] },
      { "delegate": "tz3Zhs2dygr55yHyQyKjntAtY9bgfhLZ4Xj1",
        "reception_time": "2022-01-21T09:19:27.900-00:00",
        "included_in_blocks":
          [ "BLHnaR7tuSHEiNB1hyo5Z5mbNLVXXaC9ZHXyL3tGoNGcK8NY73H" ] },
      { "delegate": "tz3QSGPoRp3Kn7n3vY24eYeu3Peuqo45LQ4D",
        "reception_time": "2022-01-21T09:19:27.860-00:00",
        "included_in_blocks":
          [ "BLHnaR7tuSHEiNB1hyo5Z5mbNLVXXaC9ZHXyL3tGoNGcK8NY73H" ] },
      { "delegate": "tz3iJu5vrKZcsqRPs8yJ61UDoeEXZmtro4qh",
        "reception_time": "2022-01-21T09:19:27.884-00:00",
        "included_in_blocks":
          [ "BLHnaR7tuSHEiNB1hyo5Z5mbNLVXXaC9ZHXyL3tGoNGcK8NY73H" ] },
      { "delegate": "tz1YhNsiRRU8aHNGg7NK3uuP6UDAyacJernB",
        "reception_time": "2022-01-21T09:19:27.862-00:00",
        "included_in_blocks":
          [ "BLHnaR7tuSHEiNB1hyo5Z5mbNLVXXaC9ZHXyL3tGoNGcK8NY73H" ] },
      { "delegate": "tz1aXD7Jigrt3PBYSpHSg5Rr33SexMmmM5Ys",
        "reception_time": "2022-01-21T09:19:27.938-00:00",
        "included_in_blocks":
          [ "BLHnaR7tuSHEiNB1hyo5Z5mbNLVXXaC9ZHXyL3tGoNGcK8NY73H" ] },
      { "delegate": "tz3RKYFsLuQzKBtmYuLNas7uMu3AsYd4QdsA",
        "reception_time": "2022-01-21T09:19:27.832-00:00",
        "included_in_blocks":
          [ "BLHnaR7tuSHEiNB1hyo5Z5mbNLVXXaC9ZHXyL3tGoNGcK8NY73H" ] },
      { "delegate": "tz3S6BBeKgJGXxvLyZ1xzXzMPn11nnFtq5L9",
        "reception_time": "2022-01-21T09:19:27.884-00:00",
        "included_in_blocks":
          [ "BLHnaR7tuSHEiNB1hyo5Z5mbNLVXXaC9ZHXyL3tGoNGcK8NY73H" ] },
      { "delegate": "tz3QT9dHYKDqh563chVa6za8526ys1UKfRfL",
        "reception_time": "2022-01-21T09:19:27.900-00:00",
        "included_in_blocks":
          [ "BLHnaR7tuSHEiNB1hyo5Z5mbNLVXXaC9ZHXyL3tGoNGcK8NY73H" ] },
      { "delegate": "tz3hw2kqXhLUvY65ca1eety2oQTpAvd34R9Q",
        "reception_time": "2022-01-21T09:19:27.802-00:00",
        "included_in_blocks":
          [ "BLHnaR7tuSHEiNB1hyo5Z5mbNLVXXaC9ZHXyL3tGoNGcK8NY73H" ] },
      { "delegate": "tz1Ldzz6k1BHdhuKvAtMRX7h5kJSMHESMHLC",
        "reception_time": "2022-01-21T09:19:27.824-00:00",
        "included_in_blocks":
          [ "BLHnaR7tuSHEiNB1hyo5Z5mbNLVXXaC9ZHXyL3tGoNGcK8NY73H" ] },
      { "delegate": "tz3ZbP2pM3nwvXztbuMJwJnDvV5xdpU8UkkD",
        "reception_time": "2022-01-21T09:19:27.824-00:00",
        "included_in_blocks":
          [ "BLHnaR7tuSHEiNB1hyo5Z5mbNLVXXaC9ZHXyL3tGoNGcK8NY73H" ] },
      { "delegate": "tz3NxTnke1acr8o3h5y9ytf5awQBGNJUKzVU",
        "reception_time": "2022-01-21T09:19:27.285-00:00",
        "included_in_blocks":
          [ "BLHnaR7tuSHEiNB1hyo5Z5mbNLVXXaC9ZHXyL3tGoNGcK8NY73H" ] },
      { "delegate": "tz1Kt4P8BCaP93AEV4eA7gmpRryWt5hznjCP",
        "reception_time": "2022-01-21T09:19:27.040-00:00",
        "included_in_blocks":
          [ "BLHnaR7tuSHEiNB1hyo5Z5mbNLVXXaC9ZHXyL3tGoNGcK8NY73H" ] } ] }