{ "blocks":
    [ { "hash": "BM9NYphWQm92SjR68XLYE6vQWCaidCj9UJrJsdT5xWp56Ntig6i",
        "delegate": "tz1irJKkXS2DBWkU1NnmFQx1c1L7pbGg4yhk",
        "reception_time": "2022-01-21T06:23:16.201-00:00",
        "timestamp": "2022-01-21T06:23:10Z" } ],
  "endorsements":
    [ { "delegate": "tz1awXW7wuXy21c66vBudMXQVAPgRnqqwgTH" },
      { "delegate": "tz1TRqbYbUf2GyrjErf3hBzgBJPzW8y36qEs" },
      { "delegate": "tz1S8e9GgdZG78XJRB3NqabfWeM37GnhZMWQ",
        "reception_time": "2022-01-21T06:23:15.993-00:00",
        "errors":
          [ { "kind": "temporary",
              "id": "proto.011-PtHangz2.prefilter.outdated_endorsement" } ],
        "included_in_blocks":
          [ "BMYpR3Tp7wLry2if1AeynH8tRKBHgGsNKP4eAcHDuUX3eBPk999" ] },
      { "delegate": "tz1W5VkdB5s7ENMESVBtwyt9kyvLqPcUczRT",
        "reception_time": "2022-01-21T06:23:24.173-00:00",
        "included_in_blocks":
          [ "BMYpR3Tp7wLry2if1AeynH8tRKBHgGsNKP4eAcHDuUX3eBPk999" ] },
      { "delegate": "tz1a1J3AGjJTAyBqWWSqFuUazUDV2TtD6hMy",
        "reception_time": "2022-01-21T06:23:23.470-00:00",
        "included_in_blocks":
          [ "BMYpR3Tp7wLry2if1AeynH8tRKBHgGsNKP4eAcHDuUX3eBPk999" ] },
      { "delegate": "tz1NpWrAyDL9k2Lmnyxcgr9xuJakbBxdq7FB",
        "reception_time": "2022-01-21T06:23:21.614-00:00",
        "included_in_blocks":
          [ "BMYpR3Tp7wLry2if1AeynH8tRKBHgGsNKP4eAcHDuUX3eBPk999" ] },
      { "delegate": "tz1S5WxdZR5f9NzsPXhr7L9L1vrEb5spZFur",
        "reception_time": "2022-01-21T06:23:21.176-00:00",
        "included_in_blocks":
          [ "BMYpR3Tp7wLry2if1AeynH8tRKBHgGsNKP4eAcHDuUX3eBPk999" ] },
      { "delegate": "tz1h4ar7F5wC6Ae2cfkrmrRP6nrPk9gGFaxg",
        "reception_time": "2022-01-21T06:23:21.023-00:00",
        "included_in_blocks":
          [ "BMYpR3Tp7wLry2if1AeynH8tRKBHgGsNKP4eAcHDuUX3eBPk999" ] },
      { "delegate": "tz1TcH4Nb3aHNDJ7CGZhU7jgAK1BkSP4Lxds",
        "reception_time": "2022-01-21T06:23:21.036-00:00",
        "included_in_blocks":
          [ "BMYpR3Tp7wLry2if1AeynH8tRKBHgGsNKP4eAcHDuUX3eBPk999" ] },
      { "delegate": "tz1QccGQsmt7WMnbVX9inJQgEuQGeMXddfjp",
        "reception_time": "2022-01-21T06:23:20.073-00:00",
        "included_in_blocks":
          [ "BMYpR3Tp7wLry2if1AeynH8tRKBHgGsNKP4eAcHDuUX3eBPk999" ] },
      { "delegate": "tz1Xsrfv6hn86fp88YfRs6xcKwt2nTqxVZYM",
        "reception_time": "2022-01-21T06:23:20.188-00:00",
        "included_in_blocks":
          [ "BMYpR3Tp7wLry2if1AeynH8tRKBHgGsNKP4eAcHDuUX3eBPk999" ] },
      { "delegate": "tz1g8vkmcde6sWKaG2NN9WKzCkDM6Rziq194",
        "reception_time": "2022-01-21T06:23:19.640-00:00",
        "included_in_blocks":
          [ "BMYpR3Tp7wLry2if1AeynH8tRKBHgGsNKP4eAcHDuUX3eBPk999" ] },
      { "delegate": "tz1P2Po7YM526ughEsRbY4oR9zaUPDZjxFrb",
        "reception_time": "2022-01-21T06:23:19.538-00:00",
        "included_in_blocks":
          [ "BMYpR3Tp7wLry2if1AeynH8tRKBHgGsNKP4eAcHDuUX3eBPk999" ] },
      { "delegate": "tz3NExpXn9aPNZPorRE4SdjJ2RGrfbJgMAaV",
        "reception_time": "2022-01-21T06:23:19.703-00:00",
        "included_in_blocks":
          [ "BMYpR3Tp7wLry2if1AeynH8tRKBHgGsNKP4eAcHDuUX3eBPk999" ] },
      { "delegate": "tz1T7duV5gZWSTq4YpBGbXNLTfznCLDrFxvs",
        "reception_time": "2022-01-21T06:23:19.657-00:00",
        "included_in_blocks":
          [ "BMYpR3Tp7wLry2if1AeynH8tRKBHgGsNKP4eAcHDuUX3eBPk999" ] },
      { "delegate": "tz1dRKU4FQ9QRRQPdaH4zCR6gmCmXfcvcgtB",
        "reception_time": "2022-01-21T06:23:19.551-00:00",
        "included_in_blocks":
          [ "BMYpR3Tp7wLry2if1AeynH8tRKBHgGsNKP4eAcHDuUX3eBPk999" ] },
      { "delegate": "tz3bvNMQ95vfAYtG8193ymshqjSvmxiCUuR5",
        "reception_time": "2022-01-21T06:23:19.057-00:00",
        "included_in_blocks":
          [ "BMYpR3Tp7wLry2if1AeynH8tRKBHgGsNKP4eAcHDuUX3eBPk999" ] },
      { "delegate": "tz1cYufsxHXJcvANhvS55h3aY32a9BAFB494",
        "reception_time": "2022-01-21T06:23:19.066-00:00",
        "included_in_blocks":
          [ "BMYpR3Tp7wLry2if1AeynH8tRKBHgGsNKP4eAcHDuUX3eBPk999" ] },
      { "delegate": "tz1PeZx7FXy7QRuMREGXGxeipb24RsMMzUNe",
        "reception_time": "2022-01-21T06:23:18.847-00:00",
        "included_in_blocks":
          [ "BMYpR3Tp7wLry2if1AeynH8tRKBHgGsNKP4eAcHDuUX3eBPk999" ] },
      { "delegate": "tz3VEZ4k6a4Wx42iyev6i2aVAptTRLEAivNN",
        "reception_time": "2022-01-21T06:23:18.813-00:00",
        "included_in_blocks":
          [ "BMYpR3Tp7wLry2if1AeynH8tRKBHgGsNKP4eAcHDuUX3eBPk999" ] },
      { "delegate": "tz3RDC3Jdn4j15J7bBHZd29EUee9gVB1CxD9",
        "reception_time": "2022-01-21T06:23:18.717-00:00",
        "included_in_blocks":
          [ "BMYpR3Tp7wLry2if1AeynH8tRKBHgGsNKP4eAcHDuUX3eBPk999" ] },
      { "delegate": "tz1Nf6tsK4G6bBqgSQERy4nUtkHNKUVdh7q1",
        "reception_time": "2022-01-21T06:23:18.699-00:00",
        "included_in_blocks":
          [ "BMYpR3Tp7wLry2if1AeynH8tRKBHgGsNKP4eAcHDuUX3eBPk999" ] },
      { "delegate": "tz2FCNBrERXtaTtNX6iimR1UJ5JSDxvdHM93",
        "reception_time": "2022-01-21T06:23:18.659-00:00",
        "included_in_blocks":
          [ "BMYpR3Tp7wLry2if1AeynH8tRKBHgGsNKP4eAcHDuUX3eBPk999" ] },
      { "delegate": "tz3WMqdzXqRWXwyvj5Hp2H7QEepaUuS7vd9K",
        "reception_time": "2022-01-21T06:23:18.583-00:00",
        "included_in_blocks":
          [ "BMYpR3Tp7wLry2if1AeynH8tRKBHgGsNKP4eAcHDuUX3eBPk999" ] },
      { "delegate": "tz1NEKxGEHsFufk87CVZcrqWu8o22qh46GK6",
        "reception_time": "2022-01-21T06:23:18.965-00:00",
        "included_in_blocks":
          [ "BMYpR3Tp7wLry2if1AeynH8tRKBHgGsNKP4eAcHDuUX3eBPk999" ] },
      { "delegate": "tz1aRoaRhSpRYvFdyvgWLL6TGyRoGF51wDjM",
        "reception_time": "2022-01-21T06:23:18.412-00:00",
        "included_in_blocks":
          [ "BMYpR3Tp7wLry2if1AeynH8tRKBHgGsNKP4eAcHDuUX3eBPk999" ] },
      { "delegate": "tz1SYq214SCBy9naR6cvycQsYcUGpBqQAE8d",
        "reception_time": "2022-01-21T06:23:18.245-00:00",
        "included_in_blocks":
          [ "BMYpR3Tp7wLry2if1AeynH8tRKBHgGsNKP4eAcHDuUX3eBPk999" ] },
      { "delegate": "tz3UoffC7FG7zfpmvmjUmUeAaHvzdcUvAj6r",
        "reception_time": "2022-01-21T06:23:18.319-00:00",
        "included_in_blocks":
          [ "BMYpR3Tp7wLry2if1AeynH8tRKBHgGsNKP4eAcHDuUX3eBPk999" ] },
      { "delegate": "tz1RQhNh7iB9CZA7i3ifTWNwiGYVffponfbB",
        "reception_time": "2022-01-21T06:23:18.340-00:00",
        "included_in_blocks":
          [ "BMYpR3Tp7wLry2if1AeynH8tRKBHgGsNKP4eAcHDuUX3eBPk999" ] },
      { "delegate": "tz1VceyYUpq1gk5dtp6jXQRtCtY8hm5DKt72",
        "reception_time": "2022-01-21T06:23:18.158-00:00",
        "included_in_blocks":
          [ "BMYpR3Tp7wLry2if1AeynH8tRKBHgGsNKP4eAcHDuUX3eBPk999" ] },
      { "delegate": "tz1a3T5mRR1XWM1JgydvAqxEwpNs7ktVZuXc",
        "reception_time": "2022-01-21T06:23:18.227-00:00",
        "included_in_blocks":
          [ "BMYpR3Tp7wLry2if1AeynH8tRKBHgGsNKP4eAcHDuUX3eBPk999" ] },
      { "delegate": "tz3NDpRj6WBrJPikcPVHRBEjWKxFw3c6eQPS",
        "reception_time": "2022-01-21T06:23:18.208-00:00",
        "included_in_blocks":
          [ "BMYpR3Tp7wLry2if1AeynH8tRKBHgGsNKP4eAcHDuUX3eBPk999" ] },
      { "delegate": "tz3gLTu4Yxj8tPAcriQVUdxv6BY9QyvzU1az",
        "reception_time": "2022-01-21T06:23:18.184-00:00",
        "included_in_blocks":
          [ "BMYpR3Tp7wLry2if1AeynH8tRKBHgGsNKP4eAcHDuUX3eBPk999" ] },
      { "delegate": "tz1NortRftucvAkD1J58L32EhSVrQEWJCEnB",
        "reception_time": "2022-01-21T06:23:18.038-00:00",
        "included_in_blocks":
          [ "BMYpR3Tp7wLry2if1AeynH8tRKBHgGsNKP4eAcHDuUX3eBPk999" ] },
      { "delegate": "tz1WBfwbT66FC6BTLexc2BoyCCBM9LG7pnVW",
        "reception_time": "2022-01-21T06:23:18.378-00:00",
        "included_in_blocks":
          [ "BMYpR3Tp7wLry2if1AeynH8tRKBHgGsNKP4eAcHDuUX3eBPk999" ] },
      { "delegate": "tz1NSDFKuRyzHxpfG1AMkyCwEiZ52cbR2mRW",
        "reception_time": "2022-01-21T06:23:18.464-00:00",
        "included_in_blocks":
          [ "BMYpR3Tp7wLry2if1AeynH8tRKBHgGsNKP4eAcHDuUX3eBPk999" ] },
      { "delegate": "tz1MGTFJXpQmtxLi8QJ7AuVRgM2L2Qfn9w9i",
        "reception_time": "2022-01-21T06:23:17.993-00:00",
        "included_in_blocks":
          [ "BMYpR3Tp7wLry2if1AeynH8tRKBHgGsNKP4eAcHDuUX3eBPk999" ] },
      { "delegate": "tz1ei4WtWEMEJekSv8qDnu9PExG6Q8HgRGr3",
        "reception_time": "2022-01-21T06:23:18.333-00:00",
        "included_in_blocks":
          [ "BMYpR3Tp7wLry2if1AeynH8tRKBHgGsNKP4eAcHDuUX3eBPk999" ] },
      { "delegate": "tz1fwnfJNgiDACshK9avfRfFbMaXrs3ghoJa",
        "reception_time": "2022-01-21T06:23:18.280-00:00",
        "included_in_blocks":
          [ "BMYpR3Tp7wLry2if1AeynH8tRKBHgGsNKP4eAcHDuUX3eBPk999" ] },
      { "delegate": "tz1MQJPGNMijnXnVoBENFz9rUhaPt3S7rWoz",
        "reception_time": "2022-01-21T06:23:18.017-00:00",
        "included_in_blocks":
          [ "BMYpR3Tp7wLry2if1AeynH8tRKBHgGsNKP4eAcHDuUX3eBPk999" ] },
      { "delegate": "tz1dwu9aYb7CRNq4Y2zAjipdjFuSVKhHS8vA",
        "reception_time": "2022-01-21T06:23:17.787-00:00",
        "included_in_blocks":
          [ "BMYpR3Tp7wLry2if1AeynH8tRKBHgGsNKP4eAcHDuUX3eBPk999" ] },
      { "delegate": "tz1Tnjaxk6tbAeC2TmMApPh8UsrEVQvhHvx5",
        "reception_time": "2022-01-21T06:23:18.217-00:00",
        "included_in_blocks":
          [ "BMYpR3Tp7wLry2if1AeynH8tRKBHgGsNKP4eAcHDuUX3eBPk999" ] },
      { "delegate": "tz1V4qCyvPKZ5UeqdH14HN42rxvNPQfc9UZg",
        "reception_time": "2022-01-21T06:23:18.063-00:00",
        "included_in_blocks":
          [ "BMYpR3Tp7wLry2if1AeynH8tRKBHgGsNKP4eAcHDuUX3eBPk999" ] },
      { "delegate": "tz3RB4aoyjov4KEVRbuhvQ1CKJgBJMWhaeB8",
        "reception_time": "2022-01-21T06:23:17.779-00:00",
        "included_in_blocks":
          [ "BMYpR3Tp7wLry2if1AeynH8tRKBHgGsNKP4eAcHDuUX3eBPk999" ] },
      { "delegate": "tz1S8MNvuFEUsWgjHvi3AxibRBf388NhT1q2",
        "reception_time": "2022-01-21T06:23:17.904-00:00",
        "included_in_blocks":
          [ "BMYpR3Tp7wLry2if1AeynH8tRKBHgGsNKP4eAcHDuUX3eBPk999" ] },
      { "delegate": "tz1MQMiZHV8q4tTwUMWmS5Y3kaP6J2136iXr",
        "reception_time": "2022-01-21T06:23:17.746-00:00",
        "included_in_blocks":
          [ "BMYpR3Tp7wLry2if1AeynH8tRKBHgGsNKP4eAcHDuUX3eBPk999" ] },
      { "delegate": "tz3bTdwZinP8U1JmSweNzVKhmwafqWmFWRfk",
        "reception_time": "2022-01-21T06:23:17.510-00:00",
        "included_in_blocks":
          [ "BMYpR3Tp7wLry2if1AeynH8tRKBHgGsNKP4eAcHDuUX3eBPk999" ] },
      { "delegate": "tz1WCd2jm4uSt4vntk4vSuUWoZQGhLcDuR9q",
        "reception_time": "2022-01-21T06:23:17.485-00:00",
        "included_in_blocks":
          [ "BMYpR3Tp7wLry2if1AeynH8tRKBHgGsNKP4eAcHDuUX3eBPk999" ] },
      { "delegate": "tz1gfArv665EUkSg2ojMBzcbfwuPxAvqPvjo",
        "reception_time": "2022-01-21T06:23:17.826-00:00",
        "included_in_blocks":
          [ "BMYpR3Tp7wLry2if1AeynH8tRKBHgGsNKP4eAcHDuUX3eBPk999" ] },
      { "delegate": "tz1abmz7jiCV2GH2u81LRrGgAFFgvQgiDiaf",
        "reception_time": "2022-01-21T06:23:17.907-00:00",
        "included_in_blocks":
          [ "BMYpR3Tp7wLry2if1AeynH8tRKBHgGsNKP4eAcHDuUX3eBPk999" ] },
      { "delegate": "tz1RCFbB9GpALpsZtu6J58sb74dm8qe6XBzv",
        "reception_time": "2022-01-21T06:23:17.742-00:00",
        "included_in_blocks":
          [ "BMYpR3Tp7wLry2if1AeynH8tRKBHgGsNKP4eAcHDuUX3eBPk999" ] },
      { "delegate": "tz1gUNyn3hmnEWqkusWPzxRaon1cs7ndWh7h",
        "reception_time": "2022-01-21T06:23:17.430-00:00",
        "included_in_blocks":
          [ "BMYpR3Tp7wLry2if1AeynH8tRKBHgGsNKP4eAcHDuUX3eBPk999" ] },
      { "delegate": "tz1VQnqCCqX4K5sP3FNkVSNKTdCAMJDd3E1n",
        "reception_time": "2022-01-21T06:23:17.323-00:00",
        "included_in_blocks":
          [ "BMYpR3Tp7wLry2if1AeynH8tRKBHgGsNKP4eAcHDuUX3eBPk999" ] },
      { "delegate": "tz1fPKAtsYydh4f1wfWNfeNxWYu72TmM48fu",
        "reception_time": "2022-01-21T06:23:17.662-00:00",
        "included_in_blocks":
          [ "BMYpR3Tp7wLry2if1AeynH8tRKBHgGsNKP4eAcHDuUX3eBPk999" ] },
      { "delegate": "tz1Ldzz6k1BHdhuKvAtMRX7h5kJSMHESMHLC",
        "reception_time": "2022-01-21T06:23:17.314-00:00",
        "included_in_blocks":
          [ "BMYpR3Tp7wLry2if1AeynH8tRKBHgGsNKP4eAcHDuUX3eBPk999" ] },
      { "delegate": "tz1TEc75UKXv4W5cwi14Na3NtqFD51yKQi7h",
        "reception_time": "2022-01-21T06:23:18.170-00:00",
        "included_in_blocks":
          [ "BMYpR3Tp7wLry2if1AeynH8tRKBHgGsNKP4eAcHDuUX3eBPk999" ] },
      { "delegate": "tz1bZ8vsMAXmaWEV7FRnyhcuUs2fYMaQ6Hkk",
        "reception_time": "2022-01-21T06:23:17.797-00:00",
        "included_in_blocks":
          [ "BMYpR3Tp7wLry2if1AeynH8tRKBHgGsNKP4eAcHDuUX3eBPk999" ] },
      { "delegate": "tz3QT9dHYKDqh563chVa6za8526ys1UKfRfL",
        "reception_time": "2022-01-21T06:23:17.176-00:00",
        "included_in_blocks":
          [ "BMYpR3Tp7wLry2if1AeynH8tRKBHgGsNKP4eAcHDuUX3eBPk999" ] },
      { "delegate": "tz3S6BBeKgJGXxvLyZ1xzXzMPn11nnFtq5L9",
        "reception_time": "2022-01-21T06:23:17.188-00:00",
        "included_in_blocks":
          [ "BMYpR3Tp7wLry2if1AeynH8tRKBHgGsNKP4eAcHDuUX3eBPk999" ] },
      { "delegate": "tz1TzaNn7wSQSP5gYPXCnNzBCpyMiidCq1PX",
        "reception_time": "2022-01-21T06:23:17.162-00:00",
        "included_in_blocks":
          [ "BMYpR3Tp7wLry2if1AeynH8tRKBHgGsNKP4eAcHDuUX3eBPk999" ] },
      { "delegate": "tz1PWCDnz783NNGGQjEFFsHtrcK5yBW4E2rm",
        "reception_time": "2022-01-21T06:23:17.702-00:00",
        "included_in_blocks":
          [ "BMYpR3Tp7wLry2if1AeynH8tRKBHgGsNKP4eAcHDuUX3eBPk999" ] },
      { "delegate": "tz1VmiY38m3y95HqQLjMwqnMS7sdMfGomzKi",
        "reception_time": "2022-01-21T06:23:17.276-00:00",
        "included_in_blocks":
          [ "BMYpR3Tp7wLry2if1AeynH8tRKBHgGsNKP4eAcHDuUX3eBPk999" ] },
      { "delegate": "tz3iJu5vrKZcsqRPs8yJ61UDoeEXZmtro4qh",
        "reception_time": "2022-01-21T06:23:16.990-00:00",
        "included_in_blocks":
          [ "BMYpR3Tp7wLry2if1AeynH8tRKBHgGsNKP4eAcHDuUX3eBPk999" ] },
      { "delegate": "tz3gtoUxdudfBRcNY7iVdKPHCYYX6xdPpoRS",
        "reception_time": "2022-01-21T06:23:16.977-00:00",
        "included_in_blocks":
          [ "BMYpR3Tp7wLry2if1AeynH8tRKBHgGsNKP4eAcHDuUX3eBPk999" ] },
      { "delegate": "tz3hw2kqXhLUvY65ca1eety2oQTpAvd34R9Q",
        "reception_time": "2022-01-21T06:23:17.005-00:00",
        "included_in_blocks":
          [ "BMYpR3Tp7wLry2if1AeynH8tRKBHgGsNKP4eAcHDuUX3eBPk999" ] },
      { "delegate": "tz3QCNyySViKHmeSr45kzDxzchys7NiXCWoa",
        "reception_time": "2022-01-21T06:23:16.940-00:00",
        "included_in_blocks":
          [ "BMYpR3Tp7wLry2if1AeynH8tRKBHgGsNKP4eAcHDuUX3eBPk999" ] },
      { "delegate": "tz3RKYFsLuQzKBtmYuLNas7uMu3AsYd4QdsA",
        "reception_time": "2022-01-21T06:23:16.933-00:00",
        "included_in_blocks":
          [ "BMYpR3Tp7wLry2if1AeynH8tRKBHgGsNKP4eAcHDuUX3eBPk999" ] },
      { "delegate": "tz3adcvQaKXTCg12zbninqo3q8ptKKtDFTLv",
        "reception_time": "2022-01-21T06:23:17.202-00:00",
        "included_in_blocks":
          [ "BMYpR3Tp7wLry2if1AeynH8tRKBHgGsNKP4eAcHDuUX3eBPk999" ] },
      { "delegate": "tz1aXD7Jigrt3PBYSpHSg5Rr33SexMmmM5Ys",
        "reception_time": "2022-01-21T06:23:17.336-00:00",
        "included_in_blocks":
          [ "BMYpR3Tp7wLry2if1AeynH8tRKBHgGsNKP4eAcHDuUX3eBPk999" ] },
      { "delegate": "tz1TRspM5SeZpaQUhzByXbEvqKF1vnCM2YTK",
        "reception_time": "2022-01-21T06:23:16.990-00:00",
        "included_in_blocks":
          [ "BMYpR3Tp7wLry2if1AeynH8tRKBHgGsNKP4eAcHDuUX3eBPk999" ] },
      { "delegate": "tz1Kt4P8BCaP93AEV4eA7gmpRryWt5hznjCP",
        "reception_time": "2022-01-21T06:23:17.210-00:00",
        "included_in_blocks":
          [ "BMYpR3Tp7wLry2if1AeynH8tRKBHgGsNKP4eAcHDuUX3eBPk999" ] },
      { "delegate": "tz3NxTnke1acr8o3h5y9ytf5awQBGNJUKzVU",
        "reception_time": "2022-01-21T06:23:16.927-00:00",
        "included_in_blocks":
          [ "BMYpR3Tp7wLry2if1AeynH8tRKBHgGsNKP4eAcHDuUX3eBPk999" ] },
      { "delegate": "tz3ZbP2pM3nwvXztbuMJwJnDvV5xdpU8UkkD",
        "reception_time": "2022-01-21T06:23:16.945-00:00",
        "included_in_blocks":
          [ "BMYpR3Tp7wLry2if1AeynH8tRKBHgGsNKP4eAcHDuUX3eBPk999" ] },
      { "delegate": "tz1beersuEDv8Z7ngQ825xfbaJNS2EhXnyHR",
        "reception_time": "2022-01-21T06:23:16.951-00:00",
        "included_in_blocks":
          [ "BMYpR3Tp7wLry2if1AeynH8tRKBHgGsNKP4eAcHDuUX3eBPk999" ] },
      { "delegate": "tz1XfAjZyaLdceHnZxbMYop7g7kWKPut4PR7",
        "reception_time": "2022-01-21T06:23:17.067-00:00",
        "included_in_blocks":
          [ "BMYpR3Tp7wLry2if1AeynH8tRKBHgGsNKP4eAcHDuUX3eBPk999" ] },
      { "delegate": "tz1eEnQhbwf6trb8Q8mPb2RaPkNk2rN7BKi8",
        "reception_time": "2022-01-21T06:23:16.882-00:00",
        "included_in_blocks":
          [ "BMYpR3Tp7wLry2if1AeynH8tRKBHgGsNKP4eAcHDuUX3eBPk999" ] },
      { "delegate": "tz1TXzyaKUA8wsWefdSnyaYFnV2M3vCV7er9",
        "reception_time": "2022-01-21T06:23:16.902-00:00",
        "included_in_blocks":
          [ "BMYpR3Tp7wLry2if1AeynH8tRKBHgGsNKP4eAcHDuUX3eBPk999" ] },
      { "delegate": "tz1STeamwbp68THcny9zk3LsbG3H36DMvbRK",
        "reception_time": "2022-01-21T06:23:16.891-00:00",
        "included_in_blocks":
          [ "BMYpR3Tp7wLry2if1AeynH8tRKBHgGsNKP4eAcHDuUX3eBPk999" ] },
      { "delegate": "tz1MXFrtZoaXckE41bjUCSjAjAap3AFDSr3N",
        "reception_time": "2022-01-21T06:23:16.875-00:00",
        "included_in_blocks":
          [ "BMYpR3Tp7wLry2if1AeynH8tRKBHgGsNKP4eAcHDuUX3eBPk999" ] },
      { "delegate": "tz1iZEKy4LaAjnTmn2RuGDf2iqdAQKnRi8kY",
        "reception_time": "2022-01-21T06:23:16.948-00:00",
        "included_in_blocks":
          [ "BMYpR3Tp7wLry2if1AeynH8tRKBHgGsNKP4eAcHDuUX3eBPk999" ] },
      { "delegate": "tz1irJKkXS2DBWkU1NnmFQx1c1L7pbGg4yhk",
        "reception_time": "2022-01-21T06:23:16.886-00:00",
        "included_in_blocks":
          [ "BMYpR3Tp7wLry2if1AeynH8tRKBHgGsNKP4eAcHDuUX3eBPk999" ] } ] }