{ "blocks":
    [ { "hash": "BLKq638vXYQ1axGswKmapiSx3MC12XcWJQz5aCjx1czmY11wKpo",
        "delegate": "tz1aRoaRhSpRYvFdyvgWLL6TGyRoGF51wDjM",
        "reception_time": "2022-01-21T07:48:16.943-00:00",
        "timestamp": "2022-01-21T07:48:00Z" } ],
  "endorsements":
    [ { "delegate": "tz1awXW7wuXy21c66vBudMXQVAPgRnqqwgTH" },
      { "delegate": "tz1TRqbYbUf2GyrjErf3hBzgBJPzW8y36qEs" },
      { "delegate": "tz1aRoaRhSpRYvFdyvgWLL6TGyRoGF51wDjM",
        "reception_time": "2022-01-21T07:48:16.946-00:00",
        "errors":
          [ { "kind": "temporary",
              "id": "proto.011-PtHangz2.prefilter.outdated_endorsement" } ],
        "included_in_blocks":
          [ "BL6BgzRgRD7fEsqpRwP4em9srXPnx53zHMSGLbobL3sFCtqyXyo" ] },
      { "delegate": "tz1RCFbB9GpALpsZtu6J58sb74dm8qe6XBzv",
        "reception_time": "2022-01-21T07:48:16.821-00:00",
        "errors":
          [ { "kind": "temporary",
              "id": "proto.011-PtHangz2.prefilter.outdated_endorsement" } ],
        "included_in_blocks":
          [ "BL6BgzRgRD7fEsqpRwP4em9srXPnx53zHMSGLbobL3sFCtqyXyo" ] },
      { "delegate": "tz1ei4WtWEMEJekSv8qDnu9PExG6Q8HgRGr3",
        "reception_time": "2022-01-21T07:48:16.489-00:00",
        "errors":
          [ { "kind": "temporary",
              "id": "proto.011-PtHangz2.prefilter.outdated_endorsement" } ],
        "included_in_blocks":
          [ "BL6BgzRgRD7fEsqpRwP4em9srXPnx53zHMSGLbobL3sFCtqyXyo" ] },
      { "delegate": "tz1WBfwbT66FC6BTLexc2BoyCCBM9LG7pnVW",
        "reception_time": "2022-01-21T07:48:16.383-00:00",
        "errors":
          [ { "kind": "temporary",
              "id": "proto.011-PtHangz2.prefilter.outdated_endorsement" } ],
        "included_in_blocks":
          [ "BL6BgzRgRD7fEsqpRwP4em9srXPnx53zHMSGLbobL3sFCtqyXyo" ] },
      { "delegate": "tz1axcnVN9tZnCe4sQQhC6f3tfSEXdjPaXPY",
        "reception_time": "2022-01-21T07:48:16.242-00:00",
        "errors":
          [ { "kind": "temporary",
              "id": "proto.011-PtHangz2.prefilter.outdated_endorsement" } ],
        "included_in_blocks":
          [ "BL6BgzRgRD7fEsqpRwP4em9srXPnx53zHMSGLbobL3sFCtqyXyo" ] },
      { "delegate": "tz1cYqRcjRXSWcs3bjehN21VmBAH2aFMg6Ds",
        "reception_time": "2022-01-21T07:48:16.215-00:00",
        "errors":
          [ { "kind": "temporary",
              "id": "proto.011-PtHangz2.prefilter.outdated_endorsement" } ],
        "included_in_blocks":
          [ "BL6BgzRgRD7fEsqpRwP4em9srXPnx53zHMSGLbobL3sFCtqyXyo" ] },
      { "delegate": "tz3Zhs2dygr55yHyQyKjntAtY9bgfhLZ4Xj1",
        "reception_time": "2022-01-21T07:48:16.119-00:00",
        "errors":
          [ { "kind": "temporary",
              "id": "proto.011-PtHangz2.prefilter.outdated_endorsement" } ],
        "included_in_blocks":
          [ "BL6BgzRgRD7fEsqpRwP4em9srXPnx53zHMSGLbobL3sFCtqyXyo" ] },
      { "delegate": "tz1d6Fx42mYgVFnHUW8T8A7WBfJ6nD9pVok8",
        "reception_time": "2022-01-21T07:48:16.118-00:00",
        "errors":
          [ { "kind": "temporary",
              "id": "proto.011-PtHangz2.prefilter.outdated_endorsement" } ],
        "included_in_blocks":
          [ "BL6BgzRgRD7fEsqpRwP4em9srXPnx53zHMSGLbobL3sFCtqyXyo" ] },
      { "delegate": "tz3RB4aoyjov4KEVRbuhvQ1CKJgBJMWhaeB8",
        "reception_time": "2022-01-21T07:48:16.115-00:00",
        "errors":
          [ { "kind": "temporary",
              "id": "proto.011-PtHangz2.prefilter.outdated_endorsement" } ],
        "included_in_blocks":
          [ "BL6BgzRgRD7fEsqpRwP4em9srXPnx53zHMSGLbobL3sFCtqyXyo" ] },
      { "delegate": "tz3iJu5vrKZcsqRPs8yJ61UDoeEXZmtro4qh",
        "reception_time": "2022-01-21T07:48:16.103-00:00",
        "errors":
          [ { "kind": "temporary",
              "id": "proto.011-PtHangz2.prefilter.outdated_endorsement" } ],
        "included_in_blocks":
          [ "BL6BgzRgRD7fEsqpRwP4em9srXPnx53zHMSGLbobL3sFCtqyXyo" ] },
      { "delegate": "tz1gfArv665EUkSg2ojMBzcbfwuPxAvqPvjo",
        "reception_time": "2022-01-21T07:48:16.033-00:00",
        "errors":
          [ { "kind": "temporary",
              "id": "proto.011-PtHangz2.prefilter.outdated_endorsement" } ],
        "included_in_blocks":
          [ "BL6BgzRgRD7fEsqpRwP4em9srXPnx53zHMSGLbobL3sFCtqyXyo" ] },
      { "delegate": "tz3bvNMQ95vfAYtG8193ymshqjSvmxiCUuR5",
        "reception_time": "2022-01-21T07:48:15.932-00:00",
        "errors":
          [ { "kind": "temporary",
              "id": "proto.011-PtHangz2.prefilter.outdated_endorsement" } ],
        "included_in_blocks":
          [ "BL6BgzRgRD7fEsqpRwP4em9srXPnx53zHMSGLbobL3sFCtqyXyo" ] },
      { "delegate": "tz1PWCDnz783NNGGQjEFFsHtrcK5yBW4E2rm",
        "reception_time": "2022-01-21T07:48:15.834-00:00",
        "errors":
          [ { "kind": "temporary",
              "id": "proto.011-PtHangz2.prefilter.outdated_endorsement" } ],
        "included_in_blocks":
          [ "BL6BgzRgRD7fEsqpRwP4em9srXPnx53zHMSGLbobL3sFCtqyXyo" ] },
      { "delegate": "tz1TRspM5SeZpaQUhzByXbEvqKF1vnCM2YTK",
        "reception_time": "2022-01-21T07:48:15.672-00:00",
        "errors":
          [ { "kind": "temporary",
              "id": "proto.011-PtHangz2.prefilter.outdated_endorsement" } ],
        "included_in_blocks":
          [ "BL6BgzRgRD7fEsqpRwP4em9srXPnx53zHMSGLbobL3sFCtqyXyo" ] },
      { "delegate": "tz1g8vkmcde6sWKaG2NN9WKzCkDM6Rziq194",
        "reception_time": "2022-01-21T07:48:15.645-00:00",
        "errors":
          [ { "kind": "temporary",
              "id": "proto.011-PtHangz2.prefilter.outdated_endorsement" } ],
        "included_in_blocks":
          [ "BL6BgzRgRD7fEsqpRwP4em9srXPnx53zHMSGLbobL3sFCtqyXyo" ] },
      { "delegate": "tz3QCNyySViKHmeSr45kzDxzchys7NiXCWoa",
        "reception_time": "2022-01-21T07:48:15.601-00:00",
        "errors":
          [ { "kind": "temporary",
              "id": "proto.011-PtHangz2.prefilter.outdated_endorsement" } ],
        "included_in_blocks":
          [ "BL6BgzRgRD7fEsqpRwP4em9srXPnx53zHMSGLbobL3sFCtqyXyo" ] },
      { "delegate": "tz3bTdwZinP8U1JmSweNzVKhmwafqWmFWRfk",
        "reception_time": "2022-01-21T07:48:15.562-00:00",
        "errors":
          [ { "kind": "temporary",
              "id": "proto.011-PtHangz2.prefilter.outdated_endorsement" } ],
        "included_in_blocks":
          [ "BL6BgzRgRD7fEsqpRwP4em9srXPnx53zHMSGLbobL3sFCtqyXyo" ] },
      { "delegate": "tz3S6BBeKgJGXxvLyZ1xzXzMPn11nnFtq5L9",
        "reception_time": "2022-01-21T07:48:15.499-00:00",
        "errors":
          [ { "kind": "temporary",
              "id": "proto.011-PtHangz2.prefilter.outdated_endorsement" } ],
        "included_in_blocks":
          [ "BL6BgzRgRD7fEsqpRwP4em9srXPnx53zHMSGLbobL3sFCtqyXyo" ] },
      { "delegate": "tz3QT9dHYKDqh563chVa6za8526ys1UKfRfL",
        "reception_time": "2022-01-21T07:48:15.452-00:00",
        "errors":
          [ { "kind": "temporary",
              "id": "proto.011-PtHangz2.prefilter.outdated_endorsement" } ],
        "included_in_blocks":
          [ "BL6BgzRgRD7fEsqpRwP4em9srXPnx53zHMSGLbobL3sFCtqyXyo" ] },
      { "delegate": "tz1gUNyn3hmnEWqkusWPzxRaon1cs7ndWh7h",
        "reception_time": "2022-01-21T07:48:15.441-00:00",
        "errors":
          [ { "kind": "temporary",
              "id": "proto.011-PtHangz2.prefilter.outdated_endorsement" } ],
        "included_in_blocks":
          [ "BL6BgzRgRD7fEsqpRwP4em9srXPnx53zHMSGLbobL3sFCtqyXyo" ] },
      { "delegate": "tz1beersuEDv8Z7ngQ825xfbaJNS2EhXnyHR",
        "reception_time": "2022-01-21T07:48:15.441-00:00",
        "errors":
          [ { "kind": "temporary",
              "id": "proto.011-PtHangz2.prefilter.outdated_endorsement" } ],
        "included_in_blocks":
          [ "BL6BgzRgRD7fEsqpRwP4em9srXPnx53zHMSGLbobL3sFCtqyXyo" ] },
      { "delegate": "tz1VQnqCCqX4K5sP3FNkVSNKTdCAMJDd3E1n",
        "reception_time": "2022-01-21T07:48:15.437-00:00",
        "errors":
          [ { "kind": "temporary",
              "id": "proto.011-PtHangz2.prefilter.outdated_endorsement" } ],
        "included_in_blocks":
          [ "BL6BgzRgRD7fEsqpRwP4em9srXPnx53zHMSGLbobL3sFCtqyXyo" ] },
      { "delegate": "tz1WCd2jm4uSt4vntk4vSuUWoZQGhLcDuR9q",
        "reception_time": "2022-01-21T07:48:15.435-00:00",
        "errors":
          [ { "kind": "temporary",
              "id": "proto.011-PtHangz2.prefilter.outdated_endorsement" } ],
        "included_in_blocks":
          [ "BL6BgzRgRD7fEsqpRwP4em9srXPnx53zHMSGLbobL3sFCtqyXyo" ] },
      { "delegate": "tz1Kt4P8BCaP93AEV4eA7gmpRryWt5hznjCP",
        "reception_time": "2022-01-21T07:48:15.224-00:00",
        "errors":
          [ { "kind": "temporary",
              "id": "proto.011-PtHangz2.prefilter.outdated_endorsement" } ],
        "included_in_blocks":
          [ "BL6BgzRgRD7fEsqpRwP4em9srXPnx53zHMSGLbobL3sFCtqyXyo" ] },
      { "delegate": "tz1Ldzz6k1BHdhuKvAtMRX7h5kJSMHESMHLC",
        "reception_time": "2022-01-21T07:48:15.077-00:00",
        "errors":
          [ { "kind": "temporary",
              "id": "proto.011-PtHangz2.prefilter.outdated_endorsement" } ],
        "included_in_blocks":
          [ "BL6BgzRgRD7fEsqpRwP4em9srXPnx53zHMSGLbobL3sFCtqyXyo" ] },
      { "delegate": "tz1VmiY38m3y95HqQLjMwqnMS7sdMfGomzKi",
        "reception_time": "2022-01-21T07:48:15.038-00:00",
        "errors":
          [ { "kind": "temporary",
              "id": "proto.011-PtHangz2.prefilter.outdated_endorsement" } ],
        "included_in_blocks":
          [ "BL6BgzRgRD7fEsqpRwP4em9srXPnx53zHMSGLbobL3sFCtqyXyo" ] },
      { "delegate": "tz3NxTnke1acr8o3h5y9ytf5awQBGNJUKzVU",
        "reception_time": "2022-01-21T07:48:14.995-00:00",
        "errors":
          [ { "kind": "temporary",
              "id": "proto.011-PtHangz2.prefilter.outdated_endorsement" } ],
        "included_in_blocks":
          [ "BL6BgzRgRD7fEsqpRwP4em9srXPnx53zHMSGLbobL3sFCtqyXyo" ] },
      { "delegate": "tz3ZbP2pM3nwvXztbuMJwJnDvV5xdpU8UkkD",
        "reception_time": "2022-01-21T07:48:14.980-00:00",
        "errors":
          [ { "kind": "temporary",
              "id": "proto.011-PtHangz2.prefilter.outdated_endorsement" } ],
        "included_in_blocks":
          [ "BL6BgzRgRD7fEsqpRwP4em9srXPnx53zHMSGLbobL3sFCtqyXyo" ] },
      { "delegate": "tz3hw2kqXhLUvY65ca1eety2oQTpAvd34R9Q",
        "reception_time": "2022-01-21T07:48:14.710-00:00",
        "errors":
          [ { "kind": "temporary",
              "id": "proto.011-PtHangz2.prefilter.outdated_endorsement" } ],
        "included_in_blocks":
          [ "BL6BgzRgRD7fEsqpRwP4em9srXPnx53zHMSGLbobL3sFCtqyXyo" ] },
      { "delegate": "tz1eEnQhbwf6trb8Q8mPb2RaPkNk2rN7BKi8",
        "reception_time": "2022-01-21T07:48:14.708-00:00",
        "errors":
          [ { "kind": "temporary",
              "id": "proto.011-PtHangz2.prefilter.outdated_endorsement" } ],
        "included_in_blocks":
          [ "BL6BgzRgRD7fEsqpRwP4em9srXPnx53zHMSGLbobL3sFCtqyXyo" ] },
      { "delegate": "tz1TXzyaKUA8wsWefdSnyaYFnV2M3vCV7er9",
        "reception_time": "2022-01-21T07:48:14.705-00:00",
        "errors":
          [ { "kind": "temporary",
              "id": "proto.011-PtHangz2.prefilter.outdated_endorsement" } ],
        "included_in_blocks":
          [ "BL6BgzRgRD7fEsqpRwP4em9srXPnx53zHMSGLbobL3sFCtqyXyo" ] },
      { "delegate": "tz1P2Po7YM526ughEsRbY4oR9zaUPDZjxFrb",
        "reception_time": "2022-01-21T07:48:14.586-00:00",
        "errors":
          [ { "kind": "temporary",
              "id": "proto.011-PtHangz2.prefilter.outdated_endorsement" } ],
        "included_in_blocks":
          [ "BL6BgzRgRD7fEsqpRwP4em9srXPnx53zHMSGLbobL3sFCtqyXyo" ] },
      { "delegate": "tz1irJKkXS2DBWkU1NnmFQx1c1L7pbGg4yhk",
        "reception_time": "2022-01-21T07:48:14.488-00:00",
        "errors":
          [ { "kind": "temporary",
              "id": "proto.011-PtHangz2.prefilter.outdated_endorsement" } ],
        "included_in_blocks":
          [ "BL6BgzRgRD7fEsqpRwP4em9srXPnx53zHMSGLbobL3sFCtqyXyo" ] },
      { "delegate": "tz1STeamwbp68THcny9zk3LsbG3H36DMvbRK",
        "reception_time": "2022-01-21T07:48:14.456-00:00",
        "errors":
          [ { "kind": "temporary",
              "id": "proto.011-PtHangz2.prefilter.outdated_endorsement" } ],
        "included_in_blocks":
          [ "BL6BgzRgRD7fEsqpRwP4em9srXPnx53zHMSGLbobL3sFCtqyXyo" ] },
      { "delegate": "tz1S8e9GgdZG78XJRB3NqabfWeM37GnhZMWQ",
        "reception_time": "2022-01-21T07:48:13.845-00:00",
        "errors":
          [ { "kind": "temporary",
              "id": "proto.011-PtHangz2.prefilter.outdated_endorsement" } ],
        "included_in_blocks":
          [ "BL6BgzRgRD7fEsqpRwP4em9srXPnx53zHMSGLbobL3sFCtqyXyo" ] },
      { "delegate": "tz1Z9M4biBHSiH38k5ciRMjR5bgk89yEgLTz",
        "reception_time": "2022-01-21T07:48:29.704-00:00",
        "included_in_blocks":
          [ "BL6BgzRgRD7fEsqpRwP4em9srXPnx53zHMSGLbobL3sFCtqyXyo" ] },
      { "delegate": "tz1NfwaFPNcQi3icf37Ybz7bbqDmVmarFWtP",
        "reception_time": "2022-01-21T07:48:28.578-00:00",
        "included_in_blocks":
          [ "BL6BgzRgRD7fEsqpRwP4em9srXPnx53zHMSGLbobL3sFCtqyXyo" ] },
      { "delegate": "tz2FCNBrERXtaTtNX6iimR1UJ5JSDxvdHM93",
        "reception_time": "2022-01-21T07:48:23.601-00:00",
        "included_in_blocks":
          [ "BL6BgzRgRD7fEsqpRwP4em9srXPnx53zHMSGLbobL3sFCtqyXyo" ] },
      { "delegate": "tz1PeZx7FXy7QRuMREGXGxeipb24RsMMzUNe",
        "reception_time": "2022-01-21T07:48:23.601-00:00",
        "included_in_blocks":
          [ "BL6BgzRgRD7fEsqpRwP4em9srXPnx53zHMSGLbobL3sFCtqyXyo" ] },
      { "delegate": "tz1aJS7Pk9uWR3wWyFf1i3RwhYxN84G7stom",
        "reception_time": "2022-01-21T07:48:23.601-00:00",
        "included_in_blocks":
          [ "BL6BgzRgRD7fEsqpRwP4em9srXPnx53zHMSGLbobL3sFCtqyXyo" ] },
      { "delegate": "tz3NDpRj6WBrJPikcPVHRBEjWKxFw3c6eQPS",
        "reception_time": "2022-01-21T07:48:20.686-00:00",
        "included_in_blocks":
          [ "BL6BgzRgRD7fEsqpRwP4em9srXPnx53zHMSGLbobL3sFCtqyXyo" ] },
      { "delegate": "tz1RjoHc98dBoqaH2jawF62XNKh7YsHwbkEv",
        "reception_time": "2022-01-21T07:48:20.233-00:00",
        "included_in_blocks":
          [ "BL6BgzRgRD7fEsqpRwP4em9srXPnx53zHMSGLbobL3sFCtqyXyo" ] },
      { "delegate": "tz1cM8Xc7ZP1TrjkTeKq4PeRhtbnwXSBR6Sw",
        "reception_time": "2022-01-21T07:48:19.907-00:00",
        "included_in_blocks":
          [ "BL6BgzRgRD7fEsqpRwP4em9srXPnx53zHMSGLbobL3sFCtqyXyo" ] },
      { "delegate": "tz1Nf6tsK4G6bBqgSQERy4nUtkHNKUVdh7q1",
        "reception_time": "2022-01-21T07:48:19.182-00:00",
        "included_in_blocks":
          [ "BL6BgzRgRD7fEsqpRwP4em9srXPnx53zHMSGLbobL3sFCtqyXyo" ] },
      { "delegate": "tz1T7duV5gZWSTq4YpBGbXNLTfznCLDrFxvs",
        "reception_time": "2022-01-21T07:48:19.193-00:00",
        "included_in_blocks":
          [ "BL6BgzRgRD7fEsqpRwP4em9srXPnx53zHMSGLbobL3sFCtqyXyo" ] },
      { "delegate": "tz1NEKxGEHsFufk87CVZcrqWu8o22qh46GK6",
        "reception_time": "2022-01-21T07:48:19.185-00:00",
        "included_in_blocks":
          [ "BL6BgzRgRD7fEsqpRwP4em9srXPnx53zHMSGLbobL3sFCtqyXyo" ] },
      { "delegate": "tz1KfEsrtDaA1sX7vdM4qmEPWuSytuqCDp5j",
        "reception_time": "2022-01-21T07:48:19.193-00:00",
        "included_in_blocks":
          [ "BL6BgzRgRD7fEsqpRwP4em9srXPnx53zHMSGLbobL3sFCtqyXyo" ] },
      { "delegate": "tz1iEWcNL383qiDJ3Q3qt5W2T4aSKUbEU4An",
        "reception_time": "2022-01-21T07:48:19.176-00:00",
        "included_in_blocks":
          [ "BL6BgzRgRD7fEsqpRwP4em9srXPnx53zHMSGLbobL3sFCtqyXyo" ] },
      { "delegate": "tz1SYq214SCBy9naR6cvycQsYcUGpBqQAE8d",
        "reception_time": "2022-01-21T07:48:19.169-00:00",
        "included_in_blocks":
          [ "BL6BgzRgRD7fEsqpRwP4em9srXPnx53zHMSGLbobL3sFCtqyXyo" ] },
      { "delegate": "tz3NExpXn9aPNZPorRE4SdjJ2RGrfbJgMAaV",
        "reception_time": "2022-01-21T07:48:19.135-00:00",
        "included_in_blocks":
          [ "BL6BgzRgRD7fEsqpRwP4em9srXPnx53zHMSGLbobL3sFCtqyXyo" ] },
      { "delegate": "tz3VEZ4k6a4Wx42iyev6i2aVAptTRLEAivNN",
        "reception_time": "2022-01-21T07:48:19.146-00:00",
        "included_in_blocks":
          [ "BL6BgzRgRD7fEsqpRwP4em9srXPnx53zHMSGLbobL3sFCtqyXyo" ] },
      { "delegate": "tz3UoffC7FG7zfpmvmjUmUeAaHvzdcUvAj6r",
        "reception_time": "2022-01-21T07:48:19.158-00:00",
        "included_in_blocks":
          [ "BL6BgzRgRD7fEsqpRwP4em9srXPnx53zHMSGLbobL3sFCtqyXyo" ] },
      { "delegate": "tz1S8MNvuFEUsWgjHvi3AxibRBf388NhT1q2",
        "reception_time": "2022-01-21T07:48:19.146-00:00",
        "included_in_blocks":
          [ "BL6BgzRgRD7fEsqpRwP4em9srXPnx53zHMSGLbobL3sFCtqyXyo" ] },
      { "delegate": "tz1dRKU4FQ9QRRQPdaH4zCR6gmCmXfcvcgtB",
        "reception_time": "2022-01-21T07:48:19.158-00:00",
        "included_in_blocks":
          [ "BL6BgzRgRD7fEsqpRwP4em9srXPnx53zHMSGLbobL3sFCtqyXyo" ] },
      { "delegate": "tz3gtoUxdudfBRcNY7iVdKPHCYYX6xdPpoRS",
        "reception_time": "2022-01-21T07:48:18.762-00:00",
        "included_in_blocks":
          [ "BL6BgzRgRD7fEsqpRwP4em9srXPnx53zHMSGLbobL3sFCtqyXyo" ] },
      { "delegate": "tz1iPHM2Xx2hwmzcr1EG1zzrV6oKafVoA91m",
        "reception_time": "2022-01-21T07:48:19.118-00:00",
        "included_in_blocks":
          [ "BL6BgzRgRD7fEsqpRwP4em9srXPnx53zHMSGLbobL3sFCtqyXyo" ] },
      { "delegate": "tz3RDC3Jdn4j15J7bBHZd29EUee9gVB1CxD9",
        "reception_time": "2022-01-21T07:48:19.125-00:00",
        "included_in_blocks":
          [ "BL6BgzRgRD7fEsqpRwP4em9srXPnx53zHMSGLbobL3sFCtqyXyo" ] },
      { "delegate": "tz3WMqdzXqRWXwyvj5Hp2H7QEepaUuS7vd9K",
        "reception_time": "2022-01-21T07:48:18.441-00:00",
        "included_in_blocks":
          [ "BL6BgzRgRD7fEsqpRwP4em9srXPnx53zHMSGLbobL3sFCtqyXyo" ] },
      { "delegate": "tz3QSGPoRp3Kn7n3vY24eYeu3Peuqo45LQ4D",
        "reception_time": "2022-01-21T07:48:18.777-00:00",
        "included_in_blocks":
          [ "BL6BgzRgRD7fEsqpRwP4em9srXPnx53zHMSGLbobL3sFCtqyXyo" ] },
      { "delegate": "tz1iZEKy4LaAjnTmn2RuGDf2iqdAQKnRi8kY",
        "reception_time": "2022-01-21T07:48:19.115-00:00",
        "included_in_blocks":
          [ "BL6BgzRgRD7fEsqpRwP4em9srXPnx53zHMSGLbobL3sFCtqyXyo" ] } ] }